"The table details the residue variety in % for each position in the query sequence."
"Each column shows the % for that amino-acid, found in position ('pos') in the MSA."
"In case there are residues which are not a standard amino-acid in the MSA, they are represented under column 'OTHER'"

pos,A,C,D,E,F,G,H,I,K,L,M,N,P,Q,R,S,T,V,W,Y,OTHER,MAX AA,ConSurf Grade
1,,,,,,,,,,28.571,42.857,,,,,,,28.571,,,,M 42.857,5
2,,,,,,,,,96.269,,,,,,3.731,,,,,,,K 96.269,9
3,2.239,,4.478,2.239,,,,,2.985,2.985,1.493,14.925,,3.731,2.985,20.896,38.806,1.493,,0.746,,T 38.806,5
4,4.082,0.680,,12.245,,0.680,,0.680,1.361,,1.361,0.680,,3.401,2.041,66.667,4.762,1.361,,,,S 66.667,6
5,,,,,,,,,,,,,,,,,,,100.000,,,W 100.000,9
6,,,,,,,,,,,,,97.973,0.676,,0.676,0.676,,,,,P 97.973,9
7,,,1.351,95.946,,0.676,0.676,,0.676,,,,,,,,0.676,,,,,E 95.946,9
8,,,,,0.671,,,,,69.799,,,,,,,0.671,28.859,,,,L 69.799,7
9,1.342,,,1.342,,,,2.685,2.685,12.081,2.685,,,,,,1.342,75.839,,,,V 75.839,7
10,,,,,0.671,98.658,,,,,,,,,0.671,,,,,,,G 98.658,9
11,7.333,1.333,,10.667,0.667,,,2.000,12.667,23.333,8.667,,,0.667,4.000,0.667,8.000,19.333,0.667,,,L 23.333,1
12,1.333,1.333,4.667,2.000,,0.667,0.667,,5.333,0.667,1.333,20.667,16.667,4.667,0.667,22.667,16.667,,,,,S 22.667,4
13,31.333,,,1.333,,29.333,,10.000,0.667,0.667,0.667,,1.333,,,6.000,4.000,14.667,,,,A 31.333,5
14,2.667,,9.333,46.667,,1.333,1.333,,18.000,1.333,,0.667,0.667,3.333,1.333,3.333,9.333,0.667,,,,E 46.667,4
15,8.000,,4.667,45.333,0.667,,0.667,1.333,4.667,8.000,0.667,,1.333,2.667,,1.333,5.333,10.000,0.667,4.667,,E 45.333,5
16,99.333,,,,,,,,,,,,,,,,0.667,,,,,A 99.333,9
17,21.477,,,18.121,,,,,46.309,,,,,0.671,4.698,,3.356,5.369,,,,K 46.309,6
18,17.333,,,18.667,,1.333,0.667,0.667,26.667,0.667,1.333,1.333,1.333,6.667,8.000,5.333,6.667,1.333,,2.000,,K 26.667,3
19,3.333,,,,0.667,,,29.333,20.667,1.333,,,,4.000,5.333,1.333,14.667,18.667,0.667,,,I 29.333,4
20,,,,,,,,96.000,,0.667,,,,,,,,3.333,,,,I 96.000,9
21,2.667,,0.667,30.000,0.667,2.000,,,20.000,28.667,2.667,0.667,,4.000,4.667,1.333,0.667,1.333,,,,E 30.000,5
22,9.333,,0.667,12.667,,1.333,2.667,,35.333,,,0.667,,4.667,22.667,6.000,3.333,0.667,,,,K 35.333,4
23,0.667,,44.000,50.667,,0.667,0.667,,0.667,,,0.667,,2.000,,,,,,,,E 50.667,8
24,0.667,1.333,0.667,,1.333,,0.667,1.333,18.667,,12.667,38.667,,,22.667,0.667,,,,0.667,,N 38.667,7
25,0.667,,,1.333,,0.667,,,1.333,,0.667,0.667,84.667,,2.667,5.333,2.000,,,,,P 84.667,6
26,2.000,0.667,38.667,12.000,2.000,6.000,1.333,,6.000,4.000,0.667,10.000,,,5.333,6.667,1.333,,,3.333,,D 38.667,2
27,24.667,0.667,0.667,,,,,4.667,,24.000,,,0.667,,,0.667,,44.000,,,,V 44.000,6
28,4.667,,26.667,8.000,0.667,2.667,6.000,0.667,10.000,,,10.000,,9.333,4.667,4.000,10.000,0.667,0.667,1.333,,D 26.667,1
29,22.667,1.333,1.333,,2.000,1.333,0.667,30.667,0.667,2.000,,4.000,1.333,,,0.667,2.000,29.333,,,,I 30.667,6
30,1.333,,2.667,10.000,3.333,0.667,4.000,18.000,2.000,2.667,0.667,3.333,,13.333,2.667,0.667,2.000,31.333,0.667,0.667,,V 31.333,1
31,0.667,,,,0.667,,0.667,24.000,,2.000,1.333,1.333,1.333,,,0.667,2.000,64.667,,0.667,,V 64.667,7
32,2.000,0.667,,,0.667,,,14.667,,42.667,0.667,,,1.333,0.667,,,36.667,,,,L 42.667,4
33,1.333,,0.667,3.333,,1.333,0.667,,4.667,19.333,0.667,,61.333,2.000,1.333,1.333,1.333,0.667,,,,P 61.333,4
34,9.333,,9.333,21.333,0.667,0.667,0.667,2.000,3.333,2.000,1.333,3.333,15.333,4.667,,2.667,0.667,22.667,,,,V 22.667,2
35,,,12.667,,,77.333,1.333,,0.667,0.667,,6.667,,0.667,,,,,,,,G 77.333,7
36,12.667,0.667,0.667,0.667,,1.333,2.000,0.667,,,3.333,1.333,,1.333,1.333,47.333,23.333,0.667,,2.667,,S 47.333,4
37,7.333,0.667,,,17.333,2.667,0.667,12.000,,3.333,8.000,0.667,35.333,0.667,0.667,4.000,0.667,5.333,,0.667,,P 35.333,1
38,2.667,,,,0.667,2.000,,3.333,1.333,6.000,3.333,,,,,,3.333,75.333,2.000,,,V 75.333,7
39,,,,,0.667,,,2.667,,2.000,,,6.667,0.667,,2.000,83.333,1.333,,0.667,,T 83.333,8
40,13.333,,2.000,3.333,2.000,2.000,2.000,0.667,8.667,11.333,21.333,0.667,7.333,8.667,6.000,2.000,7.333,,,1.333,,M 21.333,1
41,0.667,0.667,84.000,9.333,,3.333,,,,,,2.000,,,,,,,,,,D 84.000,8
42,1.333,0.667,,,51.333,,,3.333,,10.667,,,0.667,,0.667,,,2.000,0.667,28.667,,F 51.333,2
43,,4.000,8.000,0.667,,,0.667,,2.000,0.667,,20.667,,0.667,58.000,2.667,,1.333,,0.667,,R 58.000,5
44,1.333,33.333,3.333,4.000,4.667,,,4.667,0.667,5.333,,0.667,20.667,0.667,1.333,8.000,9.333,1.333,0.667,,,C 33.333,1
45,1.333,,35.333,6.000,,5.333,2.000,,9.333,0.667,,30.667,,3.333,2.667,0.667,2.000,,,0.667,,D 35.333,4
46,,,,,,0.667,0.667,,,,,,,,98.667,,,,,,,R 98.667,9
47,0.667,,,,,,,,,1.333,,,,,,,,98.000,,,,V 98.000,9
48,,0.671,,,2.013,,2.013,0.671,,,,,,1.342,80.537,,,1.342,10.738,0.671,,R 80.537,7
49,,,,,,,,26.846,,26.174,,,,,,,,46.980,,,,V 46.980,6
50,2.013,,,,53.691,,0.671,2.685,,1.342,,,0.671,,4.027,1.342,,2.685,24.161,6.711,,F 53.691,5
51,1.351,,2.027,,2.027,,2.027,10.811,,2.027,,,,,,,0.676,77.703,,1.351,,V 77.703,7
52,1.361,,66.667,2.721,,2.041,0.680,,0.680,,,23.810,,,,0.680,1.361,,,,,D 66.667,6
53,5.882,5.042,4.202,16.807,,5.042,,5.882,11.765,3.361,0.840,3.361,2.521,1.681,10.924,14.286,5.042,3.361,,,,E 16.807,1
54,6.087,1.739,9.565,4.348,2.609,0.870,3.478,0.870,5.217,11.304,,20.870,,1.739,3.478,15.652,5.217,,,6.957,,N 20.870,2
55,3.478,2.609,16.522,0.870,,50.435,0.870,,,,,10.435,,1.739,8.696,2.609,0.870,0.870,,,,G 50.435,1
56,2.113,0.704,2.113,,3.521,,,23.944,17.606,7.042,0.704,7.042,,2.817,2.817,1.408,19.014,7.042,,2.113,,I 23.944,3
57,,,,,,,,5.674,,2.128,,,,,,,,92.199,,,,V 92.199,9
58,35.252,,,,,2.158,,7.194,2.878,0.719,,1.439,,0.719,0.719,2.158,11.511,33.094,,2.158,,A 35.252,4
59,1.449,,7.246,15.217,,,,,17.391,2.174,0.725,4.348,1.449,21.014,19.565,2.899,2.899,1.449,0.725,0.725,0.72463768115942,Q 21.014,1
60,9.420,,,1.449,,,,13.043,1.449,0.725,0.725,0.725,2.899,,,0.725,28.986,39.855,,,,V 39.855,4
61,0.741,,,,,,,,,,,,98.519,,,0.741,,,,,,P 98.519,9
62,3.759,0.752,,,0.752,0.752,5.263,7.519,12.030,0.752,3.008,,0.752,6.767,28.571,6.767,12.782,9.774,,,,R 28.571,1
63,5.556,,,,,,,57.143,,3.175,,,,,,0.794,2.381,30.952,,,,I 57.143,6
64,0.877,,,,,99.123,,,,,,,,,,,,,,,,G 99.123,9
