"The table details the residue variety in % for each position in the query sequence."
"Each column shows the % for that amino-acid, found in position ('pos') in the MSA."
"In case there are residues which are not a standard amino-acid in the MSA, they are represented under column 'OTHER'"

pos,A,C,D,E,F,G,H,I,K,L,M,N,P,Q,R,S,T,V,W,Y,OTHER,MAX AA,ConSurf Grade
1,,,,,,,,,,,90.909,,,9.091,,,,,,,,M 90.909,6
2,,,,,,,,,,100.000,,,,,,,,,,,,L 100.000,7
3,,,,,,,,,27.273,,,18.182,,,,45.455,9.091,,,,,S 45.455,1
4,,,,,,69.231,7.692,7.692,,,,7.692,,,,7.692,,,,,,G 69.231,1
5,,,,,6.250,,,18.750,,,,,,,,,,75.000,,,,V 75.000,4
6,,,,,5.000,5.000,,,,45.000,5.000,,,,,,,,40.000,,,L 45.000,1
7,4.545,4.545,,,18.182,,,13.636,4.545,31.818,,,,,,,,4.545,18.182,,,L 31.818,1
8,,,,,4.167,,,20.833,,70.833,,,,,,4.167,,,,,,L 70.833,5
9,3.333,3.333,,,10.000,3.333,,,6.667,10.000,,3.333,3.333,,,40.000,,3.333,13.333,,,S 40.000,1
10,6.061,6.061,,,6.061,,,18.182,,18.182,,,,,,12.121,,30.303,,3.030,,V 30.303,1
11,5.714,,,,8.571,,,17.143,,37.143,2.857,,,,,8.571,5.714,14.286,,,,L 37.143,1
12,8.108,,,,,2.703,,,,48.649,,2.703,2.703,,,5.405,27.027,2.703,,,,L 48.649,1
13,12.821,,,,5.128,,,2.564,,30.769,2.564,,,,2.564,2.564,,41.026,,,,V 41.026,1
14,21.429,2.381,,,2.381,,2.381,7.143,,11.905,,2.381,,,,19.048,16.667,14.286,,,,A 21.429,1
15,25.581,11.628,,,,11.628,,,,4.651,,,,,,37.209,4.651,2.326,,2.326,,S 37.209,3
16,10.870,,8.696,,2.174,,,13.043,,19.565,,,,10.870,,8.696,19.565,6.522,,,,LT 19.565,1
17,8.000,2.000,,,8.000,2.000,,18.000,,28.000,4.000,,12.000,,,6.000,,12.000,,,,L 28.000,1
18,3.448,5.172,,6.897,3.448,1.724,,3.448,3.448,8.621,,,6.897,5.172,1.724,20.690,15.517,8.621,5.172,,,S 20.690,1
19,12.500,,,6.250,1.562,3.125,,3.125,,1.562,,,1.562,9.375,1.562,12.500,18.750,21.875,,6.250,,V 21.875,1
20,6.849,,,46.575,,2.740,,,4.110,2.740,,1.370,1.370,20.548,,6.849,5.479,1.370,,,,E 46.575,2
21,5.618,1.124,2.247,,1.124,1.124,,,,1.124,16.854,2.247,5.618,,,25.843,34.831,2.247,,,,T 34.831,4
22,2.198,,1.099,3.297,9.890,7.692,,5.495,6.593,6.593,,,1.099,,39.560,10.989,,1.099,,4.396,,R 39.560,1
23,3.093,,12.371,10.309,,5.155,,,11.340,,,7.216,23.711,1.031,1.031,21.649,2.062,1.031,,,,P 23.711,2
24,2.062,,1.031,6.186,1.031,,4.124,2.062,,1.031,2.062,4.124,28.866,,3.093,21.649,12.371,7.216,,3.093,,P 28.866,1
25,7.843,,0.980,,0.980,0.980,0.980,23.529,0.980,2.941,0.980,,2.941,0.980,0.980,7.843,13.725,11.765,,21.569,,I 23.529,1
26,1.770,,8.850,1.770,,18.584,,0.885,15.929,0.885,0.885,,27.434,,13.274,5.310,0.885,3.540,,,,P 27.434,3
27,0.840,,16.807,37.815,,11.765,,15.126,,5.042,4.202,,,,,1.681,3.361,3.361,,,,E 37.815,5
28,2.190,,6.569,2.190,0.730,,,37.956,,5.839,0.730,,8.029,0.730,,15.328,8.029,9.489,,2.190,,I 37.956,2
29,,100.000,,,,,,,,,,,,,,,,,,,,C 100.000,9
30,,,11.679,12.409,5.839,0.730,,,8.029,0.730,0.730,,41.606,7.299,6.569,,1.460,2.920,,,,P 41.606,4
31,3.378,,3.378,8.784,,4.730,0.676,6.757,2.027,2.027,3.378,12.162,1.351,4.730,6.081,24.324,13.514,2.703,,,,S 24.324,1
32,13.605,,0.680,1.361,0.680,10.204,2.041,4.762,0.680,25.170,1.361,0.680,12.925,1.361,9.524,3.401,2.721,8.844,,,,L 25.170,1
33,,100.000,,,,,,,,,,,,,,,,,,,,C 100.000,9
34,8.784,,2.703,,1.351,0.676,3.378,2.703,,4.730,2.027,3.378,5.405,1.351,,28.378,23.649,7.432,,4.054,,S 28.378,1
35,,99.324,,,,,,,,0.676,,,,,,,,,,,,C 99.324,9
36,,,3.378,37.838,0.676,0.676,2.703,0.676,4.054,,4.054,24.324,1.351,1.351,,5.405,10.135,2.703,,0.676,,E 37.838,3
37,4.762,,3.401,34.694,,0.680,0.680,,,26.531,,3.401,1.361,,,16.327,2.041,6.122,,,,E 34.694,3
38,1.361,,,,,0.680,,6.803,29.932,0.680,1.361,5.442,8.163,0.680,12.925,20.408,4.762,6.803,,,,K 29.932,3
39,,,48.649,39.189,0.676,0.676,,0.676,,2.703,,2.027,,0.676,1.351,2.027,,1.351,,,,D 48.649,6
40,4.730,,0.676,,1.351,35.135,1.351,2.027,,21.622,0.676,14.189,,1.351,,15.541,,1.351,,,,G 35.135,3
41,1.351,,4.730,,0.676,43.243,,20.270,,2.703,0.676,,,,,1.351,5.405,19.595,,,,G 43.243,4
42,,,,,10.667,,,2.667,,77.333,4.667,,,1.333,,0.667,0.667,2.000,,,,L 77.333,5
43,0.667,,,,,0.667,13.333,4.000,0.667,12.000,0.667,27.333,,0.667,0.667,4.000,24.000,,,11.333,,N 27.333,5
44,1.333,,,,,,,28.667,,6.000,8.667,,,,,,0.667,54.667,,,,V 54.667,6
45,,,4.667,,,1.333,14.000,,0.667,0.667,,61.333,,2.667,,14.667,,,,,,N 61.333,7
46,,99.333,,,,,,,,,,,,,0.667,,,,,,,C 99.333,9
47,,,7.333,49.333,,0.667,0.667,,11.333,,,1.333,,29.333,,,,,,,,E 49.333,7
48,0.667,,5.333,43.333,,4.000,,,12.000,,,21.333,,3.333,1.333,8.667,,,,,,E 43.333,4
49,,,,,,,,3.333,22.667,,0.667,4.667,,1.333,60.667,4.000,,2.000,,,0.666666666666667,R 60.667,5
50,0.667,,2.000,,,52.667,,,18.000,0.667,,12.667,,,1.333,7.333,4.000,,,,0.666666666666667,G 52.667,4
51,,,,,31.333,,,56.000,,4.667,,,,,,,,8.000,,,,I 56.000,8
52,2.667,,,16.000,0.667,2.000,6.000,6.667,8.667,5.333,,0.667,,8.667,1.333,10.000,19.333,4.667,,7.333,,T 19.333,1
53,0.667,,1.333,2.000,0.667,,0.667,,8.667,,1.333,30.667,,2.000,17.333,23.333,10.667,,,0.667,,N 30.667,3
54,0.671,,,,,,,36.913,,27.517,2.685,,7.383,,,,,24.832,,,,I 36.913,3
55,5.333,,,,0.667,1.333,1.333,,,,,3.333,,2.000,2.000,76.000,7.333,,,,0.666666666666667,S 76.000,6
56,,,32.000,24.000,,0.667,4.667,,,4.000,,0.667,,32.000,,0.667,0.667,0.667,,,,DQ 32.000,5
57,,,,,5.333,,,26.000,,55.333,0.667,,,,0.667,,,12.000,,,,L 55.333,4
58,1.333,,0.667,2.667,,8.000,4.667,4.000,17.333,7.333,2.000,5.333,,14.000,2.000,16.667,12.667,1.333,,,,K 17.333,1
59,4.000,,,0.667,0.667,3.333,1.333,6.667,,0.667,,,66.667,5.333,,,,10.667,,,,P 66.667,5
60,,,,,0.667,,,2.000,20.000,6.667,,,41.333,,13.333,5.333,1.333,9.333,,,,P 41.333,5
61,2.667,,,2.000,0.667,,4.667,1.333,0.667,2.667,,0.667,50.667,8.667,4.000,7.333,1.333,1.333,8.000,3.333,,P 50.667,1
62,4.000,,1.333,,12.667,4.000,1.333,,,12.667,,4.667,4.667,5.333,0.667,26.000,5.333,3.333,,14.000,,S 26.000,2
63,1.333,0.667,,,1.333,0.667,1.333,,4.667,2.000,,34.000,6.000,7.333,15.333,16.667,2.000,3.333,,3.333,,N 34.000,3
64,10.000,,,,7.333,5.333,0.667,8.667,,5.333,2.000,,46.000,4.667,,0.667,4.667,4.000,,0.667,,P 46.000,3
65,0.667,1.333,,,18.667,,2.667,,28.000,1.333,,,,0.667,7.333,5.333,3.333,0.667,,30.000,,Y 30.000,4
66,,,,2.667,,,36.000,,47.333,,,2.000,,10.667,,,0.667,,,0.667,,K 47.333,7
67,,,,,0.671,,,,,88.591,10.738,,,,,,,,,,,L 88.591,9
68,,,,,14.000,,4.667,4.000,,18.667,,21.333,,,0.667,4.000,0.667,3.333,,28.667,,Y 28.667,4
69,,,,,7.333,,,,,90.667,1.333,,,,,,0.667,,,,,L 90.667,8
70,3.333,0.667,,,1.333,0.667,4.667,,,7.333,,9.333,,14.000,2.000,16.667,34.000,,,6.000,,T 34.000,6
71,,,2.667,3.333,,65.333,,,9.333,,,12.000,0.667,,5.333,0.667,,0.667,,,,G 65.333,6
72,,,,,,0.667,,,,,,99.333,,,,,,,,,,N 99.333,9
73,1.333,,6.000,0.667,8.667,4.667,0.667,5.333,0.667,30.000,4.667,2.667,,1.333,0.667,12.667,0.667,0.667,,18.667,,L 30.000,2
74,,,,,1.333,,0.667,37.333,,54.667,2.667,,,,,,,2.000,,0.667,0.666666666666667,L 54.667,7
75,4.000,,,1.333,,0.667,3.333,4.667,10.000,,,2.667,6.000,26.667,8.667,8.667,13.333,8.000,,1.333,0.666666666666667,Q 26.667,3
76,2.000,,1.333,8.000,,0.667,,6.000,23.333,2.000,4.667,0.667,,,25.333,4.667,7.333,12.667,,,1.33333333333333,R 25.333,1
77,0.667,,,,,,,19.333,,61.333,0.667,,,,,,,17.333,,,0.666666666666667,L 61.333,7
78,2.667,0.667,0.667,0.667,6.667,0.667,6.667,0.667,0.667,8.000,,2.000,1.333,2.000,14.667,15.333,,2.000,,34.000,0.666666666666667,Y 34.000,1
79,13.333,,,,4.667,,0.667,,14.667,4.000,1.333,,20.667,,24.000,4.667,6.667,4.000,,0.667,0.666666666666667,R 24.000,1
80,1.333,,4.000,6.000,,1.333,,,0.667,0.667,,48.000,,0.667,,22.667,8.667,,,6.000,,N 48.000,6
81,0.667,0.667,60.667,19.333,,2.000,0.667,,,,,0.667,,2.667,,10.000,2.667,,,,,D 60.667,5
82,,,,,83.333,,,,,12.667,4.000,,,,,,,,,,,F 83.333,8
83,10.067,,1.342,6.711,1.342,,0.671,7.383,0.671,18.792,0.671,,,2.013,1.342,4.698,6.040,26.846,11.409,,,V 26.846,1
84,,,12.000,22.000,,11.333,6.667,,,,,38.000,0.667,0.667,0.667,1.333,5.333,,,1.333,,N 38.000,3
85,10.000,,,,31.333,,,0.667,,16.667,,,,,,0.667,0.667,,,40.000,,Y 40.000,4
86,2.667,,4.667,4.667,,11.333,,1.333,11.333,,0.667,6.000,,0.667,2.000,25.333,24.000,0.667,,4.667,,S 25.333,1
87,0.667,,,,,32.000,7.333,,,,,32.667,,1.333,0.667,23.333,2.000,,,,,N 32.667,7
88,38.667,,,,,,,0.667,,51.333,1.333,,,,,0.667,,7.333,,,,L 51.333,7
89,,,28.000,14.000,,,,8.667,,5.333,,0.667,,,0.667,4.000,16.667,22.000,,,,D 28.000,5
90,1.333,,,,,,,16.000,,40.000,3.333,,,,,32.000,6.667,0.667,,,,L 40.000,7
91,,,,,,,,8.000,,91.333,,,,,,,,0.667,,,,L 91.333,8
92,,,2.667,,,,79.333,,,,,12.000,,6.000,,,,,,,,H 79.333,8
93,,,,,0.667,,,2.667,,95.333,0.667,,,,,,,0.667,,,,L 95.333,8
94,4.000,,,4.667,,90.667,,,,,,,,,,0.667,,,,,,G 90.667,9
95,2.000,,1.333,,5.333,6.000,0.667,,0.667,,,77.333,,,,5.333,,,,1.333,,N 77.333,7
96,,,,,,,,,,,,100.000,,,,,,,,,,N 100.000,9
97,6.667,,12.667,4.667,,11.333,0.667,,6.667,,,8.667,,6.000,34.667,6.000,0.667,0.667,,0.667,,R 34.667,5
98,,,,,,,,70.000,,28.000,1.333,,,,,,,0.667,,,,I 70.000,9
99,16.000,,4.667,5.333,1.333,,4.667,,1.333,0.667,0.667,0.667,,30.667,0.667,28.000,2.000,3.333,,,,Q 30.667,4
100,3.333,,23.333,26.000,0.667,,,5.333,0.667,2.000,1.333,7.333,,1.333,1.333,1.333,0.667,10.667,,14.667,,E 26.000,1
101,,,,,0.667,,,66.000,,15.333,0.667,,,,,,,17.333,,,,I 66.000,7
102,,,5.333,40.667,,0.667,12.667,,2.667,,0.667,,0.667,25.333,6.667,,,4.667,,,,E 40.667,4
103,14.000,,14.000,20.000,,6.000,,1.333,1.333,,,8.667,16.667,,,4.000,10.667,3.333,,,,E 20.000,2
104,,,,4.667,,80.667,,,0.667,0.667,,1.333,,2.000,9.333,0.667,,,,,,G 80.667,6
105,78.000,,,,,,,1.333,,,,,,,,5.333,8.000,7.333,,,,A 78.000,8
106,,,,,99.333,,,,,0.667,,,,,,,,,,,,F 99.333,9
107,3.333,,,3.333,0.667,11.333,4.000,3.333,2.000,12.667,6.000,28.000,,4.667,0.667,14.667,2.667,2.000,,0.667,,N 28.000,1
108,2.667,,11.333,,,50.667,,,,,,22.000,,0.667,,10.000,2.000,,,0.667,,G 50.667,7
109,,,,,0.667,,,,,96.000,2.667,,,,,,,,,0.667,,L 96.000,8
110,2.667,0.667,,,,10.667,0.667,2.667,4.667,0.667,0.667,2.000,6.000,16.667,8.000,17.333,25.333,1.333,,,,T 25.333,3
111,6.667,,0.667,1.333,2.000,14.667,5.333,5.333,3.333,10.000,0.667,25.333,,1.333,2.000,16.667,4.667,,,,,N 25.333,1
112,,,,,,,,,,94.667,,,,,,0.667,,4.667,,,,L 94.667,9
113,,,,0.667,,,1.333,,60.000,,,,,4.000,34.000,,,,,,,K 60.000,7
114,,,,,,,,,18.000,,,0.667,,13.333,54.667,9.333,2.000,,2.000,,,R 54.667,7
115,,,,,,,,1.333,,97.333,1.333,,,,,,,,,,,L 97.333,8
116,,,,,4.667,,49.333,,,,,,,0.667,,,,,,45.333,,H 49.333,8
117,,,,,,,,18.000,,80.000,2.000,,,,,,,,,,,L 80.000,9
118,,,2.667,,,,6.667,,,,,90.000,,,,,0.667,,,,,N 90.000,9
119,,,0.667,6.667,,41.333,6.000,,1.333,,,36.667,,,,6.667,,,,0.667,,G 41.333,7
120,,,,,,,,,,,,99.333,,,,,,,,,0.666666666666667,N 99.333,9
121,,0.667,4.000,8.000,6.000,0.667,4.667,,28.667,9.333,,10.000,,2.000,8.000,6.667,,,,11.333,,K 28.667,4
122,,,,,,,,42.667,,54.000,2.667,,,,,,,,,,0.666666666666667,L 54.000,7
123,,,18.667,54.667,,1.333,,,6.000,,,,,2.000,4.667,0.667,4.000,8.000,,,,E 54.667,5
124,8.667,,,0.667,,,2.667,12.000,12.000,3.333,2.667,,,3.333,17.333,10.000,6.000,21.333,,,,V 21.333,1
125,,,,,11.333,,,6.667,,81.333,,,,,,,,0.667,,,,L 81.333,8
126,,0.667,,,2.000,0.667,1.333,,27.333,,1.333,4.000,,,28.667,16.000,16.000,,,2.000,,R 28.667,3
127,14.667,,6.667,30.667,,2.000,,,5.333,0.667,,8.000,18.000,6.000,3.333,2.000,2.000,0.667,,,,E 30.667,3
128,0.667,,51.333,16.000,0.667,8.000,3.333,,,,,4.667,1.333,0.667,,7.333,6.000,,,,,D 51.333,3
129,,,,,6.667,,,6.000,0.667,10.667,28.667,,,,,0.667,46.667,,,,,T 46.667,6
130,,,,,100.000,,,,,,,,,,,,,,,,,F 100.000,9
131,10.667,,2.667,1.333,8.000,,8.000,2.667,,34.000,0.667,0.667,,7.333,7.333,,,7.333,0.667,8.667,,L 34.000,1
132,,,,,,100.000,,,,,,,,,,,,,,,,G 100.000,9
133,,,,,,,,6.000,,94.000,,,,,,,,,,,,L 94.000,9
134,,,7.333,43.333,,,8.667,0.667,1.333,,0.667,,,28.667,0.667,,1.333,6.667,,0.667,,E 43.333,5
135,2.667,1.333,5.333,,,,1.333,,0.667,,2.000,40.667,,0.667,3.333,40.667,0.667,,,0.667,,NS 40.667,5
136,,,,,,,,0.667,,99.333,,,,,,,,,,,,L 99.333,9
137,,,0.667,66.667,,,2.000,,0.667,0.667,,,,20.667,6.000,2.667,,,,,,E 66.667,7
138,,,,,16.667,,,,,,,,,,,,,,,83.333,,Y 83.333,7
139,,,,,,,,0.667,,99.333,,,,,,,,,,,,L 99.333,9
140,,,,,3.333,,,,,,,0.667,,56.000,,1.333,,,,38.667,,Q 56.000,9
141,40.000,,,,10.000,,,8.000,,36.667,,,,,,,0.667,4.667,,,,A 40.000,7
142,,,56.000,40.667,,,,,,,,,,3.333,,,,,,,,D 56.000,9
143,,,,,6.667,,1.333,,,,,8.000,,,,0.667,6.000,,,77.333,,Y 77.333,7
144,,,,,,,,,,,,100.000,,,,,,,,,,N 100.000,9
145,6.667,,1.333,7.333,14.667,,,8.000,3.333,16.000,,,,0.667,,0.667,1.333,17.333,,22.667,,Y 22.667,2
146,,,,,,,,94.000,,5.333,,,,,,,,0.667,,,,I 94.000,9
147,1.333,,,,,0.667,3.333,1.333,37.333,,,,,4.000,24.000,14.667,13.333,,,,,K 37.333,4
148,4.667,,11.333,32.667,0.667,,7.333,4.667,0.667,2.000,,1.333,,2.000,7.333,3.333,3.333,14.667,,4.000,,E 32.667,1
149,,,,,,,,76.000,,2.667,0.667,,,,,,,20.667,,,,I 76.000,6
150,8.000,,14.000,47.333,,1.333,,,0.667,11.333,0.667,0.667,,8.000,0.667,1.333,0.667,5.333,,,,E 47.333,1
151,17.333,,,,,1.333,0.667,,4.000,0.667,,0.667,57.333,0.667,5.333,10.667,0.667,0.667,,,,P 57.333,2
152,6.667,,2.000,,,59.333,2.000,,0.667,0.667,,15.333,,3.333,1.333,8.667,,,,,,G 59.333,5
153,48.000,,,,,,,,,,,,,,,6.667,40.667,4.667,,,,A 48.000,6
154,,,,,90.667,,,,,9.333,,,,,,,,,,,,F 90.667,7
155,1.333,,10.667,1.333,,3.333,0.667,,0.667,,,26.667,,4.000,14.667,36.000,0.667,,,,,S 36.000,4
156,4.667,0.667,5.333,,3.333,2.000,4.000,,33.333,5.333,,2.667,11.333,1.333,8.667,9.333,2.000,2.667,,3.333,,K 33.333,1
157,0.667,,,,0.667,,,1.333,,68.667,20.000,,,,,,,8.667,,,,L 68.667,7
158,1.333,,0.667,,,,23.333,4.667,,,,17.333,34.667,0.667,6.667,4.667,2.667,2.000,,1.333,,P 34.667,4
159,0.667,0.667,,,,0.667,10.000,,31.333,1.333,0.667,28.000,,2.667,16.000,7.333,0.667,,,,,K 31.333,6
160,,,,,,,,,,99.333,0.667,,,,,,,,,,,L 99.333,9
161,,,0.667,16.000,,,1.333,,39.333,,,,,30.000,10.667,,2.000,,,,,K 39.333,6
162,0.667,,,,,,,1.333,,36.667,,,,,,,,61.333,,,,V 61.333,9
163,,,,,,,,,,93.333,1.333,,,,,,,5.333,,,,L 93.333,8
164,,0.667,,,32.667,,,56.000,,,,,,,,2.667,,,,7.333,0.666666666666667,I 56.000,8
165,,,,,,,,1.333,,98.667,,,,,,,,,,,,L 98.667,9
166,,,,,,,0.667,,,,,99.333,,,,,,,,,,N 99.333,9
167,4.667,,60.000,,,,0.667,,,,,34.000,,,,,,,,0.667,,D 60.000,9
168,,,,,,,,,,,,100.000,,,,,,,,,,N 100.000,9
169,10.000,,,,0.667,,1.333,,,81.333,0.667,,,,,4.000,,2.000,,,,L 81.333,7
170,,,,,,,,36.667,,60.667,,,,,,,,2.667,,,,L 60.667,8
171,0.667,,,12.000,,,2.667,,11.333,6.667,,2.667,8.667,9.333,19.333,24.667,1.333,,,0.667,,S 24.667,4
172,13.333,,,,12.000,2.667,,2.667,,,2.000,1.333,,,0.667,40.667,20.000,3.333,,1.333,,S 40.667,2
173,,,,,0.667,,,,,97.333,1.333,,,,,,,0.667,,,,L 97.333,8
174,,,,,,,,,,,,,100.000,,,,,,,,,P 100.000,9
175,14.000,,12.667,2.000,,6.000,,4.667,0.667,6.000,2.667,9.333,12.000,0.667,,8.667,10.667,10.000,,,,A 14.000,1
176,,,8.667,,2.000,16.667,5.333,0.667,,,,55.333,,6.000,1.333,0.667,,,,3.333,,N 55.333,6
177,6.667,,,,,,,49.333,,10.667,,,,,,,2.000,30.667,,0.667,,I 49.333,5
178,,,,,100.000,,,,,,,,,,,,,,,,,F 100.000,9
179,10.667,,0.667,1.333,0.667,4.667,0.667,,1.333,2.000,0.667,0.667,,13.333,46.000,16.000,0.667,0.667,,,,R 46.000,4
180,0.667,,,0.667,33.333,32.667,7.333,,,,,7.333,,,2.000,10.000,,0.667,,5.333,,F 33.333,5
181,6.667,,,,,,,0.667,,12.000,,,,,,,12.667,68.000,,,,V 68.000,9
182,1.333,,0.667,,,,,,0.667,8.000,4.667,6.000,44.000,,0.667,29.333,4.000,0.667,,,,P 44.000,5
183,,,,,,,,4.667,,95.333,,,,,,,,,,,,L 95.333,9
184,17.333,,,,,,,,0.667,2.667,,,,,0.667,7.333,69.333,1.333,,0.667,,T 69.333,7
185,,,,,,,55.333,,6.667,,0.667,,,,36.667,,0.667,,,,,H 55.333,8
186,,,,,,,,1.333,,98.000,,,,,,,,,0.667,,,L 98.000,9
187,,,55.705,,,,,,,,,38.926,,,,5.369,,,,,,D 55.705,8
188,,,,,,,,7.333,,90.667,1.333,,,,,,0.667,,,,,L 90.667,8
189,,0.667,,,,,2.000,,6.667,,,,,,90.000,,,,,,0.666666666666667,R 90.000,9
190,0.667,,,,,56.667,0.667,,4.000,,,26.000,,,,9.333,2.000,,,,0.666666666666667,G 56.667,7
191,,,,0.667,,,,,,,,99.333,,,,,,,,,,N 99.333,9
192,,,,,,,22.667,,5.333,5.333,,,0.667,23.333,34.000,,,2.000,,6.667,,R 34.000,5
193,,,,,37.333,,,11.333,,50.000,,,,,,,,1.333,,,,L 50.000,7
194,4.000,,0.667,,,,1.333,,34.667,9.333,8.000,,0.667,24.000,4.667,8.000,3.333,1.333,,,,K 34.667,5
195,0.667,0.667,,,0.667,,16.000,0.667,4.667,4.667,8.000,6.000,,3.333,2.667,10.667,21.333,10.000,,10.000,,T 21.333,1
196,,,,,2.667,,,2.000,,92.000,2.667,,,,,,,0.667,,,,L 92.000,8
197,2.000,,,,0.667,,0.667,,,,,,94.000,0.667,0.667,,1.333,,,,,P 94.000,8
198,0.667,,,,9.333,,0.667,1.333,,0.667,4.000,,,,,,,37.333,,46.000,,Y 46.000,8
199,14.000,,,10.000,,2.667,1.333,6.667,6.000,4.000,,2.000,,1.333,5.333,26.000,4.000,16.667,,,,S 26.000,1
200,,,,,,90.000,,,0.667,,,9.333,,,,,,,,,,G 90.000,9
201,0.667,,,,11.333,,,7.333,,16.667,2.000,,,,,,4.000,57.333,,,0.666666666666667,V 57.333,6
202,,,,,,,,0.667,,98.667,,,,,,,,0.667,,,,L 98.667,9
203,,,30.000,68.000,,,,,,,,,,2.000,,,,,,,,E 68.000,8
204,,,2.667,3.333,,,56.667,,,,,,,31.333,,,,,,6.000,,H 56.667,8
205,,,,,,,,36.667,,45.333,14.000,,,,,,,4.000,,,,L 45.333,8
206,0.667,,14.667,1.333,,36.000,2.000,,8.000,,,8.667,6.000,0.667,2.000,8.667,11.333,,,,,G 36.000,3
207,11.333,,,,2.667,20.000,1.333,,7.333,4.667,2.000,1.333,1.333,,26.667,20.000,,0.667,,0.667,,R 26.667,4
208,,,,,6.667,,,39.333,,36.667,,,,,,,,17.333,,,,I 39.333,7
209,2.667,,,4.667,,,,11.333,,6.667,21.333,,,,0.667,1.333,2.000,49.333,,,,V 49.333,6
210,,,5.333,50.000,,,,,,,,,,44.667,,,,,,,,E 50.000,9
211,,,,,1.333,,,52.667,,35.333,,,,,,,,10.667,,,,I 52.667,8
212,,,34.667,4.667,,,,,0.667,11.333,,,,44.000,,,,,,4.667,,Q 44.000,8
213,,,,,,,,0.667,,99.333,,,,,,,,,,,,L 99.333,9
214,,,5.333,62.667,5.333,,9.333,,0.667,0.667,,2.667,,11.333,0.667,,,,,1.333,,E 62.667,6
215,,,38.000,46.667,,4.000,0.667,,,0.667,,,,10.000,,,,,,,,E 46.667,8
216,,,,,,,,,,,,100.000,,,,,,,,,,N 100.000,9
217,,,4.000,,,,,,6.667,1.333,,1.333,86.000,,,0.667,,,,,,P 86.000,8
218,,,,,0.667,,,,,,,,,,,,,,99.333,,,W 99.333,9
219,4.000,,38.667,10.667,,,,3.333,0.667,,0.667,36.000,,,,,0.667,5.333,,,,D 38.667,6
220,,100.000,,,,,,,,,,,,,,,,,,,,C 100.000,9
221,1.333,,7.333,2.000,,2.000,,1.333,,,,14.667,,,,36.000,33.333,2.000,,,,S 36.000,5
222,,100.000,,,,,,,,,,,,,,,,,,,,C 100.000,9
223,,,57.333,32.000,,,0.667,,0.667,0.667,,2.667,0.667,0.667,0.667,2.667,0.667,0.667,,,,D 57.333,3
224,8.000,,,,,,,30.000,,53.333,0.667,,,,,2.667,,5.333,,,,L 53.333,5
225,8.000,,,,,,0.667,26.000,,26.667,2.667,,,,,,,36.000,,,,V 36.000,4
226,20.667,,1.333,4.000,,16.000,5.333,,,,,,29.333,10.667,,11.333,0.667,,,0.667,,P 29.333,4
227,,,,,2.000,,,,,88.000,10.000,,,,,,,,,,,L 88.000,9
228,0.667,,,,,,,,90.000,,,,,6.000,2.667,,0.667,,,,,K 90.000,8
229,17.333,,5.333,6.000,,,,14.667,1.333,5.333,0.667,7.333,,15.333,6.667,6.000,13.333,0.667,,,,A 17.333,3
230,,,,,,,,,,,,,,,,,,,100.000,,,W 100.000,9
231,2.000,,,,,,,7.333,,70.000,10.667,,,,,,2.000,8.000,,,,L 70.000,5
232,0.667,,14.667,78.667,,0.667,,,,,,,,4.000,,,,,,1.333,,E 78.667,7
233,,,,,,5.333,1.333,,14.667,4.000,0.667,26.000,,13.333,8.000,16.000,10.667,,,,,N 26.000,6
234,1.342,,,,,,,34.899,,34.899,20.805,,0.671,,,5.369,,2.013,,,,IL 34.899,8
235,3.333,,0.667,,,2.667,0.667,,2.000,,,8.667,26.667,,7.333,44.667,3.333,,,,,S 44.667,6
236,28.000,,,,0.667,,,12.667,,2.667,,,,,,14.000,15.333,26.667,,,,A 28.000,6
237,4.000,,,,13.333,,,10.000,,29.333,4.000,0.667,,0.667,,1.333,2.667,31.333,,2.667,,V 31.333,2
238,1.333,,,,,1.333,,26.667,,,4.667,,,,,,2.000,64.000,,,,V 64.000,7
239,,,4.000,,,72.667,,,2.000,,,14.000,,0.667,0.667,6.000,,,,,,G 72.667,7
240,0.667,,38.000,46.000,,,1.333,,,,,2.667,,0.667,4.000,4.000,2.667,,,,,E 46.000,3
241,7.333,,,,,,,29.333,,3.333,0.667,,0.667,,,,,58.667,,,,V 58.667,7
242,1.333,,,,3.333,,,16.000,2.667,9.333,2.000,,,,2.000,0.667,14.667,48.000,,,,V 48.000,4
243,,100.000,,,,,,,,,,,,,,,,,,,,C 100.000,9
244,2.667,,4.667,53.333,,2.667,11.333,,10.667,,0.667,4.000,,0.667,,6.000,1.333,1.333,,0.667,,E 53.333,4
245,6.000,,0.667,,8.000,,2.000,,,,0.667,1.333,,,,37.333,38.667,,,5.333,,T 38.667,5
246,,,,,,,,,,,,,100.000,,,,,,,,,P 100.000,9
247,3.333,,1.333,12.667,31.333,2.000,2.000,1.333,12.000,2.000,,,7.333,4.667,3.333,10.000,3.333,3.333,,,,F 31.333,2
248,0.667,,6.667,3.333,4.000,,15.333,3.333,19.333,2.000,,4.667,,2.667,36.667,0.667,,0.667,,,,R 36.667,2
249,3.333,,,,12.000,,7.333,1.333,,65.333,1.333,2.000,,0.667,,,3.333,3.333,,,,L 65.333,4
250,19.333,,,2.000,2.667,,29.333,,14.000,1.333,0.667,2.000,,5.333,2.667,6.000,3.333,2.000,1.333,8.000,,H 29.333,3
251,0.667,,0.667,2.000,,81.333,,,7.333,,0.667,3.333,,2.000,1.333,,0.667,,,,,G 81.333,6
252,4.667,,,6.667,,,,2.667,29.333,1.333,,2.667,,2.667,29.333,9.333,5.333,6.000,,,,KR 29.333,2
253,0.667,,62.000,8.000,,,0.667,11.333,0.667,13.333,,,0.667,,,,0.667,1.333,,0.667,,D 62.000,6
254,,,,,2.000,,,6.667,,78.000,8.000,,,,,,,5.333,,,,L 78.000,7
255,6.000,,15.333,,,,,,16.000,,0.667,6.000,,,41.333,5.333,9.333,,,,,R 41.333,5
256,2.000,,2.667,31.333,1.333,,0.667,,8.667,2.667,1.333,3.333,0.667,8.000,6.000,25.333,1.333,1.333,,3.333,,E 31.333,4
257,,,,,,,,22.667,,42.000,0.667,,,,,,12.000,22.667,,,,L 42.000,5
258,1.333,,0.667,4.667,,1.333,2.000,4.000,26.667,0.667,,9.333,3.333,1.333,10.667,29.333,4.667,,,,,S 29.333,1
259,3.333,,0.667,4.000,,,3.333,0.667,34.667,0.667,6.000,8.000,0.667,1.333,16.667,13.333,3.333,2.000,,1.333,,K 34.667,3
260,2.667,,16.000,37.333,,0.667,,0.667,2.000,0.667,,,0.667,30.000,0.667,6.000,2.667,,,,,E 37.333,3
261,4.667,,13.333,32.667,,,1.333,2.667,,12.667,1.333,2.000,,4.667,,6.000,0.667,17.333,,0.667,,E 32.667,3
262,,,,,2.000,,,16.000,,80.667,0.667,,,,,,,0.667,,,,L 80.667,6
263,,100.000,,,,,,,,,,,,,,,,,,,,C 100.000,9
264,1.342,,,,,,,,,,,,93.960,,,3.356,0.671,,,,0.671140939597315,P 93.960,8
265,2.174,,10.870,19.565,0.725,5.797,,0.725,1.449,5.797,5.072,3.623,,2.174,27.536,10.145,4.348,,,,,R 27.536,4
266,,,,4.615,,,,,20.000,12.308,4.615,3.077,7.692,3.077,41.538,3.077,,,,,,R 41.538,1
267,,,,10.000,,,10.000,20.000,,10.000,,20.000,10.000,,,10.000,,,,10.000,,IN 20.000,1
268,,,,,,,50.000,,,,,16.667,16.667,,,,,16.667,,,,H 50.000,5
269,,,,,,,40.000,,,,,,,,20.000,20.000,,,,20.000,,H 40.000,5*
270,,,,50.000,,,50.000,,,,,,,,,,,,,,,EH 50.000,4*
271,,,,,,,100.000,,,,,,,,,,,,,,,H 100.000,6*
272,,,,,,8.333,8.333,,,,,50.000,8.333,,,25.000,,,,,,N 50.000,1
