c<D>r<2>a<3184>R<GLU>A<CG> 1
c<D>r<2>a<3185>R<GLU>A<CD> 2
c<D>r<2>a<3186>R<GLU>A<OE1> 2
c<D>r<2>a<3187>R<GLU>A<OE2> 1
c<D>r<25>a<3347>R<SER>A<O> 1
c<D>r<25>a<3349>R<SER>A<OG> 1
c<D>r<26>a<3350>R<ASP>A<N> 2
c<D>r<26>a<3351>R<ASP>A<CA> 1
c<D>r<26>a<3354>R<ASP>A<CB> 2
c<D>r<26>a<3355>R<ASP>A<CG> 2
c<D>r<26>a<3356>R<ASP>A<OD1> 1
c<D>r<26>a<3357>R<ASP>A<OD2> 1
c<D>r<27>a<3360>R<ARG>A<C> 2
c<D>r<27>a<3361>R<ARG>A<O> 1
c<D>r<27>a<3362>R<ARG>A<CB> 1
c<D>r<27>a<3363>R<ARG>A<CG> 1
c<D>r<27>a<3364>R<ARG>A<CD> 1
c<D>r<27>a<3365>R<ARG>A<NE> 1
c<D>r<27>a<3366>R<ARG>A<CZ> 1
c<D>r<27>a<3367>R<ARG>A<NH1> 1
c<D>r<27>a<3368>R<ARG>A<NH2> 1
c<D>r<28>a<3369>R<GLY>A<N> 2
c<D>r<28>a<3370>R<GLY>A<CA> 1
c<D>r<28>a<3371>R<GLY>A<C> 2
c<D>r<28>a<3372>R<GLY>A<O> 1
c<D>r<29>a<3376>R<SER>A<O> 2
c<D>r<30>a<3380>R<GLN>A<CA> 2
c<D>r<30>a<3382>R<GLN>A<O> 1
c<D>r<30>a<3383>R<GLN>A<CB> 1
c<D>r<30>a<3384>R<GLN>A<CG> 1
c<D>r<30>a<3385>R<GLN>A<CD> 2
c<D>r<30>a<3386>R<GLN>A<OE1> 2
c<D>r<30>a<3387>R<GLN>A<NE2> 1
c<D>r<31>a<3388>R<SER>A<N> 2
c<D>r<31>a<3392>R<SER>A<CB> 2
c<D>r<31>a<3393>R<SER>A<OG> 1
c<D>r<33>a<3410>R<PHE>A<CG> 3
c<D>r<33>a<3411>R<PHE>A<CD1> 2
c<D>r<33>a<3412>R<PHE>A<CD2> 3
c<D>r<33>a<3413>R<PHE>A<CE1> 2
c<D>r<33>a<3414>R<PHE>A<CE2> 3
c<D>r<33>a<3415>R<PHE>A<CZ> 3
c<D>r<35>a<3437>R<TYR>A<CD2> 2
c<D>r<35>a<3439>R<TYR>A<CE2> 1
c<D>r<35>a<3440>R<TYR>A<CZ> 2
c<D>r<35>a<3441>R<TYR>A<OH> 2
c<D>r<37>a<3459>R<GLN>A<CD> 1
c<D>r<37>a<3460>R<GLN>A<OE1> 1
c<D>r<37>a<3461>R<GLN>A<NE2> 1
c<D>r<39>a<3476>R<SER>A<C> 2
c<D>r<39>a<3477>R<SER>A<O> 1
c<D>r<39>a<3478>R<SER>A<CB> 1
c<D>r<39>a<3479>R<SER>A<OG> 1
c<D>r<40>a<3480>R<GLY>A<N> 1
c<D>r<40>a<3481>R<GLY>A<CA> 1
c<D>r<40>a<3482>R<GLY>A<C> 1
c<D>r<40>a<3483>R<GLY>A<O> 1
c<D>r<41>a<3485>R<LYS>A<CA> 1
c<D>r<41>a<3486>R<LYS>A<C> 1
c<D>r<41>a<3487>R<LYS>A<O> 1
c<D>r<41>a<3488>R<LYS>A<CB> 1
c<D>r<42>a<3493>R<SER>A<N> 1
c<D>r<42>a<3494>R<SER>A<CA> 2
c<D>r<42>a<3497>R<SER>A<CB> 1
c<D>r<42>a<3498>R<SER>A<OG> 1
c<D>r<43>a<3499>R<PRO>A<N> 2
c<D>r<43>a<3502>R<PRO>A<O> 1
c<D>r<43>a<3503>R<PRO>A<CB> 1
c<D>r<43>a<3504>R<PRO>A<CG> 1
c<D>r<43>a<3505>R<PRO>A<CD> 2
c<D>r<44>a<3514>R<GLU>A<OE2> 1
c<D>r<45>a<3519>R<LEU>A<CB> 1
c<D>r<45>a<3521>R<LEU>A<CD1> 2
c<D>r<45>a<3522>R<LEU>A<CD2> 1
c<D>r<48>a<3543>R<SER>A<CB> 2
c<D>r<48>a<3544>R<SER>A<OG> 1
c<D>r<50>a<3555>R<TYR>A<C> 2
c<D>r<50>a<3556>R<TYR>A<O> 1
c<D>r<50>a<3557>R<TYR>A<CB> 1
c<D>r<50>a<3558>R<TYR>A<CG> 2
c<D>r<50>a<3559>R<TYR>A<CD1> 2
c<D>r<50>a<3560>R<TYR>A<CD2> 1
c<D>r<50>a<3561>R<TYR>A<CE1> 2
c<D>r<50>a<3562>R<TYR>A<CE2> 1
c<D>r<50>a<3563>R<TYR>A<CZ> 2
c<D>r<50>a<3564>R<TYR>A<OH> 1
c<D>r<51>a<3566>R<SER>A<CA> 1
c<D>r<51>a<3569>R<SER>A<CB> 1
c<D>r<51>a<3570>R<SER>A<OG> 1
c<D>r<52>a<3571>R<ASN>A<N> 1
c<D>r<52>a<3575>R<ASN>A<CB> 1
c<D>r<52>a<3576>R<ASN>A<CG> 1
c<D>r<52>a<3577>R<ASN>A<OD1> 1
c<D>r<52>a<3578>R<ASN>A<ND2> 1
c<D>r<55>a<3599>R<LYS>A<NZ> 1
c<D>r<68>a<3684>R<LYS>A<CB> 1
c<D>r<68>a<3686>R<LYS>A<CD> 1
c<D>r<68>a<3687>R<LYS>A<CE> 1
c<D>r<68>a<3688>R<LYS>A<NZ> 1
c<D>r<71>a<3708>R<GLN>A<NE2> 1
c<D>r<89>a<3848>R<LEU>A<CG> 1
c<D>r<89>a<3849>R<LEU>A<CD1> 1
c<D>r<89>a<3850>R<LEU>A<CD2> 1
c<D>r<93>a<3871>R<THR>A<C> 2
c<D>r<93>a<3872>R<THR>A<O> 2
c<D>r<93>a<3873>R<THR>A<CB> 3
c<D>r<93>a<3874>R<THR>A<OG1> 2
c<D>r<93>a<3875>R<THR>A<CG2> 3
c<D>r<98>a<3878>R<THR>A<C> 2
c<D>r<98>a<3879>R<THR>A<O> 2
c<D>r<98>a<3880>R<THR>A<CB> 1
c<D>r<98>a<3881>R<THR>A<OG1> 1
c<D>r<98>a<3882>R<THR>A<CG2> 1
c<D>r<99>a<3883>R<ASP>A<N> 2
c<D>r<99>a<3884>R<ASP>A<CA> 2
c<D>r<99>a<3885>R<ASP>A<C> 2
c<D>r<99>a<3886>R<ASP>A<O> 2
c<D>r<99>a<3887>R<ASP>A<CB> 1
c<D>r<99>a<3888>R<ASP>A<CG> 2
c<D>r<99>a<3889>R<ASP>A<OD1> 1
c<D>r<99>a<3890>R<ASP>A<OD2> 1
c<D>r<100>a<3891>R<SER>A<N> 2
c<D>r<100>a<3892>R<SER>A<CA> 1
c<D>r<100>a<3893>R<SER>A<C> 2
c<D>r<100>a<3894>R<SER>A<O> 1
c<D>r<100>a<3895>R<SER>A<CB> 1
c<D>r<100>a<3896>R<SER>A<OG> 1
c<D>r<101>a<3897>R<TRP>A<N> 2
c<D>r<101>a<3898>R<TRP>A<CA> 2
c<D>r<101>a<3899>R<TRP>A<C> 2
c<D>r<101>a<3900>R<TRP>A<O> 1
c<D>r<101>a<3901>R<TRP>A<CB> 1
c<D>r<101>a<3902>R<TRP>A<CG> 1
c<D>r<101>a<3903>R<TRP>A<CD1> 2
c<D>r<101>a<3904>R<TRP>A<CD2> 1
c<D>r<101>a<3905>R<TRP>A<NE1> 1
c<D>r<101>a<3906>R<TRP>A<CE2> 2
c<D>r<101>a<3907>R<TRP>A<CE3> 1
c<D>r<101>a<3908>R<TRP>A<CZ2> 1
c<D>r<101>a<3909>R<TRP>A<CZ3> 1
c<D>r<101>a<3910>R<TRP>A<CH2> 1
c<D>r<102>a<3911>R<GLY>A<N> 2
c<D>r<102>a<3912>R<GLY>A<CA> 1
c<D>r<102>a<3913>R<GLY>A<C> 2
c<D>r<102>a<3914>R<GLY>A<O> 1
c<D>r<103>a<3915>R<LYS>A<N> 1
c<D>r<103>a<3916>R<LYS>A<CA> 1
c<D>r<103>a<3919>R<LYS>A<CB> 1
c<D>r<103>a<3920>R<LYS>A<CG> 1
c<D>r<103>a<3921>R<LYS>A<CD> 1
c<D>r<103>a<3922>R<LYS>A<CE> 1
c<D>r<103>a<3923>R<LYS>A<NZ> 1
c<D>r<104>a<3924>R<LEU>A<N> 1
c<D>r<104>a<3927>R<LEU>A<O> 1
c<D>r<104>a<3928>R<LEU>A<CB> 2
c<D>r<104>a<3929>R<LEU>A<CG> 3
c<D>r<104>a<3931>R<LEU>A<CD2> 2
c<D>r<106>a<3945>R<PHE>A<CB> 1
c<D>r<106>a<3946>R<PHE>A<CG> 2
c<D>r<106>a<3947>R<PHE>A<CD1> 2
c<D>r<106>a<3948>R<PHE>A<CD2> 2
c<D>r<106>a<3949>R<PHE>A<CE1> 2
c<D>r<106>a<3950>R<PHE>A<CE2> 1
c<D>r<106>a<3951>R<PHE>A<CZ> 2
c<D>r<107>a<3955>R<GLY>A<O> 1
c<D>r<108>a<3957>R<ALA>A<CA> 1
c<D>r<108>a<3959>R<ALA>A<O> 1
c<D>r<122>a<4059>R<ASP>A<O> 1
c<D>r<122>a<4062>R<ASP>A<OD1> 1
c<D>r<122>a<4063>R<ASP>A<OD2> 1
c<D>r<124>a<4075>R<ALA>A<CB> 1
c<D>r<126>a<4084>R<TYR>A<CA> 1
c<D>r<126>a<4087>R<TYR>A<CB> 2
c<D>r<126>a<4088>R<TYR>A<CG> 2
c<D>r<126>a<4089>R<TYR>A<CD1> 1
c<D>r<126>a<4090>R<TYR>A<CD2> 2
c<D>r<126>a<4091>R<TYR>A<CE1> 2
c<D>r<126>a<4092>R<TYR>A<CE2> 2
c<D>r<126>a<4093>R<TYR>A<CZ> 2
c<D>r<126>a<4094>R<TYR>A<OH> 1
c<D>r<127>a<4095>R<GLN>A<N> 1
c<D>r<127>a<4098>R<GLN>A<O> 1
c<D>r<128>a<4105>R<LEU>A<CA> 1
c<D>r<128>a<4106>R<LEU>A<C> 2
c<D>r<128>a<4107>R<LEU>A<O> 2
c<D>r<128>a<4108>R<LEU>A<CB> 2
c<D>r<128>a<4109>R<LEU>A<CG> 2
c<D>r<128>a<4110>R<LEU>A<CD1> 2
c<D>r<128>a<4111>R<LEU>A<CD2> 2
c<D>r<129>a<4112>R<ARG>A<N> 1
c<D>r<129>a<4113>R<ARG>A<CA> 2
c<D>r<129>a<4114>R<ARG>A<C> 2
c<D>r<129>a<4115>R<ARG>A<O> 1
c<D>r<130>a<4124>R<ASP>A<CA> 1
c<D>r<130>a<4125>R<ASP>A<C> 1
c<D>r<130>a<4126>R<ASP>A<O> 1
c<D>r<130>a<4127>R<ASP>A<CB> 1
c<D>r<130>a<4128>R<ASP>A<CG> 2
c<D>r<130>a<4129>R<ASP>A<OD1> 1
c<D>r<130>a<4130>R<ASP>A<OD2> 2
c<D>r<131>a<4131>R<SER>A<N> 1
c<D>r<131>a<4135>R<SER>A<CB> 1
c<D>r<131>a<4136>R<SER>A<OG> 1
c<D>r<132>a<4142>R<LYS>A<CG> 1
c<D>r<132>a<4143>R<LYS>A<CD> 1
c<D>r<132>a<4144>R<LYS>A<CE> 1
c<D>r<132>a<4145>R<LYS>A<NZ> 1
c<D>r<134>a<4155>R<SER>A<O> 2
c<D>r<134>a<4156>R<SER>A<CB> 1
c<D>r<134>a<4157>R<SER>A<OG> 1
c<D>r<136>a<4169>R<LYS>A<O> 3
c<D>r<136>a<4171>R<LYS>A<CG> 2
c<D>r<136>a<4172>R<LYS>A<CD> 2
c<D>r<136>a<4173>R<LYS>A<CE> 1
c<D>r<136>a<4174>R<LYS>A<NZ> 1
c<D>r<138>a<4181>R<VAL>A<N> 3
c<D>r<138>a<4185>R<VAL>A<CB> 2
c<D>r<138>a<4186>R<VAL>A<CG1> 1
c<D>r<138>a<4187>R<VAL>A<CG2> 2
c<D>r<140>a<4198>R<LEU>A<CB> 2
c<D>r<140>a<4200>R<LEU>A<CD1> 1
c<D>r<140>a<4201>R<LEU>A<CD2> 1
c<D>r<142>a<4218>R<THR>A<OG1> 1
c<D>r<142>a<4219>R<THR>A<CG2> 2
c<D>r<143>a<4224>R<ASP>A<CB> 1
c<D>r<143>a<4225>R<ASP>A<CG> 2
c<D>r<143>a<4226>R<ASP>A<OD1> 2
c<D>r<143>a<4227>R<ASP>A<OD2> 1
c<D>r<152>a<4297>R<GLN>A<OE1> 1
c<D>r<152>a<4298>R<GLN>A<NE2> 1
c<D>r<156>a<4323>R<SER>A<CA> 1
c<D>r<156>a<4325>R<SER>A<O> 1
c<D>r<156>a<4326>R<SER>A<CB> 1
c<D>r<156>a<4327>R<SER>A<OG> 1
c<D>r<159>a<4344>R<TYR>A<CA> 1
c<D>r<159>a<4345>R<TYR>A<C> 2
c<D>r<159>a<4347>R<TYR>A<CB> 1
c<D>r<159>a<4350>R<TYR>A<CD2> 1
c<D>r<159>a<4351>R<TYR>A<CE1> 1
c<D>r<159>a<4352>R<TYR>A<CE2> 1
c<D>r<159>a<4353>R<TYR>A<CZ> 1
c<D>r<159>a<4354>R<TYR>A<OH> 1
c<D>r<160>a<4355>R<ILE>A<N> 1
c<D>r<160>a<4357>R<ILE>A<C> 2
c<D>r<160>a<4358>R<ILE>A<O> 1
c<D>r<161>a<4363>R<THR>A<N> 2
c<D>r<161>a<4364>R<THR>A<CA> 2
c<D>r<161>a<4367>R<THR>A<CB> 2
c<D>r<161>a<4368>R<THR>A<OG1> 2
c<D>r<161>a<4369>R<THR>A<CG2> 1
c<D>r<162>a<4370>R<ASP>A<N> 1
c<D>r<162>a<4373>R<ASP>A<O> 2
c<D>r<162>a<4374>R<ASP>A<CB> 1
c<D>r<162>a<4376>R<ASP>A<OD1> 1
c<D>r<164>a<4389>R<THR>A<C> 2
c<D>r<164>a<4390>R<THR>A<O> 2
c<D>r<164>a<4391>R<THR>A<CB> 1
c<D>r<164>a<4392>R<THR>A<OG1> 2
c<D>r<164>a<4393>R<THR>A<CG2> 1
c<D>r<165>a<4394>R<VAL>A<N> 1
c<D>r<165>a<4396>R<VAL>A<C> 2
c<D>r<165>a<4397>R<VAL>A<O> 1
c<D>r<166>a<4401>R<LEU>A<N> 2
c<D>r<166>a<4402>R<LEU>A<CA> 2
c<D>r<166>a<4405>R<LEU>A<CB> 2
c<D>r<166>a<4407>R<LEU>A<CD1> 2
c<D>r<166>a<4408>R<LEU>A<CD2> 1
c<D>r<167>a<4409>R<ASP>A<N> 2
c<D>r<167>a<4411>R<ASP>A<C> 2
c<D>r<167>a<4412>R<ASP>A<O> 1
c<D>r<167>a<4413>R<ASP>A<CB> 1
c<D>r<168>a<4417>R<MET>A<N> 2
c<D>r<168>a<4418>R<MET>A<CA> 1
c<D>r<168>a<4422>R<MET>A<CG> 1
c<D>r<168>a<4423>R<MET>A<SD> 1
c<D>r<168>a<4424>R<MET>A<CE> 1
c<D>r<169>a<4425>R<ARG>A<N> 1
c<D>r<169>a<4429>R<ARG>A<CB> 1
c<D>r<169>a<4430>R<ARG>A<CG> 2
c<D>r<169>a<4433>R<ARG>A<CZ> 2
c<D>r<169>a<4434>R<ARG>A<NH1> 1
c<D>r<169>a<4435>R<ARG>A<NH2> 1
c<D>r<173>a<4461>R<PHE>A<O> 2
c<D>r<173>a<4462>R<PHE>A<CB> 1
c<D>r<173>a<4463>R<PHE>A<CG> 2
c<D>r<173>a<4464>R<PHE>A<CD1> 1
c<D>r<173>a<4465>R<PHE>A<CD2> 2
c<D>r<173>a<4466>R<PHE>A<CE1> 1
c<D>r<173>a<4467>R<PHE>A<CE2> 1
c<D>r<173>a<4468>R<PHE>A<CZ> 1
c<D>r<175>a<4482>R<SER>A<CB> 2
c<D>r<175>a<4483>R<SER>A<OG> 2
c<D>r<177>a<4494>R<SER>A<C> 2
c<D>r<177>a<4495>R<SER>A<O> 2
c<D>r<177>a<4496>R<SER>A<CB> 1
c<D>r<177>a<4497>R<SER>A<OG> 1
c<D>r<178>a<4498>R<ALA>A<N> 2
c<D>r<178>a<4499>R<ALA>A<CA> 3
c<D>r<178>a<4500>R<ALA>A<C> 2
c<D>r<179>a<4503>R<VAL>A<N> 2
c<D>r<179>a<4507>R<VAL>A<CB> 2
c<D>r<179>a<4508>R<VAL>A<CG1> 1
c<D>r<179>a<4509>R<VAL>A<CG2> 1
c<D>r<181>a<4519>R<TRP>A<CB> 2
c<D>r<181>a<4520>R<TRP>A<CG> 3
c<D>r<181>a<4521>R<TRP>A<CD1> 2
c<D>r<181>a<4522>R<TRP>A<CD2> 2
c<D>r<181>a<4523>R<TRP>A<NE1> 1
c<D>r<181>a<4524>R<TRP>A<CE2> 2
c<D>r<181>a<4525>R<TRP>A<CE3> 2
c<D>r<181>a<4526>R<TRP>A<CZ2> 1
c<D>r<181>a<4527>R<TRP>A<CZ3> 2
c<D>r<181>a<4528>R<TRP>A<CH2> 1
c<D>r<203>a<4690>R<PHE>A<CB> 1
c<D>r<203>a<4691>R<PHE>A<CG> 2
c<D>r<203>a<4692>R<PHE>A<CD1> 2
c<D>r<203>a<4693>R<PHE>A<CD2> 1
c<D>r<203>a<4694>R<PHE>A<CE1> 1
c<D>r<203>a<4695>R<PHE>A<CE2> 1
c<D>r<203>a<4696>R<PHE>A<CZ> 1
c<D>r<205>a<4709>R<PRO>A<CA> 1
c<D>r<301>a<6709>R<GOL>A<C1> 1
c<D>r<301>a<6710>R<GOL>A<O1> 1
c<D>r<301>a<6712>R<GOL>A<O2> 1
c<D>r<301>a<6713>R<GOL>A<C3> 1
c<D>r<301>a<6714>R<GOL>A<O3> 1
