c<D>r<2>R<GLU> 1.5
c<D>r<25>R<SER> 1
c<D>r<26>R<ASP> 1.5
c<D>r<27>R<ARG> 1.11111
c<D>r<28>R<GLY> 1.5
c<D>r<29>R<SER> 2
c<D>r<30>R<GLN> 1.42857
c<D>r<31>R<SER> 1.66667
c<D>r<33>R<PHE> 2.66667
c<D>r<35>R<TYR> 1.75
c<D>r<37>R<GLN> 1
c<D>r<39>R<SER> 1.25
c<D>r<40>R<GLY> 1
c<D>r<41>R<LYS> 1
c<D>r<42>R<SER> 1.25
c<D>r<43>R<PRO> 1.4
c<D>r<44>R<GLU> 1
c<D>r<45>R<LEU> 1.33333
c<D>r<48>R<SER> 1.5
c<D>r<50>R<TYR> 1.5
c<D>r<51>R<SER> 1
c<D>r<52>R<ASN> 1
c<D>r<55>R<LYS> 1
c<D>r<68>R<LYS> 1
c<D>r<71>R<GLN> 1
c<D>r<89>R<LEU> 1
c<D>r<93>R<THR> 2.4
c<D>r<98>R<THR> 1.4
c<D>r<99>R<ASP> 1.625
c<D>r<100>R<SER> 1.33333
c<D>r<101>R<TRP> 1.35714
c<D>r<102>R<GLY> 1.5
c<D>r<103>R<LYS> 1
c<D>r<104>R<LEU> 1.8
c<D>r<106>R<PHE> 1.71429
c<D>r<107>R<GLY> 1
c<D>r<108>R<ALA> 1
c<D>r<122>R<ASP> 1
c<D>r<124>R<ALA> 1
c<D>r<126>R<TYR> 1.66667
c<D>r<127>R<GLN> 1
c<D>r<128>R<LEU> 1.85714
c<D>r<129>R<ARG> 1.5
c<D>r<130>R<ASP> 1.28571
c<D>r<131>R<SER> 1
c<D>r<132>R<LYS> 1
c<D>r<134>R<SER> 1.33333
c<D>r<136>R<LYS> 1.8
c<D>r<138>R<VAL> 2
c<D>r<140>R<LEU> 1.33333
c<D>r<142>R<THR> 1.5
c<D>r<143>R<ASP> 1.5
c<D>r<152>R<GLN> 1
c<D>r<156>R<SER> 1
c<D>r<159>R<TYR> 1.125
c<D>r<160>R<ILE> 1.33333
c<D>r<161>R<THR> 1.8
c<D>r<162>R<ASP> 1.25
c<D>r<164>R<THR> 1.6
c<D>r<165>R<VAL> 1.33333
c<D>r<166>R<LEU> 1.8
c<D>r<167>R<ASP> 1.5
c<D>r<168>R<MET> 1.2
c<D>r<169>R<ARG> 1.33333
c<D>r<173>R<PHE> 1.375
c<D>r<175>R<SER> 2
c<D>r<177>R<SER> 1.5
c<D>r<178>R<ALA> 2.33333
c<D>r<179>R<VAL> 1.5
c<D>r<181>R<TRP> 1.8
c<D>r<203>R<PHE> 1.28571
c<D>r<205>R<PRO> 1
c<D>r<301>R<GOL> 1
