V1;V2;Weight
1H9D A D 66;1H9D A S 67;17.8677
1H9D A D 66;1H9D A P 68;3.13632
1H9D A D 66;1H9D A A 160;0.169414
1H9D A D 66;1H9D A T 161;23.3496
1H9D A D 66;1H9D A H 163;19.9663
1H9D A D 66;1H9D B K 11;10.4588
1H9D A D 66;1H9D B N 104;22.6355
1H9D A S 67;1H9D A P 68;28.287
1H9D A S 67;1H9D A N 69;11.4115
1H9D A S 67;1H9D A L 94;0.120441
1H9D A S 67;1H9D A Q 158;0.000497953
1H9D A S 67;1H9D A V 159;5.83417
1H9D A S 67;1H9D A A 160;11.4137
1H9D A S 67;1H9D A T 161;0.147637
1H9D A S 67;1H9D B R 3;1.32515
1H9D A S 67;1H9D B N 104;9.57584
1H9D A S 67;1H9D B G 105;4.49528
1H9D A P 68;1H9D A N 69;16.5635
1H9D A P 68;1H9D A L 94;11.7798
1H9D A P 68;1H9D B P 2;27.1894
1H9D A P 68;1H9D B R 3;3.79109
1H9D A P 68;1H9D B V 4;8.0481
1H9D A P 68;1H9D B V 5;18.547
1H9D A P 68;1H9D B K 11;2.01522
1H9D A P 68;1H9D B N 104;5.48085
1H9D A P 68;1H9D B G 105;9.85419
1H9D A N 69;1H9D A L 94;15.1367
1H9D A N 69;1H9D A G 95;17.5386
1H9D A N 69;1H9D A Q 158;15.0572
1H9D A N 69;1H9D B P 2;16.0711
1H9D A N 69;1H9D B R 3;17.9906
1H9D A L 94;1H9D A G 95;26.8213
1H9D A L 94;1H9D B P 2;11.8534
1H9D A G 95;1H9D B P 2;8.61611
1H9D A G 95;1H9D B R 3;2.65484
1H9D A T 104;1H9D A M 106;9.25938
1H9D A T 104;1H9D A T 149;2.77917
1H9D A T 104;1H9D A T 151;19.5618
1H9D A T 104;1H9D A F 153;19.3218
1H9D A T 104;1H9D B S 65;6.42312
1H9D A M 106;1H9D A A 107;23.7914
1H9D A M 106;1H9D A T 147;0.268183
1H9D A M 106;1H9D A T 149;29.7939
1H9D A M 106;1H9D A T 151;6.19005
1H9D A M 106;1H9D B T 30;4.35396
1H9D A M 106;1H9D B E 54;14.4829
1H9D A M 106;1H9D B I 55;0.503425
1H9D A M 106;1H9D B N 63;22.4751
1H9D A M 106;1H9D B L 64;11.7755
1H9D A M 106;1H9D B S 65;18.2741
1H9D A A 107;1H9D A G 108;17.5266
1H9D A A 107;1H9D A S 114;4.50138
1H9D A A 107;1H9D A T 147;6.82419
1H9D A A 107;1H9D A T 149;0.264878
1H9D A A 107;1H9D B N 63;12.711
1H9D A G 108;1H9D A N 109;19.2269
1H9D A G 108;1H9D A N 112;4.50008
1H9D A G 108;1H9D A Y 113;4.58382
1H9D A G 108;1H9D A S 114;1.54918
1H9D A G 108;1H9D A T 147;18.5082
1H9D A G 108;1H9D B G 61;10.7103
1H9D A G 108;1H9D B N 63;4.56723
1H9D A N 109;1H9D A D 110;25.6719
1H9D A N 109;1H9D A N 112;18.4523
1H9D A N 109;1H9D A Y 113;5.60381
1H9D A N 109;1H9D A T 147;7.04947
1H9D A N 109;1H9D B V 58;1.84883
1H9D A N 109;1H9D B T 60;9.37625
1H9D A N 109;1H9D B G 61;10.7607
1H9D A D 110;1H9D B V 58;2.49809
1H9D A D 110;1H9D B A 59;16.3615
1H9D A D 110;1H9D B T 60;11.0527
1H9D A D 110;1H9D B G 61;0.175685
1H9D A N 112;1H9D A Y 113;20.5869
1H9D A N 112;1H9D A S 114;12.5696
1H9D A N 112;1H9D A E 116;0.0499901
1H9D A N 112;1H9D B R 33;8.89401
1H9D A Y 113;1H9D A S 114;26.5363
1H9D A Y 113;1H9D B K 28;32.2135
1H9D A Y 113;1H9D B Y 29;5.79996
1H9D A Y 113;1H9D B T 30;9.81322
1H9D A Y 113;1H9D B R 33;32.8828
1H9D A Y 113;1H9D B R 40;2.37426
1H9D A Y 113;1H9D B A 56;15.3953
1H9D A Y 113;1H9D B V 58;29.2539
1H9D A Y 113;1H9D B G 61;11.6903
1H9D A Y 113;1H9D B N 63;6.17363
1H9D A S 114;1H9D A E 116;4.64285
1H9D A S 114;1H9D B T 30;17.715
1H9D A S 114;1H9D B R 33;22.2717
1H9D A S 114;1H9D B A 56;1.10302
1H9D A S 114;1H9D B N 63;12.7755
1H9D A E 116;1H9D B R 33;1.46513
1H9D A E 116;1H9D B D 34;9.79328
1H9D A T 147;1H9D A T 149;5.50525
1H9D A T 147;1H9D A T 161;7.78657
1H9D A T 147;1H9D A H 163;28.4426
1H9D A T 147;1H9D B F 17;0.424616
1H9D A T 147;1H9D B T 60;3.52764
1H9D A T 147;1H9D B G 61;4.51394
1H9D A T 147;1H9D B T 62;12.6228
1H9D A T 147;1H9D B N 63;0.13322
1H9D A T 149;1H9D A T 151;9.91362
1H9D A T 149;1H9D A V 159;10.8055
1H9D A T 149;1H9D A A 160;2.69293
1H9D A T 149;1H9D A T 161;11.3737
1H9D A T 149;1H9D B T 62;5.54929
1H9D A T 149;1H9D B N 63;21.4404
1H9D A T 149;1H9D B L 64;8.56585
1H9D A T 149;1H9D B S 65;0.00496233
1H9D A T 151;1H9D A F 153;20.9111
1H9D A T 151;1H9D A P 157;10.0763
1H9D A T 151;1H9D A Q 158;4.85473
1H9D A T 151;1H9D A V 159;16.1922
1H9D A T 151;1H9D B L 64;0.256544
1H9D A T 151;1H9D B S 65;15.397
1H9D A F 153;1H9D A T 154;24.4677
1H9D A F 153;1H9D A N 155;2.00007
1H9D A F 153;1H9D A P 157;12.5556
1H9D A F 153;1H9D B S 65;19.9097
1H9D A F 153;1H9D B L 66;1.63199
1H9D A F 153;1H9D B Q 67;23.6709
1H9D A T 154;1H9D A N 155;30.8868
1H9D A T 154;1H9D A P 156;11.7338
1H9D A T 154;1H9D A P 157;10.988
1H9D A T 154;1H9D A Q 158;18.7281
1H9D A T 154;1H9D B R 3;8.70235
1H9D A T 154;1H9D B Q 67;3.82121
1H9D A N 155;1H9D A P 156;33.3513
1H9D A N 155;1H9D A P 157;0.223673
1H9D A N 155;1H9D B R 3;5.01461
1H9D A N 155;1H9D B Q 67;13.1857
1H9D A N 155;1H9D B P 70;4.49114
1H9D A P 156;1H9D A P 157;29.5868
1H9D A P 156;1H9D A Q 158;2.1113
1H9D A P 156;1H9D B R 3;11.3769
1H9D A P 156;1H9D B Q 67;0.0690023
1H9D A P 156;1H9D B P 70;6.93001
1H9D A P 156;1H9D B P 100;17.7624
1H9D A P 156;1H9D B M 101;10.5099
1H9D A P 156;1H9D B I 102;10.5398
1H9D A P 156;1H9D B R 131;26.8821
1H9D A P 157;1H9D A Q 158;19.2484
1H9D A P 157;1H9D A V 159;6.64192
1H9D A P 157;1H9D B S 65;5.071
1H9D A P 157;1H9D B L 66;0.28164
1H9D A P 157;1H9D B Q 67;27.599
1H9D A P 157;1H9D B P 100;7.44072
1H9D A P 157;1H9D B M 101;16.1632
1H9D A P 157;1H9D B I 102;7.90034
1H9D A Q 158;1H9D A V 159;22.9929
1H9D A Q 158;1H9D A A 160;0.0262843
1H9D A Q 158;1H9D B R 3;26.8727
1H9D A Q 158;1H9D B I 102;21.9868
1H9D A V 159;1H9D A A 160;23.1306
1H9D A V 159;1H9D A T 161;3.84446
1H9D A V 159;1H9D B L 64;10.3317
1H9D A V 159;1H9D B S 65;4.67784
1H9D A V 159;1H9D B M 101;17.7449
1H9D A V 159;1H9D B I 102;11.1008
1H9D A V 159;1H9D B L 103;17.5876
1H9D A V 159;1H9D B N 104;9.43656
1H9D A V 159;1H9D B G 105;0.306293
1H9D A A 160;1H9D A T 161;22.7333
1H9D A A 160;1H9D B L 103;0.292477
1H9D A A 160;1H9D B N 104;4.92237
1H9D A T 161;1H9D A H 163;9.68581
1H9D A T 161;1H9D B F 17;11.5535
1H9D A T 161;1H9D B T 62;7.18578
1H9D A T 161;1H9D B L 64;1.16042
1H9D A T 161;1H9D B L 103;6.99099
1H9D A T 161;1H9D B N 104;15.4491
1H9D A H 163;1H9D B F 17;22.3038
1H9D A H 163;1H9D B T 62;3.25145
1H9D A H 163;1H9D B N 104;0.128583
1H9D B P 2;1H9D B R 3;23.5854
1H9D B P 2;1H9D B V 4;18.6551
1H9D B R 3;1H9D B V 4;24.4551
1H9D B R 3;1H9D B I 102;28.4352
1H9D B R 3;1H9D B G 105;5.95413
1H9D B R 3;1H9D B R 131;5.17948
1H9D B V 4;1H9D B V 5;30.4112
1H9D B V 4;1H9D B I 102;10.3554
1H9D B V 4;1H9D B G 105;11.4915
1H9D B V 5;1H9D B K 11;25.4859
1H9D B V 5;1H9D B N 104;2.99482
1H9D B V 5;1H9D B G 105;12.264
1H9D B K 11;1H9D B N 104;14.3812
1H9D B F 17;1H9D B T 62;18.0426
1H9D B F 17;1H9D B L 64;0.00028393
1H9D B F 17;1H9D B L 103;17.0366
1H9D B F 17;1H9D B N 104;15.2833
1H9D B K 28;1H9D B Y 29;26.7467
1H9D B K 28;1H9D B T 30;5.21963
1H9D B K 28;1H9D B R 40;0.129595
1H9D B K 28;1H9D B I 55;13.3696
1H9D B K 28;1H9D B A 56;11.0763
1H9D B K 28;1H9D B V 58;18.1059
1H9D B Y 29;1H9D B T 30;18.2599
1H9D B Y 29;1H9D B R 33;0.167454
1H9D B Y 29;1H9D B R 40;30.8717
1H9D B Y 29;1H9D B E 54;14.2388
1H9D B Y 29;1H9D B I 55;7.34592
1H9D B T 30;1H9D B R 33;19.463
1H9D B T 30;1H9D B R 40;4.48542
1H9D B T 30;1H9D B E 54;22.9042
1H9D B T 30;1H9D B I 55;7.08191
1H9D B T 30;1H9D B A 56;10.066
1H9D B T 30;1H9D B N 63;7.55555
1H9D B R 33;1H9D B D 34;28.8681
1H9D B R 33;1H9D B R 40;21.4155
1H9D B E 54;1H9D B I 55;22.6142
1H9D B E 54;1H9D B L 64;5.24735
1H9D B E 54;1H9D B S 65;15.4351
1H9D B E 54;1H9D B L 66;0.425
1H9D B I 55;1H9D B A 56;23.7589
1H9D B I 55;1H9D B T 62;1.08346
1H9D B I 55;1H9D B N 63;4.0364
1H9D B I 55;1H9D B L 64;22.2835
1H9D B I 55;1H9D B L 66;16.359
1H9D B A 56;1H9D B V 58;8.70647
1H9D B A 56;1H9D B G 61;2.89731
1H9D B A 56;1H9D B T 62;4.94508
1H9D B A 56;1H9D B N 63;12.1907
1H9D B V 58;1H9D B A 59;29.4052
1H9D B V 58;1H9D B T 60;0.894332
1H9D B V 58;1H9D B G 61;6.58165
1H9D B A 59;1H9D B T 60;29.8126
1H9D B A 59;1H9D B G 61;0.787836
1H9D B T 60;1H9D B G 61;18.2736
1H9D B T 60;1H9D B T 62;20.6476
1H9D B G 61;1H9D B T 62;19.2335
1H9D B G 61;1H9D B N 63;8.91814
1H9D B T 62;1H9D B N 63;22.9229
1H9D B T 62;1H9D B L 64;13.5532
1H9D B T 62;1H9D B L 103;0.789478
1H9D B N 63;1H9D B L 64;22.7519
1H9D B L 64;1H9D B S 65;21.0446
1H9D B L 64;1H9D B L 66;17.7073
1H9D B L 64;1H9D B M 101;17.2419
1H9D B L 64;1H9D B L 103;12.2726
1H9D B S 65;1H9D B L 66;29.529
1H9D B S 65;1H9D B Q 67;0.467699
1H9D B S 65;1H9D B M 101;3.83656
1H9D B L 66;1H9D B Q 67;27.5012
1H9D B L 66;1H9D B M 101;9.99159
1H9D B Q 67;1H9D B P 100;10.6536
1H9D B P 70;1H9D B P 100;12.2418
1H9D B P 70;1H9D B R 131;1.95993
1H9D B P 100;1H9D B M 101;23.1736
1H9D B P 100;1H9D B R 131;8.90089
1H9D B M 101;1H9D B I 102;22.4991
1H9D B M 101;1H9D B L 103;17.9186
1H9D B I 102;1H9D B L 103;16.4512
1H9D B I 102;1H9D B N 104;1.19269
1H9D B I 102;1H9D B G 105;11.1964
1H9D B I 102;1H9D B R 131;3.36021
1H9D B L 103;1H9D B N 104;26.0667
1H9D B L 103;1H9D B G 105;2.46701
1H9D B N 104;1H9D B G 105;16.6428
