V1;V2;Weight
1XGR A S 28;1XGR A S 30;10.3578
1XGR A S 28;1XGR A N 92;5.18128
1XGR A S 28;1XGR C N 19;7.27515
1XGR A S 30;1XGR A N 31;21.9565
1XGR A S 30;1XGR A N 32;4.77078
1XGR A S 30;1XGR A S 67;9.80668
1XGR A S 30;1XGR A N 92;4.17529
1XGR A S 30;1XGR C K 13;8.11245
1XGR A S 30;1XGR C R 14;0.716077
1XGR A S 30;1XGR C G 16;14.9068
1XGR A S 30;1XGR C D 18;14.5502
1XGR A N 31;1XGR A N 32;21.7702
1XGR A N 31;1XGR A Y 50;28.1732
1XGR A N 31;1XGR A Q 53;4.83244
1XGR A N 31;1XGR A S 67;5.05583
1XGR A N 31;1XGR C R 14;11.5284
1XGR A N 31;1XGR C H 15;15.7303
1XGR A N 31;1XGR C G 16;8.55587
1XGR A N 31;1XGR C N 93;0.606379
1XGR A N 31;1XGR C K 96;7.91629
1XGR A N 32;1XGR A Y 50;12.7776
1XGR A N 32;1XGR A S 91;13.4698
1XGR A N 32;1XGR A N 92;18.3903
1XGR A N 32;1XGR C G 16;7.02132
1XGR A N 32;1XGR C Y 20;12.1306
1XGR A N 32;1XGR C K 96;8.25051
1XGR A K 49;1XGR A Y 50;34.6299
1XGR A K 49;1XGR A Q 53;33.8852
1XGR A K 49;1XGR B G 99;2.06524
1XGR A K 49;1XGR C N 93;9.16141
1XGR A Y 50;1XGR A Q 53;19.7311
1XGR A Y 50;1XGR A S 91;7.12533
1XGR A Y 50;1XGR B W 98;14.2312
1XGR A Y 50;1XGR C Y 20;4.90312
1XGR A Y 50;1XGR C N 93;25.8261
1XGR A Y 50;1XGR C K 96;21.2799
1XGR A Q 53;1XGR C H 15;6.12443
1XGR A Q 53;1XGR C T 89;21.0466
1XGR A Q 53;1XGR C N 93;17.1426
1XGR A S 67;1XGR C R 14;0.629488
1XGR A S 91;1XGR A N 92;18.4962
1XGR A S 91;1XGR A S 93;2.87678
1XGR A S 91;1XGR A Y 96;24.8819
1XGR A S 91;1XGR B W 98;5.32198
1XGR A S 91;1XGR C Y 20;16.8853
1XGR A S 91;1XGR C R 21;5.80023
1XGR A N 92;1XGR A S 93;30.0216
1XGR A N 92;1XGR C G 16;1.81236
1XGR A N 92;1XGR C D 18;3.67813
1XGR A N 92;1XGR C N 19;19.7661
1XGR A N 92;1XGR C Y 20;15.4915
1XGR A N 92;1XGR C R 21;15.5567
1XGR A N 92;1XGR C G 22;0.159686
1XGR A S 93;1XGR A W 94;27.7304
1XGR A S 93;1XGR A Y 96;8.91532
1XGR A S 93;1XGR C N 19;4.28093
1XGR A S 93;1XGR C R 21;8.32388
1XGR A S 93;1XGR C G 22;0.733991
1XGR A W 94;1XGR A Y 96;24.6719
1XGR A W 94;1XGR B Y 50;13.8237
1XGR A W 94;1XGR B Y 58;28.5085
1XGR A W 94;1XGR C R 21;23.7013
1XGR A Y 96;1XGR B Y 50;11.6198
1XGR A Y 96;1XGR B W 98;19.1781
1XGR A Y 96;1XGR C Y 20;1.74642
1XGR A Y 96;1XGR C R 21;15.9275
1XGR A Y 96;1XGR C S 100;3.63979
1XGR B T 30;1XGR B S 31;19.3447
1XGR B T 30;1XGR B D 32;3.55052
1XGR B T 30;1XGR B Y 53;11.3243
1XGR B T 30;1XGR C R 73;23.6901
1XGR B T 30;1XGR C L 75;3.48996
1XGR B S 31;1XGR B D 32;26.7483
1XGR B S 31;1XGR C R 73;17.643
1XGR B S 31;1XGR C N 74;4.05116
1XGR B S 31;1XGR C L 75;14.4659
1XGR B D 32;1XGR B I 33;29.2347
1XGR B D 32;1XGR B S 52;2.08993
1XGR B D 32;1XGR B Y 53;12.9786
1XGR B D 32;1XGR B W 98;3.35701
1XGR B D 32;1XGR B G 99;2.16184
1XGR B D 32;1XGR B D 101;5.66298
1XGR B D 32;1XGR C L 75;10.891
1XGR B D 32;1XGR C N 77;0.127607
1XGR B D 32;1XGR C K 97;19.5139
1XGR B I 33;1XGR B Y 50;17.2181
1XGR B I 33;1XGR B S 52;15.3966
1XGR B I 33;1XGR B Y 53;17.1454
1XGR B I 33;1XGR B W 98;33.9151
1XGR B I 33;1XGR C L 75;0.191953
1XGR B I 33;1XGR C K 97;23.4971
1XGR B I 33;1XGR C S 100;8.53708
1XGR B I 33;1XGR C D 101;3.94427
1XGR B Y 50;1XGR B S 52;8.48823
1XGR B Y 50;1XGR B S 56;0.877034
1XGR B Y 50;1XGR B T 57;8.59757
1XGR B Y 50;1XGR B Y 58;35.8691
1XGR B Y 50;1XGR B W 98;13.0569
1XGR B Y 50;1XGR C R 21;11.3905
1XGR B Y 50;1XGR C S 100;16.8109
1XGR B Y 50;1XGR C D 101;0.387428
1XGR B S 52;1XGR B Y 53;26.4837
1XGR B S 52;1XGR B S 54;7.49034
1XGR B S 52;1XGR B S 56;17.3963
1XGR B S 52;1XGR B Y 58;0.315574
1XGR B S 52;1XGR C S 100;0.00508293
1XGR B S 52;1XGR C D 101;16.6247
1XGR B S 52;1XGR C G 102;0.937097
1XGR B Y 53;1XGR B S 54;32.1261
1XGR B Y 53;1XGR C W 62;16.2426
1XGR B Y 53;1XGR C W 63;24.4639
1XGR B Y 53;1XGR C R 73;20.757
1XGR B Y 53;1XGR C L 75;22.4725
1XGR B Y 53;1XGR C K 97;5.28289
1XGR B Y 53;1XGR C I 98;5.4888
1XGR B Y 53;1XGR C D 101;19.911
1XGR B Y 53;1XGR C N 103;7.98376
1XGR B Y 53;1XGR C A 107;0.0944989
1XGR B S 54;1XGR B S 56;14.3904
1XGR B S 54;1XGR C W 62;3.15735
1XGR B S 54;1XGR C R 73;0.500123
1XGR B S 54;1XGR C D 101;11.5223
1XGR B S 54;1XGR C N 103;0.757856
1XGR B S 56;1XGR B T 57;31.6662
1XGR B S 56;1XGR B Y 58;4.15522
1XGR B S 56;1XGR C D 101;5.70449
1XGR B S 56;1XGR C G 102;19.6756
1XGR B T 57;1XGR B Y 58;34.6654
1XGR B T 57;1XGR C G 102;0.0255903
1XGR B Y 58;1XGR C R 21;19.3346
1XGR B Y 58;1XGR C V 99;2.70838
1XGR B Y 58;1XGR C S 100;7.33541
1XGR B Y 58;1XGR C D 101;8.23016
1XGR B Y 58;1XGR C G 102;21.5131
1XGR B Y 58;1XGR C G 104;1.47973
1XGR B W 98;1XGR B G 99;34.4401
1XGR B W 98;1XGR C Y 20;7.94122
1XGR B W 98;1XGR C N 93;2.32514
1XGR B W 98;1XGR C K 96;3.68109
1XGR B W 98;1XGR C K 97;33.1155
1XGR B W 98;1XGR C S 100;13.3879
1XGR B G 99;1XGR B D 101;17.2304
1XGR B G 99;1XGR C K 97;4.89663
1XGR B D 101;1XGR C N 77;8.57521
1XGR C K 13;1XGR C R 14;24.1009
1XGR C K 13;1XGR C H 15;0.97665
1XGR C K 13;1XGR C G 16;8.36184
1XGR C K 13;1XGR C D 18;23.4902
1XGR C R 14;1XGR C H 15;41.5455
1XGR C R 14;1XGR C G 16;4.68875
1XGR C R 14;1XGR C T 89;0.09613
1XGR C H 15;1XGR C G 16;13.4562
1XGR C H 15;1XGR C T 89;23.003
1XGR C H 15;1XGR C N 93;1.31441
1XGR C H 15;1XGR C K 96;7.97404
1XGR C G 16;1XGR C D 18;4.6136
1XGR C G 16;1XGR C Y 20;7.71207
1XGR C G 16;1XGR C K 96;8.33885
1XGR C D 18;1XGR C N 19;31.7255
1XGR C D 18;1XGR C Y 20;3.04009
1XGR C N 19;1XGR C Y 20;15.5549
1XGR C N 19;1XGR C R 21;2.69602
1XGR C N 19;1XGR C G 22;22.7827
1XGR C Y 20;1XGR C R 21;32.8317
1XGR C Y 20;1XGR C G 22;1.81757
1XGR C Y 20;1XGR C K 96;31.3653
1XGR C Y 20;1XGR C V 99;11.7941
1XGR C Y 20;1XGR C S 100;6.9974
1XGR C R 21;1XGR C G 22;24.6806
1XGR C R 21;1XGR C V 99;12.4646
1XGR C R 21;1XGR C S 100;15.6784
1XGR C W 62;1XGR C W 63;44.3035
1XGR C W 62;1XGR C R 73;40.4946
1XGR C W 62;1XGR C N 74;6.6357
1XGR C W 62;1XGR C L 75;22.7944
1XGR C W 63;1XGR C N 74;6.55478
1XGR C W 63;1XGR C L 75;21.1625
1XGR C W 63;1XGR C N 77;0.639749
1XGR C W 63;1XGR C K 97;5.60554
1XGR C W 63;1XGR C I 98;38.6287
1XGR C W 63;1XGR C A 107;5.92937
1XGR C R 73;1XGR C N 74;27.7868
1XGR C R 73;1XGR C L 75;24.3142
1XGR C N 74;1XGR C L 75;17.1071
1XGR C N 74;1XGR C N 77;29.0189
1XGR C L 75;1XGR C N 77;6.58832
1XGR C L 75;1XGR C K 97;19.4817
1XGR C N 77;1XGR C K 97;3.58074
1XGR C T 89;1XGR C N 93;18.1511
1XGR C N 93;1XGR C K 96;14.3771
1XGR C N 93;1XGR C K 97;9.65468
1XGR C K 96;1XGR C K 97;15.7777
1XGR C K 96;1XGR C I 98;0.421913
1XGR C K 96;1XGR C V 99;8.8397
1XGR C K 96;1XGR C S 100;8.61966
1XGR C K 97;1XGR C I 98;19.9491
1XGR C K 97;1XGR C V 99;0.645889
1XGR C K 97;1XGR C S 100;10.101
1XGR C K 97;1XGR C D 101;3.38102
1XGR C I 98;1XGR C V 99;18.0508
1XGR C I 98;1XGR C S 100;2.38192
1XGR C I 98;1XGR C D 101;10.7812
1XGR C I 98;1XGR C N 103;4.36857
1XGR C I 98;1XGR C G 104;5.62941
1XGR C I 98;1XGR C A 107;15.9444
1XGR C V 99;1XGR C S 100;19.7603
1XGR C V 99;1XGR C D 101;6.54871
1XGR C V 99;1XGR C G 104;20.8847
1XGR C S 100;1XGR C D 101;20.9529
1XGR C D 101;1XGR C G 102;21.9349
1XGR C D 101;1XGR C N 103;24.9112
1XGR C D 101;1XGR C G 104;8.39364
1XGR C G 102;1XGR C N 103;23.9721
1XGR C G 102;1XGR C G 104;3.54612
1XGR C N 103;1XGR C G 104;27.1054
1XGR C N 103;1XGR C A 107;14.3905
1XGR C G 104;1XGR C A 107;7.26527
