V1;V2;Weight
2A9K A V 20;2A9K A G 21;22.2378
2A9K A V 20;2A9K A K 27;10.8652
2A9K A V 20;2A9K A T 69;4.88961
2A9K A V 20;2A9K A Y 82;0.545697
2A9K A V 20;2A9K A F 83;12.5509
2A9K A V 20;2A9K A F 107;15.4805
2A9K A V 20;2A9K B N 98;8.90339
2A9K A G 21;2A9K A S 22;18.3905
2A9K A G 21;2A9K A K 27;15.265
2A9K A G 21;2A9K A T 69;0.0553062
2A9K A G 21;2A9K A S 100;0.00123711
2A9K A G 21;2A9K A F 107;19.4646
2A9K A G 21;2A9K B V 96;9.23366
2A9K A G 21;2A9K B N 98;1.21721
2A9K A S 22;2A9K A G 23;22.8858
2A9K A S 22;2A9K A G 24;1.20687
2A9K A S 22;2A9K A K 27;5.91441
2A9K A S 22;2A9K A E 99;0.000523584
2A9K A S 22;2A9K A S 100;16.7737
2A9K A S 22;2A9K A A 103;7.31585
2A9K A S 22;2A9K A F 107;11.1225
2A9K A S 22;2A9K B Q 92;6.22487
2A9K A S 22;2A9K B N 93;16.3147
2A9K A S 22;2A9K B K 94;1.62217
2A9K A S 22;2A9K B V 96;4.89875
2A9K A G 23;2A9K A G 24;24.7307
2A9K A G 23;2A9K A K 27;5.61411
2A9K A G 23;2A9K A A 70;0.00431342
2A9K A G 23;2A9K A Q 72;6.57392
2A9K A G 23;2A9K A S 100;0.0450726
2A9K A G 23;2A9K B N 93;6.07788
2A9K A G 23;2A9K B K 94;27.975
2A9K A G 23;2A9K B V 96;11.7944
2A9K A G 24;2A9K A K 27;4.35622
2A9K A G 24;2A9K A P 45;0.323488
2A9K A G 24;2A9K B K 94;8.15354
2A9K A K 27;2A9K A T 69;19.1142
2A9K A K 27;2A9K A A 70;8.09622
2A9K A K 27;2A9K B V 96;3.08521
2A9K A P 45;2A9K A T 46;24.1354
2A9K A P 45;2A9K A A 70;8.36744
2A9K A P 45;2A9K A Q 72;17.6087
2A9K A P 45;2A9K B L 168;2.8286
2A9K A P 45;2A9K B H 220;3.11344
2A9K A T 46;2A9K A A 70;12.9768
2A9K A T 46;2A9K A Q 72;22.5936
2A9K A T 46;2A9K A E 73;13.0926
2A9K A T 46;2A9K B H 220;12.1311
2A9K A T 46;2A9K B A 247;16.6278
2A9K A T 46;2A9K B I 248;2.39657
2A9K A T 69;2A9K A A 70;27.453
2A9K A T 69;2A9K A G 71;3.59649
2A9K A T 69;2A9K A D 74;4.86607
2A9K A T 69;2A9K A Y 82;16.2032
2A9K A T 69;2A9K B N 98;10.1308
2A9K A A 70;2A9K A G 71;23.0801
2A9K A A 70;2A9K A Q 72;16.3427
2A9K A A 70;2A9K A E 73;0.211019
2A9K A A 70;2A9K A D 74;4.24011
2A9K A A 70;2A9K B V 96;10.4774
2A9K A A 70;2A9K B N 98;0.000553939
2A9K A G 71;2A9K A Q 72;17.3888
2A9K A G 71;2A9K A E 73;3.70355
2A9K A G 71;2A9K A D 74;20.9224
2A9K A G 71;2A9K A Y 82;0.841722
2A9K A G 71;2A9K B V 96;11.2734
2A9K A G 71;2A9K B I 97;9.60316
2A9K A G 71;2A9K B N 98;11.505
2A9K A Q 72;2A9K A E 73;26.7472
2A9K A Q 72;2A9K B K 94;6.71557
2A9K A Q 72;2A9K B G 95;13.1385
2A9K A Q 72;2A9K B V 96;14.3507
2A9K A Q 72;2A9K B I 97;7.75373
2A9K A Q 72;2A9K B R 219;11.8283
2A9K A Q 72;2A9K B H 220;13.6016
2A9K A Q 72;2A9K B I 248;9.15703
2A9K A E 73;2A9K A D 74;24.7777
2A9K A E 73;2A9K A Y 75;27.1369
2A9K A E 73;2A9K B I 97;4.78445
2A9K A E 73;2A9K B R 219;2.64652
2A9K A E 73;2A9K B A 247;9.99094
2A9K A E 73;2A9K B I 248;21.3193
2A9K A E 73;2A9K B N 249;7.77365
2A9K A E 73;2A9K B P 250;5.9479
2A9K A D 74;2A9K A Y 75;15.9687
2A9K A D 74;2A9K A R 79;10.7855
2A9K A D 74;2A9K A Y 82;18.8805
2A9K A D 74;2A9K B I 97;11.0245
2A9K A D 74;2A9K B N 98;8.91794
2A9K A D 74;2A9K B I 105;5.11667
2A9K A Y 75;2A9K A A 76;18.7605
2A9K A Y 75;2A9K A A 77;5.82165
2A9K A Y 75;2A9K A R 79;7.02733
2A9K A Y 75;2A9K B I 97;13.525
2A9K A Y 75;2A9K B I 105;11.9566
2A9K A Y 75;2A9K B V 108;3.81634
2A9K A Y 75;2A9K B E 109;37.1997
2A9K A Y 75;2A9K B D 112;14.5746
2A9K A Y 75;2A9K B K 113;13.6783
2A9K A Y 75;2A9K B R 219;3.66593
2A9K A Y 75;2A9K B I 248;6.28414
2A9K A Y 75;2A9K B P 250;12.6155
2A9K A A 76;2A9K A A 77;24.1965
2A9K A A 76;2A9K A R 79;15.6041
2A9K A A 76;2A9K B S 102;2.83357
2A9K A A 76;2A9K B I 105;22.156
2A9K A A 76;2A9K B K 106;4.57186
2A9K A A 76;2A9K B E 109;6.59194
2A9K A A 77;2A9K A R 79;0.301179
2A9K A A 77;2A9K B E 109;0.448941
2A9K A R 79;2A9K A Y 82;19.1795
2A9K A R 79;2A9K A F 83;25.5341
2A9K A R 79;2A9K A Q 110;20.8873
2A9K A R 79;2A9K B I 97;1.15226
2A9K A R 79;2A9K B N 98;21.5639
2A9K A R 79;2A9K B G 99;0.640572
2A9K A R 79;2A9K B F 100;11.9912
2A9K A R 79;2A9K B P 101;1.44193
2A9K A R 79;2A9K B S 102;9.35846
2A9K A R 79;2A9K B I 105;19.6179
2A9K A Y 82;2A9K A F 83;32.5762
2A9K A Y 82;2A9K B N 98;13.1341
2A9K A F 83;2A9K A F 107;7.07165
2A9K A F 83;2A9K A Q 110;12.2769
2A9K A F 83;2A9K B N 98;16.9734
2A9K A E 97;2A9K A E 99;17.7016
2A9K A E 97;2A9K A S 100;21.1843
2A9K A E 97;2A9K B K 94;23.8151
2A9K A E 99;2A9K A S 100;19.6268
2A9K A E 99;2A9K A A 102;9.33384
2A9K A E 99;2A9K A A 103;7.73561
2A9K A E 99;2A9K B R 91;7.71773
2A9K A E 99;2A9K B Q 92;43.1907
2A9K A S 100;2A9K A A 102;0.483005
2A9K A S 100;2A9K A A 103;8.71498
2A9K A S 100;2A9K A F 107;1.20944
2A9K A S 100;2A9K B Q 92;3.39072
2A9K A A 102;2A9K A A 103;16.6018
2A9K A A 102;2A9K A D 106;3.98499
2A9K A A 102;2A9K B Q 92;13.8253
2A9K A A 103;2A9K A D 106;20.3733
2A9K A A 103;2A9K A F 107;16.461
2A9K A A 103;2A9K B Q 92;12.6715
2A9K A A 103;2A9K B N 93;11.2659
2A9K A D 106;2A9K A F 107;19.474
2A9K A D 106;2A9K A E 109;16.4773
2A9K A D 106;2A9K A Q 110;10.1906
2A9K A D 106;2A9K B K 89;21.3003
2A9K A D 106;2A9K B Q 92;3.74589
2A9K A D 106;2A9K B N 93;3.8853
2A9K A D 106;2A9K B G 99;22.3466
2A9K A D 106;2A9K B F 100;0.0461446
2A9K A D 106;2A9K B P 101;0.343084
2A9K A F 107;2A9K A E 109;0.686035
2A9K A F 107;2A9K A Q 110;6.95705
2A9K A F 107;2A9K B N 93;11.0029
2A9K A F 107;2A9K B V 96;11.7525
2A9K A F 107;2A9K B N 98;13.1136
2A9K A F 107;2A9K B G 99;19.6471
2A9K A E 109;2A9K A Q 110;28.4325
2A9K A E 109;2A9K A R 113;39.6064
2A9K A E 109;2A9K B P 101;5.09038
2A9K A Q 110;2A9K A R 113;28.4151
2A9K A Q 110;2A9K B N 98;4.28566
2A9K A Q 110;2A9K B G 99;12.8149
2A9K A Q 110;2A9K B F 100;5.50028
2A9K A Q 110;2A9K B P 101;15.8095
2A9K A Q 110;2A9K B S 102;4.8491
2A9K A R 113;2A9K B P 101;1.91786
2A9K A R 113;2A9K B S 102;4.88239
2A9K B K 89;2A9K B R 91;0.814075
2A9K B K 89;2A9K B Q 92;24.2088
2A9K B K 89;2A9K B N 93;18.7511
2A9K B K 89;2A9K B G 99;1.69739
2A9K B K 89;2A9K B F 100;25.0648
2A9K B K 89;2A9K B P 101;8.60894
2A9K B R 91;2A9K B Q 92;20.5936
2A9K B R 91;2A9K B N 93;1.73751
2A9K B R 91;2A9K B K 94;13.0425
2A9K B Q 92;2A9K B N 93;27.3396
2A9K B Q 92;2A9K B K 94;4.66582
2A9K B N 93;2A9K B K 94;19.3009
2A9K B N 93;2A9K B G 95;3.24709
2A9K B N 93;2A9K B V 96;23.9174
2A9K B N 93;2A9K B F 100;9.65238
2A9K B K 94;2A9K B G 95;13.2417
2A9K B K 94;2A9K B V 96;4.32039
2A9K B K 94;2A9K B H 220;5.13224
2A9K B G 95;2A9K B V 96;17.981
2A9K B G 95;2A9K B I 97;6.03041
2A9K B G 95;2A9K B R 219;8.26414
2A9K B G 95;2A9K B H 220;9.02999
2A9K B V 96;2A9K B I 97;19.1543
2A9K B V 96;2A9K B N 98;14.3626
2A9K B V 96;2A9K B G 99;0.98635
2A9K B V 96;2A9K B F 100;8.70699
2A9K B I 97;2A9K B N 98;18.1023
2A9K B I 97;2A9K B G 99;3.60644
2A9K B I 97;2A9K B F 100;28.0932
2A9K B I 97;2A9K B I 105;19.4909
2A9K B I 97;2A9K B V 108;13.6244
2A9K B I 97;2A9K B R 219;10.6049
2A9K B N 98;2A9K B G 99;18.0378
2A9K B N 98;2A9K B F 100;0.709919
2A9K B N 98;2A9K B I 105;2.24786
2A9K B G 99;2A9K B F 100;24.6966
2A9K B G 99;2A9K B P 101;5.67265
2A9K B F 100;2A9K B P 101;24.6128
2A9K B F 100;2A9K B I 105;16.4092
2A9K B F 100;2A9K B V 108;10.7392
2A9K B P 101;2A9K B S 102;22.2329
2A9K B P 101;2A9K B I 105;8.58794
2A9K B S 102;2A9K B I 105;13.2808
2A9K B S 102;2A9K B K 106;12.3663
2A9K B I 105;2A9K B K 106;21.4716
2A9K B I 105;2A9K B V 108;11.0752
2A9K B I 105;2A9K B E 109;9.40756
2A9K B K 106;2A9K B V 108;0.976741
2A9K B K 106;2A9K B E 109;18.4712
2A9K B V 108;2A9K B E 109;16.8712
2A9K B V 108;2A9K B D 112;14.1134
2A9K B V 108;2A9K B R 219;11.1093
2A9K B E 109;2A9K B D 112;7.52423
2A9K B E 109;2A9K B K 113;37.9648
2A9K B D 112;2A9K B K 113;19.0054
2A9K B D 112;2A9K B R 219;16.1069
2A9K B D 112;2A9K B I 248;19.2369
2A9K B D 112;2A9K B P 250;12.4482
2A9K B K 113;2A9K B P 250;25.1616
2A9K B L 168;2A9K B H 220;28.2635
2A9K B L 168;2A9K B A 247;0.157448
2A9K B R 219;2A9K B H 220;26.7204
2A9K B R 219;2A9K B I 248;25.9187
2A9K B H 220;2A9K B A 247;22.9111
2A9K B H 220;2A9K B I 248;14.7373
2A9K B A 247;2A9K B I 248;22.8929
2A9K B A 247;2A9K B N 249;14.7004
2A9K B I 248;2A9K B N 249;17.3392
2A9K B I 248;2A9K B P 250;12.6082
2A9K B N 249;2A9K B P 250;30.6468
