V1;V2;Weight
2C5D A R 299;2C5D A M 300;39.5319
2C5D A R 299;2C5D A F 301;2.03669
2C5D A R 299;2C5D A V 306;23.0642
2C5D A R 299;2C5D A R 467;26.1497
2C5D A R 299;2C5D A M 468;31.0362
2C5D A R 299;2C5D A S 663;15.9005
2C5D A R 299;2C5D C V 79;1.22102
2C5D A R 299;2C5D C P 80;16.9972
2C5D A R 299;2C5D C L 81;7.04992
2C5D A R 299;2C5D C G 82;4.26453
2C5D A R 299;2C5D C E 83;8.41175
2C5D A M 300;2C5D A F 301;22.0075
2C5D A M 300;2C5D A S 302;9.67619
2C5D A M 300;2C5D A T 304;26.3162
2C5D A M 300;2C5D A P 305;3.29412
2C5D A M 300;2C5D A V 306;12.1669
2C5D A M 300;2C5D A S 663;0.946305
2C5D A M 300;2C5D C P 80;13.42
2C5D A M 300;2C5D C G 82;11.6135
2C5D A M 300;2C5D C E 83;21.1695
2C5D A M 300;2C5D C D 84;2.82595
2C5D A F 301;2C5D A S 302;24.5524
2C5D A F 301;2C5D A S 663;13.8828
2C5D A F 301;2C5D C E 83;1.79507
2C5D A S 302;2C5D A T 304;20.2839
2C5D A S 302;2C5D C E 83;14.6667
2C5D A S 302;2C5D C D 84;13.7831
2C5D A S 302;2C5D C E 85;0.468738
2C5D A T 304;2C5D A P 305;36.659
2C5D A T 304;2C5D A V 306;5.45439
2C5D A T 304;2C5D A R 308;3.0851
2C5D A T 304;2C5D C P 80;5.61638
2C5D A T 304;2C5D C E 83;0.420637
2C5D A T 304;2C5D C D 84;7.64703
2C5D A T 304;2C5D C E 85;28.9362
2C5D A T 304;2C5D C W 89;7.17962
2C5D A P 305;2C5D A V 306;14.9514
2C5D A P 305;2C5D A I 307;8.73796
2C5D A P 305;2C5D A R 308;18.1319
2C5D A P 305;2C5D C P 80;7.57794
2C5D A P 305;2C5D C E 85;0.0271822
2C5D A P 305;2C5D C W 89;0.907431
2C5D A V 306;2C5D A I 307;28.3504
2C5D A V 306;2C5D A M 468;4.39688
2C5D A V 306;2C5D C V 79;5.44955
2C5D A V 306;2C5D C P 80;11.0322
2C5D A I 307;2C5D A R 308;23.637
2C5D A I 307;2C5D A L 309;13.8202
2C5D A I 307;2C5D A I 458;26.1417
2C5D A I 307;2C5D A M 468;3.45486
2C5D A I 307;2C5D C T 77;3.72141
2C5D A I 307;2C5D C Q 78;6.36006
2C5D A I 307;2C5D C V 79;13.3495
2C5D A I 307;2C5D C P 80;2.74221
2C5D A R 308;2C5D A L 309;26.428
2C5D A R 308;2C5D A R 310;0.112975
2C5D A R 308;2C5D C E 56;21.6936
2C5D A R 308;2C5D C P 57;4.78812
2C5D A R 308;2C5D C Q 76;2.09413
2C5D A R 308;2C5D C T 77;2.28441
2C5D A R 308;2C5D C Q 78;47.0138
2C5D A R 308;2C5D C P 80;0.985605
2C5D A R 308;2C5D C E 85;3.47315
2C5D A R 308;2C5D C W 89;22.6506
2C5D A L 309;2C5D A R 310;21.8891
2C5D A L 309;2C5D A F 311;19.723
2C5D A L 309;2C5D A I 458;6.10334
2C5D A L 309;2C5D C T 75;5.48182
2C5D A L 309;2C5D C Q 76;6.60697
2C5D A L 309;2C5D C T 77;17.2477
2C5D A L 309;2C5D C Q 78;0.00852336
2C5D A R 310;2C5D A F 311;26.8471
2C5D A R 310;2C5D A K 312;17.2181
2C5D A R 310;2C5D C E 59;33.7569
2C5D A R 310;2C5D C S 74;1.66027
2C5D A R 310;2C5D C T 75;8.16474
2C5D A R 310;2C5D C Q 76;41.9683
2C5D A R 310;2C5D C Q 78;11.7652
2C5D A F 311;2C5D A K 312;23.1769
2C5D A F 311;2C5D A R 313;17.554
2C5D A F 311;2C5D A L 451;23.7806
2C5D A F 311;2C5D C S 74;1.58609
2C5D A F 311;2C5D C T 75;21.9611
2C5D A K 312;2C5D A R 313;26.5017
2C5D A K 312;2C5D A L 416;19.963
2C5D A K 312;2C5D C E 59;19.2126
2C5D A K 312;2C5D C H 61;5.56281
2C5D A K 312;2C5D C E 70;2.29852
2C5D A K 312;2C5D C A 72;5.60399
2C5D A K 312;2C5D C D 73;5.86888
2C5D A K 312;2C5D C S 74;33.1432
2C5D A K 312;2C5D C Q 76;7.65111
2C5D A R 313;2C5D A L 314;17.8067
2C5D A R 313;2C5D A Q 315;11.8375
2C5D A R 313;2C5D A L 416;12.1333
2C5D A R 313;2C5D A L 451;11.6788
2C5D A R 313;2C5D C D 73;21.1533
2C5D A R 313;2C5D C S 74;8.50589
2C5D A R 313;2C5D C T 75;13.8901
2C5D A R 313;2C5D C R 96;32.286
2C5D A L 314;2C5D A Q 315;36.5386
2C5D A L 314;2C5D A G 415;10.2576
2C5D A L 314;2C5D A L 416;17.2323
2C5D A L 314;2C5D C L 71;20.9362
2C5D A L 314;2C5D C A 72;8.80897
2C5D A L 314;2C5D C D 73;27.0217
2C5D A L 314;2C5D C T 98;1.9259
2C5D A Q 315;2C5D C D 73;0.290553
2C5D A Q 315;2C5D C T 98;0.384288
2C5D A R 414;2C5D A G 415;25.7854
2C5D A R 414;2C5D A L 416;9.6651
2C5D A R 414;2C5D C E 70;11.9882
2C5D A R 414;2C5D C L 71;11.3592
2C5D A G 415;2C5D A L 416;27.198
2C5D A G 415;2C5D C L 71;16.6415
2C5D A L 416;2C5D C E 70;9.9154
2C5D A L 416;2C5D C L 71;13.5446
2C5D A L 416;2C5D C A 72;15.3741
2C5D A L 416;2C5D C D 73;0.511204
2C5D A L 451;2C5D A N 452;35.2655
2C5D A L 451;2C5D C R 96;0.988258
2C5D A N 452;2C5D A D 455;2.11432
2C5D A N 452;2C5D C R 96;7.45521
2C5D A D 455;2C5D A T 456;19.7506
2C5D A D 455;2C5D A T 457;19.8771
2C5D A D 455;2C5D A I 458;1.0107
2C5D A D 455;2C5D C T 46;7.23298
2C5D A D 455;2C5D C R 48;0.139177
2C5D A D 455;2C5D C Q 94;27.3099
2C5D A D 455;2C5D C R 96;2.09961
2C5D A T 456;2C5D A T 457;18.7535
2C5D A T 456;2C5D A E 460;27.3274
2C5D A T 456;2C5D C R 48;7.88007
2C5D A T 457;2C5D A I 458;29.1425
2C5D A T 457;2C5D A E 460;14.809
2C5D A T 457;2C5D A T 461;12.7487
2C5D A T 457;2C5D C R 48;17.3348
2C5D A T 457;2C5D C T 77;18.4474
2C5D A T 457;2C5D C V 79;0.0351437
2C5D A T 457;2C5D C V 92;23.0106
2C5D A T 457;2C5D C Q 94;11.8039
2C5D A I 458;2C5D A E 460;3.68849
2C5D A I 458;2C5D A T 461;10.9614
2C5D A I 458;2C5D A M 468;0.0009485
2C5D A I 458;2C5D C T 77;13.8698
2C5D A I 458;2C5D C V 79;7.47646
2C5D A E 460;2C5D A T 461;22.6484
2C5D A E 460;2C5D C R 48;22.3316
2C5D A E 460;2C5D C Q 50;2.75899
2C5D A T 461;2C5D A N 465;15.8367
2C5D A T 461;2C5D A M 468;8.65903
2C5D A T 461;2C5D C Q 50;7.30546
2C5D A T 461;2C5D C V 79;17.5096
2C5D A T 461;2C5D C L 81;0.255643
2C5D A T 461;2C5D C I 90;23.6845
2C5D A T 461;2C5D C V 92;4.00782
2C5D A N 465;2C5D A R 467;10.4718
2C5D A N 465;2C5D A M 468;28.696
2C5D A N 465;2C5D C L 81;17.8862
2C5D A N 465;2C5D C I 90;3.07313
2C5D A R 467;2C5D A M 468;18.7965
2C5D A R 467;2C5D A S 663;0.722975
2C5D A R 467;2C5D A D 664;34.2571
2C5D A R 467;2C5D C E 83;10.0213
2C5D A M 468;2C5D C V 79;16.2421
2C5D A M 468;2C5D C P 80;1.21987
2C5D A M 468;2C5D C L 81;5.02405
2C5D A S 663;2C5D A D 664;30.5221
2C5D A S 663;2C5D C E 83;26.8369
2C5D A D 664;2C5D C E 83;0.00327615
2C5D C T 46;2C5D C R 48;2.63712
2C5D C T 46;2C5D C Q 94;20.2227
2C5D C T 46;2C5D C R 96;23.3241
2C5D C R 48;2C5D C Q 50;16.9732
2C5D C R 48;2C5D C V 92;17.3102
2C5D C R 48;2C5D C Q 94;18.1901
2C5D C Q 50;2C5D C I 90;15.3129
2C5D C Q 50;2C5D C V 92;21.8826
2C5D C E 56;2C5D C P 57;39.5438
2C5D C E 56;2C5D C Q 78;0.426784
2C5D C E 56;2C5D C E 85;26.5655
2C5D C E 56;2C5D C W 89;7.90251
2C5D C P 57;2C5D C E 59;0.763508
2C5D C P 57;2C5D C Q 78;23.0626
2C5D C P 57;2C5D C W 89;24.1325
2C5D C E 59;2C5D C H 61;31.0942
2C5D C E 59;2C5D C Q 76;14.7028
2C5D C E 59;2C5D C Q 78;0.650587
2C5D C E 70;2C5D C L 71;41.4899
2C5D C E 70;2C5D C A 72;2.59964
2C5D C L 71;2C5D C A 72;22.2359
2C5D C A 72;2C5D C D 73;21.7546
2C5D C A 72;2C5D C S 74;9.85054
2C5D C A 72;2C5D C R 96;0.791098
2C5D C D 73;2C5D C S 74;18.4687
2C5D C D 73;2C5D C R 96;40.8573
2C5D C D 73;2C5D C T 98;12.6464
2C5D C S 74;2C5D C T 75;22.6922
2C5D C S 74;2C5D C Q 76;5.81639
2C5D C S 74;2C5D C Q 94;7.71593
2C5D C S 74;2C5D C R 96;0.825351
2C5D C T 75;2C5D C Q 76;24.8917
2C5D C T 75;2C5D C T 77;11.3219
2C5D C T 75;2C5D C V 92;3.64471
2C5D C T 75;2C5D C Q 94;37.6003
2C5D C T 75;2C5D C R 96;0.0548916
2C5D C Q 76;2C5D C T 77;19.9108
2C5D C Q 76;2C5D C Q 78;15.2173
2C5D C Q 76;2C5D C V 92;4.39157
2C5D C T 77;2C5D C Q 78;21.2871
2C5D C T 77;2C5D C V 79;13.0727
2C5D C T 77;2C5D C I 90;4.3372
2C5D C T 77;2C5D C V 92;25.7885
2C5D C T 77;2C5D C Q 94;3.40413
2C5D C Q 78;2C5D C V 79;20.1192
2C5D C Q 78;2C5D C P 80;1.94698
2C5D C Q 78;2C5D C W 89;12.7771
2C5D C Q 78;2C5D C I 90;4.10853
2C5D C V 79;2C5D C P 80;24.7565
2C5D C V 79;2C5D C L 81;10.4436
2C5D C V 79;2C5D C W 89;11.1937
2C5D C V 79;2C5D C I 90;28.4706
2C5D C P 80;2C5D C L 81;21.7103
2C5D C P 80;2C5D C G 82;5.69848
2C5D C P 80;2C5D C D 84;7.31248
2C5D C P 80;2C5D C E 85;0.27316
2C5D C P 80;2C5D C W 89;29.0535
2C5D C L 81;2C5D C G 82;30.5127
2C5D C L 81;2C5D C E 83;1.99715
2C5D C L 81;2C5D C W 89;5.82499
2C5D C L 81;2C5D C I 90;22.3785
2C5D C G 82;2C5D C E 83;28.2402
2C5D C G 82;2C5D C D 84;6.57875
2C5D C E 83;2C5D C D 84;28.5262
2C5D C D 84;2C5D C E 85;31.6293
2C5D C D 84;2C5D C W 89;1.64935
2C5D C E 85;2C5D C W 89;21.5536
2C5D C W 89;2C5D C I 90;21.1801
2C5D C I 90;2C5D C V 92;10.8709
2C5D C V 92;2C5D C Q 94;5.57105
2C5D C Q 94;2C5D C R 96;5.07379
2C5D C R 96;2C5D C T 98;21.4334
