V1;V2;Weight
2J1K C T 367;2J1K C P 369;0.922541
2J1K C T 367;2J1K C P 371;14.2895
2J1K C T 367;2J1K C S 372;0.0982459
2J1K C T 367;2J1K C T 440;0.059767
2J1K C T 367;2J1K C T 441;24.2388
2J1K C T 367;2J1K C W 442;15.8178
2J1K C T 367;2J1K C V 452;5.61453
2J1K C T 367;2J1K T K 123;4.53888
2J1K C P 369;2J1K C G 370;29.6595
2J1K C P 369;2J1K C P 371;2.98475
2J1K C P 369;2J1K C V 452;2.0578
2J1K C P 369;2J1K T K 121;2.03449
2J1K C P 369;2J1K T K 123;6.06027
2J1K C G 370;2J1K C P 371;34.4439
2J1K C G 370;2J1K C S 372;3.6099e-05
2J1K C G 370;2J1K C R 384;0.0332963
2J1K C G 370;2J1K T E 56;0.328237
2J1K C G 370;2J1K T K 121;17.6778
2J1K C G 370;2J1K T K 123;10.5297
2J1K C P 371;2J1K C S 372;22.1653
2J1K C P 371;2J1K C R 384;30.1281
2J1K C P 371;2J1K T E 56;0.516382
2J1K C P 371;2J1K T K 123;5.65995
2J1K C S 372;2J1K C I 373;23.2802
2J1K C S 372;2J1K C R 384;12.497
2J1K C S 372;2J1K C T 440;11.6075
2J1K C S 372;2J1K C T 441;3.64195
2J1K C S 372;2J1K T D 54;18.3807
2J1K C S 372;2J1K T E 56;12.1511
2J1K C S 372;2J1K T L 73;2.40634
2J1K C S 372;2J1K T K 123;18.3937
2J1K C I 373;2J1K C F 376;0.422103
2J1K C I 373;2J1K C P 381;19.9249
2J1K C I 373;2J1K C V 382;9.07809
2J1K C I 373;2J1K C R 384;22.5964
2J1K C I 373;2J1K C E 405;13.8042
2J1K C I 373;2J1K C T 440;4.04964
2J1K C I 373;2J1K T D 54;0.366365
2J1K C I 373;2J1K T E 56;4.57723
2J1K C I 373;2J1K T V 70;14.3156
2J1K C I 373;2J1K T L 73;23.4856
2J1K C I 373;2J1K T S 75;4.121
2J1K C I 373;2J1K T Y 83;8.73309
2J1K C F 376;2J1K C D 379;19.6145
2J1K C F 376;2J1K C T 380;9.77395
2J1K C F 376;2J1K C P 381;25.0369
2J1K C F 376;2J1K C T 439;11.4094
2J1K C F 376;2J1K C T 440;2.49422
2J1K C F 376;2J1K T S 75;8.26778
2J1K C F 376;2J1K T Y 80;15.8234
2J1K C D 379;2J1K C T 380;21.4098
2J1K C D 379;2J1K C P 381;0.248194
2J1K C D 379;2J1K T K 78;0.000802388
2J1K C D 379;2J1K T Y 80;12.384
2J1K C T 380;2J1K C P 381;22.148
2J1K C T 380;2J1K C V 382;22.0683
2J1K C T 380;2J1K T Y 80;12.5678
2J1K C T 380;2J1K T D 82;5.68083
2J1K C T 380;2J1K T Y 83;10.3922
2J1K C P 381;2J1K C V 382;16.9699
2J1K C P 381;2J1K T L 73;10.7433
2J1K C P 381;2J1K T S 75;3.95913
2J1K C P 381;2J1K T Y 80;18.0748
2J1K C P 381;2J1K T Y 83;15.9167
2J1K C V 382;2J1K C R 384;0.0317026
2J1K C V 382;2J1K C E 405;22.4692
2J1K C V 382;2J1K C G 406;0.265542
2J1K C V 382;2J1K C G 407;3.23878
2J1K C V 382;2J1K T Y 83;10.2195
2J1K C R 384;2J1K C E 405;24.4996
2J1K C R 384;2J1K T E 56;17.681
2J1K C R 384;2J1K T L 58;10.1913
2J1K C R 384;2J1K T D 68;3.35563
2J1K C R 384;2J1K T V 70;7.21985
2J1K C E 405;2J1K C G 406;22.3914
2J1K C E 405;2J1K C G 407;2.79845
2J1K C E 405;2J1K C R 409;12.8183
2J1K C E 405;2J1K T D 68;6.42908
2J1K C E 405;2J1K T Q 69;10.8559
2J1K C E 405;2J1K T V 70;14.5908
2J1K C E 405;2J1K T Y 83;4.78606
2J1K C G 406;2J1K C G 407;26.2191
2J1K C G 406;2J1K C R 409;19.3738
2J1K C G 406;2J1K T Q 69;2.8774
2J1K C G 406;2J1K T V 70;4.31006
2J1K C G 406;2J1K T D 82;1.10349
2J1K C G 406;2J1K T Y 83;29.3008
2J1K C G 407;2J1K C R 409;2.44802
2J1K C G 407;2J1K T D 82;3.34311
2J1K C G 407;2J1K T Y 83;0.130917
2J1K C R 409;2J1K T K 66;29.2384
2J1K C R 409;2J1K T Q 69;22.9576
2J1K C S 438;2J1K C T 439;20.2993
2J1K C S 438;2J1K C T 440;8.35459
2J1K C S 438;2J1K C W 442;1.30924
2J1K C S 438;2J1K T P 52;14.394
2J1K C T 439;2J1K C T 440;24.118
2J1K C T 439;2J1K T P 52;17.2953
2J1K C T 439;2J1K T L 53;3.01265
2J1K C T 439;2J1K T D 54;4.15509
2J1K C T 439;2J1K T S 75;15.2881
2J1K C T 439;2J1K T G 76;26.6542
2J1K C T 440;2J1K C T 441;27.8096
2J1K C T 440;2J1K C W 442;12.2995
2J1K C T 440;2J1K T P 52;11.8811
2J1K C T 440;2J1K T D 54;11.4414
2J1K C T 440;2J1K T S 75;3.4872
2J1K C T 441;2J1K C W 442;23.2724
2J1K C T 441;2J1K C V 452;16.5442
2J1K C T 441;2J1K T P 52;11.329
2J1K C T 441;2J1K T D 54;13.7629
2J1K C T 441;2J1K T K 123;23.8806
2J1K C T 441;2J1K T K 124;0.228098
2J1K C T 441;2J1K T A 125;16.8087
2J1K C W 442;2J1K C V 452;10.3534
2J1K C W 442;2J1K C P 454;10.936
2J1K C W 442;2J1K T P 52;4.23931
2J1K C W 442;2J1K T A 125;3.13172
2J1K C T 451;2J1K C V 452;23.6185
2J1K C T 451;2J1K C Q 453;16.1765
2J1K C T 451;2J1K T P 126;18.7216
2J1K C T 451;2J1K T V 128;2.56512
2J1K C V 452;2J1K C Q 453;18.5427
2J1K C V 452;2J1K C P 454;4.94573
2J1K C V 452;2J1K T A 125;14.2778
2J1K C V 452;2J1K T P 126;13.9652
2J1K C V 452;2J1K T V 128;1.439
2J1K C Q 453;2J1K C P 454;24.13
2J1K C Q 453;2J1K C R 455;12.1449
2J1K C Q 453;2J1K T P 126;20.4305
2J1K C P 454;2J1K C R 455;26.2586
2J1K C P 454;2J1K T E 48;1.55739
2J1K C P 454;2J1K T Q 50;15.9859
2J1K C P 454;2J1K T G 51;12.427
2J1K C P 454;2J1K T P 52;2.03663
2J1K C P 454;2J1K T A 125;15.748
2J1K C P 454;2J1K T P 126;9.71571
2J1K C R 455;2J1K T Q 50;3.50165
2J1K T E 48;2J1K T Q 50;15.9608
2J1K T E 48;2J1K T A 125;0.0103738
2J1K T E 48;2J1K T P 126;27.7837
2J1K T Q 50;2J1K T G 51;24.8092
2J1K T Q 50;2J1K T K 124;9.26389
2J1K T Q 50;2J1K T A 125;4.40659
2J1K T Q 50;2J1K T P 126;0.0132224
2J1K T G 51;2J1K T P 52;32.0577
2J1K T G 51;2J1K T L 53;1.02195
2J1K T G 51;2J1K T K 124;18.4794
2J1K T G 51;2J1K T A 125;14.8211
2J1K T P 52;2J1K T L 53;25.309
2J1K T P 52;2J1K T D 54;8.36781
2J1K T P 52;2J1K T G 76;0.833729
2J1K T P 52;2J1K T K 123;2.14515
2J1K T P 52;2J1K T K 124;6.63637
2J1K T P 52;2J1K T A 125;4.62711
2J1K T L 53;2J1K T D 54;21.0382
2J1K T L 53;2J1K T S 75;6.45564
2J1K T L 53;2J1K T G 76;4.64224
2J1K T L 53;2J1K T K 123;6.64879
2J1K T L 53;2J1K T K 124;26.7541
2J1K T D 54;2J1K T E 56;0.257477
2J1K T D 54;2J1K T L 73;1.83352
2J1K T D 54;2J1K T S 75;12.112
2J1K T D 54;2J1K T K 121;3.0316
2J1K T D 54;2J1K T K 123;31.038
2J1K T E 56;2J1K T L 58;18.592
2J1K T E 56;2J1K T V 70;9.43293
2J1K T E 56;2J1K T L 73;16.6441
2J1K T E 56;2J1K T K 121;36.8791
2J1K T E 56;2J1K T K 123;1.11674
2J1K T L 58;2J1K T D 68;29.5353
2J1K T L 58;2J1K T Q 69;7.51641
2J1K T L 58;2J1K T V 70;12.31
2J1K T L 58;2J1K T K 121;11.6031
2J1K T K 66;2J1K T Q 69;25.7215
2J1K T D 68;2J1K T Q 69;19.7017
2J1K T D 68;2J1K T V 70;1.52268
2J1K T Q 69;2J1K T V 70;24.9747
2J1K T V 70;2J1K T L 73;7.98961
2J1K T V 70;2J1K T Y 83;26.4596
2J1K T L 73;2J1K T S 75;10.426
2J1K T L 73;2J1K T K 78;0.403128
2J1K T L 73;2J1K T Y 80;26.5282
2J1K T L 73;2J1K T Y 83;14.1719
2J1K T S 75;2J1K T G 76;22.8839
2J1K T S 75;2J1K T K 78;15.4194
2J1K T S 75;2J1K T Y 80;16.8467
2J1K T G 76;2J1K T K 78;15.298
2J1K T G 76;2J1K T Y 80;0.0141894
2J1K T K 78;2J1K T Y 80;35.0145
2J1K T Y 80;2J1K T D 82;0.225643
2J1K T Y 80;2J1K T Y 83;15.9373
2J1K T D 82;2J1K T Y 83;36.5492
2J1K T K 121;2J1K T K 123;18.7063
2J1K T K 121;2J1K T V 128;12.9452
2J1K T K 123;2J1K T K 124;19.1406
2J1K T K 123;2J1K T A 125;1.62152
2J1K T K 123;2J1K T V 128;22.5299
2J1K T K 124;2J1K T A 125;20.539
2J1K T K 124;2J1K T P 126;0.0640693
2J1K T A 125;2J1K T P 126;19.9105
2J1K T A 125;2J1K T V 128;0.0348901
2J1K T P 126;2J1K T V 128;13.6304
