V1;V2;Weight
3B4V A I 23;3B4V A G 24;21.2399
3B4V A I 23;3B4V A W 25;31.597
3B4V A I 23;3B4V B T 61;0.514354
3B4V A I 23;3B4V B H 65;29.0365
3B4V A I 23;3B4V C N 53;12.1575
3B4V A G 24;3B4V A W 25;20.2307
3B4V A G 24;3B4V A D 27;4.73567
3B4V A G 24;3B4V C K 54;14.8838
3B4V A W 25;3B4V A D 27;7.28131
3B4V A W 25;3B4V A W 28;4.88079
3B4V A W 25;3B4V A I 29;22.7195
3B4V A W 25;3B4V B F 58;15.3684
3B4V A W 25;3B4V B T 61;14.2853
3B4V A W 25;3B4V C N 53;23.1089
3B4V A W 25;3B4V C K 54;15.5796
3B4V A W 25;3B4V C N 56;0.053242
3B4V A W 25;3B4V C L 57;32.3865
3B4V A W 25;3B4V C F 60;8.45386
3B4V A D 27;3B4V A W 28;35.3234
3B4V A D 27;3B4V A I 29;2.45153
3B4V A D 27;3B4V A Y 94;9.57987
3B4V A D 27;3B4V C K 54;18.8326
3B4V A W 28;3B4V A I 29;20.4855
3B4V A W 28;3B4V A Y 93;7.5283
3B4V A W 28;3B4V A Y 94;24.5058
3B4V A W 28;3B4V C H 50;25.2432
3B4V A W 28;3B4V C K 54;31.0001
3B4V A W 28;3B4V C L 57;18.3755
3B4V A W 28;3B4V C L 58;19.833
3B4V A W 28;3B4V C L 61;13.0768
3B4V A W 28;3B4V C L 63;7.47768
3B4V A I 29;3B4V A M 91;20.8203
3B4V A I 29;3B4V A Y 93;9.92295
3B4V A I 29;3B4V A Y 94;0.000108821
3B4V A I 29;3B4V B F 58;1.5926
3B4V A I 29;3B4V C L 57;11.4169
3B4V A I 29;3B4V C L 61;7.15335
3B4V A M 91;3B4V A Y 93;13.2005
3B4V A M 91;3B4V A I 101;1.14554
3B4V A M 91;3B4V A K 103;15.735
3B4V A M 91;3B4V A I 105;14.6881
3B4V A M 91;3B4V B F 58;9.89048
3B4V A M 91;3B4V C L 57;0.933066
3B4V A M 91;3B4V C L 61;8.19681
3B4V A Y 93;3B4V A Y 94;23.9884
3B4V A Y 93;3B4V A D 95;4.5099
3B4V A Y 93;3B4V A I 101;42.255
3B4V A Y 93;3B4V A K 103;23.0893
3B4V A Y 93;3B4V A I 105;8.05401
3B4V A Y 93;3B4V C L 61;36.1323
3B4V A Y 93;3B4V C L 63;14.2232
3B4V A Y 94;3B4V A D 95;23.0684
3B4V A Y 94;3B4V C L 61;1.08216
3B4V A Y 94;3B4V C L 63;8.38967
3B4V A D 95;3B4V A D 96;26.4892
3B4V A D 95;3B4V A I 101;21.3002
3B4V A D 95;3B4V C L 63;20.7398
3B4V A D 96;3B4V C L 58;1.67476
3B4V A D 96;3B4V C L 63;23.2361
3B4V A D 96;3B4V C H 65;31.3694
3B4V A I 101;3B4V A K 103;8.47401
3B4V A I 101;3B4V C L 63;0.370317
3B4V A K 103;3B4V A I 105;19.8024
3B4V A K 103;3B4V C F 60;2.52031
3B4V A K 103;3B4V C L 61;7.23303
3B4V A K 103;3B4V C G 62;11.2501
3B4V A I 105;3B4V B F 58;11.303
3B4V A I 105;3B4V C F 60;21.6543
3B4V A I 105;3B4V C L 61;17.6541
3B4V B G 1;3B4V B L 2;32.6122
3B4V B G 1;3B4V C L 14;7.56955
3B4V B G 1;3B4V C Q 16;15.727
3B4V B G 1;3B4V C L 24;17.841
3B4V B L 2;3B4V B G 53;1.04652
3B4V B L 2;3B4V B S 54;1.9761
3B4V B L 2;3B4V B S 55;1.09177
3B4V B L 2;3B4V C L 14;14.9117
3B4V B L 2;3B4V C L 24;11.4671
3B4V B L 2;3B4V C L 26;22.2809
3B4V B L 2;3B4V C N 40;0.274431
3B4V B Q 15;3B4V B H 36;15.1777
3B4V B Q 15;3B4V B N 38;21.6214
3B4V B Q 15;3B4V C P 131;13.8799
3B4V B F 17;3B4V B S 33;7.97019
3B4V B F 17;3B4V B G 34;14.8342
3B4V B F 17;3B4V B Y 35;12.6603
3B4V B F 17;3B4V B H 36;28.6867
3B4V B F 17;3B4V C D 132;9.25044
3B4V B K 21;3B4V B S 33;3.34654
3B4V B K 21;3B4V C R 170;0.806313
3B4V B D 27;3B4V B W 28;31.6283
3B4V B D 27;3B4V B I 30;0.161551
3B4V B D 27;3B4V B Y 94;11.1378
3B4V B D 27;3B4V C C 196;2.18291
3B4V B D 27;3B4V C R 199;26.5702
3B4V B W 28;3B4V B I 30;3.2537
3B4V B W 28;3B4V B Y 94;22.9046
3B4V B W 28;3B4V C R 199;24.3045
3B4V B I 30;3B4V B A 31;23.9321
3B4V B I 30;3B4V B P 32;1.6612
3B4V B I 30;3B4V B S 33;3.54071
3B4V B I 30;3B4V B L 92;23.3934
3B4V B I 30;3B4V B Y 94;30.6135
3B4V B I 30;3B4V B I 100;15.5944
3B4V B I 30;3B4V B I 101;0.00266015
3B4V B I 30;3B4V C V 157;5.13139
3B4V B I 30;3B4V C V 167;20.8395
3B4V B I 30;3B4V C V 168;8.21038
3B4V B I 30;3B4V C C 203;5.59411
3B4V B A 31;3B4V B P 32;33.9049
3B4V B A 31;3B4V B S 33;1.25697
3B4V B A 31;3B4V B S 90;0.0211631
3B4V B A 31;3B4V B L 92;27.6039
3B4V B A 31;3B4V C H 165;1.96603
3B4V B A 31;3B4V C C 166;2.50087
3B4V B A 31;3B4V C V 167;13.2512
3B4V B P 32;3B4V B S 33;25.9883
3B4V B P 32;3B4V B G 34;18.67
3B4V B P 32;3B4V B Y 35;4.3484
3B4V B P 32;3B4V B M 89;14.9935
3B4V B P 32;3B4V B S 90;8.30728
3B4V B P 32;3B4V C D 132;0.773597
3B4V B S 33;3B4V B G 34;21.1622
3B4V B S 33;3B4V C V 168;1.69453
3B4V B G 34;3B4V B Y 35;20.1157
3B4V B G 34;3B4V B M 89;0.425733
3B4V B G 34;3B4V C D 132;4.53342
3B4V B Y 35;3B4V B H 36;20.136
3B4V B Y 35;3B4V B M 89;17.8841
3B4V B Y 35;3B4V B I 109;10.8741
3B4V B Y 35;3B4V C D 132;11.0658
3B4V B H 36;3B4V B N 38;16.3418
3B4V B H 36;3B4V B I 109;12.9548
3B4V B H 36;3B4V C P 131;28.4107
3B4V B H 36;3B4V C D 132;23.8039
3B4V B N 38;3B4V B I 109;9.42768
3B4V B N 38;3B4V C P 131;1.70986
3B4V B G 50;3B4V B T 51;33.6471
3B4V B G 50;3B4V B G 53;10.693
3B4V B G 50;3B4V C T 28;3.27099
3B4V B T 51;3B4V B G 53;19.641
3B4V B T 51;3B4V C V 25;2.02294
3B4V B T 51;3B4V C L 26;7.42449
3B4V B T 51;3B4V C Q 27;22.1608
3B4V B T 51;3B4V C T 28;32.8363
3B4V B T 51;3B4V C D 29;7.67991
3B4V B T 51;3B4V C V 30;2.42836
3B4V B G 53;3B4V B S 54;30.7899
3B4V B G 53;3B4V B S 55;1.956
3B4V B G 53;3B4V C V 25;4.26238
3B4V B G 53;3B4V C L 26;14.2462
3B4V B S 54;3B4V B S 55;31.2277
3B4V B S 54;3B4V B L 56;12.5443
3B4V B S 54;3B4V C V 25;0.724491
3B4V B S 54;3B4V C N 56;1.29163
3B4V B S 55;3B4V B L 56;31.6873
3B4V B S 55;3B4V B S 57;3.31975
3B4V B S 55;3B4V C S 23;3.8327
3B4V B S 55;3B4V C L 24;31.016
3B4V B S 55;3B4V C V 25;27.1629
3B4V B S 55;3B4V C N 56;5.25418
3B4V B S 55;3B4V C F 60;0.903586
3B4V B L 56;3B4V B S 57;25.4933
3B4V B L 56;3B4V B T 61;20.0044
3B4V B L 56;3B4V C L 24;0.550972
3B4V B L 56;3B4V C N 56;13.0662
3B4V B L 56;3B4V C F 60;11.6215
3B4V B S 57;3B4V B F 58;18.7579
3B4V B S 57;3B4V B T 61;8.43187
3B4V B S 57;3B4V C F 60;7.11716
3B4V B F 58;3B4V B T 61;8.43785
3B4V B F 58;3B4V C L 57;8.76475
3B4V B F 58;3B4V C F 60;32.0455
3B4V B F 58;3B4V C L 61;1.39562
3B4V B T 61;3B4V B H 65;10.857
3B4V B T 61;3B4V C N 53;19.5132
3B4V B T 61;3B4V C N 56;11.6052
3B4V B T 61;3B4V C F 60;11.6529
3B4V B H 65;3B4V B R 69;50.6094
3B4V B H 65;3B4V C N 53;12.3569
3B4V B R 69;3B4V C N 53;0.360752
3B4V B R 87;3B4V B I 109;51.5567
3B4V B R 87;3B4V B E 111;33.4718
3B4V B R 87;3B4V C G 129;17.7677
3B4V B R 87;3B4V C H 130;22.9046
3B4V B R 87;3B4V C P 131;5.33088
3B4V B M 89;3B4V B S 90;34.431
3B4V B M 89;3B4V B K 103;0.990216
3B4V B M 89;3B4V B I 109;17.8126
3B4V B M 89;3B4V C D 132;17.8374
3B4V B S 90;3B4V B K 102;21.542
3B4V B S 90;3B4V B K 103;4.19327
3B4V B S 90;3B4V C S 111;1.33065
3B4V B S 90;3B4V C D 112;13.6825
3B4V B L 92;3B4V B I 100;13.0725
3B4V B L 92;3B4V B I 101;9.04025
3B4V B L 92;3B4V B K 102;10.3131
3B4V B L 92;3B4V C V 157;8.78998
3B4V B L 92;3B4V C D 159;7.16412
3B4V B L 92;3B4V C H 165;24.7858
3B4V B L 92;3B4V C V 167;6.40808
3B4V B Y 94;3B4V B D 95;23.4894
3B4V B Y 94;3B4V B Q 98;22.2703
3B4V B Y 94;3B4V B N 99;7.35664
3B4V B Y 94;3B4V B I 100;9.20578
3B4V B Y 94;3B4V C R 199;39.0814
3B4V B Y 94;3B4V C T 202;9.90521
3B4V B Y 94;3B4V C C 203;15.2815
3B4V B D 95;3B4V B D 96;26.4046
3B4V B D 95;3B4V B G 97;10.171
3B4V B D 95;3B4V B Q 98;15.8527
3B4V B D 95;3B4V B N 99;28.3071
3B4V B D 95;3B4V B I 101;20.7776
3B4V B D 95;3B4V C R 199;1.17225
3B4V B D 96;3B4V B G 97;24.2656
3B4V B D 96;3B4V B Q 98;12.5888
3B4V B D 96;3B4V C V 211;8.7368
3B4V B G 97;3B4V B Q 98;18.3936
3B4V B G 97;3B4V B N 99;15.222
3B4V B G 97;3B4V C M 198;0.318265
3B4V B G 97;3B4V C G 210;7.6655
3B4V B G 97;3B4V C V 211;22.3072
3B4V B Q 98;3B4V B N 99;18.6575
3B4V B Q 98;3B4V B I 100;1.00768
3B4V B Q 98;3B4V C L 184;9.87737
3B4V B Q 98;3B4V C S 195;15.5552
3B4V B Q 98;3B4V C M 198;19.4435
3B4V B Q 98;3B4V C R 199;26.015
3B4V B Q 98;3B4V C T 202;12.2518
3B4V B Q 98;3B4V C S 208;1.69783
3B4V B Q 98;3B4V C I 209;1.45425
3B4V B Q 98;3B4V C G 210;4.16297
3B4V B Q 98;3B4V C V 211;7.90827
3B4V B N 99;3B4V B I 100;18.403
3B4V B N 99;3B4V B I 101;15.442
3B4V B N 99;3B4V C N 187;0.0108872
3B4V B N 99;3B4V C S 208;22.0386
3B4V B N 99;3B4V C I 209;1.8735
3B4V B N 99;3B4V C G 210;14.3022
3B4V B N 99;3B4V C V 211;0.113577
3B4V B I 100;3B4V B I 101;23.0231
3B4V B I 100;3B4V C V 157;20.5568
3B4V B I 100;3B4V C V 158;13.5892
3B4V B I 100;3B4V C D 159;13.2265
3B4V B I 100;3B4V C Q 160;10.9443
3B4V B I 100;3B4V C T 202;12.8844
3B4V B I 100;3B4V C C 203;3.33926
3B4V B I 100;3B4V C G 206;1.28532
3B4V B I 100;3B4V C R 207;7.58508
3B4V B I 100;3B4V C S 208;21.0041
3B4V B I 101;3B4V B K 102;18.9224
3B4V B I 101;3B4V B K 103;10.6191
3B4V B I 101;3B4V C D 159;0.963848
3B4V B I 101;3B4V C Q 160;27.2416
3B4V B K 102;3B4V B K 103;28.1416
3B4V B K 102;3B4V C D 112;9.51375
3B4V B K 102;3B4V C G 113;15.6989
3B4V B K 102;3B4V C D 159;16.9505
3B4V B K 102;3B4V C Q 160;20.1761
3B4V B K 102;3B4V C T 161;10.1731
3B4V B K 102;3B4V C S 163;11.7268
3B4V B K 102;3B4V C H 165;20.706
3B4V B K 103;3B4V C Q 160;2.15341
3B4V B I 109;3B4V B E 111;5.87756
3B4V B I 109;3B4V C D 132;3.1092
3B4V B E 111;3B4V C G 129;0.0613774
3B4V C L 14;3B4V C Q 16;19.9242
3B4V C L 14;3B4V C S 23;3.17829
3B4V C L 14;3B4V C L 24;32.3033
3B4V C L 14;3B4V C L 26;20.8932
3B4V C L 14;3B4V C N 40;11.7358
3B4V C Q 16;3B4V C S 23;18.2545
3B4V C Q 16;3B4V C L 24;23.0848
3B4V C S 23;3B4V C L 24;27.8526
3B4V C S 23;3B4V C V 25;4.73392
3B4V C S 23;3B4V C N 56;1.59212
3B4V C S 23;3B4V C F 60;12.7648
3B4V C L 24;3B4V C V 25;17.8934
3B4V C L 24;3B4V C L 26;9.32605
3B4V C V 25;3B4V C L 26;28.7485
3B4V C V 25;3B4V C Q 27;6.84793
3B4V C V 25;3B4V C T 28;12.2082
3B4V C V 25;3B4V C N 56;20.3974
3B4V C L 26;3B4V C Q 27;29.9966
3B4V C L 26;3B4V C N 40;0.648342
3B4V C Q 27;3B4V C T 28;20.4854
3B4V C Q 27;3B4V C V 30;26.5863
3B4V C T 28;3B4V C D 29;29.3722
3B4V C T 28;3B4V C V 30;9.40462
3B4V C T 28;3B4V C H 50;0.0380659
3B4V C D 29;3B4V C V 30;25.4113
3B4V C H 50;3B4V C K 54;11.1693
3B4V C H 50;3B4V C L 58;18.9283
3B4V C N 53;3B4V C K 54;22.4843
3B4V C N 53;3B4V C N 56;20.3954
3B4V C N 53;3B4V C L 57;6.97924
3B4V C N 53;3B4V C F 60;0.00764884
3B4V C K 54;3B4V C N 56;0.583229
3B4V C K 54;3B4V C L 57;16.1965
3B4V C K 54;3B4V C L 58;6.07652
3B4V C N 56;3B4V C L 57;14.1752
3B4V C N 56;3B4V C L 58;0.655855
3B4V C N 56;3B4V C F 60;27.9463
3B4V C L 57;3B4V C L 58;16.1419
3B4V C L 57;3B4V C F 60;20.3861
3B4V C L 57;3B4V C L 61;27.8149
3B4V C L 58;3B4V C F 60;0.261937
3B4V C L 58;3B4V C L 61;6.28419
3B4V C L 58;3B4V C G 62;3.6447
3B4V C L 58;3B4V C L 63;38.6308
3B4V C L 58;3B4V C H 65;0.48714
3B4V C F 60;3B4V C L 61;18.6371
3B4V C F 60;3B4V C G 62;5.47375
3B4V C L 61;3B4V C G 62;17.2584
3B4V C L 61;3B4V C L 63;23.6408
3B4V C G 62;3B4V C L 63;24.8966
3B4V C L 63;3B4V C H 65;8.29494
3B4V C S 111;3B4V C D 112;23.0695
3B4V C S 111;3B4V C G 113;4.12874
3B4V C S 111;3B4V C D 132;7.40643
3B4V C S 111;3B4V C H 165;3.57602
3B4V C D 112;3B4V C G 113;20.4073
3B4V C D 112;3B4V C H 130;0.146226
3B4V C D 112;3B4V C H 165;0.0118679
3B4V C G 113;3B4V C S 163;0.703114
3B4V C G 113;3B4V C H 165;4.03238
3B4V C G 129;3B4V C H 130;22.3334
3B4V C G 129;3B4V C P 131;11.633
3B4V C H 130;3B4V C P 131;20.6243
3B4V C H 130;3B4V C D 132;4.20315
3B4V C P 131;3B4V C D 132;29.308
3B4V C V 157;3B4V C V 158;21.5403
3B4V C V 157;3B4V C D 159;0.0870013
3B4V C V 157;3B4V C S 163;0.999343
3B4V C V 157;3B4V C H 165;23.7502
3B4V C V 157;3B4V C V 167;12.545
3B4V C V 157;3B4V C T 202;0.551402
3B4V C V 157;3B4V C C 203;19.0826
3B4V C V 157;3B4V C G 206;13.0345
3B4V C V 157;3B4V C R 207;0.0422963
3B4V C V 158;3B4V C D 159;27.1557
3B4V C V 158;3B4V C S 163;7.58624
3B4V C V 158;3B4V C H 165;0.179084
3B4V C V 158;3B4V C G 206;12.321
3B4V C V 158;3B4V C R 207;18.0888
3B4V C V 158;3B4V C S 208;3.25809
3B4V C D 159;3B4V C Q 160;25.7325
3B4V C D 159;3B4V C T 161;14.264
3B4V C D 159;3B4V C S 163;18.3654
3B4V C D 159;3B4V C H 165;11.1753
3B4V C D 159;3B4V C S 208;0.514371
3B4V C Q 160;3B4V C T 161;38.0917
3B4V C Q 160;3B4V C S 208;0.883219
3B4V C T 161;3B4V C S 163;14.8029
3B4V C S 163;3B4V C H 165;11.0866
3B4V C H 165;3B4V C C 166;19.821
3B4V C H 165;3B4V C V 167;8.38953
3B4V C C 166;3B4V C V 167;25.1502
3B4V C V 167;3B4V C V 168;30.3176
3B4V C V 167;3B4V C C 203;10.1349
3B4V C V 168;3B4V C R 170;1.31678
3B4V C V 168;3B4V C C 203;0.00611637
3B4V C R 170;3B4V C C 196;18.2421
3B4V C R 170;3B4V C C 203;0.279165
3B4V C L 184;3B4V C S 195;15.2512
3B4V C L 184;3B4V C M 198;14.8213
3B4V C L 184;3B4V C V 211;20.7381
3B4V C N 187;3B4V C I 209;20.7302
3B4V C N 187;3B4V C G 210;18.1053
3B4V C N 187;3B4V C V 211;5.83479
3B4V C S 195;3B4V C C 196;19.5646
3B4V C S 195;3B4V C M 198;9.2267
3B4V C S 195;3B4V C R 199;29.2288
3B4V C C 196;3B4V C M 198;1.02316
3B4V C C 196;3B4V C R 199;21.6639
3B4V C M 198;3B4V C R 199;17.1561
3B4V C M 198;3B4V C T 202;18.4773
3B4V C M 198;3B4V C I 209;11.1031
3B4V C M 198;3B4V C G 210;11.9908
3B4V C M 198;3B4V C V 211;12.9884
3B4V C R 199;3B4V C T 202;8.78519
3B4V C R 199;3B4V C C 203;9.29332
3B4V C T 202;3B4V C C 203;19.2752
3B4V C T 202;3B4V C G 206;4.94348
3B4V C T 202;3B4V C R 207;12.6343
3B4V C T 202;3B4V C S 208;6.24788
3B4V C T 202;3B4V C I 209;22.0715
3B4V C T 202;3B4V C G 210;0.285182
3B4V C C 203;3B4V C G 206;6.34653
3B4V C G 206;3B4V C R 207;22.3162
3B4V C R 207;3B4V C S 208;34.3999
3B4V C R 207;3B4V C I 209;4.21613
3B4V C S 208;3B4V C I 209;28.2652
3B4V C S 208;3B4V C G 210;0.363945
3B4V C I 209;3B4V C G 210;23.9199
3B4V C G 210;3B4V C V 211;18.954
