V1;V2;Weight
3BX1 A D 32;3BX1 A T 33;23.2567
3BX1 A D 32;3BX1 A H 64;12.8359
3BX1 A D 32;3BX1 A L 96;19.9163
3BX1 A D 32;3BX1 A S 125;10.6753
3BX1 A D 32;3BX1 A L 126;1.39689
3BX1 A D 32;3BX1 C T 89;1.48494
3BX1 A T 33;3BX1 A N 62;15.2881
3BX1 A T 33;3BX1 A H 64;7.48746
3BX1 A T 33;3BX1 A L 96;18.2253
3BX1 A T 33;3BX1 A A 98;4.36236
3BX1 A T 33;3BX1 A G 100;5.33067
3BX1 A T 33;3BX1 C T 89;7.064
3BX1 A P 52;3BX1 A G 53;27.0353
3BX1 A P 52;3BX1 A S 103;0.0395274
3BX1 A P 52;3BX1 C H 55;6.10869
3BX1 A G 53;3BX1 C H 55;5.86995
3BX1 A N 62;3BX1 A H 64;12.9789
3BX1 A N 62;3BX1 A A 98;19.2174
3BX1 A N 62;3BX1 A S 99;2.86057
3BX1 A N 62;3BX1 A G 100;7.91299
3BX1 A N 62;3BX1 A Y 209;8.43623
3BX1 A N 62;3BX1 C P 37;0.0352954
3BX1 A N 62;3BX1 C H 42;24.5981
3BX1 A N 62;3BX1 C T 89;6.85172
3BX1 A H 64;3BX1 A L 96;0.0792146
3BX1 A H 64;3BX1 A S 125;9.67132
3BX1 A H 64;3BX1 A Y 209;0.0671606
3BX1 A H 64;3BX1 A S 221;13.0547
3BX1 A H 64;3BX1 C T 89;29.0521
3BX1 A L 96;3BX1 A A 98;0.0456764
3BX1 A L 96;3BX1 A G 100;8.91374
3BX1 A L 96;3BX1 A S 101;9.235
3BX1 A L 96;3BX1 A G 102;10.0163
3BX1 A L 96;3BX1 A I 107;6.11953
3BX1 A L 96;3BX1 A S 125;1.52876
3BX1 A L 96;3BX1 A L 126;20.8984
3BX1 A L 96;3BX1 C Y 87;7.87839
3BX1 A L 96;3BX1 C T 88;1.75499
3BX1 A L 96;3BX1 C T 88;1.67493
3BX1 A L 96;3BX1 C T 89;12.056
3BX1 A A 98;3BX1 A S 99;24.4488
3BX1 A A 98;3BX1 A G 100;3.29756
3BX1 A A 98;3BX1 C P 37;3.88646
3BX1 A A 98;3BX1 C H 42;2.75826
3BX1 A S 99;3BX1 A G 100;19.7293
3BX1 A S 99;3BX1 A S 101;19.201
3BX1 A S 99;3BX1 C T 34;1.02087
3BX1 A S 99;3BX1 C M 35;11.8683
3BX1 A S 99;3BX1 C A 36;3.21311
3BX1 A S 99;3BX1 C P 37;24.831
3BX1 A S 99;3BX1 C H 42;1.37485
3BX1 A S 99;3BX1 C L 45;12.6972
3BX1 A S 99;3BX1 C T 89;0.0245627
3BX1 A G 100;3BX1 A S 101;18.4371
3BX1 A G 100;3BX1 C L 45;2.93397
3BX1 A G 100;3BX1 C Y 87;0.00776098
3BX1 A G 100;3BX1 C T 88;8.24424
3BX1 A G 100;3BX1 C T 89;18.6956
3BX1 A S 101;3BX1 A G 102;19.3251
3BX1 A S 101;3BX1 C T 34;1.28553
3BX1 A S 101;3BX1 C M 35;16.4576
3BX1 A S 101;3BX1 C L 45;6.44228
3BX1 A S 101;3BX1 C F 58;19.2115
3BX1 A S 101;3BX1 C A 86;2.2691
3BX1 A S 101;3BX1 C Y 87;5.45609
3BX1 A S 101;3BX1 C T 88;7.9177
3BX1 A G 102;3BX1 A S 103;21.5961
3BX1 A G 102;3BX1 A I 107;6.45692
3BX1 A G 102;3BX1 C F 58;9.50404
3BX1 A G 102;3BX1 C A 86;6.7441
3BX1 A G 102;3BX1 C Y 87;15.4385
3BX1 A S 103;3BX1 A V 104;21.9596
3BX1 A S 103;3BX1 A I 107;12.7752
3BX1 A S 103;3BX1 C F 58;18.6983
3BX1 A S 103;3BX1 C P 59;3.92804
3BX1 A S 103;3BX1 C R 85;7.15411
3BX1 A S 103;3BX1 C A 86;2.55864
3BX1 A S 103;3BX1 C Y 87;2.08745
3BX1 A V 104;3BX1 A I 107;7.47979
3BX1 A V 104;3BX1 A S 132;13.957
3BX1 A V 104;3BX1 A T 134;15.8088
3BX1 A V 104;3BX1 A L 135;17.2453
3BX1 A V 104;3BX1 C R 85;29.529
3BX1 A V 104;3BX1 C A 86;0.541289
3BX1 A V 104;3BX1 C Y 87;16.6929
3BX1 A V 104;3BX1 C A 181;5.42407
3BX1 A I 107;3BX1 A L 126;17.1409
3BX1 A I 107;3BX1 A L 135;18.2516
3BX1 A I 107;3BX1 A P 168;1.93513
3BX1 A I 107;3BX1 C Y 87;15.4538
3BX1 A S 125;3BX1 A L 126;21.7957
3BX1 A S 125;3BX1 A A 152;6.50177
3BX1 A S 125;3BX1 A S 221;20.4184
3BX1 A S 125;3BX1 C T 89;4.85508
3BX1 A S 125;3BX1 C L 91;2.47428
3BX1 A L 126;3BX1 A G 127;19.0967
3BX1 A L 126;3BX1 A A 152;8.39941
3BX1 A L 126;3BX1 A S 166;0.161691
3BX1 A L 126;3BX1 A Y 167;0.2321
3BX1 A L 126;3BX1 A P 168;17.6961
3BX1 A L 126;3BX1 C Y 87;8.46196
3BX1 A L 126;3BX1 C T 88;8.80121
3BX1 A L 126;3BX1 C T 89;2.30191
3BX1 A L 126;3BX1 C L 91;12.715
3BX1 A G 127;3BX1 A S 128;19.6245
3BX1 A G 127;3BX1 A S 166;3.16889
3BX1 A G 127;3BX1 A Y 167;6.59598
3BX1 A G 127;3BX1 A P 168;3.15989
3BX1 A G 127;3BX1 C Y 87;10.395
3BX1 A G 127;3BX1 C T 88;12.6333
3BX1 A G 127;3BX1 C T 88;3.55616
3BX1 A G 127;3BX1 C L 91;16.6961
3BX1 A G 127;3BX1 C Q 92;0.839784
3BX1 A S 128;3BX1 A P 129;23.9386
3BX1 A S 128;3BX1 A S 130;14.9971
3BX1 A S 128;3BX1 A S 166;12.8521
3BX1 A S 128;3BX1 A Y 167;15.4409
3BX1 A S 128;3BX1 C A 86;7.71175
3BX1 A S 128;3BX1 C Y 87;13.7018
3BX1 A S 128;3BX1 C T 88;0.179048
3BX1 A S 128;3BX1 C T 88;1.68467
3BX1 A S 128;3BX1 C L 91;2.8677
3BX1 A S 128;3BX1 C Q 92;7.49243
3BX1 A S 128;3BX1 C T 94;10.0791
3BX1 A P 129;3BX1 A S 130;19.3317
3BX1 A P 129;3BX1 A P 131;9.8974
3BX1 A P 129;3BX1 A S 156;2.66219
3BX1 A P 129;3BX1 A S 166;8.82389
3BX1 A P 129;3BX1 A Y 167;14.3551
3BX1 A P 129;3BX1 A Q 191;1.80462
3BX1 A P 129;3BX1 C L 91;0.38667
3BX1 A P 129;3BX1 C Q 92;9.02367
3BX1 A P 129;3BX1 C S 93;19.4467
3BX1 A P 129;3BX1 C T 94;6.66561
3BX1 A S 130;3BX1 A P 131;21.8043
3BX1 A S 130;3BX1 A S 132;0.78248
3BX1 A S 130;3BX1 A Y 167;9.59276
3BX1 A S 130;3BX1 C R 61;10.93
3BX1 A S 130;3BX1 C S 83;2.22991
3BX1 A S 130;3BX1 C F 84;7.15906
3BX1 A S 130;3BX1 C R 85;8.45263
3BX1 A S 130;3BX1 C A 86;6.32702
3BX1 A S 130;3BX1 C Y 87;18.9006
3BX1 A S 130;3BX1 C T 94;8.18224
3BX1 A P 131;3BX1 A S 132;24.7003
3BX1 A P 131;3BX1 A Y 167;25.3931
3BX1 A P 131;3BX1 C R 61;27.1625
3BX1 A P 131;3BX1 C R 85;1.10535
3BX1 A P 131;3BX1 C Y 87;2.93434
3BX1 A S 132;3BX1 A T 134;9.60775
3BX1 A S 132;3BX1 A L 135;16.6887
3BX1 A S 132;3BX1 A Y 167;0.147694
3BX1 A S 132;3BX1 C R 61;4.71464
3BX1 A S 132;3BX1 C R 85;5.16104
3BX1 A S 132;3BX1 C Y 87;8.76175
3BX1 A S 132;3BX1 C A 181;1.43669
3BX1 A T 134;3BX1 A L 135;17.1804
3BX1 A T 134;3BX1 C A 181;25.7973
3BX1 A L 135;3BX1 A Y 167;2.61923
3BX1 A L 135;3BX1 A P 168;18.5441
3BX1 A L 135;3BX1 C Y 87;19.1136
3BX1 A A 152;3BX1 A G 154;3.71402
3BX1 A A 152;3BX1 A S 166;4.77649
3BX1 A A 152;3BX1 A Y 167;0.0442705
3BX1 A A 152;3BX1 A T 220;10.4814
3BX1 A A 152;3BX1 A S 221;4.75574
3BX1 A A 152;3BX1 C L 91;15.9412
3BX1 A G 154;3BX1 A N 155;16.0572
3BX1 A G 154;3BX1 A S 156;0.360123
3BX1 A G 154;3BX1 A S 166;6.00364
3BX1 A G 154;3BX1 A Q 191;16.255
3BX1 A G 154;3BX1 A T 220;14.5966
3BX1 A G 154;3BX1 C L 91;11.714
3BX1 A N 155;3BX1 A S 156;22.2568
3BX1 A N 155;3BX1 A Q 191;2.03367
3BX1 A N 155;3BX1 A T 220;13.0346
3BX1 A N 155;3BX1 A S 221;2.19582
3BX1 A N 155;3BX1 C T 89;4.29462
3BX1 A N 155;3BX1 C C 90;12.931
3BX1 A N 155;3BX1 C L 91;21.7935
3BX1 A N 155;3BX1 C Q 92;8.30368
3BX1 A S 156;3BX1 A Q 191;21.9302
3BX1 A S 156;3BX1 C L 91;3.90956
3BX1 A S 156;3BX1 C Q 92;11.5122
3BX1 A S 156;3BX1 C S 93;3.75705
3BX1 A S 156;3BX1 C P 113;5.89021
3BX1 A S 166;3BX1 A Y 167;21.9479
3BX1 A S 166;3BX1 A Q 191;14.0574
3BX1 A S 166;3BX1 C L 91;13.5519
3BX1 A Y 167;3BX1 A P 168;23.2538
3BX1 A Y 167;3BX1 C Y 87;10.8972
3BX1 A P 168;3BX1 C Y 87;3.70314
3BX1 A Q 191;3BX1 A T 220;0.266125
3BX1 A Q 191;3BX1 C L 91;5.1527
3BX1 A Q 191;3BX1 C Q 92;0.166606
3BX1 A Y 209;3BX1 C H 42;2.17627
3BX1 A T 220;3BX1 A S 221;17.0899
3BX1 A T 220;3BX1 C L 91;5.55304
3BX1 A S 221;3BX1 C T 89;5.33008
3BX1 A S 221;3BX1 C L 91;13.354
3BX1 C T 34;3BX1 C M 35;29.3372
3BX1 C T 34;3BX1 C F 58;23.7741
3BX1 C T 34;3BX1 C F 84;11.8913
3BX1 C M 35;3BX1 C A 36;20.0265
3BX1 C M 35;3BX1 C L 45;23.0548
3BX1 C M 35;3BX1 C F 58;13.7885
3BX1 C M 35;3BX1 C F 84;18.9868
3BX1 C M 35;3BX1 C A 86;9.10687
3BX1 C M 35;3BX1 C T 88;7.61453
3BX1 C M 35;3BX1 C T 94;12.872
3BX1 C A 36;3BX1 C P 37;32.0626
3BX1 C A 36;3BX1 C L 45;9.70661
3BX1 C P 37;3BX1 C H 42;23.2255
3BX1 C P 37;3BX1 C L 45;13.3714
3BX1 C H 42;3BX1 C L 45;9.11831
3BX1 C H 42;3BX1 C T 89;3.25093
3BX1 C L 45;3BX1 C T 88;14.9951
3BX1 C L 45;3BX1 C T 89;0.580967
3BX1 C L 45;3BX1 C C 90;16.3634
3BX1 C L 45;3BX1 C Q 92;0.154328
3BX1 C F 58;3BX1 C P 59;28.5844
3BX1 C F 58;3BX1 C F 84;22.3623
3BX1 C F 58;3BX1 C R 85;6.70196
3BX1 C F 58;3BX1 C A 86;14.5721
3BX1 C P 59;3BX1 C F 84;6.63174
3BX1 C P 59;3BX1 C R 85;39.2805
3BX1 C R 61;3BX1 C S 83;28.8165
3BX1 C R 61;3BX1 C F 84;1.03799
3BX1 C R 61;3BX1 C R 85;24.6893
3BX1 C S 83;3BX1 C F 84;22.8833
3BX1 C S 83;3BX1 C R 85;0.995897
3BX1 C S 83;3BX1 C T 94;10.9988
3BX1 C F 84;3BX1 C R 85;18.659
3BX1 C F 84;3BX1 C A 86;11.0826
3BX1 C F 84;3BX1 C T 94;25.442
3BX1 C R 85;3BX1 C A 86;21.1509
3BX1 C R 85;3BX1 C Y 87;6.1868
3BX1 C R 85;3BX1 C A 181;24.6924
3BX1 C A 86;3BX1 C Y 87;30.256
3BX1 C A 86;3BX1 C T 88;1.07499
3BX1 C A 86;3BX1 C T 94;10.8022
3BX1 C Y 87;3BX1 C T 88;12.647
3BX1 C Y 87;3BX1 C T 88;9.16545
3BX1 C Y 87;3BX1 C T 94;0.222369
3BX1 C T 88;3BX1 C T 89;13.0113
3BX1 C T 88;3BX1 C C 90;1.27751
3BX1 C T 88;3BX1 C L 91;6.63746
3BX1 C T 88;3BX1 C T 89;6.18919
3BX1 C T 88;3BX1 C C 90;18.1229
3BX1 C T 88;3BX1 C L 91;4.23714
3BX1 C T 88;3BX1 C Q 92;4.18116
3BX1 C T 88;3BX1 C T 94;8.8923
3BX1 C T 89;3BX1 C C 90;23.9544
3BX1 C T 89;3BX1 C L 91;9.83544
3BX1 C C 90;3BX1 C L 91;18.9883
3BX1 C C 90;3BX1 C Q 92;26.1529
3BX1 C L 91;3BX1 C Q 92;23.6175
3BX1 C Q 92;3BX1 C S 93;28.1932
3BX1 C Q 92;3BX1 C T 94;6.17109
3BX1 C Q 92;3BX1 C P 113;26.6563
3BX1 C S 93;3BX1 C T 94;20.0862
3BX1 C S 93;3BX1 C P 113;4.99728
