V1;V2;Weight
3C60 A T 27;3C60 A G 28;31.0362
3C60 A T 27;3C60 A Y 29;1.68237
3C60 A T 27;3C60 A S 93;2.01878
3C60 A T 27;3C60 D E 2;26.3832
3C60 A T 27;3C60 D Q 4;3.11782
3C60 A T 27;3C60 D H 107;10.7934
3C60 A G 28;3C60 A Y 29;32.6799
3C60 A G 28;3C60 A S 93;10.3508
3C60 A G 28;3C60 D E 2;0.160533
3C60 A G 28;3C60 D Q 4;12.5351
3C60 A Y 29;3C60 A T 50;3.14594
3C60 A Y 29;3C60 A S 93;9.59976
3C60 A Y 29;3C60 D Q 4;15.3481
3C60 A Y 29;3C60 D D 102;4.05595
3C60 A Y 29;3C60 D T 103;41.8573
3C60 A Y 29;3C60 D H 107;25.3484
3C60 A T 50;3C60 A T 51;36.8381
3C60 A T 50;3C60 B D 97;6.22383
3C60 A T 50;3C60 D E 92;12.1607
3C60 A T 51;3C60 D E 95;27.1875
3C60 A S 93;3C60 A G 94;29.6753
3C60 A S 93;3C60 D Q 4;6.89828
3C60 A S 93;3C60 D K 5;6.82538
3C60 A S 93;3C60 D K 7;3.73469
3C60 A G 94;3C60 A T 97;27.345
3C60 A G 94;3C60 B W 95;13.5183
3C60 A G 94;3C60 D K 5;8.83791
3C60 A G 94;3C60 D K 7;8.00682
3C60 A T 97;3C60 B N 29;1.56481
3C60 A T 97;3C60 B Y 46;12.1755
3C60 A T 97;3C60 B Y 48;15.0824
3C60 A T 97;3C60 B W 95;19.8542
3C60 A T 97;3C60 C Q 58;17.7413
3C60 A T 97;3C60 C G 59;2.93479
3C60 A T 97;3C60 C Q 62;11.1784
3C60 A T 97;3C60 D K 5;0.285982
3C60 B N 26;3C60 B H 27;29.0094
3C60 B N 26;3C60 B N 28;4.50764
3C60 B N 26;3C60 D K 10;11.6772
3C60 B H 27;3C60 B N 28;22.5354
3C60 B H 27;3C60 B N 29;5.15456
3C60 B H 27;3C60 B D 93;13.6603
3C60 B H 27;3C60 D K 10;0.00115041
3C60 B N 28;3C60 B N 29;24.3984
3C60 B N 28;3C60 B Y 48;12.0627
3C60 B N 28;3C60 B D 93;9.22768
3C60 B N 28;3C60 B F 94;27.7329
3C60 B N 28;3C60 C H 69;14.4825
3C60 B N 28;3C60 D K 10;14.208
3C60 B N 29;3C60 B Y 46;1.3704
3C60 B N 29;3C60 B Y 48;18.9921
3C60 B N 29;3C60 B D 93;7.48127
3C60 B N 29;3C60 B F 94;12.0049
3C60 B N 29;3C60 B W 95;3.22863
3C60 B N 29;3C60 C Q 62;8.02884
3C60 B Y 46;3C60 B Y 48;18.3049
3C60 B Y 46;3C60 B T 53;5.85286
3C60 B Y 46;3C60 B E 54;37.2403
3C60 B Y 46;3C60 C Q 58;11.9152
3C60 B Y 48;3C60 B E 54;13.1793
3C60 B Y 48;3C60 B F 94;5.04606
3C60 B Y 48;3C60 C Q 58;15.7411
3C60 B Y 48;3C60 C L 61;15.3652
3C60 B Y 48;3C60 C Q 62;25.348
3C60 B Y 48;3C60 C A 65;19.005
3C60 B A 50;3C60 C K 68;9.97729
3C60 B T 53;3C60 B E 54;29.2627
3C60 B T 53;3C60 C K 40;13.8795
3C60 B E 54;3C60 C K 40;24.077
3C60 B E 54;3C60 C Q 58;20.3263
3C60 B E 54;3C60 C L 61;7.26214
3C60 B D 93;3C60 B F 94;30.845
3C60 B D 93;3C60 B D 97;3.3065
3C60 B D 93;3C60 D K 10;10.2166
3C60 B F 94;3C60 B W 95;30.6833
3C60 B F 94;3C60 B D 97;10.7288
3C60 B F 94;3C60 C Q 62;12.9463
3C60 B F 94;3C60 C A 65;11.8339
3C60 B F 94;3C60 C V 66;29.4475
3C60 B F 94;3C60 C H 69;14.0577
3C60 B F 94;3C60 C N 70;0.00870128
3C60 B F 94;3C60 D A 8;0.133338
3C60 B F 94;3C60 D K 10;20.4875
3C60 B W 95;3C60 B D 97;17.5114
3C60 B W 95;3C60 C Q 58;0.104806
3C60 B W 95;3C60 C G 59;8.19289
3C60 B W 95;3C60 C Q 62;30.379
3C60 B W 95;3C60 C N 63;16.7394
3C60 B W 95;3C60 C V 66;10.7804
3C60 B W 95;3C60 D K 5;13.9217
3C60 B W 95;3C60 D K 7;35.5096
3C60 B W 95;3C60 D A 8;10.6676
3C60 B W 95;3C60 D R 96;14.5658
3C60 B D 97;3C60 D K 7;6.7537
3C60 B D 97;3C60 D R 96;8.88638
3C60 C K 40;3C60 C Q 58;3.49199
3C60 C K 40;3C60 C L 61;24.4287
3C60 C Q 58;3C60 C G 59;19.2607
3C60 C Q 58;3C60 C L 61;22.4918
3C60 C Q 58;3C60 C Q 62;9.03716
3C60 C G 59;3C60 C L 61;0.220695
3C60 C G 59;3C60 C Q 62;2.24066
3C60 C G 59;3C60 C N 63;9.3894
3C60 C G 59;3C60 D K 5;20.0003
3C60 C L 61;3C60 C Q 62;15.9357
3C60 C L 61;3C60 C N 63;1.09561
3C60 C L 61;3C60 C A 65;9.89565
3C60 C Q 62;3C60 C N 63;15.6375
3C60 C Q 62;3C60 C A 65;12.0843
3C60 C Q 62;3C60 C V 66;11.9722
3C60 C N 63;3C60 C A 65;1.35907
3C60 C N 63;3C60 C V 66;12.8087
3C60 C N 63;3C60 D K 5;3.82867
3C60 C N 63;3C60 D K 7;2.77591
3C60 C N 63;3C60 D A 8;12.9266
3C60 C A 65;3C60 C V 66;15.7616
3C60 C A 65;3C60 C K 68;14.3467
3C60 C A 65;3C60 C H 69;9.11687
3C60 C V 66;3C60 C K 68;0.819931
3C60 C V 66;3C60 C H 69;8.85672
3C60 C V 66;3C60 C N 70;17.4183
3C60 C V 66;3C60 D A 8;19.8081
3C60 C V 66;3C60 D K 10;6.16248
3C60 C K 68;3C60 C H 69;23.7865
3C60 C K 68;3C60 C N 70;0.144491
3C60 C H 69;3C60 C N 70;23.1473
3C60 C H 69;3C60 D K 10;22.3537
3C60 C N 70;3C60 D A 8;4.32643
3C60 C N 70;3C60 D K 10;4.33479
3C60 D E 2;3C60 D Q 4;10.3001
3C60 D E 2;3C60 D H 107;14.3068
3C60 D Q 4;3C60 D K 5;35.6667
3C60 D Q 4;3C60 D T 103;13.4345
3C60 D Q 4;3C60 D H 107;17.4816
3C60 D K 5;3C60 D K 7;24.7159
3C60 D K 7;3C60 D A 8;20.5218
3C60 D K 7;3C60 D R 96;32.7122
3C60 D A 8;3C60 D K 10;0.805787
3C60 D A 8;3C60 D R 96;3.65047
3C60 D E 92;3C60 D E 95;7.371
3C60 D E 92;3C60 D R 96;13.5058
3C60 D E 95;3C60 D R 96;21.5173
3C60 D R 96;3C60 D T 103;0.368764
3C60 D D 102;3C60 D T 103;22.7472
3C60 D D 102;3C60 D H 107;10.1064
3C60 D T 103;3C60 D H 107;7.97538
