V1;V2;Weight
3QDG A P 57;3QDG A E 58;33.6233
3QDG A P 57;3QDG A Y 59;0.977023
3QDG A P 57;3QDG A D 61;23.2447
3QDG A P 57;3QDG D K 1;1.30269
3QDG A E 58;3QDG A Y 59;24.0909
3QDG A E 58;3QDG A D 61;6.05789
3QDG A E 58;3QDG A G 62;11.2711
3QDG A E 58;3QDG A R 65;0.137696
3QDG A E 58;3QDG D K 1;32.8911
3QDG A E 58;3QDG D S 25;13.0726
3QDG A E 58;3QDG D D 26;26.4588
3QDG A E 58;3QDG D R 27;0.19536
3QDG A E 58;3QDG D F 92;0.354393
3QDG A Y 59;3QDG A D 61;0.71317
3QDG A Y 59;3QDG A G 62;5.24781
3QDG A Y 59;3QDG A W 167;14.0103
3QDG A Y 59;3QDG C E 1;15.245
3QDG A Y 59;3QDG D D 26;3.36913
3QDG A D 61;3QDG A G 62;17.0629
3QDG A D 61;3QDG A R 65;32.9046
3QDG A D 61;3QDG D K 1;11.018
3QDG A G 62;3QDG A R 65;10.2833
3QDG A G 62;3QDG A K 66;18.7864
3QDG A G 62;3QDG C E 1;0.127133
3QDG A G 62;3QDG D K 1;0.0129181
3QDG A G 62;3QDG D D 26;3.57619
3QDG A G 62;3QDG D F 92;7.41594
3QDG A G 62;3QDG D G 93;5.96788
3QDG A R 65;3QDG A K 66;16.5647
3QDG A R 65;3QDG A K 68;13.8167
3QDG A R 65;3QDG A A 69;10.2549
3QDG A R 65;3QDG D K 1;10.2221
3QDG A R 65;3QDG D F 92;10.9112
3QDG A R 65;3QDG D G 93;10.5717
3QDG A R 65;3QDG D G 94;15.4318
3QDG A R 65;3QDG D G 95;1.19767
3QDG A R 65;3QDG D K 96;32.6889
3QDG A R 65;3QDG E Y 51;21.7038
3QDG A R 65;3QDG E N 53;2.45741
3QDG A K 66;3QDG A K 68;0.538345
3QDG A K 66;3QDG A A 69;8.02732
3QDG A K 66;3QDG A H 70;16.188
3QDG A K 66;3QDG C E 1;9.92048
3QDG A K 66;3QDG C L 2;23.4964
3QDG A K 66;3QDG C A 3;7.07368
3QDG A K 66;3QDG C G 4;11.7569
3QDG A K 66;3QDG D G 28;5.43331
3QDG A K 66;3QDG D Q 30;7.46557
3QDG A K 66;3QDG D N 91;0.00664211
3QDG A K 66;3QDG D F 92;0.44449
3QDG A K 66;3QDG D G 93;18.373
3QDG A K 66;3QDG D G 94;4.62105
3QDG A K 66;3QDG E F 100;9.65647
3QDG A K 68;3QDG A A 69;16.2722
3QDG A K 68;3QDG A H 70;0.824747
3QDG A K 68;3QDG A Q 72;21.7756
3QDG A K 68;3QDG E N 53;1.51033
3QDG A A 69;3QDG A H 70;16.7957
3QDG A A 69;3QDG A Q 72;12.8742
3QDG A A 69;3QDG A T 73;11.6661
3QDG A A 69;3QDG D G 94;6.38113
3QDG A A 69;3QDG E N 53;15.7397
3QDG A A 69;3QDG E T 54;0.535993
3QDG A A 69;3QDG E F 100;20.1714
3QDG A H 70;3QDG A Q 72;0.7591
3QDG A H 70;3QDG A T 73;9.5836
3QDG A H 70;3QDG C L 2;8.03349
3QDG A H 70;3QDG C A 3;8.57999
3QDG A H 70;3QDG C I 7;22.0914
3QDG A H 70;3QDG E F 100;9.15428
3QDG A Q 72;3QDG A T 73;16.1619
3QDG A Q 72;3QDG A R 75;15.9198
3QDG A Q 72;3QDG A V 76;9.78267
3QDG A Q 72;3QDG E N 53;21.7447
3QDG A Q 72;3QDG E T 54;18.7786
3QDG A Q 72;3QDG E T 57;29.8055
3QDG A Q 72;3QDG E T 58;4.6499
3QDG A T 73;3QDG A R 75;1.55511
3QDG A T 73;3QDG A V 76;6.96249
3QDG A T 73;3QDG C I 7;13.6451
3QDG A T 73;3QDG C L 8;8.2202
3QDG A T 73;3QDG C T 9;19.586
3QDG A T 73;3QDG E N 53;0.178289
3QDG A T 73;3QDG E T 54;13.9348
3QDG A T 73;3QDG E F 100;9.06507
3QDG A R 75;3QDG A V 76;26.0761
3QDG A R 75;3QDG E A 55;2.42937
3QDG A R 75;3QDG E T 57;10.2936
3QDG A V 76;3QDG C T 9;18.9011
3QDG A V 76;3QDG E N 33;5.78575
3QDG A V 76;3QDG E T 54;13.3797
3QDG A V 76;3QDG E A 55;14.3932
3QDG A A 150;3QDG A Q 155;12.3795
3QDG A A 150;3QDG C L 8;12.4271
3QDG A A 150;3QDG E L 98;24.4228
3QDG A E 154;3QDG A Q 155;19.7684
3QDG A E 154;3QDG A A 158;11.9391
3QDG A E 154;3QDG D F 48;11.009
3QDG A E 154;3QDG D Y 50;11.6693
3QDG A Q 155;3QDG A A 158;7.80624
3QDG A Q 155;3QDG A Y 159;7.30232
3QDG A Q 155;3QDG C I 5;23.9711
3QDG A Q 155;3QDG C G 6;19.6085
3QDG A Q 155;3QDG D Y 50;24.7883
3QDG A Q 155;3QDG E S 99;3.54798
3QDG A Q 155;3QDG E T 102;19.6314
3QDG A A 158;3QDG A Y 159;19.4984
3QDG A A 158;3QDG A G 162;12.3373
3QDG A A 158;3QDG A T 163;6.35151
3QDG A A 158;3QDG C I 5;6.50715
3QDG A A 158;3QDG D Y 50;17.6766
3QDG A A 158;3QDG D S 51;21.1304
3QDG A A 158;3QDG D K 66;2.11069
3QDG A Y 159;3QDG A G 162;3.136
3QDG A Y 159;3QDG A T 163;23.6219
3QDG A Y 159;3QDG C E 1;12.2908
3QDG A Y 159;3QDG C L 2;6.45448
3QDG A Y 159;3QDG C A 3;20.2457
3QDG A Y 159;3QDG C I 5;10.7411
3QDG A Y 159;3QDG D Q 30;11.5307
3QDG A G 162;3QDG A T 163;16.7102
3QDG A G 162;3QDG A E 166;23.7375
3QDG A G 162;3QDG D K 66;2.1712
3QDG A T 163;3QDG A E 166;10.9767
3QDG A T 163;3QDG A W 167;27.0926
3QDG A T 163;3QDG C E 1;11.4267
3QDG A T 163;3QDG C L 2;0.118844
3QDG A T 163;3QDG D G 28;1.46763
3QDG A T 163;3QDG D Q 30;22.1397
3QDG A T 163;3QDG D K 66;17.5673
3QDG A E 166;3QDG A W 167;24.3179
3QDG A E 166;3QDG A R 170;9.18407
3QDG A E 166;3QDG D R 27;14.3198
3QDG A E 166;3QDG D N 52;17.6734
3QDG A E 166;3QDG D K 66;13.0171
3QDG A W 167;3QDG A R 170;29.5429
3QDG A W 167;3QDG C E 1;30.6691
3QDG A W 167;3QDG D R 27;35.3627
3QDG A W 167;3QDG D G 28;13.101
3QDG A R 170;3QDG D R 27;33.7944
3QDG C E 1;3QDG C L 2;19.6992
3QDG C E 1;3QDG D D 26;1.84236
3QDG C E 1;3QDG D G 28;18.7872
3QDG C E 1;3QDG D Q 30;5.68713
3QDG C L 2;3QDG C A 3;18.2602
3QDG C L 2;3QDG C G 4;0.611418
3QDG C L 2;3QDG D Q 30;7.65362
3QDG C A 3;3QDG C G 4;15.754
3QDG C A 3;3QDG C I 5;11.1201
3QDG C A 3;3QDG C I 7;12.15
3QDG C A 3;3QDG D Q 30;2.78141
3QDG C A 3;3QDG E F 100;5.4173
3QDG C G 4;3QDG C I 5;25.6943
3QDG C G 4;3QDG D Q 30;20.3032
3QDG C G 4;3QDG D S 31;1.35035
3QDG C G 4;3QDG D N 91;7.86142
3QDG C G 4;3QDG D G 93;3.31462
3QDG C G 4;3QDG E F 100;15.3531
3QDG C G 4;3QDG E G 101;6.17427
3QDG C I 5;3QDG C G 6;20.2771
3QDG C I 5;3QDG C I 7;9.63298
3QDG C I 5;3QDG D Q 30;21.7212
3QDG C I 5;3QDG D S 31;9.36903
3QDG C I 5;3QDG D Y 50;21.4138
3QDG C I 5;3QDG E F 100;9.0783
3QDG C I 5;3QDG E G 101;8.45276
3QDG C I 5;3QDG E T 102;6.43492
3QDG C G 6;3QDG C I 7;26.3507
3QDG C G 6;3QDG C L 8;4.65195
3QDG C G 6;3QDG E S 99;2.26494
3QDG C G 6;3QDG E F 100;0.311521
3QDG C G 6;3QDG E T 102;0.666759
3QDG C I 7;3QDG C L 8;21.8806
3QDG C I 7;3QDG E S 99;14.4268
3QDG C I 7;3QDG E F 100;25.3519
3QDG C L 8;3QDG C T 9;34.9966
3QDG C L 8;3QDG E N 33;8.25866
3QDG C L 8;3QDG E L 98;22.3235
3QDG C L 8;3QDG E S 99;17.8347
3QDG C T 9;3QDG E N 33;25.138
3QDG C T 9;3QDG E T 54;5.50022
3QDG C T 9;3QDG E S 99;0.000922065
3QDG D K 1;3QDG D S 25;11.5943
3QDG D K 1;3QDG D D 26;2.87836
3QDG D K 1;3QDG D F 92;24.1709
3QDG D K 1;3QDG D K 96;23.2572
3QDG D S 25;3QDG D D 26;23.2379
3QDG D S 25;3QDG D R 27;5.00182
3QDG D S 25;3QDG D F 92;9.71295
3QDG D D 26;3QDG D R 27;23.1211
3QDG D D 26;3QDG D G 28;15.1975
3QDG D D 26;3QDG D F 92;31.9307
3QDG D R 27;3QDG D G 28;19.2949
3QDG D R 27;3QDG D K 66;22.0524
3QDG D G 28;3QDG D Q 30;11.0739
3QDG D Q 30;3QDG D S 31;24.8397
3QDG D Q 30;3QDG D Y 50;12.7443
3QDG D Q 30;3QDG D K 66;6.86449
3QDG D Q 30;3QDG D N 91;6.20191
3QDG D S 31;3QDG D Y 50;11.1985
3QDG D S 31;3QDG D N 91;22.6487
3QDG D S 31;3QDG E G 101;11.3768
3QDG D F 48;3QDG D Y 50;35.7353
3QDG D Y 50;3QDG D S 51;26.978
3QDG D Y 50;3QDG D N 52;0.112528
3QDG D Y 50;3QDG D K 66;11.3011
3QDG D Y 50;3QDG E G 101;1.60288
3QDG D Y 50;3QDG E T 102;11.3368
3QDG D S 51;3QDG D N 52;33.9658
3QDG D S 51;3QDG D K 66;2.15262
3QDG D N 52;3QDG D K 66;27.5886
3QDG D N 91;3QDG D F 92;20.9271
3QDG D N 91;3QDG D G 93;15.5584
3QDG D N 91;3QDG D G 94;9.43289
3QDG D N 91;3QDG D G 95;1.93813
3QDG D N 91;3QDG D K 96;7.2818
3QDG D N 91;3QDG E F 100;0.206693
3QDG D N 91;3QDG E G 101;15.4623
3QDG D F 92;3QDG D G 93;20.4095
3QDG D F 92;3QDG D K 96;27.8003
3QDG D G 93;3QDG D G 94;19.5884
3QDG D G 93;3QDG D K 96;6.45806
3QDG D G 93;3QDG E F 100;3.3536
3QDG D G 94;3QDG D G 95;21.0773
3QDG D G 94;3QDG D K 96;4.31337
3QDG D G 94;3QDG E Y 51;0.304118
3QDG D G 94;3QDG E N 53;3.98219
3QDG D G 94;3QDG E F 100;17.3591
3QDG D G 94;3QDG E G 101;4.64871
3QDG D G 95;3QDG D K 96;15.4481
3QDG D G 95;3QDG E Y 51;22.4993
3QDG D G 95;3QDG E N 53;11.1132
3QDG D G 95;3QDG E F 100;3.08035
3QDG D K 96;3QDG E Y 51;10.731
3QDG E N 33;3QDG E N 53;11.328
3QDG E N 33;3QDG E T 54;19.1293
3QDG E N 33;3QDG E A 55;3.82219
3QDG E N 33;3QDG E L 98;15.729
3QDG E N 33;3QDG E S 99;10.2275
3QDG E Y 51;3QDG E N 53;18.0899
3QDG E Y 51;3QDG E T 58;11.4617
3QDG E N 53;3QDG E T 54;27.2503
3QDG E N 53;3QDG E T 57;5.65559
3QDG E N 53;3QDG E T 58;2.75603
3QDG E N 53;3QDG E S 99;0.618523
3QDG E N 53;3QDG E F 100;17.3154
3QDG E T 54;3QDG E A 55;26.3876
3QDG E T 54;3QDG E T 57;21.6793
3QDG E A 55;3QDG E T 57;6.17165
3QDG E T 57;3QDG E T 58;32.1506
3QDG E L 98;3QDG E S 99;20.6449
3QDG E L 98;3QDG E T 102;13.9026
3QDG E S 99;3QDG E F 100;30.3183
3QDG E S 99;3QDG E G 101;0.987417
3QDG E S 99;3QDG E T 102;23.5165
3QDG E F 100;3QDG E G 101;18.4937
3QDG E F 100;3QDG E T 102;5.86022
3QDG E G 101;3QDG E T 102;23.6061
