V1;V2;Weight
3R9A A Q 303;3R9A A A 304;19.7415
3R9A A Q 303;3R9A A L 305;0.927965
3R9A A Q 303;3R9A A G 306;8.54813
3R9A A Q 303;3R9A A L 307;15.3035
3R9A A Q 303;3R9A B R 608;9.88256
3R9A A A 304;3R9A A L 305;17.854
3R9A A A 304;3R9A A G 306;2.70132
3R9A A A 304;3R9A B R 608;9.13445
3R9A A A 304;3R9A B S 612;7.20162
3R9A A A 304;3R9A B Y 620;19.3998
3R9A A L 305;3R9A A G 306;15.0708
3R9A A L 305;3R9A A L 307;13.8648
3R9A A L 305;3R9A A R 381;28.6401
3R9A A L 305;3R9A A L 384;16.5978
3R9A A L 305;3R9A B R 608;1.27216
3R9A A L 305;3R9A B L 609;12.8393
3R9A A L 305;3R9A B S 612;22.1933
3R9A A G 306;3R9A A L 307;27.1974
3R9A A G 306;3R9A A P 327;1.86514
3R9A A G 306;3R9A B S 605;0.230706
3R9A A G 306;3R9A B R 608;24.4816
3R9A A G 306;3R9A B L 609;15.6166
3R9A A L 307;3R9A A P 327;19.9574
3R9A A L 307;3R9A A L 384;16.5749
3R9A A L 307;3R9A B L 609;7.30596
3R9A A P 327;3R9A A A 328;28.5383
3R9A A P 327;3R9A A G 329;1.37759
3R9A A P 327;3R9A A Y 330;23.4546
3R9A A P 327;3R9A A L 384;7.69961
3R9A A P 327;3R9A B S 605;2.23378
3R9A A P 327;3R9A B L 609;13.8868
3R9A A A 328;3R9A A G 329;28.8979
3R9A A A 328;3R9A A Y 330;10.8871
3R9A A A 328;3R9A B Y 560;0.666065
3R9A A A 328;3R9A B N 602;15.8278
3R9A A A 328;3R9A B S 605;18.1961
3R9A A A 328;3R9A B T 606;7.57628
3R9A A A 328;3R9A B L 609;1.77404
3R9A A G 329;3R9A A Y 330;27.0385
3R9A A G 329;3R9A A P 388;5.09579
3R9A A G 329;3R9A A K 389;25.8919
3R9A A G 329;3R9A A K 391;11.6032
3R9A A G 329;3R9A B Y 560;2.62502
3R9A A Y 330;3R9A A L 384;26.5097
3R9A A Y 330;3R9A A P 388;22.3065
3R9A A Y 330;3R9A A K 389;8.81692
3R9A A Y 330;3R9A B I 567;2.14931
3R9A A Y 330;3R9A B T 606;4.81363
3R9A A Y 330;3R9A B L 609;18.0456
3R9A A Y 330;3R9A B M 613;3.25231
3R9A A R 381;3R9A A L 384;12.6376
3R9A A R 381;3R9A A Q 385;10.2166
3R9A A R 381;3R9A B S 612;15.671
3R9A A R 381;3R9A B M 613;26.717
3R9A A R 381;3R9A B G 615;8.13862
3R9A A R 381;3R9A B Y 620;2.48655
3R9A A L 384;3R9A A Q 385;15.4608
3R9A A L 384;3R9A A H 386;0.990641
3R9A A L 384;3R9A A P 388;7.54537
3R9A A L 384;3R9A B I 567;2.63695
3R9A A L 384;3R9A B L 609;17.5801
3R9A A L 384;3R9A B M 613;16.1949
3R9A A Q 385;3R9A A H 386;36.1141
3R9A A Q 385;3R9A A P 388;6.01178
3R9A A Q 385;3R9A B I 567;21.184
3R9A A Q 385;3R9A B N 568;19.7186
3R9A A Q 385;3R9A B L 569;1.3705
3R9A A Q 385;3R9A B G 570;11.0318
3R9A A Q 385;3R9A B H 572;16.6128
3R9A A Q 385;3R9A B M 613;14.1065
3R9A A H 386;3R9A A P 388;4.52591
3R9A A H 386;3R9A A K 390;2.8881
3R9A A H 386;3R9A B N 536;6.83063
3R9A A H 386;3R9A B N 568;25.0844
3R9A A P 388;3R9A A K 389;23.8395
3R9A A P 388;3R9A A K 390;14.0409
3R9A A P 388;3R9A B I 564;21.8787
3R9A A P 388;3R9A B I 567;10.8955
3R9A A P 388;3R9A B N 568;8.77359
3R9A A P 388;3R9A B T 606;5.21483
3R9A A K 389;3R9A A K 390;32.0464
3R9A A K 389;3R9A A K 391;12.3775
3R9A A K 389;3R9A B N 415;5.62732
3R9A A K 389;3R9A B S 417;22.4053
3R9A A K 389;3R9A B N 534;1.52953
3R9A A K 389;3R9A B Y 560;1.61668
3R9A A K 389;3R9A B I 564;12.4633
3R9A A K 390;3R9A A K 391;26.2188
3R9A A K 390;3R9A A L 392;3.26684
3R9A A K 390;3R9A B N 415;6.94904
3R9A A K 390;3R9A B A 530;14.3068
3R9A A K 390;3R9A B A 533;24.9804
3R9A A K 390;3R9A B N 534;27.3871
3R9A A K 390;3R9A B N 536;6.61107
3R9A A K 390;3R9A B Y 545;5.55636
3R9A A K 390;3R9A B N 561;11.5523
3R9A A K 390;3R9A B I 564;18.6842
3R9A A K 390;3R9A B S 565;2.19996
3R9A A K 390;3R9A B N 568;16.6433
3R9A A K 391;3R9A A L 392;19.0845
3R9A A K 391;3R9A B E 383;11.4994
3R9A A K 391;3R9A B E 385;8.19162
3R9A A K 391;3R9A B N 415;29.4163
3R9A A K 391;3R9A B E 416;8.1964
3R9A A K 391;3R9A B N 526;5.40736
3R9A A K 391;3R9A B A 530;7.1357
3R9A A K 391;3R9A B R 557;20.9561
3R9A A K 391;3R9A B Y 560;15.3886
3R9A A K 391;3R9A B N 561;19.8128
3R9A A K 391;3R9A B I 564;0.870777
3R9A A K 391;3R9A B N 602;10.8258
3R9A A L 392;3R9A B V 411;23.508
3R9A A L 392;3R9A B T 414;15.156
3R9A A L 392;3R9A B N 415;21.3161
3R9A A L 392;3R9A B V 496;13.5097
3R9A A L 392;3R9A B N 499;20.6362
3R9A A L 392;3R9A B F 511;7.01142
3R9A A L 392;3R9A B L 523;0.410982
3R9A A L 392;3R9A B N 526;10.8928
3R9A A L 392;3R9A B K 527;33.3285
3R9A A L 392;3R9A B A 530;15.154
3R9A A L 392;3R9A B T 531;6.21709
3R9A A L 392;3R9A B N 534;4.00514
3R9A A L 392;3R9A B Y 555;4.03071
3R9A A L 392;3R9A B R 557;11.8279
3R9A B E 383;3R9A B E 385;7.76829
3R9A B E 383;3R9A B R 557;35.0999
3R9A B E 383;3R9A B Y 560;15.459
3R9A B E 383;3R9A B N 602;21.7233
3R9A B E 385;3R9A B N 415;13.3507
3R9A B E 385;3R9A B E 416;16.9118
3R9A B E 385;3R9A B R 557;21.3192
3R9A B V 411;3R9A B T 414;10.5223
3R9A B V 411;3R9A B N 415;15.2093
3R9A B V 411;3R9A B V 496;15.9094
3R9A B V 411;3R9A B K 527;19.0686
3R9A B V 411;3R9A B R 557;2.05034
3R9A B T 414;3R9A B N 415;23.0625
3R9A B T 414;3R9A B E 416;1.13668
3R9A B T 414;3R9A B S 417;14.2045
3R9A B T 414;3R9A B V 496;13.9251
3R9A B T 414;3R9A B N 499;7.11411
3R9A B N 415;3R9A B E 416;23.0158
3R9A B N 415;3R9A B S 417;7.30971
3R9A B N 415;3R9A B R 557;7.34549
3R9A B E 416;3R9A B S 417;24.6155
3R9A B V 496;3R9A B N 499;10.0383
3R9A B V 496;3R9A B F 511;8.84418
3R9A B V 496;3R9A B K 527;4.66182
3R9A B N 499;3R9A B F 511;5.1624
3R9A B N 499;3R9A B A 530;0.000147365
3R9A B N 499;3R9A B T 531;13.1951
3R9A B N 499;3R9A B N 534;10.7766
3R9A B F 511;3R9A B K 527;23.3836
3R9A B F 511;3R9A B T 531;10.6086
3R9A B L 523;3R9A B N 526;6.34774
3R9A B L 523;3R9A B K 527;30.8799
3R9A B L 523;3R9A B Y 555;20.8248
3R9A B N 526;3R9A B K 527;18.4405
3R9A B N 526;3R9A B A 530;9.84298
3R9A B N 526;3R9A B Y 545;14.3784
3R9A B N 526;3R9A B Y 555;16.6841
3R9A B N 526;3R9A B R 557;8.71295
3R9A B N 526;3R9A B N 561;9.84343
3R9A B K 527;3R9A B A 530;6.09298
3R9A B K 527;3R9A B T 531;9.08924
3R9A B K 527;3R9A B Y 555;0.908757
3R9A B A 530;3R9A B T 531;16.0906
3R9A B A 530;3R9A B A 533;5.64157
3R9A B A 530;3R9A B N 534;15.2706
3R9A B A 530;3R9A B Y 545;9.49917
3R9A B A 530;3R9A B N 561;4.821
3R9A B T 531;3R9A B A 533;0.589436
3R9A B T 531;3R9A B N 534;10.0161
3R9A B A 533;3R9A B N 534;16.6412
3R9A B A 533;3R9A B N 536;14.3866
3R9A B A 533;3R9A B Y 545;6.23082
3R9A B A 533;3R9A B S 565;10.3023
3R9A B A 533;3R9A B N 568;3.61847
3R9A B N 534;3R9A B N 536;11.7657
3R9A B N 536;3R9A B N 568;7.08625
3R9A B Y 545;3R9A B N 561;23.0939
3R9A B Y 545;3R9A B S 565;9.41305
3R9A B Y 555;3R9A B R 557;15.1935
3R9A B R 557;3R9A B Y 560;10.4274
3R9A B R 557;3R9A B N 561;13.9419
3R9A B Y 560;3R9A B N 561;20.3272
3R9A B Y 560;3R9A B I 564;29.2311
3R9A B Y 560;3R9A B N 602;17.843
3R9A B Y 560;3R9A B T 606;20.7902
3R9A B N 561;3R9A B I 564;18.0933
3R9A B N 561;3R9A B S 565;8.36058
3R9A B I 564;3R9A B S 565;17.0632
3R9A B I 564;3R9A B I 567;16.5084
3R9A B I 564;3R9A B N 568;12.8143
3R9A B I 564;3R9A B T 606;8.17121
3R9A B S 565;3R9A B I 567;0.774585
3R9A B S 565;3R9A B N 568;15.5979
3R9A B S 565;3R9A B L 569;15.2891
3R9A B I 567;3R9A B N 568;17.0463
3R9A B I 567;3R9A B L 569;1.04529
3R9A B I 567;3R9A B G 570;6.05782
3R9A B I 567;3R9A B H 572;14.539
3R9A B I 567;3R9A B T 606;12.9278
3R9A B I 567;3R9A B L 609;0.858677
3R9A B I 567;3R9A B M 613;17.9487
3R9A B N 568;3R9A B L 569;23.0486
3R9A B N 568;3R9A B G 570;1.66439
3R9A B L 569;3R9A B G 570;21.5282
3R9A B G 570;3R9A B H 572;28.1008
3R9A B H 572;3R9A B M 613;31.3966
3R9A B N 602;3R9A B S 605;11.8559
3R9A B N 602;3R9A B T 606;10.3011
3R9A B S 605;3R9A B T 606;21.3755
3R9A B S 605;3R9A B R 608;14.2305
3R9A B S 605;3R9A B L 609;16.4598
3R9A B T 606;3R9A B R 608;0.779371
3R9A B T 606;3R9A B L 609;18.506
3R9A B R 608;3R9A B L 609;19.0605
3R9A B R 608;3R9A B S 612;12.1938
3R9A B R 608;3R9A B Y 620;31.2733
3R9A B L 609;3R9A B S 612;9.41327
3R9A B L 609;3R9A B M 613;22.9268
3R9A B S 612;3R9A B M 613;20.795
3R9A B S 612;3R9A B G 615;8.83072
3R9A B S 612;3R9A B Y 620;16.5203
3R9A B M 613;3R9A B G 615;2.18355
3R9A B G 615;3R9A B Y 620;10.5509
