V1;V2;Weight
3SE8 G K 97;3SE8 H D 99;16.9368
3SE8 G K 97;3SE8 H Y 100;20.2417
3SE8 G T 123;3SE8 G G 124;30.6582
3SE8 G T 123;3SE8 G G 198;4.64754
3SE8 G T 123;3SE8 G S 199;28.6516
3SE8 G T 123;3SE8 G M 426;1.416
3SE8 G T 123;3SE8 G T 430;30.2728
3SE8 G T 123;3SE8 G G 431;2.5
3SE8 G T 123;3SE8 H R 30;6.28383
3SE8 G T 123;3SE8 H P 76a;0.00141467
3SE8 G T 123;3SE8 H P 76d;3.78044
3SE8 G G 124;3SE8 G G 198;16.0473
3SE8 G G 124;3SE8 G S 199;3.52059
3SE8 G G 124;3SE8 G G 431;0.0422326
3SE8 G G 124;3SE8 H R 30;10.175
3SE8 G G 124;3SE8 H S 74;9.61514
3SE8 G G 124;3SE8 H Q 75;7.30808
3SE8 G G 124;3SE8 H D 76;5.39535
3SE8 G G 124;3SE8 H P 76a;10.9492
3SE8 G G 124;3SE8 H P 76d;19.6575
3SE8 G G 198;3SE8 G S 199;26.0309
3SE8 G G 198;3SE8 H Q 75;28.6516
3SE8 G G 198;3SE8 H P 76a;14.1239
3SE8 G S 199;3SE8 H P 76a;15.9258
3SE8 G T 257;3SE8 G E 370;12.2882
3SE8 G T 257;3SE8 G I 371;14.2528
3SE8 G T 257;3SE8 G H 375;25.0422
3SE8 G T 257;3SE8 G G 473;8.87405
3SE8 G T 257;3SE8 G I 475;9.18971
3SE8 G T 257;3SE8 H W 54;9.9911
3SE8 G N 276;3SE8 G T 278;13.4646
3SE8 G N 276;3SE8 G N 279;24.1697
3SE8 G N 276;3SE8 G K 282;14.1793
3SE8 G N 276;3SE8 L N 31;2.60998
3SE8 G N 276;3SE8 L F 91;13.827
3SE8 G T 278;3SE8 G N 279;16.0574
3SE8 G T 278;3SE8 G N 280;2.56276
3SE8 G T 278;3SE8 G R 456;13.4875
3SE8 G T 278;3SE8 L I 2;10.0744
3SE8 G T 278;3SE8 L Q 27;7.10764
3SE8 G T 278;3SE8 L N 31;14.6737
3SE8 G T 278;3SE8 L F 91;24.2066
3SE8 G T 278;3SE8 L E 96;3.75091
3SE8 G T 278;3SE8 L F 97;3.21204
3SE8 G N 279;3SE8 G N 280;19.8449
3SE8 G N 279;3SE8 G A 281;11.1946
3SE8 G N 279;3SE8 G K 282;28.3316
3SE8 G N 279;3SE8 G R 456;2.11692
3SE8 G N 279;3SE8 H G 100b;1.37505
3SE8 G N 279;3SE8 H D 100c;14.9571
3SE8 G N 279;3SE8 H F 100d;12.8443
3SE8 G N 279;3SE8 L F 91;22.0318
3SE8 G N 280;3SE8 G A 281;20.311
3SE8 G N 280;3SE8 G K 282;7.23779
3SE8 G N 280;3SE8 G T 455;6.44819
3SE8 G N 280;3SE8 G R 456;36.5289
3SE8 G N 280;3SE8 G D 457;0.846542
3SE8 G N 280;3SE8 G G 458;12.6075
3SE8 G N 280;3SE8 G G 459;1.2528e-05
3SE8 G N 280;3SE8 H W 47;12.9338
3SE8 G N 280;3SE8 H W 50;16.3717
3SE8 G N 280;3SE8 H S 58;6.47788
3SE8 G N 280;3SE8 H F 100d;13.8178
3SE8 G N 280;3SE8 L F 91;0.289444
3SE8 G N 280;3SE8 L E 96;15.4284
3SE8 G A 281;3SE8 G K 282;25.2533
3SE8 G A 281;3SE8 G T 283;3.46615
3SE8 G A 281;3SE8 H S 33;0.371027
3SE8 G A 281;3SE8 H H 35;4.09871
3SE8 G A 281;3SE8 H W 50;18.4998
3SE8 G A 281;3SE8 H K 52;19.7338
3SE8 G A 281;3SE8 H D 100c;19.5772
3SE8 G A 281;3SE8 H F 100d;7.33507
3SE8 G K 282;3SE8 G T 283;30.3332
3SE8 G K 282;3SE8 G T 455;4.12264
3SE8 G K 282;3SE8 G R 456;1.60126
3SE8 G K 282;3SE8 H G 100b;1.52724
3SE8 G K 282;3SE8 H D 100c;21.8634
3SE8 G T 283;3SE8 G T 455;9.86588
3SE8 G T 283;3SE8 G G 472;18.9906
3SE8 G T 283;3SE8 G N 474;1.17263
3SE8 G T 283;3SE8 H K 52;10.388
3SE8 G K 357;3SE8 G N 461;0.37562
3SE8 G K 357;3SE8 G N 462;9.84216
3SE8 G K 357;3SE8 G T 463;15.207
3SE8 G K 357;3SE8 G N 465;12.9541
3SE8 G K 357;3SE8 G E 466;27.4125
3SE8 G K 357;3SE8 L E 1;2.87448
3SE8 G S 365;3SE8 G G 366;25.7862
3SE8 G S 365;3SE8 G D 457;0.529189
3SE8 G S 365;3SE8 G R 469;29.0307
3SE8 G S 365;3SE8 H V 57;19.2717
3SE8 G S 365;3SE8 H S 58;3.99348
3SE8 G S 365;3SE8 H Y 59;25.745
3SE8 G S 365;3SE8 H Q 64;3.76443
3SE8 G G 366;3SE8 G G 367;23.562
3SE8 G G 366;3SE8 G I 371;5.35987
3SE8 G G 366;3SE8 H G 55;0.762874
3SE8 G G 366;3SE8 H A 56;5.79453
3SE8 G G 366;3SE8 H V 57;16.1718
3SE8 G G 366;3SE8 H Y 59;0.872807
3SE8 G G 367;3SE8 G D 368;24.7563
3SE8 G G 367;3SE8 G I 371;4.87835
3SE8 G G 367;3SE8 H W 54;3.74605
3SE8 G G 367;3SE8 H G 55;13.4172
3SE8 G G 367;3SE8 H A 56;2.63005
3SE8 G G 367;3SE8 H V 57;0.897361
3SE8 G G 367;3SE8 H R 71;1.44486
3SE8 G D 368;3SE8 G E 370;10.3008
3SE8 G D 368;3SE8 G I 371;11.8575
3SE8 G D 368;3SE8 G N 425;21.8321
3SE8 G D 368;3SE8 H L 53;2.74271
3SE8 G D 368;3SE8 H W 54;24.1372
3SE8 G D 368;3SE8 H R 71;22.6658
3SE8 G E 370;3SE8 G I 371;18.5393
3SE8 G E 370;3SE8 G H 375;23.8863
3SE8 G E 370;3SE8 G N 425;27.1925
3SE8 G E 370;3SE8 H W 54;21.9659
3SE8 G I 371;3SE8 G G 472;7.86742
3SE8 G I 371;3SE8 G G 473;10.0629
3SE8 G I 371;3SE8 H W 54;22.9276
3SE8 G I 371;3SE8 H A 56;16.339
3SE8 G H 375;3SE8 G N 425;2.20497
3SE8 G H 375;3SE8 G W 427;5.66127
3SE8 G H 375;3SE8 H W 54;5.024
3SE8 G N 425;3SE8 G M 426;20.9299
3SE8 G N 425;3SE8 G W 427;2.60273
3SE8 G N 425;3SE8 G G 431;6.35103
3SE8 G N 425;3SE8 H L 53;2.57054
3SE8 G N 425;3SE8 H W 54;17.6661
3SE8 G M 426;3SE8 G W 427;18.0753
3SE8 G M 426;3SE8 G G 429;8.06824
3SE8 G M 426;3SE8 G T 430;25.3476
3SE8 G M 426;3SE8 G G 431;22.1691
3SE8 G M 426;3SE8 H L 53;6.80638
3SE8 G M 426;3SE8 H W 54;3.94907
3SE8 G W 427;3SE8 G G 429;4.59058
3SE8 G W 427;3SE8 G G 473;0.000509846
3SE8 G W 427;3SE8 G I 475;33.2683
3SE8 G W 427;3SE8 H L 53;14.8084
3SE8 G W 427;3SE8 H W 54;21.3315
3SE8 G G 429;3SE8 G T 430;23.874
3SE8 G G 429;3SE8 G G 431;4.67913
3SE8 G G 429;3SE8 H R 30;24.7941
3SE8 G G 429;3SE8 H L 53;15.7087
3SE8 G T 430;3SE8 G G 431;20.3325
3SE8 G T 430;3SE8 H R 30;2.26641
3SE8 G G 431;3SE8 H R 30;12.9971
3SE8 G G 431;3SE8 H L 73;1.53531
3SE8 G T 455;3SE8 G R 456;27.1881
3SE8 G T 455;3SE8 G D 457;3.14981
3SE8 G T 455;3SE8 G T 467;0.471558
3SE8 G T 455;3SE8 G R 469;29.7673
3SE8 G T 455;3SE8 G G 472;13.2326
3SE8 G T 455;3SE8 H W 50;16.2313
3SE8 G T 455;3SE8 H K 52;2.94613
3SE8 G T 455;3SE8 H V 57;3.51168
3SE8 G T 455;3SE8 H S 58;4.67681
3SE8 G R 456;3SE8 G D 457;35.1684
3SE8 G R 456;3SE8 G G 458;7.07707
3SE8 G R 456;3SE8 G N 461;1.52453
3SE8 G R 456;3SE8 G E 466;20.7148
3SE8 G R 456;3SE8 G T 467;9.47093
3SE8 G R 456;3SE8 H S 58;4.66965
3SE8 G R 456;3SE8 L E 96;3.67496
3SE8 G D 457;3SE8 G G 458;24.2096
3SE8 G D 457;3SE8 G N 461;4.75311
3SE8 G D 457;3SE8 G E 466;4.67723
3SE8 G D 457;3SE8 G T 467;28.5293
3SE8 G D 457;3SE8 G R 469;22.1882
3SE8 G D 457;3SE8 H S 58;10.353
3SE8 G D 457;3SE8 H Y 59;4.39544
3SE8 G D 457;3SE8 H R 61;16.8862
3SE8 G D 457;3SE8 H Q 64;15.5326
3SE8 G G 458;3SE8 G G 459;18.6539
3SE8 G G 458;3SE8 G N 461;6.16214
3SE8 G G 458;3SE8 H W 47;6.89622
3SE8 G G 458;3SE8 H S 58;4.10984
3SE8 G G 458;3SE8 H Y 59;4.66266
3SE8 G G 458;3SE8 H A 60;2.38424
3SE8 G G 458;3SE8 H R 61;13.4066
3SE8 G G 458;3SE8 L E 96;7.01373
3SE8 G G 459;3SE8 G A 460;17.0485
3SE8 G G 459;3SE8 G N 461;15.495
3SE8 G G 459;3SE8 H W 47;8.61241
3SE8 G G 459;3SE8 H A 60;7.7853
3SE8 G G 459;3SE8 H R 61;4.30732
3SE8 G G 459;3SE8 H Q 62;4.7737
3SE8 G G 459;3SE8 L E 1;1.27037
3SE8 G G 459;3SE8 L E 96;15.2927
3SE8 G G 459;3SE8 L F 97;10.2841
3SE8 G A 460;3SE8 G N 461;23.0364
3SE8 G A 460;3SE8 H E 46;4.55793
3SE8 G A 460;3SE8 H Q 62;32.3123
3SE8 G A 460;3SE8 L E 1;16.0054
3SE8 G A 460;3SE8 L E 96;1.07572
3SE8 G A 460;3SE8 L F 97;11.1037
3SE8 G N 461;3SE8 G N 462;33.1012
3SE8 G N 461;3SE8 G T 463;15.3135
3SE8 G N 461;3SE8 G N 465;1.28401
3SE8 G N 461;3SE8 G E 466;11.0463
3SE8 G N 461;3SE8 H R 61;26.6991
3SE8 G N 461;3SE8 H Q 62;1.71261
3SE8 G N 461;3SE8 L E 1;25.8229
3SE8 G N 461;3SE8 L F 97;0.361654
3SE8 G N 462;3SE8 G T 463;36.8906
3SE8 G N 462;3SE8 L E 1;28.5117
3SE8 G T 463;3SE8 G N 465;29.0885
3SE8 G T 463;3SE8 H R 61;18.7176
3SE8 G N 465;3SE8 G E 466;23.1348
3SE8 G N 465;3SE8 G T 467;1.30272
3SE8 G N 465;3SE8 H R 61;18.557
3SE8 G E 466;3SE8 G T 467;21.1331
3SE8 G E 466;3SE8 H R 61;6.07399
3SE8 G T 467;3SE8 G R 469;10.3473
3SE8 G T 467;3SE8 H R 61;21.6461
3SE8 G R 469;3SE8 H V 57;1.49537
3SE8 G R 469;3SE8 H Q 64;18.046
3SE8 G G 472;3SE8 G G 473;19.2459
3SE8 G G 472;3SE8 G N 474;7.0562
3SE8 G G 472;3SE8 H K 52;11.6256
3SE8 G G 472;3SE8 H W 54;3.07071
3SE8 G G 472;3SE8 H A 56;9.70004
3SE8 G G 473;3SE8 G N 474;26.3326
3SE8 G G 473;3SE8 G I 475;14.3192
3SE8 G G 473;3SE8 H L 53;7.29492
3SE8 G G 473;3SE8 H W 54;20.176
3SE8 G N 474;3SE8 G I 475;21.2455
3SE8 G N 474;3SE8 H L 53;3.7599
3SE8 G I 475;3SE8 H L 53;0.357795
3SE8 G I 475;3SE8 H W 54;3.64314
3SE8 H R 30;3SE8 H L 53;30.1565
3SE8 H R 30;3SE8 H L 73;38.9819
3SE8 H R 30;3SE8 H S 74;1.8106
3SE8 H R 30;3SE8 H Q 75;0.15458
3SE8 H R 30;3SE8 H P 76d;12.3163
3SE8 H S 33;3SE8 H H 35;15.5842
3SE8 H S 33;3SE8 H W 50;8.52118
3SE8 H S 33;3SE8 H K 52;23.1504
3SE8 H S 33;3SE8 H D 100c;5.3602
3SE8 H H 35;3SE8 H W 47;11.078
3SE8 H H 35;3SE8 H W 50;21.8162
3SE8 H H 35;3SE8 H D 100c;16.7017
3SE8 H H 35;3SE8 H F 100d;12.7904
3SE8 H E 46;3SE8 H W 47;27.7993
3SE8 H E 46;3SE8 H Q 62;22.658
3SE8 H E 46;3SE8 L E 96;0.0295504
3SE8 H W 47;3SE8 H W 50;11.5542
3SE8 H W 47;3SE8 H S 58;11.2471
3SE8 H W 47;3SE8 H Y 59;3.82232
3SE8 H W 47;3SE8 H A 60;20.9049
3SE8 H W 47;3SE8 H Q 62;3.50875
3SE8 H W 47;3SE8 H F 100d;11.6925
3SE8 H W 47;3SE8 L E 96;29.8477
3SE8 H W 50;3SE8 H K 52;29.7793
3SE8 H W 50;3SE8 H A 56;11.9934
3SE8 H W 50;3SE8 H V 57;18.9727
3SE8 H W 50;3SE8 H S 58;33.3996
3SE8 H W 50;3SE8 H Y 59;0.167199
3SE8 H W 50;3SE8 H F 100d;2.70341
3SE8 H K 52;3SE8 H L 53;8.79133
3SE8 H K 52;3SE8 H W 54;3.56608
3SE8 H K 52;3SE8 H G 55;8.31315
3SE8 H K 52;3SE8 H A 56;22.6545
3SE8 H K 52;3SE8 H D 100c;0.540409
3SE8 H L 53;3SE8 H W 54;47.1659
3SE8 H L 53;3SE8 H G 55;0.269472
3SE8 H L 53;3SE8 H R 71;8.50159
3SE8 H L 53;3SE8 H L 73;3.53393
3SE8 H W 54;3SE8 H G 55;16.804
3SE8 H W 54;3SE8 H A 56;11.5629
3SE8 H W 54;3SE8 H R 71;6.50222
3SE8 H G 55;3SE8 H A 56;17.375
3SE8 H G 55;3SE8 H V 57;8.1451
3SE8 H G 55;3SE8 H R 71;15.5722
3SE8 H A 56;3SE8 H V 57;22.7111
3SE8 H V 57;3SE8 H S 58;23.6841
3SE8 H V 57;3SE8 H Y 59;21.1171
3SE8 H S 58;3SE8 H Y 59;30.7048
3SE8 H Y 59;3SE8 H A 60;21.1034
3SE8 H Y 59;3SE8 H R 61;3.25444
3SE8 H Y 59;3SE8 H Q 64;29.9429
3SE8 H A 60;3SE8 H R 61;13.9506
3SE8 H A 60;3SE8 H Q 62;13.1575
3SE8 H A 60;3SE8 H Q 64;7.23021
3SE8 H R 61;3SE8 H Q 62;27.6358
3SE8 H R 61;3SE8 H Q 64;27.8054
3SE8 H Q 62;3SE8 H Q 64;2.3436
3SE8 H R 71;3SE8 H L 73;20.5509
3SE8 H L 73;3SE8 H S 74;27.9234
3SE8 H L 73;3SE8 H Q 75;17.143
3SE8 H L 73;3SE8 H P 76d;1.41562
3SE8 H S 74;3SE8 H Q 75;26.6328
3SE8 H S 74;3SE8 H D 76;10.6054
3SE8 H S 74;3SE8 H P 76d;15.9114
3SE8 H Q 75;3SE8 H D 76;22.3123
3SE8 H Q 75;3SE8 H P 76a;7.44391
3SE8 H D 76;3SE8 H P 76a;26.2618
3SE8 H D 76;3SE8 H P 76d;7.60282
3SE8 H P 76a;3SE8 H P 76d;14.1326
3SE8 H D 99;3SE8 H Y 100;36.1701
3SE8 H Y 100;3SE8 H G 100b;7.13207
3SE8 H G 100b;3SE8 H D 100c;24.8421
3SE8 H G 100b;3SE8 H F 100d;0.0843029
3SE8 H D 100c;3SE8 H F 100d;27.517
3SE8 H F 100d;3SE8 L F 91;31.2949
3SE8 H F 100d;3SE8 L E 96;14.7023
3SE8 L E 1;3SE8 L I 2;27.3759
3SE8 L E 1;3SE8 L Q 27;19.4579
3SE8 L E 1;3SE8 L F 97;22.01
3SE8 L I 2;3SE8 L Q 27;22.2945
3SE8 L I 2;3SE8 L N 31;8.75063
3SE8 L I 2;3SE8 L F 91;10.059
3SE8 L I 2;3SE8 L F 97;41.6855
3SE8 L Q 27;3SE8 L N 31;15.7904
3SE8 L N 31;3SE8 L F 91;19.3292
3SE8 L F 91;3SE8 L E 96;25.1271
3SE8 L F 91;3SE8 L F 97;8.78267
3SE8 L E 96;3SE8 L F 97;45.9605
