V1;V2;Weight
3UIG A T 48;3UIG A E 51;30.4839
3UIG A T 48;3UIG A L 54;5.38954
3UIG A T 48;3UIG P K 4;0.107401
3UIG A E 51;3UIG A L 54;22.2099
3UIG A E 51;3UIG A E 65;22.9788
3UIG A E 51;3UIG P K 4;22.4648
3UIG A E 51;3UIG P Q 5;8.96305
3UIG A L 54;3UIG A E 63;17.9248
3UIG A L 54;3UIG A L 64;10.4956
3UIG A L 54;3UIG A E 65;11.1632
3UIG A L 54;3UIG P K 4;21.2444
3UIG A E 63;3UIG A L 64;24.6518
3UIG A E 63;3UIG P R 2;0.0137122
3UIG A E 63;3UIG P K 4;41.0062
3UIG A L 64;3UIG A E 65;17.4073
3UIG A L 64;3UIG A W 67;20.0865
3UIG A L 64;3UIG A E 76;11.6845
3UIG A L 64;3UIG A H 80;23.583
3UIG A L 64;3UIG P A 1;9.52743
3UIG A L 64;3UIG P R 2;15.7933
3UIG A L 64;3UIG P K 4;3.39588
3UIG A E 65;3UIG A G 66;20.1054
3UIG A E 65;3UIG A W 67;7.55108
3UIG A E 65;3UIG P A 1;6.25159
3UIG A E 65;3UIG P R 2;47.5074
3UIG A E 65;3UIG P K 4;16.3145
3UIG A E 65;3UIG P Q 5;12.9437
3UIG A G 66;3UIG A W 67;20.7688
3UIG A G 66;3UIG A E 68;10.6898
3UIG A G 66;3UIG A D 71;0.811478
3UIG A G 66;3UIG P A 1;12.4375
3UIG A G 66;3UIG P R 2;23.1077
3UIG A W 67;3UIG A E 68;24.1513
3UIG A W 67;3UIG A D 71;15.1654
3UIG A W 67;3UIG A E 76;11.4572
3UIG A W 67;3UIG P A 1;19.9819
3UIG A E 68;3UIG A D 71;29.7294
3UIG A E 68;3UIG P A 1;1.83483
3UIG A D 71;3UIG A E 76;16.3545
3UIG A D 71;3UIG P A 1;16.3249
3UIG A E 76;3UIG A K 79;21.5658
3UIG A E 76;3UIG A H 80;18.9211
3UIG A E 76;3UIG P A 1;22.4669
3UIG A K 79;3UIG A H 80;49.5238
3UIG A K 79;3UIG P A 1;1.47462
3UIG A H 80;3UIG P A 1;10.4801
3UIG A H 80;3UIG P R 2;15.5093
3UIG P A 1;3UIG P R 2;24.8094
3UIG P R 2;3UIG P K 4;14.9536
3UIG P K 4;3UIG P Q 5;54.1292
