V1;V2;Weight
4KRL A I 316;4KRL A G 317;26.1628
4KRL A I 316;4KRL A S 324;16.8954
4KRL A I 316;4KRL A L 325;5.8927
4KRL A I 316;4KRL A D 344;21.5697
4KRL A I 316;4KRL A H 346;29.8528
4KRL A I 316;4KRL B Q 1;1.55774
4KRL A G 317;4KRL A K 322;19.4232
4KRL A G 317;4KRL A S 324;4.17133
4KRL A G 317;4KRL B Q 1;7.50179
4KRL A K 322;4KRL A D 323;31.0008
4KRL A K 322;4KRL A S 324;3.36331
4KRL A K 322;4KRL B Q 1;3.66906
4KRL A D 323;4KRL A S 324;28.1053
4KRL A D 323;4KRL A L 325;10.8689
4KRL A D 323;4KRL A T 358;0.950697
4KRL A D 323;4KRL B Q 1;4.25979
4KRL A S 324;4KRL A L 325;25.9319
4KRL A S 324;4KRL B Q 1;6.34182
4KRL A L 325;4KRL A H 346;9.5586
4KRL A L 325;4KRL A L 348;11.581
4KRL A L 325;4KRL A V 350;14.0465
4KRL A L 325;4KRL A T 358;0.705408
4KRL A L 325;4KRL B Q 1;17.6878
4KRL A L 325;4KRL B V 2;1.09214
4KRL A L 325;4KRL B R 27;4.00087
4KRL A L 325;4KRL B R 30;14.844
4KRL A L 325;4KRL B Y 32;14.5892
4KRL A L 325;4KRL B A 100;11.6856
4KRL A L 325;4KRL B D 112;2.61424
4KRL A L 325;4KRL B Y 113;23.3617
4KRL A D 344;4KRL A H 346;12.2125
4KRL A D 344;4KRL A F 380;33.3192
4KRL A D 344;4KRL B Q 1;1.95613
4KRL A H 346;4KRL A L 348;13.1893
4KRL A H 346;4KRL A F 380;17.2175
4KRL A H 346;4KRL B Q 1;23.8738
4KRL A H 346;4KRL B Y 113;4.60689
4KRL A L 348;4KRL A P 349;20.6193
4KRL A L 348;4KRL A V 350;10.9829
4KRL A L 348;4KRL A Q 384;15.3779
4KRL A L 348;4KRL A A 385;5.90006
4KRL A L 348;4KRL B D 112;23.0044
4KRL A L 348;4KRL B Y 113;14.8202
4KRL A P 349;4KRL A V 350;13.9606
4KRL A P 349;4KRL A R 353;17.7851
4KRL A P 349;4KRL A Q 384;16.2446
4KRL A P 349;4KRL A A 385;14.6572
4KRL A P 349;4KRL B L 108;0.183782
4KRL A P 349;4KRL B Y 109;14.4315
4KRL A P 349;4KRL B E 110;15.0397
4KRL A P 349;4KRL B Y 111;10.8663
4KRL A P 349;4KRL B D 112;11.527
4KRL A V 350;4KRL A R 353;20.2728
4KRL A V 350;4KRL A G 354;17.4332
4KRL A V 350;4KRL A D 355;11.9766
4KRL A V 350;4KRL B A 100;16.1486
4KRL A V 350;4KRL B D 112;16.1696
4KRL A R 353;4KRL A G 354;32.1531
4KRL A R 353;4KRL B A 99;6.48566
4KRL A R 353;4KRL B A 100;14.9419
4KRL A R 353;4KRL B Y 105;27.3504
4KRL A R 353;4KRL B E 110;30.2429
4KRL A R 353;4KRL B D 112;5.74396
4KRL A G 354;4KRL A D 355;29.2061
4KRL A G 354;4KRL B A 100;2.27312
4KRL A D 355;4KRL A F 357;10.2529
4KRL A D 355;4KRL A T 358;20.1941
4KRL A D 355;4KRL B R 30;15.5268
4KRL A D 355;4KRL B S 31;0.236368
4KRL A D 355;4KRL B A 100;8.24385
4KRL A D 355;4KRL B G 101;7.90356
4KRL A F 357;4KRL A T 358;29.0439
4KRL A F 357;4KRL B S 29;7.59616
4KRL A F 357;4KRL B R 30;31.3155
4KRL A F 357;4KRL B S 31;21.7504
4KRL A F 357;4KRL B W 53;16.8979
4KRL A F 357;4KRL B G 101;0.206391
4KRL A T 358;4KRL B R 30;11.5641
4KRL A F 380;4KRL B Q 1;3.04444
4KRL A Q 384;4KRL A A 385;20.625
4KRL A Q 384;4KRL A S 418;11.7329
4KRL A Q 384;4KRL A L 419;4.3491
4KRL A Q 384;4KRL B Y 109;4.1206
4KRL A Q 384;4KRL B Y 111;7.4537
4KRL A Q 384;4KRL B D 112;13.9112
4KRL A Q 384;4KRL B Y 113;0.0639434
4KRL A Q 384;4KRL B W 114;18.2306
4KRL A A 385;4KRL A S 418;0.902056
4KRL A A 385;4KRL A L 419;10.8025
4KRL A A 385;4KRL B Y 109;2.91176
4KRL A H 409;4KRL B W 114;8.98598
4KRL A H 409;4KRL B Q 116;29.2075
4KRL A S 418;4KRL A L 419;25.2938
4KRL A S 418;4KRL A G 441;18.8886
4KRL A S 418;4KRL B L 108;20.0382
4KRL A S 418;4KRL B Y 109;25.9352
4KRL A L 419;4KRL A N 420;31.0966
4KRL A L 419;4KRL A G 441;2.41851
4KRL A L 419;4KRL A K 443;4.85646
4KRL A L 419;4KRL B Y 109;2.35935
4KRL A N 420;4KRL A K 443;7.32259
4KRL A N 420;4KRL B Y 109;18.5399
4KRL A G 441;4KRL A K 443;7.90329
4KRL A G 441;4KRL A S 468;19.4228
4KRL A G 441;4KRL B Y 109;7.67538
4KRL A K 443;4KRL A S 468;4.44239
4KRL A K 443;4KRL B Y 109;7.61717
4KRL A S 468;4KRL B Q 39;11.3062
4KRL B Q 1;4KRL B V 2;32.7932
4KRL B Q 1;4KRL B R 27;21.744
4KRL B Q 1;4KRL B Y 113;22.7529
4KRL B V 2;4KRL B R 27;10.3859
4KRL B V 2;4KRL B Y 32;21.752
4KRL B V 2;4KRL B Y 113;31.8099
4KRL B R 27;4KRL B S 29;6.16778
4KRL B R 27;4KRL B R 30;10.7333
4KRL B R 27;4KRL B Y 32;4.48886
4KRL B S 29;4KRL B R 30;27.4249
4KRL B S 29;4KRL B W 53;0.00108261
4KRL B R 30;4KRL B S 31;32.955
4KRL B R 30;4KRL B Y 32;27.729
4KRL B R 30;4KRL B W 53;16.1945
4KRL B R 30;4KRL B A 100;12.1477
4KRL B R 30;4KRL B G 101;4.48952
4KRL B S 31;4KRL B Y 32;17.7432
4KRL B S 31;4KRL B W 53;20.9556
4KRL B S 31;4KRL B A 100;2.51118
4KRL B S 31;4KRL B G 101;18.7275
4KRL B Y 32;4KRL B W 53;15.0376
4KRL B Y 32;4KRL B A 99;8.69453
4KRL B Y 32;4KRL B A 100;14.7109
4KRL B Y 32;4KRL B G 101;6.16556
4KRL B Y 32;4KRL B D 112;1.84918
4KRL B Y 32;4KRL B Y 113;13.4209
4KRL B W 53;4KRL B G 101;1.31181
4KRL B A 99;4KRL B A 100;18.1766
4KRL B A 99;4KRL B G 101;4.06837
4KRL B A 99;4KRL B Y 105;12.3956
4KRL B A 99;4KRL B E 110;6.62464
4KRL B A 99;4KRL B Y 111;16.291
4KRL B A 99;4KRL B D 112;5.65328
4KRL B A 100;4KRL B G 101;21.2883
4KRL B A 100;4KRL B Y 105;0.971532
4KRL B A 100;4KRL B D 112;8.99454
4KRL B Y 105;4KRL B E 110;31.0192
4KRL B Y 105;4KRL B Y 111;23.7942
4KRL B L 108;4KRL B Y 109;44.9747
4KRL B L 108;4KRL B E 110;3.25188
4KRL B L 108;4KRL B Y 111;14.6483
4KRL B L 108;4KRL B W 114;23.2305
4KRL B Y 109;4KRL B E 110;25.2154
4KRL B Y 109;4KRL B Y 111;0.799935
4KRL B E 110;4KRL B Y 111;21.5938
4KRL B E 110;4KRL B D 112;3.14623
4KRL B Y 111;4KRL B D 112;16.7069
4KRL B Y 111;4KRL B Y 113;2.83039
4KRL B Y 111;4KRL B W 114;16.8303
4KRL B D 112;4KRL B Y 113;35.746
4KRL B D 112;4KRL B W 114;1.48746
4KRL B Y 113;4KRL B W 114;31.2787
4KRL B W 114;4KRL B Q 116;4.61988
