V1;V2;Weight
4KRO A Y 292;4KRO A E 293;33.7243
4KRO A Y 292;4KRO A M 294;8.28069
4KRO A Y 292;4KRO A K 303;33.5862
4KRO A Y 292;4KRO A E 306;3.70513
4KRO A Y 292;4KRO B S 106;22.2825
4KRO A Y 292;4KRO B R 107;11.2673
4KRO A Y 292;4KRO B Y 108;14.2611
4KRO A E 293;4KRO A M 294;27.5371
4KRO A E 293;4KRO B S 106;4.13877
4KRO A M 294;4KRO A E 295;31.9517
4KRO A M 294;4KRO A E 296;5.43479
4KRO A M 294;4KRO A K 303;10.7593
4KRO A M 294;4KRO B S 106;1.75281
4KRO A M 294;4KRO B Y 108;21.5722
4KRO A E 295;4KRO A E 296;25.9433
4KRO A E 295;4KRO B Y 108;2.95352
4KRO A E 296;4KRO B Y 108;10.7607
4KRO A K 303;4KRO B Y 108;8.96697
4KRO A E 306;4KRO A P 308;1.62079
4KRO A E 306;4KRO A K 375;8.83593
4KRO A E 306;4KRO B S 103;11.6156
4KRO A E 306;4KRO B D 104;4.52489
4KRO A E 306;4KRO B R 107;4.81917
4KRO A P 308;4KRO A R 310;1.45225
4KRO A P 308;4KRO A T 339;14.2768
4KRO A P 308;4KRO A K 375;13.0951
4KRO A P 308;4KRO B D 104;8.0343
4KRO A R 310;4KRO A T 339;8.28215
4KRO A R 310;4KRO A S 340;11.8756
4KRO A R 310;4KRO A E 376;15.0907
4KRO A R 310;4KRO B S 102;3.70572
4KRO A R 310;4KRO B D 104;33.2774
4KRO A R 310;4KRO B Y 105;35.5582
4KRO A R 310;4KRO B S 106;1.70667
4KRO A T 339;4KRO A S 340;22.9375
4KRO A T 339;4KRO A K 375;15.424
4KRO A T 339;4KRO A E 376;6.05313
4KRO A T 339;4KRO B D 104;18.6113
4KRO A S 340;4KRO A S 342;1.89984
4KRO A S 340;4KRO A E 376;21.2987
4KRO A S 340;4KRO B D 104;3.85683
4KRO A S 342;4KRO B R 113;0.281913
4KRO A K 375;4KRO A E 376;19.0174
4KRO A K 375;4KRO A E 400;27.1344
4KRO A K 375;4KRO A I 401;6.38776
4KRO A K 375;4KRO B S 102;9.08304
4KRO A K 375;4KRO B S 103;18.5387
4KRO A K 375;4KRO B D 104;24.2467
4KRO A E 376;4KRO A I 401;14.9233
4KRO A E 376;4KRO A R 403;24.6623
4KRO A E 376;4KRO A R 405;1.70621
4KRO A E 376;4KRO B S 102;17.567
4KRO A E 376;4KRO B D 104;1.05173
4KRO A E 400;4KRO A I 401;23.0426
4KRO A E 400;4KRO A K 430;11.8583
4KRO A E 400;4KRO A E 431;5.78583
4KRO A E 400;4KRO B Y 100;21.413
4KRO A E 400;4KRO B S 102;8.32238
4KRO A E 400;4KRO B S 103;18.7632
4KRO A I 401;4KRO A R 403;24.6229
4KRO A I 401;4KRO A E 431;27.3696
4KRO A I 401;4KRO A S 433;4.69569
4KRO A I 401;4KRO B Y 100;25.077
4KRO A I 401;4KRO B S 102;4.96039
4KRO A I 401;4KRO B D 118;1.7987
4KRO A R 403;4KRO A R 405;32.0634
4KRO A R 403;4KRO A S 433;14.7416
4KRO A R 403;4KRO A D 434;12.7915
4KRO A R 403;4KRO B T 99;8.24214
4KRO A R 403;4KRO B Y 100;20.1298
4KRO A R 403;4KRO B L 101;4.07597
4KRO A R 403;4KRO B S 102;3.12647
4KRO A R 403;4KRO B D 116;1.5648
4KRO A R 403;4KRO B D 118;18.8058
4KRO A R 405;4KRO A D 434;1.97623
4KRO A R 405;4KRO B T 99;0.482679
4KRO A R 405;4KRO B L 115;34.2374
4KRO A R 405;4KRO B D 116;18.09
4KRO A R 405;4KRO B Y 117;1.52711
4KRO A R 405;4KRO B D 118;19.5295
4KRO A K 430;4KRO A E 431;22.3459
4KRO A K 430;4KRO A K 455;0.0833654
4KRO A K 430;4KRO A L 456;15.0761
4KRO A K 430;4KRO B R 27;12.9251
4KRO A K 430;4KRO B Y 100;11.741
4KRO A E 431;4KRO A S 433;13.9997
4KRO A E 431;4KRO A L 456;13.6968
4KRO A E 431;4KRO A G 458;0.4426
4KRO A E 431;4KRO B R 27;18.5386
4KRO A E 431;4KRO B Y 32;10.9545
4KRO A E 431;4KRO B Y 100;17.0767
4KRO A E 431;4KRO B D 118;2.61179
4KRO A E 431;4KRO B Y 119;10.717
4KRO A S 433;4KRO A D 434;20.9494
4KRO A S 433;4KRO A L 456;0.333457
4KRO A S 433;4KRO A G 458;6.83124
4KRO A S 433;4KRO A T 459;11.1805
4KRO A S 433;4KRO B D 118;13.7663
4KRO A S 433;4KRO B Y 119;17.1649
4KRO A D 434;4KRO A T 459;23.9357
4KRO A D 434;4KRO B D 118;0.39315
4KRO A K 454;4KRO A K 455;23.2365
4KRO A K 454;4KRO A L 456;1.73576
4KRO A K 454;4KRO A F 457;32.6493
4KRO A K 454;4KRO B Q 1;1.62121
4KRO A K 455;4KRO A L 456;26.8795
4KRO A K 455;4KRO A F 457;1.80941
4KRO A K 455;4KRO B R 27;15.7416
4KRO A L 456;4KRO A F 457;22.2857
4KRO A L 456;4KRO A G 458;1.45981
4KRO A L 456;4KRO B R 27;10.1749
4KRO A F 457;4KRO A G 458;19.7716
4KRO A F 457;4KRO A T 459;5.20132
4KRO A F 457;4KRO B Q 1;9.20818
4KRO A F 457;4KRO B V 2;0.0223778
4KRO A F 457;4KRO B R 27;10.936
4KRO A G 458;4KRO A T 459;21.4357
4KRO A G 458;4KRO A S 460;0.570648
4KRO A G 458;4KRO B Q 1;9.69601
4KRO A G 458;4KRO B V 2;21.1938
4KRO A G 458;4KRO B R 27;5.49331
4KRO A G 458;4KRO B Y 119;14.8216
4KRO A T 459;4KRO A S 460;38.2815
4KRO A T 459;4KRO B Q 1;7.28159
4KRO A T 459;4KRO B D 118;1.96348
4KRO A T 459;4KRO B Y 119;8.73128
4KRO A S 460;4KRO B Q 1;17.058
4KRO A S 460;4KRO B V 2;0.115616
4KRO B Q 1;4KRO B V 2;22.9681
4KRO B Q 1;4KRO B R 27;0.545538
4KRO B V 2;4KRO B R 27;15.6539
4KRO B V 2;4KRO B Y 32;3.27579
4KRO B V 2;4KRO B Y 119;29.7503
4KRO B R 27;4KRO B Y 32;18.5537
4KRO B R 27;4KRO B Y 100;1.46047
4KRO B R 27;4KRO B Y 119;2.66882
4KRO B Y 32;4KRO B T 99;16.5531
4KRO B Y 32;4KRO B Y 100;24.0343
4KRO B Y 32;4KRO B L 101;4.2359
4KRO B Y 32;4KRO B Y 119;17.3944
4KRO B T 99;4KRO B Y 100;22.9264
4KRO B T 99;4KRO B L 101;9.3357
4KRO B T 99;4KRO B D 116;12.2754
4KRO B T 99;4KRO B Y 117;16.1803
4KRO B T 99;4KRO B D 118;10.7397
4KRO B T 99;4KRO B Y 119;4.41095
4KRO B Y 100;4KRO B L 101;38.467
4KRO B Y 100;4KRO B S 102;11.5679
4KRO B Y 100;4KRO B S 103;1.92277
4KRO B Y 100;4KRO B D 118;1.76589
4KRO B Y 100;4KRO B Y 119;1.58482
4KRO B L 101;4KRO B S 102;26.9246
4KRO B L 101;4KRO B S 103;1.44139
4KRO B L 101;4KRO B Y 105;30.0592
4KRO B S 102;4KRO B S 103;21.4089
4KRO B S 102;4KRO B D 104;14.898
4KRO B S 102;4KRO B Y 105;21.4657
4KRO B S 103;4KRO B D 104;19.7196
4KRO B S 103;4KRO B Y 105;11.388
4KRO B D 104;4KRO B Y 105;21.3363
4KRO B D 104;4KRO B S 106;3.54258
4KRO B Y 105;4KRO B S 106;35.3116
4KRO B Y 105;4KRO B R 107;8.97323
4KRO B S 106;4KRO B R 107;16.3178
4KRO B S 106;4KRO B Y 108;14.4247
4KRO B R 107;4KRO B Y 108;48.3081
4KRO B R 113;4KRO B L 115;32.7183
4KRO B R 113;4KRO B D 116;43.6019
4KRO B R 113;4KRO B Y 117;7.19066
4KRO B L 115;4KRO B D 116;20.4943
4KRO B L 115;4KRO B Y 117;8.68578
4KRO B D 116;4KRO B Y 117;22.772
4KRO B D 116;4KRO B D 118;0.261758
4KRO B Y 117;4KRO B D 118;24.1163
4KRO B Y 117;4KRO B Y 119;1.76767
4KRO B D 118;4KRO B Y 119;39.6675
