V1;V2;Weight
4NZW A F 92;4NZW A E 93;29.9558
4NZW A F 92;4NZW A K 96;28.8426
4NZW A F 92;4NZW B S 71;17.223
4NZW A F 92;4NZW B Q 72;9.79611
4NZW A F 92;4NZW B C 73;3.66067
4NZW A F 92;4NZW B D 74;32.1107
4NZW A F 92;4NZW B Y 130;0.719153
4NZW A E 93;4NZW A K 96;25.4997
4NZW A E 93;4NZW B D 74;17.3248
4NZW A E 93;4NZW B Y 130;11.2799
4NZW A E 93;4NZW B E 134;8.76733
4NZW A K 96;4NZW B Q 72;23.1021
4NZW A K 96;4NZW B Y 130;2.70133
4NZW A K 96;4NZW B E 134;16.5335
4NZW A K 96;4NZW B K 136;1.59557
4NZW A L 141;4NZW A I 145;23.9602
4NZW A L 141;4NZW A D 179;20.4023
4NZW A L 141;4NZW B T 68;15.7087
4NZW A L 141;4NZW B S 71;24.4336
4NZW A L 141;4NZW B Q 72;6.95066
4NZW A I 145;4NZW B Q 72;6.72856
4NZW A R 171;4NZW A E 174;11.1781
4NZW A R 171;4NZW A M 175;11.3417
4NZW A R 171;4NZW B S 12;1.48345
4NZW A E 174;4NZW A M 175;19.3483
4NZW A E 174;4NZW A S 176;7.30545
4NZW A E 174;4NZW A A 181;0.154686
4NZW A E 174;4NZW A S 220;17.3943
4NZW A E 174;4NZW A N 222;8.66961
4NZW A E 174;4NZW B R 13;38.5863
4NZW A M 175;4NZW A S 176;21.1058
4NZW A M 175;4NZW A T 177;22.4503
4NZW A M 175;4NZW A A 181;10.5113
4NZW A M 175;4NZW B S 12;30.9082
4NZW A M 175;4NZW B R 13;7.42911
4NZW A S 176;4NZW A T 177;20.6764
4NZW A S 176;4NZW A F 178;2.28215
4NZW A S 176;4NZW A A 181;3.97535
4NZW A S 176;4NZW A N 222;2.54062
4NZW A S 176;4NZW B S 12;2.40143
4NZW A S 176;4NZW B R 13;20.0008
4NZW A S 176;4NZW B V 14;21.1846
4NZW A S 176;4NZW B Y 85;15.0461
4NZW A S 176;4NZW B L 86;28.9491
4NZW A S 176;4NZW B K 87;0.111351
4NZW A T 177;4NZW A F 178;17.1947
4NZW A T 177;4NZW A D 179;11.1301
4NZW A T 177;4NZW A A 181;11.6092
4NZW A T 177;4NZW B S 12;2.45721
4NZW A T 177;4NZW B S 84;6.95383
4NZW A T 177;4NZW B Y 85;19.6953
4NZW A T 177;4NZW B L 86;0.0756177
4NZW A F 178;4NZW A D 179;22.3951
4NZW A F 178;4NZW A A 181;8.39658
4NZW A F 178;4NZW A S 182;22.1438
4NZW A F 178;4NZW A V 224;18.9681
4NZW A F 178;4NZW B L 53;8.83489
4NZW A F 178;4NZW B E 61;3.00486
4NZW A F 178;4NZW B I 63;7.95546
4NZW A F 178;4NZW B Q 64;24.3428
4NZW A F 178;4NZW B I 67;12.2025
4NZW A F 178;4NZW B S 84;14.1789
4NZW A F 178;4NZW B Y 85;4.29969
4NZW A F 178;4NZW B L 86;24.1375
4NZW A F 178;4NZW B L 91;20.4345
4NZW A D 179;4NZW A S 182;1.20047
4NZW A D 179;4NZW B Q 64;3.30251
4NZW A D 179;4NZW B I 67;15.0866
4NZW A D 179;4NZW B T 68;0.0549462
4NZW A D 179;4NZW B S 71;6.6024
4NZW A D 179;4NZW B Y 81;15.3887
4NZW A D 179;4NZW B G 83;5.93286
4NZW A D 179;4NZW B S 84;15.8122
4NZW A A 181;4NZW A S 182;21.0823
4NZW A A 181;4NZW B L 86;2.93997
4NZW A S 182;4NZW A V 224;7.26888
4NZW A S 182;4NZW A Q 228;7.59077
4NZW A S 182;4NZW B Q 64;19.664
4NZW A S 220;4NZW A E 221;25.9071
4NZW A S 220;4NZW A N 222;17.7425
4NZW A S 220;4NZW A K 266;0.923215
4NZW A S 220;4NZW B R 13;2.23352
4NZW A E 221;4NZW A N 222;19.6996
4NZW A E 221;4NZW A K 266;1.86817
4NZW A E 221;4NZW B R 13;18.6615
4NZW A E 221;4NZW B K 87;6.84866
4NZW A E 221;4NZW B S 88;16.5315
4NZW A N 222;4NZW A Y 223;21.782
4NZW A N 222;4NZW A V 224;10.3211
4NZW A N 222;4NZW B R 13;10.6512
4NZW A N 222;4NZW B L 86;22.4544
4NZW A N 222;4NZW B K 87;6.96617
4NZW A N 222;4NZW B S 88;11.0543
4NZW A Y 223;4NZW A V 224;27.5867
4NZW A Y 223;4NZW A R 227;27.18
4NZW A Y 223;4NZW A S 267;13.9314
4NZW A Y 223;4NZW A N 269;10.3206
4NZW A Y 223;4NZW B L 53;16.8649
4NZW A Y 223;4NZW B E 54;15.3096
4NZW A Y 223;4NZW B E 55;13.3354
4NZW A Y 223;4NZW B E 57;0.0726691
4NZW A Y 223;4NZW B D 58;13.4802
4NZW A Y 223;4NZW B E 61;5.65083
4NZW A Y 223;4NZW B S 88;18.8761
4NZW A Y 223;4NZW B T 89;6.17785
4NZW A V 224;4NZW A R 227;10.9237
4NZW A V 224;4NZW A Q 228;27.0345
4NZW A V 224;4NZW B L 53;12.5086
4NZW A V 224;4NZW B E 61;17.9904
4NZW A V 224;4NZW B Q 64;0.453561
4NZW A V 224;4NZW B L 86;11.6695
4NZW A V 224;4NZW B S 88;2.19899
4NZW A R 227;4NZW A Q 228;30.1642
4NZW A R 227;4NZW A K 231;28.7922
4NZW A R 227;4NZW A N 269;22.8256
4NZW A R 227;4NZW B D 58;10.6692
4NZW A R 227;4NZW B E 59;18.8507
4NZW A R 227;4NZW B E 61;14.9684
4NZW A Q 228;4NZW A K 231;31.5993
4NZW A Q 228;4NZW B E 61;9.0874
4NZW A Q 228;4NZW B Q 64;4.42803
4NZW A K 231;4NZW B E 59;5.24336
4NZW A K 266;4NZW A S 267;33.9195
4NZW A K 266;4NZW A R 268;0.590009
4NZW A K 266;4NZW B E 55;0.636168
4NZW A S 267;4NZW A R 268;21.6548
4NZW A S 267;4NZW A N 269;5.75026
4NZW A S 267;4NZW B E 55;18.8852
4NZW A R 268;4NZW A N 269;29.1709
4NZW A R 268;4NZW B E 55;15.8721
4NZW A N 269;4NZW B E 55;8.69709
4NZW A N 269;4NZW B D 58;18.3325
4NZW B S 12;4NZW B R 13;31.1412
4NZW B S 12;4NZW B V 14;7.68957
4NZW B R 13;4NZW B V 14;29.6852
4NZW B R 13;4NZW B L 86;0.925421
4NZW B R 13;4NZW B K 87;7.21126
4NZW B V 14;4NZW B Y 85;9.02699
4NZW B V 14;4NZW B L 86;1.26558
4NZW B V 14;4NZW B K 87;0.137908
4NZW B L 53;4NZW B E 54;16.1973
4NZW B L 53;4NZW B E 55;4.65719
4NZW B L 53;4NZW B E 57;15.8388
4NZW B L 53;4NZW B D 58;0.348507
4NZW B L 53;4NZW B E 61;7.21336
4NZW B L 53;4NZW B I 63;7.40106
4NZW B L 53;4NZW B L 86;11.5191
4NZW B L 53;4NZW B S 88;4.97556
4NZW B L 53;4NZW B T 89;9.8306
4NZW B L 53;4NZW B L 91;22.1973
4NZW B E 54;4NZW B E 55;39.9601
4NZW B E 54;4NZW B T 89;29.5061
4NZW B E 55;4NZW B E 57;5.3603
4NZW B E 55;4NZW B D 58;11.5702
4NZW B E 57;4NZW B D 58;27.8805
4NZW B E 57;4NZW B E 59;1.67713
4NZW B E 57;4NZW B E 61;2.68513
4NZW B D 58;4NZW B E 59;30.7174
4NZW B D 58;4NZW B E 61;10.7826
4NZW B E 59;4NZW B E 61;28.9412
4NZW B E 61;4NZW B I 63;9.44417
4NZW B E 61;4NZW B Q 64;21.2269
4NZW B I 63;4NZW B Q 64;19.0708
4NZW B I 63;4NZW B I 67;17.075
4NZW B I 63;4NZW B L 91;9.73642
4NZW B Q 64;4NZW B I 67;16.4865
4NZW B Q 64;4NZW B T 68;24.7325
4NZW B I 67;4NZW B T 68;20.7973
4NZW B I 67;4NZW B S 71;9.68585
4NZW B I 67;4NZW B Y 81;17.9224
4NZW B I 67;4NZW B S 84;11.78
4NZW B I 67;4NZW B L 91;6.33367
4NZW B T 68;4NZW B S 71;15.0391
4NZW B T 68;4NZW B Q 72;26.3908
4NZW B S 71;4NZW B Q 72;19.4938
4NZW B S 71;4NZW B C 73;3.22775
4NZW B S 71;4NZW B Y 81;18.9005
4NZW B Q 72;4NZW B C 73;18.295
4NZW B Q 72;4NZW B D 74;1.51245
4NZW B Q 72;4NZW B Y 130;6.34296
4NZW B Q 72;4NZW B E 134;2.56124
4NZW B Q 72;4NZW B K 136;27.3779
4NZW B C 73;4NZW B D 74;22.9794
4NZW B C 73;4NZW B Y 81;2.93266
4NZW B C 73;4NZW B Y 130;12.0663
4NZW B C 73;4NZW B K 136;10.8489
4NZW B D 74;4NZW B Y 130;22.3304
4NZW B Y 81;4NZW B G 83;20.3985
4NZW B Y 81;4NZW B S 84;12.9766
4NZW B G 83;4NZW B S 84;19.1204
4NZW B G 83;4NZW B Y 85;13.0267
4NZW B S 84;4NZW B Y 85;25.5922
4NZW B S 84;4NZW B L 91;6.30787
4NZW B Y 85;4NZW B L 86;19.9557
4NZW B Y 85;4NZW B L 91;9.49816
4NZW B L 86;4NZW B K 87;27.6148
4NZW B L 86;4NZW B S 88;13.7606
4NZW B L 86;4NZW B T 89;1.3927
4NZW B L 86;4NZW B L 91;10.9373
4NZW B K 87;4NZW B S 88;37.3447
4NZW B K 87;4NZW B T 89;24.2179
4NZW B S 88;4NZW B T 89;30.7647
4NZW B Y 130;4NZW B E 134;34.5999
4NZW B Y 130;4NZW B K 136;1.12407
4NZW B E 134;4NZW B K 136;35.0257
