V1;V2;Weight
4O27 A K 51;4O27 A Y 55;25.2529
4O27 A K 51;4O27 A Q 100;20.3153
4O27 A K 51;4O27 B E 138;0.437995
4O27 A Y 55;4O27 A Q 100;32.6623
4O27 A Y 55;4O27 A N 104;24.2207
4O27 A Y 55;4O27 B K 139;16.0684
4O27 A Y 55;4O27 B D 171;22.6519
4O27 A F 92;4O27 A E 93;35.7232
4O27 A F 92;4O27 A K 96;23.9147
4O27 A F 92;4O27 B S 75;10.913
4O27 A F 92;4O27 B Q 76;15.9774
4O27 A F 92;4O27 B C 77;5.70373
4O27 A F 92;4O27 B D 78;23.9446
4O27 A F 92;4O27 B Y 134;0.877522
4O27 A E 93;4O27 A K 96;21.1506
4O27 A E 93;4O27 B Q 76;0.0789196
4O27 A E 93;4O27 B D 78;12.2913
4O27 A E 93;4O27 B Y 134;19.6499
4O27 A E 93;4O27 B E 138;6.61548
4O27 A K 96;4O27 A Q 100;12.5023
4O27 A K 96;4O27 B Q 76;13.5644
4O27 A K 96;4O27 B E 138;4.17536
4O27 A Q 100;4O27 A N 104;8.44549
4O27 A Q 100;4O27 B E 138;0.228645
4O27 A Q 100;4O27 B K 139;17.1653
4O27 A Q 100;4O27 B D 171;5.17338
4O27 A N 104;4O27 A R 107;14.9495
4O27 A N 104;4O27 B D 171;7.38822
4O27 A R 107;4O27 A R 152;5.20126
4O27 A R 107;4O27 B D 171;12.3779
4O27 A R 107;4O27 B T 172;12.731
4O27 A L 141;4O27 A I 145;17.0563
4O27 A L 141;4O27 A D 179;19.5434
4O27 A L 141;4O27 B I 71;0.787186
4O27 A L 141;4O27 B S 75;14.9202
4O27 A I 145;4O27 B Q 76;20.1794
4O27 A R 152;4O27 B T 172;7.74813
4O27 A E 174;4O27 A M 175;28.525
4O27 A E 174;4O27 A S 176;0.94999
4O27 A E 174;4O27 A E 221;0.114073
4O27 A E 174;4O27 A N 222;10.5511
4O27 A E 174;4O27 B M 17;6.0203
4O27 A M 175;4O27 A S 176;26.4064
4O27 A M 175;4O27 A T 177;11.9236
4O27 A M 175;4O27 B M 17;9.13176
4O27 A S 176;4O27 A T 177;29.0033
4O27 A S 176;4O27 A F 178;7.91861
4O27 A S 176;4O27 B M 17;33.0799
4O27 A S 176;4O27 B A 18;8.28904
4O27 A T 177;4O27 A F 178;23.0131
4O27 A T 177;4O27 A D 179;13.4504
4O27 A T 177;4O27 B S 88;2.41001
4O27 A F 178;4O27 A D 179;25.7452
4O27 A F 178;4O27 A S 182;26.8454
4O27 A F 178;4O27 A N 222;8.8568
4O27 A F 178;4O27 A V 224;20.9929
4O27 A F 178;4O27 B L 57;5.20438
4O27 A F 178;4O27 B I 64;1.09642
4O27 A F 178;4O27 B Q 68;13.731
4O27 A F 178;4O27 B I 71;2.20869
4O27 A F 178;4O27 B S 88;19.2888
4O27 A F 178;4O27 B Y 89;5.47621
4O27 A F 178;4O27 B L 90;23.8795
4O27 A F 178;4O27 B L 95;21.492
4O27 A D 179;4O27 A S 182;10.3503
4O27 A D 179;4O27 B Q 68;5.48253
4O27 A D 179;4O27 B I 71;17.3902
4O27 A D 179;4O27 B S 75;0.404206
4O27 A D 179;4O27 B Y 85;15.0274
4O27 A D 179;4O27 B G 87;3.48057
4O27 A D 179;4O27 B S 88;16.4413
4O27 A S 182;4O27 A F 185;14.4088
4O27 A S 182;4O27 A V 224;6.64992
4O27 A S 182;4O27 B Q 68;14.2724
4O27 A F 185;4O27 A K 189;23.9329
4O27 A F 185;4O27 A Q 228;30.0496
4O27 A F 185;4O27 B E 65;2.01397
4O27 A K 189;4O27 A K 231;8.04798
4O27 A K 189;4O27 B E 65;18.7704
4O27 A E 221;4O27 A N 222;26.5181
4O27 A E 221;4O27 A Y 223;9.01824
4O27 A E 221;4O27 B D 92;1.61181
4O27 A N 222;4O27 A Y 223;19.7327
4O27 A N 222;4O27 A V 224;9.39149
4O27 A N 222;4O27 B M 17;7.37027
4O27 A N 222;4O27 B L 90;17.5855
4O27 A Y 223;4O27 A V 224;27.0299
4O27 A Y 223;4O27 A R 227;25.0911
4O27 A Y 223;4O27 A S 267;10.8524
4O27 A Y 223;4O27 A N 269;10.5737
4O27 A Y 223;4O27 B L 57;18.1611
4O27 A Y 223;4O27 B E 58;16.4824
4O27 A Y 223;4O27 B I 64;1.58955
4O27 A Y 223;4O27 B L 90;8.38338
4O27 A Y 223;4O27 B D 92;16.2531
4O27 A Y 223;4O27 B T 93;23.5897
4O27 A V 224;4O27 A R 227;8.76804
4O27 A V 224;4O27 A Q 228;25.1391
4O27 A V 224;4O27 B L 57;11.3941
4O27 A V 224;4O27 B I 64;16.4906
4O27 A V 224;4O27 B L 90;12.108
4O27 A R 227;4O27 A Q 228;25.1656
4O27 A R 227;4O27 A K 231;11.353
4O27 A R 227;4O27 A N 269;10.5633
4O27 A R 227;4O27 A E 273;17.2413
4O27 A R 227;4O27 B I 64;6.68851
4O27 A Q 228;4O27 A K 231;21.9573
4O27 A Q 228;4O27 B I 64;22.6214
4O27 A Q 228;4O27 B E 65;22.773
4O27 A K 231;4O27 A E 273;34.9207
4O27 A K 231;4O27 B E 63;17.0854
4O27 A K 231;4O27 B I 64;6.1203
4O27 A K 231;4O27 B E 65;12.0555
4O27 A S 267;4O27 A R 268;16.9754
4O27 A S 267;4O27 A N 269;6.12811
4O27 A S 267;4O27 B E 58;16.3207
4O27 A S 267;4O27 B T 93;1.31137
4O27 A R 268;4O27 A N 269;27.7144
4O27 A R 268;4O27 A F 272;8.40836
4O27 A R 268;4O27 A R 313;28.5325
4O27 A R 268;4O27 B E 58;17.0891
4O27 A R 268;4O27 B E 61;0.393743
4O27 A N 269;4O27 A F 272;12.0889
4O27 A N 269;4O27 A E 273;15.6245
4O27 A N 269;4O27 A R 313;11.6172
4O27 A N 269;4O27 B L 57;4.39874
4O27 A N 269;4O27 B E 58;25.4421
4O27 A N 269;4O27 B E 61;21.4897
4O27 A F 272;4O27 A E 273;31.6202
4O27 A F 272;4O27 A R 313;34.4903
4O27 A F 272;4O27 B E 61;0.309909
4O27 A E 273;4O27 B E 61;2.80059
4O27 A R 313;4O27 B E 61;10.2508
4O27 B M 17;4O27 B A 18;43.2091
4O27 B M 17;4O27 B Y 89;2.14436
4O27 B M 17;4O27 B L 90;14.3447
4O27 B A 18;4O27 B Y 89;22.6317
4O27 B A 18;4O27 B L 90;3.59148
4O27 B L 57;4O27 B E 58;19.3643
4O27 B L 57;4O27 B E 61;8.64675
4O27 B L 57;4O27 B E 63;0.689486
4O27 B L 57;4O27 B I 64;19.9697
4O27 B L 57;4O27 B L 90;8.80307
4O27 B L 57;4O27 B T 93;14.0178
4O27 B L 57;4O27 B L 95;21.9197
4O27 B E 58;4O27 B E 61;3.75506
4O27 B E 58;4O27 B T 93;21.0349
4O27 B E 61;4O27 B E 63;28.1681
4O27 B E 61;4O27 B I 64;7.03307
4O27 B E 63;4O27 B I 64;33.8335
4O27 B E 63;4O27 B E 65;6.63604
4O27 B I 64;4O27 B E 65;30.6332
4O27 B I 64;4O27 B Q 68;9.76137
4O27 B E 65;4O27 B Q 68;17.059
4O27 B Q 68;4O27 B I 71;24.6916
4O27 B Q 68;4O27 B L 95;3.01472
4O27 B I 71;4O27 B S 75;17.2743
4O27 B I 71;4O27 B Y 85;21.3181
4O27 B I 71;4O27 B S 88;7.83631
4O27 B I 71;4O27 B L 95;13.424
4O27 B S 75;4O27 B Q 76;23.9031
4O27 B S 75;4O27 B C 77;5.33541
4O27 B S 75;4O27 B Y 85;25.764
4O27 B Q 76;4O27 B C 77;21.2846
4O27 B Q 76;4O27 B D 78;0.378918
4O27 B Q 76;4O27 B Y 134;3.88971
4O27 B Q 76;4O27 B E 138;5.09514
4O27 B C 77;4O27 B D 78;24.1213
4O27 B C 77;4O27 B Y 85;0.825448
4O27 B C 77;4O27 B Y 134;17.3797
4O27 B C 77;4O27 B E 138;1.83218
4O27 B D 78;4O27 B Y 134;16.9218
4O27 B Y 85;4O27 B G 87;20.7513
4O27 B Y 85;4O27 B S 88;8.10534
4O27 B G 87;4O27 B S 88;20.4873
4O27 B G 87;4O27 B Y 89;7.86926
4O27 B S 88;4O27 B Y 89;33.9659
4O27 B S 88;4O27 B L 95;9.64406
4O27 B Y 89;4O27 B L 90;25.072
4O27 B Y 89;4O27 B L 95;10.7889
4O27 B L 90;4O27 B D 92;12.6283
4O27 B L 90;4O27 B T 93;4.80136
4O27 B L 90;4O27 B L 95;10.8494
4O27 B D 92;4O27 B T 93;37.1626
4O27 B T 93;4O27 B L 95;1.0526
4O27 B Y 134;4O27 B E 138;33.2494
4O27 B E 138;4O27 B K 139;28.0054
4O27 B K 139;4O27 B D 171;15.4505
4O27 B D 171;4O27 B T 172;25.8756
