V1;V2;Weight
4P23 A N 26;4P23 A A 28;15.851
4P23 A N 26;4P23 A K 94;17.8869
4P23 A N 26;4P23 D E -24;0.114319
4P23 A A 28;4P23 A D 30;12.3128
4P23 A A 28;4P23 A K 94;19.2414
4P23 A A 28;4P23 D E -24;16.2201
4P23 A A 28;4P23 D Q -22;0.474818
4P23 A A 28;4P23 D H 81;3.78075
4P23 A D 30;4P23 A R 50;15.4398
4P23 A D 30;4P23 A K 94;8.39488
4P23 A D 30;4P23 A G 95;14.0778
4P23 A D 30;4P23 A A 96;3.68646
4P23 A D 30;4P23 D Q -22;1.87815
4P23 A D 30;4P23 D T 77;7.41793
4P23 A R 50;4P23 A A 96;6.73745
4P23 A R 50;4P23 B D 97;23.9337
4P23 A R 50;4P23 D R 70;3.55215
4P23 A K 94;4P23 A G 95;19.3305
4P23 A K 94;4P23 A A 96;4.08061
4P23 A K 94;4P23 A D 97;22.759
4P23 A K 94;4P23 A R 98;1.81882
4P23 A K 94;4P23 C D 55;15.3614
4P23 A K 94;4P23 D E -24;24.0225
4P23 A K 94;4P23 D Q -22;9.94395
4P23 A G 95;4P23 A A 96;21.423
4P23 A G 95;4P23 A D 97;6.63276
4P23 A G 95;4P23 B W 95;1.90023
4P23 A G 95;4P23 D Q -22;20.8356
4P23 A G 95;4P23 D K -21;11.1107
4P23 A G 95;4P23 D K -19;12.579
4P23 A A 96;4P23 A D 97;24.679
4P23 A A 96;4P23 B W 95;34.3475
4P23 A A 96;4P23 B G 96;0.00202697
4P23 A A 96;4P23 B D 97;2.0099
4P23 A A 96;4P23 C Q 61;4.23541
4P23 A A 96;4P23 D K -19;13.2795
4P23 A A 96;4P23 D R 70;1.96732
4P23 A D 97;4P23 A R 98;38.3999
4P23 A D 97;4P23 B Y 48;0.249239
4P23 A D 97;4P23 B W 95;5.96413
4P23 A D 97;4P23 C D 55;18.0201
4P23 A D 97;4P23 C Q 57;10.83
4P23 A D 97;4P23 C G 58;11.5376
4P23 A D 97;4P23 C Q 61;9.85935
4P23 A D 97;4P23 D Q -22;4.19834
4P23 A D 97;4P23 D K -21;12.3901
4P23 A R 98;4P23 B Y 31;19.3527
4P23 A R 98;4P23 B Y 46;27.5702
4P23 A R 98;4P23 B Y 48;0.0114942
4P23 A R 98;4P23 B K 55;2.97494
4P23 A R 98;4P23 C Q 57;0.558827
4P23 A R 98;4P23 C Q 61;1.52897
4P23 B N 26;4P23 B N 28;1.53135
4P23 B N 26;4P23 B Q 69;20.5214
4P23 B N 26;4P23 B D 93;3.98957
4P23 B N 26;4P23 D K -16;21.7263
4P23 B N 26;4P23 D D -13;1.61091
4P23 B N 28;4P23 B N 29;23.0403
4P23 B N 28;4P23 B Y 48;13.1032
4P23 B N 28;4P23 B G 49;4.91593
4P23 B N 28;4P23 B Q 69;17.6452
4P23 B N 28;4P23 B D 93;6.9894
4P23 B N 28;4P23 B F 94;29.9795
4P23 B N 28;4P23 C H 68;11.907
4P23 B N 28;4P23 D K -16;17.1905
4P23 B N 29;4P23 B Y 31;27.0386
4P23 B N 29;4P23 B Y 46;0.725204
4P23 B N 29;4P23 B Y 48;19.0149
4P23 B N 29;4P23 B D 93;8.30342
4P23 B N 29;4P23 B F 94;12.8676
4P23 B N 29;4P23 B W 95;2.44665
4P23 B N 29;4P23 B G 96;0.254281
4P23 B N 29;4P23 C Q 61;12.0024
4P23 B Y 31;4P23 B Y 46;23.555
4P23 B Y 31;4P23 B Y 48;1.73483
4P23 B Y 31;4P23 B D 93;1.35241
4P23 B Y 31;4P23 C Q 61;0.920386
4P23 B Y 46;4P23 B Y 48;22.6986
4P23 B Y 46;4P23 B T 53;6.39479
4P23 B Y 46;4P23 B E 54;34.3031
4P23 B Y 46;4P23 B K 55;10.9688
4P23 B Y 46;4P23 C Q 57;17.9132
4P23 B Y 48;4P23 B G 49;24.0425
4P23 B Y 48;4P23 B S 52;11.1199
4P23 B Y 48;4P23 B T 53;0.0114779
4P23 B Y 48;4P23 B E 54;18.77
4P23 B Y 48;4P23 B F 94;11.2926
4P23 B Y 48;4P23 C Q 57;20.2247
4P23 B Y 48;4P23 C L 60;13.1344
4P23 B Y 48;4P23 C Q 61;31.6602
4P23 B Y 48;4P23 C A 64;20.676
4P23 B G 49;4P23 B A 50;25.6533
4P23 B G 49;4P23 B S 52;16.9841
4P23 B G 49;4P23 B Q 69;2.54499
4P23 B G 49;4P23 C A 64;0.91301
4P23 B A 50;4P23 B S 52;5.75433
4P23 B A 50;4P23 B Q 69;10.7499
4P23 B A 50;4P23 C K 67;12.9264
4P23 B S 52;4P23 B T 53;32.1698
4P23 B S 52;4P23 B E 54;8.18155
4P23 B S 52;4P23 C K 39;1.39389
4P23 B S 52;4P23 C A 64;0.904177
4P23 B T 53;4P23 B E 54;30.1802
4P23 B T 53;4P23 C K 39;14.4343
4P23 B E 54;4P23 B K 55;27.5052
4P23 B E 54;4P23 C K 39;22.6136
4P23 B E 54;4P23 C Q 57;18.8133
4P23 B E 54;4P23 C L 60;12.6497
4P23 B K 55;4P23 C Q 57;3.65215
4P23 B Q 69;4P23 C H 68;5.95581
4P23 B Q 69;4P23 D K -16;4.47154
4P23 B D 93;4P23 B F 94;29.5828
4P23 B D 93;4P23 B W 95;1.68088
4P23 B D 93;4P23 B G 96;22.8937
4P23 B D 93;4P23 B T 98;1.90867
4P23 B D 93;4P23 D K -16;9.70975
4P23 B D 93;4P23 D E 66;1.03732
4P23 B F 94;4P23 B W 95;28.3013
4P23 B F 94;4P23 B G 96;5.2188
4P23 B F 94;4P23 C Q 61;15.1734
4P23 B F 94;4P23 C A 64;12.9826
4P23 B F 94;4P23 C V 65;27.3646
4P23 B F 94;4P23 C H 68;8.39494
4P23 B F 94;4P23 D A -18;0.939927
4P23 B F 94;4P23 D K -16;22.3663
4P23 B F 94;4P23 D R 70;11.1949
4P23 B W 95;4P23 B G 96;25.4496
4P23 B W 95;4P23 B D 97;8.44268
4P23 B W 95;4P23 C G 58;5.55622
4P23 B W 95;4P23 C Q 61;32.8439
4P23 B W 95;4P23 C N 62;17.1087
4P23 B W 95;4P23 C V 65;9.58839
4P23 B W 95;4P23 D K -21;10.5792
4P23 B W 95;4P23 D K -19;28.895
4P23 B W 95;4P23 D A -18;13.6054
4P23 B W 95;4P23 D N -17;0.0875443
4P23 B W 95;4P23 D E 66;2.19543
4P23 B W 95;4P23 D R 70;27.4762
4P23 B G 96;4P23 B D 97;21.5198
4P23 B G 96;4P23 B T 98;13.1218
4P23 B G 96;4P23 D E 66;7.33933
4P23 B G 96;4P23 D R 70;0.5413
4P23 B D 97;4P23 B T 98;30.3824
4P23 B D 97;4P23 D E 66;35.6662
4P23 B T 98;4P23 D E 66;3.78555
4P23 C K 39;4P23 C Q 57;6.09577
4P23 C K 39;4P23 C L 60;24.0878
4P23 C D 55;4P23 C Q 57;21.9536
4P23 C D 55;4P23 C G 58;10.3337
4P23 C D 55;4P23 D E -24;13.7164
4P23 C D 55;4P23 D Q -22;0.663426
4P23 C Q 57;4P23 C G 58;18.5389
4P23 C Q 57;4P23 C L 60;22.7009
4P23 C Q 57;4P23 C Q 61;10.9933
4P23 C G 58;4P23 C L 60;0.168771
4P23 C G 58;4P23 C Q 61;2.69591
4P23 C G 58;4P23 C N 62;10.4983
4P23 C G 58;4P23 D K -21;16.3091
4P23 C L 60;4P23 C Q 61;15.7046
4P23 C L 60;4P23 C N 62;0.36453
4P23 C L 60;4P23 C A 64;9.62323
4P23 C Q 61;4P23 C N 62;16.2189
4P23 C Q 61;4P23 C A 64;9.30759
4P23 C Q 61;4P23 C V 65;11.1314
4P23 C N 62;4P23 C A 64;0.673765
4P23 C N 62;4P23 C V 65;10.3008
4P23 C N 62;4P23 D K -21;6.65393
4P23 C N 62;4P23 D K -19;2.1958
4P23 C N 62;4P23 D A -18;14.4472
4P23 C A 64;4P23 C V 65;15.5476
4P23 C A 64;4P23 C K 67;14.7763
4P23 C A 64;4P23 C H 68;10.3782
4P23 C V 65;4P23 C K 67;0.55005
4P23 C V 65;4P23 C H 68;8.56609
4P23 C V 65;4P23 D A -18;20.9781
4P23 C V 65;4P23 D N -17;5.591
4P23 C V 65;4P23 D K -16;7.50323
4P23 C K 67;4P23 C H 68;23.7616
4P23 C H 68;4P23 D K -16;23.196
4P23 C H 68;4P23 D D -13;10.6158
4P23 D E -24;4P23 D Q -22;15.8863
4P23 D E -24;4P23 D H 81;17.3284
4P23 D Q -22;4P23 D K -21;36.2617
4P23 D Q -22;4P23 D K -19;0.632661
4P23 D Q -22;4P23 D T 77;13.948
4P23 D Q -22;4P23 D H 81;12.2075
4P23 D K -21;4P23 D K -19;19.1399
4P23 D K -19;4P23 D A -18;18.3379
4P23 D K -19;4P23 D N -17;9.06016
4P23 D K -19;4P23 D R 70;27.078
4P23 D K -19;4P23 D T 77;4.73535
4P23 D A -18;4P23 D N -17;20.9547
4P23 D A -18;4P23 D K -16;1.14016
4P23 D A -18;4P23 D R 70;0.88416
4P23 D N -17;4P23 D K -16;20.794
4P23 D N -17;4P23 D R 70;17.8403
4P23 D K -16;4P23 D D -13;2.4895
4P23 D K -16;4P23 D R 70;3.71777
4P23 D E 66;4P23 D R 70;31.1992
4P23 D R 70;4P23 D T 77;0.127326
4P23 D T 77;4P23 D H 81;15.3387
