V1;V2;Weight
4P5T A N 26;4P5T A S 27;24.5552
4P5T A N 26;4P5T A A 28;15.1918
4P5T A N 26;4P5T A R 94;15.6766
4P5T A N 26;4P5T D E -24;14.9849
4P5T A S 27;4P5T A A 28;21.7287
4P5T A S 27;4P5T D F -25;2.15352
4P5T A S 27;4P5T D E -24;5.71416
4P5T A S 27;4P5T D H 81;19.4443
4P5T A A 28;4P5T A D 30;3.32008
4P5T A A 28;4P5T A R 94;14.3025
4P5T A A 28;4P5T D E -24;19.8507
4P5T A A 28;4P5T D A -23;1.9762
4P5T A A 28;4P5T D Q -22;21.4161
4P5T A A 28;4P5T D H 81;8.96799
4P5T A D 30;4P5T A R 50;10.1049
4P5T A D 30;4P5T A S 51;17.4977
4P5T A D 30;4P5T A R 94;9.73734
4P5T A D 30;4P5T A D 95;0.329298
4P5T A D 30;4P5T A S 96;16.4038
4P5T A D 30;4P5T D Q -22;11.0002
4P5T A D 30;4P5T D K -19;13.5385
4P5T A D 30;4P5T D R 70;1.04203
4P5T A D 30;4P5T D T 77;19.2834
4P5T A R 50;4P5T A S 51;18.7929
4P5T A R 50;4P5T A V 52;19.6729
4P5T A R 50;4P5T A S 96;9.27084
4P5T A R 50;4P5T B D 97;5.13571
4P5T A R 50;4P5T D E 66;12.8101
4P5T A R 50;4P5T D E 69;28.763
4P5T A R 50;4P5T D R 70;13.8259
4P5T A R 50;4P5T D A 73;12.3839
4P5T A R 50;4P5T D T 77;0.249039
4P5T A S 51;4P5T A V 52;26.617
4P5T A S 51;4P5T D T 77;14.1855
4P5T A V 52;4P5T D A 73;20.0151
4P5T A V 52;4P5T D D 76;19.4293
4P5T A V 52;4P5T D T 77;10.799
4P5T A R 94;4P5T A D 95;29.4202
4P5T A R 94;4P5T A S 96;0.752274
4P5T A R 94;4P5T A K 99;2.72334
4P5T A R 94;4P5T C D 55;27.6004
4P5T A R 94;4P5T D E -24;21.6065
4P5T A R 94;4P5T D Q -22;15.0034
4P5T A R 94;4P5T D K -21;12.6607
4P5T A R 94;4P5T D K -19;4.50553
4P5T A D 95;4P5T A S 96;20.2196
4P5T A D 95;4P5T A Q 98;15.9958
4P5T A D 95;4P5T A K 99;26.8839
4P5T A D 95;4P5T B Y 48;0.160274
4P5T A D 95;4P5T B W 95;23.8881
4P5T A D 95;4P5T B G 96;0.169089
4P5T A D 95;4P5T C Q 57;2.21409
4P5T A D 95;4P5T C G 58;4.63459
4P5T A D 95;4P5T C Q 61;11.7211
4P5T A D 95;4P5T D K -21;12.547
4P5T A D 95;4P5T D K -19;3.64974
4P5T A S 96;4P5T A Q 98;0.459574
4P5T A S 96;4P5T B W 95;14.5316
4P5T A S 96;4P5T B G 96;4.49003
4P5T A S 96;4P5T B D 97;9.03376
4P5T A S 96;4P5T D K -19;7.79682
4P5T A S 96;4P5T D E 66;1.52407
4P5T A S 96;4P5T D R 70;16.8246
4P5T A Q 98;4P5T A K 99;23.2665
4P5T A Q 98;4P5T B N 29;10.7958
4P5T A Q 98;4P5T B Y 31;23.2079
4P5T A Q 98;4P5T B D 93;9.35473
4P5T A Q 98;4P5T B W 95;7.29422
4P5T A Q 98;4P5T B G 96;16.5299
4P5T A Q 98;4P5T C Q 61;9.02464
4P5T A K 99;4P5T B Y 31;14.1345
4P5T A K 99;4P5T B Y 46;24.3404
4P5T A K 99;4P5T B Y 48;14.2405
4P5T A K 99;4P5T C D 55;6.22292
4P5T A K 99;4P5T C Q 57;9.01053
4P5T A K 99;4P5T C Q 61;5.61922
4P5T B N 26;4P5T B N 28;4.20627
4P5T B N 26;4P5T B D 93;1.41821
4P5T B N 26;4P5T D K -16;7.7492
4P5T B N 28;4P5T B N 29;23.4301
4P5T B N 28;4P5T B Y 48;11.9471
4P5T B N 28;4P5T B D 93;11.6373
4P5T B N 28;4P5T B F 94;28.0986
4P5T B N 28;4P5T C H 68;7.8365
4P5T B N 28;4P5T D K -16;11.1033
4P5T B N 29;4P5T B Y 31;18.4779
4P5T B N 29;4P5T B Y 48;18.0798
4P5T B N 29;4P5T B D 93;6.75762
4P5T B N 29;4P5T B F 94;12.2195
4P5T B N 29;4P5T B W 95;0.150182
4P5T B N 29;4P5T C Q 61;9.31515
4P5T B Y 31;4P5T B Y 46;19.348
4P5T B Y 31;4P5T B Y 48;2.61166
4P5T B Y 31;4P5T C Q 61;0.0100777
4P5T B Y 46;4P5T B Y 48;18.2605
4P5T B Y 46;4P5T B T 53;6.61269
4P5T B Y 46;4P5T B E 54;34.0322
4P5T B Y 46;4P5T B K 55;10.7245
4P5T B Y 46;4P5T C Q 57;16.6855
4P5T B Y 48;4P5T B S 52;10.0236
4P5T B Y 48;4P5T B E 54;18.6562
4P5T B Y 48;4P5T B F 94;7.60698
4P5T B Y 48;4P5T C Q 57;19.1889
4P5T B Y 48;4P5T C L 60;12.7884
4P5T B Y 48;4P5T C Q 61;29.5063
4P5T B Y 48;4P5T C A 64;18.9135
4P5T B S 52;4P5T B T 53;29.7512
4P5T B S 52;4P5T B E 54;8.99854
4P5T B S 52;4P5T C K 39;2.71737
4P5T B T 53;4P5T B E 54;31.1961
4P5T B T 53;4P5T C K 39;13.4175
4P5T B E 54;4P5T B K 55;28.4116
4P5T B E 54;4P5T C K 39;22.3672
4P5T B E 54;4P5T C Q 57;15.1844
4P5T B E 54;4P5T C L 60;10.1355
4P5T B K 55;4P5T C Q 57;3.32127
4P5T B D 93;4P5T B F 94;31.7037
4P5T B D 93;4P5T B W 95;1.55979
4P5T B D 93;4P5T B G 96;15.4738
4P5T B D 93;4P5T D K -16;18.2888
4P5T B F 94;4P5T B W 95;28.5299
4P5T B F 94;4P5T B G 96;6.17682
4P5T B F 94;4P5T C Q 61;12.3315
4P5T B F 94;4P5T C A 64;16.813
4P5T B F 94;4P5T C V 65;26.118
4P5T B F 94;4P5T C H 68;10.3964
4P5T B F 94;4P5T D A -18;0.155672
4P5T B F 94;4P5T D K -16;25.7208
4P5T B F 94;4P5T D E 66;0.118235
4P5T B F 94;4P5T D R 70;8.54392
4P5T B W 95;4P5T B G 96;16.5551
4P5T B W 95;4P5T B D 97;1.58939
4P5T B W 95;4P5T C G 58;5.58999
4P5T B W 95;4P5T C Q 61;31.4184
4P5T B W 95;4P5T C N 62;16.177
4P5T B W 95;4P5T C V 65;11.7926
4P5T B W 95;4P5T D K -21;11.4152
4P5T B W 95;4P5T D K -19;30.1742
4P5T B W 95;4P5T D A -18;15.1891
4P5T B W 95;4P5T D N -17;2.32641
4P5T B W 95;4P5T D K -16;0.463682
4P5T B W 95;4P5T D E 66;2.83083
4P5T B W 95;4P5T D R 70;25.6105
4P5T B G 96;4P5T B D 97;16.3324
4P5T B G 96;4P5T D E 66;9.92322
4P5T B G 96;4P5T D R 70;0.415438
4P5T B D 97;4P5T D E 66;36.2772
4P5T C K 39;4P5T C Q 57;9.70171
4P5T C K 39;4P5T C L 60;21.5649
4P5T C D 55;4P5T C Q 57;24.3905
4P5T C D 55;4P5T C G 58;12.9072
4P5T C D 55;4P5T D E -24;12.8591
4P5T C D 55;4P5T D A -23;0.377631
4P5T C D 55;4P5T D K -21;2.32288
4P5T C Q 57;4P5T C G 58;20.7908
4P5T C Q 57;4P5T C L 60;23.1191
4P5T C Q 57;4P5T C Q 61;10.7788
4P5T C G 58;4P5T C L 60;0.330883
4P5T C G 58;4P5T C Q 61;3.28426
4P5T C G 58;4P5T C N 62;10.5191
4P5T C G 58;4P5T D K -21;20.9465
4P5T C L 60;4P5T C Q 61;16.3193
4P5T C L 60;4P5T C N 62;1.33496
4P5T C L 60;4P5T C A 64;9.93238
4P5T C Q 61;4P5T C N 62;16.362
4P5T C Q 61;4P5T C A 64;12.3515
4P5T C Q 61;4P5T C V 65;10.9254
4P5T C N 62;4P5T C A 64;1.01006
4P5T C N 62;4P5T C V 65;10.6282
4P5T C N 62;4P5T D K -21;6.04421
4P5T C N 62;4P5T D K -19;3.97529
4P5T C N 62;4P5T D A -18;11.2356
4P5T C A 64;4P5T C V 65;16.515
4P5T C A 64;4P5T C H 68;10.8786
4P5T C V 65;4P5T C H 68;8.97419
4P5T C V 65;4P5T D A -18;18.0947
4P5T C V 65;4P5T D N -17;5.80967
4P5T C V 65;4P5T D K -16;7.68024
4P5T C H 68;4P5T D K -16;25.1805
4P5T D F -25;4P5T D E -24;26.0287
4P5T D F -25;4P5T D A -23;1.46243
4P5T D E -24;4P5T D A -23;29.897
4P5T D E -24;4P5T D Q -22;0.00219218
4P5T D E -24;4P5T D H 81;13.8384
4P5T D A -23;4P5T D Q -22;25.3491
4P5T D A -23;4P5T D K -21;0.076367
4P5T D A -23;4P5T D H 81;1.19857
4P5T D Q -22;4P5T D K -21;33.7785
4P5T D Q -22;4P5T D K -19;6.88165
4P5T D Q -22;4P5T D T 77;15.5655
4P5T D Q -22;4P5T D H 81;12.3006
4P5T D K -21;4P5T D K -19;21.4736
4P5T D K -19;4P5T D A -18;19.0548
4P5T D K -19;4P5T D N -17;8.13037
4P5T D K -19;4P5T D R 70;20.3474
4P5T D K -19;4P5T D T 77;3.65539
4P5T D A -18;4P5T D N -17;21.6688
4P5T D A -18;4P5T D K -16;0.768858
4P5T D N -17;4P5T D K -16;22.9533
4P5T D N -17;4P5T D R 70;17.1543
4P5T D K -16;4P5T D R 70;0.780264
4P5T D E 66;4P5T D E 69;6.66289
4P5T D E 66;4P5T D R 70;25.228
4P5T D E 69;4P5T D R 70;17.8495
4P5T D E 69;4P5T D A 73;11.6264
4P5T D R 70;4P5T D A 73;11.9574
4P5T D R 70;4P5T D T 77;0.107403
4P5T D A 73;4P5T D D 76;9.84979
4P5T D A 73;4P5T D T 77;19.4791
4P5T D D 76;4P5T D T 77;20.7416
4P5T D D 76;4P5T D H 81;11.6114
4P5T D T 77;4P5T D H 81;13.826
