V1;V2;Weight
5F4E A L 69;5F4E A M 75;14.1156
5F4E A L 69;5F4E A G 76;6.08585
5F4E A L 69;5F4E A K 150;12.6645
5F4E A L 69;5F4E B F 77;1.59984
5F4E A L 69;5F4E B H 78;13.9142
5F4E A L 69;5F4E B C 79;9.56836
5F4E A L 69;5F4E B G 80;10.9079
5F4E A L 69;5F4E B R 165;2.36208
5F4E A L 69;5F4E B C 172;9.02528
5F4E A E 71;5F4E A M 75;23.3229
5F4E A E 71;5F4E A Y 134;5.46054
5F4E A E 71;5F4E B D 67;3.17052
5F4E A E 71;5F4E B K 163;21.5267
5F4E A M 75;5F4E A G 76;18.3619
5F4E A M 75;5F4E A V 77;13.7793
5F4E A M 75;5F4E A Y 134;15.1638
5F4E A M 75;5F4E A W 148;0.0258581
5F4E A M 75;5F4E B F 77;17.8211
5F4E A M 75;5F4E B G 80;12.153
5F4E A M 75;5F4E B L 81;25.9729
5F4E A G 76;5F4E A V 77;20.1048
5F4E A G 76;5F4E A W 148;8.47411
5F4E A G 76;5F4E A K 150;12.2049
5F4E A G 76;5F4E B C 79;0.763759
5F4E A G 76;5F4E B G 80;3.64674
5F4E A G 76;5F4E B L 81;0.515628
5F4E A V 77;5F4E A Y 134;8.2376
5F4E A V 77;5F4E A L 146;17.1513
5F4E A V 77;5F4E A W 148;21.1294
5F4E A V 77;5F4E B L 81;14.1176
5F4E A Y 134;5F4E A L 146;9.79933
5F4E A Y 134;5F4E A H 157;10.9508
5F4E A Y 134;5F4E B D 67;2.98834
5F4E A Y 134;5F4E B F 77;0.00260598
5F4E A Y 134;5F4E B L 81;17.319
5F4E A G 140;5F4E A V 141;21.7378
5F4E A G 140;5F4E A R 160;1.34301
5F4E A G 140;5F4E A K 161;7.76005
5F4E A G 140;5F4E A S 162;20.4673
5F4E A G 140;5F4E A Y 163;2.08635
5F4E A G 140;5F4E A P 242;0.0955448
5F4E A G 140;5F4E B W 62;0.746908
5F4E A V 141;5F4E A A 158;6.53253
5F4E A V 141;5F4E A R 160;19.8466
5F4E A V 141;5F4E A S 162;2.67929
5F4E A V 141;5F4E A Y 163;0.463351
5F4E A V 141;5F4E A N 239;7.2596
5F4E A V 141;5F4E A P 242;11.0372
5F4E A V 141;5F4E B Y 44;12.8137
5F4E A V 141;5F4E B W 62;10.659
5F4E A L 146;5F4E A W 148;15.7002
5F4E A L 146;5F4E A K 153;0.487366
5F4E A L 146;5F4E A E 155;12.9792
5F4E A L 146;5F4E A H 157;14.2311
5F4E A L 146;5F4E B L 81;4.26366
5F4E A W 148;5F4E A K 150;7.54244
5F4E A W 148;5F4E A N 151;15.4341
5F4E A W 148;5F4E A K 153;15.5713
5F4E A W 148;5F4E A E 155;16.0841
5F4E A W 148;5F4E A V 156;1.44198
5F4E A W 148;5F4E A H 157;12.8441
5F4E A W 148;5F4E B L 81;27.5279
5F4E A W 148;5F4E B L 82;7.21711
5F4E A W 148;5F4E B M 83;27.2158
5F4E A W 148;5F4E B P 84;12.9135
5F4E A W 148;5F4E B Y 147;1.43968
5F4E A K 150;5F4E A N 151;26.1051
5F4E A K 150;5F4E B C 79;14.4409
5F4E A K 150;5F4E B G 80;5.18246e-06
5F4E A K 150;5F4E B M 145;0.0411954
5F4E A K 150;5F4E B Y 147;43.7623
5F4E A K 150;5F4E B C 172;16.7829
5F4E A N 151;5F4E A K 153;30.8451
5F4E A N 151;5F4E B M 83;10.9317
5F4E A N 151;5F4E B M 145;24.5352
5F4E A N 151;5F4E B Y 147;10.8458
5F4E A K 153;5F4E A E 155;6.87389
5F4E A K 153;5F4E B M 83;22.6537
5F4E A K 153;5F4E B M 145;22.158
5F4E A E 155;5F4E A V 156;34.1576
5F4E A E 155;5F4E A H 157;1.35499
5F4E A E 155;5F4E B M 83;13.5073
5F4E A E 155;5F4E B P 84;20.4901
5F4E A V 156;5F4E A H 157;24.3084
5F4E A V 156;5F4E A A 158;0.715941
5F4E A V 156;5F4E B P 84;16.4506
5F4E A H 157;5F4E A A 158;32.7606
5F4E A H 157;5F4E B D 67;1.04198
5F4E A H 157;5F4E B F 77;7.79852
5F4E A H 157;5F4E B L 81;20.2334
5F4E A H 157;5F4E B L 82;3.458
5F4E A H 157;5F4E B P 84;8.88293
5F4E A H 157;5F4E B R 87;16.4196
5F4E A A 158;5F4E A R 160;26.1105
5F4E A A 158;5F4E A N 239;5.31896
5F4E A A 158;5F4E B P 84;0.015409
5F4E A A 158;5F4E B R 87;20.2838
5F4E A R 160;5F4E A K 161;26.7138
5F4E A R 160;5F4E A N 239;7.88444
5F4E A R 160;5F4E B Y 44;11.1302
5F4E A R 160;5F4E B E 45;11.7978
5F4E A R 160;5F4E B E 46;0.609737
5F4E A R 160;5F4E B W 62;15.0662
5F4E A R 160;5F4E B H 65;30.0528
5F4E A R 160;5F4E B L 66;18.163
5F4E A R 160;5F4E B D 67;9.51312
5F4E A R 160;5F4E B R 87;17.7042
5F4E A R 160;5F4E B I 91;10.2588
5F4E A K 161;5F4E A S 162;26.1208
5F4E A K 161;5F4E B W 62;7.25994
5F4E A K 161;5F4E B L 66;6.04938
5F4E A S 162;5F4E A Y 163;25.0472
5F4E A S 162;5F4E B W 62;16.0166
5F4E A Y 163;5F4E A P 242;5.32008
5F4E A Y 163;5F4E B K 42;7.3121
5F4E A Y 163;5F4E B Y 44;20.3663
5F4E A Y 163;5F4E B L 58;30.6346
5F4E A Y 163;5F4E B W 62;40.2743
5F4E A N 239;5F4E A S 240;24.8814
5F4E A N 239;5F4E A S 241;12.4952
5F4E A N 239;5F4E B Y 44;0.374313
5F4E A N 239;5F4E B E 45;24.3695
5F4E A S 240;5F4E A S 241;31.2335
5F4E A S 240;5F4E B E 45;6.74491
5F4E A S 240;5F4E B I 48;6.19971
5F4E A S 241;5F4E A P 242;38.2233
5F4E A S 241;5F4E B Y 44;19.6385
5F4E A S 241;5F4E B E 45;20.755
5F4E A S 241;5F4E B I 48;1.34501
5F4E A P 242;5F4E B Y 44;9.70473
5F4E B K 42;5F4E B L 58;23.9015
5F4E B Y 44;5F4E B E 45;35.3093
5F4E B Y 44;5F4E B E 46;0.736483
5F4E B Y 44;5F4E B I 48;2.10722
5F4E B Y 44;5F4E B L 58;9.00216
5F4E B Y 44;5F4E B W 62;29.5375
5F4E B Y 44;5F4E B H 65;21.6747
5F4E B E 45;5F4E B E 46;35.6296
5F4E B E 45;5F4E B I 48;27.9974
5F4E B E 45;5F4E B H 65;9.14269
5F4E B E 46;5F4E B I 48;1.72603
5F4E B E 46;5F4E B H 65;12.9186
5F4E B E 46;5F4E B I 91;13.752
5F4E B L 58;5F4E B W 62;9.69034
5F4E B W 62;5F4E B H 65;14.807
5F4E B W 62;5F4E B L 66;26.6953
5F4E B H 65;5F4E B L 66;24.248
5F4E B H 65;5F4E B R 87;7.04577
5F4E B H 65;5F4E B I 91;26.9637
5F4E B L 66;5F4E B D 67;29.8082
5F4E B L 66;5F4E B F 77;0.319902
5F4E B L 66;5F4E B R 87;6.36644
5F4E B L 66;5F4E B I 91;1.30292
5F4E B D 67;5F4E B F 77;28.4066
5F4E B D 67;5F4E B R 87;11.173
5F4E B F 77;5F4E B H 78;20.6404
5F4E B F 77;5F4E B C 79;1.12206
5F4E B F 77;5F4E B G 80;20.5148
5F4E B F 77;5F4E B L 81;26.7475
5F4E B F 77;5F4E B L 82;18.6604
5F4E B F 77;5F4E B R 87;23.221
5F4E B H 78;5F4E B C 79;25.1136
5F4E B H 78;5F4E B G 80;1.88526
5F4E B H 78;5F4E B L 82;0.00252345
5F4E B H 78;5F4E B Y 147;2.73443
5F4E B H 78;5F4E B R 165;6.75753
5F4E B H 78;5F4E B C 172;0.715174
5F4E B C 79;5F4E B G 80;25.1667
5F4E B C 79;5F4E B L 81;0.897818
5F4E B C 79;5F4E B Y 147;21.3604
5F4E B C 79;5F4E B C 172;20.8152
5F4E B G 80;5F4E B L 81;23.547
5F4E B G 80;5F4E B L 82;5.60797
5F4E B G 80;5F4E B Y 147;1.96331
5F4E B L 81;5F4E B L 82;25.5332
5F4E B L 81;5F4E B M 83;1.61658
5F4E B L 81;5F4E B Y 147;2.84126
5F4E B L 82;5F4E B M 83;21.5232
5F4E B L 82;5F4E B P 84;4.23592
5F4E B L 82;5F4E B R 87;19.5682
5F4E B L 82;5F4E B Y 147;10.4821
5F4E B M 83;5F4E B P 84;25.2255
5F4E B M 83;5F4E B R 87;6.27674
5F4E B M 83;5F4E B M 145;7.86168
5F4E B P 84;5F4E B R 87;16.4237
5F4E B R 87;5F4E B I 91;27.7201
5F4E B M 145;5F4E B Y 147;23.3037
5F4E B Y 147;5F4E B C 172;12.5377
5F4E B K 163;5F4E B R 165;14.5915
