c<B>r<30>R<LEU> 1
c<B>r<31>R<ILE> 1.75
c<B>r<33>R<THR> 1.66667
c<B>r<35>R<GLN> 1
c<B>r<40>R<VAL> 1.25
c<B>r<41>R<SER> 1.4
c<B>r<42>R<PRO> 1.4
c<B>r<43>R<GLU> 1
c<B>r<44>R<ASN> 1.4
c<B>r<46>R<VAL> 1
c<B>r<47>R<THR> 1.33333
c<B>r<49>R<SER> 1.5
c<B>r<51>R<THR> 1
c<B>r<52>R<HIS> 1.33333
c<B>r<55>R<VAL> 1.25
c<B>r<56>R<ILE> 1
c<B>r<57>R<GLN> 1
c<B>r<92>R<LEU> 1.5
c<B>r<94>R<ASN> 2
c<B>r<95>R<THR> 2
c<B>r<96>R<PHE> 1.4
c<B>r<97>R<GLY> 1.75
c<B>r<98>R<SER> 1.25
c<B>r<99>R<GLN> 1.44444
c<B>r<100>R<LYS> 1.83333
