"Metric";"Testing_Set"
"Accuracy";"0.766247379454927"
"Kappa";"0.171739587469924"
"AccuracyLower";"0.738068790421714"
"AccuracyUpper";"0.792771587379031"
"AccuracyNull";"0.761006289308176"
"AccuracyPValue";"0.36852957056909"
"McnemarPValue";"3.73593439710908e-23"
"Sensitivity";"0.184210526315789"
"Specificity";"0.949035812672176"
"Pos Pred Value";"0.531645569620253"
"Neg Pred Value";"0.787428571428571"
"Precision";"0.531645569620253"
"Recall";"0.184210526315789"
"F1";"0.273615635179153"
"Prevalence";"0.238993710691824"
"Detection Rate";"0.0440251572327044"
"Detection Prevalence";"0.0828092243186583"
"Balanced Accuracy";"0.566623169493983"
"TP";"42"
"TN";"689"
"FP";"37"
"FN";"186"
