"Metric";"Testing_Set"
"Accuracy";"0.765199161425577"
"Kappa";"0.139668583023335"
"AccuracyLower";"0.736982250550191"
"AccuracyUpper";"0.791768267489117"
"AccuracyNull";"0.761006289308176"
"AccuracyPValue";"0.397611314750185"
"McnemarPValue";"2.91046985793737e-28"
"Sensitivity";"0.144736842105263"
"Specificity";"0.960055096418733"
"Pos Pred Value";"0.532258064516129"
"Neg Pred Value";"0.781390134529148"
"Precision";"0.532258064516129"
"Recall";"0.144736842105263"
"F1";"0.227586206896552"
"Prevalence";"0.238993710691824"
"Detection Rate";"0.0345911949685535"
"Detection Prevalence";"0.0649895178197065"
"Balanced Accuracy";"0.552395969261998"
"TP";"33"
"TN";"697"
"FP";"29"
"FN";"195"
