"Metric";"Testing_Set"
"Accuracy";"0.741090146750524"
"Kappa";"0.1866755027233"
"AccuracyLower";"0.712052652660738"
"AccuracyUpper";"0.768630828365908"
"AccuracyNull";"0.761006289308176"
"AccuracyPValue";"0.929615714050288"
"McnemarPValue";"1.81319913954316e-07"
"Sensitivity";"0.276315789473684"
"Specificity";"0.887052341597796"
"Pos Pred Value";"0.43448275862069"
"Neg Pred Value";"0.796044499381953"
"Precision";"0.43448275862069"
"Recall";"0.276315789473684"
"F1";"0.337801608579088"
"Prevalence";"0.238993710691824"
"Detection Rate";"0.0660377358490566"
"Detection Prevalence";"0.151991614255765"
"Balanced Accuracy";"0.58168406553574"
"TP";"63"
"TN";"644"
"FP";"82"
"FN";"165"
