"Metric";"Testing_Set"
"Accuracy";"0.715932914046122"
"Kappa";"0.270629855950708"
"AccuracyLower";"0.686155600659622"
"AccuracyUpper";"0.744370521164503"
"AccuracyNull";"0.761006289308176"
"AccuracyPValue";"0.999408601600849"
"McnemarPValue";"0.00520120415230096"
"Sensitivity";"0.508771929824561"
"Specificity";"0.78099173553719"
"Pos Pred Value";"0.421818181818182"
"Neg Pred Value";"0.835051546391752"
"Precision";"0.421818181818182"
"Recall";"0.508771929824561"
"F1";"0.461232604373757"
"Prevalence";"0.238993710691824"
"Detection Rate";"0.121593291404612"
"Detection Prevalence";"0.288259958071279"
"Balanced Accuracy";"0.644881832680876"
"TP";"116"
"TN";"567"
"FP";"159"
"FN";"112"
