"Metric";"Testing_Set"
"Accuracy";"0.50314465408805"
"Kappa";"0.142379207537723"
"AccuracyLower";"0.470925158395403"
"AccuracyUpper";"0.535344683917284"
"AccuracyNull";"0.761006289308176"
"AccuracyPValue";"1"
"McnemarPValue";"7.73520999510767e-73"
"Sensitivity";"0.824561403508772"
"Specificity";"0.402203856749311"
"Pos Pred Value";"0.302250803858521"
"Neg Pred Value";"0.879518072289157"
"Precision";"0.302250803858521"
"Recall";"0.824561403508772"
"F1";"0.442352941176471"
"Prevalence";"0.238993710691824"
"Detection Rate";"0.19706498951782"
"Detection Prevalence";"0.651991614255765"
"Balanced Accuracy";"0.613382630129042"
"TP";"188"
"TN";"292"
"FP";"434"
"FN";"40"
