"Metric";"Testing_Set"
"Accuracy";"0.769392033542977"
"Kappa";"0.0813593150900782"
"AccuracyLower";"0.741329786156085"
"AccuracyUpper";"0.795780164614427"
"AccuracyNull";"0.761006289308176"
"AccuracyPValue";"0.28608111694836"
"McnemarPValue";"1.90149350177817e-43"
"Sensitivity";"0.0657894736842105"
"Specificity";"0.990358126721763"
"Pos Pred Value";"0.681818181818181"
"Neg Pred Value";"0.771459227467811"
"Precision";"0.681818181818182"
"Recall";"0.0657894736842105"
"F1";"0.12"
"Prevalence";"0.238993710691824"
"Detection Rate";"0.0157232704402516"
"Detection Prevalence";"0.0230607966457023"
"Balanced Accuracy";"0.528073800202987"
"TP";"15"
"TN";"719"
"FP";"7"
"FN";"213"
