"Metric";"Testing_Set"
"Accuracy";"0.767295597484277"
"Kappa";"0.166188976377953"
"AccuracyLower";"0.739155558931535"
"AccuracyUpper";"0.793774677586431"
"AccuracyNull";"0.758909853249476"
"AccuracyPValue";"0.286646636852239"
"McnemarPValue";"1.38551232235637e-26"
"Sensitivity";"0.169565217391304"
"Specificity";"0.957182320441989"
"Pos Pred Value";"0.557142857142857"
"Neg Pred Value";"0.78393665158371"
"Precision";"0.557142857142857"
"Recall";"0.169565217391304"
"F1";"0.26"
"Prevalence";"0.241090146750524"
"Detection Rate";"0.0408805031446541"
"Detection Prevalence";"0.0733752620545073"
"Balanced Accuracy";"0.563373768916647"
"TP";"39"
"TN";"693"
"FP";"31"
"FN";"191"
