"Metric";"Testing_Set"
"Accuracy";"0.759958071278826"
"Kappa";"-0.00209164717214847"
"AccuracyLower";"0.731552944199914"
"AccuracyUpper";"0.786748259785745"
"AccuracyNull";"0.761006289308176"
"AccuracyPValue";"0.547910647586546"
"McnemarPValue";"1.96541674582468e-50"
"Sensitivity";"0"
"Specificity";"0.99862258953168"
"Pos Pred Value";"0"
"Neg Pred Value";"0.760755508919203"
"Precision";"0"
"Recall";"0"
"F1";"NaN"
"Prevalence";"0.238993710691824"
"Detection Rate";"0"
"Detection Prevalence";"0.0010482180293501"
"Balanced Accuracy";"0.49931129476584"
"TP";"0"
"TN";"725"
"FP";"1"
"FN";"228"
