"Metric";"Testing_Set"
"Accuracy";"0.758909853249476"
"Kappa";"0.238727673924809"
"AccuracyLower";"0.730467754385361"
"AccuracyUpper";"0.7857435838212"
"AccuracyNull";"0.761006289308176"
"AccuracyPValue";"0.577749741663774"
"McnemarPValue";"2.08575003661217e-08"
"Sensitivity";"0.307017543859649"
"Specificity";"0.900826446280992"
"Pos Pred Value";"0.492957746478873"
"Neg Pred Value";"0.805418719211823"
"Precision";"0.492957746478873"
"Recall";"0.307017543859649"
"F1";"0.378378378378378"
"Prevalence";"0.238993710691824"
"Detection Rate";"0.0733752620545073"
"Detection Prevalence";"0.148846960167715"
"Balanced Accuracy";"0.60392199507032"
"TP";"70"
"TN";"654"
"FP";"72"
"FN";"158"
