"Metric";"Testing_Set"
"Accuracy";"0.766247379454927"
"Kappa";"0.144122687736859"
"AccuracyLower";"0.738068790421714"
"AccuracyUpper";"0.792771587379031"
"AccuracyNull";"0.758909853249476"
"AccuracyPValue";"0.313132344080783"
"McnemarPValue";"5.0217065322871e-30"
"Sensitivity";"0.143478260869565"
"Specificity";"0.964088397790055"
"Pos Pred Value";"0.559322033898305"
"Neg Pred Value";"0.779888268156425"
"Precision";"0.559322033898305"
"Recall";"0.143478260869565"
"F1";"0.228373702422145"
"Prevalence";"0.241090146750524"
"Detection Rate";"0.0345911949685535"
"Detection Prevalence";"0.0618448637316562"
"Balanced Accuracy";"0.55378332932981"
"TP";"33"
"TN";"698"
"FP";"26"
"FN";"197"
