"Metric";"Testing_Set"
"Accuracy";"0.767295597484277"
"Kappa";"0.162932983415806"
"AccuracyLower";"0.739155558931535"
"AccuracyUpper";"0.793774677586431"
"AccuracyNull";"0.758909853249476"
"AccuracyPValue";"0.286646636852239"
"McnemarPValue";"3.23788855776357e-27"
"Sensitivity";"0.165217391304348"
"Specificity";"0.958563535911602"
"Pos Pred Value";"0.558823529411765"
"Neg Pred Value";"0.783295711060948"
"Precision";"0.558823529411765"
"Recall";"0.165217391304348"
"F1";"0.25503355704698"
"Prevalence";"0.241090146750524"
"Detection Rate";"0.039832285115304"
"Detection Prevalence";"0.0712788259958071"
"Balanced Accuracy";"0.561890463607975"
"TP";"38"
"TN";"694"
"FP";"30"
"FN";"192"
