"Metric";"Testing_Set"
"Accuracy";"0.680293501048218"
"Kappa";"0.250706880301602"
"AccuracyLower";"0.649653027599056"
"AccuracyUpper";"0.709816241540538"
"AccuracyNull";"0.761006289308176"
"AccuracyPValue";"0.99999999383032"
"McnemarPValue";"6.68225158289001e-11"
"Sensitivity";"0.583333333333333"
"Specificity";"0.710743801652893"
"Pos Pred Value";"0.387755102040816"
"Neg Pred Value";"0.844517184942717"
"Precision";"0.387755102040816"
"Recall";"0.583333333333333"
"F1";"0.46584938704028"
"Prevalence";"0.238993710691824"
"Detection Rate";"0.139412997903564"
"Detection Prevalence";"0.359538784067086"
"Balanced Accuracy";"0.647038567493113"
"TP";"133"
"TN";"516"
"FP";"210"
"FN";"95"
