"Metric";"Testing_Set"
"Accuracy";"0.651991614255765"
"Kappa";"0.25940682959679"
"AccuracyLower";"0.620807774444705"
"AccuracyUpper";"0.68223362261341"
"AccuracyNull";"0.761006289308176"
"AccuracyPValue";"0.999999999999986"
"McnemarPValue";"3.2371204656616e-26"
"Sensitivity";"0.697368421052632"
"Specificity";"0.637741046831956"
"Pos Pred Value";"0.376777251184834"
"Neg Pred Value";"0.870300751879699"
"Precision";"0.376777251184834"
"Recall";"0.697368421052632"
"F1";"0.489230769230769"
"Prevalence";"0.238993710691824"
"Detection Rate";"0.166666666666667"
"Detection Prevalence";"0.442348008385744"
"Balanced Accuracy";"0.667554733942294"
"TP";"159"
"TN";"463"
"FP";"263"
"FN";"69"
