"Metric";"Testing_Set"
"Accuracy";"0.768343815513627"
"Kappa";"0.0751677852348995"
"AccuracyLower";"0.740242557149003"
"AccuracyUpper";"0.794777537029704"
"AccuracyNull";"0.761006289308176"
"AccuracyPValue";"0.312627123308266"
"McnemarPValue";"1.15301625121254e-43"
"Sensitivity";"0.0614035087719298"
"Specificity";"0.990358126721763"
"Pos Pred Value";"0.666666666666666"
"Neg Pred Value";"0.770632368703108"
"Precision";"0.666666666666667"
"Recall";"0.0614035087719298"
"F1";"0.112449799196787"
"Prevalence";"0.238993710691824"
"Detection Rate";"0.0146750524109015"
"Detection Prevalence";"0.0220125786163522"
"Balanced Accuracy";"0.525880817746846"
"TP";"14"
"TN";"719"
"FP";"7"
"FN";"214"
