"Metric";"Testing_Set"
"Accuracy";"0.719077568134172"
"Kappa";"0.211093420224386"
"AccuracyLower";"0.689386583592243"
"AccuracyUpper";"0.747409229563388"
"AccuracyNull";"0.761006289308176"
"AccuracyPValue";"0.998751289635991"
"McnemarPValue";"0.427136409467009"
"Sensitivity";"0.381578947368421"
"Specificity";"0.825068870523416"
"Pos Pred Value";"0.406542056074766"
"Neg Pred Value";"0.80945945945946"
"Precision";"0.406542056074766"
"Recall";"0.381578947368421"
"F1";"0.393665158371041"
"Prevalence";"0.238993710691824"
"Detection Rate";"0.0911949685534591"
"Detection Prevalence";"0.224318658280922"
"Balanced Accuracy";"0.603323908945918"
"TP";"87"
"TN";"599"
"FP";"127"
"FN";"141"
