"Metric";"Testing_Set"
"Accuracy";"0.683438155136268"
"Kappa";"0.2474611334002"
"AccuracyLower";"0.652865607216387"
"AccuracyUpper";"0.712873407316627"
"AccuracyNull";"0.761006289308176"
"AccuracyPValue";"0.999999978848374"
"McnemarPValue";"3.08549068001383e-09"
"Sensitivity";"0.565789473684211"
"Specificity";"0.720385674931129"
"Pos Pred Value";"0.38855421686747"
"Neg Pred Value";"0.840836012861736"
"Precision";"0.38855421686747"
"Recall";"0.565789473684211"
"F1";"0.460714285714286"
"Prevalence";"0.238993710691824"
"Detection Rate";"0.135220125786164"
"Detection Prevalence";"0.348008385744235"
"Balanced Accuracy";"0.64308757430767"
"TP";"129"
"TN";"523"
"FP";"203"
"FN";"99"
