"Metric";"Testing_Set"
"Accuracy";"0.766247379454927"
"Kappa";"0.097487718583755"
"AccuracyLower";"0.738068790421714"
"AccuracyUpper";"0.792771587379031"
"AccuracyNull";"0.758909853249476"
"AccuracyPValue";"0.313132344080783"
"McnemarPValue";"2.36374305709894e-39"
"Sensitivity";"0.0869565217391304"
"Specificity";"0.982044198895028"
"Pos Pred Value";"0.606060606060606"
"Neg Pred Value";"0.771986970684039"
"Precision";"0.606060606060606"
"Recall";"0.0869565217391304"
"F1";"0.152091254752852"
"Prevalence";"0.241090146750524"
"Detection Rate";"0.0209643605870021"
"Detection Prevalence";"0.0345911949685535"
"Balanced Accuracy";"0.534500360317079"
"TP";"20"
"TN";"711"
"FP";"13"
"FN";"210"
