"Metric";"Testing_Set"
"Accuracy";"0.770440251572327"
"Kappa";"0.106947757174733"
"AccuracyLower";"0.742417247047566"
"AccuracyUpper";"0.796782559233174"
"AccuracyNull";"0.761006289308176"
"AccuracyPValue";"0.260630566393712"
"McnemarPValue";"2.91254642559092e-39"
"Sensitivity";"0.0921052631578947"
"Specificity";"0.983471074380165"
"Pos Pred Value";"0.636363636363637"
"Neg Pred Value";"0.775244299674267"
"Precision";"0.636363636363636"
"Recall";"0.0921052631578947"
"F1";"0.160919540229885"
"Prevalence";"0.238993710691824"
"Detection Rate";"0.0220125786163522"
"Detection Prevalence";"0.0345911949685535"
"Balanced Accuracy";"0.53778816876903"
"TP";"21"
"TN";"714"
"FP";"12"
"FN";"207"
