"Metric";"Testing_Set"
"Accuracy";"0.719457013574661"
"Kappa";"0.2934199669967"
"AccuracyLower";"0.655277962468374"
"AccuracyUpper";"0.777642948582581"
"AccuracyNull";"0.755656108597285"
"AccuracyPValue";"0.906828681560656"
"McnemarPValue";"0.162413151022009"
"Sensitivity";"0.537037037037037"
"Specificity";"0.778443113772455"
"Pos Pred Value";"0.43939393939394"
"Neg Pred Value";"0.838709677419355"
"Precision";"0.439393939393939"
"Recall";"0.537037037037037"
"F1";"0.483333333333333"
"Prevalence";"0.244343891402715"
"Detection Rate";"0.131221719457014"
"Detection Prevalence";"0.298642533936652"
"Balanced Accuracy";"0.657740075404746"
"TP";"29"
"TN";"130"
"FP";"37"
"FN";"25"
