"Metric";"Testing_Set"
"Accuracy";"0.471698113207547"
"Kappa";"0.144845052787342"
"AccuracyLower";"0.439626059277807"
"AccuracyUpper";"0.503945365748453"
"AccuracyNull";"0.758909853249476"
"AccuracyPValue";"1"
"McnemarPValue";"1.68332720454443e-94"
"Sensitivity";"0.91304347826087"
"Specificity";"0.331491712707182"
"Pos Pred Value";"0.302593659942363"
"Neg Pred Value";"0.923076923076923"
"Precision";"0.302593659942363"
"Recall";"0.91304347826087"
"F1";"0.454545454545455"
"Prevalence";"0.241090146750524"
"Detection Rate";"0.220125786163522"
"Detection Prevalence";"0.727463312368973"
"Balanced Accuracy";"0.622267595484026"
"TP";"210"
"TN";"240"
"FP";"484"
"FN";"20"
