"Metric";"Testing_Set"
"Accuracy";"0.732704402515723"
"Kappa";"0.234060640408047"
"AccuracyLower";"0.703407614347387"
"AccuracyUpper";"0.760556792518961"
"AccuracyNull";"0.761006289308176"
"AccuracyPValue";"0.980630779809873"
"McnemarPValue";"0.103486055104543"
"Sensitivity";"0.381578947368421"
"Specificity";"0.84297520661157"
"Pos Pred Value";"0.432835820895522"
"Neg Pred Value";"0.812749003984064"
"Precision";"0.432835820895522"
"Recall";"0.381578947368421"
"F1";"0.405594405594406"
"Prevalence";"0.238993710691824"
"Detection Rate";"0.0911949685534591"
"Detection Prevalence";"0.210691823899371"
"Balanced Accuracy";"0.612277076989996"
"TP";"87"
"TN";"612"
"FP";"114"
"FN";"141"
