"Metric";"Testing_Set"
"Accuracy";"0.70335429769392"
"Kappa";"0.298584084591203"
"AccuracyLower";"0.673248529053065"
"AccuracyUpper";"0.73219877348125"
"AccuracyNull";"0.758909853249476"
"AccuracyPValue";"0.999962506819274"
"McnemarPValue";"6.32310700805713e-10"
"Sensitivity";"0.61304347826087"
"Specificity";"0.732044198895028"
"Pos Pred Value";"0.42089552238806"
"Neg Pred Value";"0.856219709208401"
"Precision";"0.42089552238806"
"Recall";"0.61304347826087"
"F1";"0.499115044247788"
"Prevalence";"0.241090146750524"
"Detection Rate";"0.147798742138365"
"Detection Prevalence";"0.351153039832285"
"Balanced Accuracy";"0.672543838577949"
"TP";"141"
"TN";"530"
"FP";"194"
"FN";"89"
