"Metric";"Testing_Set"
"Accuracy";"0.757861635220126"
"Kappa";"0.209466003745077"
"AccuracyLower";"0.729382786061678"
"AccuracyUpper";"0.784738685402523"
"AccuracyNull";"0.761006289308176"
"AccuracyPValue";"0.607120181227749"
"McnemarPValue";"7.77155801641697e-12"
"Sensitivity";"0.263157894736842"
"Specificity";"0.913223140495868"
"Pos Pred Value";"0.48780487804878"
"Neg Pred Value";"0.79783393501805"
"Precision";"0.48780487804878"
"Recall";"0.263157894736842"
"F1";"0.341880341880342"
"Prevalence";"0.238993710691824"
"Detection Rate";"0.0628930817610063"
"Detection Prevalence";"0.128930817610063"
"Balanced Accuracy";"0.588190517616355"
"TP";"60"
"TN";"663"
"FP";"63"
"FN";"168"
