"Metric";"Testing_Set"
"Accuracy";"0.759958071278826"
"Kappa";"0.0374844695868247"
"AccuracyLower";"0.731552944199914"
"AccuracyUpper";"0.786748259785745"
"AccuracyNull";"0.761006289308176"
"AccuracyPValue";"0.547910647586546"
"McnemarPValue";"5.45527847095886e-43"
"Sensitivity";"0.0394736842105263"
"Specificity";"0.986225895316804"
"Pos Pred Value";"0.473684210526315"
"Neg Pred Value";"0.765775401069519"
"Precision";"0.473684210526316"
"Recall";"0.0394736842105263"
"F1";"0.0728744939271255"
"Prevalence";"0.238993710691824"
"Detection Rate";"0.00943396226415094"
"Detection Prevalence";"0.019916142557652"
"Balanced Accuracy";"0.512849789763665"
"TP";"9"
"TN";"716"
"FP";"10"
"FN";"219"
