"Metric";"Testing_Set"
"Accuracy";"0.465408805031447"
"Kappa";"0.130078742410047"
"AccuracyLower";"0.433381303954283"
"AccuracyUpper";"0.497650441326306"
"AccuracyNull";"0.758909853249476"
"AccuracyPValue";"1"
"McnemarPValue";"4.69090387993843e-91"
"Sensitivity";"0.88695652173913"
"Specificity";"0.331491712707182"
"Pos Pred Value";"0.296511627906977"
"Neg Pred Value";"0.902255639097744"
"Precision";"0.296511627906977"
"Recall";"0.88695652173913"
"F1";"0.444444444444444"
"Prevalence";"0.241090146750524"
"Detection Rate";"0.213836477987421"
"Detection Prevalence";"0.721174004192872"
"Balanced Accuracy";"0.609224117223156"
"TP";"204"
"TN";"240"
"FP";"484"
"FN";"26"
