"Metric";"Testing_Set"
"Accuracy";"0.731656184486373"
"Kappa";"0.302177267272415"
"AccuracyLower";"0.702327893013728"
"AccuracyUpper";"0.759546626207111"
"AccuracyNull";"0.761006289308176"
"AccuracyPValue";"0.98385962515531"
"McnemarPValue";"0.020750145316116"
"Sensitivity";"0.521929824561403"
"Specificity";"0.797520661157025"
"Pos Pred Value";"0.447368421052632"
"Neg Pred Value";"0.84156976744186"
"Precision";"0.447368421052632"
"Recall";"0.521929824561403"
"F1";"0.481781376518219"
"Prevalence";"0.238993710691824"
"Detection Rate";"0.124737945492662"
"Detection Prevalence";"0.278825995807128"
"Balanced Accuracy";"0.659725242859214"
"TP";"119"
"TN";"579"
"FP";"147"
"FN";"109"
