"Metric";"Testing_Set"
"Accuracy";"0.713836477987421"
"Kappa";"0.244004388944041"
"AccuracyLower";"0.684002558892935"
"AccuracyUpper";"0.742343765608677"
"AccuracyNull";"0.761006289308176"
"AccuracyPValue";"0.999649179728948"
"McnemarPValue";"0.115581899951383"
"Sensitivity";"0.460526315789474"
"Specificity";"0.793388429752066"
"Pos Pred Value";"0.411764705882353"
"Neg Pred Value";"0.824034334763949"
"Precision";"0.411764705882353"
"Recall";"0.460526315789474"
"F1";"0.434782608695652"
"Prevalence";"0.238993710691824"
"Detection Rate";"0.110062893081761"
"Detection Prevalence";"0.267295597484277"
"Balanced Accuracy";"0.62695737277077"
"TP";"105"
"TN";"576"
"FP";"150"
"FN";"123"
