"Metric";"Testing_Set"
"Accuracy";"0.714884696016772"
"Kappa";"0.316193909496253"
"AccuracyLower";"0.685078985509686"
"AccuracyUpper";"0.743357237959059"
"AccuracyNull";"0.758909853249476"
"AccuracyPValue";"0.999214630890098"
"McnemarPValue";"1.71086941219779e-08"
"Sensitivity";"0.61304347826087"
"Specificity";"0.747237569060773"
"Pos Pred Value";"0.435185185185185"
"Neg Pred Value";"0.858730158730159"
"Precision";"0.435185185185185"
"Recall";"0.61304347826087"
"F1";"0.509025270758123"
"Prevalence";"0.241090146750524"
"Detection Rate";"0.147798742138365"
"Detection Prevalence";"0.339622641509434"
"Balanced Accuracy";"0.680140523660822"
"TP";"141"
"TN";"541"
"FP";"183"
"FN";"89"
