"Metric";"Testing_Set"
"Accuracy";"0.716981132075472"
"Kappa";"0.214857895314386"
"AccuracyLower";"0.687232404967838"
"AccuracyUpper";"0.745383614593542"
"AccuracyNull";"0.761006289308176"
"AccuracyPValue";"0.999237648221348"
"McnemarPValue";"0.760906727075114"
"Sensitivity";"0.394736842105263"
"Specificity";"0.818181818181818"
"Pos Pred Value";"0.405405405405405"
"Neg Pred Value";"0.811475409836066"
"Precision";"0.405405405405405"
"Recall";"0.394736842105263"
"F1";"0.4"
"Prevalence";"0.238993710691824"
"Detection Rate";"0.0943396226415094"
"Detection Prevalence";"0.232704402515723"
"Balanced Accuracy";"0.606459330143541"
"TP";"90"
"TN";"594"
"FP";"132"
"FN";"138"
