"Metric";"Testing_Set"
"Accuracy";"0.506289308176101"
"Kappa";"0.159711858891644"
"AccuracyLower";"0.474061957204518"
"AccuracyUpper";"0.538477727372297"
"AccuracyNull";"0.761006289308176"
"AccuracyPValue";"1"
"McnemarPValue";"7.60196958917264e-79"
"Sensitivity";"0.864035087719298"
"Specificity";"0.393939393939394"
"Pos Pred Value";"0.309262166405024"
"Neg Pred Value";"0.902208201892744"
"Precision";"0.309262166405024"
"Recall";"0.864035087719298"
"F1";"0.455491329479769"
"Prevalence";"0.238993710691824"
"Detection Rate";"0.206498951781971"
"Detection Prevalence";"0.667714884696017"
"Balanced Accuracy";"0.628987240829346"
"TP";"197"
"TN";"286"
"FP";"440"
"FN";"31"
