"Metric";"Testing_Set"
"Accuracy";"0.507337526205451"
"Kappa";"0.151219844623143"
"AccuracyLower";"0.475107835012027"
"AccuracyUpper";"0.539521796966976"
"AccuracyNull";"0.761006289308176"
"AccuracyPValue";"1"
"McnemarPValue";"3.58211560074801e-74"
"Sensitivity";"0.837719298245614"
"Specificity";"0.403581267217631"
"Pos Pred Value";"0.306089743589744"
"Neg Pred Value";"0.887878787878788"
"Precision";"0.306089743589744"
"Recall";"0.837719298245614"
"F1";"0.448356807511737"
"Prevalence";"0.238993710691824"
"Detection Rate";"0.20020964360587"
"Detection Prevalence";"0.654088050314465"
"Balanced Accuracy";"0.620650282731622"
"TP";"191"
"TN";"293"
"FP";"433"
"FN";"37"
