"Metric";"Testing_Set"
"Accuracy";"0.764150943396226"
"Kappa";"0.288470335527755"
"AccuracyLower";"0.735895938260051"
"AccuracyUpper";"0.790764718985689"
"AccuracyNull";"0.761006289308176"
"AccuracyPValue";"0.427243181915788"
"McnemarPValue";"0.000110333070054557"
"Sensitivity";"0.37719298245614"
"Specificity";"0.885674931129477"
"Pos Pred Value";"0.50887573964497"
"Neg Pred Value";"0.819108280254777"
"Precision";"0.50887573964497"
"Recall";"0.37719298245614"
"F1";"0.433249370277078"
"Prevalence";"0.238993710691824"
"Detection Rate";"0.090146750524109"
"Detection Prevalence";"0.177148846960168"
"Balanced Accuracy";"0.631433956792808"
"TP";"86"
"TN";"643"
"FP";"83"
"FN";"142"
