"Metric";"Testing_Set"
"Accuracy";"0.749475890985325"
"Kappa";"0.270684195374724"
"AccuracyLower";"0.72071089844056"
"AccuracyUpper";"0.776691605683654"
"AccuracyNull";"0.761006289308176"
"AccuracyPValue";"0.809113421781227"
"McnemarPValue";"0.0198778048347009"
"Sensitivity";"0.394736842105263"
"Specificity";"0.860881542699725"
"Pos Pred Value";"0.471204188481675"
"Neg Pred Value";"0.81913499344692"
"Precision";"0.471204188481675"
"Recall";"0.394736842105263"
"F1";"0.429594272076372"
"Prevalence";"0.238993710691824"
"Detection Rate";"0.0943396226415094"
"Detection Prevalence";"0.20020964360587"
"Balanced Accuracy";"0.627809192402494"
"TP";"90"
"TN";"625"
"FP";"101"
"FN";"138"
