"Metric";"Testing_Set"
"Accuracy";"0.658280922431866"
"Kappa";"0.271093486331421"
"AccuracyLower";"0.627207458406568"
"AccuracyUpper";"0.688373489216652"
"AccuracyNull";"0.761006289308176"
"AccuracyPValue";"0.999999999999656"
"McnemarPValue";"3.74865660937622e-26"
"Sensitivity";"0.706140350877193"
"Specificity";"0.643250688705234"
"Pos Pred Value";"0.383333333333333"
"Neg Pred Value";"0.874531835205992"
"Precision";"0.383333333333333"
"Recall";"0.706140350877193"
"F1";"0.496913580246914"
"Prevalence";"0.238993710691824"
"Detection Rate";"0.168763102725367"
"Detection Prevalence";"0.440251572327044"
"Balanced Accuracy";"0.674695519791214"
"TP";"161"
"TN";"467"
"FP";"259"
"FN";"67"
