"Metric";"Testing_Set"
"Accuracy";"0.708595387840671"
"Kappa";"0.254930384654283"
"AccuracyLower";"0.678623232376645"
"AccuracyUpper";"0.737273588330957"
"AccuracyNull";"0.761006289308176"
"AccuracyPValue";"0.99991256599707"
"McnemarPValue";"0.0032945935306353"
"Sensitivity";"0.5"
"Specificity";"0.774104683195592"
"Pos Pred Value";"0.410071942446043"
"Neg Pred Value";"0.831360946745562"
"Precision";"0.410071942446043"
"Recall";"0.5"
"F1";"0.450592885375494"
"Prevalence";"0.238993710691824"
"Detection Rate";"0.119496855345912"
"Detection Prevalence";"0.291404612159329"
"Balanced Accuracy";"0.637052341597796"
"TP";"114"
"TN";"562"
"FP";"164"
"FN";"114"
