"Metric";"Testing_Set"
"Accuracy";"0.767295597484277"
"Kappa";"0.183370349805663"
"AccuracyLower";"0.739155558931535"
"AccuracyUpper";"0.793774677586431"
"AccuracyNull";"0.761006289308176"
"AccuracyPValue";"0.340153460183735"
"McnemarPValue";"8.18818411282729e-22"
"Sensitivity";"0.197368421052632"
"Specificity";"0.946280991735537"
"Pos Pred Value";"0.535714285714286"
"Neg Pred Value";"0.789655172413793"
"Precision";"0.535714285714286"
"Recall";"0.197368421052632"
"F1";"0.288461538461538"
"Prevalence";"0.238993710691824"
"Detection Rate";"0.0471698113207547"
"Detection Prevalence";"0.0880503144654088"
"Balanced Accuracy";"0.571824706394084"
"TP";"45"
"TN";"687"
"FP";"39"
"FN";"183"
