"Metric";"Testing_Set"
"Accuracy";"0.742138364779874"
"Kappa";"0.259933398925301"
"AccuracyLower";"0.713134202556996"
"AccuracyUpper";"0.769639159240768"
"AccuracyNull";"0.761006289308176"
"AccuracyPValue";"0.919001414799524"
"McnemarPValue";"0.0851679058839558"
"Sensitivity";"0.399122807017544"
"Specificity";"0.849862258953168"
"Pos Pred Value";"0.455"
"Neg Pred Value";"0.818302387267904"
"Precision";"0.455"
"Recall";"0.399122807017544"
"F1";"0.425233644859813"
"Prevalence";"0.238993710691824"
"Detection Rate";"0.0953878406708595"
"Detection Prevalence";"0.209643605870021"
"Balanced Accuracy";"0.624492532985356"
"TP";"91"
"TN";"617"
"FP";"109"
"FN";"137"
