"Metric";"Testing_Set"
"Accuracy";"0.710691823899371"
"Kappa";"0.268478079679947"
"AccuracyLower";"0.680774404087302"
"AccuracyUpper";"0.73930221990503"
"AccuracyNull";"0.761006289308176"
"AccuracyPValue";"0.999845374092596"
"McnemarPValue";"0.000601367665998045"
"Sensitivity";"0.521929824561403"
"Specificity";"0.769972451790634"
"Pos Pred Value";"0.416083916083916"
"Neg Pred Value";"0.836826347305389"
"Precision";"0.416083916083916"
"Recall";"0.521929824561403"
"F1";"0.463035019455253"
"Prevalence";"0.238993710691824"
"Detection Rate";"0.124737945492662"
"Detection Prevalence";"0.29979035639413"
"Balanced Accuracy";"0.645951138176019"
"TP";"119"
"TN";"559"
"FP";"167"
"FN";"109"
