"Metric";"Testing_Set"
"Accuracy";"0.447589098532495"
"Kappa";"0.12353168833614"
"AccuracyLower";"0.415715274188895"
"AccuracyUpper";"0.479787391570958"
"AccuracyNull";"0.758909853249476"
"AccuracyPValue";"1"
"McnemarPValue";"1.78680472830849e-99"
"Sensitivity";"0.91304347826087"
"Specificity";"0.299723756906077"
"Pos Pred Value";"0.292887029288703"
"Neg Pred Value";"0.915611814345992"
"Precision";"0.292887029288703"
"Recall";"0.91304347826087"
"F1";"0.44350580781415"
"Prevalence";"0.241090146750524"
"Detection Rate";"0.220125786163522"
"Detection Prevalence";"0.751572327044025"
"Balanced Accuracy";"0.606383617583473"
"TP";"210"
"TN";"217"
"FP";"507"
"FN";"20"
