"Metric";"Testing_Set"
"Accuracy";"0.767295597484277"
"Kappa";"0.0996480010883063"
"AccuracyLower";"0.739155558931535"
"AccuracyUpper";"0.793774677586431"
"AccuracyNull";"0.758909853249476"
"AccuracyPValue";"0.286646636852239"
"McnemarPValue";"6.56957364061523e-40"
"Sensitivity";"0.0869565217391304"
"Specificity";"0.983425414364641"
"Pos Pred Value";"0.625000000000001"
"Neg Pred Value";"0.772234273318872"
"Precision";"0.625"
"Recall";"0.0869565217391304"
"F1";"0.152671755725191"
"Prevalence";"0.241090146750524"
"Detection Rate";"0.0209643605870021"
"Detection Prevalence";"0.0335429769392034"
"Balanced Accuracy";"0.535190968051886"
"TP";"20"
"TN";"712"
"FP";"12"
"FN";"210"
