"Metric";"Testing_Set"
"Accuracy";"0.748427672955975"
"Kappa";"0.200100616274682"
"AccuracyLower";"0.719627880959164"
"AccuracyUpper";"0.775684748225855"
"AccuracyNull";"0.761006289308176"
"AccuracyPValue";"0.828858334537838"
"McnemarPValue";"9.19615766451925e-09"
"Sensitivity";"0.276315789473684"
"Specificity";"0.896694214876033"
"Pos Pred Value";"0.456521739130435"
"Neg Pred Value";"0.797794117647059"
"Precision";"0.456521739130435"
"Recall";"0.276315789473684"
"F1";"0.344262295081967"
"Prevalence";"0.238993710691824"
"Detection Rate";"0.0660377358490566"
"Detection Prevalence";"0.144654088050314"
"Balanced Accuracy";"0.586505002174859"
"TP";"63"
"TN";"651"
"FP";"75"
"FN";"165"
