"Metric";"Testing_Set"
"Accuracy";"0.768343815513627"
"Kappa";"0.0745507378697031"
"AccuracyLower";"0.740242557149003"
"AccuracyUpper";"0.794777537029704"
"AccuracyNull";"0.758909853249476"
"AccuracyPValue";"0.261247667955454"
"McnemarPValue";"3.84780125736158e-46"
"Sensitivity";"0.0565217391304348"
"Specificity";"0.994475138121547"
"Pos Pred Value";"0.764705882352942"
"Neg Pred Value";"0.768409818569904"
"Precision";"0.764705882352941"
"Recall";"0.0565217391304348"
"F1";"0.105263157894737"
"Prevalence";"0.241090146750524"
"Detection Rate";"0.0136268343815514"
"Detection Prevalence";"0.0178197064989518"
"Balanced Accuracy";"0.525498438625991"
"TP";"13"
"TN";"720"
"FP";"4"
"FN";"217"
