"Metric";"Testing_Set"
"Accuracy";"0.755765199161426"
"Kappa";"0.222077567561892"
"AccuracyLower";"0.727213509998493"
"AccuracyUpper";"0.782728225134656"
"AccuracyNull";"0.761006289308176"
"AccuracyPValue";"0.663837925050698"
"McnemarPValue";"3.72202393518453e-09"
"Sensitivity";"0.289473684210526"
"Specificity";"0.902203856749311"
"Pos Pred Value";"0.481751824817518"
"Neg Pred Value";"0.80171358629131"
"Precision";"0.481751824817518"
"Recall";"0.289473684210526"
"F1";"0.361643835616438"
"Prevalence";"0.238993710691824"
"Detection Rate";"0.0691823899371069"
"Detection Prevalence";"0.143605870020964"
"Balanced Accuracy";"0.595838770479919"
"TP";"66"
"TN";"655"
"FP";"71"
"FN";"162"
