"Metric";"Testing_Set"
"Accuracy";"0.764150943396226"
"Kappa";"0.180205779234171"
"AccuracyLower";"0.735895938260051"
"AccuracyUpper";"0.790764718985689"
"AccuracyNull";"0.761006289308176"
"AccuracyPValue";"0.427243181915788"
"McnemarPValue";"3.57949762402808e-20"
"Sensitivity";"0.201754385964912"
"Specificity";"0.940771349862259"
"Pos Pred Value";"0.51685393258427"
"Neg Pred Value";"0.789595375722543"
"Precision";"0.51685393258427"
"Recall";"0.201754385964912"
"F1";"0.290220820189274"
"Prevalence";"0.238993710691824"
"Detection Rate";"0.0482180293501048"
"Detection Prevalence";"0.0932914046121593"
"Balanced Accuracy";"0.571262867913586"
"TP";"46"
"TN";"683"
"FP";"43"
"FN";"182"
