"Metric";"Testing_Set"
"Accuracy";"0.757861635220126"
"Kappa";"0.198004236085333"
"AccuracyLower";"0.729382786061678"
"AccuracyUpper";"0.784738685402523"
"AccuracyNull";"0.761006289308176"
"AccuracyPValue";"0.607120181227749"
"McnemarPValue";"1.71836627041934e-13"
"Sensitivity";"0.245614035087719"
"Specificity";"0.918732782369146"
"Pos Pred Value";"0.48695652173913"
"Neg Pred Value";"0.794994040524434"
"Precision";"0.48695652173913"
"Recall";"0.245614035087719"
"F1";"0.326530612244898"
"Prevalence";"0.238993710691824"
"Detection Rate";"0.0587002096436059"
"Detection Prevalence";"0.120545073375262"
"Balanced Accuracy";"0.582173408728433"
"TP";"56"
"TN";"667"
"FP";"59"
"FN";"172"
