"Metric";"Testing_Set"
"Accuracy";"0.770440251572327"
"Kappa";"0.0868858334134594"
"AccuracyLower";"0.742417247047566"
"AccuracyUpper";"0.796782559233174"
"AccuracyNull";"0.758909853249476"
"AccuracyPValue";"0.214083146932678"
"McnemarPValue";"1.0493058669908e-45"
"Sensitivity";"0.0652173913043478"
"Specificity";"0.994475138121547"
"Pos Pred Value";"0.789473684210527"
"Neg Pred Value";"0.770053475935829"
"Precision";"0.789473684210526"
"Recall";"0.0652173913043478"
"F1";"0.120481927710843"
"Prevalence";"0.241090146750524"
"Detection Rate";"0.0157232704402516"
"Detection Prevalence";"0.019916142557652"
"Balanced Accuracy";"0.529846264712947"
"TP";"15"
"TN";"720"
"FP";"4"
"FN";"215"
