"Metric";"Testing_Set"
"Accuracy";"0.721174004192872"
"Kappa";"0.298862769802062"
"AccuracyLower";"0.691541526515803"
"AccuracyUpper";"0.749434077683161"
"AccuracyNull";"0.761006289308176"
"AccuracyPValue";"0.997993470744746"
"McnemarPValue";"0.000183910491839393"
"Sensitivity";"0.552631578947368"
"Specificity";"0.774104683195592"
"Pos Pred Value";"0.43448275862069"
"Neg Pred Value";"0.846385542168675"
"Precision";"0.43448275862069"
"Recall";"0.552631578947368"
"F1";"0.486486486486487"
"Prevalence";"0.238993710691824"
"Detection Rate";"0.132075471698113"
"Detection Prevalence";"0.30398322851153"
"Balanced Accuracy";"0.66336813107148"
"TP";"126"
"TN";"562"
"FP";"164"
"FN";"102"
