"Metric";"Testing_Set"
"Accuracy";"0.641509433962264"
"Kappa";"0.207571915712162"
"AccuracyLower";"0.610154452640225"
"AccuracyUpper";"0.67198766729641"
"AccuracyNull";"0.761006289308176"
"AccuracyPValue";"1"
"McnemarPValue";"3.15111960869364e-18"
"Sensitivity";"0.605263157894737"
"Specificity";"0.652892561983471"
"Pos Pred Value";"0.353846153846154"
"Neg Pred Value";"0.840425531914894"
"Precision";"0.353846153846154"
"Recall";"0.605263157894737"
"F1";"0.446601941747573"
"Prevalence";"0.238993710691824"
"Detection Rate";"0.144654088050314"
"Detection Prevalence";"0.408805031446541"
"Balanced Accuracy";"0.629077859939104"
"TP";"138"
"TN";"474"
"FP";"252"
"FN";"90"
