"Metric";"Testing_Set"
"Accuracy";"0.751572327044025"
"Kappa";"0.240491786758037"
"AccuracyLower";"0.722877573599919"
"AccuracyUpper";"0.778704677781425"
"AccuracyNull";"0.761006289308176"
"AccuracyPValue";"0.765578536586018"
"McnemarPValue";"1.80971379888452e-05"
"Sensitivity";"0.333333333333333"
"Specificity";"0.882920110192837"
"Pos Pred Value";"0.472049689440994"
"Neg Pred Value";"0.808322824716267"
"Precision";"0.472049689440994"
"Recall";"0.333333333333333"
"F1";"0.390745501285347"
"Prevalence";"0.238993710691824"
"Detection Rate";"0.079664570230608"
"Detection Prevalence";"0.168763102725367"
"Balanced Accuracy";"0.608126721763085"
"TP";"76"
"TN";"641"
"FP";"85"
"FN";"152"
