"Metric";"Testing_Set"
"Accuracy";"0.762054507337526"
"Kappa";"0.0821402232789967"
"AccuracyLower";"0.73372399225732"
"AccuracyUpper";"0.788756940352339"
"AccuracyNull";"0.761006289308176"
"AccuracyPValue";"0.487493726423534"
"McnemarPValue";"1.84247956671553e-36"
"Sensitivity";"0.0833333333333333"
"Specificity";"0.975206611570248"
"Pos Pred Value";"0.513513513513513"
"Neg Pred Value";"0.772082878953108"
"Precision";"0.513513513513513"
"Recall";"0.0833333333333333"
"F1";"0.143396226415094"
"Prevalence";"0.238993710691824"
"Detection Rate";"0.019916142557652"
"Detection Prevalence";"0.0387840670859539"
"Balanced Accuracy";"0.529269972451791"
"TP";"19"
"TN";"708"
"FP";"18"
"FN";"209"
