"Metric";"Testing_Set"
"Accuracy";"0.759958071278826"
"Kappa";"0.00246568587161983"
"AccuracyLower";"0.731552944199914"
"AccuracyUpper";"0.786748259785745"
"AccuracyNull";"0.761006289308176"
"AccuracyPValue";"0.547910647586546"
"McnemarPValue";"1.41480965730719e-49"
"Sensitivity";"0.0043859649122807"
"Specificity";"0.997245179063361"
"Pos Pred Value";"0.333333333333331"
"Neg Pred Value";"0.76130389064143"
"Precision";"0.333333333333333"
"Recall";"0.0043859649122807"
"F1";"0.00865800865800866"
"Prevalence";"0.238993710691824"
"Detection Rate";"0.0010482180293501"
"Detection Prevalence";"0.00314465408805031"
"Balanced Accuracy";"0.500815571987821"
"TP";"1"
"TN";"724"
"FP";"2"
"FN";"227"
