"Metric";"Testing_Set"
"Accuracy";"0.765199161425577"
"Kappa";"0.179165706383959"
"AccuracyLower";"0.736982250550191"
"AccuracyUpper";"0.791768267489117"
"AccuracyNull";"0.761006289308176"
"AccuracyPValue";"0.397611314750185"
"McnemarPValue";"4.46987556035316e-21"
"Sensitivity";"0.197368421052632"
"Specificity";"0.943526170798898"
"Pos Pred Value";"0.523255813953489"
"Neg Pred Value";"0.789170506912442"
"Precision";"0.523255813953488"
"Recall";"0.197368421052632"
"F1";"0.286624203821656"
"Prevalence";"0.238993710691824"
"Detection Rate";"0.0471698113207547"
"Detection Prevalence";"0.090146750524109"
"Balanced Accuracy";"0.570447295925765"
"TP";"45"
"TN";"685"
"FP";"41"
"FN";"183"
