"Metric";"Testing_Set"
"Accuracy";"0.725366876310273"
"Kappa";"0.214266852766985"
"AccuracyLower";"0.69585372633676"
"AccuracyUpper";"0.753481452079508"
"AccuracyNull";"0.761006289308176"
"AccuracyPValue";"0.995108110231262"
"McnemarPValue";"0.122466002662237"
"Sensitivity";"0.368421052631579"
"Specificity";"0.837465564738292"
"Pos Pred Value";"0.415841584158416"
"Neg Pred Value";"0.808510638297872"
"Precision";"0.415841584158416"
"Recall";"0.368421052631579"
"F1";"0.390697674418605"
"Prevalence";"0.238993710691824"
"Detection Rate";"0.0880503144654088"
"Detection Prevalence";"0.211740041928721"
"Balanced Accuracy";"0.602943308684936"
"TP";"84"
"TN";"608"
"FP";"118"
"FN";"144"
