"Metric";"Testing_Set"
"Accuracy";"0.723981900452489"
"Kappa";"0.283953896000425"
"AccuracyLower";"0.660031982925087"
"AccuracyUpper";"0.781813733332336"
"AccuracyNull";"0.755656108597285"
"AccuracyPValue";"0.87893738387405"
"McnemarPValue";"0.442355733295141"
"Sensitivity";"0.5"
"Specificity";"0.796407185628742"
"Pos Pred Value";"0.442622950819672"
"Neg Pred Value";"0.83125"
"Precision";"0.442622950819672"
"Recall";"0.5"
"F1";"0.469565217391304"
"Prevalence";"0.244343891402715"
"Detection Rate";"0.122171945701357"
"Detection Prevalence";"0.276018099547511"
"Balanced Accuracy";"0.648203592814371"
"TP";"27"
"TN";"133"
"FP";"34"
"FN";"27"
