c<C>r<532>R<TYR> 1
c<C>r<540>R<PRO> 1
c<C>r<557>R<PRO> 1.25
c<C>r<558>R<GLU> 1.28571
c<C>r<560>R<ASP> 1.8
c<C>r<561>R<GLN> 1.33333
c<C>r<569>R<LYS> 1
c<C>r<570>R<ASP> 1.4
c<C>r<571>R<PRO> 1.5
c<C>r<572>R<PRO> 1.71429
c<C>r<573>R<PHE> 1.28571
c<C>r<575>R<VAL> 1
c<C>r<579>R<PRO> 1
c<C>r<591>R<ILE> 1
c<C>r<593>R<LYS> 1
c<C>r<596>R<ASP> 1
c<C>r<598>R<GLU> 1.25
c<C>r<600>R<ALA> 1
c<C>r<601>R<CYS> 1
c<C>r<602>R<GLN> 1.75
c<C>r<603>R<PRO> 1.2
c<C>r<604>R<CYS> 1.5
c<C>r<605>R<PRO> 1.2
