c<D>r<434>a<4789>R<PRO>A<CA> 2
c<D>r<434>a<4791>R<PRO>A<O> 1
c<D>r<434>a<4792>R<PRO>A<CB> 1
c<D>r<434>a<4793>R<PRO>A<CG> 1
c<D>r<437>a<4820>R<ILE>A<CD1> 1
c<D>r<441>a<4855>R<SER>A<OG> 1
c<D>r<445>a<4887>R<GLU>A<CD> 1
c<D>r<445>a<4888>R<GLU>A<OE1> 1
c<D>r<445>a<4889>R<GLU>A<OE2> 1
c<D>r<482>a<5229>R<ARG>A<NH2> 1
c<D>r<483>a<5242>R<LEU>A<CD1> 1
c<D>r<485>a<5260>R<PRO>A<C> 2
c<D>r<485>a<5261>R<PRO>A<O> 1
c<D>r<485>a<5262>R<PRO>A<CB> 1
c<D>r<485>a<5263>R<PRO>A<CG> 1
c<D>r<486>a<5265>R<VAL>A<N> 2
c<D>r<486>a<5267>R<VAL>A<C> 2
c<D>r<486>a<5268>R<VAL>A<O> 1
c<D>r<486>a<5269>R<VAL>A<CB> 1
c<D>r<486>a<5270>R<VAL>A<CG1> 1
c<D>r<486>a<5271>R<VAL>A<CG2> 1
c<D>r<487>a<5273>R<HIS>A<N> 2
c<D>r<487>a<5274>R<HIS>A<CA> 2
c<D>r<487>a<5275>R<HIS>A<C> 2
c<D>r<487>a<5276>R<HIS>A<O> 1
c<D>r<487>a<5277>R<HIS>A<CB> 1
c<D>r<487>a<5278>R<HIS>A<CG> 2
c<D>r<487>a<5279>R<HIS>A<ND1> 1
c<D>r<487>a<5280>R<HIS>A<CD2> 2
c<D>r<487>a<5281>R<HIS>A<CE1> 1
c<D>r<487>a<5282>R<HIS>A<NE2> 1
c<D>r<488>a<5286>R<ALA>A<N> 2
c<D>r<488>a<5287>R<ALA>A<CA> 2
c<D>r<488>a<5288>R<ALA>A<C> 2
c<D>r<488>a<5289>R<ALA>A<O> 1
c<D>r<488>a<5290>R<ALA>A<CB> 1
c<D>r<489>a<5292>R<GLY>A<N> 2
c<D>r<489>a<5293>R<GLY>A<CA> 1
c<D>r<489>a<5294>R<GLY>A<C> 1
c<D>r<489>a<5295>R<GLY>A<O> 1
c<D>r<490>a<5297>R<PRO>A<N> 2
c<D>r<490>a<5298>R<PRO>A<CA> 2
c<D>r<490>a<5299>R<PRO>A<C> 2
c<D>r<490>a<5300>R<PRO>A<O> 1
c<D>r<490>a<5301>R<PRO>A<CB> 2
c<D>r<490>a<5302>R<PRO>A<CG> 2
c<D>r<490>a<5303>R<PRO>A<CD> 2
c<D>r<491>a<5304>R<ILE>A<N> 1
c<D>r<491>a<5305>R<ILE>A<CA> 1
c<D>r<491>a<5306>R<ILE>A<C> 2
c<D>r<491>a<5307>R<ILE>A<O> 1
c<D>r<491>a<5311>R<ILE>A<CD1> 1
c<D>r<492>a<5313>R<ALA>A<N> 1
c<D>r<492>a<5314>R<ALA>A<CA> 2
c<D>r<492>a<5317>R<ALA>A<CB> 1
c<D>r<493>a<5319>R<PRO>A<N> 1
c<D>r<493>a<5322>R<PRO>A<O> 1
c<D>r<493>a<5324>R<PRO>A<CG> 1
c<D>r<493>a<5325>R<PRO>A<CD> 1
c<D>r<495>a<5336>R<GLN>A<CG> 1
c<D>r<495>a<5339>R<GLN>A<NE2> 1
c<D>r<500>a<5392>R<ARG>A<CD> 1
c<D>r<521>a<5586>R<ASN>A<C> 2
c<D>r<521>a<5587>R<ASN>A<O> 1
c<D>r<521>a<5588>R<ASN>A<CB> 1
c<D>r<521>a<5589>R<ASN>A<CG> 1
c<D>r<521>a<5590>R<ASN>A<OD1> 1
c<D>r<521>a<5591>R<ASN>A<ND2> 1
c<D>r<522>a<5601>R<PRO>A<CD> 1
c<D>r<528>a<5645>R<GLU>A<OE1> 1
c<D>r<532>a<5690>R<ARG>A<CD> 1
c<D>r<532>a<5691>R<ARG>A<NE> 1
c<D>r<532>a<5692>R<ARG>A<CZ> 2
c<D>r<532>a<5693>R<ARG>A<NH1> 1
c<D>r<532>a<5694>R<ARG>A<NH2> 1
c<D>r<535>a<5728>R<ILE>A<C> 2
c<D>r<535>a<5729>R<ILE>A<O> 2
c<D>r<535>a<5732>R<ILE>A<CG2> 1
c<D>r<536>a<5735>R<LEU>A<N> 1
c<D>r<536>a<5736>R<LEU>A<CA> 2
c<D>r<536>a<5738>R<LEU>A<O> 1
c<D>r<536>a<5740>R<LEU>A<CG> 1
c<D>r<536>a<5742>R<LEU>A<CD2> 1
c<D>r<539>a<5759>R<ASN>A<CA> 2
c<D>r<539>a<5760>R<ASN>A<C> 2
c<D>r<539>a<5761>R<ASN>A<O> 2
c<D>r<539>a<5762>R<ASN>A<CB> 2
c<D>r<539>a<5763>R<ASN>A<CG> 2
c<D>r<539>a<5764>R<ASN>A<OD1> 1
c<D>r<539>a<5765>R<ASN>A<ND2> 1
c<D>r<540>a<5769>R<LYS>A<N> 2
c<D>r<540>a<5770>R<LYS>A<CA> 2
c<D>r<540>a<5773>R<LYS>A<CB> 1
c<D>r<542>a<5793>R<VAL>A<C> 2
c<D>r<542>a<5794>R<VAL>A<O> 1
c<D>r<542>a<5795>R<VAL>A<CB> 2
c<D>r<542>a<5796>R<VAL>A<CG1> 2
c<D>r<543>a<5799>R<ARG>A<N> 2
c<D>r<543>a<5800>R<ARG>A<CA> 1
c<D>r<543>a<5802>R<ARG>A<O> 1
c<D>r<543>a<5803>R<ARG>A<CB> 1
c<D>r<543>a<5805>R<ARG>A<CD> 1
c<D>r<543>a<5806>R<ARG>A<NE> 1
c<D>r<543>a<5807>R<ARG>A<CZ> 2
c<D>r<543>a<5808>R<ARG>A<NH1> 1
c<D>r<543>a<5809>R<ARG>A<NH2> 1
