c<D>r<434>R<PRO> 1.25
c<D>r<437>R<ILE> 1
c<D>r<441>R<SER> 1
c<D>r<445>R<GLU> 1
c<D>r<482>R<ARG> 1
c<D>r<483>R<LEU> 1
c<D>r<485>R<PRO> 1.25
c<D>r<486>R<VAL> 1.33333
c<D>r<487>R<HIS> 1.5
c<D>r<488>R<ALA> 1.6
c<D>r<489>R<GLY> 1.25
c<D>r<490>R<PRO> 1.85714
c<D>r<491>R<ILE> 1.2
c<D>r<492>R<ALA> 1.33333
c<D>r<493>R<PRO> 1
c<D>r<495>R<GLN> 1
c<D>r<500>R<ARG> 1
c<D>r<521>R<ASN> 1.16667
c<D>r<522>R<PRO> 1
c<D>r<528>R<GLU> 1
c<D>r<532>R<ARG> 1.2
c<D>r<535>R<ILE> 1.66667
c<D>r<536>R<LEU> 1.2
c<D>r<539>R<ASN> 1.71429
c<D>r<540>R<LYS> 1.66667
c<D>r<542>R<VAL> 1.75
c<D>r<543>R<ARG> 1.22222
