c<D>r<1>R<LYS> 1.33333
c<D>r<25>R<SER> 1.25
c<D>r<26>R<ASP> 1.66667
c<D>r<27>R<ARG> 1.1
c<D>r<28>R<GLY> 1
c<D>r<29>R<SER> 1
c<D>r<30>R<GLN> 1.28571
c<D>r<31>R<SER> 1.5
c<D>r<33>R<PHE> 1.83333
c<D>r<35>R<TYR> 1.57143
c<D>r<37>R<GLN> 1
c<D>r<39>R<SER> 1.25
c<D>r<40>R<GLY> 1
c<D>r<41>R<LYS> 1
c<D>r<42>R<SER> 1.5
c<D>r<43>R<PRO> 1.6
c<D>r<45>R<LEU> 1.25
c<D>r<48>R<SER> 1.5
c<D>r<50>R<TYR> 1.4
c<D>r<51>R<SER> 1
c<D>r<52>R<ASN> 1
c<D>r<68>R<LYS> 1.2
c<D>r<89>R<LEU> 1
c<D>r<93>R<THR> 2
c<D>r<98>R<THR> 1.4
c<D>r<99>R<ASP> 1.625
c<D>r<100>R<SER> 1.33333
c<D>r<101>R<TRP> 1.35714
c<D>r<102>R<GLY> 1.5
c<D>r<103>R<LYS> 1.14286
c<D>r<104>R<LEU> 1
c<D>r<106>R<PHE> 1.42857
c<D>r<107>R<GLY> 1
c<D>r<108>R<ALA> 1
