c<D>r<27>a<3349>R<ASP>A<OD1> 1
c<D>r<27>a<3350>R<ASP>A<OD2> 1
c<D>r<28>a<3351>R<ARG>A<N> 1
c<D>r<28>a<3353>R<ARG>A<C> 2
c<D>r<28>a<3354>R<ARG>A<O> 1
c<D>r<28>a<3355>R<ARG>A<CB> 1
c<D>r<28>a<3358>R<ARG>A<NE> 1
c<D>r<28>a<3361>R<ARG>A<NH2> 1
c<D>r<29>a<3362>R<GLY>A<N> 2
c<D>r<29>a<3363>R<GLY>A<CA> 1
c<D>r<29>a<3364>R<GLY>A<C> 2
c<D>r<29>a<3365>R<GLY>A<O> 1
c<D>r<30>a<3369>R<SER>A<O> 1
c<D>r<31>a<3373>R<GLN>A<CA> 2
c<D>r<31>a<3374>R<GLN>A<C> 2
c<D>r<31>a<3375>R<GLN>A<O> 1
c<D>r<31>a<3376>R<GLN>A<CB> 1
c<D>r<31>a<3377>R<GLN>A<CG> 1
c<D>r<31>a<3378>R<GLN>A<CD> 1
c<D>r<31>a<3379>R<GLN>A<OE1> 1
c<D>r<31>a<3380>R<GLN>A<NE2> 1
c<D>r<32>a<3385>R<SER>A<CB> 2
c<D>r<32>a<3386>R<SER>A<OG> 2
c<D>r<34>a<3404>R<PHE>A<CD1> 2
c<D>r<34>a<3406>R<PHE>A<CE1> 3
c<D>r<34>a<3408>R<PHE>A<CZ> 2
c<D>r<36>a<3428>R<TYR>A<CG> 2
c<D>r<36>a<3429>R<TYR>A<CD1> 2
c<D>r<36>a<3430>R<TYR>A<CD2> 1
c<D>r<36>a<3431>R<TYR>A<CE1> 3
c<D>r<36>a<3432>R<TYR>A<CE2> 1
c<D>r<36>a<3433>R<TYR>A<CZ> 2
c<D>r<36>a<3434>R<TYR>A<OH> 2
c<D>r<38>a<3449>R<GLN>A<O> 2
c<D>r<38>a<3451>R<GLN>A<CG> 2
c<D>r<38>a<3452>R<GLN>A<CD> 2
c<D>r<38>a<3453>R<GLN>A<OE1> 1
c<D>r<38>a<3454>R<GLN>A<NE2> 2
c<D>r<39>a<3457>R<TYR>A<C> 2
c<D>r<39>a<3458>R<TYR>A<O> 2
c<D>r<40>a<3467>R<SER>A<N> 1
c<D>r<40>a<3468>R<SER>A<CA> 2
c<D>r<40>a<3471>R<SER>A<CB> 1
c<D>r<40>a<3472>R<SER>A<OG> 1
c<D>r<41>a<3473>R<GLY>A<N> 1
c<D>r<41>a<3474>R<GLY>A<CA> 1
c<D>r<41>a<3476>R<GLY>A<O> 1
c<D>r<42>a<3478>R<LYS>A<CA> 1
c<D>r<42>a<3479>R<LYS>A<C> 2
c<D>r<42>a<3480>R<LYS>A<O> 2
c<D>r<43>a<3486>R<SER>A<N> 1
c<D>r<43>a<3487>R<SER>A<CA> 2
c<D>r<43>a<3490>R<SER>A<CB> 2
c<D>r<43>a<3491>R<SER>A<OG> 1
c<D>r<44>a<3495>R<PRO>A<O> 1
c<D>r<44>a<3496>R<PRO>A<CB> 2
c<D>r<44>a<3497>R<PRO>A<CG> 2
c<D>r<44>a<3498>R<PRO>A<CD> 2
c<D>r<46>a<3508>R<LEU>A<N> 1
c<D>r<46>a<3512>R<LEU>A<CB> 1
c<D>r<46>a<3514>R<LEU>A<CD1> 2
c<D>r<46>a<3515>R<LEU>A<CD2> 1
c<D>r<49>a<3536>R<PHE>A<CB> 2
c<D>r<49>a<3537>R<PHE>A<CG> 3
c<D>r<49>a<3538>R<PHE>A<CD1> 2
c<D>r<49>a<3539>R<PHE>A<CD2> 2
c<D>r<49>a<3540>R<PHE>A<CE1> 1
c<D>r<49>a<3541>R<PHE>A<CE2> 1
c<D>r<49>a<3542>R<PHE>A<CZ> 1
c<D>r<51>a<3554>R<TYR>A<O> 1
c<D>r<51>a<3555>R<TYR>A<CB> 2
c<D>r<51>a<3556>R<TYR>A<CG> 2
c<D>r<51>a<3557>R<TYR>A<CD1> 2
c<D>r<51>a<3558>R<TYR>A<CD2> 1
c<D>r<51>a<3559>R<TYR>A<CE1> 2
c<D>r<51>a<3560>R<TYR>A<CE2> 1
c<D>r<51>a<3561>R<TYR>A<CZ> 2
c<D>r<51>a<3562>R<TYR>A<OH> 1
c<D>r<52>a<3567>R<SER>A<CB> 1
c<D>r<67>a<3682>R<LYS>A<CB> 1
c<D>r<67>a<3684>R<LYS>A<CD> 1
c<D>r<67>a<3685>R<LYS>A<CE> 1
c<D>r<67>a<3686>R<LYS>A<NZ> 1
c<D>r<86>a<3826>R<THR>A<CB> 2
c<D>r<86>a<3827>R<THR>A<OG1> 1
c<D>r<86>a<3828>R<THR>A<CG2> 1
c<D>r<88>a<3846>R<LEU>A<CG> 3
c<D>r<88>a<3847>R<LEU>A<CD1> 2
c<D>r<88>a<3848>R<LEU>A<CD2> 3
c<D>r<92>a<3870>R<ASN>A<O> 1
c<D>r<92>a<3871>R<ASN>A<CB> 2
c<D>r<92>a<3872>R<ASN>A<CG> 1
c<D>r<92>a<3873>R<ASN>A<OD1> 1
c<D>r<92>a<3874>R<ASN>A<ND2> 1
c<D>r<93>a<3881>R<VAL>A<CG2> 1
c<D>r<94>a<3882>R<ALA>A<N> 1
c<D>r<94>a<3883>R<ALA>A<CA> 1
c<D>r<94>a<3884>R<ALA>A<C> 2
c<D>r<94>a<3885>R<ALA>A<O> 2
c<D>r<94>a<3886>R<ALA>A<CB> 1
c<D>r<95>a<3887>R<GLY>A<N> 1
c<D>r<95>a<3888>R<GLY>A<CA> 1
c<D>r<95>a<3889>R<GLY>A<C> 1
c<D>r<95>a<3890>R<GLY>A<O> 1
c<D>r<96>a<3892>R<LYS>A<CA> 1
c<D>r<96>a<3895>R<LYS>A<CB> 1
c<D>r<96>a<3896>R<LYS>A<CG> 2
c<D>r<96>a<3897>R<LYS>A<CD> 1
c<D>r<96>a<3898>R<LYS>A<CE> 1
c<D>r<96>a<3899>R<LYS>A<NZ> 1
c<D>r<97>a<3900>R<SER>A<N> 1
c<D>r<97>a<3901>R<SER>A<CA> 2
c<D>r<97>a<3903>R<SER>A<O> 1
c<D>r<97>a<3904>R<SER>A<CB> 2
c<D>r<97>a<3905>R<SER>A<OG> 1
c<D>r<99>a<3913>R<PHE>A<N> 1
c<D>r<99>a<3916>R<PHE>A<O> 1
c<D>r<99>a<3917>R<PHE>A<CB> 2
c<D>r<99>a<3918>R<PHE>A<CG> 2
c<D>r<99>a<3919>R<PHE>A<CD1> 1
c<D>r<99>a<3920>R<PHE>A<CD2> 2
c<D>r<99>a<3921>R<PHE>A<CE1> 2
c<D>r<99>a<3922>R<PHE>A<CE2> 2
c<D>r<99>a<3923>R<PHE>A<CZ> 2
c<D>r<100>a<3927>R<GLY>A<O> 2
c<D>r<101>a<3929>R<ASP>A<CA> 2
c<D>r<101>a<3930>R<ASP>A<C> 2
c<D>r<101>a<3931>R<ASP>A<O> 1
c<D>r<101>a<3932>R<ASP>A<CB> 1
c<D>r<101>a<3933>R<ASP>A<CG> 1
c<D>r<101>a<3934>R<ASP>A<OD1> 1
c<D>r<101>a<3935>R<ASP>A<OD2> 1
c<D>r<102>a<3936>R<GLY>A<N> 2
c<D>r<102>a<3937>R<GLY>A<CA> 2
c<D>r<104>a<3952>R<THR>A<OG1> 1
c<D>r<115>a<4035>R<ASP>A<O> 2
c<D>r<115>a<4038>R<ASP>A<OD1> 1
c<D>r<115>a<4039>R<ASP>A<OD2> 1
c<D>r<117>a<4051>R<ALA>A<CB> 2
c<D>r<119>a<4060>R<TYR>A<CA> 1
c<D>r<119>a<4063>R<TYR>A<CB> 1
c<D>r<119>a<4064>R<TYR>A<CG> 2
c<D>r<119>a<4065>R<TYR>A<CD1> 1
c<D>r<119>a<4066>R<TYR>A<CD2> 2
c<D>r<119>a<4067>R<TYR>A<CE1> 1
c<D>r<119>a<4068>R<TYR>A<CE2> 1
c<D>r<119>a<4069>R<TYR>A<CZ> 2
c<D>r<119>a<4070>R<TYR>A<OH> 1
c<D>r<120>a<4071>R<GLN>A<N> 1
c<D>r<120>a<4074>R<GLN>A<O> 1
c<D>r<120>a<4076>R<GLN>A<CG> 1
c<D>r<120>a<4078>R<GLN>A<OE1> 1
c<D>r<121>a<4081>R<LEU>A<CA> 2
c<D>r<121>a<4082>R<LEU>A<C> 2
c<D>r<121>a<4083>R<LEU>A<O> 2
c<D>r<121>a<4084>R<LEU>A<CB> 1
c<D>r<121>a<4085>R<LEU>A<CG> 2
c<D>r<121>a<4086>R<LEU>A<CD1> 1
c<D>r<121>a<4087>R<LEU>A<CD2> 1
c<D>r<122>a<4088>R<ARG>A<N> 1
c<D>r<122>a<4090>R<ARG>A<C> 2
c<D>r<122>a<4091>R<ARG>A<O> 2
c<D>r<122>a<4092>R<ARG>A<CB> 1
c<D>r<122>a<4093>R<ARG>A<CG> 1
c<D>r<122>a<4098>R<ARG>A<NH2> 1
c<D>r<123>a<4099>R<ASP>A<N> 2
c<D>r<123>a<4100>R<ASP>A<CA> 2
c<D>r<123>a<4103>R<ASP>A<CB> 2
c<D>r<123>a<4104>R<ASP>A<CG> 2
c<D>r<123>a<4105>R<ASP>A<OD1> 1
c<D>r<123>a<4106>R<ASP>A<OD2> 1
c<D>r<124>a<4107>R<SER>A<N> 2
c<D>r<124>a<4108>R<SER>A<CA> 1
c<D>r<124>a<4110>R<SER>A<O> 1
c<D>r<124>a<4111>R<SER>A<CB> 1
c<D>r<124>a<4112>R<SER>A<OG> 1
c<D>r<125>a<4119>R<LYS>A<CD> 1
c<D>r<125>a<4121>R<LYS>A<NZ> 1
c<D>r<129>a<4144>R<LYS>A<C> 1
c<D>r<129>a<4145>R<LYS>A<O> 2
c<D>r<129>a<4146>R<LYS>A<CB> 1
c<D>r<130>a<4151>R<SER>A<N> 1
c<D>r<130>a<4152>R<SER>A<CA> 2
c<D>r<130>a<4153>R<SER>A<C> 2
c<D>r<130>a<4154>R<SER>A<O> 1
c<D>r<131>a<4157>R<VAL>A<N> 2
c<D>r<131>a<4161>R<VAL>A<CB> 1
c<D>r<131>a<4162>R<VAL>A<CG1> 1
c<D>r<131>a<4163>R<VAL>A<CG2> 1
c<D>r<133>a<4174>R<LEU>A<CB> 1
c<D>r<133>a<4176>R<LEU>A<CD1> 1
c<D>r<133>a<4177>R<LEU>A<CD2> 1
c<D>r<135>a<4194>R<THR>A<OG1> 1
c<D>r<135>a<4195>R<THR>A<CG2> 1
c<D>r<136>a<4201>R<ASP>A<CG> 2
c<D>r<136>a<4202>R<ASP>A<OD1> 2
c<D>r<136>a<4203>R<ASP>A<OD2> 1
c<D>r<149>a<4301>R<SER>A<O> 1
c<D>r<149>a<4302>R<SER>A<CB> 1
c<D>r<149>a<4303>R<SER>A<OG> 1
c<D>r<152>a<4320>R<TYR>A<CA> 1
c<D>r<152>a<4323>R<TYR>A<CB> 2
c<D>r<152>a<4325>R<TYR>A<CD1> 1
c<D>r<152>a<4327>R<TYR>A<CE1> 1
c<D>r<152>a<4328>R<TYR>A<CE2> 1
c<D>r<152>a<4329>R<TYR>A<CZ> 1
c<D>r<152>a<4330>R<TYR>A<OH> 1
c<D>r<153>a<4331>R<ILE>A<N> 1
c<D>r<153>a<4333>R<ILE>A<C> 2
c<D>r<153>a<4334>R<ILE>A<O> 1
c<D>r<154>a<4339>R<THR>A<N> 2
c<D>r<154>a<4340>R<THR>A<CA> 1
c<D>r<154>a<4343>R<THR>A<CB> 1
c<D>r<154>a<4344>R<THR>A<OG1> 2
c<D>r<154>a<4345>R<THR>A<CG2> 1
c<D>r<155>a<4346>R<ASP>A<N> 1
c<D>r<155>a<4349>R<ASP>A<O> 1
c<D>r<155>a<4350>R<ASP>A<CB> 1
c<D>r<155>a<4352>R<ASP>A<OD1> 1
c<D>r<156>a<4357>R<LYS>A<O> 1
c<D>r<157>a<4363>R<CYS>A<N> 2
c<D>r<157>a<4364>R<CYS>A<CA> 1
c<D>r<157>a<4365>R<CYS>A<C> 2
c<D>r<157>a<4366>R<CYS>A<O> 1
c<D>r<157>a<4367>R<CYS>A<CB> 2
c<D>r<157>a<4368>R<CYS>A<SG> 1
c<D>r<158>a<4369>R<VAL>A<N> 1
c<D>r<158>a<4371>R<VAL>A<C> 2
c<D>r<158>a<4372>R<VAL>A<O> 1
c<D>r<159>a<4376>R<LEU>A<N> 2
c<D>r<159>a<4377>R<LEU>A<CA> 2
c<D>r<159>a<4380>R<LEU>A<CB> 1
c<D>r<159>a<4382>R<LEU>A<CD1> 2
c<D>r<159>a<4383>R<LEU>A<CD2> 1
c<D>r<160>a<4384>R<ASP>A<N> 2
c<D>r<160>a<4386>R<ASP>A<C> 2
c<D>r<160>a<4387>R<ASP>A<O> 1
c<D>r<160>a<4388>R<ASP>A<CB> 1
c<D>r<160>a<4389>R<ASP>A<CG> 2
c<D>r<160>a<4390>R<ASP>A<OD1> 1
c<D>r<160>a<4391>R<ASP>A<OD2> 1
c<D>r<161>a<4395>R<MET>A<O> 2
c<D>r<162>a<4401>R<ARG>A<CA> 1
c<D>r<162>a<4402>R<ARG>A<C> 1
c<D>r<162>a<4404>R<ARG>A<CB> 1
c<D>r<162>a<4407>R<ARG>A<NE> 1
c<D>r<162>a<4408>R<ARG>A<CZ> 1
c<D>r<162>a<4409>R<ARG>A<NH1> 1
c<D>r<162>a<4410>R<ARG>A<NH2> 1
c<D>r<163>a<4411>R<SER>A<N> 1
c<D>r<164>a<4423>R<MET>A<SD> 1
c<D>r<164>a<4424>R<MET>A<CE> 1
c<D>r<166>a<4437>R<PHE>A<CB> 1
c<D>r<166>a<4438>R<PHE>A<CG> 2
c<D>r<166>a<4439>R<PHE>A<CD1> 1
c<D>r<166>a<4440>R<PHE>A<CD2> 2
c<D>r<166>a<4441>R<PHE>A<CE1> 1
c<D>r<166>a<4442>R<PHE>A<CE2> 2
c<D>r<166>a<4443>R<PHE>A<CZ> 1
c<D>r<168>a<4457>R<SER>A<CB> 2
c<D>r<168>a<4458>R<SER>A<OG> 2
c<D>r<170>a<4469>R<SER>A<C> 3
c<D>r<170>a<4470>R<SER>A<O> 2
c<D>r<170>a<4471>R<SER>A<CB> 2
c<D>r<170>a<4472>R<SER>A<OG> 1
c<D>r<171>a<4473>R<ALA>A<N> 2
c<D>r<171>a<4474>R<ALA>A<CA> 2
c<D>r<171>a<4475>R<ALA>A<C> 2
c<D>r<172>a<4478>R<VAL>A<N> 2
c<D>r<172>a<4482>R<VAL>A<CB> 2
c<D>r<172>a<4483>R<VAL>A<CG1> 1
c<D>r<172>a<4484>R<VAL>A<CG2> 1
c<D>r<174>a<4494>R<TRP>A<CB> 1
c<D>r<174>a<4495>R<TRP>A<CG> 1
c<D>r<174>a<4496>R<TRP>A<CD1> 1
c<D>r<174>a<4497>R<TRP>A<CD2> 2
c<D>r<174>a<4498>R<TRP>A<NE1> 1
c<D>r<174>a<4499>R<TRP>A<CE2> 2
c<D>r<174>a<4500>R<TRP>A<CE3> 2
c<D>r<174>a<4501>R<TRP>A<CZ2> 1
c<D>r<174>a<4502>R<TRP>A<CZ3> 2
c<D>r<174>a<4503>R<TRP>A<CH2> 1
c<D>r<192>a<4634>R<PRO>A<CB> 1
c<D>r<192>a<4635>R<PRO>A<CG> 1
c<D>r<194>a<4650>R<ASP>A<CB> 1
c<D>r<194>a<4651>R<ASP>A<CG> 1
c<D>r<194>a<4652>R<ASP>A<OD1> 1
c<D>r<194>a<4653>R<ASP>A<OD2> 1
c<D>r<195>a<4654>R<THR>A<N> 1
c<D>r<195>a<4655>R<THR>A<CA> 1
c<D>r<195>a<4659>R<THR>A<OG1> 1
