c<D>r<27>R<ASP> 1
c<D>r<28>R<ARG> 1.16667
c<D>r<29>R<GLY> 1.5
c<D>r<30>R<SER> 1
c<D>r<31>R<GLN> 1.25
c<D>r<32>R<SER> 2
c<D>r<34>R<PHE> 2.33333
c<D>r<36>R<TYR> 1.85714
c<D>r<38>R<GLN> 1.8
c<D>r<39>R<TYR> 2
c<D>r<40>R<SER> 1.25
c<D>r<41>R<GLY> 1
c<D>r<42>R<LYS> 1.66667
c<D>r<43>R<SER> 1.5
c<D>r<44>R<PRO> 1.75
c<D>r<46>R<LEU> 1.25
c<D>r<49>R<PHE> 1.71429
c<D>r<51>R<TYR> 1.55556
c<D>r<52>R<SER> 1
c<D>r<67>R<LYS> 1
c<D>r<86>R<THR> 1.33333
c<D>r<88>R<LEU> 2.66667
c<D>r<92>R<ASN> 1.2
c<D>r<93>R<VAL> 1
c<D>r<94>R<ALA> 1.4
c<D>r<95>R<GLY> 1
c<D>r<96>R<LYS> 1.16667
c<D>r<97>R<SER> 1.4
c<D>r<99>R<PHE> 1.66667
c<D>r<100>R<GLY> 2
c<D>r<101>R<ASP> 1.28571
c<D>r<102>R<GLY> 2
c<D>r<104>R<THR> 1
c<D>r<115>R<ASP> 1.33333
c<D>r<117>R<ALA> 2
c<D>r<119>R<TYR> 1.33333
c<D>r<120>R<GLN> 1
c<D>r<121>R<LEU> 1.57143
c<D>r<122>R<ARG> 1.33333
c<D>r<123>R<ASP> 1.66667
c<D>r<124>R<SER> 1.2
c<D>r<125>R<LYS> 1
c<D>r<129>R<LYS> 1.33333
c<D>r<130>R<SER> 1.5
c<D>r<131>R<VAL> 1.25
c<D>r<133>R<LEU> 1
c<D>r<135>R<THR> 1
c<D>r<136>R<ASP> 1.66667
c<D>r<149>R<SER> 1
c<D>r<152>R<TYR> 1.14286
c<D>r<153>R<ILE> 1.33333
c<D>r<154>R<THR> 1.4
c<D>r<155>R<ASP> 1
c<D>r<156>R<LYS> 1
c<D>r<157>R<CYS> 1.5
c<D>r<158>R<VAL> 1.33333
c<D>r<159>R<LEU> 1.6
c<D>r<160>R<ASP> 1.42857
c<D>r<161>R<MET> 2
c<D>r<162>R<ARG> 1
c<D>r<163>R<SER> 1
c<D>r<164>R<MET> 1
c<D>r<166>R<PHE> 1.42857
c<D>r<168>R<SER> 2
c<D>r<170>R<SER> 2
c<D>r<171>R<ALA> 2
c<D>r<172>R<VAL> 1.5
c<D>r<174>R<TRP> 1.4
c<D>r<192>R<PRO> 1
c<D>r<194>R<ASP> 1
c<D>r<195>R<THR> 1
