c<P>r<5>a<452>R<GLN>A<N> 1
c<P>r<5>a<453>R<GLN>A<CA> 2
c<P>r<5>a<454>R<GLN>A<C> 2
c<P>r<5>a<455>R<GLN>A<O> 1
c<P>r<5>a<456>R<GLN>A<CB> 1
c<P>r<5>a<457>R<GLN>A<CG> 1
c<P>r<6>a<461>R<THR>A<N> 2
c<P>r<6>a<462>R<THR>A<CA> 2
c<P>r<6>a<463>R<THR>A<C> 2
c<P>r<6>a<464>R<THR>A<O> 2
c<P>r<6>a<465>R<THR>A<CB> 1
c<P>r<6>a<466>R<THR>A<OG1> 1
c<P>r<6>a<467>R<THR>A<CG2> 1
c<P>r<7>a<468>R<ALA>A<N> 2
c<P>r<7>a<469>R<ALA>A<CA> 1
c<P>r<7>a<470>R<ALA>A<C> 1
c<P>r<7>a<471>R<ALA>A<O> 2
c<P>r<7>a<472>R<ALA>A<CB> 2
c<P>r<8>a<473>R<ARG>A<N> 1
c<P>r<8>a<474>R<ARG>A<CA> 2
c<P>r<8>a<475>R<ARG>A<C> 2
c<P>r<8>a<476>R<ARG>A<O> 2
c<P>r<8>a<477>R<ARG>A<CB> 1
c<P>r<8>a<478>R<ARG>A<CG> 1
c<P>r<8>a<479>R<ARG>A<CD> 1
c<P>r<8>a<481>R<ARG>A<CZ> 1
c<P>r<8>a<482>R<ARG>A<NH1> 1
c<P>r<9>a<484>R<M3L>A<N> 2
c<P>r<9>a<485>R<M3L>A<CA> 2
c<P>r<9>a<486>R<M3L>A<CB> 1
c<P>r<9>a<487>R<M3L>A<CG> 1
c<P>r<9>a<488>R<M3L>A<CD> 1
c<P>r<9>a<489>R<M3L>A<CE> 2
c<P>r<9>a<490>R<M3L>A<NZ> 2
c<P>r<9>a<491>R<M3L>A<C> 2
c<P>r<9>a<492>R<M3L>A<O> 1
c<P>r<9>a<493>R<M3L>A<CM1> 1
c<P>r<9>a<494>R<M3L>A<CM2> 1
c<P>r<9>a<495>R<M3L>A<CM3> 1
c<P>r<10>a<496>R<SER>A<N> 2
c<P>r<10>a<497>R<SER>A<CA> 1
c<P>r<10>a<499>R<SER>A<O> 1
c<P>r<10>a<500>R<SER>A<CB> 1
c<P>r<10>a<501>R<SER>A<OG> 1
