"The table details the residue variety in % for each position in the query sequence."
"Each column shows the % for that amino-acid, found in position ('pos') in the MSA."
"In case there are residues which are not a standard amino-acid in the MSA, they are represented under column 'OTHER'"

pos,A,C,D,E,F,G,H,I,K,L,M,N,P,Q,R,S,T,V,W,Y,OTHER,MAX AA,ConSurf Grade
1,,,,,,,,,95.833,,,,,,4.167,,,,,,,K 95.833,8
2,2.941,,,,,73.529,,,,,,14.706,2.941,,,5.882,,,,,,G 73.529,2
3,,,2.174,2.174,,8.696,,,,,,,,63.043,,15.217,6.522,2.174,,,,Q 63.043,4
4,3.030,4.545,,,9.091,,,12.121,,39.394,1.515,,3.030,1.515,1.515,3.030,3.030,16.667,1.515,,,L 39.394,1
5,,,11.538,,,,1.282,,8.974,6.410,3.846,5.128,2.564,25.641,1.282,14.103,15.385,3.846,,,,Q 25.641,1
6,,,,,95.294,,,1.176,,1.176,,,,,,,,,,2.353,,F 95.294,8
7,1.163,,25.581,60.465,,,,1.163,,1.163,,3.488,,3.488,,1.163,1.163,1.163,,,,E 60.465,5
8,1.136,,48.864,27.273,,2.273,,,7.955,,,1.136,,1.136,3.409,1.136,5.682,,,,,D 48.864,2
9,2.273,,,17.045,,,2.273,,52.273,,,1.136,,9.091,10.227,1.136,,,,4.545,,K 52.273,5
10,,1.136,,,,,,,,3.409,,,,,,,,,95.455,,,W 95.455,8
11,1.136,,9.091,6.818,,,3.409,1.136,2.273,1.136,1.136,1.136,61.364,1.136,,1.136,3.409,5.682,,,,P 61.364,4
12,6.818,9.091,,14.773,1.136,3.409,3.409,,19.318,6.818,,2.273,,2.273,2.273,17.045,3.409,2.273,,5.682,,K 19.318,1
13,18.280,,,,,,,7.527,,3.226,62.366,,,,,,,8.602,,,,M 62.366,8
14,1.064,,1.064,6.383,,,9.574,,8.511,4.255,,3.191,,4.255,61.702,,,,,,,R 61.702,6
15,1.042,1.042,3.125,5.208,,2.083,,,2.083,4.167,,3.125,66.667,1.042,1.042,6.250,2.083,1.042,,,,P 66.667,3
16,1.042,1.042,,,,,2.083,46.875,,1.042,1.042,,,1.042,,1.042,36.458,8.333,,,,I 46.875,6
17,1.042,,,,,,,33.333,,3.125,,,,,,2.083,1.042,59.375,,,,V 59.375,7
18,,,,,,,5.208,5.208,3.125,58.333,,6.250,,2.083,6.250,1.042,,12.500,,,,L 58.333,6
19,7.292,,4.167,,1.042,,,,69.792,,1.042,1.042,,1.042,7.292,7.292,,,,,,K 69.792,7
20,,,,,3.125,,,9.375,,86.458,,,,,,,,1.042,,,,L 86.458,8
21,,,,,,1.042,,2.083,,92.708,4.167,,,,,,,,,,,L 92.708,9
22,,,4.167,2.083,,,11.458,,23.958,1.042,,12.500,,10.417,25.000,1.042,3.125,,,5.208,,R 25.000,4
23,,,,,,2.083,,2.083,,,6.250,,,86.458,3.125,,,,,,,Q 86.458,8
24,,,5.208,64.583,,,,,12.500,1.042,,,,13.542,3.125,,,,,,,E 64.583,6
25,10.526,,4.211,2.105,,3.158,4.211,,,,,10.526,33.684,,3.158,21.053,7.368,,,,,P 33.684,1
26,,,,,1.053,,,6.316,,1.053,,,,,,,,90.526,,1.053,,V 90.526,9
27,,1.053,1.053,,,,,,1.053,1.053,,1.053,5.263,,,36.842,52.632,,,,,T 52.632,5
28,,,,,,,4.211,1.053,15.789,1.053,1.053,2.105,11.579,28.421,28.421,,6.316,,,,,QR 28.421,4
29,30.526,,4.211,1.053,1.053,6.316,3.158,,1.053,5.263,,8.421,4.211,15.789,1.053,4.211,9.474,4.211,,,,A 30.526,1
30,3.158,,3.158,75.789,,,,,1.053,,,1.053,,11.579,4.211,,,,,,,E 75.789,7
31,,,,,,,,,,,,,,,,,,,100.000,,,W 100.000,9
32,,1.031,,,4.124,,14.433,,,,,,,74.227,3.093,,,3.093,,,,Q 74.227,7
33,,,58.333,21.875,,5.208,,,3.125,,,7.292,,1.042,,1.042,1.042,,,1.042,,D 58.333,4
34,,,,,2.083,,,5.208,,90.625,2.083,,,,,,,,,,,L 90.625,8
35,,,,,94.792,,,1.042,,3.125,,1.042,,,,,,,,,,F 94.792,9
36,6.250,3.125,,4.167,5.208,1.042,2.083,,,1.042,2.083,1.042,,1.042,,12.500,1.042,1.042,27.083,31.250,,Y 31.250,2
37,12.371,,27.835,2.062,,,4.124,7.216,,8.247,,6.186,,,,24.742,4.124,,,3.093,,D 27.835,3
38,,,,,,,,16.495,,1.031,1.031,,,,,,,81.443,,,,V 81.443,8
39,,,,,5.155,,72.165,,,1.031,,,,1.031,1.031,,,,,19.588,,H 72.165,7
40,9.677,,,2.151,,,1.075,1.075,13.978,16.129,2.151,8.602,,8.602,7.527,21.505,3.226,4.301,,,,S 21.505,2
41,2.062,,,,,,,29.897,,,,,,,,,1.031,67.010,,,,V 67.010,9
42,2.062,76.289,,,,,2.062,5.155,,1.031,,1.031,,,,4.124,6.186,1.031,,1.031,,C 76.289,6
43,3.125,,,,,,,2.083,,56.250,5.208,3.125,,1.042,,14.583,9.375,5.208,,,,L 56.250,5
44,,3.191,,,,1.064,,,,,,,,,,,,,94.681,1.064,,W 94.681,8
45,,,68.750,4.167,1.042,,3.125,6.250,1.042,1.042,,2.083,,2.083,,,,10.417,,,,D 68.750,6
46,,,39.362,54.255,,,,,,,,2.128,1.064,,,1.064,1.064,1.064,,,,E 54.255,4
47,,,10.753,6.452,,4.301,,,60.215,,,3.226,1.075,2.151,4.301,6.452,1.075,,,,,K 60.215,5
48,6.250,1.042,,,,87.500,,,1.042,,,,,,,4.167,,,,,,G 87.500,7
49,10.417,3.125,,,,5.208,4.167,1.042,4.167,,,1.042,54.167,1.042,2.083,8.333,2.083,2.083,,1.042,,P 54.167,1
50,10.417,,15.625,10.417,1.042,3.125,2.083,2.083,3.125,4.167,1.042,3.125,18.750,8.333,2.083,7.292,2.083,3.125,,2.083,,P 18.750,1
51,,,,4.167,,,2.083,,72.917,3.125,6.250,,,3.125,6.250,2.083,,,,,,K 72.917,6
52,1.042,,,,,,,28.125,,26.042,10.417,,,,,,1.042,33.333,,,,V 33.333,4
53,,,1.042,,4.167,,16.667,1.042,8.333,5.208,,5.208,,5.208,30.208,,1.042,2.083,2.083,17.708,,R 30.208,1
54,5.155,,29.897,9.278,,2.062,1.031,,18.557,2.062,,5.155,,12.371,7.216,2.062,4.124,1.031,,,,D 29.897,1
55,53.608,3.093,,5.155,1.031,,5.155,7.216,2.062,1.031,,1.031,,,3.093,12.371,4.124,,,1.031,,A 53.608,6
56,,,,,,,,2.062,,96.907,,,,,,,,1.031,,,,L 96.907,9
57,,,4.124,9.278,1.031,,8.247,,31.959,1.031,2.062,3.093,,25.773,3.093,,10.309,,,,,K 31.959,2
58,3.093,2.062,22.680,39.175,1.031,,2.062,1.031,3.093,2.062,,4.124,,5.155,4.124,2.062,4.124,2.062,,2.062,,E 39.175,1
59,,1.031,60.825,17.526,,,1.031,,1.031,1.031,1.031,6.186,,1.031,,5.155,1.031,3.093,,,,D 60.825,6
60,,1.031,,,4.124,,,81.443,,,,,,,,,,13.402,,,,I 81.443,8
61,3.093,,1.031,,2.062,2.062,6.186,1.031,6.186,30.928,18.557,7.216,,,2.062,7.216,3.093,9.278,,,,L 30.928,3
62,5.155,,30.928,24.742,,2.062,,5.155,,1.031,1.031,7.216,,6.186,5.155,7.216,2.062,1.031,1.031,,,D 30.928,1
63,5.155,,,1.031,61.856,,1.031,1.031,,,,1.031,,,,1.031,2.062,,,25.773,,F 61.856,7
64,,,,,,,,76.289,,1.031,,,,,,,3.093,19.588,,,,I 76.289,8
65,3.093,,2.062,2.062,,1.031,3.093,,38.144,7.216,,3.093,1.031,6.186,13.402,8.247,5.155,4.124,,2.062,,K 38.144,1
66,5.155,,1.031,13.402,,4.124,3.093,4.124,6.186,5.155,1.031,2.062,,46.392,5.155,1.031,1.031,1.031,,,,Q 46.392,1
67,80.412,,,,,1.031,,3.093,,,,,,,,6.186,1.031,7.216,1.031,,,A 80.412,8
68,,,,10.309,,,2.062,,5.155,1.031,,3.093,,68.041,3.093,5.155,1.031,,,1.031,,Q 68.041,6
69,12.500,,2.083,10.417,,1.042,,3.125,12.500,1.042,,1.042,,28.125,8.333,12.500,5.208,2.083,,,,Q 28.125,1
70,,,,,,1.020,,,4.082,1.020,,2.041,,1.020,87.755,1.020,1.020,,,1.020,,R 87.755,8
71,,,,,,,,27.551,,3.061,,,,,,,1.020,68.367,,,,V 68.367,8
72,,,,,1.020,,2.041,,3.061,57.143,16.327,2.041,,3.061,8.163,4.082,3.061,,,,,L 57.143,4
73,29.592,4.082,4.082,2.041,,,1.020,4.082,4.082,1.020,,1.020,,16.327,6.122,21.429,5.102,,,,,A 29.592,1
74,2.062,,1.031,2.062,,1.031,60.825,,,6.186,,8.247,1.031,10.309,,6.186,,1.031,,,,H 60.825,6
75,,,,14.286,,6.122,4.082,1.020,4.082,,1.020,,1.020,52.041,10.204,6.122,,,,,,Q 52.041,4
76,1.020,,25.510,59.184,,1.020,,,,,,4.082,,2.041,,3.061,4.082,,,,,E 59.184,6
77,,,50.515,35.052,,2.062,,2.062,,,,4.124,1.031,,,4.124,1.031,,,,,D 50.515,5
78,1.031,,,9.278,,2.062,3.093,1.031,1.031,3.093,1.031,5.155,,42.268,,22.680,8.247,,,,,Q 42.268,5
79,70.103,,1.031,4.124,,1.031,,,1.031,2.062,,,,,,17.526,3.093,,,,,A 70.103,7
80,,,,,,,,6.186,,85.567,1.031,,,,,,4.124,3.093,,,,L 85.567,7
81,,,,,,,,1.020,,94.898,,,,,,,,4.082,,,,L 94.898,9
82,,,,2.020,,,,1.010,70.707,,,7.071,,,17.172,,1.010,,,,1.01010101010101,K 70.707,6
83,74.747,1.010,,,,5.051,,1.010,,5.051,,,,,,4.040,3.030,5.051,,,1.01010101010101,A 74.747,7
84,,,,,,,,,,,,,,,,,,,,100.000,,Y 100.000,9
85,,,,,,,,87.879,,,,4.040,1.010,,,1.010,,6.061,,,,I 87.879,8
86,36.364,,2.020,1.010,,2.020,7.071,2.020,9.091,1.010,,1.010,,4.040,7.071,11.111,3.030,13.131,,,,A 36.364,1
87,1.010,,,94.949,,,1.010,,,,,,,3.030,,,,,,,,E 94.949,9
88,,,,,,1.010,,,,1.010,,,,,,,,,97.980,,,W 97.980,8
89,2.020,1.010,5.051,1.010,,7.071,,1.010,5.051,,,8.081,,1.010,47.475,12.121,8.081,1.010,,,,R 47.475,3
90,,1.010,1.010,,,,,1.010,76.768,2.020,,3.030,,1.010,12.121,,,1.010,,1.010,,K 76.768,7
91,,,,,94.949,,,,,1.010,,,,,,,,,,4.040,,F 94.949,8
92,1.010,,,,69.697,,1.010,1.010,,3.030,,,,,,7.071,,,,17.172,,F 69.697,5
93,7.143,,2.041,4.082,,,,3.061,3.061,3.061,,2.041,,4.082,4.082,3.061,57.143,7.143,,,,T 57.143,4
94,3.061,,,,,,,,2.041,7.143,1.020,1.020,,79.592,3.061,2.041,,1.020,,,,Q 79.592,8
95,5.051,63.636,,,,,,3.030,,,,,,,,19.192,9.091,,,,,C 63.636,7
96,1.010,,19.192,12.121,,6.061,2.020,2.020,3.030,,,29.293,,5.051,,17.172,1.010,2.020,,,,N 29.293,1
97,,1.010,,,4.040,,4.040,15.152,,,,3.030,,,1.010,,1.010,1.010,,69.697,,Y 69.697,5
98,,,,,1.010,,,,,96.970,,,,,,,,2.020,,,,L 96.970,9
99,,,,,,,,,,1.020,,,92.857,,1.020,3.061,2.041,,,,,P 92.857,8
100,,,,1.020,,,,1.020,29.592,22.449,11.224,3.061,,4.082,,1.020,26.531,,,,,K 29.592,4
101,3.061,,,,,2.041,,,,,,,93.878,,,,,,,1.020,,P 93.878,9
102,,,,,98.980,,,,,,,,,,,1.020,,,,,,F 98.980,9
103,7.143,7.143,,1.020,1.020,13.265,,2.041,10.204,,2.041,4.082,,2.041,29.592,14.286,3.061,1.020,2.041,,,R 29.592,1
104,5.051,,,,3.030,1.010,3.030,,8.081,1.010,,,12.121,51.515,,1.010,5.051,3.030,,6.061,,Q 51.515,4
105,,2.020,,,2.020,,,15.152,2.020,69.697,4.040,,,,1.010,,1.010,3.030,,,,L 69.697,6
106,1.010,,13.131,67.677,,,,,1.010,1.010,1.010,1.010,,3.030,,5.051,3.030,1.010,,2.020,,E 67.677,6
107,12.121,,4.040,8.081,,1.010,,6.061,4.040,,1.010,11.111,2.020,1.010,2.020,17.172,23.232,4.040,,3.030,,T 23.232,1
108,7.071,1.010,,4.040,5.051,4.040,1.010,2.020,4.040,1.010,3.030,9.091,,6.061,1.010,30.303,15.152,3.030,,3.030,,S 30.303,1
109,2.062,,,,2.062,1.031,2.062,6.186,6.186,64.948,1.031,2.062,2.062,1.031,,4.124,2.062,2.062,,1.031,,L 64.948,2
110,21.649,1.031,2.062,,,8.247,1.031,3.093,5.155,4.124,6.186,8.247,,15.464,3.093,8.247,6.186,5.155,,1.031,,A 21.649,1
111,3.093,,2.062,,,59.794,2.062,1.031,2.062,4.124,,7.216,3.093,4.124,2.062,2.062,2.062,5.155,,,,G 59.794,1
112,,,,1.538,,,1.538,1.538,89.231,,,1.538,,,3.077,,1.538,,,,,K 89.231,7
113,12.500,,3.125,,1.562,3.125,,,,4.688,3.125,1.562,4.688,9.375,,15.625,37.500,3.125,,,,T 37.500,1
114,6.780,1.695,,,,15.254,13.559,6.780,,1.695,1.695,1.695,5.085,3.390,,23.729,10.169,6.780,1.695,,,S 23.729,1
115,3.333,1.667,,1.667,,6.667,1.667,3.333,,,,6.667,5.000,,1.667,58.333,8.333,,,1.667,,S 58.333,1
116,5.941,0.990,0.990,1.980,,2.970,0.990,3.960,8.911,,,11.881,11.881,20.792,5.941,13.861,3.960,3.960,0.990,,,Q 20.792,1
117,,,,1.961,,,,,64.706,,0.980,12.745,0.980,2.941,3.922,7.843,1.961,0.980,,0.980,,K 64.706,4
118,,0.980,,,,4.902,,,51.961,0.980,1.961,2.941,6.863,1.961,10.784,6.863,3.922,5.882,,,,K 51.961,1
119,2.913,0.971,,1.942,1.942,2.913,0.971,2.913,5.825,2.913,0.971,26.214,12.621,2.913,7.767,12.621,7.767,5.825,,,,N 26.214,1
120,2.941,,0.980,5.882,,0.980,4.902,1.961,12.745,2.941,,9.804,6.863,30.392,4.902,7.843,4.902,0.980,,0.980,,Q 30.392,1
121,7.767,,4.854,7.767,0.971,5.825,1.942,2.913,1.942,6.796,0.971,11.650,8.738,4.854,,10.680,12.621,6.796,,2.913,,T 12.621,1
122,4.854,,28.155,34.951,0.971,0.971,1.942,1.942,5.825,,,3.883,1.942,6.796,2.913,3.883,0.971,,,,,E 34.951,1
123,,,30.769,34.615,0.962,4.808,,,1.923,1.923,,3.846,1.923,3.846,0.962,7.692,0.962,2.885,,2.885,,E 34.615,1
124,3.061,1.020,4.082,4.082,2.041,2.041,1.020,3.061,2.041,,,6.122,1.020,,3.061,60.204,3.061,3.061,,1.020,,S 60.204,4
125,4.808,0.962,3.846,3.846,0.962,0.962,0.962,41.346,1.923,11.538,1.923,0.962,2.885,,,5.769,10.577,5.769,,0.962,,I 41.346,1
126,0.952,,,,,,,11.429,,0.952,,,,,,,1.905,84.762,,,,V 84.762,8
127,0.952,,,,,,,,2.857,0.952,,,1.905,6.667,77.143,5.714,2.857,0.952,,,,R 77.143,7
128,1.905,,,1.905,0.952,1.905,,0.952,71.429,,0.952,2.857,,1.905,0.952,5.714,4.762,2.857,,0.952,,K 71.429,5
129,0.952,0.952,,1.905,3.810,,,8.571,0.952,70.476,4.762,0.952,,,0.952,,0.952,4.762,,,,L 70.476,4
130,,,,,,,,,,1.887,96.226,,,,,0.943,,,,0.943,,M 96.226,9
131,,,,,0.943,,,0.943,,88.679,3.774,,,,0.943,,,,,4.717,,L 88.679,7
132,,,66.981,14.151,,,2.830,1.887,0.943,0.943,,4.717,,0.943,,0.943,4.717,0.943,,,,D 66.981,6
133,2.830,,5.660,1.887,0.943,,,4.717,5.660,1.887,0.943,3.774,,,0.943,50.943,17.925,0.943,,0.943,,S 50.943,6
134,,,,,0.943,,,,,,,,,,,,,,98.113,0.943,,W 98.113,8
135,,,4.717,,,2.830,0.943,,5.660,,,80.189,,,,5.660,,,,,,N 80.189,8
136,0.943,,9.434,23.585,0.943,0.943,1.887,,10.377,3.774,,0.943,,33.962,3.774,5.660,,3.774,,,,Q 33.962,1
137,,1.887,,,,3.774,5.660,11.321,1.887,0.943,2.830,2.830,,0.943,0.943,50.943,11.321,2.830,,1.887,,S 50.943,5
138,,,,,,,0.943,91.509,,0.943,,,,,,,,6.604,,,,I 91.509,9
139,,,0.943,,92.453,,,,,3.774,,,,,,0.943,,,,1.887,,F 92.453,8
140,3.774,6.604,,8.491,,2.830,1.887,1.887,5.660,0.943,4.717,14.151,,4.717,,37.736,1.887,2.830,,0.943,0.943396226415094,S 37.736,1
141,4.717,,27.358,8.491,,3.774,2.830,0.943,5.660,,,32.075,,1.887,1.887,4.717,4.717,0.943,,,,N 32.075,2
142,,,,,,,,86.667,,5.714,0.952,0.952,,,,,1.905,3.810,,,,I 86.667,8
143,,0.943,,0.943,,,,,79.245,,,,,2.830,5.660,7.547,0.943,,,1.887,,K 79.245,7
144,0.943,,11.321,5.660,,2.830,21.698,,2.830,3.774,,11.321,,28.302,0.943,4.717,4.717,,,0.943,,Q 28.302,1
145,,,,,0.935,,0.935,,15.888,,,1.869,2.804,3.738,67.290,1.869,4.673,,,,,R 67.290,6
146,,,,,2.804,,,0.935,,94.393,,,,,,,,1.869,,,,L 94.393,8
147,,,,5.607,,,,0.935,0.935,10.280,,,,72.897,3.738,0.935,,,3.738,,0.934579439252336,Q 72.897,8
148,8.411,,46.729,9.346,,0.935,,2.804,2.804,,,11.215,,,,14.019,0.935,0.935,,0.935,0.934579439252336,D 46.729,3
149,16.038,1.887,,5.660,,1.887,,,,,,,,,0.943,72.642,,,,,0.943396226415094,S 72.642,8
150,89.623,,,,,,,,,1.887,,,,,,0.943,0.943,5.660,,,0.943396226415094,A 89.623,9
151,,,,3.704,0.926,,,0.926,,8.333,82.407,0.926,,,,,0.926,0.926,,,0.925925925925926,M 82.407,8
152,,0.926,0.926,3.704,,0.926,0.926,,67.593,,,,,,22.222,0.926,,0.926,,,0.925925925925926,K 67.593,6
153,,,,,0.926,,0.926,4.630,,92.593,,,,,,,,,,0.926,,L 92.593,8
154,,,,,,,,22.222,,1.852,,,,,,,,75.926,,,,V 75.926,8
155,0.935,,1.869,14.953,0.935,,43.925,,6.542,0.935,,,,12.150,10.280,0.935,2.804,,,3.738,,H 43.925,5
156,57.944,0.935,9.346,6.542,,,0.935,0.935,3.738,3.738,,1.869,,0.935,,12.150,0.935,,,,,A 57.944,5
157,,,0.935,99.065,,,,,,,,,,,,,,,,,,E 99.065,9
158,,,,,,,,,0.926,,,,,,99.074,,,,,,,R 99.074,9
159,,0.926,6.481,6.481,,0.926,0.926,0.926,0.926,5.556,2.778,69.444,,,0.926,1.852,1.852,,,,,N 69.444,7
160,,,,,,99.065,,,,,,0.935,,,,,,,,,,G 99.065,9
161,2.804,,4.673,68.224,,0.935,,1.869,0.935,,1.869,5.607,,4.673,3.738,0.935,2.804,0.935,,,,E 68.224,6
162,69.159,0.935,0.935,5.607,,,,7.477,,1.869,1.869,,0.935,0.935,,5.607,1.869,2.804,,,,A 69.159,6
163,0.935,0.935,,,67.290,,,16.822,,0.935,,,,,,1.869,0.935,4.673,,5.607,,F 67.290,6
164,,,87.037,2.778,0.926,,0.926,,0.926,,,6.481,,,,0.926,,,,,,D 87.037,8
165,13.889,,,2.778,,,,,0.926,1.852,,,8.333,0.926,,64.815,3.704,2.778,,,,S 64.815,6
166,2.778,,2.778,2.778,,0.926,0.926,,,,,6.481,,75.926,2.778,3.704,,,,,0.925925925925926,Q 75.926,6
167,,,,,,,,,,93.519,,5.556,,,,,,,,,0.925925925925926,L 93.519,9
168,,,,,0.926,,,7.407,,1.852,,,,,,,,88.889,,0.926,,V 88.889,8
169,,,,,,,,88.889,0.926,1.852,0.926,,,,,,0.926,6.481,,,,I 88.889,8
170,0.926,,,,,94.444,,,,0.926,,0.926,,,,0.926,1.852,,,,,G 94.444,8
171,,,,,0.926,,,9.259,,0.926,,,,,,,,88.889,,,,V 88.889,9
172,,,,,,,,,,,,,,,96.296,1.852,,0.926,,0.926,,R 96.296,9
173,,,2.778,82.407,,,0.926,,1.852,1.852,,,,9.259,,,,0.926,,,,E 82.407,7
174,,,,,,0.926,,,,,,,,,,99.074,,,,,,S 99.074,9
175,,6.542,,,13.084,,,,,,,,,,,1.869,,,1.869,76.636,,Y 76.636,7
176,0.926,,,,,0.926,,3.704,,1.852,,,,,,,,92.593,,,,V 92.593,9
177,5.556,1.852,1.852,,,0.926,1.852,0.926,0.926,3.704,,72.222,,,0.926,8.333,0.926,,,,,N 72.222,7
178,1.852,,,,,,,,,97.222,,,,,,,,0.926,,,,L 97.222,9
179,0.926,57.407,,,,2.778,0.926,0.926,0.926,,,12.037,,,,21.296,,,,2.778,,C 57.407,5
180,5.556,,5.556,1.852,,0.926,0.926,,,7.407,,0.926,4.630,,,62.963,7.407,1.852,,,,S 62.963,6
181,0.926,,25.000,1.852,,0.926,,,3.704,,,50.000,,2.778,0.926,8.333,2.778,1.852,,0.926,,N 50.000,5
182,11.321,0.943,3.774,,2.830,,,1.887,1.887,3.774,1.887,1.887,28.302,3.774,3.774,11.321,20.755,0.943,,0.943,,P 28.302,1
183,1.887,,13.208,42.453,0.943,1.887,,1.887,2.830,3.774,1.887,4.717,,,,8.491,12.264,1.887,,1.887,,E 42.453,1
184,1.887,2.830,79.245,6.604,0.943,,,,,,,1.887,0.943,,,,5.660,,,,,D 79.245,7
185,,,2.830,1.887,,,,,68.868,,,1.887,6.604,0.943,7.547,7.547,,1.887,,,,K 68.868,5
186,1.887,,,,,,,0.943,1.887,86.792,4.717,,,1.887,,,,0.943,,0.943,,L 86.792,7
187,6.542,,,14.953,,0.935,0.935,1.869,14.019,6.542,0.935,,0.935,36.449,1.869,3.738,2.804,0.935,4.673,1.869,,Q 36.449,1
188,1.869,,0.935,,,,,71.028,0.935,1.869,0.935,3.738,,1.869,,1.869,,14.953,,,,I 71.028,7
189,,,,,,,,,,,,,,,,,,,,100.000,,Y 100.000,9
190,0.926,0.926,,1.852,,,0.926,1.852,10.185,1.852,1.852,1.852,,4.630,62.963,,2.778,6.481,,0.926,,R 62.963,4
191,0.926,,20.370,58.333,,1.852,,,6.481,0.926,,2.778,,1.852,0.926,4.630,,0.926,,,,E 58.333,1
192,1.852,0.926,1.852,0.926,0.926,,8.333,1.852,,1.852,,68.519,,0.926,,1.852,3.704,0.926,,5.556,,N 68.519,5
193,,,0.926,,97.222,,,,,1.852,,,,,,,,,,,,F 97.222,9
194,0.926,,,92.593,,,,,,5.556,,,,,,,,0.926,,,,E 92.593,9
195,25.926,,0.926,2.778,,,1.852,,37.963,1.852,1.852,1.852,,1.852,16.667,0.926,4.630,0.926,,,,K 37.963,2
196,68.519,,4.630,1.852,,0.926,,0.926,,0.926,,3.704,1.852,6.481,0.926,7.407,,1.852,,,,A 68.519,7
197,,,,,7.407,,,,,,,,,0.926,,,,,,91.667,,Y 91.667,9
198,,,,,,,,58.333,,26.852,6.481,,,,,,,8.333,,,,I 58.333,5
199,4.630,,26.852,35.185,,,1.852,,12.963,,,2.778,,11.111,1.852,0.926,1.852,,,,,E 35.185,1
200,52.778,3.704,3.704,2.778,0.926,0.926,0.926,,,0.926,,,,5.556,,22.222,4.630,,,0.926,,A 52.778,6
201,1.852,,,,,,,0.926,,0.926,5.556,,,,,0.926,89.815,,,,,T 89.815,9
202,6.481,,1.852,60.185,,,,,8.333,0.926,,,,0.926,7.407,3.704,7.407,2.778,,,,E 60.185,4
203,26.852,,3.704,19.444,,,,0.926,6.481,0.926,2.778,5.556,,2.778,8.333,13.889,6.481,1.852,,,,A 26.852,1
204,,,,,84.259,,0.926,,,,,,,,0.926,,,,,13.889,,F 84.259,7
205,,,,,0.926,,,,,,,,,,,,0.926,,,98.148,,Y 98.148,9
206,,0.926,,0.926,,,0.926,0.926,43.519,0.926,0.926,1.852,0.926,3.704,32.407,0.926,2.778,,8.333,,,K 43.519,2
207,13.084,,,1.869,3.738,,,8.411,7.477,14.019,5.607,,6.542,0.935,,7.477,13.084,17.757,,,,V 17.757,2
208,,0.926,0.926,2.778,,,0.926,5.556,53.704,0.926,,2.778,,15.741,13.889,0.926,,,,0.926,,K 53.704,5
209,72.222,5.556,,,,0.926,,1.852,,3.704,,0.926,,0.926,,4.630,8.333,0.926,,,,A 72.222,7
210,12.963,0.926,,0.926,,5.556,,0.926,,1.852,,2.778,50.926,0.926,0.926,16.667,4.630,,,,,P 50.926,2
211,3.704,,1.852,40.741,,0.926,,,4.630,1.852,,2.778,,31.481,2.778,7.407,1.852,,,,,E 40.741,3
212,,0.935,,,7.477,,3.738,,,5.607,,,,15.888,,,0.935,11.215,,54.206,,Y 54.206,4
213,,,,,,,,5.607,1.869,83.178,,,,3.738,2.804,0.935,,1.869,,,,L 83.178,7
214,16.822,0.935,0.935,19.626,,,0.935,,2.804,1.869,2.804,7.477,,29.907,1.869,12.150,1.869,,,,,Q 29.907,1
215,23.364,,5.607,23.364,,,0.935,3.738,4.673,6.542,3.738,0.935,,11.215,0.935,7.477,5.607,1.869,,,,AE 23.364,1
216,,,1.869,3.738,,0.935,15.888,,,5.607,,62.617,,0.935,0.935,,3.738,,0.935,2.804,,N 62.617,7
217,,,,,,99.057,,,,,,0.943,,,,,,,,,,G 99.057,9
218,,,,,,,,12.150,,0.935,,,,,,,,86.916,,,,V 86.916,9
219,,,,16.667,,,1.852,2.778,2.778,10.185,,,,53.704,11.111,,,0.926,,,,Q 53.704,7
220,12.037,0.926,2.778,7.407,,,0.926,,8.333,,,50.926,,0.926,,14.815,0.926,,,,,N 50.926,4
221,,,,,8.333,,,,,,,,,,,,,,,91.667,,Y 91.667,8
222,,,,,,,,1.852,,9.259,86.111,,,,,,1.852,0.926,,,,M 86.111,9
223,0.926,,0.926,4.630,,0.926,,0.926,32.407,0.926,0.926,2.778,,2.778,32.407,7.407,1.852,9.259,0.926,,,KR 32.407,1
224,,,,,6.481,,2.778,,,,,,,,,,,,1.852,88.889,,Y 88.889,7
225,94.444,,,,,,,0.926,,0.926,2.778,,,,,,,0.926,,,,A 94.444,9
226,,,64.815,15.741,1.852,0.926,,1.852,0.926,0.926,,5.556,,2.778,0.926,1.852,,,0.926,0.926,,D 64.815,4
227,25.000,1.852,0.926,1.852,1.852,1.852,,,7.407,4.630,5.556,1.852,,13.889,2.778,15.741,12.963,1.852,,,,A 25.000,1
228,0.926,,,,,,,0.926,93.519,,1.852,,,,1.852,,0.926,,,,,K 93.519,8
229,,,,,,,,1.852,,97.222,,,,,,,,0.926,,,,L 97.222,9
230,6.481,,5.556,5.556,,1.852,1.852,0.926,28.704,3.704,,1.852,,1.852,36.111,4.630,,0.926,,,,R 36.111,1
231,,,,98.148,,,,,1.852,,,,,,,,,,,,,E 98.148,9
232,,,,100.000,,,,,,,,,,,,,,,,,,E 100.000,9
233,,,0.926,86.111,,,,,2.778,,,,,7.407,0.926,1.852,,,,,,E 86.111,8
234,24.074,0.926,3.704,2.778,,0.926,,3.704,7.407,13.889,1.852,1.852,,30.556,0.926,0.926,1.852,4.630,,,,Q 30.556,1
235,,,,,,,,,0.926,,,,,,99.074,,,,,,,R 99.074,9
236,79.630,,,,,17.593,,,0.926,,,,,,,0.926,0.926,,,,,A 79.630,8
237,8.333,0.926,,2.778,,,1.852,0.926,16.667,9.259,4.630,1.852,,27.778,12.963,4.630,2.778,2.778,,1.852,,Q 27.778,1
238,,,,,,,,,47.222,3.704,0.926,0.926,,,45.370,,,1.852,,,,K 47.222,7
239,,,,,0.926,0.926,,,,,,,,,,,,,,98.148,,Y 98.148,9
240,,,,,0.926,,,,,98.148,,,,,,,,0.926,,,,L 98.148,9
241,0.926,,9.259,78.704,,,,0.926,0.926,0.926,,8.333,,,,,,,,,,E 78.704,7
242,,,,,,,,,3.030,,,3.030,,,,24.242,69.697,,,,,T 69.697,8
243,,,,,,30.303,,,9.091,,,,,3.030,48.485,9.091,,,,,,R 48.485,5
244,10.000,,,,,,,,13.333,1.111,6.667,3.333,35.556,,5.556,17.778,2.222,,2.222,2.222,,P 35.556,3
245,1.099,5.495,12.088,5.495,1.099,24.176,,,3.297,,,24.176,,1.099,1.099,12.088,4.396,,,4.396,,GN 24.176,2
246,5.607,21.495,0.935,2.804,5.607,,,,,0.935,,,14.953,,,38.318,5.607,,0.935,1.869,0.934579439252336,S 38.318,4
247,8.411,2.804,12.150,6.542,0.935,16.822,0.935,,6.542,,0.935,22.430,6.542,0.935,,9.346,1.869,1.869,,0.935,,N 22.430,1
248,0.926,,0.926,,,2.778,,,,1.852,,,,,,89.815,3.704,,,,,S 89.815,9
249,6.481,,,0.926,2.778,,,12.963,0.926,11.111,5.556,,,2.778,,1.852,0.926,50.926,,2.778,,V 50.926,2
250,13.592,0.971,1.942,16.505,,2.913,,0.971,6.796,1.942,0.971,3.883,2.913,31.068,2.913,8.738,3.883,,,,,Q 31.068,1
251,27.184,,0.971,1.942,,,,1.942,13.592,10.680,1.942,0.971,0.971,2.913,15.534,3.883,5.825,11.650,,,,A 27.184,1
252,,,,,0.971,,5.825,1.942,,85.437,0.971,,,,,,,4.854,,,,L 85.437,7
253,2.778,,,4.630,,0.926,,6.481,1.852,5.556,23.148,7.407,,,0.926,0.926,36.111,9.259,,,,T 36.111,4
254,3.704,0.926,25.000,44.444,,1.852,,,3.704,,,0.926,,14.815,1.852,,1.852,,,0.926,,E 44.444,2
255,8.333,54.630,,0.926,0.926,,,5.556,1.852,,0.926,0.926,,0.926,11.111,5.556,5.556,2.778,,,,C 54.630,4
256,4.630,79.630,,,,,,1.852,,8.333,,,,,,0.926,1.852,0.926,1.852,,,C 79.630,5
257,1.852,,0.926,0.926,,0.926,,1.852,,,0.926,,3.704,,,,,88.889,,,,V 88.889,8
258,,,10.185,10.185,,3.704,1.852,5.556,20.370,,,23.148,0.926,6.481,9.259,4.630,2.778,0.926,,,,N 23.148,1
259,12.963,0.926,,0.926,0.926,,0.926,4.630,,4.630,,,,,,,1.852,72.222,,,,V 72.222,7
260,,,,,11.111,,,0.926,,87.037,,,,,0.926,,,,,,,L 87.037,8
261,0.926,,,,,,,8.333,,,,,,,,,,90.741,,,,V 90.741,9
262,11.111,0.926,2.778,9.259,,9.259,,2.778,3.704,0.926,0.926,,,0.926,,10.185,29.630,16.667,,0.926,,T 29.630,3
263,15.741,0.926,12.037,5.556,,0.926,2.778,,1.852,,,12.963,5.556,12.037,,13.889,12.963,2.778,,,,A 15.741,1
264,2.778,,,,75.926,,11.111,,,,,2.778,,,,0.926,,,,6.481,,F 75.926,6
265,3.774,,,7.547,,,,0.943,46.226,14.151,2.830,,,10.377,8.491,1.887,2.830,0.943,,,,K 46.226,4
266,1.887,,26.415,38.679,,0.943,0.943,0.943,,,,7.547,10.377,1.887,,7.547,1.887,,,0.943,,E 38.679,2
267,11.321,,0.943,9.434,,0.943,,3.774,,0.943,0.943,1.887,3.774,14.151,0.943,4.717,40.566,5.660,,,,T 40.566,2
268,,,,,1.887,,,84.906,,11.321,1.887,,,,,,,,,,,I 84.906,8
269,,,,,,,,8.491,,90.566,,,,,0.943,,,,,,,L 90.566,8
270,77.358,,,1.887,0.943,3.774,,0.943,0.943,,,0.943,,1.887,0.943,7.547,1.887,0.943,,,,A 77.358,6
271,1.887,,,96.226,,0.943,,,,,,,,0.943,,,,,,,,E 96.226,9
272,,83.962,,,6.604,2.830,,0.943,,,,,,,,1.887,,3.774,,,,C 83.962,7
273,27.358,,,1.887,,,,,1.887,0.943,,0.943,47.170,2.830,4.717,11.321,0.943,,,,,P 47.170,3
274,7.547,,4.717,3.774,,18.868,0.943,,12.264,1.887,,1.887,11.321,3.774,13.208,11.321,5.660,2.830,,,,G 18.868,1
275,,0.943,,,0.943,,,,,39.623,58.491,,,,,,,,,,,M 58.491,8
276,,,,,,,,92.381,,6.667,,,,,,,0.952,,,,,I 92.381,9
277,13.333,,,5.714,,,1.905,,44.762,,,1.905,,11.429,14.286,6.667,,,,,,K 44.762,3
278,15.094,,7.547,18.868,,3.774,9.434,1.887,2.830,,0.943,13.208,,7.547,10.377,5.660,2.830,,,,,E 18.868,1
279,,,5.660,0.943,,14.151,5.660,,1.887,,,57.547,,,9.434,,,,,4.717,,N 57.547,6
280,2.830,,20.755,55.660,,0.943,0.943,,,,,2.830,,15.094,0.943,,,,,,,E 55.660,6
281,0.943,,,,,,,8.491,0.943,,2.830,,,,2.830,0.943,65.094,17.925,,,,T 65.094,7
282,1.887,,26.415,58.491,,,,,2.830,2.830,,0.943,2.830,3.774,,,,,,,,E 58.491,2
283,,,,3.774,,0.943,,0.943,55.660,0.943,0.943,2.830,,0.943,28.302,2.830,,,,1.887,,K 55.660,3
284,,,,,,,,,,100.000,,,,,,,,,,,,L 100.000,9
285,2.857,,,0.952,,,9.524,,5.714,4.762,0.952,6.667,,30.476,33.333,2.857,0.952,,,0.952,,R 33.333,3
286,,,,,0.952,0.952,,4.762,0.952,71.429,8.571,,,1.905,7.619,0.952,,1.905,,,,L 71.429,6
287,,,,,1.905,,,3.810,,14.286,72.381,,,,,,3.810,3.810,,,,M 72.381,7
288,,,,,55.238,,2.857,,,11.429,1.905,,,,,,,,,28.571,,F 55.238,6
289,,,,7.619,0.952,1.905,,,30.476,,,0.952,,5.714,36.190,15.238,0.952,,,,,R 36.190,4
290,3.810,,,,,,,,,95.238,,,,,,,,,,0.952,,L 95.238,9
291,,,,,0.952,,,18.095,,23.810,56.190,,,,,,,0.952,,,,M 56.190,7
292,,0.952,62.857,4.762,,,,0.952,2.857,1.905,,14.286,,,9.524,,1.905,,,,,D 62.857,7
293,,0.952,,,2.857,1.905,3.810,,9.524,2.857,,,,0.952,76.190,,,,0.952,,,R 76.190,7
294,0.952,,,,,0.952,,5.714,,,0.952,,,,,,20.000,71.429,,,,V 71.429,8
295,5.714,,2.857,3.810,0.952,1.905,0.952,,8.571,0.952,0.952,,48.571,1.905,7.619,8.571,3.810,2.857,,,,P 48.571,1
296,0.952,,47.619,11.429,,11.429,1.905,,,0.952,,10.476,,0.952,,10.476,2.857,,,0.952,,D 47.619,1
297,,,1.942,3.883,,90.291,,,2.913,,,0.971,,,,,,,,,,G 90.291,8
298,1.923,,0.962,,,,,50.962,,3.846,3.846,,,,,0.962,0.962,36.538,,,,I 50.962,6
299,9.615,,17.308,18.269,,5.769,,0.962,3.846,5.769,,10.577,0.962,8.654,,5.769,11.538,0.962,,,,E 18.269,1
300,0.962,0.962,,3.846,,,,,1.923,0.962,,1.923,70.192,0.962,1.923,6.731,6.731,1.923,,0.962,,P 70.192,4
301,,,,,,,,6.731,,5.769,72.115,,,,,,,15.385,,,,M 72.115,8
302,,1.923,,,,,0.962,4.808,,89.423,1.923,,,,0.962,,,,,,,L 89.423,8
303,3.846,1.923,3.846,6.731,,3.846,2.885,,32.692,0.962,0.962,7.692,4.808,6.731,16.346,2.885,2.885,0.962,,,,K 32.692,1
304,4.808,7.692,39.423,3.846,4.808,,1.923,4.808,,1.923,,12.500,,3.846,0.962,1.923,0.962,1.923,,8.654,,D 39.423,1
305,,,,,1.923,,,4.808,,87.500,2.885,,,,,0.962,,1.923,,,,L 87.500,8
306,0.962,,11.538,76.923,,1.923,,,3.846,,,0.962,,2.885,,0.962,,,,,,E 76.923,8
307,6.731,,23.077,30.769,,,2.885,1.923,1.923,,,8.654,,8.654,3.846,8.654,2.885,,,,,E 30.769,1
308,,,,,9.615,,68.269,,,,,0.962,,,,,,0.962,,20.192,,H 68.269,6
309,,,,,,,,96.154,,,,,,,,,,3.846,,,,I 96.154,9
310,9.615,,,,,,,11.538,6.731,2.885,5.769,0.962,,0.962,12.500,4.808,7.692,31.731,4.808,,,V 31.731,3
311,1.923,0.962,1.923,5.769,,0.962,4.808,0.962,,1.923,,11.538,,7.692,2.885,40.385,17.308,,,0.962,,S 40.385,1
312,49.038,,,21.154,,,,0.962,0.962,,0.962,,,13.462,0.962,1.923,5.769,4.808,,,,A 49.038,6
313,7.692,2.885,,,,89.423,,,,,,,,,,,,,,,,G 89.423,8
314,,,,,0.962,,,,0.962,90.385,1.923,,,,0.962,3.846,0.962,,,,,L 90.385,8
315,59.615,1.923,8.654,3.846,,,,0.962,0.962,0.962,,9.615,,0.962,,7.692,4.808,,,,,A 59.615,5
316,0.962,,86.538,7.692,,,,,,,,0.962,,,,,3.846,,,,,D 86.538,8
317,,,,,,,,2.885,,4.808,92.308,,,,,,,,,,,M 92.308,9
318,,,,,,,0.962,11.538,15.385,8.654,23.077,1.923,,1.923,14.423,,,22.115,,,,M 23.077,1
319,68.269,,5.769,9.615,,,,,,0.962,,4.808,,0.962,,7.692,,1.923,,,,A 68.269,7
320,44.231,0.962,,0.962,,,0.962,0.962,,,,25.000,,,,23.077,2.885,,0.962,,,A 44.231,6
321,79.808,0.962,,,,,,0.962,,,,,,,,5.769,,12.500,,,,A 79.808,8
322,1.923,,44.231,30.769,,,,,,2.885,0.962,3.846,0.962,3.846,0.962,8.654,,0.962,,,,D 44.231,3
323,1.923,,0.962,,0.962,,,31.731,,2.885,,2.885,,,,2.885,36.538,19.231,,,,T 36.538,5
324,,,,,,,,87.500,,5.769,0.962,,,,,,,5.769,,,,I 87.500,9
325,5.769,,,,1.923,,,,,1.923,,,0.962,,,4.808,76.923,7.692,,,,T 76.923,8
326,,,,3.846,,,,,5.769,0.962,,0.962,,46.154,,12.500,29.808,,,,,Q 46.154,6
327,,,98.058,,,,,,,,,,,,,,,1.942,,,,D 98.058,9
328,5.825,3.883,,,,,,,,0.971,,,17.476,,,71.845,,,,,,S 71.845,8
329,2.941,,2.941,88.235,,0.980,,,,,,1.961,,,,1.961,,0.980,,,,E 88.235,7
330,,,,,,,,,90.099,,,,,4.950,4.950,,,,,,,K 90.099,8
331,,,,,3.960,,,,,,,,,,,,,,,96.040,,Y 96.040,9
332,,,,,,,,4.950,,,,,,,0.990,,,94.059,,,,V 94.059,9
333,0.990,,3.960,78.218,,,,,,,,2.970,,7.921,,4.950,0.990,,,,,E 78.218,7
334,0.990,0.990,,1.980,,,,,7.921,0.990,,,,47.525,35.644,,3.960,,,,,Q 47.525,6
335,0.990,,,,,,,0.990,,98.020,,,,,,,,,,,,L 98.020,9
336,,,0.980,,,0.980,,4.902,,88.235,2.941,,,0.980,,,,0.980,,,,L 88.235,7
337,2.941,,33.333,28.431,,0.980,,2.941,2.941,2.941,0.980,1.961,,2.941,,7.843,10.784,0.980,,,,D 33.333,1
338,,,,,,,,,,78.431,19.608,,,0.980,,,,,0.980,,,L 78.431,9
339,,,,,90.196,,,,,0.980,,,,,,,,,,8.824,,F 90.196,8
340,,,3.922,6.863,0.980,,6.863,0.980,2.941,0.980,,42.157,,3.922,18.627,6.863,4.902,,,,,N 42.157,4
341,,,,0.980,,,,0.980,29.412,1.961,,0.980,,9.804,54.902,0.980,,,,,,R 54.902,5
342,,,,,96.078,,,,,0.980,,1.961,,,,,,,,0.980,,F 96.078,8
343,,,,,,,,,0.980,,,,,,,92.157,5.882,,,0.980,,S 92.157,9
344,9.804,,4.902,4.902,,,,1.961,22.549,10.784,2.941,2.941,,2.941,7.843,13.725,13.725,0.980,,,,K 22.549,1
345,,,,,2.941,,,4.902,,87.255,1.961,,,,,,,2.941,,,,L 87.255,7
346,0.980,,,,,,,10.784,,,,,,,,,,88.235,,,,V 88.235,9
347,3.922,,6.863,4.902,,,3.922,,54.902,0.980,,0.980,,0.980,15.686,5.882,,,,0.980,,K 54.902,2
348,,,31.373,50.000,,,,0.980,4.902,1.961,,4.902,,,0.980,1.961,,1.961,,0.980,,E 50.000,1
349,86.275,2.941,,,,7.843,,,,,,,,,,1.961,,0.980,,,,A 86.275,9
350,,0.980,,,97.059,,,,,,,,,,,,0.980,0.980,,,,F 97.059,9
351,0.980,8.824,16.667,0.980,0.980,3.922,3.922,0.980,2.941,3.922,,31.373,,5.882,0.980,8.824,,,,8.824,,N 31.373,1
352,,,80.392,0.980,,4.902,,,,,,12.745,,,,0.980,,,,,,D 80.392,8
353,,,97.030,2.970,,,,,,,,,,,,,,,,,,D 97.030,9
354,7.921,,,,1.980,,,3.960,,,,,82.178,,,3.960,,,,,,P 82.178,8
355,,0.990,,,,,0.990,,,0.990,,0.990,,,91.089,3.960,0.990,,,,,R 91.089,8
356,,,,,91.176,,,,,7.843,,,,,,,,,0.980,,,F 91.176,9
357,,,,,,,,,3.922,94.118,,,,,,,0.980,0.980,,,,L 94.118,9
358,2.941,,,,,,,0.980,,,,,,,,4.902,91.176,,,,,T 91.176,9
359,55.882,0.980,,1.961,,,,7.843,,,0.980,,,,0.980,25.490,2.941,2.941,,,,A 55.882,6
360,,,,,,,,,,,,,,,100.000,,,,,,,R 100.000,9
361,,,98.039,,,,,0.980,,,,0.980,,,,,,,,,,D 98.039,9
362,,,,,,,,3.922,88.235,,,,,1.961,1.961,,,3.922,,,,K 88.235,8
363,96.078,,,,,0.980,,,,,,,,,,1.961,0.980,,,,,A 96.078,9
364,,,,,50.980,,,,,,,,,,,,,,,49.020,,F 50.980,7
365,,,,5.882,,,,,63.725,,,1.961,,16.667,11.765,,,,,,,K 63.725,6
366,16.667,1.961,7.843,4.902,0.980,,6.863,2.941,1.961,11.765,0.980,2.941,,14.706,6.863,4.902,12.745,0.980,,,,A 16.667,1
367,,,,,,,,7.767,,6.796,,,,,,,,85.437,,,,V 85.437,8
368,2.913,,,,,,,4.854,,,,0.971,,,,,0.971,90.291,,,,V 90.291,8
369,,,0.980,,,,,,,,,97.059,,,,0.980,,0.980,,,,N 97.059,9
370,,,92.157,,,,,,,,,2.941,,,,4.902,,,,,,D 92.157,9
371,13.000,1.000,,,,,,5.000,1.000,,,,,,,11.000,67.000,1.000,,1.000,,T 67.000,7
372,1.000,6.000,3.000,2.000,,,,,4.000,,,1.000,,3.000,2.000,37.000,41.000,,,,,T 41.000,5
373,,,,,1.000,,,34.000,,1.000,,,,,,,,64.000,,,,V 64.000,7
374,,,,,100.000,,,,,,,,,,,,,,,,,F 100.000,9
375,1.000,,,,,,,,58.000,,1.000,1.000,,,33.000,5.000,1.000,,,,,K 58.000,5
376,,,,,,,,4.000,,72.000,16.000,,,,,,5.000,3.000,,,,L 72.000,7
377,,,8.333,91.667,,,,,,,,,,,,,,,,,,E 91.667,8
378,,,,,,,,93.333,,,,,,,,,,6.667,,,,I 93.333,8
