"The table details the residue variety in % for each position in the query sequence."
"Each column shows the % for that amino-acid, found in position ('pos') in the MSA."
"In case there are residues which are not a standard amino-acid in the MSA, they are represented under column 'OTHER'"

pos,A,C,D,E,F,G,H,I,K,L,M,N,P,Q,R,S,T,V,W,Y,OTHER,MAX AA,ConSurf Grade
1,,,,,,,,,,,,100.000,,,,,,,,,,N 100.000,9
2,71.212,,,7.576,,4.545,,,,4.545,1.515,,,,,9.091,1.515,,,,,A 71.212,6
3,8.824,,7.353,10.294,,54.412,,,1.471,,,2.941,,5.882,5.882,,,2.941,,,,G 54.412,1
4,,,,,0.990,,,18.812,,0.990,,,,,,,,79.208,,,,V 79.208,7
5,0.909,,,1.818,1.818,,0.909,5.455,0.909,1.818,,,,4.545,,14.545,63.636,0.909,,2.727,,T 63.636,6
6,,,,,,,,,,,,,,99.107,,0.893,,,,,,Q 99.107,9
7,0.877,,4.386,,2.632,,1.754,2.632,5.263,1.754,2.632,8.772,4.386,2.632,0.877,23.684,31.579,0.877,4.386,0.877,,T 31.579,1
8,,,,,,,,,,,,,96.552,0.862,,2.586,,,,,,P 96.552,9
9,0.862,,2.586,,0.862,1.724,1.724,0.862,18.103,0.862,0.862,,,0.862,49.138,17.241,2.586,1.724,,,,R 49.138,3
10,0.935,,,0.935,11.215,,28.037,3.738,,0.935,,6.542,,0.935,10.280,2.804,0.935,0.935,1.869,29.907,,Y 29.907,1
11,6.087,0.870,2.609,1.739,3.478,0.870,,3.478,14.783,42.609,0.870,,,8.696,5.217,2.609,2.609,3.478,,,,L 42.609,2
12,,2.564,,,0.855,,,39.316,,7.692,0.855,,,,,3.419,,43.590,1.709,,,V 43.590,3
13,6.780,6.780,,2.542,,0.847,,8.475,25.424,8.475,1.695,1.695,,1.695,6.780,3.390,16.949,8.475,,,,K 25.424,1
14,4.202,,0.840,15.126,,8.403,,,23.529,,1.681,0.840,5.042,9.244,15.966,5.042,2.521,7.563,,,,K 23.529,1
15,3.306,,,8.264,,4.959,0.826,0.826,12.397,0.826,8.264,,3.306,3.306,18.182,4.959,22.314,8.264,,,,T 22.314,1
16,0.826,,6.612,0.826,,79.339,,,3.306,,,2.479,,1.653,3.306,0.826,0.826,,,,,G 79.339,6
17,6.557,,2.459,12.295,,9.836,,,9.836,,,0.820,0.820,42.623,1.639,4.918,8.197,,,,,Q 42.623,4
18,3.226,,4.839,5.645,,0.806,,,20.968,0.806,1.613,12.903,3.226,8.871,5.645,25.806,4.839,,,0.806,,S 25.806,2
19,18.400,,,,,0.800,,3.200,0.800,6.400,7.200,,0.800,,,1.600,0.800,60.000,,,,V 60.000,5
20,3.200,,1.600,8.000,1.600,,0.800,4.000,7.200,6.400,4.000,4.000,,0.800,4.000,2.400,49.600,2.400,,,,T 49.600,4
21,,,,,5.600,,,17.600,,59.200,13.600,,,,,,,4.000,,,,L 59.200,5
22,,,4.000,18.400,,1.600,1.600,0.800,6.400,0.800,,7.200,,14.400,24.000,9.600,8.800,,2.400,,,R 24.000,1
23,,100.000,,,,,,,,,,,,,,,,,,,,C 100.000,9
24,4.000,,10.400,8.000,0.800,1.600,5.600,4.000,4.000,3.200,0.800,3.200,0.800,4.800,6.400,26.400,5.600,4.800,,5.600,,S 26.400,1
25,3.226,,8.871,0.806,,,,,4.839,0.806,,4.032,29.032,39.516,0.806,,4.032,4.032,,,,Q 39.516,6
26,1.626,,31.707,5.691,,4.065,1.626,14.634,2.439,1.626,0.813,15.447,,0.813,1.626,1.626,9.756,5.691,,0.813,,D 31.707,2
27,2.400,,6.400,3.200,4.000,1.600,,0.800,6.400,7.200,21.600,6.400,1.600,1.600,,32.800,2.400,,0.800,0.800,,S 32.800,4
28,1.600,,12.800,2.400,0.800,32.000,,,1.600,0.800,,22.400,0.800,9.600,1.600,10.400,2.400,,0.800,,,G 32.000,2
29,3.968,,2.381,,3.175,,62.698,,,6.349,,1.587,,2.381,,0.794,2.381,2.381,0.794,11.111,,H 62.698,4
30,5.556,,16.667,13.492,2.381,0.794,,2.381,1.587,7.143,,13.492,3.968,0.794,4.762,6.349,7.143,3.968,,9.524,,D 16.667,1
31,7.937,0.794,,,0.794,,2.381,0.794,1.587,1.587,1.587,7.937,,3.968,9.524,14.286,14.286,4.762,0.794,26.984,,Y 26.984,1
32,,,,,0.794,,,4.762,,14.286,59.524,,,,,,,20.635,,,,M 59.524,7
33,,,,,23.810,0.794,1.587,0.794,,3.968,,,,,,8.730,,0.794,,59.524,,Y 59.524,4
34,,,,,,,,,,,,,,,,,,,100.000,,,W 100.000,9
35,,,,,1.587,,0.794,0.794,,,,,,,,,,,,96.825,,Y 96.825,9
36,,0.800,,,,,2.400,,5.600,3.200,,,,30.400,57.600,,,,,,,R 57.600,6
37,,,,,,,2.400,,2.400,1.600,,,,92.000,1.600,,,,,,,Q 92.000,9
38,8.730,,34.127,,3.175,0.794,0.794,3.175,7.937,9.524,,2.381,6.349,3.968,3.968,5.556,7.143,2.381,,,,D 34.127,1
39,3.968,,2.381,1.587,,,,,2.381,23.016,3.968,0.794,42.857,3.968,3.968,4.762,4.762,1.587,,,,P 42.857,1
40,2.381,,4.762,5.556,,67.460,,,3.968,,2.381,3.968,,2.381,3.175,3.175,,,,0.794,,G 67.460,1
41,,,0.794,7.937,0.794,6.349,8.730,,13.492,13.492,5.556,3.175,,30.952,4.762,2.381,0.794,0.794,,,,Q 30.952,3
42,7.258,,1.613,8.065,,61.290,0.806,,1.613,0.806,,,1.613,2.419,0.806,12.097,1.613,,,,,G 61.290,2
43,,,,,6.349,0.794,,0.794,,65.079,10.317,,16.667,,,,,,,,,L 65.079,5
44,,,0.794,17.460,0.794,,2.381,1.587,13.492,0.794,1.587,0.794,,25.397,26.984,1.587,4.762,1.587,,,,R 26.984,4
45,,,,,26.400,,,,,67.200,0.800,,,3.200,0.800,,,,0.800,0.800,,L 67.200,6
46,,,,,,,,43.200,,40.000,7.200,,,,,,,9.600,,,,I 43.200,7
47,14.400,,,,6.400,3.200,20.000,13.600,,1.600,0.800,,,,,,7.200,12.800,,20.000,,HY 20.000,2
48,1.587,1.587,1.587,1.587,9.524,,3.175,2.381,,1.587,,3.968,,8.730,1.587,3.968,7.937,0.794,1.587,48.413,,Y 48.413,2
49,4.032,,1.613,,14.516,1.613,0.806,,,5.645,0.806,,,,,54.032,5.645,,,11.290,,S 54.032,7
50,4.348,,1.739,4.348,2.609,5.217,0.870,2.609,,0.870,0.870,6.957,0.870,18.261,5.217,2.609,2.609,6.957,0.870,32.174,,Y 32.174,1
51,3.175,,11.111,3.968,0.794,31.746,,1.587,6.349,,,26.190,,1.587,0.794,2.381,3.968,2.381,1.587,2.381,,G 31.746,1
52,10.317,,3.968,14.286,,15.079,,6.349,2.381,0.794,1.587,4.762,2.381,4.762,2.381,11.905,2.381,16.667,,,,V 16.667,1
53,7.143,1.587,12.698,9.524,,14.286,0.794,3.968,14.286,1.587,1.587,11.905,3.175,3.175,1.587,7.143,3.175,2.381,,,,GK 14.286,1
54,11.905,,5.556,7.143,,0.794,3.968,4.762,1.587,3.968,2.381,3.968,6.349,8.730,,21.429,5.556,11.111,0.794,,,S 21.429,1
55,2.362,,5.512,3.937,2.362,,,7.874,3.150,6.299,1.575,10.236,0.787,3.150,7.087,7.087,25.984,9.449,,3.150,,T 25.984,1
56,1.600,,21.600,27.200,2.400,4.000,,6.400,0.800,1.600,0.800,3.200,0.800,6.400,2.400,2.400,1.600,0.800,,16.000,,E 27.200,2
57,,,6.299,34.646,,3.937,,0.787,38.583,,,3.150,1.575,6.299,0.787,1.575,1.575,0.787,,,,K 38.583,5
58,6.299,,3.150,4.724,,45.669,,2.362,6.299,,,0.787,3.150,2.362,,22.835,2.362,,,,,G 45.669,3
59,3.937,,29.921,11.811,1.575,26.772,0.787,0.787,3.150,,,7.087,4.724,4.724,0.787,3.937,,,,,,D 29.921,1
60,0.794,,0.794,0.794,23.016,,,19.841,,16.667,10.317,,1.587,,,1.587,2.381,18.254,,3.968,,F 23.016,1
61,2.362,,1.575,3.150,3.937,,2.362,,7.087,3.937,,3.937,46.457,2.362,0.787,14.961,6.299,0.787,,,,P 46.457,1
62,5.607,,42.991,16.822,0.935,2.804,1.869,,6.542,,,6.542,,3.738,,8.411,2.804,,,0.935,,D 42.991,1
63,,,0.787,3.937,,32.283,2.362,,19.685,,,0.787,,4.724,33.858,0.787,0.787,,,,,R 33.858,5
64,,,0.781,,50.000,,0.781,3.125,,1.562,,,,,,2.344,,0.781,0.781,39.844,,F 50.000,6
65,0.781,,1.562,6.250,2.344,0.781,,,7.031,3.906,,7.812,7.812,3.906,3.125,42.969,9.375,0.781,,1.562,,S 42.969,4
66,35.938,,,,,7.031,,11.719,,3.125,4.688,,0.781,0.781,,3.125,1.562,31.250,,,,A 35.938,5
67,0.781,0.781,1.562,17.188,,,1.562,,6.250,0.781,,2.344,,6.250,2.344,46.875,10.156,2.344,,0.781,,S 46.875,5
68,0.781,4.688,,,1.562,3.125,4.688,0.781,3.906,,1.562,,,13.281,62.500,0.781,0.781,,1.562,,,R 62.500,6
69,2.344,,1.562,7.031,10.938,,,2.344,10.156,3.906,,2.344,37.500,0.781,0.781,10.938,7.812,1.562,,,,P 37.500,1
70,0.781,,5.469,10.156,,5.469,,,22.656,,,14.062,3.125,3.906,3.906,22.656,7.031,0.781,,,,KS 22.656,1
71,4.800,,10.400,4.000,0.800,8.800,,1.600,20.800,8.800,0.800,10.400,1.600,6.400,5.600,0.800,10.400,3.200,,0.800,,K 20.800,1
72,1.562,,2.344,25.781,0.781,3.906,0.781,,3.906,4.688,2.344,3.125,0.781,2.344,3.906,21.094,15.625,2.344,0.781,3.906,,E 25.781,1
73,3.150,,7.874,3.150,11.024,0.787,8.661,0.787,2.362,3.150,,12.598,5.512,3.937,8.661,14.961,3.937,3.937,,5.512,,S 14.961,1
74,1.562,6.250,,,38.281,7.812,,,,3.125,,,,,,39.844,1.562,,1.562,,,S 39.844,7
75,6.202,,0.775,11.628,1.550,,0.775,3.101,,3.101,0.775,0.775,19.380,,1.550,27.132,20.155,1.550,,1.550,,S 27.132,2
76,,,,,1.550,,,,,90.698,5.426,,0.775,,,,,1.550,,,,L 90.698,8
77,1.550,,1.550,7.752,,0.775,0.775,13.178,10.853,0.775,0.775,12.403,,3.876,5.426,3.876,31.783,3.876,,0.775,,T 31.783,3
78,,,,,,,,35.659,,41.085,3.876,,,,,0.775,,18.605,,,,L 41.085,7
79,2.326,,3.876,20.930,,3.101,3.876,1.550,11.628,2.326,,6.202,1.550,13.178,3.101,13.953,11.628,0.775,,,,E 20.930,2
80,3.101,,0.775,,,0.775,1.550,,6.202,3.876,,10.853,6.202,3.101,6.202,52.713,3.101,0.775,,0.775,,S 52.713,4
81,46.512,,,,,0.775,,0.775,,21.705,0.775,,3.101,,,3.876,11.628,10.853,,,,A 46.512,3
82,4.651,,0.775,32.558,,0.775,3.101,2.326,9.302,4.651,,5.426,,7.752,2.326,17.054,6.202,3.101,,,,E 32.558,3
83,8.462,,,2.308,0.769,,0.769,1.538,5.385,17.692,1.538,,32.308,7.692,3.077,3.846,9.231,4.615,,0.769,,P 32.308,1
84,5.385,,0.769,23.077,,15.385,,,3.077,,,20.000,,,3.846,23.846,4.615,,,,,S 23.846,4
85,,,58.015,0.763,,0.763,6.870,,,,,,1.527,29.008,0.763,0.763,,,,0.763,0.763358778625954,D 58.015,7
86,1.527,,,3.817,,1.527,,0.763,0.763,1.527,0.763,,,,,52.672,35.878,0.763,,,,S 52.672,7
87,53.788,,,,,9.848,,,,,,,0.758,,0.758,34.091,0.758,,,,,A 53.788,8
88,1.515,,0.758,,5.303,,,3.030,,25.758,7.576,,0.758,2.273,,0.758,5.303,46.970,,,,V 46.970,3
89,,,,,0.758,,,0.758,,1.515,,,,,,0.758,,0.758,0.758,94.697,,Y 94.697,8
90,,,,,51.128,,,0.752,,39.098,0.752,,,,0.752,,,,,7.519,,F 51.128,4
91,,99.254,,,,,,,,,,,,,,,,0.746,,,,C 99.254,9
92,81.955,,,,,3.759,,0.752,,2.256,,,0.752,,0.752,6.767,2.256,,0.752,,,A 81.955,7
93,14.286,0.752,0.752,1.504,0.752,1.504,,,,1.504,0.752,,,,,68.421,6.015,3.008,0.752,,,S 68.421,7
94,1.527,,,0.763,,8.397,,2.290,3.053,0.763,2.290,,0.763,3.053,8.397,63.359,1.527,,3.053,0.763,,S 63.359,4
95,2.308,1.538,15.385,3.846,3.077,3.077,2.308,,2.308,17.692,0.769,2.308,6.923,10.769,9.231,6.923,6.154,3.846,0.769,0.769,,L 17.692,1
96,5.128,,15.385,2.564,2.564,17.949,,2.564,,7.692,,,7.692,2.564,,12.821,7.692,5.128,10.256,,,G 17.949,1
97,7.692,4.615,1.538,1.538,,15.385,4.615,4.615,1.538,7.692,1.538,1.538,4.615,4.615,4.615,15.385,13.846,3.077,,1.538,,GS 15.385,1
98,6.122,5.102,5.102,2.041,1.020,17.347,5.102,1.020,3.061,5.102,,3.061,1.020,2.041,6.122,8.163,18.367,5.102,3.061,1.020,1.02040816326531,T 18.367,1
99,7.377,9.016,5.738,5.738,1.639,18.852,1.639,2.459,0.820,8.197,,1.639,2.459,2.459,5.738,6.557,7.377,9.836,1.639,0.820,,G 18.852,1
100,12.879,,3.030,0.758,,16.667,2.273,0.758,0.758,6.818,0.758,11.364,1.515,2.273,5.303,15.152,6.061,8.333,1.515,3.788,,G 16.667,1
101,5.263,1.504,0.752,,0.752,12.782,3.759,2.256,2.256,,,24.812,5.263,4.511,3.759,6.015,12.030,1.504,0.752,12.030,,N 24.812,1
102,6.716,0.746,14.179,10.448,0.746,9.701,0.746,,,,,12.687,2.239,4.478,1.493,4.478,14.925,,,16.418,,Y 16.418,1
103,3.731,,5.224,41.791,,0.746,0.746,2.239,5.224,2.239,0.746,0.746,8.955,6.716,1.493,2.985,14.925,,,1.493,,E 41.791,1
104,20.149,,,,2.239,,0.746,0.746,1.493,24.627,0.746,,,32.090,0.746,0.746,0.746,8.209,0.746,5.970,,Q 32.090,1
105,,0.746,,,23.134,,11.940,2.985,,1.493,,2.239,,0.746,,,5.970,1.493,,48.507,0.746268656716418,Y 48.507,1
106,,,,,97.015,,0.746,,,0.746,,0.746,,,,0.746,,,,,,F 97.015,9
107,,0.746,,,,97.015,,0.746,,,,,,,,1.493,,,,,,G 97.015,8
108,5.970,,5.970,15.672,,5.224,0.746,,8.209,0.746,0.746,4.478,32.836,6.716,1.493,8.955,0.746,,0.746,,0.746268656716418,P 32.836,1
109,,,,,,98.507,,,,,,,,,1.493,,,,,,,G 98.507,9
110,,,,,,,,,,,,,,,,11.940,88.060,,,,,T 88.060,8
111,,,,,,,,,34.328,1.493,,,0.746,2.985,56.716,0.746,1.493,,1.493,,,R 56.716,5
112,0.746,,,,,,,0.746,,98.507,,,,,,,,,,,,L 98.507,9
113,,,0.746,,,,,1.493,,5.224,0.746,,0.746,0.746,,13.433,74.627,2.239,,,,T 74.627,6
114,,,,,0.746,,,4.478,,0.746,,,,,,,,94.030,,,,V 94.030,9
115,,,,,,,,3.759,,55.639,0.752,,0.752,0.752,,0.752,12.782,24.812,,,,L 55.639,1
116,0.746,,28.358,62.687,,6.716,,,,,,,,0.746,,,,0.746,,,,E 62.687,6
117,1.527,,79.389,2.290,,,,,6.107,,,3.053,4.580,,,0.763,2.290,,,,,D 79.389,7
118,,,2.290,,,10.687,,,,77.863,,7.634,,,,0.763,,0.763,,,,L 77.863,7
119,1.504,,3.759,2.256,,,0.752,4.511,33.083,2.256,,12.030,,9.023,6.015,21.805,,2.256,,0.752,,K 33.083,1
120,0.746,,2.239,6.716,,,,1.493,27.612,,,31.343,3.731,3.731,16.418,1.493,3.731,0.746,,,,N 31.343,2
121,,0.746,,0.746,,,,6.716,,,,,2.239,,,,0.746,88.806,,,,V 88.806,8
122,,,,0.746,38.806,,13.433,4.478,5.224,0.746,,1.493,,1.493,1.493,4.478,26.119,1.493,,,,F 38.806,6
123,2.239,,,5.224,,0.746,0.746,0.746,1.493,0.746,,0.746,84.328,,,2.985,,,,,,P 84.328,6
124,,,,,,,,,,,,,98.507,,,0.746,,0.746,,,,P 98.507,9
125,2.239,,1.493,27.612,,,,,39.552,,0.746,3.731,,1.493,1.493,2.239,19.403,,,,,K 39.552,5
126,,,,,,,,,,0.746,,,,,,,,99.254,,,,V 99.254,9
127,60.448,,,0.746,,,,,8.955,,,,,2.239,1.493,7.463,16.418,2.239,,,,A 60.448,7
128,,,,,,,,12.687,,10.448,0.746,,,,,,,76.119,,,,V 76.119,8
129,,,,,88.060,,,,,11.940,,,,,,,,,,,,F 88.060,9
130,3.731,,0.746,75.373,,,,,1.493,,,,3.731,3.731,2.985,5.970,0.746,,0.746,0.746,,E 75.373,7
131,0.746,,,,,,,,,,,,99.254,,,,,,,,,P 99.254,9
132,,,,,,,,,,,,0.746,,,,99.254,,,,,,S 99.254,9
133,3.731,,,77.612,,,,,11.940,,,,3.731,,,1.493,0.746,0.746,,,,E 77.612,7
134,64.179,,0.746,2.985,,,1.493,,7.463,0.746,,1.493,,5.970,2.985,,10.448,1.493,,,,A 64.179,6
135,,,,99.254,,,,,,,,,,,,,,0.746,,,,E 99.254,9
136,,13.433,,,,,,81.343,,1.493,,,,0.746,,,0.746,2.239,,,,I 81.343,8
137,8.955,,0.746,1.493,,4.478,,,5.970,,,1.493,,5.970,5.970,63.433,0.746,0.746,,,,S 63.433,7
138,,,6.716,5.224,,2.239,29.104,,2.239,,,12.687,,4.478,35.821,1.493,,,,,,R 35.821,5
139,,,,2.290,,,0.763,1.527,26.718,,,,,,,,67.939,0.763,,,,T 67.939,8
140,0.746,,0.746,0.746,,3.731,,,9.701,2.239,,2.239,,70.896,7.463,1.493,,,,,,Q 70.896,7
141,,,,,,,,,94.776,,0.746,0.746,,,2.239,0.746,,,,0.746,,K 94.776,9
142,85.821,,,,,,,,13.433,0.746,,,,,,,,,,,,A 85.821,9
143,,,,,,,,,,,,,,,,0.746,99.254,,,,,T 99.254,9
144,,,,,,,,3.731,,96.269,,,,,,,,,,,,L 96.269,9
145,1.493,,,,,,,,,1.493,,,,,,,,97.015,,,,V 97.015,9
146,,100.000,,,,,,,,,,,,,,,,,,,,C 100.000,9
147,,,,,,,,,,87.313,,,,,,,,12.687,,,,L 87.313,9
148,97.761,,,,,,,,,1.493,,,,,,,,0.746,,,,A 97.761,9
149,,,,,,,,,0.746,,,,,,8.209,17.164,73.881,,,,,T 73.881,9
150,,,6.716,0.746,,88.806,,,,,,2.239,,,1.493,,,,,,,G 88.806,6
151,,,,,100.000,,,,,,,,,,,,,,,,,F 100.000,9
152,,,,,14.925,,1.493,,,,,,,,,,,,,83.582,,Y 83.582,8
153,,,,,,,,,,,,,100.000,,,,,,,,,P 100.000,9
154,,,97.761,0.746,,,,,,,,,1.493,,,,,,,,,D 97.761,9
155,,,,,,1.493,97.015,,,1.493,,,,,,,,,,,,H 97.015,9
156,,,,,1.493,,,2.239,,4.478,,,,,,,,91.791,,,,V 91.791,9
157,,,0.746,76.866,,0.746,,,2.239,,,2.985,,0.746,0.746,8.955,5.970,,,,,E 76.866,8
158,,,,,0.752,,,0.752,,85.714,,,,,,,,12.782,,,,L 85.714,9
159,0.752,,,,4.511,,,,1.504,1.504,,,,0.752,,71.429,14.286,3.759,,1.504,,S 71.429,8
160,,,,,,,,,,,,,,,,,,,100.000,,,W 100.000,9
161,,,,3.030,,,,,6.818,0.758,2.273,0.758,,6.061,0.758,0.758,0.758,,75.758,2.273,,W 75.758,7
162,,,0.763,,,,,3.817,1.527,4.580,2.290,,,,1.527,,,84.733,,,0.763358778625954,V 84.733,8
163,,,3.817,,,,,,0.763,,,95.420,,,,,,,,,,N 95.420,9
164,,,1.527,3.817,,79.389,,,0.763,,,0.763,,,12.977,,,,,,0.763358778625954,G 79.389,6
165,0.763,,,3.053,,0.763,,,80.153,,,2.290,,5.344,,,1.527,6.107,,,,K 80.153,7
166,,,1.527,65.649,,1.527,,,5.344,,,6.107,,15.267,,0.763,3.053,0.763,,,,E 65.649,7
167,2.290,,,,,,,6.870,,0.763,,,,0.763,6.870,,5.344,77.099,,,,V 77.099,7
168,0.763,,0.763,0.763,,,47.328,,3.053,,,0.763,,3.817,10.687,3.053,29.008,,,,,H 47.328,6
169,,,11.450,6.107,,0.763,,1.527,3.053,,,6.107,,,,57.252,13.740,,,,,S 57.252,7
170,,,,,,99.231,,,,,,,,,0.769,,,,,,,G 99.231,9
171,0.769,,,,1.538,,,,,,,,,,,,,97.692,,,,V 97.692,9
172,12.308,21.538,,1.538,,5.385,,,3.077,,,,,,,56.154,,,,,,S 56.154,7
173,,,,,,,,,,,,,,,,0.763,99.237,,,,,T 99.237,9
174,,,95.420,1.527,,0.763,,,,,,,,0.763,,,1.527,,,,,D 95.420,9
175,2.290,,1.527,7.634,,1.527,0.763,0.763,1.527,1.527,,2.290,74.809,,,4.580,0.763,,,,,P 74.809,6
176,12.214,,,17.557,2.290,,,1.527,0.763,,,1.527,2.290,59.542,0.763,1.527,,,,,,Q 59.542,7
177,22.481,,,,,,,,,,,,69.767,0.775,,5.426,,1.550,,,,P 69.767,8
178,,,,0.781,0.781,,0.781,1.562,5.469,42.969,,,,1.562,2.344,3.125,7.812,0.781,,32.031,,L 42.969,4
179,,,0.781,2.344,,,0.781,,77.344,1.562,,,,2.344,10.938,2.344,,,1.562,,,K 77.344,7
180,,,3.150,77.165,,3.150,0.787,0.787,0.787,,,7.087,0.787,0.787,,,3.150,0.787,,1.575,,E 77.165,7
181,,1.802,17.117,4.505,,,2.703,,3.604,1.802,,0.901,2.703,54.054,1.802,7.207,1.802,,,,,Q 54.054,6
182,,,2.083,1.042,,,,1.042,,1.042,,,83.333,,,6.250,5.208,,,,,P 83.333,5
183,71.277,,1.064,,,10.638,1.064,,3.191,,,4.255,1.064,,,4.255,3.191,,,,,A 71.277,4
184,4.348,,3.261,3.261,,,,,,44.565,,4.348,,2.174,18.478,1.087,1.087,17.391,,,,L 44.565,1
185,,,16.000,3.000,,,,,2.000,,,69.000,2.000,2.000,,6.000,,,,,,N 69.000,6
186,0.775,,61.240,1.550,,11.628,2.326,,2.326,,,15.504,,,,0.775,1.550,2.326,,,,D 61.240,5
187,,,1.550,,,1.550,,3.101,6.202,,,0.775,,0.775,0.775,75.194,4.651,0.775,,4.651,,S 75.194,7
188,,,,0.775,1.550,,0.775,,14.729,2.326,0.775,1.550,,,43.411,17.054,13.953,1.550,,1.550,,R 43.411,2
189,,,,,,,,,,,,,,,,,,,,100.000,,Y 100.000,9
190,21.705,44.186,,,0.775,,,,3.876,,,,,,7.752,19.380,0.775,0.775,,0.775,,C 44.186,3
191,,,,,,,,15.504,,82.171,2.326,,,,,,,,,,,L 82.171,9
192,,,,,,,,1.550,,,,,,,,81.395,17.054,,,,,S 81.395,9
193,,,,,,,,,,,,,,,,100.000,,,,,,S 100.000,9
194,,,,,,,,,,1.550,,,,,98.450,,,,,,,R 98.450,9
195,,,,,,,,0.775,,99.225,,,,,,,,,,,,L 99.225,9
196,,,,,,,,,0.775,,0.775,,,,95.349,1.550,1.550,,,,,R 95.349,9
197,,,,,,,,6.977,,2.326,0.775,,,,,,,89.922,,,,V 89.922,9
198,0.775,,,0.775,,,0.775,,,0.775,,0.775,6.202,0.775,1.550,69.767,16.279,,,1.550,,S 69.767,7
199,90.698,,,1.550,0.775,,,0.775,0.775,1.550,,,,,0.775,3.101,,,,,,A 90.698,8
200,20.930,,2.326,4.651,,,,,6.977,,,1.550,3.876,3.101,0.775,3.101,51.163,,1.550,,,T 51.163,6
201,,,5.426,10.853,77.519,,,,,0.775,,,,3.101,,,2.326,,,,,F 77.519,7
202,,,,,,,,,,,,,,,,,,,97.674,2.326,,W 97.674,9
203,,,,1.575,11.024,,47.244,,,3.150,,3.150,,31.496,1.575,,,,,0.787,,H 47.244,5
204,,,3.101,,,,,0.775,3.876,,,87.597,,,0.775,,3.876,,,,,N 87.597,8
205,,,,,,,,,1.550,1.550,,,93.023,,,3.876,,,,,,P 93.023,8
206,,,5.426,3.101,,5.426,,,3.101,4.651,,1.550,,,75.969,,0.775,,,,,R 75.969,7
207,,,,,,,,1.550,3.101,,,93.023,,,,0.775,1.550,,,,,N 93.023,9
208,,,0.775,3.876,,,75.969,0.775,3.876,,0.775,3.876,,,4.651,,3.876,0.775,,0.775,,H 75.969,7
209,,,,,100.000,,,,,,,,,,,,,,,,,F 100.000,9
210,,,,6.202,,,1.550,,4.651,,0.775,,,,76.744,2.326,6.202,1.550,,,,R 76.744,8
211,,100.000,,,,,,,,,,,,,,,,,,,,C 100.000,9
212,,,,,0.775,,0.775,7.752,,0.775,,1.550,,78.295,,2.326,2.326,3.876,,0.775,0.775193798449612,Q 78.295,8
213,5.426,,,,,,,1.550,,,,,,,,,0.775,92.248,,,,V 92.248,9
214,,,,1.550,,1.550,1.550,,0.775,,,5.426,,77.519,,9.302,1.550,0.775,,,,Q 77.519,8
215,,,,,98.450,,,,,1.550,,,,,,,,,,,,F 98.450,9
216,,,0.775,,17.054,,20.930,,,,,,,,0.775,,,,,60.465,,Y 60.465,5
217,,,3.252,,,82.114,,,,,,10.569,0.813,1.626,,0.813,0.813,,,,,G 82.114,8
218,,0.952,,,,2.857,,1.905,,93.333,,,,,0.952,,,,,,,L 93.333,8
219,1.905,,,2.857,,4.762,,,,,,,,,,60.952,29.524,,,,,S 60.952,7
220,2.857,,23.810,70.476,,,,,2.857,,,,,,,,,,,,,E 70.476,7
221,,,23.810,18.095,,0.952,,,0.952,,,40.000,,15.238,,,0.952,,,,,N 40.000,5
222,,,96.040,1.980,,0.990,,,,,,0.990,,,,,,,,,,D 96.040,9
223,,,,62.000,,,,,8.000,,,4.000,2.000,21.000,1.000,,2.000,,,,,E 62.000,6
224,,,,,,,,,,,,,,,,,,,100.000,,,W 100.000,9
225,,,4.082,20.408,,1.020,,,3.061,,,1.020,6.122,2.041,,5.102,57.143,,,,,T 57.143,5
226,,,2.041,15.306,,,,,,2.041,,1.020,,68.367,,2.041,,,,9.184,,Q 68.367,6
227,,,56.566,,,8.081,,2.020,,,,12.121,19.192,,,1.010,1.010,,,,,D 56.566,1
228,,,,3.030,,3.030,,,,,,,,,78.788,12.121,,,3.030,,,R 78.788,7
229,70.707,,1.010,,,1.010,,,,1.010,,1.010,13.131,,,3.030,8.081,1.010,,,,A 70.707,5
230,,,,1.010,,,,,93.939,2.020,1.010,,,,2.020,,,,,,,K 93.939,8
231,,,,,,,,,,,,,100.000,,,,,,,,,P 100.000,9
232,,,,,,,,32.323,,,,,,,,1.010,,66.667,,,,V 66.667,4
233,,,,,,,,,,,,,1.010,,,,98.990,,,,,T 98.990,9
234,,,,,,,,,,,,,,98.990,1.010,,,,,,,Q 98.990,9
235,,,,,,,,38.384,11.111,,,48.485,,,,1.010,1.010,,,,,N 48.485,6
236,,,,,,,,34.343,,,,,,,,1.010,,64.646,,,,V 64.646,7
237,1.010,,,,,,,,,,,,,,,98.990,,,,,,S 98.990,9
238,97.980,,2.020,,,,,,,,,,,,,,,,,,,A 97.980,9
239,,,3.030,92.929,,1.010,1.010,,,,,,,2.020,,,,,,,,E 92.929,9
240,86.000,,,1.000,,,,2.000,,,,,,,,,7.000,4.000,,,,A 86.000,7
241,,,,,,,,,,,,1.010,,,1.010,1.010,,,96.970,,,W 96.970,8
242,,1.000,,,,98.000,,,,,,,,,,,1.000,,,,,G 98.000,9
243,,,1.000,,,,2.000,,7.000,,,1.000,,,87.000,2.000,,,,,,R 87.000,7
244,95.050,,,,,,,0.990,0.990,,,,,,,2.970,,,,,,A 95.050,9
245,,,95.402,1.149,,,,,,,,2.299,,,1.149,,,,,,,D 95.402,9
