V1;V2;Weight
1C4Z A V 634;1C4Z A L 635;24.3891
1C4Z A V 634;1C4Z A Q 637;13.3396
1C4Z A V 634;1C4Z A S 638;9.93588
1C4Z A L 635;1C4Z A Q 637;0.450811
1C4Z A L 635;1C4Z A S 638;7.89191
1C4Z A L 635;1C4Z A L 639;21.3515
1C4Z A L 635;1C4Z A Q 661;1.17771
1C4Z A L 635;1C4Z A Y 694;20.7141
1C4Z A Q 637;1C4Z A S 638;20.5004
1C4Z A Q 637;1C4Z A L 639;0.362562
1C4Z A Q 637;1C4Z A D 641;22.2816
1C4Z A S 638;1C4Z A L 639;18.1001
1C4Z A S 638;1C4Z A D 641;6.11347
1C4Z A S 638;1C4Z A L 642;8.15498
1C4Z A L 639;1C4Z A D 641;0.410927
1C4Z A L 639;1C4Z A L 642;17.5126
1C4Z A L 639;1C4Z A F 690;7.78932
1C4Z A L 639;1C4Z A Y 694;19.1486
1C4Z A D 641;1C4Z A L 642;17.1549
1C4Z A D 641;1C4Z A Y 645;15.5963
1C4Z A D 641;1C4Z A M 653;0.906807
1C4Z A L 642;1C4Z A Y 645;8.16563
1C4Z A L 642;1C4Z A M 653;14.356
1C4Z A L 642;1C4Z A I 655;12.2412
1C4Z A L 642;1C4Z A F 690;11.2949
1C4Z A Y 645;1C4Z A D 652;21.4899
1C4Z A Y 645;1C4Z A M 653;15.6074
1C4Z A D 651;1C4Z A D 652;28.568
1C4Z A D 651;1C4Z A M 653;1.11851
1C4Z A D 651;1C4Z A M 654;5.08426
1C4Z A D 652;1C4Z A M 653;26.5297
1C4Z A M 653;1C4Z A M 654;21.1503
1C4Z A M 653;1C4Z A I 655;24.7932
1C4Z A M 654;1C4Z A I 655;26.432
1C4Z A M 654;1C4Z A T 656;2.79036
1C4Z A M 654;1C4Z A P 681;20.0132
1C4Z A I 655;1C4Z A T 656;27.3087
1C4Z A I 655;1C4Z A P 681;3.54122
1C4Z A I 655;1C4Z A F 690;4.79257
1C4Z A T 656;1C4Z A Q 658;28.1738
1C4Z A T 656;1C4Z A I 659;1.3529
1C4Z A T 656;1C4Z A D 678;14.5356
1C4Z A T 656;1C4Z A K 679;5.26977
1C4Z A T 656;1C4Z A P 681;7.20038
1C4Z A T 656;1C4Z A F 690;6.53867
1C4Z A Q 658;1C4Z A I 659;31.6065
1C4Z A Q 658;1C4Z A M 670;29.2572
1C4Z A Q 658;1C4Z A D 678;26.6883
1C4Z A I 659;1C4Z A S 660;31.3967
1C4Z A I 659;1C4Z A Q 661;7.05766
1C4Z A I 659;1C4Z A M 670;8.16338
1C4Z A I 659;1C4Z A F 690;8.79885
1C4Z A I 659;1C4Z A Y 694;27.0299
1C4Z A S 660;1C4Z A Q 661;28.7921
1C4Z A S 660;1C4Z A P 668;4.80243
1C4Z A S 660;1C4Z A M 670;13.2611
1C4Z A S 660;1C4Z A Y 694;1.51743
1C4Z A Q 661;1C4Z A T 662;29.1025
1C4Z A Q 661;1C4Z A P 668;1.10165
1C4Z A Q 661;1C4Z A Y 694;7.26503
1C4Z A T 662;1C4Z A G 666;12.3436
1C4Z A T 662;1C4Z A P 668;15.2353
1C4Z A G 666;1C4Z A P 668;11.4642
1C4Z A P 668;1C4Z A M 670;17.2138
1C4Z A D 678;1C4Z A K 679;27.0993
1C4Z A K 679;1C4Z A P 681;22.971
1C4Z A F 690;1C4Z A Y 694;21.6888
