V1;V2;Weight
1CHO I K 13;1CHO I P 14;31.634
1CHO I K 13;1CHO I A 15;16.6082
1CHO I K 13;1CHO I C 16;0.278737
1CHO I K 13;1CHO I N 39;16.0528
1CHO I P 14;1CHO I A 15;21.3828
1CHO I A 15;1CHO I C 16;21.829
1CHO I C 16;1CHO I T 17;28.1954
1CHO I C 16;1CHO I L 18;9.97698
1CHO I C 16;1CHO I N 33;4.67174
1CHO I C 16;1CHO I N 36;8.48295
1CHO I C 16;1CHO I N 39;4.57714
1CHO I T 17;1CHO I L 18;19.7097
1CHO I T 17;1CHO I E 19;18.9767
1CHO I T 17;1CHO I N 33;9.55702
1CHO I L 18;1CHO I E 19;16.7087
1CHO I L 18;1CHO I N 33;0.914933
1CHO I E 19;1CHO I Y 20;17.2884
1CHO I E 19;1CHO I R 21;21.2723
1CHO I E 19;1CHO I G 32;1.23162
1CHO I E 19;1CHO I N 33;27.6069
1CHO I Y 20;1CHO I R 21;21.2618
1CHO I Y 20;1CHO I P 22;26.7568
1CHO I Y 20;1CHO I G 32;18.892
1CHO I Y 20;1CHO I N 33;0.00886073
1CHO I Y 20;1CHO I K 55;23.8629
1CHO I R 21;1CHO I P 22;28.3828
1CHO I R 21;1CHO I G 32;6.4993
1CHO I R 21;1CHO I N 33;12.573
1CHO I P 22;1CHO I G 32;6.71689
1CHO I P 22;1CHO I N 33;0.000852992
1CHO I P 22;1CHO I K 55;17.6428
1CHO I G 32;1CHO I N 33;18.9714
1CHO I G 32;1CHO I N 36;12.1033
1CHO I N 33;1CHO I N 36;16.5711
1CHO I N 36;1CHO I N 39;12.575
