V1;V2;Weight
1F47 B V 10;1F47 B I 12;24.0609
1F47 B V 10;1F47 B F 85;9.7142
1F47 B V 10;1F47 B Q 87;16.6787
1F47 B I 12;1F47 B T 83;13.7668
1F47 B I 12;1F47 B F 85;9.25773
1F47 B D 41;1F47 B M 42;42.7661
1F47 B D 41;1F47 B I 44;7.45236
1F47 B M 42;1F47 B I 44;16.3359
1F47 B M 42;1F47 B T 69;8.96503
1F47 B M 42;1F47 B F 85;2.11972
1F47 B I 44;1F47 B A 62;13.9242
1F47 B I 44;1F47 B G 68;6.19417
1F47 B I 44;1F47 B T 69;7.39306
1F47 B I 44;1F47 B F 85;8.86917
1F47 B A 62;1F47 B N 63;18.0871
1F47 B A 62;1F47 B M 64;0.60276
1F47 B A 62;1F47 B G 68;7.63686
1F47 B A 62;1F47 B T 83;17.1038
1F47 B A 62;1F47 B F 85;9.66847
1F47 B N 63;1F47 B M 64;18.6874
1F47 B N 63;1F47 B V 65;26.4019
1F47 B N 63;1F47 B K 66;0.676708
1F47 B N 63;1F47 B P 67;1.06665
1F47 B N 63;1F47 B G 68;20.1936
1F47 B N 63;1F47 B T 69;7.32938
1F47 B N 63;1F47 B T 83;1.02189
1F47 B M 64;1F47 B V 65;23.4043
1F47 B M 64;1F47 B P 80;17.7295
1F47 B M 64;1F47 B T 83;15.4176
1F47 B M 64;1F47 B R 121;16.2663
1F47 B V 65;1F47 B K 66;28.8545
1F47 B V 65;1F47 B P 67;0.27456
1F47 B V 65;1F47 B G 68;6.82356
1F47 B V 65;1F47 B P 80;20.4316
1F47 B K 66;1F47 B P 67;35.5053
1F47 B K 66;1F47 B G 68;2.65818
1F47 B P 67;1F47 B G 68;19.6538
1F47 B P 67;1F47 B T 69;28.4063
1F47 B G 68;1F47 B T 69;21.0477
1F47 B T 83;1F47 B F 85;11.4463
1F47 B F 85;1F47 B Q 87;5.22079
