V1;V2;Weight
1H9D A D 66;1H9D A S 67;17.8677
1H9D A D 66;1H9D A P 68;3.13632
1H9D A D 66;1H9D A A 160;0.169414
1H9D A D 66;1H9D A T 161;23.3496
1H9D A D 66;1H9D A H 163;19.9663
1H9D A S 67;1H9D A P 68;28.287
1H9D A S 67;1H9D A N 69;11.4115
1H9D A S 67;1H9D A L 94;0.120441
1H9D A S 67;1H9D A Q 158;0.000497953
1H9D A S 67;1H9D A V 159;5.83417
1H9D A S 67;1H9D A A 160;11.4137
1H9D A S 67;1H9D A T 161;0.147637
1H9D A P 68;1H9D A N 69;16.5635
1H9D A P 68;1H9D A L 94;11.7798
1H9D A N 69;1H9D A L 94;15.1367
1H9D A N 69;1H9D A G 95;17.5386
1H9D A N 69;1H9D A Q 158;15.0572
1H9D A L 94;1H9D A G 95;26.8213
1H9D A T 104;1H9D A M 106;9.25938
1H9D A T 104;1H9D A T 149;2.77917
1H9D A T 104;1H9D A T 151;19.5618
1H9D A T 104;1H9D A F 153;19.3218
1H9D A M 106;1H9D A A 107;23.7914
1H9D A M 106;1H9D A T 147;0.268183
1H9D A M 106;1H9D A T 149;29.7939
1H9D A M 106;1H9D A T 151;6.19005
1H9D A A 107;1H9D A G 108;17.5266
1H9D A A 107;1H9D A S 114;4.50138
1H9D A A 107;1H9D A T 147;6.82419
1H9D A A 107;1H9D A T 149;0.264878
1H9D A G 108;1H9D A N 109;19.2269
1H9D A G 108;1H9D A N 112;4.50008
1H9D A G 108;1H9D A Y 113;4.58382
1H9D A G 108;1H9D A S 114;1.54918
1H9D A G 108;1H9D A T 147;18.5082
1H9D A N 109;1H9D A D 110;25.6719
1H9D A N 109;1H9D A N 112;18.4523
1H9D A N 109;1H9D A Y 113;5.60381
1H9D A N 109;1H9D A T 147;7.04947
1H9D A N 112;1H9D A Y 113;20.5869
1H9D A N 112;1H9D A S 114;12.5696
1H9D A N 112;1H9D A E 116;0.0499901
1H9D A Y 113;1H9D A S 114;26.5363
1H9D A S 114;1H9D A E 116;4.64285
1H9D A T 147;1H9D A T 149;5.50525
1H9D A T 147;1H9D A T 161;7.78657
1H9D A T 147;1H9D A H 163;28.4426
1H9D A T 149;1H9D A T 151;9.91362
1H9D A T 149;1H9D A V 159;10.8055
1H9D A T 149;1H9D A A 160;2.69293
1H9D A T 149;1H9D A T 161;11.3737
1H9D A T 151;1H9D A F 153;20.9111
1H9D A T 151;1H9D A P 157;10.0763
1H9D A T 151;1H9D A Q 158;4.85473
1H9D A T 151;1H9D A V 159;16.1922
1H9D A F 153;1H9D A T 154;24.4677
1H9D A F 153;1H9D A N 155;2.00007
1H9D A F 153;1H9D A P 157;12.5556
1H9D A T 154;1H9D A N 155;30.8868
1H9D A T 154;1H9D A P 156;11.7338
1H9D A T 154;1H9D A P 157;10.988
1H9D A T 154;1H9D A Q 158;18.7281
1H9D A N 155;1H9D A P 156;33.3513
1H9D A N 155;1H9D A P 157;0.223673
1H9D A P 156;1H9D A P 157;29.5868
1H9D A P 156;1H9D A Q 158;2.1113
1H9D A P 157;1H9D A Q 158;19.2484
1H9D A P 157;1H9D A V 159;6.64192
1H9D A Q 158;1H9D A V 159;22.9929
1H9D A Q 158;1H9D A A 160;0.0262843
1H9D A V 159;1H9D A A 160;23.1306
1H9D A V 159;1H9D A T 161;3.84446
1H9D A A 160;1H9D A T 161;22.7333
1H9D A T 161;1H9D A H 163;9.68581
