V1;V2;Weight
1KNE A E 23;1KNE A Y 24;59.7028
1KNE A Y 24;1KNE A A 25;27.1424
1KNE A Y 24;1KNE A V 26;3.09172
1KNE A Y 24;1KNE A W 45;25.756
1KNE A A 25;1KNE A V 26;17.7632
1KNE A A 25;1KNE A W 45;10.805
1KNE A V 26;1KNE A L 43;18.6389
1KNE A V 26;1KNE A W 45;11.4422
1KNE A V 26;1KNE A L 61;1.83941
1KNE A V 26;1KNE A C 63;10.8581
1KNE A V 26;1KNE A L 66;14.9438
1KNE A L 43;1KNE A W 45;21.2512
1KNE A L 43;1KNE A T 54;15.5764
1KNE A L 43;1KNE A E 56;11.0247
1KNE A L 43;1KNE A L 61;16.2802
1KNE A W 45;1KNE A T 54;17.5757
1KNE A W 45;1KNE A E 56;12.9689
1KNE A T 54;1KNE A W 55;25.4895
1KNE A T 54;1KNE A E 56;19.7262
1KNE A W 55;1KNE A E 56;24.7458
1KNE A W 55;1KNE A P 57;2.59446
1KNE A E 56;1KNE A P 57;26.9121
1KNE A E 56;1KNE A N 60;11.8352
1KNE A E 56;1KNE A L 61;11.8526
1KNE A P 57;1KNE A N 60;24.7937
1KNE A P 57;1KNE A L 61;5.26613
1KNE A N 60;1KNE A L 61;23.75
1KNE A N 60;1KNE A D 62;1.78021
1KNE A L 61;1KNE A D 62;25.9572
1KNE A L 61;1KNE A C 63;17.6028
1KNE A D 62;1KNE A C 63;24.7129
1KNE A C 63;1KNE A D 65;6.67878
1KNE A C 63;1KNE A L 66;19.7735
1KNE A D 65;1KNE A L 66;26.7305
