V1;V2;Weight
1MLC A I 2;1MLC A Q 27;31.0035
1MLC A I 2;1MLC A N 92;6.70951
1MLC A I 2;1MLC A S 93;18.0973
1MLC A Q 27;1MLC A S 93;2.51938
1MLC A N 32;1MLC A Y 50;16.3801
1MLC A N 32;1MLC A S 91;19.288
1MLC A N 32;1MLC A N 92;20.0621
1MLC A Y 50;1MLC A S 91;6.43494
1MLC A Y 50;1MLC B D 100;6.68779
1MLC A Y 50;1MLC B G 101;7.22943
1MLC A S 91;1MLC A N 92;19.6338
1MLC A S 91;1MLC A S 93;1.8736
1MLC A S 91;1MLC A W 94;1.50549
1MLC A S 91;1MLC A R 96;23.4079
1MLC A S 91;1MLC B G 101;15.1767
1MLC A N 92;1MLC A S 93;22.1035
1MLC A N 92;1MLC A W 94;3.50491
1MLC A N 92;1MLC A R 96;0.051819
1MLC A S 93;1MLC A W 94;33.9678
1MLC A S 93;1MLC A R 96;12.73
1MLC A W 94;1MLC A R 96;27.8264
1MLC A W 94;1MLC B E 50;8.61278
1MLC A W 94;1MLC B Y 59;19.9357
1MLC A R 96;1MLC B E 35;13.3401
1MLC A R 96;1MLC B E 50;0.0503229
1MLC A R 96;1MLC B G 101;9.8299
1MLC B S 30;1MLC B T 31;20.5873
1MLC B S 30;1MLC B Y 32;1.00323
1MLC B S 30;1MLC B L 52;10.1374
1MLC B T 31;1MLC B Y 32;38.9278
1MLC B T 31;1MLC B W 33;1.01224
1MLC B T 31;1MLC B L 52;9.45264
1MLC B Y 32;1MLC B W 33;23.4989
1MLC B Y 32;1MLC B L 52;8.5769
1MLC B Y 32;1MLC B G 99;10.0792
1MLC B Y 32;1MLC B D 100;9.03625
1MLC B W 33;1MLC B E 35;7.54388
1MLC B W 33;1MLC B E 50;20.8057
1MLC B W 33;1MLC B L 52;34.5452
1MLC B W 33;1MLC B S 57;13.1909
1MLC B W 33;1MLC B T 58;5.31106
1MLC B W 33;1MLC B Y 59;0.552628
1MLC B W 33;1MLC B G 99;16.9693
1MLC B E 35;1MLC B E 50;12.9893
1MLC B E 35;1MLC B G 99;14.0732
1MLC B E 35;1MLC B G 101;1.11935
1MLC B E 50;1MLC B T 58;6.28598
1MLC B E 50;1MLC B Y 59;21.884
1MLC B L 52;1MLC B S 55;22.163
1MLC B L 52;1MLC B G 56;3.98134
1MLC B L 52;1MLC B S 57;13.6186
1MLC B S 55;1MLC B G 56;20.2314
1MLC B S 55;1MLC B S 57;10.8738
1MLC B G 56;1MLC B S 57;24.5822
1MLC B G 56;1MLC B T 58;11.5635
1MLC B S 57;1MLC B T 58;28.3211
1MLC B T 58;1MLC B Y 59;26.948
1MLC B G 99;1MLC B D 100;19.1582
1MLC B G 99;1MLC B G 101;2.33555
1MLC B D 100;1MLC B G 101;16.5218
