V1;V2;Weight
1OGA D V 29;1OGA D S 31;2.25348
1OGA D V 29;1OGA D R 70;28.9201
1OGA D S 31;1OGA D S 32;26.5903
1OGA D S 31;1OGA D V 51;13.61
1OGA D S 31;1OGA D R 70;12.1704
1OGA D S 31;1OGA D A 93;13.4197
1OGA D S 31;1OGA E R 98;1.25533
1OGA D S 32;1OGA D V 51;9.41027
1OGA D S 32;1OGA D A 93;20.1976
1OGA D S 32;1OGA E R 98;4.34029
1OGA D S 32;1OGA E S 100;3.75388
1OGA D S 32;1OGA E Y 101;14.9515
1OGA D V 51;1OGA D R 70;10.5881
1OGA D V 51;1OGA E Y 101;2.54237
1OGA D A 93;1OGA D G 94;18.2066
1OGA D A 93;1OGA D S 95;1.2669
1OGA D A 93;1OGA E R 98;0.699201
1OGA D A 93;1OGA E S 100;14.5065
1OGA D G 94;1OGA D S 95;17.7789
1OGA D G 94;1OGA D Q 96;3.70423
1OGA D G 94;1OGA D G 97;4.42143
1OGA D G 94;1OGA E S 100;8.81124
1OGA D S 95;1OGA D Q 96;39.7063
1OGA D S 95;1OGA D G 97;2.08105
1OGA D Q 96;1OGA D G 97;16.3419
1OGA D Q 96;1OGA E Q 52;4.30154
1OGA D Q 96;1OGA E Q 58;8.09028
1OGA D G 97;1OGA E Q 52;9.8075
1OGA D G 97;1OGA E S 99;9.13359
1OGA D G 97;1OGA E S 100;9.37164
1OGA E D 32;1OGA E Q 52;12.0707
1OGA E D 32;1OGA E I 53;19.0939
1OGA E D 32;1OGA E V 54;3.29398
1OGA E D 32;1OGA E S 97;17.3509
1OGA E D 32;1OGA E R 98;7.51378
1OGA E D 32;1OGA E S 99;0.297228
1OGA E Q 52;1OGA E I 53;26.976
1OGA E Q 52;1OGA E D 56;6.45151
1OGA E Q 52;1OGA E F 57;0.0603962
1OGA E Q 52;1OGA E Q 58;19.262
1OGA E Q 52;1OGA E R 98;0.0245317
1OGA E Q 52;1OGA E S 99;21.2021
1OGA E I 53;1OGA E V 54;33.0976
1OGA E I 53;1OGA E N 55;0.466554
1OGA E I 53;1OGA E D 56;19.2634
1OGA E V 54;1OGA E N 55;36.5663
1OGA E V 54;1OGA E D 56;2.05215
1OGA E N 55;1OGA E D 56;25.8145
1OGA E N 55;1OGA E F 57;2.31914
1OGA E D 56;1OGA E F 57;40.9179
1OGA E D 56;1OGA E Q 58;8.39796
1OGA E F 57;1OGA E Q 58;29.6519
1OGA E Q 58;1OGA E K 59;28.8077
1OGA E S 97;1OGA E R 98;27.5912
1OGA E S 97;1OGA E Y 101;13.0809
1OGA E R 98;1OGA E S 99;33.6374
1OGA E R 98;1OGA E S 100;4.9603
1OGA E R 98;1OGA E Y 101;24.772
1OGA E S 99;1OGA E S 100;18.9211
1OGA E S 99;1OGA E Y 101;3.56648
1OGA E S 100;1OGA E Y 101;23.348
