V1;V2;Weight
1PPF E L 35;1PPF E G 38;6.91838
1PPF E L 35;1PPF E F 41;22.7843
1PPF E L 35;1PPF E V 62;18.9134
1PPF E G 38;1PPF E H 40;0.766521
1PPF E H 40;1PPF E F 41;24.8348
1PPF E H 40;1PPF E C 42;12.5985
1PPF E H 40;1PPF E I 151;18.4151
1PPF E H 40;1PPF E G 193;13.8362
1PPF E F 41;1PPF E C 42;33.9318
1PPF E F 41;1PPF E C 58;16.3046
1PPF E F 41;1PPF E V 62;8.88772
1PPF E F 41;1PPF E G 193;4.89792
1PPF E F 41;1PPF E S 195;0.0669403
1PPF E C 42;1PPF E C 58;19.9734
1PPF E C 42;1PPF E G 193;4.75341
1PPF E C 42;1PPF E S 195;11.2993
1PPF E H 57;1PPF E C 58;27.7153
1PPF E H 57;1PPF E V 62;0.102671
1PPF E H 57;1PPF E Y 94;20.3623
1PPF E H 57;1PPF E L 99;0.492332
1PPF E H 57;1PPF E D 102;17.679
1PPF E H 57;1PPF E S 195;11.5963
1PPF E H 57;1PPF E A 213;1.3269
1PPF E H 57;1PPF E S 214;9.90053
1PPF E C 58;1PPF E V 62;10.697
1PPF E C 58;1PPF E S 195;7.02131
1PPF E Y 94;1PPF E P 96;37.9465
1PPF E Y 94;1PPF E L 99;14.2386
1PPF E Y 94;1PPF E D 102;14.5775
1PPF E P 96;1PPF E L 99;15.6517
1PPF E L 99;1PPF E D 102;12.5692
1PPF E L 99;1PPF E S 214;5.21779
1PPF E L 99;1PPF E F 215;27.9695
1PPF E D 102;1PPF E S 214;19.7272
1PPF E L 143;1PPF E R 146;4.55257
1PPF E L 143;1PPF E N 147;11.3035
1PPF E L 143;1PPF E G 150;17.1183
1PPF E L 143;1PPF E I 151;16.9035
1PPF E L 143;1PPF E C 191;23.1857
1PPF E L 143;1PPF E F 192;24.8175
1PPF E L 143;1PPF E D 194;0.10021
1PPF E R 146;1PPF E N 147;41.628
1PPF E R 146;1PPF E C 191;4.26501
1PPF E R 146;1PPF E C 220;6.42311
1PPF E N 147;1PPF E G 150;6.21919
1PPF E G 150;1PPF E I 151;25.0749
1PPF E I 151;1PPF E F 192;2.50146
1PPF E I 151;1PPF E G 193;3.45663
1PPF E V 190;1PPF E C 191;19.4542
1PPF E V 190;1PPF E D 194;11.8164
1PPF E V 190;1PPF E A 213;11.1613
1PPF E V 190;1PPF E F 215;0.832866
1PPF E V 190;1PPF E V 216;12.2119
1PPF E V 190;1PPF E C 220;7.62696
1PPF E V 190;1PPF E A 227;1.4977
1PPF E C 191;1PPF E F 192;26.0376
1PPF E C 191;1PPF E G 193;0.678683
1PPF E C 191;1PPF E D 194;18.3978
1PPF E C 191;1PPF E S 195;0.0108511
1PPF E C 191;1PPF E C 220;22.803
1PPF E F 192;1PPF E G 193;14.0909
1PPF E F 192;1PPF E D 194;0.567859
1PPF E F 192;1PPF E V 216;7.00604
1PPF E F 192;1PPF E G 219;4.54427
1PPF E F 192;1PPF E C 220;14.0416
1PPF E G 193;1PPF E D 194;18.5457
1PPF E G 193;1PPF E S 195;2.84453
1PPF E D 194;1PPF E S 195;20.1963
1PPF E D 194;1PPF E A 213;9.98569
1PPF E S 195;1PPF E A 213;9.16026
1PPF E S 195;1PPF E S 214;1.91066
1PPF E A 213;1PPF E S 214;19.9011
1PPF E A 213;1PPF E A 227;2.20799
1PPF E S 214;1PPF E F 215;28.7092
1PPF E S 214;1PPF E A 227;10.0153
1PPF E F 215;1PPF E V 216;26.4816
1PPF E F 215;1PPF E R 217;19.6111
1PPF E F 215;1PPF E A 227;36.5847
1PPF E V 216;1PPF E R 217;29.3172
1PPF E V 216;1PPF E G 219;17.8747
1PPF E V 216;1PPF E C 220;11.9342
1PPF E R 217;1PPF E G 218;19.9762
1PPF E R 217;1PPF E G 219;10.1172
1PPF E R 217;1PPF E A 227;5.51009
1PPF E G 218;1PPF E G 219;30.2562
1PPF E G 218;1PPF E C 220;1.05445
1PPF E G 219;1PPF E C 220;26.7415
