V1;V2;Weight
1REW A S 13;1REW A K 15;16.9272
1REW A S 13;1REW A P 48;17.3991
1REW A S 13;1REW A H 54;4.43578
1REW A K 15;1REW A R 16;33.1387
1REW A P 48;1REW A F 49;28.2649
1REW A P 48;1REW A P 50;10.1082
1REW A P 48;1REW A L 51;12.454
1REW A P 48;1REW A T 65;4.92807
1REW A F 49;1REW A P 50;35.7436
1REW A F 49;1REW A L 51;0.274079
1REW A F 49;1REW A I 62;0.0181037
1REW A F 49;1REW A T 65;21.2652
1REW A F 49;1REW A L 66;18.5598
1REW A F 49;1REW A S 69;3.93576
1REW A P 50;1REW A L 51;21.0705
1REW A P 50;1REW A A 52;6.62408
1REW A P 50;1REW A T 65;0.0287688
1REW A L 51;1REW A A 52;26.222
1REW A L 51;1REW A D 53;0.00917988
1REW A L 51;1REW A S 57;17.8346
1REW A L 51;1REW A I 62;14.1825
1REW A L 51;1REW A T 65;16.664
1REW A A 52;1REW A D 53;21.9956
1REW A A 52;1REW A H 54;15.3543
1REW A A 52;1REW A N 56;2.14445
1REW A A 52;1REW A S 57;1.52265
1REW A D 53;1REW A H 54;27.9117
1REW A D 53;1REW A N 56;18.1393
1REW A H 54;1REW A N 56;14.3703
1REW A N 56;1REW A S 57;23.9168
1REW A N 56;1REW A T 58;0.364586
1REW A S 57;1REW A T 58;27.1681
1REW A S 57;1REW A N 59;0.371511
1REW A S 57;1REW A I 62;10.6332
1REW A T 58;1REW A N 59;20.0851
1REW A T 58;1REW A I 62;10.8939
1REW A T 58;1REW B D 105;17.8639
1REW A N 59;1REW A I 62;14.372
1REW A N 59;1REW A V 63;11.2874
1REW A N 59;1REW B Y 103;14.0981
1REW A N 59;1REW B Q 104;15.2324
1REW A N 59;1REW B D 105;9.7228
1REW A N 59;1REW B M 106;13.3647
1REW A I 62;1REW A V 63;19.2754
1REW A I 62;1REW A T 65;10.0066
1REW A I 62;1REW A L 66;17.0115
1REW A V 63;1REW A T 65;1.04865
1REW A V 63;1REW A L 66;11.9409
1REW A V 63;1REW B F 23;0.138505
1REW A V 63;1REW B W 28;15.0922
1REW A V 63;1REW B M 106;9.37892
1REW A T 65;1REW A L 66;19.0598
1REW A T 65;1REW A S 69;10.2171
1REW A L 66;1REW A S 69;14.622
1REW A L 66;1REW A V 70;9.86514
1REW A L 66;1REW B V 26;0.122645
1REW A L 66;1REW B W 28;20.5878
1REW A S 69;1REW A V 70;20.8046
1REW A S 69;1REW A N 71;0.394804
1REW A V 70;1REW A N 71;32.8313
1REW A V 70;1REW B D 25;4.44431
1REW A V 70;1REW B V 26;18.912
1REW A N 71;1REW A S 72;22.7069
1REW B F 23;1REW B S 24;18.4866
1REW B F 23;1REW B D 25;0.746169
1REW B F 23;1REW B V 26;12.1461
1REW B F 23;1REW B G 27;3.92646
1REW B F 23;1REW B W 28;27.4521
1REW B F 23;1REW B I 32;26.6612
1REW B F 23;1REW B M 89;11.8062
1REW B F 23;1REW B M 106;1.26075
1REW B S 24;1REW B D 25;26.6095
1REW B S 24;1REW B V 26;0.90086
1REW B S 24;1REW B G 27;7.61743
1REW B D 25;1REW B V 26;22.069
1REW B D 25;1REW B G 27;1.51327
1REW B V 26;1REW B G 27;15.4178
1REW B V 26;1REW B W 28;26.4716
1REW B G 27;1REW B W 28;20.8392
1REW B G 27;1REW B D 30;11.4305
1REW B G 27;1REW B W 31;0.282529
1REW B W 28;1REW B D 30;6.48482
1REW B W 28;1REW B W 31;30.7915
1REW B W 28;1REW B I 32;22.5093
1REW B D 30;1REW B W 31;37.3973
1REW B D 30;1REW B I 32;0.140054
1REW B D 30;1REW B L 92;11.4593
1REW B W 31;1REW B I 32;38.1197
1REW B W 31;1REW B M 89;2.61492
1REW B W 31;1REW B Y 91;22.8718
1REW B W 31;1REW B L 92;25.6073
1REW B W 31;1REW B Y 103;6.46662
1REW B I 32;1REW B M 89;20.7158
1REW B I 32;1REW B Y 91;7.37996
1REW B M 89;1REW B Y 91;8.13377
1REW B M 89;1REW B K 101;15.1604
1REW B M 89;1REW B Y 103;28.2393
1REW B M 89;1REW B M 106;8.28221
1REW B Y 91;1REW B L 92;24.2695
1REW B Y 91;1REW B K 101;26.0081
1REW B Y 91;1REW B Y 103;13.4823
1REW B K 101;1REW B Y 103;35.3235
1REW B Y 103;1REW B Q 104;19.3949
1REW B Y 103;1REW B M 106;19.6571
1REW B Q 104;1REW B D 105;35.2559
1REW B Q 104;1REW B M 106;5.93828
1REW B D 105;1REW B M 106;16.7383
