V1;V2;Weight
1TM1 E D 32;1TM1 E S 33;22.1651
1TM1 E D 32;1TM1 E H 64;13.6266
1TM1 E D 32;1TM1 E L 96;18.9033
1TM1 E D 32;1TM1 E S 125;10.1117
1TM1 E D 32;1TM1 E L 126;2.86656
1TM1 E S 33;1TM1 E N 62;13.1575
1TM1 E S 33;1TM1 E S 63;0.200707
1TM1 E S 33;1TM1 E H 64;5.62942
1TM1 E S 33;1TM1 E L 96;20.0299
1TM1 E S 33;1TM1 E G 100;1.1376
1TM1 E N 62;1TM1 E S 63;30.9143
1TM1 E N 62;1TM1 E H 64;14.7606
1TM1 E N 62;1TM1 E D 99;3.62329
1TM1 E N 62;1TM1 E G 100;11.6885
1TM1 E S 63;1TM1 E H 64;20.1468
1TM1 E S 63;1TM1 E Y 217;16.0696
1TM1 E H 64;1TM1 E L 96;0.620222
1TM1 E H 64;1TM1 E S 125;9.96336
1TM1 E H 64;1TM1 E Y 217;10.4925
1TM1 E H 64;1TM1 E S 221;9.12949
1TM1 E H 64;1TM1 E M 222;6.69258
1TM1 E L 96;1TM1 E G 100;10.5466
1TM1 E L 96;1TM1 E S 101;9.6466
1TM1 E L 96;1TM1 E G 102;7.19807
1TM1 E L 96;1TM1 E I 107;6.02867
1TM1 E L 96;1TM1 E S 125;1.16487
1TM1 E L 96;1TM1 E L 126;15.3247
1TM1 E D 99;1TM1 E G 100;20.0351
1TM1 E D 99;1TM1 E S 101;10.7667
1TM1 E D 99;1TM1 E S 101;11.3333
1TM1 E G 100;1TM1 E S 101;17.7393
1TM1 E S 101;1TM1 E G 102;17.6501
1TM1 E S 101;1TM1 E G 102;1.35928
1TM1 E G 102;1TM1 E Q 103;21.1319
1TM1 E G 102;1TM1 E Y 104;1.06114
1TM1 E G 102;1TM1 E I 107;7.23209
1TM1 E Q 103;1TM1 E Y 104;19.1877
1TM1 E Q 103;1TM1 E I 107;8.8453
1TM1 E Q 103;1TM1 E Y 104;3.58972
1TM1 E Y 104;1TM1 E I 107;9.4448
1TM1 E Y 104;1TM1 E G 128;8.48655
1TM1 E Y 104;1TM1 E P 129;1.50941
1TM1 E Y 104;1TM1 E S 130;13.1001
1TM1 E Y 104;1TM1 E S 130;8.93382
1TM1 E Y 104;1TM1 E L 135;17.499
1TM1 E Y 104;1TM1 E Y 167;1.2967
1TM1 E I 107;1TM1 E L 126;11.7834
1TM1 E I 107;1TM1 E L 135;10.5585
1TM1 E I 107;1TM1 E P 168;1.0009
1TM1 E S 125;1TM1 E L 126;20.5469
1TM1 E S 125;1TM1 E A 152;6.30367
1TM1 E S 125;1TM1 E S 221;18.017
1TM1 E L 126;1TM1 E G 127;19.5278
1TM1 E L 126;1TM1 E A 152;10.8722
1TM1 E L 126;1TM1 E Y 167;0.33333
1TM1 E L 126;1TM1 E P 168;16.4467
1TM1 E G 127;1TM1 E G 128;22.2885
1TM1 E G 127;1TM1 E A 152;0.119163
1TM1 E G 127;1TM1 E Y 167;8.77423
1TM1 E G 127;1TM1 E P 168;3.08845
1TM1 E G 128;1TM1 E P 129;28.8946
1TM1 E G 128;1TM1 E S 130;4.88522
1TM1 E G 128;1TM1 E Y 167;19.1148
1TM1 E P 129;1TM1 E S 130;27.3372
1TM1 E P 129;1TM1 E S 130;3.33501
1TM1 E P 129;1TM1 E Y 167;13.5077
1TM1 E S 130;1TM1 E L 135;0.293759
1TM1 E S 130;1TM1 E Y 167;13.6301
1TM1 E L 135;1TM1 E Y 167;9.0356
1TM1 E L 135;1TM1 E P 168;17.2245
1TM1 E A 152;1TM1 E G 154;5.6284
1TM1 E A 152;1TM1 E T 220;13.917
1TM1 E A 152;1TM1 E S 221;4.68725
1TM1 E G 154;1TM1 E N 155;19.4042
1TM1 E G 154;1TM1 E E 156;3.09301
1TM1 E G 154;1TM1 E F 189;0.0137827
1TM1 E G 154;1TM1 E T 220;15.8993
1TM1 E N 155;1TM1 E E 156;23.4252
1TM1 E N 155;1TM1 E F 189;27.1337
1TM1 E N 155;1TM1 E G 219;3.35043
1TM1 E N 155;1TM1 E T 220;12.452
1TM1 E E 156;1TM1 E F 189;0.956868
1TM1 E Y 167;1TM1 E P 168;22.7683
1TM1 E S 188;1TM1 E F 189;28.8274
1TM1 E F 189;1TM1 E N 218;10.0171
1TM1 E F 189;1TM1 E G 219;11.3047
1TM1 E F 189;1TM1 E T 220;5.70881
1TM1 E Y 217;1TM1 E N 218;27.1146
1TM1 E Y 217;1TM1 E M 222;19.9191
1TM1 E N 218;1TM1 E G 219;14.906
1TM1 E N 218;1TM1 E M 222;9.31697
1TM1 E G 219;1TM1 E T 220;14.4681
1TM1 E G 219;1TM1 E S 221;3.5427
1TM1 E G 219;1TM1 E M 222;12.6473
1TM1 E T 220;1TM1 E S 221;15.1639
1TM1 E T 220;1TM1 E M 222;1.49726
1TM1 E S 221;1TM1 E M 222;24.8717
