V1;V2;Weight
1Z7X W Q 10;1Z7X W C 11;24.3057
1Z7X W Q 10;1Z7X W D 35;20.9152
1Z7X W C 11;1Z7X W D 35;6.34265
1Z7X W C 11;1Z7X W D 36;26.2663
1Z7X W D 35;1Z7X W D 36;25.8771
1Z7X W D 35;1Z7X W R 63;32.0075
1Z7X W D 36;1Z7X W R 63;3.49501
1Z7X W R 63;1Z7X W N 93;0.638695
1Z7X W N 93;1Z7X W D 121;29.988
1Z7X W E 206;1Z7X W W 261;11.8473
1Z7X W E 206;1Z7X W W 263;22.7713
1Z7X W T 259;1Z7X W W 261;19.0421
1Z7X W T 259;1Z7X W E 287;28.2435
1Z7X W W 261;1Z7X W W 263;15.7535
1Z7X W W 261;1Z7X W E 287;6.52554
1Z7X W W 261;1Z7X W S 289;25.3441
1Z7X W W 261;1Z7X W W 318;24.3281
1Z7X W W 263;1Z7X W E 264;34.5123
1Z7X W W 263;1Z7X W S 289;13.1915
1Z7X W W 263;1Z7X W A 291;14.1282
1Z7X W E 264;1Z7X W A 291;6.59158
1Z7X W E 264;1Z7X W G 292;18.8759
1Z7X W E 287;1Z7X W S 316;16.2331
1Z7X W E 287;1Z7X W W 318;8.29429
1Z7X W S 289;1Z7X W A 291;9.31705
1Z7X W S 289;1Z7X W W 318;15.6634
1Z7X W A 291;1Z7X W G 292;14.7714
1Z7X W A 291;1Z7X W W 318;7.90055
1Z7X W A 291;1Z7X W K 320;18.6551
1Z7X W A 291;1Z7X W Q 346;4.71176
1Z7X W G 292;1Z7X W K 320;5.23649
1Z7X W G 292;1Z7X W S 321;19.1333
1Z7X W S 316;1Z7X W W 318;19.7054
1Z7X W S 316;1Z7X W E 344;22.0836
1Z7X W W 318;1Z7X W K 320;0.408908
1Z7X W W 318;1Z7X W E 344;22.5066
1Z7X W W 318;1Z7X W Q 346;36.9187
1Z7X W W 318;1Z7X W W 375;7.68095
1Z7X W K 320;1Z7X W S 321;23.3713
1Z7X W K 320;1Z7X W Q 346;35.4898
1Z7X W K 320;1Z7X W N 349;15.7249
1Z7X W S 321;1Z7X W N 349;26.3616
1Z7X W E 344;1Z7X W Q 346;3.39166
1Z7X W E 344;1Z7X W V 373;28.3842
1Z7X W E 344;1Z7X W W 375;19.4933
1Z7X W Q 346;1Z7X W W 375;29.4375
1Z7X W N 349;1Z7X W A 377;9.09722
1Z7X W N 349;1Z7X W D 378;34.0168
1Z7X W N 349;1Z7X W N 406;2.45518
1Z7X W V 373;1Z7X W W 375;18.5161
1Z7X W V 373;1Z7X W E 401;35.0222
1Z7X W W 375;1Z7X W A 377;0.156221
1Z7X W W 375;1Z7X W E 401;0.206413
1Z7X W W 375;1Z7X W D 403;32.4727
1Z7X W W 375;1Z7X W V 432;1.11282
1Z7X W A 377;1Z7X W D 378;20.5434
1Z7X W A 377;1Z7X W D 403;15.1203
1Z7X W A 377;1Z7X W S 405;15.7416
1Z7X W A 377;1Z7X W N 406;3.43553
1Z7X W A 377;1Z7X W N 407;1.5025
1Z7X W D 378;1Z7X W S 405;4.12421
1Z7X W D 378;1Z7X W N 406;33.264
1Z7X W D 378;1Z7X W N 407;8.01145
1Z7X W D 383;1Z7X W C 408;4.53179
1Z7X W D 383;1Z7X W L 409;12.1397
1Z7X W D 383;1Z7X W G 410;14.8489
1Z7X W D 383;1Z7X W D 411;0.034624
1Z7X W E 401;1Z7X W D 403;0.0710323
1Z7X W E 401;1Z7X W Q 430;29.0318
1Z7X W E 401;1Z7X W V 432;3.27642
1Z7X W D 403;1Z7X W S 405;14.3869
1Z7X W D 403;1Z7X W V 432;25.1096
1Z7X W S 405;1Z7X W N 406;20.6823
1Z7X W S 405;1Z7X W N 407;4.70756
1Z7X W S 405;1Z7X W V 432;9.80727
1Z7X W S 405;1Z7X W L 433;3.63654
1Z7X W S 405;1Z7X W Y 434;20.6171
1Z7X W S 405;1Z7X W D 435;1.15286
1Z7X W S 405;1Z7X W I 436;3.58095
1Z7X W N 406;1Z7X W N 407;20.6395
1Z7X W N 406;1Z7X W Y 434;4.55444
1Z7X W N 406;1Z7X W D 435;24.2249
1Z7X W N 406;1Z7X W I 436;3.92297
1Z7X W N 407;1Z7X W C 408;20.3845
1Z7X W N 407;1Z7X W L 409;17.8398
1Z7X W N 407;1Z7X W D 435;2.97097
1Z7X W N 407;1Z7X W I 436;14.5486
1Z7X W C 408;1Z7X W L 409;19.0462
1Z7X W C 408;1Z7X W G 410;0.747689
1Z7X W L 409;1Z7X W G 410;19.2339
1Z7X W L 409;1Z7X W L 433;4.21535
1Z7X W L 409;1Z7X W I 436;24.4789
1Z7X W L 409;1Z7X W Y 437;4.38506
1Z7X W G 410;1Z7X W D 411;23.2631
1Z7X W G 410;1Z7X W I 436;0.422908
1Z7X W G 410;1Z7X W Y 437;6.65797
1Z7X W G 410;1Z7X W W 438;0.260646
1Z7X W D 411;1Z7X W Y 437;0.353897
1Z7X W D 411;1Z7X W W 438;10.0371
1Z7X W D 411;1Z7X W S 439;22.7704
1Z7X W D 411;1Z7X W E 441;1.59436
1Z7X W Q 430;1Z7X W V 432;11.688
1Z7X W Q 430;1Z7X W R 457;25.8452
1Z7X W Q 430;1Z7X W I 459;15.2804
1Z7X W V 432;1Z7X W L 433;22.9035
1Z7X W V 432;1Z7X W Y 434;13.1094
1Z7X W V 432;1Z7X W I 459;18.6256
1Z7X W L 433;1Z7X W Y 434;19.8112
1Z7X W L 433;1Z7X W D 435;1.38951
1Z7X W L 433;1Z7X W I 436;23.0872
1Z7X W L 433;1Z7X W W 438;22.5522
1Z7X W L 433;1Z7X W I 459;10.2233
1Z7X W L 433;1Z7X W S 460;9.09993
1Z7X W Y 434;1Z7X W D 435;27.2966
1Z7X W Y 434;1Z7X W I 436;6.23081
1Z7X W Y 434;1Z7X W I 459;18.0
1Z7X W Y 434;1Z7X W S 460;28.7042
1Z7X W D 435;1Z7X W I 436;27.0089
1Z7X W D 435;1Z7X W S 460;1.10082
1Z7X W I 436;1Z7X W Y 437;28.5326
1Z7X W I 436;1Z7X W W 438;20.2275
1Z7X W Y 437;1Z7X W W 438;38.4633
1Z7X W Y 437;1Z7X W S 439;6.1637
1Z7X W W 438;1Z7X W S 439;25.8384
1Z7X W W 438;1Z7X W E 440;3.96061
1Z7X W W 438;1Z7X W E 443;19.9847
1Z7X W W 438;1Z7X W S 460;14.0906
1Z7X W S 439;1Z7X W E 440;17.7751
1Z7X W S 439;1Z7X W E 441;16.7712
1Z7X W S 439;1Z7X W E 443;6.64418
1Z7X W E 440;1Z7X W E 441;22.5497
1Z7X W E 440;1Z7X W E 443;19.2657
1Z7X W E 441;1Z7X W E 443;1.05894
1Z7X W E 443;1Z7X W Q 447;34.6334
1Z7X W R 457;1Z7X W I 459;23.658
1Z7X W I 459;1Z7X W S 460;29.3178
