V1;V2;Weight
2AJF E K 390;2AJF E Y 481;24.6041
2AJF E K 390;2AJF E Y 491;36.4707
2AJF E K 390;2AJF E Q 492;3.35957
2AJF E V 404;2AJF E Y 440;13.1709
2AJF E V 404;2AJF E Y 442;14.8267
2AJF E R 426;2AJF E Y 484;0.865761
2AJF E R 426;2AJF E Q 492;29.8263
2AJF E S 432;2AJF E Y 484;11.0797
2AJF E S 432;2AJF E T 486;5.40681
2AJF E Y 436;2AJF E D 480;36.5121
2AJF E Y 436;2AJF E Y 481;0.348391
2AJF E Y 436;2AJF E G 482;19.6956
2AJF E Y 436;2AJF E Y 484;19.9013
2AJF E Y 440;2AJF E Y 442;10.4688
2AJF E Y 440;2AJF E N 479;37.999
2AJF E Y 440;2AJF E D 480;2.99727
2AJF E Y 440;2AJF E Y 481;32.202
2AJF E Y 442;2AJF E L 443;50.2581
2AJF E Y 442;2AJF E Y 475;7.79055
2AJF E Y 442;2AJF E N 479;30.2566
2AJF E L 443;2AJF E F 460;31.432
2AJF E L 443;2AJF E Y 475;13.7934
2AJF E F 460;2AJF E P 462;18.5581
2AJF E F 460;2AJF E N 473;2.45851
2AJF E F 460;2AJF E Y 475;27.8408
2AJF E P 462;2AJF E D 463;29.0473
2AJF E P 462;2AJF E N 473;18.9275
2AJF E P 462;2AJF E Y 475;8.48178
2AJF E D 463;2AJF E N 473;1.39269
2AJF E P 470;2AJF E L 472;6.36631
2AJF E L 472;2AJF E N 473;39.3983
2AJF E N 473;2AJF E Y 475;24.9032
2AJF E N 479;2AJF E D 480;28.7491
2AJF E N 479;2AJF E Y 481;1.96295
2AJF E D 480;2AJF E Y 481;23.6842
2AJF E D 480;2AJF E G 482;4.07066
2AJF E Y 481;2AJF E G 482;28.5153
2AJF E G 482;2AJF E Y 484;11.7169
2AJF E G 482;2AJF E T 487;0.739371
2AJF E G 482;2AJF E Y 491;2.408
2AJF E Y 484;2AJF E T 486;9.06716
2AJF E Y 484;2AJF E T 487;22.7534
2AJF E Y 484;2AJF E Y 491;0.728397
2AJF E Y 484;2AJF E Q 492;5.30981
2AJF E T 486;2AJF E T 487;25.7714
2AJF E T 486;2AJF E Q 492;0.0819627
2AJF E T 487;2AJF E G 488;24.0274
2AJF E T 487;2AJF E I 489;0.204464
2AJF E T 487;2AJF E Y 491;14.6628
2AJF E T 487;2AJF E Q 492;20.2698
2AJF E G 488;2AJF E I 489;21.3763
2AJF E G 488;2AJF E Y 491;11.1203
2AJF E G 488;2AJF E Q 492;6.63212
2AJF E I 489;2AJF E Y 491;2.60061
2AJF E I 489;2AJF E Q 492;31.4741
2AJF E Y 491;2AJF E Q 492;18.0497
