V1;V2;Weight
2HRK A D 120;2HRK A L 123;8.26876
2HRK A D 120;2HRK A N 124;8.10874
2HRK A D 120;2HRK A V 162;7.07873
2HRK A D 120;2HRK A N 163;25.3991
2HRK A L 123;2HRK A N 124;17.9479
2HRK A L 123;2HRK A L 125;2.17934
2HRK A L 123;2HRK A R 126;21.01
2HRK A L 123;2HRK A T 127;3.1329
2HRK A L 123;2HRK A F 128;6.44761
2HRK A L 123;2HRK A N 163;16.1115
2HRK A L 123;2HRK A R 166;16.1564
2HRK A L 123;2HRK A W 167;21.3473
2HRK A N 124;2HRK A L 125;30.6745
2HRK A N 124;2HRK A R 126;0.172385
2HRK A N 124;2HRK A N 163;17.0871
2HRK A N 124;2HRK A R 166;2.0301
2HRK A L 125;2HRK A R 126;28.0108
2HRK A R 126;2HRK A T 127;21.3614
2HRK A R 126;2HRK A F 128;10.0291
2HRK A R 126;2HRK A G 131;19.2503
2HRK A R 126;2HRK A R 166;7.14594
2HRK A T 127;2HRK A F 128;38.1021
2HRK A T 127;2HRK A G 131;1.70396
2HRK A T 127;2HRK A G 132;4.43627
2HRK A T 127;2HRK A R 166;10.8511
2HRK A T 127;2HRK A W 167;9.20065
2HRK A T 127;2HRK A L 170;11.8356
2HRK A F 128;2HRK A G 131;11.2401
2HRK A F 128;2HRK A G 132;14.5179
2HRK A F 128;2HRK A L 133;7.96501
2HRK A F 128;2HRK A W 167;7.23313
2HRK A F 128;2HRK A L 170;14.8769
2HRK A F 128;2HRK A L 171;12.2366
2HRK A G 131;2HRK A G 132;33.4548
2HRK A G 132;2HRK A L 133;26.278
2HRK A K 159;2HRK A V 162;21.8617
2HRK A K 159;2HRK A S 165;20.1881
2HRK A V 162;2HRK A N 163;28.2444
2HRK A V 162;2HRK A S 165;8.89764
2HRK A V 162;2HRK A R 166;9.51737
2HRK A N 163;2HRK A S 165;0.85362
2HRK A N 163;2HRK A R 166;25.4486
2HRK A N 163;2HRK A W 167;8.1214
2HRK A S 165;2HRK A R 166;19.7921
2HRK A S 165;2HRK A W 167;0.937969
2HRK A S 165;2HRK A T 169;18.8467
2HRK A R 166;2HRK A W 167;27.6812
2HRK A R 166;2HRK A T 169;9.75132
2HRK A R 166;2HRK A L 170;9.0586
2HRK A W 167;2HRK A T 169;0.963033
2HRK A W 167;2HRK A L 170;14.4071
2HRK A W 167;2HRK A L 171;25.0
2HRK A T 169;2HRK A L 170;20.9175
2HRK A T 169;2HRK A L 171;0.284609
2HRK A T 169;2HRK A M 173;17.9172
2HRK A L 170;2HRK A L 171;26.8928
2HRK A L 170;2HRK A M 173;16.0905
2HRK A L 170;2HRK A D 174;1.50141
2HRK A L 171;2HRK A M 173;1.64384
2HRK A L 171;2HRK A D 174;16.3504
2HRK A M 173;2HRK A D 174;15.6773
2HRK A M 173;2HRK A P 175;11.3403
2HRK A D 174;2HRK A P 175;24.1956
