V1;V2;Weight
2JEL P M 1;2JEL P F 2;29.6273
2JEL P M 1;2JEL P Q 3;15.2903
2JEL P M 1;2JEL P S 64;7.49364
2JEL P M 1;2JEL P A 65;10.6058
2JEL P M 1;2JEL P E 66;10.0805
2JEL P M 1;2JEL P E 70;15.6057
2JEL P F 2;2JEL P Q 3;31.6266
2JEL P F 2;2JEL P Q 4;11.7022
2JEL P F 2;2JEL P S 64;4.36958
2JEL P F 2;2JEL P A 65;12.0243
2JEL P F 2;2JEL P E 70;18.0496
2JEL P F 2;2JEL P Q 71;22.7632
2JEL P F 2;2JEL P E 75;0.946601
2JEL P Q 3;2JEL P Q 4;22.0967
2JEL P Q 3;2JEL P T 62;21.3827
2JEL P Q 3;2JEL P S 64;11.5193
2JEL P Q 4;2JEL P E 5;33.9141
2JEL P Q 4;2JEL P T 62;10.3215
2JEL P Q 4;2JEL P E 75;12.6189
2JEL P E 5;2JEL P T 62;21.5067
2JEL P E 32;2JEL P T 34;7.30208
2JEL P E 32;2JEL P S 64;1.45308
2JEL P E 32;2JEL P A 65;6.46631
2JEL P E 32;2JEL P E 66;35.5955
2JEL P T 34;2JEL P T 36;6.37265
2JEL P T 34;2JEL P S 41;9.87537
2JEL P T 34;2JEL P T 62;2.79374
2JEL P T 34;2JEL P S 64;25.5849
2JEL P T 36;2JEL P G 39;16.9551
2JEL P T 36;2JEL P S 41;13.4604
2JEL P T 36;2JEL P T 62;30.781
2JEL P T 36;2JEL P S 64;2.71121
2JEL P G 39;2JEL P S 41;7.0377
2JEL P T 62;2JEL P S 64;7.99536
2JEL P S 64;2JEL P A 65;19.6615
2JEL P A 65;2JEL P E 66;17.9848
2JEL P A 65;2JEL P E 70;16.1564
2JEL P E 66;2JEL P G 67;21.8951
2JEL P E 66;2JEL P E 70;6.72612
2JEL P G 67;2JEL P E 68;22.7898
2JEL P G 67;2JEL P E 70;17.2124
2JEL P E 68;2JEL P E 70;4.00205
2JEL P E 68;2JEL P Q 71;0.212241
2JEL P E 70;2JEL P Q 71;28.4409
2JEL P E 70;2JEL P K 72;0.291657
2JEL P Q 71;2JEL P K 72;21.3576
2JEL P Q 71;2JEL P E 75;11.1415
2JEL P K 72;2JEL P E 75;6.52335
2JEL P K 72;2JEL P H 76;32.6897
2JEL P E 75;2JEL P H 76;20.0955
2JEL P E 75;2JEL P K 79;39.9981
2JEL P H 76;2JEL P K 79;22.0947
