V1;V2;Weight
2O3B A E 92;2O3B A R 93;38.1736
2O3B A E 92;2O3B A Q 94;18.8738
2O3B A R 93;2O3B A Q 94;21.7516
2O3B A R 93;2O3B A D 95;27.6194
2O3B A R 93;2O3B A F 97;3.41374
2O3B A R 93;2O3B A H 124;4.19833
2O3B A R 93;2O3B A S 128;19.6271
2O3B A Q 94;2O3B A D 95;22.1942
2O3B A Q 94;2O3B A N 96;15.2133
2O3B A D 95;2O3B A N 96;16.7773
2O3B A D 95;2O3B A F 97;18.8695
2O3B A N 96;2O3B A F 97;20.7126
2O3B A N 96;2O3B A R 98;32.3525
2O3B A F 97;2O3B A R 98;17.9814
2O3B A F 97;2O3B A P 112;16.2238
2O3B A F 97;2O3B A R 122;19.3862
2O3B A F 97;2O3B A H 124;7.3048
2O3B A R 98;2O3B A P 99;31.3081
2O3B A R 98;2O3B A P 112;4.69157
2O3B A P 99;2O3B A K 101;16.1445
2O3B A P 99;2O3B A T 111;12.9819
2O3B A P 99;2O3B A P 112;2.70154
2O3B A T 111;2O3B A P 112;21.2545
2O3B A T 111;2O3B A S 113;13.1993
2O3B A T 111;2O3B A Y 115;3.01262
2O3B A P 112;2O3B A S 113;22.5863
2O3B A P 112;2O3B A Y 115;9.59286
2O3B A P 112;2O3B A S 116;1.33347
2O3B A P 112;2O3B A R 122;18.6198
2O3B A S 113;2O3B A Y 115;2.08757
2O3B A S 113;2O3B A S 116;24.8193
2O3B A S 113;2O3B A R 122;0.715906
2O3B A S 113;2O3B A K 191;6.9772
2O3B A Y 115;2O3B A S 116;20.9756
2O3B A Y 115;2O3B A G 117;1.95358
2O3B A Y 115;2O3B A G 119;1.16355
2O3B A Y 115;2O3B A Y 120;16.1022
2O3B A Y 115;2O3B A A 121;6.07292
2O3B A Y 115;2O3B A R 122;29.1212
2O3B A S 116;2O3B A G 117;24.0674
2O3B A S 116;2O3B A R 122;12.9349
2O3B A S 116;2O3B A K 191;17.2379
2O3B A G 117;2O3B A G 119;6.55159
2O3B A G 119;2O3B A Y 120;27.0542
2O3B A G 119;2O3B A A 121;0.287703
2O3B A G 119;2O3B A P 152;19.4376
2O3B A Y 120;2O3B A A 121;24.9816
2O3B A Y 120;2O3B A R 122;2.43145
2O3B A Y 120;2O3B A P 152;1.31684
2O3B A A 121;2O3B A R 122;18.6148
2O3B A A 121;2O3B A P 152;14.8309
2O3B A A 121;2O3B A N 155;15.2118
2O3B A A 121;2O3B A R 156;1.66218
2O3B A R 122;2O3B A H 124;5.64312
2O3B A R 122;2O3B A N 155;3.02838
2O3B A H 124;2O3B A P 127;8.91199
2O3B A H 124;2O3B A S 128;12.269
2O3B A H 124;2O3B A N 155;2.78264
2O3B A H 124;2O3B A E 163;7.87414
2O3B A P 127;2O3B A S 128;20.3768
2O3B A P 127;2O3B A A 129;5.09123
2O3B A P 127;2O3B A E 163;22.7281
2O3B A P 127;2O3B A R 167;9.82296
2O3B A S 128;2O3B A A 129;23.0238
2O3B A A 129;2O3B A R 167;30.6407
2O3B A P 152;2O3B A N 155;7.04496
2O3B A P 152;2O3B A R 156;40.7121
2O3B A N 155;2O3B A R 156;23.8725
2O3B A N 155;2O3B A N 157;1.12782
2O3B A N 155;2O3B A G 160;10.4613
2O3B A N 155;2O3B A E 163;1.12995
2O3B A R 156;2O3B A N 157;35.8134
2O3B A R 156;2O3B A G 160;6.42179
2O3B A N 157;2O3B A G 160;5.83442
2O3B A G 160;2O3B A E 163;19.098
2O3B A G 160;2O3B A R 167;0.819253
2O3B A E 163;2O3B A R 167;26.9774
