V1;V2;Weight
2PCC A R 31;2PCC A E 32;32.0742
2PCC A R 31;2PCC A D 34;12.6269
2PCC A E 32;2PCC A D 34;8.1749
2PCC A E 32;2PCC A E 35;0.175694
2PCC A D 34;2PCC A E 35;26.1028
2PCC A D 34;2PCC A Y 39;25.2161
2PCC A E 35;2PCC A N 38;7.04639
2PCC A E 35;2PCC A Y 39;43.4835
2PCC A N 38;2PCC A Y 39;27.112
2PCC A Y 39;2PCC A N 196;9.08894
2PCC A Q 120;2PCC A V 197;21.2732
2PCC A A 193;2PCC A A 194;23.9627
2PCC A A 193;2PCC A N 195;12.3142
2PCC A A 193;2PCC A E 201;13.852
2PCC A A 193;2PCC A Y 229;16.9057
2PCC A A 194;2PCC A N 195;18.566
2PCC A A 194;2PCC A N 196;7.3844
2PCC A A 194;2PCC A V 197;23.5563
2PCC A A 194;2PCC A T 199;5.00428
2PCC A A 194;2PCC A E 201;18.1088
2PCC A N 195;2PCC A N 196;22.069
2PCC A N 195;2PCC A V 197;0.13725
2PCC A N 196;2PCC A V 197;30.7139
2PCC A V 197;2PCC A T 199;19.2283
2PCC A T 199;2PCC A E 201;18.2922
2PCC A E 201;2PCC A Y 229;4.15208
