V1;V2;Weight
2SIC E S 33;2SIC E N 62;13.335
2SIC E S 33;2SIC E H 64;6.74199
2SIC E S 33;2SIC E L 96;20.8357
2SIC E S 33;2SIC E G 100;1.16197
2SIC E N 62;2SIC E H 64;17.367
2SIC E N 62;2SIC E D 99;7.47661
2SIC E N 62;2SIC E G 100;11.2523
2SIC E H 64;2SIC E L 96;2.84519
2SIC E H 64;2SIC E S 125;9.74953
2SIC E H 64;2SIC E Y 217;9.67577
2SIC E H 64;2SIC E S 221;9.5136
2SIC E H 64;2SIC E M 222;6.96523
2SIC E L 96;2SIC E G 100;16.1627
2SIC E L 96;2SIC E S 101;4.75984
2SIC E L 96;2SIC E G 102;8.57739
2SIC E L 96;2SIC E I 107;5.18547
2SIC E L 96;2SIC E S 125;1.22142
2SIC E L 96;2SIC E L 126;17.5727
2SIC E D 99;2SIC E G 100;16.8364
2SIC E D 99;2SIC E S 101;26.267
2SIC E G 100;2SIC E S 101;16.4823
2SIC E G 100;2SIC E G 102;0.00955163
2SIC E S 101;2SIC E G 102;20.156
2SIC E S 101;2SIC E Q 103;3.13304
2SIC E G 102;2SIC E Q 103;21.3174
2SIC E G 102;2SIC E Y 104;0.860016
2SIC E G 102;2SIC E I 107;7.95452
2SIC E Q 103;2SIC E Y 104;18.8795
2SIC E Q 103;2SIC E I 107;9.03262
2SIC E Y 104;2SIC E I 107;11.4379
2SIC E Y 104;2SIC E G 128;8.89578
2SIC E Y 104;2SIC E P 129;0.266083
2SIC E Y 104;2SIC E S 130;17.6421
2SIC E Y 104;2SIC E G 131;4.34275
2SIC E Y 104;2SIC E S 132;16.2608
2SIC E Y 104;2SIC E L 135;17.3646
2SIC E Y 104;2SIC E Y 167;0.9726
2SIC E I 107;2SIC E L 126;15.7754
2SIC E I 107;2SIC E L 135;12.484
2SIC E I 107;2SIC E P 168;1.58052
2SIC E S 125;2SIC E L 126;21.0071
2SIC E S 125;2SIC E A 152;6.1239
2SIC E S 125;2SIC E S 221;18.0861
2SIC E L 126;2SIC E G 127;19.9874
2SIC E L 126;2SIC E A 152;8.46419
2SIC E L 126;2SIC E Y 167;0.25451
2SIC E L 126;2SIC E P 168;15.4829
2SIC E G 127;2SIC E G 128;20.1276
2SIC E G 127;2SIC E A 152;0.629038
2SIC E G 127;2SIC E Y 167;8.07409
2SIC E G 127;2SIC E P 168;2.03302
2SIC E G 128;2SIC E P 129;25.3485
2SIC E G 128;2SIC E S 130;4.06058
2SIC E G 128;2SIC E Y 167;17.0313
2SIC E P 129;2SIC E S 130;31.1002
2SIC E P 129;2SIC E E 156;0.99401
2SIC E P 129;2SIC E Y 167;14.9083
2SIC E S 130;2SIC E G 131;25.4332
2SIC E S 130;2SIC E L 135;0.764585
2SIC E S 130;2SIC E Y 167;11.1907
2SIC E G 131;2SIC E S 132;27.5649
2SIC E G 131;2SIC E L 135;3.46773
2SIC E G 131;2SIC E Y 167;20.5343
2SIC E S 132;2SIC E L 135;19.0429
2SIC E L 135;2SIC E Y 167;8.04647
2SIC E L 135;2SIC E P 168;13.9034
2SIC E A 152;2SIC E G 154;4.24038
2SIC E A 152;2SIC E P 168;0.0167898
2SIC E A 152;2SIC E T 220;15.7199
2SIC E A 152;2SIC E S 221;4.27167
2SIC E G 154;2SIC E N 155;20.3897
2SIC E G 154;2SIC E E 156;2.09755
2SIC E G 154;2SIC E F 189;0.196964
2SIC E G 154;2SIC E T 220;16.8518
2SIC E N 155;2SIC E E 156;31.2335
2SIC E N 155;2SIC E F 189;25.0755
2SIC E N 155;2SIC E G 219;3.95234
2SIC E N 155;2SIC E T 220;12.5066
2SIC E E 156;2SIC E F 189;0.838708
2SIC E Y 167;2SIC E P 168;22.1915
2SIC E S 188;2SIC E F 189;30.0191
2SIC E F 189;2SIC E N 218;11.4733
2SIC E F 189;2SIC E G 219;11.0259
2SIC E F 189;2SIC E T 220;5.05088
2SIC E Y 217;2SIC E N 218;26.481
2SIC E Y 217;2SIC E M 222;19.3475
2SIC E N 218;2SIC E G 219;15.4623
2SIC E N 218;2SIC E M 222;7.5045
2SIC E G 219;2SIC E T 220;14.2637
2SIC E G 219;2SIC E S 221;3.96726
2SIC E G 219;2SIC E M 222;12.8469
2SIC E T 220;2SIC E S 221;14.9151
2SIC E T 220;2SIC E M 222;1.14896
2SIC E S 221;2SIC E M 222;25.1081
