V1;V2;Weight
3BN9 B I 41;3BN9 B C 42;30.785
3BN9 B I 41;3BN9 B C 58;1.99447
3BN9 B I 41;3BN9 B G 193;13.868
3BN9 B I 41;3BN9 B S 195;0.274874
3BN9 B C 42;3BN9 B C 58;22.1131
3BN9 B C 42;3BN9 B G 193;4.63774
3BN9 B C 42;3BN9 B S 195;11.3443
3BN9 B H 57;3BN9 B C 58;26.7505
3BN9 B H 57;3BN9 B I 60;21.4174
3BN9 B H 57;3BN9 B F 94;13.2702
3BN9 B H 57;3BN9 B F 99;24.2979
3BN9 B H 57;3BN9 B S 195;12.303
3BN9 B H 57;3BN9 B V 213;1.20333
3BN9 B H 57;3BN9 B S 214;11.7797
3BN9 B C 58;3BN9 B I 60;2.68542
3BN9 B C 58;3BN9 B S 195;8.73803
3BN9 B I 60;3BN9 B D 60a;32.6098
3BN9 B I 60;3BN9 B D 60b;9.93643
3BN9 B I 60;3BN9 B F 94;16.3086
3BN9 B I 60;3BN9 B D 96;15.3332
3BN9 B I 60;3BN9 B F 99;1.46227
3BN9 B D 60a;3BN9 B D 60b;23.6579
3BN9 B D 60b;3BN9 B R 60c;29.778
3BN9 B D 60b;3BN9 B G 60d;4.53489
3BN9 B R 60c;3BN9 B G 60d;29.6343
3BN9 B F 94;3BN9 B N 95;27.5182
3BN9 B F 94;3BN9 B D 96;16.7211
3BN9 B F 94;3BN9 B F 99;12.8178
3BN9 B N 95;3BN9 B D 96;18.0108
3BN9 B N 95;3BN9 B F 97;10.1613
3BN9 B N 95;3BN9 B T 98;18.9474
3BN9 B N 95;3BN9 B F 99;9.10225
3BN9 B D 96;3BN9 B F 97;21.3511
3BN9 B D 96;3BN9 B T 98;0.277351
3BN9 B D 96;3BN9 B F 99;19.5309
3BN9 B F 97;3BN9 B T 98;22.4502
3BN9 B F 97;3BN9 B F 99;1.26176
3BN9 B T 98;3BN9 B F 99;18.7519
3BN9 B T 98;3BN9 B Q 175;4.19105
3BN9 B T 98;3BN9 B W 215;0.91878
3BN9 B F 99;3BN9 B S 214;10.1865
3BN9 B F 99;3BN9 B W 215;17.3926
3BN9 B H 143;3BN9 B G 147;9.62526
3BN9 B H 143;3BN9 B C 191;17.6935
3BN9 B H 143;3BN9 B Q 192;34.0027
3BN9 B Y 146;3BN9 B G 147;32.023
3BN9 B Y 146;3BN9 B C 191;6.18718
3BN9 B Y 146;3BN9 B G 219;6.66556
3BN9 B Y 146;3BN9 B C 220;24.8492
3BN9 B Y 146;3BN9 B Q 221a;7.89365
3BN9 B G 147;3BN9 B C 191;1.46365
3BN9 B L 171;3BN9 B L 172;28.1267
3BN9 B L 171;3BN9 B P 173;8.81989
3BN9 B L 171;3BN9 B K 224;8.10519
3BN9 B L 172;3BN9 B P 173;22.0507
3BN9 B L 172;3BN9 B Q 174;1.44163
3BN9 B L 172;3BN9 B Q 175;21.253
3BN9 B L 172;3BN9 B W 215;14.6274
3BN9 B L 172;3BN9 B G 216;0.588743
3BN9 B L 172;3BN9 B D 217;17.0814
3BN9 B L 172;3BN9 B K 224;14.6326
3BN9 B P 173;3BN9 B Q 174;34.3098
3BN9 B P 173;3BN9 B Q 175;7.2076
3BN9 B Q 174;3BN9 B Q 175;24.401
3BN9 B Q 175;3BN9 B W 215;26.21
3BN9 B Q 175;3BN9 B D 217;4.54935
3BN9 B D 189;3BN9 B S 190;33.6578
3BN9 B D 189;3BN9 B C 191;0.0963725
3BN9 B D 189;3BN9 B G 216;0.519463
3BN9 B D 189;3BN9 B G 219;2.04976
3BN9 B D 189;3BN9 B C 220;5.46775
3BN9 B D 189;3BN9 B K 224;8.12584
3BN9 B D 189;3BN9 B G 226;15.6334
3BN9 B S 190;3BN9 B C 191;19.4415
3BN9 B S 190;3BN9 B V 213;12.2535
3BN9 B S 190;3BN9 B W 215;1.62071
3BN9 B S 190;3BN9 B C 220;6.17179
3BN9 B S 190;3BN9 B G 226;6.32581
3BN9 B C 191;3BN9 B Q 192;27.6594
3BN9 B C 191;3BN9 B G 193;1.27772
3BN9 B C 191;3BN9 B S 195;4.27153
3BN9 B C 191;3BN9 B V 213;1.1281
3BN9 B C 191;3BN9 B C 220;19.6915
3BN9 B Q 192;3BN9 B G 193;27.4786
3BN9 B Q 192;3BN9 B S 195;4.44885
3BN9 B Q 192;3BN9 B C 220;0.337451
3BN9 B G 193;3BN9 B S 195;12.5697
3BN9 B S 195;3BN9 B V 213;14.1736
3BN9 B S 195;3BN9 B S 214;6.66004
3BN9 B V 213;3BN9 B S 214;25.7197
3BN9 B V 213;3BN9 B W 215;0.548807
3BN9 B S 214;3BN9 B W 215;33.0255
3BN9 B W 215;3BN9 B G 216;32.9764
3BN9 B W 215;3BN9 B D 217;7.93132
3BN9 B W 215;3BN9 B G 226;3.04626
3BN9 B G 216;3BN9 B D 217;23.3487
3BN9 B G 216;3BN9 B G 219;9.61701
3BN9 B G 216;3BN9 B K 224;0.633058
3BN9 B G 216;3BN9 B G 226;5.57672
3BN9 B D 217;3BN9 B G 219;23.9849
3BN9 B D 217;3BN9 B C 220;0.864607
3BN9 B D 217;3BN9 B Q 221a;5.72619
3BN9 B D 217;3BN9 B K 224;42.3922
3BN9 B G 219;3BN9 B C 220;24.5304
3BN9 B G 219;3BN9 B Q 221a;2.19877
3BN9 B G 219;3BN9 B K 224;0.626863
3BN9 B C 220;3BN9 B Q 221a;19.966
3BN9 B C 220;3BN9 B K 224;0.312204
3BN9 B Q 221a;3BN9 B K 224;31.2542
3BN9 B K 224;3BN9 B G 226;0.0473471
