V1;V2;Weight
3C60 C K 40;3C60 C Q 58;3.49199
3C60 C K 40;3C60 C L 61;24.4287
3C60 C Q 58;3C60 C G 59;19.2607
3C60 C Q 58;3C60 C L 61;22.4918
3C60 C Q 58;3C60 C Q 62;9.03716
3C60 C G 59;3C60 C L 61;0.220695
3C60 C G 59;3C60 C Q 62;2.24066
3C60 C G 59;3C60 C N 63;9.3894
3C60 C G 59;3C60 D K 5;20.0003
3C60 C L 61;3C60 C Q 62;15.9357
3C60 C L 61;3C60 C N 63;1.09561
3C60 C L 61;3C60 C A 65;9.89565
3C60 C Q 62;3C60 C N 63;15.6375
3C60 C Q 62;3C60 C A 65;12.0843
3C60 C Q 62;3C60 C V 66;11.9722
3C60 C N 63;3C60 C A 65;1.35907
3C60 C N 63;3C60 C V 66;12.8087
3C60 C N 63;3C60 D K 5;3.82867
3C60 C N 63;3C60 D K 7;2.77591
3C60 C N 63;3C60 D A 8;12.9266
3C60 C A 65;3C60 C V 66;15.7616
3C60 C A 65;3C60 C K 68;14.3467
3C60 C A 65;3C60 C H 69;9.11687
3C60 C V 66;3C60 C K 68;0.819931
3C60 C V 66;3C60 C H 69;8.85672
3C60 C V 66;3C60 C N 70;17.4183
3C60 C V 66;3C60 D A 8;19.8081
3C60 C V 66;3C60 D K 10;6.16248
3C60 C K 68;3C60 C H 69;23.7865
3C60 C K 68;3C60 C N 70;0.144491
3C60 C H 69;3C60 C N 70;23.1473
3C60 C H 69;3C60 D K 10;22.3537
3C60 C N 70;3C60 D A 8;4.32643
3C60 C N 70;3C60 D K 10;4.33479
3C60 D E 2;3C60 D Q 4;10.3001
3C60 D E 2;3C60 D H 107;14.3068
3C60 D Q 4;3C60 D K 5;35.6667
3C60 D Q 4;3C60 D T 103;13.4345
3C60 D Q 4;3C60 D H 107;17.4816
3C60 D K 5;3C60 D K 7;24.7159
3C60 D K 7;3C60 D A 8;20.5218
3C60 D K 7;3C60 D R 96;32.7122
3C60 D A 8;3C60 D K 10;0.805787
3C60 D A 8;3C60 D R 96;3.65047
3C60 D E 92;3C60 D E 95;7.371
3C60 D E 92;3C60 D R 96;13.5058
3C60 D E 95;3C60 D R 96;21.5173
3C60 D R 96;3C60 D T 103;0.368764
3C60 D D 102;3C60 D T 103;22.7472
3C60 D D 102;3C60 D H 107;10.1064
3C60 D T 103;3C60 D H 107;7.97538
