V1;V2;Weight
3HH2 A F 24;3HH2 A F 27;13.0157
3HH2 A F 24;3HH2 A G 28;3.88521
3HH2 A F 24;3HH2 A W 29;34.088
3HH2 A F 24;3HH2 A I 32;22.836
3HH2 A F 24;3HH2 A M 84;11.1687
3HH2 A F 24;3HH2 A M 101;9.29384
3HH2 A F 27;3HH2 A G 28;18.0596
3HH2 A F 27;3HH2 A W 29;22.9494
3HH2 A F 27;3HH2 B H 59;0.0191
3HH2 A F 27;3HH2 B Q 63;28.8885
3HH2 A G 28;3HH2 A W 29;16.2869
3HH2 A G 28;3HH2 A W 31;3.49066
3HH2 A W 29;3HH2 A W 31;31.7962
3HH2 A W 29;3HH2 A I 32;4.84754
3HH2 A W 29;3HH2 A I 32;19.5436
3HH2 A W 29;3HH2 A M 101;4.78436
3HH2 A W 29;3HH2 B P 56;1.12888
3HH2 A W 29;3HH2 B H 59;1.19209
3HH2 A W 29;3HH2 B Q 63;6.12835
3HH2 A W 31;3HH2 A I 32;14.8149
3HH2 A W 31;3HH2 A I 32;15.0688
3HH2 A W 31;3HH2 A Y 86;12.3157
3HH2 A W 31;3HH2 A F 87;29.2733
3HH2 A I 32;3HH2 A F 87;0.0161982
3HH2 A I 32;3HH2 A M 84;15.91
3HH2 A I 32;3HH2 A Y 86;9.52198
3HH2 A M 84;3HH2 A Y 86;13.5723
3HH2 A M 84;3HH2 A I 98;16.7382
3HH2 A M 84;3HH2 A M 101;7.91562
3HH2 A Y 86;3HH2 A F 87;23.2037
3HH2 A Y 86;3HH2 A N 88;12.2678
3HH2 A Y 86;3HH2 A I 98;14.9292
3HH2 A F 87;3HH2 A N 88;22.2222
3HH2 A F 87;3HH2 A E 91;23.7806
3HH2 A N 88;3HH2 A G 89;19.2183
3HH2 A N 88;3HH2 A K 90;20.6598
3HH2 A N 88;3HH2 A E 91;14.3094
3HH2 A G 89;3HH2 A K 90;25.0552
3HH2 A G 89;3HH2 A E 91;6.52011
3HH2 A K 90;3HH2 A E 91;17.9491
3HH2 A I 98;3HH2 A P 99;31.0191
3HH2 A I 98;3HH2 A M 101;18.591
3HH2 A I 98;3HH2 B P 56;3.0355
3HH2 A P 99;3HH2 A M 101;4.86543
3HH2 A P 99;3HH2 B P 56;10.3383
3HH2 A M 101;3HH2 B P 56;13.7523
3HH2 B D 1;3HH2 B F 2;39.4598
3HH2 B D 1;3HH2 B G 3;6.98358
3HH2 B F 2;3HH2 B G 3;22.2875
3HH2 B F 2;3HH2 B L 52;3.55117
3HH2 B G 3;3HH2 B L 4;26.2258
3HH2 B G 3;3HH2 B D 5;3.73741
3HH2 B G 3;3HH2 B L 52;3.97369
3HH2 B L 4;3HH2 B D 5;30.9804
3HH2 B L 4;3HH2 B E 12;13.8795
3HH2 B L 4;3HH2 B R 14;6.09306
3HH2 B L 4;3HH2 B L 52;11.2641
3HH2 B E 12;3HH2 B R 14;25.869
3HH2 B R 14;3HH2 B F 51;33.6034
3HH2 B R 14;3HH2 B L 52;11.4561
3HH2 B D 30;3HH2 B W 31;17.3274
3HH2 B D 30;3HH2 B F 87;2.12851
3HH2 B D 30;3HH2 B W 31;10.8975
3HH2 B W 31;3HH2 B I 33;1.82841
3HH2 B W 31;3HH2 B F 87;29.7936
3HH2 B I 33;3HH2 B A 34;24.7975
3HH2 B I 33;3HH2 B P 35;0.357384
3HH2 B I 33;3HH2 B K 36;22.338
3HH2 B I 33;3HH2 B L 85;23.9224
3HH2 B I 33;3HH2 B F 87;26.7991
3HH2 B I 33;3HH2 B I 93;15.2699
3HH2 B A 34;3HH2 B P 35;33.105
3HH2 B A 34;3HH2 B K 36;2.07743
3HH2 B A 34;3HH2 B N 83;0.000609491
3HH2 B A 34;3HH2 B L 85;23.632
3HH2 B P 35;3HH2 B K 36;24.86
3HH2 B P 35;3HH2 B R 37;16.1433
3HH2 B P 35;3HH2 B Y 38;7.5252
3HH2 B P 35;3HH2 B I 82;10.1098
3HH2 B P 35;3HH2 B N 83;11.6845
3HH2 B K 36;3HH2 B R 37;14.4589
3HH2 B K 36;3HH2 B R 37;31.9444
3HH2 B R 37;3HH2 B Y 38;19.5904
3HH2 B R 37;3HH2 B Y 38;4.11437
3HH2 B Y 38;3HH2 B K 39;25.0587
3HH2 B Y 38;3HH2 B I 82;19.2097
3HH2 B Y 38;3HH2 B V 102;8.63236
3HH2 B K 39;3HH2 B V 102;11.6814
3HH2 B F 49;3HH2 B V 50;35.0569
3HH2 B F 49;3HH2 B F 51;20.1992
3HH2 B F 49;3HH2 B Q 53;9.55756
3HH2 B F 49;3HH2 B H 59;21.7085
3HH2 B V 50;3HH2 B F 51;20.5733
3HH2 B V 50;3HH2 B L 52;1.8027
3HH2 B V 50;3HH2 B Q 53;31.9121
3HH2 B V 50;3HH2 B H 59;14.8248
3HH2 B F 51;3HH2 B L 52;23.8414
3HH2 B F 51;3HH2 B Q 53;7.34825
3HH2 B L 52;3HH2 B Q 53;21.2825
3HH2 B L 52;3HH2 B K 54;4.65124
3HH2 B Q 53;3HH2 B K 54;27.6639
3HH2 B Q 53;3HH2 B H 59;12.5439
3HH2 B K 54;3HH2 B P 56;8.80453
3HH2 B P 56;3HH2 B H 59;9.11196
3HH2 B H 59;3HH2 B Q 63;35.031
3HH2 B S 80;3HH2 B I 82;4.87266e-05
3HH2 B S 80;3HH2 B V 102;24.4221
3HH2 B I 82;3HH2 B N 83;29.2381
3HH2 B I 82;3HH2 B K 97;5.95441
3HH2 B I 82;3HH2 B V 102;12.3316
3HH2 B N 83;3HH2 B Y 95;25.3404
3HH2 B N 83;3HH2 B K 97;32.8921
3HH2 B L 85;3HH2 B I 93;13.6037
3HH2 B L 85;3HH2 B I 94;8.732
3HH2 B L 85;3HH2 B Y 95;13.972
3HH2 B F 87;3HH2 B N 88;24.913
3HH2 B F 87;3HH2 B E 91;23.4495
3HH2 B F 87;3HH2 B Q 92;7.4913
3HH2 B F 87;3HH2 B I 93;12.8922
3HH2 B N 88;3HH2 B G 89;21.4543
3HH2 B N 88;3HH2 B K 90;17.7228
3HH2 B N 88;3HH2 B E 91;15.9254
3HH2 B N 88;3HH2 B Q 92;26.0651
3HH2 B N 88;3HH2 B I 94;21.1324
3HH2 B G 89;3HH2 B K 90;25.5171
3HH2 B G 89;3HH2 B E 91;6.84019
3HH2 B K 90;3HH2 B E 91;17.4194
3HH2 B K 90;3HH2 B Q 92;34.6235
3HH2 B E 91;3HH2 B Q 92;18.6791
3HH2 B E 91;3HH2 B I 93;0.786185
3HH2 B Q 92;3HH2 B I 93;18.9297
3HH2 B Q 92;3HH2 B I 94;18.8633
3HH2 B I 93;3HH2 B I 94;22.6251
3HH2 B I 94;3HH2 B Y 95;23.5598
3HH2 B Y 95;3HH2 B K 97;2.89042
