V1;V2;Weight
3LB6 A S 7;3LB6 A R 11;19.1415
3LB6 A S 7;3LB6 A F 107;12.4811
3LB6 A S 7;3LB6 A F 112;25.9032
3LB6 A R 11;3LB6 A I 14;7.28083
3LB6 A R 11;3LB6 A E 15;24.2881
3LB6 A R 11;3LB6 A F 107;16.9085
3LB6 A I 14;3LB6 A E 15;19.1122
3LB6 A I 14;3LB6 A V 18;15.272
3LB6 A I 14;3LB6 A L 100;14.2459
3LB6 A I 14;3LB6 A K 104;16.5695
3LB6 A I 14;3LB6 A F 107;9.06834
3LB6 A E 15;3LB6 A V 18;14.6032
3LB6 A V 18;3LB6 A L 100;16.8048
3LB6 A V 18;3LB6 A K 104;11.4322
3LB6 A M 33;3LB6 A K 89;28.4965
3LB6 A M 33;3LB6 A I 90;11.7309
3LB6 A M 33;3LB6 A E 91;16.4566
3LB6 A W 35;3LB6 A R 86;46.0161
3LB6 A W 35;3LB6 A D 87;8.96209
3LB6 A W 35;3LB6 A T 88;15.1385
3LB6 A W 35;3LB6 A K 89;42.8584
3LB6 A W 35;3LB6 A I 90;0.16132
3LB6 A R 86;3LB6 A D 87;23.7335
3LB6 A R 86;3LB6 A T 88;0.29445
3LB6 A D 87;3LB6 A T 88;30.6134
3LB6 A T 88;3LB6 A K 89;22.1272
3LB6 A T 88;3LB6 A I 90;8.24453
3LB6 A K 89;3LB6 A I 90;17.8341
3LB6 A I 90;3LB6 A E 91;24.7307
3LB6 A I 90;3LB6 A Q 94;16.4462
3LB6 A E 91;3LB6 A Q 94;17.7565
3LB6 A L 100;3LB6 A L 101;21.0803
3LB6 A L 100;3LB6 A H 102;0.401094
3LB6 A L 100;3LB6 A K 104;26.367
3LB6 A L 101;3LB6 A H 102;21.2256
3LB6 A L 101;3LB6 A K 104;18.5935
3LB6 A L 101;3LB6 A K 105;6.48713
3LB6 A H 102;3LB6 A K 104;0.191388
3LB6 A H 102;3LB6 A K 105;28.9511
3LB6 A K 104;3LB6 A K 105;14.3276
3LB6 A K 104;3LB6 A F 107;6.97726
3LB6 A K 104;3LB6 A R 108;7.62925
3LB6 A K 105;3LB6 A F 107;1.00571
3LB6 A K 105;3LB6 A R 108;6.95374
3LB6 A K 105;3LB6 A E 109;38.1967
3LB6 A F 107;3LB6 A R 108;17.1809
3LB6 A F 107;3LB6 A E 109;1.38316
3LB6 A F 107;3LB6 A G 110;6.71441
3LB6 A F 107;3LB6 A F 112;14.1994
3LB6 A R 108;3LB6 A E 109;26.7819
3LB6 A R 108;3LB6 A G 110;2.27264
3LB6 A E 109;3LB6 A G 110;16.3204
3LB6 A G 110;3LB6 A F 112;14.6198
