V1;V2;Weight
3M63 B K 8;3M63 B S 9;29.4236
3M63 B K 8;3M63 B G 10;5.10138
3M63 B K 8;3M63 B S 67;18.198
3M63 B K 8;3M63 B H 69;26.2071
3M63 B S 9;3M63 B G 10;27.0551
3M63 B S 9;3M63 B H 69;7.57578
3M63 B S 9;3M63 B K 72;2.12873
3M63 B G 10;3M63 B H 69;0.0544408
3M63 B R 43;3M63 B I 45;8.72829
3M63 B R 43;3M63 B I 50;12.5555
3M63 B R 43;3M63 B H 69;0.0217415
3M63 B R 43;3M63 B V 71;23.6725
3M63 B R 43;3M63 B S 73;27.6433
3M63 B R 43;3M63 B Q 74;1.68385
3M63 B I 45;3M63 B Y 46;26.0392
3M63 B I 45;3M63 B G 48;2.90182
3M63 B I 45;3M63 B K 49;8.15289
3M63 B I 45;3M63 B I 50;13.1724
3M63 B I 45;3M63 B H 69;29.8605
3M63 B I 45;3M63 B V 71;11.9969
3M63 B Y 46;3M63 B S 47;49.1745
3M63 B Y 46;3M63 B G 48;5.22007
3M63 B Y 46;3M63 B K 49;18.9514
3M63 B Y 46;3M63 B S 67;15.4587
3M63 B S 47;3M63 B G 48;17.4165
3M63 B S 47;3M63 B K 49;15.149
3M63 B G 48;3M63 B K 49;24.1688
3M63 B K 49;3M63 B I 50;30.5283
3M63 B I 50;3M63 B K 52;6.32156
3M63 B S 67;3M63 B H 69;10.2746
3M63 B H 69;3M63 B V 71;0.932333
3M63 B V 71;3M63 B K 72;34.5932
3M63 B V 71;3M63 B S 73;7.51617
3M63 B K 72;3M63 B S 73;22.9614
3M63 B K 72;3M63 B Q 74;4.87387
3M63 B S 73;3M63 B Q 74;33.1133
