V1;V2;Weight
3MZG B K 17;3MZG B E 18;21.6447
3MZG B K 17;3MZG B T 69;6.93519
3MZG B K 17;3MZG B S 70;0.232316
3MZG B K 17;3MZG B M 71;27.2286
3MZG B K 17;3MZG B T 98;0.00765363
3MZG B K 17;3MZG B W 139;33.5358
3MZG B K 17;3MZG B T 141;2.40241
3MZG B K 17;3MZG B D 187;12.8653
3MZG B E 18;3MZG B K 66;35.7267
3MZG B E 18;3MZG B T 69;14.0654
3MZG B E 18;3MZG B D 134;11.4041
3MZG B E 18;3MZG B W 139;12.9495
3MZG B H 41;3MZG B E 43;0.199049
3MZG B H 41;3MZG B T 74;0.0025397
3MZG B H 41;3MZG B I 76;46.0281
3MZG B E 43;3MZG B G 44;25.4097
3MZG B E 43;3MZG B W 72;0.0669375
3MZG B E 43;3MZG B R 73;28.8926
3MZG B E 43;3MZG B T 74;24.0587
3MZG B E 43;3MZG B I 76;9.05907
3MZG B G 44;3MZG B R 73;1.24644
3MZG B K 66;3MZG B T 69;15.3403
3MZG B T 69;3MZG B S 70;30.2402
3MZG B T 69;3MZG B M 71;0.426745
3MZG B S 70;3MZG B M 71;23.3264
3MZG B S 70;3MZG B W 72;0.101454
3MZG B S 70;3MZG B R 73;18.6533
3MZG B S 70;3MZG B D 96;0.0338959
3MZG B M 71;3MZG B W 72;44.4141
3MZG B M 71;3MZG B R 73;6.51612
3MZG B M 71;3MZG B D 96;0.0260176
3MZG B M 71;3MZG B T 98;19.0642
3MZG B M 71;3MZG B W 139;12.7041
3MZG B W 72;3MZG B R 73;21.5346
3MZG B W 72;3MZG B D 96;5.56843
3MZG B W 72;3MZG B T 98;21.2302
3MZG B W 72;3MZG B Y 99;0.289618
3MZG B W 72;3MZG B W 139;15.2961
3MZG B R 73;3MZG B T 74;21.4775
3MZG B R 73;3MZG B D 96;12.3547
3MZG B T 74;3MZG B I 76;9.86766
3MZG B T 74;3MZG B Y 94;14.0951
3MZG B T 74;3MZG B D 96;12.3832
3MZG B I 76;3MZG B Y 94;25.4361
3MZG B D 96;3MZG B T 98;15.7694
3MZG B D 96;3MZG B Y 99;32.7992
3MZG B T 98;3MZG B Y 99;42.7605
3MZG B T 98;3MZG B H 188;7.01002
3MZG B D 134;3MZG B L 135;18.9002
3MZG B D 134;3MZG B K 136;27.3848
3MZG B D 134;3MZG B T 137;20.6378
3MZG B D 134;3MZG B G 138;1.26617
3MZG B D 134;3MZG B W 139;13.2702
3MZG B L 135;3MZG B K 136;23.4999
3MZG B L 135;3MZG B T 137;1.71771
3MZG B L 135;3MZG B G 138;10.0528
3MZG B L 135;3MZG B T 141;3.67663
3MZG B K 136;3MZG B T 137;28.49
3MZG B K 136;3MZG B G 138;1.53432
3MZG B T 137;3MZG B G 138;14.6459
3MZG B T 137;3MZG B W 139;11.0244
3MZG B G 138;3MZG B W 139;17.7126
3MZG B G 138;3MZG B T 141;6.2752
3MZG B T 141;3MZG B L 143;7.68578
3MZG B T 141;3MZG B D 187;30.7637
3MZG B L 143;3MZG B D 187;16.328
3MZG B D 187;3MZG B H 188;41.4389
