V1;V2;Weight
3R9A A Q 303;3R9A A A 304;19.7415
3R9A A Q 303;3R9A A L 305;0.927965
3R9A A Q 303;3R9A A G 306;8.54813
3R9A A Q 303;3R9A A L 307;15.3035
3R9A A A 304;3R9A A L 305;17.854
3R9A A A 304;3R9A A G 306;2.70132
3R9A A L 305;3R9A A G 306;15.0708
3R9A A L 305;3R9A A L 307;13.8648
3R9A A L 305;3R9A A R 381;28.6401
3R9A A L 305;3R9A A L 384;16.5978
3R9A A G 306;3R9A A L 307;27.1974
3R9A A G 306;3R9A A P 327;1.86514
3R9A A L 307;3R9A A P 327;19.9574
3R9A A L 307;3R9A A L 384;16.5749
3R9A A P 327;3R9A A A 328;28.5383
3R9A A P 327;3R9A A G 329;1.37759
3R9A A P 327;3R9A A Y 330;23.4546
3R9A A P 327;3R9A A L 384;7.69961
3R9A A A 328;3R9A A G 329;28.8979
3R9A A A 328;3R9A A Y 330;10.8871
3R9A A G 329;3R9A A Y 330;27.0385
3R9A A G 329;3R9A A P 388;5.09579
3R9A A G 329;3R9A A K 389;25.8919
3R9A A G 329;3R9A A K 391;11.6032
3R9A A Y 330;3R9A A L 384;26.5097
3R9A A Y 330;3R9A A P 388;22.3065
3R9A A Y 330;3R9A A K 389;8.81692
3R9A A R 381;3R9A A L 384;12.6376
3R9A A R 381;3R9A A Q 385;10.2166
3R9A A L 384;3R9A A Q 385;15.4608
3R9A A L 384;3R9A A H 386;0.990641
3R9A A L 384;3R9A A P 388;7.54537
3R9A A Q 385;3R9A A H 386;36.1141
3R9A A Q 385;3R9A A P 388;6.01178
3R9A A H 386;3R9A A P 388;4.52591
3R9A A H 386;3R9A A K 390;2.8881
3R9A A P 388;3R9A A K 389;23.8395
3R9A A P 388;3R9A A K 390;14.0409
3R9A A K 389;3R9A A K 390;32.0464
3R9A A K 389;3R9A A K 391;12.3775
3R9A A K 390;3R9A A K 391;26.2188
3R9A A K 390;3R9A A L 392;3.26684
3R9A A K 391;3R9A A L 392;19.0845
