V1;V2;Weight
4G0N B T 57;4G0N B R 59;0.299745
4G0N B T 57;4G0N B V 69;15.3689
4G0N B T 57;4G0N B V 70;9.37992
4G0N B T 57;4G0N B N 71;14.663
4G0N B R 59;4G0N B R 67;11.5232
4G0N B R 59;4G0N B T 68;3.42777
4G0N B R 59;4G0N B V 69;24.4337
4G0N B N 64;4G0N B K 65;26.5268
4G0N B N 64;4G0N B Q 66;18.295
4G0N B K 65;4G0N B Q 66;23.8955
4G0N B K 65;4G0N B R 67;1.61981
4G0N B Q 66;4G0N B R 67;21.9519
4G0N B Q 66;4G0N B R 89;27.8424
4G0N B R 67;4G0N B T 68;23.1889
4G0N B R 67;4G0N B V 69;1.09934
4G0N B R 67;4G0N B R 89;4.28952
4G0N B T 68;4G0N B V 69;27.2609
4G0N B T 68;4G0N B V 70;11.1771
4G0N B T 68;4G0N B A 85;12.732
4G0N B T 68;4G0N B R 89;7.29253
4G0N B V 69;4G0N B V 70;27.9297
4G0N B V 69;4G0N B N 71;0.375697
4G0N B V 70;4G0N B N 71;30.6101
4G0N B V 70;4G0N B A 85;8.37081
4G0N B N 71;4G0N B R 73;20.5947
4G0N B K 84;4G0N B A 85;24.5348
4G0N B K 84;4G0N B K 87;12.2827
4G0N B K 84;4G0N B V 88;25.7863
4G0N B A 85;4G0N B K 87;0.295781
4G0N B A 85;4G0N B V 88;9.86644
4G0N B A 85;4G0N B R 89;22.1891
4G0N B K 87;4G0N B V 88;22.4432
4G0N B K 87;4G0N B R 89;1.79114
4G0N B K 87;4G0N B G 90;9.51734
4G0N B V 88;4G0N B R 89;25.0216
4G0N B V 88;4G0N B G 90;1.16335
4G0N B R 89;4G0N B G 90;21.1528
