V1;V2;Weight
4KRL A I 316;4KRL A G 317;26.1628
4KRL A I 316;4KRL A S 324;16.8954
4KRL A I 316;4KRL A L 325;5.8927
4KRL A I 316;4KRL A D 344;21.5697
4KRL A I 316;4KRL A H 346;29.8528
4KRL A G 317;4KRL A K 322;19.4232
4KRL A G 317;4KRL A S 324;4.17133
4KRL A K 322;4KRL A D 323;31.0008
4KRL A K 322;4KRL A S 324;3.36331
4KRL A D 323;4KRL A S 324;28.1053
4KRL A D 323;4KRL A L 325;10.8689
4KRL A D 323;4KRL A T 358;0.950697
4KRL A S 324;4KRL A L 325;25.9319
4KRL A L 325;4KRL A H 346;9.5586
4KRL A L 325;4KRL A L 348;11.581
4KRL A L 325;4KRL A V 350;14.0465
4KRL A L 325;4KRL A T 358;0.705408
4KRL A D 344;4KRL A H 346;12.2125
4KRL A D 344;4KRL A F 380;33.3192
4KRL A H 346;4KRL A L 348;13.1893
4KRL A H 346;4KRL A F 380;17.2175
4KRL A L 348;4KRL A P 349;20.6193
4KRL A L 348;4KRL A V 350;10.9829
4KRL A L 348;4KRL A Q 384;15.3779
4KRL A L 348;4KRL A A 385;5.90006
4KRL A P 349;4KRL A V 350;13.9606
4KRL A P 349;4KRL A R 353;17.7851
4KRL A P 349;4KRL A Q 384;16.2446
4KRL A P 349;4KRL A A 385;14.6572
4KRL A V 350;4KRL A R 353;20.2728
4KRL A V 350;4KRL A G 354;17.4332
4KRL A V 350;4KRL A D 355;11.9766
4KRL A R 353;4KRL A G 354;32.1531
4KRL A G 354;4KRL A D 355;29.2061
4KRL A D 355;4KRL A F 357;10.2529
4KRL A D 355;4KRL A T 358;20.1941
4KRL A F 357;4KRL A T 358;29.0439
4KRL A Q 384;4KRL A A 385;20.625
4KRL A Q 384;4KRL A S 418;11.7329
4KRL A Q 384;4KRL A L 419;4.3491
4KRL A A 385;4KRL A S 418;0.902056
4KRL A A 385;4KRL A L 419;10.8025
4KRL A S 418;4KRL A L 419;25.2938
4KRL A S 418;4KRL A G 441;18.8886
4KRL A L 419;4KRL A N 420;31.0966
4KRL A L 419;4KRL A G 441;2.41851
4KRL A L 419;4KRL A K 443;4.85646
4KRL A N 420;4KRL A K 443;7.32259
4KRL A G 441;4KRL A K 443;7.90329
4KRL A G 441;4KRL A S 468;19.4228
4KRL A K 443;4KRL A S 468;4.44239
