V1;V2;Weight
4N8V G K 44;4N8V G Y 45;50.2035
4N8V G K 44;4N8V G D 183;15.2801
4N8V G K 44;4N8V G S 184;3.45701
4N8V G K 44;4N8V G E 187;2.32333
4N8V G Y 45;4N8V G Q 71;7.56399
4N8V G Y 45;4N8V G D 72;37.5629
4N8V G Y 45;4N8V G E 187;2.2653
4N8V G M 70;4N8V G Q 71;26.3117
4N8V G M 70;4N8V G D 72;12.9146
4N8V G Q 71;4N8V G D 72;21.6137
4N8V G Q 71;4N8V G L 104;21.1914
4N8V G Q 71;4N8V G E 187;31.1286
4N8V G L 104;4N8V G Y 105;46.2358
4N8V G L 104;4N8V G E 187;13.2901
4N8V G Y 105;4N8V G E 106;22.2725
4N8V G Y 105;4N8V G Y 134;14.0124
4N8V G Y 105;4N8V G F 181;16.7067
4N8V G Y 105;4N8V G S 184;3.20505
4N8V G Y 105;4N8V G E 187;17.2311
4N8V G E 106;4N8V G S 132;16.5103
4N8V G E 106;4N8V G Y 134;14.1874
4N8V G S 132;4N8V G S 133;21.6995
4N8V G S 132;4N8V G Y 134;19.8613
4N8V G S 132;4N8V G F 181;1.57561
4N8V G S 133;4N8V G Y 134;21.0184
4N8V G S 133;4N8V G D 135;2.28548
4N8V G S 133;4N8V G F 181;13.0959
4N8V G Y 134;4N8V G D 135;18.7876
4N8V G Y 134;4N8V G F 181;19.7877
4N8V G D 135;4N8V G F 181;11.9364
4N8V G F 181;4N8V G D 183;5.31957
4N8V G F 181;4N8V G S 184;20.8867
4N8V G F 181;4N8V G E 187;1.47274
4N8V G D 183;4N8V G S 184;24.8901
4N8V G S 184;4N8V G E 187;34.8249
