V1;V2;Weight
4OFY D Y 51;4OFY D Y 64;30.2593
4OFY D Y 51;4OFY D M 106;7.86658
4OFY D Y 51;4OFY D L 107;30.2628
4OFY D Q 53;4OFY D L 61;18.5323
4OFY D Q 53;4OFY D L 62;0.9684
4OFY D Q 53;4OFY D G 63;18.5177
4OFY D Q 53;4OFY D Y 64;26.159
4OFY D Q 53;4OFY D E 103;0.912799
4OFY D Q 53;4OFY D Q 105;36.382
4OFY D K 55;4OFY D S 56;24.861
4OFY D K 55;4OFY D G 59;5.36785
4OFY D K 55;4OFY D S 60;6.65773
4OFY D K 55;4OFY D L 61;10.5554
4OFY D K 55;4OFY D E 103;27.0578
4OFY D K 55;4OFY D Q 105;10.6674
4OFY D S 56;4OFY D T 58;14.8973
4OFY D S 56;4OFY D G 59;12.4939
4OFY D S 56;4OFY D S 60;21.0636
4OFY D S 56;4OFY D L 61;1.86143
4OFY D S 56;4OFY D L 62;1.8103
4OFY D S 56;4OFY D F 77;9.62494
4OFY D T 58;4OFY D G 59;21.7625
4OFY D T 58;4OFY D S 60;13.9257
4OFY D G 59;4OFY D S 60;21.7928
4OFY D G 59;4OFY D L 61;0.276681
4OFY D S 60;4OFY D L 61;31.8832
4OFY D L 61;4OFY D L 62;26.5341
4OFY D L 61;4OFY D G 63;0.0116807
4OFY D L 61;4OFY D Q 105;10.2019
4OFY D L 62;4OFY D G 63;21.8033
4OFY D L 62;4OFY D H 65;20.731
4OFY D L 62;4OFY D P 71;21.7612
4OFY D L 62;4OFY D F 77;3.30367
4OFY D G 63;4OFY D Y 64;25.3855
4OFY D G 63;4OFY D H 65;17.7801
4OFY D Y 64;4OFY D H 65;29.4571
4OFY D Y 64;4OFY D Q 105;0.0706481
4OFY D Y 64;4OFY D L 107;4.08384
4OFY D H 65;4OFY D P 71;9.50415
4OFY D P 71;4OFY D G 72;23.4128
4OFY D P 71;4OFY D F 77;0.752155
4OFY D G 72;4OFY D H 73;23.7752
4OFY D G 72;4OFY D F 77;17.1453
4OFY D H 73;4OFY D F 77;9.52675
4OFY D E 103;4OFY D Q 105;20.5305
4OFY D E 103;4OFY D R 115;33.3468
4OFY D Q 105;4OFY D M 106;23.5352
4OFY D Q 105;4OFY D I 114;5.01547
4OFY D Q 105;4OFY D R 115;3.639
4OFY D M 106;4OFY D L 107;21.5832
4OFY D M 106;4OFY D P 113;1.77003
4OFY D M 106;4OFY D I 114;30.4175
4OFY D L 107;4OFY D P 113;16.719
4OFY D P 113;4OFY D I 114;26.1495
4OFY D P 113;4OFY D R 115;3.29048
4OFY D I 114;4OFY D R 115;30.4804
