V1;V2;Weight
5DWU H P 30;5DWU H W 31;27.4779
5DWU H P 30;5DWU H Y 32;7.08837
5DWU H W 31;5DWU H Y 32;48.8811
5DWU H W 31;5DWU H R 33;5.30813
5DWU H W 31;5DWU H S 53;19.4549
5DWU H W 31;5DWU H N 74;34.4161
5DWU H Y 32;5DWU H R 33;30.1585
5DWU H Y 32;5DWU H F 99;2.01888
5DWU H Y 32;5DWU H Y 100;14.8879
5DWU H R 33;5DWU H R 52;21.3107
5DWU H R 33;5DWU H S 53;3.68532
5DWU H R 33;5DWU H F 99;21.7677
5DWU H R 52;5DWU H S 53;32.0697
5DWU H R 52;5DWU H S 54;5.5845
5DWU H R 52;5DWU H G 55;7.39883
5DWU H R 52;5DWU H G 56;10.6405
5DWU H R 52;5DWU H F 57;22.7913
5DWU H R 52;5DWU H Y 59;6.23602
5DWU H R 52;5DWU H F 99;2.00748
5DWU H R 52;5DWU L F 94;5.11502
5DWU H S 53;5DWU H S 54;26.8796
5DWU H S 53;5DWU H G 55;2.60675
5DWU H S 53;5DWU H N 74;18.3237
5DWU H S 54;5DWU H G 55;23.4387
5DWU H S 54;5DWU H G 56;10.9757
5DWU H S 54;5DWU H N 74;3.21973
5DWU H G 55;5DWU H G 56;26.3562
5DWU H G 55;5DWU H F 57;1.02816
5DWU H G 55;5DWU H P 58;2.79926
5DWU H G 56;5DWU H F 57;27.0691
5DWU H G 56;5DWU H P 58;10.2056
5DWU H F 57;5DWU H P 58;26.6071
5DWU H F 57;5DWU H Y 59;36.0273
5DWU H P 58;5DWU H Y 59;30.6875
5DWU H Y 59;5DWU L F 94;42.2636
5DWU H F 99;5DWU H Y 100;15.9732
5DWU H F 99;5DWU H D 101;17.9578
5DWU H F 99;5DWU H S 102;9.8275
5DWU H F 99;5DWU H F 103;11.4338
5DWU H F 99;5DWU L A 91;3.28003
5DWU H F 99;5DWU L F 94;2.03008
5DWU H F 99;5DWU L I 96;16.1558
5DWU H Y 100;5DWU H D 101;23.1271
5DWU H Y 100;5DWU H S 102;1.50389
5DWU H Y 100;5DWU H F 103;41.5966
5DWU H D 101;5DWU H S 102;24.3119
5DWU H D 101;5DWU H F 103;7.98633
5DWU H D 101;5DWU L W 32;4.39242
5DWU H S 102;5DWU H F 103;31.8155
5DWU H S 102;5DWU L W 32;17.2542
5DWU H S 102;5DWU L A 50;8.12056
5DWU H S 102;5DWU L A 91;21.7332
5DWU H S 102;5DWU L I 96;0.188121
5DWU H F 103;5DWU L Y 49;29.7936
5DWU H F 103;5DWU L A 50;3.59004
5DWU L S 30;5DWU L S 31;26.7774
5DWU L S 30;5DWU L W 32;10.3748
5DWU L S 30;5DWU L N 92;5.0258
5DWU L S 31;5DWU L W 32;24.2321
5DWU L S 31;5DWU L A 50;14.6929
5DWU L W 32;5DWU L A 50;9.83622
5DWU L W 32;5DWU L A 91;16.5779
5DWU L W 32;5DWU L N 92;24.4828
5DWU L Y 49;5DWU L A 50;30.9455
5DWU L A 91;5DWU L N 92;17.7647
5DWU L A 91;5DWU L S 93;5.21251
5DWU L A 91;5DWU L I 96;11.2384
5DWU L N 92;5DWU L S 93;35.0613
5DWU L S 93;5DWU L F 94;35.6459
5DWU L S 93;5DWU L I 96;8.34873
5DWU L F 94;5DWU L I 96;17.721
