V1;V2;Weight
5F4E B K 42;5F4E B L 58;23.9015
5F4E B Y 44;5F4E B E 45;35.3093
5F4E B Y 44;5F4E B E 46;0.736483
5F4E B Y 44;5F4E B I 48;2.10722
5F4E B Y 44;5F4E B L 58;9.00216
5F4E B Y 44;5F4E B W 62;29.5375
5F4E B Y 44;5F4E B H 65;21.6747
5F4E B E 45;5F4E B E 46;35.6296
5F4E B E 45;5F4E B I 48;27.9974
5F4E B E 45;5F4E B H 65;9.14269
5F4E B E 46;5F4E B I 48;1.72603
5F4E B E 46;5F4E B H 65;12.9186
5F4E B E 46;5F4E B I 91;13.752
5F4E B L 58;5F4E B W 62;9.69034
5F4E B W 62;5F4E B H 65;14.807
5F4E B W 62;5F4E B L 66;26.6953
5F4E B H 65;5F4E B L 66;24.248
5F4E B H 65;5F4E B R 87;7.04577
5F4E B H 65;5F4E B I 91;26.9637
5F4E B L 66;5F4E B D 67;29.8082
5F4E B L 66;5F4E B F 77;0.319902
5F4E B L 66;5F4E B R 87;6.36644
5F4E B L 66;5F4E B I 91;1.30292
5F4E B D 67;5F4E B F 77;28.4066
5F4E B D 67;5F4E B R 87;11.173
5F4E B F 77;5F4E B H 78;20.6404
5F4E B F 77;5F4E B C 79;1.12206
5F4E B F 77;5F4E B G 80;20.5148
5F4E B F 77;5F4E B L 81;26.7475
5F4E B F 77;5F4E B L 82;18.6604
5F4E B F 77;5F4E B R 87;23.221
5F4E B H 78;5F4E B C 79;25.1136
5F4E B H 78;5F4E B G 80;1.88526
5F4E B H 78;5F4E B L 82;0.00252345
5F4E B H 78;5F4E B Y 147;2.73443
5F4E B H 78;5F4E B R 165;6.75753
5F4E B H 78;5F4E B C 172;0.715174
5F4E B C 79;5F4E B G 80;25.1667
5F4E B C 79;5F4E B L 81;0.897818
5F4E B C 79;5F4E B Y 147;21.3604
5F4E B C 79;5F4E B C 172;20.8152
5F4E B G 80;5F4E B L 81;23.547
5F4E B G 80;5F4E B L 82;5.60797
5F4E B G 80;5F4E B Y 147;1.96331
5F4E B L 81;5F4E B L 82;25.5332
5F4E B L 81;5F4E B M 83;1.61658
5F4E B L 81;5F4E B Y 147;2.84126
5F4E B L 82;5F4E B M 83;21.5232
5F4E B L 82;5F4E B P 84;4.23592
5F4E B L 82;5F4E B R 87;19.5682
5F4E B L 82;5F4E B Y 147;10.4821
5F4E B M 83;5F4E B P 84;25.2255
5F4E B M 83;5F4E B R 87;6.27674
5F4E B M 83;5F4E B M 145;7.86168
5F4E B P 84;5F4E B R 87;16.4237
5F4E B R 87;5F4E B I 91;27.7201
5F4E B M 145;5F4E B Y 147;23.3037
5F4E B Y 147;5F4E B C 172;12.5377
5F4E B K 163;5F4E B R 165;14.5915
