V1;V2;Weight
5XCO A V 7;5XCO A V 9;11.4201
5XCO A V 7;5XCO A T 58;9.32783
5XCO A V 7;5XCO A R 68;0.0183654
5XCO A V 7;5XCO A M 72;10.8412
5XCO A V 9;5XCO A T 58;11.0422
5XCO A V 9;5XCO A Q 61;0.0921702
5XCO A V 9;5XCO A M 72;2.68219
5XCO A V 9;5XCO A Y 96;19.1353
5XCO A V 9;5XCO A I 100;12.246
5XCO A E 37;5XCO A T 58;10.0785
5XCO A E 37;5XCO A A 59;26.6869
5XCO A E 37;5XCO A S 65;13.0076
5XCO A E 37;5XCO A R 68;20.5033
5XCO A T 58;5XCO A A 59;25.5327
5XCO A T 58;5XCO A Q 61;5.17247
5XCO A T 58;5XCO A R 68;6.42046
5XCO A T 58;5XCO A M 72;0.272844
5XCO A A 59;5XCO A Q 61;11.049
5XCO A A 59;5XCO A E 63;0.0589726
5XCO A A 59;5XCO A R 68;8.79519
5XCO A Q 61;5XCO A E 62;28.4743
5XCO A Q 61;5XCO A E 63;1.50181
5XCO A Q 61;5XCO A R 68;6.18733
5XCO A Q 61;5XCO A Y 96;16.5964
5XCO A E 62;5XCO A E 63;27.4981
5XCO A E 62;5XCO A Y 64;0.521936
5XCO A E 63;5XCO A Y 64;34.6774
5XCO A E 63;5XCO A S 65;4.16854
5XCO A E 63;5XCO A R 68;13.6927
5XCO A Y 64;5XCO A S 65;33.9104
5XCO A Y 64;5XCO A D 69;12.1491
5XCO A S 65;5XCO A R 68;29.5282
5XCO A S 65;5XCO A D 69;13.5762
5XCO A R 68;5XCO A D 69;19.9677
5XCO A R 68;5XCO A M 72;18.9516
5XCO A D 69;5XCO A M 72;8.44788
5XCO A D 69;5XCO A R 73;26.5066
5XCO A M 72;5XCO A R 73;16.922
5XCO A M 72;5XCO A Q 99;0.155802
5XCO A M 72;5XCO A I 100;9.79868
5XCO A M 72;5XCO A V 103;15.8379
5XCO A M 72;5XCO A K 104;16.5582
5XCO A R 73;5XCO A K 104;12.4011
5XCO A K 88;5XCO A D 92;37.1413
5XCO A D 92;5XCO A H 95;22.0853
5XCO A D 92;5XCO A Y 96;22.994
5XCO A H 95;5XCO A Y 96;16.3
5XCO A H 95;5XCO A E 98;11.2088
5XCO A H 95;5XCO A Q 99;9.8128
5XCO A Y 96;5XCO A E 98;0.838426
5XCO A Y 96;5XCO A Q 99;11.8474
5XCO A Y 96;5XCO A I 100;16.452
5XCO A E 98;5XCO A Q 99;16.9505
5XCO A E 98;5XCO A I 100;0.635689
5XCO A E 98;5XCO A R 102;21.9107
5XCO A Q 99;5XCO A I 100;19.7528
5XCO A Q 99;5XCO A R 102;22.9455
5XCO A Q 99;5XCO A V 103;16.5681
5XCO A I 100;5XCO A R 102;0.908993
5XCO A I 100;5XCO A V 103;10.814
5XCO A I 100;5XCO A K 104;15.9358
5XCO A R 102;5XCO A V 103;27.2369
5XCO A R 102;5XCO A K 104;0.718522
5XCO A V 103;5XCO A K 104;30.9791
