c<H>r<30>a<213>R<THR>A<O> 1
c<H>r<31>a<218>R<GLY>A<CA> 1
c<H>r<31>a<220>R<GLY>A<O> 1
c<H>r<33>a<239>R<TYR>A<CD1> 1
c<H>r<33>a<240>R<TYR>A<CD2> 1
c<H>r<33>a<241>R<TYR>A<CE1> 1
c<H>r<33>a<242>R<TYR>A<CE2> 1
c<H>r<33>a<243>R<TYR>A<CZ> 1
c<H>r<33>a<244>R<TYR>A<OH> 1
c<H>r<35>a<261>R<HIS>A<CE1> 2
c<H>r<37>a<282>R<VAL>A<CG1> 2
c<H>r<37>a<283>R<VAL>A<CG2> 2
c<H>r<39>a<302>R<GLN>A<OE1> 1
c<H>r<39>a<303>R<GLN>A<NE2> 1
c<H>r<43>a<322>R<GLN>A<C> 1
c<H>r<43>a<323>R<GLN>A<O> 1
c<H>r<44>a<329>R<GLY>A<N> 1
c<H>r<44>a<330>R<GLY>A<CA> 1
c<H>r<44>a<331>R<GLY>A<C> 2
c<H>r<45>a<333>R<LEU>A<N> 1
c<H>r<45>a<335>R<LEU>A<C> 2
c<H>r<45>a<336>R<LEU>A<O> 1
c<H>r<45>a<337>R<LEU>A<CB> 2
c<H>r<45>a<338>R<LEU>A<CG> 2
c<H>r<45>a<339>R<LEU>A<CD1> 2
c<H>r<45>a<340>R<LEU>A<CD2> 1
c<H>r<46>a<341>R<GLU>A<N> 2
c<H>r<46>a<342>R<GLU>A<CA> 2
c<H>r<46>a<343>R<GLU>A<C> 2
c<H>r<46>a<348>R<GLU>A<OE1> 1
c<H>r<47>a<350>R<TRP>A<N> 1
c<H>r<47>a<351>R<TRP>A<CA> 2
c<H>r<47>a<354>R<TRP>A<CB> 1
c<H>r<47>a<355>R<TRP>A<CG> 2
c<H>r<47>a<356>R<TRP>A<CD1> 1
c<H>r<47>a<357>R<TRP>A<CD2> 2
c<H>r<47>a<359>R<TRP>A<CE2> 3
c<H>r<47>a<360>R<TRP>A<CE3> 1
c<H>r<47>a<361>R<TRP>A<CZ2> 3
c<H>r<47>a<362>R<TRP>A<CZ3> 2
c<H>r<47>a<363>R<TRP>A<CH2> 2
c<H>r<50>a<382>R<TRP>A<CD1> 2
c<H>r<50>a<384>R<TRP>A<NE1> 2
c<H>r<50>a<385>R<TRP>A<CE2> 2
c<H>r<50>a<387>R<TRP>A<CZ2> 1
c<H>r<50>a<388>R<TRP>A<CZ3> 2
c<H>r<50>a<389>R<TRP>A<CH2> 1
c<H>r<52>a<402>R<ASN>A<CB> 2
c<H>r<52>a<404>R<ASN>A<OD1> 1
c<H>r<52>a<405>R<ASN>A<ND2> 2
c<H>r<53>a<416>R<ASN>A<O> 1
c<H>r<53>a<417>R<ASN>A<CB> 2
c<H>r<53>a<418>R<ASN>A<CG> 1
c<H>r<53>a<419>R<ASN>A<OD1> 1
c<H>r<53>a<420>R<ASN>A<ND2> 1
c<H>r<54>a<421>R<SER>A<N> 2
c<H>r<54>a<422>R<SER>A<CA> 2
c<H>r<54>a<423>R<SER>A<C> 2
c<H>r<54>a<424>R<SER>A<O> 1
c<H>r<54>a<425>R<SER>A<CB> 2
c<H>r<54>a<426>R<SER>A<OG> 1
c<H>r<55>a<428>R<GLY>A<CA> 1
c<H>r<55>a<429>R<GLY>A<C> 2
c<H>r<55>a<430>R<GLY>A<O> 1
c<H>r<56>a<431>R<GLY>A<N> 1
c<H>r<56>a<432>R<GLY>A<CA> 1
c<H>r<56>a<433>R<GLY>A<C> 2
c<H>r<56>a<434>R<GLY>A<O> 2
c<H>r<57>a<435>R<THR>A<N> 1
c<H>r<57>a<437>R<THR>A<C> 2
c<H>r<57>a<438>R<THR>A<O> 1
c<H>r<57>a<440>R<THR>A<OG1> 1
c<H>r<58>a<442>R<ASN>A<N> 2
c<H>r<58>a<443>R<ASN>A<CA> 1
c<H>r<58>a<446>R<ASN>A<CB> 2
c<H>r<58>a<447>R<ASN>A<CG> 1
c<H>r<58>a<448>R<ASN>A<OD1> 2
c<H>r<58>a<449>R<ASN>A<ND2> 2
c<H>r<59>a<450>R<TYR>A<N> 1
c<H>r<59>a<453>R<TYR>A<O> 2
c<H>r<59>a<455>R<TYR>A<CG> 2
c<H>r<59>a<457>R<TYR>A<CD2> 2
c<H>r<59>a<459>R<TYR>A<CE2> 1
c<H>r<59>a<461>R<TYR>A<OH> 1
c<H>r<60>a<463>R<ALA>A<CA> 2
c<H>r<60>a<466>R<ALA>A<CB> 1
c<H>r<61>a<467>R<GLN>A<N> 1
c<H>r<61>a<468>R<GLN>A<CA> 2
c<H>r<61>a<470>R<GLN>A<O> 1
c<H>r<61>a<471>R<GLN>A<CB> 1
c<H>r<61>a<472>R<GLN>A<CG> 1
c<H>r<61>a<473>R<GLN>A<CD> 2
c<H>r<61>a<474>R<GLN>A<OE1> 1
c<H>r<61>a<475>R<GLN>A<NE2> 1
c<H>r<62>a<476>R<LYS>A<N> 1
c<H>r<62>a<480>R<LYS>A<CB> 1
c<H>r<62>a<482>R<LYS>A<CD> 1
c<H>r<62>a<484>R<LYS>A<NZ> 1
c<H>r<64>a<500>R<GLN>A<CB> 1
c<H>r<64>a<501>R<GLN>A<CG> 1
c<H>r<64>a<502>R<GLN>A<CD> 2
c<H>r<64>a<503>R<GLN>A<OE1> 1
c<H>r<64>a<504>R<GLN>A<NE2> 1
c<H>r<71>a<558>R<ARG>A<NH1> 1
c<H>r<71>a<559>R<ARG>A<NH2> 1
c<H>r<91>a<738>R<TYR>A<CG> 3
c<H>r<91>a<739>R<TYR>A<CD1> 2
c<H>r<91>a<740>R<TYR>A<CD2> 3
c<H>r<91>a<741>R<TYR>A<CE1> 2
c<H>r<91>a<742>R<TYR>A<CE2> 2
c<H>r<91>a<743>R<TYR>A<CZ> 2
c<H>r<91>a<744>R<TYR>A<OH> 1
c<H>r<96>a<775>R<LYS>A<CB> 2
c<H>r<96>a<777>R<LYS>A<CD> 2
c<H>r<96>a<778>R<LYS>A<CE> 1
c<H>r<96>a<779>R<LYS>A<NZ> 1
c<H>r<97>a<786>R<ASN>A<OD1> 1
c<H>r<97>a<787>R<ASN>A<ND2> 1
c<H>r<98>a<791>R<SER>A<O> 1
c<H>r<99>a<795>R<ASP>A<CA> 1
c<H>r<99>a<797>R<ASP>A<O> 1
c<H>r<99>a<800>R<ASP>A<OD1> 1
c<H>r<99>a<801>R<ASP>A<OD2> 1
c<H>r<100>a<802>R<TYR>A<N> 1
c<H>r<100>a<803>R<TYR>A<CA> 1
c<H>r<100>a<805>R<TYR>A<O> 1
c<H>r<100>a<806>R<TYR>A<CB> 1
c<H>r<100>a<807>R<TYR>A<CG> 2
c<H>r<100>a<808>R<TYR>A<CD1> 2
c<H>r<100>a<809>R<TYR>A<CD2> 1
c<H>r<100>a<810>R<TYR>A<CE1> 2
c<H>r<100>a<811>R<TYR>A<CE2> 2
c<H>r<100>a<812>R<TYR>A<CZ> 2
c<H>r<100>a<813>R<TYR>A<OH> 1
c<H>r<100>i<A>a<814>R<ASN>A<N> 2
c<H>r<100>i<A>a<820>R<ASN>A<OD1> 2
c<H>r<100>i<A>a<821>R<ASN>A<ND2> 1
c<H>r<100>i<B>a<823>R<TRP>A<CA> 2
c<H>r<100>i<B>a<825>R<TRP>A<O> 1
c<H>r<100>i<B>a<826>R<TRP>A<CB> 2
c<H>r<100>i<B>a<827>R<TRP>A<CG> 2
c<H>r<100>i<B>a<828>R<TRP>A<CD1> 2
c<H>r<100>i<B>a<829>R<TRP>A<CD2> 2
c<H>r<100>i<B>a<830>R<TRP>A<NE1> 2
c<H>r<100>i<B>a<831>R<TRP>A<CE2> 2
c<H>r<100>i<B>a<832>R<TRP>A<CE3> 1
c<H>r<100>i<B>a<833>R<TRP>A<CZ2> 2
c<H>r<100>i<B>a<834>R<TRP>A<CZ3> 2
c<H>r<100>i<B>a<835>R<TRP>A<CH2> 3
c<H>r<100>i<C>a<837>R<ASP>A<CA> 2
c<H>r<100>i<C>a<838>R<ASP>A<C> 2
c<H>r<100>i<C>a<839>R<ASP>A<O> 3
c<H>r<100>i<C>a<840>R<ASP>A<CB> 2
c<H>r<100>i<C>a<841>R<ASP>A<CG> 2
c<H>r<100>i<C>a<842>R<ASP>A<OD1> 2
c<H>r<100>i<C>a<843>R<ASP>A<OD2> 1
c<H>r<100>i<D>a<844>R<PHE>A<N> 2
c<H>r<100>i<D>a<845>R<PHE>A<CA> 3
c<H>r<100>i<D>a<846>R<PHE>A<C> 3
c<H>r<100>i<D>a<847>R<PHE>A<O> 2
c<H>r<100>i<D>a<848>R<PHE>A<CB> 2
c<H>r<100>i<D>a<849>R<PHE>A<CG> 2
c<H>r<100>i<D>a<851>R<PHE>A<CD2> 2
c<H>r<100>i<D>a<853>R<PHE>A<CE2> 1
c<H>r<100>i<D>a<854>R<PHE>A<CZ> 2
c<H>r<101>a<855>R<GLN>A<N> 3
c<H>r<101>a<856>R<GLN>A<CA> 2
c<H>r<101>a<858>R<GLN>A<O> 1
c<H>r<101>a<859>R<GLN>A<CB> 2
c<H>r<101>a<860>R<GLN>A<CG> 1
c<H>r<101>a<861>R<GLN>A<CD> 2
c<H>r<101>a<862>R<GLN>A<OE1> 2
c<H>r<101>a<863>R<GLN>A<NE2> 1
c<H>r<102>a<873>R<HIS>A<NE2> 1
c<H>r<103>a<877>R<TRP>A<O> 1
c<H>r<103>a<878>R<TRP>A<CB> 1
c<H>r<103>a<879>R<TRP>A<CG> 2
c<H>r<103>a<880>R<TRP>A<CD1> 1
c<H>r<103>a<881>R<TRP>A<CD2> 2
c<H>r<103>a<882>R<TRP>A<NE1> 2
c<H>r<103>a<883>R<TRP>A<CE2> 2
c<H>r<103>a<884>R<TRP>A<CE3> 2
c<H>r<103>a<885>R<TRP>A<CZ2> 1
c<H>r<103>a<886>R<TRP>A<CZ3> 2
c<H>r<103>a<887>R<TRP>A<CH2> 1
c<H>r<104>a<891>R<GLY>A<O> 1
c<H>r<105>a<893>R<GLN>A<CA> 1
c<H>r<105>a<895>R<GLN>A<O> 1
c<H>r<121>a<1000>R<VAL>A<O> 1
c<H>r<122>a<1008>R<PHE>A<CB> 1
c<H>r<122>a<1009>R<PHE>A<CG> 2
c<H>r<122>a<1010>R<PHE>A<CD1> 1
c<H>r<122>a<1011>R<PHE>A<CD2> 2
c<H>r<122>a<1012>R<PHE>A<CE1> 1
c<H>r<122>a<1013>R<PHE>A<CE2> 1
c<H>r<122>a<1014>R<PHE>A<CZ> 1
c<H>r<123>a<1018>R<PRO>A<O> 1
c<H>r<123>a<1020>R<PRO>A<CG> 1
c<H>r<123>a<1021>R<PRO>A<CD> 2
c<H>r<124>a<1023>R<LEU>A<CA> 2
c<H>r<124>a<1024>R<LEU>A<C> 2
c<H>r<124>a<1025>R<LEU>A<O> 2
c<H>r<124>a<1026>R<LEU>A<CB> 2
c<H>r<124>a<1027>R<LEU>A<CG> 2
c<H>r<124>a<1028>R<LEU>A<CD1> 1
c<H>r<124>a<1029>R<LEU>A<CD2> 1
c<H>r<125>a<1030>R<ALA>A<N> 1
c<H>r<125>a<1032>R<ALA>A<C> 2
c<H>r<125>a<1033>R<ALA>A<O> 1
c<H>r<125>a<1034>R<ALA>A<CB> 1
c<H>r<126>a<1035>R<PRO>A<N> 2
c<H>r<127>a<1047>R<SER>A<OG> 1
c<H>r<128>a<1051>R<SER>A<O> 1
c<H>r<129>a<1055>R<LYS>A<CA> 1
c<H>r<129>a<1056>R<LYS>A<C> 2
c<H>r<129>a<1057>R<LYS>A<O> 2
c<H>r<129>a<1058>R<LYS>A<CB> 1
c<H>r<129>a<1059>R<LYS>A<CG> 1
c<H>r<129>a<1060>R<LYS>A<CD> 1
c<H>r<129>a<1061>R<LYS>A<CE> 1
c<H>r<129>a<1062>R<LYS>A<NZ> 1
c<H>r<130>a<1063>R<SER>A<N> 2
c<H>r<130>a<1064>R<SER>A<CA> 2
c<H>r<130>a<1065>R<SER>A<C> 2
c<H>r<130>a<1066>R<SER>A<O> 2
c<H>r<130>a<1067>R<SER>A<CB> 2
c<H>r<130>a<1068>R<SER>A<OG> 2
c<H>r<131>a<1069>R<THR>A<N> 1
c<H>r<131>a<1070>R<THR>A<CA> 2
c<H>r<131>a<1071>R<THR>A<C> 2
c<H>r<131>a<1072>R<THR>A<O> 1
c<H>r<132>a<1076>R<SER>A<N> 2
c<H>r<132>a<1080>R<SER>A<CB> 1
c<H>r<132>a<1081>R<SER>A<OG> 1
c<H>r<135>a<1093>R<THR>A<O> 2
c<H>r<135>a<1096>R<THR>A<CG2> 1
c<H>r<137>a<1102>R<ALA>A<N> 2
c<H>r<137>a<1104>R<ALA>A<C> 2
c<H>r<137>a<1105>R<ALA>A<O> 2
c<H>r<137>a<1106>R<ALA>A<CB> 1
c<H>r<138>a<1107>R<LEU>A<N> 2
c<H>r<138>a<1108>R<LEU>A<CA> 2
c<H>r<138>a<1109>R<LEU>A<C> 2
c<H>r<138>a<1110>R<LEU>A<O> 1
c<H>r<139>a<1115>R<GLY>A<N> 2
c<H>r<141>a<1129>R<LEU>A<CB> 2
c<H>r<141>a<1131>R<LEU>A<CD1> 1
c<H>r<141>a<1132>R<LEU>A<CD2> 1
c<H>r<143>a<1146>R<LYS>A<CD> 1
c<H>r<143>a<1147>R<LYS>A<CE> 1
c<H>r<143>a<1148>R<LYS>A<NZ> 1
c<H>r<144>a<1156>R<ASP>A<OD2> 1
c<H>r<161>a<1287>R<SER>A<OG> 1
c<H>r<162>a<1291>R<GLY>A<O> 1
c<H>r<163>a<1295>R<VAL>A<O> 1
c<H>r<164>a<1300>R<HIS>A<CA> 1
c<H>r<164>a<1303>R<HIS>A<CB> 2
c<H>r<164>a<1304>R<HIS>A<CG> 2
c<H>r<164>a<1305>R<HIS>A<ND1> 1
c<H>r<164>a<1306>R<HIS>A<CD2> 1
c<H>r<164>a<1307>R<HIS>A<CE1> 1
c<H>r<164>a<1308>R<HIS>A<NE2> 1
c<H>r<165>a<1309>R<THR>A<N> 1
c<H>r<165>a<1311>R<THR>A<C> 2
c<H>r<165>a<1312>R<THR>A<O> 1
c<H>r<166>a<1316>R<PHE>A<N> 2
c<H>r<166>a<1317>R<PHE>A<CA> 2
c<H>r<166>a<1318>R<PHE>A<C> 2
c<H>r<166>a<1320>R<PHE>A<CB> 1
c<H>r<166>a<1321>R<PHE>A<CG> 2
c<H>r<166>a<1322>R<PHE>A<CD1> 2
c<H>r<166>a<1323>R<PHE>A<CD2> 2
c<H>r<166>a<1324>R<PHE>A<CE1> 3
c<H>r<166>a<1325>R<PHE>A<CE2> 2
c<H>r<166>a<1326>R<PHE>A<CZ> 2
c<H>r<167>a<1327>R<PRO>A<N> 2
c<H>r<167>a<1328>R<PRO>A<CA> 2
c<H>r<167>a<1330>R<PRO>A<O> 1
c<H>r<167>a<1331>R<PRO>A<CB> 1
c<H>r<167>a<1332>R<PRO>A<CG> 1
c<H>r<167>a<1333>R<PRO>A<CD> 1
c<H>r<168>a<1337>R<ALA>A<O> 1
c<H>r<169>a<1341>R<VAL>A<C> 2
c<H>r<169>a<1342>R<VAL>A<O> 2
c<H>r<169>a<1343>R<VAL>A<CB> 1
c<H>r<169>a<1344>R<VAL>A<CG1> 1
c<H>r<169>a<1345>R<VAL>A<CG2> 1
c<H>r<170>a<1346>R<LEU>A<N> 1
c<H>r<170>a<1348>R<LEU>A<C> 2
c<H>r<170>a<1349>R<LEU>A<O> 1
c<H>r<171>a<1354>R<GLN>A<N> 2
c<H>r<171>a<1355>R<GLN>A<CA> 2
c<H>r<171>a<1358>R<GLN>A<CB> 1
c<H>r<171>a<1359>R<GLN>A<CG> 1
c<H>r<171>a<1361>R<GLN>A<OE1> 1
c<H>r<172>a<1363>R<SER>A<N> 1
c<H>r<177>a<1404>R<SER>A<OG> 1
c<H>r<179>a<1417>R<SER>A<CB> 1
c<H>r<179>a<1418>R<SER>A<OG> 1
c<H>r<181>a<1429>R<VAL>A<CB> 1
c<H>r<181>a<1430>R<VAL>A<CG1> 1
c<H>r<181>a<1431>R<VAL>A<CG2> 1
c<H>r<183>a<1444>R<THR>A<OG1> 1
c<H>r<183>a<1445>R<THR>A<CG2> 1
c<H>r<209>a<1640>R<LYS>A<CE> 1
c<H>r<209>a<1641>R<LYS>A<NZ> 1
