"The table details the residue variety in % for each position in the query sequence."
"Each column shows the % for that amino-acid, found in position ('pos') in the MSA."
"In case there are residues which are not a standard amino-acid in the MSA, they are represented under column 'OTHER'"

pos,A,C,D,E,F,G,H,I,K,L,M,N,P,Q,R,S,T,V,W,Y,OTHER,MAX AA,ConSurf Grade
1,,1.316,,,92.105,,,,,,,,,,,,,,,6.579,,F 92.105,7
2,,,,,,,2.222,,1.111,,,,93.333,2.222,,,1.111,,,,,P 93.333,7
3,22.222,,,,,2.778,,,0.926,3.704,1.852,2.778,2.778,1.852,7.407,13.889,39.815,,,,,T 39.815,1
4,0.893,,,,1.786,,,40.179,,3.571,26.786,,1.786,,,,,24.107,,0.893,,I 40.179,2
5,,,,0.893,,,,,,,,0.893,88.393,,,8.929,0.893,,,,,P 88.393,6
6,,,,,0.885,,,1.770,,92.920,,0.885,,,0.885,0.885,,1.770,,,,L 92.920,6
7,7.200,,,,2.400,,,,,,,,1.600,11.200,,72.800,1.600,,,3.200,,S 72.800,7
8,,,2.400,0.800,,2.400,,,0.800,1.600,,8.800,,0.800,41.600,36.000,0.800,,4.000,,,R 41.600,4
9,,,,,1.600,,,,,95.200,2.400,,0.800,,,,,,,,,L 95.200,7
10,0.800,,,,80.800,,,0.800,,8.800,,,,,,,,,,8.800,,F 80.800,4
11,22.400,,28.800,6.400,,7.200,,,1.600,,,16.800,,,,5.600,10.400,0.800,,,,D 28.800,1
12,,,8.800,4.000,,,8.800,2.400,1.600,,,63.200,,,,1.600,1.600,,,8.000,,N 63.200,6
13,92.800,,,,,,,0.800,,,,,,,,,4.000,2.400,,,,A 92.800,8
14,,,,,,,,1.600,,0.800,36.000,,,,,,,60.800,0.800,,,V 60.800,7
15,1.600,,,,4.000,,3.200,19.200,,60.000,2.400,4.800,,0.800,,1.600,,2.400,,,,L 60.000,1
16,,,,0.800,,,5.600,,,,,,,12.000,81.600,,,,,,,R 81.600,7
17,88.000,,,,,,,0.800,,,,,,,,,,11.200,,,,A 88.000,9
18,,,0.800,0.800,,,36.800,,,,,0.800,,52.000,3.200,0.800,,,,4.800,,Q 52.000,7
19,,0.800,,,,,51.200,,,,,,,10.400,32.000,,,0.800,,4.800,,H 51.200,3
20,9.600,,,,,,,1.600,,87.200,0.800,,,,,,0.800,,,,,L 87.200,7
21,,,0.800,,,,86.400,,,0.800,,8.800,,,0.800,,,,,2.400,,H 86.400,8
22,,,,1.600,0.800,,4.800,0.800,1.600,14.400,2.400,0.800,,69.600,0.800,,0.800,1.600,,,,Q 69.600,3
23,,,,,,,,0.800,,92.000,1.600,,,,,,,5.600,,,,L 92.000,7
24,94.400,,,,,2.400,,,,,,,,,,,,3.200,,,,A 94.400,8
25,44.000,,,,32.000,0.800,,10.400,0.800,0.800,0.800,,,1.600,,0.800,6.400,0.800,,0.800,,A 44.000,5
26,,,72.800,12.800,,,,,10.400,,,3.200,,,0.800,,,,,,,D 72.800,6
27,,,,,,,,17.600,,,12.000,,,,0.800,0.800,68.800,,,,,T 68.800,7
28,,1.600,,,6.400,,0.800,7.200,,1.600,0.800,,,,,,0.800,,,80.800,,Y 80.800,5
29,,,1.600,,,,0.800,,36.800,,,8.800,0.800,44.000,4.800,,2.400,,,,,Q 44.000,5
30,,,21.600,63.200,,,,,13.600,,,0.800,,0.800,,,,,,,,E 63.200,5
31,,,,,92.800,,,,,3.200,,,,,,,,,,4.000,,F 92.800,7
32,,,2.400,92.800,,0.800,,1.600,,,,,,0.800,,,,1.600,,,,E 92.800,7
33,,,8.661,40.157,,3.150,,,2.362,,,,,2.362,40.157,3.150,,,,,,ER 40.157,4
34,41.732,,3.150,,,1.575,,,2.362,,0.787,7.874,,0.787,,16.535,25.197,,,,,A 41.732,1
35,,6.349,,,0.794,,3.968,0.794,,11.111,,0.794,,,6.349,,,,3.175,66.667,,Y 66.667,2
36,,,,,,,,72.000,,11.200,1.600,,0.800,,,9.600,,4.800,,,,I 72.000,7
37,,,,,,,,,,4.800,,,84.000,,0.800,7.200,3.200,,,,,P 84.000,4
38,1.600,,8.800,42.400,,0.800,,,40.000,,,4.800,,,0.800,0.800,,,,,,E 42.400,4
39,1.600,,16.800,61.600,,15.200,,,2.400,,0.800,,,1.600,,,,,,,,E 61.600,2
40,,,,,,,2.400,,7.200,0.800,,1.600,,75.200,11.200,0.800,,0.800,,,,Q 75.200,5
41,,,,,,,,0.800,44.800,,0.800,1.600,,,52.000,,,,,,,R 52.000,8
42,0.800,,7.200,,1.600,,18.400,,,0.800,,3.200,,15.200,1.600,,,,,51.200,,Y 51.200,1
43,1.600,,,,20.000,,,,,13.600,,,,,,59.200,4.800,,,0.800,,S 59.200,7
44,,,,,82.456,,,1.754,,12.281,,,,,,,,,,3.509,,F 82.456,4
45,,2.400,,,,0.800,3.200,12.800,,32.000,7.200,15.200,,2.400,3.200,14.400,2.400,1.600,2.400,,,L 32.000,2
46,,,1.587,3.968,0.794,0.794,13.492,,34.127,0.794,,,,26.190,15.079,,,,0.794,2.381,,K 34.127,2
47,0.787,,3.937,,,1.575,0.787,12.598,3.937,,,66.142,,,0.787,6.299,2.362,0.787,,,,N 66.142,4
48,14.062,,,,10.938,0.781,,3.125,,,,,29.688,,,31.250,8.594,0.781,,0.781,,S 31.250,1
49,1.562,,,1.562,,,0.781,,9.375,3.906,0.781,0.781,15.625,53.906,9.375,,,0.781,,1.562,,Q 53.906,3
50,16.406,,,,,0.781,,0.781,,13.281,0.781,2.344,1.562,,,13.281,45.312,5.469,,,,T 45.312,2
51,32.031,,2.344,,5.469,0.781,,,,,0.781,,,,,51.562,0.781,6.250,,,,S 51.562,7
52,,,,,48.031,3.150,0.787,1.575,,30.709,,,,,0.787,4.724,,3.937,,6.299,,F 48.031,1
53,,98.450,,,0.775,,,,,,,,,,,0.775,,,,,,C 98.450,8
54,,2.273,,,57.576,2.273,,1.515,,,,9.091,0.758,3.030,,4.545,,,,18.939,,F 57.576,3
55,2.256,,,,,,,,,0.752,2.256,,,,,93.985,0.752,,,,,S 93.985,8
56,3.759,,25.564,63.910,,2.256,,,,0.752,0.752,,,0.752,,0.752,,1.504,,,,E 63.910,6
57,2.256,,,,,,,,,,,3.759,,,,60.150,30.075,0.752,,3.008,,S 60.150,7
58,1.504,,1.504,,,,,88.722,,0.752,0.752,,,,,0.752,,6.015,,,,I 88.722,8
59,0.752,,,7.519,,0.752,,,,1.504,,,84.962,0.752,0.752,0.752,,2.256,,,,P 84.962,6
60,42.105,,,,,,,0.752,,,,,,,,5.263,51.128,,,0.752,,T 51.128,8
61,,,,,,,,,,,,,97.744,,0.752,1.504,,,,,,P 97.744,9
62,6.015,,,,3.759,,,1.504,,0.752,1.504,,,,,32.331,52.632,1.504,,,,T 52.632,5
63,0.752,,9.023,,,36.842,1.504,,1.504,,,45.865,,,2.256,2.256,,,,,,N 45.865,6
64,,,,,,,,,65.414,2.256,12.782,0.752,,,17.293,,1.504,,,,,K 65.414,4
65,,,33.835,42.105,,1.504,2.256,,11.278,0.752,,2.256,,3.008,0.752,,,2.256,,,,E 42.105,1
66,,,15.789,75.940,,,,,3.008,0.752,,4.511,,,,,,,,,,E 75.940,7
67,35.338,,,,,,,2.256,,,2.256,,,,2.256,,53.383,4.511,,,,T 53.383,6
68,0.746,,,0.746,,,3.731,,,17.164,,,1.493,73.881,2.239,,,,,,,Q 73.881,7
69,7.463,,,2.239,,0.746,,,9.701,0.746,,,,76.119,2.985,,,,,,,Q 76.119,6
70,,,,,,,,,70.896,,,,,0.746,16.418,11.194,0.746,,,,,K 70.896,6
71,,,,,1.460,,,,,,,,,2.190,,91.241,5.109,,,,,S 91.241,8
72,,,41.912,,,,,0.735,0.735,,3.676,46.324,,,,0.735,,5.147,,,0.735294117647059,N 46.324,8
73,,,,,,1.460,,4.380,0.730,54.015,18.978,,2.920,,1.460,4.380,2.190,8.759,,,0.72992700729927,L 54.015,1
74,,,5.839,83.212,,,,,8.759,,,,,,1.460,,,,,0.730,,E 83.212,7
75,,,,,,,,,,100.000,,,,,,,,,,,,L 100.000,9
76,,,,,,,,,,100.000,,,,,,,,,,,,L 100.000,9
77,0.730,0.730,,,,1.460,21.898,,,2.920,,0.730,,6.569,63.504,,,,,0.730,0.72992700729927,R 63.504,2
78,,,0.730,,35.036,,,45.985,0.730,2.190,1.460,6.569,,,,0.730,2.190,0.730,,3.650,,I 45.985,5
79,,1.460,,,,,,,,,,,,,,98.540,,,,,,S 98.540,9
80,,,,,8.759,,,,,79.562,0.730,,,2.920,0.730,1.460,,2.920,,2.190,0.72992700729927,L 79.562,3
81,3.650,,,,0.730,,0.730,4.380,,62.774,0.730,0.730,,1.460,11.679,0.730,7.299,5.109,,,,L 62.774,3
82,,,,,2.190,,,0.730,,97.080,,,,,,,,,,,,L 97.080,8
83,,,,,,,,93.431,,1.460,2.190,,,,,0.730,,2.190,,,,I 93.431,8
84,,,0.730,19.708,,,,,,0.730,,,,75.912,2.920,,,,,,,Q 75.912,8
85,1.449,,,,,,,,,6.522,3.623,,0.725,,,86.232,0.725,,0.725,,,S 86.232,8
86,,,,,,,,,,,,,,,1.449,,,,98.551,,,W 98.551,8
87,,,0.725,9.420,3.623,,,2.899,,79.710,1.449,,,,,,,2.174,,,,L 79.710,6
88,1.449,,1.449,36.957,4.348,11.594,0.725,,10.870,0.725,,9.420,,,,6.522,8.696,0.725,,6.522,,E 36.957,1
89,0.725,,,,,,,,,,,,94.928,,,3.623,0.725,,,,,P 94.928,7
90,1.449,,,,,,,4.348,,7.246,8.696,,,,,10.870,,67.391,,,,V 67.391,4
91,,,,1.449,,,0.725,,1.449,,,,,79.710,15.217,,0.725,,0.725,,,Q 79.710,6
92,6.716,,,,47.761,,3.731,2.985,,14.179,,,0.746,,0.746,6.716,9.701,0.746,,5.970,,F 47.761,1
93,,,,,4.478,,,,,94.030,,,,,,,,0.746,,0.746,,L 94.030,7
94,,,0.769,0.769,,8.462,1.538,0.769,2.308,,,5.385,,,26.923,52.308,0.769,,,,,S 52.308,4
95,,,0.769,0.769,,8.462,0.769,,6.923,,,1.538,,0.769,30.000,49.231,0.769,,,,,S 49.231,4
96,9.848,,1.515,0.758,,0.758,,11.364,,2.273,6.818,,0.758,,,,7.576,58.333,,,,V 58.333,1
97,,,,,86.364,,,3.788,,3.030,0.758,,,,,1.515,,3.788,,0.758,,F 86.364,4
98,40.458,,0.763,,,3.817,,,,0.763,,,3.053,,1.527,15.267,34.351,,,,,A 40.458,4
99,,,,,,,0.746,,1.493,,,92.537,,,,3.731,0.746,,,0.746,,N 92.537,8
100,,,3.731,0.746,,1.493,0.746,,0.746,0.746,,20.149,,0.746,3.731,65.672,1.493,,,,,S 65.672,6
101,,,1.504,3.759,1.504,,0.752,,,70.677,,,2.256,15.038,3.008,1.504,,,,,,L 70.677,4
102,2.326,,0.775,,,,,0.775,,22.481,3.876,,,1.550,1.550,,4.651,62.016,,,,V 62.016,6
103,,1.550,0.775,,38.760,,20.930,3.101,,1.550,,1.550,0.775,,0.775,,,4.651,,25.581,,F 38.760,2
104,,,12.977,,,60.305,1.527,,,1.527,,2.290,,,7.634,12.214,0.763,0.763,,,,G 60.305,2
105,6.618,,,,3.676,1.471,,7.353,,,,10.294,,,,2.206,55.882,12.500,,,,T 55.882,5
106,3.676,,,,,,,0.735,,8.824,,,7.353,0.735,,77.206,0.735,0.735,,,,S 77.206,6
107,,,64.179,2.985,,,2.239,,,,,23.881,0.746,,,3.731,0.746,,,1.493,,D 64.179,5
108,,1.504,1.504,,1.504,3.759,0.752,,1.504,,,,,9.023,33.835,36.842,9.023,0.752,,,,S 36.842,5
109,,,48.529,,20.588,1.471,,,1.471,,,27.941,,,,,,,,,,D 48.529,3
110,3.623,,10.145,,1.449,,,27.536,,0.725,0.725,,,,,,,55.797,,,,V 55.797,6
111,,,,,5.072,,4.348,,,,,0.725,,,,2.899,6.522,0.725,,79.710,,Y 79.710,5
112,0.725,,23.188,62.319,,,8.696,,0.725,1.449,,,,,2.899,,,,,,,E 62.319,3
113,,,,,,,3.623,,46.377,23.188,,,,,4.348,2.174,,,,20.290,,K 46.377,4
114,,,,,,,,,,98.551,1.449,,,,,,,,,,,L 98.551,9
115,6.522,,,2.899,,,,,73.188,1.449,,0.725,,6.522,5.072,2.174,0.725,,,0.725,,K 73.188,4
116,,,86.957,,,0.725,0.725,,0.725,,,6.522,,,,2.174,,,,2.174,,D 86.957,7
117,,,,,,,,,,100.000,,,,,,,,,,,,L 100.000,9
118,,,1.449,85.507,,,,,10.870,,,0.725,,,0.725,0.725,,,,,,E 85.507,8
119,,,0.725,83.333,,,,0.725,2.174,,3.623,,,2.899,0.725,,,5.797,,,,E 83.333,6
120,,,,,,89.130,,0.725,,,,,,,1.449,,,8.696,,,,G 89.130,7
121,,,,,,,,93.478,,3.623,,,,,,,1.449,1.449,,,,I 93.478,8
122,,,0.725,2.899,0.725,,0.725,,0.725,2.174,0.725,4.348,,73.913,2.174,7.246,,1.449,,2.174,,Q 73.913,4
123,26.087,,,1.449,,,,2.899,,2.899,1.449,,,,,1.449,50.000,13.768,,,,T 50.000,5
124,,,,,,,,,,96.377,,,1.449,0.725,,,,1.449,,,,L 96.377,8
125,,,,,,,,23.188,,1.449,70.290,,,,0.725,,4.348,,,,,M 70.290,5
126,,,,2.920,,36.496,,,10.219,0.730,,,,8.029,34.307,0.730,0.730,0.730,5.109,,,G 36.496,1
127,2.985,,2.239,32.090,,8.955,,0.746,1.493,,,,,,45.522,0.746,2.239,2.239,0.746,,,R 45.522,3
128,0.752,6.767,,,0.752,,,1.504,,76.692,0.752,0.752,,0.752,0.752,1.504,,6.767,1.504,0.752,,L 76.692,1
129,3.788,,6.818,65.152,,5.303,,,1.515,7.576,,,,7.576,,,0.758,1.515,,,,E 65.152,1
130,,,79.545,6.818,,4.545,,,,,,1.515,5.303,,1.515,,0.758,,,,,D 79.545,3
131,1.504,,2.256,,,85.714,0.752,,,0.752,,,,,4.511,2.256,,2.256,,,,G 85.714,4
132,2.256,,,,,3.008,,2.256,,,,6.015,,8.271,3.008,64.662,3.759,6.767,,,,S 64.662,2
133,1.504,0.752,,,4.511,,4.511,0.752,,3.008,,,68.421,,1.504,11.278,3.008,0.752,,,,P 68.421,1
134,,,0.758,,,2.273,2.273,,,1.515,,12.121,1.515,16.667,53.788,2.273,0.758,0.758,4.545,0.758,,R 53.788,1
135,10.606,,1.515,,,13.636,,2.273,,6.061,7.576,2.273,6.818,,,6.061,40.909,2.273,,,,T 40.909,1
136,0.752,,8.271,3.759,6.015,63.910,,,,6.015,,,4.511,0.752,,2.256,,0.752,,3.008,,G 63.910,2
137,4.000,,14.400,16.800,,3.200,1.600,,,4.000,,,4.000,44.000,0.800,4.000,2.400,0.800,,,,Q 44.000,1
138,0.813,,,,3.252,,,53.659,,12.195,0.813,10.569,1.626,,,0.813,4.065,9.756,2.439,,,I 53.659,1
139,,,,,33.884,,0.826,2.479,,53.719,1.653,,1.653,3.306,0.826,1.653,,,,,,L 53.719,2
140,0.820,,,,,0.820,,,50.000,,2.459,1.639,8.197,3.279,24.590,0.820,7.377,,,,,K 50.000,1
141,1.639,,,2.459,4.918,,2.459,,,17.213,,,9.016,57.377,,0.820,2.459,0.820,,,0.819672131147541,Q 57.377,3
142,,,,,0.820,,,1.639,,,,3.279,14.754,,0.820,5.738,72.951,,,,,T 72.951,7
143,,2.459,,,8.197,,0.820,,,,,0.820,,,,,,,,87.705,,Y 87.705,8
144,,,27.049,25.410,,2.459,,1.639,,,,2.459,,,5.738,35.246,,,,,,S 35.246,2
145,,,7.438,0.826,,1.653,,0.826,64.463,,2.479,6.612,,,10.744,0.826,3.306,,,,0.826446280991736,K 64.463,3
146,,,,,90.164,,,,,2.459,,,,,,3.279,,0.820,,3.279,,F 90.164,6
147,,,80.328,7.377,,,,,,,,,,,,0.820,,,,11.475,,D 80.328,7
148,6.557,,,,1.639,3.279,,18.033,0.820,8.197,,,0.820,4.098,6.557,1.639,43.443,4.918,,,,T 43.443,1
149,,,4.098,,,,7.377,0.820,,,,76.230,,,,2.459,8.197,,,0.820,,N 76.230,6
150,,,,,0.820,,,,,51.639,6.557,,2.459,3.279,,32.787,0.820,1.639,,,,L 51.639,1
151,,,1.835,,0.917,2.752,38.532,,0.917,,,,0.917,11.927,37.615,2.752,,,,0.917,0.917431192660551,H 38.532,3
152,,,4.918,0.820,,9.836,,0.820,3.279,,,51.639,,,0.820,25.410,2.459,,,,,N 51.639,4
153,,,52.893,24.793,,0.826,8.264,,,,,8.264,,,0.826,4.132,,,,,,D 52.893,2
154,2.459,,71.311,9.016,,5.738,,,,,,4.918,,,,1.639,2.459,2.459,,,,D 71.311,3
155,58.197,,1.639,,,4.098,,,,,,5.738,1.639,,,14.754,13.115,0.820,,,,A 58.197,2
156,,,,,,,,,,90.164,,,,,3.279,,0.820,5.738,,,,L 90.164,6
157,0.820,,,,4.918,,,1.639,,72.131,7.377,,,,9.016,1.639,0.820,1.639,,,,L 72.131,3
158,,,,7.377,,,,0.820,82.787,,,0.820,,0.820,6.557,,0.820,,,,,K 82.787,6
159,,,,,,,0.826,,,,,85.950,,,,9.091,0.826,2.479,,0.826,,N 85.950,8
160,,,,,8.264,,,,,,,,,,,,,,,91.736,,Y 91.736,9
161,0.826,,,5.785,,67.769,0.826,,1.653,,0.826,1.653,,,13.223,1.653,,,5.785,,,G 67.769,1
162,,,,,,,,,,98.347,1.653,,,,,,,,,,,L 98.347,9
163,,,,,,,,,,98.347,0.826,,0.826,,,,,,,,,L 98.347,9
164,19.008,,,,5.785,,14.876,,,,,,,,,36.364,,,,23.967,,S 36.364,6
165,,96.694,,,,,0.826,,,,,,,,,,,,,2.479,,C 96.694,8
166,,,,,100.000,,,,,,,,,,,,,,,,,F 100.000,9
167,,,,,,,,,50.413,,,0.826,,,43.802,1.653,,,3.306,,,K 50.413,6
168,,,,,,,,,86.667,,,0.833,,,12.500,,,,,,,K 86.667,7
169,,,98.333,,,,,,,,,1.667,,,,,,,,,,D 98.333,9
170,,,,,,,,1.667,,25.000,72.500,,,,,,0.833,,,,,M 72.500,8
171,,,28.333,,,,60.000,,0.833,,,9.167,,,,1.667,,,,,,H 60.000,6
172,,,,,,,,,91.667,,5.000,,,,2.500,,0.833,,,,,K 91.667,8
173,7.563,,,,0.840,,,1.681,,2.521,0.840,,,,,,6.723,79.832,,,,V 79.832,7
174,4.202,,,90.756,,,,,3.361,,,,,,,0.840,,0.840,,,,E 90.756,7
175,,,,,,,,,0.840,,0.840,0.840,,,,,97.479,,,,,T 97.479,9
176,,,,,45.378,,,,,,,,,,,,,,,54.622,,Y 54.622,8
177,,,,,,,,0.847,,96.610,1.695,,,0.847,,,,,,,,L 96.610,8
178,,,,,,,5.085,,24.576,,,0.847,,,64.407,2.542,2.542,,,,,R 64.407,5
179,,,,,1.695,,,24.576,,4.237,13.559,,,,,,6.780,49.153,,,,V 49.153,6
180,11.864,,,0.847,,,,2.542,,1.695,35.593,,,,,,3.390,44.068,,,,V 44.068,7
181,,,,,,,,,49.153,,,10.169,,34.746,5.085,0.847,,,,,,K 49.153,4
182,,100.000,,,,,,,,,,,,,,,,,,,,C 100.000,9
183,,0.847,,,,0.847,3.390,,3.390,1.695,,,,,89.831,,,,,,,R 89.831,7
184,3.390,,,,0.847,,2.542,,3.390,,,,,,49.153,37.288,3.390,,,,,R 49.153,7
185,7.143,,,0.893,,8.929,,,,15.179,1.786,,0.893,,,0.893,,63.393,0.893,,,V 63.393,4
186,,,9.910,85.586,,,0.901,,1.802,,,,0.901,0.901,,,,,,,,E 85.586,7
187,4.505,,1.802,,,48.649,0.901,,,,0.901,5.405,,,,36.036,1.802,,,,,G 48.649,5
188,0.926,,,,,6.481,,,0.926,,,33.333,,,,58.333,,,,,,S 58.333,7
189,0.926,99.074,,,,,,,,,,,,,,,,,,,,C 99.074,9
190,20.000,,1.333,,,72.000,,,,,,,1.333,,,,2.667,2.667,,,,G 72.000,4
191,,,,,96.825,1.587,,,,,,,,,,,,,1.587,,,F 96.825,7
