c<G>r<44>a<305>R<LYS>A<O> 1
c<G>r<44>a<306>R<LYS>A<CB> 1
c<G>r<44>a<307>R<LYS>A<CG> 1
c<G>r<44>a<308>R<LYS>A<CD> 1
c<G>r<45>a<312>R<TYR>A<CA> 1
c<G>r<45>a<317>R<TYR>A<CD1> 1
c<G>r<45>a<319>R<TYR>A<CE1> 1
c<G>r<45>a<321>R<TYR>A<CZ> 1
c<G>r<45>a<322>R<TYR>A<OH> 1
c<G>r<70>a<480>R<MET>A<CB> 1
c<G>r<70>a<481>R<MET>A<CG> 1
c<G>r<70>a<482>R<MET>A<SD> 1
c<G>r<70>a<483>R<MET>A<CE> 1
c<G>r<71>a<484>R<GLN>A<N> 2
c<G>r<71>a<489>R<GLN>A<CG> 1
c<G>r<71>a<490>R<GLN>A<CD> 2
c<G>r<71>a<491>R<GLN>A<OE1> 1
c<G>r<71>a<492>R<GLN>A<NE2> 1
c<G>r<72>a<493>R<ASP>A<N> 1
c<G>r<72>a<497>R<ASP>A<CB> 1
c<G>r<72>a<498>R<ASP>A<CG> 2
c<G>r<72>a<499>R<ASP>A<OD1> 1
c<G>r<72>a<500>R<ASP>A<OD2> 1
c<G>r<104>a<734>R<LEU>A<O> 1
c<G>r<105>a<740>R<TYR>A<CA> 1
c<G>r<105>a<743>R<TYR>A<CB> 2
c<G>r<105>a<744>R<TYR>A<CG> 2
c<G>r<105>a<745>R<TYR>A<CD1> 1
c<G>r<105>a<747>R<TYR>A<CE1> 1
c<G>r<105>a<749>R<TYR>A<CZ> 2
c<G>r<105>a<750>R<TYR>A<OH> 1
c<G>r<106>a<751>R<GLU>A<N> 1
c<G>r<106>a<752>R<GLU>A<CA> 1
c<G>r<106>a<755>R<GLU>A<CB> 1
c<G>r<106>a<756>R<GLU>A<CG> 2
c<G>r<106>a<757>R<GLU>A<CD> 2
c<G>r<106>a<758>R<GLU>A<OE1> 1
c<G>r<106>a<759>R<GLU>A<OE2> 1
c<G>r<111>a<794>R<SER>A<CB> 1
c<G>r<112>a<796>R<ALA>A<N> 1
c<G>r<112>a<799>R<ALA>A<O> 1
c<G>r<113>a<806>R<GLN>A<CG> 1
c<G>r<113>a<808>R<GLN>A<OE1> 1
c<G>r<114>a<812>R<PRO>A<C> 2
c<G>r<114>a<813>R<PRO>A<O> 1
c<G>r<114>a<814>R<PRO>A<CB> 1
c<G>r<114>a<815>R<PRO>A<CG> 1
c<G>r<115>a<817>R<GLY>A<N> 1
c<G>r<115>a<818>R<GLY>A<CA> 2
c<G>r<115>a<819>R<GLY>A<C> 2
c<G>r<116>a<821>R<PRO>A<N> 2
c<G>r<116>a<823>R<PRO>A<C> 2
c<G>r<116>a<824>R<PRO>A<O> 2
c<G>r<116>a<825>R<PRO>A<CB> 2
c<G>r<116>a<826>R<PRO>A<CG> 1
c<G>r<116>a<827>R<PRO>A<CD> 1
c<G>r<117>a<828>R<THR>A<N> 2
c<G>r<117>a<829>R<THR>A<CA> 2
c<G>r<117>a<830>R<THR>A<C> 2
c<G>r<117>a<831>R<THR>A<O> 1
c<G>r<117>a<832>R<THR>A<CB> 1
c<G>r<117>a<833>R<THR>A<OG1> 1
c<G>r<117>a<834>R<THR>A<CG2> 1
c<G>r<118>a<835>R<VAL>A<N> 2
c<G>r<118>a<836>R<VAL>A<CA> 1
c<G>r<119>a<848>R<LEU>A<CD1> 1
c<G>r<132>a<935>R<SER>A<CB> 1
c<G>r<132>a<936>R<SER>A<OG> 1
c<G>r<133>a<937>R<SER>A<N> 1
c<G>r<133>a<940>R<SER>A<O> 1
c<G>r<133>a<941>R<SER>A<CB> 1
c<G>r<133>a<942>R<SER>A<OG> 1
c<G>r<134>a<951>R<TYR>A<CE1> 2
c<G>r<134>a<953>R<TYR>A<CZ> 2
c<G>r<134>a<954>R<TYR>A<OH> 2
c<G>r<135>a<960>R<ASP>A<CG> 2
c<G>r<135>a<961>R<ASP>A<OD1> 1
c<G>r<135>a<962>R<ASP>A<OD2> 1
c<G>r<172>a<1246>R<GLY>A<N> 1
c<G>r<172>a<1247>R<GLY>A<CA> 1
c<G>r<181>a<1315>R<PHE>A<CB> 1
c<G>r<181>a<1316>R<PHE>A<CG> 1
c<G>r<181>a<1317>R<PHE>A<CD1> 1
c<G>r<181>a<1318>R<PHE>A<CD2> 2
c<G>r<181>a<1319>R<PHE>A<CE1> 2
c<G>r<181>a<1320>R<PHE>A<CE2> 2
c<G>r<181>a<1321>R<PHE>A<CZ> 2
c<G>r<183>a<1333>R<ASP>A<N> 1
c<G>r<183>a<1335>R<ASP>A<C> 2
c<G>r<183>a<1336>R<ASP>A<O> 1
c<G>r<183>a<1337>R<ASP>A<CB> 1
c<G>r<183>a<1338>R<ASP>A<CG> 1
c<G>r<183>a<1340>R<ASP>A<OD2> 1
c<G>r<184>a<1345>R<SER>A<CB> 1
c<G>r<184>a<1346>R<SER>A<OG> 1
c<G>r<187>a<1373>R<GLU>A<OE1> 1
c<G>r<193>a<1419>R<ASP>A<CB> 1
c<G>r<193>a<1420>R<ASP>A<CG> 1
c<G>r<193>a<1422>R<ASP>A<OD2> 1
c<G>r<194>a<1426>R<PRO>A<O> 1
c<G>r<194>a<1428>R<PRO>A<CG> 1
c<G>r<194>a<1429>R<PRO>A<CD> 1
c<G>r<195>a<1436>R<LEU>A<CD1> 1
c<G>r<196>a<1438>R<LEU>A<N> 1
c<G>r<196>a<1441>R<LEU>A<O> 2
c<G>r<196>a<1442>R<LEU>A<CB> 1
c<G>r<196>a<1443>R<LEU>A<CG> 1
c<G>r<196>a<1444>R<LEU>A<CD1> 1
c<G>r<196>a<1445>R<LEU>A<CD2> 1
c<G>r<197>a<1449>R<VAL>A<O> 1
c<G>r<198>a<1453>R<SER>A<N> 2
c<G>r<198>a<1454>R<SER>A<CA> 2
c<G>r<198>a<1457>R<SER>A<CB> 1
c<G>r<198>a<1458>R<SER>A<OG> 1
c<G>r<199>a<1459>R<VAL>A<N> 1
c<G>r<199>a<1462>R<VAL>A<O> 1
c<G>r<200>a<1467>R<THR>A<CA> 1
c<G>r<200>a<1470>R<THR>A<CB> 1
c<G>r<200>a<1471>R<THR>A<OG1> 1
c<G>r<200>a<1472>R<THR>A<CG2> 1
c<G>r<200>a<1473>R<THR>A<OXT> 1
