"Metric";"Training_Set";"Testing_Set";"Independent"
"Accuracy";"0.785070785070785";"0.755656108597285";"0.725366876310273"
"Kappa";"0.362839549820282";"0.243534482758621";"0.201770521959071"
"AccuracyLower";"0.763796748119239";"0.693524016790306";"0.69585372633676"
"AccuracyUpper";"0.805261942541629";"0.810792027364133";"0.753481452079508"
"AccuracyNull";"0.760617760617761";"0.755656108597285";"0.761006289308176"
"AccuracyPValue";"0.0121907199608776";"0.536462433258084";"0.995108110231262"
"McnemarPValue";"1.54139865863545e-05";"0.00972174231224168";"0.0305945034866213"
"Sensitivity";"0.443548387096774";"0.314814814814815";"0.346491228070175"
"Specificity";"0.892554991539763";"0.898203592814371";"0.84435261707989"
"Pos Pred Value";"0.565068493150685";"0.5";"0.411458333333333"
"Neg Pred Value";"0.835974643423138";"0.802139037433155";"0.804461942257218"
"Precision";"0.565068493150685";"0.5";"0.411458333333333"
"Recall";"0.443548387096774";"0.314814814814815";"0.346491228070175"
"F1";"0.496987951807229";"0.386363636363636";"0.376190476190476"
"Prevalence";"0.239382239382239";"0.244343891402715";"0.238993710691824"
"Detection Rate";"0.106177606177606";"0.0769230769230769";"0.0828092243186583"
"Detection Prevalence";"0.187902187902188";"0.153846153846154";"0.20125786163522"
"Balanced Accuracy";"0.668051689318269";"0.606509203814593";"0.595421922575033"
"TP";"165";"17";"79"
"TN";"1055";"150";"613"
"FP";"127";"17";"113"
"FN";"207";"37";"149"
