"Metric";"Training_Set";"Testing_Set";"Independent"
"Accuracy";"0.826254826254826";"0.769230769230769";"0.777777777777778"
"Kappa";"0.440416746687152";"0.224454689327737";"0.283448832957782"
"AccuracyLower";"0.806483757900015";"0.707999654622215";"0.750036060796501"
"AccuracyUpper";"0.844784478784182";"0.82308728024893";"0.803792702667884"
"AccuracyNull";"0.760617760617761";"0.755656108597285";"0.761006289308176"
"AccuracyPValue";"2.08570777274554e-10";"0.35202596642992";"0.119115135082868"
"McnemarPValue";"3.79738253519561e-22";"2.65926185507866e-05";"2.70149283148736e-11"
"Sensitivity";"0.422043010752688";"0.240740740740741";"0.320175438596491"
"Specificity";"0.953468697123519";"0.940119760479042";"0.921487603305785"
"Pos Pred Value";"0.740566037735849";"0.565217391304348";"0.561538461538462"
"Neg Pred Value";"0.839791356184799";"0.792929292929293";"0.811893203883495"
"Precision";"0.740566037735849";"0.565217391304348";"0.561538461538462"
"Recall";"0.422043010752688";"0.240740740740741";"0.320175438596491"
"F1";"0.537671232876712";"0.337662337662338";"0.407821229050279"
"Prevalence";"0.239382239382239";"0.244343891402715";"0.238993710691824"
"Detection Rate";"0.101029601029601";"0.0588235294117647";"0.0765199161425577"
"Detection Prevalence";"0.136422136422136";"0.104072398190045";"0.136268343815514"
"Balanced Accuracy";"0.687755853938104";"0.590430250609891";"0.620831520951138"
"TP";"157";"13";"73"
"TN";"1127";"157";"669"
"FP";"55";"10";"57"
"FN";"215";"41";"155"
