"Metric";"Training_Set";"Testing_Set";"Independent"
"Accuracy";"0.821106821106821";"0.773755656108597";"0.762054507337526"
"Kappa";"0.428773165778116";"0.245527789157449";"0.234100795755968"
"AccuracyLower";"0.801128710702457";"0.712842247922646";"0.73372399225732"
"AccuracyUpper";"0.839863406702426";"0.827167983064395";"0.788756940352339"
"AccuracyNull";"0.760617760617761";"0.755656108597285";"0.761006289308176"
"AccuracyPValue";"4.8374223703354e-09";"0.29516370416924";"0.487493726423534"
"McnemarPValue";"1.34853918683705e-19";"4.10978780994589e-05";"1.86890914206168e-10"
"Sensitivity";"0.422043010752688";"0.259259259259259";"0.289473684210526"
"Specificity";"0.946700507614213";"0.940119760479042";"0.910468319559229"
"Pos Pred Value";"0.713636363636364";"0.583333333333333";"0.50381679389313"
"Neg Pred Value";"0.838830584707646";"0.796954314720812";"0.803159173754557"
"Precision";"0.713636363636364";"0.583333333333333";"0.50381679389313"
"Recall";"0.422043010752688";"0.259259259259259";"0.289473684210526"
"F1";"0.530405405405405";"0.358974358974359";"0.367688022284123"
"Prevalence";"0.239382239382239";"0.244343891402715";"0.238993710691824"
"Detection Rate";"0.101029601029601";"0.0633484162895928";"0.0691823899371069"
"Detection Prevalence";"0.141570141570142";"0.108597285067873";"0.137316561844864"
"Balanced Accuracy";"0.684371759183451";"0.599689509869151";"0.599971001884878"
"TP";"157";"14";"66"
"TN";"1119";"157";"661"
"FP";"63";"10";"65"
"FN";"215";"40";"162"
