"Metric";"Training_Set";"Testing_Set";"Independent"
"Accuracy";"0.747747747747748";"0.751131221719457";"0.734800838574423"
"Kappa";"0.258096574301415";"0.212606076310164";"0.212917490070242"
"AccuracyLower";"0.725377204460064";"0.688715636169468";"0.705567658078754"
"AccuracyUpper";"0.769178213122697";"0.806676469976538";"0.762576521876554"
"AccuracyNull";"0.760617760617761";"0.755656108597285";"0.761006289308176"
"AccuracyPValue";"0.888068106725741";"0.597677595530923";"0.97249764446762"
"McnemarPValue";"0.000335735510329008";"0.00301230545074549";"0.00254672216802938"
"Sensitivity";"0.376344086021505";"0.277777777777778";"0.337719298245614"
"Specificity";"0.864636209813875";"0.904191616766467";"0.859504132231405"
"Pos Pred Value";"0.466666666666667";"0.483870967741936";"0.430167597765363"
"Neg Pred Value";"0.814992025518341";"0.794736842105263";"0.805161290322581"
"Precision";"0.466666666666667";"0.483870967741935";"0.430167597765363"
"Recall";"0.376344086021505";"0.277777777777778";"0.337719298245614"
"F1";"0.416666666666667";"0.352941176470588";"0.378378378378378"
"Prevalence";"0.239382239382239";"0.244343891402715";"0.238993710691824"
"Detection Rate";"0.0900900900900901";"0.0678733031674208";"0.0807127882599581"
"Detection Prevalence";"0.193050193050193";"0.14027149321267";"0.187631027253669"
"Balanced Accuracy";"0.62049014791769";"0.590984697272122";"0.59861171523851"
"TP";"140";"15";"77"
"TN";"1022";"151";"624"
"FP";"160";"16";"102"
"FN";"232";"39";"151"
