"Metric";"Training_Set";"Testing_Set";"Independent"
"Accuracy";"0.825611325611326";"0.760180995475113";"0.770440251572327"
"Kappa";"0.451960990997322";"0.194041147732746";"0.242412375171333"
"AccuracyLower";"0.805814051593152";"0.69834070771112";"0.742417247047566"
"AccuracyUpper";"0.844169671559336";"0.814899125591325";"0.796782559233174"
"AccuracyNull";"0.760617760617761";"0.755656108597285";"0.761006289308176"
"AccuracyPValue";"3.13713759973376e-10";"0.474113656869083";"0.260630566393712"
"McnemarPValue";"1.43959680430192e-16";"3.77531352167205e-05";"1.06072684856628e-13"
"Sensitivity";"0.451612903225806";"0.222222222222222";"0.276315789473684"
"Specificity";"0.94331641285956";"0.934131736526946";"0.925619834710744"
"Pos Pred Value";"0.714893617021276";"0.521739130434783";"0.538461538461539"
"Neg Pred Value";"0.845337376800607";"0.787878787878788";"0.802867383512545"
"Precision";"0.714893617021277";"0.521739130434783";"0.538461538461538"
"Recall";"0.451612903225806";"0.222222222222222";"0.276315789473684"
"F1";"0.553542009884679";"0.311688311688312";"0.365217391304348"
"Prevalence";"0.239382239382239";"0.244343891402715";"0.238993710691824"
"Detection Rate";"0.108108108108108";"0.0542986425339367";"0.0660377358490566"
"Detection Prevalence";"0.151222651222651";"0.104072398190045";"0.122641509433962"
"Balanced Accuracy";"0.697464658042683";"0.578176979374584";"0.600967812092214"
"TP";"168";"12";"63"
"TN";"1115";"156";"672"
"FP";"67";"11";"54"
"FN";"204";"42";"165"
