c<A>r<292>R<TYR> 1
c<A>r<293>R<GLU> 1
c<A>r<294>R<MET> 1
c<A>r<295>R<GLU> 1
c<A>r<296>R<GLU> 1
c<A>r<303>R<LYS> 1
c<A>r<306>R<GLU> 1
c<A>r<308>R<PRO> 1
c<A>r<310>R<ARG> 1.44444
c<A>r<339>R<THR> 2.8
c<A>r<340>R<SER> 2.5
c<A>r<342>R<SER> 1
c<A>r<349>R<PRO> 1
c<A>r<350>R<VAL> 1
c<A>r<353>R<ARG> 1
c<A>r<375>R<LYS> 1.85714
c<A>r<376>R<GLU> 1.75
c<A>r<382>R<LEU> 2
c<A>r<384>R<GLN> 1.16667
c<A>r<400>R<GLU> 1.14286
c<A>r<401>R<ILE> 2
c<A>r<403>R<ARG> 1.5
c<A>r<405>R<ARG> 1.14286
c<A>r<408>R<GLN> 1.66667
c<A>r<409>R<HIS> 1.28571
c<A>r<411>R<GLN> 1
c<A>r<412>R<PHE> 1.66667
c<A>r<415>R<ALA> 2
c<A>r<417>R<VAL> 1
c<A>r<418>R<SER> 1.25
c<A>r<430>R<LYS> 1
c<A>r<431>R<GLU> 1.66667
c<A>r<433>R<SER> 1.25
c<A>r<438>R<ILE> 1.66667
c<A>r<440>R<SER> 1.75
c<A>r<441>R<GLY> 1.5
c<A>r<443>R<LYS> 1.375
c<A>r<449>R<ASN> 1
c<A>r<454>R<LYS> 1
c<A>r<455>R<LYS> 1
c<A>r<456>R<LEU> 2
c<A>r<457>R<PHE> 1.33333
c<A>r<458>R<GLY> 1.75
c<A>r<459>R<THR> 1.5
c<A>r<460>R<SER> 1
c<A>r<465>R<LYS> 1
c<A>r<466>R<ILE> 1
c<A>r<467>R<ILE> 1.85714
c<A>r<468>R<SER> 1.66667
c<A>r<469>R<ASN> 1.5
c<A>r<470>R<ARG> 1.5
c<A>r<471>R<GLY> 1.33333
c<A>r<472>R<GLU> 1
c<A>r<473>R<ASN> 1.4
c<A>r<474>R<SER> 1
