c<A>r<52>R<PRO> 1
c<A>r<54>R<GLN> 1.8
c<A>r<55>R<TRP> 2
c<A>r<56>R<MET> 1.33333
c<A>r<57>R<LYS> 1
c<A>r<58>R<ASP> 1
c<A>r<59>R<ASP> 1.2
c<A>r<60>R<PHE> 1.22222
c<A>r<61>R<GLY> 1.75
c<A>r<62>R<LEU> 1.5
c<A>r<63>R<GLY> 1.66667
c<A>r<64>R<THR> 1
c<A>r<65>R<ASP> 1
c<A>r<71>R<PRO> 1.2
c<A>r<72>R<GLY> 1
c<A>r<97>R<PHE> 1
c<A>r<105>R<GLN> 2.25
c<A>r<106>R<ILE> 2
c<A>r<107>R<SER> 1.66667
c<A>r<108>R<GLU> 1.375
c<A>r<109>R<SER> 1
c<A>r<110>R<ASP> 1.28571
c<A>r<114>R<ALA> 1
c<A>r<116>R<VAL> 1
