c<G>r<149>R<ALA> 1
c<G>r<150>R<ASN> 1.14286
c<G>r<151>R<THR> 1.4
c<G>r<152>R<PRO> 1.33333
c<G>r<153>R<ASP> 1.71429
c<G>r<154>R<ARG> 1.4
c<G>r<155>R<LEU> 2
c<G>r<156>R<GLN> 2.11111
c<G>r<157>R<GLN> 1.88889
c<G>r<158>R<ALA> 1.6
c<G>r<159>R<SER> 1.2
c<G>r<160>R<LEU> 1.33333
c<G>r<161>R<PRO> 1.25
c<G>r<162>R<LEU> 1.57143
c<G>r<163>R<LEU> 1.33333
c<G>r<164>R<SER> 1
c<G>r<172>R<TRP> 1
c<G>r<175>R<LYS> 1
c<G>r<177>R<LYS> 1.42857
c<G>r<178>R<ASP> 1
c<G>r<179>R<ALA> 1.4
c<G>r<180>R<MET> 1.75
c<G>r<181>R<ILE> 1
c<G>r<187>R<GLY> 1
c<G>r<188>R<VAL> 1.33333
c<G>r<189>R<SER> 1.5
c<G>r<190>R<SER> 1.33333
c<G>r<191>R<CYS> 2
c<G>r<192>R<MET> 1.625
c<G>r<193>R<GLY> 1.5
c<G>r<194>R<ASP> 1.5
c<G>r<195>R<SER> 2.16667
c<G>r<196>R<GLY> 1.75
c<G>r<197>R<GLY> 1.5
c<G>r<198>R<PRO> 1.66667
c<G>r<199>R<LEU> 2.2
c<G>r<200>R<VAL> 1.83333
c<G>r<201>R<CYS> 1.75
c<G>r<202>R<LYS> 1
c<G>r<203>R<LYS> 1.2
c<G>r<205>R<GLY> 1
c<G>r<206>R<ALA> 1.33333
c<G>r<207>R<TRP> 1.61538
c<G>r<208>R<THR> 1.66667
c<G>r<209>R<LEU> 1.57143
c<G>r<210>R<VAL> 1.33333
c<G>r<212>R<ILE> 1.6
c<G>r<213>R<VAL> 1.33333
c<G>r<214>R<SER> 1.83333
c<G>r<215>R<TRP> 1.38462
c<G>r<216>R<GLY> 1.75
c<G>r<217>R<SER> 1.25
c<G>r<218>R<SER> 1.4
c<G>r<219>R<THR> 1.33333
c<G>r<220>R<CYS> 1.66667
c<G>r<222>R<THR> 1
c<G>r<226>R<GLY> 1
c<G>r<227>R<VAL> 1
c<G>r<228>R<TYR> 2
c<G>r<229>R<ALA> 1
c<G>r<230>R<ARG> 1
c<G>r<231>R<VAL> 1.66667
c<G>r<232>R<THR> 1.5
c<G>r<233>R<ALA> 1
c<G>r<234>R<LEU> 1.42857
c<G>r<235>R<VAL> 1.66667
c<G>r<236>R<ASN> 1.5
c<G>r<237>R<TRP> 1.63636
c<G>r<238>R<VAL> 1.6
c<G>r<239>R<GLN> 1.5
c<G>r<241>R<THR> 1.6
c<G>r<242>R<LEU> 1.42857
c<G>r<245>R<ASN> 1.33333
