"Metric";"Testing_Set"
"Accuracy";"0.766247379454927"
"Kappa";"0.138326569296945"
"AccuracyLower";"0.738068790421714"
"AccuracyUpper";"0.792771587379031"
"AccuracyNull";"0.761006289308176"
"AccuracyPValue";"0.36852957056909"
"McnemarPValue";"2.31297891586438e-29"
"Sensitivity";"0.140350877192982"
"Specificity";"0.962809917355372"
"Pos Pred Value";"0.542372881355932"
"Neg Pred Value";"0.781005586592179"
"Precision";"0.542372881355932"
"Recall";"0.140350877192982"
"F1";"0.222996515679442"
"Prevalence";"0.238993710691824"
"Detection Rate";"0.0335429769392034"
"Detection Prevalence";"0.0618448637316562"
"Balanced Accuracy";"0.551580397274177"
"TP";"32"
"TN";"699"
"FP";"27"
"FN";"196"
