"Metric";"Testing_Set"
"Accuracy";"0.50314465408805"
"Kappa";"0.151990458401782"
"AccuracyLower";"0.470925158395403"
"AccuracyUpper";"0.535344683917284"
"AccuracyNull";"0.761006289308176"
"AccuracyPValue";"1"
"McnemarPValue";"3.08008220106915e-77"
"Sensitivity";"0.850877192982456"
"Specificity";"0.393939393939394"
"Pos Pred Value";"0.305993690851735"
"Neg Pred Value";"0.89375"
"Precision";"0.305993690851735"
"Recall";"0.850877192982456"
"F1";"0.450116009280742"
"Prevalence";"0.238993710691824"
"Detection Rate";"0.20335429769392"
"Detection Prevalence";"0.664570230607966"
"Balanced Accuracy";"0.622408293460925"
"TP";"194"
"TN";"286"
"FP";"440"
"FN";"34"
