"Metric";"Testing_Set"
"Accuracy";"0.675052410901468"
"Kappa";"0.271138319581226"
"AccuracyLower";"0.644302144995507"
"AccuracyUpper";"0.704717539806829"
"AccuracyNull";"0.761006289308176"
"AccuracyPValue";"0.999999999279055"
"McnemarPValue";"2.61411094940087e-17"
"Sensitivity";"0.649122807017544"
"Specificity";"0.683195592286501"
"Pos Pred Value";"0.391534391534392"
"Neg Pred Value";"0.861111111111111"
"Precision";"0.391534391534392"
"Recall";"0.649122807017544"
"F1";"0.488448844884488"
"Prevalence";"0.238993710691824"
"Detection Rate";"0.155136268343816"
"Detection Prevalence";"0.39622641509434"
"Balanced Accuracy";"0.666159199652023"
"TP";"148"
"TN";"496"
"FP";"230"
"FN";"80"
