"Metric";"Testing_Set"
"Accuracy";"0.767295597484277"
"Kappa";"0.284973463517401"
"AccuracyLower";"0.739155558931535"
"AccuracyUpper";"0.793774677586431"
"AccuracyNull";"0.761006289308176"
"AccuracyPValue";"0.340153460183735"
"McnemarPValue";"3.63944689319465e-06"
"Sensitivity";"0.359649122807018"
"Specificity";"0.895316804407714"
"Pos Pred Value";"0.518987341772152"
"Neg Pred Value";"0.816582914572864"
"Precision";"0.518987341772152"
"Recall";"0.359649122807018"
"F1";"0.424870466321244"
"Prevalence";"0.238993710691824"
"Detection Rate";"0.0859538784067086"
"Detection Prevalence";"0.165618448637317"
"Balanced Accuracy";"0.627482963607366"
"TP";"82"
"TN";"650"
"FP";"76"
"FN";"146"
