"Metric";"Testing_Set"
"Accuracy";"0.725366876310273"
"Kappa";"0.201770521959071"
"AccuracyLower";"0.69585372633676"
"AccuracyUpper";"0.753481452079508"
"AccuracyNull";"0.761006289308176"
"AccuracyPValue";"0.995108110231262"
"McnemarPValue";"0.0305945034866213"
"Sensitivity";"0.346491228070175"
"Specificity";"0.84435261707989"
"Pos Pred Value";"0.411458333333333"
"Neg Pred Value";"0.804461942257218"
"Precision";"0.411458333333333"
"Recall";"0.346491228070175"
"F1";"0.376190476190476"
"Prevalence";"0.238993710691824"
"Detection Rate";"0.0828092243186583"
"Detection Prevalence";"0.20125786163522"
"Balanced Accuracy";"0.595421922575033"
"TP";"79"
"TN";"613"
"FP";"113"
"FN";"149"
