"Metric";"Testing_Set"
"Accuracy";"0.69706498951782"
"Kappa";"0.247556043164289"
"AccuracyLower";"0.666804887649593"
"AccuracyUpper";"0.726102975104738"
"AccuracyNull";"0.761006289308176"
"AccuracyPValue";"0.999997298919655"
"McnemarPValue";"3.82760283509305e-05"
"Sensitivity";"0.521929824561403"
"Specificity";"0.752066115702479"
"Pos Pred Value";"0.397993311036789"
"Neg Pred Value";"0.833587786259542"
"Precision";"0.397993311036789"
"Recall";"0.521929824561403"
"F1";"0.451612903225806"
"Prevalence";"0.238993710691824"
"Detection Rate";"0.124737945492662"
"Detection Prevalence";"0.313417190775681"
"Balanced Accuracy";"0.636997970131941"
"TP";"119"
"TN";"546"
"FP";"180"
"FN";"109"
