"Metric";"Testing_Set"
"Accuracy";"0.50314465408805"
"Kappa";"0.14721191273649"
"AccuracyLower";"0.470925158395403"
"AccuracyUpper";"0.535344683917284"
"AccuracyNull";"0.761006289308176"
"AccuracyPValue";"1"
"McnemarPValue";"5.06945358113108e-75"
"Sensitivity";"0.837719298245614"
"Specificity";"0.398071625344353"
"Pos Pred Value";"0.304140127388535"
"Neg Pred Value";"0.886503067484663"
"Precision";"0.304140127388535"
"Recall";"0.837719298245614"
"F1";"0.446261682242991"
"Prevalence";"0.238993710691824"
"Detection Rate";"0.20020964360587"
"Detection Prevalence";"0.658280922431866"
"Balanced Accuracy";"0.617895461794983"
"TP";"191"
"TN";"289"
"FP";"437"
"FN";"37"
