"Metric";"Testing_Set"
"Accuracy";"0.761006289308176"
"Kappa";"0.27298251243382"
"AccuracyLower";"0.732638356491415"
"AccuracyUpper";"0.787752712299018"
"AccuracyNull";"0.761006289308176"
"AccuracyPValue";"0.517768288669332"
"McnemarPValue";"3.01570797268376e-05"
"Sensitivity";"0.359649122807018"
"Specificity";"0.887052341597796"
"Pos Pred Value";"0.5"
"Neg Pred Value";"0.815189873417722"
"Precision";"0.5"
"Recall";"0.359649122807018"
"F1";"0.418367346938776"
"Prevalence";"0.238993710691824"
"Detection Rate";"0.0859538784067086"
"Detection Prevalence";"0.171907756813417"
"Balanced Accuracy";"0.623350732202407"
"TP";"82"
"TN";"644"
"FP";"82"
"FN";"146"
