"Metric";"Testing_Set"
"Accuracy";"0.735849056603774"
"Kappa";"0.29707729553349"
"AccuracyLower";"0.706647981980234"
"AccuracyUpper";"0.763586083402702"
"AccuracyNull";"0.761006289308176"
"AccuracyPValue";"0.967458309890151"
"McnemarPValue";"0.185876732365876"
"Sensitivity";"0.495614035087719"
"Specificity";"0.81129476584022"
"Pos Pred Value";"0.452"
"Neg Pred Value";"0.836647727272727"
"Precision";"0.452"
"Recall";"0.495614035087719"
"F1";"0.472803347280335"
"Prevalence";"0.238993710691824"
"Detection Rate";"0.118448637316562"
"Detection Prevalence";"0.262054507337526"
"Balanced Accuracy";"0.65345440046397"
"TP";"113"
"TN";"589"
"FP";"137"
"FN";"115"
