"Metric";"Testing_Set"
"Accuracy";"0.767295597484277"
"Kappa";"0.073008036136352"
"AccuracyLower";"0.739155558931535"
"AccuracyUpper";"0.793774677586431"
"AccuracyNull";"0.761006289308176"
"AccuracyPValue";"0.340153460183735"
"McnemarPValue";"4.51579340734229e-43"
"Sensitivity";"0.0614035087719298"
"Specificity";"0.988980716253444"
"Pos Pred Value";"0.636363636363636"
"Neg Pred Value";"0.770386266094421"
"Precision";"0.636363636363636"
"Recall";"0.0614035087719298"
"F1";"0.112"
"Prevalence";"0.238993710691824"
"Detection Rate";"0.0146750524109015"
"Detection Prevalence";"0.0230607966457023"
"Balanced Accuracy";"0.525192112512687"
"TP";"14"
"TN";"718"
"FP";"8"
"FN";"214"
