"Metric";"Testing_Set"
"Accuracy";"0.773584905660377"
"Kappa";"0.226242508899202"
"AccuracyLower";"0.745681032172592"
"AccuracyUpper";"0.799788334019999"
"AccuracyNull";"0.761006289308176"
"AccuracyPValue";"0.191744179885142"
"McnemarPValue";"1.67389001679353e-18"
"Sensitivity";"0.241228070175439"
"Specificity";"0.940771349862259"
"Pos Pred Value";"0.561224489795918"
"Neg Pred Value";"0.797897196261682"
"Precision";"0.561224489795918"
"Recall";"0.241228070175439"
"F1";"0.337423312883436"
"Prevalence";"0.238993710691824"
"Detection Rate";"0.0576519916142558"
"Detection Prevalence";"0.10272536687631"
"Balanced Accuracy";"0.590999710018849"
"TP";"55"
"TN";"683"
"FP";"43"
"FN";"173"
