"Metric";"Testing_Set"
"Accuracy";"0.737945492662474"
"Kappa";"0.210714427544577"
"AccuracyLower";"0.708809237675372"
"AccuracyUpper";"0.765604596288777"
"AccuracyNull";"0.761006289308176"
"AccuracyPValue";"0.955074307236925"
"McnemarPValue";"0.000312157096099216"
"Sensitivity";"0.324561403508772"
"Specificity";"0.867768595041322"
"Pos Pred Value";"0.435294117647059"
"Neg Pred Value";"0.803571428571429"
"Precision";"0.435294117647059"
"Recall";"0.324561403508772"
"F1";"0.371859296482412"
"Prevalence";"0.238993710691824"
"Detection Rate";"0.0775681341719078"
"Detection Prevalence";"0.178197064989518"
"Balanced Accuracy";"0.596164999275047"
"TP";"74"
"TN";"630"
"FP";"96"
"FN";"154"
