"Metric";"Testing_Set"
"Accuracy";"0.712788259958071"
"Kappa";"0.281729152240578"
"AccuracyLower";"0.682926320190737"
"AccuracyUpper";"0.741330104738291"
"AccuracyNull";"0.761006289308176"
"AccuracyPValue";"0.999731734551045"
"McnemarPValue";"8.60857907445035e-05"
"Sensitivity";"0.543859649122807"
"Specificity";"0.765840220385675"
"Pos Pred Value";"0.421768707482993"
"Neg Pred Value";"0.842424242424242"
"Precision";"0.421768707482993"
"Recall";"0.543859649122807"
"F1";"0.475095785440613"
"Prevalence";"0.238993710691824"
"Detection Rate";"0.129979035639413"
"Detection Prevalence";"0.308176100628931"
"Balanced Accuracy";"0.654849934754241"
"TP";"124"
"TN";"556"
"FP";"170"
"FN";"104"
