"Metric";"Testing_Set"
"Accuracy";"0.757861635220126"
"Kappa";"0.223340593347572"
"AccuracyLower";"0.729382786061678"
"AccuracyUpper";"0.784738685402523"
"AccuracyNull";"0.761006289308176"
"AccuracyPValue";"0.607120181227749"
"McnemarPValue";"6.2202569144047e-10"
"Sensitivity";"0.285087719298246"
"Specificity";"0.90633608815427"
"Pos Pred Value";"0.488721804511278"
"Neg Pred Value";"0.801461632155907"
"Precision";"0.488721804511278"
"Recall";"0.285087719298246"
"F1";"0.3601108033241"
"Prevalence";"0.238993710691824"
"Detection Rate";"0.0681341719077568"
"Detection Prevalence";"0.139412997903564"
"Balanced Accuracy";"0.595711903726258"
"TP";"65"
"TN";"658"
"FP";"68"
"FN";"163"
