"Metric";"Testing_Set"
"Accuracy";"0.736897274633124"
"Kappa";"0.324457910862095"
"AccuracyLower";"0.70772850825498"
"AccuracyUpper";"0.764595441800293"
"AccuracyNull";"0.761006289308176"
"AccuracyPValue";"0.961675240861058"
"McnemarPValue";"0.00369023742122336"
"Sensitivity";"0.552631578947368"
"Specificity";"0.794765840220386"
"Pos Pred Value";"0.458181818181818"
"Neg Pred Value";"0.849779086892489"
"Precision";"0.458181818181818"
"Recall";"0.552631578947368"
"F1";"0.500994035785288"
"Prevalence";"0.238993710691824"
"Detection Rate";"0.132075471698113"
"Detection Prevalence";"0.288259958071279"
"Balanced Accuracy";"0.673698709583877"
"TP";"126"
"TN";"577"
"FP";"149"
"FN";"102"
