"Metric";"Testing_Set"
"Accuracy";"0.691823899371069"
"Kappa";"0.251824583866837"
"AccuracyLower";"0.661440109641637"
"AccuracyUpper";"0.721018205778661"
"AccuracyNull";"0.761006289308176"
"AccuracyPValue";"0.99999954029346"
"McnemarPValue";"3.89655741725541e-07"
"Sensitivity";"0.548245614035088"
"Specificity";"0.736914600550964"
"Pos Pred Value";"0.395569620253165"
"Neg Pred Value";"0.838557993730407"
"Precision";"0.395569620253165"
"Recall";"0.548245614035088"
"F1";"0.459558823529412"
"Prevalence";"0.238993710691824"
"Detection Rate";"0.131027253668763"
"Detection Prevalence";"0.331236897274633"
"Balanced Accuracy";"0.642580107293026"
"TP";"125"
"TN";"535"
"FP";"191"
"FN";"103"
