"Metric";"Testing_Set"
"Accuracy";"0.745283018867924"
"Kappa";"0.0456465357539829"
"AccuracyLower";"0.71638009836653"
"AccuracyUpper";"0.772662900873209"
"AccuracyNull";"0.761006289308176"
"AccuracyPValue";"0.879869290603316"
"McnemarPValue";"1.46360267614479e-29"
"Sensitivity";"0.0789473684210526"
"Specificity";"0.954545454545455"
"Pos Pred Value";"0.352941176470588"
"Neg Pred Value";"0.767441860465116"
"Precision";"0.352941176470588"
"Recall";"0.0789473684210526"
"F1";"0.129032258064516"
"Prevalence";"0.238993710691824"
"Detection Rate";"0.0188679245283019"
"Detection Prevalence";"0.0534591194968553"
"Balanced Accuracy";"0.516746411483254"
"TP";"18"
"TN";"693"
"FP";"33"
"FN";"210"
