"Metric";"Testing_Set"
"Accuracy";"0.761006289308176"
"Kappa";"0.068263596175594"
"AccuracyLower";"0.732638356491415"
"AccuracyUpper";"0.787752712299018"
"AccuracyNull";"0.761006289308176"
"AccuracyPValue";"0.517768288669332"
"McnemarPValue";"3.74360412869343e-38"
"Sensitivity";"0.0701754385964912"
"Specificity";"0.977961432506887"
"Pos Pred Value";"0.5"
"Neg Pred Value";"0.770065075921909"
"Precision";"0.5"
"Recall";"0.0701754385964912"
"F1";"0.123076923076923"
"Prevalence";"0.238993710691824"
"Detection Rate";"0.0167714884696017"
"Detection Prevalence";"0.0335429769392034"
"Balanced Accuracy";"0.524068435551689"
"TP";"16"
"TN";"710"
"FP";"16"
"FN";"212"
