"Metric";"Testing_Set"
"Accuracy";"0.767295597484277"
"Kappa";"0.0966371500230333"
"AccuracyLower";"0.739155558931535"
"AccuracyUpper";"0.793774677586431"
"AccuracyNull";"0.761006289308176"
"AccuracyPValue";"0.340153460183735"
"McnemarPValue";"2.25032115795841e-38"
"Sensitivity";"0.087719298245614"
"Specificity";"0.980716253443526"
"Pos Pred Value";"0.588235294117647"
"Neg Pred Value";"0.773913043478261"
"Precision";"0.588235294117647"
"Recall";"0.087719298245614"
"F1";"0.152671755725191"
"Prevalence";"0.238993710691824"
"Detection Rate";"0.0209643605870021"
"Detection Prevalence";"0.0356394129979036"
"Balanced Accuracy";"0.53421777584457"
"TP";"20"
"TN";"712"
"FP";"14"
"FN";"208"
