"Metric";"Testing_Set"
"Accuracy";"0.666666666666667"
"Kappa";"0.271986407878823"
"AccuracyLower";"0.635749497891201"
"AccuracyUpper";"0.696550830582252"
"AccuracyNull";"0.761006289308176"
"AccuracyPValue";"0.999999999981748"
"McnemarPValue";"8.87673247723401e-22"
"Sensitivity";"0.679824561403509"
"Specificity";"0.662534435261708"
"Pos Pred Value";"0.3875"
"Neg Pred Value";"0.868231046931408"
"Precision";"0.3875"
"Recall";"0.679824561403509"
"F1";"0.493630573248408"
"Prevalence";"0.238993710691824"
"Detection Rate";"0.162473794549266"
"Detection Prevalence";"0.419287211740042"
"Balanced Accuracy";"0.671179498332608"
"TP";"155"
"TN";"481"
"FP";"245"
"FN";"73"
