"Metric";"Testing_Set"
"Accuracy";"0.761006289308176"
"Kappa";"0.18931973701865"
"AccuracyLower";"0.732638356491415"
"AccuracyUpper";"0.787752712299018"
"AccuracyNull";"0.761006289308176"
"AccuracyPValue";"0.517768288669332"
"McnemarPValue";"1.24917566682584e-16"
"Sensitivity";"0.223684210526316"
"Specificity";"0.929752066115702"
"Pos Pred Value";"0.5"
"Neg Pred Value";"0.792253521126761"
"Precision";"0.5"
"Recall";"0.223684210526316"
"F1";"0.309090909090909"
"Prevalence";"0.238993710691824"
"Detection Rate";"0.0534591194968553"
"Detection Prevalence";"0.106918238993711"
"Balanced Accuracy";"0.576718138321009"
"TP";"51"
"TN";"675"
"FP";"51"
"FN";"177"
