"Metric";"Testing_Set"
"Accuracy";"0.772536687631027"
"Kappa";"0.229860940604004"
"AccuracyLower";"0.744592868928106"
"AccuracyUpper";"0.798786645076809"
"AccuracyNull";"0.761006289308176"
"AccuracyPValue";"0.21339095227416"
"McnemarPValue";"3.84050696512372e-17"
"Sensitivity";"0.25"
"Specificity";"0.9366391184573"
"Pos Pred Value";"0.553398058252427"
"Neg Pred Value";"0.799059929494712"
"Precision";"0.553398058252427"
"Recall";"0.25"
"F1";"0.344410876132931"
"Prevalence";"0.238993710691824"
"Detection Rate";"0.059748427672956"
"Detection Prevalence";"0.107966457023061"
"Balanced Accuracy";"0.59331955922865"
"TP";"57"
"TN";"680"
"FP";"46"
"FN";"171"
