"Metric";"Testing_Set"
"Accuracy";"0.770440251572327"
"Kappa";"0.0672363451287132"
"AccuracyLower";"0.742417247047566"
"AccuracyUpper";"0.796782559233174"
"AccuracyNull";"0.761006289308176"
"AccuracyPValue";"0.260630566393712"
"McnemarPValue";"2.14355149695677e-47"
"Sensitivity";"0.0482456140350877"
"Specificity";"0.997245179063361"
"Pos Pred Value";"0.846153846153845"
"Neg Pred Value";"0.769394261424017"
"Precision";"0.846153846153846"
"Recall";"0.0482456140350877"
"F1";"0.0912863070539419"
"Prevalence";"0.238993710691824"
"Detection Rate";"0.0115303983228512"
"Detection Prevalence";"0.0136268343815514"
"Balanced Accuracy";"0.522745396549224"
"TP";"11"
"TN";"724"
"FP";"2"
"FN";"217"
