"Metric";"Testing_Set"
"Accuracy";"0.765199161425577"
"Kappa";"0.25342724185637"
"AccuracyLower";"0.736982250550191"
"AccuracyUpper";"0.791768267489117"
"AccuracyNull";"0.761006289308176"
"AccuracyPValue";"0.397611314750185"
"McnemarPValue";"2.73831787073325e-09"
"Sensitivity";"0.31140350877193"
"Specificity";"0.90771349862259"
"Pos Pred Value";"0.514492753623188"
"Neg Pred Value";"0.807598039215686"
"Precision";"0.514492753623188"
"Recall";"0.31140350877193"
"F1";"0.387978142076503"
"Prevalence";"0.238993710691824"
"Detection Rate";"0.0744234800838574"
"Detection Prevalence";"0.144654088050314"
"Balanced Accuracy";"0.60955850369726"
"TP";"71"
"TN";"659"
"FP";"67"
"FN";"157"
