"Metric";"Testing_Set"
"Accuracy";"0.766247379454927"
"Kappa";"0.31733379541385"
"AccuracyLower";"0.738068790421714"
"AccuracyUpper";"0.792771587379031"
"AccuracyNull";"0.761006289308176"
"AccuracyPValue";"0.36852957056909"
"McnemarPValue";"0.0109381613587956"
"Sensitivity";"0.425438596491228"
"Specificity";"0.873278236914601"
"Pos Pred Value";"0.513227513227513"
"Neg Pred Value";"0.828758169934641"
"Precision";"0.513227513227513"
"Recall";"0.425438596491228"
"F1";"0.465227817745803"
"Prevalence";"0.238993710691824"
"Detection Rate";"0.10167714884696"
"Detection Prevalence";"0.19811320754717"
"Balanced Accuracy";"0.649358416702914"
"TP";"97"
"TN";"634"
"FP";"92"
"FN";"131"
