"Metric";"Testing_Set"
"Accuracy";"0.770440251572327"
"Kappa";"0.114487704396918"
"AccuracyLower";"0.742417247047566"
"AccuracyUpper";"0.796782559233174"
"AccuracyNull";"0.761006289308176"
"AccuracyPValue";"0.260630566393712"
"McnemarPValue";"9.91338171579852e-38"
"Sensitivity";"0.100877192982456"
"Specificity";"0.980716253443526"
"Pos Pred Value";"0.621621621621622"
"Neg Pred Value";"0.776444929116685"
"Precision";"0.621621621621622"
"Recall";"0.100877192982456"
"F1";"0.173584905660377"
"Prevalence";"0.238993710691824"
"Detection Rate";"0.0241090146750524"
"Detection Prevalence";"0.0387840670859539"
"Balanced Accuracy";"0.540796723212991"
"TP";"23"
"TN";"712"
"FP";"14"
"FN";"205"
