"Metric";"Testing_Set"
"Accuracy";"0.727463312368973"
"Kappa";"0.227520741460498"
"AccuracyLower";"0.698010994052816"
"AccuracyUpper";"0.75550396742577"
"AccuracyNull";"0.761006289308176"
"AccuracyPValue";"0.992577504703519"
"McnemarPValue";"0.238665080818217"
"Sensitivity";"0.385964912280702"
"Specificity";"0.834710743801653"
"Pos Pred Value";"0.423076923076923"
"Neg Pred Value";"0.812332439678284"
"Precision";"0.423076923076923"
"Recall";"0.385964912280702"
"F1";"0.403669724770642"
"Prevalence";"0.238993710691824"
"Detection Rate";"0.0922431865828092"
"Detection Prevalence";"0.218029350104822"
"Balanced Accuracy";"0.610337828041177"
"TP";"88"
"TN";"606"
"FP";"120"
"FN";"140"
