"Metric";"Testing_Set"
"Accuracy";"0.767295597484277"
"Kappa";"0.0481095949517282"
"AccuracyLower";"0.739155558931535"
"AccuracyUpper";"0.793774677586431"
"AccuracyNull";"0.761006289308176"
"AccuracyPValue";"0.340153460183735"
"McnemarPValue";"4.75296189465246e-48"
"Sensitivity";"0.0350877192982456"
"Specificity";"0.997245179063361"
"Pos Pred Value";"0.799999999999998"
"Neg Pred Value";"0.766949152542373"
"Precision";"0.8"
"Recall";"0.0350877192982456"
"F1";"0.0672268907563025"
"Prevalence";"0.238993710691824"
"Detection Rate";"0.00838574423480084"
"Detection Prevalence";"0.010482180293501"
"Balanced Accuracy";"0.516166449180803"
"TP";"8"
"TN";"724"
"FP";"2"
"FN";"220"
