"Metric";"Testing_Set"
"Accuracy";"0.763102725366876"
"Kappa";"0.03955738493612"
"AccuracyLower";"0.734809852506628"
"AccuracyUpper";"0.789760942925319"
"AccuracyNull";"0.761006289308176"
"AccuracyPValue";"0.457260807317001"
"McnemarPValue";"1.43433101441138e-45"
"Sensitivity";"0.0350877192982456"
"Specificity";"0.991735537190083"
"Pos Pred Value";"0.571428571428572"
"Neg Pred Value";"0.765957446808511"
"Precision";"0.571428571428571"
"Recall";"0.0350877192982456"
"F1";"0.0661157024793388"
"Prevalence";"0.238993710691824"
"Detection Rate";"0.00838574423480084"
"Detection Prevalence";"0.0146750524109015"
"Balanced Accuracy";"0.513411628244164"
"TP";"8"
"TN";"720"
"FP";"6"
"FN";"220"
