"Metric";"Testing_Set"
"Accuracy";"0.758909853249476"
"Kappa";"0.0437715720112954"
"AccuracyLower";"0.730467754385361"
"AccuracyUpper";"0.7857435838212"
"AccuracyNull";"0.761006289308176"
"AccuracyPValue";"0.577749741663774"
"McnemarPValue";"7.35766801215513e-41"
"Sensitivity";"0.0482456140350877"
"Specificity";"0.982093663911846"
"Pos Pred Value";"0.458333333333333"
"Neg Pred Value";"0.766666666666667"
"Precision";"0.458333333333333"
"Recall";"0.0482456140350877"
"F1";"0.0873015873015873"
"Prevalence";"0.238993710691824"
"Detection Rate";"0.0115303983228512"
"Detection Prevalence";"0.0251572327044025"
"Balanced Accuracy";"0.515169638973467"
"TP";"11"
"TN";"713"
"FP";"13"
"FN";"217"
