"Metric";"Testing_Set"
"Accuracy";"0.729559748427673"
"Kappa";"0.334598540145985"
"AccuracyLower";"0.700169047710945"
"AccuracyUpper";"0.757525694055631"
"AccuracyNull";"0.761006289308176"
"AccuracyPValue";"0.988950220924948"
"McnemarPValue";"1.63642771697242e-06"
"Sensitivity";"0.605263157894737"
"Specificity";"0.768595041322314"
"Pos Pred Value";"0.450980392156863"
"Neg Pred Value";"0.861111111111111"
"Precision";"0.450980392156863"
"Recall";"0.605263157894737"
"F1";"0.51685393258427"
"Prevalence";"0.238993710691824"
"Detection Rate";"0.144654088050314"
"Detection Prevalence";"0.320754716981132"
"Balanced Accuracy";"0.686929099608525"
"TP";"138"
"TN";"558"
"FP";"168"
"FN";"90"
