"Metric";"Testing_Set"
"Accuracy";"0.756813417190776"
"Kappa";"0.290915381953789"
"AccuracyLower";"0.728298038253995"
"AccuracyUpper";"0.783733565515487"
"AccuracyNull";"0.761006289308176"
"AccuracyPValue";"0.635864960957753"
"McnemarPValue";"0.0151334759829387"
"Sensitivity";"0.407894736842105"
"Specificity";"0.866391184573003"
"Pos Pred Value";"0.489473684210526"
"Neg Pred Value";"0.823298429319372"
"Precision";"0.489473684210526"
"Recall";"0.407894736842105"
"F1";"0.444976076555024"
"Prevalence";"0.238993710691824"
"Detection Rate";"0.0974842767295598"
"Detection Prevalence";"0.19916142557652"
"Balanced Accuracy";"0.637142960707554"
"TP";"93"
"TN";"629"
"FP";"97"
"FN";"135"
