"Metric";"Testing_Set"
"Accuracy";"0.756813417190776"
"Kappa";"0.0227308853918295"
"AccuracyLower";"0.728298038253995"
"AccuracyUpper";"0.783733565515487"
"AccuracyNull";"0.761006289308176"
"AccuracyPValue";"0.635864960957753"
"McnemarPValue";"7.54642077623781e-43"
"Sensitivity";"0.0307017543859649"
"Specificity";"0.984848484848485"
"Pos Pred Value";"0.388888888888889"
"Neg Pred Value";"0.763888888888889"
"Precision";"0.388888888888889"
"Recall";"0.0307017543859649"
"F1";"0.0569105691056911"
"Prevalence";"0.238993710691824"
"Detection Rate";"0.00733752620545073"
"Detection Prevalence";"0.0188679245283019"
"Balanced Accuracy";"0.507775119617225"
"TP";"7"
"TN";"715"
"FP";"11"
"FN";"221"
