"Metric";"Testing_Set"
"Accuracy";"0.772536687631027"
"Kappa";"0.197137870855148"
"AccuracyLower";"0.744592868928106"
"AccuracyUpper";"0.798786645076809"
"AccuracyNull";"0.761006289308176"
"AccuracyPValue";"0.21339095227416"
"McnemarPValue";"3.72425661609251e-23"
"Sensitivity";"0.201754385964912"
"Specificity";"0.951790633608815"
"Pos Pred Value";"0.567901234567901"
"Neg Pred Value";"0.791523482245132"
"Precision";"0.567901234567901"
"Recall";"0.201754385964912"
"F1";"0.297734627831715"
"Prevalence";"0.238993710691824"
"Detection Rate";"0.0482180293501048"
"Detection Prevalence";"0.0849056603773585"
"Balanced Accuracy";"0.576772509786864"
"TP";"46"
"TN";"691"
"FP";"35"
"FN";"182"
