"Metric";"Testing_Set"
"Accuracy";"0.679245283018868"
"Kappa";"0.287538439010104"
"AccuracyLower";"0.648582510576937"
"AccuracyUpper";"0.708796842551651"
"AccuracyNull";"0.761006289308176"
"AccuracyPValue";"0.999999995946405"
"McnemarPValue";"2.83113487491362e-19"
"Sensitivity";"0.675438596491228"
"Specificity";"0.680440771349862"
"Pos Pred Value";"0.398963730569948"
"Neg Pred Value";"0.869718309859155"
"Precision";"0.398963730569948"
"Recall";"0.675438596491228"
"F1";"0.501628664495114"
"Prevalence";"0.238993710691824"
"Detection Rate";"0.161425576519916"
"Detection Prevalence";"0.40461215932914"
"Balanced Accuracy";"0.677939683920545"
"TP";"154"
"TN";"494"
"FP";"232"
"FN";"74"
