"Metric";"Testing_Set"
"Accuracy";"0.679245283018868"
"Kappa";"0.258707377273974"
"AccuracyLower";"0.648582510576937"
"AccuracyUpper";"0.708796842551651"
"AccuracyNull";"0.761006289308176"
"AccuracyPValue";"0.999999995946405"
"McnemarPValue";"8.94899431171092e-13"
"Sensitivity";"0.605263157894737"
"Specificity";"0.702479338842975"
"Pos Pred Value";"0.389830508474576"
"Neg Pred Value";"0.85"
"Precision";"0.389830508474576"
"Recall";"0.605263157894737"
"F1";"0.474226804123711"
"Prevalence";"0.238993710691824"
"Detection Rate";"0.144654088050314"
"Detection Prevalence";"0.371069182389937"
"Balanced Accuracy";"0.653871248368856"
"TP";"138"
"TN";"510"
"FP";"216"
"FN";"90"
