"Metric";"Testing_Set"
"Accuracy";"0.774633123689727"
"Kappa";"0.248102936324645"
"AccuracyLower";"0.74676943181274"
"AccuracyUpper";"0.800789785433397"
"AccuracyNull";"0.761006289308176"
"AccuracyPValue";"0.171476767867653"
"McnemarPValue";"2.55054118964057e-15"
"Sensitivity";"0.271929824561404"
"Specificity";"0.932506887052342"
"Pos Pred Value";"0.558558558558559"
"Neg Pred Value";"0.803084223013049"
"Precision";"0.558558558558559"
"Recall";"0.271929824561404"
"F1";"0.365781710914454"
"Prevalence";"0.238993710691824"
"Detection Rate";"0.0649895178197065"
"Detection Prevalence";"0.116352201257862"
"Balanced Accuracy";"0.602218355806873"
"TP";"62"
"TN";"677"
"FP";"49"
"FN";"166"
