Stochastic Gradient Boosting 

518 samples
 14 predictor
  2 classes: 'HS', 'NHS' 

No pre-processing
Resampling: Cross-Validated (10 fold, repeated 3 times) 
Summary of sample sizes: 466, 466, 466, 467, 466, 467, ... 
Resampling results across tuning parameters:

  interaction.depth  n.minobsinnode  n.trees  ROC        Sens       Spec     
  1                   5              2000     0.7937979  0.1920940  0.9777778
  1                   5              2100     0.7945759  0.2132479  0.9760684
  1                   5              2200     0.7951183  0.2158120  0.9735043
  1                   5              2300     0.7957868  0.2211538  0.9709402
  1                   5              2400     0.7964826  0.2316239  0.9692308
  1                   5              2500     0.7967127  0.2395299  0.9675214
  1                   5              2600     0.7972167  0.2500000  0.9666667
  1                   5              2700     0.7976222  0.2500000  0.9632479
  1                   5              2800     0.7983673  0.2602564  0.9606838
  1                   5              2900     0.7993316  0.2653846  0.9572650
  1                   5              3000     0.8001205  0.2679487  0.9555556
  1                   5              3100     0.8009917  0.2705128  0.9555556
  1                   5              3200     0.8018902  0.2756410  0.9555556
  1                   5              3300     0.8017642  0.2807692  0.9521368
  1                   5              3400     0.8019779  0.2912393  0.9504274
  1                   5              3500     0.8021148  0.2963675  0.9495726
  1                   5              3600     0.8027833  0.3017094  0.9495726
  1                   5              3700     0.8034133  0.3017094  0.9478632
  1                   5              3800     0.8031394  0.3068376  0.9452991
  1                   5              3900     0.8038133  0.3119658  0.9452991
  1                   5              4000     0.8039503  0.3170940  0.9452991
  1                   5              4100     0.8040105  0.3326923  0.9452991
  1                   5              4200     0.8043502  0.3352564  0.9418803
  1                   5              4300     0.8046899  0.3403846  0.9401709
  1                   5              4400     0.8047611  0.3429487  0.9401709
  1                   5              4500     0.8046406  0.3457265  0.9384615
  1                   5              4600     0.8047611  0.3534188  0.9367521
  1                   5              4700     0.8046406  0.3510684  0.9367521
  1                   5              4800     0.8048269  0.3587607  0.9367521
  1                   5              4900     0.8049584  0.3587607  0.9350427
  1                   5              5000     0.8048214  0.3587607  0.9333333
  1                  10              2000     0.7928556  0.1899573  0.9760684
  1                  10              2100     0.7934172  0.2079060  0.9752137
  1                  10              2200     0.7943321  0.2185897  0.9726496
  1                  10              2300     0.7950060  0.2185897  0.9709402
  1                  10              2400     0.7956306  0.2237179  0.9683761
  1                  10              2500     0.7965237  0.2367521  0.9666667
  1                  10              2600     0.7973400  0.2395299  0.9632479
  1                  10              2700     0.7979564  0.2472222  0.9615385
  1                  10              2800     0.7986796  0.2576923  0.9598291
  1                  10              2900     0.7992932  0.2653846  0.9564103
  1                  10              3000     0.7994740  0.2653846  0.9547009
  1                  10              3100     0.8002520  0.2679487  0.9538462
  1                  10              3200     0.8005314  0.2782051  0.9529915
  1                  10              3300     0.8011286  0.2858974  0.9529915
  1                  10              3400     0.8015286  0.2912393  0.9512821
  1                  10              3500     0.8016601  0.3017094  0.9512821
  1                  10              3600     0.8019286  0.3068376  0.9504274
  1                  10              3700     0.8026572  0.3119658  0.9495726
  1                  10              3800     0.8025915  0.3198718  0.9478632
  1                  10              3900     0.8031832  0.3329060  0.9478632
  1                  10              4000     0.8033202  0.3354701  0.9470085
  1                  10              4100     0.8035886  0.3354701  0.9452991
  1                  10              4200     0.8041365  0.3380342  0.9435897
  1                  10              4300     0.8043502  0.3431624  0.9427350
  1                  10              4400     0.8043502  0.3457265  0.9418803
  1                  10              4500     0.8045529  0.3564103  0.9418803
  1                  10              4600     0.8046077  0.3641026  0.9401709
  1                  10              4700     0.8041420  0.3666667  0.9384615
  1                  10              4800     0.8042790  0.3692308  0.9358974
  1                  10              4900     0.8043995  0.3743590  0.9350427
  1                  10              5000     0.8047337  0.3769231  0.9341880
  2                   5              2000     0.8043557  0.2967949  0.9598291
  2                   5              2100     0.8047776  0.3096154  0.9547009
  2                   5              2200     0.8057364  0.3096154  0.9512821
  2                   5              2300     0.8057254  0.3175214  0.9478632
  2                   5              2400     0.8062678  0.3254274  0.9461538
  2                   5              2500     0.8061308  0.3305556  0.9461538
  2                   5              2600     0.8064705  0.3438034  0.9427350
  2                   5              2700     0.8068486  0.3542735  0.9410256
  2                   5              2800     0.8073252  0.3645299  0.9410256
  2                   5              2900     0.8073417  0.3696581  0.9393162
  2                   5              3000     0.8078786  0.3722222  0.9367521
  2                   5              3100     0.8080868  0.3747863  0.9350427
  2                   5              3200     0.8080156  0.3826923  0.9341880
  2                   5              3300     0.8083607  0.3878205  0.9333333
  2                   5              3400     0.8087607  0.3903846  0.9282051
  2                   5              3500     0.8089086  0.3929487  0.9282051
  2                   5              3600     0.8089689  0.3929487  0.9282051
  2                   5              3700     0.8087059  0.3955128  0.9282051
  2                   5              3800     0.8086237  0.4029915  0.9256410
  2                   5              3900     0.8084867  0.4029915  0.9239316
  2                   5              4000     0.8082895  0.4029915  0.9256410
  2                   5              4100     0.8090182  0.4055556  0.9230769
  2                   5              4200     0.8087497  0.4055556  0.9213675
  2                   5              4300     0.8083552  0.4083333  0.9205128
  2                   5              4400     0.8086785  0.4083333  0.9188034
  2                   5              4500     0.8086785  0.4108974  0.9179487
  2                   5              4600     0.8087223  0.4134615  0.9170940
  2                   5              4700     0.8089305  0.4188034  0.9170940
  2                   5              4800     0.8086621  0.4213675  0.9170940
  2                   5              4900     0.8087936  0.4215812  0.9170940
  2                   5              5000     0.8087936  0.4215812  0.9170940
  2                  10              2000     0.8038955  0.2916667  0.9572650
  2                  10              2100     0.8051063  0.3070513  0.9555556
  2                  10              2200     0.8051830  0.3149573  0.9521368
  2                  10              2300     0.8051885  0.3226496  0.9512821
  2                  10              2400     0.8059172  0.3303419  0.9478632
  2                  10              2500     0.8062623  0.3408120  0.9444444
  2                  10              2600     0.8064760  0.3459402  0.9435897
  2                  10              2700     0.8070787  0.3538462  0.9418803
  2                  10              2800     0.8073526  0.3771368  0.9401709
  2                  10              2900     0.8078348  0.3797009  0.9384615
  2                  10              3000     0.8077033  0.3797009  0.9367521
  2                  10              3100     0.8078402  0.3797009  0.9367521
  2                  10              3200     0.8081032  0.3824786  0.9367521
  2                  10              3300     0.8081142  0.3929487  0.9341880
  2                  10              3400     0.8085854  0.4057692  0.9324786
  2                  10              3500     0.8083114  0.4083333  0.9316239
  2                  10              3600     0.8084593  0.4108974  0.9307692
  2                  10              3700     0.8084155  0.4108974  0.9299145
  2                  10              3800     0.8080539  0.4108974  0.9290598
  2                  10              3900     0.8081251  0.4108974  0.9299145
  2                  10              4000     0.8079991  0.4162393  0.9273504
  2                  10              4100     0.8077307  0.4162393  0.9264957
  2                  10              4200     0.8078622  0.4162393  0.9256410
  2                  10              4300     0.8078512  0.4162393  0.9256410
  2                  10              4400     0.8077307  0.4162393  0.9239316
  2                  10              4500     0.8077964  0.4188034  0.9247863
  2                  10              4600     0.8083169  0.4213675  0.9239316
  2                  10              4700     0.8081854  0.4239316  0.9264957
  2                  10              4800     0.8089086  0.4239316  0.9264957
  2                  10              4900     0.8085799  0.4264957  0.9264957
  2                  10              5000     0.8086511  0.4264957  0.9256410

Tuning parameter 'shrinkage' was held constant at a value of 0.001
ROC was used to select the optimal model using  the largest value.
The final values used for the model were n.trees = 4100, interaction.depth = 2,
 shrinkage = 0.001 and n.minobsinnode = 5. 
