Stochastic Gradient Boosting 

518 samples
 14 predictor
  2 classes: 'HS', 'NHS' 

No pre-processing
Resampling: Cross-Validated (10 fold, repeated 3 times) 
Summary of sample sizes: 466, 466, 466, 466, 466, 466, ... 
Resampling results across tuning parameters:

  interaction.depth  n.minobsinnode  n.trees  ROC        Sens       Spec     
  1                   5              2000     0.7986577  0.1837607  0.9777778
  1                   5              2100     0.7996713  0.1918803  0.9752137
  1                   5              2200     0.8003397  0.2023504  0.9692308
  1                   5              2300     0.8007342  0.2100427  0.9675214
  1                   5              2400     0.8013478  0.2205128  0.9666667
  1                   5              2500     0.8015012  0.2337607  0.9632479
  1                   5              2600     0.8026353  0.2440171  0.9615385
  1                   5              2700     0.8035503  0.2517094  0.9598291
  1                   5              2800     0.8045365  0.2645299  0.9572650
  1                   5              2900     0.8054789  0.2645299  0.9564103
  1                   5              3000     0.8067993  0.2696581  0.9555556
  1                   5              3100     0.8075718  0.2824786  0.9547009
  1                   5              3200     0.8077745  0.2901709  0.9538462
  1                   5              3300     0.8079663  0.2955128  0.9521368
  1                   5              3400     0.8089798  0.3032051  0.9512821
  1                   5              3500     0.8092647  0.3083333  0.9512821
  1                   5              3600     0.8094455  0.3108974  0.9512821
  1                   5              3700     0.8096373  0.3162393  0.9512821
  1                   5              3800     0.8096921  0.3162393  0.9495726
  1                   5              3900     0.8096154  0.3215812  0.9487179
  1                   5              4000     0.8100701  0.3215812  0.9487179
  1                   5              4100     0.8105577  0.3267094  0.9478632
  1                   5              4200     0.8107550  0.3318376  0.9478632
  1                   5              4300     0.8110180  0.3395299  0.9470085
  1                   5              4400     0.8104153  0.3525641  0.9444444
  1                   5              4500     0.8104098  0.3553419  0.9444444
  1                   5              4600     0.8106892  0.3551282  0.9435897
  1                   5              4700     0.8106838  0.3604701  0.9444444
  1                   5              4800     0.8103441  0.3655983  0.9435897
  1                   5              4900     0.8105030  0.3655983  0.9435897
  1                   5              5000     0.8105030  0.3683761  0.9427350
  1                  10              2000     0.7979619  0.1891026  0.9777778
  1                  10              2100     0.7981975  0.1970085  0.9752137
  1                  10              2200     0.7992165  0.2021368  0.9692308
  1                  10              2300     0.8005698  0.2126068  0.9675214
  1                  10              2400     0.8009752  0.2309829  0.9658120
  1                  10              2500     0.8019066  0.2442308  0.9641026
  1                  10              2600     0.8029038  0.2544872  0.9615385
  1                  10              2700     0.8043612  0.2570513  0.9598291
  1                  10              2800     0.8050351  0.2647436  0.9581197
  1                  10              2900     0.8055775  0.2750000  0.9572650
  1                  10              3000     0.8060267  0.2826923  0.9555556
  1                  10              3100     0.8066787  0.2878205  0.9547009
  1                  10              3200     0.8075553  0.2982906  0.9529915
  1                  10              3300     0.8079334  0.3008547  0.9529915
  1                  10              3400     0.8079608  0.3085470  0.9521368
  1                  10              3500     0.8087716  0.3190171  0.9512821
  1                  10              3600     0.8089634  0.3190171  0.9504274
  1                  10              3700     0.8088922  0.3215812  0.9504274
  1                  10              3800     0.8088210  0.3215812  0.9504274
  1                  10              3900     0.8090127  0.3215812  0.9495726
  1                  10              4000     0.8096811  0.3269231  0.9487179
  1                  10              4100     0.8096702  0.3320513  0.9478632
  1                  10              4200     0.8100756  0.3452991  0.9470085
  1                  10              4300     0.8103331  0.3529915  0.9461538
  1                  10              4400     0.8097304  0.3529915  0.9461538
  1                  10              4500     0.8099277  0.3555556  0.9461538
  1                  10              4600     0.8099879  0.3606838  0.9470085
  1                  10              4700     0.8101907  0.3632479  0.9452991
  1                  10              4800     0.8100592  0.3658120  0.9444444
  1                  10              4900     0.8099934  0.3683761  0.9435897
  1                  10              5000     0.8102674  0.3737179  0.9427350
  2                   5              2000     0.8088155  0.3087607  0.9555556
  2                   5              2100     0.8086073  0.3190171  0.9547009
  2                   5              2200     0.8091935  0.3269231  0.9529915
  2                   5              2300     0.8098565  0.3320513  0.9512821
  2                   5              2400     0.8100537  0.3320513  0.9495726
  2                   5              2500     0.8099879  0.3320513  0.9495726
  2                   5              2600     0.8102509  0.3450855  0.9478632
  2                   5              2700     0.8105797  0.3476496  0.9461538
  2                   5              2800     0.8110344  0.3502137  0.9444444
  2                   5              2900     0.8105577  0.3502137  0.9444444
  2                   5              3000     0.8109632  0.3606838  0.9435897
  2                   5              3100     0.8110289  0.3660256  0.9427350
  2                   5              3200     0.8109632  0.3660256  0.9427350
  2                   5              3300     0.8103769  0.3711538  0.9418803
  2                   5              3400     0.8105030  0.3764957  0.9410256
  2                   5              3500     0.8106564  0.3739316  0.9401709
  2                   5              3600     0.8108591  0.3739316  0.9401709
  2                   5              3700     0.8103769  0.3818376  0.9393162
  2                   5              3800     0.8105961  0.3818376  0.9376068
  2                   5              3900     0.8106783  0.3844017  0.9376068
  2                   5              4000     0.8109522  0.3844017  0.9376068
  2                   5              4100     0.8107550  0.3869658  0.9367521
  2                   5              4200     0.8113631  0.3869658  0.9367521
  2                   5              4300     0.8112974  0.3895299  0.9350427
  2                   5              4400     0.8108317  0.3972222  0.9350427
  2                   5              4500     0.8103715  0.3944444  0.9341880
  2                   5              4600     0.8101742  0.3970085  0.9333333
  2                   5              4700     0.8102400  0.3970085  0.9324786
  2                   5              4800     0.8107221  0.3970085  0.9299145
  2                   5              4900     0.8107112  0.3970085  0.9299145
  2                   5              5000     0.8108591  0.3995726  0.9299145
  2                  10              2000     0.8072814  0.3059829  0.9547009
  2                  10              2100     0.8079991  0.3138889  0.9547009
  2                  10              2200     0.8085744  0.3217949  0.9529915
  2                  10              2300     0.8091113  0.3269231  0.9504274
  2                  10              2400     0.8092319  0.3346154  0.9487179
  2                  10              2500     0.8093688  0.3346154  0.9487179
  2                  10              2600     0.8098345  0.3397436  0.9487179
  2                  10              2700     0.8102345  0.3532051  0.9478632
  2                  10              2800     0.8104263  0.3532051  0.9461538
  2                  10              2900     0.8105084  0.3585470  0.9444444
  2                  10              3000     0.8107605  0.3638889  0.9444444
  2                  10              3100     0.8106345  0.3664530  0.9435897
  2                  10              3200     0.8099167  0.3715812  0.9427350
  2                  10              3300     0.8098345  0.3715812  0.9410256
  2                  10              3400     0.8099058  0.3741453  0.9401709
  2                  10              3500     0.8101085  0.3792735  0.9401709
  2                  10              3600     0.8099003  0.3792735  0.9393162
  2                  10              3700     0.8097030  0.3818376  0.9384615
  2                  10              3800     0.8101030  0.3869658  0.9384615
  2                  10              3900     0.8100318  0.3869658  0.9367521
  2                  10              4000     0.8097798  0.3946581  0.9341880
  2                  10              4100     0.8100318  0.3946581  0.9341880
  2                  10              4200     0.8101687  0.3972222  0.9341880
  2                  10              4300     0.8096263  0.3997863  0.9324786
  2                  10              4400     0.8104920  0.3997863  0.9316239
  2                  10              4500     0.8101468  0.4023504  0.9307692
  2                  10              4600     0.8101468  0.3997863  0.9307692
  2                  10              4700     0.8104098  0.3997863  0.9307692
  2                  10              4800     0.8102783  0.4023504  0.9299145
  2                  10              4900     0.8101304  0.4049145  0.9299145
  2                  10              5000     0.8100153  0.4023504  0.9307692

Tuning parameter 'shrinkage' was held constant at a value of 0.001
ROC was used to select the optimal model using  the largest value.
The final values used for the model were n.trees = 4200, interaction.depth = 2,
 shrinkage = 0.001 and n.minobsinnode = 5. 
