Linear Support Vector Machines with Class Weights 

509 samples
 14 predictor
  2 classes: 'HS', 'NHS' 

No pre-processing
Resampling: Cross-Validated (10 fold, repeated 3 times) 
Summary of sample sizes: 459, 458, 459, 458, 459, 458, ... 
Resampling results across tuning parameters:

  cost  weight  ROC        Sens       Spec     
  0.1   0.1     0.8042555  0.9305556  0.2932074
  0.1   0.2     0.8102710  0.8141026  0.6459289
  0.1   0.3     0.8128662  0.7386752  0.7715700
  0.1   0.4     0.8118417  0.6598291  0.8147998
  0.1   0.5     0.8130137  0.6279915  0.8545884
  0.1   0.6     0.8117397  0.5852564  0.8761808
  0.1   0.7     0.8137697  0.5636752  0.8943995
  0.1   0.8     0.8155443  0.5021368  0.9159694
  0.1   0.9     0.8146497  0.4696581  0.9332659
  0.1   1.0     0.8124782  0.4134615  0.9437247
  0.5   0.1     0.8003881  0.9091880  0.3710976
  0.5   0.2     0.8087734  0.8057692  0.6528790
  0.5   0.3     0.8116946  0.7361111  0.7688934
  0.5   0.4     0.8114103  0.6681624  0.8122582
  0.5   0.5     0.8098219  0.6224359  0.8528115
  0.5   0.6     0.8116756  0.5878205  0.8736167
  0.5   0.7     0.8110129  0.5474359  0.8917229
  0.5   0.8     0.8111923  0.5235043  0.9099190
  0.5   0.9     0.8129217  0.4858974  0.9254386
  0.5   1.0     0.8112283  0.4314103  0.9428250
  1.0   0.1     0.8005714  0.9091880  0.3823662
  1.0   0.2     0.8086524  0.8029915  0.6580297
  1.0   0.3     0.8095058  0.7333333  0.7645974
  1.0   0.4     0.8104630  0.6681624  0.8105263
  1.0   0.5     0.8084733  0.6115385  0.8511246
  1.0   0.6     0.8115483  0.5878205  0.8753261
  1.0   0.7     0.8101190  0.5502137  0.8925776
  1.0   0.8     0.8095123  0.5209402  0.9107962
  1.0   0.9     0.8123079  0.4884615  0.9271705
  1.0   1.0     0.8111140  0.4344017  0.9428250
  1.5   0.1     0.8000025  0.9091880  0.3806118
  1.5   0.2     0.8077677  0.8029915  0.6598066
  1.5   0.3     0.8094716  0.7388889  0.7620108
  1.5   0.4     0.8097483  0.6683761  0.8139676
  1.5   0.5     0.8081703  0.6117521  0.8519793
  1.5   0.6     0.8117357  0.5850427  0.8744714
  1.5   0.7     0.8097550  0.5502137  0.8925776
  1.5   0.8     0.8098394  0.5209402  0.9090643
  1.5   0.9     0.8121374  0.4884615  0.9254611
  1.5   1.0     0.8107084  0.4344017  0.9410706
  2.0   0.1     0.7995884  0.9091880  0.3832434
  2.0   0.2     0.8069542  0.8029915  0.6589519
  2.0   0.3     0.8091905  0.7333333  0.7620108
  2.0   0.4     0.8092000  0.6683761  0.8156770
  2.0   0.5     0.8082362  0.6089744  0.8511246
  2.0   0.6     0.8115725  0.5850427  0.8744714
  2.0   0.7     0.8099585  0.5502137  0.8934323
  2.0   0.8     0.8097307  0.5260684  0.9099190
  2.0   0.9     0.8118673  0.4912393  0.9254836
  2.0   1.0     0.8101565  0.4344017  0.9410706

ROC was used to select the optimal model using  the largest value.
The final values used for the model were cost = 0.1 and weight = 0.8. 
