"Metric";"Testing_Set"
"Accuracy";"0.732704402515723"
"Kappa";"0.18823953390594"
"AccuracyLower";"0.703407614347387"
"AccuracyUpper";"0.760556792518961"
"AccuracyNull";"0.761006289308176"
"AccuracyPValue";"0.980630779809873"
"McnemarPValue";"0.00010334948813056"
"Sensitivity";"0.302631578947368"
"Specificity";"0.867768595041322"
"Pos Pred Value";"0.418181818181818"
"Neg Pred Value";"0.798479087452471"
"Precision";"0.418181818181818"
"Recall";"0.302631578947368"
"F1";"0.351145038167939"
"Prevalence";"0.238993710691824"
"Detection Rate";"0.0723270440251572"
"Detection Prevalence";"0.172955974842767"
"Balanced Accuracy";"0.585200086994345"
"TP";"69"
"TN";"630"
"FP";"96"
"FN";"159"
