"Metric";"Testing_Set"
"Accuracy";"0.733752620545073"
"Kappa";"0.31154750946098"
"AccuracyLower";"0.704487535786445"
"AccuracyUpper";"0.761566757994013"
"AccuracyNull";"0.761006289308176"
"AccuracyPValue";"0.976865373838175"
"McnemarPValue";"0.0100946889545701"
"Sensitivity";"0.535087719298246"
"Specificity";"0.796143250688705"
"Pos Pred Value";"0.451851851851852"
"Neg Pred Value";"0.845029239766082"
"Precision";"0.451851851851852"
"Recall";"0.535087719298246"
"F1";"0.48995983935743"
"Prevalence";"0.238993710691824"
"Detection Rate";"0.127882599580713"
"Detection Prevalence";"0.283018867924528"
"Balanced Accuracy";"0.665615484993475"
"TP";"122"
"TN";"578"
"FP";"148"
"FN";"106"
