"Metric";"Testing_Set"
"Accuracy";"0.664570230607966"
"Kappa";"0.28323221698379"
"AccuracyLower";"0.633613001293662"
"AccuracyUpper";"0.694507484188398"
"AccuracyNull";"0.758909853249476"
"AccuracyPValue";"0.999999999979622"
"McnemarPValue";"1.41040212882137e-25"
"Sensitivity";"0.71304347826087"
"Specificity";"0.649171270718232"
"Pos Pred Value";"0.392344497607655"
"Neg Pred Value";"0.876865671641791"
"Precision";"0.392344497607655"
"Recall";"0.71304347826087"
"F1";"0.506172839506173"
"Prevalence";"0.241090146750524"
"Detection Rate";"0.171907756813417"
"Detection Prevalence";"0.438155136268344"
"Balanced Accuracy";"0.681107374489551"
"TP";"164"
"TN";"470"
"FP";"254"
"FN";"66"
