"Metric";"Testing_Set"
"Accuracy";"0.714932126696833"
"Kappa";"0.317800970160224"
"AccuracyLower";"0.650531234051952"
"AccuracyUpper";"0.77346476901317"
"AccuracyNull";"0.755656108597285"
"AccuracyPValue";"0.92959027094733"
"McnemarPValue";"0.0117433823011726"
"Sensitivity";"0.611111111111111"
"Specificity";"0.748502994011976"
"Pos Pred Value";"0.44"
"Neg Pred Value";"0.856164383561644"
"Precision";"0.44"
"Recall";"0.611111111111111"
"F1";"0.511627906976744"
"Prevalence";"0.244343891402715"
"Detection Rate";"0.149321266968326"
"Detection Prevalence";"0.339366515837104"
"Balanced Accuracy";"0.679807052561544"
"TP";"33"
"TN";"125"
"FP";"42"
"FN";"21"
