c<A>r<1>R<GLY> 1.25
c<A>r<2>R<SER> 1.33333
c<A>r<3>R<HIS> 1
c<A>r<5>R<MET> 3.5
c<A>r<7>R<TYR> 3
c<A>r<8>R<PHE> 1.5
c<A>r<9>R<TYR> 1.75
c<A>r<10>R<THR> 1.33333
c<A>r<12>R<MET> 1
c<A>r<14>R<ARG> 1
c<A>r<21>R<ARG> 1
c<A>r<23>R<ILE> 1.25
c<A>r<25>R<VAL> 1
c<A>r<27>R<TYR> 1
c<A>r<31>R<THR> 1
c<A>r<32>R<GLN> 1.66667
c<A>r<33>R<PHE> 4.5
c<A>r<35>R<ARG> 1.16667
c<A>r<48>R<ARG> 1.8
c<A>r<50>R<PRO> 1
c<A>r<53>R<GLU> 1
c<A>r<59>R<TYR> 2.75
c<A>r<62>R<ARG> 1.28571
c<A>r<63>R<ASN> 2.66667
c<A>r<65>R<GLN> 1.42857
c<A>r<66>R<ILE> 1.71429
c<A>r<67>R<PHE> 2.66667
c<A>r<69>R<THR> 1.6
c<A>r<70>R<ASN> 1.6
c<A>r<73>R<THR> 1.5
c<A>r<74>R<TYR> 1.5
c<A>r<76>R<GLU> 1.83333
c<A>r<77>R<SER> 1.8
c<A>r<80>R<ASN> 2.5
c<A>r<81>R<LEU> 1.5
c<A>r<84>R<TYR> 2.5
c<A>r<92>R<SER> 1
c<A>r<94>R<ILE> 1.8
c<A>r<95>R<ILE> 1.5
c<A>r<96>R<GLN> 2.14286
c<A>r<97>R<ARG> 2
c<A>r<98>R<MET> 1.8
c<A>r<99>R<TYR> 1.75
c<A>r<103>R<LEU> 1
c<A>r<104>R<GLY> 1.5
c<A>r<105>R<PRO> 1.16667
c<A>r<110>R<LEU> 1
c<A>r<115>R<GLN> 1.6
c<A>r<116>R<SER> 1.66667
c<A>r<117>R<ALA> 1.66667
c<A>r<119>R<ASP> 1.25
c<A>r<120>R<GLY> 1.75
c<A>r<121>R<LYS> 1.5
c<A>r<122>R<ASP> 1.33333
c<A>r<123>R<TYR> 1.5
c<A>r<124>R<ILE> 2
c<A>r<128>R<GLU> 1
c<A>r<142>R<ILE> 3
c<A>r<143>R<THR> 2.66667
c<A>r<146>R<LYS> 1.33333
c<A>r<147>R<TRP> 1.6
c<A>r<149>R<ALA> 1
c<A>r<150>R<ALA> 1
c<A>r<151>R<ARG> 1.28571
c<A>r<152>R<VAL> 1.33333
c<A>r<154>R<GLU> 1.5
c<A>r<155>R<GLN> 1.44444
c<A>r<156>R<ARG> 1.55556
c<A>r<157>R<ARG> 1.77778
c<A>r<158>R<ALA> 2.2
c<A>r<159>R<TYR> 1.8
c<A>r<161>R<GLU> 1
c<A>r<162>R<GLY> 1
c<A>r<163>R<LEU> 1.33333
c<A>r<164>R<CYS> 3
c<A>r<166>R<GLU> 1
c<A>r<167>R<TRP> 2.875
c<A>r<171>R<TYR> 4
c<A>r<176>R<LYS> 1
c<A>r<177>R<GLU> 1
c<A>r<178>R<THR> 1.66667
c<A>r<179>R<LEU> 1
c<A>r<181>R<ARG> 2
c<A>r<183>R<ASP> 2
c<A>r<186>R<LYS> 1
c<A>r<188>R<HIS> 1
c<A>r<190>R<THR> 1.5
c<A>r<192>R<HIS> 1
c<A>r<196>R<ASP> 1.2
c<A>r<197>R<HIS> 1.28571
c<A>r<202>R<ARG> 1.6
c<A>r<204>R<TRP> 1
c<A>r<206>R<LEU> 1
c<A>r<207>R<GLY> 1
c<A>r<209>R<TYR> 2.5
c<A>r<212>R<GLU> 1
c<A>r<216>R<THR> 1
c<A>r<218>R<GLN> 1.5
c<A>r<220>R<ASP> 1.14286
c<A>r<221>R<GLY> 1
c<A>r<223>R<ASP> 1
c<A>r<229>R<GLU> 1
c<A>r<231>R<VAL> 1.33333
c<A>r<232>R<GLU> 1.375
c<A>r<233>R<THR> 1
c<A>r<234>R<ARG> 1.77778
c<A>r<235>R<PRO> 1.4
c<A>r<236>R<ALA> 1.75
c<A>r<237>R<GLY> 1.5
c<A>r<238>R<ASP> 1.42857
c<A>r<239>R<ARG> 1.33333
c<A>r<240>R<THR> 1.66667
c<A>r<242>R<GLN> 1.5
c<A>r<244>R<TRP> 1.6
c<A>r<250>R<PRO> 1.5
c<A>r<251>R<SER> 1.4
c<A>r<252>R<GLY> 1.25
c<A>r<253>R<GLU> 1.71429
c<A>r<254>R<GLU> 1.5
c<A>r<255>R<GLN> 1.25
c<A>r<256>R<ARG> 1
c<A>r<258>R<THR> 1
c<A>r<260>R<HIS> 1.71429
c<A>r<261>R<VAL> 1.66667
c<A>r<262>R<GLN> 1.14286
c<A>r<263>R<HIS> 1.25
c<A>r<264>R<GLU> 1.14286
c<A>r<266>R<LEU> 1
c<A>r<267>R<PRO> 1.25
c<A>r<268>R<LYS> 1
c<A>r<269>R<PRO> 1
c<A>r<270>R<LEU> 1.5
c<A>r<271>R<THR> 1
c<A>r<272>R<LEU> 1
c<A>r<273>R<ARG> 1.6
c<A>r<274>R<TRP> 1
c<A>r<275>R<GLU> 1.5
c<A>r<276>R<PRO> 1
c<A>r<1002>R<IOD> 1
c<A>r<1006>R<IOD> 2
