c<A>r<3>R<GLU> 1
c<A>r<21>R<VAL> 1.33333
c<A>r<24>l<A>R<VAL> 1
c<A>r<25>l<A>R<GLN> 1.66667
c<A>r<27>R<ILE> 1
c<A>r<29>R<VAL> 1
c<A>r<33>R<ASP> 1
c<A>r<34>R<PRO> 1
c<A>r<36>R<ILE> 1.2
c<A>r<37>R<GLU> 1.5
c<A>r<38>R<ASP> 1.71429
c<A>r<39>R<SER> 1.6
c<A>r<40>R<TYR> 1.63636
c<A>r<41>R<ARG> 1.5
c<A>r<42>R<LYS> 1
c<A>r<52>l<A>R<MET> 1
c<A>r<54>R<GLU> 1
c<A>r<56>R<LEU> 1
c<A>r<63>R<GLN> 1
c<A>r<67>R<MET> 1
