c<A>r<7>R<SER> 1
c<A>r<11>R<ARG> 1.33333
c<A>r<14>R<ILE> 1.33333
c<A>r<15>R<GLU> 1
c<A>r<18>R<VAL> 1
c<A>r<33>R<MET> 1.25
c<A>r<35>R<TRP> 1
c<A>r<41>R<ALA> 1
c<A>r<86>R<ARG> 1
c<A>r<87>R<ASP> 1.16667
c<A>r<88>R<THR> 1.5
c<A>r<89>R<LYS> 1.6
c<A>r<90>R<ILE> 1.33333
c<A>r<91>R<GLU> 1
c<A>r<94>R<GLN> 1
c<A>r<100>R<LEU> 1
c<A>r<101>R<LEU> 1
c<A>r<104>R<LYS> 1.625
c<A>r<105>R<LYS> 1.5
c<A>r<107>R<PHE> 1.625
c<A>r<108>R<ARG> 1.6
c<A>r<109>R<GLU> 1
c<A>r<110>R<GLY> 2
c<A>r<111>R<ARG> 1.14286
c<A>r<112>R<PHE> 1.2
c<A>r<113>R<ASN> 1
