c<D>r<30>R<SER> 1
c<D>r<31>R<ASP> 1.33333
c<D>r<32>R<HIS> 1
c<D>r<33>R<TYR> 1
c<D>r<35>R<TYR> 1.33333
c<D>r<37>R<VAL> 1.5
c<D>r<39>R<GLN> 1.33333
c<D>r<43>R<LYS> 1
c<D>r<44>R<GLY> 1
c<D>r<45>R<LEU> 1.71429
c<D>r<46>R<GLU> 1.66667
c<D>r<47>R<TRP> 1.61538
c<D>r<50>R<THR> 1.66667
c<D>r<52>R<SER> 2
c<D>r<53>R<ASP> 1.66667
c<D>r<54>R<GLY> 1.25
c<D>r<55>R<GLY> 2
c<D>r<56>R<SER> 1.5
c<D>r<57>R<TYR> 1.2
c<D>r<58>R<THR> 1
c<D>r<59>R<TYR> 1.33333
c<D>r<60>R<TYR> 1
c<D>r<61>R<SER> 1.5
c<D>r<62>R<ASP> 1
c<D>r<93>R<ILE> 1
c<D>r<95>R<TYR> 2.14286
c<D>r<99>R<TYR> 1.2
c<D>r<100>R<ARG> 1
c<D>r<101>R<TYR> 1.25
c<D>r<102>R<ASP> 1.5
c<D>r<103>R<ASP> 1.57143
c<D>r<104>R<ALA> 2
c<D>r<105>R<MET> 1.5
c<D>r<106>R<ASP> 1.4
c<D>r<108>R<TRP> 1.66667
c<D>r<109>R<GLY> 1
c<D>r<110>R<GLN> 1
c<D>r<126>R<VAL> 1
c<D>r<127>R<PHE> 1.28571
c<D>r<128>R<PRO> 1.25
c<D>r<129>R<LEU> 1.71429
c<D>r<130>R<ALA> 1.25
c<D>r<131>R<PRO> 2
c<D>r<132>R<SER> 1
c<D>r<134>R<LYS> 1
c<D>r<136>R<THR> 1
c<D>r<138>R<GLY> 1
c<D>r<140>R<THR> 1.33333
c<D>r<141>R<ALA> 1.66667
c<D>r<142>R<ALA> 1.25
c<D>r<143>R<LEU> 1.75
c<D>r<144>R<GLY> 2
c<D>r<146>R<LEU> 1
c<D>r<148>R<LYS> 1.25
c<D>r<149>R<ASP> 1
c<D>r<167>R<GLY> 2
c<D>r<169>R<HIS> 1.375
c<D>r<170>R<THR> 1.33333
c<D>r<171>R<PHE> 1.66667
c<D>r<172>R<PRO> 1.2
c<D>r<173>R<ALA> 1.5
c<D>r<174>R<VAL> 1.4
c<D>r<175>R<LEU> 1.66667
c<D>r<176>R<GLN> 1.5
c<D>r<177>R<SER> 1
c<D>r<182>R<SER> 1
c<D>r<184>R<SER> 1
c<D>r<186>R<VAL> 1
c<D>r<187>R<VAL> 1
c<D>r<188>R<THR> 1.2
c<D>r<214>R<LYS> 1
