c<A>r<112>a<795>R<ASP>A<OD1> 1
c<A>r<112>a<796>R<ASP>A<OD2> 1
c<A>r<113>a<802>R<TRP>A<CG> 2
c<A>r<113>a<804>R<TRP>A<CD2> 2
c<A>r<113>a<805>R<TRP>A<NE1> 1
c<A>r<113>a<806>R<TRP>A<CE2> 1
c<A>r<113>a<807>R<TRP>A<CE3> 2
c<A>r<113>a<808>R<TRP>A<CZ2> 1
c<A>r<113>a<809>R<TRP>A<CZ3> 2
c<A>r<113>a<810>R<TRP>A<CH2> 2
c<A>r<151>a<1059>R<TYR>A<O> 1
c<A>r<151>a<1060>R<TYR>A<CB> 2
c<A>r<151>a<1061>R<TYR>A<CG> 3
c<A>r<151>a<1063>R<TYR>A<CD2> 2
c<A>r<151>a<1065>R<TYR>A<CE2> 2
c<A>r<151>a<1066>R<TYR>A<CZ> 2
c<A>r<151>a<1067>R<TYR>A<OH> 1
c<A>r<179>a<1259>R<SER>A<OG> 1
c<A>r<181>a<1274>R<LYS>A<CD> 2
c<A>r<181>a<1275>R<LYS>A<CE> 2
c<A>r<181>a<1276>R<LYS>A<NZ> 1
c<A>r<196>a<1376>R<MET>A<CA> 2
c<A>r<196>a<1378>R<MET>A<O> 1
c<A>r<196>a<1379>R<MET>A<CB> 1
c<A>r<196>a<1380>R<MET>A<CG> 2
c<A>r<196>a<1381>R<MET>A<SD> 1
c<A>r<196>a<1382>R<MET>A<CE> 1
c<A>r<198>a<1396>R<ARG>A<CG> 2
c<A>r<198>a<1397>R<ARG>A<CD> 2
c<A>r<198>a<1398>R<ARG>A<NE> 1
c<A>r<198>a<1399>R<ARG>A<CZ> 2
c<A>r<198>a<1400>R<ARG>A<NH1> 1
c<A>r<198>a<1401>R<ARG>A<NH2> 1
c<A>r<224>a<1615>R<HIS>A<O> 1
c<A>r<225>a<1623>R<THR>A<CA> 2
c<A>r<225>a<1624>R<THR>A<C> 2
c<A>r<225>a<1625>R<THR>A<O> 1
c<A>r<225>a<1626>R<THR>A<CB> 1
c<A>r<225>a<1628>R<THR>A<CG2> 1
c<A>r<226>a<1629>R<GLY>A<N> 2
c<A>r<226>a<1630>R<GLY>A<CA> 1
c<A>r<226>a<1631>R<GLY>A<C> 2
c<A>r<226>a<1632>R<GLY>A<O> 2
c<A>r<227>a<1633>R<SER>A<N> 1
c<A>r<227>a<1634>R<SER>A<CA> 2
c<A>r<227>a<1637>R<SER>A<CB> 1
c<A>r<227>a<1638>R<SER>A<OG> 2
c<A>r<229>a<1652>R<ASP>A<OD1> 1
c<A>r<245>a<1775>R<ALA>A<O> 1
c<A>r<245>a<1776>R<ALA>A<CB> 1
c<A>r<265>a<1912>R<SER>A<O> 1
c<A>r<265>a<1913>R<SER>A<CB> 1
c<A>r<265>a<1914>R<SER>A<OG> 1
c<A>r<266>a<1916>R<LEU>A<CA> 1
c<A>r<266>a<1917>R<LEU>A<C> 2
c<A>r<266>a<1918>R<LEU>A<O> 1
c<A>r<266>a<1919>R<LEU>A<CB> 1
c<A>r<266>a<1922>R<LEU>A<CD2> 1
c<A>r<267>a<1923>R<LEU>A<N> 2
c<A>r<267>a<1926>R<LEU>A<O> 1
c<A>r<269>a<1938>R<GLY>A<N> 1
c<A>r<269>a<1941>R<GLY>A<O> 1
c<A>r<270>a<1944>R<ALA>A<C> 1
c<A>r<270>a<1945>R<ALA>A<O> 1
c<A>r<297>a<2056>R<THR>A<C> 2
c<A>r<297>a<2057>R<THR>A<O> 1
c<A>r<297>a<2060>R<THR>A<CG2> 1
c<A>r<298>a<2062>R<ALA>A<CA> 1
c<A>r<298>a<2065>R<ALA>A<CB> 1
c<A>r<299>a<2070>R<PRO>A<CB> 1
c<A>r<299>a<2071>R<PRO>A<CG> 1
c<A>r<299>a<2072>R<PRO>A<CD> 1
c<A>r<301>a<2084>R<THR>A<CG2> 1
c<A>r<318>a<2210>R<GLN>A<O> 1
c<A>r<318>a<2211>R<GLN>A<CB> 1
c<A>r<318>a<2212>R<GLN>A<CG> 2
c<A>r<318>a<2213>R<GLN>A<CD> 2
c<A>r<318>a<2214>R<GLN>A<OE1> 1
c<A>r<318>a<2215>R<GLN>A<NE2> 1
c<A>r<319>a<2217>R<ASP>A<CA> 1
c<A>r<320>a<2231>R<HIS>A<CD2> 1
c<A>r<320>a<2232>R<HIS>A<CE1> 1
c<A>r<320>a<2233>R<HIS>A<NE2> 1
c<A>r<340>a<2381>R<HIS>A<CD2> 1
c<A>r<340>a<2383>R<HIS>A<NE2> 1
c<A>r<341>a<2388>R<PRO>A<CB> 2
c<A>r<341>a<2389>R<PRO>A<CG> 2
c<A>r<341>a<2390>R<PRO>A<CD> 1
c<A>r<343>a<2405>R<LEU>A<CD1> 1
c<A>r<343>a<2406>R<LEU>A<CD2> 1
c<A>r<363>a<2514>R<SER>A<O> 1
c<A>r<363>a<2515>R<SER>A<CB> 1
c<A>r<363>a<2516>R<SER>A<OG> 1
c<A>r<365>a<2527>R<ARG>A<CG> 2
c<A>r<365>a<2528>R<ARG>A<CD> 1
c<A>r<365>a<2529>R<ARG>A<NE> 1
c<A>r<365>a<2530>R<ARG>A<CZ> 1
c<A>r<365>a<2531>R<ARG>A<NH1> 1
c<A>r<365>a<2532>R<ARG>A<NH2> 1
c<A>r<388>a<2668>R<ALA>A<O> 1
c<A>r<389>a<2671>R<ASN>A<CA> 2
c<A>r<389>a<2672>R<ASN>A<C> 2
c<A>r<389>a<2674>R<ASN>A<CB> 2
c<A>r<389>a<2675>R<ASN>A<CG> 2
c<A>r<389>a<2676>R<ASN>A<OD1> 2
c<A>r<389>a<2677>R<ASN>A<ND2> 1
c<A>r<390>a<2678>R<LYS>A<N> 2
c<A>r<390>a<2683>R<LYS>A<CG> 2
c<A>r<390>a<2684>R<LYS>A<CD> 2
c<A>r<390>a<2685>R<LYS>A<CE> 2
c<A>r<390>a<2686>R<LYS>A<NZ> 2
c<A>r<409>a<2820>R<HIS>A<CB> 2
c<A>r<409>a<2822>R<HIS>A<ND1> 2
c<A>r<409>a<2824>R<HIS>A<CE1> 1
c<A>r<409>a<2825>R<HIS>A<NE2> 1
c<A>r<428>a<2971>R<GLU>A<N> 1
c<A>r<428>a<2975>R<GLU>A<CB> 1
c<A>r<428>a<2976>R<GLU>A<CG> 1
c<A>r<428>a<2977>R<GLU>A<CD> 1
c<A>r<428>a<2978>R<GLU>A<OE1> 1
c<A>r<428>a<2979>R<GLU>A<OE2> 1
c<A>r<456>a<3189>R<VAL>A<C> 2
c<A>r<456>a<3190>R<VAL>A<O> 2
c<A>r<456>a<3192>R<VAL>A<CG1> 1
c<A>r<456>a<3193>R<VAL>A<CG2> 1
c<A>r<457>a<3194>R<ALA>A<N> 1
c<A>r<457>a<3195>R<ALA>A<CA> 1
c<A>r<457>a<3198>R<ALA>A<CB> 1
c<A>r<458>a<3199>R<GLY>A<N> 1
c<A>r<459>a<3203>R<ASP>A<N> 1
c<A>r<459>a<3204>R<ASP>A<CA> 1
c<A>r<459>a<3207>R<ASP>A<CB> 2
c<A>r<459>a<3208>R<ASP>A<CG> 2
c<A>r<459>a<3209>R<ASP>A<OD1> 1
c<A>r<459>a<3210>R<ASP>A<OD2> 1
c<A>r<462>a<3227>R<LYS>A<CD> 2
c<A>r<462>a<3228>R<LYS>A<CE> 2
c<A>r<462>a<3229>R<LYS>A<NZ> 1
c<A>r<464>a<3243>R<PHE>A<CD1> 1
c<A>r<464>a<3245>R<PHE>A<CE1> 2
c<A>r<464>a<3247>R<PHE>A<CZ> 2
c<A>r<478>a<3352>R<GLU>A<OE2> 1
