c<A>r<7>a<3354>R<SER>A<N> 1
c<A>r<7>a<3357>R<SER>A<O> 1
c<A>r<10>a<3379>R<LEU>A<CD2> 1
c<A>r<11>a<3381>R<ARG>A<CA> 2
c<A>r<11>a<3383>R<ARG>A<O> 2
c<A>r<11>a<3385>R<ARG>A<CG> 1
c<A>r<11>a<3386>R<ARG>A<CD> 1
c<A>r<11>a<3387>R<ARG>A<NE> 2
c<A>r<11>a<3388>R<ARG>A<CZ> 2
c<A>r<11>a<3389>R<ARG>A<NH1> 2
c<A>r<11>a<3390>R<ARG>A<NH2> 1
c<A>r<14>a<3412>R<ILE>A<CB> 3
c<A>r<14>a<3414>R<ILE>A<CG2> 2
c<A>r<14>a<3415>R<ILE>A<CD1> 2
c<A>r<15>a<3416>R<GLU>A<N> 2
c<A>r<15>a<3417>R<GLU>A<CA> 1
c<A>r<15>a<3421>R<GLU>A<CG> 1
c<A>r<15>a<3422>R<GLU>A<CD> 2
c<A>r<15>a<3423>R<GLU>A<OE1> 1
c<A>r<15>a<3424>R<GLU>A<OE2> 1
c<A>r<18>a<3448>R<VAL>A<CG2> 1
c<A>r<101>a<4034>R<LEU>A<CA> 2
c<A>r<101>a<4036>R<LEU>A<O> 1
c<A>r<101>a<4037>R<LEU>A<CB> 1
c<A>r<101>a<4039>R<LEU>A<CD1> 1
c<A>r<101>a<4040>R<LEU>A<CD2> 1
c<A>r<104>a<4060>R<LYS>A<CA> 2
c<A>r<104>a<4062>R<LYS>A<O> 2
c<A>r<104>a<4063>R<LYS>A<CB> 1
c<A>r<104>a<4064>R<LYS>A<CG> 2
c<A>r<104>a<4065>R<LYS>A<CD> 2
c<A>r<104>a<4066>R<LYS>A<CE> 2
c<A>r<104>a<4067>R<LYS>A<NZ> 1
c<A>r<105>a<4071>R<LYS>A<O> 2
c<A>r<105>a<4073>R<LYS>A<CG> 2
c<A>r<105>a<4074>R<LYS>A<CD> 1
c<A>r<105>a<4075>R<LYS>A<CE> 1
c<A>r<105>a<4076>R<LYS>A<NZ> 1
c<A>r<106>a<4080>R<LEU>A<O> 1
c<A>r<107>a<4086>R<PHE>A<CA> 1
c<A>r<107>a<4088>R<PHE>A<O> 1
c<A>r<107>a<4089>R<PHE>A<CB> 2
c<A>r<107>a<4090>R<PHE>A<CG> 2
c<A>r<107>a<4091>R<PHE>A<CD1> 1
c<A>r<107>a<4092>R<PHE>A<CD2> 1
c<A>r<107>a<4093>R<PHE>A<CE1> 1
c<A>r<107>a<4094>R<PHE>A<CE2> 1
c<A>r<107>a<4095>R<PHE>A<CZ> 1
c<A>r<108>a<4096>R<ARG>A<N> 2
c<A>r<108>a<4097>R<ARG>A<CA> 1
c<A>r<108>a<4098>R<ARG>A<C> 2
c<A>r<108>a<4099>R<ARG>A<O> 1
c<A>r<108>a<4100>R<ARG>A<CB> 2
c<A>r<108>a<4101>R<ARG>A<CG> 2
c<A>r<108>a<4102>R<ARG>A<CD> 2
c<A>r<108>a<4103>R<ARG>A<NE> 1
c<A>r<108>a<4104>R<ARG>A<CZ> 2
c<A>r<108>a<4105>R<ARG>A<NH1> 2
c<A>r<108>a<4106>R<ARG>A<NH2> 1
c<A>r<109>a<4107>R<GLU>A<N> 2
c<A>r<109>a<4108>R<GLU>A<CA> 1
c<A>r<109>a<4109>R<GLU>A<C> 2
c<A>r<109>a<4110>R<GLU>A<O> 1
c<A>r<109>a<4112>R<GLU>A<CG> 1
c<A>r<109>a<4115>R<GLU>A<OE2> 1
c<A>r<110>a<4116>R<GLY>A<N> 2
c<A>r<110>a<4117>R<GLY>A<CA> 1
c<A>r<110>a<4118>R<GLY>A<C> 1
c<A>r<110>a<4119>R<GLY>A<O> 1
