"Metric";"Testing_Set"
"Accuracy";"0.764150943396226"
"Kappa";"0.177075426126561"
"AccuracyLower";"0.735895938260051"
"AccuracyUpper";"0.790764718985689"
"AccuracyNull";"0.761006289308176"
"AccuracyPValue";"0.427243181915788"
"McnemarPValue";"1.02592569419184e-20"
"Sensitivity";"0.197368421052632"
"Specificity";"0.942148760330578"
"Pos Pred Value";"0.517241379310345"
"Neg Pred Value";"0.788927335640139"
"Precision";"0.517241379310345"
"Recall";"0.197368421052632"
"F1";"0.285714285714286"
"Prevalence";"0.238993710691824"
"Detection Rate";"0.0471698113207547"
"Detection Prevalence";"0.0911949685534591"
"Balanced Accuracy";"0.569758590691605"
"TP";"45"
"TN";"684"
"FP";"42"
"FN";"183"
