"Metric";"Testing_Set"
"Accuracy";"0.449685534591195"
"Kappa";"0.116202166217871"
"AccuracyLower";"0.417791517149622"
"AccuracyUpper";"0.48189103911527"
"AccuracyNull";"0.758909853249476"
"AccuracyPValue";"1"
"McnemarPValue";"2.75756107642818e-94"
"Sensitivity";"0.88695652173913"
"Specificity";"0.310773480662983"
"Pos Pred Value";"0.290184921763869"
"Neg Pred Value";"0.896414342629482"
"Precision";"0.290184921763869"
"Recall";"0.88695652173913"
"F1";"0.437299035369775"
"Prevalence";"0.241090146750524"
"Detection Rate";"0.213836477987421"
"Detection Prevalence";"0.736897274633124"
"Balanced Accuracy";"0.598865001201057"
"TP";"204"
"TN";"225"
"FP";"499"
"FN";"26"
