"Metric";"Testing_Set"
"Accuracy";"0.638364779874214"
"Kappa";"0.187850702515435"
"AccuracyLower";"0.606961540741937"
"AccuracyUpper";"0.668910790087376"
"AccuracyNull";"0.761006289308176"
"AccuracyPValue";"1"
"McnemarPValue";"1.61194843910399e-15"
"Sensitivity";"0.570175438596491"
"Specificity";"0.659779614325069"
"Pos Pred Value";"0.344827586206896"
"Neg Pred Value";"0.830155979202773"
"Precision";"0.344827586206897"
"Recall";"0.570175438596491"
"F1";"0.429752066115702"
"Prevalence";"0.238993710691824"
"Detection Rate";"0.136268343815514"
"Detection Prevalence";"0.39517819706499"
"Balanced Accuracy";"0.61497752646078"
"TP";"130"
"TN";"479"
"FP";"247"
"FN";"98"
