"Metric";"Testing_Set"
"Accuracy";"0.604821802935011"
"Kappa";"0.221570027920265"
"AccuracyLower";"0.572990032666497"
"AccuracyUpper";"0.636004401474272"
"AccuracyNull";"0.761006289308176"
"AccuracyPValue";"1"
"McnemarPValue";"1.70364332266444e-41"
"Sensitivity";"0.75"
"Specificity";"0.559228650137741"
"Pos Pred Value";"0.34826883910387"
"Neg Pred Value";"0.876889848812095"
"Precision";"0.34826883910387"
"Recall";"0.75"
"F1";"0.475660639777469"
"Prevalence";"0.238993710691824"
"Detection Rate";"0.179245283018868"
"Detection Prevalence";"0.514675052410902"
"Balanced Accuracy";"0.654614325068871"
"TP";"171"
"TN";"406"
"FP";"320"
"FN";"57"
