"Metric";"Testing_Set"
"Accuracy";"0.764150943396226"
"Kappa";"0.108085198327946"
"AccuracyLower";"0.735895938260051"
"AccuracyUpper";"0.790764718985689"
"AccuracyNull";"0.758909853249476"
"AccuracyPValue";"0.368891298208408"
"McnemarPValue";"2.6132359662493e-35"
"Sensitivity";"0.104347826086957"
"Specificity";"0.973756906077348"
"Pos Pred Value";"0.558139534883721"
"Neg Pred Value";"0.773874862788145"
"Precision";"0.558139534883721"
"Recall";"0.104347826086957"
"F1";"0.175824175824176"
"Prevalence";"0.241090146750524"
"Detection Rate";"0.0251572327044025"
"Detection Prevalence";"0.0450733752620545"
"Balanced Accuracy";"0.539052366082152"
"TP";"24"
"TN";"705"
"FP";"19"
"FN";"206"
