"Metric";"Testing_Set"
"Accuracy";"0.758909853249476"
"Kappa";"0.0396029203214456"
"AccuracyLower";"0.730467754385361"
"AccuracyUpper";"0.7857435838212"
"AccuracyNull";"0.761006289308176"
"AccuracyPValue";"0.577749741663774"
"McnemarPValue";"1.2363104325883e-41"
"Sensitivity";"0.043859649122807"
"Specificity";"0.983471074380165"
"Pos Pred Value";"0.454545454545455"
"Neg Pred Value";"0.766094420600858"
"Precision";"0.454545454545455"
"Recall";"0.043859649122807"
"F1";"0.08"
"Prevalence";"0.238993710691824"
"Detection Rate";"0.010482180293501"
"Detection Prevalence";"0.0230607966457023"
"Balanced Accuracy";"0.513665361751486"
"TP";"10"
"TN";"714"
"FP";"12"
"FN";"218"
