"Metric";"Testing_Set"
"Accuracy";"0.749475890985325"
"Kappa";"0.226316753873404"
"AccuracyLower";"0.72071089844056"
"AccuracyUpper";"0.776691605683654"
"AccuracyNull";"0.761006289308176"
"AccuracyPValue";"0.809113421781227"
"McnemarPValue";"3.20394558514798e-06"
"Sensitivity";"0.315789473684211"
"Specificity";"0.885674931129477"
"Pos Pred Value";"0.464516129032258"
"Neg Pred Value";"0.804755944931164"
"Precision";"0.464516129032258"
"Recall";"0.315789473684211"
"F1";"0.375979112271541"
"Prevalence";"0.238993710691824"
"Detection Rate";"0.0754716981132075"
"Detection Prevalence";"0.162473794549266"
"Balanced Accuracy";"0.600732202406844"
"TP";"72"
"TN";"643"
"FP";"83"
"FN";"156"
