"Metric";"Testing_Set"
"Accuracy";"0.762054507337526"
"Kappa";"0.231393343129112"
"AccuracyLower";"0.73372399225732"
"AccuracyUpper";"0.788756940352339"
"AccuracyNull";"0.761006289308176"
"AccuracyPValue";"0.487493726423534"
"McnemarPValue";"7.79582037596995e-11"
"Sensitivity";"0.285087719298246"
"Specificity";"0.911845730027548"
"Pos Pred Value";"0.503875968992248"
"Neg Pred Value";"0.802424242424242"
"Precision";"0.503875968992248"
"Recall";"0.285087719298246"
"F1";"0.364145658263305"
"Prevalence";"0.238993710691824"
"Detection Rate";"0.0681341719077568"
"Detection Prevalence";"0.135220125786164"
"Balanced Accuracy";"0.598466724662897"
"TP";"65"
"TN";"662"
"FP";"64"
"FN";"163"
