"Metric";"Testing_Set"
"Accuracy";"0.645702306079665"
"Kappa";"0.231708363116512"
"AccuracyLower";"0.614413874385157"
"AccuracyUpper";"0.676087960165183"
"AccuracyNull";"0.761006289308176"
"AccuracyPValue";"1"
"McnemarPValue";"6.1181956144235e-22"
"Sensitivity";"0.649122807017544"
"Specificity";"0.644628099173554"
"Pos Pred Value";"0.364532019704433"
"Neg Pred Value";"0.854014598540146"
"Precision";"0.364532019704433"
"Recall";"0.649122807017544"
"F1";"0.466876971608833"
"Prevalence";"0.238993710691824"
"Detection Rate";"0.155136268343816"
"Detection Prevalence";"0.425576519916143"
"Balanced Accuracy";"0.646875453095549"
"TP";"148"
"TN";"468"
"FP";"258"
"FN";"80"
