"Metric";"Testing_Set"
"Accuracy";"0.653039832285115"
"Kappa";"0.239498287646489"
"AccuracyLower";"0.621873984809896"
"AccuracyUpper";"0.683257338191885"
"AccuracyNull";"0.761006289308176"
"AccuracyPValue";"0.999999999999975"
"McnemarPValue";"2.60429623093792e-20"
"Sensitivity";"0.644736842105263"
"Specificity";"0.65564738292011"
"Pos Pred Value";"0.370277078085642"
"Neg Pred Value";"0.854578096947935"
"Precision";"0.370277078085642"
"Recall";"0.644736842105263"
"F1";"0.4704"
"Prevalence";"0.238993710691824"
"Detection Rate";"0.154088050314465"
"Detection Prevalence";"0.416142557651992"
"Balanced Accuracy";"0.650192112512687"
"TP";"147"
"TN";"476"
"FP";"250"
"FN";"81"
