"Metric";"Testing_Set"
"Accuracy";"0.764150943396226"
"Kappa";"0.082480572439794"
"AccuracyLower";"0.735895938260051"
"AccuracyUpper";"0.790764718985689"
"AccuracyNull";"0.761006289308176"
"AccuracyPValue";"0.427243181915788"
"McnemarPValue";"2.91884261031284e-38"
"Sensitivity";"0.0789473684210526"
"Specificity";"0.979338842975207"
"Pos Pred Value";"0.545454545454545"
"Neg Pred Value";"0.771986970684039"
"Precision";"0.545454545454545"
"Recall";"0.0789473684210526"
"F1";"0.137931034482759"
"Prevalence";"0.238993710691824"
"Detection Rate";"0.0188679245283019"
"Detection Prevalence";"0.0345911949685535"
"Balanced Accuracy";"0.52914310569813"
"TP";"18"
"TN";"711"
"FP";"15"
"FN";"210"
