"Metric";"Testing_Set"
"Accuracy";"0.513626834381551"
"Kappa";"0.165203222594369"
"AccuracyLower";"0.481386023870974"
"AccuracyUpper";"0.54578329219358"
"AccuracyNull";"0.761006289308176"
"AccuracyPValue";"1"
"McnemarPValue";"1.34441803657189e-76"
"Sensitivity";"0.859649122807018"
"Specificity";"0.40495867768595"
"Pos Pred Value";"0.312101910828025"
"Neg Pred Value";"0.901840490797546"
"Precision";"0.312101910828025"
"Recall";"0.859649122807018"
"F1";"0.457943925233645"
"Prevalence";"0.238993710691824"
"Detection Rate";"0.205450733752621"
"Detection Prevalence";"0.658280922431866"
"Balanced Accuracy";"0.632303900246484"
"TP";"196"
"TN";"294"
"FP";"432"
"FN";"32"
