"Metric";"Testing_Set"
"Accuracy";"0.768343815513627"
"Kappa";"0.105581999134573"
"AccuracyLower";"0.740242557149003"
"AccuracyUpper";"0.794777537029704"
"AccuracyNull";"0.758909853249476"
"AccuracyPValue";"0.261247667955454"
"McnemarPValue";"1.07928036010205e-39"
"Sensitivity";"0.091304347826087"
"Specificity";"0.983425414364641"
"Pos Pred Value";"0.636363636363637"
"Neg Pred Value";"0.773072747014115"
"Precision";"0.636363636363636"
"Recall";"0.091304347826087"
"F1";"0.159695817490494"
"Prevalence";"0.241090146750524"
"Detection Rate";"0.0220125786163522"
"Detection Prevalence";"0.0345911949685535"
"Balanced Accuracy";"0.537364881095364"
"TP";"21"
"TN";"712"
"FP";"12"
"FN";"209"
