"Metric";"Testing_Set"
"Accuracy";"0.753668763102725"
"Kappa";"0.234088346827918"
"AccuracyLower";"0.725045108343067"
"AccuracyUpper";"0.780716886734807"
"AccuracyNull";"0.761006289308176"
"AccuracyPValue";"0.716950599530846"
"McnemarPValue";"7.13350351767286e-07"
"Sensitivity";"0.315789473684211"
"Specificity";"0.891184573002755"
"Pos Pred Value";"0.47682119205298"
"Neg Pred Value";"0.805728518057285"
"Precision";"0.47682119205298"
"Recall";"0.315789473684211"
"F1";"0.379947229551451"
"Prevalence";"0.238993710691824"
"Detection Rate";"0.0754716981132075"
"Detection Prevalence";"0.158280922431866"
"Balanced Accuracy";"0.603487023343483"
"TP";"72"
"TN";"647"
"FP";"79"
"FN";"156"
