"Metric";"Testing_Set"
"Accuracy";"0.491614255765199"
"Kappa";"0.139543187422591"
"AccuracyLower";"0.459434272569995"
"AccuracyUpper";"0.523846148061408"
"AccuracyNull";"0.761006289308176"
"AccuracyPValue";"1"
"McnemarPValue";"7.72855791948134e-79"
"Sensitivity";"0.846491228070175"
"Specificity";"0.380165289256198"
"Pos Pred Value";"0.300155520995334"
"Neg Pred Value";"0.887459807073955"
"Precision";"0.300155520995334"
"Recall";"0.846491228070175"
"F1";"0.44316877152698"
"Prevalence";"0.238993710691824"
"Detection Rate";"0.20230607966457"
"Detection Prevalence";"0.674004192872117"
"Balanced Accuracy";"0.613328258663187"
"TP";"193"
"TN";"276"
"FP";"450"
"FN";"35"
