"Metric";"Testing_Set"
"Accuracy";"0.719457013574661"
"Kappa";"0.301559792027729"
"AccuracyLower";"0.655277962468374"
"AccuracyUpper";"0.777642948582581"
"AccuracyNull";"0.755656108597285"
"AccuracyPValue";"0.906828681560656"
"McnemarPValue";"0.0987382377746242"
"Sensitivity";"0.555555555555556"
"Specificity";"0.772455089820359"
"Pos Pred Value";"0.441176470588235"
"Neg Pred Value";"0.843137254901961"
"Precision";"0.441176470588235"
"Recall";"0.555555555555556"
"F1";"0.491803278688525"
"Prevalence";"0.244343891402715"
"Detection Rate";"0.135746606334842"
"Detection Prevalence";"0.307692307692308"
"Balanced Accuracy";"0.664005322687957"
"TP";"30"
"TN";"129"
"FP";"38"
"FN";"24"
