"Metric";"Testing_Set"
"Accuracy";"0.767295597484277"
"Kappa";"0.0803341902313622"
"AccuracyLower";"0.739155558931535"
"AccuracyUpper";"0.793774677586431"
"AccuracyNull";"0.758909853249476"
"AccuracyPValue";"0.286646636852239"
"McnemarPValue";"6.99153651051599e-44"
"Sensitivity";"0.0652173913043478"
"Specificity";"0.990331491712707"
"Pos Pred Value";"0.681818181818182"
"Neg Pred Value";"0.76931330472103"
"Precision";"0.681818181818182"
"Recall";"0.0652173913043478"
"F1";"0.119047619047619"
"Prevalence";"0.241090146750524"
"Detection Rate";"0.0157232704402516"
"Detection Prevalence";"0.0230607966457023"
"Balanced Accuracy";"0.527774441508527"
"TP";"15"
"TN";"717"
"FP";"7"
"FN";"215"
