"Metric";"Testing_Set"
"Accuracy";"0.612159329140461"
"Kappa";"0.213123963404847"
"AccuracyLower";"0.580408035385245"
"AccuracyUpper";"0.643215959214602"
"AccuracyNull";"0.761006289308176"
"AccuracyPValue";"1"
"McnemarPValue";"2.52009912001437e-34"
"Sensitivity";"0.706140350877193"
"Specificity";"0.582644628099174"
"Pos Pred Value";"0.34698275862069"
"Neg Pred Value";"0.863265306122449"
"Precision";"0.34698275862069"
"Recall";"0.706140350877193"
"F1";"0.465317919075145"
"Prevalence";"0.238993710691824"
"Detection Rate";"0.168763102725367"
"Detection Prevalence";"0.486373165618449"
"Balanced Accuracy";"0.644392489488183"
"TP";"161"
"TN";"423"
"FP";"303"
"FN";"67"
