"Metric";"Testing_Set"
"Accuracy";"0.761006289308176"
"Kappa";"0.0479541992751723"
"AccuracyLower";"0.732638356491415"
"AccuracyUpper";"0.787752712299018"
"AccuracyNull";"0.761006289308176"
"AccuracyPValue";"0.517768288669332"
"McnemarPValue";"5.5234574632066e-42"
"Sensitivity";"0.0482456140350877"
"Specificity";"0.984848484848485"
"Pos Pred Value";"0.5"
"Neg Pred Value";"0.767167381974249"
"Precision";"0.5"
"Recall";"0.0482456140350877"
"F1";"0.088"
"Prevalence";"0.238993710691824"
"Detection Rate";"0.0115303983228512"
"Detection Prevalence";"0.0230607966457023"
"Balanced Accuracy";"0.516547049441786"
"TP";"11"
"TN";"715"
"FP";"11"
"FN";"217"
