"Metric";"Testing_Set"
"Accuracy";"0.489517819706499"
"Kappa";"0.140769427090846"
"AccuracyLower";"0.4573468290993"
"AccuracyUpper";"0.521753696797908"
"AccuracyNull";"0.761006289308176"
"AccuracyPValue";"1"
"McnemarPValue";"9.26187943209686e-81"
"Sensitivity";"0.855263157894737"
"Specificity";"0.37465564738292"
"Pos Pred Value";"0.300462249614792"
"Neg Pred Value";"0.891803278688525"
"Precision";"0.300462249614792"
"Recall";"0.855263157894737"
"F1";"0.444697833523375"
"Prevalence";"0.238993710691824"
"Detection Rate";"0.20440251572327"
"Detection Prevalence";"0.680293501048218"
"Balanced Accuracy";"0.614959402638829"
"TP";"195"
"TN";"272"
"FP";"454"
"FN";"33"
