"Metric";"Testing_Set"
"Accuracy";"0.761006289308176"
"Kappa";"0.167692166406465"
"AccuracyLower";"0.732638356491415"
"AccuracyUpper";"0.787752712299018"
"AccuracyNull";"0.761006289308176"
"AccuracyPValue";"0.517768288669332"
"McnemarPValue";"3.40084570718802e-20"
"Sensitivity";"0.192982456140351"
"Specificity";"0.939393939393939"
"Pos Pred Value";"0.5"
"Neg Pred Value";"0.787528868360277"
"Precision";"0.5"
"Recall";"0.192982456140351"
"F1";"0.278481012658228"
"Prevalence";"0.238993710691824"
"Detection Rate";"0.0461215932914046"
"Detection Prevalence";"0.0922431865828092"
"Balanced Accuracy";"0.566188197767145"
"TP";"44"
"TN";"682"
"FP";"44"
"FN";"184"
