"Metric";"Testing_Set"
"Accuracy";"0.757861635220126"
"Kappa";"0.205051620024674"
"AccuracyLower";"0.729382786061678"
"AccuracyUpper";"0.784738685402523"
"AccuracyNull";"0.758909853249476"
"AccuracyPValue";"0.547747950894813"
"McnemarPValue";"1.71836627041934e-13"
"Sensitivity";"0.252173913043478"
"Specificity";"0.918508287292818"
"Pos Pred Value";"0.495726495726496"
"Neg Pred Value";"0.794504181600956"
"Precision";"0.495726495726496"
"Recall";"0.252173913043478"
"F1";"0.334293948126801"
"Prevalence";"0.241090146750524"
"Detection Rate";"0.0607966457023061"
"Detection Prevalence";"0.122641509433962"
"Balanced Accuracy";"0.585341100168148"
"TP";"58"
"TN";"665"
"FP";"59"
"FN";"172"
