"Metric";"Testing_Set"
"Accuracy";"0.745283018867924"
"Kappa";"0.24453004321217"
"AccuracyLower";"0.71638009836653"
"AccuracyUpper";"0.772662900873209"
"AccuracyNull";"0.758909853249476"
"AccuracyPValue";"0.84651655576934"
"McnemarPValue";"0.000850538533672357"
"Sensitivity";"0.356521739130435"
"Specificity";"0.86878453038674"
"Pos Pred Value";"0.463276836158192"
"Neg Pred Value";"0.80952380952381"
"Precision";"0.463276836158192"
"Recall";"0.356521739130435"
"F1";"0.402948402948403"
"Prevalence";"0.241090146750524"
"Detection Rate";"0.0859538784067086"
"Detection Prevalence";"0.185534591194969"
"Balanced Accuracy";"0.612653134758588"
"TP";"82"
"TN";"629"
"FP";"95"
"FN";"148"
