"Metric";"Testing_Set"
"Accuracy";"0.747379454926625"
"Kappa";"0.198162757119839"
"AccuracyLower";"0.71854507569885"
"AccuracyUpper";"0.774677677686066"
"AccuracyNull";"0.761006289308176"
"AccuracyPValue";"0.84722941141834"
"McnemarPValue";"1.43987256044572e-08"
"Sensitivity";"0.276315789473684"
"Specificity";"0.895316804407714"
"Pos Pred Value";"0.453237410071943"
"Neg Pred Value";"0.797546012269939"
"Precision";"0.453237410071942"
"Recall";"0.276315789473684"
"F1";"0.343324250681199"
"Prevalence";"0.238993710691824"
"Detection Rate";"0.0660377358490566"
"Detection Prevalence";"0.145702306079665"
"Balanced Accuracy";"0.585816296940699"
"TP";"63"
"TN";"650"
"FP";"76"
"FN";"165"
