"Metric";"Testing_Set"
"Accuracy";"0.772536687631027"
"Kappa";"0.0879219646303099"
"AccuracyLower";"0.744592868928106"
"AccuracyUpper";"0.798786645076809"
"AccuracyNull";"0.761006289308176"
"AccuracyPValue";"0.21339095227416"
"McnemarPValue";"2.86153489573484e-45"
"Sensitivity";"0.0657894736842105"
"Specificity";"0.994490358126722"
"Pos Pred Value";"0.789473684210528"
"Neg Pred Value";"0.772192513368984"
"Precision";"0.789473684210526"
"Recall";"0.0657894736842105"
"F1";"0.121457489878543"
"Prevalence";"0.238993710691824"
"Detection Rate";"0.0157232704402516"
"Detection Prevalence";"0.019916142557652"
"Balanced Accuracy";"0.530139915905466"
"TP";"15"
"TN";"722"
"FP";"4"
"FN";"213"
