"Metric";"Testing_Set"
"Accuracy";"0.70440251572327"
"Kappa";"0.248415971034899"
"AccuracyLower";"0.674323103333598"
"AccuracyUpper";"0.733214103950654"
"AccuracyNull";"0.761006289308176"
"AccuracyPValue";"0.999973603488431"
"McnemarPValue";"0.00159891799486361"
"Sensitivity";"0.5"
"Specificity";"0.768595041322314"
"Pos Pred Value";"0.404255319148936"
"Neg Pred Value";"0.830357142857143"
"Precision";"0.404255319148936"
"Recall";"0.5"
"F1";"0.447058823529412"
"Prevalence";"0.238993710691824"
"Detection Rate";"0.119496855345912"
"Detection Prevalence";"0.29559748427673"
"Balanced Accuracy";"0.634297520661157"
"TP";"114"
"TN";"558"
"FP";"168"
"FN";"114"
