"Metric";"Testing_Set"
"Accuracy";"0.70335429769392"
"Kappa";"0.200124433383699"
"AccuracyLower";"0.673248529053065"
"AccuracyUpper";"0.73219877348125"
"AccuracyNull";"0.761006289308176"
"AccuracyPValue";"0.999980665814992"
"McnemarPValue";"0.475644078350595"
"Sensitivity";"0.407894736842105"
"Specificity";"0.796143250688705"
"Pos Pred Value";"0.385892116182573"
"Neg Pred Value";"0.810659186535764"
"Precision";"0.385892116182573"
"Recall";"0.407894736842105"
"F1";"0.396588486140725"
"Prevalence";"0.238993710691824"
"Detection Rate";"0.0974842767295598"
"Detection Prevalence";"0.252620545073375"
"Balanced Accuracy";"0.602018993765405"
"TP";"93"
"TN";"578"
"FP";"148"
"FN";"135"
