"Metric";"Testing_Set"
"Accuracy";"0.522012578616352"
"Kappa";"0.176502657762028"
"AccuracyLower";"0.489764740169256"
"AccuracyUpper";"0.554124153296588"
"AccuracyNull";"0.761006289308176"
"AccuracyPValue";"1"
"McnemarPValue";"2.15996266978054e-76"
"Sensitivity";"0.868421052631579"
"Specificity";"0.413223140495868"
"Pos Pred Value";"0.317307692307692"
"Neg Pred Value";"0.909090909090909"
"Precision";"0.317307692307692"
"Recall";"0.868421052631579"
"F1";"0.464788732394366"
"Prevalence";"0.238993710691824"
"Detection Rate";"0.207547169811321"
"Detection Prevalence";"0.654088050314465"
"Balanced Accuracy";"0.640822096563723"
"TP";"198"
"TN";"300"
"FP";"426"
"FN";"30"
