"Metric";"Testing_Set"
"Accuracy";"0.750524109014675"
"Kappa";"0.206766444472393"
"AccuracyLower";"0.721794129023901"
"AccuracyUpper";"0.777698249169"
"AccuracyNull";"0.761006289308176"
"AccuracyPValue";"0.788009547417886"
"McnemarPValue";"7.97370879569957e-09"
"Sensitivity";"0.280701754385965"
"Specificity";"0.898071625344353"
"Pos Pred Value";"0.463768115942029"
"Neg Pred Value";"0.799019607843137"
"Precision";"0.463768115942029"
"Recall";"0.280701754385965"
"F1";"0.349726775956284"
"Prevalence";"0.238993710691824"
"Detection Rate";"0.0670859538784067"
"Detection Prevalence";"0.144654088050314"
"Balanced Accuracy";"0.589386689865159"
"TP";"64"
"TN";"652"
"FP";"74"
"FN";"164"
