"Metric";"Testing_Set"
"Accuracy";"0.752620545073375"
"Kappa";"0.226883138289105"
"AccuracyLower";"0.723961233069347"
"AccuracyUpper";"0.779710890610325"
"AccuracyNull";"0.761006289308176"
"AccuracyPValue";"0.741869799526042"
"McnemarPValue";"2.71161323713254e-07"
"Sensitivity";"0.307017543859649"
"Specificity";"0.892561983471074"
"Pos Pred Value";"0.472972972972973"
"Neg Pred Value";"0.803970223325062"
"Precision";"0.472972972972973"
"Recall";"0.307017543859649"
"F1";"0.372340425531915"
"Prevalence";"0.238993710691824"
"Detection Rate";"0.0733752620545073"
"Detection Prevalence";"0.155136268343816"
"Balanced Accuracy";"0.599789763665362"
"TP";"70"
"TN";"648"
"FP";"78"
"FN";"158"
