"Metric";"Testing_Set"
"Accuracy";"0.753668763102725"
"Kappa";"0.191286280111681"
"AccuracyLower";"0.725045108343067"
"AccuracyUpper";"0.780716886734807"
"AccuracyNull";"0.758909853249476"
"AccuracyPValue";"0.663364081860643"
"McnemarPValue";"2.75059873995552e-13"
"Sensitivity";"0.243478260869565"
"Specificity";"0.915745856353591"
"Pos Pred Value";"0.478632478632479"
"Neg Pred Value";"0.792114695340502"
"Precision";"0.478632478632479"
"Recall";"0.243478260869565"
"F1";"0.322766570605187"
"Prevalence";"0.241090146750524"
"Detection Rate";"0.0587002096436059"
"Detection Prevalence";"0.122641509433962"
"Balanced Accuracy";"0.579612058611578"
"TP";"56"
"TN";"663"
"FP";"61"
"FN";"174"
