"Metric";"Testing_Set"
"Accuracy";"0.50314465408805"
"Kappa";"0.150403571267529"
"AccuracyLower";"0.470925158395403"
"AccuracyUpper";"0.535344683917284"
"AccuracyNull";"0.761006289308176"
"AccuracyPValue";"1"
"McnemarPValue";"1.70222241866852e-76"
"Sensitivity";"0.846491228070175"
"Specificity";"0.395316804407713"
"Pos Pred Value";"0.305379746835443"
"Neg Pred Value";"0.891304347826087"
"Precision";"0.305379746835443"
"Recall";"0.846491228070175"
"F1";"0.448837209302326"
"Prevalence";"0.238993710691824"
"Detection Rate";"0.20230607966457"
"Detection Prevalence";"0.662473794549266"
"Balanced Accuracy";"0.620904016238944"
"TP";"193"
"TN";"287"
"FP";"439"
"FN";"35"
