"Metric";"Testing_Set"
"Accuracy";"0.707547169811321"
"Kappa";"0.257444636012119"
"AccuracyLower";"0.677547924188533"
"AccuracyUpper";"0.736258994011178"
"AccuracyNull";"0.761006289308176"
"AccuracyPValue";"0.999934722783864"
"McnemarPValue";"0.00122542407067071"
"Sensitivity";"0.508771929824561"
"Specificity";"0.769972451790634"
"Pos Pred Value";"0.409893992932862"
"Neg Pred Value";"0.833084947839046"
"Precision";"0.409893992932862"
"Recall";"0.508771929824561"
"F1";"0.454011741682975"
"Prevalence";"0.238993710691824"
"Detection Rate";"0.121593291404612"
"Detection Prevalence";"0.29664570230608"
"Balanced Accuracy";"0.639372190807598"
"TP";"116"
"TN";"559"
"FP";"167"
"FN";"112"
