"Metric";"Testing_Set"
"Accuracy";"0.769392033542977"
"Kappa";"0.134201277164497"
"AccuracyLower";"0.741329786156085"
"AccuracyUpper";"0.795780164614427"
"AccuracyNull";"0.761006289308176"
"AccuracyPValue";"0.28608111694836"
"McnemarPValue";"7.93279150914807e-33"
"Sensitivity";"0.12719298245614"
"Specificity";"0.971074380165289"
"Pos Pred Value";"0.58"
"Neg Pred Value";"0.779867256637168"
"Precision";"0.58"
"Recall";"0.12719298245614"
"F1";"0.20863309352518"
"Prevalence";"0.238993710691824"
"Detection Rate";"0.030398322851153"
"Detection Prevalence";"0.0524109014675052"
"Balanced Accuracy";"0.549133681310715"
"TP";"29"
"TN";"705"
"FP";"21"
"FN";"199"
