"Metric";"Testing_Set"
"Accuracy";"0.758909853249476"
"Kappa";"0.0225584005987063"
"AccuracyLower";"0.730467754385361"
"AccuracyUpper";"0.7857435838212"
"AccuracyNull";"0.761006289308176"
"AccuracyPValue";"0.577749741663774"
"McnemarPValue";"8.28973174553515e-45"
"Sensitivity";"0.0263157894736842"
"Specificity";"0.988980716253444"
"Pos Pred Value";"0.428571428571429"
"Neg Pred Value";"0.763829787234042"
"Precision";"0.428571428571429"
"Recall";"0.0263157894736842"
"F1";"0.0495867768595041"
"Prevalence";"0.238993710691824"
"Detection Rate";"0.00628930817610063"
"Detection Prevalence";"0.0146750524109015"
"Balanced Accuracy";"0.507648252863564"
"TP";"6"
"TN";"718"
"FP";"8"
"FN";"222"
