"Metric";"Testing_Set"
"Accuracy";"0.759958071278826"
"Kappa";"0.17193150030702"
"AccuracyLower";"0.731552944199914"
"AccuracyUpper";"0.786748259785745"
"AccuracyNull";"0.761006289308176"
"AccuracyPValue";"0.547910647586546"
"McnemarPValue";"8.37068881555079e-19"
"Sensitivity";"0.201754385964912"
"Specificity";"0.935261707988981"
"Pos Pred Value";"0.494623655913978"
"Neg Pred Value";"0.788617886178862"
"Precision";"0.494623655913978"
"Recall";"0.201754385964912"
"F1";"0.286604361370717"
"Prevalence";"0.238993710691824"
"Detection Rate";"0.0482180293501048"
"Detection Prevalence";"0.0974842767295598"
"Balanced Accuracy";"0.568508046976946"
"TP";"46"
"TN";"679"
"FP";"47"
"FN";"182"
