"Metric";"Testing_Set"
"Accuracy";"0.753668763102725"
"Kappa";"0.228840319484861"
"AccuracyLower";"0.725045108343067"
"AccuracyUpper";"0.780716886734807"
"AccuracyNull";"0.761006289308176"
"AccuracyPValue";"0.716950599530846"
"McnemarPValue";"1.80256710374486e-07"
"Sensitivity";"0.307017543859649"
"Specificity";"0.893939393939394"
"Pos Pred Value";"0.476190476190476"
"Neg Pred Value";"0.804213135068154"
"Precision";"0.476190476190476"
"Recall";"0.307017543859649"
"F1";"0.373333333333333"
"Prevalence";"0.238993710691824"
"Detection Rate";"0.0733752620545073"
"Detection Prevalence";"0.154088050314465"
"Balanced Accuracy";"0.600478468899522"
"TP";"70"
"TN";"649"
"FP";"77"
"FN";"158"
