"Metric";"Testing_Set"
"Accuracy";"0.734800838574423"
"Kappa";"0.220512721142481"
"AccuracyLower";"0.705567658078754"
"AccuracyUpper";"0.762576521876554"
"AccuracyNull";"0.761006289308176"
"AccuracyPValue";"0.97249764446762"
"McnemarPValue";"0.00827795475280167"
"Sensitivity";"0.350877192982456"
"Specificity";"0.855371900826446"
"Pos Pred Value";"0.432432432432432"
"Neg Pred Value";"0.807542262678804"
"Precision";"0.432432432432432"
"Recall";"0.350877192982456"
"F1";"0.387409200968523"
"Prevalence";"0.238993710691824"
"Detection Rate";"0.0838574423480084"
"Detection Prevalence";"0.193920335429769"
"Balanced Accuracy";"0.603124546904451"
"TP";"80"
"TN";"621"
"FP";"105"
"FN";"148"
