"Metric";"Testing_Set"
"Accuracy";"0.727463312368973"
"Kappa";"0.222698555956678"
"AccuracyLower";"0.698010994052816"
"AccuracyUpper";"0.75550396742577"
"AccuracyNull";"0.761006289308176"
"AccuracyPValue";"0.992577504703519"
"McnemarPValue";"0.153753073018141"
"Sensitivity";"0.37719298245614"
"Specificity";"0.837465564738292"
"Pos Pred Value";"0.42156862745098"
"Neg Pred Value";"0.810666666666667"
"Precision";"0.42156862745098"
"Recall";"0.37719298245614"
"F1";"0.398148148148148"
"Prevalence";"0.238993710691824"
"Detection Rate";"0.090146750524109"
"Detection Prevalence";"0.213836477987421"
"Balanced Accuracy";"0.607329273597216"
"TP";"86"
"TN";"608"
"FP";"118"
"FN";"142"
