"Metric";"Testing_Set"
"Accuracy";"0.606918238993711"
"Kappa";"0.213836477987421"
"AccuracyLower";"0.575108715560694"
"AccuracyUpper";"0.638065594039618"
"AccuracyNull";"0.761006289308176"
"AccuracyPValue";"1"
"McnemarPValue";"1.5046361613784e-37"
"Sensitivity";"0.723684210526316"
"Specificity";"0.570247933884298"
"Pos Pred Value";"0.345911949685535"
"Neg Pred Value";"0.867924528301887"
"Precision";"0.345911949685535"
"Recall";"0.723684210526316"
"F1";"0.468085106382979"
"Prevalence";"0.238993710691824"
"Detection Rate";"0.172955974842767"
"Detection Prevalence";"0.5"
"Balanced Accuracy";"0.646966072205307"
"TP";"165"
"TN";"414"
"FP";"312"
"FN";"63"
