"Metric";"Testing_Set"
"Accuracy";"0.769392033542977"
"Kappa";"0.174883238194084"
"AccuracyLower";"0.741329786156085"
"AccuracyUpper";"0.795780164614427"
"AccuracyNull";"0.761006289308176"
"AccuracyPValue";"0.28608111694836"
"McnemarPValue";"6.01196835986781e-25"
"Sensitivity";"0.179824561403509"
"Specificity";"0.954545454545455"
"Pos Pred Value";"0.554054054054054"
"Neg Pred Value";"0.7875"
"Precision";"0.554054054054054"
"Recall";"0.179824561403509"
"F1";"0.271523178807947"
"Prevalence";"0.238993710691824"
"Detection Rate";"0.0429769392033543"
"Detection Prevalence";"0.0775681341719078"
"Balanced Accuracy";"0.567185007974482"
"TP";"41"
"TN";"693"
"FP";"33"
"FN";"187"
