"Metric";"Testing_Set"
"Accuracy";"0.449685534591195"
"Kappa";"0.114658643766992"
"AccuracyLower";"0.417791517149622"
"AccuracyUpper";"0.48189103911527"
"AccuracyNull";"0.758909853249476"
"AccuracyPValue";"1"
"McnemarPValue";"1.66574699534259e-93"
"Sensitivity";"0.882608695652174"
"Specificity";"0.312154696132597"
"Pos Pred Value";"0.289586305278174"
"Neg Pred Value";"0.893280632411067"
"Precision";"0.289586305278174"
"Recall";"0.882608695652174"
"F1";"0.43609022556391"
"Prevalence";"0.241090146750524"
"Detection Rate";"0.212788259958071"
"Detection Prevalence";"0.734800838574423"
"Balanced Accuracy";"0.597381695892385"
"TP";"203"
"TN";"226"
"FP";"498"
"FN";"27"
