"Metric";"Testing_Set"
"Accuracy";"0.767295597484277"
"Kappa";"0.104248084048114"
"AccuracyLower";"0.739155558931535"
"AccuracyUpper";"0.793774677586431"
"AccuracyNull";"0.761006289308176"
"AccuracyPValue";"0.340153460183735"
"McnemarPValue";"7.17515923247887e-37"
"Sensitivity";"0.0964912280701754"
"Specificity";"0.977961432506887"
"Pos Pred Value";"0.578947368421053"
"Neg Pred Value";"0.775109170305677"
"Precision";"0.578947368421053"
"Recall";"0.0964912280701754"
"F1";"0.165413533834586"
"Prevalence";"0.238993710691824"
"Detection Rate";"0.0230607966457023"
"Detection Prevalence";"0.039832285115304"
"Balanced Accuracy";"0.537226330288531"
"TP";"22"
"TN";"710"
"FP";"16"
"FN";"206"
