"Metric";"Testing_Set"
"Accuracy";"0.682389937106918"
"Kappa";"0.265045537062745"
"AccuracyLower";"0.65179457547049"
"AccuracyUpper";"0.711854524375785"
"AccuracyNull";"0.761006289308176"
"AccuracyPValue";"0.999999985906576"
"McnemarPValue";"1.05133314797891e-12"
"Sensitivity";"0.609649122807018"
"Specificity";"0.705234159779614"
"Pos Pred Value";"0.393767705382436"
"Neg Pred Value";"0.851913477537438"
"Precision";"0.393767705382436"
"Recall";"0.609649122807018"
"F1";"0.478485370051635"
"Prevalence";"0.238993710691824"
"Detection Rate";"0.145702306079665"
"Detection Prevalence";"0.370020964360587"
"Balanced Accuracy";"0.657441641293316"
"TP";"139"
"TN";"512"
"FP";"214"
"FN";"89"
