"Metric";"Testing_Set"
"Accuracy";"0.758909853249476"
"Kappa";"0.201377262072882"
"AccuracyLower";"0.730467754385361"
"AccuracyUpper";"0.7857435838212"
"AccuracyNull";"0.758909853249476"
"AccuracyPValue";"0.517694281569637"
"McnemarPValue";"1.21218142664385e-14"
"Sensitivity";"0.243478260869565"
"Specificity";"0.922651933701657"
"Pos Pred Value";"0.5"
"Neg Pred Value";"0.793349168646081"
"Precision";"0.5"
"Recall";"0.243478260869565"
"F1";"0.327485380116959"
"Prevalence";"0.241090146750524"
"Detection Rate";"0.0587002096436059"
"Detection Prevalence";"0.117400419287212"
"Balanced Accuracy";"0.583065097285611"
"TP";"56"
"TN";"668"
"FP";"56"
"FN";"174"
