"Metric";"Testing_Set"
"Accuracy";"0.712788259958071"
"Kappa";"0.212785949188681"
"AccuracyLower";"0.682926320190737"
"AccuracyUpper";"0.741330104738291"
"AccuracyNull";"0.761006289308176"
"AccuracyPValue";"0.999731734551045"
"McnemarPValue";"0.951827334777657"
"Sensitivity";"0.403508771929825"
"Specificity";"0.809917355371901"
"Pos Pred Value";"0.4"
"Neg Pred Value";"0.812154696132597"
"Precision";"0.4"
"Recall";"0.403508771929825"
"F1";"0.40174672489083"
"Prevalence";"0.238993710691824"
"Detection Rate";"0.0964360587002096"
"Detection Prevalence";"0.241090146750524"
"Balanced Accuracy";"0.606713063650863"
"TP";"92"
"TN";"588"
"FP";"138"
"FN";"136"
