"Metric";"Testing_Set"
"Accuracy";"0.761006289308176"
"Kappa";"0.113643031784841"
"AccuracyLower";"0.732638356491415"
"AccuracyUpper";"0.787752712299018"
"AccuracyNull";"0.761006289308176"
"AccuracyPValue";"0.517768288669332"
"McnemarPValue";"9.89589352533453e-30"
"Sensitivity";"0.12280701754386"
"Specificity";"0.961432506887052"
"Pos Pred Value";"0.5"
"Neg Pred Value";"0.77728285077951"
"Precision";"0.5"
"Recall";"0.12280701754386"
"F1";"0.197183098591549"
"Prevalence";"0.238993710691824"
"Detection Rate";"0.0293501048218029"
"Detection Prevalence";"0.0587002096436059"
"Balanced Accuracy";"0.542119762215456"
"TP";"28"
"TN";"698"
"FP";"28"
"FN";"200"
