"Metric";"Testing_Set"
"Accuracy";"0.764150943396226"
"Kappa";"0.0416811765021026"
"AccuracyLower";"0.735895938260051"
"AccuracyUpper";"0.790764718985689"
"AccuracyNull";"0.761006289308176"
"AccuracyPValue";"0.427243181915788"
"McnemarPValue";"3.53055139807781e-46"
"Sensitivity";"0.0350877192982456"
"Specificity";"0.993112947658402"
"Pos Pred Value";"0.615384615384615"
"Neg Pred Value";"0.766206163655685"
"Precision";"0.615384615384615"
"Recall";"0.0350877192982456"
"F1";"0.0663900414937759"
"Prevalence";"0.238993710691824"
"Detection Rate";"0.00838574423480084"
"Detection Prevalence";"0.0136268343815514"
"Balanced Accuracy";"0.514100333478324"
"TP";"8"
"TN";"721"
"FP";"5"
"FN";"220"
