"Metric";"Testing_Set"
"Accuracy";"0.765199161425577"
"Kappa";"0.171566803126163"
"AccuracyLower";"0.736982250550191"
"AccuracyUpper";"0.791768267489117"
"AccuracyNull";"0.758909853249476"
"AccuracyPValue";"0.340590426388492"
"McnemarPValue";"6.17254354336921e-24"
"Sensitivity";"0.182608695652174"
"Specificity";"0.950276243093923"
"Pos Pred Value";"0.538461538461539"
"Neg Pred Value";"0.785388127853881"
"Precision";"0.538461538461538"
"Recall";"0.182608695652174"
"F1";"0.272727272727273"
"Prevalence";"0.241090146750524"
"Detection Rate";"0.0440251572327044"
"Detection Prevalence";"0.0817610062893082"
"Balanced Accuracy";"0.566442469373048"
"TP";"42"
"TN";"688"
"FP";"36"
"FN";"188"
