"Metric";"Testing_Set"
"Accuracy";"0.759958071278826"
"Kappa";"0.219100521157269"
"AccuracyLower";"0.731552944199914"
"AccuracyUpper";"0.786748259785745"
"AccuracyNull";"0.761006289308176"
"AccuracyPValue";"0.547910647586546"
"McnemarPValue";"1.58005849314179e-11"
"Sensitivity";"0.271929824561404"
"Specificity";"0.913223140495868"
"Pos Pred Value";"0.496"
"Neg Pred Value";"0.799758745476478"
"Precision";"0.496"
"Recall";"0.271929824561404"
"F1";"0.351274787535411"
"Prevalence";"0.238993710691824"
"Detection Rate";"0.0649895178197065"
"Detection Prevalence";"0.131027253668763"
"Balanced Accuracy";"0.592576482528636"
"TP";"62"
"TN";"663"
"FP";"63"
"FN";"166"
