"Metric";"Testing_Set"
"Accuracy";"0.773584905660377"
"Kappa";"0.124770642201835"
"AccuracyLower";"0.745681032172592"
"AccuracyUpper";"0.799788334019999"
"AccuracyNull";"0.761006289308176"
"AccuracyPValue";"0.191744179885142"
"McnemarPValue";"1.29073650888624e-38"
"Sensitivity";"0.105263157894737"
"Specificity";"0.983471074380165"
"Pos Pred Value";"0.666666666666667"
"Neg Pred Value";"0.777777777777778"
"Precision";"0.666666666666667"
"Recall";"0.105263157894737"
"F1";"0.181818181818182"
"Prevalence";"0.238993710691824"
"Detection Rate";"0.0251572327044025"
"Detection Prevalence";"0.0377358490566038"
"Balanced Accuracy";"0.544367116137451"
"TP";"24"
"TN";"714"
"FP";"12"
"FN";"204"
