"Metric";"Testing_Set"
"Accuracy";"0.706498951781971"
"Kappa";"0.266000593530517"
"AccuracyLower";"0.676472800334656"
"AccuracyUpper";"0.735244214788006"
"AccuracyNull";"0.761006289308176"
"AccuracyPValue";"0.999951497328766"
"McnemarPValue";"0.000102543655289945"
"Sensitivity";"0.530701754385965"
"Specificity";"0.761707988980716"
"Pos Pred Value";"0.41156462585034"
"Neg Pred Value";"0.837878787878788"
"Precision";"0.41156462585034"
"Recall";"0.530701754385965"
"F1";"0.46360153256705"
"Prevalence";"0.238993710691824"
"Detection Rate";"0.126834381551363"
"Detection Prevalence";"0.308176100628931"
"Balanced Accuracy";"0.646204871683341"
"TP";"121"
"TN";"553"
"FP";"173"
"FN";"107"
