"Metric";"Testing_Set"
"Accuracy";"0.720125786163522"
"Kappa";"0.224758496009934"
"AccuracyLower";"0.690463959191618"
"AccuracyUpper";"0.748421749807878"
"AccuracyNull";"0.761006289308176"
"AccuracyPValue";"0.998413304533746"
"McnemarPValue";"0.806614372240607"
"Sensitivity";"0.403508771929825"
"Specificity";"0.819559228650138"
"Pos Pred Value";"0.412556053811659"
"Neg Pred Value";"0.813953488372093"
"Precision";"0.412556053811659"
"Recall";"0.403508771929825"
"F1";"0.407982261640798"
"Prevalence";"0.238993710691824"
"Detection Rate";"0.0964360587002096"
"Detection Prevalence";"0.233752620545073"
"Balanced Accuracy";"0.611534000289981"
"TP";"92"
"TN";"595"
"FP";"131"
"FN";"136"
