"Metric";"Training_Set";"Testing_Set";"Independent"
"Accuracy";"0.810810810810811";"0.778280542986425";"0.761006289308176"
"Kappa";"0.425174381737476";"0.254868230922728";"0.225042397639984"
"AccuracyLower";"0.77437867749251";"0.717693827213758";"0.732638356491415"
"AccuracyUpper";"0.843650074645548";"0.831239518330896";"0.787752712299018"
"AccuracyNull";"0.752895752895753";"0.755656108597285";"0.758909853249476"
"AccuracyPValue";"0.00102151262094349";"0.242716672798847";"0.457367240233184"
"McnemarPValue";"1.40130924079152e-05";"1.8215297148968e-05";"3.5558854439001e-12"
"Sensitivity";"0.4453125";"0.259259259259259";"0.273913043478261"
"Specificity";"0.930769230769231";"0.946107784431138";"0.915745856353591"
"Pos Pred Value";"0.678571428571429";"0.608695652173913";"0.508064516129032"
"Neg Pred Value";"0.836405529953917";"0.797979797979798";"0.798795180722892"
"Precision";"0.678571428571429";"0.608695652173913";"0.508064516129032"
"Recall";"0.4453125";"0.259259259259259";"0.273913043478261"
"F1";"0.537735849056604";"0.363636363636364";"0.35593220338983"
"Prevalence";"0.247104247104247";"0.244343891402715";"0.241090146750524"
"Detection Rate";"0.11003861003861";"0.0633484162895928";"0.0660377358490566"
"Detection Prevalence";"0.162162162162162";"0.104072398190045";"0.129979035639413"
"Balanced Accuracy";"0.688040865384615";"0.602683521845198";"0.594829449915926"
"TP";"57";"14";"63"
"TN";"363";"158";"663"
"FP";"27";"9";"61"
"FN";"71";"40";"167"
