"Metric";"Training_Set";"Testing_Set";"Independent"
"Accuracy";"0.791505791505791";"0.755656108597285";"0.742138364779874"
"Kappa";"0.3847710376985";"0.145618556701031";"0.18396895602103"
"AccuracyLower";"0.753939341742838";"0.693524016790306";"0.713134202556996"
"AccuracyUpper";"0.825706792827709";"0.810792027364133";"0.769639159240768"
"AccuracyNull";"0.752895752895753";"0.755656108597285";"0.758909853249476"
"AccuracyPValue";"0.0219987983115563";"0.536462433258084";"0.893515960328162"
"McnemarPValue";"0.00149616428974555";"1.9083352345314e-06";"6.5548857160194e-09"
"Sensitivity";"0.4453125";"0.166666666666667";"0.265217391304348"
"Specificity";"0.905128205128205";"0.946107784431138";"0.893646408839779"
"Pos Pred Value";"0.606382978723404";"0.5";"0.442028985507246"
"Neg Pred Value";"0.832547169811321";"0.778325123152709";"0.792892156862745"
"Precision";"0.606382978723404";"0.5";"0.442028985507246"
"Recall";"0.4453125";"0.166666666666667";"0.265217391304348"
"F1";"0.513513513513513";"0.25";"0.331521739130435"
"Prevalence";"0.247104247104247";"0.244343891402715";"0.241090146750524"
"Detection Rate";"0.11003861003861";"0.0407239819004525";"0.0639412997903564"
"Detection Prevalence";"0.181467181467181";"0.081447963800905";"0.144654088050314"
"Balanced Accuracy";"0.675220352564103";"0.556387225548902";"0.579431900072063"
"TP";"57";"9";"61"
"TN";"353";"158";"647"
"FP";"37";"9";"77"
"FN";"71";"45";"169"
