"Metric";"Training_Set";"Testing_Set";"Independent"
"Accuracy";"0.776061776061776";"0.742081447963801";"0.733752620545073"
"Kappa";"0.357704805883359";"0.218305926155756";"0.226519407558733"
"AccuracyLower";"0.73767376527442";"0.679123216178454";"0.704487535786445"
"AccuracyUpper";"0.811265414667049";"0.798420594882908";"0.761566757994013"
"AccuracyNull";"0.752895752895753";"0.755656108597285";"0.758909853249476"
"AccuracyPValue";"0.120009618596185";"0.711274578747152";"0.967073837096673"
"McnemarPValue";"0.0327204848315735";"0.0340691951441439";"0.0144019811435051"
"Sensitivity";"0.453125";"0.314814814814815";"0.360869565217391"
"Specificity";"0.882051282051282";"0.880239520958084";"0.852209944751381"
"Pos Pred Value";"0.557692307692308";"0.45945945945946";"0.436842105263158"
"Neg Pred Value";"0.830917874396135";"0.798913043478261";"0.807591623036649"
"Precision";"0.557692307692308";"0.459459459459459";"0.436842105263158"
"Recall";"0.453125";"0.314814814814815";"0.360869565217391"
"F1";"0.5";"0.373626373626374";"0.395238095238095"
"Prevalence";"0.247104247104247";"0.244343891402715";"0.241090146750524"
"Detection Rate";"0.111969111969112";"0.0769230769230769";"0.0870020964360587"
"Detection Prevalence";"0.200772200772201";"0.167420814479638";"0.19916142557652"
"Balanced Accuracy";"0.667588141025641";"0.597527167886449";"0.606539754984386"
"TP";"58";"17";"83"
"TN";"344";"147";"617"
"FP";"46";"20";"107"
"FN";"70";"37";"147"
