"Metric";"Training_Set";"Testing_Set";"Independent"
"Accuracy";"0.797297297297297";"0.760180995475113";"0.744234800838574"
"Kappa";"0.393117761263975";"0.181309848325994";"0.212253296152909"
"AccuracyLower";"0.760058140036526";"0.69834070771112";"0.715297924580916"
"AccuracyUpper";"0.831102916353151";"0.814899125591325";"0.771655196332302"
"AccuracyNull";"0.752895752895753";"0.755656108597285";"0.758909853249476"
"AccuracyPValue";"0.009837223546817";"0.474113656869083";"0.863523550412973"
"McnemarPValue";"0.000208556300276157";"1.10498706901625e-05";"1.57573566192234e-06"
"Sensitivity";"0.4375";"0.203703703703704";"0.304347826086957"
"Specificity";"0.915384615384615";"0.940119760479042";"0.883977900552486"
"Pos Pred Value";"0.629213483146067";"0.523809523809524";"0.454545454545454"
"Neg Pred Value";"0.832167832167832";"0.785";"0.8"
"Precision";"0.629213483146067";"0.523809523809524";"0.454545454545455"
"Recall";"0.4375";"0.203703703703704";"0.304347826086957"
"F1";"0.516129032258065";"0.293333333333333";"0.364583333333333"
"Prevalence";"0.247104247104247";"0.244343891402715";"0.241090146750524"
"Detection Rate";"0.108108108108108";"0.0497737556561086";"0.0733752620545073"
"Detection Prevalence";"0.171814671814672";"0.0950226244343891";"0.161425576519916"
"Balanced Accuracy";"0.676442307692308";"0.571911732091373";"0.594162863319721"
"TP";"56";"11";"70"
"TN";"357";"157";"640"
"FP";"33";"10";"84"
"FN";"72";"43";"160"
