"Metric";"Training_Set";"Testing_Set";"Independent"
"Accuracy";"0.812741312741313";"0.769230769230769";"0.752620545073375"
"Kappa";"0.42247304659663";"0.199559690362901";"0.189289623782912"
"AccuracyLower";"0.776429625235671";"0.707999654622215";"0.723961233069347"
"AccuracyUpper";"0.845437312237559";"0.82308728024893";"0.779710890610325"
"AccuracyNull";"0.752895752895753";"0.755656108597285";"0.758909853249476"
"AccuracyPValue";"0.000705789595948251";"0.35202596642992";"0.690371083486129"
"McnemarPValue";"1.09548581604074e-06";"1.92681603327718e-06";"4.99318205463542e-13"
"Sensitivity";"0.4296875";"0.203703703703704";"0.243478260869565"
"Specificity";"0.938461538461538";"0.952095808383233";"0.914364640883978"
"Pos Pred Value";"0.69620253164557";"0.578947368421052";"0.474576271186441"
"Neg Pred Value";"0.83371298405467";"0.787128712871287";"0.791866028708134"
"Precision";"0.69620253164557";"0.578947368421053";"0.474576271186441"
"Recall";"0.4296875";"0.203703703703704";"0.243478260869565"
"F1";"0.531400966183575";"0.301369863013699";"0.32183908045977"
"Prevalence";"0.247104247104247";"0.244343891402715";"0.241090146750524"
"Detection Rate";"0.106177606177606";"0.0497737556561086";"0.0587002096436059"
"Detection Prevalence";"0.152509652509653";"0.085972850678733";"0.123689727463312"
"Balanced Accuracy";"0.684074519230769";"0.577899756043469";"0.578921450876772"
"TP";"55";"11";"56"
"TN";"366";"159";"662"
"FP";"24";"8";"62"
"FN";"73";"43";"174"
