"Metric";"Training_Set";"Testing_Set";"Independent"
"Accuracy";"0.803088803088803";"0.764705882352941";"0.755765199161426"
"Kappa";"0.398140975987606";"0.203051317614424";"0.214956241656248"
"AccuracyLower";"0.766187922015229";"0.703165865503";"0.727213509998493"
"AccuracyUpper";"0.836487942991586";"0.818997600669509";"0.782728225134656"
"AccuracyNull";"0.752895752895753";"0.755656108597285";"0.758909853249476"
"AccuracyPValue";"0.00398862602192784";"0.412136004149062";"0.60679059239072"
"McnemarPValue";"8.36339546253067e-06";"1.71627356359427e-05";"5.70697435674539e-11"
"Sensitivity";"0.421875";"0.222222222222222";"0.273913043478261"
"Specificity";"0.928205128205128";"0.940119760479042";"0.908839779005525"
"Pos Pred Value";"0.658536585365854";"0.545454545454545";"0.488372093023256"
"Neg Pred Value";"0.830275229357798";"0.78894472361809";"0.797575757575758"
"Precision";"0.658536585365854";"0.545454545454545";"0.488372093023256"
"Recall";"0.421875";"0.222222222222222";"0.273913043478261"
"F1";"0.514285714285714";"0.315789473684211";"0.350974930362117"
"Prevalence";"0.247104247104247";"0.244343891402715";"0.241090146750524"
"Detection Rate";"0.104247104247104";"0.0542986425339367";"0.0660377358490566"
"Detection Prevalence";"0.158301158301158";"0.0995475113122172";"0.135220125786164"
"Balanced Accuracy";"0.675040064102564";"0.581170991350632";"0.591376411241893"
"TP";"54";"12";"63"
"TN";"362";"157";"658"
"FP";"28";"10";"66"
"FN";"74";"42";"167"
