"Metric";"Training_Set";"Testing_Set";"Independent"
"Accuracy";"0.805019305019305";"0.773755656108597";"0.752620545073375"
"Kappa";"0.405814877910278";"0.23370319001387";"0.208988574560479"
"AccuracyLower";"0.768233685037515";"0.712842247922646";"0.723961233069347"
"AccuracyUpper";"0.838280422896404";"0.827167983064395";"0.779710890610325"
"AccuracyNull";"0.752895752895753";"0.755656108597285";"0.758909853249476"
"AccuracyPValue";"0.00288681626051642";"0.29516370416924";"0.690371083486129"
"McnemarPValue";"1.19683477389902e-05";"1.16486573671996e-05";"2.7162896608739e-10"
"Sensitivity";"0.4296875";"0.240740740740741";"0.273913043478261"
"Specificity";"0.928205128205128";"0.946107784431138";"0.904696132596685"
"Pos Pred Value";"0.662650602409639";"0.590909090909091";"0.477272727272727"
"Neg Pred Value";"0.832183908045977";"0.793969849246231";"0.79683698296837"
"Precision";"0.662650602409639";"0.590909090909091";"0.477272727272727"
"Recall";"0.4296875";"0.240740740740741";"0.273913043478261"
"F1";"0.52132701421801";"0.342105263157895";"0.348066298342541"
"Prevalence";"0.247104247104247";"0.244343891402715";"0.241090146750524"
"Detection Rate";"0.106177606177606";"0.0588235294117647";"0.0660377358490566"
"Detection Prevalence";"0.16023166023166";"0.0995475113122172";"0.138364779874214"
"Balanced Accuracy";"0.678946314102564";"0.593424262585939";"0.589304588037473"
"TP";"55";"13";"63"
"TN";"362";"158";"655"
"FP";"28";"9";"69"
"FN";"73";"41";"167"
