"Metric";"Training_Set";"Testing_Set";"Independent"
"Accuracy";"0.82046332046332";"0.773755656108597";"0.751572327044025"
"Kappa";"0.449603546374792";"0.245527789157449";"0.204255738489586"
"AccuracyLower";"0.784646917222497";"0.712842247922646";"0.722877573599919"
"AccuracyUpper";"0.852572604152268";"0.827167983064395";"0.778704677781425"
"AccuracyNull";"0.752895752895753";"0.755656108597285";"0.758909853249476"
"AccuracyPValue";"0.000142561937648037";"0.29516370416924";"0.716363205595093"
"McnemarPValue";"1.8424622734383e-06";"4.10978780994589e-05";"1.94294620770351e-10"
"Sensitivity";"0.453125";"0.259259259259259";"0.269565217391304"
"Specificity";"0.941025641025641";"0.940119760479042";"0.904696132596685"
"Pos Pred Value";"0.716049382716049";"0.583333333333333";"0.473282442748092"
"Neg Pred Value";"0.839816933638444";"0.796954314720812";"0.795868772782503"
"Precision";"0.716049382716049";"0.583333333333333";"0.473282442748092"
"Recall";"0.453125";"0.259259259259259";"0.269565217391304"
"F1";"0.555023923444976";"0.358974358974359";"0.343490304709141"
"Prevalence";"0.247104247104247";"0.244343891402715";"0.241090146750524"
"Detection Rate";"0.111969111969112";"0.0633484162895928";"0.0649895178197065"
"Detection Prevalence";"0.156370656370656";"0.108597285067873";"0.137316561844864"
"Balanced Accuracy";"0.697075320512821";"0.599689509869151";"0.587130674993995"
"TP";"58";"14";"62"
"TN";"367";"157";"655"
"FP";"23";"10";"69"
"FN";"70";"40";"168"
