c<B>r<17>a<1605>R<LEU>A<CD2> 1
c<B>r<20>a<1634>R<MET>A<SD> 1
c<B>r<20>a<1635>R<MET>A<CE> 2
c<B>r<22>a<1650>R<LEU>A<CD1> 1
c<B>r<22>a<1651>R<LEU>A<CD2> 2
c<B>r<32>a<1728>R<TRP>A<CD2> 2
c<B>r<32>a<1730>R<TRP>A<CE2> 2
c<B>r<32>a<1731>R<TRP>A<CE3> 2
c<B>r<32>a<1732>R<TRP>A<CZ2> 2
c<B>r<32>a<1733>R<TRP>A<CZ3> 2
c<B>r<32>a<1734>R<TRP>A<CH2> 2
c<B>r<38>a<1774>R<LEU>A<C> 2
c<B>r<38>a<1775>R<LEU>A<O> 2
c<B>r<38>a<1776>R<LEU>A<CB> 1
c<B>r<38>a<1778>R<LEU>A<CD1> 1
c<B>r<39>a<1780>R<SER>A<N> 2
c<B>r<39>a<1781>R<SER>A<CA> 2
c<B>r<39>a<1784>R<SER>A<CB> 2
c<B>r<47>a<1841>R<ALA>A<CB> 2
c<B>r<49>a<1858>R<VAL>A<CG1> 1
c<B>r<49>a<1859>R<VAL>A<CG2> 1
c<B>r<53>a<1887>R<ILE>A<C> 2
c<B>r<53>a<1888>R<ILE>A<O> 1
c<B>r<53>a<1890>R<ILE>A<CG1> 2
c<B>r<53>a<1891>R<ILE>A<CG2> 1
c<B>r<53>a<1892>R<ILE>A<CD1> 1
c<B>r<54>a<1894>R<LEU>A<CA> 1
c<B>r<54>a<1900>R<LEU>A<CD2> 2
c<B>r<59>a<1935>R<VAL>A<CG1> 1
c<B>r<59>a<1936>R<VAL>A<CG2> 1
c<B>r<61>a<1947>R<ARG>A<CB> 2
c<B>r<61>a<1949>R<ARG>A<CD> 2
c<B>r<61>a<1950>R<ARG>A<NE> 2
c<B>r<61>a<1951>R<ARG>A<CZ> 2
c<B>r<61>a<1952>R<ARG>A<NH1> 1
c<B>r<61>a<1953>R<ARG>A<NH2> 2
c<B>r<63>a<1968>R<LEU>A<CG> 3
c<B>r<63>a<1969>R<LEU>A<CD1> 2
c<B>r<63>a<1970>R<LEU>A<CD2> 2
c<B>r<76>a<2081>R<LEU>A<CD1> 3
c<B>r<78>a<2100>R<GLN>A<NE2> 2
c<B>r<80>a<2115>R<VAL>A<CG1> 1
c<B>r<80>a<2116>R<VAL>A<CG2> 1
c<B>r<87>a<2171>R<LEU>A<O> 1
c<B>r<87>a<2173>R<LEU>A<CG> 2
c<B>r<87>a<2174>R<LEU>A<CD1> 1
c<B>r<87>a<2175>R<LEU>A<CD2> 1
c<B>r<88>a<2180>R<GLU>A<CB> 1
c<B>r<88>a<2181>R<GLU>A<CG> 1
c<B>r<88>a<2182>R<GLU>A<CD> 2
c<B>r<88>a<2183>R<GLU>A<OE1> 1
c<B>r<88>a<2184>R<GLU>A<OE2> 1
c<B>r<89>a<2188>R<GLU>A<O> 1
c<B>r<90>a<2202>R<TRP>A<NE1> 1
c<B>r<90>a<2203>R<TRP>A<CE2> 2
c<B>r<90>a<2205>R<TRP>A<CZ2> 1
c<B>r<90>a<2206>R<TRP>A<CZ3> 1
c<B>r<90>a<2207>R<TRP>A<CH2> 1
c<B>r<109>a<2362>R<ILE>A<C> 2
c<B>r<109>a<2363>R<ILE>A<O> 1
c<B>r<109>a<2364>R<ILE>A<CB> 2
c<B>r<109>a<2366>R<ILE>A<CG2> 1
c<B>r<109>a<2367>R<ILE>A<CD1> 1
c<B>r<110>a<2368>R<GLU>A<N> 1
c<B>r<110>a<2370>R<GLU>A<C> 2
c<B>r<110>a<2371>R<GLU>A<O> 1
c<B>r<110>a<2372>R<GLU>A<CB> 1
c<B>r<110>a<2373>R<GLU>A<CG> 1
c<B>r<110>a<2374>R<GLU>A<CD> 1
c<B>r<110>a<2375>R<GLU>A<OE1> 1
c<B>r<110>a<2376>R<GLU>A<OE2> 1
c<B>r<111>a<2377>R<ALA>A<N> 1
c<B>r<111>a<2378>R<ALA>A<CA> 1
c<B>r<111>a<2379>R<ALA>A<C> 2
c<B>r<111>a<2380>R<ALA>A<O> 1
c<B>r<111>a<2381>R<ALA>A<CB> 1
c<B>r<112>a<2382>R<ALA>A<N> 2
c<B>r<112>a<2383>R<ALA>A<CA> 2
c<B>r<112>a<2386>R<ALA>A<CB> 1
c<B>r<113>a<2387>R<PRO>A<N> 1
c<B>r<113>a<2392>R<PRO>A<CG> 1
c<B>r<113>a<2393>R<PRO>A<CD> 1
c<B>r<116>a<2412>R<GLN>A<O> 1
c<B>r<116>a<2413>R<GLN>A<CB> 1
c<B>r<116>a<2414>R<GLN>A<CG> 1
c<B>r<116>a<2417>R<GLN>A<NE2> 1
c<B>r<117>a<2419>R<MET>A<CA> 2
c<B>r<117>a<2424>R<MET>A<SD> 2
c<B>r<117>a<2425>R<MET>A<CE> 1
c<B>r<118>a<2426>R<MET>A<N> 2
c<B>r<118>a<2429>R<MET>A<O> 2
c<B>r<118>a<2430>R<MET>A<CB> 2
c<B>r<118>a<2431>R<MET>A<CG> 1
c<B>r<118>a<2432>R<MET>A<SD> 1
c<B>r<123>a<2465>R<LEU>A<CD1> 2
c<B>r<123>a<2466>R<LEU>A<CD2> 2
c<B>r<127>a<2491>R<VAL>A<CG1> 2
c<B>r<127>a<2492>R<VAL>A<CG2> 1
c<B>r<129>a<2504>R<ILE>A<O> 2
c<B>r<129>a<2505>R<ILE>A<CB> 2
c<B>r<129>a<2506>R<ILE>A<CG1> 1
c<B>r<129>a<2507>R<ILE>A<CG2> 1
c<B>r<129>a<2508>R<ILE>A<CD1> 1
c<B>r<131>a<2522>R<THR>A<CB> 2
c<B>r<131>a<2523>R<THR>A<OG1> 1
c<B>r<131>a<2524>R<THR>A<CG2> 2
c<B>r<133>a<2543>R<PHE>A<CE2> 2
c<B>r<133>a<2544>R<PHE>A<CZ> 2
c<B>r<143>a<2621>R<SER>A<OG> 1
c<B>r<145>a<2637>R<VAL>A<CB> 2
c<B>r<145>a<2638>R<VAL>A<CG1> 2
c<B>r<145>a<2639>R<VAL>A<CG2> 1
c<B>r<147>a<2657>R<LEU>A<CD1> 2
c<B>r<147>a<2658>R<LEU>A<CD2> 1
c<B>r<149>a<2678>R<TYR>A<CE1> 1
c<B>r<149>a<2681>R<TYR>A<OH> 1
