"The table details the residue variety in % for each position in the query sequence."
"Each column shows the % for that amino-acid, found in position ('pos') in the MSA."
"In case there are residues which are not a standard amino-acid in the MSA, they are represented under column 'OTHER'"

pos,A,C,D,E,F,G,H,I,K,L,M,N,P,Q,R,S,T,V,W,Y,OTHER,MAX AA,ConSurf Grade
1,84.444,2.222,,,,4.444,,,,,,,,2.222,,2.222,,4.444,,,,A 84.444,6
2,2.439,,29.268,65.854,,,,,,,,,,,2.439,,,,,,,E 65.854,3*
3,,,2.273,,,4.545,,,2.273,,,22.727,2.273,,,56.818,9.091,,,,,S 56.818,1
4,,,,2.273,,,68.182,,,,,4.545,,4.545,15.909,,,,,4.545,,H 68.182,1
5,,,,,,,,,,66.667,,,8.889,,24.444,,,,,,,L 66.667,3*
6,5.882,1.961,,,,,,,,,,,9.804,,,82.353,,,,,,S 82.353,7
7,,1.961,,,,,,,,98.039,,,,,,,,,,,,L 98.039,8
8,,,,,7.843,,,,,84.314,5.882,,,1.961,,,,,,,,L 84.314,5
9,,,,,,,,,,,,,,,,,,,1.961,98.039,,Y 98.039,8
10,,,,,,,86.275,,,,,,,7.843,3.922,,,1.961,,,,H 86.275,7
11,,,,,21.569,,,5.882,1.961,66.667,1.961,,,,,,,1.961,,,,L 66.667,1
12,1.961,,,,,,,,,,,,,,,,98.039,,,,,T 98.039,9
13,92.157,3.922,,,,,,,,,,,,,,3.922,,,,,,A 92.157,9
14,,,,,,,,,,1.961,1.961,,,,,,,96.078,,,,V 96.078,9
15,1.961,,,,,1.961,,,,,,,,,,92.157,3.922,,,,,S 92.157,8
16,17.647,,3.922,1.961,,,,,1.961,1.961,,13.725,1.961,,,50.980,1.961,3.922,,,,S 50.980,1
17,9.804,,,,,,,,,1.961,,,86.275,,1.961,,,,,,,P 86.275,6
18,64.706,,3.922,,,1.961,1.961,,,,,,13.725,,,7.843,3.922,1.961,,,,A 64.706,2*
19,5.882,,,1.961,,1.961,,,7.843,,,,52.941,13.725,3.922,7.843,3.922,,,,,P 52.941,1
20,,,,3.846,,94.231,,,,,,,,,1.923,,,,,,,G 94.231,7
21,5.769,,,,,,,,,1.923,,,,,,17.308,71.154,3.846,,,,T 71.154,5
22,,,,,,,,,,,,,100.000,,,,,,,,,P 100.000,9
23,74.510,,,,,,,,3.922,,,3.922,1.961,,1.961,9.804,3.922,,,,,A 74.510,4
24,,,,,98.039,,,,,,,,,,,,,1.961,,,,F 98.039,8
25,,,,,1.961,,,,,,,,,,,1.961,,,96.078,,,W 96.078,6
26,31.373,,,,,1.961,,,,1.961,,,,,,,,64.706,,,,V 64.706,3
27,,,,,,,,,,,,,,,,78.431,21.569,,,,,S 78.431,8
28,,,,,,100.000,,,,,,,,,,,,,,,,G 100.000,9
29,,,,,,,,,,,,,,,,,,,100.000,,,W 100.000,9
30,,,,,,,,,,98.077,,,,,,,,1.923,,,,L 98.077,8
31,,,,,,100.000,,,,,,,,,,,,,,,,G 100.000,9
32,1.961,,,,,,,,,,,,96.078,,,,1.961,,,,,P 96.078,8
33,,,,,,,,,,1.961,,,,98.039,,,,,,,,Q 98.039,9
34,,,,,,,,,,7.843,,,,92.157,,,,,,,,Q 92.157,9
35,,,,,7.843,,,,,,,,,,,,,,,92.157,,Y 92.157,8
36,,,,,,,,,,100.000,,,,,,,,,,,,L 100.000,9
37,,,,,,,,,1.961,,,,,,5.882,80.392,11.765,,,,,S 80.392,7
38,,,,,,,,,,,,,,,,,,,,100.000,,Y 100.000,9
39,,,1.961,,,,,,,,,54.902,,,,43.137,,,,,,N 54.902,4
40,,,1.961,,,,,,,,,50.980,,,,47.059,,,,,,N 50.980,4
41,,,,,2.128,,,2.128,,85.106,,,,,4.255,,2.128,4.255,,,,L 85.106,3*
42,,,,,,7.843,,,,,,,,3.922,88.235,,,,,,,R 88.235,8
43,41.176,,,1.961,,21.569,,,5.882,,,1.961,7.843,3.922,7.843,5.882,1.961,,,,,A 41.176,1
44,,,,41.176,,,,,,,,5.882,,47.059,1.961,1.961,,1.961,,,,Q 47.059,4
45,100.000,,,,,,,,,,,,,,,,,,,,,A 100.000,9
46,,,7.843,86.275,,,,,,,,,,3.922,,,,1.961,,,,E 86.275,5
47,,,,,,,,,,,,,100.000,,,,,,,,,P 100.000,9
48,,58.824,,,3.922,,,,,,,,,,,,,,9.804,27.451,,C 58.824,1
49,1.961,,,,,98.039,,,,,,,,,,,,,,,,G 98.039,8
50,98.039,,,,,,,,,,,,,,,1.961,,,,,,A 98.039,9
51,,,,,,,,,,,,,,,,,,,100.000,,,W 100.000,9
52,,,,,,,,17.647,,,3.922,,,,7.843,,,70.588,,,,V 70.588,5
53,,,,,,,,,,,,,,,,,,,100.000,,,W 100.000,9
54,,,,100.000,,,,,,,,,,,,,,,,,,E 100.000,9
55,,,7.843,1.961,,,3.922,,1.961,,,52.941,5.882,,,21.569,3.922,,,,,N 52.941,1
56,,,,,,,,,,,,,1.961,98.039,,,,,,,,Q 98.039,9
57,1.961,,,7.843,,,,,,3.922,3.922,,,,,,,82.353,,,,V 82.353,7
58,9.804,,,,,,,,,,,,11.765,,,78.431,,,,,,S 78.431,6
59,,,,,,,,,,,,,,,,,,,100.000,,,W 100.000,9
60,,,,,7.843,,,,,,,,,,,,,,,92.157,,Y 92.157,8
61,,,,,,,,,,,,,,,,,,,100.000,,,W 100.000,9
62,,,,100.000,,,,,,,,,,,,,,,,,,E 100.000,9
63,,,,3.922,,,,,92.157,,1.961,,,,1.961,,,,,,,K 92.157,7
64,,,,100.000,,,,,,,,,,,,,,,,,,E 100.000,9
65,,,,,,,,,,,,,,,,,100.000,,,,,T 100.000,9
66,13.725,,,,,,,,,1.961,1.961,,,,,,54.902,19.608,7.843,,,T 54.902,1
67,,,92.157,,,,,,,,,,,,,,,,,7.843,,D 92.157,9
68,,,,,,,,,,98.039,1.961,,,,,,,,,,,L 98.039,8
69,,,,,,,,,23.529,,,,,1.961,74.510,,,,,,,R 74.510,4
70,,,3.846,3.846,,1.923,1.923,5.769,3.846,1.923,3.846,42.308,,3.846,1.923,13.462,7.692,3.846,,,,N 42.308,1
71,,,,,,,,,86.538,,,,,13.462,,,,,,,,K 86.538,7
72,,,,69.231,,,,,,,,,,30.769,,,,,,,,E 69.231,4
73,1.923,,,9.615,,1.923,,,48.077,,,1.923,,13.462,13.462,5.769,3.846,,,,,K 48.077,1
74,,,,,,,,,,100.000,,,,,,,,,,,,L 100.000,9
75,,,,,92.308,,,,,7.692,,,,,,,,,,,,F 92.308,8
76,,,,,,,,,,86.538,1.923,,,9.615,1.923,,,,,,,L 86.538,6
77,,,20.755,71.698,,1.887,,,1.887,,,,,1.887,,1.887,,,,,,E 71.698,1
78,100.000,,,,,,,,,,,,,,,,,,,,,A 100.000,9
79,,,,,24.074,,1.852,3.704,,66.667,,,,,,,,1.852,,1.852,,L 66.667,1
80,3.704,,,7.407,,3.704,,,38.889,1.852,,,,9.259,12.963,5.556,16.667,,,,,K 38.889,1
81,38.889,3.704,,,,,,3.704,,7.407,,,,,,,3.704,42.593,,,,V 42.593,1
82,,,,1.852,1.852,,,,,85.185,,,,,,7.407,,3.704,,,,L 85.185,5
83,,,5.882,41.176,,31.373,,1.961,11.765,,,,,3.922,1.961,,1.961,,,,,E 41.176,1
84,1.852,,3.704,25.926,,27.778,,3.704,18.519,,,1.852,,3.704,3.704,1.852,7.407,,,,,G 27.778,1
85,,,1.923,19.231,,32.692,,,15.385,,,5.769,7.692,5.769,1.923,3.846,5.769,,,,,G 32.692,1
86,1.786,,7.143,1.786,,80.357,,,,,,,,,1.786,1.786,,3.571,,1.786,,G 80.357,1
87,7.143,,3.571,1.786,,,,,,,,3.571,50.000,,,32.143,1.786,,,,,P 50.000,1
88,,,,,14.286,1.786,7.143,1.786,,1.786,,,,10.714,,,1.786,,,60.714,,Y 60.714,1
89,,,,,,,,5.357,,,,,,,1.786,,82.143,10.714,,,,T 82.143,5
90,,,,,7.143,,,1.786,,83.929,5.357,,,,,,1.786,,,,,L 83.929,5*
91,,,,,,,,,,,,,1.786,98.214,,,,,,,,Q 98.214,9
92,1.786,,,,,98.214,,,,,,,,,,,,,,,,G 98.214,9
93,,,,,,,,1.786,,94.643,,,,,,3.571,,,,,,L 94.643,7
94,,,,,,,,,,91.071,1.786,,,1.786,,,,5.357,,,,L 91.071,7
95,,,,,,100.000,,,,,,,,,,,,,,,,G 100.000,9
96,1.786,98.214,,,,,,,,,,,,,,,,,,,,C 98.214,8
97,,,,83.929,,,,,5.357,,,,,7.143,1.786,1.786,,,,,,E 83.929,6
98,,,,,,,,,,96.364,1.818,,,,,,,1.818,,,,L 96.364,8
99,8.929,,3.571,,,69.643,1.786,,3.571,,,7.143,,,,5.357,,,,,,G 69.643,1
100,1.786,,,,,,,,,1.786,,,87.500,,,5.357,1.786,,1.786,,,P 87.500,5*
101,,,76.786,,,7.143,,,,,,16.071,,,,,,,,,,D 76.786,3
102,,,,,,1.786,,,,,,96.429,,,1.786,,,,,,,N 96.429,9
103,28.571,,,,,,,3.571,1.786,,,1.786,,,,25.000,16.071,23.214,,,,A 28.571,1
104,1.786,,,,,,,,,,,,,,,94.643,3.571,,,,,S 94.643,9
105,1.786,,,,,1.786,1.786,3.571,,7.143,,,,3.571,1.786,1.786,,75.000,,1.786,,V 75.000,4
106,5.357,,,,,,3.571,,,,,,89.286,,1.786,,,,,,,P 89.286,7
107,,,,,1.786,,,,,,3.571,,,,,,57.143,37.500,,,,T 57.143,7
108,94.643,,,,,,,,,,,,,,,1.786,,,1.786,1.786,,A 94.643,8
109,,,1.786,,,,,1.786,51.786,10.714,,,,1.786,8.929,,16.071,7.143,,,,K 51.786,1
110,,,,,89.286,,,,,,1.786,,,,,,,1.786,,7.143,,F 89.286,5
111,96.429,,,,1.786,1.786,,,,,,,,,,,,,,,,A 96.429,9
112,,,,,,,,1.754,1.754,94.737,,,,,,,,1.754,,,,L 94.737,7
113,,,7.018,,,,,,,,,91.228,,,1.754,,,,,,,N 91.228,9
114,,,,,,100.000,,,,,,,,,,,,,,,,G 100.000,9
115,5.263,,,91.228,,,,,,,1.754,,,,,1.754,,,,,,E 91.228,8
116,,,43.860,52.632,,,,,,,,,,,,,1.754,,,1.754,,E 52.632,1
117,,,,,89.474,,,,,8.772,,,,,,,1.754,,,,,F 89.474,6
118,,,,,,,,1.754,,8.772,87.719,,,,,,,1.754,,,,M 87.719,8
119,,,3.509,12.281,,,1.754,,10.526,,5.263,3.509,,15.789,5.263,14.035,26.316,1.754,,,,T 26.316,1
120,,,,,98.246,,,,,,,,,,1.754,,,,,,,F 98.246,8
121,,,68.421,,,,10.526,,,5.263,,15.789,,,,,,,,,,D 68.421,4
122,5.263,,,,,,,1.754,,8.772,,,73.684,,1.754,,5.263,1.754,,,1.75438596491228,P 73.684,1
123,,,1.754,1.754,,,,,54.386,1.754,,,,3.509,10.526,5.263,12.281,7.018,,1.754,,K 54.386,1
124,19.298,,,,,,1.754,7.018,1.754,22.807,3.509,14.035,3.509,10.526,3.509,3.509,5.263,1.754,1.754,,,L 22.807,1
125,,,,,,89.474,,,,,,,,,7.018,3.509,,,,,,G 89.474,7
126,1.754,1.754,3.509,1.754,,,1.754,10.526,1.754,,,31.579,,,,10.526,29.825,5.263,,,,N 31.579,1
127,,,,,,,,,,,,,,,,,,,100.000,,,W 100.000,9
128,1.754,,19.298,3.509,1.754,5.263,,,1.754,1.754,1.754,8.772,,,1.754,26.316,21.053,5.263,,,,S 26.316,1
129,1.754,,,,,96.491,,,1.754,,,,,,,,,,,,,G 96.491,8
130,,,66.667,22.807,,,1.754,,,,,5.263,,,1.754,1.754,,,,,,D 66.667,2
131,,,,,,,,,,,,,,,1.754,3.509,3.509,,91.228,,,W 91.228,6
132,,,,1.754,,1.754,,,,,,,89.474,,1.754,,,5.263,,,,P 89.474,6
133,,,1.754,94.737,,1.754,,,,,,,,,,,,1.754,,,,E 94.737,8
134,57.895,,,,,,,,1.754,,,,,,,14.035,19.298,7.018,,,,A 57.895,3
135,5.263,,5.263,15.789,,1.754,,,3.509,31.579,,,,21.053,10.526,1.754,,,1.754,1.754,,L 31.579,1
136,29.825,,3.509,,,1.754,,3.509,,1.754,1.754,5.263,,,3.509,5.263,40.351,3.509,,,,T 40.351,1
137,,,,,,,,68.421,,1.754,,,,,,,,28.070,,1.754,,I 68.421,5
138,3.509,,,,,19.298,,1.754,5.263,,,3.509,,,3.509,63.158,,,,,,S 63.158,2
139,1.754,,3.509,7.018,,,,7.018,17.544,,1.754,15.789,1.754,22.807,5.263,10.526,5.263,,,,,Q 22.807,1
140,,,1.754,,,,5.263,,29.825,17.544,,3.509,,17.544,21.053,1.754,,,,,1.75438596491228,K 29.825,1
141,,,,,,,,,,1.786,,,,,,,,,98.214,,,W 98.214,8
142,10.526,,,5.263,,1.754,,,3.509,3.509,40.351,,,19.298,5.263,1.754,8.772,,,,,M 40.351,1
143,1.754,,,3.509,,,1.754,,36.842,,,8.772,,45.614,1.754,,,,,,,Q 45.614,1
144,,,,17.544,,,7.018,,7.018,1.754,,5.263,,61.404,,,,,,,,Q 61.404,1
145,45.614,,10.526,8.772,,,,,1.754,,,,24.561,,,5.263,3.509,,,,,A 45.614,1
146,1.754,,15.789,61.404,,5.263,1.754,,8.772,,,,,5.263,,,,,,,,E 61.404,3
147,59.649,,1.754,,,1.754,,,,1.754,,,,,5.263,,12.281,17.544,,,,A 59.649,1
148,28.070,,,,,,,5.263,,,,,,,,,1.754,64.912,,,,V 64.912,6
149,3.509,,3.509,5.263,1.754,5.263,5.263,,1.754,,,36.842,,1.754,7.018,22.807,,,5.263,,,N 36.842,1
150,1.754,,,,,,,,78.947,,1.754,3.509,,7.018,5.263,1.754,,,,,,K 78.947,3
151,,,3.509,91.228,,,,,,,,,,1.754,,,1.754,1.754,,,,E 91.228,7
152,7.018,,,,,1.754,,,36.842,10.526,3.509,,,1.754,29.825,7.018,1.754,,,,,K 36.842,1
153,7.018,,3.509,14.035,,,3.509,,,,,,1.754,3.509,,,64.912,1.754,,,,T 64.912,3
154,,,,,100.000,,,,,,,,,,,,,,,,,F 100.000,9
155,,,,,,,,,,98.246,,,,,,,,,,,1.75438596491228,L 98.246,9
156,,,,,,,,,,96.491,1.754,,,,1.754,,,,,,,L 96.491,7
157,,,1.754,,3.509,,3.509,3.509,,,,10.526,,,1.754,17.544,15.789,3.509,,38.596,,Y 38.596,1
158,,,,,,,,,,,,,,,,89.474,8.772,1.754,,,,S 89.474,9
159,,98.246,,,,,,,,,,,,,,1.754,,,,,,C 98.246,9
160,,,,,,,3.509,,,1.754,,,92.982,,,,,1.754,,,,P 92.982,6
161,,,,15.789,,,17.544,,,,,1.754,,63.158,,,,,,1.754,,Q 63.158,3
162,,,,,,,,,5.263,,,,,1.754,92.982,,,,,,,R 92.982,8
163,,,,,,,,,,100.000,,,,,,,,,,,,L 100.000,9
164,,,,1.754,,,,,5.263,77.193,1.754,,,3.509,10.526,,,,,,,L 77.193,3*
165,,,8.772,5.263,,73.684,,,,,,,,,,10.526,1.754,,,,,G 73.684,5
166,,,,,1.754,,96.491,,,,,,,,1.754,,,,,,,H 96.491,8
167,,,,,,,,,,96.491,,,,,1.754,,,1.754,,,,L 96.491,8
168,1.754,,,89.474,,,,,,,,,,8.772,,,,,,,,E 89.474,7
169,,,,,,,1.754,,3.509,,1.754,1.754,,,84.211,1.754,5.263,,,,,R 84.211,5
170,,,,,,96.491,,,,,,,,,,1.754,,1.754,,,,G 96.491,8
171,,,,,,,3.509,,3.509,3.509,,1.754,,1.754,84.211,1.754,,,,,,R 84.211,5
172,,,,1.754,,70.175,1.754,,,,1.754,,,7.018,5.263,7.018,3.509,1.754,,,,G 70.175,1
173,,,1.754,,,,,,,,,91.228,,,,1.754,,,,5.263,,N 91.228,8
174,,,,,7.018,,,1.754,,89.474,,,1.754,,,,,,,,,L 89.474,7
175,1.754,,1.754,87.719,,,1.754,,,,,,,5.263,,,1.754,,,,,E 87.719,7
176,,,,,,1.754,,,,,,,,,1.754,,,,96.491,,,W 96.491,7
177,,,,,1.754,,,,96.491,,,,,1.754,,,,,,,,K 96.491,8
178,,,,96.491,,1.754,,,,,,,,,1.754,,,,,,,E 96.491,8
179,5.263,,,,,,,,,,1.754,,91.228,,1.754,,,,,,,P 91.228,7
180,,,,,,,,,,,,,100.000,,,,,,,,,P 100.000,9
181,,,,5.357,1.786,,,,,,,,1.786,,,89.286,,1.786,,,,S 89.286,8
182,1.818,,,,,,,1.818,,,89.091,,,,,,,7.273,,,,M 89.091,8
183,,,,,,,,,,,,,,,98.214,,,1.786,,,,R 98.214,9
184,3.571,1.786,,,,,,,,89.286,1.786,,,,,,,3.571,,,,L 89.286,6
185,,,,1.786,1.786,5.357,,,87.500,,,,,,3.571,,,,,,,K 87.500,6
186,92.857,,,,,3.571,,,,1.786,,,,,,1.786,,,,,,A 92.857,8
187,,,,1.786,,,5.357,,,,,,,3.571,87.500,1.786,,,,,,R 87.500,7
188,3.571,,,,,,,,,,,,91.071,,,,,5.357,,,,P 91.071,7
189,1.786,,1.786,1.786,,66.071,,,,,,,,,,26.786,1.786,,,,,G 66.071,1
190,1.786,,5.357,,,10.714,,3.571,,,,8.929,1.786,,,66.071,1.786,,,,,S 66.071,4
191,10.714,,1.786,,,,,,,,,1.786,73.214,1.786,,10.714,,,,,,P 73.214,4
192,1.786,,,,,91.071,,,,,,,,,,1.786,3.571,1.786,,,,G 91.071,6
193,,1.786,,,67.857,,,,,5.357,,1.786,1.786,3.571,,10.714,,,3.571,3.571,,F 67.857,1
194,,1.786,,,,,,,,,,,,,,96.429,,1.786,,,,S 96.429,9
195,,,,5.357,,,,3.571,1.786,5.357,1.786,,,,,,7.143,75.000,,,,V 75.000,4
196,,,,,,,,1.786,,98.214,,,,,,,,,,,,L 98.214,9
197,,,,,,,,,,,,,,,,1.786,96.429,1.786,,,,T 96.429,9
198,,100.000,,,,,,,,,,,,,,,,,,,,C 100.000,9
199,7.273,,,,,,,1.818,,,,,,5.455,1.818,80.000,3.636,,,,,S 80.000,7
200,98.182,,,,,,,,,,,,,,,,,1.818,,,,A 98.182,9
201,,,,,98.182,,,,,,,,,,,,1.818,,,,,F 98.182,8
202,,,,,1.818,1.818,,,,,,,,,,96.364,,,,,,S 96.364,9
203,,,,,100.000,,,,,,,,,,,,,,,,,F 100.000,9
204,,,,,9.091,,,,,,,,,,,,,,,90.909,,Y 90.909,7
205,,,,,,,,,,,,,100.000,,,,,,,,,P 100.000,9
206,,,,,,,,,,,,,98.182,,1.818,,,,,,,P 98.182,9
207,,,,98.182,,,,,,,,,1.818,,,,,,,,,E 98.182,9
208,,,,,,,,,,90.909,,,,,,,,9.091,,,,L 90.909,6
209,,,,1.818,,,1.818,,14.545,,,,,78.182,3.636,,,,,,,Q 78.182,6
210,,,,,7.273,,,,,90.909,,,,,,,,1.818,,,,L 90.909,6
211,1.818,,,,,1.818,5.455,,1.818,,,,,1.818,81.818,1.818,3.636,,,,,R 81.818,5
212,,,,,98.182,,,,,,,,,,,,,,1.818,,,F 98.182,8
213,,,,,1.818,,,,,90.909,,,,5.455,,,,1.818,,,,L 90.909,6
214,,,,,,,1.818,,,,,,,1.818,96.364,,,,,,,R 96.364,8
215,,,7.273,5.455,,,,,,,,85.455,,,,1.818,,,,,,N 85.455,7
216,,,1.818,3.636,,92.727,,,,,,1.818,,,,,,,,,,G 92.727,7
217,,,,1.818,,,,,5.455,85.455,5.455,,,1.818,,,,,,,,L 85.455,4
218,89.091,,,1.818,,,,,,1.818,,,7.273,,,,,,,,,A 89.091,8
219,63.636,,,1.818,,,,3.636,,,,,,,,3.636,1.818,25.455,,,,A 63.636,4
220,1.818,,1.818,,,92.727,,,,,,,1.818,,,1.818,,,,,,G 92.727,7
221,3.636,,,5.455,,,,1.818,,,,,1.818,,,63.636,21.818,1.818,,,,S 63.636,4
222,,,,,,92.727,1.818,,,1.818,,,1.818,,,1.818,,,,,,G 92.727,6
223,1.818,,7.273,65.455,,,,,1.818,,,9.091,,3.636,1.818,5.455,,3.636,,,,E 65.455,1
224,1.818,1.818,,,,63.636,,7.273,3.636,,,,1.818,,,20.000,,,,,,G 63.636,1
225,,,49.091,1.818,,29.091,3.636,,,,,5.455,,,,10.909,,,,,,D 49.091,1
226,1.818,1.818,,,41.818,,1.818,9.091,,21.818,3.636,,,1.818,,1.818,3.636,9.091,,1.818,,F 41.818,1
227,,,,5.455,,89.091,,,,1.818,,,,,,1.818,,1.818,,,,G 89.091,6
228,,,,,,,,,,,,,100.000,,,,,,,,,P 100.000,9
229,,,,,,,1.818,,,,,98.182,,,,,,,,,,N 98.182,9
230,1.818,,,,,90.909,,,,,,,,,1.818,5.455,,,,,,G 90.909,6
231,,,98.182,,,1.818,,,,,,,,,,,,,,,,D 98.182,9
232,,,,,,98.182,,,,1.818,,,,,,,,,,,,G 98.182,8
233,3.704,,,,,,,,,,,,,,,92.593,3.704,,,,,S 92.593,8
234,,,,,98.148,,,,,,,,,,,,,,,1.852,,F 98.148,9
235,,,,,,,81.481,,,,,,,1.852,,,,,,16.667,,H 81.481,6
236,89.091,,,,,,,1.818,,1.818,,,,,,7.273,,,,,,A 89.091,8
237,,1.818,,,,,,,,,,,,1.818,5.455,5.455,1.818,,83.636,,,W 83.636,2*
238,3.636,,,,,3.636,,,,,,,,,,90.909,1.818,,,,,S 90.909,8
239,,,,,,,,1.818,,5.455,,,,1.818,,80.000,9.091,,1.818,,,S 80.000,7
240,,,,,,,,3.636,,96.364,,,,,,,,,,,,L 96.364,8
241,1.818,,,10.909,,,,7.273,,1.818,3.636,,,12.727,,1.818,56.364,3.636,,,,T 56.364,1
242,,,1.818,,,,,1.818,,,,,,,,,,96.364,,,,V 96.364,9
243,1.818,,,1.818,,,,,69.091,,,,3.636,12.727,10.909,,,,,,,K 69.091,1
244,,,,,1.818,,1.818,,,,,1.818,1.818,,18.182,74.545,,,,,,S 74.545,6
245,,,,,,100.000,,,,,,,,,,,,,,,,G 100.000,9
246,1.818,,94.545,1.818,,,,,,,,,,,,,,,1.818,,,D 94.545,8
247,,,,96.364,,1.818,,,,,,1.818,,,,,,,,,,E 96.364,8
248,5.455,,,,,,85.455,,,,,,,1.818,1.818,,,,,5.455,,H 85.455,7
249,,,,,,,85.455,,,3.636,,3.636,,1.818,3.636,1.818,,,,,,H 85.455,6
250,,,,,,,,,,,,,,,,,,,1.818,98.182,,Y 98.182,9
251,1.852,20.370,,,,,,,,,,,,9.259,57.407,11.111,,,,,,R 57.407,1
252,,100.000,,,,,,,,,,,,,,,,,,,,C 100.000,9
253,,,,1.852,,,7.407,9.259,,37.037,1.852,,,3.704,1.852,,1.852,29.630,5.556,,,L 37.037,1
254,,,,,,,,,,,,,,,,,,100.000,,,,V 100.000,9
255,,,,11.111,,,,,,,,,,81.481,7.407,,,,,,,Q 81.481,7
256,,,,,,,100.000,,,,,,,,,,,,,,,H 100.000,9
257,64.815,,,3.704,,1.852,,,3.704,,,,5.556,,,1.852,,18.519,,,,A 64.815,3
258,5.556,,,,,92.593,,,,,,,,,,1.852,,,,,,G 92.593,8
259,,,,,,,,,,98.148,,,1.852,,,,,,,,,L 98.148,9
260,50.000,,,,,1.852,,,,1.852,,,31.481,5.556,1.852,3.704,3.704,,,,,A 50.000,1
261,,,,7.547,,,,,7.547,,,,,81.132,1.887,,1.887,,,,,Q 81.132,3
262,1.852,,,,,,,,,,,,94.444,,,1.852,1.852,,,,,P 94.444,7
263,,,,,1.852,,,3.704,,94.444,,,,,,,,,,,,L 94.444,8
264,1.852,,,,1.852,,,5.556,1.852,5.556,3.704,1.852,,,7.407,7.407,61.111,1.852,,,,T 61.111,2
265,1.852,,,,,,,,,,,,,,,,,98.148,,,,V 98.148,9
266,1.852,,12.963,68.519,,1.852,1.852,,1.852,,,3.704,,3.704,,1.852,1.852,,,,,E 68.519,1
267,,,,,5.660,,,,,92.453,,,,,,,,1.887,,,,L 92.453,8
268,,,15.094,81.132,,3.774,,,,,,,,,,,,,,,,E 81.132,6
269,5.769,,,,,,,,,3.846,,,,,,82.692,5.769,,1.923,,,S 82.692,6
270,,,,,,,,,,,,,78.431,1.961,,17.647,1.961,,,,,P 78.431,3*
271,88.000,,,,,2.000,,,,,,,2.000,,,6.000,,2.000,,,,A 88.000,6
272,,,,8.000,,4.000,,,54.000,,,,,2.000,26.000,,6.000,,,,,K 54.000,1
273,,,,,,,,,,,,,,,,95.918,4.082,,,,,S 95.918,9
274,,,,,,,,,,,,,,,,100.000,,,,,,S 100.000,9
