PDB;Chain;Position;Aminoacid;ConSurf;out1;out2;out3;out4;out5;out6;out7;out8;out9;mstatx_wentropy;caprasingh_relative_entropy;caprasingh_property_relative_entropy;caprasingh_property_entropy;caprasingh_sum_of_pairs;mstatx_jensen;caprasingh_shannon_entropy;mstatx_kabat;mstatx_trident;caprasingh_js_divergence
3BT1;U;139;K;1;1;1;1;1;1;1;1;1;1;0.66;0.36;0.36;0.52;0.3;0.8;0.5;0.1;0.34;0.53
2A9K;B;109;E;1;3;3;2;3;3;1;3;3;1;0.59;0.35;0.29;0.53;0.09;0.72;0.5;0.2;0.41;0.55
1BP3;A;18;H;7;5;5;3;4;5;2;3;3;1;0.44;0.49;0.33;0.5;0.34;0.52;0.53;0.02;0.42;0.64
1BP3;A;21;H;8;7;7;4;7;7;4;6;6;2;0.27;0.58;0.36;0.58;0.47;0.45;0.62;0.01;0.54;0.7
1BP3;A;25;F;5;3;3;2;3;4;1;3;3;1;0.55;0.36;0.27;0.46;0.26;0.66;0.47;0.04;0.34;0.5
1BP3;A;62;S;5;4;4;3;4;4;2;3;3;1;0.45;0.41;0.43;0.62;0.33;0.64;0.57;0.02;0.49;0.58
1BP3;A;63;N;6;4;4;3;4;4;2;3;3;1;0.47;0.4;0.37;0.48;0.33;0.63;0.56;0.02;0.47;0.59
1BP3;A;64;R;4;5;5;4;5;6;3;4;4;2;0.36;0.45;0.42;0.64;0.36;0.57;0.61;0.01;0.57;0.64
1BP3;A;65;E;1;3;3;2;3;3;1;3;2;1;0.54;0.37;0.37;0.51;0.3;0.68;0.5;0.03;0.42;0.54
1BP3;A;68;Q;7;6;5;4;5;5;2;5;4;2;0.35;0.49;0.41;0.56;0.31;0.57;0.62;0.01;0.59;0.65
1BP3;A;164;Y;6;3;4;4;2;3;3;2;2;2;0.54;0.43;0.31;0.48;0.32;0.57;0.53;0.02;0.31;0.63
1BP3;A;167;R;6;5;6;5;5;5;3;4;4;2;0.38;0.52;0.44;0.66;0.42;0.51;0.6;0.02;0.41;0.7
1BP3;A;168;K;7;7;7;6;7;7;5;6;6;4;0.26;0.57;0.46;0.7;0.48;0.47;0.67;0.01;0.49;0.74
1BP3;A;171;D;6;5;5;5;5;6;4;4;4;2;0.4;0.54;0.33;0.52;0.42;0.48;0.59;0.01;0.39;0.68
1BP3;A;172;K;8;7;7;6;7;7;5;7;7;4;0.23;0.55;0.38;0.65;0.44;0.47;0.67;0.01;0.5;0.7
1BP3;A;174;E;7;7;7;5;7;7;4;7;6;3;0.25;0.52;0.38;0.61;0.43;0.49;0.65;0.01;0.48;0.67
1BP3;A;176;F;8;6;6;7;5;6;5;4;4;4;0.32;0.51;0.44;0.7;0.44;0.43;0.6;0.01;0.44;0.69
1BP3;A;178;R;5;5;5;4;5;5;3;4;4;2;0.44;0.42;0.36;0.59;0.35;0.54;0.5;0.01;0.35;0.6
1BP3;A;179;I;6;4;4;4;4;4;3;3;3;2;0.49;0.41;0.35;0.63;0.37;0.55;0.49;0.02;0.32;0.58
1BP3;A;183;R;7;7;7;4;7;7;4;7;6;3;0.28;0.48;0.39;0.57;0.39;0.48;0.56;0.01;0.45;0.62
1BP3;A;188;S;7;5;4;4;4;4;3;4;3;2;0.43;0.41;0.31;0.5;0.35;0.5;0.47;0.01;0.27;0.55
3MZG;A;173;H;5;5;5;4;5;5;3;4;4;2;0.5;0.47;0.42;0.55;0.38;0.6;0.54;0.02;0.48;0.61
3MZG;A;27;H;5;5;5;3;6;5;2;5;4;2;0.58;0.34;0.22;0.35;0.27;0.63;0.35;0.03;0.33;0.45
3MZG;A;180;H;4;4;4;3;5;5;2;4;3;1;0.64;0.39;0.33;0.49;0.32;0.73;0.46;0.03;0.35;0.51
3MZG;A;30;H;5;5;4;3;5;5;2;4;3;2;0.58;0.33;0.22;0.4;0.24;0.66;0.35;0.03;0.37;0.45
3MZG;B;188;H;6;5;5;2;6;5;2;5;4;1;0.4;0.56;0.38;0.59;0.47;0.6;0.62;0.02;0.53;0.63
5F4E;A;71;E;4;4;4;3;4;4;2;3;3;1;0.51;0.31;0.29;0.32;0.32;0.66;0.38;0.03;0.4;0.45
5F4E;A;148;W;8;7;7;5;8;7;5;7;6;3;0.15;0.65;0.43;0.72;0.56;0.44;0.72;0.01;0.85;0.72
5F4E;A;157;H;7;6;5;4;6;5;3;6;4;2;0.35;0.51;0.38;0.68;0.43;0.54;0.58;0.01;0.65;0.64
5F4E;A;160;R;6;5;5;3;6;5;2;5;4;1;0.37;0.44;0.39;0.56;0.43;0.63;0.57;0.02;0.63;0.57
5F4E;B;45;E;1;2;2;2;1;2;1;2;2;1;0.76;0.28;0.27;0.32;0.12;0.84;0.35;0.09;0.21;0.38
5F4E;B;62;W;1;2;2;2;2;2;1;2;2;1;0.8;0.3;0.26;0.41;0.08;0.85;0.36;0.06;0.19;0.41
5F4E;B;81;L;1;2;2;2;1;2;1;2;2;1;0.76;0.24;0.23;0.38;0.07;0.91;0.32;0.07;0.24;0.33
5F4E;B;163;K;1;1;2;2;1;2;1;1;2;1;0.79;0.28;0.28;0.35;0.07;0.84;0.35;0.09;0.19;0.39
3SF4;D;31;W;9;7;7;6;8;7;5;7;7;4;0.09;0.87;0.58;0.92;0.77;0.37;0.92;0.01;0.84;0.93
3QDG;D;50;Y;1;2;2;1;2;2;1;2;2;1;0.89;0.08;0.12;0.16;0.06;0.95;0.11;0.21;0.1;0.13
3QDJ;D;50;Y;1;2;2;1;2;2;1;2;2;1;0.89;0.08;0.12;0.16;0.06;0.95;0.11;0.21;0.1;0.13
4L3E;A;65;R;3;4;5;3;4;4;2;3;3;2;0.53;0.29;0.23;0.28;0.25;0.64;0.35;0.03;0.39;0.42
4L3E;E;51;Y;2;3;3;2;4;4;2;3;3;1;0.69;0.24;0.22;0.36;0.24;0.75;0.27;0.05;0.26;0.34
4L3E;D;26;Y;1;4;3;2;4;4;1;3;3;1;0.68;0.23;0.22;0.35;0.22;0.79;0.3;0.05;0.28;0.33
4L3E;D;50;Y;1;2;2;1;2;2;1;2;2;1;0.89;0.08;0.12;0.17;0.06;0.95;0.12;0.21;0.11;0.13
4L3E;A;155;Q;1;2;3;2;2;3;1;2;2;1;0.69;0.2;0.19;0.3;0.19;0.82;0.27;0.07;0.32;0.29
4L3E;D;52;N;1;2;2;2;3;3;1;2;2;1;0.82;0.08;0.12;0.13;0.07;0.89;0.13;0.11;0.17;0.14
4L3E;A;166;E;2;4;4;3;5;4;1;4;3;1;0.57;0.32;0.3;0.45;0.3;0.78;0.45;0.02;0.43;0.43
1BD2;E;30;E;1;2;2;2;2;3;1;2;2;1;0.81;0.18;0.15;0.24;0.07;0.86;0.19;0.13;0.16;0.25
1BD2;C;8;Y;5;5;5;5;5;5;5;5;5;5;0.5;0.5;0.5;0.5;0.5;0.5;0.5;0.5;0.5;0.5
1BD2;D;94;E;1;2;2;1;2;3;1;2;2;1;0.86;0.12;0.15;0.26;0.08;0.9;0.18;0.18;0.13;0.18
1BD2;A;65;R;3;4;5;3;4;4;2;3;3;2;0.53;0.29;0.23;0.28;0.25;0.64;0.35;0.03;0.39;0.42
1BD2;C;5;Y;5;5;5;5;5;5;5;5;5;5;0.5;0.5;0.5;0.5;0.5;0.5;0.5;0.5;0.5;0.5
1BD2;E;104;Y;1;3;3;2;2;3;1;2;2;1;0.73;0.18;0.21;0.29;0.11;0.84;0.23;0.09;0.27;0.28
1AO7;D;26;D;1;3;3;2;3;3;1;3;3;1;0.69;0.22;0.22;0.35;0.21;0.79;0.3;0.05;0.3;0.33
1AO7;A;58;E;4;4;4;3;4;4;2;3;3;2;0.57;0.41;0.38;0.47;0.37;0.67;0.47;0.03;0.35;0.54
1AO7;D;27;R;4;5;4;3;4;4;2;4;3;1;0.57;0.21;0.23;0.35;0.2;0.76;0.31;0.03;0.41;0.3
1AO7;A;170;R;5;5;5;4;5;4;3;4;3;2;0.45;0.36;0.34;0.59;0.29;0.67;0.51;0.02;0.55;0.52
1AO7;C;1;L;5;5;5;5;5;5;5;5;5;5;0.5;0.5;0.5;0.5;0.5;0.5;0.5;0.5;0.5;0.5
1AO7;A;159;Y;6;7;6;4;7;7;3;7;6;2;0.27;0.44;0.4;0.64;0.39;0.54;0.55;0.01;0.73;0.56
1AO7;D;31;S;1;4;4;3;5;4;2;4;3;1;0.58;0.38;0.3;0.44;0.33;0.71;0.42;0.04;0.39;0.47
1AO7;C;5;Y;5;5;5;5;5;5;5;5;5;5;0.5;0.5;0.5;0.5;0.5;0.5;0.5;0.5;0.5;0.5
1AO7;D;50;Y;1;2;2;1;2;2;1;2;2;1;0.9;0.08;0.12;0.17;0.05;0.94;0.12;0.26;0.1;0.13
1AO7;A;155;Q;1;2;3;2;2;3;1;2;2;1;0.69;0.2;0.19;0.3;0.19;0.82;0.27;0.07;0.32;0.29
1AO7;D;52;N;1;2;2;2;3;3;1;2;2;1;0.82;0.08;0.1;0.1;0.07;0.86;0.11;0.11;0.17;0.13
1AO7;A;166;E;2;4;4;3;5;4;1;4;3;1;0.57;0.32;0.3;0.45;0.3;0.78;0.45;0.02;0.43;0.43
1AO7;D;68;K;4;4;4;3;5;5;2;4;3;1;0.58;0.23;0.23;0.35;0.21;0.78;0.34;0.03;0.41;0.34
1AO7;A;163;T;1;3;3;2;2;3;1;2;2;1;0.67;0.26;0.27;0.42;0.11;0.84;0.4;0.05;0.33;0.37
4FTV;D;68;K;4;4;4;3;5;5;2;4;3;1;0.59;0.23;0.23;0.35;0.2;0.78;0.33;0.03;0.4;0.34
4FTV;A;163;T;1;3;3;2;2;3;1;2;2;1;0.67;0.26;0.27;0.42;0.11;0.84;0.4;0.05;0.33;0.37
1AO7;D;93;T;1;2;3;2;3;3;1;3;3;1;0.78;0.21;0.23;0.34;0.11;0.89;0.28;0.12;0.22;0.26
1AO7;D;98;T;1;2;2;1;2;2;1;2;2;1;0.88;0.11;0.14;0.24;0.07;0.93;0.17;0.18;0.12;0.16
1AO7;A;65;R;3;4;5;3;4;4;2;3;3;2;0.53;0.29;0.23;0.28;0.25;0.64;0.35;0.03;0.39;0.42
4FTV;D;99;D;1;3;3;2;3;3;1;3;2;1;0.77;0.12;0.13;0.15;0.1;0.77;0.18;0.1;0.16;0.21
4FTV;A;65;R;3;4;5;3;4;4;2;3;3;2;0.53;0.29;0.23;0.28;0.25;0.64;0.35;0.03;0.39;0.42
1AO7;D;100;S;1;4;4;3;4;4;2;3;3;1;0.64;0.19;0.2;0.21;0.19;0.75;0.28;0.05;0.32;0.31
1AO7;D;101;W;1;3;3;2;3;3;1;3;2;1;0.72;0.19;0.19;0.26;0.12;0.8;0.28;0.09;0.25;0.31
1AO7;E;30;E;1;2;2;2;2;3;1;2;2;1;0.81;0.19;0.16;0.25;0.07;0.86;0.2;0.13;0.16;0.26
1AO7;C;8;Y;5;5;5;5;5;5;5;5;5;5;0.5;0.5;0.5;0.5;0.5;0.5;0.5;0.5;0.5;0.5
3D3V;E;30;E;1;2;2;2;2;3;1;2;2;1;0.81;0.19;0.16;0.25;0.07;0.86;0.2;0.13;0.16;0.26
3D3V;C;8;Y;5;5;5;5;5;5;5;5;5;5;0.5;0.5;0.5;0.5;0.5;0.5;0.5;0.5;0.5;0.5
1AO7;E;95;R;4;4;4;2;5;5;2;4;4;1;0.56;0.34;0.34;0.45;0.34;0.75;0.45;0.03;0.41;0.43
3D3V;E;98;L;1;3;3;2;3;3;1;3;2;1;0.6;0;0;0;0;0.44;0;0.04;0.05;0
1AO7;E;103;P;1;2;3;2;2;3;1;2;2;1;0.74;0.09;0.13;0.18;0.11;0.84;0.13;0.11;0.26;0.16
1AO7;D;99;D;1;2;2;1;2;2;1;2;2;1;0.87;0.04;0.08;0.13;0.07;0.81;0.08;0.22;0.08;0.07
1AO7;A;72;Q;4;5;4;3;5;4;2;4;3;1;0.6;0.23;0.19;0.19;0.21;0.71;0.25;0.02;0.33;0.31
1AO7;E;102;R;1;2;3;2;2;3;1;2;2;1;0.76;0.09;0.13;0.16;0.1;0.85;0.12;0.09;0.24;0.15
4JFF;C;1;E;5;5;5;5;5;5;5;5;5;5;0.5;0.5;0.5;0.5;0.5;0.5;0.5;0.5;0.5;0.5
4JFF;C;4;G;5;5;5;5;5;5;5;5;5;5;0.5;0.5;0.5;0.5;0.5;0.5;0.5;0.5;0.5;0.5
4JFF;C;5;I;5;5;5;5;5;5;5;5;5;5;0.5;0.5;0.5;0.5;0.5;0.5;0.5;0.5;0.5;0.5
4JFF;C;6;G;5;5;5;5;5;5;5;5;5;5;0.5;0.5;0.5;0.5;0.5;0.5;0.5;0.5;0.5;0.5
4JFF;C;7;I;5;5;5;5;5;5;5;5;5;5;0.5;0.5;0.5;0.5;0.5;0.5;0.5;0.5;0.5;0.5
4JFF;C;8;L;5;5;5;5;5;5;5;5;5;5;0.5;0.5;0.5;0.5;0.5;0.5;0.5;0.5;0.5;0.5
4JFF;C;9;T;5;5;5;5;5;5;5;5;5;5;0.5;0.5;0.5;0.5;0.5;0.5;0.5;0.5;0.5;0.5
1LP9;A;163;T;1;3;3;2;2;3;1;2;2;1;0.67;0.26;0.27;0.42;0.11;0.84;0.4;0.05;0.33;0.37
1LP9;A;167;W;1;5;4;3;6;5;2;5;4;1;0.48;0.46;0.35;0.51;0.36;0.67;0.51;0.02;0.52;0.53
1LP9;A;66;K;1;2;2;2;2;2;1;2;2;1;0.79;0.17;0.15;0.24;0.06;0.84;0.24;0.07;0.18;0.26
1AO7;A;66;K;1;2;2;2;2;2;1;2;2;1;0.79;0.17;0.15;0.24;0.06;0.84;0.24;0.07;0.18;0.26
1BD2;A;66;K;1;2;2;2;2;2;1;2;2;1;0.79;0.17;0.15;0.24;0.06;0.84;0.24;0.07;0.18;0.26
1AO7;C;6;P;5;5;5;5;5;5;5;5;5;5;0.5;0.5;0.5;0.5;0.5;0.5;0.5;0.5;0.5;0.5
1MI5;D;26;T;6;3;3;2;3;3;1;3;2;1;0.14;0;0;0;0;0.05;0;0.0;0.0;0
1MI5;D;28;S;5;5;5;3;5;5;2;4;4;2;0.53;0.23;0.25;0.39;0.2;0.7;0.31;0.03;0.43;0.34
1MI5;D;30;T;1;3;3;2;2;3;1;2;2;1;0.74;0.19;0.18;0.25;0.11;0.68;0.23;0.13;0.14;0.29
1MI5;D;31;Y;1;4;4;2;5;5;2;4;4;1;0.59;0.38;0.31;0.45;0.37;0.7;0.4;0.04;0.39;0.48
1MI5;D;33;H;2;4;4;3;4;4;2;3;3;1;0.58;0.41;0.35;0.51;0.32;0.66;0.45;0.04;0.4;0.55
1MI5;D;48;H;1;3;2;2;3;3;1;3;2;1;0.79;0.19;0.22;0.39;0.19;0.83;0.27;0.14;0.2;0.32
1MI5;D;50;L;1;2;2;1;2;2;1;2;2;1;0.87;0.08;0.11;0.14;0.05;0.94;0.14;0.26;0.12;0.14
1MI5;D;51;T;4;4;4;3;4;4;1;3;3;1;0.65;0.14;0.17;0.22;0.16;0.79;0.22;0.04;0.34;0.23
1MI5;D;52;S;1;3;2;2;3;3;1;2;2;1;0.79;0.1;0.13;0.13;0.07;0.85;0.16;0.11;0.2;0.18
1MI5;D;94;L;1;2;2;1;2;2;1;2;2;1;0.9;0.1;0.11;0.21;0.08;0.89;0.15;0.18;0.09;0.15
1MI5;D;96;G;1;3;3;2;3;3;1;3;2;1;0.35;0;0;0;0;0.18;0;0.02;0.01;0
1MI5;D;97;G;1;3;3;2;3;3;1;3;2;1;0.53;0;0;0;0;0.4;0;0.05;0.05;0
1MI5;D;98;T;1;3;2;2;3;3;1;3;2;1;0.78;0.12;0.12;0.16;0.09;0.64;0.19;0.09;0.08;0.21
1MI5;D;99;S;1;4;4;3;4;4;2;3;3;1;0.64;0.17;0.18;0.19;0.19;0.72;0.25;0.05;0.29;0.29
1MI5;D;100;Y;1;3;3;2;3;4;2;3;3;1;0.67;0.19;0.2;0.24;0.11;0.76;0.26;0.08;0.31;0.31
1MI5;E;30;V;1;2;2;2;2;3;1;2;2;1;0.87;0.15;0.13;0.2;0.07;0.89;0.15;0.16;0.11;0.2
1MI5;E;31;S;1;3;3;2;3;4;1;3;3;1;0.75;0.29;0.2;0.34;0.29;0.79;0.27;0.07;0.22;0.35
1MI5;E;50;Q;1;3;3;2;3;4;1;3;3;1;0.75;0.15;0.11;0.19;0.11;0.72;0.17;0.07;0.16;0.22
1MI5;E;51;N;1;3;3;2;3;3;1;3;3;1;0.74;0.09;0.08;0.1;0.14;0.81;0.12;0.09;0.21;0.13
1MI5;E;52;E;1;2;2;2;2;3;1;2;2;1;0.71;0.05;0.01;0.12;0.1;0.7;0.1;0.07;0.12;0.08
1MI5;E;96;L;1;2;2;2;2;3;1;2;2;1;0.85;0.17;0.17;0.24;0.07;0.94;0.25;0.11;0.15;0.25
1MI5;E;97;G;1;2;2;2;2;2;1;2;2;1;0.86;0.05;0.08;0.11;0.07;0.88;0.06;0.14;0.11;0.08
1MI5;E;98;Q;1;2;3;2;2;3;1;2;2;1;0.81;0.07;0.09;0.12;0.1;0.89;0.09;0.1;0.17;0.11
1MI5;E;100;Y;1;2;3;2;2;3;1;2;2;1;0.77;0.09;0.11;0.11;0.11;0.84;0.1;0.1;0.21;0.15
2AK4;D;29;T;1;3;2;2;2;3;1;2;2;1;0.8;0.14;0.15;0.19;0.1;0.73;0.17;0.17;0.12;0.23
2AK4;D;31;Y;1;4;4;3;5;5;2;4;4;1;0.56;0.44;0.35;0.53;0.39;0.71;0.49;0.04;0.43;0.53
2AK4;D;50;N;1;1;1;1;2;2;1;2;2;1;0.92;0.09;0.13;0.18;0.04;0.97;0.13;0.24;0.08;0.13
2AK4;D;52;F;1;2;2;2;3;3;1;2;2;1;0.82;0.08;0.12;0.14;0.07;0.88;0.13;0.1;0.18;0.15
2AK4;D;93;S;1;2;2;1;3;3;1;2;2;1;0.8;0.22;0.23;0.32;0.09;0.88;0.28;0.11;0.2;0.28
2AK4;D;95;F;1;1;2;1;2;2;1;2;2;1;0.9;0.06;0.09;0.16;0.06;0.87;0.09;0.22;0.07;0.09
2AK4;D;96;Y;1;2;2;2;2;3;1;2;2;1;0.74;0;0;0;0;0.59;0;0.07;0.07;0
2AK4;D;97;N;1;4;4;3;4;4;2;3;3;1;0.66;0.18;0.19;0.22;0.17;0.78;0.27;0.05;0.31;0.3
2AK4;E;28;N;3;3;3;3;3;3;2;3;2;1;0.68;0.16;0.12;0.16;0.18;0.73;0.18;0.05;0.23;0.26
2AK4;E;29;H;5;4;4;3;5;4;2;4;3;1;0.65;0.19;0.11;0.15;0.19;0.67;0.18;0.03;0.24;0.27
2AK4;E;30;N;1;2;2;2;2;3;1;2;2;1;0.81;0.21;0.16;0.24;0.08;0.82;0.21;0.14;0.14;0.28
2AK4;E;33;Y;4;5;5;4;5;5;3;4;4;2;0.48;0.42;0.31;0.44;0.4;0.58;0.41;0.02;0.38;0.52
2AK4;E;51;S;1;3;3;2;3;3;2;3;3;1;0.71;0.09;0.08;0.1;0.15;0.75;0.12;0.08;0.21;0.16
2AK4;E;95;P;4;4;4;2;5;5;1;4;4;1;0.59;0.32;0.31;0.4;0.33;0.75;0.41;0.03;0.36;0.4
2AK4;E;98;L;1;2;2;2;2;2;1;2;2;1;0.77;0.03;0.01;0.08;0.06;0.67;0.07;0.08;0.08;0.04
2AK4;E;101;E;1;2;3;2;2;3;1;2;2;1;0.76;0.11;0.14;0.19;0.1;0.85;0.15;0.09;0.23;0.18
2AK4;A;65;Q;3;4;4;3;4;4;2;3;3;2;0.56;0.28;0.24;0.31;0.25;0.67;0.33;0.03;0.36;0.38
2AK4;A;69;T;1;2;2;2;1;2;1;2;2;1;0.75;0.13;0.14;0.15;0.16;0.82;0.18;0.07;0.21;0.21
2AK4;A;151;R;1;3;2;2;3;3;1;3;2;1;0.74;0.13;0.17;0.24;0.1;0.88;0.24;0.04;0.26;0.21
2AK4;A;154;E;5;6;5;3;6;5;2;5;4;2;0.44;0.28;0.28;0.4;0.28;0.68;0.39;0.02;0.56;0.39
2AK4;A;155;Q;1;3;3;2;2;3;1;2;2;1;0.66;0.24;0.22;0.31;0.23;0.78;0.32;0.05;0.35;0.34
2AK4;A;157;R;7;6;6;4;5;5;3;4;4;2;0.35;0.39;0.37;0.62;0.37;0.6;0.54;0.01;0.65;0.55
2AK4;A;161;E;6;6;5;4;6;5;2;5;5;2;0.36;0.42;0.39;0.56;0.4;0.66;0.59;0.01;0.64;0.55
2AK4;A;163;L;1;3;3;2;2;3;1;2;2;1;0.66;0.29;0.3;0.43;0.26;0.84;0.43;0.04;0.34;0.4
2AK4;C;4;P;5;5;5;5;5;5;5;5;5;5;0.5;0.5;0.5;0.5;0.5;0.5;0.5;0.5;0.5;0.5
2AK4;C;5;L;5;5;5;5;5;5;5;5;5;5;0.5;0.5;0.5;0.5;0.5;0.5;0.5;0.5;0.5;0.5
2AK4;C;6;P;5;5;5;5;5;5;5;5;5;5;0.5;0.5;0.5;0.5;0.5;0.5;0.5;0.5;0.5;0.5
2AK4;C;7;Q;5;5;5;5;5;5;5;5;5;5;0.5;0.5;0.5;0.5;0.5;0.5;0.5;0.5;0.5;0.5
2AK4;C;9;Q;5;5;5;5;5;5;5;5;5;5;0.5;0.5;0.5;0.5;0.5;0.5;0.5;0.5;0.5;0.5
2AK4;C;10;L;5;5;5;5;5;5;5;5;5;5;0.5;0.5;0.5;0.5;0.5;0.5;0.5;0.5;0.5;0.5
1AO7;A;167;W;1;5;4;3;6;5;2;5;4;1;0.48;0.46;0.35;0.51;0.36;0.67;0.51;0.02;0.52;0.53
2BNR;A;43;Q;4;4;3;3;3;3;2;3;2;1;0.65;0.24;0.2;0.29;0.17;0.69;0.29;0.03;0.27;0.36
2BNR;A;58;E;4;4;4;3;4;4;2;3;3;1;0.6;0.32;0.29;0.35;0.29;0.69;0.37;0.03;0.32;0.42
2BNR;A;64;T;9;7;7;5;7;7;4;7;6;3;0.27;0.34;0.31;0.46;0.31;0.54;0.44;0.01;0.56;0.45
2BNR;A;65;R;3;4;3;3;3;3;1;3;3;1;0.63;0.24;0.2;0.22;0.22;0.7;0.27;0.04;0.29;0.33
2BNR;A;66;K;1;2;2;2;2;2;1;2;2;1;0.78;0.16;0.15;0.22;0.08;0.81;0.21;0.08;0.18;0.24
2BNR;A;68;K;4;4;4;3;4;3;2;3;3;1;0.62;0.19;0.16;0.22;0.18;0.69;0.23;0.02;0.3;0.3
2BNR;A;70;H;1;1;1;1;1;2;1;2;1;1;0.85;0.15;0.13;0.16;0.07;0.81;0.14;0.12;0.12;0.22
2BNR;A;72;Q;6;5;4;3;6;5;2;5;4;2;0.51;0.28;0.22;0.24;0.23;0.65;0.3;0.02;0.4;0.36
2BNR;A;73;T;1;2;2;2;2;2;1;2;2;1;0.78;0.16;0.15;0.26;0.11;0.81;0.19;0.08;0.18;0.24
2BNR;A;75;R;5;5;4;2;5;4;2;4;3;1;0.61;0.25;0.23;0.33;0.24;0.7;0.3;0.03;0.31;0.35
2BNR;A;76;V;1;3;3;2;3;3;1;3;2;1;0.71;0.17;0.15;0.29;0.11;0.79;0.24;0.04;0.24;0.25
2BNR;A;80;T;4;4;3;2;4;3;2;3;2;1;0.66;0.2;0.17;0.35;0.19;0.76;0.27;0.03;0.28;0.3
2BNR;A;146;K;5;6;5;3;6;6;3;6;5;2;0.37;0.42;0.37;0.56;0.36;0.66;0.57;0.01;0.63;0.54
2BNR;A;151;H;1;3;3;2;3;3;1;3;2;1;0.71;0.16;0.17;0.26;0.12;0.84;0.24;0.04;0.27;0.25
2BNR;A;152;V;1;1;2;1;1;2;1;2;2;1;0.82;0.15;0.16;0.24;0.07;0.88;0.2;0.1;0.18;0.23
2BNR;A;154;E;6;5;5;3;5;5;2;5;4;2;0.46;0.28;0.26;0.37;0.27;0.68;0.37;0.02;0.53;0.39
2BNR;A;155;Q;1;2;2;2;2;3;1;2;2;1;0.7;0.22;0.21;0.28;0.19;0.8;0.27;0.06;0.29;0.31
2BNR;A;163;T;1;3;3;2;3;3;1;3;3;1;0.59;0.33;0.32;0.49;0.28;0.79;0.49;0.04;0.41;0.45
1AO7;A;55;E;4;4;4;3;4;4;2;3;3;1;0.61;0.22;0.2;0.21;0.18;0.72;0.27;0.03;0.32;0.31
1AO7;A;68;K;3;4;4;3;4;4;2;3;3;1;0.63;0.19;0.15;0.23;0.19;0.72;0.23;0.03;0.31;0.29
1AO7;A;73;T;1;2;2;2;2;3;1;2;2;1;0.76;0.16;0.14;0.24;0.12;0.8;0.19;0.08;0.2;0.24
1AO7;A;151;H;1;3;3;2;3;3;1;2;2;1;0.7;0.14;0.16;0.22;0.12;0.84;0.22;0.04;0.29;0.23
1AO7;A;152;V;1;1;1;1;1;1;0;2;2;1;0.85;0.12;0.14;0.22;0.04;0.92;0.19;0.1;0.15;0.19
1AO7;A;154;E;5;5;4;3;5;5;2;5;4;2;0.5;0.23;0.23;0.37;0.24;0.73;0.35;0.02;0.51;0.34
3HG1;C;4;G;5;5;5;5;5;5;5;5;5;5;0.5;0.5;0.5;0.5;0.5;0.5;0.5;0.5;0.5;0.5
3HG1;C;6;G;5;5;5;5;5;5;5;5;5;5;0.5;0.5;0.5;0.5;0.5;0.5;0.5;0.5;0.5;0.5
3HG1;C;7;I;5;5;5;5;5;5;5;5;5;5;0.5;0.5;0.5;0.5;0.5;0.5;0.5;0.5;0.5;0.5
3HG1;C;8;L;5;5;5;5;5;5;5;5;5;5;0.5;0.5;0.5;0.5;0.5;0.5;0.5;0.5;0.5;0.5
3HG1;C;9;T;5;5;5;5;5;5;5;5;5;5;0.5;0.5;0.5;0.5;0.5;0.5;0.5;0.5;0.5;0.5
4MNQ;C;4;K;5;5;5;5;5;5;5;5;5;5;0.5;0.5;0.5;0.5;0.5;0.5;0.5;0.5;0.5;0.5
4MNQ;C;6;L;5;5;5;5;5;5;5;5;5;5;0.5;0.5;0.5;0.5;0.5;0.5;0.5;0.5;0.5;0.5
1AO7;D;28;G;1;3;3;2;3;3;1;3;2;1;0.8;0.12;0.14;0.2;0.07;0.83;0.18;0.12;0.16;0.19
1AO7;D;29;S;1;3;3;2;3;3;1;3;2;1;0.75;0.17;0.18;0.24;0.11;0.76;0.21;0.1;0.18;0.25
1AO7;E;101;G;1;2;2;2;2;3;1;2;2;1;0.82;0.05;0.1;0.13;0.08;0.93;0.08;0.14;0.18;0.08
3BX1;C;87;Y;1;3;3;2;3;3;1;3;2;1;0.75;0.21;0.21;0.47;0.1;0.89;0.36;0.07;0.25;0.3
3BX1;C;89;T;4;4;4;3;4;4;2;3;3;1;0.61;0.35;0.36;0.59;0.3;0.78;0.49;0.04;0.39;0.46
3SZK;C;125;Y;7;6;6;5;6;6;4;5;5;3;0.21;0.6;0.56;0.86;0.46;0.46;0.71;0.03;0.79;0.79
3SZK;C;126;Y;8;8;8;7;8;8;6;8;7;5;0.0;0.69;0.56;0.88;0.54;0.4;0.83;0.01;1.0;0.85
3SZK;C;128;F;5;5;5;4;5;5;2;4;3;2;0.33;0.59;0.51;0.79;0.41;0.52;0.72;0.05;0.67;0.79
3SZK;C;129;F;6;5;5;4;5;5;3;4;4;2;0.29;0.52;0.41;0.74;0.32;0.56;0.72;0.05;0.71;0.74
3SZK;C;151;N;4;4;3;3;3;3;2;3;2;1;0.44;0.45;0.44;0.68;0.3;0.58;0.61;0.11;0.56;0.7
3SZK;C;154;S;4;4;4;3;4;4;2;3;3;1;0.42;0.49;0.45;0.75;0.32;0.6;0.62;0.07;0.58;0.71
3SZK;C;155;T;7;5;5;4;5;5;2;4;4;2;0.32;0.53;0.51;0.8;0.37;0.56;0.7;0.04;0.68;0.75
3SZK;C;205;D;4;5;5;4;5;5;2;4;3;2;0.45;0.32;0.22;0.32;0.2;0.5;0.37;0.09;0.3;0.52
4HRN;D;25;L;1;5;4;3;5;5;2;4;4;1;0.51;0.32;0.26;0.5;0.27;0.68;0.48;0.03;0.46;0.47
4HRN;D;51;S;2;3;3;2;3;3;1;3;3;1;0.65;0.23;0.27;0.5;0.24;0.82;0.36;0.06;0.35;0.34
4HRN;D;52;V;1;3;2;2;3;3;1;3;2;1;0.74;0.25;0.28;0.51;0.1;0.9;0.37;0.08;0.26;0.35
4HRN;D;55;F;1;3;3;2;3;3;2;3;2;1;0.7;0.35;0.36;0.55;0.11;0.79;0.47;0.04;0.3;0.49
3R9A;A;330;Y;4;4;4;3;4;4;2;3;3;1;0.54;0.36;0.35;0.61;0.33;0.69;0.52;0.03;0.45;0.52
3G6D;H;103;F;1;3;3;2;3;3;1;3;2;1;0.57;0;0;0;0;0.34;0;0.03;0.02;0
3G6D;H;104;H;1;1;1;1;1;1;1;1;1;1;0.72;0;0;0;0;0.52;0;0.05;0.05;0
3G6D;H;105;W;1;1;1;1;1;2;1;1;1;1;0.71;0;0;0;0;0.61;0;0.06;0.09;0
3Q8D;A;210;R;9;9;8;7;9;8;6;9;8;6;0.06;0.5;0.39;0.77;0.4;0.45;0.7;0.0;0.92;0.65
3Q8D;A;228;F;8;7;6;5;6;6;4;5;5;3;0.33;0.42;0.34;0.57;0.34;0.56;0.58;0.01;0.61;0.57
3Q8D;A;229;R;3;4;3;3;4;4;2;3;3;1;0.71;0.25;0.22;0.4;0.24;0.67;0.36;0.05;0.15;0.36
3Q8D;A;132;R;9;9;9;8;9;9;7;9;9;7;0.0;0.58;0.48;0.87;0.49;0.42;0.83;0.0;1.0;0.76
3AAA;A;256;K;9;8;8;7;8;8;6;8;8;5;0.11;0.57;0.48;0.8;0.46;0.48;0.8;0.0;0.8;0.74
3AAA;A;260;R;9;8;8;7;8;8;6;8;8;5;0.12;0.58;0.47;0.76;0.45;0.46;0.79;0.0;0.77;0.74
3AAA;A;266;R;7;7;6;5;7;6;4;7;6;3;0.33;0.46;0.42;0.66;0.36;0.56;0.62;0.01;0.59;0.63
3AAA;C;8;W;1;3;3;2;3;3;1;3;2;1;0.46;0;0;0;0;0.2;0;0.02;0.01;0
3AAA;C;44;D;1;3;2;2;3;3;1;3;2;1;0.9;0.17;0.19;0.34;0.06;0.96;0.26;0.15;0.11;0.24
3AAA;C;78;E;2;3;3;2;3;3;2;3;2;1;0.81;0.19;0.19;0.3;0.1;0.9;0.28;0.1;0.19;0.27
3BT1;U;8;T;1;2;2;2;1;2;1;1;2;1;0.63;0.29;0.26;0.31;0.25;0.72;0.35;0.1;0.28;0.43
3BT1;U;9;N;1;2;2;2;2;2;1;2;2;1;0.62;0.35;0.32;0.41;0.34;0.67;0.39;0.09;0.29;0.49
3BT1;U;10;G;3;5;5;3;5;5;1;4;4;1;0.42;0.34;0.28;0.35;0.32;0.61;0.44;0.03;0.44;0.48
3BT1;U;11;D;1;1;2;2;1;2;1;1;1;1;0.71;0.28;0.23;0.23;0.12;0.73;0.31;0.13;0.22;0.42
3BT1;U;25;R;9;7;7;5;7;7;4;7;7;3;0.2;0.56;0.43;0.67;0.45;0.46;0.69;0.01;0.61;0.72
3BT1;U;27;T;9;7;8;6;7;7;5;7;7;4;0.18;0.55;0.46;0.73;0.46;0.46;0.68;0.01;0.62;0.71
3BT1;U;29;V;1;3;3;3;3;3;2;2;2;1;0.56;0.37;0.31;0.66;0.32;0.65;0.5;0.04;0.33;0.54
3BT1;U;31;L;1;2;2;2;2;2;1;1;1;1;0.68;0.28;0.25;0.38;0.21;0.7;0.33;0.08;0.24;0.45
3BT1;U;33;E;4;5;5;4;5;5;2;4;4;2;0.42;0.62;0.37;0.5;0.57;0.58;0.6;0.02;0.42;0.7
3BT1;U;36;E;1;4;3;2;4;4;1;3;3;1;0.47;0.33;0.29;0.39;0.28;0.63;0.45;0.03;0.44;0.48
3BT1;U;38;L;6;5;4;3;6;4;2;5;3;1;0.37;0.37;0.3;0.6;0.32;0.63;0.55;0.02;0.52;0.53
3BT1;U;39;E;5;5;4;3;5;4;2;5;3;1;0.36;0.41;0.34;0.57;0.34;0.58;0.56;0.02;0.53;0.56
3BT1;U;40;L;5;5;5;3;5;5;2;4;4;1;0.4;0.39;0.3;0.62;0.31;0.6;0.55;0.02;0.5;0.55
3BT1;U;41;V;7;6;5;3;6;5;2;6;4;2;0.31;0.41;0.3;0.63;0.34;0.56;0.59;0.02;0.57;0.58
3BT1;U;42;E;3;4;3;2;4;4;1;4;3;1;0.48;0.41;0.33;0.51;0.34;0.65;0.53;0.03;0.44;0.55
3BT1;U;46;T;6;5;4;4;5;4;2;4;3;2;0.4;0.42;0.35;0.48;0.34;0.6;0.56;0.02;0.5;0.59
3BT1;U;50;K;8;7;7;5;7;7;4;7;6;3;0.16;0.55;0.44;0.67;0.41;0.49;0.72;0.01;0.73;0.72
3BT1;U;53;R;8;6;5;4;6;5;3;6;4;2;0.3;0.55;0.45;0.71;0.4;0.55;0.7;0.02;0.61;0.71
3BT1;U;54;T;8;6;5;4;5;4;3;5;3;2;0.31;0.53;0.48;0.77;0.41;0.56;0.69;0.01;0.61;0.7
3BT1;U;55;L;6;6;5;4;6;5;3;5;4;2;0.32;0.61;0.41;0.8;0.43;0.53;0.7;0.02;0.6;0.72
3BT1;U;57;Y;7;7;5;4;7;6;3;6;4;2;0.25;0.57;0.47;0.73;0.47;0.49;0.69;0.01;0.65;0.71
3BT1;U;59;T;3;3;2;2;3;3;1;2;2;1;0.58;0.37;0.32;0.53;0.32;0.71;0.49;0.05;0.37;0.51
3BT1;U;61;L;1;1;1;1;1;1;0;1;1;1;0.74;0.31;0.22;0.42;0.09;0.78;0.4;0.12;0.23;0.45
3BT1;U;62;K;3;4;4;2;4;4;2;3;3;1;0.46;0.41;0.31;0.47;0.32;0.62;0.51;0.04;0.47;0.57
3BT1;U;64;T;7;5;5;4;6;5;3;5;4;2;0.36;0.42;0.3;0.62;0.33;0.58;0.59;0.02;0.55;0.6
3BT1;U;66;L;9;7;7;6;7;7;5;7;7;4;0.12;0.48;0.35;0.74;0.37;0.5;0.75;0.01;0.77;0.69
3BT1;U;67;T;5;4;3;2;4;3;1;3;2;1;0.49;0.38;0.33;0.57;0.29;0.66;0.55;0.03;0.44;0.56
3BT1;U;68;E;9;7;7;5;7;7;4;7;6;3;0.16;0.53;0.48;0.74;0.43;0.48;0.72;0.01;0.73;0.71
3BT1;U;101;S;8;5;5;4;5;5;2;5;5;2;0.23;0.56;0.52;0.8;0.4;0.6;0.8;0.01;0.77;0.74
3BT1;U;125;V;8;6;5;4;6;6;3;6;4;2;0.22;0.52;0.44;0.88;0.42;0.56;0.76;0.01;0.78;0.71
3BT1;U;126;V;8;7;6;5;7;6;4;6;4;3;0.16;0.49;0.38;0.83;0.38;0.52;0.74;0.01;0.84;0.7
3BT1;U;127;T;8;7;5;4;6;6;3;6;5;2;0.17;0.51;0.43;0.78;0.38;0.54;0.72;0.01;0.83;0.69
3BT1;U;134;E;1;3;3;2;3;3;1;3;2;1;0.26;0;0;0;0;0.15;0;0.02;0.01;0
3BT1;U;135;E;2;3;3;2;3;3;1;3;2;1;0.25;0;0;0;0;0.14;0;0.02;0.01;0
3BT1;U;138;P;1;3;4;2;3;4;1;3;3;1;0.44;0.31;0.3;0.37;0.2;0.67;0.45;0.05;0.53;0.46
3BT1;U;140;D;8;7;7;4;7;7;3;6;6;2;0.09;0.55;0.49;0.77;0.46;0.47;0.73;0.01;0.91;0.73
3BT1;U;141;D;9;6;6;5;6;6;4;6;6;3;0.18;0.5;0.48;0.77;0.41;0.51;0.68;0.01;0.82;0.7
3BT1;U;144;L;1;3;3;3;2;3;2;2;2;1;0.5;0.46;0.46;0.74;0.37;0.69;0.63;0.04;0.5;0.65
3BT1;U;150;L;8;7;6;5;6;6;3;6;5;2;0.16;0.56;0.51;0.85;0.5;0.55;0.82;0.01;0.83;0.75
3BT1;U;151;P;9;7;7;6;7;6;5;7;6;4;0.07;0.64;0.67;0.84;0.58;0.47;0.86;0.0;0.93;0.81
3BT1;U;157;N;5;4;3;2;4;4;1;3;3;1;0.45;0.49;0.45;0.77;0.43;0.7;0.7;0.03;0.55;0.65
3BT1;U;166;H;9;7;6;5;7;6;4;6;5;3;0.15;0.67;0.46;0.83;0.54;0.46;0.8;0.01;0.85;0.81
3BT1;U;167;F;7;6;6;5;7;6;3;5;4;2;0.18;0.63;0.57;0.86;0.53;0.5;0.82;0.01;0.82;0.8
3BT1;U;168;L;9;8;8;7;7;7;6;7;7;6;0.0;0.65;0.54;0.94;0.55;0.47;0.93;0.0;1.0;0.84
3BT1;U;230;E;1;4;3;3;3;3;1;3;2;1;0.5;0.31;0.26;0.37;0.26;0.67;0.46;0.04;0.42;0.48
3BT1;U;251;H;8;7;7;5;7;7;4;6;7;3;0.21;0.52;0.3;0.48;0.46;0.42;0.53;0.01;0.57;0.63
3BT1;U;254;D;8;5;5;5;4;5;3;3;3;2;0.37;0.43;0.34;0.54;0.38;0.53;0.5;0.02;0.45;0.59
3BT1;U;257;S;1;2;3;2;2;3;1;2;2;1;0.58;0.32;0.19;0.29;0.26;0.7;0.38;0.07;0.3;0.43
3LB6;A;14;I;9;7;7;5;7;7;4;7;6;3;0.17;0.56;0.4;0.82;0.43;0.47;0.79;0.01;0.69;0.76
3LB6;A;104;K;3;5;5;5;5;4;3;4;3;2;0.34;0.41;0.38;0.65;0.34;0.54;0.54;0.02;0.6;0.6
3LB6;A;105;K;1;2;2;1;2;2;1;2;2;1;0.7;0.32;0.28;0.48;0.25;0.78;0.41;0.1;0.26;0.47
3LB6;A;107;F;1;4;4;4;4;4;3;3;3;2;0.39;0.42;0.4;0.59;0.34;0.54;0.51;0.03;0.53;0.6
4K71;A;464;H;9;6;6;5;6;6;4;5;4;3;0.29;0.55;0.4;0.59;0.4;0.47;0.64;0.01;0.68;0.7
4K71;B;161;H;3;4;3;3;4;3;2;3;2;1;0.4;0.52;0.48;0.65;0.37;0.56;0.67;0.02;0.6;0.73
3UIG;A;51;E;7;5;5;3;5;5;2;5;4;2;0.46;0.35;0.37;0.47;0.31;0.7;0.49;0.02;0.53;0.46
3UIG;A;63;E;8;6;6;4;6;5;3;6;5;2;0.31;0.49;0.44;0.7;0.45;0.61;0.71;0.01;0.69;0.66
3UIG;A;64;L;9;8;8;6;8;7;5;8;7;4;0.07;0.54;0.41;0.84;0.5;0.51;0.82;0.0;0.93;0.73
3UIG;A;65;E;8;6;6;5;5;5;3;5;4;2;0.3;0.54;0.51;0.85;0.47;0.56;0.76;0.01;0.7;0.73
3UIG;A;67;W;9;8;8;8;8;8;7;8;8;7;0.0;0.77;0.57;0.89;0.74;0.35;0.86;0.0;1.0;0.85
3UIG;A;71;D;9;8;8;6;8;7;5;8;7;4;0.11;0.58;0.51;0.75;0.47;0.47;0.76;0.0;0.89;0.75
3UIG;A;76;E;9;8;8;7;8;7;6;8;8;6;0.01;0.54;0.46;0.76;0.49;0.45;0.75;0.0;0.99;0.7
3UIG;A;80;H;9;7;7;5;6;7;4;5;5;3;0.25;0.55;0.44;0.58;0.41;0.48;0.63;0.01;0.72;0.68
3UII;A;62;K;9;6;7;5;6;7;4;5;6;3;0.25;0.48;0.43;0.7;0.39;0.58;0.69;0.01;0.75;0.65
3N85;H;32;S;1;4;4;2;5;5;2;4;4;1;0.52;0.35;0.25;0.4;0.28;0.66;0.35;0.02;0.45;0.44
4N8V;G;44;K;1;3;3;2;3;3;1;3;2;1;0.73;0.09;0.01;0.11;0.09;0.66;0.17;0.06;0.1;0.13
4N8V;G;45;Y;1;3;3;2;3;3;1;3;2;1;0.57;0;0;0;0;0.38;0;0.03;0.03;0
4N8V;G;72;D;2;3;2;2;3;3;1;3;2;1;0.83;0.15;0.12;0.17;0.12;0.87;0.17;0.08;0.16;0.22
4N8V;G;104;L;1;3;3;2;3;3;1;3;2;1;0.78;0.22;0.21;0.43;0.1;0.87;0.31;0.09;0.21;0.31
4N8V;G;106;E;1;3;3;2;3;3;1;3;2;1;0.77;0.26;0.27;0.38;0.12;0.88;0.35;0.09;0.23;0.35
4N8V;G;134;Y;4;5;5;3;5;5;2;4;4;2;0.55;0.3;0.28;0.41;0.27;0.7;0.37;0.03;0.45;0.42
4N8V;G;135;D;6;6;6;4;6;6;3;5;5;2;0.36;0.35;0.31;0.48;0.32;0.63;0.47;0.02;0.64;0.47
4N8V;G;184;S;3;4;4;2;4;4;1;3;3;1;0.67;0.22;0.17;0.25;0.2;0.67;0.26;0.05;0.17;0.31
4N8V;G;187;E;6;5;5;4;5;5;3;4;4;2;0.54;0.29;0.2;0.36;0.28;0.59;0.35;0.04;0.22;0.4
4CVW;C;34;R;1;3;3;2;3;3;1;3;2;1;0.79;0.24;0.24;0.37;0.08;0.85;0.31;0.19;0.18;0.32
4CVW;C;38;R;3;4;4;3;4;4;2;3;3;1;0.66;0.14;0.1;0.19;0.1;0.69;0.2;0.08;0.21;0.25
4B0M;M;103;P;9;9;9;8;8;8;6;9;8;6;0.02;0.55;0.59;0.74;0.49;0.44;0.75;0.0;0.98;0.71
4B0M;M;104;P;7;6;6;5;5;5;3;4;4;2;0.39;0.39;0.41;0.51;0.31;0.63;0.56;0.02;0.61;0.56
4B0M;M;40;Y;3;3;3;2;4;4;1;3;3;1;0.64;0.33;0.3;0.44;0.25;0.81;0.44;0.05;0.36;0.43
4B0M;M;43;L;9;9;8;7;8;8;6;9;8;6;0.03;0.51;0.42;0.84;0.4;0.49;0.79;0.0;0.97;0.7
4B0M;A;4;F;9;8;7;6;8;7;5;7;7;4;0.3;0;0;0;0;0.34;0;0.01;0.14;0
4B0M;A;8;M;5;4;4;4;4;4;2;3;3;2;0.59;0;0;0;0;0.49;0;0.03;0.11;0
3M62;A;26;E;2;3;3;2;3;3;1;3;2;1;0.42;0;0;0;0;0.29;0;0.02;0.03;0
3M62;A;40;D;8;7;7;6;7;7;5;6;6;4;0.31;0;0;0;0;0.32;0;0.01;0.1;0
3M62;A;44;L;7;5;4;4;4;4;2;4;3;2;0.52;0;0;0;0;0.39;0;0.03;0.07;0
3M62;A;48;T;7;6;5;4;6;6;3;5;5;2;0.45;0;0;0;0;0.38;0;0.03;0.08;0
3M62;A;49;E;8;8;7;6;8;7;4;7;7;3;0.31;0;0;0;0;0.33;0;0.02;0.1;0
3M62;A;92;R;4;5;4;3;5;5;2;4;4;2;0.56;0;0;0;0;0.44;0;0.04;0.08;0
3M62;A;96;G;6;5;5;4;5;4;3;4;3;2;0.52;0;0;0;0;0.42;0;0.02;0.09;0
3M62;A;97;Y;9;8;8;7;8;8;6;8;7;5;0.25;0;0;0;0;0.3;0;0.01;0.14;0
3M62;A;100;V;7;5;5;4;5;4;3;4;3;2;0.5;0;0;0;0;0.4;0;0.03;0.09;0
3M62;A;104;I;3;4;4;3;4;4;2;4;3;1;0.6;0;0;0;0;0.46;0;0.04;0.07;0
3M62;A;107;F;8;5;5;4;5;5;3;4;3;2;0.51;0;0;0;0;0.39;0;0.03;0.09;0
3M62;B;9;F;8;6;6;5;6;6;4;5;4;3;0.36;0.45;0.36;0.57;0.34;0.59;0.63;0.01;0.63;0.65
3M62;B;45;I;9;7;7;6;7;7;5;6;6;4;0.19;0.53;0.44;0.93;0.44;0.52;0.8;0.0;0.81;0.75
3M62;B;47;S;9;8;8;6;8;8;5;8;7;4;0.15;0.56;0.48;0.91;0.45;0.53;0.83;0.0;0.85;0.77
3M62;B;50;V;7;7;7;6;6;6;5;5;5;4;0.25;0.52;0.43;0.91;0.44;0.52;0.8;0.0;0.75;0.75
3M62;B;52;Q;6;5;4;3;5;4;1;4;3;1;0.48;0.45;0.36;0.61;0.34;0.7;0.62;0.02;0.52;0.59
3M62;B;67;Q;8;6;5;4;6;5;3;5;4;2;0.41;0.42;0.37;0.63;0.24;0.61;0.57;0.01;0.59;0.61
3M62;B;69;V;9;7;6;6;6;6;5;5;5;4;0.27;0.46;0.37;0.82;0.35;0.53;0.66;0.0;0.73;0.67
3M62;B;71;M;9;8;8;6;9;9;6;8;8;4;0.11;0.61;0.39;0.9;0.41;0.45;0.74;0.0;0.89;0.74
3M63;A;40;D;8;7;7;6;7;7;5;6;6;4;0.31;0;0;0;0;0.32;0;0.01;0.1;0
3M63;A;44;L;7;5;4;4;4;4;2;4;3;2;0.52;0;0;0;0;0.39;0;0.03;0.07;0
3M63;A;48;T;7;6;5;4;6;6;3;5;5;2;0.45;0;0;0;0;0.38;0;0.03;0.08;0
3M63;A;49;E;8;8;7;6;8;7;4;7;7;3;0.31;0;0;0;0;0.33;0;0.02;0.1;0
3M63;A;92;R;4;5;4;3;5;5;2;4;4;2;0.56;0;0;0;0;0.44;0;0.04;0.08;0
3M63;A;96;G;6;5;5;4;5;4;3;4;3;2;0.52;0;0;0;0;0.42;0;0.02;0.09;0
3M63;A;97;Y;9;8;8;7;8;8;6;8;7;5;0.25;0;0;0;0;0.3;0;0.01;0.14;0
3M63;A;100;V;7;5;5;4;5;4;3;4;3;2;0.5;0;0;0;0;0.4;0;0.03;0.09;0
3M63;A;104;I;3;4;4;3;4;4;2;4;3;1;0.6;0;0;0;0;0.46;0;0.04;0.07;0
3M63;A;107;F;8;5;5;4;5;5;3;4;3;2;0.51;0;0;0;0;0.39;0;0.03;0.09;0
3SEK;C;57;L;6;5;5;4;4;5;3;4;4;2;0.48;0.3;0.23;0.4;0.2;0.62;0.44;0.01;0.42;0.49
3SEK;C;60;F;4;4;4;3;4;5;2;3;3;1;0.57;0.3;0.22;0.48;0.21;0.66;0.41;0.03;0.35;0.46
3HH2;C;47;F;7;5;5;4;5;6;3;4;4;2;0.41;0.38;0.31;0.46;0.28;0.61;0.48;0.02;0.56;0.52
3HH2;C;51;I;4;4;4;3;4;4;2;3;3;1;0.61;0.26;0.21;0.48;0.23;0.72;0.36;0.03;0.36;0.4
3HH2;C;52;F;6;6;6;4;6;6;3;5;5;2;0.42;0.29;0.22;0.47;0.27;0.66;0.41;0.02;0.52;0.42
3B4V;C;57;L;7;5;5;4;4;5;3;4;4;2;0.47;0.32;0.24;0.42;0.21;0.63;0.46;0.01;0.44;0.51
3B4V;C;60;F;5;4;5;4;4;5;2;3;3;2;0.52;0.33;0.25;0.47;0.24;0.64;0.46;0.02;0.4;0.49
3B4V;C;61;L;7;6;7;4;6;7;4;5;6;2;0.3;0.39;0.27;0.56;0.32;0.58;0.6;0.01;0.58;0.57
2B0U;C;47;F;7;5;5;4;5;6;3;4;4;2;0.41;0.38;0.31;0.46;0.28;0.61;0.48;0.02;0.56;0.52
2B0U;C;51;I;4;4;4;3;4;4;2;3;3;1;0.61;0.26;0.21;0.48;0.23;0.72;0.36;0.03;0.36;0.4
2B0U;C;52;F;6;6;6;4;6;6;3;5;5;2;0.42;0.29;0.22;0.47;0.27;0.66;0.41;0.02;0.52;0.42
4HFK;B;40;R;9;8;8;7;8;8;6;8;8;6;0.0;0.62;0.53;0.92;0.49;0.42;0.85;0.0;1.0;0.8
4HFK;B;63;L;8;8;8;6;7;7;5;7;7;4;0.04;0.57;0.43;0.9;0.45;0.5;0.88;0.01;0.96;0.78
4HFK;B;64;E;9;8;7;6;8;7;5;7;7;4;0.06;0.59;0.5;0.85;0.47;0.47;0.83;0.01;0.94;0.78
4HFK;B;66;S;9;8;7;6;7;7;5;7;7;4;0.06;0.57;0.5;0.84;0.42;0.49;0.85;0.01;0.94;0.77
4HFK;B;67;N;1;2;2;2;3;3;1;2;2;1;0.66;0.38;0.39;0.59;0.31;0.74;0.54;0.17;0.35;0.57
4HFK;B;68;L;8;8;8;6;7;7;5;7;7;4;0.05;0.49;0.41;0.84;0.39;0.5;0.79;0.01;0.95;0.71
4HFK;B;74;E;6;4;4;3;4;4;2;3;3;1;0.44;0.44;0.43;0.65;0.33;0.62;0.62;0.05;0.56;0.65
4HFK;D;91;T;8;6;6;5;5;5;3;4;4;2;0.26;0.41;0.43;0.76;0.3;0.55;0.62;0.02;0.74;0.62
3KBH;A;353;K;5;4;4;2;5;4;1;4;3;1;0.62;0.33;0.3;0.41;0.26;0.78;0.41;0.04;0.37;0.44
3KBH;A;38;D;1;3;2;2;3;3;1;2;2;1;0.76;0.06;0.02;0.12;0.1;0.68;0.11;0.07;0.1;0.11
3KBH;A;41;Y;2;3;3;2;3;3;1;3;2;1;0.72;0.09;0.05;0.12;0.11;0.64;0.11;0.07;0.13;0.14
3KBH;E;498;Y;3;3;3;2;3;3;1;3;2;1;0.41;0;0;0;0;0.27;0;0.07;0.05;0
3KBH;E;535;S;2;3;3;2;4;3;1;3;3;1;0.63;0.24;0.2;0.32;0.15;0.71;0.33;0.17;0.32;0.41
2AJF;A;353;K;5;4;4;2;5;4;1;4;3;1;0.62;0.33;0.3;0.41;0.26;0.78;0.41;0.04;0.37;0.44
2AJF;A;38;D;1;3;2;2;3;3;1;2;2;1;0.76;0.06;0.02;0.12;0.1;0.68;0.11;0.07;0.1;0.11
2AJF;A;41;Y;2;3;3;2;3;3;1;3;2;1;0.72;0.09;0.05;0.12;0.11;0.64;0.11;0.07;0.13;0.14
2AJF;E;491;Y;1;3;3;2;3;3;1;3;2;0;0.48;0.55;0.52;0.88;0.38;0.48;0.55;0.1;0.53;0.78
2AJF;E;487;T;1;2;2;1;2;2;0;2;1;0;0.63;0.37;0.33;0.71;0.19;0.64;0.37;0.17;0.38;0.62
4I77;H;97;Y;1;0;0;1;1;1;0;1;1;1;0.83;0;0;0;0;0.58;0;0.05;0.04;0
4I77;H;98;Y;1;1;1;1;2;2;0;2;1;1;0.8;0.09;0.09;0.05;0.07;0.74;0.08;0.1;0.12;0.14
4I77;H;100;Y;1;1;1;1;2;2;1;1;1;1;0.82;0.16;0.14;0.17;0.07;0.82;0.14;0.08;0.16;0.22
4I77;H;54;D;1;2;2;2;2;2;1;2;2;1;0.65;0.17;0.17;0.24;0.18;0.8;0.26;0.06;0.36;0.27
4I77;H;52;W;1;1;1;1;2;2;1;2;1;1;0.77;0.23;0.2;0.33;0.08;0.85;0.3;0.08;0.23;0.34
4I77;L;28;Y;2;3;3;2;3;3;1;3;2;1;0.17;0;0;0;0;0.1;0;0.01;0.0;0
4I77;L;91;N;1;2;2;1;3;3;1;2;2;1;0.75;0.31;0.31;0.39;0.11;0.82;0.33;0.06;0.26;0.37
2AW2;B;17;P;5;4;4;3;4;4;2;4;3;1;0.74;0.36;0.4;0.34;0.47;0.84;0.38;0.05;0.25;0.43
2AW2;B;23;Y;3;4;4;3;4;4;2;3;3;2;0.72;0.26;0.26;0.5;0.24;0.77;0.36;0.08;0.28;0.42
2AW2;B;36;V;4;4;4;3;4;4;2;4;3;1;0.72;0.25;0.27;0.35;0.1;0.85;0.34;0.05;0.28;0.33
4JPK;A;82;D;2;5;5;5;4;4;3;3;3;2;0.3;0.53;0.42;0.6;0.41;0.46;0.66;0.02;0.5;0.74
4FZA;A;223;Y;9;8;8;8;8;8;7;8;8;7;0.03;0.65;0.53;0.87;0.54;0.4;0.83;0.0;0.97;0.78
4FZA;A;227;R;9;8;8;8;8;8;7;8;8;7;0.03;0.62;0.53;0.91;0.48;0.44;0.86;0.0;0.97;0.81
4FZA;B;134;Y;7;7;6;4;7;7;4;6;6;2;0.35;0.5;0.43;0.79;0.49;0.56;0.65;0.01;0.65;0.64
4FZA;B;138;E;4;4;3;3;4;4;2;3;3;1;0.74;0.28;0.27;0.4;0.24;0.81;0.34;0.08;0.27;0.4
1BJ1;H;54;Y;1;1;1;1;2;2;1;2;1;1;0.77;0.15;0.14;0.17;0.12;0.82;0.21;0.1;0.2;0.24
1BJ1;H;59;T;1;1;1;1;2;2;1;2;1;1;0.77;0.28;0.25;0.38;0.12;0.87;0.34;0.08;0.23;0.36
1BJ1;H;99;Y;1;1;1;1;1;1;1;1;1;1;0.83;0.18;0.21;0.25;0.07;0.92;0.24;0.12;0.17;0.24
1BJ1;H;107;H;1;1;1;1;1;1;0;1;1;1;0.85;0.13;0.15;0.17;0.04;0.91;0.15;0.11;0.14;0.18
1MHP;H;53;G;1;1;1;1;1;1;0;1;1;1;0.84;0.11;0.12;0.15;0.07;0.9;0.16;0.1;0.15;0.18
1MLC;A;92;N;1;1;1;1;2;3;1;2;2;1;0.79;0.17;0.16;0.26;0.11;0.85;0.19;0.11;0.21;0.24
1MLC;B;31;T;1;2;2;2;2;3;1;2;2;1;0.61;0.28;0.33;0.57;0.23;0.78;0.42;0.05;0.39;0.43
1MLC;B;57;S;1;1;1;1;1;1;0;1;1;1;0.77;0.19;0.19;0.27;0.1;0.91;0.28;0.1;0.23;0.26
1YY9;C;93;N;1;2;2;1;2;2;1;2;2;1;0.75;0.13;0.17;0.21;0.16;0.84;0.16;0.06;0.22;0.19
1YY9;D;56;N;1;1;1;1;1;1;0;1;1;1;0.74;0.19;0.2;0.28;0.12;0.88;0.28;0.1;0.26;0.28
1N8Z;B;50;R;1;1;1;1;1;2;1;1;1;1;0.84;0.26;0.24;0.37;0.07;0.9;0.28;0.14;0.16;0.33
1N8Z;B;59;R;1;1;1;1;2;2;1;2;2;1;0.77;0.24;0.22;0.3;0.12;0.85;0.27;0.09;0.23;0.33
2NYY;A;902;S;1;4;4;3;4;4;2;3;3;1;0.48;0.38;0.31;0.52;0.24;0.63;0.51;0.09;0.52;0.62
2NYY;A;903;K;1;3;3;2;3;3;1;3;2;1;0.58;0.37;0.29;0.45;0.23;0.65;0.46;0.17;0.42;0.59
2NYY;A;917;F;1;3;3;2;4;3;1;3;2;1;0.61;0.39;0.33;0.56;0.22;0.64;0.45;0.14;0.4;0.61
2NYY;A;918;N;4;5;5;4;4;5;2;4;4;2;0.33;0.45;0.38;0.71;0.3;0.54;0.56;0.06;0.67;0.68
2NYY;A;919;L;3;4;4;3;4;4;2;3;3;1;0.45;0.41;0.32;0.56;0.23;0.64;0.56;0.11;0.55;0.64
2NYY;A;920;E;3;4;4;3;4;4;2;3;3;1;0.5;0.4;0.34;0.55;0.26;0.63;0.51;0.13;0.5;0.63
2NYY;A;953;F;1;3;3;2;3;3;1;3;2;1;0.58;0.52;0.48;0.64;0.33;0.6;0.59;0.17;0.42;0.74
2NYY;A;954;N;3;5;5;3;4;5;2;4;4;1;0.38;0.55;0.46;0.71;0.38;0.56;0.63;0.08;0.62;0.75
2NYY;A;955;S;1;2;2;2;2;3;1;2;2;1;0.73;0.31;0.23;0.4;0.08;0.67;0.29;0.39;0.21;0.51
2NYY;A;956;I;1;3;2;2;3;3;1;2;2;1;0.73;0.34;0.27;0.5;0.22;0.63;0.32;0.39;0.21;0.55
2NYY;A;1056;K;9;8;8;7;8;7;5;8;7;5;0.0;0.62;0.5;0.93;0.46;0.44;0.88;0.01;1.0;0.84
2NYY;A;1058;D;5;5;5;4;5;4;2;4;3;2;0.38;0.5;0.42;0.72;0.34;0.55;0.67;0.07;0.62;0.73
2NYY;A;1061;R;1;2;2;2;2;3;1;2;2;1;0.67;0.42;0.34;0.51;0.11;0.69;0.48;0.25;0.33;0.63
2NYY;A;1062;D;8;7;6;5;7;7;4;6;6;3;0.16;0.56;0.48;0.68;0.41;0.46;0.7;0.03;0.84;0.77
2NYY;A;1063;T;1;3;3;2;3;3;1;3;2;1;0.5;0;0;0;0;0.31;0;0.09;0.05;0
2NYY;A;1064;H;1;4;4;2;4;5;2;3;3;1;0.47;0.47;0.39;0.58;0.32;0.59;0.55;0.12;0.53;0.69
2NYY;A;1294;R;1;3;3;2;3;3;1;3;2;1;0.41;0;0;0;0;0.27;0;0.08;0.03;0
2NZ9;A;902;S;1;4;4;3;4;4;2;3;3;1;0.48;0.38;0.31;0.52;0.24;0.63;0.51;0.09;0.52;0.62
2NZ9;A;903;K;1;3;3;2;3;3;1;3;2;1;0.58;0.37;0.29;0.45;0.23;0.65;0.46;0.17;0.42;0.59
2NZ9;A;917;F;1;3;3;2;4;3;1;3;2;1;0.61;0.39;0.33;0.56;0.22;0.64;0.45;0.14;0.4;0.61
2NZ9;A;918;N;4;5;5;4;4;5;2;4;4;2;0.33;0.45;0.38;0.71;0.3;0.54;0.56;0.06;0.67;0.68
2NZ9;A;919;L;3;4;4;3;4;4;2;3;3;1;0.45;0.41;0.32;0.56;0.23;0.64;0.56;0.11;0.55;0.64
2NZ9;A;920;E;3;4;4;3;4;4;2;3;3;1;0.5;0.4;0.34;0.55;0.26;0.63;0.51;0.13;0.5;0.63
2NZ9;A;953;F;1;3;3;2;3;3;1;3;2;1;0.58;0.52;0.48;0.64;0.33;0.6;0.59;0.17;0.42;0.74
2NZ9;A;954;N;3;5;5;3;4;5;2;4;4;1;0.38;0.55;0.46;0.71;0.38;0.56;0.63;0.08;0.62;0.75
2NZ9;A;955;S;1;2;2;2;2;3;1;2;2;1;0.73;0.31;0.23;0.4;0.08;0.67;0.29;0.39;0.21;0.51
2NZ9;A;956;I;1;3;2;2;3;3;1;2;2;1;0.73;0.34;0.27;0.5;0.22;0.63;0.32;0.39;0.21;0.55
2NZ9;A;1056;K;9;8;8;7;8;7;5;8;7;5;0.0;0.62;0.5;0.93;0.46;0.44;0.88;0.01;1.0;0.84
2NZ9;A;1058;D;5;5;5;4;5;4;2;4;3;2;0.38;0.5;0.42;0.72;0.34;0.55;0.67;0.07;0.62;0.73
2NZ9;A;1061;R;1;2;2;2;2;3;1;2;2;1;0.67;0.42;0.34;0.51;0.11;0.69;0.48;0.25;0.33;0.63
2NZ9;A;1062;D;8;7;6;5;7;7;4;6;6;3;0.16;0.56;0.48;0.68;0.41;0.46;0.7;0.03;0.84;0.77
2NZ9;A;1063;T;1;3;3;2;3;3;1;3;2;1;0.5;0;0;0;0;0.31;0;0.09;0.05;0
2NZ9;A;1064;H;1;4;4;2;4;5;2;3;3;1;0.47;0.47;0.39;0.58;0.32;0.59;0.55;0.12;0.53;0.69
2NZ9;A;1294;R;1;3;3;2;3;3;1;3;2;1;0.41;0;0;0;0;0.27;0;0.08;0.03;0
3S9D;A;25;S;7;6;5;3;6;5;3;5;4;2;0.48;0.3;0.26;0.33;0.21;0.67;0.38;0.02;0.45;0.43
3S9D;A;26;L;3;5;4;3;5;4;2;4;3;2;0.58;0.31;0.31;0.34;0.25;0.71;0.38;0.02;0.36;0.43
3S9D;A;27;F;1;3;3;2;2;2;1;2;2;1;0.72;0.29;0.24;0.35;0.09;0.78;0.35;0.06;0.25;0.4
3S9D;A;30;L;8;8;8;5;7;7;4;7;7;3;0.19;0.45;0.36;0.64;0.4;0.57;0.66;0.01;0.74;0.61
3S9D;A;31;K;5;5;5;4;5;5;2;4;4;2;0.53;0.4;0.36;0.51;0.34;0.7;0.52;0.02;0.44;0.54
3S9D;A;33;R;9;8;7;6;8;8;5;7;7;4;0.21;0.51;0.41;0.67;0.41;0.52;0.68;0.01;0.72;0.66
3S9D;A;34;H;3;3;3;2;3;3;2;2;2;1;0.72;0.32;0.28;0.41;0.27;0.78;0.4;0.05;0.26;0.46
3S9D;A;35;D;7;6;6;4;7;6;4;6;5;2;0.35;0.45;0.38;0.55;0.38;0.58;0.59;0.01;0.6;0.61
3S9D;B;44;T;9;7;7;5;7;7;4;7;7;3;0.15;0.58;0.43;0.75;0.43;0.51;0.75;0.01;0.81;0.73
3S9D;B;46;M;8;7;7;6;7;7;5;6;6;3;0.21;0.61;0.36;0.7;0.43;0.46;0.68;0.01;0.75;0.72
3S9D;B;47;S;9;8;8;8;8;8;6;8;8;6;0.08;0.55;0.43;0.71;0.41;0.46;0.71;0.0;0.84;0.71
3S9D;B;48;K;4;5;5;3;5;5;2;4;4;1;0.42;0.42;0.36;0.59;0.35;0.67;0.57;0.03;0.58;0.57
3S9D;B;50;E;5;5;5;4;5;5;3;4;4;2;0.4;0.39;0.38;0.57;0.32;0.64;0.54;0.02;0.6;0.55
3S9D;B;76;H;1;2;1;1;2;2;1;2;1;1;0.78;0.27;0.22;0.39;0.11;0.84;0.33;0.12;0.22;0.38
3S9D;B;98;N;2;3;2;1;3;3;1;3;2;1;0.68;0.24;0.22;0.35;0.19;0.83;0.33;0.07;0.32;0.36
3S9D;B;100;W;1;3;3;2;3;3;1;3;2;1;0.61;0.27;0.26;0.43;0.19;0.73;0.37;0.06;0.39;0.42
3S9D;A;15;L;4;6;5;4;5;4;2;5;4;2;0.47;0.27;0.19;0.41;0.26;0.63;0.41;0.02;0.41;0.42
3S9D;A;16;M;1;2;2;2;2;3;1;2;2;1;0.8;0.19;0.15;0.27;0.1;0.82;0.27;0.07;0.16;0.29
3S9D;A;22;R;3;4;4;3;4;4;2;4;3;1;0.6;0.3;0.25;0.35;0.26;0.7;0.36;0.02;0.33;0.43
3S9D;A;144;R;8;7;7;5;7;7;3;7;7;3;0.27;0.49;0.38;0.68;0.4;0.55;0.66;0.01;0.64;0.64
3S9D;A;148;M;4;3;3;3;3;3;2;3;2;1;0.7;0.31;0.22;0.4;0.22;0.72;0.36;0.04;0.25;0.44
3S9D;A;149;R;6;7;6;5;7;7;3;6;6;2;0.37;0.4;0.32;0.54;0.32;0.58;0.5;0.01;0.5;0.55
3S9D;A;152;S;6;6;5;4;6;5;2;5;5;2;0.49;0.27;0.18;0.3;0.19;0.62;0.34;0.02;0.33;0.38
3S9D;A;153;L;6;5;5;5;4;4;3;4;3;2;0.49;0.24;0.14;0.24;0.17;0.58;0.31;0.01;0.3;0.37
3S9D;A;156;N;1;3;3;2;3;3;1;2;2;1;0.67;0.16;0.09;0.18;0.17;0.64;0.21;0.07;0.13;0.23
3S9D;A;12;R;3;4;3;3;4;4;1;3;3;1;0.64;0.2;0.15;0.22;0.19;0.71;0.24;0.03;0.25;0.3
3S9D;B;45;I;6;6;6;4;5;5;3;5;5;2;0.34;0.51;0.35;0.7;0.38;0.55;0.64;0.02;0.61;0.67
3S9D;B;51;D;1;3;3;2;4;3;1;3;2;1;0.61;0.28;0.27;0.41;0.24;0.77;0.39;0.05;0.39;0.41
3S9D;B;75;T;1;2;2;2;2;3;1;2;2;1;0.66;0.3;0.25;0.5;0.29;0.79;0.36;0.08;0.34;0.39
3S9D;B;77;E;8;7;7;6;7;6;5;7;6;4;0.14;0.46;0.41;0.7;0.38;0.52;0.64;0.01;0.86;0.61
3S9D;B;80;V;2;4;3;3;3;3;1;3;2;1;0.55;0.31;0.3;0.67;0.31;0.74;0.48;0.05;0.45;0.46
3S9D;B;97;H;1;3;3;2;3;3;1;2;2;1;0.65;0.25;0.24;0.29;0.12;0.81;0.35;0.09;0.36;0.35
3S9D;B;103;I;1;3;3;2;2;3;1;2;2;1;0.59;0.27;0.23;0.48;0.21;0.76;0.38;0.06;0.41;0.4
3S9D;B;187;H;3;3;3;2;4;3;1;3;2;1;0.64;0.33;0.31;0.39;0.26;0.75;0.42;0.05;0.33;0.47
3SE3;A;68;N;3;4;4;3;3;4;2;3;3;1;0.58;0.31;0.29;0.41;0.27;0.69;0.4;0.04;0.37;0.46
3SE3;A;70;Y;4;6;6;4;6;6;3;5;4;2;0.36;0.41;0.36;0.53;0.33;0.54;0.49;0.01;0.56;0.57
3SE3;A;96;F;3;5;5;3;5;5;2;4;4;2;0.43;0.45;0.43;0.62;0.38;0.58;0.56;0.03;0.52;0.61
3SE3;A;131;L;1;3;3;2;3;3;2;3;2;1;0.66;0.28;0.23;0.45;0.39;0.76;0.33;0.06;0.31;0.37
3SE3;A;132;D;1;4;4;3;4;4;2;3;3;1;0.54;0.31;0.28;0.46;0.36;0.69;0.39;0.03;0.43;0.41
3SE3;A;135;S;1;4;3;2;4;4;1;4;3;1;0.58;0.3;0.28;0.45;0.3;0.77;0.4;0.04;0.41;0.41
3SE3;A;181;T;1;4;3;3;4;4;2;3;3;1;0.62;0.2;0.19;0.26;0.24;0.75;0.29;0.03;0.33;0.32
3SE3;A;182;S;1;2;2;2;2;3;1;2;2;1;0.73;0.18;0.16;0.18;0.11;0.78;0.24;0.08;0.23;0.31
3SE3;A;238;F;2;6;6;5;6;6;4;5;4;3;0.26;0.46;0.46;0.73;0.4;0.49;0.61;0.01;0.74;0.63
3SE3;A;241;R;1;3;3;2;3;3;1;3;2;1;0.65;0.27;0.29;0.45;0.24;0.8;0.38;0.05;0.34;0.39
3SE3;A;242;N;1;3;2;2;3;3;1;3;2;1;0.67;0.23;0.24;0.47;0.2;0.81;0.37;0.05;0.33;0.37
3SE3;A;245;N;5;5;5;4;5;5;3;4;4;2;0.4;0.35;0.29;0.46;0.27;0.62;0.48;0.01;0.6;0.51
3SE4;A;70;Y;4;6;6;4;6;6;3;5;4;2;0.36;0.41;0.36;0.53;0.33;0.54;0.49;0.01;0.56;0.57
3SE4;A;131;L;1;3;3;2;3;3;2;3;2;1;0.66;0.28;0.23;0.45;0.39;0.76;0.33;0.06;0.31;0.37
3SE4;A;132;D;1;4;4;3;4;4;2;3;3;1;0.54;0.31;0.28;0.46;0.36;0.69;0.39;0.03;0.43;0.41
3SE4;A;135;S;1;4;3;2;4;4;1;4;3;1;0.58;0.3;0.28;0.45;0.3;0.77;0.4;0.04;0.41;0.41
3SE4;A;181;T;1;4;3;3;4;4;2;3;3;1;0.62;0.2;0.19;0.26;0.24;0.75;0.29;0.03;0.33;0.32
3SE4;A;238;F;2;6;6;5;6;6;4;5;4;3;0.26;0.46;0.46;0.73;0.4;0.49;0.61;0.01;0.74;0.63
3SE4;A;241;R;1;3;3;2;3;3;1;3;2;1;0.65;0.27;0.29;0.45;0.24;0.8;0.38;0.05;0.34;0.39
3SE4;A;242;N;1;3;2;2;3;3;1;3;2;1;0.67;0.23;0.24;0.47;0.2;0.81;0.37;0.05;0.33;0.37
1C4Z;D;4;S;3;3;3;2;3;3;1;3;2;1;0.52;0;0;0;0;0.39;0;0.03;0.05;0
1C4Z;D;5;R;6;5;5;3;5;5;2;4;4;2;0.48;0;0;0;0;0.42;0;0.03;0.08;0
1C4Z;D;6;R;9;8;8;7;8;8;7;8;8;6;0.26;0;0;0;0;0.34;0;0.01;0.14;0
1C4Z;D;9;K;8;7;7;5;7;7;4;7;6;3;0.36;0;0;0;0;0.41;0;0.02;0.14;0
1C4Z;D;31;N;7;6;6;5;6;6;4;5;5;3;0.42;0.25;0.16;0.26;0.26;0.48;0.29;0.02;0.27;0.38
1C4Z;D;33;L;1;3;3;2;3;3;2;3;3;1;0.73;0.2;0.13;0.25;0.12;0.68;0.23;0.09;0.15;0.31
1C4Z;D;60;E;3;4;3;3;4;4;2;3;3;1;0.66;0.42;0.44;0.61;0.39;0.82;0.54;0.05;0.34;0.53
1C4Z;D;62;P;9;9;8;8;8;8;7;9;8;7;0.03;0.61;0.64;0.79;0.55;0.44;0.78;0.0;0.97;0.75
1C4Z;D;63;F;7;6;6;4;7;6;3;6;5;2;0.39;0.51;0.48;0.68;0.44;0.61;0.64;0.01;0.6;0.64
1C4Z;D;64;K;5;5;4;3;5;5;2;4;4;1;0.51;0.46;0.44;0.61;0.41;0.75;0.61;0.02;0.49;0.58
1C4Z;D;95;W;9;9;9;9;9;9;8;9;9;8;0.04;0.68;0.48;0.7;0.66;0.36;0.69;0.0;0.96;0.73
1C4Z;D;96;K;8;6;5;4;5;5;3;4;4;2;0.47;0.43;0.36;0.56;0.37;0.69;0.54;0.02;0.53;0.55
1C4Z;D;97;P;8;8;8;6;8;7;4;8;7;4;0.15;0.52;0.51;0.67;0.46;0.53;0.66;0.0;0.85;0.64
1C4Z;D;100;K;7;5;4;3;5;4;2;4;3;2;0.58;0.3;0.32;0.52;0.24;0.74;0.44;0.03;0.42;0.45
1C4Z;A;634;V;1;4;3;3;3;3;1;3;3;1;0.68;0.22;0.25;0.38;0.21;0.83;0.34;0.06;0.32;0.34
1C4Z;A;635;L;5;5;5;3;5;5;2;4;4;2;0.49;0.28;0.27;0.46;0.24;0.73;0.44;0.02;0.5;0.42
1C4Z;A;637;Q;4;5;4;3;5;4;2;4;3;2;0.59;0.28;0.3;0.45;0.23;0.71;0.4;0.04;0.4;0.44
1C4Z;A;638;S;7;6;6;5;5;5;4;5;4;2;0.4;0.3;0.28;0.49;0.25;0.63;0.47;0.02;0.58;0.49
1C4Z;A;639;L;8;8;7;6;7;7;4;8;7;4;0.17;0.37;0.31;0.64;0.31;0.55;0.6;0.01;0.81;0.56
1C4Z;A;641;D;2;3;3;2;4;3;2;3;2;1;0.79;0.27;0.22;0.43;0.09;0.82;0.36;0.07;0.21;0.41
1C4Z;A;642;L;5;6;6;5;5;5;3;5;4;2;0.36;0.34;0.32;0.73;0.33;0.6;0.54;0.01;0.63;0.53
1C4Z;A;645;Y;5;5;4;3;5;5;3;4;3;2;0.56;0.36;0.33;0.53;0.27;0.63;0.43;0.03;0.43;0.5
1C4Z;A;652;D;2;4;4;3;4;4;2;3;3;1;0.62;0.23;0.23;0.47;0.22;0.75;0.35;0.04;0.34;0.36
1C4Z;A;653;M;4;5;5;3;5;5;2;4;4;2;0.55;0.26;0.25;0.4;0.24;0.64;0.32;0.03;0.34;0.38
1C4Z;A;654;M;1;4;3;3;4;4;2;3;3;1;0.68;0.31;0.3;0.43;0.11;0.75;0.37;0.05;0.31;0.44
1C4Z;A;655;I;4;4;4;3;4;4;2;4;3;1;0.63;0.27;0.24;0.43;0.22;0.79;0.39;0.04;0.36;0.41
1C4Z;A;656;T;5;5;5;3;5;5;2;4;4;2;0.5;0.31;0.29;0.52;0.25;0.69;0.43;0.03;0.49;0.47
1C4Z;A;659;I;4;5;4;4;4;4;3;4;3;2;0.56;0.26;0.25;0.55;0.24;0.72;0.38;0.03;0.44;0.41
1C4Z;A;660;S;3;4;4;3;4;4;2;3;3;1;0.63;0.25;0.29;0.5;0.24;0.79;0.36;0.05;0.37;0.39
1C4Z;A;662;T;2;4;4;3;4;4;2;4;3;1;0.61;0.14;0.18;0.26;0.24;0.77;0.2;0.04;0.38;0.22
1C4Z;A;670;M;1;3;3;2;4;4;1;3;3;1;0.69;0.26;0.26;0.48;0.25;0.84;0.38;0.05;0.31;0.39
1C4Z;A;690;F;6;7;7;7;7;6;5;6;5;4;0.22;0.47;0.48;0.78;0.4;0.45;0.61;0.0;0.78;0.66
3VR6;G;165;R;9;8;8;7;8;8;6;8;7;5;0.07;0.68;0.55;0.95;0.52;0.45;0.94;0.0;0.91;0.87
3VR6;G;166;R;9;8;8;7;8;8;6;8;8;6;0.05;0.69;0.55;0.97;0.53;0.43;0.96;0.0;0.93;0.88
1JTD;A;99;Q;1;3;3;2;3;3;2;3;2;1;0.7;0.21;0.24;0.34;0.22;0.83;0.31;0.07;0.3;0.33
1JTD;A;100;N;1;3;3;3;3;3;1;3;2;1;0.71;0.21;0.26;0.37;0.21;0.84;0.33;0.05;0.3;0.34
1JTD;A;102;L;6;6;6;5;6;5;3;5;5;2;0.35;0.28;0.31;0.68;0.29;0.63;0.49;0.01;0.65;0.44
1JTD;A;104;E;1;3;3;2;3;3;1;2;2;1;0.72;0.22;0.22;0.41;0.2;0.85;0.31;0.07;0.28;0.32
1JTD;A;105;Y;3;5;4;3;5;5;3;4;3;1;0.53;0.42;0.38;0.6;0.33;0.64;0.51;0.03;0.47;0.56
1JTD;A;107;P;9;8;8;6;8;8;5;8;8;4;0.1;0.55;0.56;0.77;0.49;0.5;0.74;0.01;0.9;0.69
1JTD;A;110;E;5;4;4;2;5;5;2;4;4;1;0.56;0.3;0.29;0.44;0.27;0.78;0.43;0.03;0.44;0.41
1JTD;A;111;K;2;4;3;2;4;4;2;3;2;1;0.68;0.23;0.24;0.33;0.22;0.82;0.33;0.04;0.32;0.34
1JTD;A;129;M;1;3;2;2;4;3;2;3;2;1;0.77;0.32;0.28;0.52;0.11;0.82;0.42;0.05;0.23;0.45
1JTD;A;216;V;9;7;7;6;7;6;4;7;6;4;0.21;0.43;0.36;0.61;0.34;0.54;0.63;0.01;0.79;0.6
1JTD;A;270;M;5;4;3;2;4;4;1;3;3;1;0.65;0;0;0;0;0.58;0;0.05;0.11;0
2DVW;B;342;R;5;6;5;3;6;6;2;5;5;2;0.5;0.32;0.21;0.36;0.31;0.55;0.39;0.02;0.23;0.44
2DVW;A;41;R;4;4;3;3;4;4;2;3;3;1;0.69;0.2;0.14;0.25;0.2;0.63;0.25;0.07;0.12;0.26
2DVW;A;116;K;4;3;3;2;4;3;1;3;3;1;0.84;0.08;0.12;0.18;0.1;0.94;0.12;0.1;0.16;0.12
2DVW;A;182;E;3;3;3;2;3;3;1;3;2;1;0.54;0;0;0;0;0.38;0;0.03;0.04;0
3F1S;A;71;M;3;3;3;2;3;3;1;3;2;1;0.68;0.29;0.19;0.33;0.2;0.74;0.33;0.04;0.28;0.42
3F1S;A;74;D;7;6;6;4;6;6;3;5;5;2;0.41;0.38;0.3;0.41;0.3;0.61;0.43;0.01;0.54;0.52
3F1S;A;238;D;8;7;7;5;7;6;4;6;6;3;0.23;0.51;0.43;0.68;0.41;0.52;0.67;0.01;0.77;0.69
3F1S;A;239;K;5;5;5;3;5;5;2;4;4;2;0.45;0.37;0.33;0.56;0.3;0.69;0.51;0.01;0.55;0.53
3F1S;A;240;Y;6;6;5;3;7;6;2;6;5;2;0.41;0.41;0.34;0.54;0.31;0.65;0.54;0.01;0.59;0.54
3F1S;A;293;D;7;7;6;4;7;6;3;6;5;2;0.34;0.4;0.39;0.68;0.37;0.62;0.58;0.01;0.65;0.56
4E6K;G;40;K;6;5;4;3;5;5;2;4;3;2;0.54;0.41;0.44;0.63;0.43;0.74;0.55;0.03;0.47;0.53
4E6K;G;5;L;5;5;5;4;5;5;3;4;3;2;0.51;0.41;0.44;0.74;0.39;0.72;0.58;0.02;0.49;0.55
1WQJ;I;21;R;8;6;6;4;6;6;2;6;6;2;0.19;0.57;0.47;0.71;0.47;0.53;0.74;0.01;0.74;0.71
4BFI;B;44;N;9;9;8;7;8;8;6;8;8;5;0.07;0.57;0.53;0.81;0.46;0.44;0.75;0.0;0.91;0.72
4BFI;B;92;L;6;7;7;5;7;6;4;6;5;3;0.25;0.52;0.48;0.88;0.5;0.58;0.75;0.01;0.75;0.7
4BFI;B;96;F;6;7;7;6;7;7;5;6;6;3;0.2;0.56;0.54;0.84;0.5;0.48;0.74;0.0;0.8;0.73
4J2L;C;37;W;6;6;6;5;7;6;4;6;5;3;0.0;0.88;0.6;0.98;0.8;0.42;0.97;0.02;1.0;0.96
4J2L;A;591;V;9;8;7;6;7;7;5;7;7;4;0.1;0.51;0.4;0.91;0.41;0.5;0.8;0.0;0.9;0.72
4JEU;B;233;I;9;8;8;6;8;8;4;7;8;4;0.2;0.46;0.32;0.62;0.38;0.49;0.59;0.01;0.61;0.61
4JEU;B;4;R;9;8;9;9;8;8;8;8;9;8;0.22;0;0;0;0;0.32;0;0.0;0.11;0
4JEU;B;5;T;7;6;6;5;6;6;4;5;5;3;0.35;0;0;0;0;0.39;0;0.01;0.1;0
4JEU;B;8;L;8;8;8;7;8;8;6;8;8;6;0.27;0;0;0;0;0.37;0;0.01;0.13;0
4JGH;D;53;W;8;8;7;6;8;8;5;7;7;4;0.26;0.55;0.35;0.49;0.5;0.4;0.49;0.01;0.49;0.61
4KRL;B;30;R;6;4;4;3;4;4;2;4;3;1;0.51;0.3;0.33;0.53;0.24;0.73;0.42;0.03;0.48;0.43
4KRL;B;112;D;5;3;3;2;3;3;1;3;2;1;0.46;0;0;0;0;0.32;0;0.02;0.04;0
4KRO;B;27;R;6;5;4;3;5;5;2;4;3;1;0.5;0.38;0.38;0.63;0.31;0.69;0.54;0.02;0.5;0.53
4KRO;B;104;D;1;3;3;2;3;3;1;3;2;1;0.49;0;0;0;0;0.21;0;0.02;0.01;0
4KRP;B;113;E;1;3;3;2;3;3;1;3;2;1;0.59;0;0;0;0;0.37;0;0.03;0.03;0
4MYW;B;80;I;9;6;6;5;5;6;3;5;5;3;0.27;0.5;0.44;0.91;0.42;0.55;0.73;0.01;0.73;0.72
3U82;B;80;I;9;6;6;5;5;6;3;5;5;3;0.31;0.49;0.44;0.89;0.41;0.55;0.72;0.01;0.67;0.72
4NZW;A;223;Y;9;8;8;8;8;8;7;8;8;7;0.02;0.68;0.57;0.9;0.56;0.41;0.87;0.0;0.98;0.83
4NZW;A;96;K;9;8;8;7;8;7;6;8;7;5;0.1;0.49;0.42;0.74;0.39;0.49;0.72;0.0;0.88;0.67
4NZW;B;59;E;3;3;3;2;3;3;1;3;3;1;0.82;0.09;0.13;0.13;0.12;0.84;0.1;0.1;0.14;0.15
4NZW;B;91;L;7;6;6;4;6;6;3;6;5;2;0.4;0.29;0.28;0.65;0.3;0.65;0.44;0.01;0.56;0.43
4NZW;B;134;E;3;3;3;3;3;4;2;3;3;1;0.77;0.26;0.26;0.38;0.24;0.84;0.34;0.1;0.23;0.38
4O27;A;223;Y;9;8;8;8;8;8;7;8;8;7;0.05;0.64;0.54;0.85;0.54;0.41;0.82;0.0;0.93;0.78
4O27;A;96;K;9;8;8;8;8;8;7;8;8;7;0.08;0.53;0.46;0.79;0.43;0.46;0.76;0.0;0.89;0.72
4O27;B;58;E;2;3;3;2;4;4;1;3;3;1;0.78;0.1;0.14;0.19;0.17;0.84;0.14;0.07;0.18;0.15
4O27;B;138;E;3;4;4;3;4;4;2;3;3;1;0.69;0.34;0.33;0.5;0.31;0.79;0.44;0.07;0.31;0.47
4OFY;A;54;Q;8;7;7;5;7;7;4;7;6;3;0.25;0.62;0.45;0.73;0.45;0.47;0.73;0.03;0.66;0.77
4OFY;A;56;M;6;5;4;3;5;4;2;4;3;2;0.44;0.53;0.4;0.79;0.39;0.62;0.66;0.06;0.56;0.7
4OFY;A;58;D;8;6;5;4;6;6;3;5;4;2;0.34;0.55;0.5;0.76;0.45;0.56;0.72;0.04;0.66;0.75
4OFY;A;60;F;8;8;7;6;8;8;5;7;7;4;0.08;0.61;0.55;0.91;0.52;0.44;0.87;0.01;0.92;0.82
4OFY;A;105;Q;9;8;7;6;8;7;5;7;7;4;0.08;0.64;0.57;0.88;0.45;0.45;0.79;0.01;0.92;0.8
4OFY;A;107;S;7;5;5;3;4;5;2;4;4;2;0.41;0.43;0.42;0.71;0.35;0.62;0.6;0.07;0.59;0.63
4OFY;A;108;E;6;5;4;3;4;4;2;4;3;2;0.45;0.34;0.3;0.49;0.26;0.67;0.51;0.09;0.55;0.55
4OFY;D;53;Q;9;8;8;7;8;8;6;8;8;5;0.09;0.64;0.51;0.72;0.45;0.39;0.73;0.01;0.72;0.78
4OFY;D;61;L;8;8;7;6;8;7;5;7;7;4;0.17;0.44;0.34;0.72;0.38;0.5;0.7;0.02;0.66;0.66
4OFY;D;105;Q;9;8;8;7;8;8;6;8;8;5;0.0;0.73;0.65;0.93;0.52;0.4;0.89;0.01;1.0;0.88
4OFY;D;115;R;9;7;7;6;7;7;5;7;6;4;0.11;0.52;0.47;0.79;0.38;0.48;0.75;0.01;0.89;0.73
4OZG;G;36;N;1;3;3;2;2;3;1;2;2;1;0.75;0.19;0.18;0.26;0.09;0.71;0.24;0.17;0.16;0.3
4OZG;G;38;Y;1;4;4;2;5;5;2;4;4;1;0.51;0.4;0.32;0.46;0.39;0.68;0.45;0.04;0.46;0.5
4OZG;G;57;L;1;2;1;1;2;2;1;2;2;1;0.88;0.1;0.13;0.17;0.04;0.94;0.15;0.29;0.11;0.15
4OZG;H;57;Q;1;3;3;2;3;3;1;3;2;1;0.66;0;0;0;0;0.4;0;0.03;0.04;0
4OZG;H;63;N;1;2;2;2;2;3;1;2;2;1;0.83;0.06;0.09;0.12;0.09;0.88;0.09;0.11;0.15;0.11
4OZG;H;108;F;1;3;3;2;3;3;1;3;2;1;0.83;0.11;0.12;0.19;0.06;0.92;0.16;0.06;0.16;0.16
4OZG;H;109;R;1;2;3;2;2;3;1;3;2;1;0.83;0.09;0.11;0.16;0.09;0.9;0.14;0.09;0.15;0.14
4OZG;H;110;F;1;3;3;2;2;3;1;3;2;1;0.8;0.07;0.09;0.15;0.1;0.84;0.09;0.1;0.17;0.13
4OZG;H;114;D;1;3;3;2;3;3;1;3;2;1;0.68;0;0;0;0;0.41;0;0.03;0.04;0
4P5T;C;39;K;3;4;4;3;5;5;2;4;4;1;0.52;0.31;0.29;0.43;0.28;0.71;0.43;0.02;0.45;0.45
4P5T;C;55;D;5;5;4;3;4;4;2;4;3;2;0.51;0.29;0.32;0.44;0.26;0.69;0.4;0.02;0.47;0.43
4P5T;C;57;Q;6;6;5;3;6;5;2;5;4;2;0.46;0.36;0.33;0.41;0.28;0.65;0.48;0.01;0.52;0.48
4P5T;C;60;L;6;6;5;4;6;5;3;6;4;2;0.41;0.3;0.27;0.51;0.26;0.68;0.47;0.01;0.56;0.44
4P5T;C;61;Q;2;2;2;2;3;3;1;2;2;1;0.7;0.22;0.2;0.37;0.19;0.83;0.35;0.05;0.29;0.33
4P5T;C;62;N;5;4;4;3;5;5;2;4;3;1;0.52;0.3;0.27;0.44;0.25;0.69;0.43;0.02;0.46;0.44
4P5T;C;65;V;1;3;4;3;3;3;2;2;3;1;0.57;0.26;0.24;0.55;0.24;0.71;0.37;0.03;0.42;0.4
4P5T;C;68;H;1;1;2;2;2;2;1;2;2;1;0.76;0.24;0.23;0.39;0.11;0.83;0.32;0.08;0.24;0.36
4P5T;D;-25;F;6;3;3;2;3;3;1;3;2;1;0.05;0;0;0;0;0.0;0;0.0;0.0;0
4P5T;D;-24;E;6;3;3;2;3;3;1;3;2;1;0.05;0;0;0;0;0.0;0;0.0;0.0;0
4P5T;D;-22;Q;6;3;3;2;3;3;1;3;2;1;0.05;0;0;0;0;0.0;0;0.0;0.0;0
4P5T;D;-21;K;6;3;3;2;3;3;1;3;2;1;0.05;0;0;0;0;0.0;0;0.0;0.0;0
4P5T;D;-19;K;6;3;3;2;3;3;1;3;2;1;0.05;0;0;0;0;0.0;0;0.0;0.0;0
4P5T;D;-17;N;6;3;3;2;3;3;1;3;2;1;0.05;0;0;0;0;0.0;0;0.0;0.0;0
4P5T;D;-16;K;6;3;3;2;3;3;1;3;2;1;0.05;0;0;0;0;0.0;0;0.0;0.0;0
4P5T;D;66;E;2;4;3;3;4;4;2;3;3;1;0.57;0.27;0.29;0.44;0.23;0.76;0.41;0.02;0.43;0.42
4P5T;D;69;E;6;5;4;3;5;5;2;5;3;2;0.45;0.29;0.28;0.43;0.26;0.69;0.42;0.01;0.55;0.43
4P5T;D;70;R;1;3;2;2;3;3;1;2;2;1;0.7;0.25;0.24;0.35;0.2;0.81;0.34;0.05;0.3;0.37
4P5T;D;76;D;7;6;6;4;6;6;3;6;5;2;0.31;0.45;0.45;0.65;0.39;0.57;0.59;0.01;0.69;0.6
4P5T;D;77;T;3;5;4;3;5;5;2;4;4;1;0.45;0.4;0.38;0.58;0.31;0.68;0.54;0.02;0.55;0.53
4P5T;D;81;H;3;5;4;2;6;5;2;5;4;1;0.43;0.52;0.39;0.55;0.42;0.6;0.55;0.02;0.56;0.62
4P23;C;39;K;2;4;4;3;5;5;2;4;4;1;0.51;0.31;0.31;0.47;0.28;0.72;0.44;0.02;0.48;0.44
4P23;C;55;D;6;5;5;3;5;5;2;4;4;2;0.47;0.29;0.28;0.4;0.25;0.64;0.38;0.02;0.45;0.4
4P23;C;57;Q;6;6;4;3;7;5;2;6;4;1;0.48;0.32;0.3;0.43;0.26;0.69;0.46;0.02;0.51;0.43
4P23;C;60;L;5;6;5;3;6;5;2;6;4;2;0.45;0.27;0.24;0.49;0.23;0.74;0.46;0.01;0.55;0.39
4P23;C;61;Q;2;2;2;2;3;3;1;2;2;1;0.69;0.2;0.21;0.39;0.17;0.84;0.34;0.04;0.31;0.31
4P23;C;62;N;5;4;4;3;4;4;2;4;3;1;0.48;0.29;0.26;0.48;0.24;0.69;0.43;0.02;0.52;0.42
4P23;C;65;V;1;3;3;3;3;3;2;2;2;1;0.59;0.25;0.22;0.52;0.22;0.72;0.36;0.03;0.41;0.38
4P23;C;67;K;3;5;5;3;5;5;2;4;4;1;0.43;0.33;0.3;0.54;0.3;0.69;0.47;0.02;0.57;0.45
4P23;C;68;H;1;2;2;2;2;3;1;2;2;1;0.75;0.24;0.22;0.41;0.11;0.84;0.31;0.07;0.25;0.35
4P23;D;-24;E;6;3;3;2;3;3;1;3;2;1;0.05;0;0;0;0;0.0;0;0.0;0.0;0
4P23;D;-22;Q;6;3;3;2;3;3;1;3;2;1;0.05;0;0;0;0;0.0;0;0.0;0.0;0
4P23;D;-21;K;6;3;3;2;3;3;1;3;2;1;0.05;0;0;0;0;0.0;0;0.0;0.0;0
4P23;D;-19;K;6;3;3;2;3;3;1;3;2;1;0.05;0;0;0;0;0.0;0;0.0;0.0;0
4P23;D;-17;N;6;3;3;2;3;3;1;3;2;1;0.05;0;0;0;0;0.0;0;0.0;0.0;0
4P23;D;-16;K;6;3;3;2;3;3;1;3;2;1;0.05;0;0;0;0;0.0;0;0.0;0.0;0
4P23;D;-13;D;6;3;3;2;3;3;1;3;2;1;0.05;0;0;0;0;0.0;0;0.0;0.0;0
4P23;D;66;E;3;4;4;3;4;4;2;3;3;1;0.55;0.3;0.32;0.47;0.26;0.72;0.44;0.02;0.43;0.45
4P23;D;70;R;1;2;2;2;3;3;1;2;2;1;0.71;0.26;0.24;0.35;0.22;0.82;0.36;0.06;0.3;0.38
4P23;D;77;T;3;5;4;3;5;4;2;4;3;1;0.44;0.41;0.38;0.57;0.3;0.66;0.55;0.03;0.56;0.56
4P23;D;81;H;2;4;4;2;5;5;2;4;3;1;0.49;0.49;0.39;0.58;0.41;0.66;0.55;0.03;0.51;0.58
3C60;C;40;K;3;4;4;3;5;5;2;4;4;1;0.52;0.31;0.29;0.43;0.28;0.71;0.43;0.02;0.45;0.45
3C60;C;58;Q;6;6;5;3;6;5;2;5;4;2;0.46;0.36;0.33;0.41;0.28;0.65;0.48;0.01;0.52;0.48
3C60;C;61;L;6;6;5;4;6;5;3;6;4;2;0.41;0.3;0.27;0.51;0.26;0.68;0.47;0.01;0.56;0.44
3C60;C;62;Q;2;2;2;2;3;3;1;2;2;1;0.7;0.22;0.2;0.37;0.19;0.83;0.35;0.05;0.29;0.33
3C60;C;63;N;5;4;4;3;5;5;2;4;3;1;0.52;0.3;0.27;0.44;0.25;0.69;0.43;0.02;0.46;0.44
3C60;C;66;V;1;3;4;3;3;3;2;2;3;1;0.57;0.26;0.24;0.55;0.24;0.71;0.37;0.03;0.42;0.4
3C60;C;68;K;4;5;5;3;6;6;3;5;5;2;0.38;0.35;0.33;0.59;0.32;0.66;0.5;0.02;0.62;0.48
3C60;C;69;H;1;1;2;2;2;2;1;2;2;1;0.76;0.24;0.23;0.39;0.11;0.83;0.32;0.08;0.24;0.36
3C60;D;2;E;6;3;3;2;3;3;1;3;2;1;0.05;0;0;0;0;0.0;0;0.0;0.0;0
3C60;D;4;Q;6;3;3;2;3;3;1;3;2;1;0.05;0;0;0;0;0.0;0;0.0;0.0;0
3C60;D;5;K;6;3;3;2;3;3;1;3;2;1;0.05;0;0;0;0;0.0;0;0.0;0.0;0
3C60;D;7;K;6;3;3;2;3;3;1;3;2;1;0.05;0;0;0;0;0.0;0;0.0;0.0;0
3C60;D;10;K;6;3;3;2;3;3;1;3;2;1;0.05;0;0;0;0;0.0;0;0.0;0.0;0
3C60;D;92;E;1;4;4;3;4;4;2;3;3;1;0.52;0.29;0.31;0.45;0.24;0.72;0.43;0.02;0.48;0.44
3C60;D;95;E;6;5;4;3;5;5;2;5;3;1;0.48;0.29;0.29;0.45;0.28;0.71;0.42;0.02;0.51;0.42
3C60;D;96;R;1;2;2;2;3;3;1;2;2;1;0.74;0.23;0.22;0.34;0.12;0.84;0.32;0.05;0.27;0.34
3C60;D;102;D;7;6;6;4;6;6;3;6;5;2;0.36;0.41;0.4;0.56;0.37;0.61;0.54;0.01;0.63;0.54
3C60;D;103;T;2;4;3;2;5;4;1;4;3;1;0.56;0.35;0.33;0.47;0.29;0.76;0.46;0.03;0.43;0.45
3C60;D;107;H;4;6;5;3;6;5;2;5;4;2;0.4;0.53;0.41;0.56;0.43;0.58;0.57;0.02;0.59;0.63
4PWX;A;246;F;9;8;8;7;8;7;6;7;7;6;0.04;0.65;0.54;0.88;0.52;0.41;0.89;0.0;0.92;0.84
4PWX;A;250;Y;8;7;7;6;7;7;5;7;6;3;0.09;0.68;0.59;0.98;0.57;0.43;0.9;0.0;0.91;0.85
4PWX;A;257;Q;9;7;7;5;7;7;4;7;6;3;0.09;0.62;0.52;0.85;0.45;0.46;0.82;0.0;0.9;0.78
4PWX;B;322;R;9;7;7;5;7;7;4;6;7;3;0.24;0.47;0.35;0.54;0.39;0.48;0.59;0.01;0.59;0.62
4PWX;B;69;K;9;7;7;5;7;7;4;6;6;3;0.25;0.51;0.43;0.64;0.41;0.54;0.64;0.01;0.66;0.67
4PWX;B;72;K;7;6;5;3;6;5;2;5;4;1;0.47;0.34;0.32;0.42;0.28;0.67;0.45;0.02;0.47;0.48
4PWX;B;75;R;6;5;4;3;5;5;2;4;4;1;0.5;0.33;0.28;0.44;0.25;0.67;0.43;0.02;0.44;0.47
4PWX;C;15;K;7;7;7;6;6;6;5;6;5;3;0.33;0.42;0.38;0.66;0.35;0.52;0.55;0.01;0.54;0.62
4PWX;C;23;K;7;6;6;5;6;6;4;5;5;2;0.36;0.39;0.35;0.57;0.31;0.59;0.54;0.02;0.58;0.56
4PWX;C;30;Y;9;9;9;8;9;9;7;9;9;7;0.07;0.69;0.56;0.86;0.59;0.4;0.86;0.0;0.91;0.85
4PWX;C;31;E;9;9;9;7;9;8;6;9;8;6;0.09;0.66;0.56;0.89;0.53;0.46;0.86;0.0;0.89;0.83
4PWX;C;33;H;9;8;8;7;8;8;6;8;8;5;0.14;0.73;0.51;0.86;0.6;0.42;0.86;0.0;0.83;0.86
4PWX;C;34;Q;9;9;9;8;9;9;7;9;9;7;0.07;0.71;0.58;0.9;0.51;0.42;0.89;0.0;0.91;0.87
4PWX;C;37;R;9;9;8;7;9;9;6;8;8;5;0.1;0.59;0.47;0.85;0.44;0.46;0.82;0.01;0.88;0.77
4PWX;C;42;R;9;9;9;8;9;9;7;9;9;7;0.07;0.6;0.49;0.86;0.47;0.43;0.82;0.0;0.91;0.79
4PWX;C;45;R;8;7;6;5;6;6;4;5;5;3;0.35;0.46;0.44;0.7;0.37;0.56;0.61;0.01;0.63;0.66
2C5D;C;92;V;5;4;4;3;4;4;2;3;3;1;0.61;0.26;0.23;0.49;0.23;0.76;0.38;0.03;0.38;0.38
4U6H;E;27;N;1;4;3;2;3;3;1;3;3;1;0.43;0.48;0.43;0.78;0.34;0.64;0.71;0.07;0.57;0.7
4U6H;E;31;Q;1;3;3;2;3;4;1;3;3;1;0.44;0.49;0.41;0.7;0.34;0.65;0.69;0.08;0.56;0.68
4U6H;E;35;D;3;4;3;2;5;4;2;3;3;1;0.41;0.47;0.42;0.62;0.35;0.6;0.65;0.06;0.59;0.69
4X4M;E;173;K;1;2;2;2;2;2;1;3;2;1;0.86;0.05;0.11;0.1;0.08;0.94;0.05;0.14;0.14;0.08
4Y61;A;273;Y;1;5;5;4;6;6;3;5;4;2;0.25;0.72;0.64;0.94;0.61;0.52;0.86;0.01;0.75;0.85
4Y61;B;167;D;9;6;6;5;6;6;3;5;4;2;0.29;0.53;0.44;0.71;0.41;0.53;0.75;0.01;0.71;0.75
4Y61;B;215;E;8;5;5;4;5;5;3;4;4;2;0.38;0.52;0.49;0.72;0.44;0.6;0.69;0.01;0.62;0.7
4Y61;B;187;D;8;6;6;5;6;5;4;5;4;2;0.33;0.49;0.4;0.64;0.38;0.54;0.66;0.01;0.66;0.7
4Y61;B;114;R;7;5;5;4;5;5;3;4;4;2;0.44;0.42;0.37;0.73;0.36;0.63;0.6;0.01;0.56;0.62
4YEB;B;160;F;8;7;5;4;7;6;3;6;4;2;0.32;0.47;0.39;0.7;0.34;0.56;0.66;0.01;0.68;0.65
4YFD;A;196;R;2;4;3;2;5;4;1;4;3;1;0.44;0;0;0;0;0.4;0;0.03;0.08;0
4YFD;A;273;Y;1;6;5;4;6;6;3;5;4;2;0.25;0.7;0.59;0.92;0.6;0.52;0.85;0.01;0.75;0.83
4YFD;A;286;E;5;6;6;5;6;6;4;5;5;3;0.17;0.52;0.53;0.87;0.43;0.51;0.74;0.0;0.83;0.73
4YFD;B;27;W;9;8;8;7;8;8;6;8;8;6;0.08;0.77;0.51;0.72;0.72;0.36;0.76;0.0;0.82;0.83
4YFD;B;30;D;8;7;7;5;7;7;4;7;6;3;0.19;0.52;0.41;0.67;0.44;0.5;0.65;0.01;0.74;0.67
4YFD;B;94;K;9;8;8;6;8;7;5;8;7;5;0.06;0.57;0.5;0.85;0.45;0.48;0.81;0.0;0.94;0.77
4YH7;A;75;R;9;7;7;6;7;7;5;7;6;4;0.11;0.62;0.47;0.76;0.47;0.42;0.77;0.0;0.68;0.8
4YH7;A;196;R;7;6;6;3;7;6;2;6;5;2;0.29;0;0;0;0;0.33;0;0.01;0.1;0
4YH7;A;273;Y;5;6;6;4;6;6;3;6;5;2;0.12;0.77;0.63;0.98;0.66;0.46;0.92;0.0;0.87;0.89
4YH7;B;34;W;9;8;8;7;8;8;6;7;8;6;0.13;0.77;0.5;0.72;0.73;0.37;0.76;0.0;0.71;0.84
4YH7;B;37;D;9;8;8;7;8;8;6;7;8;6;0.13;0.59;0.43;0.69;0.51;0.43;0.71;0.0;0.71;0.76
4YH7;B;292;D;8;6;6;5;5;5;4;4;4;3;0.34;0.39;0.34;0.53;0.34;0.43;0.48;0.02;0.3;0.59
4ZS6;A;540;Y;5;5;5;5;5;5;5;5;5;5;0.5;0.5;0.5;0.5;0.5;0.5;0.5;0.5;0.5;0.5
4ZS6;A;536;E;5;5;5;5;5;5;5;5;5;5;0.5;0.5;0.5;0.5;0.5;0.5;0.5;0.5;0.5;0.5
4ZS6;A;539;D;5;5;5;5;5;5;5;5;5;5;0.5;0.5;0.5;0.5;0.5;0.5;0.5;0.5;0.5;0.5
4ZS6;A;535;W;5;5;5;5;5;5;5;5;5;5;0.5;0.5;0.5;0.5;0.5;0.5;0.5;0.5;0.5;0.5
5C6T;A;280;Y;4;6;5;4;6;5;3;5;4;2;0.4;0.53;0.5;0.7;0.43;0.53;0.62;0.03;0.56;0.71
5C6T;A;281;N;6;6;5;4;5;5;3;5;4;2;0.42;0.49;0.42;0.56;0.39;0.55;0.6;0.03;0.54;0.69
5C6T;A;283;T;1;3;3;2;3;3;1;3;2;1;0.71;0.33;0.31;0.48;0.27;0.8;0.41;0.14;0.27;0.48
5C6T;A;284;N;7;3;3;2;3;3;1;3;2;1;0.08;0;0;0;0;0.06;0;0.01;0.0;0
5C6T;A;285;R;5;3;3;2;3;3;1;3;2;1;0.12;0;0;0;0;0.07;0;0.01;0.0;0
5C6T;A;286;N;8;7;6;5;7;6;3;7;5;3;0.3;0.39;0.34;0.48;0.32;0.55;0.48;0.02;0.66;0.54
5C6T;A;290;F;7;7;6;4;8;7;4;7;6;3;0.27;0.47;0.4;0.51;0.36;0.55;0.6;0.02;0.68;0.61
5C6T;A;292;E;9;8;7;6;8;7;5;8;7;4;0.18;0.43;0.37;0.52;0.37;0.51;0.58;0.01;0.77;0.58
5C6T;A;297;F;6;7;6;4;7;6;3;6;5;2;0.33;0.37;0.34;0.51;0.34;0.56;0.46;0.03;0.62;0.51
5C6T;A;298;F;1;3;3;2;3;3;1;3;2;1;0.73;0.25;0.26;0.38;0.11;0.74;0.28;0.13;0.26;0.4
5C6T;A;299;I;2;4;4;3;4;4;2;3;3;2;0.52;0.3;0.31;0.61;0.3;0.67;0.42;0.07;0.45;0.47
5C6T;H;32;S;3;3;3;2;3;3;1;3;2;1;0.09;0;0;0;0;0.02;0;0.0;0.0;0
5C6T;H;102;N;1;1;0;1;1;1;0;1;1;1;0.9;0.07;0.1;0.12;0.05;0.84;0.09;0.14;0.07;0.1
5C6T;H;103;Y;1;1;1;1;1;1;0;1;1;1;0.8;0.05;0.05;0.0;0.07;0.66;0.08;0.07;0.08;0.09
5C6T;H;104;F;1;0;0;1;1;2;0;1;1;1;0.79;0.07;0.07;0.06;0.07;0.71;0.08;0.1;0.1;0.1
5C6T;H;109;Y;1;3;3;2;4;4;1;3;2;1;0.58;0.4;0.3;0.56;0.36;0.72;0.47;0.02;0.43;0.5
5C6T;L;50;Y;4;6;6;3;7;6;3;6;5;2;0.38;0.46;0.43;0.78;0.4;0.58;0.6;0.01;0.58;0.62
5C6T;L;51;R;1;2;2;1;2;2;1;2;2;1;0.81;0.13;0.15;0.21;0.09;0.88;0.17;0.09;0.18;0.22
5CXB;B;486;R;8;7;7;5;7;7;4;7;7;3;0.18;0.47;0.42;0.68;0.38;0.49;0.62;0.01;0.74;0.62
5CYK;B;486;E;8;7;7;5;7;7;4;7;7;3;0.21;0.45;0.41;0.63;0.35;0.51;0.6;0.01;0.75;0.6
5DWU;A;103;F;8;8;8;6;8;8;5;7;7;4;0.18;0.39;0.32;0.46;0.35;0.46;0.48;0.01;0.66;0.51
4RS1;B;170;R;3;4;3;3;3;4;2;3;3;1;0.71;0.27;0.28;0.38;0.27;0.77;0.32;0.05;0.29;0.4
4RS1;B;192;D;1;3;3;2;3;3;1;3;2;1;0.79;0.15;0.17;0.31;0.1;0.87;0.22;0.08;0.21;0.25
4RS1;B;194;K;4;5;4;3;5;4;2;4;3;1;0.61;0.22;0.2;0.29;0.16;0.75;0.3;0.04;0.37;0.32
4RS1;B;195;K;1;5;4;3;5;4;2;4;3;1;0.63;0.22;0.19;0.29;0.17;0.79;0.33;0.03;0.36;0.33
4RS1;B;226;K;1;3;3;2;3;3;1;3;2;1;0.83;0.14;0.12;0.14;0.08;0.86;0.16;0.09;0.15;0.23
4RS1;B;227;L;3;3;3;2;4;4;1;3;3;1;0.74;0.11;0.1;0.15;0.1;0.83;0.14;0.06;0.23;0.19
4RS1;B;228;S;4;4;4;3;4;4;2;3;3;1;0.71;0.14;0.16;0.19;0.14;0.81;0.17;0.05;0.25;0.23
4RS1;B;231;D;6;5;5;4;5;4;3;4;3;2;0.59;0.3;0.29;0.37;0.23;0.65;0.32;0.02;0.36;0.44
4RS1;B;283;R;5;5;5;3;5;5;2;4;4;2;0.56;0.22;0.15;0.18;0.21;0.65;0.25;0.03;0.29;0.3
4RS1;A;45;E;2;3;3;2;3;4;1;3;3;1;0.54;0.39;0.33;0.54;0.3;0.72;0.56;0.05;0.44;0.54
4RS1;A;48;D;5;4;4;3;4;4;2;3;3;1;0.43;0.41;0.35;0.52;0.31;0.64;0.55;0.03;0.57;0.57
4RS1;A;99;Q;4;5;4;3;5;4;2;4;3;1;0.48;0.41;0.34;0.38;0.33;0.59;0.48;0.03;0.45;0.57
4RS1;A;112;D;1;2;2;2;2;2;1;2;1;1;0.72;0.29;0.24;0.36;0.25;0.76;0.37;0.09;0.23;0.42
4RS1;A;115;L;1;4;2;2;4;3;1;3;2;1;0.64;0.31;0.24;0.37;0.28;0.73;0.39;0.05;0.3;0.42
4RS1;A;119;F;3;5;5;4;5;4;2;5;3;2;0.43;0.45;0.34;0.45;0.42;0.58;0.5;0.02;0.45;0.58
4NKQ;B;170;R;2;3;3;2;3;3;1;3;2;1;0.76;0.27;0.27;0.36;0.32;0.81;0.32;0.06;0.23;0.4
4NKQ;B;192;D;1;3;3;2;2;3;1;3;2;1;0.8;0.15;0.16;0.28;0.09;0.87;0.24;0.09;0.2;0.26
4NKQ;B;194;K;4;5;4;3;5;4;2;4;3;1;0.62;0.29;0.25;0.42;0.22;0.76;0.4;0.04;0.38;0.41
4NKQ;B;195;K;1;4;4;3;5;4;2;4;3;1;0.63;0.27;0.23;0.4;0.23;0.8;0.4;0.03;0.37;0.4
4NKQ;B;231;D;5;5;4;4;5;4;2;4;3;2;0.57;0.33;0.34;0.46;0.27;0.67;0.39;0.03;0.42;0.47
4NKQ;B;283;R;5;4;4;3;4;5;2;4;4;1;0.58;0.25;0.21;0.28;0.18;0.71;0.33;0.03;0.39;0.37
4RS1;A;108;E;1;4;3;3;3;3;2;3;2;1;0.55;0.36;0.31;0.44;0.3;0.67;0.49;0.05;0.39;0.53
4RS1;A;109;N;2;4;3;2;4;4;1;3;2;1;0.61;0.36;0.29;0.4;0.29;0.69;0.44;0.05;0.32;0.49
4RS1;A;111;K;2;4;3;2;5;4;2;4;3;1;0.55;0.36;0.28;0.4;0.29;0.66;0.46;0.04;0.37;0.51
5E6P;B;66;I;5;6;5;3;5;5;2;5;4;2;0.62;0.18;0.19;0.34;0.18;0.74;0.26;0.04;0.3;0.27
5E6P;B;68;L;3;5;4;3;5;5;3;4;3;2;0.67;0.17;0.19;0.35;0.19;0.75;0.24;0.06;0.3;0.27
5E6P;B;88;R;5;5;4;3;5;5;2;4;3;1;0.68;0.28;0.25;0.46;0.28;0.81;0.41;0.04;0.32;0.4
5E6P;A;1806;Y;1;4;3;2;4;4;2;3;2;1;0.65;0.32;0.27;0.36;0.24;0.72;0.36;0.03;0.31;0.45
1U7F;B;378;R;1;5;4;3;4;4;2;3;3;1;0.48;0.34;0.33;0.56;0.28;0.65;0.47;0.02;0.45;0.49
1U7F;B;493;D;9;7;7;6;7;7;5;7;6;4;0.19;0.49;0.38;0.62;0.42;0.49;0.65;0.0;0.73;0.65
4G0N;B;59;R;8;7;7;5;7;7;4;6;6;3;0.22;0.49;0.39;0.76;0.39;0.51;0.66;0.01;0.73;0.68
4G0N;B;64;N;9;7;7;5;8;7;4;7;6;3;0.17;0.62;0.54;0.79;0.49;0.51;0.77;0.01;0.81;0.76
4G0N;B;66;Q;9;7;7;5;8;7;4;7;6;3;0.18;0.64;0.55;0.76;0.46;0.49;0.78;0.01;0.8;0.77
4G0N;B;67;R;8;7;6;4;7;6;3;7;5;2;0.26;0.55;0.47;0.76;0.41;0.57;0.73;0.01;0.72;0.71
4G0N;B;68;T;9;8;8;6;8;7;5;7;7;5;0.09;0.57;0.5;0.81;0.43;0.47;0.77;0.0;0.89;0.74
4G0N;B;69;V;7;5;4;3;4;4;2;4;3;1;0.5;0.42;0.36;0.7;0.29;0.67;0.6;0.02;0.49;0.61
4G0N;B;84;K;9;8;8;7;8;8;6;8;7;5;0.04;0.55;0.46;0.87;0.45;0.46;0.81;0.0;0.96;0.75
4G0N;B;88;V;6;4;4;3;3;3;2;3;3;1;0.52;0.38;0.34;0.7;0.29;0.7;0.6;0.02;0.48;0.58
4G0N;A;21;I;6;4;4;3;4;4;2;3;3;1;0.7;0.23;0.21;0.43;0.21;0.76;0.31;0.05;0.23;0.35
4G0N;A;27;H;2;2;2;2;3;3;1;3;2;1;0.88;0.18;0.18;0.21;0.09;0.84;0.2;0.13;0.09;0.24
4G0N;A;31;E;4;4;3;3;3;3;2;3;3;1;0.76;0.21;0.22;0.3;0.21;0.76;0.25;0.09;0.18;0.31
4G0N;A;33;D;5;4;4;2;4;4;1;4;3;1;0.72;0.28;0.26;0.38;0.23;0.77;0.35;0.05;0.22;0.36
4G0N;A;36;I;9;7;6;5;7;6;3;6;5;2;0.44;0.35;0.3;0.56;0.3;0.61;0.49;0.02;0.43;0.49
4G0N;A;37;E;9;6;6;5;6;6;4;5;5;3;0.48;0.36;0.31;0.4;0.23;0.6;0.48;0.02;0.4;0.52
4G0N;A;38;D;8;6;6;4;6;6;3;6;5;2;0.44;0.34;0.31;0.48;0.28;0.6;0.44;0.02;0.44;0.48
4G0N;A;39;S;7;5;4;3;5;4;2;4;3;1;0.66;0.27;0.25;0.36;0.19;0.71;0.34;0.05;0.27;0.4
4G0N;A;41;R;5;4;3;2;4;4;2;3;3;1;0.74;0.22;0.2;0.32;0.19;0.78;0.27;0.05;0.2;0.31
1GUA;B;59;R;8;7;7;5;7;7;4;6;6;3;0.22;0.47;0.37;0.72;0.37;0.51;0.63;0.01;0.73;0.64
1GUA;B;64;N;9;7;6;4;8;7;4;7;6;2;0.21;0.59;0.53;0.76;0.47;0.53;0.74;0.01;0.77;0.73
1GUA;B;65;K;5;5;4;3;5;4;2;4;3;1;0.48;0.52;0.47;0.65;0.39;0.65;0.67;0.02;0.51;0.68
1GUA;B;66;Q;9;8;7;5;8;7;4;7;6;3;0.17;0.63;0.55;0.76;0.45;0.49;0.77;0.01;0.81;0.76
1GUA;B;68;T;9;8;8;7;8;7;5;7;7;5;0.09;0.56;0.5;0.82;0.43;0.47;0.77;0.0;0.89;0.74
1GUA;B;69;V;8;5;4;3;4;4;2;4;3;2;0.5;0.42;0.36;0.7;0.29;0.67;0.6;0.02;0.49;0.6
1GUA;B;84;K;9;8;8;7;8;7;5;7;7;5;0.06;0.53;0.46;0.87;0.44;0.48;0.78;0.0;0.93;0.73
1GUA;B;87;K;5;6;5;3;6;5;2;5;4;1;0.37;0.46;0.39;0.71;0.36;0.64;0.66;0.01;0.63;0.64
1GUA;B;88;V;6;4;4;3;3;3;2;3;3;1;0.54;0.37;0.33;0.68;0.28;0.71;0.59;0.02;0.47;0.57
1GUA;A;37;E;9;7;6;5;6;6;4;5;5;3;0.41;0.36;0.33;0.44;0.28;0.58;0.48;0.01;0.41;0.5
1GUA;A;39;S;6;4;3;2;4;3;1;3;3;1;0.73;0.24;0.23;0.35;0.21;0.79;0.31;0.06;0.19;0.32
1K8R;B;81;Q;9;8;8;6;8;8;5;8;7;5;0.0;0.71;0.61;0.92;0.46;0.4;0.86;0.03;1.0;0.89
1K8R;B;83;R;9;8;8;6;8;7;5;8;7;5;0.0;0.67;0.54;1.0;0.5;0.42;0.91;0.03;1.0;0.88
1K8R;B;101;K;9;8;8;6;8;8;5;8;7;5;0.0;0.64;0.54;0.95;0.49;0.44;0.88;0.03;1.0;0.86
1K8R;B;160;R;5;4;4;3;4;4;2;3;3;1;0.58;0.51;0.45;0.71;0.33;0.55;0.47;0.17;0.43;0.76
1K8R;A;33;D;5;4;4;2;4;4;1;4;3;1;0.72;0.28;0.26;0.38;0.23;0.77;0.35;0.05;0.22;0.36
1K8R;A;37;E;9;6;6;5;6;6;4;5;5;3;0.48;0.36;0.31;0.4;0.23;0.6;0.48;0.02;0.4;0.52
1K8R;A;38;D;8;6;6;4;6;6;3;6;5;2;0.44;0.34;0.31;0.48;0.28;0.6;0.44;0.02;0.44;0.48
1K8R;A;39;S;7;5;4;3;5;4;2;4;3;1;0.66;0.27;0.25;0.36;0.19;0.71;0.34;0.05;0.27;0.4
1K8R;A;41;R;5;4;3;2;4;4;2;3;3;1;0.74;0.22;0.2;0.32;0.19;0.78;0.27;0.05;0.2;0.31
3KUD;B;85;K;8;7;6;5;7;6;4;7;6;2;0.2;0.45;0.37;0.73;0.36;0.58;0.71;0.01;0.79;0.64
3KUD;A;35;T;9;9;8;6;9;8;5;8;8;5;0.21;0.46;0.38;0.58;0.36;0.49;0.59;0.01;0.6;0.59
1C1Y;B;64;N;9;7;7;5;8;7;4;7;7;3;0.15;0.63;0.56;0.8;0.51;0.49;0.8;0.01;0.83;0.78
1C1Y;B;69;V;7;5;4;3;4;4;2;4;3;1;0.5;0.43;0.36;0.7;0.3;0.67;0.61;0.02;0.49;0.61
1C1Y;B;65;K;5;5;5;3;5;4;2;4;3;1;0.45;0.54;0.48;0.67;0.41;0.64;0.7;0.02;0.53;0.71
1C1Y;B;68;T;9;8;8;6;8;7;5;7;7;5;0.09;0.57;0.51;0.82;0.43;0.47;0.78;0.0;0.89;0.75
1C1Y;B;67;R;8;7;6;4;7;6;3;7;5;2;0.25;0.56;0.49;0.79;0.43;0.56;0.75;0.01;0.74;0.72
1C1Y;B;59;R;8;7;7;5;7;6;4;6;6;3;0.23;0.49;0.38;0.75;0.39;0.51;0.65;0.01;0.72;0.68
1C1Y;B;66;Q;9;7;7;5;8;7;4;7;6;3;0.16;0.65;0.57;0.79;0.47;0.49;0.8;0.01;0.82;0.78
1C1Y;B;84;K;9;8;8;7;8;7;6;7;7;5;0.04;0.55;0.46;0.88;0.45;0.47;0.81;0.0;0.96;0.75
4G0N;B;65;K;5;5;4;3;5;4;2;4;3;1;0.47;0.53;0.47;0.64;0.4;0.65;0.68;0.02;0.52;0.69
1C1Y;A;38;D;8;6;6;4;6;6;3;6;5;2;0.44;0.32;0.3;0.46;0.28;0.63;0.43;0.02;0.46;0.44
3EQS;B;1;T;5;5;5;5;5;5;5;5;5;5;0.5;0.5;0.5;0.5;0.5;0.5;0.5;0.5;0.5;0.5
3EQS;B;2;S;5;5;5;5;5;5;5;5;5;5;0.5;0.5;0.5;0.5;0.5;0.5;0.5;0.5;0.5;0.5
3EQS;B;3;F;5;5;5;5;5;5;5;5;5;5;0.5;0.5;0.5;0.5;0.5;0.5;0.5;0.5;0.5;0.5
3EQS;B;6;Y;5;5;5;5;5;5;5;5;5;5;0.5;0.5;0.5;0.5;0.5;0.5;0.5;0.5;0.5;0.5
3EQS;B;7;W;5;5;5;5;5;5;5;5;5;5;0.5;0.5;0.5;0.5;0.5;0.5;0.5;0.5;0.5;0.5
3EQS;B;8;N;5;5;5;5;5;5;5;5;5;5;0.5;0.5;0.5;0.5;0.5;0.5;0.5;0.5;0.5;0.5
3EQS;B;9;L;5;5;5;5;5;5;5;5;5;5;0.5;0.5;0.5;0.5;0.5;0.5;0.5;0.5;0.5;0.5
3EQS;B;10;L;5;5;5;5;5;5;5;5;5;5;0.5;0.5;0.5;0.5;0.5;0.5;0.5;0.5;0.5;0.5
3EQS;B;11;S;5;5;5;5;5;5;5;5;5;5;0.5;0.5;0.5;0.5;0.5;0.5;0.5;0.5;0.5;0.5
3EQY;C;1;T;5;5;5;5;5;5;5;5;5;5;0.5;0.5;0.5;0.5;0.5;0.5;0.5;0.5;0.5;0.5
3EQY;C;2;S;5;5;5;5;5;5;5;5;5;5;0.5;0.5;0.5;0.5;0.5;0.5;0.5;0.5;0.5;0.5
3EQY;C;3;F;5;5;5;5;5;5;5;5;5;5;0.5;0.5;0.5;0.5;0.5;0.5;0.5;0.5;0.5;0.5
3EQY;C;6;Y;5;5;5;5;5;5;5;5;5;5;0.5;0.5;0.5;0.5;0.5;0.5;0.5;0.5;0.5;0.5
3EQY;C;7;W;5;5;5;5;5;5;5;5;5;5;0.5;0.5;0.5;0.5;0.5;0.5;0.5;0.5;0.5;0.5
3EQY;C;9;L;5;5;5;5;5;5;5;5;5;5;0.5;0.5;0.5;0.5;0.5;0.5;0.5;0.5;0.5;0.5
3EQY;C;10;L;5;5;5;5;5;5;5;5;5;5;0.5;0.5;0.5;0.5;0.5;0.5;0.5;0.5;0.5;0.5
3EQY;C;11;S;5;5;5;5;5;5;5;5;5;5;0.5;0.5;0.5;0.5;0.5;0.5;0.5;0.5;0.5;0.5
3EQY;C;12;P;5;5;5;5;5;5;5;5;5;5;0.5;0.5;0.5;0.5;0.5;0.5;0.5;0.5;0.5;0.5
3NGB;H;30;I;4;3;3;2;3;3;1;3;3;1;0.52;0.3;0.33;0.57;0.25;0.72;0.43;0.04;0.47;0.44
3NGB;H;33;T;1;2;2;2;2;2;1;2;2;1;0.71;0.36;0.29;0.44;0.12;0.76;0.37;0.07;0.28;0.47
3NGB;H;47;W;7;7;7;5;7;7;4;7;6;3;0.21;0.62;0.45;0.7;0.6;0.46;0.67;0.01;0.77;0.69
3NGB;H;50;W;1;0;0;1;1;2;1;1;1;1;0.91;0.24;0.23;0.39;0.04;0.93;0.27;0.17;0.09;0.32
3NGB;H;52;K;1;1;1;1;1;2;1;1;1;1;0.8;0.19;0.19;0.3;0.09;0.85;0.24;0.09;0.2;0.29
3NGB;H;53;R;1;1;1;1;1;2;1;2;1;1;0.77;0.12;0.11;0.1;0.1;0.86;0.17;0.09;0.22;0.2
3NGB;H;54;G;1;2;2;1;2;2;1;2;2;1;0.72;0.13;0.12;0.11;0.18;0.8;0.19;0.05;0.22;0.21
3NGB;H;55;G;1;3;4;2;3;4;1;3;3;1;0.56;0.16;0.16;0.2;0.18;0.74;0.26;0.03;0.41;0.27
3NGB;H;57;V;4;4;4;2;4;4;1;3;3;1;0.52;0.34;0.28;0.45;0.31;0.73;0.44;0.02;0.47;0.45
3NGB;H;58;N;1;1;1;1;2;2;1;2;1;1;0.8;0.26;0.24;0.31;0.1;0.85;0.31;0.07;0.2;0.36
3NGB;H;59;Y;7;7;7;4;7;7;3;6;6;2;0.22;0.46;0.38;0.52;0.39;0.51;0.55;0.01;0.75;0.57
3NGB;H;61;R;1;2;2;2;3;3;1;2;2;1;0.66;0.29;0.28;0.35;0.24;0.78;0.37;0.06;0.33;0.42
3NGB;H;62;P;6;3;3;2;3;3;1;3;3;1;0.56;0.33;0.29;0.41;0.26;0.74;0.46;0.03;0.44;0.48
3NGB;H;64;Q;5;5;4;3;5;5;2;4;4;1;0.44;0.37;0.34;0.53;0.3;0.65;0.51;0.02;0.55;0.55
3NGB;H;69;M;7;5;5;4;5;5;3;4;4;2;0.38;0.43;0.39;0.79;0.35;0.61;0.61;0.01;0.59;0.61
3NGB;H;71;R;3;3;3;2;4;4;2;3;3;1;0.55;0.36;0.32;0.55;0.28;0.75;0.51;0.03;0.44;0.48
3NGB;H;73;V;4;3;3;2;3;4;1;2;3;1;0.56;0.33;0.3;0.54;0.26;0.72;0.44;0.04;0.42;0.46
3NGB;H;74;Y;8;5;6;3;5;5;2;5;5;2;0.32;0.4;0.37;0.6;0.31;0.62;0.57;0.01;0.67;0.54
3NGB;H;99;D;1;1;1;1;1;1;0;1;1;1;0.83;0.09;0.08;0.05;0.07;0.75;0.08;0.12;0.09;0.12
3NGB;H;100;Y;1;1;1;1;1;2;1;1;1;1;0.79;0.1;0.09;0.07;0.08;0.78;0.1;0.08;0.14;0.14
3NGB;H;100a;N;1;1;1;1;1;1;1;1;1;1;0.83;0.13;0.11;0.12;0.08;0.83;0.13;0.11;0.13;0.17
3NGB;H;100b;W;1;1;1;1;2;2;1;2;1;1;0.78;0.18;0.16;0.19;0.09;0.79;0.18;0.07;0.18;0.23
3NGB;L;3;V;4;4;5;2;5;5;2;4;4;1;0.48;0.22;0.08;0.24;0.2;0.53;0.28;0.03;0.2;0.31
3NGB;L;27;Q;1;3;3;2;3;3;1;3;2;1;0.66;0.22;0.2;0.32;0.2;0.73;0.28;0.04;0.26;0.33
3NGB;L;28;Y;1;1;2;1;2;2;1;2;2;1;0.76;0.15;0.15;0.18;0.15;0.84;0.17;0.07;0.22;0.24
3NGB;L;91;Y;1;2;2;2;2;3;1;2;2;1;0.73;0.34;0.35;0.43;0.1;0.81;0.38;0.06;0.27;0.42
3NGB;L;96;E;1;1;1;1;2;2;1;2;2;1;0.8;0.27;0.27;0.43;0.11;0.85;0.35;0.08;0.19;0.35
3NGB;L;97;F;1;3;3;2;4;4;1;3;3;1;0.56;0.33;0.3;0.55;0.33;0.74;0.48;0.04;0.43;0.45
3SE8;H;30;R;2;3;3;2;3;3;1;3;2;1;0.51;0.34;0.35;0.6;0.28;0.73;0.46;0.03;0.49;0.48
3SE8;H;47;W;7;7;6;4;7;7;3;6;6;2;0.1;0.68;0.5;0.79;0.67;0.42;0.76;0.0;0.9;0.75
3SE8;H;50;W;1;1;0;1;1;2;1;1;1;1;0.85;0.34;0.29;0.5;0.06;0.9;0.4;0.14;0.16;0.42
3SE8;H;52;K;1;1;1;1;2;2;1;1;1;1;0.78;0.25;0.2;0.38;0.09;0.86;0.32;0.08;0.23;0.35
3SE8;H;53;L;1;1;1;1;1;2;1;1;1;1;0.85;0.12;0.12;0.12;0.06;0.9;0.15;0.11;0.14;0.19
3SE8;H;54;W;1;2;2;2;2;2;1;2;1;1;0.65;0.17;0.15;0.2;0.19;0.79;0.26;0.05;0.35;0.28
3SE8;H;55;G;1;3;3;1;4;4;1;3;3;1;0.52;0.22;0.19;0.29;0.21;0.73;0.36;0.03;0.45;0.34
3SE8;H;57;V;1;4;3;2;4;4;1;3;3;1;0.5;0.28;0.25;0.44;0.28;0.74;0.41;0.02;0.5;0.39
3SE8;H;58;S;1;1;1;1;2;2;1;1;1;1;0.78;0.21;0.21;0.31;0.1;0.87;0.28;0.08;0.22;0.31
3SE8;H;59;Y;6;6;6;3;7;6;2;6;5;1;0.18;0.45;0.4;0.61;0.39;0.5;0.56;0.01;0.82;0.57
3SE8;H;61;R;2;2;2;2;3;3;1;2;1;1;0.64;0.29;0.29;0.4;0.25;0.77;0.38;0.05;0.37;0.43
3SE8;H;62;Q;5;3;3;2;3;3;1;2;2;1;0.57;0.32;0.3;0.47;0.25;0.76;0.45;0.04;0.43;0.47
3SE8;H;64;Q;5;4;4;2;5;5;2;4;3;1;0.38;0.37;0.35;0.58;0.31;0.65;0.54;0.02;0.62;0.54
3SE8;H;71;R;3;3;3;2;3;4;1;2;2;1;0.52;0.35;0.31;0.6;0.25;0.72;0.51;0.02;0.48;0.52
3SE8;H;75;Q;4;3;3;2;2;3;1;2;2;1;0.58;0.33;0.32;0.58;0.26;0.76;0.45;0.04;0.42;0.49
3SE8;H;76a;P;8;3;3;2;3;3;1;3;2;1;0.04;0;0;0;0;0.0;0;0.0;0.0;0
3SE8;H;76d;P;8;3;3;2;3;3;1;3;2;1;0.04;0;0;0;0;0.0;0;0.0;0.0;0
3SE8;H;99;D;1;3;3;2;3;3;1;3;2;1;0.56;0;0;0;0;0.36;0;0.03;0.03;0
3SE8;H;100;Y;1;1;0;1;1;1;0;1;1;1;0.68;0;0;0;0;0.47;0;0.04;0.04;0
3SE8;H;100c;D;1;0;0;1;1;1;0;1;1;0;0.89;0.1;0.11;0.12;0.05;0.88;0.1;0.14;0.09;0.14
3SE8;H;100d;F;1;1;1;1;2;2;1;2;1;1;0.78;0.17;0.18;0.2;0.11;0.8;0.18;0.07;0.18;0.23
3SE8;L;1;E;3;3;3;2;3;3;1;3;2;1;0.29;0;0;0;0;0.22;0;0.01;0.02;0
3SE8;L;27;Q;3;3;3;2;3;3;1;3;3;1;0.58;0.26;0.24;0.39;0.2;0.68;0.32;0.04;0.32;0.37
3SE8;L;31;N;1;2;2;1;2;3;1;2;2;1;0.71;0.18;0.19;0.33;0.16;0.82;0.23;0.07;0.28;0.28
3SE8;L;91;F;1;2;2;1;2;3;1;2;2;1;0.72;0.29;0.3;0.39;0.11;0.82;0.32;0.05;0.29;0.36
3SE8;L;96;E;1;1;1;1;2;2;1;2;2;1;0.78;0.19;0.18;0.3;0.11;0.87;0.22;0.09;0.22;0.26
3SE8;L;97;F;4;4;4;3;4;4;2;4;3;1;0.42;0.42;0.37;0.63;0.36;0.68;0.6;0.02;0.58;0.57
3SE9;H;34;L;1;1;1;1;2;2;1;2;1;1;0.74;0.36;0.28;0.44;0.1;0.81;0.38;0.08;0.26;0.45
3SE9;H;47;W;8;7;7;5;7;7;4;7;7;3;0.11;0.67;0.48;0.76;0.64;0.43;0.74;0.0;0.89;0.74
3SE9;H;50;W;1;0;0;1;2;2;1;1;1;1;0.84;0.35;0.29;0.5;0.07;0.88;0.4;0.11;0.16;0.43
3SE9;H;52b;V;1;1;1;1;1;2;0;1;1;1;0.8;0.19;0.17;0.23;0.1;0.87;0.27;0.1;0.2;0.28
3SE9;H;53;T;1;2;2;2;2;2;1;2;2;1;0.62;0.21;0.2;0.3;0.22;0.78;0.33;0.05;0.38;0.32
3SE9;H;54;G;1;5;5;2;5;5;2;4;4;1;0.33;0.28;0.25;0.41;0.3;0.66;0.47;0.02;0.67;0.4
3SE9;H;56;V;3;4;4;2;4;4;1;4;3;1;0.45;0.29;0.26;0.43;0.28;0.72;0.45;0.02;0.55;0.4
3SE9;H;57;N;1;1;1;1;2;2;1;2;1;1;0.74;0.37;0.32;0.46;0.27;0.83;0.46;0.07;0.27;0.47
3SE9;H;59;G;7;3;3;2;3;3;1;3;2;1;0.02;0;0;0;0;0.0;0;0.0;0.0;0
3SE9;H;61;P;2;3;3;2;3;3;2;2;2;1;0.57;0.35;0.34;0.44;0.26;0.72;0.47;0.04;0.43;0.52
3SE9;H;64;R;5;5;5;3;5;5;2;4;4;1;0.39;0.38;0.34;0.57;0.3;0.63;0.54;0.02;0.61;0.56
3SE9;H;71;R;4;3;3;2;3;4;2;2;2;1;0.51;0.37;0.36;0.67;0.29;0.73;0.53;0.02;0.49;0.51
3SE9;H;73;R;3;3;2;2;3;3;1;2;2;1;0.66;0.3;0.28;0.5;0.24;0.76;0.4;0.06;0.3;0.43
3SE9;H;74;D;7;5;5;3;5;5;1;5;5;1;0.3;0.39;0.37;0.65;0.3;0.64;0.56;0.01;0.7;0.53
3SE9;H;98;Y;1;1;1;1;1;1;0;1;1;1;0.83;0.04;0.05;0.04;0.06;0.7;0.06;0.08;0.08;0.08
3SE9;H;99;T;1;1;1;1;1;1;0;1;1;1;0.79;0.06;0.05;0.03;0.07;0.62;0.07;0.07;0.07;0.1
3SE9;H;100;G;1;3;3;2;3;3;1;3;2;1;0.52;0;0;0;0;0.3;0;0.03;0.02;0
3SE9;H;100a;G;1;3;3;2;3;3;1;3;2;1;0.59;0;0;0;0;0.43;0;0.04;0.05;0
3SE9;H;100c;G;1;1;1;1;1;1;0;1;1;1;0.81;0.15;0.03;0.1;0.07;0.73;0.13;0.1;0.1;0.17
3SE9;L;3;V;4;5;5;3;5;5;2;4;4;1;0.45;0.26;0.11;0.3;0.23;0.52;0.34;0.03;0.23;0.36
3SE9;L;30;Y;1;1;1;1;2;2;1;2;2;1;0.71;0.14;0.13;0.25;0.11;0.65;0.2;0.07;0.11;0.22
3SE9;L;91;L;1;1;1;1;2;2;1;2;2;1;0.77;0.28;0.29;0.34;0.09;0.83;0.29;0.07;0.23;0.34
3SE9;L;96;E;1;1;1;1;2;2;1;2;2;1;0.78;0.16;0.16;0.23;0.09;0.85;0.17;0.07;0.22;0.22
3SE9;L;97;F;2;3;3;2;3;3;1;3;2;1;0.58;0.34;0.32;0.58;0.39;0.75;0.49;0.03;0.41;0.46
1JTD;B;50;N;1;3;3;2;3;3;1;3;2;1;0.31;0;0;0;0;0.12;0;0.02;0.0;0
1JTD;B;52;D;3;3;3;2;3;3;1;3;2;1;0.3;0;0;0;0;0.13;0;0.01;0.0;0
1JTD;B;53;W;1;3;3;2;3;3;1;3;2;1;0.34;0;0;0;0;0.15;0;0.02;0.0;0
1JTD;B;57;T;1;3;3;2;3;3;1;3;2;1;0.42;0;0;0;0;0.18;0;0.02;0.01;0
1JTD;B;73;Y;1;3;3;2;3;3;1;3;2;1;0.58;0;0;0;0;0.33;0;0.03;0.02;0
1JTD;B;74;F;1;2;2;2;2;3;1;2;2;1;0.75;0;0;0;0;0.55;0;0.04;0.06;0
1JTD;B;91;L;1;2;2;2;1;2;0;2;2;1;0.8;0.1;0.0;0.12;0.07;0.67;0.16;0.07;0.07;0.12
1JTD;B;112;N;1;2;2;1;2;2;1;2;2;1;0.86;0.24;0.23;0.36;0.06;0.93;0.32;0.11;0.15;0.31
1JTD;B;113;Y;1;2;2;1;3;3;1;2;2;1;0.85;0.24;0.23;0.34;0.05;0.9;0.27;0.08;0.15;0.31
1JTD;B;131;D;1;2;2;2;3;3;2;2;2;1;0.82;0.29;0.27;0.36;0.1;0.84;0.35;0.08;0.17;0.39
1JTD;B;152;W;1;2;2;2;2;3;1;2;2;1;0.84;0.19;0.19;0.37;0.07;0.9;0.26;0.11;0.16;0.28
1JTD;B;167;D;1;2;2;2;3;3;1;2;2;1;0.8;0.33;0.27;0.41;0.09;0.89;0.41;0.09;0.19;0.4
1JTD;B;169;S;1;2;2;2;2;2;1;2;2;1;0.81;0.25;0.23;0.36;0.08;0.9;0.36;0.09;0.19;0.35
1JTD;B;170;D;1;2;2;2;3;3;1;2;2;1;0.81;0.25;0.25;0.39;0.09;0.86;0.33;0.09;0.18;0.33
1JTD;B;191;Y;1;2;2;2;2;2;1;2;2;1;0.84;0.2;0.16;0.32;0.08;0.91;0.22;0.11;0.16;0.25
1JTD;B;206;D;1;2;2;2;3;3;1;2;2;1;0.83;0.3;0.25;0.39;0.05;0.9;0.38;0.08;0.17;0.38
1JTD;B;208;Y;1;2;2;2;2;2;1;2;2;1;0.89;0.16;0.19;0.25;0.06;0.93;0.2;0.15;0.11;0.22
1JTD;B;209;F;1;3;3;2;3;3;2;2;2;1;0.75;0.27;0.27;0.4;0.3;0.81;0.35;0.07;0.23;0.37
1JTD;B;229;I;1;2;2;1;1;2;1;2;2;1;0.89;0.22;0.23;0.37;0.05;0.95;0.38;0.16;0.11;0.32
1JTD;B;230;F;1;2;2;2;2;2;1;2;2;1;0.86;0.25;0.25;0.48;0.05;0.92;0.33;0.11;0.15;0.34
1JTD;B;248;Y;1;3;3;2;4;4;2;3;2;1;0.72;0.21;0.15;0.19;0.21;0.67;0.22;0.05;0.15;0.26
1JTD;B;268;E;1;3;3;2;3;3;1;3;2;1;0.62;0;0;0;0;0.35;0;0.03;0.02;0
1JTD;B;269;W;3;3;3;2;3;3;1;3;2;1;0.58;0;0;0;0;0.33;0;0.03;0.03;0
1JTD;B;286;R;1;3;3;2;3;3;1;3;2;1;0.21;0;0;0;0;0.08;0;0.01;0.0;0
1JTD;B;304;N;7;3;3;2;3;3;1;3;2;1;0.04;0;0;0;0;0.0;0;0.0;0.0;0
3QHY;B;50;N;1;3;3;2;3;3;1;3;2;1;0.26;0;0;0;0;0.09;0;0.01;0.0;0
3QHY;B;52;D;5;3;3;2;3;3;1;3;2;1;0.32;0;0;0;0;0.13;0;0.01;0.0;0
3QHY;B;53;W;3;3;3;2;3;3;1;3;2;1;0.35;0;0;0;0;0.14;0;0.02;0.0;0
3QHY;B;57;T;1;3;3;2;3;3;1;3;2;1;0.38;0;0;0;0;0.16;0;0.02;0.0;0
3QHY;B;73;Y;1;3;3;2;3;3;1;3;2;1;0.61;0;0;0;0;0.39;0;0.03;0.03;0
3QHY;B;74;F;1;3;3;2;3;3;1;3;2;1;0.64;0;0;0;0;0.4;0;0.03;0.03;0
3QHY;B;91;L;1;3;2;2;2;2;1;2;2;1;0.74;0;0;0;0;0.59;0;0.05;0.07;0
3QHY;B;112;N;1;2;2;1;2;2;1;2;2;1;0.88;0.19;0.19;0.29;0.07;0.93;0.27;0.1;0.12;0.26
3QHY;B;113;Y;1;2;2;1;2;2;1;2;2;1;0.88;0.2;0.18;0.3;0.07;0.94;0.25;0.14;0.12;0.25
3QHY;B;131;D;1;2;2;2;3;3;2;2;2;1;0.84;0.16;0.17;0.24;0.08;0.88;0.22;0.09;0.15;0.22
3QHY;B;152;W;1;2;2;2;2;2;1;2;2;1;0.89;0.21;0.21;0.46;0.05;0.94;0.27;0.12;0.12;0.29
3QHY;B;167;D;1;2;2;2;2;3;1;2;2;1;0.82;0.31;0.27;0.41;0.08;0.9;0.41;0.1;0.17;0.39
3QHY;B;169;S;1;3;2;2;2;2;1;2;2;1;0.82;0.07;0.11;0.12;0.1;0.88;0.11;0.09;0.16;0.11
3QHY;B;170;D;1;3;2;2;3;3;2;2;2;1;0.81;0.3;0.27;0.39;0.1;0.86;0.39;0.09;0.17;0.38
3QHY;B;191;Y;1;2;2;2;3;3;1;2;2;1;0.83;0.18;0.18;0.35;0.08;0.9;0.23;0.1;0.17;0.25
3QHY;B;206;D;1;3;3;2;3;3;2;2;2;1;0.78;0.26;0.23;0.33;0.09;0.84;0.35;0.09;0.21;0.36
3QHY;B;208;Y;1;2;2;2;2;2;1;2;2;1;0.87;0.22;0.23;0.32;0.07;0.93;0.31;0.13;0.13;0.31
3QHY;B;209;F;1;3;3;2;4;4;2;3;2;1;0.77;0.26;0.24;0.37;0.23;0.82;0.32;0.07;0.21;0.34
3QHY;B;229;I;1;2;2;1;2;2;1;2;2;1;0.91;0.18;0.2;0.36;0.04;0.99;0.28;0.15;0.09;0.24
3QHY;B;230;F;1;2;2;2;2;2;1;2;2;1;0.84;0.2;0.21;0.4;0.07;0.91;0.29;0.13;0.16;0.29
3QHY;B;248;Y;1;3;3;2;4;4;2;3;3;1;0.73;0.2;0.19;0.21;0.23;0.65;0.22;0.06;0.14;0.26
3QHY;B;268;E;1;3;3;2;3;3;1;3;2;1;0.58;0;0;0;0;0.35;0;0.03;0.03;0
3QHY;B;269;W;1;3;3;2;3;3;1;3;2;1;0.59;0;0;0;0;0.33;0;0.03;0.02;0
3QHY;B;286;R;1;3;3;2;3;3;1;3;2;1;0.25;0;0;0;0;0.08;0;0.01;0.0;0
3QHY;B;304;N;3;3;3;2;3;3;1;3;2;1;0.14;0;0;0;0;0.03;0;0.01;0.0;0
5K39;B;114;M;7;7;7;5;7;7;4;6;6;3;0.25;0.57;0.39;0.89;0.42;0.52;0.72;0.01;0.75;0.7
5K39;B;118;M;6;5;5;4;5;5;3;4;4;2;0.46;0.34;0.33;0.8;0.32;0.64;0.52;0.02;0.54;0.52
5K39;B;121;S;8;6;6;4;6;6;3;6;5;2;0.35;0.38;0.33;0.71;0.36;0.66;0.59;0.02;0.65;0.52
5K39;B;124;F;9;8;8;6;8;8;5;8;7;4;0.13;0.49;0.44;0.73;0.43;0.47;0.67;0.01;0.87;0.64
5K39;B;147;L;6;6;6;5;6;6;4;5;5;2;0.35;0.52;0.38;0.82;0.39;0.55;0.65;0.02;0.63;0.66
5K39;B;148;F;5;4;3;3;4;4;2;3;3;1;0.7;0.34;0.29;0.55;0.3;0.83;0.48;0.08;0.29;0.48
5K39;B;154;I;8;7;6;4;7;7;3;6;6;2;0.32;0.43;0.37;0.78;0.36;0.63;0.64;0.02;0.66;0.59
5M2O;B;39;I;7;5;4;4;4;4;3;3;2;2;0.56;0.32;0.27;0.59;0.23;0.68;0.45;0.02;0.45;0.5
5M2O;B;40;S;7;5;4;4;5;4;3;4;3;2;0.47;0.33;0.31;0.62;0.25;0.71;0.53;0.02;0.53;0.52
5M2O;B;43;V;8;6;6;5;6;6;4;5;5;3;0.3;0.39;0.35;0.82;0.32;0.59;0.62;0.0;0.7;0.59
5M2O;B;47;Q;9;7;6;5;8;7;5;7;6;3;0.28;0.45;0.38;0.77;0.27;0.55;0.59;0.0;0.72;0.62
5M2O;B;54;K;8;7;6;4;7;6;3;7;5;2;0.35;0.44;0.38;0.54;0.34;0.66;0.6;0.01;0.65;0.59
5M2O;B;83;Q;9;8;7;6;8;7;5;7;7;4;0.25;0.4;0.27;0.39;0.31;0.51;0.44;0.0;0.74;0.52
5M2O;B;87;L;8;6;6;5;6;6;3;5;5;2;0.37;0.23;0.12;0.35;0.24;0.63;0.33;0.01;0.55;0.34
5M2O;A;68;N;9;7;7;5;7;7;4;6;6;3;0.2;0.45;0.39;0.74;0.32;0.51;0.62;0.02;0.79;0.65
5M2O;A;75;N;9;8;7;6;8;7;5;7;7;4;0.15;0.54;0.48;0.86;0.4;0.48;0.75;0.01;0.85;0.76
5M2O;A;77;K;6;4;3;3;3;3;2;3;3;1;0.5;0.38;0.28;0.58;0.1;0.67;0.57;0.09;0.5;0.61
5M2O;A;79;L;6;5;5;4;5;5;3;5;4;2;0.37;0.39;0.31;0.56;0.25;0.62;0.6;0.04;0.63;0.63
5M2O;A;84;E;7;5;5;4;5;5;3;4;4;2;0.35;0.43;0.41;0.68;0.28;0.56;0.62;0.04;0.65;0.67
5M2O;A;121;H;7;7;7;5;7;7;4;6;6;3;0.21;0.54;0.44;0.83;0.38;0.48;0.71;0.02;0.78;0.75
5M2O;A;124;N;9;7;6;5;7;6;4;7;6;3;0.22;0.5;0.44;0.62;0.36;0.52;0.68;0.02;0.78;0.69
5XCO;B;6;P;5;5;5;5;5;5;5;5;5;5;0.5;0.5;0.5;0.5;0.5;0.5;0.5;0.5;0.5;0.5
5XCO;B;7;L;5;5;5;5;5;5;5;5;5;5;0.5;0.5;0.5;0.5;0.5;0.5;0.5;0.5;0.5;0.5
5XCO;B;8;Y;5;5;5;5;5;5;5;5;5;5;0.5;0.5;0.5;0.5;0.5;0.5;0.5;0.5;0.5;0.5
5XCO;B;9;I;5;5;5;5;5;5;5;5;5;5;0.5;0.5;0.5;0.5;0.5;0.5;0.5;0.5;0.5;0.5
5XCO;B;10;S;5;5;5;5;5;5;5;5;5;5;0.5;0.5;0.5;0.5;0.5;0.5;0.5;0.5;0.5;0.5
5XCO;B;11;Y;5;5;5;5;5;5;5;5;5;5;0.5;0.5;0.5;0.5;0.5;0.5;0.5;0.5;0.5;0.5
5XCO;B;12;D;5;5;5;5;5;5;5;5;5;5;0.5;0.5;0.5;0.5;0.5;0.5;0.5;0.5;0.5;0.5
5XCO;B;13;P;5;5;5;5;5;5;5;5;5;5;0.5;0.5;0.5;0.5;0.5;0.5;0.5;0.5;0.5;0.5
5XCO;B;14;V;5;5;5;5;5;5;5;5;5;5;0.5;0.5;0.5;0.5;0.5;0.5;0.5;0.5;0.5;0.5
5TAR;B;88;E;9;8;8;8;7;7;6;8;7;7;0.07;0.47;0.45;0.77;0.37;0.47;0.66;0.0;0.91;0.64
5TAR;B;90;W;6;7;6;4;7;7;4;6;6;2;0.25;0.63;0.46;0.67;0.56;0.5;0.65;0.01;0.72;0.67
5TAR;B;116;Q;6;4;3;2;5;4;1;4;3;1;0.6;0.36;0.32;0.41;0.28;0.72;0.4;0.02;0.34;0.45
