c<A>r<55>a<325>R<TYR>A<CD1> 1
c<A>r<55>a<327>R<TYR>A<CE1> 1
c<A>r<55>a<330>R<TYR>A<OH> 1
c<A>r<59>a<351>R<GLU>A<OE2> 1
c<A>r<92>a<596>R<PHE>A<CB> 1
c<A>r<92>a<597>R<PHE>A<CG> 1
c<A>r<92>a<598>R<PHE>A<CD1> 1
c<A>r<92>a<599>R<PHE>A<CD2> 2
c<A>r<92>a<600>R<PHE>A<CE1> 1
c<A>r<92>a<601>R<PHE>A<CE2> 2
c<A>r<92>a<602>R<PHE>A<CZ> 1
c<A>r<93>a<608>R<GLU>A<CG> 1
c<A>r<93>a<609>R<GLU>A<CD> 1
c<A>r<93>a<610>R<GLU>A<OE1> 1
c<A>r<93>a<611>R<GLU>A<OE2> 1
c<A>r<96>a<630>R<LYS>A<CG> 1
c<A>r<96>a<631>R<LYS>A<CD> 1
c<A>r<96>a<632>R<LYS>A<CE> 2
c<A>r<96>a<633>R<LYS>A<NZ> 1
c<A>r<100>a<660>R<GLN>A<CD> 1
c<A>r<100>a<661>R<GLN>A<OE1> 1
c<A>r<100>a<662>R<GLN>A<NE2> 1
c<A>r<141>a<997>R<LEU>A<CD1> 1
c<A>r<141>a<998>R<LEU>A<CD2> 1
c<A>r<145>a<1022>R<ILE>A<CG1> 1
c<A>r<145>a<1024>R<ILE>A<CD1> 1
c<A>r<148>a<1051>R<ARG>A<NH2> 1
c<A>r<176>a<1299>R<SER>A<O> 1
c<A>r<177>a<1303>R<THR>A<CA> 1
c<A>r<177>a<1306>R<THR>A<CB> 1
c<A>r<178>a<1309>R<PHE>A<N> 1
c<A>r<178>a<1313>R<PHE>A<CB> 1
c<A>r<178>a<1314>R<PHE>A<CG> 2
c<A>r<178>a<1315>R<PHE>A<CD1> 1
c<A>r<178>a<1316>R<PHE>A<CD2> 2
c<A>r<178>a<1317>R<PHE>A<CE1> 2
c<A>r<178>a<1318>R<PHE>A<CE2> 1
c<A>r<178>a<1319>R<PHE>A<CZ> 1
c<A>r<179>a<1320>R<ASP>A<N> 1
c<A>r<179>a<1325>R<ASP>A<CG> 1
c<A>r<179>a<1326>R<ASP>A<OD1> 1
c<A>r<179>a<1327>R<ASP>A<OD2> 1
c<A>r<182>a<1342>R<SER>A<CA> 1
c<A>r<182>a<1344>R<SER>A<O> 1
c<A>r<182>a<1345>R<SER>A<CB> 1
c<A>r<182>a<1346>R<SER>A<OG> 1
c<A>r<183>a<1353>R<ASP>A<OD1> 1
c<A>r<189>a<1400>R<LYS>A<CD> 1
c<A>r<189>a<1401>R<LYS>A<CE> 1
c<A>r<189>a<1402>R<LYS>A<NZ> 1
c<A>r<221>a<1685>R<GLU>A<OE2> 1
c<A>r<222>a<1686>R<ASN>A<N> 1
c<A>r<222>a<1687>R<ASN>A<CA> 2
c<A>r<222>a<1690>R<ASN>A<CB> 1
c<A>r<222>a<1691>R<ASN>A<CG> 2
c<A>r<222>a<1692>R<ASN>A<OD1> 2
c<A>r<222>a<1693>R<ASN>A<ND2> 1
c<A>r<223>a<1694>R<TYR>A<N> 1
c<A>r<223>a<1698>R<TYR>A<CB> 1
c<A>r<223>a<1699>R<TYR>A<CG> 2
c<A>r<223>a<1700>R<TYR>A<CD1> 1
c<A>r<223>a<1701>R<TYR>A<CD2> 2
c<A>r<223>a<1702>R<TYR>A<CE1> 2
c<A>r<223>a<1703>R<TYR>A<CE2> 1
c<A>r<223>a<1704>R<TYR>A<CZ> 2
c<A>r<223>a<1705>R<TYR>A<OH> 2
c<A>r<224>a<1706>R<VAL>A<N> 2
c<A>r<224>a<1710>R<VAL>A<CB> 2
c<A>r<224>a<1711>R<VAL>A<CG1> 1
c<A>r<224>a<1712>R<VAL>A<CG2> 1
c<A>r<227>a<1735>R<ARG>A<CD> 1
c<A>r<227>a<1736>R<ARG>A<NE> 1
c<A>r<227>a<1737>R<ARG>A<CZ> 2
c<A>r<227>a<1738>R<ARG>A<NH1> 2
c<A>r<227>a<1739>R<ARG>A<NH2> 1
c<A>r<228>a<1745>R<GLN>A<CG> 1
c<A>r<228>a<1746>R<GLN>A<CD> 1
c<A>r<228>a<1747>R<GLN>A<OE1> 1
c<A>r<228>a<1748>R<GLN>A<NE2> 1
c<A>r<231>a<1769>R<LYS>A<CD> 1
c<A>r<231>a<1770>R<LYS>A<CE> 1
c<A>r<231>a<1771>R<LYS>A<NZ> 1
c<A>r<267>a<2065>R<SER>A<CA> 1
c<A>r<267>a<2068>R<SER>A<CB> 1
c<A>r<267>a<2069>R<SER>A<OG> 2
c<A>r<268>a<2070>R<ARG>A<N> 1
c<A>r<268>a<2074>R<ARG>A<CB> 1
c<A>r<268>a<2076>R<ARG>A<CD> 1
c<A>r<269>a<2081>R<ASN>A<N> 2
c<A>r<269>a<2085>R<ASN>A<CB> 2
c<A>r<269>a<2086>R<ASN>A<CG> 2
c<A>r<269>a<2087>R<ASN>A<OD1> 1
c<A>r<269>a<2088>R<ASN>A<ND2> 1
c<A>r<273>a<2125>R<GLU>A<OE2> 1
c<A>r<313>a<2449>R<ARG>A<NH2> 1
