Stochastic Gradient Boosting 

518 samples
 17 predictor
  2 classes: 'HS', 'NHS' 

No pre-processing
Resampling: Cross-Validated (10 fold, repeated 3 times) 
Summary of sample sizes: 466, 467, 466, 466, 466, 466, ... 
Resampling results across tuning parameters:

  interaction.depth  n.minobsinnode  n.trees  ROC        Sens       Spec     
  1                   5              2000     0.7957457  0.1747863  0.9811966
  1                   5              2100     0.7967319  0.1854701  0.9786325
  1                   5              2200     0.7979043  0.2012821  0.9743590
  1                   5              2300     0.7986495  0.2198718  0.9743590
  1                   5              2400     0.8000137  0.2380342  0.9735043
  1                   5              2500     0.8001781  0.2510684  0.9726496
  1                   5              2600     0.8015204  0.2591880  0.9709402
  1                   5              2700     0.8015916  0.2668803  0.9675214
  1                   5              2800     0.8024189  0.2694444  0.9658120
  1                   5              2900     0.8022929  0.2745726  0.9632479
  1                   5              3000     0.8027230  0.2824786  0.9623932
  1                   5              3100     0.8028490  0.2852564  0.9606838
  1                   5              3200     0.8029750  0.2929487  0.9598291
  1                   5              3300     0.8034243  0.3032051  0.9598291
  1                   5              3400     0.8040160  0.3111111  0.9581197
  1                   5              3500     0.8044872  0.3162393  0.9564103
  1                   5              3600     0.8045474  0.3213675  0.9555556
  1                   5              3700     0.8053474  0.3264957  0.9555556
  1                   5              3800     0.8057583  0.3316239  0.9529915
  1                   5              3900     0.8064103  0.3341880  0.9538462
  1                   5              4000     0.8066075  0.3418803  0.9512821
  1                   5              4100     0.8068157  0.3523504  0.9487179
  1                   5              4200     0.8066294  0.3549145  0.9487179
  1                   5              4300     0.8070294  0.3574786  0.9470085
  1                   5              4400     0.8078293  0.3653846  0.9461538
  1                   5              4500     0.8081635  0.3705128  0.9461538
  1                   5              4600     0.8083059  0.3756410  0.9461538
  1                   5              4700     0.8085032  0.3756410  0.9461538
  1                   5              4800     0.8081525  0.3782051  0.9452991
  1                   5              4900     0.8082731  0.3807692  0.9452991
  1                   5              5000     0.8085415  0.3833333  0.9452991
  1                  10              2000     0.7962525  0.1745726  0.9794872
  1                  10              2100     0.7973921  0.1852564  0.9786325
  1                  10              2200     0.7977153  0.1959402  0.9769231
  1                  10              2300     0.7989207  0.2170940  0.9735043
  1                  10              2400     0.7995480  0.2356838  0.9726496
  1                  10              2500     0.8004082  0.2487179  0.9709402
  1                  10              2600     0.8012273  0.2617521  0.9700855
  1                  10              2700     0.8019066  0.2643162  0.9692308
  1                  10              2800     0.8024600  0.2694444  0.9649573
  1                  10              2900     0.8035119  0.2797009  0.9641026
  1                  10              3000     0.8040434  0.2852564  0.9623932
  1                  10              3100     0.8038078  0.2955128  0.9615385
  1                  10              3200     0.8041968  0.3006410  0.9589744
  1                  10              3300     0.8041913  0.3111111  0.9581197
  1                  10              3400     0.8045584  0.3162393  0.9581197
  1                  10              3500     0.8048488  0.3213675  0.9555556
  1                  10              3600     0.8053254  0.3264957  0.9547009
  1                  10              3700     0.8055282  0.3290598  0.9538462
  1                  10              3800     0.8057254  0.3316239  0.9529915
  1                  10              3900     0.8061144  0.3367521  0.9504274
  1                  10              4000     0.8066404  0.3393162  0.9495726
  1                  10              4100     0.8075170  0.3444444  0.9487179
  1                  10              4200     0.8075225  0.3470085  0.9478632
  1                  10              4300     0.8077252  0.3574786  0.9478632
  1                  10              4400     0.8083881  0.3626068  0.9470085
  1                  10              4500     0.8085032  0.3702991  0.9470085
  1                  10              4600     0.8083881  0.3728632  0.9470085
  1                  10              4700     0.8087936  0.3807692  0.9470085
  1                  10              4800     0.8089250  0.3833333  0.9461538
  1                  10              4900     0.8087881  0.3833333  0.9452991
  1                  10              5000     0.8090401  0.3935897  0.9444444
  2                   5              2000     0.8094948  0.3106838  0.9641026
  2                   5              2100     0.8104153  0.3211538  0.9641026
  2                   5              2200     0.8110618  0.3237179  0.9615385
  2                   5              2300     0.8119932  0.3418803  0.9606838
  2                   5              2400     0.8122562  0.3497863  0.9598291
  2                   5              2500     0.8123274  0.3549145  0.9572650
  2                   5              2600     0.8126014  0.3574786  0.9555556
  2                   5              2700     0.8127219  0.3677350  0.9547009
  2                   5              2800     0.8127876  0.3732906  0.9538462
  2                   5              2900     0.8131821  0.3732906  0.9521368
  2                   5              3000     0.8135108  0.3784188  0.9521368
  2                   5              3100     0.8136533  0.3809829  0.9504274
  2                   5              3200     0.8142067  0.3861111  0.9504274
  2                   5              3300     0.8141902  0.3938034  0.9504274
  2                   5              3400     0.8147107  0.3938034  0.9478632
  2                   5              3500     0.8149737  0.3938034  0.9461538
  2                   5              3600     0.8153627  0.3938034  0.9461538
  2                   5              3700     0.8154394  0.3989316  0.9461538
  2                   5              3800     0.8148313  0.4014957  0.9452991
  2                   5              3900     0.8153572  0.4040598  0.9452991
  2                   5              4000     0.8154120  0.4066239  0.9452991
  2                   5              4100     0.8152257  0.4066239  0.9452991
  2                   5              4200     0.8153572  0.4064103  0.9452991
  2                   5              4300     0.8152312  0.4064103  0.9452991
  2                   5              4400     0.8148148  0.4064103  0.9444444
  2                   5              4500     0.8148751  0.4064103  0.9444444
  2                   5              4600     0.8150833  0.4115385  0.9435897
  2                   5              4700     0.8152093  0.4115385  0.9435897
  2                   5              4800     0.8154230  0.4115385  0.9435897
  2                   5              4900     0.8153517  0.4166667  0.9435897
  2                   5              5000     0.8154832  0.4192308  0.9444444
  2                  10              2000     0.8081251  0.3211538  0.9641026
  2                  10              2100     0.8088593  0.3288462  0.9615385
  2                  10              2200     0.8092045  0.3339744  0.9581197
  2                  10              2300     0.8099551  0.3418803  0.9572650
  2                  10              2400     0.8101414  0.3470085  0.9572650
  2                  10              2500     0.8107988  0.3521368  0.9572650
  2                  10              2600     0.8109303  0.3600427  0.9564103
  2                  10              2700     0.8118617  0.3677350  0.9555556
  2                  10              2800     0.8123822  0.3705128  0.9555556
  2                  10              2900     0.8125192  0.3784188  0.9555556
  2                  10              3000     0.8131109  0.3861111  0.9538462
  2                  10              3100     0.8133794  0.3912393  0.9538462
  2                  10              3200     0.8139053  0.3938034  0.9538462
  2                  10              3300     0.8138341  0.3963675  0.9529915
  2                  10              3400     0.8148477  0.3989316  0.9529915
  2                  10              3500     0.8149025  0.3989316  0.9512821
  2                  10              3600     0.8149847  0.3989316  0.9512821
  2                  10              3700     0.8149244  0.4066239  0.9504274
  2                  10              3800     0.8142998  0.4091880  0.9504274
  2                  10              3900     0.8143655  0.4091880  0.9495726
  2                  10              4000     0.8141574  0.4115385  0.9487179
  2                  10              4100     0.8140916  0.4115385  0.9478632
  2                  10              4200     0.8142121  0.4141026  0.9478632
  2                  10              4300     0.8144751  0.4141026  0.9478632
  2                  10              4400     0.8144696  0.4141026  0.9470085
  2                  10              4500     0.8141245  0.4166667  0.9461538
  2                  10              4600     0.8141957  0.4166667  0.9452991
  2                  10              4700     0.8145080  0.4217949  0.9452991
  2                  10              4800     0.8143929  0.4217949  0.9452991
  2                  10              4900     0.8146559  0.4192308  0.9435897
  2                  10              5000     0.8145957  0.4220085  0.9418803

Tuning parameter 'shrinkage' was held constant at a value of 0.001
ROC was used to select the optimal model using  the largest value.
The final values used for the model were n.trees = 5000, interaction.depth = 2,
 shrinkage = 0.001 and n.minobsinnode = 5. 
