Linear Support Vector Machines with Class Weights 

509 samples
 17 predictor
  2 classes: 'HS', 'NHS' 

No pre-processing
Resampling: Cross-Validated (10 fold, repeated 3 times) 
Summary of sample sizes: 457, 458, 458, 459, 459, 459, ... 
Resampling results across tuning parameters:

  cost  weight  ROC        Sens       Spec     
  0.1   0.1     0.8011483  0.9273504  0.2964238
  0.1   0.2     0.8136082  0.8224359  0.6458165
  0.1   0.3     0.8142609  0.7153846  0.7774404
  0.1   0.4     0.8163903  0.6694444  0.8189834
  0.1   0.5     0.8190462  0.6237179  0.8542960
  0.1   0.6     0.8184745  0.5895299  0.8751237
  0.1   0.7     0.8170810  0.5382479  0.8932973
  0.1   0.8     0.8171824  0.5032051  0.9166667
  0.1   0.9     0.8173850  0.4658120  0.9340081
  0.1   1.0     0.8157054  0.4384615  0.9444220
  0.5   0.1     0.7916778  0.9057692  0.3482906
  0.5   0.2     0.8078395  0.8064103  0.6457940
  0.5   0.3     0.8077986  0.7153846  0.7731219
  0.5   0.4     0.8120999  0.6589744  0.8155421
  0.5   0.5     0.8154798  0.6292735  0.8482456
  0.5   0.6     0.8164448  0.5942308  0.8699730
  0.5   0.7     0.8145148  0.5514957  0.8863698
  0.5   0.8     0.8123580  0.4950855  0.9045884
  0.5   0.9     0.8133733  0.4544872  0.9262708
  0.5   1.0     0.8126727  0.4384615  0.9357400
  1.0   0.1     0.7881469  0.9085470  0.3587269
  1.0   0.2     0.8043877  0.8014957  0.6448943
  1.0   0.3     0.8061951  0.7207265  0.7696581
  1.0   0.4     0.8107138  0.6641026  0.8137652
  1.0   0.5     0.8148200  0.6211538  0.8473684
  1.0   0.6     0.8161205  0.5942308  0.8690958
  1.0   0.7     0.8142051  0.5514957  0.8872695
  1.0   0.8     0.8112530  0.5029915  0.9071750
  1.0   0.9     0.8131801  0.4544872  0.9245389
  1.0   1.0     0.8123966  0.4382479  0.9374944
  1.5   0.1     0.7862703  0.9032051  0.3639001
  1.5   0.2     0.8038362  0.7933761  0.6492353
  1.5   0.3     0.8048602  0.7128205  0.7679262
  1.5   0.4     0.8105951  0.6668803  0.8146199
  1.5   0.5     0.8144730  0.6213675  0.8456365
  1.5   0.6     0.8158226  0.5886752  0.8690958
  1.5   0.7     0.8135971  0.5514957  0.8863923
  1.5   0.8     0.8102113  0.5029915  0.9071525
  1.5   0.9     0.8126812  0.4544872  0.9236842
  1.5   1.0     0.8118113  0.4299145  0.9383491
  2.0   0.1     0.7848045  0.9006410  0.3630229
  2.0   0.2     0.8031355  0.7908120  0.6483581
  2.0   0.3     0.8043198  0.7076923  0.7679262
  2.0   0.4     0.8108313  0.6668803  0.8163068
  2.0   0.5     0.8141731  0.6185897  0.8456365
  2.0   0.6     0.8156238  0.5942308  0.8690958
  2.0   0.7     0.8139988  0.5542735  0.8863923
  2.0   0.8     0.8103122  0.5004274  0.9080072
  2.0   0.9     0.8121648  0.4544872  0.9228295
  2.0   1.0     0.8120569  0.4299145  0.9383491

ROC was used to select the optimal model using  the largest value.
The final values used for the model were cost = 0.1 and weight = 0.5. 
