Stochastic Gradient Boosting 

518 samples
 17 predictor
  2 classes: 'HS', 'NHS' 

No pre-processing
Resampling: Cross-Validated (10 fold, repeated 3 times) 
Summary of sample sizes: 467, 466, 466, 466, 466, 467, ... 
Resampling results across tuning parameters:

  interaction.depth  n.minobsinnode  n.trees  ROC        Sens       Spec     
  1                   5              2000     0.7973181  0.1826923  0.9794872
  1                   5              2100     0.7980112  0.1903846  0.9769231
  1                   5              2200     0.7991563  0.1982906  0.9743590
  1                   5              2300     0.7998439  0.2164530  0.9700855
  1                   5              2400     0.8007150  0.2190171  0.9675214
  1                   5              2500     0.8015998  0.2371795  0.9649573
  1                   5              2600     0.8016710  0.2450855  0.9641026
  1                   5              2700     0.8028271  0.2583333  0.9623932
  1                   5              2800     0.8033640  0.2737179  0.9606838
  1                   5              2900     0.8037201  0.2790598  0.9598291
  1                   5              3000     0.8043940  0.2897436  0.9589744
  1                   5              3100     0.8049419  0.3002137  0.9572650
  1                   5              3200     0.8049858  0.3079060  0.9555556
  1                   5              3300     0.8051337  0.3104701  0.9521368
  1                   5              3400     0.8051337  0.3211538  0.9521368
  1                   5              3500     0.8053693  0.3239316  0.9495726
  1                   5              3600     0.8061582  0.3344017  0.9495726
  1                   5              3700     0.8063062  0.3446581  0.9495726
  1                   5              3800     0.8069855  0.3551282  0.9487179
  1                   5              3900     0.8073252  0.3551282  0.9478632
  1                   5              4000     0.8070568  0.3602564  0.9470085
  1                   5              4100     0.8070020  0.3705128  0.9470085
  1                   5              4200     0.8072047  0.3756410  0.9452991
  1                   5              4300     0.8072704  0.3756410  0.9452991
  1                   5              4400     0.8076101  0.3756410  0.9444444
  1                   5              4500     0.8076649  0.3833333  0.9435897
  1                   5              4600     0.8077361  0.3833333  0.9435897
  1                   5              4700     0.8082183  0.3861111  0.9427350
  1                   5              4800     0.8086073  0.3861111  0.9418803
  1                   5              4900     0.8089524  0.3886752  0.9410256
  1                   5              5000     0.8090894  0.3940171  0.9410256
  1                  10              2000     0.7980687  0.1775641  0.9786325
  1                  10              2100     0.7984194  0.1852564  0.9769231
  1                  10              2200     0.7982988  0.2034188  0.9752137
  1                  10              2300     0.7994987  0.2115385  0.9709402
  1                  10              2400     0.8006164  0.2217949  0.9700855
  1                  10              2500     0.8019395  0.2401709  0.9675214
  1                  10              2600     0.8022080  0.2583333  0.9649573
  1                  10              2700     0.8024436  0.2688034  0.9615385
  1                  10              2800     0.8029038  0.2792735  0.9606838
  1                  10              2900     0.8037914  0.2846154  0.9598291
  1                  10              3000     0.8043393  0.2897436  0.9581197
  1                  10              3100     0.8044050  0.3002137  0.9572650
  1                  10              3200     0.8046132  0.3106838  0.9547009
  1                  10              3300     0.8051720  0.3185897  0.9529915
  1                  10              3400     0.8060432  0.3211538  0.9512821
  1                  10              3500     0.8062404  0.3341880  0.9504274
  1                  10              3600     0.8063883  0.3341880  0.9504274
  1                  10              3700     0.8069198  0.3423077  0.9495726
  1                  10              3800     0.8072485  0.3500000  0.9487179
  1                  10              3900     0.8069253  0.3525641  0.9470085
  1                  10              4000     0.8074732  0.3576923  0.9470085
  1                  10              4100     0.8072704  0.3602564  0.9470085
  1                  10              4200     0.8079334  0.3653846  0.9452991
  1                  10              4300     0.8077471  0.3705128  0.9452991
  1                  10              4400     0.8083552  0.3732906  0.9444444
  1                  10              4500     0.8084813  0.3758547  0.9435897
  1                  10              4600     0.8081416  0.3758547  0.9435897
  1                  10              4700     0.8080758  0.3786325  0.9435897
  1                  10              4800     0.8086840  0.3837607  0.9435897
  1                  10              4900     0.8087607  0.3837607  0.9427350
  1                  10              5000     0.8090291  0.3863248  0.9410256
  2                   5              2000     0.8078512  0.3134615  0.9581197
  2                   5              2100     0.8077745  0.3241453  0.9547009
  2                   5              2200     0.8081909  0.3294872  0.9529915
  2                   5              2300     0.8087990  0.3450855  0.9512821
  2                   5              2400     0.8096702  0.3553419  0.9504274
  2                   5              2500     0.8099551  0.3579060  0.9487179
  2                   5              2600     0.8102235  0.3658120  0.9478632
  2                   5              2700     0.8104427  0.3683761  0.9478632
  2                   5              2800     0.8107057  0.3711538  0.9470085
  2                   5              2900     0.8109194  0.3841880  0.9461538
  2                   5              3000     0.8116590  0.3895299  0.9444444
  2                   5              3100     0.8121357  0.3946581  0.9435897
  2                   5              3200     0.8121302  0.3997863  0.9418803
  2                   5              3300     0.8123439  0.4023504  0.9410256
  2                   5              3400     0.8125356  0.4023504  0.9401709
  2                   5              3500     0.8130068  0.4051282  0.9410256
  2                   5              3600     0.8131054  0.4076923  0.9393162
  2                   5              3700     0.8133794  0.4076923  0.9393162
  2                   5              3800     0.8134506  0.4130342  0.9376068
  2                   5              3900     0.8139272  0.4211538  0.9367521
  2                   5              4000     0.8138396  0.4262821  0.9367521
  2                   5              4100     0.8140971  0.4288462  0.9358974
  2                   5              4200     0.8140368  0.4288462  0.9350427
  2                   5              4300     0.8142615  0.4314103  0.9350427
  2                   5              4400     0.8146724  0.4339744  0.9341880
  2                   5              4500     0.8147326  0.4339744  0.9324786
  2                   5              4600     0.8153408  0.4393162  0.9324786
  2                   5              4700     0.8152586  0.4444444  0.9324786
  2                   5              4800     0.8156531  0.4444444  0.9324786
  2                   5              4900     0.8151326  0.4444444  0.9290598
  2                   5              5000     0.8154120  0.4472222  0.9282051
  2                  10              2000     0.8063171  0.3188034  0.9564103
  2                  10              2100     0.8074019  0.3294872  0.9555556
  2                  10              2200     0.8079279  0.3348291  0.9521368
  2                  10              2300     0.8084210  0.3425214  0.9495726
  2                  10              2400     0.8088922  0.3555556  0.9487179
  2                  10              2500     0.8093798  0.3632479  0.9487179
  2                  10              2600     0.8095880  0.3658120  0.9478632
  2                  10              2700     0.8099989  0.3683761  0.9478632
  2                  10              2800     0.8100099  0.3764957  0.9470085
  2                  10              2900     0.8108646  0.3816239  0.9470085
  2                  10              3000     0.8113303  0.3841880  0.9461538
  2                  10              3100     0.8116590  0.3869658  0.9452991
  2                  10              3200     0.8118069  0.3972222  0.9427350
  2                  10              3300     0.8116261  0.3972222  0.9427350
  2                  10              3400     0.8119439  0.4051282  0.9427350
  2                  10              3500     0.8124863  0.4079060  0.9427350
  2                  10              3600     0.8128972  0.4079060  0.9427350
  2                  10              3700     0.8130506  0.4130342  0.9427350
  2                  10              3800     0.8133300  0.4155983  0.9393162
  2                  10              3900     0.8137300  0.4181624  0.9376068
  2                  10              4000     0.8139820  0.4260684  0.9376068
  2                  10              4100     0.8138451  0.4286325  0.9367521
  2                  10              4200     0.8137026  0.4311966  0.9324786
  2                  10              4300     0.8139108  0.4339744  0.9307692
  2                  10              4400     0.8144368  0.4365385  0.9307692
  2                  10              4500     0.8149025  0.4365385  0.9307692
  2                  10              4600     0.8153791  0.4391026  0.9299145
  2                  10              4700     0.8152476  0.4391026  0.9307692
  2                  10              4800     0.8154504  0.4418803  0.9299145
  2                  10              4900     0.8151819  0.4391026  0.9316239
  2                  10              5000     0.8151326  0.4391026  0.9307692

Tuning parameter 'shrinkage' was held constant at a value of 0.001
ROC was used to select the optimal model using  the largest value.
The final values used for the model were n.trees = 4800, interaction.depth = 2,
 shrinkage = 0.001 and n.minobsinnode = 5. 
