Stochastic Gradient Boosting 

518 samples
 17 predictor
  2 classes: 'HS', 'NHS' 

No pre-processing
Resampling: Cross-Validated (10 fold, repeated 3 times) 
Summary of sample sizes: 466, 466, 466, 466, 466, 467, ... 
Resampling results across tuning parameters:

  interaction.depth  n.minobsinnode  n.trees  ROC        Sens       Spec     
  1                   5              2000     0.8036544  0.1878205  0.9794872
  1                   5              2100     0.8046132  0.1955128  0.9794872
  1                   5              2200     0.8055227  0.2034188  0.9760684
  1                   5              2300     0.8058514  0.2162393  0.9735043
  1                   5              2400     0.8067828  0.2243590  0.9717949
  1                   5              2500     0.8071006  0.2348291  0.9666667
  1                   5              2600     0.8071773  0.2476496  0.9632479
  1                   5              2700     0.8080539  0.2555556  0.9623932
  1                   5              2800     0.8086621  0.2690171  0.9615385
  1                   5              2900     0.8098510  0.2769231  0.9598291
  1                   5              3000     0.8107495  0.2769231  0.9598291
  1                   5              3100     0.8111659  0.2876068  0.9589744
  1                   5              3200     0.8119603  0.2955128  0.9589744
  1                   5              3300     0.8126835  0.2980769  0.9581197
  1                   5              3400     0.8132807  0.3057692  0.9538462
  1                   5              3500     0.8132588  0.3111111  0.9521368
  1                   5              3600     0.8134670  0.3111111  0.9512821
  1                   5              3700     0.8135985  0.3136752  0.9512821
  1                   5              3800     0.8143765  0.3188034  0.9512821
  1                   5              3900     0.8141957  0.3213675  0.9512821
  1                   5              4000     0.8144039  0.3264957  0.9504274
  1                   5              4100     0.8151983  0.3316239  0.9495726
  1                   5              4200     0.8154011  0.3420940  0.9487179
  1                   5              4300     0.8156092  0.3576923  0.9487179
  1                   5              4400     0.8161352  0.3709402  0.9461538
  1                   5              4500     0.8161462  0.3735043  0.9461538
  1                   5              4600     0.8166667  0.3760684  0.9461538
  1                   5              4700     0.8165297  0.3814103  0.9470085
  1                   5              4800     0.8166667  0.3839744  0.9452991
  1                   5              4900     0.8170666  0.3893162  0.9444444
  1                   5              5000     0.8172693  0.3920940  0.9444444
  1                  10              2000     0.8032161  0.1876068  0.9811966
  1                  10              2100     0.8044105  0.2006410  0.9786325
  1                  10              2200     0.8051446  0.2032051  0.9769231
  1                  10              2300     0.8063390  0.2136752  0.9760684
  1                  10              2400     0.8072156  0.2292735  0.9726496
  1                  10              2500     0.8078512  0.2397436  0.9683761
  1                  10              2600     0.8082128  0.2425214  0.9649573
  1                  10              2700     0.8092976  0.2532051  0.9632479
  1                  10              2800     0.8096811  0.2690171  0.9632479
  1                  10              2900     0.8101852  0.2822650  0.9606838
  1                  10              3000     0.8103386  0.2899573  0.9598291
  1                  10              3100     0.8108098  0.2980769  0.9598291
  1                  10              3200     0.8120096  0.3032051  0.9581197
  1                  10              3300     0.8132807  0.3057692  0.9581197
  1                  10              3400     0.8134067  0.3057692  0.9572650
  1                  10              3500     0.8139437  0.3083333  0.9555556
  1                  10              3600     0.8137410  0.3108974  0.9547009
  1                  10              3700     0.8142669  0.3160256  0.9529915
  1                  10              3800     0.8152750  0.3264957  0.9529915
  1                  10              3900     0.8152805  0.3290598  0.9521368
  1                  10              4000     0.8158832  0.3393162  0.9512821
  1                  10              4100     0.8157462  0.3418803  0.9495726
  1                  10              4200     0.8154284  0.3527778  0.9504274
  1                  10              4300     0.8160366  0.3604701  0.9495726
  1                  10              4400     0.8163653  0.3709402  0.9478632
  1                  10              4500     0.8163544  0.3786325  0.9478632
  1                  10              4600     0.8166338  0.3891026  0.9470085
  1                  10              4700     0.8173515  0.3995726  0.9452991
  1                  10              4800     0.8173570  0.4021368  0.9452991
  1                  10              4900     0.8178008  0.4021368  0.9444444
  1                  10              5000     0.8178720  0.4074786  0.9435897
  2                   5              2000     0.8144423  0.2820513  0.9615385
  2                   5              2100     0.8144039  0.2897436  0.9606838
  2                   5              2200     0.8147326  0.3160256  0.9598291
  2                   5              2300     0.8154120  0.3237179  0.9572650
  2                   5              2400     0.8161023  0.3288462  0.9555556
  2                   5              2500     0.8165023  0.3418803  0.9538462
  2                   5              2600     0.8162558  0.3495726  0.9529915
  2                   5              2700     0.8172419  0.3523504  0.9512821
  2                   5              2800     0.8175104  0.3600427  0.9504274
  2                   5              2900     0.8175542  0.3702991  0.9512821
  2                   5              3000     0.8174830  0.3754274  0.9504274
  2                   5              3100     0.8181021  0.3858974  0.9478632
  2                   5              3200     0.8187158  0.3910256  0.9487179
  2                   5              3300     0.8191048  0.3935897  0.9470085
  2                   5              3400     0.8192472  0.3961538  0.9461538
  2                   5              3500     0.8193787  0.3989316  0.9461538
  2                   5              3600     0.8198608  0.4017094  0.9452991
  2                   5              3700     0.8194499  0.4070513  0.9452991
  2                   5              3800     0.8199156  0.4096154  0.9444444
  2                   5              3900     0.8198444  0.4096154  0.9418803
  2                   5              4000     0.8199211  0.4068376  0.9410256
  2                   5              4100     0.8195157  0.4145299  0.9410256
  2                   5              4200     0.8196033  0.4170940  0.9401709
  2                   5              4300     0.8196033  0.4222222  0.9384615
  2                   5              4400     0.8197348  0.4222222  0.9384615
  2                   5              4500     0.8198718  0.4222222  0.9384615
  2                   5              4600     0.8200197  0.4273504  0.9367521
  2                   5              4700     0.8201567  0.4245726  0.9358974
  2                   5              4800     0.8202279  0.4301282  0.9350427
  2                   5              4900     0.8201677  0.4301282  0.9341880
  2                   5              5000     0.8200964  0.4326923  0.9333333
  2                  10              2000     0.8149353  0.2899573  0.9649573
  2                  10              2100     0.8151271  0.3029915  0.9641026
  2                  10              2200     0.8157243  0.3132479  0.9598291
  2                  10              2300     0.8167872  0.3209402  0.9564103
  2                  10              2400     0.8170009  0.3288462  0.9547009
  2                  10              2500     0.8172639  0.3416667  0.9547009
  2                  10              2600     0.8171981  0.3495726  0.9521368
  2                  10              2700     0.8171926  0.3598291  0.9512821
  2                  10              2800     0.8172584  0.3677350  0.9504274
  2                  10              2900     0.8174008  0.3756410  0.9495726
  2                  10              3000     0.8174721  0.3807692  0.9487179
  2                  10              3100     0.8175433  0.3835470  0.9487179
  2                  10              3200     0.8181460  0.3863248  0.9478632
  2                  10              3300     0.8178282  0.3940171  0.9478632
  2                  10              3400     0.8181514  0.3991453  0.9478632
  2                  10              3500     0.8179542  0.3991453  0.9470085
  2                  10              3600     0.8183432  0.4070513  0.9461538
  2                  10              3700     0.8184747  0.4096154  0.9452991
  2                  10              3800     0.8183542  0.4175214  0.9452991
  2                  10              3900     0.8182720  0.4173077  0.9444444
  2                  10              4000     0.8178830  0.4147436  0.9452991
  2                  10              4100     0.8178775  0.4147436  0.9444444
  2                  10              4200     0.8180802  0.4147436  0.9435897
  2                  10              4300     0.8178830  0.4147436  0.9427350
  2                  10              4400     0.8178939  0.4147436  0.9427350
  2                  10              4500     0.8181186  0.4173077  0.9418803
  2                  10              4600     0.8185788  0.4173077  0.9418803
  2                  10              4700     0.8184473  0.4147436  0.9410256
  2                  10              4800     0.8187815  0.4147436  0.9410256
  2                  10              4900     0.8188527  0.4147436  0.9401709
  2                  10              5000     0.8190500  0.4173077  0.9401709

Tuning parameter 'shrinkage' was held constant at a value of 0.001
ROC was used to select the optimal model using  the largest value.
The final values used for the model were n.trees = 4800, interaction.depth = 2,
 shrinkage = 0.001 and n.minobsinnode = 5. 
