CART 

518 samples
 16 predictor
  2 classes: 'HS', 'NHS' 

No pre-processing
Resampling: Cross-Validated (10 fold, repeated 3 times) 
Summary of sample sizes: 466, 466, 466, 466, 466, 466, ... 
Resampling results across tuning parameters:

  cp    ROC        Sens         Spec     
  0.01  0.7510163  0.450641026  0.8820513
  0.02  0.6743645  0.387606838  0.9000000
  0.03  0.6541502  0.351282051  0.9034188
  0.04  0.6292324  0.297435897  0.9068376
  0.05  0.6206142  0.245299145  0.9170940
  0.06  0.6229482  0.258333333  0.9170940
  0.07  0.6151874  0.232905983  0.9153846
  0.08  0.6021121  0.211324786  0.9196581
  0.09  0.5760191  0.159401709  0.9290598
  0.10  0.5190390  0.072863248  0.9487179
  0.11  0.5051994  0.049786325  0.9623932
  0.12  0.5030627  0.031837607  0.9760684
  0.13  0.5020299  0.008333333  0.9957265
  0.14  0.5000000  0.000000000  1.0000000
  0.15  0.5000000  0.000000000  1.0000000
  0.16  0.5000000  0.000000000  1.0000000
  0.17  0.5000000  0.000000000  1.0000000
  0.18  0.5000000  0.000000000  1.0000000
  0.19  0.5000000  0.000000000  1.0000000
  0.20  0.5000000  0.000000000  1.0000000
  0.21  0.5000000  0.000000000  1.0000000
  0.22  0.5000000  0.000000000  1.0000000
  0.23  0.5000000  0.000000000  1.0000000
  0.24  0.5000000  0.000000000  1.0000000
  0.25  0.5000000  0.000000000  1.0000000
  0.26  0.5000000  0.000000000  1.0000000
  0.27  0.5000000  0.000000000  1.0000000
  0.28  0.5000000  0.000000000  1.0000000
  0.29  0.5000000  0.000000000  1.0000000
  0.30  0.5000000  0.000000000  1.0000000
  0.31  0.5000000  0.000000000  1.0000000
  0.32  0.5000000  0.000000000  1.0000000
  0.33  0.5000000  0.000000000  1.0000000
  0.34  0.5000000  0.000000000  1.0000000
  0.35  0.5000000  0.000000000  1.0000000
  0.36  0.5000000  0.000000000  1.0000000
  0.37  0.5000000  0.000000000  1.0000000
  0.38  0.5000000  0.000000000  1.0000000
  0.39  0.5000000  0.000000000  1.0000000
  0.40  0.5000000  0.000000000  1.0000000
  0.41  0.5000000  0.000000000  1.0000000
  0.42  0.5000000  0.000000000  1.0000000
  0.43  0.5000000  0.000000000  1.0000000
  0.44  0.5000000  0.000000000  1.0000000
  0.45  0.5000000  0.000000000  1.0000000
  0.46  0.5000000  0.000000000  1.0000000
  0.47  0.5000000  0.000000000  1.0000000
  0.48  0.5000000  0.000000000  1.0000000
  0.49  0.5000000  0.000000000  1.0000000
  0.50  0.5000000  0.000000000  1.0000000
  0.51  0.5000000  0.000000000  1.0000000
  0.52  0.5000000  0.000000000  1.0000000
  0.53  0.5000000  0.000000000  1.0000000
  0.54  0.5000000  0.000000000  1.0000000
  0.55  0.5000000  0.000000000  1.0000000
  0.56  0.5000000  0.000000000  1.0000000
  0.57  0.5000000  0.000000000  1.0000000
  0.58  0.5000000  0.000000000  1.0000000
  0.59  0.5000000  0.000000000  1.0000000
  0.60  0.5000000  0.000000000  1.0000000
  0.61  0.5000000  0.000000000  1.0000000
  0.62  0.5000000  0.000000000  1.0000000
  0.63  0.5000000  0.000000000  1.0000000
  0.64  0.5000000  0.000000000  1.0000000
  0.65  0.5000000  0.000000000  1.0000000
  0.66  0.5000000  0.000000000  1.0000000
  0.67  0.5000000  0.000000000  1.0000000
  0.68  0.5000000  0.000000000  1.0000000
  0.69  0.5000000  0.000000000  1.0000000
  0.70  0.5000000  0.000000000  1.0000000
  0.71  0.5000000  0.000000000  1.0000000
  0.72  0.5000000  0.000000000  1.0000000
  0.73  0.5000000  0.000000000  1.0000000
  0.74  0.5000000  0.000000000  1.0000000
  0.75  0.5000000  0.000000000  1.0000000
  0.76  0.5000000  0.000000000  1.0000000
  0.77  0.5000000  0.000000000  1.0000000
  0.78  0.5000000  0.000000000  1.0000000
  0.79  0.5000000  0.000000000  1.0000000
  0.80  0.5000000  0.000000000  1.0000000
  0.81  0.5000000  0.000000000  1.0000000
  0.82  0.5000000  0.000000000  1.0000000
  0.83  0.5000000  0.000000000  1.0000000
  0.84  0.5000000  0.000000000  1.0000000
  0.85  0.5000000  0.000000000  1.0000000
  0.86  0.5000000  0.000000000  1.0000000
  0.87  0.5000000  0.000000000  1.0000000
  0.88  0.5000000  0.000000000  1.0000000
  0.89  0.5000000  0.000000000  1.0000000
  0.90  0.5000000  0.000000000  1.0000000
  0.91  0.5000000  0.000000000  1.0000000
  0.92  0.5000000  0.000000000  1.0000000
  0.93  0.5000000  0.000000000  1.0000000
  0.94  0.5000000  0.000000000  1.0000000
  0.95  0.5000000  0.000000000  1.0000000
  0.96  0.5000000  0.000000000  1.0000000
  0.97  0.5000000  0.000000000  1.0000000
  0.98  0.5000000  0.000000000  1.0000000
  0.99  0.5000000  0.000000000  1.0000000
  1.00  0.5000000  0.000000000  1.0000000

ROC was used to select the optimal model using  the largest value.
The final value used for the model was cp = 0.01. 
