"Metric";"Testing_Set"
"Accuracy";"0.490566037735849"
"Kappa";"0.151133667281835"
"AccuracyLower";"0.45839048125326"
"AccuracyUpper";"0.522799992002946"
"AccuracyNull";"0.761006289308176"
"AccuracyPValue";"1"
"McnemarPValue";"4.08041413235762e-85"
"Sensitivity";"0.881578947368421"
"Specificity";"0.367768595041322"
"Pos Pred Value";"0.304545454545455"
"Neg Pred Value";"0.908163265306122"
"Precision";"0.304545454545455"
"Recall";"0.881578947368421"
"F1";"0.452702702702703"
"Prevalence";"0.238993710691824"
"Detection Rate";"0.210691823899371"
"Detection Prevalence";"0.691823899371069"
"Balanced Accuracy";"0.624673771204872"
"TP";"201"
"TN";"267"
"FP";"459"
"FN";"27"
