"Metric";"Testing_Set"
"Accuracy";"0.731656184486373"
"Kappa";"0.3058110581788"
"AccuracyLower";"0.702327893013728"
"AccuracyUpper";"0.759546626207111"
"AccuracyNull";"0.758909853249476"
"AccuracyPValue";"0.97655419086628"
"McnemarPValue";"0.020750145316116"
"Sensitivity";"0.526086956521739"
"Specificity";"0.796961325966851"
"Pos Pred Value";"0.451492537313433"
"Neg Pred Value";"0.841107871720117"
"Precision";"0.451492537313433"
"Recall";"0.526086956521739"
"F1";"0.485943775100402"
"Prevalence";"0.241090146750524"
"Detection Rate";"0.126834381551363"
"Detection Prevalence";"0.280922431865828"
"Balanced Accuracy";"0.661524141244295"
"TP";"121"
"TN";"577"
"FP";"147"
"FN";"109"
