c<C>r<1>a<3086>R<GLU>A<N> 3
c<C>r<1>a<3087>R<GLU>A<CA> 3
c<C>r<1>a<3088>R<GLU>A<C> 3
c<C>r<1>a<3089>R<GLU>A<O> 3
c<C>r<1>a<3090>R<GLU>A<CB> 3
c<C>r<1>a<3091>R<GLU>A<CG> 2
c<C>r<1>a<3092>R<GLU>A<CD> 2
c<C>r<1>a<3093>R<GLU>A<OE1> 2
c<C>r<1>a<3094>R<GLU>A<OE2> 1
c<C>r<2>a<3095>R<LEU>A<N> 3
c<C>r<2>a<3096>R<LEU>A<CA> 2
c<C>r<2>a<3097>R<LEU>A<C> 3
c<C>r<2>a<3098>R<LEU>A<O> 3
c<C>r<2>a<3099>R<LEU>A<CB> 2
c<C>r<2>a<3100>R<LEU>A<CG> 2
c<C>r<2>a<3101>R<LEU>A<CD1> 2
c<C>r<2>a<3102>R<LEU>A<CD2> 1
c<C>r<3>a<3103>R<ALA>A<N> 2
c<C>r<3>a<3104>R<ALA>A<CA> 2
c<C>r<3>a<3105>R<ALA>A<C> 2
c<C>r<3>a<3106>R<ALA>A<O> 2
c<C>r<3>a<3107>R<ALA>A<CB> 1
c<C>r<4>a<3108>R<GLY>A<N> 2
c<C>r<4>a<3109>R<GLY>A<CA> 1
c<C>r<4>a<3110>R<GLY>A<C> 2
c<C>r<4>a<3111>R<GLY>A<O> 1
c<C>r<5>a<3112>R<ILE>A<N> 2
c<C>r<5>a<3113>R<ILE>A<CA> 2
c<C>r<5>a<3114>R<ILE>A<C> 2
c<C>r<5>a<3115>R<ILE>A<O> 2
c<C>r<5>a<3116>R<ILE>A<CB> 2
c<C>r<5>a<3117>R<ILE>A<CG1> 2
c<C>r<5>a<3118>R<ILE>A<CG2> 2
c<C>r<5>a<3119>R<ILE>A<CD1> 1
c<C>r<6>a<3120>R<GLY>A<N> 2
c<C>r<6>a<3121>R<GLY>A<CA> 1
c<C>r<6>a<3122>R<GLY>A<C> 1
c<C>r<6>a<3123>R<GLY>A<O> 1
c<C>r<7>a<3124>R<ILE>A<N> 2
c<C>r<7>a<3125>R<ILE>A<CA> 2
c<C>r<7>a<3126>R<ILE>A<C> 2
c<C>r<7>a<3127>R<ILE>A<O> 1
c<C>r<7>a<3128>R<ILE>A<CB> 2
c<C>r<7>a<3129>R<ILE>A<CG1> 2
c<C>r<7>a<3130>R<ILE>A<CG2> 2
c<C>r<7>a<3131>R<ILE>A<CD1> 2
c<C>r<8>a<3132>R<LEU>A<N> 2
c<C>r<8>a<3133>R<LEU>A<CA> 2
c<C>r<8>a<3134>R<LEU>A<C> 2
c<C>r<8>a<3135>R<LEU>A<O> 2
c<C>r<8>a<3136>R<LEU>A<CB> 1
c<C>r<8>a<3137>R<LEU>A<CG> 2
c<C>r<8>a<3138>R<LEU>A<CD1> 1
c<C>r<8>a<3139>R<LEU>A<CD2> 1
c<C>r<9>a<3140>R<THR>A<N> 1
c<C>r<9>a<3141>R<THR>A<CA> 2
c<C>r<9>a<3142>R<THR>A<C> 2
c<C>r<9>a<3143>R<THR>A<O> 2
c<C>r<9>a<3144>R<THR>A<CB> 2
c<C>r<9>a<3145>R<THR>A<OG1> 1
c<C>r<9>a<3146>R<THR>A<CG2> 1
c<C>r<10>a<3147>R<VAL>A<N> 2
c<C>r<10>a<3148>R<VAL>A<CA> 2
c<C>r<10>a<3149>R<VAL>A<C> 2
c<C>r<10>a<3150>R<VAL>A<O> 1
c<C>r<10>a<3151>R<VAL>A<CB> 2
c<C>r<10>a<3152>R<VAL>A<CG1> 3
c<C>r<10>a<3153>R<VAL>A<CG2> 2
c<C>r<10>a<3154>R<VAL>A<OXT> 1
