c<A>r<316>a<970>R<ILE>A<O> 1
c<A>r<317>a<976>R<GLY>A<CA> 1
c<A>r<322>a<1014>R<LYS>A<O> 1
c<A>r<323>a<1017>R<ASP>A<CA> 1
c<A>r<323>a<1018>R<ASP>A<C> 2
c<A>r<323>a<1019>R<ASP>A<O> 1
c<A>r<324>a<1024>R<SER>A<O> 1
c<A>r<325>a<1028>R<LEU>A<CA> 2
c<A>r<325>a<1030>R<LEU>A<O> 1
c<A>r<325>a<1031>R<LEU>A<CB> 1
c<A>r<325>a<1032>R<LEU>A<CG> 1
c<A>r<325>a<1033>R<LEU>A<CD1> 1
c<A>r<325>a<1034>R<LEU>A<CD2> 1
c<A>r<344>a<1172>R<ASP>A<OD2> 1
c<A>r<346>a<1188>R<HIS>A<CD2> 1
c<A>r<346>a<1189>R<HIS>A<CE1> 1
c<A>r<346>a<1190>R<HIS>A<NE2> 1
c<A>r<348>a<1201>R<LEU>A<C> 2
c<A>r<348>a<1203>R<LEU>A<CB> 2
c<A>r<348>a<1205>R<LEU>A<CD1> 1
c<A>r<348>a<1206>R<LEU>A<CD2> 1
c<A>r<349>a<1207>R<PRO>A<N> 2
c<A>r<349>a<1208>R<PRO>A<CA> 1
c<A>r<349>a<1210>R<PRO>A<O> 1
c<A>r<349>a<1211>R<PRO>A<CB> 1
c<A>r<349>a<1212>R<PRO>A<CG> 1
c<A>r<349>a<1213>R<PRO>A<CD> 2
c<A>r<350>a<1214>R<VAL>A<N> 2
c<A>r<350>a<1218>R<VAL>A<CB> 2
c<A>r<350>a<1219>R<VAL>A<CG1> 2
c<A>r<350>a<1220>R<VAL>A<CG2> 1
c<A>r<353>a<1241>R<ARG>A<CB> 1
c<A>r<353>a<1242>R<ARG>A<CG> 1
c<A>r<353>a<1243>R<ARG>A<CD> 1
c<A>r<353>a<1244>R<ARG>A<NE> 1
c<A>r<353>a<1245>R<ARG>A<CZ> 2
c<A>r<353>a<1246>R<ARG>A<NH1> 2
c<A>r<353>a<1247>R<ARG>A<NH2> 2
c<A>r<354>a<1251>R<GLY>A<O> 1
c<A>r<355>a<1257>R<ASP>A<CG> 2
c<A>r<355>a<1258>R<ASP>A<OD1> 1
c<A>r<355>a<1259>R<ASP>A<OD2> 2
c<A>r<357>a<1266>R<PHE>A<N> 1
c<A>r<357>a<1270>R<PHE>A<CB> 1
c<A>r<357>a<1271>R<PHE>A<CG> 2
c<A>r<357>a<1272>R<PHE>A<CD1> 1
c<A>r<357>a<1273>R<PHE>A<CD2> 1
c<A>r<357>a<1274>R<PHE>A<CE1> 1
c<A>r<357>a<1275>R<PHE>A<CE2> 1
c<A>r<357>a<1276>R<PHE>A<CZ> 1
c<A>r<358>a<1283>R<THR>A<CG2> 1
c<A>r<380>a<1453>R<PHE>A<CE2> 1
c<A>r<380>a<1454>R<PHE>A<CZ> 2
c<A>r<384>a<1482>R<GLN>A<O> 1
c<A>r<384>a<1484>R<GLN>A<CG> 1
c<A>r<384>a<1485>R<GLN>A<CD> 1
c<A>r<384>a<1486>R<GLN>A<OE1> 1
c<A>r<384>a<1487>R<GLN>A<NE2> 1
c<A>r<385>a<1492>R<ALA>A<CB> 1
c<A>r<409>a<1692>R<HIS>A<CB> 1
c<A>r<409>a<1693>R<HIS>A<CG> 1
c<A>r<409>a<1694>R<HIS>A<ND1> 1
c<A>r<409>a<1695>R<HIS>A<CD2> 1
c<A>r<409>a<1696>R<HIS>A<CE1> 1
c<A>r<409>a<1697>R<HIS>A<NE2> 1
c<A>r<418>a<1756>R<SER>A<CA> 2
c<A>r<418>a<1757>R<SER>A<C> 2
c<A>r<418>a<1758>R<SER>A<O> 1
c<A>r<418>a<1759>R<SER>A<CB> 1
c<A>r<418>a<1760>R<SER>A<OG> 1
c<A>r<419>a<1763>R<LEU>A<C> 2
c<A>r<419>a<1764>R<LEU>A<O> 1
c<A>r<420>a<1775>R<ASN>A<OD1> 1
c<A>r<441>a<1923>R<GLY>A<O> 1
c<A>r<443>a<1932>R<LYS>A<N> 1
c<A>r<443>a<1936>R<LYS>A<CB> 1
c<A>r<468>a<2129>R<SER>A<OG> 1
c<A>r<601>a<2431>R<NAG>A<C8> 1
c<A>r<604>a<2466>R<NAG>A<C1> 2
c<A>r<604>a<2467>R<NAG>A<C2> 2
c<A>r<604>a<2468>R<NAG>A<C3> 2
c<A>r<604>a<2469>R<NAG>A<C4> 2
c<A>r<604>a<2470>R<NAG>A<C5> 2
c<A>r<604>a<2471>R<NAG>A<C6> 2
c<A>r<604>a<2472>R<NAG>A<C7> 1
c<A>r<604>a<2473>R<NAG>A<C8> 1
c<A>r<604>a<2474>R<NAG>A<N2> 1
c<A>r<604>a<2475>R<NAG>A<O3> 1
c<A>r<604>a<2476>R<NAG>A<O4> 1
c<A>r<604>a<2477>R<NAG>A<O5> 2
c<A>r<604>a<2478>R<NAG>A<O6> 1
c<A>r<605>a<2480>R<IOD>A<I> 1
