"The table details the residue variety in % for each position in the query sequence."
"Each column shows the % for that amino-acid, found in position ('pos') in the MSA."
"In case there are residues which are not a standard amino-acid in the MSA, they are represented under column 'OTHER'"

pos,A,C,D,E,F,G,H,I,K,L,M,N,P,Q,R,S,T,V,W,Y,OTHER,MAX AA,ConSurf Grade
1,,,,,,,,,,,97.297,,,,,,,2.703,,,,M 97.297,9
2,76.000,,,,,2.000,,,,,,,,,,16.000,6.000,,,,,A 76.000,5
3,5.263,,82.456,5.263,,1.754,,,,,,,,,,5.263,,,,,,D 82.456,5
4,5.172,,,,25.862,15.517,6.897,5.172,,8.621,1.724,,,1.724,,3.448,3.448,5.172,,17.241,,F 25.862,1
5,1.538,,30.769,52.308,,6.154,,,,,,7.692,,,,,,1.538,,,,E 52.308,1
6,,,35.714,54.286,,2.857,,,,1.429,,,,,,,4.286,1.429,,,,E 54.286,1
7,4.706,,1.176,8.235,1.176,2.353,,,,,,,21.176,29.412,4.706,1.176,11.765,10.588,2.353,1.176,,Q 29.412,1
8,0.990,,,,,,,48.515,,35.644,0.990,,,0.990,,0.990,,11.881,,,,I 48.515,5
9,,1.802,,,,5.405,0.901,,,,,1.802,11.712,,0.901,57.658,18.018,,0.901,,0.900900900900901,S 57.658,4
10,2.500,,58.333,13.333,,1.667,0.833,1.667,5.000,,,4.167,4.167,2.500,,2.500,1.667,1.667,,,,D 58.333,3
11,9.231,,5.385,36.923,,0.769,0.769,,1.538,0.769,,3.846,2.308,22.308,0.769,10.769,3.846,0.769,,,,E 36.923,1
12,2.985,,9.701,81.343,,,,,2.239,,,0.746,,1.493,,,,0.746,,0.746,,E 81.343,6
13,,,,,,,,1.449,75.362,0.725,,1.449,,1.449,19.565,,,,,,,K 75.362,8
14,5.036,,0.719,,,1.439,,21.583,,8.633,0.719,,,0.719,,,0.719,60.432,,,,V 60.432,6
15,1.439,0.719,0.719,9.353,,,1.439,,10.072,0.719,0.719,2.158,,7.914,52.518,10.791,0.719,,,0.719,,R 52.518,3
16,12.950,,,,0.719,,,71.223,,7.194,0.719,,,,0.719,,2.878,3.597,,,,I 71.223,8
17,58.993,3.597,,,,,,7.194,,,0.719,,,,,1.439,0.719,27.338,,,,A 58.993,7
18,28.369,8.511,,,,1.418,1.418,,,,,0.709,,,,51.064,8.511,,,,,S 51.064,7
19,0.709,,26.950,,,9.929,,,17.730,,,27.660,,1.418,5.674,7.801,2.128,,,,,N 27.660,2
20,,,,,85.816,,,2.128,,12.057,,,,,,,,,,,,F 85.816,8
21,,,,,,,,41.844,,43.972,0.709,,,,,,,13.475,,,,L 43.972,7
22,,,,,,0.709,2.128,10.638,3.546,53.901,4.255,,,4.965,5.674,,12.057,1.418,,0.709,,L 53.901,5
23,2.817,,0.704,,,,57.746,,0.704,3.521,,4.225,,24.648,0.704,4.930,,,,,,H 57.746,7
24,54.930,0.704,,,,,0.704,,,,,,,,,42.958,,0.704,,,,A 54.930,7
25,,,,,,,,,,,,,99.286,,,0.714,,,,,,P 99.286,9
26,1.418,,,,,,,,,,,,97.163,,,0.709,,,,,0.709219858156028,P 97.163,9
27,0.709,2.837,,0.709,,94.326,,,,,,0.709,,,,,,,,,0.709219858156028,G 94.326,8
28,,,,97.857,,,,,0.714,,,,,0.714,,,,,,,0.714285714285714,E 97.857,9
29,0.714,,,,72.143,,,15.714,,5.000,,,,,,0.714,,5.000,,,0.714285714285714,F 72.143,8
30,1.418,0.709,1.418,1.418,,3.546,,0.709,0.709,,1.418,83.688,,,2.128,0.709,1.418,,,,0.709219858156028,N 83.688,8
31,0.704,,23.944,65.493,,,,,0.704,,,1.408,,4.930,,,1.408,,,0.704,0.704225352112676,E 65.493,8
32,0.704,0.704,,,,,,3.521,,,,,,,,,,94.366,,,0.704225352112676,V 94.366,9
33,,,,,71.329,,,0.699,,18.182,,,,,,,,7.692,0.699,0.699,0.699300699300699,F 71.329,8
34,,,2.098,2.797,,,0.699,,0.699,,,79.021,,5.594,,4.196,3.497,,,0.699,0.699300699300699,N 79.021,7
35,3.497,,92.308,,,,,,,,,0.699,,,,2.098,,0.699,,,0.699300699300699,D 92.308,9
36,1.399,0.699,,,,,,8.392,,10.490,,,,,,,,78.322,,,0.699300699300699,V 78.322,8
37,,2.778,,0.694,,,,,0.694,,,,,1.389,90.278,1.389,,,1.389,0.694,0.694444444444444,R 90.278,8
38,6.897,0.690,2.069,4.138,1.379,4.138,1.379,8.276,2.759,22.069,8.276,8.966,,0.690,0.690,2.069,7.586,16.552,,0.690,0.689655172413793,L 22.069,2
39,,,,,0.690,,,17.931,0.690,79.310,,,0.690,,,,,,,,0.689655172413793,L 79.310,9
40,1.379,,,,2.069,,,20.690,,59.310,1.379,,,,,0.690,1.379,12.414,,,0.689655172413793,L 59.310,6
41,2.083,,6.250,,,5.556,,,4.861,,0.694,55.556,1.389,6.944,,15.972,,,,,0.694444444444444,N 55.556,5
42,,,43.056,1.389,,,,,1.389,,,53.472,,,,,,,,,0.694444444444444,N 53.472,7
43,,,93.750,3.472,,,0.694,,,,,0.694,,0.694,,,,,,,0.694444444444444,D 93.750,9
44,6.250,,15.972,12.500,1.389,2.083,1.389,,2.778,,,26.389,2.778,6.944,2.083,6.944,8.333,2.778,,0.694,0.694444444444444,N 26.389,1
45,4.861,,,0.694,0.694,0.694,,4.167,,72.917,,,,1.389,0.694,11.111,1.389,0.694,,,0.694444444444444,L 72.917,6
46,0.694,,,,1.389,,,2.083,,83.333,3.472,,1.389,,,0.694,0.694,5.556,,,0.694444444444444,L 83.333,8
47,,1.389,0.694,3.472,,,1.389,,38.194,,0.694,2.778,,18.750,31.250,,,0.694,,,0.694444444444444,K 38.194,6
48,2.778,,8.333,62.500,,2.083,,,3.472,,,2.778,,7.639,2.778,2.778,4.167,,,,0.694444444444444,E 62.500,3
49,2.778,,0.694,11.806,,70.139,0.694,,6.944,,,0.694,,0.694,0.694,2.778,0.694,0.694,,,0.694444444444444,G 70.139,3
50,55.862,10.345,,,,,,12.414,,4.138,1.379,,0.690,,,0.690,2.069,11.724,,,0.689655172413793,A 55.862,6
51,45.517,1.379,0.690,0.690,,0.690,,0.690,,16.552,0.690,0.690,0.690,3.448,,22.069,3.448,1.379,,0.690,0.689655172413793,A 45.517,5
52,8.276,0.690,4.138,2.069,,15.172,26.207,,0.690,,0.690,2.759,17.241,7.586,4.828,8.276,,,,0.690,0.689655172413793,H 26.207,1
53,74.483,,,0.690,,,0.690,1.379,,0.690,0.690,0.690,,,,8.276,4.138,7.586,,,0.689655172413793,A 74.483,6
54,1.379,3.448,,,55.862,4.138,,6.207,,20.000,,,,,0.690,0.690,0.690,4.828,0.690,0.690,0.689655172413793,F 55.862,6
55,62.069,,,5.517,0.690,0.690,0.690,0.690,0.690,,,,,3.448,13.103,6.207,2.759,2.759,,,0.689655172413793,A 62.069,6
56,,2.778,,23.611,,,2.083,,11.111,2.778,,0.694,,51.389,2.778,0.694,,,,1.389,0.694444444444444,Q 51.389,5
57,,,,,,,7.639,,,0.694,,,,,,,,,,90.972,0.694444444444444,Y 90.972,9
58,,2.083,,,,,0.694,,0.694,,,93.056,,,1.389,0.694,0.694,,,,0.694444444444444,N 93.056,9
59,,,,3.448,,,,4.138,38.621,18.621,18.621,,,0.690,2.759,,8.276,4.138,,,0.689655172413793,K 38.621,5
60,8.904,,51.370,21.918,,1.370,,,3.425,0.685,,4.110,0.685,,,4.795,1.370,0.685,,,0.684931506849315,D 51.370,4
61,,,,1.370,,,2.055,,,,,8.904,,86.986,,,,,,,0.684931506849315,Q 86.986,9
62,,,,,69.863,,2.740,,,20.548,4.110,,,,,0.685,,,,1.370,0.684931506849315,F 69.863,8
63,3.425,,,0.685,0.685,,2.055,17.808,0.685,1.370,4.110,,0.685,,,0.685,61.644,5.479,,,0.684931506849315,T 61.644,6
64,2.055,0.685,,,,0.685,1.370,0.685,,2.055,,,67.123,2.740,0.685,1.370,15.753,4.110,,,0.684931506849315,P 67.123,5
65,16.438,4.110,,,,,,2.740,,0.685,0.685,,,,,,0.685,74.658,,,,V 74.658,7
66,2.041,,12.245,3.401,0.680,,1.361,2.721,51.020,0.680,,,0.680,6.122,12.245,2.721,3.401,0.680,,,,K 51.020,2
67,,,,,,,,33.333,,29.932,0.680,,2.721,2.041,,3.401,0.680,27.211,,,,I 33.333,4
68,,,19.728,38.095,,0.680,,,2.721,0.680,0.680,7.483,27.891,,0.680,1.361,,,,,,E 38.095,1
69,,,3.150,3.150,,76.378,,,0.787,,,13.386,,0.787,,1.575,,,0.787,,,G 76.378,4
70,6.923,2.308,,1.538,1.538,3.077,4.615,2.308,0.769,4.615,,2.308,,6.154,,23.846,8.462,10.769,,20.769,,S 23.846,2
71,0.676,,29.730,34.459,,10.135,0.676,,6.757,,,4.730,2.027,4.730,,6.081,,,,,,E 34.459,1
72,,0.680,18.367,12.245,2.721,2.041,27.211,1.361,9.524,5.442,,5.442,,0.680,2.721,3.401,,1.361,,6.803,,H 27.211,1
73,2.703,,0.676,3.378,0.676,1.351,0.676,0.676,7.432,4.730,1.351,4.054,16.216,45.946,0.676,2.027,5.405,,,2.027,,Q 45.946,2
74,10.811,4.054,,,1.351,,,1.351,,0.676,,,,,,8.784,16.892,56.081,,,,V 56.081,6
75,,,,,,,0.671,20.134,,75.839,,,,,0.671,,,2.685,,,,L 75.839,8
76,,,,,,,,63.087,,8.725,,,0.671,,,1.342,,26.174,,,,I 63.087,6
77,,1.342,,,,,,,,0.671,,0.671,,,,23.490,73.826,,,,,T 73.826,9
78,2.013,,5.369,52.349,,,4.698,,14.765,,,0.671,7.383,2.013,4.027,4.027,2.685,,,,,E 52.349,3
79,12.752,,0.671,0.671,13.423,,45.638,0.671,,,,,0.671,,1.342,,,0.671,,23.490,,H 45.638,4
80,12.081,,,,,40.940,,,,0.671,,42.953,,,,3.356,,,,,,N 42.953,7
81,2.013,,57.047,13.423,,,1.342,0.671,4.698,0.671,,4.698,,4.698,10.067,,,,,0.671,,D 57.047,4
82,0.667,,,0.667,,,,16.000,1.333,65.333,2.000,,,0.667,1.333,0.667,,11.333,,,,L 65.333,4
83,1.342,,6.711,8.725,,69.128,,,0.671,,,,6.040,1.342,,4.698,1.342,,,,,G 69.128,1
84,2.000,,6.000,12.667,,27.333,2.000,,0.667,,,35.333,,6.667,1.333,4.667,0.667,0.667,,,,N 35.333,1
85,1.333,,10.667,6.667,,51.333,,,,,,16.000,,2.000,,10.667,0.667,0.667,,,,G 51.333,4
86,,,,2.000,,,2.000,1.333,3.333,0.667,,,,1.333,86.000,0.667,0.667,,,2.000,,R 86.000,7
87,,,,,82.000,,,1.333,,,,,,,,,,2.000,0.667,14.000,,F 82.000,8
88,2.000,0.667,,,26.667,,,0.667,,40.667,2.667,,,,,,0.667,7.333,2.667,16.000,,L 40.667,2
89,,2.000,92.000,2.000,,0.667,0.667,,,,,,,,,,,0.667,,2.000,,D 92.000,9
90,4.667,,4.667,0.667,,,1.333,,,,,,88.000,,,0.667,,,,,,P 88.000,7
91,3.333,0.667,,0.667,0.667,,2.667,0.667,18.000,0.667,0.667,,,9.333,61.333,0.667,,0.667,,,,R 61.333,6
92,2.667,,4.000,,,1.333,,0.667,2.000,,,22.667,,2.000,1.333,49.333,14.000,,,,,S 49.333,6
93,,1.333,,,,4.667,2.000,,68.667,,0.667,4.667,,4.667,12.000,0.667,0.667,,,,,K 68.667,4
94,,0.667,,,5.333,,,16.000,11.333,10.000,0.667,0.667,,32.667,4.000,0.667,12.000,6.000,,,,Q 32.667,4
95,2.000,0.667,,,0.667,,,,0.667,,,,,,,72.667,20.000,3.333,,,,S 72.667,7
96,,,,,96.667,,,0.667,,1.333,,,,,,,,1.333,,,,F 96.667,9
97,4.667,0.667,,4.667,0.667,,4.000,1.333,54.667,1.333,,0.667,,0.667,17.333,3.333,2.000,2.667,,1.333,,K 54.667,2
98,,1.333,,,61.333,,,1.333,,3.333,,,,,,,,0.667,,32.000,,F 61.333,6
99,,,94.000,0.667,,,0.667,0.667,,,,3.333,,,,0.667,,,,,,D 94.000,8
100,,,,,,,95.333,0.667,,,,,2.000,,,,0.667,0.667,,0.667,,H 95.333,9
101,0.667,,,,0.667,0.667,,7.333,,82.000,3.333,,0.667,,,,,3.333,,1.333,,L 82.000,6
102,2.000,,0.667,,,1.333,0.667,,8.667,,,2.000,,0.667,69.333,8.667,4.667,,1.333,,,R 69.333,5
103,,,,1.333,0.667,6.667,,0.667,58.000,16.667,,,,8.000,7.333,,,0.667,,,,K 58.000,7
104,1.333,,2.667,78.000,,0.667,,2.000,0.667,0.667,,,,,2.000,0.667,7.333,4.000,,,,E 78.000,6
105,74.667,,,,,1.333,,1.333,,,,,0.667,0.667,,2.000,8.000,11.333,,,,A 74.667,7
106,2.667,,2.667,,0.667,1.333,,0.667,,1.333,1.333,0.667,,2.000,0.667,71.333,13.333,1.333,,,,S 71.333,6
107,,,75.333,10.667,,3.333,,,5.333,,,2.667,,0.667,0.667,,1.333,,,,,D 75.333,6
108,4.000,1.333,,1.333,8.000,,0.667,11.333,,12.000,,,34.000,,,3.333,2.000,8.667,0.667,12.667,,P 34.000,1
109,0.667,,2.667,12.667,,1.333,5.333,,7.333,2.000,,0.667,,54.667,10.000,1.333,0.667,0.667,,,,Q 54.667,5
110,2.667,,4.000,3.333,,0.667,,0.667,,6.667,,4.667,54.667,0.667,0.667,16.667,4.000,0.667,,,,P 54.667,1
111,8.667,1.333,0.667,11.333,4.000,0.667,30.000,2.667,,4.000,2.000,,,2.000,1.333,0.667,1.333,6.667,6.000,16.667,,H 30.000,1
112,2.703,,21.622,45.270,,,,1.351,1.351,1.351,4.730,4.054,6.081,2.703,,3.378,5.405,,,,,E 45.270,1
113,6.667,0.741,,5.185,,14.074,0.741,8.889,4.444,4.444,1.481,1.481,28.889,,1.481,5.185,2.222,13.333,,0.741,,P 28.889,1
114,,,57.718,19.463,,1.342,,,,6.711,0.671,4.027,0.671,1.342,0.671,6.040,,1.342,,,,D 57.718,4
115,18.000,0.667,10.667,11.333,,10.000,4.000,3.333,2.000,,,7.333,6.667,4.667,3.333,10.667,4.000,3.333,,,,A 18.000,1
116,20.134,,12.081,14.765,,8.054,0.671,2.685,3.356,1.342,0.671,2.685,0.671,2.013,2.685,12.752,10.067,5.369,,,,A 20.134,1
117,22.000,,,1.333,,5.333,1.333,5.333,,25.333,6.667,,,,0.667,12.000,12.667,6.667,0.667,,,L 25.333,1
118,1.333,,0.667,79.333,,,0.667,,8.000,0.667,,3.333,,,5.333,0.667,,,,,,E 79.333,7
119,4.027,,,4.027,0.671,2.685,0.671,0.671,4.027,10.067,,0.671,31.544,4.698,,31.544,3.356,1.342,,,,PS 31.544,1
120,,,0.671,,9.396,0.671,,0.671,0.671,10.067,,,,1.342,,,0.671,0.671,71.141,4.027,,W 71.141,3
121,,,,,,,,,,,,,,0.671,98.658,,0.671,,,,,R 98.658,9
122,23.490,,11.409,10.067,,3.356,1.342,0.671,10.067,2.013,,4.698,,2.013,5.369,22.148,2.685,0.671,,,,A 23.490,1
123,77.181,,,1.342,,,,,,0.671,2.685,0.671,0.671,,,9.396,4.698,2.685,,,,A 77.181,7
124,,14.094,,,4.027,,,10.738,,57.718,,,,,,,,13.423,,,,L 57.718,5
125,,,38.667,38.000,,,5.333,,,,,2.000,,15.333,,,,,,0.667,,D 38.667,6
126,9.333,0.667,6.667,16.667,,1.333,,6.000,9.333,2.667,,8.000,,1.333,2.000,18.667,14.000,3.333,,,,S 18.667,1
127,42.667,,1.333,30.667,0.667,6.000,0.667,,0.667,0.667,,,0.667,2.667,,11.333,1.333,0.667,,,,A 42.667,5
128,14.667,2.667,,,8.000,,,6.667,,40.000,2.667,,,,,2.667,12.000,8.667,2.000,,,L 40.000,2
129,2.667,,14.000,1.333,0.667,,,4.000,4.667,17.333,,6.000,,2.667,20.667,6.000,17.333,2.667,,,,R 20.667,1
130,35.333,,0.667,5.333,,2.667,,2.667,12.667,3.333,,6.000,0.667,5.333,,8.667,14.667,2.000,,,,A 35.333,1
131,,,,,,,,,,,,,,,,,,,,100.000,,Y 100.000,9
132,0.667,6.000,,,,0.667,,16.667,,12.000,2.000,,,,,0.667,17.333,44.000,,,,V 44.000,5
133,14.667,,6.000,9.333,0.667,,1.333,,33.333,2.000,1.333,9.333,,6.000,2.000,10.667,2.000,0.667,,0.667,,K 33.333,1
134,10.667,4.667,22.000,28.667,,1.333,,,2.667,,,15.333,,,1.333,13.333,,,,,,E 28.667,1
135,,,,,1.333,,90.000,,,,,,,0.667,1.333,2.000,,,,4.667,,H 90.000,8
136,,,,,27.333,,,,,,,,,,,,,,,72.667,,Y 72.667,7
137,3.333,0.667,,1.333,0.667,,8.667,0.667,16.667,2.000,,,37.333,4.000,11.333,8.667,3.333,1.333,,,,P 37.333,1
138,4.000,,18.000,4.667,,2.000,15.333,,1.333,,,24.000,,0.667,1.333,14.667,10.000,1.333,,2.667,,N 24.000,2
139,,,,,,100.000,,,,,,,,,,,,,,,,G 100.000,9
140,4.667,0.667,0.667,,6.667,0.667,0.667,8.667,,2.000,0.667,6.000,,,,5.333,9.333,54.000,,,,V 54.000,4
141,14.000,50.667,,,1.333,9.333,0.667,,,2.000,,,,,,11.333,7.333,3.333,,,,C 50.667,3
142,11.333,12.667,0.667,0.667,,,,,,0.667,,0.667,,,0.667,33.333,35.333,4.000,,,,T 35.333,5
143,,,0.667,,,,,7.333,,,,,,,,,0.667,91.333,,,,V 91.333,8
144,,,,,53.333,,0.667,1.333,,,,,,,,,,1.333,,43.333,,F 53.333,6
145,20.134,0.671,1.342,0.671,,40.940,,0.671,4.698,,,,1.342,1.342,2.013,12.752,4.027,8.054,0.671,0.671,,G 40.940,1
146,1.342,,0.671,,,,0.671,,43.624,2.013,0.671,5.369,3.356,2.685,13.423,12.081,8.054,3.356,,2.685,,K 43.624,1
147,1.942,,1.942,0.971,,0.971,0.971,2.913,8.738,,,3.883,,0.971,2.913,32.039,40.777,0.971,,,,T 40.777,4
148,2.439,,5.691,4.065,,,2.439,23.577,3.252,8.943,,4.065,8.130,12.195,3.252,7.317,5.691,8.130,,0.813,,I 23.577,1
149,2.500,,39.167,2.500,,32.500,,,3.333,,,10.833,0.833,0.833,1.667,4.167,1.667,,,,,D 39.167,1
150,2.308,,3.077,10.000,,50.769,,0.769,6.154,,,5.385,2.308,3.846,0.769,13.077,1.538,,,,,G 50.769,1
151,4.667,,7.333,4.667,0.667,5.333,6.000,1.333,5.333,,,13.333,3.333,25.333,5.333,12.000,4.000,1.333,,,,Q 25.333,1
152,,,2.027,2.027,0.676,11.486,2.027,22.973,5.405,1.351,0.676,5.405,2.703,26.351,3.378,4.054,5.405,4.054,,,,Q 26.351,1
153,2.000,,0.667,4.000,0.667,2.000,3.333,4.667,2.667,1.333,2.667,4.000,,6.667,5.333,6.000,46.667,6.667,,0.667,,T 46.667,1
154,,,,,19.333,,,34.667,,35.333,0.667,,,,,,,6.667,,3.333,,L 35.333,4
155,0.667,,,,0.667,,1.333,31.333,,,1.333,3.333,,,,1.333,28.000,31.333,,0.667,,IV 31.333,4
156,44.000,,,0.667,,0.667,,23.333,,10.667,2.000,,,,,0.667,0.667,17.333,,,,A 44.000,5
157,3.333,80.000,,,,,,0.667,,,,,,14.667,,,,1.333,,,,C 80.000,9
158,,,,,,,,84.000,,5.333,0.667,,,,0.667,,,9.333,,,,I 84.000,7
159,0.667,,,74.667,,,,,,,,,,,,2.000,,22.667,,,,E 74.667,9
160,20.667,3.333,31.333,,,12.000,0.667,,,,,2.667,,,,29.333,,,,,,D 31.333,6
161,1.333,,,,,,74.667,,,,,20.667,,0.667,0.667,1.333,,,,0.667,,H 74.667,9
162,0.680,,,1.361,,,2.721,0.680,24.490,4.082,,,,59.864,6.122,,,,,,,Q 59.864,7
163,,,,,63.946,,0.680,,,0.680,,,,,,,,,,34.694,,F 63.946,8
164,0.671,,,4.027,2.013,,,,1.342,,,22.819,,61.745,3.356,2.685,0.671,,,,0.671140939597315,Q 61.745,8
165,4.698,,,,,,,,,,,,87.919,0.671,2.013,4.027,0.671,,,,,P 87.919,6
166,0.667,,1.333,1.333,,0.667,2.000,0.667,58.000,1.333,,8.000,1.333,5.333,1.333,13.333,4.667,,,,,K 58.000,4
167,0.667,,,1.333,,1.333,3.333,,2.667,,,88.000,,,,2.000,0.667,,,,,N 88.000,8
168,,1.342,,,69.128,,3.356,,,,,,0.671,2.013,,,,,0.671,22.148,0.671140939597315,F 69.128,5
169,,6.000,,,0.667,,,,,0.667,,,,0.667,0.667,2.000,,0.667,88.000,0.667,,W 88.000,7
170,2.667,,,,,0.667,,,,,,80.667,,,,13.333,2.667,,,,,N 80.667,9
171,0.667,1.333,,,,92.667,0.667,,,,,,,,,3.333,0.667,0.667,,,,G 92.667,8
172,,2.685,,0.671,1.342,,2.013,0.671,0.671,6.711,,,,,85.235,,,,,,,R 85.235,8
173,,7.383,,,,,,,,,2.013,,,,,,,0.671,89.262,0.671,,W 89.262,8
174,,,,,,,0.671,,11.409,1.342,,,,,85.906,,0.671,,,,,R 85.906,9
175,2.685,0.671,,,,1.342,0.671,,,,,,,,,94.631,,,,,,S 94.631,9
176,1.342,2.013,4.698,48.993,,,1.342,4.027,1.342,0.671,,,,18.792,2.013,0.671,3.356,10.067,,0.671,,E 48.993,4
177,,,,,,,,,,,,,,,,,,,85.135,14.865,,W 85.135,9
178,1.351,2.027,,2.027,2.703,,2.703,6.757,29.730,0.676,0.676,1.351,,,1.351,12.838,28.378,6.757,,0.676,,K 29.730,3
179,2.703,2.703,,,29.730,,,18.919,,12.162,0.676,,,,,,1.351,29.730,0.676,1.351,,FV 29.730,3
180,8.108,,14.189,1.351,,,,0.676,2.027,,0.676,8.108,12.162,1.351,0.676,9.459,39.189,2.027,,,,T 39.189,4
181,0.676,,,,21.622,,,26.351,,30.405,,0.676,2.703,0.676,,,2.703,14.189,,,,L 30.405,3
182,1.000,,5.000,1.000,,24.000,,4.000,14.000,1.000,,2.000,1.000,2.000,1.000,27.000,17.000,,,,,S 27.000,1
183,2.970,,0.990,1.980,,21.782,,0.990,,,,2.970,16.832,13.861,0.990,28.713,6.931,0.990,,,,S 28.713,1
184,5.932,,3.390,0.847,4.237,32.203,0.847,0.847,0.847,,0.847,4.237,11.017,,0.847,25.424,6.780,1.695,,,,G 32.203,1
185,8.108,0.676,2.027,4.054,0.676,0.676,,0.676,2.703,0.676,2.703,8.108,1.351,4.054,0.676,22.297,39.189,1.351,,,,T 39.189,1
186,42.667,0.667,,,2.000,8.000,1.333,0.667,4.667,1.333,,4.667,,7.333,2.000,3.333,15.333,6.000,,,,A 42.667,4
187,0.667,,5.333,39.333,,,2.000,,8.000,,,,,28.667,3.333,3.333,9.333,,,,,E 39.333,4
188,1.333,0.667,,,0.667,,,13.333,,34.000,1.333,,,,,0.667,,47.333,0.667,,,V 47.333,3
189,8.667,,0.667,6.000,0.667,,2.000,1.333,24.667,,,4.667,,4.000,8.000,6.000,14.667,18.667,,,,K 24.667,1
190,2.000,,,,,97.333,,,,,,,,,,0.667,,,,,,G 97.333,9
191,1.333,,,0.667,,0.667,,20.000,16.667,6.667,1.333,3.333,,0.667,2.667,6.667,6.667,32.667,,,,V 32.667,1
192,0.667,,,,6.000,,,21.333,,51.333,4.667,,,,,,2.000,12.667,,1.333,,L 51.333,5
193,,,,,2.000,,0.667,,70.000,15.333,0.667,,,2.000,6.667,,,1.333,1.333,,,K 70.000,7
194,1.333,1.333,,,0.667,,,28.000,,14.667,,,,,,1.333,1.333,51.333,,,,V 51.333,7
195,,,2.000,,,,0.667,0.667,0.667,0.667,,19.333,,75.333,,,0.667,,,,,Q 75.333,9
196,1.333,,,,,,,6.000,,2.000,0.667,,,,,,4.000,86.000,,,,V 86.000,9
197,,,,,,,99.333,,,,,,,,0.667,,,,,,,H 99.333,9
198,,1.333,,,0.667,,0.667,,,2.000,,,,0.667,,,,,,94.667,,Y 94.667,9
199,,0.667,,,12.000,,,,,,,,,,,,,0.667,,86.667,,Y 86.667,8
200,,,0.667,91.333,,,,,3.333,0.667,,1.333,,,2.667,,,,,,,E 91.333,8
201,,,76.000,4.667,,1.333,0.667,,2.000,,,,,14.000,,,,0.667,,0.667,,D 76.000,8
202,7.333,,0.667,,,90.667,,,,,,0.667,,,,0.667,,,,,,G 90.667,9
203,,,,,,,,,,0.667,,97.333,,,,2.000,,,,,,N 97.333,9
204,,,,,0.667,,,1.333,,6.667,,,,,,,,90.667,0.667,,,V 90.667,9
205,,,,,,0.667,8.000,,,,,0.667,,90.667,,,,,,,,Q 90.667,9
206,0.667,,,,0.667,,,0.667,,92.000,0.667,,,,,,,5.333,,,,L 92.000,9
207,5.333,,1.333,3.333,4.000,,,2.667,2.000,1.333,1.333,7.333,,2.000,,6.000,8.000,55.333,,,,V 55.333,6
208,3.333,1.333,,,,,,0.667,,0.667,2.000,0.667,,,,64.667,20.000,6.667,,,,S 64.667,8
209,2.000,0.667,3.333,9.333,,,23.333,1.333,1.333,,,6.000,,2.000,1.333,35.333,12.000,0.667,,1.333,,S 35.333,3
210,,,1.333,,0.667,,14.000,,78.667,,,,,1.333,0.667,,2.000,0.667,,0.667,,K 78.667,8
211,,,34.000,35.333,,0.667,,,0.667,,,5.333,2.667,1.333,,8.000,10.667,0.667,0.667,,,E 35.333,2
212,2.000,6.667,,0.667,4.667,,2.000,19.333,2.000,4.667,,,3.333,,,1.333,2.667,48.667,,2.000,,V 48.667,1
213,2.667,0.667,4.667,9.333,,0.667,,1.333,24.000,,,5.333,,19.333,6.000,18.667,5.333,2.000,,,,K 24.000,3
214,4.667,0.667,14.000,37.333,6.667,1.333,2.667,5.333,2.000,7.333,,2.000,2.000,2.000,1.333,0.667,1.333,8.667,,,,E 37.333,1
215,3.356,,3.356,6.040,0.671,,,1.342,10.738,,1.342,5.369,5.369,0.671,,42.282,18.121,1.342,,,,S 42.282,1
216,2.685,2.013,,,0.671,,,18.792,,40.940,4.698,,,,,0.671,1.342,28.188,,,,L 40.940,2
217,3.356,,0.671,,,0.671,4.027,2.013,3.356,,,14.094,22.819,4.027,,12.752,22.819,8.725,,0.671,,PT 22.819,1
218,8.054,1.342,,0.671,1.342,2.685,,22.148,2.013,4.027,2.013,,8.054,2.013,,4.027,2.685,38.255,,0.671,,V 38.255,1
219,3.378,,0.676,5.405,,3.378,,7.432,1.351,1.351,,1.351,2.027,0.676,0.676,43.919,27.703,0.676,,,,S 43.919,3
220,1.389,,22.222,,1.389,3.472,,,2.083,0.694,,42.361,6.250,,0.694,15.278,4.167,,,,,N 42.361,2
221,6.207,2.069,4.138,48.966,,0.690,1.379,2.069,0.690,2.759,,1.379,16.552,3.448,3.448,1.379,,2.759,,2.069,,E 48.966,1
222,22.917,0.694,4.167,7.639,,4.167,0.694,2.083,7.639,,,8.333,1.389,6.250,3.472,9.722,7.639,13.194,,,,A 22.917,1
223,10.274,,2.055,6.849,,3.425,,0.685,5.479,0.685,,4.795,1.370,52.055,,5.479,6.164,0.685,,,,Q 52.055,3
224,10.204,,0.680,,9.524,0.680,,2.041,,11.565,4.762,0.680,,,,6.803,51.020,2.041,,,,T 51.020,3
225,89.796,,,,,0.680,,,,,,0.680,,,,3.401,2.041,2.721,0.680,,,A 89.796,8
226,4.762,,4.082,2.041,,,0.680,3.401,51.020,1.361,1.361,4.762,0.680,2.721,4.762,11.565,5.442,1.361,,,,K 51.020,2
227,5.442,0.680,19.728,48.980,,0.680,,,15.646,0.680,,4.082,,0.680,0.680,1.361,1.361,,,,,E 48.980,4
228,2.041,0.680,,,38.776,,,26.531,,12.245,1.361,,,,,1.361,,15.646,,1.361,,F 38.776,4
229,5.442,,,0.680,5.442,,,26.531,,16.327,2.041,,,,,0.680,2.721,40.136,,,,V 40.136,3
230,16.327,,1.361,1.361,,,1.361,,50.340,,,1.361,,10.884,16.327,0.680,,,,,,K 50.340,5
231,8.844,0.680,0.680,1.361,8.163,0.680,0.680,32.653,1.361,33.333,0.680,,,2.041,1.361,0.680,,6.803,,,,L 33.333,2
232,1.361,,,,1.361,,,70.068,,1.361,4.762,,,,,,0.680,20.408,,,,I 70.068,7
233,4.762,1.361,2.041,57.143,,8.163,,,10.884,0.680,1.361,,,2.041,4.082,3.401,2.041,,2.041,,,E 57.143,2
234,19.728,,19.048,24.490,0.680,0.680,4.082,,10.204,0.680,0.680,6.803,,0.680,3.401,4.762,4.082,,,,,E 24.490,1
235,48.980,0.680,,29.252,2.041,,,,0.680,0.680,,,,0.680,,13.605,1.361,1.361,,0.680,,A 48.980,6
236,,,11.565,87.755,,,0.680,,,,,,,,,,,,,,,E 87.755,9
237,3.401,1.361,3.401,,,13.605,3.401,1.361,1.361,1.361,,41.497,,0.680,1.361,19.048,8.163,,,,,N 41.497,2
238,6.803,,19.048,33.333,,0.680,0.680,,21.088,2.721,,3.401,,2.041,4.082,2.721,3.401,,,,,E 33.333,1
239,,2.041,,,8.844,,2.041,2.041,,2.041,,,,,,,,0.680,,82.313,,Y 82.313,7
240,,,,2.055,,,9.589,,,,,,,88.356,,,,,,,,Q 88.356,9
241,4.795,0.685,4.110,2.055,,1.370,1.370,4.110,2.740,4.795,5.479,2.740,,2.740,3.425,3.425,50.000,6.164,,,,T 50.000,2
242,73.973,,,0.685,,4.110,,,,,0.685,,,,0.685,16.438,3.425,,,,,A 73.973,7
243,,,,,,,,62.759,,24.138,2.069,,,,,,,11.034,,,,I 62.759,7
244,,1.389,1.389,1.389,0.694,3.472,,0.694,0.694,5.556,2.083,25.694,,9.028,,46.528,0.694,0.694,,,,S 46.528,6
245,2.759,,17.931,70.345,,1.379,,,2.069,,,2.069,,1.379,,,2.069,,,,,E 70.345,4
246,4.828,,,0.690,,1.379,,,1.379,,,68.966,,,,11.724,8.276,2.069,,0.690,,N 68.966,7
247,,0.685,,,4.795,,,4.795,,2.055,0.685,,,0.685,,,,,,86.301,,Y 86.301,8
248,5.479,,,0.685,1.370,2.055,7.534,0.685,4.110,1.370,2.740,6.164,,58.904,1.370,4.795,2.055,0.685,,,,Q 58.904,4
249,10.274,0.685,8.219,11.644,,0.685,0.685,0.685,0.685,,0.685,2.055,,4.795,1.370,4.110,51.370,1.370,0.685,,,T 51.370,5
250,,,,,,,,0.690,,17.241,79.310,,,2.069,,,0.690,,,,,M 79.310,9
251,3.497,,,,,12.587,,2.098,,,,1.399,,,,79.720,,,0.699,,,S 79.720,8
252,,,59.310,30.345,,1.379,0.690,,,,,2.069,,,,3.448,2.069,0.690,,,,D 59.310,6
253,,0.685,6.164,2.740,,0.685,2.055,,15.068,,,4.795,,,,4.795,63.014,,,,,T 63.014,7
254,3.425,,,,,,0.685,4.110,,1.370,1.370,,,,0.685,2.055,82.877,3.425,,,,T 82.877,7
255,,,,,90.345,,,,,1.379,,,,,,,,,7.586,0.690,,F 90.345,9
256,,,,,,,,,97.241,,,0.690,,0.690,1.379,,,,,,,K 97.241,9
257,68.966,,0.690,,,15.172,,,,0.690,,4.828,,2.069,,3.448,3.448,0.690,,,,A 68.966,7
258,,,,,1.379,,,,,95.862,2.069,,,,,,,0.690,,,,L 95.862,9
259,,1.389,,,,,0.694,,,0.694,,,,0.694,96.528,,,,,,,R 96.528,9
260,,,,,,,0.694,,,0.694,,,,0.694,97.917,,,,,,,R 97.917,9
261,20.139,,,,,0.694,,0.694,4.167,4.167,0.694,0.694,1.389,56.944,2.778,4.167,1.389,1.389,0.694,,,Q 56.944,7
262,,,,,,,,0.694,,98.611,,,,,,,,0.694,,,,L 98.611,9
263,1.389,,,,,,,,,,,,98.611,,,,,,,,,P 98.611,9
264,,,,,0.694,,,15.972,,16.667,6.250,0.694,,,,,,59.028,,0.694,,V 59.028,6
265,,,,,0.694,,,4.167,,,2.083,0.694,,,0.694,,90.972,,,0.694,,T 90.972,9
266,,0.694,,,,4.861,2.778,,4.861,,0.694,0.694,,,85.417,,,,,,,R 85.417,7
267,8.333,,,0.694,,,,,0.694,0.694,2.778,3.472,,11.806,,14.583,54.167,2.778,,,,T 54.167,6
268,0.699,,,0.699,4.895,,,,89.510,,0.699,,,,0.699,,0.699,1.399,,0.699,,K 89.510,9
269,,,,,5.594,,,59.441,,17.483,11.189,,,,,,0.699,5.594,,,,I 59.441,6
270,,,86.014,0.699,,1.399,,,,,,9.790,0.699,,0.699,,0.699,,,,,D 86.014,8
271,,,,,,,,,,,,,,,,,,,100.000,,,W 100.000,9
272,0.699,,18.182,3.497,,3.497,2.098,,,1.399,,55.245,0.699,3.497,,7.692,3.497,,,,,N 55.245,5
273,,,,2.797,,,,,82.517,,,4.895,,0.699,7.692,0.699,0.699,,,,,K 82.517,7
274,0.704,,,,0.704,,,62.676,,11.268,3.521,,,,,0.704,4.225,16.197,,,,I 62.676,8
275,1.408,,,,0.704,,6.338,7.746,0.704,52.817,4.225,,,2.817,0.704,1.408,2.817,18.310,,,,L 52.817,4
276,4.225,,,,,22.535,,,1.408,,,14.085,,,,47.887,9.859,,,,,S 47.887,6
277,1.471,,0.735,,2.206,,0.735,0.735,0.735,1.471,,1.471,,,,0.735,,,,89.706,,Y 89.706,7
278,,,,0.775,,,,,61.240,,,,,3.876,13.953,18.605,1.550,,,,,K 61.240,7
279,,,,,0.775,,,73.643,,17.829,,,,,,0.775,1.550,5.426,,,,I 73.643,8
280,4.651,,0.775,,,90.698,,,,,,0.775,,,,0.775,0.775,1.550,,,,G 90.698,7
281,18.898,,,0.787,,3.937,,,48.819,,,3.150,,11.811,1.575,9.449,1.575,,,,,K 48.819,5
282,0.800,,6.400,91.200,,,,,,,,,,0.800,,0.800,,,,,,E 91.200,9
283,,,,,,,,7.258,0.806,63.710,26.613,,,,,,,1.613,,,,L 63.710,8
284,3.883,,0.971,0.971,,,0.971,,38.835,,,2.913,,31.068,0.971,17.476,1.942,,,,,K 38.835,6
285,,,,,,2.128,4.255,,2.128,,,78.723,,2.128,6.383,4.255,,,,,,N 78.723,7
286,100.000,,,,,,,,,,,,,,,,,,,,,A 100.000,9
