"The table details the residue variety in % for each position in the query sequence."
"Each column shows the % for that amino-acid, found in position ('pos') in the MSA."
"In case there are residues which are not a standard amino-acid in the MSA, they are represented under column 'OTHER'"

pos,A,C,D,E,F,G,H,I,K,L,M,N,P,Q,R,S,T,V,W,Y,OTHER,MAX AA,ConSurf Grade
1,,,,,,,,,,,100.000,,,,,,,,,,,M 100.000,6*
2,100.000,,,,,,,,,,,,,,,,,,,,,A 100.000,6*
3,,,,,,,100.000,,,,,,,,,,,,,,,H 100.000,6*
4,,,,,,,100.000,,,,,,,,,,,,,,,H 100.000,6*
5,,,,,,,100.000,,,,,,,,,,,,,,,H 100.000,6*
6,,,,,,,100.000,,,,,,,,,,,,,,,H 100.000,6*
7,,,,,,,100.000,,,,,,,,,,,,,,,H 100.000,6*
8,,,,,,,100.000,,,,,,,,,,,,,,,H 100.000,6*
9,,,,,,,,,,,,,,,,100.000,,,,,,S 100.000,6*
10,100.000,,,,,,,,,,,,,,,,,,,,,A 100.000,6*
11,100.000,,,,,,,,,,,,,,,,,,,,,A 100.000,6*
12,,,,,,,,,,100.000,,,,,,,,,,,,L 100.000,6*
13,,,,100.000,,,,,,,,,,,,,,,,,,E 100.000,6*
14,,,,,,,,,,,,,,,,,,100.000,,,,V 100.000,6*
15,,,,,,,,,,100.000,,,,,,,,,,,,L 100.000,6*
16,,,,,100.000,,,,,,,,,,,,,,,,,F 100.000,6*
17,,,,,,,,,,,,,,100.000,,,,,,,,Q 100.000,6*
18,,,,,,100.000,,,,,,,,,,,,,,,,G 100.000,6*
19,,,,,,,,,,,,,100.000,,,,,,,,,P 100.000,6*
20,,,,,,50.000,,,,50.000,,,,,,,,,,,,GL 50.000,2*
21,,,,,,,,,,,,,100.000,,,,,,,,,P 100.000,9
22,0.680,,4.762,,,,0.680,,17.687,,,3.401,1.361,0.680,14.966,55.782,,,,,,S 55.782,7
23,2.041,,,,,,,,2.041,,,,88.435,,6.122,,0.680,0.680,,,,P 88.435,7
24,2.721,,6.803,14.286,,0.680,,,34.694,,0.680,2.721,,10.204,15.646,11.565,,,,,,K 34.694,3
25,,,60.544,26.531,,,,,,,,,,,,11.565,1.361,,,,,D 60.544,8
26,,,,,,,,,,100.000,,,,,,,,,,,,L 100.000,9
27,,,,0.680,,,,,25.170,0.680,,,,31.293,42.177,,,,,,,R 42.177,6
28,,,,,,,,,,,,,100.000,,,,,,,,,P 100.000,9
29,,,,,90.476,,,,,,,,,,,,,,,9.524,,F 90.476,9
30,,,,,,,,,,,,,100.000,,,,,,,,,P 100.000,9
31,1.361,0.680,,,,,,8.844,,,0.680,8.163,,,1.361,7.483,67.347,4.082,,,,T 67.347,7
32,4.762,6.122,,,1.361,,8.844,2.041,2.721,3.401,2.041,0.680,,2.041,10.204,3.401,23.129,17.007,,12.245,,T 23.129,2
33,3.401,31.293,,12.925,,0.680,,,8.163,6.803,4.082,0.680,,21.769,4.762,0.680,2.721,2.041,,,,C 31.293,3
34,28.571,1.361,1.361,1.361,0.680,1.361,,,,,,1.361,,8.163,1.361,42.177,3.401,1.361,,7.483,,S 42.177,5
35,4.082,,0.680,0.680,,2.721,1.361,10.884,,41.497,6.803,1.361,0.680,,,0.680,22.449,6.122,,,,L 41.497,5
36,2.041,0.680,,14.286,,,1.361,19.728,2.041,4.082,0.680,,,6.122,6.122,4.082,6.122,32.653,,,,V 32.653,2
37,,0.680,,0.680,37.415,,0.680,0.680,,,,,,0.680,,0.680,,3.401,,55.102,,Y 55.102,5
38,3.401,0.680,2.041,6.122,,,3.401,3.401,19.728,4.082,1.361,2.041,0.680,2.721,33.333,5.442,5.442,6.122,,,,R 33.333,1
39,0.694,,,0.694,0.694,82.639,13.194,,,,,,0.694,,0.694,,,0.694,,,,G 82.639,8
40,2.721,,2.041,,,0.680,84.354,,,,,0.680,2.721,2.041,0.680,0.680,3.401,,,,,H 84.354,8
41,0.685,,5.479,14.384,,3.425,0.685,0.685,21.233,0.685,,4.795,0.685,2.740,1.370,13.699,28.082,1.370,,,,T 28.082,1
42,4.110,,23.973,,,53.425,0.685,,,,,1.370,,,,11.644,2.055,1.370,0.685,0.685,,G 53.425,1
43,5.442,1.361,,,0.680,0.680,,3.401,6.803,16.327,10.204,0.680,3.401,,48.980,,0.680,0.680,0.680,,,R 48.980,6
44,5.442,,,,,,,16.327,,,,,,,,,2.041,76.190,,,,V 76.190,8
45,,,,,,,,,2.041,0.680,1.361,0.680,,,90.476,,4.082,0.680,,,,R 90.476,8
46,5.442,29.932,,,,0.680,,,0.680,,,,,,,48.980,14.286,,,,,S 48.980,5
47,0.680,,,,2.041,,,33.333,,32.653,2.041,,,,,,1.361,27.891,,,,I 33.333,4
48,21.088,0.680,1.361,0.680,,0.680,,,,,,,,,0.680,69.388,5.442,,,,,S 69.388,7
49,2.721,0.680,,,4.082,,0.680,38.776,,3.401,,,2.041,,,,4.082,43.537,,,,V 43.537,4
50,1.361,,43.537,13.605,,,6.122,,,,,,,,,35.374,,,,,,D 43.537,6
51,4.762,0.680,,,,,,0.680,1.361,,,1.361,82.993,,,5.442,0.680,2.041,,,,P 82.993,4
52,1.361,1.361,16.327,1.361,,6.122,,0.680,5.442,1.361,0.680,2.721,,2.721,1.361,38.776,18.367,0.680,,0.680,,S 38.776,4
53,,,1.361,,,98.639,,,,,,,,,,,,,,,,G 98.639,9
54,8.844,1.361,0.680,11.565,1.361,0.680,1.361,6.803,0.680,11.565,1.361,3.401,,40.136,2.041,1.361,2.041,4.762,,,,Q 40.136,3
55,2.041,,,,9.524,,,,,1.361,,,,,,,,,69.388,17.687,,W 69.388,4
56,6.803,,,,1.361,,,10.884,,60.544,4.762,,,,,,,15.646,,,,L 60.544,5
57,70.068,,,,,,,2.721,,6.122,,,,,,,,21.088,,,,A 70.068,7
58,0.680,,,,,,,,,,,,,,,73.469,25.850,,,,,S 73.469,8
59,2.041,1.361,,,,95.918,,,,,,,,,,,,0.680,,,,G 95.918,8
60,3.401,0.680,12.925,,,30.612,0.680,,0.680,,,,0.680,,,50.340,,,,,,S 50.340,7
61,0.680,,74.150,14.966,,,,,0.680,0.680,,2.041,,,,2.721,4.082,,,,,D 74.150,7
62,0.680,,89.116,,,2.041,,,,,,1.361,,0.680,,5.442,0.680,,,,,D 89.116,8
63,,2.721,,,0.680,74.830,2.721,,6.122,0.680,4.762,1.361,,3.401,,2.041,0.680,,,,,G 74.830,3
64,2.055,,,1.370,0.685,,2.055,0.685,,0.685,,2.055,0.685,2.055,0.685,16.438,57.534,11.644,,1.370,,T 57.534,6
65,5.442,0.680,,,,,,8.844,,14.286,,,,,0.680,,,69.388,,,0.680272108843537,V 69.388,6
66,0.680,,,,,0.680,,0.680,17.687,,0.680,,,,69.388,8.844,,1.361,,,,R 69.388,7
67,,,,,8.904,,,30.822,,31.507,,,,,,,,28.767,,,,L 31.507,5
68,,,,,1.370,,,,,,,,,,,0.685,,,97.945,,,W 97.945,9
69,1.370,,4.795,85.616,,2.740,0.685,,0.685,,,,,,,1.370,2.740,,,,,E 85.616,8
70,1.418,1.418,,,1.418,,,23.404,,19.858,0.709,,,,,,0.709,51.064,,,,V 51.064,7
71,17.123,4.110,2.055,9.589,0.685,2.055,,6.164,0.685,28.082,2.055,6.849,0.685,2.740,,15.068,0.685,1.370,,,,L 28.082,1
72,,,2.055,,,,,2.740,,0.685,,4.795,3.425,,,7.534,67.123,11.644,,,,T 67.123,8
73,13.699,0.685,,,,77.397,,,,,,,1.370,1.370,,2.740,2.740,,,,,G 77.397,6
74,,0.680,,0.680,,,3.401,,5.442,,,0.680,,,89.116,,,,,,,R 89.116,8
75,0.680,48.980,,23.810,,,,1.361,,1.361,,0.680,0.680,20.408,,,,2.041,,,,C 48.980,7
76,4.762,,,3.401,,,,13.605,,25.850,10.204,,,2.041,,,2.721,36.735,0.680,,,V 36.735,3
77,4.082,0.680,,1.361,3.401,,0.680,,30.612,0.680,1.361,,,2.041,20.408,0.680,,,25.170,8.844,,K 30.612,3
78,,,0.680,1.361,,,2.041,4.762,14.286,0.680,2.041,1.361,,0.680,12.925,20.408,29.932,8.163,0.680,,,T 29.932,3
79,10.884,1.361,,,2.721,,,11.565,0.680,5.442,,,,,,1.361,0.680,32.653,29.932,2.721,,V 32.653,1
80,3.401,,6.122,10.204,,,1.361,0.680,28.571,1.361,,4.762,10.884,13.605,6.122,2.721,9.524,0.680,,,,K 28.571,1
81,1.361,4.762,,,19.728,,,7.483,,36.054,2.041,,,,,0.680,6.122,20.408,,1.361,,L 36.054,2
82,5.455,,9.091,1.818,,10.909,,,1.818,,,21.818,,,,41.818,3.636,1.818,,1.818,,S 41.818,3
83,,,19.231,13.462,,5.769,,,3.846,,,3.846,3.846,1.923,,40.385,5.769,1.923,,,,S 40.385,1
84,0.680,,20.408,30.612,,30.612,,,6.803,,,,2.721,0.680,2.721,4.082,0.680,,,,,EG 30.612,1
85,8.163,,24.490,23.810,,25.850,2.041,0.680,0.680,,,1.361,,2.721,,9.524,0.680,,,,,G 25.850,1
86,27.891,,,1.361,,,4.762,5.442,14.286,,,2.721,19.048,,1.361,2.041,3.401,17.687,,,,A 27.891,1
87,0.680,0.680,,,,,,26.531,,1.361,,,0.680,,,,,70.068,,,,V 70.068,7
88,1.361,,9.524,5.442,0.680,10.884,5.442,,17.007,2.041,1.361,17.007,,6.122,14.286,5.442,0.680,0.680,,2.041,,KN 17.007,2
89,18.367,10.884,0.680,0.680,0.680,0.680,4.762,,0.680,,0.680,,,,1.361,35.374,5.442,17.687,0.680,1.361,,S 35.374,4
90,,,,,,,,21.088,,10.884,,,,,,,,68.027,,,,V 68.027,5
91,40.816,,0.680,21.769,,0.680,,,,0.680,,,,4.762,20.408,7.483,2.041,0.680,,,,A 40.816,4
92,,,,,1.361,,,,,,,,,,,,,,98.639,,,W 98.639,9
93,,29.252,,,,0.680,,0.680,,,,40.816,,,23.810,4.762,,,,,,N 40.816,8
94,,,,,,,,,,,,,99.320,,,,0.680,,,,,P 99.320,9
95,2.721,,8.844,0.680,,13.605,0.680,0.680,,7.483,,39.456,,,12.245,5.442,6.122,2.041,,,,N 39.456,5
96,2.721,,,1.361,,0.680,0.680,0.680,27.211,2.041,0.680,,26.531,10.204,6.122,12.245,7.483,1.361,,,,K 27.211,1
97,8.904,,38.356,11.644,,1.370,,,6.849,1.370,0.685,5.479,,0.685,,15.753,8.219,0.685,,,,D 38.356,1
98,15.068,,,0.685,2.740,1.370,0.685,10.274,1.370,23.973,1.370,,,0.685,2.055,2.740,12.329,22.603,,2.055,,L 23.973,1
99,1.361,19.728,,,8.163,10.204,2.041,,0.680,4.762,,4.762,12.245,,0.680,24.490,,8.163,2.721,,,S 24.490,3
100,,,,,8.163,,,43.537,,34.014,0.680,,,,,,0.680,8.163,,4.762,,I 43.537,6
101,1.361,,,,17.687,,,12.245,,51.701,,,,,,,,17.007,,,,L 51.701,6
102,78.231,,,,,0.680,,0.680,,3.401,,,,,,6.122,0.680,10.204,,,,A 78.231,7
103,36.735,,,,,,,10.204,,2.041,,,,,,,,51.020,,,,V 51.020,6
104,61.905,5.442,,,,12.245,,,,0.680,,,,,,10.204,4.762,4.762,,,,A 61.905,5
105,32.653,3.401,,,2.721,,,4.762,,5.442,4.082,0.680,,0.680,,6.803,6.803,29.932,,2.041,,A 32.653,3
106,6.122,,16.327,21.769,,49.660,,,0.680,,,2.041,,,,2.041,0.680,0.680,,,,G 49.660,1
107,0.680,,21.769,33.333,,3.401,5.442,,3.401,,,8.163,1.361,10.204,4.762,5.442,2.041,,,,,E 33.333,1
108,4.762,1.361,25.170,8.844,0.680,,4.762,,14.286,,0.680,8.844,,4.762,7.483,6.803,8.844,2.041,,0.680,,D 25.170,1
109,0.680,2.041,,,,,,28.571,,22.449,0.680,,0.680,,,0.680,,44.218,,,,V 44.218,5
110,2.721,0.680,,0.680,17.007,,14.966,5.442,,25.170,,,,,1.361,0.680,0.680,8.163,0.680,21.769,,L 25.170,1
111,,,,,17.687,,,17.007,,59.184,1.361,,,,,,,4.082,,0.680,,L 59.184,4
112,3.401,3.401,,,1.361,,0.680,40.136,,29.252,9.524,,,,,0.680,0.680,10.884,,,,I 40.136,3
113,5.442,2.041,4.082,,0.680,,0.680,17.007,,0.680,1.361,33.333,,0.680,,8.844,4.082,20.408,0.680,,,N 33.333,4
114,2.041,,,,,,1.361,0.680,,,,,86.395,,,,8.844,0.680,,,,P 86.395,7
115,,,,,,,,,,,,,,20.000,,,60.000,,,20.000,,T 60.000,2*
116,,,,,20.000,10.000,30.000,,,30.000,,,,,,10.000,,,,,,HL 30.000,1*
117,8.904,1.370,1.370,6.164,,18.493,0.685,0.685,6.164,0.685,,0.685,39.041,2.055,2.740,6.849,3.425,,,0.685,,P 39.041,1
118,,0.685,,,3.425,,0.685,18.493,2.055,34.932,,9.589,,2.740,0.685,2.740,5.479,17.123,,1.370,,L 34.932,3
119,5.442,6.122,0.680,,11.565,36.735,,6.122,,12.925,1.361,,,1.361,,2.041,1.361,11.565,,2.721,,G 36.735,1
120,1.361,,46.259,,,13.605,0.680,,1.361,,,8.163,5.442,,,17.687,5.442,,,,,D 46.259,4
121,7.483,0.680,6.122,6.122,8.163,3.401,3.401,0.680,14.966,0.680,,2.041,27.891,1.361,8.844,4.082,2.041,,,2.041,,P 27.891,1
122,10.884,,8.844,33.333,,0.680,,0.680,2.041,23.129,1.361,0.680,2.041,2.041,0.680,5.442,3.401,4.082,0.680,,,E 33.333,1
123,5.479,,2.740,4.110,,1.370,,20.548,2.055,20.548,4.110,,0.685,5.479,,2.055,5.479,25.342,,,,V 25.342,1
124,11.565,2.041,3.401,27.891,1.361,0.680,1.361,4.082,,10.884,0.680,2.721,,8.844,,4.082,4.082,12.245,,4.082,,E 27.891,2
125,8.392,,2.797,7.692,,7.692,0.699,3.497,12.587,1.399,2.797,11.888,0.699,14.685,2.098,13.986,6.294,2.797,,,,Q 14.685,1
126,34.694,,0.680,2.041,0.680,1.361,1.361,,17.007,2.041,2.041,7.483,,2.721,4.762,9.524,7.483,5.442,,0.680,,A 34.694,1
127,5.442,0.680,,,,7.483,,6.803,,0.680,,0.680,,,,26.531,48.980,2.721,,,,T 48.980,7
128,1.361,,27.891,6.803,,,,0.680,15.646,4.762,,3.401,1.361,14.966,19.728,,2.041,1.361,,,,D 27.891,3
129,14.286,,15.646,19.048,,1.361,0.680,,2.041,4.762,,1.361,,16.327,2.721,11.565,8.844,1.361,,,,E 19.048,1
130,2.041,,,,4.762,,2.721,12.925,7.483,46.259,3.401,,,,1.361,0.680,2.041,14.966,,1.361,,L 46.259,1
131,3.401,,,,4.762,0.680,,13.605,,69.388,0.680,,,,,,0.680,6.803,,,,L 69.388,5
132,19.048,0.680,23.129,14.966,,0.680,4.762,0.680,3.401,4.082,,4.082,0.680,2.041,3.401,13.605,2.721,0.680,,1.361,,D 23.129,2
133,36.054,,4.762,6.803,,4.762,0.680,4.762,2.721,2.041,,2.721,10.884,0.680,,14.286,2.041,5.442,,1.361,,A 36.054,3
134,14.966,,1.361,4.762,6.803,41.497,0.680,5.442,0.680,1.361,,2.041,4.082,2.041,,7.483,2.041,0.680,0.680,3.401,,G 41.497,1
135,3.401,,1.361,6.122,25.850,1.361,0.680,,1.361,0.680,,2.721,16.327,2.721,2.721,5.442,12.245,4.082,11.565,1.361,,F 25.850,1
136,7.639,,1.389,8.333,,34.722,1.389,2.083,2.778,13.889,,4.167,9.722,4.861,0.694,5.556,1.389,1.389,,,,G 34.722,1
137,8.209,0.746,1.493,2.239,9.701,2.239,1.493,2.239,0.746,0.746,,3.731,25.373,4.478,0.746,8.209,0.746,1.493,,25.373,,PY 25.373,1
138,30.496,,16.312,17.021,,2.128,,0.709,2.837,0.709,,2.128,14.894,0.709,0.709,6.383,3.546,0.709,,0.709,,A 30.496,2
139,27.007,,2.190,13.869,,4.380,0.730,,2.920,0.730,,1.460,4.380,1.460,0.730,8.029,21.898,9.489,,,0.72992700729927,A 27.007,1
140,5.185,,,5.926,7.407,5.185,0.741,7.407,,2.222,1.481,10.370,22.963,2.222,0.741,16.296,7.407,2.222,,2.222,,P 22.963,1
141,10.084,,15.126,18.487,,22.689,,1.681,6.723,0.840,2.521,5.042,0.840,0.840,1.681,3.361,3.361,6.723,,,,G 22.689,1
142,6.383,,9.574,4.255,,5.319,,,6.383,,,19.149,14.894,4.255,,20.213,6.383,3.191,,,,S 20.213,1
143,9.677,,8.602,15.054,,3.226,2.151,,3.226,1.075,,3.226,5.376,12.903,2.151,20.430,3.226,9.677,,,,S 20.430,1
144,6.522,,,2.174,,4.348,,,26.087,2.174,,6.522,13.043,13.043,,8.696,17.391,,,,,K 26.087,1
145,10.870,,2.174,4.348,,2.174,,,30.435,6.522,,6.522,,2.174,,6.522,26.087,2.174,,,,K 30.435,1
146,13.636,,,,,2.273,,,6.818,,2.273,9.091,11.364,2.273,,20.455,31.818,,,,,T 31.818,1
147,4.255,,8.511,12.766,,14.894,,2.128,6.383,4.255,,10.638,2.128,,2.128,12.766,19.149,,,,,T 19.149,1
148,12.245,,4.082,10.204,,22.449,2.041,,8.163,,,4.082,8.163,,,10.204,12.245,6.122,,,,G 22.449,1
149,27.778,,,11.111,1.852,7.407,1.852,3.704,5.556,1.852,,5.556,5.556,3.704,,9.259,7.407,7.407,,,,A 27.778,1
150,3.636,,1.818,,,7.273,1.818,,25.455,1.818,,7.273,3.636,1.818,12.727,5.455,9.091,18.182,,,,K 25.455,1
151,6.711,,2.685,2.685,,6.711,,4.698,36.913,0.671,0.671,2.685,1.342,6.040,3.356,3.356,11.409,9.396,,0.671,,K 36.913,1
152,7.383,,5.369,11.409,0.671,2.685,,1.342,19.463,6.040,,6.040,13.423,4.698,4.027,10.067,4.698,2.685,,,,K 19.463,1
153,7.333,,2.667,4.000,,2.667,0.667,1.333,3.333,2.000,,1.333,18.667,18.667,1.333,24.000,11.333,0.667,,,,S 24.000,1
154,19.333,,0.667,0.667,0.667,2.000,0.667,6.000,2.000,3.333,,0.667,37.333,0.667,0.667,7.333,3.333,13.333,,1.333,,P 37.333,1
155,34.667,0.667,,,,2.000,,6.000,0.667,2.667,1.333,0.667,4.000,,,,1.333,45.333,0.667,,,V 45.333,6
156,1.333,0.667,0.667,5.333,,,,,33.333,1.333,,1.333,0.667,24.000,10.667,11.333,7.333,2.000,,,,K 33.333,1
157,,,,,0.667,,,,,0.667,,,,,,,,0.667,98.000,,,W 98.000,9
158,11.409,,1.342,8.054,3.356,2.013,2.685,8.725,,7.383,,5.369,,2.685,4.027,20.134,8.054,11.409,,2.685,0.671140939597315,S 20.134,1
159,0.671,,4.027,10.738,,1.342,0.671,1.342,16.779,2.013,0.671,4.027,2.685,8.054,28.188,9.396,6.711,2.013,0.671,,,R 28.188,1
160,22.727,0.758,,,0.758,0.758,,3.030,1.515,1.515,,0.758,50.758,1.515,0.758,3.788,3.788,6.061,,1.515,,P 50.758,1
161,3.846,,6.923,10.769,,16.154,0.769,,1.538,1.538,0.769,3.077,3.077,,2.308,30.769,18.462,,,,,S 30.769,1
162,16.923,,4.615,18.462,,16.923,0.769,1.538,4.615,0.769,1.538,0.769,3.077,3.846,0.769,14.615,9.231,1.538,,,,E 18.462,1
163,12.162,,9.459,23.649,2.027,2.027,2.027,0.676,14.189,2.027,,1.351,,1.351,8.784,15.541,4.054,,,0.676,,E 23.649,1
164,3.425,,8.219,34.932,,0.685,0.685,,,22.603,0.685,2.055,,14.384,0.685,5.479,5.479,0.685,,,,E 34.932,3
165,9.459,,1.351,14.865,1.351,0.676,4.054,2.703,8.784,4.730,2.027,1.351,2.027,8.108,12.838,7.432,4.730,3.378,5.405,4.730,,E 14.865,1
166,9.396,,20.805,19.463,2.685,1.342,2.013,1.342,5.369,2.685,1.342,4.698,0.671,4.698,4.027,10.738,2.013,2.685,,4.027,,D 20.805,1
167,5.369,,11.409,17.450,,4.027,1.342,,14.765,3.356,,10.738,,12.081,3.356,9.396,2.013,2.685,,2.013,,E 17.450,1
168,0.671,0.671,7.383,0.671,,77.852,,,0.671,0.671,,,,1.342,0.671,6.040,3.356,,,,,G 77.852,5
169,1.449,,,0.725,3.623,,,23.188,0.725,10.145,,0.725,10.145,1.449,1.449,2.174,0.725,36.232,,7.246,,V 36.232,3
170,7.971,7.971,,,1.449,,2.174,9.420,3.623,19.565,2.174,,,0.725,32.609,5.072,1.449,5.072,,0.725,,R 32.609,4
171,6.000,,,,0.667,,0.667,24.667,,44.000,2.000,,,1.333,,0.667,,19.333,0.667,,,L 44.000,2
172,0.667,0.667,,3.333,,,,9.333,14.000,1.333,1.333,,,4.667,18.667,7.333,12.667,24.000,,2.000,,V 24.000,1
173,4.667,,,,,,,54.000,,24.000,,,,0.667,,,1.333,15.333,,,,I 54.000,4
174,0.667,4.667,2.667,6.000,,0.667,8.000,0.667,8.667,0.667,0.667,12.667,4.000,8.667,8.000,5.333,26.000,2.000,,,,T 26.000,1
175,,10.000,,,2.000,,40.000,1.333,,20.667,1.333,0.667,,,0.667,0.667,5.333,16.667,,0.667,,H 40.000,7
176,0.667,,1.333,1.333,15.333,7.333,1.333,0.667,4.667,2.000,,2.000,19.333,2.000,26.667,8.000,6.000,,,1.333,,R 26.667,1
177,6.667,,,,2.000,2.667,7.333,,45.333,0.667,,2.667,3.333,3.333,4.667,16.000,1.333,,,4.000,,K 45.333,4
178,10.667,,2.000,6.667,,1.333,,5.333,2.667,6.667,1.333,6.000,18.667,1.333,0.667,2.667,24.000,10.000,,,,T 24.000,1
179,6.000,0.667,,,,,,24.000,,4.000,,,11.333,,,0.667,0.667,52.667,,,,V 52.667,5
180,2.000,,0.667,0.667,,0.667,2.000,0.667,60.667,,0.667,0.667,,1.333,8.000,8.000,12.667,0.667,,0.667,,K 60.667,4
181,2.000,0.667,1.333,,,,0.667,0.667,10.667,,0.667,0.667,,46.000,0.667,11.333,15.333,6.667,,2.667,,Q 46.000,5
182,,,,,0.667,,,31.333,,21.333,,,,,,,0.667,46.000,,,,V 46.000,6
183,8.667,0.667,4.000,5.333,,,0.667,0.667,,,,6.667,,,1.333,28.667,37.333,6.000,,,,T 37.333,4
184,,,,,5.333,,,,,,,,,,,,,,94.667,,,W 94.667,9
185,,,,,,,100.000,,,,,,,,,,,,,,,H 100.000,9
186,10.000,,,,0.667,19.333,3.333,,3.333,,,1.333,1.333,,54.667,4.000,0.667,,,1.333,,R 54.667,6
187,1.333,,,,,2.000,,,50.667,,,,,0.667,44.667,0.667,,,,,,K 50.667,7
188,0.667,,,,,99.333,,,,,,,,,,,,,,,,G 99.333,9
189,,,93.333,3.333,,,,,,,,3.333,,,,,,,,,,D 93.333,9
190,,,,,8.000,,7.333,,,,,,,,,,,,,84.667,,Y 84.667,9
191,1.333,,,,62.667,,,1.333,,30.667,1.333,,,,,,,2.000,0.667,,,F 62.667,5
192,50.000,8.000,,,0.667,,,,,2.667,,,,,,14.667,4.667,19.333,,,,A 50.000,6
193,4.000,1.333,,,,,,,,,,,,,,24.000,62.667,8.000,,,,T 62.667,6
194,0.667,0.667,,,,,,4.000,,5.333,0.667,0.667,,,0.667,0.667,2.000,84.667,,,,V 84.667,7
195,9.333,10.000,,,,,0.667,1.333,,6.667,19.333,,,6.667,,37.333,2.000,6.667,,,,S 37.333,6
196,8.108,,,0.676,,2.703,,0.676,,,0.676,1.351,66.216,0.676,1.351,12.838,4.054,,,0.676,,P 66.216,3
197,8.163,,25.850,10.204,,8.163,,0.680,4.762,,,5.442,1.361,1.361,2.041,12.245,16.327,3.401,,,,D 25.850,1
198,16.107,,4.027,8.054,,38.255,,0.671,,,,4.698,11.409,2.685,,11.409,2.013,,,0.671,,G 38.255,3
199,17.687,,5.442,4.762,,31.973,,,2.721,1.361,,1.361,,18.367,1.361,10.884,3.401,0.680,,,,G 31.973,1
200,5.405,0.676,0.676,1.351,,2.027,14.189,,3.378,0.676,,24.324,0.676,10.135,10.135,20.270,5.405,,,0.676,,N 24.324,5
201,6.040,,,0.671,,8.725,1.342,,6.711,5.369,1.342,4.027,0.671,4.698,21.477,18.792,16.779,3.356,,,,R 21.477,2
202,33.333,,,,,10.667,,,,0.667,,,,14.667,,36.000,4.000,0.667,,,,S 36.000,5
203,2.667,,,,,,,14.000,,2.000,0.667,,,,,,0.667,80.000,,,,V 80.000,8
204,21.333,0.667,,,4.667,,,2.000,1.333,46.000,2.667,,,0.667,0.667,1.333,,4.667,12.000,2.000,,L 46.000,6
205,,,,,,,,88.667,,3.333,4.000,,,,,,,4.000,,,,I 88.667,8
206,,,,,,,96.667,,,,,2.667,,,,0.667,,,,,,H 96.667,9
207,,,,,,,1.333,,,,,,,74.667,,0.667,23.333,,,,,Q 74.667,9
208,0.667,,,,0.667,,,10.667,,72.667,0.667,,,,,0.667,3.333,10.667,,,,L 72.667,5
209,1.333,,,,,,,,,,,,0.667,,,91.333,6.667,,,,,S 91.333,9
210,0.667,,,,,,0.667,,69.333,,0.667,,,,25.333,,2.667,0.667,,,,K 69.333,7
211,2.000,,,,0.667,1.333,42.667,,8.667,,0.667,,,1.333,41.333,,,,0.667,0.667,,H 42.667,7
212,4.000,,,,0.667,,14.667,,4.000,26.667,1.333,0.667,,12.000,28.000,4.667,0.667,,2.000,0.667,,R 28.000,5
213,,,,,,,,,,,,,,,,63.333,36.667,,,,,S 63.333,8
214,,,,,,,2.000,,0.667,,0.667,,,96.667,,,,,,,,Q 96.667,9
215,20.667,,0.667,,2.667,,1.333,14.000,1.333,12.667,1.333,10.667,,1.333,5.333,18.000,3.333,3.333,,3.333,,A 20.667,4
216,,,,,,,0.667,1.333,,3.333,,,94.000,,,0.667,,,,,,P 94.000,8
217,,,,,92.667,,,2.000,,,,,5.333,,,,,,,,,F 92.667,9
218,2.667,,,0.667,4.000,2.000,0.667,1.333,22.667,,,2.667,,0.667,47.333,10.667,4.667,,,,,R 47.333,4
219,,,,,,,,,71.333,,,0.667,,0.667,25.333,2.000,,,,,,K 71.333,6
220,3.333,2.667,,,,,0.667,5.333,,25.333,3.333,5.333,2.000,0.667,7.333,33.333,2.667,8.000,,,,S 33.333,5
221,0.667,,,,,7.333,10.667,,55.333,,,0.667,10.000,2.000,10.000,3.333,,,,,,K 55.333,6
222,0.667,,,,,94.000,,,,,,2.000,,,0.667,1.333,1.333,,,,,G 94.000,8
223,8.000,,2.667,0.667,1.333,,0.667,18.667,1.333,34.667,1.333,,6.000,8.000,1.333,8.667,5.333,1.333,,,,L 34.667,1
224,11.333,,,,0.667,,,18.000,,0.667,,0.667,20.667,,,,0.667,46.000,,1.333,,V 46.000,6
225,,,,0.667,,,,1.333,,,10.000,,,79.333,,1.333,,7.333,,,,Q 79.333,9
226,10.667,22.667,12.000,,2.000,,0.667,,8.667,4.000,2.667,,,2.000,6.667,7.333,16.000,4.667,,,,C 22.667,1
227,36.667,0.667,,,,,,3.333,,1.333,,,,,,3.333,5.333,49.333,,,,V 49.333,7
228,15.333,2.667,,0.667,,,10.667,0.667,12.667,31.333,1.333,,,11.333,0.667,6.000,1.333,5.333,,,,L 31.333,3
229,,,,,100.000,,,,,,,,,,,,,,,,,F 100.000,9
230,,,,,,,99.333,,,,,,,,,0.667,,,,,,H 99.333,9
231,,,,,,,,,,,,,100.000,,,,,,,,,P 100.000,9
232,2.000,,,,9.333,,,13.333,0.667,10.000,0.667,2.667,,0.667,0.667,30.000,23.333,6.667,,,,S 30.000,2
233,0.667,,,,,,1.333,,48.667,1.333,,,,2.000,44.667,0.667,,,,0.667,,K 48.667,6
234,0.667,,,,,1.333,,,0.667,,,,92.000,,,5.333,,,,,,P 92.000,8
235,,4.667,0.667,0.667,19.333,,14.667,18.000,,14.000,2.667,0.667,,10.000,,,,2.000,2.000,10.667,,F 19.333,2
236,,,,,55.333,,,4.667,,38.667,0.667,,,,,,,0.667,,,,F 55.333,6
237,0.667,,,,84.667,,,2.000,,6.667,0.667,,,,,,,1.333,,4.000,,F 84.667,7
238,1.333,,,,,,,7.333,,2.000,0.667,,,,,,,88.667,,,,V 88.667,8
239,84.000,7.333,,,,0.667,,,,0.667,1.333,,,,,4.000,,2.000,,,,A 84.000,8
240,,,2.000,0.667,,,,,,0.667,0.667,7.333,,,,16.667,72.000,,,,,T 72.000,9
241,,,,,,,0.667,,11.333,,,,,85.333,2.667,,,,,,,Q 85.333,9
242,,,,0.667,,,4.000,1.333,10.000,,0.667,4.000,,9.333,67.333,,2.667,,,,,R 67.333,6
243,0.667,0.667,0.667,0.667,3.333,,7.333,1.333,,1.333,3.333,14.000,,,3.333,12.000,11.333,4.667,,35.333,,Y 35.333,3
244,0.667,,,,,,,39.333,,0.667,,,,,,,,59.333,,,,V 59.333,7
245,,,,,0.667,,,,4.667,,,,,0.667,94.000,,,,,,,R 94.000,8
246,7.333,8.667,,,,,,34.000,,10.667,2.667,,,0.667,,4.667,,31.333,,,,I 34.000,5
247,,,,,2.667,,,,,,,,,,,,,,0.667,96.667,,Y 96.667,9
248,,,63.333,,,,7.333,,,,,29.333,,,,,,,,,,D 63.333,7
249,,,,,,,,,,99.333,,,,,,,,0.667,,,,L 99.333,9
250,17.333,,,,,,,1.333,,18.000,7.333,,,21.333,,17.333,0.667,16.667,,,,Q 21.333,5
251,2.667,,,10.667,,1.333,,,50.667,1.333,,2.000,,13.333,17.333,0.667,,,,,,K 50.667,6
252,0.667,,,,,0.667,0.667,,0.667,3.333,1.333,0.667,0.667,89.333,0.667,0.667,0.667,,,,,Q 89.333,9
253,4.000,,0.667,45.333,,0.667,0.667,1.333,16.667,3.333,1.333,,,6.667,2.667,5.333,4.000,7.333,,,,E 45.333,3
254,0.667,,,0.667,,,,1.333,,84.667,12.667,,,,,,,,,,,L 84.667,8
255,2.667,,,2.667,1.333,,0.667,20.000,,16.000,1.333,,,0.667,,3.333,14.000,37.333,,,,V 37.333,4
256,,,,,,,0.667,,94.667,,,1.333,,,2.667,0.667,,,,,,K 94.667,9
257,0.667,,,1.333,,,,12.667,54.000,0.667,,1.333,,,0.667,0.667,23.333,4.667,,,,K 54.000,8
258,,,,,1.333,,,9.333,,80.000,,,,,,,,8.667,,0.667,,L 80.000,7
259,1.333,,,8.667,1.333,,,3.333,0.667,20.000,18.000,2.000,,38.000,0.667,0.667,4.000,,,1.333,,Q 38.000,3
260,6.000,1.333,,,,0.667,,0.667,,,,,58.667,,,13.333,19.333,,,,,P 58.667,5
261,,,,,,68.667,,,0.667,,,27.333,0.667,,,2.000,,,,0.667,,G 68.667,8
262,38.000,18.000,,,3.333,,,10.667,,5.333,2.000,,,,,13.333,0.667,8.667,,,,A 38.000,6
263,,,,,,,0.667,,42.667,,0.667,0.667,,5.333,50.000,,,,,,,R 50.000,6
264,,,,8.054,,,0.671,,,0.671,0.671,,,0.671,,,,,86.577,2.685,,W 86.577,7
265,,0.671,,,,,,69.128,,13.423,,,,,,,,16.779,,,,I 69.128,8
266,0.671,,,,,,,,,,,0.671,,,,98.658,,,,,,S 98.658,9
267,0.671,2.013,2.013,,0.671,4.027,0.671,,2.685,,,2.013,,,0.671,77.852,6.711,,,,,S 77.852,7
268,,0.671,,,19.463,,,30.201,,12.752,34.899,,,,,,,2.013,,,,M 34.899,6
269,32.215,0.671,58.389,,,,,,,,,,,0.671,,8.054,,,,,,D 58.389,7
270,0.671,,,,0.671,,,49.664,,1.342,,,,0.671,,,,46.980,,,,I 49.664,6
271,,,,,,,100.000,,,,,,,,,,,,,,,H 100.000,9
272,0.671,,,,,,0.671,0.671,0.671,,,,92.617,,0.671,2.685,0.671,0.671,,,,P 92.617,6
273,8.725,0.671,,,,44.966,,,7.383,3.356,,0.671,,2.685,10.067,20.134,1.342,,,,,G 44.966,4
274,,,,,,96.644,,,,,,,,,,3.356,,,,,,G 96.644,9
275,,,95.973,2.013,,,,,,,,0.671,,0.671,,0.671,,,,,,D 95.973,9
276,,,,,,,29.530,,,,,70.470,,,,,,,,,,N 70.470,8
277,,,,,2.685,,,18.121,,53.691,,,,,,,,25.503,,,,L 53.691,3
278,,,,,,,,73.826,,18.792,1.342,,,,,,,6.040,,,,I 73.826,7
279,13.423,14.094,,,,,,6.040,,3.356,,,,,,,0.671,62.416,,,,V 62.416,8
280,2.013,0.671,,,,83.221,,,,,,,,,,12.752,0.671,0.671,,,,G 83.221,7
281,2.013,,0.671,,,14.094,,,,,,,,,,68.456,14.765,,,,,S 68.456,8
282,,,,,12.081,,,,6.040,0.671,,,,,2.013,,,,,79.195,,Y 79.195,7
283,,,91.275,8.054,,,,,,,,,,,,0.671,,,,,,D 91.275,9
284,1.342,4.698,,,,8.054,,,32.215,,,0.671,,,40.268,12.081,0.671,,,,,R 40.268,6
285,,,,,,,,,45.638,,,,,,54.362,,,,,,,R 54.362,8
286,,,,,,,,2.685,,67.785,10.067,,,,,,1.342,18.121,,,,L 67.785,7
287,5.369,26.846,,,1.342,,0.671,2.013,,42.282,1.342,0.671,,,,7.383,1.342,10.738,,,,L 42.282,5
288,,,,,,,,,,,,,,,,,,,100.000,,,W 100.000,9
289,,,,,61.745,,31.544,1.342,,,3.356,,,0.671,,,,,0.671,0.671,,F 61.745,8
290,,,99.329,0.671,,,,,,,,,,,,,,,,,,D 99.329,9
291,,,,,,,,,,80.537,16.107,,,,,,1.342,2.013,,,,L 80.537,7
292,,,77.181,22.819,,,,,,,,,,,,,,,,,,D 77.181,8
293,,0.671,,,,,,,,91.946,6.040,,,,,,0.671,,0.671,,,L 91.946,8
294,7.383,,,,,6.711,,,,,,,,0.671,,84.564,0.671,,,,,S 84.564,8
295,8.784,0.676,8.108,4.730,,,,,0.676,,0.676,8.108,2.703,4.054,0.676,24.324,34.459,2.027,,,,T 34.459,3
296,,,,0.671,,0.671,,,47.651,0.671,,,,2.685,30.872,0.671,15.436,0.671,,,,K 47.651,6
297,0.676,,,,,,,,,,,,98.649,,,0.676,,,,,,P 98.649,9
298,,,,,3.356,,1.342,,,,,,,,,,,,,95.302,,Y 95.302,8
299,,,,,,,,,83.108,,,,,10.811,6.081,,,,,,,K 83.108,8
300,2.013,,,,,,,8.054,,1.342,3.356,2.013,,1.342,,3.356,58.389,20.134,,,,T 58.389,6
301,,0.671,,,,,,0.671,,85.235,13.423,,,,,,,,,,,L 85.235,8
302,,,,,,,,,13.423,,,0.671,,,85.235,0.671,,,,,,R 85.235,8
303,,2.685,,,18.121,,15.436,0.671,,10.067,,4.698,,0.671,,,1.342,,,46.309,,Y 46.309,7
304,,,,,,,98.658,,,,,1.342,,,,,,,,,,H 98.658,9
305,8.054,,4.698,14.765,,4.698,0.671,,21.477,0.671,,1.342,8.725,2.685,8.725,13.423,10.067,,,,,K 21.477,1
306,2.013,,,8.054,,2.685,,,51.678,,2.685,2.013,,5.369,18.121,1.342,6.040,,,,,K 51.678,5
307,88.591,,8.054,,,3.356,,,,,,,,,,,,,,,,A 88.591,9
308,,,,,,,,50.336,,17.450,,,,,,,,32.215,,,,I 50.336,7
309,,,,,,,,,,,,1.342,,,91.946,,6.711,,,,,R 91.946,9
310,27.517,,2.013,,,9.396,,,2.013,,,9.396,,10.738,2.013,34.899,2.013,,,,,S 34.899,4
311,1.342,1.342,,,,,,2.685,,9.396,,,,,,,0.671,84.564,,,,V 84.564,9
312,42.282,1.342,0.671,,,3.356,8.054,1.342,16.107,,,1.342,,4.698,10.738,4.027,2.685,3.356,,,,A 42.282,2
313,,,,,75.839,,,,,,,,,,,,,0.671,,23.490,,F 75.839,6
314,,,,,,,97.315,,,,,,,,,2.685,,,,,,H 97.315,9
315,2.013,,,,,,,,30.872,2.685,,0.671,33.557,4.027,24.161,0.671,1.342,,,,,P 33.557,2
316,16.129,,,,,74.194,,,,,,,,,,9.677,,,,,,G 74.194,5
317,3.356,0.671,0.671,,,12.752,2.685,,9.396,1.342,,2.013,,2.013,31.544,18.121,15.436,,,,,R 31.544,3
318,,,,,4.698,,0.671,0.671,,26.174,,,,0.671,,,,,1.342,65.772,,Y 65.772,6
319,,,,,,,,,,,,1.342,98.658,,,,,,,,,P 98.658,9
320,,,,,,,,0.671,,99.329,,,,,,,,,,,,L 99.329,9
321,,,,,96.644,,,,,0.671,1.342,,,,,,,1.342,,,,F 96.644,9
322,87.919,7.383,,,,,,0.671,,0.671,,,,,,3.356,,,,,,A 87.919,8
323,0.671,,24.161,,,,,0.671,,,,,,,,71.812,2.685,,,,,S 71.812,9
324,43.624,14.765,,,,20.805,,,,,,,,,,17.450,2.685,0.671,,,,A 43.624,5
325,8.725,,,,,2.685,,,,,,,,,,88.591,,,,,,S 88.591,9
326,,,94.631,4.698,,,0.671,,,,,,,,,,,,,,,D 94.631,9
327,,,99.329,0.671,,,,,,,,,,,,,,,,,,D 99.329,9
328,0.671,5.369,,,,77.181,,,0.671,2.685,,0.671,,2.685,4.698,4.027,0.671,0.671,,,,G 77.181,6
329,4.698,0.671,0.671,,0.671,2.013,,2.685,0.671,0.671,0.671,2.013,,,0.671,51.007,32.215,0.671,,,,S 51.007,5
330,9.396,,,,,,,36.242,,24.161,0.671,,,,,,,29.530,,,,I 36.242,7
331,,,,,,,17.450,28.859,,0.671,,1.342,,41.611,,,,1.342,,8.725,,Q 41.611,8
332,,,,,,,,39.597,,2.013,,,,,,,,58.389,,,,V 58.389,7
333,,16.779,,,67.785,,,,,,,,,,,13.423,,,,2.013,,F 67.785,9
334,,,,,1.342,,95.302,,,,,,,,,,,,,3.356,,H 95.302,9
335,17.450,0.671,0.671,,,73.154,,,,,,0.671,,,,7.383,,,,,,G 73.154,7
336,,,,0.671,,,,,16.779,0.671,40.268,2.013,,2.685,17.450,3.356,16.107,,,,,M 40.268,7
337,0.671,,,,,,,,,0.671,,,,,,,0.671,97.987,,,,V 97.987,9
338,,,,,2.685,0.671,0.671,,,0.671,,,2.013,,,,7.383,11.409,,74.497,,Y 74.497,8
339,3.356,,12.752,,,8.054,,0.671,,,,47.651,,,,26.846,0.671,,,,,N 47.651,5
340,,,99.329,0.671,,,,,,,,,,,,,,,,,,D 99.329,9
341,0.671,,0.671,,0.671,,0.671,,,75.168,14.094,,1.342,2.013,,1.342,,,0.671,2.685,,L 75.168,7
342,,,,,,1.342,,2.013,,44.295,42.282,8.054,,,,1.342,0.671,,,,,L 44.295,7
343,0.671,,0.671,18.792,,,0.671,,9.396,0.671,,,,41.611,0.671,9.396,17.450,,,,,Q 41.611,7
344,1.342,,12.752,,,2.013,,,,,,80.537,0.671,,,2.013,,,,0.671,,N 80.537,8
345,24.832,,,,,,,,,1.342,,,73.154,,,,,0.671,,,,P 73.154,7
346,,,,,0.671,,,,,72.483,2.013,0.671,,3.356,,1.342,19.463,,,,,L 72.483,8
347,,,,,,,,79.195,,18.792,,,,,,,,2.013,,,,I 79.195,9
348,,,,,,,,,,,,,,,,,1.342,98.658,,,,V 98.658,9
349,,,,,,,,,,,,,99.329,,,,0.671,,,,,P 99.329,9
350,,,,,,,,,,65.772,,,,,,,,34.228,,,,L 65.772,8
351,,,,7.383,,,,,91.275,,,,,,1.342,,,,,,,K 91.275,9
352,,,,0.671,,,,29.530,16.107,2.013,6.711,,,0.671,7.383,1.342,0.671,34.899,,,,V 34.899,7
353,,,,,1.342,,,,,98.658,,,,,,,,,,,,L 98.658,9
354,,2.685,,4.027,,,1.342,0.671,29.530,,0.671,0.671,,4.027,45.638,4.027,5.369,0.671,,0.671,,R 45.638,4
355,5.333,1.333,0.667,0.667,,78.667,0.667,,0.667,,,5.333,,,0.667,2.000,4.000,,,,,G 78.667,5
356,,,,,,,98.658,0.671,,,,,,0.671,,,,,,,,H 98.658,9
357,9.396,,5.369,14.765,,0.671,0.671,,34.228,,,,,4.698,6.711,7.383,8.054,8.054,,,,K 34.228,1
358,2.013,,1.342,,,,,22.819,4.027,6.711,1.342,0.671,3.356,0.671,2.013,8.725,6.711,39.597,,,,V 39.597,2
359,4.027,0.671,3.356,0.671,1.342,,1.342,2.685,13.423,,,2.013,,4.698,6.040,8.725,25.503,22.819,,2.685,,T 25.503,1
360,0.676,,21.622,6.757,,10.135,4.730,,4.730,1.351,,32.432,,,8.784,8.784,,,,,,N 32.432,3
361,5.442,,25.170,6.122,,29.252,2.041,,6.122,,0.680,4.082,,0.680,2.721,15.646,0.680,0.680,,0.680,,G 29.252,4
362,,,0.680,,11.565,2.041,,1.361,,74.830,0.680,,,,5.442,,,3.401,,,,L 74.830,7
363,,0.676,,,,97.297,,,,,,,,,,2.027,,,,,,G 97.297,9
364,6.757,,,,,,,8.108,,,,,,,,,0.676,84.459,,,,V 84.459,8
365,,,,,4.698,,,,,79.195,14.094,,,,,,2.013,,,,,L 79.195,7
366,1.342,,76.510,0.671,,2.685,,,,,,4.027,,9.396,,5.369,,,,,,D 76.510,6
367,2.013,14.765,,,,,,20.134,,12.081,0.671,,,,,0.671,4.698,44.966,,,,V 44.966,4
368,10.738,3.356,20.805,4.027,,0.671,1.342,7.383,18.121,2.685,3.356,1.342,,2.013,4.027,1.342,9.396,9.396,,,,D 20.805,1
369,,,,,42.953,,,,,,,,,,,,,,57.047,,,W 57.047,9
370,,5.369,,,,0.671,87.919,,,1.342,,,,,,0.671,0.671,3.356,,,,H 87.919,9
371,0.671,,,,,,1.342,0.671,,,,2.013,91.946,,0.671,2.685,,,,,,P 91.946,7
372,,,,0.671,0.671,1.342,3.356,2.685,17.450,0.671,,1.342,,5.369,28.188,6.711,27.517,2.685,,1.342,,R 28.188,2
373,,,,27.517,,,11.409,,1.342,1.342,,,,56.376,2.013,,,,,,,Q 56.376,7
374,18.792,,,,,,,,,,,,81.208,,,,,,,,,P 81.208,8
375,,,,,0.671,,,,,,,,,,,,,,99.329,,,W 99.329,9
376,,17.450,,,,,,10.738,,49.664,,,,,,,,22.148,,,,L 49.664,5
377,3.356,,,,59.060,,,2.685,,4.698,,,,,,,,30.201,,,,F 59.060,7
378,,,,,,0.671,,,,,,,,,,81.879,17.450,,,,,S 81.879,8
379,62.416,4.698,,,,1.342,,,,,,,,,,26.846,3.356,1.342,,,,A 62.416,6
380,2.027,,,,,97.973,,,,,,,,,,,,,,,,G 97.973,9
381,89.262,,,,,4.698,,0.671,,,,,,,,4.698,,0.671,,,,A 89.262,8
382,,,99.329,,,,,,,,,,,,,0.671,,,,,,D 99.329,9
383,6.711,2.013,0.671,,0.671,60.403,3.356,,2.013,,0.671,6.040,,,,17.450,,,,,,G 60.403,3
384,3.356,,1.342,2.013,,0.671,1.342,2.013,1.342,2.013,0.671,3.356,,1.342,,5.369,66.443,8.725,,,,T 66.443,5
385,18.919,16.892,,,0.676,1.351,,34.459,,5.405,0.676,,,,,0.676,,20.946,,,,I 34.459,6
386,6.803,1.361,,,,,1.361,,12.245,1.361,,1.361,,,72.109,2.721,,0.680,,,,R 72.109,6
387,,,,,0.680,,,0.680,,82.313,5.442,,,,,,0.680,10.204,,,,L 82.313,8
388,,,,,18.056,,,,,,,,,,,,,,56.944,25.000,,W 56.944,6
389,,,,,,,,,,,71.429,,,,,,,28.571,,,,M 71.429,8
