c<H>r<30>a<5747>R<ARG>A<CB> 1
c<H>r<30>a<5749>R<ARG>A<CD> 1
c<H>r<30>a<5750>R<ARG>A<NE> 1
c<H>r<30>a<5751>R<ARG>A<CZ> 2
c<H>r<30>a<5752>R<ARG>A<NH1> 1
c<H>r<30>a<5753>R<ARG>A<NH2> 1
c<H>r<35>a<5838>R<HIS>A<CE1> 2
c<H>r<35>a<5839>R<HIS>A<NE2> 1
c<H>r<37>a<5878>R<VAL>A<CG2> 1
c<H>r<39>a<5918>R<LEU>A<CD1> 1
c<H>r<39>a<5919>R<LEU>A<CD2> 1
c<H>r<43>a<5978>R<LYS>A<C> 1
c<H>r<43>a<5979>R<LYS>A<O> 1
c<H>r<44>a<5998>R<GLY>A<N> 1
c<H>r<44>a<5999>R<GLY>A<CA> 1
c<H>r<45>a<6005>R<PHE>A<N> 1
c<H>r<45>a<6007>R<PHE>A<C> 2
c<H>r<45>a<6008>R<PHE>A<O> 1
c<H>r<45>a<6009>R<PHE>A<CB> 2
c<H>r<45>a<6010>R<PHE>A<CG> 2
c<H>r<45>a<6011>R<PHE>A<CD1> 1
c<H>r<45>a<6012>R<PHE>A<CD2> 1
c<H>r<45>a<6013>R<PHE>A<CE1> 2
c<H>r<45>a<6014>R<PHE>A<CE2> 1
c<H>r<45>a<6015>R<PHE>A<CZ> 1
c<H>r<46>a<6025>R<GLU>A<N> 2
c<H>r<46>a<6026>R<GLU>A<CA> 2
c<H>r<46>a<6027>R<GLU>A<C> 2
c<H>r<46>a<6030>R<GLU>A<CG> 1
c<H>r<46>a<6033>R<GLU>A<OE2> 1
c<H>r<47>a<6040>R<TRP>A<N> 1
c<H>r<47>a<6041>R<TRP>A<CA> 2
c<H>r<47>a<6043>R<TRP>A<O> 1
c<H>r<47>a<6044>R<TRP>A<CB> 1
c<H>r<47>a<6045>R<TRP>A<CG> 2
c<H>r<47>a<6046>R<TRP>A<CD1> 2
c<H>r<47>a<6047>R<TRP>A<CD2> 2
c<H>r<47>a<6049>R<TRP>A<CE2> 3
c<H>r<47>a<6050>R<TRP>A<CE3> 1
c<H>r<47>a<6051>R<TRP>A<CZ2> 2
c<H>r<47>a<6052>R<TRP>A<CZ3> 2
c<H>r<47>a<6053>R<TRP>A<CH2> 2
c<H>r<50>a<6095>R<TRP>A<CG> 1
c<H>r<50>a<6096>R<TRP>A<CD1> 1
c<H>r<50>a<6097>R<TRP>A<CD2> 1
c<H>r<50>a<6098>R<TRP>A<NE1> 2
c<H>r<50>a<6099>R<TRP>A<CE2> 2
c<H>r<50>a<6101>R<TRP>A<CZ2> 1
c<H>r<50>a<6103>R<TRP>A<CH2> 1
c<H>r<52>a<6139>R<LYS>A<CD> 1
c<H>r<52>a<6140>R<LYS>A<CE> 1
c<H>r<52>a<6141>R<LYS>A<NZ> 1
c<H>r<53>a<6172>R<LEU>A<O> 1
c<H>r<53>a<6175>R<LEU>A<CD1> 1
c<H>r<53>a<6176>R<LEU>A<CD2> 1
c<H>r<54>a<6189>R<TRP>A<CA> 2
c<H>r<54>a<6190>R<TRP>A<C> 2
c<H>r<54>a<6191>R<TRP>A<O> 2
c<H>r<54>a<6192>R<TRP>A<CB> 2
c<H>r<54>a<6193>R<TRP>A<CG> 2
c<H>r<54>a<6194>R<TRP>A<CD1> 1
c<H>r<54>a<6195>R<TRP>A<CD2> 2
c<H>r<54>a<6196>R<TRP>A<NE1> 2
c<H>r<54>a<6197>R<TRP>A<CE2> 2
c<H>r<54>a<6198>R<TRP>A<CE3> 2
c<H>r<54>a<6199>R<TRP>A<CZ2> 1
c<H>r<54>a<6200>R<TRP>A<CZ3> 1
c<H>r<54>a<6201>R<TRP>A<CH2> 1
c<H>r<55>a<6214>R<GLY>A<C> 2
c<H>r<55>a<6215>R<GLY>A<O> 1
c<H>r<56>a<6219>R<ALA>A<N> 2
c<H>r<56>a<6220>R<ALA>A<CA> 2
c<H>r<56>a<6223>R<ALA>A<CB> 1
c<H>r<57>a<6229>R<VAL>A<N> 1
c<H>r<57>a<6231>R<VAL>A<C> 2
c<H>r<57>a<6232>R<VAL>A<O> 1
c<H>r<57>a<6234>R<VAL>A<CG1> 1
c<H>r<57>a<6235>R<VAL>A<CG2> 1
c<H>r<58>a<6245>R<SER>A<N> 2
c<H>r<58>a<6246>R<SER>A<CA> 1
c<H>r<58>a<6249>R<SER>A<CB> 1
c<H>r<58>a<6250>R<SER>A<OG> 1
c<H>r<59>a<6256>R<TYR>A<N> 1
c<H>r<59>a<6259>R<TYR>A<O> 2
c<H>r<59>a<6263>R<TYR>A<CD2> 1
c<H>r<59>a<6265>R<TYR>A<CE2> 1
c<H>r<59>a<6267>R<TYR>A<OH> 1
c<H>r<60>a<6278>R<ALA>A<CA> 3
c<H>r<60>a<6281>R<ALA>A<CB> 2
c<H>r<61>a<6287>R<ARG>A<N> 2
c<H>r<61>a<6291>R<ARG>A<CB> 1
c<H>r<61>a<6292>R<ARG>A<CG> 1
c<H>r<61>a<6293>R<ARG>A<CD> 1
c<H>r<61>a<6294>R<ARG>A<NE> 2
c<H>r<61>a<6295>R<ARG>A<CZ> 1
c<H>r<61>a<6296>R<ARG>A<NH1> 2
c<H>r<61>a<6297>R<ARG>A<NH2> 1
c<H>r<62>a<6311>R<GLN>A<N> 1
c<H>r<62>a<6315>R<GLN>A<CB> 1
c<H>r<62>a<6316>R<GLN>A<CG> 1
c<H>r<62>a<6317>R<GLN>A<CD> 2
c<H>r<62>a<6318>R<GLN>A<OE1> 1
c<H>r<62>a<6319>R<GLN>A<NE2> 1
c<H>r<64>a<6353>R<GLN>A<CD> 1
c<H>r<64>a<6354>R<GLN>A<OE1> 1
c<H>r<64>a<6355>R<GLN>A<NE2> 2
c<H>r<69>a<6425>R<MET>A<O> 1
c<H>r<71>a<6462>R<ARG>A<NH1> 1
c<H>r<71>a<6463>R<ARG>A<NH2> 1
c<H>r<74>a<6516>R<SER>A<O> 1
c<H>r<75>a<6525>R<GLN>A<CA> 2
c<H>r<75>a<6526>R<GLN>A<C> 2
c<H>r<75>a<6527>R<GLN>A<O> 1
c<H>r<75>a<6528>R<GLN>A<CB> 1
c<H>r<75>a<6531>R<GLN>A<OE1> 1
c<H>r<75>a<6532>R<GLN>A<NE2> 1
c<H>r<76>a<6541>R<ASP>A<N> 2
c<H>r<76>a<6543>R<ASP>A<C> 2
c<H>r<76>a<6544>R<ASP>A<O> 2
c<H>r<76>i<A>a<6553>R<PRO>A<N> 2
c<H>r<76>i<A>a<6554>R<PRO>A<CA> 1
c<H>r<76>i<A>a<6556>R<PRO>A<O> 1
c<H>r<76>i<A>a<6557>R<PRO>A<CB> 1
c<H>r<76>i<A>a<6558>R<PRO>A<CG> 1
c<H>r<76>i<A>a<6559>R<PRO>A<CD> 1
c<H>r<76>i<D>a<6592>R<PRO>A<CA> 2
c<H>r<76>i<D>a<6594>R<PRO>A<O> 1
c<H>r<76>i<D>a<6595>R<PRO>A<CB> 1
c<H>r<89>a<6865>R<GLU>A<OE1> 1
c<H>r<91>a<6900>R<PHE>A<CD1> 2
c<H>r<91>a<6902>R<PHE>A<CE1> 1
c<H>r<91>a<6903>R<PHE>A<CE2> 2
c<H>r<91>a<6904>R<PHE>A<CZ> 1
c<H>r<95>a<6974>R<ARG>A<NH2> 1
c<H>r<96>a<6988>R<GLY>A<N> 1
c<H>r<96>a<6989>R<GLY>A<CA> 1
c<H>r<98>a<7010>R<CYS>A<CB> 1
c<H>r<98>a<7011>R<CYS>A<SG> 1
c<H>r<99>a<7019>R<ASP>A<O> 1
c<H>r<99>a<7020>R<ASP>A<CB> 1
c<H>r<100>a<7028>R<TYR>A<N> 1
c<H>r<100>a<7029>R<TYR>A<CA> 1
c<H>r<100>a<7030>R<TYR>A<C> 2
c<H>r<100>a<7031>R<TYR>A<O> 1
c<H>r<100>a<7032>R<TYR>A<CB> 1
c<H>r<100>a<7033>R<TYR>A<CG> 2
c<H>r<100>a<7034>R<TYR>A<CD1> 1
c<H>r<100>a<7035>R<TYR>A<CD2> 1
c<H>r<100>a<7036>R<TYR>A<CE1> 1
c<H>r<100>a<7037>R<TYR>A<CE2> 1
c<H>r<100>a<7038>R<TYR>A<CZ> 1
c<H>r<100>a<7039>R<TYR>A<OH> 1
c<H>r<100>i<A>a<7049>R<CYS>A<N> 2
c<H>r<100>i<A>a<7050>R<CYS>A<CA> 1
c<H>r<100>i<A>a<7053>R<CYS>A<CB> 1
c<H>r<100>i<A>a<7054>R<CYS>A<SG> 1
c<H>r<100>i<B>a<7059>R<GLY>A<N> 1
c<H>r<100>i<C>a<7066>R<ASP>A<N> 2
c<H>r<100>i<C>a<7070>R<ASP>A<CB> 1
c<H>r<100>i<C>a<7071>R<ASP>A<CG> 2
c<H>r<100>i<C>a<7072>R<ASP>A<OD1> 1
c<H>r<100>i<C>a<7073>R<ASP>A<OD2> 1
c<H>r<100>i<D>a<7080>R<PHE>A<C> 2
c<H>r<100>i<D>a<7081>R<PHE>A<O> 2
c<H>r<100>i<D>a<7082>R<PHE>A<CB> 1
c<H>r<100>i<D>a<7083>R<PHE>A<CG> 2
c<H>r<100>i<D>a<7084>R<PHE>A<CD1> 2
c<H>r<100>i<D>a<7085>R<PHE>A<CD2> 2
c<H>r<100>i<D>a<7086>R<PHE>A<CE1> 3
c<H>r<100>i<D>a<7087>R<PHE>A<CE2> 2
c<H>r<100>i<D>a<7088>R<PHE>A<CZ> 2
c<H>r<100>i<E>a<7098>R<PRO>A<N> 1
c<H>r<100>i<E>a<7099>R<PRO>A<CA> 2
c<H>r<100>i<E>a<7100>R<PRO>A<C> 2
c<H>r<100>i<E>a<7101>R<PRO>A<O> 1
c<H>r<100>i<E>a<7102>R<PRO>A<CB> 1
c<H>r<100>i<E>a<7103>R<PRO>A<CG> 1
c<H>r<100>i<E>a<7104>R<PRO>A<CD> 1
c<H>r<100>i<F>a<7112>R<TRP>A<N> 2
c<H>r<100>i<F>a<7114>R<TRP>A<C> 2
c<H>r<100>i<F>a<7115>R<TRP>A<O> 2
c<H>r<100>i<F>a<7116>R<TRP>A<CB> 2
c<H>r<100>i<F>a<7117>R<TRP>A<CG> 3
c<H>r<100>i<F>a<7119>R<TRP>A<CD2> 2
c<H>r<100>i<F>a<7121>R<TRP>A<CE2> 2
c<H>r<100>i<F>a<7122>R<TRP>A<CE3> 2
c<H>r<100>i<F>a<7123>R<TRP>A<CZ2> 3
c<H>r<100>i<F>a<7124>R<TRP>A<CZ3> 1
c<H>r<100>i<F>a<7125>R<TRP>A<CH2> 2
c<H>r<101>a<7136>R<GLN>A<N> 2
c<H>r<101>a<7137>R<GLN>A<CA> 2
c<H>r<101>a<7139>R<GLN>A<O> 1
c<H>r<101>a<7140>R<GLN>A<CB> 1
c<H>r<101>a<7141>R<GLN>A<CG> 1
c<H>r<101>a<7142>R<GLN>A<CD> 1
c<H>r<101>a<7143>R<GLN>A<OE1> 1
c<H>r<101>a<7144>R<GLN>A<NE2> 1
c<H>r<102>a<7164>R<TYR>A<OH> 1
c<H>r<103>a<7177>R<TRP>A<O> 1
c<H>r<103>a<7178>R<TRP>A<CB> 1
c<H>r<103>a<7179>R<TRP>A<CG> 2
c<H>r<103>a<7180>R<TRP>A<CD1> 1
c<H>r<103>a<7181>R<TRP>A<CD2> 2
c<H>r<103>a<7182>R<TRP>A<NE1> 2
c<H>r<103>a<7183>R<TRP>A<CE2> 2
c<H>r<103>a<7184>R<TRP>A<CE3> 2
c<H>r<103>a<7185>R<TRP>A<CZ2> 2
c<H>r<103>a<7186>R<TRP>A<CZ3> 2
c<H>r<103>a<7187>R<TRP>A<CH2> 1
c<H>r<104>a<7201>R<CYS>A<O> 1
c<H>r<105>a<7205>R<GLN>A<CA> 1
c<H>r<105>a<7206>R<GLN>A<C> 2
c<H>r<105>a<7207>R<GLN>A<O> 1
c<H>r<105>a<7208>R<GLN>A<CB> 1
c<H>r<121>a<7420>R<VAL>A<O> 1
c<H>r<122>a<7434>R<PHE>A<CA> 2
c<H>r<122>a<7437>R<PHE>A<CB> 1
c<H>r<122>a<7438>R<PHE>A<CG> 2
c<H>r<122>a<7439>R<PHE>A<CD1> 2
c<H>r<122>a<7440>R<PHE>A<CD2> 2
c<H>r<122>a<7441>R<PHE>A<CE1> 1
c<H>r<122>a<7442>R<PHE>A<CE2> 1
c<H>r<122>a<7443>R<PHE>A<CZ> 1
c<H>r<123>a<7456>R<PRO>A<O> 1
c<H>r<123>a<7458>R<PRO>A<CG> 1
c<H>r<123>a<7459>R<PRO>A<CD> 2
c<H>r<124>a<7468>R<LEU>A<CA> 2
c<H>r<124>a<7469>R<LEU>A<C> 2
c<H>r<124>a<7470>R<LEU>A<O> 2
c<H>r<124>a<7471>R<LEU>A<CB> 2
c<H>r<124>a<7472>R<LEU>A<CG> 2
c<H>r<124>a<7473>R<LEU>A<CD1> 1
c<H>r<124>a<7474>R<LEU>A<CD2> 1
c<H>r<125>a<7486>R<ALA>A<N> 1
c<H>r<125>a<7488>R<ALA>A<C> 2
c<H>r<125>a<7489>R<ALA>A<O> 1
c<H>r<126>a<7496>R<PRO>A<N> 2
c<H>r<126>a<7497>R<PRO>A<CA> 2
c<H>r<127>a<7514>R<SER>A<CB> 1
c<H>r<127>a<7515>R<SER>A<OG> 1
c<H>r<135>a<7547>R<THR>A<C> 2
c<H>r<135>a<7548>R<THR>A<O> 1
c<H>r<135>a<7550>R<THR>A<OG1> 1
c<H>r<136>a<7560>R<ALA>A<CA> 2
c<H>r<136>a<7561>R<ALA>A<C> 2
c<H>r<136>a<7562>R<ALA>A<O> 2
c<H>r<137>a<7569>R<ALA>A<N> 2
c<H>r<137>a<7571>R<ALA>A<C> 3
c<H>r<137>a<7572>R<ALA>A<O> 2
c<H>r<137>a<7573>R<ALA>A<CB> 2
c<H>r<138>a<7579>R<LEU>A<N> 2
c<H>r<138>a<7580>R<LEU>A<CA> 3
c<H>r<138>a<7581>R<LEU>A<C> 2
c<H>r<138>a<7582>R<LEU>A<O> 2
c<H>r<139>a<7598>R<GLY>A<N> 2
c<H>r<141>a<7619>R<LEU>A<CB> 2
c<H>r<141>a<7621>R<LEU>A<CD1> 1
c<H>r<141>a<7622>R<LEU>A<CD2> 1
c<H>r<143>a<7656>R<LYS>A<CD> 1
c<H>r<143>a<7657>R<LYS>A<CE> 1
c<H>r<143>a<7658>R<LYS>A<NZ> 1
c<H>r<162>a<7938>R<GLY>A<O> 1
c<H>r<164>a<7959>R<HIS>A<CA> 1
c<H>r<164>a<7960>R<HIS>A<C> 2
c<H>r<164>a<7962>R<HIS>A<CB> 2
c<H>r<164>a<7963>R<HIS>A<CG> 2
c<H>r<164>a<7964>R<HIS>A<ND1> 1
c<H>r<164>a<7965>R<HIS>A<CD2> 1
c<H>r<164>a<7966>R<HIS>A<CE1> 1
c<H>r<164>a<7967>R<HIS>A<NE2> 1
c<H>r<165>a<7976>R<THR>A<N> 1
c<H>r<165>a<7978>R<THR>A<C> 2
c<H>r<165>a<7979>R<THR>A<O> 1
c<H>r<166>a<7990>R<PHE>A<N> 2
c<H>r<166>a<7991>R<PHE>A<CA> 2
c<H>r<166>a<7994>R<PHE>A<CB> 1
c<H>r<166>a<7995>R<PHE>A<CG> 2
c<H>r<166>a<7996>R<PHE>A<CD1> 2
c<H>r<166>a<7997>R<PHE>A<CD2> 2
c<H>r<166>a<7998>R<PHE>A<CE1> 1
c<H>r<166>a<7999>R<PHE>A<CE2> 2
c<H>r<166>a<8000>R<PHE>A<CZ> 2
c<H>r<167>a<8010>R<PRO>A<N> 2
c<H>r<167>a<8013>R<PRO>A<O> 1
c<H>r<167>a<8014>R<PRO>A<CB> 1
c<H>r<167>a<8015>R<PRO>A<CG> 1
c<H>r<167>a<8016>R<PRO>A<CD> 1
c<H>r<168>a<8027>R<ALA>A<O> 1
c<H>r<169>a<8038>R<VAL>A<CB> 1
c<H>r<169>a<8039>R<VAL>A<CG1> 1
c<H>r<169>a<8040>R<VAL>A<CG2> 1
c<H>r<170>a<8050>R<LEU>A<N> 1
c<H>r<170>a<8052>R<LEU>A<C> 2
c<H>r<170>a<8053>R<LEU>A<O> 1
c<H>r<171>a<8069>R<GLN>A<N> 2
c<H>r<171>a<8070>R<GLN>A<CA> 2
c<H>r<171>a<8073>R<GLN>A<CB> 1
c<H>r<171>a<8074>R<GLN>A<CG> 1
c<H>r<171>a<8076>R<GLN>A<OE1> 1
c<H>r<172>a<8086>R<SER>A<N> 1
c<H>r<177>a<8160>R<SER>A<OG> 1
c<H>r<179>a<8185>R<SER>A<N> 1
c<H>r<179>a<8189>R<SER>A<CB> 1
c<H>r<179>a<8190>R<SER>A<OG> 1
c<H>r<181>a<8211>R<VAL>A<CB> 2
c<H>r<181>a<8212>R<VAL>A<CG1> 1
c<H>r<181>a<8213>R<VAL>A<CG2> 1
c<H>r<182>a<8223>R<VAL>A<N> 1
c<H>r<182>a<8226>R<VAL>A<O> 1
c<H>r<183>a<8244>R<THR>A<OG1> 1
c<H>r<183>a<8245>R<THR>A<CG2> 1
c<H>r<209>a<8632>R<LYS>A<NZ> 1
c<H>r<214>a<8719>R<LYS>A<CD> 1
c<H>r<214>a<8720>R<LYS>A<CE> 1
c<H>r<214>a<8721>R<LYS>A<NZ> 1
c<H>r<1001>a<12253>R<SO4>A<O1> 2
c<H>r<1001>a<12254>R<SO4>A<O2> 1
c<H>r<1001>a<12255>R<SO4>A<O3> 2
c<H>r<1001>a<12256>R<SO4>A<O4> 1
c<H>r<1005>a<12262>R<SO4>A<S> 2
c<H>r<1005>a<12263>R<SO4>A<O1> 1
c<H>r<1005>a<12264>R<SO4>A<O2> 1
c<H>r<1005>a<12265>R<SO4>A<O3> 1
c<H>r<1005>a<12266>R<SO4>A<O4> 1
c<H>r<1008>a<12267>R<EDO>A<C1> 2
c<H>r<1008>a<12268>R<EDO>A<O1> 1
c<H>r<1008>a<12269>R<EDO>A<C2> 1
c<H>r<1008>a<12270>R<EDO>A<O2> 1
