"The table details the residue variety in % for each position in the query sequence."
"Each column shows the % for that amino-acid, found in position ('pos') in the MSA."
"In case there are residues which are not a standard amino-acid in the MSA, they are represented under column 'OTHER'"

pos,A,C,D,E,F,G,H,I,K,L,M,N,P,Q,R,S,T,V,W,Y,OTHER,MAX AA,ConSurf Grade
1,,,,35.714,,,,,,,,,,64.286,,,,,,,,Q 64.286,8
2,,,,,,,,,1.220,,,,97.561,1.220,,,,,,,,P 97.561,9
3,7.778,,,2.222,,,,,40.000,1.111,,3.333,1.111,25.556,5.556,3.333,7.778,2.222,,,,K 40.000,4
4,26.596,,,20.213,,,,12.766,,,1.064,,5.319,,,1.064,22.340,10.638,,,,A 26.596,5
5,,,,,0.971,,6.796,53.398,23.301,,,,,1.942,1.942,,5.825,5.825,,,,I 53.398,7
6,0.833,,,,22.500,,5.833,,,1.667,,,,,10.000,,,,,59.167,,Y 59.167,5
7,,,,,,,,,,54.615,,,,,45.385,,,,,,,L 54.615,8
8,13.014,,0.685,6.849,,0.685,,,53.425,4.795,,,,2.740,2.740,12.329,2.740,,,,,K 53.425,4
9,0.685,,89.041,3.425,,,,,0.685,,,5.479,,0.685,,,,,,,,D 89.041,8
10,,,,,,,0.685,,,,,,,,,,,,,99.315,,Y 99.315,9
11,9.589,0.685,,0.685,,,,1.370,19.863,3.425,0.685,0.685,,23.288,15.753,2.055,19.863,1.370,,0.685,,Q 23.288,3
12,19.863,,,4.110,,,0.685,0.685,6.164,2.055,3.425,,46.575,2.055,,7.534,0.685,5.479,,0.685,,P 46.575,1
13,2.055,,,,2.055,,,,,2.055,,,80.137,,,6.849,2.740,,,4.110,,P 80.137,6
14,31.507,,28.767,6.849,,2.740,2.055,1.370,0.685,,,2.740,10.274,,,9.589,1.370,2.055,,,,A 31.507,3
15,,,,,52.740,,8.219,,,0.685,,,,,,,,,8.219,30.137,,F 52.740,5
16,1.370,0.685,2.055,4.110,2.055,0.685,,3.425,2.055,41.096,1.370,2.740,,1.370,3.425,6.849,15.068,0.685,4.110,6.849,,L 41.096,1
17,0.685,,,,8.904,,,58.219,,2.055,,,,,,,,30.137,,,,I 58.219,7
18,0.685,,41.096,16.438,,,2.055,0.685,2.740,1.370,,2.740,6.164,1.370,2.055,11.644,10.274,,,0.685,,D 41.096,2
19,3.425,,14.384,6.164,0.685,0.685,8.219,,9.589,,,4.795,,8.904,3.425,15.753,23.973,,,,,T 23.973,1
20,1.370,,,,,,,21.918,,3.425,,,,,,,9.589,63.699,,,,V 63.699,7
21,6.164,,50.685,10.274,3.425,0.685,5.479,,,,,6.849,,2.055,2.055,6.849,2.740,,,2.740,,D 50.685,2
22,,,,,0.685,,,0.685,,95.205,2.740,,,,,,,0.685,,,,L 95.205,9
23,0.685,,20.548,7.534,1.370,2.740,8.904,1.370,4.795,0.685,,7.534,,2.740,4.795,4.110,28.082,4.110,,,,T 28.082,2
24,,,,,86.301,,,7.534,,0.685,,,,,,,,5.479,,,,F 86.301,8
25,4.110,,45.890,18.493,1.370,,0.685,2.055,0.685,2.740,,6.164,,6.164,4.795,4.795,0.685,,,1.370,,D 45.890,3
26,,,,,0.685,,,11.644,,85.616,,,,,,,,2.055,,,,L 85.616,8
27,8.904,,19.863,6.164,6.164,15.068,15.068,,2.740,0.685,,4.795,,2.740,3.425,4.110,0.685,0.685,,8.904,,D 19.863,1
28,3.425,,31.507,26.712,,,,1.370,,0.685,,,31.507,0.685,,2.740,,0.685,,0.685,,DP 31.507,4
29,13.014,,26.027,19.863,,4.110,1.370,,1.370,1.370,,6.164,0.685,5.479,,5.479,14.384,0.685,,,,D 26.027,2
30,19.863,2.055,3.425,9.589,2.740,1.370,13.699,,17.123,1.370,,3.425,,5.479,9.589,2.055,2.740,4.110,,1.370,,A 19.863,1
31,9.589,1.370,,,,,,,,,,,,,,4.110,83.562,1.370,,,,T 83.562,8
32,0.685,,2.055,2.740,1.370,,0.685,19.178,10.274,15.068,0.685,0.685,,4.110,28.082,,7.534,6.164,,0.685,,R 28.082,1
33,,,,,,,,2.055,,,,,,,,,,97.945,,,,V 97.945,9
34,3.425,,,6.164,0.685,,7.534,4.110,9.589,4.110,,2.740,,2.055,19.178,9.589,24.658,4.110,0.685,1.370,,T 24.658,1
35,30.822,0.685,,,,1.370,,,,,,9.589,,,,54.795,2.740,,,,,S 54.795,7
36,1.370,0.685,1.370,3.425,0.685,,2.055,4.795,15.068,4.110,0.685,0.685,,2.740,28.082,1.370,16.438,16.438,,,,R 28.082,1
37,,,,,,,,13.699,,54.795,17.123,,,0.685,,11.644,1.370,0.685,,,,L 54.795,6
38,10.274,,3.425,2.740,0.685,0.685,4.795,3.425,13.699,1.370,1.370,3.425,,16.438,8.219,10.274,15.068,4.110,,,,Q 16.438,1
39,0.685,0.685,,,6.164,,,14.384,,19.863,15.068,,,,,,0.685,40.411,,2.055,,V 40.411,3
40,2.041,2.721,1.361,8.844,2.721,,4.762,3.401,13.605,1.361,,2.041,,8.844,32.653,6.122,4.082,3.401,,2.041,,R 32.653,1
41,4.082,1.361,,0.680,,0.680,0.680,0.680,7.483,0.680,,,13.605,7.483,57.143,2.041,2.721,0.680,,,,R 57.143,6
42,2.721,0.680,1.361,1.361,,1.361,0.680,0.680,4.762,7.483,1.361,45.578,,11.565,11.565,2.721,2.721,3.401,,,,N 45.578,5
43,2.564,,1.709,3.419,1.709,14.530,,0.855,5.128,0.855,0.855,5.128,41.880,1.709,,5.983,4.274,8.547,,0.855,,P 41.880,1
44,23.256,1.163,18.605,18.605,,12.791,4.651,1.163,6.977,1.163,,2.326,,6.977,,2.326,,,,,,A 23.256,1
45,16.176,,13.235,6.618,,16.912,,,7.353,0.735,,5.882,3.676,4.412,2.941,9.559,5.147,5.882,,1.471,,G 16.912,1
46,19.863,0.685,4.110,8.219,0.685,13.014,10.274,2.055,4.795,0.685,0.685,1.370,8.219,5.479,1.370,12.329,4.795,1.370,,,,A 19.863,1
47,12.245,,10.884,4.762,0.680,15.646,2.041,0.680,4.762,4.762,,7.483,6.122,2.041,2.041,19.048,4.082,2.721,,,,S 19.048,1
48,20.408,1.361,2.041,10.204,,10.204,3.401,,2.721,,,2.721,6.122,8.844,6.803,9.524,11.565,3.401,,0.680,,A 20.408,1
49,10.884,,17.007,4.082,,,2.041,,1.361,,,2.041,42.857,0.680,1.361,6.122,8.844,2.721,,,,P 42.857,2
50,,0.680,,,2.721,,,5.442,,86.395,3.401,,,,,,,1.361,,,,L 86.395,8
51,1.361,,1.361,8.163,2.721,,4.762,8.163,1.361,2.041,,,,2.041,17.007,3.401,4.762,42.177,,0.680,,V 42.177,1
52,,,,,3.401,,,,,96.599,,,,,,,,,,,,L 96.599,9
53,2.041,,56.463,0.680,1.361,,12.925,,,1.361,3.401,14.286,,2.041,,,,0.680,,4.762,,D 56.463,4
54,0.680,,,,,97.959,,,0.680,,,,,,,0.680,,,,,,G 97.959,9
55,1.370,,18.493,49.315,,0.685,4.795,2.055,,0.685,,1.370,0.685,6.849,4.110,2.740,1.370,5.479,,,,E 49.315,5
56,10.274,1.370,23.973,25.342,,13.699,4.795,,1.370,0.685,,2.740,,6.849,2.740,6.164,,,,,,E 25.342,2
57,,,,,2.817,,,6.338,,84.507,3.521,,,0.704,,,,2.113,,,,L 84.507,7
58,1.370,,4.110,32.192,,,0.685,2.055,21.918,,0.685,2.055,0.685,6.849,4.795,4.795,13.014,4.795,,,,E 32.192,2
59,,1.370,,,6.849,,,3.425,,82.877,,,4.795,,,,,0.685,,,,L 82.877,8
60,2.740,2.055,3.425,5.479,,0.685,2.055,15.753,6.849,29.452,0.685,1.370,,4.795,1.370,2.055,1.370,19.863,,,,L 29.452,1
61,9.589,,2.055,8.219,,5.479,0.685,,0.685,,,1.370,,2.740,6.164,59.589,1.370,,1.370,0.685,,S 59.589,6
62,6.164,,,,,,,28.767,,19.863,,,,,,,,45.205,,,,V 45.205,4
63,17.808,0.685,1.370,4.110,2.055,,2.055,0.685,22.603,4.795,0.685,,,4.110,10.959,16.438,7.534,2.740,0.685,0.685,,K 22.603,1
64,1.370,,,,0.685,,,30.822,,37.671,4.110,,,,0.685,,,24.658,,,,L 37.671,3
65,,,56.463,2.721,,1.361,,,,,,38.095,,,,0.680,0.680,,,,,D 56.463,7
66,0.680,,8.163,1.361,,74.830,,,2.721,,,4.762,0.680,2.041,,2.721,2.041,,,,,G 74.830,4
67,3.401,0.680,0.680,19.048,,,1.361,2.041,24.490,0.680,1.361,3.401,,11.565,17.687,2.041,2.721,8.844,,,,K 24.490,1
68,15.646,,5.442,14.286,,2.041,,1.361,4.082,9.524,0.680,0.680,17.687,6.803,3.401,4.762,6.122,6.803,,0.680,,P 17.687,1
69,1.695,,,,0.847,,,3.390,,87.288,,,,,,,,6.780,,,,L 87.288,8
70,15.179,,6.250,7.143,,10.714,1.786,0.893,15.179,0.893,0.893,7.143,7.143,1.786,0.893,15.179,6.250,2.679,,,,AKS 15.179,1
71,,,,71.429,,,,,,,,,,,,,14.286,14.286,,,,E 71.429,7
72,16.912,,4.412,15.441,2.206,6.618,2.206,0.735,7.353,,0.735,2.206,15.441,1.471,0.735,8.088,1.471,2.941,9.559,1.471,,A 16.912,1
73,9.790,0.699,15.385,17.483,,12.587,2.797,,1.399,,,8.392,,,2.098,13.986,12.587,2.797,,,,E 17.483,1
74,10.274,1.370,31.507,19.178,,2.740,5.479,,1.370,1.370,,3.425,1.370,8.904,6.849,4.795,0.685,0.685,,,,D 31.507,1
75,,0.680,,,7.483,,,,,2.721,,,,,,,,3.401,6.122,79.592,,Y 79.592,7
76,4.762,,2.721,14.286,,,8.844,,4.762,4.082,,,,14.286,14.966,8.163,16.327,4.762,,2.041,,T 16.327,1
77,2.041,0.680,,2.041,1.361,0.680,0.680,10.884,2.041,40.136,4.762,,2.041,6.122,3.401,0.680,,17.687,,4.762,,L 40.136,1
78,6.122,,37.415,9.524,,4.082,1.361,0.680,4.082,0.680,,1.361,1.361,0.680,,8.163,19.048,5.442,,,,D 37.415,1
79,8.844,,24.490,19.728,,12.925,,,4.082,0.680,,5.442,8.163,0.680,0.680,10.204,2.041,2.041,,,,D 24.490,1
80,2.721,,18.367,27.211,1.361,10.884,2.041,,4.762,,0.680,5.442,,2.721,8.163,4.762,10.884,,,,,E 27.211,1
81,5.442,,4.762,3.401,1.361,19.048,12.925,,3.401,3.401,1.361,3.401,,10.884,1.361,15.646,9.524,2.041,,2.041,,G 19.048,1
82,,,,,1.361,,,2.721,,93.878,1.361,,,,,,,0.680,,,,L 93.878,8
83,0.680,,0.680,5.442,,0.680,2.721,12.925,2.041,4.082,1.361,0.680,,0.680,2.041,6.803,44.898,13.605,,0.680,,T 44.898,3
84,,,,,0.680,0.680,,59.184,,29.252,,,,,,,,10.204,,,,I 59.184,6
85,18.182,,9.091,,27.273,,,,,,9.091,,18.182,,,18.182,,,,,,F 27.273,1*
86,18.182,,,,,9.091,,,9.091,,,,,,,45.455,,18.182,,,,S 45.455,3*
87,12.245,,6.122,6.803,2.721,1.361,11.565,,4.082,2.041,,6.122,25.850,2.721,3.401,9.524,3.401,,,2.041,,P 25.850,1
88,8.163,0.680,12.925,4.762,0.680,8.844,1.361,0.680,2.041,3.401,0.680,17.687,4.082,6.803,4.762,17.687,1.361,3.401,,,,NS 17.687,1
89,13.605,6.122,0.680,1.361,1.361,0.680,,1.361,2.041,18.367,2.041,,16.327,0.680,1.361,4.082,2.721,26.531,,0.680,,V 26.531,1
90,4.054,,3.378,2.027,0.676,6.081,,,3.378,,,0.676,72.973,0.676,1.351,3.378,0.676,0.676,,,,P 72.973,4
91,17.687,,32.653,18.367,,3.401,,,5.442,,,3.401,0.680,3.401,0.680,8.163,6.122,,,,,D 32.653,1
92,,,,27.273,,27.273,4.545,,,,,4.545,,,,18.182,13.636,4.545,,,,EG 27.273,1
93,13.514,,5.405,17.568,,2.027,2.027,2.027,8.108,0.676,,4.730,6.081,8.108,6.757,12.162,9.459,1.351,,,,E 17.568,1
94,5.405,3.378,,,79.054,1.351,3.378,,,0.676,0.676,,,,,2.703,,2.703,,0.676,,F 79.054,7
95,1.351,,2.027,29.730,,,0.676,6.081,3.378,4.054,0.676,0.676,,4.054,2.027,2.027,25.676,16.892,,0.676,,E 29.730,1
96,,,,,2.027,,,4.054,,83.784,2.027,,,,,,,6.081,2.027,,,L 83.784,8
97,2.013,,2.013,52.349,,,,,5.369,2.013,,2.013,,5.369,1.342,6.040,18.121,3.356,,,,E 52.349,5
98,0.671,4.698,,,,,,55.705,,2.013,,,,,,5.369,22.148,9.396,,,,I 55.705,7
99,2.013,,4.698,26.174,2.013,,0.671,6.711,2.013,6.040,,0.671,,3.356,5.369,2.685,8.054,28.859,,0.671,,V 28.859,1
100,,2.685,,,,0.671,,,,,,8.054,,,,3.356,57.047,28.188,,,,T 57.047,7
101,2.685,,0.671,34.899,0.671,0.671,,4.698,4.698,4.027,1.342,0.671,,4.027,21.477,4.698,6.040,5.369,0.671,2.685,,E 34.899,2
102,,7.383,,,,,,69.799,,13.423,,1.342,,,,,1.342,6.711,,,,I 69.799,7
103,11.409,0.671,13.423,4.027,2.013,,12.081,,8.054,2.013,,17.450,,4.027,4.698,7.383,,4.027,,8.725,,N 17.450,1
104,,,,,,,,,,,,,100.000,,,,,,,,,P 100.000,9
105,16.107,,4.698,28.859,,0.671,1.342,1.342,5.369,,,0.671,,24.161,2.685,7.383,0.671,4.027,,2.013,,E 28.859,4
106,20.805,,8.054,12.081,,4.698,0.671,0.671,16.779,2.013,,8.725,,4.698,2.013,6.711,11.409,0.671,,,,A 20.805,1
107,,,,,,,,,,,,100.000,,,,,,,,,,N 100.000,9
108,0.671,,,0.671,,,,,4.027,3.356,,,,,,8.054,81.208,,,2.013,,T 81.208,8
109,36.242,,,6.040,,,1.342,,8.725,1.342,0.671,,,10.738,3.356,23.490,7.383,0.671,,,,A 36.242,5
110,,0.671,,,1.342,,,,,96.644,,1.342,,,,,,,,,,L 96.644,9
111,,,2.685,53.691,,,,,0.671,,19.463,,,2.013,,18.121,3.356,,,,,E 53.691,8
112,,,,,,100.000,,,,,,,,,,,,,,,,G 100.000,9
113,,,,,,,,0.671,,98.658,0.671,,,,,,,,,,,L 98.658,9
114,,,,,3.356,,,,,,,,,,,,,,,96.644,,Y 96.644,9
115,7.383,,,0.671,,0.671,0.671,1.342,32.886,10.738,6.040,,,12.081,14.094,,2.013,9.396,,2.013,,K 32.886,4
116,2.013,,,,,,,,,,,0.671,,,,92.617,4.698,,,,,S 92.617,9
117,2.013,,2.685,1.342,,37.584,1.342,,6.711,,,18.792,,1.342,4.698,22.819,0.671,,,,,G 37.584,3
118,0.667,,10.667,2.667,,62.000,2.667,,2.667,,,7.333,,2.667,,6.000,2.667,,,,,G 62.000,4
119,13.423,,0.671,,2.013,7.383,1.342,10.067,,12.081,18.792,27.517,,,1.342,0.671,2.685,1.342,,0.671,,N 27.517,6
120,,,,,55.034,,,4.027,,17.450,,,,,,,,,,23.490,,F 55.034,5
121,,75.168,,,14.094,,,,,1.342,,,,,,2.013,0.671,4.027,,2.685,,C 75.168,7
122,,,,,,,,,,,,,,,,4.698,95.302,,,,,T 95.302,9
123,,,,,,,,,,,,,,100.000,,,,,,,,Q 100.000,9
124,,96.644,,,,,,,,,0.671,2.685,,,,,,,,,,C 96.644,9
125,,,,100.000,,,,,,,,,,,,,,,,,,E 100.000,9
126,88.591,,,,,,,,,,,,8.054,,,3.356,,,,,,A 88.591,9
127,,,1.342,81.879,,,0.671,,,,1.342,,,12.081,,1.342,1.342,,,,,E 81.879,8
128,,,,,,100.000,,,,,,,,,,,,,,,,G 100.000,9
129,,,,,100.000,,,,,,,,,,,,,,,,,F 100.000,9
130,,,,,,,,,,,,,,,100.000,,,,,,,R 100.000,9
131,,,,0.671,,,3.356,,32.886,,,,,2.013,61.074,,,,,,,R 61.074,7
132,,,,,0.671,,,97.315,,,1.342,,,,,,,0.671,,,,I 97.315,9
133,,,,,,,,,,,0.671,,,,,3.356,95.973,,,,,T 95.973,9
134,,,,,29.530,,,,,,,,2.013,,,,,,5.369,63.087,,Y 63.087,6
135,,,,,50.336,0.671,0.671,,,,2.685,,,,,,,,,45.638,,F 50.336,6
136,,,,,1.342,,,4.698,,43.624,6.040,,30.872,11.409,,,0.671,,,1.342,,L 43.624,4
137,,,100.000,,,,,,,,,,,,,,,,,,,D 100.000,9
138,,,,,,,,,,,,,,,100.000,,,,,,,R 100.000,9
139,,,,,,,,,,,,,98.658,,,1.342,,,,,,P 98.658,9
140,,,100.000,,,,,,,,,,,,,,,,,,,D 100.000,9
141,0.671,,,,,,,11.409,,0.671,1.342,2.013,,,,,,83.893,,,,V 83.893,8
142,,,,,,,,,,34.228,65.772,,,,,,,,,,,M 65.772,8
143,59.060,0.671,,,,0.671,,,,,,,,,,29.530,10.067,,,,,A 59.060,7
144,0.671,,,3.356,0.671,,0.671,0.671,28.188,0.671,1.342,,2.013,,26.174,4.027,12.752,17.450,,1.342,,K 28.188,2
145,,,,,45.638,,,,,,,,,,,,,,,54.362,,Y 54.362,6
146,,,4.667,1.333,,,1.333,,5.333,,,1.333,,2.000,9.333,13.333,60.667,0.667,,,,T 60.667,6
147,,8.000,,,,,,0.667,,,,,,,,0.667,46.000,44.667,,,,T 46.000,8
148,,0.667,,,,,,0.667,13.333,0.667,2.667,,,,34.667,3.333,42.667,,0.667,0.667,,T 42.667,6
149,,,,,,,,52.667,,26.000,4.000,,,,,,,17.333,,,,I 52.667,7
150,1.333,0.667,,28.000,,,2.000,22.667,1.333,,,,,,13.333,6.000,11.333,12.667,,0.667,,E 28.000,4
151,92.667,,,,,4.000,,,,,,,,,,3.333,,,,,,A 92.667,9
152,0.667,,86.000,4.667,,,,,0.667,,,3.333,2.667,,0.667,0.667,0.667,,,,,D 86.000,8
153,2.083,,,3.472,,,0.694,,74.306,,,,0.694,6.944,10.417,0.694,0.694,,,,,K 74.306,7
154,27.143,,4.286,12.857,,2.143,1.429,0.714,15.714,,,2.857,,4.286,0.714,12.143,13.571,2.143,,,,A 27.143,1
155,13.194,,3.472,2.778,,0.694,2.083,0.694,27.778,11.806,,0.694,,6.944,20.833,5.556,2.778,0.694,,,,K 27.778,1
156,1.333,6.000,,,15.333,,,,,3.333,0.667,6.667,,,,0.667,,1.333,1.333,63.333,,Y 63.333,4
157,0.667,,,,,,,,0.667,0.667,,,96.667,,0.667,,0.667,,,,,P 96.667,9
158,0.667,,,,5.333,,2.000,13.333,,0.667,0.667,1.333,,2.000,1.333,,1.333,61.333,,10.000,,V 61.333,6
159,,,,,,,,,0.667,96.000,3.333,,,,,,,,,,,L 96.000,9
160,,,,,,,,,,100.000,,,,,,,,,,,,L 100.000,9
161,7.333,0.667,,,,1.333,,,,,,,,,,90.667,,,,,,S 90.667,9
162,,,,,,1.333,,,,,,98.667,,,,,,,,,,N 98.667,9
163,,,,,,100.000,,,,,,,,,,,,,,,,G 100.000,9
164,,,7.333,0.667,,,,,,,,92.000,,,,,,,,,,N 92.000,9
165,0.667,0.667,,0.667,,,,,18.667,43.333,2.000,,16.667,0.667,16.667,,,,,,,L 43.333,4
166,1.333,,1.333,1.333,,0.667,,33.333,,9.333,0.667,,,1.333,,,3.333,46.667,,0.667,,V 46.667,4
167,22.000,,22.000,34.000,,10.667,1.333,,2.000,,,1.333,,0.667,,6.000,,,,,,E 34.000,3
168,8.000,,0.667,20.000,,1.333,0.667,0.667,2.667,,,,,26.667,2.667,31.333,3.333,1.333,,0.667,,S 31.333,3
169,2.013,,,5.369,1.342,86.577,,,2.013,,,,,,0.671,1.342,,,,0.671,,G 86.577,7
170,0.694,,38.194,36.806,,0.694,0.694,0.694,4.167,0.694,2.083,2.083,2.083,2.778,,3.472,2.778,2.083,,,,D 38.194,3
171,3.497,0.699,,4.196,0.699,1.399,0.699,6.993,,62.238,1.399,,,,0.699,2.098,6.294,9.091,,,,L 62.238,3
172,7.586,,21.379,37.241,,8.966,,,2.759,,,2.069,12.414,1.379,,3.448,2.069,0.690,,,,E 37.241,1
173,3.448,,33.103,7.586,,27.586,1.379,,2.759,,,19.310,,,1.379,2.069,0.690,0.690,,,,D 33.103,2
174,,,4.138,0.690,,77.931,,,2.069,,,9.655,,,0.690,2.759,2.069,,,,,G 77.931,5
175,0.671,0.671,,0.671,,,0.671,0.671,10.738,2.013,,,2.013,2.685,73.154,1.342,2.685,,0.671,1.342,,R 73.154,7
176,0.667,,,,,3.333,92.667,0.667,,,,,,,2.667,,,,,,,H 92.667,9
177,0.667,,,1.333,26.667,2.000,0.667,,2.000,0.667,,,,0.667,1.333,2.667,0.667,,42.667,18.000,,W 42.667,1
178,56.000,,,,,,,,,,,,,,0.667,,1.333,42.000,,,,A 56.000,8
179,,,,12.000,0.667,,1.333,6.667,18.667,7.333,,,,6.000,16.667,2.000,11.333,16.667,,0.667,,K 18.667,2
180,,,,,8.000,,,,,,,,,,,,,,91.333,0.667,,W 91.333,9
181,,,6.667,32.667,1.333,,18.000,2.000,1.333,,,6.667,,16.667,1.333,3.333,1.333,8.667,,,,E 32.667,3
182,,,100.000,,,,,,,,,,,,,,,,,,,D 100.000,9
183,,,,,,,,,,,,,100.000,,,,,,,,,P 100.000,9
184,,,,,62.667,,23.333,,,,,,0.667,,,2.000,0.667,,4.000,6.667,,F 62.667,6
185,3.333,,,,,,,,32.667,4.667,0.667,,51.333,1.333,5.333,,,0.667,,,,P 51.333,5
186,,,,,,,,,100.000,,,,,,,,,,,,,K 100.000,9
187,,,,,,,,,,,,,100.000,,,,,,,,,P 100.000,9
188,16.000,36.000,,,,,,,,,,,,,,48.000,,,,,,S 48.000,5
189,,,,,,,,,,,,,,,,,,,,100.000,,Y 100.000,9
190,,,,,,,,,,100.000,,,,,,,,,,,,L 100.000,9
191,,,,,98.667,,,,,,,,,,,,,,,1.333,,F 98.667,9
192,98.667,0.667,,,,0.667,,,,,,,,,,,,,,,,A 98.667,9
193,,0.667,,,,,,2.667,,90.667,,,,,,,,6.000,,,,L 90.667,8
194,,,,,,,,,,1.333,,,,,,,,98.667,,,,V 98.667,9
195,98.667,,,,,0.667,,0.667,,,,,,,,,,,,,,A 98.667,9
196,5.333,,,,,94.667,,,,,,,,,,,,,,,,G 94.667,9
197,2.000,,58.667,1.333,,,,,8.667,,,7.333,0.667,11.333,5.333,2.667,0.667,1.333,,,,D 58.667,6
198,,,,,22.000,,,,,78.000,,,,,,,,,,,,L 78.000,9
199,22.000,,24.000,10.667,,7.333,2.000,0.667,4.667,,,,,1.333,2.667,3.333,0.667,19.333,1.333,,,D 24.000,4
200,12.000,17.333,0.667,2.000,,,9.333,,4.000,9.333,4.000,1.333,,0.667,4.000,14.000,,19.333,,2.000,,V 19.333,1
201,0.667,0.667,,,,0.667,4.667,24.000,0.667,31.333,0.667,4.000,,4.000,11.333,,2.000,14.667,,0.667,,L 31.333,4
202,10.000,0.667,9.333,33.333,,,0.667,,5.333,,0.667,0.667,,9.333,17.333,8.000,4.000,0.667,,,,E 33.333,3
203,0.667,,76.667,6.000,,4.667,,,2.667,,,,,4.667,2.000,2.000,0.667,,,,,D 76.667,7
204,1.333,,3.333,8.000,,1.333,2.000,1.333,8.667,,,2.667,0.667,3.333,14.667,26.667,24.000,0.667,,1.333,,S 26.667,1
205,,,,,64.667,,2.667,4.667,,,,,,,,0.667,,1.333,,26.000,,F 64.667,6
206,,,,,,,0.667,14.667,7.333,0.667,0.667,,,,8.667,,47.333,20.000,,,,T 47.333,4
207,0.667,,,,,,,,,4.000,,,,,,2.667,92.667,,,,,T 92.667,9
208,15.333,4.667,,,1.333,3.333,0.667,0.667,16.667,2.667,16.000,,1.333,6.000,21.333,7.333,0.667,2.000,,,,R 21.333,1
209,,,,,16.667,,,16.667,,,,,33.333,,,,,,,33.333,,PY 33.333,1*
210,2.667,,5.333,1.333,,2.000,,,0.667,,,1.333,,,,83.333,2.667,,,0.667,,S 83.333,8
211,0.667,,,0.667,,91.333,,,4.000,,,1.333,,2.000,,,,,,,,G 91.333,8
212,0.667,,0.667,,,,1.333,,14.000,,,0.667,,2.000,79.333,0.667,,0.667,,,,R 79.333,8
213,2.667,0.667,18.000,25.333,,,1.333,,22.667,0.667,,8.000,2.667,4.000,3.333,0.667,8.000,2.000,,,,E 25.333,1
214,0.667,,,,,,2.667,11.333,3.333,,,,,,,,,82.000,,,,V 82.000,8
215,22.667,,20.667,10.667,0.667,0.667,1.333,,6.667,12.667,,2.667,,2.000,3.333,5.333,10.000,0.667,,,,A 22.667,1
216,,1.333,,,,,,2.667,,94.667,,,,,,,,1.333,,,,L 94.667,9
217,8.667,,0.667,26.000,1.333,3.333,2.000,,8.000,,,5.333,,14.000,24.000,1.333,,1.333,,4.000,,E 26.000,4
218,,,,,1.333,,,70.000,,10.000,0.667,,,,,,,18.000,,,,I 70.000,7
219,,,,,33.333,,0.667,,,0.667,,,,,,0.667,,,26.667,38.000,,Y 38.000,5
220,4.000,2.000,,,,0.667,,,,2.000,,,,,,11.333,12.667,67.333,,,,V 67.333,8
221,2.000,,24.000,50.667,,,,,1.333,,,,7.333,1.333,11.333,0.667,0.667,0.667,,,,E 50.667,8
222,10.667,,2.667,10.000,,,8.667,,20.000,0.667,,0.667,36.667,2.667,4.667,2.667,,,,,,P 36.667,3
223,8.000,,1.333,9.333,,52.667,8.000,,10.000,,,0.667,,7.333,2.000,0.667,,,,,,G 52.667,4
224,0.667,,33.333,,2.667,,,,4.667,,,48.667,,2.667,,,1.333,1.333,,4.667,,N 48.667,7
225,6.000,,,18.667,,,,8.000,3.333,42.000,,,,3.333,2.667,2.667,,12.000,,1.333,,L 42.000,4
226,3.333,,54.000,2.667,,4.000,3.333,,1.333,0.667,,6.667,10.000,1.333,,10.667,2.000,,,,,D 54.000,4
227,,,,,,,,,57.333,,,,,10.667,32.000,,,,,,,K 57.333,8
228,19.333,38.000,,,,3.333,,0.667,,10.667,,,,,,0.667,24.000,3.333,,,,C 38.000,7
229,18.667,0.667,21.333,10.000,0.667,8.000,4.000,,3.333,,,4.000,6.667,10.667,2.667,4.667,1.333,,2.667,0.667,,D 21.333,1
230,,,,,7.333,,61.333,0.667,,0.667,,,,,,,,,13.333,16.667,,H 61.333,6
231,99.333,,,,,0.667,,,,,,,,,,,,,,,,A 99.333,9
232,,,,,,,,2.000,,14.000,81.333,,,,,,,2.667,,,,M 81.333,8
233,9.333,,18.667,21.333,,4.000,2.000,2.000,0.667,2.667,,4.667,,9.333,6.667,0.667,7.333,3.333,,7.333,,E 21.333,3
234,17.333,4.000,,,,,,,,,,,,,,78.667,,,,,,S 78.667,8
235,1.333,,,,,,,0.667,,93.333,,,,,,,,4.667,,,,L 93.333,9
236,0.667,,,2.667,,,,14.667,68.667,1.333,2.000,,,6.667,,,,3.333,,,,K 68.667,7
237,14.000,,2.000,1.333,,,5.333,,30.667,1.333,,20.667,,2.000,21.333,,,1.333,,,,K 30.667,5
238,44.667,0.667,,,,,,,,,,,,,,54.667,,,,,,S 54.667,7
239,,,,,0.667,,,7.333,,,90.000,,,,,,,2.000,,,,M 90.000,9
240,13.333,,0.667,0.667,,,2.667,,46.000,0.667,,0.667,,6.000,27.333,,1.333,0.667,,,,K 46.000,5
241,,,,,2.000,,,,,,,,,,,,,,98.000,,,W 98.000,9
242,,,98.667,1.333,,,,,,,,,,,,,,,,,,D 98.667,9
243,,,,98.667,,,,,,,,,,0.667,,,,0.667,,,,E 98.667,9
244,3.333,,18.667,55.333,,0.667,,,2.667,,,0.667,,8.000,5.333,,5.333,,,,,E 55.333,5
245,6.000,,,1.333,,,2.667,1.333,2.667,,0.667,0.667,,,39.333,0.667,11.333,31.333,,2.000,,R 39.333,5
246,,,,,65.333,,,,,,,,,,,,,,1.333,33.333,,F 65.333,7
247,,,4.000,,,89.333,,,0.667,,,5.333,,,,0.667,,,,,,G 89.333,7
248,,0.667,,,,,,,0.667,60.667,,,,,38.000,,,,,,,L 60.667,7
249,1.333,,,90.000,,,,0.667,,,,1.333,2.000,,,3.333,,1.333,,,,E 90.000,9
250,,1.333,,,,,,,,10.000,0.667,,,,,,,,,88.000,,Y 88.000,9
251,,,99.333,,,,,,,,,,,0.667,,,,,,,,D 99.333,9
252,,,,,,,,,,100.000,,,,,,,,,,,,L 100.000,9
253,,,85.333,5.333,,1.333,,,,,,5.333,,,,2.000,0.667,,,,,D 85.333,8
254,,,0.667,1.333,,,0.667,45.333,,21.333,0.667,2.000,,0.667,14.667,,4.000,8.667,,,,I 45.333,6
255,,,,,53.333,,,,,2.000,,,,,,,,,,44.667,,F 53.333,7
256,,,,,,,2.000,,,0.667,60.667,34.000,,1.333,,1.333,,,,,,M 60.667,8
257,,,,,,,,82.667,,2.667,,,,,,,0.667,14.000,,,,I 82.667,8
258,3.333,,,,,,,,,0.667,,,,,,,,96.000,,,,V 96.000,9
259,96.000,3.333,,,,,,,,,,,,,,,,0.667,,,,A 96.000,9
260,0.667,,,,,,,3.333,,,,,,,,,6.000,90.000,,,,V 90.000,9
261,2.667,,39.333,1.333,,8.667,1.333,,2.000,,,6.000,7.333,,2.000,29.333,,,,,,D 39.333,6
262,4.000,,70.667,,18.000,,4.000,,,,,,,,,2.667,,,,0.667,,D 70.667,8
263,,,,,99.333,,,,,,,,,,,,,,,0.667,,F 99.333,9
264,,,,,,,,,,,,99.333,,,,,0.667,,,,,N 99.333,9
265,4.000,,,,8.667,0.667,,,,,84.667,,,0.667,,,,1.333,,,,M 84.667,9
266,,,,,,100.000,,,,,,,,,,,,,,,,G 100.000,9
267,100.000,,,,,,,,,,,,,,,,,,,,,A 100.000,9
268,,,,,,,,,,,100.000,,,,,,,,,,,M 100.000,9
269,,,,100.000,,,,,,,,,,,,,,,,,,E 100.000,9
270,,,,,,,,,,,,100.000,,,,,,,,,,N 100.000,9
271,,,,,,,,,99.333,,,,,,,,0.667,,,,,K 99.333,9
272,,,,,,83.333,,,,,,,,,,16.667,,,,,,G 83.333,9
273,,,,,,,,,,100.000,,,,,,,,,,,,L 100.000,9
274,,,,,,,,,,,,100.000,,,,,,,,,,N 100.000,9
275,,,,,,,,72.667,,1.333,,,,,,,,26.000,,,,I 72.667,8
276,,,,,100.000,,,,,,,,,,,,,,,,,F 100.000,9
277,,,,,,,,,,,,99.333,,,,0.667,,,,,,N 99.333,9
278,5.333,2.000,3.333,,,,,,,,,,,,,56.000,32.667,0.667,,,,S 56.000,7
279,8.000,0.667,1.333,,,,0.667,,62.000,,,2.667,,0.667,10.667,12.000,1.333,,,,,K 62.000,7
280,2.667,12.667,,,16.667,,,,,18.000,,0.667,,,,2.000,,,,47.333,,Y 47.333,4
281,,,,,,,,15.333,,10.667,,,,,,,0.667,73.333,,,,V 73.333,8
282,,,,,,,,,,100.000,,,,,,,,,,,,L 100.000,9
283,99.333,,,,0.667,,,,,,,,,,,,,,,,,A 99.333,9
284,,,24.000,0.667,,,0.667,,8.667,1.333,,22.000,,1.333,18.000,22.000,1.333,,,,,D 24.000,5
285,5.333,,3.333,7.333,,0.667,,,3.333,,1.333,,61.333,7.333,1.333,5.333,2.667,0.667,,,,P 61.333,4
286,4.667,,22.667,39.333,,,,,8.667,,,4.667,,11.333,4.667,2.667,1.333,,,,,E 39.333,5
287,0.667,0.667,,,0.667,,0.667,2.667,0.667,0.667,,0.667,,,,8.000,81.333,3.333,,,,T 81.333,8
288,84.667,,,0.667,,,,,,,,,,,,6.000,8.667,,,,,A 84.667,9
289,0.667,,,,,,,1.333,,,,0.667,0.667,,,5.333,90.667,0.667,,,,T 90.667,9
290,,,100.000,,,,,,,,,,,,,,,,,,,D 100.000,9
291,28.667,,7.333,4.000,2.667,4.667,,4.000,2.667,2.000,2.667,,,6.000,0.667,9.333,17.333,7.333,,0.667,,A 28.667,2
292,4.000,,80.667,5.333,0.667,1.333,,,,,,3.333,,,,3.333,1.333,,,,,D 80.667,8
293,,,,,37.333,,1.333,0.667,,0.667,,,,,,,,,,60.000,,Y 60.000,6
294,24.667,,6.667,18.000,2.000,,4.000,2.667,,12.667,4.667,0.667,,15.333,2.000,0.667,1.333,2.667,,2.000,,A 24.667,5
295,15.333,,3.333,,,28.000,2.667,,,,0.667,21.333,,,21.333,4.000,2.667,,,0.667,,G 28.000,4
296,,,,,,,,76.667,,,,,,,,,,23.333,,,,I 76.667,8
297,0.667,,3.333,76.667,,,,,,13.333,0.667,,,5.333,,,,,,,,E 76.667,8
298,35.333,,,0.667,,27.333,,,,,,0.667,,,6.000,27.333,2.667,,,,,A 35.333,5
299,,,,,0.667,,,14.000,,,,,,,,,,85.333,,,,V 85.333,8
300,,,,,,,,56.667,,,,,,,,,,43.333,,,,I 56.667,8
301,46.000,,,,,54.000,,,,,,,,,,,,,,,,G 54.000,7
302,,,,,,,100.000,,,,,,,,,,,,,,,H 100.000,9
303,,,,100.000,,,,,,,,,,,,,,,,,,E 100.000,9
304,,,,,,,,,,,,,,,,,,,,100.000,,Y 100.000,9
305,,,,,100.000,,,,,,,,,,,,,,,,,F 100.000,9
306,,,,,,,100.000,,,,,,,,,,,,,,,H 100.000,9
307,,,,,,,,,,,,99.333,,0.667,,,,,,,,N 99.333,9
308,,,,,,,,,,,,,,,,,,,96.000,4.000,,W 96.000,9
309,,,,,,,,,,,,,,,,18.000,82.000,,,,,T 82.000,9
310,,,,,,100.000,,,,,,,,,,,,,,,,G 100.000,9
311,,,3.333,,,,,,,,,96.667,,,,,,,,,,N 96.667,9
312,,,,,,,,,,,,,,,100.000,,,,,,,R 100.000,9
313,,,,,,,,19.333,,,,,,,,,,80.667,,,,V 80.667,8
314,,,,,,,,,,,,,,,,,100.000,,,,,T 100.000,9
315,,95.270,,,,,,,,4.730,,,,,,,,,,,,C 95.270,9
316,,,,,,,,,0.676,,,,,1.351,97.973,,,,,,,R 97.973,9
317,,,97.973,,,,,,,,,1.351,,,,0.676,,,,,,D 97.973,9
318,,,,,,,,,,,,,,,,,,,100.000,,,W 100.000,9
319,,,,,100.000,,,,,,,,,,,,,,,,,F 100.000,9
320,,,,0.676,,,,,,,,,,99.324,,,,,,,,Q 99.324,9
321,,,,,,,,,,100.000,,,,,,,,,,,,L 100.000,9
322,,8.000,,,,,,,,,,,,,,74.000,18.000,,,,,S 74.000,9
323,,,,,,,,,,100.000,,,,,,,,,,,,L 100.000,9
324,,,,,,,,,100.000,,,,,,,,,,,,,K 100.000,9
325,,,,100.000,,,,,,,,,,,,,,,,,,E 100.000,9
326,,,,,,100.000,,,,,,,,,,,,,,,,G 100.000,9
327,,,,,15.333,,,,,84.667,,,,,,,,,,,,L 84.667,9
328,,,,,,,,,,,,,,,,,100.000,,,,,T 100.000,9
329,,,,,,,,0.667,0.667,,,,,,,,,98.667,,,,V 98.667,9
330,,,,,85.333,,2.000,,,2.667,,,,,,,,,,10.000,,F 85.333,8
331,,,,,,,,,,,,,,,100.000,,,,,,,R 100.000,9
332,,,92.000,8.000,,,,,,,,,,,,,,,,,,D 92.000,9
333,2.667,,,,,,,,,,,2.000,,90.667,,4.667,,,,,,Q 90.667,9
334,0.667,0.667,,69.333,,0.667,,,,6.667,,2.000,,12.667,,6.000,1.333,,,,,E 69.333,7
335,,,,,99.333,,,,,,,,,,,,,,,0.667,,F 99.333,9
336,1.333,0.667,,,,2.000,,0.667,,,2.000,,,,,78.667,14.667,,,,,S 78.667,8
337,42.667,,,4.667,,8.667,,,,,1.333,,,3.333,6.667,32.667,,,,,,A 42.667,6
338,1.333,,92.667,2.000,,,0.667,,,,,,,1.333,,0.667,1.333,,,,,D 92.667,9
339,,0.667,,2.000,0.667,,,2.667,,20.667,58.667,,,4.000,2.667,0.667,2.667,4.667,,,,M 58.667,6
340,2.667,0.667,0.667,,0.667,34.667,4.000,1.333,,2.667,1.333,18.667,,0.667,10.667,6.667,12.667,,1.333,0.667,,G 34.667,5
341,8.000,,2.000,0.667,,4.667,,,2.000,1.333,,1.333,,,,80.000,,,,,,S 80.000,9
342,12.000,,,2.667,,1.333,4.000,,4.000,,,0.667,4.667,1.333,64.000,2.000,2.667,,,0.667,,R 64.000,5
343,53.333,,4.000,1.333,,7.333,,0.667,,2.000,,,13.333,,,4.000,10.667,3.333,,,,A 53.333,5
344,1.333,0.667,,,,,0.667,3.333,,4.000,,,,,0.667,0.667,4.667,84.000,,,,V 84.000,8
345,4.000,1.333,0.667,2.000,1.333,,0.667,,55.333,0.667,,17.333,,7.333,2.667,0.667,5.333,,,0.667,,K 55.333,7
346,,,,,,,,,,,,,,0.667,99.333,,,,,,,R 99.333,9
347,,,,,,,,95.333,,2.667,,,,,,,,2.000,,,,I 95.333,9
348,14.667,,14.000,31.333,,2.667,2.000,,4.000,1.333,0.667,10.000,,10.667,0.667,6.667,1.333,,,,,E 31.333,3
349,2.000,0.667,67.333,5.333,,0.667,2.000,,,,,17.333,,2.667,,,,2.000,,,,D 67.333,8
350,0.667,,,,,,,2.000,,,,,,,,,,97.333,,,,V 97.333,9
351,8.000,,3.333,1.333,,,,2.000,14.667,1.333,0.667,10.000,,4.000,41.333,10.667,2.000,0.667,,,,R 41.333,5
352,10.667,,2.000,,4.667,4.000,0.667,10.667,2.667,14.667,5.333,2.000,,0.667,8.667,1.333,10.000,18.000,,4.000,,V 18.000,1
353,,,,,,,,9.333,,85.333,4.667,,,,,,,0.667,,,,L 85.333,8
354,,0.667,,,,,,0.667,3.333,0.667,0.667,,,1.333,92.667,,,,,,,R 92.667,9
355,25.333,,,2.000,,13.333,,2.667,,0.667,,10.000,,8.000,2.667,14.000,20.667,0.667,,,,A 25.333,5
356,21.333,,,0.667,0.667,3.333,14.000,0.667,0.667,2.667,5.333,2.667,9.333,2.000,14.000,2.667,5.333,6.000,,8.667,,A 21.333,1
357,,,,,,,,,,,,,,100.000,,,,,,,,Q 100.000,9
358,,,,,99.333,,,,,,,,,,,,,,,0.667,,F 99.333,9
359,36.000,,,,,,,,,2.667,,,44.000,5.333,4.667,4.000,1.333,2.000,,,,P 44.000,6
360,,,0.667,91.333,,,,,,,,,,8.000,,,,,,,,E 91.333,9
361,0.667,,98.667,,,,,,,0.667,,,,,,,,,,,,D 98.667,9
362,76.000,,2.000,,0.667,4.667,,,,,,1.333,,0.667,2.667,12.000,,,,,,A 76.000,8
363,,0.667,,,,81.333,,,,,,,,,,18.000,,,,,,G 81.333,8
364,3.333,,0.667,,,,,,,,,,92.000,,,4.000,,,,,,P 92.000,9
365,,,,,,,0.667,,,27.333,64.000,2.000,,1.333,,,4.667,,,,,M 64.000,8
366,75.333,,,,,,,,,,,,0.667,,,22.667,0.667,0.667,,,,A 75.333,8
367,,,,,,0.667,99.333,,,,,,,,,,,,,,,H 99.333,9
368,2.000,0.667,,,,,,,,,,,93.333,,,4.000,,,,,,P 93.333,8
369,,,,,,,,44.000,,,,,2.667,,0.667,,,52.667,,,,V 52.667,8
370,,,,,,,,,1.333,,,,,4.667,93.333,0.667,,,,,,R 93.333,9
371,,,,,,,,,,0.667,,,98.667,,,,,,,0.667,,P 98.667,9
372,8.000,,30.000,40.000,,1.333,6.667,,1.333,,,3.333,0.667,4.000,2.000,2.667,,,,,,E 40.000,4
373,2.000,,,5.333,,,1.333,,16.667,,,1.333,,2.000,1.333,68.000,2.000,,,,,S 68.000,8
374,,1.333,,,8.667,,,0.667,,,,,,,,0.667,,17.333,,71.333,,Y 71.333,8
375,2.667,0.667,,2.667,,,,52.667,2.000,5.333,8.667,,,6.000,2.000,0.667,,16.667,,,,I 52.667,5
376,7.432,,,73.649,,,,,10.811,,,0.676,,1.351,,6.081,,,,,,E 73.649,8
377,,,,,0.676,,,59.459,,0.676,36.486,,,,,,1.351,1.351,,,,I 59.459,9
378,,,18.919,2.027,,0.676,,,,,,62.838,,,,14.189,1.351,,,,,N 62.838,8
379,,,,,0.676,,,,,,,98.649,,,,0.676,,,,,,N 98.649,9
380,,,,,97.973,,,1.351,,0.676,,,,,,,,,,,,F 97.973,9
381,,,,,2.027,,,,,,,,,,,,,,,97.973,,Y 97.973,9
382,,,,,,,,,,0.676,,,,0.676,,1.351,97.297,,,,,T 97.297,9
383,31.757,0.676,,0.676,0.676,0.676,0.676,,0.676,22.297,8.108,0.676,2.703,,0.676,5.405,5.405,17.568,1.351,,,A 31.757,5
384,,,,,,,,,,,,,,,,0.676,97.973,0.676,0.676,,,T 97.973,9
385,,,,,,,,19.728,,,,,,,,,,80.272,,,,V 80.272,8
386,,,,,,,0.680,,,,,,,,,,,,,99.320,,Y 99.320,9
387,,,8.844,65.986,,,,,,,1.361,17.687,,2.721,1.361,2.041,,,,,,E 65.986,7
388,,,,,,,,,97.987,0.671,0.671,0.671,,,,,,,,,,K 97.987,9
389,,,,,,100.000,,,,,,,,,,,,,,,,G 100.000,9
390,74.667,,,,0.667,1.333,,,,,,,,,,23.333,,,,,,A 74.667,8
391,0.667,,,98.000,,,,,,0.667,,,,,,,0.667,,,,,E 98.000,9
392,,,,,,,,3.333,,10.000,,,,,,,,86.667,,,,V 86.667,8
393,,0.667,,,,,,52.667,,,2.000,0.667,,,,0.667,,43.333,,,,I 52.667,8
394,,,,,,6.667,,0.667,0.667,,,,,,92.000,,,,,,,R 92.000,9
395,,,,,,,,1.333,,2.000,96.000,,,,,,,0.667,,,,M 96.000,9
396,,,,,0.667,,,18.667,,16.667,18.667,,,7.333,,,1.333,3.333,,33.333,,Y 33.333,5
397,12.000,,,3.333,0.667,,48.667,,12.667,1.333,,0.667,,14.667,5.333,,,,,0.667,,H 48.667,6
398,0.667,,,1.333,,1.333,0.667,,,4.667,0.667,1.333,,0.667,3.333,2.000,82.667,0.667,,,,T 82.667,8
399,,,,,0.667,,,10.667,,79.333,6.667,0.667,,,1.333,,,0.667,,,,L 79.333,7
400,,0.667,,,2.667,,,6.667,,80.667,,,,,,,0.667,8.667,,,,L 80.667,7
401,,,,,,96.000,,,,0.667,,,,,,1.333,2.000,,,,,G 96.000,9
402,11.333,,6.667,26.667,,,0.667,,14.000,,,,13.333,1.333,16.000,6.000,1.333,2.667,,,,E 26.667,3
403,10.000,,20.000,48.000,0.667,0.667,,,6.667,,,0.667,0.667,6.667,0.667,2.000,2.000,0.667,,0.667,,E 48.000,4
404,6.667,,2.667,,,57.333,,0.667,6.667,4.000,,8.000,,1.333,5.333,2.000,2.000,1.333,,2.000,,G 57.333,1
405,,,,,90.667,,,,,0.667,,,,,,,,,,8.667,,F 90.667,9
406,2.000,0.667,,0.667,,,,,4.000,,0.667,,,19.333,71.333,,,0.667,,0.667,,R 71.333,8
407,10.000,,,0.667,,,,,64.000,0.667,,1.333,,4.667,18.000,0.667,,,,,,K 64.000,6
408,8.000,,,,,91.333,,,,,,,,,0.667,,,,,,,G 91.333,9
409,,1.333,,,0.667,,,8.000,,6.667,66.000,,,,,9.333,6.667,1.333,,,,M 66.000,7
410,2.667,,75.333,0.667,,0.667,,,13.333,0.667,,,,2.000,2.667,,2.000,,,,,D 75.333,8
411,0.667,,,3.333,,,0.667,2.667,1.333,86.000,,,,0.667,3.333,,,,,1.333,,L 86.000,8
412,,0.667,,,,,,,,,,,,,,0.667,,,,98.667,,Y 98.667,9
413,,,,,87.333,,,6.667,,2.667,0.667,,,,,,,2.667,,,,F 87.333,8
414,7.333,,8.667,42.000,,,,,19.333,,0.667,1.333,,10.667,4.000,6.000,,,,,,E 42.000,4
415,0.667,,0.667,2.000,,,0.667,,3.333,2.000,,,,,90.000,,0.667,,,,,R 90.000,9
416,,0.667,,,7.333,,78.000,,0.667,0.667,0.667,5.333,,,,,,,0.667,6.000,,H 78.000,7
417,,,99.333,,,,,,,,0.667,,,,,,,,,,,D 99.333,9
418,,,,0.667,,92.667,,,,,,4.000,,,,2.667,,,,,,G 92.667,8
419,0.667,0.667,,6.667,,0.667,3.333,,6.000,,2.667,1.333,,62.667,1.333,2.667,11.333,,,,,Q 62.667,7
420,96.667,,0.667,,,,,,,0.667,,,,,,,2.000,,,,,A 96.667,9
421,27.333,1.333,,,,,,,0.667,,,,,,,,1.333,69.333,,,,V 69.333,8
422,,0.667,,0.667,,,,,0.667,,,,,0.667,,,97.333,,,,,T 97.333,9
423,,62.000,0.667,,,,,14.000,,2.000,,,,,,,15.333,6.000,,,,C 62.000,6
424,,,48.667,48.667,,,0.667,,,,,0.667,,0.667,0.667,,,,,,,DE 48.667,7
425,1.333,,89.333,4.667,,,,,,,,4.000,,0.667,,,,,,,,D 89.333,8
426,,,0.667,,95.333,,,,,,,,,,,,,,4.000,,,F 95.333,9
427,8.000,,0.667,,6.000,,0.667,8.667,,14.667,,2.000,,,14.000,,,42.667,0.667,2.000,,V 42.667,5
428,40.667,1.333,2.667,2.667,0.667,2.667,4.000,,13.333,1.333,1.333,4.000,,10.667,2.000,10.000,1.333,,,1.333,,A 40.667,3
429,84.000,6.667,,,,,0.667,,,,,,,,,4.000,,4.667,,,,A 84.000,8
430,,,0.667,,7.333,,,4.000,,5.333,82.667,,,,,,,,,,,M 82.667,9
431,28.667,,,42.667,,2.000,,,0.667,,1.333,1.333,,4.000,7.333,10.000,0.667,1.333,,,,E 42.667,6
432,4.000,,70.667,16.000,,,0.667,,1.333,,,0.667,,1.333,0.667,1.333,0.667,1.333,1.333,,,D 70.667,6
433,84.667,,,,,6.000,,0.667,,,,,1.333,,,0.667,2.667,4.000,,,,A 84.667,8
434,,,,,,,,,,,,,,,,,,,,100.000,,Y 100.000,8*
435,,,,,,,,,40.000,,,,,60.000,,,,,,,,Q 60.000,6*
436,,,,,,,,,,33.333,66.667,,,,,,,,,,,M 66.667,5*
437,,,,,,,,,100.000,,,,,,,,,,,,,K 100.000,8*
438,,,,,,,,,60.000,,,,,40.000,,,,,,,,K 60.000,7*
439,40.000,,,,,40.000,20.000,,,,,,,,,,,,,,,AG 40.000,1*
440,,,40.000,,,,,,,,,40.000,,20.000,,,,,,,,DN 40.000,3*
441,3.333,,,,,4.667,,,,,,50.000,,,,37.333,4.667,,,,,N 50.000,7
442,4.000,,12.000,5.333,,57.333,0.667,,3.333,,,11.333,0.667,2.000,,2.667,0.667,,,,,G 57.333,1
443,15.333,,,1.333,,,,15.333,6.000,1.333,1.333,,,1.333,18.000,0.667,2.667,32.667,,4.000,,V 32.667,2
444,,,83.333,2.000,,0.667,1.333,,0.667,1.333,,8.667,0.667,,0.667,0.667,,,,,,D 83.333,8
445,,,,,18.000,0.667,,,,80.667,0.667,,,,,,,,,,,L 80.667,8
446,12.000,,7.333,4.667,,8.000,,,5.333,,0.667,2.000,1.333,2.000,2.667,25.333,28.667,,,,,T 28.667,1
447,2.000,0.667,0.667,,,,3.333,1.333,1.333,1.333,,8.000,2.000,76.000,1.333,0.667,,1.333,,,,Q 76.000,8
448,,,,,93.333,,,,,0.667,3.333,0.667,,,,,,,,2.000,,F 93.333,9
449,4.000,,1.333,10.000,4.000,1.333,2.667,,28.667,12.000,2.667,,,1.333,28.000,3.333,,0.667,,,,K 28.667,5
450,1.333,,0.667,0.667,,0.667,4.000,,,35.333,,3.333,0.667,2.667,48.000,0.667,1.333,,,0.667,,R 48.000,4
451,,,,,,,,,,,,,,,,,,,100.000,,,W 100.000,9
452,,,,,2.000,,,,,,,,,,,,,,1.333,96.667,,Y 96.667,9
453,4.000,,4.000,6.667,1.333,1.333,4.000,0.667,1.333,1.333,,2.667,,1.333,2.667,61.333,6.667,0.667,,,,S 61.333,6
454,,,0.667,0.667,,,,,,,,,,94.667,0.667,,2.000,,,1.333,,Q 94.667,9
455,69.333,0.667,,,,0.667,,,,,,0.667,2.000,,,26.667,,,,,,A 69.333,8
456,,,,,,100.000,,,,,,,,,,,,,,,,G 100.000,9
457,,,,,,,,0.667,,0.667,,,,,,,98.667,,,,,T 98.667,9
458,,,,,,,,,,,,,100.000,,,,,,,,,P 100.000,9
459,0.667,0.667,0.667,16.667,,,7.333,2.667,8.667,3.333,0.667,1.333,,5.333,17.333,0.667,12.000,22.000,,,,V 22.000,1
460,,,,,,,,8.667,,40.000,0.667,,,,,,,50.667,,,,V 50.667,5
461,6.667,,7.333,11.333,,1.333,1.333,0.667,18.667,1.333,,4.667,,6.667,12.667,8.667,15.333,2.667,,0.667,,K 18.667,1
462,26.000,,,,2.667,,,9.333,,2.667,1.333,,,,,,0.667,56.000,,1.333,,V 56.000,5
463,6.000,,1.333,17.333,,0.667,,1.333,12.000,2.000,,3.333,,6.667,7.333,24.000,15.333,2.667,,,,S 24.000,1
464,4.667,0.667,10.000,12.000,0.667,16.667,0.667,0.667,0.667,4.000,,,,3.333,1.333,21.333,16.667,1.333,3.333,2.000,,S 21.333,2
465,6.667,,9.333,14.667,,,8.000,0.667,4.667,0.667,,3.333,,9.333,8.000,30.667,2.667,1.333,,,,S 30.667,1
466,,0.667,,,9.333,,7.333,,0.667,,,,,,0.667,,,0.667,6.000,74.667,,Y 74.667,6
467,,0.694,72.917,2.083,,,,,2.083,1.389,,12.500,,1.389,1.389,4.861,0.694,,,,,D 72.917,6
468,52.817,,4.930,14.085,,1.408,,0.704,4.225,,,0.704,11.972,1.408,,6.338,0.704,0.704,,,,A 52.817,4
469,35.915,,15.493,16.901,0.704,1.408,,,5.634,0.704,,3.521,,6.338,0.704,4.225,4.225,4.225,,,,A 35.915,1
470,33.566,,2.098,7.692,,4.895,1.399,0.699,13.986,0.699,,4.196,,4.895,4.895,8.392,11.189,1.399,,,,A 33.566,1
471,1.333,0.667,0.667,2.000,,18.000,6.000,,27.333,,0.667,4.667,,23.333,13.333,1.333,0.667,,,,,K 27.333,1
472,2.685,0.671,0.671,5.369,,,1.342,3.356,3.356,2.013,,0.671,,10.738,14.094,8.725,44.295,2.013,,,,T 44.295,1
473,2.685,0.671,,,22.819,,,,,16.779,,,,,,,,1.342,2.013,53.691,,Y 53.691,3
474,4.000,,1.333,7.333,0.667,,3.333,0.667,4.000,0.667,,,,1.333,8.667,16.667,46.667,4.000,,0.667,,T 46.667,3
475,,,,,0.667,,,10.000,,80.667,1.333,,,,,,,7.333,,,,L 80.667,7
476,1.333,,2.000,1.333,,,8.667,1.333,12.000,2.000,,3.333,,0.667,4.667,8.000,52.667,1.333,,0.667,,T 52.667,4
477,0.667,2.000,,,16.000,,,12.667,,40.000,6.667,,,,,,1.333,20.000,0.667,,,L 40.000,3
478,6.000,1.333,1.333,12.000,0.667,,1.333,,14.000,,1.333,2.000,,7.333,16.667,25.333,10.667,,,,,S 25.333,1
479,,,,,,,,,,,,,,100.000,,,,,,,,Q 100.000,9
480,2.667,,2.000,12.000,1.333,1.333,10.667,2.667,3.333,,2.000,2.000,,4.667,4.667,35.333,8.000,4.000,,3.333,,S 35.333,2
481,2.027,33.784,,,,0.676,0.676,6.081,,6.081,,2.703,0.676,0.676,,3.378,30.405,12.838,,,,C 33.784,3
482,16.216,,2.027,6.081,,1.351,,,4.054,0.676,,0.676,61.486,1.351,1.351,3.378,0.676,,,0.676,,P 61.486,2
483,19.444,,5.556,3.472,,,,0.694,3.472,0.694,,,61.111,1.389,0.694,1.389,0.694,1.389,,,,P 61.111,2
484,2.778,,2.778,,,0.694,0.694,,,,,0.694,,0.694,,7.639,81.250,2.778,,,,T 81.250,8
485,13.793,,0.690,1.379,,2.069,2.069,0.690,1.379,4.138,,,67.586,2.759,0.690,0.690,0.690,1.379,,,,P 67.586,5
486,,,15.172,7.586,,57.241,,,1.379,0.690,,8.276,,0.690,2.759,2.069,0.690,2.069,,1.379,,G 57.241,3
487,0.690,2.069,,7.586,,1.379,,,1.379,,0.690,2.759,,78.621,0.690,2.069,1.379,,,0.690,,Q 78.621,8
488,6.757,,4.730,7.432,,2.027,1.351,1.351,8.784,1.351,1.351,0.676,35.135,4.054,1.351,12.162,8.108,3.378,,,,P 35.135,1
489,1.351,,14.865,32.432,,2.027,0.676,3.378,5.405,2.027,0.676,6.081,2.703,5.405,0.676,3.378,8.784,10.135,,,,E 32.432,1
490,,,0.671,1.342,0.671,,1.342,,89.933,0.671,,2.685,0.671,2.013,,,,,,,,K 89.933,8
491,7.383,,0.671,16.107,0.671,2.685,3.356,,13.423,16.107,,,5.369,26.174,2.685,1.342,1.342,1.342,,1.342,,Q 26.174,2
492,12.667,0.667,,,,,0.667,,,,,4.000,80.667,,,,0.667,0.667,,,,P 80.667,6
493,,,,,28.667,,,,0.667,42.000,16.667,,,2.000,2.000,,2.000,2.667,0.667,2.667,,L 42.000,4
494,2.667,,0.667,,8.667,,62.000,,,9.333,,,4.000,,,,,11.333,,1.333,,H 62.000,7
495,,,,,2.667,,,88.667,,3.333,3.333,,,,,,0.667,1.333,,,,I 88.667,9
496,,,,,,,,,,,,,100.000,,,,,,,,,P 100.000,9
497,,,,,19.333,,,22.000,,19.333,2.000,,,,,,0.667,36.667,,,,V 36.667,3
498,37.333,0.667,8.000,1.333,,1.333,,0.667,20.667,1.333,1.333,2.000,,,10.667,7.333,2.667,4.000,0.667,,,A 37.333,4
499,,,,,5.333,,,31.333,,18.000,6.667,,,,,0.667,3.333,33.333,0.667,0.667,,V 33.333,2
500,17.333,,,14.000,,65.333,,,0.667,,,,,,0.667,2.000,,,,,,G 65.333,7
501,0.671,,,,2.013,,,1.342,,95.973,,,,,,,,,,,,L 95.973,9
502,,,,,8.725,,,20.134,,42.953,1.342,,,,,,,12.752,0.671,13.423,,L 42.953,4
503,8.054,0.671,42.953,0.671,,25.503,,,0.671,0.671,,6.040,,0.671,1.342,10.067,2.013,,,0.671,,D 42.953,1
504,19.463,,2.013,7.383,,3.356,2.013,,13.423,0.671,0.671,1.342,16.107,8.054,7.383,14.765,2.013,1.342,,,,A 19.463,1
505,4.054,,29.730,9.459,,,2.027,0.676,8.108,0.676,1.351,19.595,,6.081,2.027,10.135,6.081,,,,,D 29.730,1
506,,,10.000,,,,,,,,,20.000,,,,50.000,20.000,,,,,S 50.000,7
507,0.676,2.703,,,,87.838,,,,,,0.676,,,,6.081,2.027,,,,,G 87.838,8
508,10.884,1.361,6.803,11.565,,4.762,4.762,,22.449,,1.361,5.442,0.680,6.803,11.565,6.122,3.401,2.041,,,,K 22.449,1
509,8.571,,34.286,22.857,,1.429,,2.143,5.000,1.429,2.143,0.714,4.286,2.857,0.714,4.286,0.714,8.571,,,,D 34.286,2
510,3.571,,2.857,,2.143,,1.429,22.857,,41.429,12.857,0.714,,0.714,,,,10.000,,1.429,,L 41.429,2
511,7.463,0.746,0.746,8.209,0.746,1.493,,3.731,2.985,8.209,0.746,1.493,50.000,0.746,1.493,2.239,5.224,3.731,,,,P 50.000,1
512,3.378,,4.730,6.081,3.378,12.838,1.351,2.703,4.730,3.378,,1.351,8.108,4.054,0.676,7.432,22.297,10.811,,2.703,,T 22.297,1
513,3.378,,7.432,16.216,,4.730,4.730,,2.703,,,2.703,1.351,6.081,2.703,17.568,30.405,,,,,T 30.405,1
514,4.027,0.671,5.369,7.383,1.342,2.685,4.027,1.342,5.369,2.013,,8.725,0.671,6.040,26.174,2.685,16.107,4.027,,1.342,,R 26.174,1
515,,0.671,,,,,,11.409,,19.463,0.671,,,,,,7.383,59.732,,0.671,,V 59.732,5
516,0.671,,,,3.356,,,2.685,,84.564,0.671,,,,,,,7.383,,0.671,,L 84.564,7
517,1.342,,12.081,34.899,,0.671,6.711,1.342,0.671,5.369,2.685,8.054,0.671,3.356,8.054,6.711,1.342,5.369,0.671,,,E 34.899,2
518,,,,,5.369,,,10.738,,59.732,3.356,,,,,,,20.805,,,,L 59.732,5
519,0.671,0.671,6.711,0.671,,,1.342,2.685,17.450,1.342,0.671,1.342,,1.342,9.396,2.013,53.691,,,,,T 53.691,4
520,6.000,,4.000,45.333,,0.667,0.667,,16.667,0.667,,2.667,,16.000,3.333,2.000,2.000,,,,,E 45.333,4
521,30.667,,4.667,14.000,,4.000,0.667,0.667,11.333,1.333,,,6.667,6.000,3.333,8.000,8.000,0.667,,,,A 30.667,1
522,1.333,,2.000,49.333,,,1.333,0.667,6.667,,0.667,2.000,,8.667,6.667,13.333,6.667,0.667,,,,E 49.333,4
523,2.000,,0.667,20.667,,2.000,2.667,,1.333,1.333,,,,68.000,0.667,,0.667,,,,,Q 68.000,7
524,0.667,,,12.667,,,0.667,2.667,1.333,,,,,0.667,6.000,23.333,46.667,5.333,,,,T 46.667,5
525,,,,,85.333,,,2.667,,2.667,,,,,,,,3.333,4.000,2.000,,F 85.333,7
526,,2.667,,10.000,,,2.667,4.667,1.333,0.667,,,,0.667,8.000,4.667,27.333,37.333,,,,V 37.333,2
527,,,,,91.333,,,4.000,0.667,2.667,,,,,0.667,,,0.667,,,,F 91.333,8
528,2.685,0.671,10.067,24.161,,2.013,3.356,4.027,4.698,,,6.040,2.685,4.698,2.685,10.738,10.067,10.738,,0.671,,E 24.161,1
529,1.333,,23.333,4.000,,27.333,3.333,,0.667,0.667,,33.333,0.667,3.333,1.333,0.667,,,,,,N 33.333,2
530,2.000,,,,4.667,,,30.667,,17.333,0.667,,1.333,,,,,42.667,,0.667,,V 42.667,4
531,24.000,0.667,3.333,8.000,1.333,2.000,0.667,,6.000,0.667,1.333,6.000,20.000,3.333,1.333,11.333,8.667,,0.667,0.667,,A 24.000,1
532,15.333,1.333,2.667,54.667,,0.667,1.333,0.667,0.667,,,0.667,0.667,4.000,2.667,9.333,2.000,3.333,,,,E 54.667,4
533,9.333,0.667,5.333,8.000,,0.667,2.000,,26.667,1.333,0.667,2.667,3.333,12.667,23.333,2.000,1.333,,,,,K 26.667,2
534,0.667,4.000,,,,0.667,,,,0.667,,,91.333,,,0.667,,2.000,,,,P 91.333,8
535,3.333,,,,,,0.667,20.000,,6.667,,,,0.667,,,5.333,63.333,,,,V 63.333,6
536,4.000,,,,,,,4.667,,12.000,,,68.667,,,,,10.667,,,,P 68.667,5
537,5.333,,,,,,,0.667,,,,,,,,92.000,,2.000,,,,S 92.000,9
538,2.000,,,,2.667,,,16.000,,72.667,4.000,,,,,,,2.667,,,,L 72.667,6
539,0.667,,,,8.000,,,0.667,,78.000,1.333,10.667,,,,,,0.667,,,,L 78.000,8
540,0.667,1.333,,4.000,,0.667,,,,,,,,0.667,91.333,0.667,0.667,,,,,R 91.333,9
541,0.667,,22.000,14.667,,46.667,2.667,,,,,10.667,,0.667,1.333,0.667,,,,,,G 46.667,4
542,,,,,94.667,0.667,,,,,,,,,,,,,,4.667,,F 94.667,9
543,,,,,,,,,,,,,,,,96.667,3.333,,,,,S 96.667,9
544,100.000,,,,,,,,,,,,,,,,,,,,,A 100.000,9
545,,,,,,,,,,,,,100.000,,,,,,,,,P 100.000,9
546,0.667,2.000,,,,,,11.333,,,,,,,,,,86.000,,,,V 86.000,8
547,,,,2.000,,,0.667,17.333,38.000,1.333,,6.000,,2.000,20.000,,2.667,6.667,,3.333,,K 38.000,4
548,,,,,1.333,,,7.333,,72.667,2.667,,,,,0.667,,14.667,,0.667,,L 72.667,6
549,2.685,,18.792,30.201,0.671,1.342,2.685,2.685,15.436,,,4.698,,6.711,5.369,6.040,2.013,,,0.671,,E 30.201,1
550,7.333,1.333,4.000,,14.667,0.667,4.000,0.667,,2.667,2.667,2.000,,2.667,6.000,6.000,10.667,2.667,1.333,30.667,,Y 30.667,1
551,5.405,,43.919,11.486,0.676,1.351,1.351,,2.703,,,11.486,12.162,5.405,,1.351,1.351,1.351,,,,D 43.919,1
552,2.667,0.667,0.667,1.333,0.667,,1.333,2.667,,20.667,1.333,,,9.333,6.667,,5.333,2.000,2.667,42.000,,Y 42.000,2
553,2.667,,3.333,1.333,,2.667,0.667,0.667,1.333,,0.667,2.667,4.000,2.000,2.000,49.333,26.667,,,,,S 49.333,4
554,4.000,,50.000,9.333,0.667,,,2.000,2.667,3.333,,5.333,4.667,6.667,5.333,1.333,4.000,0.667,,,,D 50.000,4
555,20.000,,18.000,33.333,,2.000,1.333,,1.333,0.667,,2.667,2.667,6.000,2.667,6.667,2.000,0.667,,,,E 33.333,3
556,4.000,,34.667,42.667,,,0.667,,,,,0.667,,14.000,1.333,1.333,,0.667,,,,E 42.667,5
557,0.667,,,,,,,0.667,1.333,82.667,,1.333,,2.667,8.000,0.667,,,0.667,1.333,,L 82.667,7
558,34.667,0.667,,2.000,7.333,,,8.000,,15.333,7.333,0.667,0.667,2.667,2.667,4.000,4.000,6.667,,3.333,,A 34.667,2
559,3.333,,0.667,,59.333,0.667,7.333,0.667,0.667,14.000,0.667,,,0.667,2.667,1.333,4.667,2.667,,0.667,,F 59.333,3
560,,,,,,,,4.667,,92.667,,,,0.667,2.000,,,,,,,L 92.667,9
561,9.333,,,,7.333,,,2.667,,35.333,39.333,,,0.667,,3.333,,1.333,0.667,,,M 39.333,6
562,48.000,,,0.667,,3.333,,0.667,6.667,2.000,,0.667,,7.333,10.667,8.667,4.667,6.667,,,,A 48.000,4
563,2.667,5.333,,,8.000,1.333,50.667,,2.667,,,13.333,,1.333,2.667,0.667,,,,11.333,,H 50.667,4
564,16.000,,76.667,6.000,,,,,,,,,,,,1.333,,,,,,D 76.667,9
565,0.667,,6.000,2.000,,2.000,1.333,,2.000,,,3.333,4.000,3.333,7.333,43.333,21.333,3.333,,,,S 43.333,5
566,,,80.667,,,,,,,,,17.333,,,,2.000,,,,,,D 80.667,9
567,16.000,,7.333,19.333,,20.000,1.333,,,2.000,,,22.667,,,9.333,1.333,,,0.667,,P 22.667,2
568,,,,,88.667,,,,,0.667,,,,,,,,4.667,,6.000,,F 88.667,8
569,23.333,4.000,,,,,,0.667,,0.667,,57.333,,,,6.000,2.000,6.000,,,,N 57.333,8
570,,0.667,,,,,,,10.667,,,,,1.333,87.333,,,,,,,R 87.333,8
571,,0.671,,,2.685,,,,,,,,,,1.342,,,,87.248,8.054,,W 87.248,8
572,,,33.557,57.047,1.342,,,,,,0.671,4.027,,2.685,,,,,,0.671,,E 57.047,8
573,89.262,,,,,,,,,,1.342,,,,,7.383,0.671,1.342,,,,A 89.262,9
574,20.000,2.069,,,1.379,56.552,,1.379,,2.759,4.138,,,2.069,,5.517,2.069,2.069,,,,G 56.552,2
575,,,,,,,1.389,0.694,,,0.694,1.389,,90.278,3.472,0.694,0.694,0.694,,,,Q 90.278,9
576,4.167,1.389,2.083,2.778,,,,4.861,6.944,1.389,9.028,5.556,,13.194,18.750,5.556,18.056,6.250,,,,R 18.750,3
577,,0.694,,,1.389,,,3.472,,82.639,1.389,,,,,,,2.083,,8.333,,L 82.639,7
578,47.917,,,,6.250,4.167,0.694,2.083,,15.972,6.944,,,,0.694,5.556,1.389,2.778,,5.556,,A 47.917,5
579,11.189,,,3.497,,3.497,0.699,4.895,2.797,13.287,6.294,0.699,,0.699,12.587,8.392,19.580,11.888,,,,T 19.580,2
580,4.895,,4.895,6.294,,2.797,0.699,,22.378,2.098,0.699,11.888,1.399,9.790,25.874,4.196,2.098,,,,,R 25.874,1
581,7.042,3.521,,7.746,0.704,,1.408,9.859,1.408,26.056,1.408,1.408,,2.817,3.521,3.521,2.817,14.789,,11.972,,L 26.056,1
582,2.817,,,,1.408,,,36.620,,40.845,11.972,,,,,,,6.338,,,,L 40.845,5
583,,0.709,1.418,4.255,2.837,0.709,2.837,7.801,14.184,35.461,2.837,1.418,,6.383,10.638,2.128,0.709,5.674,,,,L 35.461,2
584,10.638,,9.220,5.674,,10.638,2.128,0.709,10.638,2.837,0.709,7.801,,9.220,14.894,11.348,2.128,0.709,,0.709,,R 14.894,1
585,9.286,1.429,,0.714,0.714,0.714,1.429,1.429,1.429,30.714,10.000,19.286,,5.000,6.429,4.286,0.714,3.571,1.429,1.429,,L 30.714,2
586,10.000,,,,0.714,0.714,,17.857,,8.571,6.429,,,,0.714,2.143,5.714,40.000,0.714,6.429,,V 40.000,3
587,28.467,,3.650,11.679,,5.109,,2.190,11.679,0.730,,8.759,0.730,6.569,5.109,7.299,5.839,2.190,,,,A 28.467,1
588,28.467,,18.248,6.569,0.730,10.219,2.190,,2.920,2.190,,2.920,0.730,6.569,7.299,8.029,2.190,0.730,,,,A 28.467,1
589,10.219,0.730,2.920,5.109,10.219,4.380,10.219,10.219,2.190,5.109,,2.190,5.109,3.650,4.380,4.380,,11.679,2.190,5.109,,V 11.679,1
590,18.705,,2.158,6.475,,5.036,1.439,1.439,5.036,5.036,,3.597,1.439,33.813,6.475,5.036,2.878,0.719,,0.719,,Q 33.813,1
591,20.290,,7.971,9.420,0.725,2.174,1.449,3.623,3.623,5.072,2.174,6.522,1.449,18.116,5.072,7.246,2.899,1.449,,0.725,,A 20.290,1
592,6.154,,11.538,4.615,0.769,43.077,0.769,,9.231,1.538,,7.692,1.538,5.385,,6.923,,0.769,,,,G 43.077,1
593,11.111,,22.222,11.111,,,,11.111,33.333,,,,,,,,11.111,,,,,K 33.333,2*
594,3.774,,6.604,15.094,,4.717,0.943,,20.755,1.887,0.943,4.717,0.943,13.208,13.208,5.660,3.774,0.943,,2.830,,K 20.755,1
595,13.208,,7.547,15.094,0.943,1.887,,,7.547,,0.943,1.887,19.811,7.547,0.943,11.321,6.604,4.717,,,,P 19.811,1
596,16.667,,,16.667,,8.333,,8.333,8.333,,,,,,8.333,8.333,8.333,8.333,,8.333,,AE 16.667,1
597,8.333,,16.667,,,16.667,8.333,,16.667,8.333,,8.333,,,,8.333,8.333,,,,,DGK 16.667,1
598,,,9.091,9.091,,,18.182,18.182,,,,9.091,,9.091,,9.091,9.091,9.091,,,,HI 18.182,1
599,,,,11.111,,11.111,,,11.111,11.111,,11.111,,,,11.111,,33.333,,,,V 33.333,1
600,,,,,20.000,20.000,,,,20.000,,,20.000,,,,,20.000,,,,FGLPV 20.000,1*
601,40.000,,,40.000,,,,,,,,,,20.000,,,,,,,,AE 40.000,5*
602,7.547,,,0.943,8.491,,,2.830,0.943,48.113,5.660,,7.547,,,0.943,,11.321,4.717,0.943,,L 48.113,1
603,23.077,,,7.692,,7.692,,,15.385,,,7.692,7.692,,,7.692,23.077,,,,,AT 23.077,3*
604,12.403,,0.775,16.279,,,1.550,2.326,5.426,3.876,,0.775,7.752,5.426,3.101,10.853,10.078,18.605,,0.775,,V 18.605,1
605,3.077,,,,5.385,1.538,,11.538,1.538,50.769,3.077,1.538,1.538,2.308,,,1.538,15.385,0.769,,,L 50.769,2
606,3.846,,25.385,4.615,,1.538,0.769,,,,,13.077,32.308,0.769,1.538,14.615,1.538,,,,,P 32.308,3
607,15.441,,16.176,19.853,,5.147,0.735,,2.206,2.206,,2.206,19.118,8.088,0.735,3.676,3.676,0.735,,,,E 19.853,1
608,25.000,,6.429,9.286,,5.714,2.143,4.286,9.286,2.143,0.714,4.286,2.857,4.286,6.429,7.857,6.429,2.143,,0.714,,A 25.000,1
609,,,,,30.000,,,10.714,,27.143,0.714,,,0.714,,0.714,0.714,17.857,,11.429,,F 30.000,2
610,10.000,0.714,0.714,0.714,1.429,2.857,,32.143,1.429,12.143,2.857,,0.714,1.429,,1.429,0.714,30.714,,,,I 32.143,1
611,11.429,,32.857,22.143,0.714,2.857,1.429,,2.143,1.429,,6.429,,5.000,1.429,6.429,5.000,0.714,,,,D 32.857,1
612,74.286,2.143,,,,7.857,,2.143,,3.571,1.429,,,0.714,,5.000,2.143,0.714,,,,A 74.286,7
613,1.429,2.143,,,32.857,,,14.286,,20.714,5.714,,,1.429,,,,7.143,2.857,11.429,,F 32.857,1
614,7.194,,0.719,2.878,,15.108,0.719,0.719,15.827,1.439,,0.719,,4.317,44.604,3.597,2.158,,,,,R 44.604,1
615,15.108,,2.878,2.878,1.439,10.791,5.755,1.439,10.791,2.158,,4.317,,5.755,13.669,15.108,5.036,0.719,,2.158,,AS 15.108,1
616,7.194,,,,2.158,,,17.986,,22.302,3.597,2.878,,,,0.719,12.950,30.216,,,,V 30.216,2
617,2.158,,,,2.158,,,8.633,,83.453,0.719,,,,,,,2.878,,,,L 83.453,7
618,15.217,5.072,6.522,10.870,0.725,2.174,2.174,1.449,3.623,18.116,,4.348,,4.348,4.348,7.971,11.594,1.449,,,,L 18.116,1
619,1.527,,64.122,2.290,,,3.053,,0.763,1.527,,9.160,,3.053,0.763,10.687,3.053,,,,,D 64.122,5
620,12.230,,9.353,19.424,1.439,2.878,2.878,,10.072,0.719,,1.439,12.950,5.755,,15.827,3.597,,,1.439,,E 19.424,1
621,12.230,0.719,8.633,6.475,,2.878,2.158,2.878,10.072,2.878,0.719,6.475,0.719,5.755,1.439,25.180,10.072,,0.719,,,S 25.180,1
622,13.669,,2.158,2.158,0.719,3.597,0.719,5.755,1.439,49.640,1.439,1.439,0.719,1.439,4.317,4.317,5.036,0.719,,0.719,,L 49.640,1
623,,,83.453,10.072,,,,,,,,1.439,,,,4.317,0.719,,,,,D 83.453,8
624,10.791,,2.878,,,,1.439,,13.669,9.353,,3.597,44.604,3.597,5.036,,1.439,0.719,0.719,2.158,,P 44.604,1
625,64.029,,2.878,12.950,,4.317,0.719,,,0.719,0.719,3.597,,0.719,,9.353,,,,,,A 64.029,7
626,,,,1.439,52.518,,,2.158,,29.496,7.194,,,,,,,2.158,,5.036,,F 52.518,6
627,8.633,0.719,,,2.158,,,22.302,21.583,10.791,,,,3.597,14.388,,2.158,13.669,,,,I 22.302,2
628,75.540,0.719,1.439,6.475,,1.439,,0.719,,,,,,,,11.511,2.158,,,,,A 75.540,8
629,1.439,,0.719,30.935,,,1.439,,11.511,28.777,1.439,,,10.791,3.597,0.719,,1.439,,7.194,,E 30.935,4
630,36.691,3.597,,,,,,7.914,,18.705,17.986,,,1.439,,1.439,4.317,7.914,,,,A 36.691,4
631,,,,,1.439,,,16.547,,76.978,3.597,,,,,,,1.439,,,,L 76.978,7
632,9.353,,0.719,2.158,,1.439,,2.878,3.597,1.439,5.036,,,7.194,7.914,13.669,40.288,4.317,,,,T 40.288,3
633,0.719,,,,2.878,,,1.439,,86.331,2.158,,5.036,,,,,1.439,,,,L 86.331,8
634,,,,,,,,,,,,,100.000,,,,,,,,,P 100.000,9
635,8.633,,6.475,0.719,,17.986,,,2.158,,1.439,3.597,2.158,1.439,2.158,46.043,5.755,1.439,,,,S 46.043,5
636,0.719,,2.158,57.554,9.353,,3.597,6.475,0.719,5.755,,,1.439,2.878,0.719,1.439,1.439,1.439,1.439,2.878,,E 57.554,6
637,15.827,,9.353,5.755,,15.108,,,4.317,0.719,,12.950,0.719,4.317,2.158,15.827,12.230,0.719,,,,AS 15.827,3
638,2.878,,4.317,32.374,1.439,0.719,,2.158,,2.158,2.158,,,0.719,,1.439,10.072,2.158,,37.410,,Y 37.410,5
639,,,,,2.174,,,26.812,,48.551,,,,,,,,21.739,0.725,,,L 48.551,5
640,46.377,0.725,,,0.725,7.971,0.725,3.623,0.725,8.696,10.145,,,,,11.594,4.348,2.899,0.725,0.725,,A 46.377,5
641,7.971,,16.667,41.304,,10.145,,,,0.725,0.725,3.623,0.725,8.696,2.174,2.174,4.348,0.725,,,,E 41.304,6
642,2.899,,4.348,9.420,2.899,0.725,2.899,2.174,0.725,10.145,7.971,1.449,,29.710,5.072,2.899,5.797,0.725,9.420,0.725,,Q 29.710,3
643,3.623,1.449,,1.449,11.594,0.725,1.449,8.696,,16.667,32.609,,,3.623,,2.899,0.725,6.522,,7.971,,M 32.609,4
644,13.139,,15.328,29.197,,2.190,1.460,,11.679,,,3.650,5.839,1.460,3.650,6.569,5.839,,,,,E 29.197,1
645,2.190,0.730,4.380,8.759,,1.460,,5.109,2.190,2.190,,3.650,8.029,7.299,3.650,5.109,7.299,37.956,,,,V 37.956,1
646,19.853,,,,0.735,,0.735,28.676,,3.676,0.735,,1.471,,,2.206,0.735,38.971,,2.206,,V 38.971,5
647,0.735,,84.559,2.941,,,0.735,,,0.735,,3.676,3.676,1.471,,,,,,1.471,,D 84.559,8
648,0.741,,,,3.704,,,4.444,,1.481,,,51.111,,,,1.481,36.296,,0.741,,P 51.111,6
649,5.185,,51.852,11.111,0.741,1.481,2.963,2.963,,3.704,0.741,1.481,,6.667,,1.481,5.185,4.444,,,,D 51.852,3
650,65.185,,0.741,2.963,0.741,6.667,,0.741,2.963,2.222,,,0.741,2.222,6.667,2.222,,5.926,,,,A 65.185,6
651,0.741,,,,1.481,,,49.630,,21.481,,0.741,,,,0.741,0.741,24.444,,,,I 49.630,6
652,11.111,0.741,0.741,5.926,3.704,0.741,51.852,2.963,1.481,2.963,,3.704,,,2.222,0.741,0.741,2.963,1.481,5.926,,H 51.852,4
653,33.333,,4.444,13.333,0.741,2.222,0.741,0.741,8.889,2.963,,4.444,,6.667,3.704,2.222,8.889,5.185,0.741,0.741,,A 33.333,1
654,54.815,,,0.741,,1.481,,1.481,,,,0.741,,,,2.222,3.704,34.815,,,,A 54.815,7
655,,2.963,,,0.741,,3.704,2.963,5.185,9.630,1.481,,,0.741,65.185,2.222,2.222,0.741,,2.222,,R 65.185,6
656,2.222,,16.296,30.370,,2.963,0.741,,8.148,1.481,,6.667,,8.148,8.889,5.185,5.926,2.963,,,,E 30.370,2
657,19.259,,0.741,2.963,31.111,5.926,2.963,,2.963,3.704,,3.704,,2.963,1.481,5.926,5.926,1.481,1.481,7.407,,F 31.111,1
658,5.926,0.741,,,9.630,,,16.296,,35.556,8.889,,,0.741,,,,20.000,0.741,1.481,,L 35.556,4
659,1.481,0.741,,8.889,,,1.481,0.741,22.963,2.963,0.741,,,6.667,44.444,1.481,3.704,1.481,,2.222,,R 44.444,4
660,11.111,0.741,1.481,0.741,,2.963,2.222,,28.889,6.667,0.741,2.963,,11.852,18.519,2.222,2.963,5.926,,,,K 28.889,1
661,14.815,1.481,3.704,10.370,1.481,2.222,2.963,2.963,2.222,1.481,,2.222,,25.185,7.407,11.111,8.889,0.741,,0.741,,Q 25.185,1
662,,,,,3.704,,,33.333,,57.778,2.222,,,,,,,2.963,,,,L 57.778,5
663,76.296,,,,,21.481,,,,1.481,,,,,,0.741,,,,,,A 76.296,8
664,13.433,,5.970,12.687,1.493,1.493,2.239,2.985,11.194,6.716,0.746,2.985,,9.701,8.209,5.224,10.448,2.239,,2.239,,A 13.433,1
665,26.866,,2.239,16.418,0.746,3.731,4.478,0.746,5.224,2.985,0.746,,,14.925,8.209,5.224,6.716,,,0.746,,A 26.866,1
666,,0.746,,,6.716,,2.239,,,82.836,2.985,1.493,,,,,0.746,,,2.239,,L 82.836,7
667,4.511,,1.504,16.541,4.511,2.256,2.256,0.752,19.549,0.752,,3.008,,9.774,20.301,4.511,1.504,2.256,0.752,5.263,,R 20.301,1
668,17.293,,27.068,17.293,,5.263,,0.752,3.759,0.752,,1.504,10.526,5.263,1.504,6.015,2.256,,,0.752,,D 27.068,1
669,7.576,,12.879,39.394,,,0.758,,3.030,7.576,,1.515,2.273,14.394,2.273,3.030,0.758,3.030,,1.515,,E 39.394,2
670,1.515,,,,28.788,,,3.030,,44.697,3.030,,,,,,,,16.667,2.273,,L 44.697,1
671,6.061,,,5.303,3.788,,2.273,4.545,6.818,36.364,1.515,,0.758,2.273,9.091,7.576,3.788,4.545,3.788,1.515,,L 36.364,1
672,28.788,,8.333,14.394,0.758,1.515,,0.758,7.576,1.515,2.273,2.273,,6.061,4.545,12.121,6.061,2.273,0.758,,,A 28.788,1
673,12.879,4.545,,2.273,,0.758,2.273,18.182,0.758,20.455,3.788,1.515,,1.515,6.818,0.758,10.606,12.879,,,,L 20.455,1
674,0.758,,,,9.848,,4.545,0.758,,2.273,0.758,,,0.758,1.515,,,8.333,,70.455,,Y 70.455,6
675,8.397,,7.634,19.847,,2.290,16.031,1.527,9.924,3.053,,6.107,,9.160,6.107,0.763,5.344,3.053,,0.763,,E 19.847,1
676,22.308,,3.077,7.692,,0.769,1.538,,7.692,2.308,0.769,8.462,,13.077,10.000,18.462,1.538,1.538,,0.769,,A 22.308,1
677,1.587,4.762,,,2.381,1.587,5.556,3.968,,37.302,3.175,29.365,,0.794,,1.587,3.175,0.794,0.794,3.175,,L 37.302,1
678,14.173,,0.787,3.937,,1.575,5.512,3.150,14.961,0.787,,7.087,,9.449,14.173,10.236,6.299,2.362,4.724,0.787,,K 14.961,1
679,9.449,0.787,8.661,7.874,,2.362,1.575,3.937,1.575,7.087,,3.150,3.937,14.961,3.150,16.535,10.236,4.724,,,,S 16.535,1
680,8.661,,17.323,8.661,1.575,3.937,,1.575,7.087,,,4.724,11.811,5.512,3.150,12.598,11.024,2.362,,,,D 17.323,1
681,33.333,,5.556,5.556,,22.222,,,,,,,,16.667,,11.111,,5.556,,,,A 33.333,2*
682,5.208,,8.333,29.167,,33.333,3.125,1.042,2.083,,,1.042,,3.125,,6.250,5.208,2.083,,,,G 33.333,2
683,,,33.333,11.111,,,,,,,,,,33.333,,11.111,,11.111,,,,DQ 33.333,4*
684,,,,16.667,,,,16.667,,16.667,33.333,,,,,16.667,,,,,,M 33.333,2*
685,16.667,,16.667,,,16.667,,,,,,,,,,,50.000,,,,,T 50.000,4*
686,16.935,0.806,10.484,18.548,,6.452,2.419,0.806,2.419,0.806,,4.839,26.613,2.419,0.806,0.806,2.419,1.613,,0.806,,P 26.613,1
687,1.613,,2.419,2.419,18.548,2.419,4.032,,1.613,0.806,,0.806,0.806,0.806,,,1.613,,,62.097,,Y 62.097,5
688,8.065,1.613,4.839,4.839,,2.419,0.806,4.839,8.871,1.613,0.806,0.806,,3.226,13.710,23.387,8.871,10.484,,0.806,,S 23.387,1
689,,,60.000,,,,40.000,,,,,,,,,,,,,,,D 60.000,7*
690,,,,80.000,,20.000,,,,,,,,,,,,,,,,E 80.000,7*
691,,,,,,,,,20.000,,,,,,,80.000,,,,,,S 80.000,7*
692,,,,,,40.000,20.000,,,,,,,,,,,,,40.000,,GY 40.000,3*
693,2.381,,,0.794,13.492,,,15.873,,11.111,3.175,2.381,19.841,,2.381,1.587,0.794,19.048,,7.143,,P 19.841,1
694,,,44.444,13.492,,0.794,3.175,,,,,11.905,,,,14.286,9.524,0.794,,1.587,,D 44.444,3
695,34.375,,,2.344,3.125,8.594,20.312,1.562,2.344,,0.781,3.125,12.500,2.344,,3.906,0.781,1.562,,2.344,,A 34.375,3
696,18.750,,12.500,22.656,,3.125,2.344,2.344,8.594,0.781,,2.344,6.250,5.469,2.344,6.250,4.688,1.562,,,,E 22.656,1
697,35.938,0.781,17.969,5.469,,1.562,1.562,0.781,,,,5.469,1.562,7.031,,20.312,,1.562,,,,A 35.938,3
698,16.406,3.125,,,2.344,,,28.906,5.469,2.344,21.094,,,,0.781,1.562,1.562,11.719,,4.688,,I 28.906,5
699,32.031,,,0.781,,58.594,,,,,,3.125,,0.781,,3.906,0.781,,,,,G 58.594,6
700,6.250,,1.562,1.562,,0.781,6.250,2.344,21.875,3.125,1.562,2.344,,8.594,40.625,,,1.562,0.781,0.781,,R 40.625,4
701,,,,,,,,,,,,,,,100.000,,,,,,,R 100.000,9
702,39.844,,,,,3.906,,,14.062,2.344,1.562,,,0.781,13.281,18.750,3.906,,,1.562,,A 39.844,4
703,,,,,2.344,,,3.125,,93.750,0.781,,,,,,,,,,,L 93.750,8
704,0.781,1.562,,,,,1.562,,50.000,0.781,0.781,0.781,,1.562,42.188,,,,,,,K 50.000,7
705,,,,,,,,0.781,1.562,2.344,,89.844,,3.125,,2.344,,,,,,N 89.844,9
706,8.594,0.781,,0.781,,0.781,,11.719,1.562,25.781,,,,3.125,3.125,3.125,24.219,16.406,,,,L 25.781,1
707,37.500,44.531,,,,,,3.125,,9.375,,,,,,2.344,0.781,2.344,,,,C 44.531,4
708,,,,,0.781,,,,,98.438,0.781,,,,,,,,,,,L 98.438,9
709,20.312,0.781,6.250,0.781,,11.719,9.375,0.781,2.344,1.562,1.562,1.562,,2.344,2.344,28.125,2.344,1.562,3.125,3.125,,S 28.125,1
710,,0.781,,,6.250,,,,,10.156,3.125,,,1.562,,,,,0.781,77.344,,Y 77.344,6
711,0.781,,,,0.781,,,1.562,,92.188,4.688,,,,,,,,,,,L 92.188,9
712,36.719,3.125,,,,2.344,,0.781,,5.469,14.844,0.781,,,0.781,16.406,5.469,13.281,,,,A 36.719,4
713,23.438,3.125,0.781,8.594,2.344,0.781,3.906,0.781,11.719,9.375,,0.781,,4.688,4.688,10.156,7.031,3.906,,3.906,,A 23.438,1
714,17.969,,0.781,1.562,0.781,3.906,0.781,9.375,,30.469,,0.781,,0.781,0.781,10.156,17.969,3.906,,,,L 30.469,1
715,6.250,,25.000,21.875,,11.719,1.562,,3.906,,,11.719,6.250,3.906,3.125,3.906,0.781,,,,,D 25.000,1
716,4.688,,29.688,18.750,,5.469,1.562,1.562,5.469,,0.781,7.812,5.469,4.688,1.562,5.469,3.125,0.781,,3.125,,D 29.688,1
717,13.333,,7.500,16.667,,14.167,0.833,1.667,3.333,2.500,0.833,0.833,22.500,4.167,,6.667,3.333,0.833,,0.833,,P 22.500,1
718,18.000,,17.000,31.000,,,3.000,,7.000,2.000,2.000,1.000,,7.000,2.000,2.000,4.000,3.000,1.000,,,E 31.000,1
719,28.000,5.000,1.000,2.000,1.000,14.000,3.000,10.000,,8.000,2.000,1.000,4.000,1.000,,3.000,5.000,4.000,3.000,5.000,,A 28.000,1
720,10.156,,4.688,3.125,2.344,2.344,2.344,7.812,,19.531,2.344,10.156,4.688,0.781,5.469,2.344,10.156,10.156,,1.562,,L 19.531,1
721,20.312,,12.500,21.875,,4.688,3.125,,7.812,0.781,,5.469,0.781,3.125,4.688,7.812,5.469,0.781,,0.781,,E 21.875,1
722,4.688,,,1.562,4.688,,,7.812,,64.844,3.125,,,,7.031,,1.562,2.344,,2.344,,L 64.844,4
723,51.562,14.844,,,,1.562,,7.031,,6.250,,,,,,0.781,,17.969,,,,A 51.562,6
724,8.730,,,10.317,6.349,0.794,0.794,2.381,10.317,15.873,5.556,3.175,,8.730,5.556,3.968,3.175,6.349,1.587,6.349,,L 15.873,1
725,20.312,,3.906,10.938,,2.344,4.688,1.562,17.969,,1.562,6.250,,16.406,7.812,1.562,3.125,0.781,,0.781,,A 20.312,1
726,0.781,,,10.156,,,13.281,,,2.344,0.781,,,71.094,0.781,,,0.781,,,,Q 71.094,8
727,3.906,1.562,0.781,,39.062,,0.781,,,2.344,0.781,,,,,3.125,,0.781,,46.875,,Y 46.875,4
728,11.024,,11.811,9.449,0.787,1.575,4.724,0.787,11.811,3.150,0.787,6.299,,14.173,8.661,3.937,6.299,1.575,1.575,1.575,,Q 14.173,1
729,16.406,,6.250,8.594,,3.906,1.562,1.562,5.469,0.781,0.781,3.906,,12.500,4.688,20.312,11.719,,,1.562,,S 20.312,1
730,1.550,,31.783,,,3.876,4.651,1.550,8.527,,,17.054,2.326,6.977,6.202,3.101,11.628,,,0.775,,D 31.783,3
731,1.550,3.876,,,,3.101,0.775,,0.775,,,79.070,,,,1.550,6.202,,,3.101,,N 79.070,8
732,,,,,0.775,,,,,3.101,93.798,,2.326,,,,,,,,,M 93.798,9
733,0.781,,,,,,,,,,,,,,,3.906,95.312,,,,,T 95.312,9
734,,,80.469,14.062,,,,,,,,3.906,,,,1.562,,,,,,D 80.469,8
735,3.125,,,2.344,,,,,7.812,1.562,0.781,,,25.781,25.781,4.688,15.625,10.156,2.344,,,QR 25.781,5
736,1.562,,,0.781,11.719,,,16.406,,32.031,21.094,,,6.250,0.781,1.562,,3.125,,4.688,,L 32.031,4
737,68.750,0.781,0.781,,,15.625,,,,,,0.781,,,,7.812,4.688,,,0.781,,A 68.750,6
738,88.281,,,,,3.906,,,,,,,,,,7.031,,0.781,,,,A 88.281,9
739,,,,,7.812,,,0.781,,79.688,10.938,,,,,,0.781,,,,,L 79.688,8
740,23.438,,,0.781,,7.031,,1.562,3.906,1.562,2.344,5.469,,4.688,3.906,31.250,9.375,4.688,,,,S 31.250,2
741,53.906,2.344,,0.781,1.562,,0.781,7.031,,14.844,0.781,0.781,,1.562,,3.125,3.906,8.594,,,,A 53.906,4
742,15.625,,,,,,,14.062,,61.719,1.562,,,,,3.906,,3.125,,,,L 61.719,7
743,30.469,3.125,0.781,1.562,,0.781,,3.125,,3.906,1.562,16.406,,1.562,2.344,7.031,4.688,22.656,,,,A 30.469,4
744,5.469,1.562,14.062,3.906,,3.125,9.375,0.781,7.031,1.562,0.781,27.344,,10.156,,10.156,,0.781,0.781,3.125,,N 27.344,2
745,8.661,0.787,2.362,3.937,2.362,24.409,6.299,,0.787,16.535,,3.150,0.787,,2.362,17.323,3.150,6.299,,0.787,,G 24.409,1
746,17.600,,5.600,14.400,,2.400,,,6.400,,,0.800,30.400,4.000,0.800,8.800,7.200,1.600,,,,P 30.400,1
747,12.000,12.800,6.400,28.000,,4.000,2.400,5.600,2.400,4.000,,,0.800,4.000,3.200,4.000,4.800,4.000,,1.600,,E 28.000,1
748,11.024,1.575,1.575,,3.150,5.512,0.787,,7.874,,,0.787,,2.362,57.480,3.150,1.575,0.787,,2.362,,R 57.480,5
749,8.594,0.781,19.531,37.500,0.781,0.781,0.781,2.344,3.906,,,1.562,0.781,7.812,1.562,3.125,6.250,2.344,,1.562,,E 37.500,2
750,17.969,,14.062,15.625,,0.781,,0.781,10.938,3.125,,2.344,2.344,11.719,3.906,7.031,7.031,2.344,,,,A 17.969,1
751,46.094,6.250,,0.781,1.562,,,7.031,,17.188,1.562,,2.344,4.688,,0.781,0.781,10.938,,,,A 46.094,5
752,,,,,5.469,,,7.031,,65.625,14.844,,,,0.781,0.781,,1.562,,3.906,,L 65.625,7
753,28.906,,18.750,14.062,,1.562,1.562,0.781,5.469,0.781,,5.469,,6.250,0.781,8.594,4.688,2.344,,,,A 28.906,1
754,17.188,,40.625,4.688,,0.781,2.344,3.125,6.250,1.562,0.781,3.125,,2.344,5.469,7.031,2.344,1.562,,0.781,,D 40.625,1
755,,,,,90.625,,,,,1.562,,,,,,,2.344,,,5.469,,F 90.625,9
756,8.594,,3.125,8.594,1.562,0.781,4.688,,,1.562,,,,,,10.156,,,,60.938,,Y 60.938,6
757,7.031,,14.844,24.219,,1.562,0.781,,7.031,3.125,0.781,10.156,,10.156,6.250,10.156,2.344,1.562,,,,E 24.219,1
758,2.344,,5.469,3.906,,,,,25.000,3.125,,1.562,,17.188,35.938,2.344,2.344,,,0.781,,R 35.938,6
759,7.812,0.781,,,9.375,,0.781,,,,,,,,,1.562,0.781,,64.844,14.062,,W 64.844,7
760,10.938,,,5.469,,1.562,6.250,,26.562,,,3.906,,21.094,10.156,12.500,1.562,,,,,K 26.562,2
761,2.344,,21.094,3.125,,14.844,31.250,,3.906,,,8.594,,7.812,0.781,3.906,2.344,,,,,H 31.250,1
762,0.781,,61.719,24.219,,,,,,,,10.938,,0.781,,,1.562,,,,,D 61.719,6
763,23.438,,4.688,5.469,3.906,13.281,2.344,0.781,1.562,,,0.781,25.781,,2.344,3.125,4.688,3.906,,3.906,,P 25.781,1
764,,,,,,,,1.562,,92.188,,0.781,,3.125,,0.781,,1.562,,,,L 92.188,8
765,1.562,,,,,,,2.344,,2.344,0.781,,,,,0.781,5.469,86.719,,,,V 86.719,9
766,,,,,,,,18.750,,25.000,34.375,,,,,,,21.875,,,,M 34.375,6
767,,2.344,71.875,2.344,,,,0.781,,,,18.750,,3.906,,,,,,,,D 71.875,8
768,,,,2.344,,,,,89.062,0.781,,,,7.031,0.781,,,,,,,K 89.062,9
769,,,,,1.562,,,,,,,,,,,,,,96.094,2.344,,W 96.094,8
770,,,,,83.594,,,0.781,,14.844,,,,,0.781,,,,,,,F 83.594,7
771,45.312,,,,,5.469,,0.781,3.906,0.781,5.469,0.781,,4.688,2.344,17.969,10.156,2.344,,,,A 45.312,4
772,3.906,,,,,,,14.844,,46.094,2.344,,,,,0.781,7.031,25.000,,,,L 46.094,5
773,,,,,,,1.562,,0.781,1.562,,0.781,,90.625,0.781,,,3.906,,,,Q 90.625,9
774,82.031,,,,,10.156,,,,,,,,,,6.250,,1.562,,,,A 82.031,9
775,3.125,2.344,,,3.906,7.031,,0.781,2.344,9.375,17.188,,,0.781,6.250,19.531,26.562,0.781,,,,T 26.562,3
776,21.094,3.125,2.344,,,0.781,,0.781,,1.562,0.781,10.156,,4.688,3.906,46.875,1.562,1.562,,0.781,,S 46.875,6
777,5.600,0.800,19.200,9.600,1.600,,3.200,,3.200,1.600,,3.200,27.200,2.400,6.400,7.200,5.600,2.400,,0.800,,P 27.200,1
778,13.281,,4.688,0.781,,2.344,3.906,10.156,2.344,20.312,1.562,3.125,1.562,3.906,16.406,3.906,4.688,3.906,0.781,2.344,,L 20.312,1
779,5.469,,8.594,10.156,0.781,3.125,,,4.688,1.562,,1.562,48.438,0.781,3.906,6.250,4.688,,,,,P 48.438,1
780,0.781,1.562,36.719,5.469,,22.656,2.344,,,,0.781,16.406,1.562,2.344,,3.125,6.250,,,,,D 36.719,2
781,21.138,0.813,,1.626,,1.626,,7.317,,0.813,,10.569,,1.626,,3.252,34.146,17.073,,,,T 34.146,5
782,,0.781,,,3.125,,,7.031,,64.062,0.781,0.781,,,,,0.781,18.750,,3.906,,L 64.062,6
783,15.625,,21.094,35.156,0.781,1.562,,0.781,2.344,3.125,,5.469,0.781,3.906,,4.688,4.688,,,,,E 35.156,1
784,3.906,,5.469,7.031,,,5.469,5.469,4.688,4.688,2.344,15.625,,3.906,27.344,,7.031,6.250,,0.781,,R 27.344,1
785,0.781,,,,,,,16.406,,5.469,,,,,,,,77.344,,,,V 77.344,8
786,3.906,,0.781,7.031,,0.781,1.562,0.781,37.500,0.781,2.344,,,13.281,25.000,0.781,4.688,0.781,,,,K 37.500,4
787,25.000,,2.344,9.375,0.781,7.812,,,14.062,1.562,0.781,10.156,,10.156,10.156,2.344,4.688,0.781,,,,A 25.000,1
788,2.344,0.781,,,,,,1.562,,86.719,,,,,,1.562,7.031,,,,,L 86.719,8
789,5.469,,,3.125,0.781,2.344,,4.688,1.562,32.812,31.250,,,2.344,0.781,2.344,7.031,2.344,,3.125,,L 32.812,4
790,6.250,,5.469,11.719,,5.469,3.125,,9.375,,,11.719,,17.188,3.906,17.188,7.031,1.562,,,,QS 17.188,1
791,,,1.562,2.344,,,91.406,,,,,1.562,,,,2.344,0.781,,,,,H 91.406,9
792,5.469,0.781,3.125,9.375,,0.781,,0.781,5.469,,,,65.625,1.562,2.344,2.344,0.781,1.562,,,,P 65.625,3
793,58.594,1.562,15.625,3.125,,,0.781,,1.562,4.688,,,,1.562,,6.250,2.344,3.906,,,,A 58.594,5
794,,,,,90.625,,,,2.344,,0.781,,,,,,,,,6.250,,F 90.625,8
795,0.781,,32.812,4.688,,,1.562,,1.562,,,13.281,,,,29.688,14.844,,,0.781,,D 32.812,5
796,3.125,,,,6.250,0.781,0.781,19.531,0.781,44.531,9.375,2.344,2.344,,0.781,1.562,0.781,,2.344,4.688,,L 44.531,1
797,1.562,,0.781,1.562,,1.562,,,46.875,0.781,,5.469,,3.906,20.312,9.375,7.812,,,,,K 46.875,4
798,,,,,,,,1.562,,,,94.531,,,,,2.344,1.562,,,,N 94.531,9
799,,,,,,,,,,,,,100.000,,,,,,,,,P 100.000,9
800,,,,,,,,,,,,99.219,,,,,0.781,,,,,N 99.219,9
801,,,0.781,0.781,0.781,,,0.781,36.719,2.344,,5.469,,,51.562,0.781,,,,,,R 51.562,7
802,10.938,2.344,,,2.344,,,5.469,,7.812,0.781,,,,,,9.375,60.156,0.781,,,V 60.156,7
803,,,,,,,,,0.781,,,0.781,,,78.906,0.781,,,,18.750,,R 78.906,8
804,39.062,,,,,0.781,,,,,,1.562,,,,57.812,,0.781,,,,S 57.812,7
805,,,,,,,,0.781,,86.719,,,,,,,,12.500,,,,L 86.719,8
806,,,,,0.781,,,52.344,,12.500,,,,,,,,28.125,,6.250,,I 52.344,5
807,4.688,,,,7.031,67.969,0.781,,,2.344,,1.562,,,3.125,4.688,2.344,2.344,,3.125,,G 67.969,4
808,34.375,,,,,14.062,,,,,0.781,1.562,1.562,3.125,,24.219,14.062,6.250,,,,A 34.375,5
809,,,,,98.438,,,,,0.781,,,,,,,,,,0.781,,F 98.438,9
810,26.562,34.375,,0.781,2.344,8.594,,,,6.250,,,,,0.781,7.812,10.156,2.344,,,,C 34.375,3
811,23.200,,0.800,,3.200,24.000,0.800,1.600,,1.600,5.600,11.200,,13.600,5.600,4.800,0.800,2.400,,0.800,,G 24.000,1
812,,,,,,,,,,,,88.281,,,0.781,7.812,2.344,,,0.781,,N 88.281,9
813,2.344,,,,3.125,,7.031,4.688,1.562,10.156,3.906,0.781,48.438,9.375,1.562,1.562,4.688,,,0.781,,P 48.438,1
814,14.173,,,0.787,0.787,0.787,0.787,5.512,3.937,8.661,,0.787,1.575,1.575,11.024,1.575,3.937,37.008,4.724,2.362,,V 37.008,1
815,10.156,,,,,7.812,17.188,,0.781,,,21.875,,14.844,18.750,2.344,,2.344,0.781,3.125,,N 21.875,2
816,,,,,100.000,,,,,,,,,,,,,,,,,F 100.000,9
817,,,,,,,91.406,,,,,8.594,,,,,,,,,,H 91.406,9
818,50.394,1.575,15.748,2.362,,,4.724,,,,,3.937,,2.362,16.535,2.362,,,,,,A 50.394,2
819,30.709,,2.362,3.150,,1.575,,10.236,28.346,3.937,0.787,0.787,9.449,1.575,0.787,2.362,,3.937,,,,A 30.709,2
820,0.781,,65.625,,,3.125,,,1.562,,,7.812,,,,20.312,0.781,,,,,D 65.625,7
821,,,,0.781,,98.438,,,,,,,,,,,0.781,,,,,G 98.438,9
822,17.188,,3.906,8.594,,0.781,0.781,,10.938,2.344,,1.562,,4.688,4.688,42.969,,,,1.562,,S 42.969,4
823,0.781,,,,,96.875,,,,,,,,,,2.344,,,,,,G 96.875,9
824,,,,,,,0.781,0.781,,,,,,,,,,,,98.438,,Y 98.438,9
825,20.312,,3.906,12.500,,,,,17.188,2.344,,,,11.719,25.781,2.344,1.562,2.344,,,,R 25.781,1
826,,,,,77.344,,,,,17.969,0.781,,,,,,,,0.781,3.125,,F 77.344,7
827,10.156,0.781,,,0.781,,0.781,9.375,,57.031,3.125,,,,,,,9.375,7.812,0.781,,L 57.031,5
828,57.031,,,0.781,,19.531,,0.781,0.781,0.781,,,,,2.344,4.688,10.938,2.344,,,,A 57.031,6
829,0.781,,57.812,35.156,,,,,,,,3.125,,0.781,,2.344,,,,,,D 57.812,7
830,1.562,5.469,,0.781,0.781,,0.781,20.312,3.906,3.125,7.031,2.344,,28.125,7.812,3.125,0.781,10.156,3.125,0.781,,Q 28.125,3
831,0.781,,,,,,,33.594,,22.656,,,,,,,1.562,41.406,,,,V 41.406,7
832,1.562,,,2.344,,,0.781,33.594,3.906,38.281,3.125,,0.781,,4.688,0.781,5.469,4.688,,,,L 38.281,2
833,19.531,,2.344,19.531,,,2.344,3.125,19.531,3.125,0.781,0.781,,14.844,7.031,0.781,1.562,4.688,,,,AEK 19.531,2
834,2.344,,,,,,,9.375,,74.219,4.688,,,,,,1.562,7.812,,,,L 74.219,6
835,,,69.531,,,,,,,,,30.469,,,,,,,,,,D 69.531,9
836,17.188,,2.344,9.375,,9.375,,0.781,27.344,,,,10.156,3.125,7.812,7.812,4.688,,,,,K 27.344,2
837,,,,,9.375,,,31.250,5.469,25.781,3.906,,,0.781,2.344,14.062,2.344,3.906,,0.781,,I 31.250,3
838,,,,,,,,,,,,100.000,,,,,,,,,,N 100.000,9
839,1.562,,,,,1.562,0.781,,,,,,94.531,,,1.562,,,,,,P 94.531,8
840,0.781,,,2.344,,,0.781,0.781,,0.781,3.125,,,87.500,,2.344,,1.562,,,,Q 87.500,9
841,1.562,,,,,,,22.656,,3.125,3.906,3.125,,,,0.781,5.469,59.375,,,,V 59.375,6
842,92.188,,,,,0.781,,,,,,,,,,7.031,,,,,,A 92.188,9
843,56.250,,,,,0.781,,,,,,,,,,39.844,3.125,,,,,A 56.250,8
844,0.781,,,,,0.781,0.781,,1.562,,,,,2.344,91.406,2.344,,,,,,R 91.406,9
845,,0.781,,,0.781,3.125,,7.812,,59.375,21.094,,,3.125,,,0.781,3.125,,,,L 59.375,5
846,26.562,5.469,,,,0.781,,16.406,,17.188,2.344,,,,,3.125,2.344,25.781,,,,A 26.562,5
847,7.812,,9.375,9.375,,10.156,,0.781,5.469,0.781,,2.344,3.906,1.562,13.281,16.406,17.969,0.781,,,,T 17.969,3
848,25.781,3.125,,,,4.688,0.781,1.562,,1.562,,0.781,49.219,,0.781,9.375,0.781,1.562,,,,P 49.219,4
849,,,,,44.531,,,0.781,,51.562,3.125,,,,,,,,,,,L 51.562,7
850,1.562,,6.250,3.125,,10.156,,6.250,4.688,12.500,2.344,7.031,,,3.906,17.188,22.656,2.344,,,,T 22.656,6
851,1.562,0.781,,1.562,1.562,0.781,0.781,0.781,14.062,6.250,0.781,3.125,,11.719,42.969,10.156,3.125,,,,,R 42.969,5
852,,,,,8.594,,,,,6.250,0.781,,,,0.781,,,3.125,71.875,8.594,,W 71.875,6
853,1.562,,,,,2.344,2.344,,25.000,0.781,,3.906,,6.250,51.562,3.906,2.344,,,,,R 51.562,4
854,,,,0.781,,,1.562,,26.562,2.344,1.562,1.562,,10.938,52.344,2.344,,,,,,R 52.344,6
855,,,,,21.875,,0.781,1.562,,14.844,5.469,,,0.781,,,,3.125,,51.562,,Y 51.562,3
856,3.125,,73.438,5.469,,0.781,0.781,,0.781,,,5.469,3.125,0.781,0.781,0.781,3.906,0.781,,,,D 73.438,7
857,14.062,,5.469,28.906,,3.906,0.781,0.781,3.906,3.125,,1.562,18.750,6.250,,5.469,3.906,3.125,,,,E 28.906,1
858,18.750,,3.125,7.031,,10.938,3.125,,11.719,1.562,1.562,3.125,7.031,6.250,0.781,7.031,13.281,3.906,,0.781,,A 18.750,1
859,1.562,,,,,,2.344,,,8.594,0.781,0.781,,,82.812,,,,,3.125,,R 82.812,8
860,5.469,,,,,4.688,,,7.031,,,0.781,,67.969,9.375,4.688,,,,,,Q 67.969,7
861,28.125,,5.469,15.625,0.781,5.469,0.781,3.125,10.938,,,3.906,0.781,9.375,2.344,4.688,6.250,2.344,,,,A 28.125,1
862,5.512,,,0.787,1.575,,3.937,0.787,6.299,67.717,9.449,,,1.575,0.787,0.787,,0.787,,,,L 67.717,4
863,14.062,,,,,,,13.281,,1.562,71.094,,,,,,,,,,,M 71.094,8
864,,0.794,,1.587,,0.794,2.381,,49.206,5.556,0.794,,,7.143,26.190,0.794,3.175,1.587,,,,K 49.206,4
865,40.476,,3.175,11.111,,4.762,0.794,,11.905,1.587,0.794,3.175,,8.730,3.175,2.381,5.556,2.381,,,,A 40.476,1
866,20.000,,,41.600,,0.800,,,,0.800,,0.800,,31.200,0.800,1.600,,2.400,,,,E 41.600,6
867,,,,,0.800,,,3.200,,92.800,1.600,,,,,,,1.600,,,,L 92.800,9
868,1.626,,2.439,50.407,,0.813,0.813,,11.382,0.813,0.813,3.252,,17.886,4.878,0.813,2.439,1.626,,,,E 50.407,4
869,2.459,0.820,0.820,1.639,,1.639,0.820,0.820,13.934,,4.098,,,8.197,55.738,4.098,4.098,0.820,,,,R 55.738,5
870,,,,,,,,55.372,,30.579,5.785,,,,,,,8.264,,,,I 55.372,8
871,24.793,,,1.653,,,,3.306,6.612,28.099,7.438,0.826,,3.306,5.785,9.091,,9.091,,,,L 28.099,1
872,31.092,0.840,6.723,5.882,,7.563,,,10.084,,,10.084,,6.723,0.840,18.487,,1.681,,,,A 31.092,2
873,12.150,,0.935,13.084,,0.935,0.935,1.869,3.738,14.019,4.673,0.935,,9.346,3.738,8.411,16.822,8.411,,,,T 16.822,1
874,4.348,,14.783,19.130,,4.348,1.739,,2.609,0.870,,11.304,30.435,3.478,1.739,1.739,2.609,0.870,,,,P 30.435,1
875,3.509,,6.140,7.018,,30.702,0.877,,7.895,,,25.439,1.754,2.632,0.877,10.526,2.632,,,,,G 30.702,1
876,,,,,,,,7.826,,91.304,,,,,,,0.870,,,,,L 91.304,8
877,13.043,,,,,,,,,,,,,,,86.957,,,,,,S 86.957,9
878,0.877,,5.263,9.649,,3.509,,,40.351,,,14.912,4.386,0.877,13.158,3.509,1.754,0.877,0.877,,,K 40.351,4
879,,,71.681,,,,,,,,,27.434,,0.885,,,,,,,,D 71.681,9
880,,,,,,,,0.926,,39.815,,,,,,1.852,7.407,50.000,,,,V 50.000,7
881,2.970,,,,29.703,0.990,,,7.921,5.941,,0.990,,,11.881,2.970,3.960,,,32.673,,Y 32.673,1
882,,,1.031,98.969,,,,,,,,,,,,,,,,,,E 98.969,9
883,,,,,,,,42.373,10.169,5.085,6.780,,,1.695,,,,28.814,,5.085,,I 42.373,7
884,,,,,,,,11.905,,21.429,,,,,,,,66.667,,,,V 66.667,7
885,5.556,,5.556,,,5.556,5.556,,,16.667,5.556,,,,,22.222,22.222,11.111,,,,ST 22.222,2*
886,,,,,,,,,30.000,,,,,,70.000,,,,,,,R 70.000,7
887,,,,,,,,,,100.000,,,,,,,,,,,,L 100.000,7*
888,,,,,,,,,,,,,,,,,100.000,,,,,T 100.000,8*
889,,,,,,,,,,,,100.000,,,,,,,,,,N 100.000,8*
890,,,,,,,,,100.000,,,,,,,,,,,,,K 100.000,8*
