c<D>r<11>a<3238>R<PHE>A<CE2> 1
c<D>r<11>a<3239>R<PHE>A<CZ> 1
c<D>r<29>a<3370>R<VAL>A<O> 1
c<D>r<29>a<3372>R<VAL>A<CG1> 1
c<D>r<31>a<3385>R<SER>A<N> 1
c<D>r<31>a<3386>R<SER>A<CA> 2
c<D>r<31>a<3388>R<SER>A<O> 2
c<D>r<31>a<3389>R<SER>A<CB> 1
c<D>r<31>a<3390>R<SER>A<OG> 1
c<D>r<32>a<3395>R<SER>A<CB> 2
c<D>r<32>a<3396>R<SER>A<OG> 2
c<D>r<34>a<3410>R<GLN>A<CG> 3
c<D>r<34>a<3411>R<GLN>A<CD> 3
c<D>r<34>a<3412>R<GLN>A<OE1> 3
c<D>r<34>a<3413>R<GLN>A<NE2> 2
c<D>r<36>a<3433>R<TYR>A<CG> 1
c<D>r<36>a<3434>R<TYR>A<CD1> 2
c<D>r<36>a<3435>R<TYR>A<CD2> 2
c<D>r<36>a<3436>R<TYR>A<CE1> 2
c<D>r<36>a<3437>R<TYR>A<CE2> 1
c<D>r<36>a<3438>R<TYR>A<CZ> 2
c<D>r<36>a<3439>R<TYR>A<OH> 2
c<D>r<38>a<3458>R<GLN>A<OE1> 1
c<D>r<38>a<3459>R<GLN>A<NE2> 1
c<D>r<40>a<3473>R<PRO>A<CB> 1
c<D>r<40>a<3474>R<PRO>A<CG> 1
c<D>r<41>a<3476>R<GLY>A<N> 1
c<D>r<41>a<3477>R<GLY>A<CA> 1
c<D>r<41>a<3478>R<GLY>A<C> 2
c<D>r<41>a<3479>R<GLY>A<O> 1
c<D>r<42>a<3480>R<GLU>A<N> 2
c<D>r<42>a<3481>R<GLU>A<CA> 1
c<D>r<42>a<3482>R<GLU>A<C> 2
c<D>r<42>a<3483>R<GLU>A<O> 2
c<D>r<43>a<3489>R<GLY>A<N> 1
c<D>r<43>a<3490>R<GLY>A<CA> 1
c<D>r<43>a<3491>R<GLY>A<C> 2
c<D>r<43>a<3492>R<GLY>A<O> 1
c<D>r<44>a<3493>R<PRO>A<N> 2
c<D>r<44>a<3496>R<PRO>A<O> 1
c<D>r<44>a<3497>R<PRO>A<CB> 1
c<D>r<44>a<3498>R<PRO>A<CG> 1
c<D>r<44>a<3499>R<PRO>A<CD> 2
c<D>r<46>a<3507>R<LEU>A<N> 1
c<D>r<46>a<3511>R<LEU>A<CB> 1
c<D>r<46>a<3512>R<LEU>A<CG> 2
c<D>r<46>a<3513>R<LEU>A<CD1> 2
c<D>r<46>a<3514>R<LEU>A<CD2> 1
c<D>r<48>a<3525>R<VAL>A<C> 1
c<D>r<49>a<3530>R<THR>A<N> 1
c<D>r<49>a<3534>R<THR>A<CB> 1
c<D>r<49>a<3535>R<THR>A<OG1> 2
c<D>r<49>a<3536>R<THR>A<CG2> 1
c<D>r<51>a<3547>R<VAL>A<O> 1
c<D>r<51>a<3548>R<VAL>A<CB> 1
c<D>r<51>a<3549>R<VAL>A<CG1> 1
c<D>r<51>a<3550>R<VAL>A<CG2> 1
c<D>r<52>a<3556>R<THR>A<OG1> 1
c<D>r<70>a<3700>R<ARG>A<NH1> 1
c<D>r<70>a<3701>R<ARG>A<NH2> 1
c<D>r<87>a<3819>R<LEU>A<CD1> 1
c<D>r<87>a<3820>R<LEU>A<CD2> 1
c<D>r<89>a<3839>R<LEU>A<CD1> 1
c<D>r<89>a<3840>R<LEU>A<CD2> 1
c<D>r<93>a<3856>R<ALA>A<N> 2
c<D>r<93>a<3857>R<ALA>A<CA> 2
c<D>r<93>a<3858>R<ALA>A<C> 2
c<D>r<93>a<3859>R<ALA>A<O> 1
c<D>r<93>a<3860>R<ALA>A<CB> 2
c<D>r<94>a<3861>R<GLY>A<N> 2
c<D>r<94>a<3863>R<GLY>A<C> 2
c<D>r<94>a<3864>R<GLY>A<O> 2
c<D>r<95>a<3865>R<SER>A<N> 1
c<D>r<95>a<3866>R<SER>A<CA> 1
c<D>r<95>a<3867>R<SER>A<C> 2
c<D>r<95>a<3868>R<SER>A<O> 1
c<D>r<95>a<3869>R<SER>A<CB> 1
c<D>r<96>a<3872>R<GLN>A<CA> 2
c<D>r<96>a<3873>R<GLN>A<C> 2
c<D>r<96>a<3874>R<GLN>A<O> 1
c<D>r<96>a<3875>R<GLN>A<CB> 1
c<D>r<96>a<3878>R<GLN>A<OE1> 1
c<D>r<96>a<3879>R<GLN>A<NE2> 1
c<D>r<97>a<3880>R<GLY>A<N> 2
c<D>r<97>a<3881>R<GLY>A<CA> 2
c<D>r<97>a<3882>R<GLY>A<C> 2
c<D>r<97>a<3883>R<GLY>A<O> 2
c<D>r<98>a<3884>R<ASN>A<N> 2
c<D>r<98>a<3885>R<ASN>A<CA> 2
c<D>r<98>a<3886>R<ASN>A<C> 2
c<D>r<98>a<3887>R<ASN>A<O> 3
c<D>r<98>a<3888>R<ASN>A<CB> 1
c<D>r<98>a<3889>R<ASN>A<CG> 2
c<D>r<98>a<3890>R<ASN>A<OD1> 1
c<D>r<98>a<3891>R<ASN>A<ND2> 2
c<D>r<99>a<3892>R<LEU>A<N> 2
c<D>r<99>a<3895>R<LEU>A<O> 1
c<D>r<99>a<3896>R<LEU>A<CB> 2
c<D>r<99>a<3897>R<LEU>A<CG> 3
c<D>r<99>a<3898>R<LEU>A<CD1> 3
c<D>r<99>a<3899>R<LEU>A<CD2> 3
c<D>r<101>a<3912>R<PHE>A<CB> 1
c<D>r<101>a<3913>R<PHE>A<CG> 2
c<D>r<101>a<3914>R<PHE>A<CD1> 1
c<D>r<101>a<3915>R<PHE>A<CD2> 1
c<D>r<101>a<3916>R<PHE>A<CE1> 2
c<D>r<101>a<3917>R<PHE>A<CE2> 1
c<D>r<101>a<3918>R<PHE>A<CZ> 2
c<D>r<102>a<3922>R<GLY>A<O> 1
c<D>r<103>a<3924>R<LYS>A<CA> 1
c<D>r<103>a<3926>R<LYS>A<O> 1
c<D>r<103>a<3929>R<LYS>A<CD> 1
c<D>r<106>a<3951>R<LYS>A<NZ> 1
c<D>r<117>a<4032>R<ASP>A<O> 2
c<D>r<117>a<4033>R<ASP>A<CB> 1
c<D>r<117>a<4034>R<ASP>A<CG> 2
c<D>r<117>a<4035>R<ASP>A<OD1> 1
c<D>r<117>a<4036>R<ASP>A<OD2> 1
c<D>r<119>a<4048>R<ALA>A<CB> 2
c<D>r<121>a<4057>R<TYR>A<CA> 2
c<D>r<121>a<4060>R<TYR>A<CB> 2
c<D>r<121>a<4061>R<TYR>A<CG> 2
c<D>r<121>a<4062>R<TYR>A<CD1> 1
c<D>r<121>a<4063>R<TYR>A<CD2> 2
c<D>r<121>a<4064>R<TYR>A<CE1> 2
c<D>r<121>a<4065>R<TYR>A<CE2> 2
c<D>r<121>a<4066>R<TYR>A<CZ> 2
c<D>r<121>a<4067>R<TYR>A<OH> 2
c<D>r<122>a<4068>R<GLN>A<N> 1
c<D>r<122>a<4071>R<GLN>A<O> 1
c<D>r<123>a<4078>R<LEU>A<CA> 2
c<D>r<123>a<4079>R<LEU>A<C> 2
c<D>r<123>a<4080>R<LEU>A<O> 2
c<D>r<123>a<4081>R<LEU>A<CB> 2
c<D>r<123>a<4082>R<LEU>A<CG> 2
c<D>r<123>a<4083>R<LEU>A<CD1> 2
c<D>r<123>a<4084>R<LEU>A<CD2> 2
c<D>r<124>a<4085>R<ARG>A<N> 2
c<D>r<124>a<4087>R<ARG>A<C> 2
c<D>r<124>a<4088>R<ARG>A<O> 2
c<D>r<124>a<4091>R<ARG>A<CD> 1
c<D>r<124>a<4092>R<ARG>A<NE> 1
c<D>r<124>a<4093>R<ARG>A<CZ> 2
c<D>r<124>a<4094>R<ARG>A<NH1> 1
c<D>r<124>a<4095>R<ARG>A<NH2> 1
c<D>r<125>a<4096>R<ASP>A<N> 2
c<D>r<125>a<4097>R<ASP>A<CA> 2
c<D>r<125>a<4099>R<ASP>A<O> 1
c<D>r<125>a<4100>R<ASP>A<CB> 2
c<D>r<125>a<4101>R<ASP>A<CG> 2
c<D>r<125>a<4102>R<ASP>A<OD1> 1
c<D>r<125>a<4103>R<ASP>A<OD2> 1
c<D>r<126>a<4104>R<SER>A<N> 2
c<D>r<126>a<4105>R<SER>A<CA> 2
c<D>r<126>a<4107>R<SER>A<O> 1
c<D>r<126>a<4108>R<SER>A<CB> 1
c<D>r<126>a<4109>R<SER>A<OG> 1
c<D>r<131>a<4141>R<LYS>A<C> 2
c<D>r<131>a<4142>R<LYS>A<O> 2
c<D>r<131>a<4144>R<LYS>A<CG> 1
c<D>r<131>a<4147>R<LYS>A<NZ> 1
c<D>r<132>a<4148>R<SER>A<N> 2
c<D>r<132>a<4149>R<SER>A<CA> 2
c<D>r<132>a<4150>R<SER>A<C> 2
c<D>r<132>a<4151>R<SER>A<O> 1
c<D>r<133>a<4154>R<VAL>A<N> 2
c<D>r<133>a<4158>R<VAL>A<CB> 2
c<D>r<133>a<4159>R<VAL>A<CG1> 1
c<D>r<133>a<4160>R<VAL>A<CG2> 1
c<D>r<135>a<4171>R<LEU>A<CB> 1
c<D>r<135>a<4173>R<LEU>A<CD1> 1
c<D>r<135>a<4174>R<LEU>A<CD2> 1
c<D>r<137>a<4191>R<THR>A<OG1> 1
c<D>r<137>a<4192>R<THR>A<CG2> 2
c<D>r<138>a<4199>R<ASP>A<OD1> 2
c<D>r<138>a<4200>R<ASP>A<OD2> 1
c<D>r<151>a<4298>R<SER>A<O> 1
c<D>r<151>a<4300>R<SER>A<OG> 1
c<D>r<154>a<4317>R<TYR>A<CA> 1
c<D>r<154>a<4318>R<TYR>A<C> 2
c<D>r<154>a<4320>R<TYR>A<CB> 2
c<D>r<154>a<4321>R<TYR>A<CG> 2
c<D>r<154>a<4322>R<TYR>A<CD1> 1
c<D>r<154>a<4323>R<TYR>A<CD2> 2
c<D>r<154>a<4324>R<TYR>A<CE1> 1
c<D>r<154>a<4325>R<TYR>A<CE2> 1
c<D>r<154>a<4326>R<TYR>A<CZ> 2
c<D>r<154>a<4327>R<TYR>A<OH> 1
c<D>r<155>a<4328>R<ILE>A<N> 1
c<D>r<155>a<4330>R<ILE>A<C> 2
c<D>r<155>a<4331>R<ILE>A<O> 1
c<D>r<156>a<4336>R<THR>A<N> 2
c<D>r<156>a<4337>R<THR>A<CA> 1
c<D>r<156>a<4340>R<THR>A<CB> 1
c<D>r<156>a<4341>R<THR>A<OG1> 2
c<D>r<156>a<4342>R<THR>A<CG2> 1
c<D>r<157>a<4343>R<ASP>A<N> 1
c<D>r<157>a<4346>R<ASP>A<O> 1
c<D>r<157>a<4347>R<ASP>A<CB> 1
c<D>r<157>a<4350>R<ASP>A<OD2> 1
c<D>r<158>a<4354>R<LYS>A<O> 1
c<D>r<159>a<4362>R<THR>A<C> 2
c<D>r<159>a<4363>R<THR>A<O> 1
c<D>r<159>a<4364>R<THR>A<CB> 1
c<D>r<159>a<4365>R<THR>A<OG1> 1
c<D>r<159>a<4366>R<THR>A<CG2> 1
c<D>r<160>a<4367>R<VAL>A<N> 1
c<D>r<160>a<4369>R<VAL>A<C> 2
c<D>r<160>a<4370>R<VAL>A<O> 1
c<D>r<161>a<4374>R<LEU>A<N> 2
c<D>r<161>a<4375>R<LEU>A<CA> 2
c<D>r<161>a<4378>R<LEU>A<CB> 1
c<D>r<161>a<4379>R<LEU>A<CG> 2
c<D>r<161>a<4380>R<LEU>A<CD1> 1
c<D>r<161>a<4381>R<LEU>A<CD2> 2
c<D>r<162>a<4382>R<ASP>A<N> 1
c<D>r<162>a<4385>R<ASP>A<O> 2
c<D>r<163>a<4391>R<MET>A<CA> 1
c<D>r<163>a<4395>R<MET>A<CG> 1
c<D>r<163>a<4396>R<MET>A<SD> 2
c<D>r<163>a<4397>R<MET>A<CE> 1
c<D>r<164>a<4406>R<ARG>A<CZ> 1
c<D>r<164>a<4407>R<ARG>A<NH1> 1
c<D>r<164>a<4408>R<ARG>A<NH2> 1
c<D>r<166>a<4419>R<MET>A<CB> 1
c<D>r<166>a<4420>R<MET>A<CG> 1
c<D>r<166>a<4421>R<MET>A<SD> 1
c<D>r<166>a<4422>R<MET>A<CE> 1
c<D>r<168>a<4435>R<PHE>A<CB> 1
c<D>r<168>a<4436>R<PHE>A<CG> 2
c<D>r<168>a<4437>R<PHE>A<CD1> 1
c<D>r<168>a<4438>R<PHE>A<CD2> 2
c<D>r<168>a<4439>R<PHE>A<CE1> 1
c<D>r<168>a<4440>R<PHE>A<CE2> 2
c<D>r<168>a<4441>R<PHE>A<CZ> 1
c<D>r<170>a<4455>R<SER>A<CB> 2
c<D>r<170>a<4456>R<SER>A<OG> 1
c<D>r<172>a<4467>R<SER>A<C> 2
c<D>r<172>a<4468>R<SER>A<O> 2
c<D>r<172>a<4470>R<SER>A<OG> 1
c<D>r<173>a<4471>R<ALA>A<N> 2
c<D>r<173>a<4472>R<ALA>A<CA> 2
c<D>r<173>a<4473>R<ALA>A<C> 2
c<D>r<174>a<4476>R<VAL>A<N> 2
c<D>r<174>a<4480>R<VAL>A<CB> 2
c<D>r<174>a<4481>R<VAL>A<CG1> 1
c<D>r<174>a<4482>R<VAL>A<CG2> 1
c<D>r<176>a<4492>R<TRP>A<CB> 1
c<D>r<176>a<4493>R<TRP>A<CG> 1
c<D>r<176>a<4494>R<TRP>A<CD1> 1
c<D>r<176>a<4495>R<TRP>A<CD2> 2
c<D>r<176>a<4496>R<TRP>A<NE1> 1
c<D>r<176>a<4497>R<TRP>A<CE2> 2
c<D>r<176>a<4498>R<TRP>A<CE3> 2
c<D>r<176>a<4499>R<TRP>A<CZ2> 2
c<D>r<176>a<4500>R<TRP>A<CZ3> 2
c<D>r<176>a<4501>R<TRP>A<CH2> 1
c<D>r<198>a<4663>R<PHE>A<CB> 1
c<D>r<198>a<4664>R<PHE>A<CG> 2
c<D>r<198>a<4665>R<PHE>A<CD1> 1
c<D>r<198>a<4666>R<PHE>A<CD2> 2
c<D>r<198>a<4667>R<PHE>A<CE1> 1
c<D>r<198>a<4668>R<PHE>A<CE2> 1
c<D>r<198>a<4669>R<PHE>A<CZ> 1
c<D>r<200>a<4685>R<PRO>A<CB> 1
c<D>r<200>a<4686>R<PRO>A<CG> 1
