c<C>r<14>a<3308>R<GLU>A<N> 1
c<C>r<14>a<3309>R<GLU>A<CA> 1
c<C>r<14>a<3311>R<GLU>A<O> 1
c<C>r<14>a<3312>R<GLU>A<CB> 1
c<C>r<14>a<3313>R<GLU>A<CG> 1
c<C>r<14>a<3314>R<GLU>A<CD> 1
c<C>r<14>a<3315>R<GLU>A<OE1> 1
c<C>r<16>a<3329>R<VAL>A<C> 2
c<C>r<16>a<3331>R<VAL>A<CB> 1
c<C>r<16>a<3332>R<VAL>A<CG1> 1
c<C>r<16>a<3333>R<VAL>A<CG2> 1
c<C>r<17>a<3334>R<ASN>A<N> 2
c<C>r<17>a<3335>R<ASN>A<CA> 2
c<C>r<17>a<3337>R<ASN>A<O> 2
c<C>r<17>a<3338>R<ASN>A<CB> 1
c<C>r<17>a<3339>R<ASN>A<CG> 2
c<C>r<17>a<3340>R<ASN>A<OD1> 2
c<C>r<17>a<3341>R<ASN>A<ND2> 1
c<C>r<19>a<3351>R<ILE>A<CB> 1
c<C>r<19>a<3353>R<ILE>A<CG2> 1
c<C>r<19>a<3354>R<ILE>A<CD1> 1
c<C>r<20>a<3357>R<GLN>A<C> 2
c<C>r<20>a<3358>R<GLN>A<O> 1
c<C>r<20>a<3359>R<GLN>A<CB> 2
c<C>r<20>a<3360>R<GLN>A<CG> 2
c<C>r<20>a<3361>R<GLN>A<CD> 1
c<C>r<20>a<3362>R<GLN>A<OE1> 1
c<C>r<20>a<3363>R<GLN>A<NE2> 1
c<C>r<21>a<3364>R<GLU>A<N> 2
c<C>r<21>a<3365>R<GLU>A<CA> 2
c<C>r<21>a<3367>R<GLU>A<O> 1
c<C>r<21>a<3368>R<GLU>A<CB> 1
c<C>r<21>a<3369>R<GLU>A<CG> 2
c<C>r<21>a<3370>R<GLU>A<CD> 1
c<C>r<21>a<3371>R<GLU>A<OE1> 1
c<C>r<21>a<3372>R<GLU>A<OE2> 1
c<C>r<23>a<3384>R<ARG>A<CD> 1
c<C>r<23>a<3385>R<ARG>A<NE> 2
c<C>r<23>a<3386>R<ARG>A<CZ> 2
c<C>r<23>a<3387>R<ARG>A<NH1> 1
c<C>r<23>a<3388>R<ARG>A<NH2> 1
c<C>r<24>a<3392>R<ARG>A<O> 1
c<C>r<24>a<3393>R<ARG>A<CB> 1
c<C>r<24>a<3394>R<ARG>A<CG> 1
c<C>r<24>a<3395>R<ARG>A<CD> 1
c<C>r<24>a<3396>R<ARG>A<NE> 2
c<C>r<24>a<3397>R<ARG>A<CZ> 2
c<C>r<24>a<3398>R<ARG>A<NH1> 1
c<C>r<24>a<3399>R<ARG>A<NH2> 1
c<C>r<25>a<3400>R<LEU>A<N> 2
c<C>r<25>a<3404>R<LEU>A<CB> 2
c<C>r<25>a<3406>R<LEU>A<CD1> 1
c<C>r<25>a<3407>R<LEU>A<CD2> 1
c<C>r<28>a<3428>R<LEU>A<CB> 1
c<C>r<28>a<3429>R<LEU>A<CG> 1
c<C>r<28>a<3430>R<LEU>A<CD1> 1
c<C>r<28>a<3431>R<LEU>A<CD2> 2
c<C>r<46>a<3564>R<MET>A<O> 1
c<C>r<46>a<3565>R<MET>A<CB> 1
c<C>r<46>a<3566>R<MET>A<CG> 1
c<C>r<47>a<3572>R<PHE>A<O> 1
c<C>r<48>a<3584>R<ASP>A<CB> 1
c<C>r<48>a<3585>R<ASP>A<CG> 2
c<C>r<48>a<3586>R<ASP>A<OD1> 1
c<C>r<48>a<3587>R<ASP>A<OD2> 1
c<C>r<49>a<3588>R<LEU>A<N> 2
c<C>r<49>a<3592>R<LEU>A<CB> 1
c<C>r<49>a<3595>R<LEU>A<CD2> 1
c<C>r<50>a<3596>R<GLN>A<N> 2
c<C>r<50>a<3600>R<GLN>A<CB> 1
c<C>r<50>a<3602>R<GLN>A<CD> 1
c<C>r<50>a<3603>R<GLN>A<OE1> 1
c<C>r<50>a<3604>R<GLN>A<NE2> 1
c<C>r<51>a<3613>R<GLU>A<OE2> 1
c<C>r<79>a<3831>R<MET>A<CE> 1
c<C>r<99>a<3980>R<GLN>A<CG> 1
c<C>r<99>a<3983>R<GLN>A<NE2> 1
c<C>r<100>a<3984>R<ILE>A<N> 1
c<C>r<100>a<3987>R<ILE>A<O> 1
c<C>r<101>a<3993>R<ILE>A<CA> 1
c<C>r<101>a<3996>R<ILE>A<CB> 1
c<C>r<101>a<3998>R<ILE>A<CG2> 1
c<C>r<102>a<4000>R<THR>A<N> 1
c<C>r<102>a<4006>R<THR>A<CG2> 1
c<C>r<108>a<4061>R<GLU>A<OE2> 1
c<C>r<109>a<4069>R<ASN>A<ND2> 1
c<C>r<112>a<4091>R<ASP>A<CB> 1
c<C>r<112>a<4092>R<ASP>A<CG> 2
c<C>r<112>a<4093>R<ASP>A<OD1> 1
c<C>r<112>a<4094>R<ASP>A<OD2> 1
c<C>r<114>a<4109>R<LEU>A<O> 2
c<C>r<115>a<4115>R<LEU>A<CA> 2
c<C>r<115>a<4116>R<LEU>A<C> 1
c<C>r<115>a<4117>R<LEU>A<O> 1
c<C>r<115>a<4118>R<LEU>A<CB> 1
c<C>r<115>a<4120>R<LEU>A<CD1> 1
c<C>r<115>a<4121>R<LEU>A<CD2> 1
c<C>r<116>a<4122>R<VAL>A<N> 2
c<C>r<116>a<4123>R<VAL>A<CA> 1
c<C>r<116>a<4124>R<VAL>A<C> 2
c<C>r<116>a<4125>R<VAL>A<O> 1
c<C>r<116>a<4127>R<VAL>A<CG1> 1
c<C>r<116>a<4128>R<VAL>A<CG2> 1
c<C>r<117>a<4129>R<ILE>A<N> 2
c<C>r<117>a<4132>R<ILE>A<O> 1
c<C>r<117>a<4136>R<ILE>A<CD1> 2
c<C>r<118>a<4137>R<PRO>A<N> 2
c<C>r<118>a<4138>R<PRO>A<CA> 1
c<C>r<118>a<4139>R<PRO>A<C> 1
c<C>r<118>a<4140>R<PRO>A<O> 1
c<C>r<118>a<4141>R<PRO>A<CB> 1
c<C>r<118>a<4142>R<PRO>A<CG> 1
