c<A>r<1>a<8>R<GLN>A<OE1> 2
c<A>r<1>a<9>R<GLN>A<NE2> 1
c<A>r<26>a<193>R<ASN>A<OD1> 1
c<A>r<26>a<194>R<ASN>A<ND2> 1
c<A>r<27>a<197>R<SER>A<C> 2
c<A>r<27>a<198>R<SER>A<O> 1
c<A>r<27>a<199>R<SER>A<CB> 1
c<A>r<27>a<200>R<SER>A<OG> 1
c<A>r<28>a<201>R<ALA>A<N> 2
c<A>r<28>a<202>R<ALA>A<CA> 1
c<A>r<28>a<204>R<ALA>A<O> 1
c<A>r<28>a<205>R<ALA>A<CB> 1
c<A>r<30>a<217>R<ASP>A<N> 2
c<A>r<30>a<220>R<ASP>A<O> 1
c<A>r<30>a<221>R<ASP>A<CB> 1
c<A>r<30>a<222>R<ASP>A<CG> 2
c<A>r<30>a<223>R<ASP>A<OD1> 2
c<A>r<30>a<224>R<ASP>A<OD2> 1
c<A>r<31>a<233>R<TYR>A<CE1> 1
c<A>r<31>a<234>R<TYR>A<CE2> 2
c<A>r<31>a<235>R<TYR>A<CZ> 2
c<A>r<31>a<236>R<TYR>A<OH> 1
c<A>r<33>a<252>R<PRO>A<CB> 2
c<A>r<33>a<253>R<PRO>A<CG> 3
c<A>r<35>a<276>R<TYR>A<CD2> 2
c<A>r<35>a<278>R<TYR>A<CE2> 2
c<A>r<35>a<279>R<TYR>A<CZ> 2
c<A>r<35>a<280>R<TYR>A<OH> 2
c<A>r<37>a<297>R<GLN>A<OE1> 1
c<A>r<37>a<298>R<GLN>A<NE2> 1
c<A>r<39>a<314>R<PRO>A<CB> 1
c<A>r<40>a<320>R<GLY>A<O> 1
c<A>r<41>a<322>R<GLU>A<CA> 1
c<A>r<41>a<323>R<GLU>A<C> 2
c<A>r<41>a<324>R<GLU>A<O> 1
c<A>r<42>a<330>R<GLY>A<N> 1
c<A>r<42>a<331>R<GLY>A<CA> 1
c<A>r<42>a<332>R<GLY>A<C> 1
c<A>r<43>a<334>R<PRO>A<N> 2
c<A>r<43>a<337>R<PRO>A<O> 1
c<A>r<43>a<338>R<PRO>A<CB> 2
c<A>r<43>a<339>R<PRO>A<CG> 2
c<A>r<43>a<340>R<PRO>A<CD> 2
c<A>r<44>a<342>R<ALA>A<CA> 1
c<A>r<45>a<346>R<LEU>A<N> 1
c<A>r<45>a<350>R<LEU>A<CB> 1
c<A>r<45>a<352>R<LEU>A<CD1> 2
c<A>r<45>a<353>R<LEU>A<CD2> 1
c<A>r<50>a<389>R<ARG>A<CD> 1
c<A>r<50>a<390>R<ARG>A<NE> 1
c<A>r<50>a<391>R<ARG>A<CZ> 2
c<A>r<50>a<392>R<ARG>A<NH1> 1
c<A>r<50>a<393>R<ARG>A<NH2> 1
c<A>r<51>a<399>R<SER>A<OG> 1
c<A>r<52>a<404>R<VAL>A<CB> 1
c<A>r<52>a<405>R<VAL>A<CG1> 1
c<A>r<52>a<406>R<VAL>A<CG2> 1
c<A>r<87>a<661>R<THR>A<OG1> 1
c<A>r<87>a<662>R<THR>A<CG2> 1
c<A>r<89>a<680>R<PHE>A<CG> 2
c<A>r<89>a<681>R<PHE>A<CD1> 2
c<A>r<89>a<682>R<PHE>A<CD2> 2
c<A>r<89>a<683>R<PHE>A<CE1> 2
c<A>r<89>a<684>R<PHE>A<CE2> 1
c<A>r<89>a<685>R<PHE>A<CZ> 1
c<A>r<94>a<709>R<ARG>A<CA> 2
c<A>r<94>a<711>R<ARG>A<O> 2
c<A>r<94>a<712>R<ARG>A<CB> 1
c<A>r<94>a<714>R<ARG>A<CD> 1
c<A>r<94>a<715>R<ARG>A<NE> 1
c<A>r<94>a<716>R<ARG>A<CZ> 2
c<A>r<94>a<717>R<ARG>A<NH1> 1
c<A>r<94>a<718>R<ARG>A<NH2> 1
c<A>r<95>a<720>R<ASP>A<CA> 2
c<A>r<95>a<721>R<ASP>A<C> 3
c<A>r<95>a<722>R<ASP>A<O> 3
c<A>r<95>a<723>R<ASP>A<CB> 2
c<A>r<95>a<724>R<ASP>A<CG> 2
c<A>r<95>a<726>R<ASP>A<OD2> 1
c<A>r<96>a<727>R<SER>A<N> 2
c<A>r<96>a<730>R<SER>A<O> 2
c<A>r<96>a<731>R<SER>A<CB> 2
c<A>r<96>a<732>R<SER>A<OG> 1
c<A>r<97>a<734>R<GLY>A<CA> 3
c<A>r<97>a<735>R<GLY>A<C> 3
c<A>r<97>a<736>R<GLY>A<O> 3
c<A>r<98>a<737>R<GLN>A<N> 3
c<A>r<98>a<738>R<GLN>A<CA> 3
c<A>r<98>a<739>R<GLN>A<C> 2
c<A>r<98>a<740>R<GLN>A<O> 2
c<A>r<98>a<741>R<GLN>A<CB> 2
c<A>r<98>a<742>R<GLN>A<CG> 3
c<A>r<98>a<743>R<GLN>A<CD> 3
c<A>r<98>a<744>R<GLN>A<OE1> 3
c<A>r<98>a<745>R<GLN>A<NE2> 4
c<A>r<99>a<747>R<LYS>A<CA> 2
c<A>r<99>a<748>R<LYS>A<C> 1
c<A>r<99>a<750>R<LYS>A<CB> 2
c<A>r<99>a<751>R<LYS>A<CG> 1
c<A>r<99>a<752>R<LYS>A<CD> 1
c<A>r<99>a<753>R<LYS>A<CE> 1
c<A>r<99>a<754>R<LYS>A<NZ> 1
c<A>r<100>a<755>R<LEU>A<N> 2
c<A>r<100>a<756>R<LEU>A<CA> 2
c<A>r<100>a<758>R<LEU>A<O> 1
c<A>r<100>a<759>R<LEU>A<CB> 2
c<A>r<100>a<760>R<LEU>A<CG> 3
c<A>r<100>a<761>R<LEU>A<CD1> 3
c<A>r<101>a<764>R<VAL>A<CA> 1
c<A>r<101>a<768>R<VAL>A<CG1> 1
c<A>r<102>a<770>R<PHE>A<N> 1
c<A>r<102>a<773>R<PHE>A<O> 1
c<A>r<102>a<774>R<PHE>A<CB> 2
c<A>r<102>a<775>R<PHE>A<CG> 2
c<A>r<102>a<776>R<PHE>A<CD1> 2
c<A>r<102>a<777>R<PHE>A<CD2> 3
c<A>r<102>a<778>R<PHE>A<CE1> 2
c<A>r<102>a<779>R<PHE>A<CE2> 3
c<A>r<102>a<780>R<PHE>A<CZ> 3
c<A>r<103>a<783>R<GLY>A<C> 2
c<A>r<103>a<784>R<GLY>A<O> 2
c<A>r<104>a<785>R<GLN>A<N> 2
c<A>r<104>a<786>R<GLN>A<CA> 2
c<A>r<104>a<787>R<GLN>A<C> 2
c<A>r<104>a<788>R<GLN>A<O> 1
c<A>r<104>a<789>R<GLN>A<CB> 1
c<A>r<104>a<790>R<GLN>A<CG> 1
c<A>r<104>a<793>R<GLN>A<NE2> 1
c<A>r<118>a<902>R<ASP>A<O> 2
c<A>r<118>a<904>R<ASP>A<CG> 2
c<A>r<118>a<905>R<ASP>A<OD1> 1
c<A>r<118>a<906>R<ASP>A<OD2> 1
c<A>r<120>a<918>R<ALA>A<CB> 2
c<A>r<122>a<927>R<TYR>A<CA> 1
c<A>r<122>a<930>R<TYR>A<CB> 1
c<A>r<122>a<931>R<TYR>A<CG> 2
c<A>r<122>a<932>R<TYR>A<CD1> 1
c<A>r<122>a<933>R<TYR>A<CD2> 2
c<A>r<122>a<934>R<TYR>A<CE1> 2
c<A>r<122>a<935>R<TYR>A<CE2> 2
c<A>r<122>a<936>R<TYR>A<CZ> 2
c<A>r<122>a<937>R<TYR>A<OH> 2
c<A>r<123>a<938>R<GLN>A<N> 1
c<A>r<123>a<941>R<GLN>A<O> 1
c<A>r<124>a<948>R<LEU>A<CA> 1
c<A>r<124>a<949>R<LEU>A<C> 2
c<A>r<124>a<950>R<LEU>A<O> 2
c<A>r<124>a<951>R<LEU>A<CB> 2
c<A>r<124>a<952>R<LEU>A<CG> 2
c<A>r<124>a<953>R<LEU>A<CD1> 2
c<A>r<124>a<954>R<LEU>A<CD2> 2
c<A>r<125>a<955>R<ARG>A<N> 1
c<A>r<125>a<957>R<ARG>A<C> 2
c<A>r<125>a<958>R<ARG>A<O> 1
c<A>r<125>a<959>R<ARG>A<CB> 1
c<A>r<126>a<960>R<ASP>A<N> 2
c<A>r<126>a<961>R<ASP>A<CA> 2
c<A>r<126>a<962>R<ASP>A<C> 2
c<A>r<126>a<963>R<ASP>A<O> 1
c<A>r<126>a<964>R<ASP>A<CB> 2
c<A>r<126>a<965>R<ASP>A<CG> 2
c<A>r<126>a<966>R<ASP>A<OD1> 1
c<A>r<126>a<967>R<ASP>A<OD2> 1
c<A>r<127>a<968>R<SER>A<N> 2
c<A>r<127>a<969>R<SER>A<CA> 2
c<A>r<127>a<971>R<SER>A<O> 1
c<A>r<127>a<972>R<SER>A<CB> 1
c<A>r<127>a<973>R<SER>A<OG> 1
c<A>r<132>a<998>R<LYS>A<C> 3
c<A>r<132>a<999>R<LYS>A<O> 2
c<A>r<132>a<1000>R<LYS>A<CB> 2
c<A>r<132>a<1003>R<LYS>A<CE> 1
c<A>r<132>a<1004>R<LYS>A<NZ> 1
c<A>r<133>a<1005>R<SER>A<N> 2
c<A>r<133>a<1006>R<SER>A<CA> 2
c<A>r<133>a<1007>R<SER>A<C> 2
c<A>r<133>a<1008>R<SER>A<O> 1
c<A>r<134>a<1011>R<VAL>A<N> 2
c<A>r<134>a<1015>R<VAL>A<CB> 2
c<A>r<134>a<1016>R<VAL>A<CG1> 2
c<A>r<134>a<1017>R<VAL>A<CG2> 1
c<A>r<136>a<1028>R<LEU>A<CB> 2
c<A>r<136>a<1030>R<LEU>A<CD1> 2
c<A>r<136>a<1031>R<LEU>A<CD2> 2
c<A>r<138>a<1048>R<THR>A<OG1> 1
c<A>r<138>a<1049>R<THR>A<CG2> 2
c<A>r<139>a<1056>R<ASP>A<OD1> 2
c<A>r<139>a<1057>R<ASP>A<OD2> 1
c<A>r<152>a<1141>R<SER>A<CB> 1
c<A>r<152>a<1142>R<SER>A<OG> 1
c<A>r<155>a<1159>R<TYR>A<CB> 1
c<A>r<155>a<1160>R<TYR>A<CG> 2
c<A>r<155>a<1161>R<TYR>A<CD1> 1
c<A>r<155>a<1163>R<TYR>A<CE1> 1
c<A>r<155>a<1164>R<TYR>A<CE2> 1
c<A>r<155>a<1165>R<TYR>A<CZ> 1
c<A>r<155>a<1166>R<TYR>A<OH> 1
c<A>r<156>a<1167>R<ILE>A<N> 1
c<A>r<156>a<1169>R<ILE>A<C> 2
c<A>r<156>a<1170>R<ILE>A<O> 1
c<A>r<157>a<1175>R<THR>A<N> 2
c<A>r<157>a<1176>R<THR>A<CA> 1
c<A>r<157>a<1179>R<THR>A<CB> 2
c<A>r<157>a<1180>R<THR>A<OG1> 2
c<A>r<157>a<1181>R<THR>A<CG2> 1
c<A>r<158>a<1182>R<ASP>A<N> 1
c<A>r<158>a<1185>R<ASP>A<O> 2
c<A>r<158>a<1186>R<ASP>A<CB> 1
c<A>r<158>a<1189>R<ASP>A<OD2> 1
c<A>r<159>a<1192>R<LYS>A<C> 2
c<A>r<159>a<1193>R<LYS>A<O> 1
c<A>r<160>a<1199>R<CYS>A<N> 2
c<A>r<160>a<1201>R<CYS>A<C> 2
c<A>r<160>a<1202>R<CYS>A<O> 2
c<A>r<160>a<1203>R<CYS>A<CB> 1
c<A>r<160>a<1204>R<CYS>A<SG> 1
c<A>r<161>a<1207>R<VAL>A<C> 2
c<A>r<161>a<1208>R<VAL>A<O> 1
c<A>r<162>a<1212>R<LEU>A<N> 2
c<A>r<162>a<1213>R<LEU>A<CA> 1
c<A>r<162>a<1216>R<LEU>A<CB> 2
c<A>r<162>a<1217>R<LEU>A<CG> 2
c<A>r<162>a<1218>R<LEU>A<CD1> 2
c<A>r<162>a<1219>R<LEU>A<CD2> 1
c<A>r<163>a<1220>R<ASP>A<N> 1
c<A>r<163>a<1222>R<ASP>A<C> 2
c<A>r<163>a<1223>R<ASP>A<O> 1
c<A>r<164>a<1228>R<MET>A<N> 2
c<A>r<164>a<1229>R<MET>A<CA> 1
c<A>r<164>a<1232>R<MET>A<CB> 1
c<A>r<164>a<1233>R<MET>A<CG> 2
c<A>r<164>a<1234>R<MET>A<SD> 2
c<A>r<164>a<1235>R<MET>A<CE> 1
c<A>r<165>a<1236>R<ARG>A<N> 2
c<A>r<165>a<1240>R<ARG>A<CB> 1
c<A>r<165>a<1241>R<ARG>A<CG> 2
c<A>r<165>a<1243>R<ARG>A<NE> 1
c<A>r<165>a<1244>R<ARG>A<CZ> 2
c<A>r<165>a<1245>R<ARG>A<NH1> 1
c<A>r<165>a<1246>R<ARG>A<NH2> 1
c<A>r<166>a<1247>R<SER>A<N> 1
c<A>r<166>a<1251>R<SER>A<CB> 1
c<A>r<166>a<1252>R<SER>A<OG> 1
c<A>r<167>a<1259>R<MET>A<SD> 1
c<A>r<167>a<1260>R<MET>A<CE> 1
c<A>r<169>a<1273>R<PHE>A<CB> 2
c<A>r<169>a<1274>R<PHE>A<CG> 1
c<A>r<169>a<1275>R<PHE>A<CD1> 1
c<A>r<169>a<1276>R<PHE>A<CD2> 2
c<A>r<169>a<1277>R<PHE>A<CE1> 1
c<A>r<169>a<1278>R<PHE>A<CE2> 2
c<A>r<169>a<1279>R<PHE>A<CZ> 1
c<A>r<171>a<1289>R<SER>A<CB> 2
c<A>r<171>a<1290>R<SER>A<OG> 2
c<A>r<173>a<1301>R<SER>A<C> 2
c<A>r<173>a<1302>R<SER>A<O> 2
c<A>r<173>a<1303>R<SER>A<CB> 1
c<A>r<173>a<1304>R<SER>A<OG> 1
c<A>r<174>a<1305>R<ALA>A<N> 2
c<A>r<174>a<1306>R<ALA>A<CA> 3
c<A>r<174>a<1307>R<ALA>A<C> 3
c<A>r<175>a<1310>R<VAL>A<N> 3
c<A>r<175>a<1314>R<VAL>A<CB> 2
c<A>r<175>a<1315>R<VAL>A<CG1> 1
c<A>r<175>a<1316>R<VAL>A<CG2> 2
c<A>r<177>a<1326>R<TRP>A<CB> 1
c<A>r<177>a<1327>R<TRP>A<CG> 2
c<A>r<177>a<1328>R<TRP>A<CD1> 1
c<A>r<177>a<1329>R<TRP>A<CD2> 2
c<A>r<177>a<1330>R<TRP>A<NE1> 1
c<A>r<177>a<1331>R<TRP>A<CE2> 2
c<A>r<177>a<1332>R<TRP>A<CE3> 2
c<A>r<177>a<1333>R<TRP>A<CZ2> 1
c<A>r<177>a<1334>R<TRP>A<CZ3> 2
c<A>r<177>a<1335>R<TRP>A<CH2> 1
c<A>r<199>a<1464>R<PHE>A<CB> 1
c<A>r<199>a<1465>R<PHE>A<CG> 1
c<A>r<199>a<1466>R<PHE>A<CD1> 1
c<A>r<199>a<1467>R<PHE>A<CD2> 2
c<A>r<199>a<1468>R<PHE>A<CE1> 1
c<A>r<199>a<1469>R<PHE>A<CE2> 1
c<A>r<199>a<1470>R<PHE>A<CZ> 1
c<A>r<201>a<1486>R<PRO>A<CB> 1
c<A>r<201>a<1487>R<PRO>A<CG> 1
