V1;V2;Weight
1CBW I R 1;1CBW I P 2;38.4093
1CBW I R 1;1CBW I D 3;9.84841
1CBW I R 1;1CBW I C 5;0.0172196
1CBW I R 1;1CBW I L 6;2.31258
1CBW I R 1;1CBW I T 54;4.50697
1CBW I R 1;1CBW I G 56;1.4223
1CBW I R 1;1CBW I A 58;28.4158
1CBW I P 2;1CBW I D 3;22.5177
1CBW I P 2;1CBW I F 4;26.388
1CBW I P 2;1CBW I C 5;21.1522
1CBW I P 2;1CBW I L 6;3.46379
1CBW I P 2;1CBW I T 54;15.5525
1CBW I P 2;1CBW I C 55;0.143888
1CBW I P 2;1CBW I A 58;3.31045
1CBW I D 3;1CBW I F 4;23.5583
1CBW I D 3;1CBW I C 5;2.34136
1CBW I D 3;1CBW I L 6;27.9187
1CBW I D 3;1CBW I E 7;6.70201
1CBW I F 4;1CBW I C 5;21.6119
1CBW I F 4;1CBW I L 6;3.7356
1CBW I F 4;1CBW I E 7;17.8252
1CBW I F 4;1CBW I R 42;55.4672
1CBW I F 4;1CBW I N 43;19.7611
1CBW I F 4;1CBW I F 45;6.73662
1CBW I F 4;1CBW I T 54;14.498
1CBW I F 4;1CBW I C 55;7.4384
1CBW I C 5;1CBW I L 6;25.4524
1CBW I C 5;1CBW I E 7;0.105203
1CBW I C 5;1CBW I Y 23;18.3768
1CBW I C 5;1CBW I A 25;2.94594
1CBW I C 5;1CBW I N 43;10.1017
1CBW I C 5;1CBW I T 54;1.57227
1CBW I C 5;1CBW I C 55;21.7126
1CBW I C 5;1CBW I A 58;12.5476
1CBW I L 6;1CBW I E 7;28.1928
1CBW I L 6;1CBW I P 8;8.20341
1CBW I L 6;1CBW I Y 23;1.48192
1CBW I L 6;1CBW I A 25;20.7552
1CBW I L 6;1CBW I N 43;0.460242
1CBW I L 6;1CBW I A 58;15.1159
1CBW I E 7;1CBW I P 8;47.4112
1CBW I E 7;1CBW I P 9;0.96386
1CBW I E 7;1CBW I F 22;0.505431
1CBW I E 7;1CBW I Y 23;0.596194
1CBW I E 7;1CBW I K 41;22.3563
1CBW I E 7;1CBW I N 43;18.8976
1CBW I P 8;1CBW I P 9;43.6994
1CBW I P 8;1CBW I Y 10;4.95637
1CBW I P 8;1CBW I F 22;0.266197
1CBW I P 8;1CBW I K 41;8.59951
1CBW I P 8;1CBW I N 43;1.94308
1CBW I P 9;1CBW I Y 10;26.6142
1CBW I P 9;1CBW I T 11;1.92042
1CBW I P 9;1CBW I F 22;34.6806
1CBW I P 9;1CBW I F 33;21.5953
1CBW I P 9;1CBW I N 43;7.15342
1CBW I Y 10;1CBW I T 11;26.6477
1CBW I Y 10;1CBW I G 12;21.1815
1CBW I Y 10;1CBW I P 13;9.64653
1CBW I Y 10;1CBW I F 33;16.0662
1CBW I Y 10;1CBW I Y 35;8.32877
1CBW I Y 10;1CBW I C 38;0.366791
1CBW I Y 10;1CBW I R 39;28.6174
1CBW I Y 10;1CBW I A 40;3.26336
1CBW I Y 10;1CBW I K 41;47.3713
1CBW I Y 10;1CBW I N 43;2.01297
1CBW I Y 10;1CBW I N 44;4.26873
1CBW I T 11;1CBW I G 12;34.5507
1CBW I T 11;1CBW I C 14;1.71155
1CBW I T 11;1CBW I F 33;6.35155
1CBW I T 11;1CBW I V 34;16.2592
1CBW I T 11;1CBW I Y 35;11.4409
1CBW I T 11;1CBW I G 36;18.6687
1CBW I T 11;1CBW I G 37;0.917898
1CBW I T 11;1CBW I C 38;1.46127
1CBW I G 12;1CBW I P 13;21.8604
1CBW I G 12;1CBW I C 14;7.72696
1CBW I G 12;1CBW I K 15;1.32776
1CBW I G 12;1CBW I Y 35;0.401734
1CBW I G 12;1CBW I G 36;0.229876
1CBW I G 12;1CBW I C 38;6.58944
1CBW I G 12;1CBW I R 39;0.421468
1CBW I P 13;1CBW I C 14;21.0237
1CBW I P 13;1CBW I K 15;11.0621
1CBW I P 13;1CBW I C 38;8.88421
1CBW I P 13;1CBW I R 39;15.1485
1CBW I C 14;1CBW I K 15;21.0221
1CBW I C 14;1CBW I A 16;0.443318
1CBW I C 14;1CBW I G 36;18.6803
1CBW I C 14;1CBW I G 37;1.91218
1CBW I C 14;1CBW I C 38;23.2974
1CBW I K 15;1CBW I A 16;17.195
1CBW I K 15;1CBW I G 36;0.444385
1CBW I A 16;1CBW I R 17;19.0081
1CBW I A 16;1CBW I I 18;11.342
1CBW I A 16;1CBW I V 34;0.858658
1CBW I A 16;1CBW I Y 35;1.62038
1CBW I A 16;1CBW I G 36;16.0751
1CBW I A 16;1CBW I G 37;2.34371
1CBW I R 17;1CBW I I 18;22.348
1CBW I R 17;1CBW I I 19;0.842755
1CBW I R 17;1CBW I V 34;26.1229
1CBW I R 17;1CBW I Y 35;1.90099
1CBW I I 18;1CBW I I 19;31.8361
1CBW I I 18;1CBW I R 20;21.5009
1CBW I I 18;1CBW I F 33;1.58885
1CBW I I 18;1CBW I V 34;8.01336
1CBW I I 18;1CBW I Y 35;29.4767
1CBW I I 18;1CBW I G 36;0.630076
1CBW I I 18;1CBW I G 37;8.6503
1CBW I I 19;1CBW I R 20;29.4186
1CBW I I 19;1CBW I Y 21;5.7444
1CBW I I 19;1CBW I T 32;17.3849
1CBW I I 19;1CBW I F 33;6.67983
1CBW I I 19;1CBW I V 34;7.60995
1CBW I I 19;1CBW I K 46;0.640101
1CBW I R 20;1CBW I Y 21;24.3169
1CBW I R 20;1CBW I Q 31;0.056917
1CBW I R 20;1CBW I T 32;6.50303
1CBW I R 20;1CBW I F 33;27.2719
1CBW I R 20;1CBW I Y 35;31.245
1CBW I R 20;1CBW I A 40;3.74432
1CBW I R 20;1CBW I N 44;21.9132
1CBW I R 20;1CBW I F 45;11.6151
1CBW I R 20;1CBW I K 46;37.4508
1CBW I Y 21;1CBW I F 22;18.5135
1CBW I Y 21;1CBW I C 30;9.62157
1CBW I Y 21;1CBW I Q 31;10.9622
1CBW I Y 21;1CBW I T 32;19.8778
1CBW I Y 21;1CBW I F 33;6.63401
1CBW I Y 21;1CBW I N 44;4.8648
1CBW I Y 21;1CBW I F 45;22.5018
1CBW I Y 21;1CBW I K 46;8.77972
1CBW I Y 21;1CBW I S 47;14.872
1CBW I Y 21;1CBW I A 48;22.0931
1CBW I Y 21;1CBW I C 51;7.65614
1CBW I F 22;1CBW I Y 23;23.3525
1CBW I F 22;1CBW I N 24;23.2453
1CBW I F 22;1CBW I C 30;5.21062
1CBW I F 22;1CBW I Q 31;33.2995
1CBW I F 22;1CBW I T 32;6.77337
1CBW I F 22;1CBW I F 33;20.8895
1CBW I F 22;1CBW I N 43;20.3688
1CBW I F 22;1CBW I N 44;0.784208
1CBW I F 22;1CBW I F 45;2.46424
1CBW I F 22;1CBW I C 51;6.49383
1CBW I Y 23;1CBW I N 24;22.829
1CBW I Y 23;1CBW I A 25;22.8605
1CBW I Y 23;1CBW I G 28;17.1502
1CBW I Y 23;1CBW I L 29;8.5614
1CBW I Y 23;1CBW I C 30;11.5225
1CBW I Y 23;1CBW I N 43;19.2716
1CBW I Y 23;1CBW I F 45;0.400672
1CBW I Y 23;1CBW I C 51;10.1198
1CBW I Y 23;1CBW I M 52;4.05105
1CBW I Y 23;1CBW I C 55;23.9381
1CBW I Y 23;1CBW I G 56;5.90612
1CBW I Y 23;1CBW I G 57;15.0796
1CBW I Y 23;1CBW I A 58;15.673
1CBW I N 24;1CBW I A 25;18.8732
1CBW I N 24;1CBW I K 26;19.1658
1CBW I N 24;1CBW I A 27;18.0377
1CBW I N 24;1CBW I G 28;5.63293
1CBW I N 24;1CBW I L 29;16.4001
1CBW I N 24;1CBW I C 30;0.443854
1CBW I N 24;1CBW I Q 31;20.5844
1CBW I A 25;1CBW I K 26;28.1387
1CBW I A 25;1CBW I A 27;0.378425
1CBW I A 25;1CBW I G 28;6.36192
1CBW I A 25;1CBW I A 58;3.53224
1CBW I K 26;1CBW I A 27;19.5528
1CBW I K 26;1CBW I G 28;1.61269
1CBW I A 27;1CBW I G 28;17.125
1CBW I A 27;1CBW I L 29;24.0748
1CBW I A 27;1CBW I Q 31;8.104
1CBW I G 28;1CBW I L 29;19.8163
1CBW I G 28;1CBW I M 52;2.85363
1CBW I G 28;1CBW I G 56;0.025577
1CBW I G 28;1CBW I G 57;5.98138
1CBW I L 29;1CBW I C 30;27.7595
1CBW I L 29;1CBW I Q 31;15.0559
1CBW I L 29;1CBW I M 52;6.86824
1CBW I C 30;1CBW I Q 31;19.2817
1CBW I C 30;1CBW I A 48;10.2917
1CBW I C 30;1CBW I C 51;19.6116
1CBW I C 30;1CBW I M 52;22.9729
1CBW I C 30;1CBW I G 56;0.0358682
1CBW I Q 31;1CBW I T 32;25.5696
1CBW I Q 31;1CBW I F 33;0.166722
1CBW I T 32;1CBW I F 33;24.1263
1CBW I F 33;1CBW I V 34;34.6545
1CBW I F 33;1CBW I Y 35;12.9416
1CBW I F 33;1CBW I N 43;2.93938
1CBW I F 33;1CBW I N 44;16.2063
1CBW I V 34;1CBW I Y 35;20.8867
1CBW I V 34;1CBW I G 36;0.852856
1CBW I Y 35;1CBW I G 36;18.6949
1CBW I Y 35;1CBW I G 37;28.2983
1CBW I Y 35;1CBW I C 38;15.6766
1CBW I Y 35;1CBW I R 39;1.85635
1CBW I Y 35;1CBW I A 40;22.8265
1CBW I Y 35;1CBW I N 44;11.9703
1CBW I G 36;1CBW I G 37;15.1577
1CBW I G 36;1CBW I C 38;0.151564
1CBW I G 37;1CBW I C 38;20.8529
1CBW I C 38;1CBW I R 39;31.1815
1CBW I C 38;1CBW I A 40;1.29112
1CBW I R 39;1CBW I A 40;30.542
1CBW I R 39;1CBW I K 41;1.36391
1CBW I A 40;1CBW I K 41;34.9169
1CBW I A 40;1CBW I N 44;12.1761
1CBW I K 41;1CBW I R 42;31.8157
1CBW I K 41;1CBW I N 43;11.4552
1CBW I K 41;1CBW I N 44;17.844
1CBW I R 42;1CBW I N 43;17.5076
1CBW I R 42;1CBW I N 44;10.4166
1CBW I R 42;1CBW I F 45;9.85987
1CBW I N 43;1CBW I N 44;20.8254
1CBW I N 43;1CBW I F 45;9.89877
1CBW I N 43;1CBW I C 51;0.0529319
1CBW I N 43;1CBW I C 55;4.00552
1CBW I N 44;1CBW I F 45;31.4468
1CBW I F 45;1CBW I K 46;23.0349
1CBW I F 45;1CBW I S 47;8.41287
1CBW I F 45;1CBW I D 50;15.5496
1CBW I F 45;1CBW I C 51;26.0588
1CBW I F 45;1CBW I T 54;20.4396
1CBW I F 45;1CBW I C 55;8.47766
1CBW I K 46;1CBW I S 47;27.041
1CBW I K 46;1CBW I D 50;9.0593
1CBW I S 47;1CBW I A 48;19.8088
1CBW I S 47;1CBW I E 49;11.3563
1CBW I S 47;1CBW I D 50;25.1617
1CBW I S 47;1CBW I C 51;5.87039
1CBW I A 48;1CBW I E 49;22.9263
1CBW I A 48;1CBW I D 50;0.715159
1CBW I A 48;1CBW I C 51;6.94721
1CBW I A 48;1CBW I M 52;17.5658
1CBW I E 49;1CBW I D 50;25.8186
1CBW I E 49;1CBW I C 51;0.380941
1CBW I E 49;1CBW I M 52;8.46612
1CBW I E 49;1CBW I R 53;34.1475
1CBW I D 50;1CBW I C 51;15.9628
1CBW I D 50;1CBW I M 52;1.36811
1CBW I D 50;1CBW I R 53;23.491
1CBW I D 50;1CBW I T 54;13.1202
1CBW I C 51;1CBW I M 52;14.6213
1CBW I C 51;1CBW I R 53;0.370793
1CBW I C 51;1CBW I T 54;4.82105
1CBW I C 51;1CBW I C 55;10.6435
1CBW I C 51;1CBW I G 56;2.18649
1CBW I M 52;1CBW I R 53;18.1767
1CBW I M 52;1CBW I T 54;1.86012
1CBW I M 52;1CBW I C 55;0.281114
1CBW I M 52;1CBW I G 56;27.7814
1CBW I M 52;1CBW I G 57;1.08518
1CBW I R 53;1CBW I T 54;28.7589
1CBW I R 53;1CBW I G 56;1.15313
1CBW I T 54;1CBW I C 55;25.1866
1CBW I T 54;1CBW I G 56;2.86345
1CBW I T 54;1CBW I A 58;0.167343
1CBW I C 55;1CBW I G 56;19.4719
1CBW I C 55;1CBW I G 57;1.00482
1CBW I C 55;1CBW I A 58;14.3468
1CBW I G 56;1CBW I G 57;24.0191
1CBW I G 56;1CBW I A 58;7.37034
1CBW I G 57;1CBW I A 58;28.067
