V1;V2;Weight
1DQJ A D 1;1DQJ A I 2;27.8662
1DQJ A D 1;1DQJ A V 3;14.7647
1DQJ A D 1;1DQJ A S 26;2.43778
1DQJ A D 1;1DQJ A Q 27;8.61034
1DQJ A D 1;1DQJ A P 95;23.4528
1DQJ A D 1;1DQJ A T 97;9.62648
1DQJ A D 1;1DQJ B H 60;6.61981
1DQJ A D 1;1DQJ B P 61;10.6002
1DQJ A D 1;1DQJ B S 62;10.0067
1DQJ A I 2;1DQJ A V 3;25.5569
1DQJ A I 2;1DQJ A L 4;9.31761
1DQJ A I 2;1DQJ A A 25;5.21487
1DQJ A I 2;1DQJ A S 26;9.42881
1DQJ A I 2;1DQJ A Q 27;31.5355
1DQJ A I 2;1DQJ A S 28;1.45004
1DQJ A I 2;1DQJ A I 29;15.1232
1DQJ A I 2;1DQJ A Q 90;20.8034
1DQJ A I 2;1DQJ A N 92;3.49572
1DQJ A I 2;1DQJ A S 93;18.8448
1DQJ A I 2;1DQJ A P 95;2.12051
1DQJ A I 2;1DQJ A T 97;22.1735
1DQJ A V 3;1DQJ A L 4;31.7337
1DQJ A V 3;1DQJ A T 5;13.3447
1DQJ A V 3;1DQJ A R 24;2.4157
1DQJ A V 3;1DQJ A A 25;3.31428
1DQJ A V 3;1DQJ A S 26;28.4181
1DQJ A V 3;1DQJ A T 97;0.121714
1DQJ A L 4;1DQJ A T 5;23.1578
1DQJ A L 4;1DQJ A Q 6;1.35768
1DQJ A L 4;1DQJ A C 23;9.96863
1DQJ A L 4;1DQJ A R 24;6.51551
1DQJ A L 4;1DQJ A A 25;12.5356
1DQJ A L 4;1DQJ A I 29;4.65829
1DQJ A L 4;1DQJ A L 33;9.22191
1DQJ A L 4;1DQJ A F 71;0.0497141
1DQJ A L 4;1DQJ A C 88;10.8026
1DQJ A L 4;1DQJ A Q 89;4.47946
1DQJ A L 4;1DQJ A Q 90;13.7961
1DQJ A L 4;1DQJ A T 97;12.3653
1DQJ A L 4;1DQJ A F 98;12.0484
1DQJ A L 4;1DQJ A G 99;16.3705
1DQJ A L 4;1DQJ A G 100;6.26972
1DQJ A T 5;1DQJ A Q 6;33.2531
1DQJ A T 5;1DQJ A S 7;6.57709
1DQJ A T 5;1DQJ A S 22;1.84584
1DQJ A T 5;1DQJ A C 23;6.6403
1DQJ A T 5;1DQJ A R 24;30.361
1DQJ A T 5;1DQJ A C 88;0.00473703
1DQJ A T 5;1DQJ A G 100;0.21716
1DQJ A Q 6;1DQJ A S 7;25.4501
1DQJ A Q 6;1DQJ A P 8;0.885704
1DQJ A Q 6;1DQJ A A 9;5.86292
1DQJ A Q 6;1DQJ A L 21;1.0449
1DQJ A Q 6;1DQJ A S 22;10.4841
1DQJ A Q 6;1DQJ A C 23;6.98278
1DQJ A Q 6;1DQJ A W 35;9.84838
1DQJ A Q 6;1DQJ A Y 86;7.32511
1DQJ A Q 6;1DQJ A F 87;8.33592
1DQJ A Q 6;1DQJ A C 88;15.8552
1DQJ A Q 6;1DQJ A G 99;11.0032
1DQJ A Q 6;1DQJ A G 100;8.01704
1DQJ A Q 6;1DQJ A G 101;22.4753
1DQJ A Q 6;1DQJ A T 102;13.5078
1DQJ A S 7;1DQJ A P 8;37.0198
1DQJ A S 7;1DQJ A A 9;1.83605
1DQJ A S 7;1DQJ A S 20;0.285888
1DQJ A S 7;1DQJ A L 21;2.83549
1DQJ A S 7;1DQJ A S 22;30.1915
1DQJ A S 7;1DQJ A R 24;12.5563
1DQJ A S 7;1DQJ A T 102;6.9269
1DQJ A P 8;1DQJ A A 9;24.4445
1DQJ A P 8;1DQJ A T 10;18.4359
1DQJ A P 8;1DQJ A L 11;19.4261
1DQJ A P 8;1DQJ A S 20;4.39922
1DQJ A P 8;1DQJ A L 21;5.57557
1DQJ A P 8;1DQJ A G 101;0.374883
1DQJ A P 8;1DQJ A T 102;16.7713
1DQJ A A 9;1DQJ A T 10;29.4327
1DQJ A A 9;1DQJ A G 101;10.7356
1DQJ A A 9;1DQJ A T 102;5.98444
1DQJ A A 9;1DQJ A K 103;10.5896
1DQJ A T 10;1DQJ A L 11;29.0738
1DQJ A T 10;1DQJ A S 12;4.63059
1DQJ A T 10;1DQJ A T 102;3.53844
1DQJ A T 10;1DQJ A K 103;17.0647
1DQJ A T 10;1DQJ A E 105;13.202
1DQJ A L 11;1DQJ A S 12;32.2844
1DQJ A L 11;1DQJ A V 13;15.8392
1DQJ A L 11;1DQJ A V 19;16.2668
1DQJ A L 11;1DQJ A S 20;4.53001
1DQJ A L 11;1DQJ A L 21;10.1164
1DQJ A L 11;1DQJ A T 102;6.44042
1DQJ A L 11;1DQJ A K 103;8.64148
1DQJ A L 11;1DQJ A L 104;16.069
1DQJ A L 11;1DQJ A E 105;9.79249
1DQJ A S 12;1DQJ A V 13;22.691
1DQJ A S 12;1DQJ A E 105;15.6356
1DQJ A S 12;1DQJ A I 106;3.90373
1DQJ A S 12;1DQJ A K 107;19.7809
1DQJ A S 12;1DQJ A Y 140;15.1766
1DQJ A S 12;1DQJ A Y 173;2.03354
1DQJ A V 13;1DQJ A T 14;24.491
1DQJ A V 13;1DQJ A P 15;2.38462
1DQJ A V 13;1DQJ A D 17;16.2194
1DQJ A V 13;1DQJ A S 18;2.65559
1DQJ A V 13;1DQJ A V 19;10.2788
1DQJ A V 13;1DQJ A V 78;14.1032
1DQJ A V 13;1DQJ A F 83;14.552
1DQJ A V 13;1DQJ A L 104;13.9132
1DQJ A V 13;1DQJ A E 105;7.25062
1DQJ A V 13;1DQJ A I 106;4.08319
1DQJ A V 13;1DQJ A K 107;15.5663
1DQJ A T 14;1DQJ A P 15;42.4792
1DQJ A T 14;1DQJ A G 16;1.05165
1DQJ A T 14;1DQJ A D 17;31.0507
1DQJ A T 14;1DQJ A V 78;1.48216
1DQJ A T 14;1DQJ A F 83;0.30662
1DQJ A T 14;1DQJ A I 106;0.0698342
1DQJ A T 14;1DQJ A K 107;24.0109
1DQJ A P 15;1DQJ A G 16;23.9667
1DQJ A P 15;1DQJ A D 17;1.4163
1DQJ A P 15;1DQJ A V 78;10.2256
1DQJ A P 15;1DQJ A E 79;5.56073
1DQJ A P 15;1DQJ A T 80;17.6012
1DQJ A P 15;1DQJ A F 83;15.8956
1DQJ A P 15;1DQJ A I 106;14.4326
1DQJ A P 15;1DQJ A K 107;1.28202
1DQJ A G 16;1DQJ A D 17;26.5291
1DQJ A G 16;1DQJ A S 18;2.79099
1DQJ A G 16;1DQJ A S 77;22.7111
1DQJ A G 16;1DQJ A V 78;11.8488
1DQJ A G 16;1DQJ A E 79;2.11157
1DQJ A D 17;1DQJ A S 18;31.1458
1DQJ A D 17;1DQJ A V 19;0.0380599
1DQJ A D 17;1DQJ A I 75;0.00466468
1DQJ A D 17;1DQJ A S 77;4.29636
1DQJ A D 17;1DQJ A V 78;14.4118
1DQJ A S 18;1DQJ A V 19;30.1648
1DQJ A S 18;1DQJ A I 75;5.98447
1DQJ A S 18;1DQJ A N 76;17.9047
1DQJ A S 18;1DQJ A S 77;10.395
1DQJ A S 18;1DQJ A V 78;1.67905
1DQJ A V 19;1DQJ A S 20;33.958
1DQJ A V 19;1DQJ A L 21;12.7852
1DQJ A V 19;1DQJ A L 73;1.23264
1DQJ A V 19;1DQJ A S 74;7.61031
1DQJ A V 19;1DQJ A I 75;27.5266
1DQJ A V 19;1DQJ A V 78;11.4642
1DQJ A V 19;1DQJ A L 104;11.3936
1DQJ A S 20;1DQJ A L 21;23.3778
1DQJ A S 20;1DQJ A S 22;2.63715
1DQJ A S 20;1DQJ A T 72;15.1457
1DQJ A S 20;1DQJ A L 73;3.95502
1DQJ A S 20;1DQJ A S 74;11.8567
1DQJ A L 21;1DQJ A S 22;24.597
1DQJ A L 21;1DQJ A W 35;14.1576
1DQJ A L 21;1DQJ A F 71;0.250905
1DQJ A L 21;1DQJ A T 72;10.9808
1DQJ A L 21;1DQJ A L 73;28.4884
1DQJ A L 21;1DQJ A I 75;7.39978
1DQJ A L 21;1DQJ A Y 86;16.7911
1DQJ A L 21;1DQJ A T 102;23.431
1DQJ A L 21;1DQJ A L 104;9.90687
1DQJ A S 22;1DQJ A C 23;20.4923
1DQJ A S 22;1DQJ A R 24;24.2227
1DQJ A S 22;1DQJ A W 35;5.02972
1DQJ A S 22;1DQJ A D 70;0.872905
1DQJ A S 22;1DQJ A F 71;8.25686
1DQJ A S 22;1DQJ A T 72;5.50543
1DQJ A S 22;1DQJ A T 102;1.6486
1DQJ A C 23;1DQJ A R 24;25.5699
1DQJ A C 23;1DQJ A A 25;0.225869
1DQJ A C 23;1DQJ A L 33;9.69465
1DQJ A C 23;1DQJ A W 35;11.9696
1DQJ A C 23;1DQJ A T 69;0.820656
1DQJ A C 23;1DQJ A D 70;1.01054
1DQJ A C 23;1DQJ A F 71;26.4847
1DQJ A C 23;1DQJ A C 88;16.9877
1DQJ A R 24;1DQJ A A 25;24.1621
1DQJ A R 24;1DQJ A S 26;0.285425
1DQJ A R 24;1DQJ A T 69;14.0905
1DQJ A R 24;1DQJ A D 70;26.4415
1DQJ A R 24;1DQJ A F 71;1.32578
1DQJ A A 25;1DQJ A S 26;23.3801
1DQJ A A 25;1DQJ A Q 27;11.4897
1DQJ A A 25;1DQJ A I 29;11.7671
1DQJ A A 25;1DQJ A L 33;0.00762919
1DQJ A A 25;1DQJ A G 68;1.01734
1DQJ A A 25;1DQJ A T 69;25.2489
1DQJ A A 25;1DQJ A F 71;5.58556
1DQJ A S 26;1DQJ A Q 27;36.0349
1DQJ A S 26;1DQJ A T 69;1.53312
1DQJ A Q 27;1DQJ A S 28;29.2239
1DQJ A Q 27;1DQJ A I 29;6.98724
1DQJ A Q 27;1DQJ A G 68;1.14958
1DQJ A Q 27;1DQJ A T 69;8.69138
1DQJ A Q 27;1DQJ A S 93;3.25993
1DQJ A S 28;1DQJ A I 29;22.1852
1DQJ A S 28;1DQJ A S 30;11.3448
1DQJ A S 28;1DQJ A G 68;15.2987
1DQJ A S 28;1DQJ A T 69;13.868
1DQJ A S 28;1DQJ A N 92;5.59096
1DQJ A I 29;1DQJ A S 30;22.6754
1DQJ A I 29;1DQJ A N 31;1.2642
1DQJ A I 29;1DQJ A N 32;19.6668
1DQJ A I 29;1DQJ A L 33;12.2306
1DQJ A I 29;1DQJ A G 68;9.6611
1DQJ A I 29;1DQJ A F 71;13.2021
1DQJ A I 29;1DQJ A Q 90;14.4334
1DQJ A I 29;1DQJ A N 92;21.7878
1DQJ A S 30;1DQJ A N 31;22.0731
1DQJ A S 30;1DQJ A N 32;4.44154
1DQJ A S 30;1DQJ A S 67;13.964
1DQJ A S 30;1DQJ A G 68;13.5934
1DQJ A S 30;1DQJ A F 71;7.5744
1DQJ A S 30;1DQJ A N 92;5.06373
1DQJ A N 31;1DQJ A N 32;21.6623
1DQJ A N 31;1DQJ A L 33;6.50547
1DQJ A N 31;1DQJ A Y 50;28.0345
1DQJ A N 31;1DQJ A A 51;15.8103
1DQJ A N 31;1DQJ A Q 53;4.47395
1DQJ A N 31;1DQJ A G 66;1.37399
1DQJ A N 31;1DQJ A S 67;5.04799
1DQJ A N 31;1DQJ A F 71;4.35417
1DQJ A N 32;1DQJ A L 33;16.5419
1DQJ A N 32;1DQJ A H 34;6.06771
1DQJ A N 32;1DQJ A Y 50;12.4064
1DQJ A N 32;1DQJ A F 71;0.555906
1DQJ A N 32;1DQJ A Q 89;0.194288
1DQJ A N 32;1DQJ A Q 90;6.7355
1DQJ A N 32;1DQJ A S 91;13.4789
1DQJ A N 32;1DQJ A N 92;19.3905
1DQJ A L 33;1DQJ A H 34;28.9025
1DQJ A L 33;1DQJ A W 35;16.5232
1DQJ A L 33;1DQJ A I 48;0.668407
1DQJ A L 33;1DQJ A K 49;0.551508
1DQJ A L 33;1DQJ A Y 50;5.64615
1DQJ A L 33;1DQJ A A 51;15.2896
1DQJ A L 33;1DQJ A F 71;27.2772
1DQJ A L 33;1DQJ A C 88;9.43189
1DQJ A L 33;1DQJ A Q 89;9.09291
1DQJ A L 33;1DQJ A Q 90;4.75832
1DQJ A H 34;1DQJ A W 35;21.2759
1DQJ A H 34;1DQJ A Y 36;11.0447
1DQJ A H 34;1DQJ A L 46;10.5769
1DQJ A H 34;1DQJ A I 48;5.37844
1DQJ A H 34;1DQJ A K 49;12.1861
1DQJ A H 34;1DQJ A Y 50;24.6305
1DQJ A H 34;1DQJ A F 87;0.490055
1DQJ A H 34;1DQJ A C 88;6.15443
1DQJ A H 34;1DQJ A Q 89;32.5727
1DQJ A H 34;1DQJ A Q 90;0.772006
1DQJ A H 34;1DQJ A S 91;17.3581
1DQJ A W 35;1DQJ A Y 36;23.7218
1DQJ A W 35;1DQJ A R 45;0.000245927
1DQJ A W 35;1DQJ A L 46;7.96049
1DQJ A W 35;1DQJ A L 47;14.3601
1DQJ A W 35;1DQJ A I 48;26.5585
1DQJ A W 35;1DQJ A A 51;7.72654
1DQJ A W 35;1DQJ A G 64;4.09517
1DQJ A W 35;1DQJ A S 65;1.03949
1DQJ A W 35;1DQJ A F 71;9.58264
1DQJ A W 35;1DQJ A T 72;10.2744
1DQJ A W 35;1DQJ A L 73;36.9487
1DQJ A W 35;1DQJ A Y 86;6.1424
1DQJ A W 35;1DQJ A F 87;10.626
1DQJ A W 35;1DQJ A C 88;12.5543
1DQJ A Y 36;1DQJ A Q 37;20.1525
1DQJ A Y 36;1DQJ A Q 38;0.512334
1DQJ A Y 36;1DQJ A P 44;15.1706
1DQJ A Y 36;1DQJ A R 45;11.2637
1DQJ A Y 36;1DQJ A L 46;25.7201
1DQJ A Y 36;1DQJ A L 47;5.35227
1DQJ A Y 36;1DQJ A L 73;0.673628
1DQJ A Y 36;1DQJ A M 85;0.263021
1DQJ A Y 36;1DQJ A Y 86;9.80702
1DQJ A Y 36;1DQJ A F 87;30.4372
1DQJ A Y 36;1DQJ A C 88;0.706801
1DQJ A Y 36;1DQJ A Q 89;22.4584
1DQJ A Y 36;1DQJ A F 98;12.466
1DQJ A Y 36;1DQJ B L 45;1.86498
1DQJ A Y 36;1DQJ B Y 47;0.245076
1DQJ A Y 36;1DQJ B W 98;0.826967
1DQJ A Y 36;1DQJ B G 99;3.36523
1DQJ A Y 36;1DQJ B G 100;14.727
1DQJ A Y 36;1DQJ B W 103;20.5018
1DQJ A Q 37;1DQJ A Q 38;25.758
1DQJ A Q 37;1DQJ A K 39;21.6808
1DQJ A Q 37;1DQJ A S 43;1.46315
1DQJ A Q 37;1DQJ A P 44;5.27625
1DQJ A Q 37;1DQJ A R 45;44.1314
1DQJ A Q 37;1DQJ A L 47;16.8803
1DQJ A Q 37;1DQJ A F 62;7.00059
1DQJ A Q 37;1DQJ A E 81;4.1478
1DQJ A Q 37;1DQJ A D 82;10.7019
1DQJ A Q 37;1DQJ A F 83;0.101484
1DQJ A Q 37;1DQJ A G 84;2.21095
1DQJ A Q 37;1DQJ A M 85;6.8232
1DQJ A Q 37;1DQJ A Y 86;22.1177
1DQJ A Q 37;1DQJ A F 87;0.252062
1DQJ A Q 38;1DQJ A K 39;32.8244
1DQJ A Q 38;1DQJ A S 40;0.919909
1DQJ A Q 38;1DQJ A E 42;12.0256
1DQJ A Q 38;1DQJ A S 43;7.95633
1DQJ A Q 38;1DQJ A P 44;22.1363
1DQJ A Q 38;1DQJ A G 84;2.43435
1DQJ A Q 38;1DQJ A M 85;29.0565
1DQJ A Q 38;1DQJ A F 87;14.4784
1DQJ A Q 38;1DQJ A K 103;0.972095
1DQJ A Q 38;1DQJ B K 39;22.1424
1DQJ A Q 38;1DQJ B L 45;6.95257
1DQJ A Q 38;1DQJ B Y 94;9.95174
1DQJ A K 39;1DQJ A S 40;31.7501
1DQJ A K 39;1DQJ A H 41;1.55961
1DQJ A K 39;1DQJ A E 42;43.8128
1DQJ A K 39;1DQJ A S 43;1.35068
1DQJ A K 39;1DQJ A T 80;1.56767
1DQJ A K 39;1DQJ A E 81;26.7079
1DQJ A K 39;1DQJ A D 82;1.34745
1DQJ A K 39;1DQJ A F 83;18.3991
1DQJ A K 39;1DQJ A G 84;8.05793
1DQJ A K 39;1DQJ A K 103;0.00531741
1DQJ A S 40;1DQJ A H 41;40.0389
1DQJ A S 40;1DQJ A E 42;9.90987
1DQJ A S 40;1DQJ A G 84;1.58289
1DQJ A S 40;1DQJ A K 103;13.0707
1DQJ A S 40;1DQJ A D 165;17.3755
1DQJ A H 41;1DQJ A E 42;34.6101
1DQJ A H 41;1DQJ A D 165;12.8726
1DQJ A E 42;1DQJ A S 43;33.1749
1DQJ A E 42;1DQJ B Y 94;6.50535
1DQJ A E 42;1DQJ B A 105;2.46544
1DQJ A S 43;1DQJ A P 44;30.113
1DQJ A S 43;1DQJ A R 45;4.3986
1DQJ A S 43;1DQJ B Y 94;12.7081
1DQJ A S 43;1DQJ B W 103;13.8898
1DQJ A S 43;1DQJ B G 104;8.57236
1DQJ A S 43;1DQJ B A 105;13.1803
1DQJ A P 44;1DQJ A R 45;22.5874
1DQJ A P 44;1DQJ A F 87;0.64709
1DQJ A P 44;1DQJ A F 98;0.465647
1DQJ A P 44;1DQJ B L 45;14.1817
1DQJ A P 44;1DQJ B Y 94;9.64718
1DQJ A P 44;1DQJ B W 103;39.7988
1DQJ A R 45;1DQJ A L 46;27.5519
1DQJ A R 45;1DQJ A L 47;19.6076
1DQJ A R 45;1DQJ A G 57;2.95682
1DQJ A R 45;1DQJ A I 58;19.2863
1DQJ A R 45;1DQJ A P 59;14.6566
1DQJ A R 45;1DQJ A R 61;0.882399
1DQJ A R 45;1DQJ A F 62;6.70416
1DQJ A R 45;1DQJ A D 82;1.53471
1DQJ A R 45;1DQJ B W 103;2.49009
1DQJ A L 46;1DQJ A L 47;18.562
1DQJ A L 46;1DQJ A I 48;8.93567
1DQJ A L 46;1DQJ A K 49;14.6183
1DQJ A L 46;1DQJ A I 55;22.637
1DQJ A L 46;1DQJ A I 58;9.20722
1DQJ A L 46;1DQJ B G 99;12.5043
1DQJ A L 46;1DQJ B G 100;14.1373
1DQJ A L 46;1DQJ B D 101;16.108
1DQJ A L 46;1DQJ B W 103;1.06561
1DQJ A L 47;1DQJ A I 48;29.9165
1DQJ A L 47;1DQJ A Q 53;0.000926104
1DQJ A L 47;1DQJ A S 54;0.112206
1DQJ A L 47;1DQJ A I 55;12.1589
1DQJ A L 47;1DQJ A I 58;26.3716
1DQJ A L 47;1DQJ A P 59;0.0794226
1DQJ A L 47;1DQJ A F 62;23.0162
1DQJ A L 47;1DQJ A L 73;11.1218
1DQJ A L 47;1DQJ A Y 86;9.77981
1DQJ A I 48;1DQJ A K 49;22.0576
1DQJ A I 48;1DQJ A A 51;9.25985
1DQJ A I 48;1DQJ A S 52;11.1397
1DQJ A I 48;1DQJ A Q 53;10.3757
1DQJ A I 48;1DQJ A S 54;11.0587
1DQJ A I 48;1DQJ A I 55;4.66066
1DQJ A I 48;1DQJ A I 58;1.10619
1DQJ A I 48;1DQJ A F 62;13.765
1DQJ A I 48;1DQJ A S 63;9.91805
1DQJ A I 48;1DQJ A G 64;11.7515
1DQJ A I 48;1DQJ A L 73;9.49378
1DQJ A K 49;1DQJ A Y 50;37.481
1DQJ A K 49;1DQJ A A 51;2.35729
1DQJ A K 49;1DQJ A S 52;1.36633
1DQJ A K 49;1DQJ A Q 53;33.6033
1DQJ A K 49;1DQJ A S 54;4.02688
1DQJ A K 49;1DQJ A I 55;21.1202
1DQJ A K 49;1DQJ B G 99;0.549976
1DQJ A K 49;1DQJ B D 101;7.22407
1DQJ A Y 50;1DQJ A A 51;15.3352
1DQJ A Y 50;1DQJ A S 52;9.78484
1DQJ A Y 50;1DQJ A Q 53;20.581
1DQJ A Y 50;1DQJ A S 91;7.44031
1DQJ A Y 50;1DQJ B W 98;13.0873
1DQJ A A 51;1DQJ A S 52;21.0793
1DQJ A A 51;1DQJ A G 64;7.6235
1DQJ A A 51;1DQJ A S 65;10.9496
1DQJ A A 51;1DQJ A G 66;11.034
1DQJ A A 51;1DQJ A F 71;12.0946
1DQJ A S 52;1DQJ A Q 53;26.7692
1DQJ A S 52;1DQJ A S 54;7.02425
1DQJ A S 52;1DQJ A G 64;18.567
1DQJ A S 52;1DQJ A S 65;6.20859
1DQJ A S 52;1DQJ A G 66;0.288694
1DQJ A Q 53;1DQJ A S 54;27.9463
1DQJ A Q 53;1DQJ A I 55;2.92737
1DQJ A S 54;1DQJ A I 55;32.0632
1DQJ A S 54;1DQJ A S 56;6.67536
1DQJ A S 54;1DQJ A I 58;0.00782802
1DQJ A S 54;1DQJ A F 62;1.88188
1DQJ A I 55;1DQJ A S 56;35.4214
1DQJ A I 55;1DQJ A G 57;2.09937
1DQJ A I 55;1DQJ A I 58;31.6529
1DQJ A I 55;1DQJ B D 101;14.6679
1DQJ A S 56;1DQJ A G 57;30.9517
1DQJ A S 56;1DQJ A I 58;1.96885
1DQJ A G 57;1DQJ A I 58;31.1283
1DQJ A G 57;1DQJ A P 59;6.96293
1DQJ A I 58;1DQJ A P 59;37.7242
1DQJ A I 58;1DQJ A S 60;6.04475
1DQJ A I 58;1DQJ A F 62;12.6511
1DQJ A P 59;1DQJ A S 60;23.8337
1DQJ A P 59;1DQJ A R 61;31.6676
1DQJ A P 59;1DQJ A F 62;25.8644
1DQJ A S 60;1DQJ A R 61;27.8873
1DQJ A S 60;1DQJ A F 62;12.087
1DQJ A S 60;1DQJ A S 63;3.67537
1DQJ A R 61;1DQJ A F 62;32.7765
1DQJ A R 61;1DQJ A S 63;4.28901
1DQJ A R 61;1DQJ A S 74;3.54925
1DQJ A R 61;1DQJ A I 75;15.7534
1DQJ A R 61;1DQJ A N 76;33.0544
1DQJ A R 61;1DQJ A S 77;7.92645
1DQJ A R 61;1DQJ A V 78;0.568608
1DQJ A R 61;1DQJ A E 79;19.8497
1DQJ A R 61;1DQJ A E 81;16.845
1DQJ A R 61;1DQJ A D 82;17.4218
1DQJ A F 62;1DQJ A S 63;23.9123
1DQJ A F 62;1DQJ A L 73;8.70829
1DQJ A F 62;1DQJ A S 74;4.5114
1DQJ A F 62;1DQJ A I 75;20.7561
1DQJ A F 62;1DQJ A D 82;11.6694
1DQJ A F 62;1DQJ A Y 86;8.40601
1DQJ A S 63;1DQJ A G 64;27.3964
1DQJ A S 63;1DQJ A T 72;0.28164
1DQJ A S 63;1DQJ A L 73;9.79956
1DQJ A S 63;1DQJ A S 74;30.3633
1DQJ A G 64;1DQJ A S 65;24.2632
1DQJ A G 64;1DQJ A T 72;6.64348
1DQJ A G 64;1DQJ A L 73;3.92644
1DQJ A G 64;1DQJ A S 74;0.397914
1DQJ A S 65;1DQJ A G 66;30.8136
1DQJ A S 65;1DQJ A F 71;8.62869
1DQJ A S 65;1DQJ A T 72;30.8104
1DQJ A S 65;1DQJ A S 74;3.31542
1DQJ A G 66;1DQJ A S 67;28.2236
1DQJ A G 66;1DQJ A D 70;10.3494
1DQJ A G 66;1DQJ A F 71;9.41475
1DQJ A G 66;1DQJ A T 72;0.781005
1DQJ A S 67;1DQJ A G 68;23.3011
1DQJ A S 67;1DQJ A T 69;5.04894
1DQJ A S 67;1DQJ A D 70;15.6809
1DQJ A S 67;1DQJ A F 71;9.02353
1DQJ A G 68;1DQJ A T 69;20.5262
1DQJ A G 68;1DQJ A F 71;8.01032
1DQJ A T 69;1DQJ A D 70;25.4332
1DQJ A T 69;1DQJ A F 71;8.11249
1DQJ A D 70;1DQJ A F 71;30.4258
1DQJ A D 70;1DQJ A T 72;8.32492
1DQJ A F 71;1DQJ A T 72;25.4734
1DQJ A T 72;1DQJ A L 73;20.0999
1DQJ A T 72;1DQJ A S 74;12.4833
1DQJ A L 73;1DQJ A S 74;23.0743
1DQJ A L 73;1DQJ A I 75;10.7007
1DQJ A L 73;1DQJ A Y 86;13.4669
1DQJ A S 74;1DQJ A I 75;22.317
1DQJ A S 74;1DQJ A N 76;4.59198
1DQJ A I 75;1DQJ A N 76;19.4238
1DQJ A I 75;1DQJ A S 77;3.83901
1DQJ A I 75;1DQJ A V 78;18.8065
1DQJ A I 75;1DQJ A D 82;8.44248
1DQJ A I 75;1DQJ A Y 86;11.2945
1DQJ A I 75;1DQJ A L 104;9.24824
1DQJ A N 76;1DQJ A S 77;33.2616
1DQJ A S 77;1DQJ A V 78;19.527
1DQJ A S 77;1DQJ A E 79;19.9942
1DQJ A V 78;1DQJ A E 79;26.6097
1DQJ A V 78;1DQJ A D 82;11.3117
1DQJ A V 78;1DQJ A F 83;12.3882
1DQJ A V 78;1DQJ A L 104;11.9655
1DQJ A E 79;1DQJ A T 80;24.0997
1DQJ A E 79;1DQJ A E 81;18.0774
1DQJ A E 79;1DQJ A D 82;18.9216
1DQJ A E 79;1DQJ A F 83;5.93321
1DQJ A T 80;1DQJ A E 81;34.3403
1DQJ A T 80;1DQJ A D 82;1.92106
1DQJ A T 80;1DQJ A F 83;18.8744
1DQJ A T 80;1DQJ A I 106;8.04953
1DQJ A E 81;1DQJ A D 82;25.3169
1DQJ A E 81;1DQJ A F 83;3.07194
1DQJ A D 82;1DQJ A F 83;22.7631
1DQJ A D 82;1DQJ A G 84;1.48444
1DQJ A D 82;1DQJ A Y 86;15.2624
1DQJ A D 82;1DQJ A L 104;8.05443
1DQJ A F 83;1DQJ A G 84;23.6445
1DQJ A F 83;1DQJ A L 104;21.3925
1DQJ A F 83;1DQJ A E 105;12.0215
1DQJ A F 83;1DQJ A I 106;30.7424
1DQJ A F 83;1DQJ A Q 166;0.754943
1DQJ A G 84;1DQJ A M 85;18.385
1DQJ A G 84;1DQJ A Y 86;9.6965
1DQJ A G 84;1DQJ A T 102;0.956879
1DQJ A G 84;1DQJ A K 103;18.9884
1DQJ A G 84;1DQJ A L 104;18.4367
1DQJ A M 85;1DQJ A Y 86;23.9163
1DQJ A M 85;1DQJ A F 87;23.4662
1DQJ A M 85;1DQJ A G 100;4.10688
1DQJ A M 85;1DQJ A G 101;5.18901
1DQJ A M 85;1DQJ A T 102;9.34177
1DQJ A M 85;1DQJ A K 103;33.9794
1DQJ A M 85;1DQJ B K 39;8.33945
1DQJ A M 85;1DQJ B N 43;21.9307
1DQJ A Y 86;1DQJ A F 87;21.0256
1DQJ A Y 86;1DQJ A G 101;4.96388
1DQJ A Y 86;1DQJ A T 102;21.669
1DQJ A Y 86;1DQJ A L 104;16.6823
1DQJ A F 87;1DQJ A C 88;21.2099
1DQJ A F 87;1DQJ A F 98;10.6844
1DQJ A F 87;1DQJ A G 99;10.1461
1DQJ A F 87;1DQJ A G 100;9.53123
1DQJ A F 87;1DQJ A G 101;12.2757
1DQJ A F 87;1DQJ B K 39;6.69141
1DQJ A F 87;1DQJ B N 43;7.92288
1DQJ A F 87;1DQJ B K 44;3.91814
1DQJ A F 87;1DQJ B L 45;25.2589
1DQJ A C 88;1DQJ A Q 89;17.1845
1DQJ A C 88;1DQJ A F 98;7.60808
1DQJ A C 88;1DQJ A G 99;11.4511
1DQJ A Q 89;1DQJ A Q 90;23.8599
1DQJ A Q 89;1DQJ A S 91;7.26382
1DQJ A Q 89;1DQJ A Y 96;13.7727
1DQJ A Q 89;1DQJ A T 97;10.0907
1DQJ A Q 89;1DQJ A F 98;24.5349
1DQJ A Q 89;1DQJ B Y 47;14.3846
1DQJ A Q 90;1DQJ A S 91;18.0506
1DQJ A Q 90;1DQJ A N 92;8.20542
1DQJ A Q 90;1DQJ A S 93;13.3617
1DQJ A Q 90;1DQJ A P 95;6.23994
1DQJ A Q 90;1DQJ A Y 96;10.2713
1DQJ A Q 90;1DQJ A T 97;22.2604
1DQJ A S 91;1DQJ A N 92;18.3583
1DQJ A S 91;1DQJ A S 93;3.02742
1DQJ A S 91;1DQJ A Y 96;25.2033
1DQJ A S 91;1DQJ B W 98;4.13061
1DQJ A N 92;1DQJ A S 93;28.9219
1DQJ A S 93;1DQJ A W 94;28.3121
1DQJ A S 93;1DQJ A P 95;5.29875
1DQJ A S 93;1DQJ A Y 96;8.6242
1DQJ A W 94;1DQJ A P 95;42.6012
1DQJ A W 94;1DQJ A Y 96;25.7371
1DQJ A W 94;1DQJ B Y 47;14.4044
1DQJ A W 94;1DQJ B M 48;1.44479
1DQJ A W 94;1DQJ B G 49;9.05601
1DQJ A W 94;1DQJ B Y 50;13.5412
1DQJ A W 94;1DQJ B Y 58;28.1426
1DQJ A W 94;1DQJ B Y 59;16.8123
1DQJ A W 94;1DQJ B H 60;8.04826
1DQJ A W 94;1DQJ B P 61;5.76039
1DQJ A P 95;1DQJ A Y 96;20.2833
1DQJ A P 95;1DQJ A T 97;12.3161
1DQJ A P 95;1DQJ B Y 47;0.776296
1DQJ A P 95;1DQJ B H 60;17.4578
1DQJ A P 95;1DQJ B P 61;18.4185
1DQJ A Y 96;1DQJ A T 97;24.2535
1DQJ A Y 96;1DQJ A F 98;0.195979
1DQJ A Y 96;1DQJ B Y 47;40.5601
1DQJ A Y 96;1DQJ B Y 50;11.5247
1DQJ A Y 96;1DQJ B H 60;5.99008
1DQJ A Y 96;1DQJ B W 98;21.1449
1DQJ A T 97;1DQJ A F 98;31.4242
1DQJ A T 97;1DQJ B Y 47;0.72437
1DQJ A T 97;1DQJ B H 60;8.20556
1DQJ A F 98;1DQJ A G 99;28.7985
1DQJ A F 98;1DQJ A G 100;0.18745
1DQJ A F 98;1DQJ B I 37;12.1181
1DQJ A F 98;1DQJ B L 45;42.332
1DQJ A F 98;1DQJ B E 46;4.57711
1DQJ A F 98;1DQJ B Y 47;21.723
1DQJ A F 98;1DQJ B W 103;9.25579
1DQJ A G 99;1DQJ A G 100;22.2529
1DQJ A G 99;1DQJ A G 101;2.09133
1DQJ A G 99;1DQJ B K 44;0.963754
1DQJ A G 99;1DQJ B L 45;2.33228
1DQJ A G 100;1DQJ A G 101;26.316
1DQJ A G 100;1DQJ B N 43;0.266832
1DQJ A G 100;1DQJ B K 44;23.8603
1DQJ A G 101;1DQJ A T 102;21.4096
1DQJ A G 101;1DQJ A K 103;0.00321841
1DQJ A T 102;1DQJ A K 103;23.7399
1DQJ A T 102;1DQJ A L 104;5.72608
1DQJ A K 103;1DQJ A L 104;20.5804
1DQJ A K 103;1DQJ A E 105;31.8932
1DQJ A L 104;1DQJ A E 105;22.3387
1DQJ A E 105;1DQJ A I 106;19.0259
1DQJ A E 105;1DQJ A K 107;0.428439
1DQJ A E 105;1DQJ A K 142;7.96904
1DQJ A E 105;1DQJ A Q 166;19.1344
1DQJ A E 105;1DQJ A Y 173;25.3065
1DQJ A I 106;1DQJ A K 107;28.4265
1DQJ A I 106;1DQJ A R 108;4.14605
1DQJ A I 106;1DQJ A Y 140;8.42601
1DQJ A I 106;1DQJ A Q 166;27.0024
1DQJ A I 106;1DQJ A S 171;24.2101
1DQJ A I 106;1DQJ A Y 173;0.204455
1DQJ A K 107;1DQJ A R 108;40.8476
1DQJ A K 107;1DQJ A D 110;6.34332
1DQJ A K 107;1DQJ A Y 140;18.345
1DQJ A K 107;1DQJ A K 199;6.68697
1DQJ A R 108;1DQJ A A 109;51.635
1DQJ A R 108;1DQJ A D 110;5.82564
1DQJ A R 108;1DQJ A A 111;11.739
1DQJ A R 108;1DQJ A Y 140;29.976
1DQJ A R 108;1DQJ A Q 166;0.508665
1DQJ A R 108;1DQJ A D 170;20.3708
1DQJ A R 108;1DQJ A S 171;17.7756
1DQJ A R 108;1DQJ A T 172;16.2015
1DQJ A A 109;1DQJ A D 110;31.1279
1DQJ A A 109;1DQJ A A 111;2.01037
1DQJ A A 109;1DQJ A Y 140;6.33151
1DQJ A D 110;1DQJ A A 111;22.358
1DQJ A D 110;1DQJ A Y 140;16.3213
1DQJ A D 110;1DQJ A P 141;11.7494
1DQJ A D 110;1DQJ A K 199;24.1351
1DQJ A D 110;1DQJ A T 200;15.854
1DQJ A A 111;1DQJ A A 112;25.5121
1DQJ A A 111;1DQJ A P 113;0.412424
1DQJ A A 111;1DQJ A N 138;8.18903
1DQJ A A 111;1DQJ A F 139;9.47936
1DQJ A A 111;1DQJ A Y 140;18.4841
1DQJ A A 111;1DQJ A T 172;6.29685
1DQJ A A 111;1DQJ A H 198;4.37125
1DQJ A A 111;1DQJ A T 200;8.70847
1DQJ A A 112;1DQJ A P 113;29.0214
1DQJ A A 112;1DQJ A T 114;5.8344
1DQJ A A 112;1DQJ A N 137;0.875498
1DQJ A A 112;1DQJ A N 138;7.0567
1DQJ A A 112;1DQJ A F 139;2.46856
1DQJ A A 112;1DQJ A H 198;0.625947
1DQJ A A 112;1DQJ A T 200;22.2014
1DQJ A A 112;1DQJ A S 201;1.03979
1DQJ A A 112;1DQJ A I 205;9.37143
1DQJ A P 113;1DQJ A T 114;22.041
1DQJ A P 113;1DQJ A V 115;13.471
1DQJ A P 113;1DQJ A L 136;9.35909
1DQJ A P 113;1DQJ A N 137;6.62195
1DQJ A P 113;1DQJ A N 138;0.662574
1DQJ A P 113;1DQJ A F 139;19.0537
1DQJ A P 113;1DQJ A I 144;9.881
1DQJ A P 113;1DQJ A A 196;6.00748
1DQJ A P 113;1DQJ A H 198;15.0871
1DQJ A P 113;1DQJ A T 200;3.33579
1DQJ A P 113;1DQJ A I 205;22.4886
1DQJ A T 114;1DQJ A V 115;25.9383
1DQJ A T 114;1DQJ A S 116;8.83104
1DQJ A T 114;1DQJ A F 135;4.44201
1DQJ A T 114;1DQJ A L 136;3.04313
1DQJ A T 114;1DQJ A N 137;32.2907
1DQJ A T 114;1DQJ A N 138;2.39203
1DQJ A T 114;1DQJ B T 137;11.2303
1DQJ A T 114;1DQJ B T 190;0.993929
1DQJ A V 115;1DQJ A S 116;27.6788
1DQJ A V 115;1DQJ A C 134;9.41534
1DQJ A V 115;1DQJ A F 135;6.64015
1DQJ A V 115;1DQJ A L 136;14.8922
1DQJ A V 115;1DQJ A C 194;7.28297
1DQJ A V 115;1DQJ A A 196;8.64552
1DQJ A V 115;1DQJ A I 205;19.0691
1DQJ A V 115;1DQJ A K 207;34.649
1DQJ A S 116;1DQJ A I 117;22.753
1DQJ A S 116;1DQJ A F 118;17.234
1DQJ A S 116;1DQJ A V 133;0.400557
1DQJ A S 116;1DQJ A C 134;7.97453
1DQJ A S 116;1DQJ A F 135;21.0304
1DQJ A S 116;1DQJ A N 137;0.335051
1DQJ A S 116;1DQJ A K 207;4.51469
1DQJ A S 116;1DQJ B T 137;20.5033
1DQJ A I 117;1DQJ A F 118;31.6569
1DQJ A I 117;1DQJ A P 119;0.732143
1DQJ A I 117;1DQJ A V 132;7.22556
1DQJ A I 117;1DQJ A V 133;6.90016
1DQJ A I 117;1DQJ A C 134;7.41272
1DQJ A I 117;1DQJ A W 148;10.0687
1DQJ A I 117;1DQJ A Y 192;7.32948
1DQJ A I 117;1DQJ A T 193;2.9452
1DQJ A I 117;1DQJ A C 194;10.653
1DQJ A I 117;1DQJ A K 207;20.7981
1DQJ A I 117;1DQJ A S 208;15.2645
1DQJ A I 117;1DQJ A F 209;16.5731
1DQJ A I 117;1DQJ B P 126;4.16891
1DQJ A I 117;1DQJ B V 127;13.3226
1DQJ A F 118;1DQJ A P 119;30.6722
1DQJ A F 118;1DQJ A S 131;1.04973
1DQJ A F 118;1DQJ A V 132;8.42203
1DQJ A F 118;1DQJ A V 133;25.6004
1DQJ A F 118;1DQJ A C 134;0.330855
1DQJ A F 118;1DQJ A F 135;15.975
1DQJ A F 118;1DQJ A F 209;3.44045
1DQJ A F 118;1DQJ B L 124;25.998
1DQJ A F 118;1DQJ B A 125;11.2054
1DQJ A F 118;1DQJ B P 126;11.9332
1DQJ A F 118;1DQJ B V 127;0.0832447
1DQJ A F 118;1DQJ B T 137;16.8517
1DQJ A F 118;1DQJ B L 138;7.52727
1DQJ A F 118;1DQJ B G 139;1.63977
1DQJ A P 119;1DQJ A P 120;34.9623
1DQJ A P 119;1DQJ A S 121;3.89467
1DQJ A P 119;1DQJ A S 131;3.09651
1DQJ A P 119;1DQJ A V 132;1.84389
1DQJ A P 119;1DQJ A Y 186;6.66925
1DQJ A P 119;1DQJ A F 209;19.4108
1DQJ A P 119;1DQJ B P 123;1.06665
1DQJ A P 119;1DQJ B L 124;8.99604
1DQJ A P 119;1DQJ B A 125;12.0119
1DQJ A P 119;1DQJ B P 126;0.216212
1DQJ A P 119;1DQJ B V 127;26.3773
1DQJ A P 120;1DQJ A S 121;26.7835
1DQJ A P 120;1DQJ A S 122;1.47578
1DQJ A P 120;1DQJ A Q 124;7.60765
1DQJ A P 120;1DQJ A L 125;19.5601
1DQJ A P 120;1DQJ A G 129;0.374366
1DQJ A P 120;1DQJ A A 130;13.3407
1DQJ A P 120;1DQJ A S 131;15.7572
1DQJ A P 120;1DQJ A V 132;9.74427
1DQJ A P 120;1DQJ A Y 186;21.0158
1DQJ A P 120;1DQJ A F 209;2.4198
1DQJ A P 120;1DQJ B L 124;0.653171
1DQJ A S 121;1DQJ A S 122;20.9156
1DQJ A S 121;1DQJ A E 123;11.3703
1DQJ A S 121;1DQJ A Q 124;18.3835
1DQJ A S 121;1DQJ A L 125;11.2324
1DQJ A S 121;1DQJ B Y 122;12.9764
1DQJ A S 121;1DQJ B P 123;21.2492
1DQJ A S 121;1DQJ B L 124;3.36327
1DQJ A S 122;1DQJ A E 123;30.1958
1DQJ A S 122;1DQJ A Q 124;0.611697
1DQJ A S 122;1DQJ A L 125;17.8854
1DQJ A S 122;1DQJ A T 126;15.7854
1DQJ A E 123;1DQJ A Q 124;16.3918
1DQJ A E 123;1DQJ A L 125;0.735484
1DQJ A E 123;1DQJ A T 126;15.2133
1DQJ A E 123;1DQJ A S 127;9.26579
1DQJ A E 123;1DQJ B V 121;0.371744
1DQJ A E 123;1DQJ B Y 122;15.6373
1DQJ A E 123;1DQJ B P 123;18.5551
1DQJ A E 123;1DQJ B K 219;25.6807
1DQJ A E 123;1DQJ B K 220;0.143913
1DQJ A Q 124;1DQJ A L 125;15.8938
1DQJ A Q 124;1DQJ A T 126;1.13176
1DQJ A Q 124;1DQJ A S 127;14.3807
1DQJ A Q 124;1DQJ A G 128;1.92979
1DQJ A Q 124;1DQJ A G 129;22.1306
1DQJ A Q 124;1DQJ A A 130;8.2932
1DQJ A Q 124;1DQJ A S 131;19.3452
1DQJ A Q 124;1DQJ A T 180;1.73069
1DQJ A Q 124;1DQJ B Y 122;31.7099
1DQJ A Q 124;1DQJ B L 141;6.16579
1DQJ A Q 124;1DQJ B K 143;13.1059
1DQJ A L 125;1DQJ A T 126;19.9278
1DQJ A L 125;1DQJ A S 127;1.29795
1DQJ A L 125;1DQJ A G 128;7.4677
1DQJ A L 125;1DQJ A G 129;11.2613
1DQJ A L 125;1DQJ A A 130;6.24186
1DQJ A L 125;1DQJ A K 183;34.6304
1DQJ A L 125;1DQJ A Y 186;18.6325
1DQJ A L 125;1DQJ A E 187;7.09212
1DQJ A T 126;1DQJ A S 127;23.8352
1DQJ A T 126;1DQJ A G 128;4.36511
1DQJ A T 126;1DQJ A K 183;8.39907
1DQJ A S 127;1DQJ A G 128;23.2737
1DQJ A S 127;1DQJ A G 129;7.17775
1DQJ A S 127;1DQJ B Y 122;14.0867
1DQJ A G 128;1DQJ A G 129;21.0033
1DQJ A G 128;1DQJ A T 182;9.37414
1DQJ A G 128;1DQJ A K 183;22.6433
1DQJ A G 129;1DQJ A A 130;19.5968
1DQJ A G 129;1DQJ A T 180;0.267458
1DQJ A G 129;1DQJ A L 181;3.61932
1DQJ A G 129;1DQJ A T 182;3.00438
1DQJ A G 129;1DQJ A K 183;6.93593
1DQJ A G 129;1DQJ B K 143;0.350277
1DQJ A A 130;1DQJ A S 131;16.5519
1DQJ A A 130;1DQJ A V 132;3.05808
1DQJ A A 130;1DQJ A L 179;2.04947
1DQJ A A 130;1DQJ A T 180;4.75609
1DQJ A A 130;1DQJ A L 181;24.766
1DQJ A A 130;1DQJ A T 182;4.77618
1DQJ A A 130;1DQJ A K 183;4.1865
1DQJ A A 130;1DQJ A Y 186;12.7527
1DQJ A S 131;1DQJ A V 132;18.0776
1DQJ A S 131;1DQJ A V 133;7.49672
1DQJ A S 131;1DQJ A T 178;9.59103
1DQJ A S 131;1DQJ A L 179;4.13249
1DQJ A S 131;1DQJ A T 180;13.9992
1DQJ A S 131;1DQJ B L 124;2.27879
1DQJ A S 131;1DQJ B L 141;13.9426
1DQJ A S 131;1DQJ B K 143;7.4024
1DQJ A V 132;1DQJ A V 133;19.0341
1DQJ A V 132;1DQJ A W 148;18.8717
1DQJ A V 132;1DQJ A S 177;0.345116
1DQJ A V 132;1DQJ A T 178;7.25231
1DQJ A V 132;1DQJ A L 179;26.4664
1DQJ A V 132;1DQJ A L 181;5.78151
1DQJ A V 132;1DQJ A Y 186;7.44296
1DQJ A V 132;1DQJ A Y 192;13.392
1DQJ A V 132;1DQJ A F 209;11.3601
1DQJ A V 133;1DQJ A C 134;22.9204
1DQJ A V 133;1DQJ A F 135;14.2341
1DQJ A V 133;1DQJ A W 148;3.86827
1DQJ A V 133;1DQJ A S 176;2.82572
1DQJ A V 133;1DQJ A S 177;5.49936
1DQJ A V 133;1DQJ A T 178;17.8313
1DQJ A V 133;1DQJ B L 124;19.9126
1DQJ A V 133;1DQJ B L 141;12.5693
1DQJ A V 133;1DQJ B S 186;5.75591
1DQJ A C 134;1DQJ A F 135;20.5029
1DQJ A C 134;1DQJ A L 136;12.597
1DQJ A C 134;1DQJ A W 148;10.2238
1DQJ A C 134;1DQJ A M 175;0.113966
1DQJ A C 134;1DQJ A S 176;4.39356
1DQJ A C 134;1DQJ A S 177;19.6781
1DQJ A C 134;1DQJ A C 194;20.3104
1DQJ A C 134;1DQJ A K 207;0.679933
1DQJ A F 135;1DQJ A L 136;19.0306
1DQJ A F 135;1DQJ A N 137;14.4376
1DQJ A F 135;1DQJ A M 175;4.41323
1DQJ A F 135;1DQJ A S 176;10.2749
1DQJ A F 135;1DQJ B L 124;10.5263
1DQJ A F 135;1DQJ B T 137;4.18137
1DQJ A F 135;1DQJ B L 138;1.78978
1DQJ A F 135;1DQJ B G 139;5.58499
1DQJ A F 135;1DQJ B C 140;0.156541
1DQJ A F 135;1DQJ B F 172;12.9435
1DQJ A F 135;1DQJ B S 186;11.1641
1DQJ A F 135;1DQJ B S 187;9.10964
1DQJ A F 135;1DQJ B S 188;19.5998
1DQJ A L 136;1DQJ A N 137;20.6217
1DQJ A L 136;1DQJ A F 139;11.2181
1DQJ A L 136;1DQJ A I 144;12.8492
1DQJ A L 136;1DQJ A N 145;0.0364127
1DQJ A L 136;1DQJ A V 146;13.6862
1DQJ A L 136;1DQJ A S 174;3.00147
1DQJ A L 136;1DQJ A M 175;34.1241
1DQJ A L 136;1DQJ A S 176;1.19636
1DQJ A L 136;1DQJ A S 177;7.14331
1DQJ A L 136;1DQJ A C 194;4.97232
1DQJ A L 136;1DQJ A A 196;13.4122
1DQJ A N 137;1DQJ A N 138;31.5118
1DQJ A N 137;1DQJ A F 139;4.5435
1DQJ A N 137;1DQJ A Y 173;0.00115216
1DQJ A N 137;1DQJ A S 174;10.145
1DQJ A N 137;1DQJ A M 175;2.55077
1DQJ A N 137;1DQJ B T 137;6.4367
1DQJ A N 137;1DQJ B H 170;15.5451
1DQJ A N 137;1DQJ B F 172;7.19384
1DQJ A N 137;1DQJ B S 188;11.5999
1DQJ A N 137;1DQJ B T 190;5.81367
1DQJ A N 138;1DQJ A F 139;16.1809
1DQJ A N 138;1DQJ A D 167;5.57518
1DQJ A N 138;1DQJ A D 170;15.6142
1DQJ A N 138;1DQJ A T 172;22.3506
1DQJ A N 138;1DQJ A Y 173;5.59247
1DQJ A N 138;1DQJ A S 174;8.29034
1DQJ A N 138;1DQJ B H 170;18.405
1DQJ A F 139;1DQJ A Y 140;20.0864
1DQJ A F 139;1DQJ A P 141;7.66648
1DQJ A F 139;1DQJ A K 142;15.0494
1DQJ A F 139;1DQJ A D 143;0.135549
1DQJ A F 139;1DQJ A I 144;23.0864
1DQJ A F 139;1DQJ A W 163;1.69673
1DQJ A F 139;1DQJ A T 172;8.6112
1DQJ A F 139;1DQJ A Y 173;31.1754
1DQJ A F 139;1DQJ A S 174;6.91887
1DQJ A F 139;1DQJ A M 175;10.387
1DQJ A F 139;1DQJ A H 198;10.0554
1DQJ A Y 140;1DQJ A P 141;42.3488
1DQJ A Y 140;1DQJ A K 142;0.736592
1DQJ A Y 140;1DQJ A Q 166;4.46372
1DQJ A Y 140;1DQJ A S 171;4.92187
1DQJ A Y 140;1DQJ A T 172;7.17912
1DQJ A Y 140;1DQJ A Y 173;16.0146
1DQJ A Y 140;1DQJ A H 198;8.10067
1DQJ A Y 140;1DQJ A T 200;1.80662
1DQJ A P 141;1DQJ A K 142;22.2412
1DQJ A P 141;1DQJ A D 143;26.8708
1DQJ A P 141;1DQJ A Y 173;2.03881
1DQJ A P 141;1DQJ A H 198;14.5976
1DQJ A P 141;1DQJ A K 199;21.7419
1DQJ A P 141;1DQJ A T 200;0.561179
1DQJ A K 142;1DQJ A D 143;29.4828
1DQJ A K 142;1DQJ A I 144;10.0705
1DQJ A K 142;1DQJ A W 163;27.535
1DQJ A K 142;1DQJ A T 164;5.53133
1DQJ A K 142;1DQJ A Y 173;43.2185
1DQJ A K 142;1DQJ A S 174;4.19741
1DQJ A K 142;1DQJ A M 175;0.00590603
1DQJ A D 143;1DQJ A I 144;27.3523
1DQJ A D 143;1DQJ A H 198;10.9149
1DQJ A D 143;1DQJ A K 199;10.9934
1DQJ A I 144;1DQJ A N 145;34.0018
1DQJ A I 144;1DQJ A V 146;2.55675
1DQJ A I 144;1DQJ A W 163;6.36897
1DQJ A I 144;1DQJ A M 175;16.9879
1DQJ A I 144;1DQJ A A 196;7.12506
1DQJ A I 144;1DQJ A T 197;10.7427
1DQJ A I 144;1DQJ A H 198;15.4968
1DQJ A N 145;1DQJ A V 146;34.4262
1DQJ A N 145;1DQJ A K 147;15.8173
1DQJ A N 145;1DQJ A E 195;4.99271
1DQJ A N 145;1DQJ A A 196;5.35559
1DQJ A N 145;1DQJ A T 197;33.3231
1DQJ A V 146;1DQJ A K 147;27.7358
1DQJ A V 146;1DQJ A W 148;11.7446
1DQJ A V 146;1DQJ A V 159;2.8864
1DQJ A V 146;1DQJ A N 161;11.5917
1DQJ A V 146;1DQJ A M 175;17.433
1DQJ A V 146;1DQJ A S 177;13.6118
1DQJ A V 146;1DQJ A C 194;11.6249
1DQJ A V 146;1DQJ A E 195;8.60231
1DQJ A V 146;1DQJ A A 196;2.5327
1DQJ A K 147;1DQJ A W 148;28.9606
1DQJ A K 147;1DQJ A K 149;24.8756
1DQJ A K 147;1DQJ A E 154;32.0032
1DQJ A K 147;1DQJ A Q 156;0.460348
1DQJ A K 147;1DQJ A T 193;2.41538
1DQJ A K 147;1DQJ A C 194;2.75458
1DQJ A K 147;1DQJ A E 195;48.3401
1DQJ A K 147;1DQJ A T 197;0.000526174
1DQJ A W 148;1DQJ A K 149;24.2395
1DQJ A W 148;1DQJ A I 150;0.883402
1DQJ A W 148;1DQJ A S 153;0.000864538
1DQJ A W 148;1DQJ A E 154;6.38767
1DQJ A W 148;1DQJ A R 155;24.7101
1DQJ A W 148;1DQJ A V 159;20.6086
1DQJ A W 148;1DQJ A S 177;16.8328
1DQJ A W 148;1DQJ A T 178;3.42533
1DQJ A W 148;1DQJ A L 179;28.2917
1DQJ A W 148;1DQJ A Y 192;4.91924
1DQJ A W 148;1DQJ A T 193;15.4817
1DQJ A W 148;1DQJ A C 194;13.5732
1DQJ A K 149;1DQJ A I 150;22.8607
1DQJ A K 149;1DQJ A D 151;0.506675
1DQJ A K 149;1DQJ A G 152;24.284
1DQJ A K 149;1DQJ A S 153;7.6822
1DQJ A K 149;1DQJ A E 154;13.6078
1DQJ A K 149;1DQJ A R 155;1.51491
1DQJ A K 149;1DQJ A S 191;2.94776
1DQJ A K 149;1DQJ A Y 192;4.52355
1DQJ A K 149;1DQJ A T 193;36.1422
1DQJ A K 149;1DQJ A E 195;16.2483
1DQJ A I 150;1DQJ A D 151;25.0041
1DQJ A I 150;1DQJ A G 152;3.83032
1DQJ A I 150;1DQJ A S 153;23.8551
1DQJ A I 150;1DQJ A R 155;26.4149
1DQJ A I 150;1DQJ A L 179;13.083
1DQJ A I 150;1DQJ A L 181;11.5358
1DQJ A I 150;1DQJ A H 189;25.0004
1DQJ A I 150;1DQJ A S 191;7.61815
1DQJ A I 150;1DQJ A Y 192;19.0403
1DQJ A D 151;1DQJ A G 152;23.3776
1DQJ A D 151;1DQJ A S 153;7.9337
1DQJ A D 151;1DQJ A R 188;1.78884
1DQJ A D 151;1DQJ A H 189;22.8724
1DQJ A D 151;1DQJ A N 190;13.6557
1DQJ A D 151;1DQJ A S 191;25.6124
1DQJ A G 152;1DQJ A S 153;23.9088
1DQJ A G 152;1DQJ A E 154;2.23525
1DQJ A G 152;1DQJ A S 191;5.78643
1DQJ A S 153;1DQJ A E 154;30.4669
1DQJ A S 153;1DQJ A R 155;4.81397
1DQJ A E 154;1DQJ A R 155;26.5184
1DQJ A E 154;1DQJ A Q 156;32.6316
1DQJ A R 155;1DQJ A Q 156;31.1677
1DQJ A R 155;1DQJ A N 157;29.3313
1DQJ A R 155;1DQJ A G 158;3.2487
1DQJ A R 155;1DQJ A V 159;10.8761
1DQJ A R 155;1DQJ A L 179;12.4848
1DQJ A R 155;1DQJ A T 180;1.97232
1DQJ A R 155;1DQJ A L 181;15.8893
1DQJ A R 155;1DQJ A E 185;18.4164
1DQJ A R 155;1DQJ A H 189;3.48929
1DQJ A Q 156;1DQJ A N 157;34.8324
1DQJ A Q 156;1DQJ A G 158;1.02176
1DQJ A Q 156;1DQJ A V 159;19.1017
1DQJ A N 157;1DQJ A G 158;25.6663
1DQJ A N 157;1DQJ A V 159;4.07739
1DQJ A N 157;1DQJ A L 179;4.0755
1DQJ A G 158;1DQJ A V 159;21.4712
1DQJ A G 158;1DQJ A L 160;7.5458
1DQJ A G 158;1DQJ A T 178;3.74168
1DQJ A G 158;1DQJ A L 179;8.89158
1DQJ A G 158;1DQJ A T 180;24.1067
1DQJ A G 158;1DQJ A L 181;0.122695
1DQJ A V 159;1DQJ A L 160;33.4102
1DQJ A V 159;1DQJ A N 161;13.1742
1DQJ A V 159;1DQJ A S 177;5.80481
1DQJ A V 159;1DQJ A T 178;7.7288
1DQJ A V 159;1DQJ A L 179;12.3275
1DQJ A L 160;1DQJ A N 161;30.8129
1DQJ A L 160;1DQJ A S 176;1.51737
1DQJ A L 160;1DQJ A S 177;3.13151
1DQJ A L 160;1DQJ A T 178;26.3572
1DQJ A L 160;1DQJ A T 180;2.91477
1DQJ A L 160;1DQJ B V 175;25.256
1DQJ A L 160;1DQJ B L 176;10.6826
1DQJ A L 160;1DQJ B Q 177;25.3618
1DQJ A L 160;1DQJ B T 184;0.247452
1DQJ A N 161;1DQJ A S 162;22.4802
1DQJ A N 161;1DQJ A W 163;28.143
1DQJ A N 161;1DQJ A M 175;13.257
1DQJ A N 161;1DQJ A S 176;6.97905
1DQJ A N 161;1DQJ A S 177;12.2868
1DQJ A N 161;1DQJ B V 175;13.9982
1DQJ A S 162;1DQJ A W 163;28.8546
1DQJ A S 162;1DQJ A M 175;7.28086
1DQJ A S 162;1DQJ A S 176;23.5406
1DQJ A S 162;1DQJ B F 172;14.4615
1DQJ A S 162;1DQJ B P 173;20.6385
1DQJ A S 162;1DQJ B V 175;13.0451
1DQJ A W 163;1DQJ A T 164;26.0486
1DQJ A W 163;1DQJ A D 165;2.01291
1DQJ A W 163;1DQJ A S 174;5.64579
1DQJ A W 163;1DQJ A M 175;30.5127
1DQJ A W 163;1DQJ B F 172;2.07221
1DQJ A W 163;1DQJ B P 173;16.546
1DQJ A T 164;1DQJ A D 165;41.7096
1DQJ A T 164;1DQJ A Q 166;0.0455196
1DQJ A T 164;1DQJ A D 167;0.881261
1DQJ A T 164;1DQJ A Y 173;8.5422
1DQJ A T 164;1DQJ A S 174;25.4489
1DQJ A T 164;1DQJ B H 170;9.83813
1DQJ A T 164;1DQJ B T 171;12.0523
1DQJ A T 164;1DQJ B F 172;16.7138
1DQJ A T 164;1DQJ B P 173;11.8698
1DQJ A D 165;1DQJ A Q 166;34.1306
1DQJ A D 165;1DQJ A D 167;9.04535
1DQJ A D 165;1DQJ A T 172;0.305646
1DQJ A D 165;1DQJ A Y 173;3.37139
1DQJ A D 165;1DQJ B P 173;1.52061
1DQJ A Q 166;1DQJ A D 167;21.516
1DQJ A Q 166;1DQJ A S 168;9.25241
1DQJ A Q 166;1DQJ A S 171;21.198
1DQJ A Q 166;1DQJ A T 172;5.60963
1DQJ A Q 166;1DQJ A Y 173;30.8181
1DQJ A D 167;1DQJ A S 168;27.5407
1DQJ A D 167;1DQJ A K 169;22.1445
1DQJ A D 167;1DQJ A D 170;13.5693
1DQJ A D 167;1DQJ A S 171;16.1098
1DQJ A D 167;1DQJ A T 172;20.2276
1DQJ A D 167;1DQJ A Y 173;0.662177
1DQJ A D 167;1DQJ A S 174;1.5959
1DQJ A D 167;1DQJ B H 170;15.8844
1DQJ A S 168;1DQJ A K 169;32.5011
1DQJ A S 168;1DQJ A D 170;0.645834
1DQJ A S 168;1DQJ A S 171;1.99979
1DQJ A K 169;1DQJ A D 170;32.9496
1DQJ A K 169;1DQJ A S 171;0.125374
1DQJ A K 169;1DQJ B S 165;7.69511
1DQJ A K 169;1DQJ B S 166;5.74392
1DQJ A K 169;1DQJ B G 167;5.31192
1DQJ A K 169;1DQJ B V 169;7.94669
1DQJ A D 170;1DQJ A S 171;24.5897
1DQJ A D 170;1DQJ A T 172;22.299
1DQJ A S 171;1DQJ A T 172;17.0405
1DQJ A S 171;1DQJ A Y 173;2.11189
1DQJ A T 172;1DQJ A Y 173;26.3728
1DQJ A T 172;1DQJ A S 174;1.48331
1DQJ A T 172;1DQJ B H 170;0.0445355
1DQJ A Y 173;1DQJ A S 174;24.5436
1DQJ A S 174;1DQJ A M 175;17.2144
1DQJ A S 174;1DQJ B H 170;17.7484
1DQJ A S 174;1DQJ B F 172;9.55718
1DQJ A M 175;1DQJ A S 176;22.6971
1DQJ A M 175;1DQJ A S 177;3.85281
1DQJ A M 175;1DQJ B F 172;11.8491
1DQJ A S 176;1DQJ A S 177;20.815
1DQJ A S 176;1DQJ A T 178;6.2355
1DQJ A S 176;1DQJ B F 172;15.8368
1DQJ A S 176;1DQJ B S 186;11.4169
1DQJ A S 177;1DQJ A T 178;22.0943
1DQJ A S 177;1DQJ A C 194;0.485334
1DQJ A T 178;1DQJ A L 179;20.1417
1DQJ A T 178;1DQJ A T 180;12.8706
1DQJ A T 178;1DQJ B L 141;11.2214
1DQJ A T 178;1DQJ B Q 177;0.0570868
1DQJ A T 178;1DQJ B T 184;7.00455
1DQJ A T 178;1DQJ B S 186;4.80327
1DQJ A L 179;1DQJ A T 180;20.0766
1DQJ A L 179;1DQJ A L 181;19.5881
1DQJ A L 179;1DQJ A Y 192;7.08127
1DQJ A T 180;1DQJ A L 181;35.913
1DQJ A T 180;1DQJ A E 185;0.24023
1DQJ A T 180;1DQJ B K 143;13.1555
1DQJ A T 180;1DQJ B Q 177;24.2946
1DQJ A L 181;1DQJ A T 182;25.551
1DQJ A L 181;1DQJ A E 185;24.8552
1DQJ A L 181;1DQJ A Y 186;14.2818
1DQJ A L 181;1DQJ A H 189;1.15338
1DQJ A L 181;1DQJ A Y 192;10.5173
1DQJ A T 182;1DQJ A K 183;18.0196
1DQJ A T 182;1DQJ A D 184;13.4793
1DQJ A T 182;1DQJ A E 185;31.863
1DQJ A T 182;1DQJ A Y 186;6.60188
1DQJ A T 182;1DQJ A R 188;0.481284
1DQJ A K 183;1DQJ A D 184;27.814
1DQJ A K 183;1DQJ A E 185;0.579725
1DQJ A K 183;1DQJ A Y 186;7.45125
1DQJ A K 183;1DQJ A E 187;37.4628
1DQJ A D 184;1DQJ A E 185;17.0939
1DQJ A D 184;1DQJ A Y 186;0.651692
1DQJ A D 184;1DQJ A E 187;15.9787
1DQJ A D 184;1DQJ A R 188;30.9775
1DQJ A E 185;1DQJ A Y 186;17.9173
1DQJ A E 185;1DQJ A E 187;1.10767
1DQJ A E 185;1DQJ A R 188;29.4835
1DQJ A E 185;1DQJ A H 189;17.2073
1DQJ A E 185;1DQJ A Y 192;1.3143
1DQJ A Y 186;1DQJ A E 187;23.7911
1DQJ A Y 186;1DQJ A R 188;1.71942
1DQJ A Y 186;1DQJ A H 189;6.3407
1DQJ A Y 186;1DQJ A Y 192;26.0506
1DQJ A Y 186;1DQJ A F 209;12.4025
1DQJ A Y 186;1DQJ A R 211;31.2564
1DQJ A E 187;1DQJ A R 188;23.3002
1DQJ A E 187;1DQJ A H 189;2.29906
1DQJ A E 187;1DQJ A R 211;33.5167
1DQJ A R 188;1DQJ A H 189;42.1205
1DQJ A R 188;1DQJ A R 211;0.147141
1DQJ A H 189;1DQJ A N 190;23.9379
1DQJ A H 189;1DQJ A S 191;0.542814
1DQJ A H 189;1DQJ A Y 192;15.8333
1DQJ A H 189;1DQJ A R 211;14.2987
1DQJ A N 190;1DQJ A S 191;22.797
1DQJ A N 190;1DQJ A Y 192;9.61205
1DQJ A N 190;1DQJ A F 209;1.94605
1DQJ A N 190;1DQJ A N 210;15.7044
1DQJ A N 190;1DQJ A R 211;20.4066
1DQJ A N 190;1DQJ A N 212;28.5243
1DQJ A S 191;1DQJ A Y 192;23.3458
1DQJ A S 191;1DQJ A T 193;6.56469
1DQJ A S 191;1DQJ A S 208;4.58657
1DQJ A S 191;1DQJ A F 209;3.20996
1DQJ A S 191;1DQJ A N 210;16.6265
1DQJ A Y 192;1DQJ A T 193;19.3378
1DQJ A Y 192;1DQJ A S 208;10.0853
1DQJ A Y 192;1DQJ A F 209;31.1617
1DQJ A Y 192;1DQJ A R 211;8.15394
1DQJ A T 193;1DQJ A C 194;20.8567
1DQJ A T 193;1DQJ A E 195;9.12446
1DQJ A T 193;1DQJ A V 206;16.3839
1DQJ A T 193;1DQJ A K 207;4.85266
1DQJ A T 193;1DQJ A S 208;16.3448
1DQJ A C 194;1DQJ A E 195;21.2422
1DQJ A C 194;1DQJ A A 196;2.84302
1DQJ A C 194;1DQJ A I 205;2.75306
1DQJ A C 194;1DQJ A V 206;3.77524
1DQJ A C 194;1DQJ A K 207;19.3258
1DQJ A E 195;1DQJ A A 196;21.1286
1DQJ A E 195;1DQJ A T 197;9.75558
1DQJ A E 195;1DQJ A P 204;21.6796
1DQJ A E 195;1DQJ A I 205;5.03347
1DQJ A E 195;1DQJ A V 206;13.7537
1DQJ A A 196;1DQJ A T 197;19.5784
1DQJ A A 196;1DQJ A H 198;5.51196
1DQJ A A 196;1DQJ A S 201;0.234698
1DQJ A A 196;1DQJ A P 204;8.20471
1DQJ A A 196;1DQJ A I 205;26.4741
1DQJ A T 197;1DQJ A H 198;31.7246
1DQJ A T 197;1DQJ A S 201;5.06533
1DQJ A T 197;1DQJ A T 202;3.98005
1DQJ A T 197;1DQJ A S 203;0.0316909
1DQJ A T 197;1DQJ A P 204;20.1913
1DQJ A H 198;1DQJ A K 199;31.3832
1DQJ A H 198;1DQJ A T 200;23.2746
1DQJ A H 198;1DQJ A S 201;21.9266
1DQJ A H 198;1DQJ A S 203;0.0070642
1DQJ A H 198;1DQJ A P 204;0.567442
1DQJ A H 198;1DQJ A I 205;1.74229
1DQJ A K 199;1DQJ A T 200;22.2732
1DQJ A K 199;1DQJ A S 201;8.94097
1DQJ A T 200;1DQJ A S 201;32.9321
1DQJ A T 200;1DQJ A I 205;0.675451
1DQJ A S 201;1DQJ A T 202;30.8554
1DQJ A S 201;1DQJ A S 203;26.2641
1DQJ A S 201;1DQJ A P 204;0.890067
1DQJ A S 201;1DQJ A I 205;10.9914
1DQJ A T 202;1DQJ A S 203;29.3242
1DQJ A T 202;1DQJ A P 204;8.59892
1DQJ A S 203;1DQJ A P 204;37.9851
1DQJ A S 203;1DQJ A I 205;3.87766
1DQJ A P 204;1DQJ A I 205;21.8521
1DQJ A P 204;1DQJ A V 206;18.8127
1DQJ A I 205;1DQJ A V 206;27.5084
1DQJ A I 205;1DQJ A K 207;14.6146
1DQJ A V 206;1DQJ A K 207;32.7926
1DQJ A V 206;1DQJ A S 208;7.94788
1DQJ A K 207;1DQJ A S 208;23.5206
1DQJ A S 208;1DQJ A F 209;32.962
1DQJ A S 208;1DQJ A N 210;2.66048
1DQJ A S 208;1DQJ B V 127;2.30348
1DQJ A F 209;1DQJ A N 210;35.3093
1DQJ A F 209;1DQJ A R 211;7.66148
1DQJ A F 209;1DQJ A E 213;2.12199
1DQJ A F 209;1DQJ B V 127;26.8899
1DQJ A N 210;1DQJ A R 211;17.3023
1DQJ A N 210;1DQJ A N 212;16.1951
1DQJ A N 210;1DQJ A E 213;41.918
1DQJ A N 210;1DQJ A C 214;0.207042
1DQJ A N 210;1DQJ B V 127;4.07084
1DQJ A R 211;1DQJ A N 212;21.041
1DQJ A R 211;1DQJ A E 213;12.8833
1DQJ A R 211;1DQJ A C 214;3.70233
1DQJ A N 212;1DQJ A E 213;37.5718
1DQJ A E 213;1DQJ A C 214;47.2647
1DQJ A E 213;1DQJ B V 127;1.80553
1DQJ A C 214;1DQJ B V 127;18.6475
1DQJ A C 214;1DQJ B C 128;35.9108
1DQJ A C 214;1DQJ B D 130;3.99743
1DQJ B E 1;1DQJ B V 2;36.2763
1DQJ B E 1;1DQJ B Q 3;29.1217
1DQJ B E 1;1DQJ B T 25;2.72571
1DQJ B E 1;1DQJ B G 26;14.7415
1DQJ B V 2;1DQJ B Q 3;24.1331
1DQJ B V 2;1DQJ B L 4;6.1611
1DQJ B V 2;1DQJ B V 24;6.52926
1DQJ B V 2;1DQJ B T 25;6.85634
1DQJ B V 2;1DQJ B G 26;4.79172
1DQJ B V 2;1DQJ B D 27;16.6359
1DQJ B V 2;1DQJ B W 34;9.93547
1DQJ B V 2;1DQJ B D 101;0.271286
1DQJ B V 2;1DQJ B V 102;31.511
1DQJ B Q 3;1DQJ B L 4;30.2088
1DQJ B Q 3;1DQJ B S 23;3.39534
1DQJ B Q 3;1DQJ B V 24;2.83692
1DQJ B Q 3;1DQJ B T 25;33.666
1DQJ B Q 3;1DQJ B V 102;5.5843
1DQJ B L 4;1DQJ B Q 5;27.0552
1DQJ B L 4;1DQJ B C 22;9.6797
1DQJ B L 4;1DQJ B S 23;6.1818
1DQJ B L 4;1DQJ B V 24;13.2755
1DQJ B L 4;1DQJ B W 34;13.1151
1DQJ B L 4;1DQJ B Y 78;4.8288
1DQJ B L 4;1DQJ B C 95;11.0833
1DQJ B L 4;1DQJ B A 96;6.99785
1DQJ B L 4;1DQJ B S 97;2.1536
1DQJ B L 4;1DQJ B V 102;20.6659
1DQJ B L 4;1DQJ B W 103;9.72184
1DQJ B L 4;1DQJ B G 104;15.7289
1DQJ B L 4;1DQJ B A 105;3.06149
1DQJ B Q 5;1DQJ B E 6;42.2459
1DQJ B Q 5;1DQJ B S 7;5.94009
1DQJ B Q 5;1DQJ B T 21;2.68455
1DQJ B Q 5;1DQJ B C 22;7.00276
1DQJ B Q 5;1DQJ B S 23;27.683
1DQJ B Q 5;1DQJ B C 95;4.24671
1DQJ B Q 5;1DQJ B G 104;2.22572
1DQJ B Q 5;1DQJ B A 105;15.1381
1DQJ B Q 5;1DQJ B G 106;1.95486
1DQJ B Q 5;1DQJ B T 107;0.109131
1DQJ B E 6;1DQJ B S 7;27.2795
1DQJ B E 6;1DQJ B L 20;3.62705
1DQJ B E 6;1DQJ B T 21;6.32817
1DQJ B E 6;1DQJ B C 22;1.51344
1DQJ B E 6;1DQJ B W 36;10.258
1DQJ B E 6;1DQJ B Y 93;5.0642
1DQJ B E 6;1DQJ B Y 94;8.40963
1DQJ B E 6;1DQJ B C 95;19.1323
1DQJ B E 6;1DQJ B G 104;11.8877
1DQJ B E 6;1DQJ B A 105;3.96631
1DQJ B E 6;1DQJ B G 106;15.5631
1DQJ B E 6;1DQJ B T 107;19.7108
1DQJ B S 7;1DQJ B G 8;30.1527
1DQJ B S 7;1DQJ B L 20;11.1266
1DQJ B S 7;1DQJ B T 21;32.6218
1DQJ B S 7;1DQJ B S 23;4.25514
1DQJ B S 7;1DQJ B T 107;6.9105
1DQJ B G 8;1DQJ B P 9;33.2209
1DQJ B G 8;1DQJ B S 10;7.61593
1DQJ B G 8;1DQJ B S 19;3.84465
1DQJ B G 8;1DQJ B L 20;10.3098
1DQJ B G 8;1DQJ B T 21;0.313791
1DQJ B G 8;1DQJ B T 107;6.4315
1DQJ B P 9;1DQJ B S 10;22.8452
1DQJ B P 9;1DQJ B L 11;14.4387
1DQJ B P 9;1DQJ B V 12;11.9642
1DQJ B P 9;1DQJ B L 18;0.556788
1DQJ B P 9;1DQJ B S 19;21.2575
1DQJ B P 9;1DQJ B L 20;5.21675
1DQJ B P 9;1DQJ B V 109;10.7112
1DQJ B S 10;1DQJ B L 11;31.0136
1DQJ B S 10;1DQJ B T 107;3.62923
1DQJ B S 10;1DQJ B T 108;16.6141
1DQJ B S 10;1DQJ B V 109;9.53476
1DQJ B S 10;1DQJ B T 110;12.5678
1DQJ B L 11;1DQJ B V 12;32.1395
1DQJ B L 11;1DQJ B K 13;8.91398
1DQJ B L 11;1DQJ B V 109;1.32107
1DQJ B L 11;1DQJ B T 110;17.6616
1DQJ B L 11;1DQJ B S 112;15.9432
1DQJ B L 11;1DQJ B A 114;6.22703
1DQJ B L 11;1DQJ B F 146;21.426
1DQJ B L 11;1DQJ B P 147;7.28018
1DQJ B V 12;1DQJ B K 13;27.5416
1DQJ B V 12;1DQJ B P 14;0.23606
1DQJ B V 12;1DQJ B Q 16;10.247
1DQJ B V 12;1DQJ B T 17;13.2108
1DQJ B V 12;1DQJ B L 18;17.2846
1DQJ B V 12;1DQJ B S 19;1.9676
1DQJ B V 12;1DQJ B V 85;11.6393
1DQJ B V 12;1DQJ B V 109;12.2256
1DQJ B V 12;1DQJ B T 110;6.76773
1DQJ B V 12;1DQJ B V 111;14.5734
1DQJ B V 12;1DQJ B S 112;6.0766
1DQJ B K 13;1DQJ B P 14;28.133
1DQJ B K 13;1DQJ B S 15;0.206825
1DQJ B K 13;1DQJ B Q 16;26.2025
1DQJ B K 13;1DQJ B V 85;4.71975
1DQJ B K 13;1DQJ B V 111;1.57415
1DQJ B K 13;1DQJ B S 112;9.76252
1DQJ B K 13;1DQJ B S 113;13.2651
1DQJ B K 13;1DQJ B A 114;1.72803
1DQJ B P 14;1DQJ B S 15;28.2488
1DQJ B P 14;1DQJ B Q 16;6.15068
1DQJ B P 14;1DQJ B V 85;6.73924
1DQJ B P 14;1DQJ B T 86;7.32832
1DQJ B P 14;1DQJ B T 87;10.8712
1DQJ B P 14;1DQJ B V 111;12.0281
1DQJ B P 14;1DQJ B S 112;10.0444
1DQJ B P 14;1DQJ B S 113;20.5088
1DQJ B S 15;1DQJ B Q 16;37.1429
1DQJ B S 15;1DQJ B T 17;0.493052
1DQJ B S 15;1DQJ B S 84;21.8503
1DQJ B S 15;1DQJ B V 85;13.1211
1DQJ B Q 16;1DQJ B T 17;29.8034
1DQJ B Q 16;1DQJ B L 18;0.150313
1DQJ B Q 16;1DQJ B L 82;0.608299
1DQJ B Q 16;1DQJ B N 83;1.05779
1DQJ B Q 16;1DQJ B S 84;5.78996
1DQJ B Q 16;1DQJ B V 85;12.416
1DQJ B T 17;1DQJ B L 18;22.1399
1DQJ B T 17;1DQJ B S 19;16.7554
1DQJ B T 17;1DQJ B Q 81;15.6125
1DQJ B T 17;1DQJ B L 82;7.65543
1DQJ B T 17;1DQJ B N 83;19.9267
1DQJ B T 17;1DQJ B S 84;1.30156
1DQJ B T 17;1DQJ B V 85;0.0197028
1DQJ B L 18;1DQJ B S 19;25.8365
1DQJ B L 18;1DQJ B L 20;12.3849
1DQJ B L 18;1DQJ B L 80;13.4928
1DQJ B L 18;1DQJ B Q 81;5.25588
1DQJ B L 18;1DQJ B L 82;27.5278
1DQJ B L 18;1DQJ B V 85;12.7266
1DQJ B L 18;1DQJ B D 89;4.40804
1DQJ B L 18;1DQJ B Y 93;16.3161
1DQJ B L 18;1DQJ B V 109;18.8
1DQJ B L 18;1DQJ B V 111;3.56865
1DQJ B S 19;1DQJ B L 20;28.0639
1DQJ B S 19;1DQJ B L 80;7.96507
1DQJ B S 19;1DQJ B Q 81;6.15397
1DQJ B L 20;1DQJ B T 21;22.515
1DQJ B L 20;1DQJ B W 36;18.8627
1DQJ B L 20;1DQJ B Y 79;9.97861
1DQJ B L 20;1DQJ B L 80;24.3901
1DQJ B L 20;1DQJ B Y 93;14.8097
1DQJ B L 20;1DQJ B T 107;16.6869
1DQJ B L 20;1DQJ B V 109;13.4574
1DQJ B T 21;1DQJ B C 22;20.4735
1DQJ B T 21;1DQJ B S 23;7.47908
1DQJ B T 21;1DQJ B W 36;6.66716
1DQJ B T 21;1DQJ B Q 77;17.4957
1DQJ B T 21;1DQJ B Y 78;2.79276
1DQJ B T 21;1DQJ B Y 79;22.7632
1DQJ B C 22;1DQJ B S 23;19.6487
1DQJ B C 22;1DQJ B V 24;6.61325
1DQJ B C 22;1DQJ B W 36;9.4814
1DQJ B C 22;1DQJ B Q 77;7.76201
1DQJ B C 22;1DQJ B Y 78;30.5806
1DQJ B C 22;1DQJ B C 95;17.4527
1DQJ B S 23;1DQJ B V 24;21.0215
1DQJ B S 23;1DQJ B T 25;12.3291
1DQJ B S 23;1DQJ B N 76;1.70756
1DQJ B S 23;1DQJ B Q 77;21.5607
1DQJ B V 24;1DQJ B T 25;30.4549
1DQJ B V 24;1DQJ B D 27;11.6262
1DQJ B V 24;1DQJ B S 28;1.73114
1DQJ B V 24;1DQJ B V 29;12.9614
1DQJ B V 24;1DQJ B W 34;17.1357
1DQJ B V 24;1DQJ B K 75;0.0345379
1DQJ B V 24;1DQJ B N 76;32.2198
1DQJ B V 24;1DQJ B Q 77;3.17811
1DQJ B V 24;1DQJ B Y 78;9.86657
1DQJ B T 25;1DQJ B G 26;25.5309
1DQJ B T 25;1DQJ B D 27;5.32328
1DQJ B T 25;1DQJ B N 76;1.69074
1DQJ B G 26;1DQJ B D 27;30.2048
1DQJ B G 26;1DQJ B N 76;0.211597
1DQJ B D 27;1DQJ B S 28;35.6901
1DQJ B D 27;1DQJ B V 29;0.19267
1DQJ B D 27;1DQJ B S 31;21.4405
1DQJ B D 27;1DQJ B D 32;3.46899
1DQJ B D 27;1DQJ B W 34;5.69854
1DQJ B D 27;1DQJ B N 76;9.44722
1DQJ B S 28;1DQJ B V 29;17.1952
1DQJ B S 28;1DQJ B T 30;19.1588
1DQJ B S 28;1DQJ B S 31;20.2304
1DQJ B S 28;1DQJ B D 32;0.180123
1DQJ B S 28;1DQJ B W 34;5.83572
1DQJ B S 28;1DQJ B T 73;4.33003
1DQJ B S 28;1DQJ B N 76;12.5659
1DQJ B V 29;1DQJ B T 30;24.9217
1DQJ B V 29;1DQJ B S 31;2.38239
1DQJ B V 29;1DQJ B D 32;4.06373
1DQJ B V 29;1DQJ B W 34;25.0197
1DQJ B V 29;1DQJ B R 71;23.2014
1DQJ B V 29;1DQJ B D 72;4.09088
1DQJ B V 29;1DQJ B T 73;11.6513
1DQJ B V 29;1DQJ B N 76;21.3743
1DQJ B V 29;1DQJ B Q 77;10.3334
1DQJ B V 29;1DQJ B Y 78;9.21266
1DQJ B T 30;1DQJ B S 31;22.9247
1DQJ B T 30;1DQJ B D 32;5.20261
1DQJ B T 30;1DQJ B Y 53;4.58464
1DQJ B T 30;1DQJ B R 71;14.8402
1DQJ B T 30;1DQJ B T 73;23.8763
1DQJ B S 31;1DQJ B D 32;25.3214
1DQJ B S 31;1DQJ B W 34;0.0469315
1DQJ B D 32;1DQJ B Y 33;32.896
1DQJ B D 32;1DQJ B W 34;30.3241
1DQJ B D 32;1DQJ B I 51;1.16523
1DQJ B D 32;1DQJ B S 52;1.02488
1DQJ B D 32;1DQJ B Y 53;6.37568
1DQJ B D 32;1DQJ B R 71;2.84466
1DQJ B D 32;1DQJ B S 97;13.3917
1DQJ B D 32;1DQJ B W 98;2.82925
1DQJ B D 32;1DQJ B G 99;1.72713
1DQJ B D 32;1DQJ B V 102;0.23363
1DQJ B Y 33;1DQJ B W 34;23.4785
1DQJ B Y 33;1DQJ B Y 50;10.2173
1DQJ B Y 33;1DQJ B I 51;6.32697
1DQJ B Y 33;1DQJ B S 52;18.5948
1DQJ B Y 33;1DQJ B Y 53;18.1103
1DQJ B Y 33;1DQJ B S 97;3.65639
1DQJ B Y 33;1DQJ B W 98;30.8807
1DQJ B W 34;1DQJ B S 35;18.7682
1DQJ B W 34;1DQJ B W 36;0.0930649
1DQJ B W 34;1DQJ B Y 50;9.02109
1DQJ B W 34;1DQJ B I 51;28.2902
1DQJ B W 34;1DQJ B I 69;1.71299
1DQJ B W 34;1DQJ B R 71;3.13083
1DQJ B W 34;1DQJ B Y 78;29.5682
1DQJ B W 34;1DQJ B A 96;4.47893
1DQJ B W 34;1DQJ B S 97;13.1502
1DQJ B W 34;1DQJ B W 98;2.241
1DQJ B W 34;1DQJ B V 102;5.47351
1DQJ B S 35;1DQJ B W 36;21.8501
1DQJ B S 35;1DQJ B I 37;10.539
1DQJ B S 35;1DQJ B Y 47;16.0052
1DQJ B S 35;1DQJ B G 49;6.41572
1DQJ B S 35;1DQJ B Y 50;11.3892
1DQJ B S 35;1DQJ B I 69;0.549161
1DQJ B S 35;1DQJ B Y 78;11.1697
1DQJ B S 35;1DQJ B C 95;5.13756
1DQJ B S 35;1DQJ B A 96;16.1289
1DQJ B S 35;1DQJ B S 97;2.34075
1DQJ B S 35;1DQJ B W 98;9.5805
1DQJ B W 36;1DQJ B I 37;23.9196
1DQJ B W 36;1DQJ B Y 47;2.7194
1DQJ B W 36;1DQJ B M 48;21.7148
1DQJ B W 36;1DQJ B G 49;11.2217
1DQJ B W 36;1DQJ B I 67;0.428851
1DQJ B W 36;1DQJ B I 69;19.1621
1DQJ B W 36;1DQJ B Y 78;19.2876
1DQJ B W 36;1DQJ B Y 79;10.8947
1DQJ B W 36;1DQJ B L 80;30.1476
1DQJ B W 36;1DQJ B Y 93;6.71668
1DQJ B W 36;1DQJ B Y 94;12.8053
1DQJ B W 36;1DQJ B C 95;13.4479
1DQJ B I 37;1DQJ B R 38;22.2238
1DQJ B I 37;1DQJ B L 45;11.9434
1DQJ B I 37;1DQJ B E 46;9.01084
1DQJ B I 37;1DQJ B Y 47;22.8985
1DQJ B I 37;1DQJ B M 48;6.08842
1DQJ B I 37;1DQJ B T 92;0.219029
1DQJ B I 37;1DQJ B Y 93;4.7233
1DQJ B I 37;1DQJ B Y 94;29.5131
1DQJ B I 37;1DQJ B C 95;0.442118
1DQJ B I 37;1DQJ B A 96;13.0326
1DQJ B I 37;1DQJ B S 97;0.0699253
1DQJ B I 37;1DQJ B W 103;21.8773
1DQJ B R 38;1DQJ B K 39;17.8097
1DQJ B R 38;1DQJ B F 40;28.6333
1DQJ B R 38;1DQJ B K 44;1.14123
1DQJ B R 38;1DQJ B L 45;7.69376
1DQJ B R 38;1DQJ B E 46;34.2986
1DQJ B R 38;1DQJ B M 48;22.6736
1DQJ B R 38;1DQJ B L 63;12.5168
1DQJ B R 38;1DQJ B R 66;0.516591
1DQJ B R 38;1DQJ B L 82;6.08336
1DQJ B R 38;1DQJ B E 88;0.392199
1DQJ B R 38;1DQJ B D 89;19.0158
1DQJ B R 38;1DQJ B A 91;9.49115
1DQJ B R 38;1DQJ B T 92;5.51003
1DQJ B R 38;1DQJ B Y 93;23.4111
1DQJ B R 38;1DQJ B Y 94;1.86036
1DQJ B K 39;1DQJ B F 40;26.6802
1DQJ B K 39;1DQJ B P 41;0.334068
1DQJ B K 39;1DQJ B N 43;30.8263
1DQJ B K 39;1DQJ B K 44;6.18506
1DQJ B K 39;1DQJ B L 45;16.6765
1DQJ B K 39;1DQJ B A 91;9.42985
1DQJ B K 39;1DQJ B T 92;26.394
1DQJ B K 39;1DQJ B Y 94;16.524
1DQJ B F 40;1DQJ B P 41;31.2563
1DQJ B F 40;1DQJ B G 42;7.7099
1DQJ B F 40;1DQJ B N 43;10.288
1DQJ B F 40;1DQJ B K 44;27.1783
1DQJ B F 40;1DQJ B L 45;1.78828
1DQJ B F 40;1DQJ B E 46;20.7313
1DQJ B F 40;1DQJ B E 88;15.7515
1DQJ B F 40;1DQJ B D 89;1.72579
1DQJ B F 40;1DQJ B T 90;5.08966
1DQJ B F 40;1DQJ B A 91;11.9734
1DQJ B P 41;1DQJ B G 42;25.8409
1DQJ B P 41;1DQJ B N 43;14.787
1DQJ B P 41;1DQJ B E 88;0.00576268
1DQJ B P 41;1DQJ B T 90;24.8183
1DQJ B P 41;1DQJ B A 91;5.72419
1DQJ B G 42;1DQJ B N 43;28.9073
1DQJ B G 42;1DQJ B K 44;12.8091
1DQJ B N 43;1DQJ B K 44;23.1084
1DQJ B N 43;1DQJ B L 45;3.16358
1DQJ B K 44;1DQJ B L 45;27.853
1DQJ B K 44;1DQJ B E 46;0.1402
1DQJ B L 45;1DQJ B E 46;24.5906
1DQJ B L 45;1DQJ B Y 94;6.01244
1DQJ B L 45;1DQJ B W 103;2.11711
1DQJ B E 46;1DQJ B Y 47;22.7691
1DQJ B E 46;1DQJ B M 48;12.399
1DQJ B E 46;1DQJ B H 60;20.1807
1DQJ B E 46;1DQJ B S 62;12.5681
1DQJ B E 46;1DQJ B L 63;10.1711
1DQJ B Y 47;1DQJ B M 48;17.9309
1DQJ B Y 47;1DQJ B G 49;11.0691
1DQJ B Y 47;1DQJ B Y 50;6.85243
1DQJ B Y 47;1DQJ B H 60;14.3895
1DQJ B Y 47;1DQJ B S 97;2.54114
1DQJ B Y 47;1DQJ B W 98;14.5404
1DQJ B Y 47;1DQJ B W 103;0.655352
1DQJ B M 48;1DQJ B G 49;19.504
1DQJ B M 48;1DQJ B Y 59;3.82795
1DQJ B M 48;1DQJ B H 60;11.9354
1DQJ B M 48;1DQJ B L 63;20.5317
1DQJ B M 48;1DQJ B I 67;18.01
1DQJ B M 48;1DQJ B I 69;0.203298
1DQJ B M 48;1DQJ B L 80;14.1685
1DQJ B M 48;1DQJ B L 82;12.2412
1DQJ B M 48;1DQJ B Y 93;13.5548
1DQJ B G 49;1DQJ B Y 50;16.3345
1DQJ B G 49;1DQJ B Y 58;5.46653
1DQJ B G 49;1DQJ B Y 59;2.86642
1DQJ B G 49;1DQJ B I 67;0.691795
1DQJ B G 49;1DQJ B I 69;11.0627
1DQJ B Y 50;1DQJ B I 51;22.1128
1DQJ B Y 50;1DQJ B S 52;10.5162
1DQJ B Y 50;1DQJ B S 56;1.11182
1DQJ B Y 50;1DQJ B T 57;8.39729
1DQJ B Y 50;1DQJ B Y 58;35.6899
1DQJ B Y 50;1DQJ B Y 59;0.112423
1DQJ B Y 50;1DQJ B I 69;11.2892
1DQJ B Y 50;1DQJ B W 98;17.6904
1DQJ B I 51;1DQJ B S 52;22.734
1DQJ B I 51;1DQJ B G 55;15.6578
1DQJ B I 51;1DQJ B S 56;5.25746
1DQJ B I 51;1DQJ B T 57;14.087
1DQJ B I 51;1DQJ B I 69;21.2429
1DQJ B I 51;1DQJ B T 70;8.58095
1DQJ B I 51;1DQJ B R 71;29.3047
1DQJ B I 51;1DQJ B Y 78;7.93033
1DQJ B S 52;1DQJ B Y 53;17.5721
1DQJ B S 52;1DQJ B S 54;2.75286
1DQJ B S 52;1DQJ B G 55;7.38876
1DQJ B S 52;1DQJ B S 56;18.0524
1DQJ B S 52;1DQJ B Y 58;2.03957
1DQJ B S 52;1DQJ B R 71;7.54731
1DQJ B Y 53;1DQJ B S 54;33.3589
1DQJ B Y 53;1DQJ B G 55;1.88148
1DQJ B Y 53;1DQJ B R 71;18.7535
1DQJ B S 54;1DQJ B G 55;20.8417
1DQJ B S 54;1DQJ B S 56;16.5979
1DQJ B S 54;1DQJ B R 71;3.52104
1DQJ B G 55;1DQJ B S 56;23.4961
1DQJ B G 55;1DQJ B T 57;9.02586
1DQJ B G 55;1DQJ B R 71;13.3751
1DQJ B S 56;1DQJ B T 57;27.4405
1DQJ B S 56;1DQJ B Y 58;7.3413
1DQJ B T 57;1DQJ B Y 58;33.8074
1DQJ B T 57;1DQJ B Y 59;30.1739
1DQJ B T 57;1DQJ B I 69;13.2481
1DQJ B Y 58;1DQJ B Y 59;26.061
1DQJ B Y 58;1DQJ B I 69;0.450203
1DQJ B Y 59;1DQJ B H 60;18.0387
1DQJ B Y 59;1DQJ B P 61;6.6155
1DQJ B Y 59;1DQJ B K 64;38.8482
1DQJ B Y 59;1DQJ B I 67;32.2916
1DQJ B Y 59;1DQJ B S 68;12.4893
1DQJ B Y 59;1DQJ B I 69;24.2217
1DQJ B H 60;1DQJ B P 61;21.6467
1DQJ B H 60;1DQJ B S 62;21.7298
1DQJ B H 60;1DQJ B L 63;16.7667
1DQJ B H 60;1DQJ B K 64;9.31795
1DQJ B H 60;1DQJ B I 67;1.36683
1DQJ B P 61;1DQJ B S 62;24.8046
1DQJ B P 61;1DQJ B L 63;7.67198
1DQJ B P 61;1DQJ B K 64;21.8457
1DQJ B S 62;1DQJ B L 63;28.1385
1DQJ B L 63;1DQJ B K 64;24.8644
1DQJ B L 63;1DQJ B R 66;32.88
1DQJ B L 63;1DQJ B I 67;17.8783
1DQJ B L 63;1DQJ B L 82;12.6361
1DQJ B L 63;1DQJ B D 89;0.391826
1DQJ B K 64;1DQJ B S 65;40.6248
1DQJ B K 64;1DQJ B R 66;1.92031
1DQJ B K 64;1DQJ B I 67;9.22751
1DQJ B S 65;1DQJ B R 66;30.1202
1DQJ B S 65;1DQJ B I 67;12.6035
1DQJ B S 65;1DQJ B N 83;4.20725
1DQJ B R 66;1DQJ B I 67;21.4287
1DQJ B R 66;1DQJ B S 68;0.827238
1DQJ B R 66;1DQJ B Q 81;5.0842
1DQJ B R 66;1DQJ B L 82;24.8205
1DQJ B R 66;1DQJ B N 83;36.3375
1DQJ B R 66;1DQJ B S 84;20.4592
1DQJ B R 66;1DQJ B V 85;5.15465
1DQJ B R 66;1DQJ B T 86;0.260332
1DQJ B R 66;1DQJ B D 89;19.7471
1DQJ B I 67;1DQJ B S 68;27.3304
1DQJ B I 67;1DQJ B I 69;10.7974
1DQJ B I 67;1DQJ B L 80;13.2184
1DQJ B I 67;1DQJ B Q 81;6.03603
1DQJ B I 67;1DQJ B L 82;11.1244
1DQJ B S 68;1DQJ B I 69;22.4533
1DQJ B S 68;1DQJ B T 70;15.1264
1DQJ B S 68;1DQJ B Y 79;0.989085
1DQJ B S 68;1DQJ B L 80;5.93416
1DQJ B S 68;1DQJ B Q 81;37.2641
1DQJ B I 69;1DQJ B T 70;30.6849
1DQJ B I 69;1DQJ B Y 78;6.50261
1DQJ B I 69;1DQJ B Y 79;9.83031
1DQJ B I 69;1DQJ B L 80;6.07469
1DQJ B T 70;1DQJ B R 71;26.2491
1DQJ B T 70;1DQJ B Y 78;6.55547
1DQJ B T 70;1DQJ B Y 79;32.6674
1DQJ B R 71;1DQJ B D 72;25.0507
1DQJ B R 71;1DQJ B T 73;11.56
1DQJ B R 71;1DQJ B Q 77;4.11441
1DQJ B R 71;1DQJ B Y 78;10.6819
1DQJ B R 71;1DQJ B Y 79;7.17345
1DQJ B D 72;1DQJ B T 73;22.023
1DQJ B D 72;1DQJ B S 74;17.2084
1DQJ B D 72;1DQJ B K 75;27.0992
1DQJ B D 72;1DQJ B N 76;5.61454
1DQJ B D 72;1DQJ B Q 77;14.171
1DQJ B D 72;1DQJ B Y 79;18.197
1DQJ B T 73;1DQJ B S 74;29.2024
1DQJ B T 73;1DQJ B K 75;0.88965
1DQJ B T 73;1DQJ B N 76;13.6965
1DQJ B S 74;1DQJ B K 75;30.7458
1DQJ B S 74;1DQJ B N 76;2.59417
1DQJ B K 75;1DQJ B N 76;26.6688
1DQJ B K 75;1DQJ B Q 77;31.3526
1DQJ B K 75;1DQJ B Y 79;10.9999
1DQJ B N 76;1DQJ B Q 77;19.0112
1DQJ B Q 77;1DQJ B Y 78;18.2642
1DQJ B Q 77;1DQJ B Y 79;20.996
1DQJ B Y 78;1DQJ B Y 79;25.2662
1DQJ B Y 78;1DQJ B C 95;8.07935
1DQJ B Y 78;1DQJ B A 96;6.67834
1DQJ B Y 79;1DQJ B L 80;22.6139
1DQJ B Y 79;1DQJ B Q 81;0.0883303
1DQJ B L 80;1DQJ B Q 81;28.3649
1DQJ B L 80;1DQJ B L 82;7.08906
1DQJ B L 80;1DQJ B Y 93;9.98647
1DQJ B Q 81;1DQJ B L 82;19.0362
1DQJ B Q 81;1DQJ B N 83;22.9166
1DQJ B L 82;1DQJ B N 83;19.6712
1DQJ B L 82;1DQJ B V 85;13.6315
1DQJ B L 82;1DQJ B D 89;7.84255
1DQJ B L 82;1DQJ B Y 93;5.70868
1DQJ B N 83;1DQJ B S 84;30.334
1DQJ B N 83;1DQJ B V 85;4.87523
1DQJ B S 84;1DQJ B V 85;18.7945
1DQJ B S 84;1DQJ B T 86;9.06932
1DQJ B S 84;1DQJ B D 89;0.0555275
1DQJ B V 85;1DQJ B T 86;24.0437
1DQJ B V 85;1DQJ B D 89;13.3018
1DQJ B V 85;1DQJ B V 111;16.4896
1DQJ B T 86;1DQJ B T 87;19.3436
1DQJ B T 86;1DQJ B E 88;25.8933
1DQJ B T 86;1DQJ B D 89;19.1286
1DQJ B T 86;1DQJ B T 90;0.0267224
1DQJ B T 86;1DQJ B V 111;11.8656
1DQJ B T 87;1DQJ B E 88;36.2597
1DQJ B T 87;1DQJ B D 89;2.12082
1DQJ B T 87;1DQJ B T 90;19.016
1DQJ B T 87;1DQJ B V 111;21.2707
1DQJ B T 87;1DQJ B S 112;4.12134
1DQJ B T 87;1DQJ B L 176;2.92376
1DQJ B T 87;1DQJ B D 181;3.74842
1DQJ B E 88;1DQJ B D 89;21.3707
1DQJ B E 88;1DQJ B T 90;6.62973
1DQJ B D 89;1DQJ B T 90;17.9849
1DQJ B D 89;1DQJ B A 91;4.89321
1DQJ B D 89;1DQJ B Y 93;13.0478
1DQJ B D 89;1DQJ B V 109;2.48856
1DQJ B D 89;1DQJ B V 111;10.3299
1DQJ B T 90;1DQJ B A 91;22.7181
1DQJ B T 90;1DQJ B T 108;3.41194
1DQJ B T 90;1DQJ B V 109;7.9229
1DQJ B T 90;1DQJ B T 110;20.4048
1DQJ B T 90;1DQJ B V 111;17.9931
1DQJ B T 90;1DQJ B Y 183;0.315014
1DQJ B A 91;1DQJ B T 92;21.7479
1DQJ B A 91;1DQJ B Y 93;16.3714
1DQJ B A 91;1DQJ B T 107;0.474416
1DQJ B A 91;1DQJ B T 108;8.56519
1DQJ B A 91;1DQJ B V 109;13.1825
1DQJ B T 92;1DQJ B Y 93;20.5217
1DQJ B T 92;1DQJ B Y 94;25.297
1DQJ B T 92;1DQJ B A 105;1.21642
1DQJ B T 92;1DQJ B G 106;7.30172
1DQJ B T 92;1DQJ B T 107;8.7241
1DQJ B T 92;1DQJ B T 108;19.9688
1DQJ B Y 93;1DQJ B Y 94;20.739
1DQJ B Y 93;1DQJ B G 106;4.75449
1DQJ B Y 93;1DQJ B T 107;20.851
1DQJ B Y 93;1DQJ B V 109;14.2547
1DQJ B Y 94;1DQJ B C 95;20.1625
1DQJ B Y 94;1DQJ B A 96;0.187996
1DQJ B Y 94;1DQJ B W 103;17.1968
1DQJ B Y 94;1DQJ B G 104;5.74156
1DQJ B Y 94;1DQJ B A 105;7.75797
1DQJ B Y 94;1DQJ B G 106;10.8746
1DQJ B C 95;1DQJ B A 96;17.2661
1DQJ B C 95;1DQJ B W 103;4.85657
1DQJ B C 95;1DQJ B G 104;9.61278
1DQJ B A 96;1DQJ B S 97;24.5133
1DQJ B A 96;1DQJ B W 98;0.21722
1DQJ B A 96;1DQJ B G 100;3.24532
1DQJ B A 96;1DQJ B V 102;6.33799
1DQJ B A 96;1DQJ B W 103;20.5424
1DQJ B S 97;1DQJ B W 98;19.5866
1DQJ B S 97;1DQJ B G 99;8.48756
1DQJ B S 97;1DQJ B G 100;14.1559
1DQJ B S 97;1DQJ B D 101;8.53392
1DQJ B S 97;1DQJ B V 102;23.8854
1DQJ B W 98;1DQJ B G 99;34.3778
1DQJ B W 98;1DQJ B G 100;4.50687
1DQJ B G 99;1DQJ B G 100;16.5221
1DQJ B G 99;1DQJ B D 101;17.1857
1DQJ B G 100;1DQJ B D 101;19.1926
1DQJ B G 100;1DQJ B V 102;3.54892
1DQJ B G 100;1DQJ B W 103;17.1465
1DQJ B D 101;1DQJ B V 102;29.5295
1DQJ B D 101;1DQJ B W 103;2.58439
1DQJ B V 102;1DQJ B W 103;34.1607
1DQJ B W 103;1DQJ B G 104;26.624
1DQJ B W 103;1DQJ B A 105;0.41919
1DQJ B G 104;1DQJ B A 105;20.489
1DQJ B G 104;1DQJ B G 106;2.66003
1DQJ B A 105;1DQJ B G 106;28.0777
1DQJ B G 106;1DQJ B T 107;25.6646
1DQJ B T 107;1DQJ B T 108;30.4457
1DQJ B T 107;1DQJ B V 109;8.84695
1DQJ B T 108;1DQJ B V 109;24.4377
1DQJ B T 108;1DQJ B T 110;13.827
1DQJ B V 109;1DQJ B T 110;22.158
1DQJ B V 109;1DQJ B V 111;5.71846
1DQJ B T 110;1DQJ B V 111;24.0273
1DQJ B T 110;1DQJ B S 112;8.72034
1DQJ B T 110;1DQJ B F 146;7.5788
1DQJ B T 110;1DQJ B P 147;0.625181
1DQJ B T 110;1DQJ B L 176;3.02966
1DQJ B T 110;1DQJ B Y 183;19.7538
1DQJ B V 111;1DQJ B S 112;22.9516
1DQJ B S 112;1DQJ B S 113;21.8134
1DQJ B S 112;1DQJ B A 114;16.2288
1DQJ B S 112;1DQJ B F 146;14.1442
1DQJ B S 112;1DQJ B L 176;1.77463
1DQJ B S 112;1DQJ B D 181;9.67509
1DQJ B S 113;1DQJ B A 114;30.6906
1DQJ B S 113;1DQJ B K 115;9.5539
1DQJ B S 113;1DQJ B D 181;5.24739
1DQJ B A 114;1DQJ B K 115;30.7931
1DQJ B A 114;1DQJ B F 146;22.8172
1DQJ B A 114;1DQJ B D 181;14.5378
1DQJ B A 114;1DQJ B L 182;10.0206
1DQJ B K 115;1DQJ B T 116;31.2341
1DQJ B K 115;1DQJ B T 117;12.7421
1DQJ B K 115;1DQJ B F 146;10.1045
1DQJ B K 115;1DQJ B L 182;1.28629
1DQJ B T 116;1DQJ B T 117;27.2432
1DQJ B T 116;1DQJ B A 118;0.00035192
1DQJ B T 116;1DQJ B F 146;12.0751
1DQJ B T 116;1DQJ B P 147;10.6216
1DQJ B T 116;1DQJ B H 210;2.77664
1DQJ B T 116;1DQJ B A 212;17.9646
1DQJ B T 116;1DQJ B S 213;13.3431
1DQJ B T 117;1DQJ B A 118;33.5091
1DQJ B T 117;1DQJ B P 119;0.398418
1DQJ B T 117;1DQJ B G 144;11.1687
1DQJ B T 117;1DQJ B Y 145;8.61826
1DQJ B T 117;1DQJ B F 146;16.6857
1DQJ B T 117;1DQJ B L 182;17.0512
1DQJ B T 117;1DQJ B H 210;6.25228
1DQJ B T 117;1DQJ B S 213;0.855345
1DQJ B A 118;1DQJ B P 119;32.2625
1DQJ B A 118;1DQJ B S 120;3.54717
1DQJ B A 118;1DQJ B K 143;0.080183
1DQJ B A 118;1DQJ B G 144;4.9159
1DQJ B A 118;1DQJ B Y 145;1.36718
1DQJ B A 118;1DQJ B H 210;2.86099
1DQJ B A 118;1DQJ B S 213;15.3467
1DQJ B A 118;1DQJ B T 215;15.9314
1DQJ B P 119;1DQJ B S 120;25.1674
1DQJ B P 119;1DQJ B V 121;11.5918
1DQJ B P 119;1DQJ B V 142;10.59
1DQJ B P 119;1DQJ B K 143;6.56395
1DQJ B P 119;1DQJ B G 144;1.90698
1DQJ B P 119;1DQJ B Y 145;17.733
1DQJ B P 119;1DQJ B V 150;4.82601
1DQJ B P 119;1DQJ B V 208;10.5209
1DQJ B P 119;1DQJ B H 210;15.5206
1DQJ B P 119;1DQJ B S 213;0.297085
1DQJ B P 119;1DQJ B T 215;5.67922
1DQJ B P 119;1DQJ B V 217;9.32479
1DQJ B S 120;1DQJ B V 121;24.2133
1DQJ B S 120;1DQJ B Y 122;27.8538
1DQJ B S 120;1DQJ B L 141;2.46739
1DQJ B S 120;1DQJ B V 142;3.66566
1DQJ B S 120;1DQJ B K 143;25.5202
1DQJ B V 121;1DQJ B Y 122;30.121
1DQJ B V 121;1DQJ B P 123;0.991489
1DQJ B V 121;1DQJ B C 140;10.7461
1DQJ B V 121;1DQJ B L 141;4.97297
1DQJ B V 121;1DQJ B V 142;9.0148
1DQJ B V 121;1DQJ B C 206;4.17347
1DQJ B V 121;1DQJ B V 208;16.8586
1DQJ B V 121;1DQJ B V 217;20.7533
1DQJ B V 121;1DQJ B D 218;0.452981
1DQJ B V 121;1DQJ B K 219;30.1466
1DQJ B Y 122;1DQJ B P 123;25.5697
1DQJ B Y 122;1DQJ B L 124;7.77019
1DQJ B Y 122;1DQJ B G 139;0.0105334
1DQJ B Y 122;1DQJ B C 140;7.90767
1DQJ B Y 122;1DQJ B L 141;33.4098
1DQJ B Y 122;1DQJ B K 143;13.3796
1DQJ B Y 122;1DQJ B K 219;1.84593
1DQJ B P 123;1DQJ B L 124;24.3182
1DQJ B P 123;1DQJ B A 125;7.16228
1DQJ B P 123;1DQJ B G 139;1.52321
1DQJ B P 123;1DQJ B C 140;1.98
1DQJ B P 123;1DQJ B K 219;19.7791
1DQJ B P 123;1DQJ B K 220;8.84655
1DQJ B P 123;1DQJ B I 221;21.5029
1DQJ B L 124;1DQJ B A 125;19.1024
1DQJ B L 124;1DQJ B L 138;5.8453
1DQJ B L 124;1DQJ B G 139;24.2442
1DQJ B L 124;1DQJ B C 140;8.95651
1DQJ B L 124;1DQJ B L 141;17.5447
1DQJ B L 124;1DQJ B S 186;3.32436
1DQJ B L 124;1DQJ B S 187;0.0297826
1DQJ B L 124;1DQJ B I 221;9.18697
1DQJ B A 125;1DQJ B P 126;32.2823
1DQJ B A 125;1DQJ B V 127;1.37673
1DQJ B A 125;1DQJ B G 129;2.12474
1DQJ B A 125;1DQJ B L 138;3.04848
1DQJ B A 125;1DQJ B W 197;7.52521
1DQJ B A 125;1DQJ B I 221;17.7447
1DQJ B P 126;1DQJ B V 127;20.8094
1DQJ B P 126;1DQJ B C 128;9.24847
1DQJ B P 126;1DQJ B G 129;9.60331
1DQJ B P 126;1DQJ B D 130;25.8638
1DQJ B P 126;1DQJ B T 131;0.0702837
1DQJ B P 126;1DQJ B V 136;11.8849
1DQJ B P 126;1DQJ B T 137;3.69033
1DQJ B P 126;1DQJ B L 138;9.4804
1DQJ B P 126;1DQJ B W 197;11.0178
1DQJ B V 127;1DQJ B C 128;29.9257
1DQJ B V 127;1DQJ B D 130;16.0047
1DQJ B C 128;1DQJ B G 129;26.3399
1DQJ B C 128;1DQJ B D 130;12.1709
1DQJ B G 129;1DQJ B D 130;23.6018
1DQJ B G 129;1DQJ B T 131;4.63718
1DQJ B G 129;1DQJ B W 197;14.0797
1DQJ B D 130;1DQJ B T 131;41.0117
1DQJ B D 130;1DQJ B T 132;11.9133
1DQJ B D 130;1DQJ B V 136;3.61506
1DQJ B D 130;1DQJ B W 197;4.52277
1DQJ B T 131;1DQJ B T 132;36.402
1DQJ B T 131;1DQJ B G 133;4.52081
1DQJ B T 131;1DQJ B S 135;1.01605
1DQJ B T 131;1DQJ B V 136;13.8535
1DQJ B T 131;1DQJ B S 193;20.9792
1DQJ B T 131;1DQJ B W 197;8.57372
1DQJ B T 131;1DQJ B P 198;6.36436
1DQJ B T 132;1DQJ B G 133;40.805
1DQJ B T 132;1DQJ B S 135;3.53824
1DQJ B T 132;1DQJ B V 136;0.000804544
1DQJ B T 132;1DQJ B S 193;0.000889283
1DQJ B G 133;1DQJ B S 134;26.4882
1DQJ B G 133;1DQJ B S 135;13.6486
1DQJ B G 133;1DQJ B S 193;9.45732
1DQJ B S 134;1DQJ B S 135;24.0532
1DQJ B S 134;1DQJ B T 192;13.9469
1DQJ B S 134;1DQJ B S 193;14.4202
1DQJ B S 135;1DQJ B V 136;26.512
1DQJ B S 135;1DQJ B T 137;1.57981
1DQJ B S 135;1DQJ B T 190;14.7089
1DQJ B S 135;1DQJ B V 191;7.5687
1DQJ B S 135;1DQJ B T 192;6.44634
1DQJ B S 135;1DQJ B S 193;10.9766
1DQJ B V 136;1DQJ B T 137;30.0668
1DQJ B V 136;1DQJ B L 138;16.2619
1DQJ B V 136;1DQJ B V 189;0.422971
1DQJ B V 136;1DQJ B T 190;6.99032
1DQJ B V 136;1DQJ B V 191;21.7586
1DQJ B V 136;1DQJ B T 192;3.68517
1DQJ B V 136;1DQJ B S 193;9.83154
1DQJ B V 136;1DQJ B W 197;19.6259
1DQJ B T 137;1DQJ B L 138;23.1689
1DQJ B T 137;1DQJ B S 188;6.84247
1DQJ B T 137;1DQJ B V 189;7.17201
1DQJ B T 137;1DQJ B T 190;24.9938
1DQJ B L 138;1DQJ B G 139;19.4218
1DQJ B L 138;1DQJ B W 155;3.11792
1DQJ B L 138;1DQJ B S 188;6.64008
1DQJ B L 138;1DQJ B V 189;26.8751
1DQJ B L 138;1DQJ B V 191;6.75188
1DQJ B L 138;1DQJ B W 197;20.4991
1DQJ B L 138;1DQJ B I 203;11.9907
1DQJ B L 138;1DQJ B I 221;16.9581
1DQJ B G 139;1DQJ B C 140;15.4045
1DQJ B G 139;1DQJ B W 155;10.4153
1DQJ B G 139;1DQJ B S 187;4.78087
1DQJ B G 139;1DQJ B S 188;2.28723
1DQJ B G 139;1DQJ B I 221;8.09134
1DQJ B C 140;1DQJ B L 141;19.1683
1DQJ B C 140;1DQJ B V 142;7.19106
1DQJ B C 140;1DQJ B L 152;9.12781
1DQJ B C 140;1DQJ B W 155;9.90575
1DQJ B C 140;1DQJ B L 185;0.0299761
1DQJ B C 140;1DQJ B S 186;7.81173
1DQJ B C 140;1DQJ B S 187;15.5103
1DQJ B C 140;1DQJ B C 206;18.7408
1DQJ B C 140;1DQJ B V 208;1.77447
1DQJ B C 140;1DQJ B K 219;1.588
1DQJ B C 140;1DQJ B I 221;1.59895
1DQJ B L 141;1DQJ B V 142;21.209
1DQJ B L 141;1DQJ B K 143;14.7325
1DQJ B L 141;1DQJ B T 184;14.3195
1DQJ B L 141;1DQJ B L 185;5.92621
1DQJ B L 141;1DQJ B S 186;12.3204
1DQJ B V 142;1DQJ B K 143;17.62
1DQJ B V 142;1DQJ B Y 145;14.1033
1DQJ B V 142;1DQJ B V 150;9.98807
1DQJ B V 142;1DQJ B L 152;9.22291
1DQJ B V 142;1DQJ B Y 183;0.30697
1DQJ B V 142;1DQJ B T 184;6.9514
1DQJ B V 142;1DQJ B L 185;28.5677
1DQJ B V 142;1DQJ B S 186;0.280757
1DQJ B V 142;1DQJ B V 208;16.1362
1DQJ B K 143;1DQJ B G 144;30.8695
1DQJ B K 143;1DQJ B Y 145;4.18419
1DQJ B K 143;1DQJ B Q 177;16.7989
1DQJ B K 143;1DQJ B Y 183;1.43829
1DQJ B K 143;1DQJ B T 184;17.6827
1DQJ B G 144;1DQJ B Y 145;17.2131
1DQJ B G 144;1DQJ B L 182;24.9737
1DQJ B G 144;1DQJ B Y 183;6.6891
1DQJ B G 144;1DQJ B T 184;3.83358
1DQJ B Y 145;1DQJ B F 146;20.7141
1DQJ B Y 145;1DQJ B P 147;5.70442
1DQJ B Y 145;1DQJ B E 148;16.9161
1DQJ B Y 145;1DQJ B P 149;1.47913
1DQJ B Y 145;1DQJ B V 150;20.823
1DQJ B Y 145;1DQJ B A 174;7.92223
1DQJ B Y 145;1DQJ B L 182;7.46769
1DQJ B Y 145;1DQJ B Y 183;37.0833
1DQJ B Y 145;1DQJ B T 184;3.2632
1DQJ B Y 145;1DQJ B L 185;12.1077
1DQJ B Y 145;1DQJ B H 210;8.8519
1DQJ B F 146;1DQJ B P 147;42.6187
1DQJ B F 146;1DQJ B L 176;1.81212
1DQJ B F 146;1DQJ B D 181;7.7456
1DQJ B F 146;1DQJ B L 182;10.015
1DQJ B F 146;1DQJ B Y 183;18.7647
1DQJ B F 146;1DQJ B H 210;8.93817
1DQJ B F 146;1DQJ B A 212;0.00558306
1DQJ B P 147;1DQJ B E 148;35.9264
1DQJ B P 147;1DQJ B P 149;1.85888
1DQJ B P 147;1DQJ B Y 183;6.57403
1DQJ B P 147;1DQJ B H 210;10.8833
1DQJ B P 147;1DQJ B A 212;18.8287
1DQJ B E 148;1DQJ B P 149;46.4167
1DQJ B E 148;1DQJ B V 150;5.13596
1DQJ B E 148;1DQJ B A 174;16.1595
1DQJ B E 148;1DQJ B Y 183;26.9495
1DQJ B E 148;1DQJ B L 185;3.55858
1DQJ B E 148;1DQJ B A 212;1.51466
1DQJ B P 149;1DQJ B V 150;29.9412
1DQJ B P 149;1DQJ B T 151;5.60925
1DQJ B P 149;1DQJ B H 210;7.82299
1DQJ B P 149;1DQJ B P 211;21.1887
1DQJ B P 149;1DQJ B A 212;1.2166
1DQJ B V 150;1DQJ B T 151;30.0322
1DQJ B V 150;1DQJ B L 152;6.78153
1DQJ B V 150;1DQJ B L 185;18.2749
1DQJ B V 150;1DQJ B V 208;11.1323
1DQJ B V 150;1DQJ B A 209;7.73289
1DQJ B V 150;1DQJ B H 210;11.8841
1DQJ B V 150;1DQJ B P 211;3.04795
1DQJ B T 151;1DQJ B L 152;25.7862
1DQJ B T 151;1DQJ B T 154;9.40803
1DQJ B T 151;1DQJ B N 207;4.06262
1DQJ B T 151;1DQJ B V 208;6.06347
1DQJ B T 151;1DQJ B A 209;29.3181
1DQJ B T 151;1DQJ B P 211;10.0911
1DQJ B T 151;1DQJ B K 216;0.0984103
1DQJ B L 152;1DQJ B T 154;36.4463
1DQJ B L 152;1DQJ B W 155;13.6561
1DQJ B L 152;1DQJ B V 169;0.775857
1DQJ B L 152;1DQJ B T 171;18.3619
1DQJ B L 152;1DQJ B L 185;11.1965
1DQJ B L 152;1DQJ B S 186;0.0333861
1DQJ B L 152;1DQJ B S 187;15.8143
1DQJ B L 152;1DQJ B C 206;10.0179
1DQJ B L 152;1DQJ B N 207;5.96131
1DQJ B L 152;1DQJ B V 208;11.3725
1DQJ B T 154;1DQJ B W 155;26.0433
1DQJ B T 154;1DQJ B S 161;9.59673
1DQJ B T 154;1DQJ B G 162;13.5617
1DQJ B T 154;1DQJ B T 204;0.428625
1DQJ B T 154;1DQJ B C 206;4.47358
1DQJ B T 154;1DQJ B N 207;31.3865
1DQJ B T 154;1DQJ B K 216;2.75506
1DQJ B W 155;1DQJ B N 160;17.3014
1DQJ B W 155;1DQJ B S 161;1.99088
1DQJ B W 155;1DQJ B G 162;9.01067
1DQJ B W 155;1DQJ B S 163;1.35454
1DQJ B W 155;1DQJ B L 164;31.1938
1DQJ B W 155;1DQJ B V 169;17.7257
1DQJ B W 155;1DQJ B S 187;13.6574
1DQJ B W 155;1DQJ B S 188;4.01964
1DQJ B W 155;1DQJ B V 189;23.6388
1DQJ B W 155;1DQJ B I 203;11.8622
1DQJ B W 155;1DQJ B T 204;10.1394
1DQJ B W 155;1DQJ B C 206;15.4826
1DQJ B W 155;1DQJ B N 207;1.82386
1DQJ B W 155;1DQJ B I 221;11.407
1DQJ B N 160;1DQJ B S 161;24.8437
1DQJ B N 160;1DQJ B G 162;1.80771
1DQJ B N 160;1DQJ B S 163;22.8842
1DQJ B N 160;1DQJ B L 164;19.7711
1DQJ B N 160;1DQJ B Q 201;12.758
1DQJ B N 160;1DQJ B S 202;12.4219
1DQJ B N 160;1DQJ B I 203;11.5762
1DQJ B N 160;1DQJ B T 204;24.9488
1DQJ B N 160;1DQJ B N 207;3.77446
1DQJ B S 161;1DQJ B G 162;21.1801
1DQJ B S 161;1DQJ B S 163;5.46388
1DQJ B S 161;1DQJ B N 207;21.9741
1DQJ B S 161;1DQJ B K 216;3.65606
1DQJ B S 161;1DQJ B D 218;1.16851
1DQJ B G 162;1DQJ B S 163;22.2294
1DQJ B G 162;1DQJ B L 164;8.34564
1DQJ B G 162;1DQJ B S 165;13.8592
1DQJ B S 163;1DQJ B L 164;24.2962
1DQJ B S 163;1DQJ B S 165;3.5938
1DQJ B L 164;1DQJ B S 165;27.5594
1DQJ B L 164;1DQJ B S 166;10.5951
1DQJ B L 164;1DQJ B V 169;5.49484
1DQJ B L 164;1DQJ B V 189;15.6451
1DQJ B L 164;1DQJ B V 191;17.3421
1DQJ B L 164;1DQJ B T 196;3.26126
1DQJ B L 164;1DQJ B I 203;16.8787
1DQJ B S 165;1DQJ B S 166;34.5754
1DQJ B S 165;1DQJ B G 167;0.0539481
1DQJ B S 165;1DQJ B V 169;18.1862
1DQJ B S 166;1DQJ B G 167;26.9676
1DQJ B S 166;1DQJ B V 169;8.0048
1DQJ B S 166;1DQJ B V 189;5.3083
1DQJ B S 166;1DQJ B T 190;4.73716
1DQJ B S 166;1DQJ B V 191;0.203998
1DQJ B G 167;1DQJ B V 169;22.7148
1DQJ B G 167;1DQJ B H 170;6.62517
1DQJ B G 167;1DQJ B S 188;2.64907
1DQJ B G 167;1DQJ B V 189;5.13749
1DQJ B G 167;1DQJ B T 190;26.6796
1DQJ B V 169;1DQJ B H 170;35.1303
1DQJ B V 169;1DQJ B T 171;12.7709
1DQJ B V 169;1DQJ B S 187;5.11525
1DQJ B V 169;1DQJ B S 188;7.24632
1DQJ B V 169;1DQJ B V 189;11.705
1DQJ B H 170;1DQJ B T 171;21.9361
1DQJ B H 170;1DQJ B F 172;16.5434
1DQJ B H 170;1DQJ B S 186;0.0310647
1DQJ B H 170;1DQJ B S 187;5.94374
1DQJ B H 170;1DQJ B S 188;22.5362
1DQJ B H 170;1DQJ B T 190;1.85299
1DQJ B T 171;1DQJ B F 172;25.6977
1DQJ B T 171;1DQJ B P 173;2.39775
1DQJ B T 171;1DQJ B L 185;16.0542
1DQJ B T 171;1DQJ B S 186;3.75651
1DQJ B T 171;1DQJ B S 187;13.7317
1DQJ B F 172;1DQJ B P 173;30.598
1DQJ B F 172;1DQJ B A 174;1.29152
1DQJ B F 172;1DQJ B L 185;13.2584
1DQJ B F 172;1DQJ B S 186;22.1632
1DQJ B F 172;1DQJ B S 187;1.52517
1DQJ B F 172;1DQJ B S 188;4.1889
1DQJ B P 173;1DQJ B A 174;32.0768
1DQJ B P 173;1DQJ B V 175;4.91225
1DQJ B P 173;1DQJ B T 184;1.08128
1DQJ B P 173;1DQJ B L 185;3.13987
1DQJ B A 174;1DQJ B V 175;26.6193
1DQJ B A 174;1DQJ B Y 183;13.4525
1DQJ B A 174;1DQJ B T 184;8.80272
1DQJ B A 174;1DQJ B L 185;15.6185
1DQJ B V 175;1DQJ B L 176;28.4989
1DQJ B V 175;1DQJ B Q 177;3.96669
1DQJ B V 175;1DQJ B L 182;1.00509
1DQJ B V 175;1DQJ B Y 183;10.3759
1DQJ B V 175;1DQJ B T 184;29.5922
1DQJ B L 176;1DQJ B Q 177;22.3974
1DQJ B L 176;1DQJ B S 178;1.60856
1DQJ B L 176;1DQJ B D 181;23.3715
1DQJ B L 176;1DQJ B L 182;9.16004
1DQJ B L 176;1DQJ B Y 183;30.5414
1DQJ B Q 177;1DQJ B S 178;35.6414
1DQJ B Q 177;1DQJ B D 181;2.26262
1DQJ B Q 177;1DQJ B L 182;23.3928
1DQJ B Q 177;1DQJ B T 184;21.8679
1DQJ B S 178;1DQJ B D 181;33.4099
1DQJ B S 178;1DQJ B L 182;14.6632
1DQJ B D 181;1DQJ B L 182;24.2015
1DQJ B D 181;1DQJ B Y 183;0.0641842
1DQJ B L 182;1DQJ B Y 183;20.5834
1DQJ B L 182;1DQJ B T 184;2.03708
1DQJ B Y 183;1DQJ B T 184;19.7268
1DQJ B T 184;1DQJ B L 185;23.642
1DQJ B T 184;1DQJ B S 186;0.0989884
1DQJ B L 185;1DQJ B S 186;33.2076
1DQJ B L 185;1DQJ B S 187;1.35856
1DQJ B S 186;1DQJ B S 187;18.4478
1DQJ B S 187;1DQJ B S 188;18.5671
1DQJ B S 188;1DQJ B V 189;19.2661
1DQJ B S 188;1DQJ B T 190;3.11624
1DQJ B V 189;1DQJ B T 190;22.2567
1DQJ B V 189;1DQJ B V 191;9.27077
1DQJ B V 189;1DQJ B I 203;7.95007
1DQJ B T 190;1DQJ B V 191;32.0499
1DQJ B V 191;1DQJ B T 192;28.3781
1DQJ B V 191;1DQJ B T 196;17.7522
1DQJ B V 191;1DQJ B W 197;6.70653
1DQJ B V 191;1DQJ B I 203;11.9454
1DQJ B T 192;1DQJ B S 193;16.6565
1DQJ B T 192;1DQJ B S 194;24.8605
1DQJ B T 192;1DQJ B T 196;25.0541
1DQJ B T 192;1DQJ B W 197;2.89995
1DQJ B S 193;1DQJ B S 194;24.624
1DQJ B S 193;1DQJ B T 196;2.37831
1DQJ B S 193;1DQJ B W 197;16.0423
1DQJ B S 193;1DQJ B P 198;0.281257
1DQJ B S 193;1DQJ B S 200;1.37649
1DQJ B S 194;1DQJ B T 196;21.2025
1DQJ B S 194;1DQJ B W 197;0.428439
1DQJ B S 194;1DQJ B S 200;15.974
1DQJ B T 196;1DQJ B W 197;20.9862
1DQJ B T 196;1DQJ B S 200;8.32512
1DQJ B T 196;1DQJ B Q 201;32.347
1DQJ B T 196;1DQJ B I 203;8.51166
1DQJ B W 197;1DQJ B P 198;53.9759
1DQJ B W 197;1DQJ B S 200;5.90473
1DQJ B W 197;1DQJ B Q 201;9.81526
1DQJ B W 197;1DQJ B S 202;1.20071
1DQJ B W 197;1DQJ B I 203;23.0094
1DQJ B W 197;1DQJ B K 220;1.19957
1DQJ B W 197;1DQJ B I 221;28.1611
1DQJ B P 198;1DQJ B S 200;29.9904
1DQJ B P 198;1DQJ B Q 201;9.76599
1DQJ B P 198;1DQJ B S 202;2.20488
1DQJ B P 198;1DQJ B K 220;1.82471
1DQJ B S 200;1DQJ B Q 201;25.0978
1DQJ B S 200;1DQJ B S 202;1.6647
1DQJ B Q 201;1DQJ B S 202;37.3844
1DQJ B Q 201;1DQJ B I 203;7.63549
1DQJ B S 202;1DQJ B I 203;24.939
1DQJ B S 202;1DQJ B T 204;8.40579
1DQJ B S 202;1DQJ B K 220;28.5408
1DQJ B I 203;1DQJ B T 204;20.985
1DQJ B I 203;1DQJ B K 219;0.0799843
1DQJ B I 203;1DQJ B K 220;7.80236
1DQJ B I 203;1DQJ B I 221;21.9197
1DQJ B T 204;1DQJ B C 206;20.6273
1DQJ B T 204;1DQJ B N 207;13.2852
1DQJ B T 204;1DQJ B D 218;13.2923
1DQJ B T 204;1DQJ B K 219;10.4646
1DQJ B T 204;1DQJ B K 220;18.0742
1DQJ B T 204;1DQJ B I 221;0.862741
1DQJ B C 206;1DQJ B N 207;20.5213
1DQJ B C 206;1DQJ B V 208;8.50695
1DQJ B C 206;1DQJ B V 217;1.92375
1DQJ B C 206;1DQJ B D 218;4.94599
1DQJ B C 206;1DQJ B K 219;20.4406
1DQJ B C 206;1DQJ B I 221;5.63388
1DQJ B N 207;1DQJ B V 208;20.7962
1DQJ B N 207;1DQJ B A 209;0.642272
1DQJ B N 207;1DQJ B K 216;16.8596
1DQJ B N 207;1DQJ B V 217;3.58229
1DQJ B N 207;1DQJ B D 218;18.3083
1DQJ B V 208;1DQJ B A 209;22.4208
1DQJ B V 208;1DQJ B H 210;1.88003
1DQJ B V 208;1DQJ B T 215;1.16254
1DQJ B V 208;1DQJ B K 216;10.6876
1DQJ B V 208;1DQJ B V 217;23.3697
1DQJ B A 209;1DQJ B H 210;18.9097
1DQJ B A 209;1DQJ B P 211;11.6576
1DQJ B A 209;1DQJ B T 215;5.75839
1DQJ B A 209;1DQJ B K 216;24.3846
1DQJ B H 210;1DQJ B P 211;23.0275
1DQJ B H 210;1DQJ B A 212;13.5977
1DQJ B H 210;1DQJ B S 213;19.1446
1DQJ B H 210;1DQJ B S 214;4.11904
1DQJ B H 210;1DQJ B T 215;22.2742
1DQJ B P 211;1DQJ B A 212;29.1647
1DQJ B P 211;1DQJ B S 213;1.45289
1DQJ B P 211;1DQJ B S 214;17.2258
1DQJ B P 211;1DQJ B T 215;0.0112251
1DQJ B A 212;1DQJ B S 213;19.6101
1DQJ B A 212;1DQJ B S 214;3.38472
1DQJ B S 213;1DQJ B S 214;24.7272
1DQJ B S 213;1DQJ B T 215;22.3251
1DQJ B S 214;1DQJ B T 215;28.4143
1DQJ B T 215;1DQJ B K 216;30.6998
1DQJ B T 215;1DQJ B V 217;9.27614
1DQJ B K 216;1DQJ B V 217;32.8054
1DQJ B K 216;1DQJ B D 218;10.9866
1DQJ B V 217;1DQJ B D 218;35.5986
1DQJ B V 217;1DQJ B K 219;1.95312
1DQJ B D 218;1DQJ B K 219;30.5053
1DQJ B D 218;1DQJ B K 220;0.482378
1DQJ B K 219;1DQJ B K 220;30.6049
1DQJ B K 219;1DQJ B I 221;7.54772
1DQJ B K 220;1DQJ B I 221;37.587
