V1;V2;Weight
1FCC A P 238;1FCC A S 239;28.8559
1FCC A P 238;1FCC A V 263;8.53937
1FCC A P 238;1FCC A V 264;6.41916
1FCC A P 238;1FCC A D 265;28.886
1FCC A P 238;1FCC A V 266;4.08703
1FCC A P 238;1FCC A N 325;6.34871
1FCC A P 238;1FCC A A 327;13.1169
1FCC A P 238;1FCC A L 328;21.8556
1FCC A P 238;1FCC A I 332;9.51323
1FCC A S 239;1FCC A V 240;31.7695
1FCC A S 239;1FCC A F 241;18.5072
1FCC A S 239;1FCC A V 262;1.50407
1FCC A S 239;1FCC A V 263;8.72979
1FCC A S 239;1FCC A V 264;25.2922
1FCC A S 239;1FCC A D 265;5.13063
1FCC A S 239;1FCC A I 332;5.78812
1FCC A S 239;1FCC A K 334;0.518072
1FCC A V 240;1FCC A F 241;25.8639
1FCC A V 240;1FCC A L 242;0.331077
1FCC A V 240;1FCC A C 261;10.2506
1FCC A V 240;1FCC A V 262;5.36702
1FCC A V 240;1FCC A V 263;10.7877
1FCC A V 240;1FCC A C 321;7.2712
1FCC A V 240;1FCC A V 323;22.7902
1FCC A V 240;1FCC A I 332;24.52
1FCC A V 240;1FCC A E 333;0.0154576
1FCC A V 240;1FCC A K 334;28.3589
1FCC A F 241;1FCC A L 242;19.7735
1FCC A F 241;1FCC A F 243;23.7392
1FCC A F 241;1FCC A T 260;2.26682
1FCC A F 241;1FCC A C 261;4.1857
1FCC A F 241;1FCC A V 262;27.7815
1FCC A F 241;1FCC A V 264;21.0498
1FCC A F 241;1FCC A K 334;19.1215
1FCC A L 242;1FCC A F 243;32.3128
1FCC A L 242;1FCC A P 244;2.17529
1FCC A L 242;1FCC A V 259;11.3471
1FCC A L 242;1FCC A T 260;6.48224
1FCC A L 242;1FCC A C 261;8.49682
1FCC A L 242;1FCC A W 277;7.03208
1FCC A L 242;1FCC A Y 319;6.89874
1FCC A L 242;1FCC A K 320;0.00119498
1FCC A L 242;1FCC A C 321;12.6485
1FCC A L 242;1FCC A K 334;28.5636
1FCC A L 242;1FCC A T 335;8.20839
1FCC A L 242;1FCC A I 336;28.3136
1FCC A F 243;1FCC A P 244;35.9163
1FCC A F 243;1FCC A E 258;1.0889
1FCC A F 243;1FCC A V 259;10.044
1FCC A F 243;1FCC A T 260;36.3405
1FCC A F 243;1FCC A V 262;15.8816
1FCC A F 243;1FCC A R 301;2.0693
1FCC A F 243;1FCC A I 336;4.52139
1FCC A P 244;1FCC A P 245;33.8299
1FCC A P 244;1FCC A K 246;3.11761
1FCC A P 244;1FCC A E 258;2.77644
1FCC A P 244;1FCC A V 259;3.36014
1FCC A P 244;1FCC A W 313;17.7374
1FCC A P 244;1FCC A I 336;19.2765
1FCC A P 244;1FCC A S 337;0.641157
1FCC A P 245;1FCC A K 246;25.4171
1FCC A P 245;1FCC A P 247;10.878
1FCC A P 245;1FCC A D 249;3.0609
1FCC A P 245;1FCC A T 250;14.5498
1FCC A P 245;1FCC A P 257;9.5827
1FCC A P 245;1FCC A E 258;18.9001
1FCC A P 245;1FCC A V 259;7.09162
1FCC A P 245;1FCC A V 308;4.34773
1FCC A P 245;1FCC A W 313;25.2639
1FCC A P 245;1FCC A D 376;1.37793
1FCC A K 246;1FCC A P 247;26.1118
1FCC A K 246;1FCC A K 248;8.76495
1FCC A K 246;1FCC A D 249;34.6501
1FCC A K 246;1FCC A T 250;5.33935
1FCC A P 247;1FCC A K 248;21.2513
1FCC A P 247;1FCC A D 249;0.585197
1FCC A P 247;1FCC A T 250;15.0927
1FCC A P 247;1FCC A L 251;16.2211
1FCC A P 247;1FCC A D 376;29.7083
1FCC A P 247;1FCC A I 377;16.5744
1FCC A P 247;1FCC A A 378;6.15627
1FCC A K 248;1FCC A D 249;19.8872
1FCC A K 248;1FCC A T 250;2.22803
1FCC A K 248;1FCC A L 251;8.03829
1FCC A K 248;1FCC A M 252;27.5846
1FCC A K 248;1FCC A R 255;32.8944
1FCC A K 248;1FCC A A 378;22.2757
1FCC A K 248;1FCC A V 379;0.620263
1FCC A K 248;1FCC A E 380;26.133
1FCC A K 248;1FCC A Y 391;2.13955
1FCC A K 248;1FCC A M 428;8.87368
1FCC A D 249;1FCC A T 250;17.2788
1FCC A D 249;1FCC A L 251;0.0605656
1FCC A D 249;1FCC A M 252;4.01468
1FCC A D 249;1FCC A R 255;29.2415
1FCC A D 249;1FCC A T 256;19.2052
1FCC A D 249;1FCC A P 257;10.9864
1FCC A D 249;1FCC A E 258;1.31511
1FCC A D 249;1FCC A H 310;6.90984
1FCC A T 250;1FCC A L 251;31.0679
1FCC A T 250;1FCC A M 252;4.56895
1FCC A T 250;1FCC A I 253;2.60194
1FCC A T 250;1FCC A P 257;9.57102
1FCC A T 250;1FCC A H 310;22.3047
1FCC A T 250;1FCC A W 313;17.9821
1FCC A T 250;1FCC A L 314;15.1466
1FCC A T 250;1FCC A H 435;1.36545
1FCC A L 251;1FCC A M 252;23.8481
1FCC A L 251;1FCC A I 253;7.08846
1FCC A L 251;1FCC A L 314;12.4604
1FCC A L 251;1FCC A D 376;6.42931
1FCC A L 251;1FCC A I 377;4.46413
1FCC A L 251;1FCC A A 378;1.26509
1FCC A L 251;1FCC A M 428;17.4866
1FCC A L 251;1FCC A H 429;11.193
1FCC A L 251;1FCC A E 430;14.7089
1FCC A L 251;1FCC A H 435;29.3885
1FCC A M 252;1FCC A I 253;17.1621
1FCC A M 252;1FCC A S 254;4.42822
1FCC A M 252;1FCC A R 255;28.0235
1FCC A M 252;1FCC A H 310;6.36377
1FCC A M 252;1FCC A E 380;4.86555
1FCC A M 252;1FCC A M 428;23.5129
1FCC A I 253;1FCC A S 254;19.8749
1FCC A I 253;1FCC A R 255;8.65212
1FCC A I 253;1FCC A H 310;29.0
1FCC A I 253;1FCC A H 435;7.41512
1FCC A S 254;1FCC A R 255;31.2215
1FCC A S 254;1FCC A T 256;0.153521
1FCC A R 255;1FCC A T 256;32.9701
1FCC A R 255;1FCC A P 257;1.50404
1FCC A R 255;1FCC A H 310;11.5244
1FCC A T 256;1FCC A P 257;25.5027
1FCC A T 256;1FCC A E 258;17.3345
1FCC A T 256;1FCC A T 307;20.0071
1FCC A T 256;1FCC A H 310;0.433021
1FCC A P 257;1FCC A E 258;18.9984
1FCC A P 257;1FCC A T 307;9.84668
1FCC A P 257;1FCC A V 308;29.4301
1FCC A P 257;1FCC A L 309;2.30225
1FCC A P 257;1FCC A H 310;23.9525
1FCC A P 257;1FCC A W 313;1.79962
1FCC A E 258;1FCC A V 259;18.5165
1FCC A E 258;1FCC A T 260;8.77254
1FCC A E 258;1FCC A V 305;24.7878
1FCC A E 258;1FCC A L 306;4.94439
1FCC A E 258;1FCC A T 307;15.5396
1FCC A E 258;1FCC A V 308;4.77989
1FCC A V 259;1FCC A T 260;17.4963
1FCC A V 259;1FCC A C 261;0.449036
1FCC A V 259;1FCC A W 277;18.3777
1FCC A V 259;1FCC A V 305;8.36812
1FCC A V 259;1FCC A L 306;16.9882
1FCC A V 259;1FCC A V 308;14.2587
1FCC A V 259;1FCC A W 313;8.92249
1FCC A V 259;1FCC A Y 319;15.3402
1FCC A V 259;1FCC A I 336;6.68695
1FCC A T 260;1FCC A C 261;18.5173
1FCC A T 260;1FCC A V 262;11.1528
1FCC A T 260;1FCC A W 277;0.803475
1FCC A T 260;1FCC A V 303;9.16645
1FCC A T 260;1FCC A S 304;2.85963
1FCC A T 260;1FCC A V 305;17.5542
1FCC A C 261;1FCC A V 262;21.4594
1FCC A C 261;1FCC A V 263;3.24878
1FCC A C 261;1FCC A F 275;11.3734
1FCC A C 261;1FCC A W 277;13.6928
1FCC A C 261;1FCC A V 302;0.302815
1FCC A C 261;1FCC A V 303;8.03392
1FCC A C 261;1FCC A S 304;17.4183
1FCC A C 261;1FCC A V 305;0.0276831
1FCC A C 261;1FCC A C 321;16.5144
1FCC A C 261;1FCC A V 323;2.72617
1FCC A V 262;1FCC A V 263;21.7998
1FCC A V 262;1FCC A V 264;11.1509
1FCC A V 262;1FCC A R 301;26.8288
1FCC A V 262;1FCC A V 302;1.43296
1FCC A V 262;1FCC A V 303;17.1058
1FCC A V 263;1FCC A V 264;22.0718
1FCC A V 263;1FCC A V 266;12.3223
1FCC A V 263;1FCC A V 273;15.5165
1FCC A V 263;1FCC A F 275;10.4776
1FCC A V 263;1FCC A R 301;10.189
1FCC A V 263;1FCC A V 302;23.9848
1FCC A V 263;1FCC A V 303;0.11654
1FCC A V 263;1FCC A V 323;15.2849
1FCC A V 264;1FCC A D 265;33.4542
1FCC A V 264;1FCC A V 266;6.73533
1FCC A V 264;1FCC A Y 300;2.11056
1FCC A V 264;1FCC A R 301;15.8259
1FCC A D 265;1FCC A V 266;19.5736
1FCC A D 265;1FCC A S 267;8.5467
1FCC A D 265;1FCC A T 299;27.839
1FCC A D 265;1FCC A Y 300;2.81603
1FCC A V 266;1FCC A S 267;26.4337
1FCC A V 266;1FCC A D 270;13.1002
1FCC A V 266;1FCC A P 271;12.231
1FCC A V 266;1FCC A V 273;7.65731
1FCC A V 266;1FCC A T 299;3.51443
1FCC A V 266;1FCC A Y 300;24.9148
1FCC A V 266;1FCC A R 301;4.80228
1FCC A V 266;1FCC A V 302;14.8564
1FCC A V 266;1FCC A A 327;0.609521
1FCC A S 267;1FCC A H 268;27.0494
1FCC A S 267;1FCC A E 269;13.1663
1FCC A S 267;1FCC A D 270;13.8089
1FCC A S 267;1FCC A P 271;3.2881
1FCC A S 267;1FCC A S 298;5.6305
1FCC A S 267;1FCC A T 299;15.3463
1FCC A S 267;1FCC A Y 300;12.7562
1FCC A S 267;1FCC A A 327;1.32687
1FCC A H 268;1FCC A E 269;33.5194
1FCC A H 268;1FCC A D 270;2.24547
1FCC A H 268;1FCC A P 271;12.2915
1FCC A H 268;1FCC A Q 295;15.9565
1FCC A H 268;1FCC A Y 296;1.00901
1FCC A H 268;1FCC A S 298;23.8609
1FCC A H 268;1FCC A T 299;7.00443
1FCC A H 268;1FCC A Y 300;27.3406
1FCC A E 269;1FCC A D 270;39.2288
1FCC A E 269;1FCC A P 271;8.50806
1FCC A D 270;1FCC A P 271;23.1678
1FCC A D 270;1FCC A Q 272;1.65871
1FCC A D 270;1FCC A V 273;2.25273
1FCC A D 270;1FCC A N 325;18.9538
1FCC A D 270;1FCC A K 326;13.4043
1FCC A D 270;1FCC A A 327;24.8195
1FCC A P 271;1FCC A Q 272;32.6137
1FCC A P 271;1FCC A V 273;13.6871
1FCC A P 271;1FCC A E 293;15.7159
1FCC A P 271;1FCC A Y 300;12.2044
1FCC A P 271;1FCC A V 302;9.01873
1FCC A P 271;1FCC A N 325;0.246178
1FCC A Q 272;1FCC A V 273;17.4482
1FCC A Q 272;1FCC A K 274;6.7567
1FCC A Q 272;1FCC A S 324;1.67076
1FCC A Q 272;1FCC A N 325;21.2463
1FCC A Q 272;1FCC A K 326;2.63036
1FCC A V 273;1FCC A K 274;22.6688
1FCC A V 273;1FCC A F 275;18.294
1FCC A V 273;1FCC A V 302;20.4163
1FCC A V 273;1FCC A V 323;13.7626
1FCC A V 273;1FCC A S 324;6.72936
1FCC A V 273;1FCC A N 325;15.6974
1FCC A K 274;1FCC A F 275;34.4802
1FCC A K 274;1FCC A N 276;18.7819
1FCC A K 274;1FCC A K 322;5.29697
1FCC A K 274;1FCC A V 323;4.64931
1FCC A K 274;1FCC A S 324;26.6284
1FCC A F 275;1FCC A N 276;27.7861
1FCC A F 275;1FCC A W 277;14.8964
1FCC A F 275;1FCC A Q 283;2.98787
1FCC A F 275;1FCC A T 289;5.88542
1FCC A F 275;1FCC A P 291;9.57814
1FCC A F 275;1FCC A V 302;14.2585
1FCC A F 275;1FCC A V 303;3.21714
1FCC A F 275;1FCC A S 304;24.9093
1FCC A F 275;1FCC A C 321;6.91951
1FCC A F 275;1FCC A K 322;4.36196
1FCC A F 275;1FCC A V 323;9.12915
1FCC A N 276;1FCC A W 277;26.2493
1FCC A N 276;1FCC A Y 278;22.4796
1FCC A N 276;1FCC A Q 283;21.0058
1FCC A N 276;1FCC A K 320;3.43235
1FCC A N 276;1FCC A C 321;2.22234
1FCC A N 276;1FCC A K 322;34.1798
1FCC A N 276;1FCC A S 324;0.594576
1FCC A W 277;1FCC A Y 278;21.0477
1FCC A W 277;1FCC A Q 283;11.5035
1FCC A W 277;1FCC A V 284;22.7892
1FCC A W 277;1FCC A A 287;0.263784
1FCC A W 277;1FCC A T 289;17.4547
1FCC A W 277;1FCC A S 304;12.4941
1FCC A W 277;1FCC A V 305;2.01273
1FCC A W 277;1FCC A L 306;32.1845
1FCC A W 277;1FCC A Y 319;6.18627
1FCC A W 277;1FCC A K 320;16.6057
1FCC A W 277;1FCC A C 321;16.1085
1FCC A W 277;1FCC A K 322;0.0127234
1FCC A Y 278;1FCC A V 279;17.3044
1FCC A Y 278;1FCC A D 280;1.84259
1FCC A Y 278;1FCC A G 281;22.2555
1FCC A Y 278;1FCC A V 282;6.4055
1FCC A Y 278;1FCC A Q 283;29.9433
1FCC A Y 278;1FCC A V 284;3.94901
1FCC A Y 278;1FCC A L 306;1.70084
1FCC A Y 278;1FCC A E 318;4.1975
1FCC A Y 278;1FCC A Y 319;2.18504
1FCC A Y 278;1FCC A K 320;47.0377
1FCC A Y 278;1FCC A K 322;27.9705
1FCC A V 279;1FCC A D 280;26.525
1FCC A V 279;1FCC A G 281;3.77236
1FCC A V 279;1FCC A V 282;24.8502
1FCC A V 279;1FCC A V 284;26.6875
1FCC A V 279;1FCC A A 287;0.0154159
1FCC A V 279;1FCC A L 306;10.7027
1FCC A V 279;1FCC A N 312;8.40361
1FCC A V 279;1FCC A K 317;10.3333
1FCC A V 279;1FCC A E 318;3.94189
1FCC A V 279;1FCC A Y 319;24.4092
1FCC A D 280;1FCC A G 281;25.9399
1FCC A D 280;1FCC A V 282;4.21825
1FCC A D 280;1FCC A G 316;1.20261
1FCC A D 280;1FCC A K 317;32.5866
1FCC A D 280;1FCC A E 318;31.9669
1FCC A G 281;1FCC A V 282;24.7031
1FCC A G 281;1FCC A Q 283;1.45303
1FCC A G 281;1FCC A E 318;0.275108
1FCC A G 281;1FCC A K 320;1.98321
1FCC A V 282;1FCC A Q 283;28.4898
1FCC A V 282;1FCC A V 284;9.67385
1FCC A Q 283;1FCC A V 284;26.4466
1FCC A Q 283;1FCC A H 285;43.7428
1FCC A V 284;1FCC A H 285;25.29
1FCC A V 284;1FCC A A 287;23.4498
1FCC A V 284;1FCC A T 289;3.90923
1FCC A V 284;1FCC A L 306;7.30778
1FCC A H 285;1FCC A N 286;33.0894
1FCC A H 285;1FCC A A 287;6.17588
1FCC A H 285;1FCC A T 289;13.6002
1FCC A N 286;1FCC A A 287;20.5266
1FCC A N 286;1FCC A K 288;19.7235
1FCC A N 286;1FCC A T 289;8.05564
1FCC A A 287;1FCC A K 288;22.7594
1FCC A A 287;1FCC A T 289;8.96628
1FCC A A 287;1FCC A L 306;17.9226
1FCC A A 287;1FCC A T 307;7.05535
1FCC A K 288;1FCC A T 289;37.6196
1FCC A K 288;1FCC A K 290;33.1197
1FCC A K 288;1FCC A V 305;6.13482
1FCC A K 288;1FCC A L 306;1.76331
1FCC A K 288;1FCC A T 307;25.7643
1FCC A T 289;1FCC A K 290;24.7485
1FCC A T 289;1FCC A P 291;4.5773
1FCC A T 289;1FCC A S 304;9.67402
1FCC A T 289;1FCC A V 305;7.40753
1FCC A T 289;1FCC A L 306;11.8106
1FCC A K 290;1FCC A P 291;38.2901
1FCC A K 290;1FCC A V 303;1.87882
1FCC A K 290;1FCC A S 304;12.8417
1FCC A K 290;1FCC A V 305;23.6505
1FCC A P 291;1FCC A R 292;37.8393
1FCC A P 291;1FCC A V 302;9.49668
1FCC A P 291;1FCC A V 303;13.9204
1FCC A P 291;1FCC A S 304;8.49872
1FCC A R 292;1FCC A E 293;39.7112
1FCC A R 292;1FCC A Q 294;14.5189
1FCC A R 292;1FCC A R 301;2.58823
1FCC A R 292;1FCC A V 302;8.81462
1FCC A R 292;1FCC A V 303;10.3799
1FCC A E 293;1FCC A Q 294;31.8018
1FCC A E 293;1FCC A Q 295;0.799679
1FCC A E 293;1FCC A Y 300;39.9726
1FCC A E 293;1FCC A R 301;1.36656
1FCC A E 293;1FCC A V 302;10.8191
1FCC A Q 294;1FCC A Q 295;23.1773
1FCC A Q 294;1FCC A Y 296;32.5494
1FCC A Q 294;1FCC A T 299;0.0392974
1FCC A Q 294;1FCC A Y 300;8.68623
1FCC A Q 294;1FCC A R 301;35.4319
1FCC A Q 294;1FCC A V 303;14.1937
1FCC A Q 295;1FCC A Y 296;38.9674
1FCC A Q 295;1FCC A T 299;0.753099
1FCC A Q 295;1FCC A Y 300;34.9083
1FCC A Y 296;1FCC A N 297;34.9948
1FCC A Y 296;1FCC A S 298;6.28573
1FCC A Y 296;1FCC A T 299;22.1643
1FCC A Y 296;1FCC A Y 300;4.67113
1FCC A Y 296;1FCC A R 301;29.8096
1FCC A N 297;1FCC A S 298;37.0693
1FCC A N 297;1FCC A T 299;20.618
1FCC A S 298;1FCC A T 299;26.0036
1FCC A T 299;1FCC A Y 300;26.9509
1FCC A Y 300;1FCC A R 301;22.4284
1FCC A Y 300;1FCC A V 302;2.38816
1FCC A R 301;1FCC A V 302;20.8027
1FCC A R 301;1FCC A V 303;18.1689
1FCC A V 302;1FCC A V 303;26.4437
1FCC A V 303;1FCC A S 304;21.7348
1FCC A V 303;1FCC A V 305;12.8468
1FCC A S 304;1FCC A V 305;25.2771
1FCC A S 304;1FCC A L 306;0.00224388
1FCC A V 305;1FCC A L 306;21.7196
1FCC A V 305;1FCC A T 307;3.17076
1FCC A L 306;1FCC A T 307;32.0661
1FCC A L 306;1FCC A V 308;10.0835
1FCC A L 306;1FCC A Y 319;14.8973
1FCC A L 306;1FCC A K 320;0.473713
1FCC A T 307;1FCC A V 308;30.5331
1FCC A T 307;1FCC A L 309;0.337558
1FCC A V 308;1FCC A L 309;35.8297
1FCC A V 308;1FCC A H 310;0.164109
1FCC A V 308;1FCC A N 312;0.000215648
1FCC A V 308;1FCC A W 313;14.3132
1FCC A V 308;1FCC A Y 319;23.5812
1FCC A L 309;1FCC A H 310;24.2758
1FCC A L 309;1FCC A Q 311;11.0572
1FCC A L 309;1FCC A N 312;34.9296
1FCC A L 309;1FCC A W 313;6.5367
1FCC A L 309;1FCC A Y 319;5.247
1FCC A H 310;1FCC A Q 311;27.7315
1FCC A H 310;1FCC A N 312;0.804163
1FCC A H 310;1FCC A W 313;6.81143
1FCC A H 310;1FCC A L 314;14.9459
1FCC A Q 311;1FCC A N 312;22.8266
1FCC A Q 311;1FCC A W 313;0.260912
1FCC A Q 311;1FCC A L 314;14.1538
1FCC A Q 311;1FCC A D 315;21.1312
1FCC A N 312;1FCC A W 313;16.7913
1FCC A N 312;1FCC A L 314;1.30686
1FCC A N 312;1FCC A D 315;11.3746
1FCC A N 312;1FCC A G 316;2.42756
1FCC A N 312;1FCC A K 317;39.6707
1FCC A N 312;1FCC A Y 319;10.366
1FCC A W 313;1FCC A L 314;25.8229
1FCC A W 313;1FCC A D 315;1.17406
1FCC A W 313;1FCC A G 316;6.92618
1FCC A W 313;1FCC A K 317;8.03229
1FCC A W 313;1FCC A Y 319;19.5943
1FCC A W 313;1FCC A I 336;12.5834
1FCC A W 313;1FCC A S 337;11.8338
1FCC A W 313;1FCC A K 338;36.0429
1FCC A W 313;1FCC A D 376;2.47069
1FCC A L 314;1FCC A D 315;23.8526
1FCC A L 314;1FCC A G 316;2.04017
1FCC A L 314;1FCC A K 338;13.9161
1FCC A L 314;1FCC A E 430;23.9281
1FCC A L 314;1FCC A H 435;22.3779
1FCC A D 315;1FCC A G 316;28.4974
1FCC A D 315;1FCC A K 317;10.0243
1FCC A D 315;1FCC A K 338;0.369278
1FCC A G 316;1FCC A K 317;28.6316
1FCC A G 316;1FCC A E 318;0.808807
1FCC A G 316;1FCC A S 337;5.16131
1FCC A G 316;1FCC A K 338;19.5159
1FCC A G 316;1FCC A K 340;0.0106949
1FCC A K 317;1FCC A E 318;22.2657
1FCC A K 317;1FCC A Y 319;16.7935
1FCC A K 317;1FCC A I 336;1.38893
1FCC A K 317;1FCC A S 337;10.7331
1FCC A K 317;1FCC A K 338;2.11804
1FCC A E 318;1FCC A Y 319;24.7932
1FCC A E 318;1FCC A K 320;3.42405
1FCC A E 318;1FCC A T 335;27.187
1FCC A E 318;1FCC A I 336;7.4152
1FCC A E 318;1FCC A S 337;17.6612
1FCC A E 318;1FCC A K 340;1.33613
1FCC A Y 319;1FCC A K 320;22.1537
1FCC A Y 319;1FCC A C 321;0.202265
1FCC A Y 319;1FCC A K 334;0.919282
1FCC A Y 319;1FCC A T 335;8.04289
1FCC A Y 319;1FCC A I 336;23.444
1FCC A Y 319;1FCC A S 337;0.0273953
1FCC A K 320;1FCC A C 321;21.8712
1FCC A K 320;1FCC A K 322;10.4979
1FCC A K 320;1FCC A E 333;30.7526
1FCC A K 320;1FCC A K 334;6.75919
1FCC A K 320;1FCC A T 335;18.5791
1FCC A C 321;1FCC A K 322;21.4277
1FCC A C 321;1FCC A V 323;8.31514
1FCC A C 321;1FCC A I 332;1.85381
1FCC A C 321;1FCC A E 333;6.62661
1FCC A C 321;1FCC A K 334;18.9872
1FCC A K 322;1FCC A V 323;21.6391
1FCC A K 322;1FCC A S 324;6.93267
1FCC A K 322;1FCC A P 331;19.6834
1FCC A K 322;1FCC A I 332;6.17057
1FCC A K 322;1FCC A E 333;25.5647
1FCC A V 323;1FCC A S 324;26.509
1FCC A V 323;1FCC A N 325;2.46375
1FCC A V 323;1FCC A L 328;9.05047
1FCC A V 323;1FCC A P 331;5.14925
1FCC A V 323;1FCC A I 332;21.3189
1FCC A S 324;1FCC A N 325;29.6277
1FCC A S 324;1FCC A L 328;5.45627
1FCC A S 324;1FCC A A 330;0.0294364
1FCC A S 324;1FCC A P 331;20.7859
1FCC A N 325;1FCC A K 326;29.3572
1FCC A N 325;1FCC A A 327;18.8495
1FCC A N 325;1FCC A L 328;23.8655
1FCC A K 326;1FCC A A 327;19.185
1FCC A K 326;1FCC A L 328;18.4399
1FCC A A 327;1FCC A L 328;24.2665
1FCC A A 327;1FCC A P 329;2.15406
1FCC A L 328;1FCC A P 329;46.9501
1FCC A L 328;1FCC A A 330;19.6701
1FCC A L 328;1FCC A P 331;2.31203
1FCC A L 328;1FCC A I 332;25.376
1FCC A P 329;1FCC A A 330;38.9441
1FCC A P 329;1FCC A P 331;0.00468655
1FCC A A 330;1FCC A P 331;43.1725
1FCC A A 330;1FCC A I 332;4.7296
1FCC A P 331;1FCC A I 332;25.2691
1FCC A P 331;1FCC A E 333;9.95911
1FCC A I 332;1FCC A E 333;33.7363
1FCC A I 332;1FCC A K 334;9.76049
1FCC A E 333;1FCC A K 334;26.7107
1FCC A E 333;1FCC A T 335;6.24657
1FCC A K 334;1FCC A T 335;27.8268
1FCC A T 335;1FCC A I 336;27.8102
1FCC A I 336;1FCC A S 337;36.22
1FCC A S 337;1FCC A K 338;29.4542
1FCC A S 337;1FCC A A 339;5.9795
1FCC A S 337;1FCC A K 340;18.7699
1FCC A K 338;1FCC A A 339;44.8273
1FCC A K 338;1FCC A K 340;11.5944
1FCC A K 338;1FCC A G 341;7.84386
1FCC A K 338;1FCC A P 343;3.51168
1FCC A K 338;1FCC A P 374;13.2195
1FCC A K 338;1FCC A E 430;22.9929
1FCC A A 339;1FCC A K 340;30.8902
1FCC A A 339;1FCC A G 341;0.284091
1FCC A A 339;1FCC A Y 373;8.31634
1FCC A A 339;1FCC A P 374;17.7102
1FCC A A 339;1FCC A D 376;10.9966
1FCC A K 340;1FCC A G 341;29.7603
1FCC A K 340;1FCC A Y 373;17.0076
1FCC A K 340;1FCC A P 374;0.0451582
1FCC A G 341;1FCC A Q 342;29.461
1FCC A G 341;1FCC A P 343;10.2159
1FCC A G 341;1FCC A Y 373;16.4265
1FCC A G 341;1FCC A P 374;2.50996
1FCC A Q 342;1FCC A P 343;36.8345
1FCC A Q 342;1FCC A R 344;8.01309
1FCC A Q 342;1FCC A Y 373;11.214
1FCC A P 343;1FCC A R 344;22.9681
1FCC A P 343;1FCC A E 345;3.5014
1FCC A P 343;1FCC A Y 373;8.99311
1FCC A P 343;1FCC A P 374;9.06566
1FCC A P 343;1FCC A H 429;0.03072
1FCC A P 343;1FCC A E 430;15.1374
1FCC A P 343;1FCC A A 431;15.8991
1FCC A R 344;1FCC A E 345;24.4322
1FCC A R 344;1FCC A P 346;2.1403
1FCC A R 344;1FCC A G 371;7.68587
1FCC A R 344;1FCC A F 372;11.1309
1FCC A R 344;1FCC A Y 373;26.1053
1FCC A R 344;1FCC A D 401;21.0213
1FCC A R 344;1FCC A G 402;11.6999
1FCC A R 344;1FCC A S 403;16.6631
1FCC A R 344;1FCC A H 429;2.45739
1FCC A R 344;1FCC A A 431;4.72846
1FCC A E 345;1FCC A P 346;30.1464
1FCC A E 345;1FCC A Q 347;10.9237
1FCC A E 345;1FCC A G 371;8.50172
1FCC A E 345;1FCC A F 372;0.0685351
1FCC A E 345;1FCC A A 431;20.9708
1FCC A E 345;1FCC A L 432;19.1833
1FCC A E 345;1FCC A H 433;11.792
1FCC A P 346;1FCC A Q 347;25.5936
1FCC A P 346;1FCC A V 348;7.74117
1FCC A P 346;1FCC A V 369;8.79763
1FCC A P 346;1FCC A K 370;3.02865
1FCC A P 346;1FCC A G 371;4.16524
1FCC A P 346;1FCC A F 372;16.1183
1FCC A P 346;1FCC A I 377;2.7202
1FCC A P 346;1FCC A V 427;3.97407
1FCC A P 346;1FCC A H 429;15.6083
1FCC A P 346;1FCC A A 431;3.56966
1FCC A P 346;1FCC A L 432;22.2883
1FCC A Q 347;1FCC A V 348;25.5733
1FCC A Q 347;1FCC A Y 349;26.4433
1FCC A Q 347;1FCC A L 368;1.22685
1FCC A Q 347;1FCC A V 369;8.0137
1FCC A Q 347;1FCC A K 370;35.9625
1FCC A Q 347;1FCC A G 371;3.57553
1FCC A V 348;1FCC A Y 349;25.8726
1FCC A V 348;1FCC A T 350;2.75064
1FCC A V 348;1FCC A C 367;7.82812
1FCC A V 348;1FCC A L 368;7.46903
1FCC A V 348;1FCC A V 369;9.0063
1FCC A V 348;1FCC A C 425;5.4474
1FCC A V 348;1FCC A V 427;20.1682
1FCC A V 348;1FCC A L 432;6.07746
1FCC A V 348;1FCC A T 437;14.3496
1FCC A V 348;1FCC A Q 438;0.561546
1FCC A V 348;1FCC A K 439;28.5335
1FCC A Y 349;1FCC A T 350;24.1956
1FCC A Y 349;1FCC A L 351;7.71975
1FCC A Y 349;1FCC A C 367;3.54186
1FCC A Y 349;1FCC A L 368;37.509
1FCC A Y 349;1FCC A K 370;16.293
1FCC A Y 349;1FCC A K 439;13.6212
1FCC A T 350;1FCC A L 351;26.5521
1FCC A T 350;1FCC A P 352;3.0448
1FCC A T 350;1FCC A T 366;5.43898
1FCC A T 350;1FCC A C 367;12.1809
1FCC A T 350;1FCC A L 368;0.255919
1FCC A T 350;1FCC A W 381;2.08046
1FCC A T 350;1FCC A C 425;7.79907
1FCC A T 350;1FCC A K 439;23.4044
1FCC A T 350;1FCC A S 440;12.7931
1FCC A T 350;1FCC A L 441;22.6981
1FCC A L 351;1FCC A P 352;33.8991
1FCC A L 351;1FCC A S 364;0.284045
1FCC A L 351;1FCC A L 365;2.6201
1FCC A L 351;1FCC A T 366;33.3042
1FCC A L 351;1FCC A C 367;0.0630017
1FCC A L 351;1FCC A L 368;15.3163
1FCC A L 351;1FCC A Y 407;3.58595
1FCC A L 351;1FCC A L 441;7.82524
1FCC A P 352;1FCC A P 353;37.9806
1FCC A P 352;1FCC A S 364;2.56643
1FCC A P 352;1FCC A L 365;6.62779
1FCC A P 352;1FCC A T 366;0.708577
1FCC A P 352;1FCC A W 417;13.2917
1FCC A P 352;1FCC A L 441;12.9058
1FCC A P 352;1FCC A S 442;0.888824
1FCC A P 353;1FCC A S 354;30.0773
1FCC A P 353;1FCC A R 355;4.79103
1FCC A P 353;1FCC A E 357;9.41843
1FCC A P 353;1FCC A M 358;13.2236
1FCC A P 353;1FCC A V 363;14.8615
1FCC A P 353;1FCC A S 364;14.7795
1FCC A P 353;1FCC A L 365;6.89986
1FCC A P 353;1FCC A W 417;17.2634
1FCC A S 354;1FCC A R 355;23.9879
1FCC A S 354;1FCC A E 356;11.8641
1FCC A S 354;1FCC A E 357;16.6376
1FCC A S 354;1FCC A M 358;8.66677
1FCC A R 355;1FCC A E 356;26.7028
1FCC A R 355;1FCC A E 357;0.607267
1FCC A R 355;1FCC A M 358;19.8685
1FCC A R 355;1FCC A T 359;2.8777
1FCC A E 356;1FCC A E 357;16.2498
1FCC A E 356;1FCC A M 358;2.82668
1FCC A E 356;1FCC A T 359;17.1673
1FCC A E 356;1FCC A K 360;1.69313
1FCC A E 357;1FCC A M 358;16.0832
1FCC A E 357;1FCC A T 359;2.29861
1FCC A E 357;1FCC A K 360;17.0795
1FCC A E 357;1FCC A Q 362;4.47811
1FCC A E 357;1FCC A V 363;17.7864
1FCC A E 357;1FCC A S 364;16.7288
1FCC A M 358;1FCC A T 359;22.1219
1FCC A M 358;1FCC A K 360;7.496
1FCC A M 358;1FCC A V 363;12.9666
1FCC A M 358;1FCC A K 414;29.5656
1FCC A M 358;1FCC A W 417;16.3959
1FCC A M 358;1FCC A Q 418;12.9789
1FCC A M 358;1FCC A L 443;9.21335
1FCC A T 359;1FCC A K 360;37.9795
1FCC A T 359;1FCC A K 414;5.46025
1FCC A K 360;1FCC A N 361;30.809
1FCC A K 360;1FCC A Q 362;11.7485
1FCC A K 360;1FCC A V 363;2.56351
1FCC A K 360;1FCC A K 414;14.4604
1FCC A N 361;1FCC A Q 362;31.7049
1FCC A N 361;1FCC A D 413;7.36816
1FCC A N 361;1FCC A K 414;14.2839
1FCC A Q 362;1FCC A V 363;21.9321
1FCC A Q 362;1FCC A N 390;8.77571
1FCC A Q 362;1FCC A T 411;21.3671
1FCC A Q 362;1FCC A V 412;11.301
1FCC A Q 362;1FCC A D 413;23.4837
1FCC A Q 362;1FCC A K 414;3.65036
1FCC A V 363;1FCC A S 364;22.7459
1FCC A V 363;1FCC A L 365;4.75333
1FCC A V 363;1FCC A L 410;0.565297
1FCC A V 363;1FCC A T 411;9.4078
1FCC A V 363;1FCC A V 412;23.2891
1FCC A V 363;1FCC A D 413;0.0477154
1FCC A V 363;1FCC A K 414;16.319
1FCC A V 363;1FCC A W 417;14.0978
1FCC A S 364;1FCC A L 365;21.477
1FCC A S 364;1FCC A T 366;8.36111
1FCC A S 364;1FCC A K 409;17.0122
1FCC A S 364;1FCC A L 410;3.00771
1FCC A S 364;1FCC A T 411;9.28772
1FCC A L 365;1FCC A T 366;19.0332
1FCC A L 365;1FCC A W 381;14.0247
1FCC A L 365;1FCC A S 408;0.558619
1FCC A L 365;1FCC A K 409;7.23847
1FCC A L 365;1FCC A L 410;29.9051
1FCC A L 365;1FCC A V 412;11.1857
1FCC A L 365;1FCC A W 417;18.372
1FCC A L 365;1FCC A F 423;15.8623
1FCC A L 365;1FCC A L 441;16.2142
1FCC A T 366;1FCC A C 367;22.0334
1FCC A T 366;1FCC A L 368;2.98831
1FCC A T 366;1FCC A W 381;5.21986
1FCC A T 366;1FCC A Y 407;11.3982
1FCC A T 366;1FCC A S 408;5.54115
1FCC A T 366;1FCC A K 409;3.25051
1FCC A T 366;1FCC A L 441;3.94783
1FCC A C 367;1FCC A L 368;21.7388
1FCC A C 367;1FCC A V 369;9.88243
1FCC A C 367;1FCC A V 379;1.17034
1FCC A C 367;1FCC A W 381;11.1112
1FCC A C 367;1FCC A L 406;2.47466
1FCC A C 367;1FCC A Y 407;4.21012
1FCC A C 367;1FCC A S 408;22.3615
1FCC A C 367;1FCC A C 425;20.3517
1FCC A C 367;1FCC A V 427;1.19289
1FCC A L 368;1FCC A V 369;24.3938
1FCC A L 368;1FCC A K 370;17.6871
1FCC A L 368;1FCC A F 405;5.64901
1FCC A L 368;1FCC A L 406;6.61735
1FCC A L 368;1FCC A Y 407;26.3134
1FCC A V 369;1FCC A K 370;16.8946
1FCC A V 369;1FCC A F 372;14.7524
1FCC A V 369;1FCC A I 377;7.83478
1FCC A V 369;1FCC A V 379;7.37446
1FCC A V 369;1FCC A F 405;3.6966
1FCC A V 369;1FCC A L 406;27.1276
1FCC A V 369;1FCC A S 408;0.294544
1FCC A V 369;1FCC A C 425;0.0668966
1FCC A V 369;1FCC A V 427;14.6506
1FCC A K 370;1FCC A G 371;30.3082
1FCC A K 370;1FCC A F 372;4.75494
1FCC A K 370;1FCC A D 399;5.9523
1FCC A K 370;1FCC A F 404;1.94159
1FCC A K 370;1FCC A F 405;11.6838
1FCC A G 371;1FCC A F 372;15.9752
1FCC A G 371;1FCC A D 399;1.80119
1FCC A G 371;1FCC A D 401;0.297353
1FCC A G 371;1FCC A S 403;19.0813
1FCC A G 371;1FCC A F 404;7.04179
1FCC A G 371;1FCC A F 405;0.849559
1FCC A F 372;1FCC A Y 373;20.9082
1FCC A F 372;1FCC A P 374;6.54649
1FCC A F 372;1FCC A S 375;7.6462
1FCC A F 372;1FCC A I 377;19.5075
1FCC A F 372;1FCC A P 396;8.25138
1FCC A F 372;1FCC A S 403;8.01276
1FCC A F 372;1FCC A F 404;33.5295
1FCC A F 372;1FCC A F 405;6.11614
1FCC A F 372;1FCC A L 406;12.3862
1FCC A F 372;1FCC A H 429;9.16113
1FCC A Y 373;1FCC A P 374;43.0811
1FCC A Y 373;1FCC A S 375;0.541303
1FCC A Y 373;1FCC A G 402;11.0602
1FCC A Y 373;1FCC A S 403;2.7744
1FCC A Y 373;1FCC A F 404;20.8088
1FCC A Y 373;1FCC A H 429;7.10822
1FCC A Y 373;1FCC A A 431;1.42907
1FCC A P 374;1FCC A S 375;21.173
1FCC A P 374;1FCC A D 376;20.0603
1FCC A P 374;1FCC A I 377;0.750305
1FCC A P 374;1FCC A F 404;1.6527
1FCC A P 374;1FCC A H 429;15.2358
1FCC A P 374;1FCC A E 430;13.9899
1FCC A P 374;1FCC A A 431;0.0034745
1FCC A S 375;1FCC A D 376;27.8094
1FCC A S 375;1FCC A I 377;11.0738
1FCC A S 375;1FCC A P 396;24.2986
1FCC A S 375;1FCC A F 404;29.0656
1FCC A D 376;1FCC A I 377;22.8152
1FCC A D 376;1FCC A H 429;11.0674
1FCC A D 376;1FCC A E 430;1.74811
1FCC A I 377;1FCC A A 378;33.3783
1FCC A I 377;1FCC A V 379;4.86298
1FCC A I 377;1FCC A P 396;4.55326
1FCC A I 377;1FCC A L 406;18.5904
1FCC A I 377;1FCC A V 427;10.6137
1FCC A I 377;1FCC A M 428;9.17982
1FCC A I 377;1FCC A H 429;14.0884
1FCC A A 378;1FCC A V 379;33.0996
1FCC A A 378;1FCC A E 380;0.81992
1FCC A A 378;1FCC A L 406;0.892299
1FCC A A 378;1FCC A S 426;0.517376
1FCC A A 378;1FCC A V 427;2.13681
1FCC A A 378;1FCC A M 428;29.2098
1FCC A V 379;1FCC A E 380;32.6895
1FCC A V 379;1FCC A W 381;5.61042
1FCC A V 379;1FCC A Y 391;10.9687
1FCC A V 379;1FCC A T 393;15.5925
1FCC A V 379;1FCC A L 406;12.9309
1FCC A V 379;1FCC A S 408;13.2025
1FCC A V 379;1FCC A C 425;10.6872
1FCC A V 379;1FCC A S 426;7.69812
1FCC A V 379;1FCC A V 427;11.9591
1FCC A E 380;1FCC A W 381;30.6048
1FCC A E 380;1FCC A E 382;1.16457
1FCC A E 380;1FCC A P 387;5.10684
1FCC A E 380;1FCC A Y 391;17.9586
1FCC A E 380;1FCC A C 425;4.35911
1FCC A E 380;1FCC A S 426;22.092
1FCC A E 380;1FCC A M 428;12.7346
1FCC A W 381;1FCC A E 382;26.7262
1FCC A W 381;1FCC A P 387;7.52501
1FCC A W 381;1FCC A E 388;14.4775
1FCC A W 381;1FCC A Y 391;26.3541
1FCC A W 381;1FCC A S 408;16.151
1FCC A W 381;1FCC A K 409;1.04436
1FCC A W 381;1FCC A L 410;31.154
1FCC A W 381;1FCC A F 423;8.13524
1FCC A W 381;1FCC A S 424;13.6474
1FCC A W 381;1FCC A C 425;20.0494
1FCC A W 381;1FCC A S 426;0.750431
1FCC A W 381;1FCC A L 441;12.6174
1FCC A E 382;1FCC A S 383;24.9812
1FCC A E 382;1FCC A G 385;9.76936
1FCC A E 382;1FCC A Q 386;8.45786
1FCC A E 382;1FCC A P 387;11.2176
1FCC A E 382;1FCC A E 388;8.29447
1FCC A E 382;1FCC A V 422;0.228318
1FCC A E 382;1FCC A F 423;4.54625
1FCC A E 382;1FCC A S 424;29.2588
1FCC A E 382;1FCC A S 426;9.98272
1FCC A E 382;1FCC A Y 436;1.1938
1FCC A E 382;1FCC A Q 438;13.9029
1FCC A S 383;1FCC A N 384;28.5184
1FCC A S 383;1FCC A G 385;8.24502
1FCC A S 383;1FCC A Q 386;21.1237
1FCC A S 383;1FCC A E 388;13.524
1FCC A S 383;1FCC A R 416;14.7599
1FCC A S 383;1FCC A N 421;5.43957
1FCC A S 383;1FCC A V 422;13.0029
1FCC A S 383;1FCC A F 423;13.1546
1FCC A S 383;1FCC A S 424;2.83427
1FCC A N 384;1FCC A G 385;21.7534
1FCC A N 384;1FCC A Q 386;18.085
1FCC A N 384;1FCC A N 421;5.6062
1FCC A N 384;1FCC A V 422;27.8206
1FCC A G 385;1FCC A Q 386;23.8421
1FCC A G 385;1FCC A P 387;4.81293
1FCC A Q 386;1FCC A P 387;34.2857
1FCC A Q 386;1FCC A E 388;1.76793
1FCC A P 387;1FCC A E 388;30.681
1FCC A P 387;1FCC A N 389;14.3544
1FCC A E 388;1FCC A N 389;32.8424
1FCC A E 388;1FCC A N 390;0.846432
1FCC A E 388;1FCC A Y 391;10.7739
1FCC A E 388;1FCC A L 410;19.1196
1FCC A E 388;1FCC A T 411;2.87748
1FCC A E 388;1FCC A V 412;6.88435
1FCC A E 388;1FCC A R 416;23.3294
1FCC A E 388;1FCC A F 423;12.59
1FCC A N 389;1FCC A N 390;28.925
1FCC A N 389;1FCC A Y 391;27.1159
1FCC A N 389;1FCC A L 410;0.596366
1FCC A N 390;1FCC A Y 391;24.2487
1FCC A N 390;1FCC A K 392;0.88453
1FCC A N 390;1FCC A L 410;9.44606
1FCC A N 390;1FCC A T 411;36.555
1FCC A Y 391;1FCC A K 392;39.2778
1FCC A Y 391;1FCC A T 393;13.3782
1FCC A Y 391;1FCC A S 408;5.0253
1FCC A Y 391;1FCC A K 409;8.33276
1FCC A Y 391;1FCC A L 410;14.0891
1FCC A Y 391;1FCC A T 411;0.409579
1FCC A K 392;1FCC A T 393;26.6771
1FCC A K 392;1FCC A S 408;6.7054
1FCC A K 392;1FCC A K 409;21.3673
1FCC A T 393;1FCC A T 394;26.44
1FCC A T 393;1FCC A P 395;7.457
1FCC A T 393;1FCC A L 406;10.8464
1FCC A T 393;1FCC A Y 407;3.59035
1FCC A T 393;1FCC A S 408;16.6247
1FCC A T 394;1FCC A P 395;32.9639
1FCC A T 394;1FCC A P 396;0.205234
1FCC A T 394;1FCC A L 406;13.0478
1FCC A T 394;1FCC A Y 407;24.258
1FCC A T 394;1FCC A S 408;0.00199817
1FCC A P 395;1FCC A P 396;39.5379
1FCC A P 395;1FCC A V 397;9.74039
1FCC A P 395;1FCC A F 405;0.696841
1FCC A P 395;1FCC A L 406;4.09454
1FCC A P 396;1FCC A V 397;24.0933
1FCC A P 396;1FCC A F 404;13.6269
1FCC A P 396;1FCC A F 405;4.42629
1FCC A P 396;1FCC A L 406;11.3058
1FCC A V 397;1FCC A L 398;32.3358
1FCC A V 397;1FCC A D 399;2.04289
1FCC A V 397;1FCC A F 404;12.4105
1FCC A V 397;1FCC A F 405;35.7713
1FCC A V 397;1FCC A L 406;0.0961654
1FCC A L 398;1FCC A D 399;33.5347
1FCC A L 398;1FCC A G 402;18.3291
1FCC A L 398;1FCC A S 403;4.76107
1FCC A L 398;1FCC A F 404;23.7239
1FCC A L 398;1FCC A F 405;1.07652
1FCC A D 399;1FCC A S 400;35.2873
1FCC A D 399;1FCC A D 401;15.6856
1FCC A D 399;1FCC A G 402;6.28812
1FCC A D 399;1FCC A S 403;18.5328
1FCC A D 399;1FCC A F 404;4.90115
1FCC A D 399;1FCC A F 405;16.5415
1FCC A S 400;1FCC A D 401;28.4796
1FCC A S 400;1FCC A G 402;4.51726
1FCC A D 401;1FCC A G 402;20.2161
1FCC A D 401;1FCC A S 403;23.9716
1FCC A G 402;1FCC A S 403;18.8323
1FCC A G 402;1FCC A F 404;2.92335
1FCC A S 403;1FCC A F 404;21.0968
1FCC A F 404;1FCC A F 405;20.2841
1FCC A F 405;1FCC A L 406;23.8892
1FCC A F 405;1FCC A Y 407;13.9744
1FCC A L 406;1FCC A Y 407;27.2565
1FCC A L 406;1FCC A S 408;5.50955
1FCC A Y 407;1FCC A S 408;20.3381
1FCC A S 408;1FCC A K 409;20.2472
1FCC A S 408;1FCC A L 410;0.212334
1FCC A K 409;1FCC A L 410;19.7183
1FCC A K 409;1FCC A T 411;15.3364
1FCC A L 410;1FCC A T 411;28.3365
1FCC A L 410;1FCC A V 412;8.02709
1FCC A L 410;1FCC A F 423;10.3491
1FCC A T 411;1FCC A V 412;31.8064
1FCC A V 412;1FCC A D 413;28.1776
1FCC A V 412;1FCC A K 414;1.50187
1FCC A V 412;1FCC A R 416;14.1844
1FCC A V 412;1FCC A W 417;9.57209
1FCC A V 412;1FCC A F 423;14.643
1FCC A D 413;1FCC A K 414;17.1128
1FCC A D 413;1FCC A S 415;17.7233
1FCC A D 413;1FCC A R 416;21.57
1FCC A D 413;1FCC A W 417;3.96437
1FCC A K 414;1FCC A S 415;21.7597
1FCC A K 414;1FCC A R 416;0.342521
1FCC A K 414;1FCC A W 417;11.643
1FCC A K 414;1FCC A Q 418;38.2851
1FCC A S 415;1FCC A R 416;25.8665
1FCC A S 415;1FCC A W 417;1.49883
1FCC A S 415;1FCC A Q 418;15.4379
1FCC A S 415;1FCC A Q 419;18.6485
1FCC A R 416;1FCC A W 417;19.6484
1FCC A R 416;1FCC A Q 418;0.957216
1FCC A R 416;1FCC A Q 419;13.1484
1FCC A R 416;1FCC A G 420;2.60552
1FCC A R 416;1FCC A N 421;35.2176
1FCC A R 416;1FCC A F 423;17.9916
1FCC A W 417;1FCC A Q 418;20.3795
1FCC A W 417;1FCC A Q 419;0.178076
1FCC A W 417;1FCC A G 420;5.07594
1FCC A W 417;1FCC A N 421;9.60565
1FCC A W 417;1FCC A F 423;14.6547
1FCC A W 417;1FCC A L 441;10.6933
1FCC A W 417;1FCC A S 442;12.3799
1FCC A W 417;1FCC A L 443;38.1969
1FCC A Q 418;1FCC A Q 419;23.7952
1FCC A Q 418;1FCC A G 420;6.66488
1FCC A Q 418;1FCC A L 443;19.0712
1FCC A Q 419;1FCC A G 420;22.5573
1FCC A Q 419;1FCC A N 421;19.1533
1FCC A G 420;1FCC A N 421;26.7235
1FCC A G 420;1FCC A V 422;5.54872
1FCC A G 420;1FCC A S 442;10.7308
1FCC A G 420;1FCC A L 443;14.9794
1FCC A N 421;1FCC A V 422;25.4499
1FCC A N 421;1FCC A F 423;19.3166
1FCC A N 421;1FCC A L 441;0.960023
1FCC A N 421;1FCC A S 442;7.49839
1FCC A N 421;1FCC A L 443;2.01468
1FCC A V 422;1FCC A F 423;22.6817
1FCC A V 422;1FCC A S 424;4.21931
1FCC A V 422;1FCC A S 440;16.256
1FCC A V 422;1FCC A L 441;5.24878
1FCC A V 422;1FCC A S 442;16.276
1FCC A F 423;1FCC A S 424;22.2487
1FCC A F 423;1FCC A S 440;5.66773
1FCC A F 423;1FCC A L 441;24.025
1FCC A S 424;1FCC A C 425;17.7651
1FCC A S 424;1FCC A S 426;4.67598
1FCC A S 424;1FCC A Q 438;19.8846
1FCC A S 424;1FCC A K 439;7.01983
1FCC A S 424;1FCC A S 440;14.1713
1FCC A S 424;1FCC A L 441;1.16484
1FCC A C 425;1FCC A S 426;17.9406
1FCC A C 425;1FCC A V 427;8.89803
1FCC A C 425;1FCC A Q 438;5.24536
1FCC A C 425;1FCC A K 439;16.098
1FCC A C 425;1FCC A S 440;0.00133495
1FCC A C 425;1FCC A L 441;0.558996
1FCC A S 426;1FCC A V 427;20.7054
1FCC A S 426;1FCC A M 428;5.54711
1FCC A S 426;1FCC A Y 436;13.364
1FCC A S 426;1FCC A T 437;3.21215
1FCC A S 426;1FCC A Q 438;13.0247
1FCC A V 427;1FCC A M 428;26.0144
1FCC A V 427;1FCC A H 429;3.04129
1FCC A V 427;1FCC A L 432;11.1065
1FCC A V 427;1FCC A Y 436;6.64756
1FCC A V 427;1FCC A T 437;17.7885
1FCC A V 427;1FCC A Q 438;1.72871
1FCC A M 428;1FCC A H 429;20.1618
1FCC A M 428;1FCC A L 432;0.474451
1FCC A M 428;1FCC A H 435;9.95048
1FCC A M 428;1FCC A Y 436;20.7874
1FCC A H 429;1FCC A E 430;26.1466
1FCC A H 429;1FCC A A 431;15.2376
1FCC A H 429;1FCC A L 432;19.449
1FCC A H 429;1FCC A H 435;18.1575
1FCC A H 429;1FCC A Y 436;0.831426
1FCC A E 430;1FCC A A 431;23.6696
1FCC A E 430;1FCC A L 432;6.82582
1FCC A E 430;1FCC A H 435;17.6846
1FCC A A 431;1FCC A L 432;25.3995
1FCC A A 431;1FCC A H 433;1.01836
1FCC A L 432;1FCC A H 433;32.5799
1FCC A L 432;1FCC A N 434;3.70105
1FCC A L 432;1FCC A H 435;10.9505
1FCC A L 432;1FCC A Y 436;11.8378
1FCC A L 432;1FCC A T 437;19.5311
1FCC A H 433;1FCC A N 434;18.2096
1FCC A H 433;1FCC A H 435;1.87008
1FCC A H 433;1FCC A Y 436;10.779
1FCC A H 433;1FCC A T 437;14.6924
1FCC A N 434;1FCC A H 435;23.045
1FCC A N 434;1FCC A Y 436;9.58849
1FCC A H 435;1FCC A Y 436;20.2657
1FCC A Y 436;1FCC A T 437;36.0596
1FCC A Y 436;1FCC A Q 438;16.4922
1FCC A T 437;1FCC A Q 438;31.4415
1FCC A T 437;1FCC A K 439;6.24172
1FCC A Q 438;1FCC A K 439;26.4197
1FCC A Q 438;1FCC A S 440;3.77298
1FCC A K 439;1FCC A S 440;32.8601
1FCC A K 439;1FCC A L 441;0.0264058
1FCC A S 440;1FCC A L 441;29.4079
1FCC A S 440;1FCC A S 442;0.772527
1FCC A L 441;1FCC A S 442;30.1821
1FCC A S 442;1FCC A L 443;38.7771
