V1;V2;Weight
1JRH H A 1;1JRH H V 2;26.4221
1JRH H A 1;1JRH H K 3;9.7566
1JRH H A 1;1JRH H S 25;9.10231
1JRH H A 1;1JRH H G 26;14.8058
1JRH H V 2;1JRH H K 3;25.2543
1JRH H V 2;1JRH H L 4;7.31732
1JRH H V 2;1JRH H S 25;4.42605
1JRH H V 2;1JRH H G 26;15.3867
1JRH H V 2;1JRH H F 27;14.2726
1JRH H V 2;1JRH H R 94;20.6851
1JRH H V 2;1JRH H Y 102;38.6206
1JRH H K 3;1JRH H L 4;33.3832
1JRH H K 3;1JRH H Q 5;1.7141
1JRH H K 3;1JRH H S 23;1.3181
1JRH H K 3;1JRH H F 24;9.26854
1JRH H K 3;1JRH H S 25;37.5072
1JRH H K 3;1JRH H F 27;1.31669
1JRH H K 3;1JRH H Y 102;0.0243463
1JRH H L 4;1JRH H Q 5;25.374
1JRH H L 4;1JRH H E 6;0.00316442
1JRH H L 4;1JRH H C 22;9.96581
1JRH H L 4;1JRH H S 23;4.53611
1JRH H L 4;1JRH H F 24;12.8059
1JRH H L 4;1JRH H F 27;10.3233
1JRH H L 4;1JRH H V 35a;8.00775
1JRH H L 4;1JRH H C 92;11.1135
1JRH H L 4;1JRH H A 93;5.83666
1JRH H L 4;1JRH H R 94;11.441
1JRH H L 4;1JRH H Y 102;16.7027
1JRH H L 4;1JRH H W 103;11.2593
1JRH H L 4;1JRH H G 104;17.3969
1JRH H L 4;1JRH H Q 105;2.79503
1JRH H Q 5;1JRH H E 6;35.3083
1JRH H Q 5;1JRH H S 7;10.9286
1JRH H Q 5;1JRH H T 21;2.73188
1JRH H Q 5;1JRH H C 22;5.96622
1JRH H Q 5;1JRH H S 23;28.5537
1JRH H Q 5;1JRH H C 92;4.19558
1JRH H Q 5;1JRH H G 104;1.02618
1JRH H Q 5;1JRH H Q 105;24.5765
1JRH H E 6;1JRH H S 7;22.8894
1JRH H E 6;1JRH H L 20;0.229997
1JRH H E 6;1JRH H T 21;5.02705
1JRH H E 6;1JRH H C 22;1.26289
1JRH H E 6;1JRH H W 36;13.1175
1JRH H E 6;1JRH H Y 90;5.78575
1JRH H E 6;1JRH H Y 91;9.77159
1JRH H E 6;1JRH H C 92;19.7187
1JRH H E 6;1JRH H G 104;13.1007
1JRH H E 6;1JRH H Q 105;6.9184
1JRH H E 6;1JRH H G 106;16.7552
1JRH H E 6;1JRH H T 107;19.5623
1JRH H S 7;1JRH H G 8;25.8374
1JRH H S 7;1JRH H S 19;2.23569
1JRH H S 7;1JRH H L 20;7.625
1JRH H S 7;1JRH H T 21;30.7374
1JRH H S 7;1JRH H S 23;4.5473
1JRH H S 7;1JRH H W 36;0.382883
1JRH H S 7;1JRH H T 107;6.11492
1JRH H G 8;1JRH H P 9;29.1219
1JRH H G 8;1JRH H G 10;8.28599
1JRH H G 8;1JRH H S 19;3.39011
1JRH H G 8;1JRH H L 20;5.0436
1JRH H G 8;1JRH H T 107;17.3631
1JRH H G 8;1JRH H V 109;3.64232
1JRH H P 9;1JRH H G 10;23.292
1JRH H P 9;1JRH H I 11;17.11
1JRH H P 9;1JRH H L 12;21.4421
1JRH H P 9;1JRH H L 18;15.3982
1JRH H P 9;1JRH H S 19;12.984
1JRH H P 9;1JRH H L 20;1.90037
1JRH H P 9;1JRH H V 109;9.58646
1JRH H G 10;1JRH H I 11;26.612
1JRH H G 10;1JRH H L 12;0.0494689
1JRH H G 10;1JRH H T 107;2.10251
1JRH H G 10;1JRH H T 108;12.9866
1JRH H G 10;1JRH H V 109;13.058
1JRH H G 10;1JRH H T 110;9.49118
1JRH H I 11;1JRH H L 12;30.0594
1JRH H I 11;1JRH H V 109;0.0683856
1JRH H I 11;1JRH H T 110;22.5949
1JRH H I 11;1JRH H S 112;12.3555
1JRH H I 11;1JRH H T 116;0.333595
1JRH H I 11;1JRH H F 148;18.7548
1JRH H I 11;1JRH H P 149;23.8591
1JRH H L 12;1JRH H K 13;27.6503
1JRH H L 12;1JRH H Q 16;21.2174
1JRH H L 12;1JRH H T 17;14.3257
1JRH H L 12;1JRH H L 18;15.2834
1JRH H L 12;1JRH H S 19;0.627396
1JRH H L 12;1JRH H V 82c;15.9913
1JRH H L 12;1JRH H V 109;4.88099
1JRH H L 12;1JRH H T 110;9.68462
1JRH H L 12;1JRH H V 111;15.0126
1JRH H L 12;1JRH H S 112;8.94509
1JRH H K 13;1JRH H P 14;29.3908
1JRH H K 13;1JRH H Q 16;33.1764
1JRH H K 13;1JRH H V 82c;6.84738
1JRH H K 13;1JRH H V 111;1.90351
1JRH H K 13;1JRH H S 112;11.6232
1JRH H K 13;1JRH H S 113;16.2129
1JRH H K 13;1JRH H A 114;9.59486
1JRH H P 14;1JRH H S 15;27.0133
1JRH H P 14;1JRH H Q 16;10.7933
1JRH H P 14;1JRH H V 82c;9.60249
1JRH H P 14;1JRH H A 83;3.54768
1JRH H P 14;1JRH H T 84;10.7692
1JRH H P 14;1JRH H V 111;11.3342
1JRH H P 14;1JRH H S 112;8.89446
1JRH H P 14;1JRH H S 113;18.5153
1JRH H S 15;1JRH H Q 16;25.6633
1JRH H S 15;1JRH H T 17;1.18343
1JRH H S 15;1JRH H S 82b;17.6971
1JRH H S 15;1JRH H V 82c;12.0793
1JRH H Q 16;1JRH H T 17;29.975
1JRH H Q 16;1JRH H I 82;0.432474
1JRH H Q 16;1JRH H T 82a;2.68194
1JRH H Q 16;1JRH H S 82b;5.20463
1JRH H Q 16;1JRH H V 82c;13.1526
1JRH H T 17;1JRH H L 18;21.5633
1JRH H T 17;1JRH H S 19;9.48695
1JRH H T 17;1JRH H K 81;18.0328
1JRH H T 17;1JRH H I 82;9.11234
1JRH H T 17;1JRH H T 82a;24.3963
1JRH H T 17;1JRH H S 82b;0.492022
1JRH H T 17;1JRH H V 82c;1.96188
1JRH H L 18;1JRH H S 19;25.7475
1JRH H L 18;1JRH H L 20;20.5201
1JRH H L 18;1JRH H L 80;3.64219
1JRH H L 18;1JRH H K 81;7.63916
1JRH H L 18;1JRH H I 82;30.7986
1JRH H L 18;1JRH H V 82c;13.1512
1JRH H L 18;1JRH H D 86;1.62942
1JRH H L 18;1JRH H Y 90;10.3366
1JRH H L 18;1JRH H V 109;17.9211
1JRH H L 18;1JRH H V 111;0.882423
1JRH H S 19;1JRH H L 20;22.7918
1JRH H S 19;1JRH H T 21;5.40275
1JRH H S 19;1JRH H L 80;3.20514
1JRH H S 19;1JRH H K 81;22.9348
1JRH H L 20;1JRH H T 21;21.5954
1JRH H L 20;1JRH H W 36;21.292
1JRH H L 20;1JRH H V 78;0.0607125
1JRH H L 20;1JRH H F 79;10.3762
1JRH H L 20;1JRH H L 80;32.5876
1JRH H L 20;1JRH H K 81;0.00195477
1JRH H L 20;1JRH H I 82;4.46926
1JRH H L 20;1JRH H Y 90;19.5471
1JRH H L 20;1JRH H T 107;9.69743
1JRH H L 20;1JRH H V 109;5.9622
1JRH H T 21;1JRH H C 22;18.8416
1JRH H T 21;1JRH H S 23;9.50498
1JRH H T 21;1JRH H W 36;9.37221
1JRH H T 21;1JRH H Q 77;15.1989
1JRH H T 21;1JRH H V 78;3.18578
1JRH H T 21;1JRH H F 79;21.3871
1JRH H C 22;1JRH H S 23;19.2114
1JRH H C 22;1JRH H F 24;11.1273
1JRH H C 22;1JRH H V 35a;7.76005
1JRH H C 22;1JRH H W 36;11.3096
1JRH H C 22;1JRH H N 76;0.265626
1JRH H C 22;1JRH H Q 77;7.16917
1JRH H C 22;1JRH H V 78;23.016
1JRH H C 22;1JRH H C 92;19.888
1JRH H S 23;1JRH H F 24;24.4584
1JRH H S 23;1JRH H R 75;0.00509497
1JRH H S 23;1JRH H N 76;4.45987
1JRH H S 23;1JRH H Q 77;20.3913
1JRH H F 24;1JRH H S 25;29.3709
1JRH H F 24;1JRH H F 27;31.8273
1JRH H F 24;1JRH H S 28;2.48083
1JRH H F 24;1JRH H L 29;20.6421
1JRH H F 24;1JRH H V 35a;7.01738
1JRH H F 24;1JRH H T 73;1.56362
1JRH H F 24;1JRH H N 76;45.1861
1JRH H F 24;1JRH H Q 77;7.70652
1JRH H F 24;1JRH H V 78;10.0651
1JRH H S 25;1JRH H G 26;23.948
1JRH H S 25;1JRH H F 27;11.5376
1JRH H S 25;1JRH H N 76;5.76118
1JRH H G 26;1JRH H F 27;31.2855
1JRH H F 27;1JRH H S 28;38.3555
1JRH H F 27;1JRH H L 29;7.13792
1JRH H F 27;1JRH H T 31;0.0534241
1JRH H F 27;1JRH H M 34;18.6336
1JRH H F 27;1JRH H G 35;2.03612
1JRH H F 27;1JRH H V 35a;10.3127
1JRH H F 27;1JRH H N 76;7.33734
1JRH H F 27;1JRH H R 94;32.7987
1JRH H S 28;1JRH H L 29;20.1338
1JRH H S 28;1JRH H T 30;18.7705
1JRH H S 28;1JRH H T 31;22.6464
1JRH H S 28;1JRH H M 34;8.47246
1JRH H S 28;1JRH H T 73;6.24485
1JRH H S 28;1JRH H N 76;4.38374
1JRH H L 29;1JRH H T 30;19.3848
1JRH H L 29;1JRH H T 31;2.2383
1JRH H L 29;1JRH H M 34;14.3164
1JRH H L 29;1JRH H G 35;7.34847
1JRH H L 29;1JRH H V 35a;13.2896
1JRH H L 29;1JRH H I 51;9.29056
1JRH H L 29;1JRH H W 52;3.95728
1JRH H L 29;1JRH H W 53;19.3083
1JRH H L 29;1JRH H K 71;21.7527
1JRH H L 29;1JRH H T 73;13.4278
1JRH H L 29;1JRH H N 76;1.96215
1JRH H L 29;1JRH H Q 77;0.240012
1JRH H L 29;1JRH H V 78;9.5547
1JRH H T 30;1JRH H T 31;25.3423
1JRH H T 30;1JRH H Y 32;4.39946
1JRH H T 30;1JRH H W 53;16.4996
1JRH H T 30;1JRH H K 71;1.23588
1JRH H T 30;1JRH H T 73;26.6861
1JRH H T 31;1JRH H Y 32;27.0714
1JRH H T 31;1JRH H G 33;0.969459
1JRH H T 31;1JRH H M 34;29.2719
1JRH H T 31;1JRH H W 53;6.51094
1JRH H Y 32;1JRH H G 33;24.566
1JRH H Y 32;1JRH H M 34;6.66712
1JRH H Y 32;1JRH H W 53;30.625
1JRH H G 33;1JRH H M 34;23.2736
1JRH H G 33;1JRH H G 35;0.325852
1JRH H G 33;1JRH H W 52;5.62629
1JRH H G 33;1JRH H W 53;15.6597
1JRH H G 33;1JRH H R 95;18.75
1JRH H G 33;1JRH H P 97;0.732495
1JRH H M 34;1JRH H G 35;21.7762
1JRH H M 34;1JRH H W 52;7.14119
1JRH H M 34;1JRH H W 53;15.1113
1JRH H M 34;1JRH H R 94;9.11827
1JRH H M 34;1JRH H R 95;8.27686
1JRH H M 34;1JRH H P 97;24.905
1JRH H G 35;1JRH H V 35a;19.5659
1JRH H G 35;1JRH H H 50;8.34293
1JRH H G 35;1JRH H I 51;4.92713
1JRH H G 35;1JRH H W 52;8.30177
1JRH H G 35;1JRH H R 94;7.97963
1JRH H G 35;1JRH H R 95;16.5893
1JRH H V 35a;1JRH H G 35b;21.783
1JRH H V 35a;1JRH H W 36;1.15866
1JRH H V 35a;1JRH H H 50;12.7865
1JRH H V 35a;1JRH H I 51;17.973
1JRH H V 35a;1JRH H I 69;2.65416
1JRH H V 35a;1JRH H V 78;19.8236
1JRH H V 35a;1JRH H C 92;5.25366
1JRH H V 35a;1JRH H A 93;10.0942
1JRH H V 35a;1JRH H R 94;9.2099
1JRH H V 35a;1JRH H R 95;0.10346
1JRH H G 35b;1JRH H W 36;22.2862
1JRH H G 35b;1JRH H I 37;6.12703
1JRH H G 35b;1JRH H W 47;3.08108
1JRH H G 35b;1JRH H A 49;4.81549
1JRH H G 35b;1JRH H H 50;12.7697
1JRH H G 35b;1JRH H I 69;2.41468
1JRH H G 35b;1JRH H V 78;0.184525
1JRH H G 35b;1JRH H C 92;7.86471
1JRH H G 35b;1JRH H A 93;14.8899
1JRH H G 35b;1JRH H M 100d;4.65014
1JRH H W 36;1JRH H I 37;22.4798
1JRH H W 36;1JRH H W 47;7.82107
1JRH H W 36;1JRH H L 48;18.9329
1JRH H W 36;1JRH H A 49;15.1155
1JRH H W 36;1JRH H I 69;9.89415
1JRH H W 36;1JRH H V 78;13.2387
1JRH H W 36;1JRH H F 79;4.50839
1JRH H W 36;1JRH H L 80;26.4652
1JRH H W 36;1JRH H Y 90;13.1324
1JRH H W 36;1JRH H Y 91;14.174
1JRH H W 36;1JRH H C 92;14.8298
1JRH H W 36;1JRH H T 107;0.505329
1JRH H I 37;1JRH H R 38;20.9076
1JRH H I 37;1JRH H L 45;12.6508
1JRH H I 37;1JRH H E 46;11.5157
1JRH H I 37;1JRH H W 47;9.99787
1JRH H I 37;1JRH H L 48;7.71939
1JRH H I 37;1JRH H T 89;0.504831
1JRH H I 37;1JRH H Y 90;4.32798
1JRH H I 37;1JRH H Y 91;29.6667
1JRH H I 37;1JRH H C 92;2.29722
1JRH H I 37;1JRH H A 93;9.47996
1JRH H I 37;1JRH H M 100d;15.2272
1JRH H I 37;1JRH H W 103;15.7949
1JRH H I 37;1JRH L F 98;12.9468
1JRH H R 38;1JRH H Q 39;24.7289
1JRH H R 38;1JRH H S 40;3.64682
1JRH H R 38;1JRH H G 44;1.20475
1JRH H R 38;1JRH H L 45;4.09394
1JRH H R 38;1JRH H E 46;43.8486
1JRH H R 38;1JRH H L 48;22.7868
1JRH H R 38;1JRH H L 63;19.0839
1JRH H R 38;1JRH H R 66;1.15748
1JRH H R 38;1JRH H I 82;0.781975
1JRH H R 38;1JRH H A 85;11.7738
1JRH H R 38;1JRH H D 86;22.6313
1JRH H R 38;1JRH H A 88;11.3812
1JRH H R 38;1JRH H T 89;6.7224
1JRH H R 38;1JRH H Y 90;25.9609
1JRH H R 38;1JRH H Y 91;1.80878
1JRH H Q 39;1JRH H S 40;33.4578
1JRH H Q 39;1JRH H S 41;0.0985597
1JRH H Q 39;1JRH H K 43;10.5622
1JRH H Q 39;1JRH H G 44;14.0294
1JRH H Q 39;1JRH H L 45;20.1911
1JRH H Q 39;1JRH H E 46;0.0903309
1JRH H Q 39;1JRH H A 88;9.82163
1JRH H Q 39;1JRH H T 89;24.2909
1JRH H Q 39;1JRH H Y 91;16.3667
1JRH H Q 39;1JRH L Q 38;21.2343
1JRH H Q 39;1JRH L Y 87;7.15386
1JRH H S 40;1JRH H S 41;29.3918
1JRH H S 40;1JRH H G 42;2.96078
1JRH H S 40;1JRH H K 43;33.8492
1JRH H S 40;1JRH H G 44;1.19329
1JRH H S 40;1JRH H A 85;8.49812
1JRH H S 40;1JRH H T 87;11.5916
1JRH H S 40;1JRH H A 88;14.2512
1JRH H S 41;1JRH H G 42;27.7237
1JRH H S 41;1JRH H K 43;14.8606
1JRH H G 42;1JRH H K 43;32.2953
1JRH H K 43;1JRH H G 44;32.6699
1JRH H K 43;1JRH L Y 87;9.14936
1JRH H G 44;1JRH H L 45;24.3115
1JRH H G 44;1JRH H E 46;2.28589
1JRH H G 44;1JRH L Y 87;10.4889
1JRH H G 44;1JRH L G 99;1.68519
1JRH H G 44;1JRH L G 100;11.587
1JRH H L 45;1JRH H E 46;24.6305
1JRH H L 45;1JRH H W 47;0.0468992
1JRH H L 45;1JRH H Y 91;7.18354
1JRH H L 45;1JRH H W 103;8.54196
1JRH H L 45;1JRH L Y 36;2.63392
1JRH H L 45;1JRH L Q 38;2.45151
1JRH H L 45;1JRH L P 44;16.4766
1JRH H L 45;1JRH L Y 87;24.2316
1JRH H L 45;1JRH L F 98;39.6431
1JRH H L 45;1JRH L G 99;2.77202
1JRH H E 46;1JRH H W 47;24.5491
1JRH H E 46;1JRH H L 48;12.0727
1JRH H E 46;1JRH H N 60;11.0827
1JRH H E 46;1JRH H S 62;2.62272
1JRH H E 46;1JRH H L 63;10.7144
1JRH H E 46;1JRH L F 98;1.12224
1JRH H W 47;1JRH H L 48;25.2048
1JRH H W 47;1JRH H A 49;14.0328
1JRH H W 47;1JRH H H 50;9.52808
1JRH H W 47;1JRH H Y 58;12.2277
1JRH H W 47;1JRH H Y 59;10.4869
1JRH H W 47;1JRH H N 60;28.6696
1JRH H W 47;1JRH H P 61;3.33271
1JRH H W 47;1JRH H M 100d;10.2802
1JRH H W 47;1JRH L T 94;17.4367
1JRH H W 47;1JRH L W 96;45.7767
1JRH H W 47;1JRH L T 97;1.35333
1JRH H W 47;1JRH L F 98;14.7363
1JRH H L 48;1JRH H A 49;20.8546
1JRH H L 48;1JRH H Y 59;1.78431
1JRH H L 48;1JRH H N 60;13.3386
1JRH H L 48;1JRH H L 63;9.13191
1JRH H L 48;1JRH H L 67;20.6672
1JRH H L 48;1JRH H L 80;11.5235
1JRH H L 48;1JRH H I 82;4.27465
1JRH H L 48;1JRH H Y 90;12.5306
1JRH H A 49;1JRH H H 50;15.4644
1JRH H A 49;1JRH H Y 58;6.77962
1JRH H A 49;1JRH H Y 59;12.1565
1JRH H A 49;1JRH H L 67;4.66431
1JRH H A 49;1JRH H I 69;13.285
1JRH H A 49;1JRH H L 80;9.35913
1JRH H H 50;1JRH H I 51;23.8355
1JRH H H 50;1JRH H W 52;21.6027
1JRH H H 50;1JRH H K 57;3.95605
1JRH H H 50;1JRH H Y 58;23.327
1JRH H H 50;1JRH H I 69;11.3426
1JRH H H 50;1JRH H A 93;1.2034
1JRH H H 50;1JRH H R 94;0.0994773
1JRH H H 50;1JRH H R 95;9.71966
1JRH H H 50;1JRH H M 100d;1.78559
1JRH H H 50;1JRH L W 96;24.5978
1JRH H I 51;1JRH H W 52;25.1599
1JRH H I 51;1JRH H D 55;11.6929
1JRH H I 51;1JRH H D 56;5.2678
1JRH H I 51;1JRH H K 57;14.128
1JRH H I 51;1JRH H I 69;20.3608
1JRH H I 51;1JRH H S 70;9.69386
1JRH H I 51;1JRH H K 71;18.2266
1JRH H I 51;1JRH H V 78;10.5884
1JRH H W 52;1JRH H W 53;31.2552
1JRH H W 52;1JRH H D 54;8.71456
1JRH H W 52;1JRH H D 55;6.94963
1JRH H W 52;1JRH H D 56;22.7804
1JRH H W 52;1JRH H K 57;1.04558
1JRH H W 52;1JRH H Y 58;21.0473
1JRH H W 52;1JRH H K 71;6.36376
1JRH H W 52;1JRH H R 95;15.7109
1JRH H W 52;1JRH H H 100b;7.98965
1JRH H W 52;1JRH L W 96;7.13385
1JRH H W 53;1JRH H D 54;44.8247
1JRH H W 53;1JRH H D 55;1.91974
1JRH H W 53;1JRH H K 71;15.7977
1JRH H D 54;1JRH H D 55;26.4345
1JRH H D 54;1JRH H D 56;15.9733
1JRH H D 54;1JRH H K 71;1.66892
1JRH H D 55;1JRH H D 56;22.0147
1JRH H D 55;1JRH H K 57;34.0004
1JRH H D 55;1JRH H S 70;2.00123
1JRH H D 55;1JRH H K 71;27.5641
1JRH H D 56;1JRH H K 57;30.6441
1JRH H D 56;1JRH H Y 58;14.7347
1JRH H K 57;1JRH H Y 58;29.803
1JRH H K 57;1JRH H Y 59;22.2565
1JRH H K 57;1JRH H T 68;0.718349
1JRH H K 57;1JRH H I 69;24.1849
1JRH H K 57;1JRH H S 70;4.05183
1JRH H Y 58;1JRH H Y 59;27.9965
1JRH H Y 58;1JRH H I 69;2.11449
1JRH H Y 58;1JRH L T 94;18.6478
1JRH H Y 58;1JRH L W 96;8.42967
1JRH H Y 59;1JRH H N 60;17.6988
1JRH H Y 59;1JRH H P 61;11.1033
1JRH H Y 59;1JRH H K 64;34.0089
1JRH H Y 59;1JRH H L 67;26.5779
1JRH H Y 59;1JRH H T 68;13.9812
1JRH H Y 59;1JRH H I 69;18.5081
1JRH H Y 59;1JRH H L 80;1.26091
1JRH H Y 59;1JRH L T 94;1.50368
1JRH H N 60;1JRH H P 61;26.2151
1JRH H N 60;1JRH H S 62;17.8728
1JRH H N 60;1JRH H L 63;20.1154
1JRH H N 60;1JRH H K 64;7.72071
1JRH H N 60;1JRH H L 67;5.72741
1JRH H P 61;1JRH H S 62;27.3358
1JRH H P 61;1JRH H L 63;2.4944
1JRH H P 61;1JRH H K 64;23.623
1JRH H P 61;1JRH H S 65;1.02919
1JRH H P 61;1JRH L S 1;17.2532
1JRH H P 61;1JRH L T 94;1.39085
1JRH H S 62;1JRH H L 63;37.3136
1JRH H S 62;1JRH H S 65;3.46617
1JRH H S 62;1JRH H R 66;0.372045
1JRH H L 63;1JRH H K 64;15.9438
1JRH H L 63;1JRH H S 65;7.252
1JRH H L 63;1JRH H R 66;35.6746
1JRH H L 63;1JRH H L 67;25.7586
1JRH H L 63;1JRH H D 86;0.224703
1JRH H K 64;1JRH H S 65;28.4944
1JRH H K 64;1JRH H R 66;2.28098
1JRH H K 64;1JRH H L 67;19.1701
1JRH H S 65;1JRH H R 66;33.0601
1JRH H S 65;1JRH H L 67;1.02046
1JRH H S 65;1JRH H T 82a;4.1578
1JRH H R 66;1JRH H L 67;24.4121
1JRH H R 66;1JRH H T 68;2.34185
1JRH H R 66;1JRH H K 81;5.50721
1JRH H R 66;1JRH H I 82;21.6876
1JRH H R 66;1JRH H T 82a;33.4696
1JRH H R 66;1JRH H S 82b;20.259
1JRH H R 66;1JRH H V 82c;5.3454
1JRH H R 66;1JRH H A 83;7.30339
1JRH H R 66;1JRH H D 86;21.1549
1JRH H L 67;1JRH H T 68;24.8733
1JRH H L 67;1JRH H L 80;13.9939
1JRH H L 67;1JRH H K 81;5.32974
1JRH H L 67;1JRH H I 82;17.8341
1JRH H T 68;1JRH H I 69;24.0771
1JRH H T 68;1JRH H S 70;6.94509
1JRH H T 68;1JRH H F 79;1.26119
1JRH H T 68;1JRH H L 80;10.4381
1JRH H T 68;1JRH H K 81;30.896
1JRH H I 69;1JRH H S 70;25.7984
1JRH H I 69;1JRH H V 78;9.63046
1JRH H I 69;1JRH H F 79;9.04514
1JRH H I 69;1JRH H L 80;9.8412
1JRH H S 70;1JRH H K 71;25.8323
1JRH H S 70;1JRH H V 78;6.87774
1JRH H S 70;1JRH H F 79;32.0944
1JRH H K 71;1JRH H D 72;28.9873
1JRH H K 71;1JRH H T 73;18.0383
1JRH H K 71;1JRH H Q 77;4.8568
1JRH H K 71;1JRH H V 78;8.01223
1JRH H K 71;1JRH H F 79;4.57424
1JRH H D 72;1JRH H T 73;24.2332
1JRH H D 72;1JRH H S 74;21.1773
1JRH H D 72;1JRH H R 75;37.0641
1JRH H D 72;1JRH H N 76;5.72699
1JRH H D 72;1JRH H Q 77;17.0672
1JRH H D 72;1JRH H F 79;10.477
1JRH H T 73;1JRH H S 74;26.4683
1JRH H T 73;1JRH H R 75;2.85067
1JRH H T 73;1JRH H N 76;23.6014
1JRH H S 74;1JRH H R 75;32.16
1JRH H S 74;1JRH H N 76;0.00322563
1JRH H R 75;1JRH H N 76;27.1742
1JRH H R 75;1JRH H Q 77;31.1666
1JRH H R 75;1JRH H F 79;20.3709
1JRH H N 76;1JRH H Q 77;19.3589
1JRH H Q 77;1JRH H V 78;20.6209
1JRH H Q 77;1JRH H F 79;24.7202
1JRH H V 78;1JRH H F 79;25.6885
1JRH H F 79;1JRH H L 80;22.6969
1JRH H F 79;1JRH H K 81;7.50701
1JRH H L 80;1JRH H K 81;27.8306
1JRH H L 80;1JRH H I 82;13.7037
1JRH H L 80;1JRH H Y 90;1.89527
1JRH H K 81;1JRH H I 82;19.9777
1JRH H K 81;1JRH H T 82a;5.19717
1JRH H I 82;1JRH H T 82a;22.2442
1JRH H I 82;1JRH H V 82c;12.5544
1JRH H I 82;1JRH H D 86;8.81003
1JRH H I 82;1JRH H Y 90;14.0713
1JRH H T 82a;1JRH H S 82b;30.429
1JRH H T 82a;1JRH H V 82c;5.13979
1JRH H S 82b;1JRH H V 82c;17.6035
1JRH H S 82b;1JRH H A 83;7.13799
1JRH H V 82c;1JRH H A 83;21.6181
1JRH H V 82c;1JRH H D 86;6.7992
1JRH H V 82c;1JRH H V 111;19.0828
1JRH H A 83;1JRH H T 84;22.2344
1JRH H A 83;1JRH H A 85;10.4075
1JRH H A 83;1JRH H D 86;22.4199
1JRH H A 83;1JRH H T 87;0.540058
1JRH H A 83;1JRH H V 111;11.8651
1JRH H T 84;1JRH H A 85;27.1088
1JRH H T 84;1JRH H D 86;2.15328
1JRH H T 84;1JRH H T 87;17.0296
1JRH H T 84;1JRH H V 111;22.5379
1JRH H T 84;1JRH H S 112;4.46512
1JRH H T 84;1JRH H D 183;4.50022
1JRH H A 85;1JRH H D 86;21.9996
1JRH H A 85;1JRH H T 87;9.19872
1JRH H A 85;1JRH H A 88;0.665772
1JRH H D 86;1JRH H T 87;16.3773
1JRH H D 86;1JRH H A 88;7.66858
1JRH H D 86;1JRH H Y 90;18.0033
1JRH H D 86;1JRH H V 109;4.65309
1JRH H D 86;1JRH H V 111;9.17721
1JRH H T 87;1JRH H A 88;23.859
1JRH H T 87;1JRH H T 108;0.0918744
1JRH H T 87;1JRH H V 109;10.6657
1JRH H T 87;1JRH H T 110;21.1448
1JRH H T 87;1JRH H V 111;20.8858
1JRH H A 88;1JRH H T 89;21.2733
1JRH H A 88;1JRH H Y 90;12.6019
1JRH H A 88;1JRH H T 107;0.598783
1JRH H A 88;1JRH H T 108;6.82487
1JRH H A 88;1JRH H V 109;16.4633
1JRH H T 89;1JRH H Y 90;21.5947
1JRH H T 89;1JRH H Y 91;25.344
1JRH H T 89;1JRH H Q 105;2.30352
1JRH H T 89;1JRH H G 106;8.4299
1JRH H T 89;1JRH H T 107;9.35685
1JRH H T 89;1JRH H T 108;25.5672
1JRH H Y 90;1JRH H Y 91;18.7351
1JRH H Y 90;1JRH H G 106;5.74585
1JRH H Y 90;1JRH H T 107;20.1247
1JRH H Y 90;1JRH H V 109;14.5677
1JRH H Y 91;1JRH H C 92;18.3501
1JRH H Y 91;1JRH H A 93;0.00260309
1JRH H Y 91;1JRH H W 103;18.2043
1JRH H Y 91;1JRH H G 104;6.76946
1JRH H Y 91;1JRH H Q 105;12.1546
1JRH H Y 91;1JRH H G 106;8.37122
1JRH H Y 91;1JRH L Q 38;4.46438
1JRH H Y 91;1JRH L G 41;0.271659
1JRH H Y 91;1JRH L N 42;11.2058
1JRH H Y 91;1JRH L A 43;12.8775
1JRH H Y 91;1JRH L P 44;7.82179
1JRH H C 92;1JRH H A 93;18.291
1JRH H C 92;1JRH H W 103;4.37233
1JRH H C 92;1JRH H G 104;7.55217
1JRH H A 93;1JRH H R 94;21.148
1JRH H A 93;1JRH H R 95;0.0428578
1JRH H A 93;1JRH H M 100d;17.2533
1JRH H A 93;1JRH H Y 102;7.6049
1JRH H A 93;1JRH H W 103;17.075
1JRH H R 94;1JRH H R 95;29.4926
1JRH H R 94;1JRH H A 96;1.1286
1JRH H R 94;1JRH H P 97;22.5987
1JRH H R 94;1JRH H A 100c;0.22354
1JRH H R 94;1JRH H M 100d;11.6662
1JRH H R 94;1JRH H D 101;22.3636
1JRH H R 94;1JRH H Y 102;27.6978
1JRH H R 95;1JRH H A 96;25.7716
1JRH H R 95;1JRH H P 97;12.0977
1JRH H R 95;1JRH H F 98;9.35491
1JRH H R 95;1JRH H Y 99;5.29593
1JRH H R 95;1JRH H G 100;1.9739
1JRH H R 95;1JRH H N 100a;11.7939
1JRH H R 95;1JRH H H 100b;25.2099
1JRH H R 95;1JRH H A 100c;3.26562
1JRH H R 95;1JRH H M 100d;2.94417
1JRH H R 95;1JRH H D 101;1.1301
1JRH H R 95;1JRH L W 96;5.3919
1JRH H A 96;1JRH H P 97;16.5436
1JRH H A 96;1JRH H F 98;17.2773
1JRH H A 96;1JRH H N 100a;20.3952
1JRH H A 96;1JRH H H 100b;1.43897
1JRH H A 96;1JRH H A 100c;15.29
1JRH H A 96;1JRH H M 100d;0.00159762
1JRH H A 96;1JRH H D 101;18.9225
1JRH H A 96;1JRH L L 46;3.7657
1JRH H P 97;1JRH H F 98;47.1009
1JRH H P 97;1JRH H Y 99;0.379201
1JRH H P 97;1JRH H D 101;6.0247
1JRH H F 98;1JRH H Y 99;31.155
1JRH H F 98;1JRH H G 100;0.0326152
1JRH H F 98;1JRH H N 100a;27.1284
1JRH H F 98;1JRH H D 101;2.09204
1JRH H Y 99;1JRH H G 100;30.1883
1JRH H Y 99;1JRH H N 100a;7.82551
1JRH H G 100;1JRH H N 100a;19.2779
1JRH H G 100;1JRH H H 100b;2.61402
1JRH H G 100;1JRH L R 32;17.5044
1JRH H G 100;1JRH L Y 91;4.72196
1JRH H N 100a;1JRH H H 100b;22.8257
1JRH H N 100a;1JRH H A 100c;11.315
1JRH H N 100a;1JRH L L 46;0.22623
1JRH H N 100a;1JRH L S 49;17.7521
1JRH H N 100a;1JRH L E 55;1.23565
1JRH H N 100a;1JRH L Y 91;12.4735
1JRH H H 100b;1JRH H A 100c;22.4242
1JRH H H 100b;1JRH H M 100d;3.76081
1JRH H H 100b;1JRH L Q 89;0.526108
1JRH H H 100b;1JRH L Y 91;24.1825
1JRH H H 100b;1JRH L W 96;20.4654
1JRH H A 100c;1JRH H M 100d;18.696
1JRH H A 100c;1JRH H D 101;3.10354
1JRH H A 100c;1JRH L A 34;7.62696
1JRH H A 100c;1JRH L Y 36;4.6572
1JRH H A 100c;1JRH L L 46;12.0568
1JRH H A 100c;1JRH L S 49;8.97169
1JRH H A 100c;1JRH L Q 89;2.76556
1JRH H A 100c;1JRH L Y 91;12.4178
1JRH H M 100d;1JRH H D 101;17.6297
1JRH H M 100d;1JRH H Y 102;1.20912
1JRH H M 100d;1JRH H W 103;23.501
1JRH H M 100d;1JRH L Y 36;18.341
1JRH H M 100d;1JRH L L 46;9.39875
1JRH H M 100d;1JRH L Q 89;10.4569
1JRH H M 100d;1JRH L W 96;19.2976
1JRH H M 100d;1JRH L F 98;7.18979
1JRH H D 101;1JRH H Y 102;43.5923
1JRH H D 101;1JRH H W 103;8.1963
1JRH H D 101;1JRH L L 46;23.1335
1JRH H D 101;1JRH L E 55;6.88138
1JRH H Y 102;1JRH H W 103;26.5449
1JRH H W 103;1JRH H G 104;27.5743
1JRH H W 103;1JRH H Q 105;0.287129
1JRH H W 103;1JRH L Y 36;14.7564
1JRH H W 103;1JRH L A 43;12.6439
1JRH H W 103;1JRH L P 44;36.0957
1JRH H W 103;1JRH L L 46;2.7374
1JRH H W 103;1JRH L F 98;9.75763
1JRH H G 104;1JRH H Q 105;20.8204
1JRH H G 104;1JRH H G 106;1.93256
1JRH H G 104;1JRH L A 43;7.34986
1JRH H Q 105;1JRH H G 106;35.9235
1JRH H Q 105;1JRH L N 42;1.1297
1JRH H Q 105;1JRH L A 43;11.3854
1JRH H G 106;1JRH H T 107;23.1924
1JRH H G 106;1JRH H T 108;0.0495677
1JRH H T 107;1JRH H T 108;27.4798
1JRH H T 107;1JRH H V 109;11.3795
1JRH H T 108;1JRH H V 109;22.6791
1JRH H T 108;1JRH H T 110;7.78665
1JRH H V 109;1JRH H T 110;21.9109
1JRH H V 109;1JRH H V 111;9.82843
1JRH H T 110;1JRH H V 111;21.8901
1JRH H T 110;1JRH H S 112;10.2126
1JRH H T 110;1JRH H F 148;6.77723
1JRH H T 110;1JRH H P 149;1.82647
1JRH H T 110;1JRH H Y 185;20.0399
1JRH H V 111;1JRH H S 112;23.2786
1JRH H S 112;1JRH H S 113;23.0571
1JRH H S 112;1JRH H A 114;12.7156
1JRH H S 112;1JRH H F 148;17.5444
1JRH H S 112;1JRH H L 178;0.583667
1JRH H S 112;1JRH H D 183;13.6037
1JRH H S 113;1JRH H A 114;27.3298
1JRH H S 113;1JRH H D 183;13.069
1JRH H A 114;1JRH H K 115;39.728
1JRH H A 114;1JRH H F 148;17.7487
1JRH H A 114;1JRH H D 183;10.7843
1JRH H A 114;1JRH H L 184;5.41923
1JRH H K 115;1JRH H T 116;27.4437
1JRH H K 115;1JRH H T 117;22.855
1JRH H K 115;1JRH H F 148;13.2779
1JRH H K 115;1JRH H L 184;1.4983
1JRH H T 116;1JRH H T 117;16.9068
1JRH H T 116;1JRH H P 118;8.07124
1JRH H T 116;1JRH H F 148;11.4325
1JRH H T 116;1JRH H P 149;11.9129
1JRH H T 116;1JRH H H 212;3.75863
1JRH H T 116;1JRH H A 214;17.095
1JRH H T 116;1JRH H S 215;18.3264
1JRH H T 117;1JRH H P 118;37.1599
1JRH H T 117;1JRH H Y 147;10.7383
1JRH H T 117;1JRH H F 148;15.417
1JRH H T 117;1JRH H L 184;26.4536
1JRH H T 117;1JRH H H 212;4.77683
1JRH H T 117;1JRH H S 215;0.252021
1JRH H P 118;1JRH H Y 147;17.3836
1JRH H P 118;1JRH H H 212;9.96505
1JRH H P 118;1JRH H S 215;18.7457
1JRH H P 118;1JRH H T 217;23.2142
1JRH H C 142;1JRH H L 143;36.7197
1JRH H C 142;1JRH H V 144;4.95543
1JRH H C 142;1JRH H V 154;5.08874
1JRH H C 142;1JRH H W 157;17.3844
1JRH H C 142;1JRH H S 188;5.89939
1JRH H C 142;1JRH H S 189;21.2933
1JRH H C 142;1JRH H S 190;1.22759
1JRH H C 142;1JRH H C 208;22.982
1JRH H C 142;1JRH H V 210;9.65828
1JRH H C 142;1JRH H K 221;2.31071
1JRH H C 142;1JRH L F 135;12.3391
1JRH H L 143;1JRH H V 144;36.6349
1JRH H L 143;1JRH H T 186;13.8694
1JRH H L 143;1JRH H L 187;7.08766
1JRH H L 143;1JRH H S 188;16.1368
1JRH H V 144;1JRH H Y 147;22.4842
1JRH H V 144;1JRH H V 152;10.8573
1JRH H V 144;1JRH H V 154;8.95059
1JRH H V 144;1JRH H Y 185;0.387474
1JRH H V 144;1JRH H T 186;20.9092
1JRH H V 144;1JRH H L 187;25.7773
1JRH H V 144;1JRH H S 188;0.67743
1JRH H V 144;1JRH H S 189;0.182402
1JRH H V 144;1JRH H V 210;21.8938
1JRH H Y 147;1JRH H F 148;22.0831
1JRH H Y 147;1JRH H P 149;4.99218
1JRH H Y 147;1JRH H E 150;14.8458
1JRH H Y 147;1JRH H P 151;6.32708
1JRH H Y 147;1JRH H V 152;21.0244
1JRH H Y 147;1JRH H A 176;6.38859
1JRH H Y 147;1JRH H L 184;24.3565
1JRH H Y 147;1JRH H Y 185;41.1055
1JRH H Y 147;1JRH H T 186;10.4774
1JRH H Y 147;1JRH H L 187;8.97885
1JRH H Y 147;1JRH H H 212;14.0762
1JRH H F 148;1JRH H P 149;34.9321
1JRH H F 148;1JRH H L 178;2.1968
1JRH H F 148;1JRH H D 183;12.6052
1JRH H F 148;1JRH H L 184;9.96454
1JRH H F 148;1JRH H Y 185;23.6222
1JRH H F 148;1JRH H H 212;9.25091
1JRH H P 149;1JRH H E 150;30.3557
1JRH H P 149;1JRH H P 151;6.08224
1JRH H P 149;1JRH H Y 185;8.09425
1JRH H P 149;1JRH H H 212;9.41159
1JRH H P 149;1JRH H A 214;19.4362
1JRH H E 150;1JRH H P 151;41.7712
1JRH H E 150;1JRH H V 152;2.15717
1JRH H E 150;1JRH H A 176;19.4156
1JRH H E 150;1JRH H Y 185;31.6806
1JRH H E 150;1JRH H L 187;4.65692
1JRH H P 151;1JRH H V 152;31.2702
1JRH H P 151;1JRH H T 153;3.41377
1JRH H P 151;1JRH H H 212;8.05651
1JRH H P 151;1JRH H P 213;24.0055
1JRH H P 151;1JRH H A 214;0.922223
1JRH H V 152;1JRH H T 153;34.5704
1JRH H V 152;1JRH H V 154;8.89644
1JRH H V 152;1JRH H T 173;0.40795
1JRH H V 152;1JRH H L 187;17.4656
1JRH H V 152;1JRH H V 210;10.3102
1JRH H V 152;1JRH H A 211;10.3216
1JRH H V 152;1JRH H H 212;10.2099
1JRH H V 152;1JRH H P 213;4.82342
1JRH H T 153;1JRH H V 154;27.0246
1JRH H T 153;1JRH H T 156;18.8059
1JRH H T 153;1JRH H N 209;5.76504
1JRH H T 153;1JRH H V 210;4.20654
1JRH H T 153;1JRH H A 211;25.1689
1JRH H T 153;1JRH H P 213;4.77021
1JRH H V 154;1JRH H T 156;26.6573
1JRH H V 154;1JRH H W 157;10.5958
1JRH H V 154;1JRH H V 171;2.64509
1JRH H V 154;1JRH H T 173;22.9224
1JRH H V 154;1JRH H L 187;9.80038
1JRH H V 154;1JRH H S 189;16.009
1JRH H V 154;1JRH H C 208;7.29558
1JRH H V 154;1JRH H N 209;3.16136
1JRH H V 154;1JRH H V 210;17.5971
1JRH H T 156;1JRH H W 157;27.6461
1JRH H T 156;1JRH H S 162;9.83802
1JRH H T 156;1JRH H G 163;9.03356
1JRH H T 156;1JRH H C 208;6.18775
1JRH H T 156;1JRH H N 209;30.8783
1JRH H W 157;1JRH H N 161;26.4186
1JRH H W 157;1JRH H S 162;2.21627
1JRH H W 157;1JRH H G 163;18.9004
1JRH H W 157;1JRH H V 171;22.3047
1JRH H W 157;1JRH H T 173;0.0178466
1JRH H W 157;1JRH H S 189;19.4396
1JRH H W 157;1JRH H S 190;2.86941
1JRH H W 157;1JRH H V 191;35.3735
1JRH H W 157;1JRH H C 208;32.5072
1JRH H W 157;1JRH H N 209;2.8143
1JRH H N 161;1JRH H S 162;26.0614
1JRH H N 161;1JRH H G 163;10.099
1JRH H N 161;1JRH H C 208;5.5215
1JRH H N 161;1JRH H N 209;8.90491
1JRH H S 162;1JRH H G 163;23.9848
1JRH H S 162;1JRH H N 209;25.3
1JRH H G 163;1JRH H S 166;19.382
1JRH H S 166;1JRH H S 167;36.2906
1JRH H S 166;1JRH H V 171;24.4381
1JRH H S 167;1JRH H G 168;28.3174
1JRH H S 167;1JRH H V 171;9.40265
1JRH H S 167;1JRH H V 191;5.13782
1JRH H S 167;1JRH H T 192;4.32417
1JRH H G 168;1JRH H V 171;18.1219
1JRH H G 168;1JRH H H 172;16.444
1JRH H G 168;1JRH H S 190;2.449
1JRH H G 168;1JRH H V 191;8.98708
1JRH H G 168;1JRH H T 192;18.7279
1JRH H G 168;1JRH L N 137;1.97072
1JRH H V 171;1JRH H H 172;29.3915
1JRH H V 171;1JRH H T 173;15.4799
1JRH H V 171;1JRH H S 189;4.02433
1JRH H V 171;1JRH H S 190;5.366
1JRH H V 171;1JRH H V 191;15.6288
1JRH H H 172;1JRH H T 173;19.8696
1JRH H H 172;1JRH H F 174;18.4521
1JRH H H 172;1JRH H S 188;0.77622
1JRH H H 172;1JRH H S 189;5.15274
1JRH H H 172;1JRH H S 190;20.2325
1JRH H H 172;1JRH L N 137;13.3239
1JRH H H 172;1JRH L N 138;21.371
1JRH H H 172;1JRH L T 164;10.7536
1JRH H H 172;1JRH L D 167;11.3936
1JRH H H 172;1JRH L T 172;0.427322
1JRH H H 172;1JRH L S 174;17.5757
1JRH H T 173;1JRH H F 174;26.2299
1JRH H T 173;1JRH H P 175;0.712589
1JRH H T 173;1JRH H L 187;14.2583
1JRH H T 173;1JRH H S 188;2.8004
1JRH H T 173;1JRH H S 189;15.3054
1JRH H T 173;1JRH L T 164;7.70548
1JRH H F 174;1JRH H P 175;31.4467
1JRH H F 174;1JRH H A 176;0.808892
1JRH H F 174;1JRH H L 187;15.5359
1JRH H F 174;1JRH H S 188;21.8391
1JRH H F 174;1JRH H S 189;0.29232
1JRH H F 174;1JRH H S 190;4.66893
1JRH H F 174;1JRH L F 135;10.545
1JRH H F 174;1JRH L N 137;7.20838
1JRH H F 174;1JRH L S 162;12.5854
1JRH H F 174;1JRH L W 163;2.1638
1JRH H F 174;1JRH L T 164;16.7034
1JRH H F 174;1JRH L S 174;9.20057
1JRH H F 174;1JRH L M 175;13.2697
1JRH H F 174;1JRH L S 176;17.191
1JRH H P 175;1JRH H A 176;29.8956
1JRH H P 175;1JRH H V 177;4.98203
1JRH H P 175;1JRH H T 186;0.141115
1JRH H P 175;1JRH H L 187;5.68035
1JRH H P 175;1JRH L S 162;21.7415
1JRH H P 175;1JRH L W 163;18.7426
1JRH H P 175;1JRH L T 164;8.99109
1JRH H A 176;1JRH H V 177;30.0417
1JRH H A 176;1JRH H Y 185;11.0329
1JRH H A 176;1JRH H T 186;7.78016
1JRH H A 176;1JRH H L 187;17.1697
1JRH H V 177;1JRH H L 178;38.9458
1JRH H V 177;1JRH H Q 179;3.27217
1JRH H V 177;1JRH H L 184;0.89712
1JRH H V 177;1JRH H Y 185;6.02547
1JRH H V 177;1JRH H T 186;23.1873
1JRH H V 177;1JRH L L 160;22.5181
1JRH H V 177;1JRH L N 161;14.073
1JRH H V 177;1JRH L S 162;15.4842
1JRH H L 178;1JRH H Q 179;33.5213
1JRH H L 178;1JRH H D 183;16.074
1JRH H L 178;1JRH H L 184;11.08
1JRH H L 178;1JRH H Y 185;27.3707
1JRH H L 178;1JRH L L 160;2.5272
1JRH H Q 179;1JRH H S 180;45.236
1JRH H Q 179;1JRH H D 183;8.50468
1JRH H Q 179;1JRH H L 184;15.3527
1JRH H Q 179;1JRH H T 186;6.49223
1JRH H Q 179;1JRH L L 160;19.2493
1JRH H S 180;1JRH H D 183;28.542
1JRH H S 180;1JRH H L 184;15.4211
1JRH H D 183;1JRH H L 184;26.5346
1JRH H L 184;1JRH H Y 185;21.6595
1JRH H L 184;1JRH H T 186;5.93212
1JRH H Y 185;1JRH H T 186;23.0655
1JRH H T 186;1JRH H L 187;25.4841
1JRH H T 186;1JRH H S 188;0.127759
1JRH H L 187;1JRH H S 188;37.1778
1JRH H L 187;1JRH H S 189;4.18248
1JRH H S 188;1JRH H S 189;19.0059
1JRH H S 188;1JRH L F 135;13.0552
1JRH H S 188;1JRH L S 162;0.000144565
1JRH H S 188;1JRH L S 176;14.9187
1JRH H S 189;1JRH H S 190;21.5155
1JRH H S 189;1JRH L F 135;5.72578
1JRH H S 190;1JRH H V 191;28.6346
1JRH H S 190;1JRH H T 192;1.5496
1JRH H S 190;1JRH L F 135;29.0653
1JRH H S 190;1JRH L N 137;13.7734
1JRH H V 191;1JRH H T 192;42.314
1JRH H V 191;1JRH L N 137;0.214157
1JRH H T 192;1JRH L T 114;2.54211
1JRH H T 192;1JRH L S 116;3.67638
1JRH H T 192;1JRH L N 137;4.66346
1JRH H C 208;1JRH H N 209;20.1533
1JRH H C 208;1JRH H V 210;11.8627
1JRH H C 208;1JRH H V 219;3.63658
1JRH H C 208;1JRH H D 220;1.93278
1JRH H C 208;1JRH H K 221;34.8473
1JRH H N 209;1JRH H V 210;18.9332
1JRH H N 209;1JRH H A 211;1.6741
1JRH H N 209;1JRH H V 219;2.79115
1JRH H N 209;1JRH H D 220;32.0849
1JRH H V 210;1JRH H A 211;26.8227
1JRH H V 210;1JRH H H 212;0.705082
1JRH H V 210;1JRH H T 217;2.28086
1JRH H V 210;1JRH H K 218;4.95123
1JRH H V 210;1JRH H V 219;33.0311
1JRH H V 210;1JRH H K 221;0.499048
1JRH H A 211;1JRH H H 212;24.0686
1JRH H A 211;1JRH H P 213;8.96263
1JRH H A 211;1JRH H T 217;9.65736
1JRH H A 211;1JRH H K 218;10.9665
1JRH H H 212;1JRH H P 213;25.0003
1JRH H H 212;1JRH H A 214;11.5786
1JRH H H 212;1JRH H S 215;16.1675
1JRH H H 212;1JRH H S 216;4.79671
1JRH H H 212;1JRH H T 217;25.0894
1JRH H P 213;1JRH H A 214;30.1691
1JRH H P 213;1JRH H S 215;0.330035
1JRH H P 213;1JRH H S 216;17.9829
1JRH H P 213;1JRH H T 217;0.225636
1JRH H A 214;1JRH H S 215;18.7271
1JRH H A 214;1JRH H S 216;5.54711
1JRH H S 215;1JRH H S 216;22.7916
1JRH H S 215;1JRH H T 217;16.4061
1JRH H S 216;1JRH H T 217;24.5455
1JRH H S 216;1JRH H K 218;7.18822
1JRH H T 217;1JRH H K 218;30.2876
1JRH H T 217;1JRH H V 219;19.3306
1JRH H K 218;1JRH H V 219;22.6177
1JRH H K 218;1JRH H D 220;30.5227
1JRH H V 219;1JRH H D 220;19.2001
1JRH H V 219;1JRH H K 221;32.1556
1JRH H D 220;1JRH H K 221;30.7341
1JRH L S 1;1JRH L V 2;34.4815
1JRH L S 1;1JRH L E 3;18.4534
1JRH L S 1;1JRH L S 26;2.60156
1JRH L S 1;1JRH L E 27;6.44275
1JRH L S 1;1JRH L T 97;0.643678
1JRH L V 2;1JRH L E 3;27.829
1JRH L V 2;1JRH L M 4;6.63235
1JRH L V 2;1JRH L A 25;3.12178
1JRH L V 2;1JRH L S 26;11.3911
1JRH L V 2;1JRH L E 27;24.3712
1JRH L V 2;1JRH L I 29;10.1023
1JRH L V 2;1JRH L Q 90;16.336
1JRH L V 2;1JRH L W 92;4.81396
1JRH L V 2;1JRH L S 93;15.8578
1JRH L V 2;1JRH L T 97;20.7814
1JRH L E 3;1JRH L M 4;28.625
1JRH L E 3;1JRH L T 5;6.46936
1JRH L E 3;1JRH L K 24;1.77949
1JRH L E 3;1JRH L A 25;3.74424
1JRH L E 3;1JRH L S 26;32.61
1JRH L E 3;1JRH L T 97;4.24965
1JRH L M 4;1JRH L T 5;25.7159
1JRH L M 4;1JRH L Q 6;1.62902
1JRH L M 4;1JRH L C 23;12.1429
1JRH L M 4;1JRH L K 24;6.43026
1JRH L M 4;1JRH L A 25;14.0383
1JRH L M 4;1JRH L I 29;7.8901
1JRH L M 4;1JRH L L 33;7.79299
1JRH L M 4;1JRH L Y 71;0.743192
1JRH L M 4;1JRH L C 88;8.3185
1JRH L M 4;1JRH L Q 89;3.59713
1JRH L M 4;1JRH L Q 90;16.1846
1JRH L M 4;1JRH L T 97;18.2042
1JRH L M 4;1JRH L F 98;9.53338
1JRH L M 4;1JRH L G 99;13.3194
1JRH L M 4;1JRH L G 100;5.2771
1JRH L T 5;1JRH L Q 6;27.4305
1JRH L T 5;1JRH L S 7;19.0692
1JRH L T 5;1JRH L T 22;3.42808
1JRH L T 5;1JRH L C 23;5.83307
1JRH L T 5;1JRH L K 24;30.613
1JRH L T 5;1JRH L C 88;0.395951
1JRH L T 5;1JRH L G 99;0.00771621
1JRH L T 5;1JRH L G 100;0.0463485
1JRH L Q 6;1JRH L S 7;22.3746
1JRH L Q 6;1JRH L P 8;8.72555
1JRH L Q 6;1JRH L S 9;0.731608
1JRH L Q 6;1JRH L I 21;7.03719
1JRH L Q 6;1JRH L T 22;9.87188
1JRH L Q 6;1JRH L C 23;5.53592
1JRH L Q 6;1JRH L W 35;4.91526
1JRH L Q 6;1JRH L Y 86;7.23737
1JRH L Q 6;1JRH L Y 87;6.81537
1JRH L Q 6;1JRH L C 88;17.1687
1JRH L Q 6;1JRH L G 99;11.767
1JRH L Q 6;1JRH L G 100;13.5812
1JRH L Q 6;1JRH L G 101;18.3113
1JRH L Q 6;1JRH L T 102;12.5581
1JRH L S 7;1JRH L P 8;36.7137
1JRH L S 7;1JRH L I 21;1.92539
1JRH L S 7;1JRH L T 22;24.1564
1JRH L S 7;1JRH L T 102;4.64378
1JRH L P 8;1JRH L S 9;25.1849
1JRH L P 8;1JRH L S 10;20.4971
1JRH L P 8;1JRH L F 11;12.5164
1JRH L P 8;1JRH L G 101;4.29459
1JRH L P 8;1JRH L T 102;18.1402
1JRH L S 9;1JRH L S 10;24.6543
1JRH L S 9;1JRH L T 85;0.417788
1JRH L S 9;1JRH L G 100;0.00333749
1JRH L S 9;1JRH L G 101;13.0249
1JRH L S 9;1JRH L T 102;5.01027
1JRH L S 9;1JRH L K 103;12.5858
1JRH L S 10;1JRH L F 11;25.6795
1JRH L S 10;1JRH L S 12;2.3605
1JRH L S 10;1JRH L T 102;6.09118
1JRH L S 10;1JRH L K 103;21.4294
1JRH L S 10;1JRH L E 105;8.0582
1JRH L S 10;1JRH L K 142;21.0455
1JRH L F 11;1JRH L S 12;35.1899
1JRH L F 11;1JRH L V 13;21.5129
1JRH L F 11;1JRH L V 19;11.5852
1JRH L F 11;1JRH L T 20;15.4081
1JRH L F 11;1JRH L I 21;3.61133
1JRH L F 11;1JRH L T 102;10.9322
1JRH L F 11;1JRH L K 103;6.76217
1JRH L F 11;1JRH L L 104;13.3352
1JRH L F 11;1JRH L E 105;10.6474
1JRH L S 12;1JRH L V 13;21.3788
1JRH L S 12;1JRH L E 105;25.0145
1JRH L S 12;1JRH L K 107;24.2635
1JRH L S 12;1JRH L Y 140;4.63101
1JRH L S 12;1JRH L K 142;3.17827
1JRH L V 13;1JRH L S 14;21.3475
1JRH L V 13;1JRH L D 17;8.56025
1JRH L V 13;1JRH L V 19;19.0713
1JRH L V 13;1JRH L L 78;14.1185
1JRH L V 13;1JRH L V 83;0.084233
1JRH L V 13;1JRH L L 104;15.4199
1JRH L V 13;1JRH L E 105;11.8276
1JRH L V 13;1JRH L I 106;12.1062
1JRH L V 13;1JRH L K 107;16.8942
1JRH L S 14;1JRH L L 15;30.3665
1JRH L S 14;1JRH L G 16;0.07327
1JRH L S 14;1JRH L D 17;28.8564
1JRH L S 14;1JRH L V 19;0.0299105
1JRH L S 14;1JRH L L 78;10.039
1JRH L S 14;1JRH L I 106;5.03459
1JRH L S 14;1JRH L K 107;26.2375
1JRH L L 15;1JRH L G 16;22.5003
1JRH L L 15;1JRH L D 17;7.57177
1JRH L L 15;1JRH L L 78;19.8639
1JRH L L 15;1JRH L Q 79;8.15739
1JRH L L 15;1JRH L T 80;24.1703
1JRH L L 15;1JRH L V 83;2.36985
1JRH L L 15;1JRH L I 106;22.1006
1JRH L G 16;1JRH L D 17;25.6129
1JRH L G 16;1JRH L R 18;0.647927
1JRH L G 16;1JRH L T 76;4.67298
1JRH L G 16;1JRH L S 77;15.2285
1JRH L G 16;1JRH L L 78;13.8619
1JRH L D 17;1JRH L R 18;29.4849
1JRH L D 17;1JRH L V 19;9.67713
1JRH L D 17;1JRH L I 75;1.66323
1JRH L D 17;1JRH L T 76;4.13637
1JRH L D 17;1JRH L S 77;2.51748
1JRH L D 17;1JRH L L 78;11.6284
1JRH L D 17;1JRH L K 107;7.64692
1JRH L R 18;1JRH L V 19;29.127
1JRH L R 18;1JRH L T 20;13.7523
1JRH L R 18;1JRH L S 74;10.8845
1JRH L R 18;1JRH L I 75;8.84379
1JRH L R 18;1JRH L T 76;28.4907
1JRH L V 19;1JRH L T 20;29.4092
1JRH L V 19;1JRH L I 21;10.4275
1JRH L V 19;1JRH L L 73;2.42894
1JRH L V 19;1JRH L S 74;7.25327
1JRH L V 19;1JRH L I 75;27.388
1JRH L V 19;1JRH L L 78;14.5839
1JRH L V 19;1JRH L L 104;13.5492
1JRH L T 20;1JRH L I 21;27.0425
1JRH L T 20;1JRH L T 22;6.54672
1JRH L T 20;1JRH L T 72;17.8109
1JRH L T 20;1JRH L L 73;7.28259
1JRH L T 20;1JRH L S 74;15.6978
1JRH L I 21;1JRH L T 22;31.6605
1JRH L I 21;1JRH L C 23;0.0792905
1JRH L I 21;1JRH L W 35;15.6955
1JRH L I 21;1JRH L Y 71;0.127566
1JRH L I 21;1JRH L T 72;8.02808
1JRH L I 21;1JRH L L 73;27.997
1JRH L I 21;1JRH L I 75;3.95233
1JRH L I 21;1JRH L Y 86;18.5591
1JRH L I 21;1JRH L T 102;25.7967
1JRH L I 21;1JRH L L 104;11.265
1JRH L T 22;1JRH L C 23;25.7665
1JRH L T 22;1JRH L K 24;8.28496
1JRH L T 22;1JRH L W 35;1.66591
1JRH L T 22;1JRH L D 70;2.48597
1JRH L T 22;1JRH L Y 71;2.63888
1JRH L T 22;1JRH L T 72;15.3065
1JRH L T 22;1JRH L T 102;0.463159
1JRH L C 23;1JRH L K 24;24.0805
1JRH L C 23;1JRH L A 25;0.658187
1JRH L C 23;1JRH L L 33;7.03422
1JRH L C 23;1JRH L W 35;11.535
1JRH L C 23;1JRH L K 69;2.42189
1JRH L C 23;1JRH L D 70;4.44314
1JRH L C 23;1JRH L Y 71;27.4397
1JRH L C 23;1JRH L C 88;19.1985
1JRH L K 24;1JRH L A 25;29.6196
1JRH L K 24;1JRH L S 26;9.61985
1JRH L K 24;1JRH L K 69;32.6638
1JRH L K 24;1JRH L D 70;20.9563
1JRH L A 25;1JRH L S 26;18.3521
1JRH L A 25;1JRH L E 27;9.75232
1JRH L A 25;1JRH L I 29;13.6837
1JRH L A 25;1JRH L G 68;0.108744
1JRH L A 25;1JRH L K 69;22.7521
1JRH L A 25;1JRH L Y 71;3.21776
1JRH L S 26;1JRH L E 27;29.9863
1JRH L S 26;1JRH L K 69;11.1015
1JRH L E 27;1JRH L D 28;29.5488
1JRH L E 27;1JRH L I 29;11.0289
1JRH L E 27;1JRH L G 68;0.659455
1JRH L E 27;1JRH L K 69;14.5222
1JRH L E 27;1JRH L W 92;6.29229
1JRH L D 28;1JRH L I 29;15.6438
1JRH L D 28;1JRH L Y 30;39.2944
1JRH L D 28;1JRH L G 68;26.0656
1JRH L D 28;1JRH L K 69;11.18
1JRH L D 28;1JRH L Y 71;0.521267
1JRH L D 28;1JRH L W 92;7.6824
1JRH L I 29;1JRH L Y 30;18.1515
1JRH L I 29;1JRH L N 31;3.22548
1JRH L I 29;1JRH L R 32;18.2682
1JRH L I 29;1JRH L L 33;10.1302
1JRH L I 29;1JRH L G 68;6.59929
1JRH L I 29;1JRH L K 69;0.0879739
1JRH L I 29;1JRH L Y 71;18.1196
1JRH L I 29;1JRH L Q 90;17.537
1JRH L I 29;1JRH L W 92;22.4669
1JRH L Y 30;1JRH L N 31;25.3159
1JRH L Y 30;1JRH L R 32;19.5207
1JRH L Y 30;1JRH L G 68;0.769367
1JRH L Y 30;1JRH L Y 71;2.31403
1JRH L Y 30;1JRH L W 92;31.7052
1JRH L N 31;1JRH L R 32;23.5237
1JRH L N 31;1JRH L L 33;6.32904
1JRH L N 31;1JRH L G 50;16.3389
1JRH L N 31;1JRH L A 51;16.1512
1JRH L N 31;1JRH L T 52;6.40629
1JRH L N 31;1JRH L G 66;8.48659
1JRH L N 31;1JRH L S 67;16.0266
1JRH L N 31;1JRH L G 68;1.55489
1JRH L N 31;1JRH L Y 71;20.1255
1JRH L R 32;1JRH L L 33;16.1691
1JRH L R 32;1JRH L G 50;6.0953
1JRH L R 32;1JRH L Y 71;7.39134e-06
1JRH L R 32;1JRH L Q 89;0.760537
1JRH L R 32;1JRH L Q 90;4.80903
1JRH L R 32;1JRH L Y 91;30.5722
1JRH L R 32;1JRH L W 92;23.245
1JRH L L 33;1JRH L A 34;21.7944
1JRH L L 33;1JRH L W 35;17.7877
1JRH L L 33;1JRH L I 48;1.4186
1JRH L L 33;1JRH L S 49;3.86044
1JRH L L 33;1JRH L G 50;5.54148
1JRH L L 33;1JRH L A 51;21.3028
1JRH L L 33;1JRH L S 65;0.00137752
1JRH L L 33;1JRH L Y 71;25.3782
1JRH L L 33;1JRH L C 88;6.33495
1JRH L L 33;1JRH L Q 89;12.2374
1JRH L L 33;1JRH L Q 90;2.2187
1JRH L L 33;1JRH L Y 91;8.53641
1JRH L A 34;1JRH L W 35;21.261
1JRH L A 34;1JRH L Y 36;12.4344
1JRH L A 34;1JRH L L 46;4.63799
1JRH L A 34;1JRH L I 48;6.51611
1JRH L A 34;1JRH L S 49;3.5051
1JRH L A 34;1JRH L Y 87;0.0862548
1JRH L A 34;1JRH L C 88;5.33338
1JRH L A 34;1JRH L Q 89;19.9044
1JRH L A 34;1JRH L Y 91;9.28312
1JRH L W 35;1JRH L Y 36;23.9461
1JRH L W 35;1JRH L L 46;6.86259
1JRH L W 35;1JRH L L 47;14.6017
1JRH L W 35;1JRH L I 48;28.9004
1JRH L W 35;1JRH L A 51;6.54318
1JRH L W 35;1JRH L G 64;4.1762
1JRH L W 35;1JRH L S 65;1.02023
1JRH L W 35;1JRH L Y 71;7.25966
1JRH L W 35;1JRH L T 72;11.3674
1JRH L W 35;1JRH L L 73;31.8878
1JRH L W 35;1JRH L Y 86;7.87036
1JRH L W 35;1JRH L Y 87;11.0497
1JRH L W 35;1JRH L C 88;16.7378
1JRH L Y 36;1JRH L Q 37;18.9026
1JRH L Y 36;1JRH L Q 38;0.161745
1JRH L Y 36;1JRH L P 44;15.2745
1JRH L Y 36;1JRH L R 45;8.74694
1JRH L Y 36;1JRH L L 46;19.8688
1JRH L Y 36;1JRH L L 47;5.64731
1JRH L Y 36;1JRH L T 85;0.998696
1JRH L Y 36;1JRH L Y 86;8.97362
1JRH L Y 36;1JRH L Y 87;31.5082
1JRH L Y 36;1JRH L C 88;1.10061
1JRH L Y 36;1JRH L Q 89;19.5563
1JRH L Y 36;1JRH L F 98;11.3541
1JRH L Q 37;1JRH L Q 38;24.4705
1JRH L Q 37;1JRH L K 39;18.4984
1JRH L Q 37;1JRH L A 43;0.941388
1JRH L Q 37;1JRH L P 44;4.84934
1JRH L Q 37;1JRH L R 45;41.0053
1JRH L Q 37;1JRH L L 47;19.8723
1JRH L Q 37;1JRH L F 62;8.32554
1JRH L Q 37;1JRH L E 81;7.65158
1JRH L Q 37;1JRH L D 82;4.47367
1JRH L Q 37;1JRH L A 84;11.5094
1JRH L Q 37;1JRH L T 85;4.73581
1JRH L Q 37;1JRH L Y 86;20.4822
1JRH L Q 37;1JRH L Y 87;0.0959574
1JRH L Q 38;1JRH L K 39;30.5503
1JRH L Q 38;1JRH L P 40;6.4009
1JRH L Q 38;1JRH L G 41;0.817114
1JRH L Q 38;1JRH L N 42;13.7112
1JRH L Q 38;1JRH L A 43;4.73297
1JRH L Q 38;1JRH L P 44;22.8887
1JRH L Q 38;1JRH L A 84;8.12774
1JRH L Q 38;1JRH L T 85;27.4127
1JRH L Q 38;1JRH L Y 87;20.1142
1JRH L K 39;1JRH L P 40;34.3623
1JRH L K 39;1JRH L G 41;1.33699
1JRH L K 39;1JRH L N 42;26.5651
1JRH L K 39;1JRH L A 43;0.39355
1JRH L K 39;1JRH L R 45;0.910437
1JRH L K 39;1JRH L T 80;2.13873
1JRH L K 39;1JRH L E 81;23.27
1JRH L K 39;1JRH L D 82;0.164938
1JRH L K 39;1JRH L V 83;11.688
1JRH L K 39;1JRH L A 84;12.1694
1JRH L P 40;1JRH L G 41;28.7725
1JRH L P 40;1JRH L N 42;10.83
1JRH L P 40;1JRH L V 83;3.16567
1JRH L P 40;1JRH L A 84;4.47653
1JRH L P 40;1JRH L T 85;1.44577
1JRH L P 40;1JRH L K 103;8.43663
1JRH L P 40;1JRH L D 165;15.1398
1JRH L G 41;1JRH L N 42;36.3036
1JRH L N 42;1JRH L A 43;34.3975
1JRH L N 42;1JRH L P 44;0.693377
1JRH L A 43;1JRH L P 44;30.5756
1JRH L A 43;1JRH L R 45;5.14461
1JRH L P 44;1JRH L R 45;23.1348
1JRH L P 44;1JRH L L 46;1.32585
1JRH L P 44;1JRH L Y 87;1.90017
1JRH L R 45;1JRH L L 46;30.4579
1JRH L R 45;1JRH L L 47;22.1983
1JRH L R 45;1JRH L T 56;0.618418
1JRH L R 45;1JRH L E 57;15.4511
1JRH L R 45;1JRH L V 58;13.9744
1JRH L R 45;1JRH L P 59;10.8009
1JRH L R 45;1JRH L F 62;0.573462
1JRH L L 46;1JRH L L 47;21.1619
1JRH L L 46;1JRH L I 48;10.4552
1JRH L L 46;1JRH L S 49;6.70852
1JRH L L 46;1JRH L E 55;33.3964
1JRH L L 46;1JRH L V 58;2.86695
1JRH L L 47;1JRH L I 48;24.8955
1JRH L L 47;1JRH L S 53;0.387424
1JRH L L 47;1JRH L L 54;6.60641
1JRH L L 47;1JRH L E 55;12.8764
1JRH L L 47;1JRH L V 58;24.5728
1JRH L L 47;1JRH L P 59;0.0604401
1JRH L L 47;1JRH L F 62;15.7831
1JRH L L 47;1JRH L L 73;8.2064
1JRH L L 47;1JRH L Y 86;10.8855
1JRH L I 48;1JRH L S 49;20.8784
1JRH L I 48;1JRH L A 51;10.2583
1JRH L I 48;1JRH L T 52;8.29752
1JRH L I 48;1JRH L S 53;10.2803
1JRH L I 48;1JRH L L 54;17.6494
1JRH L I 48;1JRH L E 55;0.96688
1JRH L I 48;1JRH L F 62;2.37547
1JRH L I 48;1JRH L S 63;6.8129
1JRH L I 48;1JRH L G 64;11.3928
1JRH L I 48;1JRH L L 73;12.1222
1JRH L S 49;1JRH L G 50;20.6791
1JRH L S 49;1JRH L A 51;2.64827
1JRH L S 49;1JRH L T 52;1.29683
1JRH L S 49;1JRH L S 53;28.4868
1JRH L S 49;1JRH L E 55;13.3772
1JRH L S 49;1JRH L Y 91;4.62913
1JRH L G 50;1JRH L A 51;14.8231
1JRH L G 50;1JRH L T 52;12.8119
1JRH L G 50;1JRH L S 53;6.79012
1JRH L G 50;1JRH L Y 91;14.9126
1JRH L A 51;1JRH L T 52;21.9877
1JRH L A 51;1JRH L G 64;7.75655
1JRH L A 51;1JRH L S 65;8.95866
1JRH L A 51;1JRH L G 66;1.8947
1JRH L A 51;1JRH L Y 71;11.6487
1JRH L T 52;1JRH L S 53;27.6251
1JRH L T 52;1JRH L L 54;9.62457
1JRH L T 52;1JRH L S 63;0.0140227
1JRH L T 52;1JRH L G 64;18.0034
1JRH L T 52;1JRH L S 65;11.1708
1JRH L T 52;1JRH L G 66;2.62186
1JRH L S 53;1JRH L L 54;27.8016
1JRH L S 53;1JRH L E 55;4.24014
1JRH L L 54;1JRH L E 55;32.018
1JRH L L 54;1JRH L T 56;2.79372
1JRH L L 54;1JRH L V 58;23.4856
1JRH L L 54;1JRH L P 59;4.22844
1JRH L L 54;1JRH L S 60;9.6451
1JRH L L 54;1JRH L F 62;20.3427
1JRH L L 54;1JRH L S 63;5.27619
1JRH L E 55;1JRH L T 56;36.558
1JRH L E 55;1JRH L E 57;0.741613
1JRH L E 55;1JRH L V 58;21.6602
1JRH L T 56;1JRH L E 57;45.3806
1JRH L T 56;1JRH L V 58;6.95522
1JRH L E 57;1JRH L V 58;23.0039
1JRH L E 57;1JRH L P 59;10.1517
1JRH L V 58;1JRH L P 59;31.8011
1JRH L V 58;1JRH L S 60;3.87501
1JRH L V 58;1JRH L F 62;12.8464
1JRH L P 59;1JRH L S 60;22.1487
1JRH L P 59;1JRH L R 61;31.2825
1JRH L P 59;1JRH L F 62;26.1957
1JRH L S 60;1JRH L R 61;26.7764
1JRH L S 60;1JRH L F 62;12.52
1JRH L S 60;1JRH L S 63;1.0961
1JRH L S 60;1JRH L T 76;1.54722
1JRH L R 61;1JRH L F 62;29.1412
1JRH L R 61;1JRH L S 63;0.614645
1JRH L R 61;1JRH L S 74;3.17082
1JRH L R 61;1JRH L I 75;15.4567
1JRH L R 61;1JRH L T 76;29.3293
1JRH L R 61;1JRH L S 77;18.048
1JRH L R 61;1JRH L Q 79;28.8776
1JRH L R 61;1JRH L E 81;8.22112
1JRH L R 61;1JRH L D 82;15.5219
1JRH L F 62;1JRH L S 63;26.9176
1JRH L F 62;1JRH L L 73;10.6129
1JRH L F 62;1JRH L S 74;5.24903
1JRH L F 62;1JRH L I 75;23.1533
1JRH L F 62;1JRH L D 82;14.784
1JRH L F 62;1JRH L Y 86;9.13016
1JRH L S 63;1JRH L G 64;28.2842
1JRH L S 63;1JRH L T 72;0.432293
1JRH L S 63;1JRH L L 73;9.30014
1JRH L S 63;1JRH L S 74;30.5739
1JRH L S 63;1JRH L T 76;4.00818
1JRH L G 64;1JRH L S 65;24.8479
1JRH L G 64;1JRH L T 72;6.57667
1JRH L G 64;1JRH L L 73;3.63066
1JRH L S 65;1JRH L G 66;29.779
1JRH L S 65;1JRH L Y 71;11.5063
1JRH L S 65;1JRH L T 72;27.7422
1JRH L S 65;1JRH L S 74;0.372701
1JRH L G 66;1JRH L S 67;26.2273
1JRH L G 66;1JRH L D 70;8.84594
1JRH L G 66;1JRH L Y 71;9.61095
1JRH L G 66;1JRH L T 72;1.17921
1JRH L S 67;1JRH L G 68;27.8781
1JRH L S 67;1JRH L K 69;4.82803
1JRH L S 67;1JRH L D 70;19.521
1JRH L S 67;1JRH L Y 71;9.67553
1JRH L G 68;1JRH L K 69;22.6541
1JRH L G 68;1JRH L Y 71;12.6113
1JRH L K 69;1JRH L D 70;25.2991
1JRH L K 69;1JRH L Y 71;10.1658
1JRH L D 70;1JRH L Y 71;25.2121
1JRH L D 70;1JRH L T 72;2.70856
1JRH L Y 71;1JRH L T 72;25.4345
1JRH L T 72;1JRH L L 73;18.2485
1JRH L T 72;1JRH L S 74;7.23712
1JRH L L 73;1JRH L S 74;24.022
1JRH L L 73;1JRH L I 75;10.3242
1JRH L L 73;1JRH L Y 86;15.5002
1JRH L S 74;1JRH L I 75;20.5916
1JRH L S 74;1JRH L T 76;5.23943
1JRH L I 75;1JRH L T 76;16.3679
1JRH L I 75;1JRH L S 77;6.35025
1JRH L I 75;1JRH L L 78;15.5238
1JRH L I 75;1JRH L D 82;12.3733
1JRH L I 75;1JRH L Y 86;10.7553
1JRH L I 75;1JRH L L 104;6.81341
1JRH L T 76;1JRH L S 77;30.9759
1JRH L S 77;1JRH L L 78;21.7499
1JRH L S 77;1JRH L Q 79;11.7322
1JRH L S 77;1JRH L D 82;1.64184
1JRH L L 78;1JRH L Q 79;26.9565
1JRH L L 78;1JRH L D 82;13.2587
1JRH L L 78;1JRH L V 83;11.4586
1JRH L L 78;1JRH L L 104;12.5287
1JRH L L 78;1JRH L I 106;6.56302
1JRH L Q 79;1JRH L T 80;21.3145
1JRH L Q 79;1JRH L E 81;22.6105
1JRH L Q 79;1JRH L D 82;18.4264
1JRH L Q 79;1JRH L V 83;5.05478
1JRH L T 80;1JRH L E 81;36.9142
1JRH L T 80;1JRH L D 82;2.59166
1JRH L T 80;1JRH L V 83;26.6868
1JRH L T 80;1JRH L I 106;1.40848
1JRH L E 81;1JRH L D 82;23.9917
1JRH L E 81;1JRH L V 83;1.42939
1JRH L E 81;1JRH L A 84;0.0471564
1JRH L D 82;1JRH L V 83;16.4214
1JRH L D 82;1JRH L A 84;5.26571
1JRH L D 82;1JRH L Y 86;13.7678
1JRH L D 82;1JRH L L 104;5.42441
1JRH L V 83;1JRH L A 84;23.7478
1JRH L V 83;1JRH L L 104;24.3665
1JRH L V 83;1JRH L E 105;2.90838
1JRH L V 83;1JRH L I 106;20.2794
1JRH L V 83;1JRH L Q 166;0.535175
1JRH L A 84;1JRH L T 85;21.5142
1JRH L A 84;1JRH L Y 86;13.4599
1JRH L A 84;1JRH L T 102;1.27498
1JRH L A 84;1JRH L K 103;5.67707
1JRH L A 84;1JRH L L 104;16.2411
1JRH L T 85;1JRH L Y 86;22.3688
1JRH L T 85;1JRH L Y 87;24.2757
1JRH L T 85;1JRH L G 101;7.42006
1JRH L T 85;1JRH L T 102;9.49209
1JRH L T 85;1JRH L K 103;27.8374
1JRH L Y 86;1JRH L Y 87;20.728
1JRH L Y 86;1JRH L G 101;3.8455
1JRH L Y 86;1JRH L T 102;16.4695
1JRH L Y 86;1JRH L L 104;12.6528
1JRH L Y 87;1JRH L C 88;20.4996
1JRH L Y 87;1JRH L F 98;10.1939
1JRH L Y 87;1JRH L G 99;9.70674
1JRH L Y 87;1JRH L G 100;8.26208
1JRH L Y 87;1JRH L G 101;10.8785
1JRH L C 88;1JRH L Q 89;20.8305
1JRH L C 88;1JRH L T 97;0.165682
1JRH L C 88;1JRH L F 98;6.88011
1JRH L C 88;1JRH L G 99;14.0417
1JRH L Q 89;1JRH L Q 90;21.915
1JRH L Q 89;1JRH L Y 91;10.649
1JRH L Q 89;1JRH L W 96;16.2809
1JRH L Q 89;1JRH L T 97;12.3476
1JRH L Q 89;1JRH L F 98;22.5257
1JRH L Q 90;1JRH L Y 91;19.6297
1JRH L Q 90;1JRH L W 92;10.8894
1JRH L Q 90;1JRH L S 93;16.3149
1JRH L Q 90;1JRH L T 94;3.28747
1JRH L Q 90;1JRH L W 96;8.39231
1JRH L Q 90;1JRH L T 97;25.4857
1JRH L Y 91;1JRH L W 92;18.0771
1JRH L Y 91;1JRH L S 93;1.09673
1JRH L Y 91;1JRH L T 94;7.99108
1JRH L Y 91;1JRH L W 96;10.4261
1JRH L W 92;1JRH L S 93;23.8039
1JRH L W 92;1JRH L T 94;0.105732
1JRH L S 93;1JRH L T 94;29.9417
1JRH L S 93;1JRH L W 96;1.54426
1JRH L S 93;1JRH L T 97;1.45413
1JRH L T 94;1JRH L W 96;35.5596
1JRH L T 94;1JRH L T 97;0.948542
1JRH L W 96;1JRH L T 97;28.8106
1JRH L W 96;1JRH L F 98;2.32298
1JRH L T 97;1JRH L F 98;35.8497
1JRH L F 98;1JRH L G 99;28.7923
1JRH L F 98;1JRH L G 100;0.0469693
1JRH L G 99;1JRH L G 100;23.1005
1JRH L G 99;1JRH L G 101;2.21336
1JRH L G 100;1JRH L G 101;23.8675
1JRH L G 101;1JRH L T 102;16.0788
1JRH L G 101;1JRH L K 103;0.0344547
1JRH L T 102;1JRH L K 103;18.7387
1JRH L T 102;1JRH L L 104;8.34473
1JRH L K 103;1JRH L L 104;31.1353
1JRH L K 103;1JRH L E 105;8.22967
1JRH L K 103;1JRH L D 165;21.4217
1JRH L K 103;1JRH L Q 166;1.27917
1JRH L L 104;1JRH L E 105;23.373
1JRH L L 104;1JRH L I 106;0.0571589
1JRH L E 105;1JRH L I 106;26.2204
1JRH L E 105;1JRH L K 107;1.3855
1JRH L E 105;1JRH L Y 140;15.1125
1JRH L E 105;1JRH L P 141;1.41956
1JRH L E 105;1JRH L K 142;16.3272
1JRH L E 105;1JRH L Q 166;14.1495
1JRH L E 105;1JRH L Y 173;17.4406
1JRH L I 106;1JRH L K 107;27.1902
1JRH L I 106;1JRH L R 108;1.31905
1JRH L I 106;1JRH L Y 140;5.48741
1JRH L I 106;1JRH L Q 166;20.1416
1JRH L I 106;1JRH L S 168;0.43008
1JRH L I 106;1JRH L S 171;25.2759
1JRH L K 107;1JRH L R 108;32.0423
1JRH L K 107;1JRH L Y 140;14.4773
1JRH L K 107;1JRH L S 171;0.125116
1JRH L R 108;1JRH L A 109;50.9238
1JRH L R 108;1JRH L D 110;5.42075
1JRH L R 108;1JRH L A 111;13.6563
1JRH L R 108;1JRH L Y 140;30.5223
1JRH L R 108;1JRH L Q 166;0.225385
1JRH L R 108;1JRH L D 170;15.4516
1JRH L R 108;1JRH L S 171;25.6005
1JRH L R 108;1JRH L T 172;14.6853
1JRH L A 109;1JRH L D 110;29.7032
1JRH L A 109;1JRH L A 111;4.99915
1JRH L A 109;1JRH L Y 140;6.01561
1JRH L D 110;1JRH L A 111;20.9797
1JRH L D 110;1JRH L Y 140;16.5199
1JRH L D 110;1JRH L P 141;13.0193
1JRH L D 110;1JRH L K 199;20.7117
1JRH L D 110;1JRH L T 200;16.7491
1JRH L A 111;1JRH L A 112;25.8817
1JRH L A 111;1JRH L P 113;1.9975
1JRH L A 111;1JRH L N 138;6.37304
1JRH L A 111;1JRH L F 139;10.8049
1JRH L A 111;1JRH L Y 140;18.3154
1JRH L A 111;1JRH L T 172;7.00716
1JRH L A 111;1JRH L H 198;3.13417
1JRH L A 111;1JRH L T 200;8.57339
1JRH L A 112;1JRH L P 113;29.4864
1JRH L A 112;1JRH L T 114;8.19578
1JRH L A 112;1JRH L N 137;0.0698604
1JRH L A 112;1JRH L N 138;8.20286
1JRH L A 112;1JRH L F 139;1.33631
1JRH L A 112;1JRH L T 200;18.5157
1JRH L A 112;1JRH L S 201;0.213017
1JRH L P 113;1JRH L T 114;21.4747
1JRH L P 113;1JRH L V 115;15.5104
1JRH L P 113;1JRH L L 136;11.153
1JRH L P 113;1JRH L N 137;7.58543
1JRH L P 113;1JRH L N 138;2.15089
1JRH L P 113;1JRH L F 139;20.9221
1JRH L P 113;1JRH L I 144;7.93143
1JRH L P 113;1JRH L A 196;3.76965
1JRH L P 113;1JRH L H 198;15.3047
1JRH L P 113;1JRH L T 200;5.84978
1JRH L P 113;1JRH L I 205;14.6337
1JRH L T 114;1JRH L V 115;26.9214
1JRH L T 114;1JRH L S 116;13.0921
1JRH L T 114;1JRH L F 135;5.46738
1JRH L T 114;1JRH L L 136;1.9415
1JRH L T 114;1JRH L N 137;28.5366
1JRH L T 114;1JRH L N 138;2.98841
1JRH L V 115;1JRH L S 116;27.7824
1JRH L V 115;1JRH L I 117;2.25984
1JRH L V 115;1JRH L C 134;10.4101
1JRH L V 115;1JRH L F 135;7.82439
1JRH L V 115;1JRH L L 136;17.1308
1JRH L V 115;1JRH L C 194;6.92626
1JRH L V 115;1JRH L A 196;2.38218
1JRH L V 115;1JRH L I 205;22.7943
1JRH L V 115;1JRH L K 207;31.5422
1JRH L S 116;1JRH L I 117;22.0405
1JRH L S 116;1JRH L F 118;23.1958
1JRH L S 116;1JRH L C 134;4.28424
1JRH L S 116;1JRH L F 135;23.0991
1JRH L S 116;1JRH L K 207;2.62857
1JRH L I 117;1JRH L F 118;44.0187
1JRH L I 117;1JRH L P 119;5.15767
1JRH L I 117;1JRH L C 134;22.0238
1JRH L I 117;1JRH L T 193;12.6077
1JRH L I 117;1JRH L C 194;13.098
1JRH L I 117;1JRH L K 207;31.6694
1JRH L F 118;1JRH L P 119;45.3767
1JRH L F 118;1JRH L C 134;13.9999
1JRH L F 118;1JRH L F 135;21.9549
1JRH L C 134;1JRH L F 135;24.6423
1JRH L C 134;1JRH L L 136;13.3906
1JRH L C 134;1JRH L M 175;0.515661
1JRH L C 134;1JRH L S 176;3.59805
1JRH L C 134;1JRH L S 177;32.9736
1JRH L C 134;1JRH L C 194;23.2131
1JRH L C 134;1JRH L K 207;0.257766
1JRH L F 135;1JRH L L 136;19.7979
1JRH L F 135;1JRH L N 137;15.1283
1JRH L F 135;1JRH L M 175;2.93486
1JRH L F 135;1JRH L S 176;13.1349
1JRH L L 136;1JRH L N 137;21.5068
1JRH L L 136;1JRH L F 139;10.1959
1JRH L L 136;1JRH L I 144;13.2204
1JRH L L 136;1JRH L V 146;16.7172
1JRH L L 136;1JRH L S 174;3.75502
1JRH L L 136;1JRH L M 175;33.9108
1JRH L L 136;1JRH L S 176;0.160939
1JRH L L 136;1JRH L S 177;3.52815
1JRH L L 136;1JRH L C 194;8.21414
1JRH L L 136;1JRH L E 195;0.0547828
1JRH L L 136;1JRH L A 196;11.8367
1JRH L N 137;1JRH L N 138;33.132
1JRH L N 137;1JRH L F 139;3.35523
1JRH L N 137;1JRH L S 174;8.97244
1JRH L N 137;1JRH L M 175;1.24019
1JRH L N 138;1JRH L F 139;17.0691
1JRH L N 138;1JRH L D 167;2.70486
1JRH L N 138;1JRH L D 170;13.8316
1JRH L N 138;1JRH L T 172;24.6073
1JRH L N 138;1JRH L Y 173;7.71268
1JRH L N 138;1JRH L S 174;7.10594
1JRH L F 139;1JRH L Y 140;21.8691
1JRH L F 139;1JRH L P 141;7.2227
1JRH L F 139;1JRH L K 142;12.0486
1JRH L F 139;1JRH L D 143;1.64564
1JRH L F 139;1JRH L I 144;23.4826
1JRH L F 139;1JRH L W 163;3.57749
1JRH L F 139;1JRH L T 172;9.86337
1JRH L F 139;1JRH L Y 173;34.4665
1JRH L F 139;1JRH L S 174;9.19607
1JRH L F 139;1JRH L M 175;8.18876
1JRH L F 139;1JRH L H 198;10.2355
1JRH L Y 140;1JRH L P 141;41.8644
1JRH L Y 140;1JRH L K 142;0.584047
1JRH L Y 140;1JRH L Q 166;6.75969
1JRH L Y 140;1JRH L S 171;6.10481
1JRH L Y 140;1JRH L T 172;3.37088
1JRH L Y 140;1JRH L Y 173;11.621
1JRH L Y 140;1JRH L H 198;6.55359
1JRH L Y 140;1JRH L T 200;3.28004
1JRH L P 141;1JRH L K 142;23.8208
1JRH L P 141;1JRH L D 143;12.1386
1JRH L P 141;1JRH L Y 173;2.26423
1JRH L P 141;1JRH L H 198;17.0176
1JRH L P 141;1JRH L K 199;24.739
1JRH L P 141;1JRH L T 200;1.27759
1JRH L K 142;1JRH L D 143;43.1753
1JRH L K 142;1JRH L I 144;7.6897
1JRH L K 142;1JRH L W 163;2.58775
1JRH L K 142;1JRH L Y 173;35.5439
1JRH L D 143;1JRH L I 144;31.5572
1JRH L D 143;1JRH L N 145;0.702122
1JRH L D 143;1JRH L T 197;0.134625
1JRH L D 143;1JRH L H 198;13.7099
1JRH L I 144;1JRH L N 145;40.9336
1JRH L I 144;1JRH L V 146;3.6715
1JRH L I 144;1JRH L W 163;13.7164
1JRH L I 144;1JRH L M 175;19.5924
1JRH L I 144;1JRH L A 196;9.732
1JRH L I 144;1JRH L T 197;10.2507
1JRH L I 144;1JRH L H 198;12.296
1JRH L N 145;1JRH L V 146;31.44
1JRH L N 145;1JRH L K 147;4.57873
1JRH L N 145;1JRH L M 175;0.651356
1JRH L N 145;1JRH L A 196;6.66376
1JRH L N 145;1JRH L T 197;27.654
1JRH L V 146;1JRH L K 147;44.2323
1JRH L V 146;1JRH L N 161;7.05513
1JRH L V 146;1JRH L M 175;15.3058
1JRH L V 146;1JRH L S 177;14.5518
1JRH L V 146;1JRH L C 194;10.4016
1JRH L V 146;1JRH L E 195;12.5934
1JRH L V 146;1JRH L A 196;7.23446
1JRH L K 147;1JRH L T 193;5.28947
1JRH L K 147;1JRH L C 194;5.64619
1JRH L K 147;1JRH L E 195;39.6233
1JRH L K 147;1JRH L A 196;0.861561
1JRH L K 147;1JRH L T 197;5.19299
1JRH L G 158;1JRH L V 159;40.8879
1JRH L G 158;1JRH L L 160;4.0514
1JRH L V 159;1JRH L L 160;47.7369
1JRH L V 159;1JRH L N 161;9.89402
1JRH L V 159;1JRH L S 177;22.163
1JRH L L 160;1JRH L N 161;32.069
1JRH L L 160;1JRH L S 176;2.34721
1JRH L L 160;1JRH L S 177;11.9403
1JRH L N 161;1JRH L S 162;20.1755
1JRH L N 161;1JRH L W 163;35.1898
1JRH L N 161;1JRH L M 175;9.57325
1JRH L N 161;1JRH L S 176;8.02026
1JRH L N 161;1JRH L S 177;15.4982
1JRH L S 162;1JRH L W 163;27.0968
1JRH L S 162;1JRH L M 175;6.36675
1JRH L S 162;1JRH L S 176;19.2686
1JRH L W 163;1JRH L T 164;30.8642
1JRH L W 163;1JRH L D 165;0.834664
1JRH L W 163;1JRH L S 174;7.38442
1JRH L W 163;1JRH L M 175;28.826
1JRH L T 164;1JRH L D 165;41.6889
1JRH L T 164;1JRH L Y 173;14.072
1JRH L T 164;1JRH L S 174;27.0685
1JRH L T 164;1JRH L M 175;0.016637
1JRH L D 165;1JRH L Q 166;31.7422
1JRH L D 165;1JRH L D 167;8.38307
1JRH L D 165;1JRH L T 172;0.903045
1JRH L D 165;1JRH L Y 173;5.08086
1JRH L Q 166;1JRH L D 167;24.2118
1JRH L Q 166;1JRH L S 168;7.08318
1JRH L Q 166;1JRH L S 171;19.8818
1JRH L Q 166;1JRH L T 172;7.21757
1JRH L Q 166;1JRH L Y 173;29.3575
1JRH L D 167;1JRH L S 168;29.5823
1JRH L D 167;1JRH L K 169;16.0013
1JRH L D 167;1JRH L D 170;20.4392
1JRH L D 167;1JRH L S 171;10.7103
1JRH L D 167;1JRH L T 172;19.6304
1JRH L S 168;1JRH L K 169;38.0318
1JRH L S 168;1JRH L D 170;0.486342
1JRH L S 168;1JRH L S 171;3.43825
1JRH L K 169;1JRH L D 170;31.8396
1JRH L K 169;1JRH L S 171;2.20527
1JRH L D 170;1JRH L S 171;18.5835
1JRH L D 170;1JRH L T 172;23.5141
1JRH L S 171;1JRH L T 172;16.9895
1JRH L S 171;1JRH L Y 173;0.65646
1JRH L T 172;1JRH L Y 173;25.4222
1JRH L T 172;1JRH L S 174;0.31129
1JRH L Y 173;1JRH L S 174;26.5324
1JRH L S 174;1JRH L M 175;17.7414
1JRH L M 175;1JRH L S 176;23.1504
1JRH L M 175;1JRH L S 177;6.54141
1JRH L S 176;1JRH L S 177;26.6334
1JRH L S 177;1JRH L C 194;1.78901
1JRH L T 193;1JRH L C 194;24.5635
1JRH L T 193;1JRH L E 195;1.80386
1JRH L T 193;1JRH L V 206;18.9043
1JRH L T 193;1JRH L K 207;14.1203
1JRH L C 194;1JRH L E 195;25.3231
1JRH L C 194;1JRH L I 205;2.10324
1JRH L C 194;1JRH L V 206;7.67672
1JRH L C 194;1JRH L K 207;18.6238
1JRH L E 195;1JRH L A 196;25.7616
1JRH L E 195;1JRH L T 197;1.78281
1JRH L E 195;1JRH L P 204;13.8488
1JRH L E 195;1JRH L I 205;7.28853
1JRH L E 195;1JRH L V 206;30.1881
1JRH L A 196;1JRH L T 197;27.8592
1JRH L A 196;1JRH L H 198;4.5638
1JRH L A 196;1JRH L P 204;12.2326
1JRH L A 196;1JRH L I 205;24.055
1JRH L T 197;1JRH L H 198;33.9004
1JRH L T 197;1JRH L T 202;5.40726
1JRH L T 197;1JRH L P 204;19.1006
1JRH L H 198;1JRH L K 199;31.1852
1JRH L H 198;1JRH L T 200;25.3559
1JRH L H 198;1JRH L S 201;15.6785
1JRH L H 198;1JRH L T 202;1.39925
1JRH L H 198;1JRH L P 204;0.32407
1JRH L H 198;1JRH L I 205;1.68336
1JRH L K 199;1JRH L T 200;22.459
1JRH L K 199;1JRH L S 201;13.2805
1JRH L T 200;1JRH L S 201;35.5718
1JRH L S 201;1JRH L T 202;37.2857
1JRH L S 201;1JRH L S 203;20.5104
1JRH L T 202;1JRH L S 203;26.4705
1JRH L T 202;1JRH L P 204;16.8359
1JRH L S 203;1JRH L P 204;30.7013
1JRH L S 203;1JRH L I 205;9.19983
1JRH L P 204;1JRH L I 205;21.2635
1JRH L P 204;1JRH L V 206;18.3311
1JRH L I 205;1JRH L V 206;29.6864
1JRH L I 205;1JRH L K 207;12.6455
1JRH L V 206;1JRH L K 207;29.1209
