V1;V2;Weight
1JRH I S 11;1JRH I V 12;33.7717
1JRH I S 11;1JRH I P 13;8.17251
1JRH I S 11;1JRH I K 92;8.0546
1JRH I V 12;1JRH I P 13;36.1537
1JRH I V 12;1JRH I T 14;5.44829
1JRH I V 12;1JRH I Y 33;5.08324
1JRH I V 12;1JRH I A 87;7.68944
1JRH I V 12;1JRH I R 88;2.13192
1JRH I V 12;1JRH I V 89;20.0058
1JRH I V 12;1JRH I K 92;22.7964
1JRH I V 12;1JRH I E 93;15.6423
1JRH I V 12;1JRH I S 94;16.6687
1JRH I V 12;1JRH I A 95;1.06414
1JRH I P 13;1JRH I T 14;24.9917
1JRH I P 13;1JRH I P 15;1.42646
1JRH I P 13;1JRH I Y 33;22.7422
1JRH I P 13;1JRH I Q 34;21.7302
1JRH I P 13;1JRH I M 36;15.417
1JRH I P 13;1JRH I A 87;2.34029
1JRH I P 13;1JRH I V 89;0.181139
1JRH I P 13;1JRH I S 94;6.56597
1JRH I T 14;1JRH I P 15;33.9192
1JRH I T 14;1JRH I T 16;10.2508
1JRH I T 14;1JRH I Y 33;6.11672
1JRH I T 14;1JRH I S 94;5.4923
1JRH I T 14;1JRH I A 95;21.9675
1JRH I T 14;1JRH I Y 96;5.79794
1JRH I T 14;1JRH I A 97;9.86425
1JRH I P 15;1JRH I T 16;28.5762
1JRH I P 15;1JRH I V 18;2.42702
1JRH I P 15;1JRH I W 31;11.3416
1JRH I P 15;1JRH I E 32;4.09658
1JRH I P 15;1JRH I Y 33;15.5521
1JRH I P 15;1JRH I F 42;6.03892
1JRH I P 15;1JRH I V 85;15.3487
1JRH I P 15;1JRH I K 86;6.09241
1JRH I P 15;1JRH I A 87;8.34507
1JRH I P 15;1JRH I S 94;5.62215
1JRH I P 15;1JRH I A 95;2.7194
1JRH I P 15;1JRH I A 97;17.7255
1JRH I T 16;1JRH I N 17;37.14
1JRH I T 16;1JRH I V 18;8.57249
1JRH I T 16;1JRH I W 31;5.3117
1JRH I T 16;1JRH I E 32;27.0888
1JRH I T 16;1JRH I Y 33;2.84572
1JRH I T 16;1JRH I A 97;0.919415
1JRH I N 17;1JRH I V 18;23.5659
1JRH I N 17;1JRH I T 19;13.832
1JRH I N 17;1JRH I Y 30;2.81163
1JRH I N 17;1JRH I W 31;7.00265
1JRH I N 17;1JRH I E 32;23.3828
1JRH I V 18;1JRH I T 19;25.9229
1JRH I V 18;1JRH I I 20;6.48551
1JRH I V 18;1JRH I V 29;10.3284
1JRH I V 18;1JRH I Y 30;2.40846
1JRH I V 18;1JRH I W 31;12.3581
1JRH I V 18;1JRH I V 83;6.22244
1JRH I V 18;1JRH I R 84;0.987063
1JRH I V 18;1JRH I V 85;11.3344
1JRH I V 18;1JRH I A 97;19.6454
1JRH I V 18;1JRH I K 98;5.62859
1JRH I V 18;1JRH I S 99;22.7258
1JRH I V 18;1JRH I E 100;4.00684
1JRH I T 19;1JRH I I 20;34.96
1JRH I T 19;1JRH I E 21;17.4247
1JRH I T 19;1JRH I I 28;0.201791
1JRH I T 19;1JRH I V 29;9.63484
1JRH I T 19;1JRH I Y 30;31.8784
1JRH I I 20;1JRH I E 21;30.9676
1JRH I I 20;1JRH I P 27;2.92542
1JRH I I 20;1JRH I I 28;4.56167
1JRH I I 20;1JRH I V 29;10.9295
1JRH I I 20;1JRH I Y 30;0.12204
1JRH I I 20;1JRH I I 70;7.72541
1JRH I I 20;1JRH I V 83;13.4285
1JRH I I 20;1JRH I S 99;8.51739
1JRH I I 20;1JRH I E 100;18.2822
1JRH I I 20;1JRH I E 101;9.24069
1JRH I I 20;1JRH I F 102;37.1066
1JRH I E 21;1JRH I S 22;33.0455
1JRH I E 21;1JRH I Y 23;0.299109
1JRH I E 21;1JRH I N 26;2.5367
1JRH I E 21;1JRH I P 27;5.74855
1JRH I E 21;1JRH I I 28;19.5329
1JRH I E 21;1JRH I Y 30;29.6047
1JRH I E 21;1JRH I F 102;2.229
1JRH I S 22;1JRH I Y 23;28.9315
1JRH I S 22;1JRH I N 24;9.95436
1JRH I S 22;1JRH I M 25;4.18492
1JRH I S 22;1JRH I N 26;11.5318
1JRH I S 22;1JRH I P 27;13.6947
1JRH I S 22;1JRH I F 102;16.2226
1JRH I S 22;1JRH I S 105;23.376
1JRH I Y 23;1JRH I N 24;41.0831
1JRH I Y 23;1JRH I N 26;12.6232
1JRH I N 24;1JRH I M 25;33.831
1JRH I N 24;1JRH I N 26;14.6476
1JRH I N 24;1JRH I S 105;12.421
1JRH I M 25;1JRH I N 26;16.6233
1JRH I M 25;1JRH I P 27;10.9524
1JRH I M 25;1JRH I S 71;6.7505
1JRH I M 25;1JRH I V 74;25.9968
1JRH I M 25;1JRH I P 77;10.6314
1JRH I M 25;1JRH I S 105;20.0045
1JRH I N 26;1JRH I P 27;17.8449
1JRH I N 26;1JRH I I 28;21.7608
1JRH I N 26;1JRH I N 69;15.6963
1JRH I N 26;1JRH I S 71;15.7127
1JRH I P 27;1JRH I I 28;19.3055
1JRH I P 27;1JRH I N 69;4.64942
1JRH I P 27;1JRH I I 70;29.1741
1JRH I P 27;1JRH I S 71;15.7696
1JRH I P 27;1JRH I V 74;15.2701
1JRH I P 27;1JRH I L 81;3.14215
1JRH I P 27;1JRH I F 102;14.1582
1JRH I I 28;1JRH I V 29;22.4691
1JRH I I 28;1JRH I Y 30;33.6185
1JRH I I 28;1JRH I Y 67;10.6278
1JRH I I 28;1JRH I C 68;10.6073
1JRH I I 28;1JRH I N 69;24.5084
1JRH I I 28;1JRH I I 70;3.62947
1JRH I V 29;1JRH I Y 30;24.2786
1JRH I V 29;1JRH I W 31;13.9348
1JRH I V 29;1JRH I V 44;9.0448
1JRH I V 29;1JRH I Y 67;6.5766
1JRH I V 29;1JRH I C 68;18.9762
1JRH I V 29;1JRH I I 70;15.39
1JRH I V 29;1JRH I V 83;15.4024
1JRH I V 29;1JRH I V 85;5.55006
1JRH I Y 30;1JRH I W 31;25.2172
1JRH I Y 30;1JRH I H 66;10.7734
1JRH I Y 30;1JRH I Y 67;16.2552
1JRH I W 31;1JRH I E 32;34.5822
1JRH I W 31;1JRH I Y 33;3.94099
1JRH I W 31;1JRH I F 42;25.5719
1JRH I W 31;1JRH I V 44;11.9436
1JRH I W 31;1JRH I I 63;7.8021
1JRH I W 31;1JRH I H 65;5.5251
1JRH I W 31;1JRH I H 66;34.501
1JRH I W 31;1JRH I Y 67;11.4063
1JRH I W 31;1JRH I C 68;5.13489
1JRH I W 31;1JRH I V 85;20.4768
1JRH I E 32;1JRH I Y 33;35.1446
1JRH I E 32;1JRH I H 66;11.8796
1JRH I Y 33;1JRH I Q 34;49.7619
1JRH I Y 33;1JRH I I 35;1.61673
1JRH I Y 33;1JRH I M 36;9.64526
1JRH I Y 33;1JRH I P 40;15.4577
1JRH I Y 33;1JRH I F 42;18.6707
1JRH I Y 33;1JRH I H 66;23.1685
1JRH I Y 33;1JRH I A 87;12.0237
1JRH I Y 33;1JRH I V 89;4.13347
1JRH I Q 34;1JRH I I 35;41.9143
1JRH I Q 34;1JRH I M 36;24.5212
1JRH I Q 34;1JRH I P 40;4.1837
1JRH I Q 34;1JRH I H 66;0.84018
1JRH I I 35;1JRH I M 36;35.428
1JRH I I 35;1JRH I P 37;5.85182
1JRH I M 36;1JRH I P 37;43.6675
1JRH I M 36;1JRH I Q 38;19.7868
1JRH I M 36;1JRH I P 40;16.1479
1JRH I M 36;1JRH I V 89;16.4919
1JRH I P 37;1JRH I Q 38;37.1848
1JRH I Q 38;1JRH I V 39;30.301
1JRH I Q 38;1JRH I P 40;9.23595
1JRH I Q 38;1JRH I V 89;27.0756
1JRH I Q 38;1JRH I G 90;8.41119
1JRH I V 39;1JRH I P 40;30.5747
1JRH I V 39;1JRH I V 41;15.2174
1JRH I V 39;1JRH I S 64;17.1769
1JRH I V 39;1JRH I R 88;2.12117
1JRH I V 39;1JRH I V 89;8.51679
1JRH I P 40;1JRH I V 41;19.193
1JRH I P 40;1JRH I F 42;18.5139
1JRH I P 40;1JRH I I 63;0.264538
1JRH I P 40;1JRH I S 64;10.3544
1JRH I P 40;1JRH I A 87;2.46806
1JRH I P 40;1JRH I R 88;3.4978
1JRH I P 40;1JRH I V 89;14.1678
1JRH I V 41;1JRH I F 42;22.6652
1JRH I V 41;1JRH I T 43;2.48765
1JRH I V 41;1JRH I N 62;28.6092
1JRH I V 41;1JRH I I 63;11.5144
1JRH I V 41;1JRH I S 64;7.04765
1JRH I V 41;1JRH I K 86;0.00275996
1JRH I V 41;1JRH I A 87;2.85241
1JRH I V 41;1JRH I R 88;41.2419
1JRH I V 41;1JRH I V 89;0.439637
1JRH I V 41;1JRH I G 90;0.00979591
1JRH I F 42;1JRH I T 43;22.8429
1JRH I F 42;1JRH I V 44;2.53413
1JRH I F 42;1JRH I C 60;1.25693
1JRH I F 42;1JRH I I 61;0.303093
1JRH I F 42;1JRH I N 62;8.66046
1JRH I F 42;1JRH I I 63;23.6316
1JRH I F 42;1JRH I S 64;9.1428
1JRH I F 42;1JRH I H 65;5.41575
1JRH I F 42;1JRH I H 66;13.982
1JRH I F 42;1JRH I V 85;7.62714
1JRH I F 42;1JRH I K 86;7.6398
1JRH I F 42;1JRH I A 87;13.3398
1JRH I T 43;1JRH I V 44;24.9895
1JRH I T 43;1JRH I E 45;10.027
1JRH I T 43;1JRH I D 58;10.8923
1JRH I T 43;1JRH I C 60;7.73485
1JRH I T 43;1JRH I I 61;18.1413
1JRH I T 43;1JRH I N 62;10.1038
1JRH I T 43;1JRH I I 63;0.0260298
1JRH I T 43;1JRH I R 84;0.850107
1JRH I T 43;1JRH I V 85;9.46459
1JRH I T 43;1JRH I K 86;36.7164
1JRH I T 43;1JRH I R 88;3.85324
1JRH I T 43;1JRH I E 93;3.75878
1JRH I T 43;1JRH I Y 96;1.39046
1JRH I V 44;1JRH I E 45;25.2463
1JRH I V 44;1JRH I V 46;0.756654
1JRH I V 44;1JRH I D 58;3.5603
1JRH I V 44;1JRH I A 59;14.2595
1JRH I V 44;1JRH I C 60;19.401
1JRH I V 44;1JRH I I 63;3.88504
1JRH I V 44;1JRH I C 68;14.6467
1JRH I V 44;1JRH I I 70;4.08328
1JRH I V 44;1JRH I V 83;9.71354
1JRH I V 44;1JRH I R 84;3.06428
1JRH I V 44;1JRH I V 85;16.1615
1JRH I E 45;1JRH I V 46;18.5244
1JRH I E 45;1JRH I W 56;27.6614
1JRH I E 45;1JRH I I 57;9.00636
1JRH I E 45;1JRH I D 58;19.6334
1JRH I E 45;1JRH I A 59;2.52951
1JRH I E 45;1JRH I V 83;8.63125
1JRH I E 45;1JRH I R 84;31.5457
1JRH I E 45;1JRH I K 86;4.69146
1JRH I E 45;1JRH I Y 96;18.1419
1JRH I V 46;1JRH I K 47;22.5876
1JRH I V 46;1JRH I E 55;1.16081
1JRH I V 46;1JRH I W 56;9.36499
1JRH I V 46;1JRH I I 57;28.6778
1JRH I V 46;1JRH I D 58;0.0872747
1JRH I V 46;1JRH I A 59;9.09201
1JRH I V 46;1JRH I I 70;16.9761
1JRH I V 46;1JRH I H 73;20.3771
1JRH I V 46;1JRH I L 81;19.6998
1JRH I V 46;1JRH I W 82;7.38294
1JRH I V 46;1JRH I V 83;9.60951
1JRH I K 47;1JRH I N 48;27.5074
1JRH I K 47;1JRH I Y 49;8.09226
1JRH I K 47;1JRH I N 53;1.91834
1JRH I K 47;1JRH I S 54;17.8387
1JRH I K 47;1JRH I E 55;7.73227
1JRH I K 47;1JRH I W 56;31.1317
1JRH I K 47;1JRH I I 57;0.632117
1JRH I K 47;1JRH I S 80;0.343447
1JRH I K 47;1JRH I L 81;7.32935
1JRH I K 47;1JRH I W 82;22.3296
1JRH I N 48;1JRH I Y 49;20.8178
1JRH I N 48;1JRH I K 52;16.6978
1JRH I N 48;1JRH I N 53;3.57956
1JRH I N 48;1JRH I S 54;27.3594
1JRH I N 48;1JRH I H 73;0.65216
1JRH I N 48;1JRH I G 75;6.37155
1JRH I N 48;1JRH I N 79;20.9264
1JRH I N 48;1JRH I S 80;6.28997
1JRH I N 48;1JRH I L 81;19.3866
1JRH I N 48;1JRH I W 82;0.437794
1JRH I Y 49;1JRH I G 50;25.1131
1JRH I Y 49;1JRH I K 52;8.21269
1JRH I Y 49;1JRH I N 53;9.28231
1JRH I Y 49;1JRH I N 79;12.3175
1JRH I Y 49;1JRH I S 80;17.1713
1JRH I Y 49;1JRH I W 82;12.3845
1JRH I G 50;1JRH I V 51;17.178
1JRH I G 50;1JRH I K 52;5.80861
1JRH I G 50;1JRH I N 79;3.20246
1JRH I V 51;1JRH I K 52;23.1684
1JRH I V 51;1JRH I D 76;8.29565
1JRH I V 51;1JRH I S 78;10.8343
1JRH I V 51;1JRH I N 79;14.5516
1JRH I K 52;1JRH I N 53;19.8429
1JRH I K 52;1JRH I S 54;0.382197
1JRH I K 52;1JRH I D 76;2.15604
1JRH I K 52;1JRH I N 79;13.8088
1JRH I N 53;1JRH I S 54;20.367
1JRH I S 54;1JRH I E 55;31.342
1JRH I S 54;1JRH I I 57;2.42679
1JRH I E 55;1JRH I W 56;30.1859
1JRH I E 55;1JRH I I 57;9.99906
1JRH I W 56;1JRH I I 57;24.4865
1JRH I W 56;1JRH I D 58;1.579
1JRH I W 56;1JRH I W 82;13.6962
1JRH I W 56;1JRH I V 83;9.24376
1JRH I W 56;1JRH I R 84;43.5938
1JRH I W 56;1JRH I K 98;3.07663
1JRH I I 57;1JRH I D 58;34.9434
1JRH I I 57;1JRH I A 59;1.6562
1JRH I I 57;1JRH I H 73;22.4843
1JRH I D 58;1JRH I A 59;22.6816
1JRH I D 58;1JRH I C 60;0.515068
1JRH I D 58;1JRH I I 61;27.12
1JRH I D 58;1JRH I H 73;9.43998
1JRH I A 59;1JRH I C 60;29.9965
1JRH I A 59;1JRH I I 61;2.46677
1JRH I A 59;1JRH I C 68;6.10005
1JRH I A 59;1JRH I N 69;3.7777
1JRH I A 59;1JRH I I 70;10.7359
1JRH I A 59;1JRH I H 73;17.367
1JRH I C 60;1JRH I I 61;25.6487
1JRH I C 60;1JRH I N 62;0.145624
1JRH I C 60;1JRH I I 63;24.0912
1JRH I C 60;1JRH I C 68;21.248
1JRH I C 60;1JRH I N 69;7.58521
1JRH I I 61;1JRH I N 62;46.6198
1JRH I I 61;1JRH I I 63;13.0604
1JRH I N 62;1JRH I I 63;20.0203
1JRH I N 62;1JRH I R 88;9.26069
1JRH I I 63;1JRH I S 64;23.7937
1JRH I I 63;1JRH I H 65;31.5948
1JRH I I 63;1JRH I Y 67;7.61438
1JRH I I 63;1JRH I C 68;2.80342
1JRH I S 64;1JRH I H 65;37.6979
1JRH I S 64;1JRH I H 66;5.54698
1JRH I H 65;1JRH I H 66;22.9003
1JRH I H 65;1JRH I Y 67;50.228
1JRH I H 66;1JRH I Y 67;23.3404
1JRH I Y 67;1JRH I C 68;22.8482
1JRH I Y 67;1JRH I N 69;3.5957
1JRH I C 68;1JRH I N 69;21.7403
1JRH I C 68;1JRH I I 70;12.1122
1JRH I N 69;1JRH I I 70;20.171
1JRH I N 69;1JRH I S 71;17.4222
1JRH I N 69;1JRH I D 72;8.51666
1JRH I N 69;1JRH I H 73;0.951864
1JRH I I 70;1JRH I S 71;16.339
1JRH I I 70;1JRH I D 72;5.02005
1JRH I I 70;1JRH I H 73;22.1357
1JRH I I 70;1JRH I V 74;4.13524
1JRH I I 70;1JRH I L 81;10.5474
1JRH I I 70;1JRH I V 83;8.94364
1JRH I I 70;1JRH I F 102;2.09838
1JRH I S 71;1JRH I D 72;26.9047
1JRH I S 71;1JRH I H 73;3.15308
1JRH I S 71;1JRH I V 74;19.6826
1JRH I D 72;1JRH I H 73;45.1096
1JRH I D 72;1JRH I V 74;3.23356
1JRH I H 73;1JRH I V 74;23.8513
1JRH I H 73;1JRH I G 75;2.76947
1JRH I H 73;1JRH I L 81;14.9155
1JRH I V 74;1JRH I G 75;36.9743
1JRH I V 74;1JRH I D 76;0.624217
1JRH I V 74;1JRH I P 77;4.20631
1JRH I V 74;1JRH I L 81;19.1613
1JRH I V 74;1JRH I F 102;5.13012
1JRH I G 75;1JRH I D 76;38.6328
1JRH I G 75;1JRH I P 77;0.0215356
1JRH I G 75;1JRH I N 79;6.49007
1JRH I G 75;1JRH I L 81;2.21431
1JRH I D 76;1JRH I P 77;35.3298
1JRH I D 76;1JRH I S 78;16.3214
1JRH I D 76;1JRH I N 79;27.5334
1JRH I P 77;1JRH I S 78;29.3394
1JRH I P 77;1JRH I N 79;9.74531
1JRH I P 77;1JRH I A 103;12.255
1JRH I P 77;1JRH I V 104;4.09894
1JRH I S 78;1JRH I N 79;20.5268
1JRH I S 78;1JRH I S 80;0.894203
1JRH I N 79;1JRH I S 80;24.0539
1JRH I N 79;1JRH I L 81;5.32493
1JRH I N 79;1JRH I F 102;0.432088
1JRH I N 79;1JRH I A 103;6.9724
1JRH I S 80;1JRH I L 81;21.2048
1JRH I S 80;1JRH I W 82;11.0421
1JRH I S 80;1JRH I E 101;22.5732
1JRH I S 80;1JRH I F 102;8.21953
1JRH I S 80;1JRH I A 103;13.6374
1JRH I L 81;1JRH I W 82;26.394
1JRH I L 81;1JRH I V 83;5.15024
1JRH I L 81;1JRH I E 100;2.01034
1JRH I L 81;1JRH I E 101;3.85599
1JRH I L 81;1JRH I F 102;39.3973
1JRH I W 82;1JRH I V 83;25.0099
1JRH I W 82;1JRH I S 99;12.8962
1JRH I W 82;1JRH I E 100;14.754
1JRH I W 82;1JRH I E 101;40.9861
1JRH I V 83;1JRH I R 84;23.699
1JRH I V 83;1JRH I V 85;5.58615
1JRH I V 83;1JRH I A 97;0.179174
1JRH I V 83;1JRH I K 98;2.52988
1JRH I V 83;1JRH I S 99;31.335
1JRH I V 83;1JRH I F 102;0.594955
1JRH I R 84;1JRH I V 85;21.562
1JRH I R 84;1JRH I Y 96;43.8263
1JRH I R 84;1JRH I A 97;7.7342
1JRH I R 84;1JRH I K 98;18.1829
1JRH I R 84;1JRH I S 99;0.0423959
1JRH I V 85;1JRH I K 86;21.7879
1JRH I V 85;1JRH I A 95;1.11318
1JRH I V 85;1JRH I Y 96;9.99736
1JRH I V 85;1JRH I A 97;19.893
1JRH I K 86;1JRH I A 87;22.4275
1JRH I K 86;1JRH I R 88;0.135315
1JRH I K 86;1JRH I E 93;32.5455
1JRH I K 86;1JRH I S 94;15.5486
1JRH I K 86;1JRH I A 95;4.75232
1JRH I K 86;1JRH I Y 96;38.1002
1JRH I A 87;1JRH I R 88;23.8433
1JRH I A 87;1JRH I V 89;1.79269
1JRH I A 87;1JRH I E 93;7.1732
1JRH I A 87;1JRH I S 94;17.9596
1JRH I R 88;1JRH I V 89;28.0751
1JRH I R 88;1JRH I G 90;20.3751
1JRH I R 88;1JRH I Q 91;17.4179
1JRH I R 88;1JRH I K 92;8.99279
1JRH I R 88;1JRH I E 93;27.9804
1JRH I V 89;1JRH I G 90;28.5394
1JRH I V 89;1JRH I Q 91;1.64108
1JRH I V 89;1JRH I K 92;17.4898
1JRH I G 90;1JRH I Q 91;26.5068
1JRH I G 90;1JRH I K 92;1.51503
1JRH I Q 91;1JRH I K 92;34.045
1JRH I Q 91;1JRH I E 93;5.39986
1JRH I K 92;1JRH I E 93;26.2333
1JRH I E 93;1JRH I S 94;28.1362
1JRH I E 93;1JRH I A 95;0.0246178
1JRH I S 94;1JRH I A 95;33.2601
1JRH I S 94;1JRH I Y 96;1.78213
1JRH I A 95;1JRH I Y 96;31.7344
1JRH I A 95;1JRH I A 97;1.09355
1JRH I Y 96;1JRH I A 97;19.2436
1JRH I Y 96;1JRH I K 98;18.1073
1JRH I A 97;1JRH I K 98;23.2968
1JRH I A 97;1JRH I S 99;1.50891
1JRH I K 98;1JRH I S 99;28.2899
1JRH I K 98;1JRH I E 100;0.000118523
1JRH I S 99;1JRH I E 100;36.9647
1JRH I E 100;1JRH I E 101;32.9417
1JRH I E 100;1JRH I F 102;1.36592
1JRH I E 101;1JRH I F 102;28.421
1JRH I E 101;1JRH I A 103;5.72607
1JRH I F 102;1JRH I A 103;38.8835
1JRH I F 102;1JRH I V 104;11.533
1JRH I F 102;1JRH I S 105;13.7615
1JRH I A 103;1JRH I V 104;37.5855
1JRH I A 103;1JRH I S 105;0.795881
1JRH I V 104;1JRH I S 105;40.9832
