V1;V2;Weight
1KTZ A E 13;1KTZ A N 14;42.6271
1KTZ A E 13;1KTZ A C 16;4.69516
1KTZ A E 13;1KTZ A R 18;22.1426
1KTZ A E 13;1KTZ A P 47;23.3735
1KTZ A N 14;1KTZ A C 15;26.7578
1KTZ A N 14;1KTZ A C 16;15.063
1KTZ A N 14;1KTZ A R 18;6.59039
1KTZ A N 14;1KTZ A S 45;0.883833
1KTZ A N 14;1KTZ A G 46;4.50699
1KTZ A N 14;1KTZ A P 47;16.4451
1KTZ A C 15;1KTZ A C 16;24.8545
1KTZ A C 15;1KTZ A S 45;2.04506
1KTZ A C 15;1KTZ A G 46;7.94815
1KTZ A C 15;1KTZ A P 47;8.90129
1KTZ A C 15;1KTZ A C 48;4.24487
1KTZ A C 15;1KTZ A C 78;18.3926
1KTZ A C 15;1KTZ A V 79;0.217284
1KTZ A C 15;1KTZ A C 109;10.3516
1KTZ A C 15;1KTZ A K 110;8.78514
1KTZ A C 15;1KTZ A C 111;14.3606
1KTZ A C 16;1KTZ A V 17;30.831
1KTZ A C 16;1KTZ A R 18;23.462
1KTZ A C 16;1KTZ A F 43;0.836571
1KTZ A C 16;1KTZ A C 44;2.84686
1KTZ A C 16;1KTZ A S 45;11.4849
1KTZ A C 16;1KTZ A C 78;4.02487
1KTZ A C 16;1KTZ A C 109;12.0787
1KTZ A V 17;1KTZ A R 18;26.4826
1KTZ A V 17;1KTZ A P 19;6.61029
1KTZ A V 17;1KTZ A N 42;14.8426
1KTZ A V 17;1KTZ A F 43;5.93092
1KTZ A V 17;1KTZ A C 44;0.111178
1KTZ A V 17;1KTZ A V 106;14.2311
1KTZ A V 17;1KTZ A K 107;13.6381
1KTZ A V 17;1KTZ A S 108;9.48268
1KTZ A V 17;1KTZ A C 109;15.7596
1KTZ A R 18;1KTZ A P 19;32.6752
1KTZ A R 18;1KTZ A L 20;0.710063
1KTZ A R 18;1KTZ A N 42;7.34728
1KTZ A R 18;1KTZ A F 43;37.6652
1KTZ A R 18;1KTZ A C 44;0.400472
1KTZ A R 18;1KTZ A S 45;26.107
1KTZ A R 18;1KTZ A G 46;6.46224
1KTZ A R 18;1KTZ A P 47;0.470949
1KTZ A P 19;1KTZ A L 20;24.8738
1KTZ A P 19;1KTZ A Y 40;14.9292
1KTZ A P 19;1KTZ A N 42;10.596
1KTZ A P 19;1KTZ A F 43;6.32409
1KTZ A L 20;1KTZ A Y 21;31.289
1KTZ A L 20;1KTZ A I 22;21.1267
1KTZ A L 20;1KTZ A Y 39;0.450725
1KTZ A L 20;1KTZ A Y 40;11.2426
1KTZ A L 20;1KTZ A A 41;8.81727
1KTZ A L 20;1KTZ A N 42;24.0704
1KTZ A L 20;1KTZ A F 43;27.695
1KTZ A Y 21;1KTZ A I 22;28.8629
1KTZ A Y 21;1KTZ A D 23;18.7815
1KTZ A Y 21;1KTZ A D 27;5.43757
1KTZ A Y 21;1KTZ A K 37;7.67309
1KTZ A Y 21;1KTZ A G 38;19.1529
1KTZ A Y 21;1KTZ A Y 39;15.4126
1KTZ A Y 21;1KTZ A Y 40;37.4669
1KTZ A I 22;1KTZ A D 23;20.6859
1KTZ A I 22;1KTZ A F 24;4.83414
1KTZ A I 22;1KTZ A D 27;20.005
1KTZ A I 22;1KTZ A L 28;21.0628
1KTZ A I 22;1KTZ A G 38;5.86608
1KTZ A I 22;1KTZ A Y 39;31.368
1KTZ A I 22;1KTZ A A 41;15.9517
1KTZ A D 23;1KTZ A F 24;18.7357
1KTZ A D 23;1KTZ A R 25;11.1617
1KTZ A D 23;1KTZ A Q 26;26.1413
1KTZ A D 23;1KTZ A D 27;22.8955
1KTZ A D 23;1KTZ A L 28;3.124
1KTZ A D 23;1KTZ A K 37;15.3844
1KTZ A D 23;1KTZ A G 38;3.60541
1KTZ A F 24;1KTZ A R 25;20.5082
1KTZ A F 24;1KTZ A Q 26;0.272677
1KTZ A F 24;1KTZ A D 27;0.473185
1KTZ A F 24;1KTZ A L 28;22.1505
1KTZ A F 24;1KTZ A G 29;3.44672
1KTZ A F 24;1KTZ A W 30;30.6758
1KTZ A F 24;1KTZ A V 33;25.3608
1KTZ A F 24;1KTZ A P 36;13.9182
1KTZ A F 24;1KTZ A K 37;15.5201
1KTZ A F 24;1KTZ A G 38;11.3494
1KTZ A F 24;1KTZ A Y 39;13.4567
1KTZ A F 24;1KTZ A L 86;9.23817
1KTZ A F 24;1KTZ A I 88;6.94344
1KTZ A F 24;1KTZ A L 101;2.32713
1KTZ A F 24;1KTZ A M 104;5.8885
1KTZ A R 25;1KTZ A Q 26;40.5872
1KTZ A R 25;1KTZ A D 27;1.11314
1KTZ A R 25;1KTZ A L 28;0.042678
1KTZ A R 25;1KTZ A G 29;14.8565
1KTZ A R 25;1KTZ A W 30;11.5777
1KTZ A R 25;1KTZ A K 31;39.0308
1KTZ A R 25;1KTZ A K 37;4.51143
1KTZ A Q 26;1KTZ A D 27;34.6299
1KTZ A Q 26;1KTZ A L 28;0.0165091
1KTZ A Q 26;1KTZ A G 29;1.97777
1KTZ A D 27;1KTZ A L 28;31.9891
1KTZ A D 27;1KTZ A G 29;2.72323
1KTZ A L 28;1KTZ A G 29;22.9813
1KTZ A L 28;1KTZ A W 30;40.8635
1KTZ A L 28;1KTZ A Y 39;5.36705
1KTZ A L 28;1KTZ A M 104;5.83442
1KTZ A G 29;1KTZ A W 30;22.7411
1KTZ A G 29;1KTZ A K 31;17.2734
1KTZ A W 30;1KTZ A K 31;21.0339
1KTZ A W 30;1KTZ A W 32;40.3037
1KTZ A W 30;1KTZ A V 33;16.7206
1KTZ A W 30;1KTZ A I 88;0.0249503
1KTZ A W 30;1KTZ A L 101;13.8676
1KTZ A W 30;1KTZ A M 104;13.6383
1KTZ A K 31;1KTZ A W 32;22.1631
1KTZ A K 31;1KTZ A V 33;8.4037
1KTZ A W 32;1KTZ A V 33;34.6598
1KTZ A W 32;1KTZ A H 34;4.67515
1KTZ A W 32;1KTZ A I 88;13.1903
1KTZ A W 32;1KTZ A Y 90;26.7535
1KTZ A W 32;1KTZ A Y 91;3.09354
1KTZ A W 32;1KTZ A L 101;6.51107
1KTZ A V 33;1KTZ A H 34;21.6993
1KTZ A V 33;1KTZ A E 35;8.345
1KTZ A V 33;1KTZ A P 36;9.17618
1KTZ A V 33;1KTZ A K 37;12.5917
1KTZ A V 33;1KTZ A I 88;16.8855
1KTZ A V 33;1KTZ A L 89;3.62703
1KTZ A V 33;1KTZ A Y 90;3.77455
1KTZ A V 33;1KTZ A L 101;0.201895
1KTZ A H 34;1KTZ A E 35;38.7795
1KTZ A H 34;1KTZ A P 36;0.539458
1KTZ A H 34;1KTZ A K 37;19.1248
1KTZ A H 34;1KTZ A L 89;23.8972
1KTZ A H 34;1KTZ A Y 90;7.42632
1KTZ A H 34;1KTZ A Y 91;24.4137
1KTZ A E 35;1KTZ A P 36;35.8917
1KTZ A E 35;1KTZ A K 37;20.6319
1KTZ A E 35;1KTZ A I 88;5.11618
1KTZ A E 35;1KTZ A L 89;30.9348
1KTZ A P 36;1KTZ A K 37;23.1598
1KTZ A P 36;1KTZ A G 38;17.079
1KTZ A P 36;1KTZ A Y 39;5.6845
1KTZ A P 36;1KTZ A L 86;10.6465
1KTZ A P 36;1KTZ A T 87;9.89454
1KTZ A P 36;1KTZ A I 88;8.12946
1KTZ A K 37;1KTZ A G 38;18.9044
1KTZ A G 38;1KTZ A Y 39;22.2512
1KTZ A Y 39;1KTZ A Y 40;28.9761
1KTZ A Y 39;1KTZ A A 41;21.3043
1KTZ A Y 39;1KTZ A L 86;27.2798
1KTZ A Y 39;1KTZ A M 104;31.3683
1KTZ A Y 39;1KTZ A V 105;9.79786
1KTZ A Y 40;1KTZ A A 41;14.8102
1KTZ A Y 40;1KTZ A N 42;19.4413
1KTZ A Y 40;1KTZ A V 105;12.8347
1KTZ A A 41;1KTZ A N 42;29.9913
1KTZ A A 41;1KTZ A M 104;9.68759
1KTZ A A 41;1KTZ A V 105;6.03364
1KTZ A A 41;1KTZ A V 106;12.0766
1KTZ A N 42;1KTZ A F 43;23.4285
1KTZ A N 42;1KTZ A V 105;6.92069
1KTZ A N 42;1KTZ A V 106;21.6346
1KTZ A N 42;1KTZ A K 107;5.38071
1KTZ A F 43;1KTZ A C 44;33.4945
1KTZ A F 43;1KTZ A S 45;13.8359
1KTZ A F 43;1KTZ A V 106;11.7454
1KTZ A F 43;1KTZ A C 109;1.15372
1KTZ A C 44;1KTZ A S 45;22.7912
1KTZ A C 44;1KTZ A C 78;18.9573
1KTZ A C 44;1KTZ A V 79;8.1923
1KTZ A C 44;1KTZ A P 80;16.3204
1KTZ A C 44;1KTZ A V 106;7.84002
1KTZ A C 44;1KTZ A S 108;0.58221
1KTZ A C 44;1KTZ A C 109;18.6756
1KTZ A S 45;1KTZ A G 46;25.0726
1KTZ A S 45;1KTZ A C 78;12.6146
1KTZ A G 46;1KTZ A P 47;30.4704
1KTZ A G 46;1KTZ A C 48;4.91755
1KTZ A G 46;1KTZ A C 78;13.4645
1KTZ A P 47;1KTZ A C 48;33.3873
1KTZ A P 47;1KTZ A C 111;2.15766
1KTZ A C 48;1KTZ A P 49;33.7333
1KTZ A C 48;1KTZ A Y 50;3.29681
1KTZ A C 48;1KTZ A S 75;0.0831327
1KTZ A C 48;1KTZ A P 76;18.1091
1KTZ A C 48;1KTZ A C 77;7.79355
1KTZ A C 48;1KTZ A C 78;7.632
1KTZ A C 48;1KTZ A C 111;18.6675
1KTZ A P 49;1KTZ A Y 50;24.5763
1KTZ A P 49;1KTZ A L 51;16.2936
1KTZ A P 49;1KTZ A S 53;1.62145
1KTZ A P 49;1KTZ A S 75;3.34087
1KTZ A P 49;1KTZ A P 76;19.002
1KTZ A P 49;1KTZ A C 111;13.542
1KTZ A Y 50;1KTZ A L 51;50.0748
1KTZ A Y 50;1KTZ A S 75;30.3727
1KTZ A Y 50;1KTZ A P 76;5.73847
1KTZ A L 51;1KTZ A R 52;36.1478
1KTZ A L 51;1KTZ A S 53;3.22279
1KTZ A L 51;1KTZ A P 76;10.7871
1KTZ A R 52;1KTZ A S 53;31.7115
1KTZ A R 52;1KTZ A A 54;21.3272
1KTZ A R 52;1KTZ A S 73;10.5288
1KTZ A R 52;1KTZ A A 74;15.2715
1KTZ A R 52;1KTZ A S 75;2.66967
1KTZ A R 52;1KTZ A P 76;23.3503
1KTZ A R 52;1KTZ A S 112;26.2405
1KTZ A S 53;1KTZ A A 54;36.7806
1KTZ A S 73;1KTZ A A 74;43.0776
1KTZ A A 74;1KTZ A S 75;40.3472
1KTZ A A 74;1KTZ A P 76;0.221518
1KTZ A A 74;1KTZ A C 77;2.12486
1KTZ A S 75;1KTZ A P 76;33.5629
1KTZ A S 75;1KTZ A C 77;10.4506
1KTZ A S 75;1KTZ A S 112;1.58966
1KTZ A P 76;1KTZ A C 77;22.5415
1KTZ A P 76;1KTZ A C 111;8.32107
1KTZ A P 76;1KTZ A S 112;16.0389
1KTZ A C 77;1KTZ A C 78;22.7226
1KTZ A C 77;1KTZ A V 79;17.8107
1KTZ A C 77;1KTZ A K 110;2.28187
1KTZ A C 77;1KTZ A C 111;4.53862
1KTZ A C 77;1KTZ A S 112;21.2384
1KTZ A C 78;1KTZ A V 79;24.2455
1KTZ A C 78;1KTZ A C 109;4.5552
1KTZ A C 78;1KTZ A K 110;2.53647
1KTZ A C 78;1KTZ A C 111;0.711295
1KTZ A V 79;1KTZ A P 80;35.5175
1KTZ A V 79;1KTZ A Q 81;0.101442
1KTZ A V 79;1KTZ A C 109;4.63435
1KTZ A V 79;1KTZ A K 110;29.252
1KTZ A V 79;1KTZ A S 112;13.548
1KTZ A P 80;1KTZ A Q 81;22.9923
1KTZ A P 80;1KTZ A D 82;0.675854
1KTZ A P 80;1KTZ A L 83;20.0945
1KTZ A P 80;1KTZ A V 106;15.2625
1KTZ A P 80;1KTZ A S 108;3.23483
1KTZ A P 80;1KTZ A C 109;1.38712
1KTZ A P 80;1KTZ A K 110;10.7379
1KTZ A Q 81;1KTZ A D 82;38.4022
1KTZ A Q 81;1KTZ A L 83;9.40762
1KTZ A Q 81;1KTZ A S 108;21.2946
1KTZ A Q 81;1KTZ A C 109;13.2764
1KTZ A Q 81;1KTZ A K 110;37.732
1KTZ A D 82;1KTZ A L 83;25.3153
1KTZ A D 82;1KTZ A E 84;11.5537
1KTZ A D 82;1KTZ A V 105;0.276247
1KTZ A D 82;1KTZ A V 106;2.48636
1KTZ A D 82;1KTZ A K 107;19.2209
1KTZ A D 82;1KTZ A S 108;25.9851
1KTZ A L 83;1KTZ A E 84;29.9026
1KTZ A L 83;1KTZ A P 85;1.21018
1KTZ A L 83;1KTZ A N 103;45.9585
1KTZ A L 83;1KTZ A M 104;1.03019
1KTZ A L 83;1KTZ A V 105;8.8142
1KTZ A L 83;1KTZ A V 106;16.9235
1KTZ A L 83;1KTZ A K 107;0.030278
1KTZ A E 84;1KTZ A P 85;42.2618
1KTZ A E 84;1KTZ A N 103;7.61161
1KTZ A E 84;1KTZ A M 104;5.25611
1KTZ A E 84;1KTZ A V 105;25.6857
1KTZ A E 84;1KTZ A K 107;26.1337
1KTZ A P 85;1KTZ A L 86;24.1426
1KTZ A P 85;1KTZ A T 87;0.241724
1KTZ A P 85;1KTZ A Q 100;25.6824
1KTZ A P 85;1KTZ A L 101;7.79033
1KTZ A P 85;1KTZ A S 102;13.0758
1KTZ A P 85;1KTZ A N 103;4.17382
1KTZ A P 85;1KTZ A M 104;2.71198
1KTZ A P 85;1KTZ A V 105;8.27991
1KTZ A L 86;1KTZ A T 87;32.417
1KTZ A L 86;1KTZ A I 88;14.9742
1KTZ A L 86;1KTZ A E 99;0.022847
1KTZ A L 86;1KTZ A Q 100;9.05576
1KTZ A L 86;1KTZ A L 101;18.9754
1KTZ A L 86;1KTZ A M 104;18.8601
1KTZ A L 86;1KTZ A V 105;10.957
1KTZ A T 87;1KTZ A I 88;25.1195
1KTZ A T 87;1KTZ A V 98;17.476
1KTZ A T 87;1KTZ A E 99;8.21146
1KTZ A T 87;1KTZ A Q 100;20.1464
1KTZ A I 88;1KTZ A L 89;23.3705
1KTZ A I 88;1KTZ A Y 90;14.7972
1KTZ A I 88;1KTZ A K 97;0.846284
1KTZ A I 88;1KTZ A V 98;7.26827
1KTZ A I 88;1KTZ A E 99;22.9813
1KTZ A I 88;1KTZ A Q 100;0.643715
1KTZ A I 88;1KTZ A L 101;25.672
1KTZ A L 89;1KTZ A Y 90;23.923
1KTZ A L 89;1KTZ A Y 91;8.20735
1KTZ A L 89;1KTZ A P 96;14.9127
1KTZ A L 89;1KTZ A K 97;12.2987
1KTZ A L 89;1KTZ A V 98;22.3073
1KTZ A Y 90;1KTZ A Y 91;30.5298
1KTZ A Y 90;1KTZ A V 92;14.2072
1KTZ A Y 90;1KTZ A T 95;0.563151
1KTZ A Y 90;1KTZ A P 96;3.1978
1KTZ A Y 90;1KTZ A K 97;41.755
1KTZ A Y 90;1KTZ A E 99;29.4986
1KTZ A Y 91;1KTZ A V 92;19.6433
1KTZ A Y 91;1KTZ A G 93;6.70683
1KTZ A Y 91;1KTZ A R 94;14.19
1KTZ A Y 91;1KTZ A T 95;8.65801
1KTZ A Y 91;1KTZ A P 96;28.0104
1KTZ A Y 91;1KTZ A K 97;0.0117706
1KTZ A V 92;1KTZ A G 93;21.0848
1KTZ A V 92;1KTZ A R 94;0.5949
1KTZ A V 92;1KTZ A T 95;22.2881
1KTZ A V 92;1KTZ A K 97;24.7297
1KTZ A G 93;1KTZ A R 94;19.5281
1KTZ A G 93;1KTZ A T 95;2.77233
1KTZ A R 94;1KTZ A T 95;27.1223
1KTZ A R 94;1KTZ A P 96;7.65769
1KTZ A T 95;1KTZ A P 96;33.9924
1KTZ A T 95;1KTZ A K 97;24.1975
1KTZ A P 96;1KTZ A K 97;25.6974
1KTZ A P 96;1KTZ A V 98;0.049398
1KTZ A K 97;1KTZ A V 98;26.4915
1KTZ A K 97;1KTZ A E 99;3.13417
1KTZ A V 98;1KTZ A E 99;30.5494
1KTZ A E 99;1KTZ A Q 100;36.5526
1KTZ A E 99;1KTZ A L 101;16.6798
1KTZ A Q 100;1KTZ A L 101;25.2285
1KTZ A Q 100;1KTZ A S 102;4.06343
1KTZ A L 101;1KTZ A S 102;24.5797
1KTZ A L 101;1KTZ A M 104;26.8694
1KTZ A S 102;1KTZ A N 103;41.928
1KTZ A S 102;1KTZ A M 104;9.81487
1KTZ A N 103;1KTZ A M 104;25.9923
1KTZ A N 103;1KTZ A V 105;0.997044
1KTZ A M 104;1KTZ A V 105;22.8565
1KTZ A M 104;1KTZ A V 106;2.97937
1KTZ A V 105;1KTZ A V 106;22.8043
1KTZ A V 105;1KTZ A K 107;20.8931
1KTZ A V 106;1KTZ A K 107;21.9029
1KTZ A V 106;1KTZ A S 108;7.83208
1KTZ A V 106;1KTZ A C 109;3.80269
1KTZ A K 107;1KTZ A S 108;25.4579
1KTZ A S 108;1KTZ A C 109;23.2178
1KTZ A C 109;1KTZ A K 110;22.0691
1KTZ A K 110;1KTZ A C 111;29.1214
1KTZ A K 110;1KTZ A S 112;17.3216
1KTZ A C 111;1KTZ A S 112;25.4607
