V1;V2;Weight
1NMB N R 82;1NMB N E 83;35.1762
1NMB N R 82;1NMB N D 125;1.16226
1NMB N R 82;1NMB N P 126;19.7378
1NMB N R 82;1NMB N D 127;17.7248
1NMB N R 82;1NMB N H 184;9.07123
1NMB N R 82;1NMB N G 186;12.2759
1NMB N R 82;1NMB N R 187;53.722
1NMB N E 83;1NMB N F 84;33.8212
1NMB N E 83;1NMB N N 85;3.08554
1NMB N E 83;1NMB N G 186;8.98175
1NMB N E 83;1NMB N R 187;4.61179
1NMB N F 84;1NMB N N 85;26.1891
1NMB N F 84;1NMB N N 86;6.51305
1NMB N F 84;1NMB N D 185;22.1418
1NMB N F 84;1NMB N G 186;1.79747
1NMB N F 84;1NMB N R 187;27.2197
1NMB N F 84;1NMB N Y 207;4.10545
1NMB N F 84;1NMB N N 234;22.9219
1NMB N F 84;1NMB N G 235;17.042
1NMB N F 84;1NMB N K 258;16.3567
1NMB N F 84;1NMB N E 259;22.4459
1NMB N N 85;1NMB N N 86;39.4731
1NMB N N 85;1NMB N L 87;9.62916
1NMB N N 85;1NMB N H 184;2.20571
1NMB N N 85;1NMB N D 185;13.9616
1NMB N N 85;1NMB N G 186;6.59577
1NMB N N 85;1NMB N C 232;12.6201
1NMB N N 85;1NMB N Q 233;1.03979
1NMB N N 85;1NMB N N 234;10.723
1NMB N N 85;1NMB N G 235;0.277724
1NMB N N 85;1NMB N Y 412a;23.5076
1NMB N N 85;1NMB N W 412b;23.4834
1NMB N N 85;1NMB N Y 418;1.92803
1NMB N N 86;1NMB N L 87;17.9628
1NMB N N 86;1NMB N T 88;23.8516
1NMB N N 86;1NMB N C 232;0.250215
1NMB N N 86;1NMB N Q 233;19.4929
1NMB N N 86;1NMB N N 234;21.3707
1NMB N N 86;1NMB N Y 418;7.07422
1NMB N L 87;1NMB N T 88;20.0233
1NMB N L 87;1NMB N K 89;1.43958
1NMB N L 87;1NMB N V 231;13.1486
1NMB N L 87;1NMB N C 232;9.63503
1NMB N L 87;1NMB N Q 233;22.2777
1NMB N L 87;1NMB N G 282;8.16368
1NMB N L 87;1NMB N E 283;9.61005
1NMB N L 87;1NMB N Q 284;10.2964
1NMB N L 87;1NMB N A 285;20.4236
1NMB N L 87;1NMB N G 286;7.99299
1NMB N L 87;1NMB N V 287;7.65924
1NMB N L 87;1NMB N P 307;3.61523
1NMB N L 87;1NMB N Y 412a;10.8056
1NMB N L 87;1NMB N Y 418;11.3712
1NMB N T 88;1NMB N K 89;37.9798
1NMB N T 88;1NMB N Q 284;14.9273
1NMB N T 88;1NMB N Y 418;6.95713
1NMB N K 89;1NMB N G 90;20.1554
1NMB N K 89;1NMB N E 283;4.15803
1NMB N K 89;1NMB N Q 284;13.4667
1NMB N K 89;1NMB N Y 412a;3.85377
1NMB N K 89;1NMB N A 413;10.3842
1NMB N K 89;1NMB N E 414;0.0139057
1NMB N K 89;1NMB N G 415;20.0002
1NMB N K 89;1NMB N E 416;16.6401
1NMB N K 89;1NMB N C 417;12.3525
1NMB N K 89;1NMB N Y 418;41.0549
1NMB N G 90;1NMB N L 91;24.3129
1NMB N G 90;1NMB N C 92;0.09152
1NMB N G 90;1NMB N E 283;10.81
1NMB N G 90;1NMB N Q 284;12.2811
1NMB N G 90;1NMB N E 416;3.18573
1NMB N G 90;1NMB N C 417;10.7401
1NMB N G 90;1NMB N Y 418;10.3502
1NMB N L 91;1NMB N C 92;25.3897
1NMB N L 91;1NMB N T 93;0.712814
1NMB N L 91;1NMB N I 94;8.31709
1NMB N L 91;1NMB N Y 281;16.5114
1NMB N L 91;1NMB N G 282;0.951102
1NMB N L 91;1NMB N E 283;19.0305
1NMB N L 91;1NMB N Y 354;16.5952
1NMB N L 91;1NMB N L 355;1.08336
1NMB N L 91;1NMB N D 356;27.3148
1NMB N L 91;1NMB N N 359;9.23422
1NMB N L 91;1NMB N M 411;10.8628
1NMB N L 91;1NMB N C 417;4.20248
1NMB N L 91;1NMB N Y 418;13.2603
1NMB N L 91;1NMB N A 420;7.97717
1NMB N C 92;1NMB N T 93;28.1028
1NMB N C 92;1NMB N I 94;10.4839
1NMB N C 92;1NMB N N 359;6.28291
1NMB N C 92;1NMB N C 417;35.7744
1NMB N C 92;1NMB N Y 418;9.82856
1NMB N C 92;1NMB N R 419;14.0
1NMB N C 92;1NMB N A 420;0.741001
1NMB N C 92;1NMB N S 448;9.30583
1NMB N C 92;1NMB N T 450;9.15394
1NMB N T 93;1NMB N I 94;22.0925
1NMB N T 93;1NMB N N 95;21.3581
1NMB N T 93;1NMB N N 359;15.8178
1NMB N T 93;1NMB N S 448;3.20597
1NMB N T 93;1NMB N S 449;5.22087
1NMB N T 93;1NMB N T 450;21.6268
1NMB N I 94;1NMB N N 95;25.556
1NMB N I 94;1NMB N S 96;4.71262
1NMB N I 94;1NMB N W 97;21.3679
1NMB N I 94;1NMB N Y 354;10.8798
1NMB N I 94;1NMB N D 356;0.0181731
1NMB N I 94;1NMB N N 359;24.353
1NMB N I 94;1NMB N T 360;0.00502855
1NMB N I 94;1NMB N W 361;29.3128
1NMB N I 94;1NMB N K 378;5.65169
1NMB N I 94;1NMB N Q 392;0.402701
1NMB N I 94;1NMB N A 420;11.8409
1NMB N I 94;1NMB N S 448;18.8315
1NMB N I 94;1NMB N S 449;1.90117
1NMB N N 95;1NMB N S 96;26.1137
1NMB N N 95;1NMB N W 361;9.85603
1NMB N N 95;1NMB N K 378;6.47699
1NMB N N 95;1NMB N Q 392;20.2933
1NMB N N 95;1NMB N Q 395;0.892022
1NMB N N 95;1NMB N S 448;0.0150856
1NMB N N 95;1NMB N S 449;7.31279
1NMB N N 95;1NMB N T 450;17.9091
1NMB N N 95;1NMB N E 451;5.99404
1NMB N N 95;1NMB N F 452;35.0855
1NMB N S 96;1NMB N W 97;26.5929
1NMB N S 96;1NMB N H 98;1.74386
1NMB N S 96;1NMB N W 361;1.99659
1NMB N S 96;1NMB N Q 392;0.00483032
1NMB N S 96;1NMB N Q 395;14.2814
1NMB N S 96;1NMB N C 447;0.268505
1NMB N S 96;1NMB N S 448;5.78943
1NMB N S 96;1NMB N S 449;19.1756
1NMB N S 96;1NMB N E 451;7.59326
1NMB N S 96;1NMB N F 452;4.33269
1NMB N S 96;1NMB N L 453;25.0439
1NMB N S 96;1NMB N G 454;0.000633837
1NMB N W 97;1NMB N H 98;20.145
1NMB N W 97;1NMB N I 99;0.876596
1NMB N W 97;1NMB N F 352;0.110698
1NMB N W 97;1NMB N Y 354;9.05458
1NMB N W 97;1NMB N W 361;26.721
1NMB N W 97;1NMB N M 376;23.0027
1NMB N W 97;1NMB N Q 395;27.1626
1NMB N W 97;1NMB N I 397;4.34251
1NMB N W 97;1NMB N A 420;9.52781
1NMB N W 97;1NMB N C 421;2.72727
1NMB N W 97;1NMB N F 422;20.725
1NMB N W 97;1NMB N M 446;24.8071
1NMB N W 97;1NMB N C 447;11.8424
1NMB N W 97;1NMB N S 448;9.94691
1NMB N W 97;1NMB N L 453;3.31175
1NMB N H 98;1NMB N I 99;35.8383
1NMB N H 98;1NMB N Y 100;10.9171
1NMB N H 98;1NMB N R 419;19.8013
1NMB N H 98;1NMB N M 446;9.45615
1NMB N H 98;1NMB N C 447;27.3858
1NMB N H 98;1NMB N S 448;7.51783
1NMB N H 98;1NMB N S 449;10.4607
1NMB N H 98;1NMB N L 453;19.7429
1NMB N I 99;1NMB N Y 100;26.4946
1NMB N I 99;1NMB N G 101;10.8179
1NMB N I 99;1NMB N K 102;7.48752
1NMB N I 99;1NMB N V 444;8.78922
1NMB N I 99;1NMB N S 445;4.50696
1NMB N I 99;1NMB N M 446;17.2917
1NMB N I 99;1NMB N W 458;37.4023
1NMB N Y 100;1NMB N G 101;23.3259
1NMB N Y 100;1NMB N V 122;4.90519
1NMB N Y 100;1NMB N C 124;0.484339
1NMB N Y 100;1NMB N C 129;16.6687
1NMB N Y 100;1NMB N F 131;0.3866
1NMB N Y 100;1NMB N L 163;32.0181
1NMB N Y 100;1NMB N S 164;2.6793
1NMB N Y 100;1NMB N F 410;17.0199
1NMB N Y 100;1NMB N D 412;4.71582
1NMB N Y 100;1NMB N C 421;1.30546
1NMB N Y 100;1NMB N S 445;18.7398
1NMB N Y 100;1NMB N M 446;8.0026
1NMB N Y 100;1NMB N C 447;22.6981
1NMB N G 101;1NMB N K 102;23.1713
1NMB N G 101;1NMB N F 131;6.81813
1NMB N G 101;1NMB N L 163;3.56689
1NMB N G 101;1NMB N S 164;9.69575
1NMB N G 101;1NMB N I 443;0.07379
1NMB N G 101;1NMB N V 444;5.74725
1NMB N G 101;1NMB N S 445;17.1977
1NMB N K 102;1NMB N D 103;22.6748
1NMB N K 102;1NMB N N 104;32.9147
1NMB N K 102;1NMB N F 131;4.47503
1NMB N K 102;1NMB N S 164;17.8188
1NMB N K 102;1NMB N L 426;5.37252
1NMB N K 102;1NMB N S 442;2.90154
1NMB N K 102;1NMB N I 443;11.475
1NMB N K 102;1NMB N V 444;15.8253
1NMB N K 102;1NMB N W 458;25.7792
1NMB N K 102;1NMB N P 459;13.5354
1NMB N K 102;1NMB N D 460;9.07269
1NMB N K 102;1NMB N G 461;0.580124
1NMB N D 103;1NMB N N 104;21.3236
1NMB N D 103;1NMB N A 105;16.2473
1NMB N D 103;1NMB N I 108;0.0414
1NMB N D 103;1NMB N F 131;11.8895
1NMB N D 103;1NMB N W 161;5.44244
1NMB N D 103;1NMB N S 164;13.8951
1NMB N D 103;1NMB N S 165;7.9218
1NMB N D 103;1NMB N P 166;8.80684
1NMB N D 103;1NMB N P 167;5.16595
1NMB N D 103;1NMB N S 442;10.8785
1NMB N D 103;1NMB N I 443;23.8654
1NMB N N 104;1NMB N A 105;16.1073
1NMB N N 104;1NMB N V 106;2.50712
1NMB N N 104;1NMB N R 107;31.9962
1NMB N N 104;1NMB N I 108;25.7015
1NMB N N 104;1NMB N P 166;0.708451
1NMB N N 104;1NMB N S 442;3.31479
1NMB N N 104;1NMB N D 460;8.8876
1NMB N N 104;1NMB N G 461;0.240993
1NMB N A 105;1NMB N V 106;19.4961
1NMB N A 105;1NMB N R 107;0.829348
1NMB N A 105;1NMB N I 108;4.10085
1NMB N A 105;1NMB N G 109;8.6006
1NMB N A 105;1NMB N V 114;14.6467
1NMB N A 105;1NMB N T 117;0.0897445
1NMB N A 105;1NMB N I 140;4.38251
1NMB N A 105;1NMB N P 166;10.4986
1NMB N A 105;1NMB N P 167;9.54175
1NMB N A 105;1NMB N N 441;9.39791
1NMB N A 105;1NMB N S 442;10.4488
1NMB N V 106;1NMB N R 107;22.271
1NMB N V 106;1NMB N I 108;0.191652
1NMB N V 106;1NMB N G 109;5.51336
1NMB N V 106;1NMB N E 110;4.36182
1NMB N V 106;1NMB N I 140;15.2415
1NMB N V 106;1NMB N R 428;14.0246
1NMB N V 106;1NMB N W 438;11.515
1NMB N V 106;1NMB N S 440;5.6185
1NMB N V 106;1NMB N N 441;14.0472
1NMB N V 106;1NMB N S 442;5.43164
1NMB N V 106;1NMB N D 460;13.2275
1NMB N V 106;1NMB N A 462;13.1352
1NMB N V 106;1NMB N I 464;2.18924
1NMB N V 106;1NMB N F 467;19.4908
1NMB N R 107;1NMB N I 108;26.1317
1NMB N R 107;1NMB N G 109;1.28066
1NMB N R 107;1NMB N E 110;15.1854
1NMB N R 107;1NMB N D 460;6.63922
1NMB N R 107;1NMB N G 461;23.5555
1NMB N R 107;1NMB N A 462;18.0989
1NMB N R 107;1NMB N K 463;5.54183
1NMB N R 107;1NMB N F 467;0.252323
1NMB N I 108;1NMB N G 109;16.1673
1NMB N I 108;1NMB N E 110;3.20552
1NMB N I 108;1NMB N D 111;11.9738
1NMB N I 108;1NMB N S 112;21.9255
1NMB N I 108;1NMB N V 114;5.73811
1NMB N I 108;1NMB N P 166;26.6913
1NMB N G 109;1NMB N E 110;15.8948
1NMB N G 109;1NMB N D 111;3.05487
1NMB N G 109;1NMB N S 112;12.5508
1NMB N G 109;1NMB N V 114;14.3116
1NMB N G 109;1NMB N I 140;14.3642
1NMB N G 109;1NMB N R 141;8.00434
1NMB N G 109;1NMB N F 467;1.14084
1NMB N E 110;1NMB N D 111;41.1271
1NMB N E 110;1NMB N S 112;0.0376223
1NMB N E 110;1NMB N I 140;0.0683743
1NMB N E 110;1NMB N R 141;37.6463
1NMB N E 110;1NMB N Y 466;24.2043
1NMB N E 110;1NMB N F 467;20.6412
1NMB N D 111;1NMB N S 112;33.7684
1NMB N D 111;1NMB N R 141;0.532527
1NMB N S 112;1NMB N D 113;34.0682
1NMB N S 112;1NMB N V 114;12.9818
1NMB N S 112;1NMB N T 139;3.10208
1NMB N S 112;1NMB N R 141;4.20185
1NMB N S 112;1NMB N P 166;0.0681275
1NMB N S 112;1NMB N T 168;2.90532
1NMB N D 113;1NMB N V 114;17.9475
1NMB N D 113;1NMB N L 115;1.31825
1NMB N D 113;1NMB N T 139;17.6771
1NMB N D 113;1NMB N T 168;14.5168
1NMB N D 113;1NMB N V 169;17.5744
1NMB N D 113;1NMB N Y 169a;32.077
1NMB N V 114;1NMB N L 115;23.4091
1NMB N V 114;1NMB N V 116;0.0755424
1NMB N V 114;1NMB N T 139;11.7103
1NMB N V 114;1NMB N I 140;19.9426
1NMB N V 114;1NMB N P 166;11.9747
1NMB N V 114;1NMB N P 167;16.965
1NMB N V 114;1NMB N T 168;8.93452
1NMB N L 115;1NMB N V 116;19.6054
1NMB N L 115;1NMB N T 117;11.6531
1NMB N L 115;1NMB N S 135;15.8664
1NMB N L 115;1NMB N G 137;6.10411
1NMB N L 115;1NMB N T 138;15.4485
1NMB N L 115;1NMB N T 139;9.48968
1NMB N L 115;1NMB N I 140;5.19833
1NMB N L 115;1NMB N I 159;14.783
1NMB N L 115;1NMB N P 167;18.218
1NMB N L 115;1NMB N T 168;3.36949
1NMB N L 115;1NMB N V 169;25.0096
1NMB N L 115;1NMB N S 171;11.3206
1NMB N L 115;1NMB N S 440;2.28888
1NMB N V 116;1NMB N T 117;24.2341
1NMB N V 116;1NMB N S 135;5.78774
1NMB N V 116;1NMB N Q 136;21.4234
1NMB N V 116;1NMB N T 138;17.5727
1NMB N V 116;1NMB N T 139;7.83704
1NMB N V 116;1NMB N I 140;14.8992
1NMB N V 116;1NMB N S 145;6.78393
1NMB N V 116;1NMB N T 148;11.7798
1NMB N V 116;1NMB N W 438;4.8127
1NMB N V 116;1NMB N T 439;7.56676
1NMB N V 116;1NMB N S 440;12.7356
1NMB N T 117;1NMB N R 118;24.4596
1NMB N T 117;1NMB N P 120;0.00687225
1NMB N T 117;1NMB N A 133;13.4579
1NMB N T 117;1NMB N L 134;8.6457
1NMB N T 117;1NMB N S 135;7.54565
1NMB N T 117;1NMB N Q 136;5.89889
1NMB N T 117;1NMB N R 156;1.23575
1NMB N T 117;1NMB N I 159;7.73377
1NMB N T 117;1NMB N W 161;6.38576
1NMB N T 117;1NMB N P 167;13.1635
1NMB N T 117;1NMB N T 439;2.93487
1NMB N T 117;1NMB N S 440;14.9544
1NMB N T 117;1NMB N N 441;21.1841
1NMB N R 118;1NMB N E 119;46.1296
1NMB N R 118;1NMB N P 120;5.27492
1NMB N R 118;1NMB N A 133;5.52432
1NMB N R 118;1NMB N L 134;12.2373
1NMB N R 118;1NMB N Q 136;1.53725
1NMB N R 118;1NMB N D 151;7.49434
1NMB N R 118;1NMB N R 156;8.97612
1NMB N R 118;1NMB N R 371;9.88977
1NMB N R 118;1NMB N Y 406;19.0224
1NMB N R 118;1NMB N E 425;18.104
1NMB N R 118;1NMB N I 427;18.6835
1NMB N R 118;1NMB N T 439;17.0797
1NMB N R 118;1NMB N S 440;6.53917
1NMB N R 118;1NMB N N 441;13.8985
1NMB N E 119;1NMB N P 120;22.9978
1NMB N E 119;1NMB N Y 121;9.76492
1NMB N E 119;1NMB N A 133;5.63936
1NMB N E 119;1NMB N L 134;23.9374
1NMB N E 119;1NMB N D 151;12.2031
1NMB N E 119;1NMB N R 156;12.1647
1NMB N E 119;1NMB N L 158;0.0129183
1NMB N E 119;1NMB N W 178;0.739661
1NMB N E 119;1NMB N S 180;0.233566
1NMB N E 119;1NMB N E 227;24.3264
1NMB N E 119;1NMB N Y 406;20.5109
1NMB N E 119;1NMB N E 425;6.34355
1NMB N P 120;1NMB N Y 121;23.0332
1NMB N P 120;1NMB N Y 132;7.56014
1NMB N P 120;1NMB N A 133;11.4737
1NMB N P 120;1NMB N W 161;1.64791
1NMB N P 120;1NMB N E 227;3.72083
1NMB N P 120;1NMB N Y 406;3.40292
1NMB N P 120;1NMB N Y 423;19.2651
1NMB N P 120;1NMB N E 425;19.7592
1NMB N P 120;1NMB N N 441;13.3392
1NMB N P 120;1NMB N S 442;0.00625004
1NMB N P 120;1NMB N I 443;18.3574
1NMB N Y 121;1NMB N V 122;29.1562
1NMB N Y 121;1NMB N S 123;4.61525
1NMB N Y 121;1NMB N R 130;0.0565071
1NMB N Y 121;1NMB N F 131;5.82328
1NMB N Y 121;1NMB N Y 132;37.1937
1NMB N Y 121;1NMB N A 133;2.28947
1NMB N Y 121;1NMB N L 134;0.0930441
1NMB N Y 121;1NMB N L 158;13.4722
1NMB N Y 121;1NMB N S 180;12.0812
1NMB N Y 121;1NMB N T 181;10.6168
1NMB N Y 121;1NMB N S 182;12.1115
1NMB N Y 121;1NMB N E 227;11.6115
1NMB N Y 121;1NMB N S 228;16.6223
1NMB N Y 121;1NMB N E 229;14.2866
1NMB N Y 121;1NMB N S 409;0.472461
1NMB N Y 121;1NMB N Y 423;17.9276
1NMB N Y 121;1NMB N I 443;4.31126
1NMB N V 122;1NMB N S 123;23.8265
1NMB N V 122;1NMB N C 124;2.34423
1NMB N V 122;1NMB N C 129;6.58555
1NMB N V 122;1NMB N R 130;9.56377
1NMB N V 122;1NMB N F 131;16.2825
1NMB N V 122;1NMB N Y 132;2.04513
1NMB N V 122;1NMB N L 163;3.90359
1NMB N V 122;1NMB N E 229;7.22069
1NMB N V 122;1NMB N S 409;0.409899
1NMB N V 122;1NMB N F 410;36.6894
1NMB N V 122;1NMB N Y 423;15.4042
1NMB N V 122;1NMB N I 443;2.77105
1NMB N V 122;1NMB N S 445;5.37319
1NMB N S 123;1NMB N C 124;28.0579
1NMB N S 123;1NMB N D 125;1.07099
1NMB N S 123;1NMB N C 129;5.44404
1NMB N S 123;1NMB N R 130;12.4158
1NMB N S 123;1NMB N Y 132;16.4006
1NMB N S 123;1NMB N S 182;5.06013
1NMB N S 123;1NMB N C 183;3.6202
1NMB N S 123;1NMB N H 184;1.06031
1NMB N S 123;1NMB N R 189;14.7398
1NMB N S 123;1NMB N E 229;21.2244
1NMB N S 123;1NMB N F 410;2.55992
1NMB N C 124;1NMB N D 125;21.3679
1NMB N C 124;1NMB N E 128;5.67546
1NMB N C 124;1NMB N C 129;22.3725
1NMB N C 124;1NMB N R 130;0.109003
1NMB N C 124;1NMB N H 184;4.03702
1NMB N C 124;1NMB N R 189;7.03091
1NMB N C 124;1NMB N E 229;4.26845
1NMB N C 124;1NMB N F 410;10.4591
1NMB N C 124;1NMB N M 411;7.59175
1NMB N C 124;1NMB N D 412;14.0113
1NMB N C 124;1NMB N W 412b;19.589
1NMB N D 125;1NMB N P 126;22.3285
1NMB N D 125;1NMB N D 127;16.1896
1NMB N D 125;1NMB N E 128;25.9977
1NMB N D 125;1NMB N C 129;0.167154
1NMB N D 125;1NMB N R 130;11.4294
1NMB N D 125;1NMB N Y 132;5.25744
1NMB N D 125;1NMB N R 172;1.63615
1NMB N D 125;1NMB N H 184;18.0547
1NMB N D 125;1NMB N R 189;15.0808
1NMB N D 125;1NMB N D 412;1.69142
1NMB N D 125;1NMB N W 412b;10.8482
1NMB N P 126;1NMB N D 127;29.9696
1NMB N P 126;1NMB N H 184;13.8431
1NMB N P 126;1NMB N G 186;11.3419
1NMB N P 126;1NMB N W 412b;38.5909
1NMB N D 127;1NMB N E 128;42.2112
1NMB N E 128;1NMB N C 129;33.5863
1NMB N E 128;1NMB N R 130;29.2866
1NMB N E 128;1NMB N P 162;8.82476
1NMB N E 128;1NMB N L 163;0.524675
1NMB N E 128;1NMB N R 172;5.48242
1NMB N C 129;1NMB N R 130;23.4183
1NMB N C 129;1NMB N L 163;25.4082
1NMB N C 129;1NMB N F 410;0.114951
1NMB N C 129;1NMB N D 412;13.8754
1NMB N R 130;1NMB N F 131;20.6879
1NMB N R 130;1NMB N Y 132;22.224
1NMB N R 130;1NMB N S 160;16.3934
1NMB N R 130;1NMB N W 161;19.4275
1NMB N R 130;1NMB N P 162;15.38
1NMB N R 130;1NMB N L 163;7.72485
1NMB N R 130;1NMB N N 170;2.73681
1NMB N R 130;1NMB N R 172;33.7458
1NMB N F 131;1NMB N Y 132;21.6059
1NMB N F 131;1NMB N S 160;5.74282
1NMB N F 131;1NMB N W 161;36.5056
1NMB N F 131;1NMB N P 162;1.25641
1NMB N F 131;1NMB N L 163;19.8982
1NMB N F 131;1NMB N S 164;14.3454
1NMB N F 131;1NMB N S 165;1.5855
1NMB N F 131;1NMB N I 443;28.7041
1NMB N F 131;1NMB N V 444;0.0317037
1NMB N F 131;1NMB N S 445;8.43414
1NMB N Y 132;1NMB N A 133;17.4973
1NMB N Y 132;1NMB N L 158;15.2017
1NMB N Y 132;1NMB N I 159;7.79094
1NMB N Y 132;1NMB N S 160;18.2196
1NMB N Y 132;1NMB N W 161;8.69003
1NMB N Y 132;1NMB N R 172;1.98271
1NMB N Y 132;1NMB N E 174;12.2329
1NMB N Y 132;1NMB N S 182;8.59234
1NMB N Y 132;1NMB N R 189;22.395
1NMB N Y 132;1NMB N S 191;1.10832
1NMB N Y 132;1NMB N I 443;1.09031
1NMB N A 133;1NMB N L 134;20.1482
1NMB N A 133;1NMB N S 135;2.97499
1NMB N A 133;1NMB N D 157;1.2693
1NMB N A 133;1NMB N L 158;13.8979
1NMB N A 133;1NMB N I 159;16.3338
1NMB N A 133;1NMB N W 161;11.6099
1NMB N A 133;1NMB N N 441;0.0669718
1NMB N L 134;1NMB N S 135;19.1595
1NMB N L 134;1NMB N Q 136;1.24169
1NMB N L 134;1NMB N R 156;24.8477
1NMB N L 134;1NMB N D 157;6.7837
1NMB N L 134;1NMB N L 158;13.4272
1NMB N L 134;1NMB N G 177;8.67571
1NMB N L 134;1NMB N W 178;16.1327
1NMB N L 134;1NMB N S 179;8.71537
1NMB N L 134;1NMB N S 180;12.1098
1NMB N L 134;1NMB N C 193;0.858547
1NMB N L 134;1NMB N E 227;6.73383
1NMB N S 135;1NMB N Q 136;17.7554
1NMB N S 135;1NMB N G 137;10.5103
1NMB N S 135;1NMB N T 138;0.184337
1NMB N S 135;1NMB N R 156;14.0333
1NMB N S 135;1NMB N D 157;21.6125
1NMB N S 135;1NMB N I 159;18.0441
1NMB N Q 136;1NMB N G 137;20.7481
1NMB N Q 136;1NMB N T 138;14.266
1NMB N Q 136;1NMB N T 148;30.1586
1NMB N Q 136;1NMB N I 149;0.234891
1NMB N Q 136;1NMB N H 150;11.8458
1NMB N Q 136;1NMB N D 151;1.62852
1NMB N Q 136;1NMB N R 152;0.0293008
1NMB N Q 136;1NMB N S 153;8.22579
1NMB N Q 136;1NMB N Y 155;14.6545
1NMB N Q 136;1NMB N R 156;29.8023
1NMB N Q 136;1NMB N T 439;0.44788
1NMB N G 137;1NMB N T 138;29.025
1NMB N G 137;1NMB N H 144;2.76585
1NMB N G 137;1NMB N Y 155;15.7397
1NMB N G 137;1NMB N R 156;0.699333
1NMB N G 137;1NMB N D 157;8.58195
1NMB N T 138;1NMB N T 139;30.6039
1NMB N T 138;1NMB N G 142;4.97128
1NMB N T 138;1NMB N H 144;29.1748
1NMB N T 138;1NMB N S 145;7.06891
1NMB N T 138;1NMB N T 148;6.72378
1NMB N T 139;1NMB N I 140;18.815
1NMB N T 139;1NMB N R 141;6.87029
1NMB N T 139;1NMB N G 142;17.5764
1NMB N T 139;1NMB N S 145;5.35193
1NMB N T 139;1NMB N V 169;14.3694
1NMB N I 140;1NMB N R 141;29.7887
1NMB N I 140;1NMB N G 142;4.0479
1NMB N I 140;1NMB N S 145;10.6122
1NMB N I 140;1NMB N W 438;27.15
1NMB N I 140;1NMB N S 440;13.4883
1NMB N I 140;1NMB N N 441;0.396072
1NMB N I 140;1NMB N F 467;13.5409
1NMB N R 141;1NMB N G 142;30.2158
1NMB N R 141;1NMB N K 143;2.47497
1NMB N R 141;1NMB N Y 466;9.06653
1NMB N R 141;1NMB N F 467;29.6188
1NMB N R 141;1NMB N L 468;2.91887
1NMB N G 142;1NMB N K 143;26.9009
1NMB N G 142;1NMB N H 144;5.75405
1NMB N G 142;1NMB N S 145;13.3202
1NMB N K 143;1NMB N H 144;30.5273
1NMB N K 143;1NMB N S 145;4.92551
1NMB N K 143;1NMB N N 146;15.2888
1NMB N H 144;1NMB N S 145;15.9287
1NMB N H 144;1NMB N N 146;7.47816
1NMB N H 144;1NMB N T 148;3.84673
1NMB N S 145;1NMB N N 146;23.732
1NMB N S 145;1NMB N G 147;1.86226
1NMB N S 145;1NMB N T 148;16.1838
1NMB N S 145;1NMB N W 437;2.66411
1NMB N S 145;1NMB N W 438;23.8475
1NMB N N 146;1NMB N G 147;29.4489
1NMB N N 146;1NMB N T 148;1.30586
1NMB N N 146;1NMB N W 437;42.131
1NMB N G 147;1NMB N T 148;21.525
1NMB N G 147;1NMB N I 149;12.7018
1NMB N G 147;1NMB N H 150;22.5089
1NMB N G 147;1NMB N W 437;8.42251
1NMB N T 148;1NMB N I 149;21.311
1NMB N T 148;1NMB N H 150;5.98485
1NMB N T 148;1NMB N W 437;2.03717
1NMB N T 148;1NMB N W 438;8.94359
1NMB N T 148;1NMB N T 439;20.7293
1NMB N I 149;1NMB N H 150;38.5976
1NMB N I 149;1NMB N D 151;14.149
1NMB N I 149;1NMB N R 430;20.7219
1NMB N I 149;1NMB N P 431;21.7583
1NMB N I 149;1NMB N W 437;1.84829
1NMB N I 149;1NMB N W 438;0.91924
1NMB N I 149;1NMB N T 439;22.9209
1NMB N H 150;1NMB N D 151;21.9927
1NMB N H 150;1NMB N R 152;12.3188
1NMB N H 150;1NMB N S 153;3.82909
1NMB N H 150;1NMB N R 156;0.439741
1NMB N D 151;1NMB N R 152;47.5431
1NMB N D 151;1NMB N R 156;20.8819
1NMB N D 151;1NMB N W 178;8.22966
1NMB N R 152;1NMB N S 153;30.0781
1NMB N R 152;1NMB N R 156;3.81408
1NMB N R 152;1NMB N W 178;37.5625
1NMB N R 152;1NMB N N 198;19.7405
1NMB N R 152;1NMB N I 222;32.8614
1NMB N S 153;1NMB N Q 154;32.4725
1NMB N S 153;1NMB N Y 155;25.8918
1NMB N S 153;1NMB N R 156;21.9684
1NMB N S 153;1NMB N G 177;1.03798
1NMB N S 153;1NMB N W 178;17.9939
1NMB N Q 154;1NMB N Y 155;49.4132
1NMB N Q 154;1NMB N R 156;4.84631
1NMB N Q 154;1NMB N D 157;1.78855
1NMB N Q 154;1NMB N I 176;13.5617
1NMB N Q 154;1NMB N W 178;0.603038
1NMB N Q 154;1NMB N S 195;0.554764
1NMB N Y 155;1NMB N R 156;21.5468
1NMB N Y 155;1NMB N D 157;6.77483
1NMB N R 156;1NMB N D 157;25.9909
1NMB N R 156;1NMB N I 176;7.50734
1NMB N R 156;1NMB N G 177;15.9065
1NMB N R 156;1NMB N W 178;14.3352
1NMB N D 157;1NMB N L 158;18.7058
1NMB N D 157;1NMB N I 159;9.55776
1NMB N D 157;1NMB N V 173;20.0266
1NMB N D 157;1NMB N C 175;4.74289
1NMB N D 157;1NMB N I 176;22.6185
1NMB N D 157;1NMB N G 177;5.34021
1NMB N L 158;1NMB N I 159;22.1219
1NMB N L 158;1NMB N V 173;4.13373
1NMB N L 158;1NMB N E 174;22.3232
1NMB N L 158;1NMB N C 175;15.985
1NMB N L 158;1NMB N G 177;1.97273
1NMB N L 158;1NMB N S 180;14.6879
1NMB N L 158;1NMB N T 181;2.9308
1NMB N L 158;1NMB N S 182;4.79822
1NMB N L 158;1NMB N S 191;7.65715
1NMB N L 158;1NMB N I 192;2.08526
1NMB N L 158;1NMB N C 193;12.2656
1NMB N I 159;1NMB N S 160;18.8895
1NMB N I 159;1NMB N W 161;15.3948
1NMB N I 159;1NMB N P 167;7.85777
1NMB N I 159;1NMB N S 171;15.5587
1NMB N I 159;1NMB N R 172;7.52566
1NMB N I 159;1NMB N V 173;16.9312
1NMB N I 159;1NMB N E 174;2.45501
1NMB N S 160;1NMB N W 161;22.1821
1NMB N S 160;1NMB N N 170;0.842715
1NMB N S 160;1NMB N S 171;5.4688
1NMB N S 160;1NMB N R 172;28.4868
1NMB N S 160;1NMB N E 174;11.9009
1NMB N W 161;1NMB N P 162;31.8558
1NMB N W 161;1NMB N L 163;1.3891
1NMB N W 161;1NMB N S 165;14.5063
1NMB N W 161;1NMB N P 166;4.87956
1NMB N W 161;1NMB N P 167;28.2829
1NMB N W 161;1NMB N N 170;7.60583
1NMB N W 161;1NMB N S 171;7.22438
1NMB N W 161;1NMB N I 443;12.1397
1NMB N P 162;1NMB N L 163;26.411
1NMB N P 162;1NMB N S 164;2.19051
1NMB N P 162;1NMB N S 165;23.4627
1NMB N P 162;1NMB N N 170;20.8916
1NMB N L 163;1NMB N S 164;33.0567
1NMB N L 163;1NMB N S 165;6.19283
1NMB N L 163;1NMB N S 445;0.354908
1NMB N S 164;1NMB N S 165;22.2121
1NMB N S 164;1NMB N P 166;1.46254
1NMB N S 165;1NMB N P 166;30.755
1NMB N S 165;1NMB N P 167;0.0290595
1NMB N S 165;1NMB N N 170;11.8889
1NMB N P 166;1NMB N P 167;19.5296
1NMB N P 166;1NMB N T 168;21.2141
1NMB N P 166;1NMB N N 170;9.17504
1NMB N P 167;1NMB N T 168;15.2996
1NMB N P 167;1NMB N N 170;0.916578
1NMB N P 167;1NMB N S 171;7.57611
1NMB N T 168;1NMB N V 169;16.2227
1NMB N T 168;1NMB N Y 169a;16.9584
1NMB N T 168;1NMB N N 170;28.0423
1NMB N T 168;1NMB N S 171;11.1929
1NMB N V 169;1NMB N Y 169a;39.1589
1NMB N V 169;1NMB N N 170;1.90546
1NMB N V 169;1NMB N S 171;11.7117
1NMB N Y 169a;1NMB N N 170;25.9788
1NMB N Y 169a;1NMB N S 171;1.20823
1NMB N N 170;1NMB N S 171;29.9579
1NMB N N 170;1NMB N R 172;3.65474
1NMB N S 171;1NMB N R 172;27.5871
1NMB N S 171;1NMB N V 173;0.954983
1NMB N R 172;1NMB N V 173;29.5823
1NMB N R 172;1NMB N E 174;15.7839
1NMB N R 172;1NMB N R 209;21.5764
1NMB N V 173;1NMB N E 174;20.6216
1NMB N V 173;1NMB N C 175;10.5183
1NMB N V 173;1NMB N I 176;12.2623
1NMB N V 173;1NMB N R 209;10.119
1NMB N E 174;1NMB N C 175;26.5186
1NMB N E 174;1NMB N R 189;10.8429
1NMB N E 174;1NMB N S 191;18.0636
1NMB N E 174;1NMB N W 206;11.7817
1NMB N E 174;1NMB N R 209;36.0084
1NMB N C 175;1NMB N I 176;26.9752
1NMB N C 175;1NMB N G 177;0.195867
1NMB N C 175;1NMB N S 191;9.22515
1NMB N C 175;1NMB N I 192;4.82547
1NMB N C 175;1NMB N C 193;25.9212
1NMB N C 175;1NMB N V 204;0.0504473
1NMB N C 175;1NMB N W 206;26.7652
1NMB N I 176;1NMB N G 177;20.8506
1NMB N I 176;1NMB N C 193;15.6877
1NMB N I 176;1NMB N I 194;0.372248
1NMB N I 176;1NMB N S 195;15.5468
1NMB N I 176;1NMB N W 206;2.07099
1NMB N G 177;1NMB N W 178;19.9725
1NMB N G 177;1NMB N S 179;2.90916
1NMB N G 177;1NMB N C 193;9.01249
1NMB N G 177;1NMB N I 194;7.43038
1NMB N G 177;1NMB N S 195;10.142
1NMB N W 178;1NMB N S 179;30.5377
1NMB N W 178;1NMB N I 194;20.768
1NMB N W 178;1NMB N S 195;15.4269
1NMB N W 178;1NMB N G 196;21.2483
1NMB N W 178;1NMB N P 197;2.03132
1NMB N W 178;1NMB N N 198;4.43757
1NMB N W 178;1NMB N A 201;10.6419
1NMB N W 178;1NMB N I 222;12.1661
1NMB N W 178;1NMB N L 223;8.71349
1NMB N W 178;1NMB N R 224;2.66009
1NMB N W 178;1NMB N E 227;3.99904
1NMB N S 179;1NMB N S 180;20.2168
1NMB N S 179;1NMB N I 192;0.222347
1NMB N S 179;1NMB N C 193;5.90222
1NMB N S 179;1NMB N I 194;22.2678
1NMB N S 179;1NMB N L 223;0.124204
1NMB N S 179;1NMB N R 224;10.4482
1NMB N S 179;1NMB N T 225;12.5196
1NMB N S 179;1NMB N E 227;17.5776
1NMB N S 180;1NMB N T 181;22.1414
1NMB N S 180;1NMB N I 192;11.2444
1NMB N S 180;1NMB N C 193;5.83404
1NMB N S 180;1NMB N I 194;0.00086417
1NMB N S 180;1NMB N T 225;13.9537
1NMB N S 180;1NMB N Q 226;1.63838
1NMB N S 180;1NMB N E 227;20.8781
1NMB N S 180;1NMB N S 228;0.347907
1NMB N T 181;1NMB N S 182;22.5847
1NMB N T 181;1NMB N M 190;0.185856
1NMB N T 181;1NMB N S 191;3.31485
1NMB N T 181;1NMB N I 192;28.395
1NMB N T 181;1NMB N T 225;8.3577
1NMB N T 181;1NMB N Q 226;12.9624
1NMB N T 181;1NMB N E 227;0.224029
1NMB N T 181;1NMB N S 228;11.2883
1NMB N T 181;1NMB N E 229;1.05657
1NMB N T 181;1NMB N C 230;16.3859
1NMB N T 181;1NMB N V 239;10.5386
1NMB N T 181;1NMB N F 241;0.000222266
1NMB N S 182;1NMB N C 183;16.2634
1NMB N S 182;1NMB N R 189;18.1526
1NMB N S 182;1NMB N M 190;8.78464
1NMB N S 182;1NMB N S 191;10.6717
1NMB N S 182;1NMB N E 229;12.0955
1NMB N S 182;1NMB N C 230;11.5599
1NMB N C 183;1NMB N H 184;23.2226
1NMB N C 183;1NMB N D 185;1.77361
1NMB N C 183;1NMB N A 188;0.251629
1NMB N C 183;1NMB N R 189;11.634
1NMB N C 183;1NMB N M 190;22.9833
1NMB N C 183;1NMB N E 229;3.71924
1NMB N C 183;1NMB N C 230;31.5082
1NMB N C 183;1NMB N V 231;4.62243
1NMB N C 183;1NMB N C 232;15.4728
1NMB N C 183;1NMB N C 237;10.2342
1NMB N C 183;1NMB N V 239;0.196473
1NMB N H 184;1NMB N D 185;18.7252
1NMB N H 184;1NMB N G 186;15.422
1NMB N H 184;1NMB N R 187;5.79692
1NMB N H 184;1NMB N A 188;14.7202
1NMB N H 184;1NMB N R 189;27.9548
1NMB N H 184;1NMB N C 232;6.4735
1NMB N H 184;1NMB N W 412b;21.2066
1NMB N D 185;1NMB N G 186;17.3449
1NMB N D 185;1NMB N R 187;6.49851
1NMB N D 185;1NMB N A 188;16.4491
1NMB N D 185;1NMB N M 190;1.18296
1NMB N D 185;1NMB N Y 207;15.5012
1NMB N D 185;1NMB N C 232;17.0986
1NMB N D 185;1NMB N G 235;11.0111
1NMB N D 185;1NMB N C 237;9.7489
1NMB N D 185;1NMB N E 259;4.851
1NMB N D 185;1NMB N W 412b;0.400434
1NMB N G 186;1NMB N R 187;17.0836
1NMB N G 186;1NMB N A 188;0.383202
1NMB N G 186;1NMB N W 412b;9.40254
1NMB N R 187;1NMB N A 188;25.5175
1NMB N R 187;1NMB N Y 207;8.73023
1NMB N R 187;1NMB N E 259;1.48475
1NMB N A 188;1NMB N R 189;24.1374
1NMB N A 188;1NMB N M 190;0.959268
1NMB N A 188;1NMB N Y 207;19.596
1NMB N A 188;1NMB N N 208;22.4931
1NMB N R 189;1NMB N M 190;22.5505
1NMB N R 189;1NMB N S 191;10.8633
1NMB N R 189;1NMB N W 206;0.07765
1NMB N R 189;1NMB N Y 207;9.93789
1NMB N R 189;1NMB N N 208;14.0228
1NMB N R 189;1NMB N R 209;0.327633
1NMB N M 190;1NMB N S 191;20.8414
1NMB N M 190;1NMB N I 192;12.5984
1NMB N M 190;1NMB N I 205;11.7237
1NMB N M 190;1NMB N W 206;7.56517
1NMB N M 190;1NMB N Y 207;16.9762
1NMB N M 190;1NMB N C 230;5.10037
1NMB N M 190;1NMB N C 232;0.0576963
1NMB N M 190;1NMB N C 237;18.9264
1NMB N M 190;1NMB N V 239;3.78119
1NMB N M 190;1NMB N F 257;20.0624
1NMB N M 190;1NMB N K 258;2.50006
1NMB N M 190;1NMB N E 259;4.14762
1NMB N M 190;1NMB N G 260;10.6829
1NMB N S 191;1NMB N I 192;22.4296
1NMB N S 191;1NMB N V 204;0.502067
1NMB N S 191;1NMB N I 205;3.18832
1NMB N S 191;1NMB N W 206;26.8673
1NMB N S 191;1NMB N N 208;2.97032e-06
1NMB N I 192;1NMB N C 193;23.136
1NMB N I 192;1NMB N I 194;5.85896
1NMB N I 192;1NMB N A 203;8.0963
1NMB N I 192;1NMB N V 204;6.3282
1NMB N I 192;1NMB N I 205;21.0479
1NMB N I 192;1NMB N W 206;0.122273
1NMB N I 192;1NMB N T 225;5.40698
1NMB N I 192;1NMB N C 230;0.490696
1NMB N I 192;1NMB N V 239;9.83948
1NMB N I 192;1NMB N F 241;14.2991
1NMB N I 192;1NMB N F 257;9.04319
1NMB N C 193;1NMB N I 194;19.8447
1NMB N C 193;1NMB N S 195;1.48631
1NMB N C 193;1NMB N S 202;1.6269
1NMB N C 193;1NMB N A 203;4.51608
1NMB N C 193;1NMB N V 204;19.7108
1NMB N C 193;1NMB N W 206;0.493392
1NMB N I 194;1NMB N S 195;18.7411
1NMB N I 194;1NMB N A 201;4.84314
1NMB N I 194;1NMB N S 202;9.64552
1NMB N I 194;1NMB N A 203;11.0544
1NMB N I 194;1NMB N L 223;20.7704
1NMB N I 194;1NMB N R 224;6.53071
1NMB N I 194;1NMB N T 225;12.5817
1NMB N I 194;1NMB N F 241;9.0633
1NMB N S 195;1NMB N G 196;26.5049
1NMB N S 195;1NMB N A 201;6.41423
1NMB N S 195;1NMB N S 202;21.1592
1NMB N G 196;1NMB N P 197;34.4771
1NMB N G 196;1NMB N N 198;0.749049
1NMB N G 196;1NMB N N 200;3.15306
1NMB N G 196;1NMB N A 201;6.25226
1NMB N G 196;1NMB N S 202;2.54466
1NMB N P 197;1NMB N N 198;27.8514
1NMB N P 197;1NMB N N 199;13.307
1NMB N P 197;1NMB N N 200;28.4876
1NMB N P 197;1NMB N A 201;9.37489
1NMB N N 198;1NMB N N 199;25.6215
1NMB N N 198;1NMB N N 200;1.19192
1NMB N N 198;1NMB N A 201;5.75223
1NMB N N 198;1NMB N T 217;1.34277
1NMB N N 198;1NMB N R 220;2.54625
1NMB N N 198;1NMB N N 221;12.6226
1NMB N N 198;1NMB N I 222;36.3886
1NMB N N 198;1NMB N L 223;0.582598
1NMB N N 199;1NMB N N 200;26.8182
1NMB N N 199;1NMB N A 201;0.691138
1NMB N N 199;1NMB N T 217;4.39453
1NMB N N 199;1NMB N R 220;40.6027
1NMB N N 200;1NMB N A 201;20.8364
1NMB N N 200;1NMB N S 202;4.7355
1NMB N N 200;1NMB N N 216;11.5206
1NMB N N 200;1NMB N T 217;6.29592
1NMB N N 200;1NMB N R 220;23.363
1NMB N A 201;1NMB N S 202;18.8538
1NMB N A 201;1NMB N N 216;5.91969
1NMB N A 201;1NMB N T 217;18.8856
1NMB N A 201;1NMB N I 222;1.72289
1NMB N A 201;1NMB N L 223;16.3428
1NMB N S 202;1NMB N A 203;19.0468
1NMB N S 202;1NMB N V 204;10.3688
1NMB N S 202;1NMB N E 214;4.7752
1NMB N S 202;1NMB N I 215;7.48737
1NMB N S 202;1NMB N N 216;16.8636
1NMB N S 202;1NMB N T 217;0.046829
1NMB N S 202;1NMB N L 223;5.45818
1NMB N A 203;1NMB N V 204;19.277
1NMB N A 203;1NMB N I 205;9.68181
1NMB N A 203;1NMB N T 213;0.00360621
1NMB N A 203;1NMB N E 214;5.30603
1NMB N A 203;1NMB N I 215;23.011
1NMB N A 203;1NMB N L 223;8.86494
1NMB N A 203;1NMB N F 241;11.1139
1NMB N V 204;1NMB N I 205;19.8128
1NMB N V 204;1NMB N W 206;21.0289
1NMB N V 204;1NMB N P 211;14.1764
1NMB N V 204;1NMB N V 212;1.24816
1NMB N V 204;1NMB N T 213;6.95178
1NMB N V 204;1NMB N E 214;25.4618
1NMB N I 205;1NMB N W 206;20.6381
1NMB N I 205;1NMB N Y 207;0.397455
1NMB N I 205;1NMB N P 211;2.2673
1NMB N I 205;1NMB N V 212;11.271
1NMB N I 205;1NMB N T 213;26.2314
1NMB N I 205;1NMB N E 214;2.08361
1NMB N I 205;1NMB N I 215;11.0615
1NMB N I 205;1NMB N F 241;1.53532
1NMB N I 205;1NMB N F 257;15.5951
1NMB N I 205;1NMB N G 260;11.6341
1NMB N W 206;1NMB N Y 207;19.1604
1NMB N W 206;1NMB N N 208;0.931806
1NMB N W 206;1NMB N R 209;26.487
1NMB N W 206;1NMB N R 210;12.8746
1NMB N W 206;1NMB N P 211;32.7515
1NMB N W 206;1NMB N V 212;1.76579
1NMB N Y 207;1NMB N N 208;34.2246
1NMB N Y 207;1NMB N R 209;0.866409
1NMB N Y 207;1NMB N R 210;16.157
1NMB N Y 207;1NMB N V 212;15.9949
1NMB N Y 207;1NMB N E 259;37.8084
1NMB N Y 207;1NMB N G 260;9.90314
1NMB N N 208;1NMB N R 209;32.1822
1NMB N N 208;1NMB N R 210;28.0376
1NMB N R 209;1NMB N R 210;23.9362
1NMB N R 209;1NMB N P 211;0.00111903
1NMB N R 210;1NMB N P 211;30.3587
1NMB N R 210;1NMB N V 212;7.15462
1NMB N P 211;1NMB N V 212;27.2213
1NMB N P 211;1NMB N E 214;6.89046
1NMB N V 212;1NMB N T 213;33.9332
1NMB N V 212;1NMB N E 214;6.48649
1NMB N V 212;1NMB N E 259;6.12606
1NMB N V 212;1NMB N G 260;13.1485
1NMB N V 212;1NMB N K 261;10.22
1NMB N T 213;1NMB N E 214;36.8293
1NMB N T 213;1NMB N I 215;3.93035
1NMB N T 213;1NMB N F 257;3.22282
1NMB N T 213;1NMB N G 260;8.87149
1NMB N T 213;1NMB N K 261;8.45868
1NMB N T 213;1NMB N I 262;17.888
1NMB N E 214;1NMB N I 215;29.3419
1NMB N E 214;1NMB N N 216;1.06177
1NMB N E 214;1NMB N I 262;2.25556
1NMB N I 215;1NMB N N 216;34.5658
1NMB N I 215;1NMB N T 217;0.0275704
1NMB N I 215;1NMB N W 218;11.1905
1NMB N I 215;1NMB N L 223;7.12196
1NMB N I 215;1NMB N F 241;8.60805
1NMB N I 215;1NMB N R 253;0.302813
1NMB N I 215;1NMB N Y 255;24.2917
1NMB N I 215;1NMB N F 257;7.93836
1NMB N I 215;1NMB N I 262;14.1079
1NMB N N 216;1NMB N T 217;39.0371
1NMB N N 216;1NMB N W 218;9.04484
1NMB N N 216;1NMB N R 220;8.79564
1NMB N N 216;1NMB N L 223;2.84586
1NMB N T 217;1NMB N W 218;25.8521
1NMB N T 217;1NMB N A 219;0.0183013
1NMB N T 217;1NMB N R 220;28.8839
1NMB N T 217;1NMB N N 221;1.9872
1NMB N T 217;1NMB N L 223;15.603
1NMB N T 217;1NMB N D 243;7.56943
1NMB N W 218;1NMB N A 219;26.4521
1NMB N W 218;1NMB N R 220;7.5736
1NMB N W 218;1NMB N L 223;20.0662
1NMB N W 218;1NMB N F 241;19.6222
1NMB N W 218;1NMB N T 242;3.61797
1NMB N W 218;1NMB N D 243;19.7888
1NMB N W 218;1NMB N E 251;31.1372
1NMB N W 218;1NMB N T 252;0.85339
1NMB N W 218;1NMB N R 253;49.3838
1NMB N W 218;1NMB N Y 255;12.9075
1NMB N A 219;1NMB N R 220;27.0976
1NMB N A 219;1NMB N N 221;10.9167
1NMB N A 219;1NMB N D 243;17.5695
1NMB N A 219;1NMB N G 244;8.05414
1NMB N A 219;1NMB N E 251;17.9974
1NMB N R 220;1NMB N N 221;23.2044
1NMB N R 220;1NMB N D 243;2.41329
1NMB N N 221;1NMB N I 222;32.3809
1NMB N N 221;1NMB N L 223;0.38362
1NMB N N 221;1NMB N R 224;3.96817
1NMB N N 221;1NMB N D 243;12.3751
1NMB N N 221;1NMB N G 244;26.944
1NMB N N 221;1NMB N S 245;10.9024
1NMB N I 222;1NMB N L 223;21.5389
1NMB N I 222;1NMB N R 224;31.6304
1NMB N I 222;1NMB N T 242;1.71604
1NMB N I 222;1NMB N D 243;1.43128
1NMB N I 222;1NMB N G 244;1.13058
1NMB N I 222;1NMB N A 246;0.584436
1NMB N L 223;1NMB N R 224;18.8812
1NMB N L 223;1NMB N F 241;11.0431
1NMB N L 223;1NMB N T 242;5.63957
1NMB N L 223;1NMB N D 243;19.6286
1NMB N R 224;1NMB N T 225;24.9641
1NMB N R 224;1NMB N E 227;3.03904
1NMB N R 224;1NMB N F 241;8.62826
1NMB N R 224;1NMB N T 242;36.6103
1NMB N R 224;1NMB N D 243;2.24782
1NMB N R 224;1NMB N G 244;15.224
1NMB N R 224;1NMB N S 245;5.47968
1NMB N R 224;1NMB N A 246;12.6781
1NMB N R 224;1NMB N A 250;0.608921
1NMB N R 224;1NMB N H 274;0.920929
1NMB N R 224;1NMB N E 276;26.786
1NMB N R 224;1NMB N E 277;2.65861
1NMB N T 225;1NMB N Q 226;24.7672
1NMB N T 225;1NMB N E 227;10.3981
1NMB N T 225;1NMB N V 239;7.68167
1NMB N T 225;1NMB N V 240;11.3214
1NMB N T 225;1NMB N F 241;16.5423
1NMB N T 225;1NMB N T 242;0.061697
1NMB N T 225;1NMB N E 277;11.6272
1NMB N Q 226;1NMB N E 227;19.6167
1NMB N Q 226;1NMB N S 228;13.7887
1NMB N Q 226;1NMB N E 229;5.74609
1NMB N Q 226;1NMB N C 230;10.443
1NMB N Q 226;1NMB N P 238;2.89106
1NMB N Q 226;1NMB N V 239;11.6231
1NMB N Q 226;1NMB N V 240;19.31
1NMB N Q 226;1NMB N E 277;9.83367
1NMB N Q 226;1NMB N C 278;23.5879
1NMB N Q 226;1NMB N C 280;17.8404
1NMB N Q 226;1NMB N K 350;8.11911
1NMB N E 227;1NMB N S 228;17.5033
1NMB N E 227;1NMB N E 277;14.1208
1NMB N E 227;1NMB N K 350;13.3984
1NMB N E 227;1NMB N Y 406;8.85612
1NMB N E 227;1NMB N Y 423;3.09413
1NMB N S 228;1NMB N E 229;26.0626
1NMB N S 228;1NMB N C 278;2.03677
1NMB N S 228;1NMB N S 279;5.90337
1NMB N S 228;1NMB N C 280;2.82812
1NMB N S 228;1NMB N K 350;13.7442
1NMB N S 228;1NMB N G 408;2.58712
1NMB N S 228;1NMB N S 409;9.81126
1NMB N S 228;1NMB N Y 423;7.16292
1NMB N E 229;1NMB N C 230;28.5725
1NMB N E 229;1NMB N V 231;5.92664
1NMB N E 229;1NMB N C 280;14.543
1NMB N E 229;1NMB N S 409;7.70841
1NMB N E 229;1NMB N F 410;16.0273
1NMB N E 229;1NMB N M 411;7.12844
1NMB N E 229;1NMB N Y 412a;13.7721
1NMB N E 229;1NMB N W 412b;1.24888
1NMB N C 230;1NMB N V 231;27.6619
1NMB N C 230;1NMB N C 237;0.526667
1NMB N C 230;1NMB N P 238;7.17926
1NMB N C 230;1NMB N V 239;10.3041
1NMB N C 230;1NMB N C 280;3.25273
1NMB N C 230;1NMB N Y 412a;0.21937
1NMB N V 231;1NMB N C 232;27.7524
1NMB N V 231;1NMB N C 237;5.1011
1NMB N V 231;1NMB N P 238;15.8319
1NMB N V 231;1NMB N C 280;14.4944
1NMB N V 231;1NMB N Y 281;7.98699
1NMB N V 231;1NMB N G 282;8.23757
1NMB N V 231;1NMB N V 287;17.8809
1NMB N V 231;1NMB N Y 412a;17.9887
1NMB N C 232;1NMB N Q 233;21.868
1NMB N C 232;1NMB N N 234;0.288188
1NMB N C 232;1NMB N G 235;3.88376
1NMB N C 232;1NMB N V 236;6.20552
1NMB N C 232;1NMB N C 237;19.9979
1NMB N C 232;1NMB N P 238;2.20625
1NMB N C 232;1NMB N V 287;0.791826
1NMB N Q 233;1NMB N N 234;31.8014
1NMB N Q 233;1NMB N G 235;4.15996
1NMB N Q 233;1NMB N V 236;20.2751
1NMB N Q 233;1NMB N P 238;0.557753
1NMB N Q 233;1NMB N A 285;17.0765
1NMB N Q 233;1NMB N V 287;0.530285
1NMB N Q 233;1NMB N P 307;22.7245
1NMB N Q 233;1NMB N V 308;15.8856
1NMB N N 234;1NMB N G 235;15.9633
1NMB N N 234;1NMB N V 236;5.57414
1NMB N N 234;1NMB N K 258;13.4344
1NMB N N 234;1NMB N V 308;0.966218
1NMB N G 235;1NMB N V 236;18.8315
1NMB N G 235;1NMB N C 237;6.89022
1NMB N G 235;1NMB N F 257;2.04903
1NMB N G 235;1NMB N K 258;20.5537
1NMB N G 235;1NMB N E 259;2.56777
1NMB N V 236;1NMB N C 237;17.478
1NMB N V 236;1NMB N P 238;9.86801
1NMB N V 236;1NMB N Y 256;15.3094
1NMB N V 236;1NMB N F 257;8.54356
1NMB N V 236;1NMB N K 258;11.6809
1NMB N V 236;1NMB N L 263;13.2839
1NMB N V 236;1NMB N P 307;19.5017
1NMB N V 236;1NMB N V 308;0.838219
1NMB N V 236;1NMB N M 310;12.3815
1NMB N C 237;1NMB N P 238;20.5827
1NMB N C 237;1NMB N V 239;8.91523
1NMB N C 237;1NMB N Y 255;1.09479
1NMB N C 237;1NMB N Y 256;2.28079
1NMB N C 237;1NMB N F 257;19.1522
1NMB N C 237;1NMB N K 258;0.295611
1NMB N C 237;1NMB N E 259;0.338801
1NMB N P 238;1NMB N V 239;22.0865
1NMB N P 238;1NMB N I 254;4.74341
1NMB N P 238;1NMB N Y 255;4.08666
1NMB N P 238;1NMB N Y 256;15.063
1NMB N P 238;1NMB N C 280;2.03025
1NMB N P 238;1NMB N V 287;17.1069
1NMB N P 238;1NMB N I 305;19.8574
1NMB N P 238;1NMB N P 307;11.9466
1NMB N V 239;1NMB N V 240;24.8887
1NMB N V 239;1NMB N F 241;14.8872
1NMB N V 239;1NMB N R 253;1.2434
1NMB N V 239;1NMB N I 254;7.82269
1NMB N V 239;1NMB N Y 255;19.2205
1NMB N V 239;1NMB N F 257;13.1273
1NMB N V 239;1NMB N C 280;0.0335381
1NMB N V 239;1NMB N I 305;1.04436
1NMB N V 240;1NMB N F 241;25.2046
1NMB N V 240;1NMB N T 242;1.53661
1NMB N V 240;1NMB N T 252;4.84872
1NMB N V 240;1NMB N R 253;6.58217
1NMB N V 240;1NMB N I 254;14.999
1NMB N V 240;1NMB N I 275;10.4563
1NMB N V 240;1NMB N C 278;16.9657
1NMB N V 240;1NMB N C 280;3.4649
1NMB N V 240;1NMB N C 289;4.45941
1NMB N V 240;1NMB N I 303;12.2131
1NMB N V 240;1NMB N I 305;10.0886
1NMB N F 241;1NMB N T 242;22.3661
1NMB N F 241;1NMB N T 252;7.78482
1NMB N F 241;1NMB N R 253;16.1696
1NMB N F 241;1NMB N Y 255;16.548
1NMB N F 241;1NMB N F 257;7.8287
1NMB N F 241;1NMB N I 275;4.05067e-05
1NMB N T 242;1NMB N D 243;20.3389
1NMB N T 242;1NMB N G 244;0.235793
1NMB N T 242;1NMB N S 245;0.681534
1NMB N T 242;1NMB N A 250;10.0071
1NMB N T 242;1NMB N E 251;4.75066
1NMB N T 242;1NMB N T 252;16.0135
1NMB N T 242;1NMB N H 274;3.56004
1NMB N T 242;1NMB N I 275;15.1693
1NMB N T 242;1NMB N E 276;14.0568
1NMB N D 243;1NMB N G 244;17.5357
1NMB N D 243;1NMB N A 250;2.60758
1NMB N D 243;1NMB N E 251;16.7607
1NMB N G 244;1NMB N S 245;21.671
1NMB N G 244;1NMB N A 246;4.06463
1NMB N G 244;1NMB N A 250;9.16639
1NMB N G 244;1NMB N E 251;0.772737
1NMB N S 245;1NMB N A 246;21.0033
1NMB N S 245;1NMB N T 247;13.101
1NMB N S 245;1NMB N G 248;18.0888
1NMB N S 245;1NMB N P 249;11.1619
1NMB N S 245;1NMB N A 250;12.0003
1NMB N S 245;1NMB N H 274;6.96449
1NMB N A 246;1NMB N T 247;32.0431
1NMB N A 246;1NMB N H 274;7.43964
1NMB N A 246;1NMB N E 276;7.69478
1NMB N A 246;1NMB N N 294;20.8676
1NMB N A 246;1NMB N W 295;2.05103
1NMB N A 246;1NMB N N 346;1.31196
1NMB N T 247;1NMB N G 248;22.9102
1NMB N T 247;1NMB N H 274;0.677053
1NMB N T 247;1NMB N N 294;2.48099
1NMB N T 247;1NMB N W 295;15.9665
1NMB N T 247;1NMB N N 346;33.2591
1NMB N G 248;1NMB N P 249;27.6618
1NMB N G 248;1NMB N A 250;1.30605
1NMB N G 248;1NMB N H 274;7.84706
1NMB N G 248;1NMB N W 295;17.0529
1NMB N P 249;1NMB N A 250;30.8654
1NMB N P 249;1NMB N K 273;4.80873
1NMB N P 249;1NMB N H 274;3.18581
1NMB N P 249;1NMB N W 295;32.1199
1NMB N A 250;1NMB N E 251;34.4722
1NMB N A 250;1NMB N T 252;9.67671
1NMB N A 250;1NMB N K 273;0.513352
1NMB N A 250;1NMB N H 274;9.44799
1NMB N E 251;1NMB N T 252;25.2104
1NMB N E 251;1NMB N R 253;5.71248
1NMB N T 252;1NMB N R 253;24.7756
1NMB N T 252;1NMB N I 254;5.90776
1NMB N T 252;1NMB N E 266;3.25661e-06
1NMB N T 252;1NMB N P 267;7.24036
1NMB N T 252;1NMB N L 268;30.1962
1NMB N T 252;1NMB N H 274;1.62521
1NMB N T 252;1NMB N I 275;23.1202
1NMB N T 252;1NMB N I 303;0.365536
1NMB N R 253;1NMB N I 254;22.4029
1NMB N R 253;1NMB N Y 255;30.0327
1NMB N R 253;1NMB N W 265;44.1348
1NMB N R 253;1NMB N E 266;7.84495
1NMB N R 253;1NMB N P 267;4.80977
1NMB N R 253;1NMB N L 268;0.120348
1NMB N I 254;1NMB N Y 255;19.8552
1NMB N I 254;1NMB N Y 256;21.2574
1NMB N I 254;1NMB N W 265;6.92942
1NMB N I 254;1NMB N E 266;21.6401
1NMB N I 254;1NMB N P 267;0.944399
1NMB N I 254;1NMB N L 268;9.34315
1NMB N I 254;1NMB N I 303;9.59763
1NMB N I 254;1NMB N I 305;12.6458
1NMB N I 254;1NMB N H 312;19.4212
1NMB N Y 255;1NMB N Y 256;22.0542
1NMB N Y 255;1NMB N F 257;17.6292
1NMB N Y 255;1NMB N I 262;18.8234
1NMB N Y 255;1NMB N K 264;3.62132
1NMB N Y 255;1NMB N W 265;28.4382
1NMB N Y 256;1NMB N F 257;22.0917
1NMB N Y 256;1NMB N K 261;0.193484
1NMB N Y 256;1NMB N I 262;4.50922
1NMB N Y 256;1NMB N L 263;13.407
1NMB N Y 256;1NMB N K 264;25.0845
1NMB N Y 256;1NMB N W 265;3.32736
1NMB N Y 256;1NMB N E 266;11.747
1NMB N Y 256;1NMB N I 305;9.48363
1NMB N Y 256;1NMB N D 306;3.03022
1NMB N Y 256;1NMB N P 307;4.85281
1NMB N Y 256;1NMB N M 310;33.1489
1NMB N Y 256;1NMB N T 311;6.63356
1NMB N Y 256;1NMB N H 312;2.3733
1NMB N F 257;1NMB N K 258;18.6663
1NMB N F 257;1NMB N G 260;9.33164
1NMB N F 257;1NMB N K 261;9.27199
1NMB N F 257;1NMB N I 262;15.1679
1NMB N F 257;1NMB N L 263;2.64093
1NMB N K 258;1NMB N E 259;37.4577
1NMB N K 258;1NMB N G 260;3.65729
1NMB N K 258;1NMB N K 261;21.25
1NMB N K 258;1NMB N L 263;26.298
1NMB N E 259;1NMB N G 260;13.9705
1NMB N E 259;1NMB N K 261;24.4104
1NMB N G 260;1NMB N K 261;17.121
1NMB N G 260;1NMB N I 262;0.501509
1NMB N K 261;1NMB N I 262;24.4395
1NMB N K 261;1NMB N L 263;15.2042
1NMB N I 262;1NMB N L 263;25.1896
1NMB N I 262;1NMB N K 264;16.7093
1NMB N I 262;1NMB N W 265;7.629
1NMB N L 263;1NMB N K 264;28.7322
1NMB N L 263;1NMB N M 310;18.9955
1NMB N K 264;1NMB N W 265;41.4576
1NMB N K 264;1NMB N E 266;11.9554
1NMB N K 264;1NMB N A 309;1.84829
1NMB N K 264;1NMB N M 310;33.4439
1NMB N W 265;1NMB N E 266;32.6485
1NMB N W 265;1NMB N P 267;16.3118
1NMB N E 266;1NMB N P 267;36.5779
1NMB N E 266;1NMB N L 268;0.0953876
1NMB N E 266;1NMB N M 310;7.19081
1NMB N E 266;1NMB N T 311;14.9055
1NMB N E 266;1NMB N H 312;16.9055
1NMB N P 267;1NMB N L 268;25.6745
1NMB N P 267;1NMB N T 269;12.7148
1NMB N P 267;1NMB N H 312;6.22971
1NMB N L 268;1NMB N T 269;35.7599
1NMB N L 268;1NMB N G 270;2.88317
1NMB N L 268;1NMB N A 272;17.651
1NMB N L 268;1NMB N K 273;1.83664
1NMB N L 268;1NMB N H 274;1.48699
1NMB N L 268;1NMB N I 275;16.5175
1NMB N L 268;1NMB N I 303;6.57211
1NMB N L 268;1NMB N H 312;12.3278
1NMB N L 268;1NMB N S 314;9.37908
1NMB N T 269;1NMB N G 270;30.915
1NMB N T 269;1NMB N H 312;26.1097
1NMB N T 269;1NMB N T 313;5.14062
1NMB N T 269;1NMB N S 314;8.54039
1NMB N G 270;1NMB N T 271;26.6215
1NMB N G 270;1NMB N A 272;4.71509
1NMB N G 270;1NMB N T 313;9.07799
1NMB N G 270;1NMB N S 314;14.1171
1NMB N T 271;1NMB N A 272;18.3346
1NMB N T 271;1NMB N K 273;16.2033
1NMB N T 271;1NMB N S 314;11.1468
1NMB N T 271;1NMB N Q 315;11.1917
1NMB N T 271;1NMB N Y 316;7.77243
1NMB N T 271;1NMB N C 337;0.0149516
1NMB N T 271;1NMB N N 338;36.5854
1NMB N T 271;1NMB N D 339;0.000847158
1NMB N A 272;1NMB N K 273;23.5576
1NMB N A 272;1NMB N H 274;5.53652
1NMB N A 272;1NMB N I 275;9.09031
1NMB N A 272;1NMB N P 301;10.7333
1NMB N A 272;1NMB N V 302;0.832329
1NMB N A 272;1NMB N S 314;15.6296
1NMB N A 272;1NMB N Q 315;8.66581
1NMB N A 272;1NMB N Y 316;8.26317
1NMB N K 273;1NMB N H 274;26.5045
1NMB N K 273;1NMB N D 293;4.34893
1NMB N K 273;1NMB N W 295;15.6984
1NMB N K 273;1NMB N Q 296;19.0889
1NMB N K 273;1NMB N Y 316;13.7869
1NMB N K 273;1NMB N N 338;7.30804
1NMB N K 273;1NMB N D 339;11.4741
1NMB N K 273;1NMB N P 340;18.2975
1NMB N H 274;1NMB N I 275;33.9639
1NMB N H 274;1NMB N E 276;13.5475
1NMB N H 274;1NMB N R 292;4.58518
1NMB N H 274;1NMB N D 293;21.5688
1NMB N H 274;1NMB N N 294;11.5249
1NMB N H 274;1NMB N W 295;21.4875
1NMB N H 274;1NMB N Q 296;0.00289731
1NMB N H 274;1NMB N P 301;7.42804
1NMB N H 274;1NMB N Y 316;2.75293
1NMB N I 275;1NMB N E 276;25.063
1NMB N I 275;1NMB N C 278;7.72086
1NMB N I 275;1NMB N C 291;8.71231
1NMB N I 275;1NMB N R 292;3.0814
1NMB N I 275;1NMB N P 301;11.934
1NMB N I 275;1NMB N V 302;0.503117
1NMB N I 275;1NMB N I 303;17.0029
1NMB N I 275;1NMB N S 314;2.47
1NMB N E 276;1NMB N E 277;36.3564
1NMB N E 276;1NMB N C 278;4.25295
1NMB N E 276;1NMB N C 291;7.72672
1NMB N E 276;1NMB N R 292;34.5052
1NMB N E 276;1NMB N N 294;10.5302
1NMB N E 277;1NMB N C 278;20.4255
1NMB N E 277;1NMB N S 279;3.04768
1NMB N E 277;1NMB N T 290;1.28896
1NMB N E 277;1NMB N C 291;5.09927
1NMB N E 277;1NMB N R 292;22.1606
1NMB N E 277;1NMB N K 350;31.1186
1NMB N E 277;1NMB N G 351;1.97393
1NMB N E 277;1NMB N Y 406;20.019
1NMB N C 278;1NMB N S 279;16.2305
1NMB N C 278;1NMB N C 280;7.87665
1NMB N C 278;1NMB N C 289;7.08968
1NMB N C 278;1NMB N T 290;1.97705
1NMB N C 278;1NMB N C 291;20.9115
1NMB N C 278;1NMB N I 303;5.89472
1NMB N C 278;1NMB N K 350;6.10992
1NMB N S 279;1NMB N C 280;19.028
1NMB N S 279;1NMB N Y 281;1.28439
1NMB N S 279;1NMB N T 288;2.43271
1NMB N S 279;1NMB N C 289;6.76348
1NMB N S 279;1NMB N T 290;21.437
1NMB N S 279;1NMB N K 350;13.0626
1NMB N S 279;1NMB N G 351;8.53333
1NMB N S 279;1NMB N F 352;10.0698
1NMB N S 279;1NMB N S 407;1.38268
1NMB N S 279;1NMB N G 408;5.91371
1NMB N S 279;1NMB N S 409;12.9323
1NMB N C 280;1NMB N Y 281;19.6211
1NMB N C 280;1NMB N V 287;9.92463
1NMB N C 280;1NMB N T 288;4.89181
1NMB N C 280;1NMB N C 289;19.4223
1NMB N C 280;1NMB N I 305;1.19718
1NMB N C 280;1NMB N S 409;13.7546
1NMB N C 280;1NMB N F 410;1.55387
1NMB N C 280;1NMB N Y 412a;0.131429
1NMB N Y 281;1NMB N G 282;25.5112
1NMB N Y 281;1NMB N E 283;19.3774
1NMB N Y 281;1NMB N G 286;0.512734
1NMB N Y 281;1NMB N V 287;8.26564
1NMB N Y 281;1NMB N T 288;43.5311
1NMB N Y 281;1NMB N T 290;0.0339744
1NMB N Y 281;1NMB N S 353;11.7576
1NMB N Y 281;1NMB N Y 354;24.4069
1NMB N Y 281;1NMB N L 355;21.085
1NMB N Y 281;1NMB N D 356;0.141683
1NMB N Y 281;1NMB N S 409;11.7857
1NMB N Y 281;1NMB N F 410;2.13435
1NMB N Y 281;1NMB N M 411;7.47823
1NMB N Y 281;1NMB N Y 412a;6.84063
1NMB N G 282;1NMB N E 283;19.5974
1NMB N G 282;1NMB N G 286;4.60285
1NMB N G 282;1NMB N V 287;3.3204
1NMB N G 282;1NMB N M 411;7.54415
1NMB N G 282;1NMB N Y 412a;12.9529
1NMB N G 282;1NMB N Y 418;3.05314
1NMB N E 283;1NMB N Q 284;34.8976
1NMB N E 283;1NMB N A 285;1.01893
1NMB N E 283;1NMB N G 286;17.2502
1NMB N E 283;1NMB N T 288;2.70655
1NMB N E 283;1NMB N L 355;3.20317
1NMB N E 283;1NMB N D 356;9.51416
1NMB N E 283;1NMB N M 411;0.13614
1NMB N E 283;1NMB N Y 418;10.8735
1NMB N Q 284;1NMB N A 285;23.8736
1NMB N Q 284;1NMB N G 286;8.18314
1NMB N Q 284;1NMB N Y 418;0.0914808
1NMB N A 285;1NMB N G 286;18.2
1NMB N A 285;1NMB N D 306;6.23466
1NMB N A 285;1NMB N P 307;13.3466
1NMB N A 285;1NMB N V 308;9.65003
1NMB N G 286;1NMB N V 287;21.1587
1NMB N G 286;1NMB N T 288;5.04846
1NMB N G 286;1NMB N I 305;4.73043
1NMB N G 286;1NMB N D 306;2.83897
1NMB N G 286;1NMB N P 307;5.78641
1NMB N V 287;1NMB N T 288;23.2999
1NMB N V 287;1NMB N C 289;6.91145
1NMB N V 287;1NMB N I 303;1.40535
1NMB N V 287;1NMB N Q 304;6.89543
1NMB N V 287;1NMB N I 305;30.4437
1NMB N V 287;1NMB N P 307;12.2957
1NMB N T 288;1NMB N C 289;22.8851
1NMB N T 288;1NMB N T 290;3.68851
1NMB N T 288;1NMB N V 302;8.26904
1NMB N T 288;1NMB N I 303;4.69931
1NMB N T 288;1NMB N Q 304;21.0956
1NMB N T 288;1NMB N S 353;0.543098
1NMB N T 288;1NMB N L 355;14.7138
1NMB N C 289;1NMB N T 290;19.0676
1NMB N C 289;1NMB N C 291;7.08205
1NMB N C 289;1NMB N V 302;9.22923
1NMB N C 289;1NMB N I 303;23.9549
1NMB N C 289;1NMB N I 305;11.3034
1NMB N T 290;1NMB N C 291;23.3643
1NMB N T 290;1NMB N R 300;15.3355
1NMB N T 290;1NMB N P 301;4.9888
1NMB N T 290;1NMB N V 302;10.0749
1NMB N T 290;1NMB N I 317;7.45425
1NMB N T 290;1NMB N G 351;8.16895
1NMB N T 290;1NMB N F 352;11.2683
1NMB N T 290;1NMB N S 353;22.309
1NMB N T 290;1NMB N L 355;5.18459
1NMB N C 291;1NMB N R 292;21.5147
1NMB N C 291;1NMB N R 300;16.2585
1NMB N C 291;1NMB N P 301;22.2579
1NMB N C 291;1NMB N V 302;1.29062
1NMB N C 291;1NMB N I 303;6.55753
1NMB N C 291;1NMB N D 324;0.0760137
1NMB N C 291;1NMB N K 350;0.119184
1NMB N C 291;1NMB N G 351;2.94335
1NMB N R 292;1NMB N D 293;19.46
1NMB N R 292;1NMB N N 294;28.4278
1NMB N R 292;1NMB N R 300;4.80178
1NMB N R 292;1NMB N P 301;4.61832
1NMB N R 292;1NMB N D 324;9.14572
1NMB N R 292;1NMB N N 347;4.74206
1NMB N R 292;1NMB N G 348;18.7479
1NMB N R 292;1NMB N V 349;18.088
1NMB N R 292;1NMB N K 350;4.74034
1NMB N R 292;1NMB N G 351;0.0114298
1NMB N R 292;1NMB N R 371;3.74545
1NMB N R 292;1NMB N Y 406;13.2803
1NMB N D 293;1NMB N N 294;18.6422
1NMB N D 293;1NMB N W 295;6.61203
1NMB N D 293;1NMB N Q 296;10.4912
1NMB N D 293;1NMB N G 297;24.9601
1NMB N D 293;1NMB N N 299;3.69343
1NMB N D 293;1NMB N R 300;0.0700817
1NMB N D 293;1NMB N P 301;12.583
1NMB N D 293;1NMB N Y 316;13.691
1NMB N D 293;1NMB N D 324;8.50274
1NMB N D 293;1NMB N P 340;3.84624
1NMB N D 293;1NMB N N 347;4.27861
1NMB N D 293;1NMB N G 348;0.00706111
1NMB N N 294;1NMB N W 295;21.6925
1NMB N N 294;1NMB N Q 296;0.161247
1NMB N N 294;1NMB N N 345;1.33101
1NMB N N 294;1NMB N N 346;16.8635
1NMB N N 294;1NMB N N 347;25.0476
1NMB N N 294;1NMB N G 348;2.51578
1NMB N W 295;1NMB N Q 296;55.6088
1NMB N W 295;1NMB N N 345;11.7425
1NMB N W 295;1NMB N N 346;14.9311
1NMB N Q 296;1NMB N G 297;21.1403
1NMB N Q 296;1NMB N S 298;0.643084
1NMB N Q 296;1NMB N P 340;22.8788
1NMB N Q 296;1NMB N Y 341;6.32883
1NMB N Q 296;1NMB N P 342;8.21534
1NMB N Q 296;1NMB N N 344;10.4545
1NMB N Q 296;1NMB N N 345;11.6821
1NMB N G 297;1NMB N S 298;20.0415
1NMB N G 297;1NMB N N 299;11.2186
1NMB N G 297;1NMB N Y 316;2.57364
1NMB N G 297;1NMB N D 324;8.24294
1NMB N G 297;1NMB N P 340;7.90762
1NMB N G 297;1NMB N Y 341;3.39917
1NMB N G 297;1NMB N N 344;2.75012
1NMB N G 297;1NMB N N 347;3.46305
1NMB N S 298;1NMB N N 299;23.1346
1NMB N S 298;1NMB N R 300;0.53601
1NMB N S 298;1NMB N L 322;15.329
1NMB N S 298;1NMB N T 323;3.10305
1NMB N S 298;1NMB N D 324;17.3751
1NMB N S 298;1NMB N P 326;5.65295
1NMB N S 298;1NMB N R 327;9.38878
1NMB N S 298;1NMB N P 328;12.9243
1NMB N S 298;1NMB N Y 341;17.1702
1NMB N S 298;1NMB N P 342;0.576927
1NMB N S 298;1NMB N N 344;13.9714
1NMB N N 299;1NMB N R 300;27.8654
1NMB N N 299;1NMB N P 301;1.2109
1NMB N N 299;1NMB N Y 316;19.6945
1NMB N N 299;1NMB N I 317;13.2416
1NMB N N 299;1NMB N S 319;3.46468
1NMB N N 299;1NMB N L 322;14.1896
1NMB N N 299;1NMB N T 323;2.56237
1NMB N N 299;1NMB N D 324;5.5817
1NMB N N 299;1NMB N K 336;8.85498
1NMB N N 299;1NMB N D 339;4.84084
1NMB N N 299;1NMB N P 340;4.77831
1NMB N N 299;1NMB N Y 341;19.639
1NMB N R 300;1NMB N P 301;24.7454
1NMB N R 300;1NMB N V 302;3.64358
1NMB N R 300;1NMB N Y 316;11.3689
1NMB N R 300;1NMB N I 317;27.4929
1NMB N R 300;1NMB N T 323;29.7444
1NMB N R 300;1NMB N D 324;23.7774
1NMB N R 300;1NMB N V 349;12.934
1NMB N R 300;1NMB N K 350;1.8807
1NMB N R 300;1NMB N G 351;21.5657
1NMB N R 300;1NMB N F 352;5.75746
1NMB N R 300;1NMB N S 353;0.289401
1NMB N R 300;1NMB N G 363;3.97195
1NMB N R 300;1NMB N R 364;0.20596
1NMB N P 301;1NMB N V 302;21.8362
1NMB N P 301;1NMB N I 303;0.147268
1NMB N P 301;1NMB N Q 315;6.08592
1NMB N P 301;1NMB N Y 316;15.6456
1NMB N V 302;1NMB N I 303;25.9716
1NMB N V 302;1NMB N Q 304;14.1205
1NMB N V 302;1NMB N T 313;0.204858
1NMB N V 302;1NMB N S 314;10.3534
1NMB N V 302;1NMB N Q 315;19.8596
1NMB N V 302;1NMB N Y 316;3.66052
1NMB N V 302;1NMB N I 317;12.7208
1NMB N V 302;1NMB N S 353;0.0585923
1NMB N V 302;1NMB N L 355;12.8165
1NMB N V 302;1NMB N L 383;13.9161
1NMB N I 303;1NMB N Q 304;19.0214
1NMB N I 303;1NMB N I 305;16.6467
1NMB N I 303;1NMB N H 312;11.3734
1NMB N I 303;1NMB N T 313;11.4129
1NMB N I 303;1NMB N S 314;4.25912
1NMB N Q 304;1NMB N I 305;19.2915
1NMB N Q 304;1NMB N D 306;0.645403
1NMB N Q 304;1NMB N H 312;6.71455
1NMB N Q 304;1NMB N T 313;30.0582
1NMB N Q 304;1NMB N S 314;0.326325
1NMB N Q 304;1NMB N Q 315;0.0362724
1NMB N Q 304;1NMB N L 355;1.54697
1NMB N Q 304;1NMB N L 383;16.3585
1NMB N I 305;1NMB N D 306;25.5066
1NMB N I 305;1NMB N P 307;5.14972
1NMB N I 305;1NMB N T 311;4.70378
1NMB N I 305;1NMB N H 312;11.1458
1NMB N D 306;1NMB N P 307;23.6671
1NMB N D 306;1NMB N V 308;12.6763
1NMB N D 306;1NMB N A 309;20.5664
1NMB N D 306;1NMB N M 310;9.13331
1NMB N D 306;1NMB N T 311;21.0542
1NMB N D 306;1NMB N H 312;1.85148
1NMB N P 307;1NMB N V 308;26.592
1NMB N P 307;1NMB N M 310;9.94622
1NMB N V 308;1NMB N A 309;26.7856
1NMB N V 308;1NMB N M 310;14.5719
1NMB N A 309;1NMB N M 310;24.0349
1NMB N A 309;1NMB N T 311;21.4885
1NMB N M 310;1NMB N T 311;19.1332
1NMB N T 311;1NMB N H 312;30.6756
1NMB N H 312;1NMB N T 313;35.4462
1NMB N H 312;1NMB N S 314;0.26231
1NMB N T 313;1NMB N S 314;31.2984
1NMB N S 314;1NMB N Q 315;25.1726
1NMB N Q 315;1NMB N Y 316;33.9722
1NMB N Q 315;1NMB N C 318;5.68444
1NMB N Q 315;1NMB N C 337;10.8012
1NMB N Q 315;1NMB N N 338;10.0118
1NMB N Q 315;1NMB N L 383;25.9777
1NMB N Q 315;1NMB N T 384;0.0369119
1NMB N Y 316;1NMB N I 317;20.0939
1NMB N Y 316;1NMB N C 318;5.2621
1NMB N Y 316;1NMB N K 336;3.3075
1NMB N Y 316;1NMB N C 337;16.7543
1NMB N Y 316;1NMB N N 338;4.85359
1NMB N Y 316;1NMB N D 339;10.5338
1NMB N Y 316;1NMB N P 340;12.8901
1NMB N Y 316;1NMB N L 383;5.21486
1NMB N I 317;1NMB N C 318;16.4869
1NMB N I 317;1NMB N S 319;19.9941
1NMB N I 317;1NMB N V 321;3.11796
1NMB N I 317;1NMB N T 323;6.82556
1NMB N I 317;1NMB N K 336;6.08044
1NMB N I 317;1NMB N C 337;0.0834571
1NMB N I 317;1NMB N S 353;7.54983
1NMB N I 317;1NMB N L 355;9.78205
1NMB N I 317;1NMB N L 362;16.5471
1NMB N I 317;1NMB N A 382;10.3364
1NMB N I 317;1NMB N L 383;11.3714
1NMB N C 318;1NMB N S 319;19.7056
1NMB N C 318;1NMB N P 320;1.687
1NMB N C 318;1NMB N G 335;9.46873
1NMB N C 318;1NMB N K 336;8.2826
1NMB N C 318;1NMB N C 337;25.3412
1NMB N C 318;1NMB N A 382;5.30899
1NMB N C 318;1NMB N L 383;12.9827
1NMB N C 318;1NMB N T 384;13.1345
1NMB N C 318;1NMB N D 385;6.05837
1NMB N C 318;1NMB N D 386;13.2861
1NMB N S 319;1NMB N P 320;20.9321
1NMB N S 319;1NMB N V 321;19.9968
1NMB N S 319;1NMB N L 322;8.20828
1NMB N S 319;1NMB N G 335;2.22646
1NMB N S 319;1NMB N K 336;0.197714
1NMB N S 319;1NMB N Y 341;0.0397646
1NMB N S 319;1NMB N L 362;4.85617
1NMB N S 319;1NMB N V 379;5.85624
1NMB N S 319;1NMB N A 382;12.6008
1NMB N S 319;1NMB N D 385;4.36675
1NMB N S 319;1NMB N D 386;0.43138
1NMB N S 319;1NMB N S 388;11.0589
1NMB N P 320;1NMB N V 321;17.7122
1NMB N P 320;1NMB N L 322;11.0839
1NMB N P 320;1NMB N D 330;7.37876
1NMB N P 320;1NMB N P 331;22.3035
1NMB N P 320;1NMB N T 332;6.75341
1NMB N P 320;1NMB N V 333;6.98112
1NMB N P 320;1NMB N G 335;8.90347
1NMB N P 320;1NMB N Y 341;0.0777371
1NMB N P 320;1NMB N D 385;0.446768
1NMB N P 320;1NMB N D 386;5.42283
1NMB N P 320;1NMB N R 387;9.23742
1NMB N P 320;1NMB N S 388;9.53601
1NMB N P 320;1NMB N K 389;12.5262
1NMB N V 321;1NMB N L 322;20.1776
1NMB N V 321;1NMB N T 323;10.656
1NMB N V 321;1NMB N D 330;11.9563
1NMB N V 321;1NMB N L 362;14.185
1NMB N V 321;1NMB N R 364;14.3427
1NMB N V 321;1NMB N L 377;8.28407
1NMB N V 321;1NMB N V 379;11.2801
1NMB N V 321;1NMB N S 388;4.48128
1NMB N V 321;1NMB N K 389;11.4243
1NMB N V 321;1NMB N P 390;12.3956
1NMB N L 322;1NMB N T 323;19.7115
1NMB N L 322;1NMB N D 324;0.0548003
1NMB N L 322;1NMB N R 327;19.2556
1NMB N L 322;1NMB N P 328;17.3253
1NMB N L 322;1NMB N N 329;3.47656
1NMB N L 322;1NMB N D 330;11.5876
1NMB N L 322;1NMB N P 331;13.7494
1NMB N L 322;1NMB N G 335;0.151411
1NMB N L 322;1NMB N Y 341;19.886
1NMB N L 322;1NMB N R 364;9.68538
1NMB N T 323;1NMB N D 324;23.8078
1NMB N T 323;1NMB N N 325;1.7838
1NMB N T 323;1NMB N R 327;4.22139
1NMB N T 323;1NMB N F 352;1.70477
1NMB N T 323;1NMB N S 353;0.284015
1NMB N T 323;1NMB N L 362;19.6937
1NMB N T 323;1NMB N G 363;11.5155
1NMB N T 323;1NMB N R 364;24.4491
1NMB N T 323;1NMB N T 365;3.68318
1NMB N T 323;1NMB N L 377;0.0788852
1NMB N D 324;1NMB N N 325;27.9483
1NMB N D 324;1NMB N P 326;4.95723
1NMB N D 324;1NMB N R 327;17.6001
1NMB N D 324;1NMB N N 347;3.34935
1NMB N D 324;1NMB N G 348;9.11898
1NMB N D 324;1NMB N V 349;7.92326
1NMB N N 325;1NMB N P 326;35.4767
1NMB N N 325;1NMB N R 327;7.92386
1NMB N N 325;1NMB N G 348;9.76111
1NMB N N 325;1NMB N V 349;20.2217
1NMB N N 325;1NMB N T 365;15.8073
1NMB N N 325;1NMB N S 367;4.73618
1NMB N N 325;1NMB N I 368;6.06537
1NMB N N 325;1NMB N A 369;2.52766
1NMB N N 325;1NMB N S 370;16.7034
1NMB N N 325;1NMB N R 371;9.56726
1NMB N P 326;1NMB N R 327;20.5548
1NMB N P 326;1NMB N N 344;22.0397
1NMB N P 326;1NMB N N 347;29.2204
1NMB N P 326;1NMB N G 348;4.91627
1NMB N P 326;1NMB N V 349;0.156775
1NMB N P 326;1NMB N I 368;6.75993
1NMB N P 326;1NMB N A 369;18.55
1NMB N P 326;1NMB N S 370;0.123196
1NMB N P 326;1NMB N R 371;1.13113
1NMB N R 327;1NMB N P 328;31.8026
1NMB N R 327;1NMB N D 330;2.51561
1NMB N R 327;1NMB N N 344;9.90333
1NMB N R 327;1NMB N R 364;24.622
1NMB N R 327;1NMB N T 365;17.7928
1NMB N R 327;1NMB N I 366;8.37925
1NMB N R 327;1NMB N S 367;5.47815
1NMB N R 327;1NMB N I 368;46.5715
1NMB N R 327;1NMB N E 375;1.71912
1NMB N P 328;1NMB N N 329;25.1798
1NMB N P 328;1NMB N D 330;1.85267
1NMB N P 328;1NMB N Y 341;5.30729
1NMB N P 328;1NMB N P 342;4.71891
1NMB N P 328;1NMB N G 343;5.35091
1NMB N P 328;1NMB N N 344;11.9299
1NMB N P 328;1NMB N I 368;5.4755
1NMB N N 329;1NMB N D 330;24.3215
1NMB N N 329;1NMB N P 331;5.51399
1NMB N N 329;1NMB N I 368;27.8487
1NMB N D 330;1NMB N P 331;26.3386
1NMB N D 330;1NMB N R 364;21.9037
1NMB N D 330;1NMB N I 368;0.11602
1NMB N D 330;1NMB N K 389;16.1165
1NMB N D 330;1NMB N P 390;0.255798
1NMB N P 331;1NMB N T 332;21.4756
1NMB N P 331;1NMB N V 333;10.4945
1NMB N P 331;1NMB N G 335;0.679912
1NMB N P 331;1NMB N Y 341;20.2347
1NMB N P 331;1NMB N K 389;11.4021
1NMB N T 332;1NMB N V 333;35.3708
1NMB N T 332;1NMB N R 387;17.8722
1NMB N T 332;1NMB N K 389;10.3935
1NMB N V 333;1NMB N G 335;24.7066
1NMB N V 333;1NMB N Y 341;8.95557
1NMB N V 333;1NMB N D 386;22.4925
1NMB N V 333;1NMB N R 387;18.9329
1NMB N G 335;1NMB N K 336;26.9559
1NMB N G 335;1NMB N C 337;2.76767
1NMB N G 335;1NMB N Y 341;8.63548
1NMB N G 335;1NMB N D 386;20.1504
1NMB N K 336;1NMB N C 337;24.0428
1NMB N K 336;1NMB N N 338;0.0153981
1NMB N K 336;1NMB N D 339;38.7133
1NMB N K 336;1NMB N P 340;3.16124
1NMB N K 336;1NMB N Y 341;31.2624
1NMB N K 336;1NMB N P 342;14.6378
1NMB N C 337;1NMB N N 338;38.6561
1NMB N C 337;1NMB N D 339;2.1525
1NMB N C 337;1NMB N T 384;4.29401
1NMB N C 337;1NMB N D 386;13.5559
1NMB N N 338;1NMB N D 339;28.2553
1NMB N D 339;1NMB N P 340;35.2666
1NMB N D 339;1NMB N Y 341;0.169458
1NMB N D 339;1NMB N P 342;0.408799
1NMB N P 340;1NMB N Y 341;16.9554
1NMB N P 340;1NMB N P 342;11.5244
1NMB N Y 341;1NMB N P 342;39.9261
1NMB N Y 341;1NMB N G 343;0.105355
1NMB N Y 341;1NMB N N 344;0.821983
1NMB N P 342;1NMB N G 343;30.0774
1NMB N P 342;1NMB N N 344;0.714061
1NMB N G 343;1NMB N N 344;33.6829
1NMB N G 343;1NMB N N 345;3.86335
1NMB N N 344;1NMB N N 345;36.6623
1NMB N N 344;1NMB N N 347;0.0411917
1NMB N N 345;1NMB N N 346;45.0806
1NMB N N 345;1NMB N N 347;11.7185
1NMB N N 346;1NMB N N 347;27.0825
1NMB N N 347;1NMB N G 348;29.4061
1NMB N N 347;1NMB N R 371;3.34042
1NMB N G 348;1NMB N V 349;16.1642
1NMB N G 348;1NMB N R 371;9.23142
1NMB N V 349;1NMB N K 350;27.3012
1NMB N V 349;1NMB N G 351;0.00472233
1NMB N V 349;1NMB N T 365;6.62919
1NMB N V 349;1NMB N R 371;26.3256
1NMB N V 349;1NMB N G 405;10.2069
1NMB N V 349;1NMB N Y 406;12.3497
1NMB N K 350;1NMB N G 351;23.3224
1NMB N K 350;1NMB N G 405;1.64671
1NMB N K 350;1NMB N Y 406;27.4456
1NMB N K 350;1NMB N S 407;19.0139
1NMB N K 350;1NMB N G 408;3.33529
1NMB N K 350;1NMB N Y 423;8.36906
1NMB N G 351;1NMB N F 352;21.287
1NMB N G 351;1NMB N G 363;0.743733
1NMB N G 351;1NMB N Y 374;2.18602
1NMB N G 351;1NMB N S 407;13.6704
1NMB N G 351;1NMB N G 408;0.0281369
1NMB N F 352;1NMB N S 353;35.7798
1NMB N F 352;1NMB N Y 354;13.8668
1NMB N F 352;1NMB N W 361;0.165681
1NMB N F 352;1NMB N L 362;0.111808
1NMB N F 352;1NMB N G 363;19.8058
1NMB N F 352;1NMB N Y 374;13.8624
1NMB N F 352;1NMB N M 376;15.7956
1NMB N F 352;1NMB N S 407;10.2356
1NMB N F 352;1NMB N G 408;14.7027
1NMB N F 352;1NMB N S 409;13.8315
1NMB N F 352;1NMB N C 421;0.0583553
1NMB N F 352;1NMB N F 422;22.6547
1NMB N F 352;1NMB N Y 423;0.590463
1NMB N F 352;1NMB N V 424;0.0797663
1NMB N S 353;1NMB N Y 354;21.9296
1NMB N S 353;1NMB N L 355;17.0458
1NMB N S 353;1NMB N W 361;6.35047
1NMB N S 353;1NMB N L 362;15.2047
1NMB N S 353;1NMB N G 363;0.828796
1NMB N S 353;1NMB N M 376;0.0047483
1NMB N S 353;1NMB N S 409;1.94734
1NMB N Y 354;1NMB N L 355;19.4531
1NMB N Y 354;1NMB N D 356;3.06766
1NMB N Y 354;1NMB N N 359;2.67311
1NMB N Y 354;1NMB N T 360;8.48389
1NMB N Y 354;1NMB N W 361;21.1474
1NMB N Y 354;1NMB N L 362;0.187164
1NMB N Y 354;1NMB N M 376;2.04933
1NMB N Y 354;1NMB N S 409;11.9125
1NMB N Y 354;1NMB N F 410;4.87249
1NMB N Y 354;1NMB N M 411;11.0682
1NMB N Y 354;1NMB N A 420;17.8338
1NMB N Y 354;1NMB N C 421;14.9641
1NMB N Y 354;1NMB N F 422;2.26261
1NMB N L 355;1NMB N D 356;24.1601
1NMB N L 355;1NMB N G 357;3.06342
1NMB N L 355;1NMB N T 360;11.3253
1NMB N L 355;1NMB N L 362;7.72324
1NMB N L 355;1NMB N A 382;4.48142
1NMB N L 355;1NMB N L 383;30.2584
1NMB N D 356;1NMB N G 357;25.2996
1NMB N D 356;1NMB N G 358;3.22111
1NMB N D 356;1NMB N N 359;38.9285
1NMB N D 356;1NMB N T 360;6.70283
1NMB N G 357;1NMB N G 358;19.096
1NMB N G 357;1NMB N N 359;1.50284
1NMB N G 357;1NMB N T 360;11.8395
1NMB N G 357;1NMB N P 380;0.866862
1NMB N G 357;1NMB N N 381;25.4771
1NMB N G 358;1NMB N N 359;20.7163
1NMB N G 358;1NMB N T 360;8.16803
1NMB N G 358;1NMB N K 378;14.8542
1NMB N G 358;1NMB N P 380;18.1301
1NMB N G 358;1NMB N N 381;7.5805
1NMB N N 359;1NMB N T 360;18.4021
1NMB N N 359;1NMB N W 361;5.91422
1NMB N N 359;1NMB N K 378;5.87444
1NMB N T 360;1NMB N W 361;25.905
1NMB N T 360;1NMB N L 362;5.53889
1NMB N T 360;1NMB N L 377;0.0769487
1NMB N T 360;1NMB N K 378;9.00801
1NMB N T 360;1NMB N V 379;17.3326
1NMB N T 360;1NMB N P 380;5.67607
1NMB N T 360;1NMB N N 381;5.1362
1NMB N T 360;1NMB N A 382;11.005
1NMB N T 360;1NMB N L 383;0.329467
1NMB N W 361;1NMB N L 362;24.1587
1NMB N W 361;1NMB N G 363;4.93692e-07
1NMB N W 361;1NMB N M 376;20.4566
1NMB N W 361;1NMB N L 377;15.4875
1NMB N W 361;1NMB N K 378;27.1575
1NMB N W 361;1NMB N V 379;0.379907
1NMB N W 361;1NMB N Q 392;18.1549
1NMB N W 361;1NMB N G 394;10.7531
1NMB N W 361;1NMB N Q 395;7.79455
1NMB N L 362;1NMB N G 363;22.1384
1NMB N L 362;1NMB N R 364;1.76172
1NMB N L 362;1NMB N E 375;1.44681
1NMB N L 362;1NMB N M 376;11.0257
1NMB N L 362;1NMB N L 377;24.7008
1NMB N L 362;1NMB N V 379;15.1606
1NMB N L 362;1NMB N A 382;10.7832
1NMB N G 363;1NMB N R 364;20.5552
1NMB N G 363;1NMB N Y 374;12.6244
1NMB N G 363;1NMB N E 375;4.57506
1NMB N G 363;1NMB N M 376;8.6084
1NMB N R 364;1NMB N T 365;26.7716
1NMB N R 364;1NMB N I 366;0.188073
1NMB N R 364;1NMB N I 368;0.283358
1NMB N R 364;1NMB N Y 374;17.7638
1NMB N R 364;1NMB N E 375;38.9754
1NMB N R 364;1NMB N L 377;18.21
1NMB N R 364;1NMB N P 390;4.61144
1NMB N T 365;1NMB N I 366;20.1708
1NMB N T 365;1NMB N S 367;7.57891
1NMB N T 365;1NMB N S 370;5.30985
1NMB N T 365;1NMB N R 371;10.5158
1NMB N T 365;1NMB N S 372;5.27352
1NMB N T 365;1NMB N G 373;5.50692
1NMB N T 365;1NMB N Y 374;14.2724
1NMB N T 365;1NMB N E 375;3.20048
1NMB N T 365;1NMB N S 404;7.16271
1NMB N T 365;1NMB N G 405;5.32271
1NMB N I 366;1NMB N S 367;25.0681
1NMB N I 366;1NMB N I 368;5.596
1NMB N I 366;1NMB N S 372;5.85745
1NMB N I 366;1NMB N G 373;10.0229
1NMB N I 366;1NMB N Y 374;11.4586
1NMB N I 366;1NMB N E 375;25.3011
1NMB N I 366;1NMB N T 396;12.1176
1NMB N I 366;1NMB N V 398;5.57358
1NMB N I 366;1NMB N L 399;1.99511
1NMB N I 366;1NMB N N 400;20.6069
1NMB N S 367;1NMB N I 368;19.6619
1NMB N S 367;1NMB N A 369;7.35827
1NMB N S 367;1NMB N S 370;18.7228
1NMB N S 367;1NMB N S 372;17.7008
1NMB N S 367;1NMB N N 400;3.65701
1NMB N I 368;1NMB N A 369;22.7013
1NMB N A 369;1NMB N S 370;29.7303
1NMB N A 369;1NMB N K 432;0.583529
1NMB N S 370;1NMB N R 371;23.0901
1NMB N S 370;1NMB N S 372;11.1942
1NMB N S 370;1NMB N W 403;2.77793
1NMB N S 370;1NMB N K 432;14.7656
1NMB N R 371;1NMB N S 372;14.9158
1NMB N R 371;1NMB N W 403;11.0613
1NMB N R 371;1NMB N S 404;19.4864
1NMB N R 371;1NMB N G 405;13.4245
1NMB N R 371;1NMB N Y 406;13.6183
1NMB N R 371;1NMB N I 427;14.6693
1NMB N R 371;1NMB N K 432;2.24803
1NMB N S 372;1NMB N G 373;17.6425
1NMB N S 372;1NMB N N 400;13.5692
1NMB N S 372;1NMB N T 401;0.0118432
1NMB N S 372;1NMB N D 402;5.23828
1NMB N S 372;1NMB N W 403;17.0731
1NMB N S 372;1NMB N S 404;5.26211
1NMB N G 373;1NMB N Y 374;16.496
1NMB N G 373;1NMB N V 398;11.0192
1NMB N G 373;1NMB N L 399;5.91155
1NMB N G 373;1NMB N N 400;5.42605
1NMB N G 373;1NMB N D 402;6.47512
1NMB N G 373;1NMB N W 403;0.265174
1NMB N G 373;1NMB N S 404;12.0579
1NMB N Y 374;1NMB N E 375;25.3057
1NMB N Y 374;1NMB N M 376;6.63704
1NMB N Y 374;1NMB N T 396;3.94198
1NMB N Y 374;1NMB N I 397;18.8108
1NMB N Y 374;1NMB N V 398;19.6023
1NMB N Y 374;1NMB N S 404;8.37925
1NMB N Y 374;1NMB N G 405;4.16519
1NMB N Y 374;1NMB N S 407;18.263
1NMB N Y 374;1NMB N F 422;6.72908
1NMB N Y 374;1NMB N V 424;23.5819
1NMB N E 375;1NMB N M 376;23.0187
1NMB N E 375;1NMB N L 377;22.127
1NMB N E 375;1NMB N Q 395;5.95708
1NMB N E 375;1NMB N T 396;11.1935
1NMB N E 375;1NMB N I 397;4.59439
1NMB N M 376;1NMB N L 377;21.9651
1NMB N M 376;1NMB N G 394;3.90006
1NMB N M 376;1NMB N Q 395;22.3668
1NMB N M 376;1NMB N I 397;10.9374
1NMB N M 376;1NMB N F 422;17.7019
1NMB N L 377;1NMB N K 378;16.0612
1NMB N L 377;1NMB N V 379;12.4449
1NMB N L 377;1NMB N P 390;22.2076
1NMB N L 377;1NMB N Q 392;7.05966
1NMB N L 377;1NMB N G 394;11.569
1NMB N L 377;1NMB N Q 395;0.602031
1NMB N K 378;1NMB N V 379;16.8184
1NMB N K 378;1NMB N P 380;14.9231
1NMB N K 378;1NMB N K 389;0.0846757
1NMB N K 378;1NMB N P 390;6.40639
1NMB N K 378;1NMB N T 391;20.5736
1NMB N K 378;1NMB N Q 392;31.204
1NMB N V 379;1NMB N P 380;22.7511
1NMB N V 379;1NMB N A 382;15.8523
1NMB N V 379;1NMB N S 388;12.2184
1NMB N V 379;1NMB N K 389;7.9615
1NMB N V 379;1NMB N P 390;10.8297
1NMB N P 380;1NMB N N 381;24.915
1NMB N P 380;1NMB N A 382;3.95451
1NMB N P 380;1NMB N D 385;1.42149
1NMB N P 380;1NMB N S 388;11.4817
1NMB N P 380;1NMB N K 389;6.57895
1NMB N P 380;1NMB N T 391;21.5079
1NMB N N 381;1NMB N A 382;15.8629
1NMB N N 381;1NMB N L 383;5.88963
1NMB N N 381;1NMB N T 384;23.3468
1NMB N N 381;1NMB N D 385;21.6728
1NMB N N 381;1NMB N S 388;1.12286
1NMB N A 382;1NMB N L 383;20.7473
1NMB N A 382;1NMB N T 384;0.688556
1NMB N A 382;1NMB N D 385;3.2731
1NMB N A 382;1NMB N S 388;5.99955
1NMB N L 383;1NMB N T 384;34.9565
1NMB N T 384;1NMB N D 385;23.7863
1NMB N T 384;1NMB N D 386;5.33857
1NMB N D 385;1NMB N D 386;18.8786
1NMB N D 385;1NMB N R 387;15.5719
1NMB N D 385;1NMB N S 388;25.1545
1NMB N D 386;1NMB N R 387;30.2973
1NMB N R 387;1NMB N S 388;19.66
1NMB N R 387;1NMB N K 389;12.662
1NMB N S 388;1NMB N K 389;24.4045
1NMB N K 389;1NMB N P 390;37.6113
1NMB N K 389;1NMB N T 391;8.52636
1NMB N P 390;1NMB N T 391;25.6344
1NMB N P 390;1NMB N Q 392;7.11943
1NMB N T 391;1NMB N Q 392;32.2999
1NMB N Q 392;1NMB N G 394;35.4414
1NMB N Q 392;1NMB N Q 395;0.0472499
1NMB N Q 392;1NMB N F 452;18.8136
1NMB N G 394;1NMB N Q 395;29.2752
1NMB N G 394;1NMB N Q 455;3.12463
1NMB N Q 395;1NMB N T 396;30.3037
1NMB N Q 395;1NMB N I 397;13.8414
1NMB N Q 395;1NMB N M 446;5.45373
1NMB N Q 395;1NMB N L 453;4.00073
1NMB N Q 395;1NMB N G 454;2.40122
1NMB N Q 395;1NMB N Q 455;28.4126
1NMB N Q 395;1NMB N W 456;2.62274
1NMB N T 396;1NMB N I 397;28.2656
1NMB N T 396;1NMB N V 398;8.0082
1NMB N T 396;1NMB N L 399;14.9079
1NMB N T 396;1NMB N Q 455;27.8933
1NMB N T 396;1NMB N W 456;7.7575
1NMB N T 396;1NMB N N 457;4.38964
1NMB N I 397;1NMB N V 398;29.6461
1NMB N I 397;1NMB N F 422;14.8182
1NMB N I 397;1NMB N V 424;6.08052
1NMB N I 397;1NMB N V 444;9.41219
1NMB N I 397;1NMB N M 446;19.2504
1NMB N I 397;1NMB N W 456;3.37983
1NMB N I 397;1NMB N N 457;8.13688
1NMB N I 397;1NMB N W 458;19.987
1NMB N V 398;1NMB N L 399;22.2661
1NMB N V 398;1NMB N D 402;15.3612
1NMB N V 398;1NMB N W 403;6.99703
1NMB N V 398;1NMB N S 404;4.99866
1NMB N V 398;1NMB N V 424;5.12637
1NMB N V 398;1NMB N L 426;11.152
1NMB N V 398;1NMB N V 444;3.3008
1NMB N V 398;1NMB N N 457;4.66641
1NMB N V 398;1NMB N W 458;10.2871
1NMB N V 398;1NMB N P 459;5.5935
1NMB N L 399;1NMB N N 400;23.2873
1NMB N L 399;1NMB N T 401;19.0746
1NMB N L 399;1NMB N D 402;23.4384
1NMB N L 399;1NMB N N 457;33.0483
1NMB N N 400;1NMB N T 401;27.8742
1NMB N N 400;1NMB N D 402;4.16509
1NMB N T 401;1NMB N D 402;30.3062
1NMB N T 401;1NMB N W 403;3.65184
1NMB N D 402;1NMB N W 403;27.9115
1NMB N D 402;1NMB N S 404;0.0205343
1NMB N D 402;1NMB N N 457;6.98085
1NMB N D 402;1NMB N P 459;23.4025
1NMB N D 402;1NMB N D 460;1.54126
1NMB N W 403;1NMB N S 404;21.3072
1NMB N W 403;1NMB N L 426;13.2961
1NMB N W 403;1NMB N I 427;19.9972
1NMB N W 403;1NMB N R 428;11.4269
1NMB N W 403;1NMB N G 429;0.0139909
1NMB N W 403;1NMB N K 432;34.8908
1NMB N W 403;1NMB N E 433;23.7157
1NMB N W 403;1NMB N D 460;1.9838
1NMB N S 404;1NMB N G 405;20.0793
1NMB N S 404;1NMB N V 424;9.69196
1NMB N S 404;1NMB N E 425;4.37853
1NMB N S 404;1NMB N L 426;6.14167
1NMB N S 404;1NMB N I 427;13.5892
1NMB N G 405;1NMB N Y 406;21.7354
1NMB N G 405;1NMB N S 407;2.84813
1NMB N G 405;1NMB N V 424;4.8264
1NMB N G 405;1NMB N E 425;7.784
1NMB N G 405;1NMB N I 427;10.3067
1NMB N Y 406;1NMB N S 407;21.6142
1NMB N Y 406;1NMB N Y 423;8.36326
1NMB N Y 406;1NMB N V 424;5.4119
1NMB N Y 406;1NMB N E 425;27.3114
1NMB N Y 406;1NMB N I 427;0.590776
1NMB N S 407;1NMB N G 408;16.0904
1NMB N S 407;1NMB N F 422;0.119025
1NMB N S 407;1NMB N Y 423;16.8593
1NMB N S 407;1NMB N V 424;9.73945
1NMB N G 408;1NMB N S 409;19.03
1NMB N G 408;1NMB N F 410;0.080551
1NMB N G 408;1NMB N F 422;8.67671
1NMB N G 408;1NMB N Y 423;24.5134
1NMB N S 409;1NMB N F 410;26.79
1NMB N S 409;1NMB N C 421;4.51977
1NMB N S 409;1NMB N F 422;2.9769
1NMB N S 409;1NMB N Y 423;5.79368
1NMB N F 410;1NMB N M 411;32.1143
1NMB N F 410;1NMB N D 412;3.1632
1NMB N F 410;1NMB N Y 412a;1.87867
1NMB N F 410;1NMB N C 421;30.5274
1NMB N F 410;1NMB N F 422;11.3485
1NMB N F 410;1NMB N Y 423;5.57755
1NMB N F 410;1NMB N S 445;6.96704
1NMB N F 410;1NMB N M 446;0.586661
1NMB N F 410;1NMB N C 447;3.55385
1NMB N M 411;1NMB N D 412;22.5296
1NMB N M 411;1NMB N Y 412a;38.3907
1NMB N M 411;1NMB N W 412b;1.14033
1NMB N M 411;1NMB N Y 418;20.8565
1NMB N M 411;1NMB N R 419;11.9881
1NMB N M 411;1NMB N A 420;7.9281
1NMB N M 411;1NMB N C 421;6.19388
1NMB N D 412;1NMB N Y 412a;17.9467
1NMB N D 412;1NMB N W 412b;18.0964
1NMB N D 412;1NMB N A 413;34.2411
1NMB N D 412;1NMB N Y 418;8.06079
1NMB N D 412;1NMB N R 419;5.39288
1NMB N D 412;1NMB N C 421;5.1294
1NMB N Y 412a;1NMB N W 412b;47.0222
1NMB N Y 412a;1NMB N A 413;3.34663
1NMB N Y 412a;1NMB N Y 418;30.6421
1NMB N W 412b;1NMB N A 413;23.4715
1NMB N W 412b;1NMB N E 414;11.6245
1NMB N A 413;1NMB N E 414;37.0342
1NMB N A 413;1NMB N G 415;4.35644
1NMB N A 413;1NMB N C 417;1.26262
1NMB N A 413;1NMB N Y 418;1.26841
1NMB N A 413;1NMB N R 419;2.98255
1NMB N E 414;1NMB N G 415;32.3252
1NMB N G 415;1NMB N E 416;29.682
1NMB N G 415;1NMB N C 417;8.46839
1NMB N E 416;1NMB N C 417;39.2889
1NMB N C 417;1NMB N Y 418;18.7628
1NMB N C 417;1NMB N R 419;4.86905
1NMB N Y 418;1NMB N R 419;20.4713
1NMB N Y 418;1NMB N A 420;4.42855
1NMB N R 419;1NMB N A 420;18.7955
1NMB N R 419;1NMB N C 421;11.8576
1NMB N R 419;1NMB N C 447;11.8051
1NMB N R 419;1NMB N S 448;26.7742
1NMB N R 419;1NMB N S 449;5.83221
1NMB N A 420;1NMB N C 421;18.1559
1NMB N A 420;1NMB N C 447;4.94391
1NMB N A 420;1NMB N S 448;16.3428
1NMB N C 421;1NMB N F 422;20.6532
1NMB N C 421;1NMB N M 446;6.14614
1NMB N C 421;1NMB N C 447;21.3676
1NMB N F 422;1NMB N Y 423;23.8127
1NMB N F 422;1NMB N V 424;12.007
1NMB N F 422;1NMB N V 444;0.596909
1NMB N F 422;1NMB N S 445;8.47342
1NMB N F 422;1NMB N M 446;29.1574
1NMB N Y 423;1NMB N V 424;21.3627
1NMB N Y 423;1NMB N E 425;7.28634
1NMB N Y 423;1NMB N I 443;14.2582
1NMB N Y 423;1NMB N V 444;5.91557
1NMB N Y 423;1NMB N S 445;9.81002
1NMB N V 424;1NMB N E 425;20.1045
1NMB N V 424;1NMB N L 426;15.7289
1NMB N V 424;1NMB N S 442;0.610261
1NMB N V 424;1NMB N I 443;5.38928
1NMB N V 424;1NMB N V 444;23.4939
1NMB N E 425;1NMB N L 426;16.9594
1NMB N E 425;1NMB N I 427;16.9446
1NMB N E 425;1NMB N N 441;12.2413
1NMB N E 425;1NMB N S 442;3.745
1NMB N E 425;1NMB N I 443;2.70467
1NMB N L 426;1NMB N I 427;17.4096
1NMB N L 426;1NMB N R 428;6.78317
1NMB N L 426;1NMB N N 441;9.14202
1NMB N L 426;1NMB N S 442;25.6232
1NMB N L 426;1NMB N I 443;4.03048
1NMB N L 426;1NMB N V 444;15.6175
1NMB N L 426;1NMB N W 458;7.02706
1NMB N L 426;1NMB N P 459;5.52269
1NMB N L 426;1NMB N D 460;21.69
1NMB N I 427;1NMB N R 428;29.3899
1NMB N I 427;1NMB N G 429;4.48426
1NMB N I 427;1NMB N R 430;6.51712
1NMB N I 427;1NMB N P 431;2.6383
1NMB N I 427;1NMB N E 433;1.03234
1NMB N I 427;1NMB N T 439;8.15214
1NMB N I 427;1NMB N S 440;5.88551
1NMB N I 427;1NMB N N 441;5.78556
1NMB N R 428;1NMB N G 429;20.5491
1NMB N R 428;1NMB N R 430;0.223061
1NMB N R 428;1NMB N E 433;21.8895
1NMB N R 428;1NMB N W 438;13.4971
1NMB N R 428;1NMB N T 439;5.00053
1NMB N R 428;1NMB N S 440;16.0308
1NMB N R 428;1NMB N N 441;3.62806
1NMB N R 428;1NMB N S 442;0.000220224
1NMB N R 428;1NMB N D 460;27.4213
1NMB N R 428;1NMB N G 461;3.66889
1NMB N R 428;1NMB N A 462;22.2957
1NMB N R 428;1NMB N I 464;20.5783
1NMB N G 429;1NMB N R 430;21.1527
1NMB N G 429;1NMB N P 431;0.190107
1NMB N G 429;1NMB N K 432;8.50804
1NMB N G 429;1NMB N E 433;24.891
1NMB N G 429;1NMB N V 436;8.05459
1NMB N G 429;1NMB N W 438;7.9819
1NMB N G 429;1NMB N T 439;1.59668
1NMB N G 429;1NMB N I 464;4.54275
1NMB N R 430;1NMB N P 431;29.9509
1NMB N R 430;1NMB N K 432;1.40829
1NMB N R 430;1NMB N E 433;7.35997
1NMB N R 430;1NMB N D 434;30.6132
1NMB N R 430;1NMB N V 436;14.7861
1NMB N R 430;1NMB N W 437;42.1005
1NMB N R 430;1NMB N W 438;11.2795
1NMB N R 430;1NMB N T 439;21.8294
1NMB N P 431;1NMB N K 432;44.545
1NMB N P 431;1NMB N E 433;0.841793
1NMB N P 431;1NMB N D 434;12.4753
1NMB N P 431;1NMB N T 439;0.252536
1NMB N K 432;1NMB N E 433;24.5116
1NMB N K 432;1NMB N D 434;10.0967
1NMB N K 432;1NMB N K 435;2.06206
1NMB N E 433;1NMB N D 434;15.4321
1NMB N E 433;1NMB N K 435;26.3138
1NMB N E 433;1NMB N V 436;8.23633
1NMB N E 433;1NMB N I 464;16.786
1NMB N D 434;1NMB N K 435;33.9079
1NMB N D 434;1NMB N V 436;5.55814
1NMB N K 435;1NMB N V 436;27.668
1NMB N K 435;1NMB N W 437;6.69002
1NMB N K 435;1NMB N I 464;28.3169
1NMB N K 435;1NMB N E 465;1.49359
1NMB N K 435;1NMB N L 468;31.0051
1NMB N V 436;1NMB N W 437;24.7217
1NMB N V 436;1NMB N W 438;33.3055
1NMB N V 436;1NMB N I 464;16.1915
1NMB N V 436;1NMB N F 467;14.9991
1NMB N V 436;1NMB N L 468;7.96462
1NMB N W 437;1NMB N W 438;25.3776
1NMB N W 438;1NMB N T 439;25.0592
1NMB N W 438;1NMB N S 440;14.7754
1NMB N W 438;1NMB N I 464;10.0033
1NMB N W 438;1NMB N F 467;21.4346
1NMB N T 439;1NMB N S 440;21.5651
1NMB N S 440;1NMB N N 441;27.686
1NMB N N 441;1NMB N S 442;28.2956
1NMB N N 441;1NMB N I 443;5.42587
1NMB N N 441;1NMB N D 460;0.107301
1NMB N S 442;1NMB N I 443;26.2473
1NMB N S 442;1NMB N D 460;17.3322
1NMB N I 443;1NMB N V 444;25.0298
1NMB N I 443;1NMB N S 445;4.16613
1NMB N V 444;1NMB N S 445;21.657
1NMB N V 444;1NMB N M 446;6.76529
1NMB N V 444;1NMB N W 458;17.3808
1NMB N S 445;1NMB N M 446;23.4631
1NMB N S 445;1NMB N C 447;0.000140367
1NMB N M 446;1NMB N C 447;18.4912
1NMB N M 446;1NMB N W 456;0.700092
1NMB N M 446;1NMB N W 458;18.1526
1NMB N C 447;1NMB N S 448;17.3205
1NMB N S 448;1NMB N S 449;25.1201
1NMB N S 449;1NMB N T 450;23.9193
1NMB N S 449;1NMB N E 451;18.1264
1NMB N S 449;1NMB N L 453;15.0095
1NMB N T 450;1NMB N E 451;36.3065
1NMB N T 450;1NMB N F 452;7.96067
1NMB N E 451;1NMB N F 452;26.2109
1NMB N E 451;1NMB N L 453;20.3203
1NMB N F 452;1NMB N L 453;28.6251
1NMB N F 452;1NMB N G 454;2.64812
1NMB N L 453;1NMB N G 454;39.0152
1NMB N L 453;1NMB N Q 455;2.19551
1NMB N G 454;1NMB N Q 455;32.8656
1NMB N G 454;1NMB N W 456;2.67918
1NMB N Q 455;1NMB N W 456;37.4666
1NMB N W 456;1NMB N N 457;45.4188
1NMB N W 456;1NMB N W 458;46.7868
1NMB N N 457;1NMB N W 458;26.6754
1NMB N N 457;1NMB N P 459;24.2749
1NMB N W 458;1NMB N P 459;22.7454
1NMB N P 459;1NMB N D 460;22.3297
1NMB N P 459;1NMB N G 461;15.785
1NMB N D 460;1NMB N G 461;22.0267
1NMB N D 460;1NMB N A 462;11.4107
1NMB N G 461;1NMB N A 462;21.8718
1NMB N G 461;1NMB N K 463;12.3295
1NMB N A 462;1NMB N K 463;31.559
1NMB N A 462;1NMB N I 464;5.41882
1NMB N A 462;1NMB N F 467;8.44072
1NMB N K 463;1NMB N I 464;16.4605
1NMB N K 463;1NMB N E 465;24.2667
1NMB N K 463;1NMB N Y 466;44.5999
1NMB N K 463;1NMB N F 467;9.12928
1NMB N I 464;1NMB N E 465;32.253
1NMB N I 464;1NMB N Y 466;1.88364
1NMB N I 464;1NMB N F 467;20.1083
1NMB N I 464;1NMB N L 468;11.921
1NMB N E 465;1NMB N Y 466;31.5443
1NMB N E 465;1NMB N F 467;1.23634
1NMB N E 465;1NMB N L 468;28.2165
1NMB N Y 466;1NMB N F 467;24.3329
1NMB N Y 466;1NMB N L 468;6.05235
1NMB N F 467;1NMB N L 468;29.5181
