V1;V2;Weight
1OGA D Q 3;1OGA D L 4;35.9425
1OGA D Q 3;1OGA D S 28;17.5487
1OGA D Q 3;1OGA D V 29;6.98907
1OGA D Q 3;1OGA D F 30;16.2926
1OGA D Q 3;1OGA D A 93;8.8895
1OGA D Q 3;1OGA D G 94;4.95666
1OGA D Q 3;1OGA D S 95;25.2949
1OGA D Q 3;1OGA D Q 96;0.0299693
1OGA D Q 3;1OGA D I 100;33.9196
1OGA D L 4;1OGA D L 5;27.9964
1OGA D L 4;1OGA D E 6;1.3531
1OGA D L 4;1OGA D N 25;0.503839
1OGA D L 4;1OGA D S 26;15.9342
1OGA D L 4;1OGA D S 27;0.00749122
1OGA D L 4;1OGA D S 28;3.1118
1OGA D L 4;1OGA D F 30;6.36627
1OGA D L 4;1OGA D I 100;6.76789
1OGA D L 5;1OGA D E 6;26.989
1OGA D L 5;1OGA D Q 7;0.800237
1OGA D L 5;1OGA D C 24;14.492
1OGA D L 5;1OGA D N 25;8.99284
1OGA D L 5;1OGA D S 26;7.47498
1OGA D L 5;1OGA D F 30;17.7841
1OGA D L 5;1OGA D L 33;11.6015
1OGA D L 5;1OGA D K 71;2.86199
1OGA D L 5;1OGA D D 72;0.798247
1OGA D L 5;1OGA D C 90;10.0545
1OGA D L 5;1OGA D A 91;7.15511
1OGA D L 5;1OGA D G 92;6.99171
1OGA D L 5;1OGA D I 100;17.6623
1OGA D L 5;1OGA D F 101;7.9229
1OGA D L 5;1OGA D G 102;16.8279
1OGA D L 5;1OGA D K 103;7.57921
1OGA D E 6;1OGA D Q 7;30.3362
1OGA D E 6;1OGA D S 8;16.4554
1OGA D E 6;1OGA D Y 23;1.32001
1OGA D E 6;1OGA D C 24;6.18106
1OGA D E 6;1OGA D N 25;39.078
1OGA D E 6;1OGA D C 90;0.338617
1OGA D E 6;1OGA D G 102;0.00310393
1OGA D E 6;1OGA D K 103;0.69072
1OGA D Q 7;1OGA D S 8;24.927
1OGA D Q 7;1OGA D P 9;2.1487
1OGA D Q 7;1OGA D Q 10;9.23927
1OGA D Q 7;1OGA D V 22;1.24914
1OGA D Q 7;1OGA D Y 23;9.65775
1OGA D Q 7;1OGA D C 24;4.45778
1OGA D Q 7;1OGA D W 35;10.9522
1OGA D Q 7;1OGA D Y 88;6.98824
1OGA D Q 7;1OGA D L 89;6.71545
1OGA D Q 7;1OGA D C 90;19.6813
1OGA D Q 7;1OGA D G 102;12.6871
1OGA D Q 7;1OGA D K 103;9.63491
1OGA D Q 7;1OGA D G 104;22.5909
1OGA D Q 7;1OGA D T 105;13.0226
1OGA D S 8;1OGA D P 9;31.0312
1OGA D S 8;1OGA D Q 10;0.828571
1OGA D S 8;1OGA D V 22;4.02915
1OGA D S 8;1OGA D Y 23;31.5008
1OGA D S 8;1OGA D N 25;4.04977
1OGA D S 8;1OGA D T 105;5.6599
1OGA D P 9;1OGA D Q 10;25.2557
1OGA D P 9;1OGA D F 11;15.3144
1OGA D P 9;1OGA D L 12;18.3889
1OGA D P 9;1OGA D T 21;5.81518
1OGA D P 9;1OGA D V 22;7.72187
1OGA D P 9;1OGA D Y 23;6.53662
1OGA D P 9;1OGA D G 104;1.08359
1OGA D P 9;1OGA D T 105;18.7375
1OGA D Q 10;1OGA D F 11;49.223
1OGA D Q 10;1OGA D G 104;12.0358
1OGA D Q 10;1OGA D T 105;5.61782
1OGA D Q 10;1OGA D K 106;9.59583
1OGA D F 11;1OGA D L 12;27.3955
1OGA D F 11;1OGA D T 105;2.75581
1OGA D F 11;1OGA D K 106;34.2838
1OGA D F 11;1OGA E G 42;3.87099
1OGA D L 12;1OGA D S 13;31.5069
1OGA D L 12;1OGA D I 14;16.825
1OGA D L 12;1OGA D L 20;15.0857
1OGA D L 12;1OGA D T 21;8.07566
1OGA D L 12;1OGA D V 22;7.91671
1OGA D L 12;1OGA D T 105;8.29423
1OGA D L 12;1OGA D K 106;10.3207
1OGA D L 12;1OGA D L 107;21.6193
1OGA D L 12;1OGA D S 108;9.33001
1OGA D S 13;1OGA D I 14;31.5247
1OGA D S 13;1OGA D L 107;0.190121
1OGA D S 13;1OGA D S 108;16.1724
1OGA D S 13;1OGA D K 110;20.7217
1OGA D I 14;1OGA D Q 15;27.6981
1OGA D I 14;1OGA D E 16;0.236351
1OGA D I 14;1OGA D E 18;26.2714
1OGA D I 14;1OGA D N 19;6.45293
1OGA D I 14;1OGA D L 20;17.431
1OGA D I 14;1OGA D A 80;9.41054
1OGA D I 14;1OGA D L 107;8.46334
1OGA D I 14;1OGA D S 108;8.64065
1OGA D I 14;1OGA D V 109;14.0532
1OGA D I 14;1OGA D K 110;11.7951
1OGA D Q 15;1OGA D E 16;22.9797
1OGA D Q 15;1OGA D G 17;0.709516
1OGA D Q 15;1OGA D E 18;31.8137
1OGA D Q 15;1OGA D A 80;1.70718
1OGA D Q 15;1OGA D V 109;1.76639
1OGA D Q 15;1OGA D K 110;21.3929
1OGA D Q 15;1OGA D P 111;6.09419
1OGA D Q 15;1OGA D N 112;21.182
1OGA D Q 15;1OGA D S 141;11.1202
1OGA D Q 15;1OGA D Q 142;11.3637
1OGA D E 16;1OGA D G 17;25.4142
1OGA D E 16;1OGA D E 18;3.98823
1OGA D E 16;1OGA D A 80;9.41499
1OGA D E 16;1OGA D Q 81;5.04643
1OGA D E 16;1OGA D P 82;17.8488
1OGA D E 16;1OGA D V 109;11.176
1OGA D E 16;1OGA D K 110;10.4052
1OGA D E 16;1OGA D P 111;7.6615
1OGA D E 16;1OGA D N 112;36.0688
1OGA D E 16;1OGA D K 169;20.9211
1OGA D G 17;1OGA D E 18;24.6382
1OGA D G 17;1OGA D N 19;4.21521
1OGA D G 17;1OGA D A 79;19.4836
1OGA D G 17;1OGA D A 80;11.1047
1OGA D G 17;1OGA D N 112;0.363784
1OGA D E 18;1OGA D N 19;33.8833
1OGA D E 18;1OGA D L 20;0.760237
1OGA D E 18;1OGA D I 77;0.702074
1OGA D E 18;1OGA D T 78;0.00104746
1OGA D E 18;1OGA D A 79;4.08897
1OGA D E 18;1OGA D A 80;12.3169
1OGA D N 19;1OGA D L 20;27.4753
1OGA D N 19;1OGA D H 76;18.1612
1OGA D N 19;1OGA D I 77;7.12381
1OGA D N 19;1OGA D T 78;18.4852
1OGA D N 19;1OGA D A 79;9.06146
1OGA D L 20;1OGA D T 21;28.8238
1OGA D L 20;1OGA D V 22;11.6551
1OGA D L 20;1OGA D L 75;7.5854
1OGA D L 20;1OGA D H 76;12.1402
1OGA D L 20;1OGA D I 77;34.2042
1OGA D L 20;1OGA D A 80;8.04532
1OGA D L 20;1OGA D D 84;0.22614
1OGA D L 20;1OGA D L 107;20.1949
1OGA D L 20;1OGA D V 109;0.654946
1OGA D T 21;1OGA D V 22;25.4624
1OGA D T 21;1OGA D Y 23;32.6942
1OGA D T 21;1OGA D S 74;10.2477
1OGA D T 21;1OGA D L 75;7.26326
1OGA D T 21;1OGA D H 76;21.1647
1OGA D V 22;1OGA D Y 23;24.4342
1OGA D V 22;1OGA D W 35;14.7158
1OGA D V 22;1OGA D S 74;6.99566
1OGA D V 22;1OGA D L 75;28.5179
1OGA D V 22;1OGA D Y 88;8.85539
1OGA D V 22;1OGA D T 105;21.4639
1OGA D V 22;1OGA D L 107;1.84553
1OGA D Y 23;1OGA D C 24;18.7981
1OGA D Y 23;1OGA D N 25;19.146
1OGA D Y 23;1OGA D W 35;5.71309
1OGA D Y 23;1OGA D S 73;4.15138
1OGA D Y 23;1OGA D S 74;10.8873
1OGA D Y 23;1OGA D T 105;0.656091
1OGA D C 24;1OGA D N 25;25.1356
1OGA D C 24;1OGA D L 33;8.05665
1OGA D C 24;1OGA D W 35;10.5029
1OGA D C 24;1OGA D K 71;0.00187062
1OGA D C 24;1OGA D D 72;7.01381
1OGA D C 24;1OGA D S 73;23.006
1OGA D C 24;1OGA D C 90;19.3298
1OGA D N 25;1OGA D S 26;26.1031
1OGA D N 25;1OGA D K 71;1.9725
1OGA D N 25;1OGA D D 72;25.5911
1OGA D N 25;1OGA D S 73;1.89339
1OGA D S 26;1OGA D S 27;29.5991
1OGA D S 26;1OGA D S 28;17.1307
1OGA D S 26;1OGA D F 30;8.72898
1OGA D S 26;1OGA D K 71;24.218
1OGA D S 26;1OGA D D 72;6.99846
1OGA D S 27;1OGA D S 28;26.6233
1OGA D S 27;1OGA D K 71;19.234
1OGA D S 28;1OGA D V 29;28.2056
1OGA D S 28;1OGA D F 30;15.215
1OGA D S 28;1OGA D R 70;0.493639
1OGA D S 28;1OGA D K 71;12.9801
1OGA D V 29;1OGA D F 30;29.7029
1OGA D V 29;1OGA D S 31;2.25348
1OGA D V 29;1OGA D A 69;11.9873
1OGA D V 29;1OGA D R 70;28.9201
1OGA D V 29;1OGA D K 71;20.4376
1OGA D F 30;1OGA D S 31;24.3206
1OGA D F 30;1OGA D S 32;9.28582
1OGA D F 30;1OGA D L 33;11.1128
1OGA D F 30;1OGA D F 66;11.945
1OGA D F 30;1OGA D R 70;21.9415
1OGA D F 30;1OGA D K 71;4.14488
1OGA D F 30;1OGA D G 92;12.7955
1OGA D F 30;1OGA D A 93;12.3182
1OGA D F 30;1OGA D I 100;11.047
1OGA D S 31;1OGA D S 32;26.5903
1OGA D S 31;1OGA D V 51;13.61
1OGA D S 31;1OGA D F 66;1.95355
1OGA D S 31;1OGA D R 70;12.1704
1OGA D S 31;1OGA D A 93;13.4197
1OGA D S 31;1OGA E R 98;1.25533
1OGA D S 32;1OGA D L 33;19.7899
1OGA D S 32;1OGA D Q 34;9.39525
1OGA D S 32;1OGA D T 49;4.35455
1OGA D S 32;1OGA D V 50;5.12011
1OGA D S 32;1OGA D V 51;9.41027
1OGA D S 32;1OGA D F 66;5.07856
1OGA D S 32;1OGA D G 92;3.97147
1OGA D S 32;1OGA D A 93;20.1976
1OGA D S 32;1OGA E R 98;4.34029
1OGA D S 32;1OGA E S 100;3.75388
1OGA D S 32;1OGA E Y 101;14.9515
1OGA D L 33;1OGA D Q 34;31.9186
1OGA D L 33;1OGA D W 35;10.8199
1OGA D L 33;1OGA D V 48;0.765199
1OGA D L 33;1OGA D T 49;7.07411
1OGA D L 33;1OGA D V 50;28.0961
1OGA D L 33;1OGA D F 66;17.2085
1OGA D L 33;1OGA D R 70;0.0306945
1OGA D L 33;1OGA D K 71;1.18365
1OGA D L 33;1OGA D D 72;5.06405
1OGA D L 33;1OGA D S 73;16.2584
1OGA D L 33;1OGA D C 90;5.49212
1OGA D L 33;1OGA D A 91;9.51673
1OGA D L 33;1OGA D G 92;6.6231
1OGA D Q 34;1OGA D W 35;21.4616
1OGA D Q 34;1OGA D Y 36;14.2296
1OGA D Q 34;1OGA D L 46;9.13639
1OGA D Q 34;1OGA D V 48;7.10121
1OGA D Q 34;1OGA D T 49;15.2301
1OGA D Q 34;1OGA D L 89;0.141684
1OGA D Q 34;1OGA D C 90;6.17942
1OGA D Q 34;1OGA D A 91;21.6188
1OGA D Q 34;1OGA D G 92;1.85329
1OGA D Q 34;1OGA D A 93;1.41524
1OGA D Q 34;1OGA D L 99;14.2479
1OGA D Q 34;1OGA E S 100;0.714339
1OGA D Q 34;1OGA E Y 101;5.32624
1OGA D Q 34;1OGA E E 102;17.3827
1OGA D W 35;1OGA D Y 36;22.4493
1OGA D W 35;1OGA D L 46;6.26651
1OGA D W 35;1OGA D L 47;17.7051
1OGA D W 35;1OGA D V 48;21.1452
1OGA D W 35;1OGA D V 50;2.38128
1OGA D W 35;1OGA D F 64;19.5789
1OGA D W 35;1OGA D S 73;15.2761
1OGA D W 35;1OGA D S 74;9.79889
1OGA D W 35;1OGA D L 75;16.7249
1OGA D W 35;1OGA D Y 88;11.7483
1OGA D W 35;1OGA D L 89;11.4086
1OGA D W 35;1OGA D C 90;16.0553
1OGA D Y 36;1OGA D R 37;18.4231
1OGA D Y 36;1OGA D Q 38;0.651311
1OGA D Y 36;1OGA D P 44;16.6301
1OGA D Y 36;1OGA D V 45;9.40436
1OGA D Y 36;1OGA D L 46;23.2282
1OGA D Y 36;1OGA D L 47;9.563
1OGA D Y 36;1OGA D L 87;1.3122
1OGA D Y 36;1OGA D Y 88;8.40432
1OGA D Y 36;1OGA D L 89;29.8334
1OGA D Y 36;1OGA D C 90;0.658249
1OGA D Y 36;1OGA D A 91;7.03118
1OGA D Y 36;1OGA D L 99;7.65113
1OGA D Y 36;1OGA D F 101;13.4144
1OGA D Y 36;1OGA E E 102;0.76961
1OGA D Y 36;1OGA E Q 103;19.7431
1OGA D Y 36;1OGA E Y 104;0.336909
1OGA D Y 36;1OGA E F 105;15.6362
1OGA D R 37;1OGA D Q 38;24.9871
1OGA D R 37;1OGA D E 39;16.3734
1OGA D R 37;1OGA D G 43;0.330693
1OGA D R 37;1OGA D P 44;3.52794
1OGA D R 37;1OGA D V 45;39.4821
1OGA D R 37;1OGA D L 47;27.1604
1OGA D R 37;1OGA D L 62;6.53725
1OGA D R 37;1OGA D G 83;7.10266
1OGA D R 37;1OGA D D 84;6.96136
1OGA D R 37;1OGA D T 85;1.91725
1OGA D R 37;1OGA D G 86;5.35625
1OGA D R 37;1OGA D L 87;7.03996
1OGA D R 37;1OGA D Y 88;26.9747
1OGA D Q 38;1OGA D E 39;37.6416
1OGA D Q 38;1OGA D P 40;4.47131
1OGA D Q 38;1OGA D G 41;2.59871
1OGA D Q 38;1OGA D E 42;10.8418
1OGA D Q 38;1OGA D G 43;3.86868
1OGA D Q 38;1OGA D P 44;22.7235
1OGA D Q 38;1OGA D V 45;0.069784
1OGA D Q 38;1OGA D G 86;4.98688
1OGA D Q 38;1OGA D L 87;37.7321
1OGA D Q 38;1OGA D L 89;9.11742
1OGA D Q 38;1OGA E Q 39;20.1439
1OGA D Q 38;1OGA E L 45;2.58917
1OGA D Q 38;1OGA E F 90;4.09851
1OGA D Q 38;1OGA E L 92;5.24668
1OGA D E 39;1OGA D P 40;38.623
1OGA D E 39;1OGA D G 41;1.52166
1OGA D E 39;1OGA D E 42;36.4918
1OGA D E 39;1OGA D G 43;1.44209
1OGA D E 39;1OGA D G 83;4.60344
1OGA D E 39;1OGA D T 85;17.3962
1OGA D E 39;1OGA D G 86;9.34898
1OGA D P 40;1OGA D G 41;28.0241
1OGA D P 40;1OGA D E 42;12.8114
1OGA D P 40;1OGA D G 86;2.15837
1OGA D P 40;1OGA E P 174;15.0556
1OGA D P 40;1OGA E Q 175;16.131
1OGA D G 41;1OGA D E 42;24.1629
1OGA D G 41;1OGA E K 11;7.44712
1OGA D G 41;1OGA E Q 39;1.39129
1OGA D G 41;1OGA E F 90;24.8723
1OGA D G 41;1OGA E P 107;4.34895
1OGA D G 41;1OGA E R 110;9.55377
1OGA D E 42;1OGA D G 43;28.8332
1OGA D E 42;1OGA D P 44;1.66308
1OGA D E 42;1OGA E F 90;9.65186
1OGA D E 42;1OGA E L 92;2.16372
1OGA D E 42;1OGA E P 107;6.06925
1OGA D G 43;1OGA D P 44;23.9962
1OGA D G 43;1OGA D V 45;12.0788
1OGA D G 43;1OGA E L 92;6.02194
1OGA D G 43;1OGA E F 105;4.27129
1OGA D G 43;1OGA E G 106;7.80207
1OGA D G 43;1OGA E P 107;11.9257
1OGA D P 44;1OGA D V 45;21.8852
1OGA D P 44;1OGA D L 46;2.32123
1OGA D P 44;1OGA D L 89;9.12623
1OGA D P 44;1OGA D F 101;0.287644
1OGA D P 44;1OGA E L 45;8.27154
1OGA D P 44;1OGA E L 92;10.9944
1OGA D P 44;1OGA E F 105;37.1584
1OGA D V 45;1OGA D L 46;30.8201
1OGA D V 45;1OGA D L 47;13.6669
1OGA D L 46;1OGA D L 47;26.776
1OGA D L 46;1OGA D V 48;13.9257
1OGA D L 46;1OGA D T 49;3.01541
1OGA D L 46;1OGA E E 102;18.0019
1OGA D L 46;1OGA E Q 103;8.01186
1OGA D L 46;1OGA E Y 104;27.8923
1OGA D L 47;1OGA D V 48;27.5438
1OGA D L 47;1OGA D L 59;9.81742
1OGA D L 47;1OGA D L 62;16.1127
1OGA D L 47;1OGA D F 64;15.818
1OGA D L 47;1OGA D L 75;2.39487
1OGA D L 47;1OGA D Y 88;11.6165
1OGA D V 48;1OGA D T 49;30.3759
1OGA D V 48;1OGA D V 50;9.73015
1OGA D V 48;1OGA D K 57;17.7017
1OGA D V 48;1OGA D L 59;10.925
1OGA D V 48;1OGA D F 64;21.4314
1OGA D T 49;1OGA D V 50;23.6787
1OGA D T 49;1OGA D V 51;11.0545
1OGA D T 49;1OGA D K 57;17.4331
1OGA D T 49;1OGA E Y 101;15.7866
1OGA D T 49;1OGA E E 102;18.7841
1OGA D V 50;1OGA D V 51;20.745
1OGA D V 50;1OGA D E 55;16.262
1OGA D V 50;1OGA D V 56;0.124338
1OGA D V 50;1OGA D K 57;12.9011
1OGA D V 50;1OGA D F 64;10.35
1OGA D V 50;1OGA D Q 65;3.67479
1OGA D V 50;1OGA D F 66;24.7816
1OGA D V 50;1OGA D S 73;5.4517
1OGA D V 51;1OGA D T 52;29.3057
1OGA D V 51;1OGA D G 53;0.935965
1OGA D V 51;1OGA D E 55;10.1732
1OGA D V 51;1OGA D K 57;0.0640563
1OGA D V 51;1OGA D F 66;12.4261
1OGA D V 51;1OGA D R 70;10.5881
1OGA D V 51;1OGA E Y 101;2.54237
1OGA D T 52;1OGA D G 53;34.0373
1OGA D T 52;1OGA D G 54;1.03225
1OGA D T 52;1OGA D E 55;33.7413
1OGA D T 52;1OGA D F 66;9.21119
1OGA D T 52;1OGA D R 70;0.167277
1OGA D G 53;1OGA D G 54;18.6451
1OGA D G 53;1OGA D E 55;3.16361
1OGA D G 53;1OGA D F 66;2.64262
1OGA D G 53;1OGA D G 67;4.69678
1OGA D G 53;1OGA D D 68;16.6701
1OGA D G 53;1OGA D R 70;15.5307
1OGA D G 54;1OGA D E 55;22.5693
1OGA D G 54;1OGA D V 56;9.49168
1OGA D G 54;1OGA D Q 65;12.8487
1OGA D G 54;1OGA D F 66;9.17383
1OGA D G 54;1OGA D G 67;2.7144
1OGA D G 54;1OGA D D 68;18.3345
1OGA D E 55;1OGA D V 56;28.1091
1OGA D E 55;1OGA D K 57;21.4575
1OGA D E 55;1OGA D F 64;0.622341
1OGA D E 55;1OGA D Q 65;7.14957
1OGA D E 55;1OGA D F 66;15.417
1OGA D V 56;1OGA D K 57;31.4226
1OGA D V 56;1OGA D K 58;19.7019
1OGA D V 56;1OGA D T 63;12.8428
1OGA D V 56;1OGA D F 64;8.24676
1OGA D V 56;1OGA D Q 65;17.9386
1OGA D K 57;1OGA D K 58;23.28
1OGA D K 57;1OGA D L 59;15.3461
1OGA D K 57;1OGA D L 62;0.797055
1OGA D K 57;1OGA D T 63;4.55402
1OGA D K 57;1OGA D F 64;22.7435
1OGA D K 58;1OGA D L 59;29.8179
1OGA D K 58;1OGA D K 60;11.3748
1OGA D K 58;1OGA D L 62;5.42236
1OGA D K 58;1OGA D T 63;25.9516
1OGA D L 59;1OGA D K 60;31.5855
1OGA D L 59;1OGA D R 61;1.28209
1OGA D L 59;1OGA D L 62;26.6193
1OGA D L 59;1OGA D F 64;15.4607
1OGA D K 60;1OGA D R 61;33.66
1OGA D K 60;1OGA D L 62;7.12447
1OGA D K 60;1OGA D T 63;1.01552
1OGA D R 61;1OGA D L 62;32.0896
1OGA D R 61;1OGA D T 63;4.35443
1OGA D R 61;1OGA D H 76;3.17954
1OGA D R 61;1OGA D I 77;13.4571
1OGA D R 61;1OGA D T 78;34.5873
1OGA D R 61;1OGA D A 79;14.2316
1OGA D R 61;1OGA D A 80;2.02505
1OGA D R 61;1OGA D Q 81;34.7521
1OGA D R 61;1OGA D G 83;0.0303551
1OGA D R 61;1OGA D D 84;19.5619
1OGA D L 62;1OGA D T 63;19.9105
1OGA D L 62;1OGA D F 64;18.4233
1OGA D L 62;1OGA D L 75;12.0445
1OGA D L 62;1OGA D H 76;3.66399
1OGA D L 62;1OGA D I 77;20.0599
1OGA D L 62;1OGA D D 84;7.22849
1OGA D L 62;1OGA D Y 88;6.86506
1OGA D T 63;1OGA D F 64;24.9722
1OGA D T 63;1OGA D Q 65;3.81089
1OGA D T 63;1OGA D S 74;2.80416
1OGA D T 63;1OGA D L 75;9.62356
1OGA D T 63;1OGA D H 76;32.4177
1OGA D T 63;1OGA D T 78;2.74087
1OGA D F 64;1OGA D Q 65;23.1144
1OGA D F 64;1OGA D S 73;1.72308
1OGA D F 64;1OGA D S 74;7.83093
1OGA D F 64;1OGA D L 75;20.1021
1OGA D Q 65;1OGA D F 66;26.3636
1OGA D Q 65;1OGA D G 67;13.374
1OGA D Q 65;1OGA D D 68;4.67602
1OGA D Q 65;1OGA D S 73;14.3424
1OGA D Q 65;1OGA D S 74;28.2506
1OGA D F 66;1OGA D G 67;22.3042
1OGA D F 66;1OGA D D 68;0.0905959
1OGA D F 66;1OGA D R 70;25.7437
1OGA D F 66;1OGA D K 71;0.0527481
1OGA D F 66;1OGA D D 72;10.5384
1OGA D F 66;1OGA D S 73;6.61305
1OGA D G 67;1OGA D D 68;20.4351
1OGA D G 67;1OGA D A 69;3.79323
1OGA D G 67;1OGA D R 70;12.0678
1OGA D G 67;1OGA D K 71;1.26463
1OGA D G 67;1OGA D D 72;20.0222
1OGA D G 67;1OGA D S 73;1.16216
1OGA D D 68;1OGA D A 69;28.2955
1OGA D D 68;1OGA D R 70;7.68006
1OGA D A 69;1OGA D R 70;22.9365
1OGA D A 69;1OGA D K 71;27.0178
1OGA D A 69;1OGA D D 72;2.569
1OGA D R 70;1OGA D K 71;20.7173
1OGA D R 70;1OGA D D 72;1.9266
1OGA D K 71;1OGA D D 72;37.7384
1OGA D D 72;1OGA D S 73;24.1859
1OGA D S 73;1OGA D S 74;26.2222
1OGA D S 73;1OGA D C 90;2.38531e-05
1OGA D S 74;1OGA D L 75;19.8637
1OGA D S 74;1OGA D H 76;3.1269
1OGA D L 75;1OGA D H 76;25.5063
1OGA D L 75;1OGA D I 77;14.8404
1OGA D L 75;1OGA D Y 88;15.0528
1OGA D H 76;1OGA D I 77;25.5451
1OGA D H 76;1OGA D T 78;14.8634
1OGA D I 77;1OGA D T 78;22.0559
1OGA D I 77;1OGA D A 79;0.156161
1OGA D I 77;1OGA D A 80;8.6373
1OGA D I 77;1OGA D D 84;14.5894
1OGA D I 77;1OGA D Y 88;12.9725
1OGA D I 77;1OGA D L 107;6.66145
1OGA D T 78;1OGA D A 79;30.3851
1OGA D T 78;1OGA D A 80;1.6147
1OGA D A 79;1OGA D A 80;18.9251
1OGA D A 79;1OGA D Q 81;9.24088
1OGA D A 80;1OGA D Q 81;18.3748
1OGA D A 80;1OGA D D 84;6.44151
1OGA D A 80;1OGA D L 107;0.136393
1OGA D A 80;1OGA D V 109;13.9053
1OGA D Q 81;1OGA D P 82;24.3831
1OGA D Q 81;1OGA D G 83;10.0287
1OGA D Q 81;1OGA D D 84;17.9838
1OGA D Q 81;1OGA D T 85;0.461883
1OGA D Q 81;1OGA D V 109;9.98565
1OGA D P 82;1OGA D G 83;25.3581
1OGA D P 82;1OGA D D 84;1.88447
1OGA D P 82;1OGA D T 85;17.3061
1OGA D P 82;1OGA D V 109;19.5007
1OGA D P 82;1OGA D K 110;0.888165
1OGA D P 82;1OGA D P 111;12.6965
1OGA D P 82;1OGA D V 160;0.862467
1OGA D P 82;1OGA D K 169;15.6943
1OGA D G 83;1OGA D D 84;21.8812
1OGA D G 83;1OGA D T 85;7.93504
1OGA D D 84;1OGA D T 85;19.4971
1OGA D D 84;1OGA D G 86;2.12371
1OGA D D 84;1OGA D Y 88;18.4617
1OGA D D 84;1OGA D L 107;11.3508
1OGA D D 84;1OGA D V 109;5.37064
1OGA D T 85;1OGA D G 86;21.3374
1OGA D T 85;1OGA D L 107;13.316
1OGA D T 85;1OGA D S 108;11.5509
1OGA D T 85;1OGA D V 109;21.2416
1OGA D G 86;1OGA D L 87;20.3872
1OGA D G 86;1OGA D Y 88;10.206
1OGA D G 86;1OGA D T 105;1.30853
1OGA D G 86;1OGA D K 106;6.70656
1OGA D G 86;1OGA D L 107;16.6667
1OGA D L 87;1OGA D Y 88;21.171
1OGA D L 87;1OGA D L 89;21.4826
1OGA D L 87;1OGA D K 103;6.25969
1OGA D L 87;1OGA D G 104;8.58485
1OGA D L 87;1OGA D T 105;8.20465
1OGA D L 87;1OGA D K 106;20.5403
1OGA D L 87;1OGA E Q 39;6.59188
1OGA D L 87;1OGA E Q 43;9.40259
1OGA D L 87;1OGA E G 44;5.51523
1OGA D Y 88;1OGA D L 89;18.0656
1OGA D Y 88;1OGA D G 104;4.67132
1OGA D Y 88;1OGA D T 105;23.5944
1OGA D Y 88;1OGA D L 107;17.6006
1OGA D L 89;1OGA D C 90;20.0628
1OGA D L 89;1OGA D F 101;17.7411
1OGA D L 89;1OGA D G 102;9.29575
1OGA D L 89;1OGA D K 103;5.21338
1OGA D L 89;1OGA D G 104;8.4884
1OGA D L 89;1OGA E Q 39;0.504996
1OGA D L 89;1OGA E G 44;6.50108
1OGA D L 89;1OGA E L 45;17.7888
1OGA D C 90;1OGA D A 91;18.9242
1OGA D C 90;1OGA D F 101;7.0431
1OGA D C 90;1OGA D G 102;12.3421
1OGA D A 91;1OGA D G 92;16.1041
1OGA D A 91;1OGA D L 99;12.0326
1OGA D A 91;1OGA D I 100;6.23354
1OGA D A 91;1OGA D F 101;15.7111
1OGA D G 92;1OGA D A 93;16.4313
1OGA D G 92;1OGA D G 94;2.32014
1OGA D G 92;1OGA D L 99;10.375
1OGA D G 92;1OGA D I 100;15.7094
1OGA D A 93;1OGA D G 94;18.2066
1OGA D A 93;1OGA D S 95;1.2669
1OGA D A 93;1OGA D N 98;0.458914
1OGA D A 93;1OGA D L 99;5.59084
1OGA D A 93;1OGA D I 100;1.16286
1OGA D A 93;1OGA E R 98;0.699201
1OGA D A 93;1OGA E S 100;14.5065
1OGA D G 94;1OGA D S 95;17.7789
1OGA D G 94;1OGA D Q 96;3.70423
1OGA D G 94;1OGA D G 97;4.42143
1OGA D G 94;1OGA D N 98;18.0734
1OGA D G 94;1OGA D L 99;1.38859
1OGA D G 94;1OGA D I 100;9.81345
1OGA D G 94;1OGA E S 100;8.81124
1OGA D S 95;1OGA D Q 96;39.7063
1OGA D S 95;1OGA D G 97;2.08105
1OGA D S 95;1OGA D I 100;0.00778141
1OGA D Q 96;1OGA D G 97;16.3419
1OGA D Q 96;1OGA D N 98;10.8377
1OGA D Q 96;1OGA E Y 50;18.5267
1OGA D Q 96;1OGA E Q 52;4.30154
1OGA D Q 96;1OGA E Q 58;8.09028
1OGA D G 97;1OGA D N 98;17.0696
1OGA D G 97;1OGA E Y 35;7.26045
1OGA D G 97;1OGA E Y 50;8.50541
1OGA D G 97;1OGA E Q 52;9.8075
1OGA D G 97;1OGA E S 99;9.13359
1OGA D G 97;1OGA E S 100;9.37164
1OGA D N 98;1OGA D L 99;33.1289
1OGA D N 98;1OGA D I 100;13.0251
1OGA D N 98;1OGA E Y 35;14.0455
1OGA D N 98;1OGA E Y 37;0.56874
1OGA D N 98;1OGA E L 47;18.5444
1OGA D N 98;1OGA E Y 50;18.0129
1OGA D N 98;1OGA E S 100;12.9107
1OGA D N 98;1OGA E Q 103;1.13554
1OGA D L 99;1OGA D I 100;22.2564
1OGA D L 99;1OGA D F 101;23.886
1OGA D L 99;1OGA E Y 35;0.184103
1OGA D L 99;1OGA E Y 37;7.22248
1OGA D L 99;1OGA E L 47;3.92048
1OGA D L 99;1OGA E S 100;11.5277
1OGA D L 99;1OGA E Y 101;9.69027
1OGA D L 99;1OGA E E 102;1.9008
1OGA D L 99;1OGA E Q 103;26.7595
1OGA D I 100;1OGA D F 101;27.6694
1OGA D F 101;1OGA D G 102;29.6681
1OGA D F 101;1OGA D K 103;10.4771
1OGA D F 101;1OGA E Y 37;17.361
1OGA D F 101;1OGA E L 45;27.1254
1OGA D F 101;1OGA E Q 103;2.35525
1OGA D F 101;1OGA E F 105;11.6425
1OGA D G 102;1OGA D K 103;24.5748
1OGA D G 102;1OGA D G 104;1.83326
1OGA D G 102;1OGA E G 44;0.509243
1OGA D G 102;1OGA E L 45;1.66967
1OGA D K 103;1OGA D G 104;26.8758
1OGA D K 103;1OGA E Q 43;0.188078
1OGA D K 103;1OGA E G 44;17.5631
1OGA D K 103;1OGA E L 45;1.67184
1OGA D G 104;1OGA D T 105;17.8344
1OGA D G 104;1OGA D K 106;0.323127
1OGA D T 105;1OGA D K 106;19.8306
1OGA D T 105;1OGA D L 107;8.82595
1OGA D K 106;1OGA D L 107;22.6196
1OGA D K 106;1OGA D S 108;16.081
1OGA D K 106;1OGA E G 42;5.70504
1OGA D L 107;1OGA D S 108;25.2733
1OGA D L 107;1OGA D V 109;12.3473
1OGA D S 108;1OGA D V 109;20.9728
1OGA D S 108;1OGA D K 110;12.686
1OGA D V 109;1OGA D K 110;23.8665
1OGA D V 109;1OGA D P 111;5.77863
1OGA D V 109;1OGA D V 160;1.04367
1OGA D K 110;1OGA D P 111;28.3163
1OGA D K 110;1OGA D N 112;0.553502
1OGA D K 110;1OGA D S 141;22.1837
1OGA D K 110;1OGA D N 144;12.2097
1OGA D K 110;1OGA D K 158;22.6482
1OGA D P 111;1OGA D N 112;20.0732
1OGA D P 111;1OGA D I 113;15.5187
1OGA D P 111;1OGA D S 141;17.2714
1OGA D P 111;1OGA D V 160;30.1206
1OGA D P 111;1OGA D K 169;14.2897
1OGA D P 111;1OGA D N 171;5.83067
1OGA D N 112;1OGA D I 113;25.8538
1OGA D N 112;1OGA D Q 114;17.4353
1OGA D N 112;1OGA D K 169;6.59108
1OGA D I 113;1OGA D Q 114;24.4332
1OGA D I 113;1OGA D N 115;9.10897
1OGA D I 113;1OGA D P 116;23.5323
1OGA D I 113;1OGA D D 138;7.20268
1OGA D I 113;1OGA D F 139;7.7142
1OGA D I 113;1OGA D D 140;13.5924
1OGA D I 113;1OGA D S 141;9.71937
1OGA D I 113;1OGA D V 160;1.17227
1OGA D I 113;1OGA D F 168;1.12115
1OGA D I 113;1OGA D K 169;18.8276
1OGA D I 113;1OGA D S 170;8.18619
1OGA D I 113;1OGA D N 171;13.0104
1OGA D Q 114;1OGA D N 115;42.6607
1OGA D Q 114;1OGA D P 116;10.2903
1OGA D N 115;1OGA D P 116;27.1741
1OGA D N 115;1OGA D D 117;9.69554
1OGA D N 115;1OGA D D 138;1.09562
1OGA D N 115;1OGA D F 168;9.48898
1OGA D P 116;1OGA D D 117;21.5934
1OGA D P 116;1OGA D P 118;13.9787
1OGA D P 116;1OGA D D 138;5.49855
1OGA D P 116;1OGA D F 139;0.926758
1OGA D P 116;1OGA D D 140;21.1797
1OGA D D 117;1OGA D P 118;27.6657
1OGA D D 117;1OGA D A 119;8.90746
1OGA D D 117;1OGA D Y 121;0.68617
1OGA D D 117;1OGA D T 137;1.21684
1OGA D D 117;1OGA D D 138;26.4115
1OGA D D 117;1OGA D F 198;3.69375
1OGA D D 117;1OGA E H 137;28.2934
1OGA D D 117;1OGA E T 138;9.60805
1OGA D P 118;1OGA D A 119;15.3911
1OGA D P 118;1OGA D F 136;5.98536
1OGA D P 118;1OGA D T 137;4.31473
1OGA D P 118;1OGA D D 138;4.83095
1OGA D P 118;1OGA D F 139;13.8878
1OGA D P 118;1OGA D D 140;0.592865
1OGA D P 118;1OGA D P 194;17.8534
1OGA D P 118;1OGA D D 196;18.4997
1OGA D P 118;1OGA D T 197;15.3951
1OGA D P 118;1OGA D F 198;8.80347
1OGA D A 119;1OGA D V 120;18.3661
1OGA D A 119;1OGA D Y 121;19.5803
1OGA D A 119;1OGA D L 135;1.99763
1OGA D A 119;1OGA D F 136;9.54087
1OGA D A 119;1OGA D T 137;17.3089
1OGA D A 119;1OGA D D 138;0.364216
1OGA D A 119;1OGA D T 197;6.71164
1OGA D A 119;1OGA D F 198;17.357
1OGA D A 119;1OGA D P 200;0.635426
1OGA D A 119;1OGA E H 137;1.90823
1OGA D V 120;1OGA D Y 121;25.3009
1OGA D V 120;1OGA D Q 122;0.422811
1OGA D V 120;1OGA D C 134;5.26037
1OGA D V 120;1OGA D L 135;8.27849
1OGA D V 120;1OGA D F 136;15.5214
1OGA D V 120;1OGA D C 184;18.3787
1OGA D V 120;1OGA D A 187;1.31464
1OGA D V 120;1OGA D F 188;15.6294
1OGA D V 120;1OGA D I 193;3.38593
1OGA D V 120;1OGA D T 197;8.56678
1OGA D V 120;1OGA D F 198;6.91252
1OGA D V 120;1OGA D F 199;25.5301
1OGA D V 120;1OGA D P 200;13.4295
1OGA D Y 121;1OGA D Q 122;22.4006
1OGA D Y 121;1OGA D L 123;11.8596
1OGA D Y 121;1OGA D V 133;0.643389
1OGA D Y 121;1OGA D C 134;4.21119
1OGA D Y 121;1OGA D L 135;25.8177
1OGA D Y 121;1OGA D T 137;14.6656
1OGA D Y 121;1OGA D D 138;2.43114
1OGA D Y 121;1OGA D C 184;4.6249
1OGA D Y 121;1OGA D F 198;8.67098
1OGA D Y 121;1OGA D P 200;14.1887
1OGA D Y 121;1OGA E S 131;11.9587
1OGA D Y 121;1OGA E A 133;8.23593
1OGA D Y 121;1OGA E E 134;28.0798
1OGA D Y 121;1OGA E H 137;12.213
1OGA D Y 121;1OGA E T 138;8.82164
1OGA D Y 121;1OGA E R 195;0.610639
1OGA D Q 122;1OGA D L 123;25.1391
1OGA D Q 122;1OGA D R 124;4.01902
1OGA D Q 122;1OGA D S 132;22.3878
1OGA D Q 122;1OGA D V 133;5.62196
1OGA D Q 122;1OGA D C 134;0.398966
1OGA D Q 122;1OGA D A 183;2.38895
1OGA D Q 122;1OGA D C 184;26.2174
1OGA D Q 122;1OGA D P 200;1.93749
1OGA D Q 122;1OGA E S 131;16.5883
1OGA D Q 122;1OGA E E 132;0.705122
1OGA D L 123;1OGA D R 124;20.672
1OGA D L 123;1OGA D S 132;8.59263
1OGA D L 123;1OGA D V 133;23.3641
1OGA D L 123;1OGA D L 135;18.6725
1OGA D L 123;1OGA E F 128;17.9579
1OGA D L 123;1OGA E E 129;12.3038
1OGA D L 123;1OGA E P 130;3.78936
1OGA D L 123;1OGA E S 131;10.5467
1OGA D L 123;1OGA E E 134;2.5532
1OGA D L 123;1OGA E T 142;10.5015
1OGA D L 123;1OGA E L 143;0.600598
1OGA D L 123;1OGA E V 144;13.1076
1OGA D R 124;1OGA D D 125;28.2881
1OGA D R 124;1OGA D S 126;4.11334
1OGA D R 124;1OGA D S 128;2.51277
1OGA D R 124;1OGA D D 130;7.4448
1OGA D R 124;1OGA D K 131;2.48095
1OGA D R 124;1OGA D S 132;9.16906
1OGA D R 124;1OGA E F 128;7.14263
1OGA D R 124;1OGA E E 129;41.9577
1OGA D R 124;1OGA E P 130;8.31378
1OGA D R 124;1OGA E S 131;3.82637
1OGA D R 124;1OGA E E 132;3.21556
1OGA D R 124;1OGA E W 201;0.710727
1OGA D R 124;1OGA E R 242;15.653
1OGA D D 125;1OGA D S 126;23.4486
1OGA D D 125;1OGA D K 127;15.0307
1OGA D D 125;1OGA D S 128;30.8059
1OGA D D 125;1OGA D D 130;1.54117
1OGA D D 125;1OGA D K 131;26.3392
1OGA D D 125;1OGA D S 132;0.371795
1OGA D D 125;1OGA E A 126;13.4258
1OGA D D 125;1OGA E V 127;7.34966
1OGA D D 125;1OGA E F 128;16.6564
1OGA D S 126;1OGA D K 127;30.9253
1OGA D S 126;1OGA D S 128;1.40517
1OGA D S 126;1OGA E V 127;20.4638
1OGA D S 126;1OGA E F 128;0.321839
1OGA D S 126;1OGA E E 129;23.0236
1OGA D S 126;1OGA E A 237;1.96354
1OGA D S 126;1OGA E E 238;14.3024
1OGA D S 126;1OGA E A 239;8.57558
1OGA D S 126;1OGA E R 242;3.14303
1OGA D K 127;1OGA D S 128;30.7682
1OGA D K 127;1OGA E A 237;0.936774
1OGA D K 127;1OGA E E 238;0.460025
1OGA D S 128;1OGA D S 129;38.6804
1OGA D S 128;1OGA D D 130;6.86199
1OGA D S 128;1OGA D K 131;17.085
1OGA D S 129;1OGA D D 130;38.5205
1OGA D S 129;1OGA D K 131;4.48909
1OGA D D 130;1OGA D K 131;39.6283
1OGA D D 130;1OGA D S 132;3.2666
1OGA D K 131;1OGA D S 132;29.9708
1OGA D K 131;1OGA E A 126;11.0497
1OGA D K 131;1OGA E F 128;16.5618
1OGA D S 132;1OGA D V 133;25.8291
1OGA D S 132;1OGA D C 134;1.44745
1OGA D S 132;1OGA D W 176;9.25673
1OGA D S 132;1OGA D S 177;2.08494
1OGA D S 132;1OGA D F 182;2.19489
1OGA D S 132;1OGA D C 184;0.54693
1OGA D S 132;1OGA E F 128;10.9261
1OGA D V 133;1OGA D C 134;24.4893
1OGA D V 133;1OGA D L 135;2.4369
1OGA D V 133;1OGA D V 174;13.0045
1OGA D V 133;1OGA D A 175;4.45954
1OGA D V 133;1OGA D W 176;12.0532
1OGA D V 133;1OGA D F 182;0.903918
1OGA D V 133;1OGA D C 184;1.40876
1OGA D V 133;1OGA E F 128;22.3563
1OGA D V 133;1OGA E V 144;11.4788
1OGA D V 133;1OGA E L 146;11.863
1OGA D C 134;1OGA D L 135;20.0649
1OGA D C 134;1OGA D F 136;0.629049
1OGA D C 134;1OGA D A 173;0.55387
1OGA D C 134;1OGA D V 174;8.85966
1OGA D C 134;1OGA D A 175;19.8449
1OGA D C 134;1OGA D F 182;15.2116
1OGA D C 134;1OGA D A 183;0.183416
1OGA D C 134;1OGA D C 184;26.1664
1OGA D C 134;1OGA D A 187;7.26792
1OGA D C 134;1OGA D F 188;8.88009
1OGA D L 135;1OGA D F 136;19.6427
1OGA D L 135;1OGA D T 137;19.374
1OGA D L 135;1OGA D S 172;9.09241
1OGA D L 135;1OGA D A 173;6.99977
1OGA D L 135;1OGA D V 174;10.589
1OGA D L 135;1OGA D F 188;0.106485
1OGA D L 135;1OGA E E 134;5.43393
1OGA D L 135;1OGA E T 142;18.6692
1OGA D L 135;1OGA E V 144;8.91498
1OGA D L 135;1OGA E R 193;7.63019
1OGA D F 136;1OGA D T 137;18.4348
1OGA D F 136;1OGA D F 139;29.4623
1OGA D F 136;1OGA D T 143;9.58559
1OGA D F 136;1OGA D N 144;0.0628281
1OGA D F 136;1OGA D V 145;11.4105
1OGA D F 136;1OGA D S 172;5.11111
1OGA D F 136;1OGA D A 173;18.5102
1OGA D F 136;1OGA D F 188;25.8487
1OGA D F 136;1OGA D I 193;22.6514
1OGA D F 136;1OGA D P 194;6.30359
1OGA D F 136;1OGA D T 197;6.08866
1OGA D T 137;1OGA D D 138;30.5039
1OGA D T 137;1OGA D F 139;10.1319
1OGA D T 137;1OGA D S 170;3.9285
1OGA D T 137;1OGA D N 171;5.97796
1OGA D T 137;1OGA D S 172;12.2082
1OGA D T 137;1OGA E E 134;2.31692
1OGA D T 137;1OGA E T 142;2.16714
1OGA D T 137;1OGA E R 195;10.4544
1OGA D D 138;1OGA D F 139;21.3144
1OGA D D 138;1OGA D F 168;10.458
1OGA D D 138;1OGA D S 170;12.584
1OGA D D 138;1OGA D N 171;8.98356
1OGA D D 138;1OGA E T 138;11.6287
1OGA D D 138;1OGA E R 195;15.1614
1OGA D F 139;1OGA D D 140;28.3151
1OGA D F 139;1OGA D S 141;0.1409
1OGA D F 139;1OGA D T 143;19.7836
1OGA D F 139;1OGA D V 145;8.74581
1OGA D F 139;1OGA D K 158;14.743
1OGA D F 139;1OGA D N 171;29.526
1OGA D F 139;1OGA D S 172;8.38004
1OGA D F 139;1OGA D A 173;4.05176
1OGA D F 139;1OGA D P 194;6.44749
1OGA D D 140;1OGA D S 141;18.4855
1OGA D D 140;1OGA D Q 142;34.2979
1OGA D D 140;1OGA D T 143;19.5394
1OGA D D 140;1OGA D K 158;0.012718
1OGA D D 140;1OGA D N 171;2.78172
1OGA D D 140;1OGA D P 194;3.8911
1OGA D S 141;1OGA D Q 142;29.7762
1OGA D S 141;1OGA D T 143;5.34251
1OGA D S 141;1OGA D N 144;0.925647
1OGA D S 141;1OGA D K 158;12.7428
1OGA D S 141;1OGA D N 171;13.5988
1OGA D Q 142;1OGA D T 143;22.6457
1OGA D Q 142;1OGA D N 144;12.1324
1OGA D T 143;1OGA D N 144;33.0717
1OGA D T 143;1OGA D V 145;2.65498
1OGA D T 143;1OGA D K 158;11.2831
1OGA D T 143;1OGA D I 192;12.6672
1OGA D T 143;1OGA D I 193;3.89132
1OGA D T 143;1OGA D P 194;17.8989
1OGA D N 144;1OGA D V 145;29.1322
1OGA D N 144;1OGA D S 146;7.02331
1OGA D N 144;1OGA D K 158;11.6697
1OGA D N 144;1OGA D S 191;5.52863
1OGA D N 144;1OGA D I 192;11.9474
1OGA D N 144;1OGA D I 193;1.23643
1OGA D V 145;1OGA D S 146;32.3753
1OGA D V 145;1OGA D Q 147;0.125963
1OGA D V 145;1OGA D I 155;9.15508
1OGA D V 145;1OGA D T 156;6.9008
1OGA D V 145;1OGA D D 157;12.0016
1OGA D V 145;1OGA D K 158;18.7946
1OGA D V 145;1OGA D A 173;13.0248
1OGA D V 145;1OGA D F 188;11.3389
1OGA D V 145;1OGA D S 191;8.53506
1OGA D V 145;1OGA D I 193;0.486175
1OGA D S 146;1OGA D Q 147;33.7714
1OGA D S 146;1OGA D I 155;11.2908
1OGA D S 146;1OGA D F 188;0.000830429
1OGA D S 146;1OGA D N 190;18.5346
1OGA D S 146;1OGA D S 191;22.451
1OGA D S 146;1OGA D I 192;2.8252
1OGA D Q 147;1OGA D S 148;32.3527
1OGA D Q 147;1OGA D I 155;10.5866
1OGA D Q 147;1OGA D N 190;18.9888
1OGA D Q 147;1OGA D S 191;1.01744
1OGA D S 148;1OGA D K 149;32.3091
1OGA D S 148;1OGA D D 150;9.80785
1OGA D S 148;1OGA D S 151;1.67497
1OGA D S 148;1OGA D V 153;23.1633
1OGA D S 148;1OGA D I 155;20.858
1OGA D S 148;1OGA D N 190;5.28845
1OGA D K 149;1OGA D D 150;43.9587
1OGA D K 149;1OGA D S 151;4.43507
1OGA D K 149;1OGA D V 153;1.00168
1OGA D K 149;1OGA D N 190;18.2801
1OGA D D 150;1OGA D S 151;23.8505
1OGA D D 150;1OGA D D 152;20.9951
1OGA D D 150;1OGA D V 153;27.8001
1OGA D D 150;1OGA D K 179;2.39248
1OGA D D 150;1OGA D D 181;4.89088
1OGA D S 151;1OGA D D 152;25.3581
1OGA D S 151;1OGA D V 153;5.95956
1OGA D S 151;1OGA D Y 154;14.0333
1OGA D S 151;1OGA E E 179;3.13089
1OGA D S 151;1OGA E Q 180;9.48782
1OGA D S 151;1OGA E P 181;8.57629
1OGA D D 152;1OGA D V 153;23.6002
1OGA D D 152;1OGA D Y 154;14.8742
1OGA D D 152;1OGA D W 176;0.0753156
1OGA D D 152;1OGA D S 177;11.2634
1OGA D D 152;1OGA D N 178;12.7166
1OGA D D 152;1OGA D K 179;27.3696
1OGA D V 153;1OGA D Y 154;28.1473
1OGA D V 153;1OGA D I 155;11.4646
1OGA D V 153;1OGA D A 175;1.69
1OGA D V 153;1OGA D W 176;3.38316
1OGA D V 153;1OGA D S 177;11.3124
1OGA D V 153;1OGA D K 179;2.17879
1OGA D V 153;1OGA D F 182;21.3473
1OGA D V 153;1OGA D A 187;5.23895
1OGA D Y 154;1OGA D I 155;23.4261
1OGA D Y 154;1OGA D V 174;0.204556
1OGA D Y 154;1OGA D A 175;6.00506
1OGA D Y 154;1OGA D W 176;51.1138
1OGA D Y 154;1OGA D S 177;2.37521
1OGA D Y 154;1OGA D N 178;5.63682
1OGA D Y 154;1OGA E L 177;17.2882
1OGA D Y 154;1OGA E K 178;6.52621
1OGA D Y 154;1OGA E E 179;33.7614
1OGA D Y 154;1OGA E Q 180;4.01783
1OGA D Y 154;1OGA E S 189;4.60128
1OGA D I 155;1OGA D T 156;27.8846
1OGA D I 155;1OGA D D 157;0.870629
1OGA D I 155;1OGA D A 173;1.55512
1OGA D I 155;1OGA D V 174;7.49449
1OGA D I 155;1OGA D A 175;12.737
1OGA D I 155;1OGA D W 176;0.85731
1OGA D I 155;1OGA D A 187;11.738
1OGA D I 155;1OGA D F 188;17.2621
1OGA D I 155;1OGA D N 190;1.94374
1OGA D I 155;1OGA D S 191;1.56584
1OGA D I 155;1OGA E L 177;19.3805
1OGA D T 156;1OGA D D 157;35.5157
1OGA D T 156;1OGA D A 173;9.88579
1OGA D T 156;1OGA D V 174;21.5155
1OGA D T 156;1OGA D W 176;12.1618
1OGA D T 156;1OGA E D 173;17.8578
1OGA D T 156;1OGA E L 177;17.269
1OGA D T 156;1OGA E L 190;0.0102083
1OGA D T 156;1OGA E S 191;10.0998
1OGA D T 156;1OGA E R 193;3.71163
1OGA D D 157;1OGA D K 158;30.1447
1OGA D D 157;1OGA D T 159;9.52934
1OGA D D 157;1OGA D S 172;1.1034
1OGA D D 157;1OGA D A 173;4.39616
1OGA D D 157;1OGA E D 173;2.40971
1OGA D D 157;1OGA E P 174;4.07989
1OGA D D 157;1OGA E Q 175;3.99341
1OGA D D 157;1OGA E L 177;7.94652
1OGA D D 157;1OGA E R 193;2.01658
1OGA D K 158;1OGA D T 159;29.9932
1OGA D K 158;1OGA D V 160;1.26955
1OGA D K 158;1OGA D N 171;13.4644
1OGA D K 158;1OGA D S 172;7.19978
1OGA D K 158;1OGA D A 173;5.54842
1OGA D K 158;1OGA E P 174;0.132407
1OGA D T 159;1OGA D V 160;28.6435
1OGA D T 159;1OGA D L 161;1.15492
1OGA D T 159;1OGA D S 170;1.66495
1OGA D T 159;1OGA D N 171;7.45107
1OGA D T 159;1OGA D S 172;19.9768
1OGA D T 159;1OGA E S 171;16.5331
1OGA D T 159;1OGA E T 172;4.38412
1OGA D T 159;1OGA E D 173;9.38839
1OGA D T 159;1OGA E P 174;18.0965
1OGA D T 159;1OGA E R 193;15.5798
1OGA D V 160;1OGA D L 161;27.2756
1OGA D V 160;1OGA D D 162;1.79629
1OGA D V 160;1OGA D K 169;8.96522
1OGA D V 160;1OGA D S 170;10.4592
1OGA D V 160;1OGA D N 171;15.7573
1OGA D V 160;1OGA E V 170;1.02279
1OGA D V 160;1OGA E S 171;14.3084
1OGA D L 161;1OGA D D 162;29.8419
1OGA D L 161;1OGA D M 163;11.1192
1OGA D L 161;1OGA D F 168;1.40417
1OGA D L 161;1OGA D K 169;6.74475
1OGA D L 161;1OGA D S 170;28.54
1OGA D L 161;1OGA D S 172;5.53602
1OGA D L 161;1OGA E T 142;2.66871
1OGA D L 161;1OGA E G 169;14.5521
1OGA D L 161;1OGA E V 170;7.72531
1OGA D L 161;1OGA E S 171;16.2714
1OGA D L 161;1OGA E R 193;14.983
1OGA D L 161;1OGA E L 194;1.26957
1OGA D L 161;1OGA E R 195;20.6254
1OGA D D 162;1OGA D M 163;18.8756
1OGA D D 162;1OGA D R 164;39.6024
1OGA D D 162;1OGA D D 167;1.01994
1OGA D D 162;1OGA D F 168;8.16248
1OGA D D 162;1OGA D K 169;28.5478
1OGA D D 162;1OGA E G 169;7.7772
1OGA D D 162;1OGA E V 170;3.45483
1OGA D M 163;1OGA D R 164;19.3573
1OGA D M 163;1OGA D S 165;15.9597
1OGA D M 163;1OGA D M 166;21.0602
1OGA D M 163;1OGA D D 167;3.63832
1OGA D M 163;1OGA D F 168;29.8351
1OGA D M 163;1OGA D S 170;0.000421824
1OGA D M 163;1OGA E K 140;12.7287
1OGA D M 163;1OGA E G 169;8.19255
1OGA D M 163;1OGA E R 195;24.4004
1OGA D M 163;1OGA E V 196;10.5269
1OGA D M 163;1OGA E S 197;5.7548
1OGA D R 164;1OGA D S 165;28.141
1OGA D R 164;1OGA D M 166;0.834481
1OGA D R 164;1OGA D D 167;19.5533
1OGA D R 164;1OGA D F 168;0.00388555
1OGA D R 164;1OGA E H 167;12.045
1OGA D R 164;1OGA E S 168;16.8609
1OGA D R 164;1OGA E G 169;9.61853
1OGA D R 164;1OGA E V 170;7.20404
1OGA D S 165;1OGA D M 166;33.0529
1OGA D S 165;1OGA D D 167;10.0413
1OGA D M 166;1OGA D D 167;27.455
1OGA D M 166;1OGA D F 168;14.2408
1OGA D M 166;1OGA E Q 139;10.7546
1OGA D M 166;1OGA E K 140;25.3171
1OGA D M 166;1OGA E S 197;18.4259
1OGA D D 167;1OGA D F 168;25.708
1OGA D D 167;1OGA D K 169;0.458386
1OGA D F 168;1OGA D K 169;44.2754
1OGA D F 168;1OGA D S 170;12.9242
1OGA D F 168;1OGA E T 138;0.765776
1OGA D F 168;1OGA E K 140;30.286
1OGA D F 168;1OGA E R 195;10.4068
1OGA D K 169;1OGA D S 170;20.3946
1OGA D S 170;1OGA D N 171;24.4157
1OGA D S 170;1OGA D S 172;3.18718
1OGA D S 170;1OGA E R 195;13.1151
1OGA D N 171;1OGA D S 172;19.5475
1OGA D S 172;1OGA D A 173;18.4893
1OGA D S 172;1OGA D V 174;0.015187
1OGA D S 172;1OGA E T 142;0.767006
1OGA D S 172;1OGA E S 171;0.780958
1OGA D S 172;1OGA E R 193;21.2168
1OGA D A 173;1OGA D V 174;21.532
1OGA D A 173;1OGA D F 188;10.5221
1OGA D A 173;1OGA E R 193;4.3935
1OGA D V 174;1OGA D A 175;20.8398
1OGA D V 174;1OGA D W 176;12.7862
1OGA D V 174;1OGA D F 188;4.10524
1OGA D V 174;1OGA E V 144;15.8078
1OGA D V 174;1OGA E L 146;4.3187
1OGA D V 174;1OGA E S 191;9.46036
1OGA D V 174;1OGA E R 193;13.7017
1OGA D A 175;1OGA D W 176;21.4032
1OGA D A 175;1OGA D F 182;10.6432
1OGA D A 175;1OGA D A 187;7.85232
1OGA D A 175;1OGA D F 188;12.6645
1OGA D W 176;1OGA D S 177;29.5381
1OGA D W 176;1OGA D N 178;0.489871
1OGA D W 176;1OGA D F 182;11.112
1OGA D W 176;1OGA E L 146;30.1796
1OGA D W 176;1OGA E T 148;11.3717
1OGA D W 176;1OGA E L 177;10.0217
1OGA D W 176;1OGA E S 189;18.4254
1OGA D W 176;1OGA E L 190;2.61802
1OGA D W 176;1OGA E S 191;3.76382
1OGA D S 177;1OGA D N 178;25.8742
1OGA D S 177;1OGA D K 179;19.3572
1OGA D S 177;1OGA D F 182;25.9488
1OGA D N 178;1OGA D K 179;33.022
1OGA D K 179;1OGA D S 180;36.7807
1OGA D K 179;1OGA D D 181;20.4136
1OGA D K 179;1OGA D F 182;16.7183
1OGA D S 180;1OGA D D 181;29.2664
1OGA D S 180;1OGA D F 182;13.3927
1OGA D D 181;1OGA D F 182;24.2341
1OGA D D 181;1OGA D A 183;7.21867
1OGA D D 181;1OGA D N 186;14.3589
1OGA D F 182;1OGA D A 183;35.8145
1OGA D F 182;1OGA D C 184;0.469035
1OGA D F 182;1OGA D N 186;8.42906
1OGA D F 182;1OGA D A 187;15.56
1OGA D A 183;1OGA D C 184;21.1194
1OGA D A 183;1OGA D A 185;15.7635
1OGA D A 183;1OGA D N 186;18.9598
1OGA D A 183;1OGA D A 187;8.10353
1OGA D C 184;1OGA D A 185;22.5213
1OGA D C 184;1OGA D N 186;0.7165
1OGA D C 184;1OGA D A 187;13.795
1OGA D C 184;1OGA D F 188;2.37035
1OGA D C 184;1OGA D F 199;10.9337
1OGA D A 185;1OGA D N 186;24.4888
1OGA D A 185;1OGA D A 187;1.26883
1OGA D A 185;1OGA D F 188;0.515724
1OGA D A 185;1OGA D N 189;8.85369
1OGA D A 185;1OGA D F 199;20.5329
1OGA D N 186;1OGA D A 187;24.6781
1OGA D N 186;1OGA D F 188;1.95497
1OGA D N 186;1OGA D N 189;32.5859
1OGA D A 187;1OGA D F 188;31.1048
1OGA D A 187;1OGA D N 189;3.59532
1OGA D A 187;1OGA D N 190;0.586211
1OGA D F 188;1OGA D N 189;22.7292
1OGA D F 188;1OGA D N 190;4.64937
1OGA D F 188;1OGA D S 191;19.6663
1OGA D F 188;1OGA D I 193;21.1508
1OGA D N 189;1OGA D N 190;27.7839
1OGA D N 189;1OGA D S 191;9.50737
1OGA D N 190;1OGA D S 191;23.8678
1OGA D S 191;1OGA D I 192;27.1522
1OGA D S 191;1OGA D I 193;22.3961
1OGA D I 192;1OGA D I 193;30.0977
1OGA D I 192;1OGA D P 194;1.53447
1OGA D I 193;1OGA D P 194;34.5863
1OGA D I 193;1OGA D E 195;6.9247
1OGA D I 193;1OGA D T 197;13.7039
1OGA D I 193;1OGA D F 199;7.00773
1OGA D P 194;1OGA D E 195;26.3507
1OGA D P 194;1OGA D D 196;10.7534
1OGA D P 194;1OGA D T 197;17.3237
1OGA D E 195;1OGA D D 196;29.9821
1OGA D E 195;1OGA D T 197;7.65023
1OGA D D 196;1OGA D T 197;20.3767
1OGA D D 196;1OGA D F 198;6.34589
1OGA D T 197;1OGA D F 198;22.2165
1OGA D T 197;1OGA D F 199;27.587
1OGA D F 198;1OGA D F 199;28.8714
1OGA D F 198;1OGA D P 200;26.7566
1OGA D F 198;1OGA D S 201;0.916543
1OGA D F 198;1OGA E A 133;8.73613
1OGA D F 198;1OGA E H 137;31.4696
1OGA D F 199;1OGA D P 200;28.2877
1OGA D F 199;1OGA D S 201;9.35864
1OGA D P 200;1OGA D S 201;31.6137
1OGA D P 200;1OGA D P 202;1.81322
1OGA D P 200;1OGA E E 132;2.34582
1OGA D P 200;1OGA E A 133;17.5817
1OGA D S 201;1OGA D P 202;34.1888
1OGA E G 5;1OGA E I 6;28.907
1OGA E G 5;1OGA E T 7;7.94421
1OGA E G 5;1OGA E E 26;1.58297
1OGA E G 5;1OGA E Q 27;6.17324
1OGA E G 5;1OGA E N 28;29.5056
1OGA E G 5;1OGA E L 29;18.1648
1OGA E I 6;1OGA E T 7;28.8232
1OGA E I 6;1OGA E Q 8;4.32529
1OGA E I 6;1OGA E C 25;9.79756
1OGA E I 6;1OGA E E 26;7.056
1OGA E I 6;1OGA E Q 27;10.0281
1OGA E I 6;1OGA E L 29;11.6868
1OGA E I 6;1OGA E M 34;5.01865
1OGA E I 6;1OGA E C 93;6.54367
1OGA E I 6;1OGA E A 94;3.09289
1OGA E I 6;1OGA E S 95;7.56017
1OGA E I 6;1OGA E Y 104;16.0897
1OGA E I 6;1OGA E F 105;9.53897
1OGA E I 6;1OGA E G 106;16.6612
1OGA E I 6;1OGA E P 107;12.3194
1OGA E T 7;1OGA E Q 8;25.1016
1OGA E T 7;1OGA E S 9;11.2328
1OGA E T 7;1OGA E S 24;2.52777
1OGA E T 7;1OGA E C 25;5.54002
1OGA E T 7;1OGA E E 26;32.4842
1OGA E T 7;1OGA E N 28;1.6528
1OGA E T 7;1OGA E P 107;3.08044
1OGA E Q 8;1OGA E S 9;26.0082
1OGA E Q 8;1OGA E P 10;5.60327
1OGA E Q 8;1OGA E K 11;4.5011
1OGA E Q 8;1OGA E L 23;0.0386524
1OGA E Q 8;1OGA E S 24;13.8098
1OGA E Q 8;1OGA E C 25;4.58806
1OGA E Q 8;1OGA E W 36;12.5452
1OGA E Q 8;1OGA E Y 91;5.65728
1OGA E Q 8;1OGA E L 92;5.2662
1OGA E Q 8;1OGA E C 93;14.9338
1OGA E Q 8;1OGA E G 106;7.9785
1OGA E Q 8;1OGA E P 107;20.1105
1OGA E Q 8;1OGA E G 108;17.4255
1OGA E Q 8;1OGA E T 109;20.1975
1OGA E S 9;1OGA E P 10;36.8986
1OGA E S 9;1OGA E K 11;0.625068
1OGA E S 9;1OGA E S 24;26.8776
1OGA E S 9;1OGA E T 109;0.961099
1OGA E P 10;1OGA E K 11;24.3501
1OGA E P 10;1OGA E Y 12;17.5949
1OGA E P 10;1OGA E L 13;25.9195
1OGA E P 10;1OGA E S 24;0.0165939
1OGA E P 10;1OGA E T 109;13.037
1OGA E K 11;1OGA E Y 12;54.3057
1OGA E K 11;1OGA E G 108;13.2612
1OGA E K 11;1OGA E T 109;8.67668
1OGA E K 11;1OGA E R 110;13.1695
1OGA E K 11;1OGA E E 156;21.8368
1OGA E K 11;1OGA E Y 215;0.0190676
1OGA E Y 12;1OGA E L 13;25.5533
1OGA E Y 12;1OGA E T 109;1.8061
1OGA E Y 12;1OGA E R 110;24.6809
1OGA E Y 12;1OGA E D 153;1.01769
1OGA E Y 12;1OGA E H 154;26.7516
1OGA E Y 12;1OGA E V 155;13.1344
1OGA E Y 12;1OGA E E 156;13.6435
1OGA E Y 12;1OGA E Y 215;36.0243
1OGA E L 13;1OGA E F 14;26.0128
1OGA E L 13;1OGA E R 15;20.4788
1OGA E L 13;1OGA E V 21;11.5183
1OGA E L 13;1OGA E T 22;3.01326
1OGA E L 13;1OGA E L 23;17.9272
1OGA E L 13;1OGA E T 109;16.7456
1OGA E L 13;1OGA E R 110;8.2043
1OGA E L 13;1OGA E L 111;20.5543
1OGA E L 13;1OGA E T 112;6.19811
1OGA E L 13;1OGA E H 154;10.1674
1OGA E F 14;1OGA E R 15;49.3933
1OGA E F 14;1OGA E K 16;0.113973
1OGA E F 14;1OGA E L 111;1.39113
1OGA E F 14;1OGA E T 112;18.6156
1OGA E F 14;1OGA E V 113;0.071189
1OGA E F 14;1OGA E T 114;16.5991
1OGA E F 14;1OGA E L 117;11.1522
1OGA E F 14;1OGA E V 120;14.7329
1OGA E F 14;1OGA E Y 151;6.02716
1OGA E F 14;1OGA E P 152;18.7679
1OGA E F 14;1OGA E H 154;4.43396
1OGA E F 14;1OGA E Y 215;1.81134
1OGA E F 14;1OGA E G 216;16.5736
1OGA E F 14;1OGA E L 217;12.3366
1OGA E F 14;1OGA E D 221;7.14047
1OGA E R 15;1OGA E K 16;24.5147
1OGA E R 15;1OGA E E 17;0.203324
1OGA E R 15;1OGA E Q 19;32.7131
1OGA E R 15;1OGA E N 20;3.35514
1OGA E R 15;1OGA E V 21;30.4577
1OGA E R 15;1OGA E L 111;9.24218
1OGA E R 15;1OGA E T 112;6.62141
1OGA E R 15;1OGA E V 113;16.8134
1OGA E R 15;1OGA E T 114;7.28461
1OGA E R 15;1OGA E L 117;0.113059
1OGA E R 15;1OGA E D 221;0.932177
1OGA E K 16;1OGA E E 17;33.0306
1OGA E K 16;1OGA E G 18;0.579519
1OGA E K 16;1OGA E Q 19;34.2808
1OGA E K 16;1OGA E V 113;3.92738
1OGA E K 16;1OGA E T 114;9.88895
1OGA E K 16;1OGA E E 115;9.95502
1OGA E K 16;1OGA E D 116;3.43194
1OGA E K 16;1OGA E L 117;39.3914
1OGA E K 16;1OGA E D 221;6.6057
1OGA E E 17;1OGA E G 18;33.133
1OGA E E 17;1OGA E Q 19;2.65476
1OGA E E 17;1OGA E K 85;19.8025
1OGA E E 17;1OGA E V 113;19.3024
1OGA E E 17;1OGA E T 114;11.6142
1OGA E E 17;1OGA E E 115;35.1358
1OGA E G 18;1OGA E Q 19;27.8913
1OGA E G 18;1OGA E N 20;8.49748
1OGA E G 18;1OGA E S 82;15.6481
1OGA E G 18;1OGA E V 113;1.45312
1OGA E Q 19;1OGA E N 20;34.5351
1OGA E Q 19;1OGA E V 21;6.93145
1OGA E Q 19;1OGA E V 80;1.88444
1OGA E Q 19;1OGA E V 113;2.40881
1OGA E Q 19;1OGA E N 220;15.737
1OGA E Q 19;1OGA E D 221;6.96648
1OGA E N 20;1OGA E V 21;25.6461
1OGA E N 20;1OGA E T 22;0.00197981
1OGA E N 20;1OGA E T 79;13.6913
1OGA E N 20;1OGA E V 80;7.57446
1OGA E N 20;1OGA E T 81;23.6918
1OGA E N 20;1OGA E S 82;10.1718
1OGA E V 21;1OGA E T 22;32.4315
1OGA E V 21;1OGA E L 23;11.8149
1OGA E V 21;1OGA E L 78;1.28294
1OGA E V 21;1OGA E T 79;7.43209
1OGA E V 21;1OGA E V 80;26.2383
1OGA E V 21;1OGA E L 111;13.3163
1OGA E V 21;1OGA E V 113;2.48171
1OGA E T 22;1OGA E L 23;25.7115
1OGA E T 22;1OGA E S 24;6.38516
1OGA E T 22;1OGA E P 77;17.4765
1OGA E T 22;1OGA E L 78;8.35956
1OGA E T 22;1OGA E T 79;23.6924
1OGA E L 23;1OGA E S 24;26.5285
1OGA E L 23;1OGA E C 25;0.392633
1OGA E L 23;1OGA E W 36;18.9045
1OGA E L 23;1OGA E F 76;0.115113
1OGA E L 23;1OGA E P 77;5.72924
1OGA E L 23;1OGA E L 78;26.4614
1OGA E L 23;1OGA E V 80;10.1179
1OGA E L 23;1OGA E Y 91;17.2748
1OGA E L 23;1OGA E T 109;14.9612
1OGA E L 23;1OGA E L 111;10.5985
1OGA E S 24;1OGA E C 25;22.6793
1OGA E S 24;1OGA E E 26;14.611
1OGA E S 24;1OGA E W 36;7.03355
1OGA E S 24;1OGA E S 75;0.104678
1OGA E S 24;1OGA E P 77;6.14747
1OGA E S 24;1OGA E T 109;1.26391
1OGA E C 25;1OGA E E 26;28.6073
1OGA E C 25;1OGA E Q 27;0.09664
1OGA E C 25;1OGA E M 34;9.84505
1OGA E C 25;1OGA E W 36;8.73351
1OGA E C 25;1OGA E E 74;0.770424
1OGA E C 25;1OGA E S 75;8.82406
1OGA E C 25;1OGA E F 76;18.9847
1OGA E C 25;1OGA E P 77;2.19396
1OGA E C 25;1OGA E C 93;18.4333
1OGA E E 26;1OGA E Q 27;23.9082
1OGA E E 26;1OGA E M 34;0.301648
1OGA E E 26;1OGA E E 74;15.1519
1OGA E E 26;1OGA E S 75;22.978
1OGA E Q 27;1OGA E N 28;24.2208
1OGA E Q 27;1OGA E L 29;14.6115
1OGA E Q 27;1OGA E N 30;6.66985
1OGA E Q 27;1OGA E H 31;20.1087
1OGA E Q 27;1OGA E A 33;0.461574
1OGA E Q 27;1OGA E M 34;16.6019
1OGA E Q 27;1OGA E R 70;3.17972
1OGA E Q 27;1OGA E K 73;10.1947
1OGA E Q 27;1OGA E E 74;34.0226
1OGA E Q 27;1OGA E S 95;10.3797
1OGA E N 28;1OGA E L 29;29.9925
1OGA E N 28;1OGA E N 30;7.8374
1OGA E N 28;1OGA E E 74;2.14845
1OGA E L 29;1OGA E N 30;26.2575
1OGA E L 29;1OGA E H 31;31.0364
1OGA E L 29;1OGA E S 95;6.18132
1OGA E L 29;1OGA E Y 104;12.7383
1OGA E N 30;1OGA E H 31;21.0676
1OGA E N 30;1OGA E D 32;2.05003
1OGA E N 30;1OGA E K 73;34.6576
1OGA E N 30;1OGA E S 97;3.90645
1OGA E H 31;1OGA E D 32;17.6066
1OGA E H 31;1OGA E A 33;5.14038
1OGA E H 31;1OGA E R 70;4.17943
1OGA E H 31;1OGA E K 73;11.279
1OGA E H 31;1OGA E S 95;16.8937
1OGA E H 31;1OGA E S 96;13.4622
1OGA E H 31;1OGA E S 97;25.5232
1OGA E H 31;1OGA E E 102;0.247265
1OGA E H 31;1OGA E Y 104;15.564
1OGA E D 32;1OGA E A 33;19.9478
1OGA E D 32;1OGA E S 51;0.430011
1OGA E D 32;1OGA E Q 52;12.0707
1OGA E D 32;1OGA E I 53;19.0939
1OGA E D 32;1OGA E V 54;3.29398
1OGA E D 32;1OGA E R 70;14.0283
1OGA E D 32;1OGA E K 73;25.5582
1OGA E D 32;1OGA E S 96;1.88671
1OGA E D 32;1OGA E S 97;17.3509
1OGA E D 32;1OGA E R 98;7.51378
1OGA E D 32;1OGA E S 99;0.297228
1OGA E A 33;1OGA E M 34;17.9135
1OGA E A 33;1OGA E Y 35;12.9394
1OGA E A 33;1OGA E S 51;6.43264
1OGA E A 33;1OGA E Q 52;9.24868
1OGA E A 33;1OGA E R 70;2.49259
1OGA E A 33;1OGA E S 95;8.37589
1OGA E A 33;1OGA E S 96;18.4145
1OGA E A 33;1OGA E S 97;0.317958
1OGA E A 33;1OGA E R 98;3.08196
1OGA E A 33;1OGA E S 99;11.2116
1OGA E M 34;1OGA E Y 35;26.2601
1OGA E M 34;1OGA E Y 50;5.29568
1OGA E M 34;1OGA E S 51;16.0929
1OGA E M 34;1OGA E R 70;14.8328
1OGA E M 34;1OGA E E 74;0.447277
1OGA E M 34;1OGA E S 75;1.03553
1OGA E M 34;1OGA E F 76;26.341
1OGA E M 34;1OGA E C 93;11.7104
1OGA E M 34;1OGA E A 94;11.1658
1OGA E M 34;1OGA E S 95;13.3037
1OGA E Y 35;1OGA E W 36;20.0467
1OGA E Y 35;1OGA E Y 37;14.6752
1OGA E Y 35;1OGA E L 47;10.8848
1OGA E Y 35;1OGA E Y 49;2.09712
1OGA E Y 35;1OGA E Y 50;20.0398
1OGA E Y 35;1OGA E S 51;1.35042
1OGA E Y 35;1OGA E Q 52;0.711454
1OGA E Y 35;1OGA E F 76;6.34249
1OGA E Y 35;1OGA E L 92;0.489925
1OGA E Y 35;1OGA E C 93;9.03821
1OGA E Y 35;1OGA E A 94;19.2265
1OGA E Y 35;1OGA E S 95;3.72878
1OGA E Y 35;1OGA E S 96;9.82033
1OGA E Y 35;1OGA E S 99;6.82294
1OGA E Y 35;1OGA E S 100;4.83459
1OGA E Y 35;1OGA E Q 103;23.0525
1OGA E W 36;1OGA E Y 37;23.8196
1OGA E W 36;1OGA E L 47;8.78442
1OGA E W 36;1OGA E I 48;17.0015
1OGA E W 36;1OGA E Y 49;15.9336
1OGA E W 36;1OGA E V 68;7.18177
1OGA E W 36;1OGA E F 76;25.1738
1OGA E W 36;1OGA E P 77;1.19957
1OGA E W 36;1OGA E L 78;32.2104
1OGA E W 36;1OGA E Y 91;10.4053
1OGA E W 36;1OGA E L 92;10.9866
1OGA E W 36;1OGA E C 93;17.4452
1OGA E W 36;1OGA E T 109;0.221204
1OGA E Y 37;1OGA E R 38;20.4892
1OGA E Y 37;1OGA E L 45;24.1071
1OGA E Y 37;1OGA E R 46;10.5481
1OGA E Y 37;1OGA E L 47;28.0932
1OGA E Y 37;1OGA E I 48;8.96405
1OGA E Y 37;1OGA E F 90;0.102398
1OGA E Y 37;1OGA E Y 91;7.25962
1OGA E Y 37;1OGA E L 92;27.3729
1OGA E Y 37;1OGA E C 93;0.661315
1OGA E Y 37;1OGA E A 94;5.91646
1OGA E Y 37;1OGA E Q 103;13.7744
1OGA E Y 37;1OGA E F 105;13.9799
1OGA E R 38;1OGA E Q 39;25.1672
1OGA E R 38;1OGA E D 40;15.0626
1OGA E R 38;1OGA E G 44;1.33034
1OGA E R 38;1OGA E L 45;4.55959
1OGA E R 38;1OGA E R 46;46.2386
1OGA E R 38;1OGA E I 48;13.6927
1OGA E R 38;1OGA E I 62;13.6465
1OGA E R 38;1OGA E Y 66;18.5192
1OGA E R 38;1OGA E N 86;29.4782
1OGA E R 38;1OGA E P 87;2.21877
1OGA E R 38;1OGA E T 88;5.47097
1OGA E R 38;1OGA E A 89;16.1382
1OGA E R 38;1OGA E F 90;6.616
1OGA E R 38;1OGA E Y 91;14.7447
1OGA E R 38;1OGA E L 92;0.497048
1OGA E Q 39;1OGA E D 40;36.8994
1OGA E Q 39;1OGA E P 41;1.28652
1OGA E Q 39;1OGA E Q 43;12.3602
1OGA E Q 39;1OGA E G 44;15.1229
1OGA E Q 39;1OGA E L 45;16.1501
1OGA E Q 39;1OGA E R 46;0.332317
1OGA E Q 39;1OGA E A 89;7.62601
1OGA E Q 39;1OGA E F 90;38.5885
1OGA E Q 39;1OGA E L 92;7.18873
1OGA E D 40;1OGA E P 41;37.9536
1OGA E D 40;1OGA E G 42;2.15927
1OGA E D 40;1OGA E Q 43;40.3728
1OGA E D 40;1OGA E G 44;1.57336
1OGA E D 40;1OGA E R 46;16.2479
1OGA E D 40;1OGA E T 88;3.10019
1OGA E D 40;1OGA E A 89;7.814
1OGA E P 41;1OGA E G 42;27.9865
1OGA E P 41;1OGA E Q 43;11.5357
1OGA E P 41;1OGA E A 89;1.77185
1OGA E P 41;1OGA E Q 175;0.740524
1OGA E G 42;1OGA E Q 43;31.2384
1OGA E Q 43;1OGA E G 44;33.8087
1OGA E Q 43;1OGA E R 46;11.6868
1OGA E G 44;1OGA E L 45;27.8162
1OGA E G 44;1OGA E R 46;5.4789
1OGA E L 45;1OGA E R 46;28.8522
1OGA E L 45;1OGA E L 47;0.95494
1OGA E L 45;1OGA E L 92;12.4054
1OGA E L 45;1OGA E F 105;11.9768
1OGA E R 46;1OGA E L 47;22.1566
1OGA E R 46;1OGA E I 48;3.86194
1OGA E R 46;1OGA E D 61;2.87744
1OGA E R 46;1OGA E I 62;33.5465
1OGA E R 46;1OGA E N 86;1.16723
1OGA E L 47;1OGA E I 48;17.0702
1OGA E L 47;1OGA E Y 49;8.07584
1OGA E L 47;1OGA E Y 50;15.7952
1OGA E L 47;1OGA E G 60;14.0894
1OGA E L 47;1OGA E D 61;28.4887
1OGA E L 47;1OGA E I 62;9.77857
1OGA E I 48;1OGA E Y 49;28.2507
1OGA E I 48;1OGA E K 59;0.472485
1OGA E I 48;1OGA E G 60;9.76556
1OGA E I 48;1OGA E I 62;16.526
1OGA E I 48;1OGA E A 63;11.5617
1OGA E I 48;1OGA E Y 66;22.0063
1OGA E I 48;1OGA E L 78;13.6817
1OGA E I 48;1OGA E Y 91;8.48189
1OGA E Y 49;1OGA E Y 50;21.3198
1OGA E Y 49;1OGA E F 57;15.9267
1OGA E Y 49;1OGA E Q 58;12.5811
1OGA E Y 49;1OGA E K 59;30.7244
1OGA E Y 49;1OGA E G 60;5.01645
1OGA E Y 49;1OGA E A 63;15.2875
1OGA E Y 49;1OGA E Y 66;16.1804
1OGA E Y 49;1OGA E S 67;10.2289
1OGA E Y 49;1OGA E V 68;25.91
1OGA E Y 49;1OGA E F 76;7.68868
1OGA E Y 49;1OGA E L 78;3.02773
1OGA E Y 50;1OGA E S 51;22.1252
1OGA E Y 50;1OGA E Q 52;9.36773
1OGA E Y 50;1OGA E F 57;6.35602
1OGA E Y 50;1OGA E Q 58;44.4242
1OGA E Y 50;1OGA E K 59;10.4122
1OGA E Y 50;1OGA E G 60;5.6699
1OGA E Y 50;1OGA E V 68;0.0348137
1OGA E Y 50;1OGA E F 76;9.64134
1OGA E S 51;1OGA E Q 52;20.9626
1OGA E S 51;1OGA E I 53;7.04227
1OGA E S 51;1OGA E D 56;9.33818
1OGA E S 51;1OGA E F 57;8.53784
1OGA E S 51;1OGA E Q 58;1.33348
1OGA E S 51;1OGA E R 70;20.6584
1OGA E S 51;1OGA E F 76;11.0827
1OGA E Q 52;1OGA E I 53;26.976
1OGA E Q 52;1OGA E D 56;6.45151
1OGA E Q 52;1OGA E F 57;0.0603962
1OGA E Q 52;1OGA E Q 58;19.262
1OGA E Q 52;1OGA E R 98;0.0245317
1OGA E Q 52;1OGA E S 99;21.2021
1OGA E I 53;1OGA E V 54;33.0976
1OGA E I 53;1OGA E N 55;0.466554
1OGA E I 53;1OGA E D 56;19.2634
1OGA E I 53;1OGA E R 70;6.71817
1OGA E V 54;1OGA E N 55;36.5663
1OGA E V 54;1OGA E D 56;2.05215
1OGA E V 54;1OGA E R 70;18.181
1OGA E V 54;1OGA E E 71;8.91027
1OGA E V 54;1OGA E K 72;8.10339
1OGA E V 54;1OGA E K 73;20.7873
1OGA E N 55;1OGA E D 56;25.8145
1OGA E N 55;1OGA E F 57;2.31914
1OGA E N 55;1OGA E R 70;16.8276
1OGA E N 55;1OGA E E 71;15.353
1OGA E D 56;1OGA E F 57;40.9179
1OGA E D 56;1OGA E Q 58;8.39796
1OGA E D 56;1OGA E R 70;6.91428
1OGA E F 57;1OGA E Q 58;29.6519
1OGA E F 57;1OGA E V 68;29.0874
1OGA E F 57;1OGA E S 69;10.5779
1OGA E F 57;1OGA E R 70;11.2839
1OGA E F 57;1OGA E F 76;5.55886
1OGA E Q 58;1OGA E K 59;28.8077
1OGA E Q 58;1OGA E G 60;0.0934934
1OGA E K 59;1OGA E G 60;31.0549
1OGA E K 59;1OGA E A 63;21.1079
1OGA E K 59;1OGA E E 64;8.74833
1OGA E G 60;1OGA E D 61;27.4446
1OGA E G 60;1OGA E I 62;1.95126
1OGA E G 60;1OGA E A 63;6.09961
1OGA E D 61;1OGA E I 62;30.777
1OGA E D 61;1OGA E A 63;1.70225
1OGA E I 62;1OGA E A 63;21.1549
1OGA E I 62;1OGA E E 64;18.5572
1OGA E I 62;1OGA E Y 66;13.856
1OGA E I 62;1OGA E N 86;0.412829
1OGA E A 63;1OGA E E 64;27.2117
1OGA E A 63;1OGA E G 65;1.94201
1OGA E A 63;1OGA E Y 66;17.2178
1OGA E E 64;1OGA E G 65;25.0851
1OGA E E 64;1OGA E Y 66;10.5352
1OGA E E 64;1OGA E A 83;7.08492
1OGA E G 65;1OGA E Y 66;26.4229
1OGA E G 65;1OGA E T 79;0.318469
1OGA E G 65;1OGA E V 80;2.38303
1OGA E G 65;1OGA E T 81;22.2253
1OGA E G 65;1OGA E S 82;0.796769
1OGA E G 65;1OGA E A 83;21.6285
1OGA E Y 66;1OGA E S 67;24.2081
1OGA E Y 66;1OGA E L 78;14.5347
1OGA E Y 66;1OGA E T 79;7.5941
1OGA E Y 66;1OGA E V 80;17.6466
1OGA E Y 66;1OGA E T 81;3.27715
1OGA E Y 66;1OGA E A 83;9.66006
1OGA E Y 66;1OGA E N 86;1.35162
1OGA E Y 66;1OGA E P 87;2.87372
1OGA E Y 66;1OGA E Y 91;17.0241
1OGA E S 67;1OGA E V 68;30.6088
1OGA E S 67;1OGA E P 77;0.926857
1OGA E S 67;1OGA E L 78;6.67333
1OGA E S 67;1OGA E T 79;30.7316
1OGA E S 67;1OGA E T 81;10.1881
1OGA E V 68;1OGA E S 69;27.6904
1OGA E V 68;1OGA E F 76;18.4925
1OGA E V 68;1OGA E P 77;11.7236
1OGA E V 68;1OGA E L 78;11.6319
1OGA E V 68;1OGA E T 79;0.42597
1OGA E S 69;1OGA E R 70;24.2166
1OGA E S 69;1OGA E E 71;18.7253
1OGA E S 69;1OGA E S 75;0.436123
1OGA E S 69;1OGA E F 76;10.3399
1OGA E S 69;1OGA E P 77;29.4318
1OGA E R 70;1OGA E E 71;24.509
1OGA E R 70;1OGA E K 72;11.2682
1OGA E R 70;1OGA E K 73;20.1483
1OGA E R 70;1OGA E S 75;12.6138
1OGA E R 70;1OGA E F 76;14.6699
1OGA E R 70;1OGA E P 77;0.737117
1OGA E E 71;1OGA E K 72;43.0639
1OGA E E 71;1OGA E S 75;0.41664
1OGA E E 71;1OGA E P 77;0.678133
1OGA E K 72;1OGA E K 73;19.4645
1OGA E K 72;1OGA E E 74;16.675
1OGA E K 72;1OGA E S 75;23.4026
1OGA E K 73;1OGA E E 74;38.4564
1OGA E K 73;1OGA E S 75;3.31796
1OGA E E 74;1OGA E S 75;22.7066
1OGA E S 75;1OGA E F 76;21.2006
1OGA E S 75;1OGA E P 77;18.2789
1OGA E F 76;1OGA E P 77;23.8372
1OGA E F 76;1OGA E L 78;0.641807
1OGA E F 76;1OGA E C 93;2.37693
1OGA E P 77;1OGA E L 78;16.5558
1OGA E P 77;1OGA E T 79;3.76652
1OGA E L 78;1OGA E T 79;21.8579
1OGA E L 78;1OGA E V 80;8.74681
1OGA E L 78;1OGA E Y 91;9.56074
1OGA E T 79;1OGA E V 80;21.0763
1OGA E T 79;1OGA E T 81;12.9064
1OGA E V 80;1OGA E T 81;28.0443
1OGA E V 80;1OGA E A 83;5.91104
1OGA E V 80;1OGA E P 87;13.8342
1OGA E V 80;1OGA E Y 91;8.92267
1OGA E V 80;1OGA E L 111;12.1634
1OGA E V 80;1OGA E V 113;1.6382
1OGA E T 81;1OGA E S 82;29.8336
1OGA E T 81;1OGA E A 83;13.1583
1OGA E T 81;1OGA E P 87;2.44506
1OGA E S 82;1OGA E A 83;27.6764
1OGA E S 82;1OGA E Q 84;2.82566
1OGA E A 83;1OGA E Q 84;42.1224
1OGA E A 83;1OGA E N 86;6.75867
1OGA E A 83;1OGA E P 87;9.73737
1OGA E Q 84;1OGA E K 85;36.485
1OGA E Q 84;1OGA E N 86;23.4574
1OGA E Q 84;1OGA E P 87;12.9651
1OGA E K 85;1OGA E N 86;31.9206
1OGA E K 85;1OGA E P 87;3.22602
1OGA E K 85;1OGA E E 115;20.4007
1OGA E K 85;1OGA E N 184;1.83791
1OGA E N 86;1OGA E P 87;26.3012
1OGA E N 86;1OGA E T 88;11.3513
1OGA E N 86;1OGA E A 89;0.00826154
1OGA E P 87;1OGA E T 88;23.4428
1OGA E P 87;1OGA E A 89;4.04854
1OGA E P 87;1OGA E Y 91;14.0069
1OGA E P 87;1OGA E L 111;9.97413
1OGA E P 87;1OGA E V 113;26.3413
1OGA E T 88;1OGA E A 89;25.4714
1OGA E T 88;1OGA E L 111;11.0653
1OGA E T 88;1OGA E T 112;21.0775
1OGA E T 88;1OGA E V 113;18.7899
1OGA E A 89;1OGA E F 90;24.0598
1OGA E A 89;1OGA E Y 91;16.9692
1OGA E A 89;1OGA E T 109;1.06636
1OGA E A 89;1OGA E R 110;4.17871
1OGA E A 89;1OGA E L 111;15.9559
1OGA E F 90;1OGA E Y 91;21.9744
1OGA E F 90;1OGA E L 92;19.3809
1OGA E F 90;1OGA E P 107;5.89823
1OGA E F 90;1OGA E G 108;11.6853
1OGA E F 90;1OGA E T 109;10.6985
1OGA E F 90;1OGA E R 110;23.9858
1OGA E Y 91;1OGA E L 92;18.6881
1OGA E Y 91;1OGA E G 108;4.67968
1OGA E Y 91;1OGA E T 109;20.0205
1OGA E Y 91;1OGA E L 111;16.092
1OGA E L 92;1OGA E C 93;20.0094
1OGA E L 92;1OGA E F 105;14.8533
1OGA E L 92;1OGA E G 106;6.58354
1OGA E L 92;1OGA E P 107;2.13746
1OGA E L 92;1OGA E G 108;9.09884
1OGA E C 93;1OGA E A 94;20.4821
1OGA E C 93;1OGA E F 105;6.72063
1OGA E C 93;1OGA E G 106;9.29264
1OGA E A 94;1OGA E S 95;16.019
1OGA E A 94;1OGA E Q 103;11.9134
1OGA E A 94;1OGA E Y 104;8.23683
1OGA E A 94;1OGA E F 105;15.3022
1OGA E A 94;1OGA E G 106;0.273971
1OGA E S 95;1OGA E S 96;16.5734
1OGA E S 95;1OGA E E 102;0.584532
1OGA E S 95;1OGA E Q 103;8.46888
1OGA E S 95;1OGA E Y 104;17.0835
1OGA E S 96;1OGA E S 97;18.9878
1OGA E S 96;1OGA E R 98;11.5273
1OGA E S 96;1OGA E S 99;2.3543
1OGA E S 96;1OGA E S 100;2.21288
1OGA E S 96;1OGA E Y 101;11.3677
1OGA E S 96;1OGA E E 102;10.3479
1OGA E S 96;1OGA E Q 103;8.27837
1OGA E S 96;1OGA E Y 104;0.171859
1OGA E S 97;1OGA E R 98;27.5912
1OGA E S 97;1OGA E Y 101;13.0809
1OGA E S 97;1OGA E E 102;2.07474
1OGA E R 98;1OGA E S 99;33.6374
1OGA E R 98;1OGA E S 100;4.9603
1OGA E R 98;1OGA E Y 101;24.772
1OGA E S 99;1OGA E S 100;18.9211
1OGA E S 99;1OGA E Y 101;3.56648
1OGA E S 100;1OGA E Y 101;23.348
1OGA E S 100;1OGA E Q 103;0.627149
1OGA E Y 101;1OGA E E 102;50.9915
1OGA E Y 101;1OGA E Q 103;4.7778
1OGA E E 102;1OGA E Q 103;18.7907
1OGA E E 102;1OGA E Y 104;29.227
1OGA E Q 103;1OGA E Y 104;22.9918
1OGA E Q 103;1OGA E F 105;13.297
1OGA E Y 104;1OGA E F 105;24.6113
1OGA E Y 104;1OGA E G 106;0.150349
1OGA E F 105;1OGA E G 106;28.0047
1OGA E F 105;1OGA E P 107;0.0420219
1OGA E G 106;1OGA E P 107;23.7808
1OGA E G 106;1OGA E G 108;1.87079
1OGA E P 107;1OGA E G 108;27.6038
1OGA E G 108;1OGA E T 109;18.5937
1OGA E T 109;1OGA E R 110;21.2379
1OGA E T 109;1OGA E L 111;6.35621
1OGA E R 110;1OGA E L 111;19.2786
1OGA E R 110;1OGA E T 112;3.2525
1OGA E R 110;1OGA E D 153;32.3205
1OGA E R 110;1OGA E H 154;23.8101
1OGA E R 110;1OGA E P 176;0.378314
1OGA E L 111;1OGA E T 112;25.4723
1OGA E L 111;1OGA E V 113;14.4755
1OGA E L 111;1OGA E H 154;1.26423
1OGA E T 112;1OGA E V 113;23.883
1OGA E T 112;1OGA E T 114;1.22276
1OGA E T 112;1OGA E Y 151;16.4298
1OGA E T 112;1OGA E P 152;13.967
1OGA E T 112;1OGA E D 153;2.1621
1OGA E T 112;1OGA E H 154;16.7079
1OGA E V 113;1OGA E T 114;24.4556
1OGA E V 113;1OGA E E 115;0.0221085
1OGA E V 113;1OGA E Y 151;3.68838
1OGA E V 113;1OGA E N 184;2.90377
1OGA E V 113;1OGA E D 185;2.17444
1OGA E T 114;1OGA E E 115;24.2694
1OGA E T 114;1OGA E D 116;12.7763
1OGA E T 114;1OGA E L 117;8.56123
1OGA E T 114;1OGA E N 119;8.93724
1OGA E T 114;1OGA E V 120;1.45902
1OGA E T 114;1OGA E Y 151;14.5949
1OGA E T 114;1OGA E D 185;8.88934
1OGA E E 115;1OGA E D 116;30.3106
1OGA E E 115;1OGA E N 119;4.5294
1OGA E E 115;1OGA E N 184;3.62399
1OGA E E 115;1OGA E D 185;18.9816
1OGA E D 116;1OGA E L 117;23.4407
1OGA E D 116;1OGA E K 118;27.727
1OGA E D 116;1OGA E N 119;26.0284
1OGA E D 116;1OGA E V 120;0.663151
1OGA E L 117;1OGA E K 118;22.3923
1OGA E L 117;1OGA E N 119;2.87647
1OGA E L 117;1OGA E V 120;16.9428
1OGA E L 117;1OGA E L 217;15.5579
1OGA E L 117;1OGA E D 221;17.5482
1OGA E L 117;1OGA E E 222;14.9492
1OGA E L 117;1OGA E W 223;13.2535
1OGA E L 117;1OGA E R 227;0.109448
1OGA E K 118;1OGA E N 119;21.8917
1OGA E K 118;1OGA E V 120;2.38113
1OGA E K 118;1OGA E F 121;8.85426
1OGA E K 118;1OGA E E 222;4.32678
1OGA E K 118;1OGA E W 223;19.6247
1OGA E K 118;1OGA E T 224;21.4903
1OGA E K 118;1OGA E Q 225;33.3514
1OGA E K 118;1OGA E R 227;12.7401
1OGA E N 119;1OGA E V 120;17.9206
1OGA E N 119;1OGA E F 121;15.7035
1OGA E N 119;1OGA E Y 151;18.6381
1OGA E N 119;1OGA E L 183;5.07105
1OGA E N 119;1OGA E D 185;23.958
1OGA E N 119;1OGA E R 187;2.49804
1OGA E N 119;1OGA E R 227;0.0210432
1OGA E V 120;1OGA E F 121;19.7487
1OGA E V 120;1OGA E Y 151;14.1951
1OGA E V 120;1OGA E P 152;8.4058
1OGA E V 120;1OGA E F 214;6.55427
1OGA E V 120;1OGA E G 216;4.67444
1OGA E V 120;1OGA E L 217;14.4671
1OGA E V 120;1OGA E W 223;1.33914
1OGA E V 120;1OGA E R 227;10.5879
1OGA E V 120;1OGA E P 230;20.9977
1OGA E F 121;1OGA E P 122;28.7184
1OGA E F 121;1OGA E G 149;6.60845
1OGA E F 121;1OGA E F 150;6.72772
1OGA E F 121;1OGA E Y 151;15.4737
1OGA E F 121;1OGA E R 187;45.1228
1OGA E F 121;1OGA E F 214;7.5126
1OGA E F 121;1OGA E R 227;31.5137
1OGA E F 121;1OGA E P 230;3.02593
1OGA E P 122;1OGA E P 123;30.1002
1OGA E P 122;1OGA E E 124;5.88582
1OGA E P 122;1OGA E T 148;1.36447
1OGA E P 122;1OGA E G 149;5.26476
1OGA E P 122;1OGA E F 150;3.38005
1OGA E P 122;1OGA E R 187;1.87108
1OGA E P 122;1OGA E F 214;12.7852
1OGA E P 122;1OGA E R 227;6.24494
1OGA E P 122;1OGA E A 228;2.50937
1OGA E P 122;1OGA E P 230;14.8046
1OGA E P 122;1OGA E Q 233;19.0418
1OGA E P 122;1OGA E V 235;4.34433
1OGA E P 123;1OGA E E 124;23.633
1OGA E P 123;1OGA E V 125;7.24311
1OGA E P 123;1OGA E A 147;7.05357
1OGA E P 123;1OGA E T 148;6.97585
1OGA E P 123;1OGA E G 149;0.255343
1OGA E P 123;1OGA E F 150;18.2177
1OGA E P 123;1OGA E V 155;4.63275
1OGA E P 123;1OGA E V 212;13.0423
1OGA E P 123;1OGA E F 214;16.6289
1OGA E P 123;1OGA E Q 233;0.14367
1OGA E P 123;1OGA E V 235;23.4513
1OGA E E 124;1OGA E V 125;26.4308
1OGA E E 124;1OGA E A 126;0.0200149
1OGA E E 124;1OGA E L 146;3.15282
1OGA E E 124;1OGA E A 147;4.08513
1OGA E E 124;1OGA E T 148;34.329
1OGA E E 124;1OGA E G 149;0.427805
1OGA E E 124;1OGA E R 187;3.03
1OGA E E 124;1OGA E V 235;3.29651
1OGA E V 125;1OGA E A 126;26.8044
1OGA E V 125;1OGA E V 127;0.373411
1OGA E V 125;1OGA E C 145;9.45851
1OGA E V 125;1OGA E L 146;6.38492
1OGA E V 125;1OGA E A 147;7.03702
1OGA E V 125;1OGA E C 210;8.11382
1OGA E V 125;1OGA E V 212;14.4723
1OGA E V 125;1OGA E V 235;23.3855
1OGA E V 125;1OGA E S 236;10.7531
1OGA E V 125;1OGA E A 237;17.6405
1OGA E A 126;1OGA E V 127;20.9936
1OGA E A 126;1OGA E F 128;16.1461
1OGA E A 126;1OGA E V 144;0.727672
1OGA E A 126;1OGA E C 145;6.34877
1OGA E A 126;1OGA E L 146;19.1169
1OGA E A 126;1OGA E A 237;7.02773
1OGA E V 127;1OGA E F 128;25.2096
1OGA E V 127;1OGA E E 129;3.57301
1OGA E V 127;1OGA E L 143;11.2167
1OGA E V 127;1OGA E V 144;7.01747
1OGA E V 127;1OGA E C 145;6.24519
1OGA E V 127;1OGA E W 159;12.1615
1OGA E V 127;1OGA E F 208;1.77772
1OGA E V 127;1OGA E R 209;0.808902
1OGA E V 127;1OGA E C 210;10.3168
1OGA E V 127;1OGA E A 237;18.1751
1OGA E V 127;1OGA E E 238;9.19578
1OGA E V 127;1OGA E A 239;10.6666
1OGA E F 128;1OGA E E 129;19.9074
1OGA E F 128;1OGA E P 130;0.548968
1OGA E F 128;1OGA E T 142;0.256812
1OGA E F 128;1OGA E L 143;6.995
1OGA E F 128;1OGA E V 144;24.4327
1OGA E F 128;1OGA E C 145;0.135294
1OGA E F 128;1OGA E L 146;19.1613
1OGA E E 129;1OGA E P 130;28.188
1OGA E E 129;1OGA E S 131;1.77194
1OGA E E 129;1OGA E T 142;0.13385
1OGA E E 129;1OGA E L 143;1.90332
1OGA E E 129;1OGA E W 201;13.7568
1OGA E E 129;1OGA E A 239;9.4256
1OGA E E 129;1OGA E R 242;24.6793
1OGA E P 130;1OGA E S 131;24.205
1OGA E P 130;1OGA E E 132;2.99234
1OGA E P 130;1OGA E E 134;4.73604
1OGA E P 130;1OGA E I 135;12.4165
1OGA E P 130;1OGA E A 141;13.1318
1OGA E P 130;1OGA E T 142;14.5357
1OGA E P 130;1OGA E L 143;13.2124
1OGA E P 130;1OGA E W 201;25.0569
1OGA E S 131;1OGA E E 132;30.524
1OGA E S 131;1OGA E A 133;8.15061
1OGA E S 131;1OGA E E 134;19.3915
1OGA E S 131;1OGA E I 135;11.1195
1OGA E E 132;1OGA E A 133;33.2708
1OGA E E 132;1OGA E E 134;0.642869
1OGA E E 132;1OGA E I 135;18.2913
1OGA E E 132;1OGA E S 136;12.7055
1OGA E A 133;1OGA E E 134;15.4379
1OGA E A 133;1OGA E I 135;0.964501
1OGA E A 133;1OGA E S 136;13.9586
1OGA E A 133;1OGA E H 137;10.7999
1OGA E E 134;1OGA E I 135;17.6954
1OGA E E 134;1OGA E S 136;0.75805
1OGA E E 134;1OGA E H 137;5.28459
1OGA E E 134;1OGA E T 138;18.5945
1OGA E E 134;1OGA E Q 139;1.28046
1OGA E E 134;1OGA E K 140;10.4688
1OGA E E 134;1OGA E A 141;4.68333
1OGA E E 134;1OGA E T 142;18.7481
1OGA E E 134;1OGA E R 195;13.28
1OGA E I 135;1OGA E S 136;25.0266
1OGA E I 135;1OGA E H 137;0.963831
1OGA E I 135;1OGA E T 138;0.674506
1OGA E I 135;1OGA E Q 139;18.5631
1OGA E I 135;1OGA E K 140;10.9612
1OGA E I 135;1OGA E A 141;9.41787
1OGA E I 135;1OGA E A 198;17.0001
1OGA E I 135;1OGA E W 201;16.3578
1OGA E I 135;1OGA E Q 202;17.01
1OGA E S 136;1OGA E H 137;28.792
1OGA E S 136;1OGA E T 138;0.752028
1OGA E S 136;1OGA E Q 139;5.77375
1OGA E H 137;1OGA E T 138;32.6041
1OGA E H 137;1OGA E Q 139;0.542733
1OGA E T 138;1OGA E Q 139;27.9263
1OGA E T 138;1OGA E K 140;31.1342
1OGA E T 138;1OGA E R 195;9.31728
1OGA E Q 139;1OGA E K 140;20.5136
1OGA E Q 139;1OGA E S 197;5.20304
1OGA E Q 139;1OGA E A 198;25.8424
1OGA E Q 139;1OGA E T 199;12.9433
1OGA E Q 139;1OGA E Q 202;4.92292
1OGA E K 140;1OGA E A 141;18.2479
1OGA E K 140;1OGA E R 195;18.4607
1OGA E K 140;1OGA E V 196;4.92082
1OGA E K 140;1OGA E S 197;3.85494
1OGA E K 140;1OGA E A 198;6.94959
1OGA E A 141;1OGA E T 142;15.505
1OGA E A 141;1OGA E L 143;6.9597
1OGA E A 141;1OGA E L 194;1.13142
1OGA E A 141;1OGA E R 195;8.92303
1OGA E A 141;1OGA E V 196;21.0994
1OGA E A 141;1OGA E S 197;1.7427
1OGA E A 141;1OGA E A 198;5.96618
1OGA E A 141;1OGA E W 201;10.7656
1OGA E T 142;1OGA E L 143;22.5679
1OGA E T 142;1OGA E V 144;4.71811
1OGA E T 142;1OGA E R 193;12.6403
1OGA E T 142;1OGA E L 194;4.95759
1OGA E T 142;1OGA E R 195;21.2463
1OGA E L 143;1OGA E V 144;19.2844
1OGA E L 143;1OGA E W 159;15.9627
1OGA E L 143;1OGA E S 192;0.0365875
1OGA E L 143;1OGA E R 193;5.72289
1OGA E L 143;1OGA E L 194;29.436
1OGA E L 143;1OGA E V 196;9.51708
1OGA E L 143;1OGA E W 201;14.6013
1OGA E L 143;1OGA E F 208;19.3434
1OGA E L 143;1OGA E A 239;6.18211
1OGA E V 144;1OGA E C 145;21.9723
1OGA E V 144;1OGA E L 146;7.80677
1OGA E V 144;1OGA E W 159;4.55567
1OGA E V 144;1OGA E S 191;4.36287
1OGA E V 144;1OGA E S 192;8.14724
1OGA E V 144;1OGA E R 193;10.0455
1OGA E C 145;1OGA E L 146;23.9366
1OGA E C 145;1OGA E A 147;2.31444
1OGA E C 145;1OGA E L 157;10.2001
1OGA E C 145;1OGA E W 159;12.8528
1OGA E C 145;1OGA E L 190;1.03281
1OGA E C 145;1OGA E S 191;6.2287
1OGA E C 145;1OGA E S 192;16.8823
1OGA E C 145;1OGA E C 210;17.8167
1OGA E C 145;1OGA E V 212;1.92015
1OGA E L 146;1OGA E A 147;18.5147
1OGA E L 146;1OGA E T 148;19.5751
1OGA E L 146;1OGA E S 189;0.355904
1OGA E L 146;1OGA E L 190;7.86436
1OGA E L 146;1OGA E S 191;11.2294
1OGA E A 147;1OGA E T 148;19.8875
1OGA E A 147;1OGA E F 150;12.6129
1OGA E A 147;1OGA E V 155;1.34939
1OGA E A 147;1OGA E L 157;6.8618
1OGA E A 147;1OGA E S 189;4.68204
1OGA E A 147;1OGA E L 190;24.0317
1OGA E A 147;1OGA E V 212;14.0881
1OGA E T 148;1OGA E G 149;22.9985
1OGA E T 148;1OGA E F 150;7.26527
1OGA E T 148;1OGA E E 179;5.99409
1OGA E T 148;1OGA E Y 188;1.93207
1OGA E T 148;1OGA E S 189;13.9273
1OGA E G 149;1OGA E F 150;16.2164
1OGA E G 149;1OGA E E 179;15.6937
1OGA E G 149;1OGA E R 187;26.6217
1OGA E G 149;1OGA E Y 188;5.44125
1OGA E G 149;1OGA E S 189;0.214868
1OGA E F 150;1OGA E Y 151;18.9394
1OGA E F 150;1OGA E P 152;6.66922
1OGA E F 150;1OGA E D 153;13.3009
1OGA E F 150;1OGA E H 154;0.741041
1OGA E F 150;1OGA E V 155;23.824
1OGA E F 150;1OGA E P 176;5.92422
1OGA E F 150;1OGA E R 187;6.39696
1OGA E F 150;1OGA E Y 188;32.6776
1OGA E F 150;1OGA E S 189;5.65341
1OGA E F 150;1OGA E L 190;10.36
1OGA E F 150;1OGA E F 214;6.15772
1OGA E Y 151;1OGA E P 152;36.2429
1OGA E Y 151;1OGA E D 153;0.0413774
1OGA E Y 151;1OGA E N 184;6.03082
1OGA E Y 151;1OGA E D 185;26.9963
1OGA E Y 151;1OGA E S 186;7.34864
1OGA E Y 151;1OGA E R 187;10.9384
1OGA E Y 151;1OGA E Y 188;15.0583
1OGA E Y 151;1OGA E F 214;6.75485
1OGA E P 152;1OGA E D 153;19.7464
1OGA E P 152;1OGA E H 154;23.9827
1OGA E P 152;1OGA E V 155;0.617937
1OGA E P 152;1OGA E Y 188;0.807502
1OGA E P 152;1OGA E F 214;12.976
1OGA E P 152;1OGA E Y 215;8.25356
1OGA E P 152;1OGA E G 216;4.30643
1OGA E D 153;1OGA E H 154;24.5621
1OGA E D 153;1OGA E V 155;10.1862
1OGA E D 153;1OGA E P 176;25.4737
1OGA E D 153;1OGA E Y 188;30.5274
1OGA E H 154;1OGA E V 155;24.0398
1OGA E H 154;1OGA E Q 213;0.144205
1OGA E H 154;1OGA E F 214;6.51638
1OGA E H 154;1OGA E Y 215;25.3016
1OGA E V 155;1OGA E E 156;26.9429
1OGA E V 155;1OGA E L 157;2.40318
1OGA E V 155;1OGA E P 176;1.30122
1OGA E V 155;1OGA E L 190;16.7608
1OGA E V 155;1OGA E V 212;15.5284
1OGA E V 155;1OGA E Q 213;6.77742
1OGA E V 155;1OGA E F 214;12.1366
1OGA E V 155;1OGA E Y 215;2.6336
1OGA E E 156;1OGA E L 157;27.7793
1OGA E E 156;1OGA E S 158;2.78244
1OGA E E 156;1OGA E Q 211;3.27223
1OGA E E 156;1OGA E V 212;5.93398
1OGA E E 156;1OGA E Q 213;30.101
1OGA E E 156;1OGA E Y 215;22.3734
1OGA E L 157;1OGA E S 158;33.7253
1OGA E L 157;1OGA E W 159;10.2424
1OGA E L 157;1OGA E V 170;0.200303
1OGA E L 157;1OGA E T 172;21.304
1OGA E L 157;1OGA E L 190;20.316
1OGA E L 157;1OGA E S 191;2.48089
1OGA E L 157;1OGA E S 192;14.0908
1OGA E L 157;1OGA E C 210;11.8885
1OGA E L 157;1OGA E Q 211;6.07495
1OGA E L 157;1OGA E V 212;16.708
1OGA E S 158;1OGA E W 159;24.7911
1OGA E S 158;1OGA E W 160;14.806
1OGA E S 158;1OGA E E 165;20.2041
1OGA E S 158;1OGA E R 209;0.832271
1OGA E S 158;1OGA E C 210;5.04759
1OGA E S 158;1OGA E Q 211;29.7386
1OGA E W 159;1OGA E W 160;24.1821
1OGA E W 159;1OGA E V 161;0.814469
1OGA E W 159;1OGA E E 165;9.22539
1OGA E W 159;1OGA E V 166;22.5424
1OGA E W 159;1OGA E V 170;20.0728
1OGA E W 159;1OGA E T 172;0.084023
1OGA E W 159;1OGA E S 192;13.5364
1OGA E W 159;1OGA E R 193;7.02777
1OGA E W 159;1OGA E L 194;30.8174
1OGA E W 159;1OGA E F 208;5.74732
1OGA E W 159;1OGA E R 209;12.2427
1OGA E W 159;1OGA E C 210;15.5771
1OGA E W 160;1OGA E V 161;23.0935
1OGA E W 160;1OGA E N 162;1.12126
1OGA E W 160;1OGA E G 163;23.5989
1OGA E W 160;1OGA E K 164;11.1667
1OGA E W 160;1OGA E E 165;35.0913
1OGA E W 160;1OGA E V 166;1.16846
1OGA E W 160;1OGA E L 194;0.390588
1OGA E W 160;1OGA E H 207;2.33814
1OGA E W 160;1OGA E F 208;5.48603
1OGA E W 160;1OGA E R 209;52.7212
1OGA E W 160;1OGA E Q 211;24.269
1OGA E V 161;1OGA E N 162;31.4201
1OGA E V 161;1OGA E G 163;2.9278
1OGA E V 161;1OGA E K 164;19.8491
1OGA E V 161;1OGA E V 166;24.884
1OGA E V 161;1OGA E L 194;12.2212
1OGA E V 161;1OGA E V 196;2.72582
1OGA E V 161;1OGA E F 200;18.0351
1OGA E V 161;1OGA E N 206;1.61345
1OGA E V 161;1OGA E H 207;7.94966
1OGA E V 161;1OGA E F 208;14.6911
1OGA E N 162;1OGA E G 163;26.5706
1OGA E N 162;1OGA E K 164;5.83635
1OGA E N 162;1OGA E F 200;6.77526
1OGA E N 162;1OGA E R 205;7.57189
1OGA E N 162;1OGA E N 206;17.6938
1OGA E N 162;1OGA E H 207;27.403
1OGA E G 163;1OGA E K 164;22.7752
1OGA E G 163;1OGA E H 207;5.64746
1OGA E K 164;1OGA E E 165;34.365
1OGA E K 164;1OGA E V 166;21.0534
1OGA E E 165;1OGA E V 166;25.7244
1OGA E E 165;1OGA E H 167;33.1209
1OGA E V 166;1OGA E H 167;30.9711
1OGA E V 166;1OGA E S 168;19.3128
1OGA E V 166;1OGA E V 170;12.0066
1OGA E V 166;1OGA E L 194;8.41624
1OGA E H 167;1OGA E S 168;25.0956
1OGA E H 167;1OGA E V 170;9.00387
1OGA E S 168;1OGA E G 169;19.0714
1OGA E S 168;1OGA E V 170;10.6145
1OGA E S 168;1OGA E L 194;8.68842
1OGA E S 168;1OGA E R 195;0.413939
1OGA E G 169;1OGA E V 170;17.4681
1OGA E G 169;1OGA E R 193;0.769662
1OGA E G 169;1OGA E L 194;7.46004
1OGA E G 169;1OGA E R 195;14.0658
1OGA E V 170;1OGA E S 171;25.7153
1OGA E V 170;1OGA E T 172;11.9538
1OGA E V 170;1OGA E S 192;3.63379
1OGA E V 170;1OGA E R 193;6.94317
1OGA E V 170;1OGA E L 194;10.2543
1OGA E S 171;1OGA E T 172;24.9331
1OGA E S 171;1OGA E S 192;5.5737
1OGA E S 171;1OGA E R 193;25.0751
1OGA E T 172;1OGA E D 173;29.1881
1OGA E T 172;1OGA E P 174;9.21808
1OGA E T 172;1OGA E L 190;13.2969
1OGA E T 172;1OGA E S 191;4.33351
1OGA E T 172;1OGA E S 192;14.7578
1OGA E T 172;1OGA E R 193;1.23907
1OGA E D 173;1OGA E P 174;29.5058
1OGA E D 173;1OGA E Q 175;14.1057
1OGA E D 173;1OGA E P 176;0.258476
1OGA E D 173;1OGA E L 177;1.90137
1OGA E D 173;1OGA E L 190;21.2774
1OGA E D 173;1OGA E S 191;23.086
1OGA E D 173;1OGA E R 193;12.0915
1OGA E P 174;1OGA E Q 175;47.1069
1OGA E P 174;1OGA E P 176;2.86634
1OGA E P 174;1OGA E L 190;0.531368
1OGA E Q 175;1OGA E P 176;41.9895
1OGA E Q 175;1OGA E L 177;4.93654
1OGA E Q 175;1OGA E L 190;4.85315
1OGA E P 176;1OGA E L 177;29.3869
1OGA E P 176;1OGA E K 178;1.09054
1OGA E P 176;1OGA E Y 188;17.2231
1OGA E P 176;1OGA E S 189;9.75104
1OGA E P 176;1OGA E L 190;18.5816
1OGA E L 177;1OGA E K 178;27.5586
1OGA E L 177;1OGA E E 179;5.256
1OGA E L 177;1OGA E R 187;0.222364
1OGA E L 177;1OGA E Y 188;9.44125
1OGA E L 177;1OGA E S 189;24.6513
1OGA E L 177;1OGA E L 190;0.0855074
1OGA E K 178;1OGA E E 179;16.0576
1OGA E K 178;1OGA E Q 180;4.99278
1OGA E K 178;1OGA E P 181;37.4392
1OGA E K 178;1OGA E L 183;6.67581
1OGA E K 178;1OGA E N 184;11.3145
1OGA E K 178;1OGA E S 186;14.8874
1OGA E K 178;1OGA E R 187;3.89771
1OGA E K 178;1OGA E Y 188;35.1397
1OGA E E 179;1OGA E Q 180;33.4769
1OGA E E 179;1OGA E P 181;3.57106
1OGA E E 179;1OGA E S 186;3.21237
1OGA E E 179;1OGA E R 187;27.6696
1OGA E E 179;1OGA E Y 188;7.2048
1OGA E E 179;1OGA E S 189;14.4449
1OGA E Q 180;1OGA E P 181;22.7844
1OGA E Q 180;1OGA E A 182;13.7664
1OGA E Q 180;1OGA E L 183;19.7739
1OGA E Q 180;1OGA E S 186;21.584
1OGA E Q 180;1OGA E R 187;1.66058
1OGA E P 181;1OGA E A 182;30.1616
1OGA E P 181;1OGA E L 183;5.43901
1OGA E A 182;1OGA E L 183;28.2946
1OGA E A 182;1OGA E N 184;4.69342
1OGA E L 183;1OGA E N 184;30.1848
1OGA E L 183;1OGA E D 185;31.1857
1OGA E L 183;1OGA E S 186;20.1157
1OGA E N 184;1OGA E D 185;32.843
1OGA E N 184;1OGA E S 186;4.17954
1OGA E N 184;1OGA E Y 188;5.06302
1OGA E D 185;1OGA E S 186;19.9048
1OGA E D 185;1OGA E R 187;5.93539
1OGA E S 186;1OGA E R 187;27.8545
1OGA E S 186;1OGA E Y 188;11.6181
1OGA E R 187;1OGA E Y 188;19.6199
1OGA E Y 188;1OGA E S 189;16.6456
1OGA E S 189;1OGA E L 190;21.8487
1OGA E L 190;1OGA E S 191;26.0242
1OGA E L 190;1OGA E V 212;0.338281
1OGA E S 191;1OGA E S 192;19.5889
1OGA E S 191;1OGA E R 193;10.4355
1OGA E S 192;1OGA E R 193;27.9779
1OGA E R 193;1OGA E L 194;17.1911
1OGA E L 194;1OGA E R 195;22.7632
1OGA E L 194;1OGA E V 196;14.9735
1OGA E L 194;1OGA E F 208;11.4941
1OGA E R 195;1OGA E V 196;25.8084
1OGA E V 196;1OGA E S 197;26.7194
1OGA E V 196;1OGA E A 198;0.00771875
1OGA E V 196;1OGA E F 200;19.925
1OGA E V 196;1OGA E W 201;10.3202
1OGA E V 196;1OGA E F 208;11.5167
1OGA E S 197;1OGA E A 198;17.8603
1OGA E S 197;1OGA E T 199;19.0388
1OGA E S 197;1OGA E F 200;18.6204
1OGA E S 197;1OGA E W 201;5.38531
1OGA E A 198;1OGA E T 199;19.5141
1OGA E A 198;1OGA E F 200;1.00507
1OGA E A 198;1OGA E W 201;9.34488
1OGA E A 198;1OGA E Q 202;20.5421
1OGA E T 199;1OGA E F 200;23.5716
1OGA E T 199;1OGA E W 201;0.529338
1OGA E T 199;1OGA E Q 202;21.9534
1OGA E T 199;1OGA E N 203;8.47964
1OGA E F 200;1OGA E W 201;18.7735
1OGA E F 200;1OGA E Q 202;1.51237
1OGA E F 200;1OGA E N 203;9.37931
1OGA E F 200;1OGA E N 206;34.63
1OGA E F 200;1OGA E F 208;13.8916
1OGA E F 200;1OGA E G 241;0.0831514
1OGA E W 201;1OGA E Q 202;21.5445
1OGA E W 201;1OGA E N 203;4.16702
1OGA E W 201;1OGA E N 206;0.0714336
1OGA E W 201;1OGA E F 208;20.3202
1OGA E W 201;1OGA E A 239;7.92323
1OGA E W 201;1OGA E W 240;8.77608
1OGA E W 201;1OGA E G 241;14.88
1OGA E W 201;1OGA E R 242;32.777
1OGA E Q 202;1OGA E N 203;18.2722
1OGA E Q 202;1OGA E P 204;7.46278
1OGA E Q 202;1OGA E R 242;14.2916
1OGA E Q 202;1OGA E A 243;11.7733
1OGA E Q 202;1OGA E D 244;35.088
1OGA E N 203;1OGA E P 204;23.9293
1OGA E N 203;1OGA E R 205;26.2383
1OGA E N 203;1OGA E N 206;29.1675
1OGA E N 203;1OGA E G 241;7.30271
1OGA E N 203;1OGA E R 242;0.446352
1OGA E P 204;1OGA E R 205;44.7171
1OGA E P 204;1OGA E N 206;4.00526
1OGA E P 204;1OGA E W 240;11.5422
1OGA E P 204;1OGA E G 241;16.8078
1OGA E P 204;1OGA E R 242;4.72567
1OGA E P 204;1OGA E A 243;22.6698
1OGA E R 205;1OGA E N 206;23.5293
1OGA E R 205;1OGA E H 207;5.55157
1OGA E R 205;1OGA E W 240;3.01644
1OGA E N 206;1OGA E H 207;17.7425
1OGA E N 206;1OGA E F 208;14.582
1OGA E N 206;1OGA E W 240;8.18558
1OGA E N 206;1OGA E G 241;9.15422
1OGA E H 207;1OGA E F 208;29.5669
1OGA E H 207;1OGA E R 209;14.6216
1OGA E H 207;1OGA E E 238;18.2534
1OGA E H 207;1OGA E A 239;6.27138
1OGA E H 207;1OGA E W 240;29.4291
1OGA E F 208;1OGA E R 209;21.4255
1OGA E F 208;1OGA E E 238;7.21875
1OGA E F 208;1OGA E A 239;22.801
1OGA E F 208;1OGA E W 240;2.87871
1OGA E F 208;1OGA E G 241;6.45783
1OGA E R 209;1OGA E C 210;21.5387
1OGA E R 209;1OGA E Q 211;24.004
1OGA E R 209;1OGA E I 234;2.36383
1OGA E R 209;1OGA E S 236;23.1373
1OGA E R 209;1OGA E A 237;7.68826
1OGA E R 209;1OGA E E 238;18.205
1OGA E C 210;1OGA E Q 211;20.0658
1OGA E C 210;1OGA E V 212;4.66316
1OGA E C 210;1OGA E V 235;0.413413
1OGA E C 210;1OGA E S 236;7.00629
1OGA E C 210;1OGA E A 237;12.3845
1OGA E Q 211;1OGA E V 212;21.8542
1OGA E Q 211;1OGA E Q 213;10.4936
1OGA E Q 211;1OGA E I 234;28.2824
1OGA E Q 211;1OGA E V 235;1.4851
1OGA E Q 211;1OGA E S 236;6.72684
1OGA E V 212;1OGA E Q 213;20.4804
1OGA E V 212;1OGA E F 214;5.36276
1OGA E V 212;1OGA E Q 233;1.56142
1OGA E V 212;1OGA E I 234;7.23328
1OGA E V 212;1OGA E V 235;19.8182
1OGA E Q 213;1OGA E F 214;23.1115
1OGA E Q 213;1OGA E Y 215;23.7681
1OGA E Q 213;1OGA E T 232;11.0623
1OGA E Q 213;1OGA E Q 233;11.0718
1OGA E Q 213;1OGA E I 234;27.305
1OGA E F 214;1OGA E Y 215;28.8558
1OGA E F 214;1OGA E G 216;9.79582
1OGA E F 214;1OGA E P 230;8.61326
1OGA E F 214;1OGA E V 231;6.47771
1OGA E F 214;1OGA E T 232;9.21462
1OGA E F 214;1OGA E Q 233;23.4267
1OGA E F 214;1OGA E V 235;1.54066
1OGA E Y 215;1OGA E G 216;20.618
1OGA E Y 215;1OGA E T 232;22.5302
1OGA E G 216;1OGA E L 217;24.7159
1OGA E G 216;1OGA E S 218;2.9684
1OGA E G 216;1OGA E P 230;2.6515
1OGA E G 216;1OGA E V 231;1.47
1OGA E G 216;1OGA E T 232;16.8628
1OGA E L 217;1OGA E S 218;27.9407
1OGA E L 217;1OGA E D 221;23.1578
1OGA E L 217;1OGA E E 222;2.20073
1OGA E L 217;1OGA E W 223;13.4091
1OGA E L 217;1OGA E K 229;10.8347
1OGA E L 217;1OGA E P 230;21.0031
1OGA E L 217;1OGA E V 231;18.1657
1OGA E L 217;1OGA E T 232;10.5389
1OGA E S 218;1OGA E E 219;30.3598
1OGA E S 218;1OGA E N 220;14.1841
1OGA E S 218;1OGA E D 221;21.3879
1OGA E S 218;1OGA E K 229;7.31706
1OGA E S 218;1OGA E V 231;3.3803
1OGA E E 219;1OGA E N 220;25.5118
1OGA E E 219;1OGA E D 221;8.40798
1OGA E E 219;1OGA E E 222;3.77035
1OGA E E 219;1OGA E K 229;17.5261
1OGA E E 219;1OGA E V 231;8.28647
1OGA E N 220;1OGA E D 221;31.9859
1OGA E N 220;1OGA E E 222;15.1792
1OGA E D 221;1OGA E E 222;29.0699
1OGA E D 221;1OGA E W 223;2.11244
1OGA E D 221;1OGA E K 229;12.5779
1OGA E E 222;1OGA E W 223;35.0334
1OGA E W 223;1OGA E T 224;29.7941
1OGA E W 223;1OGA E Q 225;29.7161
1OGA E W 223;1OGA E R 227;27.343
1OGA E W 223;1OGA E A 228;2.48732
1OGA E W 223;1OGA E K 229;33.6465
1OGA E W 223;1OGA E P 230;15.388
1OGA E T 224;1OGA E Q 225;35.1867
1OGA E T 224;1OGA E D 226;6.42846
1OGA E Q 225;1OGA E D 226;31.6306
1OGA E Q 225;1OGA E R 227;21.2959
1OGA E D 226;1OGA E R 227;32.948
1OGA E D 226;1OGA E A 228;2.38565
1OGA E R 227;1OGA E A 228;37.6983
1OGA E R 227;1OGA E K 229;1.26803
1OGA E R 227;1OGA E P 230;6.90449
1OGA E A 228;1OGA E K 229;29.5807
1OGA E A 228;1OGA E P 230;7.54365
1OGA E K 229;1OGA E P 230;19.232
1OGA E K 229;1OGA E V 231;33.6307
1OGA E K 229;1OGA E Q 233;3.88599
1OGA E P 230;1OGA E V 231;17.3749
1OGA E P 230;1OGA E Q 233;5.01044
1OGA E V 231;1OGA E T 232;29.1487
1OGA E V 231;1OGA E Q 233;23.2568
1OGA E T 232;1OGA E Q 233;24.0062
1OGA E Q 233;1OGA E I 234;31.9649
1OGA E Q 233;1OGA E V 235;18.1943
1OGA E I 234;1OGA E V 235;28.9725
1OGA E I 234;1OGA E S 236;10.1077
1OGA E V 235;1OGA E S 236;30.6076
1OGA E S 236;1OGA E A 237;25.2343
1OGA E S 236;1OGA E E 238;0.80556
1OGA E A 237;1OGA E E 238;27.5806
1OGA E E 238;1OGA E A 239;21.4658
1OGA E E 238;1OGA E W 240;29.0734
1OGA E A 239;1OGA E W 240;32.1198
1OGA E A 239;1OGA E R 242;1.31576
1OGA E W 240;1OGA E G 241;25.8228
1OGA E W 240;1OGA E R 242;16.6395
1OGA E G 241;1OGA E R 242;23.8408
1OGA E R 242;1OGA E A 243;29.3457
1OGA E R 242;1OGA E D 244;2.63185
1OGA E A 243;1OGA E D 244;33.271
1OGA E A 243;1OGA E Q 245;4.84749
1OGA E D 244;1OGA E Q 245;35.4762
