V1;V2;Weight
1TM1 I M 20;1TM1 I K 21;35.436
1TM1 I M 20;1TM1 I T 22;19.735
1TM1 I M 20;1TM1 I T 22;10.1719
1TM1 I M 20;1TM1 I I 63;10.0025
1TM1 I K 21;1TM1 I T 22;24.4139
1TM1 I K 21;1TM1 I E 23;16.2879
1TM1 I K 21;1TM1 I W 24;26.9175
1TM1 I K 21;1TM1 I P 25;1.6006
1TM1 I K 21;1TM1 I E 26;21.7803
1TM1 I K 21;1TM1 I V 38;0.0217271
1TM1 I K 21;1TM1 I D 42;23.8621
1TM1 I K 21;1TM1 I K 43;4.26752
1TM1 I K 21;1TM1 I V 82;2.6706
1TM1 I T 22;1TM1 I E 23;34.2891
1TM1 I T 22;1TM1 I W 24;7.66637
1TM1 I T 22;1TM1 I Y 61;2.33134
1TM1 I T 22;1TM1 I R 81;6.58875
1TM1 I T 22;1TM1 I V 82;15.346
1TM1 I T 22;1TM1 I V 82;13.9889
1TM1 I E 23;1TM1 I W 24;22.5664
1TM1 I E 23;1TM1 I P 25;14.9901
1TM1 I E 23;1TM1 I V 79;14.2114
1TM1 I E 23;1TM1 I P 80;4.22128
1TM1 I E 23;1TM1 I R 81;17.5894
1TM1 I W 24;1TM1 I P 25;17.6837
1TM1 I W 24;1TM1 I E 26;16.2233
1TM1 I W 24;1TM1 I L 27;21.9072
1TM1 I W 24;1TM1 I V 28;1.42811
1TM1 I W 24;1TM1 I V 38;8.19633
1TM1 I W 24;1TM1 I I 39;25.8522
1TM1 I W 24;1TM1 I D 42;17.9665
1TM1 I W 24;1TM1 I K 43;11.2906
1TM1 I W 24;1TM1 I V 66;11.6234
1TM1 I W 24;1TM1 I V 79;4.33982
1TM1 I W 24;1TM1 I P 80;27.5862
1TM1 I W 24;1TM1 I R 81;4.80383
1TM1 I W 24;1TM1 I V 82;1.95644
1TM1 I W 24;1TM1 I V 82;7.68156
1TM1 I P 25;1TM1 I E 26;33.92
1TM1 I P 25;1TM1 I L 27;2.34993
1TM1 I P 25;1TM1 I V 28;17.6676
1TM1 I P 25;1TM1 I V 79;24.5563
1TM1 I P 25;1TM1 I P 80;0.0521133
1TM1 I E 26;1TM1 I L 27;29.3643
1TM1 I E 26;1TM1 I V 28;6.96281
1TM1 I E 26;1TM1 I K 30;14.4841
1TM1 I E 26;1TM1 I V 38;7.14221
1TM1 I E 26;1TM1 I D 42;0.0393343
1TM1 I L 27;1TM1 I V 28;17.9114
1TM1 I L 27;1TM1 I G 29;0.695674
1TM1 I L 27;1TM1 I K 30;25.4766
1TM1 I L 27;1TM1 I E 34;8.59965
1TM1 I L 27;1TM1 I A 35;20.1849
1TM1 I L 27;1TM1 I V 38;21.1381
1TM1 I L 27;1TM1 I I 39;10.2361
1TM1 I L 27;1TM1 I I 76;12.6538
1TM1 I L 27;1TM1 I P 80;10.8024
1TM1 I V 28;1TM1 I G 29;25.5639
1TM1 I V 28;1TM1 I K 30;7.63537
1TM1 I V 28;1TM1 I I 76;14.1201
1TM1 I V 28;1TM1 I A 77;10.6626
1TM1 I V 28;1TM1 I Q 78;9.25332
1TM1 I V 28;1TM1 I V 79;17.5756
1TM1 I V 28;1TM1 I P 80;4.17038
1TM1 I G 29;1TM1 I K 30;27.3358
1TM1 I G 29;1TM1 I S 31;0.294743
1TM1 I G 29;1TM1 I N 75;15.1574
1TM1 I G 29;1TM1 I I 76;13.9012
1TM1 I K 30;1TM1 I S 31;27.8231
1TM1 I K 30;1TM1 I V 32;0.106417
1TM1 I K 30;1TM1 I E 34;33.0692
1TM1 I K 30;1TM1 I A 35;2.8105
1TM1 I K 30;1TM1 I N 75;7.30111
1TM1 I K 30;1TM1 I I 76;12.4798
1TM1 I S 31;1TM1 I V 32;16.5813
1TM1 I S 31;1TM1 I E 33;20.126
1TM1 I S 31;1TM1 I E 34;21.1506
1TM1 I S 31;1TM1 I A 35;7.76673
1TM1 I S 31;1TM1 I D 74;3.72652
1TM1 I S 31;1TM1 I N 75;14.4073
1TM1 I S 31;1TM1 I I 76;3.33371
1TM1 I V 32;1TM1 I E 33;35.0829
1TM1 I V 32;1TM1 I E 34;0.498419
1TM1 I V 32;1TM1 I A 35;7.33756
1TM1 I V 32;1TM1 I K 36;23.6535
1TM1 I V 32;1TM1 I V 50;14.3004
1TM1 I V 32;1TM1 I L 68;9.69449
1TM1 I V 32;1TM1 I V 70;11.5113
1TM1 I V 32;1TM1 I D 74;29.1044
1TM1 I V 32;1TM1 I N 75;1.41866
1TM1 I V 32;1TM1 I I 76;10.7421
1TM1 I E 33;1TM1 I E 34;21.0783
1TM1 I E 33;1TM1 I A 35;0.914826
1TM1 I E 33;1TM1 I K 36;15.4247
1TM1 I E 33;1TM1 I K 37;11.5215
1TM1 I E 33;1TM1 I D 74;8.62319
1TM1 I E 34;1TM1 I A 35;17.4098
1TM1 I E 34;1TM1 I K 36;0.852579
1TM1 I E 34;1TM1 I K 37;15.3481
1TM1 I E 34;1TM1 I V 38;23.3515
1TM1 I A 35;1TM1 I K 36;16.3907
1TM1 I A 35;1TM1 I K 37;0.892484
1TM1 I A 35;1TM1 I V 38;4.99316
1TM1 I A 35;1TM1 I I 39;14.928
1TM1 I A 35;1TM1 I L 68;9.05724
1TM1 I A 35;1TM1 I I 76;12.6049
1TM1 I A 35;1TM1 I P 80;1.36166
1TM1 I K 36;1TM1 I K 37;20.565
1TM1 I K 36;1TM1 I V 38;0.777235
1TM1 I K 36;1TM1 I I 39;6.01204
1TM1 I K 36;1TM1 I L 40;20.2701
1TM1 I K 36;1TM1 I I 48;24.1367
1TM1 I K 36;1TM1 I V 50;15.8686
1TM1 I K 36;1TM1 I L 68;11.0457
1TM1 I K 37;1TM1 I V 38;23.2568
1TM1 I K 37;1TM1 I I 39;0.573848
1TM1 I K 37;1TM1 I L 40;11.3355
1TM1 I K 37;1TM1 I Q 41;33.5482
1TM1 I V 38;1TM1 I I 39;18.6137
1TM1 I V 38;1TM1 I L 40;0.947183
1TM1 I V 38;1TM1 I Q 41;23.2658
1TM1 I V 38;1TM1 I D 42;17.7505
1TM1 I I 39;1TM1 I L 40;17.5053
1TM1 I I 39;1TM1 I Q 41;1.12569
1TM1 I I 39;1TM1 I D 42;6.77767
1TM1 I I 39;1TM1 I K 43;14.2153
1TM1 I I 39;1TM1 I A 46;7.38044
1TM1 I I 39;1TM1 I I 48;14.0007
1TM1 I I 39;1TM1 I V 66;17.2108
1TM1 I I 39;1TM1 I L 68;12.3627
1TM1 I I 39;1TM1 I P 80;6.47164
1TM1 I L 40;1TM1 I Q 41;21.9071
1TM1 I L 40;1TM1 I D 42;0.70867
1TM1 I L 40;1TM1 I K 43;9.04933
1TM1 I L 40;1TM1 I P 44;30.8246
1TM1 I L 40;1TM1 I A 46;16.2943
1TM1 I L 40;1TM1 I I 48;17.33
1TM1 I Q 41;1TM1 I D 42;29.6945
1TM1 I Q 41;1TM1 I K 43;0.926683
1TM1 I Q 41;1TM1 I P 44;10.4351
1TM1 I D 42;1TM1 I K 43;23.5814
1TM1 I D 42;1TM1 I P 44;7.21316
1TM1 I K 43;1TM1 I P 44;21.5892
1TM1 I K 43;1TM1 I A 45;7.61839
1TM1 I K 43;1TM1 I A 46;25.7561
1TM1 I K 43;1TM1 I I 63;14.6319
1TM1 I K 43;1TM1 I D 64;13.8907
1TM1 I K 43;1TM1 I R 65;1.84491
1TM1 I K 43;1TM1 I V 66;8.86163
1TM1 I K 43;1TM1 I V 82;17.027
1TM1 I P 44;1TM1 I A 45;28.6175
1TM1 I P 44;1TM1 I A 46;3.22426
1TM1 I A 45;1TM1 I A 46;22.194
1TM1 I A 45;1TM1 I Q 47;0.837057
1TM1 I A 45;1TM1 I Q 47;15.021
1TM1 I A 45;1TM1 I D 64;7.10281
1TM1 I A 46;1TM1 I Q 47;18.191
1TM1 I A 46;1TM1 I Q 47;6.88113
1TM1 I A 46;1TM1 I I 48;14.4714
1TM1 I A 46;1TM1 I D 64;6.09739
1TM1 I A 46;1TM1 I V 66;7.4274
1TM1 I Q 47;1TM1 I I 48;24.5168
1TM1 I Q 47;1TM1 I I 49;2.92517
1TM1 I Q 47;1TM1 I I 49;0.0218942
1TM1 I Q 47;1TM1 I D 64;7.87503
1TM1 I Q 47;1TM1 I D 64;2.88186
1TM1 I Q 47;1TM1 I R 65;17.718
1TM1 I Q 47;1TM1 I V 66;7.39531
1TM1 I Q 47;1TM1 I D 64;5.97689
1TM1 I Q 47;1TM1 I D 64;11.5581
1TM1 I I 48;1TM1 I I 49;29.7895
1TM1 I I 48;1TM1 I I 49;0.240016
1TM1 I I 48;1TM1 I V 50;7.06528
1TM1 I I 48;1TM1 I V 66;15.4845
1TM1 I I 48;1TM1 I L 68;13.9362
1TM1 I I 49;1TM1 I V 50;20.5757
1TM1 I I 49;1TM1 I L 51;3.09708
1TM1 I I 49;1TM1 I R 65;1.35852
1TM1 I I 49;1TM1 I V 66;5.28379
1TM1 I I 49;1TM1 I R 67;4.53716
1TM1 I I 49;1TM1 I L 68;9.22552
1TM1 I I 49;1TM1 I V 50;9.30595
1TM1 I I 49;1TM1 I L 51;18.6181
1TM1 I I 49;1TM1 I R 65;12.0679
1TM1 I I 49;1TM1 I V 66;0.489905
1TM1 I I 49;1TM1 I R 67;15.5699
1TM1 I V 50;1TM1 I L 51;31.6685
1TM1 I V 50;1TM1 I P 52;0.0512941
1TM1 I V 50;1TM1 I L 68;16.3065
1TM1 I V 50;1TM1 I V 70;15.9568
1TM1 I V 50;1TM1 I D 74;4.64683
1TM1 I L 51;1TM1 I P 52;33.4941
1TM1 I L 51;1TM1 I V 53;0.55181
1TM1 I L 51;1TM1 I T 55;3.42117
1TM1 I L 51;1TM1 I V 57;9.27305
1TM1 I L 51;1TM1 I R 67;14.2042
1TM1 I L 51;1TM1 I L 68;9.88913
1TM1 I L 51;1TM1 I F 69;20.5506
1TM1 I L 51;1TM1 I V 70;10.727
1TM1 I P 52;1TM1 I V 53;25.1264
1TM1 I P 52;1TM1 I G 54;0.216048
1TM1 I P 52;1TM1 I T 55;31.2129
1TM1 I P 52;1TM1 I F 69;6.32862
1TM1 I P 52;1TM1 I V 70;13.1954
1TM1 I V 53;1TM1 I G 54;34.0484
1TM1 I V 53;1TM1 I T 55;4.22686
1TM1 I V 53;1TM1 I F 69;16.3663
1TM1 I V 53;1TM1 I V 70;14.5566
1TM1 I V 53;1TM1 I D 71;13.0966
1TM1 I V 53;1TM1 I A 77;21.2621
1TM1 I V 53;1TM1 I Q 78;14.3748
1TM1 I G 54;1TM1 I T 55;28.8496
1TM1 I G 54;1TM1 I F 69;1.35869
1TM1 I G 54;1TM1 I Q 78;0.955306
1TM1 I T 55;1TM1 I I 56;21.2915
1TM1 I T 55;1TM1 I V 57;10.0152
1TM1 I T 55;1TM1 I F 69;9.75628
1TM1 I I 56;1TM1 I V 57;22.2906
1TM1 I V 57;1TM1 I T 58;21.9259
1TM1 I V 57;1TM1 I M 59;15.3943
1TM1 I V 57;1TM1 I R 67;19.7063
1TM1 I V 57;1TM1 I F 69;17.7211
1TM1 I T 58;1TM1 I M 59;22.553
1TM1 I T 58;1TM1 I E 60;19.3803
1TM1 I T 58;1TM1 I R 65;2.06016
1TM1 I T 58;1TM1 I R 67;19.8225
1TM1 I M 59;1TM1 I E 60;16.6534
1TM1 I M 59;1TM1 I R 67;1.19033
1TM1 I M 59;1TM1 I R 81;5.95155
1TM1 I E 60;1TM1 I Y 61;19.2423
1TM1 I E 60;1TM1 I R 62;25.2035
1TM1 I E 60;1TM1 I R 65;23.9708
1TM1 I E 60;1TM1 I R 67;2.46878
1TM1 I E 60;1TM1 I G 83;4.9467
1TM1 I Y 61;1TM1 I R 62;26.9832
1TM1 I Y 61;1TM1 I I 63;23.838
1TM1 I Y 61;1TM1 I R 65;0.0200072
1TM1 I Y 61;1TM1 I R 81;7.14848
1TM1 I Y 61;1TM1 I V 82;10.3535
1TM1 I Y 61;1TM1 I V 82;8.91752
1TM1 I Y 61;1TM1 I G 83;16.0774
1TM1 I R 62;1TM1 I I 63;20.4127
1TM1 I R 62;1TM1 I D 64;2.3289
1TM1 I R 62;1TM1 I D 64;19.4583
1TM1 I R 62;1TM1 I R 65;38.7345
1TM1 I R 62;1TM1 I V 82;1.40467
1TM1 I R 62;1TM1 I G 83;17.2084
1TM1 I I 63;1TM1 I D 64;24.0773
1TM1 I I 63;1TM1 I D 64;4.21204
1TM1 I I 63;1TM1 I R 65;2.07969
1TM1 I I 63;1TM1 I V 82;20.2702
1TM1 I I 63;1TM1 I G 83;0.358792
1TM1 I D 64;1TM1 I R 65;17.5407
1TM1 I D 64;1TM1 I V 66;0.571046
1TM1 I D 64;1TM1 I R 65;4.81895
1TM1 I R 65;1TM1 I V 66;24.7394
1TM1 I R 65;1TM1 I R 67;33.9603
1TM1 I R 65;1TM1 I R 81;0.216066
1TM1 I R 65;1TM1 I V 82;3.79812
1TM1 I R 65;1TM1 I V 82;3.09616
1TM1 I R 65;1TM1 I G 83;28.0273
1TM1 I V 66;1TM1 I R 67;23.7754
1TM1 I V 66;1TM1 I L 68;8.51013
1TM1 I V 66;1TM1 I P 80;5.74049
1TM1 I V 66;1TM1 I R 81;13.3803
1TM1 I V 66;1TM1 I V 82;3.32066
1TM1 I V 66;1TM1 I V 82;4.91403
1TM1 I V 66;1TM1 I G 83;0.797172
1TM1 I R 67;1TM1 I L 68;23.2911
1TM1 I R 67;1TM1 I F 69;28.5832
1TM1 I R 67;1TM1 I P 80;8.46658
1TM1 I R 67;1TM1 I R 81;12.7696
1TM1 I R 67;1TM1 I G 83;10.554
1TM1 I L 68;1TM1 I F 69;23.6022
1TM1 I L 68;1TM1 I V 70;6.10354
1TM1 I L 68;1TM1 I I 76;14.7372
1TM1 I L 68;1TM1 I P 80;14.3689
1TM1 I F 69;1TM1 I V 70;17.3438
1TM1 I F 69;1TM1 I I 76;10.4269
1TM1 I F 69;1TM1 I A 77;8.70942
1TM1 I F 69;1TM1 I Q 78;42.6621
1TM1 I F 69;1TM1 I V 79;0.127277
1TM1 I F 69;1TM1 I P 80;0.208885
1TM1 I V 70;1TM1 I D 71;28.5713
1TM1 I V 70;1TM1 I D 74;21.0096
1TM1 I V 70;1TM1 I N 75;9.39641
1TM1 I V 70;1TM1 I I 76;9.75836
1TM1 I V 70;1TM1 I A 77;2.48392
1TM1 I D 71;1TM1 I R 72;31.3828
1TM1 I D 71;1TM1 I L 73;18.7023
1TM1 I D 71;1TM1 I D 74;10.3374
1TM1 I D 71;1TM1 I N 75;26.7987
1TM1 I D 71;1TM1 I I 76;1.51485
1TM1 I D 71;1TM1 I A 77;15.4918
1TM1 I R 72;1TM1 I L 73;57.4592
1TM1 I R 72;1TM1 I D 74;4.13908
1TM1 I L 73;1TM1 I D 74;26.3436
1TM1 I L 73;1TM1 I N 75;26.2111
1TM1 I D 74;1TM1 I N 75;20.527
1TM1 I N 75;1TM1 I I 76;21.5869
1TM1 I N 75;1TM1 I A 77;2.82186
1TM1 I I 76;1TM1 I A 77;21.0467
1TM1 I I 76;1TM1 I Q 78;11.0139
1TM1 I I 76;1TM1 I P 80;11.9582
1TM1 I A 77;1TM1 I Q 78;26.2584
1TM1 I Q 78;1TM1 I V 79;33.7993
1TM1 I Q 78;1TM1 I P 80;7.49189
1TM1 I V 79;1TM1 I P 80;28.8189
1TM1 I V 79;1TM1 I R 81;12.1525
1TM1 I P 80;1TM1 I R 81;20.2265
1TM1 I R 81;1TM1 I V 82;33.2565
1TM1 I R 81;1TM1 I G 83;15.413
1TM1 I V 82;1TM1 I G 83;14.372
1TM1 I V 82;1TM1 I G 83;4.97171
