V1;V2;Weight
1U7F A E 228;1U7F A P 229;46.3741
1U7F A E 228;1U7F A A 230;1.84543
1U7F A E 228;1U7F A Y 298;12.6779
1U7F A E 228;1U7F A G 300;0.348631
1U7F A E 228;1U7F A Q 405;5.52921
1U7F A E 228;1U7F A W 406;16.6362
1U7F A P 229;1U7F A A 230;32.645
1U7F A P 229;1U7F A F 231;12.8701
1U7F A P 229;1U7F A W 232;10.0126
1U7F A P 229;1U7F A N 401;13.6075
1U7F A P 229;1U7F A G 402;14.3303
1U7F A P 229;1U7F A Q 405;18.8872
1U7F A P 229;1U7F A W 406;4.69969
1U7F A A 230;1U7F A F 231;40.1859
1U7F A A 230;1U7F A W 232;3.13709
1U7F A A 230;1U7F A A 250;0.065906
1U7F A A 230;1U7F A S 251;15.0266
1U7F A F 231;1U7F A W 232;16.6427
1U7F A F 231;1U7F A C 233;8.14581
1U7F A F 231;1U7F A H 249;38.7454
1U7F A F 231;1U7F A A 250;13.0014
1U7F A F 231;1U7F A S 251;17.3592
1U7F A F 231;1U7F A N 401;17.8909
1U7F A W 232;1U7F A C 233;35.8131
1U7F A W 232;1U7F A A 250;16.9022
1U7F A W 232;1U7F A S 251;7.3349
1U7F A W 232;1U7F A Q 252;10.7685
1U7F A W 232;1U7F A P 253;13.498
1U7F A W 232;1U7F A S 254;0.142826
1U7F A W 232;1U7F A M 255;10.7363
1U7F A W 232;1U7F A L 296;13.566
1U7F A W 232;1U7F A Y 297;5.36588
1U7F A W 232;1U7F A Y 298;42.3498
1U7F A W 232;1U7F A V 303;16.0526
1U7F A W 232;1U7F A L 398;4.41547
1U7F A W 232;1U7F A L 400;18.0358
1U7F A W 232;1U7F A N 401;9.81789
1U7F A W 232;1U7F A G 402;6.36594
1U7F A W 232;1U7F A P 403;0.909588
1U7F A C 233;1U7F A S 234;22.3956
1U7F A C 233;1U7F A I 235;9.2409
1U7F A C 233;1U7F A H 249;3.50772
1U7F A C 233;1U7F A A 250;18.3963
1U7F A C 233;1U7F A M 255;5.66302
1U7F A C 233;1U7F A L 296;1.09527
1U7F A C 233;1U7F A L 398;11.5643
1U7F A C 233;1U7F A H 399;10.1289
1U7F A C 233;1U7F A L 400;7.73473
1U7F A C 233;1U7F A N 401;10.9588
1U7F A S 234;1U7F A I 235;21.228
1U7F A S 234;1U7F A S 236;1.77126
1U7F A S 234;1U7F A T 247;12.0198
1U7F A S 234;1U7F A F 248;6.39112
1U7F A S 234;1U7F A H 249;16.6605
1U7F A S 234;1U7F A A 250;0.271943
1U7F A S 234;1U7F A E 397;2.62393
1U7F A S 234;1U7F A L 398;4.90714
1U7F A S 234;1U7F A H 399;27.8189
1U7F A S 234;1U7F A N 401;9.84153
1U7F A I 235;1U7F A S 236;22.7929
1U7F A I 235;1U7F A E 246;0.322479
1U7F A I 235;1U7F A T 247;8.92876
1U7F A I 235;1U7F A F 248;26.3149
1U7F A I 235;1U7F A A 250;1.95849
1U7F A I 235;1U7F A M 255;12.7065
1U7F A I 235;1U7F A V 257;13.107
1U7F A I 235;1U7F A F 269;20.3532
1U7F A I 235;1U7F A L 296;8.0449
1U7F A I 235;1U7F A I 396;13.6212
1U7F A I 235;1U7F A E 397;7.34544
1U7F A I 235;1U7F A L 398;15.0145
1U7F A S 236;1U7F A Y 237;18.7416
1U7F A S 236;1U7F A Y 238;17.0579
1U7F A S 236;1U7F A R 243;16.7594
1U7F A S 236;1U7F A E 246;0.179257
1U7F A S 236;1U7F A T 247;16.2742
1U7F A S 236;1U7F A F 269;1.13476
1U7F A S 236;1U7F A W 395;0.011291
1U7F A S 236;1U7F A I 396;8.4075
1U7F A S 236;1U7F A E 397;23.76
1U7F A Y 237;1U7F A Y 238;30.7945
1U7F A Y 237;1U7F A E 239;17.0258
1U7F A Y 237;1U7F A R 243;14.9537
1U7F A Y 237;1U7F A V 244;28.6633
1U7F A Y 237;1U7F A E 246;0.0602321
1U7F A Y 237;1U7F A F 269;12.945
1U7F A Y 237;1U7F A L 271;28.8857
1U7F A Y 237;1U7F A L 274;14.2433
1U7F A Y 237;1U7F A R 279;0.866934
1U7F A Y 237;1U7F A V 283;0.140368
1U7F A Y 237;1U7F A R 287;12.8414
1U7F A Y 237;1U7F A I 290;3.48729
1U7F A Y 237;1U7F A F 376;1.69751
1U7F A Y 237;1U7F A C 394;13.2049
1U7F A Y 237;1U7F A W 395;7.04981
1U7F A Y 237;1U7F A I 396;13.8372
1U7F A Y 238;1U7F A E 239;20.6462
1U7F A Y 238;1U7F A L 240;4.12724
1U7F A Y 238;1U7F A N 241;4.9731
1U7F A Y 238;1U7F A Q 242;10.7199
1U7F A Y 238;1U7F A R 243;33.6379
1U7F A Y 238;1U7F A V 244;3.90783
1U7F A Y 238;1U7F A P 393;0.000943246
1U7F A Y 238;1U7F A C 394;3.82749
1U7F A Y 238;1U7F A W 395;47.8461
1U7F A Y 238;1U7F A I 396;1.18787
1U7F A Y 238;1U7F A E 397;16.9366
1U7F A E 239;1U7F A L 240;31.2936
1U7F A E 239;1U7F A N 241;0.320195
1U7F A E 239;1U7F A Q 242;20.4107
1U7F A E 239;1U7F A V 244;15.9754
1U7F A E 239;1U7F A N 276;17.2332
1U7F A E 239;1U7F A R 279;13.7936
1U7F A E 239;1U7F A V 283;16.8831
1U7F A E 239;1U7F A R 287;5.10802
1U7F A E 239;1U7F A P 393;9.59282
1U7F A E 239;1U7F A C 394;2.73101
1U7F A E 239;1U7F A W 395;0.296001
1U7F A L 240;1U7F A N 241;25.7221
1U7F A L 240;1U7F A Q 242;3.78598
1U7F A L 240;1U7F A N 276;0.155834
1U7F A L 240;1U7F A N 280;12.671
1U7F A L 240;1U7F A A 282;0.682115
1U7F A L 240;1U7F A V 283;15.0751
1U7F A L 240;1U7F A T 390;18.3334
1U7F A L 240;1U7F A S 391;13.2948
1U7F A L 240;1U7F A T 392;11.8001
1U7F A L 240;1U7F A P 393;15.2122
1U7F A L 240;1U7F A W 395;14.8185
1U7F A N 241;1U7F A Q 242;30.7985
1U7F A N 241;1U7F A R 243;0.617134
1U7F A N 241;1U7F A T 390;22.9152
1U7F A N 241;1U7F A W 395;0.569596
1U7F A Q 242;1U7F A R 243;33.0054
1U7F A Q 242;1U7F A V 244;14.5973
1U7F A Q 242;1U7F A N 276;17.7525
1U7F A Q 242;1U7F A V 277;0.228659
1U7F A Q 242;1U7F A N 278;19.3952
1U7F A Q 242;1U7F C Q 242;1.43289
1U7F A R 243;1U7F A V 244;31.4579
1U7F A R 243;1U7F A G 245;14.5509
1U7F A R 243;1U7F A E 246;7.59838
1U7F A R 243;1U7F A T 247;14.1975
1U7F A R 243;1U7F A F 269;0.177145
1U7F A V 244;1U7F A G 245;29.1948
1U7F A V 244;1U7F A E 246;0.326301
1U7F A V 244;1U7F A F 269;0.169393
1U7F A V 244;1U7F A L 274;13.754
1U7F A V 244;1U7F A S 275;11.9554
1U7F A V 244;1U7F A N 276;13.81
1U7F A V 244;1U7F A R 279;3.71772
1U7F A G 245;1U7F A E 246;28.0808
1U7F A G 245;1U7F A L 274;17.3875
1U7F A G 245;1U7F A S 275;2.33271
1U7F A G 245;1U7F C R 243;9.11408
1U7F A E 246;1U7F A T 247;29.8915
1U7F A E 246;1U7F A F 248;1.51574
1U7F A E 246;1U7F A F 269;13.9963
1U7F A E 246;1U7F A L 274;5.84339
1U7F A E 246;1U7F C R 243;1.89918
1U7F A E 246;1U7F C E 246;0.302276
1U7F A E 246;1U7F C T 247;30.4366
1U7F A E 246;1U7F C H 249;21.8357
1U7F A T 247;1U7F A F 248;26.781
1U7F A T 247;1U7F A H 249;22.4437
1U7F A F 248;1U7F A H 249;35.5517
1U7F A F 248;1U7F A A 250;11.885
1U7F A F 248;1U7F A M 255;11.7876
1U7F A F 248;1U7F A N 265;5.95025
1U7F A F 248;1U7F A S 266;15.6954
1U7F A F 248;1U7F A E 267;1.43577
1U7F A F 248;1U7F A R 268;10.0725
1U7F A F 248;1U7F A F 269;38.8373
1U7F A H 249;1U7F A A 250;15.821
1U7F A H 249;1U7F A S 251;4.96348
1U7F A H 249;1U7F A S 266;0.605908
1U7F A H 249;1U7F A N 401;2.52903
1U7F A A 250;1U7F A S 251;20.184
1U7F A A 250;1U7F A Q 252;4.52103
1U7F A A 250;1U7F A M 255;15.5958
1U7F A A 250;1U7F A S 266;2.11002
1U7F A S 251;1U7F A Q 252;39.5331
1U7F A S 251;1U7F A P 253;5.16277
1U7F A S 251;1U7F A S 266;15.8504
1U7F A Q 252;1U7F A P 253;33.4981
1U7F A Q 252;1U7F A S 254;13.8682
1U7F A Q 252;1U7F A M 255;9.16761
1U7F A Q 252;1U7F A S 266;24.7283
1U7F A Q 252;1U7F A E 267;21.1515
1U7F A P 253;1U7F A S 254;30.5506
1U7F A P 253;1U7F A M 255;0.00878513
1U7F A P 253;1U7F A L 296;1.08331
1U7F A P 253;1U7F A Y 297;3.27551
1U7F A P 253;1U7F A Y 298;28.2553
1U7F A P 253;1U7F A I 299;2.06725
1U7F A S 254;1U7F A M 255;26.047
1U7F A S 254;1U7F A E 267;10.6182
1U7F A S 254;1U7F A R 295;10.5332
1U7F A S 254;1U7F A L 296;6.12581
1U7F A S 254;1U7F A Y 297;21.8305
1U7F A S 254;1U7F A I 299;0.53444
1U7F A M 255;1U7F A T 256;30.448
1U7F A M 255;1U7F A V 257;3.65423
1U7F A M 255;1U7F A S 266;3.54102
1U7F A M 255;1U7F A E 267;18.4134
1U7F A M 255;1U7F A R 268;0.0436514
1U7F A M 255;1U7F A F 269;3.33385
1U7F A M 255;1U7F A R 295;8.37402
1U7F A M 255;1U7F A L 296;30.6601
1U7F A T 256;1U7F A V 257;20.8862
1U7F A T 256;1U7F A D 258;13.4912
1U7F A T 256;1U7F A E 267;9.52654
1U7F A T 256;1U7F A R 268;16.9502
1U7F A T 256;1U7F A F 269;9.43988
1U7F A T 256;1U7F A R 292;7.01696
1U7F A T 256;1U7F A V 294;8.12861
1U7F A T 256;1U7F A R 295;18.1567
1U7F A T 256;1U7F A L 296;1.75057
1U7F A T 256;1U7F A L 308;11.5338
1U7F A V 257;1U7F A D 258;18.3298
1U7F A V 257;1U7F A F 269;23.1492
1U7F A V 257;1U7F A L 271;13.5279
1U7F A V 257;1U7F A I 290;0.737384
1U7F A V 257;1U7F A R 292;1.05754
1U7F A V 257;1U7F A G 293;4.40599
1U7F A V 257;1U7F A V 294;23.3852
1U7F A V 257;1U7F A L 296;10.9678
1U7F A V 257;1U7F A F 376;12.1969
1U7F A V 257;1U7F A I 396;14.3867
1U7F A D 258;1U7F A G 259;15.637
1U7F A D 258;1U7F A F 260;18.2004
1U7F A D 258;1U7F A R 268;16.6105
1U7F A D 258;1U7F A F 269;8.5446
1U7F A D 258;1U7F A C 270;12.9074
1U7F A D 258;1U7F A L 271;14.0673
1U7F A D 258;1U7F A G 272;0.0159661
1U7F A D 258;1U7F A I 290;6.19559
1U7F A D 258;1U7F A G 291;4.1256
1U7F A D 258;1U7F A R 292;12.3934
1U7F A D 258;1U7F A G 293;3.69748
1U7F A G 259;1U7F A F 260;25.0286
1U7F A G 259;1U7F A T 261;1.08644
1U7F A G 259;1U7F A L 271;4.31712
1U7F A G 259;1U7F A G 272;16.158
1U7F A G 259;1U7F A R 287;7.98547
1U7F A G 259;1U7F A I 290;14.6095
1U7F A G 259;1U7F A G 291;10.938
1U7F A G 259;1U7F C Y 364;10.1944
1U7F A G 259;1U7F C L 411;1.6548
1U7F A F 260;1U7F A T 261;21.0393
1U7F A F 260;1U7F A R 268;11.261
1U7F A F 260;1U7F A C 270;10.954
1U7F A F 260;1U7F A L 271;0.497816
1U7F A F 260;1U7F A G 272;8.41837
1U7F A F 260;1U7F A L 273;2.08519
1U7F A F 260;1U7F A G 291;20.1559
1U7F A F 260;1U7F A R 292;19.5685
1U7F A F 260;1U7F C F 360;8.90837
1U7F A F 260;1U7F C D 408;6.90998
1U7F A F 260;1U7F C L 411;29.0257
1U7F A F 260;1U7F C T 412;22.7302
1U7F A F 260;1U7F C G 415;4.06507
1U7F A T 261;1U7F A D 262;14.9856
1U7F A T 261;1U7F A P 263;4.97486
1U7F A T 261;1U7F A C 270;3.32357
1U7F A T 261;1U7F A G 272;9.28003
1U7F A T 261;1U7F A L 273;17.6563
1U7F A T 261;1U7F C Y 364;1.79355
1U7F A T 261;1U7F C T 367;10.6193
1U7F A T 261;1U7F C L 404;22.0626
1U7F A T 261;1U7F C Q 405;0.0567152
1U7F A T 261;1U7F C L 407;9.94168
1U7F A T 261;1U7F C D 408;16.0813
1U7F A T 261;1U7F C L 411;12.6059
1U7F A D 262;1U7F A P 263;25.2038
1U7F A D 262;1U7F A S 264;11.1198
1U7F A D 262;1U7F A N 265;22.6221
1U7F A D 262;1U7F A R 268;17.5607
1U7F A D 262;1U7F A C 270;22.7628
1U7F A D 262;1U7F A L 273;3.47641
1U7F A D 262;1U7F C L 404;0.0667734
1U7F A D 262;1U7F C Q 405;20.6021
1U7F A D 262;1U7F C D 408;18.3969
1U7F A P 263;1U7F A S 264;31.393
1U7F A P 263;1U7F A N 265;3.68979
1U7F A P 263;1U7F A R 268;0.035509
1U7F A P 263;1U7F A L 273;19.5824
1U7F A P 263;1U7F C N 401;29.5818
1U7F A P 263;1U7F C L 404;10.2987
1U7F A P 263;1U7F C Q 405;11.6933
1U7F A S 264;1U7F A N 265;28.5535
1U7F A S 264;1U7F A S 266;2.43767
1U7F A S 264;1U7F C N 401;1.69074
1U7F A S 264;1U7F C Q 405;17.0119
1U7F A N 265;1U7F A S 266;26.6049
1U7F A N 265;1U7F A E 267;23.3804
1U7F A N 265;1U7F A R 268;39.3063
1U7F A S 266;1U7F A E 267;22.3267
1U7F A S 266;1U7F A R 268;0.726203
1U7F A E 267;1U7F A R 268;25.648
1U7F A E 267;1U7F A F 269;0.000227243
1U7F A R 268;1U7F A F 269;17.7522
1U7F A R 268;1U7F A C 270;22.9939
1U7F A R 268;1U7F C D 408;16.8662
1U7F A R 268;1U7F C T 412;12.8749
1U7F A F 269;1U7F A C 270;27.2776
1U7F A F 269;1U7F A L 271;16.7895
1U7F A F 269;1U7F A L 274;15.0826
1U7F A F 269;1U7F A I 396;2.7231
1U7F A C 270;1U7F A L 271;16.5975
1U7F A C 270;1U7F A G 272;1.84715
1U7F A C 270;1U7F A L 273;17.462
1U7F A C 270;1U7F A L 274;4.95753
1U7F A C 270;1U7F C D 408;0.507148
1U7F A L 271;1U7F A G 272;16.5699
1U7F A L 271;1U7F A L 273;2.55047
1U7F A L 271;1U7F A L 274;20.1702
1U7F A L 271;1U7F A R 287;12.3055
1U7F A L 271;1U7F A I 290;16.4519
1U7F A L 271;1U7F A F 376;10.0955
1U7F A L 271;1U7F A I 396;4.86966
1U7F A G 272;1U7F A L 273;19.4051
1U7F A G 272;1U7F A L 274;2.34179
1U7F A G 272;1U7F A R 287;15.1454
1U7F A G 272;1U7F C Y 364;9.83915
1U7F A G 272;1U7F C T 367;11.5542
1U7F A L 273;1U7F A L 274;40.1187
1U7F A L 273;1U7F A S 275;4.00276
1U7F A L 273;1U7F C T 367;3.67922
1U7F A L 273;1U7F C H 399;21.072
1U7F A L 273;1U7F C L 404;21.3944
1U7F A L 274;1U7F A S 275;22.9
1U7F A L 274;1U7F A R 279;10.7329
1U7F A L 274;1U7F A R 287;9.7062
1U7F A L 274;1U7F C H 399;2.90533
1U7F A S 275;1U7F A N 276;27.1104
1U7F A S 275;1U7F A V 277;1.02107
1U7F A S 275;1U7F A R 279;8.70022
1U7F A S 275;1U7F C Y 238;13.7251
1U7F A S 275;1U7F C T 371;0.191774
1U7F A S 275;1U7F C R 373;8.26699
1U7F A S 275;1U7F C E 397;17.3231
1U7F A S 275;1U7F C H 399;15.1882
1U7F A N 276;1U7F A V 277;31.5432
1U7F A N 276;1U7F A N 278;16.3312
1U7F A N 276;1U7F A R 279;38.9487
1U7F A N 276;1U7F A V 283;0.261449
1U7F A N 276;1U7F C Y 238;1.34096
1U7F A N 276;1U7F C R 373;0.588845
1U7F A V 277;1U7F A N 278;32.49
1U7F A V 277;1U7F A R 279;6.56453
1U7F A V 277;1U7F C Y 238;24.8931
1U7F A V 277;1U7F C N 241;14.6686
1U7F A V 277;1U7F C R 373;16.8344
1U7F A V 277;1U7F C V 389;0.562936
1U7F A V 277;1U7F C T 390;18.4384
1U7F A V 277;1U7F C W 395;13.5752
1U7F A V 277;1U7F C E 397;0.0642409
1U7F A N 278;1U7F A R 279;22.1526
1U7F A N 278;1U7F A N 280;7.30646
1U7F A N 278;1U7F C N 241;29.8414
1U7F A N 278;1U7F C T 390;2.95141
1U7F A R 279;1U7F A N 280;32.1246
1U7F A R 279;1U7F A V 283;14.4595
1U7F A R 279;1U7F A E 284;32.0727
1U7F A R 279;1U7F A R 287;24.9687
1U7F A N 280;1U7F A A 281;27.564
1U7F A N 280;1U7F A A 282;17.5168
1U7F A N 280;1U7F A V 283;19.6336
1U7F A N 280;1U7F A E 284;9.54779
1U7F A A 281;1U7F A A 282;22.3012
1U7F A A 281;1U7F A V 283;0.976928
1U7F A A 281;1U7F A E 284;12.6625
1U7F A A 281;1U7F A L 285;21.8587
1U7F A A 282;1U7F A V 283;17.0154
1U7F A A 282;1U7F A E 284;0.518014
1U7F A A 282;1U7F A L 285;16.6956
1U7F A A 282;1U7F A T 286;11.6206
1U7F A A 282;1U7F A R 386;6.45455
1U7F A A 282;1U7F A P 393;13.1928
1U7F A V 283;1U7F A E 284;16.2878
1U7F A V 283;1U7F A L 285;1.51315
1U7F A V 283;1U7F A T 286;6.37266
1U7F A V 283;1U7F A R 287;16.8052
1U7F A V 283;1U7F A P 393;18.8715
1U7F A V 283;1U7F A C 394;6.96061
1U7F A E 284;1U7F A L 285;19.5363
1U7F A E 284;1U7F A T 286;0.319869
1U7F A E 284;1U7F A R 287;15.5753
1U7F A E 284;1U7F A R 288;34.8291
1U7F A E 284;1U7F C Y 364;8.17363
1U7F A E 284;1U7F C R 368;5.56402
1U7F A L 285;1U7F A T 286;19.458
1U7F A L 285;1U7F A R 287;1.22836
1U7F A L 285;1U7F A R 288;20.2997
1U7F A L 285;1U7F A H 289;12.7845
1U7F A L 285;1U7F C I 419;2.19761
1U7F A L 285;1U7F C C 421;13.2711
1U7F A T 286;1U7F A R 287;14.8452
1U7F A T 286;1U7F A R 288;1.80597
1U7F A T 286;1U7F A H 289;9.01819
1U7F A T 286;1U7F A I 290;8.15543
1U7F A T 286;1U7F A F 376;7.74202
1U7F A T 286;1U7F A V 377;17.2131
1U7F A T 286;1U7F A K 378;15.3829
1U7F A T 286;1U7F A P 393;14.8043
1U7F A T 286;1U7F A C 394;13.7523
1U7F A T 286;1U7F C C 421;6.02612
1U7F A R 287;1U7F A R 288;19.9855
1U7F A R 287;1U7F A H 289;1.7209
1U7F A R 287;1U7F A I 290;22.1981
1U7F A R 287;1U7F A G 291;2.0261
1U7F A R 287;1U7F A C 394;10.366
1U7F A R 287;1U7F C Y 364;28.4366
1U7F A R 288;1U7F A H 289;28.3082
1U7F A R 288;1U7F A I 290;1.12193
1U7F A R 288;1U7F A G 291;5.88946
1U7F A R 288;1U7F C F 360;20.3849
1U7F A R 288;1U7F C E 361;27.5066
1U7F A R 288;1U7F C Y 364;36.0159
1U7F A R 288;1U7F C Q 365;8.02184
1U7F A R 288;1U7F C P 417;18.206
1U7F A H 289;1U7F A I 290;18.4234
1U7F A H 289;1U7F A G 291;5.61329
1U7F A H 289;1U7F A S 309;8.25867
1U7F A H 289;1U7F A D 310;2.40648
1U7F A H 289;1U7F A S 311;15.3372
1U7F A H 289;1U7F A V 377;15.6875
1U7F A H 289;1U7F C P 417;19.6993
1U7F A H 289;1U7F C I 419;12.7849
1U7F A H 289;1U7F C R 420;16.9847
1U7F A H 289;1U7F C C 421;23.0676
1U7F A I 290;1U7F A G 291;22.7049
1U7F A I 290;1U7F A R 292;0.848527
1U7F A I 290;1U7F A G 293;11.1156
1U7F A I 290;1U7F A S 309;13.0386
1U7F A I 290;1U7F A F 376;27.8311
1U7F A I 290;1U7F A V 377;5.58583
1U7F A I 290;1U7F A C 394;10.5436
1U7F A G 291;1U7F A R 292;16.9773
1U7F A G 291;1U7F A G 293;3.14868
1U7F A G 291;1U7F A S 309;1.7853
1U7F A G 291;1U7F A D 310;1.43452
1U7F A R 292;1U7F A G 293;17.337
1U7F A R 292;1U7F A V 294;2.42295
1U7F A R 292;1U7F A R 295;15.9844
1U7F A R 292;1U7F A L 308;52.5404
1U7F A R 292;1U7F A S 309;4.36429
1U7F A R 292;1U7F C T 412;5.08466
1U7F A G 293;1U7F A V 294;18.4344
1U7F A G 293;1U7F A E 306;0.00387631
1U7F A G 293;1U7F A C 307;3.19766
1U7F A G 293;1U7F A L 308;9.47295
1U7F A G 293;1U7F A S 309;15.6466
1U7F A G 293;1U7F A I 313;3.38637
1U7F A G 293;1U7F A F 376;7.1193
1U7F A V 294;1U7F A R 295;21.5249
1U7F A V 294;1U7F A L 296;14.7768
1U7F A V 294;1U7F A A 305;7.47881
1U7F A V 294;1U7F A E 306;10.1125
1U7F A V 294;1U7F A C 307;0.969645
1U7F A V 294;1U7F A L 308;3.51583
1U7F A V 294;1U7F A I 313;16.7314
1U7F A V 294;1U7F A M 374;12.817
1U7F A V 294;1U7F A F 376;13.369
1U7F A V 294;1U7F A I 396;5.59502
1U7F A R 295;1U7F A L 296;21.0472
1U7F A R 295;1U7F A Y 297;31.6447
1U7F A R 295;1U7F A F 304;2.07404
1U7F A R 295;1U7F A A 305;4.37217
1U7F A R 295;1U7F A E 306;32.8207
1U7F A R 295;1U7F A L 308;28.4143
1U7F A L 296;1U7F A Y 297;20.635
1U7F A L 296;1U7F A V 303;5.79422
1U7F A L 296;1U7F A F 304;6.72926
1U7F A L 296;1U7F A A 305;6.84278
1U7F A L 296;1U7F A I 342;5.99024
1U7F A L 296;1U7F A M 374;11.1104
1U7F A L 296;1U7F A I 396;0.95142
1U7F A L 296;1U7F A L 398;16.7063
1U7F A Y 297;1U7F A Y 298;19.4056
1U7F A Y 297;1U7F A I 299;23.2301
1U7F A Y 297;1U7F A E 302;1.05759
1U7F A Y 297;1U7F A V 303;11.6415
1U7F A Y 297;1U7F A F 304;33.1905
1U7F A Y 297;1U7F A E 306;18.901
1U7F A Y 298;1U7F A I 299;26.9258
1U7F A Y 298;1U7F A G 300;18.2982
1U7F A Y 298;1U7F A G 301;6.0273
1U7F A Y 298;1U7F A E 302;12.2047
1U7F A Y 298;1U7F A V 303;14.2666
1U7F A Y 298;1U7F A F 343;0.96472
1U7F A Y 298;1U7F A N 345;20.2776
1U7F A Y 298;1U7F A L 400;1.8206
1U7F A Y 298;1U7F A G 402;4.59852
1U7F A Y 298;1U7F A P 403;5.66003
1U7F A I 299;1U7F A G 300;27.643
1U7F A I 299;1U7F A G 301;3.4391
1U7F A I 299;1U7F A E 302;23.887
1U7F A I 299;1U7F A F 304;18.7861
1U7F A G 300;1U7F A G 301;26.3152
1U7F A G 300;1U7F A E 302;0.514072
1U7F A G 300;1U7F A N 345;0.0428833
1U7F A G 301;1U7F A E 302;29.2545
1U7F A G 301;1U7F A V 303;0.0124145
1U7F A G 301;1U7F A F 343;1.44444
1U7F A G 301;1U7F A N 344;2.34009
1U7F A G 301;1U7F A N 345;31.1337
1U7F A G 301;1U7F A Q 346;0.0384581
1U7F A E 302;1U7F A V 303;20.2772
1U7F A E 302;1U7F A F 304;20.7433
1U7F A E 302;1U7F A K 341;27.664
1U7F A E 302;1U7F A F 343;7.7351
1U7F A E 302;1U7F A N 344;21.3853
1U7F A V 303;1U7F A F 304;25.1813
1U7F A V 303;1U7F A K 341;5.97122
1U7F A V 303;1U7F A I 342;22.4756
1U7F A V 303;1U7F A F 343;26.8177
1U7F A V 303;1U7F A I 372;0.859764
1U7F A V 303;1U7F A L 398;2.99406
1U7F A V 303;1U7F A L 400;12.5767
1U7F A F 304;1U7F A A 305;19.88
1U7F A F 304;1U7F A E 306;0.610623
1U7F A F 304;1U7F A N 339;15.7951
1U7F A F 304;1U7F A L 340;9.41432
1U7F A F 304;1U7F A K 341;30.6418
1U7F A F 304;1U7F A I 342;4.39523
1U7F A A 305;1U7F A E 306;17.7168
1U7F A A 305;1U7F A I 313;4.48917
1U7F A A 305;1U7F A V 315;2.74522
1U7F A A 305;1U7F A I 334;13.1337
1U7F A A 305;1U7F A N 339;8.06533
1U7F A A 305;1U7F A L 340;13.1274
1U7F A A 305;1U7F A I 342;15.3444
1U7F A A 305;1U7F A M 374;6.08342
1U7F A E 306;1U7F A C 307;20.25
1U7F A E 306;1U7F A L 308;20.218
1U7F A E 306;1U7F A I 313;3.37513
1U7F A E 306;1U7F A I 334;0.356898
1U7F A E 306;1U7F A G 337;12.383
1U7F A E 306;1U7F A C 338;6.27334
1U7F A E 306;1U7F A N 339;20.4795
1U7F A C 307;1U7F A L 308;23.0868
1U7F A C 307;1U7F A S 309;13.6906
1U7F A C 307;1U7F A S 311;6.28302
1U7F A C 307;1U7F A A 312;3.65325
1U7F A C 307;1U7F A I 313;18.799
1U7F A C 307;1U7F A I 334;11.8588
1U7F A C 307;1U7F A P 335;6.78182
1U7F A C 307;1U7F A P 336;9.27798
1U7F A C 307;1U7F A G 337;15.4899
1U7F A C 307;1U7F A C 338;8.39423
1U7F A L 308;1U7F A S 309;22.1136
1U7F A L 308;1U7F A D 310;8.06795
1U7F A S 309;1U7F A D 310;22.3653
1U7F A S 309;1U7F A S 311;19.1913
1U7F A S 309;1U7F A A 312;0.336461
1U7F A S 309;1U7F A I 313;5.54836
1U7F A S 309;1U7F A P 336;9.34845
1U7F A S 309;1U7F A F 376;3.92052
1U7F A S 309;1U7F A V 377;1.64016
1U7F A D 310;1U7F A S 311;23.3652
1U7F A D 310;1U7F A P 336;17.2706
1U7F A D 310;1U7F C S 416;18.093
1U7F A D 310;1U7F C R 420;14.8108
1U7F A S 311;1U7F A A 312;27.2043
1U7F A S 311;1U7F A I 313;1.61136
1U7F A S 311;1U7F A P 336;8.2809
1U7F A S 311;1U7F A V 377;20.3201
1U7F A S 311;1U7F C R 420;12.9538
1U7F A S 311;1U7F C C 421;3.03509
1U7F A A 312;1U7F A I 313;23.2925
1U7F A A 312;1U7F A F 314;14.1649
1U7F A A 312;1U7F A K 333;17.9883
1U7F A A 312;1U7F A I 334;5.87399
1U7F A A 312;1U7F A P 335;5.85819
1U7F A A 312;1U7F A P 336;10.2505
1U7F A A 312;1U7F A F 376;0.295629
1U7F A A 312;1U7F A V 377;15.712
1U7F A I 313;1U7F A F 314;25.0061
1U7F A I 313;1U7F A V 315;6.517
1U7F A I 313;1U7F A C 332;0.906265
1U7F A I 313;1U7F A K 333;3.94307
1U7F A I 313;1U7F A I 334;32.644
1U7F A I 313;1U7F A M 374;9.77527
1U7F A I 313;1U7F A S 375;9.02438
1U7F A I 313;1U7F A F 376;16.9961
1U7F A I 313;1U7F A V 377;0.618896
1U7F A F 314;1U7F A V 315;19.129
1U7F A F 314;1U7F A V 331;15.562
1U7F A F 314;1U7F A C 332;5.54268
1U7F A F 314;1U7F A K 333;25.1149
1U7F A F 314;1U7F A R 373;0.497219
1U7F A F 314;1U7F A M 374;6.58413
1U7F A F 314;1U7F A S 375;19.1838
1U7F A F 314;1U7F A F 376;0.146344
1U7F A F 314;1U7F A V 377;12.0351
1U7F A F 314;1U7F A K 378;8.28065
1U7F A F 314;1U7F A G 379;19.1812
1U7F A F 314;1U7F A W 380;12.6713
1U7F A F 314;1U7F A Y 384;20.9034
1U7F A V 315;1U7F A Q 316;20.2099
1U7F A V 315;1U7F A S 317;10.2371
1U7F A V 315;1U7F A C 320;0.464711
1U7F A V 315;1U7F A N 321;0.384397
1U7F A V 315;1U7F A T 330;1.33076
1U7F A V 315;1U7F A V 331;9.33816
1U7F A V 315;1U7F A C 332;22.6963
1U7F A V 315;1U7F A I 334;13.5617
1U7F A V 315;1U7F A L 340;6.27102
1U7F A V 315;1U7F A I 342;13.8139
1U7F A V 315;1U7F A I 372;9.72667
1U7F A V 315;1U7F A R 373;4.84135
1U7F A V 315;1U7F A M 374;19.4297
1U7F A V 315;1U7F A W 380;1.98709
1U7F A Q 316;1U7F A S 317;18.1303
1U7F A Q 316;1U7F A P 318;12.3577
1U7F A Q 316;1U7F A N 321;2.26413
1U7F A Q 316;1U7F A P 328;6.06223
1U7F A Q 316;1U7F A A 329;23.4332
1U7F A Q 316;1U7F A T 330;10.2242
1U7F A Q 316;1U7F A V 331;10.7817
1U7F A Q 316;1U7F A T 371;1.06224
1U7F A Q 316;1U7F A I 372;7.15271
1U7F A Q 316;1U7F A R 373;35.2578
1U7F A Q 316;1U7F A W 380;23.1321
1U7F A Q 316;1U7F A V 389;0.739019
1U7F A S 317;1U7F A P 318;20.6645
1U7F A S 317;1U7F A N 319;7.48206
1U7F A S 317;1U7F A C 320;17.5449
1U7F A S 317;1U7F A N 321;18.3517
1U7F A S 317;1U7F A P 328;0.122178
1U7F A S 317;1U7F A T 330;0.0216599
1U7F A S 317;1U7F A C 332;0.212255
1U7F A S 317;1U7F A I 342;12.4956
1U7F A S 317;1U7F A F 343;0.602364
1U7F A S 317;1U7F A M 369;0.187724
1U7F A S 317;1U7F A I 372;18.9252
1U7F A P 318;1U7F A N 319;19.3768
1U7F A P 318;1U7F A C 320;1.04893
1U7F A P 318;1U7F A N 321;8.61989
1U7F A P 318;1U7F A Q 322;13.2685
1U7F A P 318;1U7F A P 328;25.9756
1U7F A P 318;1U7F A R 368;16.1446
1U7F A P 318;1U7F A M 369;24.3279
1U7F A P 318;1U7F A T 371;9.45635
1U7F A P 318;1U7F A I 372;2.01303
1U7F A N 319;1U7F A C 320;18.3331
1U7F A N 319;1U7F A N 321;0.148508
1U7F A N 319;1U7F A Q 322;7.72927
1U7F A N 319;1U7F A R 323;15.7391
1U7F A N 319;1U7F A I 342;2.28473
1U7F A N 319;1U7F A F 343;21.5787
1U7F A N 319;1U7F A N 344;12.4044
1U7F A N 319;1U7F A E 347;17.8963
1U7F A N 319;1U7F A F 348;8.85956
1U7F A N 319;1U7F A M 369;28.9151
1U7F A N 319;1U7F A I 372;0.00902432
1U7F A C 320;1U7F A N 321;22.2252
1U7F A C 320;1U7F A Q 322;1.33787
1U7F A C 320;1U7F A R 323;22.9148
1U7F A C 320;1U7F A Y 324;16.9685
1U7F A C 320;1U7F A W 326;3.41962
1U7F A C 320;1U7F A C 332;6.98113
1U7F A C 320;1U7F A L 340;14.8238
1U7F A C 320;1U7F A K 341;5.90155
1U7F A C 320;1U7F A I 342;12.9051
1U7F A N 321;1U7F A Q 322;17.0542
1U7F A N 321;1U7F A R 323;1.0939
1U7F A N 321;1U7F A Y 324;5.20057
1U7F A N 321;1U7F A G 325;3.90693
1U7F A N 321;1U7F A W 326;29.6445
1U7F A N 321;1U7F A H 327;1.55816
1U7F A N 321;1U7F A P 328;13.5585
1U7F A N 321;1U7F A T 330;21.7587
1U7F A N 321;1U7F A C 332;8.88002
1U7F A Q 322;1U7F A R 323;25.156
1U7F A Q 322;1U7F A Y 324;1.81242
1U7F A Q 322;1U7F A G 325;16.1033
1U7F A Q 322;1U7F A W 326;4.54882
1U7F A Q 322;1U7F A P 328;6.76084
1U7F A Q 322;1U7F A E 347;3.35895
1U7F A Q 322;1U7F A L 351;24.4595
1U7F A Q 322;1U7F A M 369;11.6706
1U7F A R 323;1U7F A Y 324;57.5044
1U7F A R 323;1U7F A G 325;0.883589
1U7F A R 323;1U7F A L 340;0.357007
1U7F A R 323;1U7F A K 341;27.1448
1U7F A R 323;1U7F A I 342;2.32439
1U7F A R 323;1U7F A F 343;5.56097
1U7F A R 323;1U7F A N 344;5.28102
1U7F A R 323;1U7F A E 347;27.9586
1U7F A Y 324;1U7F A G 325;25.1298
1U7F A Y 324;1U7F A W 326;45.8485
1U7F A Y 324;1U7F A L 340;15.4402
1U7F A Y 324;1U7F A K 341;4.34308
1U7F A G 325;1U7F A W 326;30.8023
1U7F A G 325;1U7F A H 327;0.659089
1U7F A W 326;1U7F A H 327;24.9613
1U7F A W 326;1U7F A P 328;9.53235
1U7F A W 326;1U7F A T 330;26.5
1U7F A W 326;1U7F A C 332;18.6758
1U7F A W 326;1U7F A L 340;1.49458
1U7F A H 327;1U7F A P 328;30.6172
1U7F A H 327;1U7F A A 329;28.8403
1U7F A H 327;1U7F A T 330;17.6757
1U7F A P 328;1U7F A A 329;19.6562
1U7F A P 328;1U7F A T 330;1.87785
1U7F A A 329;1U7F A T 330;20.2977
1U7F A A 329;1U7F A V 331;7.49404
1U7F A A 329;1U7F A G 381;2.93801
1U7F A A 329;1U7F A A 382;0.28371
1U7F A T 330;1U7F A V 331;31.085
1U7F A T 330;1U7F A C 332;9.12796
1U7F A V 331;1U7F A C 332;23.1902
1U7F A V 331;1U7F A K 333;3.82919
1U7F A V 331;1U7F A W 380;37.9219
1U7F A V 331;1U7F A G 381;7.90706
1U7F A V 331;1U7F A A 382;1.31011
1U7F A V 331;1U7F A E 383;7.8083
1U7F A V 331;1U7F A Y 384;1.70782
1U7F A C 332;1U7F A K 333;27.1082
1U7F A C 332;1U7F A I 334;6.61029
1U7F A C 332;1U7F A L 340;17.3878
1U7F A K 333;1U7F A I 334;22.9321
1U7F A K 333;1U7F A P 335;27.6902
1U7F A K 333;1U7F A P 336;0.355897
1U7F A K 333;1U7F A Y 384;14.801
1U7F A I 334;1U7F A P 335;24.2059
1U7F A I 334;1U7F A C 338;11.1106
1U7F A I 334;1U7F A N 339;9.31751
1U7F A I 334;1U7F A L 340;19.8284
1U7F A I 334;1U7F A I 342;2.05473
1U7F A P 335;1U7F A P 336;30.635
1U7F A P 335;1U7F A G 337;0.645506
1U7F A P 335;1U7F A C 338;33.0949
1U7F A P 336;1U7F A G 337;23.6685
1U7F A P 336;1U7F A C 338;8.97232
1U7F A G 337;1U7F A C 338;26.1113
1U7F A G 337;1U7F A N 339;4.17018
1U7F A C 338;1U7F A N 339;28.343
1U7F A N 339;1U7F A L 340;33.5141
1U7F A N 339;1U7F A K 341;0.17898
1U7F A L 340;1U7F A K 341;30.0303
1U7F A L 340;1U7F A I 342;17.5299
1U7F A K 341;1U7F A I 342;15.0577
1U7F A K 341;1U7F A F 343;9.50085
1U7F A K 341;1U7F A N 344;8.37373
1U7F A K 341;1U7F A E 347;1.49168
1U7F A I 342;1U7F A F 343;21.0637
1U7F A I 342;1U7F A I 372;21.1049
1U7F A I 342;1U7F A M 374;7.16574
1U7F A I 342;1U7F A L 398;5.90543
1U7F A F 343;1U7F A N 344;26.218
1U7F A F 343;1U7F A N 345;16.7799
1U7F A F 343;1U7F A F 348;15.8376
1U7F A F 343;1U7F A M 369;10.323
1U7F A F 343;1U7F A C 370;1.72674
1U7F A F 343;1U7F A I 372;9.9233
1U7F A F 343;1U7F A L 400;21.8092
1U7F A F 343;1U7F A P 403;14.2078
1U7F A N 344;1U7F A N 345;18.6997
1U7F A N 344;1U7F A Q 346;11.8771
1U7F A N 344;1U7F A E 347;35.1738
1U7F A N 344;1U7F A F 348;5.83892
1U7F A N 345;1U7F A Q 346;24.6035
1U7F A N 345;1U7F A E 347;1.56112
1U7F A N 345;1U7F A F 348;10.9857
1U7F A N 345;1U7F A A 349;11.1225
1U7F A N 345;1U7F A P 403;12.4004
1U7F A N 345;1U7F A W 406;7.72094
1U7F A Q 346;1U7F A E 347;20.1462
1U7F A Q 346;1U7F A F 348;0.597909
1U7F A Q 346;1U7F A A 349;20.9155
1U7F A Q 346;1U7F A A 350;12.3027
1U7F A E 347;1U7F A F 348;18.3434
1U7F A E 347;1U7F A A 349;0.540975
1U7F A E 347;1U7F A A 350;12.2482
1U7F A E 347;1U7F A L 351;10.9568
1U7F A F 348;1U7F A A 349;21.7366
1U7F A F 348;1U7F A A 350;1.43894
1U7F A F 348;1U7F A L 351;14.7093
1U7F A F 348;1U7F A L 352;23.1663
1U7F A F 348;1U7F A L 366;16.037
1U7F A F 348;1U7F A M 369;20.1564
1U7F A F 348;1U7F A C 370;10.4131
1U7F A F 348;1U7F A P 403;20.4525
1U7F A F 348;1U7F A W 406;9.19667
1U7F A F 348;1U7F A L 407;8.318
1U7F A A 349;1U7F A A 350;18.7623
1U7F A A 349;1U7F A L 351;0.393917
1U7F A A 349;1U7F A L 352;18.6399
1U7F A A 349;1U7F A A 353;10.9009
1U7F A A 349;1U7F A W 406;7.96539
1U7F A A 350;1U7F A L 351;18.0241
1U7F A A 350;1U7F A L 352;1.28535
1U7F A A 350;1U7F A A 353;14.9157
1U7F A A 350;1U7F A Q 354;18.9287
1U7F A L 351;1U7F A L 352;15.8789
1U7F A L 351;1U7F A A 353;1.1203
1U7F A L 351;1U7F A Q 354;24.316
1U7F A L 351;1U7F A S 355;18.9352
1U7F A L 351;1U7F A Q 358;0.15543
1U7F A L 351;1U7F A L 366;19.5891
1U7F A L 351;1U7F A M 369;19.851
1U7F A L 352;1U7F A A 353;20.1523
1U7F A L 352;1U7F A Q 354;0.267007
1U7F A L 352;1U7F A S 355;8.35298
1U7F A L 352;1U7F A V 356;10.1804
1U7F A L 352;1U7F A V 363;6.78606
1U7F A L 352;1U7F A L 366;16.1019
1U7F A L 352;1U7F A W 406;17.4854
1U7F A L 352;1U7F A L 407;16.7681
1U7F A L 352;1U7F A V 410;23.3453
1U7F A A 353;1U7F A Q 354;22.0341
1U7F A A 353;1U7F A S 355;2.92731
1U7F A A 353;1U7F A V 356;21.0979
1U7F A A 353;1U7F A N 357;1.39663
1U7F A Q 354;1U7F A S 355;19.4815
1U7F A Q 354;1U7F A V 356;0.604411
1U7F A Q 354;1U7F A N 357;20.7467
1U7F A Q 354;1U7F A Q 358;10.3221
1U7F A S 355;1U7F A V 356;16.8972
1U7F A S 355;1U7F A N 357;2.95935
1U7F A S 355;1U7F A Q 358;20.2224
1U7F A S 355;1U7F A G 359;3.70328
1U7F A S 355;1U7F A A 362;11.8542
1U7F A S 355;1U7F A V 363;12.2206
1U7F A S 355;1U7F A L 366;14.6373
1U7F A S 355;1U7F A M 414;0.797213
1U7F A V 356;1U7F A N 357;36.6628
1U7F A V 356;1U7F A Q 358;1.88858
1U7F A V 356;1U7F A G 359;6.55061
1U7F A V 356;1U7F A V 363;5.9928
1U7F A V 356;1U7F A V 410;17.9961
1U7F A V 356;1U7F A M 414;23.0204
1U7F A N 357;1U7F A Q 358;28.5862
1U7F A N 357;1U7F A G 359;2.22464
1U7F A Q 358;1U7F A G 359;23.167
1U7F A Q 358;1U7F A E 361;16.4532
1U7F A Q 358;1U7F A A 362;23.143
1U7F A G 359;1U7F A F 360;21.3382
1U7F A G 359;1U7F A E 361;7.12075
1U7F A G 359;1U7F A A 362;6.87595
1U7F A G 359;1U7F A V 363;6.33339
1U7F A G 359;1U7F A M 414;12.8577
1U7F A F 360;1U7F A E 361;28.1156
1U7F A F 360;1U7F A A 362;0.991437
1U7F A F 360;1U7F A V 363;8.6107
1U7F A F 360;1U7F A Y 364;24.054
1U7F A F 360;1U7F A L 411;25.3279
1U7F A F 360;1U7F A M 414;30.4318
1U7F A F 360;1U7F A G 415;11.4412
1U7F A F 360;1U7F A S 416;13.619
1U7F A F 360;1U7F A P 417;22.1909
1U7F A E 361;1U7F A A 362;28.7726
1U7F A E 361;1U7F A V 363;1.1045
1U7F A E 361;1U7F A Y 364;11.3265
1U7F A E 361;1U7F A Q 365;15.875
1U7F A E 361;1U7F A P 417;0.457095
1U7F A A 362;1U7F A V 363;17.5154
1U7F A A 362;1U7F A Y 364;0.10881
1U7F A A 362;1U7F A Q 365;13.337
1U7F A A 362;1U7F A L 366;10.6118
1U7F A V 363;1U7F A Y 364;16.9038
1U7F A V 363;1U7F A Q 365;2.21719
1U7F A V 363;1U7F A L 366;19.2977
1U7F A V 363;1U7F A L 407;15.7279
1U7F A V 363;1U7F A V 410;10.2537
1U7F A V 363;1U7F A L 411;12.8304
1U7F A V 363;1U7F A M 414;15.8967
1U7F A Y 364;1U7F A Q 365;24.5165
1U7F A Y 364;1U7F A L 366;2.39629
1U7F A Y 364;1U7F A T 367;24.2016
1U7F A Y 364;1U7F A L 407;1.69637
1U7F A Y 364;1U7F A L 411;21.5502
1U7F A Q 365;1U7F A L 366;18.2847
1U7F A Q 365;1U7F A T 367;7.0702
1U7F A Q 365;1U7F A R 368;55.0672
1U7F A Q 365;1U7F A M 369;3.28868
1U7F A L 366;1U7F A T 367;14.7448
1U7F A L 366;1U7F A R 368;0.969477
1U7F A L 366;1U7F A M 369;20.9351
1U7F A L 366;1U7F A C 370;6.63802
1U7F A L 366;1U7F A L 407;13.9999
1U7F A T 367;1U7F A R 368;25.8424
1U7F A T 367;1U7F A M 369;1.80557
1U7F A T 367;1U7F A C 370;12.204
1U7F A T 367;1U7F A T 371;12.6116
1U7F A T 367;1U7F A L 404;12.7196
1U7F A T 367;1U7F A L 407;13.1627
1U7F A T 367;1U7F A L 411;1.11264
1U7F A R 368;1U7F A M 369;20.5431
1U7F A R 368;1U7F A C 370;0.934055
1U7F A R 368;1U7F A T 371;22.6015
1U7F A M 369;1U7F A C 370;18.7634
1U7F A M 369;1U7F A T 371;5.657
1U7F A M 369;1U7F A I 372;4.21188
1U7F A M 369;1U7F A L 400;2.09526
1U7F A C 370;1U7F A T 371;22.0996
1U7F A C 370;1U7F A I 372;0.858104
1U7F A C 370;1U7F A L 398;0.990126
1U7F A C 370;1U7F A H 399;5.03145
1U7F A C 370;1U7F A L 400;22.5913
1U7F A C 370;1U7F A P 403;14.1298
1U7F A C 370;1U7F A L 404;20.6753
1U7F A C 370;1U7F A L 407;5.02674
1U7F A T 371;1U7F A I 372;26.7082
1U7F A T 371;1U7F A R 373;9.67712
1U7F A T 371;1U7F A E 397;13.0259
1U7F A T 371;1U7F A L 398;7.33867
1U7F A T 371;1U7F A H 399;18.0405
1U7F A T 371;1U7F A L 400;0.0198345
1U7F A T 371;1U7F A L 404;2.89246
1U7F A I 372;1U7F A R 373;26.4496
1U7F A I 372;1U7F A M 374;7.80966
1U7F A I 372;1U7F A I 396;0.180175
1U7F A I 372;1U7F A E 397;5.47396
1U7F A I 372;1U7F A L 398;31.3004
1U7F A I 372;1U7F A L 400;15.3227
1U7F A R 373;1U7F A M 374;20.6518
1U7F A R 373;1U7F A W 380;12.0036
1U7F A R 373;1U7F A V 389;22.4737
1U7F A R 373;1U7F A W 395;15.5433
1U7F A R 373;1U7F A I 396;6.63996
1U7F A R 373;1U7F A E 397;28.5059
1U7F A R 373;1U7F A L 398;0.237198
1U7F A M 374;1U7F A S 375;20.0862
1U7F A M 374;1U7F A F 376;3.08759
1U7F A M 374;1U7F A W 380;3.03668
1U7F A M 374;1U7F A V 389;2.0739
1U7F A M 374;1U7F A W 395;8.28606
1U7F A M 374;1U7F A I 396;32.8152
1U7F A M 374;1U7F A L 398;17.3166
1U7F A S 375;1U7F A F 376;26.8213
1U7F A S 375;1U7F A V 377;0.626651
1U7F A S 375;1U7F A K 378;10.7972
1U7F A S 375;1U7F A G 379;0.00903949
1U7F A S 375;1U7F A W 380;12.7954
1U7F A S 375;1U7F A V 389;2.52296
1U7F A S 375;1U7F A T 392;13.3206
1U7F A S 375;1U7F A C 394;4.92693
1U7F A S 375;1U7F A W 395;7.76473
1U7F A F 376;1U7F A V 377;24.9278
1U7F A F 376;1U7F A K 378;9.36289
1U7F A F 376;1U7F A T 392;0.191305
1U7F A F 376;1U7F A P 393;1.34284
1U7F A F 376;1U7F A C 394;23.3158
1U7F A F 376;1U7F A W 395;4.00982
1U7F A F 376;1U7F A I 396;18.3192
1U7F A V 377;1U7F A K 378;28.5006
1U7F A V 377;1U7F A G 379;0.301498
1U7F A V 377;1U7F C C 421;15.2223
1U7F A V 377;1U7F C S 422;11.4153
1U7F A V 377;1U7F C V 424;1.605
1U7F A K 378;1U7F A G 379;24.1273
1U7F A K 378;1U7F A W 380;0.627588
1U7F A K 378;1U7F A R 386;24.1125
1U7F A K 378;1U7F A T 392;9.13198
1U7F A K 378;1U7F A P 393;15.8557
1U7F A K 378;1U7F C C 421;14.6138
1U7F A K 378;1U7F C S 422;18.0128
1U7F A K 378;1U7F C V 424;15.3611
1U7F A G 379;1U7F A W 380;19.2616
1U7F A G 379;1U7F A Y 384;24.1971
1U7F A G 379;1U7F A R 386;11.0283
1U7F A G 379;1U7F A T 392;2.9805
1U7F A G 379;1U7F C V 424;3.20253
1U7F A W 380;1U7F A G 381;24.1412
1U7F A W 380;1U7F A A 382;4.07243
1U7F A W 380;1U7F A E 383;0.00196143
1U7F A W 380;1U7F A Y 384;14.6759
1U7F A W 380;1U7F A R 386;12.7041
1U7F A W 380;1U7F A Q 387;8.37974
1U7F A W 380;1U7F A T 388;11.3557
1U7F A W 380;1U7F A V 389;30.4326
1U7F A W 380;1U7F A T 392;12.5324
1U7F A G 381;1U7F A A 382;26.8153
1U7F A G 381;1U7F A Y 384;8.57704
1U7F A G 381;1U7F A R 386;6.56495
1U7F A G 381;1U7F A Q 387;22.675
1U7F A A 382;1U7F A E 383;42.4861
1U7F A A 382;1U7F A Y 384;8.2195
1U7F A A 382;1U7F A Q 387;11.7234
1U7F A E 383;1U7F A Y 384;47.5753
1U7F A E 383;1U7F A Q 387;0.000223868
1U7F A E 383;1U7F C V 424;0.0438804
1U7F A Y 384;1U7F A R 385;26.4969
1U7F A Y 384;1U7F A R 386;9.3256
1U7F A Y 384;1U7F A Q 387;11.8334
1U7F A Y 384;1U7F C V 424;26.5089
1U7F A R 385;1U7F A R 386;55.3382
1U7F A R 385;1U7F A Q 387;19.217
1U7F A R 385;1U7F C V 424;31.1393
1U7F A R 386;1U7F A Q 387;19.6064
1U7F A R 386;1U7F A T 388;2.46053
1U7F A R 386;1U7F A S 391;29.2163
1U7F A R 386;1U7F A T 392;11.9129
1U7F A R 386;1U7F A P 393;14.7711
1U7F A R 386;1U7F C V 424;13.8289
1U7F A Q 387;1U7F A T 388;33.8873
1U7F A Q 387;1U7F A S 391;3.30949
1U7F A T 388;1U7F A V 389;20.0503
1U7F A T 388;1U7F A T 390;18.9823
1U7F A T 388;1U7F A S 391;25.7383
1U7F A T 388;1U7F A T 392;3.11948
1U7F A V 389;1U7F A T 390;24.2478
1U7F A V 389;1U7F A S 391;2.3725
1U7F A V 389;1U7F A T 392;16.5694
1U7F A V 389;1U7F A W 395;33.9846
1U7F A T 390;1U7F A S 391;20.9513
1U7F A T 390;1U7F A T 392;1.79649
1U7F A T 390;1U7F A W 395;11.2895
1U7F A S 391;1U7F A T 392;17.434
1U7F A S 391;1U7F A P 393;2.14729
1U7F A T 392;1U7F A P 393;22.2017
1U7F A T 392;1U7F A C 394;7.21665
1U7F A T 392;1U7F A W 395;13.3505
1U7F A P 393;1U7F A C 394;25.9754
1U7F A P 393;1U7F A W 395;0.4839
1U7F A C 394;1U7F A W 395;20.5542
1U7F A W 395;1U7F A I 396;30.3077
1U7F A W 395;1U7F A E 397;9.63576
1U7F A I 396;1U7F A E 397;19.0759
1U7F A I 396;1U7F A L 398;11.0386
1U7F A E 397;1U7F A L 398;23.4796
1U7F A E 397;1U7F A H 399;13.3398
1U7F A L 398;1U7F A H 399;23.5253
1U7F A L 398;1U7F A L 400;10.2401
1U7F A H 399;1U7F A L 400;18.5638
1U7F A H 399;1U7F A N 401;9.21126
1U7F A H 399;1U7F A L 404;14.7408
1U7F A L 400;1U7F A N 401;16.0867
1U7F A L 400;1U7F A G 402;0.772921
1U7F A L 400;1U7F A P 403;23.1442
1U7F A L 400;1U7F A L 404;13.5863
1U7F A N 401;1U7F A G 402;19.3167
1U7F A N 401;1U7F A P 403;0.455589
1U7F A N 401;1U7F A L 404;12.101
1U7F A N 401;1U7F A Q 405;8.47032
1U7F A G 402;1U7F A P 403;24.355
1U7F A G 402;1U7F A L 404;1.4057
1U7F A G 402;1U7F A Q 405;8.96155
1U7F A G 402;1U7F A W 406;22.1278
1U7F A P 403;1U7F A L 404;14.3983
1U7F A P 403;1U7F A Q 405;0.692351
1U7F A P 403;1U7F A W 406;16.2215
1U7F A P 403;1U7F A L 407;8.5743
1U7F A L 404;1U7F A Q 405;14.937
1U7F A L 404;1U7F A W 406;0.574465
1U7F A L 404;1U7F A L 407;11.411
1U7F A L 404;1U7F A D 408;6.05951
1U7F A Q 405;1U7F A W 406;34.3985
1U7F A Q 405;1U7F A L 407;1.06379
1U7F A Q 405;1U7F A D 408;9.82303
1U7F A Q 405;1U7F A K 409;20.3578
1U7F A W 406;1U7F A L 407;17.2674
1U7F A W 406;1U7F A D 408;0.708377
1U7F A W 406;1U7F A K 409;37.6447
1U7F A W 406;1U7F A V 410;8.51843
1U7F A L 407;1U7F A D 408;15.2397
1U7F A L 407;1U7F A K 409;1.13099
1U7F A L 407;1U7F A V 410;8.49644
1U7F A L 407;1U7F A L 411;18.0708
1U7F A D 408;1U7F A K 409;24.9249
1U7F A D 408;1U7F A V 410;1.07171
1U7F A D 408;1U7F A L 411;11.5951
1U7F A D 408;1U7F A T 412;17.6164
1U7F A K 409;1U7F A V 410;23.0209
1U7F A K 409;1U7F A L 411;0.960047
1U7F A K 409;1U7F A T 412;13.8643
1U7F A K 409;1U7F A Q 413;15.8163
1U7F A V 410;1U7F A L 411;15.7358
1U7F A V 410;1U7F A T 412;0.30564
1U7F A V 410;1U7F A Q 413;17.2762
1U7F A V 410;1U7F A M 414;19.4866
1U7F A L 411;1U7F A T 412;15.2447
1U7F A L 411;1U7F A Q 413;4.77967
1U7F A L 411;1U7F A M 414;14.3643
1U7F A L 411;1U7F A G 415;3.05414
1U7F A T 412;1U7F A Q 413;32.701
1U7F A T 412;1U7F A G 415;0.67555
1U7F A Q 413;1U7F A M 414;21.6383
1U7F A Q 413;1U7F A G 415;13.0101
1U7F A M 414;1U7F A G 415;22.6565
1U7F A M 414;1U7F A S 416;4.37353
1U7F A G 415;1U7F A S 416;30.0755
1U7F A S 416;1U7F A P 417;42.5437
1U7F A S 416;1U7F A S 418;5.81861
1U7F A P 417;1U7F A S 418;30.9081
1U7F A P 417;1U7F A I 419;7.28927
1U7F A P 417;1U7F A R 420;3.41262
1U7F A S 418;1U7F A I 419;32.1648
1U7F A S 418;1U7F A R 420;13.621
1U7F A I 419;1U7F A R 420;32.7356
1U7F A R 420;1U7F A C 421;39.0697
1U7F A R 420;1U7F A S 422;2.26303
1U7F A C 421;1U7F A S 422;38.6513
1U7F A S 422;1U7F A V 424;35.559
1U7F C A 230;1U7F C F 231;34.0278
1U7F C A 230;1U7F C W 232;8.93362
1U7F C A 230;1U7F C A 250;0.262773
1U7F C A 230;1U7F C S 251;15.7739
1U7F C F 231;1U7F C W 232;22.6418
1U7F C F 231;1U7F C C 233;12.9267
1U7F C F 231;1U7F C S 234;0.00042686
1U7F C F 231;1U7F C H 249;38.2523
1U7F C F 231;1U7F C A 250;17.7984
1U7F C F 231;1U7F C S 251;19.0266
1U7F C F 231;1U7F C N 401;13.6396
1U7F C W 232;1U7F C C 233;32.7881
1U7F C W 232;1U7F C A 250;16.394
1U7F C W 232;1U7F C S 251;5.49125
1U7F C W 232;1U7F C Q 252;12.1991
1U7F C W 232;1U7F C P 253;11.6927
1U7F C W 232;1U7F C S 254;0.542639
1U7F C W 232;1U7F C M 255;8.02794
1U7F C W 232;1U7F C L 296;11.9595
1U7F C W 232;1U7F C Y 297;5.87162
1U7F C W 232;1U7F C Y 298;44.1769
1U7F C W 232;1U7F C V 303;17.5473
1U7F C W 232;1U7F C L 398;4.81037
1U7F C W 232;1U7F C L 400;17.1654
1U7F C W 232;1U7F C N 401;17.2715
1U7F C W 232;1U7F C G 402;7.49542
1U7F C W 232;1U7F C P 403;0.85793
1U7F C C 233;1U7F C S 234;22.017
1U7F C C 233;1U7F C I 235;10.4478
1U7F C C 233;1U7F C H 249;2.24893
1U7F C C 233;1U7F C A 250;17.5654
1U7F C C 233;1U7F C M 255;0.994701
1U7F C C 233;1U7F C L 296;1.88816
1U7F C C 233;1U7F C L 398;11.3079
1U7F C C 233;1U7F C H 399;9.67088
1U7F C C 233;1U7F C L 400;8.14147
1U7F C C 233;1U7F C N 401;11.7417
1U7F C S 234;1U7F C I 235;22.2383
1U7F C S 234;1U7F C S 236;3.12145
1U7F C S 234;1U7F C T 247;12.7248
1U7F C S 234;1U7F C F 248;6.18474
1U7F C S 234;1U7F C H 249;17.8202
1U7F C S 234;1U7F C A 250;0.404569
1U7F C S 234;1U7F C E 397;1.40095
1U7F C S 234;1U7F C L 398;4.95536
1U7F C S 234;1U7F C H 399;28.7121
1U7F C S 234;1U7F C N 401;9.8344
1U7F C I 235;1U7F C S 236;21.2369
1U7F C I 235;1U7F C E 246;0.484025
1U7F C I 235;1U7F C T 247;9.77144
1U7F C I 235;1U7F C F 248;24.4468
1U7F C I 235;1U7F C A 250;3.44448
1U7F C I 235;1U7F C M 255;11.6657
1U7F C I 235;1U7F C V 257;8.22836
1U7F C I 235;1U7F C F 269;16.4522
1U7F C I 235;1U7F C L 296;8.50844
1U7F C I 235;1U7F C I 396;15.2178
1U7F C I 235;1U7F C E 397;8.08918
1U7F C I 235;1U7F C L 398;17.2837
1U7F C S 236;1U7F C Y 237;18.5018
1U7F C S 236;1U7F C Y 238;15.1296
1U7F C S 236;1U7F C R 243;20.0416
1U7F C S 236;1U7F C E 246;0.550798
1U7F C S 236;1U7F C T 247;13.6496
1U7F C S 236;1U7F C F 269;0.755312
1U7F C S 236;1U7F C I 396;8.87271
1U7F C S 236;1U7F C E 397;24.8876
1U7F C S 236;1U7F C H 399;5.49457
1U7F C Y 237;1U7F C Y 238;28.63
1U7F C Y 237;1U7F C E 239;17.4778
1U7F C Y 237;1U7F C R 243;11.8144
1U7F C Y 237;1U7F C V 244;32.2036
1U7F C Y 237;1U7F C G 245;0.00808686
1U7F C Y 237;1U7F C E 246;1.20713
1U7F C Y 237;1U7F C F 269;10.9779
1U7F C Y 237;1U7F C L 271;27.9424
1U7F C Y 237;1U7F C L 274;13.7905
1U7F C Y 237;1U7F C R 279;0.639529
1U7F C Y 237;1U7F C V 283;0.265532
1U7F C Y 237;1U7F C R 287;14.4665
1U7F C Y 237;1U7F C I 290;3.99885
1U7F C Y 237;1U7F C F 376;1.7488
1U7F C Y 237;1U7F C C 394;14.326
1U7F C Y 237;1U7F C W 395;10.5467
1U7F C Y 237;1U7F C I 396;12.675
1U7F C Y 238;1U7F C E 239;19.6983
1U7F C Y 238;1U7F C L 240;4.55264
1U7F C Y 238;1U7F C N 241;4.3926
1U7F C Y 238;1U7F C Q 242;11.3456
1U7F C Y 238;1U7F C R 243;28.7777
1U7F C Y 238;1U7F C V 244;3.94026
1U7F C Y 238;1U7F C R 373;0.0905782
1U7F C Y 238;1U7F C P 393;0.00543939
1U7F C Y 238;1U7F C C 394;3.1756
1U7F C Y 238;1U7F C W 395;46.2878
1U7F C Y 238;1U7F C I 396;1.61709
1U7F C Y 238;1U7F C E 397;17.4865
1U7F C E 239;1U7F C L 240;28.3207
1U7F C E 239;1U7F C N 241;0.45801
1U7F C E 239;1U7F C Q 242;19.4874
1U7F C E 239;1U7F C V 244;15.7767
1U7F C E 239;1U7F C N 276;14.616
1U7F C E 239;1U7F C R 279;15.9677
1U7F C E 239;1U7F C V 283;19.2808
1U7F C E 239;1U7F C R 287;5.0224
1U7F C E 239;1U7F C P 393;10.8333
1U7F C E 239;1U7F C C 394;1.56381
1U7F C E 239;1U7F C W 395;0.132843
1U7F C L 240;1U7F C N 241;25.536
1U7F C L 240;1U7F C Q 242;3.71386
1U7F C L 240;1U7F C N 280;5.15646
1U7F C L 240;1U7F C V 283;16.6236
1U7F C L 240;1U7F C V 389;0.341861
1U7F C L 240;1U7F C T 390;20.9117
1U7F C L 240;1U7F C S 391;15.4356
1U7F C L 240;1U7F C T 392;12.1967
1U7F C L 240;1U7F C P 393;11.8625
1U7F C L 240;1U7F C W 395;14.3717
1U7F C N 241;1U7F C Q 242;31.0541
1U7F C N 241;1U7F C R 243;1.16313
1U7F C N 241;1U7F C T 390;22.8356
1U7F C N 241;1U7F C W 395;0.448962
1U7F C Q 242;1U7F C R 243;36.8588
1U7F C Q 242;1U7F C V 244;12.7818
1U7F C Q 242;1U7F C N 276;10.9408
1U7F C Q 242;1U7F C N 278;0.455375
1U7F C R 243;1U7F C V 244;28.4375
1U7F C R 243;1U7F C G 245;15.8396
1U7F C R 243;1U7F C E 246;5.05669
1U7F C R 243;1U7F C T 247;20.458
1U7F C V 244;1U7F C G 245;31.4345
1U7F C V 244;1U7F C E 246;0.6202
1U7F C V 244;1U7F C F 269;0.140112
1U7F C V 244;1U7F C L 274;11.6839
1U7F C V 244;1U7F C S 275;10.9492
1U7F C V 244;1U7F C N 276;17.7946
1U7F C V 244;1U7F C R 279;4.35209
1U7F C V 244;1U7F C R 287;0.0237612
1U7F C G 245;1U7F C E 246;30.6354
1U7F C G 245;1U7F C L 274;17.3559
1U7F C G 245;1U7F C S 275;2.35002
1U7F C E 246;1U7F C T 247;29.5913
1U7F C E 246;1U7F C F 248;3.98742
1U7F C E 246;1U7F C F 269;12.3197
1U7F C E 246;1U7F C L 274;15.8186
1U7F C T 247;1U7F C F 248;24.1736
1U7F C T 247;1U7F C H 249;19.3343
1U7F C F 248;1U7F C H 249;34.0281
1U7F C F 248;1U7F C A 250;9.74257
1U7F C F 248;1U7F C M 255;14.3937
1U7F C F 248;1U7F C N 265;8.05087
1U7F C F 248;1U7F C S 266;14.3613
1U7F C F 248;1U7F C E 267;0.531721
1U7F C F 248;1U7F C R 268;10.5498
1U7F C F 248;1U7F C F 269;37.4238
1U7F C H 249;1U7F C A 250;16.516
1U7F C H 249;1U7F C S 251;6.29843
1U7F C H 249;1U7F C S 266;1.36556
1U7F C H 249;1U7F C N 401;1.83604
1U7F C A 250;1U7F C S 251;17.929
1U7F C A 250;1U7F C Q 252;4.74629
1U7F C A 250;1U7F C M 255;13.6352
1U7F C A 250;1U7F C S 266;1.67242
1U7F C S 251;1U7F C Q 252;39.5558
1U7F C S 251;1U7F C P 253;7.95235
1U7F C S 251;1U7F C S 266;17.9952
1U7F C Q 252;1U7F C P 253;31.3232
1U7F C Q 252;1U7F C S 254;14.3067
1U7F C Q 252;1U7F C M 255;10.4791
1U7F C Q 252;1U7F C S 266;22.3866
1U7F C Q 252;1U7F C E 267;27.3138
1U7F C P 253;1U7F C S 254;25.4743
1U7F C P 253;1U7F C Y 297;7.53167
1U7F C P 253;1U7F C Y 298;27.3514
1U7F C S 254;1U7F C M 255;24.2871
1U7F C S 254;1U7F C E 267;12.4035
1U7F C S 254;1U7F C R 295;20.1733
1U7F C S 254;1U7F C L 296;3.79675
1U7F C S 254;1U7F C Y 297;13.727
1U7F C M 255;1U7F C T 256;32.6199
1U7F C M 255;1U7F C V 257;5.67639
1U7F C M 255;1U7F C S 266;3.44846
1U7F C M 255;1U7F C E 267;17.227
1U7F C M 255;1U7F C R 268;1.31581
1U7F C M 255;1U7F C F 269;8.08473
1U7F C M 255;1U7F C R 295;10.0841
1U7F C M 255;1U7F C L 296;27.6729
1U7F C T 256;1U7F C V 257;21.9325
1U7F C T 256;1U7F C D 258;16.4535
1U7F C T 256;1U7F C E 267;8.81164
1U7F C T 256;1U7F C R 268;14.5529
1U7F C T 256;1U7F C F 269;7.65794
1U7F C T 256;1U7F C R 292;9.42324
1U7F C T 256;1U7F C V 294;10.2921
1U7F C T 256;1U7F C R 295;12.3081
1U7F C T 256;1U7F C L 296;2.02348
1U7F C T 256;1U7F C L 308;11.9105
1U7F C V 257;1U7F C D 258;17.6595
1U7F C V 257;1U7F C F 269;18.1635
1U7F C V 257;1U7F C L 271;13.4948
1U7F C V 257;1U7F C I 290;0.956377
1U7F C V 257;1U7F C R 292;0.173197
1U7F C V 257;1U7F C G 293;4.61185
1U7F C V 257;1U7F C V 294;21.9914
1U7F C V 257;1U7F C L 296;12.2363
1U7F C V 257;1U7F C F 376;12.8996
1U7F C V 257;1U7F C I 396;15.813
1U7F C V 257;1U7F C L 398;0.297803
1U7F C D 258;1U7F C G 259;16.0462
1U7F C D 258;1U7F C F 260;20.4277
1U7F C D 258;1U7F C R 268;16.4179
1U7F C D 258;1U7F C F 269;7.8251
1U7F C D 258;1U7F C C 270;13.1167
1U7F C D 258;1U7F C L 271;14.3959
1U7F C D 258;1U7F C I 290;5.79717
1U7F C D 258;1U7F C G 291;4.69936
1U7F C D 258;1U7F C R 292;10.2446
1U7F C D 258;1U7F C G 293;3.91469
1U7F C G 259;1U7F C F 260;26.4996
1U7F C G 259;1U7F C T 261;0.041891
1U7F C G 259;1U7F C L 271;4.16185
1U7F C G 259;1U7F C G 272;14.5189
1U7F C G 259;1U7F C R 287;5.49471
1U7F C G 259;1U7F C I 290;14.7371
1U7F C G 259;1U7F C G 291;10.0963
1U7F C F 260;1U7F C T 261;18.3422
1U7F C F 260;1U7F C D 262;0.142555
1U7F C F 260;1U7F C R 268;10.4899
1U7F C F 260;1U7F C C 270;12.2986
1U7F C F 260;1U7F C L 271;0.891472
1U7F C F 260;1U7F C G 272;7.0435
1U7F C F 260;1U7F C L 273;2.25931
1U7F C F 260;1U7F C G 291;17.09
1U7F C F 260;1U7F C R 292;26.2087
1U7F C T 261;1U7F C D 262;15.4111
1U7F C T 261;1U7F C P 263;5.10914
1U7F C T 261;1U7F C C 270;2.13356
1U7F C T 261;1U7F C G 272;7.16092
1U7F C T 261;1U7F C L 273;20.7798
1U7F C D 262;1U7F C P 263;25.2846
1U7F C D 262;1U7F C S 264;9.75704
1U7F C D 262;1U7F C N 265;18.0821
1U7F C D 262;1U7F C R 268;17.5361
1U7F C D 262;1U7F C C 270;21.6985
1U7F C D 262;1U7F C L 273;4.50732
1U7F C P 263;1U7F C S 264;30.2534
1U7F C P 263;1U7F C N 265;5.59013
1U7F C P 263;1U7F C R 268;0.00240716
1U7F C P 263;1U7F C L 273;17.5122
1U7F C S 264;1U7F C N 265;26.2602
1U7F C S 264;1U7F C S 266;1.15923
1U7F C N 265;1U7F C S 266;26.1765
1U7F C N 265;1U7F C E 267;18.902
1U7F C N 265;1U7F C R 268;40.1782
1U7F C N 265;1U7F C C 270;0.0922584
1U7F C S 266;1U7F C E 267;25.2329
1U7F C S 266;1U7F C R 268;0.476309
1U7F C E 267;1U7F C R 268;27.7059
1U7F C R 268;1U7F C F 269;16.0877
1U7F C R 268;1U7F C C 270;24.1942
1U7F C F 269;1U7F C C 270;25.8831
1U7F C F 269;1U7F C L 271;16.879
1U7F C F 269;1U7F C L 274;16.4317
1U7F C F 269;1U7F C I 396;9.20741
1U7F C C 270;1U7F C L 271;16.3676
1U7F C C 270;1U7F C G 272;1.33398
1U7F C C 270;1U7F C L 273;18.6437
1U7F C C 270;1U7F C L 274;4.86403
1U7F C L 271;1U7F C G 272;19.2976
1U7F C L 271;1U7F C L 273;2.02667
1U7F C L 271;1U7F C L 274;20.6499
1U7F C L 271;1U7F C R 287;12.2795
1U7F C L 271;1U7F C I 290;18.2648
1U7F C L 271;1U7F C F 376;10.8521
1U7F C L 271;1U7F C C 394;0.041969
1U7F C L 271;1U7F C I 396;5.84942
1U7F C G 272;1U7F C L 273;14.7287
1U7F C G 272;1U7F C L 274;4.15727
1U7F C G 272;1U7F C R 287;12.0571
1U7F C L 273;1U7F C L 274;35.5983
1U7F C L 273;1U7F C S 275;2.4723
1U7F C L 274;1U7F C S 275;22.0747
1U7F C L 274;1U7F C R 279;6.54156
1U7F C L 274;1U7F C R 287;10.1092
1U7F C S 275;1U7F C N 276;25.3396
1U7F C S 275;1U7F C V 277;5.3739
1U7F C S 275;1U7F C R 279;4.09151
1U7F C N 276;1U7F C V 277;29.847
1U7F C N 276;1U7F C N 278;19.0739
1U7F C N 276;1U7F C R 279;35.1947
1U7F C V 277;1U7F C N 278;30.996
1U7F C V 277;1U7F C R 279;3.65382
1U7F C N 278;1U7F C R 279;23.2316
1U7F C N 278;1U7F C N 280;6.36158
1U7F C R 279;1U7F C N 280;31.2376
1U7F C R 279;1U7F C A 281;0.00459784
1U7F C R 279;1U7F C V 283;11.7532
1U7F C R 279;1U7F C E 284;25.134
1U7F C R 279;1U7F C R 287;19.9586
1U7F C N 280;1U7F C A 281;32.9909
1U7F C N 280;1U7F C A 282;16.1267
1U7F C N 280;1U7F C V 283;19.8989
1U7F C N 280;1U7F C E 284;10.2248
1U7F C A 281;1U7F C A 282;19.9808
1U7F C A 281;1U7F C V 283;0.67098
1U7F C A 281;1U7F C E 284;13.638
1U7F C A 281;1U7F C L 285;12.9607
1U7F C A 282;1U7F C V 283;23.0587
1U7F C A 282;1U7F C E 284;0.827068
1U7F C A 282;1U7F C L 285;16.4792
1U7F C A 282;1U7F C T 286;12.8252
1U7F C A 282;1U7F C R 386;0.709077
1U7F C A 282;1U7F C P 393;10.7275
1U7F C V 283;1U7F C E 284;15.4944
1U7F C V 283;1U7F C L 285;0.848761
1U7F C V 283;1U7F C T 286;5.86911
1U7F C V 283;1U7F C R 287;15.6889
1U7F C V 283;1U7F C P 393;20.701
1U7F C V 283;1U7F C C 394;6.98837
1U7F C E 284;1U7F C L 285;20.5985
1U7F C E 284;1U7F C T 286;0.547052
1U7F C E 284;1U7F C R 287;10.2342
1U7F C E 284;1U7F C R 288;9.39857
1U7F C L 285;1U7F C T 286;22.0488
1U7F C L 285;1U7F C R 287;0.938578
1U7F C L 285;1U7F C R 288;34.0358
1U7F C L 285;1U7F C H 289;16.8302
1U7F C T 286;1U7F C R 287;14.9681
1U7F C T 286;1U7F C R 288;1.84073
1U7F C T 286;1U7F C H 289;12.637
1U7F C T 286;1U7F C I 290;7.03357
1U7F C T 286;1U7F C F 376;6.50781
1U7F C T 286;1U7F C V 377;22.6452
1U7F C T 286;1U7F C K 378;11.0771
1U7F C T 286;1U7F C P 393;17.6191
1U7F C T 286;1U7F C C 394;12.6686
1U7F C R 287;1U7F C R 288;19.0486
1U7F C R 287;1U7F C H 289;1.72828
1U7F C R 287;1U7F C I 290;25.2037
1U7F C R 287;1U7F C G 291;1.62159
1U7F C R 287;1U7F C C 394;10.3046
1U7F C R 288;1U7F C H 289;41.055
1U7F C R 288;1U7F C I 290;1.47855
1U7F C R 288;1U7F C G 291;7.01591
1U7F C H 289;1U7F C I 290;16.8842
1U7F C H 289;1U7F C G 291;5.99179
1U7F C H 289;1U7F C S 309;9.09255
1U7F C H 289;1U7F C D 310;1.59911
1U7F C H 289;1U7F C S 311;18.9914
1U7F C H 289;1U7F C V 377;20.9463
1U7F C I 290;1U7F C G 291;22.9464
1U7F C I 290;1U7F C R 292;0.0791234
1U7F C I 290;1U7F C G 293;11.3734
1U7F C I 290;1U7F C S 309;11.5744
1U7F C I 290;1U7F C F 376;27.0319
1U7F C I 290;1U7F C V 377;5.73183
1U7F C I 290;1U7F C C 394;12.2277
1U7F C G 291;1U7F C R 292;18.0562
1U7F C G 291;1U7F C G 293;4.5245
1U7F C G 291;1U7F C S 309;3.69366
1U7F C G 291;1U7F C D 310;1.30262
1U7F C R 292;1U7F C G 293;15.9253
1U7F C R 292;1U7F C V 294;1.19607
1U7F C R 292;1U7F C L 308;41.8494
1U7F C R 292;1U7F C S 309;6.21004
1U7F C R 292;1U7F C D 310;11.4345
1U7F C G 293;1U7F C V 294;17.784
1U7F C G 293;1U7F C C 307;2.60715
1U7F C G 293;1U7F C L 308;8.73943
1U7F C G 293;1U7F C S 309;14.8166
1U7F C G 293;1U7F C I 313;2.86195
1U7F C G 293;1U7F C F 376;7.52502
1U7F C V 294;1U7F C R 295;21.9173
1U7F C V 294;1U7F C L 296;16.5055
1U7F C V 294;1U7F C A 305;7.59597
1U7F C V 294;1U7F C E 306;9.07316
1U7F C V 294;1U7F C C 307;2.53994
1U7F C V 294;1U7F C L 308;2.96663
1U7F C V 294;1U7F C I 313;13.5891
1U7F C V 294;1U7F C M 374;14.9508
1U7F C V 294;1U7F C F 376;14.361
1U7F C V 294;1U7F C I 396;1.56119
1U7F C R 295;1U7F C L 296;21.8608
1U7F C R 295;1U7F C Y 297;34.8591
1U7F C R 295;1U7F C F 304;3.53395
1U7F C R 295;1U7F C A 305;3.75926
1U7F C R 295;1U7F C E 306;40.6091
1U7F C R 295;1U7F C L 308;17.5621
1U7F C L 296;1U7F C Y 297;21.8443
1U7F C L 296;1U7F C V 303;4.37704
1U7F C L 296;1U7F C F 304;6.25114
1U7F C L 296;1U7F C A 305;6.9032
1U7F C L 296;1U7F C I 342;6.84434
1U7F C L 296;1U7F C M 374;9.57869
1U7F C L 296;1U7F C I 396;0.180613
1U7F C L 296;1U7F C L 398;20.7927
1U7F C Y 297;1U7F C Y 298;21.0355
1U7F C Y 297;1U7F C I 299;36.356
1U7F C Y 297;1U7F C E 302;1.78606
1U7F C Y 297;1U7F C V 303;10.0142
1U7F C Y 297;1U7F C F 304;41.2184
1U7F C Y 297;1U7F C E 306;4.21374
1U7F C Y 298;1U7F C I 299;19.3793
1U7F C Y 298;1U7F C G 300;20.459
1U7F C Y 298;1U7F C G 301;4.8421
1U7F C Y 298;1U7F C E 302;10.8067
1U7F C Y 298;1U7F C V 303;14.4781
1U7F C Y 298;1U7F C N 345;17.2238
1U7F C Y 298;1U7F C G 402;4.73847
1U7F C Y 298;1U7F C P 403;3.91144
1U7F C Y 298;1U7F C W 406;4.37559
1U7F C I 299;1U7F C G 300;30.5978
1U7F C I 299;1U7F C G 301;1.95242
1U7F C I 299;1U7F C E 302;22.6141
1U7F C I 299;1U7F C F 304;18.3838
1U7F C G 300;1U7F C G 301;23.938
1U7F C G 300;1U7F C E 302;2.02564
1U7F C G 301;1U7F C E 302;26.7957
1U7F C G 301;1U7F C V 303;0.0011865
1U7F C G 301;1U7F C F 343;0.290392
1U7F C G 301;1U7F C N 344;3.56686
1U7F C G 301;1U7F C N 345;27.4462
1U7F C G 301;1U7F C Q 346;12.5231
1U7F C E 302;1U7F C V 303;21.1548
1U7F C E 302;1U7F C F 304;19.668
1U7F C E 302;1U7F C K 341;29.1374
1U7F C E 302;1U7F C F 343;8.05711
1U7F C E 302;1U7F C N 344;24.7796
1U7F C E 302;1U7F C N 345;0.111272
1U7F C E 302;1U7F C Q 346;2.1527
1U7F C V 303;1U7F C F 304;22.9575
1U7F C V 303;1U7F C K 341;6.27022
1U7F C V 303;1U7F C I 342;23.2833
1U7F C V 303;1U7F C F 343;25.8664
1U7F C V 303;1U7F C N 345;0.62225
1U7F C V 303;1U7F C I 372;2.60488
1U7F C V 303;1U7F C L 398;5.57785
1U7F C V 303;1U7F C L 400;12.4645
1U7F C F 304;1U7F C A 305;19.1782
1U7F C F 304;1U7F C E 306;2.03373
1U7F C F 304;1U7F C N 339;15.8035
1U7F C F 304;1U7F C L 340;9.57469
1U7F C F 304;1U7F C K 341;31.8167
1U7F C F 304;1U7F C I 342;6.38842
1U7F C A 305;1U7F C E 306;17.1173
1U7F C A 305;1U7F C C 307;1.0146
1U7F C A 305;1U7F C I 313;6.98714
1U7F C A 305;1U7F C V 315;5.09423
1U7F C A 305;1U7F C I 334;7.58655
1U7F C A 305;1U7F C N 339;8.20746
1U7F C A 305;1U7F C L 340;14.9593
1U7F C A 305;1U7F C I 342;17.0765
1U7F C A 305;1U7F C M 374;6.75328
1U7F C E 306;1U7F C C 307;20.2617
1U7F C E 306;1U7F C L 308;23.5093
1U7F C E 306;1U7F C I 313;0.602529
1U7F C E 306;1U7F C G 337;8.54917
1U7F C E 306;1U7F C C 338;8.44952
1U7F C E 306;1U7F C N 339;21.1316
1U7F C C 307;1U7F C L 308;22.4346
1U7F C C 307;1U7F C S 309;12.2427
1U7F C C 307;1U7F C S 311;6.34139
1U7F C C 307;1U7F C A 312;2.67243
1U7F C C 307;1U7F C I 313;21.2661
1U7F C C 307;1U7F C I 334;14.4754
1U7F C C 307;1U7F C P 335;4.88651
1U7F C C 307;1U7F C P 336;10.5457
1U7F C C 307;1U7F C G 337;14.451
1U7F C C 307;1U7F C C 338;8.75443
1U7F C C 307;1U7F C N 339;0.0726078
1U7F C L 308;1U7F C S 309;25.4731
1U7F C L 308;1U7F C D 310;6.47998
1U7F C L 308;1U7F C G 337;0.278587
1U7F C S 309;1U7F C D 310;24.7365
1U7F C S 309;1U7F C S 311;16.6924
1U7F C S 309;1U7F C A 312;0.231001
1U7F C S 309;1U7F C I 313;6.28811
1U7F C S 309;1U7F C P 336;9.57343
1U7F C S 309;1U7F C G 337;0.331867
1U7F C S 309;1U7F C F 376;3.32906
1U7F C S 309;1U7F C V 377;1.06723
1U7F C D 310;1U7F C S 311;26.6785
1U7F C D 310;1U7F C P 336;19.2715
1U7F C S 311;1U7F C A 312;26.9558
1U7F C S 311;1U7F C I 313;2.28773
1U7F C S 311;1U7F C P 336;8.06172
1U7F C S 311;1U7F C V 377;21.2232
1U7F C A 312;1U7F C I 313;24.1134
1U7F C A 312;1U7F C F 314;15.1628
1U7F C A 312;1U7F C K 333;17.8042
1U7F C A 312;1U7F C I 334;6.01239
1U7F C A 312;1U7F C P 335;4.79393
1U7F C A 312;1U7F C P 336;10.6556
1U7F C A 312;1U7F C F 376;0.567738
1U7F C A 312;1U7F C V 377;16.5413
1U7F C I 313;1U7F C F 314;23.6224
1U7F C I 313;1U7F C V 315;7.75703
1U7F C I 313;1U7F C C 332;0.777527
1U7F C I 313;1U7F C K 333;2.2709
1U7F C I 313;1U7F C I 334;29.1905
1U7F C I 313;1U7F C M 374;12.9182
1U7F C I 313;1U7F C S 375;9.15924
1U7F C I 313;1U7F C F 376;16.6279
1U7F C I 313;1U7F C V 377;0.610445
1U7F C F 314;1U7F C V 315;21.3578
1U7F C F 314;1U7F C V 331;12.0239
1U7F C F 314;1U7F C C 332;4.29775
1U7F C F 314;1U7F C K 333;25.1215
1U7F C F 314;1U7F C R 373;0.631524
1U7F C F 314;1U7F C M 374;8.30691
1U7F C F 314;1U7F C S 375;19.1325
1U7F C F 314;1U7F C F 376;0.155804
1U7F C F 314;1U7F C V 377;13.0676
1U7F C F 314;1U7F C K 378;9.24393
1U7F C F 314;1U7F C G 379;19.5466
1U7F C F 314;1U7F C W 380;14.9666
1U7F C F 314;1U7F C Y 384;21.522
1U7F C V 315;1U7F C Q 316;19.1357
1U7F C V 315;1U7F C S 317;12.4387
1U7F C V 315;1U7F C C 320;0.578284
1U7F C V 315;1U7F C N 321;0.57627
1U7F C V 315;1U7F C T 330;2.37581
1U7F C V 315;1U7F C V 331;6.79729
1U7F C V 315;1U7F C C 332;23.9173
1U7F C V 315;1U7F C I 334;11.8978
1U7F C V 315;1U7F C L 340;9.45299
1U7F C V 315;1U7F C I 342;14.5673
1U7F C V 315;1U7F C I 372;8.51913
1U7F C V 315;1U7F C R 373;4.5981
1U7F C V 315;1U7F C M 374;16.1012
1U7F C V 315;1U7F C W 380;1.7746
1U7F C Q 316;1U7F C S 317;17.0113
1U7F C Q 316;1U7F C P 318;14.2507
1U7F C Q 316;1U7F C N 321;2.30381
1U7F C Q 316;1U7F C P 328;4.58867
1U7F C Q 316;1U7F C A 329;24.7392
1U7F C Q 316;1U7F C T 330;7.27819
1U7F C Q 316;1U7F C V 331;9.57328
1U7F C Q 316;1U7F C T 371;0.0627408
1U7F C Q 316;1U7F C I 372;7.32739
1U7F C Q 316;1U7F C R 373;34.5888
1U7F C Q 316;1U7F C W 380;25.191
1U7F C Q 316;1U7F C V 389;4.34769
1U7F C S 317;1U7F C P 318;19.4008
1U7F C S 317;1U7F C N 319;7.65075
1U7F C S 317;1U7F C C 320;21.0931
1U7F C S 317;1U7F C N 321;18.3913
1U7F C S 317;1U7F C T 330;0.511927
1U7F C S 317;1U7F C I 342;13.8666
1U7F C S 317;1U7F C F 343;0.724091
1U7F C S 317;1U7F C I 372;13.7915
1U7F C P 318;1U7F C N 319;19.6693
1U7F C P 318;1U7F C C 320;0.507967
1U7F C P 318;1U7F C N 321;6.82286
1U7F C P 318;1U7F C Q 322;14.4526
1U7F C P 318;1U7F C P 328;26.3909
1U7F C P 318;1U7F C R 368;16.3967
1U7F C P 318;1U7F C M 369;24.9246
1U7F C P 318;1U7F C T 371;11.8123
1U7F C P 318;1U7F C I 372;1.59915
1U7F C N 319;1U7F C C 320;18.1798
1U7F C N 319;1U7F C N 321;0.579063
1U7F C N 319;1U7F C Q 322;7.26807
1U7F C N 319;1U7F C R 323;14.2717
1U7F C N 319;1U7F C I 342;1.20668
1U7F C N 319;1U7F C F 343;23.7646
1U7F C N 319;1U7F C N 344;12.8505
1U7F C N 319;1U7F C E 347;18.9443
1U7F C N 319;1U7F C F 348;11.7407
1U7F C N 319;1U7F C M 369;24.3253
1U7F C N 319;1U7F C I 372;0.145746
1U7F C C 320;1U7F C N 321;23.7969
1U7F C C 320;1U7F C Q 322;0.736579
1U7F C C 320;1U7F C R 323;26.1694
1U7F C C 320;1U7F C Y 324;10.9139
1U7F C C 320;1U7F C C 332;6.08401
1U7F C C 320;1U7F C L 340;19.8347
1U7F C C 320;1U7F C K 341;7.22745
1U7F C C 320;1U7F C I 342;9.60087
1U7F C C 320;1U7F C F 343;0.151564
1U7F C N 321;1U7F C Q 322;18.458
1U7F C N 321;1U7F C R 323;2.80419
1U7F C N 321;1U7F C Y 324;21.4865
1U7F C N 321;1U7F C G 325;6.30628
1U7F C N 321;1U7F C W 326;11.7836
1U7F C N 321;1U7F C P 328;15.1383
1U7F C N 321;1U7F C A 329;0.0305301
1U7F C N 321;1U7F C T 330;24.0193
1U7F C N 321;1U7F C C 332;6.48156
1U7F C Q 322;1U7F C R 323;23.9559
1U7F C Q 322;1U7F C Y 324;0.451854
1U7F C Q 322;1U7F C G 325;15.7121
1U7F C Q 322;1U7F C W 326;0.00012527
1U7F C Q 322;1U7F C P 328;19.1328
1U7F C Q 322;1U7F C L 351;25.8582
1U7F C Q 322;1U7F C M 369;12.7425
1U7F C R 323;1U7F C Y 324;27.7712
1U7F C R 323;1U7F C G 325;1.968
1U7F C R 323;1U7F C L 340;1.80426
1U7F C R 323;1U7F C K 341;32.3729
1U7F C R 323;1U7F C I 342;1.26338
1U7F C R 323;1U7F C F 343;6.74395
1U7F C R 323;1U7F C N 344;7.5423
1U7F C R 323;1U7F C E 347;27.3584
1U7F C Y 324;1U7F C G 325;21.6827
1U7F C Y 324;1U7F C W 326;33.9452
1U7F C Y 324;1U7F C T 330;18.1355
1U7F C Y 324;1U7F C V 331;0.434348
1U7F C Y 324;1U7F C C 332;13.978
1U7F C G 325;1U7F C W 326;32.977
1U7F C G 325;1U7F C H 327;3.42645
1U7F C G 325;1U7F C P 328;5.78803
1U7F C W 326;1U7F C H 327;32.5697
1U7F C W 326;1U7F C P 328;7.61792
1U7F C W 326;1U7F C T 330;22.753
1U7F C H 327;1U7F C P 328;26.912
1U7F C H 327;1U7F C A 329;17.9198
1U7F C H 327;1U7F C T 330;10.0624
1U7F C P 328;1U7F C A 329;20.8736
1U7F C P 328;1U7F C T 330;3.64289
1U7F C A 329;1U7F C T 330;19.585
1U7F C A 329;1U7F C V 331;9.43928
1U7F C A 329;1U7F C W 380;0.145385
1U7F C A 329;1U7F C G 381;1.5456
1U7F C T 330;1U7F C V 331;30.3971
1U7F C T 330;1U7F C C 332;4.32184
1U7F C V 331;1U7F C C 332;22.1919
1U7F C V 331;1U7F C K 333;4.09952
1U7F C V 331;1U7F C W 380;35.2311
1U7F C V 331;1U7F C G 381;6.97765
1U7F C V 331;1U7F C A 382;9.11567
1U7F C V 331;1U7F C Y 384;8.46708
1U7F C C 332;1U7F C K 333;30.7992
1U7F C C 332;1U7F C I 334;11.6774
1U7F C C 332;1U7F C L 340;19.31
1U7F C K 333;1U7F C I 334;23.8296
1U7F C K 333;1U7F C P 335;33.205
1U7F C K 333;1U7F C P 336;0.64988
1U7F C K 333;1U7F C Y 384;15.4401
1U7F C I 334;1U7F C P 335;22.3729
1U7F C I 334;1U7F C P 336;0.0420047
1U7F C I 334;1U7F C C 338;11.6818
1U7F C I 334;1U7F C N 339;7.65209
1U7F C I 334;1U7F C L 340;22.8431
1U7F C I 334;1U7F C I 342;0.00521645
1U7F C P 335;1U7F C P 336;30.2399
1U7F C P 335;1U7F C G 337;0.554554
1U7F C P 335;1U7F C C 338;32.6341
1U7F C P 336;1U7F C G 337;24.5825
1U7F C P 336;1U7F C C 338;7.38297
1U7F C G 337;1U7F C C 338;28.106
1U7F C G 337;1U7F C N 339;3.46214
1U7F C C 338;1U7F C N 339;29.6135
1U7F C N 339;1U7F C L 340;28.4877
1U7F C N 339;1U7F C K 341;0.0146307
1U7F C L 340;1U7F C K 341;31.0338
1U7F C L 340;1U7F C I 342;17.3347
1U7F C K 341;1U7F C I 342;15.7468
1U7F C K 341;1U7F C F 343;8.10677
1U7F C K 341;1U7F C N 344;3.56986
1U7F C I 342;1U7F C F 343;22.6877
1U7F C I 342;1U7F C I 372;21.5063
1U7F C I 342;1U7F C M 374;5.15633
1U7F C I 342;1U7F C L 398;7.0562
1U7F C F 343;1U7F C N 344;25.6383
1U7F C F 343;1U7F C N 345;15.0455
1U7F C F 343;1U7F C F 348;13.7664
1U7F C F 343;1U7F C M 369;12.5311
1U7F C F 343;1U7F C C 370;3.10003
1U7F C F 343;1U7F C I 372;13.5833
1U7F C F 343;1U7F C L 400;21.3255
1U7F C F 343;1U7F C P 403;14.7079
1U7F C F 343;1U7F C W 406;0.00967666
1U7F C N 344;1U7F C N 345;18.9682
1U7F C N 344;1U7F C Q 346;18.1496
1U7F C N 344;1U7F C E 347;33.4543
1U7F C N 344;1U7F C F 348;5.46978
1U7F C N 345;1U7F C Q 346;30.0145
1U7F C N 345;1U7F C E 347;2.24025
1U7F C N 345;1U7F C F 348;9.54496
1U7F C N 345;1U7F C A 349;8.60694
1U7F C N 345;1U7F C P 403;8.57555
1U7F C N 345;1U7F C W 406;26.1218
1U7F C Q 346;1U7F C E 347;20.0017
1U7F C Q 346;1U7F C F 348;0.233907
1U7F C Q 346;1U7F C A 349;14.1352
1U7F C Q 346;1U7F C A 350;13.1345
1U7F C E 347;1U7F C F 348;18.3961
1U7F C E 347;1U7F C A 349;0.562951
1U7F C E 347;1U7F C A 350;11.9717
1U7F C E 347;1U7F C L 351;10.657
1U7F C F 348;1U7F C A 349;20.3935
1U7F C F 348;1U7F C A 350;1.4726
1U7F C F 348;1U7F C L 351;17.9798
1U7F C F 348;1U7F C L 352;23.9156
1U7F C F 348;1U7F C L 366;13.7789
1U7F C F 348;1U7F C M 369;17.7226
1U7F C F 348;1U7F C C 370;10.9925
1U7F C F 348;1U7F C P 403;17.1252
1U7F C F 348;1U7F C W 406;13.9258
1U7F C F 348;1U7F C L 407;7.99018
1U7F C A 349;1U7F C A 350;18.4601
1U7F C A 349;1U7F C L 351;0.598302
1U7F C A 349;1U7F C L 352;16.3477
1U7F C A 349;1U7F C A 353;11.1812
1U7F C A 349;1U7F C W 406;12.928
1U7F C A 350;1U7F C L 351;17.3382
1U7F C A 350;1U7F C L 352;0.967203
1U7F C A 350;1U7F C A 353;14.5313
1U7F C A 350;1U7F C Q 354;17.1713
1U7F C L 351;1U7F C L 352;16.3919
1U7F C L 351;1U7F C A 353;1.00957
1U7F C L 351;1U7F C Q 354;25.9398
1U7F C L 351;1U7F C S 355;16.9285
1U7F C L 351;1U7F C L 366;18.5173
1U7F C L 351;1U7F C M 369;18.8314
1U7F C L 352;1U7F C A 353;20.5754
1U7F C L 352;1U7F C Q 354;0.319369
1U7F C L 352;1U7F C S 355;8.73964
1U7F C L 352;1U7F C V 356;10.4251
1U7F C L 352;1U7F C V 363;8.92272
1U7F C L 352;1U7F C L 366;17.4764
1U7F C L 352;1U7F C W 406;14.8529
1U7F C L 352;1U7F C L 407;13.7645
1U7F C L 352;1U7F C V 410;23.6385
1U7F C A 353;1U7F C Q 354;23.6453
1U7F C A 353;1U7F C S 355;2.51855
1U7F C A 353;1U7F C V 356;21.9679
1U7F C A 353;1U7F C N 357;0.16324
1U7F C Q 354;1U7F C S 355;20.0347
1U7F C Q 354;1U7F C V 356;1.54024
1U7F C Q 354;1U7F C N 357;16.0767
1U7F C Q 354;1U7F C Q 358;12.5153
1U7F C S 355;1U7F C V 356;15.9481
1U7F C S 355;1U7F C N 357;2.2924
1U7F C S 355;1U7F C Q 358;16.1285
1U7F C S 355;1U7F C G 359;4.14531
1U7F C S 355;1U7F C A 362;14.9394
1U7F C S 355;1U7F C V 363;11.941
1U7F C S 355;1U7F C L 366;13.9772
1U7F C S 355;1U7F C M 414;0.197346
1U7F C V 356;1U7F C N 357;37.8294
1U7F C V 356;1U7F C Q 358;0.978571
1U7F C V 356;1U7F C G 359;6.93818
1U7F C V 356;1U7F C V 363;7.31369
1U7F C V 356;1U7F C V 410;16.7567
1U7F C V 356;1U7F C M 414;22.4555
1U7F C N 357;1U7F C Q 358;33.4068
1U7F C N 357;1U7F C G 359;3.85457
1U7F C Q 358;1U7F C G 359;24.4513
1U7F C Q 358;1U7F C E 361;0.506157
1U7F C Q 358;1U7F C A 362;22.8994
1U7F C G 359;1U7F C F 360;21.678
1U7F C G 359;1U7F C E 361;3.44829
1U7F C G 359;1U7F C A 362;9.19189
1U7F C G 359;1U7F C V 363;6.44042
1U7F C G 359;1U7F C M 414;11.0427
1U7F C F 360;1U7F C E 361;31.6925
1U7F C F 360;1U7F C A 362;1.2268
1U7F C F 360;1U7F C V 363;8.55094
1U7F C F 360;1U7F C Y 364;25.8689
1U7F C F 360;1U7F C L 411;17.5851
1U7F C F 360;1U7F C M 414;28.7043
1U7F C F 360;1U7F C G 415;8.32915
1U7F C F 360;1U7F C S 416;15.6741
1U7F C F 360;1U7F C P 417;26.0434
1U7F C E 361;1U7F C A 362;23.7917
1U7F C E 361;1U7F C V 363;1.05815
1U7F C E 361;1U7F C Y 364;11.0996
1U7F C E 361;1U7F C Q 365;32.9466
1U7F C A 362;1U7F C V 363;16.5941
1U7F C A 362;1U7F C Y 364;0.204979
1U7F C A 362;1U7F C Q 365;14.9458
1U7F C A 362;1U7F C L 366;11.3931
1U7F C V 363;1U7F C Y 364;18.3885
1U7F C V 363;1U7F C Q 365;1.87438
1U7F C V 363;1U7F C L 366;18.5044
1U7F C V 363;1U7F C T 367;0.386388
1U7F C V 363;1U7F C L 407;14.6879
1U7F C V 363;1U7F C V 410;10.4931
1U7F C V 363;1U7F C L 411;13.174
1U7F C V 363;1U7F C M 414;16.275
1U7F C Y 364;1U7F C Q 365;23.4467
1U7F C Y 364;1U7F C L 366;2.33318
1U7F C Y 364;1U7F C T 367;22.4973
1U7F C Y 364;1U7F C L 407;0.487379
1U7F C Y 364;1U7F C L 411;22.4419
1U7F C Q 365;1U7F C L 366;19.6282
1U7F C Q 365;1U7F C T 367;6.707
1U7F C Q 365;1U7F C R 368;19.1594
1U7F C Q 365;1U7F C M 369;2.18375
1U7F C L 366;1U7F C T 367;14.814
1U7F C L 366;1U7F C R 368;1.87123
1U7F C L 366;1U7F C M 369;23.3995
1U7F C L 366;1U7F C C 370;5.8912
1U7F C L 366;1U7F C L 407;11.7642
1U7F C T 367;1U7F C R 368;24.5575
1U7F C T 367;1U7F C M 369;1.13702
1U7F C T 367;1U7F C C 370;12.2333
1U7F C T 367;1U7F C T 371;9.95768
1U7F C T 367;1U7F C L 404;11.1093
1U7F C T 367;1U7F C L 407;15.8994
1U7F C T 367;1U7F C L 411;2.53532
1U7F C R 368;1U7F C M 369;21.6052
1U7F C R 368;1U7F C C 370;1.66747
1U7F C R 368;1U7F C T 371;20.3907
1U7F C M 369;1U7F C C 370;16.5725
1U7F C M 369;1U7F C T 371;6.30742
1U7F C M 369;1U7F C I 372;0.762372
1U7F C C 370;1U7F C T 371;22.1796
1U7F C C 370;1U7F C I 372;1.02085
1U7F C C 370;1U7F C L 398;1.8207
1U7F C C 370;1U7F C H 399;5.41693
1U7F C C 370;1U7F C L 400;20.8855
1U7F C C 370;1U7F C P 403;13.5797
1U7F C C 370;1U7F C L 404;19.9341
1U7F C C 370;1U7F C L 407;6.67364
1U7F C T 371;1U7F C I 372;30.7795
1U7F C T 371;1U7F C R 373;13.0249
1U7F C T 371;1U7F C E 397;17.0463
1U7F C T 371;1U7F C L 398;7.7394
1U7F C T 371;1U7F C H 399;14.2269
1U7F C T 371;1U7F C L 400;0.0043454
1U7F C T 371;1U7F C L 404;0.481712
1U7F C I 372;1U7F C R 373;24.5402
1U7F C I 372;1U7F C M 374;9.576
1U7F C I 372;1U7F C I 396;1.81216
1U7F C I 372;1U7F C E 397;4.46491
1U7F C I 372;1U7F C L 398;34.3698
1U7F C I 372;1U7F C L 400;13.9658
1U7F C R 373;1U7F C M 374;22.4255
1U7F C R 373;1U7F C W 380;9.01893
1U7F C R 373;1U7F C V 389;24.093
1U7F C R 373;1U7F C W 395;20.4487
1U7F C R 373;1U7F C I 396;4.45954
1U7F C R 373;1U7F C E 397;23.4536
1U7F C M 374;1U7F C S 375;20.1374
1U7F C M 374;1U7F C F 376;11.5425
1U7F C M 374;1U7F C W 380;3.28702
1U7F C M 374;1U7F C V 389;0.78328
1U7F C M 374;1U7F C W 395;10.6689
1U7F C M 374;1U7F C I 396;29.2347
1U7F C M 374;1U7F C L 398;9.37352
1U7F C S 375;1U7F C F 376;26.2176
1U7F C S 375;1U7F C V 377;0.0596681
1U7F C S 375;1U7F C K 378;11.8392
1U7F C S 375;1U7F C G 379;0.733676
1U7F C S 375;1U7F C W 380;13.7753
1U7F C S 375;1U7F C V 389;0.786379
1U7F C S 375;1U7F C T 392;14.8381
1U7F C S 375;1U7F C P 393;0.741002
1U7F C S 375;1U7F C C 394;5.74409
1U7F C S 375;1U7F C W 395;8.50121
1U7F C F 376;1U7F C V 377;24.6376
1U7F C F 376;1U7F C K 378;8.71256
1U7F C F 376;1U7F C P 393;2.40108
1U7F C F 376;1U7F C C 394;23.6103
1U7F C F 376;1U7F C W 395;4.91602
1U7F C F 376;1U7F C I 396;13.2207
1U7F C V 377;1U7F C K 378;33.8468
1U7F C V 377;1U7F C G 379;0.010467
1U7F C K 378;1U7F C G 379;22.6382
1U7F C K 378;1U7F C R 386;34.3314
1U7F C K 378;1U7F C T 392;5.63197
1U7F C K 378;1U7F C P 393;15.4951
1U7F C G 379;1U7F C W 380;20.4446
1U7F C G 379;1U7F C Y 384;16.406
1U7F C G 379;1U7F C R 386;12.811
1U7F C G 379;1U7F C T 392;5.67055
1U7F C W 380;1U7F C G 381;24.4497
1U7F C W 380;1U7F C A 382;0.722517
1U7F C W 380;1U7F C Y 384;15.8102
1U7F C W 380;1U7F C R 386;13.2898
1U7F C W 380;1U7F C Q 387;8.19547
1U7F C W 380;1U7F C T 388;12.3018
1U7F C W 380;1U7F C V 389;31.3989
1U7F C W 380;1U7F C T 392;11.9909
1U7F C W 380;1U7F C W 395;0.0316257
1U7F C G 381;1U7F C A 382;24.7721
1U7F C G 381;1U7F C E 383;0.876915
1U7F C G 381;1U7F C Y 384;10.3304
1U7F C G 381;1U7F C R 386;6.07366
1U7F C G 381;1U7F C Q 387;23.5586
1U7F C A 382;1U7F C E 383;34.455
1U7F C A 382;1U7F C Y 384;5.2567
1U7F C A 382;1U7F C Q 387;11.7185
1U7F C E 383;1U7F C Y 384;55.3626
1U7F C E 383;1U7F C R 385;0.224055
1U7F C E 383;1U7F C Q 387;1.10077
1U7F C Y 384;1U7F C R 385;26.5039
1U7F C Y 384;1U7F C R 386;14.1906
1U7F C Y 384;1U7F C Q 387;7.39064
1U7F C R 385;1U7F C R 386;25.6829
1U7F C R 385;1U7F C Q 387;28.5831
1U7F C R 386;1U7F C Q 387;18.3009
1U7F C R 386;1U7F C T 388;3.1727
1U7F C R 386;1U7F C S 391;25.2315
1U7F C R 386;1U7F C T 392;12.2641
1U7F C R 386;1U7F C P 393;12.6109
1U7F C Q 387;1U7F C T 388;33.9659
1U7F C Q 387;1U7F C S 391;3.4738
1U7F C T 388;1U7F C V 389;22.1357
1U7F C T 388;1U7F C T 390;18.6848
1U7F C T 388;1U7F C S 391;24.173
1U7F C T 388;1U7F C T 392;3.22651
1U7F C V 389;1U7F C T 390;23.4543
1U7F C V 389;1U7F C S 391;2.87046
1U7F C V 389;1U7F C T 392;17.082
1U7F C V 389;1U7F C W 395;31.1597
1U7F C T 390;1U7F C S 391;20.9992
1U7F C T 390;1U7F C T 392;1.03644
1U7F C T 390;1U7F C W 395;8.13064
1U7F C S 391;1U7F C T 392;19.0527
1U7F C S 391;1U7F C P 393;2.92117
1U7F C T 392;1U7F C P 393;23.6232
1U7F C T 392;1U7F C C 394;5.94494
1U7F C T 392;1U7F C W 395;13.4475
1U7F C P 393;1U7F C C 394;28.2432
1U7F C P 393;1U7F C W 395;0.39843
1U7F C C 394;1U7F C W 395;20.0339
1U7F C W 395;1U7F C I 396;27.5427
1U7F C W 395;1U7F C E 397;9.45516
1U7F C I 396;1U7F C E 397;19.7289
1U7F C I 396;1U7F C L 398;9.41836
1U7F C E 397;1U7F C L 398;22.3311
1U7F C E 397;1U7F C H 399;16.8322
1U7F C L 398;1U7F C H 399;23.2341
1U7F C L 398;1U7F C L 400;11.5958
1U7F C H 399;1U7F C L 400;18.2113
1U7F C H 399;1U7F C N 401;9.23272
1U7F C H 399;1U7F C L 404;16.3333
1U7F C L 400;1U7F C N 401;15.516
1U7F C L 400;1U7F C G 402;0.836017
1U7F C L 400;1U7F C P 403;21.9414
1U7F C L 400;1U7F C L 404;13.8613
1U7F C N 401;1U7F C G 402;22.672
1U7F C N 401;1U7F C P 403;0.494843
1U7F C N 401;1U7F C L 404;14.0045
1U7F C N 401;1U7F C Q 405;11.9908
1U7F C G 402;1U7F C P 403;23.6497
1U7F C G 402;1U7F C L 404;1.30301
1U7F C G 402;1U7F C Q 405;11.6108
1U7F C G 402;1U7F C W 406;24.4762
1U7F C P 403;1U7F C L 404;14.7995
1U7F C P 403;1U7F C Q 405;0.800625
1U7F C P 403;1U7F C W 406;20.1861
1U7F C P 403;1U7F C L 407;8.83936
1U7F C L 404;1U7F C Q 405;16.0206
1U7F C L 404;1U7F C W 406;0.636727
1U7F C L 404;1U7F C L 407;13.8408
1U7F C L 404;1U7F C D 408;6.42547
1U7F C Q 405;1U7F C W 406;22.8214
1U7F C Q 405;1U7F C L 407;0.794599
1U7F C Q 405;1U7F C D 408;11.385
1U7F C Q 405;1U7F C K 409;33.9151
1U7F C W 406;1U7F C L 407;16.7185
1U7F C W 406;1U7F C D 408;1.11189
1U7F C W 406;1U7F C K 409;27.858
1U7F C W 406;1U7F C V 410;10.0902
1U7F C L 407;1U7F C D 408;15.5101
1U7F C L 407;1U7F C K 409;0.938046
1U7F C L 407;1U7F C V 410;7.63764
1U7F C L 407;1U7F C L 411;20.7021
1U7F C D 408;1U7F C K 409;23.5699
1U7F C D 408;1U7F C V 410;0.820514
1U7F C D 408;1U7F C L 411;11.2643
1U7F C D 408;1U7F C T 412;18.0359
1U7F C K 409;1U7F C V 410;23.6371
1U7F C K 409;1U7F C L 411;0.404315
1U7F C K 409;1U7F C T 412;12.8055
1U7F C K 409;1U7F C Q 413;12.2803
1U7F C V 410;1U7F C L 411;16.087
1U7F C V 410;1U7F C T 412;1.6564
1U7F C V 410;1U7F C Q 413;13.9414
1U7F C V 410;1U7F C M 414;17.9315
1U7F C L 411;1U7F C T 412;18.1153
1U7F C L 411;1U7F C Q 413;2.89829
1U7F C L 411;1U7F C M 414;18.2504
1U7F C L 411;1U7F C G 415;5.052
1U7F C T 412;1U7F C Q 413;40.7221
1U7F C T 412;1U7F C M 414;0.39721
1U7F C T 412;1U7F C G 415;1.75631
1U7F C Q 413;1U7F C M 414;24.5549
1U7F C Q 413;1U7F C G 415;9.43733
1U7F C M 414;1U7F C G 415;24.8758
1U7F C M 414;1U7F C S 416;4.80492
1U7F C G 415;1U7F C S 416;31.1705
1U7F C S 416;1U7F C P 417;46.7694
1U7F C S 416;1U7F C S 418;2.84646
1U7F C P 417;1U7F C S 418;32.8377
1U7F C P 417;1U7F C I 419;13.6613
1U7F C P 417;1U7F C R 420;0.571105
1U7F C S 418;1U7F C I 419;34.3477
1U7F C S 418;1U7F C R 420;15.6897
1U7F C I 419;1U7F C R 420;35.4315
1U7F C R 420;1U7F C C 421;49.2673
1U7F C R 420;1U7F C S 422;3.38546
1U7F C C 421;1U7F C S 422;33.4289
1U7F C S 422;1U7F C V 424;35.2083
