V1;V2;Weight
2B0U C G 1;2B0U C N 2;27.4147
2B0U C G 1;2B0U C K 18;0.131052
2B0U C G 1;2B0U C T 19;7.49305
2B0U C G 1;2B0U C E 20;17.4483
2B0U C G 1;2B0U C L 21;21.7405
2B0U C G 1;2B0U C W 36;5.97519
2B0U C G 1;2B0U C T 37;2.14042
2B0U C G 1;2B0U C E 38;7.81124
2B0U C G 1;2B0U C E 39;1.2594
2B0U C G 1;2B0U C D 40;24.1594
2B0U C N 2;2B0U C C 3;19.0634
2B0U C N 2;2B0U C W 4;15.3835
2B0U C N 2;2B0U C L 16;13.6705
2B0U C N 2;2B0U C K 18;7.07955
2B0U C N 2;2B0U C T 19;6.85793
2B0U C N 2;2B0U C L 21;4.02885
2B0U C N 2;2B0U C W 36;9.62345
2B0U C N 2;2B0U C T 37;27.693
2B0U C N 2;2B0U C E 38;0.0300305
2B0U C N 2;2B0U C E 39;9.8701
2B0U C N 2;2B0U C D 40;10.9163
2B0U C N 2;2B0U C V 41;5.555
2B0U C N 2;2B0U C L 46;14.3677
2B0U C N 2;2B0U C W 49;1.35957
2B0U C C 3;2B0U C W 4;26.1234
2B0U C C 3;2B0U C L 16;8.8484
2B0U C C 3;2B0U C Y 17;17.909
2B0U C C 3;2B0U C K 18;15.2398
2B0U C C 3;2B0U C L 21;13.7997
2B0U C C 3;2B0U C C 26;22.5038
2B0U C C 3;2B0U C T 34;9.41588
2B0U C C 3;2B0U C S 35;2.48979
2B0U C C 3;2B0U C W 36;6.18829
2B0U C C 3;2B0U C T 37;0.0155036
2B0U C W 4;2B0U C L 5;18.1699
2B0U C W 4;2B0U C R 6;4.11059
2B0U C W 4;2B0U C C 13;26.3434
2B0U C W 4;2B0U C Q 14;14.3368
2B0U C W 4;2B0U C V 15;4.0512
2B0U C W 4;2B0U C L 16;23.5908
2B0U C W 4;2B0U C Y 17;9.00672
2B0U C W 4;2B0U C T 34;10.9123
2B0U C W 4;2B0U C S 35;21.1333
2B0U C W 4;2B0U C W 36;1.98544
2B0U C W 4;2B0U C T 37;17.4466
2B0U C W 4;2B0U C L 46;17.0797
2B0U C W 4;2B0U C W 49;0.898292
2B0U C W 4;2B0U C M 50;5.87833
2B0U C W 4;2B0U C A 56;15.011
2B0U C L 5;2B0U C R 6;26.2687
2B0U C L 5;2B0U C Q 14;2.78129
2B0U C L 5;2B0U C V 15;21.2664
2B0U C L 5;2B0U C Y 17;23.3433
2B0U C L 5;2B0U C S 33;8.4382
2B0U C L 5;2B0U C T 34;13.4705
2B0U C L 5;2B0U C S 35;1.24577
2B0U C R 6;2B0U C Q 7;27.3944
2B0U C R 6;2B0U C A 8;2.52227
2B0U C R 6;2B0U C R 12;2.65927
2B0U C R 6;2B0U C C 13;5.07027
2B0U C R 6;2B0U C Q 14;17.2212
2B0U C R 6;2B0U C V 15;11.7317
2B0U C R 6;2B0U C S 33;14.6483
2B0U C R 6;2B0U C S 35;4.52265
2B0U C R 6;2B0U C C 59;1.1312
2B0U C Q 7;2B0U C A 8;30.5677
2B0U C Q 7;2B0U C K 9;0.397749
2B0U C Q 7;2B0U C G 11;15.7707
2B0U C Q 7;2B0U C R 12;6.21377
2B0U C Q 7;2B0U C S 33;11.8643
2B0U C Q 7;2B0U C S 35;11.2659
2B0U C Q 7;2B0U C C 59;16.4606
2B0U C Q 7;2B0U C I 60;0.00361167
2B0U C Q 7;2B0U C P 61;19.6209
2B0U C Q 7;2B0U C K 84;19.8037
2B0U C A 8;2B0U C K 9;30.2524
2B0U C A 8;2B0U C N 10;13.2655
2B0U C A 8;2B0U C G 11;8.70661
2B0U C A 8;2B0U C R 12;16.112
2B0U C A 8;2B0U C Q 14;24.7118
2B0U C A 8;2B0U C G 54;2.52294
2B0U C A 8;2B0U C G 55;0.0505041
2B0U C K 9;2B0U C N 10;25.7045
2B0U C K 9;2B0U C G 11;4.77418
2B0U C N 10;2B0U C G 11;15.5282
2B0U C N 10;2B0U C R 12;23.0199
2B0U C N 10;2B0U C Q 14;0.00899546
2B0U C N 10;2B0U C N 53;4.0669
2B0U C N 10;2B0U C G 54;17.6596
2B0U C G 11;2B0U C R 12;20.357
2B0U C G 11;2B0U C C 59;14.0312
2B0U C G 11;2B0U C K 84;0.967937
2B0U C R 12;2B0U C C 13;15.4312
2B0U C R 12;2B0U C Q 14;5.49797
2B0U C R 12;2B0U C N 53;31.247
2B0U C R 12;2B0U C G 54;2.87726
2B0U C R 12;2B0U C G 55;8.89078
2B0U C R 12;2B0U C A 56;13.4289
2B0U C R 12;2B0U C P 57;12.7552
2B0U C R 12;2B0U C N 58;0.298488
2B0U C R 12;2B0U C C 59;8.2431
2B0U C C 13;2B0U C Q 14;18.7393
2B0U C C 13;2B0U C S 35;8.5595
2B0U C C 13;2B0U C W 36;5.20533
2B0U C C 13;2B0U C T 37;7.86054
2B0U C C 13;2B0U C M 50;1.26385
2B0U C C 13;2B0U C G 55;2.77531
2B0U C C 13;2B0U C A 56;24.5901
2B0U C C 13;2B0U C C 59;22.0515
2B0U C C 13;2B0U C I 60;0.662969
2B0U C Q 14;2B0U C V 15;34.1987
2B0U C Q 14;2B0U C M 50;6.71662
2B0U C Q 14;2B0U C G 54;7.25963
2B0U C Q 14;2B0U C G 55;11.4126
2B0U C V 15;2B0U C L 16;21.5329
2B0U C V 15;2B0U C Y 17;10.9149
2B0U C L 16;2B0U C Y 17;26.963
2B0U C L 16;2B0U C K 18;11.8704
2B0U C L 16;2B0U C T 19;7.70441
2B0U C L 16;2B0U C D 43;0.588918
2B0U C L 16;2B0U C L 46;15.3613
2B0U C Y 17;2B0U C K 18;32.301
2B0U C Y 17;2B0U C T 19;0.292549
2B0U C Y 17;2B0U C T 34;4.68244
2B0U C K 18;2B0U C T 19;33.9333
2B0U C K 18;2B0U C L 21;17.0772
2B0U C T 19;2B0U C E 20;46.3165
2B0U C T 19;2B0U C L 21;11.3867
2B0U C T 19;2B0U C D 40;1.32709
2B0U C E 20;2B0U C L 21;21.8648
2B0U C E 20;2B0U C E 25;0.458589
2B0U C E 20;2B0U C D 40;5.01215
2B0U C L 21;2B0U C S 22;30.6699
2B0U C L 21;2B0U C E 25;29.0497
2B0U C L 21;2B0U C C 26;13.3627
2B0U C L 21;2B0U C W 36;15.2674
2B0U C S 22;2B0U C K 23;23.5872
2B0U C S 22;2B0U C E 24;8.35124
2B0U C S 22;2B0U C E 25;28.2358
2B0U C S 22;2B0U C C 26;4.45693
2B0U C S 22;2B0U C W 36;8.24022
2B0U C K 23;2B0U C E 24;23.5582
2B0U C K 23;2B0U C E 25;0.825045
2B0U C K 23;2B0U C C 26;7.82243
2B0U C K 23;2B0U C C 27;27.0634
2B0U C K 23;2B0U C W 36;40.7778
2B0U C K 23;2B0U C I 60;27.0936
2B0U C K 23;2B0U C P 61;2.00257
2B0U C K 23;2B0U C C 62;0.600407
2B0U C E 24;2B0U C E 25;23.4295
2B0U C E 24;2B0U C C 26;1.60437
2B0U C E 24;2B0U C C 27;14.2939
2B0U C E 24;2B0U C S 28;12.4766
2B0U C E 25;2B0U C C 26;19.846
2B0U C E 25;2B0U C C 27;0.00897179
2B0U C E 25;2B0U C S 28;18.0367
2B0U C E 25;2B0U C T 29;1.40925
2B0U C C 26;2B0U C C 27;17.0533
2B0U C C 26;2B0U C S 28;4.68757
2B0U C C 26;2B0U C T 29;14.631
2B0U C C 26;2B0U C T 34;9.66298
2B0U C C 26;2B0U C S 35;5.01271
2B0U C C 26;2B0U C W 36;12.8587
2B0U C C 26;2B0U C C 62;8.73146
2B0U C C 27;2B0U C S 28;22.7645
2B0U C C 27;2B0U C T 29;5.26424
2B0U C C 27;2B0U C W 36;4.37849
2B0U C C 27;2B0U C I 60;0.939149
2B0U C C 27;2B0U C P 61;6.46538e-07
2B0U C C 27;2B0U C C 62;35.6884
2B0U C C 27;2B0U C K 63;11.3325
2B0U C S 28;2B0U C T 29;34.4088
2B0U C S 28;2B0U C G 30;8.19425
2B0U C S 28;2B0U C K 63;1.5872
2B0U C T 29;2B0U C G 30;20.0349
2B0U C T 29;2B0U C R 31;19.3741
2B0U C T 29;2B0U C T 34;11.2283
2B0U C T 29;2B0U C C 62;1.2165
2B0U C T 29;2B0U C K 63;6.57205
2B0U C G 30;2B0U C R 31;21.0351
2B0U C G 30;2B0U C L 32;4.0316
2B0U C G 30;2B0U C K 63;15.5267
2B0U C G 30;2B0U C E 67;0.00342521
2B0U C G 30;2B0U C N 68;14.9304
2B0U C G 30;2B0U C V 69;3.06191
2B0U C G 30;2B0U C D 70;7.2652
2B0U C R 31;2B0U C L 32;24.0919
2B0U C R 31;2B0U C S 33;2.93453
2B0U C R 31;2B0U C T 34;26.6757
2B0U C R 31;2B0U C C 62;1.42865
2B0U C R 31;2B0U C K 63;12.4993
2B0U C L 32;2B0U C S 33;40.6953
2B0U C L 32;2B0U C T 34;3.0051
2B0U C L 32;2B0U C C 62;0.224738
2B0U C L 32;2B0U C K 63;21.4673
2B0U C L 32;2B0U C V 69;26.6136
2B0U C L 32;2B0U C D 70;1.74012
2B0U C L 32;2B0U C C 77;0.983556
2B0U C L 32;2B0U C P 85;28.2078
2B0U C L 32;2B0U C R 86;3.87084
2B0U C L 32;2B0U C C 87;22.5839
2B0U C S 33;2B0U C T 34;22.1596
2B0U C S 33;2B0U C S 35;10.0401
2B0U C S 33;2B0U C P 61;0.785496
2B0U C S 33;2B0U C C 62;0.136761
2B0U C S 33;2B0U C P 85;1.913
2B0U C T 34;2B0U C S 35;20.1838
2B0U C T 34;2B0U C P 61;0.222692
2B0U C T 34;2B0U C C 62;24.5321
2B0U C T 34;2B0U C K 63;0.550655
2B0U C S 35;2B0U C W 36;18.1122
2B0U C S 35;2B0U C C 59;6.48809
2B0U C S 35;2B0U C I 60;7.37998
2B0U C S 35;2B0U C P 61;10.1867
2B0U C S 35;2B0U C C 62;6.04939
2B0U C W 36;2B0U C T 37;33.4177
2B0U C W 36;2B0U C E 38;23.5203
2B0U C W 36;2B0U C N 58;2.71287
2B0U C W 36;2B0U C C 59;1.38137
2B0U C W 36;2B0U C I 60;40.6913
2B0U C W 36;2B0U C C 62;4.16181
2B0U C T 37;2B0U C E 38;24.744
2B0U C T 37;2B0U C E 39;12.8395
2B0U C T 37;2B0U C L 46;7.16789e-06
2B0U C T 37;2B0U C W 49;9.14056
2B0U C T 37;2B0U C A 56;7.11668
2B0U C T 37;2B0U C P 57;10.9982
2B0U C T 37;2B0U C N 58;7.61088
2B0U C T 37;2B0U C C 59;1.32489
2B0U C T 37;2B0U C I 60;0.34866
2B0U C E 38;2B0U C E 39;31.5409
2B0U C E 38;2B0U C D 40;5.0859
2B0U C E 38;2B0U C N 58;10.9779
2B0U C E 38;2B0U C I 60;8.90414
2B0U C E 39;2B0U C D 40;31.5795
2B0U C E 39;2B0U C V 41;23.0836
2B0U C E 39;2B0U C W 49;18.0
2B0U C E 39;2B0U C P 57;0.249717
2B0U C E 39;2B0U C N 58;0.505242
2B0U C D 40;2B0U C V 41;30.2542
2B0U C V 41;2B0U C N 42;36.3521
2B0U C V 41;2B0U C D 43;8.55399
2B0U C V 41;2B0U C T 45;23.5724
2B0U C V 41;2B0U C L 46;14.2115
2B0U C V 41;2B0U C W 49;15.3128
2B0U C N 42;2B0U C D 43;26.887
2B0U C N 42;2B0U C N 44;28.5339
2B0U C N 42;2B0U C T 45;14.9057
2B0U C N 42;2B0U C L 46;5.56276
2B0U C D 43;2B0U C N 44;20.6002
2B0U C D 43;2B0U C T 45;0.890667
2B0U C D 43;2B0U C L 46;31.7935
2B0U C D 43;2B0U C F 47;7.92332
2B0U C N 44;2B0U C T 45;20.1577
2B0U C N 44;2B0U C L 46;0.729582
2B0U C N 44;2B0U C F 47;19.0778
2B0U C N 44;2B0U C K 48;21.4
2B0U C T 45;2B0U C L 46;16.4001
2B0U C T 45;2B0U C F 47;1.24198
2B0U C T 45;2B0U C K 48;20.8203
2B0U C T 45;2B0U C W 49;32.4676
2B0U C L 46;2B0U C F 47;15.7767
2B0U C L 46;2B0U C K 48;0.0849351
2B0U C L 46;2B0U C W 49;30.0869
2B0U C L 46;2B0U C M 50;20.0726
2B0U C L 46;2B0U C A 56;0.574809
2B0U C F 47;2B0U C K 48;24.1292
2B0U C F 47;2B0U C W 49;1.56
2B0U C F 47;2B0U C M 50;22.8015
2B0U C F 47;2B0U C I 51;19.056
2B0U C K 48;2B0U C W 49;18.3908
2B0U C K 48;2B0U C M 50;1.96976
2B0U C K 48;2B0U C I 51;13.4328
2B0U C K 48;2B0U C F 52;36.7332
2B0U C K 48;2B0U C N 53;0.0885199
2B0U C W 49;2B0U C M 50;15.431
2B0U C W 49;2B0U C I 51;0.850657
2B0U C W 49;2B0U C F 52;5.34617
2B0U C W 49;2B0U C N 53;28.6359
2B0U C W 49;2B0U C G 54;2.91234
2B0U C W 49;2B0U C G 55;13.9361
2B0U C W 49;2B0U C A 56;13.6049
2B0U C W 49;2B0U C P 57;32.5736
2B0U C M 50;2B0U C I 51;28.2196
2B0U C M 50;2B0U C G 54;12.8221
2B0U C M 50;2B0U C G 55;20.3715
2B0U C M 50;2B0U C A 56;1.45828
2B0U C I 51;2B0U C F 52;33.4359
2B0U C I 51;2B0U C G 54;5.43528
2B0U C F 52;2B0U C N 53;33.6937
2B0U C F 52;2B0U C G 54;6.69793
2B0U C N 53;2B0U C G 54;18.6996
2B0U C N 53;2B0U C G 55;8.01093
2B0U C N 53;2B0U C P 57;11.4021
2B0U C G 54;2B0U C G 55;19.9136
2B0U C G 55;2B0U C A 56;20.2293
2B0U C G 55;2B0U C P 57;1.80108
2B0U C A 56;2B0U C P 57;25.2134
2B0U C A 56;2B0U C N 58;0.102134
2B0U C A 56;2B0U C C 59;4.13079
2B0U C P 57;2B0U C N 58;34.8761
2B0U C P 57;2B0U C C 59;1.01566
2B0U C N 58;2B0U C C 59;22.8953
2B0U C N 58;2B0U C I 60;11.7156
2B0U C C 59;2B0U C I 60;19.6909
2B0U C C 59;2B0U C P 61;9.7921
2B0U C I 60;2B0U C P 61;33.8416
2B0U C I 60;2B0U C C 62;3.27046
2B0U C P 61;2B0U C C 62;22.7575
2B0U C P 61;2B0U C K 63;19.5885
2B0U C P 61;2B0U C E 64;9.81579
2B0U C P 61;2B0U C K 84;14.6796
2B0U C C 62;2B0U C K 63;43.5631
2B0U C C 62;2B0U C E 64;0.361894
2B0U C K 63;2B0U C E 64;26.2331
2B0U C K 63;2B0U C T 65;11.1233
2B0U C K 63;2B0U C E 67;11.7239
2B0U C K 63;2B0U C N 68;1.44325
2B0U C K 63;2B0U C V 69;12.5276
2B0U C K 63;2B0U C K 84;1.17392
2B0U C K 63;2B0U C P 85;18.7022
2B0U C E 64;2B0U C T 65;33.4039
2B0U C E 64;2B0U C M 79;4.55611
2B0U C E 64;2B0U C N 83;28.1256
2B0U C E 64;2B0U C K 84;1.41341
2B0U C E 64;2B0U C P 85;9.7031
2B0U C T 65;2B0U C C 66;19.8012
2B0U C T 65;2B0U C E 67;19.4894
2B0U C T 65;2B0U C V 69;3.63181
2B0U C T 65;2B0U C M 79;14.0929
2B0U C T 65;2B0U C P 85;10.138
2B0U C C 66;2B0U C E 67;23.2889
2B0U C C 66;2B0U C N 68;3.95324
2B0U C C 66;2B0U C V 69;17.6428
2B0U C C 66;2B0U C C 77;29.6751
2B0U C C 66;2B0U C R 78;1.50066
2B0U C C 66;2B0U C M 79;26.2128
2B0U C C 66;2B0U C P 85;7.09696
2B0U C E 67;2B0U C N 68;51.1466
2B0U C E 67;2B0U C V 69;7.51282
2B0U C N 68;2B0U C V 69;22.3352
2B0U C N 68;2B0U C D 70;10.1933
2B0U C V 69;2B0U C D 70;26.1293
2B0U C V 69;2B0U C C 71;14.4833
2B0U C V 69;2B0U C C 77;17.2901
2B0U C V 69;2B0U C P 85;3.38861
2B0U C V 69;2B0U C C 87;7.69158
2B0U C D 70;2B0U C C 71;27.5934
2B0U C D 70;2B0U C G 72;16.5053
2B0U C D 70;2B0U C C 87;1.70233
2B0U C C 71;2B0U C G 72;27.5795
2B0U C C 71;2B0U C K 75;36.4934
2B0U C C 71;2B0U C K 76;7.5574
2B0U C C 71;2B0U C C 77;7.18078
2B0U C C 71;2B0U C C 87;23.6728
2B0U C G 72;2B0U C P 73;37.1996
2B0U C G 72;2B0U C G 74;1.06739
2B0U C G 72;2B0U C K 75;15.3208
2B0U C P 73;2B0U C G 74;28.7236
2B0U C P 73;2B0U C K 75;13.2495
2B0U C P 73;2B0U C C 121;0.725887
2B0U C G 74;2B0U C K 75;20.7091
2B0U C G 74;2B0U C C 89;2.2988
2B0U C G 74;2B0U C A 90;23.0105
2B0U C G 74;2B0U C P 91;13.5298
2B0U C G 74;2B0U C C 121;8.667
2B0U C K 75;2B0U C K 76;22.4523
2B0U C K 75;2B0U C C 87;21.691
2B0U C K 75;2B0U C V 88;10.5118
2B0U C K 75;2B0U C C 89;11.5336
2B0U C K 75;2B0U C A 90;3.04894
2B0U C K 75;2B0U C C 121;14.7558
2B0U C K 76;2B0U C C 77;26.8376
2B0U C K 76;2B0U C R 78;12.3787
2B0U C K 76;2B0U C R 86;0.857787
2B0U C K 76;2B0U C C 87;4.99622
2B0U C K 76;2B0U C V 88;19.9823
2B0U C K 76;2B0U C A 90;16.6213
2B0U C C 77;2B0U C R 78;28.0374
2B0U C C 77;2B0U C M 79;2.77069
2B0U C C 77;2B0U C P 85;8.721
2B0U C C 77;2B0U C R 86;7.72098
2B0U C C 77;2B0U C C 87;3.75596
2B0U C C 77;2B0U C V 88;0.000120334
2B0U C R 78;2B0U C M 79;32.1395
2B0U C R 78;2B0U C N 80;7.22698
2B0U C R 78;2B0U C K 84;1.96851
2B0U C R 78;2B0U C P 85;0.874248
2B0U C R 78;2B0U C R 86;18.8261
2B0U C R 78;2B0U C V 88;33.7183
2B0U C R 78;2B0U C C 89;2.94322
2B0U C R 78;2B0U C A 90;9.12063
2B0U C M 79;2B0U C N 80;31.8938
2B0U C M 79;2B0U C N 83;19.7553
2B0U C M 79;2B0U C K 84;5.31444
2B0U C M 79;2B0U C P 85;8.58394
2B0U C N 80;2B0U C K 81;31.7387
2B0U C N 80;2B0U C K 82;9.1451
2B0U C N 80;2B0U C N 83;18.405
2B0U C N 80;2B0U C K 84;29.9754
2B0U C N 80;2B0U C P 85;0.047649
2B0U C N 80;2B0U C R 86;17.3693
2B0U C K 81;2B0U C K 82;30.2066
2B0U C K 81;2B0U C N 83;0.219924
2B0U C K 82;2B0U C N 83;32.3133
2B0U C K 82;2B0U C K 84;12.6432
2B0U C N 83;2B0U C K 84;25.4882
2B0U C N 83;2B0U C P 85;1.06274
2B0U C K 84;2B0U C P 85;33.3411
2B0U C K 84;2B0U C R 86;4.17786
2B0U C P 85;2B0U C R 86;22.4448
2B0U C P 85;2B0U C C 87;0.0578799
2B0U C R 86;2B0U C C 87;23.6613
2B0U C R 86;2B0U C V 88;14.4114
2B0U C C 87;2B0U C V 88;23.0138
2B0U C C 87;2B0U C C 89;0.0576188
2B0U C V 88;2B0U C C 89;31.7449
2B0U C V 88;2B0U C A 90;3.22004
2B0U C C 89;2B0U C A 90;21.2287
2B0U C C 89;2B0U C P 91;10.554
2B0U C C 89;2B0U C K 118;10.0855
2B0U C C 89;2B0U C C 121;20.5228
2B0U C C 89;2B0U C K 122;20.7888
2B0U C A 90;2B0U C P 91;33.9266
2B0U C A 90;2B0U C C 121;0.000167218
2B0U C P 91;2B0U C D 92;30.7942
2B0U C P 91;2B0U C C 93;13.8798
2B0U C P 91;2B0U C C 114;9.36376
2B0U C P 91;2B0U C L 117;20.1468
2B0U C P 91;2B0U C K 118;16.8343
2B0U C P 91;2B0U C C 121;9.0641
2B0U C D 92;2B0U C C 93;23.8471
2B0U C D 92;2B0U C S 94;7.22922
2B0U C D 92;2B0U C N 95;31.9792
2B0U C D 92;2B0U C I 96;4.90159
2B0U C D 92;2B0U C C 114;3.15956
2B0U C D 92;2B0U C L 117;13.4614
2B0U C C 93;2B0U C S 94;26.429
2B0U C C 93;2B0U C N 95;3.93887
2B0U C C 93;2B0U C I 96;10.5838
2B0U C C 93;2B0U C T 97;8.74214
2B0U C C 93;2B0U C C 114;35.8977
2B0U C C 93;2B0U C L 117;0.280082
2B0U C S 94;2B0U C N 95;26.4862
2B0U C S 94;2B0U C I 96;2.35938
2B0U C S 94;2B0U C T 97;15.2285
2B0U C N 95;2B0U C I 96;33.1216
2B0U C N 95;2B0U C T 97;0.0163526
2B0U C I 96;2B0U C T 97;25.7311
2B0U C I 96;2B0U C K 99;15.8592
2B0U C I 96;2B0U C E 113;25.425
2B0U C I 96;2B0U C C 114;4.21588
2B0U C I 96;2B0U C L 117;6.90686
2B0U C T 97;2B0U C K 99;33.6579
2B0U C T 97;2B0U C N 112;9.08711
2B0U C T 97;2B0U C E 113;8.33998
2B0U C T 97;2B0U C C 114;5.76356
2B0U C K 99;2B0U C G 100;38.1193
2B0U C K 99;2B0U C P 101;1.78211
2B0U C K 99;2B0U C V 102;4.97143
2B0U C K 99;2B0U C N 112;7.08385
2B0U C K 99;2B0U C E 113;19.1232
2B0U C K 99;2B0U C Q 132;26.9902
2B0U C G 100;2B0U C P 101;33.3335
2B0U C G 100;2B0U C V 102;6.56519
2B0U C G 100;2B0U C R 111;3.88222
2B0U C G 100;2B0U C N 112;10.2662
2B0U C G 100;2B0U C E 113;0.511092
2B0U C P 101;2B0U C V 102;20.6372
2B0U C P 101;2B0U C T 109;10.8332
2B0U C P 101;2B0U C Y 110;3.94794
2B0U C P 101;2B0U C R 111;17.338
2B0U C P 101;2B0U C N 112;0.986311
2B0U C P 101;2B0U C Q 132;2.51876
2B0U C P 101;2B0U C G 133;20.4325
2B0U C P 101;2B0U C R 134;8.75141
2B0U C V 102;2B0U C C 103;24.6716
2B0U C V 102;2B0U C G 104;0.815018
2B0U C V 102;2B0U C K 108;0.049084
2B0U C V 102;2B0U C T 109;10.0023
2B0U C V 102;2B0U C Y 110;21.0038
2B0U C V 102;2B0U C N 112;7.32335
2B0U C V 102;2B0U C E 113;15.0732
2B0U C V 102;2B0U C L 116;3.32149
2B0U C V 102;2B0U C V 129;22.2658
2B0U C V 102;2B0U C Y 131;2.61924
2B0U C V 102;2B0U C Q 132;17.531
2B0U C V 102;2B0U C G 133;10.8374
2B0U C V 102;2B0U C C 135;0.0365645
2B0U C C 103;2B0U C G 104;23.9357
2B0U C C 103;2B0U C G 107;1.36554
2B0U C C 103;2B0U C K 108;0.61803
2B0U C C 103;2B0U C T 109;1.20647
2B0U C C 103;2B0U C Y 110;0.00199325
2B0U C C 103;2B0U C L 116;0.371676
2B0U C C 103;2B0U C V 129;5.67391
2B0U C C 103;2B0U C Q 130;17.6863
2B0U C C 103;2B0U C Y 131;31.1437
2B0U C C 103;2B0U C Q 132;0.0709666
2B0U C C 103;2B0U C G 133;7.64151
2B0U C C 103;2B0U C R 134;0.499054
2B0U C C 103;2B0U C C 135;23.009
2B0U C C 103;2B0U C A 158;0.225182
2B0U C G 104;2B0U C L 105;13.6332
2B0U C G 104;2B0U C D 106;7.79729
2B0U C G 104;2B0U C G 107;7.02889
2B0U C G 104;2B0U C K 108;8.05648
2B0U C G 104;2B0U C Y 110;7.34321
2B0U C G 104;2B0U C L 116;7.68316
2B0U C G 104;2B0U C L 127;3.77708
2B0U C G 104;2B0U C E 128;4.0227
2B0U C G 104;2B0U C V 129;1.67718
2B0U C G 104;2B0U C Q 130;8.18367
2B0U C G 104;2B0U C C 135;2.99015
2B0U C L 105;2B0U C D 106;22.0859
2B0U C L 105;2B0U C G 107;2.73422
2B0U C L 105;2B0U C E 126;11.0664
2B0U C L 105;2B0U C L 127;9.59361
2B0U C L 105;2B0U C E 128;22.6747
2B0U C L 105;2B0U C V 129;0.192545
2B0U C L 105;2B0U C Q 130;27.5021
2B0U C L 105;2B0U C Y 159;17.752
2B0U C L 105;2B0U C C 160;2.89537
2B0U C L 105;2B0U C V 161;0.635036
2B0U C D 106;2B0U C G 107;22.7581
2B0U C D 106;2B0U C K 108;27.4023
2B0U C D 106;2B0U C Y 110;12.1967
2B0U C D 106;2B0U C Q 124;16.2431
2B0U C D 106;2B0U C L 127;17.2642
2B0U C D 106;2B0U C Y 159;1.99047
2B0U C G 107;2B0U C K 108;22.8366
2B0U C G 107;2B0U C T 109;1.48458
2B0U C G 107;2B0U C Q 130;3.28484
2B0U C G 107;2B0U C C 135;19.7322
2B0U C G 107;2B0U C N 157;3.11365
2B0U C G 107;2B0U C Y 159;11.8331
2B0U C K 108;2B0U C T 109;26.6928
2B0U C K 108;2B0U C Y 110;24.1512
2B0U C K 108;2B0U C Q 124;5.56415
2B0U C K 108;2B0U C C 135;5.9369
2B0U C T 109;2B0U C Y 110;30.2316
2B0U C T 109;2B0U C R 111;4.02317
2B0U C T 109;2B0U C G 133;1.38641
2B0U C T 109;2B0U C R 134;15.7075
2B0U C T 109;2B0U C C 135;19.282
2B0U C Y 110;2B0U C R 111;21.5018
2B0U C Y 110;2B0U C N 112;11.1303
2B0U C Y 110;2B0U C A 115;13.4683
2B0U C Y 110;2B0U C L 116;26.1883
2B0U C Y 110;2B0U C A 119;16.202
2B0U C Y 110;2B0U C Q 124;5.64472
2B0U C Y 110;2B0U C L 127;12.258
2B0U C R 111;2B0U C N 112;29.1678
2B0U C R 111;2B0U C A 115;14.1306
2B0U C N 112;2B0U C E 113;22.1772
2B0U C N 112;2B0U C C 114;12.9239
2B0U C N 112;2B0U C A 115;21.0946
2B0U C N 112;2B0U C L 116;3.76316
2B0U C E 113;2B0U C C 114;18.55
2B0U C E 113;2B0U C A 115;1.77876
2B0U C E 113;2B0U C L 116;16.4648
2B0U C E 113;2B0U C L 117;25.2433
2B0U C E 113;2B0U C V 129;18.919
2B0U C E 113;2B0U C Q 132;2.91753
2B0U C C 114;2B0U C A 115;17.6157
2B0U C C 114;2B0U C L 116;1.48162
2B0U C C 114;2B0U C L 117;19.8391
2B0U C C 114;2B0U C K 118;11.9784
2B0U C A 115;2B0U C L 116;14.8016
2B0U C A 115;2B0U C L 117;0.0450085
2B0U C A 115;2B0U C K 118;13.1941
2B0U C A 115;2B0U C A 119;10.1717
2B0U C L 116;2B0U C L 117;28.5648
2B0U C L 116;2B0U C K 118;1.62849
2B0U C L 116;2B0U C A 119;8.49078
2B0U C L 116;2B0U C R 120;9.68524
2B0U C L 116;2B0U C L 127;22.9062
2B0U C L 116;2B0U C E 128;12.2622
2B0U C L 116;2B0U C V 129;18.7435
2B0U C L 117;2B0U C K 118;15.7563
2B0U C L 117;2B0U C A 119;0.511352
2B0U C L 117;2B0U C R 120;37.6806
2B0U C L 117;2B0U C C 121;8.84511
2B0U C K 118;2B0U C A 119;19.5098
2B0U C K 118;2B0U C R 120;1.44135
2B0U C K 118;2B0U C C 121;5.94977
2B0U C K 118;2B0U C K 122;10.8996
2B0U C A 119;2B0U C R 120;17.1223
2B0U C A 119;2B0U C C 121;0.13105
2B0U C A 119;2B0U C K 122;11.6223
2B0U C A 119;2B0U C E 123;7.79984
2B0U C A 119;2B0U C Q 124;11.0413
2B0U C A 119;2B0U C L 127;8.44626
2B0U C R 120;2B0U C C 121;27.9084
2B0U C R 120;2B0U C K 122;1.53473
2B0U C R 120;2B0U C E 123;2.46487
2B0U C R 120;2B0U C Q 124;21.2021
2B0U C R 120;2B0U C P 125;23.1069
2B0U C R 120;2B0U C E 126;0.0576959
2B0U C R 120;2B0U C L 127;31.8371
2B0U C R 120;2B0U C E 128;1.69184
2B0U C C 121;2B0U C K 122;20.4905
2B0U C C 121;2B0U C E 123;3.01555
2B0U C C 121;2B0U C Q 124;0.306187
2B0U C C 121;2B0U C P 125;0.00455878
2B0U C K 122;2B0U C E 123;34.3367
2B0U C E 123;2B0U C Q 124;32.8706
2B0U C E 123;2B0U C P 125;2.90215
2B0U C Q 124;2B0U C P 125;22.9091
2B0U C Q 124;2B0U C E 126;6.92569
2B0U C Q 124;2B0U C L 127;25.9498
2B0U C P 125;2B0U C E 126;35.4437
2B0U C P 125;2B0U C L 127;0.917092
2B0U C E 126;2B0U C L 127;27.7778
2B0U C E 126;2B0U C E 128;6.29832
2B0U C L 127;2B0U C E 128;29.1525
2B0U C E 128;2B0U C V 129;28.9463
2B0U C E 128;2B0U C Q 130;1.68552
2B0U C V 129;2B0U C Q 130;26.6548
2B0U C V 129;2B0U C Y 131;11.0219
2B0U C V 129;2B0U C Q 132;13.0881
2B0U C V 129;2B0U C P 145;0.03125
2B0U C Q 130;2B0U C Y 131;32.3371
2B0U C Q 130;2B0U C P 145;13.0948
2B0U C Q 130;2B0U C A 158;4.54464
2B0U C Q 130;2B0U C Y 159;19.9053
2B0U C Q 130;2B0U C C 160;26.9446
2B0U C Q 130;2B0U C V 161;0.0165571
2B0U C Y 131;2B0U C Q 132;35.3175
2B0U C Y 131;2B0U C G 133;0.747971
2B0U C Y 131;2B0U C R 134;6.35212
2B0U C Y 131;2B0U C C 135;9.70003
2B0U C Y 131;2B0U C K 136;14.8739
2B0U C Y 131;2B0U C V 142;24.6042
2B0U C Y 131;2B0U C F 143;8.5503
2B0U C Y 131;2B0U C C 144;0.754226
2B0U C Y 131;2B0U C P 145;9.03117
2B0U C Y 131;2B0U C A 158;18.5223
2B0U C Y 131;2B0U C Y 159;4.88128
2B0U C Y 131;2B0U C C 160;16.123
2B0U C Q 132;2B0U C G 133;29.5806
2B0U C Q 132;2B0U C R 134;2.3329
2B0U C Q 132;2B0U C K 136;0.101438
2B0U C Q 132;2B0U C V 142;0.527727
2B0U C Q 132;2B0U C F 143;12.6854
2B0U C Q 132;2B0U C P 145;0.749564
2B0U C G 133;2B0U C R 134;26.7666
2B0U C G 133;2B0U C C 135;1.0706
2B0U C G 133;2B0U C K 136;1.74975
2B0U C R 134;2B0U C C 135;23.0546
2B0U C R 134;2B0U C K 136;33.1359
2B0U C C 135;2B0U C K 136;27.2576
2B0U C K 136;2B0U C K 137;30.4123
2B0U C K 136;2B0U C T 138;9.53992
2B0U C K 136;2B0U C D 141;20.0282
2B0U C K 136;2B0U C V 142;13.2378
2B0U C K 136;2B0U C N 157;3.5959
2B0U C K 136;2B0U C A 158;11.7377
2B0U C K 137;2B0U C T 138;29.5399
2B0U C K 137;2B0U C V 152;4.8443
2B0U C K 137;2B0U C T 155;15.0328
2B0U C K 137;2B0U C N 156;28.8758
2B0U C K 137;2B0U C N 157;22.1801
2B0U C K 137;2B0U C A 158;6.38219
2B0U C T 138;2B0U C C 139;20.2051
2B0U C T 138;2B0U C R 140;34.2367
2B0U C T 138;2B0U C D 141;1.57528
2B0U C T 138;2B0U C V 142;7.79783
2B0U C T 138;2B0U C V 152;3.56275
2B0U C T 138;2B0U C N 156;15.785
2B0U C T 138;2B0U C A 158;4.59188
2B0U C C 139;2B0U C R 140;27.6924
2B0U C C 139;2B0U C D 141;0.42134
2B0U C C 139;2B0U C V 142;15.6331
2B0U C C 139;2B0U C C 150;28.9101
2B0U C C 139;2B0U C V 151;7.90707
2B0U C C 139;2B0U C V 152;15.4109
2B0U C C 139;2B0U C A 158;4.77913
2B0U C C 139;2B0U C G 199;4.85676
2B0U C R 140;2B0U C D 141;31.8509
2B0U C R 140;2B0U C V 142;3.72287
2B0U C D 141;2B0U C V 142;29.7057
2B0U C D 141;2B0U C F 143;10.042
2B0U C V 142;2B0U C F 143;28.0625
2B0U C V 142;2B0U C C 144;13.8403
2B0U C V 142;2B0U C C 150;15.6337
2B0U C V 142;2B0U C A 158;8.84101
2B0U C V 142;2B0U C Y 159;0.079869
2B0U C V 142;2B0U C C 160;4.49896
2B0U C F 143;2B0U C C 144;32.1458
2B0U C F 143;2B0U C P 145;15.2318
2B0U C F 143;2B0U C C 160;0.0143148
2B0U C C 144;2B0U C P 145;23.4863
2B0U C C 144;2B0U C G 146;3.55255
2B0U C C 144;2B0U C S 148;15.9871
2B0U C C 144;2B0U C T 149;8.52753
2B0U C C 144;2B0U C C 150;13.638
2B0U C C 144;2B0U C Y 159;0.415937
2B0U C C 144;2B0U C C 160;18.814
2B0U C P 145;2B0U C G 146;33.2813
2B0U C P 145;2B0U C S 147;0.568453
2B0U C P 145;2B0U C S 148;22.989
2B0U C P 145;2B0U C C 160;5.47078
2B0U C G 146;2B0U C S 147;29.8116
2B0U C G 146;2B0U C S 148;4.63948
2B0U C S 147;2B0U C S 148;29.4314
2B0U C S 147;2B0U C T 149;6.61964
2B0U C S 147;2B0U C V 161;0.0920784
2B0U C S 147;2B0U C T 162;17.3261
2B0U C S 147;2B0U C C 163;1.06947
2B0U C S 147;2B0U C R 165;8.96347
2B0U C S 148;2B0U C T 149;20.8947
2B0U C S 148;2B0U C C 160;12.447
2B0U C S 148;2B0U C V 161;12.628
2B0U C S 148;2B0U C T 162;13.032
2B0U C T 149;2B0U C C 150;33.2479
2B0U C T 149;2B0U C V 151;5.51516
2B0U C T 149;2B0U C Y 159;2.20404
2B0U C T 149;2B0U C C 160;3.64085
2B0U C T 149;2B0U C V 161;19.328
2B0U C T 149;2B0U C T 162;0.0722571
2B0U C T 149;2B0U C C 163;17.0767
2B0U C T 149;2B0U C R 165;12.5188
2B0U C T 149;2B0U C C 196;5.78238
2B0U C T 149;2B0U C L 197;13.3787
2B0U C T 149;2B0U C G 199;0.258007
2B0U C C 150;2B0U C V 151;22.006
2B0U C C 150;2B0U C A 158;7.11362
2B0U C C 150;2B0U C Y 159;7.21923
2B0U C C 150;2B0U C C 160;0.277765
2B0U C C 150;2B0U C C 196;0.596941
2B0U C C 150;2B0U C G 199;8.32607
2B0U C V 151;2B0U C V 152;24.0328
2B0U C V 151;2B0U C N 157;0.872747
2B0U C V 151;2B0U C A 158;4.53502
2B0U C V 151;2B0U C Y 159;22.1056
2B0U C V 151;2B0U C V 161;13.3365
2B0U C V 151;2B0U C C 163;1.02498
2B0U C V 151;2B0U C T 195;0.112487
2B0U C V 151;2B0U C C 196;17.7989
2B0U C V 151;2B0U C G 199;14.1014
2B0U C V 152;2B0U C D 153;25.6374
2B0U C V 152;2B0U C N 156;19.9467
2B0U C V 152;2B0U C N 157;9.93777
2B0U C V 152;2B0U C A 158;6.73165
2B0U C V 152;2B0U C Y 159;2.50434
2B0U C V 152;2B0U C G 199;13.3856
2B0U C V 152;2B0U C R 200;17.2423
2B0U C V 152;2B0U C S 201;4.00669
2B0U C D 153;2B0U C Q 154;27.7347
2B0U C D 153;2B0U C T 155;11.6771
2B0U C D 153;2B0U C N 156;13.7848
2B0U C D 153;2B0U C N 157;20.7607
2B0U C D 153;2B0U C Y 159;13.43
2B0U C D 153;2B0U C S 201;1.55729
2B0U C Q 154;2B0U C T 155;42.2029
2B0U C Q 154;2B0U C N 156;3.21723
2B0U C Q 154;2B0U C S 201;1.69732
2B0U C T 155;2B0U C N 156;24.7279
2B0U C T 155;2B0U C N 157;15.8723
2B0U C N 156;2B0U C N 157;17.4484
2B0U C N 157;2B0U C A 158;22.4459
2B0U C N 157;2B0U C Y 159;22.3806
2B0U C A 158;2B0U C Y 159;24.9433
2B0U C Y 159;2B0U C C 160;17.2909
2B0U C Y 159;2B0U C V 161;12.8807
2B0U C C 160;2B0U C V 161;25.9865
2B0U C V 161;2B0U C T 162;37.2068
2B0U C V 161;2B0U C C 163;2.99352
2B0U C V 161;2B0U C C 196;8.98683
2B0U C T 162;2B0U C C 163;34.7736
2B0U C T 162;2B0U C N 164;4.85762
2B0U C T 162;2B0U C C 196;2.70386
2B0U C C 163;2B0U C N 164;29.1288
2B0U C C 163;2B0U C R 165;25.2299
2B0U C C 163;2B0U C K 193;1.57206
2B0U C C 163;2B0U C C 196;30.6086
2B0U C C 163;2B0U C L 197;14.6674
2B0U C N 164;2B0U C R 165;22.5144
2B0U C N 164;2B0U C I 166;23.7384
2B0U C N 164;2B0U C C 167;4.07701
2B0U C N 164;2B0U C C 189;10.8693
2B0U C N 164;2B0U C K 193;15.642
2B0U C N 164;2B0U C C 196;0.359734
2B0U C R 165;2B0U C I 166;37.0823
2B0U C R 165;2B0U C C 167;3.73138
2B0U C R 165;2B0U C K 193;30.5339
2B0U C R 165;2B0U C L 197;27.9746
2B0U C I 166;2B0U C C 167;32.0881
2B0U C I 166;2B0U C P 168;6.41529
2B0U C I 166;2B0U C C 189;3.21183
2B0U C C 167;2B0U C P 168;33.6539
2B0U C C 167;2B0U C E 169;2.58933
2B0U C C 167;2B0U C S 187;1.13859
2B0U C C 167;2B0U C C 189;24.5008
2B0U C C 167;2B0U C H 190;26.3139
2B0U C C 167;2B0U C K 193;14.3196
2B0U C P 168;2B0U C E 169;36.2773
2B0U C P 168;2B0U C P 170;4.86959
2B0U C P 168;2B0U C S 187;4.19881
2B0U C P 168;2B0U C C 189;10.6863
2B0U C P 168;2B0U C H 190;9.42581
2B0U C E 169;2B0U C P 170;37.0113
2B0U C E 169;2B0U C A 171;8.11193
2B0U C E 169;2B0U C H 190;2.19147
2B0U C P 170;2B0U C A 171;32.1051
2B0U C P 170;2B0U C S 172;17.2289
2B0U C P 170;2B0U C Q 175;23.4821
2B0U C P 170;2B0U C Y 176;11.2975
2B0U C P 170;2B0U C S 186;27.3833
2B0U C P 170;2B0U C S 187;4.04249
2B0U C P 170;2B0U C H 190;3.83043
2B0U C A 171;2B0U C S 172;31.7373
2B0U C S 172;2B0U C S 173;23.7852
2B0U C S 172;2B0U C E 174;13.9996
2B0U C S 172;2B0U C Q 175;26.4538
2B0U C S 172;2B0U C Y 176;10.3821
2B0U C S 172;2B0U C S 186;0.1023
2B0U C S 173;2B0U C E 174;27.3399
2B0U C S 173;2B0U C Q 175;0.48122
2B0U C S 173;2B0U C Y 176;33.1983
2B0U C S 173;2B0U C G 208;4.79532
2B0U C S 173;2B0U C K 209;10.5012
2B0U C E 174;2B0U C Q 175;23.7379
2B0U C E 174;2B0U C Y 176;9.97078
2B0U C E 174;2B0U C L 177;1.2488
2B0U C E 174;2B0U C E 207;8.40656
2B0U C E 174;2B0U C G 208;2.5567
2B0U C Q 175;2B0U C Y 176;20.0925
2B0U C Q 175;2B0U C L 177;11.5019
2B0U C Q 175;2B0U C S 186;8.25189
2B0U C Q 175;2B0U C S 187;15.0572
2B0U C Q 175;2B0U C A 188;1.79722
2B0U C Y 176;2B0U C L 177;22.085
2B0U C Y 176;2B0U C T 184;15.721
2B0U C Y 176;2B0U C Y 185;7.4694
2B0U C Y 176;2B0U C S 186;24.8741
2B0U C Y 176;2B0U C S 187;0.000774345
2B0U C Y 176;2B0U C E 207;2.71893
2B0U C Y 176;2B0U C G 208;19.1518
2B0U C Y 176;2B0U C K 209;20.2907
2B0U C L 177;2B0U C C 178;20.3803
2B0U C L 177;2B0U C V 183;0.272879
2B0U C L 177;2B0U C T 184;6.56672
2B0U C L 177;2B0U C Y 185;25.5396
2B0U C L 177;2B0U C S 187;8.4119
2B0U C L 177;2B0U C A 188;18.2515
2B0U C L 177;2B0U C L 191;13.1631
2B0U C L 177;2B0U C L 204;22.3108
2B0U C L 177;2B0U C Y 206;0.645762
2B0U C L 177;2B0U C E 207;18.6899
2B0U C L 177;2B0U C G 208;9.01316
2B0U C C 178;2B0U C G 179;24.4406
2B0U C C 178;2B0U C G 182;1.58885
2B0U C C 178;2B0U C V 183;2.20187
2B0U C C 178;2B0U C T 184;2.10081
2B0U C C 178;2B0U C Y 185;0.490051
2B0U C C 178;2B0U C L 191;0.44368
2B0U C C 178;2B0U C L 204;9.81123
2B0U C C 178;2B0U C A 205;14.4045
2B0U C C 178;2B0U C Y 206;32.9796
2B0U C C 178;2B0U C G 208;6.38047
2B0U C C 178;2B0U C K 209;2.54501
2B0U C C 178;2B0U C C 210;23.7776
2B0U C G 179;2B0U C N 180;15.8135
2B0U C G 179;2B0U C D 181;8.88112
2B0U C G 179;2B0U C G 182;8.97007
2B0U C G 179;2B0U C V 183;7.86853
2B0U C G 179;2B0U C Y 185;9.31494
2B0U C G 179;2B0U C L 191;5.04327
2B0U C G 179;2B0U C I 202;2.88549
2B0U C G 179;2B0U C G 203;4.91552
2B0U C G 179;2B0U C L 204;2.20732
2B0U C G 179;2B0U C A 205;8.48672
2B0U C G 179;2B0U C C 210;1.8016
2B0U C G 179;2B0U C R 235;0.842214
2B0U C N 180;2B0U C D 181;19.7219
2B0U C N 180;2B0U C G 182;3.7049
2B0U C N 180;2B0U C I 202;20.2321
2B0U C N 180;2B0U C G 203;17.3427
2B0U C N 180;2B0U C L 204;7.82046
2B0U C N 180;2B0U C A 205;15.6056
2B0U C N 180;2B0U C V 233;1.56869
2B0U C N 180;2B0U C R 235;15.9609
2B0U C N 180;2B0U C G 236;3.21343
2B0U C N 180;2B0U C R 237;37.0036
2B0U C D 181;2B0U C G 182;16.3947
2B0U C D 181;2B0U C V 183;28.4068
2B0U C D 181;2B0U C Y 185;13.6592
2B0U C D 181;2B0U C I 202;26.4878
2B0U C D 181;2B0U C R 235;14.0462
2B0U C G 182;2B0U C V 183;21.3082
2B0U C G 182;2B0U C T 184;2.12098
2B0U C G 182;2B0U C C 210;18.3597
2B0U C G 182;2B0U C R 235;23.8159
2B0U C V 183;2B0U C T 184;31.7164
2B0U C V 183;2B0U C Y 185;29.7383
2B0U C V 183;2B0U C C 210;6.01203
2B0U C T 184;2B0U C Y 185;27.2445
2B0U C T 184;2B0U C S 186;1.47752
2B0U C T 184;2B0U C G 208;1.53031
2B0U C T 184;2B0U C K 209;15.9937
2B0U C T 184;2B0U C C 210;22.0083
2B0U C Y 185;2B0U C S 186;21.2345
2B0U C Y 185;2B0U C S 187;8.92114
2B0U C Y 185;2B0U C H 190;14.7158
2B0U C Y 185;2B0U C L 191;28.7742
2B0U C Y 185;2B0U C A 194;19.1415
2B0U C Y 185;2B0U C I 202;9.20719
2B0U C S 186;2B0U C S 187;20.0862
2B0U C S 186;2B0U C H 190;22.7141
2B0U C S 187;2B0U C A 188;19.6431
2B0U C S 187;2B0U C C 189;16.7182
2B0U C S 187;2B0U C H 190;24.2049
2B0U C S 187;2B0U C L 191;6.35832
2B0U C A 188;2B0U C C 189;20.5496
2B0U C A 188;2B0U C H 190;0.420613
2B0U C A 188;2B0U C L 191;8.73826
2B0U C A 188;2B0U C R 192;25.3111
2B0U C C 189;2B0U C H 190;13.8955
2B0U C C 189;2B0U C L 191;0.760888
2B0U C C 189;2B0U C R 192;17.8487
2B0U C C 189;2B0U C K 193;9.05653
2B0U C H 190;2B0U C L 191;16.148
2B0U C H 190;2B0U C R 192;1.14995
2B0U C H 190;2B0U C K 193;19.1761
2B0U C H 190;2B0U C A 194;8.49002
2B0U C L 191;2B0U C R 192;17.6512
2B0U C L 191;2B0U C K 193;0.639081
2B0U C L 191;2B0U C A 194;8.11444
2B0U C L 191;2B0U C T 195;15.758
2B0U C L 191;2B0U C I 202;12.8237
2B0U C L 191;2B0U C G 203;9.11121
2B0U C L 191;2B0U C L 204;12.8002
2B0U C R 192;2B0U C K 193;18.4556
2B0U C R 192;2B0U C A 194;1.06311
2B0U C R 192;2B0U C T 195;10.8654
2B0U C R 192;2B0U C C 196;8.55629
2B0U C K 193;2B0U C A 194;18.6213
2B0U C K 193;2B0U C T 195;0.460329
2B0U C K 193;2B0U C C 196;8.73144
2B0U C K 193;2B0U C L 197;34.0074
2B0U C A 194;2B0U C T 195;17.1372
2B0U C A 194;2B0U C C 196;1.06375
2B0U C A 194;2B0U C L 197;11.1082
2B0U C A 194;2B0U C L 198;13.2784
2B0U C A 194;2B0U C I 202;11.8914
2B0U C T 195;2B0U C C 196;18.8199
2B0U C T 195;2B0U C L 197;0.360831
2B0U C T 195;2B0U C L 198;5.22662
2B0U C T 195;2B0U C G 199;6.1832
2B0U C T 195;2B0U C R 200;14.2728
2B0U C T 195;2B0U C S 201;5.85008
2B0U C T 195;2B0U C I 202;17.4251
2B0U C T 195;2B0U C G 203;1.16951
2B0U C C 196;2B0U C L 197;18.7545
2B0U C C 196;2B0U C L 198;1.51823
2B0U C C 196;2B0U C G 199;7.26361
2B0U C L 197;2B0U C L 198;27.4794
2B0U C L 197;2B0U C G 199;1.06703
2B0U C L 198;2B0U C G 199;23.3871
2B0U C L 198;2B0U C R 200;45.3809
2B0U C L 198;2B0U C S 201;0.745979
2B0U C L 198;2B0U C I 202;20.0848
2B0U C G 199;2B0U C R 200;22.3948
2B0U C R 200;2B0U C S 201;33.8264
2B0U C R 200;2B0U C I 202;4.85494
2B0U C S 201;2B0U C I 202;28.2778
2B0U C S 201;2B0U C G 203;1.0702
2B0U C I 202;2B0U C G 203;28.5159
2B0U C G 203;2B0U C L 204;19.6725
2B0U C G 203;2B0U C A 205;0.33862
2B0U C L 204;2B0U C A 205;22.6383
2B0U C L 204;2B0U C Y 206;14.3752
2B0U C L 204;2B0U C E 207;14.2861
2B0U C L 204;2B0U C K 225;13.8722
2B0U C L 204;2B0U C R 237;6.42639
2B0U C L 204;2B0U C C 238;3.62286
2B0U C A 205;2B0U C Y 206;30.7647
2B0U C A 205;2B0U C G 236;8.9701
2B0U C A 205;2B0U C R 237;10.2242
2B0U C A 205;2B0U C C 238;13.1444
2B0U C Y 206;2B0U C E 207;35.5544
2B0U C Y 206;2B0U C G 208;1.39787
2B0U C Y 206;2B0U C K 209;9.15473
2B0U C Y 206;2B0U C C 210;6.24905
2B0U C Y 206;2B0U C I 211;25.7136
2B0U C Y 206;2B0U C A 213;1.26686
2B0U C Y 206;2B0U C I 219;24.7729
2B0U C Y 206;2B0U C Q 220;8.30252
2B0U C Y 206;2B0U C T 222;1.86441
2B0U C Y 206;2B0U C K 225;0.574431
2B0U C Y 206;2B0U C G 236;9.4993
2B0U C Y 206;2B0U C R 237;2.89105
2B0U C Y 206;2B0U C C 238;16.7558
2B0U C E 207;2B0U C G 208;28.3065
2B0U C E 207;2B0U C K 209;0.425495
2B0U C E 207;2B0U C Q 220;4.24821
2B0U C E 207;2B0U C T 222;36.0986
2B0U C E 207;2B0U C K 225;11.1053
2B0U C G 208;2B0U C K 209;28.7918
2B0U C G 208;2B0U C C 210;0.0617402
2B0U C K 209;2B0U C C 210;24.8654
2B0U C K 209;2B0U C I 211;16.0252
2B0U C C 210;2B0U C I 211;28.6648
2B0U C C 210;2B0U C K 212;0.503007
2B0U C I 211;2B0U C K 212;32.2941
2B0U C I 211;2B0U C A 213;15.3263
2B0U C I 211;2B0U C D 218;21.2223
2B0U C I 211;2B0U C I 219;7.00343
2B0U C I 211;2B0U C Q 220;3.94246
2B0U C K 212;2B0U C A 213;30.3629
2B0U C K 212;2B0U C K 214;12.5239
2B0U C K 212;2B0U C D 218;4.04729
2B0U C A 213;2B0U C K 214;25.16
2B0U C A 213;2B0U C S 215;5.03395
2B0U C A 213;2B0U C D 218;14.3554
2B0U C A 213;2B0U C I 219;12.3939
2B0U C A 213;2B0U C W 229;17.7578
2B0U C A 213;2B0U C G 234;5.54541
2B0U C A 213;2B0U C G 236;0.695471
2B0U C K 214;2B0U C S 215;30.3733
2B0U C K 214;2B0U C D 218;17.225
2B0U C K 214;2B0U C W 229;15.9207
2B0U C K 214;2B0U C F 231;1.38689
2B0U C S 215;2B0U C C 216;20.3077
2B0U C S 215;2B0U C E 217;26.5847
2B0U C S 215;2B0U C D 218;10.0257
2B0U C S 215;2B0U C I 219;2.93817
2B0U C S 215;2B0U C W 229;15.8944
2B0U C S 215;2B0U C F 231;8.14884
2B0U C C 216;2B0U C E 217;24.442
2B0U C C 216;2B0U C D 218;0.976732
2B0U C C 216;2B0U C I 219;18.9366
2B0U C C 216;2B0U C C 227;31.9177
2B0U C C 216;2B0U C L 228;4.37122
2B0U C C 216;2B0U C W 229;21.0192
2B0U C C 216;2B0U C G 236;0.0195421
2B0U C C 216;2B0U C G 276;5.11737
2B0U C E 217;2B0U C D 218;29.2298
2B0U C E 217;2B0U C I 219;6.8578
2B0U C E 217;2B0U C Q 220;8.7813
2B0U C D 218;2B0U C I 219;18.1162
2B0U C D 218;2B0U C Q 220;11.1117
2B0U C I 219;2B0U C Q 220;34.07
2B0U C I 219;2B0U C C 221;11.0773
2B0U C I 219;2B0U C C 227;18.9917
2B0U C I 219;2B0U C W 229;7.78522
2B0U C I 219;2B0U C G 236;12.2629
2B0U C I 219;2B0U C R 237;4.3909
2B0U C I 219;2B0U C C 238;7.08897
2B0U C Q 220;2B0U C C 221;24.6913
2B0U C Q 220;2B0U C T 222;9.03078
2B0U C Q 220;2B0U C C 238;2.26384
2B0U C C 221;2B0U C T 222;26.895
2B0U C C 221;2B0U C G 223;0.521257
2B0U C C 221;2B0U C G 224;2.81633
2B0U C C 221;2B0U C K 225;21.1125
2B0U C C 221;2B0U C K 226;6.2103
2B0U C C 221;2B0U C C 227;13.0589
2B0U C C 221;2B0U C R 237;0.651395
2B0U C C 221;2B0U C C 238;22.5945
2B0U C T 222;2B0U C G 223;30.5642
2B0U C T 222;2B0U C G 224;1.05097
2B0U C T 222;2B0U C K 225;22.3976
2B0U C T 222;2B0U C C 238;5.04112
2B0U C G 223;2B0U C G 224;24.4723
2B0U C G 223;2B0U C K 225;13.2167
2B0U C G 223;2B0U C L 240;7.63883
2B0U C G 224;2B0U C K 225;25.8642
2B0U C G 224;2B0U C K 226;5.31686
2B0U C G 224;2B0U C L 240;4.45139
2B0U C G 224;2B0U C C 241;5.3582
2B0U C K 225;2B0U C K 226;24.0743
2B0U C K 225;2B0U C C 238;21.7275
2B0U C K 225;2B0U C S 239;15.9845
2B0U C K 225;2B0U C L 240;24.7597
2B0U C K 225;2B0U C C 241;0.440655
2B0U C K 226;2B0U C C 227;27.366
2B0U C K 226;2B0U C L 228;10.7345
2B0U C K 226;2B0U C R 237;1.35493
2B0U C K 226;2B0U C C 238;3.51315
2B0U C K 226;2B0U C S 239;15.2299
2B0U C K 226;2B0U C C 241;25.5434
2B0U C K 226;2B0U C C 273;17.644
2B0U C K 226;2B0U C S 274;10.3046
2B0U C K 226;2B0U C G 276;2.8512
2B0U C C 227;2B0U C L 228;24.1108
2B0U C C 227;2B0U C W 229;0.450754
2B0U C C 227;2B0U C G 236;1.47594
2B0U C C 227;2B0U C R 237;9.75003
2B0U C C 227;2B0U C C 238;0.284788
2B0U C C 227;2B0U C G 276;8.49219
2B0U C L 228;2B0U C W 229;18.7051
2B0U C L 228;2B0U C D 230;0.109052
2B0U C L 228;2B0U C R 235;1.00777
2B0U C L 228;2B0U C G 236;4.29651
2B0U C L 228;2B0U C R 237;24.5895
2B0U C L 228;2B0U C S 239;19.7111
2B0U C L 228;2B0U C C 241;5.34531
2B0U C L 228;2B0U C A 272;15.9497
2B0U C L 228;2B0U C C 273;17.5459
2B0U C L 228;2B0U C G 276;10.8645
2B0U C L 228;2B0U C V 277;5.08045
2B0U C L 228;2B0U C L 278;24.0249
2B0U C L 228;2B0U C L 279;0.0382127
2B0U C W 229;2B0U C D 230;27.3445
2B0U C W 229;2B0U C F 231;38.5638
2B0U C W 229;2B0U C G 234;17.6972
2B0U C W 229;2B0U C R 235;17.8211
2B0U C W 229;2B0U C G 236;11.9005
2B0U C W 229;2B0U C G 276;10.7939
2B0U C W 229;2B0U C V 277;11.3587
2B0U C W 229;2B0U C L 278;12.9775
2B0U C D 230;2B0U C F 231;19.3993
2B0U C D 230;2B0U C K 232;15.9698
2B0U C D 230;2B0U C V 233;24.2963
2B0U C D 230;2B0U C G 234;6.99779
2B0U C D 230;2B0U C R 235;19.1635
2B0U C D 230;2B0U C R 237;0.0231292
2B0U C D 230;2B0U C V 277;1.21259
2B0U C D 230;2B0U C L 278;28.3123
2B0U C D 230;2B0U C E 280;0.470125
2B0U C F 231;2B0U C K 232;28.4034
2B0U C F 231;2B0U C V 233;0.568682
2B0U C F 231;2B0U C G 234;8.67417
2B0U C F 231;2B0U C G 276;0.893321
2B0U C F 231;2B0U C V 277;23.8092
2B0U C K 232;2B0U C V 233;34.4875
2B0U C K 232;2B0U C G 234;1.41041
2B0U C V 233;2B0U C G 234;24.6225
2B0U C V 233;2B0U C R 235;29.6607
2B0U C G 234;2B0U C R 235;25.1308
2B0U C R 235;2B0U C G 236;29.5385
2B0U C R 235;2B0U C R 237;0.255951
2B0U C G 236;2B0U C R 237;22.9502
2B0U C R 237;2B0U C C 238;26.3485
2B0U C R 237;2B0U C S 239;14.1804
2B0U C R 237;2B0U C L 278;33.9987
2B0U C R 237;2B0U C E 280;17.9317
2B0U C C 238;2B0U C S 239;22.9566
2B0U C S 239;2B0U C L 240;28.8997
2B0U C S 239;2B0U C C 241;10.1988
2B0U C S 239;2B0U C C 273;1.23611
2B0U C S 239;2B0U C L 278;0.28322
2B0U C L 240;2B0U C C 241;25.3214
2B0U C L 240;2B0U C D 242;9.43697
2B0U C L 240;2B0U C E 243;0.99687
2B0U C L 240;2B0U C K 269;0.567925
2B0U C L 240;2B0U C C 273;5.55043
2B0U C C 241;2B0U C D 242;30.1832
2B0U C C 241;2B0U C E 243;8.90674
2B0U C C 241;2B0U C C 273;31.193
2B0U C D 242;2B0U C E 243;29.7862
2B0U C D 242;2B0U C L 244;4.23542
2B0U C E 243;2B0U C L 244;25.8646
2B0U C E 243;2B0U C C 245;4.11059
2B0U C E 243;2B0U C P 246;2.24743
2B0U C E 243;2B0U C C 266;21.6293
2B0U C E 243;2B0U C K 269;4.69367
2B0U C E 243;2B0U C E 270;8.12886
2B0U C L 244;2B0U C C 245;30.4013
2B0U C L 244;2B0U C P 246;5.65295
2B0U C L 244;2B0U C C 266;0.373854
2B0U C L 244;2B0U C E 270;9.28401
2B0U C C 245;2B0U C P 246;38.0761
2B0U C C 245;2B0U C D 247;5.61043
2B0U C C 245;2B0U C S 264;5.39402
2B0U C C 245;2B0U C C 266;33.6761
2B0U C C 245;2B0U C A 267;11.0261
2B0U C C 245;2B0U C E 270;17.4358
2B0U C P 246;2B0U C D 247;32.9681
2B0U C P 246;2B0U C S 248;10.371
2B0U C P 246;2B0U C D 251;6.2972
2B0U C P 246;2B0U C C 266;1.05763
2B0U C D 247;2B0U C S 248;37.4084
2B0U C D 247;2B0U C D 251;1.38863
2B0U C S 248;2B0U C K 249;29.9854
2B0U C S 248;2B0U C S 250;19.2868
2B0U C S 248;2B0U C D 251;24.6019
2B0U C K 249;2B0U C S 250;24.685
2B0U C K 249;2B0U C D 251;33.2823
2B0U C K 249;2B0U C P 253;2.6293
2B0U C K 249;2B0U C A 263;6.07686
2B0U C S 250;2B0U C D 251;21.0477
2B0U C S 250;2B0U C E 252;17.4002
2B0U C D 251;2B0U C E 252;22.0446
2B0U C D 251;2B0U C P 253;16.2951
2B0U C D 251;2B0U C A 263;15.465
2B0U C D 251;2B0U C S 264;19.2881
2B0U C E 252;2B0U C P 253;31.1061
2B0U C E 252;2B0U C V 254;7.83014
2B0U C E 252;2B0U C A 263;0.17941
2B0U C E 252;2B0U C S 264;7.30516
2B0U C E 252;2B0U C E 265;2.70978
2B0U C P 253;2B0U C V 254;21.8355
2B0U C P 253;2B0U C T 261;5.23108
2B0U C P 253;2B0U C Y 262;8.17225
2B0U C P 253;2B0U C A 263;19.6887
2B0U C P 253;2B0U C S 264;3.55093
2B0U C P 253;2B0U C G 285;28.6943
2B0U C P 253;2B0U C S 286;5.64538
2B0U C V 254;2B0U C C 255;22.4149
2B0U C V 254;2B0U C A 256;2.31894
2B0U C V 254;2B0U C A 260;1.19144
2B0U C V 254;2B0U C T 261;6.30319
2B0U C V 254;2B0U C Y 262;22.5918
2B0U C V 254;2B0U C S 264;6.75678
2B0U C V 254;2B0U C E 265;18.7732
2B0U C V 254;2B0U C M 268;12.9776
2B0U C V 254;2B0U C V 281;17.2406
2B0U C V 254;2B0U C H 283;5.51402
2B0U C V 254;2B0U C S 284;4.87556
2B0U C V 254;2B0U C G 285;5.82223
2B0U C V 254;2B0U C S 286;4.65343
2B0U C V 254;2B0U C C 287;0.181431
2B0U C C 255;2B0U C A 256;20.0406
2B0U C C 255;2B0U C N 259;14.5552
2B0U C C 255;2B0U C A 260;1.02686
2B0U C C 255;2B0U C T 261;0.56567
2B0U C C 255;2B0U C M 268;0.76103
2B0U C C 255;2B0U C V 281;2.93163
2B0U C C 255;2B0U C K 282;16.8518
2B0U C C 255;2B0U C H 283;23.789
2B0U C C 255;2B0U C S 284;0.737545
2B0U C C 255;2B0U C G 285;1.42274
2B0U C C 255;2B0U C S 286;11.5669
2B0U C C 255;2B0U C C 287;26.2116
2B0U C C 255;2B0U C N 288;0.37865
2B0U C A 256;2B0U C S 257;17.4095
2B0U C A 256;2B0U C D 258;9.39579
2B0U C A 256;2B0U C N 259;9.529
2B0U C A 256;2B0U C A 260;6.30046
2B0U C A 256;2B0U C Y 262;12.4054
2B0U C A 256;2B0U C M 268;14.0041
2B0U C A 256;2B0U C L 279;9.49674
2B0U C A 256;2B0U C E 280;4.22659
2B0U C A 256;2B0U C V 281;0.941152
2B0U C A 256;2B0U C K 282;10.8573
2B0U C A 256;2B0U C C 287;1.66945
2B0U C S 257;2B0U C D 258;23.1141
2B0U C S 257;2B0U C N 259;7.46474
2B0U C S 257;2B0U C L 278;7.66463
2B0U C S 257;2B0U C L 279;9.90733
2B0U C S 257;2B0U C E 280;27.2396
2B0U C S 257;2B0U C V 281;1.06082
2B0U C S 257;2B0U C K 282;14.0909
2B0U C D 258;2B0U C N 259;31.5384
2B0U C D 258;2B0U C A 260;15.6734
2B0U C D 258;2B0U C Y 262;14.655
2B0U C D 258;2B0U C L 279;19.9103
2B0U C N 259;2B0U C A 260;22.1917
2B0U C N 259;2B0U C K 282;29.4082
2B0U C N 259;2B0U C C 287;12.7765
2B0U C A 260;2B0U C T 261;22.7546
2B0U C A 260;2B0U C Y 262;24.6757
2B0U C A 260;2B0U C C 287;9.78844
2B0U C T 261;2B0U C Y 262;26.3975
2B0U C T 261;2B0U C A 263;2.08801
2B0U C T 261;2B0U C S 286;18.5228
2B0U C T 261;2B0U C C 287;29.5449
2B0U C Y 262;2B0U C A 263;22.4621
2B0U C Y 262;2B0U C S 264;6.94256
2B0U C Y 262;2B0U C A 267;11.8152
2B0U C Y 262;2B0U C M 268;17.3521
2B0U C Y 262;2B0U C A 271;17.602
2B0U C Y 262;2B0U C L 279;13.5541
2B0U C A 263;2B0U C S 264;21.8032
2B0U C A 263;2B0U C A 267;15.4056
2B0U C S 264;2B0U C E 265;19.4612
2B0U C S 264;2B0U C C 266;14.079
2B0U C S 264;2B0U C A 267;18.0702
2B0U C S 264;2B0U C M 268;5.06172
2B0U C E 265;2B0U C C 266;23.6537
2B0U C E 265;2B0U C A 267;0.553192
2B0U C E 265;2B0U C M 268;14.6819
2B0U C E 265;2B0U C K 269;34.4066
2B0U C E 265;2B0U C V 281;21.2634
2B0U C C 266;2B0U C A 267;14.1491
2B0U C C 266;2B0U C M 268;1.03055
2B0U C C 266;2B0U C K 269;14.3427
2B0U C C 266;2B0U C E 270;8.11075
2B0U C A 267;2B0U C M 268;14.4275
2B0U C A 267;2B0U C K 269;0.892916
2B0U C A 267;2B0U C E 270;18.1512
2B0U C A 267;2B0U C A 271;8.82005
2B0U C M 268;2B0U C K 269;27.164
2B0U C M 268;2B0U C E 270;0.891427
2B0U C M 268;2B0U C A 271;6.24051
2B0U C M 268;2B0U C A 272;5.80977
2B0U C M 268;2B0U C L 279;26.8306
2B0U C M 268;2B0U C E 280;9.8288
2B0U C M 268;2B0U C V 281;17.6419
2B0U C K 269;2B0U C E 270;19.4204
2B0U C K 269;2B0U C A 271;0.613048
2B0U C K 269;2B0U C A 272;11.2676
2B0U C K 269;2B0U C C 273;20.1384
2B0U C K 269;2B0U C L 279;8.46498
2B0U C K 269;2B0U C E 280;0.99608
2B0U C K 269;2B0U C V 281;2.48077
2B0U C E 270;2B0U C A 271;21.0849
2B0U C E 270;2B0U C A 272;0.670451
2B0U C E 270;2B0U C C 273;11.5634
2B0U C E 270;2B0U C S 274;12.4802
2B0U C A 271;2B0U C A 272;17.224
2B0U C A 271;2B0U C C 273;0.821732
2B0U C A 271;2B0U C S 274;15.6964
2B0U C A 271;2B0U C S 275;11.651
2B0U C A 271;2B0U C L 279;6.79179
2B0U C A 272;2B0U C C 273;17.251
2B0U C A 272;2B0U C S 274;0.576902
2B0U C A 272;2B0U C S 275;9.09519
2B0U C A 272;2B0U C G 276;5.28349
2B0U C A 272;2B0U C V 277;14.4392
2B0U C A 272;2B0U C L 278;1.63826
2B0U C A 272;2B0U C L 279;23.3928
2B0U C C 273;2B0U C S 274;19.7602
2B0U C C 273;2B0U C S 275;0.788443
2B0U C C 273;2B0U C G 276;6.78816
2B0U C S 274;2B0U C S 275;26.7927
2B0U C S 274;2B0U C G 276;3.27339
2B0U C S 275;2B0U C G 276;20.9539
2B0U C S 275;2B0U C V 277;26.6426
2B0U C S 275;2B0U C L 279;0.764193
2B0U C G 276;2B0U C V 277;20.7103
2B0U C V 277;2B0U C L 278;26.7555
2B0U C V 277;2B0U C L 279;11.5482
2B0U C L 278;2B0U C L 279;34.7047
2B0U C L 278;2B0U C E 280;23.3076
2B0U C L 279;2B0U C E 280;22.6336
2B0U C E 280;2B0U C V 281;29.9531
2B0U C E 280;2B0U C K 282;0.869697
2B0U C V 281;2B0U C K 282;33.8233
2B0U C V 281;2B0U C H 283;9.6267
2B0U C V 281;2B0U C S 284;0.176214
2B0U C K 282;2B0U C H 283;34.9758
2B0U C H 283;2B0U C S 284;37.3688
2B0U C H 283;2B0U C G 285;0.686175
2B0U C H 283;2B0U C S 286;2.25967
2B0U C S 284;2B0U C G 285;31.7354
2B0U C S 284;2B0U C S 286;3.54226
2B0U C G 285;2B0U C S 286;30.47
2B0U C S 286;2B0U C C 287;17.7683
2B0U C S 286;2B0U C N 288;28.499
2B0U C C 287;2B0U C N 288;32.1565
