V1;V2;Weight
2HRK B M 3;2HRK B S 4;38.2849
2HRK B M 3;2HRK B V 7;3.79924
2HRK B M 3;2HRK B T 8;6.10728
2HRK B S 4;2HRK B D 5;25.7284
2HRK B S 4;2HRK B L 6;6.78557
2HRK B S 4;2HRK B V 7;25.5944
2HRK B S 4;2HRK B T 8;13.768
2HRK B S 4;2HRK B E 74;23.5931
2HRK B D 5;2HRK B L 6;26.5436
2HRK B D 5;2HRK B V 7;0.69773
2HRK B D 5;2HRK B T 8;15.4386
2HRK B D 5;2HRK B K 9;12.5216
2HRK B D 5;2HRK B E 74;0.554442
2HRK B L 6;2HRK B V 7;16.3045
2HRK B L 6;2HRK B T 8;0.769418
2HRK B L 6;2HRK B K 9;8.85519
2HRK B L 6;2HRK B F 10;7.57096
2HRK B L 6;2HRK B V 70;12.9319
2HRK B L 6;2HRK B F 73;14.3603
2HRK B L 6;2HRK B E 74;31.1854
2HRK B L 6;2HRK B L 77;3.41011
2HRK B L 6;2HRK B L 111;28.1868
2HRK B L 6;2HRK B V 113;14.3728
2HRK B V 7;2HRK B T 8;20.4008
2HRK B V 7;2HRK B K 9;0.94651
2HRK B V 7;2HRK B F 10;13.99
2HRK B V 7;2HRK B E 11;29.3023
2HRK B V 7;2HRK B S 67;0.149609
2HRK B V 7;2HRK B V 70;14.6782
2HRK B V 7;2HRK B H 71;23.2457
2HRK B V 7;2HRK B E 74;4.17049
2HRK B T 8;2HRK B K 9;20.6673
2HRK B T 8;2HRK B F 10;0.753169
2HRK B T 8;2HRK B E 11;17.6179
2HRK B T 8;2HRK B S 12;11.8427
2HRK B K 9;2HRK B F 10;16.8913
2HRK B K 9;2HRK B E 11;0.832903
2HRK B K 9;2HRK B S 12;20.0047
2HRK B K 9;2HRK B L 13;16.6329
2HRK B K 9;2HRK B L 110;1.66421
2HRK B K 9;2HRK B L 111;25.7114
2HRK B K 9;2HRK B E 112;29.5421
2HRK B F 10;2HRK B E 11;22.5593
2HRK B F 10;2HRK B S 12;1.47788
2HRK B F 10;2HRK B L 13;18.6718
2HRK B F 10;2HRK B I 15;8.90842
2HRK B F 10;2HRK B S 16;30.4127
2HRK B F 10;2HRK B P 65;18.7432
2HRK B F 10;2HRK B T 66;9.45584
2HRK B F 10;2HRK B S 67;15.7482
2HRK B F 10;2HRK B V 70;22.6164
2HRK B F 10;2HRK B M 107;0.496777
2HRK B F 10;2HRK B L 110;6.95267
2HRK B F 10;2HRK B L 111;14.9314
2HRK B E 11;2HRK B S 12;20.9312
2HRK B E 11;2HRK B L 13;3.80153
2HRK B E 11;2HRK B S 16;18.3352
2HRK B E 11;2HRK B K 17;10.9701
2HRK B S 12;2HRK B L 13;30.2716
2HRK B S 12;2HRK B I 14;3.97059
2HRK B S 12;2HRK B K 17;8.94149
2HRK B L 13;2HRK B I 14;26.1344
2HRK B L 13;2HRK B I 15;15.8959
2HRK B L 13;2HRK B S 16;10.768
2HRK B L 13;2HRK B K 17;8.55166
2HRK B L 13;2HRK B L 110;28.4819
2HRK B L 13;2HRK B L 111;6.03889
2HRK B L 13;2HRK B E 112;2.98836
2HRK B I 14;2HRK B I 15;25.1317
2HRK B I 14;2HRK B S 16;2.73022
2HRK B I 14;2HRK B K 17;29.0867
2HRK B I 14;2HRK B Y 18;20.1668
2HRK B I 15;2HRK B S 16;22.9445
2HRK B I 15;2HRK B K 17;1.55559
2HRK B I 15;2HRK B Y 18;33.1432
2HRK B I 15;2HRK B Y 64;30.8142
2HRK B I 15;2HRK B P 65;18.2781
2HRK B I 15;2HRK B Y 106;4.01162
2HRK B I 15;2HRK B L 110;15.5968
2HRK B S 16;2HRK B K 17;28.3697
2HRK B S 16;2HRK B Y 18;9.33151
2HRK B K 17;2HRK B Y 18;27.3288
2HRK B K 17;2HRK B P 19;5.9845
2HRK B Y 18;2HRK B P 19;37.6318
2HRK B Y 18;2HRK B V 20;15.5506
2HRK B Y 18;2HRK B Y 64;35.326
2HRK B P 19;2HRK B V 20;27.9243
2HRK B P 19;2HRK B S 21;8.18774
2HRK B V 20;2HRK B S 21;29.3854
2HRK B V 20;2HRK B F 22;16.7146
2HRK B V 20;2HRK B T 62;10.8652
2HRK B V 20;2HRK B T 66;7.26601
2HRK B S 21;2HRK B F 22;31.6382
2HRK B S 21;2HRK B T 23;4.09526
2HRK B S 21;2HRK B Q 26;7.24049
2HRK B F 22;2HRK B T 23;27.7184
2HRK B F 22;2HRK B K 24;0.0384776
2HRK B F 22;2HRK B Q 26;22.2965
2HRK B F 22;2HRK B S 27;25.3348
2HRK B F 22;2HRK B A 30;14.2074
2HRK B F 22;2HRK B V 60;15.5304
2HRK B F 22;2HRK B T 62;8.45778
2HRK B F 22;2HRK B T 66;14.0468
2HRK B F 22;2HRK B T 68;2.27707
2HRK B T 23;2HRK B K 24;24.5934
2HRK B T 23;2HRK B E 25;22.2098
2HRK B T 23;2HRK B Q 26;30.9975
2HRK B T 23;2HRK B S 27;9.08378
2HRK B K 24;2HRK B E 25;31.9629
2HRK B K 24;2HRK B Q 26;0.615973
2HRK B K 24;2HRK B S 27;12.0993
2HRK B K 24;2HRK B A 28;19.4384
2HRK B E 25;2HRK B Q 26;20.277
2HRK B E 25;2HRK B S 27;0.582137
2HRK B E 25;2HRK B A 28;13.3313
2HRK B E 25;2HRK B Q 29;14.1077
2HRK B Q 26;2HRK B S 27;15.6334
2HRK B Q 26;2HRK B A 28;0.905883
2HRK B Q 26;2HRK B Q 29;10.8677
2HRK B Q 26;2HRK B A 30;7.21799
2HRK B Q 26;2HRK B V 60;24.7062
2HRK B Q 26;2HRK B S 61;18.0176
2HRK B Q 26;2HRK B T 62;9.28067
2HRK B S 27;2HRK B A 28;18.8552
2HRK B S 27;2HRK B Q 29;1.03527
2HRK B S 27;2HRK B A 30;8.68496
2HRK B S 27;2HRK B A 31;13.9636
2HRK B A 28;2HRK B Q 29;16.8758
2HRK B A 28;2HRK B A 30;0.301075
2HRK B A 28;2HRK B A 31;13.6182
2HRK B A 28;2HRK B Q 32;19.979
2HRK B Q 29;2HRK B A 30;18.0578
2HRK B Q 29;2HRK B A 31;1.30483
2HRK B Q 29;2HRK B Q 32;35.3658
2HRK B Q 29;2HRK B W 33;24.2568
2HRK B Q 29;2HRK B V 52;13.2309
2HRK B Q 29;2HRK B I 59;9.21367
2HRK B Q 29;2HRK B V 60;11.3332
2HRK B Q 29;2HRK B S 61;0.702911
2HRK B A 30;2HRK B A 31;18.2795
2HRK B A 30;2HRK B Q 32;0.712323
2HRK B A 30;2HRK B W 33;6.60969
2HRK B A 30;2HRK B E 34;14.4113
2HRK B A 30;2HRK B V 60;12.3906
2HRK B A 30;2HRK B T 68;19.3468
2HRK B A 31;2HRK B Q 32;19.5251
2HRK B A 31;2HRK B W 33;0.988147
2HRK B A 31;2HRK B E 34;24.4502
2HRK B A 31;2HRK B S 35;8.00708
2HRK B Q 32;2HRK B W 33;29.9111
2HRK B Q 32;2HRK B E 34;0.600143
2HRK B Q 32;2HRK B S 35;16.826
2HRK B Q 32;2HRK B V 36;13.9814
2HRK B Q 32;2HRK B Q 48;7.7874
2HRK B W 33;2HRK B E 34;17.9326
2HRK B W 33;2HRK B S 35;0.962574
2HRK B W 33;2HRK B V 36;22.4803
2HRK B W 33;2HRK B L 37;13.0043
2HRK B W 33;2HRK B I 42;13.72
2HRK B W 33;2HRK B H 45;15.0196
2HRK B W 33;2HRK B Q 48;14.7395
2HRK B W 33;2HRK B L 49;25.1912
2HRK B W 33;2HRK B V 52;13.815
2HRK B W 33;2HRK B I 59;17.8849
2HRK B W 33;2HRK B V 60;0.173894
2HRK B W 33;2HRK B T 68;10.8597
2HRK B W 33;2HRK B V 72;17.1004
2HRK B E 34;2HRK B S 35;28.2635
2HRK B E 34;2HRK B V 36;1.01806
2HRK B E 34;2HRK B L 37;19.6572
2HRK B E 34;2HRK B K 38;14.5031
2HRK B E 34;2HRK B T 68;0.284923
2HRK B S 35;2HRK B V 36;22.7251
2HRK B S 35;2HRK B L 37;0.507538
2HRK B S 35;2HRK B K 38;12.2105
2HRK B S 35;2HRK B S 39;13.8277
2HRK B V 36;2HRK B L 37;17.7076
2HRK B V 36;2HRK B K 38;0.970154
2HRK B V 36;2HRK B S 39;13.4099
2HRK B V 36;2HRK B G 40;3.53214
2HRK B V 36;2HRK B Q 41;11.2648
2HRK B V 36;2HRK B I 42;16.4315
2HRK B V 36;2HRK B H 45;28.3024
2HRK B V 36;2HRK B Q 48;1.44796
2HRK B L 37;2HRK B K 38;23.4598
2HRK B L 37;2HRK B S 39;0.891949
2HRK B L 37;2HRK B G 40;13.1073
2HRK B L 37;2HRK B I 42;21.2009
2HRK B L 37;2HRK B T 68;1.23152
2HRK B L 37;2HRK B H 71;23.7828
2HRK B L 37;2HRK B V 72;16.6282
2HRK B L 37;2HRK B V 75;16.45
2HRK B K 38;2HRK B S 39;24.4113
2HRK B K 38;2HRK B G 40;4.70411
2HRK B S 39;2HRK B G 40;20.1571
2HRK B S 39;2HRK B Q 41;29.6958
2HRK B S 39;2HRK B H 45;2.23062
2HRK B G 40;2HRK B Q 41;27.8171
2HRK B G 40;2HRK B I 42;7.31944
2HRK B G 40;2HRK B Q 43;1.28315
2HRK B G 40;2HRK B P 44;0.369931
2HRK B Q 41;2HRK B I 42;17.3626
2HRK B Q 41;2HRK B Q 43;1.44726
2HRK B Q 41;2HRK B P 44;32.1994
2HRK B Q 41;2HRK B H 45;19.7893
2HRK B I 42;2HRK B Q 43;18.9591
2HRK B I 42;2HRK B P 44;0.766012
2HRK B I 42;2HRK B H 45;11.1271
2HRK B I 42;2HRK B L 46;17.038
2HRK B I 42;2HRK B L 49;2.94175
2HRK B I 42;2HRK B V 72;15.4595
2HRK B I 42;2HRK B V 75;18.7057
2HRK B I 42;2HRK B A 76;7.71903
2HRK B I 42;2HRK B L 79;9.96084
2HRK B Q 43;2HRK B P 44;34.7819
2HRK B Q 43;2HRK B H 45;1.74963
2HRK B Q 43;2HRK B L 46;27.9394
2HRK B Q 43;2HRK B L 79;28.7797
2HRK B P 44;2HRK B H 45;29.35
2HRK B P 44;2HRK B L 46;3.22563
2HRK B P 44;2HRK B D 47;7.26909
2HRK B P 44;2HRK B Q 48;1.1463
2HRK B H 45;2HRK B L 46;16.0983
2HRK B H 45;2HRK B D 47;2.18127
2HRK B H 45;2HRK B Q 48;34.2552
2HRK B H 45;2HRK B L 49;6.58428
2HRK B L 46;2HRK B D 47;22.2213
2HRK B L 46;2HRK B Q 48;0.638742
2HRK B L 46;2HRK B L 49;18.7703
2HRK B L 46;2HRK B N 50;6.67044
2HRK B L 46;2HRK B A 76;5.31604
2HRK B L 46;2HRK B L 79;13.6165
2HRK B L 46;2HRK B I 80;16.2097
2HRK B L 46;2HRK B L 83;10.1701
2HRK B L 46;2HRK B Y 97;11.0444
2HRK B L 46;2HRK B I 100;15.9729
2HRK B D 47;2HRK B Q 48;23.8671
2HRK B D 47;2HRK B L 49;0.903975
2HRK B D 47;2HRK B N 50;13.2164
2HRK B D 47;2HRK B L 51;11.8814
2HRK B D 47;2HRK B T 96;4.9983
2HRK B D 47;2HRK B Y 97;29.3332
2HRK B Q 48;2HRK B L 49;15.2709
2HRK B Q 48;2HRK B N 50;0.727311
2HRK B Q 48;2HRK B L 51;16.118
2HRK B Q 48;2HRK B V 52;12.8415
2HRK B L 49;2HRK B N 50;15.4841
2HRK B L 49;2HRK B L 51;1.23826
2HRK B L 49;2HRK B V 52;12.8158
2HRK B L 49;2HRK B L 53;22.0916
2HRK B L 49;2HRK B I 59;14.7816
2HRK B L 49;2HRK B V 72;12.777
2HRK B L 49;2HRK B A 76;6.40155
2HRK B L 49;2HRK B I 80;0.0263481
2HRK B L 49;2HRK B I 100;15.1612
2HRK B L 49;2HRK B W 103;8.21267
2HRK B N 50;2HRK B L 51;19.3508
2HRK B N 50;2HRK B V 52;0.374185
2HRK B N 50;2HRK B L 53;6.39452
2HRK B N 50;2HRK B R 54;7.4339
2HRK B N 50;2HRK B T 96;14.3384
2HRK B N 50;2HRK B Y 97;19.1423
2HRK B N 50;2HRK B R 98;0.420644
2HRK B N 50;2HRK B H 99;25.087
2HRK B N 50;2HRK B I 100;19.4792
2HRK B L 51;2HRK B V 52;24.6052
2HRK B L 51;2HRK B L 53;1.18681
2HRK B L 51;2HRK B R 54;39.0677
2HRK B L 51;2HRK B D 55;9.9735
2HRK B L 51;2HRK B N 56;0.00224371
2HRK B V 52;2HRK B L 53;21.8075
2HRK B V 52;2HRK B R 54;1.21413
2HRK B V 52;2HRK B D 55;4.28798
2HRK B V 52;2HRK B N 56;27.2151
2HRK B V 52;2HRK B F 58;0.776518
2HRK B V 52;2HRK B I 59;21.1362
2HRK B L 53;2HRK B R 54;16.3431
2HRK B L 53;2HRK B D 55;1.4407
2HRK B L 53;2HRK B N 56;14.3895
2HRK B L 53;2HRK B T 57;4.66949
2HRK B L 53;2HRK B F 58;5.2054
2HRK B L 53;2HRK B I 59;11.055
2HRK B L 53;2HRK B H 99;14.2705
2HRK B L 53;2HRK B I 100;11.2206
2HRK B L 53;2HRK B R 102;15.9591
2HRK B L 53;2HRK B W 103;24.2722
2HRK B R 54;2HRK B D 55;41.75
2HRK B R 54;2HRK B N 56;0.175243
2HRK B R 54;2HRK B H 99;28.0841
2HRK B R 54;2HRK B R 102;0.0355961
2HRK B D 55;2HRK B N 56;35.6911
2HRK B N 56;2HRK B T 57;20.1628
2HRK B N 56;2HRK B F 58;10.9982
2HRK B N 56;2HRK B I 59;1.3173
2HRK B N 56;2HRK B S 61;28.2908
2HRK B N 56;2HRK B R 102;4.58772
2HRK B T 57;2HRK B F 58;41.0271
2HRK B T 57;2HRK B S 61;0.431547
2HRK B T 57;2HRK B T 62;1.84289
2HRK B T 57;2HRK B R 102;15.8479
2HRK B T 57;2HRK B W 103;8.41093
2HRK B F 58;2HRK B I 59;18.1789
2HRK B F 58;2HRK B V 60;3.22614
2HRK B F 58;2HRK B S 61;8.18733
2HRK B F 58;2HRK B T 62;20.6583
2HRK B F 58;2HRK B L 63;9.01888
2HRK B F 58;2HRK B Y 64;8.55452
2HRK B F 58;2HRK B P 65;21.3365
2HRK B F 58;2HRK B D 69;13.2695
2HRK B F 58;2HRK B W 103;10.0751
2HRK B F 58;2HRK B Y 106;23.4776
2HRK B F 58;2HRK B M 107;6.71256
2HRK B I 59;2HRK B V 60;26.206
2HRK B I 59;2HRK B S 61;6.2096
2HRK B I 59;2HRK B T 68;14.8957
2HRK B I 59;2HRK B D 69;19.3174
2HRK B I 59;2HRK B V 72;13.9273
2HRK B I 59;2HRK B W 103;12.5234
2HRK B V 60;2HRK B S 61;22.0467
2HRK B V 60;2HRK B T 62;15.2865
2HRK B V 60;2HRK B T 66;9.60163
2HRK B V 60;2HRK B T 68;13.6766
2HRK B V 60;2HRK B D 69;2.26022
2HRK B S 61;2HRK B T 62;23.0104
2HRK B T 62;2HRK B L 63;21.8454
2HRK B T 62;2HRK B Y 64;14.7842
2HRK B T 62;2HRK B P 65;0.139197
2HRK B T 62;2HRK B T 66;15.9454
2HRK B T 62;2HRK B D 69;1.85732
2HRK B L 63;2HRK B Y 64;57.1678
2HRK B Y 64;2HRK B P 65;32.2567
2HRK B Y 64;2HRK B T 66;4.89763
2HRK B Y 64;2HRK B Y 106;0.450867
2HRK B P 65;2HRK B T 66;22.6498
2HRK B P 65;2HRK B D 69;8.94865
2HRK B P 65;2HRK B V 70;0.880626
2HRK B P 65;2HRK B Y 106;10.2695
2HRK B P 65;2HRK B M 107;12.349
2HRK B P 65;2HRK B L 110;10.7398
2HRK B T 66;2HRK B S 67;23.6987
2HRK B T 66;2HRK B T 68;12.9143
2HRK B T 66;2HRK B D 69;21.8248
2HRK B T 66;2HRK B V 70;7.86183
2HRK B S 67;2HRK B T 68;24.5726
2HRK B S 67;2HRK B D 69;0.778864
2HRK B S 67;2HRK B V 70;11.3966
2HRK B S 67;2HRK B H 71;31.2775
2HRK B T 68;2HRK B D 69;18.4931
2HRK B T 68;2HRK B V 70;0.680608
2HRK B T 68;2HRK B H 71;11.3375
2HRK B T 68;2HRK B V 72;16.9131
2HRK B D 69;2HRK B V 70;16.1558
2HRK B D 69;2HRK B H 71;0.696555
2HRK B D 69;2HRK B V 72;3.44202
2HRK B D 69;2HRK B F 73;9.324
2HRK B D 69;2HRK B W 103;17.9272
2HRK B D 69;2HRK B M 107;12.472
2HRK B V 70;2HRK B H 71;23.2376
2HRK B V 70;2HRK B V 72;0.617434
2HRK B V 70;2HRK B F 73;10.4799
2HRK B V 70;2HRK B E 74;12.5683
2HRK B V 70;2HRK B M 107;11.6953
2HRK B V 70;2HRK B L 111;13.9108
2HRK B H 71;2HRK B V 72;17.2799
2HRK B H 71;2HRK B F 73;0.818804
2HRK B H 71;2HRK B E 74;13.2825
2HRK B H 71;2HRK B V 75;9.20604
2HRK B V 72;2HRK B F 73;15.1104
2HRK B V 72;2HRK B E 74;1.11688
2HRK B V 72;2HRK B V 75;6.74085
2HRK B V 72;2HRK B A 76;13.6339
2HRK B V 72;2HRK B W 103;8.22944
2HRK B F 73;2HRK B E 74;20.6762
2HRK B F 73;2HRK B V 75;1.13243
2HRK B F 73;2HRK B A 76;6.51643
2HRK B F 73;2HRK B L 77;29.8822
2HRK B F 73;2HRK B P 78;0.0290679
2HRK B F 73;2HRK B W 103;15.4597
2HRK B F 73;2HRK B I 104;20.679
2HRK B F 73;2HRK B M 107;22.1825
2HRK B F 73;2HRK B Q 108;12.9883
2HRK B F 73;2HRK B L 111;10.8818
2HRK B F 73;2HRK B V 113;8.70557
2HRK B E 74;2HRK B V 75;26.2493
2HRK B E 74;2HRK B A 76;0.173619
2HRK B E 74;2HRK B L 77;3.0239
2HRK B E 74;2HRK B P 78;13.7146
2HRK B V 75;2HRK B A 76;17.1496
2HRK B V 75;2HRK B L 77;0.935265
2HRK B V 75;2HRK B P 78;12.6729
2HRK B V 75;2HRK B L 79;21.247
2HRK B A 76;2HRK B L 77;17.4366
2HRK B A 76;2HRK B P 78;0.766868
2HRK B A 76;2HRK B L 79;11.5832
2HRK B A 76;2HRK B I 80;17.3189
2HRK B A 76;2HRK B I 100;2.34842
2HRK B A 76;2HRK B W 103;7.09965
2HRK B A 76;2HRK B I 104;6.36792
2HRK B L 77;2HRK B P 78;29.8534
2HRK B L 77;2HRK B L 79;1.01127
2HRK B L 77;2HRK B I 80;7.42741
2HRK B L 77;2HRK B K 81;19.6024
2HRK B L 77;2HRK B I 104;18.9546
2HRK B L 77;2HRK B Q 108;7.79954
2HRK B L 77;2HRK B V 113;13.0068
2HRK B L 77;2HRK B D 117;13.3545
2HRK B L 77;2HRK B K 118;0.725831
2HRK B L 77;2HRK B L 119;11.9654
2HRK B P 78;2HRK B L 79;25.6098
2HRK B P 78;2HRK B I 80;0.91207
2HRK B P 78;2HRK B K 81;16.4472
2HRK B P 78;2HRK B D 82;13.3395
2HRK B L 79;2HRK B I 80;19.4621
2HRK B L 79;2HRK B K 81;0.488831
2HRK B L 79;2HRK B D 82;12.2318
2HRK B L 79;2HRK B L 83;12.3509
2HRK B I 80;2HRK B K 81;16.7012
2HRK B I 80;2HRK B D 82;1.68635
2HRK B I 80;2HRK B L 83;26.8746
2HRK B I 80;2HRK B V 84;14.3485
2HRK B I 80;2HRK B Y 97;4.14152
2HRK B I 80;2HRK B I 100;22.1172
2HRK B I 80;2HRK B L 101;12.0968
2HRK B I 80;2HRK B I 104;10.4371
2HRK B I 80;2HRK B L 119;10.7898
2HRK B K 81;2HRK B D 82;20.4732
2HRK B K 81;2HRK B L 83;0.294011
2HRK B K 81;2HRK B V 84;9.4781
2HRK B K 81;2HRK B A 85;14.3674
2HRK B K 81;2HRK B T 116;9.94657
2HRK B K 81;2HRK B D 117;16.0895
2HRK B K 81;2HRK B K 118;9.70218
2HRK B K 81;2HRK B L 119;29.2813
2HRK B D 82;2HRK B L 83;19.4608
2HRK B D 82;2HRK B V 84;1.23293
2HRK B D 82;2HRK B A 85;13.2008
2HRK B D 82;2HRK B S 86;20.3449
2HRK B L 83;2HRK B V 84;20.2026
2HRK B L 83;2HRK B A 85;0.567121
2HRK B L 83;2HRK B S 86;15.1759
2HRK B L 83;2HRK B S 87;12.5899
2HRK B L 83;2HRK B T 93;21.1515
2HRK B L 83;2HRK B Y 97;22.1794
2HRK B V 84;2HRK B A 85;25.9281
2HRK B V 84;2HRK B S 86;1.24747
2HRK B V 84;2HRK B S 87;15.7812
2HRK B V 84;2HRK B V 90;6.22823
2HRK B V 84;2HRK B T 93;13.6479
2HRK B V 84;2HRK B Y 94;20.3794
2HRK B V 84;2HRK B L 101;8.22817
2HRK B V 84;2HRK B L 119;19.2885
2HRK B V 84;2HRK B E 120;0.356835
2HRK B A 85;2HRK B S 86;23.0574
2HRK B A 85;2HRK B S 87;4.62007
2HRK B S 86;2HRK B S 87;25.5686
2HRK B S 86;2HRK B K 88;11.3245
2HRK B S 87;2HRK B K 88;29.9648
2HRK B S 87;2HRK B D 89;11.8289
2HRK B S 87;2HRK B V 90;14.2688
2HRK B S 87;2HRK B S 92;0.0201703
2HRK B S 87;2HRK B T 93;15.0267
2HRK B K 88;2HRK B D 89;30.7124
2HRK B K 88;2HRK B V 90;4.18978
2HRK B D 89;2HRK B V 90;17.7221
2HRK B D 89;2HRK B K 91;17.2289
2HRK B D 89;2HRK B S 92;31.1773
2HRK B D 89;2HRK B T 93;4.99533
2HRK B V 90;2HRK B K 91;34.3942
2HRK B V 90;2HRK B S 92;0.111429
2HRK B V 90;2HRK B T 93;9.83613
2HRK B V 90;2HRK B Y 94;7.54803
2HRK B K 91;2HRK B S 92;19.3645
2HRK B K 91;2HRK B T 93;1.12779
2HRK B K 91;2HRK B Y 94;21.1043
2HRK B K 91;2HRK B T 95;14.4301
2HRK B S 92;2HRK B T 93;25.2295
2HRK B S 92;2HRK B Y 94;1.74426
2HRK B S 92;2HRK B T 95;16.0414
2HRK B S 92;2HRK B T 96;16.9782
2HRK B T 93;2HRK B Y 94;22.6858
2HRK B T 93;2HRK B T 95;0.237094
2HRK B T 93;2HRK B T 96;6.10324
2HRK B T 93;2HRK B Y 97;26.3382
2HRK B T 93;2HRK B L 101;3.97242
2HRK B Y 94;2HRK B T 95;23.3477
2HRK B Y 94;2HRK B T 96;1.47956
2HRK B Y 94;2HRK B Y 97;2.37415
2HRK B Y 94;2HRK B R 98;12.8703
2HRK B Y 94;2HRK B L 101;30.3646
2HRK B Y 94;2HRK B L 119;2.99049
2HRK B Y 94;2HRK B E 120;9.89131
2HRK B Y 94;2HRK B I 121;10.9283
2HRK B Y 94;2HRK B N 122;27.2005
2HRK B Y 94;2HRK B H 123;0.849319
2HRK B T 95;2HRK B T 96;28.9411
2HRK B T 95;2HRK B Y 97;0.0428007
2HRK B T 95;2HRK B R 98;36.688
2HRK B T 96;2HRK B Y 97;37.5543
2HRK B T 96;2HRK B R 98;7.52422
2HRK B T 96;2HRK B H 99;4.67185
2HRK B Y 97;2HRK B R 98;14.4775
2HRK B Y 97;2HRK B H 99;1.96525
2HRK B Y 97;2HRK B I 100;20.9254
2HRK B Y 97;2HRK B L 101;16.8456
2HRK B R 98;2HRK B H 99;38.7296
2HRK B R 98;2HRK B I 100;0.304743
2HRK B R 98;2HRK B L 101;10.2313
2HRK B R 98;2HRK B R 102;8.30324
2HRK B H 99;2HRK B I 100;15.9351
2HRK B H 99;2HRK B L 101;1.12079
2HRK B H 99;2HRK B R 102;24.1448
2HRK B H 99;2HRK B W 103;7.35253
2HRK B I 100;2HRK B L 101;18.9353
2HRK B I 100;2HRK B R 102;0.633393
2HRK B I 100;2HRK B W 103;15.497
2HRK B I 100;2HRK B I 104;17.8444
2HRK B L 101;2HRK B R 102;16.6465
2HRK B L 101;2HRK B W 103;0.994241
2HRK B L 101;2HRK B I 104;12.5676
2HRK B L 101;2HRK B D 105;7.95066
2HRK B L 101;2HRK B L 119;10.4216
2HRK B L 101;2HRK B I 121;19.441
2HRK B R 102;2HRK B W 103;26.4526
2HRK B R 102;2HRK B I 104;0.406989
2HRK B R 102;2HRK B D 105;10.7034
2HRK B R 102;2HRK B Y 106;9.88135
2HRK B R 102;2HRK B I 121;0.392396
2HRK B W 103;2HRK B I 104;29.5483
2HRK B W 103;2HRK B D 105;1.08744
2HRK B W 103;2HRK B Y 106;11.6299
2HRK B W 103;2HRK B M 107;26.3194
2HRK B I 104;2HRK B D 105;16.7694
2HRK B I 104;2HRK B Y 106;1.2053
2HRK B I 104;2HRK B M 107;4.97292
2HRK B I 104;2HRK B Q 108;18.4147
2HRK B I 104;2HRK B L 119;11.2561
2HRK B I 104;2HRK B I 121;5.5334
2HRK B D 105;2HRK B Y 106;21.6508
2HRK B D 105;2HRK B M 107;0.300195
2HRK B D 105;2HRK B Q 108;18.1185
2HRK B D 105;2HRK B N 109;25.4344
2HRK B D 105;2HRK B L 119;0.173281
2HRK B D 105;2HRK B I 121;23.2663
2HRK B D 105;2HRK B H 123;12.8861
2HRK B Y 106;2HRK B M 107;24.9407
2HRK B Y 106;2HRK B Q 108;1.05189
2HRK B Y 106;2HRK B N 109;4.78616
2HRK B Y 106;2HRK B L 110;25.3177
2HRK B M 107;2HRK B Q 108;16.8779
2HRK B M 107;2HRK B N 109;1.10091
2HRK B M 107;2HRK B L 110;16.1917
2HRK B M 107;2HRK B L 111;24.5857
2HRK B M 107;2HRK B V 113;0.00987251
2HRK B Q 108;2HRK B N 109;25.3687
2HRK B Q 108;2HRK B L 110;0.276274
2HRK B Q 108;2HRK B L 111;3.0448
2HRK B Q 108;2HRK B E 112;5.06504
2HRK B Q 108;2HRK B V 113;20.673
2HRK B Q 108;2HRK B K 118;27.2077
2HRK B Q 108;2HRK B L 119;16.6719
2HRK B Q 108;2HRK B I 121;3.77878
2HRK B N 109;2HRK B L 110;18.7061
2HRK B N 109;2HRK B L 111;1.07663
2HRK B N 109;2HRK B E 112;15.4138
2HRK B N 109;2HRK B K 118;20.717
2HRK B L 110;2HRK B L 111;28.093
2HRK B L 110;2HRK B E 112;10.1676
2HRK B L 111;2HRK B E 112;21.7825
2HRK B L 111;2HRK B V 113;9.06421
2HRK B E 112;2HRK B V 113;23.2705
2HRK B E 112;2HRK B S 114;5.79157
2HRK B E 112;2HRK B K 118;6.42971
2HRK B V 113;2HRK B S 114;29.0997
2HRK B V 113;2HRK B S 115;1.95975
2HRK B V 113;2HRK B D 117;14.658
2HRK B V 113;2HRK B K 118;27.552
2HRK B S 114;2HRK B S 115;21.2054
2HRK B S 114;2HRK B T 116;18.1482
2HRK B S 114;2HRK B D 117;21.7597
2HRK B S 114;2HRK B K 118;7.76508
2HRK B S 115;2HRK B T 116;30.7978
2HRK B S 115;2HRK B D 117;0.407625
2HRK B S 115;2HRK B K 118;29.4903
2HRK B T 116;2HRK B D 117;32.9896
2HRK B T 116;2HRK B K 118;4.77739
2HRK B D 117;2HRK B K 118;17.6341
2HRK B D 117;2HRK B L 119;1.13401
2HRK B K 118;2HRK B L 119;24.1244
2HRK B K 118;2HRK B E 120;7.85641
2HRK B L 119;2HRK B E 120;34.2593
2HRK B L 119;2HRK B I 121;19.2533
2HRK B E 120;2HRK B I 121;26.0802
2HRK B E 120;2HRK B N 122;1.85413
2HRK B I 121;2HRK B N 122;25.383
2HRK B I 121;2HRK B H 123;26.1984
2HRK B N 122;2HRK B H 123;39.7123
