V1;V2;Weight
2J12 A R 184;2J12 A T 185;30.4048
2J12 A R 184;2J12 A L 210;0.480249
2J12 A R 184;2J12 A T 211;11.8201
2J12 A R 184;2J12 A K 212;22.5165
2J12 A R 184;2J12 A F 269;28.0438
2J12 A R 184;2J12 A R 270;11.2679
2J12 A R 184;2J12 A F 286;16.9652
2J12 A T 185;2J12 A L 186;19.5662
2J12 A T 185;2J12 A W 187;14.4474
2J12 A T 185;2J12 A V 209;10.9129
2J12 A T 185;2J12 A L 210;7.65061
2J12 A T 185;2J12 A T 211;18.4255
2J12 A T 185;2J12 A N 268;0.167161
2J12 A T 185;2J12 A F 269;9.70807
2J12 A T 185;2J12 A R 270;33.9526
2J12 A T 185;2J12 A F 286;1.93695
2J12 A L 186;2J12 A W 187;20.9831
2J12 A L 186;2J12 A L 208;0.340608
2J12 A L 186;2J12 A V 209;1.1792
2J12 A L 186;2J12 A L 210;27.0754
2J12 A L 186;2J12 A F 250;0.696342
2J12 A L 186;2J12 A G 254;0.0210572
2J12 A L 186;2J12 A W 267;24.7091
2J12 A L 186;2J12 A N 268;12.3584
2J12 A L 186;2J12 A F 269;20.5864
2J12 A L 186;2J12 A Y 280;14.9233
2J12 A L 186;2J12 A A 283;9.22844
2J12 A L 186;2J12 A F 286;21.5856
2J12 A L 186;2J12 A M 287;5.11121
2J12 A W 187;2J12 A T 188;15.3066
2J12 A W 187;2J12 A T 189;21.9388
2J12 A W 187;2J12 A P 190;21.2151
2J12 A W 187;2J12 A L 208;6.28515
2J12 A W 187;2J12 A V 209;26.4596
2J12 A W 187;2J12 A L 210;0.00169642
2J12 A W 187;2J12 A Y 266;2.42851
2J12 A W 187;2J12 A W 267;14.3969
2J12 A W 187;2J12 A N 268;16.5125
2J12 A W 187;2J12 A F 269;0.110257
2J12 A W 187;2J12 A R 270;29.2615
2J12 A W 187;2J12 A G 272;7.54599
2J12 A W 187;2J12 A N 273;12.9895
2J12 A W 187;2J12 A S 274;8.89778
2J12 A W 187;2J12 A N 275;10.658
2J12 A T 188;2J12 A T 189;31.678
2J12 A T 188;2J12 A T 192;13.5115
2J12 A T 188;2J12 A N 195;9.48695
2J12 A T 188;2J12 A L 206;11.2094
2J12 A T 188;2J12 A T 207;7.45829
2J12 A T 188;2J12 A L 208;21.0565
2J12 A T 188;2J12 A V 209;0.732963
2J12 A T 188;2J12 A L 262;11.2677
2J12 A T 188;2J12 A Y 266;15.9291
2J12 A T 188;2J12 A W 267;14.096
2J12 A T 189;2J12 A P 190;23.452
2J12 A T 189;2J12 A D 191;11.2857
2J12 A T 189;2J12 A T 192;13.7184
2J12 A T 189;2J12 A T 207;6.54454
2J12 A T 189;2J12 A V 209;2.29874
2J12 A T 189;2J12 A Y 266;15.9747
2J12 A T 189;2J12 A N 273;5.81654
2J12 A T 189;2J12 A S 274;11.433
2J12 A T 189;2J12 A N 275;11.1612
2J12 A P 190;2J12 A D 191;35.7361
2J12 A P 190;2J12 A T 192;0.530952
2J12 A P 190;2J12 A T 207;18.6445
2J12 A P 190;2J12 A V 209;4.40755
2J12 A P 190;2J12 A N 273;21.9999
2J12 A D 191;2J12 A T 192;28.8062
2J12 A D 191;2J12 A S 193;0.448485
2J12 A D 191;2J12 A T 207;0.765588
2J12 A D 191;2J12 A N 273;5.84953
2J12 A T 192;2J12 A S 193;32.5457
2J12 A T 192;2J12 A N 195;18.1928
2J12 A T 192;2J12 A K 205;26.5358
2J12 A T 192;2J12 A L 206;6.17919
2J12 A T 192;2J12 A T 207;10.1258
2J12 A T 192;2J12 A Y 266;9.68386
2J12 A S 193;2J12 A P 194;30.1836
2J12 A S 193;2J12 A N 195;6.02174
2J12 A S 193;2J12 A K 202;2.85952
2J12 A S 193;2J12 A K 205;5.75161
2J12 A S 193;2J12 A Y 266;0.682043
2J12 A P 194;2J12 A N 195;20.0264
2J12 A P 194;2J12 A C 196;0.0157485
2J12 A P 194;2J12 A K 202;29.8081
2J12 A P 194;2J12 A S 204;7.53128
2J12 A P 194;2J12 A K 205;15.384
2J12 A P 194;2J12 A V 226;9.00051
2J12 A N 195;2J12 A C 196;26.8691
2J12 A N 195;2J12 A K 202;7.12576
2J12 A N 195;2J12 A S 204;5.13297
2J12 A N 195;2J12 A K 205;4.95274
2J12 A N 195;2J12 A L 206;13.7227
2J12 A N 195;2J12 A N 261;0.429972
2J12 A N 195;2J12 A L 262;20.2656
2J12 A N 195;2J12 A G 263;18.5218
2J12 A N 195;2J12 A Y 266;5.76539
2J12 A C 196;2J12 A T 197;22.5934
2J12 A C 196;2J12 A I 198;5.11672
2J12 A C 196;2J12 A I 198;0.223109
2J12 A C 196;2J12 A K 202;10.7417
2J12 A C 196;2J12 A D 203;5.26363
2J12 A C 196;2J12 A S 204;25.7754
2J12 A C 196;2J12 A K 205;0.11997
2J12 A C 196;2J12 A L 206;11.7884
2J12 A C 196;2J12 A L 223;2.04309
2J12 A C 196;2J12 A I 246;16.2095
2J12 A C 196;2J12 A N 261;13.4923
2J12 A C 196;2J12 A L 262;7.91536
2J12 A C 196;2J12 A G 263;0.0145683
2J12 A T 197;2J12 A I 198;25.3975
2J12 A T 197;2J12 A A 199;0.807168
2J12 A T 197;2J12 A Q 200;12.7376
2J12 A T 197;2J12 A D 201;1.44254
2J12 A T 197;2J12 A D 201;19.9907
2J12 A T 197;2J12 A K 202;13.0312
2J12 A T 197;2J12 A D 203;3.01872
2J12 A T 197;2J12 A S 204;0.123799
2J12 A T 197;2J12 A S 260;0.963043
2J12 A T 197;2J12 A N 261;30.5486
2J12 A I 198;2J12 A A 199;26.4101
2J12 A I 198;2J12 A Q 200;2.63002
2J12 A I 198;2J12 A D 203;11.8501
2J12 A I 198;2J12 A S 204;3.20313
2J12 A I 198;2J12 A Y 230;15.7494
2J12 A I 198;2J12 A F 244;10.337
2J12 A I 198;2J12 A T 245;12.2111
2J12 A I 198;2J12 A I 246;7.69616
2J12 A I 198;2J12 A N 261;11.449
2J12 A I 198;2J12 A D 203;3.02531
2J12 A I 198;2J12 A S 204;9.02259
2J12 A I 198;2J12 A L 223;3.9416
2J12 A I 198;2J12 A V 225;8.15739
2J12 A I 198;2J12 A Y 230;5.88944
2J12 A I 198;2J12 A F 244;9.6404
2J12 A I 198;2J12 A I 246;6.86075
2J12 A A 199;2J12 A Q 200;33.3757
2J12 A A 199;2J12 A D 203;9.73376
2J12 A A 199;2J12 A G 228;1.14493
2J12 A A 199;2J12 A K 229;17.8029
2J12 A A 199;2J12 A Y 230;16.0668
2J12 A Q 200;2J12 A D 201;30.0672
2J12 A Q 200;2J12 A D 201;2.00327
2J12 A Q 200;2J12 A K 202;1.14889
2J12 A Q 200;2J12 A D 203;22.8989
2J12 A Q 200;2J12 A A 227;9.41062
2J12 A Q 200;2J12 A G 228;20.337
2J12 A Q 200;2J12 A K 229;1.05345
2J12 A D 201;2J12 A K 202;17.2504
2J12 A D 201;2J12 A D 203;4.05217
2J12 A D 201;2J12 A A 227;0.0203538
2J12 A D 201;2J12 A K 202;6.98221
2J12 A K 202;2J12 A D 203;15.8066
2J12 A K 202;2J12 A S 204;3.08372
2J12 A K 202;2J12 A V 226;3.36655
2J12 A K 202;2J12 A A 265;0.971073
2J12 A D 203;2J12 A S 204;22.0175
2J12 A D 203;2J12 A V 225;9.22811
2J12 A D 203;2J12 A V 226;10.6336
2J12 A D 203;2J12 A A 227;22.2028
2J12 A D 203;2J12 A G 228;2.45511
2J12 A D 203;2J12 A K 229;0.566374
2J12 A D 203;2J12 A Y 230;3.54966
2J12 A S 204;2J12 A K 205;18.8307
2J12 A S 204;2J12 A L 206;0.0494383
2J12 A S 204;2J12 A L 223;8.60263
2J12 A S 204;2J12 A I 224;4.25836
2J12 A S 204;2J12 A V 225;9.91432
2J12 A S 204;2J12 A V 226;8.10137
2J12 A S 204;2J12 A I 246;0.133529
2J12 A K 205;2J12 A L 206;16.9372
2J12 A K 205;2J12 A T 207;7.5697
2J12 A K 205;2J12 A S 222;0.903836
2J12 A K 205;2J12 A L 223;9.71748
2J12 A K 205;2J12 A I 224;39.383
2J12 A K 205;2J12 A V 226;15.393
2J12 A L 206;2J12 A T 207;21.0874
2J12 A L 206;2J12 A L 208;12.0068
2J12 A L 206;2J12 A V 221;11.3581
2J12 A L 206;2J12 A S 222;7.93183
2J12 A L 206;2J12 A L 223;13.9594
2J12 A L 206;2J12 A I 246;15.6781
2J12 A L 206;2J12 A L 248;8.94144
2J12 A L 206;2J12 A L 262;15.9479
2J12 A L 206;2J12 A F 339;13.3256
2J12 A L 206;2J12 A F 341;6.27504
2J12 A T 207;2J12 A L 208;19.3201
2J12 A T 207;2J12 A V 209;11.3286
2J12 A T 207;2J12 A N 220;6.93943
2J12 A T 207;2J12 A V 221;9.2939
2J12 A T 207;2J12 A S 222;30.4571
2J12 A T 207;2J12 A I 224;6.06832
2J12 A L 208;2J12 A V 209;24.3357
2J12 A L 208;2J12 A L 210;18.5511
2J12 A L 208;2J12 A A 219;3.81407
2J12 A L 208;2J12 A N 220;10.1486
2J12 A L 208;2J12 A V 221;12.2822
2J12 A L 208;2J12 A L 248;12.276
2J12 A L 208;2J12 A L 262;0.947097
2J12 A L 208;2J12 A W 267;16.8413
2J12 A L 208;2J12 A I 337;5.9093
2J12 A L 208;2J12 A F 339;15.5936
2J12 A L 208;2J12 A F 359;5.96498
2J12 A V 209;2J12 A L 210;23.1169
2J12 A V 209;2J12 A T 211;11.2532
2J12 A V 209;2J12 A L 218;3.58741
2J12 A V 209;2J12 A A 219;5.01908
2J12 A V 209;2J12 A N 220;31.7903
2J12 A L 210;2J12 A T 211;17.9941
2J12 A L 210;2J12 A I 217;12.97
2J12 A L 210;2J12 A L 218;2.75145
2J12 A L 210;2J12 A A 219;10.7987
2J12 A L 210;2J12 A L 248;0.0339132
2J12 A L 210;2J12 A F 250;2.09054
2J12 A L 210;2J12 A W 267;14.4599
2J12 A L 210;2J12 A F 286;20.2442
2J12 A L 210;2J12 A M 287;2.27092
2J12 A L 210;2J12 A I 337;10.7634
2J12 A L 210;2J12 A F 359;1.14664
2J12 A L 210;2J12 A Y 361;14.5555
2J12 A T 211;2J12 A K 212;24.0296
2J12 A T 211;2J12 A C 213;14.323
2J12 A T 211;2J12 A Q 216;0.129498
2J12 A T 211;2J12 A I 217;8.78819
2J12 A T 211;2J12 A L 218;31.4485
2J12 A T 211;2J12 A F 286;1.19689
2J12 A K 212;2J12 A C 213;23.9466
2J12 A K 212;2J12 A G 214;29.1598
2J12 A K 212;2J12 A S 215;0.527844
2J12 A K 212;2J12 A Q 216;0.53589
2J12 A K 212;2J12 A I 217;15.5143
2J12 A K 212;2J12 A G 285;18.7995
2J12 A K 212;2J12 A F 286;22.7035
2J12 A K 212;2J12 A A 363;4.84356
2J12 A K 212;2J12 A E 365;14.2231
2J12 A C 213;2J12 A G 214;23.9834
2J12 A C 213;2J12 A S 215;4.02877
2J12 A C 213;2J12 A Q 216;28.2552
2J12 A C 213;2J12 A I 217;0.0367697
2J12 A C 213;2J12 A L 218;20.1182
2J12 A G 214;2J12 A S 215;16.5861
2J12 A G 214;2J12 A S 215;7.04053
2J12 A G 214;2J12 A Q 216;5.38319
2J12 A G 214;2J12 A I 217;1.3825
2J12 A G 214;2J12 A A 363;2.57213
2J12 A G 214;2J12 A E 365;0.0774916
2J12 A S 215;2J12 A Q 216;23.0116
2J12 A S 215;2J12 A Y 361;0.00256679
2J12 A S 215;2J12 A I 362;9.3719
2J12 A S 215;2J12 A A 363;9.86191
2J12 A S 215;2J12 A Q 216;1.26523
2J12 A S 215;2J12 A I 362;5.24721
2J12 A S 215;2J12 A A 363;9.88627
2J12 A S 215;2J12 A E 365;9.79565
2J12 A Q 216;2J12 A I 217;23.4259
2J12 A Q 216;2J12 A L 218;1.77328
2J12 A Q 216;2J12 A S 360;24.2673
2J12 A Q 216;2J12 A Y 361;11.0628
2J12 A Q 216;2J12 A I 362;10.2174
2J12 A Q 216;2J12 A A 363;2.04597
2J12 A I 217;2J12 A L 218;21.9581
2J12 A I 217;2J12 A A 219;5.64386
2J12 A I 217;2J12 A G 285;5.10883
2J12 A I 217;2J12 A F 286;18.8917
2J12 A I 217;2J12 A M 287;0.0562196
2J12 A I 217;2J12 A F 359;0.0130096
2J12 A I 217;2J12 A S 360;10.2394
2J12 A I 217;2J12 A Y 361;38.1623
2J12 A I 217;2J12 A A 363;12.7119
2J12 A L 218;2J12 A A 219;22.42
2J12 A L 218;2J12 A N 220;0.625022
2J12 A L 218;2J12 A T 358;19.7663
2J12 A L 218;2J12 A F 359;6.27014
2J12 A L 218;2J12 A S 360;11.0379
2J12 A A 219;2J12 A N 220;21.6521
2J12 A A 219;2J12 A F 357;0.321505
2J12 A A 219;2J12 A T 358;9.87579
2J12 A A 219;2J12 A F 359;33.7594
2J12 A A 219;2J12 A S 360;1.31931
2J12 A A 219;2J12 A Y 361;6.00655
2J12 A N 220;2J12 A V 221;22.9608
2J12 A N 220;2J12 A S 356;19.702
2J12 A N 220;2J12 A F 357;9.93363
2J12 A N 220;2J12 A T 358;19.1464
2J12 A N 220;2J12 A F 359;1.61549
2J12 A V 221;2J12 A S 222;28.1824
2J12 A V 221;2J12 A I 311;1.11613
2J12 A V 221;2J12 A I 323;18.0793
2J12 A V 221;2J12 A T 325;0.228896
2J12 A V 221;2J12 A F 339;14.573
2J12 A V 221;2J12 A F 341;2.62913
2J12 A V 221;2J12 A T 355;1.42522
2J12 A V 221;2J12 A S 356;8.0701
2J12 A V 221;2J12 A F 357;27.2909
2J12 A V 221;2J12 A F 359;12.3091
2J12 A S 222;2J12 A L 223;24.5237
2J12 A S 222;2J12 A I 224;6.38735
2J12 A S 222;2J12 A I 311;0.121715
2J12 A S 222;2J12 A I 323;1.52805
2J12 A S 222;2J12 A F 341;2.69236
2J12 A S 222;2J12 A T 354;15.9141
2J12 A S 222;2J12 A T 355;6.01617
2J12 A S 222;2J12 A S 356;14.9126
2J12 A L 223;2J12 A I 224;26.6726
2J12 A L 223;2J12 A V 225;11.1129
2J12 A L 223;2J12 A F 244;9.43559
2J12 A L 223;2J12 A I 246;12.9135
2J12 A L 223;2J12 A F 341;20.4938
2J12 A L 223;2J12 A F 352;11.4299
2J12 A L 223;2J12 A E 353;4.25494
2J12 A L 223;2J12 A T 354;22.4296
2J12 A I 224;2J12 A V 225;24.7114
2J12 A I 224;2J12 A V 226;15.078
2J12 A I 224;2J12 A E 351;1.2273
2J12 A I 224;2J12 A F 352;1.60705
2J12 A I 224;2J12 A E 353;26.0518
2J12 A I 224;2J12 A T 354;3.71664
2J12 A V 225;2J12 A V 226;19.0138
2J12 A V 225;2J12 A A 227;8.95765
2J12 A V 225;2J12 A Y 230;18.6042
2J12 A V 225;2J12 A H 231;20.9243
2J12 A V 225;2J12 A F 244;5.15541
2J12 A V 225;2J12 A E 351;6.66667
2J12 A V 225;2J12 A F 352;24.721
2J12 A V 225;2J12 A E 353;0.6663
2J12 A V 226;2J12 A A 227;23.142
2J12 A V 226;2J12 A H 231;16.3513
2J12 A V 226;2J12 A E 351;0.0810181
2J12 A A 227;2J12 A G 228;25.4637
2J12 A A 227;2J12 A K 229;0.157496
2J12 A A 227;2J12 A Y 230;1.54388
2J12 A A 227;2J12 A H 231;15.5073
2J12 A G 228;2J12 A K 229;27.6084
2J12 A G 228;2J12 A Y 230;2.94844
2J12 A G 228;2J12 A H 231;14.4347
2J12 A G 228;2J12 A I 232;1.45507
2J12 A K 229;2J12 A Y 230;44.0107
2J12 A K 229;2J12 A H 231;2.51461
2J12 A K 229;2J12 A I 232;7.78748
2J12 A K 229;2J12 A I 233;4.07319
2J12 A K 229;2J12 A N 238;3.28569
2J12 A K 229;2J12 A I 241;36.5961
2J12 A Y 230;2J12 A H 231;18.241
2J12 A Y 230;2J12 A I 232;1.19835
2J12 A Y 230;2J12 A I 233;16.1055
2J12 A Y 230;2J12 A I 241;16.9298
2J12 A Y 230;2J12 A S 243;5.42714
2J12 A Y 230;2J12 A F 244;36.2067
2J12 A Y 230;2J12 A W 343;1.21679
2J12 A Y 230;2J12 A F 352;8.91303
2J12 A H 231;2J12 A I 232;43.0144
2J12 A H 231;2J12 A I 233;1.02084
2J12 A H 231;2J12 A V 350;0.389431
2J12 A H 231;2J12 A E 351;18.6068
2J12 A H 231;2J12 A F 352;8.97694
2J12 A I 232;2J12 A I 233;25.0309
2J12 A I 232;2J12 A N 234;8.45845
2J12 A I 232;2J12 A N 349;23.7127
2J12 A I 232;2J12 A V 350;6.113
2J12 A I 232;2J12 A E 351;17.9518
2J12 A I 233;2J12 A N 234;22.7297
2J12 A I 233;2J12 A N 235;12.6462
2J12 A I 233;2J12 A I 241;13.3194
2J12 A I 233;2J12 A F 244;1.02102
2J12 A I 233;2J12 A L 313;4.76539
2J12 A I 233;2J12 A W 343;22.8595
2J12 A I 233;2J12 A Y 347;17.7167
2J12 A I 233;2J12 A E 348;0.557021
2J12 A I 233;2J12 A N 349;7.09877
2J12 A I 233;2J12 A V 350;22.7427
2J12 A I 233;2J12 A F 352;15.5315
2J12 A N 234;2J12 A N 235;17.0746
2J12 A N 234;2J12 A K 236;12.284
2J12 A N 234;2J12 A T 237;29.7636
2J12 A N 234;2J12 A N 238;18.992
2J12 A N 234;2J12 A I 241;1.90724
2J12 A N 234;2J12 A Y 347;3.31054
2J12 A N 234;2J12 A E 348;16.9368
2J12 A N 234;2J12 A N 349;25.9239
2J12 A N 235;2J12 A K 236;21.767
2J12 A N 235;2J12 A T 237;0.336067
2J12 A N 235;2J12 A N 238;12.6734
2J12 A N 235;2J12 A P 239;22.1757
2J12 A N 235;2J12 A I 241;12.3959
2J12 A N 235;2J12 A K 242;15.2369
2J12 A N 235;2J12 A W 343;7.75292
2J12 A N 235;2J12 A K 345;2.34773
2J12 A N 235;2J12 A T 346;19.6629
2J12 A N 235;2J12 A Y 347;17.2039
2J12 A K 236;2J12 A T 237;28.2881
2J12 A K 236;2J12 A N 238;0.748813
2J12 A K 236;2J12 A P 239;8.76129
2J12 A K 236;2J12 A T 346;21.2227
2J12 A K 236;2J12 A Y 347;1.48171
2J12 A K 236;2J12 A E 348;36.1793
2J12 A T 237;2J12 A N 238;36.8952
2J12 A T 237;2J12 A P 239;9.31991
2J12 A N 238;2J12 A P 239;20.2021
2J12 A N 238;2J12 A K 240;5.52713
2J12 A N 238;2J12 A I 241;32.0048
2J12 A P 239;2J12 A K 240;35.787
2J12 A P 239;2J12 A I 241;1.98407
2J12 A P 239;2J12 A K 242;16.6316
2J12 A K 240;2J12 A I 241;24.2877
2J12 A K 240;2J12 A K 242;15.7776
2J12 A I 241;2J12 A K 242;23.2343
2J12 A I 241;2J12 A S 243;2.80293
2J12 A I 241;2J12 A F 244;0.267628
2J12 A I 241;2J12 A W 343;16.5882
2J12 A K 242;2J12 A S 243;30.2757
2J12 A K 242;2J12 A S 342;7.45343
2J12 A K 242;2J12 A W 343;40.1633
2J12 A K 242;2J12 A S 344;10.1869
2J12 A K 242;2J12 A S 344;2.45334
2J12 A K 242;2J12 A K 345;6.50452
2J12 A K 242;2J12 A T 346;8.08802
2J12 A S 243;2J12 A F 244;27.94
2J12 A S 243;2J12 A N 340;15.9309
2J12 A S 243;2J12 A F 341;5.97561
2J12 A S 243;2J12 A S 342;13.13
2J12 A S 243;2J12 A W 343;5.69311
2J12 A F 244;2J12 A T 245;29.032
2J12 A F 244;2J12 A I 246;5.50579
2J12 A F 244;2J12 A F 339;0.331426
2J12 A F 244;2J12 A N 340;9.61319
2J12 A F 244;2J12 A F 341;33.3355
2J12 A F 244;2J12 A W 343;13.8604
2J12 A F 244;2J12 A F 352;14.9135
2J12 A T 245;2J12 A I 246;25.7587
2J12 A T 245;2J12 A K 247;18.1543
2J12 A T 245;2J12 A N 261;8.24597
2J12 A T 245;2J12 A T 338;14.4607
2J12 A T 245;2J12 A F 339;6.79243
2J12 A T 245;2J12 A N 340;20.1853
2J12 A T 245;2J12 A F 341;0.461587
2J12 A I 246;2J12 A K 247;21.0564
2J12 A I 246;2J12 A L 248;9.88705
2J12 A I 246;2J12 A N 261;13.1959
2J12 A I 246;2J12 A L 262;3.55805
2J12 A I 246;2J12 A I 337;0.90088
2J12 A I 246;2J12 A T 338;4.76985
2J12 A I 246;2J12 A F 339;26.3138
2J12 A I 246;2J12 A F 341;11.4476
2J12 A K 247;2J12 A L 248;22.6766
2J12 A K 247;2J12 A L 249;19.6893
2J12 A K 247;2J12 A N 259;0.0776713
2J12 A K 247;2J12 A S 260;7.69364
2J12 A K 247;2J12 A N 261;27.1175
2J12 A K 247;2J12 A L 262;2.76588
2J12 A K 247;2J12 A E 330;30.3151
2J12 A K 247;2J12 A S 336;0.0666682
2J12 A K 247;2J12 A I 337;2.97901
2J12 A K 247;2J12 A T 338;11.5889
2J12 A L 248;2J12 A L 249;20.1479
2J12 A L 248;2J12 A F 250;18.9366
2J12 A L 248;2J12 A L 256;10.2001
2J12 A L 248;2J12 A S 260;3.62784
2J12 A L 248;2J12 A L 262;21.2598
2J12 A L 248;2J12 A W 267;5.83695
2J12 A L 248;2J12 A S 336;7.35761
2J12 A L 248;2J12 A I 337;30.2814
2J12 A L 248;2J12 A F 339;12.1742
2J12 A L 249;2J12 A F 250;19.4341
2J12 A L 249;2J12 A V 255;0.00293996
2J12 A L 249;2J12 A L 256;9.21619
2J12 A L 249;2J12 A L 257;19.8428
2J12 A L 249;2J12 A N 259;23.9535
2J12 A L 249;2J12 A S 260;20.003
2J12 A L 249;2J12 A E 330;12.7168
2J12 A L 249;2J12 A T 331;8.57441
2J12 A L 249;2J12 A G 332;3.70185
2J12 A L 249;2J12 A C 333;13.3265
2J12 A L 249;2J12 A Y 335;2.4041
2J12 A L 249;2J12 A S 336;7.2487
2J12 A F 250;2J12 A N 251;19.6152
2J12 A F 250;2J12 A G 254;10.8062
2J12 A F 250;2J12 A V 255;7.55507
2J12 A F 250;2J12 A L 256;17.8434
2J12 A F 250;2J12 A L 257;6.31357
2J12 A F 250;2J12 A W 267;15.3177
2J12 A F 250;2J12 A Y 280;3.72338
2J12 A F 250;2J12 A M 287;25.3638
2J12 A F 250;2J12 A P 288;3.35406
2J12 A F 250;2J12 A C 333;7.24588
2J12 A F 250;2J12 A E 334;6.39671
2J12 A F 250;2J12 A Y 335;23.5226
2J12 A F 250;2J12 A S 336;4.5362
2J12 A F 250;2J12 A I 337;15.7483
2J12 A N 251;2J12 A K 252;25.2973
2J12 A N 251;2J12 A N 253;16.9523
2J12 A N 251;2J12 A G 254;8.86313
2J12 A N 251;2J12 A V 255;30.0794
2J12 A N 251;2J12 A L 257;23.4708
2J12 A N 251;2J12 A C 333;0.947782
2J12 A N 251;2J12 A E 334;9.26825
2J12 A N 251;2J12 A Y 335;6.84109
2J12 A K 252;2J12 A N 253;42.3239
2J12 A K 252;2J12 A G 254;2.42095
2J12 A K 252;2J12 A I 284;13.8534
2J12 A K 252;2J12 A E 334;21.6819
2J12 A K 252;2J12 A Y 335;11.3572
2J12 A N 253;2J12 A G 254;16.0492
2J12 A N 253;2J12 A V 255;11.6382
2J12 A N 253;2J12 A Y 280;0.562807
2J12 A N 253;2J12 A E 281;10.1668
2J12 A N 253;2J12 A K 282;30.9276
2J12 A N 253;2J12 A A 283;6.35903
2J12 A N 253;2J12 A I 284;17.0456
2J12 A G 254;2J12 A V 255;15.7969
2J12 A G 254;2J12 A L 256;0.210805
2J12 A G 254;2J12 A Y 280;10.9889
2J12 A G 254;2J12 A A 283;9.79749
2J12 A G 254;2J12 A I 284;3.37721
2J12 A G 254;2J12 A M 287;16.957
2J12 A G 254;2J12 A Y 335;2.1586
2J12 A V 255;2J12 A L 256;25.2563
2J12 A V 255;2J12 A L 257;6.19782
2J12 A V 255;2J12 A K 264;16.4283
2J12 A V 255;2J12 A Y 280;25.2235
2J12 A V 255;2J12 A E 281;13.1941
2J12 A V 255;2J12 A K 282;0.296371
2J12 A L 256;2J12 A L 257;25.435
2J12 A L 256;2J12 A D 258;0.578367
2J12 A L 256;2J12 A S 260;10.5854
2J12 A L 256;2J12 A L 262;20.861
2J12 A L 256;2J12 A G 263;4.82944
2J12 A L 256;2J12 A K 264;33.2369
2J12 A L 256;2J12 A W 267;19.4831
2J12 A L 256;2J12 A Y 280;6.43355
2J12 A L 257;2J12 A D 258;25.1655
2J12 A L 257;2J12 A N 259;16.5627
2J12 A L 257;2J12 A S 260;14.7271
2J12 A L 257;2J12 A L 262;1.66229
2J12 A L 257;2J12 A K 264;3.71916
2J12 A L 257;2J12 A G 332;12.3645
2J12 A L 257;2J12 A C 333;10.123
2J12 A D 258;2J12 A N 259;26.5191
2J12 A D 258;2J12 A S 260;10.6005
2J12 A D 258;2J12 A L 262;1.59263
2J12 A D 258;2J12 A K 264;25.0078
2J12 A N 259;2J12 A S 260;25.5236
2J12 A N 259;2J12 A N 261;4.46787
2J12 A N 259;2J12 A G 332;4.9302
2J12 A S 260;2J12 A N 261;24.5764
2J12 A S 260;2J12 A L 262;17.7046
2J12 A S 260;2J12 A G 263;0.0958957
2J12 A N 261;2J12 A L 262;19.1776
2J12 A N 261;2J12 A G 263;3.43027
2J12 A L 262;2J12 A G 263;30.6008
2J12 A L 262;2J12 A K 264;1.37714
2J12 A L 262;2J12 A W 267;17.8902
2J12 A G 263;2J12 A K 264;23.9222
2J12 A G 263;2J12 A A 265;4.56796
2J12 A G 263;2J12 A Y 266;3.40343
2J12 A G 263;2J12 A W 267;6.93747
2J12 A K 264;2J12 A A 265;30.8971
2J12 A K 264;2J12 A Y 266;1.97227
2J12 A K 264;2J12 A W 267;20.0547
2J12 A K 264;2J12 A A 279;1.98654
2J12 A A 265;2J12 A Y 266;37.2954
2J12 A A 265;2J12 A W 267;1.62705
2J12 A A 265;2J12 A N 268;4.03329
2J12 A A 265;2J12 A N 275;1.83575
2J12 A Y 266;2J12 A W 267;20.9301
2J12 A Y 266;2J12 A N 268;0.383239
2J12 A Y 266;2J12 A S 274;6.90597
2J12 A Y 266;2J12 A N 275;19.5418
2J12 A W 267;2J12 A N 268;25.0178
2J12 A W 267;2J12 A N 275;0.320127
2J12 A W 267;2J12 A A 279;0.20766
2J12 A W 267;2J12 A Y 280;23.5626
2J12 A W 267;2J12 A M 287;0.17572
2J12 A N 268;2J12 A F 269;27.2384
2J12 A N 268;2J12 A R 270;0.986763
2J12 A N 268;2J12 A N 275;21.337
2J12 A N 268;2J12 A V 276;18.4831
2J12 A N 268;2J12 A S 277;1.44793
2J12 A N 268;2J12 A T 278;8.03059
2J12 A N 268;2J12 A A 279;9.39599
2J12 A N 268;2J12 A Y 280;19.6368
2J12 A F 269;2J12 A R 270;22.3113
2J12 A F 269;2J12 A S 271;0.000893534
2J12 A F 269;2J12 A N 275;6.7404
2J12 A F 269;2J12 A V 276;22.7598
2J12 A F 269;2J12 A Y 280;20.7555
2J12 A F 269;2J12 A K 282;11.5057
2J12 A F 269;2J12 A A 283;9.80057
2J12 A F 269;2J12 A F 286;17.3156
2J12 A R 270;2J12 A S 271;23.3036
2J12 A R 270;2J12 A G 272;29.1824
2J12 A R 270;2J12 A N 273;1.11543
2J12 A R 270;2J12 A S 274;3.28522
2J12 A R 270;2J12 A N 275;2.4278
2J12 A R 270;2J12 A V 276;9.64701
2J12 A S 271;2J12 A G 272;28.9787
2J12 A S 271;2J12 A N 273;1.82077
2J12 A S 271;2J12 A S 274;16.7081
2J12 A S 271;2J12 A N 275;8.40973
2J12 A S 271;2J12 A V 276;16.4821
2J12 A G 272;2J12 A N 273;25.927
2J12 A G 272;2J12 A S 274;2.18435
2J12 A N 273;2J12 A S 274;22.9393
2J12 A S 274;2J12 A N 275;22.3206
2J12 A N 275;2J12 A V 276;23.3065
2J12 A N 275;2J12 A S 277;0.298956
2J12 A V 276;2J12 A S 277;22.5222
2J12 A V 276;2J12 A S 277;4.34785
2J12 A V 276;2J12 A T 278;10.917
2J12 A V 276;2J12 A T 278;8.3091
2J12 A V 276;2J12 A Y 280;0.601577
2J12 A S 277;2J12 A T 278;13.6918
2J12 A S 277;2J12 A T 278;9.233
2J12 A S 277;2J12 A A 279;4.02416
2J12 A S 277;2J12 A T 278;5.43896
2J12 A S 277;2J12 A T 278;1.65836
2J12 A T 278;2J12 A A 279;15.243
2J12 A T 278;2J12 A Y 280;3.64899
2J12 A T 278;2J12 A A 279;23.7047
2J12 A T 278;2J12 A E 281;3.72703
2J12 A A 279;2J12 A Y 280;32.3026
2J12 A A 279;2J12 A E 281;9.1516
2J12 A Y 280;2J12 A E 281;28.0451
2J12 A Y 280;2J12 A K 282;11.1515
2J12 A Y 280;2J12 A A 283;12.2627
2J12 A Y 280;2J12 A M 287;0.190219
2J12 A E 281;2J12 A K 282;43.5518
2J12 A K 282;2J12 A A 283;21.8478
2J12 A K 282;2J12 A I 284;15.7496
2J12 A A 283;2J12 A I 284;20.4556
2J12 A A 283;2J12 A G 285;4.18432
2J12 A A 283;2J12 A F 286;18.2546
2J12 A A 283;2J12 A M 287;10.6852
2J12 A I 284;2J12 A G 285;20.0387
2J12 A I 284;2J12 A F 286;2.0953
2J12 A I 284;2J12 A M 287;16.4891
2J12 A I 284;2J12 A Y 335;10.8394
2J12 A I 284;2J12 A Q 364;17.3313
2J12 A I 284;2J12 A E 365;30.564
2J12 A G 285;2J12 A F 286;21.4596
2J12 A G 285;2J12 A M 287;1.51877
2J12 A G 285;2J12 A A 363;7.04797
2J12 A G 285;2J12 A Q 364;0.777316
2J12 A G 285;2J12 A E 365;19.3462
2J12 A F 286;2J12 A M 287;28.6405
2J12 A F 286;2J12 A P 288;2.18029
2J12 A F 286;2J12 A I 337;0.792563
2J12 A F 286;2J12 A Y 361;12.0688
2J12 A F 286;2J12 A A 363;0.667976
2J12 A M 287;2J12 A P 288;26.1797
2J12 A M 287;2J12 A N 289;1.27328
2J12 A M 287;2J12 A Y 335;25.275
2J12 A M 287;2J12 A I 337;0.981962
2J12 A M 287;2J12 A Y 361;3.56014
2J12 A M 287;2J12 A I 362;0.418806
2J12 A M 287;2J12 A A 363;5.86505
2J12 A M 287;2J12 A Q 364;14.268
2J12 A P 288;2J12 A N 289;16.2031
2J12 A P 288;2J12 A L 290;3.1612
2J12 A P 288;2J12 A Y 293;8.09977
2J12 A P 288;2J12 A F 327;13.7589
2J12 A P 288;2J12 A N 328;16.3755
2J12 A P 288;2J12 A Y 335;16.4008
2J12 A P 288;2J12 A S 336;8.62419
2J12 A P 288;2J12 A I 337;13.0021
2J12 A P 288;2J12 A Y 361;15.5649
2J12 A P 288;2J12 A I 362;2.60281
2J12 A P 288;2J12 A Q 364;2.43277
2J12 A N 289;2J12 A L 290;15.4171
2J12 A N 289;2J12 A V 291;15.8982
2J12 A N 289;2J12 A A 292;17.4055
2J12 A N 289;2J12 A Y 293;16.0743
2J12 A N 289;2J12 A N 328;3.14134
2J12 A N 289;2J12 A I 362;22.1775
2J12 A N 289;2J12 A A 363;11.1749
2J12 A N 289;2J12 A Q 364;26.1677
2J12 A L 290;2J12 A V 291;27.3969
2J12 A L 290;2J12 A A 292;0.33662
2J12 A L 290;2J12 A Y 293;9.34414
2J12 A L 290;2J12 A P 294;17.5005
2J12 A L 290;2J12 A K 295;16.6918
2J12 A L 290;2J12 A N 328;14.0033
2J12 A L 290;2J12 A E 334;27.0681
2J12 A L 290;2J12 A Y 335;17.11
2J12 A L 290;2J12 A Q 364;19.3732
2J12 A V 291;2J12 A A 292;24.8965
2J12 A V 291;2J12 A Y 293;1.46009
2J12 A V 291;2J12 A P 294;10.4724
2J12 A V 291;2J12 A R 304;2.84511
2J12 A V 291;2J12 A Q 364;0.688358
2J12 A A 292;2J12 A Y 293;32.0397
2J12 A A 292;2J12 A P 294;6.6379
2J12 A A 292;2J12 A R 304;12.7148
2J12 A A 292;2J12 A D 305;6.111
2J12 A A 292;2J12 A I 362;18.807
2J12 A Y 293;2J12 A P 294;20.1529
2J12 A Y 293;2J12 A K 295;0.196898
2J12 A Y 293;2J12 A K 301;4.87046
2J12 A Y 293;2J12 A R 304;12.738
2J12 A Y 293;2J12 A D 305;20.2449
2J12 A Y 293;2J12 A F 327;29.4329
2J12 A Y 293;2J12 A N 328;15.3571
2J12 A Y 293;2J12 A S 360;0.250832
2J12 A Y 293;2J12 A Y 361;14.7239
2J12 A Y 293;2J12 A I 362;25.8381
2J12 A P 294;2J12 A K 295;32.4308
2J12 A P 294;2J12 A S 297;0.954525
2J12 A P 294;2J12 A S 299;1.14205
2J12 A P 294;2J12 A K 301;19.4111
2J12 A P 294;2J12 A Y 302;7.52188
2J12 A P 294;2J12 A R 304;1.05168
2J12 A P 294;2J12 A D 305;9.74442
2J12 A P 294;2J12 A N 328;3.02565
2J12 A K 295;2J12 A P 296;38.2947
2J12 A K 295;2J12 A S 297;10.2559
2J12 A K 295;2J12 A S 299;0.614369
2J12 A K 295;2J12 A K 301;3.04633
2J12 A K 295;2J12 A N 328;20.3314
2J12 A K 295;2J12 A Q 329;1.14912
2J12 A K 295;2J12 A E 330;15.4081
2J12 A K 295;2J12 A T 331;0.248935
2J12 A K 295;2J12 A T 331;3.71719
2J12 A K 295;2J12 A G 332;0.867908
2J12 A K 295;2J12 A C 333;19.9078
2J12 A K 295;2J12 A E 334;10.6243
2J12 A K 295;2J12 A Y 335;3.43961
2J12 A K 295;2J12 A S 336;2.91065
2J12 A P 296;2J12 A S 297;31.5129
2J12 A P 296;2J12 A S 299;4.20191
2J12 A P 296;2J12 A K 301;18.0282
2J12 A P 296;2J12 A N 328;3.43095
2J12 A P 296;2J12 A Q 329;27.9337
2J12 A P 296;2J12 A E 330;1.23741
2J12 A S 297;2J12 A N 298;32.5444
2J12 A S 297;2J12 A S 299;33.3852
2J12 A S 297;2J12 A K 300;0.00934512
2J12 A N 298;2J12 A S 299;25.9136
2J12 A N 298;2J12 A K 300;4.60855
2J12 A S 299;2J12 A K 300;36.8254
2J12 A S 299;2J12 A K 301;4.70605
2J12 A S 299;2J12 A Y 302;3.2185
2J12 A K 300;2J12 A K 301;46.3782
2J12 A K 300;2J12 A Y 302;12.5861
2J12 A K 300;2J12 A A 303;0.0661493
2J12 A K 301;2J12 A Y 302;31.3371
2J12 A K 301;2J12 A A 303;2.98438
2J12 A K 301;2J12 A D 305;22.9235
2J12 A K 301;2J12 A T 326;6.30719
2J12 A K 301;2J12 A F 327;8.04815
2J12 A K 301;2J12 A N 328;8.15066
2J12 A K 301;2J12 A Q 329;23.0644
2J12 A Y 302;2J12 A A 303;25.444
2J12 A Y 302;2J12 A R 304;39.9533
2J12 A Y 302;2J12 A D 305;20.6531
2J12 A Y 302;2J12 A I 306;3.50965
2J12 A A 303;2J12 A R 304;22.4063
2J12 A A 303;2J12 A D 305;2.80119
2J12 A A 303;2J12 A I 306;29.6049
2J12 A R 304;2J12 A D 305;24.8178
2J12 A R 304;2J12 A I 306;13.2771
2J12 A R 304;2J12 A F 327;1.60181
2J12 A D 305;2J12 A I 306;21.6598
2J12 A D 305;2J12 A T 325;0.481595
2J12 A D 305;2J12 A T 326;9.85566
2J12 A D 305;2J12 A F 327;18.9932
2J12 A I 306;2J12 A V 307;31.5844
2J12 A I 306;2J12 A Y 308;18.2578
2J12 A I 306;2J12 A K 324;19.017
2J12 A I 306;2J12 A T 325;9.14433
2J12 A I 306;2J12 A T 326;20.7019
2J12 A I 306;2J12 A F 327;2.6553
2J12 A V 307;2J12 A Y 308;32.5183
2J12 A V 307;2J12 A G 309;0.273519
2J12 A V 307;2J12 A I 323;2.83921
2J12 A V 307;2J12 A K 324;3.11081
2J12 A V 307;2J12 A T 325;26.6252
2J12 A V 307;2J12 A F 327;13.0312
2J12 A V 307;2J12 A F 357;15.3184
2J12 A V 307;2J12 A F 359;21.1705
2J12 A V 307;2J12 A S 360;5.01551
2J12 A Y 308;2J12 A G 309;24.5695
2J12 A Y 308;2J12 A V 322;22.0072
2J12 A Y 308;2J12 A I 323;4.27276
2J12 A Y 308;2J12 A K 324;33.1024
2J12 A Y 308;2J12 A F 357;7.52305
2J12 A G 309;2J12 A T 310;27.8829
2J12 A G 309;2J12 A I 311;0.799667
2J12 A G 309;2J12 A I 311;0.497113
2J12 A G 309;2J12 A A 321;0.113637
2J12 A G 309;2J12 A V 322;9.46693
2J12 A G 309;2J12 A I 323;12.0249
2J12 A G 309;2J12 A I 323;10.8287
2J12 A G 309;2J12 A F 357;18.6661
2J12 A T 310;2J12 A I 311;14.9799
2J12 A T 310;2J12 A I 311;12.3815
2J12 A T 310;2J12 A Y 312;26.599
2J12 A T 310;2J12 A P 320;13.5024
2J12 A T 310;2J12 A A 321;8.63419
2J12 A T 310;2J12 A V 322;15.5865
2J12 A T 310;2J12 A T 355;0.0241574
2J12 A T 310;2J12 A F 357;6.00013
2J12 A I 311;2J12 A Y 312;16.1773
2J12 A I 311;2J12 A Q 319;0.0550309
2J12 A I 311;2J12 A P 320;4.07481
2J12 A I 311;2J12 A A 321;11.1175
2J12 A I 311;2J12 A I 323;0.0969031
2J12 A I 311;2J12 A I 323;0.527365
2J12 A I 311;2J12 A Y 312;12.1177
2J12 A I 311;2J12 A L 313;7.82925
2J12 A I 311;2J12 A A 321;17.0098
2J12 A I 311;2J12 A V 322;1.83653
2J12 A I 311;2J12 A I 323;2.06606
2J12 A I 311;2J12 A I 323;17.5659
2J12 A I 311;2J12 A F 341;7.55657
2J12 A I 311;2J12 A F 352;2.23283
2J12 A I 311;2J12 A T 354;19.4465
2J12 A I 311;2J12 A T 355;19.6083
2J12 A I 311;2J12 A S 356;4.54864
2J12 A I 311;2J12 A F 357;13.5498
2J12 A Y 312;2J12 A L 313;18.0329
2J12 A Y 312;2J12 A G 314;1.3704
2J12 A Y 312;2J12 A G 315;12.2793
2J12 A Y 312;2J12 A K 316;12.1001
2J12 A Y 312;2J12 A P 317;21.3995
2J12 A Y 312;2J12 A Q 319;7.35298
2J12 A Y 312;2J12 A P 320;17.351
2J12 A Y 312;2J12 A A 321;0.0944275
2J12 A Y 312;2J12 A E 353;0.64719
2J12 A Y 312;2J12 A T 354;4.44283
2J12 A Y 312;2J12 A T 355;28.8933
2J12 A L 313;2J12 A G 314;17.5114
2J12 A L 313;2J12 A G 315;2.66061
2J12 A L 313;2J12 A K 316;4.90467
2J12 A L 313;2J12 A K 316;3.74467
2J12 A L 313;2J12 A Q 319;29.6404
2J12 A L 313;2J12 A P 320;0.839681
2J12 A L 313;2J12 A A 321;11.3181
2J12 A L 313;2J12 A W 343;3.16566
2J12 A L 313;2J12 A Y 347;15.3197
2J12 A L 313;2J12 A V 350;17.5294
2J12 A L 313;2J12 A E 351;5.14134
2J12 A L 313;2J12 A F 352;25.7814
2J12 A L 313;2J12 A E 353;8.60506
2J12 A L 313;2J12 A T 354;8.56489
2J12 A G 314;2J12 A G 315;24.4904
2J12 A G 314;2J12 A K 316;2.48371
2J12 A G 314;2J12 A K 316;14.739
2J12 A G 314;2J12 A Q 319;2.55418
2J12 A G 314;2J12 A V 350;0.399145
2J12 A G 314;2J12 A E 351;5.25833
2J12 A G 314;2J12 A E 353;28.6405
2J12 A G 315;2J12 A K 316;12.9347
2J12 A G 315;2J12 A K 316;7.25699
2J12 A G 315;2J12 A P 317;8.78229
2J12 A G 315;2J12 A E 353;0.423759
2J12 A G 315;2J12 A T 354;0.658118
2J12 A G 315;2J12 A T 355;17.5492
2J12 A K 316;2J12 A P 317;12.8126
2J12 A K 316;2J12 A D 318;2.26737
2J12 A K 316;2J12 A Q 319;7.96725
2J12 A K 316;2J12 A P 317;12.7211
2J12 A K 316;2J12 A D 318;11.8319
2J12 A K 316;2J12 A Q 319;28.4748
2J12 A P 317;2J12 A D 318;31.1795
2J12 A P 317;2J12 A Q 319;1.84478
2J12 A P 317;2J12 A P 320;4.35648
2J12 A D 318;2J12 A Q 319;27.7425
2J12 A D 318;2J12 A P 320;9.85269
2J12 A D 318;2J12 A K 345;25.3014
2J12 A D 318;2J12 A Y 347;3.74871
2J12 A Q 319;2J12 A P 320;19.2961
2J12 A Q 319;2J12 A A 321;0.920931
2J12 A Q 319;2J12 A Y 347;21.674
2J12 A Q 319;2J12 A V 350;26.6063
2J12 A P 320;2J12 A A 321;22.3332
2J12 A P 320;2J12 A V 322;0.67255
2J12 A P 320;2J12 A W 343;6.1106
2J12 A P 320;2J12 A S 344;0.850775
2J12 A P 320;2J12 A K 345;0.219843
2J12 A P 320;2J12 A K 345;9.40071
2J12 A P 320;2J12 A Y 347;18.429
2J12 A A 321;2J12 A V 322;25.9975
2J12 A A 321;2J12 A I 323;0.279487
2J12 A A 321;2J12 A F 341;1.41061
2J12 A A 321;2J12 A S 342;7.79955
2J12 A A 321;2J12 A W 343;13.6495
2J12 A A 321;2J12 A Y 347;0.43608
2J12 A A 321;2J12 A F 352;7.80584
2J12 A V 322;2J12 A I 323;16.664
2J12 A V 322;2J12 A I 323;5.67975
2J12 A V 322;2J12 A K 324;2.08946
2J12 A V 322;2J12 A K 324;4.94844
2J12 A V 322;2J12 A N 340;3.68426
2J12 A V 322;2J12 A F 341;7.25549
2J12 A V 322;2J12 A S 342;17.4112
2J12 A V 322;2J12 A S 342;14.2178
2J12 A V 322;2J12 A W 343;2.49147
2J12 A I 323;2J12 A K 324;7.64026
2J12 A I 323;2J12 A K 324;5.62469
2J12 A I 323;2J12 A T 325;1.8676
2J12 A I 323;2J12 A F 357;0.671374
2J12 A I 323;2J12 A K 324;6.58451
2J12 A I 323;2J12 A T 325;9.28737
2J12 A I 323;2J12 A F 339;13.3209
2J12 A I 323;2J12 A N 340;7.46293
2J12 A I 323;2J12 A F 341;24.3285
2J12 A I 323;2J12 A F 357;15.7234
2J12 A K 324;2J12 A T 325;14.4041
2J12 A K 324;2J12 A T 326;2.68135
2J12 A K 324;2J12 A T 338;3.50092
2J12 A K 324;2J12 A F 339;3.02993
2J12 A K 324;2J12 A N 340;17.4027
2J12 A K 324;2J12 A T 325;5.26417
2J12 A K 324;2J12 A T 326;11.4837
2J12 A K 324;2J12 A N 340;29.5135
2J12 A K 324;2J12 A S 342;0.169844
2J12 A T 325;2J12 A T 326;21.9225
2J12 A T 325;2J12 A F 327;13.3106
2J12 A T 325;2J12 A I 337;8.91269
2J12 A T 325;2J12 A T 338;7.41192
2J12 A T 325;2J12 A F 339;16.3478
2J12 A T 325;2J12 A F 357;3.71467
2J12 A T 325;2J12 A F 359;13.2426
2J12 A T 326;2J12 A F 327;25.8093
2J12 A T 326;2J12 A N 328;1.51865
2J12 A T 326;2J12 A Q 329;24.705
2J12 A T 326;2J12 A S 336;1.24642
2J12 A T 326;2J12 A I 337;5.02381
2J12 A T 326;2J12 A T 338;27.713
2J12 A F 327;2J12 A N 328;19.2658
2J12 A F 327;2J12 A Q 329;2.7372
2J12 A F 327;2J12 A S 336;3.90698
2J12 A F 327;2J12 A I 337;15.3534
2J12 A F 327;2J12 A F 359;10.3761
2J12 A F 327;2J12 A S 360;4.51657
2J12 A F 327;2J12 A Y 361;23.1673
2J12 A N 328;2J12 A Q 329;15.8304
2J12 A N 328;2J12 A E 330;1.23367
2J12 A N 328;2J12 A E 334;0.116508
2J12 A N 328;2J12 A Y 335;9.57293
2J12 A N 328;2J12 A S 336;20.8423
2J12 A Q 329;2J12 A E 330;39.3233
2J12 A Q 329;2J12 A T 331;1.78663
2J12 A Q 329;2J12 A S 336;4.59702
2J12 A Q 329;2J12 A T 338;6.49582
2J12 A E 330;2J12 A T 331;24.7011
2J12 A E 330;2J12 A T 331;7.80854
2J12 A E 330;2J12 A C 333;8.58095
2J12 A E 330;2J12 A S 336;15.6502
2J12 A E 330;2J12 A T 338;19.7145
2J12 A T 331;2J12 A G 332;16.7556
2J12 A T 331;2J12 A C 333;7.3808
2J12 A T 331;2J12 A G 332;18.3465
2J12 A G 332;2J12 A C 333;26.8517
2J12 A C 333;2J12 A E 334;25.9229
2J12 A C 333;2J12 A Y 335;10.1479
2J12 A C 333;2J12 A S 336;6.23923
2J12 A E 334;2J12 A Y 335;36.7267
2J12 A Y 335;2J12 A S 336;18.2824
2J12 A Y 335;2J12 A Q 364;21.9778
2J12 A S 336;2J12 A I 337;22.6156
2J12 A S 336;2J12 A T 338;3.90911
2J12 A I 337;2J12 A T 338;24.3174
2J12 A I 337;2J12 A F 339;17.9508
2J12 A I 337;2J12 A F 359;3.72521
2J12 A I 337;2J12 A Y 361;14.1865
2J12 A T 338;2J12 A F 339;21.754
2J12 A T 338;2J12 A N 340;6.25184
2J12 A F 339;2J12 A N 340;18.1622
2J12 A F 339;2J12 A F 341;16.8896
2J12 A F 339;2J12 A F 359;10.6235
2J12 A N 340;2J12 A F 341;23.6401
2J12 A N 340;2J12 A S 342;0.949281
2J12 A N 340;2J12 A S 342;10.6879
2J12 A F 341;2J12 A S 342;12.9708
2J12 A F 341;2J12 A S 342;5.91799
2J12 A F 341;2J12 A W 343;6.0522
2J12 A F 341;2J12 A F 352;15.4158
2J12 A F 341;2J12 A T 354;8.19147
2J12 A S 342;2J12 A W 343;19.4008
2J12 A S 342;2J12 A F 352;0.0722262
2J12 A S 342;2J12 A W 343;11.9404
2J12 A W 343;2J12 A S 344;18.6542
2J12 A W 343;2J12 A S 344;13.6298
2J12 A W 343;2J12 A K 345;8.43525
2J12 A W 343;2J12 A Y 347;19.7046
2J12 A W 343;2J12 A F 352;15.6711
2J12 A S 344;2J12 A K 345;18.5629
2J12 A S 344;2J12 A K 345;6.86293
2J12 A S 344;2J12 A T 346;3.6354
2J12 A S 344;2J12 A K 345;5.96296
2J12 A K 345;2J12 A T 346;11.5395
2J12 A K 345;2J12 A Y 347;7.27464
2J12 A K 345;2J12 A T 346;16.2594
2J12 A K 345;2J12 A Y 347;27.5837
2J12 A T 346;2J12 A Y 347;23.2489
2J12 A T 346;2J12 A E 348;6.47198
2J12 A Y 347;2J12 A E 348;21.5982
2J12 A Y 347;2J12 A V 350;20.4961
2J12 A E 348;2J12 A N 349;36.8927
2J12 A E 348;2J12 A V 350;14.002
2J12 A N 349;2J12 A V 350;22.0156
2J12 A N 349;2J12 A E 351;3.5058
2J12 A V 350;2J12 A E 351;30.0556
2J12 A V 350;2J12 A F 352;3.12075
2J12 A E 351;2J12 A F 352;19.6818
2J12 A E 351;2J12 A E 353;21.3939
2J12 A F 352;2J12 A E 353;19.4086
2J12 A F 352;2J12 A T 354;11.3257
2J12 A E 353;2J12 A T 354;28.1608
2J12 A T 354;2J12 A T 355;31.9049
2J12 A T 354;2J12 A S 356;0.550344
2J12 A T 355;2J12 A S 356;32.0544
2J12 A T 355;2J12 A F 357;0.132445
2J12 A S 356;2J12 A F 357;25.1726
2J12 A F 357;2J12 A T 358;40.2969
2J12 A F 357;2J12 A F 359;19.8566
2J12 A T 358;2J12 A F 359;28.2141
2J12 A F 359;2J12 A S 360;35.2542
2J12 A F 359;2J12 A Y 361;10.1102
2J12 A S 360;2J12 A Y 361;27.9651
2J12 A Y 361;2J12 A I 362;25.6978
2J12 A Y 361;2J12 A A 363;4.03863
2J12 A I 362;2J12 A A 363;22.3942
2J12 A A 363;2J12 A Q 364;17.5824
2J12 A A 363;2J12 A E 365;12.3007
2J12 A Q 364;2J12 A E 365;31.401
