V1;V2;Weight
2J1K C A 361;2J1K C P 362;44.6154
2J1K C A 361;2J1K C I 363;2.71502
2J1K C A 361;2J1K C R 391;2.93965
2J1K C A 361;2J1K C D 392;4.28879
2J1K C A 361;2J1K C T 459;2.84799
2J1K C A 361;2J1K C L 462;12.7396
2J1K C P 362;2J1K C I 363;30.1017
2J1K C P 362;2J1K C R 391;9.83373
2J1K C P 362;2J1K C D 392;14.8921
2J1K C P 362;2J1K C E 444;1.12884
2J1K C I 363;2J1K C T 364;29.9594
2J1K C I 363;2J1K C L 365;8.64317
2J1K C I 363;2J1K C L 389;0.877261
2J1K C I 363;2J1K C T 390;2.46047
2J1K C I 363;2J1K C R 391;23.2951
2J1K C I 363;2J1K C E 444;19.2253
2J1K C I 363;2J1K C T 459;24.0253
2J1K C I 363;2J1K C W 460;13.2773
2J1K C I 363;2J1K C L 462;10.4601
2J1K C I 363;2J1K C C 463;17.2768
2J1K C T 364;2J1K C L 365;22.6695
2J1K C T 364;2J1K C W 366;6.2176
2J1K C T 364;2J1K C C 388;8.9553
2J1K C T 364;2J1K C L 389;6.22453
2J1K C T 364;2J1K C T 390;13.9716
2J1K C T 364;2J1K C E 444;10.501
2J1K C T 364;2J1K C K 445;30.7994
2J1K C T 364;2J1K C C 463;0.948058
2J1K C L 365;2J1K C W 366;18.6661
2J1K C L 365;2J1K C I 387;0.129492
2J1K C L 365;2J1K C C 388;2.9234
2J1K C L 365;2J1K C L 389;23.5459
2J1K C L 365;2J1K C F 424;2.94999
2J1K C L 365;2J1K C G 428;6.51219
2J1K C L 365;2J1K C W 442;24.4497
2J1K C L 365;2J1K C G 443;11.6235
2J1K C L 365;2J1K C E 444;7.6499
2J1K C L 365;2J1K C K 445;0.269388
2J1K C L 365;2J1K C W 460;28.8951
2J1K C L 365;2J1K C C 463;15.232
2J1K C L 365;2J1K C M 464;5.52066
2J1K C W 366;2J1K C T 367;16.298
2J1K C W 366;2J1K C G 368;17.8228
2J1K C W 366;2J1K C P 369;10.3117
2J1K C W 366;2J1K C F 386;14.2859
2J1K C W 366;2J1K C I 387;6.96393
2J1K C W 366;2J1K C C 388;15.3689
2J1K C W 366;2J1K C W 442;16.5016
2J1K C W 366;2J1K C G 443;16.3727
2J1K C W 366;2J1K C E 444;1.79176
2J1K C W 366;2J1K C K 445;32.9638
2J1K C W 366;2J1K C N 450;17.2353
2J1K C W 366;2J1K C T 451;7.42952
2J1K C W 366;2J1K C V 452;14.8525
2J1K C T 367;2J1K C G 368;25.3722
2J1K C T 367;2J1K C P 369;0.922541
2J1K C T 367;2J1K C P 371;14.2895
2J1K C T 367;2J1K C S 372;0.0982459
2J1K C T 367;2J1K C N 374;12.0697
2J1K C T 367;2J1K C C 385;6.99669
2J1K C T 367;2J1K C F 386;9.03031
2J1K C T 367;2J1K C I 387;22.8995
2J1K C T 367;2J1K C I 436;3.81387
2J1K C T 367;2J1K C T 440;0.059767
2J1K C T 367;2J1K C T 441;24.2388
2J1K C T 367;2J1K C W 442;15.8178
2J1K C T 367;2J1K C V 452;5.61453
2J1K C G 368;2J1K C P 369;26.2885
2J1K C G 368;2J1K C P 371;6.15198
2J1K C G 368;2J1K C F 386;9.1905
2J1K C G 368;2J1K C N 450;0.0483069
2J1K C G 368;2J1K C V 452;11.471
2J1K C P 369;2J1K C G 370;29.6595
2J1K C P 369;2J1K C P 371;2.98475
2J1K C P 369;2J1K C F 386;5.76196
2J1K C P 369;2J1K C N 450;19.0163
2J1K C P 369;2J1K C V 452;2.0578
2J1K C G 370;2J1K C P 371;34.4439
2J1K C G 370;2J1K C S 372;3.6099e-05
2J1K C G 370;2J1K C R 384;0.0332963
2J1K C G 370;2J1K C F 386;0.264625
2J1K C P 371;2J1K C S 372;22.1653
2J1K C P 371;2J1K C N 374;3.93528
2J1K C P 371;2J1K C R 384;30.1281
2J1K C P 371;2J1K C C 385;9.16523
2J1K C P 371;2J1K C F 386;22.1711
2J1K C S 372;2J1K C I 373;23.2802
2J1K C S 372;2J1K C N 374;13.9359
2J1K C S 372;2J1K C R 384;12.497
2J1K C S 372;2J1K C C 385;1.86918
2J1K C S 372;2J1K C T 440;11.6075
2J1K C S 372;2J1K C T 441;3.64195
2J1K C I 373;2J1K C N 374;19.475
2J1K C I 373;2J1K C G 375;0.764536
2J1K C I 373;2J1K C F 376;0.422103
2J1K C I 373;2J1K C P 381;19.9249
2J1K C I 373;2J1K C V 382;9.07809
2J1K C I 373;2J1K C I 383;7.73964
2J1K C I 373;2J1K C R 384;22.5964
2J1K C I 373;2J1K C E 405;13.8042
2J1K C I 373;2J1K C T 440;4.04964
2J1K C N 374;2J1K C G 375;18.7468
2J1K C N 374;2J1K C F 376;11.3385
2J1K C N 374;2J1K C P 381;2.26559
2J1K C N 374;2J1K C I 383;5.54331
2J1K C N 374;2J1K C R 384;0.836914
2J1K C N 374;2J1K C C 385;20.8141
2J1K C N 374;2J1K C I 387;0.170235
2J1K C N 374;2J1K C N 435;3.28959
2J1K C N 374;2J1K C I 436;20.0494
2J1K C N 374;2J1K C N 437;1.27681
2J1K C N 374;2J1K C T 440;29.2231
2J1K C N 374;2J1K C T 441;1.44618
2J1K C G 375;2J1K C F 376;17.4868
2J1K C G 375;2J1K C I 377;1.78441
2J1K C G 375;2J1K C T 380;0.177255
2J1K C G 375;2J1K C P 381;5.85693
2J1K C G 375;2J1K C V 382;7.9379
2J1K C G 375;2J1K C I 383;17.5058
2J1K C G 375;2J1K C C 385;5.85451
2J1K C G 375;2J1K C L 420;10.0681
2J1K C G 375;2J1K C N 435;2.87709
2J1K C G 375;2J1K C I 436;5.674
2J1K C F 376;2J1K C I 377;23.422
2J1K C F 376;2J1K C N 378;0.883305
2J1K C F 376;2J1K C D 379;19.6145
2J1K C F 376;2J1K C T 380;9.77395
2J1K C F 376;2J1K C P 381;25.0369
2J1K C F 376;2J1K C S 419;1.26024
2J1K C F 376;2J1K C L 420;7.96707
2J1K C F 376;2J1K C G 434;0.916401
2J1K C F 376;2J1K C N 435;37.5936
2J1K C F 376;2J1K C I 436;0.0176821
2J1K C F 376;2J1K C N 437;16.0706
2J1K C F 376;2J1K C T 439;11.4094
2J1K C F 376;2J1K C T 440;2.49422
2J1K C I 377;2J1K C N 378;41.701
2J1K C I 377;2J1K C D 379;2.3421
2J1K C I 377;2J1K C T 380;17.2485
2J1K C I 377;2J1K C V 382;18.2839
2J1K C I 377;2J1K C I 383;9.80046
2J1K C I 377;2J1K C Y 408;27.8311
2J1K C I 377;2J1K C F 418;30.6896
2J1K C I 377;2J1K C S 419;0.476938
2J1K C I 377;2J1K C L 420;7.15342
2J1K C I 377;2J1K C N 435;0.641155
2J1K C N 378;2J1K C D 379;32.1045
2J1K C N 378;2J1K C T 380;11.283
2J1K C N 378;2J1K C Y 408;7.15157
2J1K C N 378;2J1K C N 435;1.79099
2J1K C D 379;2J1K C T 380;21.4098
2J1K C D 379;2J1K C P 381;0.248194
2J1K C T 380;2J1K C P 381;22.148
2J1K C T 380;2J1K C V 382;22.0683
2J1K C P 381;2J1K C V 382;16.9699
2J1K C V 382;2J1K C I 383;26.6251
2J1K C V 382;2J1K C R 384;0.0317026
2J1K C V 382;2J1K C V 403;0.358403
2J1K C V 382;2J1K C G 404;1.39568
2J1K C V 382;2J1K C E 405;22.4692
2J1K C V 382;2J1K C G 406;0.265542
2J1K C V 382;2J1K C G 407;3.23878
2J1K C V 382;2J1K C Y 408;23.0449
2J1K C I 383;2J1K C R 384;20.4407
2J1K C I 383;2J1K C C 385;10.6838
2J1K C I 383;2J1K C F 402;13.2067
2J1K C I 383;2J1K C V 403;7.71542
2J1K C I 383;2J1K C G 404;9.24471
2J1K C I 383;2J1K C E 405;0.00641796
2J1K C I 383;2J1K C Y 408;10.3646
2J1K C I 383;2J1K C F 418;8.85892
2J1K C I 383;2J1K C L 420;14.1216
2J1K C I 383;2J1K C F 516;1.3453
2J1K C I 383;2J1K C F 528;14.0236
2J1K C R 384;2J1K C C 385;17.6355
2J1K C R 384;2J1K C F 386;2.06565
2J1K C R 384;2J1K C S 401;1.44246
2J1K C R 384;2J1K C F 402;5.52705
2J1K C R 384;2J1K C V 403;31.6116
2J1K C R 384;2J1K C E 405;24.4996
2J1K C C 385;2J1K C F 386;15.9687
2J1K C C 385;2J1K C I 387;14.2307
2J1K C C 385;2J1K C S 401;3.08685
2J1K C C 385;2J1K C F 402;15.6246
2J1K C C 385;2J1K C L 420;7.05999
2J1K C C 385;2J1K C I 436;9.76217
2J1K C F 386;2J1K C I 387;24.8598
2J1K C F 386;2J1K C C 388;10.399
2J1K C F 386;2J1K C N 399;14.2897
2J1K C F 386;2J1K C A 400;10.6995
2J1K C F 386;2J1K C S 401;35.0311
2J1K C F 386;2J1K C F 402;1.01429
2J1K C F 386;2J1K C V 532;0.0617501
2J1K C I 387;2J1K C C 388;21.3626
2J1K C I 387;2J1K C L 389;10.3129
2J1K C I 387;2J1K C V 398;3.4852
2J1K C I 387;2J1K C N 399;3.01377
2J1K C I 387;2J1K C A 400;9.33943
2J1K C I 387;2J1K C F 402;7.21394
2J1K C I 387;2J1K C M 422;15.5808
2J1K C I 387;2J1K C I 436;15.7981
2J1K C I 387;2J1K C W 442;14.9089
2J1K C I 387;2J1K C F 514;14.8081
2J1K C C 388;2J1K C L 389;21.627
2J1K C C 388;2J1K C T 390;7.87369
2J1K C C 388;2J1K C T 397;3.05909
2J1K C C 388;2J1K C V 398;4.76716
2J1K C C 388;2J1K C N 399;24.1745
2J1K C C 388;2J1K C W 442;0.12367
2J1K C C 388;2J1K C K 445;0.177187
2J1K C L 389;2J1K C T 390;16.1317
2J1K C L 389;2J1K C R 391;0.917034
2J1K C L 389;2J1K C V 396;11.0835
2J1K C L 389;2J1K C T 397;3.59991
2J1K C L 389;2J1K C V 398;16.92
2J1K C L 389;2J1K C M 422;3.75658
2J1K C L 389;2J1K C F 424;7.83637
2J1K C L 389;2J1K C W 442;13.0061
2J1K C L 389;2J1K C C 463;18.6391
2J1K C L 389;2J1K C M 464;5.97332
2J1K C L 389;2J1K C L 512;15.5307
2J1K C L 389;2J1K C F 514;0.858543
2J1K C L 389;2J1K C Y 537;7.32188
2J1K C T 390;2J1K C R 391;20.5975
2J1K C T 390;2J1K C D 392;15.7907
2J1K C T 390;2J1K C L 395;2.16136
2J1K C T 390;2J1K C V 396;8.47418
2J1K C T 390;2J1K C T 397;20.5745
2J1K C R 391;2J1K C D 392;29.7948
2J1K C R 391;2J1K C S 393;8.31155
2J1K C R 391;2J1K C N 394;18.2092
2J1K C R 391;2J1K C L 395;7.32356
2J1K C R 391;2J1K C V 396;14.326
2J1K C R 391;2J1K C L 462;32.4807
2J1K C R 391;2J1K C C 463;9.13528
2J1K C R 391;2J1K C G 539;11.3161
2J1K C R 391;2J1K C E 540;9.43976
2J1K C R 391;2J1K C N 541;4.72883
2J1K C D 392;2J1K C S 393;27.5686
2J1K C D 392;2J1K C N 394;2.07197
2J1K C D 392;2J1K C L 395;12.3125
2J1K C D 392;2J1K C T 397;5.57994
2J1K C S 393;2J1K C N 394;27.8918
2J1K C S 393;2J1K C L 395;0.14844
2J1K C N 394;2J1K C L 395;29.6858
2J1K C N 394;2J1K C V 396;0.00383427
2J1K C N 394;2J1K C V 538;13.4485
2J1K C N 394;2J1K C G 539;11.4968
2J1K C L 395;2J1K C V 396;19.3841
2J1K C L 395;2J1K C T 397;5.38228
2J1K C L 395;2J1K C T 536;16.225
2J1K C L 395;2J1K C Y 537;8.0256
2J1K C L 395;2J1K C V 538;14.579
2J1K C L 395;2J1K C G 539;1.47763
2J1K C V 396;2J1K C T 397;22.7852
2J1K C V 396;2J1K C V 398;5.42528
2J1K C V 396;2J1K C L 462;3.95833
2J1K C V 396;2J1K C C 463;14.8723
2J1K C V 396;2J1K C M 464;1.03231
2J1K C V 396;2J1K C F 535;0.291094
2J1K C V 396;2J1K C T 536;8.75299
2J1K C V 396;2J1K C Y 537;34.5375
2J1K C V 396;2J1K C V 538;0.0179326
2J1K C V 396;2J1K C G 539;10.3653
2J1K C T 397;2J1K C V 398;21.0432
2J1K C T 397;2J1K C N 399;4.69488
2J1K C T 397;2J1K C T 534;12.3318
2J1K C T 397;2J1K C F 535;6.05437
2J1K C T 397;2J1K C T 536;12.7173
2J1K C V 398;2J1K C N 399;20.043
2J1K C V 398;2J1K C A 400;7.76595
2J1K C V 398;2J1K C L 499;11.368
2J1K C V 398;2J1K C L 512;3.82552
2J1K C V 398;2J1K C F 514;12.5931
2J1K C V 398;2J1K C L 533;2.90679
2J1K C V 398;2J1K C T 534;7.33378
2J1K C V 398;2J1K C F 535;30.5975
2J1K C V 398;2J1K C T 536;0.769656
2J1K C V 398;2J1K C Y 537;13.1088
2J1K C N 399;2J1K C A 400;21.8233
2J1K C N 399;2J1K C V 532;15.6201
2J1K C N 399;2J1K C L 533;5.58761
2J1K C N 399;2J1K C T 534;7.31994
2J1K C A 400;2J1K C S 401;18.8773
2J1K C A 400;2J1K C F 402;11.8548
2J1K C A 400;2J1K C F 514;9.62793
2J1K C A 400;2J1K C D 531;1.00829
2J1K C A 400;2J1K C V 532;7.22169
2J1K C A 400;2J1K C L 533;23.5258
2J1K C A 400;2J1K C F 535;1.54369
2J1K C S 401;2J1K C F 402;30.9735
2J1K C S 401;2J1K C V 403;2.65966
2J1K C S 401;2J1K C T 530;11.3436
2J1K C S 401;2J1K C D 531;6.19872
2J1K C S 401;2J1K C V 532;15.6657
2J1K C S 401;2J1K C L 533;0.612329
2J1K C F 402;2J1K C V 403;25.1176
2J1K C F 402;2J1K C G 404;0.571116
2J1K C F 402;2J1K C L 420;7.35699
2J1K C F 402;2J1K C I 436;1.96657
2J1K C F 402;2J1K C C 497;1.88129
2J1K C F 402;2J1K C F 514;19.6188
2J1K C F 402;2J1K C F 516;19.9769
2J1K C F 402;2J1K C F 528;7.7085
2J1K C F 402;2J1K C K 529;2.5055
2J1K C F 402;2J1K C T 530;32.4183
2J1K C F 402;2J1K C L 533;12.0883
2J1K C V 403;2J1K C G 404;26.5886
2J1K C V 403;2J1K C E 405;18.8068
2J1K C V 403;2J1K C R 409;1.50184
2J1K C V 403;2J1K C L 527;3.38322
2J1K C V 403;2J1K C F 528;6.91334
2J1K C V 403;2J1K C K 529;22.8176
2J1K C V 403;2J1K C T 530;0.276352
2J1K C G 404;2J1K C E 405;20.9614
2J1K C G 404;2J1K C Y 408;8.68514
2J1K C G 404;2J1K C R 409;15.2241
2J1K C G 404;2J1K C F 528;18.6562
2J1K C E 405;2J1K C G 406;22.3914
2J1K C E 405;2J1K C G 407;2.79845
2J1K C E 405;2J1K C Y 408;11.4051
2J1K C E 405;2J1K C R 409;12.8183
2J1K C G 406;2J1K C G 407;26.2191
2J1K C G 406;2J1K C Y 408;1.75703
2J1K C G 406;2J1K C R 409;19.3738
2J1K C G 406;2J1K C I 410;0.0904825
2J1K C G 407;2J1K C Y 408;30.8005
2J1K C G 407;2J1K C R 409;2.44802
2J1K C G 407;2J1K C I 410;9.64681
2J1K C G 407;2J1K C Q 415;0.632249
2J1K C Y 408;2J1K C R 409;16.259
2J1K C Y 408;2J1K C I 410;6.50784
2J1K C Y 408;2J1K C V 411;13.4633
2J1K C Y 408;2J1K C Q 415;23.2749
2J1K C Y 408;2J1K C F 418;7.42967
2J1K C Y 408;2J1K C F 528;13.3994
2J1K C R 409;2J1K C I 410;45.9453
2J1K C R 409;2J1K C L 527;31.646
2J1K C R 409;2J1K C F 528;10.4167
2J1K C I 410;2J1K C V 411;29.5962
2J1K C I 410;2J1K C S 412;1.67951
2J1K C I 410;2J1K C Q 415;0.213603
2J1K C I 410;2J1K C G 525;13.8988
2J1K C I 410;2J1K C T 526;10.3202
2J1K C I 410;2J1K C L 527;17.3139
2J1K C I 410;2J1K C F 528;1.56121
2J1K C V 411;2J1K C S 412;24.6359
2J1K C V 411;2J1K C Q 415;18.5401
2J1K C V 411;2J1K C F 418;0.886623
2J1K C V 411;2J1K C L 482;8.71631
2J1K C V 411;2J1K C F 519;15.31
2J1K C V 411;2J1K C L 522;10.804
2J1K C V 411;2J1K C G 524;0.726195
2J1K C V 411;2J1K C G 525;4.14407
2J1K C V 411;2J1K C T 526;18.871
2J1K C V 411;2J1K C L 527;0.0615229
2J1K C V 411;2J1K C F 528;23.6228
2J1K C S 412;2J1K C P 413;26.4567
2J1K C S 412;2J1K C T 414;18.0381
2J1K C S 412;2J1K C Q 415;18.3976
2J1K C S 412;2J1K C F 519;4.4758
2J1K C S 412;2J1K C L 522;6.14949
2J1K C S 412;2J1K C G 524;0.605125
2J1K C S 412;2J1K C G 525;10.7322
2J1K C P 413;2J1K C T 414;30.0934
2J1K C P 413;2J1K C Q 415;4.74957
2J1K C P 413;2J1K C F 519;11.7193
2J1K C P 413;2J1K C N 520;23.2886
2J1K C P 413;2J1K C L 522;21.6039
2J1K C P 413;2J1K C S 523;5.89099
2J1K C P 413;2J1K C G 524;15.9532
2J1K C P 413;2J1K C G 525;2.91437
2J1K C T 414;2J1K C Q 415;25.8718
2J1K C T 414;2J1K C S 416;7.30209
2J1K C Q 415;2J1K C S 416;44.4641
2J1K C Q 415;2J1K C Q 417;3.73621
2J1K C Q 415;2J1K C F 418;8.40415
2J1K C Q 415;2J1K C F 519;30.4422
2J1K C Q 415;2J1K C N 520;0.0202561
2J1K C S 416;2J1K C Q 417;33.574
2J1K C S 416;2J1K C F 418;6.01645
2J1K C S 416;2J1K C F 519;4.5877
2J1K C Q 417;2J1K C F 418;26.5494
2J1K C Q 417;2J1K C R 515;18.6541
2J1K C Q 417;2J1K C F 516;8.06269
2J1K C Q 417;2J1K C L 517;20.0004
2J1K C Q 417;2J1K C N 518;20.3206
2J1K C Q 417;2J1K C F 519;11.5146
2J1K C Q 417;2J1K C N 520;0.0128949
2J1K C F 418;2J1K C S 419;28.0592
2J1K C F 418;2J1K C L 420;14.846
2J1K C F 418;2J1K C F 514;1.18419
2J1K C F 418;2J1K C R 515;15.4528
2J1K C F 418;2J1K C F 516;33.9764
2J1K C F 418;2J1K C F 519;9.96783
2J1K C F 418;2J1K C F 528;13.6573
2J1K C S 419;2J1K C L 420;20.4606
2J1K C S 419;2J1K C I 421;13.5907
2J1K C S 419;2J1K C N 435;11.5041
2J1K C S 419;2J1K C I 500;1.5385
2J1K C S 419;2J1K C T 513;13.4874
2J1K C S 419;2J1K C F 514;3.48724
2J1K C S 419;2J1K C R 515;26.3923
2J1K C L 420;2J1K C I 421;16.7689
2J1K C L 420;2J1K C M 422;1.85158
2J1K C L 420;2J1K C N 435;11.4545
2J1K C L 420;2J1K C I 436;18.1215
2J1K C L 420;2J1K C L 512;2.0784
2J1K C L 420;2J1K C T 513;6.88467
2J1K C L 420;2J1K C F 514;25.1475
2J1K C L 420;2J1K C F 516;9.7247
2J1K C I 421;2J1K C M 422;21.9233
2J1K C I 421;2J1K C E 423;9.20449
2J1K C I 421;2J1K C G 434;8.32181
2J1K C I 421;2J1K C N 435;26.0072
2J1K C I 421;2J1K C I 436;9.61516
2J1K C I 421;2J1K C K 503;0.218491
2J1K C I 421;2J1K C K 505;33.0552
2J1K C I 421;2J1K C T 511;9.48721
2J1K C I 421;2J1K C L 512;3.65949
2J1K C I 421;2J1K C T 513;23.1788
2J1K C M 422;2J1K C E 423;19.1418
2J1K C M 422;2J1K C F 424;20.0143
2J1K C M 422;2J1K C L 430;15.0374
2J1K C M 422;2J1K C G 434;0.0264542
2J1K C M 422;2J1K C I 436;27.2765
2J1K C M 422;2J1K C W 442;15.0645
2J1K C M 422;2J1K C Y 510;0.207793
2J1K C M 422;2J1K C T 511;7.39626
2J1K C M 422;2J1K C L 512;30.7458
2J1K C M 422;2J1K C F 514;10.6845
2J1K C E 423;2J1K C F 424;18.8069
2J1K C E 423;2J1K C L 430;10.8492
2J1K C E 423;2J1K C M 431;24.4803
2J1K C E 423;2J1K C T 433;23.1793
2J1K C E 423;2J1K C G 434;16.5386
2J1K C E 423;2J1K C I 436;2.38883
2J1K C E 423;2J1K C K 505;27.6763
2J1K C E 423;2J1K C G 506;1.13315
2J1K C E 423;2J1K C V 507;2.13089
2J1K C E 423;2J1K C A 508;12.9064
2J1K C E 423;2J1K C Y 510;2.52416
2J1K C E 423;2J1K C T 511;6.79831
2J1K C F 424;2J1K C D 425;18.8666
2J1K C F 424;2J1K C G 428;10.0919
2J1K C F 424;2J1K C Q 429;7.73814
2J1K C F 424;2J1K C L 430;20.1236
2J1K C F 424;2J1K C M 431;8.22997
2J1K C F 424;2J1K C W 442;11.0902
2J1K C F 424;2J1K C M 464;23.6196
2J1K C F 424;2J1K C P 465;0.668553
2J1K C F 424;2J1K C A 508;4.95988
2J1K C F 424;2J1K C T 509;5.78293
2J1K C F 424;2J1K C Y 510;25.483
2J1K C F 424;2J1K C T 511;2.65388
2J1K C F 424;2J1K C L 512;14.6998
2J1K C D 425;2J1K C Q 426;27.5645
2J1K C D 425;2J1K C F 427;16.5899
2J1K C D 425;2J1K C G 428;8.53534
2J1K C D 425;2J1K C Q 429;33.8028
2J1K C D 425;2J1K C M 431;19.3496
2J1K C D 425;2J1K C M 464;0.0727763
2J1K C D 425;2J1K C V 507;0.628702
2J1K C D 425;2J1K C A 508;0.140732
2J1K C D 425;2J1K C T 509;9.26061
2J1K C D 425;2J1K C Y 510;7.5488
2J1K C Q 426;2J1K C F 427;53.149
2J1K C Q 426;2J1K C G 428;2.42218
2J1K C Q 426;2J1K C K 461;14.5971
2J1K C Q 426;2J1K C T 509;26.4368
2J1K C Q 426;2J1K C Y 510;11.452
2J1K C F 427;2J1K C G 428;16.1705
2J1K C F 427;2J1K C Q 429;22.8858
2J1K C F 427;2J1K C S 457;4.61656
2J1K C F 427;2J1K C H 458;4.86438
2J1K C F 427;2J1K C W 460;6.28184
2J1K C F 427;2J1K C K 461;18.0376
2J1K C G 428;2J1K C Q 429;18.207
2J1K C G 428;2J1K C L 430;1.5596
2J1K C G 428;2J1K C W 442;0.953556
2J1K C G 428;2J1K C W 460;15.5849
2J1K C G 428;2J1K C K 461;4.82414
2J1K C G 428;2J1K C M 464;16.8709
2J1K C G 428;2J1K C Y 510;1.62018
2J1K C Q 429;2J1K C L 430;27.5543
2J1K C Q 429;2J1K C M 431;5.4404
2J1K C Q 429;2J1K C P 456;26.284
2J1K C Q 429;2J1K C S 457;0.374993
2J1K C Q 429;2J1K C W 460;16.1394
2J1K C L 430;2J1K C M 431;24.8167
2J1K C L 430;2J1K C I 436;13.698
2J1K C L 430;2J1K C N 437;15.2765
2J1K C L 430;2J1K C S 438;23.9988
2J1K C L 430;2J1K C T 440;0.283252
2J1K C L 430;2J1K C W 442;34.0164
2J1K C L 430;2J1K C W 460;2.32904
2J1K C M 431;2J1K C S 432;20.3062
2J1K C M 431;2J1K C T 433;21.5349
2J1K C M 431;2J1K C G 434;2.02824
2J1K C M 431;2J1K C I 436;0.68758
2J1K C M 431;2J1K C N 437;6.95222
2J1K C M 431;2J1K C S 438;8.57687
2J1K C M 431;2J1K C V 507;20.6721
2J1K C M 431;2J1K C A 508;13.4906
2J1K C S 432;2J1K C T 433;34.3492
2J1K C S 432;2J1K C G 434;2.1899
2J1K C S 432;2J1K C N 437;17.6231
2J1K C S 432;2J1K C S 438;16.6016
2J1K C S 432;2J1K C T 439;10.6854
2J1K C T 433;2J1K C G 434;27.4881
2J1K C T 433;2J1K C N 437;0.259519
2J1K C T 433;2J1K C K 505;5.54578
2J1K C T 433;2J1K C V 507;4.58371
2J1K C G 434;2J1K C N 435;22.9557
2J1K C G 434;2J1K C I 436;7.41847
2J1K C G 434;2J1K C N 437;17.6687
2J1K C G 434;2J1K C K 505;2.89146
2J1K C N 435;2J1K C I 436;20.0012
2J1K C N 435;2J1K C N 437;2.51904
2J1K C N 435;2J1K C K 505;4.0787
2J1K C I 436;2J1K C N 437;25.3398
2J1K C I 436;2J1K C T 440;3.89193
2J1K C I 436;2J1K C W 442;2.51453
2J1K C I 436;2J1K C F 514;7.30861
2J1K C N 437;2J1K C S 438;15.4673
2J1K C N 437;2J1K C T 439;23.074
2J1K C N 437;2J1K C T 440;18.9406
2J1K C N 437;2J1K C W 442;0.209987
2J1K C S 438;2J1K C T 439;20.2993
2J1K C S 438;2J1K C T 440;8.35459
2J1K C S 438;2J1K C W 442;1.30924
2J1K C T 439;2J1K C T 440;24.118
2J1K C T 440;2J1K C T 441;27.8096
2J1K C T 440;2J1K C W 442;12.2995
2J1K C T 441;2J1K C W 442;23.2724
2J1K C T 441;2J1K C V 452;16.5442
2J1K C W 442;2J1K C G 443;23.7148
2J1K C W 442;2J1K C V 452;10.3534
2J1K C W 442;2J1K C P 454;10.936
2J1K C W 442;2J1K C W 460;10.4228
2J1K C G 443;2J1K C E 444;16.3337
2J1K C G 443;2J1K C K 445;0.850988
2J1K C G 443;2J1K C V 452;9.94347
2J1K C G 443;2J1K C Q 453;5.70696
2J1K C G 443;2J1K C P 454;2.7845
2J1K C G 443;2J1K C W 460;7.95415
2J1K C E 444;2J1K C K 445;25.5479
2J1K C E 444;2J1K C P 446;11.0465
2J1K C E 444;2J1K C T 451;1.86425
2J1K C E 444;2J1K C V 452;3.10413
2J1K C E 444;2J1K C Q 453;28.1633
2J1K C E 444;2J1K C R 455;2.46513
2J1K C E 444;2J1K C S 457;7.57864
2J1K C E 444;2J1K C T 459;5.56651
2J1K C E 444;2J1K C W 460;17.4982
2J1K C K 445;2J1K C P 446;33.2281
2J1K C K 445;2J1K C W 447;8.71046
2J1K C K 445;2J1K C G 448;2.4434
2J1K C K 445;2J1K C N 449;11.6567
2J1K C K 445;2J1K C N 450;6.20315
2J1K C K 445;2J1K C T 451;4.24058
2J1K C P 446;2J1K C W 447;30.1046
2J1K C P 446;2J1K C G 448;1.28766
2J1K C P 446;2J1K C N 449;29.6858
2J1K C P 446;2J1K C T 451;13.6409
2J1K C P 446;2J1K C Q 453;17.5892
2J1K C W 447;2J1K C G 448;36.0457
2J1K C W 447;2J1K C N 449;4.35244
2J1K C G 448;2J1K C N 449;26.5331
2J1K C N 449;2J1K C N 450;22.3465
2J1K C N 449;2J1K C T 451;25.1881
2J1K C N 449;2J1K C Q 453;0.409722
2J1K C N 450;2J1K C T 451;27.1271
2J1K C N 450;2J1K C V 452;3.28197
2J1K C T 451;2J1K C V 452;23.6185
2J1K C T 451;2J1K C Q 453;16.1765
2J1K C V 452;2J1K C Q 453;18.5427
2J1K C V 452;2J1K C P 454;4.94573
2J1K C Q 453;2J1K C P 454;24.13
2J1K C Q 453;2J1K C R 455;12.1449
2J1K C Q 453;2J1K C W 460;5.18935
2J1K C P 454;2J1K C R 455;26.2586
2J1K C P 454;2J1K C P 456;10.0419
2J1K C P 454;2J1K C W 460;12.46
2J1K C R 455;2J1K C P 456;40.8271
2J1K C R 455;2J1K C S 457;3.94555
2J1K C R 455;2J1K C W 460;9.67023
2J1K C P 456;2J1K C S 457;31.3902
2J1K C P 456;2J1K C W 460;18.4266
2J1K C S 457;2J1K C H 458;34.354
2J1K C S 457;2J1K C T 459;20.1721
2J1K C S 457;2J1K C W 460;25.5377
2J1K C S 457;2J1K C K 461;0.0740415
2J1K C H 458;2J1K C T 459;32.4655
2J1K C H 458;2J1K C W 460;2.63277
2J1K C H 458;2J1K C K 461;10.7837
2J1K C H 458;2J1K C L 462;0.272735
2J1K C H 458;2J1K C Q 542;31.0732
2J1K C T 459;2J1K C W 460;18.8448
2J1K C T 459;2J1K C K 461;1.8816
2J1K C T 459;2J1K C L 462;24.6218
2J1K C T 459;2J1K C C 463;0.913679
2J1K C T 459;2J1K C Q 542;7.14674
2J1K C W 460;2J1K C K 461;16.1065
2J1K C W 460;2J1K C L 462;1.99882
2J1K C W 460;2J1K C C 463;8.90005
2J1K C W 460;2J1K C M 464;6.07592
2J1K C K 461;2J1K C L 462;19.9147
2J1K C K 461;2J1K C C 463;1.70071
2J1K C K 461;2J1K C M 464;15.9315
2J1K C K 461;2J1K C R 467;11.6594
2J1K C K 461;2J1K C Y 510;8.95056
2J1K C K 461;2J1K C E 540;19.8956
2J1K C K 461;2J1K C N 541;11.8826
2J1K C K 461;2J1K C Q 542;30.556
2J1K C L 462;2J1K C C 463;15.0
2J1K C L 462;2J1K C M 464;3.10087
2J1K C L 462;2J1K C G 539;2.54395
2J1K C L 462;2J1K C E 540;13.2438
2J1K C L 462;2J1K C N 541;4.12968
2J1K C L 462;2J1K C Q 542;24.8793
2J1K C C 463;2J1K C M 464;26.0131
2J1K C C 463;2J1K C P 465;0.437428
2J1K C C 463;2J1K C Y 537;9.82379
2J1K C M 464;2J1K C P 465;24.9737
2J1K C M 464;2J1K C N 466;1.57514
2J1K C M 464;2J1K C Y 510;24.6953
2J1K C M 464;2J1K C L 512;0.917608
2J1K C M 464;2J1K C Y 537;3.81524
2J1K C M 464;2J1K C V 538;0.317421
2J1K C M 464;2J1K C G 539;4.31496
2J1K C M 464;2J1K C E 540;14.1432
2J1K C P 465;2J1K C N 466;16.5074
2J1K C P 465;2J1K C R 467;4.10313
2J1K C P 465;2J1K C Y 470;9.50402
2J1K C P 465;2J1K C I 501;11.7563
2J1K C P 465;2J1K C N 502;14.7966
2J1K C P 465;2J1K C Y 510;21.7573
2J1K C P 465;2J1K C T 511;3.53524
2J1K C P 465;2J1K C L 512;13.0757
2J1K C P 465;2J1K C Y 537;19.7027
2J1K C P 465;2J1K C V 538;2.78306
2J1K C P 465;2J1K C E 540;1.31614
2J1K C N 466;2J1K C R 467;16.2072
2J1K C N 466;2J1K C E 468;8.85454
2J1K C N 466;2J1K C V 469;20.1723
2J1K C N 466;2J1K C Y 470;15.5883
2J1K C N 466;2J1K C N 502;0.294095
2J1K C N 466;2J1K C V 538;16.9392
2J1K C N 466;2J1K C G 539;9.83195
2J1K C N 466;2J1K C E 540;20.3792
2J1K C N 466;2J1K C N 541;7.46991
2J1K C R 467;2J1K C E 468;26.05
2J1K C R 467;2J1K C V 469;0.081426
2J1K C R 467;2J1K C Y 470;8.25978
2J1K C R 467;2J1K C S 471;14.1085
2J1K C R 467;2J1K C N 502;7.87496
2J1K C R 467;2J1K C T 509;15.7311
2J1K C R 467;2J1K C Y 510;18.1261
2J1K C R 467;2J1K C E 540;25.5202
2J1K C R 467;2J1K C N 541;0.26103
2J1K C E 468;2J1K C V 469;21.183
2J1K C E 468;2J1K C Y 470;1.35292
2J1K C E 468;2J1K C S 471;17.6504
2J1K C E 468;2J1K C E 540;0.17719
2J1K C V 469;2J1K C Y 470;41.098
2J1K C V 469;2J1K C S 471;5.05665
2J1K C V 469;2J1K C T 472;0.82125
2J1K C V 469;2J1K C V 538;12.7091
2J1K C Y 470;2J1K C S 471;20.9123
2J1K C Y 470;2J1K C T 472;15.4963
2J1K C Y 470;2J1K C A 474;15.3742
2J1K C Y 470;2J1K C I 501;20.2838
2J1K C Y 470;2J1K C N 502;23.0237
2J1K C Y 470;2J1K C Y 537;14.1506
2J1K C Y 470;2J1K C V 538;17.504
2J1K C S 471;2J1K C T 472;40.2693
2J1K C S 471;2J1K C P 473;2.08372e-05
2J1K C T 472;2J1K C P 473;44.1728
2J1K C T 472;2J1K C A 474;5.72808
2J1K C T 472;2J1K C I 501;0.19382
2J1K C T 472;2J1K C N 502;1.64584
2J1K C P 473;2J1K C A 474;22.2108
2J1K C P 473;2J1K C I 500;4.15096
2J1K C P 473;2J1K C I 501;6.62926
2J1K C P 473;2J1K C N 502;11.068
2J1K C P 473;2J1K C K 503;13.8207
2J1K C P 473;2J1K C P 504;13.9589
2J1K C A 474;2J1K C A 475;24.3435
2J1K C A 474;2J1K C L 499;0.0220698
2J1K C A 474;2J1K C I 500;6.41277
2J1K C A 474;2J1K C I 501;25.8706
2J1K C A 475;2J1K C T 476;19.2405
2J1K C A 475;2J1K C I 477;0.426121
2J1K C A 475;2J1K C M 498;10.1551
2J1K C A 475;2J1K C L 499;6.93822
2J1K C A 475;2J1K C I 500;5.75929
2J1K C A 475;2J1K C I 501;3.96116
2J1K C T 476;2J1K C I 477;22.4513
2J1K C T 476;2J1K C S 478;12.5546
2J1K C T 476;2J1K C C 497;1.10982
2J1K C T 476;2J1K C M 498;7.78432
2J1K C T 476;2J1K C L 499;18.4283
2J1K C T 476;2J1K C I 501;4.51979
2J1K C T 476;2J1K C T 534;0.152846
2J1K C T 476;2J1K C F 535;22.9907
2J1K C T 476;2J1K C T 536;3.02656
2J1K C I 477;2J1K C S 478;26.0633
2J1K C I 477;2J1K C D 496;13.2671
2J1K C I 477;2J1K C C 497;4.33966
2J1K C I 477;2J1K C M 498;18.8653
2J1K C I 477;2J1K C L 517;9.24552
2J1K C I 477;2J1K C N 518;2.1825
2J1K C S 478;2J1K C R 479;34.0419
2J1K C S 478;2J1K C C 480;1.10918
2J1K C S 478;2J1K C D 496;7.40802
2J1K C S 478;2J1K C C 497;18.8442
2J1K C S 478;2J1K C L 533;2.25953
2J1K C S 478;2J1K C T 534;4.87271
2J1K C S 478;2J1K C F 535;14.6559
2J1K C R 479;2J1K C C 480;21.2843
2J1K C R 479;2J1K C G 481;5.70612
2J1K C R 479;2J1K C G 489;4.39118
2J1K C R 479;2J1K C A 490;1.95497
2J1K C R 479;2J1K C P 491;7.96062
2J1K C R 479;2J1K C S 494;24.8493
2J1K C R 479;2J1K C I 495;4.5913
2J1K C R 479;2J1K C D 496;7.09178
2J1K C R 479;2J1K C C 497;0.656388
2J1K C R 479;2J1K C R 521;1.05129
2J1K C R 479;2J1K C D 531;0.0101722
2J1K C R 479;2J1K C L 533;10.8068
2J1K C C 480;2J1K C G 481;22.8767
2J1K C C 480;2J1K C L 482;8.94006
2J1K C C 480;2J1K C S 494;4.64801
2J1K C C 480;2J1K C I 495;26.9436
2J1K C C 480;2J1K C D 496;4.90356
2J1K C C 480;2J1K C C 497;11.0724
2J1K C C 480;2J1K C F 516;6.73823
2J1K C C 480;2J1K C F 528;0.13484
2J1K C C 480;2J1K C T 530;12.8794
2J1K C C 480;2J1K C D 531;1.24559
2J1K C C 480;2J1K C L 533;17.4212
2J1K C G 481;2J1K C L 482;20.1685
2J1K C G 481;2J1K C D 483;0.0947446
2J1K C G 481;2J1K C S 484;7.92254
2J1K C G 481;2J1K C R 493;1.54754
2J1K C G 481;2J1K C S 494;10.6779
2J1K C G 481;2J1K C K 529;0.76151
2J1K C G 481;2J1K C T 530;4.25503
2J1K C G 481;2J1K C D 531;22.9706
2J1K C L 482;2J1K C D 483;17.9614
2J1K C L 482;2J1K C S 484;9.47095
2J1K C L 482;2J1K C V 487;5.98301
2J1K C L 482;2J1K C R 493;19.8452
2J1K C L 482;2J1K C S 494;1.11063
2J1K C L 482;2J1K C I 495;18.1215
2J1K C L 482;2J1K C F 519;1.37472
2J1K C L 482;2J1K C L 522;9.19766
2J1K C L 482;2J1K C T 526;16.7817
2J1K C L 482;2J1K C L 527;6.36104
2J1K C L 482;2J1K C F 528;15.9138
2J1K C L 482;2J1K C K 529;7.95287
2J1K C L 482;2J1K C T 530;10.5093
2J1K C D 483;2J1K C S 484;18.7562
2J1K C D 483;2J1K C I 485;3.25753
2J1K C D 483;2J1K C A 486;26.3026
2J1K C D 483;2J1K C V 487;23.4477
2J1K C D 483;2J1K C T 526;6.81341
2J1K C D 483;2J1K C L 527;30.6421
2J1K C D 483;2J1K C K 529;29.7507
2J1K C D 483;2J1K C D 531;0.145986
2J1K C S 484;2J1K C I 485;21.1384
2J1K C S 484;2J1K C A 486;0.290192
2J1K C S 484;2J1K C V 487;8.01247
2J1K C S 484;2J1K C D 488;5.91521
2J1K C S 484;2J1K C G 489;13.2822
2J1K C S 484;2J1K C K 529;1.07711
2J1K C S 484;2J1K C D 531;13.5902
2J1K C I 485;2J1K C A 486;30.6358
2J1K C I 485;2J1K C V 487;0.769943
2J1K C I 485;2J1K C D 488;14.0747
2J1K C I 485;2J1K C K 529;2.92792
2J1K C A 486;2J1K C V 487;24.5604
2J1K C A 486;2J1K C D 488;5.92949
2J1K C V 487;2J1K C D 488;23.5498
2J1K C V 487;2J1K C G 489;6.89966
2J1K C V 487;2J1K C A 490;20.5894
2J1K C V 487;2J1K C R 493;32.0948
2J1K C V 487;2J1K C T 526;3.96838
2J1K C D 488;2J1K C G 489;16.3146
2J1K C D 488;2J1K C A 490;5.06686
2J1K C G 489;2J1K C A 490;22.1558
2J1K C G 489;2J1K C P 491;4.02417
2J1K C G 489;2J1K C R 493;0.274884
2J1K C A 490;2J1K C P 491;26.4855
2J1K C A 490;2J1K C S 492;11.1726
2J1K C A 490;2J1K C R 493;25.035
2J1K C A 490;2J1K C S 494;3.30629
2J1K C P 491;2J1K C S 492;27.4605
2J1K C P 491;2J1K C R 493;2.7446
2J1K C P 491;2J1K C S 494;13.8386
2J1K C P 491;2J1K C R 521;1.4058
2J1K C S 492;2J1K C R 493;23.9377
2J1K C S 492;2J1K C S 494;2.99009
2J1K C S 492;2J1K C R 521;14.0602
2J1K C S 492;2J1K C L 522;9.30204
2J1K C S 492;2J1K C S 523;30.39
2J1K C S 492;2J1K C T 526;0.0893879
2J1K C R 493;2J1K C S 494;20.9929
2J1K C R 493;2J1K C L 522;10.4512
2J1K C R 493;2J1K C S 523;14.9695
2J1K C R 493;2J1K C G 524;9.09594
2J1K C R 493;2J1K C G 525;11.6574
2J1K C R 493;2J1K C T 526;25.1783
2J1K C S 494;2J1K C I 495;24.568
2J1K C S 494;2J1K C N 518;0.0139829
2J1K C S 494;2J1K C R 521;20.5314
2J1K C S 494;2J1K C L 522;8.2509
2J1K C I 495;2J1K C D 496;27.3742
2J1K C I 495;2J1K C F 516;10.2746
2J1K C I 495;2J1K C L 517;7.87468
2J1K C I 495;2J1K C N 518;8.03989
2J1K C I 495;2J1K C F 519;24.0413
2J1K C I 495;2J1K C R 521;8.29973
2J1K C I 495;2J1K C L 522;11.8435
2J1K C I 495;2J1K C F 528;7.68953
2J1K C D 496;2J1K C C 497;18.9064
2J1K C D 496;2J1K C M 498;0.034738
2J1K C D 496;2J1K C R 515;0.70696
2J1K C D 496;2J1K C F 516;5.72485
2J1K C D 496;2J1K C L 517;22.5892
2J1K C D 496;2J1K C N 518;15.6374
2J1K C D 496;2J1K C R 521;16.8486
2J1K C C 497;2J1K C M 498;22.3262
2J1K C C 497;2J1K C L 499;0.444793
2J1K C C 497;2J1K C F 514;13.336
2J1K C C 497;2J1K C R 515;8.98714
2J1K C C 497;2J1K C F 516;16.8741
2J1K C C 497;2J1K C L 517;0.140669
2J1K C C 497;2J1K C L 533;15.2118
2J1K C C 497;2J1K C F 535;15.0782
2J1K C M 498;2J1K C L 499;21.5058
2J1K C M 498;2J1K C I 500;19.7365
2J1K C M 498;2J1K C T 513;3.2821
2J1K C M 498;2J1K C F 514;2.92253
2J1K C M 498;2J1K C R 515;29.1548
2J1K C M 498;2J1K C L 517;16.0027
2J1K C M 498;2J1K C F 535;0.0718433
2J1K C L 499;2J1K C I 500;21.8169
2J1K C L 499;2J1K C I 501;18.1784
2J1K C L 499;2J1K C L 512;16.5961
2J1K C L 499;2J1K C T 513;11.9025
2J1K C L 499;2J1K C F 514;17.1764
2J1K C L 499;2J1K C F 535;32.4562
2J1K C L 499;2J1K C T 536;1.20436
2J1K C L 499;2J1K C Y 537;7.2388
2J1K C I 500;2J1K C I 501;21.238
2J1K C I 500;2J1K C N 502;1.2382
2J1K C I 500;2J1K C K 503;30.149
2J1K C I 500;2J1K C T 511;2.72182
2J1K C I 500;2J1K C L 512;5.65262
2J1K C I 500;2J1K C T 513;33.6811
2J1K C I 500;2J1K C R 515;14.6728
2J1K C I 501;2J1K C N 502;24.304
2J1K C I 501;2J1K C K 503;3.39017
2J1K C I 501;2J1K C T 511;2.55364
2J1K C I 501;2J1K C L 512;10.1769
2J1K C I 501;2J1K C T 536;3.95197
2J1K C I 501;2J1K C Y 537;16.9829
2J1K C N 502;2J1K C K 503;16.6815
2J1K C N 502;2J1K C P 504;9.94002
2J1K C N 502;2J1K C T 509;6.53405
2J1K C N 502;2J1K C Y 510;12.6857
2J1K C N 502;2J1K C T 511;23.3045
2J1K C K 503;2J1K C P 504;37.5642
2J1K C K 503;2J1K C K 505;4.27747
2J1K C K 503;2J1K C T 511;18.8746
2J1K C K 503;2J1K C T 513;8.19715
2J1K C P 504;2J1K C K 505;34.247
2J1K C P 504;2J1K C G 506;0.93152
2J1K C P 504;2J1K C A 508;1.3913
2J1K C P 504;2J1K C T 511;1.70822
2J1K C K 505;2J1K C G 506;34.0518
2J1K C K 505;2J1K C V 507;1.99455
2J1K C K 505;2J1K C A 508;16.647
2J1K C K 505;2J1K C T 511;11.2382
2J1K C G 506;2J1K C V 507;30.707
2J1K C G 506;2J1K C A 508;5.364
2J1K C V 507;2J1K C A 508;25.7448
2J1K C V 507;2J1K C T 509;7.58728
2J1K C A 508;2J1K C T 509;26.2012
2J1K C A 508;2J1K C Y 510;6.25356
2J1K C A 508;2J1K C T 511;9.88405
2J1K C T 509;2J1K C Y 510;40.1111
2J1K C T 509;2J1K C T 511;0.269659
2J1K C Y 510;2J1K C T 511;24.5047
2J1K C Y 510;2J1K C L 512;0.1999
2J1K C Y 510;2J1K C E 540;15.2564
2J1K C T 511;2J1K C L 512;25.1417
2J1K C T 511;2J1K C T 513;5.95973
2J1K C L 512;2J1K C T 513;19.2038
2J1K C L 512;2J1K C F 514;9.68964
2J1K C L 512;2J1K C Y 537;18.5872
2J1K C T 513;2J1K C F 514;20.9515
2J1K C T 513;2J1K C R 515;6.26473
2J1K C F 514;2J1K C R 515;16.0311
2J1K C F 514;2J1K C F 516;15.1952
2J1K C F 514;2J1K C L 533;0.783913
2J1K C F 514;2J1K C F 535;11.379
2J1K C R 515;2J1K C F 516;19.6432
2J1K C R 515;2J1K C L 517;21.9026
2J1K C F 516;2J1K C L 517;18.2275
2J1K C F 516;2J1K C F 519;13.3258
2J1K C F 516;2J1K C F 528;13.7654
2J1K C F 516;2J1K C T 530;5.84172
2J1K C F 516;2J1K C L 533;2.28889
2J1K C L 517;2J1K C N 518;26.5228
2J1K C L 517;2J1K C F 519;8.51275
2J1K C N 518;2J1K C F 519;19.205
2J1K C N 518;2J1K C N 520;16.885
2J1K C N 518;2J1K C R 521;23.2455
2J1K C N 518;2J1K C L 522;0.103362
2J1K C F 519;2J1K C N 520;17.4272
2J1K C F 519;2J1K C R 521;2.58159
2J1K C F 519;2J1K C L 522;20.3236
2J1K C F 519;2J1K C F 528;8.9313
2J1K C N 520;2J1K C R 521;28.0498
2J1K C N 520;2J1K C L 522;8.32245
2J1K C R 521;2J1K C L 522;22.6453
2J1K C R 521;2J1K C S 523;2.29052
2J1K C L 522;2J1K C S 523;21.4972
2J1K C L 522;2J1K C G 524;9.98893
2J1K C L 522;2J1K C T 526;14.6154
2J1K C S 523;2J1K C G 524;28.674
2J1K C S 523;2J1K C T 526;0.0345857
2J1K C G 524;2J1K C G 525;24.3106
2J1K C G 524;2J1K C T 526;8.30668
2J1K C G 525;2J1K C T 526;18.0049
2J1K C T 526;2J1K C L 527;28.1366
2J1K C T 526;2J1K C F 528;2.15974
2J1K C L 527;2J1K C F 528;16.6946
2J1K C L 527;2J1K C K 529;29.8495
2J1K C F 528;2J1K C K 529;16.1642
2J1K C F 528;2J1K C T 530;13.1057
2J1K C K 529;2J1K C T 530;27.8971
2J1K C K 529;2J1K C D 531;0.998226
2J1K C T 530;2J1K C D 531;30.9328
2J1K C T 530;2J1K C V 532;0.857698
2J1K C T 530;2J1K C L 533;5.32358
2J1K C D 531;2J1K C V 532;20.4157
2J1K C D 531;2J1K C L 533;17.8829
2J1K C V 532;2J1K C L 533;25.2822
2J1K C V 532;2J1K C T 534;7.14225
2J1K C L 533;2J1K C T 534;26.2423
2J1K C L 533;2J1K C F 535;18.9763
2J1K C T 534;2J1K C F 535;37.075
2J1K C T 534;2J1K C T 536;5.69317
2J1K C F 535;2J1K C T 536;31.0462
2J1K C F 535;2J1K C Y 537;0.1271
2J1K C T 536;2J1K C Y 537;26.3072
2J1K C Y 537;2J1K C V 538;21.4929
2J1K C Y 537;2J1K C G 539;2.4223
2J1K C V 538;2J1K C G 539;23.1505
2J1K C G 539;2J1K C E 540;17.9866
2J1K C G 539;2J1K C N 541;3.04349
2J1K C E 540;2J1K C N 541;38.8357
2J1K C N 541;2J1K C Q 542;27.9153
