V1;V2;Weight
2NZ9 C E 1;2NZ9 C I 2;28.1407
2NZ9 C E 1;2NZ9 C V 3;21.1621
2NZ9 C E 1;2NZ9 C S 26;3.15781
2NZ9 C E 1;2NZ9 C E 27;10.1768
2NZ9 C E 1;2NZ9 C P 99;32.4303
2NZ9 C E 1;2NZ9 C T 101;16.0986
2NZ9 C E 1;2NZ9 D D 62;4.62756
2NZ9 C I 2;2NZ9 C V 3;21.2008
2NZ9 C I 2;2NZ9 C L 4;12.2624
2NZ9 C I 2;2NZ9 C A 25;5.94101
2NZ9 C I 2;2NZ9 C S 26;6.98497
2NZ9 C I 2;2NZ9 C E 27;25.9192
2NZ9 C I 2;2NZ9 C S 28;9.0025
2NZ9 C I 2;2NZ9 C V 29;7.76521
2NZ9 C I 2;2NZ9 C Q 94;21.7474
2NZ9 C I 2;2NZ9 C N 96;6.89337
2NZ9 C I 2;2NZ9 C E 97;23.2754
2NZ9 C I 2;2NZ9 C P 99;5.32933
2NZ9 C I 2;2NZ9 C T 101;16.2206
2NZ9 C V 3;2NZ9 C L 4;27.6663
2NZ9 C V 3;2NZ9 C T 5;19.2672
2NZ9 C V 3;2NZ9 C R 24;2.73813
2NZ9 C V 3;2NZ9 C A 25;3.99609
2NZ9 C V 3;2NZ9 C S 26;27.7076
2NZ9 C V 3;2NZ9 C T 101;1.42599
2NZ9 C L 4;2NZ9 C T 5;19.1984
2NZ9 C L 4;2NZ9 C Q 6;3.12855
2NZ9 C L 4;2NZ9 C C 23;10.6337
2NZ9 C L 4;2NZ9 C R 24;6.12723
2NZ9 C L 4;2NZ9 C A 25;9.54115
2NZ9 C L 4;2NZ9 C V 29;2.04998
2NZ9 C L 4;2NZ9 C M 37;10.8739
2NZ9 C L 4;2NZ9 C C 92;11.4963
2NZ9 C L 4;2NZ9 C Q 93;3.48931
2NZ9 C L 4;2NZ9 C Q 94;15.5733
2NZ9 C L 4;2NZ9 C T 101;12.921
2NZ9 C L 4;2NZ9 C F 102;10.449
2NZ9 C L 4;2NZ9 C G 103;16.2937
2NZ9 C L 4;2NZ9 C Q 104;6.82384
2NZ9 C T 5;2NZ9 C Q 6;27.1749
2NZ9 C T 5;2NZ9 C S 7;5.75034
2NZ9 C T 5;2NZ9 C S 22;1.70956
2NZ9 C T 5;2NZ9 C C 23;5.36684
2NZ9 C T 5;2NZ9 C R 24;34.8552
2NZ9 C T 5;2NZ9 C Q 104;7.94174
2NZ9 C Q 6;2NZ9 C S 7;25.086
2NZ9 C Q 6;2NZ9 C P 8;4.07065
2NZ9 C Q 6;2NZ9 C A 9;3.26679
2NZ9 C Q 6;2NZ9 C I 21;8.32838
2NZ9 C Q 6;2NZ9 C S 22;7.20317
2NZ9 C Q 6;2NZ9 C C 23;6.83137
2NZ9 C Q 6;2NZ9 C W 39;10.6039
2NZ9 C Q 6;2NZ9 C Y 90;6.98639
2NZ9 C Q 6;2NZ9 C Y 91;5.73329
2NZ9 C Q 6;2NZ9 C C 92;13.9919
2NZ9 C Q 6;2NZ9 C G 103;8.92224
2NZ9 C Q 6;2NZ9 C Q 104;25.4642
2NZ9 C Q 6;2NZ9 C G 105;17.4353
2NZ9 C Q 6;2NZ9 C T 106;11.6564
2NZ9 C S 7;2NZ9 C P 8;36.8633
2NZ9 C S 7;2NZ9 C A 9;2.05066
2NZ9 C S 7;2NZ9 C I 21;4.44065
2NZ9 C S 7;2NZ9 C S 22;32.9499
2NZ9 C S 7;2NZ9 C T 106;2.16313
2NZ9 C P 8;2NZ9 C A 9;30.2315
2NZ9 C P 8;2NZ9 C T 10;13.3873
2NZ9 C P 8;2NZ9 C L 11;20.355
2NZ9 C P 8;2NZ9 C T 20;7.05944
2NZ9 C P 8;2NZ9 C I 21;5.60628
2NZ9 C P 8;2NZ9 C S 22;1.10585
2NZ9 C P 8;2NZ9 C G 105;1.42275
2NZ9 C P 8;2NZ9 C T 106;16.4623
2NZ9 C A 9;2NZ9 C T 10;35.5417
2NZ9 C A 9;2NZ9 C Q 104;5.01523
2NZ9 C A 9;2NZ9 C G 105;6.51019
2NZ9 C A 9;2NZ9 C T 106;8.23728
2NZ9 C A 9;2NZ9 C K 107;5.66566
2NZ9 C T 10;2NZ9 C L 11;27.0152
2NZ9 C T 10;2NZ9 C S 12;1.50132
2NZ9 C T 10;2NZ9 C T 106;1.89039
2NZ9 C T 10;2NZ9 C K 107;27.1491
2NZ9 C T 10;2NZ9 C E 109;2.88032
2NZ9 C L 11;2NZ9 C S 12;29.3844
2NZ9 C L 11;2NZ9 C L 13;26.3247
2NZ9 C L 11;2NZ9 C A 19;10.3166
2NZ9 C L 11;2NZ9 C T 20;12.2088
2NZ9 C L 11;2NZ9 C I 21;8.13279
2NZ9 C L 11;2NZ9 C L 82;0.94455
2NZ9 C L 11;2NZ9 C T 106;10.7313
2NZ9 C L 11;2NZ9 C K 107;11.189
2NZ9 C L 11;2NZ9 C V 108;18.9891
2NZ9 C L 11;2NZ9 C E 109;7.48386
2NZ9 C S 12;2NZ9 C L 13;26.7308
2NZ9 C S 12;2NZ9 C E 109;28.7524
2NZ9 C S 12;2NZ9 C I 110;1.20408
2NZ9 C S 12;2NZ9 C K 111;23.5273
2NZ9 C S 12;2NZ9 C Y 144;2.35807
2NZ9 C L 13;2NZ9 C S 14;20.3126
2NZ9 C L 13;2NZ9 C P 15;1.80148
2NZ9 C L 13;2NZ9 C E 17;26.0781
2NZ9 C L 13;2NZ9 C R 18;14.2324
2NZ9 C L 13;2NZ9 C A 19;5.3684
2NZ9 C L 13;2NZ9 C T 20;0.0278174
2NZ9 C L 13;2NZ9 C L 82;20.7462
2NZ9 C L 13;2NZ9 C E 83;0.367038
2NZ9 C L 13;2NZ9 C V 108;2.00796
2NZ9 C L 13;2NZ9 C E 109;10.2674
2NZ9 C L 13;2NZ9 C I 110;11.3566
2NZ9 C L 13;2NZ9 C K 111;19.4856
2NZ9 C S 14;2NZ9 C P 15;33.3771
2NZ9 C S 14;2NZ9 C E 17;28.8721
2NZ9 C S 14;2NZ9 C L 82;3.53839
2NZ9 C S 14;2NZ9 C I 110;0.302858
2NZ9 C S 14;2NZ9 C K 111;31.5799
2NZ9 C S 14;2NZ9 C R 112;0.915117
2NZ9 C P 15;2NZ9 C G 16;25.9009
2NZ9 C P 15;2NZ9 C E 17;10.3484
2NZ9 C P 15;2NZ9 C L 82;7.83413
2NZ9 C P 15;2NZ9 C E 83;8.84231
2NZ9 C P 15;2NZ9 C P 84;22.8429
2NZ9 C P 15;2NZ9 C I 110;11.9823
2NZ9 C P 15;2NZ9 C K 111;7.27199
2NZ9 C G 16;2NZ9 C E 17;22.9935
2NZ9 C G 16;2NZ9 C S 80;1.18352
2NZ9 C G 16;2NZ9 C S 81;19.8371
2NZ9 C G 16;2NZ9 C L 82;13.1171
2NZ9 C G 16;2NZ9 C E 83;0.578355
2NZ9 C E 17;2NZ9 C R 18;29.3959
2NZ9 C E 17;2NZ9 C A 19;0.365575
2NZ9 C E 17;2NZ9 C I 79;4.07731
2NZ9 C E 17;2NZ9 C S 80;4.89398
2NZ9 C E 17;2NZ9 C S 81;4.6595
2NZ9 C E 17;2NZ9 C L 82;19.1093
2NZ9 C E 17;2NZ9 C K 111;0.103771
2NZ9 C R 18;2NZ9 C A 19;22.3433
2NZ9 C R 18;2NZ9 C T 20;16.8973
2NZ9 C R 18;2NZ9 C T 78;19.6455
2NZ9 C R 18;2NZ9 C I 79;6.44907
2NZ9 C R 18;2NZ9 C S 80;28.4803
2NZ9 C R 18;2NZ9 C L 82;0.941555
2NZ9 C A 19;2NZ9 C T 20;19.9274
2NZ9 C A 19;2NZ9 C I 21;8.35237
2NZ9 C A 19;2NZ9 C L 77;4.42612
2NZ9 C A 19;2NZ9 C T 78;5.78956
2NZ9 C A 19;2NZ9 C I 79;29.7656
2NZ9 C A 19;2NZ9 C L 82;14.5513
2NZ9 C A 19;2NZ9 C V 108;3.66734
2NZ9 C T 20;2NZ9 C I 21;23.5212
2NZ9 C T 20;2NZ9 C S 22;8.38722
2NZ9 C T 20;2NZ9 C T 76;14.359
2NZ9 C T 20;2NZ9 C L 77;1.99046
2NZ9 C T 20;2NZ9 C T 78;18.4348
2NZ9 C I 21;2NZ9 C S 22;22.1186
2NZ9 C I 21;2NZ9 C C 23;1.05057
2NZ9 C I 21;2NZ9 C W 39;15.6096
2NZ9 C I 21;2NZ9 C F 75;0.00678335
2NZ9 C I 21;2NZ9 C T 76;7.87188
2NZ9 C I 21;2NZ9 C L 77;29.5504
2NZ9 C I 21;2NZ9 C I 79;6.51549
2NZ9 C I 21;2NZ9 C Y 90;16.7724
2NZ9 C I 21;2NZ9 C T 106;23.2471
2NZ9 C I 21;2NZ9 C V 108;8.4798
2NZ9 C S 22;2NZ9 C C 23;23.9519
2NZ9 C S 22;2NZ9 C R 24;3.97946
2NZ9 C S 22;2NZ9 C W 39;1.07796
2NZ9 C S 22;2NZ9 C D 74;4.72405
2NZ9 C S 22;2NZ9 C F 75;5.54786
2NZ9 C S 22;2NZ9 C T 76;9.38162
2NZ9 C C 23;2NZ9 C R 24;29.2483
2NZ9 C C 23;2NZ9 C M 37;9.50529
2NZ9 C C 23;2NZ9 C W 39;13.4891
2NZ9 C C 23;2NZ9 C D 74;6.58573
2NZ9 C C 23;2NZ9 C F 75;25.6036
2NZ9 C C 23;2NZ9 C T 76;0.0433962
2NZ9 C C 23;2NZ9 C C 92;18.3669
2NZ9 C R 24;2NZ9 C A 25;26.53
2NZ9 C R 24;2NZ9 C S 26;1.46058
2NZ9 C R 24;2NZ9 C M 37;0.226465
2NZ9 C R 24;2NZ9 C T 73;15.4759
2NZ9 C R 24;2NZ9 C D 74;29.8125
2NZ9 C R 24;2NZ9 C F 75;2.37729
2NZ9 C A 25;2NZ9 C S 26;24.2978
2NZ9 C A 25;2NZ9 C E 27;10.1837
2NZ9 C A 25;2NZ9 C V 29;9.07974
2NZ9 C A 25;2NZ9 C M 37;2.75835
2NZ9 C A 25;2NZ9 C G 72;0.506541
2NZ9 C A 25;2NZ9 C T 73;27.2469
2NZ9 C A 25;2NZ9 C F 75;2.83672
2NZ9 C S 26;2NZ9 C E 27;37.1817
2NZ9 C S 26;2NZ9 C T 73;2.82069
2NZ9 C E 27;2NZ9 C S 28;30.7887
2NZ9 C E 27;2NZ9 C V 29;2.26746
2NZ9 C E 27;2NZ9 C G 72;0.600445
2NZ9 C E 27;2NZ9 C T 73;7.22757
2NZ9 C E 27;2NZ9 C E 97;8.89006
2NZ9 C S 28;2NZ9 C V 29;19.7896
2NZ9 C S 28;2NZ9 C D 30;19.4912
2NZ9 C S 28;2NZ9 C G 72;11.3206
2NZ9 C S 28;2NZ9 C T 73;11.0597
2NZ9 C S 28;2NZ9 C N 96;8.94401
2NZ9 C S 28;2NZ9 C E 97;0.125685
2NZ9 C V 29;2NZ9 C D 30;21.4549
2NZ9 C V 29;2NZ9 C S 31;0.0809807
2NZ9 C V 29;2NZ9 C H 34;0.705261
2NZ9 C V 29;2NZ9 C S 35;2.85931
2NZ9 C V 29;2NZ9 C F 36;19.099
2NZ9 C V 29;2NZ9 C M 37;14.7628
2NZ9 C V 29;2NZ9 C G 72;11.1681
2NZ9 C V 29;2NZ9 C T 73;0.0615407
2NZ9 C V 29;2NZ9 C F 75;11.4189
2NZ9 C V 29;2NZ9 C Q 94;14.1682
2NZ9 C V 29;2NZ9 C G 95;0.449257
2NZ9 C V 29;2NZ9 C N 96;19.8338
2NZ9 C D 30;2NZ9 C S 31;22.606
2NZ9 C D 30;2NZ9 C G 33;1.16985
2NZ9 C D 30;2NZ9 C H 34;8.57926
2NZ9 C D 30;2NZ9 C S 35;13.7015
2NZ9 C D 30;2NZ9 C F 36;0.0523704
2NZ9 C D 30;2NZ9 C S 71;5.40109
2NZ9 C D 30;2NZ9 C G 72;17.5566
2NZ9 C D 30;2NZ9 C F 75;1.47268
2NZ9 C D 30;2NZ9 C N 96;7.51393
2NZ9 C S 31;2NZ9 C Y 32;32.2537
2NZ9 C S 31;2NZ9 C G 33;3.25687
2NZ9 C S 31;2NZ9 C H 34;14.1754
2NZ9 C S 31;2NZ9 C F 36;15.6473
2NZ9 C S 31;2NZ9 C N 96;8.98477
2NZ9 C Y 32;2NZ9 C G 33;21.5823
2NZ9 C Y 32;2NZ9 C H 34;16.5306
2NZ9 C Y 32;2NZ9 C F 36;3.25445
2NZ9 C G 33;2NZ9 C H 34;30.0906
2NZ9 C H 34;2NZ9 C S 35;23.2344
2NZ9 C H 34;2NZ9 C F 36;24.6604
2NZ9 C H 34;2NZ9 C R 54;33.0633
2NZ9 C S 35;2NZ9 C F 36;17.4713
2NZ9 C S 35;2NZ9 C M 37;5.64259
2NZ9 C S 35;2NZ9 C R 54;16.9039
2NZ9 C S 35;2NZ9 C A 55;12.4249
2NZ9 C S 35;2NZ9 C G 70;2.42404
2NZ9 C S 35;2NZ9 C S 71;8.45853
2NZ9 C S 35;2NZ9 C G 72;0.683685
2NZ9 C S 35;2NZ9 C F 75;9.4517
2NZ9 C F 36;2NZ9 C M 37;15.4418
2NZ9 C F 36;2NZ9 C Q 38;14.3289
2NZ9 C F 36;2NZ9 C R 54;15.2741
2NZ9 C F 36;2NZ9 C Q 93;2.22808
2NZ9 C F 36;2NZ9 C Q 94;3.03614
2NZ9 C F 36;2NZ9 C G 95;13.8218
2NZ9 C F 36;2NZ9 C N 96;13.5991
2NZ9 C F 36;2NZ9 D Y 99;4.71862
2NZ9 C F 36;2NZ9 D D 102;16.7354
2NZ9 C F 36;2NZ9 D D 103;5.37185
2NZ9 C M 37;2NZ9 C Q 38;25.9963
2NZ9 C M 37;2NZ9 C W 39;9.32467
2NZ9 C M 37;2NZ9 C I 52;3.28333
2NZ9 C M 37;2NZ9 C Y 53;1.20343
2NZ9 C M 37;2NZ9 C R 54;5.02507
2NZ9 C M 37;2NZ9 C A 55;19.8147
2NZ9 C M 37;2NZ9 C F 75;31.6819
2NZ9 C M 37;2NZ9 C C 92;7.95326
2NZ9 C M 37;2NZ9 C Q 93;10.139
2NZ9 C M 37;2NZ9 C Q 94;7.92059
2NZ9 C Q 38;2NZ9 C W 39;23.5626
2NZ9 C Q 38;2NZ9 C Y 40;11.2802
2NZ9 C Q 38;2NZ9 C L 50;7.05255
2NZ9 C Q 38;2NZ9 C I 52;6.36619
2NZ9 C Q 38;2NZ9 C Y 53;8.58202
2NZ9 C Q 38;2NZ9 C R 54;8.42218
2NZ9 C Q 38;2NZ9 C C 92;5.80056
2NZ9 C Q 38;2NZ9 C Q 93;36.5257
2NZ9 C Q 38;2NZ9 C G 95;6.28734
2NZ9 C Q 38;2NZ9 D Y 99;4.17285
2NZ9 C Q 38;2NZ9 D D 103;10.6509
2NZ9 C Q 38;2NZ9 D A 104;12.8495
2NZ9 C Q 38;2NZ9 D M 105;0.256704
2NZ9 C W 39;2NZ9 C Y 40;24.6057
2NZ9 C W 39;2NZ9 C R 49;0.0577821
2NZ9 C W 39;2NZ9 C L 50;6.39871
2NZ9 C W 39;2NZ9 C L 51;15.4289
2NZ9 C W 39;2NZ9 C I 52;26.826
2NZ9 C W 39;2NZ9 C A 55;4.66183
2NZ9 C W 39;2NZ9 C G 68;4.89721
2NZ9 C W 39;2NZ9 C S 69;1.75594
2NZ9 C W 39;2NZ9 C F 75;8.90115
2NZ9 C W 39;2NZ9 C T 76;9.62242
2NZ9 C W 39;2NZ9 C L 77;35.8648
2NZ9 C W 39;2NZ9 C Y 90;4.54589
2NZ9 C W 39;2NZ9 C Y 91;12.3485
2NZ9 C W 39;2NZ9 C C 92;17.3056
2NZ9 C W 39;2NZ9 C Q 93;0.0562562
2NZ9 C Y 40;2NZ9 C Q 41;18.0991
2NZ9 C Y 40;2NZ9 C Q 42;2.16131
2NZ9 C Y 40;2NZ9 C P 48;16.437
2NZ9 C Y 40;2NZ9 C R 49;10.5446
2NZ9 C Y 40;2NZ9 C L 50;22.9443
2NZ9 C Y 40;2NZ9 C L 51;4.71245
2NZ9 C Y 40;2NZ9 C L 77;0.689364
2NZ9 C Y 40;2NZ9 C V 89;0.663148
2NZ9 C Y 40;2NZ9 C Y 90;9.6184
2NZ9 C Y 40;2NZ9 C Y 91;31.266
2NZ9 C Y 40;2NZ9 C C 92;0.295347
2NZ9 C Y 40;2NZ9 C Q 93;14.0909
2NZ9 C Y 40;2NZ9 C F 102;10.9506
2NZ9 C Y 40;2NZ9 D L 45;3.39665
2NZ9 C Y 40;2NZ9 D A 104;2.27961
2NZ9 C Y 40;2NZ9 D M 105;20.4485
2NZ9 C Y 40;2NZ9 D W 108;16.5614
2NZ9 C Q 41;2NZ9 C Q 42;22.8203
2NZ9 C Q 41;2NZ9 C K 43;22.236
2NZ9 C Q 41;2NZ9 C A 47;0.504658
2NZ9 C Q 41;2NZ9 C P 48;2.79415
2NZ9 C Q 41;2NZ9 C R 49;33.4499
2NZ9 C Q 41;2NZ9 C L 51;21.6709
2NZ9 C Q 41;2NZ9 C R 65;0.298171
2NZ9 C Q 41;2NZ9 C F 66;11.7827
2NZ9 C Q 41;2NZ9 C E 85;3.68716
2NZ9 C Q 41;2NZ9 C D 86;9.45373
2NZ9 C Q 41;2NZ9 C F 87;0.629102
2NZ9 C Q 41;2NZ9 C A 88;11.4548
2NZ9 C Q 41;2NZ9 C V 89;2.80789
2NZ9 C Q 41;2NZ9 C Y 90;20.5547
2NZ9 C Q 42;2NZ9 C K 43;32.5236
2NZ9 C Q 42;2NZ9 C P 44;3.70764
2NZ9 C Q 42;2NZ9 C G 45;0.823746
2NZ9 C Q 42;2NZ9 C Q 46;12.7706
2NZ9 C Q 42;2NZ9 C A 47;1.9715
2NZ9 C Q 42;2NZ9 C P 48;22.6263
2NZ9 C Q 42;2NZ9 C A 88;7.6817
2NZ9 C Q 42;2NZ9 C V 89;30.4704
2NZ9 C Q 42;2NZ9 C Y 91;19.0979
2NZ9 C Q 42;2NZ9 D Q 39;22.7158
2NZ9 C Q 42;2NZ9 D L 45;5.38929
2NZ9 C Q 42;2NZ9 D Y 95;6.6229
2NZ9 C K 43;2NZ9 C P 44;36.3195
2NZ9 C K 43;2NZ9 C G 45;1.4214
2NZ9 C K 43;2NZ9 C Q 46;35.7945
2NZ9 C K 43;2NZ9 C A 47;0.0586822
2NZ9 C K 43;2NZ9 C E 85;25.4013
2NZ9 C K 43;2NZ9 C F 87;20.1439
2NZ9 C K 43;2NZ9 C A 88;7.61604
2NZ9 C K 43;2NZ9 C V 89;0.00768025
2NZ9 C K 43;2NZ9 C S 172;0.219484
2NZ9 C P 44;2NZ9 C G 45;27.7935
2NZ9 C P 44;2NZ9 C Q 46;12.4283
2NZ9 C P 44;2NZ9 C F 87;19.4358
2NZ9 C P 44;2NZ9 C A 88;2.63845
2NZ9 C P 44;2NZ9 C V 89;4.9343
2NZ9 C P 44;2NZ9 C E 169;24.2378
2NZ9 C G 45;2NZ9 C Q 46;32.3638
2NZ9 C G 45;2NZ9 D I 93;4.75701
2NZ9 C G 45;2NZ9 D Y 95;2.21774
2NZ9 C Q 46;2NZ9 C A 47;34.585
2NZ9 C Q 46;2NZ9 C P 48;1.22982
2NZ9 C Q 46;2NZ9 D Y 95;7.84765
2NZ9 C Q 46;2NZ9 D Q 110;0.232685
2NZ9 C A 47;2NZ9 C P 48;29.7659
2NZ9 C A 47;2NZ9 C R 49;6.71547
2NZ9 C A 47;2NZ9 D Y 95;14.869
2NZ9 C A 47;2NZ9 D W 108;13.6928
2NZ9 C A 47;2NZ9 D G 109;9.65258
2NZ9 C A 47;2NZ9 D Q 110;7.84503
2NZ9 C P 48;2NZ9 C R 49;22.996
2NZ9 C P 48;2NZ9 C L 50;0.582502
2NZ9 C P 48;2NZ9 C Y 91;0.273716
2NZ9 C P 48;2NZ9 C F 102;0.0880318
2NZ9 C P 48;2NZ9 D L 45;19.8626
2NZ9 C P 48;2NZ9 D Y 95;9.78403
2NZ9 C P 48;2NZ9 D W 108;34.5423
2NZ9 C R 49;2NZ9 C L 50;29.0514
2NZ9 C R 49;2NZ9 C L 51;10.2584
2NZ9 C R 49;2NZ9 C P 60;0.233373
2NZ9 C R 49;2NZ9 C G 61;1.37282
2NZ9 C R 49;2NZ9 C I 62;21.5485
2NZ9 C R 49;2NZ9 D W 108;0.0764262
2NZ9 C L 50;2NZ9 C L 51;23.4339
2NZ9 C L 50;2NZ9 C I 52;8.27396
2NZ9 C L 50;2NZ9 C Y 53;10.7634
2NZ9 C L 50;2NZ9 C E 59;26.1438
2NZ9 C L 50;2NZ9 C I 62;8.2018
2NZ9 C L 50;2NZ9 D R 100;3.56747
2NZ9 C L 50;2NZ9 D A 104;12.1272
2NZ9 C L 50;2NZ9 D M 105;6.26112
2NZ9 C L 50;2NZ9 D D 106;17.5775
2NZ9 C L 50;2NZ9 D W 108;2.82056
2NZ9 C L 51;2NZ9 C I 52;29.5295
2NZ9 C L 51;2NZ9 C L 58;3.49554
2NZ9 C L 51;2NZ9 C E 59;13.1581
2NZ9 C L 51;2NZ9 C I 62;23.6735
2NZ9 C L 51;2NZ9 C F 66;21.0406
2NZ9 C L 51;2NZ9 C L 77;10.1316
2NZ9 C L 51;2NZ9 C Y 90;9.76826
2NZ9 C I 52;2NZ9 C Y 53;19.7107
2NZ9 C I 52;2NZ9 C A 55;9.44934
2NZ9 C I 52;2NZ9 C S 56;6.20799
2NZ9 C I 52;2NZ9 C N 57;12.8374
2NZ9 C I 52;2NZ9 C L 58;12.8543
2NZ9 C I 52;2NZ9 C E 59;0.745998
2NZ9 C I 52;2NZ9 C I 62;0.018678
2NZ9 C I 52;2NZ9 C F 66;9.35454
2NZ9 C I 52;2NZ9 C S 67;8.61586
2NZ9 C I 52;2NZ9 C G 68;17.0014
2NZ9 C I 52;2NZ9 C L 77;10.1409
2NZ9 C Y 53;2NZ9 C R 54;34.7143
2NZ9 C Y 53;2NZ9 C A 55;3.43779
2NZ9 C Y 53;2NZ9 C S 56;0.739162
2NZ9 C Y 53;2NZ9 C N 57;40.042
2NZ9 C Y 53;2NZ9 C L 58;8.64662
2NZ9 C Y 53;2NZ9 C E 59;11.7871
2NZ9 C Y 53;2NZ9 C P 60;8.43695
2NZ9 C Y 53;2NZ9 D R 100;14.8026
2NZ9 C Y 53;2NZ9 D D 103;22.6754
2NZ9 C Y 53;2NZ9 D A 104;8.46249
2NZ9 C R 54;2NZ9 C A 55;18.2059
2NZ9 C R 54;2NZ9 C S 56;12.9036
2NZ9 C R 54;2NZ9 C N 57;21.9183
2NZ9 C R 54;2NZ9 D D 102;9.17984
2NZ9 C R 54;2NZ9 D D 103;23.336
2NZ9 C A 55;2NZ9 C S 56;20.3852
2NZ9 C A 55;2NZ9 C G 68;5.18196
2NZ9 C A 55;2NZ9 C S 69;15.4892
2NZ9 C A 55;2NZ9 C G 70;6.50192
2NZ9 C A 55;2NZ9 C F 75;9.13221
2NZ9 C S 56;2NZ9 C N 57;38.515
2NZ9 C S 56;2NZ9 C L 58;4.31
2NZ9 C S 56;2NZ9 C G 68;17.0568
2NZ9 C S 56;2NZ9 C S 69;6.5903
2NZ9 C S 56;2NZ9 C G 70;2.67477
2NZ9 C N 57;2NZ9 C L 58;24.0802
2NZ9 C N 57;2NZ9 C E 59;0.752116
2NZ9 C L 58;2NZ9 C E 59;26.5086
2NZ9 C L 58;2NZ9 C P 60;8.83004
2NZ9 C L 58;2NZ9 C G 61;0.262796
2NZ9 C L 58;2NZ9 C I 62;22.5065
2NZ9 C L 58;2NZ9 C P 63;8.35016
2NZ9 C L 58;2NZ9 C A 64;9.02222
2NZ9 C L 58;2NZ9 C F 66;13.3773
2NZ9 C L 58;2NZ9 C S 67;2.11433
2NZ9 C E 59;2NZ9 C P 60;40.672
2NZ9 C E 59;2NZ9 C G 61;1.82587
2NZ9 C E 59;2NZ9 C I 62;25.1474
2NZ9 C E 59;2NZ9 D R 100;14.7809
2NZ9 C E 59;2NZ9 D D 106;12.5121
2NZ9 C P 60;2NZ9 C G 61;28.4616
2NZ9 C P 60;2NZ9 C I 62;6.23533
2NZ9 C P 60;2NZ9 D R 100;7.13373
2NZ9 C G 61;2NZ9 C I 62;31.0567
2NZ9 C G 61;2NZ9 C P 63;6.49774
2NZ9 C I 62;2NZ9 C P 63;35.1647
2NZ9 C I 62;2NZ9 C A 64;0.394945
2NZ9 C I 62;2NZ9 C F 66;13.3114
2NZ9 C P 63;2NZ9 C A 64;25.809
2NZ9 C P 63;2NZ9 C R 65;31.439
2NZ9 C P 63;2NZ9 C F 66;23.3578
2NZ9 C A 64;2NZ9 C R 65;24.9342
2NZ9 C A 64;2NZ9 C F 66;12.208
2NZ9 C A 64;2NZ9 C S 67;4.58026
2NZ9 C A 64;2NZ9 C S 80;4.29759
2NZ9 C R 65;2NZ9 C F 66;35.5375
2NZ9 C R 65;2NZ9 C S 67;2.97514
2NZ9 C R 65;2NZ9 C T 78;4.33137
2NZ9 C R 65;2NZ9 C I 79;15.0832
2NZ9 C R 65;2NZ9 C S 80;27.751
2NZ9 C R 65;2NZ9 C S 81;17.8534
2NZ9 C R 65;2NZ9 C L 82;0.142212
2NZ9 C R 65;2NZ9 C E 83;22.7809
2NZ9 C R 65;2NZ9 C E 85;9.44141
2NZ9 C R 65;2NZ9 C D 86;17.3763
2NZ9 C F 66;2NZ9 C S 67;23.0982
2NZ9 C F 66;2NZ9 C L 77;10.4922
2NZ9 C F 66;2NZ9 C T 78;4.0895
2NZ9 C F 66;2NZ9 C I 79;18.4216
2NZ9 C F 66;2NZ9 C D 86;9.91008
2NZ9 C F 66;2NZ9 C Y 90;12.6753
2NZ9 C S 67;2NZ9 C G 68;31.4115
2NZ9 C S 67;2NZ9 C S 69;1.4767
2NZ9 C S 67;2NZ9 C T 76;2.90565
2NZ9 C S 67;2NZ9 C L 77;8.74564
2NZ9 C S 67;2NZ9 C T 78;28.6477
2NZ9 C S 67;2NZ9 C S 80;0.110636
2NZ9 C G 68;2NZ9 C S 69;26.2392
2NZ9 C G 68;2NZ9 C T 76;3.87782
2NZ9 C G 68;2NZ9 C L 77;2.83504
2NZ9 C S 69;2NZ9 C G 70;30.4787
2NZ9 C S 69;2NZ9 C F 75;10.0716
2NZ9 C S 69;2NZ9 C T 76;32.1142
2NZ9 C G 70;2NZ9 C S 71;26.6661
2NZ9 C G 70;2NZ9 C D 74;10.0091
2NZ9 C G 70;2NZ9 C F 75;8.54849
2NZ9 C G 70;2NZ9 C T 76;1.11389
2NZ9 C S 71;2NZ9 C G 72;18.7902
2NZ9 C S 71;2NZ9 C T 73;5.15079
2NZ9 C S 71;2NZ9 C D 74;13.6881
2NZ9 C S 71;2NZ9 C F 75;11.5583
2NZ9 C G 72;2NZ9 C T 73;23.475
2NZ9 C G 72;2NZ9 C F 75;10.0472
2NZ9 C T 73;2NZ9 C D 74;33.9167
2NZ9 C T 73;2NZ9 C F 75;7.11798
2NZ9 C D 74;2NZ9 C F 75;28.5933
2NZ9 C D 74;2NZ9 C T 76;1.62379
2NZ9 C F 75;2NZ9 C T 76;25.0886
2NZ9 C T 76;2NZ9 C L 77;19.0975
2NZ9 C T 76;2NZ9 C T 78;13.2073
2NZ9 C L 77;2NZ9 C T 78;26.1083
2NZ9 C L 77;2NZ9 C I 79;8.81385
2NZ9 C L 77;2NZ9 C Y 90;13.6402
2NZ9 C T 78;2NZ9 C I 79;21.5181
2NZ9 C T 78;2NZ9 C S 80;4.80147
2NZ9 C I 79;2NZ9 C S 80;17.6157
2NZ9 C I 79;2NZ9 C S 81;7.49216
2NZ9 C I 79;2NZ9 C L 82;24.4262
2NZ9 C I 79;2NZ9 C D 86;8.69504
2NZ9 C I 79;2NZ9 C Y 90;13.3332
2NZ9 C I 79;2NZ9 C V 108;5.77188
2NZ9 C S 80;2NZ9 C S 81;29.5923
2NZ9 C S 81;2NZ9 C L 82;21.0183
2NZ9 C S 81;2NZ9 C E 83;8.22163
2NZ9 C L 82;2NZ9 C E 83;36.2561
2NZ9 C L 82;2NZ9 C D 86;13.8408
2NZ9 C L 82;2NZ9 C V 108;15.1865
2NZ9 C L 82;2NZ9 C I 110;3.14538
2NZ9 C E 83;2NZ9 C P 84;26.8527
2NZ9 C E 83;2NZ9 C E 85;27.6933
2NZ9 C E 83;2NZ9 C D 86;19.1525
2NZ9 C E 83;2NZ9 C I 110;9.35182
2NZ9 C P 84;2NZ9 C E 85;30.2316
2NZ9 C P 84;2NZ9 C D 86;3.05008
2NZ9 C P 84;2NZ9 C F 87;10.6068
2NZ9 C P 84;2NZ9 C I 110;20.3331
2NZ9 C P 84;2NZ9 C S 172;16.1995
2NZ9 C P 84;2NZ9 C K 173;1.15649
2NZ9 C P 84;2NZ9 C S 175;7.79325
2NZ9 C E 85;2NZ9 C D 86;23.986
2NZ9 C E 85;2NZ9 C F 87;6.52824
2NZ9 C E 85;2NZ9 C S 172;8.54178
2NZ9 C D 86;2NZ9 C F 87;16.0992
2NZ9 C D 86;2NZ9 C A 88;2.2978
2NZ9 C D 86;2NZ9 C Y 90;14.5872
2NZ9 C D 86;2NZ9 C V 108;8.66683
2NZ9 C D 86;2NZ9 C I 110;3.03119
2NZ9 C F 87;2NZ9 C A 88;27.3091
2NZ9 C F 87;2NZ9 C V 108;16.6702
2NZ9 C F 87;2NZ9 C E 109;1.17597
2NZ9 C F 87;2NZ9 C I 110;15.7905
2NZ9 C F 87;2NZ9 C E 169;21.2772
2NZ9 C F 87;2NZ9 C Q 170;32.3705
2NZ9 C F 87;2NZ9 C S 172;13.2045
2NZ9 C F 87;2NZ9 C S 175;0.512384
2NZ9 C A 88;2NZ9 C V 89;24.4715
2NZ9 C A 88;2NZ9 C Y 90;16.5705
2NZ9 C A 88;2NZ9 C T 106;2.73926
2NZ9 C A 88;2NZ9 C K 107;3.91947
2NZ9 C A 88;2NZ9 C V 108;17.5787
2NZ9 C V 89;2NZ9 C Y 90;22.1803
2NZ9 C V 89;2NZ9 C Y 91;26.2581
2NZ9 C V 89;2NZ9 C Q 104;1.67952
2NZ9 C V 89;2NZ9 C G 105;7.60402
2NZ9 C V 89;2NZ9 C T 106;9.55653
2NZ9 C V 89;2NZ9 C K 107;29.3108
2NZ9 C Y 90;2NZ9 C Y 91;20.3259
2NZ9 C Y 90;2NZ9 C G 105;4.41495
2NZ9 C Y 90;2NZ9 C T 106;18.6902
2NZ9 C Y 90;2NZ9 C V 108;12.0202
2NZ9 C Y 91;2NZ9 C C 92;20.4604
2NZ9 C Y 91;2NZ9 C Q 93;0.128713
2NZ9 C Y 91;2NZ9 C F 102;11.3029
2NZ9 C Y 91;2NZ9 C G 103;9.26767
2NZ9 C Y 91;2NZ9 C Q 104;6.78254
2NZ9 C Y 91;2NZ9 C G 105;12.3317
2NZ9 C Y 91;2NZ9 D Q 39;5.18669
2NZ9 C Y 91;2NZ9 D K 43;8.43859
2NZ9 C Y 91;2NZ9 D G 44;8.99993
2NZ9 C Y 91;2NZ9 D L 45;27.5533
2NZ9 C C 92;2NZ9 C Q 93;17.5731
2NZ9 C C 92;2NZ9 C F 102;6.96596
2NZ9 C C 92;2NZ9 C G 103;13.7761
2NZ9 C Q 93;2NZ9 C Q 94;22.5406
2NZ9 C Q 93;2NZ9 C G 95;10.8425
2NZ9 C Q 93;2NZ9 C F 100;8.37317
2NZ9 C Q 93;2NZ9 C T 101;10.3615
2NZ9 C Q 93;2NZ9 C F 102;19.9379
2NZ9 C Q 93;2NZ9 D Y 35;2.42295
2NZ9 C Q 93;2NZ9 D M 105;19.5783
2NZ9 C Q 94;2NZ9 C G 95;15.9587
2NZ9 C Q 94;2NZ9 C N 96;8.86339
2NZ9 C Q 94;2NZ9 C E 97;11.9073
2NZ9 C Q 94;2NZ9 C P 99;5.8963
2NZ9 C Q 94;2NZ9 C F 100;11.7997
2NZ9 C Q 94;2NZ9 C T 101;22.02
2NZ9 C G 95;2NZ9 C N 96;18.1666
2NZ9 C G 95;2NZ9 C E 97;0.919284
2NZ9 C G 95;2NZ9 C F 100;18.9847
2NZ9 C G 95;2NZ9 D Y 35;2.72001
2NZ9 C G 95;2NZ9 D Y 99;6.373
2NZ9 C N 96;2NZ9 C E 97;31.1004
2NZ9 C N 96;2NZ9 C F 100;1.00035
2NZ9 C E 97;2NZ9 C V 98;34.7859
2NZ9 C E 97;2NZ9 C P 99;3.77912
2NZ9 C E 97;2NZ9 C F 100;11.8686
2NZ9 C V 98;2NZ9 C P 99;35.8963
2NZ9 C V 98;2NZ9 C F 100;22.9706
2NZ9 C V 98;2NZ9 D W 47;11.7832
2NZ9 C V 98;2NZ9 D Y 59;26.3389
2NZ9 C V 98;2NZ9 D Y 60;7.06641
2NZ9 C V 98;2NZ9 D S 61;0.0363344
2NZ9 C P 99;2NZ9 C F 100;19.6606
2NZ9 C P 99;2NZ9 C T 101;11.6979
2NZ9 C P 99;2NZ9 D W 47;10.8093
2NZ9 C P 99;2NZ9 D Y 60;0.242654
2NZ9 C P 99;2NZ9 D S 61;10.8959
2NZ9 C P 99;2NZ9 D D 62;10.7415
2NZ9 C F 100;2NZ9 C T 101;25.8378
2NZ9 C F 100;2NZ9 D Y 35;25.0834
2NZ9 C F 100;2NZ9 D W 47;43.7688
2NZ9 C F 100;2NZ9 D T 50;12.4524
2NZ9 C F 100;2NZ9 D Y 59;0.934574
2NZ9 C F 100;2NZ9 D M 105;1.85445
2NZ9 C T 101;2NZ9 C F 102;34.5439
2NZ9 C T 101;2NZ9 D W 47;2.05784
2NZ9 C F 102;2NZ9 C G 103;30.8968
2NZ9 C F 102;2NZ9 D V 37;13.9473
2NZ9 C F 102;2NZ9 D L 45;35.9697
2NZ9 C F 102;2NZ9 D E 46;6.89584
2NZ9 C F 102;2NZ9 D W 47;13.6068
2NZ9 C F 102;2NZ9 D M 105;10.2466
2NZ9 C F 102;2NZ9 D W 108;8.01187
2NZ9 C G 103;2NZ9 C Q 104;22.9801
2NZ9 C G 103;2NZ9 C G 105;2.56896
2NZ9 C G 103;2NZ9 D G 44;2.08687
2NZ9 C G 103;2NZ9 D L 45;2.77186
2NZ9 C Q 104;2NZ9 C G 105;30.1622
2NZ9 C Q 104;2NZ9 C K 107;2.62417
2NZ9 C Q 104;2NZ9 D G 44;11.8354
2NZ9 C G 105;2NZ9 C T 106;21.5227
2NZ9 C G 105;2NZ9 C K 107;0.438728
2NZ9 C T 106;2NZ9 C K 107;22.1325
2NZ9 C T 106;2NZ9 C V 108;6.93138
2NZ9 C K 107;2NZ9 C V 108;20.9361
2NZ9 C K 107;2NZ9 C E 109;7.53236
2NZ9 C V 108;2NZ9 C E 109;25.5318
2NZ9 C V 108;2NZ9 C I 110;7.00081
2NZ9 C V 108;2NZ9 C Q 170;0.148593
2NZ9 C E 109;2NZ9 C I 110;24.9863
2NZ9 C E 109;2NZ9 C K 111;0.0542435
2NZ9 C E 109;2NZ9 C Y 144;16.492
2NZ9 C E 109;2NZ9 C R 146;8.39085
2NZ9 C E 109;2NZ9 C Q 170;11.7891
2NZ9 C E 109;2NZ9 C Y 177;20.4975
2NZ9 C I 110;2NZ9 C K 111;29.8386
2NZ9 C I 110;2NZ9 C R 112;0.290725
2NZ9 C I 110;2NZ9 C Y 144;9.14739
2NZ9 C I 110;2NZ9 C Q 170;19.2939
2NZ9 C I 110;2NZ9 C S 172;0.00330865
2NZ9 C I 110;2NZ9 C S 175;25.6366
2NZ9 C K 111;2NZ9 C R 112;36.3647
2NZ9 C K 111;2NZ9 C Y 144;19.3938
2NZ9 C K 111;2NZ9 C S 175;3.94708
2NZ9 C R 112;2NZ9 C T 113;54.3999
2NZ9 C R 112;2NZ9 C V 114;6.98959
2NZ9 C R 112;2NZ9 C A 115;16.5415
2NZ9 C R 112;2NZ9 C Y 144;29.9208
2NZ9 C R 112;2NZ9 C D 174;22.3431
2NZ9 C R 112;2NZ9 C S 175;18.5756
2NZ9 C R 112;2NZ9 C T 176;8.44112
2NZ9 C T 113;2NZ9 C V 114;32.4352
2NZ9 C T 113;2NZ9 C A 115;1.88307
2NZ9 C T 113;2NZ9 C Y 144;1.70094
2NZ9 C V 114;2NZ9 C A 115;27.3007
2NZ9 C V 114;2NZ9 C A 116;1.55369
2NZ9 C V 114;2NZ9 C Y 144;16.126
2NZ9 C V 114;2NZ9 C P 145;10.5862
2NZ9 C V 114;2NZ9 C H 202;2.56727
2NZ9 C V 114;2NZ9 C Q 203;21.7184
2NZ9 C V 114;2NZ9 C G 204;12.5012
2NZ9 C A 115;2NZ9 C A 116;27.3394
2NZ9 C A 115;2NZ9 C P 117;1.17686
2NZ9 C A 115;2NZ9 C N 142;5.9404
2NZ9 C A 115;2NZ9 C F 143;10.532
2NZ9 C A 115;2NZ9 C Y 144;20.1443
2NZ9 C A 115;2NZ9 C T 176;4.91822
2NZ9 C A 115;2NZ9 C H 202;5.58044
2NZ9 C A 115;2NZ9 C G 204;0.981139
2NZ9 C A 116;2NZ9 C P 117;29.7548
2NZ9 C A 116;2NZ9 C S 118;3.74733
2NZ9 C A 116;2NZ9 C N 142;9.51499
2NZ9 C A 116;2NZ9 C F 143;2.56981
2NZ9 C A 116;2NZ9 C H 202;0.68651
2NZ9 C A 116;2NZ9 C G 204;19.6492
2NZ9 C A 116;2NZ9 C L 205;7.80393
2NZ9 C P 117;2NZ9 C S 118;23.8697
2NZ9 C P 117;2NZ9 C V 119;16.8465
2NZ9 C P 117;2NZ9 C L 140;11.8095
2NZ9 C P 117;2NZ9 C N 141;7.33821
2NZ9 C P 117;2NZ9 C N 142;2.6221
2NZ9 C P 117;2NZ9 C F 143;19.876
2NZ9 C P 117;2NZ9 C V 200;3.7139
2NZ9 C P 117;2NZ9 C H 202;15.6369
2NZ9 C P 117;2NZ9 C G 204;1.01349
2NZ9 C P 117;2NZ9 C L 205;20.9418
2NZ9 C S 118;2NZ9 C V 119;23.8515
2NZ9 C S 118;2NZ9 C F 120;14.3388
2NZ9 C S 118;2NZ9 C L 139;0.593728
2NZ9 C S 118;2NZ9 C L 140;1.22408
2NZ9 C S 118;2NZ9 C N 141;32.0273
2NZ9 C S 118;2NZ9 C N 142;0.428694
2NZ9 C S 118;2NZ9 D T 140;10.7433
2NZ9 C V 119;2NZ9 C F 120;34.8664
2NZ9 C V 119;2NZ9 C C 138;5.39846
2NZ9 C V 119;2NZ9 C L 139;7.37408
2NZ9 C V 119;2NZ9 C L 140;15.7182
2NZ9 C V 119;2NZ9 C C 198;5.02665
2NZ9 C V 119;2NZ9 C V 200;14.7854
2NZ9 C V 119;2NZ9 C L 205;1.71541
2NZ9 C V 119;2NZ9 C V 209;13.0266
2NZ9 C V 119;2NZ9 C K 211;32.6803
2NZ9 C F 120;2NZ9 C I 121;25.9847
2NZ9 C F 120;2NZ9 C F 122;13.2684
2NZ9 C F 120;2NZ9 C V 137;0.864301
2NZ9 C F 120;2NZ9 C C 138;6.06342
2NZ9 C F 120;2NZ9 C L 139;32.8199
2NZ9 C F 120;2NZ9 C N 141;13.4435
2NZ9 C F 120;2NZ9 C C 198;0.32273
2NZ9 C F 120;2NZ9 C K 211;3.65779
2NZ9 C F 120;2NZ9 D T 140;19.5833
2NZ9 C F 120;2NZ9 D A 141;7.39309
2NZ9 C F 120;2NZ9 D A 142;25.6168
2NZ9 C F 120;2NZ9 D T 188;5.94523
2NZ9 C I 121;2NZ9 C F 122;32.6351
2NZ9 C I 121;2NZ9 C P 123;7.05488
2NZ9 C I 121;2NZ9 C V 136;6.84711
2NZ9 C I 121;2NZ9 C V 137;5.34153
2NZ9 C I 121;2NZ9 C C 138;5.33675
2NZ9 C I 121;2NZ9 C W 152;10.1658
2NZ9 C I 121;2NZ9 C Y 196;3.7788
2NZ9 C I 121;2NZ9 C A 197;3.37165
2NZ9 C I 121;2NZ9 C C 198;10.4766
2NZ9 C I 121;2NZ9 C K 211;27.6174
2NZ9 C I 121;2NZ9 C S 212;12.4202
2NZ9 C I 121;2NZ9 C F 213;18.6561
2NZ9 C I 121;2NZ9 D A 130;0.0544234
2NZ9 C I 121;2NZ9 D S 132;16.0032
2NZ9 C F 122;2NZ9 C P 123;28.4316
2NZ9 C F 122;2NZ9 C P 124;0.895903
2NZ9 C F 122;2NZ9 C S 135;2.60653
2NZ9 C F 122;2NZ9 C V 136;9.71417
2NZ9 C F 122;2NZ9 C V 137;29.0497
2NZ9 C F 122;2NZ9 C L 139;10.8586
2NZ9 C F 122;2NZ9 C F 213;1.4982
2NZ9 C F 122;2NZ9 D L 129;32.4372
2NZ9 C F 122;2NZ9 D A 130;12.4159
2NZ9 C F 122;2NZ9 D P 131;4.99776
2NZ9 C F 122;2NZ9 D S 132;2.504
2NZ9 C F 122;2NZ9 D A 142;16.3738
2NZ9 C F 122;2NZ9 D L 143;8.53808
2NZ9 C F 122;2NZ9 D V 186;7.01533
2NZ9 C P 123;2NZ9 C P 124;31.2615
2NZ9 C P 123;2NZ9 C S 125;5.83476
2NZ9 C P 123;2NZ9 C S 135;0.153603
2NZ9 C P 123;2NZ9 C V 136;1.39041
2NZ9 C P 123;2NZ9 C Y 190;3.96055
2NZ9 C P 123;2NZ9 C F 213;28.8731
2NZ9 C P 123;2NZ9 D P 128;1.10486
2NZ9 C P 123;2NZ9 D L 129;6.34596
2NZ9 C P 123;2NZ9 D A 130;19.6849
2NZ9 C P 123;2NZ9 D S 132;10.5787
2NZ9 C P 124;2NZ9 C S 125;26.0762
2NZ9 C P 124;2NZ9 C D 126;6.16782
2NZ9 C P 124;2NZ9 C Q 128;8.27447
2NZ9 C P 124;2NZ9 C L 129;16.6957
2NZ9 C P 124;2NZ9 C A 134;13.1343
2NZ9 C P 124;2NZ9 C S 135;18.3131
2NZ9 C P 124;2NZ9 C V 136;12.5907
2NZ9 C P 124;2NZ9 C Y 190;20.2401
2NZ9 C P 124;2NZ9 C F 213;3.65639
2NZ9 C P 124;2NZ9 D L 129;1.93079
2NZ9 C S 125;2NZ9 C D 126;22.8524
2NZ9 C S 125;2NZ9 C E 127;8.031
2NZ9 C S 125;2NZ9 C Q 128;21.758
2NZ9 C S 125;2NZ9 C L 129;8.27418
2NZ9 C S 125;2NZ9 D F 127;12.5348
2NZ9 C S 125;2NZ9 D P 128;27.6688
2NZ9 C S 125;2NZ9 D L 129;1.23353
2NZ9 C D 126;2NZ9 C E 127;21.0838
2NZ9 C D 126;2NZ9 C Q 128;0.795317
2NZ9 C D 126;2NZ9 C L 129;21.7185
2NZ9 C D 126;2NZ9 C K 130;25.6029
2NZ9 C E 127;2NZ9 C Q 128;18.1821
2NZ9 C E 127;2NZ9 C L 129;0.792664
2NZ9 C E 127;2NZ9 C K 130;23.8815
2NZ9 C E 127;2NZ9 C S 131;10.1604
2NZ9 C E 127;2NZ9 D V 126;2.11961
2NZ9 C E 127;2NZ9 D F 127;15.0467
2NZ9 C E 127;2NZ9 D P 128;3.99338
2NZ9 C E 127;2NZ9 D K 214;16.1389
2NZ9 C Q 128;2NZ9 C L 129;17.3045
2NZ9 C Q 128;2NZ9 C K 130;0.892114
2NZ9 C Q 128;2NZ9 C S 131;17.6608
2NZ9 C Q 128;2NZ9 C G 132;1.75975
2NZ9 C Q 128;2NZ9 C T 133;23.8601
2NZ9 C Q 128;2NZ9 C A 134;3.68662
2NZ9 C Q 128;2NZ9 C S 135;18.4607
2NZ9 C Q 128;2NZ9 D F 127;33.5005
2NZ9 C Q 128;2NZ9 D L 146;9.31538
2NZ9 C Q 128;2NZ9 D K 148;6.27972
2NZ9 C L 129;2NZ9 C K 130;22.9851
2NZ9 C L 129;2NZ9 C S 131;2.51295
2NZ9 C L 129;2NZ9 C G 132;7.67395
2NZ9 C L 129;2NZ9 C T 133;9.37844
2NZ9 C L 129;2NZ9 C A 134;10.419
2NZ9 C L 129;2NZ9 C K 187;28.0615
2NZ9 C L 129;2NZ9 C Y 190;27.0313
2NZ9 C L 129;2NZ9 C E 191;10.1616
2NZ9 C K 130;2NZ9 C S 131;24.2717
2NZ9 C K 130;2NZ9 C G 132;2.31424
2NZ9 C K 130;2NZ9 C K 187;15.0642
2NZ9 C S 131;2NZ9 C G 132;27.1416
2NZ9 C S 131;2NZ9 C T 133;8.82432
2NZ9 C S 131;2NZ9 D F 127;11.1085
2NZ9 C G 132;2NZ9 C T 133;27.9228
2NZ9 C G 132;2NZ9 C S 186;5.80515
2NZ9 C G 132;2NZ9 C K 187;20.7898
2NZ9 C T 133;2NZ9 C A 134;22.1378
2NZ9 C T 133;2NZ9 C S 135;2.72077
2NZ9 C T 133;2NZ9 C T 184;6.72947
2NZ9 C T 133;2NZ9 C L 185;9.64458
2NZ9 C T 133;2NZ9 C S 186;9.76283
2NZ9 C T 133;2NZ9 C K 187;4.40915
2NZ9 C T 133;2NZ9 D K 148;9.93451
2NZ9 C T 133;2NZ9 D D 149;1.30952
2NZ9 C A 134;2NZ9 C S 135;19.7129
2NZ9 C A 134;2NZ9 C V 136;3.18665
2NZ9 C A 134;2NZ9 C L 183;1.84307
2NZ9 C A 134;2NZ9 C T 184;4.4963
2NZ9 C A 134;2NZ9 C L 185;23.4791
2NZ9 C A 134;2NZ9 C S 186;1.31722
2NZ9 C A 134;2NZ9 C K 187;3.39503
2NZ9 C A 134;2NZ9 C Y 190;15.7814
2NZ9 C S 135;2NZ9 C V 136;18.3836
2NZ9 C S 135;2NZ9 C V 137;10.0211
2NZ9 C S 135;2NZ9 C T 182;8.02492
2NZ9 C S 135;2NZ9 C L 183;5.76134
2NZ9 C S 135;2NZ9 C T 184;11.1163
2NZ9 C S 135;2NZ9 D L 129;3.98117
2NZ9 C S 135;2NZ9 D L 146;12.312
2NZ9 C S 135;2NZ9 D K 148;10.74
2NZ9 C V 136;2NZ9 C V 137;18.9491
2NZ9 C V 136;2NZ9 C W 152;19.2423
2NZ9 C V 136;2NZ9 C S 181;0.815207
2NZ9 C V 136;2NZ9 C T 182;4.95421
2NZ9 C V 136;2NZ9 C L 183;27.2804
2NZ9 C V 136;2NZ9 C L 185;5.28822
2NZ9 C V 136;2NZ9 C Y 190;6.50467
2NZ9 C V 136;2NZ9 C Y 196;13.3474
2NZ9 C V 136;2NZ9 C F 213;11.4097
2NZ9 C V 137;2NZ9 C C 138;20.4514
2NZ9 C V 137;2NZ9 C L 139;6.11724
2NZ9 C V 137;2NZ9 C W 152;3.01525
2NZ9 C V 137;2NZ9 C S 180;11.0429
2NZ9 C V 137;2NZ9 C S 181;5.53813
2NZ9 C V 137;2NZ9 C T 182;16.131
2NZ9 C V 137;2NZ9 D L 129;22.8479
2NZ9 C V 137;2NZ9 D L 146;10.8424
2NZ9 C V 137;2NZ9 D S 184;9.13366
2NZ9 C V 137;2NZ9 D V 186;3.37989
2NZ9 C C 138;2NZ9 C L 139;18.9912
2NZ9 C C 138;2NZ9 C L 140;11.4279
2NZ9 C C 138;2NZ9 C V 150;6.60932
2NZ9 C C 138;2NZ9 C W 152;12.1444
2NZ9 C C 138;2NZ9 C L 179;1.78696
2NZ9 C C 138;2NZ9 C S 180;5.48113
2NZ9 C C 138;2NZ9 C S 181;21.3367
2NZ9 C C 138;2NZ9 C C 198;19.7873
2NZ9 C C 138;2NZ9 C V 200;1.99285
2NZ9 C L 139;2NZ9 C L 140;25.862
2NZ9 C L 139;2NZ9 C N 141;16.1541
2NZ9 C L 139;2NZ9 C S 178;3.84154
2NZ9 C L 139;2NZ9 C L 179;6.41124
2NZ9 C L 139;2NZ9 C S 180;6.62103
2NZ9 C L 139;2NZ9 D A 142;8.48682
2NZ9 C L 139;2NZ9 D H 169;0.127001
2NZ9 C L 139;2NZ9 D F 171;8.2864
2NZ9 C L 139;2NZ9 D V 186;27.1681
2NZ9 C L 140;2NZ9 C N 141;15.4778
2NZ9 C L 140;2NZ9 C N 142;0.100471
2NZ9 C L 140;2NZ9 C F 143;20.3207
2NZ9 C L 140;2NZ9 C A 148;11.033
2NZ9 C L 140;2NZ9 C V 150;9.36143
2NZ9 C L 140;2NZ9 C S 178;6.47577
2NZ9 C L 140;2NZ9 C L 179;33.8509
2NZ9 C L 140;2NZ9 C S 181;0.321614
2NZ9 C L 140;2NZ9 C V 200;18.7537
2NZ9 C L 140;2NZ9 C H 202;0.339872
2NZ9 C N 141;2NZ9 C N 142;38.5513
2NZ9 C N 141;2NZ9 C F 143;2.13106
2NZ9 C N 141;2NZ9 C S 178;7.88341
2NZ9 C N 141;2NZ9 D T 140;0.380646
2NZ9 C N 141;2NZ9 D A 142;0.214193
2NZ9 C N 141;2NZ9 D H 169;13.1264
2NZ9 C N 141;2NZ9 D V 186;2.69189
2NZ9 C N 141;2NZ9 D T 188;17.6111
2NZ9 C N 142;2NZ9 C F 143;18.1702
2NZ9 C N 142;2NZ9 C D 171;0.502244
2NZ9 C N 142;2NZ9 C D 174;6.06166
2NZ9 C N 142;2NZ9 C T 176;23.2317
2NZ9 C N 142;2NZ9 C Y 177;7.71948
2NZ9 C N 142;2NZ9 C S 178;8.53142
2NZ9 C N 142;2NZ9 D H 169;18.9871
2NZ9 C N 142;2NZ9 D T 188;6.68912
2NZ9 C F 143;2NZ9 C Y 144;20.7225
2NZ9 C F 143;2NZ9 C P 145;7.91501
2NZ9 C F 143;2NZ9 C R 146;16.3984
2NZ9 C F 143;2NZ9 C E 147;0.370054
2NZ9 C F 143;2NZ9 C A 148;7.58889
2NZ9 C F 143;2NZ9 C V 167;1.87961
2NZ9 C F 143;2NZ9 C T 176;10.2857
2NZ9 C F 143;2NZ9 C Y 177;28.6022
2NZ9 C F 143;2NZ9 C S 178;7.14645
2NZ9 C F 143;2NZ9 C L 179;15.3309
2NZ9 C F 143;2NZ9 C H 202;11.4988
2NZ9 C Y 144;2NZ9 C P 145;45.6443
2NZ9 C Y 144;2NZ9 C R 146;1.13594
2NZ9 C Y 144;2NZ9 C Q 170;3.59668
2NZ9 C Y 144;2NZ9 C S 175;7.57587
2NZ9 C Y 144;2NZ9 C T 176;5.86585
2NZ9 C Y 144;2NZ9 C Y 177;15.561
2NZ9 C Y 144;2NZ9 C H 202;5.67086
2NZ9 C P 145;2NZ9 C R 146;21.6025
2NZ9 C P 145;2NZ9 C E 147;16.3866
2NZ9 C P 145;2NZ9 C Y 177;1.89896
2NZ9 C P 145;2NZ9 C H 202;15.329
2NZ9 C P 145;2NZ9 C Q 203;24.7982
2NZ9 C R 146;2NZ9 C E 147;27.6452
2NZ9 C R 146;2NZ9 C A 148;9.08599
2NZ9 C R 146;2NZ9 C V 167;34.8869
2NZ9 C R 146;2NZ9 C T 168;1.08805
2NZ9 C R 146;2NZ9 C Y 177;35.961
2NZ9 C R 146;2NZ9 C L 179;5.31095
2NZ9 C E 147;2NZ9 C A 148;35.5689
2NZ9 C E 147;2NZ9 C H 202;13.1628
2NZ9 C E 147;2NZ9 C Q 203;8.62664
2NZ9 C A 148;2NZ9 C K 149;29.0308
2NZ9 C A 148;2NZ9 C V 150;5.68203
2NZ9 C A 148;2NZ9 C E 165;9.61212
2NZ9 C A 148;2NZ9 C L 179;6.75298
2NZ9 C A 148;2NZ9 C V 200;5.42063
2NZ9 C A 148;2NZ9 C T 201;6.80499
2NZ9 C A 148;2NZ9 C H 202;10.3817
2NZ9 C K 149;2NZ9 C V 150;28.67
2NZ9 C K 149;2NZ9 C Q 151;32.501
2NZ9 C K 149;2NZ9 C E 165;0.121719
2NZ9 C K 149;2NZ9 C E 199;1.68869
2NZ9 C K 149;2NZ9 C V 200;8.42934
2NZ9 C K 149;2NZ9 C T 201;38.2098
2NZ9 C V 150;2NZ9 C Q 151;26.3505
2NZ9 C V 150;2NZ9 C W 152;7.54161
2NZ9 C V 150;2NZ9 C E 165;20.2489
2NZ9 C V 150;2NZ9 C L 179;10.4801
2NZ9 C V 150;2NZ9 C S 181;17.0743
2NZ9 C V 150;2NZ9 C C 198;9.14366
2NZ9 C V 150;2NZ9 C E 199;9.9034
2NZ9 C V 150;2NZ9 C V 200;12.0827
2NZ9 C Q 151;2NZ9 C W 152;22.4932
2NZ9 C Q 151;2NZ9 C K 153;12.943
2NZ9 C Q 151;2NZ9 C L 158;32.1314
2NZ9 C Q 151;2NZ9 C Q 159;0.283194
2NZ9 C Q 151;2NZ9 C A 197;0.647873
2NZ9 C Q 151;2NZ9 C C 198;6.18005
2NZ9 C Q 151;2NZ9 C E 199;34.2575
2NZ9 C W 152;2NZ9 C K 153;22.0703
2NZ9 C W 152;2NZ9 C V 154;5.54997
2NZ9 C W 152;2NZ9 C A 157;0.616972
2NZ9 C W 152;2NZ9 C L 158;10.0202
2NZ9 C W 152;2NZ9 C Q 159;22.2876
2NZ9 C W 152;2NZ9 C N 162;0.152603
2NZ9 C W 152;2NZ9 C S 163;14.216
2NZ9 C W 152;2NZ9 C S 181;20.2699
2NZ9 C W 152;2NZ9 C T 182;0.912096
2NZ9 C W 152;2NZ9 C L 183;34.1556
2NZ9 C W 152;2NZ9 C Y 196;4.83924
2NZ9 C W 152;2NZ9 C A 197;11.949
2NZ9 C W 152;2NZ9 C C 198;17.7212
2NZ9 C K 153;2NZ9 C V 154;23.3525
2NZ9 C K 153;2NZ9 C D 155;0.245449
2NZ9 C K 153;2NZ9 C N 156;27.8693
2NZ9 C K 153;2NZ9 C A 157;6.36464
2NZ9 C K 153;2NZ9 C L 158;13.4654
2NZ9 C K 153;2NZ9 C Q 159;0.738942
2NZ9 C K 153;2NZ9 C V 195;3.32101
2NZ9 C K 153;2NZ9 C Y 196;2.38172
2NZ9 C K 153;2NZ9 C A 197;30.4511
2NZ9 C K 153;2NZ9 C E 199;31.4325
2NZ9 C K 153;2NZ9 C T 210;7.68382
2NZ9 C V 154;2NZ9 C D 155;24.3686
2NZ9 C V 154;2NZ9 C N 156;3.06639
2NZ9 C V 154;2NZ9 C A 157;19.7596
2NZ9 C V 154;2NZ9 C Q 159;24.1497
2NZ9 C V 154;2NZ9 C L 183;8.13849
2NZ9 C V 154;2NZ9 C L 185;2.95054
2NZ9 C V 154;2NZ9 C H 193;23.4858
2NZ9 C V 154;2NZ9 C K 194;0.0735768
2NZ9 C V 154;2NZ9 C V 195;6.95196
2NZ9 C V 154;2NZ9 C Y 196;25.461
2NZ9 C V 154;2NZ9 C A 197;0.250316
2NZ9 C D 155;2NZ9 C N 156;35.8981
2NZ9 C D 155;2NZ9 C A 157;11.5816
2NZ9 C D 155;2NZ9 C K 192;0.305126
2NZ9 C D 155;2NZ9 C H 193;19.0012
2NZ9 C D 155;2NZ9 C K 194;13.1987
2NZ9 C D 155;2NZ9 C V 195;24.0798
2NZ9 C N 156;2NZ9 C A 157;21.8927
2NZ9 C N 156;2NZ9 C L 158;1.69547
2NZ9 C N 156;2NZ9 C V 195;1.5298
2NZ9 C A 157;2NZ9 C L 158;29.0689
2NZ9 C A 157;2NZ9 C Q 159;12.9632
2NZ9 C L 158;2NZ9 C Q 159;40.1609
2NZ9 C L 158;2NZ9 C S 160;9.83753
2NZ9 C Q 159;2NZ9 C S 160;31.3945
2NZ9 C Q 159;2NZ9 C N 162;20.2156
2NZ9 C Q 159;2NZ9 C S 163;1.2452
2NZ9 C Q 159;2NZ9 C L 183;8.81659
2NZ9 C Q 159;2NZ9 C L 185;9.35815
2NZ9 C Q 159;2NZ9 C H 193;10.1388
2NZ9 C S 160;2NZ9 C G 161;29.3718
2NZ9 C S 160;2NZ9 C N 162;16.912
2NZ9 C S 160;2NZ9 C S 163;1.5551
2NZ9 C G 161;2NZ9 C N 162;23.0023
2NZ9 C G 161;2NZ9 C S 163;20.0413
2NZ9 C G 161;2NZ9 C Q 164;0.436586
2NZ9 C N 162;2NZ9 C S 163;26.955
2NZ9 C N 162;2NZ9 C T 182;0.137767
2NZ9 C N 162;2NZ9 C L 183;18.7522
2NZ9 C N 162;2NZ9 C T 184;25.1176
2NZ9 C N 162;2NZ9 C L 185;11.8176
2NZ9 C S 163;2NZ9 C Q 164;36.6544
2NZ9 C S 163;2NZ9 C S 181;5.59371
2NZ9 C S 163;2NZ9 C T 182;9.98605
2NZ9 C S 163;2NZ9 C L 183;9.8698
2NZ9 C S 163;2NZ9 C T 184;1.83243
2NZ9 C Q 164;2NZ9 C E 165;31.7073
2NZ9 C Q 164;2NZ9 C S 166;0.705809
2NZ9 C Q 164;2NZ9 C S 180;2.62879
2NZ9 C Q 164;2NZ9 C S 181;3.96967
2NZ9 C Q 164;2NZ9 C T 182;29.9297
2NZ9 C Q 164;2NZ9 C T 184;10.019
2NZ9 C Q 164;2NZ9 D V 174;24.1963
2NZ9 C Q 164;2NZ9 D L 175;9.84429
2NZ9 C Q 164;2NZ9 D Q 176;21.328
2NZ9 C Q 164;2NZ9 D S 177;3.71438
2NZ9 C E 165;2NZ9 C S 166;24.7498
2NZ9 C E 165;2NZ9 C V 167;5.11686
2NZ9 C E 165;2NZ9 C L 179;24.5095
2NZ9 C E 165;2NZ9 C S 180;3.94203
2NZ9 C E 165;2NZ9 C S 181;12.7871
2NZ9 C E 165;2NZ9 D V 174;10.2661
2NZ9 C S 166;2NZ9 C V 167;25.8226
2NZ9 C S 166;2NZ9 C S 178;0.0117741
2NZ9 C S 166;2NZ9 C L 179;9.09261
2NZ9 C S 166;2NZ9 C S 180;19.8891
2NZ9 C S 166;2NZ9 C T 182;2.38761
2NZ9 C S 166;2NZ9 D F 171;15.6173
2NZ9 C S 166;2NZ9 D P 172;18.7502
2NZ9 C S 166;2NZ9 D A 173;0.0377256
2NZ9 C S 166;2NZ9 D V 174;19.0271
2NZ9 C S 166;2NZ9 D S 184;0.872424
2NZ9 C V 167;2NZ9 C T 168;33.3002
2NZ9 C V 167;2NZ9 C E 169;1.22397
2NZ9 C V 167;2NZ9 C Y 177;10.1875
2NZ9 C V 167;2NZ9 C S 178;9.02642
2NZ9 C V 167;2NZ9 C L 179;20.237
2NZ9 C V 167;2NZ9 D F 171;3.08158
2NZ9 C V 167;2NZ9 D P 172;19.9843
2NZ9 C T 168;2NZ9 C E 169;42.5873
2NZ9 C T 168;2NZ9 C D 171;3.00075
2NZ9 C T 168;2NZ9 C T 176;0.131724
2NZ9 C T 168;2NZ9 C Y 177;9.92832
2NZ9 C T 168;2NZ9 C S 178;23.4752
2NZ9 C T 168;2NZ9 D H 169;15.1044
2NZ9 C T 168;2NZ9 D T 170;14.1833
2NZ9 C T 168;2NZ9 D F 171;14.3991
2NZ9 C T 168;2NZ9 D P 172;7.43413
2NZ9 C E 169;2NZ9 C Q 170;24.9911
2NZ9 C E 169;2NZ9 C D 171;8.75216
2NZ9 C E 169;2NZ9 C T 176;4.45631
2NZ9 C E 169;2NZ9 C Y 177;14.5849
2NZ9 C Q 170;2NZ9 C D 171;17.8279
2NZ9 C Q 170;2NZ9 C S 172;12.1792
2NZ9 C Q 170;2NZ9 C D 174;0.225057
2NZ9 C Q 170;2NZ9 C S 175;25.5832
2NZ9 C Q 170;2NZ9 C T 176;5.99184
2NZ9 C Q 170;2NZ9 C Y 177;22.3769
2NZ9 C D 171;2NZ9 C S 172;18.2759
2NZ9 C D 171;2NZ9 C K 173;8.02288
2NZ9 C D 171;2NZ9 C D 174;13.6013
2NZ9 C D 171;2NZ9 C S 175;0.0206983
2NZ9 C D 171;2NZ9 C T 176;18.3549
2NZ9 C D 171;2NZ9 D H 169;16.1349
2NZ9 C S 172;2NZ9 C K 173;30.2781
2NZ9 C S 172;2NZ9 C D 174;3.14279
2NZ9 C S 172;2NZ9 C S 175;10.7217
2NZ9 C K 173;2NZ9 C D 174;32.1216
2NZ9 C K 173;2NZ9 C S 175;1.72948
2NZ9 C D 174;2NZ9 C S 175;18.7752
2NZ9 C D 174;2NZ9 C T 176;30.0567
2NZ9 C S 175;2NZ9 C T 176;17.7408
2NZ9 C S 175;2NZ9 C Y 177;2.90935
2NZ9 C T 176;2NZ9 C Y 177;27.2558
2NZ9 C T 176;2NZ9 D H 169;0.0952102
2NZ9 C Y 177;2NZ9 C S 178;23.1834
2NZ9 C S 178;2NZ9 C L 179;15.5845
2NZ9 C S 178;2NZ9 D H 169;15.9692
2NZ9 C S 178;2NZ9 D F 171;11.7591
2NZ9 C S 178;2NZ9 D V 186;0.18392
2NZ9 C L 179;2NZ9 C S 180;19.9897
2NZ9 C L 179;2NZ9 C S 181;7.11296
2NZ9 C L 179;2NZ9 D F 171;8.10981
2NZ9 C S 180;2NZ9 C S 181;18.0458
2NZ9 C S 180;2NZ9 C T 182;9.74864
2NZ9 C S 180;2NZ9 D F 171;20.9452
2NZ9 C S 180;2NZ9 D S 184;13.4415
2NZ9 C S 180;2NZ9 D V 186;2.34031
2NZ9 C S 181;2NZ9 C T 182;21.1513
2NZ9 C S 181;2NZ9 C L 183;0.00513437
2NZ9 C S 181;2NZ9 C C 198;0.0978754
2NZ9 C T 182;2NZ9 C L 183;17.7075
2NZ9 C T 182;2NZ9 C T 184;17.042
2NZ9 C T 182;2NZ9 D L 146;8.27437
2NZ9 C T 182;2NZ9 D K 148;0.697258
2NZ9 C T 182;2NZ9 D V 174;8.90734
2NZ9 C T 182;2NZ9 D S 182;7.10377
2NZ9 C T 182;2NZ9 D S 184;6.238
2NZ9 C L 183;2NZ9 C T 184;19.0393
2NZ9 C L 183;2NZ9 C L 185;20.8113
2NZ9 C L 183;2NZ9 C Y 196;7.23204
2NZ9 C T 184;2NZ9 C L 185;29.16
2NZ9 C T 184;2NZ9 D K 148;15.7953
2NZ9 C T 184;2NZ9 D Q 176;2.44975
2NZ9 C L 185;2NZ9 C S 186;27.3415
2NZ9 C L 185;2NZ9 C K 187;0.0169557
2NZ9 C L 185;2NZ9 C D 189;14.6956
2NZ9 C L 185;2NZ9 C Y 190;15.7692
2NZ9 C L 185;2NZ9 C H 193;3.48675
2NZ9 C L 185;2NZ9 C Y 196;14.5218
2NZ9 C S 186;2NZ9 C K 187;19.7901
2NZ9 C S 186;2NZ9 C A 188;15.3215
2NZ9 C S 186;2NZ9 C D 189;25.3107
2NZ9 C S 186;2NZ9 C Y 190;8.40426
2NZ9 C K 187;2NZ9 C A 188;25.3483
2NZ9 C K 187;2NZ9 C D 189;0.655387
2NZ9 C K 187;2NZ9 C Y 190;7.21214
2NZ9 C K 187;2NZ9 C E 191;36.7596
2NZ9 C A 188;2NZ9 C D 189;24.0763
2NZ9 C A 188;2NZ9 C Y 190;0.393337
2NZ9 C A 188;2NZ9 C E 191;12.5146
2NZ9 C A 188;2NZ9 C K 192;14.2012
2NZ9 C D 189;2NZ9 C Y 190;19.0461
2NZ9 C D 189;2NZ9 C E 191;1.59865
2NZ9 C D 189;2NZ9 C K 192;35.9768
2NZ9 C D 189;2NZ9 C H 193;13.9686
2NZ9 C D 189;2NZ9 C Y 196;0.364817
2NZ9 C Y 190;2NZ9 C E 191;23.3847
2NZ9 C Y 190;2NZ9 C K 192;1.35088
2NZ9 C Y 190;2NZ9 C H 193;7.92361
2NZ9 C Y 190;2NZ9 C Y 196;29.6204
2NZ9 C Y 190;2NZ9 C F 213;8.32024
2NZ9 C Y 190;2NZ9 C R 215;31.9504
2NZ9 C E 191;2NZ9 C K 192;23.9968
2NZ9 C E 191;2NZ9 C H 193;3.26314
2NZ9 C E 191;2NZ9 C R 215;30.2972
2NZ9 C K 192;2NZ9 C H 193;45.1801
2NZ9 C K 192;2NZ9 C R 215;0.046117
2NZ9 C H 193;2NZ9 C K 194;27.5107
2NZ9 C H 193;2NZ9 C V 195;0.00209234
2NZ9 C H 193;2NZ9 C Y 196;17.8384
2NZ9 C H 193;2NZ9 C R 215;14.5053
2NZ9 C K 194;2NZ9 C V 195;31.0729
2NZ9 C K 194;2NZ9 C Y 196;10.5902
2NZ9 C K 194;2NZ9 C F 213;2.45577
2NZ9 C K 194;2NZ9 C N 214;25.475
2NZ9 C K 194;2NZ9 C R 215;27.1269
2NZ9 C V 195;2NZ9 C Y 196;22.7504
2NZ9 C V 195;2NZ9 C A 197;5.65487
2NZ9 C V 195;2NZ9 C S 212;10.8925
2NZ9 C V 195;2NZ9 C F 213;10.2364
2NZ9 C V 195;2NZ9 C N 214;20.7661
2NZ9 C Y 196;2NZ9 C A 197;23.0259
2NZ9 C Y 196;2NZ9 C K 211;0.330278
2NZ9 C Y 196;2NZ9 C S 212;5.0463
2NZ9 C Y 196;2NZ9 C F 213;36.2055
2NZ9 C Y 196;2NZ9 C R 215;4.48711
2NZ9 C A 197;2NZ9 C C 198;21.6111
2NZ9 C A 197;2NZ9 C E 199;0.664596
2NZ9 C A 197;2NZ9 C T 210;8.24864
2NZ9 C A 197;2NZ9 C K 211;8.97903
2NZ9 C A 197;2NZ9 C S 212;12.9553
2NZ9 C C 198;2NZ9 C E 199;21.28
2NZ9 C C 198;2NZ9 C V 200;5.57528
2NZ9 C C 198;2NZ9 C V 209;0.269901
2NZ9 C C 198;2NZ9 C T 210;5.96045
2NZ9 C C 198;2NZ9 C K 211;19.5522
2NZ9 C E 199;2NZ9 C V 200;25.149
2NZ9 C E 199;2NZ9 C T 201;8.21082
2NZ9 C E 199;2NZ9 C P 208;16.9648
2NZ9 C E 199;2NZ9 C V 209;7.42704
2NZ9 C E 199;2NZ9 C T 210;21.8037
2NZ9 C V 200;2NZ9 C T 201;25.2263
2NZ9 C V 200;2NZ9 C H 202;5.60427
2NZ9 C V 200;2NZ9 C L 205;13.0022
2NZ9 C V 200;2NZ9 C P 208;7.99492
2NZ9 C V 200;2NZ9 C V 209;21.6815
2NZ9 C T 201;2NZ9 C H 202;32.8256
2NZ9 C T 201;2NZ9 C L 205;4.88632
2NZ9 C T 201;2NZ9 C P 208;27.5373
2NZ9 C H 202;2NZ9 C Q 203;33.2344
2NZ9 C H 202;2NZ9 C G 204;12.5358
2NZ9 C H 202;2NZ9 C L 205;30.2073
2NZ9 C Q 203;2NZ9 C G 204;20.0388
2NZ9 C Q 203;2NZ9 C L 205;5.05304
2NZ9 C G 204;2NZ9 C L 205;24.7835
2NZ9 C G 204;2NZ9 C S 206;5.17589
2NZ9 C L 205;2NZ9 C S 206;27.9044
2NZ9 C L 205;2NZ9 C S 207;15.8515
2NZ9 C L 205;2NZ9 C P 208;4.40871
2NZ9 C L 205;2NZ9 C V 209;29.4006
2NZ9 C S 206;2NZ9 C S 207;33.9553
2NZ9 C S 207;2NZ9 C P 208;43.9565
2NZ9 C S 207;2NZ9 C V 209;9.50106
2NZ9 C P 208;2NZ9 C V 209;24.5103
2NZ9 C P 208;2NZ9 C T 210;4.32949
2NZ9 C V 209;2NZ9 C T 210;31.6459
2NZ9 C V 209;2NZ9 C K 211;7.16598
2NZ9 C T 210;2NZ9 C K 211;29.186
2NZ9 C T 210;2NZ9 C S 212;15.6459
2NZ9 C K 211;2NZ9 C S 212;23.494
2NZ9 C K 211;2NZ9 D T 136;1.58988
2NZ9 C S 212;2NZ9 C F 213;30.4499
2NZ9 C S 212;2NZ9 D K 134;0.897281
2NZ9 C F 213;2NZ9 C N 214;38.1446
2NZ9 C F 213;2NZ9 C R 215;8.19738
2NZ9 C F 213;2NZ9 D S 132;0.965818
2NZ9 C N 214;2NZ9 C R 215;24.1915
2NZ9 C N 214;2NZ9 C G 216;13.9388
2NZ9 C R 215;2NZ9 C G 216;30.4147
2NZ9 D V 2;2NZ9 D Q 3;35.7174
2NZ9 D V 2;2NZ9 D L 4;0.751146
2NZ9 D V 2;2NZ9 D S 25;5.44372
2NZ9 D V 2;2NZ9 D G 26;27.8174
2NZ9 D V 2;2NZ9 D F 27;18.3529
2NZ9 D V 2;2NZ9 D Y 107;33.3251
2NZ9 D Q 3;2NZ9 D L 4;40.592
2NZ9 D Q 3;2NZ9 D Q 5;16.91
2NZ9 D Q 3;2NZ9 D A 23;0.0813324
2NZ9 D Q 3;2NZ9 D A 24;2.53895
2NZ9 D Q 3;2NZ9 D S 25;31.1458
2NZ9 D Q 3;2NZ9 D F 27;1.86081
2NZ9 D Q 3;2NZ9 D Y 107;0.176178
2NZ9 D Q 3;2NZ9 D W 108;1.65521
2NZ9 D L 4;2NZ9 D Q 5;28.7895
2NZ9 D L 4;2NZ9 D E 6;0.034595
2NZ9 D L 4;2NZ9 D C 22;8.14737
2NZ9 D L 4;2NZ9 D A 23;9.73185
2NZ9 D L 4;2NZ9 D A 24;13.4472
2NZ9 D L 4;2NZ9 D S 25;0.416955
2NZ9 D L 4;2NZ9 D F 27;17.008
2NZ9 D L 4;2NZ9 D M 34;9.58799
2NZ9 D L 4;2NZ9 D C 96;12.0279
2NZ9 D L 4;2NZ9 D S 97;4.29948
2NZ9 D L 4;2NZ9 D R 98;6.83343
2NZ9 D L 4;2NZ9 D Y 107;12.6544
2NZ9 D L 4;2NZ9 D W 108;12.2859
2NZ9 D L 4;2NZ9 D G 109;16.0672
2NZ9 D L 4;2NZ9 D Q 110;4.5934
2NZ9 D Q 5;2NZ9 D E 6;22.6832
2NZ9 D Q 5;2NZ9 D S 7;10.4439
2NZ9 D Q 5;2NZ9 D S 21;4.33605
2NZ9 D Q 5;2NZ9 D C 22;5.20763
2NZ9 D Q 5;2NZ9 D A 23;27.8569
2NZ9 D Q 5;2NZ9 D C 96;1.04183
2NZ9 D Q 5;2NZ9 D G 109;0.689229
2NZ9 D Q 5;2NZ9 D Q 110;24.1284
2NZ9 D E 6;2NZ9 D S 7;20.4546
2NZ9 D E 6;2NZ9 D L 20;0.69505
2NZ9 D E 6;2NZ9 D S 21;3.15461
2NZ9 D E 6;2NZ9 D C 22;11.5179
2NZ9 D E 6;2NZ9 D W 36;10.0552
2NZ9 D E 6;2NZ9 D Y 94;6.90325
2NZ9 D E 6;2NZ9 D Y 95;6.40015
2NZ9 D E 6;2NZ9 D C 96;17.2113
2NZ9 D E 6;2NZ9 D G 109;13.8807
2NZ9 D E 6;2NZ9 D Q 110;18.9977
2NZ9 D E 6;2NZ9 D G 111;12.9304
2NZ9 D E 6;2NZ9 D T 112;18.7598
2NZ9 D S 7;2NZ9 D G 8;26.0481
2NZ9 D S 7;2NZ9 D L 20;7.81515
2NZ9 D S 7;2NZ9 D S 21;29.2978
2NZ9 D S 7;2NZ9 D Q 110;0.940736
2NZ9 D S 7;2NZ9 D T 112;12.1485
2NZ9 D G 8;2NZ9 D G 9;28.2387
2NZ9 D G 8;2NZ9 D L 18;13.658
2NZ9 D G 8;2NZ9 D R 19;10.1679
2NZ9 D G 8;2NZ9 D L 20;7.47553
2NZ9 D G 8;2NZ9 D S 21;3.04118
2NZ9 D G 8;2NZ9 D T 112;3.97753
2NZ9 D G 9;2NZ9 D G 10;25.0959
2NZ9 D G 9;2NZ9 D L 18;7.37067
2NZ9 D G 9;2NZ9 D L 20;5.84875
2NZ9 D G 9;2NZ9 D T 112;15.6636
2NZ9 D G 9;2NZ9 D L 113;7.50676
2NZ9 D G 9;2NZ9 D V 114;5.81509
2NZ9 D G 10;2NZ9 D L 11;25.8184
2NZ9 D G 10;2NZ9 D V 12;9.54721
2NZ9 D G 10;2NZ9 D L 18;9.68788
2NZ9 D G 10;2NZ9 D L 113;8.28142
2NZ9 D G 10;2NZ9 D V 114;6.61873
2NZ9 D G 10;2NZ9 D T 115;13.9091
2NZ9 D L 11;2NZ9 D V 12;31.0156
2NZ9 D L 11;2NZ9 D Q 13;3.90365
2NZ9 D L 11;2NZ9 D T 115;18.9419
2NZ9 D L 11;2NZ9 D S 117;14.8317
2NZ9 D L 11;2NZ9 D A 119;13.5478
2NZ9 D L 11;2NZ9 D S 120;2.26769
2NZ9 D L 11;2NZ9 D T 121;21.579
2NZ9 D L 11;2NZ9 D F 151;11.2808
2NZ9 D L 11;2NZ9 D P 152;19.2495
2NZ9 D V 12;2NZ9 D Q 13;33.3589
2NZ9 D V 12;2NZ9 D P 14;0.00606999
2NZ9 D V 12;2NZ9 D G 16;9.50118
2NZ9 D V 12;2NZ9 D S 17;11.7795
2NZ9 D V 12;2NZ9 D L 18;22.9177
2NZ9 D V 12;2NZ9 D L 86;14.9028
2NZ9 D V 12;2NZ9 D V 114;1.50032
2NZ9 D V 12;2NZ9 D T 115;11.7725
2NZ9 D V 12;2NZ9 D V 116;10.7026
2NZ9 D V 12;2NZ9 D S 117;6.52924
2NZ9 D Q 13;2NZ9 D P 14;31.581
2NZ9 D Q 13;2NZ9 D G 15;1.05048
2NZ9 D Q 13;2NZ9 D G 16;15.8843
2NZ9 D Q 13;2NZ9 D L 86;3.1582
2NZ9 D Q 13;2NZ9 D V 116;3.313
2NZ9 D Q 13;2NZ9 D S 117;9.25462
2NZ9 D Q 13;2NZ9 D S 118;18.492
2NZ9 D Q 13;2NZ9 D A 119;2.16732
2NZ9 D P 14;2NZ9 D G 15;24.4111
2NZ9 D P 14;2NZ9 D G 16;3.29571
2NZ9 D P 14;2NZ9 D L 86;5.20085
2NZ9 D P 14;2NZ9 D R 87;2.50173
2NZ9 D P 14;2NZ9 D A 88;2.7035
2NZ9 D P 14;2NZ9 D V 116;13.2389
2NZ9 D P 14;2NZ9 D S 117;13.4839
2NZ9 D P 14;2NZ9 D S 118;24.1686
2NZ9 D G 15;2NZ9 D G 16;24.7868
2NZ9 D G 15;2NZ9 D S 17;3.12563
2NZ9 D G 15;2NZ9 D S 85;20.3313
2NZ9 D G 15;2NZ9 D L 86;13.5741
2NZ9 D G 16;2NZ9 D S 17;24.2437
2NZ9 D G 16;2NZ9 D N 84;1.50983
2NZ9 D G 16;2NZ9 D S 85;3.66603
2NZ9 D G 16;2NZ9 D L 86;13.5097
2NZ9 D S 17;2NZ9 D L 18;25.1275
2NZ9 D S 17;2NZ9 D Q 82;4.86459
2NZ9 D S 17;2NZ9 D M 83;6.11993
2NZ9 D S 17;2NZ9 D N 84;19.8283
2NZ9 D S 17;2NZ9 D S 85;5.11043
2NZ9 D S 17;2NZ9 D L 86;3.92347
2NZ9 D L 18;2NZ9 D R 19;34.4562
2NZ9 D L 18;2NZ9 D L 20;8.29518
2NZ9 D L 18;2NZ9 D L 81;2.19611
2NZ9 D L 18;2NZ9 D Q 82;10.2642
2NZ9 D L 18;2NZ9 D M 83;27.558
2NZ9 D L 18;2NZ9 D L 86;10.3592
2NZ9 D L 18;2NZ9 D V 114;12.7847
2NZ9 D R 19;2NZ9 D L 20;25.4446
2NZ9 D R 19;2NZ9 D S 21;11.9466
2NZ9 D R 19;2NZ9 D S 71;3.91687
2NZ9 D R 19;2NZ9 D Y 80;42.7861
2NZ9 D R 19;2NZ9 D L 81;6.52355
2NZ9 D R 19;2NZ9 D Q 82;24.9165
2NZ9 D L 20;2NZ9 D S 21;20.5127
2NZ9 D L 20;2NZ9 D W 36;17.0389
2NZ9 D L 20;2NZ9 D L 79;0.00433695
2NZ9 D L 20;2NZ9 D Y 80;7.86394
2NZ9 D L 20;2NZ9 D L 81;23.5118
2NZ9 D L 20;2NZ9 D M 83;15.6908
2NZ9 D L 20;2NZ9 D Y 94;16.483
2NZ9 D L 20;2NZ9 D T 112;13.4072
2NZ9 D L 20;2NZ9 D V 114;11.4238
2NZ9 D S 21;2NZ9 D C 22;18.5769
2NZ9 D S 21;2NZ9 D A 23;3.5342
2NZ9 D S 21;2NZ9 D W 36;2.19964
2NZ9 D S 21;2NZ9 D T 78;8.23454
2NZ9 D S 21;2NZ9 D L 79;4.43866
2NZ9 D S 21;2NZ9 D Y 80;14.6199
2NZ9 D C 22;2NZ9 D A 23;23.1113
2NZ9 D C 22;2NZ9 D A 24;4.39959
2NZ9 D C 22;2NZ9 D M 34;5.76711
2NZ9 D C 22;2NZ9 D W 36;11.3626
2NZ9 D C 22;2NZ9 D N 77;0.403577
2NZ9 D C 22;2NZ9 D T 78;8.97724
2NZ9 D C 22;2NZ9 D L 79;26.3659
2NZ9 D C 22;2NZ9 D C 96;18.5769
2NZ9 D A 23;2NZ9 D A 24;25.2129
2NZ9 D A 23;2NZ9 D N 77;4.51373
2NZ9 D A 23;2NZ9 D T 78;9.90859
2NZ9 D A 24;2NZ9 D S 25;31.6375
2NZ9 D A 24;2NZ9 D F 27;7.17114
2NZ9 D A 24;2NZ9 D F 29;16.915
2NZ9 D A 24;2NZ9 D M 34;2.16845
2NZ9 D A 24;2NZ9 D N 77;31.2645
2NZ9 D A 24;2NZ9 D T 78;0.107383
2NZ9 D A 24;2NZ9 D L 79;0.00215218
2NZ9 D S 25;2NZ9 D G 26;27.5902
2NZ9 D S 25;2NZ9 D F 27;16.0161
2NZ9 D S 25;2NZ9 D N 77;2.65928
2NZ9 D G 26;2NZ9 D F 27;31.1164
2NZ9 D F 27;2NZ9 D T 28;30.8938
2NZ9 D F 27;2NZ9 D F 29;25.7663
2NZ9 D F 27;2NZ9 D H 32;10.7635
2NZ9 D F 27;2NZ9 D M 34;5.67724
2NZ9 D F 27;2NZ9 D N 77;0.963034
2NZ9 D F 27;2NZ9 D R 98;31.6105
2NZ9 D F 27;2NZ9 D Y 107;6.48753
2NZ9 D T 28;2NZ9 D F 29;19.1445
2NZ9 D T 28;2NZ9 D S 30;17.47
2NZ9 D T 28;2NZ9 D D 31;26.9631
2NZ9 D T 28;2NZ9 D H 32;11.3862
2NZ9 D F 29;2NZ9 D S 30;21.9133
2NZ9 D F 29;2NZ9 D D 31;5.11965
2NZ9 D F 29;2NZ9 D H 32;10.3295
2NZ9 D F 29;2NZ9 D M 34;20.1849
2NZ9 D F 29;2NZ9 D R 72;25.8922
2NZ9 D F 29;2NZ9 D D 73;1.00008
2NZ9 D F 29;2NZ9 D N 74;17.2043
2NZ9 D F 29;2NZ9 D N 77;30.2429
2NZ9 D F 29;2NZ9 D T 78;13.4862
2NZ9 D F 29;2NZ9 D L 79;9.29152
2NZ9 D S 30;2NZ9 D D 31;25.5706
2NZ9 D S 30;2NZ9 D D 53;10.9373
2NZ9 D S 30;2NZ9 D G 54;0.690914
2NZ9 D S 30;2NZ9 D R 72;3.74016
2NZ9 D S 30;2NZ9 D N 74;28.6652
2NZ9 D S 30;2NZ9 D N 77;1.50278
2NZ9 D D 31;2NZ9 D H 32;33.4264
2NZ9 D D 31;2NZ9 D Y 33;0.538119
2NZ9 D D 31;2NZ9 D D 53;14.6501
2NZ9 D D 31;2NZ9 D R 72;0.118751
2NZ9 D H 32;2NZ9 D Y 33;23.8333
2NZ9 D H 32;2NZ9 D M 34;9.56943
2NZ9 D H 32;2NZ9 D D 53;8.35232
2NZ9 D H 32;2NZ9 D R 72;9.54882
2NZ9 D H 32;2NZ9 D R 98;32.9398
2NZ9 D H 32;2NZ9 D Y 99;10.2245
2NZ9 D H 32;2NZ9 D R 100;9.8643
2NZ9 D H 32;2NZ9 D Y 101;8.00977
2NZ9 D Y 33;2NZ9 D M 34;20.8937
2NZ9 D Y 33;2NZ9 D Y 35;10.895
2NZ9 D Y 33;2NZ9 D T 50;13.3248
2NZ9 D Y 33;2NZ9 D I 51;6.59166
2NZ9 D Y 33;2NZ9 D S 52;24.4779
2NZ9 D Y 33;2NZ9 D D 53;14.5656
2NZ9 D Y 33;2NZ9 D Y 57;5.35417
2NZ9 D Y 33;2NZ9 D Y 59;16.8074
2NZ9 D Y 33;2NZ9 D R 72;1.02584
2NZ9 D Y 33;2NZ9 D S 97;0.338934
2NZ9 D Y 33;2NZ9 D R 98;1.72126
2NZ9 D Y 33;2NZ9 D Y 99;30.3859
2NZ9 D Y 33;2NZ9 D Y 101;2.12325
2NZ9 D M 34;2NZ9 D Y 35;24.0761
2NZ9 D M 34;2NZ9 D W 36;1.2261
2NZ9 D M 34;2NZ9 D A 49;0.574907
2NZ9 D M 34;2NZ9 D T 50;4.80383
2NZ9 D M 34;2NZ9 D I 51;23.6804
2NZ9 D M 34;2NZ9 D R 72;12.5472
2NZ9 D M 34;2NZ9 D L 79;24.5413
2NZ9 D M 34;2NZ9 D C 96;3.51625
2NZ9 D M 34;2NZ9 D S 97;13.8784
2NZ9 D M 34;2NZ9 D R 98;13.2431
2NZ9 D Y 35;2NZ9 D W 36;22.5346
2NZ9 D Y 35;2NZ9 D V 37;5.2922
2NZ9 D Y 35;2NZ9 D W 47;10.7806
2NZ9 D Y 35;2NZ9 D A 49;4.96238
2NZ9 D Y 35;2NZ9 D T 50;23.3959
2NZ9 D Y 35;2NZ9 D L 79;5.42738
2NZ9 D Y 35;2NZ9 D Y 95;1.30341
2NZ9 D Y 35;2NZ9 D C 96;5.93521
2NZ9 D Y 35;2NZ9 D S 97;25.3534
2NZ9 D Y 35;2NZ9 D R 98;0.0710904
2NZ9 D Y 35;2NZ9 D Y 99;30.9453
2NZ9 D Y 35;2NZ9 D M 105;25.7823
2NZ9 D W 36;2NZ9 D V 37;21.6658
2NZ9 D W 36;2NZ9 D W 47;4.76581
2NZ9 D W 36;2NZ9 D V 48;18.004
2NZ9 D W 36;2NZ9 D A 49;24.7741
2NZ9 D W 36;2NZ9 D I 51;0.571657
2NZ9 D W 36;2NZ9 D T 70;12.5905
2NZ9 D W 36;2NZ9 D L 79;20.4563
2NZ9 D W 36;2NZ9 D Y 80;8.82444
2NZ9 D W 36;2NZ9 D L 81;30.573
2NZ9 D W 36;2NZ9 D Y 94;13.3875
2NZ9 D W 36;2NZ9 D Y 95;10.1522
2NZ9 D W 36;2NZ9 D C 96;15.2083
2NZ9 D W 36;2NZ9 D T 112;0.0257758
2NZ9 D V 37;2NZ9 D R 38;21.0179
2NZ9 D V 37;2NZ9 D L 45;11.0598
2NZ9 D V 37;2NZ9 D E 46;10.8008
2NZ9 D V 37;2NZ9 D W 47;12.8894
2NZ9 D V 37;2NZ9 D V 48;3.98675
2NZ9 D V 37;2NZ9 D I 93;0.0352794
2NZ9 D V 37;2NZ9 D Y 94;3.02691
2NZ9 D V 37;2NZ9 D Y 95;29.2871
2NZ9 D V 37;2NZ9 D S 97;3.38392
2NZ9 D V 37;2NZ9 D M 105;11.465
2NZ9 D V 37;2NZ9 D W 108;15.5021
2NZ9 D R 38;2NZ9 D Q 39;21.6905
2NZ9 D R 38;2NZ9 D A 40;1.493
2NZ9 D R 38;2NZ9 D G 44;0.627442
2NZ9 D R 38;2NZ9 D L 45;4.33034
2NZ9 D R 38;2NZ9 D E 46;46.4411
2NZ9 D R 38;2NZ9 D V 48;21.1846
2NZ9 D R 38;2NZ9 D S 63;8.65769
2NZ9 D R 38;2NZ9 D V 64;14.6066
2NZ9 D R 38;2NZ9 D R 67;2.01907
2NZ9 D R 38;2NZ9 D F 68;4.25781
2NZ9 D R 38;2NZ9 D E 89;13.7451
2NZ9 D R 38;2NZ9 D D 90;16.8861
2NZ9 D R 38;2NZ9 D A 92;13.1882
2NZ9 D R 38;2NZ9 D I 93;5.91845
2NZ9 D R 38;2NZ9 D Y 94;26.3956
2NZ9 D R 38;2NZ9 D Y 95;2.51375
2NZ9 D Q 39;2NZ9 D A 40;29.9557
2NZ9 D Q 39;2NZ9 D P 41;2.49399
2NZ9 D Q 39;2NZ9 D G 42;5.36023
2NZ9 D Q 39;2NZ9 D K 43;13.4901
2NZ9 D Q 39;2NZ9 D G 44;8.85037
2NZ9 D Q 39;2NZ9 D L 45;20.2285
2NZ9 D Q 39;2NZ9 D E 46;0.402606
2NZ9 D Q 39;2NZ9 D A 92;7.6559
2NZ9 D Q 39;2NZ9 D I 93;27.5029
2NZ9 D Q 39;2NZ9 D Y 95;16.3975
2NZ9 D A 40;2NZ9 D P 41;25.3777
2NZ9 D A 40;2NZ9 D G 42;5.01206
2NZ9 D A 40;2NZ9 D K 43;34.3049
2NZ9 D A 40;2NZ9 D G 44;4.45597
2NZ9 D A 40;2NZ9 D E 89;1.04441
2NZ9 D A 40;2NZ9 D T 91;10.5653
2NZ9 D A 40;2NZ9 D A 92;10.3048
2NZ9 D P 41;2NZ9 D G 42;29.0968
2NZ9 D P 41;2NZ9 D K 43;10.5732
2NZ9 D P 41;2NZ9 D T 91;22.8953
2NZ9 D P 41;2NZ9 D A 92;6.55012
2NZ9 D P 41;2NZ9 D I 93;5.17039
2NZ9 D P 41;2NZ9 D L 113;9.74923
2NZ9 D G 42;2NZ9 D K 43;33.3539
2NZ9 D K 43;2NZ9 D G 44;35.739
2NZ9 D K 43;2NZ9 D L 45;0.218966
2NZ9 D G 44;2NZ9 D L 45;27.2236
2NZ9 D G 44;2NZ9 D E 46;3.48203
2NZ9 D L 45;2NZ9 D E 46;24.5003
2NZ9 D L 45;2NZ9 D Y 95;6.81294
2NZ9 D L 45;2NZ9 D W 108;5.28152
2NZ9 D E 46;2NZ9 D W 47;30.3965
2NZ9 D E 46;2NZ9 D V 48;6.22001
2NZ9 D E 46;2NZ9 D S 61;4.16797
2NZ9 D E 46;2NZ9 D S 63;14.7835
2NZ9 D E 46;2NZ9 D V 64;0.209548
2NZ9 D W 47;2NZ9 D V 48;23.3803
2NZ9 D W 47;2NZ9 D A 49;13.1199
2NZ9 D W 47;2NZ9 D T 50;12.6699
2NZ9 D W 47;2NZ9 D Y 59;11.3513
2NZ9 D W 47;2NZ9 D Y 60;8.68278
2NZ9 D W 47;2NZ9 D S 61;26.6832
2NZ9 D W 47;2NZ9 D M 105;1.61118
2NZ9 D V 48;2NZ9 D A 49;23.1016
2NZ9 D V 48;2NZ9 D Y 60;7.27836
2NZ9 D V 48;2NZ9 D S 61;12.392
2NZ9 D V 48;2NZ9 D V 64;18.6374
2NZ9 D V 48;2NZ9 D F 68;10.099
2NZ9 D V 48;2NZ9 D L 81;9.91648
2NZ9 D V 48;2NZ9 D Y 94;7.37142
2NZ9 D A 49;2NZ9 D T 50;17.8774
2NZ9 D A 49;2NZ9 D I 51;0.240183
2NZ9 D A 49;2NZ9 D Y 59;5.24762
2NZ9 D A 49;2NZ9 D Y 60;13.5116
2NZ9 D A 49;2NZ9 D F 68;0.0542583
2NZ9 D A 49;2NZ9 D T 70;10.4464
2NZ9 D A 49;2NZ9 D L 81;4.90779
2NZ9 D T 50;2NZ9 D I 51;23.153
2NZ9 D T 50;2NZ9 D S 52;0.532755
2NZ9 D T 50;2NZ9 D Y 57;0.206718
2NZ9 D T 50;2NZ9 D T 58;5.58614
2NZ9 D T 50;2NZ9 D Y 59;30.5006
2NZ9 D T 50;2NZ9 D T 70;4.656
2NZ9 D I 51;2NZ9 D S 52;24.4476
2NZ9 D I 51;2NZ9 D G 55;17.9715
2NZ9 D I 51;2NZ9 D S 56;0.00921191
2NZ9 D I 51;2NZ9 D Y 57;7.72043
2NZ9 D I 51;2NZ9 D T 58;13.2699
2NZ9 D I 51;2NZ9 D Y 59;0.385311
2NZ9 D I 51;2NZ9 D T 70;19.5497
2NZ9 D I 51;2NZ9 D S 71;11.4633
2NZ9 D I 51;2NZ9 D R 72;18.5747
2NZ9 D I 51;2NZ9 D L 79;11.147
2NZ9 D S 52;2NZ9 D D 53;18.4039
2NZ9 D S 52;2NZ9 D G 54;1.15865
2NZ9 D S 52;2NZ9 D G 55;7.95086
2NZ9 D S 52;2NZ9 D S 56;2.30313
2NZ9 D S 52;2NZ9 D Y 57;23.174
2NZ9 D S 52;2NZ9 D Y 59;2.33781
2NZ9 D S 52;2NZ9 D R 72;8.91675
2NZ9 D D 53;2NZ9 D G 54;22.5499
2NZ9 D D 53;2NZ9 D G 55;2.35275
2NZ9 D D 53;2NZ9 D R 72;15.0373
2NZ9 D D 53;2NZ9 D N 74;8.37207
2NZ9 D G 54;2NZ9 D G 55;19.871
2NZ9 D G 54;2NZ9 D S 56;7.06662
2NZ9 D G 54;2NZ9 D R 72;3.0632
2NZ9 D G 54;2NZ9 D N 74;10.0826
2NZ9 D G 55;2NZ9 D S 56;25.0567
2NZ9 D G 55;2NZ9 D Y 57;1.34208
2NZ9 D G 55;2NZ9 D T 58;2.01718
2NZ9 D G 55;2NZ9 D S 71;1.3547
2NZ9 D G 55;2NZ9 D R 72;13.5698
2NZ9 D S 56;2NZ9 D Y 57;43.7588
2NZ9 D S 56;2NZ9 D T 58;2.60862
2NZ9 D Y 57;2NZ9 D T 58;26.3744
2NZ9 D Y 57;2NZ9 D Y 59;17.8041
2NZ9 D T 58;2NZ9 D Y 59;24.5831
2NZ9 D T 58;2NZ9 D Y 60;26.4479
2NZ9 D T 58;2NZ9 D T 70;14.4493
2NZ9 D Y 59;2NZ9 D Y 60;27.835
2NZ9 D Y 59;2NZ9 D T 70;0.249378
2NZ9 D Y 60;2NZ9 D S 61;21.7235
2NZ9 D Y 60;2NZ9 D D 62;4.40414
2NZ9 D Y 60;2NZ9 D V 64;9.63394
2NZ9 D Y 60;2NZ9 D E 65;32.8567
2NZ9 D Y 60;2NZ9 D G 66;2.62308
2NZ9 D Y 60;2NZ9 D F 68;16.1081
2NZ9 D Y 60;2NZ9 D T 69;18.6816
2NZ9 D Y 60;2NZ9 D T 70;18.4457
2NZ9 D Y 60;2NZ9 D L 81;1.84225
2NZ9 D S 61;2NZ9 D D 62;20.4603
2NZ9 D S 61;2NZ9 D S 63;16.5418
2NZ9 D S 61;2NZ9 D V 64;11.343
2NZ9 D S 61;2NZ9 D E 65;6.89392
2NZ9 D D 62;2NZ9 D S 63;29.3706
2NZ9 D D 62;2NZ9 D V 64;0.56904
2NZ9 D D 62;2NZ9 D E 65;30.9502
2NZ9 D S 63;2NZ9 D V 64;26.0034
2NZ9 D S 63;2NZ9 D E 65;3.84915
2NZ9 D S 63;2NZ9 D R 67;11.6332
2NZ9 D S 63;2NZ9 D R 87;7.35542
2NZ9 D V 64;2NZ9 D E 65;19.8374
2NZ9 D V 64;2NZ9 D G 66;1.5147
2NZ9 D V 64;2NZ9 D R 67;22.2048
2NZ9 D V 64;2NZ9 D F 68;32.9325
2NZ9 D V 64;2NZ9 D D 90;1.99805
2NZ9 D E 65;2NZ9 D G 66;30.1932
2NZ9 D E 65;2NZ9 D R 67;10.5438
2NZ9 D E 65;2NZ9 D F 68;0.108933
2NZ9 D G 66;2NZ9 D R 67;26.8607
2NZ9 D G 66;2NZ9 D F 68;10.0342
2NZ9 D R 67;2NZ9 D F 68;37.0755
2NZ9 D R 67;2NZ9 D T 69;1.70551
2NZ9 D R 67;2NZ9 D Q 82;0.663865
2NZ9 D R 67;2NZ9 D M 83;0.922165
2NZ9 D R 67;2NZ9 D N 84;27.9652
2NZ9 D R 67;2NZ9 D S 85;22.1062
2NZ9 D R 67;2NZ9 D L 86;2.34825
2NZ9 D R 67;2NZ9 D R 87;41.003
2NZ9 D R 67;2NZ9 D E 89;0.252896
2NZ9 D R 67;2NZ9 D D 90;18.1092
2NZ9 D F 68;2NZ9 D T 69;27.4984
2NZ9 D F 68;2NZ9 D L 81;16.2969
2NZ9 D F 68;2NZ9 D Q 82;7.02003
2NZ9 D F 68;2NZ9 D M 83;22.119
2NZ9 D F 68;2NZ9 D N 84;6.74504
2NZ9 D F 68;2NZ9 D L 86;8.45018
2NZ9 D F 68;2NZ9 D D 90;9.52632
2NZ9 D F 68;2NZ9 D Y 94;12.2587
2NZ9 D T 69;2NZ9 D T 70;27.3632
2NZ9 D T 69;2NZ9 D S 71;3.95605
2NZ9 D T 69;2NZ9 D Y 80;0.453241
2NZ9 D T 69;2NZ9 D L 81;10.6429
2NZ9 D T 69;2NZ9 D Q 82;32.2412
2NZ9 D T 69;2NZ9 D N 84;3.74004
2NZ9 D T 70;2NZ9 D S 71;28.0743
2NZ9 D T 70;2NZ9 D L 79;5.97099
2NZ9 D T 70;2NZ9 D Y 80;8.98191
2NZ9 D T 70;2NZ9 D L 81;6.18539
2NZ9 D S 71;2NZ9 D R 72;26.2302
2NZ9 D S 71;2NZ9 D L 79;7.08716
2NZ9 D S 71;2NZ9 D Y 80;29.3854
2NZ9 D S 71;2NZ9 D Q 82;1.12647
2NZ9 D R 72;2NZ9 D D 73;24.0111
2NZ9 D R 72;2NZ9 D N 74;22.3513
2NZ9 D R 72;2NZ9 D T 78;5.73491
2NZ9 D R 72;2NZ9 D L 79;11.0979
2NZ9 D R 72;2NZ9 D Y 80;5.24257
2NZ9 D D 73;2NZ9 D N 74;19.6082
2NZ9 D D 73;2NZ9 D S 75;15.9225
2NZ9 D D 73;2NZ9 D K 76;29.1724
2NZ9 D D 73;2NZ9 D N 77;2.84008
2NZ9 D D 73;2NZ9 D T 78;16.9558
2NZ9 D D 73;2NZ9 D Y 80;19.1539
2NZ9 D N 74;2NZ9 D S 75;26.8737
2NZ9 D N 74;2NZ9 D K 76;1.75747
2NZ9 D N 74;2NZ9 D N 77;14.1046
2NZ9 D S 75;2NZ9 D K 76;45.2218
2NZ9 D S 75;2NZ9 D N 77;5.86559
2NZ9 D K 76;2NZ9 D N 77;27.9771
2NZ9 D K 76;2NZ9 D T 78;19.0813
2NZ9 D K 76;2NZ9 D Y 80;1.48619
2NZ9 D N 77;2NZ9 D T 78;19.8209
2NZ9 D T 78;2NZ9 D L 79;24.3996
2NZ9 D T 78;2NZ9 D Y 80;25.4475
2NZ9 D L 79;2NZ9 D Y 80;25.6708
2NZ9 D L 79;2NZ9 D C 96;8.08649
2NZ9 D L 79;2NZ9 D S 97;0.282871
2NZ9 D Y 80;2NZ9 D L 81;18.5314
2NZ9 D Y 80;2NZ9 D Q 82;3.38938
2NZ9 D L 81;2NZ9 D Q 82;24.5919
2NZ9 D L 81;2NZ9 D M 83;17.3914
2NZ9 D L 81;2NZ9 D Y 94;9.91497
2NZ9 D Q 82;2NZ9 D M 83;26.1459
2NZ9 D Q 82;2NZ9 D N 84;19.788
2NZ9 D M 83;2NZ9 D N 84;21.6188
2NZ9 D M 83;2NZ9 D L 86;18.8654
2NZ9 D M 83;2NZ9 D Y 94;11.6656
2NZ9 D M 83;2NZ9 D V 114;10.2451
2NZ9 D N 84;2NZ9 D S 85;28.1985
2NZ9 D N 84;2NZ9 D L 86;10.0221
2NZ9 D S 85;2NZ9 D L 86;18.748
2NZ9 D S 85;2NZ9 D R 87;7.47857
2NZ9 D L 86;2NZ9 D R 87;23.7446
2NZ9 D L 86;2NZ9 D D 90;15.095
2NZ9 D L 86;2NZ9 D Y 94;0.630697
2NZ9 D L 86;2NZ9 D V 114;8.5407
2NZ9 D L 86;2NZ9 D V 116;20.8354
2NZ9 D R 87;2NZ9 D A 88;20.0505
2NZ9 D R 87;2NZ9 D E 89;32.1033
2NZ9 D R 87;2NZ9 D D 90;18.8574
2NZ9 D R 87;2NZ9 D T 91;0.0812365
2NZ9 D R 87;2NZ9 D V 116;12.1679
2NZ9 D A 88;2NZ9 D E 89;29.2384
2NZ9 D A 88;2NZ9 D D 90;2.70453
2NZ9 D A 88;2NZ9 D T 91;17.1342
2NZ9 D A 88;2NZ9 D V 116;22.405
2NZ9 D A 88;2NZ9 D S 117;1.62308
2NZ9 D E 89;2NZ9 D D 90;21.3117
2NZ9 D E 89;2NZ9 D T 91;8.07523
2NZ9 D E 89;2NZ9 D A 92;0.540976
2NZ9 D D 90;2NZ9 D T 91;18.0609
2NZ9 D D 90;2NZ9 D A 92;6.19056
2NZ9 D D 90;2NZ9 D Y 94;14.0854
2NZ9 D D 90;2NZ9 D V 114;7.41148
2NZ9 D D 90;2NZ9 D V 116;7.22568
2NZ9 D T 91;2NZ9 D A 92;20.6569
2NZ9 D T 91;2NZ9 D L 113;1.10797
2NZ9 D T 91;2NZ9 D V 114;9.55971
2NZ9 D T 91;2NZ9 D T 115;16.4065
2NZ9 D T 91;2NZ9 D V 116;18.6077
2NZ9 D A 92;2NZ9 D I 93;19.6777
2NZ9 D A 92;2NZ9 D Y 94;13.9375
2NZ9 D A 92;2NZ9 D T 112;0.308063
2NZ9 D A 92;2NZ9 D L 113;8.38671
2NZ9 D A 92;2NZ9 D V 114;15.8593
2NZ9 D I 93;2NZ9 D Y 94;22.7769
2NZ9 D I 93;2NZ9 D Y 95;30.4276
2NZ9 D I 93;2NZ9 D Q 110;2.57042
2NZ9 D I 93;2NZ9 D G 111;14.0892
2NZ9 D I 93;2NZ9 D T 112;6.34176
2NZ9 D I 93;2NZ9 D L 113;25.5791
2NZ9 D Y 94;2NZ9 D Y 95;20.4895
2NZ9 D Y 94;2NZ9 D C 96;0.0494155
2NZ9 D Y 94;2NZ9 D G 111;5.53758
2NZ9 D Y 94;2NZ9 D T 112;18.2402
2NZ9 D Y 94;2NZ9 D V 114;16.4356
2NZ9 D Y 95;2NZ9 D C 96;20.7913
2NZ9 D Y 95;2NZ9 D S 97;1.70592
2NZ9 D Y 95;2NZ9 D W 108;17.8559
2NZ9 D Y 95;2NZ9 D G 109;8.50586
2NZ9 D Y 95;2NZ9 D Q 110;10.3097
2NZ9 D Y 95;2NZ9 D G 111;6.36336
2NZ9 D C 96;2NZ9 D S 97;22.2828
2NZ9 D C 96;2NZ9 D W 108;5.50191
2NZ9 D C 96;2NZ9 D G 109;8.72621
2NZ9 D S 97;2NZ9 D R 98;20.5453
2NZ9 D S 97;2NZ9 D Y 99;1.02079
2NZ9 D S 97;2NZ9 D M 105;14.4464
2NZ9 D S 97;2NZ9 D Y 107;7.8509
2NZ9 D S 97;2NZ9 D W 108;17.2384
2NZ9 D R 98;2NZ9 D Y 99;21.9542
2NZ9 D R 98;2NZ9 D R 100;17.7523
2NZ9 D R 98;2NZ9 D A 104;0.392638
2NZ9 D R 98;2NZ9 D M 105;7.63811
2NZ9 D R 98;2NZ9 D D 106;24.8789
2NZ9 D R 98;2NZ9 D Y 107;34.1599
2NZ9 D Y 99;2NZ9 D R 100;20.1537
2NZ9 D Y 99;2NZ9 D Y 101;20.12
2NZ9 D Y 99;2NZ9 D D 102;15.5985
2NZ9 D Y 99;2NZ9 D D 103;13.3072
2NZ9 D Y 99;2NZ9 D A 104;16.7928
2NZ9 D Y 99;2NZ9 D M 105;14.4124
2NZ9 D R 100;2NZ9 D Y 101;27.1664
2NZ9 D R 100;2NZ9 D D 102;0.277157
2NZ9 D R 100;2NZ9 D D 103;34.2235
2NZ9 D R 100;2NZ9 D A 104;16.3491
2NZ9 D R 100;2NZ9 D D 106;32.1923
2NZ9 D Y 101;2NZ9 D D 102;48.8003
2NZ9 D Y 101;2NZ9 D D 103;3.7278
2NZ9 D D 102;2NZ9 D D 103;28.9307
2NZ9 D D 103;2NZ9 D A 104;21.1628
2NZ9 D A 104;2NZ9 D M 105;20.2743
2NZ9 D A 104;2NZ9 D D 106;7.44541
2NZ9 D M 105;2NZ9 D D 106;16.8729
2NZ9 D M 105;2NZ9 D Y 107;0.368448
2NZ9 D M 105;2NZ9 D W 108;24.2681
2NZ9 D D 106;2NZ9 D Y 107;44.2733
2NZ9 D D 106;2NZ9 D W 108;9.51722
2NZ9 D Y 107;2NZ9 D W 108;29.6268
2NZ9 D W 108;2NZ9 D G 109;26.6256
2NZ9 D G 109;2NZ9 D Q 110;22.1761
2NZ9 D G 109;2NZ9 D G 111;0.740327
2NZ9 D Q 110;2NZ9 D G 111;34.2877
2NZ9 D Q 110;2NZ9 D T 112;5.84267
2NZ9 D G 111;2NZ9 D T 112;20.7318
2NZ9 D G 111;2NZ9 D L 113;1.67023
2NZ9 D T 112;2NZ9 D L 113;29.3844
2NZ9 D T 112;2NZ9 D V 114;4.88901
2NZ9 D L 113;2NZ9 D V 114;27.9098
2NZ9 D L 113;2NZ9 D T 115;17.9585
2NZ9 D L 113;2NZ9 D P 152;0.633007
2NZ9 D L 113;2NZ9 D E 153;14.8297
2NZ9 D L 113;2NZ9 D P 154;15.122
2NZ9 D V 114;2NZ9 D T 115;26.9401
2NZ9 D V 114;2NZ9 D V 116;7.75909
2NZ9 D T 115;2NZ9 D V 116;25.0758
2NZ9 D T 115;2NZ9 D S 117;4.7165
2NZ9 D T 115;2NZ9 D F 151;5.28222
2NZ9 D T 115;2NZ9 D P 152;20.8957
2NZ9 D T 115;2NZ9 D E 153;0.0482532
2NZ9 D V 116;2NZ9 D S 117;29.5432
2NZ9 D S 117;2NZ9 D S 118;20.7696
2NZ9 D S 117;2NZ9 D A 119;16.5881
2NZ9 D S 117;2NZ9 D F 151;15.4824
2NZ9 D S 118;2NZ9 D A 119;29.2234
2NZ9 D S 118;2NZ9 D S 120;3.79613
2NZ9 D A 119;2NZ9 D S 120;32.8112
2NZ9 D A 119;2NZ9 D T 121;0.0255398
2NZ9 D A 119;2NZ9 D F 151;21.4996
2NZ9 D A 119;2NZ9 D G 179;3.76885
2NZ9 D A 119;2NZ9 D L 180;0.17554
2NZ9 D S 120;2NZ9 D T 121;31.7771
2NZ9 D S 120;2NZ9 D K 122;9.75904
2NZ9 D S 120;2NZ9 D F 151;10.6664
2NZ9 D S 120;2NZ9 D L 180;1.73998
2NZ9 D T 121;2NZ9 D K 122;29.097
2NZ9 D T 121;2NZ9 D F 151;8.44626
2NZ9 D T 121;2NZ9 D P 152;10.1221
2NZ9 D T 121;2NZ9 D H 205;3.43446
2NZ9 D T 121;2NZ9 D P 207;18.522
2NZ9 D T 121;2NZ9 D S 208;10.2115
2NZ9 D K 122;2NZ9 D G 123;38.926
2NZ9 D K 122;2NZ9 D P 124;0.178418
2NZ9 D K 122;2NZ9 D S 125;2.53933
2NZ9 D K 122;2NZ9 D D 149;17.6297
2NZ9 D K 122;2NZ9 D Y 150;7.31334
2NZ9 D K 122;2NZ9 D F 151;15.7022
2NZ9 D K 122;2NZ9 D L 180;22.873
2NZ9 D K 122;2NZ9 D H 205;5.66446
2NZ9 D K 122;2NZ9 D S 208;1.83472
2NZ9 D G 123;2NZ9 D P 124;25.2515
2NZ9 D G 123;2NZ9 D S 125;4.71478
2NZ9 D G 123;2NZ9 D D 149;4.22215
2NZ9 D G 123;2NZ9 D Y 150;0.854826
2NZ9 D G 123;2NZ9 D H 205;2.6751
2NZ9 D G 123;2NZ9 D S 208;12.1071
2NZ9 D G 123;2NZ9 D T 210;7.67436
2NZ9 D P 124;2NZ9 D S 125;24.5437
2NZ9 D P 124;2NZ9 D V 126;8.09027
2NZ9 D P 124;2NZ9 D V 147;10.9836
2NZ9 D P 124;2NZ9 D K 148;6.03203
2NZ9 D P 124;2NZ9 D D 149;3.47646
2NZ9 D P 124;2NZ9 D Y 150;16.3771
2NZ9 D P 124;2NZ9 D V 155;6.93019
2NZ9 D P 124;2NZ9 D V 203;5.92903
2NZ9 D P 124;2NZ9 D H 205;15.7744
2NZ9 D P 124;2NZ9 D S 208;1.23231
2NZ9 D P 124;2NZ9 D T 210;17.5834
2NZ9 D P 124;2NZ9 D V 212;7.34262
2NZ9 D S 125;2NZ9 D V 126;25.511
2NZ9 D S 125;2NZ9 D F 127;23.1162
2NZ9 D S 125;2NZ9 D L 146;1.59692
2NZ9 D S 125;2NZ9 D V 147;4.70273
2NZ9 D S 125;2NZ9 D K 148;20.3978
2NZ9 D S 125;2NZ9 D D 149;8.1117
2NZ9 D V 126;2NZ9 D F 127;31.7564
2NZ9 D V 126;2NZ9 D P 128;0.306041
2NZ9 D V 126;2NZ9 D C 145;8.27572
2NZ9 D V 126;2NZ9 D L 146;5.5632
2NZ9 D V 126;2NZ9 D V 147;14.5707
2NZ9 D V 126;2NZ9 D C 201;2.22577
2NZ9 D V 126;2NZ9 D V 203;12.8017
2NZ9 D V 126;2NZ9 D V 212;23.5443
2NZ9 D V 126;2NZ9 D K 214;28.3659
2NZ9 D F 127;2NZ9 D P 128;30.7498
2NZ9 D F 127;2NZ9 D L 129;0.0175273
2NZ9 D F 127;2NZ9 D C 145;6.26276
2NZ9 D F 127;2NZ9 D L 146;33.5098
2NZ9 D F 127;2NZ9 D K 148;13.8109
2NZ9 D F 127;2NZ9 D D 149;1.79682
2NZ9 D F 127;2NZ9 D K 214;2.60671
2NZ9 D P 128;2NZ9 D L 129;26.6177
2NZ9 D P 128;2NZ9 D A 130;11.2688
2NZ9 D P 128;2NZ9 D G 144;2.75504
2NZ9 D P 128;2NZ9 D C 145;2.62526
2NZ9 D P 128;2NZ9 D L 146;1.42343
2NZ9 D P 128;2NZ9 D K 214;24.0042
2NZ9 D P 128;2NZ9 D K 215;4.24458
2NZ9 D P 128;2NZ9 D V 216;16.3319
2NZ9 D P 128;2NZ9 D E 217;4.28327
2NZ9 D L 129;2NZ9 D A 130;19.7185
2NZ9 D L 129;2NZ9 D P 131;2.36154
2NZ9 D L 129;2NZ9 D L 143;5.52046
2NZ9 D L 129;2NZ9 D G 144;21.4887
2NZ9 D L 129;2NZ9 D C 145;8.80686
2NZ9 D L 129;2NZ9 D L 146;17.3469
2NZ9 D L 129;2NZ9 D S 184;7.86906
2NZ9 D L 129;2NZ9 D S 185;1.94425
2NZ9 D L 129;2NZ9 D V 186;8.95599
2NZ9 D L 129;2NZ9 D V 216;7.32566
2NZ9 D A 130;2NZ9 D P 131;22.1847
2NZ9 D A 130;2NZ9 D S 132;8.98757
2NZ9 D A 130;2NZ9 D V 216;3.80914
2NZ9 D A 130;2NZ9 D E 217;9.79516
2NZ9 D A 130;2NZ9 D P 218;11.8047
2NZ9 D P 131;2NZ9 D S 132;22.3147
2NZ9 D P 131;2NZ9 D S 133;13.0111
2NZ9 D P 131;2NZ9 D A 141;10.6504
2NZ9 D P 131;2NZ9 D A 142;12.6325
2NZ9 D P 131;2NZ9 D L 143;19.69
2NZ9 D P 131;2NZ9 D L 194;15.3776
2NZ9 D P 131;2NZ9 D V 216;5.86319
2NZ9 D P 131;2NZ9 D E 217;6.39111
2NZ9 D P 131;2NZ9 D P 218;26.416
2NZ9 D S 132;2NZ9 D S 133;26.8807
2NZ9 D S 132;2NZ9 D K 134;15.5547
2NZ9 D S 132;2NZ9 D S 135;16.3508
2NZ9 D S 132;2NZ9 D A 141;3.26515
2NZ9 D S 133;2NZ9 D K 134;24.9193
2NZ9 D S 133;2NZ9 D S 135;14.7637
2NZ9 D S 133;2NZ9 D P 218;5.49394
2NZ9 D K 134;2NZ9 D S 135;26.8957
2NZ9 D K 134;2NZ9 D T 136;10.0693
2NZ9 D S 135;2NZ9 D T 136;40.9744
2NZ9 D S 135;2NZ9 D S 137;1.82983
2NZ9 D S 135;2NZ9 D T 140;2.6708
2NZ9 D S 135;2NZ9 D A 141;14.8562
2NZ9 D S 135;2NZ9 D S 191;9.67856
2NZ9 D S 135;2NZ9 D L 194;2.64593
2NZ9 D T 136;2NZ9 D S 137;40.3385
2NZ9 D T 136;2NZ9 D G 138;0.27073
2NZ9 D T 136;2NZ9 D G 139;4.60959
2NZ9 D T 136;2NZ9 D S 191;14.155
2NZ9 D S 137;2NZ9 D G 138;39.0243
2NZ9 D S 137;2NZ9 D G 139;5.05066
2NZ9 D S 137;2NZ9 D T 140;4.80675
2NZ9 D S 137;2NZ9 D S 191;0.648264
2NZ9 D G 138;2NZ9 D G 139;30.7019
2NZ9 D G 138;2NZ9 D T 140;6.47153
2NZ9 D G 139;2NZ9 D T 140;40.9255
2NZ9 D G 139;2NZ9 D P 190;0.00744831
2NZ9 D G 139;2NZ9 D S 191;14.7292
2NZ9 D T 140;2NZ9 D A 141;20.6559
2NZ9 D T 140;2NZ9 D T 188;17.9099
2NZ9 D T 140;2NZ9 D V 189;6.52992
2NZ9 D T 140;2NZ9 D P 190;7.08341
2NZ9 D T 140;2NZ9 D S 191;10.0209
2NZ9 D A 141;2NZ9 D A 142;23.2197
2NZ9 D A 141;2NZ9 D L 143;0.310275
2NZ9 D A 141;2NZ9 D V 187;1.0185
2NZ9 D A 141;2NZ9 D T 188;4.55651
2NZ9 D A 141;2NZ9 D V 189;24.2615
2NZ9 D A 141;2NZ9 D P 190;0.124431
2NZ9 D A 141;2NZ9 D S 191;12.8629
2NZ9 D A 141;2NZ9 D L 194;12.006
2NZ9 D A 142;2NZ9 D L 143;19.791
2NZ9 D A 142;2NZ9 D V 186;2.72417
2NZ9 D A 142;2NZ9 D V 187;9.74528
2NZ9 D A 142;2NZ9 D T 188;8.23845
2NZ9 D A 142;2NZ9 D V 189;0.0873706
2NZ9 D L 143;2NZ9 D G 144;21.7212
2NZ9 D L 143;2NZ9 D W 159;9.71044
2NZ9 D L 143;2NZ9 D V 186;8.42277
2NZ9 D L 143;2NZ9 D V 187;27.914
2NZ9 D L 143;2NZ9 D V 189;13.4706
2NZ9 D L 143;2NZ9 D L 194;7.32304
2NZ9 D L 143;2NZ9 D Y 199;22.2407
2NZ9 D L 143;2NZ9 D V 216;21.695
2NZ9 D G 144;2NZ9 D C 145;17.1371
2NZ9 D G 144;2NZ9 D W 159;8.74982
2NZ9 D G 144;2NZ9 D S 185;6.10175
2NZ9 D G 144;2NZ9 D V 186;2.47234
2NZ9 D G 144;2NZ9 D V 187;0.198794
2NZ9 D G 144;2NZ9 D V 216;11.7849
2NZ9 D C 145;2NZ9 D L 146;17.3258
2NZ9 D C 145;2NZ9 D V 147;12.7546
2NZ9 D C 145;2NZ9 D V 157;0.483408
2NZ9 D C 145;2NZ9 D W 159;5.38895
2NZ9 D C 145;2NZ9 D L 183;0.0816259
2NZ9 D C 145;2NZ9 D S 184;7.31329
2NZ9 D C 145;2NZ9 D S 185;20.9457
2NZ9 D C 145;2NZ9 D C 201;19.2727
2NZ9 D C 145;2NZ9 D V 203;0.210042
2NZ9 D C 145;2NZ9 D K 214;6.26991
2NZ9 D C 145;2NZ9 D V 216;6.89627
2NZ9 D L 146;2NZ9 D V 147;19.7078
2NZ9 D L 146;2NZ9 D K 148;25.3584
2NZ9 D L 146;2NZ9 D S 182;6.97766
2NZ9 D L 146;2NZ9 D L 183;9.38838
2NZ9 D L 146;2NZ9 D S 184;12.4379
2NZ9 D V 147;2NZ9 D K 148;17.4034
2NZ9 D V 147;2NZ9 D Y 150;10.1706
2NZ9 D V 147;2NZ9 D V 155;11.6569
2NZ9 D V 147;2NZ9 D V 157;6.95439
2NZ9 D V 147;2NZ9 D S 182;2.89096
2NZ9 D V 147;2NZ9 D L 183;29.0737
2NZ9 D V 147;2NZ9 D S 184;0.167942
2NZ9 D V 147;2NZ9 D S 185;0.971648
2NZ9 D V 147;2NZ9 D V 203;17.6883
2NZ9 D K 148;2NZ9 D D 149;46.4451
2NZ9 D K 148;2NZ9 D Y 150;3.598
2NZ9 D K 148;2NZ9 D Q 176;16.8208
2NZ9 D K 148;2NZ9 D Y 181;0.00653587
2NZ9 D K 148;2NZ9 D S 182;14.0287
2NZ9 D D 149;2NZ9 D Y 150;18.5835
2NZ9 D D 149;2NZ9 D Q 176;10.2846
2NZ9 D D 149;2NZ9 D S 178;5.34026
2NZ9 D D 149;2NZ9 D L 180;23.5765
2NZ9 D D 149;2NZ9 D Y 181;6.66519
2NZ9 D D 149;2NZ9 D S 182;2.14763
2NZ9 D Y 150;2NZ9 D F 151;21.6624
2NZ9 D Y 150;2NZ9 D P 152;5.69771
2NZ9 D Y 150;2NZ9 D E 153;14.7806
2NZ9 D Y 150;2NZ9 D P 154;0.955895
2NZ9 D Y 150;2NZ9 D V 155;24.8601
2NZ9 D Y 150;2NZ9 D A 173;8.50837
2NZ9 D Y 150;2NZ9 D L 180;9.17789
2NZ9 D Y 150;2NZ9 D Y 181;35.0692
2NZ9 D Y 150;2NZ9 D S 182;7.56138
2NZ9 D Y 150;2NZ9 D L 183;11.2576
2NZ9 D Y 150;2NZ9 D H 205;8.55561
2NZ9 D F 151;2NZ9 D P 152;39.1286
2NZ9 D F 151;2NZ9 D L 175;5.51126
2NZ9 D F 151;2NZ9 D G 179;12.8202
2NZ9 D F 151;2NZ9 D L 180;17.5124
2NZ9 D F 151;2NZ9 D Y 181;17.5841
2NZ9 D F 151;2NZ9 D H 205;9.94561
2NZ9 D P 152;2NZ9 D E 153;34.5323
2NZ9 D P 152;2NZ9 D P 154;0.655722
2NZ9 D P 152;2NZ9 D Y 181;7.26442
2NZ9 D P 152;2NZ9 D H 205;10.5323
2NZ9 D P 152;2NZ9 D P 207;15.9057
2NZ9 D E 153;2NZ9 D P 154;43.1865
2NZ9 D E 153;2NZ9 D V 155;4.32023
2NZ9 D E 153;2NZ9 D A 173;20.5962
2NZ9 D E 153;2NZ9 D Y 181;25.7777
2NZ9 D E 153;2NZ9 D L 183;1.10434
2NZ9 D E 153;2NZ9 D H 205;0.016321
2NZ9 D E 153;2NZ9 D P 207;6.00943
2NZ9 D P 154;2NZ9 D V 155;28.0713
2NZ9 D P 154;2NZ9 D T 156;8.31852
2NZ9 D P 154;2NZ9 D N 204;3.64285
2NZ9 D P 154;2NZ9 D H 205;7.213
2NZ9 D P 154;2NZ9 D K 206;3.62112
2NZ9 D P 154;2NZ9 D P 207;13.0799
2NZ9 D V 155;2NZ9 D T 156;32.5556
2NZ9 D V 155;2NZ9 D V 157;6.0985
2NZ9 D V 155;2NZ9 D L 183;20.5747
2NZ9 D V 155;2NZ9 D V 203;6.72964
2NZ9 D V 155;2NZ9 D N 204;7.70527
2NZ9 D V 155;2NZ9 D H 205;15.2238
2NZ9 D T 156;2NZ9 D V 157;32.646
2NZ9 D T 156;2NZ9 D S 158;0.933964
2NZ9 D T 156;2NZ9 D N 202;2.48102
2NZ9 D T 156;2NZ9 D V 203;6.26062
2NZ9 D T 156;2NZ9 D N 204;32.4487
2NZ9 D V 157;2NZ9 D S 158;33.1803
2NZ9 D V 157;2NZ9 D W 159;10.6253
2NZ9 D V 157;2NZ9 D V 168;0.290785
2NZ9 D V 157;2NZ9 D T 170;23.9846
2NZ9 D V 157;2NZ9 D L 183;10.619
2NZ9 D V 157;2NZ9 D S 185;17.3891
2NZ9 D V 157;2NZ9 D C 201;8.66489
2NZ9 D V 157;2NZ9 D N 202;7.38065
2NZ9 D V 157;2NZ9 D V 203;12.3401
2NZ9 D S 158;2NZ9 D W 159;28.6195
2NZ9 D S 158;2NZ9 D S 161;4.67215
2NZ9 D S 158;2NZ9 D G 162;15.8427
2NZ9 D S 158;2NZ9 D T 165;0.15053
2NZ9 D S 158;2NZ9 D C 201;2.34511
2NZ9 D S 158;2NZ9 D N 202;31.0505
2NZ9 D W 159;2NZ9 D N 160;20.0155
2NZ9 D W 159;2NZ9 D S 161;1.44323
2NZ9 D W 159;2NZ9 D G 162;9.43496
2NZ9 D W 159;2NZ9 D A 163;2.70113
2NZ9 D W 159;2NZ9 D L 164;34.4206
2NZ9 D W 159;2NZ9 D T 165;0.114682
2NZ9 D W 159;2NZ9 D V 168;22.2
2NZ9 D W 159;2NZ9 D T 170;0.0427822
2NZ9 D W 159;2NZ9 D S 185;16.5596
2NZ9 D W 159;2NZ9 D V 186;4.12717
2NZ9 D W 159;2NZ9 D V 187;16.442
2NZ9 D W 159;2NZ9 D Y 199;9.68201
2NZ9 D W 159;2NZ9 D I 200;13.881
2NZ9 D W 159;2NZ9 D C 201;18.3857
2NZ9 D W 159;2NZ9 D N 202;3.29473
2NZ9 D W 159;2NZ9 D V 216;6.75529
2NZ9 D N 160;2NZ9 D S 161;25.5113
2NZ9 D N 160;2NZ9 D G 162;1.07636
2NZ9 D N 160;2NZ9 D A 163;21.2981
2NZ9 D N 160;2NZ9 D L 164;18.6285
2NZ9 D N 160;2NZ9 D Q 197;13.697
2NZ9 D N 160;2NZ9 D T 198;6.78252
2NZ9 D N 160;2NZ9 D Y 199;9.43357
2NZ9 D N 160;2NZ9 D I 200;26.9802
2NZ9 D N 160;2NZ9 D N 202;5.1794
2NZ9 D S 161;2NZ9 D G 162;23.7427
2NZ9 D S 161;2NZ9 D A 163;4.17289
2NZ9 D S 161;2NZ9 D N 202;21.0374
2NZ9 D G 162;2NZ9 D A 163;23.3399
2NZ9 D G 162;2NZ9 D L 164;2.60952
2NZ9 D G 162;2NZ9 D T 165;18.4916
2NZ9 D G 162;2NZ9 D N 202;0.105787
2NZ9 D A 163;2NZ9 D L 164;24.9209
2NZ9 D A 163;2NZ9 D T 165;8.26313
2NZ9 D L 164;2NZ9 D T 165;27.9215
2NZ9 D L 164;2NZ9 D S 166;16.3621
2NZ9 D L 164;2NZ9 D V 168;12.0167
2NZ9 D L 164;2NZ9 D V 187;13.7221
2NZ9 D L 164;2NZ9 D T 188;0.0948525
2NZ9 D L 164;2NZ9 D V 189;9.4912
2NZ9 D L 164;2NZ9 D Y 199;18.8021
2NZ9 D T 165;2NZ9 D S 166;33.5815
2NZ9 D T 165;2NZ9 D G 167;1.34222
2NZ9 D T 165;2NZ9 D V 168;24.1386
2NZ9 D S 166;2NZ9 D G 167;27.624
2NZ9 D S 166;2NZ9 D V 168;4.5513
2NZ9 D S 166;2NZ9 D V 187;2.33638
2NZ9 D S 166;2NZ9 D T 188;2.95571
2NZ9 D G 167;2NZ9 D V 168;22.3291
2NZ9 D G 167;2NZ9 D H 169;12.374
2NZ9 D G 167;2NZ9 D V 186;0.0901477
2NZ9 D G 167;2NZ9 D V 187;10.9132
2NZ9 D G 167;2NZ9 D T 188;26.481
2NZ9 D V 168;2NZ9 D H 169;37.4931
2NZ9 D V 168;2NZ9 D T 170;8.25687
2NZ9 D V 168;2NZ9 D S 185;2.96791
2NZ9 D V 168;2NZ9 D V 186;6.44321
2NZ9 D V 168;2NZ9 D V 187;13.6798
2NZ9 D H 169;2NZ9 D T 170;24.5638
2NZ9 D H 169;2NZ9 D F 171;10.1925
2NZ9 D H 169;2NZ9 D S 184;0.122246
2NZ9 D H 169;2NZ9 D S 185;6.19115
2NZ9 D H 169;2NZ9 D V 186;29.8509
2NZ9 D H 169;2NZ9 D V 187;0.553526
2NZ9 D H 169;2NZ9 D T 188;2.75353
2NZ9 D T 170;2NZ9 D F 171;30.9055
2NZ9 D T 170;2NZ9 D P 172;1.84262
2NZ9 D T 170;2NZ9 D L 183;11.3982
2NZ9 D T 170;2NZ9 D S 184;4.25852
2NZ9 D T 170;2NZ9 D S 185;11.9224
2NZ9 D F 171;2NZ9 D P 172;34.2774
2NZ9 D F 171;2NZ9 D L 183;14.1023
2NZ9 D F 171;2NZ9 D S 184;25.2873
2NZ9 D F 171;2NZ9 D S 185;0.952693
2NZ9 D F 171;2NZ9 D V 186;15.0703
2NZ9 D P 172;2NZ9 D A 173;31.4792
2NZ9 D P 172;2NZ9 D V 174;4.67661
2NZ9 D P 172;2NZ9 D S 182;0.698546
2NZ9 D P 172;2NZ9 D L 183;9.21112
2NZ9 D A 173;2NZ9 D V 174;25.6657
2NZ9 D A 173;2NZ9 D L 175;0.856188
2NZ9 D A 173;2NZ9 D Y 181;15.2705
2NZ9 D A 173;2NZ9 D S 182;6.25998
2NZ9 D A 173;2NZ9 D L 183;11.5989
2NZ9 D V 174;2NZ9 D L 175;23.8436
2NZ9 D V 174;2NZ9 D Q 176;9.19541
2NZ9 D V 174;2NZ9 D L 180;0.829742
2NZ9 D V 174;2NZ9 D Y 181;8.19944
2NZ9 D V 174;2NZ9 D S 182;27.5201
2NZ9 D V 174;2NZ9 D L 183;2.37162
2NZ9 D L 175;2NZ9 D Q 176;31.0985
2NZ9 D L 175;2NZ9 D S 177;0.362312
2NZ9 D L 175;2NZ9 D G 179;18.3718
2NZ9 D L 175;2NZ9 D L 180;8.35253
2NZ9 D L 175;2NZ9 D Y 181;35.9083
2NZ9 D Q 176;2NZ9 D S 177;27.5514
2NZ9 D Q 176;2NZ9 D S 178;16.9097
2NZ9 D Q 176;2NZ9 D G 179;6.17757
2NZ9 D Q 176;2NZ9 D L 180;20.9232
2NZ9 D Q 176;2NZ9 D Y 181;5.20022
2NZ9 D Q 176;2NZ9 D S 182;18.0238
2NZ9 D S 177;2NZ9 D S 178;26.539
2NZ9 D S 177;2NZ9 D G 179;4.28441
2NZ9 D S 178;2NZ9 D G 179;25.2048
2NZ9 D S 178;2NZ9 D L 180;22.2432
2NZ9 D G 179;2NZ9 D L 180;26.8724
2NZ9 D L 180;2NZ9 D Y 181;20.6558
2NZ9 D Y 181;2NZ9 D S 182;16.5415
2NZ9 D S 182;2NZ9 D L 183;23.1488
2NZ9 D L 183;2NZ9 D S 184;34.1232
2NZ9 D L 183;2NZ9 D S 185;2.22038
2NZ9 D S 184;2NZ9 D S 185;22.1644
2NZ9 D S 184;2NZ9 D V 186;5.08124
2NZ9 D S 185;2NZ9 D V 186;24.0789
2NZ9 D S 185;2NZ9 D C 201;0.612132
2NZ9 D V 186;2NZ9 D V 187;25.6716
2NZ9 D V 186;2NZ9 D T 188;9.30748e-05
2NZ9 D V 187;2NZ9 D T 188;24.4193
2NZ9 D V 187;2NZ9 D V 189;16.4982
2NZ9 D V 187;2NZ9 D Y 199;1.81816
2NZ9 D T 188;2NZ9 D V 189;29.4451
2NZ9 D V 189;2NZ9 D P 190;35.8155
2NZ9 D V 189;2NZ9 D S 191;2.35287
2NZ9 D V 189;2NZ9 D S 193;0.834326
2NZ9 D V 189;2NZ9 D L 194;8.10079
2NZ9 D V 189;2NZ9 D Y 199;24.3545
2NZ9 D P 190;2NZ9 D S 191;18.153
2NZ9 D P 190;2NZ9 D S 192;17.0452
2NZ9 D P 190;2NZ9 D S 193;26.1265
2NZ9 D P 190;2NZ9 D L 194;4.97342
2NZ9 D P 190;2NZ9 D Y 199;6.86487
2NZ9 D S 191;2NZ9 D S 192;29.0404
2NZ9 D S 191;2NZ9 D L 194;22.4752
2NZ9 D S 192;2NZ9 D S 193;25.6466
2NZ9 D S 192;2NZ9 D L 194;10.145
2NZ9 D S 192;2NZ9 D G 195;2.04686
2NZ9 D S 192;2NZ9 D T 196;1.50814
2NZ9 D S 193;2NZ9 D L 194;18.6834
2NZ9 D S 193;2NZ9 D T 196;14.0525
2NZ9 D S 193;2NZ9 D Q 197;17.3009
2NZ9 D S 193;2NZ9 D Y 199;16.2328
2NZ9 D L 194;2NZ9 D G 195;31.2534
2NZ9 D L 194;2NZ9 D T 196;7.97748
2NZ9 D L 194;2NZ9 D Q 197;12.4263
2NZ9 D L 194;2NZ9 D T 198;1.3414
2NZ9 D L 194;2NZ9 D Y 199;11.8577
2NZ9 D L 194;2NZ9 D P 218;22.7211
2NZ9 D G 195;2NZ9 D T 196;33.3897
2NZ9 D G 195;2NZ9 D Q 197;0.093564
2NZ9 D G 195;2NZ9 D T 198;2.27212
2NZ9 D T 196;2NZ9 D Q 197;30.252
2NZ9 D T 196;2NZ9 D T 198;11.1977
2NZ9 D Q 197;2NZ9 D T 198;39.5759
2NZ9 D Q 197;2NZ9 D Y 199;27.8282
2NZ9 D T 198;2NZ9 D Y 199;29.4443
2NZ9 D T 198;2NZ9 D I 200;12.4867
2NZ9 D T 198;2NZ9 D K 215;29.4077
2NZ9 D Y 199;2NZ9 D I 200;21.6764
2NZ9 D Y 199;2NZ9 D K 214;0.416316
2NZ9 D Y 199;2NZ9 D K 215;7.85724
2NZ9 D Y 199;2NZ9 D V 216;21.8066
2NZ9 D I 200;2NZ9 D C 201;19.9494
2NZ9 D I 200;2NZ9 D N 202;11.1098
2NZ9 D I 200;2NZ9 D D 213;16.5453
2NZ9 D I 200;2NZ9 D K 214;9.30824
2NZ9 D I 200;2NZ9 D K 215;21.0257
2NZ9 D I 200;2NZ9 D V 216;0.00475478
2NZ9 D C 201;2NZ9 D N 202;19.7231
2NZ9 D C 201;2NZ9 D V 203;12.8327
2NZ9 D C 201;2NZ9 D V 212;3.69685
2NZ9 D C 201;2NZ9 D D 213;1.94261
2NZ9 D C 201;2NZ9 D K 214;21.8791
2NZ9 D C 201;2NZ9 D V 216;3.37048
2NZ9 D N 202;2NZ9 D V 203;23.0211
2NZ9 D N 202;2NZ9 D N 204;3.59322
2NZ9 D N 202;2NZ9 D V 212;1.79246
2NZ9 D N 202;2NZ9 D D 213;25.7739
2NZ9 D V 203;2NZ9 D N 204;29.4827
2NZ9 D V 203;2NZ9 D H 205;2.38308
2NZ9 D V 203;2NZ9 D T 210;3.50868
2NZ9 D V 203;2NZ9 D K 211;3.87146
2NZ9 D V 203;2NZ9 D V 212;30.1142
2NZ9 D V 203;2NZ9 D D 213;2.03184
2NZ9 D N 204;2NZ9 D H 205;19.9481
2NZ9 D N 204;2NZ9 D K 206;21.0403
2NZ9 D N 204;2NZ9 D T 210;6.7605
2NZ9 D N 204;2NZ9 D K 211;35.6044
2NZ9 D N 204;2NZ9 D D 213;0.904527
2NZ9 D H 205;2NZ9 D K 206;16.8387
2NZ9 D H 205;2NZ9 D P 207;19.7826
2NZ9 D H 205;2NZ9 D S 208;19.1998
2NZ9 D H 205;2NZ9 D N 209;4.7408
2NZ9 D H 205;2NZ9 D T 210;20.0339
2NZ9 D K 206;2NZ9 D P 207;32.6768
2NZ9 D K 206;2NZ9 D S 208;1.58965
2NZ9 D K 206;2NZ9 D N 209;23.1701
2NZ9 D P 207;2NZ9 D S 208;21.6444
2NZ9 D P 207;2NZ9 D N 209;2.12068
2NZ9 D S 208;2NZ9 D N 209;29.4252
2NZ9 D S 208;2NZ9 D T 210;19.461
2NZ9 D N 209;2NZ9 D T 210;22.3457
2NZ9 D N 209;2NZ9 D K 211;9.64682
2NZ9 D T 210;2NZ9 D K 211;25.3063
2NZ9 D T 210;2NZ9 D V 212;16.2255
2NZ9 D K 211;2NZ9 D V 212;28.8659
2NZ9 D K 211;2NZ9 D D 213;7.08177
2NZ9 D V 212;2NZ9 D D 213;29.6123
2NZ9 D V 212;2NZ9 D K 214;11.3977
2NZ9 D D 213;2NZ9 D K 214;21.3307
2NZ9 D D 213;2NZ9 D K 215;4.42065
2NZ9 D K 214;2NZ9 D K 215;31.3533
2NZ9 D K 214;2NZ9 D V 216;9.70853
2NZ9 D K 215;2NZ9 D V 216;22.8343
2NZ9 D K 215;2NZ9 D E 217;43.5223
2NZ9 D V 216;2NZ9 D E 217;30.4134
2NZ9 D V 216;2NZ9 D P 218;0.0413455
2NZ9 D E 217;2NZ9 D P 218;41.729
