V1;V2;Weight
3D3V A G 1;3D3V A S 2;30.179
3D3V A G 1;3D3V A H 3;13.5792
3D3V A G 1;3D3V A G 104;3.74267
3D3V A G 1;3D3V A S 105;25.7343
3D3V A G 1;3D3V A W 107;1.25258
3D3V A G 1;3D3V A E 264;8.56248
3D3V A S 2;3D3V A H 3;35.1541
3D3V A S 2;3D3V A D 29;2.59356
3D3V A S 2;3D3V A D 102;3.76819
3D3V A S 2;3D3V A V 103;8.01709
3D3V A S 2;3D3V A G 104;10.8026
3D3V A S 2;3D3V A S 105;1.05651
3D3V A S 2;3D3V A L 110;11.5775
3D3V A S 2;3D3V A E 264;3.8254
3D3V A H 3;3D3V A S 4;23.1277
3D3V A H 3;3D3V A V 28;0.474727
3D3V A H 3;3D3V A D 29;23.2187
3D3V A H 3;3D3V A D 102;6.31141
3D3V A H 3;3D3V A V 103;22.1306
3D3V A H 3;3D3V A G 104;2.2726
3D3V A H 3;3D3V A W 107;14.3012
3D3V A H 3;3D3V A L 168;7.36501
3D3V A H 3;3D3V A L 172;26.0543
3D3V A H 3;3D3V A L 179;6.6781
3D3V A H 3;3D3V A Q 180;14.4841
3D3V A S 4;3D3V A M 5;18.5894
3D3V A S 4;3D3V A R 6;22.5846
3D3V A S 4;3D3V A V 28;6.60234
3D3V A S 4;3D3V A D 29;25.5296
3D3V A S 4;3D3V A C 101;6.57428
3D3V A S 4;3D3V A D 102;11.4627
3D3V A S 4;3D3V A V 103;0.00673637
3D3V A S 4;3D3V A Y 113;2.70792
3D3V A S 4;3D3V A L 168;12.7718
3D3V A M 5;3D3V A R 6;26.1092
3D3V A M 5;3D3V A Y 7;15.9862
3D3V A M 5;3D3V A Y 27;8.00769
3D3V A M 5;3D3V A V 28;8.88598
3D3V A M 5;3D3V A D 29;0.124775
3D3V A M 5;3D3V A F 33;7.86017
3D3V A M 5;3D3V A G 100;6.49483
3D3V A M 5;3D3V A C 101;16.9019
3D3V A M 5;3D3V A Y 159;6.37467
3D3V A M 5;3D3V A T 163;0.603431
3D3V A M 5;3D3V A C 164;21.8521
3D3V A M 5;3D3V A W 167;6.01895
3D3V A M 5;3D3V A L 168;20.7688
3D3V A M 5;3D3V A Y 171;11.3296
3D3V A M 5;3D3V C L 1;10.2648
3D3V A R 6;3D3V A Y 7;22.6958
3D3V A R 6;3D3V A F 8;27.2245
3D3V A R 6;3D3V A V 25;0.31954
3D3V A R 6;3D3V A G 26;2.49586
3D3V A R 6;3D3V A Y 27;24.6579
3D3V A R 6;3D3V A D 29;8.14562
3D3V A R 6;3D3V A D 30;2.45329
3D3V A R 6;3D3V A F 33;0.0597475
3D3V A R 6;3D3V A M 98;18.2518
3D3V A R 6;3D3V A Y 99;4.22877
3D3V A R 6;3D3V A G 100;7.36751
3D3V A R 6;3D3V A C 101;0.467063
3D3V A R 6;3D3V A D 102;3.50237
3D3V A R 6;3D3V A Y 113;24.7749
3D3V A Y 7;3D3V A F 8;19.3582
3D3V A Y 7;3D3V A F 9;18.0954
3D3V A Y 7;3D3V A A 24;1.76329
3D3V A Y 7;3D3V A V 25;11.9027
3D3V A Y 7;3D3V A G 26;11.4361
3D3V A Y 7;3D3V A F 33;12.7919
3D3V A Y 7;3D3V A V 34;9.86716
3D3V A Y 7;3D3V A M 45;6.96335
3D3V A Y 7;3D3V A Y 59;2.69441
3D3V A Y 7;3D3V A E 63;5.21992
3D3V A Y 7;3D3V A R 97;0.56039
3D3V A Y 7;3D3V A M 98;9.92191
3D3V A Y 7;3D3V A Y 99;29.0072
3D3V A Y 7;3D3V A G 100;1.72045
3D3V A Y 7;3D3V A Y 159;6.19184
3D3V A Y 7;3D3V A Y 171;0.157141
3D3V A Y 7;3D3V C L 1;14.4803
3D3V A Y 7;3D3V C L 2;21.3596
3D3V A F 8;3D3V A F 9;22.2675
3D3V A F 8;3D3V A T 10;1.16775
3D3V A F 8;3D3V A I 23;1.80984
3D3V A F 8;3D3V A A 24;5.94871
3D3V A F 8;3D3V A V 25;29.105
3D3V A F 8;3D3V A Y 27;20.1621
3D3V A F 8;3D3V A R 97;2.30662
3D3V A F 8;3D3V A M 98;20.8079
3D3V A F 8;3D3V B L 54;0.490363
3D3V A F 8;3D3V B S 55;14.3222
3D3V A F 8;3D3V B F 56;36.6422
3D3V A F 8;3D3V B S 57;2.37139
3D3V A F 8;3D3V B Y 63;2.43568
3D3V A F 9;3D3V A T 10;21.3511
3D3V A F 9;3D3V A S 11;0.114901
3D3V A F 9;3D3V A F 22;14.2932
3D3V A F 9;3D3V A I 23;4.75035
3D3V A F 9;3D3V A A 24;15.3937
3D3V A F 9;3D3V A V 25;0.111863
3D3V A F 9;3D3V A V 67;4.66767
3D3V A F 9;3D3V A H 70;17.8392
3D3V A F 9;3D3V A H 74;12.0434
3D3V A F 9;3D3V A V 95;0.454975
3D3V A F 9;3D3V A Q 96;6.12906
3D3V A F 9;3D3V A R 97;30.449
3D3V A F 9;3D3V A M 98;0.955117
3D3V A F 9;3D3V A Y 99;14.9199
3D3V A F 9;3D3V B F 56;9.47101
3D3V A F 9;3D3V C L 2;11.3958
3D3V A T 10;3D3V A S 11;22.2351
3D3V A T 10;3D3V A V 12;11.2116
3D3V A T 10;3D3V A R 21;1.76012
3D3V A T 10;3D3V A F 22;11.7543
3D3V A T 10;3D3V A I 23;25.2549
3D3V A T 10;3D3V A H 74;0.00591044
3D3V A T 10;3D3V A T 94;6.87012
3D3V A T 10;3D3V A V 95;5.28078
3D3V A T 10;3D3V A Q 96;8.07296
3D3V A T 10;3D3V B S 33;2.91807
3D3V A T 10;3D3V B L 54;19.4494
3D3V A T 10;3D3V B S 55;1.52687
3D3V A T 10;3D3V B F 56;10.9242
3D3V A T 10;3D3V B F 62;13.0011
3D3V A S 11;3D3V A V 12;19.9479
3D3V A S 11;3D3V A P 20;7.1028
3D3V A S 11;3D3V A R 21;8.72664
3D3V A S 11;3D3V A F 22;12.2249
3D3V A S 11;3D3V A S 71;0.671033
3D3V A S 11;3D3V A H 74;18.5447
3D3V A S 11;3D3V A R 75;2.49184
3D3V A S 11;3D3V A L 78;14.5055
3D3V A S 11;3D3V A H 93;0.618152
3D3V A S 11;3D3V A T 94;4.13159
3D3V A S 11;3D3V A V 95;23.5758
3D3V A V 12;3D3V A S 13;21.3236
3D3V A V 12;3D3V A R 14;10.9551
3D3V A V 12;3D3V A P 20;7.37077
3D3V A V 12;3D3V A R 21;32.9278
3D3V A V 12;3D3V A L 78;3.6958
3D3V A V 12;3D3V A S 92;10.2485
3D3V A V 12;3D3V A H 93;6.23864
3D3V A V 12;3D3V A T 94;14.9984
3D3V A V 12;3D3V B P 32;0.573927
3D3V A V 12;3D3V B S 33;17.7591
3D3V A V 12;3D3V B D 34;11.8548
3D3V A V 12;3D3V B L 54;2.18265
3D3V A S 13;3D3V A R 14;24.683
3D3V A S 13;3D3V A P 15;9.3181
3D3V A S 13;3D3V A P 20;10.3321
3D3V A S 13;3D3V A L 78;20.8512
3D3V A S 13;3D3V A R 82;9.42678
3D3V A S 13;3D3V A G 91;5.81531
3D3V A S 13;3D3V A S 92;13.3383
3D3V A S 13;3D3V A H 93;18.8114
3D3V A R 14;3D3V A P 15;27.6751
3D3V A R 14;3D3V A G 16;1.94818
3D3V A R 14;3D3V A R 17;57.798
3D3V A R 14;3D3V A G 18;14.4126
3D3V A R 14;3D3V A E 19;16.282
3D3V A R 14;3D3V A P 20;10.6018
3D3V A R 14;3D3V A R 21;29.3063
3D3V A R 14;3D3V A S 38;3.83637
3D3V A R 14;3D3V A D 39;18.9575
3D3V A R 14;3D3V A S 92;0.449708
3D3V A P 15;3D3V A G 16;26.751
3D3V A P 15;3D3V A R 17;12.9653
3D3V A P 15;3D3V A E 89;12.3708
3D3V A P 15;3D3V A A 90;17.6252
3D3V A P 15;3D3V A G 91;10.3663
3D3V A P 15;3D3V A S 92;16.2269
3D3V A G 16;3D3V A R 17;27.7473
3D3V A G 16;3D3V A G 18;6.50009
3D3V A R 17;3D3V A G 18;24.9777
3D3V A R 17;3D3V A E 19;5.4748
3D3V A R 17;3D3V B D 34;5.69714
3D3V A G 18;3D3V A E 19;30.9272
3D3V A G 18;3D3V A P 20;7.14898
3D3V A E 19;3D3V A P 20;39.5896
3D3V A E 19;3D3V A R 75;30.0389
3D3V A P 20;3D3V A R 21;22.546
3D3V A P 20;3D3V A F 22;3.26758
3D3V A P 20;3D3V A S 38;6.78683
3D3V A P 20;3D3V A R 75;24.8575
3D3V A P 20;3D3V A L 78;12.1634
3D3V A R 21;3D3V A F 22;23.9289
3D3V A R 21;3D3V A I 23;23.2016
3D3V A R 21;3D3V A D 37;17.8796
3D3V A R 21;3D3V A S 38;7.02764
3D3V A R 21;3D3V A D 39;27.3212
3D3V A R 21;3D3V B S 33;0.395644
3D3V A R 21;3D3V B H 51;3.06874
3D3V A R 21;3D3V B L 54;5.38251
3D3V A F 22;3D3V A I 23;26.1712
3D3V A F 22;3D3V A A 24;7.25732
3D3V A F 22;3D3V A F 36;17.4802
3D3V A F 22;3D3V A D 37;4.47154
3D3V A F 22;3D3V A S 38;21.1977
3D3V A F 22;3D3V A V 67;10.8699
3D3V A F 22;3D3V A H 70;8.84308
3D3V A F 22;3D3V A S 71;27.6418
3D3V A F 22;3D3V A H 74;14.8343
3D3V A I 23;3D3V A A 24;24.8868
3D3V A I 23;3D3V A V 25;4.15695
3D3V A I 23;3D3V A R 35;2.10897
3D3V A I 23;3D3V A F 36;7.7521
3D3V A I 23;3D3V A D 37;22.8386
3D3V A I 23;3D3V B D 53;11.1156
3D3V A I 23;3D3V B L 54;35.75
3D3V A A 24;3D3V A V 25;25.2264
3D3V A A 24;3D3V A R 35;6.64623
3D3V A A 24;3D3V A F 36;19.8076
3D3V A A 24;3D3V A M 45;6.14787
3D3V A A 24;3D3V A V 67;9.35204
3D3V A A 24;3D3V C L 2;0.699904
3D3V A V 25;3D3V A G 26;21.6645
3D3V A V 25;3D3V A Y 27;16.6935
3D3V A V 25;3D3V A Q 32;14.7618
3D3V A V 25;3D3V A V 34;7.0009
3D3V A V 25;3D3V A R 35;7.83948
3D3V A V 25;3D3V A M 45;1.56681
3D3V A V 25;3D3V B D 53;12.5381
3D3V A V 25;3D3V B L 54;10.84
3D3V A V 25;3D3V B S 55;8.55224
3D3V A G 26;3D3V A Y 27;19.8266
3D3V A G 26;3D3V A T 31;0.0175639
3D3V A G 26;3D3V A Q 32;5.97174
3D3V A G 26;3D3V A F 33;15.9717
3D3V A G 26;3D3V A V 34;17.9317
3D3V A Y 27;3D3V A V 28;18.0359
3D3V A Y 27;3D3V A D 29;12.6183
3D3V A Y 27;3D3V A D 30;15.6005
3D3V A Y 27;3D3V A D 30;0.987512
3D3V A Y 27;3D3V A T 31;9.66632
3D3V A Y 27;3D3V A Q 32;22.9303
3D3V A Y 27;3D3V A F 33;10.3314
3D3V A Y 27;3D3V B D 53;3.35802
3D3V A Y 27;3D3V B S 55;10.4566
3D3V A Y 27;3D3V B Y 63;23.2246
3D3V A V 28;3D3V A D 29;28.0648
3D3V A V 28;3D3V A D 30;0.802529
3D3V A V 28;3D3V A T 31;17.7139
3D3V A V 28;3D3V A F 33;12.2675
3D3V A V 28;3D3V A W 51;9.69724
3D3V A V 28;3D3V A L 168;12.6845
3D3V A V 28;3D3V A Y 171;12.866
3D3V A V 28;3D3V A L 172;8.54473
3D3V A V 28;3D3V A L 179;19.7018
3D3V A V 28;3D3V A Y 209;0.821544
3D3V A D 29;3D3V A D 30;18.7762
3D3V A D 29;3D3V A D 30;12.7418
3D3V A D 29;3D3V A T 31;1.34991
3D3V A D 29;3D3V A L 172;1.4671
3D3V A D 29;3D3V A L 179;11.0185
3D3V A D 29;3D3V A Y 209;14.374
3D3V A D 29;3D3V A P 210;8.90269
3D3V A D 30;3D3V A T 31;21.0276
3D3V A D 30;3D3V A Q 32;1.09336
3D3V A D 30;3D3V A Y 209;9.93282
3D3V A D 30;3D3V A G 239;0.120814
3D3V A D 30;3D3V A F 241;8.86004
3D3V A D 30;3D3V A Y 209;6.5458
3D3V A D 30;3D3V A P 210;11.4351
3D3V A D 30;3D3V A A 211;17.0189
3D3V A D 30;3D3V A E 212;1.02044
3D3V A D 30;3D3V A F 241;12.8144
3D3V A T 31;3D3V A Q 32;29.2498
3D3V A T 31;3D3V A F 33;5.69717
3D3V A T 31;3D3V A A 49;7.71939
3D3V A T 31;3D3V A W 51;8.90672
3D3V A T 31;3D3V A T 178;10.5306
3D3V A T 31;3D3V A L 179;14.663
3D3V A T 31;3D3V A R 181;2.57133
3D3V A T 31;3D3V A Y 209;17.2114
3D3V A Q 32;3D3V A F 33;17.1771
3D3V A Q 32;3D3V A V 34;5.25202
3D3V A Q 32;3D3V A R 35;4.48964
3D3V A Q 32;3D3V A R 48;34.249
3D3V A Q 32;3D3V A A 49;4.97752
3D3V A Q 32;3D3V B S 52;2.27948
3D3V A Q 32;3D3V B D 53;18.1452
3D3V A F 33;3D3V A V 34;35.0619
3D3V A F 33;3D3V A P 47;1.40188
3D3V A F 33;3D3V A R 48;11.6663
3D3V A F 33;3D3V A A 49;11.5361
3D3V A F 33;3D3V A W 51;17.1762
3D3V A F 33;3D3V A I 52;19.2701
3D3V A F 33;3D3V A Y 59;5.03289
3D3V A F 33;3D3V A Y 171;14.5175
3D3V A F 33;3D3V C L 1;0.33731
3D3V A V 34;3D3V A R 35;18.7807
3D3V A V 34;3D3V A M 45;21.2594
3D3V A V 34;3D3V A E 46;7.48545
3D3V A V 34;3D3V A P 47;3.12298
3D3V A V 34;3D3V A R 48;6.82854
3D3V A V 34;3D3V A I 52;7.08373
3D3V A V 34;3D3V A Y 59;7.43008
3D3V A V 34;3D3V A W 60;10.3196
3D3V A V 34;3D3V A E 63;1.78014
3D3V A R 35;3D3V A F 36;22.7232
3D3V A R 35;3D3V A D 37;17.7685
3D3V A R 35;3D3V A A 40;15.984
3D3V A R 35;3D3V A R 44;0.879863
3D3V A R 35;3D3V A M 45;12.2326
3D3V A R 35;3D3V A E 46;39.4947
3D3V A R 35;3D3V A P 47;0.0683102
3D3V A R 35;3D3V A R 48;31.0234
3D3V A R 35;3D3V B D 53;28.3738
3D3V A F 36;3D3V A D 37;29.7195
3D3V A F 36;3D3V A S 38;13.019
3D3V A F 36;3D3V A Q 43;24.4375
3D3V A F 36;3D3V A R 44;17.3433
3D3V A F 36;3D3V A M 45;11.4354
3D3V A F 36;3D3V A E 46;1.54487
3D3V A F 36;3D3V A T 64;1.69172
3D3V A F 36;3D3V A V 67;25.3098
3D3V A F 36;3D3V A K 68;14.4268
3D3V A F 36;3D3V A S 71;7.70618
3D3V A D 37;3D3V A S 38;19.0679
3D3V A D 37;3D3V A D 39;15.7755
3D3V A D 37;3D3V A A 40;19.2102
3D3V A D 37;3D3V A Q 43;5.81891
3D3V A D 37;3D3V A R 44;0.444896
3D3V A D 37;3D3V A E 46;2.65233
3D3V A D 37;3D3V B D 53;6.2244
3D3V A S 38;3D3V A D 39;29.0518
3D3V A S 38;3D3V A A 40;1.1965
3D3V A S 38;3D3V A Q 43;21.3254
3D3V A S 38;3D3V A S 71;1.15744
3D3V A D 39;3D3V A A 40;32.0619
3D3V A D 39;3D3V A A 41;1.55427
3D3V A D 39;3D3V A Q 43;0.0370049
3D3V A A 40;3D3V A A 41;31.2063
3D3V A A 40;3D3V A S 42;4.38495
3D3V A A 40;3D3V A Q 43;14.7082
3D3V A A 40;3D3V A E 46;9.00112
3D3V A A 41;3D3V A S 42;31.6128
3D3V A A 41;3D3V A Q 43;10.5773
3D3V A S 42;3D3V A Q 43;28.772
3D3V A S 42;3D3V A R 44;29.2967
3D3V A S 42;3D3V A E 46;19.5503
3D3V A Q 43;3D3V A R 44;21.7443
3D3V A Q 43;3D3V A E 46;0.00669697
3D3V A Q 43;3D3V A T 64;5.17415
3D3V A Q 43;3D3V A K 68;20.0697
3D3V A R 44;3D3V A M 45;27.2981
3D3V A R 44;3D3V A E 46;11.2059
3D3V A R 44;3D3V A W 60;17.5697
3D3V A R 44;3D3V A D 61;23.1612
3D3V A R 44;3D3V A T 64;28.9359
3D3V A M 45;3D3V A E 46;21.5091
3D3V A M 45;3D3V A P 47;1.1127
3D3V A M 45;3D3V A Y 59;0.166324
3D3V A M 45;3D3V A W 60;22.6228
3D3V A M 45;3D3V A E 63;21.8719
3D3V A M 45;3D3V A T 64;16.1693
3D3V A M 45;3D3V A V 67;16.2387
3D3V A M 45;3D3V C L 2;11.3339
3D3V A E 46;3D3V A P 47;33.0556
3D3V A E 46;3D3V A R 48;15.9501
3D3V A E 46;3D3V A W 60;4.29614
3D3V A P 47;3D3V A R 48;34.7806
3D3V A P 47;3D3V A A 49;3.72051
3D3V A P 47;3D3V A I 52;8.39139
3D3V A P 47;3D3V A E 53;26.4306
3D3V A P 47;3D3V A W 60;22.0871
3D3V A R 48;3D3V A A 49;27.5796
3D3V A R 48;3D3V A P 50;0.385399
3D3V A R 48;3D3V A I 52;0.973441
3D3V A R 48;3D3V B D 53;9.01962
3D3V A A 49;3D3V A P 50;29.5116
3D3V A A 49;3D3V A W 51;18.095
3D3V A A 49;3D3V A I 52;13.6538
3D3V A A 49;3D3V A E 53;6.96731
3D3V A A 49;3D3V A T 178;0.196504
3D3V A P 50;3D3V A W 51;30.1378
3D3V A P 50;3D3V A I 52;3.36837
3D3V A P 50;3D3V A E 53;22.9285
3D3V A P 50;3D3V A Q 54;4.79964
3D3V A P 50;3D3V A T 178;10.7285
3D3V A W 51;3D3V A I 52;34.0164
3D3V A W 51;3D3V A Q 54;19.3491
3D3V A W 51;3D3V A E 55;0.940668
3D3V A W 51;3D3V A Y 171;21.8219
3D3V A W 51;3D3V A N 174;21.4812
3D3V A W 51;3D3V A G 175;15.1673
3D3V A W 51;3D3V A T 178;19.1445
3D3V A W 51;3D3V A L 179;19.9505
3D3V A I 52;3D3V A E 53;19.6373
3D3V A I 52;3D3V A Q 54;4.73575
3D3V A I 52;3D3V A E 55;24.4978
3D3V A I 52;3D3V A Y 59;12.467
3D3V A I 52;3D3V A W 60;16.9757
3D3V A I 52;3D3V A Y 171;10.6557
3D3V A I 52;3D3V A N 174;0.170506
3D3V A E 53;3D3V A Q 54;24.2623
3D3V A E 53;3D3V A E 55;11.6727
3D3V A E 53;3D3V A W 60;10.9229
3D3V A Q 54;3D3V A E 55;28.3852
3D3V A Q 54;3D3V A G 56;3.9439
3D3V A Q 54;3D3V A R 170;1.59945
3D3V A Q 54;3D3V A N 174;29.5937
3D3V A E 55;3D3V A G 56;29.0608
3D3V A E 55;3D3V A P 57;0.0486853
3D3V A E 55;3D3V A E 58;0.96409
3D3V A E 55;3D3V A Y 59;25.0265
3D3V A E 55;3D3V A W 60;13.6176
3D3V A E 55;3D3V A W 167;7.79964
3D3V A E 55;3D3V A R 170;27.2087
3D3V A E 55;3D3V A Y 171;6.73679
3D3V A E 55;3D3V A N 174;12.0117
3D3V A G 56;3D3V A P 57;27.8917
3D3V A G 56;3D3V A E 58;18.7876
3D3V A G 56;3D3V A Y 59;10.4277
3D3V A G 56;3D3V A W 60;9.66283
3D3V A G 56;3D3V A R 170;0.662855
3D3V A P 57;3D3V A E 58;29.1933
3D3V A P 57;3D3V A Y 59;0.838983
3D3V A P 57;3D3V A W 60;15.4686
3D3V A P 57;3D3V A D 61;20.9462
3D3V A E 58;3D3V A Y 59;31.2816
3D3V A E 58;3D3V A W 60;0.714988
3D3V A E 58;3D3V A D 61;11.8916
3D3V A E 58;3D3V A G 62;12.5014
3D3V A E 58;3D3V A R 170;0.702525
3D3V A Y 59;3D3V A W 60;35.7516
3D3V A Y 59;3D3V A D 61;0.862129
3D3V A Y 59;3D3V A G 62;3.81172
3D3V A Y 59;3D3V A E 63;31.8309
3D3V A Y 59;3D3V A W 167;14.0122
3D3V A Y 59;3D3V A Y 171;13.9119
3D3V A Y 59;3D3V C L 1;17.3404
3D3V A W 60;3D3V A D 61;16.9779
3D3V A W 60;3D3V A G 62;1.1672
3D3V A W 60;3D3V A E 63;8.467
3D3V A W 60;3D3V A T 64;12.155
3D3V A D 61;3D3V A G 62;20.0493
3D3V A D 61;3D3V A E 63;0.173878
3D3V A D 61;3D3V A T 64;9.05542
3D3V A D 61;3D3V A R 65;19.1029
3D3V A G 62;3D3V A E 63;18.4245
3D3V A G 62;3D3V A T 64;1.18529
3D3V A G 62;3D3V A R 65;25.1754
3D3V A G 62;3D3V A K 66;15.9336
3D3V A E 63;3D3V A T 64;15.2977
3D3V A E 63;3D3V A R 65;0.860574
3D3V A E 63;3D3V A K 66;17.3498
3D3V A E 63;3D3V A V 67;8.83781
3D3V A E 63;3D3V C L 1;16.0006
3D3V A E 63;3D3V C L 2;20.3216
3D3V A T 64;3D3V A R 65;19.0226
3D3V A T 64;3D3V A K 66;0.478321
3D3V A T 64;3D3V A V 67;12.8552
3D3V A T 64;3D3V A K 68;27.2386
3D3V A R 65;3D3V A K 66;20.6041
3D3V A R 65;3D3V A V 67;0.851588
3D3V A R 65;3D3V A K 68;15.3002
3D3V A R 65;3D3V A A 69;5.55912
3D3V A K 66;3D3V A V 67;14.2787
3D3V A K 66;3D3V A K 68;1.47564
3D3V A K 66;3D3V A A 69;13.084
3D3V A K 66;3D3V A H 70;16.0562
3D3V A K 66;3D3V C L 1;10.556
3D3V A K 66;3D3V C L 2;24.3021
3D3V A K 66;3D3V C F 3;7.74939
3D3V A K 66;3D3V C G 4;6.97178
3D3V A K 66;3D3V C P 6;1.14117
3D3V A V 67;3D3V A K 68;19.172
3D3V A V 67;3D3V A A 69;0.703267
3D3V A V 67;3D3V A H 70;11.2317
3D3V A V 67;3D3V A S 71;7.5176
3D3V A V 67;3D3V C L 2;13.829
3D3V A K 68;3D3V A A 69;14.463
3D3V A K 68;3D3V A H 70;0.39157
3D3V A K 68;3D3V A S 71;16.2244
3D3V A K 68;3D3V A Q 72;10.3747
3D3V A A 69;3D3V A H 70;16.0319
3D3V A A 69;3D3V A S 71;1.00466
3D3V A A 69;3D3V A Q 72;7.36543
3D3V A A 69;3D3V A T 73;10.2886
3D3V A A 69;3D3V C G 4;0.151431
3D3V A A 69;3D3V C P 6;12.6654
3D3V A H 70;3D3V A S 71;14.7782
3D3V A H 70;3D3V A Q 72;1.01249
3D3V A H 70;3D3V A T 73;9.69934
3D3V A H 70;3D3V A H 74;16.3867
3D3V A H 70;3D3V A R 97;7.99767
3D3V A H 70;3D3V A Y 99;13.7408
3D3V A H 70;3D3V C L 2;9.6895
3D3V A H 70;3D3V C F 3;14.2139
3D3V A H 70;3D3V C P 6;23.6472
3D3V A S 71;3D3V A Q 72;18.3212
3D3V A S 71;3D3V A T 73;0.578759
3D3V A S 71;3D3V A H 74;7.2409
3D3V A S 71;3D3V A R 75;14.3936
3D3V A Q 72;3D3V A T 73;16.1892
3D3V A Q 72;3D3V A H 74;0.743854
3D3V A Q 72;3D3V A R 75;37.885
3D3V A Q 72;3D3V A V 76;22.4528
3D3V A Q 72;3D3V C Y 8;13.0321
3D3V A T 73;3D3V A H 74;19.1659
3D3V A T 73;3D3V A R 75;0.844736
3D3V A T 73;3D3V A V 76;6.07659
3D3V A T 73;3D3V A D 77;16.444
3D3V A T 73;3D3V A R 97;9.99531
3D3V A T 73;3D3V C P 6;17.6443
3D3V A T 73;3D3V C V 7;6.82466
3D3V A T 73;3D3V C Y 8;21.6882
3D3V A H 74;3D3V A R 75;17.111
3D3V A H 74;3D3V A V 76;1.14473
3D3V A H 74;3D3V A D 77;16.7072
3D3V A H 74;3D3V A L 78;12.5284
3D3V A H 74;3D3V A V 95;15.6708
3D3V A H 74;3D3V A Q 96;1.81164
3D3V A H 74;3D3V A R 97;23.733
3D3V A H 74;3D3V A Y 116;7.5202
3D3V A R 75;3D3V A V 76;26.6334
3D3V A R 75;3D3V A D 77;0.349656
3D3V A R 75;3D3V A L 78;12.7555
3D3V A R 75;3D3V A G 79;5.74529
3D3V A V 76;3D3V A D 77;16.8107
3D3V A V 76;3D3V A L 78;2.13247
3D3V A V 76;3D3V A G 79;7.49001
3D3V A V 76;3D3V A T 80;22.3382
3D3V A V 76;3D3V C Y 8;30.6306
3D3V A D 77;3D3V A L 78;18.8571
3D3V A D 77;3D3V A G 79;0.443127
3D3V A D 77;3D3V A T 80;11.0929
3D3V A D 77;3D3V A L 81;16.537
3D3V A D 77;3D3V A V 95;5.91802
3D3V A D 77;3D3V A R 97;5.63008
3D3V A D 77;3D3V A Y 116;12.7101
3D3V A D 77;3D3V C V 7;1.11421
3D3V A D 77;3D3V C Y 8;9.01779
3D3V A D 77;3D3V C V 9;23.8865
3D3V A L 78;3D3V A G 79;18.2832
3D3V A L 78;3D3V A T 80;1.11619
3D3V A L 78;3D3V A L 81;4.68739
3D3V A L 78;3D3V A R 82;5.25738
3D3V A L 78;3D3V A R 82;15.4356
3D3V A L 78;3D3V A H 93;14.6383
3D3V A L 78;3D3V A T 94;1.5876
3D3V A L 78;3D3V A V 95;15.9236
3D3V A L 78;3D3V A Y 118;9.89962
3D3V A G 79;3D3V A T 80;21.4782
3D3V A G 79;3D3V A L 81;0.454782
3D3V A G 79;3D3V A R 82;1.53029
3D3V A G 79;3D3V A R 82;25.5754
3D3V A G 79;3D3V A G 83;10.4648
3D3V A T 80;3D3V A L 81;17.5757
3D3V A T 80;3D3V A R 82;0.908296
3D3V A T 80;3D3V A G 83;8.63802
3D3V A T 80;3D3V A Y 84;29.5395
3D3V A T 80;3D3V A K 146;1.43804
3D3V A T 80;3D3V C Y 8;1.85611
3D3V A T 80;3D3V C V 9;19.2176
3D3V A L 81;3D3V A R 82;18.6239
3D3V A L 81;3D3V A G 83;0.900335
3D3V A L 81;3D3V A Y 84;19.1504
3D3V A L 81;3D3V A Y 85;21.8811
3D3V A L 81;3D3V A Q 87;1.67568
3D3V A L 81;3D3V A V 95;8.52731
3D3V A L 81;3D3V A Y 116;9.06592
3D3V A L 81;3D3V A Y 118;27.5652
3D3V A L 81;3D3V A Y 123;17.5318
3D3V A L 81;3D3V A T 143;0.000618394
3D3V A L 81;3D3V C V 9;14.2517
3D3V A R 82;3D3V A G 83;18.3399
3D3V A R 82;3D3V A Y 84;0.799834
3D3V A R 82;3D3V A Y 85;3.09323
3D3V A R 82;3D3V A N 86;6.31532
3D3V A R 82;3D3V A Q 87;15.4133
3D3V A R 82;3D3V A Y 118;3.78638
3D3V A R 82;3D3V A G 83;3.41715
3D3V A R 82;3D3V A Q 87;18.1374
3D3V A R 82;3D3V A S 88;8.1637
3D3V A R 82;3D3V A E 89;33.8478
3D3V A R 82;3D3V A G 91;3.33547
3D3V A R 82;3D3V A H 93;8.33081
3D3V A R 82;3D3V A Y 118;1.48739
3D3V A G 83;3D3V A Y 84;22.9457
3D3V A G 83;3D3V A Y 85;0.82031
3D3V A G 83;3D3V A N 86;12.7378
3D3V A Y 84;3D3V A Y 85;26.599
3D3V A Y 84;3D3V A N 86;4.80916
3D3V A Y 84;3D3V A Y 123;8.30645
3D3V A Y 84;3D3V A A 139;24.3838
3D3V A Y 84;3D3V A T 142;21.4627
3D3V A Y 84;3D3V A T 143;6.97892
3D3V A Y 84;3D3V A K 146;17.5691
3D3V A Y 84;3D3V C V 9;13.1128
3D3V A Y 85;3D3V A N 86;25.4785
3D3V A Y 85;3D3V A Q 87;28.8081
3D3V A Y 85;3D3V A Y 118;20.667
3D3V A Y 85;3D3V A Y 123;17.639
3D3V A Y 85;3D3V A D 137;25.1386
3D3V A Y 85;3D3V A A 139;17.8685
3D3V A Y 85;3D3V A A 140;0.146266
3D3V A N 86;3D3V A Q 87;25.6094
3D3V A N 86;3D3V A S 88;2.56608
3D3V A Q 87;3D3V A S 88;32.6952
3D3V A Q 87;3D3V A E 89;1.84585
3D3V A Q 87;3D3V A H 93;23.1115
3D3V A Q 87;3D3V A Y 118;17.3241
3D3V A Q 87;3D3V A D 119;3.60546
3D3V A S 88;3D3V A E 89;23.6002
3D3V A S 88;3D3V A A 90;16.8163
3D3V A S 88;3D3V A G 91;11.4048
3D3V A S 88;3D3V A H 93;5.80572
3D3V A E 89;3D3V A A 90;21.1779
3D3V A E 89;3D3V A G 91;8.52722
3D3V A A 90;3D3V A G 91;22.1735
3D3V A A 90;3D3V A S 92;0.0759523
3D3V A G 91;3D3V A S 92;22.3144
3D3V A G 91;3D3V A H 93;19.8308
3D3V A S 92;3D3V A H 93;30.6152
3D3V A S 92;3D3V A T 94;0.914265
3D3V A S 92;3D3V A D 119;0.214613
3D3V A S 92;3D3V B M 0;12.298
3D3V A S 92;3D3V B P 32;1.01744
3D3V A S 92;3D3V B D 34;10.272
3D3V A H 93;3D3V A T 94;21.941
3D3V A H 93;3D3V A Y 118;17.6627
3D3V A H 93;3D3V A D 119;19.0546
3D3V A H 93;3D3V B M 0;7.69182
3D3V A T 94;3D3V A V 95;24.2837
3D3V A T 94;3D3V A Q 96;10.4894
3D3V A T 94;3D3V A A 117;0.268152
3D3V A T 94;3D3V A Y 118;8.84293
3D3V A T 94;3D3V A D 119;23.7376
3D3V A T 94;3D3V A G 120;1.21512
3D3V A T 94;3D3V B H 31;12.4513
3D3V A T 94;3D3V B P 32;11.6802
3D3V A T 94;3D3V B S 33;4.78303
3D3V A T 94;3D3V B F 62;9.15777
3D3V A V 95;3D3V A Q 96;24.9623
3D3V A V 95;3D3V A Y 116;16.6152
3D3V A V 95;3D3V A A 117;7.59196
3D3V A V 95;3D3V A Y 118;10.6814
3D3V A Q 96;3D3V A R 97;18.5712
3D3V A Q 96;3D3V A Y 116;7.08935
3D3V A Q 96;3D3V A A 117;22.8527
3D3V A Q 96;3D3V A D 119;0.00206807
3D3V A Q 96;3D3V A G 120;7.29171
3D3V A Q 96;3D3V B H 31;7.07278
3D3V A Q 96;3D3V B F 56;19.9632
3D3V A Q 96;3D3V B W 60;26.8207
3D3V A Q 96;3D3V B F 62;10.9571
3D3V A R 97;3D3V A M 98;22.3369
3D3V A R 97;3D3V A Y 99;15.2518
3D3V A R 97;3D3V A H 114;24.5312
3D3V A R 97;3D3V A Q 115;9.8888
3D3V A R 97;3D3V A Y 116;23.6682
3D3V A R 97;3D3V A W 147;7.10065
3D3V A R 97;3D3V B F 56;7.24868
3D3V A R 97;3D3V B W 60;3.00138
3D3V A R 97;3D3V C F 3;3.02403
3D3V A R 97;3D3V C P 6;13.7614
3D3V A R 97;3D3V C V 7;9.97356
3D3V A R 97;3D3V C V 9;0.612913
3D3V A M 98;3D3V A Y 99;26.3322
3D3V A M 98;3D3V A G 100;0.916475
3D3V A M 98;3D3V A Y 113;17.4934
3D3V A M 98;3D3V A H 114;5.87685
3D3V A M 98;3D3V A Q 115;36.8735
3D3V A M 98;3D3V B F 56;10.0469
3D3V A M 98;3D3V B W 60;6.45925
3D3V A Y 99;3D3V A G 100;22.0339
3D3V A Y 99;3D3V A Y 113;6.76268
3D3V A Y 99;3D3V A H 114;19.0497
3D3V A Y 99;3D3V A L 156;6.42461
3D3V A Y 99;3D3V A Y 159;15.9566
3D3V A Y 99;3D3V A L 160;6.13279
3D3V A Y 99;3D3V C L 2;9.81224
3D3V A Y 99;3D3V C F 3;22.3834
3D3V A G 100;3D3V A C 101;15.7469
3D3V A G 100;3D3V A G 112;3.20599
3D3V A G 100;3D3V A Y 113;18.282
3D3V A G 100;3D3V A Y 159;1.21803
3D3V A G 100;3D3V A L 160;11.7066
3D3V A G 100;3D3V A C 164;9.16428
3D3V A C 101;3D3V A D 102;20.9007
3D3V A C 101;3D3V A V 103;1.63861
3D3V A C 101;3D3V A F 109;4.25913
3D3V A C 101;3D3V A R 111;5.73876
3D3V A C 101;3D3V A G 112;5.49237
3D3V A C 101;3D3V A Y 113;8.33247
3D3V A C 101;3D3V A L 160;7.48886
3D3V A C 101;3D3V A C 164;21.8285
3D3V A C 101;3D3V A V 165;11.01
3D3V A C 101;3D3V A L 168;10.3705
3D3V A D 102;3D3V A V 103;22.2858
3D3V A D 102;3D3V A F 109;3.33812
3D3V A D 102;3D3V A L 110;19.3226
3D3V A D 102;3D3V A R 111;33.7283
3D3V A D 102;3D3V A Y 113;20.6232
3D3V A D 102;3D3V A V 165;1.16223
3D3V A D 102;3D3V A L 168;0.547573
3D3V A V 103;3D3V A G 104;21.6249
3D3V A V 103;3D3V A W 107;22.2186
3D3V A V 103;3D3V A R 108;7.4053
3D3V A V 103;3D3V A F 109;5.47062
3D3V A V 103;3D3V A L 110;9.16207
3D3V A V 103;3D3V A V 165;15.5052
3D3V A V 103;3D3V A L 168;18.6238
3D3V A V 103;3D3V A R 169;3.59276
3D3V A V 103;3D3V A L 172;5.04163
3D3V A G 104;3D3V A S 105;21.9241
3D3V A G 104;3D3V A D 106;8.8574
3D3V A G 104;3D3V A W 107;12.4113
3D3V A G 104;3D3V A R 108;8.16401
3D3V A G 104;3D3V A L 110;15.7862
3D3V A S 105;3D3V A D 106;29.6322
3D3V A S 105;3D3V A W 107;11.8687
3D3V A D 106;3D3V A W 107;27.6276
3D3V A D 106;3D3V A R 108;46.2736
3D3V A W 107;3D3V A R 108;17.913
3D3V A W 107;3D3V A F 109;0.205685
3D3V A W 107;3D3V A V 165;1.32662
3D3V A W 107;3D3V A R 169;44.1819
3D3V A W 107;3D3V A L 172;23.138
3D3V A W 107;3D3V A E 173;18.8887
3D3V A W 107;3D3V A Q 180;23.3255
3D3V A R 108;3D3V A F 109;29.7553
3D3V A R 108;3D3V A L 110;3.67661
3D3V A R 108;3D3V A R 169;14.7676
3D3V A F 109;3D3V A L 110;41.2736
3D3V A F 109;3D3V A R 111;10.313
3D3V A F 109;3D3V A G 112;10.2472
3D3V A F 109;3D3V A L 130;9.7185
3D3V A F 109;3D3V A L 160;9.93488
3D3V A F 109;3D3V A E 161;34.2857
3D3V A F 109;3D3V A V 165;21.3309
3D3V A F 109;3D3V A R 169;2.07894
3D3V A L 110;3D3V A R 111;39.2203
3D3V A L 110;3D3V A E 128;2.48689
3D3V A R 111;3D3V A G 112;26.79
3D3V A R 111;3D3V A Y 113;19.6562
3D3V A R 111;3D3V A E 128;36.8913
3D3V A G 112;3D3V A Y 113;28.0421
3D3V A G 112;3D3V A L 126;0.438492
3D3V A G 112;3D3V A K 127;1.88339
3D3V A G 112;3D3V A E 128;8.41143
3D3V A G 112;3D3V A L 130;16.8873
3D3V A G 112;3D3V A L 160;8.60859
3D3V A Y 113;3D3V A H 114;24.5517
3D3V A Y 113;3D3V A Q 115;11.5312
3D3V A Y 113;3D3V A L 126;8.24252
3D3V A Y 113;3D3V A K 127;0.0165413
3D3V A Y 113;3D3V A L 130;2.21391
3D3V A Y 113;3D3V A L 160;13.4176
3D3V A H 114;3D3V A Q 115;26.6062
3D3V A H 114;3D3V A Y 116;6.87869
3D3V A H 114;3D3V A I 124;2.10123
3D3V A H 114;3D3V A A 125;5.83608
3D3V A H 114;3D3V A L 126;23.994
3D3V A H 114;3D3V A W 133;9.55723
3D3V A H 114;3D3V A W 147;12.7726
3D3V A H 114;3D3V A V 152;0.0865888
3D3V A H 114;3D3V A L 156;25.1279
3D3V A H 114;3D3V A L 160;3.51533
3D3V A H 114;3D3V C F 3;0.850654
3D3V A Q 115;3D3V A Y 116;21.6738
3D3V A Q 115;3D3V A D 122;4.21701
3D3V A Q 115;3D3V A I 124;1.58141
3D3V A Q 115;3D3V A A 125;23.4368
3D3V A Q 115;3D3V A L 126;0.45785
3D3V A Q 115;3D3V B K 58;5.32348
3D3V A Q 115;3D3V B W 60;24.2282
3D3V A Y 116;3D3V A A 117;23.5533
3D3V A Y 116;3D3V A Y 118;2.16033
3D3V A Y 116;3D3V A D 122;4.8847
3D3V A Y 116;3D3V A Y 123;24.8355
3D3V A Y 116;3D3V A I 124;24.2177
3D3V A Y 116;3D3V A A 125;0.173992
3D3V A Y 116;3D3V A W 147;9.67637
3D3V A Y 116;3D3V B W 60;8.5859
3D3V A Y 116;3D3V C V 9;17.3991
3D3V A A 117;3D3V A Y 118;19.4984
3D3V A A 117;3D3V A D 119;0.141834
3D3V A A 117;3D3V A G 120;6.16878
3D3V A A 117;3D3V A K 121;9.95601
3D3V A A 117;3D3V A D 122;2.93795
3D3V A A 117;3D3V A Y 123;4.56816
3D3V A A 117;3D3V B W 60;19.2289
3D3V A Y 118;3D3V A D 119;36.4593
3D3V A Y 118;3D3V A G 120;2.89628
3D3V A Y 118;3D3V A K 121;20.4745
3D3V A Y 118;3D3V A Y 123;16.2028
3D3V A D 119;3D3V A G 120;17.9738
3D3V A D 119;3D3V A K 121;9.79466
3D3V A D 119;3D3V B M 0;30.4092
3D3V A D 119;3D3V B I 1;12.7367
3D3V A D 119;3D3V B H 31;7.49523
3D3V A G 120;3D3V A K 121;21.7747
3D3V A G 120;3D3V B I 1;16.0765
3D3V A G 120;3D3V B R 3;5.22508
3D3V A G 120;3D3V B H 31;13.5427
3D3V A G 120;3D3V B D 59;3.96242
3D3V A G 120;3D3V B W 60;16.5562
3D3V A K 121;3D3V A D 122;35.091
3D3V A K 121;3D3V A Y 123;1.82695
3D3V A K 121;3D3V A D 137;8.69855
3D3V A K 121;3D3V B M 0;11.0335
3D3V A K 121;3D3V B I 1;21.9317
3D3V A K 121;3D3V B W 60;5.26983
3D3V A D 122;3D3V A Y 123;22.6589
3D3V A D 122;3D3V A I 124;2.99284
3D3V A D 122;3D3V A A 125;5.57133
3D3V A D 122;3D3V A T 134;0.596751
3D3V A D 122;3D3V A A 136;22.7007
3D3V A D 122;3D3V B W 60;24.9265
3D3V A Y 123;3D3V A I 124;32.6437
3D3V A Y 123;3D3V A T 134;0.169
3D3V A Y 123;3D3V A A 135;1.92602
3D3V A Y 123;3D3V A A 136;13.515
3D3V A Y 123;3D3V A D 137;1.38576
3D3V A Y 123;3D3V A A 139;4.99956
3D3V A Y 123;3D3V A A 140;29.4045
3D3V A Y 123;3D3V A T 143;15.9551
3D3V A Y 123;3D3V C V 9;7.65938
3D3V A I 124;3D3V A A 125;24.4188
3D3V A I 124;3D3V A W 133;19.1853
3D3V A I 124;3D3V A T 134;11.4737
3D3V A I 124;3D3V A A 135;12.8954
3D3V A I 124;3D3V A A 136;0.0243894
3D3V A I 124;3D3V A A 140;5.03608
3D3V A I 124;3D3V A T 143;13.9097
3D3V A I 124;3D3V A K 144;12.4561
3D3V A I 124;3D3V A W 147;18.1069
3D3V A I 124;3D3V C V 9;0.732208
3D3V A A 125;3D3V A L 126;25.4542
3D3V A A 125;3D3V A K 127;3.43807
3D3V A A 125;3D3V A S 132;0.00246378
3D3V A A 125;3D3V A W 133;11.1076
3D3V A A 125;3D3V A T 134;23.5997
3D3V A L 126;3D3V A K 127;33.5921
3D3V A L 126;3D3V A L 130;24.1691
3D3V A L 126;3D3V A R 131;1.2532
3D3V A L 126;3D3V A S 132;9.57401
3D3V A L 126;3D3V A W 133;24.5086
3D3V A L 126;3D3V A A 153;11.6729
3D3V A L 126;3D3V A L 156;11.9683
3D3V A L 126;3D3V A R 157;1.41642
3D3V A L 126;3D3V A L 160;7.96994
3D3V A K 127;3D3V A E 128;28.5267
3D3V A K 127;3D3V A D 129;16.2739
3D3V A K 127;3D3V A L 130;11.4972
3D3V A K 127;3D3V A R 131;0.111753
3D3V A K 127;3D3V A S 132;29.8603
3D3V A K 127;3D3V A W 133;8.09751
3D3V A K 127;3D3V A T 134;23.554
3D3V A E 128;3D3V A D 129;25.6731
3D3V A E 128;3D3V A L 130;12.6446
3D3V A D 129;3D3V A L 130;22.9737
3D3V A D 129;3D3V A R 131;37.6595
3D3V A D 129;3D3V A S 132;15.9247
3D3V A D 129;3D3V A R 157;1.56181
3D3V A D 129;3D3V A E 161;0.21865
3D3V A L 130;3D3V A R 131;18.3989
3D3V A L 130;3D3V A A 153;9.23469
3D3V A L 130;3D3V A R 157;6.61732
3D3V A L 130;3D3V A R 157;22.8892
3D3V A L 130;3D3V A L 160;14.6911
3D3V A L 130;3D3V A E 161;15.2368
3D3V A R 131;3D3V A S 132;30.0758
3D3V A R 131;3D3V A W 133;1.65963
3D3V A R 131;3D3V A E 148;1.58294
3D3V A R 131;3D3V A A 153;12.6438
3D3V A R 131;3D3V A R 157;44.138
3D3V A R 131;3D3V A E 161;5.3963
3D3V A S 132;3D3V A W 133;32.4815
3D3V A S 132;3D3V A K 144;2.76585
3D3V A S 132;3D3V A E 148;3.99889
3D3V A S 132;3D3V A A 153;1.1667
3D3V A W 133;3D3V A T 134;22.8551
3D3V A W 133;3D3V A A 135;1.18655
3D3V A W 133;3D3V A K 144;30.8818
3D3V A W 133;3D3V A W 147;33.33
3D3V A W 133;3D3V A E 148;18.3045
3D3V A W 133;3D3V A V 152;9.37865
3D3V A W 133;3D3V A A 153;19.2988
3D3V A W 133;3D3V A L 156;9.59833
3D3V A T 134;3D3V A A 135;25.2457
3D3V A T 134;3D3V A A 136;9.99875
3D3V A T 134;3D3V A K 144;0.0107384
3D3V A A 135;3D3V A A 136;22.5156
3D3V A A 135;3D3V A D 137;7.16333
3D3V A A 135;3D3V A A 140;9.31103
3D3V A A 135;3D3V A Q 141;21.5388
3D3V A A 135;3D3V A K 144;15.1593
3D3V A A 136;3D3V A D 137;32.3882
3D3V A A 136;3D3V A A 140;2.03274
3D3V A D 137;3D3V A M 138;28.868
3D3V A D 137;3D3V A A 139;6.04922
3D3V A D 137;3D3V A A 140;21.116
3D3V A D 137;3D3V A Q 141;11.5122
3D3V A M 138;3D3V A A 139;28.6508
3D3V A M 138;3D3V A A 140;0.572422
3D3V A M 138;3D3V A Q 141;30.9545
3D3V A M 138;3D3V A T 142;5.3245
3D3V A A 139;3D3V A A 140;17.5314
3D3V A A 139;3D3V A Q 141;2.34129
3D3V A A 139;3D3V A T 142;16.5291
3D3V A A 139;3D3V A T 143;0.775098
3D3V A A 140;3D3V A Q 141;13.1506
3D3V A A 140;3D3V A T 142;2.21121
3D3V A A 140;3D3V A T 143;9.82585
3D3V A A 140;3D3V A K 144;3.8651
3D3V A Q 141;3D3V A T 142;19.1531
3D3V A Q 141;3D3V A T 143;0.510059
3D3V A Q 141;3D3V A K 144;29.2304
3D3V A Q 141;3D3V A H 145;28.1418
3D3V A T 142;3D3V A T 143;17.7595
3D3V A T 142;3D3V A K 144;0.97564
3D3V A T 142;3D3V A H 145;15.0744
3D3V A T 142;3D3V A K 146;28.1036
3D3V A T 143;3D3V A K 144;15.9195
3D3V A T 143;3D3V A H 145;0.66544
3D3V A T 143;3D3V A K 146;11.2647
3D3V A T 143;3D3V A W 147;24.9915
3D3V A T 143;3D3V C V 9;21.8863
3D3V A K 144;3D3V A H 145;25.0217
3D3V A K 144;3D3V A K 146;0.672541
3D3V A K 144;3D3V A W 147;6.99257
3D3V A K 144;3D3V A E 148;35.405
3D3V A H 145;3D3V A K 146;21.4307
3D3V A H 145;3D3V A W 147;0.913353
3D3V A H 145;3D3V A E 148;21.4477
3D3V A H 145;3D3V A A 149;13.7895
3D3V A K 146;3D3V A W 147;23.111
3D3V A K 146;3D3V A E 148;0.871812
3D3V A K 146;3D3V A A 149;8.25949
3D3V A K 146;3D3V A A 150;14.3288
3D3V A K 146;3D3V C V 7;0.545238
3D3V A K 146;3D3V C Y 8;2.9678
3D3V A K 146;3D3V C V 9;12.1049
3D3V A W 147;3D3V A E 148;19.9596
3D3V A W 147;3D3V A A 149;0.396035
3D3V A W 147;3D3V A A 150;6.76307
3D3V A W 147;3D3V A H 151;4.70426
3D3V A W 147;3D3V A V 152;34.6317
3D3V A W 147;3D3V A A 153;1.49643
3D3V A W 147;3D3V A L 156;0.0621332
3D3V A W 147;3D3V C V 7;21.5841
3D3V A W 147;3D3V C Y 8;8.70782
3D3V A W 147;3D3V C V 9;16.9113
3D3V A E 148;3D3V A A 149;23.1485
3D3V A E 148;3D3V A A 150;1.66996
3D3V A E 148;3D3V A H 151;16.581
3D3V A A 149;3D3V A A 150;21.0423
3D3V A A 149;3D3V A H 151;15.1918
3D3V A A 150;3D3V A H 151;23.5496
3D3V A A 150;3D3V A V 152;15.2872
3D3V A A 150;3D3V A Q 155;1.353
3D3V A A 150;3D3V C V 7;6.73847
3D3V A H 151;3D3V A V 152;17.1033
3D3V A H 151;3D3V A A 153;2.94102
3D3V A H 151;3D3V A E 154;20.9575
3D3V A H 151;3D3V A Q 155;12.0036
3D3V A V 152;3D3V A A 153;18.733
3D3V A V 152;3D3V A E 154;1.45616
3D3V A V 152;3D3V A Q 155;13.4227
3D3V A V 152;3D3V A L 156;20.2262
3D3V A V 152;3D3V C F 3;5.76998
3D3V A V 152;3D3V C V 7;23.867
3D3V A A 153;3D3V A E 154;19.5737
3D3V A A 153;3D3V A Q 155;0.723189
3D3V A A 153;3D3V A L 156;10.4967
3D3V A A 153;3D3V A R 157;4.95524
3D3V A A 153;3D3V A R 157;9.57961
3D3V A E 154;3D3V A Q 155;28.8831
3D3V A E 154;3D3V A L 156;0.793496
3D3V A E 154;3D3V A R 157;1.65029
3D3V A E 154;3D3V A R 157;32.7486
3D3V A E 154;3D3V A A 158;12.8111
3D3V A Q 155;3D3V A L 156;14.9476
3D3V A Q 155;3D3V A R 157;0.727306
3D3V A Q 155;3D3V A A 158;13.1794
3D3V A Q 155;3D3V A Y 159;7.48047
3D3V A Q 155;3D3V C F 3;21.2787
3D3V A L 156;3D3V A R 157;16.2143
3D3V A L 156;3D3V A A 158;1.18136
3D3V A L 156;3D3V A Y 159;12.2576
3D3V A L 156;3D3V A L 160;23.5766
3D3V A L 156;3D3V C F 3;29.1912
3D3V A R 157;3D3V A A 158;17.8653
3D3V A R 157;3D3V A Y 159;1.09145
3D3V A R 157;3D3V A L 160;8.37511
3D3V A R 157;3D3V A E 161;13.5519
3D3V A R 157;3D3V A A 158;4.81779
3D3V A R 157;3D3V A E 161;16.8682
3D3V A A 158;3D3V A Y 159;20.2814
3D3V A A 158;3D3V A L 160;0.171514
3D3V A A 158;3D3V A E 161;4.31787
3D3V A A 158;3D3V A G 162;10.309
3D3V A A 158;3D3V A T 163;5.38933
3D3V A Y 159;3D3V A L 160;29.2832
3D3V A Y 159;3D3V A E 161;1.17845
3D3V A Y 159;3D3V A G 162;4.79359
3D3V A Y 159;3D3V A T 163;26.9185
3D3V A Y 159;3D3V A C 164;27.4955
3D3V A Y 159;3D3V C L 1;12.1902
3D3V A Y 159;3D3V C L 2;8.05146
3D3V A Y 159;3D3V C F 3;28.5071
3D3V A L 160;3D3V A E 161;16.5365
3D3V A L 160;3D3V A G 162;2.24705
3D3V A L 160;3D3V A C 164;12.8573
3D3V A L 160;3D3V A V 165;6.82225
3D3V A E 161;3D3V A G 162;23.4616
3D3V A E 161;3D3V A V 165;11.4954
3D3V A G 162;3D3V A T 163;16.4565
3D3V A G 162;3D3V A C 164;2.28165
3D3V A G 162;3D3V A V 165;12.5938
3D3V A G 162;3D3V A E 166;23.3155
3D3V A T 163;3D3V A C 164;18.03
3D3V A T 163;3D3V A V 165;0.596183
3D3V A T 163;3D3V A E 166;12.095
3D3V A T 163;3D3V A W 167;23.8924
3D3V A T 163;3D3V C L 1;13.4056
3D3V A T 163;3D3V C L 2;0.0712619
3D3V A C 164;3D3V A V 165;17.4646
3D3V A C 164;3D3V A E 166;0.611867
3D3V A C 164;3D3V A W 167;2.49074
3D3V A C 164;3D3V A L 168;9.46873
3D3V A C 164;3D3V C L 1;0.14811
3D3V A V 165;3D3V A E 166;21.046
3D3V A V 165;3D3V A W 167;1.27352
3D3V A V 165;3D3V A L 168;9.94813
3D3V A V 165;3D3V A R 169;31.1311
3D3V A E 166;3D3V A W 167;27.5517
3D3V A E 166;3D3V A L 168;0.372395
3D3V A E 166;3D3V A R 169;25.5514
3D3V A E 166;3D3V A R 170;11.1819
3D3V A W 167;3D3V A L 168;16.6527
3D3V A W 167;3D3V A R 169;1.49604
3D3V A W 167;3D3V A R 170;34.6426
3D3V A W 167;3D3V A Y 171;30.4558
3D3V A W 167;3D3V C L 1;31.4673
3D3V A L 168;3D3V A R 169;18.0201
3D3V A L 168;3D3V A R 170;0.609116
3D3V A L 168;3D3V A Y 171;11.6813
3D3V A L 168;3D3V A L 172;23.0483
3D3V A R 169;3D3V A R 170;19.262
3D3V A R 169;3D3V A Y 171;0.736762
3D3V A R 169;3D3V A L 172;13.8619
3D3V A R 169;3D3V A E 173;17.3069
3D3V A R 170;3D3V A Y 171;22.4587
3D3V A R 170;3D3V A L 172;0.634851
3D3V A R 170;3D3V A E 173;13.2318
3D3V A R 170;3D3V A N 174;26.0369
3D3V A Y 171;3D3V A L 172;15.543
3D3V A Y 171;3D3V A E 173;1.72878
3D3V A Y 171;3D3V A N 174;11.1142
3D3V A Y 171;3D3V A G 175;6.35907
3D3V A Y 171;3D3V A L 179;8.04594
3D3V A Y 171;3D3V C L 1;13.3006
3D3V A L 172;3D3V A E 173;16.1468
3D3V A L 172;3D3V A N 174;0.117953
3D3V A L 172;3D3V A G 175;4.33039
3D3V A L 172;3D3V A K 176;5.23831
3D3V A L 172;3D3V A L 179;21.3894
3D3V A L 172;3D3V A Q 180;17.1543
3D3V A E 173;3D3V A N 174;29.9965
3D3V A E 173;3D3V A G 175;1.16168
3D3V A E 173;3D3V A K 176;20.5515
3D3V A E 173;3D3V A Q 180;4.31921
3D3V A N 174;3D3V A G 175;17.7259
3D3V A N 174;3D3V A K 176;6.24575
3D3V A G 175;3D3V A K 176;17.6662
3D3V A G 175;3D3V A E 177;2.73885
3D3V A G 175;3D3V A T 178;12.6855
3D3V A G 175;3D3V A L 179;16.3002
3D3V A G 175;3D3V A Q 180;0.762651
3D3V A K 176;3D3V A E 177;29.9085
3D3V A K 176;3D3V A T 178;2.14067
3D3V A K 176;3D3V A L 179;0.899839
3D3V A K 176;3D3V A Q 180;38.9471
3D3V A K 176;3D3V A R 181;2.56628
3D3V A E 177;3D3V A T 178;27.8411
3D3V A E 177;3D3V A R 181;15.2083
3D3V A T 178;3D3V A L 179;26.689
3D3V A T 178;3D3V A Q 180;0.98437
3D3V A T 178;3D3V A R 181;34.7489
3D3V A T 178;3D3V A Y 209;4.55236
3D3V A L 179;3D3V A Q 180;22.2673
3D3V A L 179;3D3V A R 181;7.91385
3D3V A L 179;3D3V A Y 209;14.7823
3D3V A Q 180;3D3V A R 181;28.2494
3D3V A Q 180;3D3V A T 182;5.66469
3D3V A R 181;3D3V A T 182;32.5171
3D3V A R 181;3D3V A D 183;25.4179
3D3V A R 181;3D3V A Y 209;36.3089
3D3V A R 181;3D3V A P 210;3.18981
3D3V A R 181;3D3V A D 238;2.42321
3D3V A R 181;3D3V A G 239;14.5315
3D3V A R 181;3D3V A T 240;5.26525
3D3V A T 182;3D3V A D 183;27.1915
3D3V A T 182;3D3V A A 184;4.45475
3D3V A T 182;3D3V A Y 209;4.9885
3D3V A T 182;3D3V A P 210;9.09618
3D3V A T 182;3D3V A H 263;2.413
3D3V A T 182;3D3V A E 264;12.9542
3D3V A T 182;3D3V A G 265;17.9576
3D3V A D 183;3D3V A A 184;25.3912
3D3V A D 183;3D3V A P 185;1.28633
3D3V A D 183;3D3V A S 207;7.41688
3D3V A D 183;3D3V A F 208;8.30643
3D3V A D 183;3D3V A Y 209;22.7738
3D3V A D 183;3D3V A T 240;13.541
3D3V A D 183;3D3V A H 263;6.52661
3D3V A D 183;3D3V A G 265;1.2172
3D3V A A 184;3D3V A P 185;31.9861
3D3V A A 184;3D3V A K 186;8.03381
3D3V A A 184;3D3V A L 206;0.211911
3D3V A A 184;3D3V A S 207;9.05755
3D3V A A 184;3D3V A F 208;1.93352
3D3V A A 184;3D3V A H 263;0.539499
3D3V A A 184;3D3V A G 265;16.8108
3D3V A A 184;3D3V A L 266;7.69657
3D3V A P 185;3D3V A K 186;20.7621
3D3V A P 185;3D3V A T 187;19.4279
3D3V A P 185;3D3V A A 205;7.61625
3D3V A P 185;3D3V A L 206;6.34478
3D3V A P 185;3D3V A S 207;0.553549
3D3V A P 185;3D3V A F 208;16.1263
3D3V A P 185;3D3V A I 213;7.44721
3D3V A P 185;3D3V A V 261;7.51978
3D3V A P 185;3D3V A H 263;15.9603
3D3V A P 185;3D3V A G 265;1.4201
3D3V A P 185;3D3V A L 266;18.2517
3D3V A K 186;3D3V A T 187;24.9808
3D3V A K 186;3D3V A H 188;8.16781
3D3V A K 186;3D3V A W 204;0.71966
3D3V A K 186;3D3V A A 205;2.50408
3D3V A K 186;3D3V A L 206;29.1469
3D3V A K 186;3D3V A S 207;25.0566
3D3V A T 187;3D3V A H 188;29.1091
3D3V A T 187;3D3V A C 203;0.321508
3D3V A T 187;3D3V A W 204;9.38617
3D3V A T 187;3D3V A A 205;7.99405
3D3V A T 187;3D3V A V 261;15.9583
3D3V A T 187;3D3V A L 266;2.95302
3D3V A T 187;3D3V A L 270;15.0609
3D3V A T 187;3D3V A L 272;22.0803
3D3V A H 188;3D3V A M 189;35.4969
3D3V A H 188;3D3V A T 190;15.8949
3D3V A H 188;3D3V A R 202;0.00996748
3D3V A H 188;3D3V A C 203;2.67918
3D3V A H 188;3D3V A W 204;41.9932
3D3V A H 188;3D3V A L 206;11.809
3D3V A H 188;3D3V A L 272;10.9878
3D3V A M 189;3D3V A T 190;27.9234
3D3V A M 189;3D3V A L 201;10.8327
3D3V A M 189;3D3V A R 202;12.19
3D3V A M 189;3D3V A C 203;8.41592
3D3V A M 189;3D3V A W 204;2.81791
3D3V A M 189;3D3V A W 217;11.6725
3D3V A M 189;3D3V A C 259;2.29596
3D3V A M 189;3D3V A L 272;19.8162
3D3V A M 189;3D3V A R 273;13.7499
3D3V A M 189;3D3V A W 274;38.4089
3D3V A M 189;3D3V A E 275;0.743374
3D3V A T 190;3D3V A H 191;24.444
3D3V A T 190;3D3V A H 192;20.395
3D3V A T 190;3D3V A T 200;1.90022
3D3V A T 190;3D3V A L 201;7.29618
3D3V A T 190;3D3V A R 202;24.4509
3D3V A T 190;3D3V A W 204;18.4074
3D3V A T 190;3D3V A W 274;5.8878
3D3V A T 190;3D3V B D 98;10.0126
3D3V A H 191;3D3V A H 192;38.8436
3D3V A H 191;3D3V A A 193;10.8313
3D3V A H 191;3D3V A A 199;15.3748
3D3V A H 191;3D3V A T 200;6.53406
3D3V A H 191;3D3V A L 201;17.194
3D3V A H 191;3D3V A E 254;9.46687
3D3V A H 191;3D3V A W 274;36.9588
3D3V A H 192;3D3V A A 193;28.6627
3D3V A H 192;3D3V A V 194;5.14956
3D3V A H 192;3D3V A A 199;3.54687
3D3V A H 192;3D3V A T 200;25.5683
3D3V A H 192;3D3V A R 202;1.10357
3D3V A H 192;3D3V B D 98;30.7311
3D3V A A 193;3D3V A V 194;28.2537
3D3V A A 193;3D3V A S 195;10.7306
3D3V A A 193;3D3V A E 198;6.26955
3D3V A A 193;3D3V A A 199;11.9512
3D3V A V 194;3D3V A S 195;37.9754
3D3V A V 194;3D3V A E 198;18.2451
3D3V A V 194;3D3V A A 199;8.25455
3D3V A V 194;3D3V A T 200;16.9485
3D3V A V 194;3D3V A V 248;2.17789
3D3V A S 195;3D3V A D 196;36.0069
3D3V A S 195;3D3V A H 197;9.45082
3D3V A S 195;3D3V A E 198;14.4295
3D3V A D 196;3D3V A H 197;39.4076
3D3V A D 196;3D3V A E 198;3.90108
3D3V A D 196;3D3V A S 251;2.25775
3D3V A H 197;3D3V A E 198;43.7508
3D3V A H 197;3D3V A P 250;0.000373176
3D3V A H 197;3D3V A S 251;17.9275
3D3V A E 198;3D3V A A 199;25.1319
3D3V A E 198;3D3V A V 248;22.139
3D3V A E 198;3D3V A V 249;11.712
3D3V A E 198;3D3V A P 250;15.0325
3D3V A E 198;3D3V A S 251;3.72854
3D3V A A 199;3D3V A T 200;23.0282
3D3V A A 199;3D3V A L 201;1.23263
3D3V A A 199;3D3V A V 247;0.809347
3D3V A A 199;3D3V A V 248;5.27587
3D3V A A 199;3D3V A V 249;23.9348
3D3V A A 199;3D3V A S 251;7.94637
3D3V A A 199;3D3V A E 254;8.13306
3D3V A T 200;3D3V A L 201;25.942
3D3V A T 200;3D3V A R 202;19.3351
3D3V A T 200;3D3V A E 229;0.292974
3D3V A T 200;3D3V A A 246;9.90194
3D3V A T 200;3D3V A V 247;13.8322
3D3V A T 200;3D3V A V 248;8.6088
3D3V A T 200;3D3V A V 249;0.949344
3D3V A L 201;3D3V A R 202;20.5977
3D3V A L 201;3D3V A W 217;17.073
3D3V A L 201;3D3V A A 245;0.0917085
3D3V A L 201;3D3V A A 246;6.39995
3D3V A L 201;3D3V A V 247;20.9706
3D3V A L 201;3D3V A V 249;16.5427
3D3V A L 201;3D3V A E 254;21.5852
3D3V A L 201;3D3V A Y 257;9.73181
3D3V A L 201;3D3V A W 274;21.9077
3D3V A R 202;3D3V A C 203;19.8634
3D3V A R 202;3D3V A W 204;23.2824
3D3V A R 202;3D3V A W 217;2.40152
3D3V A R 202;3D3V A E 229;6.02564
3D3V A R 202;3D3V A W 244;33.5503
3D3V A R 202;3D3V A A 245;5.72012
3D3V A R 202;3D3V A A 246;13.9252
3D3V A R 202;3D3V B D 98;8.52901
3D3V A R 202;3D3V B M 99;22.1378
3D3V A C 203;3D3V A W 204;24.963
3D3V A C 203;3D3V A A 205;0.0389228
3D3V A C 203;3D3V A L 215;11.7474
3D3V A C 203;3D3V A W 217;15.123
3D3V A C 203;3D3V A K 243;0.409474
3D3V A C 203;3D3V A W 244;7.20903
3D3V A C 203;3D3V A A 245;17.0637
3D3V A C 203;3D3V A C 259;22.0503
3D3V A C 203;3D3V A V 261;5.39549
3D3V A C 203;3D3V A L 272;11.9939
3D3V A W 204;3D3V A A 205;24.1434
3D3V A W 204;3D3V A L 206;25.9748
3D3V A W 204;3D3V A L 215;1.61031
3D3V A W 204;3D3V A R 234;13.4555
3D3V A W 204;3D3V A Q 242;0.244956
3D3V A W 204;3D3V A K 243;5.82558
3D3V A W 204;3D3V A W 244;21.8864
3D3V A W 204;3D3V A V 261;0.512799
3D3V A W 204;3D3V A L 272;1.04347
3D3V A W 204;3D3V B D 98;12.9087
3D3V A W 204;3D3V B M 99;17.4432
3D3V A A 205;3D3V A L 206;25.701
3D3V A A 205;3D3V A F 208;11.1212
3D3V A A 205;3D3V A I 213;8.91715
3D3V A A 205;3D3V A L 215;12.6041
3D3V A A 205;3D3V A F 241;5.22607e-05
3D3V A A 205;3D3V A Q 242;3.11258
3D3V A A 205;3D3V A K 243;19.1106
3D3V A A 205;3D3V A V 261;4.43531
3D3V A L 206;3D3V A S 207;27.6806
3D3V A L 206;3D3V A F 208;7.42117
3D3V A L 206;3D3V A R 234;0.707557
3D3V A L 206;3D3V A F 241;1.36384
3D3V A L 206;3D3V A Q 242;27.9111
3D3V A L 206;3D3V A K 243;2.29748
3D3V A L 206;3D3V B R 12;0.524319
3D3V A L 206;3D3V B H 13;0.145903
3D3V A L 206;3D3V B P 14;19.2181
3D3V A S 207;3D3V A F 208;16.2722
3D3V A S 207;3D3V A A 236;2.34248
3D3V A S 207;3D3V A D 238;3.98041
3D3V A S 207;3D3V A T 240;24.8766
3D3V A S 207;3D3V A F 241;6.43181
3D3V A S 207;3D3V A Q 242;4.81539
3D3V A S 207;3D3V B R 12;3.53223
3D3V A S 207;3D3V B H 13;2.63036
3D3V A F 208;3D3V A Y 209;17.9999
3D3V A F 208;3D3V A P 210;7.44455
3D3V A F 208;3D3V A A 211;6.55639
3D3V A F 208;3D3V A E 212;0.0475662
3D3V A F 208;3D3V A I 213;23.3649
3D3V A F 208;3D3V A T 233;7.7687
3D3V A F 208;3D3V A T 240;9.67071
3D3V A F 208;3D3V A F 241;30.3495
3D3V A F 208;3D3V A Q 242;6.68286
3D3V A F 208;3D3V A K 243;6.97066
3D3V A F 208;3D3V A H 263;12.0659
3D3V A Y 209;3D3V A P 210;41.7429
3D3V A Y 209;3D3V A G 239;11.3517
3D3V A Y 209;3D3V A T 240;5.82572
3D3V A Y 209;3D3V A F 241;11.6066
3D3V A Y 209;3D3V A H 263;6.87582
3D3V A P 210;3D3V A A 211;16.6309
3D3V A P 210;3D3V A E 212;14.9941
3D3V A P 210;3D3V A I 213;0.00820855
3D3V A P 210;3D3V A F 241;3.58489
3D3V A P 210;3D3V A H 263;13.2007
3D3V A P 210;3D3V A E 264;23.8769
3D3V A A 211;3D3V A E 212;23.6761
3D3V A A 211;3D3V A I 213;9.32816
3D3V A A 211;3D3V A T 233;20.3718
3D3V A A 211;3D3V A F 241;22.5667
3D3V A E 212;3D3V A I 213;30.8156
3D3V A E 212;3D3V A T 214;7.98981
3D3V A E 212;3D3V A H 263;14.4635
3D3V A E 212;3D3V A E 264;23.9693
3D3V A I 213;3D3V A T 214;32.0003
3D3V A I 213;3D3V A L 215;13.3931
3D3V A I 213;3D3V A T 233;7.18373
3D3V A I 213;3D3V A K 243;21.4069
3D3V A I 213;3D3V A V 261;7.50527
3D3V A I 213;3D3V A Q 262;11.6171
3D3V A I 213;3D3V A H 263;12.3753
3D3V A T 214;3D3V A L 215;31.6902
3D3V A T 214;3D3V A T 216;12.2266
3D3V A T 214;3D3V A L 230;1.1883
3D3V A T 214;3D3V A K 243;1.76184
3D3V A T 214;3D3V A H 260;4.38219
3D3V A T 214;3D3V A V 261;1.77604
3D3V A T 214;3D3V A Q 262;37.0252
3D3V A L 215;3D3V A T 216;28.4651
3D3V A L 215;3D3V A W 217;0.385868
3D3V A L 215;3D3V A T 228;2.65736
3D3V A L 215;3D3V A L 230;18.9364
3D3V A L 215;3D3V A K 243;21.6676
3D3V A L 215;3D3V A W 244;5.2641
3D3V A L 215;3D3V A A 245;17.6756
3D3V A L 215;3D3V A C 259;7.29735
3D3V A L 215;3D3V A H 260;7.1892
3D3V A L 215;3D3V A V 261;17.1255
3D3V A L 215;3D3V A Q 262;0.165814
3D3V A T 216;3D3V A W 217;31.4888
3D3V A T 216;3D3V A Q 218;4.59892
3D3V A T 216;3D3V A D 223;20.3131
3D3V A T 216;3D3V A Q 224;7.45185
3D3V A T 216;3D3V A T 225;6.7431
3D3V A T 216;3D3V A T 228;2.63065
3D3V A T 216;3D3V A A 245;0.38004
3D3V A T 216;3D3V A T 258;1.72509
3D3V A T 216;3D3V A C 259;6.47979
3D3V A T 216;3D3V A H 260;28.7025
3D3V A T 216;3D3V A Q 262;5.16649
3D3V A W 217;3D3V A Q 218;25.5484
3D3V A W 217;3D3V A D 223;4.59491
3D3V A W 217;3D3V A Q 224;19.677
3D3V A W 217;3D3V A T 228;15.99
3D3V A W 217;3D3V A A 245;19.1487
3D3V A W 217;3D3V A A 246;10.6222
3D3V A W 217;3D3V A V 247;28.4952
3D3V A W 217;3D3V A Y 257;17.5352
3D3V A W 217;3D3V A T 258;11.8668
3D3V A W 217;3D3V A C 259;22.2201
3D3V A W 217;3D3V A L 272;0.816967
3D3V A W 217;3D3V A R 273;1.3101
3D3V A Q 218;3D3V A R 219;24.525
3D3V A Q 218;3D3V A D 220;1.68646
3D3V A Q 218;3D3V A G 221;19.3274
3D3V A Q 218;3D3V A E 222;5.2881
3D3V A Q 218;3D3V A D 223;24.1626
3D3V A Q 218;3D3V A Q 224;5.25048
3D3V A Q 218;3D3V A R 256;0.358645
3D3V A Q 218;3D3V A Y 257;10.8852
3D3V A Q 218;3D3V A T 258;33.8142
3D3V A Q 218;3D3V A H 260;24.3663
3D3V A R 219;3D3V A D 220;35.7709
3D3V A R 219;3D3V A G 221;9.51627
3D3V A R 219;3D3V A E 222;14.6418
3D3V A R 219;3D3V A D 223;1.97928
3D3V A R 219;3D3V A Q 224;14.4529
3D3V A R 219;3D3V A P 250;0.72933
3D3V A R 219;3D3V A Q 253;21.3089
3D3V A R 219;3D3V A R 256;4.20697
3D3V A R 219;3D3V A Y 257;38.35
3D3V A R 219;3D3V A T 258;0.345032
3D3V A D 220;3D3V A G 221;33.131
3D3V A D 220;3D3V A R 256;40.5748
3D3V A D 220;3D3V A T 258;1.60716
3D3V A G 221;3D3V A E 222;33.9611
3D3V A E 222;3D3V A D 223;39.0238
3D3V A D 223;3D3V A Q 224;32.2163
3D3V A Q 224;3D3V A T 225;25.317
3D3V A Q 224;3D3V A Q 226;26.3212
3D3V A Q 224;3D3V A D 227;21.2565
3D3V A Q 224;3D3V A T 228;11.1846
3D3V A Q 224;3D3V A V 247;5.07575
3D3V A Q 224;3D3V A Y 257;18.1639
3D3V A T 225;3D3V A Q 226;29.788
3D3V A T 225;3D3V A D 227;2.98344
3D3V A T 225;3D3V A T 228;28.791
3D3V A Q 226;3D3V A D 227;28.0251
3D3V A D 227;3D3V A T 228;25.2178
3D3V A D 227;3D3V A E 229;5.81007
3D3V A D 227;3D3V A A 246;4.11607
3D3V A D 227;3D3V A V 247;21.4598
3D3V A D 227;3D3V A V 248;34.2356
3D3V A D 227;3D3V A Y 257;5.38508
3D3V A T 228;3D3V A E 229;25.4797
3D3V A T 228;3D3V A L 230;24.364
3D3V A T 228;3D3V A A 245;5.09082
3D3V A T 228;3D3V A A 246;4.89283
3D3V A T 228;3D3V A V 247;2.4301
3D3V A E 229;3D3V A L 230;27.1692
3D3V A E 229;3D3V A V 231;3.24374
3D3V A E 229;3D3V A W 244;28.348
3D3V A E 229;3D3V A A 245;4.90318
3D3V A E 229;3D3V A A 246;24.9079
3D3V A L 230;3D3V A V 231;31.5385
3D3V A L 230;3D3V A E 232;2.05265
3D3V A L 230;3D3V A K 243;24.5387
3D3V A L 230;3D3V A W 244;7.38842
3D3V A L 230;3D3V A A 245;11.8358
3D3V A V 231;3D3V A E 232;30.5429
3D3V A V 231;3D3V A T 233;0.322663
3D3V A V 231;3D3V A R 234;5.02582
3D3V A V 231;3D3V A Q 242;0.158968
3D3V A V 231;3D3V A K 243;19.4382
3D3V A V 231;3D3V A W 244;47.953
3D3V A V 231;3D3V B Q 8;22.6831
3D3V A E 232;3D3V A T 233;26.3678
3D3V A E 232;3D3V A R 234;7.31466
3D3V A E 232;3D3V A Q 242;1.57427
3D3V A E 232;3D3V A K 243;7.27942
3D3V A E 232;3D3V B K 6;23.7913
3D3V A E 232;3D3V B Q 8;17.803
3D3V A E 232;3D3V B Y 26;10.4225
3D3V A E 232;3D3V B S 28;17.4655
3D3V A E 232;3D3V B G 29;7.88354
3D3V A E 232;3D3V B S 57;3.48572
3D3V A T 233;3D3V A R 234;18.6676
3D3V A T 233;3D3V A P 235;2.86324
3D3V A T 233;3D3V A F 241;12.7503
3D3V A T 233;3D3V A Q 242;8.94547
3D3V A T 233;3D3V A K 243;26.6572
3D3V A T 233;3D3V B Y 26;12.3318
3D3V A R 234;3D3V A P 235;23.0177
3D3V A R 234;3D3V A A 236;0.827248
3D3V A R 234;3D3V A F 241;7.56168
3D3V A R 234;3D3V A Q 242;42.0249
3D3V A R 234;3D3V A K 243;1.96111
3D3V A R 234;3D3V A W 244;11.4732
3D3V A R 234;3D3V B Q 8;27.4738
3D3V A R 234;3D3V B V 9;1.08376
3D3V A R 234;3D3V B Y 10;37.5415
3D3V A R 234;3D3V B Y 26;12.012
3D3V A R 234;3D3V B M 99;13.9619
3D3V A P 235;3D3V A A 236;17.7946
3D3V A P 235;3D3V A G 237;8.32064
3D3V A P 235;3D3V A T 240;3.98936
3D3V A P 235;3D3V A F 241;23.3722
3D3V A P 235;3D3V A Q 242;0.501473
3D3V A P 235;3D3V B Y 10;13.6508
3D3V A P 235;3D3V B N 24;3.02929
3D3V A P 235;3D3V B Y 26;21.9141
3D3V A P 235;3D3V B L 65;22.8555
3D3V A A 236;3D3V A G 237;20.0298
3D3V A A 236;3D3V A D 238;8.77209
3D3V A A 236;3D3V A T 240;17.9065
3D3V A A 236;3D3V A F 241;2.87022
3D3V A A 236;3D3V A Q 242;17.1651
3D3V A A 236;3D3V B Y 10;2.83268
3D3V A A 236;3D3V B R 12;27.9381
3D3V A A 236;3D3V B N 24;13.9154
3D3V A A 236;3D3V B L 65;0.79326
3D3V A G 237;3D3V A D 238;24.5263
3D3V A G 237;3D3V A G 239;5.71836
3D3V A G 237;3D3V A T 240;2.49819
3D3V A G 237;3D3V B R 12;22.0453
3D3V A G 237;3D3V B N 24;0.50775
3D3V A G 237;3D3V B L 65;14.3304
3D3V A G 237;3D3V B Y 67;3.44234
3D3V A D 238;3D3V A G 239;26.7749
3D3V A D 238;3D3V A T 240;24.6353
3D3V A D 238;3D3V B R 12;21.1205
3D3V A D 238;3D3V B H 13;11.1345
3D3V A G 239;3D3V A T 240;23.7126
3D3V A G 239;3D3V A F 241;9.36191
3D3V A T 240;3D3V A F 241;24.6098
3D3V A F 241;3D3V A Q 242;20.6168
3D3V A Q 242;3D3V A K 243;22.832
3D3V A Q 242;3D3V B Y 10;11.6441
3D3V A Q 242;3D3V B S 11;9.64073
3D3V A Q 242;3D3V B R 12;12.2325
3D3V A K 243;3D3V A W 244;27.6898
3D3V A W 244;3D3V A A 245;22.7127
3D3V A W 244;3D3V A A 246;9.30566
3D3V A W 244;3D3V B Q 8;0.000846056
3D3V A W 244;3D3V B M 99;23.0289
3D3V A A 245;3D3V A A 246;16.0869
3D3V A A 245;3D3V A C 259;0.655368
3D3V A A 246;3D3V A V 247;23.7085
3D3V A V 247;3D3V A V 248;25.0662
3D3V A V 247;3D3V A V 249;15.5697
3D3V A V 247;3D3V A Y 257;18.5183
3D3V A V 248;3D3V A V 249;20.1825
3D3V A V 248;3D3V A P 250;9.23744
3D3V A V 248;3D3V A Y 257;1.81795
3D3V A V 249;3D3V A P 250;29.9676
3D3V A V 249;3D3V A S 251;6.11056
3D3V A V 249;3D3V A Q 253;5.39145
3D3V A V 249;3D3V A E 254;19.0896
3D3V A V 249;3D3V A Y 257;19.1719
3D3V A P 250;3D3V A S 251;25.4325
3D3V A P 250;3D3V A G 252;0.505327
3D3V A P 250;3D3V A Q 253;26.9328
3D3V A P 250;3D3V A E 254;0.63748
3D3V A P 250;3D3V A Y 257;11.537
3D3V A S 251;3D3V A G 252;26.5747
3D3V A S 251;3D3V A Q 253;3.44915
3D3V A S 251;3D3V A E 254;12.7446
3D3V A G 252;3D3V A Q 253;25.4256
3D3V A G 252;3D3V A E 254;19.0116
3D3V A G 252;3D3V A Q 255;11.4229
3D3V A Q 253;3D3V A E 254;18.3853
3D3V A Q 253;3D3V A Q 255;4.76267
3D3V A Q 253;3D3V A R 256;13.6941
3D3V A Q 253;3D3V A Y 257;22.0535
3D3V A E 254;3D3V A Q 255;24.8756
3D3V A E 254;3D3V A R 256;0.693694
3D3V A E 254;3D3V A Y 257;15.3147
3D3V A E 254;3D3V A R 273;6.28422
3D3V A E 254;3D3V A W 274;19.3331
3D3V A Q 255;3D3V A R 256;38.6659
3D3V A Q 255;3D3V A Y 257;3.51081
3D3V A Q 255;3D3V A T 258;2.5375
3D3V A Q 255;3D3V A R 273;42.5496
3D3V A R 256;3D3V A Y 257;19.2692
3D3V A R 256;3D3V A T 258;11.6027
3D3V A Y 257;3D3V A T 258;21.0171
3D3V A Y 257;3D3V A L 272;4.86088e-05
3D3V A Y 257;3D3V A R 273;11.406
3D3V A Y 257;3D3V A W 274;0.920051
3D3V A T 258;3D3V A C 259;18.4596
3D3V A T 258;3D3V A H 260;12.6604
3D3V A T 258;3D3V A T 271;14.709
3D3V A T 258;3D3V A L 272;5.71733
3D3V A T 258;3D3V A R 273;14.4671
3D3V A C 259;3D3V A H 260;29.7792
3D3V A C 259;3D3V A V 261;7.98082
3D3V A C 259;3D3V A L 270;1.74456
3D3V A C 259;3D3V A T 271;10.4012
3D3V A C 259;3D3V A L 272;24.0745
3D3V A H 260;3D3V A V 261;22.9452
3D3V A H 260;3D3V A Q 262;6.54872
3D3V A H 260;3D3V A P 269;6.96826
3D3V A H 260;3D3V A L 270;5.28119
3D3V A H 260;3D3V A T 271;20.7961
3D3V A V 261;3D3V A Q 262;26.7638
3D3V A V 261;3D3V A H 263;2.45487
3D3V A V 261;3D3V A L 266;17.0304
3D3V A V 261;3D3V A P 269;10.9246
3D3V A V 261;3D3V A L 270;23.8602
3D3V A V 261;3D3V A L 272;7.63649
3D3V A Q 262;3D3V A H 263;30.0307
3D3V A Q 262;3D3V A L 266;1.11153
3D3V A Q 262;3D3V A P 269;23.0711
3D3V A H 263;3D3V A E 264;33.8384
3D3V A H 263;3D3V A G 265;10.5233
3D3V A H 263;3D3V A L 266;26.8448
3D3V A E 264;3D3V A G 265;21.887
3D3V A E 264;3D3V A L 266;8.74452
3D3V A E 264;3D3V A P 267;0.592876
3D3V A G 265;3D3V A L 266;21.7759
3D3V A G 265;3D3V A P 267;12.0101
3D3V A L 266;3D3V A P 267;37.5991
3D3V A L 266;3D3V A K 268;10.3936
3D3V A L 266;3D3V A P 269;9.19458
3D3V A L 266;3D3V A L 270;30.3763
3D3V A P 267;3D3V A K 268;36.5211
3D3V A P 267;3D3V A P 269;7.53603
3D3V A K 268;3D3V A P 269;31.0829
3D3V A K 268;3D3V A L 270;16.4623
3D3V A P 269;3D3V A L 270;22.8996
3D3V A P 269;3D3V A T 271;9.00461
3D3V A L 270;3D3V A T 271;30.9975
3D3V A L 270;3D3V A L 272;13.5342
3D3V A T 271;3D3V A L 272;38.0122
3D3V A T 271;3D3V A R 273;1.14225
3D3V A L 272;3D3V A R 273;30.6113
3D3V A R 273;3D3V A W 274;29.626
3D3V A R 273;3D3V A E 275;41.4277
3D3V A W 274;3D3V A E 275;54.8049
3D3V B M 0;3D3V B I 1;40.2982
3D3V B M 0;3D3V B Q 2;19.9372
3D3V B M 0;3D3V B H 31;0.495121
3D3V B M 0;3D3V B P 32;14.4876
3D3V B I 1;3D3V B Q 2;30.5651
3D3V B I 1;3D3V B R 3;22.7257
3D3V B I 1;3D3V B H 31;19.0445
3D3V B I 1;3D3V B P 32;4.55141
3D3V B Q 2;3D3V B R 3;25.2196
3D3V B Q 2;3D3V B H 31;7.78879
3D3V B Q 2;3D3V B P 32;9.61139
3D3V B Q 2;3D3V B V 85;18.3122
3D3V B Q 2;3D3V B T 86;19.8795
3D3V B R 3;3D3V B T 4;25.0848
3D3V B R 3;3D3V B P 5;0.726646
3D3V B R 3;3D3V B G 29;14.5032
3D3V B R 3;3D3V B F 30;11.7353
3D3V B R 3;3D3V B H 31;23.7802
3D3V B R 3;3D3V B D 59;32.7641
3D3V B R 3;3D3V B W 60;0.59323
3D3V B R 3;3D3V B S 61;13.6976
3D3V B R 3;3D3V B H 84;5.09862
3D3V B R 3;3D3V B T 86;7.97844
3D3V B T 4;3D3V B P 5;34.075
3D3V B T 4;3D3V B K 6;6.76561
3D3V B T 4;3D3V B S 28;0.396767
3D3V B T 4;3D3V B G 29;8.38009
3D3V B T 4;3D3V B F 30;1.9492
3D3V B T 4;3D3V B H 84;0.207514
3D3V B T 4;3D3V B T 86;24.6249
3D3V B T 4;3D3V B L 87;9.76951
3D3V B T 4;3D3V B K 91;11.188
3D3V B P 5;3D3V B K 6;26.0152
3D3V B P 5;3D3V B I 7;15.4775
3D3V B P 5;3D3V B V 27;7.18027
3D3V B P 5;3D3V B S 28;5.45139
3D3V B P 5;3D3V B G 29;1.0953
3D3V B P 5;3D3V B F 30;16.6499
3D3V B P 5;3D3V B I 35;9.73459
3D3V B P 5;3D3V B V 82;8.13624
3D3V B P 5;3D3V B H 84;13.3785
3D3V B P 5;3D3V B T 86;3.92987
3D3V B P 5;3D3V B L 87;8.30124
3D3V B P 5;3D3V B K 91;6.41144
3D3V B K 6;3D3V B I 7;24.9611
3D3V B K 6;3D3V B Q 8;9.14592
3D3V B K 6;3D3V B Y 26;3.03173
3D3V B K 6;3D3V B V 27;5.97419
3D3V B K 6;3D3V B S 28;28.4874
3D3V B K 6;3D3V B G 29;5.79378
3D3V B I 7;3D3V B Q 8;30.5752
3D3V B I 7;3D3V B V 9;4.97738
3D3V B I 7;3D3V B C 25;7.98395
3D3V B I 7;3D3V B Y 26;3.8528
3D3V B I 7;3D3V B V 27;12.1634
3D3V B I 7;3D3V B C 80;4.77651
3D3V B I 7;3D3V B V 82;21.7902
3D3V B I 7;3D3V B L 87;1.09944
3D3V B I 7;3D3V B K 91;19.8839
3D3V B I 7;3D3V B V 93;31.3873
3D3V B Q 8;3D3V B V 9;24.2209
3D3V B Q 8;3D3V B Y 10;12.3405
3D3V B Q 8;3D3V B N 24;0.482788
3D3V B Q 8;3D3V B C 25;5.74897
3D3V B Q 8;3D3V B Y 26;30.0698
3D3V B Q 8;3D3V B S 28;3.0344
3D3V B Q 8;3D3V B V 93;1.05153
3D3V B V 9;3D3V B Y 10;22.4057
3D3V B V 9;3D3V B L 23;11.9166
3D3V B V 9;3D3V B N 24;7.7269
3D3V B V 9;3D3V B C 25;8.50238
3D3V B V 9;3D3V B L 39;2.47504
3D3V B V 9;3D3V B Y 78;0.212617
3D3V B V 9;3D3V B A 79;5.67787
3D3V B V 9;3D3V B C 80;13.1984
3D3V B V 9;3D3V B V 93;20.8982
3D3V B V 9;3D3V B K 94;3.73763
3D3V B V 9;3D3V B W 95;24.334
3D3V B V 9;3D3V B D 96;2.98744
3D3V B V 9;3D3V B M 99;6.72872
3D3V B Y 10;3D3V B S 11;31.6707
3D3V B Y 10;3D3V B R 12;0.475506
3D3V B Y 10;3D3V B L 23;10.1394
3D3V B Y 10;3D3V B N 24;36.7064
3D3V B Y 10;3D3V B C 25;0.266367
3D3V B Y 10;3D3V B Y 26;12.4999
3D3V B Y 10;3D3V B L 65;5.11388
3D3V B Y 10;3D3V B W 95;10.1702
3D3V B Y 10;3D3V B M 99;9.91856
3D3V B S 11;3D3V B R 12;19.5647
3D3V B S 11;3D3V B H 13;15.14
3D3V B S 11;3D3V B P 14;2.1193
3D3V B S 11;3D3V B A 15;9.23692
3D3V B S 11;3D3V B N 21;7.3305
3D3V B S 11;3D3V B F 22;6.69222
3D3V B S 11;3D3V B L 23;4.13018
3D3V B S 11;3D3V B N 24;2.26305
3D3V B S 11;3D3V B F 70;6.146
3D3V B S 11;3D3V B W 95;15.6059
3D3V B S 11;3D3V B R 97;1.30211
3D3V B S 11;3D3V B M 99;0.000107454
3D3V B R 12;3D3V B H 13;48.2999
3D3V B R 12;3D3V B P 14;0.695652
3D3V B R 12;3D3V B N 21;4.28776
3D3V B R 12;3D3V B F 22;51.1143
3D3V B R 12;3D3V B N 24;10.2953
3D3V B R 12;3D3V B Y 67;15.0075
3D3V B H 13;3D3V B P 14;41.9906
3D3V B H 13;3D3V B A 15;1.58067
3D3V B H 13;3D3V B S 20;4.70198
3D3V B H 13;3D3V B N 21;26.5136
3D3V B H 13;3D3V B F 22;3.40425
3D3V B P 14;3D3V B A 15;26.1002
3D3V B P 14;3D3V B E 16;16.5266
3D3V B P 14;3D3V B K 19;0.875541
3D3V B P 14;3D3V B N 21;5.00642
3D3V B A 15;3D3V B E 16;30.3625
3D3V B A 15;3D3V B N 21;9.68617
3D3V B A 15;3D3V B F 70;1.05693
3D3V B A 15;3D3V B P 72;8.59515
3D3V B A 15;3D3V B W 95;13.2738
3D3V B A 15;3D3V B R 97;23.53
3D3V B E 16;3D3V B N 17;26.4388
3D3V B E 16;3D3V B G 18;3.23122
3D3V B E 16;3D3V B K 19;42.4976
3D3V B E 16;3D3V B N 21;1.66272
3D3V B E 16;3D3V B P 72;11.8357
3D3V B E 16;3D3V B R 97;2.17195
3D3V B N 17;3D3V B G 18;25.007
3D3V B N 17;3D3V B K 19;1.05594
3D3V B N 17;3D3V B P 72;14.6024
3D3V B N 17;3D3V B T 73;17.7719
3D3V B N 17;3D3V B E 74;22.5994
3D3V B N 17;3D3V B R 97;14.1172
3D3V B G 18;3D3V B K 19;29.2975
3D3V B G 18;3D3V B S 20;3.29871
3D3V B G 18;3D3V B T 71;18.4371
3D3V B G 18;3D3V B P 72;6.30609
3D3V B K 19;3D3V B S 20;29.8343
3D3V B K 19;3D3V B N 21;9.97054
3D3V B K 19;3D3V B F 70;0.504614
3D3V B K 19;3D3V B T 71;8.16704
3D3V B K 19;3D3V B P 72;6.89356
3D3V B S 20;3D3V B N 21;27.9147
3D3V B S 20;3D3V B F 22;2.16281
3D3V B S 20;3D3V B E 69;18.792
3D3V B S 20;3D3V B F 70;3.61589
3D3V B S 20;3D3V B T 71;14.2006
3D3V B N 21;3D3V B F 22;33.833
3D3V B N 21;3D3V B E 69;8.11181
3D3V B N 21;3D3V B F 70;27.6443
3D3V B N 21;3D3V B P 72;8.71846
3D3V B F 22;3D3V B L 23;16.6152
3D3V B F 22;3D3V B N 24;8.48281
3D3V B F 22;3D3V B E 50;0.101003
3D3V B F 22;3D3V B Y 67;19.1551
3D3V B F 22;3D3V B T 68;10.134
3D3V B F 22;3D3V B E 69;29.8843
3D3V B F 22;3D3V B F 70;8.67801
3D3V B L 23;3D3V B N 24;24.1372
3D3V B L 23;3D3V B C 25;0.0374966
3D3V B L 23;3D3V B L 39;19.916
3D3V B L 23;3D3V B L 40;1.39473
3D3V B L 23;3D3V B I 46;2.4543
3D3V B L 23;3D3V B Y 66;0.445876
3D3V B L 23;3D3V B Y 67;5.32406
3D3V B L 23;3D3V B T 68;24.8375
3D3V B L 23;3D3V B F 70;24.7042
3D3V B L 23;3D3V B Y 78;19.8645
3D3V B L 23;3D3V B A 79;4.04943
3D3V B L 23;3D3V B W 95;16.2142
3D3V B N 24;3D3V B C 25;19.1511
3D3V B N 24;3D3V B Y 26;0.100183
3D3V B N 24;3D3V B L 39;0.976602
3D3V B N 24;3D3V B L 65;14.3021
3D3V B N 24;3D3V B Y 66;3.49774
3D3V B N 24;3D3V B Y 67;12.8234
3D3V B C 25;3D3V B Y 26;19.7805
3D3V B C 25;3D3V B V 27;9.42788
3D3V B C 25;3D3V B V 37;5.71265
3D3V B C 25;3D3V B L 39;11.8039
3D3V B C 25;3D3V B L 64;1.01852
3D3V B C 25;3D3V B L 65;6.36701
3D3V B C 25;3D3V B Y 66;24.3944
3D3V B C 25;3D3V B C 80;17.2202
3D3V B C 25;3D3V B V 82;1.7639
3D3V B Y 26;3D3V B V 27;23.7712
3D3V B Y 26;3D3V B S 28;19.4319
3D3V B Y 26;3D3V B S 57;0.0632563
3D3V B Y 26;3D3V B Y 63;24.9158
3D3V B Y 26;3D3V B L 64;9.64685
3D3V B Y 26;3D3V B L 65;17.9859
3D3V B V 27;3D3V B S 28;18.7717
3D3V B V 27;3D3V B F 30;11.5868
3D3V B V 27;3D3V B I 35;10.7912
3D3V B V 27;3D3V B V 37;9.95424
3D3V B V 27;3D3V B Y 63;4.22568
3D3V B V 27;3D3V B L 64;23.0003
3D3V B V 27;3D3V B Y 66;7.62756
3D3V B V 27;3D3V B V 82;10.4578
3D3V B S 28;3D3V B G 29;22.2842
3D3V B S 28;3D3V B F 30;7.28991
3D3V B S 28;3D3V B S 57;0.976351
3D3V B S 28;3D3V B F 62;3.75665
3D3V B S 28;3D3V B Y 63;10.4519
3D3V B G 29;3D3V B F 30;17.2202
3D3V B G 29;3D3V B S 57;0.344139
3D3V B G 29;3D3V B D 59;0.64564
3D3V B G 29;3D3V B S 61;17.186
3D3V B G 29;3D3V B F 62;6.7074
3D3V B G 29;3D3V B Y 63;0.00659048
3D3V B F 30;3D3V B H 31;20.3318
3D3V B F 30;3D3V B P 32;6.7916
3D3V B F 30;3D3V B S 33;9.57677
3D3V B F 30;3D3V B I 35;21.6897
3D3V B F 30;3D3V B L 54;4.67947
3D3V B F 30;3D3V B S 61;5.94336
3D3V B F 30;3D3V B F 62;33.5518
3D3V B F 30;3D3V B Y 63;4.56857
3D3V B F 30;3D3V B L 64;11.3992
3D3V B F 30;3D3V B H 84;10.0056
3D3V B H 31;3D3V B P 32;33.186
3D3V B H 31;3D3V B W 60;10.2936
3D3V B H 31;3D3V B S 61;3.38394
3D3V B H 31;3D3V B F 62;16.7728
3D3V B H 31;3D3V B H 84;8.2592
3D3V B H 31;3D3V B T 86;2.16258
3D3V B P 32;3D3V B S 33;20.6623
3D3V B P 32;3D3V B D 34;21.2113
3D3V B P 32;3D3V B I 35;0.0221822
3D3V B P 32;3D3V B F 62;6.24693
3D3V B P 32;3D3V B H 84;13.8153
3D3V B P 32;3D3V B V 85;16.6901
3D3V B P 32;3D3V B T 86;0.245401
3D3V B S 33;3D3V B D 34;27.0929
3D3V B S 33;3D3V B I 35;12.1408
3D3V B S 33;3D3V B L 54;19.5296
3D3V B S 33;3D3V B F 62;17.9716
3D3V B S 33;3D3V B L 64;2.09208
3D3V B S 33;3D3V B H 84;0.000206451
3D3V B D 34;3D3V B I 35;24.2253
3D3V B D 34;3D3V B N 83;0.647002
3D3V B D 34;3D3V B H 84;13.3544
3D3V B D 34;3D3V B V 85;8.01819
3D3V B I 35;3D3V B E 36;27.8224
3D3V B I 35;3D3V B V 37;14.054
3D3V B I 35;3D3V B L 64;11.9132
3D3V B I 35;3D3V B Y 66;12.0865
3D3V B I 35;3D3V B V 82;10.9009
3D3V B I 35;3D3V B N 83;8.01171
3D3V B I 35;3D3V B H 84;12.0839
3D3V B E 36;3D3V B V 37;25.2358
3D3V B E 36;3D3V B D 38;11.5684
3D3V B E 36;3D3V B R 81;24.2524
3D3V B E 36;3D3V B V 82;4.75335
3D3V B E 36;3D3V B N 83;39.9045
3D3V B V 37;3D3V B D 38;35.9418
3D3V B V 37;3D3V B L 39;3.99869
3D3V B V 37;3D3V B V 49;1.28783
3D3V B V 37;3D3V B Y 66;41.2752
3D3V B V 37;3D3V B C 80;7.76868
3D3V B V 37;3D3V B R 81;6.33969
3D3V B V 37;3D3V B V 82;13.5837
3D3V B D 38;3D3V B L 39;29.6098
3D3V B D 38;3D3V B L 40;8.65381
3D3V B D 38;3D3V B R 45;33.1564
3D3V B D 38;3D3V B I 46;1.32244
3D3V B D 38;3D3V B V 49;2.8096
3D3V B D 38;3D3V B Y 66;0.0231959
3D3V B D 38;3D3V B A 79;0.075899
3D3V B D 38;3D3V B C 80;4.65931
3D3V B D 38;3D3V B R 81;33.1717
3D3V B L 39;3D3V B L 40;23.5197
3D3V B L 39;3D3V B E 44;0.0235626
3D3V B L 39;3D3V B R 45;4.37293
3D3V B L 39;3D3V B I 46;23.1523
3D3V B L 39;3D3V B V 49;22.0316
3D3V B L 39;3D3V B Y 66;8.907
3D3V B L 39;3D3V B Y 67;3.98228
3D3V B L 39;3D3V B T 68;12.8211
3D3V B L 39;3D3V B A 79;6.40713
3D3V B L 39;3D3V B C 80;11.7679
3D3V B L 40;3D3V B K 41;15.2345
3D3V B L 40;3D3V B N 42;1.82761
3D3V B L 40;3D3V B G 43;29.3441
3D3V B L 40;3D3V B E 44;5.59865
3D3V B L 40;3D3V B R 45;12.9891
3D3V B L 40;3D3V B I 46;6.0123
3D3V B L 40;3D3V B E 77;3.04449
3D3V B L 40;3D3V B Y 78;10.5214
3D3V B L 40;3D3V B A 79;31.5275
3D3V B L 40;3D3V B C 80;2.16643
3D3V B L 40;3D3V B R 81;17.3042
3D3V B L 40;3D3V B I 92;16.2124
3D3V B K 41;3D3V B N 42;34.7261
3D3V B K 41;3D3V B G 43;2.86276
3D3V B K 41;3D3V B E 44;24.1271
3D3V B K 41;3D3V B I 46;20.2758
3D3V B K 41;3D3V B T 71;1.82181
3D3V B K 41;3D3V B D 76;15.4108
3D3V B K 41;3D3V B E 77;1.26397
3D3V B K 41;3D3V B Y 78;30.5785
3D3V B N 42;3D3V B G 43;25.1868
3D3V B N 42;3D3V B E 44;8.81817
3D3V B N 42;3D3V B K 75;2.54967
3D3V B N 42;3D3V B D 76;20.9499
3D3V B N 42;3D3V B E 77;34.3456
3D3V B G 43;3D3V B E 44;22.4256
3D3V B G 43;3D3V B R 45;3.04337
3D3V B G 43;3D3V B E 77;1.21266
3D3V B E 44;3D3V B R 45;28.4275
3D3V B E 44;3D3V B I 46;3.99976
3D3V B R 45;3D3V B I 46;33.4298
3D3V B R 45;3D3V B E 47;35.7926
3D3V B R 45;3D3V B V 49;1.27228
3D3V B I 46;3D3V B E 47;24.0415
3D3V B I 46;3D3V B K 48;10.6119
3D3V B I 46;3D3V B V 49;17.8464
3D3V B I 46;3D3V B T 68;20.9881
3D3V B I 46;3D3V B E 69;1.22834
3D3V B I 46;3D3V B F 70;2.72088
3D3V B I 46;3D3V B Y 78;11.0394
3D3V B E 47;3D3V B K 48;26.877
3D3V B E 47;3D3V B V 49;13.9717
3D3V B K 48;3D3V B V 49;21.1412
3D3V B K 48;3D3V B E 50;17.2554
3D3V B K 48;3D3V B Y 67;0.176139
3D3V B K 48;3D3V B T 68;13.9087
3D3V B K 48;3D3V B E 69;1.57843
3D3V B V 49;3D3V B E 50;31.6285
3D3V B V 49;3D3V B H 51;5.07679
3D3V B V 49;3D3V B Y 66;15.4072
3D3V B V 49;3D3V B Y 67;9.2343
3D3V B V 49;3D3V B T 68;10.2028
3D3V B E 50;3D3V B H 51;27.96
3D3V B E 50;3D3V B Y 66;5.89262
3D3V B E 50;3D3V B Y 67;46.5513
3D3V B E 50;3D3V B T 68;0.734828
3D3V B H 51;3D3V B S 52;37.1955
3D3V B H 51;3D3V B D 53;1.04561
3D3V B H 51;3D3V B L 64;7.87312
3D3V B H 51;3D3V B L 65;6.57613
3D3V B H 51;3D3V B Y 66;32.0336
3D3V B H 51;3D3V B Y 67;9.91042
3D3V B S 52;3D3V B D 53;37.6713
3D3V B S 52;3D3V B L 54;1.365
3D3V B S 52;3D3V B Y 63;2.01292
3D3V B S 52;3D3V B L 64;15.984
3D3V B S 52;3D3V B L 65;28.1572
3D3V B S 52;3D3V B Y 67;7.25809
3D3V B D 53;3D3V B L 54;23.9323
3D3V B D 53;3D3V B S 55;6.53846
3D3V B D 53;3D3V B Y 63;6.37606
3D3V B D 53;3D3V B L 64;3.88613
3D3V B L 54;3D3V B S 55;26.2232
3D3V B L 54;3D3V B F 62;18.4552
3D3V B L 54;3D3V B Y 63;5.26512
3D3V B L 54;3D3V B L 64;24.4515
3D3V B S 55;3D3V B F 56;27.7967
3D3V B S 55;3D3V B S 61;0.0501461
3D3V B S 55;3D3V B F 62;9.85594
3D3V B S 55;3D3V B Y 63;31.5291
3D3V B F 56;3D3V B S 57;30.2406
3D3V B F 56;3D3V B W 60;23.7398
3D3V B F 56;3D3V B S 61;6.79484
3D3V B F 56;3D3V B F 62;9.68271
3D3V B F 56;3D3V B Y 63;14.1546
3D3V B S 57;3D3V B K 58;30.9301
3D3V B S 57;3D3V B D 59;10.7631
3D3V B S 57;3D3V B W 60;9.34748
3D3V B S 57;3D3V B S 61;19.0689
3D3V B S 57;3D3V B F 62;0.24938
3D3V B S 57;3D3V B Y 63;18.0106
3D3V B K 58;3D3V B D 59;26.3578
3D3V B K 58;3D3V B W 60;15.842
3D3V B D 59;3D3V B W 60;28.3038
3D3V B D 59;3D3V B S 61;20.9983
3D3V B W 60;3D3V B S 61;19.445
3D3V B W 60;3D3V B F 62;3.39965
3D3V B S 61;3D3V B F 62;20.6336
3D3V B S 61;3D3V B Y 63;1.80311
3D3V B F 62;3D3V B Y 63;20.2375
3D3V B Y 63;3D3V B L 64;25.4109
3D3V B Y 63;3D3V B L 65;0.746321
3D3V B L 64;3D3V B L 65;20.1791
3D3V B L 64;3D3V B Y 66;23.409
3D3V B L 65;3D3V B Y 66;24.5748
3D3V B L 65;3D3V B Y 67;21.4674
3D3V B Y 66;3D3V B Y 67;19.221
3D3V B Y 67;3D3V B T 68;22.7691
3D3V B T 68;3D3V B E 69;32.775
3D3V B T 68;3D3V B F 70;11.0025
3D3V B T 68;3D3V B Y 78;0.123114
3D3V B E 69;3D3V B F 70;29.3235
3D3V B F 70;3D3V B T 71;31.2501
3D3V B F 70;3D3V B P 72;20.0788
3D3V B F 70;3D3V B Y 78;27.3959
3D3V B F 70;3D3V B W 95;13.0182
3D3V B T 71;3D3V B P 72;30.3429
3D3V B T 71;3D3V B T 73;6.49554
3D3V B T 71;3D3V B D 76;3.84637
3D3V B T 71;3D3V B Y 78;7.94258
3D3V B P 72;3D3V B T 73;31.682
3D3V B P 72;3D3V B D 76;1.02715
3D3V B P 72;3D3V B Y 78;8.39779
3D3V B P 72;3D3V B W 95;10.9637
3D3V B P 72;3D3V B R 97;5.69633
3D3V B T 73;3D3V B E 74;24.4198
3D3V B T 73;3D3V B K 75;10.757
3D3V B T 73;3D3V B D 76;32.3966
3D3V B T 73;3D3V B Y 78;0.136217
3D3V B T 73;3D3V B W 95;0.357402
3D3V B T 73;3D3V B R 97;10.1711
3D3V B E 74;3D3V B K 75;30.4553
3D3V B E 74;3D3V B D 76;5.1331
3D3V B E 74;3D3V B R 97;14.698
3D3V B K 75;3D3V B D 76;28.6008
3D3V B K 75;3D3V B E 77;13.015
3D3V B D 76;3D3V B E 77;22.9668
3D3V B D 76;3D3V B Y 78;26.3338
3D3V B D 76;3D3V B W 95;4.5519
3D3V B E 77;3D3V B Y 78;28.8351
3D3V B E 77;3D3V B A 79;2.24033
3D3V B E 77;3D3V B K 94;18.0804
3D3V B Y 78;3D3V B A 79;23.0969
3D3V B Y 78;3D3V B K 94;5.41871
3D3V B Y 78;3D3V B W 95;40.3242
3D3V B A 79;3D3V B C 80;20.0714
3D3V B A 79;3D3V B I 92;12.4658
3D3V B A 79;3D3V B V 93;5.74928
3D3V B A 79;3D3V B K 94;12.547
3D3V B A 79;3D3V B W 95;2.26241
3D3V B C 80;3D3V B R 81;22.2695
3D3V B C 80;3D3V B V 82;9.96592
3D3V B C 80;3D3V B K 91;0.406659
3D3V B C 80;3D3V B I 92;7.78631
3D3V B C 80;3D3V B V 93;16.7821
3D3V B R 81;3D3V B V 82;23.3328
3D3V B R 81;3D3V B N 83;7.02465
3D3V B R 81;3D3V B P 90;28.7548
3D3V B R 81;3D3V B K 91;8.36358
3D3V B R 81;3D3V B I 92;17.9091
3D3V B V 82;3D3V B N 83;21.7629
3D3V B V 82;3D3V B H 84;1.76983
3D3V B V 82;3D3V B L 87;9.50503
3D3V B V 82;3D3V B P 90;5.75841
3D3V B V 82;3D3V B K 91;18.5857
3D3V B V 82;3D3V B V 93;0.090648
3D3V B N 83;3D3V B H 84;33.8115
3D3V B N 83;3D3V B L 87;12.5918
3D3V B N 83;3D3V B Q 89;2.89042
3D3V B N 83;3D3V B P 90;23.4723
3D3V B H 84;3D3V B V 85;34.1819
3D3V B H 84;3D3V B T 86;18.5282
3D3V B H 84;3D3V B L 87;23.0433
3D3V B V 85;3D3V B T 86;24.0744
3D3V B V 85;3D3V B L 87;11.0871
3D3V B T 86;3D3V B L 87;29.2189
3D3V B T 86;3D3V B S 88;3.17256
3D3V B L 87;3D3V B S 88;30.9654
3D3V B L 87;3D3V B Q 89;15.1509
3D3V B L 87;3D3V B P 90;3.09723
3D3V B L 87;3D3V B K 91;31.7858
3D3V B S 88;3D3V B Q 89;40.5759
3D3V B Q 89;3D3V B P 90;41.1891
3D3V B Q 89;3D3V B K 91;3.03505
3D3V B P 90;3D3V B K 91;23.3786
3D3V B P 90;3D3V B I 92;8.46813
3D3V B K 91;3D3V B I 92;30.3019
3D3V B K 91;3D3V B V 93;10.5135
3D3V B I 92;3D3V B V 93;28.044
3D3V B I 92;3D3V B K 94;12.5431
3D3V B V 93;3D3V B K 94;30.4659
3D3V B V 93;3D3V B W 95;0.999078
3D3V B K 94;3D3V B W 95;26.6767
3D3V B K 94;3D3V B D 96;7.85492
3D3V B W 95;3D3V B D 96;40.1997
3D3V B W 95;3D3V B R 97;31.5952
3D3V B W 95;3D3V B M 99;2.95513
3D3V B D 96;3D3V B R 97;30.9574
3D3V B D 96;3D3V B D 98;16.975
3D3V B D 96;3D3V B M 99;43.403
3D3V B R 97;3D3V B D 98;32.319
3D3V B R 97;3D3V B M 99;6.70709
3D3V B D 98;3D3V B M 99;23.1983
3D3V C L 1;3D3V C L 2;20.5309
3D3V C L 2;3D3V C F 3;18.9773
3D3V C L 2;3D3V C G 4;0.352487
3D3V C F 3;3D3V C G 4;31.986
3D3V C F 3;3D3V C P 6;23.9983
3D3V C F 3;3D3V C V 7;0.579462
3D3V C G 4;3D3V C P 6;16.6084
3D3V C P 6;3D3V C V 7;30.6247
3D3V C V 7;3D3V C Y 8;30.2187
3D3V C V 7;3D3V C V 9;2.15753
3D3V C Y 8;3D3V C V 9;29.6591
