V1;V2;Weight
3G6D H Q 1;3G6D H V 2;29.0748
3G6D H Q 1;3G6D H Q 3;10.2897
3G6D H Q 1;3G6D H S 25;4.65242
3G6D H Q 1;3G6D H G 26;18.2026
3G6D H V 2;3G6D H Q 3;28.0183
3G6D H V 2;3G6D H L 4;6.36543
3G6D H V 2;3G6D H S 25;2.51592
3G6D H V 2;3G6D H G 26;13.0444
3G6D H V 2;3G6D H F 27;16.4888
3G6D H V 2;3G6D H R 98;15.5875
3G6D H V 2;3G6D H Y 111;41.7722
3G6D H Q 3;3G6D H L 4;29.6477
3G6D H Q 3;3G6D H V 5;20.5947
3G6D H Q 3;3G6D H A 23;3.16499
3G6D H Q 3;3G6D H A 24;3.87723
3G6D H Q 3;3G6D H S 25;36.4845
3G6D H Q 3;3G6D H F 27;2.97828
3G6D H L 4;3G6D H V 5;24.2392
3G6D H L 4;3G6D H E 6;4.80464
3G6D H L 4;3G6D H C 22;10.6123
3G6D H L 4;3G6D H A 23;2.94259
3G6D H L 4;3G6D H A 24;13.7383
3G6D H L 4;3G6D H F 27;13.3937
3G6D H L 4;3G6D H F 29;0.575288
3G6D H L 4;3G6D H I 34;8.85338
3G6D H L 4;3G6D H C 96;16.9872
3G6D H L 4;3G6D H A 97;2.89776
3G6D H L 4;3G6D H R 98;13.0379
3G6D H L 4;3G6D H Y 111;13.5476
3G6D H L 4;3G6D H W 112;3.46132
3G6D H L 4;3G6D H G 113;19.3384
3G6D H L 4;3G6D H Q 114;4.32647
3G6D H V 5;3G6D H E 6;32.7302
3G6D H V 5;3G6D H S 7;6.80312
3G6D H V 5;3G6D H S 21;2.04624
3G6D H V 5;3G6D H C 22;8.95219
3G6D H V 5;3G6D H A 23;32.1443
3G6D H V 5;3G6D H S 25;0.0609625
3G6D H V 5;3G6D H Q 114;0.0642355
3G6D H E 6;3G6D H S 7;25.702
3G6D H E 6;3G6D H L 20;0.0252481
3G6D H E 6;3G6D H S 21;5.64776
3G6D H E 6;3G6D H C 22;9.6074
3G6D H E 6;3G6D H W 36;10.9157
3G6D H E 6;3G6D H Y 94;4.88106
3G6D H E 6;3G6D H Y 95;4.9188
3G6D H E 6;3G6D H C 96;14.5112
3G6D H E 6;3G6D H G 113;10.0594
3G6D H E 6;3G6D H Q 114;7.08773
3G6D H E 6;3G6D H G 115;19.7648
3G6D H E 6;3G6D H T 116;15.7595
3G6D H S 7;3G6D H G 8;28.044
3G6D H S 7;3G6D H G 9;0.183463
3G6D H S 7;3G6D H R 19;0.743778
3G6D H S 7;3G6D H L 20;7.8602
3G6D H S 7;3G6D H S 21;29.2558
3G6D H S 7;3G6D H W 36;0.000491406
3G6D H S 7;3G6D H T 116;13.8404
3G6D H S 7;3G6D H K 210;0.156501
3G6D H G 8;3G6D H G 9;28.8781
3G6D H G 8;3G6D H G 10;0.113702
3G6D H G 8;3G6D H L 18;16.4323
3G6D H G 8;3G6D H R 19;7.86493
3G6D H G 8;3G6D H L 20;7.07123
3G6D H G 8;3G6D H T 116;2.0344
3G6D H G 9;3G6D H G 10;22.8449
3G6D H G 9;3G6D H L 18;2.19829
3G6D H G 9;3G6D H L 20;5.80839
3G6D H G 9;3G6D H T 116;15.309
3G6D H G 9;3G6D H L 117;8.9978
3G6D H G 9;3G6D H V 118;6.92424
3G6D H G 9;3G6D H K 210;6.33708
3G6D H G 9;3G6D H P 211;9.56926
3G6D H G 10;3G6D H L 11;22.9466
3G6D H G 10;3G6D H V 12;3.42702
3G6D H G 10;3G6D H L 18;10.9612
3G6D H G 10;3G6D H L 117;8.45003
3G6D H G 10;3G6D H V 118;5.81492
3G6D H G 10;3G6D H T 119;11.4619
3G6D H G 10;3G6D H P 156;5.04256
3G6D H G 10;3G6D H E 157;0.463988
3G6D H G 10;3G6D H P 211;15.0312
3G6D H L 11;3G6D H V 12;28.6035
3G6D H L 11;3G6D H Q 13;11.4051
3G6D H L 11;3G6D H L 18;1.49145
3G6D H L 11;3G6D H T 119;15.7161
3G6D H L 11;3G6D H S 121;15.6914
3G6D H L 11;3G6D H A 123;10.8626
3G6D H L 11;3G6D H S 124;6.68099
3G6D H L 11;3G6D H T 125;26.4629
3G6D H L 11;3G6D H F 155;13.8632
3G6D H L 11;3G6D H P 156;17.0027
3G6D H L 11;3G6D H P 211;3.14645
3G6D H V 12;3G6D H Q 13;30.1826
3G6D H V 12;3G6D H P 14;0.94491
3G6D H V 12;3G6D H G 16;7.39383
3G6D H V 12;3G6D H S 17;13.0382
3G6D H V 12;3G6D H L 18;17.462
3G6D H V 12;3G6D H M 83;0.00134754
3G6D H V 12;3G6D H L 86;14.4115
3G6D H V 12;3G6D H V 118;8.30637
3G6D H V 12;3G6D H T 119;7.39826
3G6D H V 12;3G6D H V 120;19.564
3G6D H V 12;3G6D H S 121;6.82091
3G6D H Q 13;3G6D H P 14;30.4914
3G6D H Q 13;3G6D H G 15;0.651061
3G6D H Q 13;3G6D H G 16;15.9518
3G6D H Q 13;3G6D H L 86;1.5701
3G6D H Q 13;3G6D H V 120;3.31391
3G6D H Q 13;3G6D H S 121;7.68459
3G6D H Q 13;3G6D H S 122;15.0216
3G6D H Q 13;3G6D H A 123;12.258
3G6D H Q 13;3G6D H S 124;0.113019
3G6D H P 14;3G6D H G 15;24.2196
3G6D H P 14;3G6D H G 16;3.52421
3G6D H P 14;3G6D H L 86;5.62907
3G6D H P 14;3G6D H R 87;2.07848
3G6D H P 14;3G6D H A 88;10.0585
3G6D H P 14;3G6D H V 120;10.1357
3G6D H P 14;3G6D H S 121;11.9562
3G6D H P 14;3G6D H S 122;22.0237
3G6D H G 15;3G6D H G 16;26.459
3G6D H G 15;3G6D H S 85;18.0543
3G6D H G 15;3G6D H L 86;13.3734
3G6D H G 15;3G6D H R 87;0.036219
3G6D H G 16;3G6D H S 17;25.0107
3G6D H G 16;3G6D H N 84;3.40198
3G6D H G 16;3G6D H S 85;5.24969
3G6D H G 16;3G6D H L 86;12.9695
3G6D H S 17;3G6D H L 18;27.7549
3G6D H S 17;3G6D H Q 82;10.1674
3G6D H S 17;3G6D H M 83;5.62735
3G6D H S 17;3G6D H N 84;16.1934
3G6D H S 17;3G6D H S 85;0.0524819
3G6D H S 17;3G6D H L 86;4.44072
3G6D H L 18;3G6D H R 19;36.062
3G6D H L 18;3G6D H L 20;8.28405
3G6D H L 18;3G6D H L 81;1.39203
3G6D H L 18;3G6D H Q 82;8.15315
3G6D H L 18;3G6D H M 83;29.2957
3G6D H L 18;3G6D H L 86;7.17251
3G6D H L 18;3G6D H V 118;10.5297
3G6D H R 19;3G6D H L 20;27.1257
3G6D H R 19;3G6D H S 21;3.77465
3G6D H R 19;3G6D H S 71;1.11197
3G6D H R 19;3G6D H Y 80;39.7709
3G6D H R 19;3G6D H L 81;8.68225
3G6D H R 19;3G6D H Q 82;30.1544
3G6D H L 20;3G6D H S 21;21.9393
3G6D H L 20;3G6D H W 36;16.6842
3G6D H L 20;3G6D H Y 80;6.20184
3G6D H L 20;3G6D H L 81;25.8108
3G6D H L 20;3G6D H M 83;15.5975
3G6D H L 20;3G6D H Y 94;14.266
3G6D H L 20;3G6D H T 116;13.3517
3G6D H L 20;3G6D H V 118;12.2571
3G6D H S 21;3G6D H C 22;17.7786
3G6D H S 21;3G6D H W 36;9.79652
3G6D H S 21;3G6D H T 78;8.00306
3G6D H S 21;3G6D H L 79;4.53588
3G6D H S 21;3G6D H Y 80;16.8667
3G6D H C 22;3G6D H A 23;21.2539
3G6D H C 22;3G6D H A 24;6.05028
3G6D H C 22;3G6D H F 29;0.459631
3G6D H C 22;3G6D H W 36;8.83534
3G6D H C 22;3G6D H N 77;0.198357
3G6D H C 22;3G6D H T 78;12.4887
3G6D H C 22;3G6D H L 79;22.0048
3G6D H C 22;3G6D H C 96;19.1683
3G6D H A 23;3G6D H A 24;25.0117
3G6D H A 23;3G6D H S 25;3.10714
3G6D H A 23;3G6D H K 76;0.552101
3G6D H A 23;3G6D H N 77;5.13157
3G6D H A 23;3G6D H T 78;12.1213
3G6D H A 24;3G6D H S 25;28.6322
3G6D H A 24;3G6D H F 27;10.4837
3G6D H A 24;3G6D H F 29;18.9572
3G6D H A 24;3G6D H N 77;25.4275
3G6D H A 24;3G6D H T 78;0.0378181
3G6D H S 25;3G6D H G 26;25.9496
3G6D H S 25;3G6D H F 27;14.021
3G6D H S 25;3G6D H N 77;2.59922
3G6D H G 26;3G6D H F 27;34.3735
3G6D H F 27;3G6D H T 28;31.4437
3G6D H F 27;3G6D H F 29;23.885
3G6D H F 27;3G6D H Y 32;16.7298
3G6D H F 27;3G6D H I 34;7.06729
3G6D H F 27;3G6D H N 77;5.86959
3G6D H F 27;3G6D H R 98;24.5116
3G6D H T 28;3G6D H F 29;17.6656
3G6D H T 28;3G6D H N 30;16.4366
3G6D H T 28;3G6D H S 31;19.0687
3G6D H T 28;3G6D H Y 32;12.501
3G6D H F 29;3G6D H N 30;23.7204
3G6D H F 29;3G6D H S 31;1.68338
3G6D H F 29;3G6D H Y 32;8.04739
3G6D H F 29;3G6D H I 34;19.6782
3G6D H F 29;3G6D H R 72;27.4725
3G6D H F 29;3G6D H D 73;3.68958
3G6D H F 29;3G6D H N 74;14.6853
3G6D H F 29;3G6D H N 77;31.737
3G6D H F 29;3G6D H T 78;10.2132
3G6D H F 29;3G6D H L 79;10.8775
3G6D H N 30;3G6D H S 31;20.5404
3G6D H N 30;3G6D H Y 32;2.35898
3G6D H N 30;3G6D H Y 53;19.4517
3G6D H N 30;3G6D H R 72;2.13061
3G6D H N 30;3G6D H N 74;33.055
3G6D H N 30;3G6D H N 77;3.86708
3G6D H S 31;3G6D H Y 32;28.6143
3G6D H S 31;3G6D H Y 53;8.27803
3G6D H S 31;3G6D H G 101;4.80189
3G6D H S 31;3G6D H A 102;12.0468
3G6D H Y 32;3G6D H W 33;20.2524
3G6D H Y 32;3G6D H I 34;12.5596
3G6D H Y 32;3G6D H A 52;0.0550484
3G6D H Y 32;3G6D H Y 53;9.5327
3G6D H Y 32;3G6D H R 72;8.86275
3G6D H Y 32;3G6D H R 98;35.7701
3G6D H Y 32;3G6D H G 99;6.24088
3G6D H Y 32;3G6D H L 100;13.8271
3G6D H Y 32;3G6D H G 101;9.93681
3G6D H Y 32;3G6D H A 102;1.36609
3G6D H Y 32;3G6D H D 110;1.74528
3G6D H W 33;3G6D H I 34;25.0865
3G6D H W 33;3G6D H N 35;12.7713
3G6D H W 33;3G6D H W 47;2.50764
3G6D H W 33;3G6D H G 50;15.1142
3G6D H W 33;3G6D H I 51;17.4312
3G6D H W 33;3G6D H A 52;15.54
3G6D H W 33;3G6D H Y 53;2.62059
3G6D H W 33;3G6D H N 57;13.3669
3G6D H W 33;3G6D H T 58;0.945843
3G6D H W 33;3G6D H L 59;13.18
3G6D H W 33;3G6D H R 72;0.59281
3G6D H W 33;3G6D H R 98;3.26811
3G6D H W 33;3G6D H G 99;15.9821
3G6D H W 33;3G6D H G 101;11.1623
3G6D H W 33;3G6D H A 102;12.0607
3G6D H W 33;3G6D H F 103;10.929
3G6D H W 33;3G6D H H 104;18.1119
3G6D H W 33;3G6D H D 106;0.836304
3G6D H W 33;3G6D H M 107;27.4847
3G6D H I 34;3G6D H N 35;22.6545
3G6D H I 34;3G6D H G 50;3.77414
3G6D H I 34;3G6D H I 51;18.8211
3G6D H I 34;3G6D H I 70;3.0475
3G6D H I 34;3G6D H R 72;10.6851
3G6D H I 34;3G6D H L 79;21.9009
3G6D H I 34;3G6D H C 96;9.35003
3G6D H I 34;3G6D H A 97;5.77461
3G6D H I 34;3G6D H R 98;14.8709
3G6D H I 34;3G6D H G 99;1.31962
3G6D H N 35;3G6D H W 36;20.0496
3G6D H N 35;3G6D H V 37;9.58508
3G6D H N 35;3G6D H W 47;13.0162
3G6D H N 35;3G6D H S 49;4.77025
3G6D H N 35;3G6D H G 50;5.49011
3G6D H N 35;3G6D H I 70;1.09823
3G6D H N 35;3G6D H L 79;5.95908
3G6D H N 35;3G6D H Y 95;0.413733
3G6D H N 35;3G6D H C 96;5.68756
3G6D H N 35;3G6D H A 97;23.1538
3G6D H N 35;3G6D H R 98;0.462303
3G6D H N 35;3G6D H G 99;6.42317
3G6D H N 35;3G6D H M 107;11.3559
3G6D H N 35;3G6D H P 109;7.55867
3G6D H N 35;3G6D L N 96;7.29816
3G6D H W 36;3G6D H V 37;21.1218
3G6D H W 36;3G6D H W 47;2.48056
3G6D H W 36;3G6D H V 48;15.0943
3G6D H W 36;3G6D H S 49;17.59
3G6D H W 36;3G6D H I 70;14.0157
3G6D H W 36;3G6D H L 79;19.8097
3G6D H W 36;3G6D H Y 80;7.81698
3G6D H W 36;3G6D H L 81;28.2755
3G6D H W 36;3G6D H Y 94;16.5106
3G6D H W 36;3G6D H Y 95;11.124
3G6D H W 36;3G6D H C 96;11.8453
3G6D H W 36;3G6D H T 116;2.6335
3G6D H V 37;3G6D H R 38;23.9304
3G6D H V 37;3G6D H L 45;7.66361
3G6D H V 37;3G6D H E 46;9.35717
3G6D H V 37;3G6D H W 47;17.1187
3G6D H V 37;3G6D H V 48;3.35922
3G6D H V 37;3G6D H V 93;0.241335
3G6D H V 37;3G6D H Y 94;4.68956
3G6D H V 37;3G6D H Y 95;29.3409
3G6D H V 37;3G6D H A 97;7.87595
3G6D H V 37;3G6D H P 109;6.10384
3G6D H V 37;3G6D H W 112;15.632
3G6D H V 37;3G6D L N 96;0.882933
3G6D H V 37;3G6D L F 98;11.588
3G6D H R 38;3G6D H Q 39;20.7392
3G6D H R 38;3G6D H A 40;0.100677
3G6D H R 38;3G6D H K 43;7.84746
3G6D H R 38;3G6D H G 44;0.432473
3G6D H R 38;3G6D H L 45;4.28365
3G6D H R 38;3G6D H E 46;42.7223
3G6D H R 38;3G6D H V 48;20.038
3G6D H R 38;3G6D H S 63;11.4294
3G6D H R 38;3G6D H V 64;10.6369
3G6D H R 38;3G6D H R 67;1.23589
3G6D H R 38;3G6D H F 68;5.01685
3G6D H R 38;3G6D H E 89;11.3583
3G6D H R 38;3G6D H D 90;21.3267
3G6D H R 38;3G6D H T 91;0.000144943
3G6D H R 38;3G6D H A 92;13.8561
3G6D H R 38;3G6D H V 93;5.9556
3G6D H R 38;3G6D H Y 94;26.8819
3G6D H R 38;3G6D H Y 95;2.88845
3G6D H Q 39;3G6D H A 40;25.5064
3G6D H Q 39;3G6D H P 41;2.57522
3G6D H Q 39;3G6D H G 42;0.0018977
3G6D H Q 39;3G6D H K 43;15.7252
3G6D H Q 39;3G6D H G 44;12.8093
3G6D H Q 39;3G6D H L 45;16.1392
3G6D H Q 39;3G6D H A 92;9.08266
3G6D H Q 39;3G6D H V 93;26.5796
3G6D H Q 39;3G6D H Y 95;18.6979
3G6D H Q 39;3G6D L Q 37;21.2802
3G6D H Q 39;3G6D L P 43;0.116639
3G6D H Q 39;3G6D L Y 86;7.68461
3G6D H A 40;3G6D H P 41;31.5592
3G6D H A 40;3G6D H G 42;3.70297
3G6D H A 40;3G6D H K 43;37.2668
3G6D H A 40;3G6D H G 44;0.90216
3G6D H A 40;3G6D H T 91;12.1107
3G6D H A 40;3G6D H A 92;9.08189
3G6D H P 41;3G6D H G 42;26.5212
3G6D H P 41;3G6D H K 43;6.40134
3G6D H P 41;3G6D H T 91;14.6039
3G6D H P 41;3G6D H A 92;4.43497
3G6D H P 41;3G6D H V 93;5.82855
3G6D H P 41;3G6D H L 117;5.93555
3G6D H G 42;3G6D H K 43;31.2132
3G6D H G 42;3G6D H G 44;0.569073
3G6D H G 42;3G6D L Y 86;2.67465
3G6D H K 43;3G6D H G 44;42.8081
3G6D H K 43;3G6D H L 45;4.99835
3G6D H K 43;3G6D H E 46;18.5716
3G6D H K 43;3G6D H A 92;0.146355
3G6D H K 43;3G6D L Y 86;2.23354
3G6D H G 44;3G6D H L 45;22.1181
3G6D H G 44;3G6D H E 46;0.239264
3G6D H G 44;3G6D L Y 86;14.5164
3G6D H G 44;3G6D L G 99;0.920434
3G6D H G 44;3G6D L G 100;7.84289
3G6D H L 45;3G6D H E 46;23.328
3G6D H L 45;3G6D H Y 95;4.22356
3G6D H L 45;3G6D H W 112;15.1665
3G6D H L 45;3G6D L Y 35;5.46303
3G6D H L 45;3G6D L Q 37;2.67749
3G6D H L 45;3G6D L P 43;14.0865
3G6D H L 45;3G6D L Y 86;29.0404
3G6D H L 45;3G6D L F 98;37.367
3G6D H L 45;3G6D L G 99;2.33608
3G6D H E 46;3G6D H W 47;29.9115
3G6D H E 46;3G6D H V 48;9.76732
3G6D H E 46;3G6D H A 61;4.43516
3G6D H E 46;3G6D H S 63;15.9767
3G6D H E 46;3G6D L F 98;3.15469
3G6D H W 47;3G6D H V 48;24.0523
3G6D H W 47;3G6D H S 49;13.9787
3G6D H W 47;3G6D H G 50;6.81719
3G6D H W 47;3G6D H L 59;12.7802
3G6D H W 47;3G6D H Y 60;9.102
3G6D H W 47;3G6D H A 61;23.2853
3G6D H W 47;3G6D H M 107;9.98287
3G6D H W 47;3G6D L T 94;8.3308
3G6D H W 47;3G6D L N 95;18.4798
3G6D H W 47;3G6D L N 96;35.8086
3G6D H W 47;3G6D L F 98;10.9424
3G6D H V 48;3G6D H S 49;25.2863
3G6D H V 48;3G6D H Y 60;3.1702
3G6D H V 48;3G6D H A 61;12.6128
3G6D H V 48;3G6D H V 64;21.5962
3G6D H V 48;3G6D H F 68;10.4381
3G6D H V 48;3G6D H L 81;8.71348
3G6D H V 48;3G6D H Y 94;8.47045
3G6D H S 49;3G6D H G 50;15.9579
3G6D H S 49;3G6D H L 59;7.97576
3G6D H S 49;3G6D H Y 60;14.6036
3G6D H S 49;3G6D H V 64;0.579451
3G6D H S 49;3G6D H F 68;0.419385
3G6D H S 49;3G6D H I 70;18.0264
3G6D H S 49;3G6D H L 81;5.88579
3G6D H G 50;3G6D H I 51;15.6171
3G6D H G 50;3G6D H N 57;0.0221972
3G6D H G 50;3G6D H T 58;3.87038
3G6D H G 50;3G6D H L 59;12.7036
3G6D H G 50;3G6D H I 70;12.7335
3G6D H I 51;3G6D H A 52;22.3252
3G6D H I 51;3G6D H S 55;18.355
3G6D H I 51;3G6D H N 57;7.95714
3G6D H I 51;3G6D H T 58;10.3163
3G6D H I 51;3G6D H I 70;20.9116
3G6D H I 51;3G6D H S 71;11.8347
3G6D H I 51;3G6D H R 72;23.8394
3G6D H I 51;3G6D H L 79;10.7644
3G6D H A 52;3G6D H Y 53;20.4512
3G6D H A 52;3G6D H D 54;5.20321
3G6D H A 52;3G6D H S 55;9.99394
3G6D H A 52;3G6D H S 56;8.26329
3G6D H A 52;3G6D H N 57;18.8177
3G6D H A 52;3G6D H R 72;10.5545
3G6D H A 52;3G6D H A 102;5.99369
3G6D H A 52;3G6D H F 103;4.62886
3G6D H Y 53;3G6D H D 54;55.6057
3G6D H Y 53;3G6D H S 55;1.08967
3G6D H Y 53;3G6D H S 56;1.90695
3G6D H Y 53;3G6D H R 72;13.8324
3G6D H Y 53;3G6D H N 74;12.2511
3G6D H Y 53;3G6D H A 102;27.0448
3G6D H Y 53;3G6D H F 103;19.8745
3G6D H D 54;3G6D H S 55;28.693
3G6D H D 54;3G6D H S 56;26.0001
3G6D H D 54;3G6D H R 72;0.388126
3G6D H D 54;3G6D H N 74;0.346655
3G6D H D 54;3G6D H F 103;0.302002
3G6D H S 55;3G6D H S 56;23.1305
3G6D H S 55;3G6D H N 57;8.15986
3G6D H S 55;3G6D H T 58;2.29133
3G6D H S 55;3G6D H R 72;19.0812
3G6D H S 56;3G6D H N 57;32.1181
3G6D H S 56;3G6D H F 103;5.51036
3G6D H N 57;3G6D H T 58;35.8854
3G6D H N 57;3G6D H L 59;16.8114
3G6D H N 57;3G6D H H 104;17.9672
3G6D H T 58;3G6D H L 59;29.0626
3G6D H T 58;3G6D H Y 60;23.9654
3G6D H T 58;3G6D H I 70;12.5766
3G6D H L 59;3G6D H Y 60;31.2432
3G6D H L 59;3G6D H K 65;3.54722
3G6D H L 59;3G6D H I 70;0.563883
3G6D H L 59;3G6D H H 104;13.3406
3G6D H L 59;3G6D H M 107;6.73771
3G6D H L 59;3G6D L N 95;20.4542
3G6D H Y 60;3G6D H A 61;22.0817
3G6D H Y 60;3G6D H D 62;4.92064
3G6D H Y 60;3G6D H V 64;11.0757
3G6D H Y 60;3G6D H K 65;34.1404
3G6D H Y 60;3G6D H G 66;2.04566
3G6D H Y 60;3G6D H F 68;18.1097
3G6D H Y 60;3G6D H T 69;13.9761
3G6D H Y 60;3G6D H I 70;18.6823
3G6D H Y 60;3G6D H L 81;1.88211
3G6D H Y 60;3G6D L N 95;6.45341
3G6D H A 61;3G6D H D 62;23.1745
3G6D H A 61;3G6D H S 63;11.6362
3G6D H A 61;3G6D H V 64;18.0083
3G6D H A 61;3G6D H K 65;8.21714
3G6D H A 61;3G6D L T 94;0.108101
3G6D H D 62;3G6D H S 63;28.4113
3G6D H D 62;3G6D H V 64;2.86812
3G6D H D 62;3G6D H K 65;29.5772
3G6D H D 62;3G6D L T 94;3.92245
3G6D H S 63;3G6D H V 64;23.1526
3G6D H S 63;3G6D H K 65;0.695822
3G6D H S 63;3G6D H R 67;9.80639
3G6D H S 63;3G6D H R 87;17.4366
3G6D H V 64;3G6D H K 65;22.0234
3G6D H V 64;3G6D H G 66;0.823073
3G6D H V 64;3G6D H R 67;18.7731
3G6D H V 64;3G6D H F 68;31.6552
3G6D H K 65;3G6D H G 66;30.0484
3G6D H K 65;3G6D H R 67;11.6658
3G6D H K 65;3G6D H F 68;0.0190801
3G6D H G 66;3G6D H R 67;28.9067
3G6D H G 66;3G6D H F 68;8.71847
3G6D H G 66;3G6D H N 84;0.0402592
3G6D H R 67;3G6D H F 68;37.1777
3G6D H R 67;3G6D H T 69;1.58055
3G6D H R 67;3G6D H Q 82;1.53855
3G6D H R 67;3G6D H M 83;0.799762
3G6D H R 67;3G6D H N 84;32.1071
3G6D H R 67;3G6D H S 85;26.1406
3G6D H R 67;3G6D H L 86;2.53328
3G6D H R 67;3G6D H R 87;34.25
3G6D H R 67;3G6D H D 90;17.8131
3G6D H F 68;3G6D H T 69;24.6502
3G6D H F 68;3G6D H L 81;16.6217
3G6D H F 68;3G6D H Q 82;5.22512
3G6D H F 68;3G6D H M 83;23.3741
3G6D H F 68;3G6D H N 84;6.19553
3G6D H F 68;3G6D H L 86;9.44835
3G6D H F 68;3G6D H D 90;6.28663
3G6D H F 68;3G6D H Y 94;10.5713
3G6D H T 69;3G6D H I 70;24.5225
3G6D H T 69;3G6D H S 71;8.04596
3G6D H T 69;3G6D H Y 80;1.28864
3G6D H T 69;3G6D H L 81;10.1571
3G6D H T 69;3G6D H Q 82;31.7244
3G6D H T 69;3G6D H N 84;4.94513
3G6D H I 70;3G6D H S 71;25.7143
3G6D H I 70;3G6D H L 79;10.2926
3G6D H I 70;3G6D H Y 80;6.77585
3G6D H I 70;3G6D H L 81;10.1564
3G6D H S 71;3G6D H R 72;25.2965
3G6D H S 71;3G6D H L 79;8.13494
3G6D H S 71;3G6D H Y 80;32.7449
3G6D H R 72;3G6D H D 73;26.5877
3G6D H R 72;3G6D H N 74;20.1384
3G6D H R 72;3G6D H T 78;4.69902
3G6D H R 72;3G6D H L 79;9.64369
3G6D H R 72;3G6D H Y 80;5.90312
3G6D H D 73;3G6D H N 74;21.7972
3G6D H D 73;3G6D H S 75;21.4551
3G6D H D 73;3G6D H K 76;26.1342
3G6D H D 73;3G6D H N 77;4.95971
3G6D H D 73;3G6D H T 78;16.0888
3G6D H D 73;3G6D H Y 80;15.329
3G6D H N 74;3G6D H S 75;25.7567
3G6D H N 74;3G6D H N 77;13.6934
3G6D H S 75;3G6D H K 76;30.0467
3G6D H S 75;3G6D H N 77;9.353
3G6D H K 76;3G6D H N 77;25.1303
3G6D H K 76;3G6D H T 78;19.386
3G6D H K 76;3G6D H Y 80;14.8392
3G6D H N 77;3G6D H T 78;18.6925
3G6D H T 78;3G6D H L 79;21.1411
3G6D H T 78;3G6D H Y 80;26.3543
3G6D H L 79;3G6D H Y 80;23.6861
3G6D H L 79;3G6D H C 96;8.82301
3G6D H Y 80;3G6D H L 81;19.6299
3G6D H Y 80;3G6D H Q 82;0.973556
3G6D H L 81;3G6D H Q 82;21.4843
3G6D H L 81;3G6D H M 83;15.5747
3G6D H L 81;3G6D H Y 94;7.58979
3G6D H Q 82;3G6D H M 83;22.5642
3G6D H Q 82;3G6D H N 84;20.5386
3G6D H M 83;3G6D H N 84;19.9358
3G6D H M 83;3G6D H L 86;23.204
3G6D H M 83;3G6D H Y 94;10.3855
3G6D H M 83;3G6D H V 118;12.9979
3G6D H N 84;3G6D H S 85;29.6465
3G6D H N 84;3G6D H L 86;10.1522
3G6D H S 85;3G6D H L 86;15.612
3G6D H S 85;3G6D H R 87;10.2759
3G6D H L 86;3G6D H R 87;21.049
3G6D H L 86;3G6D H D 90;15.238
3G6D H L 86;3G6D H Y 94;1.81471
3G6D H L 86;3G6D H V 118;4.098
3G6D H L 86;3G6D H V 120;17.6081
3G6D H R 87;3G6D H A 88;20.656
3G6D H R 87;3G6D H E 89;31.0174
3G6D H R 87;3G6D H D 90;22.1358
3G6D H R 87;3G6D H V 120;9.33168
3G6D H A 88;3G6D H E 89;29.827
3G6D H A 88;3G6D H D 90;3.72457
3G6D H A 88;3G6D H T 91;14.3159
3G6D H A 88;3G6D H V 120;21.7129
3G6D H A 88;3G6D H S 121;1.62717
3G6D H E 89;3G6D H D 90;23.8292
3G6D H E 89;3G6D H T 91;7.84946
3G6D H D 90;3G6D H T 91;19.1422
3G6D H D 90;3G6D H A 92;3.72303
3G6D H D 90;3G6D H Y 94;14.5029
3G6D H D 90;3G6D H V 118;2.84571
3G6D H D 90;3G6D H V 120;8.4256
3G6D H T 91;3G6D H A 92;23.6033
3G6D H T 91;3G6D H L 117;6.88055
3G6D H T 91;3G6D H V 118;9.33208
3G6D H T 91;3G6D H T 119;15.3428
3G6D H T 91;3G6D H V 120;21.5459
3G6D H A 92;3G6D H V 93;19.2019
3G6D H A 92;3G6D H Y 94;14.6003
3G6D H A 92;3G6D H T 116;0.967486
3G6D H A 92;3G6D H L 117;9.07805
3G6D H A 92;3G6D H V 118;12.8553
3G6D H V 93;3G6D H Y 94;19.4299
3G6D H V 93;3G6D H Y 95;26.383
3G6D H V 93;3G6D H Q 114;5.04058
3G6D H V 93;3G6D H G 115;9.88097
3G6D H V 93;3G6D H T 116;7.73829
3G6D H V 93;3G6D H L 117;19.8886
3G6D H Y 94;3G6D H Y 95;18.2418
3G6D H Y 94;3G6D H C 96;0.0130163
3G6D H Y 94;3G6D H G 115;5.32688
3G6D H Y 94;3G6D H T 116;23.5912
3G6D H Y 94;3G6D H V 118;17.0557
3G6D H Y 95;3G6D H C 96;18.3529
3G6D H Y 95;3G6D H A 97;5.36202
3G6D H Y 95;3G6D H W 112;19.0971
3G6D H Y 95;3G6D H G 113;9.08373
3G6D H Y 95;3G6D H Q 114;7.84861
3G6D H Y 95;3G6D H G 115;9.39437
3G6D H Y 95;3G6D L Q 37;6.80186
3G6D H Y 95;3G6D L Q 41;4.63193
3G6D H Y 95;3G6D L A 42;13.9164
3G6D H Y 95;3G6D L P 43;9.17081
3G6D H C 96;3G6D H A 97;17.7914
3G6D H C 96;3G6D H W 112;1.22068
3G6D H C 96;3G6D H G 113;8.37298
3G6D H A 97;3G6D H R 98;17.1068
3G6D H A 97;3G6D H G 99;0.646425
3G6D H A 97;3G6D H P 109;14.1401
3G6D H A 97;3G6D H Y 111;6.15563
3G6D H A 97;3G6D H W 112;19.398
3G6D H R 98;3G6D H G 99;24.9161
3G6D H R 98;3G6D H Q 108;0.11509
3G6D H R 98;3G6D H P 109;7.49562
3G6D H R 98;3G6D H D 110;30.0782
3G6D H R 98;3G6D H Y 111;28.7156
3G6D H G 99;3G6D H L 100;18.2925
3G6D H G 99;3G6D H G 101;3.7158
3G6D H G 99;3G6D H D 106;0.727515
3G6D H G 99;3G6D H M 107;8.13307
3G6D H G 99;3G6D H Q 108;4.88178
3G6D H G 99;3G6D H P 109;2.02389
3G6D H G 99;3G6D H D 110;6.91397
3G6D H L 100;3G6D H G 101;18.6755
3G6D H L 100;3G6D H D 106;18.8763
3G6D H L 100;3G6D H M 107;0.162512
3G6D H L 100;3G6D H Q 108;27.407
3G6D H L 100;3G6D H P 109;3.17092
3G6D H L 100;3G6D H D 110;22.4101
3G6D H L 100;3G6D L S 33;2.95364
3G6D H L 100;3G6D L L 45;2.7142
3G6D H L 100;3G6D L Y 48;24.9212
3G6D H L 100;3G6D L D 49;7.09209
3G6D H G 101;3G6D H A 102;19.6003
3G6D H G 101;3G6D H F 103;0.987917
3G6D H G 101;3G6D H W 105;0.524363
3G6D H G 101;3G6D H D 106;20.0414
3G6D H A 102;3G6D H F 103;40.471
3G6D H A 102;3G6D H W 105;1.16875
3G6D H A 102;3G6D H D 106;1.30843
3G6D H F 103;3G6D H H 104;25.3991
3G6D H F 103;3G6D H W 105;38.3931
3G6D H F 103;3G6D H D 106;11.8745
3G6D H F 103;3G6D H M 107;3.32911
3G6D H H 104;3G6D H W 105;33.7861
3G6D H H 104;3G6D H D 106;3.39178
3G6D H H 104;3G6D H M 107;22.3625
3G6D H H 104;3G6D L W 90;25.1892
3G6D H H 104;3G6D L N 95;0.401783
3G6D H W 105;3G6D H D 106;29.9939
3G6D H W 105;3G6D L W 90;24.7288
3G6D H D 106;3G6D H M 107;18.5597
3G6D H D 106;3G6D H Q 108;13.1286
3G6D H D 106;3G6D L W 90;0.976422
3G6D H M 107;3G6D H Q 108;17.9735
3G6D H M 107;3G6D H P 109;3.92894
3G6D H M 107;3G6D L W 90;18.367
3G6D H M 107;3G6D L N 95;11.8344
3G6D H M 107;3G6D L N 96;23.3304
3G6D H Q 108;3G6D H P 109;25.6095
3G6D H Q 108;3G6D H D 110;0.782529
3G6D H Q 108;3G6D L F 31;21.9743
3G6D H Q 108;3G6D L V 32;0.204519
3G6D H Q 108;3G6D L S 33;17.059
3G6D H Q 108;3G6D L Y 35;5.01136
3G6D H Q 108;3G6D L D 49;3.08359
3G6D H Q 108;3G6D L G 88;6.68272
3G6D H Q 108;3G6D L T 89;9.82606
3G6D H Q 108;3G6D L W 90;15.3044
3G6D H Q 108;3G6D L N 96;8.92676
3G6D H P 109;3G6D H D 110;20.2065
3G6D H P 109;3G6D H Y 111;0.248617
3G6D H P 109;3G6D H W 112;15.4551
3G6D H P 109;3G6D L S 33;0.858423
3G6D H P 109;3G6D L Y 35;23.2717
3G6D H P 109;3G6D L L 45;5.83709
3G6D H P 109;3G6D L N 96;11.3793
3G6D H P 109;3G6D L F 98;12.6343
3G6D H D 110;3G6D H Y 111;42.8018
3G6D H D 110;3G6D H W 112;11.2347
3G6D H D 110;3G6D L Y 35;1.16409
3G6D H D 110;3G6D L V 44;0.799783
3G6D H D 110;3G6D L L 45;31.3813
3G6D H Y 111;3G6D H W 112;25.8083
3G6D H Y 111;3G6D L P 54;1.92945
3G6D H Y 111;3G6D L S 55;5.50268
3G6D H W 112;3G6D H G 113;26.7265
3G6D H W 112;3G6D H Q 114;6.71726
3G6D H W 112;3G6D L Y 35;19.5172
3G6D H W 112;3G6D L A 42;7.85938
3G6D H W 112;3G6D L P 43;39.1031
3G6D H W 112;3G6D L V 44;0.647246
3G6D H W 112;3G6D L L 45;1.66791
3G6D H W 112;3G6D L F 98;10.0909
3G6D H G 113;3G6D H Q 114;20.6957
3G6D H G 113;3G6D H G 115;1.54948
3G6D H G 113;3G6D L A 42;6.07268
3G6D H Q 114;3G6D H G 115;26.8404
3G6D H Q 114;3G6D L G 40;2.60003
3G6D H Q 114;3G6D L Q 41;7.84957
3G6D H Q 114;3G6D L A 42;24.0043
3G6D H G 115;3G6D H T 116;24.1178
3G6D H T 116;3G6D H L 117;24.7455
3G6D H T 116;3G6D H V 118;6.07818
3G6D H L 117;3G6D H V 118;21.1494
3G6D H L 117;3G6D H T 119;17.6508
3G6D H L 117;3G6D H P 156;0.129673
3G6D H L 117;3G6D H E 157;26.0984
3G6D H L 117;3G6D H P 158;23.2885
3G6D H L 117;3G6D H P 211;0.225157
3G6D H V 118;3G6D H T 119;19.5425
3G6D H V 118;3G6D H V 120;9.61822
3G6D H T 119;3G6D H V 120;17.7767
3G6D H T 119;3G6D H S 121;9.38652
3G6D H T 119;3G6D H F 155;8.94452
3G6D H T 119;3G6D H P 156;19.9461
3G6D H T 119;3G6D H E 157;2.7598
3G6D H V 120;3G6D H S 121;24.796
3G6D H S 121;3G6D H S 122;20.9211
3G6D H S 121;3G6D H A 123;16.6093
3G6D H S 121;3G6D H F 155;8.07001
3G6D H S 122;3G6D H A 123;27.0558
3G6D H S 122;3G6D H S 124;0.106061
3G6D H A 123;3G6D H S 124;32.5798
3G6D H A 123;3G6D H F 155;17.5823
3G6D H S 124;3G6D H T 125;26.1719
3G6D H S 124;3G6D H K 126;29.0264
3G6D H S 124;3G6D H F 155;11.1935
3G6D H S 124;3G6D H L 184;1.00788
3G6D H T 125;3G6D H K 126;29.4607
3G6D H T 125;3G6D H G 127;0.0473875
3G6D H T 125;3G6D H F 155;7.87247
3G6D H T 125;3G6D H P 156;7.43666
3G6D H T 125;3G6D H H 209;3.26437
3G6D H T 125;3G6D H P 211;12.3168
3G6D H T 125;3G6D H S 212;15.424
3G6D H K 126;3G6D H G 127;28.9445
3G6D H K 126;3G6D H D 153;4.4485
3G6D H K 126;3G6D H Y 154;8.55342
3G6D H K 126;3G6D H F 155;17.7206
3G6D H K 126;3G6D H L 184;23.8785
3G6D H K 126;3G6D H H 209;5.20176
3G6D H K 126;3G6D H S 212;1.07567
3G6D H G 127;3G6D H P 128;27.9452
3G6D H G 127;3G6D H S 129;0.62345
3G6D H G 127;3G6D H D 153;10.3978
3G6D H G 127;3G6D H Y 154;3.01777
3G6D H G 127;3G6D H H 209;2.88687
3G6D H G 127;3G6D H S 212;11.0112
3G6D H G 127;3G6D H T 214;5.01114
3G6D H P 128;3G6D H S 129;27.2127
3G6D H P 128;3G6D H V 130;8.47135
3G6D H P 128;3G6D H V 151;12.2884
3G6D H P 128;3G6D H K 152;8.7355
3G6D H P 128;3G6D H D 153;3.54098
3G6D H P 128;3G6D H Y 154;15.8208
3G6D H P 128;3G6D H V 159;3.13714
3G6D H P 128;3G6D H V 207;7.66559
3G6D H P 128;3G6D H H 209;15.2174
3G6D H P 128;3G6D H S 212;1.18077
3G6D H P 128;3G6D H T 214;17.7019
3G6D H P 128;3G6D H V 216;8.06714
3G6D H S 129;3G6D H V 130;25.2036
3G6D H S 129;3G6D H F 131;26.1094
3G6D H S 129;3G6D H L 150;2.35751
3G6D H S 129;3G6D H V 151;1.84313
3G6D H S 129;3G6D H K 152;25.5684
3G6D H S 129;3G6D H D 153;5.56183
3G6D H S 129;3G6D H V 216;0.278796
3G6D H V 130;3G6D H F 131;29.7989
3G6D H V 130;3G6D H C 149;8.78526
3G6D H V 130;3G6D H L 150;8.0875
3G6D H V 130;3G6D H V 151;11.3073
3G6D H V 130;3G6D H C 205;3.89493
3G6D H V 130;3G6D H V 207;17.4064
3G6D H V 130;3G6D H V 216;24.4809
3G6D H V 130;3G6D H K 218;25.4671
3G6D H F 131;3G6D H P 132;23.2748
3G6D H F 131;3G6D H L 133;5.62721
3G6D H F 131;3G6D H C 149;6.85078
3G6D H F 131;3G6D H L 150;29.5206
3G6D H F 131;3G6D H K 152;11.972
3G6D H F 131;3G6D H K 218;6.78601
3G6D H F 131;3G6D L S 122;12.8746
3G6D H F 131;3G6D L E 124;16.0063
3G6D H F 131;3G6D L E 125;26.4969
3G6D H F 131;3G6D L A 128;12.5961
3G6D H F 131;3G6D L K 130;2.09531
3G6D H P 132;3G6D H L 133;18.9334
3G6D H P 132;3G6D H A 134;12.0532
3G6D H P 132;3G6D H G 148;1.93378
3G6D H P 132;3G6D H C 149;2.84114
3G6D H P 132;3G6D H K 218;16.7221
3G6D H P 132;3G6D H K 219;9.49039
3G6D H P 132;3G6D H V 220;16.6962
3G6D H P 132;3G6D H E 221;4.07837
3G6D H P 132;3G6D L S 122;22.6491
3G6D H P 132;3G6D L S 123;0.000571805
3G6D H P 132;3G6D L E 124;22.4954
3G6D H L 133;3G6D H A 134;19.777
3G6D H L 133;3G6D H P 135;0.13495
3G6D H L 133;3G6D H L 147;4.77019
3G6D H L 133;3G6D H G 148;24.2083
3G6D H L 133;3G6D H C 149;10.1182
3G6D H L 133;3G6D H L 150;17.9903
3G6D H L 133;3G6D H S 188;8.06306
3G6D H L 133;3G6D H S 189;1.07725
3G6D H L 133;3G6D H V 190;5.09232
3G6D H L 133;3G6D H V 220;7.5263
3G6D H L 133;3G6D L F 119;30.0828
3G6D H L 133;3G6D L P 120;8.27582
3G6D H L 133;3G6D L S 122;6.32152
3G6D H L 133;3G6D L T 132;0.307715
3G6D H L 133;3G6D L V 134;17.3872
3G6D H L 133;3G6D L L 136;1.95672
3G6D H A 134;3G6D H P 135;28.2796
3G6D H A 134;3G6D H S 136;5.52235
3G6D H A 134;3G6D H A 146;0.214848
3G6D H A 134;3G6D H L 147;0.743332
3G6D H A 134;3G6D H V 220;5.81134
3G6D H A 134;3G6D H E 221;10.0076
3G6D H A 134;3G6D H P 222;0.0440607
3G6D H A 134;3G6D H K 223;17.5835
3G6D H A 134;3G6D L F 119;12.7378
3G6D H A 134;3G6D L P 120;4.91144
3G6D H A 134;3G6D L S 122;0.552847
3G6D H P 135;3G6D H S 136;25.3845
3G6D H P 135;3G6D H A 145;6.96206
3G6D H P 135;3G6D H A 146;6.90363
3G6D H P 135;3G6D H L 147;19.3869
3G6D H P 135;3G6D H L 198;21.2305
3G6D H P 135;3G6D H V 220;6.82054
3G6D H P 135;3G6D H E 221;6.50594
3G6D H P 135;3G6D H P 222;18.2202
3G6D H P 135;3G6D H K 223;5.1055
3G6D H S 136;3G6D H S 137;21.9359
3G6D H S 136;3G6D H K 138;18.6236
3G6D H S 136;3G6D H S 139;3.33379
3G6D H S 136;3G6D H T 140;6.51672
3G6D H S 136;3G6D H A 145;5.95539
3G6D H S 136;3G6D H A 146;18.0053
3G6D H S 136;3G6D L T 117;6.82287
3G6D H S 136;3G6D L L 118;4.89898
3G6D H S 136;3G6D L F 119;10.8665
3G6D H S 136;3G6D L P 120;0.550124
3G6D H S 137;3G6D H K 138;29.0572
3G6D H S 137;3G6D H S 139;1.20067
3G6D H S 137;3G6D H T 140;20.2018
3G6D H S 137;3G6D H T 144;6.96907
3G6D H S 137;3G6D H A 145;10.5351
3G6D H S 137;3G6D H S 195;10.5272
3G6D H K 138;3G6D H S 139;33.2749
3G6D H K 138;3G6D H T 140;4.8504
3G6D H K 138;3G6D L K 205;3.51011
3G6D H S 139;3G6D H T 140;33.5759
3G6D H S 139;3G6D L S 115;0.513042
3G6D H S 139;3G6D L V 116;8.32226
3G6D H S 139;3G6D L T 117;21.3608
3G6D H S 139;3G6D L L 118;1.91199
3G6D H S 139;3G6D L K 205;23.4249
3G6D H T 140;3G6D H S 141;38.9061
3G6D H T 140;3G6D H G 142;0.361349
3G6D H T 140;3G6D H T 144;16.3838
3G6D H T 140;3G6D H A 145;8.15271
3G6D H T 140;3G6D H A 146;13.3466
3G6D H T 140;3G6D H T 192;10.8273
3G6D H T 140;3G6D L T 117;1.5689
3G6D H S 141;3G6D H G 142;35.6103
3G6D H S 141;3G6D H G 143;2.33939
3G6D H S 141;3G6D H T 144;24.8053
3G6D H G 142;3G6D H G 143;27.3909
3G6D H G 142;3G6D H T 144;8.36187
3G6D H G 143;3G6D H T 144;21.2019
3G6D H G 143;3G6D H P 194;5.75295
3G6D H G 143;3G6D H S 195;22.0485
3G6D H G 143;3G6D H S 196;2.9033
3G6D H T 144;3G6D H A 145;17.6161
3G6D H T 144;3G6D H T 192;10.2905
3G6D H T 144;3G6D H V 193;10.6659
3G6D H T 144;3G6D H P 194;16.1483
3G6D H T 144;3G6D H S 195;10.7984
3G6D H A 145;3G6D H A 146;18.7334
3G6D H A 145;3G6D H L 147;3.75734
3G6D H A 145;3G6D H V 191;1.56413
3G6D H A 145;3G6D H T 192;7.85488
3G6D H A 145;3G6D H V 193;21.6543
3G6D H A 145;3G6D H P 194;0.225999
3G6D H A 145;3G6D H S 195;10.2198
3G6D H A 145;3G6D H L 198;12.6995
3G6D H A 146;3G6D H L 147;18.3925
3G6D H A 146;3G6D H V 190;7.74325
3G6D H A 146;3G6D H V 191;5.2498
3G6D H A 146;3G6D H T 192;13.2057
3G6D H A 146;3G6D L T 117;13.0033
3G6D H A 146;3G6D L F 119;14.5485
3G6D H L 147;3G6D H G 148;17.3898
3G6D H L 147;3G6D H W 163;13.2809
3G6D H L 147;3G6D H V 190;6.28465
3G6D H L 147;3G6D H V 191;28.4913
3G6D H L 147;3G6D H V 193;13.6587
3G6D H L 147;3G6D H L 198;8.82809
3G6D H L 147;3G6D H Y 203;18.9151
3G6D H L 147;3G6D H V 220;16.6339
3G6D H L 147;3G6D L F 119;4.77305
3G6D H G 148;3G6D H C 149;16.5448
3G6D H G 148;3G6D H W 163;8.69439
3G6D H G 148;3G6D H S 189;5.29597
3G6D H G 148;3G6D H V 190;7.0206
3G6D H G 148;3G6D H V 220;7.68008
3G6D H G 148;3G6D L F 119;3.11514
3G6D H C 149;3G6D H L 150;16.8999
3G6D H C 149;3G6D H V 151;9.64911
3G6D H C 149;3G6D H V 161;2.27788
3G6D H C 149;3G6D H W 163;8.89043
3G6D H C 149;3G6D H L 187;0.244064
3G6D H C 149;3G6D H S 188;5.80858
3G6D H C 149;3G6D H S 189;17.8017
3G6D H C 149;3G6D H C 205;18.6138
3G6D H C 149;3G6D H V 207;1.13855
3G6D H C 149;3G6D H K 218;6.9435
3G6D H C 149;3G6D H V 220;7.62717
3G6D H L 150;3G6D H V 151;21.7285
3G6D H L 150;3G6D H K 152;20.5939
3G6D H L 150;3G6D H S 186;5.57363
3G6D H L 150;3G6D H L 187;6.78767
3G6D H L 150;3G6D H S 188;7.51166
3G6D H L 150;3G6D L S 122;0.12194
3G6D H L 150;3G6D L E 125;7.2747
3G6D H L 150;3G6D L T 132;15.2018
3G6D H L 150;3G6D L V 134;11.561
3G6D H L 150;3G6D L Y 178;13.7081
3G6D H V 151;3G6D H K 152;17.9305
3G6D H V 151;3G6D H D 153;0.25652
3G6D H V 151;3G6D H Y 154;13.4248
3G6D H V 151;3G6D H V 159;12.0732
3G6D H V 151;3G6D H V 161;6.31273
3G6D H V 151;3G6D H Y 185;0.0099844
3G6D H V 151;3G6D H S 186;6.66411
3G6D H V 151;3G6D H L 187;29.609
3G6D H V 151;3G6D H S 188;0.111104
3G6D H V 151;3G6D H S 189;1.05839
3G6D H V 151;3G6D H V 207;16.7337
3G6D H K 152;3G6D H D 153;46.2188
3G6D H K 152;3G6D H Y 154;2.42454
3G6D H K 152;3G6D H Q 180;9.57212
3G6D H K 152;3G6D H S 186;11.7171
3G6D H K 152;3G6D L E 125;10.5664
3G6D H K 152;3G6D L K 130;10.5655
3G6D H K 152;3G6D L A 131;0.225176
3G6D H K 152;3G6D L T 132;18.3526
3G6D H K 152;3G6D L S 180;13.8629
3G6D H D 153;3G6D H Y 154;18.9184
3G6D H D 153;3G6D H Q 180;14.6999
3G6D H D 153;3G6D H S 182;0.30691
3G6D H D 153;3G6D H L 184;25.3362
3G6D H D 153;3G6D H Y 185;6.57252
3G6D H D 153;3G6D H S 186;5.89107
3G6D H Y 154;3G6D H F 155;20.9419
3G6D H Y 154;3G6D H P 156;5.00069
3G6D H Y 154;3G6D H E 157;14.777
3G6D H Y 154;3G6D H P 158;3.23844
3G6D H Y 154;3G6D H V 159;18.8605
3G6D H Y 154;3G6D H A 177;7.23426
3G6D H Y 154;3G6D H L 184;9.11109
3G6D H Y 154;3G6D H Y 185;34.8936
3G6D H Y 154;3G6D H S 186;6.84481
3G6D H Y 154;3G6D H L 187;15.2332
3G6D H Y 154;3G6D H H 209;13.0349
3G6D H F 155;3G6D H P 156;36.5407
3G6D H F 155;3G6D H L 179;1.78559
3G6D H F 155;3G6D H G 183;12.8682
3G6D H F 155;3G6D H L 184;15.4195
3G6D H F 155;3G6D H Y 185;21.3841
3G6D H F 155;3G6D H H 209;7.76028
3G6D H P 156;3G6D H E 157;29.8699
3G6D H P 156;3G6D H P 158;1.21177
3G6D H P 156;3G6D H Y 185;5.77659
3G6D H P 156;3G6D H H 209;8.76477
3G6D H P 156;3G6D H P 211;15.7528
3G6D H E 157;3G6D H P 158;30.8429
3G6D H E 157;3G6D H V 159;1.58468
3G6D H E 157;3G6D H A 177;17.5892
3G6D H E 157;3G6D H Y 185;34.488
3G6D H E 157;3G6D H L 187;0.798558
3G6D H E 157;3G6D H P 211;5.64305
3G6D H P 158;3G6D H V 159;32.2964
3G6D H P 158;3G6D H T 160;2.34048
3G6D H P 158;3G6D H N 208;0.730832
3G6D H P 158;3G6D H H 209;8.56075
3G6D H P 158;3G6D H K 210;5.3979
3G6D H P 158;3G6D H P 211;19.3514
3G6D H V 159;3G6D H T 160;26.9102
3G6D H V 159;3G6D H V 161;14.4481
3G6D H V 159;3G6D H T 174;1.79479
3G6D H V 159;3G6D H L 187;20.9217
3G6D H V 159;3G6D H V 207;9.65068
3G6D H V 159;3G6D H N 208;10.1617
3G6D H V 159;3G6D H H 209;10.5603
3G6D H T 160;3G6D H V 161;29.4391
3G6D H T 160;3G6D H S 162;8.19691
3G6D H T 160;3G6D H N 206;4.60435
3G6D H T 160;3G6D H V 207;4.29719
3G6D H T 160;3G6D H N 208;30.484
3G6D H T 160;3G6D H K 210;20.5256
3G6D H V 161;3G6D H S 162;30.3359
3G6D H V 161;3G6D H W 163;5.17479
3G6D H V 161;3G6D H V 172;2.36958
3G6D H V 161;3G6D H T 174;21.0869
3G6D H V 161;3G6D H L 187;9.17854
3G6D H V 161;3G6D H S 189;14.7435
3G6D H V 161;3G6D H C 205;8.97423
3G6D H V 161;3G6D H N 206;7.93484
3G6D H V 161;3G6D H V 207;11.2213
3G6D H S 162;3G6D H W 163;29.574
3G6D H S 162;3G6D H S 165;5.20795
3G6D H S 162;3G6D H G 166;13.8048
3G6D H S 162;3G6D H L 168;0.130377
3G6D H S 162;3G6D H V 172;2.70356
3G6D H S 162;3G6D H I 204;0.0167315
3G6D H S 162;3G6D H C 205;4.93691
3G6D H S 162;3G6D H N 206;29.453
3G6D H W 163;3G6D H N 164;20.0549
3G6D H W 163;3G6D H S 165;1.68334
3G6D H W 163;3G6D H G 166;7.81724
3G6D H W 163;3G6D H A 167;1.29032
3G6D H W 163;3G6D H L 168;30.0672
3G6D H W 163;3G6D H V 172;19.7847
3G6D H W 163;3G6D H S 189;18.6223
3G6D H W 163;3G6D H V 190;2.13888
3G6D H W 163;3G6D H V 191;23.0772
3G6D H W 163;3G6D H Y 203;7.0612
3G6D H W 163;3G6D H I 204;13.7631
3G6D H W 163;3G6D H C 205;19.0635
3G6D H W 163;3G6D H N 206;2.95529
3G6D H W 163;3G6D H V 220;9.97871
3G6D H N 164;3G6D H S 165;26.5907
3G6D H N 164;3G6D H G 166;2.1705
3G6D H N 164;3G6D H A 167;20.1997
3G6D H N 164;3G6D H L 168;17.4169
3G6D H N 164;3G6D H Q 201;8.64805
3G6D H N 164;3G6D H T 202;10.2707
3G6D H N 164;3G6D H Y 203;11.1629
3G6D H N 164;3G6D H I 204;31.8186
3G6D H N 164;3G6D H N 206;4.32147
3G6D H S 165;3G6D H G 166;23.2676
3G6D H S 165;3G6D H A 167;4.02798
3G6D H S 165;3G6D H I 204;0.520936
3G6D H S 165;3G6D H N 206;23.6852
3G6D H G 166;3G6D H A 167;22.4412
3G6D H G 166;3G6D H L 168;6.66879
3G6D H G 166;3G6D H T 169;15.0223
3G6D H G 166;3G6D H N 206;0.0173927
3G6D H A 167;3G6D H L 168;24.4791
3G6D H A 167;3G6D H T 169;12.3296
3G6D H L 168;3G6D H T 169;25.7707
3G6D H L 168;3G6D H S 170;13.7893
3G6D H L 168;3G6D H V 172;8.90043
3G6D H L 168;3G6D H V 191;15.8829
3G6D H L 168;3G6D H T 192;1.87971
3G6D H L 168;3G6D H V 193;10.5543
3G6D H L 168;3G6D H Y 203;17.425
3G6D H T 169;3G6D H S 170;38.4883
3G6D H T 169;3G6D H G 171;0.663376
3G6D H T 169;3G6D H V 172;21.7362
3G6D H S 170;3G6D H G 171;27.0767
3G6D H S 170;3G6D H V 172;2.71397
3G6D H S 170;3G6D H V 191;2.7746
3G6D H S 170;3G6D H T 192;5.3639
3G6D H G 171;3G6D H V 172;23.9226
3G6D H G 171;3G6D H H 173;5.40329
3G6D H G 171;3G6D H V 190;4.30414
3G6D H G 171;3G6D H V 191;7.24458
3G6D H G 171;3G6D H T 192;28.3705
3G6D H V 172;3G6D H H 173;27.3778
3G6D H V 172;3G6D H T 174;12.591
3G6D H V 172;3G6D H S 189;5.27009
3G6D H V 172;3G6D H V 190;3.79404
3G6D H V 172;3G6D H V 191;15.9529
3G6D H H 173;3G6D H T 174;28.3237
3G6D H H 173;3G6D H F 175;29.7255
3G6D H H 173;3G6D H P 176;3.04715
3G6D H H 173;3G6D H S 188;1.07054
3G6D H H 173;3G6D H S 189;4.43317
3G6D H H 173;3G6D H V 190;27.6623
3G6D H H 173;3G6D L S 138;12.2237
3G6D H H 173;3G6D L D 139;0.497787
3G6D H H 173;3G6D L Q 168;15.3461
3G6D H H 173;3G6D L A 174;8.8985
3G6D H T 174;3G6D H F 175;27.2017
3G6D H T 174;3G6D H P 176;3.21615
3G6D H T 174;3G6D H L 187;13.931
3G6D H T 174;3G6D H S 188;3.5433
3G6D H T 174;3G6D H S 189;15.3942
3G6D H F 175;3G6D H P 176;40.5016
3G6D H F 175;3G6D H A 177;0.744744
3G6D H F 175;3G6D H L 187;12.3675
3G6D H F 175;3G6D H S 188;20.2567
3G6D H F 175;3G6D H V 190;10.7998
3G6D H F 175;3G6D L L 136;25.6944
3G6D H F 175;3G6D L I 137;8.6752
3G6D H F 175;3G6D L S 138;10.8925
3G6D H F 175;3G6D L A 174;9.59792
3G6D H F 175;3G6D L A 175;9.56872
3G6D H F 175;3G6D L S 176;13.0219
3G6D H F 175;3G6D L Y 178;1.95039
3G6D H P 176;3G6D H A 177;31.8229
3G6D H P 176;3G6D H V 178;2.56403
3G6D H P 176;3G6D H S 186;0.415971
3G6D H P 176;3G6D H L 187;4.50634
3G6D H P 176;3G6D H S 188;0.012924
3G6D H P 176;3G6D L T 163;9.3317
3G6D H P 176;3G6D L S 166;23.1609
3G6D H P 176;3G6D L A 174;13.3236
3G6D H P 176;3G6D L A 175;2.19028
3G6D H P 176;3G6D L S 176;6.99351
3G6D H P 176;3G6D L Y 178;1.51111
3G6D H A 177;3G6D H V 178;20.4146
3G6D H A 177;3G6D H L 179;2.04501
3G6D H A 177;3G6D H Y 185;10.9302
3G6D H A 177;3G6D H S 186;6.76801
3G6D H A 177;3G6D H L 187;12.2132
3G6D H A 177;3G6D L T 163;10.7545
3G6D H V 178;3G6D H L 179;29.9296
3G6D H V 178;3G6D H Q 180;11.8546
3G6D H V 178;3G6D H L 184;1.74849
3G6D H V 178;3G6D H Y 185;9.25876
3G6D H V 178;3G6D H S 186;22.8824
3G6D H V 178;3G6D L E 161;16.1129
3G6D H V 178;3G6D L T 162;7.2561
3G6D H V 178;3G6D L T 163;19.5475
3G6D H V 178;3G6D L S 176;7.63523
3G6D H V 178;3G6D L Y 178;18.3487
3G6D H L 179;3G6D H Q 180;29.7755
3G6D H L 179;3G6D H G 183;14.0132
3G6D H L 179;3G6D H L 184;9.56935
3G6D H L 179;3G6D H Y 185;38.5807
3G6D H L 179;3G6D L E 161;5.43186
3G6D H L 179;3G6D L T 163;0.481796
3G6D H Q 180;3G6D H S 181;23.3595
3G6D H Q 180;3G6D H S 182;18.4389
3G6D H Q 180;3G6D H G 183;10.2463
3G6D H Q 180;3G6D H L 184;20.2525
3G6D H Q 180;3G6D H Y 185;3.68481
3G6D H Q 180;3G6D H S 186;14.9303
3G6D H Q 180;3G6D L E 161;27.814
3G6D H Q 180;3G6D L Y 178;5.34803
3G6D H Q 180;3G6D L S 180;5.30363
3G6D H S 181;3G6D H S 182;27.2219
3G6D H S 181;3G6D H G 183;8.14461
3G6D H S 181;3G6D L V 160;0.233594
3G6D H S 181;3G6D L E 161;26.8003
3G6D H S 182;3G6D H G 183;22.5728
3G6D H S 182;3G6D H L 184;25.5927
3G6D H S 182;3G6D L E 161;0.0241026
3G6D H G 183;3G6D H L 184;24.6217
3G6D H L 184;3G6D H Y 185;21.0696
3G6D H Y 185;3G6D H S 186;20.0842
3G6D H S 186;3G6D H L 187;18.3113
3G6D H S 186;3G6D L Y 178;14.6954
3G6D H L 187;3G6D H S 188;27.0672
3G6D H L 187;3G6D H S 189;5.16374
3G6D H L 187;3G6D L Y 178;8.18186
3G6D H S 188;3G6D H S 189;19.0805
3G6D H S 188;3G6D H V 190;1.67424
3G6D H S 188;3G6D L V 134;7.79149
3G6D H S 188;3G6D L L 136;15.1717
3G6D H S 188;3G6D L S 176;0.163379
3G6D H S 188;3G6D L Y 178;14.8338
3G6D H S 189;3G6D H V 190;21.96
3G6D H S 189;3G6D H C 205;0.0257741
3G6D H V 190;3G6D H V 191;20.9085
3G6D H V 190;3G6D H T 192;4.64135
3G6D H V 190;3G6D L T 117;3.72689
3G6D H V 190;3G6D L F 119;14.9779
3G6D H V 190;3G6D L L 136;17.172
3G6D H V 191;3G6D H T 192;24.8724
3G6D H V 191;3G6D H V 193;13.0968
3G6D H V 191;3G6D H Y 203;2.32964
3G6D H T 192;3G6D H V 193;25.3296
3G6D H T 192;3G6D H P 194;1.47172
3G6D H V 193;3G6D H P 194;32.9525
3G6D H V 193;3G6D H S 195;1.12319
3G6D H V 193;3G6D H S 197;2.29917
3G6D H V 193;3G6D H L 198;7.37566
3G6D H V 193;3G6D H Y 203;22.2775
3G6D H P 194;3G6D H S 195;16.3232
3G6D H P 194;3G6D H S 196;11.2418
3G6D H P 194;3G6D H S 197;25.3328
3G6D H P 194;3G6D H L 198;6.12292
3G6D H P 194;3G6D H Y 203;4.62258
3G6D H S 195;3G6D H S 196;27.4978
3G6D H S 195;3G6D H S 197;1.11998
3G6D H S 195;3G6D H L 198;23.5867
3G6D H S 196;3G6D H S 197;22.8381
3G6D H S 196;3G6D H L 198;11.7602
3G6D H S 196;3G6D H T 200;5.74974
3G6D H S 197;3G6D H L 198;19.8472
3G6D H S 197;3G6D H G 199;1.12334
3G6D H S 197;3G6D H T 200;15.8156
3G6D H S 197;3G6D H Q 201;21.8888
3G6D H S 197;3G6D H Y 203;13.3099
3G6D H L 198;3G6D H G 199;26.0333
3G6D H L 198;3G6D H T 200;3.11488
3G6D H L 198;3G6D H Q 201;1.8638
3G6D H L 198;3G6D H Y 203;13.5984
3G6D H L 198;3G6D H V 220;1.16072
3G6D H L 198;3G6D H P 222;20.0281
3G6D H G 199;3G6D H T 200;34.366
3G6D H G 199;3G6D H Q 201;4.10844
3G6D H G 199;3G6D H P 222;12.5989
3G6D H T 200;3G6D H Q 201;28.98
3G6D H T 200;3G6D H T 202;10.3301
3G6D H Q 201;3G6D H T 202;34.9537
3G6D H Q 201;3G6D H Y 203;33.868
3G6D H T 202;3G6D H Y 203;25.072
3G6D H T 202;3G6D H I 204;21.5727
3G6D H T 202;3G6D H K 219;25.4245
3G6D H Y 203;3G6D H I 204;21.1194
3G6D H Y 203;3G6D H K 218;0.0302286
3G6D H Y 203;3G6D H K 219;8.38521
3G6D H Y 203;3G6D H V 220;24.8571
3G6D H I 204;3G6D H C 205;20.3715
3G6D H I 204;3G6D H N 206;11.3244
3G6D H I 204;3G6D H D 217;18.2181
3G6D H I 204;3G6D H K 218;8.09081
3G6D H I 204;3G6D H K 219;13.8766
3G6D H I 204;3G6D H V 220;1.03092
3G6D H C 205;3G6D H N 206;17.577
3G6D H C 205;3G6D H V 207;11.7735
3G6D H C 205;3G6D H V 216;2.60773
3G6D H C 205;3G6D H D 217;4.30349
3G6D H C 205;3G6D H K 218;18.5326
3G6D H C 205;3G6D H V 220;1.37388
3G6D H N 206;3G6D H V 207;22.4057
3G6D H N 206;3G6D H N 208;1.00869
3G6D H N 206;3G6D H V 216;2.3539
3G6D H N 206;3G6D H D 217;23.8221
3G6D H V 207;3G6D H N 208;28.4436
3G6D H V 207;3G6D H H 209;1.91914
3G6D H V 207;3G6D H K 215;10.1868
3G6D H V 207;3G6D H V 216;27.1278
3G6D H V 207;3G6D H D 217;0.833508
3G6D H V 207;3G6D H K 218;0.143629
3G6D H N 208;3G6D H H 209;23.9374
3G6D H N 208;3G6D H K 210;29.8774
3G6D H N 208;3G6D H N 213;1.21594
3G6D H N 208;3G6D H T 214;8.51489
3G6D H N 208;3G6D H K 215;28.018
3G6D H H 209;3G6D H K 210;16.5378
3G6D H H 209;3G6D H P 211;16.3421
3G6D H H 209;3G6D H S 212;21.1196
3G6D H H 209;3G6D H N 213;4.76954
3G6D H H 209;3G6D H T 214;18.147
3G6D H K 210;3G6D H P 211;32.2482
3G6D H K 210;3G6D H S 212;0.767034
3G6D H K 210;3G6D H N 213;21.04
3G6D H P 211;3G6D H S 212;19.0155
3G6D H P 211;3G6D H N 213;8.34012
3G6D H S 212;3G6D H N 213;27.7204
3G6D H S 212;3G6D H T 214;20.6434
3G6D H N 213;3G6D H T 214;26.6206
3G6D H N 213;3G6D H K 215;1.70494
3G6D H T 214;3G6D H K 215;36.6733
3G6D H T 214;3G6D H V 216;10.9253
3G6D H K 215;3G6D H V 216;32.9759
3G6D H K 215;3G6D H D 217;3.01148
3G6D H V 216;3G6D H D 217;30.5701
3G6D H V 216;3G6D H K 218;19.5982
3G6D H D 217;3G6D H K 218;17.7431
3G6D H D 217;3G6D H K 219;6.3195
3G6D H K 218;3G6D H K 219;28.2336
3G6D H K 218;3G6D H V 220;6.55387
3G6D H K 218;3G6D L E 124;22.4319
3G6D H K 219;3G6D H V 220;22.718
3G6D H K 219;3G6D H E 221;38.6117
3G6D H K 219;3G6D L E 124;0.0896224
3G6D H V 220;3G6D H E 221;27.7398
3G6D H V 220;3G6D H P 222;4.05713
3G6D H E 221;3G6D H P 222;42.535
3G6D H E 221;3G6D H K 223;0.770832
3G6D H P 222;3G6D H K 223;36.8806
3G6D L S 1;3G6D L Y 2;33.9988
3G6D L S 1;3G6D L E 3;17.0916
3G6D L S 1;3G6D L D 91;0.997388
3G6D L S 1;3G6D L V 93;15.0219
3G6D L S 1;3G6D L T 94;17.7207
3G6D L Y 2;3G6D L E 3;34.1501
3G6D L Y 2;3G6D L L 4;15.4018
3G6D L Y 2;3G6D L G 24;9.28049
3G6D L Y 2;3G6D L D 25;21.0859
3G6D L Y 2;3G6D L N 26;7.24411
3G6D L Y 2;3G6D L I 27;11.6102
3G6D L Y 2;3G6D L T 30;11.4454
3G6D L Y 2;3G6D L T 89;4.13755
3G6D L Y 2;3G6D L D 91;30.5697
3G6D L Y 2;3G6D L T 94;14.2802
3G6D L Y 2;3G6D L V 97;18.8587
3G6D L E 3;3G6D L L 4;25.2614
3G6D L E 3;3G6D L T 5;21.5904
3G6D L E 3;3G6D L S 23;2.46229
3G6D L E 3;3G6D L G 24;8.16845
3G6D L E 3;3G6D L V 97;7.70168
3G6D L E 3;3G6D L F 98;0.0031547
3G6D L L 4;3G6D L T 5;25.0311
3G6D L L 4;3G6D L C 22;11.2239
3G6D L L 4;3G6D L S 23;8.06193
3G6D L L 4;3G6D L G 24;3.15366
3G6D L L 4;3G6D L I 27;13.3757
3G6D L L 4;3G6D L C 87;9.52313
3G6D L L 4;3G6D L G 88;4.48825
3G6D L L 4;3G6D L T 89;20.8524
3G6D L L 4;3G6D L V 97;19.5593
3G6D L L 4;3G6D L F 98;9.77239
3G6D L L 4;3G6D L G 99;16.0129
3G6D L L 4;3G6D L G 100;5.46942
3G6D L T 5;3G6D L Q 6;30.7634
3G6D L T 5;3G6D L P 7;1.28201
3G6D L T 5;3G6D L S 21;2.6607
3G6D L T 5;3G6D L C 22;6.20189
3G6D L T 5;3G6D L S 23;31.4225
3G6D L T 5;3G6D L C 87;0.0828421
3G6D L T 5;3G6D L G 99;0.951505
3G6D L T 5;3G6D L G 100;2.96563
3G6D L Q 6;3G6D L P 7;30.4283
3G6D L Q 6;3G6D L P 8;8.43298
3G6D L Q 6;3G6D L I 20;2.86312
3G6D L Q 6;3G6D L S 21;8.40834
3G6D L Q 6;3G6D L C 22;6.12858
3G6D L Q 6;3G6D L W 34;8.59065
3G6D L Q 6;3G6D L Y 85;4.78413
3G6D L Q 6;3G6D L Y 86;5.77875
3G6D L Q 6;3G6D L C 87;15.1121
3G6D L Q 6;3G6D L G 99;9.96383
3G6D L Q 6;3G6D L G 100;12.1794
3G6D L Q 6;3G6D L G 101;19.5373
3G6D L Q 6;3G6D L T 102;12.4224
3G6D L P 7;3G6D L P 8;26.2997
3G6D L P 7;3G6D L S 9;11.9667
3G6D L P 7;3G6D L V 10;13.2079
3G6D L P 7;3G6D L R 19;0.361134
3G6D L P 7;3G6D L I 20;4.03499
3G6D L P 7;3G6D L S 21;25.5519
3G6D L P 7;3G6D L G 101;1.2423
3G6D L P 7;3G6D L T 102;13.7505
3G6D L P 8;3G6D L S 9;32.5282
3G6D L P 8;3G6D L G 101;10.4449
3G6D L P 8;3G6D L T 102;5.41444
3G6D L P 8;3G6D L K 103;14.439
3G6D L S 9;3G6D L V 10;31.6883
3G6D L S 9;3G6D L S 11;0.474735
3G6D L S 9;3G6D L T 102;5.04512
3G6D L S 9;3G6D L K 103;14.5077
3G6D L S 9;3G6D L T 105;0.106642
3G6D L V 10;3G6D L S 11;34.4598
3G6D L V 10;3G6D L V 12;6.9977
3G6D L V 10;3G6D L A 18;2.46861
3G6D L V 10;3G6D L R 19;18.036
3G6D L V 10;3G6D L I 20;10.4536
3G6D L V 10;3G6D L T 102;9.88357
3G6D L V 10;3G6D L K 103;7.99686
3G6D L V 10;3G6D L L 104;23.7501
3G6D L V 10;3G6D L T 105;11.0382
3G6D L S 11;3G6D L V 12;26.2005
3G6D L S 11;3G6D L L 104;0.467045
3G6D L S 11;3G6D L T 105;16.5764
3G6D L S 11;3G6D L L 107;25.02
3G6D L V 12;3G6D L A 13;23.6758
3G6D L V 12;3G6D L P 14;0.430961
3G6D L V 12;3G6D L Q 16;18.8522
3G6D L V 12;3G6D L T 17;7.873
3G6D L V 12;3G6D L A 18;15.5548
3G6D L V 12;3G6D L R 19;0.484737
3G6D L V 12;3G6D L T 77;13.8251
3G6D L V 12;3G6D L L 104;8.91301
3G6D L V 12;3G6D L T 105;7.64426
3G6D L V 12;3G6D L V 106;12.6368
3G6D L V 12;3G6D L L 107;15.8179
3G6D L A 13;3G6D L P 14;33.7523
3G6D L A 13;3G6D L G 15;0.548372
3G6D L A 13;3G6D L Q 16;30.2919
3G6D L A 13;3G6D L T 77;2.27654
3G6D L A 13;3G6D L V 106;0.0300419
3G6D L A 13;3G6D L L 107;18.6218
3G6D L P 14;3G6D L G 15;21.9357
3G6D L P 14;3G6D L Q 16;8.82212
3G6D L P 14;3G6D L T 77;8.91957
3G6D L P 14;3G6D L Q 78;1.92197
3G6D L P 14;3G6D L A 79;2.67203
3G6D L P 14;3G6D L V 106;21.7383
3G6D L P 14;3G6D L L 107;15.4745
3G6D L P 14;3G6D L G 108;2.72969
3G6D L G 15;3G6D L Q 16;23.7459
3G6D L G 15;3G6D L T 17;1.82457
3G6D L G 15;3G6D L G 76;21.1763
3G6D L G 15;3G6D L T 77;17.1585
3G6D L Q 16;3G6D L T 17;39.9048
3G6D L Q 16;3G6D L G 76;0.220895
3G6D L Q 16;3G6D L T 77;10.0492
3G6D L T 17;3G6D L A 18;20.9738
3G6D L T 17;3G6D L R 19;25.3058
3G6D L T 17;3G6D L T 73;9.15795
3G6D L T 17;3G6D L I 74;5.3115
3G6D L T 17;3G6D L S 75;16.5396
3G6D L T 17;3G6D L G 76;4.50622
3G6D L T 17;3G6D L T 77;3.82879
3G6D L A 18;3G6D L R 19;28.1149
3G6D L A 18;3G6D L I 20;2.0108
3G6D L A 18;3G6D L L 72;2.47311
3G6D L A 18;3G6D L T 73;6.71808
3G6D L A 18;3G6D L I 74;24.8949
3G6D L A 18;3G6D L T 77;9.59263
3G6D L A 18;3G6D L L 104;10.6702
3G6D L R 19;3G6D L I 20;25.1549
3G6D L R 19;3G6D L S 21;2.67518
3G6D L R 19;3G6D L T 71;16.7356
3G6D L R 19;3G6D L L 72;3.17326
3G6D L R 19;3G6D L T 73;26.6734
3G6D L R 19;3G6D L L 104;0.00477861
3G6D L I 20;3G6D L S 21;25.3246
3G6D L I 20;3G6D L W 34;17.1016
3G6D L I 20;3G6D L A 70;0.575561
3G6D L I 20;3G6D L T 71;11.8667
3G6D L I 20;3G6D L L 72;28.431
3G6D L I 20;3G6D L I 74;8.45381
3G6D L I 20;3G6D L Y 85;15.2409
3G6D L I 20;3G6D L T 102;23.7499
3G6D L I 20;3G6D L L 104;14.7291
3G6D L S 21;3G6D L C 22;17.2815
3G6D L S 21;3G6D L S 23;5.48389
3G6D L S 21;3G6D L W 34;3.48919
3G6D L S 21;3G6D L T 69;13.7004
3G6D L S 21;3G6D L A 70;3.83398
3G6D L S 21;3G6D L T 71;8.92973
3G6D L C 22;3G6D L S 23;21.3405
3G6D L C 22;3G6D L I 27;15.4697
3G6D L C 22;3G6D L V 32;2.40052
3G6D L C 22;3G6D L W 34;10.0228
3G6D L C 22;3G6D L N 68;0.118826
3G6D L C 22;3G6D L T 69;8.62766
3G6D L C 22;3G6D L A 70;18.319
3G6D L C 22;3G6D L C 87;19.9875
3G6D L C 22;3G6D L T 89;0.446361
3G6D L S 23;3G6D L G 24;24.2606
3G6D L S 23;3G6D L I 27;4.74196
3G6D L S 23;3G6D L N 68;8.91817
3G6D L S 23;3G6D L T 69;15.6427
3G6D L G 24;3G6D L D 25;24.0351
3G6D L G 24;3G6D L N 26;1.08556
3G6D L G 24;3G6D L I 27;14.6398
3G6D L G 24;3G6D L N 68;16.4877
3G6D L D 25;3G6D L N 26;32.2837
3G6D L D 25;3G6D L I 27;1.21208
3G6D L D 25;3G6D L N 68;11.5208
3G6D L N 26;3G6D L I 27;15.2583
3G6D L N 26;3G6D L G 28;2.60692
3G6D L N 26;3G6D L G 29;20.3215
3G6D L N 26;3G6D L T 30;6.6714
3G6D L N 26;3G6D L G 67;10.696
3G6D L N 26;3G6D L N 68;9.66984
3G6D L I 27;3G6D L G 28;15.5536
3G6D L I 27;3G6D L G 29;2.53612
3G6D L I 27;3G6D L T 30;16.4048
3G6D L I 27;3G6D L V 32;12.1191
3G6D L I 27;3G6D L N 65;14.7871
3G6D L I 27;3G6D L S 66;1.01041
3G6D L I 27;3G6D L G 67;5.88207
3G6D L I 27;3G6D L N 68;9.52514
3G6D L I 27;3G6D L T 69;7.26611
3G6D L I 27;3G6D L A 70;8.51641
3G6D L I 27;3G6D L T 89;5.13399
3G6D L G 28;3G6D L G 29;20.7297
3G6D L G 28;3G6D L T 30;2.85824
3G6D L G 28;3G6D L N 65;13.0319
3G6D L G 28;3G6D L S 66;3.77231
3G6D L G 28;3G6D L G 67;17.227
3G6D L G 29;3G6D L T 30;24.0891
3G6D L G 29;3G6D L F 31;0.843236
3G6D L T 30;3G6D L F 31;31.1959
3G6D L T 30;3G6D L V 32;2.53926
3G6D L T 30;3G6D L D 50;2.37888
3G6D L T 30;3G6D L N 65;4.73029
3G6D L T 30;3G6D L T 89;15.3845
3G6D L T 30;3G6D L W 90;12.5425
3G6D L T 30;3G6D L D 91;2.38682
3G6D L F 31;3G6D L V 32;19.0347
3G6D L F 31;3G6D L S 33;0.126621
3G6D L F 31;3G6D L D 49;21.4281
3G6D L F 31;3G6D L D 50;12.7892
3G6D L F 31;3G6D L G 88;0.880431
3G6D L F 31;3G6D L T 89;9.63542
3G6D L F 31;3G6D L W 90;1.34907
3G6D L V 32;3G6D L S 33;24.3483
3G6D L V 32;3G6D L W 34;15.1877
3G6D L V 32;3G6D L I 47;4.5925
3G6D L V 32;3G6D L Y 48;3.27971
3G6D L V 32;3G6D L D 49;3.78698
3G6D L V 32;3G6D L D 50;24.3049
3G6D L V 32;3G6D L S 64;0.608649
3G6D L V 32;3G6D L N 65;12.3946
3G6D L V 32;3G6D L A 70;14.5086
3G6D L V 32;3G6D L C 87;7.89906
3G6D L V 32;3G6D L G 88;4.57949
3G6D L V 32;3G6D L T 89;12.4318
3G6D L S 33;3G6D L W 34;20.0393
3G6D L S 33;3G6D L Y 35;16.4466
3G6D L S 33;3G6D L L 45;8.17146
3G6D L S 33;3G6D L I 47;5.88305
3G6D L S 33;3G6D L Y 48;10.8667
3G6D L S 33;3G6D L D 49;2.79796
3G6D L S 33;3G6D L Y 86;0.437572
3G6D L S 33;3G6D L C 87;5.39382
3G6D L S 33;3G6D L G 88;16.1103
3G6D L W 34;3G6D L Y 35;21.4415
3G6D L W 34;3G6D L L 45;6.42742
3G6D L W 34;3G6D L V 46;16.1017
3G6D L W 34;3G6D L I 47;27.8878
3G6D L W 34;3G6D L D 50;2.96279
3G6D L W 34;3G6D L G 63;5.90546
3G6D L W 34;3G6D L S 64;2.13039
3G6D L W 34;3G6D L A 70;10.0618
3G6D L W 34;3G6D L T 71;6.16403
3G6D L W 34;3G6D L L 72;34.5672
3G6D L W 34;3G6D L Y 85;6.16533
3G6D L W 34;3G6D L Y 86;13.0487
3G6D L W 34;3G6D L C 87;14.4939
3G6D L W 34;3G6D L T 102;0.0883261
3G6D L Y 35;3G6D L Q 36;18.8106
3G6D L Y 35;3G6D L Q 37;0.759615
3G6D L Y 35;3G6D L P 43;12.2387
3G6D L Y 35;3G6D L V 44;8.07092
3G6D L Y 35;3G6D L L 45;20.5191
3G6D L Y 35;3G6D L V 46;3.24599
3G6D L Y 35;3G6D L L 72;0.0276782
3G6D L Y 35;3G6D L D 84;0.856389
3G6D L Y 35;3G6D L Y 85;9.84102
3G6D L Y 35;3G6D L Y 86;30.3653
3G6D L Y 35;3G6D L C 87;1.96189
3G6D L Y 35;3G6D L G 88;9.59006
3G6D L Y 35;3G6D L F 98;14.1435
3G6D L Q 36;3G6D L Q 37;22.7245
3G6D L Q 36;3G6D L K 38;22.5222
3G6D L Q 36;3G6D L A 42;1.05726
3G6D L Q 36;3G6D L P 43;5.35247
3G6D L Q 36;3G6D L V 44;30.3337
3G6D L Q 36;3G6D L V 46;18.8595
3G6D L Q 36;3G6D L F 61;8.94962
3G6D L Q 36;3G6D L E 80;1.8803
3G6D L Q 36;3G6D L D 81;6.70325
3G6D L Q 36;3G6D L A 83;9.70516
3G6D L Q 36;3G6D L D 84;3.74076
3G6D L Q 36;3G6D L Y 85;24.9541
3G6D L Q 37;3G6D L K 38;29.9741
3G6D L Q 37;3G6D L P 39;2.44903
3G6D L Q 37;3G6D L G 40;0.285539
3G6D L Q 37;3G6D L Q 41;14.1959
3G6D L Q 37;3G6D L A 42;6.5768
3G6D L Q 37;3G6D L P 43;22.0994
3G6D L Q 37;3G6D L A 83;5.99572
3G6D L Q 37;3G6D L D 84;30.9902
3G6D L Q 37;3G6D L Y 86;17.9696
3G6D L K 38;3G6D L P 39;35.3584
3G6D L K 38;3G6D L G 40;2.20042
3G6D L K 38;3G6D L Q 41;37.5745
3G6D L K 38;3G6D L A 42;0.978761
3G6D L K 38;3G6D L E 80;25.9857
3G6D L K 38;3G6D L D 81;0.283535
3G6D L K 38;3G6D L E 82;11.5047
3G6D L K 38;3G6D L A 83;11.3935
3G6D L K 38;3G6D L S 169;3.03788
3G6D L K 38;3G6D L N 171;2.49336
3G6D L P 39;3G6D L G 40;28.2437
3G6D L P 39;3G6D L Q 41;8.50113
3G6D L P 39;3G6D L E 82;0.595684
3G6D L P 39;3G6D L A 83;7.18039
3G6D L P 39;3G6D L D 84;8.13391
3G6D L P 39;3G6D L K 103;9.29675
3G6D L P 39;3G6D L K 167;37.5639
3G6D L P 39;3G6D L Q 168;1.98549
3G6D L G 40;3G6D L Q 41;31.4286
3G6D L Q 41;3G6D L A 42;31.2783
3G6D L Q 41;3G6D L V 44;3.92361
3G6D L A 42;3G6D L P 43;25.3917
3G6D L A 42;3G6D L V 44;10.7414
3G6D L P 43;3G6D L V 44;24.107
3G6D L P 43;3G6D L Y 86;2.53969
3G6D L V 44;3G6D L L 45;31.4177
3G6D L V 44;3G6D L V 46;7.87365
3G6D L V 44;3G6D L I 57;11.4726
3G6D L L 45;3G6D L V 46;20.2855
3G6D L L 45;3G6D L I 47;10.6731
3G6D L L 45;3G6D L Y 48;20.1285
3G6D L L 45;3G6D L P 54;22.1508
3G6D L L 45;3G6D L I 57;7.09955
3G6D L V 46;3G6D L I 47;27.7464
3G6D L V 46;3G6D L R 53;5.20485
3G6D L V 46;3G6D L P 54;9.13968
3G6D L V 46;3G6D L I 57;26.7761
3G6D L V 46;3G6D L F 61;17.6534
3G6D L V 46;3G6D L L 72;9.0952
3G6D L V 46;3G6D L Y 85;6.57799
3G6D L I 47;3G6D L Y 48;20.5712
3G6D L I 47;3G6D L D 50;9.45482
3G6D L I 47;3G6D L N 51;12.7668
3G6D L I 47;3G6D L D 52;10.535
3G6D L I 47;3G6D L R 53;11.1838
3G6D L I 47;3G6D L P 54;2.38321
3G6D L I 47;3G6D L F 61;9.0787
3G6D L I 47;3G6D L S 62;10.1966
3G6D L I 47;3G6D L G 63;9.19885
3G6D L I 47;3G6D L L 72;8.3224
3G6D L Y 48;3G6D L D 49;31.7935
3G6D L Y 48;3G6D L D 50;2.47511
3G6D L Y 48;3G6D L N 51;2.1884
3G6D L Y 48;3G6D L D 52;39.682
3G6D L Y 48;3G6D L R 53;6.21178
3G6D L Y 48;3G6D L P 54;21.2044
3G6D L D 49;3G6D L D 50;21.1251
3G6D L D 49;3G6D L N 51;13.4126
3G6D L D 49;3G6D L D 52;14.6462
3G6D L D 50;3G6D L N 51;23.3689
3G6D L D 50;3G6D L G 63;10.1777
3G6D L D 50;3G6D L S 64;7.32255
3G6D L D 50;3G6D L N 65;21.465
3G6D L N 51;3G6D L D 52;34.2375
3G6D L N 51;3G6D L R 53;7.03724
3G6D L N 51;3G6D L S 62;1.85146
3G6D L N 51;3G6D L G 63;18.2219
3G6D L N 51;3G6D L S 64;1.77243
3G6D L D 52;3G6D L R 53;21.5918
3G6D L D 52;3G6D L P 54;1.16883
3G6D L R 53;3G6D L P 54;31.4548
3G6D L R 53;3G6D L S 55;2.41657
3G6D L R 53;3G6D L I 57;21.705
3G6D L R 53;3G6D L P 58;5.99588
3G6D L R 53;3G6D L E 59;30.9242
3G6D L R 53;3G6D L F 61;17.0581
3G6D L R 53;3G6D L S 62;5.90828
3G6D L P 54;3G6D L S 55;36.3864
3G6D L P 54;3G6D L G 56;1.31484
3G6D L P 54;3G6D L I 57;21.2583
3G6D L S 55;3G6D L G 56;29.3851
3G6D L S 55;3G6D L I 57;5.99885
3G6D L G 56;3G6D L I 57;28.6589
3G6D L G 56;3G6D L P 58;11.3657
3G6D L I 57;3G6D L P 58;33.8827
3G6D L I 57;3G6D L E 59;2.0124
3G6D L I 57;3G6D L F 61;15.2358
3G6D L P 58;3G6D L E 59;23.6111
3G6D L P 58;3G6D L R 60;33.798
3G6D L P 58;3G6D L F 61;21.0908
3G6D L P 58;3G6D L E 80;0.96891
3G6D L E 59;3G6D L R 60;25.359
3G6D L E 59;3G6D L F 61;7.12749
3G6D L E 59;3G6D L S 62;1.87143
3G6D L E 59;3G6D L S 75;0.982717
3G6D L R 60;3G6D L F 61;30.1136
3G6D L R 60;3G6D L S 62;3.01377
3G6D L R 60;3G6D L T 73;3.49331
3G6D L R 60;3G6D L I 74;15.5205
3G6D L R 60;3G6D L S 75;31.8963
3G6D L R 60;3G6D L G 76;12.1466
3G6D L R 60;3G6D L T 77;0.715962
3G6D L R 60;3G6D L Q 78;20.0205
3G6D L R 60;3G6D L E 80;15.0106
3G6D L R 60;3G6D L D 81;17.1792
3G6D L F 61;3G6D L S 62;23.0606
3G6D L F 61;3G6D L L 72;11.6017
3G6D L F 61;3G6D L T 73;2.80981
3G6D L F 61;3G6D L I 74;22.2069
3G6D L F 61;3G6D L D 81;14.2498
3G6D L F 61;3G6D L Y 85;12.6494
3G6D L S 62;3G6D L G 63;25.7238
3G6D L S 62;3G6D L T 71;0.0202313
3G6D L S 62;3G6D L L 72;11.3769
3G6D L S 62;3G6D L T 73;32.1169
3G6D L S 62;3G6D L S 75;2.17031
3G6D L G 63;3G6D L S 64;25.8478
3G6D L G 63;3G6D L T 71;7.51207
3G6D L G 63;3G6D L L 72;3.74525
3G6D L G 63;3G6D L T 73;1.2719
3G6D L S 64;3G6D L N 65;28.5078
3G6D L S 64;3G6D L S 66;6.66683
3G6D L S 64;3G6D L T 69;1.35003
3G6D L S 64;3G6D L A 70;7.83401
3G6D L S 64;3G6D L T 71;27.7064
3G6D L S 64;3G6D L T 73;0.062385
3G6D L N 65;3G6D L S 66;30.0804
3G6D L N 65;3G6D L T 69;4.65011
3G6D L N 65;3G6D L A 70;11.3253
3G6D L S 66;3G6D L G 67;24.8488
3G6D L S 66;3G6D L N 68;6.92722
3G6D L S 66;3G6D L T 69;21.5885
3G6D L G 67;3G6D L N 68;24.4829
3G6D L N 68;3G6D L T 69;24.9964
3G6D L T 69;3G6D L A 70;22.5504
3G6D L T 69;3G6D L T 71;11.8789
3G6D L A 70;3G6D L T 71;19.5223
3G6D L T 71;3G6D L L 72;18.2251
3G6D L T 71;3G6D L T 73;15.9295
3G6D L L 72;3G6D L T 73;20.0684
3G6D L L 72;3G6D L I 74;13.9018
3G6D L L 72;3G6D L Y 85;15.0486
3G6D L T 73;3G6D L I 74;20.0122
3G6D L T 73;3G6D L S 75;9.32685
3G6D L I 74;3G6D L S 75;18.8676
3G6D L I 74;3G6D L G 76;0.295302
3G6D L I 74;3G6D L T 77;17.9953
3G6D L I 74;3G6D L D 81;11.5193
3G6D L I 74;3G6D L Y 85;8.61476
3G6D L I 74;3G6D L L 104;11.2706
3G6D L S 75;3G6D L G 76;25.7441
3G6D L S 75;3G6D L T 77;1.6208
3G6D L G 76;3G6D L T 77;19.4764
3G6D L G 76;3G6D L Q 78;12.1984
3G6D L T 77;3G6D L Q 78;24.5939
3G6D L T 77;3G6D L D 81;6.62092
3G6D L T 77;3G6D L L 104;7.6484
3G6D L T 77;3G6D L V 106;11.508
3G6D L Q 78;3G6D L A 79;27.2895
3G6D L Q 78;3G6D L E 80;24.9293
3G6D L Q 78;3G6D L D 81;21.3727
3G6D L Q 78;3G6D L E 82;1.39939
3G6D L Q 78;3G6D L V 106;10.116
3G6D L A 79;3G6D L E 80;22.9211
3G6D L A 79;3G6D L D 81;2.39667
3G6D L A 79;3G6D L E 82;10.8579
3G6D L A 79;3G6D L V 106;18.8832
3G6D L A 79;3G6D L Q 109;6.53755
3G6D L A 79;3G6D L N 171;13.6338
3G6D L E 80;3G6D L D 81;26.2968
3G6D L E 80;3G6D L E 82;6.11316
3G6D L E 80;3G6D L N 171;6.63841
3G6D L D 81;3G6D L E 82;19.5679
3G6D L D 81;3G6D L A 83;3.96241
3G6D L D 81;3G6D L Y 85;15.4225
3G6D L D 81;3G6D L L 104;11.5747
3G6D L D 81;3G6D L V 106;0.644071
3G6D L E 82;3G6D L A 83;23.7404
3G6D L E 82;3G6D L L 104;14.3515
3G6D L E 82;3G6D L T 105;17.3646
3G6D L E 82;3G6D L V 106;25.7339
3G6D L E 82;3G6D L Q 109;13.1652
3G6D L E 82;3G6D L Y 141;0.244239
3G6D L E 82;3G6D L K 167;22.6268
3G6D L E 82;3G6D L N 171;20.8554
3G6D L A 83;3G6D L D 84;22.3954
3G6D L A 83;3G6D L Y 85;13.7952
3G6D L A 83;3G6D L T 102;1.41867
3G6D L A 83;3G6D L K 103;9.93531
3G6D L A 83;3G6D L L 104;17.7036
3G6D L A 83;3G6D L K 167;0.319032
3G6D L D 84;3G6D L Y 85;20.8385
3G6D L D 84;3G6D L Y 86;18.3049
3G6D L D 84;3G6D L G 101;1.2345
3G6D L D 84;3G6D L T 102;9.35525
3G6D L D 84;3G6D L K 103;30.4556
3G6D L Y 85;3G6D L Y 86;19.9969
3G6D L Y 85;3G6D L G 101;4.35185
3G6D L Y 85;3G6D L T 102;22.9025
3G6D L Y 85;3G6D L L 104;13.7245
3G6D L Y 86;3G6D L C 87;20.5303
3G6D L Y 86;3G6D L F 98;6.01977
3G6D L Y 86;3G6D L G 99;9.62498
3G6D L Y 86;3G6D L G 100;9.38544
3G6D L Y 86;3G6D L G 101;16.1909
3G6D L C 87;3G6D L G 88;18.034
3G6D L C 87;3G6D L T 89;0.426319
3G6D L C 87;3G6D L F 98;8.21354
3G6D L C 87;3G6D L G 99;12.5249
3G6D L G 88;3G6D L T 89;22.3721
3G6D L G 88;3G6D L V 97;4.80877
3G6D L G 88;3G6D L F 98;10.0546
3G6D L T 89;3G6D L W 90;25.4864
3G6D L T 89;3G6D L D 91;4.07048
3G6D L T 89;3G6D L N 95;1.66294
3G6D L T 89;3G6D L N 96;11.2681
3G6D L T 89;3G6D L V 97;21.1082
3G6D L T 89;3G6D L F 98;0.0794756
3G6D L W 90;3G6D L D 91;27.9751
3G6D L W 90;3G6D L M 92;21.7452
3G6D L W 90;3G6D L N 95;21.0727
3G6D L W 90;3G6D L N 96;6.02738
3G6D L D 91;3G6D L M 92;19.7084
3G6D L D 91;3G6D L V 93;18.2635
3G6D L D 91;3G6D L T 94;14.3536
3G6D L D 91;3G6D L N 95;19.123
3G6D L D 91;3G6D L V 97;6.11418
3G6D L M 92;3G6D L V 93;37.1546
3G6D L M 92;3G6D L T 94;0.068312
3G6D L M 92;3G6D L N 95;8.94987
3G6D L V 93;3G6D L T 94;31.1242
3G6D L V 93;3G6D L N 95;9.42097
3G6D L T 94;3G6D L N 95;25.9647
3G6D L T 94;3G6D L N 96;4.55022
3G6D L T 94;3G6D L V 97;17.1116
3G6D L N 95;3G6D L N 96;17.5031
3G6D L N 95;3G6D L V 97;8.89421
3G6D L N 96;3G6D L V 97;23.4938
3G6D L N 96;3G6D L F 98;12.6535
3G6D L V 97;3G6D L F 98;36.3974
3G6D L F 98;3G6D L G 99;27.9128
3G6D L F 98;3G6D L G 100;0.457481
3G6D L G 99;3G6D L G 100;21.6661
3G6D L G 99;3G6D L G 101;2.79716
3G6D L G 100;3G6D L G 101;25.0912
3G6D L G 101;3G6D L T 102;20.9447
3G6D L T 102;3G6D L K 103;20.6689
3G6D L T 102;3G6D L L 104;6.03744
3G6D L K 103;3G6D L L 104;21.5704
3G6D L K 103;3G6D L T 105;18.936
3G6D L K 103;3G6D L K 167;10.8917
3G6D L K 103;3G6D L Y 173;3.42112
3G6D L L 104;3G6D L T 105;26.5542
3G6D L L 104;3G6D L V 106;4.43772
3G6D L T 105;3G6D L V 106;24.5391
3G6D L T 105;3G6D L L 107;8.10227
3G6D L T 105;3G6D L K 167;6.88218
3G6D L V 106;3G6D L L 107;26.7306
3G6D L V 106;3G6D L G 108;2.2155
3G6D L V 106;3G6D L Q 109;15.5825
3G6D L V 106;3G6D L Y 141;4.34174
3G6D L L 107;3G6D L G 108;35.9853
3G6D L L 107;3G6D L Q 109;1.22929
3G6D L G 108;3G6D L Q 109;31.9804
3G6D L G 108;3G6D L P 110;8.02398
3G6D L G 108;3G6D L Y 141;1.94005
3G6D L Q 109;3G6D L P 110;37.3972
3G6D L Q 109;3G6D L K 111;3.601
3G6D L Q 109;3G6D L Y 141;44.6186
3G6D L Q 109;3G6D L K 167;0.831786
3G6D L Q 109;3G6D L N 170;0.36981
3G6D L Q 109;3G6D L N 171;22.1385
3G6D L Q 109;3G6D L K 172;5.59256
3G6D L P 110;3G6D L K 111;33.4844
3G6D L P 110;3G6D L A 112;7.39839
3G6D L P 110;3G6D L Y 141;7.30298
3G6D L K 111;3G6D L A 112;27.9697
3G6D L K 111;3G6D L A 113;12.581
3G6D L K 111;3G6D L P 114;1.389
3G6D L K 111;3G6D L Y 141;8.85758
3G6D L K 111;3G6D L P 142;7.49663
3G6D L K 111;3G6D L H 198;19.4765
3G6D L K 111;3G6D L E 199;26.2705
3G6D L K 111;3G6D L S 201;15.3817
3G6D L A 112;3G6D L A 113;25.5963
3G6D L A 112;3G6D L P 114;1.194
3G6D L A 112;3G6D L D 139;6.18651
3G6D L A 112;3G6D L F 140;8.9056
3G6D L A 112;3G6D L Y 141;20.9142
3G6D L A 112;3G6D L K 172;16.7068
3G6D L A 112;3G6D L H 198;8.23448
3G6D L A 113;3G6D L P 114;36.6882
3G6D L A 113;3G6D L S 115;1.47845
3G6D L A 113;3G6D L S 138;0.400247
3G6D L A 113;3G6D L D 139;12.0531
3G6D L A 113;3G6D L F 140;2.16289
3G6D L A 113;3G6D L H 198;1.57718
3G6D L A 113;3G6D L V 203;0.0400203
3G6D L P 114;3G6D L S 115;24.7297
3G6D L P 114;3G6D L V 116;9.96285
3G6D L P 114;3G6D L I 137;9.38867
3G6D L P 114;3G6D L S 138;4.48775
3G6D L P 114;3G6D L D 139;0.509314
3G6D L P 114;3G6D L F 140;14.8789
3G6D L P 114;3G6D L V 145;3.30503
3G6D L P 114;3G6D L V 196;9.77348
3G6D L P 114;3G6D L H 198;21.6991
3G6D L P 114;3G6D L S 201;2.84989
3G6D L P 114;3G6D L V 203;19.93
3G6D L S 115;3G6D L V 116;23.8319
3G6D L S 115;3G6D L T 117;8.76178
3G6D L S 115;3G6D L L 136;3.91637
3G6D L S 115;3G6D L I 137;5.84623
3G6D L S 115;3G6D L S 138;30.0335
3G6D L S 115;3G6D L D 139;10.4016
3G6D L V 116;3G6D L T 117;24.4363
3G6D L V 116;3G6D L L 118;3.60065
3G6D L V 116;3G6D L C 135;6.40838
3G6D L V 116;3G6D L L 136;6.44895
3G6D L V 116;3G6D L I 137;12.242
3G6D L V 116;3G6D L C 194;8.6045
3G6D L V 116;3G6D L V 196;17.1999
3G6D L V 116;3G6D L V 203;20.8112
3G6D L V 116;3G6D L K 205;31.4806
3G6D L T 117;3G6D L L 118;26.2224
3G6D L T 117;3G6D L F 119;18.9856
3G6D L T 117;3G6D L V 134;2.2603
3G6D L T 117;3G6D L C 135;2.38862
3G6D L T 117;3G6D L L 136;29.214
3G6D L T 117;3G6D L S 138;2.22343
3G6D L T 117;3G6D L K 205;0.734615
3G6D L L 118;3G6D L F 119;30.8069
3G6D L L 118;3G6D L P 120;2.7567
3G6D L L 118;3G6D L L 133;7.95865
3G6D L L 118;3G6D L V 134;10.1201
3G6D L L 118;3G6D L C 135;8.15489
3G6D L L 118;3G6D L W 149;9.63003
3G6D L L 118;3G6D L Y 192;2.31025
3G6D L L 118;3G6D L S 193;3.25217
3G6D L L 118;3G6D L C 194;15.6805
3G6D L L 118;3G6D L K 205;23.6521
3G6D L L 118;3G6D L T 206;6.61179
3G6D L L 118;3G6D L V 207;23.8045
3G6D L F 119;3G6D L P 120;35.7595
3G6D L F 119;3G6D L T 132;0.118397
3G6D L F 119;3G6D L L 133;7.09922
3G6D L F 119;3G6D L V 134;24.6588
3G6D L F 119;3G6D L L 136;9.17846
3G6D L F 119;3G6D L V 207;2.92335
3G6D L P 120;3G6D L P 121;32.7959
3G6D L P 120;3G6D L S 122;7.39242
3G6D L P 120;3G6D L T 132;3.05701
3G6D L P 120;3G6D L L 133;2.7216
3G6D L P 120;3G6D L V 134;1.25554
3G6D L P 120;3G6D L W 186;10.5868
3G6D L P 120;3G6D L V 207;23.5985
3G6D L P 120;3G6D L A 208;3.20788
3G6D L P 121;3G6D L S 122;26.4701
3G6D L P 121;3G6D L S 123;1.39551
3G6D L P 121;3G6D L E 125;6.74099
3G6D L P 121;3G6D L L 126;18.1433
3G6D L P 121;3G6D L A 131;11.5982
3G6D L P 121;3G6D L T 132;15.3315
3G6D L P 121;3G6D L L 133;15.6199
3G6D L P 121;3G6D L L 181;0.464217
3G6D L P 121;3G6D L W 186;23.6512
3G6D L P 121;3G6D L V 207;0.0349312
3G6D L S 122;3G6D L S 123;25.1462
3G6D L S 122;3G6D L E 124;5.3783
3G6D L S 122;3G6D L E 125;20.4461
3G6D L S 122;3G6D L L 126;10.8319
3G6D L S 122;3G6D L T 132;0.0155788
3G6D L S 123;3G6D L E 124;27.4209
3G6D L S 123;3G6D L E 125;0.834915
3G6D L S 123;3G6D L L 126;13.9321
3G6D L S 123;3G6D L Q 127;16.8824
3G6D L E 124;3G6D L E 125;15.9864
3G6D L E 124;3G6D L L 126;0.700985
3G6D L E 124;3G6D L Q 127;14.8311
3G6D L E 124;3G6D L A 128;9.55434
3G6D L E 125;3G6D L L 126;16.0187
3G6D L E 125;3G6D L Q 127;0.877258
3G6D L E 125;3G6D L A 128;11.7339
3G6D L E 125;3G6D L N 129;1.3722
3G6D L E 125;3G6D L K 130;25.5535
3G6D L E 125;3G6D L A 131;10.086
3G6D L E 125;3G6D L T 132;18.085
3G6D L L 126;3G6D L Q 127;22.6907
3G6D L L 126;3G6D L A 128;1.56288
3G6D L L 126;3G6D L N 129;11.2757
3G6D L L 126;3G6D L K 130;9.36685
3G6D L L 126;3G6D L A 131;7.54487
3G6D L L 126;3G6D L P 183;23.9159
3G6D L L 126;3G6D L W 186;18.6753
3G6D L L 126;3G6D L K 187;23.5015
3G6D L Q 127;3G6D L A 128;20.7304
3G6D L Q 127;3G6D L N 129;8.04925
3G6D L A 128;3G6D L N 129;21.8706
3G6D L A 128;3G6D L K 130;22.1491
3G6D L N 129;3G6D L K 130;34.0781
3G6D L N 129;3G6D L T 182;0.133496
3G6D L N 129;3G6D L P 183;28.5826
3G6D L N 129;3G6D L E 184;9.30306
3G6D L K 130;3G6D L A 131;23.4963
3G6D L K 130;3G6D L T 132;0.00374478
3G6D L K 130;3G6D L L 181;2.96471
3G6D L K 130;3G6D L T 182;0.00913384
3G6D L K 130;3G6D L P 183;8.49107
3G6D L A 131;3G6D L T 132;20.5292
3G6D L A 131;3G6D L L 133;1.35585
3G6D L A 131;3G6D L L 179;0.772025
3G6D L A 131;3G6D L S 180;5.89099
3G6D L A 131;3G6D L L 181;28.63
3G6D L A 131;3G6D L T 182;1.27054
3G6D L A 131;3G6D L P 183;5.43921
3G6D L A 131;3G6D L W 186;5.78751
3G6D L T 132;3G6D L L 133;23.3654
3G6D L T 132;3G6D L V 134;12.0882
3G6D L T 132;3G6D L Y 178;16.436
3G6D L T 132;3G6D L L 179;11.0456
3G6D L T 132;3G6D L S 180;7.51452
3G6D L T 132;3G6D L L 181;0.00701298
3G6D L L 133;3G6D L V 134;19.8905
3G6D L L 133;3G6D L C 135;0.00597592
3G6D L L 133;3G6D L W 149;18.9554
3G6D L L 133;3G6D L S 177;0.733552
3G6D L L 133;3G6D L Y 178;6.24295
3G6D L L 133;3G6D L L 179;24.5288
3G6D L L 133;3G6D L L 181;15.0588
3G6D L L 133;3G6D L W 186;9.92571
3G6D L L 133;3G6D L Y 192;14.8578
3G6D L L 133;3G6D L S 193;0.205085
3G6D L L 133;3G6D L V 207;10.3598
3G6D L V 134;3G6D L C 135;16.5472
3G6D L V 134;3G6D L L 136;17.7454
3G6D L V 134;3G6D L W 149;1.13183
3G6D L V 134;3G6D L S 176;0.313544
3G6D L V 134;3G6D L S 177;3.6019
3G6D L V 134;3G6D L Y 178;14.9392
3G6D L C 135;3G6D L L 136;20.53
3G6D L C 135;3G6D L I 137;12.2166
3G6D L C 135;3G6D L V 147;5.78975
3G6D L C 135;3G6D L W 149;10.4424
3G6D L C 135;3G6D L S 176;5.86604
3G6D L C 135;3G6D L S 177;23.7847
3G6D L C 135;3G6D L C 194;17.1833
3G6D L C 135;3G6D L V 196;5.30338
3G6D L L 136;3G6D L I 137;19.1903
3G6D L L 136;3G6D L S 138;0.79139
3G6D L L 136;3G6D L A 175;0.813853
3G6D L L 136;3G6D L S 176;12.3644
3G6D L L 136;3G6D L Y 178;0.56598
3G6D L I 137;3G6D L S 138;19.817
3G6D L I 137;3G6D L F 140;14.5588
3G6D L I 137;3G6D L V 145;11.5386
3G6D L I 137;3G6D L V 147;11.0599
3G6D L I 137;3G6D L T 162;1.14697
3G6D L I 137;3G6D L Y 173;0.0258838
3G6D L I 137;3G6D L A 174;4.51678
3G6D L I 137;3G6D L A 175;27.238
3G6D L I 137;3G6D L S 176;3.85969
3G6D L I 137;3G6D L S 177;2.85806
3G6D L I 137;3G6D L V 196;17.139
3G6D L S 138;3G6D L D 139;30.7845
3G6D L S 138;3G6D L F 140;7.417
3G6D L S 138;3G6D L Q 168;6.56095
3G6D L S 138;3G6D L Y 173;1.91416
3G6D L S 138;3G6D L A 174;4.17208
3G6D L D 139;3G6D L F 140;15.7431
3G6D L D 139;3G6D L Q 168;18.9578
3G6D L D 139;3G6D L N 170;11.6144
3G6D L D 139;3G6D L K 172;25.1122
3G6D L D 139;3G6D L Y 173;4.6112
3G6D L F 140;3G6D L Y 141;19.0733
3G6D L F 140;3G6D L P 142;4.81784
3G6D L F 140;3G6D L G 143;5.47949
3G6D L F 140;3G6D L A 144;6.5817
3G6D L F 140;3G6D L V 145;19.4433
3G6D L F 140;3G6D L P 165;10.4469
3G6D L F 140;3G6D L K 172;7.15723
3G6D L F 140;3G6D L Y 173;31.9973
3G6D L F 140;3G6D L A 174;4.87764
3G6D L F 140;3G6D L A 175;10.2926
3G6D L F 140;3G6D L H 198;10.2395
3G6D L Y 141;3G6D L P 142;44.6513
3G6D L Y 141;3G6D L G 143;1.21956
3G6D L Y 141;3G6D L K 167;6.11831
3G6D L Y 141;3G6D L N 171;6.10771
3G6D L Y 141;3G6D L K 172;9.79778
3G6D L Y 141;3G6D L Y 173;16.5549
3G6D L Y 141;3G6D L H 198;8.78767
3G6D L P 142;3G6D L G 143;21.4985
3G6D L P 142;3G6D L A 144;17.7074
3G6D L P 142;3G6D L Y 173;0.0498583
3G6D L P 142;3G6D L H 198;13.1841
3G6D L P 142;3G6D L E 199;23.0369
3G6D L G 143;3G6D L A 144;22.6661
3G6D L G 143;3G6D L P 165;16.6451
3G6D L G 143;3G6D L Y 173;25.6925
3G6D L A 144;3G6D L V 145;28.4284
3G6D L A 144;3G6D L P 165;4.10898
3G6D L A 144;3G6D L T 197;0.642479
3G6D L A 144;3G6D L H 198;12.9088
3G6D L A 144;3G6D L E 199;9.20525
3G6D L V 145;3G6D L T 146;29.5608
3G6D L V 145;3G6D L V 147;12.8427
3G6D L V 145;3G6D L T 162;0.414235
3G6D L V 145;3G6D L P 165;10.8182
3G6D L V 145;3G6D L A 175;6.65153
3G6D L V 145;3G6D L V 196;13.7934
3G6D L V 145;3G6D L T 197;7.91346
3G6D L V 145;3G6D L H 198;9.43358
3G6D L T 146;3G6D L V 147;31.6992
3G6D L T 146;3G6D L A 148;6.418
3G6D L T 146;3G6D L Q 195;3.99071
3G6D L T 146;3G6D L V 196;4.88298
3G6D L T 146;3G6D L T 197;32.5682
3G6D L V 147;3G6D L A 148;29.8983
3G6D L V 147;3G6D L W 149;9.60154
3G6D L V 147;3G6D L V 160;2.5963
3G6D L V 147;3G6D L T 162;19.8671
3G6D L V 147;3G6D L A 175;0.158941
3G6D L V 147;3G6D L S 177;11.942
3G6D L V 147;3G6D L C 194;5.46329
3G6D L V 147;3G6D L Q 195;6.92614
3G6D L V 147;3G6D L V 196;10.1939
3G6D L A 148;3G6D L W 149;31.6691
3G6D L A 148;3G6D L K 150;4.10891
3G6D L A 148;3G6D L S 193;0.989507
3G6D L A 148;3G6D L C 194;4.07931
3G6D L A 148;3G6D L Q 195;33.3517
3G6D L W 149;3G6D L K 150;22.3791
3G6D L W 149;3G6D L P 155;7.37808
3G6D L W 149;3G6D L V 156;26.3363
3G6D L W 149;3G6D L V 160;21.2601
3G6D L W 149;3G6D L S 177;15.28
3G6D L W 149;3G6D L Y 178;4.15688
3G6D L W 149;3G6D L L 179;30.3898
3G6D L W 149;3G6D L Y 192;4.0695
3G6D L W 149;3G6D L S 193;11.0792
3G6D L W 149;3G6D L C 194;20.6475
3G6D L K 150;3G6D L A 151;15.4235
3G6D L K 150;3G6D L D 152;2.22015
3G6D L K 150;3G6D L S 153;32.1585
3G6D L K 150;3G6D L S 154;9.2318
3G6D L K 150;3G6D L P 155;7.74608
3G6D L K 150;3G6D L V 156;5.1159
3G6D L K 150;3G6D L Y 192;10.9472
3G6D L K 150;3G6D L S 193;33.2426
3G6D L K 150;3G6D L Q 195;18.0993
3G6D L K 150;3G6D L E 204;21.8554
3G6D L A 151;3G6D L D 152;23.4032
3G6D L A 151;3G6D L S 153;1.65019
3G6D L A 151;3G6D L S 154;25.3703
3G6D L A 151;3G6D L P 155;0.0263347
3G6D L A 151;3G6D L V 156;14.531
3G6D L A 151;3G6D L H 189;16.7173
3G6D L A 151;3G6D L S 191;2.59987
3G6D L A 151;3G6D L Y 192;17.3866
3G6D L D 152;3G6D L S 153;34.3505
3G6D L D 152;3G6D L S 154;7.00526
3G6D L D 152;3G6D L H 189;20.9041
3G6D L D 152;3G6D L R 190;26.6352
3G6D L D 152;3G6D L S 191;22.8549
3G6D L D 152;3G6D L Y 192;0.22624
3G6D L S 153;3G6D L S 154;24.5825
3G6D L S 153;3G6D L P 155;1.69652
3G6D L S 153;3G6D L S 193;0.955037
3G6D L S 154;3G6D L P 155;40.5882
3G6D L S 154;3G6D L V 156;2.99612
3G6D L P 155;3G6D L V 156;23.7749
3G6D L P 155;3G6D L K 157;15.5928
3G6D L V 156;3G6D L K 157;28.1747
3G6D L V 156;3G6D L A 158;13.5702
3G6D L V 156;3G6D L V 160;10.7342
3G6D L V 156;3G6D L L 179;14.7191
3G6D L V 156;3G6D L L 181;6.12945
3G6D L V 156;3G6D L Q 185;2.64872
3G6D L V 156;3G6D L Y 192;10.1919
3G6D L K 157;3G6D L A 158;31.2235
3G6D L K 157;3G6D L G 159;0.571677
3G6D L K 157;3G6D L V 160;16.3015
3G6D L A 158;3G6D L G 159;27.5964
3G6D L A 158;3G6D L V 160;4.78997
3G6D L A 158;3G6D L L 179;6.45741
3G6D L A 158;3G6D L S 180;1.13993
3G6D L A 158;3G6D L L 181;0.0482978
3G6D L G 159;3G6D L V 160;22.4917
3G6D L G 159;3G6D L E 161;7.79178
3G6D L G 159;3G6D L Y 178;3.64306
3G6D L G 159;3G6D L L 179;10.5443
3G6D L G 159;3G6D L S 180;23.8865
3G6D L V 160;3G6D L E 161;34.4108
3G6D L V 160;3G6D L T 162;12.4075
3G6D L V 160;3G6D L S 177;5.29411
3G6D L V 160;3G6D L Y 178;5.43736
3G6D L V 160;3G6D L L 179;11.724
3G6D L E 161;3G6D L T 162;24.4078
3G6D L E 161;3G6D L S 176;0.738046
3G6D L E 161;3G6D L S 177;4.53366
3G6D L E 161;3G6D L Y 178;26.8025
3G6D L E 161;3G6D L S 180;3.35301
3G6D L T 162;3G6D L T 163;37.2275
3G6D L T 162;3G6D L T 164;2.71244
3G6D L T 162;3G6D L A 175;4.59262
3G6D L T 162;3G6D L S 176;8.65211
3G6D L T 162;3G6D L S 177;15.5011
3G6D L T 163;3G6D L T 164;36.2577
3G6D L T 163;3G6D L P 165;6.55978
3G6D L T 163;3G6D L A 174;0.708419
3G6D L T 163;3G6D L A 175;15.3198
3G6D L T 163;3G6D L S 176;19.9192
3G6D L T 164;3G6D L P 165;40.1161
3G6D L T 164;3G6D L S 166;5.93649
3G6D L T 164;3G6D L A 174;0.28222
3G6D L T 164;3G6D L A 175;0.114273
3G6D L P 165;3G6D L S 166;23.7117
3G6D L P 165;3G6D L Y 173;14.7718
3G6D L P 165;3G6D L A 174;6.09297
3G6D L P 165;3G6D L A 175;13.8426
3G6D L S 166;3G6D L K 167;28.1123
3G6D L S 166;3G6D L Q 168;4.6465
3G6D L S 166;3G6D L Y 173;13.0585
3G6D L S 166;3G6D L A 174;22.9186
3G6D L K 167;3G6D L Q 168;28.9982
3G6D L K 167;3G6D L S 169;1.8319
3G6D L K 167;3G6D L N 171;25.2168
3G6D L K 167;3G6D L K 172;5.33044
3G6D L K 167;3G6D L Y 173;36.8481
3G6D L Q 168;3G6D L S 169;27.2116
3G6D L Q 168;3G6D L N 170;19.952
3G6D L Q 168;3G6D L N 171;11.7658
3G6D L Q 168;3G6D L K 172;17.1542
3G6D L Q 168;3G6D L Y 173;8.45073
3G6D L Q 168;3G6D L A 174;14.5636
3G6D L S 169;3G6D L N 170;25.4608
3G6D L S 169;3G6D L N 171;11.0681
3G6D L N 170;3G6D L N 171;25.2581
3G6D L N 170;3G6D L K 172;33.0185
3G6D L N 171;3G6D L K 172;21.2755
3G6D L N 171;3G6D L Y 173;2.49058
3G6D L K 172;3G6D L Y 173;21.9896
3G6D L Y 173;3G6D L A 174;16.4242
3G6D L A 174;3G6D L A 175;20.5304
3G6D L A 175;3G6D L S 176;21.8987
3G6D L S 176;3G6D L S 177;18.8698
3G6D L S 176;3G6D L Y 178;18.4525
3G6D L S 177;3G6D L Y 178;25.894
3G6D L Y 178;3G6D L L 179;17.917
3G6D L Y 178;3G6D L S 180;3.27679
3G6D L L 179;3G6D L S 180;23.883
3G6D L L 179;3G6D L L 181;18.4992
3G6D L L 179;3G6D L Y 192;10.6521
3G6D L S 180;3G6D L L 181;29.13
3G6D L S 180;3G6D L Q 185;2.2096
3G6D L L 181;3G6D L T 182;25.0044
3G6D L L 181;3G6D L P 183;2.59725
3G6D L L 181;3G6D L Q 185;21.436
3G6D L L 181;3G6D L W 186;16.6586
3G6D L L 181;3G6D L Y 192;22.8249
3G6D L T 182;3G6D L P 183;25.2475
3G6D L T 182;3G6D L E 184;21.4683
3G6D L T 182;3G6D L Q 185;37.1206
3G6D L T 182;3G6D L W 186;5.54904
3G6D L P 183;3G6D L E 184;31.3136
3G6D L P 183;3G6D L Q 185;0.18833
3G6D L P 183;3G6D L W 186;8.18755
3G6D L P 183;3G6D L K 187;19.171
3G6D L E 184;3G6D L Q 185;19.2712
3G6D L E 184;3G6D L W 186;1.12015
3G6D L E 184;3G6D L K 187;7.38283
3G6D L E 184;3G6D L S 188;15.8766
3G6D L Q 185;3G6D L W 186;17.4195
3G6D L Q 185;3G6D L K 187;0.61374
3G6D L Q 185;3G6D L S 188;11.1967
3G6D L Q 185;3G6D L H 189;17.9092
3G6D L Q 185;3G6D L Y 192;14.9672
3G6D L W 186;3G6D L K 187;29.2091
3G6D L W 186;3G6D L S 188;1.0182
3G6D L W 186;3G6D L H 189;7.24437
3G6D L W 186;3G6D L S 191;1.32566
3G6D L W 186;3G6D L Y 192;22.4463
3G6D L W 186;3G6D L V 207;12.5849
3G6D L W 186;3G6D L A 208;10.8132
3G6D L W 186;3G6D L P 209;34.1137
3G6D L K 187;3G6D L S 188;25.33
3G6D L K 187;3G6D L H 189;7.38074
3G6D L K 187;3G6D L R 190;0.279444
3G6D L K 187;3G6D L P 209;23.3172
3G6D L K 187;3G6D L T 210;8.2274
3G6D L S 188;3G6D L H 189;35.2149
3G6D L S 188;3G6D L R 190;16.8581
3G6D L H 189;3G6D L R 190;28.2388
3G6D L H 189;3G6D L S 191;8.52775
3G6D L H 189;3G6D L Y 192;22.2102
3G6D L H 189;3G6D L P 209;9.29214
3G6D L R 190;3G6D L S 191;24.118
3G6D L R 190;3G6D L A 208;9.69633
3G6D L R 190;3G6D L P 209;7.82377
3G6D L S 191;3G6D L Y 192;26.7843
3G6D L S 191;3G6D L S 193;0.247839
3G6D L S 191;3G6D L T 206;19.0524
3G6D L S 191;3G6D L V 207;7.41838
3G6D L S 191;3G6D L A 208;12.3897
3G6D L S 191;3G6D L P 209;2.83948
3G6D L Y 192;3G6D L S 193;21.0533
3G6D L Y 192;3G6D L T 206;8.26321
3G6D L Y 192;3G6D L V 207;16.9175
3G6D L Y 192;3G6D L P 209;0.035535
3G6D L S 193;3G6D L C 194;19.7179
3G6D L S 193;3G6D L Q 195;1.25451
3G6D L S 193;3G6D L E 204;13.4503
3G6D L S 193;3G6D L K 205;6.56949
3G6D L S 193;3G6D L T 206;18.9467
3G6D L C 194;3G6D L Q 195;20.4728
3G6D L C 194;3G6D L V 196;3.98235
3G6D L C 194;3G6D L V 203;0.942174
3G6D L C 194;3G6D L E 204;5.6325
3G6D L C 194;3G6D L K 205;13.9425
3G6D L Q 195;3G6D L V 196;20.3616
3G6D L Q 195;3G6D L T 197;10.0969
3G6D L Q 195;3G6D L T 202;19.7115
3G6D L Q 195;3G6D L V 203;4.30516
3G6D L Q 195;3G6D L E 204;25.2247
3G6D L V 196;3G6D L T 197;20.8553
3G6D L V 196;3G6D L H 198;4.07551
3G6D L V 196;3G6D L S 201;0.786688
3G6D L V 196;3G6D L T 202;10.831
3G6D L V 196;3G6D L V 203;19.7754
3G6D L T 197;3G6D L H 198;20.5952
3G6D L T 197;3G6D L E 199;5.27058
3G6D L T 197;3G6D L G 200;14.1238
3G6D L T 197;3G6D L S 201;7.06415
3G6D L T 197;3G6D L T 202;18.7783
3G6D L H 198;3G6D L E 199;32.3607
3G6D L H 198;3G6D L G 200;0.988144
3G6D L H 198;3G6D L S 201;18.6075
3G6D L E 199;3G6D L G 200;25.7052
3G6D L E 199;3G6D L S 201;8.25567
3G6D L G 200;3G6D L S 201;24.7004
3G6D L G 200;3G6D L T 202;6.32391
3G6D L S 201;3G6D L T 202;28.4236
3G6D L S 201;3G6D L V 203;4.89531
3G6D L T 202;3G6D L V 203;32.3182
3G6D L T 202;3G6D L E 204;7.79174
3G6D L V 203;3G6D L E 204;25.5881
3G6D L V 203;3G6D L K 205;23.2168
3G6D L E 204;3G6D L K 205;25.8301
3G6D L E 204;3G6D L T 206;15.864
3G6D L K 205;3G6D L T 206;24.4903
3G6D L T 206;3G6D L V 207;29.6651
3G6D L V 207;3G6D L A 208;30.8227
3G6D L A 208;3G6D L P 209;32.939
3G6D L A 208;3G6D L T 210;1.39048
3G6D L P 209;3G6D L T 210;39.7757
