V1;V2;Weight
3HG1 D Q 2;3HG1 D E 3;36.6852
3HG1 D Q 2;3HG1 D V 4;12.0292
3HG1 D Q 2;3HG1 D E 5;31.5
3HG1 D Q 2;3HG1 D S 26;18.4083
3HG1 D E 3;3HG1 D V 4;29.8191
3HG1 D E 3;3HG1 D E 5;2.31074
3HG1 D E 3;3HG1 D T 24;2.53113
3HG1 D E 3;3HG1 D Y 25;9.13198
3HG1 D E 3;3HG1 D S 26;24.7294
3HG1 D E 3;3HG1 D D 27;13.1799
3HG1 D E 3;3HG1 D V 91;0.273761
3HG1 D E 3;3HG1 D V 93;8.92419
3HG1 D E 3;3HG1 D K 96;3.72239
3HG1 D E 3;3HG1 D T 98;25.3258
3HG1 D V 4;3HG1 D E 5;24.611
3HG1 D V 4;3HG1 D Q 6;3.76416
3HG1 D V 4;3HG1 D C 23;9.22573
3HG1 D V 4;3HG1 D T 24;5.09206
3HG1 D V 4;3HG1 D Y 25;3.62238
3HG1 D V 4;3HG1 D C 89;10.6726
3HG1 D V 4;3HG1 D A 90;1.472
3HG1 D V 4;3HG1 D V 91;16.4293
3HG1 D V 4;3HG1 D T 98;18.1672
3HG1 D V 4;3HG1 D F 99;9.64379
3HG1 D V 4;3HG1 D G 100;18.1188
3HG1 D V 4;3HG1 D D 101;1.72899
3HG1 D E 5;3HG1 D Q 6;34.8349
3HG1 D E 5;3HG1 D N 7;0.0351534
3HG1 D E 5;3HG1 D N 22;1.6062
3HG1 D E 5;3HG1 D C 23;9.04912
3HG1 D E 5;3HG1 D T 24;37.612
3HG1 D Q 6;3HG1 D N 7;26.9341
3HG1 D Q 6;3HG1 D S 8;7.06154
3HG1 D Q 6;3HG1 D N 22;8.96176
3HG1 D Q 6;3HG1 D C 23;7.1534
3HG1 D Q 6;3HG1 D W 35;7.10093
3HG1 D Q 6;3HG1 D Y 87;5.35769
3HG1 D Q 6;3HG1 D L 88;4.48955
3HG1 D Q 6;3HG1 D C 89;16.5214
3HG1 D Q 6;3HG1 D G 100;14.2679
3HG1 D Q 6;3HG1 D D 101;5.12929
3HG1 D Q 6;3HG1 D G 102;19.4152
3HG1 D Q 6;3HG1 D T 103;12.6936
3HG1 D N 7;3HG1 D S 8;24.868
3HG1 D N 7;3HG1 D G 9;9.26783
3HG1 D N 7;3HG1 D L 11;4.45557
3HG1 D N 7;3HG1 D N 22;13.6557
3HG1 D N 7;3HG1 D T 103;10.6
3HG1 D S 8;3HG1 D G 9;31.1057
3HG1 D S 8;3HG1 D G 102;13.1756
3HG1 D S 8;3HG1 D T 103;14.1301
3HG1 D S 8;3HG1 D T 104;11.8186
3HG1 D G 9;3HG1 D P 10;31.9289
3HG1 D G 9;3HG1 D L 11;12.9953
3HG1 D G 9;3HG1 D T 103;1.99383
3HG1 D G 9;3HG1 D T 104;5.62213
3HG1 D P 10;3HG1 D L 11;26.4421
3HG1 D P 10;3HG1 D S 12;5.2214
3HG1 D P 10;3HG1 D T 104;24.0614
3HG1 D P 10;3HG1 D L 105;0.434003
3HG1 D P 10;3HG1 D T 106;10.5592
3HG1 D L 11;3HG1 D S 12;28.9248
3HG1 D L 11;3HG1 D V 13;9.22797
3HG1 D L 11;3HG1 D A 19;0.654672
3HG1 D L 11;3HG1 D S 20;15.2286
3HG1 D L 11;3HG1 D L 21;12.4415
3HG1 D L 11;3HG1 D T 103;11.078
3HG1 D L 11;3HG1 D T 104;10.4785
3HG1 D L 11;3HG1 D L 105;18.1239
3HG1 D L 11;3HG1 D T 106;14.214
3HG1 D S 12;3HG1 D V 13;29.8236
3HG1 D S 12;3HG1 D P 14;3.95092
3HG1 D S 12;3HG1 D L 105;0.00644025
3HG1 D S 12;3HG1 D T 106;10.9141
3HG1 D S 12;3HG1 D K 108;19.5937
3HG1 D V 13;3HG1 D P 14;31.2231
3HG1 D V 13;3HG1 D E 15;0.558035
3HG1 D V 13;3HG1 D A 17;5.72223
3HG1 D V 13;3HG1 D I 18;9.31415
3HG1 D V 13;3HG1 D A 19;14.7503
3HG1 D V 13;3HG1 D S 20;1.34274
3HG1 D V 13;3HG1 D S 79;8.98319
3HG1 D V 13;3HG1 D L 105;13.6447
3HG1 D V 13;3HG1 D T 106;7.99113
3HG1 D V 13;3HG1 D V 107;18.8034
3HG1 D V 13;3HG1 D K 108;10.7397
3HG1 D P 14;3HG1 D E 15;26.0478
3HG1 D P 14;3HG1 D G 16;1.51732
3HG1 D P 14;3HG1 D A 17;28.5871
3HG1 D P 14;3HG1 D S 79;3.15232
3HG1 D P 14;3HG1 D V 107;1.31665
3HG1 D P 14;3HG1 D K 108;17.0389
3HG1 D P 14;3HG1 D P 109;2.16064
3HG1 D E 15;3HG1 D G 16;24.1519
3HG1 D E 15;3HG1 D A 17;3.16946
3HG1 D E 15;3HG1 D S 79;6.01576
3HG1 D E 15;3HG1 D Q 80;13.5992
3HG1 D E 15;3HG1 D P 81;11.7657
3HG1 D E 15;3HG1 D V 107;10.8089
3HG1 D E 15;3HG1 D K 108;8.36837
3HG1 D E 15;3HG1 D P 109;10.9245
3HG1 D E 15;3HG1 D N 110;25.341
3HG1 D E 15;3HG1 D K 167;20.0705
3HG1 D G 16;3HG1 D A 17;25.7458
3HG1 D G 16;3HG1 D I 18;1.30619
3HG1 D G 16;3HG1 D D 78;25.5139
3HG1 D G 16;3HG1 D S 79;11.3464
3HG1 D G 16;3HG1 D Q 80;0.375003
3HG1 D A 17;3HG1 D I 18;31.3202
3HG1 D A 17;3HG1 D I 76;0.849097
3HG1 D A 17;3HG1 D D 78;3.72216
3HG1 D A 17;3HG1 D S 79;12.4293
3HG1 D I 18;3HG1 D A 19;23.0012
3HG1 D I 18;3HG1 D S 20;5.58726
3HG1 D I 18;3HG1 D L 75;18.3724
3HG1 D I 18;3HG1 D I 76;7.72991
3HG1 D I 18;3HG1 D R 77;24.2871
3HG1 D I 18;3HG1 D D 78;4.34716
3HG1 D I 18;3HG1 D S 79;2.21737
3HG1 D A 19;3HG1 D S 20;22.212
3HG1 D A 19;3HG1 D L 21;8.24947
3HG1 D A 19;3HG1 D L 74;2.93937
3HG1 D A 19;3HG1 D L 75;6.56219
3HG1 D A 19;3HG1 D I 76;23.9008
3HG1 D A 19;3HG1 D S 79;9.04258
3HG1 D A 19;3HG1 D L 105;12.6457
3HG1 D A 19;3HG1 D V 107;0.0447708
3HG1 D S 20;3HG1 D L 21;26.7179
3HG1 D S 20;3HG1 D N 22;10.8568
3HG1 D S 20;3HG1 D L 74;2.77636
3HG1 D S 20;3HG1 D L 75;17.8649
3HG1 D L 21;3HG1 D N 22;29.5442
3HG1 D L 21;3HG1 D W 35;14.8684
3HG1 D L 21;3HG1 D S 73;8.78257
3HG1 D L 21;3HG1 D L 74;32.0563
3HG1 D L 21;3HG1 D L 75;0.289158
3HG1 D L 21;3HG1 D I 76;9.56615
3HG1 D L 21;3HG1 D Y 87;15.9101
3HG1 D L 21;3HG1 D T 103;18.0395
3HG1 D L 21;3HG1 D T 104;0.217233
3HG1 D L 21;3HG1 D L 105;12.8381
3HG1 D N 22;3HG1 D C 23;24.0526
3HG1 D N 22;3HG1 D W 35;9.19521
3HG1 D N 22;3HG1 D Y 71;28.2126
3HG1 D N 22;3HG1 D V 72;2.05829
3HG1 D N 22;3HG1 D S 73;10.5368
3HG1 D N 22;3HG1 D T 103;3.78052
3HG1 D C 23;3HG1 D T 24;29.3496
3HG1 D C 23;3HG1 D Y 25;2.85501
3HG1 D C 23;3HG1 D W 35;7.18811
3HG1 D C 23;3HG1 D Y 71;10.9142
3HG1 D C 23;3HG1 D V 72;26.7031
3HG1 D C 23;3HG1 D S 73;0.040837
3HG1 D C 23;3HG1 D C 89;19.7962
3HG1 D C 23;3HG1 D V 91;2.72088
3HG1 D T 24;3HG1 D Y 25;27.4178
3HG1 D T 24;3HG1 D S 26;1.67552
3HG1 D T 24;3HG1 D S 69;1.62411
3HG1 D T 24;3HG1 D Q 70;12.7804
3HG1 D T 24;3HG1 D Y 71;9.40676
3HG1 D Y 25;3HG1 D S 26;19.6929
3HG1 D Y 25;3HG1 D D 27;10.2405
3HG1 D Y 25;3HG1 D R 28;10.3965
3HG1 D Y 25;3HG1 D S 30;15.7713
3HG1 D Y 25;3HG1 D F 33;20.2402
3HG1 D Y 25;3HG1 D L 65;6.13079
3HG1 D Y 25;3HG1 D N 66;1.16898
3HG1 D Y 25;3HG1 D K 67;19.557
3HG1 D Y 25;3HG1 D Q 70;40.6268
3HG1 D Y 25;3HG1 D Y 71;4.88079
3HG1 D Y 25;3HG1 D V 72;9.94468
3HG1 D Y 25;3HG1 D V 91;15.2214
3HG1 D S 26;3HG1 D D 27;28.8716
3HG1 D S 26;3HG1 D R 28;9.12551
3HG1 D S 26;3HG1 D Q 70;17.2591
3HG1 D D 27;3HG1 D R 28;20.107
3HG1 D D 27;3HG1 D G 29;13.2536
3HG1 D D 27;3HG1 D S 30;15.0833
3HG1 D D 27;3HG1 D Q 70;0.170359
3HG1 D D 27;3HG1 D V 93;22.0293
3HG1 D D 27;3HG1 D A 94;1.04606
3HG1 D R 28;3HG1 D G 29;16.9469
3HG1 D R 28;3HG1 D S 30;7.95107
3HG1 D R 28;3HG1 D K 67;16.5793
3HG1 D R 28;3HG1 D A 68;14.9601
3HG1 D R 28;3HG1 D Q 70;30.8468
3HG1 D G 29;3HG1 D S 30;19.0792
3HG1 D G 29;3HG1 D Q 31;13.1752
3HG1 D G 29;3HG1 D N 92;0.141735
3HG1 D G 29;3HG1 D V 93;11.5316
3HG1 D S 30;3HG1 D Q 31;19.8905
3HG1 D S 30;3HG1 D S 32;0.445804
3HG1 D S 30;3HG1 D F 33;14.8271
3HG1 D S 30;3HG1 D K 67;9.15107
3HG1 D S 30;3HG1 D V 91;15.0864
3HG1 D S 30;3HG1 D N 92;3.67785
3HG1 D S 30;3HG1 D V 93;13.5899
3HG1 D Q 31;3HG1 D S 32;20.6654
3HG1 D Q 31;3HG1 D F 33;5.10818
3HG1 D Q 31;3HG1 D Y 51;9.26812
3HG1 D Q 31;3HG1 D K 67;8.67623
3HG1 D Q 31;3HG1 D N 92;12.4076
3HG1 D S 32;3HG1 D F 33;28.0095
3HG1 D S 32;3HG1 D F 34;12.0679
3HG1 D S 32;3HG1 D F 49;2.3307
3HG1 D S 32;3HG1 D I 50;4.92748
3HG1 D S 32;3HG1 D Y 51;12.849
3HG1 D S 32;3HG1 D V 91;3.78688
3HG1 D S 32;3HG1 D N 92;23.9899
3HG1 D S 32;3HG1 E T 100;9.93465
3HG1 D S 32;3HG1 E G 101;0.259608
3HG1 D F 33;3HG1 D F 34;26.7842
3HG1 D F 33;3HG1 D W 35;0.0381455
3HG1 D F 33;3HG1 D F 49;7.83614
3HG1 D F 33;3HG1 D I 50;25.1919
3HG1 D F 33;3HG1 D Y 51;2.90138
3HG1 D F 33;3HG1 D L 65;18.1333
3HG1 D F 33;3HG1 D K 67;9.54219
3HG1 D F 33;3HG1 D V 72;22.9437
3HG1 D F 33;3HG1 D C 89;0.849067
3HG1 D F 33;3HG1 D A 90;6.80512
3HG1 D F 33;3HG1 D V 91;15.6177
3HG1 D F 34;3HG1 D W 35;27.2291
3HG1 D F 34;3HG1 D Y 36;16.8435
3HG1 D F 34;3HG1 D L 46;11.3273
3HG1 D F 34;3HG1 D M 48;5.84939
3HG1 D F 34;3HG1 D F 49;19.5344
3HG1 D F 34;3HG1 D V 72;2.99425
3HG1 D F 34;3HG1 D L 88;0.559417
3HG1 D F 34;3HG1 D C 89;7.61363
3HG1 D F 34;3HG1 D A 90;27.0661
3HG1 D F 34;3HG1 D V 91;1.02107
3HG1 D F 34;3HG1 D N 92;11.7228
3HG1 D F 34;3HG1 D S 97;7.9002
3HG1 D F 34;3HG1 E T 100;7.82186
3HG1 D F 34;3HG1 E G 101;6.67884
3HG1 D F 34;3HG1 E E 102;15.6313
3HG1 D F 34;3HG1 E L 103;0.252917
3HG1 D W 35;3HG1 D Y 36;19.6864
3HG1 D W 35;3HG1 D L 46;6.53351
3HG1 D W 35;3HG1 D I 47;21.9968
3HG1 D W 35;3HG1 D M 48;17.4548
3HG1 D W 35;3HG1 D A 63;8.09349
3HG1 D W 35;3HG1 D V 72;18.5397
3HG1 D W 35;3HG1 D S 73;10.3989
3HG1 D W 35;3HG1 D L 74;27.3144
3HG1 D W 35;3HG1 D Y 87;12.3177
3HG1 D W 35;3HG1 D L 88;9.05722
3HG1 D W 35;3HG1 D C 89;14.7791
3HG1 D W 35;3HG1 D T 103;6.27092
3HG1 D Y 36;3HG1 D R 37;18.9734
3HG1 D Y 36;3HG1 D Q 38;0.00749491
3HG1 D Y 36;3HG1 D P 44;13.3165
3HG1 D Y 36;3HG1 D E 45;8.8511
3HG1 D Y 36;3HG1 D L 46;28.9056
3HG1 D Y 36;3HG1 D I 47;6.57887
3HG1 D Y 36;3HG1 D T 86;0.410362
3HG1 D Y 36;3HG1 D Y 87;6.95459
3HG1 D Y 36;3HG1 D L 88;29.7494
3HG1 D Y 36;3HG1 D A 90;11.1203
3HG1 D Y 36;3HG1 D S 97;0.86907
3HG1 D Y 36;3HG1 D F 99;14.7384
3HG1 D Y 36;3HG1 E E 102;5.236
3HG1 D Y 36;3HG1 E L 103;22.3173
3HG1 D Y 36;3HG1 E F 105;13.5822
3HG1 D R 37;3HG1 D Q 38;23.2674
3HG1 D R 37;3HG1 D Y 39;36.823
3HG1 D R 37;3HG1 D S 43;1.93588
3HG1 D R 37;3HG1 D P 44;3.65436
3HG1 D R 37;3HG1 D E 45;43.8612
3HG1 D R 37;3HG1 D L 46;0.139399
3HG1 D R 37;3HG1 D I 47;24.6003
3HG1 D R 37;3HG1 D F 61;14.0104
3HG1 D R 37;3HG1 D D 83;7.98917
3HG1 D R 37;3HG1 D A 85;9.67023
3HG1 D R 37;3HG1 D T 86;4.14252
3HG1 D R 37;3HG1 D Y 87;23.6336
3HG1 D R 37;3HG1 D L 88;0.308357
3HG1 D Q 38;3HG1 D Y 39;27.8716
3HG1 D Q 38;3HG1 D S 40;3.69427
3HG1 D Q 38;3HG1 D G 41;0.662031
3HG1 D Q 38;3HG1 D K 42;10.7199
3HG1 D Q 38;3HG1 D S 43;8.43572
3HG1 D Q 38;3HG1 D P 44;17.9362
3HG1 D Q 38;3HG1 D A 85;8.80379
3HG1 D Q 38;3HG1 D T 86;24.231
3HG1 D Q 38;3HG1 D L 88;18.3094
3HG1 D Q 38;3HG1 E Q 38;16.2457
3HG1 D Q 38;3HG1 E R 42;20.4389
3HG1 D Q 38;3HG1 E L 44;0.278108
3HG1 D Q 38;3HG1 E F 88;5.94548
3HG1 D Q 38;3HG1 E L 90;1.73784
3HG1 D Q 38;3HG1 E R 110;0.00136545
3HG1 D Y 39;3HG1 D S 40;29.188
3HG1 D Y 39;3HG1 D G 41;3.68879
3HG1 D Y 39;3HG1 D K 42;32.6911
3HG1 D Y 39;3HG1 D S 43;2.30993
3HG1 D Y 39;3HG1 D E 45;10.0959
3HG1 D Y 39;3HG1 D S 82;20.1995
3HG1 D Y 39;3HG1 D D 83;1.57648
3HG1 D Y 39;3HG1 D S 84;11.0652
3HG1 D Y 39;3HG1 D A 85;13.3555
3HG1 D Y 39;3HG1 E R 42;0.120397
3HG1 D S 40;3HG1 D G 41;27.4098
3HG1 D S 40;3HG1 D K 42;4.92927
3HG1 D S 40;3HG1 D A 85;1.31718
3HG1 D S 40;3HG1 D T 86;0.150593
3HG1 D S 40;3HG1 E R 42;21.1893
3HG1 D S 40;3HG1 E P 174;17.5597
3HG1 D S 40;3HG1 E Q 175;1.98474
3HG1 D G 41;3HG1 D K 42;31.5626
3HG1 D G 41;3HG1 D S 43;0.0363167
3HG1 D G 41;3HG1 E R 42;1.80976
3HG1 D G 41;3HG1 E F 88;10.0287
3HG1 D G 41;3HG1 E E 107;0.847916
3HG1 D G 41;3HG1 E R 110;18.2677
3HG1 D K 42;3HG1 D S 43;32.654
3HG1 D K 42;3HG1 E F 88;3.12278
3HG1 D K 42;3HG1 E E 107;1.6876
3HG1 D S 43;3HG1 D P 44;29.4812
3HG1 D S 43;3HG1 D E 45;7.31247
3HG1 D S 43;3HG1 E F 88;7.86686
3HG1 D S 43;3HG1 E L 90;8.69361
3HG1 D S 43;3HG1 E F 105;8.98376
3HG1 D S 43;3HG1 E G 106;12.2959
3HG1 D S 43;3HG1 E E 107;9.37826
3HG1 D P 44;3HG1 D E 45;23.3853
3HG1 D P 44;3HG1 D L 46;0.233924
3HG1 D P 44;3HG1 D L 88;9.74663
3HG1 D P 44;3HG1 D F 99;2.19063
3HG1 D P 44;3HG1 E Q 38;0.153047
3HG1 D P 44;3HG1 E L 44;9.03582
3HG1 D P 44;3HG1 E F 88;0.0244582
3HG1 D P 44;3HG1 E L 90;13.8164
3HG1 D P 44;3HG1 E F 105;33.2051
3HG1 D E 45;3HG1 D L 46;32.8838
3HG1 D E 45;3HG1 D I 47;4.65196
3HG1 D L 46;3HG1 D I 47;29.4193
3HG1 D L 46;3HG1 D M 48;14.4051
3HG1 D L 46;3HG1 D F 49;12.6472
3HG1 D L 46;3HG1 E E 102;22.8733
3HG1 D L 46;3HG1 E L 103;2.98555
3HG1 D L 46;3HG1 E F 105;0.108925
3HG1 D I 47;3HG1 D M 48;35.4588
3HG1 D I 47;3HG1 D D 58;6.99592
3HG1 D I 47;3HG1 D F 61;22.4891
3HG1 D I 47;3HG1 D L 74;13.3612
3HG1 D I 47;3HG1 D Y 87;10.6863
3HG1 D M 48;3HG1 D F 49;27.4846
3HG1 D M 48;3HG1 D I 50;0.849821
3HG1 D M 48;3HG1 D K 56;21.0565
3HG1 D M 48;3HG1 D E 57;2.37495
3HG1 D M 48;3HG1 D D 58;20.1803
3HG1 D M 48;3HG1 D F 61;17.4308
3HG1 D M 48;3HG1 D T 62;3.44988
3HG1 D M 48;3HG1 D A 63;16.8274
3HG1 D M 48;3HG1 D L 74;8.3534
3HG1 D F 49;3HG1 D I 50;27.2085
3HG1 D F 49;3HG1 D Y 51;19.1298
3HG1 D F 49;3HG1 D K 56;33.1992
3HG1 D F 49;3HG1 D A 63;0.087817
3HG1 D F 49;3HG1 E T 100;22.1159
3HG1 D F 49;3HG1 E E 102;16.8978
3HG1 D I 50;3HG1 D Y 51;26.1371
3HG1 D I 50;3HG1 D S 52;14.842
3HG1 D I 50;3HG1 D G 54;4.03297
3HG1 D I 50;3HG1 D D 55;1.52598
3HG1 D I 50;3HG1 D K 56;25.9045
3HG1 D I 50;3HG1 D A 63;18.337
3HG1 D I 50;3HG1 D Q 64;1.3365
3HG1 D I 50;3HG1 D L 65;21.5546
3HG1 D I 50;3HG1 D V 72;4.22392
3HG1 D Y 51;3HG1 D S 52;31.5641
3HG1 D Y 51;3HG1 D K 56;1.73872
3HG1 D Y 51;3HG1 D L 65;5.85714
3HG1 D Y 51;3HG1 D K 67;10.129
3HG1 D Y 51;3HG1 E T 100;10.8264
3HG1 D S 52;3HG1 D N 53;31.6672
3HG1 D S 52;3HG1 D G 54;6.15243
3HG1 D S 52;3HG1 D L 65;8.67643
3HG1 D S 52;3HG1 D K 67;3.92585
3HG1 D N 53;3HG1 D G 54;26.0621
3HG1 D N 53;3HG1 D L 65;18.062
3HG1 D N 53;3HG1 D N 66;8.41779
3HG1 D N 53;3HG1 D K 67;30.1968
3HG1 D N 53;3HG1 D A 68;3.49451
3HG1 D G 54;3HG1 D D 55;36.5534
3HG1 D G 54;3HG1 D A 63;0.509219
3HG1 D G 54;3HG1 D Q 64;5.18348
3HG1 D G 54;3HG1 D L 65;19.628
3HG1 D D 55;3HG1 D K 56;25.75
3HG1 D D 55;3HG1 D E 57;2.60139
3HG1 D D 55;3HG1 D T 62;11.8999
3HG1 D D 55;3HG1 D A 63;5.89824
3HG1 D D 55;3HG1 D Q 64;24.3493
3HG1 D K 56;3HG1 D E 57;29.8514
3HG1 D K 56;3HG1 D D 58;2.56602
3HG1 D K 56;3HG1 D F 61;0.0486669
3HG1 D K 56;3HG1 D T 62;8.95862
3HG1 D K 56;3HG1 D A 63;15.0545
3HG1 D E 57;3HG1 D D 58;27.4914
3HG1 D E 57;3HG1 D G 59;16.6996
3HG1 D E 57;3HG1 D F 61;5.7207
3HG1 D E 57;3HG1 D T 62;17.4955
3HG1 D E 57;3HG1 D R 77;12.2014
3HG1 D D 58;3HG1 D G 59;29.6032
3HG1 D D 58;3HG1 D R 60;1.1679
3HG1 D D 58;3HG1 D F 61;22.3218
3HG1 D G 59;3HG1 D R 60;23.4769
3HG1 D G 59;3HG1 D F 61;5.17013
3HG1 D G 59;3HG1 D T 62;0.433675
3HG1 D G 59;3HG1 D R 77;15.0878
3HG1 D R 60;3HG1 D F 61;43.5925
3HG1 D R 60;3HG1 D T 62;1.92889
3HG1 D R 60;3HG1 D L 75;3.33939
3HG1 D R 60;3HG1 D I 76;16.6836
3HG1 D R 60;3HG1 D R 77;44.0701
3HG1 D R 60;3HG1 D D 78;18.5639
3HG1 D R 60;3HG1 D S 79;3.18795
3HG1 D R 60;3HG1 D Q 80;18.7899
3HG1 D R 60;3HG1 D S 82;0.196092
3HG1 D R 60;3HG1 D D 83;18.7331
3HG1 D F 61;3HG1 D T 62;21.5183
3HG1 D F 61;3HG1 D L 74;13.0572
3HG1 D F 61;3HG1 D L 75;5.5544
3HG1 D F 61;3HG1 D I 76;20.306
3HG1 D F 61;3HG1 D D 83;4.39183
3HG1 D F 61;3HG1 D Y 87;6.32574
3HG1 D T 62;3HG1 D A 63;20.5713
3HG1 D T 62;3HG1 D Q 64;11.6198
3HG1 D T 62;3HG1 D S 73;0.409503
3HG1 D T 62;3HG1 D L 74;11.3806
3HG1 D T 62;3HG1 D L 75;29.8427
3HG1 D A 63;3HG1 D Q 64;23.3484
3HG1 D A 63;3HG1 D V 72;3.0866
3HG1 D A 63;3HG1 D S 73;7.06617
3HG1 D A 63;3HG1 D L 74;5.3855
3HG1 D Q 64;3HG1 D L 65;23.4277
3HG1 D Q 64;3HG1 D N 66;0.366132
3HG1 D Q 64;3HG1 D Y 71;5.203
3HG1 D Q 64;3HG1 D V 72;9.15941
3HG1 D Q 64;3HG1 D S 73;31.0916
3HG1 D Q 64;3HG1 D L 75;23.9455
3HG1 D L 65;3HG1 D N 66;27.1807
3HG1 D L 65;3HG1 D K 67;16.4256
3HG1 D L 65;3HG1 D Y 71;4.78711
3HG1 D L 65;3HG1 D V 72;14.7183
3HG1 D N 66;3HG1 D K 67;15.0257
3HG1 D N 66;3HG1 D A 68;15.7414
3HG1 D N 66;3HG1 D S 69;23.9516
3HG1 D N 66;3HG1 D Q 70;4.39814
3HG1 D N 66;3HG1 D Y 71;26.1586
3HG1 D K 67;3HG1 D A 68;21.2578
3HG1 D K 67;3HG1 D S 69;0.99364
3HG1 D K 67;3HG1 D Q 70;8.33027
3HG1 D A 68;3HG1 D S 69;24.8706
3HG1 D A 68;3HG1 D Q 70;3.60367
3HG1 D S 69;3HG1 D Q 70;26.4522
3HG1 D S 69;3HG1 D Y 71;20.3542
3HG1 D Q 70;3HG1 D Y 71;16.6346
3HG1 D Y 71;3HG1 D V 72;23.4532
3HG1 D Y 71;3HG1 D S 73;18.5895
3HG1 D V 72;3HG1 D S 73;22.2553
3HG1 D V 72;3HG1 D C 89;7.2499
3HG1 D V 72;3HG1 D V 91;0.576901
3HG1 D S 73;3HG1 D L 74;17.8851
3HG1 D S 73;3HG1 D L 75;7.38809
3HG1 D L 74;3HG1 D L 75;28.1137
3HG1 D L 74;3HG1 D I 76;9.27021
3HG1 D L 74;3HG1 D Y 87;6.79222
3HG1 D L 75;3HG1 D I 76;18.8262
3HG1 D L 75;3HG1 D R 77;4.33236
3HG1 D I 76;3HG1 D R 77;19.3589
3HG1 D I 76;3HG1 D D 78;0.145527
3HG1 D I 76;3HG1 D S 79;14.4209
3HG1 D I 76;3HG1 D D 83;13.3114
3HG1 D I 76;3HG1 D Y 87;12.0391
3HG1 D I 76;3HG1 D L 105;8.85123
3HG1 D R 77;3HG1 D D 78;32.5384
3HG1 D R 77;3HG1 D S 79;1.7617
3HG1 D D 78;3HG1 D S 79;16.169
3HG1 D D 78;3HG1 D Q 80;24.8735
3HG1 D S 79;3HG1 D Q 80;20.1499
3HG1 D S 79;3HG1 D D 83;4.8031
3HG1 D S 79;3HG1 D L 105;0.448964
3HG1 D S 79;3HG1 D V 107;13.5641
3HG1 D Q 80;3HG1 D P 81;24.4559
3HG1 D Q 80;3HG1 D S 82;14.4324
3HG1 D Q 80;3HG1 D D 83;19.3541
3HG1 D Q 80;3HG1 D S 84;0.362577
3HG1 D Q 80;3HG1 D V 107;11.8646
3HG1 D P 81;3HG1 D S 82;25.3294
3HG1 D P 81;3HG1 D D 83;1.80311
3HG1 D P 81;3HG1 D S 84;17.1256
3HG1 D P 81;3HG1 D V 107;19.7894
3HG1 D P 81;3HG1 D P 109;12.0585
3HG1 D P 81;3HG1 D V 158;8.71686
3HG1 D P 81;3HG1 D K 167;18.4374
3HG1 D S 82;3HG1 D D 83;26.9801
3HG1 D S 82;3HG1 D S 84;6.22005
3HG1 D D 83;3HG1 D S 84;18.3878
3HG1 D D 83;3HG1 D A 85;5.25925
3HG1 D D 83;3HG1 D Y 87;17.5213
3HG1 D D 83;3HG1 D L 105;9.68908
3HG1 D D 83;3HG1 D V 107;6.54043
3HG1 D S 84;3HG1 D A 85;22.4495
3HG1 D S 84;3HG1 D L 105;11.7248
3HG1 D S 84;3HG1 D T 106;11.5875
3HG1 D S 84;3HG1 D V 107;16.615
3HG1 D A 85;3HG1 D T 86;22.6649
3HG1 D A 85;3HG1 D Y 87;11.8128
3HG1 D A 85;3HG1 D T 103;0.866378
3HG1 D A 85;3HG1 D T 104;6.38172
3HG1 D A 85;3HG1 D L 105;18.0566
3HG1 D T 86;3HG1 D Y 87;19.5159
3HG1 D T 86;3HG1 D L 88;14.6041
3HG1 D T 86;3HG1 D D 101;0.141314
3HG1 D T 86;3HG1 D G 102;7.2086
3HG1 D T 86;3HG1 D T 103;9.2577
3HG1 D T 86;3HG1 D T 104;19.1983
3HG1 D T 86;3HG1 E R 42;29.624
3HG1 D Y 87;3HG1 D L 88;16.5029
3HG1 D Y 87;3HG1 D G 102;2.41506
3HG1 D Y 87;3HG1 D T 103;22.2045
3HG1 D Y 87;3HG1 D L 105;17.5092
3HG1 D L 88;3HG1 D C 89;19.7541
3HG1 D L 88;3HG1 D A 90;1.17744
3HG1 D L 88;3HG1 D F 99;13.19
3HG1 D L 88;3HG1 D G 100;5.2951
3HG1 D L 88;3HG1 D G 102;9.26257
3HG1 D L 88;3HG1 E Q 38;2.09694
3HG1 D L 88;3HG1 E R 42;5.22395
3HG1 D L 88;3HG1 E G 43;5.3073
3HG1 D L 88;3HG1 E L 44;12.2455
3HG1 D C 89;3HG1 D A 90;24.4856
3HG1 D C 89;3HG1 D V 91;5.62057
3HG1 D C 89;3HG1 D T 98;0.158873
3HG1 D C 89;3HG1 D F 99;7.94365
3HG1 D C 89;3HG1 D G 100;7.34721
3HG1 D A 90;3HG1 D V 91;23.4531
3HG1 D A 90;3HG1 D S 97;7.468
3HG1 D A 90;3HG1 D T 98;6.60837
3HG1 D A 90;3HG1 D F 99;13.7127
3HG1 D V 91;3HG1 D N 92;19.7259
3HG1 D V 91;3HG1 D V 93;16.472
3HG1 D V 91;3HG1 D K 96;1.18702
3HG1 D V 91;3HG1 D S 97;5.82285
3HG1 D V 91;3HG1 D T 98;19.0847
3HG1 D N 92;3HG1 D V 93;20.7598
3HG1 D N 92;3HG1 D G 95;4.99976
3HG1 D N 92;3HG1 D K 96;16.1351
3HG1 D N 92;3HG1 D S 97;9.22412
3HG1 D N 92;3HG1 E L 98;5.06267
3HG1 D N 92;3HG1 E G 99;2.91938
3HG1 D N 92;3HG1 E T 100;0.744421
3HG1 D N 92;3HG1 E G 101;11.2119
3HG1 D V 93;3HG1 D A 94;36.5681
3HG1 D V 93;3HG1 D G 95;3.339
3HG1 D V 93;3HG1 D K 96;21.0881
3HG1 D V 93;3HG1 D T 98;12.1391
3HG1 D A 94;3HG1 D G 95;18.8341
3HG1 D A 94;3HG1 D K 96;12.1415
3HG1 D G 95;3HG1 D K 96;23.5692
3HG1 D G 95;3HG1 E Y 34;7.39626
3HG1 D G 95;3HG1 E Y 49;9.75906
3HG1 D G 95;3HG1 E L 98;20.0012
3HG1 D K 96;3HG1 D S 97;31.8619
3HG1 D K 96;3HG1 D T 98;14.7596
3HG1 D K 96;3HG1 E Y 34;14.0575
3HG1 D K 96;3HG1 E Y 36;2.85106
3HG1 D K 96;3HG1 E L 46;26.7915
3HG1 D K 96;3HG1 E Y 49;0.810528
3HG1 D K 96;3HG1 E E 59;4.3407
3HG1 D S 97;3HG1 D T 98;22.7017
3HG1 D S 97;3HG1 D F 99;13.9867
3HG1 D S 97;3HG1 E Y 34;0.727744
3HG1 D S 97;3HG1 E Y 36;21.9022
3HG1 D S 97;3HG1 E L 46;1.23226
3HG1 D S 97;3HG1 E G 101;1.26531
3HG1 D S 97;3HG1 E E 102;3.50071
3HG1 D S 97;3HG1 E L 103;16.7825
3HG1 D T 98;3HG1 D F 99;31.97
3HG1 D T 98;3HG1 E Y 36;0.00229898
3HG1 D F 99;3HG1 D G 100;25.5147
3HG1 D F 99;3HG1 D D 101;3.85732
3HG1 D F 99;3HG1 E Y 36;14.3348
3HG1 D F 99;3HG1 E G 43;3.3274
3HG1 D F 99;3HG1 E L 44;39.8571
3HG1 D F 99;3HG1 E L 103;7.94819
3HG1 D F 99;3HG1 E F 105;10.7264
3HG1 D G 100;3HG1 D D 101;21.1655
3HG1 D G 100;3HG1 D G 102;4.85914
3HG1 D G 100;3HG1 E G 43;9.32601
3HG1 D D 101;3HG1 D G 102;28.2119
3HG1 D D 101;3HG1 E R 42;27.3366
3HG1 D D 101;3HG1 E G 43;11.0874
3HG1 D G 102;3HG1 D T 103;17.2494
3HG1 D G 102;3HG1 D T 104;0.0757617
3HG1 D G 102;3HG1 E R 42;2.72072
3HG1 D G 102;3HG1 E G 43;0.130181
3HG1 D T 103;3HG1 D T 104;20.5079
3HG1 D T 103;3HG1 D L 105;2.4804
3HG1 D T 104;3HG1 D L 105;26.7976
3HG1 D T 104;3HG1 D T 106;6.60821
3HG1 D T 104;3HG1 E R 42;1.91354
3HG1 D L 105;3HG1 D T 106;28.3841
3HG1 D L 105;3HG1 D V 107;10.0886
3HG1 D T 106;3HG1 D V 107;19.3192
3HG1 D T 106;3HG1 D K 108;19.8707
3HG1 D V 107;3HG1 D K 108;19.3722
3HG1 D V 107;3HG1 D P 109;6.79531
3HG1 D K 108;3HG1 D P 109;31.2988
3HG1 D K 108;3HG1 D S 139;19.9729
3HG1 D K 108;3HG1 D Q 140;8.37337
3HG1 D K 108;3HG1 D N 142;2.27257
3HG1 D K 108;3HG1 D K 156;14.0887
3HG1 D P 109;3HG1 D N 110;24.9129
3HG1 D P 109;3HG1 D I 111;7.4172
3HG1 D P 109;3HG1 D S 139;21.5482
3HG1 D P 109;3HG1 D V 158;26.4608
3HG1 D P 109;3HG1 D K 167;12.7093
3HG1 D P 109;3HG1 D N 169;8.04782
3HG1 D N 110;3HG1 D I 111;32.9612
3HG1 D N 110;3HG1 D Q 112;17.0205
3HG1 D N 110;3HG1 D D 138;0.238867
3HG1 D N 110;3HG1 D S 139;4.85509
3HG1 D N 110;3HG1 D K 167;9.21513
3HG1 D I 111;3HG1 D Q 112;23.2232
3HG1 D I 111;3HG1 D N 113;9.27952
3HG1 D I 111;3HG1 D P 114;23.9688
3HG1 D I 111;3HG1 D D 136;6.18773
3HG1 D I 111;3HG1 D F 137;9.36617
3HG1 D I 111;3HG1 D D 138;13.4925
3HG1 D I 111;3HG1 D S 139;15.2542
3HG1 D I 111;3HG1 D V 158;0.458326
3HG1 D I 111;3HG1 D F 166;5.28374
3HG1 D I 111;3HG1 D K 167;20.6512
3HG1 D I 111;3HG1 D S 168;5.45988
3HG1 D I 111;3HG1 D N 169;13.6325
3HG1 D Q 112;3HG1 D N 113;51.8631
3HG1 D Q 112;3HG1 D P 114;4.5163
3HG1 D Q 112;3HG1 D D 165;3.648
3HG1 D Q 112;3HG1 D F 166;10.9947
3HG1 D N 113;3HG1 D P 114;37.4869
3HG1 D N 113;3HG1 D F 166;11.223
3HG1 D P 114;3HG1 D D 115;30.6401
3HG1 D P 114;3HG1 D P 116;11.1541
3HG1 D P 114;3HG1 D D 136;7.54971
3HG1 D P 114;3HG1 D F 137;1.39995
3HG1 D P 114;3HG1 D D 138;23.8909
3HG1 D D 115;3HG1 D P 116;28.6512
3HG1 D D 115;3HG1 D A 117;8.66055
3HG1 D D 115;3HG1 D Y 119;2.18329
3HG1 D D 115;3HG1 D T 135;0.558231
3HG1 D D 115;3HG1 D D 136;24.5249
3HG1 D D 115;3HG1 D I 190;1.78141
3HG1 D D 115;3HG1 D P 192;5.41474
3HG1 D D 115;3HG1 E H 137;24.6127
3HG1 D D 115;3HG1 E T 138;7.30538
3HG1 D P 116;3HG1 D A 117;14.4316
3HG1 D P 116;3HG1 D F 134;5.65264
3HG1 D P 116;3HG1 D T 135;3.45781
3HG1 D P 116;3HG1 D D 136;3.89167
3HG1 D P 116;3HG1 D F 137;12.9494
3HG1 D P 116;3HG1 D D 138;5.95837
3HG1 D P 116;3HG1 D N 188;13.0836
3HG1 D P 116;3HG1 D S 189;0.409563
3HG1 D P 116;3HG1 D I 190;24.7511
3HG1 D P 116;3HG1 D I 191;15.148
3HG1 D P 116;3HG1 D P 192;8.85281
3HG1 D A 117;3HG1 D V 118;18.8534
3HG1 D A 117;3HG1 D Y 119;26.4537
3HG1 D A 117;3HG1 D L 133;1.44287
3HG1 D A 117;3HG1 D F 134;10.4732
3HG1 D A 117;3HG1 D T 135;15.7731
3HG1 D A 117;3HG1 D D 136;1.20192
3HG1 D A 117;3HG1 D I 191;4.31543
3HG1 D A 117;3HG1 D P 192;19.1998
3HG1 D A 117;3HG1 E H 137;3.0131
3HG1 D V 118;3HG1 D Y 119;26.111
3HG1 D V 118;3HG1 D Q 120;0.0687376
3HG1 D V 118;3HG1 D C 132;9.27926
3HG1 D V 118;3HG1 D L 133;8.67375
3HG1 D V 118;3HG1 D F 134;27.1456
3HG1 D V 118;3HG1 D C 182;18.1097
3HG1 D V 118;3HG1 D A 183;3.01995
3HG1 D V 118;3HG1 D A 185;5.98875
3HG1 D V 118;3HG1 D I 191;9.82701
3HG1 D V 118;3HG1 D P 192;10.4756
3HG1 D V 118;3HG1 D E 193;27.9646
3HG1 D Y 119;3HG1 D Q 120;21.485
3HG1 D Y 119;3HG1 D L 121;7.13407
3HG1 D Y 119;3HG1 D C 132;2.48158
3HG1 D Y 119;3HG1 D L 133;26.515
3HG1 D Y 119;3HG1 D T 135;15.0165
3HG1 D Y 119;3HG1 D D 136;3.76638
3HG1 D Y 119;3HG1 D C 182;4.3151
3HG1 D Y 119;3HG1 D P 192;2.64153
3HG1 D Y 119;3HG1 D E 193;3.82801
3HG1 D Y 119;3HG1 D D 194;10.6927
3HG1 D Y 119;3HG1 E S 131;14.8594
3HG1 D Y 119;3HG1 E A 133;12.5992
3HG1 D Y 119;3HG1 E E 134;27.7208
3HG1 D Y 119;3HG1 E H 137;12.8376
3HG1 D Y 119;3HG1 E T 138;8.98746
3HG1 D Y 119;3HG1 E R 195;2.29401
3HG1 D Q 120;3HG1 D L 121;24.4461
3HG1 D Q 120;3HG1 D R 122;21.6775
3HG1 D Q 120;3HG1 D S 130;18.7449
3HG1 D Q 120;3HG1 D V 131;7.99977
3HG1 D Q 120;3HG1 D C 132;2.65129
3HG1 D Q 120;3HG1 D L 133;0.56747
3HG1 D Q 120;3HG1 D F 180;0.8323
3HG1 D Q 120;3HG1 D A 181;13.7591
3HG1 D Q 120;3HG1 D C 182;18.6034
3HG1 D Q 120;3HG1 E P 130;0.0865997
3HG1 D Q 120;3HG1 E S 131;19.4424
3HG1 D Q 120;3HG1 E E 132;7.15509
3HG1 D L 121;3HG1 D R 122;20.4133
3HG1 D L 121;3HG1 D D 123;0.0921003
3HG1 D L 121;3HG1 D S 130;8.07015
3HG1 D L 121;3HG1 D V 131;20.2538
3HG1 D L 121;3HG1 D L 133;20.8014
3HG1 D L 121;3HG1 E F 128;17.692
3HG1 D L 121;3HG1 E E 129;13.3594
3HG1 D L 121;3HG1 E P 130;8.6439
3HG1 D L 121;3HG1 E S 131;8.90751
3HG1 D L 121;3HG1 E E 134;2.78941
3HG1 D L 121;3HG1 E T 142;8.61795
3HG1 D L 121;3HG1 E L 143;1.70473
3HG1 D L 121;3HG1 E V 144;16.4854
3HG1 D R 122;3HG1 D D 123;24.124
3HG1 D R 122;3HG1 D S 124;7.05189
3HG1 D R 122;3HG1 D S 126;6.30756
3HG1 D R 122;3HG1 D S 127;19.1026
3HG1 D R 122;3HG1 D D 128;7.67679
3HG1 D R 122;3HG1 D K 129;1.42078
3HG1 D R 122;3HG1 D S 130;13.7918
3HG1 D R 122;3HG1 E F 128;6.04742
3HG1 D R 122;3HG1 E E 129;22.3895
3HG1 D R 122;3HG1 E P 130;3.37426
3HG1 D R 122;3HG1 E E 132;8.31614
3HG1 D D 123;3HG1 D S 124;19.6522
3HG1 D D 123;3HG1 D K 125;18.5628
3HG1 D D 123;3HG1 D S 126;28.6097
3HG1 D D 123;3HG1 D K 129;22.163
3HG1 D D 123;3HG1 D S 130;1.55449
3HG1 D D 123;3HG1 E A 126;14.0053
3HG1 D D 123;3HG1 E V 127;6.63327
3HG1 D D 123;3HG1 E F 128;21.0267
3HG1 D S 124;3HG1 D K 125;31.9054
3HG1 D S 124;3HG1 E V 127;13.5973
3HG1 D S 124;3HG1 E F 128;3.18396
3HG1 D S 124;3HG1 E E 129;30.1361
3HG1 D S 124;3HG1 E E 238;6.82905
3HG1 D S 124;3HG1 E A 239;11.8949
3HG1 D S 124;3HG1 E R 242;0.703285
3HG1 D K 125;3HG1 D S 126;33.252
3HG1 D K 125;3HG1 E E 238;14.1286
3HG1 D S 126;3HG1 D S 127;35.1868
3HG1 D S 126;3HG1 D D 128;2.09036
3HG1 D S 126;3HG1 D K 129;11.883
3HG1 D S 127;3HG1 D D 128;34.1483
3HG1 D S 127;3HG1 D K 129;1.37472
3HG1 D D 128;3HG1 D K 129;38.6701
3HG1 D D 128;3HG1 D S 130;15.0908
3HG1 D K 129;3HG1 D S 130;21.4394
3HG1 D K 129;3HG1 D S 175;0.850016
3HG1 D K 129;3HG1 D N 176;31.3227
3HG1 D K 129;3HG1 E F 128;11.921
3HG1 D S 130;3HG1 D V 131;24.8675
3HG1 D S 130;3HG1 D C 132;0.0110464
3HG1 D S 130;3HG1 D W 174;5.88534
3HG1 D S 130;3HG1 D S 175;7.55157
3HG1 D S 130;3HG1 D F 180;12.5228
3HG1 D S 130;3HG1 E F 128;8.08518
3HG1 D V 131;3HG1 D C 132;25.8962
3HG1 D V 131;3HG1 D L 133;2.89296
3HG1 D V 131;3HG1 D V 172;13.8512
3HG1 D V 131;3HG1 D A 173;7.48598
3HG1 D V 131;3HG1 D W 174;15.8392
3HG1 D V 131;3HG1 D F 180;2.96579
3HG1 D V 131;3HG1 D C 182;0.128599
3HG1 D V 131;3HG1 E F 128;23.1004
3HG1 D V 131;3HG1 E V 144;8.21168
3HG1 D V 131;3HG1 E L 146;9.84799
3HG1 D C 132;3HG1 D L 133;20.809
3HG1 D C 132;3HG1 D F 134;2.09259
3HG1 D C 132;3HG1 D A 171;1.16932
3HG1 D C 132;3HG1 D V 172;5.72758
3HG1 D C 132;3HG1 D A 173;23.7869
3HG1 D C 132;3HG1 D F 180;20.4518
3HG1 D C 132;3HG1 D A 181;0.625769
3HG1 D C 132;3HG1 D C 182;27.8994
3HG1 D C 132;3HG1 D N 184;2.0702
3HG1 D L 133;3HG1 D F 134;20.8677
3HG1 D L 133;3HG1 D T 135;19.5027
3HG1 D L 133;3HG1 D S 170;8.48497
3HG1 D L 133;3HG1 D A 171;10.2512
3HG1 D L 133;3HG1 D V 172;10.1642
3HG1 D L 133;3HG1 E E 134;3.32732
3HG1 D L 133;3HG1 E T 142;18.2481
3HG1 D L 133;3HG1 E V 144;10.2511
3HG1 D L 133;3HG1 E R 193;4.44439
3HG1 D F 134;3HG1 D T 135;19.249
3HG1 D F 134;3HG1 D F 137;29.8328
3HG1 D F 134;3HG1 D T 141;11.4107
3HG1 D F 134;3HG1 D V 143;11.0443
3HG1 D F 134;3HG1 D S 170;2.69639
3HG1 D F 134;3HG1 D A 171;25.67
3HG1 D F 134;3HG1 D A 185;11.2518
3HG1 D F 134;3HG1 D N 187;9.04827
3HG1 D F 134;3HG1 D N 188;9.65063
3HG1 D F 134;3HG1 D I 191;8.21613
3HG1 D T 135;3HG1 D D 136;31.5197
3HG1 D T 135;3HG1 D F 137;11.3989
3HG1 D T 135;3HG1 D L 159;0.039193
3HG1 D T 135;3HG1 D S 168;3.51202
3HG1 D T 135;3HG1 D N 169;6.13765
3HG1 D T 135;3HG1 D S 170;14.3729
3HG1 D T 135;3HG1 E E 134;1.54885
3HG1 D T 135;3HG1 E T 142;3.49195
3HG1 D T 135;3HG1 E R 195;10.4472
3HG1 D D 136;3HG1 D F 137;20.1861
3HG1 D D 136;3HG1 D F 166;13.6487
3HG1 D D 136;3HG1 D S 168;10.3376
3HG1 D D 136;3HG1 D N 169;7.97382
3HG1 D D 136;3HG1 E T 138;8.86054
3HG1 D D 136;3HG1 E K 140;1.25124
3HG1 D D 136;3HG1 E R 195;17.662
3HG1 D F 137;3HG1 D D 138;29.0699
3HG1 D F 137;3HG1 D S 139;0.25093
3HG1 D F 137;3HG1 D T 141;18.5408
3HG1 D F 137;3HG1 D V 143;7.77984
3HG1 D F 137;3HG1 D K 156;16.0821
3HG1 D F 137;3HG1 D N 169;29.6264
3HG1 D F 137;3HG1 D S 170;7.70599
3HG1 D F 137;3HG1 D A 171;4.06982
3HG1 D F 137;3HG1 D N 188;4.1994
3HG1 D D 138;3HG1 D S 139;23.4227
3HG1 D D 138;3HG1 D Q 140;41.7767
3HG1 D D 138;3HG1 D T 141;6.90658
3HG1 D D 138;3HG1 D N 169;2.41475
3HG1 D D 138;3HG1 D N 188;0.985499
3HG1 D S 139;3HG1 D Q 140;21.4618
3HG1 D S 139;3HG1 D T 141;1.70882
3HG1 D S 139;3HG1 D K 156;11.174
3HG1 D S 139;3HG1 D N 169;11.6635
3HG1 D Q 140;3HG1 D T 141;37.9082
3HG1 D T 141;3HG1 D N 142;36.0991
3HG1 D T 141;3HG1 D V 143;4.74488
3HG1 D T 141;3HG1 D K 156;12.5603
3HG1 D T 141;3HG1 D N 187;13.2591
3HG1 D T 141;3HG1 D N 188;17.4863
3HG1 D N 142;3HG1 D V 143;28.8745
3HG1 D N 142;3HG1 D S 144;8.23732
3HG1 D N 142;3HG1 D K 156;19.0321
3HG1 D N 142;3HG1 D N 187;15.0858
3HG1 D V 143;3HG1 D S 144;31.1213
3HG1 D V 143;3HG1 D Q 145;2.87865
3HG1 D V 143;3HG1 D I 153;16.6732
3HG1 D V 143;3HG1 D T 154;6.23493
3HG1 D V 143;3HG1 D D 155;20.3318
3HG1 D V 143;3HG1 D K 156;16.2986
3HG1 D V 143;3HG1 D A 171;14.648
3HG1 D V 143;3HG1 D A 185;1.18847
3HG1 D V 143;3HG1 D N 187;0.0177815
3HG1 D S 144;3HG1 D Q 145;35.2979
3HG1 D S 144;3HG1 D I 153;13.2731
3HG1 D S 144;3HG1 D A 185;5.46876
3HG1 D S 144;3HG1 D F 186;23.6848
3HG1 D S 144;3HG1 D N 187;9.16145
3HG1 D Q 145;3HG1 D S 146;36.8973
3HG1 D Q 145;3HG1 D I 153;9.35428
3HG1 D Q 145;3HG1 D F 186;12.7122
3HG1 D S 146;3HG1 D K 147;34.9631
3HG1 D S 146;3HG1 D S 149;13.9613
3HG1 D S 146;3HG1 D V 151;24.3416
3HG1 D S 146;3HG1 D Y 152;0.679483
3HG1 D S 146;3HG1 D I 153;21.5673
3HG1 D S 146;3HG1 D F 186;5.13253
3HG1 D K 147;3HG1 D D 148;54.6126
3HG1 D K 147;3HG1 D S 149;8.87747
3HG1 D K 147;3HG1 D V 151;8.6353
3HG1 D K 147;3HG1 D F 186;5.51638
3HG1 D D 148;3HG1 D S 149;17.4594
3HG1 D D 148;3HG1 D D 150;21.4781
3HG1 D D 148;3HG1 D V 151;5.78008
3HG1 D D 148;3HG1 D K 177;9.18094
3HG1 D S 149;3HG1 D D 150;18.5558
3HG1 D S 149;3HG1 D V 151;14.3326
3HG1 D S 149;3HG1 D Y 152;17.9333
3HG1 D S 149;3HG1 E E 179;3.11714
3HG1 D S 149;3HG1 E Q 180;4.9598
3HG1 D S 149;3HG1 E P 181;15.3591
3HG1 D D 150;3HG1 D V 151;16.8001
3HG1 D D 150;3HG1 D Y 152;13.0375
3HG1 D D 150;3HG1 D S 175;9.68825
3HG1 D D 150;3HG1 D N 176;12.4339
3HG1 D D 150;3HG1 D K 177;31.6208
3HG1 D V 151;3HG1 D Y 152;30.4158
3HG1 D V 151;3HG1 D I 153;2.64971
3HG1 D V 151;3HG1 D A 173;4.61821
3HG1 D V 151;3HG1 D W 174;6.73311
3HG1 D V 151;3HG1 D S 175;13.1694
3HG1 D V 151;3HG1 D K 177;10.3673
3HG1 D V 151;3HG1 D F 180;12.7391
3HG1 D V 151;3HG1 D N 184;10.3757
3HG1 D Y 152;3HG1 D I 153;23.2303
3HG1 D Y 152;3HG1 D V 172;0.0877252
3HG1 D Y 152;3HG1 D A 173;5.71886
3HG1 D Y 152;3HG1 D W 174;49.6774
3HG1 D Y 152;3HG1 D S 175;5.04705
3HG1 D Y 152;3HG1 D N 176;6.75807
3HG1 D Y 152;3HG1 E L 177;15.8537
3HG1 D Y 152;3HG1 E K 178;3.3072
3HG1 D Y 152;3HG1 E E 179;35.5339
3HG1 D Y 152;3HG1 E A 189;0.248605
3HG1 D I 153;3HG1 D T 154;27.625
3HG1 D I 153;3HG1 D D 155;0.936232
3HG1 D I 153;3HG1 D A 171;4.2509
3HG1 D I 153;3HG1 D V 172;8.03855
3HG1 D I 153;3HG1 D A 173;16.6032
3HG1 D I 153;3HG1 D W 174;1.04301
3HG1 D I 153;3HG1 D A 185;18.9935
3HG1 D I 153;3HG1 E L 177;15.5136
3HG1 D T 154;3HG1 D D 155;32.4384
3HG1 D T 154;3HG1 D A 171;7.28314
3HG1 D T 154;3HG1 D V 172;20.3674
3HG1 D T 154;3HG1 D W 174;14.0049
3HG1 D T 154;3HG1 E D 173;17.6012
3HG1 D T 154;3HG1 E L 177;16.4632
3HG1 D T 154;3HG1 E A 189;0.0732029
3HG1 D T 154;3HG1 E L 190;3.01007
3HG1 D T 154;3HG1 E S 191;7.98542
3HG1 D T 154;3HG1 E R 193;5.43097
3HG1 D D 155;3HG1 D K 156;42.3348
3HG1 D D 155;3HG1 D C 157;2.98769
3HG1 D D 155;3HG1 D S 170;1.01456
3HG1 D D 155;3HG1 D A 171;3.49359
3HG1 D D 155;3HG1 E D 173;5.1267
3HG1 D D 155;3HG1 E P 174;15.8912
3HG1 D D 155;3HG1 E R 193;3.44712
3HG1 D K 156;3HG1 D C 157;24.0611
3HG1 D K 156;3HG1 D V 158;6.84443
3HG1 D K 156;3HG1 D N 169;10.7044
3HG1 D K 156;3HG1 D S 170;7.22111
3HG1 D K 156;3HG1 D A 171;4.36674
3HG1 D K 156;3HG1 E P 174;6.77276
3HG1 D C 157;3HG1 D V 158;20.1211
3HG1 D C 157;3HG1 D L 159;3.95195
3HG1 D C 157;3HG1 D S 168;2.14627
3HG1 D C 157;3HG1 D N 169;4.08919
3HG1 D C 157;3HG1 D S 170;20.8239
3HG1 D C 157;3HG1 E C 171;25.801
3HG1 D C 157;3HG1 E T 172;13.3579
3HG1 D C 157;3HG1 E D 173;9.16297
3HG1 D C 157;3HG1 E P 174;4.83197
3HG1 D C 157;3HG1 E R 193;15.4285
3HG1 D V 158;3HG1 D L 159;23.7172
3HG1 D V 158;3HG1 D D 160;6.97953
3HG1 D V 158;3HG1 D K 167;11.662
3HG1 D V 158;3HG1 D S 168;9.39416
3HG1 D V 158;3HG1 D N 169;16.7722
3HG1 D V 158;3HG1 E V 170;0.822603
3HG1 D V 158;3HG1 E C 171;14.7963
3HG1 D L 159;3HG1 D D 160;19.0438
3HG1 D L 159;3HG1 D M 161;14.9186
3HG1 D L 159;3HG1 D R 162;7.43578
3HG1 D L 159;3HG1 D F 166;2.13967
3HG1 D L 159;3HG1 D K 167;5.03696
3HG1 D L 159;3HG1 D S 168;29.2558
3HG1 D L 159;3HG1 D S 170;9.85642
3HG1 D L 159;3HG1 E T 142;2.78696
3HG1 D L 159;3HG1 E G 169;11.2195
3HG1 D L 159;3HG1 E V 170;9.01886
3HG1 D L 159;3HG1 E C 171;14.2387
3HG1 D L 159;3HG1 E R 193;11.3499
3HG1 D L 159;3HG1 E R 195;20.0224
3HG1 D D 160;3HG1 D M 161;32.233
3HG1 D D 160;3HG1 D R 162;7.05371
3HG1 D D 160;3HG1 D K 167;0.055262
3HG1 D D 160;3HG1 E H 167;12.6422
3HG1 D D 160;3HG1 E S 168;7.15133
3HG1 D D 160;3HG1 E G 169;13.5372
3HG1 D D 160;3HG1 E V 170;15.7748
3HG1 D M 161;3HG1 D R 162;43.4363
3HG1 D M 161;3HG1 D D 165;1.5435
3HG1 D M 161;3HG1 D F 166;18.9969
3HG1 D M 161;3HG1 D K 167;34.9994
3HG1 D M 161;3HG1 E G 169;3.52246
3HG1 D R 162;3HG1 D S 163;27.747
3HG1 D R 162;3HG1 D M 164;41.9156
3HG1 D R 162;3HG1 D D 165;12.3673
3HG1 D R 162;3HG1 D F 166;22.9009
3HG1 D R 162;3HG1 D S 168;0.550976
3HG1 D R 162;3HG1 E K 140;15.4598
3HG1 D R 162;3HG1 E S 168;16.5168
3HG1 D R 162;3HG1 E G 169;10.5587
3HG1 D R 162;3HG1 E R 195;24.3642
3HG1 D R 162;3HG1 E V 196;4.01573
3HG1 D R 162;3HG1 E S 197;2.17603
3HG1 D S 163;3HG1 D M 164;26.3122
3HG1 D S 163;3HG1 D D 165;13.3237
3HG1 D S 163;3HG1 E S 168;3.38247
3HG1 D M 164;3HG1 D D 165;26.4039
3HG1 D M 164;3HG1 D F 166;6.39919
3HG1 D M 164;3HG1 E G 169;0.191589
3HG1 D M 164;3HG1 E R 195;2.77703
3HG1 D M 164;3HG1 E V 196;5.24319
3HG1 D M 164;3HG1 E S 197;23.6436
3HG1 D D 165;3HG1 D F 166;33.9526
3HG1 D D 165;3HG1 D K 167;2.38701
3HG1 D F 166;3HG1 D K 167;32.7007
3HG1 D F 166;3HG1 D S 168;14.9891
3HG1 D F 166;3HG1 E K 140;31.0544
3HG1 D F 166;3HG1 E R 195;4.1318
3HG1 D K 167;3HG1 D S 168;21.3014
3HG1 D S 168;3HG1 D N 169;22.6197
3HG1 D S 168;3HG1 D S 170;3.9067
3HG1 D S 168;3HG1 E R 195;9.68038
3HG1 D N 169;3HG1 D S 170;19.6082
3HG1 D S 170;3HG1 D A 171;18.1442
3HG1 D S 170;3HG1 D V 172;0.152889
3HG1 D S 170;3HG1 E T 142;2.50251
3HG1 D S 170;3HG1 E C 171;0.0106499
3HG1 D S 170;3HG1 E R 193;20.0914
3HG1 D A 171;3HG1 D V 172;24.4976
3HG1 D A 171;3HG1 E R 193;4.3279
3HG1 D V 172;3HG1 D A 173;20.4788
3HG1 D V 172;3HG1 D W 174;14.1963
3HG1 D V 172;3HG1 E V 144;17.7136
3HG1 D V 172;3HG1 E L 146;2.82738
3HG1 D V 172;3HG1 E S 191;10.7805
3HG1 D V 172;3HG1 E R 193;16.6547
3HG1 D A 173;3HG1 D W 174;19.8883
3HG1 D A 173;3HG1 D F 180;9.87949
3HG1 D A 173;3HG1 D N 184;6.84528
3HG1 D A 173;3HG1 D A 185;6.2591
3HG1 D W 174;3HG1 D S 175;29.2656
3HG1 D W 174;3HG1 D N 176;0.235461
3HG1 D W 174;3HG1 D F 180;9.96315
3HG1 D W 174;3HG1 E L 146;29.9803
3HG1 D W 174;3HG1 E T 148;8.4866
3HG1 D W 174;3HG1 E L 177;7.71702
3HG1 D W 174;3HG1 E E 179;0.156471
3HG1 D W 174;3HG1 E A 189;14.5889
3HG1 D W 174;3HG1 E L 190;2.67913
3HG1 D W 174;3HG1 E S 191;3.57126
3HG1 D S 175;3HG1 D N 176;28.1682
3HG1 D S 175;3HG1 D K 177;21.2694
3HG1 D S 175;3HG1 D F 180;22.4776
3HG1 D N 176;3HG1 D K 177;34.1249
3HG1 D K 177;3HG1 D S 178;28.3089
3HG1 D K 177;3HG1 D D 179;31.7041
3HG1 D K 177;3HG1 D F 180;18.237
3HG1 D S 178;3HG1 D D 179;34.7854
3HG1 D D 179;3HG1 D F 180;40.0055
3HG1 D D 179;3HG1 D A 181;10.9976
3HG1 D F 180;3HG1 D A 181;35.2862
3HG1 D F 180;3HG1 D C 182;5.19744
3HG1 D F 180;3HG1 D N 184;17.3227
3HG1 D A 181;3HG1 D C 182;38.787
3HG1 D A 181;3HG1 D A 183;0.65086
3HG1 D C 182;3HG1 D A 183;36.2363
3HG1 D C 182;3HG1 D N 184;4.09999
3HG1 D C 182;3HG1 D E 193;10.7774
3HG1 D A 183;3HG1 D N 184;39.8813
3HG1 D A 183;3HG1 D E 193;9.95307
3HG1 D N 184;3HG1 D A 185;34.5041
3HG1 D N 184;3HG1 D F 186;26.4254
3HG1 D A 185;3HG1 D F 186;28.9393
3HG1 D A 185;3HG1 D N 187;10.2091
3HG1 D F 186;3HG1 D N 187;33.5097
3HG1 D N 187;3HG1 D N 188;44.8319
3HG1 D N 187;3HG1 D I 191;0.621915
3HG1 D N 188;3HG1 D S 189;35.307
3HG1 D N 188;3HG1 D I 190;6.61151
3HG1 D N 188;3HG1 D I 191;23.0566
3HG1 D S 189;3HG1 D I 190;34.4899
3HG1 D S 189;3HG1 D I 191;14.199
3HG1 D I 190;3HG1 D I 191;26.0876
3HG1 D I 190;3HG1 D P 192;2.7006
3HG1 D I 191;3HG1 D P 192;24.4969
3HG1 D I 191;3HG1 D E 193;23.2875
3HG1 D P 192;3HG1 D E 193;27.5604
3HG1 D P 192;3HG1 D D 194;12.3421
3HG1 D P 192;3HG1 E A 133;0.296606
3HG1 D P 192;3HG1 E H 137;21.1895
3HG1 D E 193;3HG1 D D 194;46.2273
3HG1 D D 194;3HG1 D T 195;43.7468
3HG1 D D 194;3HG1 E S 131;2.47664
3HG1 D D 194;3HG1 E E 132;12.5476
3HG1 D D 194;3HG1 E A 133;20.2157
3HG1 D T 195;3HG1 E E 132;15.1542
3HG1 E S 1;3HG1 E Q 2;28.62
3HG1 E S 1;3HG1 E T 3;12.6219
3HG1 E S 1;3HG1 E I 4;23.4124
3HG1 E S 1;3HG1 E H 5;13.9355
3HG1 E S 1;3HG1 E F 104;0.0332265
3HG1 E S 1;3HG1 E F 105;6.76918
3HG1 E S 1;3HG1 E G 106;6.01336
3HG1 E S 1;3HG1 E E 107;22.0545
3HG1 E Q 2;3HG1 E T 3;29.7128
3HG1 E Q 2;3HG1 E H 5;4.52451
3HG1 E Q 2;3HG1 E E 26;3.30833
3HG1 E Q 2;3HG1 E G 27;0.231408
3HG1 E T 3;3HG1 E I 4;24.5608
3HG1 E T 3;3HG1 E H 5;5.50453
3HG1 E T 3;3HG1 E V 25;12.0038
3HG1 E T 3;3HG1 E E 26;24.5581
3HG1 E T 3;3HG1 E G 27;4.46063
3HG1 E T 3;3HG1 E T 28;3.7775
3HG1 E T 3;3HG1 E W 93;20.2023
3HG1 E T 3;3HG1 E F 104;10.9938
3HG1 E I 4;3HG1 E H 5;27.4471
3HG1 E I 4;3HG1 E Q 6;1.08363
3HG1 E I 4;3HG1 E C 23;12.9538
3HG1 E I 4;3HG1 E T 24;8.22843
3HG1 E I 4;3HG1 E V 25;12.2936
3HG1 E I 4;3HG1 E L 33;1.17311
3HG1 E I 4;3HG1 E C 91;11.272
3HG1 E I 4;3HG1 E A 92;4.37569
3HG1 E I 4;3HG1 E W 93;14.1932
3HG1 E I 4;3HG1 E F 104;9.16606
3HG1 E I 4;3HG1 E F 105;10.8324
3HG1 E I 4;3HG1 E G 106;14.4727
3HG1 E I 4;3HG1 E E 107;3.74219
3HG1 E H 5;3HG1 E Q 6;23.1483
3HG1 E H 5;3HG1 E W 7;15.2062
3HG1 E H 5;3HG1 E E 22;0.194754
3HG1 E H 5;3HG1 E C 23;7.57082
3HG1 E H 5;3HG1 E T 24;30.29
3HG1 E H 5;3HG1 E V 25;0.551834
3HG1 E H 5;3HG1 E E 26;13.6121
3HG1 E H 5;3HG1 E G 106;1.4575
3HG1 E H 5;3HG1 E E 107;14.5568
3HG1 E Q 6;3HG1 E W 7;30.1895
3HG1 E Q 6;3HG1 E P 8;1.00753
3HG1 E Q 6;3HG1 E A 9;5.69895
3HG1 E Q 6;3HG1 E L 21;1.55284
3HG1 E Q 6;3HG1 E E 22;8.36308
3HG1 E Q 6;3HG1 E C 23;5.07498
3HG1 E Q 6;3HG1 E W 35;12.8707
3HG1 E Q 6;3HG1 E Y 89;7.46551
3HG1 E Q 6;3HG1 E L 90;5.27747
3HG1 E Q 6;3HG1 E C 91;17.5603
3HG1 E Q 6;3HG1 E G 106;10.5041
3HG1 E Q 6;3HG1 E E 107;24.9979
3HG1 E Q 6;3HG1 E G 108;18.3736
3HG1 E Q 6;3HG1 E S 109;15.2456
3HG1 E W 7;3HG1 E P 8;40.002
3HG1 E W 7;3HG1 E A 9;2.56854
3HG1 E W 7;3HG1 E L 21;3.66253
3HG1 E W 7;3HG1 E E 22;57.901
3HG1 E W 7;3HG1 E C 23;1.16627
3HG1 E W 7;3HG1 E T 24;19.1226
3HG1 E W 7;3HG1 E S 109;4.16941
3HG1 E P 8;3HG1 E A 9;24.6745
3HG1 E P 8;3HG1 E T 10;7.08464
3HG1 E P 8;3HG1 E L 11;29.4306
3HG1 E P 8;3HG1 E S 20;9.68282
3HG1 E P 8;3HG1 E L 21;9.57401
3HG1 E P 8;3HG1 E E 22;0.119089
3HG1 E P 8;3HG1 E G 108;0.380913
3HG1 E P 8;3HG1 E S 109;13.3522
3HG1 E A 9;3HG1 E T 10;33.205
3HG1 E A 9;3HG1 E L 11;0.235781
3HG1 E A 9;3HG1 E F 88;0.206237
3HG1 E A 9;3HG1 E E 107;6.94845
3HG1 E A 9;3HG1 E G 108;9.90419
3HG1 E A 9;3HG1 E S 109;6.12811
3HG1 E A 9;3HG1 E R 110;12.9529
3HG1 E A 9;3HG1 E Y 215;5.03428
3HG1 E T 10;3HG1 E L 11;34.8708
3HG1 E T 10;3HG1 E V 12;9.286
3HG1 E T 10;3HG1 E R 110;21.083
3HG1 E T 10;3HG1 E H 154;1.07756
3HG1 E T 10;3HG1 E E 156;2.87583
3HG1 E T 10;3HG1 E Y 215;41.9539
3HG1 E L 11;3HG1 E V 12;26.242
3HG1 E L 11;3HG1 E Q 13;14.3171
3HG1 E L 11;3HG1 E L 19;9.52926
3HG1 E L 11;3HG1 E S 20;1.64665
3HG1 E L 11;3HG1 E L 21;11.6783
3HG1 E L 11;3HG1 E S 109;5.14237
3HG1 E L 11;3HG1 E R 110;13.5912
3HG1 E L 11;3HG1 E L 111;23.7007
3HG1 E L 11;3HG1 E T 112;9.83281
3HG1 E V 12;3HG1 E Q 13;25.4805
3HG1 E V 12;3HG1 E P 14;0.330196
3HG1 E V 12;3HG1 E T 112;15.7814
3HG1 E V 12;3HG1 E L 114;12.7986
3HG1 E V 12;3HG1 E L 117;4.82069
3HG1 E V 12;3HG1 E V 120;3.72191
3HG1 E V 12;3HG1 E P 152;17.8288
3HG1 E V 12;3HG1 E Y 215;10.4558
3HG1 E V 12;3HG1 E G 216;22.6223
3HG1 E V 12;3HG1 E L 217;13.9891
3HG1 E V 12;3HG1 E S 218;1.53352
3HG1 E V 12;3HG1 E D 221;4.75994
3HG1 E Q 13;3HG1 E P 14;32.4263
3HG1 E Q 13;3HG1 E V 15;0.122049
3HG1 E Q 13;3HG1 E S 17;18.0618
3HG1 E Q 13;3HG1 E P 18;16.3619
3HG1 E Q 13;3HG1 E L 19;7.38663
3HG1 E Q 13;3HG1 E L 81;15.5597
3HG1 E Q 13;3HG1 E L 111;10.8097
3HG1 E Q 13;3HG1 E T 112;7.85428
3HG1 E Q 13;3HG1 E V 113;7.9886
3HG1 E Q 13;3HG1 E L 114;8.9155
3HG1 E Q 13;3HG1 E L 117;4.06579
3HG1 E Q 13;3HG1 E D 221;0.134238
3HG1 E P 14;3HG1 E V 15;27.5107
3HG1 E P 14;3HG1 E G 16;0.218534
3HG1 E P 14;3HG1 E S 17;24.0551
3HG1 E P 14;3HG1 E L 81;3.36762
3HG1 E P 14;3HG1 E V 113;1.72516
3HG1 E P 14;3HG1 E L 114;7.06849
3HG1 E P 14;3HG1 E E 115;3.20656
3HG1 E P 14;3HG1 E D 116;0.0173361
3HG1 E P 14;3HG1 E L 117;27.3249
3HG1 E P 14;3HG1 E D 221;15.3858
3HG1 E V 15;3HG1 E G 16;27.9762
3HG1 E V 15;3HG1 E S 17;2.97281
3HG1 E V 15;3HG1 E L 81;8.41502
3HG1 E V 15;3HG1 E L 82;7.23249
3HG1 E V 15;3HG1 E L 83;18.7211
3HG1 E V 15;3HG1 E V 113;12.7086
3HG1 E V 15;3HG1 E L 114;10.4488
3HG1 E V 15;3HG1 E E 115;17.9593
3HG1 E G 16;3HG1 E S 17;21.9392
3HG1 E G 16;3HG1 E P 18;4.05346
3HG1 E G 16;3HG1 E K 79;0.205511
3HG1 E G 16;3HG1 E K 80;28.2531
3HG1 E G 16;3HG1 E L 81;11.5239
3HG1 E S 17;3HG1 E P 18;30.652
3HG1 E S 17;3HG1 E L 19;0.159856
3HG1 E S 17;3HG1 E S 78;0.0183208
3HG1 E S 17;3HG1 E K 80;5.35902
3HG1 E S 17;3HG1 E L 81;19.0085
3HG1 E P 18;3HG1 E L 19;24.5691
3HG1 E P 18;3HG1 E S 20;0.216451
3HG1 E P 18;3HG1 E S 78;8.52432
3HG1 E P 18;3HG1 E K 79;13.7078
3HG1 E P 18;3HG1 E K 80;2.08393
3HG1 E P 18;3HG1 E L 81;2.43007
3HG1 E L 19;3HG1 E S 20;32.6257
3HG1 E L 19;3HG1 E L 21;20.9079
3HG1 E L 19;3HG1 E L 64;9.01255
3HG1 E L 19;3HG1 E L 76;6.66181
3HG1 E L 19;3HG1 E S 77;15.6558
3HG1 E L 19;3HG1 E S 78;24.6073
3HG1 E L 19;3HG1 E L 81;21.1913
3HG1 E L 19;3HG1 E D 85;0.250221
3HG1 E L 19;3HG1 E Y 89;5.48945
3HG1 E L 19;3HG1 E L 111;14.8989
3HG1 E S 20;3HG1 E L 21;25.7275
3HG1 E S 20;3HG1 E E 22;2.15958
3HG1 E S 20;3HG1 E I 75;10.6574
3HG1 E S 20;3HG1 E L 76;3.51715
3HG1 E S 20;3HG1 E S 77;8.05616
3HG1 E L 21;3HG1 E E 22;23.8129
3HG1 E L 21;3HG1 E W 35;15.7989
3HG1 E L 21;3HG1 E F 74;0.0473961
3HG1 E L 21;3HG1 E I 75;10.8988
3HG1 E L 21;3HG1 E L 76;29.9415
3HG1 E L 21;3HG1 E Y 89;16.2685
3HG1 E L 21;3HG1 E S 109;16.5106
3HG1 E L 21;3HG1 E L 111;2.41355
3HG1 E E 22;3HG1 E C 23;24.9182
3HG1 E E 22;3HG1 E T 24;7.24865
3HG1 E E 22;3HG1 E W 35;4.49767
3HG1 E E 22;3HG1 E Q 73;22.4697
3HG1 E E 22;3HG1 E F 74;3.81609
3HG1 E E 22;3HG1 E I 75;15.598
3HG1 E C 23;3HG1 E T 24;24.2075
3HG1 E C 23;3HG1 E V 25;1.4477
3HG1 E C 23;3HG1 E L 33;2.04283
3HG1 E C 23;3HG1 E W 35;9.00134
3HG1 E C 23;3HG1 E R 72;2.7495
3HG1 E C 23;3HG1 E Q 73;5.17806
3HG1 E C 23;3HG1 E F 74;26.5245
3HG1 E C 23;3HG1 E C 91;20.0057
3HG1 E T 24;3HG1 E V 25;25.1643
3HG1 E T 24;3HG1 E E 26;14.3955
3HG1 E T 24;3HG1 E R 72;11.1962
3HG1 E T 24;3HG1 E Q 73;3.42518
3HG1 E V 25;3HG1 E E 26;24.7945
3HG1 E V 25;3HG1 E T 28;9.42576
3HG1 E V 25;3HG1 E P 31;9.69311
3HG1 E V 25;3HG1 E L 33;12.3722
3HG1 E V 25;3HG1 E D 71;0.642572
3HG1 E V 25;3HG1 E R 72;36.485
3HG1 E V 25;3HG1 E W 93;16.9534
3HG1 E E 26;3HG1 E G 27;26.2216
3HG1 E E 26;3HG1 E T 28;2.47887
3HG1 E E 26;3HG1 E R 72;31.6407
3HG1 E G 27;3HG1 E T 28;37.9647
3HG1 E G 27;3HG1 E R 72;7.90538
3HG1 E T 28;3HG1 E S 29;34.6822
3HG1 E T 28;3HG1 E P 31;12.6981
3HG1 E T 28;3HG1 E R 72;17.6735
3HG1 E T 28;3HG1 E W 93;24.8103
3HG1 E T 28;3HG1 E E 95;11.9714
3HG1 E T 28;3HG1 E T 96;0.222769
3HG1 E S 29;3HG1 E N 30;30.0276
3HG1 E S 29;3HG1 E P 31;10.8065
3HG1 E S 29;3HG1 E D 71;10.1652
3HG1 E S 29;3HG1 E R 72;1.93857
3HG1 E S 29;3HG1 E T 96;13.5543
3HG1 E N 30;3HG1 E P 31;21.8202
3HG1 E N 30;3HG1 E N 32;0.0825411
3HG1 E N 30;3HG1 E V 51;4.2042
3HG1 E N 30;3HG1 E G 52;4.10566
3HG1 E N 30;3HG1 E I 53;0.0201274
3HG1 E N 30;3HG1 E R 68;2.58304
3HG1 E N 30;3HG1 E D 71;21.0852
3HG1 E N 30;3HG1 E T 96;18.6577
3HG1 E P 31;3HG1 E N 32;19.7288
3HG1 E P 31;3HG1 E L 33;13.3795
3HG1 E P 31;3HG1 E S 50;0.196745
3HG1 E P 31;3HG1 E V 51;5.10783
3HG1 E P 31;3HG1 E G 52;0.376566
3HG1 E P 31;3HG1 E R 68;16.843
3HG1 E P 31;3HG1 E D 71;8.9581
3HG1 E P 31;3HG1 E R 72;3.97762
3HG1 E P 31;3HG1 E W 93;12.9082
3HG1 E P 31;3HG1 E S 94;3.76642
3HG1 E P 31;3HG1 E E 95;1.59888
3HG1 E P 31;3HG1 E T 96;8.69501
3HG1 E N 32;3HG1 E L 33;18.8355
3HG1 E N 32;3HG1 E Y 34;19.2205
3HG1 E N 32;3HG1 E Y 49;14.4003
3HG1 E N 32;3HG1 E S 50;6.25244
3HG1 E N 32;3HG1 E V 51;13.7886
3HG1 E N 32;3HG1 E R 68;0.0554854
3HG1 E N 32;3HG1 E A 92;0.266779
3HG1 E N 32;3HG1 E W 93;7.47122
3HG1 E N 32;3HG1 E S 94;25.3349
3HG1 E N 32;3HG1 E E 95;6.32877
3HG1 E N 32;3HG1 E T 96;5.23909
3HG1 E N 32;3HG1 E G 97;19.2215
3HG1 E N 32;3HG1 E L 98;1.75186
3HG1 E L 33;3HG1 E Y 34;23.1531
3HG1 E L 33;3HG1 E Y 49;7.16564
3HG1 E L 33;3HG1 E S 50;17.4435
3HG1 E L 33;3HG1 E R 68;23.0844
3HG1 E L 33;3HG1 E Q 70;0.131984
3HG1 E L 33;3HG1 E D 71;3.46181
3HG1 E L 33;3HG1 E R 72;4.92109
3HG1 E L 33;3HG1 E Q 73;2.04365
3HG1 E L 33;3HG1 E F 74;30.7456
3HG1 E L 33;3HG1 E C 91;5.08106
3HG1 E L 33;3HG1 E A 92;5.88071
3HG1 E L 33;3HG1 E W 93;10.4793
3HG1 E Y 34;3HG1 E W 35;18.1407
3HG1 E Y 34;3HG1 E Y 36;20.8273
3HG1 E Y 34;3HG1 E L 46;12.8901
3HG1 E Y 34;3HG1 E F 48;5.27638
3HG1 E Y 34;3HG1 E Y 49;25.7943
3HG1 E Y 34;3HG1 E F 74;9.37408
3HG1 E Y 34;3HG1 E L 90;1.75076
3HG1 E Y 34;3HG1 E C 91;8.42922
3HG1 E Y 34;3HG1 E A 92;23.0738
3HG1 E Y 34;3HG1 E W 93;2.9206
3HG1 E Y 34;3HG1 E S 94;16.6008
3HG1 E Y 34;3HG1 E L 98;2.42462
3HG1 E Y 34;3HG1 E L 103;12.7252
3HG1 E W 35;3HG1 E Y 36;23.4576
3HG1 E W 35;3HG1 E Q 45;0.1884
3HG1 E W 35;3HG1 E L 46;6.48264
3HG1 E W 35;3HG1 E L 47;15.3018
3HG1 E W 35;3HG1 E F 48;23.0404
3HG1 E W 35;3HG1 E A 66;6.02594
3HG1 E W 35;3HG1 E F 74;28.7482
3HG1 E W 35;3HG1 E I 75;10.6083
3HG1 E W 35;3HG1 E L 76;31.2829
3HG1 E W 35;3HG1 E Y 89;7.04536
3HG1 E W 35;3HG1 E L 90;8.17804
3HG1 E W 35;3HG1 E C 91;14.5489
3HG1 E Y 36;3HG1 E R 37;18.4355
3HG1 E Y 36;3HG1 E L 44;22.2758
3HG1 E Y 36;3HG1 E Q 45;11.7295
3HG1 E Y 36;3HG1 E L 46;27.5245
3HG1 E Y 36;3HG1 E L 47;3.73209
3HG1 E Y 36;3HG1 E L 76;0.0231238
3HG1 E Y 36;3HG1 E Y 89;7.13261
3HG1 E Y 36;3HG1 E L 90;24.1321
3HG1 E Y 36;3HG1 E A 92;4.07151
3HG1 E Y 36;3HG1 E L 103;14.2172
3HG1 E Y 36;3HG1 E F 105;8.72264
3HG1 E R 37;3HG1 E Q 38;22.5311
3HG1 E R 37;3HG1 E A 39;20.7822
3HG1 E R 37;3HG1 E G 43;3.30569
3HG1 E R 37;3HG1 E L 44;8.74907
3HG1 E R 37;3HG1 E Q 45;34.5507
3HG1 E R 37;3HG1 E L 47;25.0238
3HG1 E R 37;3HG1 E L 64;5.51493
3HG1 E R 37;3HG1 E S 84;14.4799
3HG1 E R 37;3HG1 E D 85;10.668
3HG1 E R 37;3HG1 E S 86;7.74633
3HG1 E R 37;3HG1 E G 87;5.50031
3HG1 E R 37;3HG1 E F 88;6.21767
3HG1 E R 37;3HG1 E Y 89;26.7567
3HG1 E R 37;3HG1 E L 90;1.24536
3HG1 E Q 38;3HG1 E A 39;25.2939
3HG1 E Q 38;3HG1 E G 41;7.37759
3HG1 E Q 38;3HG1 E R 42;24.3057
3HG1 E Q 38;3HG1 E G 43;13.5157
3HG1 E Q 38;3HG1 E L 44;13.7695
3HG1 E Q 38;3HG1 E G 87;4.48788
3HG1 E Q 38;3HG1 E F 88;40.4839
3HG1 E Q 38;3HG1 E L 90;7.77123
3HG1 E Q 38;3HG1 E R 110;2.40288
3HG1 E A 39;3HG1 E A 40;37.4272
3HG1 E A 39;3HG1 E G 41;9.81317
3HG1 E A 39;3HG1 E R 42;4.42012
3HG1 E A 39;3HG1 E G 43;3.18676
3HG1 E A 39;3HG1 E Q 45;1.63462
3HG1 E A 39;3HG1 E S 84;0.0602177
3HG1 E A 39;3HG1 E S 86;6.46537
3HG1 E A 39;3HG1 E G 87;9.26003
3HG1 E A 40;3HG1 E G 41;35.4192
3HG1 E A 40;3HG1 E R 42;2.23095
3HG1 E G 41;3HG1 E R 42;38.0821
3HG1 E R 42;3HG1 E G 43;27.0557
3HG1 E R 42;3HG1 E R 110;3.54295
3HG1 E G 43;3HG1 E L 44;28.9484
3HG1 E G 43;3HG1 E Q 45;1.63063
3HG1 E L 44;3HG1 E Q 45;24.7566
3HG1 E L 44;3HG1 E L 46;0.00138119
3HG1 E L 44;3HG1 E F 88;1.96882e-05
3HG1 E L 44;3HG1 E L 90;15.0734
3HG1 E L 44;3HG1 E F 105;8.90022
3HG1 E Q 45;3HG1 E L 46;27.058
3HG1 E Q 45;3HG1 E L 47;18.6934
3HG1 E Q 45;3HG1 E V 60;18.3835
3HG1 E L 46;3HG1 E L 47;19.773
3HG1 E L 46;3HG1 E F 48;10.9133
3HG1 E L 46;3HG1 E Y 49;8.9993
3HG1 E L 46;3HG1 E E 59;29.1779
3HG1 E L 46;3HG1 E V 60;6.76931
3HG1 E L 47;3HG1 E F 48;29.3232
3HG1 E L 47;3HG1 E S 57;0.0303792
3HG1 E L 47;3HG1 E S 58;3.31114
3HG1 E L 47;3HG1 E E 59;11.4064
3HG1 E L 47;3HG1 E V 60;10.9244
3HG1 E L 47;3HG1 E Q 62;20.6416
3HG1 E L 47;3HG1 E L 64;7.29897
3HG1 E L 47;3HG1 E L 76;5.70974
3HG1 E L 47;3HG1 E Y 89;8.58544
3HG1 E F 48;3HG1 E Y 49;21.2977
3HG1 E F 48;3HG1 E I 56;16.2458
3HG1 E F 48;3HG1 E S 57;5.61681
3HG1 E F 48;3HG1 E S 58;19.3746
3HG1 E F 48;3HG1 E E 59;3.54534
3HG1 E F 48;3HG1 E Q 62;15.8524
3HG1 E F 48;3HG1 E L 64;11.3505
3HG1 E F 48;3HG1 E S 65;7.39546
3HG1 E F 48;3HG1 E A 66;17.6793
3HG1 E F 48;3HG1 E F 74;7.64924
3HG1 E F 48;3HG1 E L 76;10.9264
3HG1 E Y 49;3HG1 E S 50;30.4105
3HG1 E Y 49;3HG1 E V 51;26.7027
3HG1 E Y 49;3HG1 E Q 55;0.282072
3HG1 E Y 49;3HG1 E I 56;6.43855
3HG1 E Y 49;3HG1 E S 57;27.2113
3HG1 E Y 49;3HG1 E E 59;12.799
3HG1 E Y 49;3HG1 E F 74;2.46875
3HG1 E Y 49;3HG1 E G 97;0.00125157
3HG1 E Y 49;3HG1 E L 98;1.4013
3HG1 E S 50;3HG1 E V 51;19.8373
3HG1 E S 50;3HG1 E G 52;7.40774
3HG1 E S 50;3HG1 E Q 55;12.7816
3HG1 E S 50;3HG1 E I 56;7.25358
3HG1 E S 50;3HG1 E R 68;19.037
3HG1 E S 50;3HG1 E F 74;8.76355
3HG1 E V 51;3HG1 E G 52;21.5018
3HG1 E V 51;3HG1 E Q 55;19.2304
3HG1 E V 51;3HG1 E S 57;1.34344
3HG1 E V 51;3HG1 E R 68;2.11554
3HG1 E G 52;3HG1 E I 53;21.6094
3HG1 E G 52;3HG1 E G 54;0.34914
3HG1 E G 52;3HG1 E Q 55;19.7278
3HG1 E G 52;3HG1 E R 68;14.9519
3HG1 E I 53;3HG1 E G 54;24.7397
3HG1 E I 53;3HG1 E Q 55;17.6893
3HG1 E I 53;3HG1 E R 68;17.9458
3HG1 E I 53;3HG1 E P 69;8.33746
3HG1 E I 53;3HG1 E Q 70;12.0283
3HG1 E I 53;3HG1 E D 71;19.2323
3HG1 E G 54;3HG1 E Q 55;22.8683
3HG1 E G 54;3HG1 E I 56;8.42699
3HG1 E G 54;3HG1 E R 68;20.4642
3HG1 E G 54;3HG1 E P 69;0.66497
3HG1 E Q 55;3HG1 E I 56;28.7969
3HG1 E Q 55;3HG1 E R 68;2.37789
3HG1 E I 56;3HG1 E S 57;34.0128
3HG1 E I 56;3HG1 E S 58;3.51419
3HG1 E I 56;3HG1 E A 66;22.9555
3HG1 E I 56;3HG1 E S 67;12.3079
3HG1 E I 56;3HG1 E R 68;10.4694
3HG1 E I 56;3HG1 E F 74;10.9133
3HG1 E S 57;3HG1 E S 58;29.7544
3HG1 E S 57;3HG1 E E 59;16.0636
3HG1 E S 58;3HG1 E E 59;25.4933
3HG1 E S 58;3HG1 E V 60;14.8554
3HG1 E S 58;3HG1 E P 61;0.881925
3HG1 E S 58;3HG1 E Q 62;9.97834
3HG1 E E 59;3HG1 E V 60;32.7693
3HG1 E E 59;3HG1 E Q 62;0.00100368
3HG1 E V 60;3HG1 E P 61;48.0771
3HG1 E V 60;3HG1 E Q 62;20.3518
3HG1 E P 61;3HG1 E Q 62;28.572
3HG1 E Q 62;3HG1 E N 63;32.471
3HG1 E Q 62;3HG1 E L 64;29.7576
3HG1 E Q 62;3HG1 E L 76;0.451317
3HG1 E N 63;3HG1 E L 64;31.6285
3HG1 E N 63;3HG1 E S 65;5.01075
3HG1 E N 63;3HG1 E S 78;14.3298
3HG1 E N 63;3HG1 E K 79;13.0838
3HG1 E N 63;3HG1 E K 80;6.96179
3HG1 E N 63;3HG1 E L 82;23.5944
3HG1 E N 63;3HG1 E D 85;7.45277
3HG1 E L 64;3HG1 E S 65;23.2283
3HG1 E L 64;3HG1 E L 76;16.9965
3HG1 E L 64;3HG1 E S 77;7.13657
3HG1 E L 64;3HG1 E S 78;12.3721
3HG1 E L 64;3HG1 E L 81;1.28576
3HG1 E L 64;3HG1 E D 85;16.7945
3HG1 E L 64;3HG1 E Y 89;15.662
3HG1 E S 65;3HG1 E A 66;26.6
3HG1 E S 65;3HG1 E L 76;9.04609
3HG1 E S 65;3HG1 E S 77;30.4815
3HG1 E S 65;3HG1 E S 78;1.72803
3HG1 E S 65;3HG1 E K 79;10.4262
3HG1 E A 66;3HG1 E S 67;25.0475
3HG1 E A 66;3HG1 E F 74;3.97915
3HG1 E A 66;3HG1 E I 75;8.70001
3HG1 E A 66;3HG1 E L 76;6.0422
3HG1 E A 66;3HG1 E S 77;2.00313
3HG1 E S 67;3HG1 E R 68;18.9816
3HG1 E S 67;3HG1 E P 69;18.7511
3HG1 E S 67;3HG1 E Q 73;0.38829
3HG1 E S 67;3HG1 E F 74;7.30287
3HG1 E S 67;3HG1 E I 75;27.512
3HG1 E R 68;3HG1 E P 69;20.1417
3HG1 E R 68;3HG1 E Q 70;11.9722
3HG1 E R 68;3HG1 E D 71;15.3483
3HG1 E R 68;3HG1 E Q 73;7.24829
3HG1 E R 68;3HG1 E F 74;10.7567
3HG1 E P 69;3HG1 E Q 70;26.0564
3HG1 E P 69;3HG1 E Q 73;20.418
3HG1 E P 69;3HG1 E I 75;14.3819
3HG1 E Q 70;3HG1 E D 71;24.3191
3HG1 E Q 70;3HG1 E R 72;8.57717
3HG1 E Q 70;3HG1 E Q 73;36.8532
3HG1 E D 71;3HG1 E R 72;33.3824
3HG1 E R 72;3HG1 E Q 73;23.7026
3HG1 E R 72;3HG1 E F 74;1.6392
3HG1 E Q 73;3HG1 E F 74;19.5249
3HG1 E Q 73;3HG1 E I 75;19.6461
3HG1 E F 74;3HG1 E I 75;23.5037
3HG1 E F 74;3HG1 E C 91;9.07003
3HG1 E I 75;3HG1 E L 76;21.2334
3HG1 E I 75;3HG1 E S 77;8.63866
3HG1 E L 76;3HG1 E S 77;22.5616
3HG1 E L 76;3HG1 E Y 89;13.1429
3HG1 E S 77;3HG1 E S 78;23.4754
3HG1 E S 78;3HG1 E K 79;27.3193
3HG1 E S 78;3HG1 E K 80;9.11344
3HG1 E S 78;3HG1 E L 81;13.4098
3HG1 E S 78;3HG1 E L 82;0.0602042
3HG1 E S 78;3HG1 E D 85;2.77784
3HG1 E K 79;3HG1 E K 80;33.2769
3HG1 E K 80;3HG1 E L 81;18.7669
3HG1 E K 80;3HG1 E L 82;9.57054
3HG1 E L 81;3HG1 E L 82;22.123
3HG1 E L 81;3HG1 E D 85;16.2931
3HG1 E L 81;3HG1 E L 111;14.1696
3HG1 E L 81;3HG1 E V 113;16.2279
3HG1 E L 82;3HG1 E L 83;19.8172
3HG1 E L 82;3HG1 E S 84;19.2123
3HG1 E L 82;3HG1 E D 85;25.447
3HG1 E L 82;3HG1 E S 86;0.143405
3HG1 E L 82;3HG1 E V 113;8.18704
3HG1 E L 83;3HG1 E S 84;25.9147
3HG1 E L 83;3HG1 E D 85;1.90812
3HG1 E L 83;3HG1 E S 86;14.3099
3HG1 E L 83;3HG1 E V 113;24.0112
3HG1 E L 83;3HG1 E L 114;2.27318
3HG1 E L 83;3HG1 E E 115;23.2677
3HG1 E S 84;3HG1 E D 85;19.5671
3HG1 E S 84;3HG1 E S 86;8.28782
3HG1 E D 85;3HG1 E S 86;18.1745
3HG1 E D 85;3HG1 E G 87;0.237745
3HG1 E D 85;3HG1 E Y 89;17.7747
3HG1 E D 85;3HG1 E L 111;7.90603
3HG1 E D 85;3HG1 E V 113;4.78256
3HG1 E S 86;3HG1 E G 87;22.2067
3HG1 E S 86;3HG1 E Y 89;0.120266
3HG1 E S 86;3HG1 E L 111;10.8225
3HG1 E S 86;3HG1 E T 112;6.79379
3HG1 E S 86;3HG1 E V 113;22.778
3HG1 E G 87;3HG1 E F 88;20.4089
3HG1 E G 87;3HG1 E Y 89;12.4867
3HG1 E G 87;3HG1 E S 109;1.47596
3HG1 E G 87;3HG1 E R 110;2.58359
3HG1 E G 87;3HG1 E L 111;19.044
3HG1 E F 88;3HG1 E Y 89;18.3735
3HG1 E F 88;3HG1 E L 90;23.673
3HG1 E F 88;3HG1 E E 107;8.32965
3HG1 E F 88;3HG1 E G 108;8.52161
3HG1 E F 88;3HG1 E S 109;10.7361
3HG1 E F 88;3HG1 E R 110;48.1515
3HG1 E Y 89;3HG1 E L 90;18.3584
3HG1 E Y 89;3HG1 E G 108;2.79242
3HG1 E Y 89;3HG1 E S 109;22.4583
3HG1 E Y 89;3HG1 E L 111;15.854
3HG1 E L 90;3HG1 E C 91;19.4076
3HG1 E L 90;3HG1 E A 92;1.35606
3HG1 E L 90;3HG1 E F 105;15.8404
3HG1 E L 90;3HG1 E G 106;4.95029
3HG1 E L 90;3HG1 E E 107;0.422671
3HG1 E L 90;3HG1 E G 108;9.92806
3HG1 E C 91;3HG1 E A 92;24.3797
3HG1 E C 91;3HG1 E W 93;0.0032905
3HG1 E C 91;3HG1 E F 104;0.247296
3HG1 E C 91;3HG1 E F 105;7.115
3HG1 E C 91;3HG1 E G 106;7.49807
3HG1 E A 92;3HG1 E W 93;19.7127
3HG1 E A 92;3HG1 E L 103;12.1242
3HG1 E A 92;3HG1 E F 104;9.20902
3HG1 E A 92;3HG1 E F 105;15.1724
3HG1 E W 93;3HG1 E S 94;23.9877
3HG1 E W 93;3HG1 E E 95;21.3654
3HG1 E W 93;3HG1 E E 102;0.236746
3HG1 E W 93;3HG1 E L 103;9.17999
3HG1 E W 93;3HG1 E F 104;49.9055
3HG1 E S 94;3HG1 E E 95;25.0598
3HG1 E S 94;3HG1 E T 96;0.727306
3HG1 E S 94;3HG1 E G 101;7.71857
3HG1 E S 94;3HG1 E E 102;13.4024
3HG1 E S 94;3HG1 E L 103;7.18815
3HG1 E S 94;3HG1 E F 104;2.00259
3HG1 E E 95;3HG1 E T 96;33.3528
3HG1 E E 95;3HG1 E G 97;6.52252
3HG1 E E 95;3HG1 E L 98;0.150794
3HG1 E E 95;3HG1 E G 99;3.24069
3HG1 E E 95;3HG1 E E 102;1.50831
3HG1 E E 95;3HG1 E F 104;8.58118
3HG1 E T 96;3HG1 E G 97;23.7327
3HG1 E G 97;3HG1 E L 98;27.7493
3HG1 E G 97;3HG1 E G 99;0.296191
3HG1 E L 98;3HG1 E G 99;23.8865
3HG1 E G 99;3HG1 E T 100;17.5452
3HG1 E G 99;3HG1 E G 101;13.2026
3HG1 E T 100;3HG1 E G 101;28.8567
3HG1 E T 100;3HG1 E E 102;11.3987
3HG1 E G 101;3HG1 E E 102;27.7019
3HG1 E E 102;3HG1 E L 103;30.2672
3HG1 E E 102;3HG1 E F 104;32.1813
3HG1 E L 103;3HG1 E F 104;25.1665
3HG1 E L 103;3HG1 E F 105;20.9793
3HG1 E F 104;3HG1 E F 105;24.0572
3HG1 E F 105;3HG1 E G 106;20.6937
3HG1 E G 106;3HG1 E E 107;21.1839
3HG1 E G 106;3HG1 E G 108;3.32524
3HG1 E E 107;3HG1 E G 108;24.6875
3HG1 E G 108;3HG1 E S 109;19.068
3HG1 E S 109;3HG1 E R 110;19.1283
3HG1 E S 109;3HG1 E L 111;3.97831
3HG1 E R 110;3HG1 E L 111;21.4873
3HG1 E R 110;3HG1 E T 112;5.21082
3HG1 E R 110;3HG1 E H 154;1.32298
3HG1 E L 111;3HG1 E T 112;26.3293
3HG1 E L 111;3HG1 E V 113;12.552
3HG1 E T 112;3HG1 E V 113;22.1178
3HG1 E T 112;3HG1 E L 114;18.3276
3HG1 E T 112;3HG1 E P 152;16.7973
3HG1 E T 112;3HG1 E D 153;5.7481
3HG1 E V 113;3HG1 E L 114;22.363
3HG1 E L 114;3HG1 E E 115;23.5685
3HG1 E L 114;3HG1 E D 116;9.47093
3HG1 E L 114;3HG1 E L 117;16.8982
3HG1 E L 114;3HG1 E V 120;12.599
3HG1 E L 114;3HG1 E Y 151;23.4925
3HG1 E L 114;3HG1 E P 152;10.8144
3HG1 E L 114;3HG1 E L 217;0.00092323
3HG1 E E 115;3HG1 E D 116;41.6764
3HG1 E E 115;3HG1 E L 117;0.32492
3HG1 E D 116;3HG1 E L 117;24.6502
3HG1 E D 116;3HG1 E K 118;28.4258
3HG1 E D 116;3HG1 E N 119;22.3301
3HG1 E D 116;3HG1 E V 120;0.941358
3HG1 E D 116;3HG1 E Y 151;0.471844
3HG1 E L 117;3HG1 E K 118;18.2922
3HG1 E L 117;3HG1 E N 119;2.42725
3HG1 E L 117;3HG1 E V 120;18.9731
3HG1 E L 117;3HG1 E L 217;22.0943
3HG1 E L 117;3HG1 E D 221;11.7966
3HG1 E L 117;3HG1 E E 222;10.7273
3HG1 E L 117;3HG1 E W 223;16.8911
3HG1 E K 118;3HG1 E N 119;36.0606
3HG1 E K 118;3HG1 E V 120;3.14717
3HG1 E K 118;3HG1 E F 121;19.728
3HG1 E K 118;3HG1 E W 223;8.51024
3HG1 E K 118;3HG1 E Q 225;32.0782
3HG1 E K 118;3HG1 E R 227;8.92314
3HG1 E N 119;3HG1 E V 120;16.3039
3HG1 E N 119;3HG1 E F 121;16.7555
3HG1 E N 119;3HG1 E Y 151;25.5042
3HG1 E N 119;3HG1 E D 185;30.4379
3HG1 E N 119;3HG1 E R 187;3.46607
3HG1 E V 120;3HG1 E F 121;20.5427
3HG1 E V 120;3HG1 E Y 151;13.1174
3HG1 E V 120;3HG1 E P 152;9.86075
3HG1 E V 120;3HG1 E F 214;6.87232
3HG1 E V 120;3HG1 E G 216;4.07075
3HG1 E V 120;3HG1 E L 217;13.654
3HG1 E V 120;3HG1 E W 223;2.23908
3HG1 E V 120;3HG1 E R 227;9.10508
3HG1 E V 120;3HG1 E P 230;19.9304
3HG1 E F 121;3HG1 E P 122;29.4642
3HG1 E F 121;3HG1 E G 149;4.70966
3HG1 E F 121;3HG1 E F 150;6.30718
3HG1 E F 121;3HG1 E Y 151;15.8889
3HG1 E F 121;3HG1 E R 187;43.3597
3HG1 E F 121;3HG1 E F 214;6.74792
3HG1 E F 121;3HG1 E R 227;31.3284
3HG1 E F 121;3HG1 E P 230;2.37851
3HG1 E P 122;3HG1 E P 123;29.5535
3HG1 E P 122;3HG1 E E 124;4.27897
3HG1 E P 122;3HG1 E T 148;1.21329
3HG1 E P 122;3HG1 E G 149;5.28398
3HG1 E P 122;3HG1 E F 150;4.37675
3HG1 E P 122;3HG1 E R 187;4.23461
3HG1 E P 122;3HG1 E F 214;15.1964
3HG1 E P 122;3HG1 E R 227;5.19778
3HG1 E P 122;3HG1 E P 230;14.1055
3HG1 E P 122;3HG1 E Q 233;17.4918
3HG1 E P 122;3HG1 E V 235;5.15532
3HG1 E P 123;3HG1 E E 124;24.0624
3HG1 E P 123;3HG1 E V 125;4.89416
3HG1 E P 123;3HG1 E A 147;7.58937
3HG1 E P 123;3HG1 E T 148;7.53805
3HG1 E P 123;3HG1 E G 149;0.217177
3HG1 E P 123;3HG1 E F 150;17.8172
3HG1 E P 123;3HG1 E V 155;4.69235
3HG1 E P 123;3HG1 E V 212;12.8829
3HG1 E P 123;3HG1 E F 214;16.1145
3HG1 E P 123;3HG1 E V 235;24.4377
3HG1 E E 124;3HG1 E V 125;23.0829
3HG1 E E 124;3HG1 E A 126;5.20937
3HG1 E E 124;3HG1 E L 146;4.79371
3HG1 E E 124;3HG1 E A 147;3.25473
3HG1 E E 124;3HG1 E T 148;33.2761
3HG1 E E 124;3HG1 E G 149;0.397616
3HG1 E E 124;3HG1 E R 187;3.50837
3HG1 E E 124;3HG1 E V 235;3.92826
3HG1 E V 125;3HG1 E A 126;25.7414
3HG1 E V 125;3HG1 E V 127;2.03069
3HG1 E V 125;3HG1 E C 145;9.25973
3HG1 E V 125;3HG1 E L 146;3.81834
3HG1 E V 125;3HG1 E A 147;9.21442
3HG1 E V 125;3HG1 E C 210;7.75322
3HG1 E V 125;3HG1 E Q 211;0.146455
3HG1 E V 125;3HG1 E V 212;13.9299
3HG1 E V 125;3HG1 E V 235;21.5795
3HG1 E V 125;3HG1 E S 236;13.6396
3HG1 E V 125;3HG1 E A 237;16.8339
3HG1 E A 126;3HG1 E V 127;21.3159
3HG1 E A 126;3HG1 E F 128;18.8298
3HG1 E A 126;3HG1 E V 144;0.559985
3HG1 E A 126;3HG1 E C 145;0.600109
3HG1 E A 126;3HG1 E L 146;23.2704
3HG1 E A 126;3HG1 E A 237;4.14838
3HG1 E V 127;3HG1 E F 128;26.781
3HG1 E V 127;3HG1 E L 143;7.35386
3HG1 E V 127;3HG1 E V 144;6.44678
3HG1 E V 127;3HG1 E C 145;10.596
3HG1 E V 127;3HG1 E L 146;0.113109
3HG1 E V 127;3HG1 E W 159;11.1499
3HG1 E V 127;3HG1 E F 208;1.35566
3HG1 E V 127;3HG1 E R 209;1.86189
3HG1 E V 127;3HG1 E C 210;10.1084
3HG1 E V 127;3HG1 E A 237;20.0226
3HG1 E V 127;3HG1 E E 238;14.193
3HG1 E V 127;3HG1 E A 239;8.47051
3HG1 E F 128;3HG1 E E 129;20.7884
3HG1 E F 128;3HG1 E L 143;6.02385
3HG1 E F 128;3HG1 E V 144;26.3238
3HG1 E F 128;3HG1 E L 146;16.8634
3HG1 E F 128;3HG1 E A 239;0.286709
3HG1 E E 129;3HG1 E P 130;31.4678
3HG1 E E 129;3HG1 E L 143;5.60492
3HG1 E E 129;3HG1 E W 201;21.7674
3HG1 E E 129;3HG1 E A 239;7.23695
3HG1 E E 129;3HG1 E W 240;1.58696
3HG1 E E 129;3HG1 E R 242;25.4746
3HG1 E P 130;3HG1 E S 131;23.6871
3HG1 E P 130;3HG1 E E 134;5.67439
3HG1 E P 130;3HG1 E I 135;11.6202
3HG1 E P 130;3HG1 E A 141;9.3054
3HG1 E P 130;3HG1 E T 142;11.2222
3HG1 E P 130;3HG1 E L 143;15.8845
3HG1 E P 130;3HG1 E W 201;24.0147
3HG1 E S 131;3HG1 E E 132;36.342
3HG1 E S 131;3HG1 E A 133;5.15808
3HG1 E S 131;3HG1 E E 134;14.4598
3HG1 E S 131;3HG1 E I 135;15.5263
3HG1 E E 132;3HG1 E A 133;26.0377
3HG1 E E 132;3HG1 E I 135;13.451
3HG1 E E 132;3HG1 E S 136;4.2193
3HG1 E A 133;3HG1 E E 134;15.4642
3HG1 E A 133;3HG1 E I 135;5.08126
3HG1 E A 133;3HG1 E S 136;15.8735
3HG1 E A 133;3HG1 E H 137;13.4873
3HG1 E E 134;3HG1 E I 135;19.1488
3HG1 E E 134;3HG1 E S 136;3.68245
3HG1 E E 134;3HG1 E H 137;5.02431
3HG1 E E 134;3HG1 E T 138;16.2587
3HG1 E E 134;3HG1 E Q 139;3.25642
3HG1 E E 134;3HG1 E K 140;14.2972
3HG1 E E 134;3HG1 E A 141;5.1025
3HG1 E E 134;3HG1 E T 142;20.4137
3HG1 E E 134;3HG1 E R 195;12.387
3HG1 E I 135;3HG1 E S 136;24.3639
3HG1 E I 135;3HG1 E Q 139;6.78502
3HG1 E I 135;3HG1 E K 140;9.63714
3HG1 E I 135;3HG1 E A 141;5.83278
3HG1 E I 135;3HG1 E A 198;16.1303
3HG1 E I 135;3HG1 E W 201;9.49253
3HG1 E I 135;3HG1 E Q 202;20.4694
3HG1 E S 136;3HG1 E H 137;29.3607
3HG1 E S 136;3HG1 E T 138;0.013992
3HG1 E S 136;3HG1 E Q 139;15.2132
3HG1 E H 137;3HG1 E T 138;31.7772
3HG1 E H 137;3HG1 E Q 139;4.45814
3HG1 E T 138;3HG1 E Q 139;26.3608
3HG1 E T 138;3HG1 E K 140;35.6
3HG1 E T 138;3HG1 E R 195;11.6361
3HG1 E Q 139;3HG1 E K 140;18.6196
3HG1 E Q 139;3HG1 E S 197;4.82798
3HG1 E Q 139;3HG1 E A 198;23.9452
3HG1 E Q 139;3HG1 E T 199;6.36053
3HG1 E Q 139;3HG1 E Q 202;1.1371
3HG1 E K 140;3HG1 E A 141;17.4212
3HG1 E K 140;3HG1 E R 195;20.2793
3HG1 E K 140;3HG1 E V 196;1.23632
3HG1 E K 140;3HG1 E S 197;6.81289
3HG1 E K 140;3HG1 E A 198;8.59262
3HG1 E A 141;3HG1 E T 142;12.7951
3HG1 E A 141;3HG1 E L 143;6.97332
3HG1 E A 141;3HG1 E L 194;1.09142
3HG1 E A 141;3HG1 E R 195;9.78518
3HG1 E A 141;3HG1 E V 196;22.2092
3HG1 E A 141;3HG1 E S 197;0.650776
3HG1 E A 141;3HG1 E A 198;7.56405
3HG1 E A 141;3HG1 E W 201;12.6538
3HG1 E T 142;3HG1 E L 143;19.1879
3HG1 E T 142;3HG1 E V 144;5.69765
3HG1 E T 142;3HG1 E R 193;12.4884
3HG1 E T 142;3HG1 E L 194;4.58265
3HG1 E T 142;3HG1 E R 195;23.545
3HG1 E L 143;3HG1 E V 144;19.3974
3HG1 E L 143;3HG1 E W 159;14.7693
3HG1 E L 143;3HG1 E R 193;4.94363
3HG1 E L 143;3HG1 E L 194;26.6546
3HG1 E L 143;3HG1 E V 196;7.8341
3HG1 E L 143;3HG1 E W 201;13.741
3HG1 E L 143;3HG1 E F 208;21.3374
3HG1 E L 143;3HG1 E A 239;4.74236
3HG1 E V 144;3HG1 E C 145;22.2798
3HG1 E V 144;3HG1 E L 146;5.0483
3HG1 E V 144;3HG1 E W 159;3.13718
3HG1 E V 144;3HG1 E S 191;5.08885
3HG1 E V 144;3HG1 E S 192;7.89364
3HG1 E V 144;3HG1 E R 193;10.6872
3HG1 E C 145;3HG1 E L 146;25.2051
3HG1 E C 145;3HG1 E A 147;3.58139
3HG1 E C 145;3HG1 E L 157;9.11805
3HG1 E C 145;3HG1 E W 159;11.7757
3HG1 E C 145;3HG1 E L 190;0.337777
3HG1 E C 145;3HG1 E S 191;8.03133
3HG1 E C 145;3HG1 E S 192;15.8427
3HG1 E C 145;3HG1 E C 210;17.9657
3HG1 E C 145;3HG1 E V 212;2.56399
3HG1 E L 146;3HG1 E A 147;20.2193
3HG1 E L 146;3HG1 E T 148;19.7858
3HG1 E L 146;3HG1 E A 189;1.75877
3HG1 E L 146;3HG1 E L 190;9.97329
3HG1 E L 146;3HG1 E S 191;8.12011
3HG1 E A 147;3HG1 E T 148;19.132
3HG1 E A 147;3HG1 E F 150;10.4056
3HG1 E A 147;3HG1 E V 155;2.64868
3HG1 E A 147;3HG1 E L 157;5.36607
3HG1 E A 147;3HG1 E A 189;4.28283
3HG1 E A 147;3HG1 E L 190;21.6878
3HG1 E A 147;3HG1 E V 212;15.1398
3HG1 E T 148;3HG1 E G 149;21.6469
3HG1 E T 148;3HG1 E F 150;8.40565
3HG1 E T 148;3HG1 E E 179;9.77167
3HG1 E T 148;3HG1 E Y 188;2.2625
3HG1 E T 148;3HG1 E A 189;10.5192
3HG1 E G 149;3HG1 E F 150;15.5635
3HG1 E G 149;3HG1 E E 179;16.0693
3HG1 E G 149;3HG1 E R 187;27.6885
3HG1 E G 149;3HG1 E Y 188;5.47968
3HG1 E F 150;3HG1 E Y 151;20.6973
3HG1 E F 150;3HG1 E P 152;5.97968
3HG1 E F 150;3HG1 E D 153;7.73221
3HG1 E F 150;3HG1 E H 154;4.98896
3HG1 E F 150;3HG1 E V 155;21.1302
3HG1 E F 150;3HG1 E P 176;9.46884
3HG1 E F 150;3HG1 E R 187;6.9919
3HG1 E F 150;3HG1 E Y 188;30.4847
3HG1 E F 150;3HG1 E A 189;7.03145
3HG1 E F 150;3HG1 E L 190;11.8909
3HG1 E F 150;3HG1 E F 214;6.17544
3HG1 E Y 151;3HG1 E P 152;38.1115
3HG1 E Y 151;3HG1 E D 153;1.8131
3HG1 E Y 151;3HG1 E N 184;5.7693
3HG1 E Y 151;3HG1 E D 185;24.354
3HG1 E Y 151;3HG1 E S 186;5.09032
3HG1 E Y 151;3HG1 E R 187;11.2896
3HG1 E Y 151;3HG1 E Y 188;14.6159
3HG1 E Y 151;3HG1 E F 214;7.59709
3HG1 E P 152;3HG1 E D 153;27.9478
3HG1 E P 152;3HG1 E H 154;9.56786
3HG1 E P 152;3HG1 E V 155;0.892686
3HG1 E P 152;3HG1 E Y 188;2.97934
3HG1 E P 152;3HG1 E F 214;10.2335
3HG1 E P 152;3HG1 E Y 215;6.43595
3HG1 E P 152;3HG1 E G 216;1.71986
3HG1 E D 153;3HG1 E H 154;34.6883
3HG1 E D 153;3HG1 E P 176;18.1148
3HG1 E D 153;3HG1 E Y 188;24.5941
3HG1 E H 154;3HG1 E V 155;48.6586
3HG1 E H 154;3HG1 E E 156;2.26301
3HG1 E H 154;3HG1 E L 157;0.695222
3HG1 E H 154;3HG1 E D 173;2.17926
3HG1 E H 154;3HG1 E P 174;5.68895
3HG1 E H 154;3HG1 E Q 175;9.5932
3HG1 E H 154;3HG1 E P 176;14.0707
3HG1 E H 154;3HG1 E L 190;16.3012
3HG1 E H 154;3HG1 E F 214;1.17246
3HG1 E H 154;3HG1 E Y 215;11.9172
3HG1 E V 155;3HG1 E E 156;29.6592
3HG1 E V 155;3HG1 E L 157;5.11814
3HG1 E V 155;3HG1 E L 190;10.4726
3HG1 E V 155;3HG1 E V 212;16.0242
3HG1 E V 155;3HG1 E Q 213;6.81555
3HG1 E V 155;3HG1 E F 214;18.9651
3HG1 E V 155;3HG1 E Y 215;9.71877
3HG1 E E 156;3HG1 E L 157;26.8828
3HG1 E E 156;3HG1 E S 158;3.55016
3HG1 E E 156;3HG1 E Q 211;3.21743
3HG1 E E 156;3HG1 E V 212;2.90803
3HG1 E E 156;3HG1 E Q 213;29.6001
3HG1 E E 156;3HG1 E Y 215;29.939
3HG1 E L 157;3HG1 E S 158;34.4227
3HG1 E L 157;3HG1 E W 159;10.141
3HG1 E L 157;3HG1 E V 170;0.012877
3HG1 E L 157;3HG1 E T 172;21.3648
3HG1 E L 157;3HG1 E L 190;16.3907
3HG1 E L 157;3HG1 E S 191;4.03543
3HG1 E L 157;3HG1 E S 192;14.5089
3HG1 E L 157;3HG1 E C 210;10.7692
3HG1 E L 157;3HG1 E Q 211;4.38781
3HG1 E L 157;3HG1 E V 212;17.4091
3HG1 E S 158;3HG1 E W 159;25.5539
3HG1 E S 158;3HG1 E W 160;17.7378
3HG1 E S 158;3HG1 E E 165;17.0696
3HG1 E S 158;3HG1 E R 209;0.775742
3HG1 E S 158;3HG1 E C 210;4.67145
3HG1 E S 158;3HG1 E Q 211;26.6793
3HG1 E W 159;3HG1 E W 160;22.5945
3HG1 E W 159;3HG1 E V 161;0.834547
3HG1 E W 159;3HG1 E E 165;8.87437
3HG1 E W 159;3HG1 E V 166;23.9591
3HG1 E W 159;3HG1 E V 170;19.4857
3HG1 E W 159;3HG1 E T 172;0.632227
3HG1 E W 159;3HG1 E S 192;14.6083
3HG1 E W 159;3HG1 E R 193;6.88649
3HG1 E W 159;3HG1 E L 194;30.9032
3HG1 E W 159;3HG1 E F 208;4.60164
3HG1 E W 159;3HG1 E R 209;12.9831
3HG1 E W 159;3HG1 E C 210;15.1144
3HG1 E W 160;3HG1 E V 161;23.6497
3HG1 E W 160;3HG1 E N 162;1.37348
3HG1 E W 160;3HG1 E G 163;14.4705
3HG1 E W 160;3HG1 E K 164;19.0952
3HG1 E W 160;3HG1 E E 165;35.2011
3HG1 E W 160;3HG1 E V 166;0.409544
3HG1 E W 160;3HG1 E L 194;0.000555465
3HG1 E W 160;3HG1 E H 207;2.28356
3HG1 E W 160;3HG1 E F 208;2.9734
3HG1 E W 160;3HG1 E R 209;44.4929
3HG1 E W 160;3HG1 E Q 211;28.5353
3HG1 E V 161;3HG1 E N 162;29.7377
3HG1 E V 161;3HG1 E G 163;12.7871
3HG1 E V 161;3HG1 E K 164;4.64227
3HG1 E V 161;3HG1 E E 165;4.05366
3HG1 E V 161;3HG1 E V 166;25.0422
3HG1 E V 161;3HG1 E L 194;11.8611
3HG1 E V 161;3HG1 E V 196;2.41967
3HG1 E V 161;3HG1 E F 200;16.4333
3HG1 E V 161;3HG1 E N 206;3.21364
3HG1 E V 161;3HG1 E H 207;8.40116
3HG1 E V 161;3HG1 E F 208;17.2962
3HG1 E V 161;3HG1 E R 209;0.0177015
3HG1 E N 162;3HG1 E G 163;27.0191
3HG1 E N 162;3HG1 E K 164;8.88158
3HG1 E N 162;3HG1 E F 200;3.99067
3HG1 E N 162;3HG1 E R 205;7.51347
3HG1 E N 162;3HG1 E N 206;17.6447
3HG1 E N 162;3HG1 E H 207;30.5752
3HG1 E G 163;3HG1 E K 164;28.6147
3HG1 E G 163;3HG1 E E 165;2.485
3HG1 E G 163;3HG1 E H 207;3.18442
3HG1 E G 163;3HG1 E R 209;3.53034
3HG1 E K 164;3HG1 E E 165;35.3607
3HG1 E K 164;3HG1 E V 166;2.08419
3HG1 E E 165;3HG1 E V 166;36.3879
3HG1 E E 165;3HG1 E H 167;29.1945
3HG1 E V 166;3HG1 E H 167;31.924
3HG1 E V 166;3HG1 E S 168;8.76196
3HG1 E V 166;3HG1 E V 170;11.2216
3HG1 E V 166;3HG1 E L 194;12.1099
3HG1 E H 167;3HG1 E S 168;28.3388
3HG1 E H 167;3HG1 E V 170;17.7843
3HG1 E S 168;3HG1 E G 169;22.3967
3HG1 E S 168;3HG1 E V 170;9.10982
3HG1 E S 168;3HG1 E L 194;5.94002
3HG1 E G 169;3HG1 E V 170;16.4083
3HG1 E G 169;3HG1 E R 193;1.55171
3HG1 E G 169;3HG1 E L 194;8.683
3HG1 E G 169;3HG1 E R 195;15.964
3HG1 E V 170;3HG1 E C 171;26.6629
3HG1 E V 170;3HG1 E T 172;8.36562
3HG1 E V 170;3HG1 E S 192;1.79952
3HG1 E V 170;3HG1 E R 193;9.0572
3HG1 E V 170;3HG1 E L 194;9.80397
3HG1 E C 171;3HG1 E T 172;20.0747
3HG1 E C 171;3HG1 E S 192;5.88788
3HG1 E C 171;3HG1 E R 193;23.7347
3HG1 E T 172;3HG1 E D 173;29.7744
3HG1 E T 172;3HG1 E P 174;5.38232
3HG1 E T 172;3HG1 E L 190;13.601
3HG1 E T 172;3HG1 E S 191;7.19204
3HG1 E T 172;3HG1 E S 192;13.8422
3HG1 E T 172;3HG1 E R 193;0.639121
3HG1 E D 173;3HG1 E P 174;32.3949
3HG1 E D 173;3HG1 E Q 175;11.5453
3HG1 E D 173;3HG1 E L 190;20.0095
3HG1 E D 173;3HG1 E S 191;19.2829
3HG1 E D 173;3HG1 E R 193;9.81165
3HG1 E P 174;3HG1 E Q 175;47.1367
3HG1 E Q 175;3HG1 E P 176;41.0132
3HG1 E Q 175;3HG1 E L 177;2.26546
3HG1 E Q 175;3HG1 E L 190;9.51348
3HG1 E P 176;3HG1 E L 177;25.3247
3HG1 E P 176;3HG1 E K 178;0.11172
3HG1 E P 176;3HG1 E Y 188;19.7889
3HG1 E P 176;3HG1 E A 189;8.8965
3HG1 E P 176;3HG1 E L 190;12.2948
3HG1 E L 177;3HG1 E K 178;33.2584
3HG1 E L 177;3HG1 E E 179;6.49208
3HG1 E L 177;3HG1 E Y 188;8.96975
3HG1 E L 177;3HG1 E A 189;23.6911
3HG1 E L 177;3HG1 E L 190;0.136772
3HG1 E K 178;3HG1 E E 179;14.6649
3HG1 E K 178;3HG1 E Q 180;7.23066
3HG1 E K 178;3HG1 E P 181;38.1354
3HG1 E K 178;3HG1 E N 184;25.5996
3HG1 E K 178;3HG1 E S 186;14.9464
3HG1 E K 178;3HG1 E R 187;2.60465
3HG1 E K 178;3HG1 E Y 188;32.3446
3HG1 E E 179;3HG1 E Q 180;32.9974
3HG1 E E 179;3HG1 E S 186;5.55912
3HG1 E E 179;3HG1 E R 187;22.3158
3HG1 E E 179;3HG1 E Y 188;8.26157
3HG1 E E 179;3HG1 E A 189;11.5524
3HG1 E Q 180;3HG1 E P 181;24.0792
3HG1 E Q 180;3HG1 E A 182;18.6773
3HG1 E Q 180;3HG1 E L 183;24.8317
3HG1 E Q 180;3HG1 E N 184;0.213848
3HG1 E Q 180;3HG1 E S 186;23.2187
3HG1 E Q 180;3HG1 E R 187;1.28662
3HG1 E P 181;3HG1 E A 182;23.7333
3HG1 E P 181;3HG1 E L 183;6.29305
3HG1 E P 181;3HG1 E N 184;7.41004
3HG1 E P 181;3HG1 E S 186;0.00301892
3HG1 E A 182;3HG1 E L 183;28.4205
3HG1 E L 183;3HG1 E N 184;31.3942
3HG1 E L 183;3HG1 E D 185;28.1374
3HG1 E L 183;3HG1 E S 186;14.6325
3HG1 E N 184;3HG1 E D 185;25.8145
3HG1 E N 184;3HG1 E S 186;10.7042
3HG1 E N 184;3HG1 E Y 188;5.92243
3HG1 E D 185;3HG1 E S 186;20.1169
3HG1 E D 185;3HG1 E R 187;4.74125
3HG1 E S 186;3HG1 E R 187;28.7046
3HG1 E S 186;3HG1 E Y 188;9.01385
3HG1 E R 187;3HG1 E Y 188;19.9405
3HG1 E Y 188;3HG1 E A 189;15.7692
3HG1 E A 189;3HG1 E L 190;21.7759
3HG1 E L 190;3HG1 E S 191;24.4171
3HG1 E S 191;3HG1 E S 192;15.8676
3HG1 E S 191;3HG1 E R 193;12.4815
3HG1 E S 192;3HG1 E R 193;25.5365
3HG1 E S 192;3HG1 E C 210;0.137858
3HG1 E R 193;3HG1 E L 194;18.3333
3HG1 E R 193;3HG1 E R 195;1.88276
3HG1 E L 194;3HG1 E R 195;20.3254
3HG1 E L 194;3HG1 E V 196;18.2751
3HG1 E L 194;3HG1 E F 208;9.91883
3HG1 E R 195;3HG1 E V 196;24.8173
3HG1 E V 196;3HG1 E S 197;26.8825
3HG1 E V 196;3HG1 E A 198;0.679229
3HG1 E V 196;3HG1 E F 200;19.3977
3HG1 E V 196;3HG1 E W 201;7.14849
3HG1 E V 196;3HG1 E F 208;13.1726
3HG1 E S 197;3HG1 E A 198;16.7408
3HG1 E S 197;3HG1 E T 199;16.6929
3HG1 E S 197;3HG1 E F 200;22.4854
3HG1 E S 197;3HG1 E W 201;4.32241
3HG1 E A 198;3HG1 E T 199;21.5222
3HG1 E A 198;3HG1 E F 200;1.14152
3HG1 E A 198;3HG1 E W 201;7.78892
3HG1 E A 198;3HG1 E Q 202;17.3975
3HG1 E T 199;3HG1 E F 200;21.7336
3HG1 E T 199;3HG1 E W 201;0.560466
3HG1 E T 199;3HG1 E Q 202;20.0859
3HG1 E T 199;3HG1 E D 203;13.9319
3HG1 E F 200;3HG1 E W 201;18.7809
3HG1 E F 200;3HG1 E Q 202;0.368641
3HG1 E F 200;3HG1 E D 203;10.0331
3HG1 E F 200;3HG1 E N 206;34.4888
3HG1 E F 200;3HG1 E F 208;14.2075
3HG1 E F 200;3HG1 E G 241;0.533689
3HG1 E W 201;3HG1 E Q 202;23.2649
3HG1 E W 201;3HG1 E D 203;4.32589
3HG1 E W 201;3HG1 E F 208;21.3186
3HG1 E W 201;3HG1 E A 239;8.02356
3HG1 E W 201;3HG1 E W 240;11.5268
3HG1 E W 201;3HG1 E G 241;9.45481
3HG1 E W 201;3HG1 E R 242;33.7723
3HG1 E W 201;3HG1 E D 244;4.68779
3HG1 E Q 202;3HG1 E D 203;16.4471
3HG1 E Q 202;3HG1 E P 204;9.62641
3HG1 E Q 202;3HG1 E G 241;0.626332
3HG1 E Q 202;3HG1 E R 242;10.3729
3HG1 E Q 202;3HG1 E A 243;16.8475
3HG1 E Q 202;3HG1 E D 244;12.7491
3HG1 E D 203;3HG1 E P 204;27.7978
3HG1 E D 203;3HG1 E R 205;25.5153
3HG1 E D 203;3HG1 E N 206;24.4376
3HG1 E D 203;3HG1 E G 241;5.12748
3HG1 E P 204;3HG1 E R 205;28.4385
3HG1 E P 204;3HG1 E N 206;0.233093
3HG1 E P 204;3HG1 E W 240;0.458913
3HG1 E P 204;3HG1 E G 241;20.567
3HG1 E P 204;3HG1 E R 242;0.983305
3HG1 E P 204;3HG1 E A 243;18.5339
3HG1 E R 205;3HG1 E N 206;30.869
3HG1 E R 205;3HG1 E H 207;3.39257
3HG1 E R 205;3HG1 E W 240;22.7873
3HG1 E R 205;3HG1 E G 241;3.65963
3HG1 E N 206;3HG1 E H 207;16.3555
3HG1 E N 206;3HG1 E F 208;14.9022
3HG1 E N 206;3HG1 E W 240;4.8242
3HG1 E N 206;3HG1 E G 241;12.8917
3HG1 E H 207;3HG1 E F 208;25.4491
3HG1 E H 207;3HG1 E R 209;15.4379
3HG1 E H 207;3HG1 E E 238;22.1571
3HG1 E H 207;3HG1 E A 239;7.73177
3HG1 E H 207;3HG1 E W 240;36.6176
3HG1 E F 208;3HG1 E R 209;22.4353
3HG1 E F 208;3HG1 E E 238;5.44825
3HG1 E F 208;3HG1 E A 239;24.0682
3HG1 E F 208;3HG1 E W 240;3.16638
3HG1 E F 208;3HG1 E G 241;4.15454
3HG1 E R 209;3HG1 E C 210;21.9818
3HG1 E R 209;3HG1 E Q 211;24.1135
3HG1 E R 209;3HG1 E I 234;5.24296
3HG1 E R 209;3HG1 E S 236;17.1209
3HG1 E R 209;3HG1 E A 237;8.40647
3HG1 E R 209;3HG1 E E 238;17.8479
3HG1 E C 210;3HG1 E Q 211;19.838
3HG1 E C 210;3HG1 E V 212;4.1241
3HG1 E C 210;3HG1 E S 236;7.18589
3HG1 E C 210;3HG1 E A 237;12.9883
3HG1 E Q 211;3HG1 E V 212;21.8748
3HG1 E Q 211;3HG1 E Q 213;6.39298
3HG1 E Q 211;3HG1 E I 234;23.5226
3HG1 E Q 211;3HG1 E S 236;10.4933
3HG1 E V 212;3HG1 E Q 213;20.1289
3HG1 E V 212;3HG1 E F 214;5.79551
3HG1 E V 212;3HG1 E Q 233;0.735598
3HG1 E V 212;3HG1 E I 234;8.60268
3HG1 E V 212;3HG1 E V 235;18.2739
3HG1 E V 212;3HG1 E S 236;1.02178
3HG1 E Q 213;3HG1 E F 214;21.4321
3HG1 E Q 213;3HG1 E Y 215;28.2382
3HG1 E Q 213;3HG1 E T 232;12.3228
3HG1 E Q 213;3HG1 E Q 233;4.96885
3HG1 E Q 213;3HG1 E I 234;28.2444
3HG1 E F 214;3HG1 E Y 215;29.2906
3HG1 E F 214;3HG1 E G 216;9.26202
3HG1 E F 214;3HG1 E P 230;8.22093
3HG1 E F 214;3HG1 E V 231;6.23341
3HG1 E F 214;3HG1 E T 232;10.1903
3HG1 E F 214;3HG1 E Q 233;24.9701
3HG1 E F 214;3HG1 E V 235;3.11247
3HG1 E Y 215;3HG1 E G 216;17.437
3HG1 E Y 215;3HG1 E T 232;21.2407
3HG1 E G 216;3HG1 E L 217;24.8136
3HG1 E G 216;3HG1 E S 218;1.74432
3HG1 E G 216;3HG1 E P 230;2.5836
3HG1 E G 216;3HG1 E V 231;1.85906
3HG1 E G 216;3HG1 E T 232;16.4696
3HG1 E L 217;3HG1 E S 218;25.9304
3HG1 E L 217;3HG1 E D 221;14.4517
3HG1 E L 217;3HG1 E E 222;1.46462
3HG1 E L 217;3HG1 E W 223;13.0091
3HG1 E L 217;3HG1 E K 229;12.3068
3HG1 E L 217;3HG1 E P 230;19.7252
3HG1 E L 217;3HG1 E V 231;18.1681
3HG1 E L 217;3HG1 E T 232;8.62786
3HG1 E S 218;3HG1 E E 219;36.4847
3HG1 E S 218;3HG1 E N 220;1.10884
3HG1 E S 218;3HG1 E D 221;23.1973
3HG1 E S 218;3HG1 E K 229;5.62748
3HG1 E S 218;3HG1 E V 231;6.39908
3HG1 E E 219;3HG1 E N 220;47.9078
3HG1 E E 219;3HG1 E D 221;0.359339
3HG1 E E 219;3HG1 E K 229;7.27832
3HG1 E E 219;3HG1 E V 231;7.79372
3HG1 E N 220;3HG1 E D 221;29.5177
3HG1 E N 220;3HG1 E E 222;0.0890832
3HG1 E N 220;3HG1 E K 229;9.64155
3HG1 E D 221;3HG1 E E 222;39.057
3HG1 E D 221;3HG1 E W 223;3.85619
3HG1 E D 221;3HG1 E K 229;19.5281
3HG1 E E 222;3HG1 E W 223;34.9978
3HG1 E E 222;3HG1 E T 224;15.0211
3HG1 E E 222;3HG1 E K 229;0.0202942
3HG1 E W 223;3HG1 E T 224;30.8105
3HG1 E W 223;3HG1 E Q 225;33.4968
3HG1 E W 223;3HG1 E R 227;25.501
3HG1 E W 223;3HG1 E A 228;3.84278
3HG1 E W 223;3HG1 E K 229;28.3959
3HG1 E W 223;3HG1 E P 230;15.4395
3HG1 E T 224;3HG1 E Q 225;34.6251
3HG1 E T 224;3HG1 E D 226;5.8356
3HG1 E Q 225;3HG1 E D 226;29.935
3HG1 E Q 225;3HG1 E R 227;20.8829
3HG1 E D 226;3HG1 E R 227;34.656
3HG1 E D 226;3HG1 E A 228;0.00268479
3HG1 E R 227;3HG1 E A 228;40.7033
3HG1 E R 227;3HG1 E K 229;0.575107
3HG1 E R 227;3HG1 E P 230;9.86117
3HG1 E A 228;3HG1 E K 229;29.1873
3HG1 E A 228;3HG1 E P 230;7.42809
3HG1 E K 229;3HG1 E P 230;20.2806
3HG1 E K 229;3HG1 E V 231;31.1592
3HG1 E K 229;3HG1 E Q 233;1.91089
3HG1 E P 230;3HG1 E V 231;16.5965
3HG1 E P 230;3HG1 E Q 233;5.36639
3HG1 E V 231;3HG1 E T 232;30.3744
3HG1 E V 231;3HG1 E Q 233;17.2149
3HG1 E T 232;3HG1 E Q 233;27.6942
3HG1 E T 232;3HG1 E I 234;0.15114
3HG1 E Q 233;3HG1 E I 234;34.3368
3HG1 E Q 233;3HG1 E V 235;19.4683
3HG1 E I 234;3HG1 E V 235;26.4468
3HG1 E I 234;3HG1 E S 236;11.7591
3HG1 E V 235;3HG1 E S 236;25.7083
3HG1 E S 236;3HG1 E A 237;24.8594
3HG1 E S 236;3HG1 E E 238;1.01
3HG1 E A 237;3HG1 E E 238;26.7358
3HG1 E E 238;3HG1 E A 239;26.6168
3HG1 E E 238;3HG1 E W 240;12.2554
3HG1 E A 239;3HG1 E W 240;30.7788
3HG1 E W 240;3HG1 E G 241;23.2259
3HG1 E W 240;3HG1 E R 242;8.70483
3HG1 E G 241;3HG1 E R 242;18.444
3HG1 E G 241;3HG1 E A 243;0.0254078
3HG1 E R 242;3HG1 E A 243;25.4382
3HG1 E R 242;3HG1 E D 244;32.6109
3HG1 E A 243;3HG1 E D 244;39.6368
