V1;V2;Weight
3HH2 C G 1;3HH2 C N 2;21.1145
3HH2 C G 1;3HH2 C K 18;0.0570664
3HH2 C G 1;3HH2 C T 19;1.88639
3HH2 C G 1;3HH2 C E 20;9.46538
3HH2 C G 1;3HH2 C L 21;21.8631
3HH2 C G 1;3HH2 C S 22;1.10205
3HH2 C G 1;3HH2 C W 36;12.6705
3HH2 C G 1;3HH2 C T 37;5.32834
3HH2 C G 1;3HH2 C E 38;11.5029
3HH2 C G 1;3HH2 C E 39;3.59536
3HH2 C G 1;3HH2 C D 40;19.8351
3HH2 C N 2;3HH2 C C 3;18.4718
3HH2 C N 2;3HH2 C W 4;16.5816
3HH2 C N 2;3HH2 C L 16;9.70919
3HH2 C N 2;3HH2 C K 18;4.76732
3HH2 C N 2;3HH2 C T 19;17.9441
3HH2 C N 2;3HH2 C E 20;1.78778
3HH2 C N 2;3HH2 C L 21;1.23888
3HH2 C N 2;3HH2 C S 35;0.0389085
3HH2 C N 2;3HH2 C W 36;12.122
3HH2 C N 2;3HH2 C T 37;20.5767
3HH2 C N 2;3HH2 C E 39;10.0748
3HH2 C N 2;3HH2 C D 40;7.77556
3HH2 C N 2;3HH2 C V 41;7.03277
3HH2 C N 2;3HH2 C L 46;14.6143
3HH2 C C 3;3HH2 C W 4;22.3851
3HH2 C C 3;3HH2 C L 16;6.94056
3HH2 C C 3;3HH2 C Y 17;25.1359
3HH2 C C 3;3HH2 C K 18;18.652
3HH2 C C 3;3HH2 C L 21;11.913
3HH2 C C 3;3HH2 C C 26;23.8012
3HH2 C C 3;3HH2 C T 34;10.3456
3HH2 C C 3;3HH2 C S 35;2.84468
3HH2 C C 3;3HH2 C W 36;1.75907
3HH2 C W 4;3HH2 C L 5;18.3483
3HH2 C W 4;3HH2 C R 6;7.63627
3HH2 C W 4;3HH2 C C 13;24.8076
3HH2 C W 4;3HH2 C Q 14;14.0949
3HH2 C W 4;3HH2 C V 15;11.2224
3HH2 C W 4;3HH2 C L 16;26.3626
3HH2 C W 4;3HH2 C Y 17;4.38347
3HH2 C W 4;3HH2 C T 34;8.86306
3HH2 C W 4;3HH2 C S 35;20.2415
3HH2 C W 4;3HH2 C W 36;3.06282
3HH2 C W 4;3HH2 C T 37;13.9735
3HH2 C W 4;3HH2 C L 46;12.5993
3HH2 C W 4;3HH2 C M 50;19.5732
3HH2 C W 4;3HH2 C A 56;15.1384
3HH2 C L 5;3HH2 C R 6;18.5445
3HH2 C L 5;3HH2 C Q 14;2.33065
3HH2 C L 5;3HH2 C V 15;25.12
3HH2 C L 5;3HH2 C L 16;0.339174
3HH2 C L 5;3HH2 C Y 17;21.9632
3HH2 C L 5;3HH2 C R 31;25.4727
3HH2 C L 5;3HH2 C S 33;8.16054
3HH2 C L 5;3HH2 C T 34;9.94932
3HH2 C L 5;3HH2 C S 35;0.00185857
3HH2 C R 6;3HH2 C Q 7;30.4974
3HH2 C R 6;3HH2 C A 8;18.3786
3HH2 C R 6;3HH2 C K 9;17.5755
3HH2 C R 6;3HH2 C R 12;0.246583
3HH2 C R 6;3HH2 C C 13;4.78723
3HH2 C R 6;3HH2 C Q 14;35.1301
3HH2 C R 6;3HH2 C V 15;10.2065
3HH2 C R 6;3HH2 C S 33;11.104
3HH2 C R 6;3HH2 C S 35;5.76352
3HH2 C R 6;3HH2 C C 59;0.515412
3HH2 C Q 7;3HH2 C A 8;28.6201
3HH2 C Q 7;3HH2 C K 9;1.41203
3HH2 C Q 7;3HH2 C G 11;19.244
3HH2 C Q 7;3HH2 C R 12;4.86593
3HH2 C Q 7;3HH2 C C 13;1.09899
3HH2 C Q 7;3HH2 C S 33;5.09324
3HH2 C Q 7;3HH2 C S 35;9.97947
3HH2 C Q 7;3HH2 C C 59;22.4745
3HH2 C Q 7;3HH2 C P 61;18.6605
3HH2 C Q 7;3HH2 C K 84;18.3941
3HH2 C Q 7;3HH2 C R 86;0.15597
3HH2 C A 8;3HH2 C K 9;26.0426
3HH2 C A 8;3HH2 C N 10;14.9256
3HH2 C A 8;3HH2 C G 11;8.8286
3HH2 C A 8;3HH2 C R 12;11.9702
3HH2 C A 8;3HH2 C Q 14;19.1444
3HH2 C A 8;3HH2 C G 54;0.283914
3HH2 C K 9;3HH2 C N 10;20.2746
3HH2 C K 9;3HH2 C G 11;3.47489
3HH2 C K 9;3HH2 C N 80;0.637757
3HH2 C K 9;3HH2 C R 86;20.5675
3HH2 C N 10;3HH2 C G 11;16.2527
3HH2 C N 10;3HH2 C R 12;20.1184
3HH2 C N 10;3HH2 C Q 14;3.95887
3HH2 C N 10;3HH2 C N 53;0.327238
3HH2 C N 10;3HH2 C G 54;19.1453
3HH2 C G 11;3HH2 C R 12;20.2223
3HH2 C G 11;3HH2 C C 59;8.89705
3HH2 C R 12;3HH2 C C 13;16.3342
3HH2 C R 12;3HH2 C Q 14;4.70637
3HH2 C R 12;3HH2 C W 49;11.3134
3HH2 C R 12;3HH2 C N 53;20.5465
3HH2 C R 12;3HH2 C G 54;8.64709
3HH2 C R 12;3HH2 C G 55;12.5528
3HH2 C R 12;3HH2 C A 56;7.66214
3HH2 C R 12;3HH2 C P 57;12.9125
3HH2 C R 12;3HH2 C N 58;0.0082673
3HH2 C R 12;3HH2 C C 59;6.10857
3HH2 C C 13;3HH2 C Q 14;20.6914
3HH2 C C 13;3HH2 C S 35;6.86937
3HH2 C C 13;3HH2 C W 36;5.03752
3HH2 C C 13;3HH2 C T 37;7.01666
3HH2 C C 13;3HH2 C M 50;0.805582
3HH2 C C 13;3HH2 C G 55;6.95369
3HH2 C C 13;3HH2 C A 56;19.674
3HH2 C C 13;3HH2 C C 59;21.0111
3HH2 C C 13;3HH2 C I 60;0.604994
3HH2 C Q 14;3HH2 C V 15;32.4749
3HH2 C Q 14;3HH2 C M 50;0.035604
3HH2 C Q 14;3HH2 C G 54;14.2678
3HH2 C Q 14;3HH2 C G 55;8.16037
3HH2 C V 15;3HH2 C L 16;24.3352
3HH2 C V 15;3HH2 C Y 17;2.16565
3HH2 C V 15;3HH2 C M 50;0.0146425
3HH2 C L 16;3HH2 C Y 17;18.1605
3HH2 C L 16;3HH2 C K 18;7.47462
3HH2 C L 16;3HH2 C T 19;9.53256
3HH2 C L 16;3HH2 C L 46;10.9247
3HH2 C L 16;3HH2 C M 50;6.57075
3HH2 C Y 17;3HH2 C K 18;49.5276
3HH2 C Y 17;3HH2 C L 21;0.948717
3HH2 C Y 17;3HH2 C T 34;2.03945
3HH2 C K 18;3HH2 C T 19;25.4285
3HH2 C K 18;3HH2 C L 21;27.4808
3HH2 C T 19;3HH2 C E 20;41.3542
3HH2 C T 19;3HH2 C L 21;10.9316
3HH2 C T 19;3HH2 C D 40;0.0479702
3HH2 C T 19;3HH2 C L 46;3.84879
3HH2 C E 20;3HH2 C L 21;26.5511
3HH2 C E 20;3HH2 C E 25;2.40132
3HH2 C E 20;3HH2 C D 40;24.2252
3HH2 C L 21;3HH2 C S 22;24.5154
3HH2 C L 21;3HH2 C E 25;30.9274
3HH2 C L 21;3HH2 C C 26;13.4146
3HH2 C L 21;3HH2 C W 36;9.76899
3HH2 C S 22;3HH2 C K 23;17.857
3HH2 C S 22;3HH2 C E 24;18.7835
3HH2 C S 22;3HH2 C E 25;29.4456
3HH2 C S 22;3HH2 C C 26;7.03662
3HH2 C S 22;3HH2 C W 36;11.2499
3HH2 C K 23;3HH2 C E 24;37.5551
3HH2 C K 23;3HH2 C E 25;1.40264
3HH2 C K 23;3HH2 C C 26;5.93609
3HH2 C K 23;3HH2 C C 27;28.0559
3HH2 C K 23;3HH2 C W 36;39.1427
3HH2 C K 23;3HH2 C I 60;21.9653
3HH2 C K 23;3HH2 C P 61;5.34511
3HH2 C K 23;3HH2 C C 62;7.41326
3HH2 C K 23;3HH2 C E 64;1.12064
3HH2 C E 24;3HH2 C E 25;22.3057
3HH2 C E 24;3HH2 C C 26;0.2146
3HH2 C E 24;3HH2 C C 27;7.449
3HH2 C E 24;3HH2 C S 28;14.3721
3HH2 C E 25;3HH2 C C 26;21.6827
3HH2 C E 25;3HH2 C C 27;1.33759
3HH2 C E 25;3HH2 C S 28;19.0553
3HH2 C E 25;3HH2 C T 29;0.336824
3HH2 C C 26;3HH2 C C 27;20.2129
3HH2 C C 26;3HH2 C S 28;3.90456
3HH2 C C 26;3HH2 C T 29;7.30539
3HH2 C C 26;3HH2 C T 34;14.3793
3HH2 C C 26;3HH2 C S 35;6.03059
3HH2 C C 26;3HH2 C W 36;14.9613
3HH2 C C 26;3HH2 C C 62;5.80633
3HH2 C C 27;3HH2 C S 28;20.5172
3HH2 C C 27;3HH2 C T 29;9.22006
3HH2 C C 27;3HH2 C T 34;0.972159
3HH2 C C 27;3HH2 C W 36;5.37991
3HH2 C C 27;3HH2 C I 60;0.591366
3HH2 C C 27;3HH2 C C 62;32.1059
3HH2 C C 27;3HH2 C K 63;12.0649
3HH2 C S 28;3HH2 C T 29;37.3116
3HH2 C T 29;3HH2 C G 30;26.5667
3HH2 C T 29;3HH2 C R 31;21.1271
3HH2 C T 29;3HH2 C T 34;4.54531
3HH2 C T 29;3HH2 C K 63;13.4113
3HH2 C T 29;3HH2 C N 68;0.137169
3HH2 C G 30;3HH2 C R 31;23.1054
3HH2 C G 30;3HH2 C L 32;4.73384
3HH2 C G 30;3HH2 C K 63;7.39501
3HH2 C G 30;3HH2 C N 68;10.7101
3HH2 C G 30;3HH2 C V 69;6.53147
3HH2 C G 30;3HH2 C D 70;24.1999
3HH2 C R 31;3HH2 C L 32;24.3036
3HH2 C R 31;3HH2 C S 33;13.0574
3HH2 C R 31;3HH2 C T 34;32.8098
3HH2 C R 31;3HH2 C C 62;1.53066
3HH2 C R 31;3HH2 C K 63;10.2417
3HH2 C R 31;3HH2 C D 70;2.78612
3HH2 C L 32;3HH2 C S 33;39.0533
3HH2 C L 32;3HH2 C T 34;4.25127
3HH2 C L 32;3HH2 C P 61;0.157383
3HH2 C L 32;3HH2 C C 62;0.105817
3HH2 C L 32;3HH2 C K 63;18.9114
3HH2 C L 32;3HH2 C V 69;21.2979
3HH2 C L 32;3HH2 C D 70;2.25261
3HH2 C L 32;3HH2 C C 77;1.69556
3HH2 C L 32;3HH2 C P 85;20.6888
3HH2 C L 32;3HH2 C R 86;19.0777
3HH2 C L 32;3HH2 C C 87;23.7558
3HH2 C S 33;3HH2 C T 34;21.1409
3HH2 C S 33;3HH2 C S 35;8.45237
3HH2 C S 33;3HH2 C P 61;0.596385
3HH2 C S 33;3HH2 C R 86;0.53014
3HH2 C T 34;3HH2 C S 35;18.9423
3HH2 C T 34;3HH2 C P 61;2.36447
3HH2 C T 34;3HH2 C C 62;24.6438
3HH2 C T 34;3HH2 C K 63;1.12563
3HH2 C S 35;3HH2 C W 36;17.144
3HH2 C S 35;3HH2 C C 59;7.23281
3HH2 C S 35;3HH2 C I 60;5.73834
3HH2 C S 35;3HH2 C P 61;12.1038
3HH2 C S 35;3HH2 C C 62;6.77251
3HH2 C W 36;3HH2 C T 37;27.6548
3HH2 C W 36;3HH2 C E 38;29.0939
3HH2 C W 36;3HH2 C N 58;1.25523
3HH2 C W 36;3HH2 C C 59;1.45286
3HH2 C W 36;3HH2 C I 60;39.7159
3HH2 C W 36;3HH2 C C 62;1.82608
3HH2 C T 37;3HH2 C E 38;20.3585
3HH2 C T 37;3HH2 C E 39;13.3341
3HH2 C T 37;3HH2 C A 56;13.3301
3HH2 C T 37;3HH2 C P 57;10.766
3HH2 C T 37;3HH2 C N 58;8.64778
3HH2 C T 37;3HH2 C C 59;5.76257
3HH2 C T 37;3HH2 C I 60;1.36277
3HH2 C E 38;3HH2 C E 39;29.7462
3HH2 C E 38;3HH2 C D 40;7.21772
3HH2 C E 38;3HH2 C N 58;2.58543
3HH2 C E 38;3HH2 C I 60;10.7772
3HH2 C E 39;3HH2 C D 40;24.9436
3HH2 C E 39;3HH2 C V 41;20.4486
3HH2 C D 40;3HH2 C V 41;33.4232
3HH2 C V 41;3HH2 C N 42;35.8473
3HH2 C V 41;3HH2 C D 43;2.68681
3HH2 C V 41;3HH2 C T 45;24.0135
3HH2 C V 41;3HH2 C L 46;24.4019
3HH2 C V 41;3HH2 C W 49;0.518719
3HH2 C N 42;3HH2 C D 43;27.223
3HH2 C N 42;3HH2 C N 44;10.8506
3HH2 C N 42;3HH2 C T 45;25.3867
3HH2 C N 42;3HH2 C L 46;6.24192
3HH2 C D 43;3HH2 C N 44;24.2981
3HH2 C D 43;3HH2 C T 45;1.12234
3HH2 C D 43;3HH2 C L 46;13.598
3HH2 C D 43;3HH2 C F 47;23.5202
3HH2 C N 44;3HH2 C T 45;19.6972
3HH2 C N 44;3HH2 C L 46;0.670744
3HH2 C N 44;3HH2 C F 47;16.2977
3HH2 C N 44;3HH2 C K 48;7.30599
3HH2 C T 45;3HH2 C L 46;18.0249
3HH2 C T 45;3HH2 C F 47;0.720454
3HH2 C T 45;3HH2 C K 48;19.4415
3HH2 C T 45;3HH2 C W 49;26.3775
3HH2 C L 46;3HH2 C F 47;17.0975
3HH2 C L 46;3HH2 C K 48;0.882079
3HH2 C L 46;3HH2 C W 49;10.3057
3HH2 C L 46;3HH2 C M 50;31.1826
3HH2 C L 46;3HH2 C A 56;6.45415
3HH2 C F 47;3HH2 C K 48;17.8782
3HH2 C F 47;3HH2 C W 49;1.23074
3HH2 C F 47;3HH2 C M 50;23.3088
3HH2 C F 47;3HH2 C I 51;28.5624
3HH2 C F 47;3HH2 C F 52;2.64139
3HH2 C K 48;3HH2 C W 49;34.5664
3HH2 C K 48;3HH2 C M 50;0.158503
3HH2 C K 48;3HH2 C I 51;0.773429
3HH2 C K 48;3HH2 C F 52;14.8089
3HH2 C K 48;3HH2 C N 53;16.2927
3HH2 C W 49;3HH2 C M 50;19.3591
3HH2 C W 49;3HH2 C I 51;1.74821
3HH2 C W 49;3HH2 C F 52;0.85589
3HH2 C W 49;3HH2 C N 53;32.3149
3HH2 C W 49;3HH2 C G 54;1.96007
3HH2 C W 49;3HH2 C G 55;16.038
3HH2 C W 49;3HH2 C A 56;6.5397
3HH2 C W 49;3HH2 C P 57;28.9609
3HH2 C M 50;3HH2 C I 51;32.911
3HH2 C M 50;3HH2 C F 52;0.128458
3HH2 C M 50;3HH2 C N 53;0.0659149
3HH2 C M 50;3HH2 C G 54;5.73353
3HH2 C M 50;3HH2 C G 55;16.1546
3HH2 C M 50;3HH2 C A 56;6.01869
3HH2 C I 51;3HH2 C F 52;40.0564
3HH2 C I 51;3HH2 C N 53;1.07132
3HH2 C I 51;3HH2 C G 54;3.41651
3HH2 C F 52;3HH2 C N 53;33.3796
3HH2 C F 52;3HH2 C G 54;1.62777
3HH2 C N 53;3HH2 C G 54;25.1375
3HH2 C N 53;3HH2 C G 55;5.07388
3HH2 C G 54;3HH2 C G 55;18.9076
3HH2 C G 55;3HH2 C A 56;17.2549
3HH2 C G 55;3HH2 C P 57;2.89353
3HH2 C A 56;3HH2 C P 57;26.6084
3HH2 C A 56;3HH2 C C 59;4.48137
3HH2 C P 57;3HH2 C N 58;29.5538
3HH2 C P 57;3HH2 C C 59;3.6731
3HH2 C N 58;3HH2 C C 59;21.995
3HH2 C N 58;3HH2 C I 60;14.561
3HH2 C C 59;3HH2 C I 60;22.0226
3HH2 C C 59;3HH2 C P 61;7.8471
3HH2 C I 60;3HH2 C P 61;31.4888
3HH2 C I 60;3HH2 C C 62;2.78854
3HH2 C I 60;3HH2 C E 64;5.68309
3HH2 C P 61;3HH2 C C 62;21.2249
3HH2 C P 61;3HH2 C K 63;15.942
3HH2 C P 61;3HH2 C E 64;30.996
3HH2 C P 61;3HH2 C K 84;12.6514
3HH2 C C 62;3HH2 C K 63;39.8026
3HH2 C C 62;3HH2 C E 64;5.21794
3HH2 C K 63;3HH2 C E 64;23.3231
3HH2 C K 63;3HH2 C T 65;6.87198
3HH2 C K 63;3HH2 C E 67;8.87017
3HH2 C K 63;3HH2 C N 68;17.7938
3HH2 C K 63;3HH2 C V 69;16.5943
3HH2 C K 63;3HH2 C K 84;0.178838
3HH2 C K 63;3HH2 C P 85;16.0329
3HH2 C E 64;3HH2 C T 65;37.2105
3HH2 C E 64;3HH2 C M 79;6.12763
3HH2 C E 64;3HH2 C N 83;3.61887
3HH2 C E 64;3HH2 C K 84;8.67874
3HH2 C E 64;3HH2 C P 85;10.3451
3HH2 C T 65;3HH2 C C 66;20.3384
3HH2 C T 65;3HH2 C E 67;27.3759
3HH2 C T 65;3HH2 C V 69;4.89958
3HH2 C T 65;3HH2 C M 79;14.5515
3HH2 C T 65;3HH2 C P 85;10.6462
3HH2 C C 66;3HH2 C E 67;23.174
3HH2 C C 66;3HH2 C N 68;3.90397
3HH2 C C 66;3HH2 C V 69;15.1624
3HH2 C C 66;3HH2 C C 77;32.2175
3HH2 C C 66;3HH2 C R 78;7.53585
3HH2 C C 66;3HH2 C M 79;16.248
3HH2 C C 66;3HH2 C P 85;6.20349
3HH2 C E 67;3HH2 C N 68;39.3323
3HH2 C E 67;3HH2 C V 69;4.8131
3HH2 C N 68;3HH2 C V 69;22.1346
3HH2 C N 68;3HH2 C D 70;4.18142
3HH2 C V 69;3HH2 C D 70;25.0374
3HH2 C V 69;3HH2 C C 71;12.9677
3HH2 C V 69;3HH2 C C 77;16.7411
3HH2 C V 69;3HH2 C P 85;3.89055
3HH2 C V 69;3HH2 C C 87;6.6128
3HH2 C D 70;3HH2 C C 71;24.7526
3HH2 C D 70;3HH2 C G 72;18.264
3HH2 C D 70;3HH2 C C 87;0.649944
3HH2 C C 71;3HH2 C G 72;27.6684
3HH2 C C 71;3HH2 C P 73;0.567688
3HH2 C C 71;3HH2 C K 75;27.6314
3HH2 C C 71;3HH2 C K 76;8.30493
3HH2 C C 71;3HH2 C C 77;12.0724
3HH2 C C 71;3HH2 C R 86;0.248762
3HH2 C C 71;3HH2 C C 87;27.8414
3HH2 C G 72;3HH2 C P 73;35.5668
3HH2 C G 72;3HH2 C G 74;2.15191
3HH2 C G 72;3HH2 C K 75;13.8423
3HH2 C P 73;3HH2 C G 74;28.0423
3HH2 C P 73;3HH2 C K 75;11.3295
3HH2 C P 73;3HH2 C C 121;0.364995
3HH2 C G 74;3HH2 C K 75;23.9126
3HH2 C G 74;3HH2 C C 89;2.21338
3HH2 C G 74;3HH2 C A 90;18.2101
3HH2 C G 74;3HH2 C P 91;10.4352
3HH2 C G 74;3HH2 C D 92;1.67088
3HH2 C G 74;3HH2 C C 121;7.49555
3HH2 C K 75;3HH2 C K 76;24.1221
3HH2 C K 75;3HH2 C C 87;22.4107
3HH2 C K 75;3HH2 C V 88;11.3862
3HH2 C K 75;3HH2 C C 89;12.96
3HH2 C K 75;3HH2 C A 90;6.8505
3HH2 C K 75;3HH2 C C 121;19.3202
3HH2 C K 76;3HH2 C C 77;30.8428
3HH2 C K 76;3HH2 C R 78;18.0669
3HH2 C K 76;3HH2 C R 86;1.8102
3HH2 C K 76;3HH2 C C 87;2.8659
3HH2 C K 76;3HH2 C V 88;32.6782
3HH2 C K 76;3HH2 C C 89;2.36556
3HH2 C K 76;3HH2 C A 90;27.1073
3HH2 C C 77;3HH2 C R 78;22.1985
3HH2 C C 77;3HH2 C P 85;6.9986
3HH2 C C 77;3HH2 C R 86;10.9034
3HH2 C C 77;3HH2 C C 87;0.686377
3HH2 C R 78;3HH2 C M 79;39.1285
3HH2 C R 78;3HH2 C N 80;8.96549
3HH2 C R 78;3HH2 C K 84;1.00906
3HH2 C R 78;3HH2 C P 85;2.28541
3HH2 C R 78;3HH2 C R 86;18.9204
3HH2 C R 78;3HH2 C V 88;35.4645
3HH2 C M 79;3HH2 C N 80;27.7999
3HH2 C M 79;3HH2 C N 83;27.4713
3HH2 C M 79;3HH2 C K 84;10.2221
3HH2 C M 79;3HH2 C P 85;13.3455
3HH2 C N 80;3HH2 C K 81;31.7187
3HH2 C N 80;3HH2 C K 82;16.8679
3HH2 C N 80;3HH2 C N 83;13.6263
3HH2 C N 80;3HH2 C K 84;24.0506
3HH2 C N 80;3HH2 C R 86;29.2317
3HH2 C K 81;3HH2 C K 82;26.0968
3HH2 C K 81;3HH2 C N 83;6.64087
3HH2 C K 82;3HH2 C N 83;24.6886
3HH2 C K 82;3HH2 C K 84;18.0378
3HH2 C N 83;3HH2 C K 84;22.7139
3HH2 C N 83;3HH2 C P 85;0.0941627
3HH2 C K 84;3HH2 C P 85;30.4698
3HH2 C K 84;3HH2 C R 86;20.8442
3HH2 C P 85;3HH2 C R 86;27.4569
3HH2 C R 86;3HH2 C C 87;24.893
3HH2 C R 86;3HH2 C V 88;16.0601
3HH2 C C 87;3HH2 C V 88;25.2054
3HH2 C V 88;3HH2 C C 89;31.643
3HH2 C V 88;3HH2 C A 90;3.76106
3HH2 C C 89;3HH2 C A 90;19.7276
3HH2 C C 89;3HH2 C P 91;11.1831
3HH2 C C 89;3HH2 C K 118;22.0519
3HH2 C C 89;3HH2 C C 121;23.7623
3HH2 C C 89;3HH2 C K 122;17.864
3HH2 C A 90;3HH2 C P 91;29.4983
3HH2 C A 90;3HH2 C D 92;5.07302
3HH2 C P 91;3HH2 C D 92;26.6396
3HH2 C P 91;3HH2 C C 93;19.8708
3HH2 C P 91;3HH2 C C 114;4.70775
3HH2 C P 91;3HH2 C L 117;21.5993
3HH2 C P 91;3HH2 C K 118;19.6456
3HH2 C P 91;3HH2 C C 121;5.67056
3HH2 C D 92;3HH2 C C 93;21.7751
3HH2 C D 92;3HH2 C S 94;26.2048
3HH2 C D 92;3HH2 C N 95;7.66163
3HH2 C D 92;3HH2 C I 96;2.16881
3HH2 C D 92;3HH2 C L 117;8.52794
3HH2 C C 93;3HH2 C S 94;26.2892
3HH2 C C 93;3HH2 C N 95;2.62734
3HH2 C C 93;3HH2 C I 96;27.8134
3HH2 C C 93;3HH2 C C 114;30.7914
3HH2 C C 93;3HH2 C L 117;7.37729
3HH2 C S 94;3HH2 C N 95;39.3758
3HH2 C S 94;3HH2 C I 96;7.00094
3HH2 C N 95;3HH2 C I 96;28.9281
3HH2 C N 95;3HH2 C T 97;9.67659
3HH2 C I 96;3HH2 C T 97;27.2735
3HH2 C I 96;3HH2 C W 98;17.0806
3HH2 C I 96;3HH2 C K 99;18.0287
3HH2 C I 96;3HH2 C E 113;33.1345
3HH2 C I 96;3HH2 C C 114;8.60938
3HH2 C I 96;3HH2 C L 117;11.1228
3HH2 C T 97;3HH2 C W 98;31.1828
3HH2 C T 97;3HH2 C K 99;18.2582
3HH2 C W 98;3HH2 C K 99;29.2763
3HH2 C W 98;3HH2 C G 100;25.459
3HH2 C W 98;3HH2 C P 101;12.0276
3HH2 C W 98;3HH2 C V 102;11.9377
3HH2 C W 98;3HH2 C N 112;1.76872
3HH2 C W 98;3HH2 C E 113;16.0135
3HH2 C W 98;3HH2 C Q 132;45.4671
3HH2 C W 98;3HH2 C G 133;10.953
3HH2 C K 99;3HH2 C G 100;30.3098
3HH2 C K 99;3HH2 C R 111;1.07412
3HH2 C K 99;3HH2 C N 112;13.8466
3HH2 C G 100;3HH2 C P 101;27.4075
3HH2 C G 100;3HH2 C V 102;2.85826
3HH2 C G 100;3HH2 C R 111;3.09263
3HH2 C G 100;3HH2 C N 112;8.41019
3HH2 C G 100;3HH2 C E 113;1.86156
3HH2 C P 101;3HH2 C V 102;19.1113
3HH2 C P 101;3HH2 C T 109;7.6103
3HH2 C P 101;3HH2 C Y 110;6.43398
3HH2 C P 101;3HH2 C R 111;14.845
3HH2 C P 101;3HH2 C N 112;2.12697
3HH2 C P 101;3HH2 C Q 132;0.35081
3HH2 C P 101;3HH2 C G 133;18.0868
3HH2 C P 101;3HH2 C R 134;28.1325
3HH2 C V 102;3HH2 C C 103;19.2814
3HH2 C V 102;3HH2 C G 104;1.99669
3HH2 C V 102;3HH2 C K 108;0.65753
3HH2 C V 102;3HH2 C T 109;7.25314
3HH2 C V 102;3HH2 C Y 110;21.2484
3HH2 C V 102;3HH2 C N 112;7.3755
3HH2 C V 102;3HH2 C E 113;17.2501
3HH2 C V 102;3HH2 C L 116;11.1251
3HH2 C V 102;3HH2 C V 129;20.3874
3HH2 C V 102;3HH2 C Y 131;1.76903
3HH2 C V 102;3HH2 C Q 132;8.5556
3HH2 C V 102;3HH2 C G 133;8.16009
3HH2 C V 102;3HH2 C R 134;0.537631
3HH2 C V 102;3HH2 C C 135;0.00379705
3HH2 C C 103;3HH2 C G 104;20.7708
3HH2 C C 103;3HH2 C G 107;3.41924
3HH2 C C 103;3HH2 C K 108;1.55169
3HH2 C C 103;3HH2 C T 109;1.30119
3HH2 C C 103;3HH2 C L 116;0.412836
3HH2 C C 103;3HH2 C V 129;5.82085
3HH2 C C 103;3HH2 C Q 130;17.7476
3HH2 C C 103;3HH2 C Y 131;31.84
3HH2 C C 103;3HH2 C G 133;6.24856
3HH2 C C 103;3HH2 C R 134;2.04013
3HH2 C C 103;3HH2 C C 135;23.9252
3HH2 C C 103;3HH2 C A 158;1.65864
3HH2 C G 104;3HH2 C L 105;13.6946
3HH2 C G 104;3HH2 C D 106;7.42903
3HH2 C G 104;3HH2 C G 107;6.2356
3HH2 C G 104;3HH2 C K 108;8.23542
3HH2 C G 104;3HH2 C Y 110;6.81634
3HH2 C G 104;3HH2 C L 116;8.30104
3HH2 C G 104;3HH2 C L 127;4.23337
3HH2 C G 104;3HH2 C E 128;3.48739
3HH2 C G 104;3HH2 C V 129;1.61893
3HH2 C G 104;3HH2 C Q 130;8.61358
3HH2 C G 104;3HH2 C C 135;1.15665
3HH2 C L 105;3HH2 C D 106;19.9965
3HH2 C L 105;3HH2 C G 107;4.53571
3HH2 C L 105;3HH2 C Q 124;1.0463
3HH2 C L 105;3HH2 C E 126;14.8092
3HH2 C L 105;3HH2 C L 127;7.93604
3HH2 C L 105;3HH2 C E 128;33.6154
3HH2 C L 105;3HH2 C V 129;4.002
3HH2 C L 105;3HH2 C Q 130;28.4087
3HH2 C L 105;3HH2 C Y 159;9.11974
3HH2 C L 105;3HH2 C C 160;2.55178
3HH2 C D 106;3HH2 C G 107;20.2577
3HH2 C D 106;3HH2 C K 108;28.0407
3HH2 C D 106;3HH2 C Y 110;14.242
3HH2 C D 106;3HH2 C Q 124;18.1045
3HH2 C D 106;3HH2 C L 127;11.0711
3HH2 C D 106;3HH2 C Y 159;0.285102
3HH2 C G 107;3HH2 C K 108;23.0982
3HH2 C G 107;3HH2 C T 109;0.197075
3HH2 C G 107;3HH2 C Q 130;5.16488
3HH2 C G 107;3HH2 C C 135;17.2098
3HH2 C G 107;3HH2 C N 157;2.18983
3HH2 C G 107;3HH2 C A 158;0.567091
3HH2 C G 107;3HH2 C Y 159;13.2866
3HH2 C K 108;3HH2 C T 109;26.6689
3HH2 C K 108;3HH2 C Y 110;19.283
3HH2 C K 108;3HH2 C C 135;6.88326
3HH2 C T 109;3HH2 C Y 110;33.0315
3HH2 C T 109;3HH2 C R 111;1.55809
3HH2 C T 109;3HH2 C G 133;0.0112918
3HH2 C T 109;3HH2 C R 134;33.3712
3HH2 C T 109;3HH2 C C 135;20.0503
3HH2 C Y 110;3HH2 C R 111;24.3962
3HH2 C Y 110;3HH2 C N 112;7.57672
3HH2 C Y 110;3HH2 C A 115;12.1779
3HH2 C Y 110;3HH2 C L 116;21.1698
3HH2 C Y 110;3HH2 C A 119;16.1058
3HH2 C Y 110;3HH2 C Q 124;5.21672
3HH2 C Y 110;3HH2 C L 127;14.4181
3HH2 C R 111;3HH2 C N 112;43.5942
3HH2 C R 111;3HH2 C A 115;15.0345
3HH2 C R 111;3HH2 C R 134;2.16275
3HH2 C N 112;3HH2 C E 113;20.3906
3HH2 C N 112;3HH2 C C 114;17.3477
3HH2 C N 112;3HH2 C A 115;19.0071
3HH2 C N 112;3HH2 C L 116;4.89329
3HH2 C E 113;3HH2 C C 114;18.7196
3HH2 C E 113;3HH2 C A 115;0.905396
3HH2 C E 113;3HH2 C L 116;12.6082
3HH2 C E 113;3HH2 C L 117;24.1721
3HH2 C E 113;3HH2 C V 129;17.8359
3HH2 C E 113;3HH2 C Q 132;1.07566
3HH2 C C 114;3HH2 C A 115;16.767
3HH2 C C 114;3HH2 C L 116;0.7149
3HH2 C C 114;3HH2 C L 117;9.04422
3HH2 C C 114;3HH2 C K 118;20.4098
3HH2 C A 115;3HH2 C L 116;15.8036
3HH2 C A 115;3HH2 C L 117;0.734486
3HH2 C A 115;3HH2 C K 118;20.3297
3HH2 C A 115;3HH2 C A 119;10.0481
3HH2 C L 116;3HH2 C L 117;28.8907
3HH2 C L 116;3HH2 C K 118;1.35177
3HH2 C L 116;3HH2 C A 119;6.33606
3HH2 C L 116;3HH2 C R 120;11.2751
3HH2 C L 116;3HH2 C L 127;23.3531
3HH2 C L 116;3HH2 C E 128;11.5577
3HH2 C L 116;3HH2 C V 129;18.6701
3HH2 C L 117;3HH2 C K 118;16.1608
3HH2 C L 117;3HH2 C A 119;0.360276
3HH2 C L 117;3HH2 C R 120;24.5452
3HH2 C L 117;3HH2 C C 121;11.0363
3HH2 C K 118;3HH2 C A 119;18.8255
3HH2 C K 118;3HH2 C R 120;1.20793
3HH2 C K 118;3HH2 C C 121;7.15467
3HH2 C K 118;3HH2 C K 122;18.5955
3HH2 C A 119;3HH2 C R 120;16.2224
3HH2 C A 119;3HH2 C C 121;0.512591
3HH2 C A 119;3HH2 C K 122;10.185
3HH2 C A 119;3HH2 C E 123;12.0072
3HH2 C A 119;3HH2 C Q 124;9.60588
3HH2 C A 119;3HH2 C L 127;9.52257
3HH2 C R 120;3HH2 C C 121;27.2957
3HH2 C R 120;3HH2 C K 122;1.06719
3HH2 C R 120;3HH2 C E 123;2.71033
3HH2 C R 120;3HH2 C Q 124;12.3874
3HH2 C R 120;3HH2 C P 125;29.8738
3HH2 C R 120;3HH2 C E 126;6.78351
3HH2 C R 120;3HH2 C L 127;28.0597
3HH2 C R 120;3HH2 C E 128;18.5607
3HH2 C C 121;3HH2 C K 122;22.1815
3HH2 C C 121;3HH2 C E 123;0.81815
3HH2 C C 121;3HH2 C P 125;1.11379
3HH2 C K 122;3HH2 C E 123;33.2679
3HH2 C E 123;3HH2 C Q 124;25.0688
3HH2 C E 123;3HH2 C P 125;14.6744
3HH2 C Q 124;3HH2 C P 125;19.5615
3HH2 C Q 124;3HH2 C E 126;12.4148
3HH2 C Q 124;3HH2 C L 127;32.9569
3HH2 C P 125;3HH2 C E 126;26.4068
3HH2 C P 125;3HH2 C L 127;1.80942
3HH2 C E 126;3HH2 C L 127;19.1104
3HH2 C E 126;3HH2 C E 128;3.35695
3HH2 C L 127;3HH2 C E 128;25.3045
3HH2 C E 128;3HH2 C V 129;27.2244
3HH2 C E 128;3HH2 C Q 130;1.61453
3HH2 C V 129;3HH2 C Q 130;23.5641
3HH2 C V 129;3HH2 C Y 131;12.4275
3HH2 C V 129;3HH2 C Q 132;9.62438
3HH2 C V 129;3HH2 C P 145;0.147834
3HH2 C Q 130;3HH2 C Y 131;32.2625
3HH2 C Q 130;3HH2 C P 145;13.1232
3HH2 C Q 130;3HH2 C A 158;3.7216
3HH2 C Q 130;3HH2 C Y 159;19.5178
3HH2 C Q 130;3HH2 C C 160;26.2265
3HH2 C Q 130;3HH2 C V 161;0.193586
3HH2 C Y 131;3HH2 C Q 132;36.2392
3HH2 C Y 131;3HH2 C G 133;1.73619
3HH2 C Y 131;3HH2 C R 134;6.77059
3HH2 C Y 131;3HH2 C C 135;5.97039
3HH2 C Y 131;3HH2 C K 136;16.8642
3HH2 C Y 131;3HH2 C V 142;17.8666
3HH2 C Y 131;3HH2 C F 143;6.86826
3HH2 C Y 131;3HH2 C C 144;0.59798
3HH2 C Y 131;3HH2 C P 145;13.7766
3HH2 C Y 131;3HH2 C A 158;18.2662
3HH2 C Y 131;3HH2 C Y 159;3.29722
3HH2 C Y 131;3HH2 C C 160;17.1708
3HH2 C Q 132;3HH2 C G 133;26.1231
3HH2 C Q 132;3HH2 C R 134;1.35927
3HH2 C Q 132;3HH2 C P 145;1.99136
3HH2 C G 133;3HH2 C R 134;27.0799
3HH2 C G 133;3HH2 C C 135;0.000980878
3HH2 C G 133;3HH2 C K 136;1.83412
3HH2 C R 134;3HH2 C C 135;25.5481
3HH2 C R 134;3HH2 C K 136;28.2388
3HH2 C C 135;3HH2 C K 136;32.0953
3HH2 C C 135;3HH2 C A 158;0.35617
3HH2 C K 136;3HH2 C K 137;33.1642
3HH2 C K 136;3HH2 C T 138;3.94968
3HH2 C K 136;3HH2 C R 140;2.07081
3HH2 C K 136;3HH2 C D 141;2.98572
3HH2 C K 136;3HH2 C V 142;17.1791
3HH2 C K 136;3HH2 C N 157;7.53205
3HH2 C K 136;3HH2 C A 158;15.344
3HH2 C K 137;3HH2 C T 138;37.7511
3HH2 C K 137;3HH2 C R 140;1.00868
3HH2 C K 137;3HH2 C T 155;20.2231
3HH2 C K 137;3HH2 C N 156;18.4193
3HH2 C K 137;3HH2 C N 157;22.1968
3HH2 C K 137;3HH2 C A 158;0.403735
3HH2 C T 138;3HH2 C C 139;20.0307
3HH2 C T 138;3HH2 C R 140;22.8468
3HH2 C T 138;3HH2 C V 142;5.11256
3HH2 C T 138;3HH2 C V 152;9.65264
3HH2 C T 138;3HH2 C N 156;29.7068
3HH2 C T 138;3HH2 C A 158;9.55087
3HH2 C C 139;3HH2 C R 140;22.7286
3HH2 C C 139;3HH2 C D 141;4.12254
3HH2 C C 139;3HH2 C V 142;18.6204
3HH2 C C 139;3HH2 C C 150;27.3551
3HH2 C C 139;3HH2 C V 151;7.61805
3HH2 C C 139;3HH2 C V 152;12.7633
3HH2 C C 139;3HH2 C A 158;4.07173
3HH2 C C 139;3HH2 C G 199;4.70244
3HH2 C R 140;3HH2 C D 141;50.6544
3HH2 C R 140;3HH2 C V 142;8.74383
3HH2 C D 141;3HH2 C V 142;24.5072
3HH2 C D 141;3HH2 C F 143;31.6198
3HH2 C V 142;3HH2 C F 143;31.9468
3HH2 C V 142;3HH2 C C 144;9.17155
3HH2 C V 142;3HH2 C C 150;18.6236
3HH2 C V 142;3HH2 C A 158;7.90434
3HH2 C V 142;3HH2 C Y 159;0.0794485
3HH2 C V 142;3HH2 C C 160;7.53638
3HH2 C F 143;3HH2 C C 144;28.6017
3HH2 C F 143;3HH2 C P 145;4.78504
3HH2 C F 143;3HH2 C C 160;0.215251
3HH2 C C 144;3HH2 C P 145;25.2005
3HH2 C C 144;3HH2 C G 146;9.05984
3HH2 C C 144;3HH2 C S 148;16.9042
3HH2 C C 144;3HH2 C T 149;9.11594
3HH2 C C 144;3HH2 C C 150;13.1042
3HH2 C C 144;3HH2 C Y 159;0.344703
3HH2 C C 144;3HH2 C C 160;21.1405
3HH2 C P 145;3HH2 C G 146;29.5774
3HH2 C P 145;3HH2 C S 147;1.16333
3HH2 C P 145;3HH2 C S 148;21.0728
3HH2 C P 145;3HH2 C C 160;6.20799
3HH2 C G 146;3HH2 C S 147;28.7322
3HH2 C G 146;3HH2 C S 148;4.95602
3HH2 C S 147;3HH2 C S 148;30.3405
3HH2 C S 147;3HH2 C T 149;8.31438
3HH2 C S 147;3HH2 C T 162;8.2363
3HH2 C S 147;3HH2 C C 163;0.948847
3HH2 C S 148;3HH2 C T 149;22.8683
3HH2 C S 148;3HH2 C C 160;10.223
3HH2 C S 148;3HH2 C V 161;12.0705
3HH2 C S 148;3HH2 C T 162;15.7613
3HH2 C S 148;3HH2 C C 163;0.000418407
3HH2 C T 149;3HH2 C C 150;31.3447
3HH2 C T 149;3HH2 C V 151;4.09846
3HH2 C T 149;3HH2 C Y 159;1.93016
3HH2 C T 149;3HH2 C C 160;3.1721
3HH2 C T 149;3HH2 C V 161;22.1153
3HH2 C T 149;3HH2 C C 163;15.6142
3HH2 C T 149;3HH2 C C 196;7.7556
3HH2 C T 149;3HH2 C L 197;14.9116
3HH2 C T 149;3HH2 C G 199;0.149119
3HH2 C C 150;3HH2 C V 151;20.6142
3HH2 C C 150;3HH2 C A 158;7.1981
3HH2 C C 150;3HH2 C Y 159;9.80274
3HH2 C C 150;3HH2 C C 160;0.871298
3HH2 C C 150;3HH2 C C 196;1.23188
3HH2 C C 150;3HH2 C G 199;10.2445
3HH2 C V 151;3HH2 C V 152;21.8889
3HH2 C V 151;3HH2 C N 157;0.572704
3HH2 C V 151;3HH2 C A 158;3.50393
3HH2 C V 151;3HH2 C Y 159;23.0774
3HH2 C V 151;3HH2 C V 161;16.2273
3HH2 C V 151;3HH2 C T 195;0.566257
3HH2 C V 151;3HH2 C C 196;18.2384
3HH2 C V 151;3HH2 C G 199;13.6267
3HH2 C V 151;3HH2 C R 200;0.00655129
3HH2 C V 152;3HH2 C D 153;28.4785
3HH2 C V 152;3HH2 C N 156;23.1801
3HH2 C V 152;3HH2 C N 157;8.40062
3HH2 C V 152;3HH2 C A 158;5.42393
3HH2 C V 152;3HH2 C Y 159;1.41008
3HH2 C V 152;3HH2 C G 199;11.581
3HH2 C V 152;3HH2 C R 200;18.3724
3HH2 C V 152;3HH2 C S 201;2.31349
3HH2 C D 153;3HH2 C Q 154;28.8577
3HH2 C D 153;3HH2 C T 155;12.1507
3HH2 C D 153;3HH2 C N 156;9.64361
3HH2 C D 153;3HH2 C N 157;23.3004
3HH2 C D 153;3HH2 C Y 159;16.2639
3HH2 C D 153;3HH2 C S 201;0.06641
3HH2 C Q 154;3HH2 C T 155;36.4331
3HH2 C Q 154;3HH2 C N 156;3.33858
3HH2 C T 155;3HH2 C N 156;23.6141
3HH2 C T 155;3HH2 C N 157;16.485
3HH2 C N 156;3HH2 C N 157;16.3135
3HH2 C N 156;3HH2 C A 158;1.08174
3HH2 C N 157;3HH2 C A 158;19.7436
3HH2 C N 157;3HH2 C Y 159;21.7165
3HH2 C A 158;3HH2 C Y 159;23.8615
3HH2 C Y 159;3HH2 C C 160;18.1781
3HH2 C Y 159;3HH2 C V 161;10.7137
3HH2 C C 160;3HH2 C V 161;26.6405
3HH2 C V 161;3HH2 C T 162;28.4808
3HH2 C V 161;3HH2 C C 163;4.66733
3HH2 C V 161;3HH2 C C 196;10.5642
3HH2 C T 162;3HH2 C C 163;37.0942
3HH2 C T 162;3HH2 C N 164;2.12853
3HH2 C T 162;3HH2 C C 196;0.523946
3HH2 C C 163;3HH2 C N 164;26.0884
3HH2 C C 163;3HH2 C R 165;19.2193
3HH2 C C 163;3HH2 C K 193;5.6491
3HH2 C C 163;3HH2 C C 196;30.7515
3HH2 C C 163;3HH2 C L 197;18.0048
3HH2 C N 164;3HH2 C R 165;18.5716
3HH2 C N 164;3HH2 C I 166;22.5658
3HH2 C N 164;3HH2 C C 167;3.4367
3HH2 C N 164;3HH2 C P 168;2.17986
3HH2 C N 164;3HH2 C C 189;18.0167
3HH2 C N 164;3HH2 C K 193;16.3924
3HH2 C N 164;3HH2 C C 196;0.439406
3HH2 C R 165;3HH2 C I 166;39.2524
3HH2 C R 165;3HH2 C C 167;2.8845
3HH2 C R 165;3HH2 C K 193;26.7121
3HH2 C R 165;3HH2 C L 197;0.502587
3HH2 C I 166;3HH2 C C 167;33.7618
3HH2 C I 166;3HH2 C P 168;6.77026
3HH2 C I 166;3HH2 C C 189;0.488113
3HH2 C C 167;3HH2 C P 168;32.0019
3HH2 C C 167;3HH2 C E 169;10.263
3HH2 C C 167;3HH2 C S 187;0.894306
3HH2 C C 167;3HH2 C C 189;25.0887
3HH2 C C 167;3HH2 C H 190;25.6571
3HH2 C C 167;3HH2 C K 193;12.6077
3HH2 C P 168;3HH2 C E 169;36.5603
3HH2 C P 168;3HH2 C S 187;2.12785
3HH2 C P 168;3HH2 C C 189;13.5788
3HH2 C P 168;3HH2 C H 190;6.10846
3HH2 C E 169;3HH2 C H 190;2.32822
3HH2 C Q 175;3HH2 C Y 176;36.8956
3HH2 C Q 175;3HH2 C L 177;11.414
3HH2 C Q 175;3HH2 C Y 185;0.088916
3HH2 C Q 175;3HH2 C S 186;15.1392
3HH2 C Q 175;3HH2 C S 187;24.292
3HH2 C Q 175;3HH2 C A 188;6.6597
3HH2 C Y 176;3HH2 C L 177;22.2838
3HH2 C Y 176;3HH2 C T 184;13.7636
3HH2 C Y 176;3HH2 C Y 185;6.85228
3HH2 C Y 176;3HH2 C S 186;25.6118
3HH2 C Y 176;3HH2 C E 207;1.68398
3HH2 C Y 176;3HH2 C G 208;22.1619
3HH2 C Y 176;3HH2 C K 209;32.9027
3HH2 C L 177;3HH2 C C 178;18.88
3HH2 C L 177;3HH2 C G 179;1.0076
3HH2 C L 177;3HH2 C V 183;0.893572
3HH2 C L 177;3HH2 C T 184;6.78447
3HH2 C L 177;3HH2 C Y 185;24.5796
3HH2 C L 177;3HH2 C S 187;6.61618
3HH2 C L 177;3HH2 C A 188;18.3637
3HH2 C L 177;3HH2 C L 191;14.7524
3HH2 C L 177;3HH2 C L 204;22.6297
3HH2 C L 177;3HH2 C Y 206;1.98106
3HH2 C L 177;3HH2 C E 207;17.344
3HH2 C L 177;3HH2 C G 208;8.58123
3HH2 C L 177;3HH2 C K 209;0.324927
3HH2 C L 177;3HH2 C C 210;0.0929255
3HH2 C C 178;3HH2 C G 179;24.2761
3HH2 C C 178;3HH2 C G 182;4.22108
3HH2 C C 178;3HH2 C V 183;1.91745
3HH2 C C 178;3HH2 C T 184;1.11373
3HH2 C C 178;3HH2 C L 191;0.265002
3HH2 C C 178;3HH2 C L 204;7.25313
3HH2 C C 178;3HH2 C A 205;14.291
3HH2 C C 178;3HH2 C Y 206;33.336
3HH2 C C 178;3HH2 C G 208;6.29508
3HH2 C C 178;3HH2 C K 209;1.05294
3HH2 C C 178;3HH2 C C 210;24.0997
3HH2 C C 178;3HH2 C R 235;0.546732
3HH2 C G 179;3HH2 C N 180;15.1316
3HH2 C G 179;3HH2 C D 181;8.89563
3HH2 C G 179;3HH2 C G 182;7.98041
3HH2 C G 179;3HH2 C V 183;7.8272
3HH2 C G 179;3HH2 C Y 185;8.51132
3HH2 C G 179;3HH2 C L 191;7.66612
3HH2 C G 179;3HH2 C I 202;3.27072
3HH2 C G 179;3HH2 C G 203;4.86531
3HH2 C G 179;3HH2 C L 204;1.96408
3HH2 C G 179;3HH2 C A 205;7.92233
3HH2 C G 179;3HH2 C C 210;1.07339
3HH2 C G 179;3HH2 C R 235;0.585641
3HH2 C N 180;3HH2 C D 181;18.2311
3HH2 C N 180;3HH2 C G 182;2.94249
3HH2 C N 180;3HH2 C I 202;18.9603
3HH2 C N 180;3HH2 C G 203;17.0015
3HH2 C N 180;3HH2 C L 204;7.12752
3HH2 C N 180;3HH2 C A 205;18.2931
3HH2 C N 180;3HH2 C V 233;1.62612
3HH2 C N 180;3HH2 C R 235;17.9244
3HH2 C N 180;3HH2 C G 236;1.46159
3HH2 C N 180;3HH2 C R 237;37.3226
3HH2 C D 181;3HH2 C G 182;19.7324
3HH2 C D 181;3HH2 C V 183;27.7549
3HH2 C D 181;3HH2 C Y 185;13.4314
3HH2 C D 181;3HH2 C I 202;25.6247
3HH2 C D 181;3HH2 C R 235;15.3849
3HH2 C G 182;3HH2 C V 183;22.0532
3HH2 C G 182;3HH2 C T 184;1.35161
3HH2 C G 182;3HH2 C C 210;17.2989
3HH2 C G 182;3HH2 C R 235;19.0728
3HH2 C V 183;3HH2 C T 184;31.0657
3HH2 C V 183;3HH2 C Y 185;29.451
3HH2 C V 183;3HH2 C C 210;6.76405
3HH2 C T 184;3HH2 C Y 185;29.1453
3HH2 C T 184;3HH2 C S 186;1.5233
3HH2 C T 184;3HH2 C G 208;0.0626521
3HH2 C T 184;3HH2 C K 209;17.4066
3HH2 C T 184;3HH2 C C 210;21.1741
3HH2 C Y 185;3HH2 C S 186;21.462
3HH2 C Y 185;3HH2 C S 187;9.61671
3HH2 C Y 185;3HH2 C H 190;15.1891
3HH2 C Y 185;3HH2 C L 191;29.903
3HH2 C Y 185;3HH2 C A 194;17.9368
3HH2 C Y 185;3HH2 C I 202;8.44486
3HH2 C S 186;3HH2 C S 187;23.3447
3HH2 C S 186;3HH2 C H 190;21.7317
3HH2 C S 187;3HH2 C A 188;21.0515
3HH2 C S 187;3HH2 C C 189;13.6959
3HH2 C S 187;3HH2 C H 190;24.2275
3HH2 C S 187;3HH2 C L 191;6.52822
3HH2 C A 188;3HH2 C C 189;20.3384
3HH2 C A 188;3HH2 C H 190;1.20701
3HH2 C A 188;3HH2 C L 191;9.17537
3HH2 C A 188;3HH2 C R 192;31.8063
3HH2 C C 189;3HH2 C H 190;15.0394
3HH2 C C 189;3HH2 C L 191;0.317031
3HH2 C C 189;3HH2 C R 192;16.5643
3HH2 C C 189;3HH2 C K 193;10.8813
3HH2 C H 190;3HH2 C L 191;15.9498
3HH2 C H 190;3HH2 C R 192;0.961328
3HH2 C H 190;3HH2 C K 193;18.8982
3HH2 C H 190;3HH2 C A 194;10.511
3HH2 C L 191;3HH2 C R 192;19.8497
3HH2 C L 191;3HH2 C K 193;0.703427
3HH2 C L 191;3HH2 C A 194;6.77499
3HH2 C L 191;3HH2 C T 195;17.1538
3HH2 C L 191;3HH2 C I 202;14.1211
3HH2 C L 191;3HH2 C G 203;7.46876
3HH2 C L 191;3HH2 C L 204;10.4331
3HH2 C R 192;3HH2 C K 193;20.1176
3HH2 C R 192;3HH2 C A 194;0.717103
3HH2 C R 192;3HH2 C T 195;9.55985
3HH2 C R 192;3HH2 C C 196;9.82221
3HH2 C K 193;3HH2 C A 194;19.9109
3HH2 C K 193;3HH2 C T 195;1.20189
3HH2 C K 193;3HH2 C C 196;10.2184
3HH2 C K 193;3HH2 C L 197;33.0547
3HH2 C A 194;3HH2 C T 195;15.5434
3HH2 C A 194;3HH2 C C 196;0.569835
3HH2 C A 194;3HH2 C L 197;14.3675
3HH2 C A 194;3HH2 C L 198;11.9662
3HH2 C A 194;3HH2 C I 202;10.8776
3HH2 C T 195;3HH2 C C 196;19.2196
3HH2 C T 195;3HH2 C L 197;0.991519
3HH2 C T 195;3HH2 C L 198;7.50376
3HH2 C T 195;3HH2 C G 199;5.02735
3HH2 C T 195;3HH2 C R 200;12.9709
3HH2 C T 195;3HH2 C S 201;5.70842
3HH2 C T 195;3HH2 C I 202;20.1546
3HH2 C T 195;3HH2 C G 203;0.897233
3HH2 C C 196;3HH2 C L 197;19.0408
3HH2 C C 196;3HH2 C L 198;0.671158
3HH2 C C 196;3HH2 C G 199;6.97939
3HH2 C L 197;3HH2 C L 198;26.3471
3HH2 C L 197;3HH2 C G 199;3.80147
3HH2 C L 198;3HH2 C G 199;21.5664
3HH2 C L 198;3HH2 C R 200;51.103
3HH2 C L 198;3HH2 C S 201;3.41447
3HH2 C L 198;3HH2 C I 202;21.1329
3HH2 C G 199;3HH2 C R 200;22.7785
3HH2 C R 200;3HH2 C S 201;33.1706
3HH2 C R 200;3HH2 C I 202;3.05716
3HH2 C S 201;3HH2 C I 202;27.3826
3HH2 C S 201;3HH2 C G 203;3.72066
3HH2 C I 202;3HH2 C G 203;28.5194
3HH2 C G 203;3HH2 C L 204;17.6843
3HH2 C G 203;3HH2 C A 205;1.09681
3HH2 C L 204;3HH2 C A 205;22.5449
3HH2 C L 204;3HH2 C Y 206;14.7544
3HH2 C L 204;3HH2 C E 207;15.6888
3HH2 C L 204;3HH2 C K 225;5.82918
3HH2 C L 204;3HH2 C R 237;5.74253
3HH2 C L 204;3HH2 C C 238;3.44375
3HH2 C A 205;3HH2 C Y 206;29.7784
3HH2 C A 205;3HH2 C G 236;8.22138
3HH2 C A 205;3HH2 C R 237;11.1806
3HH2 C A 205;3HH2 C C 238;13.1864
3HH2 C Y 206;3HH2 C E 207;39.451
3HH2 C Y 206;3HH2 C G 208;3.64781
3HH2 C Y 206;3HH2 C K 209;9.13233
3HH2 C Y 206;3HH2 C C 210;6.27602
3HH2 C Y 206;3HH2 C I 211;23.4985
3HH2 C Y 206;3HH2 C A 213;0.582534
3HH2 C Y 206;3HH2 C I 219;25.127
3HH2 C Y 206;3HH2 C K 225;0.143644
3HH2 C Y 206;3HH2 C G 236;10.2454
3HH2 C Y 206;3HH2 C R 237;3.4466
3HH2 C Y 206;3HH2 C C 238;19.395
3HH2 C E 207;3HH2 C G 208;28.3961
3HH2 C E 207;3HH2 C K 209;0.210194
3HH2 C E 207;3HH2 C T 222;19.4602
3HH2 C E 207;3HH2 C K 225;24.1974
3HH2 C E 207;3HH2 C C 238;3.55734
3HH2 C G 208;3HH2 C K 209;26.7931
3HH2 C G 208;3HH2 C C 210;0.254652
3HH2 C K 209;3HH2 C C 210;26.4687
3HH2 C K 209;3HH2 C I 211;10.7283
3HH2 C C 210;3HH2 C I 211;30.9438
3HH2 C I 211;3HH2 C K 212;30.2635
3HH2 C I 211;3HH2 C A 213;21.3412
3HH2 C I 211;3HH2 C D 218;19.6866
3HH2 C I 211;3HH2 C I 219;13.0371
3HH2 C K 212;3HH2 C A 213;27.9628
3HH2 C K 212;3HH2 C K 214;8.85783
3HH2 C K 212;3HH2 C D 218;1.02861
3HH2 C A 213;3HH2 C K 214;21.4809
3HH2 C A 213;3HH2 C S 215;5.42722
3HH2 C A 213;3HH2 C D 218;13.2971
3HH2 C A 213;3HH2 C I 219;11.6572
3HH2 C A 213;3HH2 C W 229;14.67
3HH2 C A 213;3HH2 C G 234;7.14271
3HH2 C A 213;3HH2 C R 235;0.468057
3HH2 C A 213;3HH2 C G 236;1.08151
3HH2 C K 214;3HH2 C S 215;32.0796
3HH2 C K 214;3HH2 C D 218;24.4992
3HH2 C K 214;3HH2 C W 229;14.1901
3HH2 C S 215;3HH2 C C 216;21.5411
3HH2 C S 215;3HH2 C E 217;22.521
3HH2 C S 215;3HH2 C D 218;13.5507
3HH2 C S 215;3HH2 C I 219;4.12862
3HH2 C S 215;3HH2 C W 229;18.0363
3HH2 C C 216;3HH2 C E 217;24.2767
3HH2 C C 216;3HH2 C D 218;1.98855
3HH2 C C 216;3HH2 C I 219;19.3749
3HH2 C C 216;3HH2 C C 227;32.2833
3HH2 C C 216;3HH2 C L 228;2.64485
3HH2 C C 216;3HH2 C W 229;21.3015
3HH2 C C 216;3HH2 C G 236;0.0708671
3HH2 C C 216;3HH2 C G 276;4.97522
3HH2 C E 217;3HH2 C D 218;28.0406
3HH2 C E 217;3HH2 C I 219;6.72499
3HH2 C D 218;3HH2 C I 219;19.1716
3HH2 C D 218;3HH2 C Q 220;4.02364
3HH2 C I 219;3HH2 C Q 220;31.1136
3HH2 C I 219;3HH2 C C 221;11.5739
3HH2 C I 219;3HH2 C C 227;18.3705
3HH2 C I 219;3HH2 C W 229;5.65558
3HH2 C I 219;3HH2 C G 236;12.5359
3HH2 C I 219;3HH2 C R 237;1.91527
3HH2 C I 219;3HH2 C C 238;10.5113
3HH2 C Q 220;3HH2 C C 221;28.7723
3HH2 C Q 220;3HH2 C T 222;11.3881
3HH2 C Q 220;3HH2 C C 238;0.0438859
3HH2 C C 221;3HH2 C T 222;33.1085
3HH2 C C 221;3HH2 C K 225;17.8551
3HH2 C C 221;3HH2 C K 226;5.45562
3HH2 C C 221;3HH2 C C 227;14.6254
3HH2 C C 221;3HH2 C C 238;24.6106
3HH2 C T 222;3HH2 C G 223;28.5221
3HH2 C T 222;3HH2 C G 224;4.07692
3HH2 C T 222;3HH2 C K 225;21.6239
3HH2 C T 222;3HH2 C C 238;1.49131
3HH2 C G 223;3HH2 C G 224;22.925
3HH2 C G 223;3HH2 C K 225;13.8094
3HH2 C G 223;3HH2 C L 240;6.64342
3HH2 C G 224;3HH2 C K 225;25.9555
3HH2 C G 224;3HH2 C K 226;0.485754
3HH2 C G 224;3HH2 C L 240;12.1677
3HH2 C K 225;3HH2 C K 226;24.8233
3HH2 C K 225;3HH2 C C 238;24.0803
3HH2 C K 225;3HH2 C S 239;11.5145
3HH2 C K 225;3HH2 C L 240;27.4787
3HH2 C K 226;3HH2 C C 227;30.4882
3HH2 C K 226;3HH2 C L 228;11.6448
3HH2 C K 226;3HH2 C R 237;1.4247
3HH2 C K 226;3HH2 C C 238;3.41918
3HH2 C K 226;3HH2 C S 239;16.0723
3HH2 C K 226;3HH2 C L 240;0.916593
3HH2 C K 226;3HH2 C C 241;16.8108
3HH2 C K 226;3HH2 C C 273;15.5779
3HH2 C K 226;3HH2 C S 274;14.9998
3HH2 C K 226;3HH2 C S 275;0.966254
3HH2 C K 226;3HH2 C G 276;12.1832
3HH2 C C 227;3HH2 C L 228;21.1395
3HH2 C C 227;3HH2 C W 229;0.963317
3HH2 C C 227;3HH2 C G 236;3.36851
3HH2 C C 227;3HH2 C R 237;9.90714
3HH2 C C 227;3HH2 C C 238;1.9947
3HH2 C C 227;3HH2 C G 276;8.7666
3HH2 C L 228;3HH2 C W 229;16.2047
3HH2 C L 228;3HH2 C D 230;2.52395
3HH2 C L 228;3HH2 C R 235;0.314187
3HH2 C L 228;3HH2 C G 236;4.72516
3HH2 C L 228;3HH2 C R 237;24.3426
3HH2 C L 228;3HH2 C S 239;19.1864
3HH2 C L 228;3HH2 C C 241;6.56751
3HH2 C L 228;3HH2 C A 272;15.9983
3HH2 C L 228;3HH2 C C 273;15.4046
3HH2 C L 228;3HH2 C G 276;11.0774
3HH2 C L 228;3HH2 C V 277;4.95542
3HH2 C L 228;3HH2 C L 278;27.0487
3HH2 C W 229;3HH2 C D 230;23.0337
3HH2 C W 229;3HH2 C F 231;41.8139
3HH2 C W 229;3HH2 C G 234;20.6715
3HH2 C W 229;3HH2 C R 235;12.4305
3HH2 C W 229;3HH2 C G 236;13.5441
3HH2 C W 229;3HH2 C G 276;11.719
3HH2 C W 229;3HH2 C V 277;7.96885
3HH2 C W 229;3HH2 C L 278;12.6561
3HH2 C D 230;3HH2 C F 231;18.7255
3HH2 C D 230;3HH2 C K 232;17.7452
3HH2 C D 230;3HH2 C V 233;27.4763
3HH2 C D 230;3HH2 C G 234;6.72793
3HH2 C D 230;3HH2 C R 235;19.4576
3HH2 C D 230;3HH2 C G 236;0.017821
3HH2 C D 230;3HH2 C R 237;11.5827
3HH2 C D 230;3HH2 C L 278;29.1512
3HH2 C F 231;3HH2 C K 232;29.9224
3HH2 C F 231;3HH2 C V 233;1.04554
3HH2 C F 231;3HH2 C G 234;8.59614
3HH2 C F 231;3HH2 C V 277;26.3964
3HH2 C F 231;3HH2 C L 278;0.981181
3HH2 C K 232;3HH2 C V 233;33.6184
3HH2 C K 232;3HH2 C G 234;0.604895
3HH2 C K 232;3HH2 C S 257;19.8764
3HH2 C K 232;3HH2 C E 280;1.54782
3HH2 C V 233;3HH2 C G 234;25.418
3HH2 C V 233;3HH2 C R 235;46.0518
3HH2 C G 234;3HH2 C R 235;24.4541
3HH2 C R 235;3HH2 C G 236;30.0884
3HH2 C R 235;3HH2 C R 237;0.60927
3HH2 C G 236;3HH2 C R 237;21.9169
3HH2 C R 237;3HH2 C C 238;24.6665
3HH2 C R 237;3HH2 C S 239;15.2644
3HH2 C R 237;3HH2 C L 278;31.376
3HH2 C R 237;3HH2 C E 280;8.50123
3HH2 C C 238;3HH2 C S 239;20.5169
3HH2 C S 239;3HH2 C L 240;24.0292
3HH2 C S 239;3HH2 C C 241;15.4696
3HH2 C S 239;3HH2 C C 273;1.96847
3HH2 C S 239;3HH2 C L 278;0.0570621
3HH2 C L 240;3HH2 C C 241;28.2965
3HH2 C L 240;3HH2 C D 242;19.0625
3HH2 C C 241;3HH2 C D 242;25.7765
3HH2 C C 241;3HH2 C E 243;7.16695
3HH2 C C 241;3HH2 C C 273;35.1773
3HH2 C D 242;3HH2 C E 243;32.0064
3HH2 C D 242;3HH2 C L 244;9.48049
3HH2 C E 243;3HH2 C L 244;32.6295
3HH2 C E 243;3HH2 C C 245;4.09635
3HH2 C E 243;3HH2 C C 266;6.10043
3HH2 C L 244;3HH2 C C 245;33.0419
3HH2 C L 244;3HH2 C P 246;4.71052
3HH2 C L 244;3HH2 C C 266;6.15904
3HH2 C C 245;3HH2 C P 246;38.0913
3HH2 C C 245;3HH2 C S 264;0.00304567
3HH2 C C 245;3HH2 C C 266;30.1613
3HH2 C C 245;3HH2 C A 267;7.52278
3HH2 C C 245;3HH2 C E 270;8.57896
3HH2 C P 246;3HH2 C S 264;0.861376
3HH2 C P 246;3HH2 C C 266;11.4925
3HH2 C E 252;3HH2 C P 253;36.6334
3HH2 C E 252;3HH2 C V 254;9.13989
3HH2 C E 252;3HH2 C A 263;11.3575
3HH2 C E 252;3HH2 C S 264;17.1418
3HH2 C E 252;3HH2 C E 265;4.69565
3HH2 C P 253;3HH2 C V 254;20.6849
3HH2 C P 253;3HH2 C T 261;11.2424
3HH2 C P 253;3HH2 C Y 262;6.26593
3HH2 C P 253;3HH2 C A 263;16.0381
3HH2 C P 253;3HH2 C S 264;0.880414
3HH2 C P 253;3HH2 C S 284;4.43151
3HH2 C P 253;3HH2 C G 285;20.8388
3HH2 C P 253;3HH2 C S 286;4.73377
3HH2 C V 254;3HH2 C C 255;20.596
3HH2 C V 254;3HH2 C A 256;4.62494
3HH2 C V 254;3HH2 C A 260;0.897043
3HH2 C V 254;3HH2 C T 261;8.9622
3HH2 C V 254;3HH2 C Y 262;21.244
3HH2 C V 254;3HH2 C S 264;9.24992
3HH2 C V 254;3HH2 C E 265;17.1696
3HH2 C V 254;3HH2 C M 268;9.70879
3HH2 C V 254;3HH2 C V 281;19.9172
3HH2 C V 254;3HH2 C H 283;3.21902
3HH2 C V 254;3HH2 C S 284;6.54268
3HH2 C V 254;3HH2 C G 285;7.2603
3HH2 C C 255;3HH2 C A 256;21.0151
3HH2 C C 255;3HH2 C N 259;5.93155
3HH2 C C 255;3HH2 C A 260;2.31151
3HH2 C C 255;3HH2 C T 261;1.62398
3HH2 C C 255;3HH2 C V 281;3.91231
3HH2 C C 255;3HH2 C K 282;19.104
3HH2 C C 255;3HH2 C H 283;30.3553
3HH2 C C 255;3HH2 C S 284;0.0021076
3HH2 C C 255;3HH2 C G 285;8.73628
3HH2 C C 255;3HH2 C S 286;0.237812
3HH2 C C 255;3HH2 C C 287;25.8489
3HH2 C A 256;3HH2 C S 257;16.8301
3HH2 C A 256;3HH2 C D 258;10.4995
3HH2 C A 256;3HH2 C N 259;9.22431
3HH2 C A 256;3HH2 C A 260;8.88282
3HH2 C A 256;3HH2 C Y 262;10.1635
3HH2 C A 256;3HH2 C M 268;11.5987
3HH2 C A 256;3HH2 C L 279;7.56693
3HH2 C A 256;3HH2 C E 280;5.01438
3HH2 C A 256;3HH2 C V 281;2.20748
3HH2 C A 256;3HH2 C K 282;9.50131
3HH2 C A 256;3HH2 C C 287;0.817353
3HH2 C S 257;3HH2 C D 258;21.9939
3HH2 C S 257;3HH2 C N 259;11.555
3HH2 C S 257;3HH2 C L 278;4.71576
3HH2 C S 257;3HH2 C L 279;10.7058
3HH2 C S 257;3HH2 C E 280;25.7739
3HH2 C S 257;3HH2 C V 281;0.0304764
3HH2 C S 257;3HH2 C K 282;16.0389
3HH2 C D 258;3HH2 C N 259;29.4874
3HH2 C D 258;3HH2 C A 260;20.0783
3HH2 C D 258;3HH2 C Y 262;14.5706
3HH2 C D 258;3HH2 C V 277;1.6582
3HH2 C D 258;3HH2 C L 279;22.9352
3HH2 C N 259;3HH2 C A 260;21.5545
3HH2 C N 259;3HH2 C K 282;23.7058
3HH2 C N 259;3HH2 C C 287;18.3828
3HH2 C A 260;3HH2 C T 261;26.2974
3HH2 C A 260;3HH2 C Y 262;18.5127
3HH2 C A 260;3HH2 C C 287;9.43533
3HH2 C T 261;3HH2 C Y 262;36.1676
3HH2 C T 261;3HH2 C A 263;0.0453857
3HH2 C T 261;3HH2 C G 285;1.65684
3HH2 C T 261;3HH2 C S 286;22.2841
3HH2 C T 261;3HH2 C C 287;13.6419
3HH2 C T 261;3HH2 C N 288;3.37115
3HH2 C Y 262;3HH2 C A 263;23.595
3HH2 C Y 262;3HH2 C S 264;8.88558
3HH2 C Y 262;3HH2 C A 267;11.7497
3HH2 C Y 262;3HH2 C M 268;19.2361
3HH2 C Y 262;3HH2 C A 271;19.4959
3HH2 C Y 262;3HH2 C L 279;11.8471
3HH2 C A 263;3HH2 C S 264;26.0946
3HH2 C A 263;3HH2 C A 267;11.9836
3HH2 C S 264;3HH2 C E 265;19.9067
3HH2 C S 264;3HH2 C C 266;16.9321
3HH2 C S 264;3HH2 C A 267;17.7008
3HH2 C S 264;3HH2 C M 268;6.14459
3HH2 C E 265;3HH2 C C 266;21.2771
3HH2 C E 265;3HH2 C A 267;0.570139
3HH2 C E 265;3HH2 C M 268;19.7285
3HH2 C E 265;3HH2 C K 269;29.2147
3HH2 C E 265;3HH2 C V 281;22.2347
3HH2 C C 266;3HH2 C A 267;16.9619
3HH2 C C 266;3HH2 C M 268;1.11954
3HH2 C C 266;3HH2 C K 269;19.4445
3HH2 C C 266;3HH2 C E 270;8.20281
3HH2 C A 267;3HH2 C M 268;15.9342
3HH2 C A 267;3HH2 C K 269;0.675325
3HH2 C A 267;3HH2 C E 270;14.2102
3HH2 C A 267;3HH2 C A 271;10.0411
3HH2 C M 268;3HH2 C K 269;30.2341
3HH2 C M 268;3HH2 C E 270;1.18206
3HH2 C M 268;3HH2 C A 271;7.47117
3HH2 C M 268;3HH2 C A 272;7.46353
3HH2 C M 268;3HH2 C L 279;28.9269
3HH2 C M 268;3HH2 C E 280;9.5728
3HH2 C M 268;3HH2 C V 281;15.8368
3HH2 C K 269;3HH2 C E 270;18.9164
3HH2 C K 269;3HH2 C A 271;0.692622
3HH2 C K 269;3HH2 C A 272;13.4756
3HH2 C K 269;3HH2 C C 273;18.3327
3HH2 C K 269;3HH2 C L 279;1.47294
3HH2 C E 270;3HH2 C A 271;19.1941
3HH2 C E 270;3HH2 C A 272;0.685258
3HH2 C E 270;3HH2 C C 273;12.1713
3HH2 C E 270;3HH2 C S 274;15.3112
3HH2 C A 271;3HH2 C A 272;16.3092
3HH2 C A 271;3HH2 C C 273;0.799424
3HH2 C A 271;3HH2 C S 274;12.4361
3HH2 C A 271;3HH2 C S 275;14.7023
3HH2 C A 271;3HH2 C L 279;6.04126
3HH2 C A 272;3HH2 C C 273;17.358
3HH2 C A 272;3HH2 C S 274;0.894872
3HH2 C A 272;3HH2 C S 275;7.99355
3HH2 C A 272;3HH2 C G 276;4.74936
3HH2 C A 272;3HH2 C V 277;13.7728
3HH2 C A 272;3HH2 C L 278;2.17066
3HH2 C A 272;3HH2 C L 279;21.9987
3HH2 C C 273;3HH2 C S 274;19.7829
3HH2 C C 273;3HH2 C S 275;1.01484
3HH2 C C 273;3HH2 C G 276;2.86463
3HH2 C S 274;3HH2 C S 275;25.8102
3HH2 C S 274;3HH2 C G 276;1.02326
3HH2 C S 275;3HH2 C G 276;22.2134
3HH2 C S 275;3HH2 C V 277;27.879
3HH2 C S 275;3HH2 C L 279;1.93951
3HH2 C G 276;3HH2 C V 277;20.0314
3HH2 C V 277;3HH2 C L 278;24.4414
3HH2 C V 277;3HH2 C L 279;18.9689
3HH2 C L 278;3HH2 C L 279;33.6201
3HH2 C L 278;3HH2 C E 280;23.1562
3HH2 C L 279;3HH2 C E 280;26.6904
3HH2 C E 280;3HH2 C V 281;29.7009
3HH2 C E 280;3HH2 C K 282;2.51406
3HH2 C V 281;3HH2 C K 282;27.8993
3HH2 C V 281;3HH2 C H 283;13.0872
3HH2 C V 281;3HH2 C S 284;3.56039
3HH2 C K 282;3HH2 C H 283;40.803
3HH2 C H 283;3HH2 C S 284;39.5128
3HH2 C H 283;3HH2 C G 285;4.60817
3HH2 C H 283;3HH2 C S 286;8.82442
3HH2 C H 283;3HH2 C C 287;5.91585
3HH2 C S 284;3HH2 C G 285;28.574
3HH2 C G 285;3HH2 C S 286;27.1762
3HH2 C G 285;3HH2 C C 287;0.60701
3HH2 C S 286;3HH2 C C 287;23.3404
3HH2 C S 286;3HH2 C N 288;22.1527
3HH2 C C 287;3HH2 C N 288;38.9112
