V1;V2;Weight
3NPS B E 1;3NPS B V 2;38.2593
3NPS B E 1;3NPS B Q 3;4.25761
3NPS B E 1;3NPS B S 25;6.80605
3NPS B E 1;3NPS B G 26;1.02452
3NPS B E 1;3NPS B H 102;5.95552
3NPS B V 2;3NPS B Q 3;33.255
3NPS B V 2;3NPS B L 4;10.1547
3NPS B V 2;3NPS B A 24;3.03222
3NPS B V 2;3NPS B S 25;1.4596
3NPS B V 2;3NPS B G 26;2.63395
3NPS B V 2;3NPS B R 94;33.1841
3NPS B V 2;3NPS B H 102;33.982
3NPS B Q 3;3NPS B L 4;33.5503
3NPS B Q 3;3NPS B V 5;20.0137
3NPS B Q 3;3NPS B K 23;1.96761
3NPS B Q 3;3NPS B A 24;2.55955
3NPS B Q 3;3NPS B S 25;29.7572
3NPS B Q 3;3NPS B G 26;0.102816
3NPS B Q 3;3NPS B H 102;1.1328
3NPS B Q 3;3NPS B W 103;1.87848
3NPS B Q 3;3NPS B Q 105;0.990092
3NPS B L 4;3NPS B V 5;22.0435
3NPS B L 4;3NPS B Q 6;0.817725
3NPS B L 4;3NPS B C 22;13.4005
3NPS B L 4;3NPS B K 23;6.34574
3NPS B L 4;3NPS B A 24;15.318
3NPS B L 4;3NPS B F 29;4.53827
3NPS B L 4;3NPS B I 34;10.7572
3NPS B L 4;3NPS B C 92;10.3599
3NPS B L 4;3NPS B A 93;6.49955
3NPS B L 4;3NPS B R 94;15.9833
3NPS B L 4;3NPS B H 102;12.3464
3NPS B L 4;3NPS B W 103;9.80066
3NPS B L 4;3NPS B G 104;17.0111
3NPS B L 4;3NPS B Q 105;6.13322
3NPS B V 5;3NPS B Q 6;30.903
3NPS B V 5;3NPS B S 7;0.364639
3NPS B V 5;3NPS B S 21;1.20174
3NPS B V 5;3NPS B C 22;4.67531
3NPS B V 5;3NPS B K 23;30.3277
3NPS B V 5;3NPS B S 25;9.18732
3NPS B V 5;3NPS B C 92;0.0422146
3NPS B V 5;3NPS B Q 105;13.3312
3NPS B Q 6;3NPS B S 7;28.411
3NPS B Q 6;3NPS B G 8;1.46431
3NPS B Q 6;3NPS B V 20;5.87109
3NPS B Q 6;3NPS B S 21;8.56884
3NPS B Q 6;3NPS B C 22;5.68418
3NPS B Q 6;3NPS B W 36;6.35448
3NPS B Q 6;3NPS B Y 90;6.38339
3NPS B Q 6;3NPS B Y 91;7.08255
3NPS B Q 6;3NPS B C 92;18.3863
3NPS B Q 6;3NPS B G 104;10.7653
3NPS B Q 6;3NPS B Q 105;25.6747
3NPS B Q 6;3NPS B G 106;13.6416
3NPS B Q 6;3NPS B T 107;12.1046
3NPS B S 7;3NPS B G 8;35.2075
3NPS B S 7;3NPS B A 9;0.652044
3NPS B S 7;3NPS B E 10;6.26075
3NPS B S 7;3NPS B K 19;3.04257
3NPS B S 7;3NPS B V 20;9.7863
3NPS B S 7;3NPS B S 21;28.5554
3NPS B S 7;3NPS B Q 105;3.3567
3NPS B S 7;3NPS B G 106;2.30835
3NPS B S 7;3NPS B T 107;16.6833
3NPS B G 8;3NPS B A 9;30.448
3NPS B G 8;3NPS B E 10;10.4138
3NPS B G 8;3NPS B Q 105;0.220293
3NPS B G 8;3NPS B T 107;7.71193
3NPS B A 9;3NPS B E 10;29.581
3NPS B A 9;3NPS B T 107;6.72402
3NPS B A 9;3NPS B L 108;25.1076
3NPS B A 9;3NPS B P 147;2.35134
3NPS B A 9;3NPS B E 148;2.28223
3NPS B A 9;3NPS B P 149;6.77725
3NPS B A 9;3NPS B P 202;2.87614
3NPS B E 10;3NPS B V 11;31.2177
3NPS B E 10;3NPS B K 12;21.7982
3NPS B E 10;3NPS B V 18;17.0771
3NPS B E 10;3NPS B K 19;10.5054
3NPS B E 10;3NPS B V 20;3.40937
3NPS B E 10;3NPS B T 107;5.43241
3NPS B E 10;3NPS B L 108;8.80358
3NPS B E 10;3NPS B V 109;14.7754
3NPS B E 10;3NPS B T 110;9.96555
3NPS B V 11;3NPS B K 12;34.4197
3NPS B V 11;3NPS B K 13;0.99173
3NPS B V 11;3NPS B V 109;0.0142881
3NPS B V 11;3NPS B T 110;15.1192
3NPS B V 11;3NPS B S 112;10.3645
3NPS B V 11;3NPS B A 114;6.57761
3NPS B V 11;3NPS B T 116;8.52945
3NPS B V 11;3NPS B F 146;16.818
3NPS B V 11;3NPS B P 147;18.7639
3NPS B K 12;3NPS B K 13;23.9233
3NPS B K 12;3NPS B P 14;1.25632
3NPS B K 12;3NPS B S 16;16.8485
3NPS B K 12;3NPS B S 17;15.2208
3NPS B K 12;3NPS B V 18;13.5459
3NPS B K 12;3NPS B L 82c;11.3623
3NPS B K 12;3NPS B V 109;8.48674
3NPS B K 12;3NPS B T 110;8.04616
3NPS B K 12;3NPS B V 111;12.4884
3NPS B K 12;3NPS B S 112;8.44
3NPS B K 13;3NPS B P 14;37.975
3NPS B K 13;3NPS B G 15;0.707174
3NPS B K 13;3NPS B S 16;22.3183
3NPS B K 13;3NPS B L 82c;2.50183
3NPS B K 13;3NPS B V 111;1.64287
3NPS B K 13;3NPS B S 112;6.56194
3NPS B K 13;3NPS B S 113;18.9365
3NPS B P 14;3NPS B G 15;23.165
3NPS B P 14;3NPS B S 16;2.90669
3NPS B P 14;3NPS B L 82c;7.8621
3NPS B P 14;3NPS B R 83;2.70593
3NPS B P 14;3NPS B S 84;13.0847
3NPS B P 14;3NPS B V 111;15.9019
3NPS B P 14;3NPS B S 112;10.1943
3NPS B P 14;3NPS B S 113;13.4062
3NPS B G 15;3NPS B S 16;26.098
3NPS B G 15;3NPS B S 17;0.504878
3NPS B G 15;3NPS B S 82b;17.7038
3NPS B G 15;3NPS B L 82c;14.5433
3NPS B S 16;3NPS B S 17;28.0049
3NPS B S 16;3NPS B L 82;0.0103633
3NPS B S 16;3NPS B S 82a;1.53777
3NPS B S 16;3NPS B S 82b;5.33999
3NPS B S 16;3NPS B L 82c;17.6544
3NPS B S 17;3NPS B V 18;21.6652
3NPS B S 17;3NPS B E 81;17.6671
3NPS B S 17;3NPS B L 82;4.71608
3NPS B S 17;3NPS B S 82a;17.7059
3NPS B S 17;3NPS B S 82b;2.16825
3NPS B S 17;3NPS B L 82c;5.34683
3NPS B V 18;3NPS B K 19;28.1664
3NPS B V 18;3NPS B V 20;12.4318
3NPS B V 18;3NPS B M 80;7.03069
3NPS B V 18;3NPS B E 81;9.75961
3NPS B V 18;3NPS B L 82;21.9318
3NPS B V 18;3NPS B L 82c;14.9662
3NPS B V 18;3NPS B Y 90;1.97837
3NPS B V 18;3NPS B V 109;19.0163
3NPS B K 19;3NPS B V 20;24.1983
3NPS B K 19;3NPS B S 21;2.89276
3NPS B K 19;3NPS B T 70;10.6607
3NPS B K 19;3NPS B Y 79;31.9375
3NPS B K 19;3NPS B M 80;6.80005
3NPS B K 19;3NPS B E 81;33.5964
3NPS B V 20;3NPS B S 21;22.8328
3NPS B V 20;3NPS B W 36;17.2612
3NPS B V 20;3NPS B A 78;0.0318267
3NPS B V 20;3NPS B Y 79;8.3394
3NPS B V 20;3NPS B M 80;26.6332
3NPS B V 20;3NPS B Y 90;9.2354
3NPS B V 20;3NPS B T 107;19.1319
3NPS B V 20;3NPS B V 109;8.34326
3NPS B S 21;3NPS B C 22;18.912
3NPS B S 21;3NPS B K 23;0.614838
3NPS B S 21;3NPS B W 36;4.62809
3NPS B S 21;3NPS B T 77;10.5598
3NPS B S 21;3NPS B A 78;4.59529
3NPS B S 21;3NPS B Y 79;17.0744
3NPS B C 22;3NPS B K 23;20.8492
3NPS B C 22;3NPS B A 24;1.32832
3NPS B C 22;3NPS B F 29;5.53584
3NPS B C 22;3NPS B I 34;7.51804
3NPS B C 22;3NPS B W 36;8.90975
3NPS B C 22;3NPS B S 76;0.541369
3NPS B C 22;3NPS B T 77;9.46861
3NPS B C 22;3NPS B A 78;20.4503
3NPS B C 22;3NPS B C 92;18.5413
3NPS B K 23;3NPS B A 24;27.4124
3NPS B K 23;3NPS B S 25;10.0024
3NPS B K 23;3NPS B G 27;4.2878
3NPS B K 23;3NPS B T 75;22.1455
3NPS B K 23;3NPS B S 76;6.21203
3NPS B K 23;3NPS B S 76;1.69248
3NPS B K 23;3NPS B T 77;20.4361
3NPS B A 24;3NPS B S 25;19.8277
3NPS B A 24;3NPS B G 26;5.55288
3NPS B A 24;3NPS B G 27;8.72018
3NPS B A 24;3NPS B T 28;12.5364
3NPS B A 24;3NPS B F 29;14.2905
3NPS B A 24;3NPS B S 76;7.28975
3NPS B A 24;3NPS B S 76;10.7182
3NPS B A 24;3NPS B R 94;1.88061
3NPS B S 25;3NPS B G 26;29.5776
3NPS B S 25;3NPS B G 27;5.82522
3NPS B G 26;3NPS B G 27;23.3853
3NPS B G 26;3NPS B T 28;15.7358
3NPS B G 27;3NPS B T 28;22.8958
3NPS B G 27;3NPS B E 73;6.54868
3NPS B G 27;3NPS B S 74;5.46607
3NPS B G 27;3NPS B T 75;0.709256
3NPS B G 27;3NPS B S 76;0.629193
3NPS B G 27;3NPS B S 76;13.3458
3NPS B T 28;3NPS B F 29;19.5678
3NPS B T 28;3NPS B S 30;23.4298
3NPS B T 28;3NPS B I 53;1.94129
3NPS B T 28;3NPS B E 73;17.5184
3NPS B T 28;3NPS B S 76;9.74736
3NPS B T 28;3NPS B R 94;5.89089
3NPS B F 29;3NPS B S 30;23.303
3NPS B F 29;3NPS B S 31;0.148337
3NPS B F 29;3NPS B Y 32;19.5116
3NPS B F 29;3NPS B I 34;17.8699
3NPS B F 29;3NPS B P 52a;24.708
3NPS B F 29;3NPS B I 53;4.22078
3NPS B F 29;3NPS B A 71;3.59443
3NPS B F 29;3NPS B D 72;4.74766
3NPS B F 29;3NPS B E 73;17.9353
3NPS B F 29;3NPS B S 76;6.00662
3NPS B F 29;3NPS B S 76;11.1054
3NPS B F 29;3NPS B T 77;8.59178
3NPS B F 29;3NPS B A 78;8.52199
3NPS B F 29;3NPS B R 94;13.3011
3NPS B S 30;3NPS B S 31;24.5517
3NPS B S 30;3NPS B Y 32;21.2785
3NPS B S 30;3NPS B I 52;0.303242
3NPS B S 30;3NPS B I 53;20.039
3NPS B S 30;3NPS B E 73;0.817395
3NPS B S 30;3NPS B R 94;4.45908
3NPS B S 31;3NPS B Y 32;27.8957
3NPS B S 31;3NPS B I 52;0.0307122
3NPS B S 31;3NPS B H 97;17.6923
3NPS B S 31;3NPS B I 98;16.8556
3NPS B Y 32;3NPS B A 33;20.1192
3NPS B Y 32;3NPS B I 34;0.349912
3NPS B Y 32;3NPS B I 52;6.12181
3NPS B Y 32;3NPS B P 52a;8.60291
3NPS B Y 32;3NPS B R 94;41.023
3NPS B Y 32;3NPS B T 95;11.2528
3NPS B Y 32;3NPS B F 96;9.4803
3NPS B Y 32;3NPS B H 97;25.6831
3NPS B Y 32;3NPS B I 98;6.92539
3NPS B A 33;3NPS B I 34;22.7348
3NPS B A 33;3NPS B I 51;5.74475
3NPS B A 33;3NPS B I 52;10.3275
3NPS B A 33;3NPS B P 52a;3.77975
3NPS B A 33;3NPS B A 93;0.38322
3NPS B A 33;3NPS B R 94;7.61839
3NPS B A 33;3NPS B T 95;23.0697
3NPS B A 33;3NPS B F 96;0.0226715
3NPS B A 33;3NPS B I 98;7.91483
3NPS B A 33;3NPS B Y 100e;8.59294
3NPS B A 33;3NPS B Y 100f;7.42068
3NPS B I 34;3NPS B S 35;21.508
3NPS B I 34;3NPS B W 36;12.4375
3NPS B I 34;3NPS B G 50;6.06325
3NPS B I 34;3NPS B I 51;20.465
3NPS B I 34;3NPS B P 52a;11.6591
3NPS B I 34;3NPS B I 69;0.748292
3NPS B I 34;3NPS B A 71;0.151287
3NPS B I 34;3NPS B A 78;15.7609
3NPS B I 34;3NPS B C 92;6.62077
3NPS B I 34;3NPS B A 93;9.64203
3NPS B I 34;3NPS B R 94;11.0037
3NPS B I 34;3NPS B T 95;2.03284
3NPS B I 34;3NPS B Y 100f;4.59022
3NPS B S 35;3NPS B W 36;22.663
3NPS B S 35;3NPS B V 37;4.47925
3NPS B S 35;3NPS B W 47;11.3099
3NPS B S 35;3NPS B G 49;4.04851
3NPS B S 35;3NPS B G 50;3.90175
3NPS B S 35;3NPS B Y 91;0.776411
3NPS B S 35;3NPS B C 92;5.47539
3NPS B S 35;3NPS B A 93;18.1899
3NPS B S 35;3NPS B T 95;7.21779
3NPS B S 35;3NPS B Y 100f;12.4185
3NPS B S 35;3NPS B M 100i;16.36
3NPS B W 36;3NPS B V 37;21.6326
3NPS B W 36;3NPS B W 47;5.21912
3NPS B W 36;3NPS B M 48;21.4111
3NPS B W 36;3NPS B G 49;13.5287
3NPS B W 36;3NPS B G 50;2.86501
3NPS B W 36;3NPS B I 69;20.7799
3NPS B W 36;3NPS B T 70;0.0226098
3NPS B W 36;3NPS B A 78;9.80072
3NPS B W 36;3NPS B Y 79;10.6439
3NPS B W 36;3NPS B M 80;27.4153
3NPS B W 36;3NPS B Y 90;9.42139
3NPS B W 36;3NPS B Y 91;13.0209
3NPS B W 36;3NPS B C 92;16.7145
3NPS B V 37;3NPS B R 38;22.3767
3NPS B V 37;3NPS B L 45;13.4163
3NPS B V 37;3NPS B E 46;10.9742
3NPS B V 37;3NPS B W 47;10.3613
3NPS B V 37;3NPS B M 48;7.06682
3NPS B V 37;3NPS B V 89;0.161203
3NPS B V 37;3NPS B Y 90;2.83174
3NPS B V 37;3NPS B Y 91;27.6443
3NPS B V 37;3NPS B A 93;0.758784
3NPS B V 37;3NPS B M 100i;12.1267
3NPS B V 37;3NPS B W 103;16.5451
3NPS B V 37;3NPS C F 98;13.1414
3NPS B R 38;3NPS B Q 39;19.3858
3NPS B R 38;3NPS B A 41;12.1489
3NPS B R 38;3NPS B G 44;2.39746
3NPS B R 38;3NPS B L 45;6.89982
3NPS B R 38;3NPS B E 46;36.9607
3NPS B R 38;3NPS B M 48;14.2076
3NPS B R 38;3NPS B K 62;11.6982
3NPS B R 38;3NPS B F 63;21.5868
3NPS B R 38;3NPS B R 66;0.674506
3NPS B R 38;3NPS B L 82;4.36271
3NPS B R 38;3NPS B E 85;13.9187
3NPS B R 38;3NPS B D 86;17.2784
3NPS B R 38;3NPS B A 88;11.0322
3NPS B R 38;3NPS B V 89;6.01672
3NPS B R 38;3NPS B Y 90;24.8074
3NPS B R 38;3NPS B Y 91;2.30728
3NPS B Q 39;3NPS B A 41;19.3555
3NPS B Q 39;3NPS B G 42;19.5087
3NPS B Q 39;3NPS B Q 43;1.2075
3NPS B Q 39;3NPS B G 44;17.9247
3NPS B Q 39;3NPS B L 45;15.8918
3NPS B Q 39;3NPS B A 88;7.75996
3NPS B Q 39;3NPS B V 89;23.4651
3NPS B Q 39;3NPS B Y 91;10.7046
3NPS B Q 39;3NPS C Q 38;20.0053
3NPS B Q 39;3NPS C Y 87;10.263
3NPS B A 41;3NPS B G 42;24.5893
3NPS B A 41;3NPS B Q 43;11.4669
3NPS B A 41;3NPS B G 44;4.58126
3NPS B A 41;3NPS B E 46;9.49771
3NPS B A 41;3NPS B E 85;10.9918
3NPS B A 41;3NPS B D 86;0.0770167
3NPS B A 41;3NPS B T 87;13.8256
3NPS B A 41;3NPS B A 88;12.3744
3NPS B G 42;3NPS B Q 43;27.2736
3NPS B G 42;3NPS B G 44;2.53437
3NPS B Q 43;3NPS B G 44;29.4924
3NPS B Q 43;3NPS C G 100;12.698
3NPS B G 44;3NPS B L 45;21.4289
3NPS B G 44;3NPS B E 46;10.6672
3NPS B G 44;3NPS C Y 87;14.3998
3NPS B G 44;3NPS C G 99;0.705751
3NPS B G 44;3NPS C G 100;5.24724
3NPS B L 45;3NPS B E 46;22.995
3NPS B L 45;3NPS B Y 91;4.51223
3NPS B L 45;3NPS B W 103;4.95073
3NPS B L 45;3NPS C Y 36;8.05624
3NPS B L 45;3NPS C Q 38;8.09005
3NPS B L 45;3NPS C P 44;19.3969
3NPS B L 45;3NPS C Y 87;29.1948
3NPS B L 45;3NPS C F 98;34.5038
3NPS B L 45;3NPS C G 99;3.14226
3NPS B E 46;3NPS B W 47;23.0153
3NPS B E 46;3NPS B M 48;5.3933
3NPS B E 46;3NPS B K 62;22.1906
3NPS B E 46;3NPS B F 63;12.4549
3NPS B E 46;3NPS C F 98;5.12739
3NPS B W 47;3NPS B M 48;19.3964
3NPS B W 47;3NPS B G 49;20.0478
3NPS B W 47;3NPS B G 50;3.4133
3NPS B W 47;3NPS B N 58;10.6279
3NPS B W 47;3NPS B Y 59;7.43237
3NPS B W 47;3NPS B A 60;22.9321
3NPS B W 47;3NPS B F 63;7.59491
3NPS B W 47;3NPS B Y 100f;22.7179
3NPS B W 47;3NPS B M 100i;3.20583
3NPS B W 47;3NPS C Q 89;6.24119
3NPS B W 47;3NPS C S 94;2.9616
3NPS B W 47;3NPS C Q 95;10.8366
3NPS B W 47;3NPS C Y 96;39.2237
3NPS B W 47;3NPS C V 97;2.70826
3NPS B W 47;3NPS C F 98;17.6467
3NPS B M 48;3NPS B G 49;18.2728
3NPS B M 48;3NPS B Y 59;6.42322
3NPS B M 48;3NPS B A 60;12.0083
3NPS B M 48;3NPS B F 63;28.3822
3NPS B M 48;3NPS B V 67;17.6435
3NPS B M 48;3NPS B I 69;4.41515
3NPS B M 48;3NPS B M 80;15.1558
3NPS B M 48;3NPS B L 82;7.48504
3NPS B M 48;3NPS B Y 90;15.4948
3NPS B G 49;3NPS B G 50;15.1193
3NPS B G 49;3NPS B N 58;5.23573
3NPS B G 49;3NPS B Y 59;3.78827
3NPS B G 49;3NPS B A 60;0.90662
3NPS B G 49;3NPS B I 69;10.1038
3NPS B G 49;3NPS B Y 100f;0.0113383
3NPS B G 50;3NPS B I 51;16.4511
3NPS B G 50;3NPS B T 56;0.0355143
3NPS B G 50;3NPS B A 57;5.11835
3NPS B G 50;3NPS B N 58;16.0889
3NPS B G 50;3NPS B I 69;13.1716
3NPS B G 50;3NPS B Y 100f;12.7106
3NPS B I 51;3NPS B I 52;24.6238
3NPS B I 51;3NPS B P 52a;11.9838
3NPS B I 51;3NPS B G 55;17.3211
3NPS B I 51;3NPS B T 56;11.1292
3NPS B I 51;3NPS B A 57;15.4504
3NPS B I 51;3NPS B N 58;0.338663
3NPS B I 51;3NPS B I 69;20.2024
3NPS B I 51;3NPS B T 70;11.1037
3NPS B I 51;3NPS B A 71;16.0651
3NPS B I 51;3NPS B A 78;1.92839
3NPS B I 51;3NPS B Y 100f;10.2067
3NPS B I 52;3NPS B P 52a;21.817
3NPS B I 52;3NPS B I 53;5.82291
3NPS B I 52;3NPS B F 54;35.7177
3NPS B I 52;3NPS B G 55;8.0218
3NPS B I 52;3NPS B T 56;2.93837
3NPS B I 52;3NPS B N 58;0.0242824
3NPS B I 52;3NPS B I 98;24.8169
3NPS B I 52;3NPS B Y 100e;21.4042
3NPS B I 52;3NPS B Y 100f;4.42052
3NPS B P 52a;3NPS B I 53;26.3755
3NPS B P 52a;3NPS B F 54;1.39454
3NPS B P 52a;3NPS B G 55;8.36411
3NPS B P 52a;3NPS B A 71;26.2129
3NPS B P 52a;3NPS B D 72;0.314663
3NPS B P 52a;3NPS B E 73;13.104
3NPS B P 52a;3NPS B A 78;0.395783
3NPS B I 53;3NPS B F 54;23.5335
3NPS B I 53;3NPS B G 55;3.26333
3NPS B I 53;3NPS B E 73;30.1624
3NPS B F 54;3NPS B G 55;21.2429
3NPS B F 54;3NPS B T 56;15.4454
3NPS B F 54;3NPS B I 98;1.91997
3NPS B F 54;3NPS B R 99;3.5631
3NPS B G 55;3NPS B T 56;26.3356
3NPS B G 55;3NPS B A 57;0.0152522
3NPS B T 56;3NPS B A 57;33.5076
3NPS B T 56;3NPS B N 58;14.3692
3NPS B A 57;3NPS B N 58;26.7745
3NPS B A 57;3NPS B Y 59;26.3487
3NPS B A 57;3NPS B I 69;14.6022
3NPS B N 58;3NPS B Y 59;29.0242
3NPS B N 58;3NPS B I 69;2.38903
3NPS B N 58;3NPS B Y 100e;5.03714
3NPS B N 58;3NPS B Y 100f;24.9957
3NPS B N 58;3NPS C S 94;5.72344
3NPS B Y 59;3NPS B A 60;21.9591
3NPS B Y 59;3NPS B Q 61;3.32091
3NPS B Y 59;3NPS B F 63;2.20823
3NPS B Y 59;3NPS B Q 64;36.2273
3NPS B Y 59;3NPS B G 65;0.201888
3NPS B Y 59;3NPS B V 67;24.5256
3NPS B Y 59;3NPS B T 68;12.9699
3NPS B Y 59;3NPS B I 69;20.7336
3NPS B Y 59;3NPS C S 94;5.045
3NPS B Y 59;3NPS C Q 95;5.974
3NPS B A 60;3NPS B Q 61;15.4993
3NPS B A 60;3NPS B K 62;8.49663
3NPS B A 60;3NPS B F 63;15.6058
3NPS B A 60;3NPS B Q 64;9.25841
3NPS B A 60;3NPS C Q 95;13.2211
3NPS B A 60;3NPS C Y 96;2.19973
3NPS B Q 61;3NPS B K 62;28.1557
3NPS B Q 61;3NPS B F 63;1.7915
3NPS B Q 61;3NPS B Q 64;35.6026
3NPS B Q 61;3NPS C Q 95;25.454
3NPS B K 62;3NPS B F 63;44.127
3NPS B K 62;3NPS B Q 64;3.27845
3NPS B K 62;3NPS B R 66;4.00473
3NPS B K 62;3NPS B R 83;1.71195
3NPS B K 62;3NPS B E 85;6.59962
3NPS B K 62;3NPS C Q 95;1.84868
3NPS B F 63;3NPS B Q 64;22.7636
3NPS B F 63;3NPS B G 65;2.04281
3NPS B F 63;3NPS B R 66;24.8297
3NPS B F 63;3NPS B V 67;26.3221
3NPS B F 63;3NPS B L 82;8.45696
3NPS B F 63;3NPS B D 86;0.544595
3NPS B Q 64;3NPS B G 65;31.4627
3NPS B Q 64;3NPS B R 66;6.67917
3NPS B Q 64;3NPS B V 67;0.25933
3NPS B G 65;3NPS B R 66;24.3373
3NPS B G 65;3NPS B V 67;13.3424
3NPS B G 65;3NPS B T 68;3.83489
3NPS B G 65;3NPS B S 82a;0.874292
3NPS B R 66;3NPS B V 67;18.566
3NPS B R 66;3NPS B T 68;1.68759
3NPS B R 66;3NPS B E 81;3.63289
3NPS B R 66;3NPS B L 82;24.6069
3NPS B R 66;3NPS B S 82a;35.3478
3NPS B R 66;3NPS B S 82b;20.1483
3NPS B R 66;3NPS B L 82c;2.03683
3NPS B R 66;3NPS B R 83;35.122
3NPS B R 66;3NPS B E 85;1.21079
3NPS B R 66;3NPS B D 86;15.7053
3NPS B V 67;3NPS B T 68;26.3381
3NPS B V 67;3NPS B I 69;10.2264
3NPS B V 67;3NPS B M 80;11.9693
3NPS B V 67;3NPS B E 81;5.94802
3NPS B V 67;3NPS B L 82;10.965
3NPS B T 68;3NPS B I 69;22.1188
3NPS B T 68;3NPS B T 70;17.7498
3NPS B T 68;3NPS B Y 79;1.81965
3NPS B T 68;3NPS B M 80;4.52757
3NPS B T 68;3NPS B E 81;33.0205
3NPS B I 69;3NPS B T 70;28.7812
3NPS B I 69;3NPS B A 78;0.487983
3NPS B I 69;3NPS B Y 79;8.25408
3NPS B I 69;3NPS B M 80;9.6368
3NPS B T 70;3NPS B A 71;26.4499
3NPS B T 70;3NPS B A 78;4.74953
3NPS B T 70;3NPS B Y 79;30.6125
3NPS B A 71;3NPS B D 72;25.8114
3NPS B A 71;3NPS B E 73;1.79383
3NPS B A 71;3NPS B T 77;3.92512
3NPS B A 71;3NPS B A 78;11.2066
3NPS B A 71;3NPS B Y 79;3.85156
3NPS B D 72;3NPS B E 73;21.1315
3NPS B D 72;3NPS B S 74;21.1036
3NPS B D 72;3NPS B T 75;25.19
3NPS B D 72;3NPS B S 76;2.66966
3NPS B D 72;3NPS B S 76;2.17564
3NPS B D 72;3NPS B T 77;14.1029
3NPS B D 72;3NPS B Y 79;9.06847
3NPS B E 73;3NPS B S 74;28.8415
3NPS B E 73;3NPS B T 75;0.777487
3NPS B E 73;3NPS B S 76;4.21031
3NPS B E 73;3NPS B S 76;9.52488
3NPS B S 74;3NPS B T 75;28.801
3NPS B S 74;3NPS B S 76;2.15111
3NPS B T 75;3NPS B S 76;14.8076
3NPS B T 75;3NPS B S 76;5.1138
3NPS B T 75;3NPS B T 77;19.7488
3NPS B T 75;3NPS B Y 79;5.50388
3NPS B S 76;3NPS B T 77;11.8971
3NPS B S 76;3NPS B T 77;1.68707
3NPS B T 77;3NPS B A 78;18.6106
3NPS B T 77;3NPS B Y 79;26.3085
3NPS B A 78;3NPS B Y 79;22.2765
3NPS B Y 79;3NPS B M 80;17.9808
3NPS B Y 79;3NPS B E 81;0.776984
3NPS B M 80;3NPS B E 81;23.0447
3NPS B M 80;3NPS B L 82;13.6322
3NPS B M 80;3NPS B Y 90;15.3593
3NPS B M 80;3NPS B V 109;0.0418396
3NPS B E 81;3NPS B L 82;19.2052
3NPS B E 81;3NPS B S 82a;6.54167
3NPS B L 82;3NPS B S 82a;21.8478
3NPS B L 82;3NPS B L 82c;20.3014
3NPS B L 82;3NPS B D 86;8.66766
3NPS B L 82;3NPS B Y 90;14.2497
3NPS B S 82a;3NPS B S 82b;29.6164
3NPS B S 82a;3NPS B L 82c;5.06206
3NPS B S 82b;3NPS B L 82c;18.9205
3NPS B S 82b;3NPS B R 83;10.1434
3NPS B S 82b;3NPS B D 86;0.0187158
3NPS B L 82c;3NPS B R 83;20.7797
3NPS B L 82c;3NPS B D 86;12.3019
3NPS B L 82c;3NPS B Y 90;1.05326
3NPS B L 82c;3NPS B V 109;6.79682
3NPS B L 82c;3NPS B V 111;19.1261
3NPS B R 83;3NPS B S 84;21.9546
3NPS B R 83;3NPS B E 85;35.6392
3NPS B R 83;3NPS B D 86;22.6954
3NPS B R 83;3NPS B T 87;0.704598
3NPS B R 83;3NPS B V 111;11.8016
3NPS B S 84;3NPS B E 85;24.9317
3NPS B S 84;3NPS B D 86;1.85612
3NPS B S 84;3NPS B T 87;16.7942
3NPS B S 84;3NPS B V 111;18.3427
3NPS B E 85;3NPS B D 86;24.104
3NPS B E 85;3NPS B T 87;7.32475
3NPS B D 86;3NPS B T 87;16.2215
3NPS B D 86;3NPS B A 88;7.13801
3NPS B D 86;3NPS B Y 90;14.1122
3NPS B D 86;3NPS B V 109;4.19707
3NPS B D 86;3NPS B V 111;8.81954
3NPS B T 87;3NPS B A 88;20.6549
3NPS B T 87;3NPS B L 108;7.57634
3NPS B T 87;3NPS B V 109;7.38599
3NPS B T 87;3NPS B T 110;15.4957
3NPS B T 87;3NPS B V 111;20.5725
3NPS B T 87;3NPS B Y 176;6.7065
3NPS B A 88;3NPS B V 89;20.1515
3NPS B A 88;3NPS B Y 90;15.75
3NPS B A 88;3NPS B T 107;1.301
3NPS B A 88;3NPS B L 108;12.1299
3NPS B A 88;3NPS B V 109;11.8181
3NPS B V 89;3NPS B Y 90;19.0953
3NPS B V 89;3NPS B Y 91;26.3777
3NPS B V 89;3NPS B Q 105;1.83054
3NPS B V 89;3NPS B G 106;10.0311
3NPS B V 89;3NPS B T 107;7.72705
3NPS B V 89;3NPS B L 108;22.4774
3NPS B Y 90;3NPS B Y 91;18.9265
3NPS B Y 90;3NPS B G 106;3.9648
3NPS B Y 90;3NPS B T 107;20.5214
3NPS B Y 90;3NPS B V 109;18.3027
3NPS B Y 91;3NPS B C 92;21.5812
3NPS B Y 91;3NPS B A 93;0.0268821
3NPS B Y 91;3NPS B W 103;18.7462
3NPS B Y 91;3NPS B G 104;6.78455
3NPS B Y 91;3NPS B Q 105;8.27412
3NPS B Y 91;3NPS B G 106;10.9029
3NPS B Y 91;3NPS C Q 38;12.2519
3NPS B Y 91;3NPS C T 42;6.59901
3NPS B Y 91;3NPS C A 43;15.7498
3NPS B Y 91;3NPS C P 44;10.6047
3NPS B C 92;3NPS B A 93;19.4915
3NPS B C 92;3NPS B W 103;5.75325
3NPS B C 92;3NPS B G 104;11.8492
3NPS B A 93;3NPS B R 94;17.8258
3NPS B A 93;3NPS B T 95;2.38262
3NPS B A 93;3NPS B M 100i;16.5856
3NPS B A 93;3NPS B D 101;0.377842
3NPS B A 93;3NPS B H 102;6.41928
3NPS B A 93;3NPS B W 103;18.8233
3NPS B R 94;3NPS B T 95;25.6756
3NPS B R 94;3NPS B M 100i;4.16605
3NPS B R 94;3NPS B D 101;11.5929
3NPS B R 94;3NPS B H 102;33.6417
3NPS B T 95;3NPS B F 96;25.8635
3NPS B T 95;3NPS B I 98;1.63221
3NPS B T 95;3NPS B Y 100e;19.3104
3NPS B T 95;3NPS B Y 100f;9.66013
3NPS B T 95;3NPS B K 100h;6.55159
3NPS B T 95;3NPS B M 100i;9.47913
3NPS B T 95;3NPS B D 101;6.74139
3NPS B F 96;3NPS B H 97;25.3249
3NPS B F 96;3NPS B I 98;3.74267
3NPS B F 96;3NPS B Y 100a;25.674
3NPS B F 96;3NPS B G 100d;0.796769
3NPS B F 96;3NPS B Y 100e;9.15181
3NPS B F 96;3NPS B K 100h;32.4873
3NPS B F 96;3NPS B D 101;24.8456
3NPS B F 96;3NPS C L 46;10.1354
3NPS B F 96;3NPS C Y 49;20.6958
3NPS B F 96;3NPS C P 55;10.7483
3NPS B H 97;3NPS B I 98;22.5022
3NPS B H 97;3NPS B R 99;12.6928
3NPS B H 97;3NPS B R 100;22.2369
3NPS B H 97;3NPS B Y 100a;13.8164
3NPS B H 97;3NPS B G 100d;3.7974
3NPS B H 97;3NPS B Y 100e;3.20219
3NPS B I 98;3NPS B R 99;38.5734
3NPS B I 98;3NPS B R 100;0.0130893
3NPS B I 98;3NPS B Y 100a;4.45619
3NPS B I 98;3NPS B G 100d;3.48245
3NPS B I 98;3NPS B Y 100e;30.0771
3NPS B R 99;3NPS B R 100;21.0798
3NPS B R 99;3NPS B Y 100a;9.98489
3NPS B R 99;3NPS B R 100b;2.68911
3NPS B R 100;3NPS B Y 100a;43.8809
3NPS B R 100;3NPS B R 100b;1.91174
3NPS B Y 100a;3NPS B R 100b;21.2061
3NPS B Y 100a;3NPS B S 100c;7.58679
3NPS B Y 100a;3NPS B G 100d;21.006
3NPS B Y 100a;3NPS B K 100h;13.6456
3NPS B Y 100a;3NPS C Y 49;22.3471
3NPS B Y 100a;3NPS C D 50;8.76719
3NPS B R 100b;3NPS B S 100c;22.2842
3NPS B R 100b;3NPS B G 100d;5.30549
3NPS B R 100b;3NPS C Y 32;0.683776
3NPS B S 100c;3NPS B G 100d;21.0586
3NPS B S 100c;3NPS B Y 100e;0.660514
3NPS B S 100c;3NPS B D 100g;9.17498
3NPS B S 100c;3NPS B K 100h;12.3378
3NPS B S 100c;3NPS C Y 32;18.077
3NPS B S 100c;3NPS C D 50;14.0631
3NPS B S 100c;3NPS C R 91;3.13763
3NPS B S 100c;3NPS C Y 96;9.71275
3NPS B G 100d;3NPS B Y 100e;34.6515
3NPS B G 100d;3NPS B D 100g;0.083964
3NPS B G 100d;3NPS B K 100h;10.5592
3NPS B G 100d;3NPS C Y 96;2.52668
3NPS B Y 100e;3NPS B Y 100f;47.4599
3NPS B Y 100e;3NPS B D 100g;7.48414
3NPS B Y 100e;3NPS B K 100h;16.6837
3NPS B Y 100e;3NPS B M 100i;0.341008
3NPS B Y 100e;3NPS C Y 96;3.44836
3NPS B Y 100f;3NPS B D 100g;16.0874
3NPS B Y 100f;3NPS B K 100h;2.97045
3NPS B Y 100f;3NPS B M 100i;11.5139
3NPS B Y 100f;3NPS C Y 36;0.290909
3NPS B Y 100f;3NPS C Q 89;7.15269
3NPS B Y 100f;3NPS C Y 96;29.2391
3NPS B D 100g;3NPS B K 100h;35.2123
3NPS B D 100g;3NPS C Y 32;15.4702
3NPS B D 100g;3NPS C V 33;0.253487
3NPS B D 100g;3NPS C S 34;20.6973
3NPS B D 100g;3NPS C Y 36;5.93107
3NPS B D 100g;3NPS C L 46;2.75829
3NPS B D 100g;3NPS C Y 49;1.30091
3NPS B D 100g;3NPS C D 50;2.42499
3NPS B D 100g;3NPS C Q 89;16.1571
3NPS B D 100g;3NPS C S 90;3.33589
3NPS B D 100g;3NPS C R 91;2.59065
3NPS B D 100g;3NPS C Y 96;22.6655
3NPS B K 100h;3NPS B M 100i;18.5818
3NPS B K 100h;3NPS B D 101;3.93856
3NPS B K 100h;3NPS C S 34;0.653154
3NPS B K 100h;3NPS C Y 36;1.2885
3NPS B K 100h;3NPS C L 46;9.99415
3NPS B K 100h;3NPS C Y 49;19.3174
3NPS B K 100h;3NPS C D 50;10.6686
3NPS B M 100i;3NPS B D 101;17.9862
3NPS B M 100i;3NPS B W 103;24.9539
3NPS B M 100i;3NPS C Y 36;24.2967
3NPS B M 100i;3NPS C L 46;12.3035
3NPS B M 100i;3NPS C Q 89;8.229
3NPS B M 100i;3NPS C F 98;8.65467
3NPS B D 101;3NPS B H 102;41.0887
3NPS B D 101;3NPS B W 103;11.1663
3NPS B D 101;3NPS C K 45;2.43613
3NPS B D 101;3NPS C L 46;15.6989
3NPS B D 101;3NPS C P 55;4.0321
3NPS B H 102;3NPS B W 103;25.8614
3NPS B W 103;3NPS B G 104;27.5503
3NPS B W 103;3NPS B Q 105;0.142264
3NPS B W 103;3NPS C Y 36;12.2182
3NPS B W 103;3NPS C A 43;13.8381
3NPS B W 103;3NPS C P 44;37.6123
3NPS B W 103;3NPS C K 45;3.33928
3NPS B W 103;3NPS C L 46;2.73738
3NPS B W 103;3NPS C F 98;2.65439
3NPS B G 104;3NPS B Q 105;21.8813
3NPS B G 104;3NPS B G 106;2.35059
3NPS B G 104;3NPS C A 43;7.90538
3NPS B Q 105;3NPS B G 106;33.8128
3NPS B Q 105;3NPS C A 43;5.03901
3NPS B G 106;3NPS B T 107;20.9146
3NPS B G 106;3NPS B L 108;1.37935
3NPS B T 107;3NPS B L 108;24.5138
3NPS B T 107;3NPS B V 109;10.0799
3NPS B L 108;3NPS B V 109;23.1104
3NPS B L 108;3NPS B T 110;17.7964
3NPS B L 108;3NPS B P 147;0.546403
3NPS B L 108;3NPS B E 148;21.8745
3NPS B L 108;3NPS B P 149;10.6022
3NPS B V 109;3NPS B T 110;20.4562
3NPS B V 109;3NPS B V 111;10.8148
3NPS B T 110;3NPS B V 111;20.1746
3NPS B T 110;3NPS B S 112;11.7566
3NPS B T 110;3NPS B F 146;11.4614
3NPS B T 110;3NPS B P 147;12.4965
3NPS B T 110;3NPS B E 148;2.53426
3NPS B T 110;3NPS B Y 176;13.2559
3NPS B V 111;3NPS B S 112;23.4679
3NPS B S 112;3NPS B S 113;24.0466
3NPS B S 112;3NPS B A 114;17.439
3NPS B S 112;3NPS B F 146;15.1314
3NPS B S 112;3NPS B G 174;3.61723
3NPS B S 113;3NPS B A 114;30.7043
3NPS B S 113;3NPS B S 115;2.47428
3NPS B S 113;3NPS B S 115;1.0699
3NPS B A 114;3NPS B S 115;20.6866
3NPS B A 114;3NPS B S 115;8.90794
3NPS B A 114;3NPS B T 116;1.43296
3NPS B A 114;3NPS B F 146;22.83
3NPS B A 114;3NPS B S 173;3.70336
3NPS B A 114;3NPS B G 174;11.5974
3NPS B A 114;3NPS B L 175;6.22714
3NPS B S 115;3NPS B T 116;14.0258
3NPS B S 115;3NPS B K 117;6.56525
3NPS B S 115;3NPS B F 146;9.94506
3NPS B S 115;3NPS B L 175;5.26121
3NPS B S 115;3NPS B T 116;16.5791
3NPS B S 115;3NPS B K 117;2.7034
3NPS B S 115;3NPS B L 175;1.01788
3NPS B T 116;3NPS B K 117;26.4107
3NPS B T 116;3NPS B F 146;15.0356
3NPS B T 116;3NPS B P 147;9.49528
3NPS B T 116;3NPS B H 200;1.49991
3NPS B T 116;3NPS B P 202;16.2422
3NPS B T 116;3NPS B S 203;13.7936
3NPS B K 117;3NPS B G 118;36.5015
3NPS B K 117;3NPS B P 119;0.160356
3NPS B K 117;3NPS B S 120;9.93302
3NPS B K 117;3NPS B K 143;0.833266
3NPS B K 117;3NPS B D 144;22.2709
3NPS B K 117;3NPS B Y 145;8.21729
3NPS B K 117;3NPS B F 146;15.9631
3NPS B K 117;3NPS B L 175;23.3391
3NPS B K 117;3NPS B H 200;5.19975
3NPS B K 117;3NPS B S 203;3.78622
3NPS B G 118;3NPS B P 119;24.6665
3NPS B G 118;3NPS B S 120;0.366715
3NPS B G 118;3NPS B D 144;2.71431
3NPS B G 118;3NPS B Y 145;2.69708
3NPS B G 118;3NPS B H 200;3.57999
3NPS B G 118;3NPS B S 203;10.619
3NPS B G 118;3NPS B T 205;11.7942
3NPS B P 119;3NPS B S 120;25.856
3NPS B P 119;3NPS B V 121;10.4039
3NPS B P 119;3NPS B V 142;11.0223
3NPS B P 119;3NPS B K 143;8.0849
3NPS B P 119;3NPS B D 144;2.35329
3NPS B P 119;3NPS B Y 145;17.0256
3NPS B P 119;3NPS B V 150;6.0972
3NPS B P 119;3NPS B V 198;8.01175
3NPS B P 119;3NPS B H 200;12.7963
3NPS B P 119;3NPS B T 205;18.3935
3NPS B P 119;3NPS B V 207;6.52336
3NPS B S 120;3NPS B V 121;24.1536
3NPS B S 120;3NPS B F 122;24.4005
3NPS B S 120;3NPS B L 141;2.57938
3NPS B S 120;3NPS B V 142;2.90195
3NPS B S 120;3NPS B K 143;21.8709
3NPS B S 120;3NPS B D 144;2.2551
3NPS B S 120;3NPS C S 127;2.08428
3NPS B V 121;3NPS B F 122;31.0795
3NPS B V 121;3NPS B P 123;0.534729
3NPS B V 121;3NPS B C 140;8.07488
3NPS B V 121;3NPS B L 141;5.58003
3NPS B V 121;3NPS B V 142;10.6175
3NPS B V 121;3NPS B C 196;5.48008
3NPS B V 121;3NPS B V 198;16.7943
3NPS B V 121;3NPS B V 207;23.4913
3NPS B V 121;3NPS B K 209;26.2879
3NPS B V 121;3NPS C E 123;0.677759
3NPS B F 122;3NPS B P 123;27.0296
3NPS B F 122;3NPS B L 124;3.26347
3NPS B F 122;3NPS B C 140;6.83433
3NPS B F 122;3NPS B L 141;33.0644
3NPS B F 122;3NPS B K 143;13.4103
3NPS B F 122;3NPS B K 209;1.93666
3NPS B F 122;3NPS C S 121;9.67046
3NPS B F 122;3NPS C E 123;13.8496
3NPS B F 122;3NPS C Q 124;24.3474
3NPS B F 122;3NPS C S 127;18.0937
3NPS B F 122;3NPS C T 129;5.64297
3NPS B P 123;3NPS B L 124;25.2428
3NPS B P 123;3NPS B A 125;11.17
3NPS B P 123;3NPS B G 139;1.56075
3NPS B P 123;3NPS B C 140;3.72063
3NPS B P 123;3NPS B K 209;18.0662
3NPS B P 123;3NPS B K 210;6.9956
3NPS B P 123;3NPS B V 211;14.732
3NPS B P 123;3NPS B E 212;2.16951
3NPS B P 123;3NPS C P 119;1.08565
3NPS B P 123;3NPS C S 121;23.5593
3NPS B P 123;3NPS C E 123;18.8838
3NPS B L 124;3NPS B A 125;20.0264
3NPS B L 124;3NPS B P 126;0.188539
3NPS B L 124;3NPS B L 138;5.31578
3NPS B L 124;3NPS B G 139;22.2052
3NPS B L 124;3NPS B C 140;9.51213
3NPS B L 124;3NPS B L 141;19.047
3NPS B L 124;3NPS B S 179;9.84018
3NPS B L 124;3NPS B S 180;0.984921
3NPS B L 124;3NPS B V 181;7.10836
3NPS B L 124;3NPS B V 211;7.27047
3NPS B L 124;3NPS C F 118;31.9922
3NPS B L 124;3NPS C P 119;8.11379
3NPS B L 124;3NPS C P 120;0.767753
3NPS B L 124;3NPS C S 121;1.88317
3NPS B L 124;3NPS C S 131;2.02946
3NPS B L 124;3NPS C V 133;18.7286
3NPS B A 125;3NPS B P 126;28.9844
3NPS B A 125;3NPS B S 127;5.76051
3NPS B A 125;3NPS B L 138;0.446563
3NPS B A 125;3NPS B V 211;5.52417
3NPS B A 125;3NPS B E 212;12.06
3NPS B A 125;3NPS B P 213;8.52458
3NPS B A 125;3NPS C F 118;15.0352
3NPS B A 125;3NPS C P 119;2.11354
3NPS B P 126;3NPS B S 127;28.8131
3NPS B P 126;3NPS B S 128;4.69101
3NPS B P 126;3NPS B S 130;0.908235
3NPS B P 126;3NPS B A 136;7.30997
3NPS B P 126;3NPS B A 137;10.157
3NPS B P 126;3NPS B L 138;18.4203
3NPS B P 126;3NPS B L 189;19.4799
3NPS B P 126;3NPS B V 211;8.54348
3NPS B P 126;3NPS B E 212;6.61906
3NPS B P 126;3NPS B P 213;26.1242
3NPS B P 126;3NPS C F 118;0.822411
3NPS B S 127;3NPS B S 128;27.3577
3NPS B S 127;3NPS B K 129;19.8699
3NPS B S 127;3NPS B S 130;7.42292
3NPS B S 127;3NPS B S 130;15.9424
3NPS B S 127;3NPS B A 136;0.961076
3NPS B S 127;3NPS B A 137;3.23179
3NPS B S 127;3NPS B L 189;2.9291
3NPS B S 127;3NPS C F 116;3.51546
3NPS B S 127;3NPS C I 117;8.39937
3NPS B S 127;3NPS C F 118;2.80108
3NPS B S 128;3NPS B K 129;36.1955
3NPS B S 128;3NPS B S 130;6.31643
3NPS B S 128;3NPS B S 130;0.649413
3NPS B S 128;3NPS B K 214;0.0378029
3NPS B K 129;3NPS B S 130;20.22
3NPS B K 129;3NPS B S 130;4.61182
3NPS B K 129;3NPS B T 131;10.3654
3NPS B K 129;3NPS C S 208;6.18109
3NPS B K 129;3NPS C F 209;2.97994
3NPS B S 130;3NPS B T 131;14.5116
3NPS B S 130;3NPS B S 132;4.42547
3NPS B S 130;3NPS B S 132;4.53717
3NPS B S 130;3NPS B S 186;4.03731
3NPS B S 130;3NPS B T 131;9.91087
3NPS B S 130;3NPS B T 135;4.72008
3NPS B S 130;3NPS B A 136;14.7502
3NPS B S 130;3NPS B S 186;12.9197
3NPS B S 130;3NPS B L 189;9.85414
3NPS B T 131;3NPS B S 132;28.0386
3NPS B T 131;3NPS B S 132;3.4387
3NPS B T 131;3NPS B G 133;0.968983
3NPS B T 131;3NPS B G 134;19.467
3NPS B T 131;3NPS B T 135;11.0618
3NPS B T 131;3NPS B S 186;9.18003
3NPS B S 132;3NPS B G 133;19.4408
3NPS B S 132;3NPS B G 134;3.02542
3NPS B S 132;3NPS B G 133;8.53071
3NPS B S 132;3NPS B S 186;6.19974
3NPS B G 133;3NPS B G 134;29.0778
3NPS B G 133;3NPS B S 186;4.62206
3NPS B G 133;3NPS B S 187;12.4646
3NPS B G 134;3NPS B T 135;27.9537
3NPS B G 134;3NPS B P 185;8.3318
3NPS B G 134;3NPS B S 186;5.96494
3NPS B G 134;3NPS B S 186;7.27145
3NPS B G 134;3NPS B S 187;0.706279
3NPS B T 135;3NPS B A 136;22.8028
3NPS B T 135;3NPS B T 183;17.3845
3NPS B T 135;3NPS B V 184;11.1536
3NPS B T 135;3NPS B P 185;3.49446
3NPS B T 135;3NPS B S 186;1.23498
3NPS B T 135;3NPS B S 186;1.7044
3NPS B T 135;3NPS C S 114;0.130059
3NPS B T 135;3NPS C F 116;19.3202
3NPS B A 136;3NPS B A 137;23.8403
3NPS B A 136;3NPS B L 138;1.70667
3NPS B A 136;3NPS B V 182;0.435805
3NPS B A 136;3NPS B T 183;6.98514
3NPS B A 136;3NPS B V 184;21.1981
3NPS B A 136;3NPS B P 185;0.535889
3NPS B A 136;3NPS B S 186;2.2264
3NPS B A 136;3NPS B S 186;5.91093
3NPS B A 136;3NPS B L 189;10.5268
3NPS B A 136;3NPS C F 116;5.65219
3NPS B A 137;3NPS B L 138;20.8416
3NPS B A 137;3NPS B V 181;1.9848
3NPS B A 137;3NPS B V 182;6.63013
3NPS B A 137;3NPS B T 183;8.73144
3NPS B A 137;3NPS B V 184;0.0387823
3NPS B A 137;3NPS C F 116;23.5131
3NPS B A 137;3NPS C F 118;16.3976
3NPS B A 137;3NPS C L 135;9.39696
3NPS B L 138;3NPS B G 139;19.6893
3NPS B L 138;3NPS B W 154;10.3685
3NPS B L 138;3NPS B V 181;7.9763
3NPS B L 138;3NPS B V 182;28.4995
3NPS B L 138;3NPS B V 184;12.1663
3NPS B L 138;3NPS B L 189;7.82546
3NPS B L 138;3NPS B Y 194;21.3377
3NPS B L 138;3NPS B V 211;15.5147
3NPS B L 138;3NPS C F 118;9.10172
3NPS B G 139;3NPS B C 140;15.859
3NPS B G 139;3NPS B W 154;10.3636
3NPS B G 139;3NPS B S 180;4.67828
3NPS B G 139;3NPS B V 181;6.17028
3NPS B G 139;3NPS B V 211;9.33837
3NPS B G 139;3NPS C F 118;0.618724
3NPS B C 140;3NPS B L 141;16.4028
3NPS B C 140;3NPS B V 142;11.8409
3NPS B C 140;3NPS B V 152;1.71668
3NPS B C 140;3NPS B W 154;7.80218
3NPS B C 140;3NPS B S 179;6.10507
3NPS B C 140;3NPS B S 180;17.6501
3NPS B C 140;3NPS B C 196;18.7092
3NPS B C 140;3NPS B V 198;1.20521
3NPS B C 140;3NPS B K 209;5.09709
3NPS B C 140;3NPS B V 211;8.48724
3NPS B L 141;3NPS B V 142;20.6757
3NPS B L 141;3NPS B K 143;17.7474
3NPS B L 141;3NPS B S 177;11.2757
3NPS B L 141;3NPS B L 178;7.43901
3NPS B L 141;3NPS B S 179;13.8077
3NPS B L 141;3NPS C Q 124;10.2211
3NPS B L 141;3NPS C S 131;14.9495
3NPS B L 141;3NPS C V 133;8.59352
3NPS B L 141;3NPS C T 178;7.25423
3NPS B V 142;3NPS B K 143;16.7747
3NPS B V 142;3NPS B Y 145;13.1458
3NPS B V 142;3NPS B V 150;10.5391
3NPS B V 142;3NPS B V 152;7.9224
3NPS B V 142;3NPS B Y 176;0.0502449
3NPS B V 142;3NPS B S 177;5.37141
3NPS B V 142;3NPS B L 178;28.6825
3NPS B V 142;3NPS B S 179;0.332796
3NPS B V 142;3NPS B S 180;2.42312
3NPS B V 142;3NPS B V 198;16.1481
3NPS B K 143;3NPS B D 144;49.9933
3NPS B K 143;3NPS B Y 145;2.98962
3NPS B K 143;3NPS B E 171;12.4587
3NPS B K 143;3NPS B Y 176;0.0877183
3NPS B K 143;3NPS B S 177;13.9097
3NPS B K 143;3NPS C Q 124;7.09329
3NPS B K 143;3NPS C T 129;19.1558
3NPS B K 143;3NPS C S 131;10.4052
3NPS B K 143;3NPS C T 180;11.0819
3NPS B D 144;3NPS B Y 145;17.6226
3NPS B D 144;3NPS B E 171;12.4553
3NPS B D 144;3NPS B S 173;2.6823
3NPS B D 144;3NPS B L 175;23.7481
3NPS B D 144;3NPS B Y 176;7.42702
3NPS B D 144;3NPS B S 177;2.17168
3NPS B D 144;3NPS C T 129;1.28941
3NPS B Y 145;3NPS B F 146;19.9147
3NPS B Y 145;3NPS B P 147;6.28762
3NPS B Y 145;3NPS B E 148;16.1506
3NPS B Y 145;3NPS B P 149;2.33706
3NPS B Y 145;3NPS B V 150;18.4223
3NPS B Y 145;3NPS B A 168;7.84776
3NPS B Y 145;3NPS B L 175;9.42617
3NPS B Y 145;3NPS B Y 176;34.879
3NPS B Y 145;3NPS B S 177;1.77477
3NPS B Y 145;3NPS B S 177;3.17858
3NPS B Y 145;3NPS B L 178;12.0694
3NPS B Y 145;3NPS B H 200;11.2865
3NPS B F 146;3NPS B P 147;35.039
3NPS B F 146;3NPS B L 170;0.512946
3NPS B F 146;3NPS B G 174;10.7985
3NPS B F 146;3NPS B L 175;11.1889
3NPS B F 146;3NPS B Y 176;15.1542
3NPS B F 146;3NPS B H 200;8.19704
3NPS B P 147;3NPS B E 148;31.2974
3NPS B P 147;3NPS B P 149;1.47308
3NPS B P 147;3NPS B Y 176;5.85036
3NPS B P 147;3NPS B H 200;10.4782
3NPS B P 147;3NPS B P 202;20.6468
3NPS B E 148;3NPS B P 149;35.4027
3NPS B E 148;3NPS B V 150;4.24533
3NPS B E 148;3NPS B A 168;17.5375
3NPS B E 148;3NPS B Y 176;29.6752
3NPS B E 148;3NPS B L 178;2.2513
3NPS B E 148;3NPS B P 202;4.33567
3NPS B P 149;3NPS B V 150;29.9517
3NPS B P 149;3NPS B T 151;7.69091
3NPS B P 149;3NPS B N 199;0.377856
3NPS B P 149;3NPS B H 200;8.77461
3NPS B P 149;3NPS B K 201;2.43924
3NPS B P 149;3NPS B P 202;16.3343
3NPS B V 150;3NPS B T 151;31.2211
3NPS B V 150;3NPS B V 152;9.32828
3NPS B V 150;3NPS B T 165;1.87397
3NPS B V 150;3NPS B L 178;16.9572
3NPS B V 150;3NPS B V 198;9.84732
3NPS B V 150;3NPS B N 199;9.63635
3NPS B V 150;3NPS B H 200;12.7483
3NPS B T 151;3NPS B V 152;30.6483
3NPS B T 151;3NPS B S 153;0.341034
3NPS B T 151;3NPS B N 197;3.22678
3NPS B T 151;3NPS B V 198;5.77693
3NPS B T 151;3NPS B N 199;15.2006
3NPS B T 151;3NPS B N 199;19.5937
3NPS B T 151;3NPS B K 201;1.39755
3NPS B V 152;3NPS B S 153;32.2323
3NPS B V 152;3NPS B W 154;8.25901
3NPS B V 152;3NPS B V 163;2.11211
3NPS B V 152;3NPS B T 165;22.9195
3NPS B V 152;3NPS B L 178;6.73806
3NPS B V 152;3NPS B S 180;15.7542
3NPS B V 152;3NPS B C 196;7.38522
3NPS B V 152;3NPS B N 197;7.68334
3NPS B V 152;3NPS B V 198;13.4877
3NPS B S 153;3NPS B W 154;27.8585
3NPS B S 153;3NPS B S 156;5.75354
3NPS B S 153;3NPS B G 157;15.2945
3NPS B S 153;3NPS B V 163;0.119241
3NPS B S 153;3NPS B I 195;0.0353971
3NPS B S 153;3NPS B C 196;4.33058
3NPS B S 153;3NPS B N 197;31.4146
3NPS B W 154;3NPS B N 155;19.5878
3NPS B W 154;3NPS B S 156;1.55247
3NPS B W 154;3NPS B G 157;8.61843
3NPS B W 154;3NPS B A 158;1.85278
3NPS B W 154;3NPS B L 159;32.5297
3NPS B W 154;3NPS B V 163;20.1134
3NPS B W 154;3NPS B T 165;0.0638133
3NPS B W 154;3NPS B S 180;16.5593
3NPS B W 154;3NPS B V 181;5.2714
3NPS B W 154;3NPS B V 182;15.7601
3NPS B W 154;3NPS B Y 194;9.25414
3NPS B W 154;3NPS B I 195;12.6088
3NPS B W 154;3NPS B C 196;18.1219
3NPS B W 154;3NPS B N 197;3.12525
3NPS B W 154;3NPS B V 211;9.11554
3NPS B N 155;3NPS B S 156;26.5688
3NPS B N 155;3NPS B G 157;1.46383
3NPS B N 155;3NPS B A 158;20.8358
3NPS B N 155;3NPS B L 159;18.5559
3NPS B N 155;3NPS B Q 192;12.2882
3NPS B N 155;3NPS B T 193;10.2421
3NPS B N 155;3NPS B Y 194;11.6361
3NPS B N 155;3NPS B I 195;26.2826
3NPS B N 155;3NPS B N 197;3.2451
3NPS B S 156;3NPS B G 157;22.0447
3NPS B S 156;3NPS B A 158;4.36687
3NPS B S 156;3NPS B N 197;22.0782
3NPS B G 157;3NPS B A 158;22.4176
3NPS B G 157;3NPS B L 159;5.66177
3NPS B G 157;3NPS B T 160;17.0254
3NPS B G 157;3NPS B N 197;0.251045
3NPS B A 158;3NPS B L 159;23.2437
3NPS B A 158;3NPS B T 160;8.25083
3NPS B L 159;3NPS B T 160;27.5971
3NPS B L 159;3NPS B S 161;11.2993
3NPS B L 159;3NPS B S 161;3.69713
3NPS B L 159;3NPS B V 163;11.8487
3NPS B L 159;3NPS B V 182;16.0193
3NPS B L 159;3NPS B T 183;0.243599
3NPS B L 159;3NPS B V 184;8.10329
3NPS B L 159;3NPS B Y 194;17.7029
3NPS B T 160;3NPS B S 161;22.2866
3NPS B T 160;3NPS B S 161;11.8882
3NPS B T 160;3NPS B G 162;2.38429
3NPS B T 160;3NPS B V 163;21.306
3NPS B S 161;3NPS B G 162;14.2703
3NPS B S 161;3NPS B V 163;4.56769
3NPS B S 161;3NPS B V 182;5.98422
3NPS B S 161;3NPS B T 183;3.94802
3NPS B S 161;3NPS B G 162;10.6495
3NPS B G 162;3NPS B V 163;20.7622
3NPS B G 162;3NPS B H 164;13.5862
3NPS B G 162;3NPS B V 181;2.32699
3NPS B G 162;3NPS B V 182;9.34089
3NPS B G 162;3NPS B T 183;22.7767
3NPS B G 162;3NPS C N 137;1.56396
3NPS B G 162;3NPS C N 138;1.89346
3NPS B V 163;3NPS B H 164;33.2223
3NPS B V 163;3NPS B T 165;11.3995
3NPS B V 163;3NPS B S 180;4.49578
3NPS B V 163;3NPS B V 181;6.76447
3NPS B V 163;3NPS B V 182;13.5749
3NPS B H 164;3NPS B T 165;22.6067
3NPS B H 164;3NPS B F 166;13.1107
3NPS B H 164;3NPS B S 179;0.330057
3NPS B H 164;3NPS B S 180;5.23577
3NPS B H 164;3NPS B V 181;26.7253
3NPS B H 164;3NPS C L 135;0.545844
3NPS B H 164;3NPS C N 137;11.8323
3NPS B H 164;3NPS C N 138;15.4869
3NPS B H 164;3NPS C T 164;19.866
3NPS B H 164;3NPS C D 167;12.6036
3NPS B H 164;3NPS C T 172;0.776024
3NPS B H 164;3NPS C Y 173;0.327538
3NPS B H 164;3NPS C S 174;17.0709
3NPS B T 165;3NPS B F 166;25.9881
3NPS B T 165;3NPS B P 167;5.27272
3NPS B T 165;3NPS B L 178;14.449
3NPS B T 165;3NPS B S 179;2.55003
3NPS B T 165;3NPS B S 180;14.7069
3NPS B T 165;3NPS C T 164;7.48558
3NPS B F 166;3NPS B P 167;31.0462
3NPS B F 166;3NPS B A 168;1.36844
3NPS B F 166;3NPS B L 178;15.6693
3NPS B F 166;3NPS B S 179;18.6836
3NPS B F 166;3NPS B S 179;5.80281
3NPS B F 166;3NPS B S 180;0.461985
3NPS B F 166;3NPS B V 181;13.2725
3NPS B F 166;3NPS C L 135;11.4664
3NPS B F 166;3NPS C S 162;15.099
3NPS B F 166;3NPS C V 163;1.14872
3NPS B F 166;3NPS C V 163;1.72914
3NPS B F 166;3NPS C T 164;14.8458
3NPS B F 166;3NPS C S 174;10.3162
3NPS B F 166;3NPS C L 175;8.31882
3NPS B F 166;3NPS C S 176;22.286
3NPS B P 167;3NPS B A 168;31.7186
3NPS B P 167;3NPS B V 169;4.17451
3NPS B P 167;3NPS B S 177;0.248789
3NPS B P 167;3NPS B L 178;4.06128
3NPS B P 167;3NPS C S 162;21.5111
3NPS B P 167;3NPS C V 163;15.1167
3NPS B P 167;3NPS C T 164;10.3061
3NPS B P 167;3NPS C E 165;3.22582
3NPS B A 168;3NPS B V 169;26.0664
3NPS B A 168;3NPS B L 170;1.55405
3NPS B A 168;3NPS B Y 176;13.3044
3NPS B A 168;3NPS B S 177;8.03519
3NPS B A 168;3NPS B L 178;14.917
3NPS B A 168;3NPS C S 162;0.000148525
3NPS B V 169;3NPS B L 170;29.8878
3NPS B V 169;3NPS B E 171;7.96809
3NPS B V 169;3NPS B L 175;0.216813
3NPS B V 169;3NPS B Y 176;8.25763
3NPS B V 169;3NPS B S 177;18.0123
3NPS B V 169;3NPS B S 177;3.39471
3NPS B V 169;3NPS C Q 160;32.6522
3NPS B V 169;3NPS C E 161;12.2773
3NPS B V 169;3NPS C S 162;12.5976
3NPS B L 170;3NPS B E 171;33.5249
3NPS B L 170;3NPS B S 172;1.94548
3NPS B L 170;3NPS B G 174;18.7865
3NPS B L 170;3NPS B L 175;6.40032
3NPS B L 170;3NPS B Y 176;34.0127
3NPS B L 170;3NPS C Q 160;8.00939
3NPS B E 171;3NPS B S 172;28.1586
3NPS B E 171;3NPS B S 173;15.6735
3NPS B E 171;3NPS B G 174;8.44825
3NPS B E 171;3NPS B L 175;18.6073
3NPS B E 171;3NPS B Y 176;4.78235
3NPS B E 171;3NPS B S 177;1.19938
3NPS B E 171;3NPS B S 177;16.6945
3NPS B E 171;3NPS C Q 160;18.4504
3NPS B E 171;3NPS C T 180;5.25748
3NPS B S 172;3NPS B S 173;28.9309
3NPS B S 172;3NPS B G 174;5.37961
3NPS B S 172;3NPS C Q 160;0.179339
3NPS B S 173;3NPS B G 174;21.2259
3NPS B S 173;3NPS B L 175;28.23
3NPS B G 174;3NPS B L 175;21.5072
3NPS B G 174;3NPS B Y 176;1.83518
3NPS B L 175;3NPS B Y 176;19.596
3NPS B Y 176;3NPS B S 177;11.9433
3NPS B Y 176;3NPS B S 177;5.90516
3NPS B S 177;3NPS B L 178;17.5025
3NPS B S 177;3NPS B L 178;7.12435
3NPS B S 177;3NPS C T 178;0.642719
3NPS B L 178;3NPS B S 179;23.4913
3NPS B L 178;3NPS B S 179;8.4112
3NPS B L 178;3NPS B S 180;4.40609
3NPS B S 179;3NPS B S 180;13.6917
3NPS B S 179;3NPS B V 181;0.434572
3NPS B S 179;3NPS C S 176;1.02697
3NPS B S 179;3NPS B S 180;5.02389
3NPS B S 179;3NPS B V 181;7.20102
3NPS B S 179;3NPS C V 133;13.0784
3NPS B S 179;3NPS C S 176;6.8645
3NPS B S 179;3NPS C T 178;4.91289
3NPS B S 180;3NPS B V 181;21.7706
3NPS B S 180;3NPS B C 196;3.11955e-06
3NPS B V 181;3NPS B V 182;23.7707
3NPS B V 181;3NPS B T 183;1.41169
3NPS B V 181;3NPS C F 118;8.36835
3NPS B V 181;3NPS C V 133;4.16586
3NPS B V 181;3NPS C L 135;26.0827
3NPS B V 181;3NPS C N 137;2.74645
3NPS B V 181;3NPS C S 176;0.262468
3NPS B V 182;3NPS B T 183;26.8823
3NPS B V 182;3NPS B V 184;13.6866
3NPS B V 182;3NPS B Y 194;2.42748
3NPS B V 182;3NPS C L 135;0.0307006
3NPS B T 183;3NPS B V 184;25.9914
3NPS B T 183;3NPS C S 114;0.0168357
3NPS B T 183;3NPS C F 116;9.14543
3NPS B T 183;3NPS C L 135;4.87387
3NPS B T 183;3NPS C N 137;23.1937
3NPS B T 183;3NPS C N 138;1.77713
3NPS B V 184;3NPS B P 185;36.3209
3NPS B V 184;3NPS B S 186;1.24319
3NPS B V 184;3NPS B S 188;4.67934
3NPS B V 184;3NPS B L 189;7.61548
3NPS B V 184;3NPS B Y 194;21.3392
3NPS B P 185;3NPS B S 186;12.4339
3NPS B P 185;3NPS B S 186;3.41329
3NPS B P 185;3NPS B S 187;17.292
3NPS B P 185;3NPS B S 188;23.9573
3NPS B P 185;3NPS B L 189;3.47551
3NPS B P 185;3NPS B Y 194;2.25118
3NPS B S 186;3NPS B S 187;19.7235
3NPS B S 186;3NPS B S 188;2.056
3NPS B S 186;3NPS B L 189;14.0511
3NPS B S 186;3NPS B G 190;1.02466
3NPS B S 186;3NPS B S 187;4.51905
3NPS B S 186;3NPS B L 189;9.44903
3NPS B S 187;3NPS B S 188;22.6322
3NPS B S 187;3NPS B L 189;2.01575
3NPS B S 187;3NPS B G 190;4.96362
3NPS B S 187;3NPS B T 191;5.02472
3NPS B S 188;3NPS B L 189;20.7834
3NPS B S 188;3NPS B G 190;2.71995
3NPS B S 188;3NPS B T 191;11.8963
3NPS B S 188;3NPS B Q 192;19.2686
3NPS B S 188;3NPS B Y 194;14.6434
3NPS B L 189;3NPS B G 190;28.4066
3NPS B L 189;3NPS B T 191;2.83197
3NPS B L 189;3NPS B Q 192;10.0795
3NPS B L 189;3NPS B Y 194;11.653
3NPS B L 189;3NPS B P 213;29.4601
3NPS B G 190;3NPS B T 191;33.7071
3NPS B G 190;3NPS B Q 192;0.00400157
3NPS B G 190;3NPS B P 213;0.234828
3NPS B T 191;3NPS B Q 192;31.0623
3NPS B T 191;3NPS B T 193;2.81945
3NPS B T 191;3NPS B T 193;6.03325
3NPS B Q 192;3NPS B T 193;27.3508
3NPS B Q 192;3NPS B T 193;17.4024
3NPS B Q 192;3NPS B Y 194;30.8124
3NPS B Q 192;3NPS B P 213;0.290705
3NPS B T 193;3NPS B Y 194;15.4584
3NPS B T 193;3NPS B I 195;2.40663
3NPS B T 193;3NPS B Y 194;8.86584
3NPS B T 193;3NPS B I 195;11.6484
3NPS B T 193;3NPS B K 210;19.3219
3NPS B T 193;3NPS B E 212;2.86739
3NPS B Y 194;3NPS B I 195;21.2416
3NPS B Y 194;3NPS B K 209;0.247527
3NPS B Y 194;3NPS B K 210;8.10602
3NPS B Y 194;3NPS B V 211;26.0975
3NPS B I 195;3NPS B C 196;19.7404
3NPS B I 195;3NPS B N 197;14.4708
3NPS B I 195;3NPS B D 208;13.8789
3NPS B I 195;3NPS B K 209;10.322
3NPS B I 195;3NPS B K 210;20.534
3NPS B I 195;3NPS B V 211;0.403719
3NPS B C 196;3NPS B N 197;17.5902
3NPS B C 196;3NPS B V 198;10.7661
3NPS B C 196;3NPS B V 207;2.64274
3NPS B C 196;3NPS B D 208;3.96753
3NPS B C 196;3NPS B K 209;19.5548
3NPS B C 196;3NPS B V 211;1.81526
3NPS B N 197;3NPS B V 198;20.1351
3NPS B N 197;3NPS B N 199;0.572209
3NPS B N 197;3NPS B N 199;9.00683
3NPS B N 197;3NPS B V 207;2.91869
3NPS B N 197;3NPS B D 208;21.5743
3NPS B V 198;3NPS B N 199;13.8001
3NPS B V 198;3NPS B N 199;12.3965
3NPS B V 198;3NPS B H 200;1.59813
3NPS B V 198;3NPS B T 205;3.43946
3NPS B V 198;3NPS B K 206;4.74379
3NPS B V 198;3NPS B V 207;26.9013
3NPS B V 198;3NPS B D 208;0.030713
3NPS B N 199;3NPS B H 200;14.1046
3NPS B N 199;3NPS B K 201;3.48133
3NPS B N 199;3NPS B H 200;4.72278
3NPS B N 199;3NPS B K 201;14.5767
3NPS B N 199;3NPS B T 205;2.99223
3NPS B N 199;3NPS B K 206;28.0781
3NPS B N 199;3NPS B V 207;0.0242579
3NPS B H 200;3NPS B K 201;19.3133
3NPS B H 200;3NPS B P 202;16.3029
3NPS B H 200;3NPS B S 203;17.7675
3NPS B H 200;3NPS B N 204;4.60157
3NPS B H 200;3NPS B T 205;21.0538
3NPS B H 200;3NPS B K 206;1.35783
3NPS B K 201;3NPS B P 202;33.3692
3NPS B K 201;3NPS B S 203;1.63254
3NPS B K 201;3NPS B N 204;25.758
3NPS B K 201;3NPS B K 206;19.4585
3NPS B P 202;3NPS B S 203;19.7289
3NPS B P 202;3NPS B N 204;1.04558
3NPS B S 203;3NPS B N 204;28.8013
3NPS B S 203;3NPS B T 205;16.7778
3NPS B N 204;3NPS B T 205;21.7006
3NPS B N 204;3NPS B K 206;21.352
3NPS B T 205;3NPS B K 206;29.3631
3NPS B T 205;3NPS B V 207;15.694
3NPS B K 206;3NPS B V 207;32.0688
3NPS B K 206;3NPS B D 208;1.65106
3NPS B V 207;3NPS B D 208;35.4466
3NPS B V 207;3NPS B K 209;13.6345
3NPS B D 208;3NPS B K 209;23.0071
3NPS B D 208;3NPS B K 210;2.28645
3NPS B K 209;3NPS B K 210;33.0035
3NPS B K 209;3NPS B V 211;8.37247
3NPS B K 209;3NPS C E 123;19.8088
3NPS B K 210;3NPS B V 211;23.4187
3NPS B K 210;3NPS B E 212;40.0845
3NPS B V 211;3NPS B E 212;25.1494
3NPS B V 211;3NPS B P 213;3.10732
3NPS B E 212;3NPS B P 213;33.7744
3NPS B E 212;3NPS B K 214;20.7247
3NPS B P 213;3NPS B K 214;40.5295
3NPS C V 3;3NPS C L 4;28.6585
3NPS C V 3;3NPS C T 5;0.928242
3NPS C V 3;3NPS C T 5;15.2963
3NPS C V 3;3NPS C S 24;3.82019
3NPS C V 3;3NPS C G 25;6.71778
3NPS C V 3;3NPS C S 26;1.55707
3NPS C V 3;3NPS C N 27b;12.3666
3NPS C V 3;3NPS C D 92;5.0909
3NPS C V 3;3NPS C V 97;13.7354
3NPS C L 4;3NPS C T 5;13.0162
3NPS C L 4;3NPS C T 5;12.4013
3NPS C L 4;3NPS C Q 6;2.06948
3NPS C L 4;3NPS C C 23;11.5371
3NPS C L 4;3NPS C S 24;5.0557
3NPS C L 4;3NPS C G 25;6.41244
3NPS C L 4;3NPS C N 27b;14.5525
3NPS C L 4;3NPS C I 28;10.5347
3NPS C L 4;3NPS C V 33;0.668805
3NPS C L 4;3NPS C C 88;9.69177
3NPS C L 4;3NPS C Q 89;5.75771
3NPS C L 4;3NPS C S 90;11.7167
3NPS C L 4;3NPS C V 97;17.8444
3NPS C L 4;3NPS C F 98;11.4997
3NPS C L 4;3NPS C G 99;16.0103
3NPS C L 4;3NPS C G 100;8.20738
3NPS C T 5;3NPS C Q 6;18.0591
3NPS C T 5;3NPS C P 7;0.800094
3NPS C T 5;3NPS C S 22;2.24614
3NPS C T 5;3NPS C S 22;0.964001
3NPS C T 5;3NPS C C 23;5.40284
3NPS C T 5;3NPS C S 24;18.5117
3NPS C T 5;3NPS C C 88;0.0134206
3NPS C T 5;3NPS C Q 6;12.3238
3NPS C T 5;3NPS C S 24;17.5223
3NPS C T 5;3NPS C G 100;0.0454324
3NPS C Q 6;3NPS C P 7;27.2937
3NPS C Q 6;3NPS C P 8;9.15968
3NPS C Q 6;3NPS C I 21;6.46069
3NPS C Q 6;3NPS C S 22;7.97185
3NPS C Q 6;3NPS C C 23;4.55061
3NPS C Q 6;3NPS C W 35;7.47015
3NPS C Q 6;3NPS C Y 86;6.68319
3NPS C Q 6;3NPS C Y 87;6.33668
3NPS C Q 6;3NPS C C 88;15.0549
3NPS C Q 6;3NPS C G 99;10.145
3NPS C Q 6;3NPS C G 100;8.85262
3NPS C Q 6;3NPS C G 101;19.3266
3NPS C Q 6;3NPS C T 102;11.8959
3NPS C P 7;3NPS C P 8;25.9766
3NPS C P 7;3NPS C S 9;11.9575
3NPS C P 7;3NPS C V 11;13.6492
3NPS C P 7;3NPS C T 20;0.190594
3NPS C P 7;3NPS C I 21;5.77513
3NPS C P 7;3NPS C S 22;10.7436
3NPS C P 7;3NPS C S 22;14.4193
3NPS C P 7;3NPS C G 101;2.7011
3NPS C P 7;3NPS C T 102;17.6251
3NPS C P 8;3NPS C S 9;30.7482
3NPS C P 8;3NPS C G 101;9.98177
3NPS C P 8;3NPS C T 102;4.61758
3NPS C P 8;3NPS C K 103;14.3975
3NPS C S 9;3NPS C V 11;29.7701
3NPS C S 9;3NPS C S 12;7.19985
3NPS C S 9;3NPS C T 102;4.05973
3NPS C S 9;3NPS C K 103;12.6455
3NPS C S 9;3NPS C T 105;7.73035
3NPS C V 11;3NPS C S 12;30.6689
3NPS C V 11;3NPS C V 19;15.0476
3NPS C V 11;3NPS C T 20;14.0817
3NPS C V 11;3NPS C I 21;14.1373
3NPS C V 11;3NPS C T 102;12.9896
3NPS C V 11;3NPS C K 103;7.77165
3NPS C V 11;3NPS C L 104;15.9631
3NPS C V 11;3NPS C T 105;7.25774
3NPS C S 12;3NPS C G 13;17.2635
3NPS C S 12;3NPS C Q 17;2.88669
3NPS C S 12;3NPS C V 19;9.03338
3NPS C S 12;3NPS C L 104;3.88421
3NPS C S 12;3NPS C T 105;20.8478
3NPS C S 12;3NPS C L 106a;22.1791
3NPS C G 13;3NPS C A 14;14.6226
3NPS C G 13;3NPS C Q 17;9.19033
3NPS C G 13;3NPS C V 19;6.79685
3NPS C G 13;3NPS C L 78;13.4391
3NPS C G 13;3NPS C L 104;4.54677
3NPS C G 13;3NPS C T 105;5.31459
3NPS C G 13;3NPS C V 106;6.1784
3NPS C G 13;3NPS C L 106a;15.765
3NPS C A 14;3NPS C P 15;32.1238
3NPS C A 14;3NPS C G 16;0.72417
3NPS C A 14;3NPS C Q 17;25.0407
3NPS C A 14;3NPS C L 78;8.33129
3NPS C A 14;3NPS C V 106;0.561768
3NPS C A 14;3NPS C L 106a;22.6239
3NPS C P 15;3NPS C G 16;22.223
3NPS C P 15;3NPS C Q 17;4.17884
3NPS C P 15;3NPS C L 78;10.6073
3NPS C P 15;3NPS C Q 79;11.9143
3NPS C P 15;3NPS C S 80;10.737
3NPS C P 15;3NPS C V 106;13.7585
3NPS C P 15;3NPS C L 106a;11.3917
3NPS C P 15;3NPS C S 171;1.02899
3NPS C G 16;3NPS C Q 17;24.2473
3NPS C G 16;3NPS C R 18;1.95615
3NPS C G 16;3NPS C G 77;18.3537
3NPS C G 16;3NPS C L 78;8.03129
3NPS C G 16;3NPS C Q 79;9.16321
3NPS C Q 17;3NPS C R 18;34.6451
3NPS C Q 17;3NPS C V 19;8.39876
3NPS C Q 17;3NPS C I 75;2.30392
3NPS C Q 17;3NPS C G 77;5.93086
3NPS C Q 17;3NPS C L 78;17.7522
3NPS C Q 17;3NPS C L 106a;8.20519
3NPS C R 18;3NPS C V 19;32.4913
3NPS C R 18;3NPS C T 20;0.0190683
3NPS C R 18;3NPS C T 20;16.1382
3NPS C R 18;3NPS C V 72;2.17734
3NPS C R 18;3NPS C A 74;19.6409
3NPS C R 18;3NPS C I 75;6.56631
3NPS C R 18;3NPS C T 76;29.8123
3NPS C R 18;3NPS C G 77;2.35569
3NPS C R 18;3NPS C L 78;0.0356677
3NPS C V 19;3NPS C T 20;19.4782
3NPS C V 19;3NPS C T 20;9.00925
3NPS C V 19;3NPS C I 21;5.45274
3NPS C V 19;3NPS C L 73;0.79951
3NPS C V 19;3NPS C A 74;5.44109
3NPS C V 19;3NPS C I 75;29.3265
3NPS C V 19;3NPS C L 78;15.6239
3NPS C V 19;3NPS C L 104;11.1122
3NPS C T 20;3NPS C I 21;18.3925
3NPS C T 20;3NPS C S 22;1.95547
3NPS C T 20;3NPS C I 21;6.15937
3NPS C T 20;3NPS C S 22;1.15789
3NPS C T 20;3NPS C S 22;0.883644
3NPS C T 20;3NPS C V 72;19.125
3NPS C T 20;3NPS C L 73;5.45587
3NPS C T 20;3NPS C A 74;6.27497
3NPS C I 21;3NPS C S 22;19.6799
3NPS C I 21;3NPS C S 22;5.14082
3NPS C I 21;3NPS C C 23;0.0083674
3NPS C I 21;3NPS C W 35;15.7528
3NPS C I 21;3NPS C A 71;0.248236
3NPS C I 21;3NPS C V 72;7.70876
3NPS C I 21;3NPS C L 73;26.2263
3NPS C I 21;3NPS C I 75;10.9794
3NPS C I 21;3NPS C Y 86;17.3191
3NPS C I 21;3NPS C T 102;20.7811
3NPS C I 21;3NPS C L 104;6.49561
3NPS C S 22;3NPS C C 23;13.1424
3NPS C S 22;3NPS C S 24;0.317837
3NPS C S 22;3NPS C W 35;3.11329
3NPS C S 22;3NPS C V 72;0.0212535
3NPS C S 22;3NPS C C 23;6.60244
3NPS C S 22;3NPS C S 24;10.168
3NPS C S 22;3NPS C W 35;0.001446
3NPS C S 22;3NPS C S 70;2.2337
3NPS C S 22;3NPS C A 71;4.38986
3NPS C S 22;3NPS C V 72;12.9416
3NPS C C 23;3NPS C S 24;20.9458
3NPS C C 23;3NPS C G 25;0.042927
3NPS C C 23;3NPS C I 28;16.1288
3NPS C C 23;3NPS C V 33;3.96932
3NPS C C 23;3NPS C W 35;10.217
3NPS C C 23;3NPS C T 69;0.0761454
3NPS C C 23;3NPS C S 70;6.85292
3NPS C C 23;3NPS C A 71;20.1838
3NPS C C 23;3NPS C C 88;18.4242
3NPS C S 24;3NPS C G 25;25.5647
3NPS C S 24;3NPS C I 28;1.48136
3NPS C S 24;3NPS C T 69;0.975468
3NPS C S 24;3NPS C S 70;16.1914
3NPS C G 25;3NPS C S 26;24.7845
3NPS C G 25;3NPS C N 27b;5.02148
3NPS C G 25;3NPS C I 28;8.88557
3NPS C G 25;3NPS C T 69;20.761
3NPS C G 25;3NPS C S 70;0.0768266
3NPS C S 26;3NPS C S 27;22.4306
3NPS C S 26;3NPS C S 27a;13.93
3NPS C S 26;3NPS C N 27b;23.733
3NPS C S 26;3NPS C I 28;4.22123
3NPS C S 26;3NPS C G 29;5.18134
3NPS C S 26;3NPS C T 69;12.1464
3NPS C S 27;3NPS C S 27a;23.6145
3NPS C S 27;3NPS C N 27b;2.87581
3NPS C S 27;3NPS C G 29;11.3535
3NPS C S 27;3NPS C S 30;15.6292
3NPS C S 27;3NPS C T 69;14.9043
3NPS C S 27a;3NPS C N 27b;18.7493
3NPS C S 27a;3NPS C S 30;9.37232
3NPS C S 27a;3NPS C N 31;6.86883
3NPS C S 27a;3NPS C R 91;0.305759
3NPS C S 27a;3NPS C D 92;18.6011
3NPS C S 27a;3NPS C I 93;28.9697
3NPS C N 27b;3NPS C I 28;22.9442
3NPS C N 27b;3NPS C G 29;1.93538
3NPS C N 27b;3NPS C S 30;5.03025
3NPS C N 27b;3NPS C N 31;11.934
3NPS C N 27b;3NPS C S 90;8.09692
3NPS C N 27b;3NPS C R 91;8.33664
3NPS C N 27b;3NPS C D 92;18.7982
3NPS C N 27b;3NPS C V 97;5.07249
3NPS C I 28;3NPS C G 29;16.638
3NPS C I 28;3NPS C S 30;1.82136
3NPS C I 28;3NPS C N 31;10.1653
3NPS C I 28;3NPS C V 33;16.7964
3NPS C I 28;3NPS C K 66;17.9214
3NPS C I 28;3NPS C G 68;5.07207
3NPS C I 28;3NPS C T 69;13.3722
3NPS C I 28;3NPS C S 70;9.33333
3NPS C I 28;3NPS C A 71;7.38926
3NPS C I 28;3NPS C S 90;10.7308
3NPS C G 29;3NPS C S 30;23.3096
3NPS C G 29;3NPS C N 31;0.408191
3NPS C G 29;3NPS C K 66;7.37957
3NPS C G 29;3NPS C G 68;9.66514
3NPS C G 29;3NPS C T 69;11.9557
3NPS C S 30;3NPS C N 31;31.5236
3NPS C S 30;3NPS C K 66;0.310307
3NPS C N 31;3NPS C Y 32;27.6663
3NPS C N 31;3NPS C V 33;2.34501
3NPS C N 31;3NPS C N 51;0.00516944
3NPS C N 31;3NPS C K 66;12.179
3NPS C N 31;3NPS C S 90;6.77381
3NPS C N 31;3NPS C R 91;38.0019
3NPS C N 31;3NPS C D 92;0.30423
3NPS C N 31;3NPS C I 93;1.95196
3NPS C Y 32;3NPS C V 33;23.4155
3NPS C Y 32;3NPS C S 34;0.27601
3NPS C Y 32;3NPS C D 50;29.1325
3NPS C Y 32;3NPS C N 51;14.7993
3NPS C Y 32;3NPS C K 66;0.0290644
3NPS C Y 32;3NPS C Q 89;1.03039
3NPS C Y 32;3NPS C S 90;10.3457
3NPS C Y 32;3NPS C R 91;2.28413
3NPS C V 33;3NPS C S 34;25.9706
3NPS C V 33;3NPS C W 35;13.8591
3NPS C V 33;3NPS C I 48;3.55045
3NPS C V 33;3NPS C Y 49;2.78095
3NPS C V 33;3NPS C D 50;3.78105
3NPS C V 33;3NPS C N 51;24.4601
3NPS C V 33;3NPS C S 65;0.292345
3NPS C V 33;3NPS C K 66;7.72441
3NPS C V 33;3NPS C A 71;16.286
3NPS C V 33;3NPS C C 88;6.66944
3NPS C V 33;3NPS C Q 89;9.44233
3NPS C V 33;3NPS C S 90;6.82521
3NPS C S 34;3NPS C W 35;22.3744
3NPS C S 34;3NPS C Y 36;7.43589
3NPS C S 34;3NPS C L 46;5.11718
3NPS C S 34;3NPS C I 48;7.50168
3NPS C S 34;3NPS C Y 49;10.2155
3NPS C S 34;3NPS C D 50;3.03859
3NPS C S 34;3NPS C Y 87;0.141625
3NPS C S 34;3NPS C C 88;5.0428
3NPS C S 34;3NPS C Q 89;21.65
3NPS C W 35;3NPS C Y 36;24.4012
3NPS C W 35;3NPS C L 46;6.52467
3NPS C W 35;3NPS C L 47;14.673
3NPS C W 35;3NPS C I 48;26.4543
3NPS C W 35;3NPS C N 51;3.6161
3NPS C W 35;3NPS C G 64;4.44234
3NPS C W 35;3NPS C S 65;1.6795
3NPS C W 35;3NPS C A 71;9.14512
3NPS C W 35;3NPS C V 72;10.6492
3NPS C W 35;3NPS C L 73;34.1953
3NPS C W 35;3NPS C Y 86;5.63174
3NPS C W 35;3NPS C Y 87;12.6351
3NPS C W 35;3NPS C C 88;17.0376
3NPS C Y 36;3NPS C Q 37;19.3934
3NPS C Y 36;3NPS C Q 38;0.0310912
3NPS C Y 36;3NPS C P 44;9.51444
3NPS C Y 36;3NPS C K 45;10.6194
3NPS C Y 36;3NPS C K 45;0.158088
3NPS C Y 36;3NPS C L 46;20.8833
3NPS C Y 36;3NPS C L 47;7.59069
3NPS C Y 36;3NPS C L 73;0.307498
3NPS C Y 36;3NPS C D 85;0.310792
3NPS C Y 36;3NPS C Y 86;8.23541
3NPS C Y 36;3NPS C Y 87;27.5839
3NPS C Y 36;3NPS C C 88;0.426788
3NPS C Y 36;3NPS C Q 89;15.9824
3NPS C Y 36;3NPS C F 98;11.2672
3NPS C Q 37;3NPS C Q 38;22.3779
3NPS C Q 37;3NPS C K 39;3.18382
3NPS C Q 37;3NPS C K 39;27.6923
3NPS C Q 37;3NPS C A 43;0.98297
3NPS C Q 37;3NPS C P 44;6.71895
3NPS C Q 37;3NPS C K 45;12.579
3NPS C Q 37;3NPS C K 45;17.1009
3NPS C Q 37;3NPS C L 47;19.1416
3NPS C Q 37;3NPS C F 62;9.50229
3NPS C Q 37;3NPS C E 81;1.51402
3NPS C Q 37;3NPS C D 82;8.30356
3NPS C Q 37;3NPS C A 84;10.625
3NPS C Q 37;3NPS C D 85;5.01308
3NPS C Q 37;3NPS C Y 86;19.8977
3NPS C Q 37;3NPS C Y 87;0.558195
3NPS C Q 38;3NPS C K 39;27.1395
3NPS C Q 38;3NPS C K 39;3.96607
3NPS C Q 38;3NPS C P 40;2.17546
3NPS C Q 38;3NPS C G 41;0.0926308
3NPS C Q 38;3NPS C T 42;13.4376
3NPS C Q 38;3NPS C A 43;3.25801
3NPS C Q 38;3NPS C P 44;20.6702
3NPS C Q 38;3NPS C A 84;6.48424
3NPS C Q 38;3NPS C D 85;28.589
3NPS C Q 38;3NPS C Y 87;14.4046
3NPS C K 39;3NPS C P 40;17.6792
3NPS C K 39;3NPS C G 41;2.76904
3NPS C K 39;3NPS C T 42;13.7779
3NPS C K 39;3NPS C A 43;1.1209
3NPS C K 39;3NPS C A 84;0.36682
3NPS C K 39;3NPS C P 40;15.9927
3NPS C K 39;3NPS C T 42;20.0008
3NPS C K 39;3NPS C K 45;13.2306
3NPS C K 39;3NPS C E 81;16.5735
3NPS C K 39;3NPS C E 83;3.85395
3NPS C K 39;3NPS C A 84;9.04038
3NPS C P 40;3NPS C G 41;27.644
3NPS C P 40;3NPS C T 42;9.55153
3NPS C P 40;3NPS C E 83;11.2298
3NPS C P 40;3NPS C A 84;6.84754
3NPS C P 40;3NPS C D 85;1.7124
3NPS C P 40;3NPS C E 165;40.7472
3NPS C P 40;3NPS C Q 166;0.732201
3NPS C G 41;3NPS C T 42;31.6778
3NPS C T 42;3NPS C A 43;40.8283
3NPS C T 42;3NPS C P 44;0.183129
3NPS C A 43;3NPS C P 44;29.9666
3NPS C A 43;3NPS C K 45;0.663243
3NPS C A 43;3NPS C K 45;3.81674
3NPS C P 44;3NPS C K 45;12.5152
3NPS C P 44;3NPS C K 45;10.6394
3NPS C P 44;3NPS C Y 87;0.0137451
3NPS C K 45;3NPS C L 46;12.721
3NPS C K 45;3NPS C L 47;5.20577
3NPS C K 45;3NPS C L 46;16.7235
3NPS C K 45;3NPS C L 47;11.4634
3NPS C K 45;3NPS C G 57;12.5315
3NPS C K 45;3NPS C V 58;9.20867
3NPS C K 45;3NPS C P 59;11.108
3NPS C L 46;3NPS C L 47;19.0973
3NPS C L 46;3NPS C I 48;10.2776
3NPS C L 46;3NPS C Y 49;11.4655
3NPS C L 46;3NPS C P 55;18.935
3NPS C L 46;3NPS C V 58;9.52888
3NPS C L 47;3NPS C I 48;26.9608
3NPS C L 47;3NPS C Q 53;0.0474588
3NPS C L 47;3NPS C R 54;5.16873
3NPS C L 47;3NPS C P 55;8.20237
3NPS C L 47;3NPS C V 58;21.1079
3NPS C L 47;3NPS C P 59;2.17826
3NPS C L 47;3NPS C F 62;24.0289
3NPS C L 47;3NPS C L 73;11.6596
3NPS C L 47;3NPS C Y 86;8.99008
3NPS C I 48;3NPS C Y 49;20.6699
3NPS C I 48;3NPS C N 51;9.25348
3NPS C I 48;3NPS C N 52;12.3203
3NPS C I 48;3NPS C Q 53;11.3489
3NPS C I 48;3NPS C R 54;12.6097
3NPS C I 48;3NPS C P 55;2.79202
3NPS C I 48;3NPS C V 58;0.0402739
3NPS C I 48;3NPS C F 62;8.78591
3NPS C I 48;3NPS C S 63;9.50919
3NPS C I 48;3NPS C G 64;10.7294
3NPS C I 48;3NPS C L 73;8.87239
3NPS C Y 49;3NPS C D 50;30.8473
3NPS C Y 49;3NPS C N 51;2.88619
3NPS C Y 49;3NPS C N 52;1.83032
3NPS C Y 49;3NPS C Q 53;45.0343
3NPS C Y 49;3NPS C R 54;3.91096
3NPS C Y 49;3NPS C P 55;15.7247
3NPS C D 50;3NPS C N 51;19.8404
3NPS C D 50;3NPS C N 52;10.9168
3NPS C D 50;3NPS C Q 53;12.8016
3NPS C N 51;3NPS C N 52;22.3443
3NPS C N 51;3NPS C G 64;7.5615
3NPS C N 51;3NPS C S 65;10.7915
3NPS C N 51;3NPS C K 66;26.2212
3NPS C N 52;3NPS C Q 53;39.1343
3NPS C N 52;3NPS C R 54;6.0524
3NPS C N 52;3NPS C S 63;0.481953
3NPS C N 52;3NPS C G 64;19.7238
3NPS C N 52;3NPS C S 65;2.71997
3NPS C Q 53;3NPS C R 54;22.5344
3NPS C Q 53;3NPS C P 55;2.5401
3NPS C R 54;3NPS C P 55;32.0961
3NPS C R 54;3NPS C S 56;2.40113
3NPS C R 54;3NPS C V 58;19.4736
3NPS C R 54;3NPS C P 59;5.70376
3NPS C R 54;3NPS C D 60;30.4085
3NPS C R 54;3NPS C F 62;14.9395
3NPS C R 54;3NPS C S 63;10.3029
3NPS C P 55;3NPS C S 56;34.0574
3NPS C P 55;3NPS C G 57;0.694169
3NPS C P 55;3NPS C V 58;22.5742
3NPS C S 56;3NPS C G 57;28.658
3NPS C S 56;3NPS C V 58;5.94382
3NPS C G 57;3NPS C V 58;27.0535
3NPS C G 57;3NPS C P 59;6.01707
3NPS C V 58;3NPS C P 59;30.9706
3NPS C V 58;3NPS C D 60;7.12372
3NPS C V 58;3NPS C F 62;9.49694
3NPS C P 59;3NPS C D 60;20.6675
3NPS C P 59;3NPS C R 61;30.0416
3NPS C P 59;3NPS C F 62;26.5465
3NPS C D 60;3NPS C R 61;26.5116
3NPS C D 60;3NPS C F 62;6.34599
3NPS C D 60;3NPS C S 63;1.91382
3NPS C R 61;3NPS C F 62;32.4752
3NPS C R 61;3NPS C S 63;2.86273
3NPS C R 61;3NPS C A 74;3.73908
3NPS C R 61;3NPS C I 75;14.8433
3NPS C R 61;3NPS C T 76;31.1627
3NPS C R 61;3NPS C G 77;9.01882
3NPS C R 61;3NPS C L 78;2.79769
3NPS C R 61;3NPS C Q 79;13.7928
3NPS C R 61;3NPS C E 81;13.4027
3NPS C R 61;3NPS C D 82;20.6856
3NPS C F 62;3NPS C S 63;19.6919
3NPS C F 62;3NPS C L 73;11.5563
3NPS C F 62;3NPS C A 74;5.03203
3NPS C F 62;3NPS C I 75;19.3599
3NPS C F 62;3NPS C D 82;9.35355
3NPS C F 62;3NPS C Y 86;10.9428
3NPS C S 63;3NPS C G 64;27.551
3NPS C S 63;3NPS C V 72;0.311195
3NPS C S 63;3NPS C L 73;11.31
3NPS C S 63;3NPS C A 74;29.1706
3NPS C S 63;3NPS C T 76;4.81186
3NPS C G 64;3NPS C S 65;25.8588
3NPS C G 64;3NPS C V 72;6.61389
3NPS C G 64;3NPS C L 73;2.59162
3NPS C G 64;3NPS C A 74;0.080793
3NPS C S 65;3NPS C K 66;30.7718
3NPS C S 65;3NPS C A 71;8.26656
3NPS C S 65;3NPS C V 72;30.3273
3NPS C K 66;3NPS C S 67;33.4934
3NPS C K 66;3NPS C G 68;13.5658
3NPS C K 66;3NPS C S 70;6.43669
3NPS C K 66;3NPS C A 71;10.1783
3NPS C S 67;3NPS C G 68;29.0576
3NPS C S 67;3NPS C T 69;3.21408
3NPS C S 67;3NPS C S 70;22.869
3NPS C S 67;3NPS C A 71;0.215284
3NPS C G 68;3NPS C T 69;22.5118
3NPS C G 68;3NPS C S 70;1.55117
3NPS C T 69;3NPS C S 70;25.3783
3NPS C S 70;3NPS C A 71;22.3209
3NPS C S 70;3NPS C V 72;4.10207
3NPS C A 71;3NPS C V 72;25.7066
3NPS C V 72;3NPS C L 73;20.7009
3NPS C V 72;3NPS C A 74;6.76902
3NPS C L 73;3NPS C A 74;22.7386
3NPS C L 73;3NPS C I 75;11.3516
3NPS C L 73;3NPS C Y 86;13.7387
3NPS C A 74;3NPS C I 75;19.4568
3NPS C A 74;3NPS C T 76;8.41385
3NPS C I 75;3NPS C T 76;18.2237
3NPS C I 75;3NPS C G 77;1.12016
3NPS C I 75;3NPS C L 78;16.3095
3NPS C I 75;3NPS C D 82;8.93449
3NPS C I 75;3NPS C Y 86;12.4002
3NPS C I 75;3NPS C L 104;10.8444
3NPS C T 76;3NPS C G 77;28.4043
3NPS C T 76;3NPS C L 78;0.494618
3NPS C G 77;3NPS C L 78;18.7444
3NPS C G 77;3NPS C Q 79;14.7522
3NPS C L 78;3NPS C Q 79;28.464
3NPS C L 78;3NPS C D 82;7.32422
3NPS C L 78;3NPS C L 104;15.0168
3NPS C L 78;3NPS C V 106;12.3211
3NPS C Q 79;3NPS C S 80;20.8367
3NPS C Q 79;3NPS C E 81;21.2853
3NPS C Q 79;3NPS C D 82;19.9521
3NPS C Q 79;3NPS C E 83;0.510617
3NPS C Q 79;3NPS C L 104;0.0167971
3NPS C Q 79;3NPS C V 106;6.15219
3NPS C S 80;3NPS C E 81;25.4313
3NPS C S 80;3NPS C D 82;2.01597
3NPS C S 80;3NPS C E 83;18.0697
3NPS C S 80;3NPS C V 106;10.7252
3NPS C S 80;3NPS C D 167;0.287314
3NPS C S 80;3NPS C S 168;15.6153
3NPS C S 80;3NPS C K 169;17.0789
3NPS C S 80;3NPS C S 171;9.13522
3NPS C E 81;3NPS C D 82;24.0118
3NPS C E 81;3NPS C E 83;9.99775
3NPS C E 81;3NPS C A 84;0.31511
3NPS C E 81;3NPS C S 168;22.7619
3NPS C D 82;3NPS C E 83;17.3635
3NPS C D 82;3NPS C A 84;6.87013
3NPS C D 82;3NPS C Y 86;14.6891
3NPS C D 82;3NPS C L 104;15.3155
3NPS C D 82;3NPS C V 106;0.280336
3NPS C E 83;3NPS C A 84;22.8579
3NPS C E 83;3NPS C L 104;13.393
3NPS C E 83;3NPS C V 106;18.1278
3NPS C E 83;3NPS C Q 166;31.1726
3NPS C E 83;3NPS C D 167;7.88802
3NPS C E 83;3NPS C S 168;8.54756
3NPS C E 83;3NPS C S 171;8.11347
3NPS C A 84;3NPS C D 85;23.1596
3NPS C A 84;3NPS C Y 86;14.5459
3NPS C A 84;3NPS C T 102;0.943329
3NPS C A 84;3NPS C K 103;10.5642
3NPS C A 84;3NPS C L 104;13.0593
3NPS C D 85;3NPS C Y 86;21.9588
3NPS C D 85;3NPS C Y 87;23.2487
3NPS C D 85;3NPS C G 101;1.87246
3NPS C D 85;3NPS C T 102;7.76679
3NPS C D 85;3NPS C K 103;21.9771
3NPS C Y 86;3NPS C Y 87;22.01
3NPS C Y 86;3NPS C G 101;4.654
3NPS C Y 86;3NPS C T 102;20.1469
3NPS C Y 86;3NPS C L 104;12.5255
3NPS C Y 87;3NPS C C 88;21.0347
3NPS C Y 87;3NPS C Q 89;0.0266449
3NPS C Y 87;3NPS C F 98;10.3502
3NPS C Y 87;3NPS C G 99;9.23497
3NPS C Y 87;3NPS C G 100;6.45766
3NPS C Y 87;3NPS C G 101;14.9425
3NPS C C 88;3NPS C Q 89;18.5891
3NPS C C 88;3NPS C F 98;8.47579
3NPS C C 88;3NPS C G 99;13.4305
3NPS C Q 89;3NPS C S 90;22.9627
3NPS C Q 89;3NPS C Y 96;14.9943
3NPS C Q 89;3NPS C V 97;11.1289
3NPS C Q 89;3NPS C F 98;22.3194
3NPS C S 90;3NPS C R 91;25.7188
3NPS C S 90;3NPS C D 92;0.955576
3NPS C S 90;3NPS C Y 96;7.44543
3NPS C S 90;3NPS C V 97;18.9501
3NPS C R 91;3NPS C D 92;18.8025
3NPS C R 91;3NPS C I 93;22.2527
3NPS C R 91;3NPS C S 94;6.12369
3NPS C R 91;3NPS C Q 95;8.61758
3NPS C R 91;3NPS C Y 96;41.7355
3NPS C R 91;3NPS C V 97;0.533638
3NPS C D 92;3NPS C I 93;30.281
3NPS C D 92;3NPS C S 94;3.71164
3NPS C D 92;3NPS C Q 95;29.6124
3NPS C D 92;3NPS C Y 96;0.539087
3NPS C D 92;3NPS C V 97;17.5103
3NPS C I 93;3NPS C S 94;39.837
3NPS C I 93;3NPS C Q 95;0.12079
3NPS C S 94;3NPS C Q 95;28.445
3NPS C S 94;3NPS C Y 96;1.57217
3NPS C Q 95;3NPS C Y 96;28.8529
3NPS C Q 95;3NPS C V 97;16.2289
3NPS C Y 96;3NPS C V 97;28.0105
3NPS C V 97;3NPS C F 98;29.8689
3NPS C F 98;3NPS C G 99;28.1904
3NPS C F 98;3NPS C G 100;0.80843
3NPS C G 99;3NPS C G 100;21.7647
3NPS C G 99;3NPS C G 101;2.53277
3NPS C G 100;3NPS C G 101;25.5962
3NPS C G 101;3NPS C T 102;19.7666
3NPS C G 101;3NPS C K 103;0.802098
3NPS C T 102;3NPS C K 103;23.5678
3NPS C T 102;3NPS C L 104;3.23729
3NPS C K 103;3NPS C L 104;26.4587
3NPS C K 103;3NPS C T 105;18.6635
3NPS C K 103;3NPS C R 142;17.2631
3NPS C K 103;3NPS C Q 166;1.40479
3NPS C K 103;3NPS C Y 173;9.28841
3NPS C L 104;3NPS C T 105;25.8004
3NPS C L 104;3NPS C V 106;9.81461
3NPS C L 104;3NPS C Q 166;2.91461
3NPS C T 105;3NPS C V 106;22.4805
3NPS C T 105;3NPS C L 106a;5.80881
3NPS C T 105;3NPS C Y 140;13.3593
3NPS C T 105;3NPS C Q 166;10.8176
3NPS C T 105;3NPS C Y 173;14.3967
3NPS C V 106;3NPS C L 106a;23.4851
3NPS C V 106;3NPS C R 108;2.56358
3NPS C V 106;3NPS C Y 140;5.18326
3NPS C V 106;3NPS C Q 166;13.9136
3NPS C V 106;3NPS C S 171;14.3495
3NPS C L 106a;3NPS C R 108;30.6222
3NPS C L 106a;3NPS C Y 140;17.1307
3NPS C L 106a;3NPS C S 171;0.830755
3NPS C R 108;3NPS C T 109;53.6041
3NPS C R 108;3NPS C V 110;4.33292
3NPS C R 108;3NPS C A 111;14.2234
3NPS C R 108;3NPS C Y 140;33.5157
3NPS C R 108;3NPS C D 170;19.9618
3NPS C R 108;3NPS C S 171;18.0466
3NPS C R 108;3NPS C T 172;15.0823
3NPS C T 109;3NPS C V 110;34.2604
3NPS C T 109;3NPS C A 111;2.34306
3NPS C T 109;3NPS C Y 140;6.38014
3NPS C V 110;3NPS C A 111;26.0293
3NPS C V 110;3NPS C A 112;0.92099
3NPS C V 110;3NPS C Y 140;15.0565
3NPS C V 110;3NPS C P 141;8.59555
3NPS C V 110;3NPS C H 198;2.64834
3NPS C V 110;3NPS C Q 199;26.6922
3NPS C V 110;3NPS C G 200;15.1026
3NPS C A 111;3NPS C A 112;27.2296
3NPS C A 111;3NPS C P 113;0.505918
3NPS C A 111;3NPS C N 138;7.49911
3NPS C A 111;3NPS C F 139;9.41402
3NPS C A 111;3NPS C Y 140;17.8018
3NPS C A 111;3NPS C T 172;6.5122
3NPS C A 111;3NPS C H 198;4.87973
3NPS C A 111;3NPS C G 200;0.453006
3NPS C A 112;3NPS C P 113;28.2458
3NPS C A 112;3NPS C S 114;2.67152
3NPS C A 112;3NPS C S 114;1.90955
3NPS C A 112;3NPS C N 137;1.10908
3NPS C A 112;3NPS C N 138;6.45636
3NPS C A 112;3NPS C F 139;1.92197
3NPS C A 112;3NPS C H 198;2.77424
3NPS C A 112;3NPS C G 200;20.4345
3NPS C A 112;3NPS C L 201;12.784
3NPS C P 113;3NPS C S 114;14.7282
3NPS C P 113;3NPS C S 114;9.35009
3NPS C P 113;3NPS C V 115;13.5697
3NPS C P 113;3NPS C L 136;15.1393
3NPS C P 113;3NPS C N 137;8.4474
3NPS C P 113;3NPS C N 138;0.761321
3NPS C P 113;3NPS C F 139;19.5076
3NPS C P 113;3NPS C A 144;0.184186
3NPS C P 113;3NPS C V 196;6.28274
3NPS C P 113;3NPS C H 198;15.6024
3NPS C P 113;3NPS C L 201;18.8572
3NPS C P 113;3NPS C V 205;0.00519925
3NPS C S 114;3NPS C V 115;13.8141
3NPS C S 114;3NPS C F 116;5.09413
3NPS C S 114;3NPS C L 135;2.13383
3NPS C S 114;3NPS C L 136;3.66828
3NPS C S 114;3NPS C N 137;15.4395
3NPS C S 114;3NPS C V 115;9.63115
3NPS C S 114;3NPS C F 116;15.8924
3NPS C S 114;3NPS C N 137;10.6211
3NPS C V 115;3NPS C F 116;34.4465
3NPS C V 115;3NPS C C 134;6.82596
3NPS C V 115;3NPS C L 135;7.1405
3NPS C V 115;3NPS C L 136;8.36734
3NPS C V 115;3NPS C C 194;1.38679
3NPS C V 115;3NPS C C 194;4.86345
3NPS C V 115;3NPS C V 196;17.3047
3NPS C V 115;3NPS C L 201;3.19539
3NPS C V 115;3NPS C V 205;17.3359
3NPS C V 115;3NPS C K 207;32.773
3NPS C F 116;3NPS C I 117;25.6999
3NPS C F 116;3NPS C F 118;14.2356
3NPS C F 116;3NPS C V 133;0.763486
3NPS C F 116;3NPS C C 134;6.73432
3NPS C F 116;3NPS C L 135;29.5448
3NPS C F 116;3NPS C N 137;6.5253
3NPS C F 116;3NPS C C 194;0.823357
3NPS C F 116;3NPS C K 207;4.60985
3NPS C I 117;3NPS C F 118;29.8481
3NPS C I 117;3NPS C P 119;6.62122
3NPS C I 117;3NPS C V 132;6.90362
3NPS C I 117;3NPS C V 133;6.45148
3NPS C I 117;3NPS C C 134;3.19233
3NPS C I 117;3NPS C W 148;10.6638
3NPS C I 117;3NPS C Y 192;6.86247
3NPS C I 117;3NPS C A 193;4.44154
3NPS C I 117;3NPS C C 194;3.10893
3NPS C I 117;3NPS C C 194;10.926
3NPS C I 117;3NPS C K 207;21.4169
3NPS C I 117;3NPS C S 208;15.1209
3NPS C I 117;3NPS C F 209;20.0437
3NPS C F 118;3NPS C P 119;32.9901
3NPS C F 118;3NPS C S 131;1.26495
3NPS C F 118;3NPS C V 132;7.97619
3NPS C F 118;3NPS C V 133;30.9489
3NPS C F 118;3NPS C L 135;11.7904
3NPS C F 118;3NPS C F 209;1.3393
3NPS C P 119;3NPS C P 120;33.8852
3NPS C P 119;3NPS C S 121;5.52328
3NPS C P 119;3NPS C S 131;1.79947
3NPS C P 119;3NPS C V 132;1.92102
3NPS C P 119;3NPS C Y 186;5.23271
3NPS C P 119;3NPS C F 209;32.9274
3NPS C P 120;3NPS C S 121;25.9893
3NPS C P 120;3NPS C D 122;2.12344
3NPS C P 120;3NPS C Q 124;9.84274
3NPS C P 120;3NPS C L 125;20.4454
3NPS C P 120;3NPS C T 129;0.202158
3NPS C P 120;3NPS C A 130;10.4171
3NPS C P 120;3NPS C S 131;16.1926
3NPS C P 120;3NPS C V 132;11.0048
3NPS C P 120;3NPS C Y 186;20.1979
3NPS C P 120;3NPS C F 209;3.11924
3NPS C S 121;3NPS C D 122;22.4459
3NPS C S 121;3NPS C E 123;9.67949
3NPS C S 121;3NPS C Q 124;18.9511
3NPS C S 121;3NPS C L 125;11.2398
3NPS C D 122;3NPS C E 123;25.786
3NPS C D 122;3NPS C Q 124;0.534659
3NPS C D 122;3NPS C L 125;18.9567
3NPS C D 122;3NPS C K 126;21.5629
3NPS C E 123;3NPS C Q 124;15.007
3NPS C E 123;3NPS C L 125;0.725906
3NPS C E 123;3NPS C K 126;27.5069
3NPS C E 123;3NPS C S 127;2.666
3NPS C E 123;3NPS C S 127;7.85489
3NPS C Q 124;3NPS C L 125;16.7943
3NPS C Q 124;3NPS C K 126;1.12719
3NPS C Q 124;3NPS C S 127;2.57514
3NPS C Q 124;3NPS C S 127;6.52464
3NPS C Q 124;3NPS C G 128;3.56912
3NPS C Q 124;3NPS C T 129;28.2179
3NPS C Q 124;3NPS C A 130;5.26834
3NPS C Q 124;3NPS C S 131;17.4006
3NPS C L 125;3NPS C K 126;21.7961
3NPS C L 125;3NPS C S 127;0.864241
3NPS C L 125;3NPS C G 128;6.4563
3NPS C L 125;3NPS C T 129;11.032
3NPS C L 125;3NPS C A 130;8.03078
3NPS C L 125;3NPS C K 183;35.5855
3NPS C L 125;3NPS C Y 186;21.551
3NPS C L 125;3NPS C E 187;1.91794
3NPS C K 126;3NPS C S 127;15.4694
3NPS C K 126;3NPS C S 127;12.3497
3NPS C K 126;3NPS C G 128;5.62325
3NPS C K 126;3NPS C K 183;2.84392
3NPS C S 127;3NPS C G 128;22.7579
3NPS C S 127;3NPS C T 129;2.02535
3NPS C S 127;3NPS C G 128;0.963307
3NPS C S 127;3NPS C T 129;4.32577
3NPS C G 128;3NPS C T 129;26.4678
3NPS C G 128;3NPS C S 182;1.26188
3NPS C G 128;3NPS C K 183;20.5434
3NPS C T 129;3NPS C A 130;22.4405
3NPS C T 129;3NPS C S 131;0.850663
3NPS C T 129;3NPS C T 180;7.67034
3NPS C T 129;3NPS C L 181;4.4145
3NPS C T 129;3NPS C S 182;2.87919
3NPS C T 129;3NPS C K 183;9.85733
3NPS C A 130;3NPS C S 131;18.7008
3NPS C A 130;3NPS C V 132;2.21059
3NPS C A 130;3NPS C L 179;1.49664
3NPS C A 130;3NPS C T 180;6.40016
3NPS C A 130;3NPS C L 181;23.2679
3NPS C A 130;3NPS C S 182;2.24874
3NPS C A 130;3NPS C K 183;6.48309
3NPS C A 130;3NPS C Y 186;13.1561
3NPS C S 131;3NPS C V 132;19.6927
3NPS C S 131;3NPS C V 133;8.33521
3NPS C S 131;3NPS C T 178;11.5526
3NPS C S 131;3NPS C L 179;4.60921
3NPS C S 131;3NPS C T 180;10.2671
3NPS C V 132;3NPS C V 133;20.4045
3NPS C V 132;3NPS C W 148;18.0881
3NPS C V 132;3NPS C S 177;0.557686
3NPS C V 132;3NPS C T 178;7.4786
3NPS C V 132;3NPS C L 179;25.9754
3NPS C V 132;3NPS C L 181;7.2709
3NPS C V 132;3NPS C Y 186;7.17759
3NPS C V 132;3NPS C Y 192;11.8299
3NPS C V 132;3NPS C F 209;10.5675
3NPS C V 133;3NPS C C 134;22.6653
3NPS C V 133;3NPS C L 135;5.03843
3NPS C V 133;3NPS C W 148;4.24413
3NPS C V 133;3NPS C S 176;9.83599
3NPS C V 133;3NPS C S 177;5.64622
3NPS C V 133;3NPS C T 178;16.6585
3NPS C C 134;3NPS C L 135;20.939
3NPS C C 134;3NPS C L 136;11.5526
3NPS C C 134;3NPS C V 146;7.70864
3NPS C C 134;3NPS C W 148;11.4121
3NPS C C 134;3NPS C L 175;1.28651
3NPS C C 134;3NPS C S 176;5.90319
3NPS C C 134;3NPS C S 177;19.4966
3NPS C C 134;3NPS C C 194;19.8333
3NPS C C 134;3NPS C V 196;3.75411
3NPS C L 135;3NPS C L 136;25.3781
3NPS C L 135;3NPS C N 137;16.6152
3NPS C L 135;3NPS C S 174;4.12991
3NPS C L 135;3NPS C L 175;7.82229
3NPS C L 135;3NPS C S 176;4.33042
3NPS C L 136;3NPS C N 137;15.8198
3NPS C L 136;3NPS C N 138;0.125339
3NPS C L 136;3NPS C F 139;17.252
3NPS C L 136;3NPS C A 144;11.3219
3NPS C L 136;3NPS C V 146;15.4096
3NPS C L 136;3NPS C S 174;5.37301
3NPS C L 136;3NPS C L 175;30.6338
3NPS C L 136;3NPS C S 177;0.755796
3NPS C L 136;3NPS C V 196;18.3902
3NPS C L 136;3NPS C H 198;0.122211
3NPS C N 137;3NPS C N 138;42.2679
3NPS C N 137;3NPS C F 139;3.16687
3NPS C N 137;3NPS C S 174;7.2393
3NPS C N 138;3NPS C F 139;17.1702
3NPS C N 138;3NPS C D 170;11.7486
3NPS C N 138;3NPS C T 172;24.9598
3NPS C N 138;3NPS C Y 173;6.41752
3NPS C N 138;3NPS C S 174;10.0803
3NPS C F 139;3NPS C Y 140;19.8109
3NPS C F 139;3NPS C P 141;6.93217
3NPS C F 139;3NPS C R 142;14.0249
3NPS C F 139;3NPS C E 143;0.390455
3NPS C F 139;3NPS C A 144;8.24305
3NPS C F 139;3NPS C V 163;3.64229
3NPS C F 139;3NPS C T 172;10.3458
3NPS C F 139;3NPS C Y 173;31.5783
3NPS C F 139;3NPS C S 174;5.96097
3NPS C F 139;3NPS C L 175;14.9188
3NPS C F 139;3NPS C H 198;11.4996
3NPS C Y 140;3NPS C P 141;44.1598
3NPS C Y 140;3NPS C R 142;0.244313
3NPS C Y 140;3NPS C Q 166;4.99937
3NPS C Y 140;3NPS C S 171;6.56822
3NPS C Y 140;3NPS C T 172;5.07079
3NPS C Y 140;3NPS C Y 173;14.7981
3NPS C Y 140;3NPS C H 198;7.82025
3NPS C P 141;3NPS C R 142;20.321
3NPS C P 141;3NPS C E 143;28.188
3NPS C P 141;3NPS C Y 173;2.50159
3NPS C P 141;3NPS C H 198;14.0139
3NPS C P 141;3NPS C Q 199;19.5383
3NPS C R 142;3NPS C E 143;37.7534
3NPS C R 142;3NPS C A 144;6.20355
3NPS C R 142;3NPS C V 163;0.031735
3NPS C R 142;3NPS C V 163;32.5937
3NPS C R 142;3NPS C T 164;2.02488
3NPS C R 142;3NPS C Y 173;37.6545
3NPS C R 142;3NPS C L 175;5.20431
3NPS C E 143;3NPS C A 144;27.4859
3NPS C E 143;3NPS C H 198;12.2344
3NPS C E 143;3NPS C Q 199;1.97509
3NPS C A 144;3NPS C K 145;29.1617
3NPS C A 144;3NPS C V 146;5.3105
3NPS C A 144;3NPS C E 161;5.07088
3NPS C A 144;3NPS C L 175;12.0441
3NPS C A 144;3NPS C V 196;2.30349
3NPS C A 144;3NPS C T 197;7.56035
3NPS C A 144;3NPS C H 198;10.8049
3NPS C K 145;3NPS C V 146;31.9322
3NPS C K 145;3NPS C Q 147;18.1246
3NPS C K 145;3NPS C E 161;0.102949
3NPS C K 145;3NPS C E 195;9.72519
3NPS C K 145;3NPS C V 196;6.18898
3NPS C K 145;3NPS C T 197;45.6181
3NPS C V 146;3NPS C Q 147;26.5537
3NPS C V 146;3NPS C W 148;11.2052
3NPS C V 146;3NPS C S 159;0.282175
3NPS C V 146;3NPS C E 161;19.6642
3NPS C V 146;3NPS C L 175;10.838
3NPS C V 146;3NPS C S 177;14.6025
3NPS C V 146;3NPS C C 194;7.78302
3NPS C V 146;3NPS C E 195;6.76461
3NPS C V 146;3NPS C V 196;10.2424
3NPS C Q 147;3NPS C W 148;31.451
3NPS C Q 147;3NPS C K 149;12.9033
3NPS C Q 147;3NPS C L 154;24.3687
3NPS C Q 147;3NPS C Q 155;14.8572
3NPS C Q 147;3NPS C A 193;1.16733
3NPS C Q 147;3NPS C C 194;5.31032
3NPS C Q 147;3NPS C E 195;31.5104
3NPS C W 148;3NPS C K 149;21.9776
3NPS C W 148;3NPS C V 150;2.64059
3NPS C W 148;3NPS C A 153;0.242224
3NPS C W 148;3NPS C L 154;3.26138
3NPS C W 148;3NPS C Q 155;23.1949
3NPS C W 148;3NPS C N 158;0.0624922
3NPS C W 148;3NPS C S 159;16.202
3NPS C W 148;3NPS C S 177;18.6199
3NPS C W 148;3NPS C T 178;1.84699
3NPS C W 148;3NPS C L 179;32.6251
3NPS C W 148;3NPS C Y 192;3.61734
3NPS C W 148;3NPS C A 193;13.9535
3NPS C W 148;3NPS C C 194;0.267016
3NPS C W 148;3NPS C C 194;13.4819
3NPS C K 149;3NPS C V 150;22.3413
3NPS C K 149;3NPS C D 151;0.306306
3NPS C K 149;3NPS C N 152;30.9395
3NPS C K 149;3NPS C A 153;7.33021
3NPS C K 149;3NPS C L 154;25.8855
3NPS C K 149;3NPS C Q 155;1.6542
3NPS C K 149;3NPS C V 191;3.22258
3NPS C K 149;3NPS C Y 192;3.26416
3NPS C K 149;3NPS C A 193;33.8191
3NPS C K 149;3NPS C E 195;29.4089
3NPS C K 149;3NPS C T 206;4.96186
3NPS C V 150;3NPS C D 151;22.5523
3NPS C V 150;3NPS C N 152;2.97554
3NPS C V 150;3NPS C A 153;19.7032
3NPS C V 150;3NPS C Q 155;25.3092
3NPS C V 150;3NPS C L 179;11.2174
3NPS C V 150;3NPS C L 181;3.53204
3NPS C V 150;3NPS C H 189;24.6852
3NPS C V 150;3NPS C V 191;6.95053
3NPS C V 150;3NPS C Y 192;20.1302
3NPS C V 150;3NPS C A 193;0.00143755
3NPS C D 151;3NPS C N 152;28.6865
3NPS C D 151;3NPS C A 153;8.36964
3NPS C D 151;3NPS C K 188;3.79214
3NPS C D 151;3NPS C H 189;22.3676
3NPS C D 151;3NPS C K 190;12.9366
3NPS C D 151;3NPS C V 191;24.9546
3NPS C N 152;3NPS C A 153;21.4337
3NPS C N 152;3NPS C L 154;6.04848
3NPS C N 152;3NPS C V 191;5.75408
3NPS C A 153;3NPS C L 154;26.3225
3NPS C A 153;3NPS C Q 155;15.6597
3NPS C L 154;3NPS C Q 155;27.8462
3NPS C L 154;3NPS C S 156;1.92979
3NPS C Q 155;3NPS C S 156;33.7047
3NPS C Q 155;3NPS C N 158;21.8835
3NPS C Q 155;3NPS C S 159;0.208443
3NPS C Q 155;3NPS C L 179;7.6704
3NPS C Q 155;3NPS C L 181;4.11795
3NPS C S 156;3NPS C G 157;32.8262
3NPS C S 156;3NPS C N 158;15.9589
3NPS C S 156;3NPS C S 159;1.20258
3NPS C G 157;3NPS C N 158;28.1533
3NPS C G 157;3NPS C S 159;8.26286
3NPS C N 158;3NPS C S 159;30.8415
3NPS C N 158;3NPS C T 178;0.381739
3NPS C N 158;3NPS C L 179;18.5219
3NPS C N 158;3NPS C T 180;22.728
3NPS C N 158;3NPS C L 181;14.0443
3NPS C S 159;3NPS C Q 160;33.578
3NPS C S 159;3NPS C E 161;1.40527
3NPS C S 159;3NPS C S 177;7.89931
3NPS C S 159;3NPS C T 178;9.42283
3NPS C S 159;3NPS C L 179;7.9228
3NPS C S 159;3NPS C T 180;0.043836
3NPS C Q 160;3NPS C E 161;30.5274
3NPS C Q 160;3NPS C S 162;0.384051
3NPS C Q 160;3NPS C S 176;2.19616
3NPS C Q 160;3NPS C S 177;5.71207
3NPS C Q 160;3NPS C T 178;24.3835
3NPS C E 161;3NPS C S 162;24.608
3NPS C E 161;3NPS C V 163;7.19058
3NPS C E 161;3NPS C L 175;21.661
3NPS C E 161;3NPS C S 176;6.73973
3NPS C E 161;3NPS C S 177;14.7232
3NPS C S 162;3NPS C V 163;17.0073
3NPS C S 162;3NPS C V 163;10.137
3NPS C S 162;3NPS C L 175;6.68455
3NPS C S 162;3NPS C S 176;23.0727
3NPS C V 163;3NPS C T 164;17.4807
3NPS C V 163;3NPS C E 165;0.905585
3NPS C V 163;3NPS C T 164;11.5137
3NPS C V 163;3NPS C Y 173;10.1092
3NPS C V 163;3NPS C S 174;7.96032
3NPS C V 163;3NPS C L 175;21.2903
3NPS C T 164;3NPS C E 165;41.4925
3NPS C T 164;3NPS C Q 166;0.41182
3NPS C T 164;3NPS C T 172;0.515498
3NPS C T 164;3NPS C Y 173;14.3348
3NPS C T 164;3NPS C S 174;20.4862
3NPS C E 165;3NPS C Q 166;36.3638
3NPS C E 165;3NPS C D 167;8.17869
3NPS C E 165;3NPS C S 168;1.91188
3NPS C E 165;3NPS C T 172;1.70922
3NPS C E 165;3NPS C Y 173;2.13937
3NPS C Q 166;3NPS C D 167;18.7362
3NPS C Q 166;3NPS C S 168;5.8545
3NPS C Q 166;3NPS C S 171;17.4596
3NPS C Q 166;3NPS C T 172;5.99543
3NPS C Q 166;3NPS C Y 173;30.8938
3NPS C D 167;3NPS C S 168;22.9643
3NPS C D 167;3NPS C K 169;16.4252
3NPS C D 167;3NPS C D 170;21.883
3NPS C D 167;3NPS C S 171;11.6782
3NPS C D 167;3NPS C T 172;18.1194
3NPS C S 168;3NPS C K 169;34.2059
3NPS C K 169;3NPS C D 170;28.211
3NPS C K 169;3NPS C S 171;2.88531
3NPS C D 170;3NPS C S 171;20.9365
3NPS C D 170;3NPS C T 172;24.0916
3NPS C S 171;3NPS C T 172;16.9855
3NPS C S 171;3NPS C Y 173;2.05517
3NPS C T 172;3NPS C Y 173;26.5976
3NPS C Y 173;3NPS C S 174;21.8452
3NPS C S 174;3NPS C L 175;15.6392
3NPS C L 175;3NPS C S 176;23.5547
3NPS C L 175;3NPS C S 177;6.55667
3NPS C S 176;3NPS C S 177;18.2589
3NPS C S 176;3NPS C T 178;8.86977
3NPS C S 177;3NPS C T 178;20.9241
3NPS C T 178;3NPS C L 179;19.2221
3NPS C T 178;3NPS C T 180;15.3333
3NPS C L 179;3NPS C T 180;19.2446
3NPS C L 179;3NPS C L 181;21.9922
3NPS C L 179;3NPS C Y 192;8.37046
3NPS C T 180;3NPS C L 181;35.3366
3NPS C L 181;3NPS C S 182;31.1657
3NPS C L 181;3NPS C K 183;0.159973
3NPS C L 181;3NPS C D 185;14.773
3NPS C L 181;3NPS C Y 186;14.3443
3NPS C L 181;3NPS C H 189;2.06698
3NPS C L 181;3NPS C Y 192;9.5813
3NPS C S 182;3NPS C K 183;20.936
3NPS C S 182;3NPS C A 184;12.9579
3NPS C S 182;3NPS C D 185;27.6597
3NPS C S 182;3NPS C Y 186;7.16633
3NPS C K 183;3NPS C A 184;23.0853
3NPS C K 183;3NPS C D 185;0.836411
3NPS C K 183;3NPS C Y 186;9.73679
3NPS C K 183;3NPS C E 187;39.7313
3NPS C A 184;3NPS C D 185;16.1463
3NPS C A 184;3NPS C Y 186;0.549403
3NPS C A 184;3NPS C E 187;19.7532
3NPS C A 184;3NPS C K 188;25.3308
3NPS C D 185;3NPS C Y 186;17.7004
3NPS C D 185;3NPS C E 187;1.34894
3NPS C D 185;3NPS C K 188;33.7371
3NPS C D 185;3NPS C H 189;16.0738
3NPS C D 185;3NPS C Y 192;0.611957
3NPS C Y 186;3NPS C E 187;21.9094
3NPS C Y 186;3NPS C K 188;2.10208
3NPS C Y 186;3NPS C H 189;6.06067
3NPS C Y 186;3NPS C Y 192;30.2828
3NPS C Y 186;3NPS C F 209;11.3228
3NPS C Y 186;3NPS C R 211;33.3859
3NPS C Y 186;3NPS C G 212;0.540316
3NPS C E 187;3NPS C K 188;22.6081
3NPS C E 187;3NPS C H 189;2.67104
3NPS C E 187;3NPS C R 211;32.3822
3NPS C K 188;3NPS C H 189;40.3528
3NPS C K 188;3NPS C R 211;0.744552
3NPS C H 189;3NPS C K 190;23.9472
3NPS C H 189;3NPS C V 191;1.32071
3NPS C H 189;3NPS C Y 192;19.2461
3NPS C H 189;3NPS C R 211;17.0882
3NPS C K 190;3NPS C V 191;34.8507
3NPS C K 190;3NPS C Y 192;7.52577
3NPS C K 190;3NPS C F 209;1.24567
3NPS C K 190;3NPS C N 210;30.9392
3NPS C K 190;3NPS C R 211;20.8107
3NPS C V 191;3NPS C Y 192;25.1516
3NPS C V 191;3NPS C A 193;8.30775
3NPS C V 191;3NPS C S 208;11.1358
3NPS C V 191;3NPS C F 209;6.40114
3NPS C V 191;3NPS C N 210;16.9369
3NPS C Y 192;3NPS C A 193;18.8486
3NPS C Y 192;3NPS C S 208;6.37411
3NPS C Y 192;3NPS C F 209;33.9596
3NPS C Y 192;3NPS C R 211;9.07957
3NPS C A 193;3NPS C C 194;11.4134
3NPS C A 193;3NPS C C 194;6.18635
3NPS C A 193;3NPS C E 195;0.864194
3NPS C A 193;3NPS C T 206;13.0648
3NPS C A 193;3NPS C K 207;3.88795
3NPS C A 193;3NPS C S 208;10.2009
3NPS C C 194;3NPS C E 195;14.0838
3NPS C C 194;3NPS C V 196;2.92239
3NPS C C 194;3NPS C V 205;2.02788
3NPS C C 194;3NPS C T 206;8.49906
3NPS C C 194;3NPS C K 207;12.0805
3NPS C C 194;3NPS C E 195;4.92222
3NPS C C 194;3NPS C V 196;1.94949
3NPS C C 194;3NPS C K 207;6.5984
3NPS C E 195;3NPS C V 196;22.0501
3NPS C E 195;3NPS C T 197;8.22389
3NPS C E 195;3NPS C P 204;21.5781
3NPS C E 195;3NPS C V 205;5.42802
3NPS C E 195;3NPS C T 206;19.7339
3NPS C V 196;3NPS C T 197;23.3207
3NPS C V 196;3NPS C H 198;4.61705
3NPS C V 196;3NPS C L 201;14.0613
3NPS C V 196;3NPS C P 204;8.71963
3NPS C V 196;3NPS C V 205;19.5552
3NPS C T 197;3NPS C H 198;32.2707
3NPS C T 197;3NPS C L 201;1.71727
3NPS C T 197;3NPS C P 204;23.948
3NPS C H 198;3NPS C Q 199;30.8624
3NPS C H 198;3NPS C G 200;11.3883
3NPS C H 198;3NPS C L 201;29.4172
3NPS C Q 199;3NPS C G 200;19.0858
3NPS C Q 199;3NPS C L 201;8.65591
3NPS C Q 199;3NPS C S 202;0.50891
3NPS C G 200;3NPS C L 201;22.2929
3NPS C G 200;3NPS C S 202;4.44723
3NPS C L 201;3NPS C S 202;27.8168
3NPS C L 201;3NPS C S 203;16.6247
3NPS C L 201;3NPS C P 204;2.54218
3NPS C L 201;3NPS C V 205;25.2313
3NPS C S 202;3NPS C S 203;36.6016
3NPS C S 203;3NPS C P 204;44.8608
3NPS C S 203;3NPS C V 205;7.8
3NPS C P 204;3NPS C V 205;22.5509
3NPS C P 204;3NPS C T 206;5.75914
3NPS C V 205;3NPS C T 206;29.2461
3NPS C V 205;3NPS C K 207;16.2468
3NPS C T 206;3NPS C K 207;32.9697
3NPS C T 206;3NPS C S 208;8.39351
3NPS C K 207;3NPS C S 208;22.3775
3NPS C S 208;3NPS C F 209;29.3533
3NPS C F 209;3NPS C N 210;35.7718
3NPS C F 209;3NPS C R 211;10.9848
3NPS C F 209;3NPS C G 212;0.00923966
3NPS C N 210;3NPS C R 211;23.7172
3NPS C N 210;3NPS C G 212;9.85955
3NPS C R 211;3NPS C G 212;36.4958
