V1;V2;Weight
3QDJ A G 1;3QDJ A S 2;28.6172
3QDJ A G 1;3QDJ A H 3;18.0822
3QDJ A G 1;3QDJ A G 104;1.44799
3QDJ A G 1;3QDJ A S 105;21.4087
3QDJ A G 1;3QDJ A W 107;3.18716
3QDJ A G 1;3QDJ A T 182;0.943662
3QDJ A G 1;3QDJ A E 264;22.8381
3QDJ A S 2;3QDJ A H 3;30.7165
3QDJ A S 2;3QDJ A D 29;5.21412
3QDJ A S 2;3QDJ A V 103;7.60531
3QDJ A S 2;3QDJ A G 104;9.91174
3QDJ A S 2;3QDJ A S 105;7.84208
3QDJ A S 2;3QDJ A L 110;9.13368
3QDJ A S 2;3QDJ A R 111;0.453762
3QDJ A S 2;3QDJ A E 264;2.57685
3QDJ A H 3;3QDJ A S 4;22.7673
3QDJ A H 3;3QDJ A V 28;1.28444
3QDJ A H 3;3QDJ A D 29;22.0744
3QDJ A H 3;3QDJ A D 102;8.09427
3QDJ A H 3;3QDJ A V 103;26.3613
3QDJ A H 3;3QDJ A G 104;1.64978
3QDJ A H 3;3QDJ A W 107;14.3677
3QDJ A H 3;3QDJ A L 168;8.25556
3QDJ A H 3;3QDJ A L 172;24.4487
3QDJ A H 3;3QDJ A L 179;8.18247
3QDJ A H 3;3QDJ A Q 180;11.3732
3QDJ A S 4;3QDJ A M 5;19.4021
3QDJ A S 4;3QDJ A R 6;20.009
3QDJ A S 4;3QDJ A V 28;7.65529
3QDJ A S 4;3QDJ A D 29;30.074
3QDJ A S 4;3QDJ A C 101;5.68023
3QDJ A S 4;3QDJ A D 102;12.2623
3QDJ A S 4;3QDJ A Y 113;2.92155
3QDJ A S 4;3QDJ A L 168;11.2685
3QDJ A M 5;3QDJ A R 6;25.9571
3QDJ A M 5;3QDJ A Y 7;15.5485
3QDJ A M 5;3QDJ A Y 27;7.75228
3QDJ A M 5;3QDJ A V 28;8.58993
3QDJ A M 5;3QDJ A D 29;0.0353291
3QDJ A M 5;3QDJ A F 33;7.49618
3QDJ A M 5;3QDJ A G 100;7.47134
3QDJ A M 5;3QDJ A C 101;15.6887
3QDJ A M 5;3QDJ A Y 113;0.367692
3QDJ A M 5;3QDJ A Y 159;4.21944
3QDJ A M 5;3QDJ A C 164;24.0669
3QDJ A M 5;3QDJ A W 167;6.07952
3QDJ A M 5;3QDJ A L 168;20.8179
3QDJ A M 5;3QDJ A Y 171;10.5472
3QDJ A M 5;3QDJ C A 1;12.4454
3QDJ A R 6;3QDJ A Y 7;21.9121
3QDJ A R 6;3QDJ A F 8;25.7999
3QDJ A R 6;3QDJ A V 25;0.506227
3QDJ A R 6;3QDJ A G 26;4.33285
3QDJ A R 6;3QDJ A Y 27;24.814
3QDJ A R 6;3QDJ A V 28;0.0834009
3QDJ A R 6;3QDJ A D 29;2.39205
3QDJ A R 6;3QDJ A F 33;0.00523617
3QDJ A R 6;3QDJ A M 98;21.0673
3QDJ A R 6;3QDJ A Y 99;5.96909
3QDJ A R 6;3QDJ A G 100;3.01993
3QDJ A R 6;3QDJ A C 101;0.0268487
3QDJ A R 6;3QDJ A D 102;3.64249
3QDJ A R 6;3QDJ A Y 113;28.9974
3QDJ A R 6;3QDJ B K 58;11.7422
3QDJ A Y 7;3QDJ A F 8;21.1792
3QDJ A Y 7;3QDJ A F 9;22.0531
3QDJ A Y 7;3QDJ A A 24;2.31608
3QDJ A Y 7;3QDJ A V 25;10.1944
3QDJ A Y 7;3QDJ A G 26;11.8564
3QDJ A Y 7;3QDJ A Y 27;0.0143676
3QDJ A Y 7;3QDJ A F 33;13.1648
3QDJ A Y 7;3QDJ A V 34;11.2414
3QDJ A Y 7;3QDJ A M 45;11.4447
3QDJ A Y 7;3QDJ A Y 59;3.9333
3QDJ A Y 7;3QDJ A E 63;3.71955
3QDJ A Y 7;3QDJ A R 97;0.178705
3QDJ A Y 7;3QDJ A M 98;8.41481
3QDJ A Y 7;3QDJ A Y 99;31.9432
3QDJ A Y 7;3QDJ A G 100;1.16058
3QDJ A Y 7;3QDJ A Y 159;6.01946
3QDJ A Y 7;3QDJ A C 164;0.0451041
3QDJ A Y 7;3QDJ A Y 171;0.320233
3QDJ A Y 7;3QDJ C A 1;14.949
3QDJ A Y 7;3QDJ C A 2;16.8473
3QDJ A F 8;3QDJ A F 9;24.4575
3QDJ A F 8;3QDJ A T 10;0.317562
3QDJ A F 8;3QDJ A I 23;1.60298
3QDJ A F 8;3QDJ A A 24;6.0344
3QDJ A F 8;3QDJ A V 25;30.1544
3QDJ A F 8;3QDJ A G 26;0.00419719
3QDJ A F 8;3QDJ A Y 27;16.4294
3QDJ A F 8;3QDJ A R 97;3.22865
3QDJ A F 8;3QDJ A M 98;20.4712
3QDJ A F 8;3QDJ B L 54;0.145027
3QDJ A F 8;3QDJ B S 55;12.1958
3QDJ A F 8;3QDJ B F 56;36.8805
3QDJ A F 8;3QDJ B S 57;2.78494
3QDJ A F 8;3QDJ B K 58;0.980271
3QDJ A F 8;3QDJ B Y 63;2.14274
3QDJ A F 9;3QDJ A T 10;20.697
3QDJ A F 9;3QDJ A F 22;13.1302
3QDJ A F 9;3QDJ A I 23;4.10259
3QDJ A F 9;3QDJ A A 24;14.0591
3QDJ A F 9;3QDJ A V 67;10.2381
3QDJ A F 9;3QDJ A H 70;21.6696
3QDJ A F 9;3QDJ A H 74;12.7468
3QDJ A F 9;3QDJ A V 95;0.993621
3QDJ A F 9;3QDJ A Q 96;5.82858
3QDJ A F 9;3QDJ A R 97;29.8744
3QDJ A F 9;3QDJ A M 98;0.8313
3QDJ A F 9;3QDJ A Y 99;16.4817
3QDJ A F 9;3QDJ B F 56;9.26432
3QDJ A F 9;3QDJ C A 2;5.43343
3QDJ A T 10;3QDJ A S 11;21.9494
3QDJ A T 10;3QDJ A V 12;11.6795
3QDJ A T 10;3QDJ A R 21;2.5085
3QDJ A T 10;3QDJ A F 22;10.3137
3QDJ A T 10;3QDJ A I 23;26.062
3QDJ A T 10;3QDJ A H 74;0.561378
3QDJ A T 10;3QDJ A T 94;6.35102
3QDJ A T 10;3QDJ A V 95;5.46437
3QDJ A T 10;3QDJ A Q 96;6.48868
3QDJ A T 10;3QDJ B S 33;3.09351
3QDJ A T 10;3QDJ B L 54;17.8239
3QDJ A T 10;3QDJ B S 55;0.462246
3QDJ A T 10;3QDJ B F 56;11.2501
3QDJ A T 10;3QDJ B F 62;12.4966
3QDJ A S 11;3QDJ A V 12;20.2832
3QDJ A S 11;3QDJ A P 20;6.21756
3QDJ A S 11;3QDJ A R 21;6.52664
3QDJ A S 11;3QDJ A F 22;14.1645
3QDJ A S 11;3QDJ A S 71;1.47354
3QDJ A S 11;3QDJ A H 74;20.8749
3QDJ A S 11;3QDJ A R 75;0.546815
3QDJ A S 11;3QDJ A L 78;13.7953
3QDJ A S 11;3QDJ A H 93;0.449942
3QDJ A S 11;3QDJ A T 94;6.63798
3QDJ A S 11;3QDJ A V 95;20.4671
3QDJ A V 12;3QDJ A S 13;20.328
3QDJ A V 12;3QDJ A R 14;0.104546
3QDJ A V 12;3QDJ A R 14;11.3899
3QDJ A V 12;3QDJ A P 20;8.87056
3QDJ A V 12;3QDJ A R 21;30.8169
3QDJ A V 12;3QDJ A I 23;0.808605
3QDJ A V 12;3QDJ A L 78;2.20343
3QDJ A V 12;3QDJ A S 92;11.3971
3QDJ A V 12;3QDJ A H 93;6.47314
3QDJ A V 12;3QDJ A T 94;14.7093
3QDJ A V 12;3QDJ B P 32;3.3371
3QDJ A V 12;3QDJ B S 33;16.959
3QDJ A V 12;3QDJ B D 34;15.4478
3QDJ A V 12;3QDJ B L 54;1.43305
3QDJ A S 13;3QDJ A R 14;19.5852
3QDJ A S 13;3QDJ A R 14;10.2452
3QDJ A S 13;3QDJ A G 18;1.53877
3QDJ A S 13;3QDJ A P 20;6.93614
3QDJ A S 13;3QDJ A L 78;21.8831
3QDJ A S 13;3QDJ A R 82;11.4029
3QDJ A S 13;3QDJ A G 91;5.78882
3QDJ A S 13;3QDJ A S 92;13.5845
3QDJ A S 13;3QDJ A H 93;22.4155
3QDJ A R 14;3QDJ A P 15;19.5005
3QDJ A R 14;3QDJ A G 16;6.09356
3QDJ A R 14;3QDJ A G 18;15.1289
3QDJ A R 14;3QDJ A E 19;0.356619
3QDJ A R 14;3QDJ A P 20;1.87024
3QDJ A R 14;3QDJ A G 91;2.06637
3QDJ A R 14;3QDJ A S 92;0.588352
3QDJ A R 14;3QDJ A P 15;15.3207
3QDJ A R 14;3QDJ A G 18;8.28741
3QDJ A R 14;3QDJ A E 19;22.0116
3QDJ A R 14;3QDJ A P 20;8.60237
3QDJ A R 14;3QDJ A R 21;26.5469
3QDJ A R 14;3QDJ A S 38;3.29792
3QDJ A R 14;3QDJ A D 39;17.6738
3QDJ A R 14;3QDJ A S 92;3.45986
3QDJ A P 15;3QDJ A G 16;24.7602
3QDJ A P 15;3QDJ A R 17;7.51885
3QDJ A P 15;3QDJ A G 18;4.70798
3QDJ A P 15;3QDJ A E 89;4.22173
3QDJ A P 15;3QDJ A A 90;17.3985
3QDJ A P 15;3QDJ A G 91;9.49118
3QDJ A P 15;3QDJ A S 92;12.4571
3QDJ A G 16;3QDJ A R 17;26.3266
3QDJ A G 16;3QDJ A G 18;8.31411
3QDJ A G 16;3QDJ A E 89;34.5727
3QDJ A G 16;3QDJ A A 90;2.59602
3QDJ A R 17;3QDJ A G 18;27.2389
3QDJ A R 17;3QDJ A E 89;13.8965
3QDJ A G 18;3QDJ A E 19;29.7547
3QDJ A G 18;3QDJ A P 20;6.43819
3QDJ A G 18;3QDJ A R 75;0.0609247
3QDJ A E 19;3QDJ A P 20;30.6669
3QDJ A E 19;3QDJ A R 75;26.1581
3QDJ A P 20;3QDJ A R 21;18.6906
3QDJ A P 20;3QDJ A F 22;7.53821
3QDJ A P 20;3QDJ A S 38;7.20842
3QDJ A P 20;3QDJ A S 71;4.37978
3QDJ A P 20;3QDJ A R 75;31.2187
3QDJ A P 20;3QDJ A L 78;12.1359
3QDJ A R 21;3QDJ A F 22;23.2468
3QDJ A R 21;3QDJ A I 23;28.3274
3QDJ A R 21;3QDJ A D 37;18.5538
3QDJ A R 21;3QDJ A S 38;7.78517
3QDJ A R 21;3QDJ A D 39;30.3701
3QDJ A R 21;3QDJ B D 34;3.80859
3QDJ A R 21;3QDJ B H 51;6.48885
3QDJ A F 22;3QDJ A I 23;27.9284
3QDJ A F 22;3QDJ A A 24;9.26598
3QDJ A F 22;3QDJ A F 36;19.9386
3QDJ A F 22;3QDJ A D 37;4.09965
3QDJ A F 22;3QDJ A S 38;25.2112
3QDJ A F 22;3QDJ A V 67;15.1698
3QDJ A F 22;3QDJ A K 68;0.355867
3QDJ A F 22;3QDJ A H 70;6.6429
3QDJ A F 22;3QDJ A S 71;33.52
3QDJ A F 22;3QDJ A H 74;6.0386
3QDJ A I 23;3QDJ A A 24;22.7043
3QDJ A I 23;3QDJ A V 25;7.29949
3QDJ A I 23;3QDJ A R 35;0.415654
3QDJ A I 23;3QDJ A F 36;8.9185
3QDJ A I 23;3QDJ A D 37;17.7583
3QDJ A I 23;3QDJ B D 53;6.64714
3QDJ A I 23;3QDJ B L 54;40.9276
3QDJ A A 24;3QDJ A V 25;25.5108
3QDJ A A 24;3QDJ A R 35;7.03344
3QDJ A A 24;3QDJ A F 36;20.4875
3QDJ A A 24;3QDJ A M 45;4.31378
3QDJ A A 24;3QDJ A V 67;9.3732
3QDJ A V 25;3QDJ A G 26;20.6824
3QDJ A V 25;3QDJ A Y 27;12.6926
3QDJ A V 25;3QDJ A Q 32;13.7334
3QDJ A V 25;3QDJ A V 34;5.80553
3QDJ A V 25;3QDJ A R 35;5.51773
3QDJ A V 25;3QDJ A M 45;0.156053
3QDJ A V 25;3QDJ B D 53;12.911
3QDJ A V 25;3QDJ B L 54;10.5137
3QDJ A V 25;3QDJ B S 55;10.6976
3QDJ A G 26;3QDJ A Y 27;19.5951
3QDJ A G 26;3QDJ A Q 32;7.58736
3QDJ A G 26;3QDJ A F 33;13.3786
3QDJ A G 26;3QDJ A V 34;18.6619
3QDJ A Y 27;3QDJ A V 28;20.3092
3QDJ A Y 27;3QDJ A D 29;13.1244
3QDJ A Y 27;3QDJ A D 30;12.9851
3QDJ A Y 27;3QDJ A T 31;8.97064
3QDJ A Y 27;3QDJ A Q 32;31.3962
3QDJ A Y 27;3QDJ A F 33;11.9186
3QDJ A Y 27;3QDJ B D 53;3.15134
3QDJ A Y 27;3QDJ B S 55;12.6888
3QDJ A Y 27;3QDJ B Y 63;19.8435
3QDJ A V 28;3QDJ A D 29;28.5138
3QDJ A V 28;3QDJ A D 30;1.0641
3QDJ A V 28;3QDJ A T 31;19.1462
3QDJ A V 28;3QDJ A F 33;10.672
3QDJ A V 28;3QDJ A W 51;10.9849
3QDJ A V 28;3QDJ A L 168;12.2499
3QDJ A V 28;3QDJ A Y 171;13.146
3QDJ A V 28;3QDJ A L 172;9.2386
3QDJ A V 28;3QDJ A L 179;17.8501
3QDJ A V 28;3QDJ A Y 209;1.4868
3QDJ A D 29;3QDJ A D 30;31.5381
3QDJ A D 29;3QDJ A T 31;0.961034
3QDJ A D 29;3QDJ A L 172;2.08509
3QDJ A D 29;3QDJ A L 179;8.83801
3QDJ A D 29;3QDJ A Y 209;12.1059
3QDJ A D 29;3QDJ A P 210;6.56329
3QDJ A D 30;3QDJ A T 31;20.3686
3QDJ A D 30;3QDJ A Q 32;1.3392
3QDJ A D 30;3QDJ A Y 209;17.6121
3QDJ A D 30;3QDJ A P 210;12.6252
3QDJ A D 30;3QDJ A A 211;18.0842
3QDJ A D 30;3QDJ A E 212;2.72097
3QDJ A D 30;3QDJ A G 239;2.49329
3QDJ A D 30;3QDJ A F 241;22.0961
3QDJ A T 31;3QDJ A Q 32;29.691
3QDJ A T 31;3QDJ A F 33;3.51261
3QDJ A T 31;3QDJ A A 49;8.39842
3QDJ A T 31;3QDJ A W 51;7.95275
3QDJ A T 31;3QDJ A T 178;11.7514
3QDJ A T 31;3QDJ A L 179;12.7704
3QDJ A T 31;3QDJ A Y 209;19.2352
3QDJ A Q 32;3QDJ A F 33;17.9018
3QDJ A Q 32;3QDJ A V 34;9.38596
3QDJ A Q 32;3QDJ A R 35;4.01556
3QDJ A Q 32;3QDJ A R 48;27.2394
3QDJ A Q 32;3QDJ A A 49;5.74473
3QDJ A Q 32;3QDJ B S 52;3.06516
3QDJ A Q 32;3QDJ B D 53;20.3475
3QDJ A F 33;3QDJ A V 34;36.0926
3QDJ A F 33;3QDJ A P 47;1.72257
3QDJ A F 33;3QDJ A R 48;11.5611
3QDJ A F 33;3QDJ A A 49;12.0521
3QDJ A F 33;3QDJ A W 51;18.7793
3QDJ A F 33;3QDJ A I 52;20.54
3QDJ A F 33;3QDJ A Y 59;5.41889
3QDJ A F 33;3QDJ A Y 171;13.3179
3QDJ A F 33;3QDJ C A 1;0.630227
3QDJ A V 34;3QDJ A R 35;19.1032
3QDJ A V 34;3QDJ A M 45;21.1926
3QDJ A V 34;3QDJ A E 46;8.21596
3QDJ A V 34;3QDJ A P 47;2.55886
3QDJ A V 34;3QDJ A R 48;7.26296
3QDJ A V 34;3QDJ A I 52;5.59611
3QDJ A V 34;3QDJ A Y 59;7.2707
3QDJ A V 34;3QDJ A W 60;10.4728
3QDJ A V 34;3QDJ A E 63;0.229841
3QDJ A R 35;3QDJ A F 36;23.8562
3QDJ A R 35;3QDJ A D 37;23.3857
3QDJ A R 35;3QDJ A A 40;15.667
3QDJ A R 35;3QDJ A R 44;1.95385
3QDJ A R 35;3QDJ A M 45;13.006
3QDJ A R 35;3QDJ A E 46;45.8885
3QDJ A R 35;3QDJ A R 48;28.0238
3QDJ A R 35;3QDJ B D 53;25.9157
3QDJ A F 36;3QDJ A D 37;33.8044
3QDJ A F 36;3QDJ A S 38;12.0053
3QDJ A F 36;3QDJ A Q 43;23.1795
3QDJ A F 36;3QDJ A R 44;15.1997
3QDJ A F 36;3QDJ A M 45;12.2974
3QDJ A F 36;3QDJ A E 46;0.661573
3QDJ A F 36;3QDJ A T 64;4.73479
3QDJ A F 36;3QDJ A V 67;19.3168
3QDJ A F 36;3QDJ A K 68;17.5675
3QDJ A F 36;3QDJ A S 71;1.98241
3QDJ A D 37;3QDJ A S 38;17.3996
3QDJ A D 37;3QDJ A D 39;12.3361
3QDJ A D 37;3QDJ A A 40;22.6246
3QDJ A D 37;3QDJ A Q 43;6.5118
3QDJ A D 37;3QDJ A R 44;1.25821
3QDJ A D 37;3QDJ A E 46;2.16109
3QDJ A D 37;3QDJ B D 53;4.38558
3QDJ A S 38;3QDJ A D 39;27.162
3QDJ A S 38;3QDJ A A 40;2.87155
3QDJ A S 38;3QDJ A Q 43;19.8202
3QDJ A S 38;3QDJ A S 71;0.0804823
3QDJ A D 39;3QDJ A A 40;30.6257
3QDJ A D 39;3QDJ A A 41;0.206667
3QDJ A A 40;3QDJ A A 41;31.8308
3QDJ A A 40;3QDJ A S 42;10.2548
3QDJ A A 40;3QDJ A Q 43;16.1462
3QDJ A A 40;3QDJ A E 46;6.31486
3QDJ A A 41;3QDJ A S 42;30.5423
3QDJ A A 41;3QDJ A Q 43;8.24517
3QDJ A S 42;3QDJ A Q 43;28.0384
3QDJ A S 42;3QDJ A R 44;32.3696
3QDJ A S 42;3QDJ A E 46;19.2401
3QDJ A Q 43;3QDJ A R 44;21.5052
3QDJ A Q 43;3QDJ A T 64;5.47248
3QDJ A Q 43;3QDJ A K 68;25.4117
3QDJ A R 44;3QDJ A M 45;25.1995
3QDJ A R 44;3QDJ A E 46;12.228
3QDJ A R 44;3QDJ A P 57;0.764181
3QDJ A R 44;3QDJ A W 60;17.272
3QDJ A R 44;3QDJ A D 61;27.202
3QDJ A R 44;3QDJ A T 64;24.051
3QDJ A R 44;3QDJ A K 68;0.149974
3QDJ A M 45;3QDJ A E 46;21.1369
3QDJ A M 45;3QDJ A P 47;3.24358
3QDJ A M 45;3QDJ A Y 59;0.304811
3QDJ A M 45;3QDJ A W 60;24.1878
3QDJ A M 45;3QDJ A E 63;25.2639
3QDJ A M 45;3QDJ A T 64;15.8877
3QDJ A M 45;3QDJ A V 67;21.3779
3QDJ A M 45;3QDJ C A 2;5.87856
3QDJ A E 46;3QDJ A P 47;32.9857
3QDJ A E 46;3QDJ A R 48;4.93426
3QDJ A E 46;3QDJ A W 60;2.8196
3QDJ A P 47;3QDJ A R 48;30.8928
3QDJ A P 47;3QDJ A A 49;2.20821
3QDJ A P 47;3QDJ A I 52;9.46713
3QDJ A P 47;3QDJ A E 53;23.2665
3QDJ A P 47;3QDJ A W 60;20.9054
3QDJ A R 48;3QDJ A A 49;27.5366
3QDJ A R 48;3QDJ A P 50;0.9585
3QDJ A R 48;3QDJ A I 52;1.23633
3QDJ A R 48;3QDJ B H 51;5.75818
3QDJ A R 48;3QDJ B S 52;5.33835
3QDJ A R 48;3QDJ B D 53;21.6068
3QDJ A R 48;3QDJ B Y 67;3.69105
3QDJ A A 49;3QDJ A P 50;29.3023
3QDJ A A 49;3QDJ A W 51;17.9073
3QDJ A A 49;3QDJ A I 52;14.3304
3QDJ A A 49;3QDJ A E 53;6.2839
3QDJ A A 49;3QDJ A T 178;0.295382
3QDJ A P 50;3QDJ A W 51;32.8801
3QDJ A P 50;3QDJ A I 52;1.64429
3QDJ A P 50;3QDJ A E 53;27.4741
3QDJ A P 50;3QDJ A Q 54;3.47674
3QDJ A P 50;3QDJ A T 178;10.7451
3QDJ A W 51;3QDJ A I 52;34.1086
3QDJ A W 51;3QDJ A E 53;1.3279
3QDJ A W 51;3QDJ A Q 54;20.9077
3QDJ A W 51;3QDJ A E 55;2.0415
3QDJ A W 51;3QDJ A Y 171;22.4417
3QDJ A W 51;3QDJ A N 174;19.0591
3QDJ A W 51;3QDJ A G 175;16.8094
3QDJ A W 51;3QDJ A T 178;16.1665
3QDJ A W 51;3QDJ A L 179;21.1509
3QDJ A I 52;3QDJ A E 53;19.3345
3QDJ A I 52;3QDJ A Q 54;3.87752
3QDJ A I 52;3QDJ A E 55;23.9837
3QDJ A I 52;3QDJ A Y 59;12.1644
3QDJ A I 52;3QDJ A W 60;17.7044
3QDJ A I 52;3QDJ A Y 171;12.3426
3QDJ A E 53;3QDJ A Q 54;24.1381
3QDJ A E 53;3QDJ A E 55;9.22964
3QDJ A E 53;3QDJ A W 60;9.63258
3QDJ A Q 54;3QDJ A E 55;31.2198
3QDJ A Q 54;3QDJ A G 56;5.6121
3QDJ A Q 54;3QDJ A R 170;3.6334
3QDJ A Q 54;3QDJ A N 174;29.0879
3QDJ A E 55;3QDJ A G 56;28.9191
3QDJ A E 55;3QDJ A P 57;0.381528
3QDJ A E 55;3QDJ A Y 59;24.7621
3QDJ A E 55;3QDJ A W 60;18.3901
3QDJ A E 55;3QDJ A W 167;8.80386
3QDJ A E 55;3QDJ A R 170;25.353
3QDJ A E 55;3QDJ A Y 171;6.5951
3QDJ A E 55;3QDJ A N 174;6.40824
3QDJ A G 56;3QDJ A P 57;29.4762
3QDJ A G 56;3QDJ A E 58;4.52736
3QDJ A G 56;3QDJ A Y 59;13.512
3QDJ A G 56;3QDJ A W 60;8.97532
3QDJ A P 57;3QDJ A E 58;24.6004
3QDJ A P 57;3QDJ A Y 59;0.927877
3QDJ A P 57;3QDJ A W 60;14.6993
3QDJ A P 57;3QDJ A D 61;25.0576
3QDJ A E 58;3QDJ A Y 59;24.2782
3QDJ A E 58;3QDJ A W 60;0.82262
3QDJ A E 58;3QDJ A D 61;8.8615
3QDJ A E 58;3QDJ A G 62;11.4818
3QDJ A E 58;3QDJ A R 65;1.66633
3QDJ A Y 59;3QDJ A W 60;37.5062
3QDJ A Y 59;3QDJ A D 61;0.336174
3QDJ A Y 59;3QDJ A G 62;4.91322
3QDJ A Y 59;3QDJ A E 63;39.072
3QDJ A Y 59;3QDJ A W 167;18.9651
3QDJ A Y 59;3QDJ A Y 171;11.854
3QDJ A Y 59;3QDJ C A 1;6.30665
3QDJ A W 60;3QDJ A D 61;15.6939
3QDJ A W 60;3QDJ A G 62;1.39888
3QDJ A W 60;3QDJ A E 63;7.29971
3QDJ A W 60;3QDJ A T 64;13.6176
3QDJ A D 61;3QDJ A G 62;16.7927
3QDJ A D 61;3QDJ A E 63;0.165656
3QDJ A D 61;3QDJ A T 64;9.27207
3QDJ A D 61;3QDJ A R 65;36.2598
3QDJ A G 62;3QDJ A E 63;18.124
3QDJ A G 62;3QDJ A T 64;1.37261
3QDJ A G 62;3QDJ A R 65;14.3907
3QDJ A G 62;3QDJ A K 66;14.195
3QDJ A E 63;3QDJ A T 64;16.4458
3QDJ A E 63;3QDJ A R 65;0.541786
3QDJ A E 63;3QDJ A K 66;26.376
3QDJ A E 63;3QDJ A V 67;10.0447
3QDJ A E 63;3QDJ C A 1;13.2481
3QDJ A E 63;3QDJ C A 2;12.8207
3QDJ A T 64;3QDJ A R 65;20.2765
3QDJ A T 64;3QDJ A K 66;1.06594
3QDJ A T 64;3QDJ A V 67;12.8393
3QDJ A T 64;3QDJ A K 68;25.3324
3QDJ A R 65;3QDJ A K 66;15.2264
3QDJ A R 65;3QDJ A V 67;0.63888
3QDJ A R 65;3QDJ A K 68;13.6759
3QDJ A R 65;3QDJ A A 69;10.1021
3QDJ A K 66;3QDJ A V 67;17.1226
3QDJ A K 66;3QDJ A K 68;0.667212
3QDJ A K 66;3QDJ A A 69;8.08664
3QDJ A K 66;3QDJ A H 70;16.0643
3QDJ A K 66;3QDJ C A 1;3.37116
3QDJ A K 66;3QDJ C A 2;19.8287
3QDJ A K 66;3QDJ C G 3;8.8415
3QDJ A K 66;3QDJ C I 4;11.2361
3QDJ A V 67;3QDJ A K 68;19.5578
3QDJ A V 67;3QDJ A A 69;0.70482
3QDJ A V 67;3QDJ A H 70;11.8645
3QDJ A V 67;3QDJ A S 71;5.558
3QDJ A V 67;3QDJ C A 2;5.55908
3QDJ A K 68;3QDJ A A 69;16.0539
3QDJ A K 68;3QDJ A H 70;1.06837
3QDJ A K 68;3QDJ A S 71;14.5201
3QDJ A K 68;3QDJ A Q 72;24.298
3QDJ A A 69;3QDJ A H 70;15.528
3QDJ A A 69;3QDJ A S 71;0.724043
3QDJ A A 69;3QDJ A Q 72;14.3809
3QDJ A A 69;3QDJ A T 73;12.2451
3QDJ A H 70;3QDJ A S 71;16.0164
3QDJ A H 70;3QDJ A Q 72;0.869533
3QDJ A H 70;3QDJ A T 73;8.01916
3QDJ A H 70;3QDJ A H 74;17.5629
3QDJ A H 70;3QDJ A R 97;6.52421
3QDJ A H 70;3QDJ A Y 99;12.0415
3QDJ A H 70;3QDJ C A 2;4.95409
3QDJ A H 70;3QDJ C G 3;9.0752
3QDJ A H 70;3QDJ C I 6;25.0053
3QDJ A S 71;3QDJ A Q 72;19.4611
3QDJ A S 71;3QDJ A T 73;0.641416
3QDJ A S 71;3QDJ A H 74;11.3476
3QDJ A S 71;3QDJ A R 75;11.1005
3QDJ A Q 72;3QDJ A T 73;16.5376
3QDJ A Q 72;3QDJ A H 74;0.792234
3QDJ A Q 72;3QDJ A R 75;16.7806
3QDJ A Q 72;3QDJ A V 76;9.56194
3QDJ A T 73;3QDJ A H 74;19.0392
3QDJ A T 73;3QDJ A R 75;1.30209
3QDJ A T 73;3QDJ A V 76;6.94837
3QDJ A T 73;3QDJ A D 77;15.35
3QDJ A T 73;3QDJ A R 97;3.67217
3QDJ A T 73;3QDJ C I 6;16.4923
3QDJ A T 73;3QDJ C L 7;8.99868
3QDJ A T 73;3QDJ C T 8;19.1389
3QDJ A H 74;3QDJ A R 75;17.0375
3QDJ A H 74;3QDJ A V 76;0.61308
3QDJ A H 74;3QDJ A D 77;15.6077
3QDJ A H 74;3QDJ A L 78;12.9893
3QDJ A H 74;3QDJ A V 95;22.073
3QDJ A H 74;3QDJ A Q 96;1.17077
3QDJ A H 74;3QDJ A R 97;23.6105
3QDJ A H 74;3QDJ A Y 116;4.13121
3QDJ A H 74;3QDJ C I 6;2.41663
3QDJ A R 75;3QDJ A V 76;24.9908
3QDJ A R 75;3QDJ A D 77;0.657246
3QDJ A R 75;3QDJ A L 78;16.8185
3QDJ A R 75;3QDJ A G 79;7.24003
3QDJ A V 76;3QDJ A D 77;17.1576
3QDJ A V 76;3QDJ A L 78;1.70263
3QDJ A V 76;3QDJ A G 79;8.36791
3QDJ A V 76;3QDJ A T 80;21.2238
3QDJ A V 76;3QDJ C T 8;18.117
3QDJ A D 77;3QDJ A L 78;16.7469
3QDJ A D 77;3QDJ A G 79;0.611238
3QDJ A D 77;3QDJ A T 80;10.1303
3QDJ A D 77;3QDJ A L 81;16.3951
3QDJ A D 77;3QDJ A V 95;4.98081
3QDJ A D 77;3QDJ A R 97;2.18577
3QDJ A D 77;3QDJ A Y 116;14.6116
3QDJ A D 77;3QDJ C L 7;1.17501
3QDJ A D 77;3QDJ C T 8;9.69753
3QDJ A D 77;3QDJ C V 9;22.3698
3QDJ A L 78;3QDJ A G 79;17.537
3QDJ A L 78;3QDJ A T 80;0.850548
3QDJ A L 78;3QDJ A L 81;6.32646
3QDJ A L 78;3QDJ A R 82;22.8841
3QDJ A L 78;3QDJ A H 93;11.653
3QDJ A L 78;3QDJ A T 94;2.91346
3QDJ A L 78;3QDJ A V 95;16.3486
3QDJ A L 78;3QDJ A Y 118;10.1518
3QDJ A G 79;3QDJ A T 80;21.0032
3QDJ A G 79;3QDJ A L 81;0.686076
3QDJ A G 79;3QDJ A R 82;29.1498
3QDJ A G 79;3QDJ A G 83;7.55789
3QDJ A T 80;3QDJ A L 81;17.5404
3QDJ A T 80;3QDJ A R 82;1.3906
3QDJ A T 80;3QDJ A G 83;7.8164
3QDJ A T 80;3QDJ A Y 84;31.1517
3QDJ A T 80;3QDJ A K 146;4.64047
3QDJ A T 80;3QDJ C T 8;0.602794
3QDJ A T 80;3QDJ C V 9;18.0765
3QDJ A L 81;3QDJ A R 82;17.7616
3QDJ A L 81;3QDJ A G 83;0.599004
3QDJ A L 81;3QDJ A Y 84;16.5649
3QDJ A L 81;3QDJ A Y 85;21.4291
3QDJ A L 81;3QDJ A Q 87;2.487
3QDJ A L 81;3QDJ A V 95;8.42916
3QDJ A L 81;3QDJ A Y 116;9.97815
3QDJ A L 81;3QDJ A Y 118;31.9322
3QDJ A L 81;3QDJ A Y 123;16.3565
3QDJ A L 81;3QDJ A A 139;0.435563
3QDJ A L 81;3QDJ C V 9;12.7768
3QDJ A R 82;3QDJ A G 83;22.7819
3QDJ A R 82;3QDJ A Y 84;0.735142
3QDJ A R 82;3QDJ A Y 85;2.95984
3QDJ A R 82;3QDJ A N 86;7.10965
3QDJ A R 82;3QDJ A Q 87;31.5319
3QDJ A R 82;3QDJ A S 88;9.76385
3QDJ A R 82;3QDJ A E 89;33.799
3QDJ A R 82;3QDJ A G 91;0.868924
3QDJ A R 82;3QDJ A H 93;10.0594
3QDJ A R 82;3QDJ A Y 118;7.51146
3QDJ A G 83;3QDJ A Y 84;24.4228
3QDJ A G 83;3QDJ A Y 85;1.72272
3QDJ A G 83;3QDJ A N 86;15.4375
3QDJ A Y 84;3QDJ A Y 85;27.7195
3QDJ A Y 84;3QDJ A N 86;6.87611
3QDJ A Y 84;3QDJ A Y 123;7.32431
3QDJ A Y 84;3QDJ A A 139;25.7204
3QDJ A Y 84;3QDJ A T 142;21.654
3QDJ A Y 84;3QDJ A T 143;4.86768
3QDJ A Y 84;3QDJ A K 146;13.0829
3QDJ A Y 84;3QDJ C V 9;12.8563
3QDJ A Y 85;3QDJ A N 86;30.2899
3QDJ A Y 85;3QDJ A Q 87;25.4435
3QDJ A Y 85;3QDJ A Y 118;20.9756
3QDJ A Y 85;3QDJ A K 121;1.46947
3QDJ A Y 85;3QDJ A D 122;0.0978088
3QDJ A Y 85;3QDJ A Y 123;14.4679
3QDJ A Y 85;3QDJ A D 137;23.4056
3QDJ A Y 85;3QDJ A A 139;15.841
3QDJ A N 86;3QDJ A Q 87;25.1789
3QDJ A N 86;3QDJ A S 88;2.68476
3QDJ A Q 87;3QDJ A S 88;35.571
3QDJ A Q 87;3QDJ A H 93;22.4581
3QDJ A Q 87;3QDJ A Y 118;16.0324
3QDJ A Q 87;3QDJ A D 119;7.55034
3QDJ A Q 87;3QDJ B M 0;2.8279
3QDJ A S 88;3QDJ A E 89;26.0779
3QDJ A S 88;3QDJ A A 90;16.9374
3QDJ A S 88;3QDJ A G 91;9.37045
3QDJ A S 88;3QDJ A H 93;6.538
3QDJ A E 89;3QDJ A A 90;22.054
3QDJ A E 89;3QDJ A G 91;9.5688
3QDJ A A 90;3QDJ A G 91;24.7197
3QDJ A A 90;3QDJ A S 92;0.228249
3QDJ A G 91;3QDJ A S 92;25.6962
3QDJ A G 91;3QDJ A H 93;18.3749
3QDJ A S 92;3QDJ A H 93;29.3818
3QDJ A S 92;3QDJ A T 94;1.10448
3QDJ A S 92;3QDJ A D 119;0.184477
3QDJ A S 92;3QDJ B M 0;10.591
3QDJ A S 92;3QDJ B P 32;1.71715
3QDJ A S 92;3QDJ B D 34;5.36934
3QDJ A H 93;3QDJ A T 94;22.8955
3QDJ A H 93;3QDJ A Y 118;17.7736
3QDJ A H 93;3QDJ A D 119;16.3623
3QDJ A H 93;3QDJ B M 0;12.4499
3QDJ A T 94;3QDJ A V 95;22.7647
3QDJ A T 94;3QDJ A Q 96;10.4759
3QDJ A T 94;3QDJ A A 117;1.22296
3QDJ A T 94;3QDJ A Y 118;11.2797
3QDJ A T 94;3QDJ A D 119;20.9851
3QDJ A T 94;3QDJ A G 120;1.05265
3QDJ A T 94;3QDJ B H 31;12.6098
3QDJ A T 94;3QDJ B P 32;12.3117
3QDJ A T 94;3QDJ B S 33;3.9809
3QDJ A T 94;3QDJ B F 62;7.69625
3QDJ A V 95;3QDJ A Q 96;23.7548
3QDJ A V 95;3QDJ A R 97;0.0238676
3QDJ A V 95;3QDJ A Y 116;19.0325
3QDJ A V 95;3QDJ A A 117;6.69626
3QDJ A V 95;3QDJ A Y 118;8.95987
3QDJ A Q 96;3QDJ A R 97;18.5376
3QDJ A Q 96;3QDJ A Y 116;9.64182
3QDJ A Q 96;3QDJ A A 117;22.9287
3QDJ A Q 96;3QDJ A G 120;6.23098
3QDJ A Q 96;3QDJ B H 31;8.2299
3QDJ A Q 96;3QDJ B F 56;18.73
3QDJ A Q 96;3QDJ B W 60;28.8639
3QDJ A Q 96;3QDJ B F 62;11.6854
3QDJ A R 97;3QDJ A M 98;22.4227
3QDJ A R 97;3QDJ A Y 99;11.6856
3QDJ A R 97;3QDJ A H 114;21.7016
3QDJ A R 97;3QDJ A Q 115;7.66165
3QDJ A R 97;3QDJ A Y 116;24.331
3QDJ A R 97;3QDJ A W 147;9.88173
3QDJ A R 97;3QDJ A L 156;0.116576
3QDJ A R 97;3QDJ B F 56;7.94312
3QDJ A R 97;3QDJ B W 60;2.98994
3QDJ A R 97;3QDJ C G 5;0.426309
3QDJ A R 97;3QDJ C I 6;25.9223
3QDJ A R 97;3QDJ C L 7;8.68631
3QDJ A M 98;3QDJ A Y 99;29.2776
3QDJ A M 98;3QDJ A Y 113;14.5385
3QDJ A M 98;3QDJ A H 114;7.08256
3QDJ A M 98;3QDJ A Q 115;38.7786
3QDJ A M 98;3QDJ B F 56;9.5767
3QDJ A M 98;3QDJ B S 57;0.321945
3QDJ A M 98;3QDJ B K 58;8.68434
3QDJ A M 98;3QDJ B W 60;10.358
3QDJ A Y 99;3QDJ A G 100;22.5941
3QDJ A Y 99;3QDJ A Y 113;9.49102
3QDJ A Y 99;3QDJ A H 114;20.3551
3QDJ A Y 99;3QDJ A L 156;4.47379
3QDJ A Y 99;3QDJ A Y 159;19.7304
3QDJ A Y 99;3QDJ A L 160;5.99094
3QDJ A Y 99;3QDJ C A 2;7.92806
3QDJ A Y 99;3QDJ C G 3;12.1956
3QDJ A Y 99;3QDJ C I 6;8.94651
3QDJ A G 100;3QDJ A C 101;16.2397
3QDJ A G 100;3QDJ A G 112;3.89674
3QDJ A G 100;3QDJ A Y 113;22.7134
3QDJ A G 100;3QDJ A Y 159;1.68641
3QDJ A G 100;3QDJ A L 160;12.4274
3QDJ A G 100;3QDJ A C 164;6.87558
3QDJ A C 101;3QDJ A D 102;21.9598
3QDJ A C 101;3QDJ A V 103;1.28109
3QDJ A C 101;3QDJ A F 109;5.31858
3QDJ A C 101;3QDJ A R 111;3.84971
3QDJ A C 101;3QDJ A G 112;4.7421
3QDJ A C 101;3QDJ A Y 113;7.16987
3QDJ A C 101;3QDJ A L 160;9.72076
3QDJ A C 101;3QDJ A C 164;21.2029
3QDJ A C 101;3QDJ A V 165;11.4977
3QDJ A C 101;3QDJ A L 168;11.4282
3QDJ A D 102;3QDJ A V 103;22.0237
3QDJ A D 102;3QDJ A F 109;4.30423
3QDJ A D 102;3QDJ A L 110;15.5398
3QDJ A D 102;3QDJ A R 111;41.6696
3QDJ A D 102;3QDJ A Y 113;18.8301
3QDJ A D 102;3QDJ A V 165;0.783071
3QDJ A D 102;3QDJ A L 168;1.00663
3QDJ A V 103;3QDJ A G 104;20.6578
3QDJ A V 103;3QDJ A W 107;21.5059
3QDJ A V 103;3QDJ A R 108;8.16797
3QDJ A V 103;3QDJ A F 109;5.24741
3QDJ A V 103;3QDJ A L 110;11.5277
3QDJ A V 103;3QDJ A V 165;14.8241
3QDJ A V 103;3QDJ A L 168;19.4225
3QDJ A V 103;3QDJ A R 169;1.51253
3QDJ A V 103;3QDJ A L 172;3.76509
3QDJ A G 104;3QDJ A S 105;21.4675
3QDJ A G 104;3QDJ A D 106;10.4531
3QDJ A G 104;3QDJ A W 107;11.1182
3QDJ A G 104;3QDJ A R 108;7.93362
3QDJ A G 104;3QDJ A L 110;18.489
3QDJ A S 105;3QDJ A D 106;28.4433
3QDJ A S 105;3QDJ A W 107;14.7665
3QDJ A D 106;3QDJ A W 107;25.5117
3QDJ A D 106;3QDJ A R 108;44.7967
3QDJ A D 106;3QDJ A R 169;1.5969
3QDJ A W 107;3QDJ A R 108;17.8693
3QDJ A W 107;3QDJ A F 109;0.162101
3QDJ A W 107;3QDJ A V 165;3.57228
3QDJ A W 107;3QDJ A R 169;44.7496
3QDJ A W 107;3QDJ A L 172;25.4319
3QDJ A W 107;3QDJ A E 173;19.0546
3QDJ A W 107;3QDJ A Q 180;23.1733
3QDJ A R 108;3QDJ A F 109;31.854
3QDJ A R 108;3QDJ A L 110;4.76638
3QDJ A R 108;3QDJ A V 165;0.134397
3QDJ A R 108;3QDJ A R 169;11.0886
3QDJ A F 109;3QDJ A L 110;35.979
3QDJ A F 109;3QDJ A R 111;13.9324
3QDJ A F 109;3QDJ A G 112;10.6558
3QDJ A F 109;3QDJ A E 128;0.562676
3QDJ A F 109;3QDJ A L 130;13.1018
3QDJ A F 109;3QDJ A L 160;10.1587
3QDJ A F 109;3QDJ A E 161;31.915
3QDJ A F 109;3QDJ A V 165;20.3572
3QDJ A F 109;3QDJ A R 169;1.00595
3QDJ A L 110;3QDJ A R 111;48.3802
3QDJ A L 110;3QDJ A E 128;0.0104794
3QDJ A R 111;3QDJ A G 112;24.8778
3QDJ A R 111;3QDJ A Y 113;18.8598
3QDJ A R 111;3QDJ A E 128;25.4688
3QDJ A G 112;3QDJ A Y 113;26.9522
3QDJ A G 112;3QDJ A L 126;0.0523814
3QDJ A G 112;3QDJ A K 127;0.621834
3QDJ A G 112;3QDJ A E 128;10.0472
3QDJ A G 112;3QDJ A L 130;16.944
3QDJ A G 112;3QDJ A L 160;8.26546
3QDJ A Y 113;3QDJ A H 114;23.2164
3QDJ A Y 113;3QDJ A Q 115;16.4809
3QDJ A Y 113;3QDJ A L 126;8.6634
3QDJ A Y 113;3QDJ A K 127;0.040274
3QDJ A Y 113;3QDJ A L 130;3.10004
3QDJ A Y 113;3QDJ A L 160;12.9993
3QDJ A H 114;3QDJ A Q 115;28.5942
3QDJ A H 114;3QDJ A Y 116;6.37773
3QDJ A H 114;3QDJ A I 124;1.82154
3QDJ A H 114;3QDJ A A 125;3.74953
3QDJ A H 114;3QDJ A L 126;25.8509
3QDJ A H 114;3QDJ A W 133;10.4519
3QDJ A H 114;3QDJ A W 147;11.2499
3QDJ A H 114;3QDJ A V 152;0.125779
3QDJ A H 114;3QDJ A L 156;26.2251
3QDJ A H 114;3QDJ A L 160;4.30352
3QDJ A H 114;3QDJ C G 5;0.212462
3QDJ A H 114;3QDJ C I 6;3.61147
3QDJ A Q 115;3QDJ A Y 116;20.8227
3QDJ A Q 115;3QDJ A D 122;2.13155
3QDJ A Q 115;3QDJ A I 124;3.06512
3QDJ A Q 115;3QDJ A A 125;20.0165
3QDJ A Q 115;3QDJ A L 126;1.98124
3QDJ A Q 115;3QDJ B K 58;19.3333
3QDJ A Q 115;3QDJ B W 60;22.3703
3QDJ A Y 116;3QDJ A A 117;23.505
3QDJ A Y 116;3QDJ A Y 118;3.07147
3QDJ A Y 116;3QDJ A D 122;3.32699
3QDJ A Y 116;3QDJ A Y 123;24.9038
3QDJ A Y 116;3QDJ A I 124;26.4267
3QDJ A Y 116;3QDJ A A 125;0.207731
3QDJ A Y 116;3QDJ A W 147;9.73234
3QDJ A Y 116;3QDJ B W 60;11.1008
3QDJ A Y 116;3QDJ C L 7;0.0536609
3QDJ A Y 116;3QDJ C V 9;15.7449
3QDJ A A 117;3QDJ A Y 118;19.0348
3QDJ A A 117;3QDJ A D 119;0.0454
3QDJ A A 117;3QDJ A G 120;5.74687
3QDJ A A 117;3QDJ A K 121;10.4366
3QDJ A A 117;3QDJ A D 122;2.10588
3QDJ A A 117;3QDJ A Y 123;4.7759
3QDJ A A 117;3QDJ B W 60;19.808
3QDJ A Y 118;3QDJ A D 119;37.164
3QDJ A Y 118;3QDJ A G 120;3.1264
3QDJ A Y 118;3QDJ A K 121;21.3487
3QDJ A Y 118;3QDJ A Y 123;14.4824
3QDJ A D 119;3QDJ A G 120;17.4804
3QDJ A D 119;3QDJ A K 121;6.03656
3QDJ A D 119;3QDJ B M 0;32.7637
3QDJ A D 119;3QDJ B I 1;15.6153
3QDJ A D 119;3QDJ B H 31;7.45096
3QDJ A G 120;3QDJ A K 121;22.1473
3QDJ A G 120;3QDJ B I 1;14.2095
3QDJ A G 120;3QDJ B R 3;8.38426
3QDJ A G 120;3QDJ B H 31;16.2166
3QDJ A G 120;3QDJ B D 59;1.86877
3QDJ A G 120;3QDJ B W 60;14.5316
3QDJ A K 121;3QDJ A D 122;39.0662
3QDJ A K 121;3QDJ A Y 123;2.29229
3QDJ A K 121;3QDJ A A 136;5.94354
3QDJ A K 121;3QDJ A D 137;22.584
3QDJ A K 121;3QDJ B I 1;10.388
3QDJ A K 121;3QDJ B W 60;4.27881
3QDJ A D 122;3QDJ A Y 123;23.8822
3QDJ A D 122;3QDJ A I 124;0.959121
3QDJ A D 122;3QDJ A A 125;4.34855
3QDJ A D 122;3QDJ A A 136;22.5429
3QDJ A D 122;3QDJ A D 137;3.09589
3QDJ A D 122;3QDJ B K 58;0.532054
3QDJ A D 122;3QDJ B W 60;25.3548
3QDJ A Y 123;3QDJ A I 124;33.2061
3QDJ A Y 123;3QDJ A T 134;0.787607
3QDJ A Y 123;3QDJ A A 135;2.00385
3QDJ A Y 123;3QDJ A A 136;13.4494
3QDJ A Y 123;3QDJ A D 137;4.20273
3QDJ A Y 123;3QDJ A A 139;11.0136
3QDJ A Y 123;3QDJ A A 140;25.4714
3QDJ A Y 123;3QDJ A T 143;14.1061
3QDJ A Y 123;3QDJ C V 9;11.2639
3QDJ A I 124;3QDJ A A 125;24.877
3QDJ A I 124;3QDJ A W 133;22.5626
3QDJ A I 124;3QDJ A T 134;10.4317
3QDJ A I 124;3QDJ A A 135;6.80963
3QDJ A I 124;3QDJ A A 136;0.0396124
3QDJ A I 124;3QDJ A A 140;9.20104
3QDJ A I 124;3QDJ A T 143;12.1419
3QDJ A I 124;3QDJ A K 144;12.8495
3QDJ A I 124;3QDJ A W 147;20.4459
3QDJ A I 124;3QDJ C V 9;0.778486
3QDJ A A 125;3QDJ A L 126;25.1374
3QDJ A A 125;3QDJ A K 127;2.97122
3QDJ A A 125;3QDJ A W 133;10.5933
3QDJ A A 125;3QDJ A T 134;24.4524
3QDJ A L 126;3QDJ A K 127;30.4594
3QDJ A L 126;3QDJ A E 128;0.592849
3QDJ A L 126;3QDJ A L 130;25.6252
3QDJ A L 126;3QDJ A R 131;0.0159928
3QDJ A L 126;3QDJ A S 132;11.7476
3QDJ A L 126;3QDJ A W 133;24.6552
3QDJ A L 126;3QDJ A A 153;11.522
3QDJ A L 126;3QDJ A L 156;12.2502
3QDJ A L 126;3QDJ A R 157;1.3322
3QDJ A L 126;3QDJ A L 160;8.87404
3QDJ A K 127;3QDJ A E 128;27.2102
3QDJ A K 127;3QDJ A D 129;12.9527
3QDJ A K 127;3QDJ A L 130;13.5465
3QDJ A K 127;3QDJ A S 132;28.6812
3QDJ A K 127;3QDJ A W 133;14.4793
3QDJ A K 127;3QDJ A T 134;20.1888
3QDJ A E 128;3QDJ A D 129;26.0719
3QDJ A E 128;3QDJ A L 130;14.6761
3QDJ A D 129;3QDJ A L 130;23.3013
3QDJ A D 129;3QDJ A R 131;37.3485
3QDJ A D 129;3QDJ A S 132;15.5767
3QDJ A D 129;3QDJ A R 157;2.21375
3QDJ A D 129;3QDJ A E 161;0.989931
3QDJ A L 130;3QDJ A R 131;19.2845
3QDJ A L 130;3QDJ A S 132;0.944944
3QDJ A L 130;3QDJ A A 153;11.1039
3QDJ A L 130;3QDJ A R 157;28.0245
3QDJ A L 130;3QDJ A L 160;14.7012
3QDJ A L 130;3QDJ A E 161;11.8372
3QDJ A R 131;3QDJ A S 132;29.9585
3QDJ A R 131;3QDJ A W 133;1.12587
3QDJ A R 131;3QDJ A E 148;0.214448
3QDJ A R 131;3QDJ A A 153;15.7959
3QDJ A R 131;3QDJ A R 157;35.4444
3QDJ A R 131;3QDJ A E 161;3.13125
3QDJ A S 132;3QDJ A W 133;32.1019
3QDJ A S 132;3QDJ A E 148;2.40762
3QDJ A S 132;3QDJ A A 153;1.45908
3QDJ A W 133;3QDJ A T 134;21.9268
3QDJ A W 133;3QDJ A A 135;1.71611
3QDJ A W 133;3QDJ A K 144;29.3001
3QDJ A W 133;3QDJ A W 147;28.3212
3QDJ A W 133;3QDJ A E 148;20.0677
3QDJ A W 133;3QDJ A V 152;10.1291
3QDJ A W 133;3QDJ A A 153;17.9937
3QDJ A W 133;3QDJ A L 156;8.86622
3QDJ A T 134;3QDJ A A 135;27.2376
3QDJ A T 134;3QDJ A A 136;12.7171
3QDJ A A 135;3QDJ A A 136;21.6328
3QDJ A A 135;3QDJ A D 137;5.51731
3QDJ A A 135;3QDJ A A 140;10.727
3QDJ A A 135;3QDJ A Q 141;21.2795
3QDJ A A 135;3QDJ A K 144;16.8059
3QDJ A A 136;3QDJ A D 137;31.4014
3QDJ A A 136;3QDJ A A 140;1.86382
3QDJ A A 136;3QDJ A Q 141;0.125936
3QDJ A D 137;3QDJ A M 138;25.5394
3QDJ A D 137;3QDJ A A 139;6.15524
3QDJ A D 137;3QDJ A A 140;16.8227
3QDJ A D 137;3QDJ A Q 141;17.7173
3QDJ A M 138;3QDJ A A 139;25.3885
3QDJ A M 138;3QDJ A A 140;1.27058
3QDJ A M 138;3QDJ A Q 141;27.6076
3QDJ A M 138;3QDJ A T 142;10.9035
3QDJ A A 139;3QDJ A A 140;15.3237
3QDJ A A 139;3QDJ A Q 141;1.10888
3QDJ A A 139;3QDJ A T 142;13.9546
3QDJ A A 139;3QDJ A T 143;5.14495
3QDJ A A 140;3QDJ A Q 141;13.8109
3QDJ A A 140;3QDJ A T 142;0.870426
3QDJ A A 140;3QDJ A T 143;9.48857
3QDJ A A 140;3QDJ A K 144;7.22191
3QDJ A Q 141;3QDJ A T 142;19.7505
3QDJ A Q 141;3QDJ A T 143;0.836233
3QDJ A Q 141;3QDJ A K 144;19.927
3QDJ A Q 141;3QDJ A H 145;24.6378
3QDJ A T 142;3QDJ A T 143;18.121
3QDJ A T 142;3QDJ A K 144;0.903741
3QDJ A T 142;3QDJ A H 145;15.3654
3QDJ A T 142;3QDJ A K 146;21.1795
3QDJ A T 143;3QDJ A K 144;15.844
3QDJ A T 143;3QDJ A H 145;0.895483
3QDJ A T 143;3QDJ A K 146;12.3451
3QDJ A T 143;3QDJ A W 147;25.6067
3QDJ A T 143;3QDJ C V 9;22.937
3QDJ A K 144;3QDJ A H 145;30.3135
3QDJ A K 144;3QDJ A K 146;0.573792
3QDJ A K 144;3QDJ A W 147;6.82941
3QDJ A K 144;3QDJ A E 148;35.1314
3QDJ A H 145;3QDJ A K 146;20.708
3QDJ A H 145;3QDJ A W 147;0.939261
3QDJ A H 145;3QDJ A E 148;19.4222
3QDJ A H 145;3QDJ A A 149;13.8807
3QDJ A K 146;3QDJ A W 147;22.2917
3QDJ A K 146;3QDJ A E 148;0.793119
3QDJ A K 146;3QDJ A A 149;10.9646
3QDJ A K 146;3QDJ A A 150;11.7448
3QDJ A K 146;3QDJ C L 7;8.15619
3QDJ A K 146;3QDJ C T 8;9.5539
3QDJ A K 146;3QDJ C V 9;17.6085
3QDJ A W 147;3QDJ A E 148;20.3619
3QDJ A W 147;3QDJ A A 149;0.556263
3QDJ A W 147;3QDJ A A 150;6.53374
3QDJ A W 147;3QDJ A H 151;4.48979
3QDJ A W 147;3QDJ A V 152;33.3947
3QDJ A W 147;3QDJ A A 153;0.977793
3QDJ A W 147;3QDJ A L 156;0.051748
3QDJ A W 147;3QDJ C L 7;27.0843
3QDJ A W 147;3QDJ C T 8;7.82214
3QDJ A W 147;3QDJ C V 9;12.9457
3QDJ A E 148;3QDJ A A 149;23.8538
3QDJ A E 148;3QDJ A A 150;1.20673
3QDJ A E 148;3QDJ A H 151;16.7962
3QDJ A E 148;3QDJ A A 153;0.449979
3QDJ A A 149;3QDJ A A 150;21.1918
3QDJ A A 149;3QDJ A H 151;15.8508
3QDJ A A 150;3QDJ A H 151;24.1134
3QDJ A A 150;3QDJ A V 152;12.4971
3QDJ A A 150;3QDJ A Q 155;11.8494
3QDJ A A 150;3QDJ C L 7;11.125
3QDJ A H 151;3QDJ A V 152;16.9096
3QDJ A H 151;3QDJ A A 153;3.63404
3QDJ A H 151;3QDJ A E 154;41.5971
3QDJ A H 151;3QDJ A Q 155;14.8369
3QDJ A V 152;3QDJ A A 153;20.0439
3QDJ A V 152;3QDJ A E 154;0.946673
3QDJ A V 152;3QDJ A Q 155;19.1375
3QDJ A V 152;3QDJ A L 156;18.7318
3QDJ A V 152;3QDJ C G 5;12.0358
3QDJ A V 152;3QDJ C I 6;0.170889
3QDJ A V 152;3QDJ C L 7;18.3179
3QDJ A A 153;3QDJ A E 154;23.0637
3QDJ A A 153;3QDJ A Q 155;0.774545
3QDJ A A 153;3QDJ A L 156;8.86424
3QDJ A A 153;3QDJ A R 157;10.0883
3QDJ A E 154;3QDJ A Q 155;19.5683
3QDJ A E 154;3QDJ A L 156;0.541807
3QDJ A E 154;3QDJ A R 157;35.4016
3QDJ A E 154;3QDJ A A 158;10.9963
3QDJ A Q 155;3QDJ A L 156;17.7282
3QDJ A Q 155;3QDJ A R 157;1.091
3QDJ A Q 155;3QDJ A A 158;10.6315
3QDJ A Q 155;3QDJ A Y 159;10.678
3QDJ A Q 155;3QDJ C I 4;9.40789
3QDJ A Q 155;3QDJ C G 5;22.517
3QDJ A Q 155;3QDJ C I 6;0.0714833
3QDJ A Q 155;3QDJ C L 7;0.535601
3QDJ A L 156;3QDJ A R 157;16.8143
3QDJ A L 156;3QDJ A A 158;0.775259
3QDJ A L 156;3QDJ A Y 159;19.9381
3QDJ A L 156;3QDJ A L 160;21.7307
3QDJ A L 156;3QDJ C G 3;1.83667
3QDJ A L 156;3QDJ C G 5;21.5261
3QDJ A L 156;3QDJ C I 6;8.20061
3QDJ A R 157;3QDJ A A 158;21.9191
3QDJ A R 157;3QDJ A Y 159;0.882186
3QDJ A R 157;3QDJ A L 160;6.25678
3QDJ A R 157;3QDJ A E 161;35.4525
3QDJ A R 157;3QDJ A G 162;0.0660812
3QDJ A A 158;3QDJ A Y 159;19.9567
3QDJ A A 158;3QDJ A L 160;0.472085
3QDJ A A 158;3QDJ A E 161;2.44091
3QDJ A A 158;3QDJ A G 162;11.8804
3QDJ A A 158;3QDJ A T 163;6.85252
3QDJ A Y 159;3QDJ A L 160;31.3061
3QDJ A Y 159;3QDJ A E 161;0.912029
3QDJ A Y 159;3QDJ A G 162;3.31828
3QDJ A Y 159;3QDJ A T 163;24.3082
3QDJ A Y 159;3QDJ A C 164;27.2207
3QDJ A Y 159;3QDJ A V 165;0.017768
3QDJ A Y 159;3QDJ C A 1;10.7443
3QDJ A Y 159;3QDJ C A 2;9.09074
3QDJ A Y 159;3QDJ C G 3;15.1983
3QDJ A Y 159;3QDJ C I 4;3.91794
3QDJ A Y 159;3QDJ C G 5;1.50917
3QDJ A L 160;3QDJ A E 161;17.9379
3QDJ A L 160;3QDJ A G 162;1.35004
3QDJ A L 160;3QDJ A C 164;11.684
3QDJ A L 160;3QDJ A V 165;6.42709
3QDJ A E 161;3QDJ A G 162;26.8937
3QDJ A E 161;3QDJ A V 165;14.084
3QDJ A G 162;3QDJ A T 163;17.3023
3QDJ A G 162;3QDJ A C 164;1.54344
3QDJ A G 162;3QDJ A V 165;9.11893
3QDJ A G 162;3QDJ A E 166;22.6706
3QDJ A T 163;3QDJ A C 164;18.0423
3QDJ A T 163;3QDJ A V 165;1.0426
3QDJ A T 163;3QDJ A E 166;11.7641
3QDJ A T 163;3QDJ A W 167;27.2113
3QDJ A T 163;3QDJ C A 1;6.99205
3QDJ A T 163;3QDJ C A 2;0.382251
3QDJ A C 164;3QDJ A V 165;16.8037
3QDJ A C 164;3QDJ A E 166;0.324639
3QDJ A C 164;3QDJ A W 167;3.84602
3QDJ A C 164;3QDJ A L 168;9.58145
3QDJ A C 164;3QDJ C A 1;0.533935
3QDJ A V 165;3QDJ A E 166;19.9126
3QDJ A V 165;3QDJ A W 167;0.907357
3QDJ A V 165;3QDJ A L 168;11.3395
3QDJ A V 165;3QDJ A R 169;30.0296
3QDJ A E 166;3QDJ A W 167;23.464
3QDJ A E 166;3QDJ A L 168;0.757029
3QDJ A E 166;3QDJ A R 169;26.5056
3QDJ A E 166;3QDJ A R 170;10.3818
3QDJ A W 167;3QDJ A L 168;16.0671
3QDJ A W 167;3QDJ A R 169;1.18498
3QDJ A W 167;3QDJ A R 170;28.7155
3QDJ A W 167;3QDJ A Y 171;30.9205
3QDJ A W 167;3QDJ C A 1;23.9162
3QDJ A L 168;3QDJ A R 169;18.7113
3QDJ A L 168;3QDJ A R 170;0.521668
3QDJ A L 168;3QDJ A Y 171;12.1909
3QDJ A L 168;3QDJ A L 172;23.2119
3QDJ A R 169;3QDJ A R 170;18.5523
3QDJ A R 169;3QDJ A Y 171;1.33483
3QDJ A R 169;3QDJ A L 172;11.9603
3QDJ A R 169;3QDJ A E 173;16.7124
3QDJ A R 170;3QDJ A Y 171;24.5322
3QDJ A R 170;3QDJ A L 172;0.454183
3QDJ A R 170;3QDJ A E 173;15.8809
3QDJ A R 170;3QDJ A N 174;33.6903
3QDJ A Y 171;3QDJ A L 172;16.914
3QDJ A Y 171;3QDJ A E 173;1.57283
3QDJ A Y 171;3QDJ A N 174;8.24289
3QDJ A Y 171;3QDJ A G 175;7.86634
3QDJ A Y 171;3QDJ A L 179;10.1445
3QDJ A Y 171;3QDJ C A 1;12.9693
3QDJ A L 172;3QDJ A E 173;16.4202
3QDJ A L 172;3QDJ A N 174;0.120467
3QDJ A L 172;3QDJ A G 175;2.81357
3QDJ A L 172;3QDJ A K 176;8.18384
3QDJ A L 172;3QDJ A L 179;19.6292
3QDJ A L 172;3QDJ A Q 180;17.0871
3QDJ A E 173;3QDJ A N 174;29.9866
3QDJ A E 173;3QDJ A G 175;1.45691
3QDJ A E 173;3QDJ A K 176;21.3988
3QDJ A E 173;3QDJ A E 177;0.149966
3QDJ A E 173;3QDJ A Q 180;2.01126
3QDJ A N 174;3QDJ A G 175;18.8981
3QDJ A N 174;3QDJ A K 176;1.89942
3QDJ A N 174;3QDJ A E 177;6.45299
3QDJ A G 175;3QDJ A K 176;17.0614
3QDJ A G 175;3QDJ A E 177;5.8638
3QDJ A G 175;3QDJ A T 178;9.785
3QDJ A G 175;3QDJ A L 179;16.7117
3QDJ A G 175;3QDJ A Q 180;0.0462032
3QDJ A K 176;3QDJ A E 177;51.4934
3QDJ A K 176;3QDJ A T 178;0.54526
3QDJ A K 176;3QDJ A L 179;2.06154
3QDJ A K 176;3QDJ A Q 180;34.2098
3QDJ A K 176;3QDJ A R 181;1.08685
3QDJ A E 177;3QDJ A T 178;25.1515
3QDJ A E 177;3QDJ A L 179;0.479915
3QDJ A E 177;3QDJ A Q 180;0.167657
3QDJ A E 177;3QDJ A R 181;23.8862
3QDJ A T 178;3QDJ A L 179;28.5948
3QDJ A T 178;3QDJ A Q 180;0.391911
3QDJ A T 178;3QDJ A R 181;35.6493
3QDJ A T 178;3QDJ A Y 209;8.38745
3QDJ A L 179;3QDJ A Q 180;23.7199
3QDJ A L 179;3QDJ A R 181;7.12166
3QDJ A L 179;3QDJ A Y 209;14.8923
3QDJ A Q 180;3QDJ A R 181;25.9824
3QDJ A Q 180;3QDJ A T 182;6.58011
3QDJ A R 181;3QDJ A T 182;40.9218
3QDJ A R 181;3QDJ A D 183;21.2848
3QDJ A R 181;3QDJ A Y 209;13.3823
3QDJ A R 181;3QDJ A P 210;1.28055
3QDJ A T 182;3QDJ A D 183;26.1547
3QDJ A T 182;3QDJ A A 184;3.5647
3QDJ A T 182;3QDJ A Y 209;7.44258
3QDJ A T 182;3QDJ A P 210;8.69582
3QDJ A T 182;3QDJ A H 263;1.43724
3QDJ A T 182;3QDJ A E 264;18.4511
3QDJ A T 182;3QDJ A G 265;20.1404
3QDJ A D 183;3QDJ A A 184;25.4388
3QDJ A D 183;3QDJ A P 185;1.16609
3QDJ A D 183;3QDJ A S 207;10.0049
3QDJ A D 183;3QDJ A F 208;8.44251
3QDJ A D 183;3QDJ A Y 209;26.9304
3QDJ A D 183;3QDJ A T 240;15.5981
3QDJ A D 183;3QDJ A H 263;6.11515
3QDJ A D 183;3QDJ A G 265;1.80574
3QDJ A A 184;3QDJ A P 185;27.9681
3QDJ A A 184;3QDJ A K 186;10.9742
3QDJ A A 184;3QDJ A L 206;1.21828
3QDJ A A 184;3QDJ A S 207;6.23466
3QDJ A A 184;3QDJ A F 208;2.15372
3QDJ A A 184;3QDJ A H 263;0.539836
3QDJ A A 184;3QDJ A G 265;19.2482
3QDJ A A 184;3QDJ A L 266;11.1746
3QDJ A A 184;3QDJ A P 267;1.95008
3QDJ A P 185;3QDJ A K 186;21.9711
3QDJ A P 185;3QDJ A T 187;14.6809
3QDJ A P 185;3QDJ A A 205;6.31658
3QDJ A P 185;3QDJ A L 206;6.41067
3QDJ A P 185;3QDJ A S 207;0.215573
3QDJ A P 185;3QDJ A F 208;15.5461
3QDJ A P 185;3QDJ A I 213;7.08727
3QDJ A P 185;3QDJ A V 261;8.60624
3QDJ A P 185;3QDJ A H 263;14.0563
3QDJ A P 185;3QDJ A G 265;0.722035
3QDJ A P 185;3QDJ A L 266;19.9398
3QDJ A P 185;3QDJ A L 270;5.14488
3QDJ A K 186;3QDJ A T 187;27.4196
3QDJ A K 186;3QDJ A H 188;2.69015
3QDJ A K 186;3QDJ A W 204;1.42448
3QDJ A K 186;3QDJ A A 205;2.57229
3QDJ A K 186;3QDJ A L 206;30.4074
3QDJ A K 186;3QDJ A S 207;25.0666
3QDJ A T 187;3QDJ A H 188;28.763
3QDJ A T 187;3QDJ A C 203;0.585804
3QDJ A T 187;3QDJ A W 204;10.4565
3QDJ A T 187;3QDJ A A 205;6.21081
3QDJ A T 187;3QDJ A V 261;12.7589
3QDJ A T 187;3QDJ A L 270;17.59
3QDJ A T 187;3QDJ A L 272;24.2049
3QDJ A H 188;3QDJ A M 189;32.25
3QDJ A H 188;3QDJ A T 190;14.3126
3QDJ A H 188;3QDJ A R 202;0.418519
3QDJ A H 188;3QDJ A C 203;5.37045
3QDJ A H 188;3QDJ A W 204;42.5628
3QDJ A H 188;3QDJ A L 206;16.7357
3QDJ A H 188;3QDJ A L 272;12.8309
3QDJ A H 188;3QDJ B P 14;6.68649
3QDJ A M 189;3QDJ A T 190;29.2456
3QDJ A M 189;3QDJ A L 201;14.3533
3QDJ A M 189;3QDJ A R 202;11.2328
3QDJ A M 189;3QDJ A C 203;9.0771
3QDJ A M 189;3QDJ A W 204;1.18877
3QDJ A M 189;3QDJ A W 217;14.4834
3QDJ A M 189;3QDJ A Y 257;1.91083
3QDJ A M 189;3QDJ A T 258;0.00579835
3QDJ A M 189;3QDJ A C 259;5.74953
3QDJ A M 189;3QDJ A L 272;19.9699
3QDJ A M 189;3QDJ A R 273;11.5882
3QDJ A M 189;3QDJ A W 274;30.83
3QDJ A T 190;3QDJ A H 191;29.0487
3QDJ A T 190;3QDJ A H 192;6.42536
3QDJ A T 190;3QDJ A T 200;1.51006
3QDJ A T 190;3QDJ A L 201;6.45269
3QDJ A T 190;3QDJ A R 202;21.5567
3QDJ A T 190;3QDJ A W 204;12.4866
3QDJ A T 190;3QDJ A W 274;3.91901
3QDJ A T 190;3QDJ B D 98;1.51891
3QDJ A T 190;3QDJ B M 99;6.94
3QDJ A T 190;3QDJ B M 99;11.0219
3QDJ A H 191;3QDJ A H 192;34.0262
3QDJ A H 191;3QDJ A A 193;14.7205
3QDJ A H 191;3QDJ A A 199;11.9148
3QDJ A H 191;3QDJ A T 200;6.57555
3QDJ A H 191;3QDJ A L 201;14.6356
3QDJ A H 191;3QDJ A S 251;1.48659
3QDJ A H 191;3QDJ A E 254;16.9914
3QDJ A H 191;3QDJ A W 274;37.7237
3QDJ A H 192;3QDJ A A 193;31.925
3QDJ A H 192;3QDJ A V 194;11.7091
3QDJ A H 192;3QDJ A A 199;4.47918
3QDJ A H 192;3QDJ A T 200;25.0975
3QDJ A H 192;3QDJ A R 202;2.52326
3QDJ A H 192;3QDJ B D 98;27.3185
3QDJ A H 192;3QDJ B M 99;5.22433
3QDJ A A 193;3QDJ A V 194;28.1325
3QDJ A A 193;3QDJ A S 195;9.08685
3QDJ A A 193;3QDJ A E 198;4.49962
3QDJ A A 193;3QDJ A A 199;8.71735
3QDJ A A 193;3QDJ A S 251;3.46681
3QDJ A V 194;3QDJ A S 195;37.6671
3QDJ A V 194;3QDJ A E 198;14.1281
3QDJ A V 194;3QDJ A A 199;8.3795
3QDJ A V 194;3QDJ A T 200;17.9555
3QDJ A V 194;3QDJ A V 248;6.30988
3QDJ A S 195;3QDJ A D 196;33.9904
3QDJ A S 195;3QDJ A H 197;20.2913
3QDJ A S 195;3QDJ A E 198;23.839
3QDJ A S 195;3QDJ A S 251;0.493046
3QDJ A D 196;3QDJ A H 197;43.5649
3QDJ A D 196;3QDJ A E 198;0.0055806
3QDJ A D 196;3QDJ A S 251;5.40393
3QDJ A H 197;3QDJ A E 198;39.1887
3QDJ A H 197;3QDJ A P 250;7.14257
3QDJ A H 197;3QDJ A S 251;18.5454
3QDJ A E 198;3QDJ A A 199;20.5127
3QDJ A E 198;3QDJ A V 248;19.7363
3QDJ A E 198;3QDJ A V 249;6.34602
3QDJ A E 198;3QDJ A P 250;14.3579
3QDJ A E 198;3QDJ A S 251;10.2261
3QDJ A A 199;3QDJ A T 200;22.9776
3QDJ A A 199;3QDJ A L 201;3.29107
3QDJ A A 199;3QDJ A V 247;1.42228
3QDJ A A 199;3QDJ A V 248;8.11919
3QDJ A A 199;3QDJ A V 249;25.3512
3QDJ A A 199;3QDJ A S 251;9.07062
3QDJ A A 199;3QDJ A E 254;7.82066
3QDJ A T 200;3QDJ A L 201;24.496
3QDJ A T 200;3QDJ A R 202;22.8073
3QDJ A T 200;3QDJ A A 246;11.3241
3QDJ A T 200;3QDJ A V 247;10.152
3QDJ A T 200;3QDJ A V 248;10.5438
3QDJ A L 201;3QDJ A R 202;18.4827
3QDJ A L 201;3QDJ A W 217;16.6887
3QDJ A L 201;3QDJ A A 245;0.213417
3QDJ A L 201;3QDJ A A 246;5.80998
3QDJ A L 201;3QDJ A V 247;17.9443
3QDJ A L 201;3QDJ A V 249;16.5938
3QDJ A L 201;3QDJ A E 254;22.7608
3QDJ A L 201;3QDJ A Y 257;8.70379
3QDJ A L 201;3QDJ A W 274;14.3478
3QDJ A R 202;3QDJ A C 203;18.6526
3QDJ A R 202;3QDJ A W 204;17.9801
3QDJ A R 202;3QDJ A W 217;1.6573
3QDJ A R 202;3QDJ A E 229;5.63121
3QDJ A R 202;3QDJ A W 244;36.4587
3QDJ A R 202;3QDJ A A 245;5.59619
3QDJ A R 202;3QDJ A A 246;14.3629
3QDJ A R 202;3QDJ B M 99;18.3079
3QDJ A R 202;3QDJ B M 99;13.3764
3QDJ A C 203;3QDJ A W 204;25.3655
3QDJ A C 203;3QDJ A A 205;0.19608
3QDJ A C 203;3QDJ A L 215;9.55487
3QDJ A C 203;3QDJ A W 217;11.5961
3QDJ A C 203;3QDJ A K 243;0.104051
3QDJ A C 203;3QDJ A W 244;7.14481
3QDJ A C 203;3QDJ A A 245;16.8201
3QDJ A C 203;3QDJ A C 259;20.722
3QDJ A C 203;3QDJ A V 261;6.01502
3QDJ A C 203;3QDJ A L 272;9.67176
3QDJ A W 204;3QDJ A A 205;22.7435
3QDJ A W 204;3QDJ A L 206;23.2415
3QDJ A W 204;3QDJ A L 215;0.720704
3QDJ A W 204;3QDJ A R 234;13.9278
3QDJ A W 204;3QDJ A Q 242;1.61636
3QDJ A W 204;3QDJ A K 243;7.73306
3QDJ A W 204;3QDJ A W 244;22.4554
3QDJ A W 204;3QDJ A V 261;1.11044
3QDJ A W 204;3QDJ A L 272;0.0239578
3QDJ A W 204;3QDJ B R 97;3.13417
3QDJ A W 204;3QDJ B M 99;0.236659
3QDJ A W 204;3QDJ B M 99;29.5633
3QDJ A A 205;3QDJ A L 206;23.1241
3QDJ A A 205;3QDJ A F 208;10.5639
3QDJ A A 205;3QDJ A I 213;7.09087
3QDJ A A 205;3QDJ A L 215;13.5298
3QDJ A A 205;3QDJ A Q 242;3.42065
3QDJ A A 205;3QDJ A K 243;19.8758
3QDJ A A 205;3QDJ A V 261;5.60517
3QDJ A L 206;3QDJ A S 207;31.099
3QDJ A L 206;3QDJ A F 208;8.15906
3QDJ A L 206;3QDJ A R 234;0.655066
3QDJ A L 206;3QDJ A F 241;1.33946
3QDJ A L 206;3QDJ A Q 242;26.5111
3QDJ A L 206;3QDJ A K 243;0.261505
3QDJ A L 206;3QDJ B R 12;0.47817
3QDJ A L 206;3QDJ B P 14;22.4657
3QDJ A S 207;3QDJ A F 208;15.9045
3QDJ A S 207;3QDJ A A 236;1.79849
3QDJ A S 207;3QDJ A D 238;3.25659
3QDJ A S 207;3QDJ A T 240;24.526
3QDJ A S 207;3QDJ A F 241;8.31011
3QDJ A S 207;3QDJ A Q 242;3.47839
3QDJ A F 208;3QDJ A Y 209;17.9795
3QDJ A F 208;3QDJ A P 210;6.43439
3QDJ A F 208;3QDJ A A 211;9.47574
3QDJ A F 208;3QDJ A E 212;0.125072
3QDJ A F 208;3QDJ A I 213;21.5006
3QDJ A F 208;3QDJ A T 233;7.70888
3QDJ A F 208;3QDJ A T 240;7.51606
3QDJ A F 208;3QDJ A F 241;30.2608
3QDJ A F 208;3QDJ A Q 242;7.5368
3QDJ A F 208;3QDJ A K 243;7.97794
3QDJ A F 208;3QDJ A H 263;11.779
3QDJ A Y 209;3QDJ A P 210;40.2952
3QDJ A Y 209;3QDJ A G 239;15.3286
3QDJ A Y 209;3QDJ A T 240;6.80553
3QDJ A Y 209;3QDJ A F 241;9.73438
3QDJ A Y 209;3QDJ A H 263;7.41151
3QDJ A P 210;3QDJ A A 211;17.3778
3QDJ A P 210;3QDJ A E 212;19.8022
3QDJ A P 210;3QDJ A F 241;1.9642
3QDJ A P 210;3QDJ A H 263;14.4615
3QDJ A P 210;3QDJ A E 264;23.9353
3QDJ A A 211;3QDJ A E 212;23.9052
3QDJ A A 211;3QDJ A I 213;8.30963
3QDJ A A 211;3QDJ A T 233;18.4766
3QDJ A A 211;3QDJ A F 241;24.5591
3QDJ A E 212;3QDJ A I 213;35.4933
3QDJ A E 212;3QDJ A T 214;9.46289
3QDJ A E 212;3QDJ A H 263;13.2206
3QDJ A E 212;3QDJ A E 264;2.78077
3QDJ A I 213;3QDJ A T 214;28.5982
3QDJ A I 213;3QDJ A L 215;11.9783
3QDJ A I 213;3QDJ A T 233;7.56956
3QDJ A I 213;3QDJ A K 243;19.2166
3QDJ A I 213;3QDJ A V 261;7.87595
3QDJ A I 213;3QDJ A Q 262;9.47069
3QDJ A I 213;3QDJ A H 263;14.1195
3QDJ A T 214;3QDJ A L 215;29.5907
3QDJ A T 214;3QDJ A T 216;17.702
3QDJ A T 214;3QDJ A K 243;0.0935503
3QDJ A T 214;3QDJ A H 260;4.16938
3QDJ A T 214;3QDJ A V 261;3.43055
3QDJ A T 214;3QDJ A Q 262;40.3745
3QDJ A L 215;3QDJ A T 216;28.0431
3QDJ A L 215;3QDJ A T 228;0.862888
3QDJ A L 215;3QDJ A L 230;20.2219
3QDJ A L 215;3QDJ A K 243;24.7332
3QDJ A L 215;3QDJ A W 244;6.93865
3QDJ A L 215;3QDJ A A 245;15.9368
3QDJ A L 215;3QDJ A C 259;6.26871
3QDJ A L 215;3QDJ A H 260;5.85231
3QDJ A L 215;3QDJ A V 261;14.6907
3QDJ A T 216;3QDJ A W 217;31.5727
3QDJ A T 216;3QDJ A Q 218;4.25068
3QDJ A T 216;3QDJ A D 223;18.3117
3QDJ A T 216;3QDJ A T 228;1.79679
3QDJ A T 216;3QDJ A A 245;2.62731
3QDJ A T 216;3QDJ A T 258;0.763046
3QDJ A T 216;3QDJ A C 259;7.80201
3QDJ A T 216;3QDJ A H 260;31.3948
3QDJ A T 216;3QDJ A Q 262;4.73555
3QDJ A W 217;3QDJ A Q 218;23.2059
3QDJ A W 217;3QDJ A D 223;6.42899
3QDJ A W 217;3QDJ A Q 224;21.7585
3QDJ A W 217;3QDJ A T 228;15.3023
3QDJ A W 217;3QDJ A A 245;18.5069
3QDJ A W 217;3QDJ A A 246;7.47853
3QDJ A W 217;3QDJ A V 247;25.9292
3QDJ A W 217;3QDJ A Y 257;19.2496
3QDJ A W 217;3QDJ A T 258;11.874
3QDJ A W 217;3QDJ A C 259;17.6861
3QDJ A W 217;3QDJ A H 260;0.0152501
3QDJ A Q 218;3QDJ A R 219;17.1176
3QDJ A Q 218;3QDJ A D 220;0.884326
3QDJ A Q 218;3QDJ A G 221;24.6858
3QDJ A Q 218;3QDJ A E 222;11.6156
3QDJ A Q 218;3QDJ A D 223;21.6911
3QDJ A Q 218;3QDJ A Q 224;4.53752
3QDJ A Q 218;3QDJ A R 256;1.29567
3QDJ A Q 218;3QDJ A Y 257;7.81086
3QDJ A Q 218;3QDJ A T 258;24.5804
3QDJ A Q 218;3QDJ A H 260;30.9527
3QDJ A R 219;3QDJ A D 220;26.929
3QDJ A R 219;3QDJ A G 221;1.96077
3QDJ A R 219;3QDJ A E 222;21.4958
3QDJ A R 219;3QDJ A Q 224;30.5088
3QDJ A R 219;3QDJ A P 250;4.98116
3QDJ A R 219;3QDJ A Q 253;2.18634
3QDJ A R 219;3QDJ A R 256;46.7867
3QDJ A R 219;3QDJ A Y 257;32.8674
3QDJ A D 220;3QDJ A G 221;28.5404
3QDJ A D 220;3QDJ A E 222;6.9517
3QDJ A D 220;3QDJ A R 256;46.6127
3QDJ A D 220;3QDJ A T 258;0.180543
3QDJ A G 221;3QDJ A E 222;25.7509
3QDJ A G 221;3QDJ A T 258;3.85968
3QDJ A E 222;3QDJ A D 223;32.141
3QDJ A E 222;3QDJ A Q 224;4.99989
3QDJ A D 223;3QDJ A Q 224;20.0131
3QDJ A D 223;3QDJ A T 225;18.6779
3QDJ A Q 224;3QDJ A T 225;22.5017
3QDJ A Q 224;3QDJ A Q 226;17.1533
3QDJ A Q 224;3QDJ A D 227;9.962
3QDJ A Q 224;3QDJ A T 228;16.1502
3QDJ A Q 224;3QDJ A V 247;9.27504
3QDJ A Q 224;3QDJ A Y 257;16.7568
3QDJ A T 225;3QDJ A Q 226;37.7268
3QDJ A T 225;3QDJ A T 228;6.84888
3QDJ A Q 226;3QDJ A D 227;39.381
3QDJ A Q 226;3QDJ A T 228;11.8731
3QDJ A D 227;3QDJ A T 228;18.9212
3QDJ A D 227;3QDJ A E 229;6.15773
3QDJ A D 227;3QDJ A A 246;2.57491
3QDJ A D 227;3QDJ A V 247;14.4063
3QDJ A D 227;3QDJ A V 248;42.9063
3QDJ A T 228;3QDJ A E 229;26.2961
3QDJ A T 228;3QDJ A L 230;19.9116
3QDJ A T 228;3QDJ A A 245;5.96841
3QDJ A T 228;3QDJ A A 246;6.14697
3QDJ A T 228;3QDJ A V 247;10.2116
3QDJ A E 229;3QDJ A L 230;27.6055
3QDJ A E 229;3QDJ A V 231;10.492
3QDJ A E 229;3QDJ A W 244;25.6052
3QDJ A E 229;3QDJ A A 245;4.77234
3QDJ A E 229;3QDJ A A 246;22.5587
3QDJ A L 230;3QDJ A V 231;30.4173
3QDJ A L 230;3QDJ A E 232;1.4184
3QDJ A L 230;3QDJ A K 243;20.8502
3QDJ A L 230;3QDJ A W 244;7.58058
3QDJ A L 230;3QDJ A A 245;11.5005
3QDJ A V 231;3QDJ A E 232;31.9681
3QDJ A V 231;3QDJ A T 233;0.29478
3QDJ A V 231;3QDJ A R 234;3.58134
3QDJ A V 231;3QDJ A K 243;20.0023
3QDJ A V 231;3QDJ A W 244;46.0323
3QDJ A V 231;3QDJ B Q 8;20.9686
3QDJ A E 232;3QDJ A T 233;32.5233
3QDJ A E 232;3QDJ A R 234;6.62538
3QDJ A E 232;3QDJ A Q 242;0.470769
3QDJ A E 232;3QDJ A K 243;6.18833
3QDJ A E 232;3QDJ B K 6;27.067
3QDJ A E 232;3QDJ B Q 8;18.3432
3QDJ A E 232;3QDJ B Y 26;15.2104
3QDJ A E 232;3QDJ B S 28;17.0372
3QDJ A E 232;3QDJ B G 29;0.789847
3QDJ A E 232;3QDJ B S 57;0.167663
3QDJ A T 233;3QDJ A R 234;21.0773
3QDJ A T 233;3QDJ A P 235;1.57551
3QDJ A T 233;3QDJ A F 241;12.0734
3QDJ A T 233;3QDJ A Q 242;7.71206
3QDJ A T 233;3QDJ A K 243;25.4472
3QDJ A T 233;3QDJ B Q 8;0.0209017
3QDJ A T 233;3QDJ B Y 26;10.7346
3QDJ A R 234;3QDJ A P 235;23.661
3QDJ A R 234;3QDJ A A 236;0.597163
3QDJ A R 234;3QDJ A F 241;9.0913
3QDJ A R 234;3QDJ A Q 242;42.1682
3QDJ A R 234;3QDJ A K 243;3.46547
3QDJ A R 234;3QDJ A W 244;9.80198
3QDJ A R 234;3QDJ B Q 8;26.9839
3QDJ A R 234;3QDJ B V 9;0.92519
3QDJ A R 234;3QDJ B Y 10;36.7707
3QDJ A R 234;3QDJ B S 11;1.31564
3QDJ A R 234;3QDJ B Y 26;9.96523
3QDJ A R 234;3QDJ B M 99;16.7366
3QDJ A P 235;3QDJ A A 236;17.6361
3QDJ A P 235;3QDJ A G 237;7.28093
3QDJ A P 235;3QDJ A T 240;5.44168
3QDJ A P 235;3QDJ A F 241;21.327
3QDJ A P 235;3QDJ A Q 242;0.969678
3QDJ A P 235;3QDJ B Y 10;15.6527
3QDJ A P 235;3QDJ B N 24;2.99479
3QDJ A P 235;3QDJ B Y 26;22.6485
3QDJ A P 235;3QDJ B Y 63;2.16897
3QDJ A P 235;3QDJ B L 65;22.6646
3QDJ A A 236;3QDJ A G 237;19.7089
3QDJ A A 236;3QDJ A D 238;11.2969
3QDJ A A 236;3QDJ A T 240;16.3608
3QDJ A A 236;3QDJ A F 241;3.59858
3QDJ A A 236;3QDJ A Q 242;16.3605
3QDJ A A 236;3QDJ B Y 10;2.09949
3QDJ A A 236;3QDJ B R 12;27.0565
3QDJ A A 236;3QDJ B F 22;0.0253724
3QDJ A A 236;3QDJ B N 24;12.9838
3QDJ A A 236;3QDJ B L 65;0.963061
3QDJ A G 237;3QDJ A D 238;22.4405
3QDJ A G 237;3QDJ A G 239;8.14955
3QDJ A G 237;3QDJ A T 240;1.71796
3QDJ A G 237;3QDJ B R 12;18.6241
3QDJ A G 237;3QDJ B N 24;1.14557
3QDJ A G 237;3QDJ B L 65;16.6744
3QDJ A G 237;3QDJ B Y 67;2.59833
3QDJ A D 238;3QDJ A G 239;25.2749
3QDJ A D 238;3QDJ A T 240;28.5449
3QDJ A D 238;3QDJ B R 12;25.6039
3QDJ A D 238;3QDJ B H 13;10.8074
3QDJ A G 239;3QDJ A T 240;26.3468
3QDJ A G 239;3QDJ A F 241;8.42746
3QDJ A T 240;3QDJ A F 241;26.8486
3QDJ A F 241;3QDJ A Q 242;19.7914
3QDJ A Q 242;3QDJ A K 243;21.6815
3QDJ A Q 242;3QDJ B Y 10;10.2465
3QDJ A Q 242;3QDJ B S 11;9.18088
3QDJ A Q 242;3QDJ B R 12;13.258
3QDJ A Q 242;3QDJ B N 24;0.00427222
3QDJ A K 243;3QDJ A W 244;26.6381
3QDJ A W 244;3QDJ A A 245;21.205
3QDJ A W 244;3QDJ A A 246;10.1371
3QDJ A W 244;3QDJ B Q 8;1.84724
3QDJ A W 244;3QDJ B M 99;16.3875
3QDJ A A 245;3QDJ A A 246;15.5326
3QDJ A A 245;3QDJ A C 259;2.35854
3QDJ A A 246;3QDJ A V 247;21.2973
3QDJ A V 247;3QDJ A V 248;24.3497
3QDJ A V 247;3QDJ A V 249;13.7153
3QDJ A V 247;3QDJ A Y 257;14.7465
3QDJ A V 248;3QDJ A V 249;23.7934
3QDJ A V 248;3QDJ A P 250;3.72679
3QDJ A V 248;3QDJ A Y 257;8.40684
3QDJ A V 249;3QDJ A P 250;31.4396
3QDJ A V 249;3QDJ A S 251;1.62097
3QDJ A V 249;3QDJ A Q 253;4.94461
3QDJ A V 249;3QDJ A E 254;13.1968
3QDJ A V 249;3QDJ A Y 257;21.1787
3QDJ A P 250;3QDJ A S 251;21.5007
3QDJ A P 250;3QDJ A G 252;0.126538
3QDJ A P 250;3QDJ A Q 253;35.3071
3QDJ A P 250;3QDJ A E 254;1.23652
3QDJ A P 250;3QDJ A Y 257;12.2063
3QDJ A S 251;3QDJ A G 252;25.8252
3QDJ A S 251;3QDJ A Q 253;8.95018
3QDJ A S 251;3QDJ A E 254;13.1291
3QDJ A G 252;3QDJ A Q 253;25.9018
3QDJ A G 252;3QDJ A E 254;17.0147
3QDJ A G 252;3QDJ A Q 255;8.76812
3QDJ A Q 253;3QDJ A E 254;18.7332
3QDJ A Q 253;3QDJ A Q 255;3.70845
3QDJ A Q 253;3QDJ A R 256;41.7649
3QDJ A Q 253;3QDJ A Y 257;10.5412
3QDJ A E 254;3QDJ A Q 255;27.9032
3QDJ A E 254;3QDJ A R 256;1.70867
3QDJ A E 254;3QDJ A Y 257;14.3041
3QDJ A E 254;3QDJ A R 273;0.385324
3QDJ A E 254;3QDJ A W 274;26.6974
3QDJ A Q 255;3QDJ A R 256;26.8309
3QDJ A Q 255;3QDJ A Y 257;3.95577
3QDJ A Q 255;3QDJ A T 258;0.594221
3QDJ A Q 255;3QDJ A R 273;35.8518
3QDJ A Q 255;3QDJ A W 274;3.83537
3QDJ A Q 255;3QDJ A E 275;35.4466
3QDJ A R 256;3QDJ A Y 257;26.0957
3QDJ A R 256;3QDJ A T 258;5.74718
3QDJ A Y 257;3QDJ A T 258;18.2572
3QDJ A Y 257;3QDJ A L 272;0.43388
3QDJ A Y 257;3QDJ A R 273;11.8207
3QDJ A Y 257;3QDJ A W 274;1.43422
3QDJ A T 258;3QDJ A C 259;16.9662
3QDJ A T 258;3QDJ A H 260;17.9393
3QDJ A T 258;3QDJ A T 271;16.7651
3QDJ A T 258;3QDJ A L 272;6.16428
3QDJ A T 258;3QDJ A R 273;19.5572
3QDJ A C 259;3QDJ A H 260;25.5882
3QDJ A C 259;3QDJ A V 261;6.31891
3QDJ A C 259;3QDJ A L 270;1.98524
3QDJ A C 259;3QDJ A T 271;6.2626
3QDJ A C 259;3QDJ A L 272;22.1784
3QDJ A H 260;3QDJ A V 261;21.9705
3QDJ A H 260;3QDJ A Q 262;5.67089
3QDJ A H 260;3QDJ A P 269;4.60013
3QDJ A H 260;3QDJ A L 270;8.2273
3QDJ A H 260;3QDJ A T 271;19.7775
3QDJ A V 261;3QDJ A Q 262;24.062
3QDJ A V 261;3QDJ A H 263;1.75753
3QDJ A V 261;3QDJ A L 266;12.6041
3QDJ A V 261;3QDJ A P 269;7.52041
3QDJ A V 261;3QDJ A L 270;23.8649
3QDJ A V 261;3QDJ A L 272;8.56328
3QDJ A Q 262;3QDJ A H 263;26.9298
3QDJ A Q 262;3QDJ A L 266;2.29699
3QDJ A Q 262;3QDJ A P 269;20.7197
3QDJ A H 263;3QDJ A E 264;30.5508
3QDJ A H 263;3QDJ A G 265;13.3804
3QDJ A H 263;3QDJ A L 266;26.7337
3QDJ A E 264;3QDJ A G 265;20.8221
3QDJ A E 264;3QDJ A L 266;11.3451
3QDJ A G 265;3QDJ A L 266;20.764
3QDJ A G 265;3QDJ A P 267;4.24589
3QDJ A L 266;3QDJ A P 267;40.9421
3QDJ A L 266;3QDJ A K 268;14.2305
3QDJ A L 266;3QDJ A P 269;4.06262
3QDJ A L 266;3QDJ A L 270;23.8477
3QDJ A P 267;3QDJ A K 268;43.6191
3QDJ A P 267;3QDJ A P 269;1.49158
3QDJ A P 267;3QDJ A L 270;2.16625
3QDJ A K 268;3QDJ A P 269;43.7037
3QDJ A K 268;3QDJ A L 270;8.28444
3QDJ A P 269;3QDJ A L 270;28.0888
3QDJ A P 269;3QDJ A T 271;6.90587
3QDJ A L 270;3QDJ A T 271;29.3085
3QDJ A L 270;3QDJ A L 272;13.6773
3QDJ A T 271;3QDJ A L 272;33.7227
3QDJ A T 271;3QDJ A R 273;2.5375
3QDJ A L 272;3QDJ A R 273;27.9984
3QDJ A R 273;3QDJ A W 274;22.5229
3QDJ A R 273;3QDJ A E 275;28.9732
3QDJ A W 274;3QDJ A E 275;43.688
3QDJ B M 0;3QDJ B I 1;39.7776
3QDJ B M 0;3QDJ B Q 2;21.7432
3QDJ B M 0;3QDJ B H 31;0.647582
3QDJ B M 0;3QDJ B P 32;5.96006
3QDJ B I 1;3QDJ B Q 2;32.3767
3QDJ B I 1;3QDJ B R 3;35.5467
3QDJ B I 1;3QDJ B H 31;14.3356
3QDJ B I 1;3QDJ B P 32;2.12587
3QDJ B Q 2;3QDJ B R 3;24.8233
3QDJ B Q 2;3QDJ B T 4;0.518369
3QDJ B Q 2;3QDJ B H 31;7.15481
3QDJ B Q 2;3QDJ B P 32;14.4779
3QDJ B Q 2;3QDJ B V 85;19.7706
3QDJ B Q 2;3QDJ B T 86;21.6056
3QDJ B R 3;3QDJ B T 4;24.4821
3QDJ B R 3;3QDJ B P 5;1.30505
3QDJ B R 3;3QDJ B G 29;13.5323
3QDJ B R 3;3QDJ B F 30;8.04429
3QDJ B R 3;3QDJ B H 31;26.6304
3QDJ B R 3;3QDJ B D 59;25.5831
3QDJ B R 3;3QDJ B W 60;0.850751
3QDJ B R 3;3QDJ B S 61;15.563
3QDJ B R 3;3QDJ B H 84;4.66467
3QDJ B R 3;3QDJ B T 86;5.8768
3QDJ B T 4;3QDJ B P 5;34.5137
3QDJ B T 4;3QDJ B K 6;5.59185
3QDJ B T 4;3QDJ B S 28;0.416408
3QDJ B T 4;3QDJ B G 29;9.15008
3QDJ B T 4;3QDJ B F 30;0.826015
3QDJ B T 4;3QDJ B H 84;0.069457
3QDJ B T 4;3QDJ B T 86;23.1804
3QDJ B T 4;3QDJ B L 87;13.1047
3QDJ B T 4;3QDJ B K 91;8.55811
3QDJ B P 5;3QDJ B K 6;23.8592
3QDJ B P 5;3QDJ B I 7;16.1315
3QDJ B P 5;3QDJ B V 27;6.23549
3QDJ B P 5;3QDJ B S 28;6.32785
3QDJ B P 5;3QDJ B G 29;1.10328
3QDJ B P 5;3QDJ B F 30;15.8354
3QDJ B P 5;3QDJ B I 35;8.32332
3QDJ B P 5;3QDJ B V 82;9.09526
3QDJ B P 5;3QDJ B H 84;14.0986
3QDJ B P 5;3QDJ B T 86;2.83978
3QDJ B P 5;3QDJ B L 87;8.68332
3QDJ B P 5;3QDJ B K 91;5.51834
3QDJ B K 6;3QDJ B I 7;28.598
3QDJ B K 6;3QDJ B Q 8;1.74636
3QDJ B K 6;3QDJ B Y 26;2.43834
3QDJ B K 6;3QDJ B V 27;6.30534
3QDJ B K 6;3QDJ B S 28;29.3545
3QDJ B K 6;3QDJ B G 29;12.2196
3QDJ B I 7;3QDJ B Q 8;32.7134
3QDJ B I 7;3QDJ B V 9;3.85265
3QDJ B I 7;3QDJ B C 25;7.76504
3QDJ B I 7;3QDJ B Y 26;5.81956
3QDJ B I 7;3QDJ B V 27;8.6434
3QDJ B I 7;3QDJ B C 80;6.17779
3QDJ B I 7;3QDJ B V 82;20.4312
3QDJ B I 7;3QDJ B L 87;1.08688
3QDJ B I 7;3QDJ B K 91;20.6378
3QDJ B I 7;3QDJ B V 93;29.2219
3QDJ B Q 8;3QDJ B V 9;24.5147
3QDJ B Q 8;3QDJ B Y 10;13.4703
3QDJ B Q 8;3QDJ B N 24;0.328743
3QDJ B Q 8;3QDJ B C 25;6.35661
3QDJ B Q 8;3QDJ B Y 26;29.8061
3QDJ B Q 8;3QDJ B V 93;1.97856
3QDJ B Q 8;3QDJ B M 99;0.550176
3QDJ B V 9;3QDJ B Y 10;22.7107
3QDJ B V 9;3QDJ B L 23;9.2543
3QDJ B V 9;3QDJ B N 24;8.75217
3QDJ B V 9;3QDJ B C 25;5.20521
3QDJ B V 9;3QDJ B L 39;3.27192
3QDJ B V 9;3QDJ B Y 78;0.00771341
3QDJ B V 9;3QDJ B A 79;7.50111
3QDJ B V 9;3QDJ B C 80;13.5438
3QDJ B V 9;3QDJ B V 93;19.2005
3QDJ B V 9;3QDJ B K 94;7.25751
3QDJ B V 9;3QDJ B W 95;20.7382
3QDJ B V 9;3QDJ B D 96;3.73905
3QDJ B V 9;3QDJ B M 99;9.75103
3QDJ B Y 10;3QDJ B S 11;29.3162
3QDJ B Y 10;3QDJ B R 12;0.0347173
3QDJ B Y 10;3QDJ B L 23;8.32634
3QDJ B Y 10;3QDJ B N 24;36.9488
3QDJ B Y 10;3QDJ B C 25;0.36178
3QDJ B Y 10;3QDJ B Y 26;14.0214
3QDJ B Y 10;3QDJ B L 65;5.79515
3QDJ B Y 10;3QDJ B W 95;10.706
3QDJ B Y 10;3QDJ B M 99;9.08928
3QDJ B S 11;3QDJ B R 12;17.7876
3QDJ B S 11;3QDJ B H 13;12.6381
3QDJ B S 11;3QDJ B P 14;3.22448
3QDJ B S 11;3QDJ B A 15;9.12263
3QDJ B S 11;3QDJ B N 21;7.76186
3QDJ B S 11;3QDJ B F 22;5.83478
3QDJ B S 11;3QDJ B L 23;3.35668
3QDJ B S 11;3QDJ B N 24;2.48034
3QDJ B S 11;3QDJ B F 70;9.25917
3QDJ B S 11;3QDJ B W 95;15.4082
3QDJ B S 11;3QDJ B M 99;0.975154
3QDJ B R 12;3QDJ B H 13;46.0169
3QDJ B R 12;3QDJ B P 14;2.08953
3QDJ B R 12;3QDJ B N 21;5.46818
3QDJ B R 12;3QDJ B F 22;52.0538
3QDJ B R 12;3QDJ B N 24;9.26462
3QDJ B R 12;3QDJ B Y 67;11.7365
3QDJ B H 13;3QDJ B P 14;38.3303
3QDJ B H 13;3QDJ B A 15;1.95135
3QDJ B H 13;3QDJ B S 20;5.05127
3QDJ B H 13;3QDJ B N 21;28.0028
3QDJ B H 13;3QDJ B F 22;4.16047
3QDJ B P 14;3QDJ B A 15;27.0782
3QDJ B P 14;3QDJ B E 16;12.7129
3QDJ B P 14;3QDJ B N 21;4.02419
3QDJ B A 15;3QDJ B E 16;27.5177
3QDJ B A 15;3QDJ B N 21;7.33535
3QDJ B A 15;3QDJ B F 70;0.836076
3QDJ B A 15;3QDJ B P 72;7.24509
3QDJ B A 15;3QDJ B W 95;12.311
3QDJ B A 15;3QDJ B R 97;24.8966
3QDJ B E 16;3QDJ B N 17;25.7798
3QDJ B E 16;3QDJ B G 18;1.1406
3QDJ B E 16;3QDJ B K 19;49.5737
3QDJ B E 16;3QDJ B N 21;1.65603
3QDJ B E 16;3QDJ B P 72;12.2906
3QDJ B E 16;3QDJ B R 97;3.83567
3QDJ B N 17;3QDJ B G 18;23.1098
3QDJ B N 17;3QDJ B K 19;9.66376
3QDJ B N 17;3QDJ B P 72;9.57779
3QDJ B N 17;3QDJ B T 73;12.2099
3QDJ B N 17;3QDJ B E 74;27.728
3QDJ B N 17;3QDJ B R 97;18.4667
3QDJ B G 18;3QDJ B K 19;25.027
3QDJ B G 18;3QDJ B S 20;1.87633
3QDJ B G 18;3QDJ B T 71;18.4658
3QDJ B G 18;3QDJ B P 72;7.62037
3QDJ B G 18;3QDJ B T 73;5.25742
3QDJ B K 19;3QDJ B S 20;29.7512
3QDJ B K 19;3QDJ B N 21;4.23199
3QDJ B K 19;3QDJ B F 70;0.0706928
3QDJ B K 19;3QDJ B T 71;7.93276
3QDJ B K 19;3QDJ B P 72;9.29294
3QDJ B S 20;3QDJ B N 21;30.6213
3QDJ B S 20;3QDJ B F 22;0.441132
3QDJ B S 20;3QDJ B E 69;12.4442
3QDJ B S 20;3QDJ B F 70;5.61167
3QDJ B S 20;3QDJ B T 71;16.0861
3QDJ B N 21;3QDJ B F 22;32.2605
3QDJ B N 21;3QDJ B E 69;7.57347
3QDJ B N 21;3QDJ B F 70;26.1922
3QDJ B N 21;3QDJ B P 72;10.3667
3QDJ B F 22;3QDJ B L 23;16.9349
3QDJ B F 22;3QDJ B N 24;8.46356
3QDJ B F 22;3QDJ B E 50;0.826181
3QDJ B F 22;3QDJ B Y 67;18.0959
3QDJ B F 22;3QDJ B T 68;11.4848
3QDJ B F 22;3QDJ B E 69;33.8271
3QDJ B F 22;3QDJ B F 70;8.27443
3QDJ B L 23;3QDJ B N 24;25.1319
3QDJ B L 23;3QDJ B L 39;21.4302
3QDJ B L 23;3QDJ B L 40;2.43884
3QDJ B L 23;3QDJ B I 46;6.87414
3QDJ B L 23;3QDJ B Y 66;0.0820129
3QDJ B L 23;3QDJ B Y 67;6.90627
3QDJ B L 23;3QDJ B T 68;20.8223
3QDJ B L 23;3QDJ B F 70;27.4424
3QDJ B L 23;3QDJ B Y 78;19.0072
3QDJ B L 23;3QDJ B A 79;4.26056
3QDJ B L 23;3QDJ B W 95;13.7592
3QDJ B N 24;3QDJ B C 25;18.7581
3QDJ B N 24;3QDJ B Y 26;0.211691
3QDJ B N 24;3QDJ B L 39;3.31194
3QDJ B N 24;3QDJ B L 65;15.5909
3QDJ B N 24;3QDJ B Y 66;4.40815
3QDJ B N 24;3QDJ B Y 67;10.4187
3QDJ B C 25;3QDJ B Y 26;20.0584
3QDJ B C 25;3QDJ B V 27;10.2069
3QDJ B C 25;3QDJ B V 37;8.21246
3QDJ B C 25;3QDJ B L 39;11.2166
3QDJ B C 25;3QDJ B L 64;1.61735
3QDJ B C 25;3QDJ B L 65;6.93374
3QDJ B C 25;3QDJ B Y 66;23.4049
3QDJ B C 25;3QDJ B C 80;17.1343
3QDJ B C 25;3QDJ B V 82;2.23756
3QDJ B Y 26;3QDJ B V 27;25.0575
3QDJ B Y 26;3QDJ B S 28;15.7973
3QDJ B Y 26;3QDJ B Y 63;27.2902
3QDJ B Y 26;3QDJ B L 64;10.7147
3QDJ B Y 26;3QDJ B L 65;13.7283
3QDJ B V 27;3QDJ B S 28;18.5665
3QDJ B V 27;3QDJ B F 30;12.3414
3QDJ B V 27;3QDJ B I 35;11.1788
3QDJ B V 27;3QDJ B V 37;12.255
3QDJ B V 27;3QDJ B Y 63;5.05232
3QDJ B V 27;3QDJ B L 64;22.8195
3QDJ B V 27;3QDJ B Y 66;7.32997
3QDJ B V 27;3QDJ B V 82;10.5725
3QDJ B S 28;3QDJ B G 29;23.9538
3QDJ B S 28;3QDJ B F 30;9.4186
3QDJ B S 28;3QDJ B S 57;1.42583
3QDJ B S 28;3QDJ B F 62;4.78704
3QDJ B S 28;3QDJ B Y 63;10.1674
3QDJ B G 29;3QDJ B F 30;15.8943
3QDJ B G 29;3QDJ B S 57;1.55159
3QDJ B G 29;3QDJ B S 61;19.3092
3QDJ B G 29;3QDJ B F 62;5.75223
3QDJ B F 30;3QDJ B H 31;19.4609
3QDJ B F 30;3QDJ B P 32;6.10872
3QDJ B F 30;3QDJ B S 33;10.9376
3QDJ B F 30;3QDJ B D 34;0.458869
3QDJ B F 30;3QDJ B I 35;21.4603
3QDJ B F 30;3QDJ B L 54;4.79234
3QDJ B F 30;3QDJ B S 61;7.56104
3QDJ B F 30;3QDJ B F 62;34.0279
3QDJ B F 30;3QDJ B Y 63;5.16798
3QDJ B F 30;3QDJ B L 64;9.6723
3QDJ B F 30;3QDJ B H 84;9.77439
3QDJ B H 31;3QDJ B P 32;34.7997
3QDJ B H 31;3QDJ B W 60;8.17835
3QDJ B H 31;3QDJ B S 61;6.735
3QDJ B H 31;3QDJ B F 62;14.7176
3QDJ B H 31;3QDJ B H 84;8.22274
3QDJ B H 31;3QDJ B T 86;1.75494
3QDJ B P 32;3QDJ B S 33;21.3179
3QDJ B P 32;3QDJ B D 34;17.0727
3QDJ B P 32;3QDJ B F 62;3.87486
3QDJ B P 32;3QDJ B H 84;12.2123
3QDJ B P 32;3QDJ B V 85;17.0164
3QDJ B P 32;3QDJ B T 86;0.11619
3QDJ B S 33;3QDJ B D 34;31.3638
3QDJ B S 33;3QDJ B I 35;7.2095
3QDJ B S 33;3QDJ B L 54;20.7492
3QDJ B S 33;3QDJ B F 62;18.8614
3QDJ B S 33;3QDJ B L 64;1.73596
3QDJ B D 34;3QDJ B I 35;29.4097
3QDJ B D 34;3QDJ B H 84;11.3459
3QDJ B D 34;3QDJ B V 85;2.75977
3QDJ B I 35;3QDJ B E 36;31.5057
3QDJ B I 35;3QDJ B V 37;9.51785
3QDJ B I 35;3QDJ B L 64;11.635
3QDJ B I 35;3QDJ B Y 66;14.0943
3QDJ B I 35;3QDJ B V 82;8.94802
3QDJ B I 35;3QDJ B N 83;9.19172
3QDJ B I 35;3QDJ B H 84;13.8688
3QDJ B E 36;3QDJ B V 37;28.3979
3QDJ B E 36;3QDJ B D 38;0.417572
3QDJ B E 36;3QDJ B Y 66;0.631555
3QDJ B E 36;3QDJ B R 81;2.21725
3QDJ B E 36;3QDJ B V 82;4.93231
3QDJ B E 36;3QDJ B N 83;43.7433
3QDJ B V 37;3QDJ B D 38;34.0373
3QDJ B V 37;3QDJ B L 39;3.66407
3QDJ B V 37;3QDJ B V 49;5.43123
3QDJ B V 37;3QDJ B Y 66;42.0377
3QDJ B V 37;3QDJ B C 80;6.02871
3QDJ B V 37;3QDJ B R 81;5.64246
3QDJ B V 37;3QDJ B V 82;12.7149
3QDJ B D 38;3QDJ B L 39;27.5403
3QDJ B D 38;3QDJ B L 40;8.2234
3QDJ B D 38;3QDJ B R 45;31.6791
3QDJ B D 38;3QDJ B I 46;0.112811
3QDJ B D 38;3QDJ B V 49;0.850273
3QDJ B D 38;3QDJ B A 79;1.33003e-05
3QDJ B D 38;3QDJ B C 80;6.25789
3QDJ B D 38;3QDJ B R 81;40.9727
3QDJ B L 39;3QDJ B L 40;21.4352
3QDJ B L 39;3QDJ B E 44;0.197764
3QDJ B L 39;3QDJ B R 45;4.70584
3QDJ B L 39;3QDJ B I 46;23.7076
3QDJ B L 39;3QDJ B V 49;22.5908
3QDJ B L 39;3QDJ B Y 66;7.57156
3QDJ B L 39;3QDJ B Y 67;6.61679
3QDJ B L 39;3QDJ B T 68;10.4775
3QDJ B L 39;3QDJ B A 79;8.02536
3QDJ B L 39;3QDJ B C 80;7.02335
3QDJ B L 40;3QDJ B K 41;16.7141
3QDJ B L 40;3QDJ B N 42;0.479034
3QDJ B L 40;3QDJ B G 43;26.1822
3QDJ B L 40;3QDJ B E 44;7.53494
3QDJ B L 40;3QDJ B R 45;9.78958
3QDJ B L 40;3QDJ B I 46;7.22113
3QDJ B L 40;3QDJ B E 77;0.85963
3QDJ B L 40;3QDJ B Y 78;10.6541
3QDJ B L 40;3QDJ B A 79;32.971
3QDJ B L 40;3QDJ B C 80;1.77429
3QDJ B L 40;3QDJ B R 81;30.2925
3QDJ B L 40;3QDJ B I 92;15.1069
3QDJ B K 41;3QDJ B N 42;35.2765
3QDJ B K 41;3QDJ B G 43;3.24212
3QDJ B K 41;3QDJ B E 44;24.2108
3QDJ B K 41;3QDJ B I 46;17.6384
3QDJ B K 41;3QDJ B D 76;15.5399
3QDJ B K 41;3QDJ B E 77;5.19215
3QDJ B K 41;3QDJ B Y 78;28.2911
3QDJ B N 42;3QDJ B G 43;26.2757
3QDJ B N 42;3QDJ B E 44;11.3684
3QDJ B N 42;3QDJ B K 75;4.47731
3QDJ B N 42;3QDJ B D 76;19.2945
3QDJ B N 42;3QDJ B E 77;30.1421
3QDJ B G 43;3QDJ B E 44;23.4988
3QDJ B G 43;3QDJ B R 45;1.42175
3QDJ B G 43;3QDJ B E 77;0.292123
3QDJ B G 43;3QDJ B A 79;0.923335
3QDJ B G 43;3QDJ B R 81;7.21974
3QDJ B E 44;3QDJ B R 45;30.9617
3QDJ B E 44;3QDJ B I 46;3.14895
3QDJ B R 45;3QDJ B I 46;34.5702
3QDJ B R 45;3QDJ B E 47;34.8486
3QDJ B R 45;3QDJ B V 49;1.4811
3QDJ B R 45;3QDJ B R 81;12.5943
3QDJ B I 46;3QDJ B E 47;28.2522
3QDJ B I 46;3QDJ B K 48;8.56919
3QDJ B I 46;3QDJ B V 49;17.5243
3QDJ B I 46;3QDJ B T 68;20.8467
3QDJ B I 46;3QDJ B E 69;0.886899
3QDJ B I 46;3QDJ B F 70;2.22114
3QDJ B I 46;3QDJ B Y 78;9.13249
3QDJ B E 47;3QDJ B K 48;33.0026
3QDJ B E 47;3QDJ B V 49;10.5812
3QDJ B K 48;3QDJ B V 49;24.73
3QDJ B K 48;3QDJ B E 50;1.7461
3QDJ B K 48;3QDJ B T 68;13.898
3QDJ B V 49;3QDJ B E 50;33.2722
3QDJ B V 49;3QDJ B H 51;4.05435
3QDJ B V 49;3QDJ B Y 66;14.3333
3QDJ B V 49;3QDJ B Y 67;9.8909
3QDJ B V 49;3QDJ B T 68;9.40633
3QDJ B E 50;3QDJ B H 51;27.395
3QDJ B E 50;3QDJ B Y 66;5.296
3QDJ B E 50;3QDJ B Y 67;47.5775
3QDJ B E 50;3QDJ B T 68;0.816622
3QDJ B H 51;3QDJ B S 52;34.5249
3QDJ B H 51;3QDJ B D 53;3.52355
3QDJ B H 51;3QDJ B L 64;10.42
3QDJ B H 51;3QDJ B L 65;6.86427
3QDJ B H 51;3QDJ B Y 66;33.7267
3QDJ B H 51;3QDJ B Y 67;12.612
3QDJ B S 52;3QDJ B D 53;34.1288
3QDJ B S 52;3QDJ B L 54;1.74165
3QDJ B S 52;3QDJ B Y 63;3.172
3QDJ B S 52;3QDJ B L 64;17.9181
3QDJ B S 52;3QDJ B L 65;26.7288
3QDJ B S 52;3QDJ B Y 67;7.04784
3QDJ B D 53;3QDJ B L 54;21.6927
3QDJ B D 53;3QDJ B S 55;8.28052
3QDJ B D 53;3QDJ B Y 63;2.7289
3QDJ B D 53;3QDJ B L 64;3.59254
3QDJ B L 54;3QDJ B S 55;25.737
3QDJ B L 54;3QDJ B F 56;0.0952429
3QDJ B L 54;3QDJ B F 62;18.5047
3QDJ B L 54;3QDJ B Y 63;4.08649
3QDJ B L 54;3QDJ B L 64;25.3151
3QDJ B S 55;3QDJ B F 56;27.5361
3QDJ B S 55;3QDJ B F 62;7.84709
3QDJ B S 55;3QDJ B Y 63;34.0825
3QDJ B F 56;3QDJ B S 57;31.0097
3QDJ B F 56;3QDJ B W 60;21.636
3QDJ B F 56;3QDJ B S 61;5.91538
3QDJ B F 56;3QDJ B F 62;14.7316
3QDJ B F 56;3QDJ B Y 63;14.0546
3QDJ B S 57;3QDJ B K 58;29.4545
3QDJ B S 57;3QDJ B D 59;14.2078
3QDJ B S 57;3QDJ B W 60;11.1053
3QDJ B S 57;3QDJ B S 61;18.0987
3QDJ B S 57;3QDJ B F 62;0.516074
3QDJ B S 57;3QDJ B Y 63;15.5143
3QDJ B K 58;3QDJ B D 59;28.3244
3QDJ B K 58;3QDJ B W 60;14.6344
3QDJ B D 59;3QDJ B W 60;28.3505
3QDJ B D 59;3QDJ B S 61;20.6065
3QDJ B W 60;3QDJ B S 61;19.5116
3QDJ B W 60;3QDJ B F 62;3.22602
3QDJ B S 61;3QDJ B F 62;20.193
3QDJ B S 61;3QDJ B Y 63;0.873131
3QDJ B F 62;3QDJ B Y 63;20.2022
3QDJ B Y 63;3QDJ B L 64;27.3906
3QDJ B Y 63;3QDJ B L 65;0.655779
3QDJ B L 64;3QDJ B L 65;20.1257
3QDJ B L 64;3QDJ B Y 66;22.3958
3QDJ B L 65;3QDJ B Y 66;24.3123
3QDJ B L 65;3QDJ B Y 67;20.5224
3QDJ B Y 66;3QDJ B Y 67;19.8451
3QDJ B Y 67;3QDJ B T 68;25.1535
3QDJ B T 68;3QDJ B E 69;35.7502
3QDJ B T 68;3QDJ B F 70;6.44022
3QDJ B E 69;3QDJ B F 70;28.0453
3QDJ B F 70;3QDJ B T 71;28.3547
3QDJ B F 70;3QDJ B P 72;22.376
3QDJ B F 70;3QDJ B Y 78;27.6646
3QDJ B F 70;3QDJ B W 95;15.4747
3QDJ B T 71;3QDJ B P 72;25.4646
3QDJ B T 71;3QDJ B T 73;13.3084
3QDJ B T 71;3QDJ B D 76;1.96962
3QDJ B T 71;3QDJ B Y 78;9.85401
3QDJ B P 72;3QDJ B T 73;24.8008
3QDJ B P 72;3QDJ B Y 78;6.25306
3QDJ B P 72;3QDJ B W 95;9.19061
3QDJ B P 72;3QDJ B R 97;8.68986
3QDJ B T 73;3QDJ B E 74;24.4526
3QDJ B T 73;3QDJ B K 75;11.1647
3QDJ B T 73;3QDJ B D 76;34.7795
3QDJ B T 73;3QDJ B Y 78;1.61239
3QDJ B T 73;3QDJ B W 95;0.260778
3QDJ B T 73;3QDJ B R 97;10.5327
3QDJ B E 74;3QDJ B K 75;30.2511
3QDJ B E 74;3QDJ B D 76;5.69964
3QDJ B E 74;3QDJ B R 97;16.6814
3QDJ B K 75;3QDJ B D 76;33.3179
3QDJ B K 75;3QDJ B E 77;10.3515
3QDJ B D 76;3QDJ B E 77;25.3579
3QDJ B D 76;3QDJ B Y 78;25.3231
3QDJ B D 76;3QDJ B W 95;4.97977
3QDJ B D 76;3QDJ B R 97;2.26442
3QDJ B E 77;3QDJ B Y 78;33.8174
3QDJ B E 77;3QDJ B K 94;4.77228
3QDJ B E 77;3QDJ B W 95;0.0155427
3QDJ B Y 78;3QDJ B A 79;24.4336
3QDJ B Y 78;3QDJ B K 94;6.81231
3QDJ B Y 78;3QDJ B W 95;38.9039
3QDJ B A 79;3QDJ B C 80;19.9867
3QDJ B A 79;3QDJ B I 92;12.2582
3QDJ B A 79;3QDJ B V 93;4.67674
3QDJ B A 79;3QDJ B K 94;10.2999
3QDJ B A 79;3QDJ B W 95;2.6941
3QDJ B C 80;3QDJ B R 81;19.5721
3QDJ B C 80;3QDJ B V 82;9.41285
3QDJ B C 80;3QDJ B K 91;3.68202
3QDJ B C 80;3QDJ B I 92;7.39787
3QDJ B C 80;3QDJ B V 93;16.9974
3QDJ B R 81;3QDJ B V 82;22.2926
3QDJ B R 81;3QDJ B N 83;0.672723
3QDJ B R 81;3QDJ B P 90;20.8902
3QDJ B R 81;3QDJ B K 91;6.13358
3QDJ B R 81;3QDJ B I 92;21.5169
3QDJ B V 82;3QDJ B N 83;21.1336
3QDJ B V 82;3QDJ B H 84;1.53701
3QDJ B V 82;3QDJ B L 87;11.5302
3QDJ B V 82;3QDJ B P 90;8.50566
3QDJ B V 82;3QDJ B K 91;18.9594
3QDJ B N 83;3QDJ B H 84;30.8294
3QDJ B N 83;3QDJ B L 87;11.2461
3QDJ B N 83;3QDJ B Q 89;4.53421
3QDJ B N 83;3QDJ B P 90;24.45
3QDJ B H 84;3QDJ B V 85;34.7369
3QDJ B H 84;3QDJ B T 86;19.0989
3QDJ B H 84;3QDJ B L 87;26.3582
3QDJ B V 85;3QDJ B T 86;26.1383
3QDJ B V 85;3QDJ B L 87;9.08146
3QDJ B T 86;3QDJ B L 87;28.7313
3QDJ B T 86;3QDJ B S 88;2.97534
3QDJ B L 87;3QDJ B S 88;30.3361
3QDJ B L 87;3QDJ B Q 89;16.5188
3QDJ B L 87;3QDJ B P 90;1.99931
3QDJ B L 87;3QDJ B K 91;29.3469
3QDJ B S 88;3QDJ B Q 89;41.8119
3QDJ B Q 89;3QDJ B P 90;46.2386
3QDJ B Q 89;3QDJ B K 91;2.85581
3QDJ B P 90;3QDJ B K 91;23.0773
3QDJ B P 90;3QDJ B I 92;5.94764
3QDJ B K 91;3QDJ B I 92;28.8939
3QDJ B K 91;3QDJ B V 93;13.3574
3QDJ B I 92;3QDJ B V 93;28.0294
3QDJ B I 92;3QDJ B K 94;15.1213
3QDJ B V 93;3QDJ B K 94;30.9696
3QDJ B V 93;3QDJ B W 95;0.417579
3QDJ B K 94;3QDJ B W 95;25.9553
3QDJ B K 94;3QDJ B D 96;8.85368
3QDJ B W 95;3QDJ B D 96;33.6539
3QDJ B W 95;3QDJ B R 97;38.8828
3QDJ B W 95;3QDJ B M 99;3.33193
3QDJ B D 96;3QDJ B R 97;26.0155
3QDJ B D 96;3QDJ B D 98;21.0557
3QDJ B D 96;3QDJ B M 99;4.23247
3QDJ B D 96;3QDJ B M 99;28.9528
3QDJ B R 97;3QDJ B D 98;36.9952
3QDJ B R 97;3QDJ B M 99;5.98398
3QDJ B R 97;3QDJ B M 99;7.11294
3QDJ B D 98;3QDJ B M 99;18.7532
3QDJ B D 98;3QDJ B M 99;9.29648
3QDJ C A 1;3QDJ C A 2;18.4351
3QDJ C A 2;3QDJ C G 3;17.0998
3QDJ C G 3;3QDJ C I 4;20.9961
3QDJ C G 3;3QDJ C G 5;1.13166
3QDJ C G 3;3QDJ C I 6;7.90291
3QDJ C I 4;3QDJ C G 5;25.7357
3QDJ C I 4;3QDJ C I 6;2.79252
3QDJ C G 5;3QDJ C I 6;33.9724
3QDJ C G 5;3QDJ C L 7;1.49329
3QDJ C I 6;3QDJ C L 7;25.0669
3QDJ C L 7;3QDJ C T 8;33.9914
3QDJ C L 7;3QDJ C V 9;2.79511
3QDJ C T 8;3QDJ C V 9;27.9202
