V1;V2;Weight
3SE4 A P 6;3SE4 A Q 7;26.3249
3SE4 A P 6;3SE4 A K 8;8.37711
3SE4 A P 6;3SE4 A W 87;26.8773
3SE4 A P 6;3SE4 A Y 88;4.71846
3SE4 A P 6;3SE4 A E 89;31.0368
3SE4 A Q 7;3SE4 A K 8;26.5756
3SE4 A Q 7;3SE4 A V 9;4.50808
3SE4 A Q 7;3SE4 A W 87;4.78355
3SE4 A Q 7;3SE4 A Y 88;27.6769
3SE4 A Q 7;3SE4 A E 89;3.67686
3SE4 A K 8;3SE4 A V 9;24.64
3SE4 A K 8;3SE4 A E 10;10.9173
3SE4 A K 8;3SE4 A E 89;20.9432
3SE4 A K 8;3SE4 A V 90;8.80623
3SE4 A K 8;3SE4 A D 91;27.0124
3SE4 A V 9;3SE4 A E 10;32.4054
3SE4 A V 9;3SE4 A V 11;0.199826
3SE4 A V 9;3SE4 A L 20;11.7576
3SE4 A V 9;3SE4 A R 21;3.1743
3SE4 A V 9;3SE4 A I 77;7.31793
3SE4 A V 9;3SE4 A Y 88;16.4628
3SE4 A V 9;3SE4 A E 89;8.28687
3SE4 A V 9;3SE4 A V 90;20.4217
3SE4 A V 9;3SE4 A D 91;0.771212
3SE4 A E 10;3SE4 A V 11;29.8282
3SE4 A E 10;3SE4 A D 12;5.27241
3SE4 A E 10;3SE4 A I 19;0.674662
3SE4 A E 10;3SE4 A L 20;4.7302
3SE4 A E 10;3SE4 A R 21;19.5755
3SE4 A E 10;3SE4 A V 90;3.75227
3SE4 A E 10;3SE4 A D 91;0.273982
3SE4 A V 11;3SE4 A D 12;26.8569
3SE4 A V 11;3SE4 A I 13;4.78403
3SE4 A V 11;3SE4 A F 18;16.4671
3SE4 A V 11;3SE4 A I 19;11.8073
3SE4 A V 11;3SE4 A L 20;17.1642
3SE4 A V 11;3SE4 A L 75;9.34898
3SE4 A V 11;3SE4 A V 90;20.7994
3SE4 A V 11;3SE4 A F 93;10.9917
3SE4 A V 11;3SE4 A K 98;20.187
3SE4 A D 12;3SE4 A I 13;23.4826
3SE4 A D 12;3SE4 A I 14;7.36607
3SE4 A D 12;3SE4 A N 17;0.378458
3SE4 A D 12;3SE4 A F 18;1.47064
3SE4 A D 12;3SE4 A I 19;26.4893
3SE4 A D 12;3SE4 A K 98;19.6349
3SE4 A I 13;3SE4 A I 14;22.4413
3SE4 A I 13;3SE4 A D 15;5.60945
3SE4 A I 13;3SE4 A D 16;0.542423
3SE4 A I 13;3SE4 A N 17;12.6873
3SE4 A I 13;3SE4 A F 18;20.039
3SE4 A I 13;3SE4 A I 19;7.94628e-07
3SE4 A I 13;3SE4 A F 62;7.08731
3SE4 A I 13;3SE4 A F 93;8.79673
3SE4 A I 13;3SE4 A P 95;15.13
3SE4 A I 13;3SE4 A K 98;27.1782
3SE4 A I 13;3SE4 A A 99;13.4385
3SE4 A I 13;3SE4 A Q 100;7.23954
3SE4 A I 13;3SE4 A M 128;7.32178
3SE4 A I 14;3SE4 A D 15;27.1951
3SE4 A I 14;3SE4 A D 16;0.818637
3SE4 A I 14;3SE4 A N 17;21.3942
3SE4 A I 14;3SE4 A I 19;23.9881
3SE4 A I 14;3SE4 A K 59;4.98025
3SE4 A I 14;3SE4 A A 99;0.0528752
3SE4 A I 14;3SE4 A Q 100;32.4699
3SE4 A I 14;3SE4 A G 102;10.9491
3SE4 A I 14;3SE4 A P 103;8.9677
3SE4 A I 14;3SE4 A V 187;3.36695
3SE4 A D 15;3SE4 A D 16;24.6602
3SE4 A D 15;3SE4 A N 17;6.95665
3SE4 A D 15;3SE4 A F 62;0.359942
3SE4 A D 15;3SE4 A A 99;3.67723
3SE4 A D 15;3SE4 A Q 100;10.1692
3SE4 A D 15;3SE4 A I 101;1.23834
3SE4 A D 15;3SE4 A G 102;19.2857
3SE4 A D 15;3SE4 A G 122;5.07764
3SE4 A D 15;3SE4 A T 123;24.0156
3SE4 A D 15;3SE4 A S 126;1.88662
3SE4 A D 15;3SE4 A M 128;15.4997
3SE4 A D 15;3SE4 A W 129;20.6426
3SE4 A D 16;3SE4 A N 17;26.182
3SE4 A D 16;3SE4 A C 60;1.12254
3SE4 A D 16;3SE4 A N 61;10.9879
3SE4 A D 16;3SE4 A F 62;25.6422
3SE4 A D 16;3SE4 A S 63;16.7201
3SE4 A D 16;3SE4 A T 123;3.5615
3SE4 A D 16;3SE4 A S 126;15.8413
3SE4 A D 16;3SE4 A V 127;13.2937
3SE4 A D 16;3SE4 A M 128;11.3294
3SE4 A N 17;3SE4 A F 18;19.8732
3SE4 A N 17;3SE4 A I 19;9.04131
3SE4 A N 17;3SE4 A K 59;27.6125
3SE4 A N 17;3SE4 A C 60;7.75066
3SE4 A N 17;3SE4 A N 61;20.6054
3SE4 A N 17;3SE4 A F 62;3.69204
3SE4 A N 17;3SE4 A T 123;1.98422
3SE4 A F 18;3SE4 A I 19;19.0196
3SE4 A F 18;3SE4 A L 20;6.5707
3SE4 A F 18;3SE4 A F 36;3.51648
3SE4 A F 18;3SE4 A L 49;10.6876
3SE4 A F 18;3SE4 A T 58;1.90714
3SE4 A F 18;3SE4 A K 59;7.2487
3SE4 A F 18;3SE4 A C 60;32.2802
3SE4 A F 18;3SE4 A F 62;24.4127
3SE4 A F 18;3SE4 A I 73;8.69313
3SE4 A F 18;3SE4 A L 75;19.4419
3SE4 A F 18;3SE4 A F 93;7.62398
3SE4 A F 18;3SE4 A P 95;6.15985
3SE4 A I 19;3SE4 A L 20;28.5502
3SE4 A I 19;3SE4 A R 21;11.4401
3SE4 A I 19;3SE4 A T 58;8.02356
3SE4 A I 19;3SE4 A K 59;28.4446
3SE4 A L 20;3SE4 A R 21;32.0513
3SE4 A L 20;3SE4 A F 34;6.99656
3SE4 A L 20;3SE4 A F 36;14.483
3SE4 A L 20;3SE4 A T 58;36.5701
3SE4 A L 20;3SE4 A C 60;0.00864124
3SE4 A L 20;3SE4 A L 75;5.08199
3SE4 A L 20;3SE4 A I 77;21.6417
3SE4 A L 20;3SE4 A V 90;0.586764
3SE4 A V 32;3SE4 A T 33;30.0918
3SE4 A V 32;3SE4 A F 34;17.537
3SE4 A V 32;3SE4 A T 56;12.0223
3SE4 A V 32;3SE4 A A 79;9.22807
3SE4 A V 32;3SE4 A E 80;16.4922
3SE4 A V 32;3SE4 A K 81;12.6742
3SE4 A T 33;3SE4 A F 34;25.4989
3SE4 A T 33;3SE4 A S 35;0.350187
3SE4 A T 33;3SE4 A N 54;17.4959
3SE4 A T 33;3SE4 A I 55;7.10933
3SE4 A T 33;3SE4 A T 56;19.3968
3SE4 A T 33;3SE4 A R 78;3.15501
3SE4 A T 33;3SE4 A A 79;3.9615
3SE4 A T 33;3SE4 A E 80;23.7992
3SE4 A F 34;3SE4 A S 35;18.6765
3SE4 A F 34;3SE4 A F 36;12.2658
3SE4 A F 34;3SE4 A C 52;1.82943
3SE4 A F 34;3SE4 A Q 53;1.72204
3SE4 A F 34;3SE4 A N 54;8.95996
3SE4 A F 34;3SE4 A I 55;21.7093
3SE4 A F 34;3SE4 A T 56;12.1941
3SE4 A F 34;3SE4 A S 57;5.20357
3SE4 A F 34;3SE4 A T 58;21.3609
3SE4 A F 34;3SE4 A I 77;17.5769
3SE4 A F 34;3SE4 A R 78;7.11815
3SE4 A F 34;3SE4 A A 79;18.0335
3SE4 A S 35;3SE4 A F 36;20.587
3SE4 A S 35;3SE4 A D 37;10.2634
3SE4 A S 35;3SE4 A C 52;2.74627
3SE4 A S 35;3SE4 A Q 53;22.4333
3SE4 A S 35;3SE4 A N 54;12.8695
3SE4 A S 35;3SE4 A R 76;1.25779
3SE4 A S 35;3SE4 A I 77;7.61205
3SE4 A S 35;3SE4 A R 78;27.7797
3SE4 A F 36;3SE4 A D 37;22.1969
3SE4 A F 36;3SE4 A K 48;0.373707
3SE4 A F 36;3SE4 A L 49;21.2274
3SE4 A F 36;3SE4 A C 52;20.7714
3SE4 A F 36;3SE4 A Q 53;8.35591
3SE4 A F 36;3SE4 A I 55;9.98082
3SE4 A F 36;3SE4 A S 57;2.41652
3SE4 A F 36;3SE4 A T 58;11.1738
3SE4 A F 36;3SE4 A K 59;0.339187
3SE4 A F 36;3SE4 A C 60;18.1255
3SE4 A F 36;3SE4 A L 75;17.4507
3SE4 A F 36;3SE4 A R 76;3.91183
3SE4 A F 36;3SE4 A I 77;16.7372
3SE4 A D 37;3SE4 A Y 38;18.1488
3SE4 A D 37;3SE4 A W 46;12.3302
3SE4 A D 37;3SE4 A I 47;10.0915
3SE4 A D 37;3SE4 A K 48;11.1022
3SE4 A D 37;3SE4 A L 49;6.64172
3SE4 A D 37;3SE4 A Q 53;8.85235
3SE4 A D 37;3SE4 A L 75;8.20478
3SE4 A D 37;3SE4 A R 76;43.3923
3SE4 A D 37;3SE4 A I 77;0.106974
3SE4 A D 37;3SE4 A R 78;2.53321
3SE4 A D 37;3SE4 A W 87;4.01985
3SE4 A Y 38;3SE4 A Q 39;19.7138
3SE4 A Y 38;3SE4 A K 40;5.28801
3SE4 A Y 38;3SE4 A N 45;0.195793
3SE4 A Y 38;3SE4 A W 46;12.1425
3SE4 A Y 38;3SE4 A I 47;52.5864
3SE4 A Y 38;3SE4 A K 48;0.605025
3SE4 A Y 38;3SE4 A L 49;28.5787
3SE4 A Y 38;3SE4 A K 66;18.4777
3SE4 A Y 38;3SE4 A I 73;30.2444
3SE4 A Y 38;3SE4 A K 74;7.16917
3SE4 A Y 38;3SE4 A L 75;7.82754
3SE4 A Q 39;3SE4 A K 40;26.2853
3SE4 A Q 39;3SE4 A T 41;0.186237
3SE4 A Q 39;3SE4 A M 43;18.3
3SE4 A Q 39;3SE4 A N 45;9.47913
3SE4 A Q 39;3SE4 A W 46;12.3586
3SE4 A Q 39;3SE4 A I 47;2.75905
3SE4 A Q 39;3SE4 A E 72;0.865088
3SE4 A Q 39;3SE4 A I 73;6.05528
3SE4 A Q 39;3SE4 A K 74;22.3769
3SE4 A K 40;3SE4 A T 41;32.9296
3SE4 A K 40;3SE4 A G 42;0.501212
3SE4 A K 40;3SE4 A M 43;15.4939
3SE4 A K 40;3SE4 A N 45;1.77316
3SE4 A K 40;3SE4 A I 47;7.27026
3SE4 A K 40;3SE4 A E 71;4.92139
3SE4 A K 40;3SE4 A E 72;2.80263
3SE4 A K 40;3SE4 A I 73;11.9641
3SE4 A T 41;3SE4 A G 42;33.0834
3SE4 A T 41;3SE4 A M 43;1.72286
3SE4 A T 41;3SE4 A E 72;32.3259
3SE4 A G 42;3SE4 A M 43;29.0179
3SE4 A G 42;3SE4 A D 44;10.032
3SE4 A M 43;3SE4 A D 44;30.9558
3SE4 A M 43;3SE4 A N 45;6.46049
3SE4 A M 43;3SE4 A W 46;27.6103
3SE4 A M 43;3SE4 A K 74;6.80989
3SE4 A M 43;3SE4 A E 89;0.821042
3SE4 A D 44;3SE4 A N 45;35.5963
3SE4 A D 44;3SE4 A W 46;2.16201
3SE4 A N 45;3SE4 A W 46;43.9245
3SE4 A N 45;3SE4 A I 47;18.8915
3SE4 A W 46;3SE4 A I 47;25.8882
3SE4 A W 46;3SE4 A K 48;5.16193
3SE4 A W 46;3SE4 A K 74;10.6885
3SE4 A W 46;3SE4 A L 75;5.71497
3SE4 A W 46;3SE4 A R 76;48.5783
3SE4 A W 46;3SE4 A E 89;17.7694
3SE4 A I 47;3SE4 A K 48;35.9382
3SE4 A I 47;3SE4 A L 49;2.82688
3SE4 A K 48;3SE4 A L 49;19.5914
3SE4 A K 48;3SE4 A S 50;10.849
3SE4 A K 48;3SE4 A Q 53;24.8099
3SE4 A K 48;3SE4 A R 76;0.492453
3SE4 A L 49;3SE4 A S 50;24.7987
3SE4 A L 49;3SE4 A G 51;0.248243
3SE4 A L 49;3SE4 A C 52;18.3558
3SE4 A L 49;3SE4 A Q 53;12.2443
3SE4 A L 49;3SE4 A C 60;10.5656
3SE4 A L 49;3SE4 A F 62;13.6708
3SE4 A L 49;3SE4 A S 64;3.29372
3SE4 A L 49;3SE4 A K 66;9.02297
3SE4 A L 49;3SE4 A L 75;9.54007
3SE4 A S 50;3SE4 A G 51;27.9226
3SE4 A S 50;3SE4 A C 52;8.82422
3SE4 A S 50;3SE4 A Q 53;3.80279
3SE4 A S 50;3SE4 A N 61;6.22044
3SE4 A S 50;3SE4 A F 62;0.195049
3SE4 A S 50;3SE4 A S 64;13.1829
3SE4 A G 51;3SE4 A C 52;22.0989
3SE4 A G 51;3SE4 A Q 53;6.42372
3SE4 A G 51;3SE4 A I 55;17.737
3SE4 A G 51;3SE4 A K 59;0.176869
3SE4 A G 51;3SE4 A C 60;0.201791
3SE4 A G 51;3SE4 A N 61;3.85593
3SE4 A C 52;3SE4 A Q 53;19.0242
3SE4 A C 52;3SE4 A I 55;12.9679
3SE4 A C 52;3SE4 A C 60;19.6885
3SE4 A C 52;3SE4 A N 61;11.9359
3SE4 A C 52;3SE4 A F 62;0.526691
3SE4 A Q 53;3SE4 A N 54;27.1453
3SE4 A Q 53;3SE4 A I 55;14.4815
3SE4 A N 54;3SE4 A I 55;22.2526
3SE4 A N 54;3SE4 A T 56;0.162835
3SE4 A I 55;3SE4 A T 56;23.598
3SE4 A I 55;3SE4 A S 57;23.488
3SE4 A I 55;3SE4 A T 58;0.172357
3SE4 A I 55;3SE4 A K 59;9.17048
3SE4 A I 55;3SE4 A C 60;2.79648
3SE4 A T 56;3SE4 A S 57;28.9612
3SE4 A T 56;3SE4 A T 58;3.30337
3SE4 A S 57;3SE4 A T 58;26.2317
3SE4 A S 57;3SE4 A K 59;23.2023
3SE4 A T 58;3SE4 A K 59;25.6064
3SE4 A T 58;3SE4 A C 60;2.65164
3SE4 A K 59;3SE4 A C 60;19.283
3SE4 A K 59;3SE4 A N 61;5.19761
3SE4 A C 60;3SE4 A N 61;18.8201
3SE4 A C 60;3SE4 A F 62;7.68539
3SE4 A C 60;3SE4 A L 75;0.0176609
3SE4 A N 61;3SE4 A F 62;23.0059
3SE4 A N 61;3SE4 A S 63;24.7151
3SE4 A N 61;3SE4 A S 64;1.63954
3SE4 A F 62;3SE4 A S 63;16.042
3SE4 A F 62;3SE4 A S 64;16.775
3SE4 A F 62;3SE4 A L 65;2.21708
3SE4 A F 62;3SE4 A K 66;23.0025
3SE4 A F 62;3SE4 A V 69;9.49945
3SE4 A F 62;3SE4 A P 95;6.46458
3SE4 A F 62;3SE4 A V 127;13.33
3SE4 A F 62;3SE4 A M 128;10.6146
3SE4 A S 63;3SE4 A S 64;27.6665
3SE4 A S 63;3SE4 A D 125;4.64954
3SE4 A S 63;3SE4 A S 126;1.37734
3SE4 A S 63;3SE4 A V 127;18.3415
3SE4 A S 64;3SE4 A L 65;33.8793
3SE4 A S 64;3SE4 A K 66;8.49496
3SE4 A S 64;3SE4 A V 127;1.8739
3SE4 A L 65;3SE4 A K 66;27.8389
3SE4 A L 65;3SE4 A L 67;13.8609
3SE4 A L 65;3SE4 A V 127;13.5677
3SE4 A K 66;3SE4 A L 67;29.6276
3SE4 A K 66;3SE4 A V 69;11.3195
3SE4 A K 66;3SE4 A V 127;3.00602
3SE4 A L 67;3SE4 A N 68;35.8785
3SE4 A L 67;3SE4 A V 69;5.80741
3SE4 A L 67;3SE4 A I 73;1.15209
3SE4 A L 67;3SE4 A V 127;2.8925
3SE4 A N 68;3SE4 A V 69;20.8962
3SE4 A N 68;3SE4 A Y 70;12.0764
3SE4 A N 68;3SE4 A E 71;30.1051
3SE4 A N 68;3SE4 A I 73;5.17798
3SE4 A N 68;3SE4 A P 95;0.43373
3SE4 A V 69;3SE4 A Y 70;35.3544
3SE4 A V 69;3SE4 A E 71;3.07282
3SE4 A V 69;3SE4 A I 73;0.0311173
3SE4 A V 69;3SE4 A T 94;2.50805
3SE4 A V 69;3SE4 A P 95;23.2634
3SE4 A V 69;3SE4 A F 96;14.7323
3SE4 A V 69;3SE4 A V 127;17.15
3SE4 A V 69;3SE4 A M 128;19.6133
3SE4 A Y 70;3SE4 A E 71;20.4366
3SE4 A Y 70;3SE4 A E 72;0.820074
3SE4 A Y 70;3SE4 A T 94;10.7902
3SE4 A Y 70;3SE4 A F 96;21.775
3SE4 A Y 70;3SE4 A V 127;4.00221
3SE4 A Y 70;3SE4 A M 128;4.60864
3SE4 A Y 70;3SE4 A W 129;1.98286
3SE4 A Y 70;3SE4 A A 130;6.23398
3SE4 A Y 70;3SE4 A L 131;17.4947
3SE4 A Y 70;3SE4 A D 132;1.46738
3SE4 A E 71;3SE4 A E 72;25.4369
3SE4 A E 71;3SE4 A I 73;15.7991
3SE4 A E 71;3SE4 A F 93;0.262375
3SE4 A E 71;3SE4 A T 94;4.83822
3SE4 A E 71;3SE4 A P 95;5.94265
3SE4 A E 72;3SE4 A I 73;22.521
3SE4 A E 72;3SE4 A K 74;0.128234
3SE4 A E 72;3SE4 A S 92;19.8601
3SE4 A E 72;3SE4 A F 93;15.621
3SE4 A E 72;3SE4 A T 94;23.2223
3SE4 A I 73;3SE4 A K 74;24.4921
3SE4 A I 73;3SE4 A L 75;7.66743
3SE4 A I 73;3SE4 A S 92;5.90864
3SE4 A I 73;3SE4 A F 93;31.9743
3SE4 A I 73;3SE4 A P 95;17.0307
3SE4 A K 74;3SE4 A L 75;20.775
3SE4 A K 74;3SE4 A V 90;8.39832
3SE4 A K 74;3SE4 A D 91;1.70841
3SE4 A K 74;3SE4 A S 92;12.9281
3SE4 A K 74;3SE4 A F 93;3.10451
3SE4 A L 75;3SE4 A R 76;25.2863
3SE4 A L 75;3SE4 A I 77;10.4947
3SE4 A L 75;3SE4 A Y 88;0.16109
3SE4 A L 75;3SE4 A E 89;5.66649
3SE4 A L 75;3SE4 A V 90;34.8364
3SE4 A L 75;3SE4 A D 91;0.107877
3SE4 A L 75;3SE4 A F 93;10.6812
3SE4 A R 76;3SE4 A I 77;23.3995
3SE4 A R 76;3SE4 A R 78;0.279186
3SE4 A R 76;3SE4 A W 87;35.0907
3SE4 A R 76;3SE4 A Y 88;8.67039
3SE4 A R 76;3SE4 A E 89;15.0985
3SE4 A I 77;3SE4 A R 78;23.8693
3SE4 A I 77;3SE4 A A 79;3.23129
3SE4 A I 77;3SE4 A S 86;0.544549
3SE4 A I 77;3SE4 A W 87;5.14533
3SE4 A I 77;3SE4 A Y 88;37.1344
3SE4 A I 77;3SE4 A E 89;0.087998
3SE4 A I 77;3SE4 A V 90;4.31261
3SE4 A R 78;3SE4 A A 79;20.796
3SE4 A R 78;3SE4 A E 80;3.57512
3SE4 A R 78;3SE4 A S 85;4.72894
3SE4 A R 78;3SE4 A S 86;5.25812
3SE4 A R 78;3SE4 A W 87;24.854
3SE4 A A 79;3SE4 A E 80;23.6704
3SE4 A A 79;3SE4 A K 81;0.314948
3SE4 A A 79;3SE4 A T 84;0.258513
3SE4 A A 79;3SE4 A S 85;2.66185
3SE4 A A 79;3SE4 A S 86;23.862
3SE4 A A 79;3SE4 A Y 88;19.3736
3SE4 A E 80;3SE4 A K 81;22.8697
3SE4 A E 80;3SE4 A E 82;11.9921
3SE4 A E 80;3SE4 A N 83;6.94659
3SE4 A E 80;3SE4 A T 84;9.26712
3SE4 A E 80;3SE4 A S 85;26.3402
3SE4 A E 80;3SE4 A S 86;0.0329906
3SE4 A K 81;3SE4 A E 82;33.7119
3SE4 A K 81;3SE4 A N 83;0.640757
3SE4 A K 81;3SE4 A T 84;22.149
3SE4 A K 81;3SE4 A S 86;4.6963
3SE4 A E 82;3SE4 A N 83;32.1744
3SE4 A E 82;3SE4 A T 84;4.00525
3SE4 A N 83;3SE4 A T 84;28.4346
3SE4 A N 83;3SE4 A S 85;1.62133
3SE4 A T 84;3SE4 A S 85;26.9522
3SE4 A T 84;3SE4 A S 86;5.75927
3SE4 A S 85;3SE4 A S 86;27.4073
3SE4 A S 85;3SE4 A W 87;22.6589
3SE4 A S 86;3SE4 A W 87;27.0158
3SE4 A S 86;3SE4 A Y 88;26.7179
3SE4 A W 87;3SE4 A Y 88;27.3553
3SE4 A W 87;3SE4 A E 89;0.0594019
3SE4 A Y 88;3SE4 A E 89;22.84
3SE4 A Y 88;3SE4 A V 90;0.518393
3SE4 A E 89;3SE4 A V 90;29.2959
3SE4 A V 90;3SE4 A D 91;37.7504
3SE4 A V 90;3SE4 A S 92;2.46221
3SE4 A V 90;3SE4 A F 93;10.4129
3SE4 A V 90;3SE4 A K 98;0.76678
3SE4 A D 91;3SE4 A S 92;32.5494
3SE4 A D 91;3SE4 A F 93;9.566
3SE4 A S 92;3SE4 A F 93;25.9039
3SE4 A F 93;3SE4 A T 94;27.6488
3SE4 A F 93;3SE4 A P 95;12.8283
3SE4 A F 93;3SE4 A K 98;26.0216
3SE4 A T 94;3SE4 A P 95;18.7446
3SE4 A T 94;3SE4 A F 96;4.42362
3SE4 A T 94;3SE4 A R 97;23.1052
3SE4 A T 94;3SE4 A K 98;6.87993
3SE4 A P 95;3SE4 A F 96;16.5156
3SE4 A P 95;3SE4 A R 97;1.08537
3SE4 A P 95;3SE4 A K 98;7.54064
3SE4 A P 95;3SE4 A A 99;8.80373
3SE4 A P 95;3SE4 A M 128;10.5872
3SE4 A F 96;3SE4 A R 97;22.1626
3SE4 A F 96;3SE4 A K 98;0.817186
3SE4 A F 96;3SE4 A A 99;9.28944
3SE4 A F 96;3SE4 A M 128;21.2875
3SE4 A F 96;3SE4 A W 129;13.9731
3SE4 A F 96;3SE4 A L 131;0.00157019
3SE4 A F 96;3SE4 A D 132;14.0159
3SE4 A F 96;3SE4 A L 179;5.52826
3SE4 A F 96;3SE4 A S 182;7.53817
3SE4 A F 96;3SE4 A K 184;21.8613
3SE4 A R 97;3SE4 A K 98;26.134
3SE4 A R 97;3SE4 A A 99;2.63632
3SE4 A R 97;3SE4 A S 182;6.58992
3SE4 A R 97;3SE4 A W 183;1.2217
3SE4 A R 97;3SE4 A K 184;23.0959
3SE4 A K 98;3SE4 A A 99;20.8714
3SE4 A K 98;3SE4 A Q 100;1.6952
3SE4 A A 99;3SE4 A Q 100;22.0395
3SE4 A A 99;3SE4 A M 128;13.2228
3SE4 A A 99;3SE4 A W 129;8.31982
3SE4 A A 99;3SE4 A K 184;18.5528
3SE4 A Q 100;3SE4 A I 101;22.9796
3SE4 A Q 100;3SE4 A G 102;3.94086
3SE4 A Q 100;3SE4 A W 129;7.8927
3SE4 A Q 100;3SE4 A K 184;3.46755
3SE4 A Q 100;3SE4 A I 185;8.52611
3SE4 A Q 100;3SE4 A G 186;10.56
3SE4 A Q 100;3SE4 A V 187;18.4844
3SE4 A I 101;3SE4 A G 102;31.6622
3SE4 A I 101;3SE4 A P 104;0.190533
3SE4 A I 101;3SE4 A W 129;20.2331
3SE4 A I 101;3SE4 A F 136;17.6485
3SE4 A I 101;3SE4 A A 177;23.0031
3SE4 A I 101;3SE4 A A 178;4.41086
3SE4 A I 101;3SE4 A L 179;10.865
3SE4 A I 101;3SE4 A K 184;16.7528
3SE4 A I 101;3SE4 A I 185;7.67844
3SE4 A I 101;3SE4 A G 186;15.5341
3SE4 A I 101;3SE4 A V 187;7.98435
3SE4 A G 102;3SE4 A P 103;27.0713
3SE4 A G 102;3SE4 A P 104;8.59275
3SE4 A G 102;3SE4 A G 122;1.21115
3SE4 A G 102;3SE4 A W 129;0.000141017
3SE4 A G 102;3SE4 A A 177;0.317908
3SE4 A G 102;3SE4 A V 187;7.8168
3SE4 A P 103;3SE4 A P 104;28.172
3SE4 A P 103;3SE4 A E 105;0.635802
3SE4 A P 103;3SE4 A G 122;12.3108
3SE4 A P 103;3SE4 A V 187;17.7133
3SE4 A P 103;3SE4 A Y 188;8.53359
3SE4 A P 103;3SE4 A S 189;6.43475
3SE4 A P 103;3SE4 A P 190;11.3841
3SE4 A P 104;3SE4 A E 105;22.4975
3SE4 A P 104;3SE4 A V 106;6.78465
3SE4 A P 104;3SE4 A I 119;7.72147
3SE4 A P 104;3SE4 A S 120;2.91719
3SE4 A P 104;3SE4 A P 121;4.14838
3SE4 A P 104;3SE4 A G 122;5.02575
3SE4 A P 104;3SE4 A Y 138;12.2196
3SE4 A P 104;3SE4 A V 175;12.7695
3SE4 A P 104;3SE4 A K 176;6.95483
3SE4 A P 104;3SE4 A A 177;11.8326
3SE4 A P 104;3SE4 A V 187;5.54401
3SE4 A P 104;3SE4 A Y 188;0.028444
3SE4 A P 104;3SE4 A S 189;16.7713
3SE4 A P 104;3SE4 A P 190;3.38092
3SE4 A P 104;3SE4 A H 192;0.653462
3SE4 A E 105;3SE4 A V 106;28.8812
3SE4 A E 105;3SE4 A H 107;24.6394
3SE4 A E 105;3SE4 A H 118;1.55374
3SE4 A E 105;3SE4 A I 119;8.35359
3SE4 A E 105;3SE4 A S 120;29.556
3SE4 A E 105;3SE4 A P 121;5.51578
3SE4 A E 105;3SE4 A G 122;15.1027
3SE4 A E 105;3SE4 A T 123;2.40983
3SE4 A V 106;3SE4 A H 107;33.7099
3SE4 A V 106;3SE4 A L 108;15.2509
3SE4 A V 106;3SE4 A I 117;10.2
3SE4 A V 106;3SE4 A H 118;4.56577
3SE4 A V 106;3SE4 A I 119;12.4896
3SE4 A V 106;3SE4 A L 173;8.82119
3SE4 A V 106;3SE4 A V 175;13.7765
3SE4 A V 106;3SE4 A S 189;5.67314
3SE4 A V 106;3SE4 A H 192;30.514
3SE4 A H 107;3SE4 A L 108;30.5057
3SE4 A H 107;3SE4 A E 109;0.708682
3SE4 A H 107;3SE4 A V 116;2.63649
3SE4 A H 107;3SE4 A I 117;3.71995
3SE4 A H 107;3SE4 A H 118;41.0582
3SE4 A H 107;3SE4 A S 120;9.14002
3SE4 A L 108;3SE4 A E 109;23.4948
3SE4 A L 108;3SE4 A I 115;10.5364
3SE4 A L 108;3SE4 A V 116;5.24029
3SE4 A L 108;3SE4 A I 117;8.53702
3SE4 A L 108;3SE4 A Y 171;1.87939
3SE4 A L 108;3SE4 A L 173;19.2335
3SE4 A L 108;3SE4 A H 192;19.7291
3SE4 A L 108;3SE4 A C 193;4.45415
3SE4 A L 108;3SE4 A I 194;33.951
3SE4 A E 109;3SE4 A A 110;31.3534
3SE4 A E 109;3SE4 A E 111;2.60397
3SE4 A E 109;3SE4 A A 114;0.674741
3SE4 A E 109;3SE4 A I 115;7.87213
3SE4 A E 109;3SE4 A V 116;41.1285
3SE4 A E 109;3SE4 A I 194;4.72491
3SE4 A A 110;3SE4 A E 111;27.4697
3SE4 A A 110;3SE4 A A 114;0.262663
3SE4 A A 110;3SE4 A I 115;4.91111
3SE4 A A 110;3SE4 A I 194;21.7834
3SE4 A A 110;3SE4 A K 195;7.98632
3SE4 A A 110;3SE4 A T 196;6.1846
3SE4 A A 110;3SE4 A T 197;17.9444
3SE4 A A 110;3SE4 A F 290;4.37377
3SE4 A E 111;3SE4 A D 112;20.6108
3SE4 A E 111;3SE4 A K 113;2.84464
3SE4 A E 111;3SE4 A A 114;33.6959
3SE4 A E 111;3SE4 A I 115;0.236604
3SE4 A E 111;3SE4 A V 116;13.5865
3SE4 A E 111;3SE4 A K 161;18.7224
3SE4 A E 111;3SE4 A Y 163;0.101522
3SE4 A E 111;3SE4 A T 196;11.5886
3SE4 A E 111;3SE4 A T 197;11.0963
3SE4 A E 111;3SE4 A F 290;36.2913
3SE4 A E 111;3SE4 A W 291;5.34843
3SE4 A D 112;3SE4 A K 113;33.2188
3SE4 A D 112;3SE4 A A 114;0.402034
3SE4 A D 112;3SE4 A L 165;0.787927
3SE4 A D 112;3SE4 A S 166;0.480978
3SE4 A D 112;3SE4 A P 167;16.2321
3SE4 A D 112;3SE4 A T 196;6.17992
3SE4 A D 112;3SE4 A T 197;16.7789
3SE4 A D 112;3SE4 A V 198;3.76282
3SE4 A D 112;3SE4 A E 199;13.9239
3SE4 A D 112;3SE4 A N 200;18.9741
3SE4 A D 112;3SE4 A P 203;0.773592
3SE4 A D 112;3SE4 A P 204;8.34025
3SE4 A D 112;3SE4 A F 290;20.4905
3SE4 A K 113;3SE4 A A 114;25.1402
3SE4 A K 113;3SE4 A Y 163;3.11833
3SE4 A K 113;3SE4 A K 164;8.7972
3SE4 A K 113;3SE4 A L 165;25.9973
3SE4 A K 113;3SE4 A P 167;8.722
3SE4 A K 113;3SE4 A T 196;2.412
3SE4 A A 114;3SE4 A I 115;20.5489
3SE4 A A 114;3SE4 A V 116;0.868286
3SE4 A A 114;3SE4 A K 161;10.0183
3SE4 A A 114;3SE4 A I 162;6.37467
3SE4 A A 114;3SE4 A Y 163;15.889
3SE4 A A 114;3SE4 A L 165;5.94536
3SE4 A A 114;3SE4 A T 196;5.97471
3SE4 A I 115;3SE4 A V 116;20.4673
3SE4 A I 115;3SE4 A I 117;15.2616
3SE4 A I 115;3SE4 A I 142;6.40027
3SE4 A I 115;3SE4 A K 161;8.68344
3SE4 A I 115;3SE4 A I 162;17.3349
3SE4 A I 115;3SE4 A L 165;16.1265
3SE4 A I 115;3SE4 A Y 171;15.4209
3SE4 A I 115;3SE4 A L 173;8.16364
3SE4 A I 115;3SE4 A I 194;20.5471
3SE4 A I 115;3SE4 A T 196;12.3551
3SE4 A V 116;3SE4 A I 117;28.0766
3SE4 A V 116;3SE4 A H 118;4.20223
3SE4 A V 116;3SE4 A H 160;3.20494
3SE4 A V 116;3SE4 A K 161;27.5533
3SE4 A I 117;3SE4 A H 118;24.6413
3SE4 A I 117;3SE4 A I 119;16.971
3SE4 A I 117;3SE4 A L 140;13.7412
3SE4 A I 117;3SE4 A I 156;5.50049
3SE4 A I 117;3SE4 A S 158;2.21916
3SE4 A I 117;3SE4 A R 159;8.02799
3SE4 A I 117;3SE4 A H 160;28.397
3SE4 A I 117;3SE4 A K 161;2.38087
3SE4 A I 117;3SE4 A I 162;14.4249
3SE4 A I 117;3SE4 A L 173;12.701
3SE4 A I 117;3SE4 A V 175;0.913337
3SE4 A H 118;3SE4 A I 119;26.9529
3SE4 A H 118;3SE4 A S 120;7.37796
3SE4 A H 118;3SE4 A S 158;3.78375
3SE4 A H 118;3SE4 A R 159;34.7604
3SE4 A H 118;3SE4 A P 243;16.4646
3SE4 A H 118;3SE4 A G 244;0.433763
3SE4 A I 119;3SE4 A S 120;24.6824
3SE4 A I 119;3SE4 A Y 138;25.5222
3SE4 A I 119;3SE4 A L 140;0.467829
3SE4 A I 119;3SE4 A I 156;12.4748
3SE4 A I 119;3SE4 A Y 157;2.64847
3SE4 A I 119;3SE4 A S 158;27.174
3SE4 A I 119;3SE4 A H 160;0.0361299
3SE4 A I 119;3SE4 A V 175;15.1844
3SE4 A I 119;3SE4 A P 243;5.93978
3SE4 A S 120;3SE4 A P 121;33.1446
3SE4 A S 120;3SE4 A G 122;0.887011
3SE4 A S 120;3SE4 A Y 138;6.71467
3SE4 A S 120;3SE4 A S 158;0.0200429
3SE4 A S 120;3SE4 A P 243;14.2518
3SE4 A P 121;3SE4 A G 122;29.7871
3SE4 A P 121;3SE4 A T 123;0.875467
3SE4 A P 121;3SE4 A K 124;18.1585
3SE4 A P 121;3SE4 A W 129;7.52141
3SE4 A P 121;3SE4 A G 133;9.94697
3SE4 A P 121;3SE4 A F 136;20.3686
3SE4 A P 121;3SE4 A Y 138;13.1319
3SE4 A P 121;3SE4 A P 243;12.9511
3SE4 A G 122;3SE4 A T 123;36.5171
3SE4 A G 122;3SE4 A K 124;1.72928
3SE4 A G 122;3SE4 A W 129;2.64672
3SE4 A T 123;3SE4 A K 124;31.4139
3SE4 A T 123;3SE4 A D 125;0.00122663
3SE4 A T 123;3SE4 A S 126;19.6194
3SE4 A T 123;3SE4 A W 129;1.61538
3SE4 A K 124;3SE4 A D 125;40.0822
3SE4 A K 124;3SE4 A S 126;3.1338
3SE4 A D 125;3SE4 A S 126;31.6573
3SE4 A D 125;3SE4 A V 127;6.46001
3SE4 A S 126;3SE4 A V 127;20.5822
3SE4 A S 126;3SE4 A M 128;4.79412
3SE4 A S 126;3SE4 A W 129;23.59
3SE4 A S 126;3SE4 A A 130;15.3504
3SE4 A V 127;3SE4 A M 128;21.2298
3SE4 A V 127;3SE4 A W 129;1.47596
3SE4 A V 127;3SE4 A A 130;15.12
3SE4 A M 128;3SE4 A W 129;40.0175
3SE4 A M 128;3SE4 A A 130;0.0755259
3SE4 A M 128;3SE4 A D 132;0.000993838
3SE4 A W 129;3SE4 A A 130;23.7937
3SE4 A W 129;3SE4 A L 131;5.16122
3SE4 A W 129;3SE4 A D 132;18.6469
3SE4 A W 129;3SE4 A G 133;9.93714
3SE4 A W 129;3SE4 A F 136;22.5849
3SE4 A W 129;3SE4 A L 179;8.49251
3SE4 A W 129;3SE4 A K 184;9.90247
3SE4 A A 130;3SE4 A L 131;32.4985
3SE4 A A 130;3SE4 A D 132;0.63563
3SE4 A A 130;3SE4 A G 133;12.6064
3SE4 A L 131;3SE4 A D 132;26.2785
3SE4 A L 131;3SE4 A G 133;6.42886
3SE4 A L 131;3SE4 A L 134;5.58124
3SE4 A L 131;3SE4 A S 135;3.34333
3SE4 A D 132;3SE4 A G 133;14.635
3SE4 A D 132;3SE4 A L 134;2.77079
3SE4 A D 132;3SE4 A S 135;20.3263
3SE4 A D 132;3SE4 A F 136;8.73398
3SE4 A D 132;3SE4 A L 179;15.9234
3SE4 A D 132;3SE4 A S 182;0.590173
3SE4 A G 133;3SE4 A L 134;26.757
3SE4 A G 133;3SE4 A F 136;15.4384
3SE4 A G 133;3SE4 A P 243;9.62942
3SE4 A L 134;3SE4 A S 135;26.2347
3SE4 A L 134;3SE4 A F 136;13.7583
3SE4 A L 134;3SE4 A R 241;29.3062
3SE4 A L 134;3SE4 A N 242;16.2426
3SE4 A L 134;3SE4 A P 243;11.0149
3SE4 A S 135;3SE4 A F 136;18.7953
3SE4 A S 135;3SE4 A T 137;11.4825
3SE4 A S 135;3SE4 A A 178;0.654508
3SE4 A S 135;3SE4 A L 179;17.1159
3SE4 A S 135;3SE4 A L 180;2.70191
3SE4 A S 135;3SE4 A T 181;0.729208
3SE4 A S 135;3SE4 A R 241;6.25952
3SE4 A F 136;3SE4 A T 137;22.5903
3SE4 A F 136;3SE4 A Y 138;26.531
3SE4 A F 136;3SE4 A Y 157;7.25007
3SE4 A F 136;3SE4 A S 158;9.28788
3SE4 A F 136;3SE4 A A 177;9.72464
3SE4 A F 136;3SE4 A A 178;5.46559
3SE4 A F 136;3SE4 A L 179;21.4143
3SE4 A F 136;3SE4 A R 241;4.41342
3SE4 A T 137;3SE4 A Y 138;25.7634
3SE4 A T 137;3SE4 A S 139;0.765799
3SE4 A T 137;3SE4 A N 155;27.762
3SE4 A T 137;3SE4 A I 156;6.38021
3SE4 A T 137;3SE4 A Y 157;10.6373
3SE4 A T 137;3SE4 A K 176;0.0936532
3SE4 A T 137;3SE4 A A 177;1.51225
3SE4 A T 137;3SE4 A A 178;31.5111
3SE4 A T 137;3SE4 A L 179;0.609041
3SE4 A T 137;3SE4 A L 180;11.3128
3SE4 A T 137;3SE4 A R 241;2.52446
3SE4 A Y 138;3SE4 A S 139;20.0733
3SE4 A Y 138;3SE4 A N 155;5.63467
3SE4 A Y 138;3SE4 A I 156;25.6711
3SE4 A Y 138;3SE4 A Y 157;3.89596
3SE4 A Y 138;3SE4 A S 158;16.5603
3SE4 A Y 138;3SE4 A V 175;8.57974
3SE4 A Y 138;3SE4 A K 176;7.09835
3SE4 A Y 138;3SE4 A A 177;19.557
3SE4 A Y 138;3SE4 A P 243;1.554
3SE4 A S 139;3SE4 A L 140;20.8426
3SE4 A S 139;3SE4 A V 141;2.27013
3SE4 A S 139;3SE4 A R 152;0.0136346
3SE4 A S 139;3SE4 A I 153;4.43953
3SE4 A S 139;3SE4 A E 154;17.7511
3SE4 A S 139;3SE4 A N 155;12.0682
3SE4 A S 139;3SE4 A I 156;2.10453
3SE4 A S 139;3SE4 A K 174;0.33373
3SE4 A S 139;3SE4 A V 175;12.9108
3SE4 A S 139;3SE4 A K 176;32.0189
3SE4 A S 139;3SE4 A A 178;6.95879
3SE4 A S 139;3SE4 A Y 188;4.47014
3SE4 A L 140;3SE4 A V 141;29.6142
3SE4 A L 140;3SE4 A I 142;7.38535
3SE4 A L 140;3SE4 A E 151;0.997366
3SE4 A L 140;3SE4 A R 152;6.42171
3SE4 A L 140;3SE4 A I 153;36.2236
3SE4 A L 140;3SE4 A E 154;0.0112776
3SE4 A L 140;3SE4 A I 156;17.8285
3SE4 A L 140;3SE4 A H 160;1.59399
3SE4 A L 140;3SE4 A I 162;9.72528
3SE4 A L 140;3SE4 A L 173;17.5673
3SE4 A L 140;3SE4 A K 174;7.18896
3SE4 A L 140;3SE4 A V 175;15.2542
3SE4 A V 141;3SE4 A I 142;18.3991
3SE4 A V 141;3SE4 A W 143;15.8003
3SE4 A V 141;3SE4 A E 150;19.0741
3SE4 A V 141;3SE4 A E 151;5.71899
3SE4 A V 141;3SE4 A R 152;21.5433
3SE4 A V 141;3SE4 A L 173;5.93319
3SE4 A V 141;3SE4 A K 174;23.7229
3SE4 A V 141;3SE4 A Y 188;21.2969
3SE4 A I 142;3SE4 A W 143;29.5578
3SE4 A I 142;3SE4 A V 149;1.73278
3SE4 A I 142;3SE4 A E 150;6.12079
3SE4 A I 142;3SE4 A E 151;33.1498
3SE4 A I 142;3SE4 A I 153;5.90019
3SE4 A I 142;3SE4 A I 162;20.4813
3SE4 A I 142;3SE4 A L 165;9.89771
3SE4 A I 142;3SE4 A Y 171;16.0207
3SE4 A I 142;3SE4 A C 172;7.15277
3SE4 A I 142;3SE4 A L 173;17.1481
3SE4 A W 143;3SE4 A K 144;28.3674
3SE4 A W 143;3SE4 A N 145;7.42925
3SE4 A W 143;3SE4 A G 148;15.6382
3SE4 A W 143;3SE4 A V 149;10.7344
3SE4 A W 143;3SE4 A E 150;18.574
3SE4 A W 143;3SE4 A Y 171;8.60295
3SE4 A W 143;3SE4 A C 172;32.819
3SE4 A W 143;3SE4 A L 173;7.78776
3SE4 A W 143;3SE4 A K 174;18.8991
3SE4 A W 143;3SE4 A V 191;16.306
3SE4 A K 144;3SE4 A N 145;24.4845
3SE4 A K 144;3SE4 A S 146;7.4772
3SE4 A K 144;3SE4 A S 147;12.8686
3SE4 A K 144;3SE4 A G 148;7.86858
3SE4 A K 144;3SE4 A V 149;17.1562
3SE4 A K 144;3SE4 A T 169;5.28492
3SE4 A K 144;3SE4 A T 170;4.06697
3SE4 A K 144;3SE4 A Y 171;17.328
3SE4 A N 145;3SE4 A S 146;33.9467
3SE4 A N 145;3SE4 A S 147;0.741254
3SE4 A N 145;3SE4 A G 148;5.91361
3SE4 A N 145;3SE4 A T 170;33.88
3SE4 A N 145;3SE4 A Y 171;0.502959
3SE4 A N 145;3SE4 A C 172;16.6298
3SE4 A N 145;3SE4 A C 193;0.268239
3SE4 A S 146;3SE4 A S 147;32.2771
3SE4 A S 146;3SE4 A G 148;5.75959
3SE4 A S 147;3SE4 A G 148;20.158
3SE4 A S 147;3SE4 A V 149;25.7039
3SE4 A G 148;3SE4 A V 149;18.498
3SE4 A G 148;3SE4 A E 150;12.5887
3SE4 A V 149;3SE4 A E 150;24.3878
3SE4 A V 149;3SE4 A E 151;5.87234
3SE4 A E 150;3SE4 A E 151;25.0483
3SE4 A E 150;3SE4 A R 152;5.38909
3SE4 A E 151;3SE4 A R 152;32.4575
3SE4 A E 151;3SE4 A I 153;18.9824
3SE4 A E 151;3SE4 A I 162;12.468
3SE4 A E 151;3SE4 A L 165;3.89914
3SE4 A R 152;3SE4 A I 153;29.7179
3SE4 A R 152;3SE4 A E 154;35.0703
3SE4 A R 152;3SE4 A K 176;5.6195
3SE4 A R 152;3SE4 A Y 188;2.87933
3SE4 A I 153;3SE4 A E 154;32.1482
3SE4 A I 153;3SE4 A I 156;15.45
3SE4 A I 153;3SE4 A H 160;17.6804
3SE4 A I 153;3SE4 A I 162;16.3007
3SE4 A E 154;3SE4 A N 155;40.213
3SE4 A E 154;3SE4 A I 156;7.53656
3SE4 A N 155;3SE4 A I 156;23.5782
3SE4 A N 155;3SE4 A Y 157;8.35296
3SE4 A N 155;3SE4 A A 178;2.84205
3SE4 A I 156;3SE4 A Y 157;35.3076
3SE4 A I 156;3SE4 A S 158;0.0646395
3SE4 A I 156;3SE4 A H 160;33.5229
3SE4 A I 156;3SE4 A V 175;2.54933
3SE4 A Y 157;3SE4 A S 158;23.4658
3SE4 A Y 157;3SE4 A R 159;13.2249
3SE4 A Y 157;3SE4 A H 160;5.4883
3SE4 A Y 157;3SE4 A K 240;18.6867
3SE4 A Y 157;3SE4 A R 241;35.5923
3SE4 A S 158;3SE4 A R 159;24.1067
3SE4 A S 158;3SE4 A H 160;1.01136
3SE4 A S 158;3SE4 A K 240;3.51506
3SE4 A S 158;3SE4 A R 241;12.6983
3SE4 A S 158;3SE4 A N 242;2.0587
3SE4 A S 158;3SE4 A P 243;18.2989
3SE4 A R 159;3SE4 A H 160;26.6108
3SE4 A R 159;3SE4 A L 239;2.52098
3SE4 A R 159;3SE4 A K 240;38.4707
3SE4 A R 159;3SE4 A N 242;12.038
3SE4 A R 159;3SE4 A P 243;9.75662
3SE4 A R 159;3SE4 A G 244;5.51544
3SE4 A R 159;3SE4 A N 245;8.81582
3SE4 A R 159;3SE4 A Y 248;38.2344
3SE4 A H 160;3SE4 A K 161;38.8917
3SE4 A H 160;3SE4 A I 162;10.0975
3SE4 A H 160;3SE4 A K 240;6.94537
3SE4 A K 161;3SE4 A I 162;23.5521
3SE4 A K 161;3SE4 A Y 163;42.1347
3SE4 A K 161;3SE4 A K 240;5.28083
3SE4 A K 161;3SE4 A R 279;2.19154
3SE4 A K 161;3SE4 A F 290;0.0625369
3SE4 A K 161;3SE4 A W 291;16.3474
3SE4 A K 161;3SE4 A S 292;1.91665
3SE4 A K 161;3SE4 A E 294;5.04324
3SE4 A I 162;3SE4 A Y 163;32.1883
3SE4 A I 162;3SE4 A L 165;18.4062
3SE4 A I 162;3SE4 A L 173;2.07777
3SE4 A Y 163;3SE4 A K 164;35.0397
3SE4 A Y 163;3SE4 A L 165;10.5652
3SE4 A Y 163;3SE4 A W 291;5.77314
3SE4 A Y 163;3SE4 A S 292;5.84811
3SE4 A Y 163;3SE4 A E 293;42.5095
3SE4 A Y 163;3SE4 A E 294;15.1425
3SE4 A K 164;3SE4 A L 165;28.5677
3SE4 A K 164;3SE4 A S 166;2.24857
3SE4 A L 165;3SE4 A S 166;24.2147
3SE4 A L 165;3SE4 A P 167;3.84878
3SE4 A L 165;3SE4 A Y 171;27.7027
3SE4 A L 165;3SE4 A T 196;8.13834
3SE4 A S 166;3SE4 A P 167;31.8578
3SE4 A S 166;3SE4 A T 169;12.8727
3SE4 A S 166;3SE4 A Y 171;18.6538
3SE4 A S 166;3SE4 A T 196;5.83201
3SE4 A P 167;3SE4 A E 168;29.959
3SE4 A P 167;3SE4 A T 169;7.29726
3SE4 A P 167;3SE4 A T 196;4.71557
3SE4 A P 167;3SE4 A T 197;4.68955
3SE4 A P 167;3SE4 A V 198;0.05681
3SE4 A P 167;3SE4 A E 199;24.9409
3SE4 A E 168;3SE4 A T 169;24.5897
3SE4 A E 168;3SE4 A T 170;0.25033
3SE4 A E 168;3SE4 A K 195;4.06563
3SE4 A E 168;3SE4 A T 196;16.7769
3SE4 A E 168;3SE4 A T 197;5.55343
3SE4 A E 168;3SE4 A V 198;28.6324
3SE4 A E 168;3SE4 A E 199;1.4926
3SE4 A T 169;3SE4 A T 170;25.9435
3SE4 A T 169;3SE4 A Y 171;22.3361
3SE4 A T 169;3SE4 A I 194;1.49685
3SE4 A T 169;3SE4 A K 195;5.89164
3SE4 A T 169;3SE4 A T 196;13.5953
3SE4 A T 170;3SE4 A Y 171;22.796
3SE4 A T 170;3SE4 A C 172;5.56902
3SE4 A T 170;3SE4 A C 193;11.9121
3SE4 A T 170;3SE4 A I 194;9.77196
3SE4 A T 170;3SE4 A K 195;17.0442
3SE4 A Y 171;3SE4 A C 172;21.213
3SE4 A Y 171;3SE4 A L 173;2.68818
3SE4 A Y 171;3SE4 A H 192;0.469857
3SE4 A Y 171;3SE4 A C 193;5.0749
3SE4 A Y 171;3SE4 A I 194;17.2052
3SE4 A Y 171;3SE4 A T 196;9.97876
3SE4 A C 172;3SE4 A L 173;20.3377
3SE4 A C 172;3SE4 A V 191;10.2763
3SE4 A C 172;3SE4 A H 192;5.31732
3SE4 A C 172;3SE4 A C 193;21.3452
3SE4 A L 173;3SE4 A K 174;22.8449
3SE4 A L 173;3SE4 A V 175;5.45455
3SE4 A L 173;3SE4 A S 189;0.296582
3SE4 A L 173;3SE4 A P 190;0.789072
3SE4 A L 173;3SE4 A V 191;10.2652
3SE4 A L 173;3SE4 A H 192;22.0384
3SE4 A K 174;3SE4 A V 175;17.749
3SE4 A K 174;3SE4 A Y 188;34.6128
3SE4 A K 174;3SE4 A S 189;15.2261
3SE4 A K 174;3SE4 A P 190;3.20397
3SE4 A K 174;3SE4 A V 191;20.9025
3SE4 A K 174;3SE4 A H 192;0.167876
3SE4 A V 175;3SE4 A K 176;21.4152
3SE4 A V 175;3SE4 A V 187;0.0141652
3SE4 A V 175;3SE4 A Y 188;12.675
3SE4 A V 175;3SE4 A S 189;19.9567
3SE4 A K 176;3SE4 A A 177;23.2595
3SE4 A K 176;3SE4 A A 178;3.22606
3SE4 A K 176;3SE4 A I 185;18.7468
3SE4 A K 176;3SE4 A G 186;13.0271
3SE4 A K 176;3SE4 A V 187;5.71692
3SE4 A K 176;3SE4 A Y 188;41.5609
3SE4 A A 177;3SE4 A A 178;25.2853
3SE4 A A 177;3SE4 A I 185;4.74795
3SE4 A A 177;3SE4 A G 186;10.6989
3SE4 A A 177;3SE4 A V 187;1.76405
3SE4 A A 178;3SE4 A L 179;27.3174
3SE4 A A 178;3SE4 A L 180;1.34039
3SE4 A A 178;3SE4 A K 184;2.38927
3SE4 A A 178;3SE4 A I 185;20.5035
3SE4 A L 179;3SE4 A L 180;26.6653
3SE4 A L 179;3SE4 A T 181;3.8536
3SE4 A L 179;3SE4 A S 182;18.6284
3SE4 A L 179;3SE4 A W 183;9.56936
3SE4 A L 179;3SE4 A K 184;21.1038
3SE4 A L 179;3SE4 A I 185;1.78618
3SE4 A L 180;3SE4 A T 181;26.7808
3SE4 A L 180;3SE4 A S 182;0.66702
3SE4 A L 180;3SE4 A W 183;17.5845
3SE4 A T 181;3SE4 A S 182;24.04
3SE4 A T 181;3SE4 A W 183;17.1113
3SE4 A S 182;3SE4 A W 183;26.2082
3SE4 A S 182;3SE4 A K 184;23.141
3SE4 A W 183;3SE4 A K 184;21.8224
3SE4 A W 183;3SE4 A I 185;15.6923
3SE4 A K 184;3SE4 A I 185;29.82
3SE4 A I 185;3SE4 A G 186;27.7749
3SE4 A G 186;3SE4 A V 187;22.8675
3SE4 A G 186;3SE4 A Y 188;0.662421
3SE4 A V 187;3SE4 A Y 188;29.6486
3SE4 A V 187;3SE4 A S 189;0.189034
3SE4 A Y 188;3SE4 A S 189;28.6542
3SE4 A Y 188;3SE4 A P 190;1.94932
3SE4 A S 189;3SE4 A P 190;36.0
3SE4 A S 189;3SE4 A V 191;1.00376
3SE4 A S 189;3SE4 A H 192;6.47944
3SE4 A P 190;3SE4 A V 191;30.765
3SE4 A P 190;3SE4 A H 192;22.8218
3SE4 A V 191;3SE4 A H 192;29.4411
3SE4 A V 191;3SE4 A C 193;8.60972
3SE4 A H 192;3SE4 A C 193;27.9227
3SE4 A C 193;3SE4 A I 194;28.1957
3SE4 A I 194;3SE4 A K 195;30.0798
3SE4 A I 194;3SE4 A T 196;4.55466
3SE4 A K 195;3SE4 A T 196;26.0724
3SE4 A K 195;3SE4 A T 197;6.00297
3SE4 A T 196;3SE4 A T 197;22.619
3SE4 A T 196;3SE4 A V 198;0.0474833
3SE4 A T 197;3SE4 A V 198;33.4443
3SE4 A T 197;3SE4 A E 199;2.02333
3SE4 A T 197;3SE4 A F 290;9.30938
3SE4 A V 198;3SE4 A E 199;34.3424
3SE4 A V 198;3SE4 A N 200;5.69298
3SE4 A E 199;3SE4 A N 200;31.0134
3SE4 A E 199;3SE4 A E 201;8.34633
3SE4 A E 199;3SE4 A P 203;1.16782
3SE4 A N 200;3SE4 A E 201;27.016
3SE4 A N 200;3SE4 A L 202;25.7281
3SE4 A N 200;3SE4 A P 203;8.54977
3SE4 A N 200;3SE4 A P 204;1.22305
3SE4 A N 200;3SE4 A N 287;2.19443
3SE4 A N 200;3SE4 A T 288;12.4327
3SE4 A N 200;3SE4 A S 289;5.74594
3SE4 A N 200;3SE4 A F 290;25.135
3SE4 A E 201;3SE4 A L 202;27.5729
3SE4 A E 201;3SE4 A P 203;11.0647
3SE4 A E 201;3SE4 A Y 225;11.8627
3SE4 A L 202;3SE4 A P 203;21.0816
3SE4 A L 202;3SE4 A P 204;3.70236
3SE4 A L 202;3SE4 A Y 223;13.3995
3SE4 A L 202;3SE4 A Y 225;5.68223
3SE4 A L 202;3SE4 A M 228;12.6174
3SE4 A L 202;3SE4 A A 282;6.77143
3SE4 A L 202;3SE4 A S 283;2.94041
3SE4 A L 202;3SE4 A D 284;17.5321
3SE4 A L 202;3SE4 A N 287;20.4001
3SE4 A L 202;3SE4 A T 288;6.32478
3SE4 A L 202;3SE4 A S 289;19.627
3SE4 A L 202;3SE4 A F 290;0.732569
3SE4 A P 203;3SE4 A P 204;34.534
3SE4 A P 203;3SE4 A P 205;0.222757
3SE4 A P 203;3SE4 A Y 223;19.2454
3SE4 A P 203;3SE4 A T 224;11.2635
3SE4 A P 203;3SE4 A Y 225;15.5925
3SE4 A P 203;3SE4 A A 282;0.320146
3SE4 A P 203;3SE4 A S 289;3.78907
3SE4 A P 204;3SE4 A P 205;28.9847
3SE4 A P 204;3SE4 A E 206;10.5027
3SE4 A P 204;3SE4 A D 222;0.186079
3SE4 A P 204;3SE4 A Y 223;5.83972
3SE4 A P 204;3SE4 A S 289;7.6868
3SE4 A P 204;3SE4 A F 290;21.0409
3SE4 A P 204;3SE4 A W 291;10.7167
3SE4 A P 204;3SE4 A S 292;6.24512
3SE4 A P 205;3SE4 A E 206;24.9533
3SE4 A P 205;3SE4 A I 208;0.924605
3SE4 A P 205;3SE4 A W 221;14.851
3SE4 A P 205;3SE4 A D 222;2.93093
3SE4 A P 205;3SE4 A Y 223;14.0506
3SE4 A P 205;3SE4 A F 230;6.99681
3SE4 A P 205;3SE4 A V 280;19.6915
3SE4 A P 205;3SE4 A Q 281;5.42037
3SE4 A P 205;3SE4 A A 282;11.9162
3SE4 A P 205;3SE4 A S 289;3.99973
3SE4 A P 205;3SE4 A F 290;2.0486
3SE4 A P 205;3SE4 A S 292;16.4908
3SE4 A E 206;3SE4 A N 207;40.1771
3SE4 A E 206;3SE4 A I 208;7.57921
3SE4 A E 206;3SE4 A W 221;8.50465
3SE4 A E 206;3SE4 A D 222;30.1284
3SE4 A E 206;3SE4 A T 224;9.39453
3SE4 A E 206;3SE4 A S 292;2.15228
3SE4 A E 206;3SE4 A E 293;0.78499
3SE4 A N 207;3SE4 A I 208;28.8951
3SE4 A N 207;3SE4 A E 209;7.7192
3SE4 A N 207;3SE4 A K 220;2.82101
3SE4 A N 207;3SE4 A W 221;7.4
3SE4 A N 207;3SE4 A D 222;24.0276
3SE4 A I 208;3SE4 A E 209;31.9466
3SE4 A I 208;3SE4 A V 210;3.40946
3SE4 A I 208;3SE4 A L 219;14.5525
3SE4 A I 208;3SE4 A K 220;5.35073
3SE4 A I 208;3SE4 A W 221;13.3899
3SE4 A I 208;3SE4 A L 278;7.28691
3SE4 A I 208;3SE4 A R 279;2.71606
3SE4 A I 208;3SE4 A V 280;13.7098
3SE4 A I 208;3SE4 A S 292;13.5825
3SE4 A I 208;3SE4 A E 293;12.9925
3SE4 A I 208;3SE4 A I 295;38.2121
3SE4 A E 209;3SE4 A V 210;26.2807
3SE4 A E 209;3SE4 A S 211;9.93551
3SE4 A E 209;3SE4 A V 218;2.47411
3SE4 A E 209;3SE4 A L 219;8.79436
3SE4 A E 209;3SE4 A K 220;24.5941
3SE4 A E 209;3SE4 A I 295;1.16569
3SE4 A V 210;3SE4 A S 211;32.528
3SE4 A V 210;3SE4 A Y 217;13.9218
3SE4 A V 210;3SE4 A V 218;5.72579
3SE4 A V 210;3SE4 A L 219;15.6062
3SE4 A V 210;3SE4 A F 266;1.97347
3SE4 A V 210;3SE4 A L 278;10.7405
3SE4 A V 210;3SE4 A I 295;11.3486
3SE4 A V 210;3SE4 A F 297;28.2198
3SE4 A V 210;3SE4 A I 301;6.89084
3SE4 A S 211;3SE4 A V 212;31.5763
3SE4 A S 211;3SE4 A Y 217;6.11901
3SE4 A S 211;3SE4 A V 218;30.7366
3SE4 A V 212;3SE4 A Q 213;31.002
3SE4 A V 212;3SE4 A N 214;11.9545
3SE4 A V 212;3SE4 A N 216;6.43313
3SE4 A V 212;3SE4 A Y 217;15.6117
3SE4 A V 212;3SE4 A V 218;3.16381
3SE4 A V 212;3SE4 A Q 268;18.3596
3SE4 A V 212;3SE4 A I 301;11.8051
3SE4 A V 212;3SE4 A Q 302;11.7212
3SE4 A Q 213;3SE4 A N 214;35.4566
3SE4 A Q 213;3SE4 A Q 215;0.783176
3SE4 A Q 213;3SE4 A N 216;23.8449
3SE4 A Q 213;3SE4 A V 218;15.5115
3SE4 A Q 213;3SE4 A V 265;0.93185
3SE4 A N 214;3SE4 A Q 215;27.9218
3SE4 A N 214;3SE4 A N 216;3.62318
3SE4 A N 214;3SE4 A Q 268;2.98286
3SE4 A Q 215;3SE4 A N 216;19.3821
3SE4 A Q 215;3SE4 A P 267;7.45148
3SE4 A Q 215;3SE4 A Q 268;29.3003
3SE4 A N 216;3SE4 A Y 217;19.274
3SE4 A N 216;3SE4 A V 218;1.50532
3SE4 A N 216;3SE4 A V 265;11.9745
3SE4 A N 216;3SE4 A F 266;7.46891
3SE4 A N 216;3SE4 A P 267;12.7566
3SE4 A N 216;3SE4 A Q 268;6.41346
3SE4 A Y 217;3SE4 A V 218;21.3126
3SE4 A Y 217;3SE4 A L 219;0.00684649
3SE4 A Y 217;3SE4 A C 264;0.359042
3SE4 A Y 217;3SE4 A V 265;8.55024
3SE4 A Y 217;3SE4 A F 266;38.9031
3SE4 A Y 217;3SE4 A P 267;1.99507
3SE4 A Y 217;3SE4 A Q 268;40.3367
3SE4 A Y 217;3SE4 A V 270;0.000783774
3SE4 A Y 217;3SE4 A F 271;12.2115
3SE4 A Y 217;3SE4 A F 297;21.9897
3SE4 A Y 217;3SE4 A T 299;20.1969
3SE4 A Y 217;3SE4 A I 301;6.45449
3SE4 A V 218;3SE4 A L 219;24.3866
3SE4 A V 218;3SE4 A K 220;1.89309
3SE4 A V 218;3SE4 A Q 263;0.934995
3SE4 A V 218;3SE4 A C 264;2.61139
3SE4 A V 218;3SE4 A V 265;18.2944
3SE4 A V 218;3SE4 A F 266;0.400529
3SE4 A L 219;3SE4 A K 220;21.381
3SE4 A L 219;3SE4 A W 221;17.0463
3SE4 A L 219;3SE4 A V 232;14.002
3SE4 A L 219;3SE4 A I 253;0.223444
3SE4 A L 219;3SE4 A C 256;2.29325
3SE4 A L 219;3SE4 A Q 263;5.94921
3SE4 A L 219;3SE4 A C 264;22.5767
3SE4 A L 219;3SE4 A V 265;0.0289829
3SE4 A L 219;3SE4 A F 266;17.413
3SE4 A L 219;3SE4 A L 278;17.5763
3SE4 A L 219;3SE4 A V 280;8.27444
3SE4 A K 220;3SE4 A W 221;28.6648
3SE4 A K 220;3SE4 A T 262;6.39476
3SE4 A K 220;3SE4 A Q 263;12.093
3SE4 A W 221;3SE4 A D 222;31.0292
3SE4 A W 221;3SE4 A Y 223;8.11158
3SE4 A W 221;3SE4 A F 230;21.6359
3SE4 A W 221;3SE4 A V 232;9.09797
3SE4 A W 221;3SE4 A V 259;7.22534
3SE4 A W 221;3SE4 A T 261;2.9794
3SE4 A W 221;3SE4 A T 262;30.8981
3SE4 A W 221;3SE4 A Q 263;9.51237
3SE4 A W 221;3SE4 A C 264;9.06045
3SE4 A W 221;3SE4 A V 280;21.8916
3SE4 A D 222;3SE4 A Y 223;29.2143
3SE4 A D 222;3SE4 A T 224;5.91716
3SE4 A D 222;3SE4 A T 262;0.294296
3SE4 A Y 223;3SE4 A T 224;37.2014
3SE4 A Y 223;3SE4 A Y 225;27.1875
3SE4 A Y 223;3SE4 A M 228;17.1142
3SE4 A Y 223;3SE4 A F 230;19.8921
3SE4 A Y 223;3SE4 A T 262;9.386
3SE4 A Y 223;3SE4 A A 282;14.5976
3SE4 A Y 223;3SE4 A S 289;1.29275
3SE4 A T 224;3SE4 A Y 225;46.1856
3SE4 A T 224;3SE4 A A 226;2.15988
3SE4 A Y 225;3SE4 A A 226;32.8978
3SE4 A Y 225;3SE4 A N 227;0.153702
3SE4 A Y 225;3SE4 A M 228;29.9634
3SE4 A Y 225;3SE4 A F 230;0.355598
3SE4 A A 226;3SE4 A N 227;37.4319
3SE4 A A 226;3SE4 A M 228;9.48247
3SE4 A N 227;3SE4 A M 228;35.9435
3SE4 A N 227;3SE4 A K 260;0.80552
3SE4 A N 227;3SE4 A D 284;4.83408
3SE4 A M 228;3SE4 A T 229;26.4157
3SE4 A M 228;3SE4 A F 230;19.7655
3SE4 A M 228;3SE4 A V 259;0.83294
3SE4 A M 228;3SE4 A K 260;17.3799
3SE4 A M 228;3SE4 A A 282;4.18732
3SE4 A M 228;3SE4 A S 283;6.51077
3SE4 A M 228;3SE4 A D 284;23.1196
3SE4 A T 229;3SE4 A F 230;24.4783
3SE4 A T 229;3SE4 A Q 231;0.0328161
3SE4 A T 229;3SE4 A N 258;23.5947
3SE4 A T 229;3SE4 A V 259;6.4311
3SE4 A T 229;3SE4 A K 260;14.4871
3SE4 A T 229;3SE4 A A 282;0.464334
3SE4 A T 229;3SE4 A S 283;29.0224
3SE4 A T 229;3SE4 A D 284;4.23361
3SE4 A T 229;3SE4 A G 285;5.80665
3SE4 A F 230;3SE4 A Q 231;22.7137
3SE4 A F 230;3SE4 A V 232;3.96913
3SE4 A F 230;3SE4 A C 256;3.37163
3SE4 A F 230;3SE4 A N 258;10.199
3SE4 A F 230;3SE4 A V 259;24.295
3SE4 A F 230;3SE4 A K 260;1.06222
3SE4 A F 230;3SE4 A T 261;9.63932
3SE4 A F 230;3SE4 A T 262;9.47532
3SE4 A F 230;3SE4 A V 280;7.82445
3SE4 A F 230;3SE4 A Q 281;8.11342
3SE4 A F 230;3SE4 A A 282;13.8722
3SE4 A F 230;3SE4 A S 283;0.194138
3SE4 A Q 231;3SE4 A V 232;23.3503
3SE4 A Q 231;3SE4 A Q 233;1.55568
3SE4 A Q 231;3SE4 A Q 252;16.5168
3SE4 A Q 231;3SE4 A C 256;2.67831
3SE4 A Q 231;3SE4 A E 257;0.424386
3SE4 A Q 231;3SE4 A N 258;13.8167
3SE4 A Q 231;3SE4 A V 280;3.99756
3SE4 A Q 231;3SE4 A Q 281;25.8228
3SE4 A Q 231;3SE4 A S 283;3.22711
3SE4 A Q 231;3SE4 A W 291;10.9872
3SE4 A V 232;3SE4 A Q 233;23.1338
3SE4 A V 232;3SE4 A Q 252;13.2975
3SE4 A V 232;3SE4 A I 253;20.5707
3SE4 A V 232;3SE4 A C 256;20.7338
3SE4 A V 232;3SE4 A V 259;2.4325
3SE4 A V 232;3SE4 A C 264;3.06782
3SE4 A V 232;3SE4 A L 278;8.36552
3SE4 A V 232;3SE4 A R 279;6.05743
3SE4 A V 232;3SE4 A V 280;18.9496
3SE4 A V 232;3SE4 A W 291;2.62432
3SE4 A Q 233;3SE4 A W 234;16.7737
3SE4 A Q 233;3SE4 A W 250;30.4325
3SE4 A Q 233;3SE4 A K 251;4.34223
3SE4 A Q 233;3SE4 A Q 252;21.8429
3SE4 A Q 233;3SE4 A I 253;5.16873
3SE4 A Q 233;3SE4 A L 278;8.95701
3SE4 A Q 233;3SE4 A R 279;29.4813
3SE4 A Q 233;3SE4 A W 291;26.7027
3SE4 A W 234;3SE4 A L 235;28.7515
3SE4 A W 234;3SE4 A H 236;23.7211
3SE4 A W 234;3SE4 A K 249;0.670982
3SE4 A W 234;3SE4 A W 250;15.2949
3SE4 A W 234;3SE4 A K 251;42.1752
3SE4 A W 234;3SE4 A Q 252;3.58402
3SE4 A W 234;3SE4 A I 253;16.6934
3SE4 A W 234;3SE4 A P 254;0.364836
3SE4 A W 234;3SE4 A V 270;0.64022
3SE4 A W 234;3SE4 A F 271;21.5675
3SE4 A W 234;3SE4 A Y 276;21.5439
3SE4 A W 234;3SE4 A L 277;5.98288
3SE4 A W 234;3SE4 A L 278;11.6915
3SE4 A L 235;3SE4 A H 236;30.0497
3SE4 A L 235;3SE4 A A 237;1.7192
3SE4 A L 235;3SE4 A L 239;18.7017
3SE4 A L 235;3SE4 A K 240;8.89255
3SE4 A L 235;3SE4 A Y 248;20.6474
3SE4 A L 235;3SE4 A K 249;14.5632
3SE4 A L 235;3SE4 A W 250;27.9371
3SE4 A L 235;3SE4 A Y 276;6.10984
3SE4 A L 235;3SE4 A L 277;22.0838
3SE4 A H 236;3SE4 A A 237;20.0253
3SE4 A H 236;3SE4 A F 238;19.2796
3SE4 A H 236;3SE4 A L 239;28.4936
3SE4 A H 236;3SE4 A K 240;1.67042
3SE4 A H 236;3SE4 A I 275;5.70555
3SE4 A H 236;3SE4 A Y 276;22.9017
3SE4 A H 236;3SE4 A L 277;2.56932
3SE4 A A 237;3SE4 A F 238;23.3543
3SE4 A A 237;3SE4 A L 239;2.22523
3SE4 A A 237;3SE4 A K 240;12.2375
3SE4 A A 237;3SE4 A I 275;28.9968
3SE4 A A 237;3SE4 A Y 276;5.69431
3SE4 A A 237;3SE4 A L 277;17.1851
3SE4 A A 237;3SE4 A K 296;0.0105898
3SE4 A F 238;3SE4 A L 239;38.4834
3SE4 A F 238;3SE4 A K 240;4.9441
3SE4 A F 238;3SE4 A R 241;14.988
3SE4 A F 238;3SE4 A N 242;0.378926
3SE4 A L 239;3SE4 A K 240;16.6864
3SE4 A L 239;3SE4 A R 241;2.33873
3SE4 A L 239;3SE4 A N 242;24.5886
3SE4 A L 239;3SE4 A Y 248;27.5924
3SE4 A L 239;3SE4 A K 249;0.152251
3SE4 A K 240;3SE4 A R 241;18.9308
3SE4 A K 240;3SE4 A N 242;2.42088
3SE4 A K 240;3SE4 A Y 248;19.3121
3SE4 A K 240;3SE4 A W 250;4.12042
3SE4 A K 240;3SE4 A L 277;16.7104
3SE4 A K 240;3SE4 A E 294;21.6307
3SE4 A R 241;3SE4 A N 242;21.9706
3SE4 A R 241;3SE4 A P 243;5.34974
3SE4 A N 242;3SE4 A P 243;22.0884
3SE4 A N 242;3SE4 A G 244;17.7485
3SE4 A N 242;3SE4 A N 245;5.21087
3SE4 A N 242;3SE4 A Y 248;11.8372
3SE4 A P 243;3SE4 A G 244;30.8563
3SE4 A G 244;3SE4 A N 245;37.2926
3SE4 A G 244;3SE4 A Y 248;1.42303
3SE4 A N 245;3SE4 A Y 248;29.5637
3SE4 A Y 248;3SE4 A K 249;34.5391
3SE4 A Y 248;3SE4 A W 250;19.8965
3SE4 A K 249;3SE4 A W 250;26.7416
3SE4 A K 249;3SE4 A K 251;14.7077
3SE4 A W 250;3SE4 A K 251;19.3262
3SE4 A W 250;3SE4 A Q 252;4.27683
3SE4 A W 250;3SE4 A L 277;12.0583
3SE4 A W 250;3SE4 A L 278;5.91948
3SE4 A W 250;3SE4 A R 279;41.7517
3SE4 A W 250;3SE4 A E 294;19.0949
3SE4 A K 251;3SE4 A Q 252;22.736
3SE4 A K 251;3SE4 A I 253;0.233175
3SE4 A Q 252;3SE4 A I 253;23.9748
3SE4 A Q 252;3SE4 A P 254;13.6416
3SE4 A Q 252;3SE4 A C 256;0.600125
3SE4 A Q 252;3SE4 A E 257;28.4424
3SE4 A Q 252;3SE4 A N 258;0.879465
3SE4 A I 253;3SE4 A P 254;28.5461
3SE4 A I 253;3SE4 A D 255;3.45284
3SE4 A I 253;3SE4 A C 256;21.31
3SE4 A I 253;3SE4 A E 257;3.56401
3SE4 A I 253;3SE4 A F 266;24.3555
3SE4 A I 253;3SE4 A V 270;11.4362
3SE4 A I 253;3SE4 A F 271;15.8212
3SE4 A I 253;3SE4 A L 278;5.5234
3SE4 A P 254;3SE4 A D 255;36.0678
3SE4 A P 254;3SE4 A C 256;1.7482
3SE4 A P 254;3SE4 A E 257;19.7566
3SE4 A P 254;3SE4 A V 270;18.1544
3SE4 A D 255;3SE4 A C 256;18.9455
3SE4 A D 255;3SE4 A E 257;9.52625
3SE4 A D 255;3SE4 A V 259;5.61527
3SE4 A D 255;3SE4 A C 264;6.13207
3SE4 A D 255;3SE4 A V 265;8.82581
3SE4 A D 255;3SE4 A F 266;16.6796
3SE4 A D 255;3SE4 A P 267;10.5393
3SE4 A D 255;3SE4 A V 270;5.31968
3SE4 A C 256;3SE4 A E 257;17.3108
3SE4 A C 256;3SE4 A N 258;2.82463
3SE4 A C 256;3SE4 A V 259;15.665
3SE4 A C 256;3SE4 A C 264;20.6964
3SE4 A C 256;3SE4 A F 266;11.6595
3SE4 A E 257;3SE4 A N 258;46.4041
3SE4 A E 257;3SE4 A V 259;4.80427
3SE4 A N 258;3SE4 A V 259;20.5409
3SE4 A N 258;3SE4 A K 260;3.80729
3SE4 A V 259;3SE4 A K 260;22.5147
3SE4 A V 259;3SE4 A T 261;14.7937
3SE4 A V 259;3SE4 A Q 263;8.32068
3SE4 A V 259;3SE4 A C 264;13.871
3SE4 A K 260;3SE4 A T 261;37.6935
3SE4 A T 261;3SE4 A T 262;23.9697
3SE4 A T 261;3SE4 A Q 263;21.9324
3SE4 A T 262;3SE4 A Q 263;21.8061
3SE4 A Q 263;3SE4 A C 264;24.2456
3SE4 A Q 263;3SE4 A V 265;6.76132
3SE4 A C 264;3SE4 A V 265;33.7536
3SE4 A C 264;3SE4 A F 266;7.84924
3SE4 A V 265;3SE4 A F 266;26.7091
3SE4 A F 266;3SE4 A P 267;28.5345
3SE4 A F 266;3SE4 A Q 268;0.0892213
3SE4 A F 266;3SE4 A V 270;10.6445
3SE4 A F 266;3SE4 A F 271;12.5476
3SE4 A F 266;3SE4 A L 278;6.20917
3SE4 A F 266;3SE4 A F 297;0.632985
3SE4 A P 267;3SE4 A Q 268;18.0824
3SE4 A P 267;3SE4 A N 269;24.7312
3SE4 A P 267;3SE4 A V 270;14.7829
3SE4 A P 267;3SE4 A F 271;0.0161311
3SE4 A Q 268;3SE4 A N 269;22.8905
3SE4 A Q 268;3SE4 A V 270;1.81753
3SE4 A Q 268;3SE4 A F 271;15.1873
3SE4 A Q 268;3SE4 A T 299;0.133311
3SE4 A N 269;3SE4 A V 270;32.3236
3SE4 A N 269;3SE4 A F 271;12.4835
3SE4 A N 269;3SE4 A Q 272;4.37555
3SE4 A V 270;3SE4 A F 271;35.7675
3SE4 A V 270;3SE4 A Q 272;2.93898
3SE4 A V 270;3SE4 A Y 276;0.0857727
3SE4 A F 271;3SE4 A Q 272;26.0727
3SE4 A F 271;3SE4 A Y 276;28.5261
3SE4 A F 271;3SE4 A L 278;11.5684
3SE4 A F 271;3SE4 A F 297;17.0984
3SE4 A F 271;3SE4 A T 299;12.2038
3SE4 A Q 272;3SE4 A K 273;32.1138
3SE4 A Q 272;3SE4 A G 274;0.16224
3SE4 A Q 272;3SE4 A Y 276;18.8231
3SE4 A Q 272;3SE4 A T 299;8.39432
3SE4 A K 273;3SE4 A G 274;27.3248
3SE4 A K 273;3SE4 A Y 276;7.41429
3SE4 A K 273;3SE4 A T 299;8.38803
3SE4 A K 273;3SE4 A E 300;13.4215
3SE4 A G 274;3SE4 A I 275;23.1057
3SE4 A G 274;3SE4 A Y 276;8.15977
3SE4 A G 274;3SE4 A F 297;0.588031
3SE4 A G 274;3SE4 A D 298;9.65813
3SE4 A G 274;3SE4 A T 299;15.3332
3SE4 A G 274;3SE4 A E 300;4.29036
3SE4 A I 275;3SE4 A Y 276;30.1117
3SE4 A I 275;3SE4 A L 277;1.29356
3SE4 A I 275;3SE4 A K 296;10.2644
3SE4 A I 275;3SE4 A F 297;12.7979
3SE4 A I 275;3SE4 A D 298;19.3563
3SE4 A Y 276;3SE4 A L 277;22.2509
3SE4 A Y 276;3SE4 A L 278;5.05361
3SE4 A Y 276;3SE4 A I 295;1.61666
3SE4 A Y 276;3SE4 A K 296;2.69409
3SE4 A Y 276;3SE4 A F 297;29.3611
3SE4 A Y 276;3SE4 A T 299;7.44754
3SE4 A L 277;3SE4 A L 278;22.8835
3SE4 A L 277;3SE4 A E 294;20.5382
3SE4 A L 277;3SE4 A I 295;10.9209
3SE4 A L 277;3SE4 A K 296;15.8183
3SE4 A L 277;3SE4 A F 297;0.0708712
3SE4 A L 278;3SE4 A R 279;22.5881
3SE4 A L 278;3SE4 A V 280;2.35561
3SE4 A L 278;3SE4 A E 293;2.58157
3SE4 A L 278;3SE4 A E 294;7.12231
3SE4 A L 278;3SE4 A I 295;25.3393
3SE4 A L 278;3SE4 A F 297;16.0631
3SE4 A R 279;3SE4 A V 280;19.8383
3SE4 A R 279;3SE4 A W 291;48.0205
3SE4 A R 279;3SE4 A S 292;13.7406
3SE4 A R 279;3SE4 A E 293;2.85353
3SE4 A R 279;3SE4 A E 294;15.2295
3SE4 A V 280;3SE4 A Q 281;18.6779
3SE4 A V 280;3SE4 A F 290;0.431998
3SE4 A V 280;3SE4 A W 291;11.5498
3SE4 A V 280;3SE4 A S 292;19.1655
3SE4 A Q 281;3SE4 A A 282;21.2183
3SE4 A Q 281;3SE4 A S 283;8.74709
3SE4 A Q 281;3SE4 A T 288;14.9004
3SE4 A Q 281;3SE4 A S 289;14.9925
3SE4 A Q 281;3SE4 A F 290;9.44457
3SE4 A Q 281;3SE4 A W 291;40.3826
3SE4 A A 282;3SE4 A S 283;20.4549
3SE4 A A 282;3SE4 A T 288;3.70067
3SE4 A A 282;3SE4 A S 289;18.4127
3SE4 A S 283;3SE4 A D 284;18.2805
3SE4 A S 283;3SE4 A G 285;11.3881
3SE4 A S 283;3SE4 A N 287;4.76057
3SE4 A S 283;3SE4 A T 288;15.3842
3SE4 A D 284;3SE4 A G 285;22.4279
3SE4 A D 284;3SE4 A N 286;17.4552
3SE4 A D 284;3SE4 A N 287;15.9575
3SE4 A G 285;3SE4 A N 286;29.9001
3SE4 A G 285;3SE4 A N 287;1.7629
3SE4 A N 286;3SE4 A N 287;36.518
3SE4 A N 286;3SE4 A T 288;0.954292
3SE4 A N 287;3SE4 A T 288;28.505
3SE4 A T 288;3SE4 A S 289;23.1862
3SE4 A T 288;3SE4 A F 290;1.52463
3SE4 A S 289;3SE4 A F 290;27.939
3SE4 A F 290;3SE4 A W 291;29.9622
3SE4 A F 290;3SE4 A S 292;0.130435
3SE4 A W 291;3SE4 A S 292;28.4349
3SE4 A W 291;3SE4 A E 293;0.107332
3SE4 A S 292;3SE4 A E 293;28.1809
3SE4 A S 292;3SE4 A E 294;3.9858
3SE4 A E 293;3SE4 A E 294;25.5903
3SE4 A E 293;3SE4 A I 295;7.9466
3SE4 A E 294;3SE4 A I 295;28.3801
3SE4 A E 294;3SE4 A K 296;1.52238
3SE4 A I 295;3SE4 A K 296;32.8195
3SE4 A I 295;3SE4 A F 297;7.33331
3SE4 A K 296;3SE4 A F 297;24.0742
3SE4 A K 296;3SE4 A D 298;0.969336
3SE4 A F 297;3SE4 A D 298;31.1669
3SE4 A F 297;3SE4 A T 299;15.4434
3SE4 A F 297;3SE4 A I 301;9.93623
3SE4 A D 298;3SE4 A T 299;17.88
3SE4 A D 298;3SE4 A E 300;30.0125
3SE4 A D 298;3SE4 A I 301;17.4306
3SE4 A T 299;3SE4 A E 300;32.0044
3SE4 A T 299;3SE4 A I 301;9.33725
3SE4 A E 300;3SE4 A I 301;20.5996
3SE4 A E 300;3SE4 A Q 302;7.88598
3SE4 A I 301;3SE4 A Q 302;29.9726
