V1;V2;Weight
4U6H A Q 1;4U6H A V 2;33.7807
4U6H A Q 1;4U6H A Q 3;11.2024
4U6H A Q 1;4U6H A S 25;3.24526
4U6H A Q 1;4U6H A G 26;25.7115
4U6H A V 2;4U6H A Q 3;31.8795
4U6H A V 2;4U6H A L 4;8.04792
4U6H A V 2;4U6H A S 25;3.34688
4U6H A V 2;4U6H A G 26;7.38581
4U6H A V 2;4U6H A Y 27;19.8002
4U6H A V 2;4U6H A R 98;15.1929
4U6H A V 2;4U6H A Y 108;37.7874
4U6H A Q 3;4U6H A L 4;35.0092
4U6H A Q 3;4U6H A Q 5;26.2465
4U6H A Q 3;4U6H A K 23;3.68086
4U6H A Q 3;4U6H A S 24;4.96536
4U6H A Q 3;4U6H A S 25;30.819
4U6H A Q 3;4U6H A Y 27;1.55136
4U6H A L 4;4U6H A Q 5;19.8414
4U6H A L 4;4U6H A Q 6;2.50146
4U6H A L 4;4U6H A C 22;9.78543
4U6H A L 4;4U6H A K 23;3.64797
4U6H A L 4;4U6H A S 24;10.1005
4U6H A L 4;4U6H A Y 27;7.06903
4U6H A L 4;4U6H A M 34;11.2031
4U6H A L 4;4U6H A C 96;13.3197
4U6H A L 4;4U6H A A 97;2.98179
4U6H A L 4;4U6H A R 98;11.4496
4U6H A L 4;4U6H A Y 108;12.2531
4U6H A L 4;4U6H A W 109;9.07559
4U6H A L 4;4U6H A G 110;16.4002
4U6H A L 4;4U6H A Q 111;7.83886
4U6H A Q 5;4U6H A Q 6;29.7986
4U6H A Q 5;4U6H A S 7;0.40499
4U6H A Q 5;4U6H A S 21;0.874101
4U6H A Q 5;4U6H A C 22;6.27371
4U6H A Q 5;4U6H A K 23;30.9757
4U6H A Q 5;4U6H A Q 111;19.8485
4U6H A Q 6;4U6H A S 7;29.3196
4U6H A Q 6;4U6H A G 8;0.493527
4U6H A Q 6;4U6H A M 20;2.54989
4U6H A Q 6;4U6H A S 21;7.71027
4U6H A Q 6;4U6H A C 22;8.91004
4U6H A Q 6;4U6H A W 36;7.98502
4U6H A Q 6;4U6H A Y 94;6.39781
4U6H A Q 6;4U6H A Y 95;7.8816
4U6H A Q 6;4U6H A C 96;17.4384
4U6H A Q 6;4U6H A G 110;10.8059
4U6H A Q 6;4U6H A Q 111;25.1164
4U6H A Q 6;4U6H A G 112;13.4936
4U6H A Q 6;4U6H A T 113;14.0682
4U6H A S 7;4U6H A G 8;37.0918
4U6H A S 7;4U6H A A 9;0.0481883
4U6H A S 7;4U6H A E 10;7.62622
4U6H A S 7;4U6H A M 20;8.99059
4U6H A S 7;4U6H A S 21;26.5397
4U6H A S 7;4U6H A Q 111;2.9656
4U6H A S 7;4U6H A G 112;4.56859
4U6H A S 7;4U6H A T 113;19.5638
4U6H A G 8;4U6H A A 9;31.0203
4U6H A G 8;4U6H A E 10;7.81469
4U6H A G 8;4U6H A T 113;7.82439
4U6H A A 9;4U6H A E 10;29.8218
4U6H A A 9;4U6H A T 113;2.93096
4U6H A A 9;4U6H A L 114;25.6802
4U6H A A 9;4U6H A T 116;1.02458
4U6H A A 9;4U6H A E 154;7.7538
4U6H A A 9;4U6H A P 155;17.8306
4U6H A E 10;4U6H A L 11;26.5956
4U6H A E 10;4U6H A V 12;13.4613
4U6H A E 10;4U6H A L 18;25.0505
4U6H A E 10;4U6H A R 19;10.6214
4U6H A E 10;4U6H A M 20;7.19443
4U6H A E 10;4U6H A T 113;6.846
4U6H A E 10;4U6H A L 114;9.6302
4U6H A E 10;4U6H A V 115;10.368
4U6H A E 10;4U6H A T 116;13.4264
4U6H A E 10;4U6H A P 153;0.271867
4U6H A L 11;4U6H A V 12;35.1738
4U6H A L 11;4U6H A K 13;7.94805
4U6H A L 11;4U6H A T 116;18.1595
4U6H A L 11;4U6H A S 118;15.2598
4U6H A L 11;4U6H A A 120;8.40821
4U6H A L 11;4U6H A K 121;0.0146691
4U6H A L 11;4U6H A T 122;16.1505
4U6H A L 11;4U6H A F 152;12.7656
4U6H A L 11;4U6H A P 153;25.7332
4U6H A V 12;4U6H A K 13;32.679
4U6H A V 12;4U6H A T 14;0.0882462
4U6H A V 12;4U6H A A 16;12.3899
4U6H A V 12;4U6H A S 17;10.4233
4U6H A V 12;4U6H A L 18;16.4961
4U6H A V 12;4U6H A L 86;13.8286
4U6H A V 12;4U6H A V 115;0.949232
4U6H A V 12;4U6H A T 116;8.4183
4U6H A V 12;4U6H A V 117;9.22074
4U6H A V 12;4U6H A S 118;7.50944
4U6H A K 13;4U6H A T 14;28.1056
4U6H A K 13;4U6H A G 15;0.305253
4U6H A K 13;4U6H A A 16;19.0925
4U6H A K 13;4U6H A L 86;6.35915
4U6H A K 13;4U6H A V 117;2.50228
4U6H A K 13;4U6H A S 118;9.68831
4U6H A K 13;4U6H A A 119;22.3694
4U6H A K 13;4U6H A A 120;5.67484
4U6H A K 13;4U6H A K 121;1.98037
4U6H A T 14;4U6H A G 15;23.6591
4U6H A T 14;4U6H A A 16;5.53286
4U6H A T 14;4U6H A L 86;7.30778
4U6H A T 14;4U6H A T 87;5.92918
4U6H A T 14;4U6H A S 88;4.00022
4U6H A T 14;4U6H A V 117;17.0819
4U6H A T 14;4U6H A S 118;6.34392
4U6H A T 14;4U6H A A 119;16.3781
4U6H A G 15;4U6H A A 16;25.4556
4U6H A G 15;4U6H A S 17;1.55243
4U6H A G 15;4U6H A S 85;16.0732
4U6H A G 15;4U6H A L 86;13.37
4U6H A A 16;4U6H A S 17;29.5506
4U6H A A 16;4U6H A I 84;0.906319
4U6H A A 16;4U6H A S 85;5.55049
4U6H A A 16;4U6H A L 86;14.6599
4U6H A S 17;4U6H A L 18;26.8684
4U6H A S 17;4U6H A Q 82;9.80608
4U6H A S 17;4U6H A L 83;8.13315
4U6H A S 17;4U6H A I 84;16.6602
4U6H A S 17;4U6H A S 85;2.57164
4U6H A S 17;4U6H A L 86;6.7408
4U6H A L 18;4U6H A R 19;28.0936
4U6H A L 18;4U6H A M 20;16.5879
4U6H A L 18;4U6H A M 81;2.63425
4U6H A L 18;4U6H A Q 82;9.38947
4U6H A L 18;4U6H A L 83;27.1438
4U6H A L 18;4U6H A L 86;15.0418
4U6H A L 18;4U6H A T 113;0.140317
4U6H A L 18;4U6H A V 115;17.1133
4U6H A R 19;4U6H A M 20;23.5949
4U6H A R 19;4U6H A S 21;2.01473
4U6H A R 19;4U6H A T 71;5.00185
4U6H A R 19;4U6H A Y 80;47.634
4U6H A R 19;4U6H A M 81;7.36804
4U6H A R 19;4U6H A Q 82;21.1538
4U6H A M 20;4U6H A S 21;24.2783
4U6H A M 20;4U6H A W 36;15.5706
4U6H A M 20;4U6H A Y 80;8.65693
4U6H A M 20;4U6H A M 81;30.2296
4U6H A M 20;4U6H A L 83;8.26127
4U6H A M 20;4U6H A Y 94;14.274
4U6H A M 20;4U6H A T 113;21.6252
4U6H A M 20;4U6H A V 115;9.2485
4U6H A S 21;4U6H A C 22;22.1702
4U6H A S 21;4U6H A K 23;1.06532
4U6H A S 21;4U6H A W 36;5.6035
4U6H A S 21;4U6H A T 78;6.69669
4U6H A S 21;4U6H A A 79;4.13488
4U6H A S 21;4U6H A Y 80;20.4375
4U6H A S 21;4U6H A T 113;1.62608
4U6H A C 22;4U6H A K 23;20.8717
4U6H A C 22;4U6H A S 24;4.81429
4U6H A C 22;4U6H A F 29;0.0706004
4U6H A C 22;4U6H A M 34;10.943
4U6H A C 22;4U6H A W 36;8.93013
4U6H A C 22;4U6H A T 77;0.0220868
4U6H A C 22;4U6H A T 78;8.22012
4U6H A C 22;4U6H A A 79;20.6059
4U6H A C 22;4U6H A C 96;18.5
4U6H A K 23;4U6H A S 24;25.1053
4U6H A K 23;4U6H A S 25;9.81971
4U6H A K 23;4U6H A S 76;17.3901
4U6H A K 23;4U6H A T 77;12.645
4U6H A K 23;4U6H A T 78;23.4246
4U6H A S 24;4U6H A S 25;28.1796
4U6H A S 24;4U6H A Y 27;14.5569
4U6H A S 24;4U6H A F 29;11.8356
4U6H A S 24;4U6H A M 34;6.80629
4U6H A S 24;4U6H A T 77;26.8014
4U6H A S 24;4U6H A T 78;0.181964
4U6H A S 25;4U6H A G 26;26.1428
4U6H A S 25;4U6H A Y 27;16.2809
4U6H A S 25;4U6H A T 77;0.234583
4U6H A G 26;4U6H A Y 27;31.9716
4U6H A Y 27;4U6H A T 28;35.7336
4U6H A Y 27;4U6H A F 29;25.0932
4U6H A Y 27;4U6H A F 32;18.8983
4U6H A Y 27;4U6H A M 34;9.79807
4U6H A Y 27;4U6H A P 53;0.147431
4U6H A Y 27;4U6H A T 77;0.429518
4U6H A Y 27;4U6H A R 98;30.0002
4U6H A T 28;4U6H A F 29;19.9109
4U6H A T 28;4U6H A T 30;14.7038
4U6H A T 28;4U6H A R 31;33.5643
4U6H A T 28;4U6H A F 32;6.93167
4U6H A F 29;4U6H A T 30;26.6826
4U6H A F 29;4U6H A R 31;2.22044
4U6H A F 29;4U6H A F 32;7.47089
4U6H A F 29;4U6H A M 34;8.85704
4U6H A F 29;4U6H A P 53;28.5642
4U6H A F 29;4U6H A A 72;8.34048
4U6H A F 29;4U6H A D 73;6.24646
4U6H A F 29;4U6H A R 74;17.1512
4U6H A F 29;4U6H A T 77;31.8271
4U6H A F 29;4U6H A T 78;9.85073
4U6H A F 29;4U6H A A 79;7.72268
4U6H A T 30;4U6H A R 31;16.5347
4U6H A T 30;4U6H A F 32;2.25427
4U6H A T 30;4U6H A N 52;1.4493
4U6H A T 30;4U6H A P 53;8.93175
4U6H A T 30;4U6H A S 54;20.7044
4U6H A T 30;4U6H A R 74;24.1455
4U6H A R 31;4U6H A F 32;47.3002
4U6H A R 31;4U6H A W 33;2.76897
4U6H A R 31;4U6H A Q 101;0.301521
4U6H A F 32;4U6H A W 33;25.6551
4U6H A F 32;4U6H A M 34;1.02395
4U6H A F 32;4U6H A P 53;11.5561
4U6H A F 32;4U6H A R 98;37.1009
4U6H A F 32;4U6H A S 99;11.4745
4U6H A F 32;4U6H A D 100;6.21849
4U6H A F 32;4U6H A Q 101;15.3544
4U6H A W 33;4U6H A M 34;21.0961
4U6H A W 33;4U6H A H 35;6.91225
4U6H A W 33;4U6H A Y 50;15.0297
4U6H A W 33;4U6H A I 51;6.75695
4U6H A W 33;4U6H A N 52;17.6195
4U6H A W 33;4U6H A P 53;5.50688
4U6H A W 33;4U6H A A 97;0.0517375
4U6H A W 33;4U6H A R 98;7.41711
4U6H A W 33;4U6H A S 99;23.1539
4U6H A W 33;4U6H A D 100;3.33359
4U6H A W 33;4U6H A Q 101;9.7806
4U6H A W 33;4U6H A T 102;0.41049
4U6H A W 33;4U6H A N 103;27.8948
4U6H A M 34;4U6H A H 35;22.873
4U6H A M 34;4U6H A W 36;10.4118
4U6H A M 34;4U6H A Y 50;5.80956
4U6H A M 34;4U6H A I 51;24.78
4U6H A M 34;4U6H A P 53;11.5469
4U6H A M 34;4U6H A L 70;0.429454
4U6H A M 34;4U6H A A 79;16.7717
4U6H A M 34;4U6H A C 96;7.89665
4U6H A M 34;4U6H A A 97;10.2105
4U6H A M 34;4U6H A R 98;11.1392
4U6H A M 34;4U6H A S 99;0.00238965
4U6H A H 35;4U6H A W 36;24.4826
4U6H A H 35;4U6H A I 37;6.15388
4U6H A H 35;4U6H A W 47;14.0057
4U6H A H 35;4U6H A G 49;4.98859
4U6H A H 35;4U6H A Y 50;24.1275
4U6H A H 35;4U6H A Y 95;0.359019
4U6H A H 35;4U6H A C 96;4.78622
4U6H A H 35;4U6H A A 97;21.1878
4U6H A H 35;4U6H A R 98;0.0728299
4U6H A H 35;4U6H A S 99;10.2651
4U6H A H 35;4U6H A N 103;13.3675
4U6H A H 35;4U6H A L 105;0.286354
4U6H A H 35;4U6H A F 106;22.0682
4U6H A H 35;4U6H B W 101;13.2495
4U6H A W 36;4U6H A I 37;22.381
4U6H A W 36;4U6H A W 47;5.90856
4U6H A W 36;4U6H A I 48;20.8527
4U6H A W 36;4U6H A G 49;12.1853
4U6H A W 36;4U6H A Y 50;0.0341065
4U6H A W 36;4U6H A I 51;6.01852
4U6H A W 36;4U6H A L 70;19.6933
4U6H A W 36;4U6H A A 79;13.536
4U6H A W 36;4U6H A Y 80;9.32172
4U6H A W 36;4U6H A M 81;27.3443
4U6H A W 36;4U6H A Y 94;3.83904
4U6H A W 36;4U6H A Y 95;13.0098
4U6H A W 36;4U6H A C 96;17.0563
4U6H A I 37;4U6H A K 38;21.0025
4U6H A I 37;4U6H A Q 39;0.447744
4U6H A I 37;4U6H A L 45;12.48
4U6H A I 37;4U6H A E 46;9.86951
4U6H A I 37;4U6H A W 47;11.1989
4U6H A I 37;4U6H A I 48;8.73212
4U6H A I 37;4U6H A V 93;0.862633
4U6H A I 37;4U6H A Y 94;5.19591
4U6H A I 37;4U6H A Y 95;30.9975
4U6H A I 37;4U6H A C 96;0.0766849
4U6H A I 37;4U6H A A 97;11.5966
4U6H A I 37;4U6H A F 106;12.2481
4U6H A I 37;4U6H A W 109;19.1457
4U6H A I 37;4U6H B F 103;12.1752
4U6H A K 38;4U6H A Q 39;18.6523
4U6H A K 38;4U6H A S 40;17.7184
4U6H A K 38;4U6H A Q 43;2.02359
4U6H A K 38;4U6H A G 44;3.19118
4U6H A K 38;4U6H A L 45;5.5703
4U6H A K 38;4U6H A E 46;32.0782
4U6H A K 38;4U6H A I 48;10.37
4U6H A K 38;4U6H A K 63;5.80776
4U6H A K 38;4U6H A F 64;20.1141
4U6H A K 38;4U6H A G 89;15.0975
4U6H A K 38;4U6H A D 90;9.70858
4U6H A K 38;4U6H A S 91;0.0671417
4U6H A K 38;4U6H A A 92;12.5558
4U6H A K 38;4U6H A V 93;3.9266
4U6H A K 38;4U6H A Y 94;25.5246
4U6H A K 38;4U6H A Y 95;0.0951334
4U6H A Q 39;4U6H A S 40;27.6462
4U6H A Q 39;4U6H A P 41;1.41684
4U6H A Q 39;4U6H A G 44;6.93998
4U6H A Q 39;4U6H A L 45;25.2897
4U6H A Q 39;4U6H A A 92;6.15706
4U6H A Q 39;4U6H A V 93;31.5934
4U6H A Q 39;4U6H A Y 95;19.7859
4U6H A Q 39;4U6H B Q 43;23.2471
4U6H A Q 39;4U6H B P 49;0.651413
4U6H A Q 39;4U6H B F 92;7.24859
4U6H A S 40;4U6H A P 41;33.2179
4U6H A S 40;4U6H A G 42;4.21322
4U6H A S 40;4U6H A Q 43;25.1304
4U6H A S 40;4U6H A G 44;11.9676
4U6H A S 40;4U6H A E 46;4.79497
4U6H A S 40;4U6H A G 89;2.87126
4U6H A S 40;4U6H A S 91;2.9405
4U6H A S 40;4U6H A A 92;10.2264
4U6H A P 41;4U6H A G 42;34.9688
4U6H A P 41;4U6H A Q 43;4.1294
4U6H A P 41;4U6H A G 44;0.325708
4U6H A P 41;4U6H A S 91;9.97445
4U6H A P 41;4U6H A A 92;4.25614
4U6H A G 42;4U6H A Q 43;35.9363
4U6H A G 42;4U6H A G 44;1.05702
4U6H A Q 43;4U6H A G 44;30.8
4U6H A Q 43;4U6H A E 46;22.0986
4U6H A Q 43;4U6H A K 63;11.5044
4U6H A G 44;4U6H A L 45;26.9942
4U6H A G 44;4U6H A E 46;7.84881
4U6H A G 44;4U6H B F 92;1.52222
4U6H A G 44;4U6H B G 104;2.1726
4U6H A G 44;4U6H B G 105;5.51227
4U6H A L 45;4U6H A E 46;24.7534
4U6H A L 45;4U6H A Y 95;5.63923
4U6H A L 45;4U6H A W 109;6.50195
4U6H A L 45;4U6H B S 41;0.00134269
4U6H A L 45;4U6H B Q 43;0.0335181
4U6H A L 45;4U6H B P 49;13.4963
4U6H A L 45;4U6H B F 92;25.8965
4U6H A L 45;4U6H B T 102;0.948445
4U6H A L 45;4U6H B F 103;43.8541
4U6H A L 45;4U6H B G 104;3.2107
4U6H A E 46;4U6H A W 47;24.6618
4U6H A E 46;4U6H A I 48;3.7564
4U6H A E 46;4U6H A N 61;1.49899
4U6H A E 46;4U6H A K 63;20.5266
4U6H A E 46;4U6H A F 64;18.4886
4U6H A E 46;4U6H B T 102;0.0737147
4U6H A E 46;4U6H B F 103;1.9057
4U6H A W 47;4U6H A I 48;21.5175
4U6H A W 47;4U6H A G 49;17.5781
4U6H A W 47;4U6H A Y 50;14.8347
4U6H A W 47;4U6H A E 59;8.66372
4U6H A W 47;4U6H A Y 60;7.45245
4U6H A W 47;4U6H A N 61;26.376
4U6H A W 47;4U6H A F 64;6.09277
4U6H A W 47;4U6H A F 106;10.7868
4U6H A W 47;4U6H B D 99;13.3263
4U6H A W 47;4U6H B P 100;13.1557
4U6H A W 47;4U6H B W 101;45.1681
4U6H A W 47;4U6H B T 102;0.167964
4U6H A W 47;4U6H B F 103;11.9596
4U6H A I 48;4U6H A G 49;21.5739
4U6H A I 48;4U6H A Y 60;9.03347
4U6H A I 48;4U6H A N 61;12.0271
4U6H A I 48;4U6H A F 64;30.4597
4U6H A I 48;4U6H A A 68;12.3702
4U6H A I 48;4U6H A L 70;5.73788
4U6H A I 48;4U6H A M 81;15.1334
4U6H A I 48;4U6H A L 83;1.08247
4U6H A I 48;4U6H A Y 94;11.1388
4U6H A G 49;4U6H A Y 50;15.6025
4U6H A G 49;4U6H A E 59;5.6574
4U6H A G 49;4U6H A Y 60;6.70098
4U6H A G 49;4U6H A N 61;0.600671
4U6H A G 49;4U6H A L 70;10.6663
4U6H A Y 50;4U6H A I 51;21.5775
4U6H A Y 50;4U6H A N 52;1.92583
4U6H A Y 50;4U6H A Y 57;13.577
4U6H A Y 50;4U6H A T 58;9.59608
4U6H A Y 50;4U6H A E 59;40.2979
4U6H A Y 50;4U6H A L 70;10.2851
4U6H A Y 50;4U6H A N 103;13.4868
4U6H A Y 50;4U6H B D 99;0.0766066
4U6H A Y 50;4U6H B W 101;0.0574057
4U6H A I 51;4U6H A N 52;19.7817
4U6H A I 51;4U6H A P 53;12.2096
4U6H A I 51;4U6H A G 56;13.6643
4U6H A I 51;4U6H A Y 57;4.83142
4U6H A I 51;4U6H A T 58;14.7868
4U6H A I 51;4U6H A L 70;19.5403
4U6H A I 51;4U6H A T 71;14.2766
4U6H A I 51;4U6H A A 72;15.7654
4U6H A I 51;4U6H A A 79;6.72229
4U6H A I 51;4U6H A Y 80;0.207598
4U6H A N 52;4U6H A P 53;23.532
4U6H A N 52;4U6H A S 54;10.4951
4U6H A N 52;4U6H A T 55;17.8117
4U6H A N 52;4U6H A G 56;9.47409
4U6H A N 52;4U6H A Y 57;15.9648
4U6H A P 53;4U6H A S 54;21.3893
4U6H A P 53;4U6H A T 55;0.168504
4U6H A P 53;4U6H A G 56;5.97578
4U6H A P 53;4U6H A A 72;17.2687
4U6H A P 53;4U6H A R 74;13.7153
4U6H A P 53;4U6H A A 79;0.985266
4U6H A S 54;4U6H A T 55;28.6972
4U6H A S 54;4U6H A G 56;2.15855
4U6H A S 54;4U6H A R 74;21.7543
4U6H A T 55;4U6H A G 56;20.4071
4U6H A T 55;4U6H A Y 57;17.7841
4U6H A G 56;4U6H A Y 57;16.7515
4U6H A G 56;4U6H A T 58;11.5748
4U6H A G 56;4U6H A A 72;1.51964
4U6H A Y 57;4U6H A T 58;34.3822
4U6H A Y 57;4U6H A E 59;17.6465
4U6H A T 58;4U6H A E 59;26.3322
4U6H A T 58;4U6H A Y 60;25.2557
4U6H A T 58;4U6H A L 70;14.8896
4U6H A E 59;4U6H A Y 60;32.6068
4U6H A E 59;4U6H A L 70;1.16902
4U6H A E 59;4U6H B D 99;10.1557
4U6H A Y 60;4U6H A N 61;26.0182
4U6H A Y 60;4U6H A Q 62;4.89302
4U6H A Y 60;4U6H A F 64;5.77191
4U6H A Y 60;4U6H A K 65;18.2754
4U6H A Y 60;4U6H A A 68;15.6804
4U6H A Y 60;4U6H A T 69;15.085
4U6H A Y 60;4U6H A L 70;25.5198
4U6H A N 61;4U6H A Q 62;26.9803
4U6H A N 61;4U6H A K 63;18.3872
4U6H A N 61;4U6H A F 64;20.5895
4U6H A N 61;4U6H A K 65;7.82152
4U6H A N 61;4U6H B D 1;1.40097
4U6H A N 61;4U6H B P 100;25.8327
4U6H A N 61;4U6H B W 101;2.16231
4U6H A N 61;4U6H B T 102;0.0633163
4U6H A Q 62;4U6H A K 63;25.3105
4U6H A Q 62;4U6H A F 64;1.4327
4U6H A Q 62;4U6H A K 65;44.5733
4U6H A Q 62;4U6H B D 1;6.80632
4U6H A Q 62;4U6H B P 100;4.19883
4U6H A K 63;4U6H A F 64;42.8764
4U6H A K 63;4U6H A K 65;1.75677
4U6H A K 63;4U6H A D 66;1.02547
4U6H A K 63;4U6H A K 67;4.25572
4U6H A F 64;4U6H A K 65;18.5752
4U6H A F 64;4U6H A D 66;2.45617
4U6H A F 64;4U6H A K 67;27.2218
4U6H A F 64;4U6H A A 68;17.3385
4U6H A F 64;4U6H A L 83;1.55077
4U6H A F 64;4U6H A D 90;0.260307
4U6H A F 64;4U6H A Y 94;4.61008
4U6H A K 65;4U6H A D 66;53.8742
4U6H A K 65;4U6H A K 67;0.404947
4U6H A K 65;4U6H A A 68;8.86058
4U6H A K 65;4U6H A T 69;0.848531
4U6H A D 66;4U6H A K 67;27.4632
4U6H A D 66;4U6H A A 68;1.61289
4U6H A D 66;4U6H A T 69;0.116712
4U6H A D 66;4U6H A I 84;17.3425
4U6H A K 67;4U6H A A 68;22.0262
4U6H A K 67;4U6H A T 69;0.103395
4U6H A K 67;4U6H A Q 82;2.45015
4U6H A K 67;4U6H A L 83;21.0428
4U6H A K 67;4U6H A I 84;29.6498
4U6H A K 67;4U6H A S 85;12.7499
4U6H A K 67;4U6H A L 86;3.50955
4U6H A K 67;4U6H A T 87;5.67248
4U6H A K 67;4U6H A D 90;26.9791
4U6H A K 67;4U6H A Y 94;1.6224
4U6H A A 68;4U6H A T 69;24.4616
4U6H A A 68;4U6H A L 70;3.68251
4U6H A A 68;4U6H A M 81;9.3556
4U6H A A 68;4U6H A Q 82;4.61861
4U6H A A 68;4U6H A L 83;9.15534
4U6H A A 68;4U6H A I 84;0.384476
4U6H A T 69;4U6H A L 70;25.0465
4U6H A T 69;4U6H A T 71;14.8099
4U6H A T 69;4U6H A Y 80;0.69852
4U6H A T 69;4U6H A M 81;6.3948
4U6H A T 69;4U6H A Q 82;35.0655
4U6H A T 69;4U6H A I 84;13.1017
4U6H A L 70;4U6H A T 71;25.6122
4U6H A L 70;4U6H A Y 80;8.00169
4U6H A L 70;4U6H A M 81;15.0397
4U6H A T 71;4U6H A A 72;25.8927
4U6H A T 71;4U6H A A 79;5.25458
4U6H A T 71;4U6H A Y 80;34.0692
4U6H A A 72;4U6H A D 73;24.9526
4U6H A A 72;4U6H A R 74;5.29278
4U6H A A 72;4U6H A T 78;3.09628
4U6H A A 72;4U6H A A 79;9.54581
4U6H A A 72;4U6H A Y 80;5.09985
4U6H A D 73;4U6H A R 74;20.6754
4U6H A D 73;4U6H A S 75;22.8467
4U6H A D 73;4U6H A S 76;20.1255
4U6H A D 73;4U6H A T 77;4.80346
4U6H A D 73;4U6H A T 78;17.0108
4U6H A D 73;4U6H A Y 80;17.5497
4U6H A R 74;4U6H A S 75;28.9843
4U6H A R 74;4U6H A S 76;1.1869
4U6H A R 74;4U6H A T 77;14.361
4U6H A S 75;4U6H A S 76;24.9402
4U6H A S 75;4U6H A T 77;4.58125
4U6H A S 76;4U6H A T 77;21.2008
4U6H A S 76;4U6H A T 78;22.1981
4U6H A S 76;4U6H A Y 80;5.17608
4U6H A T 77;4U6H A T 78;15.7923
4U6H A T 78;4U6H A A 79;20.1102
4U6H A T 78;4U6H A Y 80;19.7772
4U6H A A 79;4U6H A Y 80;23.3427
4U6H A Y 80;4U6H A M 81;19.0524
4U6H A Y 80;4U6H A Q 82;0.491545
4U6H A M 81;4U6H A Q 82;21.7178
4U6H A M 81;4U6H A L 83;17.666
4U6H A M 81;4U6H A Y 94;12.0444
4U6H A Q 82;4U6H A L 83;22.7698
4U6H A Q 82;4U6H A I 84;20.3146
4U6H A L 83;4U6H A I 84;20.2199
4U6H A L 83;4U6H A L 86;18.4402
4U6H A L 83;4U6H A D 90;3.20661
4U6H A L 83;4U6H A Y 94;22.3032
4U6H A L 83;4U6H A V 115;7.59598
4U6H A I 84;4U6H A S 85;35.6668
4U6H A I 84;4U6H A L 86;7.31188
4U6H A S 85;4U6H A L 86;17.4456
4U6H A S 85;4U6H A T 87;11.2875
4U6H A S 85;4U6H A D 90;0.343662
4U6H A L 86;4U6H A T 87;20.3559
4U6H A L 86;4U6H A D 90;14.7354
4U6H A L 86;4U6H A V 115;4.4576
4U6H A L 86;4U6H A V 117;20.7213
4U6H A T 87;4U6H A S 88;23.1824
4U6H A T 87;4U6H A G 89;12.4116
4U6H A T 87;4U6H A D 90;22.7416
4U6H A T 87;4U6H A S 91;1.13849
4U6H A T 87;4U6H A V 117;13.967
4U6H A S 88;4U6H A G 89;26.816
4U6H A S 88;4U6H A D 90;1.75734
4U6H A S 88;4U6H A S 91;19.167
4U6H A S 88;4U6H A V 117;13.3096
4U6H A G 89;4U6H A D 90;19.7887
4U6H A G 89;4U6H A S 91;6.54838
4U6H A G 89;4U6H A A 92;0.00140661
4U6H A D 90;4U6H A S 91;17.0869
4U6H A D 90;4U6H A A 92;5.37568
4U6H A D 90;4U6H A Y 94;20.3781
4U6H A D 90;4U6H A V 115;6.83146
4U6H A D 90;4U6H A V 117;6.6806
4U6H A S 91;4U6H A A 92;22.3313
4U6H A S 91;4U6H A V 115;11.644
4U6H A S 91;4U6H A T 116;8.9611
4U6H A S 91;4U6H A V 117;20.4758
4U6H A A 92;4U6H A V 93;22.2543
4U6H A A 92;4U6H A Y 94;13.0862
4U6H A A 92;4U6H A T 113;1.41111
4U6H A A 92;4U6H A L 114;9.13226
4U6H A A 92;4U6H A V 115;16.4339
4U6H A V 93;4U6H A Y 94;22.8055
4U6H A V 93;4U6H A Y 95;20.5983
4U6H A V 93;4U6H A Q 111;1.49894
4U6H A V 93;4U6H A G 112;10.125
4U6H A V 93;4U6H A T 113;7.50866
4U6H A V 93;4U6H A L 114;22.1744
4U6H A Y 94;4U6H A Y 95;19.7883
4U6H A Y 94;4U6H A G 112;4.00978
4U6H A Y 94;4U6H A T 113;17.8619
4U6H A Y 94;4U6H A V 115;12.9534
4U6H A Y 95;4U6H A C 96;20.2923
4U6H A Y 95;4U6H A A 97;0.916823
4U6H A Y 95;4U6H A W 109;19.601
4U6H A Y 95;4U6H A G 110;8.58782
4U6H A Y 95;4U6H A Q 111;9.08468
4U6H A Y 95;4U6H A G 112;8.90415
4U6H A Y 95;4U6H B Q 43;5.98953
4U6H A Y 95;4U6H B G 46;0.798661
4U6H A Y 95;4U6H B Q 47;6.62309
4U6H A Y 95;4U6H B S 48;13.6567
4U6H A Y 95;4U6H B P 49;8.51339
4U6H A C 96;4U6H A A 97;18.7755
4U6H A C 96;4U6H A W 109;3.6331
4U6H A C 96;4U6H A G 110;11.0758
4U6H A A 97;4U6H A R 98;18.4641
4U6H A A 97;4U6H A S 99;0.786831
4U6H A A 97;4U6H A F 106;13.8767
4U6H A A 97;4U6H A Y 108;6.42369
4U6H A A 97;4U6H A W 109;13.0603
4U6H A R 98;4U6H A S 99;30.1847
4U6H A R 98;4U6H A D 100;4.56944
4U6H A R 98;4U6H A Q 101;0.0335781
4U6H A R 98;4U6H A L 105;0.000810381
4U6H A R 98;4U6H A F 106;7.80111
4U6H A R 98;4U6H A P 107;9.19134
4U6H A R 98;4U6H A Y 108;38.8411
4U6H A S 99;4U6H A D 100;23.8335
4U6H A S 99;4U6H A N 103;11.1085
4U6H A S 99;4U6H A L 105;8.32011
4U6H A S 99;4U6H A F 106;2.35618
4U6H A S 99;4U6H A P 107;5.9458
4U6H A S 99;4U6H A Y 108;0.0513576
4U6H A D 100;4U6H A Q 101;26.3918
4U6H A D 100;4U6H A T 102;20.3975
4U6H A D 100;4U6H A N 103;10.5797
4U6H A D 100;4U6H A Y 104;3.07531
4U6H A D 100;4U6H A L 105;34.1681
4U6H A D 100;4U6H A P 107;16.9182
4U6H A Q 101;4U6H A T 102;27.231
4U6H A Q 101;4U6H A N 103;1.59277
4U6H A T 102;4U6H A N 103;19.3452
4U6H A T 102;4U6H A Y 104;21.7984
4U6H A T 102;4U6H A L 105;3.49584
4U6H A T 102;4U6H B Y 37;2.67024
4U6H A T 102;4U6H B K 55;2.50983
4U6H A N 103;4U6H A Y 104;18.4548
4U6H A N 103;4U6H A L 105;1.67779
4U6H A N 103;4U6H B W 101;10.063
4U6H A Y 104;4U6H A L 105;29.1376
4U6H A Y 104;4U6H B H 31;17.9949
4U6H A Y 104;4U6H B N 33;3.10296
4U6H A Y 104;4U6H B Y 37;39.0322
4U6H A Y 104;4U6H B H 39;5.82868
4U6H A Y 104;4U6H B S 96;26.9769
4U6H A Y 104;4U6H B T 97;1.85849
4U6H A Y 104;4U6H B W 101;15.5366
4U6H A L 105;4U6H A F 106;26.5566
4U6H A L 105;4U6H A P 107;9.44429
4U6H A L 105;4U6H B Y 37;2.3356
4U6H A L 105;4U6H B H 39;16.0309
4U6H A L 105;4U6H B L 51;15.2435
4U6H A L 105;4U6H B Y 54;27.1627
4U6H A L 105;4U6H B K 55;7.20777
4U6H A L 105;4U6H B F 60;3.80279
4U6H A L 105;4U6H B W 101;8.46954
4U6H A F 106;4U6H A P 107;20.1638
4U6H A F 106;4U6H A Y 108;3.09635
4U6H A F 106;4U6H A W 109;29.7332
4U6H A F 106;4U6H B L 51;15.345
4U6H A F 106;4U6H B W 101;26.3535
4U6H A F 106;4U6H B F 103;12.6788
4U6H A P 107;4U6H A Y 108;43.6167
4U6H A P 107;4U6H A W 109;6.66096
4U6H A P 107;4U6H B P 49;0.000634378
4U6H A P 107;4U6H B N 50;5.75491
4U6H A P 107;4U6H B L 51;16.2372
4U6H A P 107;4U6H B F 60;26.261
4U6H A Y 108;4U6H A W 109;26.3135
4U6H A Y 108;4U6H B F 60;12.665
4U6H A Y 108;4U6H B S 61;0.255617
4U6H A W 109;4U6H A G 110;24.8534
4U6H A W 109;4U6H A Q 111;0.234426
4U6H A W 109;4U6H B S 41;6.90114
4U6H A W 109;4U6H B S 48;17.2193
4U6H A W 109;4U6H B P 49;41.908
4U6H A W 109;4U6H B N 50;2.66567
4U6H A W 109;4U6H B L 51;3.59106
4U6H A W 109;4U6H B F 103;14.5219
4U6H A G 110;4U6H A Q 111;20.5145
4U6H A G 110;4U6H A G 112;1.96857
4U6H A G 110;4U6H B S 48;8.04007
4U6H A Q 111;4U6H A G 112;32.7385
4U6H A Q 111;4U6H B G 46;4.59215
4U6H A Q 111;4U6H B Q 47;0.577274
4U6H A Q 111;4U6H B S 48;10.4975
4U6H A G 112;4U6H A T 113;19.6975
4U6H A G 112;4U6H A L 114;3.31039
4U6H A T 113;4U6H A L 114;25.4273
4U6H A T 113;4U6H A V 115;9.50525
4U6H A L 114;4U6H A V 115;28.6472
4U6H A L 114;4U6H A T 116;12.0804
4U6H A L 114;4U6H A E 154;20.0877
4U6H A L 114;4U6H A P 155;9.55061
4U6H A V 115;4U6H A T 116;26.7106
4U6H A V 115;4U6H A V 117;10.0992
4U6H A T 116;4U6H A V 117;22.3685
4U6H A T 116;4U6H A S 118;8.43881
4U6H A T 116;4U6H A F 152;10.4165
4U6H A T 116;4U6H A P 153;11.5877
4U6H A T 116;4U6H A E 154;9.00775
4U6H A T 116;4U6H A Y 181;11.2044
4U6H A V 117;4U6H A S 118;24.8427
4U6H A S 118;4U6H A A 119;21.0912
4U6H A S 118;4U6H A A 120;20.8299
4U6H A S 118;4U6H A F 152;12.5864
4U6H A S 118;4U6H A D 179;5.17335
4U6H A A 119;4U6H A A 120;27.3534
4U6H A A 119;4U6H A K 121;5.26523
4U6H A A 120;4U6H A K 121;29.8273
4U6H A A 120;4U6H A T 122;0.610966
4U6H A A 120;4U6H A F 152;18.6388
4U6H A A 120;4U6H A D 179;24.7488
4U6H A K 121;4U6H A T 122;31.2724
4U6H A K 121;4U6H A T 123;15.9232
4U6H A K 121;4U6H A F 152;9.72232
4U6H A K 121;4U6H A D 179;1.50377
4U6H A T 122;4U6H A T 123;25.6627
4U6H A T 122;4U6H A F 152;10.3153
4U6H A T 122;4U6H A P 153;9.40189
4U6H A T 122;4U6H A H 205;2.4708
4U6H A T 122;4U6H A A 207;11.9124
4U6H A T 122;4U6H A S 208;15.709
4U6H A T 123;4U6H A A 124;32.0498
4U6H A T 123;4U6H A P 125;0.291915
4U6H A T 123;4U6H A G 150;7.87876
4U6H A T 123;4U6H A Y 151;7.83684
4U6H A T 123;4U6H A F 152;18.2272
4U6H A T 123;4U6H A D 179;0.23213
4U6H A T 123;4U6H A L 180;18.8816
4U6H A T 123;4U6H A H 205;5.45438
4U6H A T 123;4U6H A S 208;3.90061
4U6H A A 124;4U6H A P 125;32.7695
4U6H A A 124;4U6H A S 126;2.28452
4U6H A A 124;4U6H A K 149;0.0517907
4U6H A A 124;4U6H A G 150;7.77179
4U6H A A 124;4U6H A Y 151;2.66399
4U6H A A 124;4U6H A H 205;1.2299
4U6H A A 124;4U6H A S 208;15.5102
4U6H A A 124;4U6H A T 210;15.795
4U6H A P 125;4U6H A S 126;29.3882
4U6H A P 125;4U6H A V 127;8.99369
4U6H A P 125;4U6H A V 148;11.6831
4U6H A P 125;4U6H A K 149;6.25285
4U6H A P 125;4U6H A G 150;1.78676
4U6H A P 125;4U6H A Y 151;15.9374
4U6H A P 125;4U6H A V 156;4.13169
4U6H A P 125;4U6H A V 203;8.15648
4U6H A P 125;4U6H A A 204;0.548056
4U6H A P 125;4U6H A H 205;16.6261
4U6H A P 125;4U6H A S 208;0.927991
4U6H A P 125;4U6H A T 210;10.8725
4U6H A P 125;4U6H A V 212;7.03226
4U6H A S 126;4U6H A V 127;24.5907
4U6H A S 126;4U6H A Y 128;30.1038
4U6H A S 126;4U6H A L 147;2.64253
4U6H A S 126;4U6H A V 148;4.06583
4U6H A S 126;4U6H A K 149;24.8014
4U6H A S 126;4U6H A G 150;0.447019
4U6H A V 127;4U6H A Y 128;27.6856
4U6H A V 127;4U6H A P 129;3.56178
4U6H A V 127;4U6H A C 146;9.73972
4U6H A V 127;4U6H A L 147;5.66503
4U6H A V 127;4U6H A V 148;7.45048
4U6H A V 127;4U6H A C 201;3.76232
4U6H A V 127;4U6H A V 203;21.5528
4U6H A V 127;4U6H A V 212;21.6612
4U6H A V 127;4U6H A K 214;29.861
4U6H A V 127;4U6H B E 128;1.35324
4U6H A Y 128;4U6H A P 129;24.0378
4U6H A Y 128;4U6H A L 130;9.64485
4U6H A Y 128;4U6H A C 146;5.90277
4U6H A Y 128;4U6H A L 147;30.5583
4U6H A Y 128;4U6H A K 149;16.0402
4U6H A Y 128;4U6H B S 126;10.8224
4U6H A Y 128;4U6H B E 128;12.5564
4U6H A Y 128;4U6H B Q 129;34.4062
4U6H A Y 128;4U6H B S 132;18.5928
4U6H A P 129;4U6H A L 130;21.7348
4U6H A P 129;4U6H A A 131;3.89207
4U6H A P 129;4U6H A G 145;1.72302
4U6H A P 129;4U6H A C 146;6.37833
4U6H A P 129;4U6H A C 201;0.752077
4U6H A P 129;4U6H A K 214;18.5401
4U6H A P 129;4U6H A K 215;10.9576
4U6H A P 129;4U6H A I 216;17.2184
4U6H A P 129;4U6H A E 217;0.325212
4U6H A P 129;4U6H A R 219;4.17659
4U6H A P 129;4U6H B S 126;18.5727
4U6H A P 129;4U6H B E 128;23.6606
4U6H A L 130;4U6H A A 131;17.5144
4U6H A L 130;4U6H A L 144;4.13345
4U6H A L 130;4U6H A G 145;21.9679
4U6H A L 130;4U6H A C 146;9.9795
4U6H A L 130;4U6H A L 147;16.5516
4U6H A L 130;4U6H A S 184;2.02416
4U6H A L 130;4U6H A I 216;7.37171
4U6H A L 130;4U6H A R 219;6.00245
4U6H A L 130;4U6H B F 123;27.4228
4U6H A L 130;4U6H B P 124;5.06583
4U6H A L 130;4U6H B P 125;2.48022
4U6H A L 130;4U6H B S 126;8.29825
4U6H A L 130;4U6H B Q 129;2.37316
4U6H A L 130;4U6H B S 136;2.58546
4U6H A L 130;4U6H B V 138;20.2909
4U6H A L 130;4U6H B F 140;7.59744
4U6H A A 131;4U6H A P 132;27.8268
4U6H A A 131;4U6H A L 144;3.32184
4U6H A A 131;4U6H A W 194;4.52175
4U6H A A 131;4U6H A I 216;12.9715
4U6H A A 131;4U6H A E 217;11.0172
4U6H A A 131;4U6H A P 218;1.41884
4U6H A A 131;4U6H A R 219;29.4148
4U6H A A 131;4U6H B F 123;11.3053
4U6H A A 131;4U6H B P 124;1.15319
4U6H A P 132;4U6H A V 133;37.2742
4U6H A P 132;4U6H A V 142;15.8243
4U6H A P 132;4U6H A T 143;7.28028
4U6H A P 132;4U6H A L 144;8.32438
4U6H A P 132;4U6H A W 194;15.0934
4U6H A P 132;4U6H A P 218;0.0213846
4U6H A P 132;4U6H A R 219;16.3198
4U6H A P 132;4U6H B I 122;3.6461
4U6H A P 132;4U6H B F 123;11.0152
4U6H A P 132;4U6H B P 124;1.50878
4U6H A V 133;4U6H A C 134;27.7961
4U6H A V 133;4U6H A G 135;24.9683
4U6H A V 133;4U6H A R 219;7.11416
4U6H A V 133;4U6H B I 122;16.3753
4U6H A V 133;4U6H B P 124;16.7992
4U6H A V 133;4U6H B S 213;2.4889
4U6H A V 133;4U6H B F 214;15.802
4U6H A C 134;4U6H A G 135;31.7768
4U6H A C 134;4U6H A R 219;42.6466
4U6H A C 134;4U6H B N 217;3.05099
4U6H A G 135;4U6H A T 138;26.1923
4U6H A T 138;4U6H A G 139;43.5356
4U6H A T 138;4U6H A V 142;2.92635
4U6H A T 138;4U6H A S 191;5.04096
4U6H A G 139;4U6H A S 140;29.2516
4U6H A G 139;4U6H A S 141;2.80199
4U6H A G 139;4U6H A S 191;12.0459
4U6H A S 140;4U6H A S 141;31.8545
4U6H A S 140;4U6H A T 190;10.8337
4U6H A S 140;4U6H A S 191;17.0043
4U6H A S 141;4U6H A V 142;23.8139
4U6H A S 141;4U6H A T 143;5.88548
4U6H A S 141;4U6H A T 188;16.7666
4U6H A S 141;4U6H A V 189;7.79534
4U6H A S 141;4U6H A T 190;10.0471
4U6H A S 141;4U6H A S 191;6.15431
4U6H A V 142;4U6H A T 143;28.7423
4U6H A V 142;4U6H A L 144;10.9582
4U6H A V 142;4U6H A V 187;0.650937
4U6H A V 142;4U6H A T 188;6.46185
4U6H A V 142;4U6H A V 189;22.07
4U6H A V 142;4U6H A T 190;1.64605
4U6H A V 142;4U6H A S 191;18.0597
4U6H A V 142;4U6H A W 194;27.3536
4U6H A T 143;4U6H A L 144;26.435
4U6H A T 143;4U6H A S 186;7.43803
4U6H A T 143;4U6H A V 187;8.49158
4U6H A T 143;4U6H A T 188;22.0551
4U6H A T 143;4U6H B T 119;1.82774
4U6H A T 143;4U6H B S 121;21.4975
4U6H A T 143;4U6H B F 123;16.83
4U6H A T 143;4U6H B F 140;5.51473
4U6H A T 143;4U6H B N 142;6.96
4U6H A L 144;4U6H A G 145;18.4464
4U6H A L 144;4U6H A W 160;3.4938
4U6H A L 144;4U6H A S 186;5.57731
4U6H A L 144;4U6H A V 187;26.8949
4U6H A L 144;4U6H A V 189;6.33988
4U6H A L 144;4U6H A W 194;24.4377
4U6H A L 144;4U6H A I 199;14.3481
4U6H A L 144;4U6H A I 216;20.7929
4U6H A L 144;4U6H B F 123;5.90663
4U6H A L 144;4U6H B F 140;0.837607
4U6H A G 145;4U6H A C 146;17.8609
4U6H A G 145;4U6H A W 160;6.58663
4U6H A G 145;4U6H A S 185;4.79496
4U6H A G 145;4U6H A S 186;1.82031
4U6H A G 145;4U6H A I 216;10.0516
4U6H A G 145;4U6H B F 123;4.56304
4U6H A G 145;4U6H B F 140;8.8755
4U6H A C 146;4U6H A L 147;19.7135
4U6H A C 146;4U6H A V 148;6.67068
4U6H A C 146;4U6H A L 158;7.71093
4U6H A C 146;4U6H A W 160;8.76869
4U6H A C 146;4U6H A L 183;0.0863243
4U6H A C 146;4U6H A S 184;8.4889
4U6H A C 146;4U6H A S 185;14.6025
4U6H A C 146;4U6H A C 201;20.0937
4U6H A C 146;4U6H A V 203;2.17173
4U6H A C 146;4U6H A K 214;1.17785
4U6H A C 146;4U6H A I 216;1.0533
4U6H A C 146;4U6H B F 140;1.6453
4U6H A L 147;4U6H A V 148;23.1602
4U6H A L 147;4U6H A K 149;17.7881
4U6H A L 147;4U6H A T 182;11.0981
4U6H A L 147;4U6H A L 183;6.47508
4U6H A L 147;4U6H A S 184;12.3382
4U6H A L 147;4U6H B Q 129;7.33538
4U6H A L 147;4U6H B S 136;10.3365
4U6H A L 147;4U6H B V 138;14.2898
4U6H A L 147;4U6H B T 183;13.1471
4U6H A V 148;4U6H A K 149;19.2324
4U6H A V 148;4U6H A G 150;0.118612
4U6H A V 148;4U6H A Y 151;14.1457
4U6H A V 148;4U6H A V 156;8.74622
4U6H A V 148;4U6H A L 158;7.10597
4U6H A V 148;4U6H A Y 181;0.557259
4U6H A V 148;4U6H A T 182;6.83452
4U6H A V 148;4U6H A L 183;30.5247
4U6H A V 148;4U6H A S 184;0.551346
4U6H A V 148;4U6H A V 203;19.2105
4U6H A K 149;4U6H A G 150;30.6544
4U6H A K 149;4U6H A Y 151;3.34266
4U6H A K 149;4U6H A Y 181;0.000492734
4U6H A K 149;4U6H A T 182;25.4414
4U6H A K 149;4U6H B Q 129;2.82418
4U6H A K 149;4U6H B S 136;9.74808
4U6H A K 149;4U6H B L 165;1.05885
4U6H A K 149;4U6H B T 183;4.77276
4U6H A K 149;4U6H B T 185;21.8116
4U6H A G 150;4U6H A Y 151;16.1873
4U6H A G 150;4U6H A L 180;23.115
4U6H A G 150;4U6H A Y 181;7.9224
4U6H A G 150;4U6H A T 182;5.80717
4U6H A Y 151;4U6H A F 152;22.0822
4U6H A Y 151;4U6H A P 153;6.69851
4U6H A Y 151;4U6H A E 154;14.128
4U6H A Y 151;4U6H A P 155;2.00188
4U6H A Y 151;4U6H A V 156;22.418
4U6H A Y 151;4U6H A A 174;8.54356
4U6H A Y 151;4U6H A L 180;8.65402
4U6H A Y 151;4U6H A Y 181;37.0185
4U6H A Y 151;4U6H A T 182;3.6493
4U6H A Y 151;4U6H A L 183;12.2142
4U6H A Y 151;4U6H A H 205;10.2208
4U6H A F 152;4U6H A P 153;33.5104
4U6H A F 152;4U6H A L 176;10.0755
4U6H A F 152;4U6H A D 179;18.6733
4U6H A F 152;4U6H A L 180;6.24067
4U6H A F 152;4U6H A Y 181;17.0112
4U6H A F 152;4U6H A H 205;8.09254
4U6H A P 153;4U6H A E 154;33.4082
4U6H A P 153;4U6H A P 155;1.75513
4U6H A P 153;4U6H A Y 181;5.21983
4U6H A P 153;4U6H A H 205;10.0734
4U6H A P 153;4U6H A A 207;17.1627
4U6H A E 154;4U6H A P 155;36.7828
4U6H A E 154;4U6H A V 156;4.11945
4U6H A E 154;4U6H A A 174;15.6642
4U6H A E 154;4U6H A Y 181;31.4064
4U6H A E 154;4U6H A L 183;1.24608
4U6H A E 154;4U6H A A 207;3.95154
4U6H A P 155;4U6H A V 156;30.7321
4U6H A P 155;4U6H A T 157;7.20484
4U6H A P 155;4U6H A H 205;9.12459
4U6H A P 155;4U6H A P 206;13.5406
4U6H A P 155;4U6H A A 207;4.85581
4U6H A V 156;4U6H A T 157;32.0357
4U6H A V 156;4U6H A L 158;3.82553
4U6H A V 156;4U6H A L 183;22.61
4U6H A V 156;4U6H A V 203;9.03331
4U6H A V 156;4U6H A A 204;9.58372
4U6H A V 156;4U6H A H 205;13.1494
4U6H A V 156;4U6H A P 206;2.18054
4U6H A T 157;4U6H A L 158;27.1916
4U6H A T 157;4U6H A T 159;6.7593
4U6H A T 157;4U6H A N 202;4.98918
4U6H A T 157;4U6H A V 203;5.06488
4U6H A T 157;4U6H A A 204;27.2728
4U6H A T 157;4U6H A P 206;11.5656
4U6H A L 158;4U6H A T 159;37.741
4U6H A L 158;4U6H A W 160;14.5114
4U6H A L 158;4U6H A T 171;22.2868
4U6H A L 158;4U6H A L 183;13.829
4U6H A L 158;4U6H A S 184;0.874677
4U6H A L 158;4U6H A S 185;15.5876
4U6H A L 158;4U6H A C 201;10.7693
4U6H A L 158;4U6H A N 202;6.76891
4U6H A L 158;4U6H A V 203;12.7041
4U6H A T 159;4U6H A W 160;27.4414
4U6H A T 159;4U6H A S 162;11.026
4U6H A T 159;4U6H A G 163;17.674
4U6H A T 159;4U6H A T 200;0.647371
4U6H A T 159;4U6H A C 201;3.42106
4U6H A T 159;4U6H A N 202;31.3202
4U6H A W 160;4U6H A N 161;20.083
4U6H A W 160;4U6H A S 162;1.44355
4U6H A W 160;4U6H A G 163;8.87461
4U6H A W 160;4U6H A S 164;2.60821
4U6H A W 160;4U6H A L 165;31.0798
4U6H A W 160;4U6H A V 169;16.9993
4U6H A W 160;4U6H A T 171;0.123365
4U6H A W 160;4U6H A S 185;16.0585
4U6H A W 160;4U6H A S 186;4.16287
4U6H A W 160;4U6H A V 187;23.478
4U6H A W 160;4U6H A I 199;13.8617
4U6H A W 160;4U6H A T 200;12.316
4U6H A W 160;4U6H A C 201;13.991
4U6H A W 160;4U6H A N 202;1.58652
4U6H A W 160;4U6H A I 216;11.8135
4U6H A N 161;4U6H A S 162;26.0251
4U6H A N 161;4U6H A G 163;1.76254
4U6H A N 161;4U6H A S 164;24.5239
4U6H A N 161;4U6H A L 165;12.5972
4U6H A N 161;4U6H A Q 197;1.21311
4U6H A N 161;4U6H A S 198;8.81253
4U6H A N 161;4U6H A I 199;16.0969
4U6H A N 161;4U6H A T 200;23.3706
4U6H A N 161;4U6H A N 202;7.05447
4U6H A S 162;4U6H A G 163;21.4342
4U6H A S 162;4U6H A S 164;4.69373
4U6H A S 162;4U6H A N 202;18.9593
4U6H A G 163;4U6H A S 164;23.8867
4U6H A G 163;4U6H A L 165;5.76632
4U6H A G 163;4U6H A S 166;12.2941
4U6H A S 164;4U6H A L 165;26.3303
4U6H A S 164;4U6H A S 166;12.3018
4U6H A L 165;4U6H A S 166;24.0149
4U6H A L 165;4U6H A S 167;13.9256
4U6H A L 165;4U6H A V 169;8.10997
4U6H A L 165;4U6H A V 187;16.4421
4U6H A L 165;4U6H A V 189;20.2653
4U6H A L 165;4U6H A I 199;19.3634
4U6H A S 166;4U6H A S 167;33.0313
4U6H A S 166;4U6H A G 168;0.11059
4U6H A S 166;4U6H A V 169;20.776
4U6H A S 167;4U6H A G 168;28.4206
4U6H A S 167;4U6H A V 169;6.74206
4U6H A S 167;4U6H A V 187;3.588
4U6H A S 167;4U6H A T 188;2.62515
4U6H A S 167;4U6H A V 189;1.71721
4U6H A S 167;4U6H B K 174;13.8685
4U6H A G 168;4U6H A V 169;23.9741
4U6H A G 168;4U6H A H 170;7.73674
4U6H A G 168;4U6H A S 186;1.31443
4U6H A G 168;4U6H A V 187;7.94523
4U6H A G 168;4U6H A T 188;25.1509
4U6H A G 168;4U6H B K 174;2.14052
4U6H A V 169;4U6H A H 170;36.0587
4U6H A V 169;4U6H A T 171;13.5942
4U6H A V 169;4U6H A S 185;4.10194
4U6H A V 169;4U6H A S 186;6.45599
4U6H A V 169;4U6H A V 187;12.575
4U6H A V 169;4U6H B D 172;1.43799
4U6H A H 170;4U6H A T 171;21.1098
4U6H A H 170;4U6H A F 172;16.3331
4U6H A H 170;4U6H A S 185;5.71343
4U6H A H 170;4U6H A S 186;22.5695
4U6H A H 170;4U6H A T 188;1.22073
4U6H A H 170;4U6H B N 142;14.5365
4U6H A H 170;4U6H B N 143;19.1027
4U6H A H 170;4U6H B T 169;12.5112
4U6H A H 170;4U6H B D 172;16.3397
4U6H A H 170;4U6H B T 177;2.40858
4U6H A H 170;4U6H B S 179;18.3433
4U6H A T 171;4U6H A F 172;24.1954
4U6H A T 171;4U6H A P 173;5.57317
4U6H A T 171;4U6H A L 183;14.0349
4U6H A T 171;4U6H A S 184;3.84352
4U6H A T 171;4U6H A S 185;14.5049
4U6H A T 171;4U6H B T 169;8.03236
4U6H A F 172;4U6H A P 173;30.588
4U6H A F 172;4U6H A A 174;0.490041
4U6H A F 172;4U6H A L 183;11.8785
4U6H A F 172;4U6H A S 184;24.628
4U6H A F 172;4U6H A S 185;2.75486
4U6H A F 172;4U6H A S 186;5.53419
4U6H A F 172;4U6H B F 140;12.7321
4U6H A F 172;4U6H B N 142;7.22208
4U6H A F 172;4U6H B S 167;15.1394
4U6H A F 172;4U6H B W 168;2.65027
4U6H A F 172;4U6H B T 169;15.6878
4U6H A F 172;4U6H B S 179;8.83372
4U6H A F 172;4U6H B M 180;11.034
4U6H A F 172;4U6H B S 181;15.862
4U6H A P 173;4U6H A A 174;32.9473
4U6H A P 173;4U6H A V 175;4.42907
4U6H A P 173;4U6H A T 182;1.60647
4U6H A P 173;4U6H A L 183;3.85848
4U6H A P 173;4U6H A S 184;0.082358
4U6H A P 173;4U6H B S 167;19.9875
4U6H A P 173;4U6H B W 168;14.839
4U6H A P 173;4U6H B T 169;11.3696
4U6H A P 173;4U6H B D 170;4.2779
4U6H A A 174;4U6H A V 175;28.0146
4U6H A A 174;4U6H A Y 181;12.2321
4U6H A A 174;4U6H A T 182;7.41042
4U6H A A 174;4U6H A L 183;16.4609
4U6H A V 175;4U6H A L 176;32.8102
4U6H A V 175;4U6H A Q 177;3.09451
4U6H A V 175;4U6H A L 180;2.98534
4U6H A V 175;4U6H A Y 181;10.2092
4U6H A V 175;4U6H A T 182;23.7578
4U6H A V 175;4U6H B L 165;29.5166
4U6H A V 175;4U6H B N 166;14.5814
4U6H A V 175;4U6H B S 167;11.138
4U6H A L 176;4U6H A Q 177;31.7419
4U6H A L 176;4U6H A S 178;1.88981
4U6H A L 176;4U6H A D 179;16.1919
4U6H A L 176;4U6H A L 180;8.25844
4U6H A L 176;4U6H A Y 181;35.5733
4U6H A L 176;4U6H B L 165;0.496046
4U6H A Q 177;4U6H A S 178;39.1666
4U6H A Q 177;4U6H A D 179;1.50158
4U6H A Q 177;4U6H A L 180;26.1013
4U6H A Q 177;4U6H A T 182;1.7888
4U6H A Q 177;4U6H B L 165;27.2962
4U6H A S 178;4U6H A D 179;30.5082
4U6H A S 178;4U6H A L 180;13.5912
4U6H A D 179;4U6H A L 180;25.2776
4U6H A L 180;4U6H A Y 181;20.0155
4U6H A L 180;4U6H A T 182;4.70954
4U6H A Y 181;4U6H A T 182;21.3157
4U6H A T 182;4U6H A L 183;24.2015
4U6H A T 182;4U6H B L 165;18.4744
4U6H A T 182;4U6H B T 183;7.20561
4U6H A L 183;4U6H A S 184;33.6286
4U6H A L 183;4U6H A S 185;0.282081
4U6H A L 183;4U6H A V 203;0.0259271
4U6H A S 184;4U6H A S 185;19.5584
4U6H A S 184;4U6H B V 138;4.58965
4U6H A S 184;4U6H B F 140;10.6238
4U6H A S 184;4U6H B S 181;11.6041
4U6H A S 184;4U6H B T 183;2.11907
4U6H A S 185;4U6H A S 186;19.9921
4U6H A S 185;4U6H B F 140;8.53473
4U6H A S 186;4U6H A V 187;20.9569
4U6H A S 186;4U6H A T 188;1.69889
4U6H A S 186;4U6H B F 140;17.7531
4U6H A S 186;4U6H B N 142;12.5569
4U6H A V 187;4U6H A T 188;24.6755
4U6H A V 187;4U6H A V 189;10.874
4U6H A V 187;4U6H A I 199;6.52293
4U6H A T 188;4U6H A V 189;33.4169
4U6H A T 188;4U6H B N 142;6.8883
4U6H A T 188;4U6H B N 143;4.47717
4U6H A V 189;4U6H A T 190;28.4021
4U6H A V 189;4U6H A S 191;0.405751
4U6H A V 189;4U6H A T 193;20.892
4U6H A V 189;4U6H A W 194;7.38586
4U6H A V 189;4U6H A I 199;9.52499
4U6H A T 190;4U6H A S 191;16.8737
4U6H A T 190;4U6H A S 192;19.3429
4U6H A T 190;4U6H A T 193;21.3104
4U6H A T 190;4U6H A W 194;2.67881
4U6H A S 191;4U6H A S 192;28.5716
4U6H A S 191;4U6H A T 193;1.51571
4U6H A S 191;4U6H A W 194;17.5916
4U6H A S 191;4U6H A P 195;2.10901
4U6H A S 192;4U6H A T 193;24.0849
4U6H A S 192;4U6H A W 194;1.1346
4U6H A S 192;4U6H A S 196;15.7079
4U6H A T 193;4U6H A W 194;20.9057
4U6H A T 193;4U6H A S 196;9.5748
4U6H A T 193;4U6H A Q 197;27.9654
4U6H A T 193;4U6H A I 199;9.09238
4U6H A W 194;4U6H A P 195;49.6075
4U6H A W 194;4U6H A S 196;4.2219
4U6H A W 194;4U6H A Q 197;10.2984
4U6H A W 194;4U6H A S 198;4.79925
4U6H A W 194;4U6H A I 199;13.7679
4U6H A W 194;4U6H A I 216;20.2144
4U6H A W 194;4U6H A E 217;3.86613
4U6H A W 194;4U6H A P 218;18.3229
4U6H A W 194;4U6H A R 219;0.126861
4U6H A P 195;4U6H A S 196;29.2595
4U6H A P 195;4U6H A Q 197;6.43049
4U6H A P 195;4U6H A S 198;6.43591
4U6H A P 195;4U6H A P 218;23.6751
4U6H A S 196;4U6H A Q 197;27.66
4U6H A S 196;4U6H A S 198;1.91092
4U6H A Q 197;4U6H A S 198;35.838
4U6H A Q 197;4U6H A I 199;11.6192
4U6H A S 198;4U6H A I 199;26.8243
4U6H A S 198;4U6H A T 200;0.987181
4U6H A S 198;4U6H A K 215;26.5278
4U6H A S 198;4U6H A I 216;3.23675
4U6H A S 198;4U6H A E 217;4.97833
4U6H A I 199;4U6H A T 200;21.4355
4U6H A I 199;4U6H A C 201;0.151113
4U6H A I 199;4U6H A K 214;1.14892
4U6H A I 199;4U6H A K 215;8.56461
4U6H A I 199;4U6H A I 216;21.4184
4U6H A T 200;4U6H A C 201;20.0647
4U6H A T 200;4U6H A N 202;16.3409
4U6H A T 200;4U6H A D 213;15.0461
4U6H A T 200;4U6H A K 214;9.63795
4U6H A T 200;4U6H A K 215;28.0676
4U6H A T 200;4U6H A I 216;0.0469954
4U6H A C 201;4U6H A N 202;17.9879
4U6H A C 201;4U6H A V 203;12.7821
4U6H A C 201;4U6H A V 212;2.78324
4U6H A C 201;4U6H A D 213;4.00228
4U6H A C 201;4U6H A K 214;23.8613
4U6H A C 201;4U6H A I 216;5.30873
4U6H A N 202;4U6H A V 203;18.3482
4U6H A N 202;4U6H A A 204;1.40056
4U6H A N 202;4U6H A K 211;18.1631
4U6H A N 202;4U6H A V 212;3.28094
4U6H A N 202;4U6H A D 213;15.8069
4U6H A V 203;4U6H A A 204;26.3894
4U6H A V 203;4U6H A H 205;0.0866217
4U6H A V 203;4U6H A K 211;7.98194
4U6H A V 203;4U6H A V 212;22.1997
4U6H A A 204;4U6H A H 205;19.7444
4U6H A A 204;4U6H A P 206;12.7744
4U6H A A 204;4U6H A T 210;5.11592
4U6H A A 204;4U6H A K 211;21.821
4U6H A A 204;4U6H A V 212;0.0494414
4U6H A H 205;4U6H A P 206;20.6023
4U6H A H 205;4U6H A A 207;15.1045
4U6H A H 205;4U6H A S 208;16.6207
4U6H A H 205;4U6H A S 209;4.75008
4U6H A H 205;4U6H A T 210;21.2229
4U6H A P 206;4U6H A A 207;28.8106
4U6H A P 206;4U6H A S 208;0.125966
4U6H A P 206;4U6H A S 209;18.1633
4U6H A P 206;4U6H A T 210;2.56303
4U6H A A 207;4U6H A S 208;19.4833
4U6H A A 207;4U6H A S 209;5.70208
4U6H A S 208;4U6H A S 209;25.2281
4U6H A S 208;4U6H A T 210;17.6346
4U6H A S 209;4U6H A T 210;28.2263
4U6H A S 209;4U6H A K 211;0.99048
4U6H A T 210;4U6H A K 211;32.6838
4U6H A T 210;4U6H A V 212;9.31312
4U6H A K 211;4U6H A V 212;36.2403
4U6H A K 211;4U6H A D 213;17.3354
4U6H A V 212;4U6H A D 213;34.5362
4U6H A V 212;4U6H A K 214;18.6695
4U6H A D 213;4U6H A K 214;25.641
4U6H A D 213;4U6H A K 215;2.4136
4U6H A K 214;4U6H A K 215;26.4956
4U6H A K 214;4U6H A I 216;5.10312
4U6H A K 214;4U6H B E 128;20.8559
4U6H A K 215;4U6H A I 216;22.3946
4U6H A K 215;4U6H A E 217;24.3056
4U6H A I 216;4U6H A E 217;28.2976
4U6H A I 216;4U6H A P 218;0.993356
4U6H A E 217;4U6H A P 218;44.4116
4U6H A E 217;4U6H A R 219;0.766841
4U6H A P 218;4U6H A R 219;36.0921
4U6H A R 219;4U6H B F 123;1.95217
4U6H A R 219;4U6H B P 124;30.6306
4U6H A R 219;4U6H B P 125;4.40006
4U6H A R 219;4U6H B S 126;12.7826
4U6H B D 1;4U6H B V 2;31.7822
4U6H B D 1;4U6H B V 3;12.3149
4U6H B D 1;4U6H B S 26;3.53745
4U6H B D 1;4U6H B Q 27;3.47731
4U6H B D 1;4U6H B D 99;2.05536
4U6H B D 1;4U6H B P 100;33.8074
4U6H B D 1;4U6H B T 102;11.265
4U6H B V 2;4U6H B V 3;25.3309
4U6H B V 2;4U6H B M 4;8.91708
4U6H B V 2;4U6H B S 25;5.06667
4U6H B V 2;4U6H B S 26;10.56
4U6H B V 2;4U6H B Q 27;24.2227
4U6H B V 2;4U6H B L 29;8.07457
4U6H B V 2;4U6H B Q 95;12.9476
4U6H B V 2;4U6H B H 98;20.363
4U6H B V 2;4U6H B P 100;3.73526
4U6H B V 2;4U6H B T 102;20.3295
4U6H B V 3;4U6H B M 4;30.8968
4U6H B V 3;4U6H B T 5;15.8911
4U6H B V 3;4U6H B R 24;1.71447
4U6H B V 3;4U6H B S 25;6.16456
4U6H B V 3;4U6H B S 26;25.1189
4U6H B V 3;4U6H B T 102;0.0624744
4U6H B M 4;4U6H B T 5;24.416
4U6H B M 4;4U6H B Q 6;0.00306696
4U6H B M 4;4U6H B C 23;9.74726
4U6H B M 4;4U6H B R 24;4.81981
4U6H B M 4;4U6H B S 25;13.9678
4U6H B M 4;4U6H B L 29;6.8073
4U6H B M 4;4U6H B L 38;8.62073
4U6H B M 4;4U6H B F 76;0.199698
4U6H B M 4;4U6H B C 93;11.6951
4U6H B M 4;4U6H B S 94;7.30249
4U6H B M 4;4U6H B Q 95;13.0908
4U6H B M 4;4U6H B T 102;13.6481
4U6H B M 4;4U6H B F 103;14.8696
4U6H B M 4;4U6H B G 104;13.9365
4U6H B M 4;4U6H B G 105;3.65988
4U6H B T 5;4U6H B Q 6;32.0358
4U6H B T 5;4U6H B I 7;11.8134
4U6H B T 5;4U6H B C 23;8.04818
4U6H B T 5;4U6H B R 24;46.8326
4U6H B T 5;4U6H B C 93;1.14252
4U6H B T 5;4U6H B G 104;0.656064
4U6H B T 5;4U6H B G 105;0.754419
4U6H B Q 6;4U6H B I 7;26.9624
4U6H B Q 6;4U6H B P 8;6.59372
4U6H B Q 6;4U6H B L 9;3.94901
4U6H B Q 6;4U6H B I 21;6.66187
4U6H B Q 6;4U6H B S 22;7.74853
4U6H B Q 6;4U6H B C 23;6.78824
4U6H B Q 6;4U6H B W 40;5.8435
4U6H B Q 6;4U6H B Y 91;7.54587
4U6H B Q 6;4U6H B F 92;5.19474
4U6H B Q 6;4U6H B C 93;18.903
4U6H B Q 6;4U6H B G 104;11.7712
4U6H B Q 6;4U6H B G 105;6.17359
4U6H B Q 6;4U6H B G 106;18.4774
4U6H B Q 6;4U6H B T 107;12.4762
4U6H B I 7;4U6H B P 8;40.7966
4U6H B I 7;4U6H B S 20;0.0731461
4U6H B I 7;4U6H B I 21;4.15452
4U6H B I 7;4U6H B S 22;30.5276
4U6H B I 7;4U6H B C 23;0.0471509
4U6H B I 7;4U6H B R 24;16.3297
4U6H B I 7;4U6H B T 107;1.49923
4U6H B P 8;4U6H B L 9;25.696
4U6H B P 8;4U6H B S 10;18.0357
4U6H B P 8;4U6H B L 11;17.7822
4U6H B P 8;4U6H B S 20;6.80167
4U6H B P 8;4U6H B I 21;5.95494
4U6H B P 8;4U6H B G 106;1.46624
4U6H B P 8;4U6H B T 107;19.9769
4U6H B L 9;4U6H B S 10;29.1535
4U6H B L 9;4U6H B G 105;6.01484
4U6H B L 9;4U6H B G 106;16.0002
4U6H B L 9;4U6H B T 107;5.94617
4U6H B L 9;4U6H B K 108;9.46547
4U6H B S 10;4U6H B L 11;21.7599
4U6H B S 10;4U6H B P 12;7.47056
4U6H B S 10;4U6H B T 107;5.86343
4U6H B S 10;4U6H B K 108;25.3224
4U6H B S 10;4U6H B E 110;3.49578
4U6H B S 10;4U6H B K 147;1.91761
4U6H B L 11;4U6H B P 12;35.046
4U6H B L 11;4U6H B V 13;16.7432
4U6H B L 11;4U6H B Q 18;0.0339335
4U6H B L 11;4U6H B A 19;9.24883
4U6H B L 11;4U6H B S 20;16.8676
4U6H B L 11;4U6H B I 21;7.71989
4U6H B L 11;4U6H B T 107;7.41086
4U6H B L 11;4U6H B K 108;7.56662
4U6H B L 11;4U6H B L 109;15.3534
4U6H B L 11;4U6H B E 110;11.3231
4U6H B P 12;4U6H B V 13;22.5228
4U6H B P 12;4U6H B E 110;26.1938
4U6H B P 12;4U6H B K 112;25.0538
4U6H B P 12;4U6H B Y 145;1.64339
4U6H B V 13;4U6H B S 14;25.2445
4U6H B V 13;4U6H B D 17;13.1999
4U6H B V 13;4U6H B Q 18;9.0131
4U6H B V 13;4U6H B A 19;10.032
4U6H B V 13;4U6H B V 83;14.6783
4U6H B V 13;4U6H B L 109;10.7871
4U6H B V 13;4U6H B E 110;8.67932
4U6H B V 13;4U6H B I 111;11.3773
4U6H B V 13;4U6H B K 112;16.7759
4U6H B S 14;4U6H B L 15;29.776
4U6H B S 14;4U6H B G 16;0.652131
4U6H B S 14;4U6H B D 17;23.9257
4U6H B S 14;4U6H B V 83;8.20535
4U6H B S 14;4U6H B I 111;1.71663
4U6H B S 14;4U6H B K 112;34.2288
4U6H B L 15;4U6H B G 16;23.1914
4U6H B L 15;4U6H B D 17;6.44347
4U6H B L 15;4U6H B V 83;14.5524
4U6H B L 15;4U6H B E 84;7.10273
4U6H B L 15;4U6H B A 85;14.6859
4U6H B L 15;4U6H B I 111;14.8261
4U6H B L 15;4U6H B K 112;9.7226
4U6H B L 15;4U6H B R 113;1.13489
4U6H B L 15;4U6H B S 176;0.402359
4U6H B G 16;4U6H B D 17;25.4074
4U6H B G 16;4U6H B Q 18;0.190068
4U6H B G 16;4U6H B R 82;22.8857
4U6H B G 16;4U6H B V 83;12.5372
4U6H B D 17;4U6H B Q 18;37.7287
4U6H B D 17;4U6H B I 80;0.88612
4U6H B D 17;4U6H B S 81;0.0348024
4U6H B D 17;4U6H B R 82;6.56574
4U6H B D 17;4U6H B V 83;11.3685
4U6H B D 17;4U6H B K 112;2.95793
4U6H B Q 18;4U6H B A 19;28.1791
4U6H B Q 18;4U6H B S 20;3.50764
4U6H B Q 18;4U6H B K 79;23.8182
4U6H B Q 18;4U6H B I 80;8.37664
4U6H B Q 18;4U6H B S 81;24.0056
4U6H B Q 18;4U6H B R 82;1.54337
4U6H B Q 18;4U6H B V 83;1.32713
4U6H B A 19;4U6H B S 20;24.1707
4U6H B A 19;4U6H B I 21;4.77929
4U6H B A 19;4U6H B L 78;2.35855
4U6H B A 19;4U6H B K 79;5.71417
4U6H B A 19;4U6H B I 80;26.059
4U6H B A 19;4U6H B V 83;8.14554
4U6H B A 19;4U6H B L 109;9.71216
4U6H B S 20;4U6H B I 21;27.9072
4U6H B S 20;4U6H B S 22;3.11272
4U6H B S 20;4U6H B T 77;9.68015
4U6H B S 20;4U6H B L 78;5.72626
4U6H B S 20;4U6H B K 79;15.7835
4U6H B I 21;4U6H B S 22;26.5704
4U6H B I 21;4U6H B W 40;16.2018
4U6H B I 21;4U6H B T 77;7.16655
4U6H B I 21;4U6H B L 78;28.1185
4U6H B I 21;4U6H B I 80;7.9687
4U6H B I 21;4U6H B Y 91;17.4315
4U6H B I 21;4U6H B T 107;26.2982
4U6H B I 21;4U6H B L 109;8.37224
4U6H B S 22;4U6H B C 23;22.4172
4U6H B S 22;4U6H B R 24;0.0928239
4U6H B S 22;4U6H B W 40;3.38689
4U6H B S 22;4U6H B F 76;5.91987
4U6H B S 22;4U6H B T 77;18.3427
4U6H B C 23;4U6H B R 24;25.2201
4U6H B C 23;4U6H B S 25;0.185817
4U6H B C 23;4U6H B L 38;7.09787
4U6H B C 23;4U6H B W 40;12.2899
4U6H B C 23;4U6H B T 74;2.48254
4U6H B C 23;4U6H B D 75;2.76598
4U6H B C 23;4U6H B F 76;25.032
4U6H B C 23;4U6H B C 93;18.4253
4U6H B R 24;4U6H B S 25;31.9748
4U6H B R 24;4U6H B S 26;0.605627
4U6H B R 24;4U6H B T 74;10.3636
4U6H B R 24;4U6H B D 75;17.1621
4U6H B S 25;4U6H B S 26;25.0422
4U6H B S 25;4U6H B Q 27;9.95427
4U6H B S 25;4U6H B L 29;13.0713
4U6H B S 25;4U6H B L 38;0.0212414
4U6H B S 25;4U6H B G 73;0.79351
4U6H B S 25;4U6H B T 74;25.9124
4U6H B S 25;4U6H B F 76;2.76364
4U6H B S 26;4U6H B Q 27;35.6058
4U6H B S 26;4U6H B T 74;4.67176
4U6H B Q 27;4U6H B S 28;29.7315
4U6H B Q 27;4U6H B L 29;6.37106
4U6H B Q 27;4U6H B G 73;0.728021
4U6H B Q 27;4U6H B T 74;8.04218
4U6H B Q 27;4U6H B H 98;20.0211
4U6H B S 28;4U6H B L 29;19.4778
4U6H B S 28;4U6H B V 30;27.5502
4U6H B S 28;4U6H B G 73;14.6448
4U6H B S 28;4U6H B T 74;11.6341
4U6H B S 28;4U6H B T 97;0.0906461
4U6H B S 28;4U6H B H 98;10.346
4U6H B L 29;4U6H B V 30;18.8124
4U6H B L 29;4U6H B H 31;0.477507
4U6H B L 29;4U6H B N 35;1.79935
4U6H B L 29;4U6H B T 36;16.4926
4U6H B L 29;4U6H B Y 37;6.54543
4U6H B L 29;4U6H B L 38;14.9429
4U6H B L 29;4U6H B G 73;11.3376
4U6H B L 29;4U6H B F 76;10.674
4U6H B L 29;4U6H B Q 95;17.712
4U6H B L 29;4U6H B T 97;21.6617
4U6H B L 29;4U6H B H 98;6.70456
4U6H B V 30;4U6H B H 31;27.9507
4U6H B V 30;4U6H B G 34;8.00254
4U6H B V 30;4U6H B N 35;3.62075
4U6H B V 30;4U6H B T 36;17.6139
4U6H B V 30;4U6H B S 72;0.916683
4U6H B V 30;4U6H B G 73;11.1135
4U6H B V 30;4U6H B T 97;7.1664
4U6H B V 30;4U6H B H 98;5.21378
4U6H B H 31;4U6H B S 32;42.9025
4U6H B H 31;4U6H B N 33;21.3722
4U6H B H 31;4U6H B G 34;13.2634
4U6H B H 31;4U6H B N 35;11.9886
4U6H B H 31;4U6H B Y 37;12.5287
4U6H B H 31;4U6H B T 97;29.0055
4U6H B H 31;4U6H B H 98;0.859197
4U6H B S 32;4U6H B N 33;25.811
4U6H B S 32;4U6H B G 34;5.01488
4U6H B N 33;4U6H B G 34;23.137
4U6H B N 33;4U6H B N 35;20.0283
4U6H B N 33;4U6H B Y 37;14.0784
4U6H B G 34;4U6H B N 35;26.528
4U6H B G 34;4U6H B T 36;5.36723
4U6H B N 35;4U6H B T 36;23.9136
4U6H B N 35;4U6H B Y 37;22.3002
4U6H B N 35;4U6H B K 55;21.7495
4U6H B N 35;4U6H B T 97;0.290299
4U6H B T 36;4U6H B Y 37;16.8594
4U6H B T 36;4U6H B L 38;8.80925
4U6H B T 36;4U6H B K 55;13.871
4U6H B T 36;4U6H B V 56;20.0052
4U6H B T 36;4U6H B S 72;6.09355
4U6H B T 36;4U6H B G 73;5.3127
4U6H B T 36;4U6H B F 76;9.97551
4U6H B Y 37;4U6H B L 38;16.7764
4U6H B Y 37;4U6H B H 39;12.7947
4U6H B Y 37;4U6H B K 55;22.6496
4U6H B Y 37;4U6H B Q 95;6.74822
4U6H B Y 37;4U6H B S 96;16.5415
4U6H B Y 37;4U6H B T 97;21.8671
4U6H B L 38;4U6H B H 39;28.8806
4U6H B L 38;4U6H B W 40;15.8609
4U6H B L 38;4U6H B I 53;0.527561
4U6H B L 38;4U6H B Y 54;1.38747
4U6H B L 38;4U6H B K 55;8.23057
4U6H B L 38;4U6H B V 56;22.2347
4U6H B L 38;4U6H B S 70;0.0522844
4U6H B L 38;4U6H B F 76;28.7994
4U6H B L 38;4U6H B C 93;5.23913
4U6H B L 38;4U6H B S 94;10.5478
4U6H B L 38;4U6H B Q 95;2.77295
4U6H B H 39;4U6H B W 40;24.3933
4U6H B H 39;4U6H B S 41;1.36369
4U6H B H 39;4U6H B L 51;12.682
4U6H B H 39;4U6H B I 53;6.02805
4U6H B H 39;4U6H B Y 54;10.53
4U6H B H 39;4U6H B K 55;8.37612
4U6H B H 39;4U6H B F 92;1.11508
4U6H B H 39;4U6H B C 93;5.78792
4U6H B H 39;4U6H B S 94;32.2332
4U6H B H 39;4U6H B Q 95;5.07644
4U6H B H 39;4U6H B S 96;12.5235
4U6H B H 39;4U6H B W 101;0.27135
4U6H B W 40;4U6H B S 41;22.3538
4U6H B W 40;4U6H B L 51;6.47088
4U6H B W 40;4U6H B L 52;14.6565
4U6H B W 40;4U6H B I 53;27.6152
4U6H B W 40;4U6H B V 56;5.45623
4U6H B W 40;4U6H B G 69;5.14425
4U6H B W 40;4U6H B S 70;1.2919
4U6H B W 40;4U6H B F 76;9.62151
4U6H B W 40;4U6H B T 77;9.05712
4U6H B W 40;4U6H B L 78;36.8347
4U6H B W 40;4U6H B Y 91;7.15524
4U6H B W 40;4U6H B F 92;8.37597
4U6H B W 40;4U6H B C 93;18.0073
4U6H B W 40;4U6H B S 94;0.00277842
4U6H B S 41;4U6H B L 42;18.6442
4U6H B S 41;4U6H B Q 43;0.182358
4U6H B S 41;4U6H B P 49;12.8185
4U6H B S 41;4U6H B N 50;8.86894
4U6H B S 41;4U6H B L 51;15.2838
4U6H B S 41;4U6H B L 52;6.05202
4U6H B S 41;4U6H B V 90;0.660448
4U6H B S 41;4U6H B Y 91;8.97953
4U6H B S 41;4U6H B F 92;30.1455
4U6H B S 41;4U6H B S 94;6.76772
4U6H B S 41;4U6H B F 103;5.91044
4U6H B L 42;4U6H B Q 43;24.0199
4U6H B L 42;4U6H B K 44;27.85
4U6H B L 42;4U6H B S 48;1.38152
4U6H B L 42;4U6H B P 49;4.95571
4U6H B L 42;4U6H B N 50;22.8766
4U6H B L 42;4U6H B L 52;23.0753
4U6H B L 42;4U6H B F 67;3.67559
4U6H B L 42;4U6H B E 86;0.00733674
4U6H B L 42;4U6H B D 87;11.5767
4U6H B L 42;4U6H B L 88;2.41422
4U6H B L 42;4U6H B G 89;7.21455
4U6H B L 42;4U6H B V 90;8.87222
4U6H B L 42;4U6H B Y 91;26.1851
4U6H B L 42;4U6H B F 92;0.0562873
4U6H B Q 43;4U6H B K 44;31.3795
4U6H B Q 43;4U6H B P 45;0.277831
4U6H B Q 43;4U6H B Q 47;12.117
4U6H B Q 43;4U6H B S 48;5.72027
4U6H B Q 43;4U6H B P 49;23.7573
4U6H B Q 43;4U6H B G 89;4.21075
4U6H B Q 43;4U6H B V 90;26.9856
4U6H B Q 43;4U6H B F 92;18.9618
4U6H B K 44;4U6H B P 45;33.7445
4U6H B K 44;4U6H B G 46;3.58813
4U6H B K 44;4U6H B Q 47;44.3347
4U6H B K 44;4U6H B S 48;1.03245
4U6H B K 44;4U6H B N 50;5.41877
4U6H B K 44;4U6H B E 86;29.6268
4U6H B K 44;4U6H B D 87;0.382619
4U6H B K 44;4U6H B L 88;10.3562
4U6H B K 44;4U6H B G 89;4.22541
4U6H B P 45;4U6H B G 46;27.0444
4U6H B P 45;4U6H B Q 47;8.61823
4U6H B P 45;4U6H B L 88;18.7921
4U6H B P 45;4U6H B G 89;6.03607
4U6H B P 45;4U6H B D 170;29.8954
4U6H B P 45;4U6H B Q 171;4.90161
4U6H B P 45;4U6H B S 173;0.78909
4U6H B G 46;4U6H B Q 47;31.9466
4U6H B G 46;4U6H B S 48;0.00962315
4U6H B Q 47;4U6H B S 48;33.4818
4U6H B Q 47;4U6H B N 50;13.1477
4U6H B S 48;4U6H B P 49;26.2282
4U6H B S 48;4U6H B N 50;13.7142
4U6H B P 49;4U6H B N 50;26.116
4U6H B P 49;4U6H B F 92;5.03047
4U6H B P 49;4U6H B F 103;0.209537
4U6H B N 50;4U6H B L 51;28.6778
4U6H B N 50;4U6H B L 52;11.064
4U6H B L 51;4U6H B L 52;22.9913
4U6H B L 51;4U6H B I 53;8.75535
4U6H B L 51;4U6H B Y 54;13.9328
4U6H B L 51;4U6H B F 60;35.0743
4U6H B L 51;4U6H B V 63;4.5553
4U6H B L 52;4U6H B I 53;27.5494
4U6H B L 52;4U6H B R 59;3.46432
4U6H B L 52;4U6H B F 60;10.7997
4U6H B L 52;4U6H B V 63;28.3894
4U6H B L 52;4U6H B P 64;0.0104148
4U6H B L 52;4U6H B F 67;22.0357
4U6H B L 52;4U6H B L 78;7.2973
4U6H B L 52;4U6H B Y 91;11.8499
4U6H B I 53;4U6H B Y 54;21.7184
4U6H B I 53;4U6H B V 56;10.9377
4U6H B I 53;4U6H B S 57;8.68767
4U6H B I 53;4U6H B N 58;10.49
4U6H B I 53;4U6H B R 59;10.3392
4U6H B I 53;4U6H B F 60;0.407553
4U6H B I 53;4U6H B V 63;2.12448
4U6H B I 53;4U6H B F 67;11.2133
4U6H B I 53;4U6H B S 68;9.04421
4U6H B I 53;4U6H B G 69;9.3592
4U6H B I 53;4U6H B L 78;12.429
4U6H B Y 54;4U6H B K 55;37.5072
4U6H B Y 54;4U6H B V 56;2.75374
4U6H B Y 54;4U6H B S 57;1.33736
4U6H B Y 54;4U6H B N 58;41.7607
4U6H B Y 54;4U6H B R 59;12.279
4U6H B Y 54;4U6H B F 60;17.692
4U6H B K 55;4U6H B V 56;20.0292
4U6H B K 55;4U6H B S 57;8.63933
4U6H B K 55;4U6H B N 58;20.2518
4U6H B V 56;4U6H B S 57;26.5235
4U6H B V 56;4U6H B G 69;11.3956
4U6H B V 56;4U6H B S 70;13.9632
4U6H B V 56;4U6H B G 71;13.2127
4U6H B V 56;4U6H B S 72;0.892075
4U6H B V 56;4U6H B F 76;13.5831
4U6H B S 57;4U6H B N 58;29.4679
4U6H B S 57;4U6H B R 59;9.28135
4U6H B S 57;4U6H B S 68;3.34547
4U6H B S 57;4U6H B G 69;19.1358
4U6H B S 57;4U6H B S 70;1.54365
4U6H B N 58;4U6H B R 59;24.3573
4U6H B N 58;4U6H B F 60;0.10646
4U6H B R 59;4U6H B F 60;25.195
4U6H B R 59;4U6H B S 61;0.628394
4U6H B R 59;4U6H B V 63;23.361
4U6H B R 59;4U6H B P 64;5.47796
4U6H B R 59;4U6H B D 65;30.3663
4U6H B R 59;4U6H B F 67;14.0731
4U6H B R 59;4U6H B S 68;1.98452
4U6H B F 60;4U6H B S 61;52.7589
4U6H B F 60;4U6H B G 62;3.36028
4U6H B F 60;4U6H B V 63;23.0032
4U6H B S 61;4U6H B G 62;29.7813
4U6H B S 61;4U6H B V 63;4.50094
4U6H B G 62;4U6H B V 63;26.6285
4U6H B G 62;4U6H B P 64;10.0052
4U6H B V 63;4U6H B P 64;33.3258
4U6H B V 63;4U6H B D 65;1.12855
4U6H B V 63;4U6H B F 67;15.3552
4U6H B P 64;4U6H B D 65;23.1851
4U6H B P 64;4U6H B R 66;29.2791
4U6H B P 64;4U6H B F 67;22.4961
4U6H B D 65;4U6H B R 66;27.0239
4U6H B D 65;4U6H B F 67;8.13487
4U6H B D 65;4U6H B S 68;6.17654
4U6H B D 65;4U6H B R 82;9.06496
4U6H B R 66;4U6H B F 67;36.9735
4U6H B R 66;4U6H B S 68;3.80632
4U6H B R 66;4U6H B K 79;4.33804
4U6H B R 66;4U6H B I 80;9.27245
4U6H B R 66;4U6H B S 81;32.2224
4U6H B R 66;4U6H B R 82;38.1638
4U6H B R 66;4U6H B V 83;0.0586789
4U6H B R 66;4U6H B E 84;29.1497
4U6H B R 66;4U6H B D 87;16.1793
4U6H B F 67;4U6H B S 68;22.3141
4U6H B F 67;4U6H B L 78;8.422
4U6H B F 67;4U6H B K 79;4.49935
4U6H B F 67;4U6H B I 80;23.5789
4U6H B F 67;4U6H B D 87;12.2168
4U6H B F 67;4U6H B Y 91;8.12889
4U6H B S 68;4U6H B G 69;25.8883
4U6H B S 68;4U6H B S 70;0.115743
4U6H B S 68;4U6H B T 77;0.821199
4U6H B S 68;4U6H B L 78;8.35154
4U6H B S 68;4U6H B K 79;31.6549
4U6H B S 68;4U6H B S 81;1.99435
4U6H B G 69;4U6H B S 70;27.2832
4U6H B G 69;4U6H B T 77;5.57758
4U6H B G 69;4U6H B L 78;4.40902
4U6H B S 70;4U6H B G 71;27.2452
4U6H B S 70;4U6H B F 76;9.52361
4U6H B S 70;4U6H B T 77;28.3724
4U6H B S 70;4U6H B K 79;14.3192
4U6H B G 71;4U6H B S 72;28.7609
4U6H B G 71;4U6H B D 75;8.00671
4U6H B G 71;4U6H B F 76;9.39737
4U6H B G 71;4U6H B T 77;0.825218
4U6H B S 72;4U6H B G 73;26.0623
4U6H B S 72;4U6H B T 74;5.22141
4U6H B S 72;4U6H B D 75;16.1297
4U6H B S 72;4U6H B F 76;11.9486
4U6H B G 73;4U6H B T 74;20.6895
4U6H B G 73;4U6H B F 76;9.32182
4U6H B T 74;4U6H B D 75;31.4718
4U6H B T 74;4U6H B F 76;12.0337
4U6H B D 75;4U6H B F 76;26.2672
4U6H B D 75;4U6H B T 77;1.05727
4U6H B F 76;4U6H B T 77;26.6928
4U6H B T 77;4U6H B L 78;20.1259
4U6H B T 77;4U6H B K 79;15.3053
4U6H B L 78;4U6H B K 79;25.9809
4U6H B L 78;4U6H B I 80;13.93
4U6H B L 78;4U6H B Y 91;13.6233
4U6H B K 79;4U6H B I 80;19.7224
4U6H B K 79;4U6H B S 81;4.69765
4U6H B I 80;4U6H B S 81;23.1414
4U6H B I 80;4U6H B R 82;0.0354665
4U6H B I 80;4U6H B V 83;15.6413
4U6H B I 80;4U6H B D 87;10.1767
4U6H B I 80;4U6H B Y 91;16.7298
4U6H B I 80;4U6H B L 109;8.68207
4U6H B S 81;4U6H B R 82;37.0271
4U6H B S 81;4U6H B V 83;1.76993
4U6H B R 82;4U6H B V 83;20.1941
4U6H B R 82;4U6H B E 84;8.08776
4U6H B R 82;4U6H B D 87;0.104866
4U6H B V 83;4U6H B E 84;26.6157
4U6H B V 83;4U6H B D 87;9.18671
4U6H B V 83;4U6H B L 109;8.73154
4U6H B V 83;4U6H B I 111;12.0437
4U6H B E 84;4U6H B A 85;21.6312
4U6H B E 84;4U6H B E 86;20.3177
4U6H B E 84;4U6H B D 87;19.0152
4U6H B E 84;4U6H B L 88;0.379121
4U6H B E 84;4U6H B I 111;5.11441
4U6H B A 85;4U6H B E 86;22.2068
4U6H B A 85;4U6H B D 87;2.31132
4U6H B A 85;4U6H B L 88;14.2094
4U6H B A 85;4U6H B I 111;11.7765
4U6H B A 85;4U6H B D 172;0.00583504
4U6H B A 85;4U6H B S 173;16.7146
4U6H B A 85;4U6H B K 174;9.77109
4U6H B A 85;4U6H B S 176;10.9022
4U6H B E 86;4U6H B D 87;23.6019
4U6H B E 86;4U6H B L 88;8.9698
4U6H B E 86;4U6H B S 173;27.1335
4U6H B E 86;4U6H B K 174;3.3823
4U6H B D 87;4U6H B L 88;19.1664
4U6H B D 87;4U6H B G 89;1.49073
4U6H B D 87;4U6H B Y 91;16.379
4U6H B D 87;4U6H B L 109;12.6195
4U6H B D 87;4U6H B I 111;0.894949
4U6H B L 88;4U6H B G 89;24.1218
4U6H B L 88;4U6H B L 109;15.2454
4U6H B L 88;4U6H B I 111;16.2656
4U6H B L 88;4U6H B D 170;2.18424
4U6H B L 88;4U6H B Q 171;30.7769
4U6H B L 88;4U6H B D 172;5.79697
4U6H B L 88;4U6H B S 173;16.1183
4U6H B L 88;4U6H B S 176;3.36588
4U6H B G 89;4U6H B V 90;20.7301
4U6H B G 89;4U6H B Y 91;5.42446
4U6H B G 89;4U6H B T 107;0.878213
4U6H B G 89;4U6H B K 108;9.90959
4U6H B G 89;4U6H B L 109;14.6124
4U6H B V 90;4U6H B Y 91;19.2555
4U6H B V 90;4U6H B F 92;24.5025
4U6H B V 90;4U6H B G 105;3.36208
4U6H B V 90;4U6H B G 106;9.06773
4U6H B V 90;4U6H B T 107;8.67024
4U6H B V 90;4U6H B K 108;23.0953
4U6H B Y 91;4U6H B F 92;18.4987
4U6H B Y 91;4U6H B C 93;0.18869
4U6H B Y 91;4U6H B G 106;4.47392
4U6H B Y 91;4U6H B T 107;19.7335
4U6H B Y 91;4U6H B L 109;16.6541
4U6H B F 92;4U6H B C 93;21.15
4U6H B F 92;4U6H B S 94;4.48086
4U6H B F 92;4U6H B F 103;11.7021
4U6H B F 92;4U6H B G 104;11.6554
4U6H B F 92;4U6H B G 105;10.9998
4U6H B F 92;4U6H B G 106;9.14578
4U6H B C 93;4U6H B S 94;20.3772
4U6H B C 93;4U6H B F 103;4.2172
4U6H B C 93;4U6H B G 104;11.0997
4U6H B S 94;4U6H B Q 95;22.109
4U6H B S 94;4U6H B T 102;8.00609
4U6H B S 94;4U6H B F 103;23.3321
4U6H B Q 95;4U6H B S 96;21.1208
4U6H B Q 95;4U6H B T 97;8.30296
4U6H B Q 95;4U6H B H 98;17.0654
4U6H B Q 95;4U6H B P 100;5.14458
4U6H B Q 95;4U6H B W 101;14.1605
4U6H B Q 95;4U6H B T 102;25.2741
4U6H B S 96;4U6H B T 97;22.3281
4U6H B S 96;4U6H B H 98;4.23575
4U6H B S 96;4U6H B D 99;8.9511e-06
4U6H B S 96;4U6H B W 101;28.7518
4U6H B T 97;4U6H B H 98;42.4737
4U6H B T 97;4U6H B D 99;0.446776
4U6H B H 98;4U6H B D 99;31.3816
4U6H B H 98;4U6H B P 100;6.9363
4U6H B H 98;4U6H B W 101;7.27287
4U6H B D 99;4U6H B P 100;31.553
4U6H B D 99;4U6H B W 101;14.9785
4U6H B P 100;4U6H B W 101;20.1133
4U6H B P 100;4U6H B T 102;11.0585
4U6H B W 101;4U6H B T 102;27.0406
4U6H B W 101;4U6H B F 103;6.09219
4U6H B T 102;4U6H B F 103;32.5277
4U6H B F 103;4U6H B G 104;28.2034
4U6H B F 103;4U6H B G 105;0.00155491
4U6H B G 104;4U6H B G 105;24.4117
4U6H B G 104;4U6H B G 106;2.35846
4U6H B G 105;4U6H B G 106;24.1856
4U6H B G 106;4U6H B T 107;18.0571
4U6H B G 106;4U6H B K 108;0.493509
4U6H B T 107;4U6H B K 108;21.756
4U6H B T 107;4U6H B L 109;3.31802
4U6H B K 108;4U6H B L 109;23.2378
4U6H B K 108;4U6H B E 110;14.3052
4U6H B K 108;4U6H B K 147;18.1143
4U6H B K 108;4U6H B D 170;7.26474
4U6H B K 108;4U6H B Y 178;3.61124
4U6H B L 109;4U6H B E 110;22.259
4U6H B L 109;4U6H B I 111;14.5531
4U6H B L 109;4U6H B Q 171;2.16992
4U6H B E 110;4U6H B I 111;23.156
4U6H B E 110;4U6H B K 112;1.70929
4U6H B E 110;4U6H B Y 145;18.0584
4U6H B E 110;4U6H B P 146;2.42555
4U6H B E 110;4U6H B K 147;20.7949
4U6H B E 110;4U6H B Q 171;10.005
4U6H B E 110;4U6H B Y 178;16.4584
4U6H B I 111;4U6H B K 112;25.9546
4U6H B I 111;4U6H B R 113;2.84106
4U6H B I 111;4U6H B Y 145;5.51898
4U6H B I 111;4U6H B Q 171;18.0113
4U6H B I 111;4U6H B S 176;18.097
4U6H B K 112;4U6H B R 113;31.6954
4U6H B K 112;4U6H B Y 145;18.8964
4U6H B K 112;4U6H B S 176;0.258607
4U6H B R 113;4U6H B A 114;50.9447
4U6H B R 113;4U6H B D 115;8.28106
4U6H B R 113;4U6H B A 116;13.2972
4U6H B R 113;4U6H B Y 145;33.3622
4U6H B R 113;4U6H B Q 171;0.240468
4U6H B R 113;4U6H B D 175;19.5013
4U6H B R 113;4U6H B S 176;18.2232
4U6H B R 113;4U6H B T 177;16.3235
4U6H B A 114;4U6H B D 115;33.0766
4U6H B A 114;4U6H B A 116;0.718221
4U6H B A 114;4U6H B Y 145;5.33042
4U6H B D 115;4U6H B A 116;23.2743
4U6H B D 115;4U6H B Y 145;15.6512
4U6H B D 115;4U6H B P 146;6.93521
4U6H B D 115;4U6H B K 204;27.1164
4U6H B D 115;4U6H B T 205;18.4557
4U6H B A 116;4U6H B A 117;25.1236
4U6H B A 116;4U6H B P 118;1.26001
4U6H B A 116;4U6H B N 143;9.18332
4U6H B A 116;4U6H B F 144;11.2457
4U6H B A 116;4U6H B Y 145;16.9812
4U6H B A 116;4U6H B T 177;5.59745
4U6H B A 116;4U6H B H 203;4.49862
4U6H B A 116;4U6H B T 205;7.82349
4U6H B A 117;4U6H B P 118;28.2339
4U6H B A 117;4U6H B T 119;6.69134
4U6H B A 117;4U6H B N 142;0.0193422
4U6H B A 117;4U6H B N 143;6.37062
4U6H B A 117;4U6H B F 144;0.635918
4U6H B A 117;4U6H B H 203;0.744991
4U6H B A 117;4U6H B T 205;22.1875
4U6H B A 117;4U6H B S 206;1.3678
4U6H B A 117;4U6H B I 210;9.7987
4U6H B P 118;4U6H B T 119;21.8298
4U6H B P 118;4U6H B V 120;16.2168
4U6H B P 118;4U6H B L 141;10.9773
4U6H B P 118;4U6H B N 142;8.40535
4U6H B P 118;4U6H B N 143;2.14982
4U6H B P 118;4U6H B F 144;18.8044
4U6H B P 118;4U6H B I 149;8.92307
4U6H B P 118;4U6H B A 201;4.17828
4U6H B P 118;4U6H B H 203;13.1686
4U6H B P 118;4U6H B T 205;1.92321
4U6H B P 118;4U6H B I 210;21.3559
4U6H B T 119;4U6H B V 120;22.3135
4U6H B T 119;4U6H B S 121;11.2394
4U6H B T 119;4U6H B F 140;3.51981
4U6H B T 119;4U6H B L 141;2.60185
4U6H B T 119;4U6H B N 142;28.4964
4U6H B T 119;4U6H B N 143;9.86639
4U6H B V 120;4U6H B S 121;26.8165
4U6H B V 120;4U6H B I 122;0.217986
4U6H B V 120;4U6H B C 139;8.78694
4U6H B V 120;4U6H B F 140;6.47784
4U6H B V 120;4U6H B L 141;18.1523
4U6H B V 120;4U6H B C 199;9.67548
4U6H B V 120;4U6H B A 201;5.90706
4U6H B V 120;4U6H B I 210;20.0243
4U6H B V 120;4U6H B K 212;33.8034
4U6H B S 121;4U6H B I 122;22.741
4U6H B S 121;4U6H B F 123;19.3015
4U6H B S 121;4U6H B V 138;0.0155769
4U6H B S 121;4U6H B C 139;6.84803
4U6H B S 121;4U6H B F 140;21.3115
4U6H B S 121;4U6H B K 212;2.51885
4U6H B I 122;4U6H B F 123;29.062
4U6H B I 122;4U6H B P 124;5.27806
4U6H B I 122;4U6H B V 137;7.6169
4U6H B I 122;4U6H B V 138;4.8761
4U6H B I 122;4U6H B C 139;12.4879
4U6H B I 122;4U6H B W 153;9.91601
4U6H B I 122;4U6H B Y 197;7.09581
4U6H B I 122;4U6H B T 198;3.04207
4U6H B I 122;4U6H B C 199;9.02556
4U6H B I 122;4U6H B K 212;22.7765
4U6H B I 122;4U6H B S 213;13.626
4U6H B I 122;4U6H B F 214;16.1963
4U6H B F 123;4U6H B P 124;29.2432
4U6H B F 123;4U6H B P 125;0.0307261
4U6H B F 123;4U6H B S 136;1.42695
4U6H B F 123;4U6H B V 137;8.09017
4U6H B F 123;4U6H B V 138;25.8561
4U6H B F 123;4U6H B C 139;0.824377
4U6H B F 123;4U6H B F 140;16.4298
4U6H B F 123;4U6H B F 214;0.248643
4U6H B P 124;4U6H B P 125;30.2185
4U6H B P 124;4U6H B S 126;2.15146
4U6H B P 124;4U6H B S 136;0.249633
4U6H B P 124;4U6H B V 137;3.68013
4U6H B P 124;4U6H B Y 191;5.60675
4U6H B P 124;4U6H B F 214;28.6408
4U6H B P 125;4U6H B S 126;23.7571
4U6H B P 125;4U6H B S 127;2.13372
4U6H B P 125;4U6H B Q 129;9.167
4U6H B P 125;4U6H B L 130;21.6195
4U6H B P 125;4U6H B G 134;0.327756
4U6H B P 125;4U6H B A 135;10.7073
4U6H B P 125;4U6H B S 136;16.8056
4U6H B P 125;4U6H B V 137;10.6497
4U6H B P 125;4U6H B Y 191;20.1672
4U6H B P 125;4U6H B F 214;1.6105
4U6H B S 126;4U6H B S 127;21.8069
4U6H B S 126;4U6H B E 128;10.1426
4U6H B S 126;4U6H B Q 129;19.3853
4U6H B S 126;4U6H B L 130;9.07509
4U6H B S 127;4U6H B E 128;27.7894
4U6H B S 127;4U6H B Q 129;1.17048
4U6H B S 127;4U6H B L 130;21.7721
4U6H B S 127;4U6H B T 131;15.6298
4U6H B E 128;4U6H B Q 129;16.2284
4U6H B E 128;4U6H B L 130;0.164563
4U6H B E 128;4U6H B T 131;16.3529
4U6H B E 128;4U6H B S 132;10.4974
4U6H B Q 129;4U6H B L 130;16.3131
4U6H B Q 129;4U6H B T 131;1.69982
4U6H B Q 129;4U6H B S 132;13.3894
4U6H B Q 129;4U6H B G 133;2.85109
4U6H B Q 129;4U6H B G 134;21.1479
4U6H B Q 129;4U6H B A 135;7.17453
4U6H B Q 129;4U6H B S 136;21.0518
4U6H B Q 129;4U6H B T 185;1.12715
4U6H B L 130;4U6H B T 131;22.717
4U6H B L 130;4U6H B S 132;0.845819
4U6H B L 130;4U6H B G 133;9.2265
4U6H B L 130;4U6H B G 134;10.8373
4U6H B L 130;4U6H B A 135;7.57669
4U6H B L 130;4U6H B K 188;38.1551
4U6H B L 130;4U6H B Y 191;15.8255
4U6H B L 130;4U6H B E 192;2.41243
4U6H B T 131;4U6H B S 132;25.4283
4U6H B T 131;4U6H B G 133;4.50494
4U6H B S 132;4U6H B G 133;23.0548
4U6H B S 132;4U6H B G 134;5.20549
4U6H B G 133;4U6H B G 134;23.264
4U6H B G 133;4U6H B T 187;4.98519
4U6H B G 133;4U6H B K 188;22.6142
4U6H B G 134;4U6H B A 135;19.9613
4U6H B G 134;4U6H B T 185;0.986859
4U6H B G 134;4U6H B L 186;4.81533
4U6H B G 134;4U6H B T 187;2.72423
4U6H B G 134;4U6H B K 188;7.31958
4U6H B A 135;4U6H B S 136;16.4907
4U6H B A 135;4U6H B V 137;4.16521
4U6H B A 135;4U6H B L 184;2.34741
4U6H B A 135;4U6H B T 185;7.36742
4U6H B A 135;4U6H B L 186;23.2947
4U6H B A 135;4U6H B T 187;3.09132
4U6H B A 135;4U6H B K 188;6.88807
4U6H B A 135;4U6H B Y 191;15.1787
4U6H B S 136;4U6H B V 137;18.5962
4U6H B S 136;4U6H B V 138;8.64836
4U6H B S 136;4U6H B T 183;9.14784
4U6H B S 136;4U6H B L 184;3.76247
4U6H B S 136;4U6H B T 185;15.1439
4U6H B V 137;4U6H B V 138;18.8176
4U6H B V 137;4U6H B W 153;20.8226
4U6H B V 137;4U6H B S 182;0.761233
4U6H B V 137;4U6H B T 183;5.44144
4U6H B V 137;4U6H B L 184;27.5417
4U6H B V 137;4U6H B L 186;4.66794
4U6H B V 137;4U6H B Y 191;10.364
4U6H B V 137;4U6H B Y 197;13.39
4U6H B V 137;4U6H B F 214;10.2519
4U6H B V 138;4U6H B C 139;22.5994
4U6H B V 138;4U6H B F 140;13.9288
4U6H B V 138;4U6H B W 153;2.37334
4U6H B V 138;4U6H B S 181;6.3462
4U6H B V 138;4U6H B S 182;6.23093
4U6H B V 138;4U6H B T 183;16.7809
4U6H B C 139;4U6H B F 140;22.0405
4U6H B C 139;4U6H B L 141;9.87269
4U6H B C 139;4U6H B W 153;10.3342
4U6H B C 139;4U6H B M 180;0.238647
4U6H B C 139;4U6H B S 181;3.6843
4U6H B C 139;4U6H B S 182;20.5521
4U6H B C 139;4U6H B C 199;20.2039
4U6H B C 139;4U6H B K 212;0.467938
4U6H B F 140;4U6H B L 141;19.7328
4U6H B F 140;4U6H B N 142;13.6633
4U6H B F 140;4U6H B M 180;4.19967
4U6H B F 140;4U6H B S 181;11.336
4U6H B L 141;4U6H B N 142;21.4876
4U6H B L 141;4U6H B F 144;10.6623
4U6H B L 141;4U6H B I 149;10.076
4U6H B L 141;4U6H B V 151;16.7691
4U6H B L 141;4U6H B S 179;3.11201
4U6H B L 141;4U6H B M 180;31.2416
4U6H B L 141;4U6H B S 181;1.42674
4U6H B L 141;4U6H B S 182;6.84851
4U6H B L 141;4U6H B C 199;5.85586
4U6H B L 141;4U6H B A 201;12.4162
4U6H B N 142;4U6H B N 143;32.4424
4U6H B N 142;4U6H B F 144;3.42785
4U6H B N 142;4U6H B Y 178;0.0169782
4U6H B N 142;4U6H B S 179;10.12
4U6H B N 142;4U6H B M 180;2.41763
4U6H B N 143;4U6H B F 144;16.6557
4U6H B N 143;4U6H B D 175;9.65286
4U6H B N 143;4U6H B T 177;23.4972
4U6H B N 143;4U6H B Y 178;5.83889
4U6H B N 143;4U6H B S 179;7.37273
4U6H B F 144;4U6H B Y 145;21.28
4U6H B F 144;4U6H B P 146;7.73622
4U6H B F 144;4U6H B K 147;10.0147
4U6H B F 144;4U6H B D 148;0.000790056
4U6H B F 144;4U6H B I 149;23.657
4U6H B F 144;4U6H B W 168;4.20467
4U6H B F 144;4U6H B T 177;8.50772
4U6H B F 144;4U6H B Y 178;36.0539
4U6H B F 144;4U6H B S 179;8.73825
4U6H B F 144;4U6H B M 180;9.06701
4U6H B F 144;4U6H B H 203;10.2305
4U6H B Y 145;4U6H B P 146;42.338
4U6H B Y 145;4U6H B K 147;1.03819
4U6H B Y 145;4U6H B Q 171;4.95294
4U6H B Y 145;4U6H B S 176;4.46894
4U6H B Y 145;4U6H B T 177;3.07252
4U6H B Y 145;4U6H B Y 178;13.2233
4U6H B Y 145;4U6H B H 203;8.22193
4U6H B Y 145;4U6H B T 205;2.37865
4U6H B P 146;4U6H B K 147;21.2101
4U6H B P 146;4U6H B D 148;28.5691
4U6H B P 146;4U6H B I 149;0.0560473
4U6H B P 146;4U6H B Y 178;1.00721
4U6H B P 146;4U6H B H 203;14.3781
4U6H B P 146;4U6H B K 204;28.3653
4U6H B P 146;4U6H B T 205;0.879969
4U6H B K 147;4U6H B D 148;31.3813
4U6H B K 147;4U6H B I 149;10.5418
4U6H B K 147;4U6H B W 168;7.41539
4U6H B K 147;4U6H B Y 178;40.5421
4U6H B D 148;4U6H B I 149;27.3618
4U6H B D 148;4U6H B H 203;10.867
4U6H B D 148;4U6H B K 204;1.98875
4U6H B I 149;4U6H B N 150;35.7465
4U6H B I 149;4U6H B V 151;5.44181
4U6H B I 149;4U6H B W 168;14.1654
4U6H B I 149;4U6H B M 180;15.4517
4U6H B I 149;4U6H B A 201;7.73261
4U6H B I 149;4U6H B T 202;11.7685
4U6H B I 149;4U6H B H 203;14.3091
4U6H B N 150;4U6H B V 151;30.3344
4U6H B N 150;4U6H B K 152;11.4312
4U6H B N 150;4U6H B M 180;3.27465
4U6H B N 150;4U6H B E 200;1.34325
4U6H B N 150;4U6H B A 201;4.37539
4U6H B N 150;4U6H B T 202;33.8601
4U6H B V 151;4U6H B K 152;27.7786
4U6H B V 151;4U6H B W 153;12.99
4U6H B V 151;4U6H B V 164;5.24389
4U6H B V 151;4U6H B N 166;7.15213
4U6H B V 151;4U6H B M 180;18.542
4U6H B V 151;4U6H B S 182;12.1695
4U6H B V 151;4U6H B C 199;12.8384
4U6H B V 151;4U6H B E 200;8.74604
4U6H B V 151;4U6H B A 201;8.1867
4U6H B K 152;4U6H B W 153;29.0649
4U6H B K 152;4U6H B K 154;19.3627
4U6H B K 152;4U6H B E 159;36.427
4U6H B K 152;4U6H B R 160;0.0958922
4U6H B K 152;4U6H B T 198;1.4906
4U6H B K 152;4U6H B C 199;2.53451
4U6H B K 152;4U6H B E 200;39.039
4U6H B W 153;4U6H B K 154;27.0985
4U6H B W 153;4U6H B E 159;6.24034
4U6H B W 153;4U6H B R 160;21.0871
4U6H B W 153;4U6H B V 164;21.8374
4U6H B W 153;4U6H B S 182;17.8766
4U6H B W 153;4U6H B T 183;2.64177
4U6H B W 153;4U6H B L 184;31.7229
4U6H B W 153;4U6H B Y 197;6.90634
4U6H B W 153;4U6H B T 198;13.9596
4U6H B W 153;4U6H B C 199;11.6193
4U6H B K 154;4U6H B I 155;23.0481
4U6H B K 154;4U6H B D 156;0.878474
4U6H B K 154;4U6H B G 157;30.2456
4U6H B K 154;4U6H B S 158;6.29443
4U6H B K 154;4U6H B E 159;9.98881
4U6H B K 154;4U6H B R 160;4.60057
4U6H B K 154;4U6H B L 184;1.25777
4U6H B K 154;4U6H B S 196;0.70655
4U6H B K 154;4U6H B Y 197;7.59254
4U6H B K 154;4U6H B T 198;31.71
4U6H B K 154;4U6H B E 200;30.6276
4U6H B I 155;4U6H B D 156;25.4894
4U6H B I 155;4U6H B G 157;2.99891
4U6H B I 155;4U6H B S 158;23.6404
4U6H B I 155;4U6H B R 160;26.1114
4U6H B I 155;4U6H B L 184;9.16482
4U6H B I 155;4U6H B L 186;12.9771
4U6H B I 155;4U6H B E 190;3.90898
4U6H B I 155;4U6H B H 194;25.6966
4U6H B I 155;4U6H B S 196;7.18093
4U6H B I 155;4U6H B Y 197;19.9648
4U6H B D 156;4U6H B G 157;21.0344
4U6H B D 156;4U6H B S 158;12.5933
4U6H B D 156;4U6H B H 194;18.5882
4U6H B D 156;4U6H B N 195;7.19015
4U6H B D 156;4U6H B S 196;25.554
4U6H B G 157;4U6H B S 158;22.0842
4U6H B G 157;4U6H B E 159;2.82377
4U6H B G 157;4U6H B S 196;4.71867
4U6H B G 157;4U6H B T 198;1.86967
4U6H B S 158;4U6H B E 159;27.1532
4U6H B S 158;4U6H B R 160;4.36411
4U6H B E 159;4U6H B R 160;27.3459
4U6H B E 159;4U6H B Q 161;29.0451
4U6H B R 160;4U6H B Q 161;26.0762
4U6H B R 160;4U6H B N 162;36.868
4U6H B R 160;4U6H B G 163;3.30878
4U6H B R 160;4U6H B V 164;8.16856
4U6H B R 160;4U6H B L 184;15.0238
4U6H B R 160;4U6H B T 185;2.3946
4U6H B R 160;4U6H B L 186;21.3381
4U6H B R 160;4U6H B E 190;8.15382
4U6H B Q 161;4U6H B N 162;35.436
4U6H B Q 161;4U6H B G 163;0.519196
4U6H B Q 161;4U6H B V 164;16.6233
4U6H B N 162;4U6H B G 163;25.0249
4U6H B N 162;4U6H B V 164;6.5599
4U6H B N 162;4U6H B L 184;5.92971
4U6H B G 163;4U6H B V 164;23.0513
4U6H B G 163;4U6H B L 165;6.89582
4U6H B G 163;4U6H B T 183;4.11515
4U6H B G 163;4U6H B L 184;7.14248
4U6H B G 163;4U6H B T 185;23.207
4U6H B V 164;4U6H B L 165;30.8057
4U6H B V 164;4U6H B N 166;15.8795
4U6H B V 164;4U6H B S 182;5.37211
4U6H B V 164;4U6H B T 183;4.75651
4U6H B V 164;4U6H B L 184;12.3305
4U6H B L 165;4U6H B N 166;31.224
4U6H B L 165;4U6H B S 181;0.920971
4U6H B L 165;4U6H B S 182;1.88484
4U6H B L 165;4U6H B T 183;31.1413
4U6H B L 165;4U6H B T 185;0.932073
4U6H B N 166;4U6H B S 167;23.6464
4U6H B N 166;4U6H B W 168;24.3411
4U6H B N 166;4U6H B M 180;17.6816
4U6H B N 166;4U6H B S 181;6.93582
4U6H B N 166;4U6H B S 182;14.5108
4U6H B N 166;4U6H B T 183;0.342358
4U6H B S 167;4U6H B W 168;32.1405
4U6H B S 167;4U6H B M 180;8.96206
4U6H B S 167;4U6H B S 181;20.369
4U6H B W 168;4U6H B T 169;28.9837
4U6H B W 168;4U6H B D 170;0.844003
4U6H B W 168;4U6H B Y 178;0.048712
4U6H B W 168;4U6H B S 179;8.24449
4U6H B W 168;4U6H B M 180;27.7054
4U6H B T 169;4U6H B D 170;42.1894
4U6H B T 169;4U6H B T 177;0.601328
4U6H B T 169;4U6H B Y 178;13.8683
4U6H B T 169;4U6H B S 179;27.5399
4U6H B D 170;4U6H B Q 171;30.9663
4U6H B D 170;4U6H B D 172;6.01321
4U6H B D 170;4U6H B T 177;1.75722
4U6H B D 170;4U6H B Y 178;4.34528
4U6H B Q 171;4U6H B D 172;21.4206
4U6H B Q 171;4U6H B S 173;4.28302
4U6H B Q 171;4U6H B S 176;18.5789
4U6H B Q 171;4U6H B T 177;6.55246
4U6H B Q 171;4U6H B Y 178;32.604
4U6H B D 172;4U6H B S 173;23.3762
4U6H B D 172;4U6H B K 174;24.3683
4U6H B D 172;4U6H B D 175;15.0298
4U6H B D 172;4U6H B S 176;14.6255
4U6H B D 172;4U6H B T 177;18.842
4U6H B S 173;4U6H B K 174;34.0118
4U6H B S 173;4U6H B S 176;0.493907
4U6H B K 174;4U6H B D 175;30.385
4U6H B K 174;4U6H B S 176;4.80547
4U6H B D 175;4U6H B S 176;22.7204
4U6H B D 175;4U6H B T 177;26.0796
4U6H B S 176;4U6H B T 177;17.0695
4U6H B S 176;4U6H B Y 178;1.76168
4U6H B T 177;4U6H B Y 178;26.1705
4U6H B T 177;4U6H B S 179;2.54274
4U6H B Y 178;4U6H B S 179;24.7951
4U6H B S 179;4U6H B M 180;17.0959
4U6H B M 180;4U6H B S 181;22.1617
4U6H B M 180;4U6H B S 182;3.81976
4U6H B S 181;4U6H B S 182;22.8101
4U6H B S 181;4U6H B T 183;7.16525
4U6H B S 182;4U6H B T 183;21.8973
4U6H B S 182;4U6H B C 199;0.806209
4U6H B T 183;4U6H B L 184;19.6304
4U6H B T 183;4U6H B T 185;10.7971
4U6H B L 184;4U6H B T 185;22.0497
4U6H B L 184;4U6H B L 186;16.7975
4U6H B L 184;4U6H B Y 197;6.08836
4U6H B T 185;4U6H B L 186;36.773
4U6H B L 186;4U6H B T 187;31.9229
4U6H B L 186;4U6H B K 188;0.0223058
4U6H B L 186;4U6H B E 190;22.0974
4U6H B L 186;4U6H B Y 191;14.8234
4U6H B L 186;4U6H B H 194;0.126074
4U6H B L 186;4U6H B Y 197;10.3246
4U6H B T 187;4U6H B K 188;19.5813
4U6H B T 187;4U6H B D 189;14.7869
4U6H B T 187;4U6H B E 190;19.5829
4U6H B T 187;4U6H B Y 191;6.81884
4U6H B T 187;4U6H B R 193;3.27865
4U6H B K 188;4U6H B D 189;26.6725
4U6H B K 188;4U6H B E 190;0.371581
4U6H B K 188;4U6H B Y 191;10.4121
4U6H B K 188;4U6H B E 192;38.283
4U6H B D 189;4U6H B E 190;16.3042
4U6H B D 189;4U6H B Y 191;1.37292
4U6H B D 189;4U6H B E 192;18.6996
4U6H B D 189;4U6H B R 193;31.3496
4U6H B E 190;4U6H B Y 191;17.1564
4U6H B E 190;4U6H B E 192;1.1141
4U6H B E 190;4U6H B R 193;33.2062
4U6H B E 190;4U6H B H 194;21.8533
4U6H B E 190;4U6H B Y 197;2.8097
4U6H B Y 191;4U6H B E 192;25.0261
4U6H B Y 191;4U6H B R 193;1.76817
4U6H B Y 191;4U6H B H 194;5.85988
4U6H B Y 191;4U6H B Y 197;31.3085
4U6H B Y 191;4U6H B F 214;12.6632
4U6H B Y 191;4U6H B R 216;26.5295
4U6H B E 192;4U6H B R 193;21.9487
4U6H B E 192;4U6H B H 194;6.02862
4U6H B E 192;4U6H B R 216;40.0717
4U6H B R 193;4U6H B H 194;28.1116
4U6H B H 194;4U6H B N 195;21.2663
4U6H B H 194;4U6H B S 196;1.04128
4U6H B H 194;4U6H B Y 197;15.5091
4U6H B H 194;4U6H B R 216;14.1745
4U6H B N 195;4U6H B S 196;26.571
4U6H B N 195;4U6H B Y 197;6.57359
4U6H B N 195;4U6H B F 214;0.591134
4U6H B N 195;4U6H B N 215;23.9449
4U6H B N 195;4U6H B R 216;25.1241
4U6H B S 196;4U6H B Y 197;27.6217
4U6H B S 196;4U6H B T 198;9.70886
4U6H B S 196;4U6H B S 213;3.29755
4U6H B S 196;4U6H B F 214;5.79067
4U6H B S 196;4U6H B N 215;14.474
4U6H B Y 197;4U6H B T 198;19.4457
4U6H B Y 197;4U6H B S 213;7.71051
4U6H B Y 197;4U6H B F 214;33.3738
4U6H B Y 197;4U6H B R 216;7.22947
4U6H B T 198;4U6H B C 199;21.5464
4U6H B T 198;4U6H B E 200;13.6288
4U6H B T 198;4U6H B V 211;14.5979
4U6H B T 198;4U6H B K 212;3.93598
4U6H B T 198;4U6H B S 213;18.8308
4U6H B C 199;4U6H B E 200;18.5779
4U6H B C 199;4U6H B A 201;3.85489
4U6H B C 199;4U6H B I 210;4.58198
4U6H B C 199;4U6H B V 211;2.83194
4U6H B C 199;4U6H B K 212;19.4582
4U6H B E 200;4U6H B A 201;19.7458
4U6H B E 200;4U6H B T 202;3.23292
4U6H B E 200;4U6H B P 209;18.4976
4U6H B E 200;4U6H B I 210;4.45583
4U6H B E 200;4U6H B V 211;19.9598
4U6H B A 201;4U6H B T 202;23.6676
4U6H B A 201;4U6H B H 203;3.32644
4U6H B A 201;4U6H B P 209;7.67878
4U6H B A 201;4U6H B I 210;27.7088
4U6H B T 202;4U6H B H 203;35.4471
4U6H B T 202;4U6H B S 206;3.65904
4U6H B T 202;4U6H B T 207;9.36109
4U6H B T 202;4U6H B P 209;20.2476
4U6H B H 203;4U6H B K 204;31.8431
4U6H B H 203;4U6H B T 205;21.8513
4U6H B H 203;4U6H B S 206;19.3687
4U6H B H 203;4U6H B T 207;3.21287
4U6H B H 203;4U6H B I 210;7.68414
4U6H B K 204;4U6H B T 205;25.6282
4U6H B K 204;4U6H B S 206;3.96249
4U6H B K 204;4U6H B T 207;4.79072
4U6H B T 205;4U6H B S 206;33.2265
4U6H B T 205;4U6H B I 210;3.4803
4U6H B S 206;4U6H B T 207;27.1863
4U6H B S 206;4U6H B S 208;27.8812
4U6H B S 206;4U6H B P 209;1.33656
4U6H B S 206;4U6H B I 210;12.5448
4U6H B T 207;4U6H B S 208;26.7799
4U6H B T 207;4U6H B P 209;11.7253
4U6H B S 208;4U6H B P 209;38.6754
4U6H B S 208;4U6H B I 210;6.77727
4U6H B P 209;4U6H B I 210;21.1632
4U6H B P 209;4U6H B V 211;19.6122
4U6H B I 210;4U6H B V 211;27.8319
4U6H B I 210;4U6H B K 212;7.40296
4U6H B V 211;4U6H B K 212;35.8503
4U6H B V 211;4U6H B S 213;7.09279
4U6H B K 212;4U6H B S 213;26.3262
4U6H B S 213;4U6H B F 214;30.9953
4U6H B S 213;4U6H B N 215;0.139814
4U6H B F 214;4U6H B N 215;37.5948
4U6H B F 214;4U6H B R 216;10.6142
4U6H B N 215;4U6H B R 216;22.6714
4U6H B N 215;4U6H B N 217;14.5461
4U6H B R 216;4U6H B N 217;58.8424
