V1;V2;Weight
4X4M A C 229;4X4M A P 230;35.2488
4X4M A C 229;4X4M A A 231;21.9073
4X4M A C 229;4X4M A P 232;2.75573
4X4M A P 230;4X4M A A 231;20.3713
4X4M A P 230;4X4M A P 232;14.5474
4X4M A P 230;4X4M A E 333;1.43499
4X4M A P 230;4X4M A K 334;24.1172
4X4M A P 230;4X4M A T 335;23.8219
4X4M A A 231;4X4M A P 232;28.6354
4X4M A A 231;4X4M A E 233;23.6191
4X4M A A 231;4X4M A K 334;1.36496
4X4M A P 232;4X4M A E 233;26.7577
4X4M A P 232;4X4M A L 234;10.1881
4X4M A P 232;4X4M A E 333;6.51424
4X4M A P 232;4X4M A K 334;0.283375
4X4M A E 233;4X4M A L 234;38.3136
4X4M A E 233;4X4M B A 231;20.0978
4X4M A L 234;4X4M A L 235;55.0497
4X4M A L 234;4X4M A P 329;10.2738
4X4M A L 234;4X4M A A 330;9.48509
4X4M A L 235;4X4M A G 236;32.6311
4X4M A L 235;4X4M A G 237;10.0675
4X4M A G 236;4X4M A G 237;22.9656
4X4M A G 236;4X4M B L 234;0.535109
4X4M A G 237;4X4M A P 238;27.9805
4X4M A G 237;4X4M A S 239;8.70641
4X4M A G 237;4X4M A D 265;6.96156
4X4M A G 237;4X4M A L 328;6.92758
4X4M A P 238;4X4M A S 239;22.6784
4X4M A P 238;4X4M A V 240;2.32942
4X4M A P 238;4X4M A V 263;6.91828
4X4M A P 238;4X4M A V 264;6.39635
4X4M A P 238;4X4M A D 265;20.9551
4X4M A P 238;4X4M A V 266;7.46263
4X4M A P 238;4X4M A S 267;0.127009
4X4M A P 238;4X4M A N 325;5.7862
4X4M A P 238;4X4M A A 327;8.36022
4X4M A P 238;4X4M A L 328;28.7205
4X4M A P 238;4X4M A I 332;8.99959
4X4M A S 239;4X4M A V 240;28.3993
4X4M A S 239;4X4M A F 241;14.9841
4X4M A S 239;4X4M A V 262;1.47088
4X4M A S 239;4X4M A V 263;5.44
4X4M A S 239;4X4M A V 264;28.2149
4X4M A S 239;4X4M A D 265;9.35511
4X4M A S 239;4X4M A I 332;1.23774
4X4M A V 240;4X4M A F 241;34.192
4X4M A V 240;4X4M A L 242;2.02216
4X4M A V 240;4X4M A C 261;11.2839
4X4M A V 240;4X4M A V 262;9.7384
4X4M A V 240;4X4M A V 263;14.9258
4X4M A V 240;4X4M A C 321;0.317974
4X4M A V 240;4X4M A V 323;16.0604
4X4M A V 240;4X4M A L 328;0.0603127
4X4M A V 240;4X4M A I 332;19.9213
4X4M A V 240;4X4M A K 334;35.1325
4X4M A F 241;4X4M A L 242;23.1026
4X4M A F 241;4X4M A F 243;24.769
4X4M A F 241;4X4M A T 260;1.04657
4X4M A F 241;4X4M A C 261;1.82499
4X4M A F 241;4X4M A V 262;27.3815
4X4M A F 241;4X4M A V 264;17.6834
4X4M A F 241;4X4M A K 334;2.54787
4X4M A L 242;4X4M A F 243;25.6565
4X4M A L 242;4X4M A P 244;4.98781
4X4M A L 242;4X4M A V 259;8.11172
4X4M A L 242;4X4M A T 260;8.07782
4X4M A L 242;4X4M A C 261;16.0387
4X4M A L 242;4X4M A W 277;5.69571
4X4M A L 242;4X4M A Y 319;4.09699
4X4M A L 242;4X4M A K 320;0.294098
4X4M A L 242;4X4M A C 321;14.0299
4X4M A L 242;4X4M A K 334;22.4797
4X4M A L 242;4X4M A T 335;4.83374
4X4M A L 242;4X4M A I 336;34.4823
4X4M A F 243;4X4M A P 244;40.2933
4X4M A F 243;4X4M A E 258;0.203313
4X4M A F 243;4X4M A V 259;6.67465
4X4M A F 243;4X4M A T 260;31.4224
4X4M A F 243;4X4M A V 262;18.948
4X4M A F 243;4X4M A I 336;3.4386
4X4M A P 244;4X4M A P 245;38.2159
4X4M A P 244;4X4M A K 246;6.93633
4X4M A P 244;4X4M A E 258;3.14622
4X4M A P 244;4X4M A V 259;3.01705
4X4M A P 244;4X4M A T 260;2.82726
4X4M A P 244;4X4M A W 313;13.5011
4X4M A P 244;4X4M A I 336;11.9846
4X4M A P 245;4X4M A K 246;28.1477
4X4M A P 245;4X4M A P 247;8.22718
4X4M A P 245;4X4M A D 249;2.51078
4X4M A P 245;4X4M A T 250;16.7029
4X4M A P 245;4X4M A P 257;9.1769
4X4M A P 245;4X4M A E 258;21.7392
4X4M A P 245;4X4M A V 259;10.6878
4X4M A P 245;4X4M A V 308;4.79679
4X4M A P 245;4X4M A W 313;22.3014
4X4M A K 246;4X4M A P 247;29.2408
4X4M A K 246;4X4M A K 248;6.57615
4X4M A K 246;4X4M A D 249;33.8184
4X4M A K 246;4X4M A T 250;8.04045
4X4M A P 247;4X4M A K 248;19.9524
4X4M A P 247;4X4M A D 249;1.22187
4X4M A P 247;4X4M A T 250;19.5347
4X4M A P 247;4X4M A L 251;15.7168
4X4M A P 247;4X4M A D 376;14.618
4X4M A P 247;4X4M A I 377;19.481
4X4M A P 247;4X4M A A 378;6.11966
4X4M A K 248;4X4M A D 249;20.347
4X4M A K 248;4X4M A T 250;0.575235
4X4M A K 248;4X4M A L 251;13.3041
4X4M A K 248;4X4M A M 252;26.6673
4X4M A K 248;4X4M A R 255;26.3132
4X4M A K 248;4X4M A A 378;13.0844
4X4M A K 248;4X4M A E 380;15.3452
4X4M A K 248;4X4M A M 428;9.17376
4X4M A D 249;4X4M A T 250;15.587
4X4M A D 249;4X4M A L 251;2.26057
4X4M A D 249;4X4M A M 252;4.48759
4X4M A D 249;4X4M A R 255;32.8996
4X4M A D 249;4X4M A T 256;10.406
4X4M A D 249;4X4M A P 257;21.2017
4X4M A D 249;4X4M A E 258;9.11156
4X4M A D 249;4X4M A H 310;4.68348
4X4M A T 250;4X4M A L 251;34.0329
4X4M A T 250;4X4M A M 252;0.221242
4X4M A T 250;4X4M A P 257;11.1758
4X4M A T 250;4X4M A H 310;18.2415
4X4M A T 250;4X4M A W 313;17.3546
4X4M A T 250;4X4M A L 314;17.731
4X4M A T 250;4X4M A H 435;0.287982
4X4M A L 251;4X4M A M 252;34.2524
4X4M A L 251;4X4M A I 253;4.17021
4X4M A L 251;4X4M A H 310;2.36671
4X4M A L 251;4X4M A L 314;4.72494
4X4M A L 251;4X4M A I 377;2.50971
4X4M A L 251;4X4M A A 378;8.96831
4X4M A L 251;4X4M A M 428;23.3684
4X4M A L 251;4X4M A H 429;8.46027
4X4M A L 251;4X4M A E 430;7.71059
4X4M A L 251;4X4M A H 435;24.954
4X4M A M 252;4X4M A I 253;19.9231
4X4M A M 252;4X4M A S 254;16.2994
4X4M A M 252;4X4M A R 255;22.0893
4X4M A M 252;4X4M A H 310;6.15574
4X4M A M 252;4X4M A M 428;19.9481
4X4M A M 252;4X4M A Y 436;2.82841
4X4M A I 253;4X4M A S 254;30.3046
4X4M A I 253;4X4M A R 255;10.0741
4X4M A I 253;4X4M A H 310;35.3093
4X4M A I 253;4X4M A Q 311;0.713841
4X4M A S 254;4X4M A R 255;30.4955
4X4M A R 255;4X4M A T 256;39.6262
4X4M A R 255;4X4M A P 257;5.72928
4X4M A R 255;4X4M A H 310;8.34449
4X4M A T 256;4X4M A P 257;28.862
4X4M A T 256;4X4M A E 258;22.515
4X4M A T 256;4X4M A T 307;16.8556
4X4M A T 256;4X4M A V 308;1.33357
4X4M A P 257;4X4M A E 258;22.5751
4X4M A P 257;4X4M A L 306;0.00627807
4X4M A P 257;4X4M A T 307;3.72165
4X4M A P 257;4X4M A V 308;32.6737
4X4M A P 257;4X4M A H 310;19.0485
4X4M A P 257;4X4M A W 313;0.127644
4X4M A E 258;4X4M A V 259;21.7826
4X4M A E 258;4X4M A T 260;11.0203
4X4M A E 258;4X4M A K 290;5.76023
4X4M A E 258;4X4M A V 305;29.0065
4X4M A E 258;4X4M A L 306;4.7524
4X4M A E 258;4X4M A T 307;6.63924
4X4M A E 258;4X4M A V 308;2.70442
4X4M A V 259;4X4M A T 260;22.5494
4X4M A V 259;4X4M A W 277;14.7579
4X4M A V 259;4X4M A S 304;2.26233
4X4M A V 259;4X4M A V 305;6.14749
4X4M A V 259;4X4M A L 306;19.9226
4X4M A V 259;4X4M A V 308;13.8939
4X4M A V 259;4X4M A W 313;8.7197
4X4M A V 259;4X4M A Y 319;15.118
4X4M A V 259;4X4M A I 336;14.2009
4X4M A T 260;4X4M A C 261;17.7542
4X4M A T 260;4X4M A V 262;13.2142
4X4M A T 260;4X4M A W 277;0.540374
4X4M A T 260;4X4M A R 301;0.892099
4X4M A T 260;4X4M A V 303;14.6019
4X4M A T 260;4X4M A S 304;6.42771
4X4M A T 260;4X4M A V 305;7.7984
4X4M A C 261;4X4M A V 262;19.5701
4X4M A C 261;4X4M A V 263;5.84542
4X4M A C 261;4X4M A F 275;11.2087
4X4M A C 261;4X4M A W 277;11.4554
4X4M A C 261;4X4M A V 302;2.09457
4X4M A C 261;4X4M A V 303;3.61079
4X4M A C 261;4X4M A S 304;15.213
4X4M A C 261;4X4M A C 321;18.7816
4X4M A C 261;4X4M A V 323;3.72181
4X4M A C 261;4X4M A K 334;1.39866
4X4M A V 262;4X4M A V 263;23.7491
4X4M A V 262;4X4M A V 264;10.7884
4X4M A V 262;4X4M A R 301;24.97
4X4M A V 262;4X4M A V 302;5.12024
4X4M A V 262;4X4M A V 303;6.56273
4X4M A V 263;4X4M A V 264;25.9285
4X4M A V 263;4X4M A V 266;14.3779
4X4M A V 263;4X4M A V 273;13.0712
4X4M A V 263;4X4M A F 275;11.6207
4X4M A V 263;4X4M A Y 300;2.15617
4X4M A V 263;4X4M A R 301;7.52673
4X4M A V 263;4X4M A V 302;23.7458
4X4M A V 263;4X4M A V 323;16.2132
4X4M A V 264;4X4M A D 265;32.2043
4X4M A V 264;4X4M A V 266;5.97159
4X4M A V 264;4X4M A T 299;1.85296
4X4M A V 264;4X4M A Y 300;5.61371
4X4M A V 264;4X4M A R 301;10.4943
4X4M A D 265;4X4M A V 266;21.1725
4X4M A D 265;4X4M A S 267;4.86481
4X4M A D 265;4X4M A T 299;22.7165
4X4M A D 265;4X4M A Y 300;2.42387
4X4M A V 266;4X4M A S 267;30.2072
4X4M A V 266;4X4M A H 268;1.20625
4X4M A V 266;4X4M A D 270;7.11947
4X4M A V 266;4X4M A P 271;14.8578
4X4M A V 266;4X4M A V 273;13.8133
4X4M A V 266;4X4M A S 298;0.647868
4X4M A V 266;4X4M A T 299;12.8988
4X4M A V 266;4X4M A Y 300;31.064
4X4M A V 266;4X4M A V 302;9.31522
4X4M A V 266;4X4M A N 325;3.80396
4X4M A S 267;4X4M A H 268;21.5668
4X4M A S 267;4X4M A E 269;17.8147
4X4M A S 267;4X4M A D 270;25.3241
4X4M A S 267;4X4M A P 271;7.39921
4X4M A S 267;4X4M A S 298;0.252418
4X4M A S 267;4X4M A T 299;0.251219
4X4M A S 267;4X4M A Y 300;2.70084
4X4M A S 267;4X4M A A 327;0.107814
4X4M A H 268;4X4M A E 269;35.9268
4X4M A H 268;4X4M A D 270;0.745715
4X4M A H 268;4X4M A P 271;14.7432
4X4M A H 268;4X4M A E 294;13.9447
4X4M A H 268;4X4M A S 298;23.9473
4X4M A H 268;4X4M A T 299;0.0769782
4X4M A H 268;4X4M A Y 300;29.0717
4X4M A E 269;4X4M A D 270;33.5407
4X4M A E 269;4X4M A P 271;5.91525
4X4M A D 270;4X4M A P 271;17.7826
4X4M A D 270;4X4M A E 272;6.60105
4X4M A D 270;4X4M A N 325;19.6275
4X4M A D 270;4X4M A K 326;12.6532
4X4M A D 270;4X4M A A 327;18.7014
4X4M A P 271;4X4M A E 272;40.6234
4X4M A P 271;4X4M A V 273;11.3099
4X4M A P 271;4X4M A R 292;13.4522
4X4M A P 271;4X4M A Y 300;8.78826
4X4M A P 271;4X4M A V 302;2.75478
4X4M A P 271;4X4M A N 325;0.497361
4X4M A E 272;4X4M A V 273;25.8285
4X4M A E 272;4X4M A K 274;0.114007
4X4M A E 272;4X4M A S 324;1.33646
4X4M A E 272;4X4M A N 325;17.9797
4X4M A E 272;4X4M A K 326;1.5599
4X4M A V 273;4X4M A K 274;28.5739
4X4M A V 273;4X4M A F 275;24.2251
4X4M A V 273;4X4M A V 302;14.3527
4X4M A V 273;4X4M A V 323;11.5428
4X4M A V 273;4X4M A S 324;5.10564
4X4M A V 273;4X4M A N 325;9.80027
4X4M A K 274;4X4M A F 275;36.2019
4X4M A K 274;4X4M A N 276;22.0249
4X4M A K 274;4X4M A E 283;0.320135
4X4M A K 274;4X4M A K 322;1.55931
4X4M A K 274;4X4M A V 323;6.77401
4X4M A K 274;4X4M A S 324;37.0113
4X4M A F 275;4X4M A N 276;25.494
4X4M A F 275;4X4M A W 277;20.9995
4X4M A F 275;4X4M A E 283;0.0207857
4X4M A F 275;4X4M A A 287;1.58964
4X4M A F 275;4X4M A T 289;6.91904
4X4M A F 275;4X4M A V 302;17.9557
4X4M A F 275;4X4M A V 303;1.89222
4X4M A F 275;4X4M A S 304;20.7306
4X4M A F 275;4X4M A C 321;6.92235
4X4M A F 275;4X4M A K 322;5.14441
4X4M A F 275;4X4M A V 323;6.89989
4X4M A N 276;4X4M A W 277;26.6928
4X4M A N 276;4X4M A Y 278;13.554
4X4M A N 276;4X4M A E 283;19.2394
4X4M A N 276;4X4M A V 284;0.014534
4X4M A N 276;4X4M A K 320;0.4839
4X4M A N 276;4X4M A C 321;5.75776
4X4M A N 276;4X4M A K 322;42.4467
4X4M A N 276;4X4M A S 324;7.89563
4X4M A W 277;4X4M A Y 278;20.3555
4X4M A W 277;4X4M A V 279;9.30964
4X4M A W 277;4X4M A V 282;0.534033
4X4M A W 277;4X4M A E 283;5.0577
4X4M A W 277;4X4M A V 284;26.2792
4X4M A W 277;4X4M A H 285;1.2143
4X4M A W 277;4X4M A A 287;21.2829
4X4M A W 277;4X4M A S 304;18.9643
4X4M A W 277;4X4M A V 305;0.85934
4X4M A W 277;4X4M A L 306;34.3338
4X4M A W 277;4X4M A Y 319;5.70534
4X4M A W 277;4X4M A K 320;14.1059
4X4M A W 277;4X4M A C 321;14.8692
4X4M A Y 278;4X4M A V 279;17.6273
4X4M A Y 278;4X4M A D 280;2.58926
4X4M A Y 278;4X4M A G 281;24.3876
4X4M A Y 278;4X4M A V 282;2.07282
4X4M A Y 278;4X4M A E 283;30.4498
4X4M A Y 278;4X4M A E 318;0.0596924
4X4M A Y 278;4X4M A Y 319;0.370715
4X4M A Y 278;4X4M A K 320;46.4025
4X4M A Y 278;4X4M A K 322;36.5077
4X4M A V 279;4X4M A D 280;24.3718
4X4M A V 279;4X4M A G 281;3.87561
4X4M A V 279;4X4M A V 282;25.8783
4X4M A V 279;4X4M A V 284;18.6526
4X4M A V 279;4X4M A L 306;12.6511
4X4M A V 279;4X4M A K 317;11.6518
4X4M A V 279;4X4M A E 318;9.8126
4X4M A V 279;4X4M A Y 319;20.7703
4X4M A V 279;4X4M A K 320;0.266092
4X4M A D 280;4X4M A G 281;25.6695
4X4M A D 280;4X4M A V 282;9.08824
4X4M A D 280;4X4M A K 317;15.7461
4X4M A D 280;4X4M A E 318;35.419
4X4M A D 280;4X4M A K 320;2.9423
4X4M A G 281;4X4M A V 282;22.3224
4X4M A G 281;4X4M A E 283;7.58783
4X4M A G 281;4X4M A K 320;3.73011
4X4M A V 282;4X4M A E 283;28.8004
4X4M A V 282;4X4M A V 284;13.3568
4X4M A E 283;4X4M A V 284;33.1253
4X4M A E 283;4X4M A H 285;23.2252
4X4M A V 284;4X4M A H 285;43.0132
4X4M A V 284;4X4M A N 286;11.8239
4X4M A V 284;4X4M A L 306;8.26376
4X4M A H 285;4X4M A N 286;32.5732
4X4M A H 285;4X4M A A 287;11.2269
4X4M A H 285;4X4M A L 306;2.5748
4X4M A N 286;4X4M A A 287;26.3308
4X4M A N 286;4X4M A K 288;13.6128
4X4M A N 286;4X4M A V 305;0.970785
4X4M A N 286;4X4M A L 306;14.4916
4X4M A N 286;4X4M A T 307;18.8307
4X4M A A 287;4X4M A K 288;30.545
4X4M A A 287;4X4M A S 304;6.03015
4X4M A A 287;4X4M A V 305;4.50389
4X4M A A 287;4X4M A L 306;13.3438
4X4M A K 288;4X4M A T 289;37.0628
4X4M A K 288;4X4M A K 290;1.07818
4X4M A K 288;4X4M A S 304;10.4882
4X4M A K 288;4X4M A V 305;23.2884
4X4M A K 288;4X4M A T 307;15.0734
4X4M A T 289;4X4M A K 290;34.9615
4X4M A T 289;4X4M A P 291;0.986545
4X4M A T 289;4X4M A R 292;0.108192
4X4M A T 289;4X4M A V 302;13.4364
4X4M A T 289;4X4M A V 303;9.97902
4X4M A T 289;4X4M A S 304;5.72982
4X4M A T 289;4X4M A V 305;2.457
4X4M A K 290;4X4M A P 291;40.5484
4X4M A K 290;4X4M A R 292;3.44764
4X4M A K 290;4X4M A E 293;2.14363
4X4M A K 290;4X4M A V 302;2.5043
4X4M A K 290;4X4M A V 303;27.1181
4X4M A K 290;4X4M A V 305;22.9809
4X4M A P 291;4X4M A R 292;30.8714
4X4M A P 291;4X4M A E 293;14.94
4X4M A P 291;4X4M A R 301;0.527614
4X4M A P 291;4X4M A V 302;0.258184
4X4M A P 291;4X4M A V 303;0.458826
4X4M A R 292;4X4M A E 293;22.9522
4X4M A R 292;4X4M A E 294;1.35833
4X4M A R 292;4X4M A Y 300;42.8442
4X4M A R 292;4X4M A R 301;8.35913
4X4M A R 292;4X4M A V 302;17.3424
4X4M A E 293;4X4M A E 294;23.9607
4X4M A E 293;4X4M A Q 295;18.9352
4X4M A E 293;4X4M A T 299;0.392641
4X4M A E 293;4X4M A Y 300;7.09835
4X4M A E 293;4X4M A R 301;44.7266
4X4M A E 293;4X4M A V 303;4.4961
4X4M A E 294;4X4M A Q 295;31.7671
4X4M A E 294;4X4M A Y 296;3.68843
4X4M A E 294;4X4M A S 298;11.2366
4X4M A E 294;4X4M A T 299;4.94451
4X4M A E 294;4X4M A Y 300;28.8594
4X4M A Q 295;4X4M A Y 296;36.8815
4X4M A Q 295;4X4M A N 297;15.3205
4X4M A Q 295;4X4M A S 298;8.61394
4X4M A Q 295;4X4M A T 299;22.0054
4X4M A Q 295;4X4M A Y 300;2.73194
4X4M A Q 295;4X4M A R 301;23.4621
4X4M A Y 296;4X4M A N 297;22.7307
4X4M A Y 296;4X4M A S 298;3.17152
4X4M A N 297;4X4M A S 298;19.0689
4X4M A N 297;4X4M A T 299;24.5033
4X4M A S 298;4X4M A T 299;26.5852
4X4M A S 298;4X4M A Y 300;0.42207
4X4M A T 299;4X4M A Y 300;28.5195
4X4M A Y 300;4X4M A R 301;22.26
4X4M A Y 300;4X4M A V 302;7.63245
4X4M A R 301;4X4M A V 302;27.8132
4X4M A R 301;4X4M A V 303;27.215
4X4M A V 302;4X4M A V 303;31.4827
4X4M A V 302;4X4M A S 304;0.0175456
4X4M A V 303;4X4M A S 304;25.2283
4X4M A V 303;4X4M A V 305;11.8074
4X4M A S 304;4X4M A V 305;23.9835
4X4M A S 304;4X4M A L 306;0.213842
4X4M A V 305;4X4M A L 306;22.2612
4X4M A V 305;4X4M A T 307;12.6548
4X4M A L 306;4X4M A T 307;34.6385
4X4M A L 306;4X4M A V 308;10.7672
4X4M A L 306;4X4M A Y 319;12.4756
4X4M A T 307;4X4M A V 308;28.2813
4X4M A T 307;4X4M A L 309;4.87453
4X4M A V 308;4X4M A L 309;37.0492
4X4M A V 308;4X4M A H 310;7.08325
4X4M A V 308;4X4M A D 312;0.694678
4X4M A V 308;4X4M A W 313;14.288
4X4M A V 308;4X4M A Y 319;22.0232
4X4M A L 309;4X4M A H 310;23.5061
4X4M A L 309;4X4M A Q 311;5.38421
4X4M A L 309;4X4M A D 312;38.9755
4X4M A L 309;4X4M A W 313;3.96049
4X4M A L 309;4X4M A Y 319;0.322519
4X4M A H 310;4X4M A Q 311;34.5297
4X4M A H 310;4X4M A D 312;0.879546
4X4M A H 310;4X4M A W 313;10.0006
4X4M A H 310;4X4M A L 314;16.3781
4X4M A Q 311;4X4M A D 312;24.3232
4X4M A Q 311;4X4M A W 313;0.974335
4X4M A Q 311;4X4M A L 314;17.625
4X4M A Q 311;4X4M A N 315;22.6827
4X4M A Q 311;4X4M A K 317;0.7923
4X4M A Q 311;4X4M A H 435;4.33374
4X4M A D 312;4X4M A W 313;16.5575
4X4M A D 312;4X4M A L 314;0.642257
4X4M A D 312;4X4M A N 315;5.49691
4X4M A D 312;4X4M A G 316;1.79101
4X4M A D 312;4X4M A K 317;45.9799
4X4M A D 312;4X4M A Y 319;12.8796
4X4M A W 313;4X4M A L 314;28.6031
4X4M A W 313;4X4M A N 315;1.00558
4X4M A W 313;4X4M A G 316;8.41875
4X4M A W 313;4X4M A K 317;4.74865
4X4M A W 313;4X4M A Y 319;25.1064
4X4M A W 313;4X4M A I 336;9.88908
4X4M A W 313;4X4M A S 337;14.6422
4X4M A W 313;4X4M A K 338;37.6863
4X4M A L 314;4X4M A N 315;26.9269
4X4M A L 314;4X4M A G 316;3.433
4X4M A L 314;4X4M A K 338;20.3526
4X4M A L 314;4X4M A E 430;35.1943
4X4M A L 314;4X4M A H 435;18.8192
4X4M A N 315;4X4M A G 316;23.7473
4X4M A N 315;4X4M A K 317;16.8287
4X4M A N 315;4X4M A K 338;0.236916
4X4M A G 316;4X4M A K 317;25.4773
4X4M A G 316;4X4M A E 318;10.8953
4X4M A G 316;4X4M A S 337;6.22209
4X4M A G 316;4X4M A K 338;18.1333
4X4M A K 317;4X4M A E 318;20.3064
4X4M A K 317;4X4M A Y 319;19.6957
4X4M A K 317;4X4M A S 337;6.42137
4X4M A K 317;4X4M A K 338;1.31172
4X4M A E 318;4X4M A Y 319;23.7972
4X4M A E 318;4X4M A K 320;3.06846
4X4M A E 318;4X4M A T 335;16.3341
4X4M A E 318;4X4M A I 336;7.12306
4X4M A E 318;4X4M A S 337;25.0317
4X4M A E 318;4X4M A K 340;0.748584
4X4M A Y 319;4X4M A K 320;25.8145
4X4M A Y 319;4X4M A C 321;0.0281988
4X4M A Y 319;4X4M A K 334;0.0326524
4X4M A Y 319;4X4M A T 335;5.1993
4X4M A Y 319;4X4M A I 336;28.3645
4X4M A Y 319;4X4M A S 337;1.87073
4X4M A K 320;4X4M A C 321;24.5206
4X4M A K 320;4X4M A K 322;5.35093
4X4M A K 320;4X4M A E 333;33.6991
4X4M A K 320;4X4M A K 334;7.0759
4X4M A K 320;4X4M A T 335;20.5107
4X4M A C 321;4X4M A K 322;22.8131
4X4M A C 321;4X4M A V 323;10.6052
4X4M A C 321;4X4M A I 332;5.62322
4X4M A C 321;4X4M A E 333;3.78912
4X4M A C 321;4X4M A K 334;18.4742
4X4M A K 322;4X4M A V 323;24.5444
4X4M A K 322;4X4M A S 324;8.55447
4X4M A K 322;4X4M A P 331;23.5854
4X4M A K 322;4X4M A I 332;11.7181
4X4M A K 322;4X4M A E 333;2.62014
4X4M A V 323;4X4M A S 324;27.0277
4X4M A V 323;4X4M A N 325;3.6652
4X4M A V 323;4X4M A L 328;15.9259
4X4M A V 323;4X4M A P 331;8.68546
4X4M A V 323;4X4M A I 332;25.8404
4X4M A V 323;4X4M A K 334;0.0478307
4X4M A S 324;4X4M A N 325;31.3257
4X4M A S 324;4X4M A L 328;0.267501
4X4M A S 324;4X4M A P 331;7.65172
4X4M A N 325;4X4M A K 326;29.9969
4X4M A N 325;4X4M A A 327;15.602
4X4M A N 325;4X4M A L 328;34.1357
4X4M A K 326;4X4M A A 327;23.3272
4X4M A K 326;4X4M A L 328;8.67268
4X4M A A 327;4X4M A L 328;25.1351
4X4M A A 327;4X4M A P 329;10.5133
4X4M A L 328;4X4M A P 329;37.5471
4X4M A L 328;4X4M A A 330;18.8279
4X4M A L 328;4X4M A P 331;1.62914
4X4M A L 328;4X4M A I 332;17.8304
4X4M A P 329;4X4M A A 330;33.5529
4X4M A P 329;4X4M A P 331;2.72024
4X4M A A 330;4X4M A P 331;45.0244
4X4M A A 330;4X4M A I 332;5.62286
4X4M A P 331;4X4M A I 332;29.2815
4X4M A P 331;4X4M A E 333;2.92003
4X4M A I 332;4X4M A E 333;28.1807
4X4M A I 332;4X4M A K 334;24.6325
4X4M A E 333;4X4M A K 334;21.8593
4X4M A E 333;4X4M A T 335;12.0071
4X4M A K 334;4X4M A T 335;22.9848
4X4M A T 335;4X4M A I 336;36.2588
4X4M A T 335;4X4M A S 337;0.383832
4X4M A I 336;4X4M A S 337;30.3174
4X4M A S 337;4X4M A K 338;31.975
4X4M A S 337;4X4M A A 339;5.07901
4X4M A S 337;4X4M A K 340;3.50712
4X4M A K 338;4X4M A A 339;45.5778
4X4M A K 338;4X4M A K 340;11.0069
4X4M A K 338;4X4M A G 341;4.41986
4X4M A K 338;4X4M A P 343;6.96362
4X4M A K 338;4X4M A Y 373;0.167339
4X4M A K 338;4X4M A P 374;13.7567
4X4M A K 338;4X4M A D 376;3.1347
4X4M A K 338;4X4M A E 430;16.516
4X4M A A 339;4X4M A K 340;29.3706
4X4M A A 339;4X4M A G 341;1.03628
4X4M A A 339;4X4M A Y 373;10.8359
4X4M A A 339;4X4M A P 374;13.8059
4X4M A A 339;4X4M A D 376;10.3325
4X4M A K 340;4X4M A G 341;29.2178
4X4M A K 340;4X4M A Y 373;16.1986
4X4M A G 341;4X4M A Q 342;24.7852
4X4M A G 341;4X4M A P 343;12.4063
4X4M A G 341;4X4M A Y 373;17.5289
4X4M A G 341;4X4M A P 374;0.405636
4X4M A Q 342;4X4M A P 343;43.0809
4X4M A Q 342;4X4M A R 344;21.4144
4X4M A Q 342;4X4M A Y 373;13.3635
4X4M A P 343;4X4M A R 344;22.5617
4X4M A P 343;4X4M A E 345;0.0731444
4X4M A P 343;4X4M A Y 373;11.2658
4X4M A P 343;4X4M A P 374;7.67924
4X4M A P 343;4X4M A E 430;18.3509
4X4M A P 343;4X4M A A 431;13.5328
4X4M A R 344;4X4M A E 345;24.2644
4X4M A R 344;4X4M A P 346;3.36497
4X4M A R 344;4X4M A Q 347;3.73066
4X4M A R 344;4X4M A G 371;23.5798
4X4M A R 344;4X4M A F 372;6.59286
4X4M A R 344;4X4M A Y 373;22.3874
4X4M A R 344;4X4M A D 401;28.0306
4X4M A R 344;4X4M A G 402;0.151812
4X4M A R 344;4X4M A S 403;17.2859
4X4M A R 344;4X4M A H 429;4.28749
4X4M A R 344;4X4M A A 431;6.54466
4X4M A E 345;4X4M A P 346;33.3453
4X4M A E 345;4X4M A Q 347;6.60917
4X4M A E 345;4X4M A G 371;9.50624
4X4M A E 345;4X4M A F 372;0.262684
4X4M A E 345;4X4M A A 431;24.3752
4X4M A E 345;4X4M A L 432;18.7473
4X4M A E 345;4X4M A H 433;3.17373
4X4M A P 346;4X4M A Q 347;25.1408
4X4M A P 346;4X4M A V 348;12.5413
4X4M A P 346;4X4M A V 369;10.9579
4X4M A P 346;4X4M A K 370;6.80077
4X4M A P 346;4X4M A G 371;2.22112
4X4M A P 346;4X4M A F 372;14.419
4X4M A P 346;4X4M A I 377;3.1106
4X4M A P 346;4X4M A V 427;5.08082
4X4M A P 346;4X4M A H 429;12.2194
4X4M A P 346;4X4M A A 431;2.57186
4X4M A P 346;4X4M A L 432;24.115
4X4M A Q 347;4X4M A V 348;25.7935
4X4M A Q 347;4X4M A Y 349;31.1189
4X4M A Q 347;4X4M A L 368;3.13527
4X4M A Q 347;4X4M A V 369;5.06508
4X4M A Q 347;4X4M A K 370;39.2485
4X4M A Q 347;4X4M A G 371;8.59649
4X4M A Q 347;4X4M B E 357;5.33487
4X4M A Q 347;4X4M B K 360;12.6409
4X4M A Q 347;4X4M B Q 362;0.169807
4X4M A V 348;4X4M A Y 349;35.5312
4X4M A V 348;4X4M A T 350;3.60296
4X4M A V 348;4X4M A C 367;8.99624
4X4M A V 348;4X4M A L 368;6.48293
4X4M A V 348;4X4M A V 369;9.7694
4X4M A V 348;4X4M A C 425;5.99025
4X4M A V 348;4X4M A V 427;11.802
4X4M A V 348;4X4M A L 432;1.10941
4X4M A V 348;4X4M A T 437;17.7059
4X4M A V 348;4X4M A Q 438;1.18141
4X4M A V 348;4X4M A K 439;34.2553
4X4M A V 348;4X4M B D 356;4.30239
4X4M A Y 349;4X4M A T 350;24.1224
4X4M A Y 349;4X4M A L 351;9.44118
4X4M A Y 349;4X4M A T 366;0.192036
4X4M A Y 349;4X4M A C 367;3.52493
4X4M A Y 349;4X4M A L 368;34.9137
4X4M A Y 349;4X4M A K 370;9.34699
4X4M A Y 349;4X4M A K 439;1.12828
4X4M A Y 349;4X4M B S 354;19.486
4X4M A Y 349;4X4M B D 356;21.4892
4X4M A Y 349;4X4M B E 357;29.512
4X4M A Y 349;4X4M B K 360;7.01033
4X4M A Y 349;4X4M B S 364;1.02068
4X4M A T 350;4X4M A L 351;26.3159
4X4M A T 350;4X4M A P 352;5.57839
4X4M A T 350;4X4M A T 366;6.73126
4X4M A T 350;4X4M A C 367;8.77689
4X4M A T 350;4X4M A W 381;3.21956
4X4M A T 350;4X4M A F 423;0.214317
4X4M A T 350;4X4M A C 425;9.01238
4X4M A T 350;4X4M A K 439;24.6235
4X4M A T 350;4X4M A S 440;10.1385
4X4M A T 350;4X4M A L 441;22.1857
4X4M A T 350;4X4M B S 354;7.78493
4X4M A T 350;4X4M B D 356;4.06565
4X4M A L 351;4X4M A P 352;37.1011
4X4M A L 351;4X4M A S 364;0.359589
4X4M A L 351;4X4M A L 365;4.25587
4X4M A L 351;4X4M A T 366;38.0992
4X4M A L 351;4X4M A L 368;14.5599
4X4M A L 351;4X4M A Y 407;2.61708
4X4M A L 351;4X4M A L 441;6.32677
4X4M A L 351;4X4M B L 351;15.9368
4X4M A L 351;4X4M B P 352;12.5204
4X4M A L 351;4X4M B P 353;1.87991
4X4M A L 351;4X4M B S 354;19.4406
4X4M A L 351;4X4M B T 366;10.8854
4X4M A P 352;4X4M A P 353;41.544
4X4M A P 352;4X4M A S 354;0.0307762
4X4M A P 352;4X4M A S 364;0.768939
4X4M A P 352;4X4M A L 365;2.56952
4X4M A P 352;4X4M A T 366;0.884996
4X4M A P 352;4X4M A W 417;7.61548
4X4M A P 352;4X4M A L 441;23.5833
4X4M A P 352;4X4M B L 351;12.8741
4X4M A P 353;4X4M A S 354;29.3516
4X4M A P 353;4X4M A R 355;3.83401
4X4M A P 353;4X4M A E 357;12.3342
4X4M A P 353;4X4M A L 358;14.0818
4X4M A P 353;4X4M A V 363;14.2632
4X4M A P 353;4X4M A S 364;14.1603
4X4M A P 353;4X4M A L 365;15.0371
4X4M A P 353;4X4M A W 417;16.2451
4X4M A P 353;4X4M A L 441;0.441322
4X4M A P 353;4X4M B L 351;3.47883
4X4M A P 353;4X4M B L 368;1.23898
4X4M A S 354;4X4M A R 355;23.7541
4X4M A S 354;4X4M A D 356;14.8424
4X4M A S 354;4X4M A E 357;15.4606
4X4M A S 354;4X4M A L 358;6.76243
4X4M A S 354;4X4M B Y 349;19.001
4X4M A S 354;4X4M B T 350;9.09056
4X4M A S 354;4X4M B L 351;17.6428
4X4M A S 354;4X4M B L 368;2.15484
4X4M A R 355;4X4M A D 356;30.0312
4X4M A R 355;4X4M A E 357;1.75132
4X4M A R 355;4X4M A L 358;32.6736
4X4M A R 355;4X4M A T 359;2.01577
4X4M A D 356;4X4M A E 357;14.3479
4X4M A D 356;4X4M A L 358;1.27538
4X4M A D 356;4X4M A T 359;14.3771
4X4M A D 356;4X4M A K 360;0.00285466
4X4M A D 356;4X4M B V 348;4.28119
4X4M A D 356;4X4M B Y 349;26.7921
4X4M A D 356;4X4M B T 350;1.00226
4X4M A D 356;4X4M B K 439;5.06725
4X4M A E 357;4X4M A L 358;17.1542
4X4M A E 357;4X4M A T 359;4.92746
4X4M A E 357;4X4M A K 360;17.407
4X4M A E 357;4X4M A Q 362;8.58466
4X4M A E 357;4X4M A V 363;16.5607
4X4M A E 357;4X4M A S 364;22.1134
4X4M A E 357;4X4M B Y 349;34.4923
4X4M A E 357;4X4M B L 368;1.99635
4X4M A E 357;4X4M B K 370;9.69242
4X4M A L 358;4X4M A T 359;22.9297
4X4M A L 358;4X4M A K 360;3.29491
4X4M A L 358;4X4M A V 363;12.3639
4X4M A L 358;4X4M A K 414;20.5519
4X4M A L 358;4X4M A W 417;10.9675
4X4M A L 358;4X4M A Q 418;17.2074
4X4M A T 359;4X4M A K 360;32.2584
4X4M A T 359;4X4M A N 361;1.08984
4X4M A T 359;4X4M A K 414;3.00367
4X4M A T 359;4X4M B Y 349;0.00928622
4X4M A K 360;4X4M A N 361;44.8486
4X4M A K 360;4X4M A Q 362;21.4687
4X4M A K 360;4X4M A V 363;4.08262
4X4M A K 360;4X4M A K 414;14.8801
4X4M A K 360;4X4M B Q 347;9.0664
4X4M A K 360;4X4M B Y 349;9.60052
4X4M A N 361;4X4M A Q 362;29.2788
4X4M A N 361;4X4M A V 363;0.164705
4X4M A N 361;4X4M A D 413;6.83459
4X4M A N 361;4X4M A K 414;14.6375
4X4M A Q 362;4X4M A V 363;25.291
4X4M A Q 362;4X4M A T 411;22.847
4X4M A Q 362;4X4M A V 412;7.54579
4X4M A Q 362;4X4M A D 413;25.1264
4X4M A Q 362;4X4M A K 414;1.3501
4X4M A Q 362;4X4M B K 370;4.80443
4X4M A V 363;4X4M A S 364;21.3629
4X4M A V 363;4X4M A L 365;7.46727
4X4M A V 363;4X4M A L 410;0.486993
4X4M A V 363;4X4M A T 411;10.7582
4X4M A V 363;4X4M A V 412;25.8165
4X4M A V 363;4X4M A D 413;1.50854
4X4M A V 363;4X4M A K 414;19.6149
4X4M A V 363;4X4M A W 417;10.7085
4X4M A S 364;4X4M A L 365;23.6239
4X4M A S 364;4X4M A T 366;6.80777
4X4M A S 364;4X4M A K 409;17.5716
4X4M A S 364;4X4M A L 410;1.98341
4X4M A S 364;4X4M A T 411;4.55063
4X4M A S 364;4X4M B Y 349;0.225712
4X4M A S 364;4X4M B L 368;12.3899
4X4M A S 364;4X4M B K 370;14.6876
4X4M A S 364;4X4M B Y 407;0.282269
4X4M A L 365;4X4M A T 366;22.6368
4X4M A L 365;4X4M A W 381;14.8334
4X4M A L 365;4X4M A S 408;0.479561
4X4M A L 365;4X4M A K 409;8.59075
4X4M A L 365;4X4M A L 410;29.5595
4X4M A L 365;4X4M A V 412;16.5473
4X4M A L 365;4X4M A W 417;13.3392
4X4M A L 365;4X4M A F 423;16.7022
4X4M A L 365;4X4M A L 441;9.81106
4X4M A T 366;4X4M A C 367;23.0071
4X4M A T 366;4X4M A L 368;3.72739
4X4M A T 366;4X4M A W 381;8.54849
4X4M A T 366;4X4M A Y 407;10.4217
4X4M A T 366;4X4M A S 408;3.31542
4X4M A T 366;4X4M A K 409;2.10978
4X4M A T 366;4X4M B L 351;10.8009
4X4M A T 366;4X4M B T 366;0.599802
4X4M A T 366;4X4M B L 368;4.5453
4X4M A T 366;4X4M B Y 407;22.3433
4X4M A C 367;4X4M A L 368;21.1757
4X4M A C 367;4X4M A V 369;12.7597
4X4M A C 367;4X4M A V 379;0.0210486
4X4M A C 367;4X4M A W 381;13.5375
4X4M A C 367;4X4M A L 406;0.230176
4X4M A C 367;4X4M A Y 407;7.89697
4X4M A C 367;4X4M A S 408;20.2128
4X4M A C 367;4X4M A C 425;22.676
4X4M A C 367;4X4M A V 427;0.196017
4X4M A L 368;4X4M A V 369;26.5262
4X4M A L 368;4X4M A K 370;16.5068
4X4M A L 368;4X4M A F 405;5.77268
4X4M A L 368;4X4M A L 406;5.30413
4X4M A L 368;4X4M A Y 407;26.1546
4X4M A L 368;4X4M B E 357;0.00015007
4X4M A L 368;4X4M B S 364;13.9985
4X4M A L 368;4X4M B T 366;3.63074
4X4M A L 368;4X4M B K 409;7.75034
4X4M A V 369;4X4M A K 370;18.2187
4X4M A V 369;4X4M A F 372;11.8774
4X4M A V 369;4X4M A I 377;7.79143
4X4M A V 369;4X4M A V 379;7.06139
4X4M A V 369;4X4M A F 405;4.69507
4X4M A V 369;4X4M A L 406;31.9544
4X4M A V 369;4X4M A Y 407;0.165781
4X4M A V 369;4X4M A S 408;2.00793
4X4M A V 369;4X4M A C 425;1.13073
4X4M A V 369;4X4M A V 427;15.2191
4X4M A K 370;4X4M A G 371;25.581
4X4M A K 370;4X4M A F 372;7.25855
4X4M A K 370;4X4M A D 399;9.72174
4X4M A K 370;4X4M A F 404;0.872018
4X4M A K 370;4X4M A F 405;13.7157
4X4M A K 370;4X4M B E 357;8.67693
4X4M A K 370;4X4M B Q 362;8.08723
4X4M A K 370;4X4M B V 363;0.526113
4X4M A K 370;4X4M B S 364;13.3398
4X4M A K 370;4X4M B K 409;16.233
4X4M A K 370;4X4M B T 411;5.24962
4X4M A G 371;4X4M A F 372;16.6157
4X4M A G 371;4X4M A D 399;1.86511
4X4M A G 371;4X4M A D 401;1.75929
4X4M A G 371;4X4M A S 403;13.4098
4X4M A G 371;4X4M A F 404;5.6802
4X4M A G 371;4X4M A F 405;0.918661
4X4M A F 372;4X4M A Y 373;20.7639
4X4M A F 372;4X4M A P 374;7.04536
4X4M A F 372;4X4M A S 375;11.2582
4X4M A F 372;4X4M A I 377;18.7074
4X4M A F 372;4X4M A P 396;8.39771
4X4M A F 372;4X4M A V 397;0.381254
4X4M A F 372;4X4M A S 403;6.06237
4X4M A F 372;4X4M A F 404;31.9173
4X4M A F 372;4X4M A F 405;9.83172
4X4M A F 372;4X4M A L 406;13.3831
4X4M A F 372;4X4M A H 429;8.30747
4X4M A Y 373;4X4M A P 374;45.8405
4X4M A Y 373;4X4M A S 375;1.2417
4X4M A Y 373;4X4M A G 402;10.2703
4X4M A Y 373;4X4M A S 403;6.54534
4X4M A Y 373;4X4M A F 404;17.6921
4X4M A Y 373;4X4M A H 429;12.4224
4X4M A Y 373;4X4M A E 430;0.294621
4X4M A Y 373;4X4M A A 431;2.01382
4X4M A P 374;4X4M A S 375;21.4013
4X4M A P 374;4X4M A D 376;29.0279
4X4M A P 374;4X4M A I 377;0.135674
4X4M A P 374;4X4M A F 404;0.618798
4X4M A P 374;4X4M A H 429;12.9321
4X4M A P 374;4X4M A E 430;13.9922
4X4M A S 375;4X4M A D 376;28.4012
4X4M A S 375;4X4M A I 377;9.94915
4X4M A S 375;4X4M A P 396;24.586
4X4M A S 375;4X4M A F 404;27.5481
4X4M A D 376;4X4M A I 377;26.8732
4X4M A D 376;4X4M A H 429;11.6288
4X4M A I 377;4X4M A A 378;30.4472
4X4M A I 377;4X4M A V 379;12.9584
4X4M A I 377;4X4M A P 396;7.06363
4X4M A I 377;4X4M A L 406;15.9473
4X4M A I 377;4X4M A V 427;10.683
4X4M A I 377;4X4M A M 428;8.52468
4X4M A I 377;4X4M A H 429;13.9995
4X4M A A 378;4X4M A V 379;28.2109
4X4M A A 378;4X4M A E 380;2.65753
4X4M A A 378;4X4M A V 427;3.44035
4X4M A A 378;4X4M A M 428;30.258
4X4M A V 379;4X4M A E 380;32.5605
4X4M A V 379;4X4M A W 381;2.99869
4X4M A V 379;4X4M A Y 391;10.6437
4X4M A V 379;4X4M A T 393;20.6393
4X4M A V 379;4X4M A L 406;11.5097
4X4M A V 379;4X4M A S 408;9.58594
4X4M A V 379;4X4M A C 425;8.03363
4X4M A V 379;4X4M A S 426;6.84269
4X4M A V 379;4X4M A V 427;15.5675
4X4M A V 379;4X4M A M 428;1.94867
4X4M A E 380;4X4M A W 381;24.0357
4X4M A E 380;4X4M A E 382;19.7315
4X4M A E 380;4X4M A P 387;5.89693
4X4M A E 380;4X4M A Y 391;12.0232
4X4M A E 380;4X4M A C 425;3.89353
4X4M A E 380;4X4M A S 426;24.3423
4X4M A E 380;4X4M A M 428;22.767
4X4M A W 381;4X4M A E 382;25.4518
4X4M A W 381;4X4M A P 387;6.73982
4X4M A W 381;4X4M A E 388;14.0876
4X4M A W 381;4X4M A Y 391;29.3988
4X4M A W 381;4X4M A T 393;0.0713838
4X4M A W 381;4X4M A S 408;20.6187
4X4M A W 381;4X4M A K 409;2.18992
4X4M A W 381;4X4M A L 410;30.7224
4X4M A W 381;4X4M A F 423;8.01424
4X4M A W 381;4X4M A S 424;12.9747
4X4M A W 381;4X4M A C 425;19.2672
4X4M A W 381;4X4M A S 426;0.0835025
4X4M A E 382;4X4M A S 383;22.3247
4X4M A E 382;4X4M A G 385;6.33895
4X4M A E 382;4X4M A Q 386;8.89857
4X4M A E 382;4X4M A P 387;16.1628
4X4M A E 382;4X4M A E 388;8.45327
4X4M A E 382;4X4M A L 410;1.86977
4X4M A E 382;4X4M A F 423;5.5502
4X4M A E 382;4X4M A S 424;30.0111
4X4M A E 382;4X4M A S 426;19.9521
4X4M A S 383;4X4M A N 384;34.4237
4X4M A S 383;4X4M A G 385;3.8156
4X4M A S 383;4X4M A Q 386;22.2833
4X4M A S 383;4X4M A E 388;18.0856
4X4M A S 383;4X4M A R 416;6.59862
4X4M A S 383;4X4M A N 421;3.99996
4X4M A S 383;4X4M A V 422;10.7139
4X4M A S 383;4X4M A F 423;14.9981
4X4M A S 383;4X4M A S 424;1.32178
4X4M A N 384;4X4M A G 385;24.0683
4X4M A N 384;4X4M A Q 386;12.1602
4X4M A N 384;4X4M A R 416;6.7362
4X4M A N 384;4X4M A N 421;11.6239
4X4M A N 384;4X4M A V 422;14.2116
4X4M A G 385;4X4M A Q 386;31.3315
4X4M A G 385;4X4M A P 387;2.94064
4X4M A Q 386;4X4M A P 387;43.7608
4X4M A Q 386;4X4M A E 388;3.1482
4X4M A P 387;4X4M A E 388;28.6422
4X4M A P 387;4X4M A N 389;14.2092
4X4M A P 387;4X4M A Y 391;1.03148
4X4M A E 388;4X4M A N 389;31.114
4X4M A E 388;4X4M A N 390;7.41393
4X4M A E 388;4X4M A Y 391;16.2349
4X4M A E 388;4X4M A L 410;20.6623
4X4M A E 388;4X4M A T 411;1.89587
4X4M A E 388;4X4M A V 412;6.99083
4X4M A E 388;4X4M A R 416;21.6076
4X4M A E 388;4X4M A F 423;6.86346
4X4M A N 389;4X4M A N 390;34.2745
4X4M A N 389;4X4M A Y 391;1.92461
4X4M A N 390;4X4M A Y 391;26.5736
4X4M A N 390;4X4M A K 392;3.1814
4X4M A N 390;4X4M A K 409;1.75608
4X4M A N 390;4X4M A L 410;10.4051
4X4M A N 390;4X4M A T 411;34.8757
4X4M A N 390;4X4M B D 399;0.295539
4X4M A N 390;4X4M B S 400;24.458
4X4M A Y 391;4X4M A K 392;37.7954
4X4M A Y 391;4X4M A T 393;14.707
4X4M A Y 391;4X4M A S 408;3.52735
4X4M A Y 391;4X4M A K 409;6.52843
4X4M A Y 391;4X4M A L 410;13.3077
4X4M A Y 391;4X4M A T 411;0.433447
4X4M A K 392;4X4M A T 393;25.0443
4X4M A K 392;4X4M A T 394;0.0157417
4X4M A K 392;4X4M A Y 407;0.398205
4X4M A K 392;4X4M A S 408;6.69686
4X4M A K 392;4X4M A K 409;23.671
4X4M A K 392;4X4M B V 397;8.08976
4X4M A K 392;4X4M B L 398;13.6882
4X4M A K 392;4X4M B D 399;9.67196
4X4M A K 392;4X4M B S 400;23.0062
4X4M A K 392;4X4M B F 405;19.3958
4X4M A T 393;4X4M A T 394;32.073
4X4M A T 393;4X4M A P 395;4.05881
4X4M A T 393;4X4M A L 406;12.7971
4X4M A T 393;4X4M A Y 407;4.97975
4X4M A T 393;4X4M A S 408;16.6501
4X4M A T 393;4X4M B V 397;7.78106
4X4M A T 393;4X4M B F 405;1.15104
4X4M A T 394;4X4M A P 395;35.151
4X4M A T 394;4X4M A P 396;0.693518
4X4M A T 394;4X4M A V 397;4.55281
4X4M A T 394;4X4M A L 406;17.6153
4X4M A T 394;4X4M A Y 407;24.9247
4X4M A T 394;4X4M B T 394;15.9204
4X4M A T 394;4X4M B P 395;1.53272
4X4M A T 394;4X4M B V 397;16.1011
4X4M A T 394;4X4M B F 405;10.0056
4X4M A T 394;4X4M B L 406;1.18742
4X4M A T 394;4X4M B Y 407;3.88802
4X4M A P 395;4X4M A P 396;37.529
4X4M A P 395;4X4M A V 397;8.0622
4X4M A P 395;4X4M A L 406;4.76891
4X4M A P 395;4X4M B P 395;16.9948
4X4M A P 395;4X4M B P 396;1.04566
4X4M A P 395;4X4M B V 397;12.5493
4X4M A P 396;4X4M A V 397;25.0844
4X4M A P 396;4X4M A L 398;0.00925034
4X4M A P 396;4X4M A F 404;11.4604
4X4M A P 396;4X4M A F 405;0.633106
4X4M A P 396;4X4M A L 406;13.4096
4X4M A P 396;4X4M B P 395;0.849949
4X4M A V 397;4X4M A L 398;30.1069
4X4M A V 397;4X4M A D 399;1.84989
4X4M A V 397;4X4M A F 404;12.605
4X4M A V 397;4X4M A F 405;36.9978
4X4M A V 397;4X4M A L 406;2.46845
4X4M A V 397;4X4M B K 392;4.1566
4X4M A V 397;4X4M B T 393;7.7259
4X4M A V 397;4X4M B T 394;12.2146
4X4M A V 397;4X4M B P 395;18.0096
4X4M A L 398;4X4M A D 399;29.6839
4X4M A L 398;4X4M A G 402;15.7233
4X4M A L 398;4X4M A S 403;5.19252
4X4M A L 398;4X4M A F 404;34.1027
4X4M A L 398;4X4M A F 405;3.01187
4X4M A L 398;4X4M B K 392;12.8601
4X4M A D 399;4X4M A S 400;32.8156
4X4M A D 399;4X4M A D 401;17.9553
4X4M A D 399;4X4M A G 402;8.12828
4X4M A D 399;4X4M A S 403;20.1381
4X4M A D 399;4X4M A F 404;5.34117
4X4M A D 399;4X4M A F 405;19.5502
4X4M A D 399;4X4M B K 392;9.65537
4X4M A D 399;4X4M B K 409;15.4765
4X4M A S 400;4X4M A D 401;24.1786
4X4M A S 400;4X4M A G 402;6.95924
4X4M A S 400;4X4M B N 390;14.3171
4X4M A S 400;4X4M B K 392;25.1576
4X4M A D 401;4X4M A G 402;22.1428
4X4M A D 401;4X4M A S 403;17.6359
4X4M A G 402;4X4M A S 403;21.3563
4X4M A G 402;4X4M A F 404;2.89567
4X4M A S 403;4X4M A F 404;22.4884
4X4M A F 404;4X4M A F 405;15.3746
4X4M A F 405;4X4M A L 406;23.8913
4X4M A F 405;4X4M A Y 407;11.9034
4X4M A F 405;4X4M B K 392;18.1871
4X4M A F 405;4X4M B T 393;2.71495
4X4M A F 405;4X4M B T 394;12.4417
4X4M A F 405;4X4M B K 409;25.2057
4X4M A L 406;4X4M A Y 407;27.509
4X4M A L 406;4X4M A S 408;3.45778
4X4M A L 406;4X4M B T 394;1.21397
4X4M A Y 407;4X4M A S 408;20.6366
4X4M A Y 407;4X4M A K 409;0.581202
4X4M A Y 407;4X4M B S 364;0.0894786
4X4M A Y 407;4X4M B T 366;19.5848
4X4M A Y 407;4X4M B T 394;8.93248
4X4M A Y 407;4X4M B F 405;0.740027
4X4M A Y 407;4X4M B Y 407;37.2755
4X4M A Y 407;4X4M B S 408;1.86007
4X4M A Y 407;4X4M B K 409;15.3401
4X4M A S 408;4X4M A K 409;18.4816
4X4M A S 408;4X4M A C 425;1.58537
4X4M A S 408;4X4M B Y 407;2.46597
4X4M A K 409;4X4M A L 410;20.4756
4X4M A K 409;4X4M A T 411;21.7478
4X4M A K 409;4X4M B L 368;0.680252
4X4M A K 409;4X4M B K 370;12.1992
4X4M A K 409;4X4M B D 399;16.1219
4X4M A K 409;4X4M B F 405;29.6667
4X4M A K 409;4X4M B Y 407;19.0778
4X4M A L 410;4X4M A T 411;23.4515
4X4M A L 410;4X4M A V 412;13.1031
4X4M A L 410;4X4M A F 423;11.4367
4X4M A T 411;4X4M A V 412;27.9299
4X4M A T 411;4X4M B K 370;3.15978
4X4M A T 411;4X4M B D 399;0.00458496
4X4M A V 412;4X4M A D 413;27.7954
4X4M A V 412;4X4M A K 414;0.883945
4X4M A V 412;4X4M A R 416;13.3615
4X4M A V 412;4X4M A W 417;7.22135
4X4M A V 412;4X4M A F 423;17.1943
4X4M A D 413;4X4M A K 414;19.3793
4X4M A D 413;4X4M A S 415;13.0502
4X4M A D 413;4X4M A R 416;28.0509
4X4M A D 413;4X4M A W 417;5.14804
4X4M A K 414;4X4M A S 415;26.0532
4X4M A K 414;4X4M A R 416;1.13863
4X4M A K 414;4X4M A W 417;9.80848
4X4M A K 414;4X4M A Q 418;43.8913
4X4M A S 415;4X4M A R 416;25.3372
4X4M A S 415;4X4M A W 417;0.729997
4X4M A S 415;4X4M A Q 418;9.89199
4X4M A S 415;4X4M A Q 419;34.1078
4X4M A R 416;4X4M A W 417;18.2115
4X4M A R 416;4X4M A Q 418;0.373938
4X4M A R 416;4X4M A Q 419;15.0709
4X4M A R 416;4X4M A G 420;1.9827
4X4M A R 416;4X4M A N 421;35.5907
4X4M A R 416;4X4M A F 423;16.8224
4X4M A W 417;4X4M A Q 418;30.2565
4X4M A W 417;4X4M A Q 419;1.32348
4X4M A W 417;4X4M A G 420;16.8995
4X4M A W 417;4X4M A N 421;13.3804
4X4M A W 417;4X4M A V 422;0.0279126
4X4M A W 417;4X4M A F 423;19.4674
4X4M A W 417;4X4M A L 441;28.5631
4X4M A W 417;4X4M A S 442;9.19429
4X4M A W 417;4X4M A L 443;5.77621
4X4M A Q 418;4X4M A Q 419;23.3228
4X4M A Q 418;4X4M A G 420;5.73966
4X4M A Q 419;4X4M A G 420;16.026
4X4M A Q 419;4X4M A N 421;10.1918
4X4M A G 420;4X4M A N 421;22.9862
4X4M A G 420;4X4M A V 422;9.50105
4X4M A G 420;4X4M A S 442;2.56362
4X4M A N 421;4X4M A V 422;25.0558
4X4M A N 421;4X4M A F 423;20.8745
4X4M A N 421;4X4M A L 441;1.96463
4X4M A V 422;4X4M A F 423;29.3393
4X4M A V 422;4X4M A S 424;5.30464
4X4M A V 422;4X4M A S 440;5.47767
4X4M A V 422;4X4M A L 441;14.3968
4X4M A V 422;4X4M A S 442;7.08427
4X4M A F 423;4X4M A S 424;26.3084
4X4M A F 423;4X4M A K 439;3.31203
4X4M A F 423;4X4M A S 440;5.61647
4X4M A F 423;4X4M A L 441;17.2001
4X4M A S 424;4X4M A C 425;21.2971
4X4M A S 424;4X4M A S 426;4.39786
4X4M A S 424;4X4M A Q 438;13.6692
4X4M A S 424;4X4M A K 439;7.7638
4X4M A S 424;4X4M A S 440;5.19976
4X4M A C 425;4X4M A S 426;21.2446
4X4M A C 425;4X4M A V 427;10.7727
4X4M A C 425;4X4M A T 437;1.95157
4X4M A C 425;4X4M A Q 438;10.2832
4X4M A C 425;4X4M A K 439;13.3884
4X4M A S 426;4X4M A V 427;22.1806
4X4M A S 426;4X4M A M 428;6.02098
4X4M A S 426;4X4M A Y 436;20.8314
4X4M A S 426;4X4M A T 437;3.61259
4X4M A S 426;4X4M A Q 438;7.24163
4X4M A V 427;4X4M A M 428;26.4963
4X4M A V 427;4X4M A H 429;2.60303
4X4M A V 427;4X4M A L 432;10.8472
4X4M A V 427;4X4M A H 435;0.126221
4X4M A V 427;4X4M A Y 436;11.019
4X4M A V 427;4X4M A T 437;23.06
4X4M A M 428;4X4M A H 429;19.5513
4X4M A M 428;4X4M A L 432;0.650527
4X4M A M 428;4X4M A H 435;12.0057
4X4M A M 428;4X4M A Y 436;20.7447
4X4M A H 429;4X4M A E 430;29.4635
4X4M A H 429;4X4M A A 431;15.0645
4X4M A H 429;4X4M A L 432;18.2032
4X4M A H 429;4X4M A H 435;17.0607
4X4M A E 430;4X4M A A 431;24.7818
4X4M A E 430;4X4M A L 432;6.9492
4X4M A E 430;4X4M A H 435;22.6449
4X4M A A 431;4X4M A L 432;24.0319
4X4M A A 431;4X4M A H 433;1.08612
4X4M A L 432;4X4M A H 433;28.4574
4X4M A L 432;4X4M A N 434;2.63513
4X4M A L 432;4X4M A H 435;17.1137
4X4M A L 432;4X4M A Y 436;12.2163
4X4M A L 432;4X4M A T 437;22.2874
4X4M A H 433;4X4M A N 434;44.8934
4X4M A H 433;4X4M A H 435;2.22956
4X4M A H 433;4X4M A Y 436;13.3172
4X4M A N 434;4X4M A H 435;30.0969
4X4M A N 434;4X4M A Y 436;14.0508
4X4M A H 435;4X4M A Y 436;17.6616
4X4M A Y 436;4X4M A T 437;35.6131
4X4M A Y 436;4X4M A Q 438;11.5439
4X4M A T 437;4X4M A Q 438;30.696
4X4M A T 437;4X4M A K 439;13.5008
4X4M A Q 438;4X4M A K 439;35.3956
4X4M A Q 438;4X4M A S 440;8.64032
4X4M A K 439;4X4M A S 440;30.8694
4X4M A K 439;4X4M A L 441;0.0487891
4X4M A K 439;4X4M B D 356;9.50168
4X4M A S 440;4X4M A L 441;28.6128
4X4M A L 441;4X4M A S 442;38.5059
4X4M A S 442;4X4M A L 443;32.1597
4X4M A S 442;4X4M A S 444;3.22968
4X4M A L 443;4X4M A S 444;29.0262
4X4M A L 443;4X4M A P 445;24.1718
4X4M A S 444;4X4M A P 445;34.86
4X4M A S 444;4X4M A G 446;7.48644
4X4M A S 444;4X4M B R 355;23.0627
4X4M A P 445;4X4M A G 446;37.3083
4X4M A P 445;4X4M B R 355;1.41732
4X4M B A 231;4X4M B P 232;43.1865
4X4M B A 231;4X4M B E 233;23.6364
4X4M B P 232;4X4M B E 233;35.4729
4X4M B P 232;4X4M B N 297;8.58753
4X4M B E 233;4X4M B L 234;38.3321
4X4M B E 233;4X4M B L 235;5.39135
4X4M B L 234;4X4M B L 235;32.7019
4X4M B L 234;4X4M B G 236;6.24033
4X4M B L 235;4X4M B G 236;29.0302
4X4M B G 236;4X4M B G 237;29.3639
4X4M B G 237;4X4M B P 238;32.8397
4X4M B G 237;4X4M B S 239;0.0978757
4X4M B G 237;4X4M B D 265;8.03173
4X4M B P 238;4X4M B S 239;23.4836
4X4M B P 238;4X4M B V 240;1.46335
4X4M B P 238;4X4M B V 263;10.3184
4X4M B P 238;4X4M B V 264;7.27411
4X4M B P 238;4X4M B D 265;20.5409
4X4M B P 238;4X4M B V 266;11.3545
4X4M B P 238;4X4M B S 267;1.7841
4X4M B P 238;4X4M B D 270;1.74809
4X4M B P 238;4X4M B N 325;3.30674
4X4M B P 238;4X4M B A 327;10.8072
4X4M B P 238;4X4M B L 328;21.4284
4X4M B P 238;4X4M B I 332;8.21044
4X4M B S 239;4X4M B V 240;28.9258
4X4M B S 239;4X4M B F 241;16.5267
4X4M B S 239;4X4M B V 262;1.82717
4X4M B S 239;4X4M B V 263;5.93148
4X4M B S 239;4X4M B V 264;23.0782
4X4M B S 239;4X4M B D 265;1.5937
4X4M B S 239;4X4M B I 332;2.56512
4X4M B V 240;4X4M B F 241;38.8935
4X4M B V 240;4X4M B L 242;1.24186
4X4M B V 240;4X4M B C 261;10.8954
4X4M B V 240;4X4M B V 262;7.61771
4X4M B V 240;4X4M B V 263;14.1562
4X4M B V 240;4X4M B C 321;0.48136
4X4M B V 240;4X4M B V 323;15.4715
4X4M B V 240;4X4M B L 328;0.110076
4X4M B V 240;4X4M B I 332;28.8564
4X4M B V 240;4X4M B K 334;28.4009
4X4M B F 241;4X4M B L 242;23.3011
4X4M B F 241;4X4M B F 243;24.0901
4X4M B F 241;4X4M B T 260;1.37965
4X4M B F 241;4X4M B C 261;3.31899
4X4M B F 241;4X4M B V 262;25.7093
4X4M B F 241;4X4M B V 264;15.5484
4X4M B F 241;4X4M B K 334;1.73111
4X4M B L 242;4X4M B F 243;29.2772
4X4M B L 242;4X4M B P 244;2.98872
4X4M B L 242;4X4M B V 259;13.8498
4X4M B L 242;4X4M B T 260;5.88471
4X4M B L 242;4X4M B C 261;13.4489
4X4M B L 242;4X4M B W 277;3.94876
4X4M B L 242;4X4M B Y 319;6.1138
4X4M B L 242;4X4M B K 320;0.0515277
4X4M B L 242;4X4M B C 321;13.6446
4X4M B L 242;4X4M B K 334;28.698
4X4M B L 242;4X4M B T 335;7.32537
4X4M B L 242;4X4M B I 336;28.7629
4X4M B F 243;4X4M B P 244;40.8083
4X4M B F 243;4X4M B E 258;0.227466
4X4M B F 243;4X4M B V 259;10.4901
4X4M B F 243;4X4M B T 260;28.0516
4X4M B F 243;4X4M B V 262;16.6919
4X4M B F 243;4X4M B I 336;2.48047
4X4M B P 244;4X4M B P 245;40.3326
4X4M B P 244;4X4M B K 246;3.37532
4X4M B P 244;4X4M B E 258;3.87298
4X4M B P 244;4X4M B V 259;3.65905
4X4M B P 244;4X4M B T 260;2.46926
4X4M B P 244;4X4M B W 313;10.3381
4X4M B P 244;4X4M B I 336;21.5649
4X4M B P 244;4X4M B D 376;5.63244
4X4M B P 245;4X4M B K 246;28.5169
4X4M B P 245;4X4M B P 247;9.46005
4X4M B P 245;4X4M B D 249;1.05511
4X4M B P 245;4X4M B T 250;17.0897
4X4M B P 245;4X4M B P 257;8.37568
4X4M B P 245;4X4M B E 258;21.4771
4X4M B P 245;4X4M B V 259;10.4295
4X4M B P 245;4X4M B V 308;6.09896
4X4M B P 245;4X4M B W 313;21.3031
4X4M B K 246;4X4M B P 247;26.2683
4X4M B K 246;4X4M B K 248;7.14163
4X4M B K 246;4X4M B D 249;36.102
4X4M B K 246;4X4M B T 250;7.47588
4X4M B K 246;4X4M B P 257;0.00400198
4X4M B K 246;4X4M B E 258;20.7174
4X4M B K 246;4X4M B T 260;1.6862
4X4M B P 247;4X4M B K 248;18.5213
4X4M B P 247;4X4M B D 249;1.20187
4X4M B P 247;4X4M B T 250;17.9748
4X4M B P 247;4X4M B L 251;18.7421
4X4M B P 247;4X4M B D 376;18.0695
4X4M B P 247;4X4M B I 377;17.3524
4X4M B P 247;4X4M B A 378;5.51878
4X4M B K 248;4X4M B D 249;19.4883
4X4M B K 248;4X4M B T 250;0.408655
4X4M B K 248;4X4M B L 251;16.0241
4X4M B K 248;4X4M B M 252;27.8789
4X4M B K 248;4X4M B S 254;0.050478
4X4M B K 248;4X4M B R 255;32.524
4X4M B K 248;4X4M B A 378;10.3569
4X4M B K 248;4X4M B E 380;14.2851
4X4M B K 248;4X4M B M 428;13.1667
4X4M B D 249;4X4M B T 250;14.7518
4X4M B D 249;4X4M B L 251;2.02977
4X4M B D 249;4X4M B M 252;4.77406
4X4M B D 249;4X4M B R 255;25.5625
4X4M B D 249;4X4M B T 256;16.7731
4X4M B D 249;4X4M B P 257;17.8937
4X4M B D 249;4X4M B E 258;3.26435
4X4M B D 249;4X4M B H 310;6.42084
4X4M B T 250;4X4M B L 251;33.7896
4X4M B T 250;4X4M B M 252;0.168838
4X4M B T 250;4X4M B P 257;13.768
4X4M B T 250;4X4M B H 310;20.6629
4X4M B T 250;4X4M B W 313;14.6721
4X4M B T 250;4X4M B L 314;17.4996
4X4M B T 250;4X4M B H 435;2.63845
4X4M B L 251;4X4M B M 252;26.4313
4X4M B L 251;4X4M B I 253;3.21193
4X4M B L 251;4X4M B H 310;1.59742
4X4M B L 251;4X4M B L 314;6.09212
4X4M B L 251;4X4M B D 376;0.236888
4X4M B L 251;4X4M B I 377;4.86906
4X4M B L 251;4X4M B A 378;11.3106
4X4M B L 251;4X4M B M 428;30.5763
4X4M B L 251;4X4M B H 429;6.7034
4X4M B L 251;4X4M B E 430;10.6194
4X4M B L 251;4X4M B H 435;22.9271
4X4M B M 252;4X4M B I 253;36.3221
4X4M B M 252;4X4M B S 254;24.9661
4X4M B M 252;4X4M B R 255;20.8496
4X4M B M 252;4X4M B H 310;5.36596
4X4M B M 252;4X4M B M 428;7.35904
4X4M B I 253;4X4M B S 254;23.9185
4X4M B I 253;4X4M B R 255;11.6558
4X4M B I 253;4X4M B L 309;0.507956
4X4M B I 253;4X4M B H 310;24.3301
4X4M B S 254;4X4M B R 255;43.106
4X4M B R 255;4X4M B T 256;29.1138
4X4M B R 255;4X4M B P 257;3.07738
4X4M B R 255;4X4M B H 310;10.3883
4X4M B T 256;4X4M B P 257;27.2385
4X4M B T 256;4X4M B E 258;23.3797
4X4M B T 256;4X4M B K 288;0.937426
4X4M B T 256;4X4M B T 307;15.4659
4X4M B T 256;4X4M B V 308;2.75216
4X4M B T 256;4X4M B H 310;0.577084
4X4M B P 257;4X4M B E 258;20.9866
4X4M B P 257;4X4M B L 306;0.246575
4X4M B P 257;4X4M B T 307;3.04889
4X4M B P 257;4X4M B V 308;32.99
4X4M B P 257;4X4M B H 310;22.1207
4X4M B P 257;4X4M B W 313;0.0960935
4X4M B E 258;4X4M B V 259;22.3195
4X4M B E 258;4X4M B T 260;11.7797
4X4M B E 258;4X4M B V 305;27.4461
4X4M B E 258;4X4M B L 306;5.7242
4X4M B E 258;4X4M B T 307;8.38963
4X4M B E 258;4X4M B V 308;3.55282
4X4M B V 259;4X4M B T 260;23.0614
4X4M B V 259;4X4M B C 261;0.346961
4X4M B V 259;4X4M B W 277;14.5698
4X4M B V 259;4X4M B S 304;2.50766
4X4M B V 259;4X4M B V 305;6.7758
4X4M B V 259;4X4M B L 306;24.4997
4X4M B V 259;4X4M B V 308;10.5553
4X4M B V 259;4X4M B W 313;8.86619
4X4M B V 259;4X4M B Y 319;18.6883
4X4M B V 259;4X4M B I 336;9.11951
4X4M B T 260;4X4M B C 261;18.3084
4X4M B T 260;4X4M B V 262;16.4917
4X4M B T 260;4X4M B W 277;0.0317278
4X4M B T 260;4X4M B R 301;5.66757
4X4M B T 260;4X4M B V 303;13.8925
4X4M B T 260;4X4M B S 304;5.29589
4X4M B T 260;4X4M B V 305;9.24413
4X4M B C 261;4X4M B V 262;19.5329
4X4M B C 261;4X4M B V 263;6.12758
4X4M B C 261;4X4M B F 275;9.22079
4X4M B C 261;4X4M B W 277;9.07598
4X4M B C 261;4X4M B V 302;2.64182
4X4M B C 261;4X4M B V 303;4.62052
4X4M B C 261;4X4M B S 304;18.8271
4X4M B C 261;4X4M B C 321;18.6544
4X4M B C 261;4X4M B V 323;6.06281
4X4M B C 261;4X4M B K 334;1.29714
4X4M B V 262;4X4M B V 263;22.9284
4X4M B V 262;4X4M B V 264;13.055
4X4M B V 262;4X4M B R 301;21.5596
4X4M B V 262;4X4M B V 302;6.34576
4X4M B V 262;4X4M B V 303;9.18114
4X4M B V 263;4X4M B V 264;22.384
4X4M B V 263;4X4M B V 266;9.94206
4X4M B V 263;4X4M B V 273;9.48492
4X4M B V 263;4X4M B F 275;10.3671
4X4M B V 263;4X4M B Y 300;3.41993
4X4M B V 263;4X4M B R 301;3.47096
4X4M B V 263;4X4M B V 302;29.4227
4X4M B V 263;4X4M B V 323;19.0994
4X4M B V 264;4X4M B D 265;32.0683
4X4M B V 264;4X4M B V 266;5.35656
4X4M B V 264;4X4M B Q 295;1.35315
4X4M B V 264;4X4M B T 299;4.17344
4X4M B V 264;4X4M B Y 300;5.55802
4X4M B V 264;4X4M B R 301;14.6124
4X4M B D 265;4X4M B V 266;16.6812
4X4M B D 265;4X4M B S 267;4.79714
4X4M B D 265;4X4M B N 297;4.4145
4X4M B D 265;4X4M B T 299;32.0006
4X4M B D 265;4X4M B Y 300;0.983667
4X4M B V 266;4X4M B S 267;32.0094
4X4M B V 266;4X4M B H 268;0.0865246
4X4M B V 266;4X4M B D 270;8.6566
4X4M B V 266;4X4M B P 271;14.3634
4X4M B V 266;4X4M B V 273;9.16829
4X4M B V 266;4X4M B S 298;6.23701
4X4M B V 266;4X4M B T 299;12.0146
4X4M B V 266;4X4M B Y 300;30.3097
4X4M B V 266;4X4M B V 302;11.0696
4X4M B S 267;4X4M B H 268;23.0803
4X4M B S 267;4X4M B E 269;17.1159
4X4M B S 267;4X4M B D 270;24.845
4X4M B S 267;4X4M B P 271;5.93254
4X4M B S 267;4X4M B S 298;4.32572
4X4M B S 267;4X4M B T 299;0.624613
4X4M B S 267;4X4M B Y 300;1.46263
4X4M B H 268;4X4M B E 269;38.0014
4X4M B H 268;4X4M B D 270;0.890966
4X4M B H 268;4X4M B P 271;16.15
4X4M B H 268;4X4M B E 294;13.7435
4X4M B H 268;4X4M B S 298;25.0029
4X4M B H 268;4X4M B Y 300;27.743
4X4M B E 269;4X4M B D 270;33.5087
4X4M B E 269;4X4M B P 271;9.35494
4X4M B D 270;4X4M B P 271;21.5015
4X4M B D 270;4X4M B E 272;4.6005
4X4M B D 270;4X4M B V 273;0.158226
4X4M B D 270;4X4M B N 325;15.4448
4X4M B D 270;4X4M B K 326;32.3029
4X4M B D 270;4X4M B A 327;14.7336
4X4M B P 271;4X4M B E 272;30.6075
4X4M B P 271;4X4M B V 273;14.6588
4X4M B P 271;4X4M B R 292;7.67702
4X4M B P 271;4X4M B Y 300;6.86602
4X4M B P 271;4X4M B N 325;0.341963
4X4M B E 272;4X4M B V 273;32.6792
4X4M B E 272;4X4M B K 274;12.5188
4X4M B E 272;4X4M B S 324;2.09065
4X4M B E 272;4X4M B N 325;23.6795
4X4M B E 272;4X4M B K 326;20.2386
4X4M B V 273;4X4M B K 274;24.3737
4X4M B V 273;4X4M B F 275;22.5617
4X4M B V 273;4X4M B T 289;4.58598
4X4M B V 273;4X4M B V 302;22.8166
4X4M B V 273;4X4M B V 323;7.16593
4X4M B V 273;4X4M B S 324;2.80707
4X4M B V 273;4X4M B N 325;9.22876
4X4M B K 274;4X4M B F 275;35.5728
4X4M B K 274;4X4M B N 276;21.6846
4X4M B K 274;4X4M B K 322;1.67187
4X4M B K 274;4X4M B V 323;8.60109
4X4M B K 274;4X4M B S 324;38.9175
4X4M B F 275;4X4M B N 276;28.937
4X4M B F 275;4X4M B W 277;19.2412
4X4M B F 275;4X4M B E 283;2.63946
4X4M B F 275;4X4M B A 287;0.0557312
4X4M B F 275;4X4M B T 289;17.3252
4X4M B F 275;4X4M B V 302;11.297
4X4M B F 275;4X4M B V 303;3.74087
4X4M B F 275;4X4M B S 304;18.1205
4X4M B F 275;4X4M B C 321;7.5044
4X4M B F 275;4X4M B K 322;6.85703
4X4M B F 275;4X4M B V 323;10.3191
4X4M B N 276;4X4M B W 277;27.3398
4X4M B N 276;4X4M B Y 278;17.3023
4X4M B N 276;4X4M B E 283;21.0995
4X4M B N 276;4X4M B K 320;0.510859
4X4M B N 276;4X4M B C 321;3.2864
4X4M B N 276;4X4M B K 322;40.3175
4X4M B N 276;4X4M B S 324;7.67331
4X4M B W 277;4X4M B Y 278;18.6419
4X4M B W 277;4X4M B V 279;11.4581
4X4M B W 277;4X4M B V 282;1.88461
4X4M B W 277;4X4M B E 283;10.5435
4X4M B W 277;4X4M B V 284;26.205
4X4M B W 277;4X4M B H 285;0.000903761
4X4M B W 277;4X4M B A 287;21.7653
4X4M B W 277;4X4M B S 304;19.5191
4X4M B W 277;4X4M B V 305;0.584429
4X4M B W 277;4X4M B L 306;27.901
4X4M B W 277;4X4M B Y 319;6.01773
4X4M B W 277;4X4M B K 320;15.9662
4X4M B W 277;4X4M B C 321;19.5897
4X4M B Y 278;4X4M B V 279;16.3892
4X4M B Y 278;4X4M B D 280;1.98744
4X4M B Y 278;4X4M B G 281;28.8213
4X4M B Y 278;4X4M B V 282;2.57505
4X4M B Y 278;4X4M B E 283;24.8783
4X4M B Y 278;4X4M B K 320;43.6979
4X4M B Y 278;4X4M B K 322;28.1273
4X4M B V 279;4X4M B D 280;32.9715
4X4M B V 279;4X4M B G 281;3.23323
4X4M B V 279;4X4M B V 282;27.1221
4X4M B V 279;4X4M B V 284;18.2992
4X4M B V 279;4X4M B L 306;13.0487
4X4M B V 279;4X4M B K 317;2.27142
4X4M B V 279;4X4M B E 318;1.99205
4X4M B V 279;4X4M B Y 319;22.8787
4X4M B V 279;4X4M B K 320;1.73158
4X4M B D 280;4X4M B G 281;25.73
4X4M B D 280;4X4M B V 282;13.63
4X4M B D 280;4X4M B K 317;28.8747
4X4M B D 280;4X4M B E 318;28.0522
4X4M B D 280;4X4M B Y 319;0.795843
4X4M B D 280;4X4M B K 320;2.29521
4X4M B G 281;4X4M B V 282;21.0887
4X4M B G 281;4X4M B E 283;5.18715
4X4M B G 281;4X4M B K 320;3.38134
4X4M B V 282;4X4M B E 283;28.5474
4X4M B V 282;4X4M B V 284;10.8622
4X4M B E 283;4X4M B V 284;31.4683
4X4M B E 283;4X4M B H 285;28.2196
4X4M B V 284;4X4M B H 285;33.5495
4X4M B V 284;4X4M B N 286;24.4111
4X4M B V 284;4X4M B A 287;4.02091
4X4M B V 284;4X4M B L 306;6.38141
4X4M B H 285;4X4M B N 286;23.1842
4X4M B H 285;4X4M B A 287;19.6464
4X4M B N 286;4X4M B A 287;20.6626
4X4M B N 286;4X4M B K 288;10.3602
4X4M B N 286;4X4M B V 305;0.21739
4X4M B N 286;4X4M B L 306;17.3431
4X4M B N 286;4X4M B T 307;23.1745
4X4M B A 287;4X4M B K 288;24.8435
4X4M B A 287;4X4M B T 289;8.50137
4X4M B A 287;4X4M B S 304;6.24171
4X4M B A 287;4X4M B V 305;3.64545
4X4M B A 287;4X4M B L 306;14.5052
4X4M B K 288;4X4M B T 289;24.165
4X4M B K 288;4X4M B K 290;12.7053
4X4M B K 288;4X4M B V 303;0.00545094
4X4M B K 288;4X4M B S 304;4.50033
4X4M B K 288;4X4M B V 305;32.4024
4X4M B K 288;4X4M B T 307;27.1698
4X4M B T 289;4X4M B K 290;35.8023
4X4M B T 289;4X4M B P 291;2.14377
4X4M B T 289;4X4M B V 302;6.38534
4X4M B T 289;4X4M B V 303;7.22673
4X4M B T 289;4X4M B S 304;10.6235
4X4M B K 290;4X4M B P 291;48.6365
4X4M B K 290;4X4M B R 292;4.25513
4X4M B K 290;4X4M B V 302;4.92063
4X4M B K 290;4X4M B V 303;33.2756
4X4M B K 290;4X4M B S 304;0.386816
4X4M B K 290;4X4M B V 305;19.7842
4X4M B P 291;4X4M B R 292;35.8486
4X4M B P 291;4X4M B E 293;7.12444
4X4M B P 291;4X4M B R 301;4.04356
4X4M B P 291;4X4M B V 302;0.120975
4X4M B P 291;4X4M B V 303;2.45538
4X4M B R 292;4X4M B E 293;26.2757
4X4M B R 292;4X4M B E 294;1.01377
4X4M B R 292;4X4M B Y 300;34.4777
4X4M B R 292;4X4M B R 301;4.89533
4X4M B R 292;4X4M B V 302;13.5852
4X4M B E 293;4X4M B E 294;32.9522
4X4M B E 293;4X4M B Q 295;16.7807
4X4M B E 293;4X4M B T 299;0.415895
4X4M B E 293;4X4M B Y 300;12.5065
4X4M B E 293;4X4M B R 301;20.302
4X4M B E 294;4X4M B Q 295;39.6535
4X4M B E 294;4X4M B Y 296;3.40137
4X4M B E 294;4X4M B S 298;10.9517
4X4M B E 294;4X4M B T 299;0.379376
4X4M B E 294;4X4M B Y 300;25.6931
4X4M B Q 295;4X4M B Y 296;41.299
4X4M B Q 295;4X4M B N 297;13.0368
4X4M B Q 295;4X4M B S 298;8.54098
4X4M B Q 295;4X4M B T 299;24.1915
4X4M B Q 295;4X4M B Y 300;1.48908
4X4M B Q 295;4X4M B R 301;20.3817
4X4M B Y 296;4X4M B N 297;26.4825
4X4M B Y 296;4X4M B S 298;11.3268
4X4M B N 297;4X4M B S 298;26.277
4X4M B N 297;4X4M B T 299;28.9088
4X4M B S 298;4X4M B T 299;19.1138
4X4M B S 298;4X4M B Y 300;5.59237
4X4M B T 299;4X4M B Y 300;23.6634
4X4M B T 299;4X4M B R 301;0.106554
4X4M B Y 300;4X4M B R 301;18.9478
4X4M B Y 300;4X4M B V 302;10.7356
4X4M B R 301;4X4M B V 302;19.3057
4X4M B R 301;4X4M B V 303;30.0667
4X4M B V 302;4X4M B V 303;26.771
4X4M B V 303;4X4M B S 304;22.304
4X4M B V 303;4X4M B V 305;9.14525
4X4M B S 304;4X4M B V 305;21.1183
4X4M B S 304;4X4M B L 306;0.543165
4X4M B V 305;4X4M B L 306;21.1029
4X4M B V 305;4X4M B T 307;7.72471
4X4M B L 306;4X4M B T 307;33.193
4X4M B L 306;4X4M B V 308;8.40973
4X4M B L 306;4X4M B Y 319;15.5218
4X4M B T 307;4X4M B V 308;28.9289
4X4M B T 307;4X4M B L 309;0.142498
4X4M B V 308;4X4M B L 309;35.9126
4X4M B V 308;4X4M B H 310;6.60982
4X4M B V 308;4X4M B D 312;4.48296
4X4M B V 308;4X4M B W 313;15.1764
4X4M B V 308;4X4M B Y 319;17.8065
4X4M B L 309;4X4M B H 310;30.4851
4X4M B L 309;4X4M B Q 311;33.7647
4X4M B L 309;4X4M B D 312;28.0254
4X4M B L 309;4X4M B W 313;2.44891
4X4M B H 310;4X4M B Q 311;24.633
4X4M B H 310;4X4M B D 312;0.960499
4X4M B H 310;4X4M B W 313;10.5148
4X4M B H 310;4X4M B L 314;17.1787
4X4M B Q 311;4X4M B D 312;27.383
4X4M B Q 311;4X4M B W 313;0.990063
4X4M B Q 311;4X4M B L 314;15.8166
4X4M B Q 311;4X4M B N 315;22.005
4X4M B D 312;4X4M B W 313;16.7797
4X4M B D 312;4X4M B L 314;0.736764
4X4M B D 312;4X4M B N 315;11.1939
4X4M B D 312;4X4M B G 316;2.20843
4X4M B D 312;4X4M B K 317;33.6633
4X4M B D 312;4X4M B Y 319;13.3271
4X4M B W 313;4X4M B L 314;28.7079
4X4M B W 313;4X4M B N 315;0.95721
4X4M B W 313;4X4M B G 316;9.1021
4X4M B W 313;4X4M B K 317;6.01576
4X4M B W 313;4X4M B Y 319;24.9889
4X4M B W 313;4X4M B I 336;16.6285
4X4M B W 313;4X4M B S 337;14.6158
4X4M B W 313;4X4M B K 338;34.2403
4X4M B W 313;4X4M B D 376;3.83798
4X4M B L 314;4X4M B N 315;24.7664
4X4M B L 314;4X4M B G 316;2.23267
4X4M B L 314;4X4M B K 338;25.6443
4X4M B L 314;4X4M B E 430;25.6325
4X4M B L 314;4X4M B H 435;14.7084
4X4M B N 315;4X4M B G 316;22.5991
4X4M B N 315;4X4M B K 317;15.1761
4X4M B N 315;4X4M B K 338;1.05755
4X4M B G 316;4X4M B K 317;26.1524
4X4M B G 316;4X4M B E 318;7.33958
4X4M B G 316;4X4M B S 337;8.07501
4X4M B G 316;4X4M B K 338;18.4157
4X4M B G 316;4X4M B K 340;4.24845
4X4M B K 317;4X4M B E 318;21.7593
4X4M B K 317;4X4M B Y 319;23.1679
4X4M B K 317;4X4M B I 336;0.172864
4X4M B K 317;4X4M B S 337;6.76546
4X4M B K 317;4X4M B K 338;0.170805
4X4M B E 318;4X4M B Y 319;25.0892
4X4M B E 318;4X4M B K 320;1.18527
4X4M B E 318;4X4M B T 335;16.5334
4X4M B E 318;4X4M B I 336;6.07528
4X4M B E 318;4X4M B S 337;17.5362
4X4M B E 318;4X4M B K 340;14.9211
4X4M B Y 319;4X4M B K 320;25.6366
4X4M B Y 319;4X4M B C 321;0.482939
4X4M B Y 319;4X4M B K 334;0.489236
4X4M B Y 319;4X4M B T 335;6.69252
4X4M B Y 319;4X4M B I 336;22.7544
4X4M B Y 319;4X4M B S 337;0.0121428
4X4M B K 320;4X4M B C 321;23.3885
4X4M B K 320;4X4M B K 322;6.37781
4X4M B K 320;4X4M B E 333;31.8832
4X4M B K 320;4X4M B K 334;9.71893
4X4M B K 320;4X4M B T 335;21.9966
4X4M B C 321;4X4M B K 322;24.0714
4X4M B C 321;4X4M B V 323;8.2044
4X4M B C 321;4X4M B I 332;3.91352
4X4M B C 321;4X4M B E 333;3.44686
4X4M B C 321;4X4M B K 334;18.5909
4X4M B K 322;4X4M B V 323;24.2447
4X4M B K 322;4X4M B S 324;8.23889
4X4M B K 322;4X4M B P 331;25.0421
4X4M B K 322;4X4M B I 332;7.58233
4X4M B K 322;4X4M B E 333;19.6903
4X4M B V 323;4X4M B S 324;24.9881
4X4M B V 323;4X4M B N 325;4.32605
4X4M B V 323;4X4M B L 328;13.7007
4X4M B V 323;4X4M B P 331;8.42531
4X4M B V 323;4X4M B I 332;25.5197
4X4M B S 324;4X4M B N 325;30.3226
4X4M B S 324;4X4M B L 328;0.456883
4X4M B S 324;4X4M B P 331;16.9539
4X4M B N 325;4X4M B K 326;27.0151
4X4M B N 325;4X4M B A 327;15.827
4X4M B N 325;4X4M B L 328;37.9339
4X4M B N 325;4X4M B P 331;0.209419
4X4M B K 326;4X4M B A 327;29.4554
4X4M B K 326;4X4M B L 328;8.98119
4X4M B A 327;4X4M B L 328;22.5123
4X4M B A 327;4X4M B P 329;6.27265
4X4M B L 328;4X4M B P 329;32.744
4X4M B L 328;4X4M B A 330;18.4775
4X4M B L 328;4X4M B P 331;2.52411
4X4M B L 328;4X4M B I 332;21.6014
4X4M B P 329;4X4M B A 330;26.19
4X4M B P 329;4X4M B P 331;0.0697273
4X4M B A 330;4X4M B P 331;41.1506
4X4M B A 330;4X4M B I 332;5.23052
4X4M B P 331;4X4M B I 332;25.4851
4X4M B P 331;4X4M B E 333;7.99084
4X4M B I 332;4X4M B E 333;31.0691
4X4M B I 332;4X4M B K 334;13.2857
4X4M B E 333;4X4M B K 334;32.7827
4X4M B E 333;4X4M B T 335;4.11785
4X4M B K 334;4X4M B T 335;28.0371
4X4M B T 335;4X4M B I 336;32.1282
4X4M B I 336;4X4M B S 337;36.3997
4X4M B S 337;4X4M B K 338;31.5293
4X4M B S 337;4X4M B A 339;5.05445
4X4M B S 337;4X4M B K 340;10.9887
4X4M B K 338;4X4M B A 339;42.0832
4X4M B K 338;4X4M B K 340;11.1927
4X4M B K 338;4X4M B G 341;1.73815
4X4M B K 338;4X4M B P 343;8.40521
4X4M B K 338;4X4M B P 374;17.2915
4X4M B K 338;4X4M B D 376;6.94088
4X4M B K 338;4X4M B E 430;13.1904
4X4M B A 339;4X4M B K 340;28.6018
4X4M B A 339;4X4M B G 341;3.20556
4X4M B A 339;4X4M B Y 373;19.304
4X4M B A 339;4X4M B P 374;14.3985
4X4M B A 339;4X4M B S 375;0.209978
4X4M B A 339;4X4M B D 376;2.83527
4X4M B K 340;4X4M B G 341;31.9556
4X4M B K 340;4X4M B Y 373;16.3695
4X4M B G 341;4X4M B Q 342;28.3482
4X4M B G 341;4X4M B P 343;12.7663
4X4M B G 341;4X4M B Y 373;14.4842
4X4M B G 341;4X4M B P 374;0.119662
4X4M B Q 342;4X4M B P 343;47.4997
4X4M B Q 342;4X4M B R 344;19.0107
4X4M B Q 342;4X4M B Y 373;9.77907
4X4M B P 343;4X4M B R 344;24.3975
4X4M B P 343;4X4M B Y 373;12.4883
4X4M B P 343;4X4M B P 374;5.47852
4X4M B P 343;4X4M B H 429;1.37788
4X4M B P 343;4X4M B E 430;15.7136
4X4M B P 343;4X4M B A 431;11.704
4X4M B R 344;4X4M B E 345;28.6881
4X4M B R 344;4X4M B P 346;2.77185
4X4M B R 344;4X4M B Q 347;12.1948
4X4M B R 344;4X4M B G 371;26.7908
4X4M B R 344;4X4M B F 372;5.97773
4X4M B R 344;4X4M B Y 373;20.8635
4X4M B R 344;4X4M B D 401;11.5673
4X4M B R 344;4X4M B S 403;12.0895
4X4M B R 344;4X4M B H 429;3.37574
4X4M B R 344;4X4M B A 431;5.35175
4X4M B E 345;4X4M B P 346;35.0255
4X4M B E 345;4X4M B Q 347;16.0261
4X4M B E 345;4X4M B G 371;7.94627
4X4M B E 345;4X4M B F 372;0.27661
4X4M B E 345;4X4M B A 431;26.5532
4X4M B E 345;4X4M B L 432;19.4453
4X4M B E 345;4X4M B H 433;1.25126
4X4M B E 345;4X4M B T 437;0.295835
4X4M B P 346;4X4M B Q 347;22.2489
4X4M B P 346;4X4M B V 348;13.0213
4X4M B P 346;4X4M B V 369;12.1458
4X4M B P 346;4X4M B K 370;7.48663
4X4M B P 346;4X4M B G 371;2.59254
4X4M B P 346;4X4M B F 372;19.1342
4X4M B P 346;4X4M B I 377;4.30507
4X4M B P 346;4X4M B V 427;5.89376
4X4M B P 346;4X4M B H 429;14.5601
4X4M B P 346;4X4M B A 431;2.4742
4X4M B P 346;4X4M B L 432;11.263
4X4M B Q 347;4X4M B V 348;25.5143
4X4M B Q 347;4X4M B Y 349;19.3388
4X4M B Q 347;4X4M B L 368;4.41301
4X4M B Q 347;4X4M B V 369;3.17478
4X4M B Q 347;4X4M B K 370;34.9082
4X4M B Q 347;4X4M B G 371;7.7757
4X4M B V 348;4X4M B Y 349;36.7473
4X4M B V 348;4X4M B T 350;3.83895
4X4M B V 348;4X4M B C 367;10.2854
4X4M B V 348;4X4M B L 368;10.4438
4X4M B V 348;4X4M B V 369;12.8082
4X4M B V 348;4X4M B C 425;1.49475
4X4M B V 348;4X4M B V 427;11.9658
4X4M B V 348;4X4M B L 432;0.943375
4X4M B V 348;4X4M B T 437;15.2535
4X4M B V 348;4X4M B Q 438;0.0372487
4X4M B V 348;4X4M B K 439;28.1858
4X4M B Y 349;4X4M B T 350;24.4635
4X4M B Y 349;4X4M B L 351;6.32477
4X4M B Y 349;4X4M B T 366;0.213927
4X4M B Y 349;4X4M B C 367;1.78302
4X4M B Y 349;4X4M B L 368;40.588
4X4M B Y 349;4X4M B K 370;8.41566
4X4M B Y 349;4X4M B K 439;0.768723
4X4M B T 350;4X4M B L 351;24.7535
4X4M B T 350;4X4M B P 352;4.32514
4X4M B T 350;4X4M B T 366;4.90186
4X4M B T 350;4X4M B C 367;9.02483
4X4M B T 350;4X4M B W 381;8.50654
4X4M B T 350;4X4M B C 425;5.37304
4X4M B T 350;4X4M B K 439;22.5669
4X4M B T 350;4X4M B S 440;12.761
4X4M B T 350;4X4M B L 441;20.9568
4X4M B L 351;4X4M B P 352;34.9558
4X4M B L 351;4X4M B S 364;0.350322
4X4M B L 351;4X4M B L 365;3.7032
4X4M B L 351;4X4M B T 366;34.911
4X4M B L 351;4X4M B L 368;17.3687
4X4M B L 351;4X4M B Y 407;3.6414
4X4M B L 351;4X4M B L 441;9.71667
4X4M B P 352;4X4M B P 353;36.4487
4X4M B P 352;4X4M B S 354;0.455618
4X4M B P 352;4X4M B S 364;2.07136
4X4M B P 352;4X4M B L 365;3.05664
4X4M B P 352;4X4M B T 366;0.667351
4X4M B P 352;4X4M B W 417;8.61178
4X4M B P 352;4X4M B L 441;24.2224
4X4M B P 352;4X4M B L 443;12.3818
4X4M B P 353;4X4M B S 354;29.1352
4X4M B P 353;4X4M B R 355;4.32057
4X4M B P 353;4X4M B E 357;8.25589
4X4M B P 353;4X4M B L 358;11.6429
4X4M B P 353;4X4M B V 363;16.0449
4X4M B P 353;4X4M B S 364;13.8367
4X4M B P 353;4X4M B L 365;14.1165
4X4M B P 353;4X4M B W 417;21.1641
4X4M B P 353;4X4M B L 441;0.159342
4X4M B S 354;4X4M B R 355;22.4377
4X4M B S 354;4X4M B D 356;14.9131
4X4M B S 354;4X4M B E 357;17.5853
4X4M B S 354;4X4M B L 358;7.74215
4X4M B S 354;4X4M B S 364;0.00649946
4X4M B R 355;4X4M B D 356;32.8387
4X4M B R 355;4X4M B E 357;1.45674
4X4M B R 355;4X4M B L 358;32.3591
4X4M B R 355;4X4M B T 359;4.62372
4X4M B D 356;4X4M B E 357;16.6015
4X4M B D 356;4X4M B L 358;1.52478
4X4M B D 356;4X4M B T 359;19.5804
4X4M B D 356;4X4M B K 360;0.424359
4X4M B E 357;4X4M B L 358;16.3168
4X4M B E 357;4X4M B T 359;4.87224
4X4M B E 357;4X4M B K 360;17.7567
4X4M B E 357;4X4M B Q 362;13.1126
4X4M B E 357;4X4M B V 363;18.8169
4X4M B E 357;4X4M B S 364;19.1454
4X4M B E 357;4X4M B K 414;0.850104
4X4M B L 358;4X4M B T 359;21.2315
4X4M B L 358;4X4M B K 360;0.893596
4X4M B L 358;4X4M B V 363;9.49381
4X4M B L 358;4X4M B K 414;24.2288
4X4M B L 358;4X4M B W 417;18.6964
4X4M B L 358;4X4M B Q 418;13.6979
4X4M B L 358;4X4M B L 443;1.2406
4X4M B T 359;4X4M B K 360;39.0478
4X4M B T 359;4X4M B N 361;0.495013
4X4M B T 359;4X4M B K 414;11.6035
4X4M B K 360;4X4M B N 361;33.4826
4X4M B K 360;4X4M B Q 362;15.5967
4X4M B K 360;4X4M B V 363;1.34051
4X4M B K 360;4X4M B K 414;17.8814
4X4M B N 361;4X4M B Q 362;31.1977
4X4M B N 361;4X4M B V 363;0.120189
4X4M B N 361;4X4M B D 413;7.87571
4X4M B N 361;4X4M B K 414;17.0729
4X4M B Q 362;4X4M B V 363;24.5904
4X4M B Q 362;4X4M B T 411;24.1809
4X4M B Q 362;4X4M B V 412;3.34706
4X4M B Q 362;4X4M B D 413;14.9666
4X4M B Q 362;4X4M B K 414;1.31658
4X4M B V 363;4X4M B S 364;19.9222
4X4M B V 363;4X4M B L 365;6.45071
4X4M B V 363;4X4M B L 410;0.240576
4X4M B V 363;4X4M B T 411;11.6099
4X4M B V 363;4X4M B V 412;24.5996
4X4M B V 363;4X4M B D 413;0.831324
4X4M B V 363;4X4M B K 414;19.0484
4X4M B V 363;4X4M B W 417;11.602
4X4M B S 364;4X4M B L 365;24.5587
4X4M B S 364;4X4M B T 366;6.16192
4X4M B S 364;4X4M B K 409;13.6244
4X4M B S 364;4X4M B L 410;1.03281
4X4M B S 364;4X4M B T 411;4.88201
4X4M B L 365;4X4M B T 366;23.3572
4X4M B L 365;4X4M B W 381;12.2256
4X4M B L 365;4X4M B S 408;2.15353
4X4M B L 365;4X4M B K 409;9.81456
4X4M B L 365;4X4M B L 410;35.4475
4X4M B L 365;4X4M B V 412;16.9767
4X4M B L 365;4X4M B W 417;12.2166
4X4M B L 365;4X4M B F 423;15.9237
4X4M B L 365;4X4M B L 441;12.4018
4X4M B T 366;4X4M B C 367;22.5112
4X4M B T 366;4X4M B L 368;4.44026
4X4M B T 366;4X4M B W 381;8.84685
4X4M B T 366;4X4M B Y 407;14.1875
4X4M B T 366;4X4M B S 408;6.13352
4X4M B T 366;4X4M B K 409;1.86208
4X4M B T 366;4X4M B L 441;1.28594
4X4M B C 367;4X4M B L 368;21.5468
4X4M B C 367;4X4M B V 369;12.0646
4X4M B C 367;4X4M B V 379;2.33041
4X4M B C 367;4X4M B W 381;12.5946
4X4M B C 367;4X4M B L 406;3.46031
4X4M B C 367;4X4M B Y 407;5.12612
4X4M B C 367;4X4M B S 408;21.174
4X4M B C 367;4X4M B C 425;21.1653
4X4M B C 367;4X4M B V 427;2.06275
4X4M B C 367;4X4M B K 439;4.72034e-05
4X4M B L 368;4X4M B V 369;22.7038
4X4M B L 368;4X4M B K 370;12.6775
4X4M B L 368;4X4M B L 406;6.22328
4X4M B L 368;4X4M B Y 407;19.8372
4X4M B V 369;4X4M B K 370;19.089
4X4M B V 369;4X4M B F 372;14.4177
4X4M B V 369;4X4M B I 377;10.4046
4X4M B V 369;4X4M B V 379;9.67059
4X4M B V 369;4X4M B F 405;5.58664
4X4M B V 369;4X4M B L 406;29.2753
4X4M B V 369;4X4M B S 408;0.142501
4X4M B V 369;4X4M B C 425;0.00379798
4X4M B V 369;4X4M B V 427;12.3088
4X4M B K 370;4X4M B G 371;22.7874
4X4M B K 370;4X4M B F 372;6.6501
4X4M B K 370;4X4M B D 399;10.962
4X4M B K 370;4X4M B S 403;0.513342
4X4M B K 370;4X4M B F 404;3.52357
4X4M B K 370;4X4M B F 405;15.5348
4X4M B G 371;4X4M B F 372;17.4203
4X4M B G 371;4X4M B D 399;3.42368e-05
4X4M B G 371;4X4M B D 401;0.343395
4X4M B G 371;4X4M B S 403;13.5063
4X4M B G 371;4X4M B F 404;5.06789
4X4M B F 372;4X4M B Y 373;25.0019
4X4M B F 372;4X4M B P 374;7.57678
4X4M B F 372;4X4M B S 375;9.82066
4X4M B F 372;4X4M B I 377;19.2186
4X4M B F 372;4X4M B P 396;7.14332
4X4M B F 372;4X4M B S 403;6.28715
4X4M B F 372;4X4M B F 404;33.4251
4X4M B F 372;4X4M B F 405;8.3005
4X4M B F 372;4X4M B L 406;12.5138
4X4M B F 372;4X4M B H 429;6.35443
4X4M B Y 373;4X4M B P 374;43.6008
4X4M B Y 373;4X4M B G 402;11.6861
4X4M B Y 373;4X4M B S 403;7.14385
4X4M B Y 373;4X4M B F 404;15.8507
4X4M B Y 373;4X4M B H 429;13.0944
4X4M B Y 373;4X4M B E 430;0.893532
4X4M B P 374;4X4M B S 375;24.7925
4X4M B P 374;4X4M B D 376;27.604
4X4M B P 374;4X4M B I 377;0.495058
4X4M B P 374;4X4M B F 404;3.01654
4X4M B P 374;4X4M B H 429;7.88174
4X4M B P 374;4X4M B E 430;18.0427
4X4M B S 375;4X4M B D 376;29.1811
4X4M B S 375;4X4M B I 377;12.174
4X4M B S 375;4X4M B P 396;24.3179
4X4M B S 375;4X4M B F 404;24.1825
4X4M B D 376;4X4M B I 377;26.489
4X4M B D 376;4X4M B H 429;9.58327
4X4M B D 376;4X4M B E 430;2.88817
4X4M B I 377;4X4M B A 378;32.9015
4X4M B I 377;4X4M B V 379;12.6481
4X4M B I 377;4X4M B P 396;4.08638
4X4M B I 377;4X4M B L 406;16.5201
4X4M B I 377;4X4M B V 427;9.96646
4X4M B I 377;4X4M B M 428;6.9965
4X4M B I 377;4X4M B H 429;14.1021
4X4M B A 378;4X4M B V 379;30.8676
4X4M B A 378;4X4M B E 380;6.67302
4X4M B A 378;4X4M B S 426;0.628787
4X4M B A 378;4X4M B V 427;6.40526
4X4M B A 378;4X4M B M 428;26.6301
4X4M B V 379;4X4M B E 380;32.0525
4X4M B V 379;4X4M B W 381;3.52309
4X4M B V 379;4X4M B Y 391;14.2895
4X4M B V 379;4X4M B T 393;14.5787
4X4M B V 379;4X4M B L 406;10.0163
4X4M B V 379;4X4M B S 408;12.1167
4X4M B V 379;4X4M B C 425;10.4762
4X4M B V 379;4X4M B S 426;6.65295
4X4M B V 379;4X4M B V 427;12.3685
4X4M B V 379;4X4M B M 428;0.502479
4X4M B E 380;4X4M B W 381;29.4692
4X4M B E 380;4X4M B E 382;15.3181
4X4M B E 380;4X4M B P 387;6.23202
4X4M B E 380;4X4M B Y 391;16.4086
4X4M B E 380;4X4M B S 424;0.16404
4X4M B E 380;4X4M B C 425;5.32981
4X4M B E 380;4X4M B S 426;24.4551
4X4M B E 380;4X4M B M 428;18.2809
4X4M B W 381;4X4M B E 382;24.4886
4X4M B W 381;4X4M B P 387;6.96214
4X4M B W 381;4X4M B E 388;16.9584
4X4M B W 381;4X4M B Y 391;22.742
4X4M B W 381;4X4M B S 408;12.8715
4X4M B W 381;4X4M B K 409;0.31712
4X4M B W 381;4X4M B L 410;32.7251
4X4M B W 381;4X4M B F 423;12.6352
4X4M B W 381;4X4M B S 424;12.888
4X4M B W 381;4X4M B C 425;21.5631
4X4M B W 381;4X4M B K 439;1.19615
4X4M B W 381;4X4M B L 441;8.74877
4X4M B E 382;4X4M B S 383;21.5528
4X4M B E 382;4X4M B G 385;9.02216
4X4M B E 382;4X4M B Q 386;7.68822
4X4M B E 382;4X4M B P 387;19.7781
4X4M B E 382;4X4M B E 388;6.8369
4X4M B E 382;4X4M B L 410;1.007
4X4M B E 382;4X4M B F 423;6.92153
4X4M B E 382;4X4M B S 424;24.9303
4X4M B E 382;4X4M B S 426;19.4971
4X4M B E 382;4X4M B Y 436;1.84875
4X4M B E 382;4X4M B Q 438;5.62133
4X4M B S 383;4X4M B N 384;34.0171
4X4M B S 383;4X4M B G 385;4.0009
4X4M B S 383;4X4M B Q 386;24.852
4X4M B S 383;4X4M B E 388;12.5339
4X4M B S 383;4X4M B R 416;0.927646
4X4M B S 383;4X4M B N 421;4.10542
4X4M B S 383;4X4M B V 422;9.47159
4X4M B S 383;4X4M B F 423;21.5766
4X4M B S 383;4X4M B S 424;0.773537
4X4M B N 384;4X4M B G 385;26.213
4X4M B N 384;4X4M B Q 386;13.2438
4X4M B N 384;4X4M B N 421;21.0563
4X4M B N 384;4X4M B V 422;17.735
4X4M B G 385;4X4M B Q 386;26.7984
4X4M B G 385;4X4M B P 387;4.81435
4X4M B Q 386;4X4M B P 387;36.3446
4X4M B Q 386;4X4M B E 388;2.3086
4X4M B P 387;4X4M B E 388;28.9313
4X4M B P 387;4X4M B N 389;13.5344
4X4M B E 388;4X4M B N 389;32.4889
4X4M B E 388;4X4M B N 390;8.19024
4X4M B E 388;4X4M B Y 391;12.8034
4X4M B E 388;4X4M B L 410;22.8738
4X4M B E 388;4X4M B T 411;3.00952
4X4M B E 388;4X4M B V 412;4.82625
4X4M B E 388;4X4M B R 416;26.8022
4X4M B E 388;4X4M B F 423;11.7073
4X4M B N 389;4X4M B N 390;34.085
4X4M B N 389;4X4M B Y 391;2.01138
4X4M B N 390;4X4M B Y 391;26.0715
4X4M B N 390;4X4M B L 410;11.68
4X4M B N 390;4X4M B T 411;38.0524
4X4M B Y 391;4X4M B K 392;35.1876
4X4M B Y 391;4X4M B T 393;12.3173
4X4M B Y 391;4X4M B S 408;7.46971
4X4M B Y 391;4X4M B K 409;7.24102
4X4M B Y 391;4X4M B L 410;14.8344
4X4M B Y 391;4X4M B T 411;0.691915
4X4M B K 392;4X4M B T 393;26.961
4X4M B K 392;4X4M B T 394;0.126293
4X4M B K 392;4X4M B Y 407;0.0865277
4X4M B K 392;4X4M B S 408;5.57059
4X4M B K 392;4X4M B K 409;27.1782
4X4M B T 393;4X4M B T 394;32.1968
4X4M B T 393;4X4M B P 395;3.31911
4X4M B T 393;4X4M B L 406;14.8644
4X4M B T 393;4X4M B Y 407;4.00477
4X4M B T 393;4X4M B S 408;17.3815
4X4M B T 394;4X4M B P 395;35.2827
4X4M B T 394;4X4M B P 396;1.31926
4X4M B T 394;4X4M B V 397;1.91415
4X4M B T 394;4X4M B L 406;16.9057
4X4M B T 394;4X4M B Y 407;23.679
4X4M B T 394;4X4M B K 409;0.158575
4X4M B P 395;4X4M B P 396;38.3087
4X4M B P 395;4X4M B V 397;9.90876
4X4M B P 395;4X4M B F 405;0.343391
4X4M B P 395;4X4M B L 406;5.07503
4X4M B P 396;4X4M B V 397;25.7435
4X4M B P 396;4X4M B F 404;15.7697
4X4M B P 396;4X4M B F 405;1.90917
4X4M B P 396;4X4M B L 406;13.0492
4X4M B V 397;4X4M B L 398;30.6113
4X4M B V 397;4X4M B D 399;2.41708
4X4M B V 397;4X4M B F 404;14.8306
4X4M B V 397;4X4M B F 405;36.5955
4X4M B V 397;4X4M B L 406;1.70258
4X4M B L 398;4X4M B D 399;28.8857
4X4M B L 398;4X4M B G 402;17.1682
4X4M B L 398;4X4M B S 403;4.95189
4X4M B L 398;4X4M B F 404;26.8073
4X4M B L 398;4X4M B F 405;2.08546
4X4M B D 399;4X4M B S 400;34.9686
4X4M B D 399;4X4M B D 401;17.3614
4X4M B D 399;4X4M B G 402;8.26743
4X4M B D 399;4X4M B S 403;22.6151
4X4M B D 399;4X4M B F 404;4.31613
4X4M B D 399;4X4M B F 405;19.7231
4X4M B S 400;4X4M B D 401;26.7931
4X4M B S 400;4X4M B G 402;6.67531
4X4M B D 401;4X4M B G 402;22.3902
4X4M B D 401;4X4M B S 403;23.4446
4X4M B G 402;4X4M B S 403;22.1509
4X4M B G 402;4X4M B F 404;4.21055
4X4M B S 403;4X4M B F 404;26.8274
4X4M B F 404;4X4M B F 405;17.7202
4X4M B F 405;4X4M B L 406;29.1387
4X4M B F 405;4X4M B Y 407;13.588
4X4M B L 406;4X4M B Y 407;29.3571
4X4M B L 406;4X4M B S 408;5.53357
4X4M B Y 407;4X4M B S 408;19.632
4X4M B Y 407;4X4M B K 409;0.459547
4X4M B S 408;4X4M B K 409;19.5117
4X4M B S 408;4X4M B L 410;0.74343
4X4M B K 409;4X4M B L 410;18.5402
4X4M B K 409;4X4M B T 411;20.5435
4X4M B L 410;4X4M B T 411;25.6341
4X4M B L 410;4X4M B V 412;7.27457
4X4M B L 410;4X4M B F 423;10.3338
4X4M B T 411;4X4M B V 412;30.9992
4X4M B T 411;4X4M B D 413;0.314462
4X4M B T 411;4X4M B R 416;1.2226
4X4M B V 412;4X4M B D 413;32.7499
4X4M B V 412;4X4M B K 414;1.4104
4X4M B V 412;4X4M B R 416;25.7505
4X4M B V 412;4X4M B W 417;7.9333
4X4M B V 412;4X4M B F 423;16.461
4X4M B D 413;4X4M B K 414;18.9028
4X4M B D 413;4X4M B S 415;13.2596
4X4M B D 413;4X4M B R 416;26.1904
4X4M B D 413;4X4M B W 417;5.97382
4X4M B K 414;4X4M B S 415;24.7942
4X4M B K 414;4X4M B R 416;1.04587
4X4M B K 414;4X4M B W 417;16.2616
4X4M B K 414;4X4M B Q 418;29.0153
4X4M B S 415;4X4M B R 416;30.6832
4X4M B S 415;4X4M B W 417;0.978723
4X4M B S 415;4X4M B Q 418;10.5339
4X4M B S 415;4X4M B Q 419;12.529
4X4M B R 416;4X4M B W 417;20.7568
4X4M B R 416;4X4M B Q 418;0.543738
4X4M B R 416;4X4M B Q 419;7.192
4X4M B R 416;4X4M B G 420;1.80964
4X4M B R 416;4X4M B N 421;21.9629
4X4M B R 416;4X4M B F 423;17.6879
4X4M B W 417;4X4M B Q 418;31.6861
4X4M B W 417;4X4M B Q 419;1.60677
4X4M B W 417;4X4M B G 420;10.4727
4X4M B W 417;4X4M B N 421;8.32673
4X4M B W 417;4X4M B F 423;14.3961
4X4M B W 417;4X4M B L 441;15.6545
4X4M B W 417;4X4M B S 442;3.81737
4X4M B W 417;4X4M B L 443;40.1886
4X4M B Q 418;4X4M B Q 419;24.4707
4X4M B Q 418;4X4M B G 420;4.55776
4X4M B Q 418;4X4M B L 443;4.05229
4X4M B Q 418;4X4M B S 444;7.712
4X4M B Q 418;4X4M B P 445;2.75176
4X4M B Q 419;4X4M B G 420;23.5395
4X4M B Q 419;4X4M B N 421;15.2833
4X4M B Q 419;4X4M B S 444;3.74935
4X4M B G 420;4X4M B N 421;29.224
4X4M B G 420;4X4M B V 422;8.03026
4X4M B G 420;4X4M B S 442;6.32178
4X4M B G 420;4X4M B L 443;10.013
4X4M B G 420;4X4M B S 444;12.0084
4X4M B N 421;4X4M B V 422;23.8009
4X4M B N 421;4X4M B F 423;22.5457
4X4M B N 421;4X4M B L 441;2.50814
4X4M B N 421;4X4M B S 442;5.06381
4X4M B N 421;4X4M B L 443;0.396664
4X4M B V 422;4X4M B F 423;24.5723
4X4M B V 422;4X4M B S 424;6.97006
4X4M B V 422;4X4M B S 440;14.4523
4X4M B V 422;4X4M B L 441;8.99448
4X4M B V 422;4X4M B S 442;20.5311
4X4M B F 423;4X4M B S 424;20.1084
4X4M B F 423;4X4M B K 439;0.709573
4X4M B F 423;4X4M B S 440;6.26272
4X4M B F 423;4X4M B L 441;22.7224
4X4M B S 424;4X4M B C 425;15.6291
4X4M B S 424;4X4M B S 426;7.25801
4X4M B S 424;4X4M B Q 438;21.468
4X4M B S 424;4X4M B K 439;8.55304
4X4M B S 424;4X4M B S 440;12.1322
4X4M B C 425;4X4M B S 426;19.0712
4X4M B C 425;4X4M B V 427;10.5134
4X4M B C 425;4X4M B T 437;0.0129067
4X4M B C 425;4X4M B Q 438;8.34866
4X4M B C 425;4X4M B K 439;17.1206
4X4M B S 426;4X4M B V 427;22.2769
4X4M B S 426;4X4M B M 428;7.88305
4X4M B S 426;4X4M B Y 436;17.7452
4X4M B S 426;4X4M B T 437;1.2292
4X4M B S 426;4X4M B Q 438;11.842
4X4M B V 427;4X4M B M 428;23.9355
4X4M B V 427;4X4M B H 429;3.79795
4X4M B V 427;4X4M B L 432;12.6352
4X4M B V 427;4X4M B Y 436;11.5941
4X4M B V 427;4X4M B T 437;24.2638
4X4M B V 427;4X4M B Q 438;0.667464
4X4M B M 428;4X4M B H 429;19.7218
4X4M B M 428;4X4M B L 432;2.9735
4X4M B M 428;4X4M B N 434;0.435422
4X4M B M 428;4X4M B H 435;12.9944
4X4M B M 428;4X4M B Y 436;21.9907
4X4M B H 429;4X4M B E 430;33.7016
4X4M B H 429;4X4M B A 431;18.3473
4X4M B H 429;4X4M B L 432;20.5679
4X4M B H 429;4X4M B H 435;17.1382
4X4M B E 430;4X4M B A 431;22.2513
4X4M B E 430;4X4M B L 432;6.72764
4X4M B E 430;4X4M B H 435;24.3069
4X4M B A 431;4X4M B L 432;24.367
4X4M B A 431;4X4M B H 433;1.10448
4X4M B L 432;4X4M B H 433;26.7593
4X4M B L 432;4X4M B N 434;2.7536
4X4M B L 432;4X4M B H 435;17.6051
4X4M B L 432;4X4M B Y 436;14.4243
4X4M B L 432;4X4M B T 437;23.5599
4X4M B H 433;4X4M B N 434;49.4973
4X4M B H 433;4X4M B H 435;2.0144
4X4M B H 433;4X4M B Y 436;17.1391
4X4M B N 434;4X4M B H 435;27.3613
4X4M B N 434;4X4M B Y 436;17.3989
4X4M B H 435;4X4M B Y 436;13.2699
4X4M B Y 436;4X4M B T 437;32.6539
4X4M B Y 436;4X4M B Q 438;26.817
4X4M B T 437;4X4M B Q 438;26.2669
4X4M B T 437;4X4M B K 439;18.5305
4X4M B Q 438;4X4M B K 439;34.9707
4X4M B Q 438;4X4M B S 440;2.5446
4X4M B K 439;4X4M B S 440;27.1479
4X4M B K 439;4X4M B L 441;0.0485577
4X4M B S 440;4X4M B L 441;25.6258
4X4M B S 440;4X4M B S 442;0.610044
4X4M B L 441;4X4M B S 442;34.531
4X4M B L 441;4X4M B L 443;2.51179
4X4M B S 442;4X4M B L 443;33.1713
4X4M B S 442;4X4M B S 444;0.0188529
4X4M B L 443;4X4M B S 444;44.106
4X4M B L 443;4X4M B P 445;0.528995
4X4M B S 444;4X4M B P 445;44.4624
4X4M B S 444;4X4M B G 446;13.1304
4X4M B P 445;4X4M B G 446;35.1678
