V1;V2;Weight
5E6P B Q 45;5E6P B R 46;34.239
5E6P B Q 45;5E6P B C 47;0.334623
5E6P B Q 45;5E6P B I 90;20.5299
5E6P B Q 45;5E6P B K 91;0.0253349
5E6P B Q 45;5E6P B T 118;19.5364
5E6P B Q 45;5E6P B L 119;8.39306
5E6P B Q 45;5E6P B L 120;26.7379
5E6P B Q 45;5E6P B G 121;9.87446
5E6P B R 46;5E6P B C 47;27.5441
5E6P B R 46;5E6P B V 48;21.718
5E6P B R 46;5E6P B V 83;4.22629
5E6P B R 46;5E6P B K 84;3.1863
5E6P B R 46;5E6P B D 87;14.1107
5E6P B R 46;5E6P B L 117;1.31919
5E6P B R 46;5E6P B T 118;10.0954
5E6P B R 46;5E6P B L 119;33.7632
5E6P B R 46;5E6P B L 120;1.02394
5E6P B R 46;5E6P B G 121;18.2071
5E6P B C 47;5E6P B V 48;30.4934
5E6P B C 47;5E6P B I 49;2.57492
5E6P B C 47;5E6P B L 117;5.22762
5E6P B C 47;5E6P B T 118;23.1341
5E6P B V 48;5E6P B I 49;37.5857
5E6P B V 48;5E6P B I 50;12.278
5E6P B V 48;5E6P B V 83;16.8653
5E6P B V 48;5E6P B V 115;0.212809
5E6P B V 48;5E6P B A 116;4.13686
5E6P B V 48;5E6P B L 117;29.7965
5E6P B V 48;5E6P B L 119;9.05877
5E6P B I 49;5E6P B I 50;36.3879
5E6P B I 49;5E6P B Q 51;0.271502
5E6P B I 49;5E6P B Y 114;7.65918
5E6P B I 49;5E6P B V 115;7.34419
5E6P B I 49;5E6P B A 116;25.6572
5E6P B I 50;5E6P B Q 51;32.9739
5E6P B I 50;5E6P B F 57;19.8218
5E6P B I 50;5E6P B F 59;8.08793
5E6P B I 50;5E6P B A 77;23.0316
5E6P B I 50;5E6P B A 78;14.9826
5E6P B I 50;5E6P B V 83;14.6937
5E6P B I 50;5E6P B Y 114;6.33537
5E6P B I 50;5E6P B V 115;22.2069
5E6P B I 50;5E6P B L 117;2.55785
5E6P B Q 51;5E6P B K 52;29.8076
5E6P B Q 51;5E6P B D 53;1.18204
5E6P B Q 51;5E6P B G 56;0.0714756
5E6P B Q 51;5E6P B F 57;4.25811
5E6P B Q 51;5E6P B A 77;10.7641
5E6P B Q 51;5E6P B Y 114;28.1028
5E6P B K 52;5E6P B D 53;34.004
5E6P B K 52;5E6P B G 56;10.7763
5E6P B K 52;5E6P B F 57;36.0243
5E6P B K 52;5E6P B K 110;8.78805
5E6P B K 52;5E6P B G 112;7.58963
5E6P B K 52;5E6P B A 113;16.8035
5E6P B K 52;5E6P B Y 114;17.264
5E6P B D 53;5E6P B Q 54;37.9814
5E6P B D 53;5E6P B H 55;14.1657
5E6P B D 53;5E6P B G 56;24.2096
5E6P B D 53;5E6P B F 57;0.519277
5E6P B D 53;5E6P B G 75;0.433045
5E6P B D 53;5E6P B G 76;7.56063
5E6P B D 53;5E6P B A 77;14.7346
5E6P B Q 54;5E6P B H 55;28.1311
5E6P B Q 54;5E6P B G 56;1.45572
5E6P B H 55;5E6P B G 56;29.6377
5E6P B H 55;5E6P B G 58;7.25432
5E6P B H 55;5E6P B R 73;46.5741
5E6P B H 55;5E6P B G 76;1.71238
5E6P B G 56;5E6P B F 57;25.6175
5E6P B G 56;5E6P B G 58;1.98474
5E6P B G 56;5E6P B G 76;0.0489395
5E6P B G 56;5E6P B A 77;0.0530813
5E6P B F 57;5E6P B G 58;21.9756
5E6P B F 57;5E6P B F 59;18.4247
5E6P B F 57;5E6P B G 76;0.345695
5E6P B F 57;5E6P B A 77;12.1146
5E6P B F 57;5E6P B A 78;2.90209
5E6P B F 57;5E6P B I 109;16.5873
5E6P B F 57;5E6P B K 110;6.4853
5E6P B F 57;5E6P B G 112;3.65944
5E6P B F 57;5E6P B A 113;5.2439
5E6P B F 57;5E6P B Y 114;3.93638
5E6P B F 57;5E6P B V 115;18.7429
5E6P B G 58;5E6P B F 59;24.3114
5E6P B G 58;5E6P B V 72;7.65193
5E6P B G 58;5E6P B R 73;19.4332
5E6P B G 58;5E6P B G 76;7.96088
5E6P B G 58;5E6P B A 77;2.4551
5E6P B G 58;5E6P B A 78;9.1125
5E6P B F 59;5E6P B T 60;28.8721
5E6P B F 59;5E6P B V 61;11.5783
5E6P B F 59;5E6P B V 69;17.0891
5E6P B F 59;5E6P B S 71;5.64041
5E6P B F 59;5E6P B V 72;10.6982
5E6P B F 59;5E6P B R 73;1.50735
5E6P B F 59;5E6P B A 78;9.36553
5E6P B F 59;5E6P B V 83;3.81406
5E6P B F 59;5E6P B I 89;4.07873
5E6P B F 59;5E6P B I 109;13.1702
5E6P B F 59;5E6P B V 115;5.97133
5E6P B F 59;5E6P B L 117;9.72293
5E6P B T 60;5E6P B V 61;22.4195
5E6P B T 60;5E6P B S 62;1.7723
5E6P B T 60;5E6P B L 68;0.263738
5E6P B T 60;5E6P B V 69;9.09472
5E6P B T 60;5E6P B Q 70;21.2699
5E6P B T 60;5E6P B S 71;22.6035
5E6P B V 61;5E6P B S 62;21.9914
5E6P B V 61;5E6P B V 67;13.5629
5E6P B V 61;5E6P B L 68;7.80967
5E6P B V 61;5E6P B V 69;4.15339
5E6P B V 61;5E6P B Q 70;0.0713433
5E6P B V 61;5E6P B I 89;8.46019
5E6P B V 61;5E6P B H 102;14.2224
5E6P B V 61;5E6P B V 105;6.57566
5E6P B V 61;5E6P B V 106;9.11942
5E6P B V 61;5E6P B I 109;8.20221
5E6P B S 62;5E6P B G 63;18.298
5E6P B S 62;5E6P B I 66;0.401721
5E6P B S 62;5E6P B V 67;5.66134
5E6P B S 62;5E6P B L 68;25.6398
5E6P B S 62;5E6P B V 69;0.711433
5E6P B S 62;5E6P B Q 70;16.0751
5E6P B S 62;5E6P B H 102;4.72682
5E6P B G 63;5E6P B D 64;24.0194
5E6P B G 63;5E6P B I 66;6.46321
5E6P B G 63;5E6P B V 67;7.86334
5E6P B G 63;5E6P B L 68;0.61969
5E6P B G 63;5E6P B H 102;12.8828
5E6P B D 64;5E6P B R 65;36.4986
5E6P B D 64;5E6P B I 66;6.82675
5E6P B D 64;5E6P B V 67;10.2362
5E6P B D 64;5E6P B S 100;5.73285
5E6P B D 64;5E6P B S 101;15.2986
5E6P B D 64;5E6P B H 102;16.0006
5E6P B R 65;5E6P B I 66;34.867
5E6P B R 65;5E6P B V 67;5.10489
5E6P B R 65;5E6P B R 88;3.27466
5E6P B R 65;5E6P B V 97;3.83766
5E6P B R 65;5E6P B T 98;11.2038
5E6P B R 65;5E6P B S 100;8.65147
5E6P B I 66;5E6P B V 67;21.3533
5E6P B I 66;5E6P B L 68;20.0211
5E6P B I 66;5E6P B R 88;26.2092
5E6P B V 67;5E6P B L 68;21.0511
5E6P B V 67;5E6P B R 88;7.76629
5E6P B V 67;5E6P B I 89;23.8525
5E6P B V 67;5E6P B V 97;8.18293
5E6P B V 67;5E6P B S 100;3.51932
5E6P B V 67;5E6P B S 101;2.26194
5E6P B V 67;5E6P B H 102;10.2415
5E6P B V 67;5E6P B V 105;23.962
5E6P B L 68;5E6P B V 69;26.9899
5E6P B L 68;5E6P B Q 70;0.337918
5E6P B L 68;5E6P B D 87;8.28869
5E6P B L 68;5E6P B R 88;17.3319
5E6P B L 68;5E6P B I 89;7.1675
5E6P B V 69;5E6P B Q 70;23.3526
5E6P B V 69;5E6P B S 71;6.51127
5E6P B V 69;5E6P B V 72;8.1312
5E6P B V 69;5E6P B V 83;11.2951
5E6P B V 69;5E6P B K 84;5.33318
5E6P B V 69;5E6P B E 85;2.50141
5E6P B V 69;5E6P B G 86;9.83696
5E6P B V 69;5E6P B D 87;23.0461
5E6P B V 69;5E6P B I 89;10.5836
5E6P B V 69;5E6P B L 119;7.07751
5E6P B Q 70;5E6P B S 71;32.7225
5E6P B Q 70;5E6P B E 85;11.133
5E6P B Q 70;5E6P B G 86;3.38743
5E6P B S 71;5E6P B V 72;35.5567
5E6P B S 71;5E6P B R 73;2.00215
5E6P B S 71;5E6P B P 74;0.787462
5E6P B S 71;5E6P B E 85;3.73182
5E6P B V 72;5E6P B R 73;25.5542
5E6P B V 72;5E6P B P 74;8.79338
5E6P B V 72;5E6P B G 76;0.170986
5E6P B V 72;5E6P B A 78;11.735
5E6P B V 72;5E6P B M 79;31.0041
5E6P B V 72;5E6P B V 83;16.9682
5E6P B V 72;5E6P B K 84;4.79934
5E6P B V 72;5E6P B E 85;8.99429
5E6P B R 73;5E6P B P 74;27.4124
5E6P B R 73;5E6P B G 75;26.6429
5E6P B R 73;5E6P B G 76;22.5637
5E6P B R 73;5E6P B M 79;6.94468
5E6P B P 74;5E6P B G 75;27.1
5E6P B P 74;5E6P B M 79;27.1461
5E6P B P 74;5E6P B K 80;0.780562
5E6P B G 75;5E6P B G 76;28.3926
5E6P B G 75;5E6P B M 79;1.38026
5E6P B G 75;5E6P B K 80;4.29027
5E6P B G 76;5E6P B A 77;25.9771
5E6P B G 76;5E6P B A 78;2.46301
5E6P B G 76;5E6P B M 79;4.90133
5E6P B G 76;5E6P B K 80;12.3439
5E6P B A 77;5E6P B A 78;22.3741
5E6P B A 77;5E6P B K 80;15.1313
5E6P B A 78;5E6P B M 79;24.2081
5E6P B A 78;5E6P B K 80;7.15489
5E6P B A 78;5E6P B V 83;28.5254
5E6P B M 79;5E6P B K 80;33.8829
5E6P B M 79;5E6P B V 83;12.7552
5E6P B M 79;5E6P B E 85;1.80754
5E6P B V 83;5E6P B K 84;35.9459
5E6P B V 83;5E6P B E 85;0.337727
5E6P B V 83;5E6P B D 87;5.68551
5E6P B V 83;5E6P B L 117;5.25288
5E6P B V 83;5E6P B L 119;17.9512
5E6P B K 84;5E6P B E 85;31.9344
5E6P B K 84;5E6P B G 86;4.02479
5E6P B K 84;5E6P B D 87;23.2528
5E6P B E 85;5E6P B G 86;25.4393
5E6P B G 86;5E6P B D 87;25.1615
5E6P B G 86;5E6P B G 121;0.00196625
5E6P B D 87;5E6P B R 88;17.9844
5E6P B D 87;5E6P B I 89;2.88248
5E6P B D 87;5E6P B L 119;19.9731
5E6P B D 87;5E6P B L 120;4.20336
5E6P B D 87;5E6P B G 121;8.81177
5E6P B R 88;5E6P B I 89;25.4112
5E6P B R 88;5E6P B I 90;20.4465
5E6P B R 88;5E6P B V 97;1.19118
5E6P B R 88;5E6P B T 98;16.926
5E6P B R 88;5E6P B L 119;8.59595
5E6P B R 88;5E6P B L 120;32.0162
5E6P B I 89;5E6P B I 90;18.8372
5E6P B I 89;5E6P B K 91;6.22489
5E6P B I 89;5E6P B V 92;10.5466
5E6P B I 89;5E6P B V 97;19.0375
5E6P B I 89;5E6P B T 98;0.0040979
5E6P B I 89;5E6P B V 105;6.25763
5E6P B I 89;5E6P B I 109;6.54772
5E6P B I 89;5E6P B L 117;14.8036
5E6P B I 89;5E6P B T 118;3.55635
5E6P B I 89;5E6P B L 119;16.1313
5E6P B I 90;5E6P B K 91;21.8256
5E6P B I 90;5E6P B M 96;24.9201
5E6P B I 90;5E6P B V 97;11.9846
5E6P B I 90;5E6P B T 98;21.9899
5E6P B I 90;5E6P B T 118;14.7768
5E6P B I 90;5E6P B L 119;3.61988
5E6P B I 90;5E6P B L 120;21.0516
5E6P B K 91;5E6P B V 92;22.6828
5E6P B K 91;5E6P B N 93;2.81638
5E6P B K 91;5E6P B G 94;28.703
5E6P B K 91;5E6P B T 95;2.60018
5E6P B K 91;5E6P B M 96;22.5943
5E6P B K 91;5E6P B V 97;5.0218
5E6P B K 91;5E6P B A 116;5.84947
5E6P B K 91;5E6P B L 117;7.85243
5E6P B K 91;5E6P B T 118;41.0479
5E6P B V 92;5E6P B N 93;29.4761
5E6P B V 92;5E6P B G 94;2.88328
5E6P B V 92;5E6P B T 95;17.0846
5E6P B V 92;5E6P B M 96;0.00323485
5E6P B V 92;5E6P B V 97;15.4463
5E6P B V 92;5E6P B V 105;6.29033
5E6P B V 92;5E6P B L 108;17.171
5E6P B V 92;5E6P B I 109;14.3273
5E6P B V 92;5E6P B V 115;6.09745
5E6P B V 92;5E6P B A 116;0.390014
5E6P B V 92;5E6P B L 117;13.5374
5E6P B N 93;5E6P B G 94;24.2997
5E6P B N 93;5E6P B T 95;8.40882
5E6P B N 93;5E6P B L 108;23.0871
5E6P B N 93;5E6P B I 109;3.67121
5E6P B N 93;5E6P B S 111;0.922778
5E6P B N 93;5E6P B G 112;1.90508
5E6P B N 93;5E6P B Y 114;5.85537
5E6P B N 93;5E6P B V 115;16.0355
5E6P B N 93;5E6P B A 116;22.7026
5E6P B N 93;5E6P B L 117;0.0166052
5E6P B G 94;5E6P B T 95;23.3256
5E6P B G 94;5E6P B M 96;7.20446
5E6P B T 95;5E6P B M 96;32.8405
5E6P B T 95;5E6P B V 97;5.48164
5E6P B T 95;5E6P B S 100;4.49076
5E6P B T 95;5E6P B L 108;23.111
5E6P B M 96;5E6P B V 97;16.1188
5E6P B M 96;5E6P B T 98;27.674
5E6P B M 96;5E6P B N 99;3.13588
5E6P B M 96;5E6P B S 100;6.1456
5E6P B V 97;5E6P B T 98;22.5244
5E6P B V 97;5E6P B N 99;0.945994
5E6P B V 97;5E6P B S 100;22.747
5E6P B V 97;5E6P B V 105;18.0171
5E6P B V 97;5E6P B L 108;10.348
5E6P B T 98;5E6P B N 99;42.8953
5E6P B T 98;5E6P B S 100;2.76221
5E6P B N 99;5E6P B S 100;29.3862
5E6P B N 99;5E6P B S 101;1.96459
5E6P B N 99;5E6P B E 104;4.67538
5E6P B S 100;5E6P B S 101;23.7403
5E6P B S 100;5E6P B E 104;19.2972
5E6P B S 100;5E6P B V 105;9.95894
5E6P B S 100;5E6P B L 108;7.35148
5E6P B S 101;5E6P B H 102;22.0987
5E6P B S 101;5E6P B L 103;13.3475
5E6P B S 101;5E6P B E 104;29.0774
5E6P B S 101;5E6P B V 105;9.2662
5E6P B H 102;5E6P B L 103;24.5898
5E6P B H 102;5E6P B E 104;1.27122
5E6P B H 102;5E6P B V 105;7.57042
5E6P B H 102;5E6P B V 106;22.1126
5E6P B L 103;5E6P B E 104;23.0826
5E6P B L 103;5E6P B V 105;0.493499
5E6P B L 103;5E6P B V 106;14.0015
5E6P B L 103;5E6P B K 107;43.5956
5E6P B E 104;5E6P B V 105;15.927
5E6P B E 104;5E6P B V 106;0.624062
5E6P B E 104;5E6P B K 107;14.7992
5E6P B E 104;5E6P B L 108;20.0133
5E6P B V 105;5E6P B V 106;19.5703
5E6P B V 105;5E6P B K 107;1.03533
5E6P B V 105;5E6P B L 108;11.06
5E6P B V 105;5E6P B I 109;20.3201
5E6P B V 106;5E6P B K 107;21.2407
5E6P B V 106;5E6P B L 108;0.616507
5E6P B V 106;5E6P B I 109;7.20297
5E6P B V 106;5E6P B K 110;16.8709
5E6P B K 107;5E6P B L 108;20.6879
5E6P B K 107;5E6P B I 109;0.68125
5E6P B K 107;5E6P B K 110;8.41601
5E6P B K 107;5E6P B S 111;23.9214
5E6P B L 108;5E6P B I 109;17.6292
5E6P B L 108;5E6P B K 110;1.11922
5E6P B L 108;5E6P B S 111;15.2263
5E6P B L 108;5E6P B G 112;0.360764
5E6P B I 109;5E6P B K 110;18.8331
5E6P B I 109;5E6P B S 111;1.19657
5E6P B I 109;5E6P B G 112;7.37531
5E6P B I 109;5E6P B Y 114;0.143141
5E6P B I 109;5E6P B V 115;24.1185
5E6P B I 109;5E6P B L 117;8.66646
5E6P B K 110;5E6P B S 111;20.4688
5E6P B K 110;5E6P B G 112;14.7443
5E6P B S 111;5E6P B G 112;27.3522
5E6P B G 112;5E6P B A 113;31.4124
5E6P B G 112;5E6P B Y 114;9.28831
5E6P B A 113;5E6P B Y 114;44.7194
5E6P B Y 114;5E6P B V 115;26.5968
5E6P B Y 114;5E6P B A 116;0.571044
5E6P B V 115;5E6P B A 116;26.062
5E6P B V 115;5E6P B L 117;17.7716
5E6P B A 116;5E6P B L 117;25.442
5E6P B L 117;5E6P B T 118;24.0803
5E6P B L 117;5E6P B L 119;22.0784
5E6P B T 118;5E6P B L 119;21.849
5E6P B L 119;5E6P B L 120;21.2111
5E6P B L 119;5E6P B G 121;0.0800135
5E6P B L 120;5E6P B G 121;28.2306
