"Metric";"Training_Set";"Testing_Set";"Independent"
"Accuracy";"0.819176319176319";"0.769230769230769";"0.773584905660377"
"Kappa";"0.424458099056566";"0.212203816313693";"0.259476475915305"
"AccuracyLower";"0.799122080435872";"0.707999654622215";"0.745681032172592"
"AccuracyUpper";"0.838016485935093";"0.82308728024893";"0.799788334019999"
"AccuracyNull";"0.760617760617761";"0.755656108597285";"0.761006289308176"
"AccuracyPValue";"1.46487968515049e-08";"0.35202596642992";"0.191744179885142"
"McnemarPValue";"1.05672578852079e-18";"7.43302334627373e-06";"9.04259737575752e-13"
"Sensitivity";"0.422043010752688";"0.222222222222222";"0.293859649122807"
"Specificity";"0.944162436548223";"0.946107784431138";"0.924242424242424"
"Pos Pred Value";"0.704035874439462";"0.571428571428572";"0.549180327868852"
"Neg Pred Value";"0.838467317806161";"0.79";"0.806490384615385"
"Precision";"0.704035874439462";"0.571428571428571";"0.549180327868853"
"Recall";"0.422043010752688";"0.222222222222222";"0.293859649122807"
"F1";"0.527731092436975";"0.32";"0.382857142857143"
"Prevalence";"0.239382239382239";"0.244343891402715";"0.238993710691824"
"Detection Rate";"0.101029601029601";"0.0542986425339367";"0.070230607966457"
"Detection Prevalence";"0.143500643500644";"0.0950226244343891";"0.127882599580713"
"Balanced Accuracy";"0.683102723650456";"0.58416500332668";"0.609051036682616"
"TP";"157";"12";"67"
"TN";"1116";"158";"671"
"FP";"66";"9";"55"
"FN";"215";"42";"161"
