"Metric";"Training_Set";"Testing_Set";"Independent"
"Accuracy";"0.817889317889318";"0.764705882352941";"0.759958071278826"
"Kappa";"0.437185659548655";"0.227272727272727";"0.230064917214692"
"AccuracyLower";"0.797784776945018";"0.703165865503";"0.731552944199914"
"AccuracyUpper";"0.836784753566278";"0.818997600669509";"0.786748259785745"
"AccuracyNull";"0.760617760617761";"0.755656108597285";"0.761006289308176"
"AccuracyPValue";"3.00183001752724e-08";"0.412136004149062";"0.547910647586546"
"McnemarPValue";"9.8019449383815e-13";"0.000180950490437563";"5.24161435019613e-10"
"Sensitivity";"0.456989247311828";"0.259259259259259";"0.289473684210526"
"Specificity";"0.931472081218274";"0.92814371257485";"0.90771349862259"
"Pos Pred Value";"0.677290836653386";"0.538461538461538";"0.496240601503759"
"Neg Pred Value";"0.844973138910207";"0.794871794871795";"0.802679658952497"
"Precision";"0.677290836653386";"0.538461538461538";"0.496240601503759"
"Recall";"0.456989247311828";"0.259259259259259";"0.289473684210526"
"F1";"0.545746388443018";"0.35";"0.365650969529086"
"Prevalence";"0.239382239382239";"0.244343891402715";"0.238993710691824"
"Detection Rate";"0.109395109395109";"0.0633484162895928";"0.0691823899371069"
"Detection Prevalence";"0.161518661518662";"0.117647058823529";"0.139412997903564"
"Balanced Accuracy";"0.694230664265051";"0.593701485917055";"0.598593591416558"
"TP";"170";"14";"66"
"TN";"1101";"155";"659"
"FP";"81";"12";"67"
"FN";"202";"40";"162"
