"Metric";"Training_Set";"Testing_Set";"Independent"
"Accuracy";"0.823037323037323";"0.764705882352941";"0.764150943396226"
"Kappa";"0.44151709753554";"0.190362124841482";"0.218835294888311"
"AccuracyLower";"0.803136160086873";"0.703165865503";"0.735895938260051"
"AccuracyUpper";"0.841709504965291";"0.818997600669509";"0.790764718985689"
"AccuracyNull";"0.760617760617761";"0.755656108597285";"0.761006289308176"
"AccuracyPValue";"1.53711413343059e-09";"0.412136004149062";"0.427243181915788"
"McnemarPValue";"3.1110653427608e-17";"4.73324603088341e-06";"8.2251775525475e-14"
"Sensitivity";"0.440860215053763";"0.203703703703704";"0.258771929824561"
"Specificity";"0.94331641285956";"0.946107784431138";"0.922865013774105"
"Pos Pred Value";"0.70995670995671";"0.55";"0.51304347826087"
"Neg Pred Value";"0.842781557067271";"0.786069651741294";"0.798569725864124"
"Precision";"0.70995670995671";"0.55";"0.51304347826087"
"Recall";"0.440860215053763";"0.203703703703704";"0.258771929824561"
"F1";"0.543946932006633";"0.297297297297297";"0.34402332361516"
"Prevalence";"0.239382239382239";"0.244343891402715";"0.238993710691824"
"Detection Rate";"0.105534105534106";"0.0497737556561086";"0.0618448637316562"
"Detection Prevalence";"0.148648648648649";"0.0904977375565611";"0.120545073375262"
"Balanced Accuracy";"0.692088313956662";"0.574905744067421";"0.590818471799333"
"TP";"164";"11";"59"
"TN";"1115";"158";"670"
"FP";"67";"9";"56"
"FN";"208";"43";"169"
