"Metric";"Training_Set";"Testing_Set";"Independent"
"Accuracy";"0.758687258687259";"0.773755656108597";"0.727463312368973"
"Kappa";"0.306017019999571";"0.337529976019185";"0.227520741460498"
"AccuracyLower";"0.736614739135146";"0.712842247922646";"0.698010994052816"
"AccuracyUpper";"0.779777909704479";"0.827167983064395";"0.75550396742577"
"AccuracyNull";"0.760617760617761";"0.755656108597285";"0.761006289308176"
"AccuracyPValue";"0.584336221680772";"0.29516370416924";"0.992577504703519"
"McnemarPValue";"0.0131858708514658";"0.119794930425918";"0.238665080818217"
"Sensitivity";"0.43010752688172";"0.425925925925926";"0.385964912280702"
"Specificity";"0.862098138747885";"0.88622754491018";"0.834710743801653"
"Pos Pred Value";"0.495356037151703";"0.547619047619048";"0.423076923076923"
"Neg Pred Value";"0.827782290820471";"0.8268156424581";"0.812332439678284"
"Precision";"0.495356037151703";"0.547619047619048";"0.423076923076923"
"Recall";"0.43010752688172";"0.425925925925926";"0.385964912280702"
"F1";"0.460431654676259";"0.479166666666667";"0.403669724770642"
"Prevalence";"0.239382239382239";"0.244343891402715";"0.238993710691824"
"Detection Rate";"0.102960102960103";"0.104072398190045";"0.0922431865828092"
"Detection Prevalence";"0.207850707850708";"0.190045248868778";"0.218029350104822"
"Balanced Accuracy";"0.646102832814803";"0.656076735418053";"0.610337828041177"
"TP";"160";"23";"88"
"TN";"1019";"148";"606"
"FP";"163";"19";"120"
"FN";"212";"31";"140"
