Stochastic Gradient Boosting 

518 samples
 12 predictor
  2 classes: 'HS', 'NHS' 

No pre-processing
Resampling: Cross-Validated (10 fold, repeated 3 times) 
Summary of sample sizes: 466, 466, 466, 466, 466, 466, ... 
Resampling results across tuning parameters:

  interaction.depth  n.minobsinnode  n.trees  ROC        Sens       Spec     
  1                   5              2000     0.7843880  0.1696581  0.9777778
  1                   5              2100     0.7849003  0.1829060  0.9777778
  1                   5              2200     0.7862015  0.1989316  0.9769231
  1                   5              2300     0.7867165  0.1989316  0.9692308
  1                   5              2400     0.7877301  0.2066239  0.9649573
  1                   5              2500     0.7882944  0.2143162  0.9632479
  1                   5              2600     0.7890834  0.2250000  0.9615385
  1                   5              2700     0.7894998  0.2326923  0.9606838
  1                   5              2800     0.7900066  0.2455128  0.9589744
  1                   5              2900     0.7901381  0.2559829  0.9564103
  1                   5              3000     0.7899792  0.2611111  0.9538462
  1                   5              3100     0.7906202  0.2715812  0.9538462
  1                   5              3200     0.7905654  0.2846154  0.9529915
  1                   5              3300     0.7911571  0.2897436  0.9504274
  1                   5              3400     0.7920611  0.2923077  0.9487179
  1                   5              3500     0.7923954  0.2974359  0.9470085
  1                   5              3600     0.7932665  0.3076923  0.9444444
  1                   5              3700     0.7936664  0.3128205  0.9435897
  1                   5              3800     0.7937870  0.3128205  0.9418803
  1                   5              3900     0.7935295  0.3235043  0.9418803
  1                   5              4000     0.7934035  0.3286325  0.9418803
  1                   5              4100     0.7929378  0.3286325  0.9427350
  1                   5              4200     0.7929432  0.3337607  0.9418803
  1                   5              4300     0.7936774  0.3388889  0.9401709
  1                   5              4400     0.7936774  0.3467949  0.9401709
  1                   5              4500     0.7935459  0.3493590  0.9393162
  1                   5              4600     0.7933487  0.3521368  0.9384615
  1                   5              4700     0.7935459  0.3547009  0.9384615
  1                   5              4800     0.7936062  0.3547009  0.9393162
  1                   5              4900     0.7938144  0.3598291  0.9376068
  1                   5              5000     0.7937486  0.3598291  0.9358974
  1                  10              2000     0.7843825  0.1724359  0.9786325
  1                  10              2100     0.7851003  0.1803419  0.9777778
  1                  10              2200     0.7854509  0.1910256  0.9752137
  1                  10              2300     0.7866398  0.2040598  0.9717949
  1                  10              2400     0.7873247  0.2068376  0.9649573
  1                  10              2500     0.7876014  0.2119658  0.9615385
  1                  10              2600     0.7878808  0.2250000  0.9589744
  1                  10              2700     0.7883574  0.2352564  0.9581197
  1                  10              2800     0.7890697  0.2557692  0.9581197
  1                  10              2900     0.7896833  0.2583333  0.9547009
  1                  10              3000     0.7898367  0.2713675  0.9538462
  1                  10              3100     0.7909215  0.2739316  0.9529915
  1                  10              3200     0.7906640  0.2844017  0.9521368
  1                  10              3300     0.7909215  0.3025641  0.9504274
  1                  10              3400     0.7910476  0.3051282  0.9495726
  1                  10              3500     0.7917708  0.3076923  0.9487179
  1                  10              3600     0.7922419  0.3102564  0.9470085
  1                  10              3700     0.7927789  0.3158120  0.9461538
  1                  10              3800     0.7931679  0.3183761  0.9461538
  1                  10              3900     0.7935788  0.3288462  0.9452991
  1                  10              4000     0.7938363  0.3314103  0.9444444
  1                  10              4100     0.7938472  0.3365385  0.9435897
  1                  10              4200     0.7941212  0.3416667  0.9427350
  1                  10              4300     0.7937815  0.3467949  0.9427350
  1                  10              4400     0.7938418  0.3493590  0.9427350
  1                  10              4500     0.7942417  0.3493590  0.9427350
  1                  10              4600     0.7949704  0.3519231  0.9418803
  1                  10              4700     0.7947732  0.3570513  0.9393162
  1                  10              4800     0.7945705  0.3598291  0.9384615
  1                  10              4900     0.7943130  0.3598291  0.9384615
  1                  10              5000     0.7942362  0.3623932  0.9384615
  2                   5              2000     0.7924995  0.2559829  0.9512821
  2                   5              2100     0.7927570  0.2662393  0.9495726
  2                   5              2200     0.7932281  0.2764957  0.9470085
  2                   5              2300     0.7944116  0.2893162  0.9452991
  2                   5              2400     0.7948773  0.2972222  0.9444444
  2                   5              2500     0.7950088  0.3025641  0.9444444
  2                   5              2600     0.7952279  0.3076923  0.9418803
  2                   5              2700     0.7957046  0.3128205  0.9418803
  2                   5              2800     0.7955731  0.3179487  0.9410256
  2                   5              2900     0.7960388  0.3256410  0.9393162
  2                   5              3000     0.7958416  0.3309829  0.9367521
  2                   5              3100     0.7957813  0.3335470  0.9367521
  2                   5              3200     0.7954416  0.3361111  0.9367521
  2                   5              3300     0.7954252  0.3414530  0.9358974
  2                   5              3400     0.7959566  0.3467949  0.9358974
  2                   5              3500     0.7964278  0.3442308  0.9350427
  2                   5              3600     0.7964826  0.3596154  0.9341880
  2                   5              3700     0.7960881  0.3647436  0.9341880
  2                   5              3800     0.7956224  0.3700855  0.9333333
  2                   5              3900     0.7957594  0.3752137  0.9324786
  2                   5              4000     0.7955895  0.3752137  0.9299145
  2                   5              4100     0.7954471  0.3752137  0.9299145
  2                   5              4200     0.7951129  0.3777778  0.9282051
  2                   5              4300     0.7948389  0.3803419  0.9282051
  2                   5              4400     0.7950307  0.3803419  0.9282051
  2                   5              4500     0.7949595  0.3803419  0.9273504
  2                   5              4600     0.7944061  0.3829060  0.9273504
  2                   5              4700     0.7939404  0.3882479  0.9256410
  2                   5              4800     0.7936829  0.3933761  0.9247863
  2                   5              4900     0.7936884  0.3908120  0.9247863
  2                   5              5000     0.7936226  0.3882479  0.9239316
  2                  10              2000     0.7918119  0.2711538  0.9504274
  2                  10              2100     0.7924995  0.2816239  0.9495726
  2                  10              2200     0.7927076  0.2948718  0.9495726
  2                  10              2300     0.7937541  0.3051282  0.9487179
  2                  10              2400     0.7940171  0.3076923  0.9444444
  2                  10              2500     0.7944335  0.3128205  0.9435897
  2                  10              2600     0.7946198  0.3179487  0.9410256
  2                  10              2700     0.7952827  0.3230769  0.9410256
  2                  10              2800     0.7956169  0.3284188  0.9401709
  2                  10              2900     0.7954799  0.3414530  0.9393162
  2                  10              3000     0.7957375  0.3465812  0.9393162
  2                  10              3100     0.7960059  0.3491453  0.9393162
  2                  10              3200     0.7954197  0.3594017  0.9358974
  2                  10              3300     0.7953539  0.3619658  0.9358974
  2                  10              3400     0.7949540  0.3645299  0.9358974
  2                  10              3500     0.7956334  0.3698718  0.9350427
  2                  10              3600     0.7955402  0.3724359  0.9341880
  2                  10              3700     0.7954745  0.3752137  0.9333333
  2                  10              3800     0.7950745  0.3752137  0.9316239
  2                  10              3900     0.7946691  0.3752137  0.9299145
  2                  10              4000     0.7948060  0.3752137  0.9273504
  2                  10              4100     0.7947458  0.3726496  0.9273504
  2                  10              4200     0.7950636  0.3807692  0.9273504
  2                  10              4300     0.7951457  0.3833333  0.9273504
  2                  10              4400     0.7951293  0.3805556  0.9273504
  2                  10              4500     0.7956662  0.3779915  0.9273504
  2                  10              4600     0.7952718  0.3779915  0.9273504
  2                  10              4700     0.7951348  0.3805556  0.9264957
  2                  10              4800     0.7952060  0.3856838  0.9264957
  2                  10              4900     0.7948773  0.3910256  0.9264957
  2                  10              5000     0.7944938  0.3910256  0.9264957

Tuning parameter 'shrinkage' was held constant at a value of 0.001
ROC was used to select the optimal model using  the largest value.
The final values used for the model were n.trees = 3600, interaction.depth = 2, shrinkage =
 0.001 and n.minobsinnode = 5. 
