c<A>r<392>R<THR> 1
c<A>r<398>R<ASN> 1
c<A>r<494>R<PRO> 1
c<A>r<495>R<LEU> 1
c<A>r<496>R<LYS> 1
c<A>r<527>R<VAL> 1.33333
c<A>r<528>R<SER> 1.2
c<A>r<529>R<ILE> 1.33333
c<A>r<530>R<VAL> 1.75
c<A>r<531>R<PRO> 2
c<A>r<532>R<SER> 1
c<A>r<533>R<THR> 1.25
c<A>r<535>R<TRP> 1.38462
c<A>r<536>R<GLU> 1.5
c<A>r<537>R<ASP> 1
c<A>r<538>R<GLY> 1
c<A>r<539>R<ASP> 1.6
c<A>r<540>R<TYR> 1.33333
c<A>r<541>R<TYR> 1.5
c<A>r<542>R<ARG> 1.33333
c<A>r<543>R<LYS> 1
c<A>r<553>R<TRP> 1
