c<C>r<5>a<1797>R<LEU>A<C> 3
c<C>r<5>a<1798>R<LEU>A<O> 2
c<C>r<5>a<1799>R<LEU>A<CB> 2
c<C>r<5>a<1800>R<LEU>A<CG> 2
c<C>r<5>a<1801>R<LEU>A<CD1> 2
c<C>r<5>a<1802>R<LEU>A<CD2> 1
c<C>r<6>a<1807>R<ARG>A<CB> 2
c<C>r<6>a<1808>R<ARG>A<CG> 2
c<C>r<6>a<1809>R<ARG>A<CD> 1
c<C>r<6>a<1810>R<ARG>A<NE> 2
c<C>r<6>a<1811>R<ARG>A<CZ> 2
c<C>r<6>a<1812>R<ARG>A<NH1> 2
c<C>r<6>a<1813>R<ARG>A<NH2> 1
c<C>r<7>a<1814>R<GLN>A<N> 1
c<C>r<7>a<1817>R<GLN>A<O> 1
c<C>r<7>a<1820>R<GLN>A<CD> 2
c<C>r<7>a<1821>R<GLN>A<OE1> 1
c<C>r<7>a<1822>R<GLN>A<NE2> 1
c<C>r<8>a<1826>R<ALA>A<O> 1
c<C>r<9>a<1830>R<LYS>A<C> 2
c<C>r<9>a<1831>R<LYS>A<O> 1
c<C>r<9>a<1832>R<LYS>A<CB> 1
c<C>r<9>a<1833>R<LYS>A<CG> 1
c<C>r<9>a<1834>R<LYS>A<CD> 1
c<C>r<9>a<1835>R<LYS>A<CE> 1
c<C>r<10>a<1837>R<ASN>A<N> 1
c<C>r<10>a<1838>R<ASN>A<CA> 1
c<C>r<10>a<1839>R<ASN>A<C> 2
c<C>r<10>a<1840>R<ASN>A<O> 1
c<C>r<10>a<1841>R<ASN>A<CB> 1
c<C>r<10>a<1842>R<ASN>A<CG> 2
c<C>r<10>a<1844>R<ASN>A<ND2> 1
c<C>r<11>a<1845>R<GLY>A<N> 2
c<C>r<11>a<1846>R<GLY>A<CA> 2
c<C>r<11>a<1847>R<GLY>A<C> 2
c<C>r<11>a<1848>R<GLY>A<O> 1
c<C>r<12>a<1854>R<ARG>A<CG> 2
c<C>r<12>a<1855>R<ARG>A<CD> 1
c<C>r<12>a<1856>R<ARG>A<NE> 2
c<C>r<12>a<1857>R<ARG>A<CZ> 2
c<C>r<12>a<1858>R<ARG>A<NH1> 1
c<C>r<12>a<1859>R<ARG>A<NH2> 1
c<C>r<14>a<1873>R<GLN>A<OE1> 1
c<C>r<15>a<1875>R<VAL>A<N> 1
c<C>r<15>a<1876>R<VAL>A<CA> 1
c<C>r<15>a<1877>R<VAL>A<C> 2
c<C>r<15>a<1879>R<VAL>A<CB> 2
c<C>r<15>a<1880>R<VAL>A<CG1> 1
c<C>r<15>a<1881>R<VAL>A<CG2> 1
c<C>r<16>a<1882>R<LEU>A<N> 1
c<C>r<16>a<1884>R<LEU>A<C> 2
c<C>r<16>a<1885>R<LEU>A<O> 2
c<C>r<16>a<1886>R<LEU>A<CB> 1
c<C>r<16>a<1887>R<LEU>A<CG> 2
c<C>r<16>a<1889>R<LEU>A<CD2> 2
c<C>r<17>a<1890>R<TYR>A<N> 3
c<C>r<17>a<1891>R<TYR>A<CA> 3
c<C>r<17>a<1892>R<TYR>A<C> 2
c<C>r<17>a<1893>R<TYR>A<O> 2
c<C>r<17>a<1894>R<TYR>A<CB> 2
c<C>r<17>a<1896>R<TYR>A<CD1> 2
c<C>r<17>a<1898>R<TYR>A<CE1> 1
c<C>r<17>a<1900>R<TYR>A<CZ> 1
c<C>r<17>a<1901>R<TYR>A<OH> 1
c<C>r<18>a<1902>R<LYS>A<N> 2
c<C>r<18>a<1903>R<LYS>A<CA> 2
c<C>r<18>a<1904>R<LYS>A<C> 2
c<C>r<18>a<1906>R<LYS>A<CB> 2
c<C>r<18>a<1907>R<LYS>A<CG> 1
c<C>r<18>a<1909>R<LYS>A<CE> 1
c<C>r<18>a<1910>R<LYS>A<NZ> 1
c<C>r<19>a<1911>R<THR>A<N> 1
c<C>r<19>a<1916>R<THR>A<OG1> 1
c<C>r<19>a<1917>R<THR>A<CG2> 1
c<C>r<31>a<2003>R<ARG>A<CD> 1
c<C>r<31>a<2004>R<ARG>A<NE> 1
c<C>r<31>a<2005>R<ARG>A<CZ> 2
c<C>r<31>a<2007>R<ARG>A<NH2> 1
c<C>r<33>a<2020>R<SER>A<CB> 2
c<C>r<33>a<2021>R<SER>A<OG> 1
c<C>r<43>a<2094>R<ASP>A<CA> 2
c<C>r<43>a<2096>R<ASP>A<O> 1
c<C>r<43>a<2097>R<ASP>A<CB> 1
c<C>r<43>a<2098>R<ASP>A<CG> 2
c<C>r<43>a<2099>R<ASP>A<OD1> 1
c<C>r<43>a<2100>R<ASP>A<OD2> 1
c<C>r<44>a<2102>R<ASN>A<CA> 2
c<C>r<44>a<2104>R<ASN>A<O> 2
c<C>r<44>a<2105>R<ASN>A<CB> 2
c<C>r<44>a<2106>R<ASN>A<CG> 2
c<C>r<44>a<2107>R<ASN>A<OD1> 1
c<C>r<44>a<2108>R<ASN>A<ND2> 1
c<C>r<46>a<2120>R<LEU>A<CB> 2
c<C>r<46>a<2123>R<LEU>A<CD2> 1
c<C>r<47>a<2126>R<PHE>A<C> 3
c<C>r<47>a<2127>R<PHE>A<O> 2
c<C>r<47>a<2128>R<PHE>A<CB> 2
c<C>r<47>a<2129>R<PHE>A<CG> 2
c<C>r<47>a<2130>R<PHE>A<CD1> 1
c<C>r<47>a<2131>R<PHE>A<CD2> 2
c<C>r<47>a<2132>R<PHE>A<CE1> 1
c<C>r<47>a<2133>R<PHE>A<CE2> 1
c<C>r<47>a<2134>R<PHE>A<CZ> 1
c<C>r<48>a<2135>R<LYS>A<N> 3
c<C>r<48>a<2136>R<LYS>A<CA> 3
c<C>r<48>a<2138>R<LYS>A<O> 2
c<C>r<48>a<2139>R<LYS>A<CB> 3
c<C>r<48>a<2140>R<LYS>A<CG> 2
c<C>r<48>a<2141>R<LYS>A<CD> 2
c<C>r<48>a<2142>R<LYS>A<CE> 1
c<C>r<48>a<2143>R<LYS>A<NZ> 1
c<C>r<49>a<2153>R<TRP>A<CE2> 2
c<C>r<49>a<2155>R<TRP>A<CZ2> 1
c<C>r<49>a<2156>R<TRP>A<CZ3> 1
c<C>r<49>a<2157>R<TRP>A<CH2> 1
c<C>r<50>a<2164>R<MET>A<SD> 1
c<C>r<50>a<2165>R<MET>A<CE> 1
c<C>r<51>a<2169>R<ILE>A<O> 1
c<C>r<51>a<2171>R<ILE>A<CG1> 1
c<C>r<51>a<2172>R<ILE>A<CG2> 1
c<C>r<51>a<2173>R<ILE>A<CD1> 1
c<C>r<52>a<2175>R<PHE>A<CA> 1
c<C>r<52>a<2177>R<PHE>A<O> 1
c<C>r<52>a<2178>R<PHE>A<CB> 2
c<C>r<52>a<2179>R<PHE>A<CG> 2
c<C>r<52>a<2180>R<PHE>A<CD1> 2
c<C>r<52>a<2181>R<PHE>A<CD2> 2
c<C>r<52>a<2182>R<PHE>A<CE1> 2
c<C>r<52>a<2183>R<PHE>A<CE2> 2
c<C>r<52>a<2184>R<PHE>A<CZ> 1
c<C>r<53>a<2188>R<ASN>A<O> 1
c<C>r<53>a<2190>R<ASN>A<CG> 2
c<C>r<53>a<2191>R<ASN>A<OD1> 1
c<C>r<53>a<2192>R<ASN>A<ND2> 2
c<C>r<56>a<2204>R<ALA>A<O> 2
c<C>r<57>a<2207>R<PRO>A<CA> 2
c<C>r<57>a<2210>R<PRO>A<CB> 2
c<C>r<57>a<2211>R<PRO>A<CG> 1
c<C>r<58>a<2213>R<ASN>A<N> 2
c<C>r<58>a<2214>R<ASN>A<CA> 1
c<C>r<58>a<2218>R<ASN>A<CG> 1
c<C>r<58>a<2219>R<ASN>A<OD1> 1
c<C>r<58>a<2220>R<ASN>A<ND2> 1
c<C>r<59>a<2221>R<CYS>A<N> 1
c<C>r<82>a<2392>R<LYS>A<CB> 1
c<C>r<84>a<2408>R<LYS>A<CE> 1
c<C>r<84>a<2409>R<LYS>A<NZ> 1
c<C>r<86>a<2425>R<ARG>A<CZ> 1
c<C>r<86>a<2427>R<ARG>A<NH2> 1
c<C>r<105>a<2555>R<LEU>A<C> 1
c<C>r<105>a<2556>R<LEU>A<O> 1
c<C>r<105>a<2559>R<LEU>A<CD1> 1
c<C>r<105>a<2560>R<LEU>A<CD2> 1
c<C>r<106>a<2561>R<ASP>A<N> 1
c<C>r<106>a<2562>R<ASP>A<CA> 1
c<C>r<106>a<2563>R<ASP>A<C> 2
c<C>r<106>a<2564>R<ASP>A<O> 1
c<C>r<106>a<2565>R<ASP>A<CB> 1
c<C>r<120>a<2679>R<ARG>A<NH1> 1
c<C>r<120>a<2680>R<ARG>A<NH2> 2
c<C>r<123>a<2699>R<GLU>A<O> 1
c<C>r<124>a<2706>R<GLN>A<CG> 1
c<C>r<124>a<2707>R<GLN>A<CD> 1
c<C>r<124>a<2708>R<GLN>A<OE1> 1
c<C>r<124>a<2709>R<GLN>A<NE2> 1
c<C>r<125>a<2712>R<PRO>A<C> 2
c<C>r<125>a<2713>R<PRO>A<O> 1
c<C>r<125>a<2714>R<PRO>A<CB> 1
c<C>r<125>a<2715>R<PRO>A<CG> 1
c<C>r<126>a<2721>R<GLU>A<CB> 1
c<C>r<126>a<2722>R<GLU>A<CG> 1
c<C>r<126>a<2723>R<GLU>A<CD> 2
c<C>r<126>a<2724>R<GLU>A<OE1> 1
c<C>r<126>a<2725>R<GLU>A<OE2> 1
c<C>r<151>a<2915>R<VAL>A<CB> 2
c<C>r<151>a<2916>R<VAL>A<CG1> 1
c<C>r<151>a<2917>R<VAL>A<CG2> 1
c<C>r<152>a<2918>R<VAL>A<N> 2
c<C>r<152>a<2920>R<VAL>A<C> 2
c<C>r<152>a<2921>R<VAL>A<O> 2
c<C>r<153>a<2925>R<ASP>A<N> 2
c<C>r<153>a<2926>R<ASP>A<CA> 2
c<C>r<153>a<2927>R<ASP>A<C> 1
c<C>r<153>a<2929>R<ASP>A<CB> 2
c<C>r<153>a<2932>R<ASP>A<OD2> 1
c<C>r<154>a<2933>R<GLN>A<N> 2
c<C>r<154>a<2934>R<GLN>A<CA> 1
c<C>r<154>a<2937>R<GLN>A<CB> 1
c<C>r<154>a<2938>R<GLN>A<CG> 1
c<C>r<154>a<2939>R<GLN>A<CD> 2
c<C>r<154>a<2940>R<GLN>A<OE1> 2
c<C>r<154>a<2941>R<GLN>A<NE2> 1
c<C>r<157>a<2964>R<ASN>A<ND2> 1
c<C>r<159>a<2974>R<TYR>A<CB> 2
c<C>r<159>a<2975>R<TYR>A<CG> 2
c<C>r<159>a<2976>R<TYR>A<CD1> 1
c<C>r<159>a<2977>R<TYR>A<CD2> 2
c<C>r<159>a<2978>R<TYR>A<CE1> 1
c<C>r<159>a<2979>R<TYR>A<CE2> 2
c<C>r<159>a<2980>R<TYR>A<CZ> 2
c<C>r<159>a<2981>R<TYR>A<OH> 1
c<C>r<160>a<2985>R<CYS>A<O> 1
c<C>r<161>a<2992>R<VAL>A<CB> 1
c<C>r<161>a<2993>R<VAL>A<CG1> 1
c<C>r<161>a<2994>R<VAL>A<CG2> 1
c<C>r<162>a<2995>R<THR>A<N> 1
c<C>r<162>a<2998>R<THR>A<O> 1
c<C>r<162>a<2999>R<THR>A<CB> 1
c<C>r<162>a<3000>R<THR>A<OG1> 1
c<C>r<162>a<3001>R<THR>A<CG2> 1
c<C>r<163>a<3005>R<CYS>A<O> 1
c<C>r<164>a<3008>R<ASN>A<N> 1
c<C>r<164>a<3009>R<ASN>A<CA> 1
c<C>r<164>a<3012>R<ASN>A<CB> 1
c<C>r<164>a<3015>R<ASN>A<ND2> 1
c<C>r<175>a<3058>R<GLN>A<OE1> 1
c<C>r<177>a<3078>R<LEU>A<CD1> 1
c<C>r<188>a<3149>R<ALA>A<CA> 2
c<C>r<188>a<3151>R<ALA>A<O> 2
c<C>r<188>a<3152>R<ALA>A<CB> 1
c<C>r<189>a<3153>R<CYS>A<N> 1
c<C>r<189>a<3154>R<CYS>A<CA> 1
c<C>r<189>a<3157>R<CYS>A<CB> 1
c<C>r<191>a<3173>R<LEU>A<CB> 2
c<C>r<191>a<3174>R<LEU>A<CG> 1
c<C>r<191>a<3176>R<LEU>A<CD2> 2
c<C>r<192>a<3178>R<ARG>A<CA> 1
c<C>r<192>a<3180>R<ARG>A<O> 1
c<C>r<192>a<3181>R<ARG>A<CB> 1
c<C>r<192>a<3182>R<ARG>A<CG> 1
c<C>r<192>a<3183>R<ARG>A<CD> 1
c<C>r<192>a<3184>R<ARG>A<NE> 2
c<C>r<192>a<3185>R<ARG>A<CZ> 2
c<C>r<192>a<3186>R<ARG>A<NH1> 1
c<C>r<192>a<3187>R<ARG>A<NH2> 1
c<C>r<195>a<3204>R<THR>A<C> 2
c<C>r<195>a<3205>R<THR>A<O> 2
c<C>r<195>a<3206>R<THR>A<CB> 2
c<C>r<195>a<3207>R<THR>A<OG1> 1
c<C>r<195>a<3208>R<THR>A<CG2> 2
c<C>r<196>a<3209>R<CYS>A<N> 1
c<C>r<196>a<3210>R<CYS>A<CA> 1
c<C>r<196>a<3213>R<CYS>A<CB> 1
c<C>r<196>a<3214>R<CYS>A<SG> 1
c<C>r<199>a<3233>R<GLY>A<C> 2
c<C>r<199>a<3234>R<GLY>A<O> 3
c<C>r<200>a<3235>R<ARG>A<N> 2
c<C>r<200>a<3236>R<ARG>A<CA> 3
c<C>r<200>a<3237>R<ARG>A<C> 3
c<C>r<200>a<3238>R<ARG>A<O> 3
c<C>r<201>a<3246>R<SER>A<N> 2
c<C>r<201>a<3247>R<SER>A<CA> 2
c<C>r<201>a<3250>R<SER>A<CB> 1
c<C>r<201>a<3251>R<SER>A<OG> 1
c<C>r<202>a<3252>R<ILE>A<N> 2
c<C>r<203>a<3260>R<GLY>A<N> 2
c<C>r<203>a<3261>R<GLY>A<CA> 1
c<C>r<203>a<3262>R<GLY>A<C> 2
c<C>r<204>a<3264>R<LEU>A<N> 1
c<C>r<204>a<3267>R<LEU>A<O> 1
c<C>r<204>a<3268>R<LEU>A<CB> 1
c<C>r<204>a<3270>R<LEU>A<CD1> 2
c<C>r<204>a<3271>R<LEU>A<CD2> 1
c<C>r<223>a<3405>R<GLY>A<C> 1
c<C>r<223>a<3406>R<GLY>A<O> 1
c<C>r<224>a<3407>R<GLY>A<N> 1
c<C>r<224>a<3408>R<GLY>A<CA> 1
c<C>r<224>a<3409>R<GLY>A<C> 2
c<C>r<224>a<3410>R<GLY>A<O> 1
c<C>r<237>a<3520>R<ARG>A<NH1> 1
c<C>r<239>a<3529>R<SER>A<CA> 1
c<C>r<239>a<3532>R<SER>A<CB> 1
c<C>r<239>a<3533>R<SER>A<OG> 1
c<C>r<240>a<3537>R<LEU>A<O> 1
c<C>r<240>a<3538>R<LEU>A<CB> 1
c<C>r<240>a<3540>R<LEU>A<CD1> 1
c<C>r<240>a<3541>R<LEU>A<CD2> 1
c<C>r<242>a<3551>R<ASP>A<O> 1
c<C>r<242>a<3552>R<ASP>A<CB> 1
c<C>r<242>a<3553>R<ASP>A<CG> 2
c<C>r<242>a<3554>R<ASP>A<OD1> 1
c<C>r<242>a<3555>R<ASP>A<OD2> 1
c<C>r<243>a<3557>R<GLU>A<CA> 2
c<C>r<243>a<3560>R<GLU>A<CB> 1
c<C>r<244>a<3561>R<LEU>A<N> 2
c<C>r<244>a<3564>R<LEU>A<O> 1
c<C>r<244>a<3565>R<LEU>A<CB> 1
c<C>r<244>a<3566>R<LEU>A<CG> 1
c<C>r<244>a<3567>R<LEU>A<CD1> 1
c<C>r<245>a<3571>R<CYS>A<C> 1
c<C>r<245>a<3572>R<CYS>A<O> 1
c<C>r<269>a<3708>R<LYS>A<CE> 1
c<C>r<269>a<3709>R<LYS>A<NZ> 1
c<C>r<290>a<5883>R<CIT>A<O1> 1
c<C>r<290>a<5885>R<CIT>A<C2> 1
c<C>r<290>a<5888>R<CIT>A<C4> 1
c<C>r<291>a<5895>R<CIT>A<C1> 1
c<C>r<291>a<5896>R<CIT>A<O1> 1
c<C>r<291>a<5897>R<CIT>A<O2> 1
c<C>r<291>a<5898>R<CIT>A<C2> 1
c<C>r<291>a<5900>R<CIT>A<O7> 2
c<C>r<291>a<5901>R<CIT>A<C4> 1
c<C>r<291>a<5902>R<CIT>A<C5> 1
c<C>r<291>a<5904>R<CIT>A<O4> 1
c<C>r<291>a<5907>R<CIT>A<O6> 2
