c<E>r<30>a<4958>R<GLU>A<CB> 1
c<E>r<30>a<4959>R<GLU>A<CG> 1
c<E>r<30>a<4960>R<GLU>A<CD> 2
c<E>r<30>a<4961>R<GLU>A<OE1> 1
c<E>r<30>a<4962>R<GLU>A<OE2> 1
c<E>r<31>a<4967>R<TYR>A<CB> 1
c<E>r<31>a<4970>R<TYR>A<CD2> 1
c<E>r<31>a<4972>R<TYR>A<CE2> 1
c<E>r<31>a<4974>R<TYR>A<OH> 1
c<E>r<35>a<5008>R<TYR>A<CG> 2
c<E>r<35>a<5010>R<TYR>A<CD2> 2
c<E>r<35>a<5012>R<TYR>A<CE2> 2
c<E>r<35>a<5013>R<TYR>A<CZ> 2
c<E>r<35>a<5014>R<TYR>A<OH> 1
c<E>r<37>a<5032>R<GLN>A<CD> 1
c<E>r<37>a<5033>R<GLN>A<OE1> 1
c<E>r<37>a<5034>R<GLN>A<NE2> 1
c<E>r<40>a<5053>R<GLY>A<O> 1
c<E>r<41>a<5055>R<MET>A<CA> 2
c<E>r<41>a<5056>R<MET>A<C> 2
c<E>r<41>a<5057>R<MET>A<O> 1
c<E>r<41>a<5061>R<MET>A<CE> 1
c<E>r<42>a<5062>R<GLY>A<N> 1
c<E>r<42>a<5063>R<GLY>A<CA> 1
c<E>r<42>a<5064>R<GLY>A<C> 2
c<E>r<43>a<5066>R<LEU>A<N> 2
c<E>r<43>a<5068>R<LEU>A<C> 2
c<E>r<43>a<5069>R<LEU>A<O> 1
c<E>r<43>a<5070>R<LEU>A<CB> 2
c<E>r<43>a<5071>R<LEU>A<CG> 2
c<E>r<43>a<5072>R<LEU>A<CD1> 1
c<E>r<43>a<5073>R<LEU>A<CD2> 2
c<E>r<44>a<5075>R<ARG>A<CA> 1
c<E>r<44>a<5080>R<ARG>A<CD> 1
c<E>r<45>a<5085>R<LEU>A<N> 1
c<E>r<45>a<5089>R<LEU>A<CB> 1
c<E>r<45>a<5091>R<LEU>A<CD1> 2
c<E>r<45>a<5092>R<LEU>A<CD2> 1
c<E>r<48>a<5116>R<TYR>A<CG> 2
c<E>r<48>a<5117>R<TYR>A<CD1> 2
c<E>r<48>a<5118>R<TYR>A<CD2> 2
c<E>r<48>a<5119>R<TYR>A<CE1> 2
c<E>r<48>a<5120>R<TYR>A<CE2> 2
c<E>r<48>a<5121>R<TYR>A<CZ> 2
c<E>r<48>a<5122>R<TYR>A<OH> 1
c<E>r<50>a<5130>R<ILE>A<CA> 2
c<E>r<50>a<5132>R<ILE>A<O> 1
c<E>r<50>a<5133>R<ILE>A<CB> 2
c<E>r<50>a<5134>R<ILE>A<CG1> 1
c<E>r<50>a<5135>R<ILE>A<CG2> 1
c<E>r<50>a<5136>R<ILE>A<CD1> 2
c<E>r<51>a<5141>R<HIS>A<CB> 2
c<E>r<51>a<5142>R<HIS>A<CG> 2
c<E>r<51>a<5143>R<HIS>A<ND1> 1
c<E>r<51>a<5144>R<HIS>A<CD2> 1
c<E>r<51>a<5145>R<HIS>A<CE1> 1
c<E>r<51>a<5146>R<HIS>A<NE2> 1
c<E>r<54>a<5167>R<TYR>A<CB> 1
c<E>r<54>a<5168>R<TYR>A<CG> 2
c<E>r<54>a<5169>R<TYR>A<CD1> 1
c<E>r<54>a<5170>R<TYR>A<CD2> 2
c<E>r<54>a<5171>R<TYR>A<CE1> 1
c<E>r<54>a<5172>R<TYR>A<CE2> 1
c<E>r<54>a<5173>R<TYR>A<CZ> 2
c<E>r<54>a<5174>R<TYR>A<OH> 1
c<E>r<56>a<5187>R<ASP>A<CG> 2
c<E>r<56>a<5188>R<ASP>A<OD1> 1
c<E>r<56>a<5189>R<ASP>A<OD2> 1
c<E>r<57>a<5193>R<GLN>A<O> 1
c<E>r<58>a<5200>R<GLY>A<CA> 2
c<E>r<58>a<5201>R<GLY>A<C> 1
c<E>r<58>a<5202>R<GLY>A<O> 1
c<E>r<90>a<5447>R<PHE>A<CG> 2
c<E>r<90>a<5448>R<PHE>A<CD1> 2
c<E>r<90>a<5449>R<PHE>A<CD2> 2
c<E>r<90>a<5450>R<PHE>A<CE1> 1
c<E>r<90>a<5451>R<PHE>A<CE2> 1
c<E>r<90>a<5452>R<PHE>A<CZ> 1
c<E>r<95>a<5479>R<TYR>A<O> 1
c<E>r<95>a<5480>R<TYR>A<CB> 1
c<E>r<95>a<5483>R<TYR>A<CD2> 1
c<E>r<95>a<5485>R<TYR>A<CE2> 1
c<E>r<95>a<5486>R<TYR>A<CZ> 1
c<E>r<95>a<5487>R<TYR>A<OH> 1
c<E>r<96>a<5488>R<GLN>A<N> 2
c<E>r<96>a<5489>R<GLN>A<CA> 2
c<E>r<96>a<5490>R<GLN>A<C> 2
c<E>r<96>a<5491>R<GLN>A<O> 2
c<E>r<96>a<5492>R<GLN>A<CB> 3
c<E>r<96>a<5493>R<GLN>A<CG> 2
c<E>r<96>a<5494>R<GLN>A<CD> 2
c<E>r<96>a<5495>R<GLN>A<OE1> 3
c<E>r<96>a<5496>R<GLN>A<NE2> 2
c<E>r<97>a<5497>R<GLY>A<N> 1
c<E>r<97>a<5498>R<GLY>A<CA> 1
c<E>r<97>a<5499>R<GLY>A<C> 1
c<E>r<98>a<5501>R<THR>A<N> 2
c<E>r<98>a<5502>R<THR>A<CA> 2
c<E>r<98>a<5503>R<THR>A<C> 2
c<E>r<98>a<5504>R<THR>A<O> 1
c<E>r<98>a<5505>R<THR>A<CB> 2
c<E>r<98>a<5506>R<THR>A<OG1> 2
c<E>r<98>a<5507>R<THR>A<CG2> 1
c<E>r<99>a<5508>R<GLU>A<N> 2
c<E>r<99>a<5509>R<GLU>A<CA> 2
c<E>r<99>a<5512>R<GLU>A<CB> 1
c<E>r<99>a<5513>R<GLU>A<CG> 2
c<E>r<99>a<5514>R<GLU>A<CD> 2
c<E>r<99>a<5515>R<GLU>A<OE1> 1
c<E>r<99>a<5516>R<GLU>A<OE2> 1
c<E>r<100>a<5517>R<ALA>A<N> 2
c<E>r<100>a<5520>R<ALA>A<O> 2
c<E>r<100>a<5521>R<ALA>A<CB> 1
c<E>r<101>a<5523>R<PHE>A<CA> 1
c<E>r<101>a<5527>R<PHE>A<CG> 2
c<E>r<101>a<5528>R<PHE>A<CD1> 2
c<E>r<101>a<5529>R<PHE>A<CD2> 1
c<E>r<101>a<5530>R<PHE>A<CE1> 2
c<E>r<101>a<5531>R<PHE>A<CE2> 1
c<E>r<101>a<5532>R<PHE>A<CZ> 2
c<E>r<102>a<5533>R<PHE>A<N> 1
c<E>r<102>a<5536>R<PHE>A<O> 1
c<E>r<102>a<5537>R<PHE>A<CB> 1
c<E>r<102>a<5538>R<PHE>A<CG> 2
c<E>r<102>a<5539>R<PHE>A<CD1> 2
c<E>r<102>a<5540>R<PHE>A<CD2> 2
c<E>r<102>a<5541>R<PHE>A<CE1> 2
c<E>r<102>a<5542>R<PHE>A<CE2> 2
c<E>r<102>a<5543>R<PHE>A<CZ> 1
c<E>r<103>a<5547>R<GLY>A<O> 1
c<E>r<104>a<5549>R<GLN>A<CA> 1
c<E>r<104>a<5551>R<GLN>A<O> 1
c<E>r<104>a<5552>R<GLN>A<CB> 1
c<E>r<104>a<5556>R<GLN>A<NE2> 1
c<E>r<107>a<5574>R<ARG>A<CD> 1
c<E>r<107>a<5575>R<ARG>A<NE> 1
c<E>r<123>a<5699>R<ALA>A<CA> 1
c<E>r<123>a<5702>R<ALA>A<CB> 1
c<E>r<124>a<5703>R<VAL>A<N> 1
c<E>r<124>a<5705>R<VAL>A<C> 2
c<E>r<124>a<5706>R<VAL>A<O> 2
c<E>r<124>a<5707>R<VAL>A<CB> 2
c<E>r<124>a<5708>R<VAL>A<CG1> 2
c<E>r<125>a<5711>R<PHE>A<CA> 3
c<E>r<125>a<5712>R<PHE>A<C> 2
c<E>r<125>a<5713>R<PHE>A<O> 2
c<E>r<125>a<5714>R<PHE>A<CB> 3
c<E>r<125>a<5715>R<PHE>A<CG> 3
c<E>r<125>a<5716>R<PHE>A<CD1> 2
c<E>r<125>a<5717>R<PHE>A<CD2> 3
c<E>r<125>a<5718>R<PHE>A<CE1> 2
c<E>r<125>a<5719>R<PHE>A<CE2> 2
c<E>r<125>a<5720>R<PHE>A<CZ> 1
c<E>r<126>a<5721>R<GLU>A<N> 2
c<E>r<126>a<5723>R<GLU>A<C> 2
c<E>r<126>a<5724>R<GLU>A<O> 1
c<E>r<126>a<5725>R<GLU>A<CB> 1
c<E>r<126>a<5726>R<GLU>A<CG> 2
c<E>r<126>a<5727>R<GLU>A<CD> 1
c<E>r<126>a<5728>R<GLU>A<OE1> 1
c<E>r<126>a<5729>R<GLU>A<OE2> 1
c<E>r<127>a<5730>R<PRO>A<N> 2
c<E>r<127>a<5731>R<PRO>A<CA> 2
c<E>r<127>a<5732>R<PRO>A<C> 2
c<E>r<127>a<5733>R<PRO>A<O> 1
c<E>r<128>a<5737>R<SER>A<N> 1
c<E>r<128>a<5738>R<SER>A<CA> 1
c<E>r<128>a<5741>R<SER>A<CB> 1
c<E>r<128>a<5742>R<SER>A<OG> 1
c<E>r<130>a<5754>R<ALA>A<C> 2
c<E>r<130>a<5755>R<ALA>A<O> 1
c<E>r<130>a<5756>R<ALA>A<CB> 1
c<E>r<131>a<5757>R<GLU>A<N> 2
c<E>r<131>a<5758>R<GLU>A<CA> 2
c<E>r<131>a<5761>R<GLU>A<CB> 2
c<E>r<131>a<5762>R<GLU>A<CG> 1
c<E>r<131>a<5763>R<GLU>A<CD> 2
c<E>r<131>a<5764>R<GLU>A<OE1> 1
c<E>r<131>a<5765>R<GLU>A<OE2> 2
c<E>r<134>a<5783>R<HIS>A<O> 1
c<E>r<134>a<5784>R<HIS>A<CB> 2
c<E>r<134>a<5785>R<HIS>A<CG> 2
c<E>r<134>a<5786>R<HIS>A<ND1> 1
c<E>r<134>a<5787>R<HIS>A<CD2> 1
c<E>r<134>a<5788>R<HIS>A<CE1> 1
c<E>r<134>a<5789>R<HIS>A<NE2> 1
c<E>r<135>a<5795>R<THR>A<OG1> 1
c<E>r<135>a<5796>R<THR>A<CG2> 1
c<E>r<137>a<5811>R<LYS>A<CG> 1
c<E>r<137>a<5812>R<LYS>A<CD> 2
c<E>r<137>a<5813>R<LYS>A<CE> 1
c<E>r<137>a<5814>R<LYS>A<NZ> 1
c<E>r<139>a<5823>R<THR>A<O> 2
c<E>r<139>a<5825>R<THR>A<OG1> 1
c<E>r<139>a<5826>R<THR>A<CG2> 1
c<E>r<140>a<5828>R<LEU>A<CA> 3
c<E>r<140>a<5829>R<LEU>A<C> 2
c<E>r<141>a<5835>R<VAL>A<N> 2
c<E>r<141>a<5839>R<VAL>A<CB> 2
c<E>r<141>a<5840>R<VAL>A<CG1> 2
c<E>r<141>a<5841>R<VAL>A<CG2> 1
c<E>r<143>a<5852>R<LEU>A<CB> 2
c<E>r<143>a<5853>R<LEU>A<CG> 2
c<E>r<143>a<5854>R<LEU>A<CD1> 2
c<E>r<143>a<5855>R<LEU>A<CD2> 1
c<E>r<145>a<5867>R<THR>A<CG2> 1
c<E>r<153>a<5932>R<GLU>A<CG> 1
c<E>r<153>a<5935>R<GLU>A<OE2> 1
c<E>r<164>a<6024>R<HIS>A<C> 1
c<E>r<164>a<6025>R<HIS>A<O> 1
c<E>r<164>a<6026>R<HIS>A<CB> 1
c<E>r<165>a<6032>R<SER>A<N> 1
c<E>r<165>a<6033>R<SER>A<CA> 1
c<E>r<165>a<6036>R<SER>A<CB> 1
c<E>r<165>a<6037>R<SER>A<OG> 1
c<E>r<166>a<6038>R<GLY>A<N> 2
c<E>r<166>a<6039>R<GLY>A<CA> 1
c<E>r<166>a<6040>R<GLY>A<C> 2
c<E>r<166>a<6041>R<GLY>A<O> 2
c<E>r<167>a<6042>R<VAL>A<N> 2
c<E>r<167>a<6044>R<VAL>A<C> 2
c<E>r<167>a<6045>R<VAL>A<O> 1
c<E>r<168>a<6049>R<CYS>A<N> 2
c<E>r<168>a<6050>R<CYS>A<CA> 1
c<E>r<168>a<6051>R<CYS>A<C> 2
c<E>r<168>a<6052>R<CYS>A<O> 2
c<E>r<168>a<6053>R<CYS>A<CB> 2
c<E>r<168>a<6054>R<CYS>A<SG> 2
c<E>r<169>a<6055>R<THR>A<N> 1
c<E>r<169>a<6057>R<THR>A<C> 2
c<E>r<169>a<6058>R<THR>A<O> 1
c<E>r<170>a<6062>R<ASP>A<N> 2
c<E>r<170>a<6063>R<ASP>A<CA> 2
c<E>r<170>a<6065>R<ASP>A<O> 1
c<E>r<170>a<6067>R<ASP>A<CG> 1
c<E>r<170>a<6068>R<ASP>A<OD1> 1
c<E>r<170>a<6069>R<ASP>A<OD2> 1
c<E>r<171>a<6071>R<PRO>A<CA> 1
c<E>r<171>a<6073>R<PRO>A<O> 1
c<E>r<171>a<6074>R<PRO>A<CB> 1
c<E>r<171>a<6075>R<PRO>A<CG> 1
c<E>r<171>a<6076>R<PRO>A<CD> 1
c<E>r<174>a<6097>R<LEU>A<CB> 1
c<E>r<174>a<6098>R<LEU>A<CG> 1
c<E>r<174>a<6099>R<LEU>A<CD1> 1
c<E>r<174>a<6100>R<LEU>A<CD2> 1
c<E>r<175>a<6101>R<LYS>A<N> 1
c<E>r<175>a<6103>R<LYS>A<C> 1
c<E>r<175>a<6104>R<LYS>A<O> 1
c<E>r<176>a<6110>R<GLU>A<N> 1
c<E>r<176>a<6111>R<GLU>A<CA> 1
c<E>r<176>a<6113>R<GLU>A<O> 1
c<E>r<176>a<6114>R<GLU>A<CB> 1
c<E>r<176>a<6115>R<GLU>A<CG> 1
c<E>r<176>a<6116>R<GLU>A<CD> 1
c<E>r<176>a<6117>R<GLU>A<OE1> 1
c<E>r<177>a<6120>R<GLN>A<CA> 1
c<E>r<177>a<6124>R<GLN>A<CG> 1
c<E>r<177>a<6125>R<GLN>A<CD> 1
c<E>r<177>a<6126>R<GLN>A<OE1> 1
c<E>r<177>a<6127>R<GLN>A<NE2> 1
c<E>r<178>a<6133>R<PRO>A<CG> 1
c<E>r<178>a<6134>R<PRO>A<CD> 1
c<E>r<186>a<6195>R<ALA>A<C> 1
c<E>r<186>a<6197>R<ALA>A<CB> 1
c<E>r<187>a<6198>R<LEU>A<N> 1
c<E>r<187>a<6199>R<LEU>A<CA> 1
c<E>r<187>a<6200>R<LEU>A<C> 2
c<E>r<188>a<6206>R<SER>A<N> 1
c<E>r<188>a<6210>R<SER>A<CB> 2
c<E>r<188>a<6211>R<SER>A<OG> 2
c<E>r<189>a<6215>R<SER>A<O> 2
c<E>r<190>a<6220>R<ARG>A<C> 2
c<E>r<190>a<6221>R<ARG>A<O> 2
c<E>r<190>a<6222>R<ARG>A<CB> 1
c<E>r<190>a<6223>R<ARG>A<CG> 1
c<E>r<190>a<6224>R<ARG>A<CD> 1
c<E>r<190>a<6225>R<ARG>A<NE> 2
c<E>r<190>a<6226>R<ARG>A<CZ> 2
c<E>r<190>a<6227>R<ARG>A<NH1> 2
c<E>r<190>a<6228>R<ARG>A<NH2> 2
c<E>r<191>a<6231>R<LEU>A<C> 2
c<E>r<192>a<6237>R<ARG>A<N> 2
c<E>r<192>a<6239>R<ARG>A<C> 2
c<E>r<192>a<6240>R<ARG>A<O> 1
c<E>r<192>a<6241>R<ARG>A<CB> 2
c<E>r<192>a<6242>R<ARG>A<CG> 2
c<E>r<192>a<6243>R<ARG>A<CD> 1
c<E>r<192>a<6244>R<ARG>A<NE> 2
c<E>r<192>a<6245>R<ARG>A<CZ> 2
c<E>r<192>a<6246>R<ARG>A<NH1> 1
c<E>r<192>a<6247>R<ARG>A<NH2> 1
c<E>r<193>a<6248>R<VAL>A<N> 2
c<E>r<193>a<6249>R<VAL>A<CA> 1
c<E>r<193>a<6250>R<VAL>A<C> 2
c<E>r<193>a<6251>R<VAL>A<O> 2
c<E>r<194>a<6255>R<SER>A<N> 1
c<E>r<194>a<6256>R<SER>A<CA> 1
c<E>r<194>a<6259>R<SER>A<CB> 1
c<E>r<234>a<6597>R<ALA>A<CB> 1
c<E>r<235>a<6598>R<GLU>A<N> 1
c<E>r<235>a<6601>R<GLU>A<O> 1
c<E>r<236>a<6608>R<ALA>A<CA> 1
c<E>r<236>a<6611>R<ALA>A<CB> 2
c<E>r<301>a<6665>R<EDO>A<C1> 1
c<E>r<301>a<6666>R<EDO>A<O1> 1
c<E>r<301>a<6667>R<EDO>A<C2> 1
c<E>r<301>a<6668>R<EDO>A<O2> 1
