Stochastic Gradient Boosting 

518 samples
 14 predictor
  2 classes: 'HS', 'NHS' 

No pre-processing
Resampling: Cross-Validated (10 fold, repeated 3 times) 
Summary of sample sizes: 466, 467, 466, 466, 466, 466, ... 
Resampling results across tuning parameters:

  interaction.depth  n.minobsinnode  n.trees  ROC        Sens       Spec     
  1                   5              2000     0.7938116  0.1903846  0.9709402
  1                   5              2100     0.7941458  0.1982906  0.9666667
  1                   5              2200     0.7947595  0.2034188  0.9641026
  1                   5              2300     0.7951704  0.2190171  0.9623932
  1                   5              2400     0.7961073  0.2369658  0.9615385
  1                   5              2500     0.7962579  0.2527778  0.9589744
  1                   5              2600     0.7971236  0.2579060  0.9572650
  1                   5              2700     0.7977318  0.2632479  0.9564103
  1                   5              2800     0.7984495  0.2658120  0.9512821
  1                   5              2900     0.7991343  0.2711538  0.9495726
  1                   5              3000     0.7991727  0.2816239  0.9487179
  1                   5              3100     0.7995069  0.2867521  0.9478632
  1                   5              3200     0.7991782  0.2893162  0.9461538
  1                   5              3300     0.7996494  0.2944444  0.9452991
  1                   5              3400     0.8004602  0.3025641  0.9452991
  1                   5              3500     0.8006739  0.3102564  0.9452991
  1                   5              3600     0.8006082  0.3207265  0.9444444
  1                   5              3700     0.8010903  0.3207265  0.9435897
  1                   5              3800     0.8017532  0.3235043  0.9418803
  1                   5              3900     0.8020765  0.3260684  0.9418803
  1                   5              4000     0.8023395  0.3363248  0.9384615
  1                   5              4100     0.8025970  0.3363248  0.9384615
  1                   5              4200     0.8024600  0.3440171  0.9376068
  1                   5              4300     0.8027887  0.3440171  0.9376068
  1                   5              4400     0.8027833  0.3517094  0.9376068
  1                   5              4500     0.8027778  0.3517094  0.9358974
  1                   5              4600     0.8026956  0.3517094  0.9358974
  1                   5              4700     0.8027011  0.3544872  0.9350427
  1                   5              4800     0.8031668  0.3570513  0.9324786
  1                   5              4900     0.8030243  0.3621795  0.9316239
  1                   5              5000     0.8026846  0.3675214  0.9316239
  1                  10              2000     0.7949649  0.1955128  0.9700855
  1                  10              2100     0.7956772  0.1982906  0.9675214
  1                  10              2200     0.7958635  0.2085470  0.9658120
  1                  10              2300     0.7956169  0.2111111  0.9615385
  1                  10              2400     0.7962306  0.2267094  0.9598291
  1                  10              2500     0.7969318  0.2423077  0.9564103
  1                  10              2600     0.7972825  0.2527778  0.9564103
  1                  10              2700     0.7980988  0.2553419  0.9547009
  1                  10              2800     0.7986741  0.2630342  0.9512821
  1                  10              2900     0.7988878  0.2709402  0.9495726
  1                  10              3000     0.7992165  0.2788462  0.9461538
  1                  10              3100     0.7996274  0.2839744  0.9444444
  1                  10              3200     0.8000931  0.2916667  0.9444444
  1                  10              3300     0.8006082  0.3023504  0.9444444
  1                  10              3400     0.8005917  0.3049145  0.9435897
  1                  10              3500     0.8011780  0.3130342  0.9427350
  1                  10              3600     0.8016491  0.3155983  0.9427350
  1                  10              3700     0.8019176  0.3181624  0.9427350
  1                  10              3800     0.8023888  0.3207265  0.9418803
  1                  10              3900     0.8027942  0.3232906  0.9401709
  1                  10              4000     0.8027120  0.3361111  0.9393162
  1                  10              4100     0.8028435  0.3414530  0.9393162
  1                  10              4200     0.8025203  0.3440171  0.9393162
  1                  10              4300     0.8027942  0.3465812  0.9384615
  1                  10              4400     0.8027339  0.3491453  0.9376068
  1                  10              4500     0.8030627  0.3517094  0.9367521
  1                  10              4600     0.8031942  0.3572650  0.9341880
  1                  10              4700     0.8031887  0.3572650  0.9341880
  1                  10              4800     0.8031887  0.3572650  0.9333333
  1                  10              4900     0.8035777  0.3600427  0.9324786
  1                  10              5000     0.8036434  0.3653846  0.9324786
  2                   5              2000     0.8033147  0.2897436  0.9487179
  2                   5              2100     0.8038735  0.2974359  0.9470085
  2                   5              2200     0.8042954  0.3053419  0.9418803
  2                   5              2300     0.8044872  0.3235043  0.9418803
  2                   5              2400     0.8060267  0.3235043  0.9401709
  2                   5              2500     0.8059610  0.3314103  0.9410256
  2                   5              2600     0.8058131  0.3391026  0.9401709
  2                   5              2700     0.8061747  0.3418803  0.9393162
  2                   5              2800     0.8056268  0.3444444  0.9393162
  2                   5              2900     0.8057638  0.3444444  0.9384615
  2                   5              3000     0.8058350  0.3444444  0.9367521
  2                   5              3100     0.8056268  0.3549145  0.9358974
  2                   5              3200     0.8058185  0.3630342  0.9350427
  2                   5              3300     0.8062897  0.3655983  0.9333333
  2                   5              3400     0.8060322  0.3732906  0.9316239
  2                   5              3500     0.8064103  0.3809829  0.9316239
  2                   5              3600     0.8063938  0.3861111  0.9299145
  2                   5              3700     0.8059281  0.3861111  0.9282051
  2                   5              3800     0.8064541  0.3886752  0.9273504
  2                   5              3900     0.8070513  0.3886752  0.9264957
  2                   5              4000     0.8068431  0.3912393  0.9247863
  2                   5              4100     0.8068431  0.3886752  0.9239316
  2                   5              4200     0.8068376  0.3912393  0.9239316
  2                   5              4300     0.8065527  0.3940171  0.9239316
  2                   5              4400     0.8069527  0.3965812  0.9230769
  2                   5              4500     0.8063500  0.3963675  0.9239316
  2                   5              4600     0.8066787  0.3989316  0.9239316
  2                   5              4700     0.8066787  0.4014957  0.9247863
  2                   5              4800     0.8069362  0.4042735  0.9247863
  2                   5              4900     0.8063883  0.4068376  0.9230769
  2                   5              5000     0.8063774  0.4068376  0.9230769
  2                  10              2000     0.8027833  0.2923077  0.9487179
  2                  10              2100     0.8032216  0.3000000  0.9452991
  2                  10              2200     0.8038955  0.3158120  0.9444444
  2                  10              2300     0.8039667  0.3237179  0.9427350
  2                  10              2400     0.8037749  0.3264957  0.9401709
  2                  10              2500     0.8045748  0.3393162  0.9401709
  2                  10              2600     0.8048488  0.3446581  0.9384615
  2                  10              2700     0.8049091  0.3523504  0.9376068
  2                  10              2800     0.8047776  0.3576923  0.9367521
  2                  10              2900     0.8047885  0.3679487  0.9358974
  2                  10              3000     0.8047830  0.3707265  0.9358974
  2                  10              3100     0.8049145  0.3705128  0.9341880
  2                  10              3200     0.8055775  0.3730769  0.9333333
  2                  10              3300     0.8053748  0.3732906  0.9324786
  2                  10              3400     0.8055610  0.3788462  0.9324786
  2                  10              3500     0.8051501  0.3811966  0.9307692
  2                  10              3600     0.8047502  0.3811966  0.9316239
  2                  10              3700     0.8048159  0.3837607  0.9307692
  2                  10              3800     0.8048159  0.3865385  0.9307692
  2                  10              3900     0.8048050  0.3891026  0.9290598
  2                  10              4000     0.8046461  0.3942308  0.9282051
  2                  10              4100     0.8048597  0.3967949  0.9273504
  2                  10              4200     0.8049912  0.3993590  0.9273504
  2                  10              4300     0.8050899  0.3993590  0.9264957
  2                  10              4400     0.8048817  0.3993590  0.9264957
  2                  10              4500     0.8049364  0.3995726  0.9264957
  2                  10              4600     0.8053364  0.3995726  0.9264957
  2                  10              4700     0.8048652  0.3995726  0.9256410
  2                  10              4800     0.8047173  0.3995726  0.9230769
  2                  10              4900     0.8051830  0.4021368  0.9230769
  2                  10              5000     0.8052926  0.4072650  0.9222222

Tuning parameter 'shrinkage' was held constant at a value of 0.001
ROC was used to select the optimal model using  the largest value.
The final values used for the model were n.trees = 3900, interaction.depth = 2,
 shrinkage = 0.001 and n.minobsinnode = 5. 
