Stochastic Gradient Boosting 

518 samples
 14 predictor
  2 classes: 'HS', 'NHS' 

No pre-processing
Resampling: Cross-Validated (10 fold, repeated 3 times) 
Summary of sample sizes: 466, 466, 466, 466, 466, 466, ... 
Resampling results across tuning parameters:

  interaction.depth  n.minobsinnode  n.trees  ROC        Sens       Spec     
  1                   5              2000     0.7984276  0.1764957  0.9777778
  1                   5              2100     0.7989535  0.1895299  0.9760684
  1                   5              2200     0.8001425  0.1946581  0.9760684
  1                   5              2300     0.8003397  0.2076923  0.9709402
  1                   5              2400     0.8015286  0.2205128  0.9658120
  1                   5              2500     0.8022518  0.2256410  0.9615385
  1                   5              2600     0.8030736  0.2333333  0.9606838
  1                   5              2700     0.8039831  0.2461538  0.9589744
  1                   5              2800     0.8045310  0.2514957  0.9564103
  1                   5              2900     0.8049967  0.2617521  0.9555556
  1                   5              3000     0.8055720  0.2645299  0.9555556
  1                   5              3100     0.8057692  0.2775641  0.9529915
  1                   5              3200     0.8061747  0.2826923  0.9512821
  1                   5              3300     0.8067609  0.2903846  0.9487179
  1                   5              3400     0.8064212  0.2982906  0.9478632
  1                   5              3500     0.8068979  0.3034188  0.9470085
  1                   5              3600     0.8069088  0.3087607  0.9461538
  1                   5              3700     0.8071115  0.3164530  0.9444444
  1                   5              3800     0.8076375  0.3215812  0.9435897
  1                   5              3900     0.8079717  0.3292735  0.9418803
  1                   5              4000     0.8080430  0.3397436  0.9410256
  1                   5              4100     0.8083059  0.3423077  0.9410256
  1                   5              4200     0.8084977  0.3423077  0.9401709
  1                   5              4300     0.8086949  0.3474359  0.9401709
  1                   5              4400     0.8085634  0.3474359  0.9367521
  1                   5              4500     0.8091004  0.3500000  0.9358974
  1                   5              4600     0.8090949  0.3500000  0.9358974
  1                   5              4700     0.8092264  0.3500000  0.9350427
  1                   5              4800     0.8090237  0.3525641  0.9350427
  1                   5              4900     0.8092976  0.3579060  0.9350427
  1                   5              5000     0.8092209  0.3632479  0.9350427
  1                  10              2000     0.7984632  0.1713675  0.9769231
  1                  10              2100     0.7992521  0.1764957  0.9760684
  1                  10              2200     0.8005232  0.1867521  0.9735043
  1                  10              2300     0.8016820  0.2100427  0.9683761
  1                  10              2400     0.8024408  0.2256410  0.9658120
  1                  10              2500     0.8027778  0.2282051  0.9623932
  1                  10              2600     0.8034626  0.2384615  0.9581197
  1                  10              2700     0.8039283  0.2438034  0.9564103
  1                  10              2800     0.8047721  0.2514957  0.9555556
  1                  10              2900     0.8054460  0.2617521  0.9538462
  1                  10              3000     0.8056487  0.2773504  0.9538462
  1                  10              3100     0.8057692  0.2878205  0.9521368
  1                  10              3200     0.8061528  0.2957265  0.9512821
  1                  10              3300     0.8072704  0.3034188  0.9504274
  1                  10              3400     0.8075444  0.3136752  0.9495726
  1                  10              3500     0.8072759  0.3188034  0.9478632
  1                  10              3600     0.8077471  0.3239316  0.9461538
  1                  10              3700     0.8076320  0.3267094  0.9452991
  1                  10              3800     0.8079663  0.3292735  0.9444444
  1                  10              3900     0.8082457  0.3397436  0.9452991
  1                  10              4000     0.8083005  0.3425214  0.9435897
  1                  10              4100     0.8087059  0.3450855  0.9410256
  1                  10              4200     0.8088374  0.3502137  0.9401709
  1                  10              4300     0.8092867  0.3555556  0.9393162
  1                  10              4400     0.8097633  0.3555556  0.9393162
  1                  10              4500     0.8096921  0.3632479  0.9401709
  1                  10              4600     0.8094181  0.3709402  0.9393162
  1                  10              4700     0.8096263  0.3735043  0.9384615
  1                  10              4800     0.8102181  0.3735043  0.9401709
  1                  10              4900     0.8107605  0.3814103  0.9401709
  1                  10              5000     0.8107659  0.3839744  0.9393162
  2                   5              2000     0.8064267  0.2978632  0.9572650
  2                   5              2100     0.8072924  0.3106838  0.9547009
  2                   5              2200     0.8079717  0.3269231  0.9538462
  2                   5              2300     0.8081251  0.3371795  0.9512821
  2                   5              2400     0.8087881  0.3397436  0.9487179
  2                   5              2500     0.8089196  0.3474359  0.9478632
  2                   5              2600     0.8093086  0.3576923  0.9470085
  2                   5              2700     0.8100427  0.3655983  0.9444444
  2                   5              2800     0.8101852  0.3681624  0.9418803
  2                   5              2900     0.8103112  0.3758547  0.9401709
  2                   5              3000     0.8105797  0.3784188  0.9393162
  2                   5              3100     0.8106399  0.3809829  0.9376068
  2                   5              3200     0.8103769  0.3835470  0.9333333
  2                   5              3300     0.8103824  0.3886752  0.9333333
  2                   5              3400     0.8105851  0.3940171  0.9333333
  2                   5              3500     0.8106399  0.3965812  0.9324786
  2                   5              3600     0.8103715  0.4017094  0.9333333
  2                   5              3700     0.8104427  0.4042735  0.9333333
  2                   5              3800     0.8107166  0.4068376  0.9333333
  2                   5              3900     0.8106016  0.4068376  0.9316239
  2                   5              4000     0.8106783  0.4094017  0.9299145
  2                   5              4100     0.8107495  0.4198718  0.9290598
  2                   5              4200     0.8111604  0.4224359  0.9290598
  2                   5              4300     0.8111769  0.4224359  0.9282051
  2                   5              4400     0.8111769  0.4224359  0.9273504
  2                   5              4500     0.8118508  0.4198718  0.9282051
  2                   5              4600     0.8115220  0.4224359  0.9282051
  2                   5              4700     0.8113851  0.4224359  0.9264957
  2                   5              4800     0.8108755  0.4224359  0.9264957
  2                   5              4900     0.8110015  0.4196581  0.9264957
  2                   5              5000     0.8110070  0.4170940  0.9247863
  2                  10              2000     0.8074512  0.3115385  0.9572650
  2                  10              2100     0.8077854  0.3217949  0.9564103
  2                  10              2200     0.8092647  0.3243590  0.9538462
  2                  10              2300     0.8096811  0.3348291  0.9529915
  2                  10              2400     0.8098126  0.3450855  0.9529915
  2                  10              2500     0.8101414  0.3553419  0.9504274
  2                  10              2600     0.8099277  0.3579060  0.9461538
  2                  10              2700     0.8100647  0.3655983  0.9444444
  2                  10              2800     0.8106618  0.3681624  0.9410256
  2                  10              2900     0.8109303  0.3707265  0.9393162
  2                  10              3000     0.8106673  0.3784188  0.9358974
  2                  10              3100     0.8110180  0.3863248  0.9358974
  2                  10              3200     0.8112700  0.3940171  0.9350427
  2                  10              3300     0.8113248  0.4017094  0.9341880
  2                  10              3400     0.8113960  0.4042735  0.9350427
  2                  10              3500     0.8113193  0.4094017  0.9341880
  2                  10              3600     0.8110508  0.4094017  0.9333333
  2                  10              3700     0.8109303  0.4094017  0.9333333
  2                  10              3800     0.8112207  0.4121795  0.9333333
  2                  10              3900     0.8112755  0.4198718  0.9333333
  2                  10              4000     0.8121576  0.4198718  0.9324786
  2                  10              4100     0.8120754  0.4198718  0.9324786
  2                  10              4200     0.8119658  0.4198718  0.9307692
  2                  10              4300     0.8118672  0.4198718  0.9299145
  2                  10              4400     0.8116042  0.4173077  0.9290598
  2                  10              4500     0.8113357  0.4198718  0.9290598
  2                  10              4600     0.8114618  0.4224359  0.9290598
  2                  10              4700     0.8115220  0.4198718  0.9282051
  2                  10              4800     0.8115933  0.4170940  0.9273504
  2                  10              4900     0.8112481  0.4222222  0.9264957
  2                  10              5000     0.8115823  0.4222222  0.9256410

Tuning parameter 'shrinkage' was held constant at a value of 0.001
ROC was used to select the optimal model using  the largest value.
The final values used for the model were n.trees = 4000, interaction.depth = 2,
 shrinkage = 0.001 and n.minobsinnode = 10. 
