Stochastic Gradient Boosting 

518 samples
 14 predictor
  2 classes: 'HS', 'NHS' 

No pre-processing
Resampling: Cross-Validated (10 fold, repeated 3 times) 
Summary of sample sizes: 466, 466, 466, 466, 466, 466, ... 
Resampling results across tuning parameters:

  interaction.depth  n.minobsinnode  n.trees  ROC        Sens       Spec     
  1                   5              2000     0.7956142  0.1767094  0.9743590
  1                   5              2100     0.7961949  0.1869658  0.9709402
  1                   5              2200     0.7972250  0.1946581  0.9683761
  1                   5              2300     0.7984166  0.2025641  0.9666667
  1                   5              2400     0.7990686  0.2102564  0.9615385
  1                   5              2500     0.7990631  0.2181624  0.9598291
  1                   5              2600     0.7996987  0.2339744  0.9598291
  1                   5              2700     0.8007342  0.2444444  0.9598291
  1                   5              2800     0.8015670  0.2470085  0.9598291
  1                   5              2900     0.8020710  0.2623932  0.9589744
  1                   5              3000     0.8028654  0.2623932  0.9564103
  1                   5              3100     0.8031887  0.2700855  0.9564103
  1                   5              3200     0.8033750  0.2754274  0.9555556
  1                   5              3300     0.8035832  0.2833333  0.9529915
  1                   5              3400     0.8042516  0.2884615  0.9521368
  1                   5              3500     0.8051227  0.2991453  0.9512821
  1                   5              3600     0.8055994  0.3017094  0.9504274
  1                   5              3700     0.8059939  0.3042735  0.9495726
  1                   5              3800     0.8069198  0.3145299  0.9487179
  1                   5              3900     0.8075827  0.3200855  0.9470085
  1                   5              4000     0.8083279  0.3305556  0.9435897
  1                   5              4100     0.8086566  0.3384615  0.9427350
  1                   5              4200     0.8088429  0.3438034  0.9418803
  1                   5              4300     0.8092921  0.3463675  0.9410256
  1                   5              4400     0.8092921  0.3594017  0.9401709
  1                   5              4500     0.8095606  0.3594017  0.9393162
  1                   5              4600     0.8098236  0.3594017  0.9384615
  1                   5              4700     0.8098893  0.3591880  0.9376068
  1                   5              4800     0.8100263  0.3645299  0.9367521
  1                   5              4900     0.8099551  0.3698718  0.9333333
  1                   5              5000     0.8098948  0.3722222  0.9333333
  1                  10              2000     0.7968771  0.1741453  0.9769231
  1                  10              2100     0.7986029  0.1844017  0.9709402
  1                  10              2200     0.7988659  0.1946581  0.9683761
  1                  10              2300     0.7997480  0.2023504  0.9658120
  1                  10              2400     0.8000877  0.2076923  0.9632479
  1                  10              2500     0.8002739  0.2128205  0.9615385
  1                  10              2600     0.8005972  0.2260684  0.9615385
  1                  10              2700     0.8020984  0.2416667  0.9606838
  1                  10              2800     0.8027011  0.2547009  0.9589744
  1                  10              2900     0.8031777  0.2675214  0.9581197
  1                  10              3000     0.8038516  0.2726496  0.9572650
  1                  10              3100     0.8044324  0.2805556  0.9555556
  1                  10              3200     0.8045694  0.2858974  0.9538462
  1                  10              3300     0.8049638  0.2940171  0.9521368
  1                  10              3400     0.8056213  0.2991453  0.9521368
  1                  10              3500     0.8061473  0.3042735  0.9512821
  1                  10              3600     0.8066842  0.3149573  0.9504274
  1                  10              3700     0.8072540  0.3149573  0.9495726
  1                  10              3800     0.8075005  0.3284188  0.9495726
  1                  10              3900     0.8077416  0.3386752  0.9487179
  1                  10              4000     0.8084648  0.3412393  0.9470085
  1                  10              4100     0.8086730  0.3463675  0.9461538
  1                  10              4200     0.8091990  0.3489316  0.9444444
  1                  10              4300     0.8096428  0.3514957  0.9435897
  1                  10              4400     0.8094455  0.3596154  0.9435897
  1                  10              4500     0.8101140  0.3621795  0.9418803
  1                  10              4600     0.8103276  0.3649573  0.9401709
  1                  10              4700     0.8113248  0.3702991  0.9393162
  1                  10              4800     0.8111275  0.3831197  0.9384615
  1                  10              4900     0.8121357  0.3882479  0.9376068
  1                  10              5000     0.8118617  0.3961538  0.9376068
  2                   5              2000     0.8053857  0.2863248  0.9589744
  2                   5              2100     0.8058569  0.2967949  0.9581197
  2                   5              2200     0.8063062  0.3044872  0.9521368
  2                   5              2300     0.8068266  0.3177350  0.9504274
  2                   5              2400     0.8070184  0.3254274  0.9487179
  2                   5              2500     0.8078238  0.3386752  0.9470085
  2                   5              2600     0.8079334  0.3412393  0.9418803
  2                   5              2700     0.8081306  0.3517094  0.9418803
  2                   5              2800     0.8087936  0.3568376  0.9401709
  2                   5              2900     0.8090565  0.3594017  0.9384615
  2                   5              3000     0.8090237  0.3645299  0.9367521
  2                   5              3100     0.8091387  0.3698718  0.9358974
  2                   5              3200     0.8091442  0.3826923  0.9350427
  2                   5              3300     0.8093469  0.3854701  0.9333333
  2                   5              3400     0.8093360  0.3961538  0.9307692
  2                   5              3500     0.8101359  0.3987179  0.9307692
  2                   5              3600     0.8102071  0.4040598  0.9299145
  2                   5              3700     0.8108098  0.4066239  0.9282051
  2                   5              3800     0.8108098  0.4117521  0.9282051
  2                   5              3900     0.8106783  0.4117521  0.9282051
  2                   5              4000     0.8107605  0.4117521  0.9282051
  2                   5              4100     0.8102783  0.4168803  0.9282051
  2                   5              4200     0.8108262  0.4168803  0.9273504
  2                   5              4300     0.8113029  0.4168803  0.9273504
  2                   5              4400     0.8113193  0.4168803  0.9273504
  2                   5              4500     0.8111988  0.4168803  0.9273504
  2                   5              4600     0.8111275  0.4222222  0.9273504
  2                   5              4700     0.8111221  0.4196581  0.9264957
  2                   5              4800     0.8111988  0.4247863  0.9256410
  2                   5              4900     0.8111933  0.4222222  0.9256410
  2                   5              5000     0.8115439  0.4247863  0.9264957
  2                  10              2000     0.8057747  0.2942308  0.9589744
  2                  10              2100     0.8056761  0.3047009  0.9564103
  2                  10              2200     0.8065308  0.3207265  0.9547009
  2                  10              2300     0.8067445  0.3207265  0.9521368
  2                  10              2400     0.8075553  0.3284188  0.9487179
  2                  10              2500     0.8078183  0.3440171  0.9478632
  2                  10              2600     0.8080703  0.3544872  0.9452991
  2                  10              2700     0.8086292  0.3596154  0.9452991
  2                  10              2800     0.8087442  0.3649573  0.9427350
  2                  10              2900     0.8092647  0.3726496  0.9401709
  2                  10              3000     0.8094675  0.3752137  0.9393162
  2                  10              3100     0.8098181  0.3777778  0.9384615
  2                  10              3200     0.8098784  0.3777778  0.9367521
  2                  10              3300     0.8102290  0.3803419  0.9358974
  2                  10              3400     0.8102181  0.3856838  0.9358974
  2                  10              3500     0.8097524  0.3910256  0.9358974
  2                  10              3600     0.8096811  0.3961538  0.9358974
  2                  10              3700     0.8100099  0.3987179  0.9350427
  2                  10              3800     0.8106892  0.4038462  0.9333333
  2                  10              3900     0.8101633  0.4089744  0.9333333
  2                  10              4000     0.8107769  0.4064103  0.9324786
  2                  10              4100     0.8111111  0.4089744  0.9307692
  2                  10              4200     0.8111111  0.4115385  0.9299145
  2                  10              4300     0.8115111  0.4168803  0.9299145
  2                  10              4400     0.8116535  0.4194444  0.9290598
  2                  10              4500     0.8114070  0.4194444  0.9299145
  2                  10              4600     0.8116206  0.4220085  0.9307692
  2                  10              4700     0.8120151  0.4220085  0.9290598
  2                  10              4800     0.8118234  0.4220085  0.9299145
  2                  10              4900     0.8114289  0.4220085  0.9299145
  2                  10              5000     0.8113577  0.4220085  0.9290598

Tuning parameter 'shrinkage' was held constant at a value of 0.001
ROC was used to select the optimal model using  the largest value.
The final values used for the model were n.trees = 4900, interaction.depth = 1,
 shrinkage = 0.001 and n.minobsinnode = 10. 
