"The table details the residue variety in % for each position in the query sequence."
"Each column shows the % for that amino-acid, found in position ('pos') in the MSA."
"In case there are residues which are not a standard amino-acid in the MSA, they are represented under column 'OTHER'"

pos,A,C,D,E,F,G,H,I,K,L,M,N,P,Q,R,S,T,V,W,Y,OTHER,MAX AA,ConSurf Grade
1,,,,,,,,,,,,,,,,100.000,,,,,,S 100.000,6*
2,,,,,,,,73.611,,1.389,,,,,,2.778,,16.667,,5.556,,I 73.611,5
3,1.111,,1.111,11.111,,,,1.111,3.333,2.222,,,,22.222,1.111,,6.667,50.000,,,,V 50.000,2
4,,,,,,,,4.237,,45.763,38.983,,,,,,,11.017,,,,L 45.763,1
5,,,,,,,,0.735,,0.735,,,,,,2.206,96.324,,,,,T 96.324,9
6,,,,,,,,,,,,,,100.000,,,,,,,,Q 100.000,9
7,2.198,,,,,,,,,,,,,1.099,1.099,61.538,34.066,,,,,S 61.538,4
8,2.027,,1.351,3.378,,,0.676,,,0.676,,,86.486,0.676,,2.027,2.703,,,,,P 86.486,4
9,30.405,,2.703,0.676,0.676,2.027,2.027,,4.054,5.405,,,23.649,0.676,1.351,19.595,4.730,2.027,,,,A 30.405,1
10,3.378,,,,6.081,1.351,,2.703,0.676,2.703,,,,,,67.568,11.486,2.703,,1.351,,S 67.568,4
11,4.054,,,,1.351,,,0.676,4.730,43.243,6.081,0.676,,1.351,,,0.676,37.162,,,,L 43.243,3
12,6.757,,,0.676,,,1.351,,,0.676,0.676,0.676,4.730,2.027,0.676,74.324,6.081,,,1.351,,S 74.324,5
13,26.351,,,2.027,,17.568,,,1.351,4.730,0.676,,,,,0.676,4.054,42.568,,,,V 42.568,1
14,14.865,,0.676,0.676,0.676,0.676,,,,0.676,,4.730,2.027,1.351,,52.027,20.946,0.676,,,,S 52.027,3
15,1.342,,,,,,,3.356,,29.530,0.671,,44.966,1.342,,,,18.792,,,,P 44.966,1
16,,,,0.671,,95.302,,,1.342,,,,,,2.685,,,,,,,G 95.302,7
17,,,24.832,26.174,,9.396,,,1.342,,,,,36.242,0.671,1.342,,,,,,Q 36.242,3
18,0.671,,,0.671,,,,1.342,8.054,0.671,0.671,,6.040,0.671,36.242,11.409,33.557,,,,,R 36.242,1
19,26.846,,,,,,,8.725,,1.342,,,,,,,,63.087,,,,V 63.087,5
20,,,1.342,0.671,0.671,,0.671,0.671,1.342,,,1.342,,,6.040,14.765,72.483,,,,,T 72.483,5
21,,,,,0.671,,,77.181,,16.107,2.685,,,,,,,3.356,,,,I 77.181,6
22,0.671,,0.671,0.671,,,,,2.013,,,8.725,,2.685,0.671,44.966,38.926,,,,,S 44.966,3
23,0.671,99.329,,,,,,,,,,,,,,,,,,,,C 99.329,9
24,4.027,,,0.671,,5.369,,0.671,22.819,0.671,,0.671,,11.409,24.161,16.107,13.423,,,,,R 24.161,1
25,44.966,,,1.342,,31.544,,0.671,,2.013,,,,,2.013,13.423,4.027,,,,,A 44.966,3
26,0.730,,2.920,,,1.460,,,0.730,0.730,,1.460,,0.730,0.730,83.212,7.299,,,,,S 83.212,7
27,0.730,,2.920,7.299,,0.730,0.730,,6.569,0.730,,2.190,2.190,40.146,2.190,31.387,2.190,,,,,Q 40.146,3
28,2.703,,12.162,2.703,1.351,8.108,,1.351,0.676,2.027,,12.162,,0.676,2.027,51.351,2.027,,,0.676,,S 51.351,1
29,2.721,0.680,6.803,2.721,,0.680,0.680,21.769,,13.605,2.041,16.327,,,,6.803,0.680,24.490,,,,V 24.490,1
30,1.709,,10.256,0.855,,9.402,1.709,0.855,13.675,,,13.675,,,2.564,24.786,5.128,0.855,0.855,13.675,,S 24.786,1
31,0.676,0.676,8.784,2.027,1.351,3.378,2.703,0.676,10.135,1.351,,29.730,,,0.676,18.243,14.189,,,5.405,,N 29.730,1
32,4.698,,4.698,0.671,8.054,2.685,2.013,0.671,0.671,2.685,,5.369,0.671,,3.356,6.711,2.013,1.342,1.342,52.349,,Y 52.349,1
33,6.711,,,,,1.342,,5.369,,46.309,9.396,,2.013,,,,,28.188,,0.671,,L 46.309,2
34,24.832,0.671,1.342,0.671,0.671,7.383,12.752,0.671,,,,19.463,,2.013,,18.121,3.356,0.671,,7.383,,A 24.832,1
35,,,,,1.333,,,,,2.667,,,,,,,,,96.000,,,W 96.000,8
36,,,,,10.000,,0.667,,,2.667,,0.667,,,,,,0.667,,85.333,,Y 85.333,5
37,,,,,,,1.333,,1.333,8.000,,,,86.667,2.667,,,,,,,Q 86.667,8
38,,,,2.000,1.333,,6.667,,2.000,2.667,,,,85.333,,,,,,,,Q 85.333,7
39,,,,,2.000,,6.000,7.333,63.333,4.667,,2.000,,,12.667,,1.333,0.667,,,,K 63.333,2
40,2.667,,0.667,,,0.667,,,,4.000,,,82.667,,0.667,6.667,2.000,,,,,P 82.667,2
41,,,3.333,0.667,,90.000,1.333,,,,,1.333,1.333,,0.667,1.333,,,,,,G 90.000,5
42,2.667,,,7.333,,2.667,0.667,,16.667,,,2.000,,49.333,2.667,4.667,10.667,,0.667,,,Q 49.333,2
43,52.000,,,,,0.667,,,3.333,0.667,,0.667,10.000,0.667,1.333,22.667,5.333,2.667,,,,A 52.000,3
44,,,,,0.667,,,,,,,1.333,96.000,,,,,2.000,,,,P 96.000,8
45,0.667,,,1.333,,,,0.667,54.000,0.667,,1.333,,6.667,22.667,0.667,1.333,10.000,,,,K 54.000,2
46,3.333,,,,0.667,1.333,,0.667,,78.000,0.667,,0.667,1.333,3.333,,8.000,1.333,,0.667,,L 78.000,1
47,0.667,,,,,,,6.000,,78.667,1.333,,,,,,,11.333,2.000,,,L 78.667,4
48,,,,,0.667,,,91.333,,1.333,4.667,,,,,,,2.000,,,,I 91.333,8
49,,0.667,1.333,,3.333,0.667,5.333,0.667,2.667,,0.667,1.333,,,0.667,2.667,,,,80.000,,Y 80.000,2
50,10.667,,11.333,2.667,,14.667,,0.667,5.333,8.000,,6.667,,2.667,3.333,13.333,1.333,,4.667,14.667,,GY 14.667,1
51,42.000,,10.667,,,5.333,0.667,,1.333,,1.333,7.333,0.667,,,4.000,11.333,15.333,,,,A 42.000,1
52,,,7.333,,,,,0.667,0.667,,,18.000,,0.667,,59.333,13.333,,,,,S 59.333,3
53,2.000,,2.667,6.667,,,0.667,2.667,12.000,2.000,0.667,28.667,,4.000,4.000,14.667,18.000,,,1.333,,N 28.667,1
54,,,,,,0.667,0.667,,1.333,36.000,,,0.667,1.333,57.333,2.000,,,,,,R 57.333,4
55,25.333,,2.667,12.667,8.000,2.000,4.000,2.000,,0.667,,0.667,24.667,6.667,1.333,2.000,,2.667,,4.667,,A 25.333,1
56,,,5.333,1.333,,,,,,,,,3.333,0.667,,72.000,16.667,,,0.667,,S 72.000,5
57,,,1.333,1.333,,94.000,,,,,,0.667,,,,1.333,,,1.333,,,G 94.000,6
58,,,0.667,,,0.667,,28.667,,,,,,,,,8.000,62.000,,,,V 62.000,4
59,1.333,,,,,,,,,,,,86.667,,,11.333,0.667,,,,,P 86.667,5
60,12.000,,46.000,6.667,,0.667,1.333,,,,,2.667,0.667,,,28.667,0.667,,,0.667,,D 46.000,1
61,,,,,,,1.333,,,,,,,,98.000,0.667,,,,,,R 98.000,9
62,,,,,99.333,,,,,0.667,,,,,,,,,,,,F 99.333,9
63,,,,,,,,,5.333,,,0.667,,,,87.333,6.000,0.667,,,,S 87.333,8
64,3.333,,,,,96.667,,,,,,,,,,,,,,,,G 96.667,8
65,0.667,,,,,0.667,,,,,,,,1.333,3.333,88.000,6.000,,,,,S 88.000,7
66,0.667,,0.667,,,59.333,,1.333,17.333,1.333,,6.000,0.667,1.333,2.667,6.000,1.333,,,1.333,,G 59.333,1
67,0.667,,,,0.667,0.667,,0.667,,2.000,,,,,,92.000,,,0.667,2.667,,S 92.000,8
68,2.000,,1.333,2.667,,89.333,,,,0.667,,,,,1.333,2.000,,,,0.667,,G 89.333,4
69,1.333,,1.333,,,1.333,,0.667,2.667,,,20.667,,0.667,1.333,9.333,60.667,,,,,T 60.667,4
70,2.000,,43.333,6.000,0.667,,3.333,,2.667,,,0.667,,5.333,1.333,10.000,24.000,0.667,,,,D 43.333,2
71,30.667,,,,50.667,1.333,0.667,,,,0.667,0.667,,,0.667,2.000,,0.667,,12.000,,F 50.667,4
72,4.000,,,,,,,1.333,,,,1.333,,,,25.333,67.333,,,0.667,,T 67.333,5
73,,,,,8.000,,,,,92.000,,,,,,,,,,,,L 92.000,8
74,5.333,,,,,,,1.333,6.000,,,2.000,,,3.333,6.000,75.333,0.667,,,,T 75.333,6
75,,,,,,,,96.000,,1.333,,,,,,,0.667,2.000,,,,I 96.000,9
76,2.000,,2.000,,,0.667,2.000,,,,,6.000,,,2.000,75.333,10.000,,,,,S 75.333,6
77,,,4.000,1.333,,43.333,,,,,,6.667,3.333,,14.667,25.333,0.667,0.667,,,,G 43.333,1
78,10.000,,,,0.667,,,1.333,,42.000,3.333,,,,,,0.667,42.000,,,,LV 42.000,1
79,,,0.667,30.000,,,,,3.333,1.333,,,,59.333,4.667,,,0.667,,,,Q 59.333,5
80,40.667,4.667,0.667,2.000,,1.333,,,,0.667,,,27.333,0.667,,10.000,9.333,2.000,,0.667,,A 40.667,1
81,2.000,,10.000,82.000,,4.000,,,,,,1.333,,0.667,,,,,,,,E 82.000,6
82,,,100.000,,,,,,,,,,,,,,,,,,,D 100.000,9
83,18.667,,1.333,36.667,12.667,,,6.000,1.333,7.333,0.667,,,,,2.667,3.333,9.333,,,,E 36.667,1
84,77.333,,,,,20.667,,,,,,,,,0.667,0.667,,0.667,,,,A 77.333,6
85,,,39.333,6.000,0.667,,,5.333,,2.000,2.000,,,,,2.667,20.667,20.000,,1.333,,D 39.333,1
86,,,,,,,,,,,,,,,,,,,,100.000,,Y 100.000,9
87,,,,,14.667,,0.667,,,,,,,,,,,,,84.667,,Y 84.667,4
88,,100.000,,,,,,,,,,,,,,,,,,,,C 100.000,9
89,8.667,2.000,,0.667,0.667,10.667,2.000,,,12.000,3.333,0.667,,50.667,,5.333,,1.333,,2.000,,Q 50.667,1
90,8.667,,,2.667,,3.333,4.667,2.000,,2.667,,2.667,0.667,45.333,,19.333,2.667,5.333,,,,Q 45.333,1
91,5.333,,2.667,1.333,2.667,10.667,6.000,1.333,,2.667,0.667,1.333,,,4.000,10.000,0.667,0.667,15.333,34.667,,Y 34.667,1
92,1.333,,25.333,1.333,,2.667,5.333,2.000,4.000,2.667,,11.333,0.667,0.667,2.000,11.333,4.667,3.333,4.000,17.333,,D 25.333,1
93,0.671,,4.698,8.054,0.671,6.711,4.698,,1.342,2.013,,14.094,2.013,1.342,2.013,37.584,10.067,2.685,0.671,0.671,,S 37.584,1
94,2.098,,6.294,0.699,,6.993,4.196,0.699,2.797,2.797,,3.497,53.846,0.699,1.399,6.294,3.497,,2.797,1.399,,P 53.846,1
95,4.054,0.676,1.351,,8.784,4.054,4.730,0.676,,17.568,0.676,2.703,4.730,0.676,3.378,4.730,2.703,7.432,12.162,18.919,,Y 18.919,1
96,5.333,,,0.667,1.333,0.667,0.667,7.333,,3.333,0.667,1.333,,,1.333,6.000,51.333,20.000,,,,T 51.333,2
97,,,,,98.000,,,0.667,,,,,,,,0.667,,,0.667,,,F 98.000,9
98,,0.667,,,,98.667,,,,,,,,,,0.667,,,,,,G 98.667,9
99,11.333,,,1.333,,55.333,,0.667,1.333,0.667,,,2.000,11.333,2.000,10.000,2.667,0.667,,,0.666666666666667,G 55.333,1
100,,,0.667,0.667,,96.000,,,,,,,2.667,,,,,,,,,G 96.000,8
101,,,,,,,,,,0.667,,,,0.667,,,98.667,,,,,T 98.667,9
102,,,,4.667,,,10.000,,62.000,,,0.667,,4.667,14.000,1.333,2.000,0.667,,,,K 62.000,3
103,,,,,0.667,,,,,74.000,,,,,,,,25.333,,,,L 74.000,4
104,0.667,,6.000,46.667,,,,2.000,0.667,0.667,2.667,,,,,3.333,31.333,6.000,,,,E 46.667,6
105,,,,,0.667,,,44.000,1.333,12.667,,,,,0.667,,,40.667,,,,I 44.000,4
106,5.333,,0.667,1.333,,2.667,0.667,,55.333,26.667,,,0.667,,3.333,1.333,0.667,1.333,,,,K 55.333,5
107,,,,,,16.438,0.685,,,1.370,,,,25.342,56.164,,,,,,,R 56.164,8
108,21.333,,8.000,0.667,,1.333,,,,0.667,,1.333,34.667,,,6.000,26.000,,,,,P 34.667,7
109,,,28.000,,,,,,25.333,,0.667,2.000,6.000,,0.667,0.667,8.000,28.667,,,,V 28.667,6
110,76.667,,,,,,,,0.667,,,,,,,13.333,0.667,8.667,,,,A 76.667,7
111,74.000,,,,,,,,4.000,,,2.000,1.333,3.333,3.333,5.333,6.667,,,,,A 74.000,6
112,,,,,,,,,,,,,100.000,,,,,,,,,P 100.000,9
113,0.667,,,0.667,,,,,0.667,2.000,,,,,,65.333,30.000,0.667,,,,S 65.333,7
114,3.333,,,,,0.667,,1.333,,3.333,,,,,,,,91.333,,,,V 91.333,9
115,,,,,30.000,,,,,3.333,,,,,,38.667,27.333,,,0.667,,S 38.667,8
116,,,,,,,,58.000,,38.000,,,,,,,,4.000,,,,I 58.000,8
117,,,,,94.667,,,,,5.333,,,,,,,,,,,,F 94.667,9
118,,,,,,0.667,0.667,,0.667,,,,95.333,2.000,,0.667,,,,,,P 95.333,8
119,,,,,,,,,,,,,98.667,,,1.333,,,,,,P 98.667,9
120,4.667,,,,,,,,,,,,,,,95.333,,,,,,S 95.333,9
121,6.000,,27.333,0.667,,,,,2.000,0.667,0.667,,2.000,3.333,0.667,52.000,4.000,0.667,,,,S 52.000,6
122,,,7.333,88.667,,,,,0.667,1.333,,,,0.667,,,0.667,0.667,,,,E 88.667,8
123,,,0.667,38.000,,,,,,1.333,0.667,,,59.333,,,,,,,,Q 59.333,9
124,,,,,,0.667,,1.333,,93.333,,,,,,0.667,,4.000,,,,L 93.333,8
125,8.667,,0.667,0.667,,3.333,2.000,,32.000,,,1.333,0.667,22.667,,12.000,16.000,,,,,K 32.000,6
126,28.000,,,0.667,,4.000,,,,0.667,,1.333,,3.333,,44.667,17.333,,,,,S 44.667,6
127,,,2.000,1.333,,56.667,,,1.333,,,38.000,,,,0.667,,,,,,G 56.667,7
128,,,0.667,,,19.333,,,36.667,,,,,0.667,,9.333,33.333,,,,,K 36.667,8
129,94.667,,,,,0.667,,,,,,,,,,,,4.667,,,,A 94.667,9
130,0.667,,,,,,,,0.667,,,,,,,50.667,48.000,,,,,S 50.667,9
131,,,,,,,,4.698,,33.557,3.356,,,,,,,58.389,,,,V 58.389,7
132,0.671,,,,,,,,,2.013,2.013,,,,,,,95.302,,,,V 95.302,9
133,,100.000,,,,,,,,,,,,,,,,,,,,C 100.000,9
134,,,,,16.107,,,1.342,,75.839,2.013,,,,,0.671,,4.027,,,,L 75.839,7
135,8.725,,,,,,,32.886,,46.980,4.027,0.671,,,,,,6.711,,,,L 46.980,7
136,,,0.671,0.671,,,,,0.671,,,59.060,,,,34.899,4.027,,,,,N 59.060,8
137,0.671,,35.570,0.671,,6.711,,,7.383,,,47.651,,,,1.342,,,,,,N 47.651,7
138,,,,,91.275,3.356,,,,,,,,,,,,,,5.369,,F 91.275,9
139,,,,,6.040,,,,,0.671,,,,,,10.067,0.671,,,82.550,,Y 82.550,8
140,,,,,,,,,,,,,100.000,,,,,,,,,P 100.000,9
141,,,,,0.694,24.306,,,20.833,,,,0.694,1.389,32.639,19.444,,,,,,R 32.639,6
142,18.243,,35.811,28.378,,10.135,,,,,,0.676,,,,3.378,1.351,2.027,,,,D 35.811,6
143,30.405,,,,,,,22.297,,13.514,,,,,,,,30.405,3.378,,,AV 30.405,7
144,,,,5.405,,,,,31.757,0.676,,22.973,,,1.351,5.405,31.081,1.351,,,,K 31.757,6
145,,,,,,,,,,4.054,,,,,,,,95.946,,,,V 95.946,9
146,27.703,,0.676,0.676,,0.676,,4.054,22.297,,,,,27.703,0.676,8.108,5.405,2.027,,,,AQ 27.703,6
147,,,,,,,,,,,,,,,,,,,100.000,,,W 100.000,9
148,0.676,,,4.730,,,,,90.541,1.351,,,,,,,2.703,,,,,K 90.541,8
149,29.054,,,0.676,,1.351,,18.919,0.676,0.676,,,,,0.676,0.676,,47.297,,,,V 47.297,7
150,,,89.189,,,0.676,,,,,,10.135,,,,,,,,,,D 89.189,9
151,,,4.054,,,54.730,,,,,,27.703,,,,12.838,0.676,,,,,G 54.730,7
152,35.811,0.676,,0.676,,,,0.676,4.730,,,3.378,,,,40.541,8.784,4.730,,,,S 40.541,6
153,9.524,,1.361,21.088,,,,0.680,0.680,26.531,,,19.048,,,5.442,10.884,4.762,,,,L 26.531,5
154,0.680,,,,,,,8.163,1.361,0.680,,,,34.694,19.048,2.721,6.122,26.531,,,,Q 34.694,6
155,0.685,,0.685,0.685,0.685,,,0.685,16.438,,,5.479,,15.068,4.110,32.192,23.288,,,,,S 32.192,6
156,16.327,,10.204,1.361,,30.612,,,0.680,,,17.007,0.680,10.204,1.361,2.721,8.844,,,,,G 30.612,4
157,,,4.762,,,63.265,,,,,,29.252,,,,0.680,,,2.041,,,G 63.265,7
158,,,,2.041,1.361,,,6.122,,,,,,,,26.531,0.680,63.265,,,,V 63.265,8
159,,,,27.211,,,,,2.041,24.490,0.680,,,42.177,,2.041,0.680,0.680,,,,Q 42.177,6
160,,,4.082,28.571,,,0.680,,0.680,,,20.408,,2.041,,1.361,42.177,,,,,T 42.177,7
161,,,,,,0.680,,,0.680,,,,,,0.680,62.585,35.374,,,,,S 62.585,9
162,1.361,,,,2.041,0.680,,,15.646,0.680,,,0.680,2.041,6.122,6.122,17.687,32.653,14.286,,,V 32.653,4
163,5.442,,,2.721,,0.680,,,1.361,0.680,,,30.612,,0.680,4.082,53.741,,,,,T 53.741,7
164,3.401,,19.728,29.932,0.680,2.041,,0.680,,,,,4.082,2.721,,35.374,,1.361,,,,S 35.374,7
165,,,,0.680,,,,,35.374,1.361,,,0.680,55.782,,3.401,,2.041,0.680,,,Q 55.782,8
166,,,49.660,4.762,,0.680,,,2.041,2.041,,4.762,,35.374,0.680,,,,,,,D 49.660,8
167,3.472,,0.694,0.694,,0.694,,,0.694,,,,0.694,1.389,0.694,90.278,0.694,,,,,S 90.278,8
168,7.143,,,,,,,,88.095,,,,,,,2.381,2.381,,,,,K 88.095,8
169,,,64.583,,,,,,0.694,,,34.722,,,,,,,,,,D 64.583,9
170,,3.401,0.680,,,12.925,0.680,,3.401,0.680,,24.490,,0.680,,52.381,0.680,,,,,S 52.381,8
171,,,,,,0.680,1.361,,36.054,2.041,,,,,1.361,,58.503,,,,,T 58.503,8
172,,,,,,,,,,,,,,,,,,,,100.000,,Y 100.000,9
173,32.653,,,,,,,0.680,3.401,0.680,1.361,3.401,,,,56.463,1.361,,,,,S 56.463,8
174,35.374,0.680,,0.680,,,0.680,,,38.776,19.048,,,,0.680,0.680,,,3.401,,,L 38.776,8
175,,,,,,,,,,,,,,,,98.639,1.361,,,,,S 98.639,9
176,,,,,,,,,,,,,,,,100.000,,,,,,S 100.000,9
177,,,,,0.680,,,,,,,,,,,,63.265,0.680,,35.374,,T 63.265,9
178,,,,,,,,,,99.320,0.680,,,,,,,,,,,L 99.320,9
179,,,,,,,,,0.680,,,,0.680,,2.041,31.973,64.626,,,,,T 64.626,7
180,,,,,,,,0.680,,91.156,2.721,,,,4.082,,,1.361,,,,L 91.156,8
181,,,,,,,,,0.680,,,,4.762,,,35.374,59.184,,,,,T 59.184,8
182,4.082,,0.680,0.680,,0.680,,,48.299,,,,23.810,,4.762,14.966,1.361,0.680,,,,K 48.299,5
183,39.456,,28.571,17.007,,,,,,,,,,2.041,,6.122,6.122,0.680,,,,A 39.456,5
184,1.361,,33.333,25.170,,,,,2.721,0.680,,,,35.374,0.680,,0.680,,,,,Q 35.374,7
185,,,,,,,,,,,,,,,,,,,41.497,58.503,,Y 58.503,9
186,,,0.680,46.939,,,,,35.374,2.721,0.680,8.844,,1.361,3.401,,,,,,,E 46.939,7
187,,,,,,,,,31.293,,,,,,17.007,51.701,,,,,,S 51.701,8
188,2.041,,,,,1.361,80.272,,2.721,0.680,,,,,2.041,2.721,,2.041,,6.122,,H 80.272,6
189,0.680,,4.082,6.122,,4.082,0.680,,34.694,,,21.769,,0.680,12.925,14.286,,,,,,K 34.694,6
190,1.361,,0.680,4.762,,,,0.680,1.361,5.442,,,,,1.361,51.701,5.442,27.211,,,,S 51.701,7
191,,,,,4.762,,,0.680,,,,,,,,,,12.245,,82.313,,Y 82.313,8
192,28.571,,3.401,,,,,,,,,,,,,38.095,29.252,0.680,,,,S 38.095,8
193,,100.000,,,,,,,,,,,,,,,,,,,,C 100.000,9
194,,,,59.589,,,0.685,,6.164,2.740,,,,29.452,0.685,,,0.685,,,,E 59.589,8
195,18.493,,,,,,,1.370,,,,,,,,,,80.137,,,,V 80.137,9
196,,,,,0.685,,,,4.795,0.685,,,,,,4.110,86.301,3.425,,,,T 86.301,7
197,,,,,,,93.793,,,0.690,,,,5.517,,,,,,,,H 93.793,9
198,1.389,,2.083,25.694,,6.250,0.694,,26.389,,,0.694,,36.806,,,,,,,,Q 36.806,7
199,2.083,,,,,64.583,,,,,,0.694,,,,4.861,27.778,,,,,G 64.583,7
200,0.725,,0.725,,,1.449,0.725,,7.246,36.232,,,,2.899,,44.203,4.348,1.449,,,,S 44.203,7
201,3.030,,0.758,0.758,,,,,,,,0.758,1.515,,0.758,40.152,52.273,,,,,T 52.273,6
202,1.818,,,,,,0.909,0.909,4.545,,,,,0.909,,65.455,0.909,24.545,,,,S 65.455,8
203,2.198,,,1.099,,,,2.198,,,,,84.615,1.099,,,7.692,1.099,,,,P 84.615,4
204,,,,,,,,27.778,,13.333,,,,,,,,58.889,,,,V 58.889,7
205,2.222,,,,,,,1.111,,,,,,,,,46.667,50.000,,,,V 50.000,8
206,,,,2.062,,,,,87.629,,,,,9.278,,,,1.031,,,,K 87.629,8
207,,,,,,,,1.031,,,,1.031,,,,89.691,8.247,,,,,S 89.691,8
208,,,,,87.629,,,1.031,,8.247,,,,,,,,3.093,,,,F 87.629,7
209,,,1.031,,,,,,7.216,,,79.381,,2.062,7.216,2.062,1.031,,,,,N 79.381,7
210,,,,,,,,,3.093,,,,4.124,,92.784,,,,,,,R 92.784,8
211,1.087,,3.261,,,46.739,,,,,,29.348,,,,19.565,,,,,,G 46.739,7
212,1.136,,6.818,85.227,,,1.136,,,,,,,4.545,,1.136,,,,,,E 85.227,8
213,,100.000,,,,,,,,,,,,,,,,,,,,C 100.000,9
