"The table details the residue variety in % for each position in the query sequence."
"Each column shows the % for that amino-acid, found in position ('pos') in the MSA."
"In case there are residues which are not a standard amino-acid in the MSA, they are represented under column 'OTHER'"

pos,A,C,D,E,F,G,H,I,K,L,M,N,P,Q,R,S,T,V,W,Y,OTHER,MAX AA,ConSurf Grade
1,,,,,,,,,95.876,,,,1.031,,1.031,,2.062,,,,,K 95.876,9
2,57.692,,,,,,,,,,,,25.000,,,16.346,,0.962,,,,A 57.692,8
3,,,,0.943,2.830,,,11.321,,3.774,,,,,,0.943,5.660,74.528,,,,V 74.528,7
4,,,,,,,,31.250,,26.786,2.679,,,,,,,39.286,,,,V 39.286,6
5,0.893,,0.893,,4.464,,1.786,3.571,5.357,9.821,,1.786,,,6.250,46.429,17.857,0.893,,,,S 46.429,6
6,,,,,4.464,,,0.893,,83.929,0.893,,1.786,,5.357,,0.893,1.786,,,,L 83.929,7
7,,,16.964,17.857,0.893,,22.321,0.893,1.786,,,6.250,,19.643,,10.714,2.679,,,,,H 22.321,5
8,0.893,,,,,,,,,,,,98.214,,,0.893,,,,,,P 98.214,9
9,0.893,,,,,,,,1.786,0.893,,5.357,83.929,4.464,,1.786,0.893,,,,,P 83.929,7
10,,,,,,,,,,0.893,,,,,,,,,98.214,0.893,,W 98.214,8
11,2.703,,2.703,,1.802,,0.901,13.514,,1.802,,9.009,,,1.802,8.108,36.937,19.820,,0.901,,T 36.937,6
12,,,,0.893,,,0.893,0.893,,,0.893,16.071,6.250,8.036,16.071,8.929,36.607,4.464,,,,T 36.607,6
13,6.195,,,,,,,32.743,,1.770,0.885,1.770,,,,,1.770,54.867,,,,V 54.867,7
14,0.885,,,,69.027,,,,,27.434,,,,,,1.770,,0.885,,,,F 69.027,8
15,0.885,,,9.735,0.885,,0.885,0.885,30.973,0.885,,,4.425,29.204,15.044,1.770,3.540,,,,0.884955752212389,K 30.973,2
16,,,4.425,23.009,,58.407,1.770,,5.310,0.885,0.885,2.655,,0.885,0.885,,,,0.885,,,G 58.407,3
17,1.770,,33.628,62.832,,,,,0.885,,,,,0.885,,,,,,,,E 62.832,8
18,,,1.770,,,,2.655,,12.389,2.655,0.885,22.124,,0.885,17.699,23.009,12.389,,,3.540,,S 23.009,3
19,,,,,,,,2.655,,,0.885,,0.885,,,,,95.575,,,,V 95.575,9
20,2.655,,0.885,0.885,,,,1.770,1.770,0.885,0.885,7.080,,,0.885,1.770,79.646,0.885,,,,T 79.646,7
21,,,,,1.770,,,0.885,,95.575,0.885,,,,,,,0.885,,,,L 95.575,8
22,0.885,0.885,,,,,3.540,7.965,15.044,1.770,1.770,0.885,,2.655,13.274,2.655,39.823,0.885,7.965,,,T 39.823,5
23,0.885,99.115,,,,,,,,,,,,,,,,,,,,C 99.115,9
24,2.655,,11.504,22.124,,0.885,6.195,,7.965,,,18.584,,15.929,5.310,2.655,2.655,0.885,2.655,,,E 22.124,2
25,2.655,,1.770,3.540,,74.336,,,1.770,,,0.885,,0.885,,1.770,1.770,9.735,0.885,,,G 74.336,5
26,17.699,,0.885,,15.044,,,1.770,0.885,5.310,,7.965,22.124,,,8.850,6.195,,,13.274,,P 22.124,4
27,,,2.655,0.885,,0.885,47.788,,0.885,1.770,,7.965,4.425,5.310,9.735,4.425,6.195,,,7.080,,H 47.788,4
28,8.036,,0.893,,11.607,2.679,,0.893,0.893,17.857,0.893,2.679,20.536,2.679,0.893,21.429,5.357,2.679,,,,S 21.429,3
29,2.655,,1.770,,1.770,,5.310,,0.885,22.124,1.770,3.540,39.823,4.425,,6.195,0.885,0.885,,7.965,,P 39.823,1
30,16.814,,0.885,15.044,,39.823,,,2.655,1.770,,,1.770,3.540,9.735,4.425,1.770,1.770,,,,G 39.823,3
31,1.770,0.885,23.009,,,1.770,1.770,,0.885,2.655,,19.469,23.894,7.965,0.885,10.619,1.770,2.655,,,,P 23.894,4
32,,,7.080,11.504,,8.850,5.310,11.504,2.655,3.540,0.885,18.584,1.770,5.310,4.425,14.159,2.655,,,1.770,,N 18.584,2
33,0.893,,4.464,1.786,0.893,5.357,0.893,,11.607,,,4.464,3.571,1.786,5.357,54.464,2.679,0.893,,0.893,,S 54.464,6
34,0.893,,,,,,,10.714,,2.679,,,0.893,,,0.893,75.000,3.571,,5.357,,T 75.000,7
35,2.679,,,3.571,0.893,,0.893,,18.750,16.071,,,,29.464,8.036,9.821,5.357,1.786,1.786,0.893,,Q 29.464,3
36,,,,0.885,,1.770,,,,,,,,,0.885,,,,95.575,,0.884955752212389,W 95.575,8
37,,,,,32.743,,0.885,2.655,0.885,12.389,,,,,0.885,0.885,4.425,0.885,1.770,41.593,,Y 41.593,3
38,,,0.901,,0.901,0.901,41.441,0.901,0.901,24.324,,0.901,,1.802,16.216,0.901,0.901,0.901,1.802,6.306,,H 41.441,3
39,,,9.009,2.703,,13.514,0.901,,0.901,1.802,,56.757,,0.901,1.802,4.505,0.901,,6.306,,,N 56.757,6
40,,,7.207,2.703,2.703,48.649,12.613,,4.505,,,6.306,0.901,2.703,,3.604,0.901,,,7.207,,G 48.649,2
41,0.893,,,1.786,1.786,3.571,3.571,1.786,8.929,14.286,,8.929,,3.571,4.464,25.000,19.643,0.893,,0.893,,S 25.000,1
42,8.929,,,3.571,4.464,7.143,0.893,0.893,1.786,34.821,0.893,0.893,8.036,,8.929,8.929,5.357,2.679,1.786,,,L 34.821,1
43,,,,3.571,2.679,0.893,0.893,34.821,6.250,30.357,0.893,,,4.464,2.679,2.679,2.679,3.571,3.571,,,I 34.821,3
44,1.429,,,7.143,,2.857,5.714,,,1.429,,4.286,24.286,20.000,5.714,20.000,1.429,4.286,1.429,,,P 24.286,2
45,9.195,,1.149,10.345,,10.345,1.149,3.448,3.448,,1.149,4.598,,,1.149,9.195,34.483,10.345,,,,T 34.483,4
46,,,5.814,4.651,,,2.326,6.977,5.814,12.791,2.326,,,31.395,2.326,8.140,15.116,2.326,,,,Q 31.395,4
47,10.345,,3.448,3.448,,,2.299,2.299,,4.598,,3.448,3.448,12.644,1.149,4.598,33.333,14.943,,,,T 33.333,3
48,1.124,,2.247,2.247,,2.247,2.247,1.124,,4.494,,5.618,20.225,20.225,11.236,23.596,2.247,,,1.124,,S 23.596,3
49,4.505,,1.802,9.910,,,0.901,0.901,6.306,0.901,,2.703,21.622,3.604,9.910,27.027,9.910,,,,,S 27.027,3
50,0.893,,,1.786,1.786,,2.679,1.786,3.571,11.607,,1.786,,,,29.464,11.607,0.893,3.571,28.571,,S 29.464,6
51,,1.802,7.207,1.802,3.604,1.802,9.910,2.703,5.405,2.703,,2.703,9.009,1.802,8.108,15.315,2.703,5.405,,18.018,,Y 18.018,2
52,0.893,,,1.786,1.786,9.821,4.464,41.071,10.714,0.893,0.893,0.893,,,8.929,12.500,3.571,1.786,,,,I 41.071,6
53,8.929,,0.893,1.786,14.286,5.357,,3.571,13.393,2.679,,19.643,0.893,3.571,2.679,0.893,13.393,8.036,,,,N 19.643,3
54,14.159,,3.540,3.540,0.885,,0.885,,15.929,,0.885,8.850,1.770,,0.885,23.894,22.124,1.770,,0.885,,S 23.894,4
55,55.263,,0.877,,0.877,,2.632,19.298,,14.035,,,,,,0.877,1.754,4.386,,,,A 55.263,7
56,,0.877,1.754,29.825,,1.754,,,6.140,0.877,1.754,4.386,,10.526,11.404,16.667,11.404,2.632,,,,E 29.825,1
57,4.386,,1.754,3.509,5.263,1.754,2.632,17.544,2.632,1.754,1.754,2.632,,0.877,0.877,1.754,3.509,45.614,,1.754,,V 45.614,2
58,0.877,0.877,0.877,5.263,,0.877,10.526,,14.912,,0.877,21.930,0.877,15.789,11.404,7.018,6.140,,0.877,0.877,,N 21.930,1
59,2.632,,52.632,12.281,,,,,4.386,,1.754,7.018,0.877,3.509,,3.509,10.526,0.877,,,,D 52.632,4
60,1.754,,0.877,,,2.632,,,,,,4.386,12.281,,1.754,71.053,5.263,,,,,S 71.053,8
61,,,,0.877,,98.246,,,0.877,,,,,,,,,,,,,G 98.246,9
62,,,8.696,50.435,,,,1.739,8.696,,,7.826,,3.478,1.739,0.870,0.870,11.304,,4.348,,E 50.435,3
63,,,,0.870,,,,,,,,,,,,,0.870,,,97.391,0.869565217391304,Y 97.391,9
64,0.870,,,0.870,,,0.870,0.870,9.565,,3.478,,,13.913,61.739,1.739,6.087,,,,,R 61.739,5
65,,97.391,,,0.870,,,,,,,,0.870,,,0.870,,,,,,C 97.391,9
66,,,,2.609,,0.870,1.739,,7.826,0.870,,,0.870,78.261,6.957,,,,,,,Q 78.261,7
67,15.652,,,,,,,2.609,1.739,0.870,6.957,5.217,,0.870,2.609,6.087,54.783,1.739,,0.870,,T 54.783,6
68,6.034,,1.724,4.310,,36.207,1.724,0.862,5.172,,0.862,1.724,5.172,17.241,13.793,5.172,,,,,,G 36.207,1
69,3.419,,6.838,0.855,,42.735,1.709,,,22.222,,4.274,0.855,10.256,1.709,1.709,2.564,,,0.855,,G 42.735,4
70,11.111,0.855,,,3.419,,,,0.855,1.709,,,0.855,,,58.974,17.094,,,5.128,,S 58.974,8
71,11.017,,,7.627,,2.542,,1.695,1.695,7.627,5.085,1.695,15.254,0.847,0.847,25.424,11.017,6.780,,0.847,,S 25.424,3
72,0.781,0.781,,0.781,14.062,,0.781,1.562,1.562,35.938,0.781,,14.844,5.469,8.594,1.562,0.781,11.719,,,,L 35.938,1
73,,,,,,,,,,,,,,,,100.000,,,,,,S 100.000,9
74,0.763,,64.122,12.977,,0.763,,,5.344,,,12.977,,1.527,0.763,0.763,,,,,,D 64.122,6
75,4.580,,,,0.763,,,0.763,,0.763,,,84.733,0.763,1.527,6.107,,,,,,P 84.733,7
76,,,,,13.740,,,15.267,,2.290,0.763,,,,0.763,,0.763,66.412,,,,V 66.412,8
77,0.763,,0.763,,,1.527,44.275,0.763,2.290,3.053,,3.053,,19.084,10.687,3.053,3.817,,0.763,6.107,,H 44.275,3
78,,,,,,,,0.763,,90.840,0.763,,,,,0.763,,6.870,,,,L 90.840,9
79,,,12.214,31.298,,2.290,0.763,12.977,2.290,4.580,,4.580,,1.527,1.527,11.450,4.580,9.160,,0.763,,E 31.298,3
80,,,,,22.901,,,11.450,,,0.763,,,,,,,64.885,,,,V 64.885,8
81,,,,,6.061,,18.939,9.848,0.758,2.273,0.758,0.758,,3.030,0.758,48.485,3.788,1.515,,3.030,,S 48.485,6
82,5.970,,,0.746,,,0.746,2.239,2.985,0.746,0.746,11.940,2.239,,9.701,35.821,8.209,2.239,,15.672,,S 35.821,5
83,10.072,,66.187,3.597,,17.266,,,,,,1.439,,,,,,1.439,,,,D 66.187,6
84,,,0.690,,,,,,,4.828,,2.069,2.759,0.690,1.379,5.517,,0.690,81.379,,,W 81.379,5
85,,,,,0.680,,,1.361,,94.558,,,0.680,,,,,2.721,,,,L 94.558,8
86,,0.680,,,0.680,,2.041,49.660,,34.694,,0.680,,,,2.041,2.721,5.442,,1.361,,I 49.660,7
87,,,,,,,,2.013,,97.315,,,0.671,,,,,,,,,L 97.315,9
88,,,1.333,1.333,,,0.667,,,2.667,,,,90.000,2.667,,,0.667,0.667,,,Q 90.000,8
89,37.333,,,,,8.000,,0.667,,0.667,0.667,,2.000,,,4.667,19.333,26.667,,,,A 37.333,6
90,1.333,,,0.667,,,,,,1.333,,,59.333,3.333,1.333,25.333,2.000,1.333,4.000,,,P 59.333,6
91,10.667,,0.667,,1.333,0.667,10.667,0.667,0.667,6.667,,0.667,12.000,10.667,9.333,17.333,2.000,0.667,,15.333,,S 17.333,2
92,17.143,,4.762,5.714,,2.857,1.905,,3.810,15.238,0.952,4.762,1.905,3.810,21.905,,2.857,0.952,9.524,1.905,,R 21.905,1
93,10.667,,1.333,4.667,,0.667,,2.000,0.667,3.333,1.333,,25.333,,,14.667,1.333,32.667,,1.333,,V 32.667,5
94,1.333,,,,24.000,,,11.333,,6.000,0.667,,,,,,,56.000,,0.667,,V 56.000,7
95,,,,0.667,54.667,,1.333,1.333,1.333,3.333,1.333,1.333,,16.667,,0.667,13.333,,,4.000,,F 54.667,7
96,,,,97.333,,,,0.667,,,,,,0.667,,,,1.333,,,,E 97.333,9
97,1.333,,,2.000,,96.000,,,0.667,,,,,,,,,,,,,G 96.000,8
98,,,57.333,38.000,,0.667,,,2.000,,0.667,0.667,,0.667,,,,,,,,D 57.333,7
99,4.667,,3.333,1.333,0.667,,,2.000,1.333,2.000,0.667,4.000,41.333,,2.667,22.000,12.667,1.333,,,,P 41.333,3
100,,,,,3.333,,,23.333,,58.667,0.667,,,,,,,14.000,,,,L 58.667,8
101,8.000,0.667,2.000,0.667,2.667,,2.667,6.000,,4.667,2.000,,0.667,3.333,4.000,2.000,17.333,41.333,1.333,0.667,,V 41.333,3
102,,,,,,,,4.667,,84.667,10.000,,,,,,,0.667,,,,L 84.667,8
103,,,,,,,2.667,,4.000,0.667,1.333,0.667,,4.000,84.667,0.667,1.333,,,,,R 84.667,7
104,,98.667,,,,,,,,,,,,,,,,,,1.333,,C 98.667,9
105,,,,,,,42.000,,1.333,0.667,,,,24.667,26.000,1.333,,,2.667,1.333,,H 42.000,7
106,19.333,,,3.333,,42.000,,,5.333,,,,,,2.000,25.333,2.000,0.667,,,,G 42.000,6
107,0.667,,,2.667,0.667,0.667,,,12.667,0.667,1.333,,1.333,1.333,12.000,1.333,,,64.667,,,W 64.667,4
108,4.698,,4.027,1.342,,4.698,,,34.899,,,6.711,2.685,15.436,11.409,2.013,0.671,0.671,,10.067,0.671140939597315,K 34.899,3
109,0.671,,32.886,6.040,,6.711,,,6.040,,,41.611,,,2.013,2.685,1.342,,,,,N 41.611,5
110,5.369,,1.342,5.369,,2.685,,3.356,32.886,3.356,,2.685,,1.342,7.383,1.342,6.040,5.369,18.792,2.685,,K 32.886,1
111,8.054,,7.383,1.342,0.671,,0.671,1.342,12.752,10.067,1.342,5.369,25.503,1.342,2.013,2.685,8.725,9.396,0.671,0.671,,P 25.503,1
112,6.081,,,,,,,10.135,,44.595,,,2.027,,,,3.378,33.784,,,,L 44.595,5
113,5.442,,,1.361,4.762,2.041,6.122,2.041,6.122,,,6.803,,2.041,6.122,9.524,18.367,1.361,0.680,27.211,,Y 27.211,1
114,5.369,,1.342,2.013,,,1.342,,38.255,0.671,1.342,16.107,,19.463,4.698,1.342,7.383,0.671,,,,K 38.255,5
115,1.333,,,,,,,13.333,5.333,10.000,6.667,,2.000,,2.000,,0.667,58.667,,,,V 58.667,6
116,1.379,,,0.690,0.690,,7.586,8.966,13.103,4.828,1.379,0.690,,4.138,2.759,5.517,35.172,12.414,,0.690,,T 35.172,5
117,,,,,48.276,,,,,2.759,,,,,,,,,,48.966,,Y 48.966,7
118,,0.667,,,14.000,,1.333,,1.333,4.000,,,,,,,2.667,1.333,,74.667,,Y 74.667,6
119,,,,,,,12.000,,36.000,0.667,0.667,,,22.667,23.333,,,,4.000,0.667,,K 36.000,5
120,,,53.333,1.333,,0.667,0.667,,,,,44.000,,,,,,,,,,D 53.333,8
121,,,7.333,4.000,,72.000,,,2.667,,,6.000,,0.667,5.333,1.333,,,,0.667,,G 72.000,3
122,3.333,,,5.333,,,0.667,4.000,48.000,1.333,1.333,3.333,,10.000,6.667,10.667,3.333,2.000,,,,K 48.000,4
123,35.333,,2.667,2.667,4.667,8.667,,6.000,3.333,2.667,,,6.667,2.667,1.333,11.333,2.667,9.333,,,,A 35.333,3
124,,,,,13.333,,,14.667,14.000,44.000,1.333,,,0.667,2.000,0.667,,9.333,,,,L 44.000,6
125,6.040,0.671,0.671,2.685,2.013,12.752,6.040,,28.859,,,1.342,3.356,6.040,14.765,9.396,4.027,0.671,0.671,,,K 28.859,3
126,2.721,,2.041,0.680,34.694,1.361,,0.680,2.041,2.041,,2.721,12.925,,,7.483,2.721,2.721,,25.170,,F 34.694,1
127,0.676,,,0.676,22.297,0.676,0.676,,,5.405,,0.676,16.892,0.676,0.676,35.135,3.378,1.351,6.081,4.730,,S 35.135,5
128,0.676,,3.378,2.703,,12.162,23.649,,6.757,1.351,0.676,10.135,6.081,,2.027,8.108,0.676,2.703,,18.919,,H 23.649,2
129,2.721,,7.483,12.925,2.721,2.041,2.041,,13.605,2.721,0.680,6.803,12.245,6.803,3.401,14.966,2.041,2.721,2.721,1.361,,S 14.966,1
130,2.000,,7.333,0.667,0.667,2.667,0.667,,4.667,3.333,,38.667,,0.667,,30.000,6.000,2.000,,0.667,,N 38.667,4
131,6.040,,5.369,,4.027,1.342,5.369,,7.383,2.013,,2.685,4.027,4.027,7.383,39.597,6.040,,2.013,2.685,,S 39.597,4
132,1.333,0.667,16.000,26.667,3.333,0.667,,1.333,2.000,0.667,,26.000,2.000,2.667,,10.667,4.000,2.000,,,,E 26.667,3
133,,,,,46.000,,,10.000,,28.667,,,,,,,0.667,1.333,0.667,12.667,,F 46.000,5
134,,,,,2.667,,10.667,0.667,1.333,7.333,,1.333,3.333,2.000,2.667,32.667,29.333,,1.333,4.667,,S 32.667,5
135,,,,,,,,74.667,,8.667,3.333,,,,2.000,,,11.333,,,,I 74.667,8
136,11.333,,1.333,0.667,,10.667,4.667,,1.333,12.000,,4.667,36.000,6.000,1.333,5.333,4.000,0.667,,,,P 36.000,3
137,4.054,,0.676,2.703,,0.676,4.054,,18.243,0.676,1.351,9.459,0.676,18.919,12.838,11.486,4.730,8.108,,1.351,,Q 18.919,2
138,65.333,,0.667,,,,,1.333,,0.667,,,,,,,12.667,19.333,,,,A 65.333,8
139,2.000,,2.667,,,2.667,1.333,,4.667,1.333,0.667,24.000,,10.000,12.667,19.333,17.333,1.333,,,,N 24.000,6
140,10.638,0.709,,8.511,1.418,0.709,7.801,2.837,5.674,25.532,4.255,,2.837,1.418,2.128,6.383,7.092,11.348,,0.709,,L 25.532,1
141,8.667,,0.667,9.333,,4.000,1.333,,11.333,,,12.667,,3.333,4.667,36.667,6.000,1.333,,,,S 36.667,4
142,2.000,,46.667,0.667,,,31.333,0.667,0.667,0.667,0.667,9.333,,,,5.333,,,,2.000,,D 46.667,7
143,1.333,,,,,3.333,,,0.667,,,22.000,,,2.667,69.333,0.667,,,,,S 69.333,8
144,,,0.667,,0.667,94.000,,,,,,,,,,4.667,,,,,,G 94.000,9
145,4.000,1.333,7.333,4.667,0.667,,12.000,7.333,8.667,4.000,,6.000,0.667,6.000,9.333,10.667,12.667,1.333,0.667,2.667,,T 12.667,2
146,,,,,0.667,,,,,,,,,,,,,,,99.333,,Y 99.333,9
147,,,,0.667,9.333,0.667,49.333,,0.667,,,1.333,,13.333,5.333,4.667,0.667,,0.667,13.333,,H 49.333,6
148,,99.333,,,,,,,,,,,,,,,,,,0.667,,C 99.333,9
149,2.000,,0.667,3.333,,,,4.667,7.333,,0.667,,,0.667,8.667,39.333,30.000,1.333,1.333,,,S 39.333,5
150,17.333,,,0.667,,74.000,,0.667,2.667,,,,,,,0.667,2.667,1.333,,,,G 74.000,6
151,1.333,0.667,2.667,4.000,6.667,,5.333,12.000,6.000,6.667,9.333,2.667,0.667,4.667,3.333,6.000,14.667,8.000,0.667,4.667,,T 14.667,1
152,1.550,,0.775,10.078,4.651,33.333,3.876,3.876,0.775,3.876,,0.775,11.628,7.752,3.101,5.426,0.775,3.876,1.550,2.326,,G 33.333,1
153,1.342,4.027,4.027,0.671,0.671,11.409,4.698,,14.765,6.040,4.027,4.027,1.342,8.054,11.409,16.107,3.356,2.013,0.671,1.342,,S 16.107,1
154,6.040,4.698,2.685,2.013,2.013,3.356,7.383,4.027,6.711,4.698,4.027,6.711,1.342,4.027,3.356,12.081,10.738,2.685,4.698,6.711,,S 12.081,1
155,1.333,,1.333,3.333,0.667,,2.667,0.667,8.667,7.333,2.000,11.333,26.000,4.000,11.333,6.667,8.667,2.667,,1.333,,P 26.000,1
156,,,0.667,18.667,8.667,0.667,12.000,0.667,4.000,4.000,8.000,0.667,,8.000,4.667,1.333,2.000,9.333,1.333,15.333,,E 18.667,2
157,1.333,,2.000,3.333,10.000,0.667,,4.000,4.000,0.667,0.667,1.333,,1.333,6.000,23.333,38.667,2.000,,0.667,,T 38.667,4
158,11.333,,,,,,0.667,,,,,,,,,85.333,2.667,,,,,S 85.333,9
159,21.333,,4.000,13.333,,3.333,,,10.667,,,13.333,2.667,8.000,4.000,14.667,4.667,,,,,A 21.333,3
160,8.000,,0.667,2.000,1.333,11.333,1.333,2.000,12.667,1.333,1.333,,18.000,0.667,4.667,14.667,14.667,2.000,,3.333,,P 18.000,1
161,4.667,0.667,,,,,0.667,2.667,4.000,15.333,1.333,,,0.667,2.000,0.667,5.333,62.000,,,,V 62.000,6
162,22.000,0.667,2.000,3.333,,,1.333,1.333,9.333,0.667,3.333,13.333,2.000,0.667,6.000,13.333,10.667,6.000,0.667,2.667,0.666666666666667,A 22.000,1
163,,,,,0.667,,,63.333,,6.000,,,,,,0.667,,29.333,,,,I 63.333,7
164,2.000,,1.333,3.333,1.333,,,5.333,5.333,1.333,0.667,,,20.667,2.000,5.333,50.000,1.333,,,,T 50.000,5
165,,,,,1.333,,,13.333,,,,,0.667,,,0.667,,84.000,,,,V 84.000,8
166,,,,1.342,,,0.671,1.342,15.436,2.013,,,0.671,67.114,7.383,2.685,1.342,,,,,Q 67.114,7
167,1.471,,3.676,78.676,,6.618,,,5.882,,,,,1.471,1.471,0.735,,,,,,E 78.676,7
168,3.650,,0.730,1.460,0.730,6.569,,,,78.102,0.730,0.730,5.109,,,2.190,,,,,,L 78.102,6
169,0.763,,,1.527,80.153,0.763,1.527,,1.527,1.527,,0.763,4.580,,0.763,4.580,,0.763,,0.763,,F 80.153,6
170,10.687,,0.763,2.290,,,0.763,,0.763,6.107,,0.763,49.618,8.397,3.817,10.687,5.344,,,,,P 49.618,2
171,23.077,,2.308,2.308,,0.769,6.923,3.077,,1.538,,0.769,16.923,0.769,11.538,14.615,9.231,4.615,,1.538,,A 23.077,1
172,0.800,,,,,,,,2.400,,,0.800,93.600,,,2.400,,,,,,P 93.600,8
173,1.600,,,6.400,,0.800,,2.400,8.000,2.400,0.800,,,3.200,1.600,8.800,,62.400,,1.600,,V 62.400,5
174,,,,,0.813,0.813,,4.878,,82.114,,0.813,2.439,,,1.626,2.439,1.626,,2.439,,L 82.114,6
175,,,,1.639,,,0.820,1.639,17.213,3.279,0.820,1.639,1.639,,35.246,14.754,18.852,,2.459,,,R 35.246,3
176,53.333,,,,,0.833,,4.167,,5.833,2.500,,2.500,,,3.333,6.667,20.833,,,,A 53.333,5
177,4.167,,2.500,,,0.833,,5.000,0.833,10.000,3.333,,0.833,1.667,2.500,42.500,17.500,8.333,,,,S 42.500,5
178,3.390,,2.542,,4.237,8.475,0.847,,1.695,12.712,0.847,2.542,35.593,0.847,,17.797,3.390,4.237,,0.847,,P 35.593,1
179,2.542,,4.237,,4.237,0.847,0.847,0.847,0.847,4.237,,,5.932,1.695,4.237,58.475,5.085,3.390,0.847,1.695,,S 58.475,5
180,27.143,1.429,,1.429,4.286,1.429,1.429,2.857,,7.143,,,15.714,4.286,4.286,12.857,7.143,7.143,1.429,,,A 27.143,1
181,1.770,,1.770,30.088,,2.655,1.770,0.885,3.540,3.540,,,13.274,28.319,0.885,2.655,3.540,1.770,2.655,,0.884955752212389,E 30.088,3
182,7.080,,,,,1.770,,0.885,,23.894,0.885,,57.522,,,1.770,0.885,5.310,,,,P 57.522,5
183,0.909,1.818,,,0.909,,3.636,18.182,0.909,11.818,2.727,,1.818,15.455,19.091,1.818,19.091,0.909,0.909,,,RT 19.091,3
184,1.887,,1.887,73.585,0.943,8.491,,,2.830,,,,0.943,0.943,,5.660,2.830,,,,,E 73.585,6
185,4.717,0.943,,1.887,,88.679,,,,0.943,,,0.943,,1.887,,,,,,,G 88.679,7
186,3.670,,8.257,,,19.266,1.835,,6.422,,0.917,15.596,,,0.917,34.862,7.339,0.917,,,,S 34.862,2
187,6.422,,,,,8.257,3.670,,,15.596,0.917,,45.872,0.917,0.917,13.761,0.917,2.752,,,,P 45.872,1
188,0.917,,,,,,,0.917,,11.009,9.174,,,,,0.917,,76.147,0.917,,,V 76.147,7
189,4.587,,,,,,1.835,,1.835,2.752,2.752,17.431,,,0.917,0.917,61.468,5.505,,,,T 61.468,6
190,,,,,1.835,,,3.670,,91.743,0.917,,,,,,,1.835,,,,L 91.743,8
191,1.835,,,,,0.917,0.917,0.917,3.670,,,3.670,,,17.431,46.789,23.853,,,,,S 46.789,7
192,,98.148,,,,,,,,,,,,,,,,1.852,,,,C 98.148,9
193,0.935,,9.346,50.467,,1.869,2.804,0.935,5.607,0.935,,,,23.364,0.935,,0.935,1.869,,,,E 50.467,5
194,1.869,,,,,,,0.935,,,,,,,,,97.196,,,,,T 97.196,9
195,1.887,0.943,,8.491,,0.943,3.774,,35.849,0.943,0.943,,,28.302,13.208,0.943,,,3.774,,,K 35.849,4
196,,,,,,,,,,96.226,0.943,,1.887,,,0.943,,,,,,L 96.226,8
197,3.810,,,,,,18.095,,,14.286,,1.905,29.524,,3.810,24.762,1.905,,,1.905,,P 29.524,4
198,0.952,,,,0.952,0.952,,,,30.476,,,57.143,1.905,0.952,6.667,,,,,,P 57.143,4
199,2.857,,0.952,15.238,,,4.762,,,3.810,,,2.857,63.810,1.905,,,,1.905,1.905,,Q 63.810,5
200,,,,,,,,,19.048,,0.952,,,0.952,77.143,1.905,,,,,,R 77.143,8
201,0.952,,,3.810,,1.905,,,,4.762,,,31.429,0.952,10.476,45.714,,,,,,S 45.714,6
202,24.762,,33.333,1.905,,15.238,4.762,,,,,6.667,,,0.952,4.762,4.762,,0.952,1.905,,D 33.333,4
203,13.333,,,,,0.952,,2.857,,15.238,0.952,,0.952,,,8.571,37.143,20.000,,,,T 37.143,5
204,,,,4.717,,0.943,2.830,,2.830,0.943,,,11.321,40.566,29.245,2.830,,2.830,0.943,,,Q 40.566,5
205,,,,,,,,,,100.000,,,,,,,,,,,,L 100.000,9
206,,,,,1.887,,10.377,,1.887,23.585,,,,34.906,7.547,,,,1.887,17.925,,Q 34.906,6
207,,,,,91.509,,,,,,,,,,,,,,,7.547,0.943396226415094,F 91.509,8
208,14.151,8.491,,,2.830,0.943,4.717,2.830,,2.830,,0.943,,,3.774,53.774,1.887,2.830,,,,S 53.774,6
209,,,,,98.113,,,,,0.943,0.943,,,,,,,,,,,F 98.113,9
210,,,,,35.849,,9.434,,0.943,1.887,,,,0.943,,,,,,50.943,,Y 50.943,6
211,0.943,,,,,0.943,,,39.623,,8.491,0.943,,,40.566,1.887,0.943,5.660,,,,R 40.566,7
212,,,46.226,9.434,,19.811,0.943,,,,,13.208,,,,,,,,9.434,0.943396226415094,D 46.226,6
213,0.952,,12.381,,,40.000,0.952,,0.952,0.952,,9.524,,,3.810,30.476,,,,,,G 40.000,3
214,,,,3.810,,3.810,11.429,,15.238,,0.952,,,19.048,40.000,,3.810,0.952,0.952,,,R 40.000,4
215,10.377,,,,,,,7.547,,0.943,0.943,4.717,7.547,,1.887,4.717,42.453,18.868,,,,T 42.453,3
216,,,,,0.943,,,7.547,,58.491,1.887,,,0.943,,,,30.189,,,,L 58.491,6
217,0.943,,,,,0.943,0.943,,5.660,0.943,3.774,,1.887,14.151,34.906,34.906,0.943,,,,,RS 34.906,6
218,,,16.190,0.952,,42.857,1.905,,,,,7.619,,,9.524,18.095,,1.905,,0.952,,G 42.857,4
219,,1.905,,,14.286,1.905,,,1.905,,0.952,,4.762,,37.143,,,,36.190,0.952,,R 37.143,5
220,,,15.094,,,22.642,,0.943,3.774,,0.943,14.151,,0.943,2.830,34.906,3.774,,,,,S 34.906,6
221,0.962,,,1.923,,1.923,0.962,0.962,3.846,17.308,0.962,0.962,9.615,0.962,8.654,20.192,17.308,2.885,10.577,,,S 20.192,3
222,0.952,,0.952,,0.952,7.619,5.714,,,0.952,,,,0.952,1.905,79.048,0.952,,,,,S 79.048,8
223,8.571,,,,,,1.905,,,0.952,,3.810,39.048,2.857,,40.952,0.952,,0.952,,,S 40.952,5
224,,,3.810,73.333,,0.952,,,5.714,,,5.714,,4.762,0.952,,0.952,3.810,,,,E 73.333,6
225,,,,,24.762,,1.905,0.952,,37.143,,,,,,,,,,35.238,,L 37.143,5
226,,5.714,,,,3.810,6.667,,0.952,,0.952,,,60.952,3.810,0.952,11.429,,4.762,,,Q 60.952,5
227,,,,,,0.962,,71.154,,3.846,2.885,,,,0.962,,0.962,19.231,,,,I 71.154,7
228,3.810,,0.952,,,,0.952,,,20.952,,,59.048,1.905,,2.857,9.524,,,,,P 59.048,6
229,27.885,,,14.423,,3.846,,,1.923,,0.962,0.962,,,2.885,7.692,38.462,0.962,,,,T 38.462,5
230,43.269,,,,,,,14.423,,3.846,13.462,,7.692,,,1.923,1.923,13.462,,,,A 43.269,6
231,,,,11.429,,5.714,,0.952,12.381,,,0.952,,7.619,13.333,15.238,1.905,,30.476,,,W 30.476,3
232,1.905,,0.952,20.000,,0.952,,1.905,5.714,7.619,,,1.905,,29.524,7.619,11.429,10.476,,,,R 29.524,3
233,10.476,,3.810,63.810,,11.429,,,2.857,1.905,0.952,,,3.810,,0.952,,,,,,E 63.810,4
234,0.952,,64.762,10.476,,0.952,17.143,,,,,5.714,,,,,,,,,,D 64.762,8
235,3.810,,,,,,,,,10.476,,,0.952,,,80.952,2.857,,,,0.952380952380952,S 80.952,9
236,,,0.962,8.654,,84.615,,,,,,,,0.962,4.808,,,,,,,G 84.615,8
237,0.952,,,,7.619,,,0.952,0.952,21.905,,6.667,0.952,,,55.238,0.952,1.905,,1.905,,S 55.238,6
238,,,,,,,0.952,,,,,,,,,,,,,99.048,,Y 99.048,9
239,,0.952,,,,1.905,,,,0.952,,,,,1.905,8.571,7.619,,78.095,,,W 78.095,4
240,,100.000,,,,,,,,,,,,,,,,,,,,C 100.000,9
241,,,1.905,71.429,,6.667,,,8.571,,,,,8.571,,0.952,,1.905,,,,E 71.429,6
242,81.905,,,,,,,0.952,,,,,,,,0.952,2.857,13.333,,,,A 81.905,8
243,46.667,,,17.143,,1.905,,,4.762,,1.905,,,10.476,3.810,2.857,7.619,2.857,,,,A 46.667,4
244,9.524,,,0.952,,,,,,0.952,,,4.762,,0.952,3.810,79.048,,,,,T 79.048,8
245,10.476,,2.857,45.714,,,,,1.905,0.952,4.762,,4.762,0.952,,0.952,0.952,25.714,,,,E 45.714,5
246,,,32.692,,,9.615,,0.962,,,,4.808,,,,11.538,40.385,,,,,T 40.385,7
247,,,,0.952,,30.476,20.952,,,0.952,,10.476,3.810,3.810,13.333,11.429,0.952,1.905,,,0.952380952380952,G 30.476,4
248,,,1.905,,0.952,4.762,0.952,,0.952,,0.952,12.381,,22.857,8.571,40.952,3.810,0.952,,,,S 40.952,5
249,,,,,,,,23.810,,0.952,,,,,,,0.952,74.286,,,,V 74.286,6
250,,,,,,,3.810,6.667,5.714,8.571,1.905,,,17.143,26.667,2.857,3.810,4.762,15.238,1.905,0.952380952380952,R 26.667,2
251,,,,,,,,,94.286,,,,,,2.857,2.857,,,,,,K 94.286,9
252,,0.952,1.905,,,1.905,4.762,,2.857,0.952,0.952,0.952,,35.238,44.762,,,,4.762,,,R 44.762,5
253,,,,,,,,,,,,,,,,100.000,,,,,,S 100.000,9
254,,,,,,,,,,27.451,,3.922,52.941,4.902,2.941,7.843,,,,,,P 52.941,4
255,,,0.990,15.842,,3.960,1.980,,9.901,,1.980,,7.921,20.792,17.822,0.990,2.970,3.960,9.901,0.990,,Q 20.792,1
256,1.031,,,,3.093,,,1.031,,65.979,3.093,,,,1.031,18.557,1.031,5.155,,,,L 65.979,6
257,,,1.053,45.263,,,4.211,,5.263,1.053,1.053,1.053,2.105,33.684,1.053,2.105,1.053,,1.053,,,E 45.263,5
258,,,,,1.053,,,60.000,,30.526,,,,,,,,8.421,,,,I 60.000,8
259,2.151,,2.151,1.075,,1.075,18.280,,3.226,,,,7.527,26.882,27.957,5.376,2.151,,1.075,1.075,,R 27.957,4
260,1.136,,,,,10.227,,3.409,,2.273,1.136,,,,,1.136,,80.682,,,,V 80.682,8
261,,,,,1.786,1.786,7.143,,,16.071,1.786,,5.357,44.643,16.071,,,1.786,1.786,1.786,,Q 44.643,2
262,10.870,,2.174,,,76.087,,,,,,,,,4.348,4.348,,2.174,,,,G 76.087,5
263,,,2.703,8.108,,,5.405,2.703,2.703,27.027,,,43.243,,,5.405,,2.703,,,,P 43.243,1
264,,,,3.226,3.226,,,,3.226,,,,3.226,38.710,6.452,38.710,,3.226,,,,QS 38.710,2
265,4.545,,,,,,,9.091,4.545,4.545,4.545,,,4.545,4.545,59.091,4.545,,,,,S 59.091,3*
266,,,,,,,,,,,,,75.000,,5.000,20.000,,,,,,P 75.000,6
267,10.526,,,,,,,21.053,,,,5.263,5.263,,,,52.632,5.263,,,,T 52.632,3
268,6.667,,,,6.667,,6.667,,,6.667,,,46.667,,,20.000,,6.667,,,,P 46.667,1
269,,,,,,,,16.667,,8.333,,,,,,,8.333,66.667,,,,V 66.667,4
270,,9.091,,,,9.091,9.091,,,,,,,,,,9.091,,63.636,,,W 63.636,1
271,,,,,72.727,,9.091,,,18.182,,,,,,,,,,,,F 72.727,2*
272,,,,,,,100.000,,,,,,,,,,,,,,,H 100.000,8
273,,,,,,,100.000,,,,,,,,,,,,,,,H 100.000,7*
274,,,,,,,100.000,,,,,,,,,,,,,,,H 100.000,6*
275,,,,,,,100.000,,,,,,,,,,,,,,,H 100.000,6*
