c<B>r<15>R<GLU> 1.375
c<B>r<16>R<PRO> 1.42857
c<B>r<17>R<ALA> 1.6
c<B>r<18>R<ARG> 1.5
c<B>r<19>R<ILE> 1.66667
c<B>r<20>R<THR> 1.66667
c<B>r<21>R<LEU> 1.4
c<B>r<22>R<THR> 1.5
c<B>r<23>R<TYR> 1.54545
c<B>r<24>R<LYS> 1.42857
c<B>r<25>R<GLU> 1.14286
c<B>r<26>R<GLY> 1.33333
c<B>r<27>R<ALA> 1
c<B>r<28>R<PRO> 1
c<B>r<29>R<ILE> 1.28571
c<B>r<30>R<THR> 1.66667
c<B>r<31>R<ILE> 1.4
c<B>r<37>R<ILE> 1
c<B>r<43>R<VAL> 1.5
c<B>r<46>R<LEU> 1.5
c<B>r<48>R<LEU> 1
c<B>r<52>R<LYS> 1
c<B>r<53>R<THR> 1
c<B>r<54>R<GLY> 1
c<B>r<56>R<THR> 1.66667
c<B>r<58>R<THR> 1
c<B>r<62>R<PHE> 1.5
c<B>r<72>R<LEU> 1
c<B>r<74>R<PHE> 1.66667
c<B>r<84>R<PHE> 1.25
c<B>r<96>R<PHE> 1
c<B>r<110>R<ASP> 1.25
c<B>r<111>R<ASP> 1.5
c<B>r<112>R<VAL> 1.75
c<B>r<113>R<VAL> 1.25
c<B>r<123>R<VAL> 1
c<B>r<133>R<LEU> 1.5
c<B>r<134>R<ALA> 2
c<B>r<135>R<ALA> 1.33333
c<B>r<136>R<GLY> 1
c<B>r<137>R<LYS> 1
c<B>r<138>R<TYR> 1.9
c<B>r<139>R<THR> 1.33333
c<B>r<140>R<ASP> 1.75
c<B>r<141>R<ALA> 1.5
c<B>r<142>R<VAL> 2
c<B>r<143>R<THR> 1.6
c<B>r<144>R<VAL> 1.66667
c<B>r<145>R<THR> 1.5
c<B>r<146>R<VAL> 1.5
c<B>r<147>R<SER> 1.4
c<B>r<148>R<ASN> 1.4
c<B>r<149>R<GLN> 1.44444
