V1;V2;Weight
1AO7 D K 1;1AO7 D S 25;10.2127
1AO7 D K 1;1AO7 D D 26;25.8172
1AO7 D K 1;1AO7 D S 29;7.76371
1AO7 D K 1;1AO7 D T 93;7.74955
1AO7 D K 1;1AO7 D T 98;11.4092
1AO7 D K 1;1AO7 D K 103;7.03804
1AO7 D S 25;1AO7 D D 26;21.4986
1AO7 D S 25;1AO7 D R 27;7.33574
1AO7 D D 26;1AO7 D R 27;18.6085
1AO7 D D 26;1AO7 D G 28;14.7791
1AO7 D D 26;1AO7 D S 29;15.5628
1AO7 D D 26;1AO7 D T 98;14.2024
1AO7 D R 27;1AO7 D G 28;20.0792
1AO7 D R 27;1AO7 D S 29;8.13756
1AO7 D R 27;1AO7 D K 68;8.89332
1AO7 D G 28;1AO7 D S 29;18.8789
1AO7 D G 28;1AO7 D Q 30;9.75097
1AO7 D G 28;1AO7 D T 98;12.7597
1AO7 D S 29;1AO7 D Q 30;20.3236
1AO7 D S 29;1AO7 D S 31;0.170352
1AO7 D S 29;1AO7 D K 68;10.5705
1AO7 D S 29;1AO7 D T 93;6.25431
1AO7 D S 29;1AO7 D T 98;9.61633
1AO7 D Q 30;1AO7 D S 31;24.6614
1AO7 D Q 30;1AO7 D Y 50;14.9942
1AO7 D Q 30;1AO7 D K 68;4.84071
1AO7 D Q 30;1AO7 D T 93;4.73151
1AO7 D Q 30;1AO7 D T 98;18.1462
1AO7 D S 31;1AO7 D Y 50;8.66909
1AO7 D S 31;1AO7 D T 93;22.6981
1AO7 D S 31;1AO7 D T 98;1.38711
1AO7 D S 31;1AO7 E R 95;0.136166
1AO7 D S 31;1AO7 E P 103;9.10575
1AO7 D Y 50;1AO7 D S 51;30.4397
1AO7 D Y 50;1AO7 D K 68;5.69417
1AO7 D Y 50;1AO7 E R 102;0.239013
1AO7 D Y 50;1AO7 E P 103;17.4079
1AO7 D S 51;1AO7 D N 52;26.8457
1AO7 D S 51;1AO7 D K 68;3.48989
1AO7 D N 52;1AO7 D K 68;28.8186
1AO7 D T 93;1AO7 D T 98;22.9166
1AO7 D T 93;1AO7 D D 99;6.72745
1AO7 D T 93;1AO7 D G 102;4.06058
1AO7 D T 93;1AO7 D K 103;7.0813
1AO7 D T 93;1AO7 E R 95;11.1993
1AO7 D T 98;1AO7 D D 99;28.8455
1AO7 D T 98;1AO7 D G 102;7.31939
1AO7 D T 98;1AO7 D K 103;1.06461
1AO7 D D 99;1AO7 D S 100;18.3604
1AO7 D D 99;1AO7 D W 101;11.8881
1AO7 D D 99;1AO7 D G 102;16.1399
1AO7 D D 99;1AO7 E R 95;6.93021
1AO7 D S 100;1AO7 D W 101;24.6562
1AO7 D S 100;1AO7 D G 102;0.914548
1AO7 D S 100;1AO7 E R 95;14.2532
1AO7 D S 100;1AO7 E G 97;21.3219
1AO7 D S 100;1AO7 E L 98;9.41683
1AO7 D S 100;1AO7 E G 100;2.13397
1AO7 D W 101;1AO7 D G 102;20.8074
1AO7 D W 101;1AO7 D K 103;2.48261
1AO7 D W 101;1AO7 E I 54;2.62321
1AO7 D W 101;1AO7 E G 97;7.17011
1AO7 D W 101;1AO7 E L 98;25.5919
1AO7 D G 102;1AO7 D K 103;26.2817
1AO7 D G 102;1AO7 E R 95;10.5598
1AO7 D K 103;1AO7 E R 95;0.151219
1AO7 E E 30;1AO7 E R 95;1.24665
1AO7 E E 30;1AO7 E G 97;4.08129
1AO7 E E 30;1AO7 E L 98;10.9628
1AO7 E E 30;1AO7 E A 99;15.8074
1AO7 E R 95;1AO7 E G 97;5.06511
1AO7 E R 95;1AO7 E P 103;18.5537
1AO7 E G 97;1AO7 E L 98;21.5136
1AO7 E G 97;1AO7 E A 99;3.40281
1AO7 E G 97;1AO7 E G 100;11.9956
1AO7 E L 98;1AO7 E A 99;16.6855
1AO7 E L 98;1AO7 E G 100;2.46823
1AO7 E A 99;1AO7 E G 100;16.3998
1AO7 E A 99;1AO7 E R 102;11.8517
1AO7 E G 100;1AO7 E G 101;17.0005
1AO7 E G 100;1AO7 E R 102;16.4676
1AO7 E G 101;1AO7 E R 102;20.7132
1AO7 E G 101;1AO7 E P 103;4.85515
1AO7 E R 102;1AO7 E P 103;22.4677
