V1;V2;Weight
1BD2 D Q 1;1BD2 D N 26;20.833
1BD2 D Q 1;1BD2 D F 29;13.9276
1BD2 D Q 1;1BD2 D E 94;22.6819
1BD2 D Q 1;1BD2 D K 103;26.2828
1BD2 D N 26;1BD2 D S 27;23.0584
1BD2 D N 26;1BD2 D M 28;21.9713
1BD2 D N 26;1BD2 D F 29;30.4827
1BD2 D N 26;1BD2 D E 94;9.13603
1BD2 D S 27;1BD2 D M 28;19.2988
1BD2 D S 27;1BD2 D F 29;10.4222
1BD2 D M 28;1BD2 D F 29;19.2132
1BD2 D M 28;1BD2 D D 30;8.52122
1BD2 D M 28;1BD2 D E 94;29.1441
1BD2 D F 29;1BD2 D D 30;21.2033
1BD2 D F 29;1BD2 D Y 31;1.67974
1BD2 D F 29;1BD2 D S 51;1.78099
1BD2 D F 29;1BD2 D K 68;1.75735
1BD2 D F 29;1BD2 D M 93;11.1118
1BD2 D F 29;1BD2 D E 94;11.802
1BD2 D D 30;1BD2 D Y 31;25.1483
1BD2 D D 30;1BD2 D S 50;0.329474
1BD2 D D 30;1BD2 D S 51;18.9753
1BD2 D D 30;1BD2 D M 93;9.63846
1BD2 D D 30;1BD2 D E 94;1.9702
1BD2 D D 30;1BD2 D G 95;11.5754
1BD2 D Y 31;1BD2 D S 50;10.7505
1BD2 D Y 31;1BD2 D S 51;0.924971
1BD2 D Y 31;1BD2 D M 93;27.013
1BD2 D Y 31;1BD2 E Y 104;10.2836
1BD2 D S 50;1BD2 D S 51;19.2935
1BD2 D S 50;1BD2 D I 52;12.0056
1BD2 D S 51;1BD2 D I 52;22.7582
1BD2 D S 51;1BD2 D K 68;27.6732
1BD2 D I 52;1BD2 D K 68;6.79291
1BD2 D M 93;1BD2 D E 94;16.0846
1BD2 D M 93;1BD2 D G 95;10.1779
1BD2 D M 93;1BD2 D A 96;12.7231
1BD2 D M 93;1BD2 D K 103;11.5486
1BD2 D M 93;1BD2 E Y 104;18.6992
1BD2 D E 94;1BD2 D G 95;21.0632
1BD2 D E 94;1BD2 D K 103;17.3617
1BD2 D G 95;1BD2 D A 96;18.4549
1BD2 D G 95;1BD2 D Q 102;3.3735
1BD2 D G 95;1BD2 D K 103;4.9059
1BD2 D A 96;1BD2 D Q 102;28.0398
1BD2 D A 96;1BD2 D K 103;3.24493
1BD2 D A 96;1BD2 E P 97;21.3817
1BD2 D A 96;1BD2 E Y 104;16.8639
1BD2 D Q 102;1BD2 D K 103;24.6069
1BD2 D Q 102;1BD2 E Y 48;8.46123
1BD2 D Q 102;1BD2 E V 50;28.874
1BD2 D Q 102;1BD2 E P 97;18.7982
1BD2 D K 103;1BD2 E Y 48;2.30325
1BD2 E E 30;1BD2 E V 50;12.9675
1BD2 E E 30;1BD2 E Y 96;20.1973
1BD2 E E 30;1BD2 E P 97;4.66029
1BD2 E Y 48;1BD2 E V 50;17.7481
1BD2 E Y 48;1BD2 E D 56;44.473
1BD2 E V 50;1BD2 E I 54;28.4871
1BD2 E I 54;1BD2 E D 56;3.4572
1BD2 E Y 96;1BD2 E P 97;21.5105
1BD2 E Y 96;1BD2 E G 98;6.02754
1BD2 E Y 96;1BD2 E G 99;21.497
1BD2 E Y 96;1BD2 E G 100;1.30818
1BD2 E P 97;1BD2 E G 98;24.5999
1BD2 E P 97;1BD2 E G 99;3.74792
1BD2 E P 97;1BD2 E G 100;5.13899
1BD2 E P 97;1BD2 E Y 104;16.9111
1BD2 E G 98;1BD2 E G 99;17.8262
1BD2 E G 99;1BD2 E G 100;18.88
1BD2 E G 100;1BD2 E Y 104;24.0294
