V1;V2;Weight
1BP3 B K 217;1BP3 B E 218;25.3344
1BP3 B K 217;1BP3 B T 269;0.503842
1BP3 B K 217;1BP3 B M 271;27.1243
1BP3 B K 217;1BP3 B W 272;1.09061
1BP3 B K 217;1BP3 B T 298;26.944
1BP3 B K 217;1BP3 B W 339;42.9426
1BP3 B K 217;1BP3 B F 340;13.9917
1BP3 B E 218;1BP3 B K 266;34.9539
1BP3 B E 218;1BP3 B T 269;17.7846
1BP3 B E 218;1BP3 B M 271;4.19637
1BP3 B E 218;1BP3 B W 339;5.61318
1BP3 B E 218;1BP3 B F 340;0.25606
1BP3 B H 241;1BP3 B R 242;30.7023
1BP3 B H 241;1BP3 B G 244;5.60326
1BP3 B H 241;1BP3 B E 245;1.57101
1BP3 B H 241;1BP3 B T 246;11.1463
1BP3 B H 241;1BP3 B T 274;0.582855
1BP3 B H 241;1BP3 B I 276;48.3695
1BP3 B H 241;1BP3 B E 292;7.71431
1BP3 B R 242;1BP3 B E 243;21.0306
1BP3 B R 242;1BP3 B G 244;8.55279
1BP3 B R 242;1BP3 B E 245;20.9719
1BP3 B R 242;1BP3 B T 246;0.0423321
1BP3 B R 242;1BP3 B T 269;0.158279
1BP3 B R 242;1BP3 B S 270;20.6455
1BP3 B R 242;1BP3 B R 273;28.3626
1BP3 B R 242;1BP3 B T 274;6.01038
1BP3 B R 242;1BP3 B I 276;3.61062
1BP3 B E 243;1BP3 B G 244;18.9362
1BP3 B E 243;1BP3 B E 245;11.6563
1BP3 B E 243;1BP3 B R 273;31.2006
1BP3 B E 243;1BP3 B T 274;23.2895
1BP3 B E 243;1BP3 B I 276;3.85413
1BP3 B G 244;1BP3 B E 245;19.0445
1BP3 B G 244;1BP3 B T 246;11.2583
1BP3 B E 245;1BP3 B T 246;20.2453
1BP3 B E 245;1BP3 B R 273;4.48033
1BP3 B K 266;1BP3 B T 269;18.0305
1BP3 B T 269;1BP3 B S 270;30.9764
1BP3 B T 269;1BP3 B M 271;8.83431
1BP3 B S 270;1BP3 B M 271;24.0482
1BP3 B S 270;1BP3 B W 272;2.27036
1BP3 B S 270;1BP3 B R 273;22.7977
1BP3 B M 271;1BP3 B W 272;52.5139
1BP3 B M 271;1BP3 B R 273;10.3458
1BP3 B M 271;1BP3 B T 298;9.4066
1BP3 B M 271;1BP3 B W 339;17.3988
1BP3 B W 272;1BP3 B R 273;34.2163
1BP3 B W 272;1BP3 B D 296;2.15289
1BP3 B W 272;1BP3 B T 298;16.3323
1BP3 B W 272;1BP3 B W 339;6.53837
1BP3 B R 273;1BP3 B T 274;22.1145
1BP3 B R 273;1BP3 B D 296;13.9045
1BP3 B T 274;1BP3 B I 276;12.2781
1BP3 B T 274;1BP3 B Y 294;11.1955
1BP3 B T 274;1BP3 B D 296;18.9394
1BP3 B I 276;1BP3 B E 292;17.5017
1BP3 B I 276;1BP3 B Y 294;23.41
1BP3 B E 292;1BP3 B Y 294;23.1206
1BP3 B Y 294;1BP3 B D 296;5.81318
1BP3 B D 296;1BP3 B T 298;4.41143
1BP3 B D 296;1BP3 B Y 299;24.867
1BP3 B T 298;1BP3 B Y 299;34.0793
1BP3 B T 298;1BP3 B H 388;12.9999
1BP3 B Y 299;1BP3 B H 388;25.6855
1BP3 B D 334;1BP3 B L 335;23.3221
1BP3 B D 334;1BP3 B K 336;30.8339
1BP3 B D 334;1BP3 B T 337;10.2216
1BP3 B D 334;1BP3 B G 338;2.09261
1BP3 B D 334;1BP3 B W 339;7.83233
1BP3 B D 334;1BP3 B F 340;4.95905
1BP3 B L 335;1BP3 B K 336;23.6369
1BP3 B L 335;1BP3 B T 337;2.43739
1BP3 B L 335;1BP3 B G 338;14.0747
1BP3 B L 335;1BP3 B W 339;0.0632224
1BP3 B L 335;1BP3 B F 340;19.7971
1BP3 B L 335;1BP3 B T 341;3.86549
1BP3 B L 335;1BP3 B Q 363;5.29062
1BP3 B K 336;1BP3 B T 337;38.0259
1BP3 B K 336;1BP3 B G 338;1.21215
1BP3 B T 337;1BP3 B G 338;17.3162
1BP3 B T 337;1BP3 B W 339;9.40954
1BP3 B G 338;1BP3 B W 339;21.9778
1BP3 B G 338;1BP3 B F 340;12.9377
1BP3 B W 339;1BP3 B F 340;41.2066
1BP3 B F 340;1BP3 B T 341;27.1331
1BP3 B F 340;1BP3 B D 387;0.0397758
1BP3 B T 341;1BP3 B Q 363;18.6677
1BP3 B T 341;1BP3 B D 387;23.8889
1BP3 B D 387;1BP3 B H 388;41.2102
