V1;V2;Weight
1BRS D P 27;1BRS D Y 29;25.3985
1BRS D P 27;1BRS D Y 30;20.3453
1BRS D P 27;1BRS D A 40;7.0751
1BRS D P 27;1BRS D W 44;35.4797
1BRS D Y 29;1BRS D Y 30;23.7042
1BRS D Y 29;1BRS D G 31;3.46971
1BRS D Y 29;1BRS D D 39;1.35255
1BRS D Y 29;1BRS D W 44;13.5193
1BRS D Y 30;1BRS D G 31;18.9703
1BRS D Y 30;1BRS D E 32;33.0098
1BRS D Y 30;1BRS D N 33;3.84316
1BRS D Y 30;1BRS D A 36;10.8161
1BRS D Y 30;1BRS D A 40;5.67803
1BRS D G 31;1BRS D E 32;22.8466
1BRS D G 31;1BRS D N 33;10.875
1BRS D G 31;1BRS D A 36;7.34652
1BRS D E 32;1BRS D N 33;22.9937
1BRS D E 32;1BRS D A 36;2.00065
1BRS D N 33;1BRS D L 34;18.3881
1BRS D N 33;1BRS D D 35;8.89532
1BRS D N 33;1BRS D A 36;16.8253
1BRS D L 34;1BRS D D 35;16.8073
1BRS D L 34;1BRS D A 36;0.574932
1BRS D L 34;1BRS D W 38;7.92503
1BRS D L 34;1BRS D V 73;18.6501
1BRS D D 35;1BRS D A 36;15.0354
1BRS D D 35;1BRS D W 38;11.6796
1BRS D D 35;1BRS D D 39;9.00188
1BRS D A 36;1BRS D W 38;0.679007
1BRS D A 36;1BRS D D 39;6.97044
1BRS D A 36;1BRS D A 40;8.71103
1BRS D W 38;1BRS D D 39;20.769
1BRS D W 38;1BRS D A 40;0.866888
1BRS D W 38;1BRS D T 42;33.1055
1BRS D W 38;1BRS D V 73;20.5037
1BRS D W 38;1BRS D E 76;15.726
1BRS D D 39;1BRS D A 40;20.765
1BRS D D 39;1BRS D T 42;7.64428
1BRS D D 39;1BRS D G 43;9.79216
1BRS D D 39;1BRS D W 44;0.850009
1BRS D A 40;1BRS D T 42;1.28694
1BRS D A 40;1BRS D G 43;2.25108
1BRS D A 40;1BRS D W 44;18.0252
1BRS D A 40;1BRS D V 45;13.3475
1BRS D T 42;1BRS D G 43;20.9515
1BRS D T 42;1BRS D W 44;0.190244
1BRS D T 42;1BRS D Y 47;0.200202
1BRS D G 43;1BRS D W 44;28.267
1BRS D W 44;1BRS D V 45;32.0661
1BRS D W 44;1BRS D E 46;1.16979
1BRS D V 45;1BRS D E 46;31.326
1BRS D V 45;1BRS D Y 47;24.7596
1BRS D E 46;1BRS D Y 47;35.5014
1BRS D V 73;1BRS D E 76;10.1593
