V1;V2;Weight
1DAN T K 15;1DAN T K 20;3.57819
1DAN T K 15;1DAN T I 22;29.3324
1DAN T K 15;1DAN T E 24;27.3676
1DAN T T 17;1DAN T N 18;21.0015
1DAN T T 17;1DAN T K 20;18.0525
1DAN T T 17;1DAN U G 109;10.8421
1DAN T T 17;1DAN U L 133;1.1146
1DAN T N 18;1DAN T K 20;2.23659
1DAN T N 18;1DAN U G 109;12.0762
1DAN T N 18;1DAN U E 130;16.9085
1DAN T N 18;1DAN U R 131;9.04117
1DAN T N 18;1DAN U T 132;16.2157
1DAN T N 18;1DAN U L 133;12.2106
1DAN T K 20;1DAN T I 22;15.9375
1DAN T K 20;1DAN T D 58;9.98943
1DAN T K 20;1DAN U L 133;22.9383
1DAN T I 22;1DAN T E 24;9.02228
1DAN T I 22;1DAN T E 56;12.063
1DAN T I 22;1DAN T D 58;18.3129
1DAN T E 24;1DAN T E 56;10.4419
1DAN T T 35;1DAN T Q 37;2.66844
1DAN T T 35;1DAN T S 47;9.89038
1DAN T T 35;1DAN T K 48;5.47519
1DAN T T 35;1DAN T C 49;4.70941
1DAN T T 35;1DAN T F 50;12.9345
1DAN T T 35;1DAN T Y 51;15.3128
1DAN T T 35;1DAN T R 74;0.737061
1DAN T T 35;1DAN T F 76;26.771
1DAN T T 35;1DAN T Y 78;17.8794
1DAN T Q 37;1DAN T W 45;22.2582
1DAN T Q 37;1DAN T K 46;9.60531
1DAN T Q 37;1DAN T S 47;20.0013
1DAN T Q 37;1DAN T K 48;0.461491
1DAN T Q 37;1DAN T R 74;29.4747
1DAN T Q 37;1DAN T F 76;21.2382
1DAN T S 39;1DAN T T 40;30.0902
1DAN T S 39;1DAN T K 41;0.098559
1DAN T S 39;1DAN T G 43;5.51429
1DAN T S 39;1DAN T D 44;9.83507
1DAN T S 39;1DAN T W 45;20.0636
1DAN T S 39;1DAN T L 72;19.5347
1DAN T T 40;1DAN T K 41;21.6859
1DAN T T 40;1DAN T S 42;9.09955
1DAN T T 40;1DAN T G 43;22.3955
1DAN T T 40;1DAN T D 44;0.0823288
1DAN T T 40;1DAN T L 72;0.750298
1DAN T K 41;1DAN T S 42;26.0774
1DAN T K 41;1DAN T G 43;0.0685668
1DAN T K 41;1DAN T L 72;15.1869
1DAN T S 42;1DAN T G 43;25.6455
1DAN T S 42;1DAN T D 44;0.640407
1DAN T G 43;1DAN T D 44;29.314
1DAN T G 43;1DAN T W 45;1.66193
1DAN T D 44;1DAN T W 45;26.208
1DAN T D 44;1DAN T K 46;5.13792
1DAN T W 45;1DAN T K 46;24.8839
1DAN T W 45;1DAN T S 47;1.44777
1DAN T W 45;1DAN T L 72;22.2855
1DAN T W 45;1DAN T R 74;40.1471
1DAN T W 45;1DAN U N 96;0.838826
1DAN T K 46;1DAN T S 47;31.2821
1DAN T K 46;1DAN T K 48;18.2779
1DAN T K 46;1DAN T E 62;26.5865
1DAN T S 47;1DAN T K 48;23.4668
1DAN T S 47;1DAN T F 50;17.1092
1DAN T K 48;1DAN T C 49;28.0296
1DAN T K 48;1DAN T F 50;16.6259
1DAN T K 48;1DAN T D 58;7.18316
1DAN T K 48;1DAN T D 61;5.45911
1DAN T K 48;1DAN T E 62;21.6178
1DAN T C 49;1DAN T F 50;25.0921
1DAN T C 49;1DAN T Y 51;0.973184
1DAN T C 49;1DAN T E 56;3.82915
1DAN T C 49;1DAN T D 58;8.17194
1DAN T F 50;1DAN T Y 51;32.0053
1DAN T Y 51;1DAN T Y 78;20.4093
1DAN T D 54;1DAN T E 56;22.1393
1DAN T E 56;1DAN T D 58;1.0489
1DAN T D 58;1DAN T D 61;2.59111
1DAN T D 61;1DAN T E 62;26.6123
1DAN T D 61;1DAN U R 135;17.7533
1DAN T L 72;1DAN T R 74;2.84484
1DAN T L 72;1DAN U N 96;18.5313
1DAN T R 74;1DAN T F 76;16.5294
1DAN T R 74;1DAN U Y 94;17.6045
1DAN T R 74;1DAN U E 95;7.35642
1DAN T R 74;1DAN U N 96;13.5882
1DAN T F 76;1DAN T Y 78;22.5947
1DAN T F 76;1DAN U P 92;20.2066
1DAN T F 76;1DAN U L 93;5.73659
1DAN T F 76;1DAN U Y 94;18.3596
1DAN T Y 78;1DAN U P 92;27.3466
1DAN U E 91;1DAN U P 92;41.1403
1DAN U E 91;1DAN U L 93;5.02695
1DAN U E 91;1DAN U Y 94;0.62001
1DAN U P 92;1DAN U L 93;28.1962
1DAN U P 92;1DAN U Y 94;10.0063
1DAN U L 93;1DAN U Y 94;22.0391
1DAN U Y 94;1DAN U E 95;29.5532
1DAN U Y 94;1DAN U N 96;12.5457
1DAN U E 95;1DAN U N 96;40.1833
1DAN U G 109;1DAN U Q 110;19.8738
1DAN U G 109;1DAN U E 130;12.391
1DAN U G 109;1DAN U T 203;0.305204
1DAN U Q 110;1DAN U T 112;11.4239
1DAN U Q 110;1DAN U E 130;12.89
1DAN U Q 110;1DAN U T 203;20.9862
1DAN U Q 110;1DAN U D 204;10.5772
1DAN U Q 110;1DAN U S 205;4.73357
1DAN U Q 110;1DAN U P 206;14.8537
1DAN U T 112;1DAN U E 128;33.9556
1DAN U T 112;1DAN U E 130;0.5306
1DAN U T 112;1DAN U S 205;2.91908
1DAN U T 112;1DAN U P 206;15.668
1DAN U E 128;1DAN U E 130;15.202
1DAN U E 130;1DAN U R 131;26.5415
1DAN U E 130;1DAN U T 132;2.38165
1DAN U R 131;1DAN U T 132;21.4288
1DAN U R 131;1DAN U F 140;27.8789
1DAN U T 132;1DAN U L 133;17.2905
1DAN U T 132;1DAN U F 140;10.6032
1DAN U L 133;1DAN U R 135;9.18125
1DAN U L 133;1DAN U F 140;19.6088
1DAN U R 135;1DAN U N 138;15.4856
1DAN U R 135;1DAN U F 140;28.9669
1DAN U N 138;1DAN U F 140;3.06767
1DAN U Y 156;1DAN U W 158;11.4219
1DAN U Y 156;1DAN U K 165;23.2729
1DAN U Y 156;1DAN U C 186;0.312976
1DAN U Y 156;1DAN U S 188;26.3341
1DAN U Y 156;1DAN U D 204;11.9355
1DAN U W 158;1DAN U G 164;9.48017
1DAN U W 158;1DAN U K 165;23.3773
1DAN U W 158;1DAN U C 186;38.2161
1DAN U W 158;1DAN U S 188;6.71973
1DAN U W 158;1DAN U V 207;15.4015
1DAN U S 163;1DAN U G 164;37.9134
1DAN U S 163;1DAN U K 165;0.0259912
1DAN U G 164;1DAN U K 165;30.4913
1DAN U C 186;1DAN U V 207;4.26982
1DAN U C 186;1DAN U E 208;3.83342
1DAN U C 186;1DAN U C 209;22.3136
1DAN U S 188;1DAN U D 204;9.59801
1DAN U S 188;1DAN U S 205;13.7571
1DAN U S 188;1DAN U P 206;1.62536
1DAN U S 188;1DAN U V 207;7.15746
1DAN U T 203;1DAN U D 204;33.3252
1DAN U T 203;1DAN U S 205;0.308892
1DAN U D 204;1DAN U S 205;22.0296
1DAN U S 205;1DAN U P 206;30.1116
1DAN U S 205;1DAN U V 207;4.47419
1DAN U P 206;1DAN U V 207;27.8976
1DAN U P 206;1DAN U E 208;10.9963
1DAN U V 207;1DAN U E 208;31.2285
1DAN U V 207;1DAN U C 209;5.98318
1DAN U E 208;1DAN U C 209;26.2386
