V1;V2;Weight
1FC2 D K 248;1FC2 D T 250;0.853837
1FC2 D K 248;1FC2 D L 251;10.2853
1FC2 D K 248;1FC2 D M 252;18.9925
1FC2 D K 248;1FC2 D R 255;31.9335
1FC2 D K 248;1FC2 D M 428;21.7818
1FC2 D T 250;1FC2 D L 251;27.0884
1FC2 D T 250;1FC2 D M 252;0.761086
1FC2 D T 250;1FC2 D H 310;19.6987
1FC2 D T 250;1FC2 D L 314;17.5982
1FC2 D T 250;1FC2 D H 435;8.44927e-05
1FC2 D L 251;1FC2 D M 252;25.0008
1FC2 D L 251;1FC2 D I 253;0.484091
1FC2 D L 251;1FC2 D H 310;1.12072
1FC2 D L 251;1FC2 D L 314;12.4397
1FC2 D L 251;1FC2 D M 428;17.0423
1FC2 D L 251;1FC2 D E 430;15.0195
1FC2 D L 251;1FC2 D H 435;30.168
1FC2 D M 252;1FC2 D I 253;14.9389
1FC2 D M 252;1FC2 D S 254;6.11068
1FC2 D M 252;1FC2 D R 255;21.5945
1FC2 D M 252;1FC2 D H 310;8.7535
1FC2 D M 252;1FC2 D M 428;23.3589
1FC2 D M 252;1FC2 D N 434;0.948962
1FC2 D M 252;1FC2 D H 435;7.34618
1FC2 D M 252;1FC2 D Y 436;10.0751
1FC2 D I 253;1FC2 D S 254;24.201
1FC2 D I 253;1FC2 D R 255;8.32157
1FC2 D I 253;1FC2 D H 310;17.1423
1FC2 D S 254;1FC2 D R 255;30.087
1FC2 D R 255;1FC2 D H 310;9.99212
1FC2 D L 309;1FC2 D H 310;20.309
1FC2 D L 309;1FC2 D Q 311;23.3813
1FC2 D L 309;1FC2 D N 312;31.8949
1FC2 D H 310;1FC2 D Q 311;24.3793
1FC2 D H 310;1FC2 D N 312;0.806842
1FC2 D H 310;1FC2 D L 314;16.2402
1FC2 D Q 311;1FC2 D N 312;26.1815
1FC2 D Q 311;1FC2 D L 314;8.93341
1FC2 D Q 311;1FC2 D D 315;18.2506
1FC2 D N 312;1FC2 D L 314;0.530098
1FC2 D N 312;1FC2 D D 315;11.3748
1FC2 D N 312;1FC2 D K 317;45.0658
1FC2 D L 314;1FC2 D D 315;27.7343
1FC2 D L 314;1FC2 D E 430;15.9089
1FC2 D L 314;1FC2 D H 435;12.1503
1FC2 D D 315;1FC2 D K 317;9.26922
1FC2 D M 428;1FC2 D L 432;1.74925
1FC2 D M 428;1FC2 D H 435;8.95325
1FC2 D M 428;1FC2 D Y 436;18.6787
1FC2 D E 430;1FC2 D A 431;22.0508
1FC2 D E 430;1FC2 D L 432;5.39649
1FC2 D E 430;1FC2 D H 435;20.3602
1FC2 D A 431;1FC2 D L 432;23.2154
1FC2 D A 431;1FC2 D H 433;0.119465
1FC2 D L 432;1FC2 D H 433;25.2627
1FC2 D L 432;1FC2 D N 434;1.73443
1FC2 D L 432;1FC2 D H 435;12.0409
1FC2 D L 432;1FC2 D Y 436;8.09392
1FC2 D H 433;1FC2 D N 434;38.0069
1FC2 D H 433;1FC2 D Y 436;10.4253
1FC2 D N 434;1FC2 D H 435;18.845
1FC2 D N 434;1FC2 D Y 436;20.2357
1FC2 D H 435;1FC2 D Y 436;15.7879
