V1;V2;Weight
1FCC A L 251;1FCC A M 252;23.8481
1FCC A L 251;1FCC A I 253;7.08846
1FCC A L 251;1FCC A M 428;17.4866
1FCC A L 251;1FCC A H 435;29.3885
1FCC A M 252;1FCC A I 253;17.1621
1FCC A M 252;1FCC A S 254;4.42822
1FCC A M 252;1FCC A R 255;28.0235
1FCC A M 252;1FCC A E 380;4.86555
1FCC A M 252;1FCC A M 428;23.5129
1FCC A I 253;1FCC A S 254;19.8749
1FCC A I 253;1FCC A R 255;8.65212
1FCC A I 253;1FCC A H 435;7.41512
1FCC A S 254;1FCC A R 255;31.2215
1FCC A E 380;1FCC A W 381;30.6048
1FCC A E 380;1FCC A E 382;1.16457
1FCC A E 380;1FCC A P 387;5.10684
1FCC A E 380;1FCC A S 426;22.092
1FCC A E 380;1FCC A M 428;12.7346
1FCC A W 381;1FCC A E 382;26.7262
1FCC A W 381;1FCC A P 387;7.52501
1FCC A W 381;1FCC A S 426;0.750431
1FCC A E 382;1FCC A G 385;9.76936
1FCC A E 382;1FCC A P 387;11.2176
1FCC A E 382;1FCC A S 426;9.98272
1FCC A E 382;1FCC A Y 436;1.1938
1FCC A E 382;1FCC A Q 438;13.9029
1FCC A G 385;1FCC A P 387;4.81293
1FCC A S 426;1FCC A M 428;5.54711
1FCC A S 426;1FCC A Y 436;13.364
1FCC A S 426;1FCC A T 437;3.21215
1FCC A S 426;1FCC A Q 438;13.0247
1FCC A M 428;1FCC A H 435;9.95048
1FCC A M 428;1FCC A Y 436;20.7874
1FCC A H 433;1FCC A N 434;18.2096
1FCC A H 433;1FCC A H 435;1.87008
1FCC A H 433;1FCC A Y 436;10.779
1FCC A H 433;1FCC A T 437;14.6924
1FCC A N 434;1FCC A H 435;23.045
1FCC A N 434;1FCC A Y 436;9.58849
1FCC A H 435;1FCC A Y 436;20.2657
1FCC A Y 436;1FCC A T 437;36.0596
1FCC A Y 436;1FCC A Q 438;16.4922
1FCC A T 437;1FCC A Q 438;31.4415
