V1;V2;Weight
1H9D B P 2;1H9D B R 3;23.5854
1H9D B P 2;1H9D B V 4;18.6551
1H9D B R 3;1H9D B V 4;24.4551
1H9D B R 3;1H9D B I 102;28.4352
1H9D B R 3;1H9D B G 105;5.95413
1H9D B R 3;1H9D B R 131;5.17948
1H9D B V 4;1H9D B V 5;30.4112
1H9D B V 4;1H9D B I 102;10.3554
1H9D B V 4;1H9D B G 105;11.4915
1H9D B V 5;1H9D B K 11;25.4859
1H9D B V 5;1H9D B N 104;2.99482
1H9D B V 5;1H9D B G 105;12.264
1H9D B K 11;1H9D B N 104;14.3812
1H9D B F 17;1H9D B T 62;18.0426
1H9D B F 17;1H9D B L 64;0.00028393
1H9D B F 17;1H9D B L 103;17.0366
1H9D B F 17;1H9D B N 104;15.2833
1H9D B K 28;1H9D B Y 29;26.7467
1H9D B K 28;1H9D B T 30;5.21963
1H9D B K 28;1H9D B R 40;0.129595
1H9D B K 28;1H9D B I 55;13.3696
1H9D B K 28;1H9D B A 56;11.0763
1H9D B K 28;1H9D B V 58;18.1059
1H9D B Y 29;1H9D B T 30;18.2599
1H9D B Y 29;1H9D B R 33;0.167454
1H9D B Y 29;1H9D B R 40;30.8717
1H9D B Y 29;1H9D B E 54;14.2388
1H9D B Y 29;1H9D B I 55;7.34592
1H9D B T 30;1H9D B R 33;19.463
1H9D B T 30;1H9D B R 40;4.48542
1H9D B T 30;1H9D B E 54;22.9042
1H9D B T 30;1H9D B I 55;7.08191
1H9D B T 30;1H9D B A 56;10.066
1H9D B T 30;1H9D B N 63;7.55555
1H9D B R 33;1H9D B D 34;28.8681
1H9D B R 33;1H9D B R 40;21.4155
1H9D B E 54;1H9D B I 55;22.6142
1H9D B E 54;1H9D B L 64;5.24735
1H9D B E 54;1H9D B S 65;15.4351
1H9D B E 54;1H9D B L 66;0.425
1H9D B I 55;1H9D B A 56;23.7589
1H9D B I 55;1H9D B T 62;1.08346
1H9D B I 55;1H9D B N 63;4.0364
1H9D B I 55;1H9D B L 64;22.2835
1H9D B I 55;1H9D B L 66;16.359
1H9D B A 56;1H9D B V 58;8.70647
1H9D B A 56;1H9D B G 61;2.89731
1H9D B A 56;1H9D B T 62;4.94508
1H9D B A 56;1H9D B N 63;12.1907
1H9D B V 58;1H9D B A 59;29.4052
1H9D B V 58;1H9D B T 60;0.894332
1H9D B V 58;1H9D B G 61;6.58165
1H9D B A 59;1H9D B T 60;29.8126
1H9D B A 59;1H9D B G 61;0.787836
1H9D B T 60;1H9D B G 61;18.2736
1H9D B T 60;1H9D B T 62;20.6476
1H9D B G 61;1H9D B T 62;19.2335
1H9D B G 61;1H9D B N 63;8.91814
1H9D B T 62;1H9D B N 63;22.9229
1H9D B T 62;1H9D B L 64;13.5532
1H9D B T 62;1H9D B L 103;0.789478
1H9D B N 63;1H9D B L 64;22.7519
1H9D B L 64;1H9D B S 65;21.0446
1H9D B L 64;1H9D B L 66;17.7073
1H9D B L 64;1H9D B M 101;17.2419
1H9D B L 64;1H9D B L 103;12.2726
1H9D B S 65;1H9D B L 66;29.529
1H9D B S 65;1H9D B Q 67;0.467699
1H9D B S 65;1H9D B M 101;3.83656
1H9D B L 66;1H9D B Q 67;27.5012
1H9D B L 66;1H9D B M 101;9.99159
1H9D B Q 67;1H9D B P 100;10.6536
1H9D B P 70;1H9D B P 100;12.2418
1H9D B P 70;1H9D B R 131;1.95993
1H9D B P 100;1H9D B M 101;23.1736
1H9D B P 100;1H9D B R 131;8.90089
1H9D B M 101;1H9D B I 102;22.4991
1H9D B M 101;1H9D B L 103;17.9186
1H9D B I 102;1H9D B L 103;16.4512
1H9D B I 102;1H9D B N 104;1.19269
1H9D B I 102;1H9D B G 105;11.1964
1H9D B I 102;1H9D B R 131;3.36021
1H9D B L 103;1H9D B N 104;26.0667
1H9D B L 103;1H9D B G 105;2.46701
1H9D B N 104;1H9D B G 105;16.6428
