V1;V2;Weight
1JTG B E 31;1JTG B S 35;0.232717
1JTG B E 31;1JTG B F 36;19.6077
1JTG B E 31;1JTG B S 39;0.991181
1JTG B E 31;1JTG B H 41;26.8004
1JTG B E 31;1JTG B Y 50;1.47606
1JTG B G 34;1JTG B S 35;27.0179
1JTG B G 34;1JTG B F 36;2.13604
1JTG B G 34;1JTG B G 37;10.4874
1JTG B S 35;1JTG B F 36;30.055
1JTG B S 35;1JTG B G 37;2.4903
1JTG B F 36;1JTG B G 37;19.3343
1JTG B F 36;1JTG B D 38;1.23035
1JTG B F 36;1JTG B S 39;18.722
1JTG B F 36;1JTG B H 41;30.1953
1JTG B F 36;1JTG B Y 50;1.10228
1JTG B F 36;1JTG B T 55;8.43546
1JTG B G 37;1JTG B D 38;25.0562
1JTG B G 37;1JTG B S 39;2.76329
1JTG B D 38;1JTG B S 39;26.9656
1JTG B S 39;1JTG B H 41;0.958916
1JTG B S 39;1JTG B T 55;10.9575
1JTG B H 41;1JTG B Y 50;13.8755
1JTG B H 41;1JTG B Y 53;16.0544
1JTG B H 41;1JTG B T 55;14.5979
1JTG B A 46;1JTG B A 47;22.9412
1JTG B A 46;1JTG B G 48;0.927734
1JTG B A 46;1JTG B Y 50;6.54904
1JTG B A 46;1JTG B Y 51;18.526
1JTG B A 46;1JTG B T 140;8.45927
1JTG B A 47;1JTG B G 48;21.1189
1JTG B A 47;1JTG B D 49;1.01254
1JTG B A 47;1JTG B Y 50;14.4868
1JTG B A 47;1JTG B Y 51;9.81998
1JTG B A 47;1JTG B K 74;6.36513
1JTG B A 47;1JTG B T 140;12.5852
1JTG B G 48;1JTG B D 49;19.6314
1JTG B G 48;1JTG B Y 50;3.84474
1JTG B G 48;1JTG B T 140;9.06618
1JTG B G 48;1JTG B G 141;4.41491
1JTG B G 48;1JTG B F 142;10.7273
1JTG B D 49;1JTG B Y 50;25.8542
1JTG B D 49;1JTG B F 142;4.95964
1JTG B Y 50;1JTG B Y 51;53.8718
1JTG B Y 50;1JTG B Y 53;11.9401
1JTG B Y 51;1JTG B Y 53;10.1936
1JTG B Y 51;1JTG B E 73;0.565689
1JTG B Y 51;1JTG B K 74;1.16078
1JTG B Y 53;1JTG B T 55;11.3114
1JTG B Y 53;1JTG B S 71;4.6391
1JTG B Y 53;1JTG B E 73;41.8755
1JTG B Y 53;1JTG B W 112;3.48235
1JTG B T 55;1JTG B S 69;2.15535
1JTG B T 55;1JTG B S 71;25.3717
1JTG B S 69;1JTG B S 71;7.33957
1JTG B S 69;1JTG B S 113;3.83941
1JTG B S 69;1JTG B Y 115;19.9181
1JTG B S 71;1JTG B W 112;10.4594
1JTG B S 71;1JTG B S 113;10.6531
1JTG B E 73;1JTG B K 74;31.2587
1JTG B E 73;1JTG B W 112;23.2165
1JTG B E 73;1JTG B Y 143;11.7883
1JTG B K 74;1JTG B T 140;0.319943
1JTG B K 74;1JTG B G 141;7.45744
1JTG B K 74;1JTG B F 142;0.633175
1JTG B K 74;1JTG B Y 143;24.2142
1JTG B W 112;1JTG B S 113;23.8075
1JTG B W 112;1JTG B S 128;17.929
1JTG B W 112;1JTG B H 148;23.1457
1JTG B W 112;1JTG B W 162;3.90511
1JTG B S 113;1JTG B Y 115;6.03828
1JTG B S 113;1JTG B T 126;1.79726
1JTG B S 113;1JTG B S 128;25.1411
1JTG B Y 115;1JTG B T 126;33.4605
1JTG B S 128;1JTG B H 148;14.6381
1JTG B S 128;1JTG B W 150;9.12133
1JTG B T 140;1JTG B G 141;27.2873
1JTG B G 141;1JTG B F 142;27.4706
1JTG B F 142;1JTG B Y 143;25.6245
1JTG B F 142;1JTG B R 144;9.37312
1JTG B Y 143;1JTG B R 144;24.0051
1JTG B Y 143;1JTG B D 163;7.41752
1JTG B R 144;1JTG B D 163;10.9576
1JTG B H 148;1JTG B W 150;23.9563
1JTG B H 148;1JTG B K 159;4.10608
1JTG B H 148;1JTG B R 160;16.8233
1JTG B H 148;1JTG B W 162;15.6263
1JTG B W 150;1JTG B K 159;12.9606
1JTG B W 150;1JTG B R 160;9.06886
1JTG B K 159;1JTG B R 160;22.0944
1JTG B R 160;1JTG B W 162;37.475
1JTG B W 162;1JTG B D 163;31.0182
