V1;V2;Weight
1N8Z C Y 532;1N8Z C P 540;8.45997
1N8Z C Y 532;1N8Z C P 557;26.2946
1N8Z C P 540;1N8Z C P 557;10.4493
1N8Z C P 557;1N8Z C E 558;28.5498
1N8Z C P 557;1N8Z C Q 561;11.7305
1N8Z C E 558;1N8Z C D 560;14.4959
1N8Z C E 558;1N8Z C Q 561;26.717
1N8Z C E 558;1N8Z C F 573;6.95011
1N8Z C D 560;1N8Z C Q 561;28.2563
1N8Z C D 560;1N8Z C P 572;22.7287
1N8Z C D 560;1N8Z C F 573;16.1859
1N8Z C K 569;1N8Z C D 570;14.4547
1N8Z C K 569;1N8Z C P 571;18.4789
1N8Z C K 569;1N8Z C P 572;9.97819
1N8Z C K 569;1N8Z C F 573;8.90457
1N8Z C K 569;1N8Z C V 575;2.38844
1N8Z C K 569;1N8Z C A 600;15.3867
1N8Z C K 569;1N8Z C C 601;9.96731
1N8Z C D 570;1N8Z C P 571;27.9468
1N8Z C D 570;1N8Z C P 572;0.301104
1N8Z C D 570;1N8Z C F 573;18.5419
1N8Z C D 570;1N8Z C V 575;16.6121
1N8Z C D 570;1N8Z C P 579;11.1533
1N8Z C D 570;1N8Z C K 593;20.0444
1N8Z C D 570;1N8Z C C 601;16.9762
1N8Z C P 571;1N8Z C P 572;17.5469
1N8Z C P 571;1N8Z C F 573;2.22632
1N8Z C P 571;1N8Z C A 600;9.29238
1N8Z C P 571;1N8Z C C 601;8.75926
1N8Z C P 572;1N8Z C F 573;30.8573
1N8Z C F 573;1N8Z C V 575;13.7519
1N8Z C V 575;1N8Z C P 579;3.94269
1N8Z C V 575;1N8Z C C 601;6.20668
1N8Z C P 579;1N8Z C I 591;16.3333
1N8Z C P 579;1N8Z C K 593;27.8805
1N8Z C P 579;1N8Z C C 601;6.30395
1N8Z C I 591;1N8Z C K 593;10.1801
1N8Z C K 593;1N8Z C C 601;18.2675
1N8Z C K 593;1N8Z C Q 602;8.89171
1N8Z C K 593;1N8Z C P 603;19.3181
1N8Z C K 593;1N8Z C C 604;10.7704
1N8Z C D 596;1N8Z C E 598;18.3451
1N8Z C D 596;1N8Z C A 600;19.8094
1N8Z C D 596;1N8Z C C 601;0.000719208
1N8Z C D 596;1N8Z C Q 602;22.2957
1N8Z C E 598;1N8Z C A 600;8.20011
1N8Z C A 600;1N8Z C C 601;18.2643
1N8Z C A 600;1N8Z C Q 602;11.6553
1N8Z C C 601;1N8Z C Q 602;22.3849
1N8Z C C 601;1N8Z C P 603;1.53359
1N8Z C Q 602;1N8Z C P 603;29.7693
1N8Z C Q 602;1N8Z C C 604;0.191742
1N8Z C P 603;1N8Z C C 604;21.7088
1N8Z C P 603;1N8Z C P 605;5.58746
1N8Z C C 604;1N8Z C P 605;26.5801
