V1;V2;Weight
1R0R E D 32;1R0R E T 33;22.9282
1R0R E D 32;1R0R E H 64;13.4486
1R0R E D 32;1R0R E L 96;18.9931
1R0R E D 32;1R0R E S 125;9.43459
1R0R E D 32;1R0R E L 126;2.0582
1R0R E T 33;1R0R E N 62;13.6747
1R0R E T 33;1R0R E H 64;7.06229
1R0R E T 33;1R0R E L 96;19.1885
1R0R E T 33;1R0R E N 97;8.9071
1R0R E T 33;1R0R E G 100;5.87224
1R0R E N 62;1R0R E H 64;15.8992
1R0R E N 62;1R0R E N 97;1.232
1R0R E N 62;1R0R E S 99;7.88479
1R0R E N 62;1R0R E G 100;9.67188
1R0R E N 62;1R0R E Y 209;13.9445
1R0R E H 64;1R0R E L 96;0.501172
1R0R E H 64;1R0R E S 125;9.98862
1R0R E H 64;1R0R E Y 209;2.87116
1R0R E H 64;1R0R E L 217;8.19632
1R0R E H 64;1R0R E S 221;9.59422
1R0R E H 64;1R0R E M 222;7.59271
1R0R E L 96;1R0R E N 97;21.4702
1R0R E L 96;1R0R E G 100;7.39434
1R0R E L 96;1R0R E S 101;10.9336
1R0R E L 96;1R0R E G 102;9.69401
1R0R E L 96;1R0R E I 107;6.5648
1R0R E L 96;1R0R E S 125;1.26003
1R0R E L 96;1R0R E L 126;18.8793
1R0R E N 97;1R0R E S 99;6.92812
1R0R E N 97;1R0R E S 99;9.87905
1R0R E N 97;1R0R E G 100;8.34902
1R0R E N 97;1R0R E S 101;28.1198
1R0R E N 97;1R0R E G 102;0.598161
1R0R E S 99;1R0R E G 100;18.1433
1R0R E S 99;1R0R E S 101;2.5722
1R0R E S 99;1R0R E S 101;5.27891
1R0R E G 100;1R0R E S 101;17.7381
1R0R E S 101;1R0R E G 102;19.3524
1R0R E G 102;1R0R E S 103;23.8314
1R0R E G 102;1R0R E I 107;1.56987
1R0R E S 103;1R0R E Y 104;19.978
1R0R E S 103;1R0R E I 107;12.3218
1R0R E Y 104;1R0R E I 107;17.4132
1R0R E Y 104;1R0R E G 127;0.00281144
1R0R E Y 104;1R0R E G 128;14.1123
1R0R E Y 104;1R0R E A 129;2.8266
1R0R E Y 104;1R0R E S 130;14.8957
1R0R E I 107;1R0R E L 126;19.1542
1R0R E S 125;1R0R E L 126;20.5384
1R0R E S 125;1R0R E A 152;6.55918
1R0R E S 125;1R0R E S 221;17.9421
1R0R E L 126;1R0R E G 127;21.9184
1R0R E L 126;1R0R E A 152;6.40953
1R0R E G 127;1R0R E G 128;24.1593
1R0R E G 127;1R0R E A 152;0.0518324
1R0R E G 128;1R0R E A 129;25.5123
1R0R E G 128;1R0R E S 130;1.88532
1R0R E A 129;1R0R E S 130;28.0041
1R0R E A 152;1R0R E A 153;16.8672
1R0R E A 152;1R0R E G 154;1.88519
1R0R E A 152;1R0R E T 220;13.5543
1R0R E A 152;1R0R E S 221;5.61861
1R0R E A 153;1R0R E G 154;20.2906
1R0R E A 153;1R0R E T 220;6.55167
1R0R E G 154;1R0R E N 155;19.1125
1R0R E G 154;1R0R E F 189;0.141301
1R0R E G 154;1R0R E T 220;14.9834
1R0R E N 155;1R0R E F 189;26.5268
1R0R E N 155;1R0R E G 219;3.44717
1R0R E N 155;1R0R E T 220;12.5696
1R0R E S 188;1R0R E F 189;20.4838
1R0R E S 188;1R0R E F 189;4.41733
1R0R E F 189;1R0R E N 218;10.1605
1R0R E F 189;1R0R E G 219;11.1921
1R0R E F 189;1R0R E T 220;6.07541
1R0R E Y 209;1R0R E L 217;14.5796
1R0R E L 217;1R0R E N 218;27.3487
1R0R E L 217;1R0R E M 222;20.9266
1R0R E N 218;1R0R E G 219;15.0446
1R0R E N 218;1R0R E M 222;8.69804
1R0R E G 219;1R0R E T 220;14.6949
1R0R E G 219;1R0R E S 221;3.26087
1R0R E G 219;1R0R E M 222;12.8938
1R0R E T 220;1R0R E S 221;14.5892
1R0R E T 220;1R0R E M 222;1.48429
1R0R E S 221;1R0R E M 222;24.8048
