V1;V2;Weight
1SMF E Y 39;1SMF E H 40;31.1211
1SMF E Y 39;1SMF E F 41;14.3439
1SMF E Y 39;1SMF E K 60;16.4954
1SMF E H 40;1SMF E F 41;20.629
1SMF E H 40;1SMF E C 42;11.2169
1SMF E H 40;1SMF E W 141;28.3652
1SMF E H 40;1SMF E G 193;14.5226
1SMF E F 41;1SMF E C 42;35.7174
1SMF E F 41;1SMF E C 58;13.8454
1SMF E F 41;1SMF E K 60;25.4994
1SMF E F 41;1SMF E G 193;5.57987
1SMF E F 41;1SMF E S 195;0.0983273
1SMF E C 42;1SMF E C 58;20.5671
1SMF E C 42;1SMF E G 193;4.96291
1SMF E C 42;1SMF E S 195;12.9354
1SMF E H 57;1SMF E C 58;26.1616
1SMF E H 57;1SMF E Y 94;16.4474
1SMF E H 57;1SMF E L 99;6.96248
1SMF E H 57;1SMF E S 195;11.1916
1SMF E H 57;1SMF E V 213;1.27952
1SMF E H 57;1SMF E S 214;9.87883
1SMF E C 58;1SMF E K 60;5.8025
1SMF E C 58;1SMF E S 195;6.64086
1SMF E Y 94;1SMF E S 96;26.8052
1SMF E Y 94;1SMF E L 99;15.627
1SMF E S 96;1SMF E L 99;14.7988
1SMF E L 99;1SMF E S 214;6.46495
1SMF E L 99;1SMF E W 215;27.7257
1SMF E W 141;1SMF E G 142;21.1301
1SMF E W 141;1SMF E Y 151;8.52356
1SMF E W 141;1SMF E G 193;3.34137
1SMF E W 141;1SMF E D 194;1.3046
1SMF E G 142;1SMF E Y 151;3.7691
1SMF E G 142;1SMF E C 191;1.57269
1SMF E G 142;1SMF E Q 192;4.28781
1SMF E G 142;1SMF E G 193;9.31039
1SMF E G 142;1SMF E D 194;12.8682
1SMF E Y 151;1SMF E Q 192;13.3272
1SMF E Y 151;1SMF E G 193;0.426512
1SMF E D 189;1SMF E S 190;30.8323
1SMF E D 189;1SMF E C 191;0.236709
1SMF E D 189;1SMF E G 216;0.0517545
1SMF E D 189;1SMF E G 219;2.81253
1SMF E D 189;1SMF E C 220;7.41715
1SMF E D 189;1SMF E G 226;14.0964
1SMF E S 190;1SMF E C 191;17.339
1SMF E S 190;1SMF E D 194;9.32909
1SMF E S 190;1SMF E V 213;12.1576
1SMF E S 190;1SMF E C 220;5.61295
1SMF E S 190;1SMF E G 226;0.417708
1SMF E C 191;1SMF E Q 192;26.4557
1SMF E C 191;1SMF E G 193;0.397988
1SMF E C 191;1SMF E D 194;17.8791
1SMF E C 191;1SMF E S 195;0.00363632
1SMF E C 191;1SMF E C 220;22.7033
1SMF E Q 192;1SMF E G 193;14.2462
1SMF E Q 192;1SMF E D 194;0.694383
1SMF E Q 192;1SMF E G 219;5.32995
1SMF E Q 192;1SMF E C 220;11.2062
1SMF E G 193;1SMF E D 194;18.0142
1SMF E G 193;1SMF E S 195;3.13652
1SMF E D 194;1SMF E S 195;17.8176
1SMF E D 194;1SMF E V 213;16.7138
1SMF E S 195;1SMF E V 213;11.1339
1SMF E S 195;1SMF E S 214;3.57228
1SMF E V 213;1SMF E S 214;24.1461
1SMF E V 213;1SMF E V 227;0.639781
1SMF E S 214;1SMF E W 215;31.914
1SMF E S 214;1SMF E V 227;8.85828
1SMF E W 215;1SMF E G 216;30.7984
1SMF E W 215;1SMF E S 217;2.7994
1SMF E W 215;1SMF E G 226;3.28564
1SMF E W 215;1SMF E V 227;43.2842
1SMF E G 216;1SMF E S 217;21.1899
1SMF E G 216;1SMF E G 219;12.2619
1SMF E G 216;1SMF E G 226;3.09694
1SMF E G 216;1SMF E V 227;3.35275
1SMF E S 217;1SMF E G 219;27.9939
1SMF E S 217;1SMF E C 220;1.03488
1SMF E G 219;1SMF E C 220;30.9897
1SMF E G 226;1SMF E V 227;18.0842
