V1;V2;Weight
1XGT C K 13;1XGT C R 14;23.5559
1XGT C K 13;1XGT C H 15;1.10105
1XGT C K 13;1XGT C G 16;9.35588
1XGT C K 13;1XGT C D 18;25.7541
1XGT C R 14;1XGT C H 15;33.2411
1XGT C R 14;1XGT C G 16;4.70077
1XGT C H 15;1XGT C G 16;13.3696
1XGT C H 15;1XGT C T 89;20.9489
1XGT C H 15;1XGT C N 93;0.843385
1XGT C H 15;1XGT C K 96;8.09524
1XGT C G 16;1XGT C D 18;5.05521
1XGT C G 16;1XGT C Y 20;7.10691
1XGT C G 16;1XGT C K 96;8.19399
1XGT C D 18;1XGT C N 19;31.4516
1XGT C D 18;1XGT C Y 20;3.68871
1XGT C N 19;1XGT C Y 20;15.6925
1XGT C N 19;1XGT C R 21;3.13929
1XGT C N 19;1XGT C G 22;18.5755
1XGT C Y 20;1XGT C R 21;33.2147
1XGT C Y 20;1XGT C G 22;1.72428
1XGT C Y 20;1XGT C K 96;32.121
1XGT C Y 20;1XGT C V 99;11.9735
1XGT C Y 20;1XGT C S 100;7.02893
1XGT C R 21;1XGT C G 22;25.3794
1XGT C R 21;1XGT C V 99;11.6706
1XGT C R 21;1XGT C S 100;14.8914
1XGT C W 62;1XGT C W 63;41.3019
1XGT C W 62;1XGT C R 73;44.5199
1XGT C W 62;1XGT C N 74;6.87024
1XGT C W 62;1XGT C L 75;21.0978
1XGT C W 63;1XGT C N 74;7.02852
1XGT C W 63;1XGT C L 75;24.4835
1XGT C W 63;1XGT C N 77;0.282886
1XGT C W 63;1XGT C K 97;5.50767
1XGT C W 63;1XGT C I 98;39.2543
1XGT C W 63;1XGT C A 107;4.52417
1XGT C R 73;1XGT C N 74;29.2129
1XGT C R 73;1XGT C L 75;23.9719
1XGT C N 74;1XGT C L 75;16.6072
1XGT C N 74;1XGT C N 77;29.4325
1XGT C L 75;1XGT C N 77;5.77452
1XGT C L 75;1XGT C K 97;18.2581
1XGT C N 77;1XGT C K 97;4.0586
1XGT C T 89;1XGT C N 93;18.3412
1XGT C N 93;1XGT C K 96;13.724
1XGT C N 93;1XGT C K 97;10.5612
1XGT C K 96;1XGT C K 97;16.1874
1XGT C K 96;1XGT C I 98;0.317134
1XGT C K 96;1XGT C V 99;9.11949
1XGT C K 96;1XGT C S 100;8.41755
1XGT C K 97;1XGT C I 98;20.0586
1XGT C K 97;1XGT C V 99;0.767485
1XGT C K 97;1XGT C S 100;11.2917
1XGT C K 97;1XGT C D 101;3.15142
1XGT C I 98;1XGT C V 99;18.0535
1XGT C I 98;1XGT C S 100;2.19692
1XGT C I 98;1XGT C D 101;11.2784
1XGT C I 98;1XGT C N 103;1.61314
1XGT C I 98;1XGT C G 104;5.47354
1XGT C I 98;1XGT C A 107;16.9917
1XGT C V 99;1XGT C S 100;20.5981
1XGT C V 99;1XGT C D 101;7.78469
1XGT C V 99;1XGT C G 104;20.824
1XGT C S 100;1XGT C D 101;20.3034
1XGT C D 101;1XGT C G 102;22.08
1XGT C D 101;1XGT C N 103;24.5095
1XGT C D 101;1XGT C G 104;8.67253
1XGT C G 102;1XGT C N 103;23.3455
1XGT C G 102;1XGT C G 104;4.31339
1XGT C N 103;1XGT C G 104;26.7579
1XGT C N 103;1XGT C A 107;14.5633
1XGT C G 104;1XGT C A 107;8.47284
