V1;V2;Weight
2AK4 D D 28;2AK4 D T 28a;26.0664
2AK4 D D 28;2AK4 D T 29;16.5453
2AK4 D D 28;2AK4 D G 94;10.5033
2AK4 D D 28;2AK4 D D 102;10.5392
2AK4 D T 28a;2AK4 D T 29;27.7213
2AK4 D T 29;2AK4 D F 52;11.3203
2AK4 D T 29;2AK4 D G 94;4.05056
2AK4 D T 29;2AK4 D F 95;15.9972
2AK4 D T 29;2AK4 D Y 96;11.5759
2AK4 D Y 31;2AK4 D R 48;34.3634
2AK4 D Y 31;2AK4 D N 50;10.3599
2AK4 D Y 31;2AK4 D S 93;31.0005
2AK4 D Y 31;2AK4 D G 94;5.13339
2AK4 D Y 31;2AK4 D F 95;16.749
2AK4 D Y 31;2AK4 D L 104;7.87968
2AK4 D Y 31;2AK4 E P 95;9.151
2AK4 D Y 31;2AK4 E G 97;1.36494
2AK4 D R 48;2AK4 D N 50;16.5648
2AK4 D R 48;2AK4 D D 53;3.7775
2AK4 D R 48;2AK4 D F 95;13.518
2AK4 D R 48;2AK4 E G 97;13.6623
2AK4 D R 48;2AK4 E L 98;32.5095
2AK4 D N 50;2AK4 D F 52;18.3199
2AK4 D N 50;2AK4 D D 53;31.9953
2AK4 D N 50;2AK4 D F 95;11.6477
2AK4 D F 52;2AK4 D D 53;39.2625
2AK4 D F 52;2AK4 D F 95;11.7403
2AK4 D S 93;2AK4 D G 94;28.2066
2AK4 D S 93;2AK4 D F 95;0.0274428
2AK4 D S 93;2AK4 D D 102;1.95696
2AK4 D S 93;2AK4 D K 103;9.15945
2AK4 D S 93;2AK4 D L 104;14.421
2AK4 D G 94;2AK4 D F 95;19.2066
2AK4 D G 94;2AK4 D Y 96;3.22065
2AK4 D G 94;2AK4 D D 102;20.4295
2AK4 D G 94;2AK4 D K 103;2.71996
2AK4 D F 95;2AK4 D Y 96;33.8346
2AK4 D F 95;2AK4 D D 102;3.19655
2AK4 D F 95;2AK4 E L 98;1.68269
2AK4 D Y 96;2AK4 D N 97;18.826
2AK4 D Y 96;2AK4 D T 98;10.4441
2AK4 D Y 96;2AK4 D D 102;29.9915
2AK4 D Y 96;2AK4 E Y 33;0.683939
2AK4 D N 97;2AK4 D T 98;27.3204
2AK4 D N 97;2AK4 D D 102;3.98127
2AK4 D N 97;2AK4 E N 30;7.59146
2AK4 D N 97;2AK4 E S 31;14.2085
2AK4 D N 97;2AK4 E Y 33;3.12325
2AK4 D N 97;2AK4 E A 50;22.8916
2AK4 D N 97;2AK4 E S 51;1.67673
2AK4 D T 98;2AK4 D D 102;30.9782
2AK4 D T 98;2AK4 D K 103;3.20301
2AK4 D T 98;2AK4 E A 50;12.4861
2AK4 D D 102;2AK4 D K 103;27.1422
2AK4 D D 102;2AK4 D L 104;0.0610201
2AK4 D D 102;2AK4 E Y 33;9.79076
2AK4 D K 103;2AK4 D L 104;18.3018
2AK4 D K 103;2AK4 E Y 33;5.3924
2AK4 D L 104;2AK4 E Y 33;12.3285
2AK4 D L 104;2AK4 E P 95;15.8247
2AK4 E M 27;2AK4 E N 28;20.832
2AK4 E M 27;2AK4 E H 29;26.2825
2AK4 E M 27;2AK4 E S 94;6.11228
2AK4 E N 28;2AK4 E H 29;18.705
2AK4 E N 28;2AK4 E N 30;2.19532
2AK4 E N 28;2AK4 E K 72;36.7192
2AK4 E H 29;2AK4 E N 30;17.9968
2AK4 E H 29;2AK4 E S 31;6.81623
2AK4 E H 29;2AK4 E K 72;10.7129
2AK4 E H 29;2AK4 E S 94;19.1013
2AK4 E H 29;2AK4 E P 95;5.32729
2AK4 E H 29;2AK4 E G 97;7.54382
2AK4 E N 30;2AK4 E S 31;19.4914
2AK4 E N 30;2AK4 E A 50;11.5011
2AK4 E N 30;2AK4 E S 51;10.4435
2AK4 E N 30;2AK4 E K 72;19.7596
2AK4 E S 31;2AK4 E Y 33;17.3981
2AK4 E S 31;2AK4 E A 50;5.55017
2AK4 E S 31;2AK4 E S 94;9.94615
2AK4 E S 31;2AK4 E P 95;2.6227
2AK4 E Y 33;2AK4 E S 94;0.545747
2AK4 E Y 33;2AK4 E P 95;16.5795
2AK4 E A 50;2AK4 E S 51;23.5408
2AK4 E A 50;2AK4 E T 54;13.858
2AK4 E S 51;2AK4 E T 54;24.9219
2AK4 E S 51;2AK4 E K 72;4.51958
2AK4 E S 94;2AK4 E P 95;23.5366
2AK4 E S 94;2AK4 E G 97;0.0249233
2AK4 E P 95;2AK4 E G 97;20.6091
2AK4 E G 97;2AK4 E L 98;26.263
2AK4 E G 97;2AK4 E A 99;0.419001
2AK4 E L 98;2AK4 E A 99;28.4359
2AK4 E L 98;2AK4 E E 101;1.87949
2AK4 E A 99;2AK4 E E 101;10.4836
