V1;V2;Weight
2BTF A K 113;2BTF A R 116;14.3902
2BTF A K 113;2BTF A H 371;28.8119
2BTF A R 116;2BTF A H 371;20.9568
2BTF A R 116;2BTF A C 374;21.1601
2BTF A Y 133;2BTF A M 355;21.8447
2BTF A Y 133;2BTF A K 373;7.48248
2BTF A Y 133;2BTF A C 374;21.6725
2BTF A Y 133;2BTF A F 375;9.7905
2BTF A Y 166;2BTF A E 167;39.0743
2BTF A Y 166;2BTF A G 168;1.28969
2BTF A Y 166;2BTF A Y 169;19.9913
2BTF A Y 166;2BTF A L 171;17.7508
2BTF A Y 166;2BTF A I 289;28.9666
2BTF A E 167;2BTF A G 168;19.2522
2BTF A E 167;2BTF A Y 169;15.205
2BTF A G 168;2BTF A Y 169;24.2182
2BTF A G 168;2BTF A F 375;8.59825
2BTF A Y 169;2BTF A A 170;18.2071
2BTF A Y 169;2BTF A L 171;8.3216
2BTF A Y 169;2BTF A F 375;29.5933
2BTF A A 170;2BTF A L 171;18.0598
2BTF A A 170;2BTF A P 172;12.0388
2BTF A A 170;2BTF A F 375;16.0289
2BTF A L 171;2BTF A P 172;17.4417
2BTF A L 171;2BTF A H 173;21.4493
2BTF A L 171;2BTF A C 285;11.771
2BTF A L 171;2BTF A D 286;1.95561
2BTF A L 171;2BTF A I 289;13.9035
2BTF A P 172;2BTF A H 173;29.481
2BTF A P 172;2BTF A F 375;4.37198
2BTF A H 173;2BTF A K 284;29.4672
2BTF A H 173;2BTF A C 285;5.03989
2BTF A H 173;2BTF A D 286;0.179468
2BTF A M 283;2BTF A K 284;21.2288
2BTF A M 283;2BTF A C 285;1.5431
2BTF A M 283;2BTF A R 290;35.2645
2BTF A K 284;2BTF A C 285;18.2554
2BTF A K 284;2BTF A R 290;0.141363
2BTF A C 285;2BTF A D 286;20.9672
2BTF A C 285;2BTF A V 287;2.16579
2BTF A C 285;2BTF A I 289;6.70032
2BTF A C 285;2BTF A R 290;15.4995
2BTF A D 286;2BTF A V 287;17.4567
2BTF A D 286;2BTF A D 288;14.5242
2BTF A D 286;2BTF A I 289;25.0274
2BTF A D 286;2BTF A R 290;7.47747
2BTF A V 287;2BTF A D 288;25.4184
2BTF A V 287;2BTF A I 289;1.37039
2BTF A V 287;2BTF A R 290;27.793
2BTF A D 288;2BTF A I 289;25.2711
2BTF A D 288;2BTF A R 290;2.54813e-05
2BTF A I 289;2BTF A R 290;17.4796
2BTF A T 351;2BTF A Q 354;18.4118
2BTF A T 351;2BTF A M 355;17.2713
2BTF A Q 354;2BTF A M 355;30.5085
2BTF A M 355;2BTF A K 373;17.3695
2BTF A E 361;2BTF A E 364;24.1547
2BTF A E 361;2BTF A S 365;10.541
2BTF A E 361;2BTF A I 369;15.4718
2BTF A E 361;2BTF A K 373;15.3062
2BTF A E 364;2BTF A S 365;34.7323
2BTF A E 364;2BTF A I 369;0.420317
2BTF A S 365;2BTF A S 368;7.31054
2BTF A S 365;2BTF A I 369;22.9386
2BTF A S 368;2BTF A I 369;20.5995
2BTF A S 368;2BTF A H 371;25.1503
2BTF A S 368;2BTF A R 372;9.89422
2BTF A I 369;2BTF A H 371;1.6961
2BTF A I 369;2BTF A R 372;19.4521
2BTF A I 369;2BTF A K 373;19.0794
2BTF A H 371;2BTF A R 372;40.559
2BTF A H 371;2BTF A K 373;0.173649
2BTF A H 371;2BTF A C 374;2.85983
2BTF A H 371;2BTF A F 375;1.31578
2BTF A R 372;2BTF A K 373;18.8871
2BTF A R 372;2BTF A C 374;1.84653
2BTF A R 372;2BTF A F 375;7.20994
2BTF A K 373;2BTF A C 374;20.384
2BTF A K 373;2BTF A F 375;3.88532
2BTF A C 374;2BTF A F 375;30.3567
