V1;V2;Weight
2C0L B G 26;2C0L B F 27;21.8309
2C0L B G 26;2C0L B K 28;11.7312
2C0L B F 27;2C0L B K 28;17.0952
2C0L B F 27;2C0L B L 31;4.98328
2C0L B K 28;2C0L B L 31;17.0957
2C0L B K 28;2C0L B V 32;6.53767
2C0L B K 28;2C0L B L 101;27.0022
2C0L B L 31;2C0L B V 32;19.8399
2C0L B L 31;2C0L B K 34;11.3038
2C0L B L 31;2C0L B E 35;9.38179
2C0L B L 31;2C0L B L 101;2.41166
2C0L B L 31;2C0L B L 136;0.0753641
2C0L B V 32;2C0L B K 34;1.14398
2C0L B V 32;2C0L B E 35;6.50666
2C0L B V 32;2C0L B L 101;16.2242
2C0L B V 32;2C0L B T 105;3.92873
2C0L B V 32;2C0L B L 136;21.154
2C0L B K 34;2C0L B E 35;15.9494
2C0L B K 34;2C0L B K 38;21.4956
2C0L B E 35;2C0L B K 38;18.0692
2C0L B E 35;2C0L B L 136;20.8755
2C0L B L 101;2C0L B T 105;24.8882
2C0L B T 105;2C0L B K 107;23.2338
2C0L B T 105;2C0L B L 136;16.0247
2C0L B L 136;2C0L B Q 137;28.1855
2C0L B Q 137;2C0L B P 138;43.5325
2C0L B Q 137;2C0L B G 139;1.36079
2C0L B P 138;2C0L B G 139;37.2313
2C0L B P 138;2C0L B N 140;0.0537649
2C0L B G 139;2C0L B N 140;34.762
2C0L B G 139;2C0L B A 141;0.204417
2C0L B N 140;2C0L B A 141;26.9015
2C0L B N 140;2C0L B K 142;17.8521
2C0L B A 141;2C0L B K 142;22.4863
2C0L B A 141;2C0L B L 143;2.63682
2C0L B K 142;2C0L B L 143;18.1925
