V1;V2;Weight
2DVW B D 337;2DVW B R 338;21.023
2DVW B D 337;2DVW B R 339;16.4541
2DVW B R 338;2DVW B R 339;19.6584
2DVW B R 338;2DVW B R 342;14.8909
2DVW B R 338;2DVW B E 361;10.8059
2DVW B R 338;2DVW B A 365;27.3234
2DVW B R 339;2DVW B R 342;17.1097
2DVW B R 342;2DVW B E 361;17.7338
2DVW B L 354;2DVW B S 355;27.6838
2DVW B L 354;2DVW B E 356;3.81946
2DVW B L 354;2DVW B V 358;20.0672
2DVW B L 354;2DVW B I 393;3.82036
2DVW B S 355;2DVW B E 356;24.1333
2DVW B S 355;2DVW B E 357;16.475
2DVW B S 355;2DVW B V 358;20.7937
2DVW B S 355;2DVW B I 393;18.2791
2DVW B S 355;2DVW B L 395;12.6288
2DVW B S 355;2DVW B A 396;0.463776
2DVW B E 356;2DVW B E 357;17.3745
2DVW B E 356;2DVW B V 358;4.10156
2DVW B E 357;2DVW B V 358;22.9579
2DVW B E 357;2DVW B D 359;3.67676
2DVW B E 357;2DVW B L 395;5.02253
2DVW B E 357;2DVW B A 396;5.43767
2DVW B V 358;2DVW B D 359;26.9338
2DVW B V 358;2DVW B Y 363;4.37056
2DVW B V 358;2DVW B L 395;5.89599
2DVW B V 358;2DVW B A 396;18.1901
2DVW B D 359;2DVW B E 361;16.7212
2DVW B D 359;2DVW B D 362;17.4258
2DVW B D 359;2DVW B Y 363;5.97163
2DVW B D 359;2DVW B A 396;0.421841
2DVW B E 361;2DVW B D 362;17.905
2DVW B E 361;2DVW B Y 363;1.53907
2DVW B E 361;2DVW B A 365;16.0182
2DVW B D 362;2DVW B Y 363;34.1732
2DVW B D 362;2DVW B A 365;5.00904
2DVW B D 362;2DVW B R 366;20.0868
2DVW B D 362;2DVW B A 396;0.345963
2DVW B D 362;2DVW B E 400;1.39396
2DVW B Y 363;2DVW B A 365;2.10607
2DVW B Y 363;2DVW B R 366;26.16
2DVW B Y 363;2DVW B A 396;12.5924
2DVW B Y 363;2DVW B E 400;23.6625
2DVW B Y 363;2DVW B Y 403;26.586
2DVW B A 365;2DVW B R 366;25.1346
2DVW B A 365;2DVW B P 367;4.11303
2DVW B R 366;2DVW B P 367;27.4424
2DVW B R 366;2DVW B D 368;12.0365
2DVW B R 366;2DVW B E 400;22.7119
2DVW B R 366;2DVW B Y 403;33.6007
2DVW B P 367;2DVW B D 368;36.2851
2DVW B D 368;2DVW B Y 403;20.6804
2DVW B E 389;2DVW B N 390;27.4528
2DVW B E 389;2DVW B R 391;32.2047
2DVW B E 389;2DVW B K 397;15.5636
2DVW B N 390;2DVW B R 391;21.9772
2DVW B N 390;2DVW B Y 392;2.48892
2DVW B R 391;2DVW B Y 392;25.4395
2DVW B R 391;2DVW B I 393;22.9124
2DVW B R 391;2DVW B L 395;18.679
2DVW B R 391;2DVW B K 397;6.73498
2DVW B Y 392;2DVW B I 393;29.2325
2DVW B I 393;2DVW B L 395;9.00649
2DVW B L 395;2DVW B A 396;21.0037
2DVW B L 395;2DVW B K 397;18.8813
2DVW B A 396;2DVW B K 397;19.6335
2DVW B A 396;2DVW B E 400;9.98047
2DVW B K 397;2DVW B E 400;10.2815
2DVW B E 400;2DVW B Y 403;8.3093
2DVW B E 400;2DVW B K 404;24.3323
2DVW B Y 403;2DVW B K 404;24.7092
