V1;V2;Weight
2FTL E Y 39;2FTL E H 40;27.5763
2FTL E Y 39;2FTL E F 41;14.5653
2FTL E Y 39;2FTL E K 60;13.9386
2FTL E H 40;2FTL E F 41;20.7032
2FTL E H 40;2FTL E C 42;12.9966
2FTL E H 40;2FTL E W 141;29.9072
2FTL E H 40;2FTL E Y 151;0.349635
2FTL E H 40;2FTL E G 193;15.8488
2FTL E F 41;2FTL E C 42;34.2308
2FTL E F 41;2FTL E C 58;12.6967
2FTL E F 41;2FTL E K 60;23.2897
2FTL E F 41;2FTL E G 193;3.91921
2FTL E C 42;2FTL E C 58;19.5427
2FTL E C 42;2FTL E G 193;5.96596
2FTL E C 42;2FTL E D 194;0.0314155
2FTL E C 42;2FTL E S 195;10.9075
2FTL E H 57;2FTL E C 58;23.6452
2FTL E H 57;2FTL E Y 59;8.63163
2FTL E H 57;2FTL E Y 94;16.8471
2FTL E H 57;2FTL E L 99;0.111467
2FTL E H 57;2FTL E D 102;17.1821
2FTL E H 57;2FTL E S 195;11.405
2FTL E H 57;2FTL E V 213;1.51158
2FTL E H 57;2FTL E S 214;9.53359
2FTL E C 58;2FTL E Y 59;18.0298
2FTL E C 58;2FTL E K 60;4.41265
2FTL E C 58;2FTL E S 195;7.60994
2FTL E Y 59;2FTL E K 60;42.4537
2FTL E Y 94;2FTL E S 96;26.4903
2FTL E Y 94;2FTL E L 99;15.9722
2FTL E Y 94;2FTL E D 102;13.6436
2FTL E S 96;2FTL E N 97;32.6371
2FTL E S 96;2FTL E L 99;8.71561
2FTL E N 97;2FTL E L 99;8.12882
2FTL E L 99;2FTL E D 102;18.1412
2FTL E L 99;2FTL E S 214;3.69167
2FTL E L 99;2FTL E W 215;25.7755
2FTL E D 102;2FTL E S 214;16.9717
2FTL E W 141;2FTL E Y 151;9.71257
2FTL E W 141;2FTL E G 193;4.89579
2FTL E W 141;2FTL E D 194;1.61961
2FTL E T 149;2FTL E Y 151;22.7496
2FTL E Y 151;2FTL E Q 192;14.3352
2FTL E Y 151;2FTL E G 193;2.05153
2FTL E D 189;2FTL E S 190;30.6177
2FTL E D 189;2FTL E C 191;0.0121372
2FTL E D 189;2FTL E G 216;0.221955
2FTL E D 189;2FTL E S 217;0.00190158
2FTL E D 189;2FTL E G 219;2.48042
2FTL E D 189;2FTL E C 220;6.92063
2FTL E D 189;2FTL E G 226;14.6938
2FTL E D 189;2FTL E Y 228;5.81303
2FTL E S 190;2FTL E C 191;18.0722
2FTL E S 190;2FTL E D 194;7.89043
2FTL E S 190;2FTL E V 213;12.3594
2FTL E S 190;2FTL E C 220;6.13762
2FTL E S 190;2FTL E G 226;0.368973
2FTL E S 190;2FTL E V 227;0.122921
2FTL E S 190;2FTL E Y 228;16.8889
2FTL E C 191;2FTL E Q 192;26.7738
2FTL E C 191;2FTL E G 193;0.646279
2FTL E C 191;2FTL E D 194;18.2907
2FTL E C 191;2FTL E S 195;0.0308322
2FTL E C 191;2FTL E C 220;22.1636
2FTL E Q 192;2FTL E G 193;13.8243
2FTL E Q 192;2FTL E D 194;0.352419
2FTL E Q 192;2FTL E G 219;5.37769
2FTL E Q 192;2FTL E C 220;12.0012
2FTL E G 193;2FTL E D 194;18.8484
2FTL E G 193;2FTL E S 195;1.96597
2FTL E D 194;2FTL E S 195;18.1942
2FTL E D 194;2FTL E V 213;16.7371
2FTL E S 195;2FTL E V 213;12.8614
2FTL E S 195;2FTL E S 214;3.77192
2FTL E V 213;2FTL E S 214;22.9314
2FTL E V 213;2FTL E V 227;0.157634
2FTL E V 213;2FTL E Y 228;15.539
2FTL E S 214;2FTL E W 215;32.5511
2FTL E S 214;2FTL E V 227;10.7894
2FTL E S 214;2FTL E Y 228;7.04129
2FTL E W 215;2FTL E G 216;27.6742
2FTL E W 215;2FTL E S 217;0.728763
2FTL E W 215;2FTL E G 226;1.65111
2FTL E W 215;2FTL E V 227;42.8732
2FTL E G 216;2FTL E S 217;20.8869
2FTL E G 216;2FTL E G 219;13.2821
2FTL E G 216;2FTL E G 226;3.30298
2FTL E G 216;2FTL E V 227;3.58679
2FTL E S 217;2FTL E G 219;27.865
2FTL E S 217;2FTL E C 220;1.52544
2FTL E G 219;2FTL E C 220;31.0448
2FTL E G 226;2FTL E V 227;18.1366
2FTL E G 226;2FTL E Y 228;14.1845
2FTL E V 227;2FTL E Y 228;28.3903
