V1;V2;Weight
2J0T D C 1;2J0T D T 2;20.028
2J0T D C 1;2J0T D C 3;7.40144
2J0T D C 1;2J0T D E 67;4.06607
2J0T D C 1;2J0T D S 68;11.4117
2J0T D C 1;2J0T D C 70;21.379
2J0T D C 1;2J0T D T 98;8.96435
2J0T D C 1;2J0T D C 99;4.06594
2J0T D T 2;2J0T D C 3;20.8348
2J0T D T 2;2J0T D C 99;1.34951
2J0T D C 3;2J0T D V 4;20.6015
2J0T D C 3;2J0T D P 5;10.9975
2J0T D C 3;2J0T D P 6;0.0130661
2J0T D C 3;2J0T D T 98;14.1632
2J0T D C 3;2J0T D C 99;24.7905
2J0T D V 4;2J0T D P 5;36.6003
2J0T D V 4;2J0T D P 6;10.8652
2J0T D V 4;2J0T D C 99;2.11943
2J0T D P 5;2J0T D P 6;34.8879
2J0T D P 5;2J0T D C 99;0.453684
2J0T D P 6;2J0T D C 99;17.9434
2J0T D T 33;2J0T D L 34;26.582
2J0T D T 33;2J0T D Y 35;31.5315
2J0T D L 34;2J0T D Y 35;20.1345
2J0T D L 34;2J0T D P 64;5.85923
2J0T D L 34;2J0T D M 66;31.0346
2J0T D L 34;2J0T D V 69;2.21918
2J0T D Y 35;2J0T D P 64;27.1927
2J0T D Y 35;2J0T D Q 90;5.58414
2J0T D P 64;2J0T D M 66;5.79576
2J0T D P 64;2J0T D V 69;18.9585
2J0T D P 64;2J0T D C 70;5.5268
2J0T D P 64;2J0T D T 97;10.7102
2J0T D M 66;2J0T D E 67;20.0529
2J0T D M 66;2J0T D S 68;12.6952
2J0T D M 66;2J0T D V 69;23.1376
2J0T D M 66;2J0T D C 70;0.894685
2J0T D E 67;2J0T D S 68;22.8433
2J0T D E 67;2J0T D V 69;1.18737
2J0T D E 67;2J0T D C 70;5.90579
2J0T D E 67;2J0T D T 98;4.3879
2J0T D S 68;2J0T D V 69;18.5474
2J0T D S 68;2J0T D C 70;1.93651
2J0T D V 69;2J0T D C 70;23.7189
2J0T D C 70;2J0T D T 97;20.3828
2J0T D C 70;2J0T D T 98;14.4834
2J0T D C 70;2J0T D C 99;3.92419
2J0T D K 88;2J0T D Q 90;18.4907
2J0T D T 97;2J0T D T 98;17.4057
2J0T D T 97;2J0T D C 99;16.764
2J0T D T 98;2J0T D C 99;18.5311
