V1;V2;Weight
3AAA C K 4;3AAA C E 5;31.6833
3AAA C K 4;3AAA C M 7;16.7331
3AAA C K 4;3AAA C W 8;11.6426
3AAA C E 5;3AAA C M 7;0.921421
3AAA C E 5;3AAA C W 8;6.59623
3AAA C E 5;3AAA C A 9;8.30208
3AAA C M 7;3AAA C W 8;19.4839
3AAA C M 7;3AAA C A 9;0.628406
3AAA C M 7;3AAA C K 11;28.8929
3AAA C M 7;3AAA C G 34;14.5054
3AAA C M 7;3AAA C Y 41;27.2366
3AAA C W 8;3AAA C A 9;20.2794
3AAA C W 8;3AAA C K 11;10.8125
3AAA C W 8;3AAA C N 12;29.5993
3AAA C A 9;3AAA C K 11;0.520989
3AAA C A 9;3AAA C N 12;6.19733
3AAA C A 9;3AAA C D 14;19.15
3AAA C A 9;3AAA C E 17;14.6075
3AAA C K 11;3AAA C N 12;18.3964
3AAA C K 11;3AAA C Y 41;26.3072
3AAA C K 11;3AAA C D 44;1.54258
3AAA C K 11;3AAA C C 45;26.9662
3AAA C K 11;3AAA C Q 47;7.96629
3AAA C N 12;3AAA C D 14;7.49833
3AAA C N 12;3AAA C Q 47;7.03135
3AAA C D 14;3AAA C D 16;9.71535
3AAA C D 14;3AAA C E 17;23.8622
3AAA C D 16;3AAA C E 17;21.8282
3AAA C G 34;3AAA C R 36;5.39293
3AAA C G 34;3AAA C Y 41;10.6694
3AAA C G 34;3AAA C K 66;17.8798
3AAA C G 34;3AAA C H 67;0.139782
3AAA C R 36;3AAA C Y 41;34.5683
3AAA C R 36;3AAA C D 44;15.4936
3AAA C R 36;3AAA C D 65;24.519
3AAA C R 36;3AAA C K 66;2.19048
3AAA C R 36;3AAA C H 67;12.8315
3AAA C R 36;3AAA C I 69;9.35874
3AAA C Y 41;3AAA C D 44;10.3659
3AAA C Y 41;3AAA C C 45;10.2141
3AAA C D 44;3AAA C C 45;24.7434
3AAA C D 44;3AAA C E 78;18.8728
3AAA C D 44;3AAA C H 80;6.88169
3AAA C C 45;3AAA C Q 47;14.8002
3AAA C C 45;3AAA C H 80;11.7001
3AAA C D 65;3AAA C K 66;23.8131
3AAA C D 65;3AAA C H 67;16.2146
3AAA C D 65;3AAA C I 69;19.3318
3AAA C K 66;3AAA C H 67;46.4925
3AAA C H 67;3AAA C I 69;15.8085
3AAA C H 67;3AAA C P 99;12.2883
3AAA C I 69;3AAA C Y 77;19.7631
3AAA C I 69;3AAA C P 99;14.5052
3AAA C Y 77;3AAA C E 78;25.833
3AAA C Y 77;3AAA C P 99;13.6397
3AAA C Y 77;3AAA C D 109;5.19045
3AAA C E 78;3AAA C H 80;22.6004
