V1;V2;Weight
3N85 A Q 371;3N85 A P 372;35.7763
3N85 A Q 371;3N85 A E 373;15.3162
3N85 A P 372;3N85 A E 373;31.5209
3N85 A P 372;3N85 A Q 376;0.71808
3N85 A P 372;3N85 A S 396;13.4738
3N85 A P 372;3N85 A L 397;18.7622
3N85 A P 372;3N85 A V 402;0.851674
3N85 A E 373;3N85 A Q 376;22.2795
3N85 A E 373;3N85 A L 397;0.0799034
3N85 A Q 376;3N85 A E 379;24.506
3N85 A Q 376;3N85 A V 402;4.60757
3N85 A E 379;3N85 A S 401;0.289536
3N85 A E 379;3N85 A V 402;12.1314
3N85 A E 379;3N85 A Q 404;8.92048
3N85 A D 395;3N85 A S 396;18.2239
3N85 A D 395;3N85 A L 397;3.05252
3N85 A S 396;3N85 A L 397;24.6253
3N85 A S 396;3N85 A P 398;4.75653
3N85 A L 397;3N85 A P 398;19.3365
3N85 A L 397;3N85 A D 399;12.256
3N85 A L 397;3N85 A V 402;9.85105
3N85 A L 397;3N85 A G 427;1.0014
3N85 A L 397;3N85 A I 428;8.7781
3N85 A P 398;3N85 A D 399;27.7182
3N85 A P 398;3N85 A I 428;9.06619
3N85 A P 398;3N85 A S 429;10.2057
3N85 A P 398;3N85 A W 430;21.7178
3N85 A D 399;3N85 A S 401;23.1573
3N85 A D 399;3N85 A V 402;0.251353
3N85 A D 399;3N85 A I 428;9.80253
3N85 A D 399;3N85 A W 430;25.9077
3N85 A D 399;3N85 A G 432;4.63712
3N85 A S 401;3N85 A V 402;19.0765
3N85 A S 401;3N85 A Q 404;25.7495
3N85 A S 401;3N85 A G 432;12.8363
3N85 A S 401;3N85 A R 434;2.08562
3N85 A S 401;3N85 A Q 505;1.01496
3N85 A V 402;3N85 A Q 404;5.16542
3N85 A Q 404;3N85 A G 432;8.03439
3N85 A Q 404;3N85 A R 434;37.6395
3N85 A G 427;3N85 A I 428;25.6583
3N85 A G 427;3N85 A S 429;1.09789
3N85 A G 427;3N85 A T 450;5.7157
3N85 A G 427;3N85 A H 451;19.6892
3N85 A I 428;3N85 A S 429;17.8744
3N85 A I 428;3N85 A W 430;8.14398
3N85 A I 428;3N85 A H 451;6.29448
3N85 A S 429;3N85 A W 430;33.2013
3N85 A S 429;3N85 A H 451;21.9595
3N85 A S 429;3N85 A L 487;4.97744
3N85 A W 430;3N85 A G 432;6.38742
3N85 A W 430;3N85 A G 486;3.52661
3N85 A W 430;3N85 A P 501;21.9584
3N85 A W 430;3N85 A Q 505;4.21527
3N85 A G 432;3N85 A R 434;12.8404
3N85 A G 432;3N85 A Q 505;11.7756
3N85 A R 434;3N85 A T 504;15.8414
3N85 A R 434;3N85 A Q 505;22.3751
3N85 A T 450;3N85 A H 451;33.9152
3N85 A T 450;3N85 A R 477;11.2209
3N85 A T 450;3N85 A P 478;0.256519
3N85 A H 451;3N85 A R 477;17.8241
3N85 A H 451;3N85 A L 487;0.911573
3N85 A R 477;3N85 A P 478;32.0015
3N85 A R 477;3N85 A E 481;17.1821
3N85 A R 477;3N85 A L 487;16.7946
3N85 A P 478;3N85 A D 480;11.7921
3N85 A P 478;3N85 A E 481;31.4843
3N85 A D 480;3N85 A E 481;29.831
3N85 A D 480;3N85 A V 483;20.5442
3N85 A E 481;3N85 A V 483;7.3775
3N85 A E 481;3N85 A L 487;4.65775
3N85 A V 483;3N85 A G 484;33.9854
3N85 A V 483;3N85 A L 487;5.51274
3N85 A G 484;3N85 A E 485;31.9496
3N85 A G 484;3N85 A G 486;0.200549
3N85 A G 484;3N85 A L 487;13.4783
3N85 A E 485;3N85 A G 486;23.8873
3N85 A E 485;3N85 A L 487;9.13614
3N85 A G 486;3N85 A L 487;27.2555
3N85 A G 486;3N85 A P 501;16.1571
3N85 A G 486;3N85 A G 502;0.222365
3N85 A P 501;3N85 A G 502;25.403
3N85 A P 501;3N85 A T 504;2.57936
3N85 A P 501;3N85 A Q 505;12.6222
3N85 A G 502;3N85 A P 503;24.1973
3N85 A G 502;3N85 A T 504;7.13181
3N85 A G 502;3N85 A Q 505;8.78912
3N85 A P 503;3N85 A T 504;24.8863
3N85 A P 503;3N85 A Q 505;1.4155
3N85 A T 504;3N85 A Q 505;27.7311
