V1;V2;Weight
3SE9 G K 97;3SE9 G E 275;8.43327
3SE9 G E 102;3SE9 G K 476;27.5678
3SE9 G L 122;3SE9 G G 124;12.3679
3SE9 G L 122;3SE9 G M 426;0.120345
3SE9 G L 122;3SE9 G G 431;5.15894
3SE9 G G 124;3SE9 G G 431;0.0472045
3SE9 G E 275;3SE9 G N 276;35.2378
3SE9 G E 275;3SE9 G K 282;29.6745
3SE9 G E 275;3SE9 G T 283;1.29342
3SE9 G N 276;3SE9 G T 278;11.1737
3SE9 G N 276;3SE9 G N 279;26.731
3SE9 G N 276;3SE9 G K 282;12.6607
3SE9 G T 278;3SE9 G N 279;17.347
3SE9 G T 278;3SE9 G N 280;5.85751
3SE9 G T 278;3SE9 G R 456;17.6506
3SE9 G N 279;3SE9 G N 280;20.5044
3SE9 G N 279;3SE9 G A 281;11.4174
3SE9 G N 279;3SE9 G K 282;35.0857
3SE9 G N 279;3SE9 G R 456;0.432049
3SE9 G N 280;3SE9 G A 281;18.6993
3SE9 G N 280;3SE9 G K 282;8.33822
3SE9 G N 280;3SE9 G T 455;9.15925
3SE9 G N 280;3SE9 G R 456;29.3749
3SE9 G N 280;3SE9 G D 457;1.19703
3SE9 G N 280;3SE9 G G 458;12.2288
3SE9 G A 281;3SE9 G K 282;28.5702
3SE9 G A 281;3SE9 G T 283;2.83712
3SE9 G K 282;3SE9 G T 283;30.5075
3SE9 G K 282;3SE9 G T 455;3.26327
3SE9 G K 282;3SE9 G R 456;1.12967
3SE9 G T 283;3SE9 G T 455;8.85975
3SE9 G T 283;3SE9 G G 472;13.9148
3SE9 G T 283;3SE9 G N 474;1.21013
3SE9 G S 365;3SE9 G G 366;28.355
3SE9 G S 365;3SE9 G R 469;20.3596
3SE9 G G 366;3SE9 G G 367;23.0408
3SE9 G G 366;3SE9 G I 371;5.59416
3SE9 G G 367;3SE9 G D 368;24.73
3SE9 G G 367;3SE9 G I 371;6.38243
3SE9 G D 368;3SE9 G I 371;15.7955
3SE9 G I 371;3SE9 G G 472;12.7298
3SE9 G I 371;3SE9 G G 473;9.88047
3SE9 G M 426;3SE9 G W 427;20.778
3SE9 G M 426;3SE9 G G 429;12.2434
3SE9 G M 426;3SE9 G G 431;23.5835
3SE9 G W 427;3SE9 G G 429;7.77634
3SE9 G W 427;3SE9 G G 473;11.1981
3SE9 G G 429;3SE9 G G 431;5.74799
3SE9 G T 455;3SE9 G R 456;27.8552
3SE9 G T 455;3SE9 G D 457;3.66493
3SE9 G T 455;3SE9 G R 469;27.179
3SE9 G T 455;3SE9 G G 472;0.648944
3SE9 G R 456;3SE9 G D 457;32.2061
3SE9 G R 456;3SE9 G G 458;2.85607
3SE9 G D 457;3SE9 G G 458;29.246
3SE9 G D 457;3SE9 G R 469;20.3743
3SE9 G G 458;3SE9 G G 459;23.3764
3SE9 G G 459;3SE9 G N 461;8.65298
3SE9 G G 459;3SE9 G N 462;0.197681
3SE9 G N 461;3SE9 G N 462;41.6533
3SE9 G G 472;3SE9 G G 473;21.5277
3SE9 G G 472;3SE9 G N 474;7.61052
3SE9 G G 473;3SE9 G N 474;26.2698
3SE9 G N 474;3SE9 G K 476;21.6477
