V1;V2;Weight
4KRO A Y 292;4KRO A E 293;33.7243
4KRO A Y 292;4KRO A M 294;8.28069
4KRO A Y 292;4KRO A K 303;33.5862
4KRO A Y 292;4KRO A E 306;3.70513
4KRO A E 293;4KRO A M 294;27.5371
4KRO A M 294;4KRO A E 295;31.9517
4KRO A M 294;4KRO A E 296;5.43479
4KRO A M 294;4KRO A K 303;10.7593
4KRO A E 295;4KRO A E 296;25.9433
4KRO A E 306;4KRO A P 308;1.62079
4KRO A E 306;4KRO A K 375;8.83593
4KRO A P 308;4KRO A R 310;1.45225
4KRO A P 308;4KRO A T 339;14.2768
4KRO A P 308;4KRO A K 375;13.0951
4KRO A R 310;4KRO A T 339;8.28215
4KRO A R 310;4KRO A S 340;11.8756
4KRO A R 310;4KRO A E 376;15.0907
4KRO A T 339;4KRO A S 340;22.9375
4KRO A T 339;4KRO A K 375;15.424
4KRO A T 339;4KRO A E 376;6.05313
4KRO A S 340;4KRO A S 342;1.89984
4KRO A S 340;4KRO A E 376;21.2987
4KRO A K 375;4KRO A E 376;19.0174
4KRO A K 375;4KRO A E 400;27.1344
4KRO A K 375;4KRO A I 401;6.38776
4KRO A E 376;4KRO A I 401;14.9233
4KRO A E 376;4KRO A R 403;24.6623
4KRO A E 376;4KRO A R 405;1.70621
4KRO A E 400;4KRO A I 401;23.0426
4KRO A E 400;4KRO A K 430;11.8583
4KRO A E 400;4KRO A E 431;5.78583
4KRO A I 401;4KRO A R 403;24.6229
4KRO A I 401;4KRO A E 431;27.3696
4KRO A I 401;4KRO A S 433;4.69569
4KRO A R 403;4KRO A R 405;32.0634
4KRO A R 403;4KRO A S 433;14.7416
4KRO A R 403;4KRO A D 434;12.7915
4KRO A R 405;4KRO A D 434;1.97623
4KRO A K 430;4KRO A E 431;22.3459
4KRO A K 430;4KRO A K 455;0.0833654
4KRO A K 430;4KRO A L 456;15.0761
4KRO A E 431;4KRO A S 433;13.9997
4KRO A E 431;4KRO A L 456;13.6968
4KRO A E 431;4KRO A G 458;0.4426
4KRO A S 433;4KRO A D 434;20.9494
4KRO A S 433;4KRO A L 456;0.333457
4KRO A S 433;4KRO A G 458;6.83124
4KRO A S 433;4KRO A T 459;11.1805
4KRO A D 434;4KRO A T 459;23.9357
4KRO A K 454;4KRO A K 455;23.2365
4KRO A K 454;4KRO A L 456;1.73576
4KRO A K 454;4KRO A F 457;32.6493
4KRO A K 455;4KRO A L 456;26.8795
4KRO A K 455;4KRO A F 457;1.80941
4KRO A L 456;4KRO A F 457;22.2857
4KRO A L 456;4KRO A G 458;1.45981
4KRO A F 457;4KRO A G 458;19.7716
4KRO A F 457;4KRO A T 459;5.20132
4KRO A G 458;4KRO A T 459;21.4357
4KRO A G 458;4KRO A S 460;0.570648
4KRO A T 459;4KRO A S 460;38.2815
