V1;V2;Weight
4OFY A P 52;4OFY A Q 54;10.9908
4OFY A P 52;4OFY A T 64;17.3352
4OFY A P 52;4OFY A Q 105;4.18399
4OFY A P 52;4OFY A I 106;3.21474
4OFY A P 52;4OFY A S 107;24.8172
4OFY A P 52;4OFY A E 108;1.93902
4OFY A P 52;4OFY A S 109;1.75217
4OFY A Q 54;4OFY A W 55;28.1099
4OFY A Q 54;4OFY A M 56;3.63063
4OFY A Q 54;4OFY A G 61;2.91777
4OFY A Q 54;4OFY A L 62;1.68386
4OFY A Q 54;4OFY A G 63;18.7974
4OFY A Q 54;4OFY A T 64;15.6765
4OFY A Q 54;4OFY A Q 105;27.0961
4OFY A Q 54;4OFY A S 107;5.53518
4OFY A W 55;4OFY A M 56;19.9892
4OFY A W 55;4OFY A G 61;2.79324
4OFY A W 55;4OFY A L 62;23.2561
4OFY A W 55;4OFY A G 63;2.44135
4OFY A M 56;4OFY A K 57;15.344
4OFY A M 56;4OFY A D 58;1.42149
4OFY A M 56;4OFY A D 59;35.5524
4OFY A M 56;4OFY A F 60;6.91253
4OFY A M 56;4OFY A G 61;5.60281
4OFY A M 56;4OFY A L 62;5.65471
4OFY A M 56;4OFY A Q 105;16.2022
4OFY A M 56;4OFY A V 116;8.70821
4OFY A K 57;4OFY A D 58;23.5004
4OFY A K 57;4OFY A D 59;1.72191
4OFY A K 57;4OFY A F 60;20.0127
4OFY A K 57;4OFY A L 62;19.3325
4OFY A K 57;4OFY A F 97;37.1141
4OFY A D 58;4OFY A D 59;27.4367
4OFY A D 58;4OFY A F 60;3.61823
4OFY A D 59;4OFY A F 60;13.8311
4OFY A D 59;4OFY A G 61;2.22823
4OFY A F 60;4OFY A G 61;31.0382
4OFY A F 60;4OFY A L 62;11.0408
4OFY A F 60;4OFY A G 72;2.47808
4OFY A G 61;4OFY A L 62;23.3427
4OFY A G 61;4OFY A G 63;1.52029
4OFY A G 61;4OFY A G 72;1.85215
4OFY A L 62;4OFY A G 63;24.1941
4OFY A L 62;4OFY A P 71;6.50677
4OFY A L 62;4OFY A G 72;16.8357
4OFY A G 63;4OFY A T 64;22.3827
4OFY A G 63;4OFY A D 65;0.94341
4OFY A G 63;4OFY A P 71;9.42736
4OFY A T 64;4OFY A D 65;35.2834
4OFY A T 64;4OFY A P 71;1.10441
4OFY A D 65;4OFY A P 71;15.2458
4OFY A P 71;4OFY A G 72;26.5921
4OFY A Q 105;4OFY A I 106;26.4041
4OFY A Q 105;4OFY A S 107;11.6222
4OFY A Q 105;4OFY A A 114;0.00360221
4OFY A Q 105;4OFY A V 116;16.125
4OFY A I 106;4OFY A S 107;19.9489
4OFY A I 106;4OFY A A 114;6.38326
4OFY A I 106;4OFY A V 116;0.120583
4OFY A S 107;4OFY A E 108;22.2653
4OFY A S 107;4OFY A S 109;5.88301
4OFY A S 107;4OFY A A 114;4.19416
4OFY A E 108;4OFY A S 109;20.9198
4OFY A E 108;4OFY A D 110;4.04677
4OFY A E 108;4OFY A A 114;20.9318
4OFY A S 109;4OFY A D 110;22.5408
4OFY A A 114;4OFY A V 116;4.29127
