V1;V2;Weight
4YEB B R 36;4YEB B C 37;24.0121
4YEB B R 36;4YEB B Y 43;16.95
4YEB B R 36;4YEB B R 47;8.38323
4YEB B C 37;4YEB B D 38;29.9854
4YEB B C 37;4YEB B F 41;5.96514
4YEB B C 37;4YEB B Y 43;5.41126
4YEB B D 38;4YEB B F 41;21.166
4YEB B D 38;4YEB B Y 43;19.3701
4YEB B F 41;4YEB B Y 43;19.0017
4YEB B F 41;4YEB B Y 64;12.0003
4YEB B F 41;4YEB B R 87;10.4756
4YEB B Y 43;4YEB B N 45;11.278
4YEB B Y 43;4YEB B R 47;11.8734
4YEB B Y 43;4YEB B Y 64;20.9019
4YEB B N 45;4YEB B D 46;32.9899
4YEB B N 45;4YEB B R 47;27.2725
4YEB B N 45;4YEB B Y 64;9.2264
4YEB B N 45;4YEB B Q 66;22.5148
4YEB B D 46;4YEB B R 47;19.6124
4YEB B D 46;4YEB B Q 66;7.80623
4YEB B D 46;4YEB B N 67;30.9654
4YEB B Y 64;4YEB B Q 66;13.7372
4YEB B Y 64;4YEB B R 87;3.60385
4YEB B Y 64;4YEB B Y 89;17.5737
4YEB B Q 66;4YEB B N 67;27.0082
4YEB B Q 66;4YEB B Y 89;13.1782
4YEB B Q 66;4YEB B Y 91;37.549
4YEB B Q 66;4YEB B H 92;0.0222551
4YEB B N 67;4YEB B Y 91;8.28871
4YEB B N 67;4YEB B H 92;33.7448
4YEB B R 87;4YEB B Y 89;19.0809
4YEB B R 87;4YEB B E 108;32.0016
4YEB B Y 89;4YEB B Y 91;15.7534
4YEB B Y 89;4YEB B E 108;10.1844
4YEB B Y 89;4YEB B H 110;27.9191
4YEB B Y 91;4YEB B H 92;29.0922
4YEB B Y 91;4YEB B H 110;9.01984
4YEB B Y 91;4YEB B Q 112;26.4891
4YEB B Y 91;4YEB B E 113;1.88675
4YEB B H 92;4YEB B Q 112;5.79458
4YEB B H 92;4YEB B E 113;43.513
4YEB B E 108;4YEB B H 110;19.34
4YEB B E 108;4YEB B E 132;34.3245
4YEB B E 108;4YEB B H 134;0.409558
4YEB B H 110;4YEB B Q 112;17.5138
4YEB B H 110;4YEB B E 132;0.123555
4YEB B H 110;4YEB B H 134;25.896
4YEB B Q 112;4YEB B E 113;25.8947
4YEB B Q 112;4YEB B H 134;16.9046
4YEB B Q 112;4YEB B D 136;23.6223
4YEB B Q 112;4YEB B D 137;1.51007
4YEB B E 113;4YEB B D 136;2.65838
4YEB B E 113;4YEB B D 137;31.926
4YEB B E 132;4YEB B H 134;17.3091
4YEB B E 132;4YEB B L 158;27.9306
4YEB B H 134;4YEB B D 136;10.4515
4YEB B H 134;4YEB B L 158;6.525
4YEB B H 134;4YEB B F 160;22.8343
4YEB B D 136;4YEB B D 137;26.7487
4YEB B D 136;4YEB B F 160;21.0352
4YEB B D 136;4YEB B S 162;26.3942
4YEB B D 136;4YEB B R 181;4.07166
4YEB B D 137;4YEB B S 162;7.10096
4YEB B L 158;4YEB B F 160;18.5832
4YEB B L 158;4YEB B E 179;34.2645
4YEB B F 160;4YEB B S 162;3.3526
4YEB B F 160;4YEB B E 179;19.3559
4YEB B F 160;4YEB B R 181;40.0143
4YEB B S 162;4YEB B R 181;12.4156
4YEB B S 162;4YEB B D 183;26.6183
4YEB B E 179;4YEB B R 181;6.9921
4YEB B E 179;4YEB B R 203;35.9656
4YEB B R 181;4YEB B D 183;11.6405
4YEB B R 181;4YEB B R 203;3.6774
4YEB B R 181;4YEB B V 205;28.9453
4YEB B D 183;4YEB B V 205;17.4263
4YEB B R 203;4YEB B V 205;13.4653
4YEB B R 203;4YEB B E 229;34.8661
4YEB B V 205;4YEB B E 229;1.71255
4YEB B R 275;4YEB B Q 299;49.7923
4YEB B Q 299;4YEB B N 328;17.1058
4YEB B K 326;4YEB B N 328;4.16243
4YEB B N 328;4YEB B R 330;22.8197
