V1;V2;Weight
4YFD B C 24;4YFD B D 25;23.3036
4YFD B C 24;4YFD B D 26;9.29952
4YFD B C 24;4YFD B M 115;3.5571
4YFD B C 24;4YFD B R 117;4.87927
4YFD B C 24;4YFD B C 122;31.76
4YFD B C 24;4YFD B K 124;15.7222
4YFD B D 25;4YFD B D 26;16.2316
4YFD B D 25;4YFD B W 27;7.96952
4YFD B D 25;4YFD B C 122;13.4495
4YFD B D 25;4YFD B K 124;8.80225
4YFD B D 26;4YFD B W 27;19.4721
4YFD B D 26;4YFD B G 28;17.6306
4YFD B D 26;4YFD B K 124;32.4031
4YFD B W 27;4YFD B G 28;20.3211
4YFD B W 27;4YFD B L 29;3.70197
4YFD B W 27;4YFD B D 30;0.508998
4YFD B W 27;4YFD B F 53;35.8526
4YFD B W 27;4YFD B L 54;5.35792
4YFD B W 27;4YFD B K 124;13.9341
4YFD B G 28;4YFD B L 29;22.8328
4YFD B G 28;4YFD B D 30;0.151433
4YFD B G 28;4YFD B K 124;0.000162415
4YFD B L 29;4YFD B D 30;24.4429
4YFD B L 29;4YFD B T 31;26.7398
4YFD B D 30;4YFD B T 31;17.7457
4YFD B D 30;4YFD B M 32;14.7362
4YFD B D 30;4YFD B H 52;7.55966
4YFD B D 30;4YFD B F 53;14.5877
4YFD B T 31;4YFD B M 32;24.6397
4YFD B M 32;4YFD B H 52;9.22127
4YFD B E 51;4YFD B H 52;31.2077
4YFD B E 51;4YFD B F 53;0.967391
4YFD B E 51;4YFD B L 54;11.5568
4YFD B E 51;4YFD B K 55;8.36004
4YFD B H 52;4YFD B F 53;36.443
4YFD B H 52;4YFD B L 54;0.0772846
4YFD B F 53;4YFD B L 54;30.866
4YFD B F 53;4YFD B K 55;7.51899
4YFD B L 54;4YFD B K 55;31.9316
4YFD B Y 58;4YFD B H 62;36.5038
4YFD B Y 58;4YFD B L 68;12.9313
4YFD B Y 58;4YFD B K 94;4.75392
4YFD B Y 58;4YFD B K 96;39.0663
4YFD B H 62;4YFD B G 65;9.91557
4YFD B H 62;4YFD B L 66;15.8288
4YFD B H 62;4YFD B T 67;0.364659
4YFD B H 62;4YFD B K 96;0.385733
4YFD B G 65;4YFD B L 66;21.9366
4YFD B G 65;4YFD B T 67;4.69832
4YFD B G 65;4YFD B R 117;1.17986
4YFD B G 65;4YFD B N 118;12.3097
4YFD B L 66;4YFD B T 67;24.2669
4YFD B L 66;4YFD B L 68;0.468588
4YFD B L 66;4YFD B R 117;11.6063
4YFD B L 66;4YFD B N 118;23.8272
4YFD B T 67;4YFD B L 68;20.0596
4YFD B T 67;4YFD B I 69;13.499
4YFD B T 67;4YFD B M 115;3.11038
4YFD B T 67;4YFD B R 117;22.9442
4YFD B L 68;4YFD B I 69;28.1511
4YFD B L 68;4YFD B W 70;15.1498
4YFD B L 68;4YFD B K 94;18.4759
4YFD B L 68;4YFD B K 96;6.22481
4YFD B L 68;4YFD B M 115;12.7645
4YFD B I 69;4YFD B W 70;24.5368
4YFD B I 69;4YFD B Y 71;17.7873
4YFD B I 69;4YFD B K 94;0.291941
4YFD B I 69;4YFD B T 113;1.62526
4YFD B I 69;4YFD B M 115;33.5279
4YFD B I 69;4YFD B R 117;7.70769
4YFD B W 70;4YFD B Y 71;28.0435
4YFD B W 70;4YFD B P 82;4.17777
4YFD B W 70;4YFD B I 83;18.6986
4YFD B W 70;4YFD B F 85;8.43496
4YFD B W 70;4YFD B K 94;15.1335
4YFD B W 70;4YFD B K 96;0.408634
4YFD B W 70;4YFD B T 113;9.70967
4YFD B Y 71;4YFD B E 80;15.1729
4YFD B Y 71;4YFD B E 81;9.81181
4YFD B Y 71;4YFD B P 82;18.7423
4YFD B Y 71;4YFD B I 83;4.09943
4YFD B Y 71;4YFD B T 113;30.068
4YFD B Y 71;4YFD B M 115;0.763798
4YFD B D 78;4YFD B L 79;41.9455
4YFD B D 78;4YFD B E 80;2.97485
4YFD B L 79;4YFD B E 80;31.5527
4YFD B L 79;4YFD B E 81;19.3255
4YFD B E 80;4YFD B E 81;22.9891
4YFD B E 80;4YFD B P 82;0.920369
4YFD B E 80;4YFD B T 113;8.5143
4YFD B E 80;4YFD B K 124;6.57444
4YFD B E 81;4YFD B P 82;35.5678
4YFD B E 81;4YFD B I 83;0.811008
4YFD B P 82;4YFD B I 83;22.6845
4YFD B P 82;4YFD B N 84;2.35025
4YFD B I 83;4YFD B N 84;27.2761
4YFD B I 83;4YFD B F 85;25.7374
4YFD B N 84;4YFD B F 85;24.3035
4YFD B N 84;4YFD B R 86;23.674
4YFD B F 85;4YFD B R 86;22.1567
4YFD B F 85;4YFD B K 94;24.1823
4YFD B K 94;4YFD B E 95;25.7282
4YFD B K 94;4YFD B K 96;13.5373
4YFD B E 95;4YFD B K 96;28.2575
4YFD B T 113;4YFD B M 115;2.17813
4YFD B T 113;4YFD B K 124;22.6891
4YFD B M 115;4YFD B R 117;19.5887
4YFD B M 115;4YFD B C 122;13.5119
4YFD B M 115;4YFD B K 124;23.8395
4YFD B R 117;4YFD B N 118;28.7483
4YFD B R 117;4YFD B T 119;4.53795
4YFD B R 117;4YFD B C 122;21.6946
4YFD B N 118;4YFD B T 119;29.3599
4YFD B C 122;4YFD B K 124;0.788009
