"Metric";"Training_Set";"Testing_Set";"Independent"
"Accuracy";"0.801158301158301";"0.746606334841629";"0.767295597484277"
"Kappa";"0.367708753051598";"0.11397479954181";"0.23465980543791"
"AccuracyLower";"0.76414341923496";"0.683915416691366";"0.739155558931535"
"AccuracyUpper";"0.834694189322278";"0.802552609565137";"0.793774677586431"
"AccuracyNull";"0.752895752895753";"0.755656108597285";"0.758909853249476"
"AccuracyPValue";"0.00544914795809004";"0.656353035502451";"0.286646636852239"
"McnemarPValue";"1.09762221078359e-08";"2.91000483072298e-06";"3.34897318258577e-14"
"Sensitivity";"0.3671875";"0.148148148148148";"0.269565217391304"
"Specificity";"0.943589743589744";"0.940119760479042";"0.925414364640884"
"Pos Pred Value";"0.681159420289855";"0.444444444444444";"0.53448275862069"
"Neg Pred Value";"0.819599109131403";"0.773399014778325";"0.799522673031026"
"Precision";"0.681159420289855";"0.444444444444444";"0.53448275862069"
"Recall";"0.3671875";"0.148148148148148";"0.269565217391304"
"F1";"0.477157360406091";"0.222222222222222";"0.358381502890173"
"Prevalence";"0.247104247104247";"0.244343891402715";"0.241090146750524"
"Detection Rate";"0.0907335907335907";"0.0361990950226244";"0.0649895178197065"
"Detection Prevalence";"0.133204633204633";"0.081447963800905";"0.121593291404612"
"Balanced Accuracy";"0.655388621794872";"0.544133954313595";"0.597489791016094"
"TP";"47";"8";"62"
"TN";"368";"157";"670"
"FP";"22";"10";"54"
"FN";"81";"46";"168"
