c<B>r<1>R<MET> 1
c<B>r<2>R<ASP> 1.25
c<B>r<4>R<PHE> 1.25
c<B>r<6>R<MET> 1
c<B>r<8>R<ARG> 1
c<B>r<11>R<LYS> 1.33333
c<B>r<12>R<THR> 1.4
c<B>r<13>R<THR> 1.8
c<B>r<14>R<ILE> 2.4
c<B>r<15>R<PHE> 1.6
c<B>r<16>R<THR> 1.5
c<B>r<17>R<ASP> 1.33333
c<B>r<30>R<ILE> 1
c<B>r<33>R<GLY> 1
c<B>r<34>R<ILE> 1.2
c<B>r<35>R<LEU> 1
c<B>r<36>R<LYS> 1
c<B>r<64>R<SER> 1.75
c<B>r<65>R<GLN> 1.33333
c<B>r<68>R<ARG> 1.4
c<B>r<69>R<PRO> 1.2
c<B>r<70>R<GLN> 1.44444
c<B>r<71>R<ALA> 1
c<B>r<72>R<PRO> 1
c<B>r<91>R<GLU> 1.33333
c<B>r<92>R<PRO> 1.5
c<B>r<93>R<PHE> 1.66667
c<B>r<94>R<SER> 1.16667
c<B>r<95>R<SER> 1.5
c<B>r<96>R<PRO> 1.5
c<B>r<97>R<PRO> 1.25
c<B>r<98>R<GLU> 1
c<B>r<99>R<LEU> 1.16667
c<B>r<100>R<PRO> 1
c<B>r<102>R<VAL> 1.4
c<B>r<103>R<MET> 1.75
c<B>r<104>R<LYS> 1.33333
