c<A>r<902>a<6988>R<SER>A<CB> 1
c<A>r<902>a<6989>R<SER>A<OG> 1
c<A>r<903>a<6995>R<LYS>A<CG> 2
c<A>r<903>a<6996>R<LYS>A<CD> 1
c<A>r<903>a<6997>R<LYS>A<CE> 1
c<A>r<903>a<6998>R<LYS>A<NZ> 1
c<A>r<917>a<7111>R<PHE>A<CB> 2
c<A>r<917>a<7112>R<PHE>A<CG> 1
c<A>r<917>a<7113>R<PHE>A<CD1> 1
c<A>r<917>a<7114>R<PHE>A<CD2> 2
c<A>r<917>a<7115>R<PHE>A<CE1> 1
c<A>r<917>a<7116>R<PHE>A<CE2> 1
c<A>r<917>a<7117>R<PHE>A<CZ> 1
c<A>r<918>a<7118>R<ASN>A<N> 2
c<A>r<918>a<7120>R<ASN>A<C> 2
c<A>r<918>a<7121>R<ASN>A<O> 1
c<A>r<918>a<7123>R<ASN>A<CG> 2
c<A>r<918>a<7124>R<ASN>A<OD1> 1
c<A>r<918>a<7125>R<ASN>A<ND2> 2
c<A>r<919>a<7126>R<LEU>A<N> 2
c<A>r<919>a<7127>R<LEU>A<CA> 2
c<A>r<919>a<7130>R<LEU>A<CB> 2
c<A>r<919>a<7131>R<LEU>A<CG> 2
c<A>r<919>a<7132>R<LEU>A<CD1> 1
c<A>r<919>a<7133>R<LEU>A<CD2> 1
c<A>r<920>a<7134>R<GLU>A<N> 1
c<A>r<920>a<7135>R<GLU>A<CA> 2
c<A>r<920>a<7136>R<GLU>A<C> 1
c<A>r<920>a<7138>R<GLU>A<CB> 1
c<A>r<920>a<7139>R<GLU>A<CG> 1
c<A>r<920>a<7140>R<GLU>A<CD> 2
c<A>r<920>a<7141>R<GLU>A<OE1> 2
c<A>r<920>a<7142>R<GLU>A<OE2> 1
c<A>r<921>a<7143>R<SER>A<N> 2
c<A>r<921>a<7147>R<SER>A<CB> 1
c<A>r<921>a<7148>R<SER>A<OG> 2
c<A>r<950>a<7390>R<PRO>A<CB> 2
c<A>r<950>a<7391>R<PRO>A<CG> 2
c<A>r<951>a<7396>R<LYS>A<O> 2
c<A>r<953>a<7414>R<PHE>A<N> 3
c<A>r<953>a<7417>R<PHE>A<O> 1
c<A>r<953>a<7418>R<PHE>A<CB> 2
c<A>r<953>a<7419>R<PHE>A<CG> 2
c<A>r<953>a<7420>R<PHE>A<CD1> 2
c<A>r<953>a<7421>R<PHE>A<CD2> 1
c<A>r<953>a<7422>R<PHE>A<CE1> 2
c<A>r<953>a<7423>R<PHE>A<CE2> 1
c<A>r<953>a<7424>R<PHE>A<CZ> 2
c<A>r<954>a<7426>R<ASN>A<CA> 2
c<A>r<954>a<7427>R<ASN>A<C> 2
c<A>r<954>a<7429>R<ASN>A<CB> 1
c<A>r<954>a<7430>R<ASN>A<CG> 2
c<A>r<954>a<7431>R<ASN>A<OD1> 1
c<A>r<954>a<7432>R<ASN>A<ND2> 1
c<A>r<955>a<7433>R<SER>A<N> 1
c<A>r<955>a<7437>R<SER>A<CB> 1
c<A>r<955>a<7438>R<SER>A<OG> 1
c<A>r<956>a<7439>R<ILE>A<N> 2
c<A>r<956>a<7443>R<ILE>A<CB> 1
c<A>r<956>a<7445>R<ILE>A<CG2> 1
c<A>r<956>a<7446>R<ILE>A<CD1> 1
c<A>r<1056>a<8253>R<LYS>A<CG> 2
c<A>r<1056>a<8254>R<LYS>A<CD> 2
c<A>r<1056>a<8255>R<LYS>A<CE> 2
c<A>r<1056>a<8256>R<LYS>A<NZ> 1
c<A>r<1057>a<8260>R<LEU>A<O> 1
c<A>r<1058>a<8266>R<ASP>A<CA> 2
c<A>r<1058>a<8269>R<ASP>A<CB> 2
c<A>r<1058>a<8270>R<ASP>A<CG> 2
c<A>r<1058>a<8271>R<ASP>A<OD1> 1
c<A>r<1058>a<8272>R<ASP>A<OD2> 1
c<A>r<1059>a<8273>R<GLY>A<N> 1
c<A>r<1059>a<8274>R<GLY>A<CA> 1
c<A>r<1059>a<8275>R<GLY>A<C> 1
c<A>r<1059>a<8276>R<GLY>A<O> 1
c<A>r<1060>a<8277>R<CYS>A<N> 1
c<A>r<1060>a<8280>R<CYS>A<O> 1
c<A>r<1061>a<8284>R<ARG>A<CA> 2
c<A>r<1061>a<8285>R<ARG>A<C> 2
c<A>r<1061>a<8286>R<ARG>A<O> 1
c<A>r<1061>a<8287>R<ARG>A<CB> 2
c<A>r<1061>a<8288>R<ARG>A<CG> 2
c<A>r<1061>a<8290>R<ARG>A<NE> 2
c<A>r<1061>a<8291>R<ARG>A<CZ> 2
c<A>r<1061>a<8292>R<ARG>A<NH1> 1
c<A>r<1061>a<8293>R<ARG>A<NH2> 1
c<A>r<1062>a<8294>R<ASP>A<N> 2
c<A>r<1062>a<8300>R<ASP>A<OD1> 1
c<A>r<1062>a<8301>R<ASP>A<OD2> 2
c<A>r<1063>a<8302>R<THR>A<N> 1
c<A>r<1063>a<8303>R<THR>A<CA> 2
c<A>r<1063>a<8305>R<THR>A<O> 1
c<A>r<1063>a<8306>R<THR>A<CB> 2
c<A>r<1063>a<8307>R<THR>A<OG1> 1
c<A>r<1063>a<8308>R<THR>A<CG2> 1
c<A>r<1064>a<8310>R<HIS>A<CA> 2
c<A>r<1064>a<8311>R<HIS>A<C> 2
c<A>r<1064>a<8312>R<HIS>A<O> 1
c<A>r<1064>a<8313>R<HIS>A<CB> 1
c<A>r<1064>a<8314>R<HIS>A<CG> 2
c<A>r<1064>a<8315>R<HIS>A<ND1> 2
c<A>r<1064>a<8316>R<HIS>A<CD2> 2
c<A>r<1064>a<8317>R<HIS>A<CE1> 2
c<A>r<1064>a<8318>R<HIS>A<NE2> 2
c<A>r<1065>a<8319>R<ARG>A<N> 2
c<A>r<1065>a<8320>R<ARG>A<CA> 2
c<A>r<1065>a<8322>R<ARG>A<O> 2
c<A>r<1065>a<8323>R<ARG>A<CB> 3
c<A>r<1065>a<8324>R<ARG>A<CG> 3
c<A>r<1065>a<8325>R<ARG>A<CD> 3
c<A>r<1065>a<8328>R<ARG>A<NH1> 3
c<A>r<1066>a<8330>R<TYR>A<N> 2
c<A>r<1066>a<8333>R<TYR>A<O> 2
c<A>r<1066>a<8334>R<TYR>A<CB> 2
c<A>r<1066>a<8337>R<TYR>A<CD2> 1
c<A>r<1066>a<8339>R<TYR>A<CE2> 1
c<A>r<1066>a<8341>R<TYR>A<OH> 2
c<A>r<1145>a<9014>R<THR>A<OG1> 1
c<A>r<1145>a<9015>R<THR>A<CG2> 1
c<A>r<1149>a<9050>R<TYR>A<OH> 1
c<A>r<1289>a<10145>R<ASP>A<CA> 1
c<A>r<1289>a<10147>R<ASP>A<O> 2
c<A>r<1289>a<10148>R<ASP>A<CB> 1
c<A>r<1289>a<10149>R<ASP>A<CG> 2
c<A>r<1289>a<10150>R<ASP>A<OD1> 1
c<A>r<1289>a<10151>R<ASP>A<OD2> 1
c<A>r<1290>a<10153>R<GLY>A<CA> 3
c<A>r<1292>a<10171>R<GLY>A<CA> 1
c<A>r<1292>a<10172>R<GLY>A<C> 2
c<A>r<1292>a<10173>R<GLY>A<O> 1
c<A>r<1293>a<10177>R<GLU>A<O> 1
c<A>r<1294>a<10187>R<ARG>A<CB> 1
c<A>r<1294>a<10188>R<ARG>A<CG> 1
c<A>r<1294>a<10190>R<ARG>A<NE> 1
c<A>r<1294>a<10191>R<ARG>A<CZ> 1
c<A>r<1294>a<10192>R<ARG>A<NH1> 1
c<A>r<1294>a<10193>R<ARG>A<NH2> 1
