c<B>r<0>a<2257>R<MET>A<N> 1
c<B>r<0>a<2258>R<MET>A<CA> 1
c<B>r<0>a<2261>R<MET>A<CB> 2
c<B>r<0>a<2263>R<MET>A<SD> 1
c<B>r<0>a<2264>R<MET>A<CE> 1
c<B>r<1>a<2265>R<ILE>A<N> 1
c<B>r<1>a<2268>R<ILE>A<O> 1
c<B>r<1>a<2269>R<ILE>A<CB> 1
c<B>r<1>a<2271>R<ILE>A<CG2> 1
c<B>r<1>a<2272>R<ILE>A<CD1> 1
c<B>r<3>a<2291>R<ARG>A<NH1> 1
c<B>r<6>a<2311>R<LYS>A<CB> 1
c<B>r<6>a<2313>R<LYS>A<CD> 1
c<B>r<6>a<2315>R<LYS>A<NZ> 1
c<B>r<8>a<2328>R<GLN>A<CB> 1
c<B>r<8>a<2329>R<GLN>A<CG> 2
c<B>r<8>a<2330>R<GLN>A<CD> 1
c<B>r<8>a<2331>R<GLN>A<OE1> 1
c<B>r<8>a<2332>R<GLN>A<NE2> 1
c<B>r<9>a<2336>R<VAL>A<O> 1
c<B>r<10>a<2344>R<TYR>A<CB> 2
c<B>r<10>a<2345>R<TYR>A<CG> 3
c<B>r<10>a<2346>R<TYR>A<CD1> 2
c<B>r<10>a<2347>R<TYR>A<CD2> 2
c<B>r<10>a<2348>R<TYR>A<CE1> 2
c<B>r<10>a<2349>R<TYR>A<CE2> 2
c<B>r<10>a<2350>R<TYR>A<CZ> 3
c<B>r<10>a<2351>R<TYR>A<OH> 3
c<B>r<11>a<2352>R<SER>A<N> 1
c<B>r<11>a<2355>R<SER>A<O> 1
c<B>r<12>a<2359>R<ARG>A<CA> 2
c<B>r<12>a<2361>R<ARG>A<O> 1
c<B>r<12>a<2362>R<ARG>A<CB> 2
c<B>r<12>a<2363>R<ARG>A<CG> 2
c<B>r<12>a<2364>R<ARG>A<CD> 1
c<B>r<12>a<2365>R<ARG>A<NE> 2
c<B>r<12>a<2366>R<ARG>A<CZ> 2
c<B>r<12>a<2367>R<ARG>A<NH1> 1
c<B>r<12>a<2368>R<ARG>A<NH2> 1
c<B>r<13>a<2375>R<HIS>A<ND1> 1
c<B>r<13>a<2377>R<HIS>A<CE1> 1
c<B>r<13>a<2378>R<HIS>A<NE2> 1
c<B>r<14>a<2380>R<PRO>A<CA> 1
c<B>r<14>a<2383>R<PRO>A<CB> 1
c<B>r<14>a<2384>R<PRO>A<CG> 1
c<B>r<14>a<2385>R<PRO>A<CD> 1
c<B>r<22>a<2439>R<PHE>A<CB> 2
c<B>r<24>a<2460>R<ASN>A<OD1> 1
c<B>r<24>a<2461>R<ASN>A<ND2> 2
c<B>r<26>a<2472>R<TYR>A<CB> 3
c<B>r<26>a<2473>R<TYR>A<CG> 3
c<B>r<26>a<2474>R<TYR>A<CD1> 2
c<B>r<26>a<2475>R<TYR>A<CD2> 2
c<B>r<26>a<2476>R<TYR>A<CE1> 1
c<B>r<26>a<2477>R<TYR>A<CE2> 2
c<B>r<26>a<2478>R<TYR>A<CZ> 2
c<B>r<26>a<2479>R<TYR>A<OH> 1
c<B>r<28>a<2491>R<SER>A<CB> 1
c<B>r<28>a<2492>R<SER>A<OG> 1
c<B>r<29>a<2493>R<GLY>A<N> 1
c<B>r<31>a<2513>R<HIS>A<CG> 2
c<B>r<31>a<2514>R<HIS>A<ND1> 1
c<B>r<31>a<2515>R<HIS>A<CD2> 2
c<B>r<31>a<2516>R<HIS>A<CE1> 1
c<B>r<31>a<2517>R<HIS>A<NE2> 2
c<B>r<32>a<2519>R<PRO>A<CA> 2
c<B>r<32>a<2522>R<PRO>A<CB> 1
c<B>r<33>a<2525>R<SER>A<N> 2
c<B>r<33>a<2529>R<SER>A<CB> 2
c<B>r<33>a<2530>R<SER>A<OG> 1
c<B>r<34>a<2537>R<ASP>A<OD1> 1
c<B>r<34>a<2538>R<ASP>A<OD2> 1
c<B>r<51>a<2673>R<HIS>A<O> 1
c<B>r<51>a<2678>R<HIS>A<CE1> 1
c<B>r<52>a<2681>R<SER>A<CA> 1
c<B>r<52>a<2684>R<SER>A<CB> 1
c<B>r<53>a<2686>R<ASP>A<N> 1
c<B>r<53>a<2687>R<ASP>A<CA> 1
c<B>r<53>a<2688>R<ASP>A<C> 2
c<B>r<53>a<2689>R<ASP>A<O> 1
c<B>r<53>a<2690>R<ASP>A<CB> 1
c<B>r<53>a<2691>R<ASP>A<CG> 1
c<B>r<53>a<2692>R<ASP>A<OD1> 2
c<B>r<53>a<2693>R<ASP>A<OD2> 1
c<B>r<54>a<2694>R<LEU>A<N> 1
c<B>r<54>a<2697>R<LEU>A<O> 1
c<B>r<54>a<2698>R<LEU>A<CB> 1
c<B>r<54>a<2699>R<LEU>A<CG> 2
c<B>r<54>a<2701>R<LEU>A<CD2> 1
c<B>r<55>a<2703>R<SER>A<CA> 1
c<B>r<55>a<2704>R<SER>A<C> 2
c<B>r<55>a<2706>R<SER>A<CB> 2
c<B>r<55>a<2707>R<SER>A<OG> 2
c<B>r<56>a<2708>R<PHE>A<N> 2
c<B>r<56>a<2711>R<PHE>A<O> 1
c<B>r<56>a<2712>R<PHE>A<CB> 2
c<B>r<56>a<2713>R<PHE>A<CG> 2
c<B>r<56>a<2714>R<PHE>A<CD1> 2
c<B>r<56>a<2715>R<PHE>A<CD2> 1
c<B>r<56>a<2716>R<PHE>A<CE1> 1
c<B>r<56>a<2717>R<PHE>A<CE2> 1
c<B>r<56>a<2718>R<PHE>A<CZ> 2
c<B>r<57>a<2721>R<SER>A<C> 1
c<B>r<57>a<2722>R<SER>A<O> 1
c<B>r<57>a<2724>R<SER>A<OG> 1
c<B>r<58>a<2725>R<LYS>A<N> 1
c<B>r<58>a<2726>R<LYS>A<CA> 1
c<B>r<58>a<2728>R<LYS>A<O> 1
c<B>r<58>a<2729>R<LYS>A<CB> 1
c<B>r<58>a<2731>R<LYS>A<CD> 1
c<B>r<58>a<2733>R<LYS>A<NZ> 1
c<B>r<59>a<2737>R<ASP>A<O> 1
c<B>r<60>a<2743>R<TRP>A<CA> 2
c<B>r<60>a<2745>R<TRP>A<O> 3
c<B>r<60>a<2746>R<TRP>A<CB> 2
c<B>r<60>a<2747>R<TRP>A<CG> 2
c<B>r<60>a<2748>R<TRP>A<CD1> 1
c<B>r<60>a<2749>R<TRP>A<CD2> 2
c<B>r<60>a<2750>R<TRP>A<NE1> 1
c<B>r<60>a<2751>R<TRP>A<CE2> 2
c<B>r<60>a<2752>R<TRP>A<CE3> 2
c<B>r<60>a<2753>R<TRP>A<CZ2> 1
c<B>r<60>a<2754>R<TRP>A<CZ3> 1
c<B>r<60>a<2755>R<TRP>A<CH2> 1
c<B>r<62>a<2768>R<PHE>A<CD1> 2
c<B>r<62>a<2770>R<PHE>A<CE1> 2
c<B>r<62>a<2771>R<PHE>A<CE2> 2
c<B>r<62>a<2772>R<PHE>A<CZ> 2
c<B>r<63>a<2779>R<TYR>A<CD1> 1
c<B>r<63>a<2781>R<TYR>A<CE1> 1
c<B>r<63>a<2784>R<TYR>A<OH> 1
c<B>r<65>a<2797>R<LEU>A<CB> 1
c<B>r<65>a<2798>R<LEU>A<CG> 2
c<B>r<65>a<2799>R<LEU>A<CD1> 2
c<B>r<65>a<2800>R<LEU>A<CD2> 1
c<B>r<67>a<2818>R<TYR>A<CG> 1
c<B>r<67>a<2820>R<TYR>A<CD2> 1
c<B>r<67>a<2821>R<TYR>A<CE1> 1
c<B>r<67>a<2823>R<TYR>A<CZ> 1
c<B>r<67>a<2824>R<TYR>A<OH> 1
c<B>r<97>a<3069>R<ARG>A<O> 1
c<B>r<98>a<3080>R<ASP>A<O> 1
c<B>r<98>a<3081>R<ASP>A<CB> 1
c<B>r<98>a<3082>R<ASP>A<CG> 1
c<B>r<98>a<3083>R<ASP>A<OD1> 1
c<B>r<98>a<3084>R<ASP>A<OD2> 1
c<B>r<99>a<3085>R<MET>A<N> 2
c<B>r<99>a<3086>l<A>R<MET>A<CA> 1
c<B>r<99>a<3088>R<MET>A<C> 2
c<B>r<99>a<3089>R<MET>A<O> 1
c<B>r<99>a<3090>l<A>R<MET>A<CB> 1
c<B>r<99>a<3092>l<A>R<MET>A<CG> 1
c<B>r<99>a<3094>l<A>R<MET>A<SD> 1
c<B>r<99>a<3096>l<A>R<MET>A<CE> 1
c<B>r<99>a<3098>l<A>R<MET>A<OXT> 1
