"Metric";"Training_Set";"Testing_Set";"Independent"
"Accuracy";"0.772200772200772";"0.764705882352941";"0.749475890985325"
"Kappa";"0.335464231354642";"0.203051317614424";"0.224506316025768"
"AccuracyLower";"0.733618535036232";"0.703165865503";"0.72071089844056"
"AccuracyUpper";"0.807643804059164";"0.818997600669509";"0.776691605683654"
"AccuracyNull";"0.752895752895753";"0.755656108597285";"0.758909853249476"
"AccuracyPValue";"0.166707282817928";"0.412136004149062";"0.764913109723163"
"McnemarPValue";"0.00759266430919722";"1.71627356359427e-05";"4.52572192959418e-07"
"Sensitivity";"0.421875";"0.222222222222222";"0.308695652173913"
"Specificity";"0.887179487179487";"0.940119760479042";"0.889502762430939"
"Pos Pred Value";"0.551020408163265";"0.545454545454545";"0.470198675496689"
"Neg Pred Value";"0.823809523809524";"0.78894472361809";"0.801992528019925"
"Precision";"0.551020408163265";"0.545454545454545";"0.470198675496689"
"Recall";"0.421875";"0.222222222222222";"0.308695652173913"
"F1";"0.47787610619469";"0.315789473684211";"0.372703412073491"
"Prevalence";"0.247104247104247";"0.244343891402715";"0.241090146750524"
"Detection Rate";"0.104247104247104";"0.0542986425339367";"0.0744234800838574"
"Detection Prevalence";"0.189189189189189";"0.0995475113122172";"0.158280922431866"
"Balanced Accuracy";"0.654527243589744";"0.581170991350632";"0.599099207302426"
"TP";"54";"12";"71"
"TN";"346";"157";"644"
"FP";"44";"10";"80"
"FN";"74";"42";"159"
