"Metric";"Training_Set";"Testing_Set";"Independent"
"Accuracy";"0.797297297297297";"0.764705882352941";"0.748427672955975"
"Kappa";"0.400132348075438";"0.203051317614424";"0.195581601247944"
"AccuracyLower";"0.760058140036526";"0.703165865503";"0.719627880959164"
"AccuracyUpper";"0.831102916353151";"0.818997600669509";"0.775684748225855"
"AccuracyNull";"0.752895752895753";"0.755656108597285";"0.758909853249476"
"AccuracyPValue";"0.009837223546817";"0.412136004149062";"0.787318972309492"
"McnemarPValue";"0.000906449303268499";"1.71627356359427e-05";"3.81724739856479e-10"
"Sensitivity";"0.453125";"0.222222222222222";"0.265217391304348"
"Specificity";"0.91025641025641";"0.940119760479042";"0.901933701657459"
"Pos Pred Value";"0.623655913978495";"0.545454545454545";"0.462121212121212"
"Neg Pred Value";"0.835294117647059";"0.78894472361809";"0.794403892944039"
"Precision";"0.623655913978495";"0.545454545454545";"0.462121212121212"
"Recall";"0.453125";"0.222222222222222";"0.265217391304348"
"F1";"0.524886877828054";"0.315789473684211";"0.337016574585635"
"Prevalence";"0.247104247104247";"0.244343891402715";"0.241090146750524"
"Detection Rate";"0.111969111969112";"0.0542986425339367";"0.0639412997903564"
"Detection Prevalence";"0.17953667953668";"0.0995475113122172";"0.138364779874214"
"Balanced Accuracy";"0.681690705128205";"0.581170991350632";"0.583575546480903"
"TP";"58";"12";"61"
"TN";"355";"157";"653"
"FP";"35";"10";"71"
"FN";"70";"42";"169"
