"Metric";"Training_Set";"Testing_Set";"Independent"
"Accuracy";"0.818532818532819";"0.791855203619909";"0.757861635220126"
"Kappa";"0.442015034836817";"0.283781879667465";"0.221694814689241"
"AccuracyLower";"0.782590536403933";"0.732304446638521";"0.729382786061678"
"AccuracyUpper";"0.85079086344361";"0.843397053885545";"0.784738685402523"
"AccuracyNull";"0.752895752895753";"0.755656108597285";"0.758909853249476"
"AccuracyPValue";"0.000216593460361653";"0.119030689878327";"0.547747950894813"
"McnemarPValue";"1.24913767096762e-06";"1.14119009475913e-06";"4.71979106297732e-11"
"Sensitivity";"0.4453125";"0.259259259259259";"0.278260869565217"
"Specificity";"0.941025641025641";"0.964071856287425";"0.910220994475138"
"Pos Pred Value";"0.7125";"0.7";"0.496124031007752"
"Neg Pred Value";"0.837899543378995";"0.800995024875622";"0.798787878787879"
"Precision";"0.7125";"0.7";"0.496124031007752"
"Recall";"0.4453125";"0.259259259259259";"0.278260869565217"
"F1";"0.548076923076923";"0.378378378378378";"0.356545961002786"
"Prevalence";"0.247104247104247";"0.244343891402715";"0.241090146750524"
"Detection Rate";"0.11003861003861";"0.0633484162895928";"0.0670859538784067"
"Detection Prevalence";"0.154440154440154";"0.0904977375565611";"0.135220125786164"
"Balanced Accuracy";"0.693169070512821";"0.611665557773342";"0.594240932020178"
"TP";"57";"14";"64"
"TN";"367";"161";"659"
"FP";"23";"6";"65"
"FN";"71";"40";"166"
