"Metric";"Training_Set";"Testing_Set";"Independent"
"Accuracy";"0.793436293436293";"0.773755656108597";"0.746331236897275"
"Kappa";"0.37792094098633";"0.22150204311681";"0.202715769698309"
"AccuracyLower";"0.75597774195907";"0.712842247922646";"0.717462481788484"
"AccuracyUpper";"0.827506711967223";"0.827167983064395";"0.773670394944892"
"AccuracyNull";"0.752895752895753";"0.755656108597285";"0.758909853249476"
"AccuracyPValue";"0.0170026377378367";"0.29516370416924";"0.828144467187638"
"McnemarPValue";"0.000110206838572307";"3.05770979643816e-06";"2.2373056549756e-08"
"Sensitivity";"0.421875";"0.222222222222222";"0.282608695652174"
"Specificity";"0.915384615384615";"0.952095808383233";"0.893646408839779"
"Pos Pred Value";"0.620689655172414";"0.6";"0.457746478873239"
"Neg Pred Value";"0.82830626450116";"0.791044776119403";"0.79679802955665"
"Precision";"0.620689655172414";"0.6";"0.457746478873239"
"Recall";"0.421875";"0.222222222222222";"0.282608695652174"
"F1";"0.502325581395349";"0.324324324324324";"0.349462365591398"
"Prevalence";"0.247104247104247";"0.244343891402715";"0.241090146750524"
"Detection Rate";"0.104247104247104";"0.0542986425339367";"0.0681341719077568"
"Detection Prevalence";"0.167953667953668";"0.0904977375565611";"0.148846960167715"
"Balanced Accuracy";"0.668629807692308";"0.587159015302728";"0.588127552245976"
"TP";"54";"12";"65"
"TN";"357";"159";"647"
"FP";"33";"8";"77"
"FN";"74";"42";"165"
