"Metric";"Training_Set";"Testing_Set";"Independent"
"Accuracy";"0.82046332046332";"0.769230769230769";"0.751572327044025"
"Kappa";"0.446288591066872";"0.199559690362901";"0.212471002932796"
"AccuracyLower";"0.784646917222497";"0.707999654622215";"0.722877573599919"
"AccuracyUpper";"0.852572604152268";"0.82308728024893";"0.778704677781425"
"AccuracyNull";"0.752895752895753";"0.755656108597285";"0.758909853249476"
"AccuracyPValue";"0.000142561937648037";"0.35202596642992";"0.716363205595093"
"McnemarPValue";"6.4454663394027e-07";"1.92681603327718e-06";"2.28623824839977e-09"
"Sensitivity";"0.4453125";"0.203703703703704";"0.282608695652174"
"Specificity";"0.943589743589744";"0.952095808383233";"0.900552486187845"
"Pos Pred Value";"0.721518987341772";"0.578947368421052";"0.474452554744526"
"Neg Pred Value";"0.838268792710706";"0.787128712871287";"0.798041615667075"
"Precision";"0.721518987341772";"0.578947368421053";"0.474452554744526"
"Recall";"0.4453125";"0.203703703703704";"0.282608695652174"
"F1";"0.550724637681159";"0.301369863013699";"0.354223433242507"
"Prevalence";"0.247104247104247";"0.244343891402715";"0.241090146750524"
"Detection Rate";"0.11003861003861";"0.0497737556561086";"0.0681341719077568"
"Detection Prevalence";"0.152509652509653";"0.085972850678733";"0.143605870020964"
"Balanced Accuracy";"0.694451121794872";"0.577899756043469";"0.59158059092001"
"TP";"57";"11";"65"
"TN";"368";"159";"652"
"FP";"22";"8";"72"
"FN";"71";"43";"165"
