"Metric";"Training_Set";"Testing_Set";"Independent"
"Accuracy";"0.768339768339768";"0.764705882352941";"0.752620545073375"
"Kappa";"0.350117096018735";"0.203051317614424";"0.225126997893693"
"AccuracyLower";"0.729567608691781";"0.703165865503";"0.723961233069347"
"AccuracyUpper";"0.804017852194819";"0.818997600669509";"0.779710890610325"
"AccuracyNull";"0.752895752895753";"0.755656108597285";"0.758909853249476"
"AccuracyPValue";"0.223513186034278";"0.412136004149062";"0.690371083486129"
"McnemarPValue";"0.170903520230798";"1.71627356359427e-05";"3.14747915735111e-08"
"Sensitivity";"0.46875";"0.222222222222222";"0.3"
"Specificity";"0.866666666666667";"0.940119760479042";"0.896408839779006"
"Pos Pred Value";"0.535714285714286";"0.545454545454545";"0.479166666666667"
"Neg Pred Value";"0.832512315270936";"0.78894472361809";"0.801234567901235"
"Precision";"0.535714285714286";"0.545454545454545";"0.479166666666667"
"Recall";"0.46875";"0.222222222222222";"0.3"
"F1";"0.5";"0.315789473684211";"0.368983957219251"
"Prevalence";"0.247104247104247";"0.244343891402715";"0.241090146750524"
"Detection Rate";"0.115830115830116";"0.0542986425339367";"0.0723270440251572"
"Detection Prevalence";"0.216216216216216";"0.0995475113122172";"0.150943396226415"
"Balanced Accuracy";"0.667708333333333";"0.581170991350632";"0.598204419889503"
"TP";"60";"12";"69"
"TN";"338";"157";"649"
"FP";"52";"10";"75"
"FN";"68";"42";"161"
