"Metric";"Training_Set";"Testing_Set";"Independent"
"Accuracy";"0.816602316602317";"0.773755656108597";"0.755765199161426"
"Kappa";"0.434380818831751";"0.245527789157449";"0.220396882737916"
"AccuracyLower";"0.780535538571089";"0.712842247922646";"0.727213509998493"
"AccuracyUpper";"0.849007723165608";"0.827167983064395";"0.782728225134656"
"AccuracyNull";"0.752895752895753";"0.755656108597285";"0.758909853249476"
"AccuracyPValue";"0.000325037152688601";"0.29516370416924";"0.60679059239072"
"McnemarPValue";"8.44915645736651e-07";"4.10978780994589e-05";"3.19169638585079e-10"
"Sensitivity";"0.4375";"0.259259259259259";"0.282608695652174"
"Specificity";"0.941025641025641";"0.940119760479042";"0.906077348066298"
"Pos Pred Value";"0.708860759493671";"0.583333333333333";"0.488721804511278"
"Neg Pred Value";"0.835990888382688";"0.796954314720812";"0.799025578562728"
"Precision";"0.708860759493671";"0.583333333333333";"0.488721804511278"
"Recall";"0.4375";"0.259259259259259";"0.282608695652174"
"F1";"0.541062801932367";"0.358974358974359";"0.358126721763085"
"Prevalence";"0.247104247104247";"0.244343891402715";"0.241090146750524"
"Detection Rate";"0.108108108108108";"0.0633484162895928";"0.0681341719077568"
"Detection Prevalence";"0.152509652509653";"0.108597285067873";"0.139412997903564"
"Balanced Accuracy";"0.689262820512821";"0.599689509869151";"0.594343021859236"
"TP";"56";"14";"65"
"TN";"367";"157";"656"
"FP";"23";"10";"68"
"FN";"72";"40";"165"
