"Metric";"Training_Set";"Testing_Set";"Independent"
"Accuracy";"0.806949806949807";"0.760180995475113";"0.745283018867924"
"Kappa";"0.416903057319105";"0.194041147732746";"0.192533559969069"
"AccuracyLower";"0.770280722317439";"0.69834070771112";"0.71638009836653"
"AccuracyUpper";"0.840071614682691";"0.814899125591325";"0.772662900873209"
"AccuracyNull";"0.752895752895753";"0.755656108597285";"0.758909853249476"
"AccuracyPValue";"0.00206566082906883";"0.474113656869083";"0.84651655576934"
"McnemarPValue";"4.13150138250935e-05";"3.77531352167205e-05";"3.5955088487634e-09"
"Sensitivity";"0.4453125";"0.222222222222222";"0.269565217391304"
"Specificity";"0.925641025641026";"0.934131736526946";"0.896408839779006"
"Pos Pred Value";"0.662790697674419";"0.521739130434783";"0.452554744525548"
"Neg Pred Value";"0.835648148148148";"0.787878787878788";"0.79436964504284"
"Precision";"0.662790697674419";"0.521739130434783";"0.452554744525547"
"Recall";"0.4453125";"0.222222222222222";"0.269565217391304"
"F1";"0.532710280373832";"0.311688311688312";"0.337874659400545"
"Prevalence";"0.247104247104247";"0.244343891402715";"0.241090146750524"
"Detection Rate";"0.11003861003861";"0.0542986425339367";"0.0649895178197065"
"Detection Prevalence";"0.166023166023166";"0.104072398190045";"0.143605870020964"
"Balanced Accuracy";"0.685476762820513";"0.578176979374584";"0.582987028585155"
"TP";"57";"12";"62"
"TN";"361";"156";"649"
"FP";"29";"11";"75"
"FN";"71";"42";"168"
