"Metric";"Training_Set";"Testing_Set";"Independent"
"Accuracy";"0.799227799227799";"0.755656108597285";"0.743186582809224"
"Kappa";"0.414307458143074";"0.159222206566155";"0.205037855340222"
"AccuracyLower";"0.762100163023016";"0.693524016790306";"0.714215959588912"
"AccuracyUpper";"0.832899175889564";"0.810792027364133";"0.770647282173992"
"AccuracyNull";"0.752895752895753";"0.755656108597285";"0.758909853249476"
"AccuracyPValue";"0.00736194197310323";"0.536462433258084";"0.879180570512789"
"McnemarPValue";"0.0044595257670845";"7.09790833090828e-06";"6.25292176262741e-07"
"Sensitivity";"0.4765625";"0.185185185185185";"0.295652173913043"
"Specificity";"0.905128205128205";"0.940119760479042";"0.885359116022099"
"Pos Pred Value";"0.622448979591837";"0.5";"0.450331125827815"
"Neg Pred Value";"0.84047619047619";"0.781094527363184";"0.798256537982565"
"Precision";"0.622448979591837";"0.5";"0.450331125827815"
"Recall";"0.4765625";"0.185185185185185";"0.295652173913043"
"F1";"0.539823008849557";"0.27027027027027";"0.356955380577428"
"Prevalence";"0.247104247104247";"0.244343891402715";"0.241090146750524"
"Detection Rate";"0.117760617760618";"0.0452488687782805";"0.0712788259958071"
"Detection Prevalence";"0.189189189189189";"0.0904977375565611";"0.158280922431866"
"Balanced Accuracy";"0.690845352564103";"0.562652472832114";"0.590505644967572"
"TP";"61";"10";"68"
"TN";"353";"157";"641"
"FP";"37";"10";"83"
"FN";"67";"44";"162"
