"Metric";"Training_Set";"Testing_Set";"Independent"
"Accuracy";"0.810810810810811";"0.764705882352941";"0.752620545073375"
"Kappa";"0.425174381737476";"0.203051317614424";"0.21172483334267"
"AccuracyLower";"0.77437867749251";"0.703165865503";"0.723961233069347"
"AccuracyUpper";"0.843650074645548";"0.818997600669509";"0.779710890610325"
"AccuracyNull";"0.752895752895753";"0.755656108597285";"0.758909853249476"
"AccuracyPValue";"0.00102151262094349";"0.412136004149062";"0.690371083486129"
"McnemarPValue";"1.40130924079152e-05";"1.71627356359427e-05";"6.25079558669381e-10"
"Sensitivity";"0.4453125";"0.222222222222222";"0.278260869565217"
"Specificity";"0.930769230769231";"0.940119760479042";"0.903314917127072"
"Pos Pred Value";"0.678571428571429";"0.545454545454545";"0.477611940298507"
"Neg Pred Value";"0.836405529953917";"0.78894472361809";"0.797560975609756"
"Precision";"0.678571428571429";"0.545454545454545";"0.477611940298507"
"Recall";"0.4453125";"0.222222222222222";"0.278260869565217"
"F1";"0.537735849056604";"0.315789473684211";"0.351648351648352"
"Prevalence";"0.247104247104247";"0.244343891402715";"0.241090146750524"
"Detection Rate";"0.11003861003861";"0.0542986425339367";"0.0670859538784067"
"Detection Prevalence";"0.162162162162162";"0.0995475113122172";"0.140461215932914"
"Balanced Accuracy";"0.688040865384615";"0.581170991350632";"0.590787893346145"
"TP";"57";"12";"64"
"TN";"363";"157";"654"
"FP";"27";"10";"70"
"FN";"71";"42";"166"
