"Metric";"Training_Set";"Testing_Set";"Independent"
"Accuracy";"0.824324324324324";"0.769230769230769";"0.761006289308176"
"Kappa";"0.464645088018172";"0.212203816313693";"0.225042397639984"
"AccuracyLower";"0.788763897151474";"0.707999654622215";"0.732638356491415"
"AccuracyUpper";"0.856131815722725";"0.82308728024893";"0.787752712299018"
"AccuracyNull";"0.752895752895753";"0.755656108597285";"0.758909853249476"
"AccuracyPValue";"5.94875866979431e-05";"0.35202596642992";"0.457367240233184"
"McnemarPValue";"3.97944005861274e-06";"7.43302334627373e-06";"3.5558854439001e-12"
"Sensitivity";"0.46875";"0.222222222222222";"0.273913043478261"
"Specificity";"0.941025641025641";"0.946107784431138";"0.915745856353591"
"Pos Pred Value";"0.72289156626506";"0.571428571428572";"0.508064516129032"
"Neg Pred Value";"0.84367816091954";"0.79";"0.798795180722892"
"Precision";"0.72289156626506";"0.571428571428571";"0.508064516129032"
"Recall";"0.46875";"0.222222222222222";"0.273913043478261"
"F1";"0.568720379146919";"0.32";"0.35593220338983"
"Prevalence";"0.247104247104247";"0.244343891402715";"0.241090146750524"
"Detection Rate";"0.115830115830116";"0.0542986425339367";"0.0660377358490566"
"Detection Prevalence";"0.16023166023166";"0.0950226244343891";"0.129979035639413"
"Balanced Accuracy";"0.704887820512821";"0.58416500332668";"0.594829449915926"
"TP";"60";"12";"63"
"TN";"367";"158";"663"
"FP";"23";"9";"61"
"FN";"68";"42";"167"
