c<A>r<179>a<1432>R<LYS>A<O> 1
c<A>r<180>a<1441>R<LYS>A<O> 1
c<A>r<181>a<1448>R<SER>A<CA> 1
c<A>r<181>a<1449>R<SER>A<C> 2
c<A>r<181>a<1450>R<SER>A<O> 1
c<A>r<181>a<1451>R<SER>A<CB> 1
c<A>r<181>a<1452>R<SER>A<OG> 1
c<A>r<182>a<1453>R<LYS>A<N> 2
c<A>r<182>a<1454>R<LYS>A<CA> 2
c<A>r<182>a<1455>R<LYS>A<C> 2
c<A>r<182>a<1456>R<LYS>A<O> 1
c<A>r<182>a<1457>R<LYS>A<CB> 1
c<A>r<182>a<1458>R<LYS>A<CG> 1
c<A>r<182>a<1459>R<LYS>A<CD> 1
c<A>r<182>a<1460>R<LYS>A<CE> 1
c<A>r<182>a<1461>R<LYS>A<NZ> 1
c<A>r<183>a<1462>R<THR>A<N> 2
c<A>r<183>a<1463>R<THR>A<CA> 2
c<A>r<183>a<1464>R<THR>A<C> 2
c<A>r<183>a<1465>R<THR>A<O> 1
c<A>r<183>a<1466>R<THR>A<CB> 2
c<A>r<183>a<1467>R<THR>A<OG1> 1
c<A>r<183>a<1468>R<THR>A<CG2> 1
c<A>r<184>a<1469>R<LYS>A<N> 2
c<A>r<184>a<1470>R<LYS>A<CA> 2
c<A>r<184>a<1471>R<LYS>A<C> 2
c<A>r<184>a<1472>R<LYS>A<O> 2
c<A>r<184>a<1473>R<LYS>A<CB> 2
c<A>r<184>a<1474>R<LYS>A<CG> 2
c<A>r<184>a<1475>R<LYS>A<CD> 2
c<A>r<184>a<1476>R<LYS>A<CE> 1
c<A>r<184>a<1477>R<LYS>A<NZ> 1
c<A>r<185>a<1478>R<CMT>A<N> 1
c<A>r<185>a<1480>R<CMT>A<C> 1
c<A>r<185>a<1481>R<CMT>A<O> 1
c<A>r<185>a<1482>R<CMT>A<CB> 2
c<A>r<185>a<1483>R<CMT>A<SG> 1
c<A>r<185>a<1484>R<CMT>A<OXT> 2
c<A>r<185>a<1485>R<CMT>A<C1> 1
c<A>r<201>a<2690>R<FAR>A<C1> 1
c<A>r<201>a<2691>R<FAR>A<C2> 1
c<A>r<201>a<2692>R<FAR>A<C3> 2
c<A>r<201>a<2693>R<FAR>A<C5> 1
c<A>r<201>a<2694>R<FAR>A<C6> 1
c<A>r<201>a<2695>R<FAR>A<C7> 1
c<A>r<201>a<2696>R<FAR>A<C8> 2
c<A>r<201>a<2697>R<FAR>A<C9> 2
c<A>r<201>a<2698>R<FAR>A<C11> 2
c<A>r<201>a<2699>R<FAR>A<C12> 2
c<A>r<201>a<2700>R<FAR>A<C13> 1
c<A>r<201>a<2701>R<FAR>A<C14> 1
c<A>r<201>a<2702>R<FAR>A<C15> 1
c<A>r<201>a<2703>R<FAR>A<C4> 1
c<A>r<201>a<2704>R<FAR>A<C10> 2
