"Metric";"Testing_Set"
"Accuracy";"0.770440251572327"
"Kappa";"0.25585023400936"
"AccuracyLower";"0.742417247047566"
"AccuracyUpper";"0.796782559233174"
"AccuracyNull";"0.761006289308176"
"AccuracyPValue";"0.260630566393712"
"McnemarPValue";"1.40515354798011e-11"
"Sensitivity";"0.298245614035088"
"Specificity";"0.918732782369146"
"Pos Pred Value";"0.535433070866142"
"Neg Pred Value";"0.806529625151149"
"Precision";"0.535433070866142"
"Recall";"0.298245614035088"
"F1";"0.383098591549296"
"Prevalence";"0.238993710691824"
"Detection Rate";"0.0712788259958071"
"Detection Prevalence";"0.133123689727463"
"Balanced Accuracy";"0.608489198202117"
"TP";"68"
"TN";"667"
"FP";"59"
"FN";"160"
