"Metric";"Testing_Set"
"Accuracy";"0.654088050314465"
"Kappa";"0.267281105990783"
"AccuracyLower";"0.622940356167115"
"AccuracyUpper";"0.684280892443219"
"AccuracyNull";"0.761006289308176"
"AccuracyPValue";"0.999999999999958"
"McnemarPValue";"2.1180673142892e-27"
"Sensitivity";"0.710526315789474"
"Specificity";"0.636363636363636"
"Pos Pred Value";"0.380281690140845"
"Neg Pred Value";"0.875"
"Precision";"0.380281690140845"
"Recall";"0.710526315789474"
"F1";"0.495412844036697"
"Prevalence";"0.238993710691824"
"Detection Rate";"0.169811320754717"
"Detection Prevalence";"0.446540880503145"
"Balanced Accuracy";"0.673444976076555"
"TP";"162"
"TN";"462"
"FP";"264"
"FN";"66"
