c<C>r<0>R<ILE> 1.33333
c<C>r<1>R<GLU> 1
c<C>r<2>R<ALA> 1.33333
c<C>r<3>R<ASP> 1.5
c<C>r<4>R<HIS> 1.66667
c<C>r<5>R<VAL> 1.6
c<C>r<6>R<GLY> 2
c<C>r<7>R<THR> 1.75
c<C>r<8>R<TYR> 1.81818
c<C>r<9>R<GLY> 1
c<C>r<10>R<ILE> 2.25
c<C>r<11>R<SER> 1.75
c<C>r<12>R<VAL> 2.33333
c<C>r<13>R<TYR> 3
c<C>r<14>R<GLN> 1.6
c<C>r<15>R<SER> 1.4
c<C>r<16>R<PRO> 1
c<C>r<22>R<TYR> 1
c<C>r<24>R<PHE> 1.5
c<C>r<26>R<PHE> 2
c<C>r<27>R<ASP> 1
c<C>r<28>R<GLY> 1.33333
c<C>r<29>R<ASP> 1.85714
c<C>r<30>R<GLU> 2.33333
c<C>r<31>R<LEU> 1.66667
c<C>r<32>R<PHE> 1.5
c<C>r<39>R<LYS> 1
c<C>r<43>R<TRP> 1
c<C>r<44>R<MET> 1.5
c<C>r<45>R<LEU> 1.25
c<C>r<47>R<GLU> 1
c<C>r<48>R<PHE> 1.66667
c<C>r<51>R<LEU> 1
c<C>r<52>R<ALA> 1.5
c<C>r<53>R<SER> 1.75
c<C>r<54>R<PHE> 1.66667
c<C>r<55>R<ASP> 1.2
c<C>r<57>R<GLN> 1.625
c<C>r<58>R<GLY> 1.75
c<C>r<60>R<LEU> 1.5
c<C>r<61>R<GLN> 1.88889
c<C>r<62>R<ASN> 1.66667
c<C>r<64>R<ALA> 1.33333
c<C>r<65>R<VAL> 2.33333
c<C>r<66>R<VAL> 1.8
c<C>r<67>R<LYS> 1
c<C>r<68>R<HIS> 1.5
c<C>r<69>R<ASN> 2
c<C>r<70>R<LEU> 2.42857
c<C>r<72>R<VAL> 1.25
c<C>r<73>R<LEU> 2.5
c<C>r<74>R<THR> 1.66667
c<C>r<76>R<ARG> 1.44444
c<C>r<77>R<SER> 1.5
c<C>r<79>R<SER> 1.4
c<C>r<80>R<THR> 1.6
c<C>r<81>R<PRO> 1.5
c<C>r<82>R<ALA> 1.25
c<C>r<83>R<THR> 1
c<C>r<84>R<ASN> 1
c<C>r<85>R<GLU> 1.5
c<C>r<92>R<PHE> 1.14286
c<C>r<93>R<PRO> 1
c<C>r<94>R<LYS> 1.57143
c<C>r<95>R<SER> 1.25
c<C>r<96>R<PRO> 1
c<C>r<106>R<ILE> 1.5
c<C>r<108>R<PHE> 1
c<C>r<111>R<ASN> 1
c<C>r<113>R<PHE> 2
c<C>r<114>R<PRO> 1.33333
c<C>r<115>R<PRO> 2
c<C>r<135>R<THR> 1
c<C>r<138>R<PHE> 1.5
c<C>r<139>R<VAL> 1.33333
c<C>r<140>R<ASN> 1
c<C>r<142>R<ASP> 1.4
c<C>r<143>R<TYR> 1.27273
c<C>r<144>R<SER> 1.8
c<C>r<145>R<PHE> 1.33333
c<C>r<146>R<HIS> 1
c<C>r<148>R<LEU> 1
c<C>r<150>R<TYR> 1
c<C>r<168>R<TRP> 1.2
