V1;V2;Weight
1BP3 A F 1;1BP3 A P 2;37.4509
1BP3 A F 1;1BP3 A T 3;16.5376
1BP3 A P 2;1BP3 A T 3;23.549
1BP3 A P 2;1BP3 A I 4;14.2154
1BP3 A P 2;1BP3 A P 5;0.492928
1BP3 A T 3;1BP3 A I 4;28.3738
1BP3 A T 3;1BP3 A P 5;6.71176
1BP3 A T 3;1BP3 A R 127;16.0814
1BP3 A I 4;1BP3 A P 5;37.9127
1BP3 A I 4;1BP3 A L 6;0.0484956
1BP3 A I 4;1BP3 A R 8;12.1382
1BP3 A I 4;1BP3 A L 9;26.772
1BP3 A I 4;1BP3 A R 127;23.5977
1BP3 A P 5;1BP3 A L 6;22.4754
1BP3 A P 5;1BP3 A S 7;18.2134
1BP3 A P 5;1BP3 A R 8;14.3689
1BP3 A P 5;1BP3 A L 9;8.79104
1BP3 A P 5;1BP3 A R 127;2.23431
1BP3 A L 6;1BP3 A S 7;20.6376
1BP3 A L 6;1BP3 A R 8;0.799401
1BP3 A L 6;1BP3 A L 9;22.0552
1BP3 A L 6;1BP3 A F 10;24.0594
1BP3 A L 6;1BP3 A L 124;9.65293
1BP3 A L 6;1BP3 A R 127;38.3225
1BP3 A L 6;1BP3 A L 128;10.1871
1BP3 A L 6;1BP3 A S 184;1.06287
1BP3 A L 6;1BP3 A V 185;18.5773
1BP3 A S 7;1BP3 A R 8;24.3534
1BP3 A S 7;1BP3 A L 9;0.220173
1BP3 A S 7;1BP3 A F 10;4.06286
1BP3 A S 7;1BP3 A D 11;26.9477
1BP3 A S 7;1BP3 A V 185;16.2497
1BP3 A R 8;1BP3 A L 9;22.0941
1BP3 A R 8;1BP3 A F 10;1.46781
1BP3 A R 8;1BP3 A D 11;21.0683
1BP3 A R 8;1BP3 A N 12;34.8412
1BP3 A L 9;1BP3 A F 10;17.1107
1BP3 A L 9;1BP3 A D 11;0.0115678
1BP3 A L 9;1BP3 A N 12;11.4827
1BP3 A L 9;1BP3 A A 13;8.14704
1BP3 A L 9;1BP3 A R 120;4.57361
1BP3 A L 9;1BP3 A T 123;19.6667
1BP3 A L 9;1BP3 A L 124;22.4634
1BP3 A L 9;1BP3 A R 127;16.3405
1BP3 A F 10;1BP3 A D 11;18.2942
1BP3 A F 10;1BP3 A N 12;1.59868
1BP3 A F 10;1BP3 A A 13;8.76517
1BP3 A F 10;1BP3 A M 14;18.0275
1BP3 A F 10;1BP3 A L 76;7.44002
1BP3 A F 10;1BP3 A L 124;26.682
1BP3 A F 10;1BP3 A L 128;12.4476
1BP3 A F 10;1BP3 A L 177;10.4198
1BP3 A F 10;1BP3 A V 180;16.1424
1BP3 A F 10;1BP3 A Q 181;26.0659
1BP3 A F 10;1BP3 A S 184;8.93874
1BP3 A F 10;1BP3 A V 185;15.617
1BP3 A D 11;1BP3 A N 12;19.5986
1BP3 A D 11;1BP3 A A 13;0.640286
1BP3 A D 11;1BP3 A M 14;11.1309
1BP3 A D 11;1BP3 A L 15;13.9802
1BP3 A D 11;1BP3 A Q 181;17.3836
1BP3 A D 11;1BP3 A V 185;3.51891
1BP3 A D 11;1BP3 A S 188;5.02734
1BP3 A N 12;1BP3 A A 13;18.043
1BP3 A N 12;1BP3 A M 14;0.841728
1BP3 A N 12;1BP3 A L 15;16.9838
1BP3 A N 12;1BP3 A R 16;28.7142
1BP3 A N 12;1BP3 A R 120;22.5473
1BP3 A A 13;1BP3 A M 14;18.1682
1BP3 A A 13;1BP3 A L 15;1.54979
1BP3 A A 13;1BP3 A R 16;10.0066
1BP3 A A 13;1BP3 A A 17;8.05877
1BP3 A A 13;1BP3 A L 117;10.5253
1BP3 A A 13;1BP3 A R 120;15.698
1BP3 A A 13;1BP3 A I 121;0.914351
1BP3 A A 13;1BP3 A L 124;9.98892
1BP3 A A 13;1BP3 A L 177;11.8967
1BP3 A M 14;1BP3 A L 15;22.4148
1BP3 A M 14;1BP3 A R 16;0.353849
1BP3 A M 14;1BP3 A A 17;11.8231
1BP3 A M 14;1BP3 A H 18;11.7503
1BP3 A M 14;1BP3 A E 174;14.7639
1BP3 A M 14;1BP3 A L 177;19.2955
1BP3 A M 14;1BP3 A R 178;20.7159
1BP3 A M 14;1BP3 A Q 181;21.9965
1BP3 A L 15;1BP3 A R 16;31.4667
1BP3 A L 15;1BP3 A A 17;0.61841
1BP3 A L 15;1BP3 A H 18;14.0844
1BP3 A L 15;1BP3 A R 19;11.4903
1BP3 A R 16;1BP3 A A 17;15.5279
1BP3 A R 16;1BP3 A H 18;1.43728
1BP3 A R 16;1BP3 A R 19;9.31216
1BP3 A R 16;1BP3 A L 20;12.8948
1BP3 A R 16;1BP3 A L 113;15.8002
1BP3 A R 16;1BP3 A D 116;19.9033
1BP3 A R 16;1BP3 A L 117;17.0142
1BP3 A R 16;1BP3 A R 120;27.4853
1BP3 A A 17;1BP3 A H 18;15.3756
1BP3 A A 17;1BP3 A R 19;0.373568
1BP3 A A 17;1BP3 A L 20;9.9135
1BP3 A A 17;1BP3 A H 21;9.9514
1BP3 A A 17;1BP3 A L 117;13.7678
1BP3 A A 17;1BP3 A M 170;3.29123
1BP3 A A 17;1BP3 A V 173;9.7503
1BP3 A A 17;1BP3 A E 174;19.6223
1BP3 A A 17;1BP3 A L 177;9.12225
1BP3 A H 18;1BP3 A R 19;22.639
1BP3 A H 18;1BP3 A L 20;0.908147
1BP3 A H 18;1BP3 A H 21;10.4296
1BP3 A H 18;1BP3 A Q 22;24.1445
1BP3 A H 18;1BP3 A E 174;19.4885
1BP3 A H 18;1BP3 B D 387;16.3963
1BP3 A H 18;1BP3 B H 388;10.7576
1BP3 A R 19;1BP3 A L 20;19.8805
1BP3 A R 19;1BP3 A H 21;0.620346
1BP3 A R 19;1BP3 A Q 22;13.1193
1BP3 A R 19;1BP3 A L 23;29.7906
1BP3 A R 19;1BP3 A V 102;0.880696
1BP3 A R 19;1BP3 A Y 103;14.5245
1BP3 A R 19;1BP3 A G 104;17.5411
1BP3 A R 19;1BP3 A A 105;3.46773
1BP3 A R 19;1BP3 A S 108;11.1406
1BP3 A R 19;1BP3 A L 113;18.7703
1BP3 A L 20;1BP3 A H 21;16.0043
1BP3 A L 20;1BP3 A Q 22;0.940038
1BP3 A L 20;1BP3 A L 23;16.6024
1BP3 A L 20;1BP3 A A 24;7.23834
1BP3 A L 20;1BP3 A I 83;2.73274
1BP3 A L 20;1BP3 A V 110;7.21315
1BP3 A L 20;1BP3 A L 113;27.1144
1BP3 A L 20;1BP3 A L 114;17.8432
1BP3 A L 20;1BP3 A L 117;15.4708
1BP3 A L 20;1BP3 A F 166;12.5249
1BP3 A L 20;1BP3 A M 170;25.1093
1BP3 A H 21;1BP3 A Q 22;17.4613
1BP3 A H 21;1BP3 A L 23;0.70852
1BP3 A H 21;1BP3 A A 24;6.10434
1BP3 A H 21;1BP3 A F 25;14.1535
1BP3 A H 21;1BP3 A R 167;9.30623
1BP3 A H 21;1BP3 A M 170;15.9974
1BP3 A H 21;1BP3 A D 171;23.8534
1BP3 A H 21;1BP3 A E 174;18.5953
1BP3 A H 21;1BP3 B T 298;2.44486
1BP3 A H 21;1BP3 B Y 299;15.049
1BP3 A H 21;1BP3 B H 388;25.6719
1BP3 A Q 22;1BP3 A L 23;21.4535
1BP3 A Q 22;1BP3 A A 24;1.0768
1BP3 A Q 22;1BP3 A F 25;26.1737
1BP3 A Q 22;1BP3 A D 26;28.5974
1BP3 A Q 22;1BP3 B H 388;20.1575
1BP3 A L 23;1BP3 A A 24;19.4772
1BP3 A L 23;1BP3 A F 25;1.17624
1BP3 A L 23;1BP3 A D 26;5.20604
1BP3 A L 23;1BP3 A T 27;18.2271
1BP3 A L 23;1BP3 A F 97;14.1855
1BP3 A L 23;1BP3 A V 102;10.1589
1BP3 A L 23;1BP3 A G 104;0.00185328
1BP3 A L 23;1BP3 A A 105;17.1896
1BP3 A L 23;1BP3 A S 108;9.26531
1BP3 A L 23;1BP3 A V 110;15.3343
1BP3 A L 23;1BP3 A L 113;5.49923
1BP3 A L 23;1BP3 A F 166;6.80827
1BP3 A A 24;1BP3 A F 25;18.7645
1BP3 A A 24;1BP3 A D 26;0.274239
1BP3 A A 24;1BP3 A T 27;6.67467
1BP3 A A 24;1BP3 A Y 28;12.212
1BP3 A A 24;1BP3 A F 97;2.93231
1BP3 A A 24;1BP3 A L 163;4.84456
1BP3 A A 24;1BP3 A F 166;17.8583
1BP3 A A 24;1BP3 A R 167;18.8597
1BP3 A A 24;1BP3 A M 170;7.07182
1BP3 A F 25;1BP3 A D 26;30.9488
1BP3 A F 25;1BP3 A T 27;0.632379
1BP3 A F 25;1BP3 A Y 28;7.27293
1BP3 A F 25;1BP3 A Q 29;34.8771
1BP3 A F 25;1BP3 A R 167;26.2589
1BP3 A F 25;1BP3 B Y 299;27.1627
1BP3 A F 25;1BP3 B H 388;11.3873
1BP3 A D 26;1BP3 A T 27;15.7298
1BP3 A D 26;1BP3 A Y 28;1.06292
1BP3 A D 26;1BP3 A Q 29;17.4952
1BP3 A D 26;1BP3 A E 30;9.74475
1BP3 A D 26;1BP3 A V 102;24.0729
1BP3 A T 27;1BP3 A Y 28;20.3145
1BP3 A T 27;1BP3 A Q 29;0.29535
1BP3 A T 27;1BP3 A E 30;15.6486
1BP3 A T 27;1BP3 A F 31;10.9386
1BP3 A T 27;1BP3 A V 96;8.37726
1BP3 A T 27;1BP3 A F 97;15.9299
1BP3 A T 27;1BP3 A S 100;11.3476
1BP3 A T 27;1BP3 A V 102;11.0733
1BP3 A T 27;1BP3 A A 105;1.2783
1BP3 A T 27;1BP3 A L 163;14.7156
1BP3 A Y 28;1BP3 A Q 29;24.9853
1BP3 A Y 28;1BP3 A E 30;0.964981
1BP3 A Y 28;1BP3 A F 31;6.85083
1BP3 A Y 28;1BP3 A E 32;30.0757
1BP3 A Y 28;1BP3 A Y 42;11.8484
1BP3 A Y 28;1BP3 A F 44;5.21101
1BP3 A Y 28;1BP3 A Y 160;19.4896
1BP3 A Y 28;1BP3 A L 163;23.0736
1BP3 A Y 28;1BP3 A Y 164;20.2974
1BP3 A Y 28;1BP3 A R 167;30.2996
1BP3 A Q 29;1BP3 A E 30;19.3244
1BP3 A Q 29;1BP3 A F 31;0.612661
1BP3 A Q 29;1BP3 A E 32;8.76658
1BP3 A Q 29;1BP3 A E 33;21.1147
1BP3 A Q 29;1BP3 A R 167;0.176713
1BP3 A E 30;1BP3 A F 31;20.6448
1BP3 A E 30;1BP3 A E 32;0.159655
1BP3 A E 30;1BP3 A E 33;13.6786
1BP3 A E 30;1BP3 A A 34;11.6057
1BP3 A E 30;1BP3 A Y 35;5.7701
1BP3 A E 30;1BP3 A V 96;0.241609
1BP3 A E 30;1BP3 A N 99;6.81788
1BP3 A E 30;1BP3 A S 100;17.1837
1BP3 A E 30;1BP3 A L 101;17.9988
1BP3 A E 30;1BP3 A V 102;19.2446
1BP3 A F 31;1BP3 A E 32;19.6939
1BP3 A F 31;1BP3 A E 33;1.71652
1BP3 A F 31;1BP3 A A 34;6.13231
1BP3 A F 31;1BP3 A Y 35;45.7743
1BP3 A F 31;1BP3 A I 36;4.26392
1BP3 A F 31;1BP3 A V 96;17.1459
1BP3 A F 31;1BP3 A L 156;14.0343
1BP3 A F 31;1BP3 A N 159;13.8715
1BP3 A F 31;1BP3 A Y 160;24.9153
1BP3 A F 31;1BP3 A L 163;17.5225
1BP3 A E 32;1BP3 A E 33;24.4988
1BP3 A E 32;1BP3 A A 34;2.03655
1BP3 A E 32;1BP3 A Y 35;8.70992
1BP3 A E 32;1BP3 A I 36;8.18193
1BP3 A E 32;1BP3 A P 37;17.5439
1BP3 A E 32;1BP3 A K 38;3.06236
1BP3 A E 32;1BP3 A K 41;5.64907
1BP3 A E 32;1BP3 A Y 42;11.4965
1BP3 A E 32;1BP3 A Y 160;21.2511
1BP3 A E 33;1BP3 A A 34;23.1565
1BP3 A E 33;1BP3 A P 37;14.8779
1BP3 A E 33;1BP3 A K 38;1.83225
1BP3 A A 34;1BP3 A Y 35;40.5302
1BP3 A A 34;1BP3 A P 37;12.3147
1BP3 A Y 35;1BP3 A I 36;24.3986
1BP3 A Y 35;1BP3 A P 37;3.24199
1BP3 A Y 35;1BP3 A N 99;3.42576
1BP3 A Y 35;1BP3 A L 156;27.3039
1BP3 A Y 35;1BP3 A Y 160;0.412413
1BP3 A I 36;1BP3 A P 37;29.772
1BP3 A I 36;1BP3 A K 38;0.515212
1BP3 A I 36;1BP3 A Q 40;29.5228
1BP3 A I 36;1BP3 A K 41;14.3138
1BP3 A I 36;1BP3 A S 43;3.42517
1BP3 A I 36;1BP3 A L 156;28.704
1BP3 A I 36;1BP3 A L 157;17.4939
1BP3 A I 36;1BP3 A Y 160;23.9881
1BP3 A P 37;1BP3 A K 38;52.4169
1BP3 A P 37;1BP3 A Q 40;4.06722
1BP3 A P 37;1BP3 A K 41;8.84004
1BP3 A K 38;1BP3 A E 39;27.2876
1BP3 A K 38;1BP3 A Q 40;8.39606
1BP3 A K 38;1BP3 A K 41;27.1317
1BP3 A E 39;1BP3 A Q 40;29.2133
1BP3 A E 39;1BP3 A K 41;20.6019
1BP3 A E 39;1BP3 A Y 42;0.0931961
1BP3 A E 39;1BP3 B L 202;8.95037
1BP3 A E 39;1BP3 B E 292;5.50049
1BP3 A E 39;1BP3 B Y 294;1.87079
1BP3 A Q 40;1BP3 A K 41;20.658
1BP3 A Q 40;1BP3 A Y 42;4.13385
1BP3 A Q 40;1BP3 A S 43;23.6486
1BP3 A Q 40;1BP3 A L 157;14.0414
1BP3 A K 41;1BP3 A Y 42;30.8429
1BP3 A K 41;1BP3 A S 43;6.59408
1BP3 A K 41;1BP3 A Y 160;13.1157
1BP3 A K 41;1BP3 B E 292;17.9088
1BP3 A K 41;1BP3 B Y 294;34.1865
1BP3 A Y 42;1BP3 A S 43;17.4071
1BP3 A Y 42;1BP3 A F 44;23.2828
1BP3 A Y 42;1BP3 A L 45;30.3871
1BP3 A Y 42;1BP3 A Q 46;7.00216
1BP3 A Y 42;1BP3 A Y 160;8.46883
1BP3 A Y 42;1BP3 A Y 164;5.91503
1BP3 A Y 42;1BP3 A R 167;6.91431
1BP3 A Y 42;1BP3 B T 274;10.1923
1BP3 A Y 42;1BP3 B I 276;1.17176
1BP3 A Y 42;1BP3 B Y 294;39.4498
1BP3 A Y 42;1BP3 B D 296;7.02713
1BP3 A S 43;1BP3 A F 44;16.5641
1BP3 A S 43;1BP3 A L 45;1.49797
1BP3 A S 43;1BP3 A Q 46;19.7063
1BP3 A S 43;1BP3 A T 50;6.48029
1BP3 A S 43;1BP3 A L 157;26.2155
1BP3 A S 43;1BP3 A Y 160;1.65889
1BP3 A F 44;1BP3 A L 45;30.9664
1BP3 A F 44;1BP3 A Q 46;0.488927
1BP3 A F 44;1BP3 A T 50;17.6871
1BP3 A F 44;1BP3 A S 51;15.9111
1BP3 A F 44;1BP3 A L 157;13.6985
1BP3 A F 44;1BP3 A Y 160;23.1187
1BP3 A F 44;1BP3 A G 161;16.5339
1BP3 A F 44;1BP3 A Y 164;32.6161
1BP3 A F 44;1BP3 B E 243;0.539643
1BP3 A L 45;1BP3 A Q 46;19.9578
1BP3 A L 45;1BP3 A N 47;8.88051
1BP3 A L 45;1BP3 A T 50;1.67606
1BP3 A L 45;1BP3 A S 51;16.5196
1BP3 A L 45;1BP3 A Y 164;3.00068
1BP3 A L 45;1BP3 B H 241;0.974727
1BP3 A L 45;1BP3 B R 242;0.110632
1BP3 A L 45;1BP3 B E 243;15.5046
1BP3 A L 45;1BP3 B G 244;17.4116
1BP3 A L 45;1BP3 B T 274;8.07018
1BP3 A L 45;1BP3 B I 276;17.8177
1BP3 A L 45;1BP3 B Y 294;0.852871
1BP3 A Q 46;1BP3 A N 47;49.3307
1BP3 A Q 46;1BP3 A Q 49;19.4474
1BP3 A Q 46;1BP3 A T 50;24.6769
1BP3 A N 47;1BP3 A P 48;32.7341
1BP3 A N 47;1BP3 A Q 49;7.38707
1BP3 A N 47;1BP3 A T 50;4.97988
1BP3 A N 47;1BP3 A S 51;4.93469
1BP3 A N 47;1BP3 B G 244;2.02163
1BP3 A N 47;1BP3 B T 246;15.3072
1BP3 A P 48;1BP3 A Q 49;26.4651
1BP3 A P 48;1BP3 A T 50;0.851722
1BP3 A P 48;1BP3 A S 51;9.02135
1BP3 A P 48;1BP3 A L 52;25.645
1BP3 A P 48;1BP3 B G 244;15.2103
1BP3 A P 48;1BP3 B E 245;17.6922
1BP3 A P 48;1BP3 B T 246;15.667
1BP3 A Q 49;1BP3 A T 50;40.8971
1BP3 A Q 49;1BP3 A S 51;0.0534845
1BP3 A Q 49;1BP3 A L 52;11.1145
1BP3 A T 50;1BP3 A S 51;19.1082
1BP3 A T 50;1BP3 A L 52;10.4496
1BP3 A T 50;1BP3 A L 157;7.46373
1BP3 A T 50;1BP3 A G 161;2.10758
1BP3 A S 51;1BP3 A L 52;30.2431
1BP3 A S 51;1BP3 A C 53;3.83477
1BP3 A S 51;1BP3 A Y 164;6.32341
1BP3 A S 51;1BP3 A C 165;3.78169
1BP3 A S 51;1BP3 B E 243;14.0523
1BP3 A S 51;1BP3 B G 244;10.6823
1BP3 A L 52;1BP3 A C 53;25.0574
1BP3 A L 52;1BP3 A F 54;1.87514
1BP3 A L 52;1BP3 A E 56;27.4934
1BP3 A L 52;1BP3 A C 165;3.35907
1BP3 A L 52;1BP3 B E 243;13.1158
1BP3 A L 52;1BP3 B G 244;4.10166
1BP3 A L 52;1BP3 B E 245;20.7143
1BP3 A C 53;1BP3 A F 54;25.0992
1BP3 A C 53;1BP3 A S 55;16.0246
1BP3 A C 53;1BP3 A E 56;27.2308
1BP3 A C 53;1BP3 A Y 164;5.63836
1BP3 A C 53;1BP3 A C 165;25.6714
1BP3 A C 53;1BP3 A K 168;15.1102
1BP3 A C 53;1BP3 A D 169;3.10815
1BP3 A C 53;1BP3 B E 243;2.57176
1BP3 A F 54;1BP3 A S 55;27.8389
1BP3 A F 54;1BP3 A E 56;9.93292
1BP3 A F 54;1BP3 A S 57;11.3187
1BP3 A F 54;1BP3 A I 58;1.14365
1BP3 A F 54;1BP3 A S 85;15.2
1BP3 A F 54;1BP3 A W 86;18.0932
1BP3 A F 54;1BP3 A P 89;15.176
1BP3 A F 54;1BP3 A S 144;20.8991
1BP3 A F 54;1BP3 A K 145;14.8189
1BP3 A F 54;1BP3 A F 146;27.3447
1BP3 A F 54;1BP3 A L 162;11.7438
1BP3 A F 54;1BP3 A C 165;5.49205
1BP3 A S 55;1BP3 A E 56;20.1577
1BP3 A S 55;1BP3 A I 58;14.8909
1BP3 A S 55;1BP3 A T 60;4.24344
1BP3 A S 55;1BP3 A L 82;10.4079
1BP3 A S 55;1BP3 A S 85;8.21896
1BP3 A S 55;1BP3 A W 86;8.2585
1BP3 A S 55;1BP3 A S 144;1.04765
1BP3 A S 55;1BP3 A C 165;1.97331
1BP3 A S 55;1BP3 A D 169;17.7246
1BP3 A S 55;1BP3 A K 172;9.57514
1BP3 A E 56;1BP3 A S 57;27.1301
1BP3 A E 56;1BP3 A I 58;18.585
1BP3 A E 56;1BP3 A P 59;1.53625
1BP3 A E 56;1BP3 A T 60;0.365744
1BP3 A E 56;1BP3 A K 172;2.25992
1BP3 A S 57;1BP3 A I 58;24.1822
1BP3 A S 57;1BP3 A P 59;8.22779
1BP3 A S 57;1BP3 A T 142;24.8288
1BP3 A S 57;1BP3 A S 144;14.4953
1BP3 A I 58;1BP3 A P 59;28.1444
1BP3 A I 58;1BP3 A T 60;20.0035
1BP3 A I 58;1BP3 A I 78;11.3105
1BP3 A I 58;1BP3 A L 81;20.1837
1BP3 A I 58;1BP3 A L 82;12.9874
1BP3 A I 58;1BP3 A S 85;6.72495
1BP3 A I 58;1BP3 A I 138;9.42875
1BP3 A I 58;1BP3 A T 142;19.4086
1BP3 A I 58;1BP3 A S 144;3.20532
1BP3 A P 59;1BP3 A T 60;23.0853
1BP3 A P 59;1BP3 A P 61;0.66809
1BP3 A P 59;1BP3 A I 78;5.43528
1BP3 A P 59;1BP3 A Q 137;22.9962
1BP3 A P 59;1BP3 A I 138;22.2736
1BP3 A P 59;1BP3 A T 142;2.47523
1BP3 A T 60;1BP3 A P 61;34.8561
1BP3 A T 60;1BP3 A S 62;6.37878
1BP3 A T 60;1BP3 A E 66;1.68527
1BP3 A T 60;1BP3 A I 78;14.3983
1BP3 A T 60;1BP3 A L 82;8.93347
1BP3 A T 60;1BP3 A Q 137;0.573464
1BP3 A T 60;1BP3 A K 172;23.9787
1BP3 A T 60;1BP3 A F 176;7.12554
1BP3 A T 60;1BP3 B W 272;2.4699
1BP3 A P 61;1BP3 A S 62;20.0587
1BP3 A P 61;1BP3 A N 63;0.000798417
1BP3 A P 61;1BP3 A E 66;20.0238
1BP3 A P 61;1BP3 A T 67;19.3018
1BP3 A P 61;1BP3 A K 70;16.7261
1BP3 A P 61;1BP3 A L 75;6.35392
1BP3 A P 61;1BP3 A I 78;9.76764
1BP3 A P 61;1BP3 A Q 137;2.61477
1BP3 A P 61;1BP3 A F 176;14.6212
1BP3 A P 61;1BP3 B W 272;11.746
1BP3 A S 62;1BP3 A N 63;26.5224
1BP3 A S 62;1BP3 A E 66;21.8334
1BP3 A S 62;1BP3 A T 67;0.719439
1BP3 A S 62;1BP3 B T 269;2.911
1BP3 A S 62;1BP3 B S 270;10.3471
1BP3 A S 62;1BP3 B M 271;23.0219
1BP3 A S 62;1BP3 B W 272;5.37677
1BP3 A S 62;1BP3 B R 273;6.37989
1BP3 A N 63;1BP3 A R 64;23.6885
1BP3 A N 63;1BP3 A E 65;22.8002
1BP3 A N 63;1BP3 A E 66;30.9721
1BP3 A N 63;1BP3 A T 67;13.783
1BP3 A N 63;1BP3 B K 266;2.02282
1BP3 A N 63;1BP3 B T 269;7.57547
1BP3 A N 63;1BP3 B M 271;11.7074
1BP3 A N 63;1BP3 B W 272;0.938948
1BP3 A N 63;1BP3 B W 339;6.03154
1BP3 A R 64;1BP3 A E 65;31.1162
1BP3 A R 64;1BP3 A E 66;0.796156
1BP3 A R 64;1BP3 A T 67;6.79601
1BP3 A R 64;1BP3 A Q 68;44.208
1BP3 A R 64;1BP3 B K 217;0.247037
1BP3 A R 64;1BP3 B E 218;39.5574
1BP3 A R 64;1BP3 B K 266;3.13387
1BP3 A R 64;1BP3 B M 271;3.50624
1BP3 A R 64;1BP3 B D 334;17.207
1BP3 A R 64;1BP3 B T 337;1.18673
1BP3 A R 64;1BP3 B W 339;30.7573
1BP3 A E 65;1BP3 A E 66;14.8939
1BP3 A E 65;1BP3 A T 67;0.803818
1BP3 A E 65;1BP3 A Q 68;17.5698
1BP3 A E 65;1BP3 A Q 69;19.9457
1BP3 A E 65;1BP3 B E 218;0.549417
1BP3 A E 65;1BP3 B K 266;22.619
1BP3 A E 66;1BP3 A T 67;15.3221
1BP3 A E 66;1BP3 A Q 68;0.47145
1BP3 A E 66;1BP3 A Q 69;30.4069
1BP3 A E 66;1BP3 A K 70;12.5829
1BP3 A T 67;1BP3 A Q 68;19.1452
1BP3 A T 67;1BP3 A Q 69;1.14811
1BP3 A T 67;1BP3 A K 70;4.61215
1BP3 A T 67;1BP3 A L 75;15.8794
1BP3 A T 67;1BP3 A T 175;2.29916
1BP3 A T 67;1BP3 A F 176;12.4111
1BP3 A T 67;1BP3 A I 179;14.9953
1BP3 A T 67;1BP3 A R 183;0.416832
1BP3 A T 67;1BP3 B W 272;5.87166
1BP3 A T 67;1BP3 B W 339;16.8532
1BP3 A Q 68;1BP3 A Q 69;24.5348
1BP3 A Q 68;1BP3 A K 70;2.16415
1BP3 A Q 68;1BP3 A L 75;0.000839944
1BP3 A Q 68;1BP3 A I 179;8.72517
1BP3 A Q 68;1BP3 A R 183;18.0839
1BP3 A Q 68;1BP3 B T 337;28.7525
1BP3 A Q 68;1BP3 B W 339;10.8406
1BP3 A Q 69;1BP3 A K 70;28.9438
1BP3 A Q 69;1BP3 A S 71;6.22762
1BP3 A K 70;1BP3 A S 71;19.2703
1BP3 A K 70;1BP3 A E 74;28.4869
1BP3 A K 70;1BP3 A L 75;23.8421
1BP3 A K 70;1BP3 A I 78;3.10999
1BP3 A K 70;1BP3 A G 136;5.92766e-05
1BP3 A K 70;1BP3 A Q 137;30.9696
1BP3 A K 70;1BP3 A R 183;7.49338
1BP3 A S 71;1BP3 A N 72;21.0742
1BP3 A S 71;1BP3 A L 73;13.9015
1BP3 A S 71;1BP3 A E 74;29.4571
1BP3 A S 71;1BP3 A L 75;7.90667
1BP3 A S 71;1BP3 A R 183;8.49833
1BP3 A N 72;1BP3 A L 73;20.0984
1BP3 A N 72;1BP3 A E 74;0.142664
1BP3 A N 72;1BP3 A L 75;9.26609
1BP3 A N 72;1BP3 A L 76;11.1071
1BP3 A N 72;1BP3 A L 128;13.6222
1BP3 A N 72;1BP3 A V 180;23.293
1BP3 A N 72;1BP3 A R 183;34.7716
1BP3 A N 72;1BP3 A S 184;11.6716
1BP3 A L 73;1BP3 A E 74;22.0645
1BP3 A L 73;1BP3 A L 75;1.07213
1BP3 A L 73;1BP3 A L 76;16.03
1BP3 A L 73;1BP3 A R 77;8.46168
1BP3 A L 73;1BP3 A M 125;28.4273
1BP3 A L 73;1BP3 A L 128;24.4986
1BP3 A L 73;1BP3 A E 129;16.5122
1BP3 A L 73;1BP3 A P 133;3.13768
1BP3 A L 73;1BP3 A R 134;11.7851
1BP3 A E 74;1BP3 A L 75;17.0073
1BP3 A E 74;1BP3 A L 76;0.454053
1BP3 A E 74;1BP3 A R 77;19.1769
1BP3 A E 74;1BP3 A I 78;11.6141
1BP3 A E 74;1BP3 A T 135;3.40023
1BP3 A E 74;1BP3 A G 136;19.1933
1BP3 A E 74;1BP3 A Q 137;18.986
1BP3 A L 75;1BP3 A L 76;17.5443
1BP3 A L 75;1BP3 A R 77;1.60969
1BP3 A L 75;1BP3 A I 78;12.3889
1BP3 A L 75;1BP3 A S 79;6.81581
1BP3 A L 75;1BP3 A F 176;26.2662
1BP3 A L 75;1BP3 A I 179;15.3973
1BP3 A L 75;1BP3 A V 180;14.3389
1BP3 A L 75;1BP3 A R 183;10.4573
1BP3 A L 76;1BP3 A R 77;17.0292
1BP3 A L 76;1BP3 A I 78;0.818635
1BP3 A L 76;1BP3 A S 79;11.8615
1BP3 A L 76;1BP3 A L 80;4.38537
1BP3 A L 76;1BP3 A I 121;19.7187
1BP3 A L 76;1BP3 A L 124;15.8869
1BP3 A L 76;1BP3 A M 125;19.8786
1BP3 A L 76;1BP3 A L 128;13.5106
1BP3 A L 76;1BP3 A F 176;0.0622146
1BP3 A L 76;1BP3 A L 177;13.2867
1BP3 A L 76;1BP3 A V 180;15.2339
1BP3 A R 77;1BP3 A I 78;20.8031
1BP3 A R 77;1BP3 A S 79;1.24017
1BP3 A R 77;1BP3 A L 80;15.6456
1BP3 A R 77;1BP3 A L 81;25.7021
1BP3 A R 77;1BP3 A M 125;23.2531
1BP3 A R 77;1BP3 A R 134;30.7353
1BP3 A R 77;1BP3 A T 135;0.518798
1BP3 A R 77;1BP3 A G 136;2.78936
1BP3 A R 77;1BP3 A Q 137;13.5224
1BP3 A R 77;1BP3 A I 138;29.0364
1BP3 A R 77;1BP3 A F 139;8.49574
1BP3 A I 78;1BP3 A S 79;16.0235
1BP3 A I 78;1BP3 A L 80;1.05781
1BP3 A I 78;1BP3 A L 81;15.8109
1BP3 A I 78;1BP3 A L 82;21.7003
1BP3 A I 78;1BP3 A Q 137;10.5036
1BP3 A I 78;1BP3 A I 138;9.7746
1BP3 A I 78;1BP3 A F 176;14.4007
1BP3 A S 79;1BP3 A L 80;15.9614
1BP3 A S 79;1BP3 A L 81;0.110071
1BP3 A S 79;1BP3 A L 82;12.1349
1BP3 A S 79;1BP3 A I 83;11.152
1BP3 A S 79;1BP3 A I 121;8.5512
1BP3 A S 79;1BP3 A V 173;19.0494
1BP3 A S 79;1BP3 A F 176;11.8734
1BP3 A S 79;1BP3 A L 177;11.3483
1BP3 A L 80;1BP3 A L 81;20.9193
1BP3 A L 80;1BP3 A L 82;1.11671
1BP3 A L 80;1BP3 A I 83;17.8978
1BP3 A L 80;1BP3 A Q 84;26.9142
1BP3 A L 80;1BP3 A E 118;16.8124
1BP3 A L 80;1BP3 A I 121;19.8906
1BP3 A L 80;1BP3 A Q 122;24.789
1BP3 A L 80;1BP3 A M 125;13.1045
1BP3 A L 81;1BP3 A L 82;18.1349
1BP3 A L 81;1BP3 A I 83;0.94627
1BP3 A L 81;1BP3 A Q 84;21.8025
1BP3 A L 81;1BP3 A S 85;12.2215
1BP3 A L 81;1BP3 A I 138;15.5103
1BP3 A L 81;1BP3 A Q 141;15.6258
1BP3 A L 81;1BP3 A T 142;14.4335
1BP3 A L 82;1BP3 A I 83;17.9765
1BP3 A L 82;1BP3 A Q 84;0.209063
1BP3 A L 82;1BP3 A S 85;11.5939
1BP3 A L 82;1BP3 A W 86;16.0816
1BP3 A L 82;1BP3 A D 169;18.498
1BP3 A L 82;1BP3 A M 170;3.50299
1BP3 A L 82;1BP3 A K 172;14.2962
1BP3 A L 82;1BP3 A V 173;14.3362
1BP3 A L 82;1BP3 A F 176;4.75433
1BP3 A I 83;1BP3 A Q 84;17.5058
1BP3 A I 83;1BP3 A S 85;0.763497
1BP3 A I 83;1BP3 A W 86;7.33171
1BP3 A I 83;1BP3 A L 87;11.1391
1BP3 A I 83;1BP3 A L 114;31.3344
1BP3 A I 83;1BP3 A L 117;15.9943
1BP3 A I 83;1BP3 A E 118;18.2251
1BP3 A I 83;1BP3 A I 121;7.8297
1BP3 A I 83;1BP3 A M 170;8.06495
1BP3 A I 83;1BP3 A V 173;14.1103
1BP3 A Q 84;1BP3 A S 85;18.8851
1BP3 A Q 84;1BP3 A W 86;1.50066
1BP3 A Q 84;1BP3 A L 87;26.6164
1BP3 A Q 84;1BP3 A E 88;0.83872
1BP3 A Q 84;1BP3 A E 118;18.206
1BP3 A Q 84;1BP3 A Q 122;2.57091
1BP3 A Q 84;1BP3 A Q 141;9.69938
1BP3 A Q 84;1BP3 A Y 143;26.3013
1BP3 A S 85;1BP3 A W 86;18.4038
1BP3 A S 85;1BP3 A L 87;2.10171
1BP3 A S 85;1BP3 A E 88;2.58387
1BP3 A S 85;1BP3 A P 89;9.73355
1BP3 A S 85;1BP3 A T 142;3.76288
1BP3 A S 85;1BP3 A Y 143;15.6974
1BP3 A S 85;1BP3 A S 144;17.6012
1BP3 A W 86;1BP3 A L 87;15.7087
1BP3 A W 86;1BP3 A E 88;1.29039
1BP3 A W 86;1BP3 A P 89;17.9979
1BP3 A W 86;1BP3 A V 90;21.294
1BP3 A W 86;1BP3 A L 93;10.177
1BP3 A W 86;1BP3 A L 114;12.9606
1BP3 A W 86;1BP3 A L 162;15.478
1BP3 A W 86;1BP3 A C 165;10.012
1BP3 A W 86;1BP3 A F 166;31.1825
1BP3 A W 86;1BP3 A D 169;15.8978
1BP3 A W 86;1BP3 A M 170;10.3303
1BP3 A L 87;1BP3 A E 88;26.3543
1BP3 A L 87;1BP3 A P 89;0.339005
1BP3 A L 87;1BP3 A V 90;8.50814
1BP3 A L 87;1BP3 A Q 91;8.24913
1BP3 A L 87;1BP3 A Y 111;31.4107
1BP3 A L 87;1BP3 A L 114;14.2756
1BP3 A L 87;1BP3 A K 115;20.5247
1BP3 A L 87;1BP3 A E 118;9.37661
1BP3 A L 87;1BP3 A Y 143;12.258
1BP3 A E 88;1BP3 A P 89;27.7042
1BP3 A E 88;1BP3 A V 90;3.35183
1BP3 A E 88;1BP3 A Q 91;21.5902
1BP3 A E 88;1BP3 A F 92;8.70535
1BP3 A E 88;1BP3 A Y 143;25.5653
1BP3 A E 88;1BP3 A S 144;1.14768
1BP3 A E 88;1BP3 A K 145;22.559
1BP3 A P 89;1BP3 A V 90;15.6339
1BP3 A P 89;1BP3 A Q 91;2.71315
1BP3 A P 89;1BP3 A F 92;18.6837
1BP3 A P 89;1BP3 A L 93;8.63978
1BP3 A P 89;1BP3 A S 144;0.711421
1BP3 A P 89;1BP3 A K 145;11.6853
1BP3 A P 89;1BP3 A F 146;12.3445
1BP3 A P 89;1BP3 A L 162;10.3569
1BP3 A V 90;1BP3 A Q 91;19.8777
1BP3 A V 90;1BP3 A F 92;0.214427
1BP3 A V 90;1BP3 A L 93;19.5173
1BP3 A V 90;1BP3 A R 94;9.78576
1BP3 A V 90;1BP3 A F 97;14.1523
1BP3 A V 90;1BP3 A V 110;14.9369
1BP3 A V 90;1BP3 A Y 111;11.9491
1BP3 A V 90;1BP3 A L 114;11.587
1BP3 A V 90;1BP3 A F 166;9.28428
1BP3 A Q 91;1BP3 A F 92;33.4011
1BP3 A Q 91;1BP3 A L 93;1.31094
1BP3 A Q 91;1BP3 A R 94;39.864
1BP3 A Q 91;1BP3 A Y 111;23.5633
1BP3 A F 92;1BP3 A L 93;23.9717
1BP3 A F 92;1BP3 A R 94;3.75624
1BP3 A F 92;1BP3 A S 95;14.624
1BP3 A F 92;1BP3 A V 96;1.5098
1BP3 A F 92;1BP3 A K 145;12.9846
1BP3 A F 92;1BP3 A F 146;15.425
1BP3 A F 92;1BP3 A D 147;0.000437609
1BP3 A F 92;1BP3 A T 148;23.369
1BP3 A F 92;1BP3 A N 159;9.38274
1BP3 A F 92;1BP3 A L 162;8.62105
1BP3 A L 93;1BP3 A R 94;15.3792
1BP3 A L 93;1BP3 A S 95;2.31827
1BP3 A L 93;1BP3 A V 96;24.1659
1BP3 A L 93;1BP3 A F 97;24.201
1BP3 A L 93;1BP3 A N 159;9.81345
1BP3 A L 93;1BP3 A L 162;23.6585
1BP3 A L 93;1BP3 A L 163;12.7927
1BP3 A L 93;1BP3 A F 166;4.32364
1BP3 A R 94;1BP3 A S 95;24.1921
1BP3 A R 94;1BP3 A V 96;0.489383
1BP3 A R 94;1BP3 A F 97;12.587
1BP3 A R 94;1BP3 A A 98;16.8202
1BP3 A R 94;1BP3 A N 109;16.8872
1BP3 A R 94;1BP3 A Y 111;1.27776
1BP3 A S 95;1BP3 A V 96;28.8498
1BP3 A S 95;1BP3 A F 97;0.350204
1BP3 A S 95;1BP3 A A 98;10.2793
1BP3 A S 95;1BP3 A N 99;8.0913
1BP3 A S 95;1BP3 A N 159;10.2251
1BP3 A V 96;1BP3 A F 97;20.3355
1BP3 A V 96;1BP3 A A 98;2.5897
1BP3 A V 96;1BP3 A N 99;6.06542
1BP3 A V 96;1BP3 A S 100;11.9732
1BP3 A V 96;1BP3 A N 159;15.4234
1BP3 A V 96;1BP3 A L 163;17.0305
1BP3 A F 97;1BP3 A A 98;19.2453
1BP3 A F 97;1BP3 A N 99;0.0627168
1BP3 A F 97;1BP3 A S 100;11.9431
1BP3 A F 97;1BP3 A A 105;17.6906
1BP3 A F 97;1BP3 A S 106;6.01867
1BP3 A F 97;1BP3 A V 110;24.1803
1BP3 A F 97;1BP3 A L 163;9.73562
1BP3 A F 97;1BP3 A F 166;14.5465
1BP3 A A 98;1BP3 A N 99;25.3011
1BP3 A A 98;1BP3 A S 100;6.67689
1BP3 A A 98;1BP3 A S 106;24.0361
1BP3 A N 99;1BP3 A S 100;20.0077
1BP3 A N 99;1BP3 A L 101;20.0112
1BP3 A S 100;1BP3 A L 101;19.1228
1BP3 A S 100;1BP3 A V 102;17.0172
1BP3 A S 100;1BP3 A Y 103;0.993995
1BP3 A S 100;1BP3 A A 105;11.3831
1BP3 A S 100;1BP3 A S 106;5.81998
1BP3 A L 101;1BP3 A V 102;23.8523
1BP3 A L 101;1BP3 A Y 103;11.5964
1BP3 A V 102;1BP3 A Y 103;31.4864
1BP3 A V 102;1BP3 A G 104;0.155408
1BP3 A V 102;1BP3 A A 105;14.4373
1BP3 A V 102;1BP3 A S 106;0.0472703
1BP3 A Y 103;1BP3 A G 104;26.5272
1BP3 A Y 103;1BP3 A A 105;3.94906
1BP3 A Y 103;1BP3 A S 106;0.980903
1BP3 A Y 103;1BP3 A D 107;18.9211
1BP3 A G 104;1BP3 A A 105;19.0559
1BP3 A G 104;1BP3 A S 106;2.25291
1BP3 A G 104;1BP3 A D 107;15.1433
1BP3 A G 104;1BP3 A S 108;16.8662
1BP3 A A 105;1BP3 A S 106;27.5215
1BP3 A A 105;1BP3 A D 107;0.176195
1BP3 A A 105;1BP3 A S 108;13.8106
1BP3 A A 105;1BP3 A N 109;0.310227
1BP3 A A 105;1BP3 A V 110;2.95874
1BP3 A S 106;1BP3 A D 107;31.9218
1BP3 A S 106;1BP3 A S 108;3.78938
1BP3 A S 106;1BP3 A N 109;15.0334
1BP3 A D 107;1BP3 A S 108;21.3944
1BP3 A D 107;1BP3 A N 109;11.2316
1BP3 A S 108;1BP3 A N 109;17.9577
1BP3 A S 108;1BP3 A V 110;9.27723
1BP3 A S 108;1BP3 A D 112;0.0170579
1BP3 A S 108;1BP3 A L 113;23.7789
1BP3 A N 109;1BP3 A V 110;17.6373
1BP3 A N 109;1BP3 A Y 111;14.9489
1BP3 A N 109;1BP3 A D 112;31.0726
1BP3 A N 109;1BP3 A L 113;5.03343
1BP3 A V 110;1BP3 A Y 111;19.2119
1BP3 A V 110;1BP3 A D 112;1.5341
1BP3 A V 110;1BP3 A L 113;15.559
1BP3 A V 110;1BP3 A L 114;18.1572
1BP3 A V 110;1BP3 A F 166;10.5773
1BP3 A Y 111;1BP3 A D 112;24.1282
1BP3 A Y 111;1BP3 A L 113;0.183938
1BP3 A Y 111;1BP3 A L 114;13.2719
1BP3 A Y 111;1BP3 A K 115;30.9822
1BP3 A D 112;1BP3 A L 113;23.8488
1BP3 A D 112;1BP3 A L 114;1.55644
1BP3 A D 112;1BP3 A K 115;13.5886
1BP3 A D 112;1BP3 A D 116;11.3885
1BP3 A L 113;1BP3 A L 114;16.1788
1BP3 A L 113;1BP3 A K 115;0.582483
1BP3 A L 113;1BP3 A D 116;13.0292
1BP3 A L 113;1BP3 A L 117;11.4056
1BP3 A L 114;1BP3 A K 115;17.691
1BP3 A L 114;1BP3 A D 116;0.611084
1BP3 A L 114;1BP3 A L 117;6.64989
1BP3 A L 114;1BP3 A E 118;8.67053
1BP3 A L 114;1BP3 A F 166;9.0508
1BP3 A L 114;1BP3 A M 170;4.90063
1BP3 A K 115;1BP3 A D 116;21.7717
1BP3 A K 115;1BP3 A L 117;0.470854
1BP3 A K 115;1BP3 A E 118;35.4214
1BP3 A K 115;1BP3 A E 119;7.80353
1BP3 A D 116;1BP3 A L 117;19.2208
1BP3 A D 116;1BP3 A E 118;1.83114
1BP3 A D 116;1BP3 A E 119;11.6112
1BP3 A D 116;1BP3 A R 120;28.4949
1BP3 A L 117;1BP3 A E 118;17.125
1BP3 A L 117;1BP3 A E 119;0.649067
1BP3 A L 117;1BP3 A R 120;16.7153
1BP3 A L 117;1BP3 A I 121;20.7754
1BP3 A L 117;1BP3 A M 170;0.723384
1BP3 A L 117;1BP3 A V 173;10.0301
1BP3 A L 117;1BP3 A L 177;3.80023
1BP3 A E 118;1BP3 A E 119;19.1415
1BP3 A E 118;1BP3 A R 120;0.257422
1BP3 A E 118;1BP3 A I 121;7.61249
1BP3 A E 118;1BP3 A Q 122;22.5873
1BP3 A E 119;1BP3 A R 120;20.0433
1BP3 A E 119;1BP3 A I 121;2.10334
1BP3 A E 119;1BP3 A Q 122;17.8112
1BP3 A E 119;1BP3 A T 123;14.5187
1BP3 A R 120;1BP3 A I 121;16.808
1BP3 A R 120;1BP3 A Q 122;0.132046
1BP3 A R 120;1BP3 A T 123;12.7317
1BP3 A R 120;1BP3 A L 124;17.7735
1BP3 A I 121;1BP3 A Q 122;17.4482
1BP3 A I 121;1BP3 A T 123;1.33955
1BP3 A I 121;1BP3 A L 124;15.3355
1BP3 A I 121;1BP3 A M 125;14.0748
1BP3 A I 121;1BP3 A V 173;4.39283
1BP3 A I 121;1BP3 A L 177;18.0919
1BP3 A Q 122;1BP3 A T 123;21.454
1BP3 A Q 122;1BP3 A L 124;0.223908
1BP3 A Q 122;1BP3 A M 125;14.5378
1BP3 A Q 122;1BP3 A G 126;10.414
1BP3 A T 123;1BP3 A L 124;23.5348
1BP3 A T 123;1BP3 A M 125;1.61178
1BP3 A T 123;1BP3 A G 126;7.94229
1BP3 A T 123;1BP3 A R 127;15.5097
1BP3 A L 124;1BP3 A M 125;14.3961
1BP3 A L 124;1BP3 A G 126;0.188304
1BP3 A L 124;1BP3 A R 127;8.47031
1BP3 A L 124;1BP3 A L 128;13.3857
1BP3 A L 124;1BP3 A L 177;8.22775
1BP3 A M 125;1BP3 A G 126;19.2975
1BP3 A M 125;1BP3 A R 127;0.764004
1BP3 A M 125;1BP3 A L 128;9.20638
1BP3 A M 125;1BP3 A E 129;8.63737
1BP3 A M 125;1BP3 A R 134;13.1805
1BP3 A G 126;1BP3 A R 127;21.005
1BP3 A G 126;1BP3 A L 128;2.66628
1BP3 A G 126;1BP3 A E 129;24.6107
1BP3 A G 126;1BP3 A D 130;0.000844784
1BP3 A R 127;1BP3 A L 128;26.482
1BP3 A R 127;1BP3 A E 129;6.4929
1BP3 A L 128;1BP3 A E 129;24.876
1BP3 A L 128;1BP3 A V 180;7.7839
1BP3 A L 128;1BP3 A S 184;12.3527
1BP3 A E 129;1BP3 A D 130;34.7136
1BP3 A E 129;1BP3 A G 131;14.9588
1BP3 A E 129;1BP3 A S 132;17.1496
1BP3 A E 129;1BP3 A P 133;0.592399
1BP3 A E 129;1BP3 A R 134;15.0403
1BP3 A D 130;1BP3 A G 131;28.961
1BP3 A D 130;1BP3 A S 132;0.344628
1BP3 A G 131;1BP3 A S 132;36.9174
1BP3 A S 132;1BP3 A P 133;49.5917
1BP3 A S 132;1BP3 A R 134;2.69547
1BP3 A P 133;1BP3 A R 134;27.3741
1BP3 A P 133;1BP3 A T 135;31.8093
1BP3 A R 134;1BP3 A T 135;27.1395
1BP3 A R 134;1BP3 A G 136;0.00655218
1BP3 A R 134;1BP3 A I 138;0.371458
1BP3 A R 134;1BP3 A F 139;25.6929
1BP3 A T 135;1BP3 A G 136;28.1878
1BP3 A T 135;1BP3 A F 139;21.9386
1BP3 A G 136;1BP3 A Q 137;25.4498
1BP3 A G 136;1BP3 A F 139;17.2045
1BP3 A Q 137;1BP3 A I 138;33.4606
1BP3 A Q 137;1BP3 A F 139;17.6178
1BP3 A I 138;1BP3 A F 139;29.4742
1BP3 A I 138;1BP3 A K 140;8.58115
1BP3 A I 138;1BP3 A Q 141;1.15074
1BP3 A I 138;1BP3 A T 142;14.2423
1BP3 A F 139;1BP3 A K 140;34.0527
1BP3 A F 139;1BP3 A Q 141;2.29036
1BP3 A F 139;1BP3 A T 142;0.394104
1BP3 A K 140;1BP3 A Q 141;27.9764
1BP3 A K 140;1BP3 A T 142;12.6249
1BP3 A Q 141;1BP3 A T 142;17.2655
1BP3 A Q 141;1BP3 A Y 143;22.7034
1BP3 A T 142;1BP3 A Y 143;23.0525
1BP3 A T 142;1BP3 A S 144;7.92045
1BP3 A Y 143;1BP3 A S 144;40.5014
1BP3 A Y 143;1BP3 A K 145;0.595794
1BP3 A S 144;1BP3 A K 145;36.8378
1BP3 A K 145;1BP3 A F 146;41.4476
1BP3 A K 145;1BP3 A D 147;15.1526
1BP3 A K 145;1BP3 A T 148;14.4064
1BP3 A F 146;1BP3 A D 147;45.7952
1BP3 A F 146;1BP3 A T 148;3.8041
1BP3 A F 146;1BP3 A K 158;23.6436
1BP3 A F 146;1BP3 A L 162;22.3798
1BP3 A D 147;1BP3 A T 148;44.0335
1BP3 A D 147;1BP3 A K 158;17.3037
1BP3 A T 148;1BP3 A K 158;3.1567
1BP3 A D 153;1BP3 A D 154;32.3797
1BP3 A D 153;1BP3 A A 155;14.3546
1BP3 A D 154;1BP3 A A 155;25.2729
1BP3 A D 154;1BP3 A L 156;6.80474
1BP3 A D 154;1BP3 A L 157;29.8917
1BP3 A D 154;1BP3 A K 158;17.975
1BP3 A A 155;1BP3 A L 156;28.7134
1BP3 A A 155;1BP3 A L 157;1.84869
1BP3 A A 155;1BP3 A K 158;10.9747
1BP3 A A 155;1BP3 A N 159;11.4147
1BP3 A L 156;1BP3 A L 157;20.4107
1BP3 A L 156;1BP3 A K 158;1.30536
1BP3 A L 156;1BP3 A N 159;8.39878
1BP3 A L 156;1BP3 A Y 160;6.70597
1BP3 A L 157;1BP3 A K 158;21.3909
1BP3 A L 157;1BP3 A N 159;0.563822
1BP3 A L 157;1BP3 A Y 160;15.7176
1BP3 A L 157;1BP3 A G 161;8.52141
1BP3 A K 158;1BP3 A N 159;25.9774
1BP3 A K 158;1BP3 A Y 160;0.75737
1BP3 A K 158;1BP3 A G 161;8.4827
1BP3 A K 158;1BP3 A L 162;20.1342
1BP3 A N 159;1BP3 A Y 160;17.5105
1BP3 A N 159;1BP3 A G 161;1.17297
1BP3 A N 159;1BP3 A L 162;15.4127
1BP3 A N 159;1BP3 A L 163;11.171
1BP3 A Y 160;1BP3 A G 161;17.8243
1BP3 A Y 160;1BP3 A L 162;0.838508
1BP3 A Y 160;1BP3 A L 163;12.2176
1BP3 A Y 160;1BP3 A Y 164;7.84268
1BP3 A G 161;1BP3 A L 162;20.0375
1BP3 A G 161;1BP3 A L 163;0.333038
1BP3 A G 161;1BP3 A Y 164;10.1826
1BP3 A G 161;1BP3 A C 165;12.0318
1BP3 A L 162;1BP3 A L 163;17.4009
1BP3 A L 162;1BP3 A Y 164;1.3634
1BP3 A L 162;1BP3 A C 165;11.7791
1BP3 A L 162;1BP3 A F 166;5.97269
1BP3 A L 163;1BP3 A Y 164;15.2548
1BP3 A L 163;1BP3 A C 165;0.848548
1BP3 A L 163;1BP3 A F 166;14.8003
1BP3 A L 163;1BP3 A R 167;8.74509
1BP3 A Y 164;1BP3 A C 165;26.7656
1BP3 A Y 164;1BP3 A F 166;0.595214
1BP3 A Y 164;1BP3 A R 167;23.5162
1BP3 A Y 164;1BP3 A K 168;30.2798
1BP3 A Y 164;1BP3 B E 243;17.5206
1BP3 A Y 164;1BP3 B R 273;1.96451
1BP3 A Y 164;1BP3 B T 274;12.308
1BP3 A Y 164;1BP3 B D 296;7.49921
1BP3 A C 165;1BP3 A F 166;14.0744
1BP3 A C 165;1BP3 A R 167;0.800204
1BP3 A C 165;1BP3 A K 168;11.3088
1BP3 A C 165;1BP3 A D 169;14.4184
1BP3 A F 166;1BP3 A R 167;16.277
1BP3 A F 166;1BP3 A K 168;1.13065
1BP3 A F 166;1BP3 A D 169;5.79269
1BP3 A F 166;1BP3 A M 170;34.9738
1BP3 A R 167;1BP3 A K 168;21.2588
1BP3 A R 167;1BP3 A D 169;0.486389
1BP3 A R 167;1BP3 A M 170;5.99232
1BP3 A R 167;1BP3 A D 171;7.91583
1BP3 A R 167;1BP3 B D 296;17.977
1BP3 A R 167;1BP3 B Y 299;29.0399
1BP3 A K 168;1BP3 A D 169;18.9989
1BP3 A K 168;1BP3 A M 170;0.796931
1BP3 A K 168;1BP3 A D 171;9.51583
1BP3 A K 168;1BP3 A K 172;31.3832
1BP3 A K 168;1BP3 B E 243;8.49954
1BP3 A K 168;1BP3 B W 272;37.7943
1BP3 A K 168;1BP3 B R 273;5.52149
1BP3 A K 168;1BP3 B D 296;3.23243
1BP3 A K 168;1BP3 B Y 299;2.56634
1BP3 A D 169;1BP3 A M 170;26.5539
1BP3 A D 169;1BP3 A D 171;1.22933
1BP3 A D 169;1BP3 A K 172;22.1154
1BP3 A D 169;1BP3 A V 173;11.12
1BP3 A M 170;1BP3 A D 171;17.9005
1BP3 A M 170;1BP3 A K 172;0.431647
1BP3 A M 170;1BP3 A V 173;19.1331
1BP3 A M 170;1BP3 A E 174;8.38477
1BP3 A D 171;1BP3 A K 172;16.6436
1BP3 A D 171;1BP3 A V 173;1.94399
1BP3 A D 171;1BP3 A E 174;9.28566
1BP3 A D 171;1BP3 A T 175;19.4339
1BP3 A D 171;1BP3 B K 217;0.0179165
1BP3 A D 171;1BP3 B W 272;18.3112
1BP3 A D 171;1BP3 B T 298;20.8482
1BP3 A D 171;1BP3 B Y 299;12.6034
1BP3 A K 172;1BP3 A V 173;18.5163
1BP3 A K 172;1BP3 A E 174;0.0355161
1BP3 A K 172;1BP3 A T 175;6.16659
1BP3 A K 172;1BP3 A F 176;25.9114
1BP3 A K 172;1BP3 B W 272;35.7156
1BP3 A V 173;1BP3 A E 174;19.2195
1BP3 A V 173;1BP3 A T 175;0.737034
1BP3 A V 173;1BP3 A F 176;8.17277
1BP3 A V 173;1BP3 A L 177;17.0011
1BP3 A E 174;1BP3 A T 175;22.6138
1BP3 A E 174;1BP3 A F 176;1.51652
1BP3 A E 174;1BP3 A L 177;7.43937
1BP3 A E 174;1BP3 A R 178;10.2208
1BP3 A E 174;1BP3 B D 387;11.7307
1BP3 A E 174;1BP3 B H 388;7.97048
1BP3 A T 175;1BP3 A F 176;22.3362
1BP3 A T 175;1BP3 A L 177;0.0828499
1BP3 A T 175;1BP3 A R 178;11.875
1BP3 A T 175;1BP3 A I 179;14.9553
1BP3 A T 175;1BP3 B K 217;17.5915
1BP3 A T 175;1BP3 B W 272;17.428
1BP3 A T 175;1BP3 B T 298;0.52121
1BP3 A T 175;1BP3 B G 338;0.401968
1BP3 A T 175;1BP3 B W 339;16.4104
1BP3 A F 176;1BP3 A L 177;19.1129
1BP3 A F 176;1BP3 A R 178;1.5384
1BP3 A F 176;1BP3 A I 179;18.4085
1BP3 A F 176;1BP3 A V 180;9.65642
1BP3 A F 176;1BP3 B W 272;11.674
1BP3 A L 177;1BP3 A R 178;15.3953
1BP3 A L 177;1BP3 A I 179;0.900306
1BP3 A L 177;1BP3 A V 180;12.4047
1BP3 A L 177;1BP3 A Q 181;7.28781
1BP3 A R 178;1BP3 A I 179;18.5239
1BP3 A R 178;1BP3 A V 180;0.699328
1BP3 A R 178;1BP3 A Q 181;22.7924
1BP3 A R 178;1BP3 A C 182;24.2119
1BP3 A R 178;1BP3 A S 188;5.74675
1BP3 A R 178;1BP3 A C 189;8.70179
1BP3 A R 178;1BP3 B L 335;6.56299
1BP3 A R 178;1BP3 B G 338;12.9839
1BP3 A R 178;1BP3 B W 339;0.824287
1BP3 A R 178;1BP3 B F 340;12.7973
1BP3 A R 178;1BP3 B T 341;24.4711
1BP3 A R 178;1BP3 B Q 363;15.0945
1BP3 A I 179;1BP3 A V 180;18.336
1BP3 A I 179;1BP3 A Q 181;0.771051
1BP3 A I 179;1BP3 A C 182;10.1133
1BP3 A I 179;1BP3 A R 183;23.6316
1BP3 A I 179;1BP3 B T 337;14.2782
1BP3 A I 179;1BP3 B G 338;11.4265
1BP3 A I 179;1BP3 B W 339;16.5541
1BP3 A V 180;1BP3 A Q 181;16.2324
1BP3 A V 180;1BP3 A C 182;1.27397
1BP3 A V 180;1BP3 A R 183;6.3111
1BP3 A V 180;1BP3 A S 184;16.8859
1BP3 A V 180;1BP3 A V 185;0.120671
1BP3 A Q 181;1BP3 A C 182;23.3111
1BP3 A Q 181;1BP3 A R 183;0.403854
1BP3 A Q 181;1BP3 A S 184;1.16981
1BP3 A Q 181;1BP3 A V 185;27.8559
1BP3 A Q 181;1BP3 A S 188;11.3294
1BP3 A Q 181;1BP3 A C 189;0.0217841
1BP3 A C 182;1BP3 A R 183;23.7119
1BP3 A C 182;1BP3 A S 184;2.30519
1BP3 A C 182;1BP3 A V 185;7.9907
1BP3 A C 182;1BP3 A E 186;7.46062
1BP3 A C 182;1BP3 A G 187;0.750293
1BP3 A C 182;1BP3 A S 188;1.37957
1BP3 A C 182;1BP3 A C 189;28.8564
1BP3 A C 182;1BP3 B K 336;10.4092
1BP3 A C 182;1BP3 B T 337;2.61764
1BP3 A C 182;1BP3 B G 338;11.5004
1BP3 A C 182;1BP3 B F 340;0.00375835
1BP3 A R 183;1BP3 A S 184;25.2709
1BP3 A R 183;1BP3 A E 186;4.38325
1BP3 A R 183;1BP3 B K 336;1.40891
1BP3 A R 183;1BP3 B T 337;28.037
1BP3 A S 184;1BP3 A V 185;26.2259
1BP3 A S 184;1BP3 A E 186;22.7039
1BP3 A V 185;1BP3 A E 186;23.0749
1BP3 A V 185;1BP3 A G 187;7.82087
1BP3 A V 185;1BP3 A S 188;14.0472
1BP3 A V 185;1BP3 A C 189;3.90834
1BP3 A E 186;1BP3 A G 187;29.2511
1BP3 A G 187;1BP3 A S 188;24.6577
1BP3 A G 187;1BP3 A C 189;13.2552
1BP3 A G 187;1BP3 A G 190;9.82777
1BP3 A S 188;1BP3 A C 189;23.0111
1BP3 A S 188;1BP3 B Q 363;11.6949
1BP3 A C 189;1BP3 A G 190;30.0269
1BP3 A C 189;1BP3 B L 335;27.094
1BP3 A C 189;1BP3 B K 336;6.43533
1BP3 A C 189;1BP3 B G 338;2.8217
1BP3 A C 189;1BP3 B F 340;0.146738
1BP3 A C 189;1BP3 B Q 363;7.42122
1BP3 A G 190;1BP3 B L 335;9.02117
1BP3 A G 190;1BP3 B K 336;23.4299
1BP3 B L 202;1BP3 B P 203;41.4595
1BP3 B L 202;1BP3 B P 204;11.2071
1BP3 B L 202;1BP3 B G 205;1.12104
1BP3 B P 203;1BP3 B P 204;48.7469
1BP3 B P 204;1BP3 B G 205;44.5694
1BP3 B G 205;1BP3 B K 206;32.3395
1BP3 B G 205;1BP3 B F 289;3.14557
1BP3 B G 205;1BP3 B S 290;10.8189
1BP3 B G 205;1BP3 B D 291;5.30241
1BP3 B K 206;1BP3 B P 207;32.2213
1BP3 B K 206;1BP3 B E 208;3.01354
1BP3 B K 206;1BP3 B R 225;0.0176244
1BP3 B K 206;1BP3 B G 227;14.1191
1BP3 B K 206;1BP3 B T 228;41.4479
1BP3 B K 206;1BP3 B D 229;0.607649
1BP3 B K 206;1BP3 B G 230;5.16458
1BP3 B K 206;1BP3 B A 281;3.05461
1BP3 B K 206;1BP3 B S 287;16.1721
1BP3 B K 206;1BP3 B F 289;39.0425
1BP3 B K 206;1BP3 B S 290;6.17708
1BP3 B K 206;1BP3 B D 291;1.13033
1BP3 B P 207;1BP3 B E 208;22.6064
1BP3 B P 207;1BP3 B I 209;0.2148
1BP3 B P 207;1BP3 B W 224;5.66967
1BP3 B P 207;1BP3 B R 225;6.27857
1BP3 B P 207;1BP3 B P 226;7.37105
1BP3 B P 207;1BP3 B G 227;1.72629
1BP3 B P 207;1BP3 B T 228;2.45939
1BP3 B P 207;1BP3 B Y 236;6.28245
1BP3 B P 207;1BP3 B V 279;17.1111
1BP3 B P 207;1BP3 B A 281;13.3954
1BP3 B P 207;1BP3 B F 289;7.10311
1BP3 B P 207;1BP3 B S 290;11.6229
1BP3 B P 207;1BP3 B D 291;18.4913
1BP3 B E 208;1BP3 B I 209;26.7097
1BP3 B E 208;1BP3 B F 210;23.1816
1BP3 B E 208;1BP3 B W 224;6.48077
1BP3 B E 208;1BP3 B R 225;26.3914
1BP3 B E 208;1BP3 B G 227;2.01817
1BP3 B E 208;1BP3 B V 279;0.283149
1BP3 B E 208;1BP3 B D 291;4.22472
1BP3 B I 209;1BP3 B F 210;19.5963
1BP3 B I 209;1BP3 B K 211;9.62283
1BP3 B I 209;1BP3 B C 212;3.86323
1BP3 B I 209;1BP3 B C 222;8.5086
1BP3 B I 209;1BP3 B W 223;9.21527
1BP3 B I 209;1BP3 B W 224;12.9054
1BP3 B I 209;1BP3 B L 238;7.96367
1BP3 B I 209;1BP3 B M 277;15.6461
1BP3 B I 209;1BP3 B M 278;5.89581
1BP3 B I 209;1BP3 B V 279;15.0326
1BP3 B I 209;1BP3 B D 291;18.0723
1BP3 B I 209;1BP3 B E 292;0.0624221
1BP3 B I 209;1BP3 B L 293;31.1807
1BP3 B F 210;1BP3 B K 211;49.8144
1BP3 B F 210;1BP3 B R 213;0.0736617
1BP3 B F 210;1BP3 B W 223;26.7489
1BP3 B F 210;1BP3 B W 224;9.50891
1BP3 B F 210;1BP3 B R 225;24.4909
1BP3 B K 211;1BP3 B C 212;27.2485
1BP3 B K 211;1BP3 B R 213;38.1359
1BP3 B K 211;1BP3 B C 222;4.37658
1BP3 B K 211;1BP3 B W 223;37.2473
1BP3 B K 211;1BP3 B L 293;4.1503
1BP3 B K 211;1BP3 B Q 302;2.67785
1BP3 B C 212;1BP3 B R 213;29.4506
1BP3 B C 212;1BP3 B F 220;2.24328
1BP3 B C 212;1BP3 B T 221;6.17609
1BP3 B C 212;1BP3 B C 222;17.7041
1BP3 B C 212;1BP3 B W 223;3.15187
1BP3 B C 212;1BP3 B M 277;4.05492
1BP3 B C 212;1BP3 B L 293;8.2572
1BP3 B C 212;1BP3 B V 295;13.7244
1BP3 B C 212;1BP3 B I 300;19.1515
1BP3 B R 213;1BP3 B S 214;17.3464
1BP3 B R 213;1BP3 B P 215;9.29545
1BP3 B R 213;1BP3 B F 220;3.5629
1BP3 B R 213;1BP3 B T 221;15.9597
1BP3 B R 213;1BP3 B W 223;20.6159
1BP3 B R 213;1BP3 B I 300;18.3802
1BP3 B R 213;1BP3 B Q 302;33.6703
1BP3 B R 213;1BP3 B Y 390;34.985
1BP3 B S 214;1BP3 B P 215;19.3211
1BP3 B S 214;1BP3 B N 216;6.82811
1BP3 B S 214;1BP3 B K 217;9.0217
1BP3 B S 214;1BP3 B E 218;2.47645
1BP3 B S 214;1BP3 B T 219;11.403
1BP3 B S 214;1BP3 B F 220;8.88644
1BP3 B S 214;1BP3 B V 297;10.0387
1BP3 B S 214;1BP3 B I 300;14.5833
1BP3 B S 214;1BP3 B V 301;16.4293
1BP3 B S 214;1BP3 B Q 302;8.1003
1BP3 B P 215;1BP3 B N 216;31.023
1BP3 B P 215;1BP3 B T 219;20.3084
1BP3 B P 215;1BP3 B F 220;2.10608
1BP3 B P 215;1BP3 B T 221;1.04919
1BP3 B P 215;1BP3 B V 301;2.77348
1BP3 B P 215;1BP3 B Q 302;13.3028
1BP3 B P 215;1BP3 B P 303;4.59453
1BP3 B P 215;1BP3 B L 332;26.4243
1BP3 B P 215;1BP3 B I 333;5.25004
1BP3 B N 216;1BP3 B K 217;19.7248
1BP3 B N 216;1BP3 B E 218;28.1357
1BP3 B N 216;1BP3 B T 219;11.3673
1BP3 B N 216;1BP3 B V 301;4.02549
1BP3 B N 216;1BP3 B L 332;18.4047
1BP3 B N 216;1BP3 B I 333;11.4968
1BP3 B N 216;1BP3 B W 339;3.2716
1BP3 B N 216;1BP3 B F 340;15.9397
1BP3 B K 217;1BP3 B E 218;25.3344
1BP3 B K 217;1BP3 B T 269;0.503842
1BP3 B K 217;1BP3 B M 271;27.1243
1BP3 B K 217;1BP3 B W 272;1.09061
1BP3 B K 217;1BP3 B V 297;9.90539
1BP3 B K 217;1BP3 B T 298;26.944
1BP3 B K 217;1BP3 B V 301;19.0651
1BP3 B K 217;1BP3 B W 339;42.9426
1BP3 B K 217;1BP3 B F 340;13.9917
1BP3 B E 218;1BP3 B T 219;26.4758
1BP3 B E 218;1BP3 B G 265;2.04347
1BP3 B E 218;1BP3 B K 266;34.9539
1BP3 B E 218;1BP3 B T 269;17.7846
1BP3 B E 218;1BP3 B M 271;4.19637
1BP3 B E 218;1BP3 B V 297;1.169
1BP3 B E 218;1BP3 B W 339;5.61318
1BP3 B E 218;1BP3 B F 340;0.25606
1BP3 B T 219;1BP3 B F 220;24.3362
1BP3 B T 219;1BP3 B T 221;1.75279
1BP3 B T 219;1BP3 B H 263;18.421
1BP3 B T 219;1BP3 B F 264;6.14744
1BP3 B T 219;1BP3 B G 265;6.86963
1BP3 B T 219;1BP3 B K 266;10.5164
1BP3 B T 219;1BP3 B T 269;8.90486
1BP3 B T 219;1BP3 B V 297;0.868922
1BP3 B F 220;1BP3 B T 221;26.1092
1BP3 B F 220;1BP3 B C 222;10.2505
1BP3 B F 220;1BP3 B C 262;0.0589289
1BP3 B F 220;1BP3 B H 263;5.2062
1BP3 B F 220;1BP3 B F 264;41.5866
1BP3 B F 220;1BP3 B Y 268;2.61042
1BP3 B F 220;1BP3 B T 269;14.1864
1BP3 B F 220;1BP3 B Y 275;17.6718
1BP3 B F 220;1BP3 B M 277;5.54927
1BP3 B F 220;1BP3 B V 295;10.3024
1BP3 B F 220;1BP3 B V 297;18.6578
1BP3 B F 220;1BP3 B I 300;13.8536
1BP3 B T 221;1BP3 B C 222;24.1935
1BP3 B T 221;1BP3 B W 223;28.2618
1BP3 B T 221;1BP3 B T 256;2.86813
1BP3 B T 221;1BP3 B G 257;10.348
1BP3 B T 221;1BP3 B S 261;5.09913
1BP3 B T 221;1BP3 B C 262;5.3658
1BP3 B T 221;1BP3 B H 263;19.6413
1BP3 B T 221;1BP3 B F 264;0.959891
1BP3 B T 221;1BP3 B I 300;0.0922995
1BP3 B C 222;1BP3 B W 223;23.6075
1BP3 B C 222;1BP3 B W 224;4.4702
1BP3 B C 222;1BP3 B L 238;2.83768
1BP3 B C 222;1BP3 B S 261;6.77368
1BP3 B C 222;1BP3 B C 262;20.6428
1BP3 B C 222;1BP3 B F 264;7.52964
1BP3 B C 222;1BP3 B M 277;12.3212
1BP3 B C 222;1BP3 B V 295;0.437772
1BP3 B W 223;1BP3 B W 224;19.6439
1BP3 B W 223;1BP3 B G 257;13.7804
1BP3 B W 223;1BP3 B G 258;0.366507
1BP3 B W 223;1BP3 B P 259;5.19236
1BP3 B W 223;1BP3 B N 260;11.5418
1BP3 B W 223;1BP3 B S 261;8.70744
1BP3 B W 224;1BP3 B R 225;26.2577
1BP3 B W 224;1BP3 B P 226;6.43685
1BP3 B W 224;1BP3 B Y 236;27.2617
1BP3 B W 224;1BP3 B S 237;2.06378
1BP3 B W 224;1BP3 B L 238;17.7442
1BP3 B W 224;1BP3 B Y 254;16.8006
1BP3 B W 224;1BP3 B N 260;42.8716
1BP3 B W 224;1BP3 B S 261;12.3458
1BP3 B W 224;1BP3 B C 262;8.68732
1BP3 B W 224;1BP3 B V 279;25.3085
1BP3 B R 225;1BP3 B P 226;37.6495
1BP3 B R 225;1BP3 B G 227;11.5585
1BP3 B R 225;1BP3 B P 259;2.28392
1BP3 B R 225;1BP3 B N 260;17.0795
1BP3 B P 226;1BP3 B G 227;19.2004
1BP3 B P 226;1BP3 B T 228;28.449
1BP3 B P 226;1BP3 B Y 236;25.6511
1BP3 B P 226;1BP3 B N 260;15.706
1BP3 B G 227;1BP3 B T 228;22.2238
1BP3 B G 227;1BP3 B D 229;13.6687
1BP3 B T 228;1BP3 B D 229;29.6309
1BP3 B T 228;1BP3 B G 230;21.6383
1BP3 B T 228;1BP3 B Y 236;6.89238
1BP3 B D 229;1BP3 B G 230;26.5469
1BP3 B G 230;1BP3 B N 235;4.65281
1BP3 B T 234;1BP3 B N 235;38.3143
1BP3 B T 234;1BP3 B Y 236;12.9616
1BP3 B N 235;1BP3 B Y 236;44.5148
1BP3 B N 235;1BP3 B A 281;6.69076
1BP3 B N 235;1BP3 B T 282;21.872
1BP3 B N 235;1BP3 B N 283;29.1008
1BP3 B Y 236;1BP3 B S 237;28.1143
1BP3 B Y 236;1BP3 B Y 254;6.11081
1BP3 B Y 236;1BP3 B N 260;11.1954
1BP3 B Y 236;1BP3 B V 279;8.91076
1BP3 B Y 236;1BP3 B N 280;2.71943
1BP3 B Y 236;1BP3 B A 281;21.4352
1BP3 B Y 236;1BP3 B T 282;2.37104
1BP3 B S 237;1BP3 B L 238;22.5137
1BP3 B S 237;1BP3 B T 239;5.86948
1BP3 B S 237;1BP3 B E 250;18.5655
1BP3 B S 237;1BP3 B Y 254;7.01144
1BP3 B S 237;1BP3 B M 278;0.467186
1BP3 B S 237;1BP3 B V 279;9.91159
1BP3 B S 237;1BP3 B N 280;35.3101
1BP3 B S 237;1BP3 B A 281;0.0214848
1BP3 B L 238;1BP3 B T 239;27.7265
1BP3 B L 238;1BP3 B Y 240;7.03535
1BP3 B L 238;1BP3 B E 250;6.77643
1BP3 B L 238;1BP3 B C 251;18.96
1BP3 B L 238;1BP3 B Y 254;12.0915
1BP3 B L 238;1BP3 B C 262;14.241
1BP3 B L 238;1BP3 B F 264;6.08515
1BP3 B L 238;1BP3 B M 277;14.9972
1BP3 B L 238;1BP3 B M 278;7.83026
1BP3 B L 238;1BP3 B V 279;14.0823
1BP3 B T 239;1BP3 B Y 240;21.1479
1BP3 B T 239;1BP3 B M 248;20.1368
1BP3 B T 239;1BP3 B H 249;11.1961
1BP3 B T 239;1BP3 B E 250;17.5145
1BP3 B T 239;1BP3 B C 251;1.0665
1BP3 B T 239;1BP3 B I 276;0.0876725
1BP3 B T 239;1BP3 B M 277;5.1093
1BP3 B T 239;1BP3 B M 278;28.7999
1BP3 B T 239;1BP3 B N 280;12.965
1BP3 B Y 240;1BP3 B H 241;25.6253
1BP3 B Y 240;1BP3 B R 242;10.9439
1BP3 B Y 240;1BP3 B L 247;0.16651
1BP3 B Y 240;1BP3 B M 248;8.55081
1BP3 B Y 240;1BP3 B H 249;48.0783
1BP3 B Y 240;1BP3 B E 250;10.5514
1BP3 B Y 240;1BP3 B C 251;5.5341
1BP3 B Y 240;1BP3 B P 252;10.2728
1BP3 B Y 240;1BP3 B C 262;0.0245776
1BP3 B Y 240;1BP3 B F 264;18.6049
1BP3 B Y 240;1BP3 B Y 268;18.8925
1BP3 B Y 240;1BP3 B Y 275;19.4171
1BP3 B Y 240;1BP3 B I 276;10.2556
1BP3 B Y 240;1BP3 B M 277;12.3983
1BP3 B H 241;1BP3 B R 242;30.7023
1BP3 B H 241;1BP3 B G 244;5.60326
1BP3 B H 241;1BP3 B E 245;1.57101
1BP3 B H 241;1BP3 B T 246;11.1463
1BP3 B H 241;1BP3 B L 247;11.4571
1BP3 B H 241;1BP3 B M 248;28.8494
1BP3 B H 241;1BP3 B H 249;3.90851
1BP3 B H 241;1BP3 B T 274;0.582855
1BP3 B H 241;1BP3 B Y 275;2.77031
1BP3 B H 241;1BP3 B I 276;48.3695
1BP3 B H 241;1BP3 B E 292;7.71431
1BP3 B R 242;1BP3 B E 243;21.0306
1BP3 B R 242;1BP3 B G 244;8.55279
1BP3 B R 242;1BP3 B E 245;20.9719
1BP3 B R 242;1BP3 B T 246;0.0423321
1BP3 B R 242;1BP3 B L 247;0.880297
1BP3 B R 242;1BP3 B H 249;20.0649
1BP3 B R 242;1BP3 B Q 267;6.29616
1BP3 B R 242;1BP3 B Y 268;5.92571
1BP3 B R 242;1BP3 B T 269;0.158279
1BP3 B R 242;1BP3 B S 270;20.6455
1BP3 B R 242;1BP3 B R 273;28.3626
1BP3 B R 242;1BP3 B T 274;6.01038
1BP3 B R 242;1BP3 B Y 275;24.2258
1BP3 B R 242;1BP3 B I 276;3.61062
1BP3 B E 243;1BP3 B G 244;18.9362
1BP3 B E 243;1BP3 B E 245;11.6563
1BP3 B E 243;1BP3 B R 273;31.2006
1BP3 B E 243;1BP3 B T 274;23.2895
1BP3 B E 243;1BP3 B I 276;3.85413
1BP3 B G 244;1BP3 B E 245;19.0445
1BP3 B G 244;1BP3 B T 246;11.2583
1BP3 B E 245;1BP3 B T 246;20.2453
1BP3 B E 245;1BP3 B L 247;24.3734
1BP3 B E 245;1BP3 B H 249;0.541608
1BP3 B E 245;1BP3 B R 273;4.48033
1BP3 B T 246;1BP3 B L 247;34.5074
1BP3 B T 246;1BP3 B M 248;9.11822
1BP3 B L 247;1BP3 B M 248;29.4555
1BP3 B L 247;1BP3 B H 249;22.2155
1BP3 B M 248;1BP3 B H 249;33.4269
1BP3 B M 248;1BP3 B M 278;13.4609
1BP3 B M 248;1BP3 B E 292;1.28543
1BP3 B H 249;1BP3 B E 250;26.1435
1BP3 B E 250;1BP3 B C 251;29.7409
1BP3 B E 250;1BP3 B P 252;6.39514
1BP3 B E 250;1BP3 B Y 254;17.6838
1BP3 B C 251;1BP3 B P 252;26.9634
1BP3 B C 251;1BP3 B D 253;10.1416
1BP3 B C 251;1BP3 B Y 254;27.011
1BP3 B C 251;1BP3 B C 262;18.2001
1BP3 B C 251;1BP3 B F 264;2.52302e-07
1BP3 B P 252;1BP3 B D 253;29.3175
1BP3 B P 252;1BP3 B Y 254;0.0360651
1BP3 B P 252;1BP3 B C 262;7.26238
1BP3 B P 252;1BP3 B H 263;6.77957
1BP3 B P 252;1BP3 B F 264;15.1211
1BP3 B P 252;1BP3 B G 265;0.176118
1BP3 B P 252;1BP3 B Y 268;33.4428
1BP3 B D 253;1BP3 B Y 254;26.7381
1BP3 B D 253;1BP3 B I 255;18.8232
1BP3 B D 253;1BP3 B T 256;21.4834
1BP3 B D 253;1BP3 B S 261;0.108329
1BP3 B D 253;1BP3 B C 262;3.72283
1BP3 B D 253;1BP3 B H 263;33.6874
1BP3 B D 253;1BP3 B G 265;0.481052
1BP3 B Y 254;1BP3 B I 255;35.8518
1BP3 B Y 254;1BP3 B G 258;4.20446
1BP3 B Y 254;1BP3 B P 259;0.370905
1BP3 B Y 254;1BP3 B S 261;21.6774
1BP3 B Y 254;1BP3 B C 262;2.83563
1BP3 B I 255;1BP3 B T 256;29.9356
1BP3 B I 255;1BP3 B G 257;7.3993
1BP3 B I 255;1BP3 B G 258;9.19623
1BP3 B I 255;1BP3 B S 261;1.42504
1BP3 B I 255;1BP3 B H 263;0.033785
1BP3 B T 256;1BP3 B G 257;24.0317
1BP3 B T 256;1BP3 B S 261;0.55469
1BP3 B T 256;1BP3 B H 263;28.4593
1BP3 B G 257;1BP3 B G 258;28.5465
1BP3 B G 257;1BP3 B S 261;16.14
1BP3 B G 257;1BP3 B H 263;1.64252
1BP3 B G 258;1BP3 B P 259;37.6244
1BP3 B G 258;1BP3 B N 260;1.36605
1BP3 B G 258;1BP3 B S 261;13.8447
1BP3 B P 259;1BP3 B N 260;37.7773
1BP3 B P 259;1BP3 B S 261;0.731932
1BP3 B N 260;1BP3 B S 261;21.5287
1BP3 B S 261;1BP3 B C 262;20.0984
1BP3 B S 261;1BP3 B H 263;3.39712
1BP3 B C 262;1BP3 B H 263;21.531
1BP3 B C 262;1BP3 B F 264;19.8631
1BP3 B H 263;1BP3 B F 264;23.7704
1BP3 B H 263;1BP3 B G 265;19.053
1BP3 B F 264;1BP3 B G 265;19.731
1BP3 B F 264;1BP3 B Y 268;17.8765
1BP3 B F 264;1BP3 B T 269;6.65415
1BP3 B F 264;1BP3 B Y 275;9.64985
1BP3 B F 264;1BP3 B M 277;11.7123
1BP3 B G 265;1BP3 B K 266;26.0675
1BP3 B G 265;1BP3 B Q 267;0.105515
1BP3 B G 265;1BP3 B Y 268;18.9692
1BP3 B G 265;1BP3 B T 269;10.1921
1BP3 B K 266;1BP3 B Q 267;29.672
1BP3 B K 266;1BP3 B Y 268;3.34262
1BP3 B K 266;1BP3 B T 269;18.0305
1BP3 B Q 267;1BP3 B Y 268;39.7921
1BP3 B Q 267;1BP3 B T 269;5.73388
1BP3 B Q 267;1BP3 B S 270;1.10221
1BP3 B Y 268;1BP3 B T 269;19.4141
1BP3 B Y 268;1BP3 B S 270;0.494086
1BP3 B Y 268;1BP3 B Y 275;13.7166
1BP3 B T 269;1BP3 B S 270;30.9764
1BP3 B T 269;1BP3 B M 271;8.83431
1BP3 B T 269;1BP3 B Y 275;0.78659
1BP3 B T 269;1BP3 B V 297;13.1495
1BP3 B S 270;1BP3 B M 271;24.0482
1BP3 B S 270;1BP3 B W 272;2.27036
1BP3 B S 270;1BP3 B R 273;22.7977
1BP3 B S 270;1BP3 B Y 275;16.0682
1BP3 B S 270;1BP3 B V 297;10.8019
1BP3 B M 271;1BP3 B W 272;52.5139
1BP3 B M 271;1BP3 B R 273;10.3458
1BP3 B M 271;1BP3 B V 297;12.2342
1BP3 B M 271;1BP3 B T 298;9.4066
1BP3 B M 271;1BP3 B W 339;17.3988
1BP3 B W 272;1BP3 B R 273;34.2163
1BP3 B W 272;1BP3 B D 296;2.15289
1BP3 B W 272;1BP3 B V 297;3.47194
1BP3 B W 272;1BP3 B T 298;16.3323
1BP3 B W 272;1BP3 B W 339;6.53837
1BP3 B R 273;1BP3 B T 274;22.1145
1BP3 B R 273;1BP3 B Y 275;14.1667
1BP3 B R 273;1BP3 B V 295;2.52205
1BP3 B R 273;1BP3 B D 296;13.9045
1BP3 B R 273;1BP3 B V 297;4.99944
1BP3 B T 274;1BP3 B Y 275;25.4072
1BP3 B T 274;1BP3 B I 276;12.2781
1BP3 B T 274;1BP3 B Y 294;11.1955
1BP3 B T 274;1BP3 B V 295;6.89261
1BP3 B T 274;1BP3 B D 296;18.9394
1BP3 B Y 275;1BP3 B I 276;21.5846
1BP3 B Y 275;1BP3 B M 277;11.4089
1BP3 B Y 275;1BP3 B L 293;2.68676
1BP3 B Y 275;1BP3 B Y 294;4.5877
1BP3 B Y 275;1BP3 B V 295;28.3616
1BP3 B Y 275;1BP3 B V 297;8.12181
1BP3 B I 276;1BP3 B M 277;22.2203
1BP3 B I 276;1BP3 B M 278;0.418239
1BP3 B I 276;1BP3 B E 292;17.5017
1BP3 B I 276;1BP3 B L 293;5.05443
1BP3 B I 276;1BP3 B Y 294;23.41
1BP3 B M 277;1BP3 B M 278;22.378
1BP3 B M 277;1BP3 B E 292;6.71164
1BP3 B M 277;1BP3 B L 293;29.5458
1BP3 B M 277;1BP3 B V 295;15.1175
1BP3 B M 278;1BP3 B V 279;21.1495
1BP3 B M 278;1BP3 B N 280;17.122
1BP3 B M 278;1BP3 B S 290;20.1104
1BP3 B M 278;1BP3 B D 291;17.4152
1BP3 B M 278;1BP3 B E 292;20.9697
1BP3 B V 279;1BP3 B N 280;17.7291
1BP3 B V 279;1BP3 B A 281;7.73737
1BP3 B V 279;1BP3 B F 289;0.833867
1BP3 B V 279;1BP3 B S 290;9.14491
1BP3 B V 279;1BP3 B D 291;12.8808
1BP3 B N 280;1BP3 B A 281;17.688
1BP3 B N 280;1BP3 B T 282;20.6021
1BP3 B N 280;1BP3 B S 288;0.511301
1BP3 B N 280;1BP3 B F 289;5.8504
1BP3 B N 280;1BP3 B S 290;9.48646
1BP3 B A 281;1BP3 B T 282;22.0837
1BP3 B A 281;1BP3 B S 287;5.10224
1BP3 B A 281;1BP3 B S 288;1.49195
1BP3 B A 281;1BP3 B F 289;21.7774
1BP3 B T 282;1BP3 B N 283;26.1008
1BP3 B T 282;1BP3 B S 287;5.15698
1BP3 B T 282;1BP3 B S 288;25.3124
1BP3 B T 282;1BP3 B F 289;3.58704
1BP3 B N 283;1BP3 B S 287;36.0716
1BP3 B N 283;1BP3 B S 288;0.0559494
1BP3 B S 287;1BP3 B S 288;23.3801
1BP3 B S 287;1BP3 B F 289;23.768
1BP3 B S 288;1BP3 B F 289;36.5029
1BP3 B F 289;1BP3 B S 290;31.4101
1BP3 B S 290;1BP3 B D 291;26.7131
1BP3 B D 291;1BP3 B E 292;34.6557
1BP3 B D 291;1BP3 B L 293;2.67648
1BP3 B E 292;1BP3 B L 293;28.7773
1BP3 B E 292;1BP3 B Y 294;23.1206
1BP3 B L 293;1BP3 B Y 294;37.5277
1BP3 B L 293;1BP3 B V 295;11.4794
1BP3 B Y 294;1BP3 B V 295;22.3196
1BP3 B Y 294;1BP3 B D 296;5.81318
1BP3 B V 295;1BP3 B D 296;24.1755
1BP3 B V 295;1BP3 B V 297;9.27777
1BP3 B V 295;1BP3 B I 300;17.1831
1BP3 B D 296;1BP3 B V 297;19.1269
1BP3 B D 296;1BP3 B T 298;4.41143
1BP3 B D 296;1BP3 B Y 299;24.867
1BP3 B D 296;1BP3 B I 300;12.1969
1BP3 B V 297;1BP3 B T 298;22.381
1BP3 B V 297;1BP3 B Y 299;2.15283
1BP3 B V 297;1BP3 B I 300;21.2564
1BP3 B V 297;1BP3 B V 301;6.94312
1BP3 B T 298;1BP3 B Y 299;34.0793
1BP3 B T 298;1BP3 B I 300;1.2333
1BP3 B T 298;1BP3 B V 301;9.8486
1BP3 B T 298;1BP3 B H 388;12.9999
1BP3 B T 298;1BP3 B G 389;1.82974
1BP3 B Y 299;1BP3 B I 300;23.5966
1BP3 B Y 299;1BP3 B V 301;1.85842
1BP3 B Y 299;1BP3 B H 388;25.6855
1BP3 B Y 299;1BP3 B G 389;5.46466
1BP3 B Y 299;1BP3 B Y 390;15.6955
1BP3 B I 300;1BP3 B V 301;19.1424
1BP3 B I 300;1BP3 B Q 302;1.96169
1BP3 B I 300;1BP3 B Y 390;12.0153
1BP3 B V 301;1BP3 B Q 302;18.4391
1BP3 B V 301;1BP3 B P 303;7.25732
1BP3 B V 301;1BP3 B I 333;1.42534
1BP3 B V 301;1BP3 B F 340;12.9607
1BP3 B V 301;1BP3 B P 386;16.013
1BP3 B V 301;1BP3 B G 389;10.5773
1BP3 B V 301;1BP3 B Y 390;14.1745
1BP3 B Q 302;1BP3 B P 303;35.8396
1BP3 B Q 302;1BP3 B L 332;0.508327
1BP3 B Q 302;1BP3 B Y 390;21.448
1BP3 B Q 302;1BP3 B W 391;13.8593
1BP3 B Q 302;1BP3 B S 392;3.64622
1BP3 B P 303;1BP3 B D 304;26.5367
1BP3 B P 303;1BP3 B P 305;0.287341
1BP3 B P 303;1BP3 B P 330;5.8014
1BP3 B P 303;1BP3 B L 332;9.92062
1BP3 B P 303;1BP3 B I 333;10.5533
1BP3 B P 303;1BP3 B F 340;0.747446
1BP3 B P 303;1BP3 B L 342;7.80651
1BP3 B P 303;1BP3 B C 384;10.6628
1BP3 B P 303;1BP3 B K 385;1.57392
1BP3 B P 303;1BP3 B P 386;16.3538
1BP3 B P 303;1BP3 B Y 390;6.43385
1BP3 B P 303;1BP3 B W 391;0.3574
1BP3 B P 303;1BP3 B S 392;15.2271
1BP3 B P 303;1BP3 B A 393;1.80174
1BP3 B D 304;1BP3 B P 305;36.6527
1BP3 B D 304;1BP3 B P 306;0.172712
1BP3 B D 304;1BP3 B P 330;19.8206
1BP3 B D 304;1BP3 B T 331;9.10264
1BP3 B D 304;1BP3 B L 332;26.2532
1BP3 B D 304;1BP3 B C 384;6.46495
1BP3 B D 304;1BP3 B S 392;4.45444
1BP3 B P 305;1BP3 B P 306;31.4687
1BP3 B P 305;1BP3 B L 307;6.87809
1BP3 B P 305;1BP3 B P 330;10.1704
1BP3 B P 305;1BP3 B C 384;0.646384
1BP3 B P 305;1BP3 B S 392;5.70593
1BP3 B P 305;1BP3 B A 393;25.7841
1BP3 B P 305;1BP3 B W 394;3.88021
1BP3 B P 305;1BP3 B S 395;13.0138
1BP3 B P 305;1BP3 B P 396;3.3417
1BP3 B P 306;1BP3 B L 307;27.2752
1BP3 B P 306;1BP3 B E 308;0.0588732
1BP3 B P 306;1BP3 B W 327;6.88628
1BP3 B P 306;1BP3 B S 328;9.6285
1BP3 B P 306;1BP3 B P 329;3.05386
1BP3 B P 306;1BP3 B P 330;7.72546
1BP3 B P 306;1BP3 B Y 344;10.4242
1BP3 B P 306;1BP3 B V 382;19.1539
1BP3 B P 306;1BP3 B R 383;9.30618
1BP3 B P 306;1BP3 B C 384;11.3408
1BP3 B P 306;1BP3 B S 392;1.47377
1BP3 B P 306;1BP3 B A 393;1.11472
1BP3 B P 306;1BP3 B S 395;15.6672
1BP3 B P 306;1BP3 B P 396;3.87978
1BP3 B L 307;1BP3 B E 308;41.3751
1BP3 B L 307;1BP3 B L 309;2.10013
1BP3 B L 307;1BP3 B W 327;7.14395
1BP3 B L 307;1BP3 B S 328;26.8492
1BP3 B L 307;1BP3 B P 329;7.68755
1BP3 B L 307;1BP3 B P 330;5.93021
1BP3 B L 307;1BP3 B T 331;11.0088
1BP3 B L 307;1BP3 B V 382;0.417992
1BP3 B E 308;1BP3 B L 309;26.2001
1BP3 B E 308;1BP3 B A 310;14.3657
1BP3 B E 308;1BP3 B K 326;1.964
1BP3 B E 308;1BP3 B W 327;6.99401
1BP3 B E 308;1BP3 B S 328;5.51259
1BP3 B L 309;1BP3 B A 310;19.8916
1BP3 B L 309;1BP3 B V 311;9.28413
1BP3 B L 309;1BP3 B I 325;13.8581
1BP3 B L 309;1BP3 B K 326;5.05908
1BP3 B L 309;1BP3 B W 327;12.8882
1BP3 B L 309;1BP3 B I 346;2.12566
1BP3 B L 309;1BP3 B V 380;18.8184
1BP3 B L 309;1BP3 B Q 381;6.57645
1BP3 B L 309;1BP3 B V 382;21.1504
1BP3 B L 309;1BP3 B S 395;7.95154
1BP3 B L 309;1BP3 B P 396;4.77652
1BP3 B L 309;1BP3 B T 398;26.6785
1BP3 B A 310;1BP3 B V 311;22.9843
1BP3 B A 310;1BP3 B W 324;1.04463
1BP3 B A 310;1BP3 B I 325;7.28494
1BP3 B A 310;1BP3 B K 326;39.5076
1BP3 B V 311;1BP3 B E 312;25.5698
1BP3 B V 311;1BP3 B L 323;12.2477
1BP3 B V 311;1BP3 B W 324;3.65422
1BP3 B V 311;1BP3 B I 325;14.9666
1BP3 B V 311;1BP3 B K 326;6.58207
1BP3 B V 311;1BP3 B V 380;14.0866
1BP3 B V 311;1BP3 B T 398;19.5102
1BP3 B V 311;1BP3 B F 399;0.120877
1BP3 B V 311;1BP3 B I 400;23.8181
1BP3 B E 312;1BP3 B V 313;28.7443
1BP3 B E 312;1BP3 B K 314;24.75
1BP3 B E 312;1BP3 B Y 322;0.289573
1BP3 B E 312;1BP3 B L 323;8.10774
1BP3 B E 312;1BP3 B W 324;34.668
1BP3 B E 312;1BP3 B K 326;13.7002
1BP3 B E 312;1BP3 B I 400;5.01184
1BP3 B V 313;1BP3 B K 314;29.3144
1BP3 B V 313;1BP3 B P 321;7.37359
1BP3 B V 313;1BP3 B Y 322;8.33055
1BP3 B V 313;1BP3 B L 323;14.8042
1BP3 B V 313;1BP3 B L 372;0.34768
1BP3 B V 313;1BP3 B I 400;15.1684
1BP3 B V 313;1BP3 B Q 401;8.56639
1BP3 B V 313;1BP3 B I 402;11.4761
1BP3 B V 313;1BP3 B P 403;25.2526
1BP3 B K 314;1BP3 B Q 315;35.9982
1BP3 B K 314;1BP3 B P 316;6.84319
1BP3 B K 314;1BP3 B P 321;6.74011
1BP3 B K 314;1BP3 B Y 322;42.4707
1BP3 B K 314;1BP3 B L 323;0.00493764
1BP3 B K 314;1BP3 B W 324;24.1233
1BP3 B K 314;1BP3 B P 403;0.829215
1BP3 B Q 315;1BP3 B P 316;37.8833
1BP3 B Q 315;1BP3 B E 317;6.71261
1BP3 B Q 315;1BP3 B D 318;0.114556
1BP3 B Q 315;1BP3 B R 319;9.45594
1BP3 B Q 315;1BP3 B K 320;2.371
1BP3 B Q 315;1BP3 B P 321;16.7099
1BP3 B Q 315;1BP3 B P 403;8.32505
1BP3 B P 316;1BP3 B E 317;29.0313
1BP3 B P 316;1BP3 B D 318;4.93244
1BP3 B P 316;1BP3 B R 319;36.2588
1BP3 B P 316;1BP3 B K 320;11.335
1BP3 B P 316;1BP3 B P 321;1.43447
1BP3 B P 316;1BP3 B Y 322;17.4001
1BP3 B E 317;1BP3 B D 318;53.9727
1BP3 B D 318;1BP3 B R 319;37.1027
1BP3 B R 319;1BP3 B K 320;40.7922
1BP3 B R 319;1BP3 B Y 322;11.706
1BP3 B R 319;1BP3 B L 370;15.3505
1BP3 B K 320;1BP3 B P 321;38.3335
1BP3 B K 320;1BP3 B Y 322;6.02597
1BP3 B K 320;1BP3 B S 371;27.6993
1BP3 B K 320;1BP3 B L 372;9.49117
1BP3 B K 320;1BP3 B H 373;9.49273
1BP3 B K 320;1BP3 B P 374;5.3041
1BP3 B P 321;1BP3 B Y 322;20.5419
1BP3 B P 321;1BP3 B S 371;1.84611
1BP3 B P 321;1BP3 B L 372;22.1153
1BP3 B P 321;1BP3 B P 374;15.5922
1BP3 B P 321;1BP3 B I 402;9.23309
1BP3 B P 321;1BP3 B P 403;9.43469
1BP3 B P 321;1BP3 B S 404;0.541907
1BP3 B Y 322;1BP3 B L 323;29.2972
1BP3 B Y 322;1BP3 B W 324;7.054
1BP3 B Y 322;1BP3 B K 368;26.1475
1BP3 B Y 322;1BP3 B I 369;6.37391
1BP3 B Y 322;1BP3 B L 370;27.528
1BP3 B Y 322;1BP3 B S 371;0.722901
1BP3 B Y 322;1BP3 B L 372;6.2024
1BP3 B L 323;1BP3 B W 324;24.1868
1BP3 B L 323;1BP3 B I 325;12.9901
1BP3 B L 323;1BP3 B L 348;12.8668
1BP3 B L 323;1BP3 B F 367;8.92528e-05
1BP3 B L 323;1BP3 B K 368;7.19681
1BP3 B L 323;1BP3 B I 369;16.9944
1BP3 B L 323;1BP3 B L 372;21.9039
1BP3 B L 323;1BP3 B Y 378;8.2501
1BP3 B L 323;1BP3 B V 380;4.27869
1BP3 B L 323;1BP3 B I 400;18.6014
1BP3 B L 323;1BP3 B I 402;5.4547
1BP3 B W 324;1BP3 B I 325;29.1439
1BP3 B W 324;1BP3 B K 326;32.4334
1BP3 B W 324;1BP3 B E 366;22.5465
1BP3 B W 324;1BP3 B F 367;9.3372
1BP3 B W 324;1BP3 B K 368;23.8948
1BP3 B I 325;1BP3 B K 326;24.1617
1BP3 B I 325;1BP3 B W 327;11.3961
1BP3 B I 325;1BP3 B I 346;9.75112
1BP3 B I 325;1BP3 B L 348;2.15621
1BP3 B I 325;1BP3 B E 366;5.8535
1BP3 B I 325;1BP3 B F 367;24.7332
1BP3 B I 325;1BP3 B K 368;0.457616
1BP3 B I 325;1BP3 B I 369;12.9628
1BP3 B I 325;1BP3 B V 380;15.2474
1BP3 B K 326;1BP3 B W 327;28.6844
1BP3 B K 326;1BP3 B T 365;4.64008
1BP3 B K 326;1BP3 B E 366;10.8925
1BP3 B W 327;1BP3 B S 328;35.5809
1BP3 B W 327;1BP3 B P 329;0.00720482
1BP3 B W 327;1BP3 B Y 344;22.0446
1BP3 B W 327;1BP3 B I 346;16.9284
1BP3 B W 327;1BP3 B A 361;10.4903
1BP3 B W 327;1BP3 B Q 364;5.64893
1BP3 B W 327;1BP3 B T 365;36.6456
1BP3 B W 327;1BP3 B E 366;8.28005
1BP3 B W 327;1BP3 B F 367;9.33332
1BP3 B W 327;1BP3 B V 382;19.9617
1BP3 B S 328;1BP3 B P 329;35.0017
1BP3 B S 328;1BP3 B Y 344;1.1768
1BP3 B S 328;1BP3 B T 365;4.00246
1BP3 B P 329;1BP3 B P 330;33.042
1BP3 B P 329;1BP3 B T 331;2.84138
1BP3 B P 329;1BP3 B I 333;5.46333
1BP3 B P 329;1BP3 B L 335;7.22632
1BP3 B P 329;1BP3 B L 342;9.26507
1BP3 B P 329;1BP3 B Y 344;15.437
1BP3 B P 329;1BP3 B T 365;11.7089
1BP3 B P 330;1BP3 B T 331;28.7297
1BP3 B P 330;1BP3 B L 332;9.169
1BP3 B P 330;1BP3 B I 333;18.2432
1BP3 B P 330;1BP3 B L 342;8.7555
1BP3 B P 330;1BP3 B Y 344;1.90832
1BP3 B P 330;1BP3 B C 384;10.8044
1BP3 B T 331;1BP3 B L 332;34.8414
1BP3 B T 331;1BP3 B I 333;12.0413
1BP3 B T 331;1BP3 B D 334;3.21657
1BP3 B L 332;1BP3 B I 333;31.5463
1BP3 B L 332;1BP3 B D 334;5.77618
1BP3 B I 333;1BP3 B D 334;29.6198
1BP3 B I 333;1BP3 B L 335;15.6616
1BP3 B I 333;1BP3 B F 340;32.2543
1BP3 B I 333;1BP3 B L 342;15.6907
1BP3 B D 334;1BP3 B L 335;23.3221
1BP3 B D 334;1BP3 B K 336;30.8339
1BP3 B D 334;1BP3 B T 337;10.2216
1BP3 B D 334;1BP3 B G 338;2.09261
1BP3 B D 334;1BP3 B W 339;7.83233
1BP3 B D 334;1BP3 B F 340;4.95905
1BP3 B L 335;1BP3 B K 336;23.6369
1BP3 B L 335;1BP3 B T 337;2.43739
1BP3 B L 335;1BP3 B G 338;14.0747
1BP3 B L 335;1BP3 B W 339;0.0632224
1BP3 B L 335;1BP3 B F 340;19.7971
1BP3 B L 335;1BP3 B T 341;3.86549
1BP3 B L 335;1BP3 B L 342;22.3924
1BP3 B L 335;1BP3 B Q 363;5.29062
1BP3 B K 336;1BP3 B T 337;38.0259
1BP3 B K 336;1BP3 B G 338;1.21215
1BP3 B T 337;1BP3 B G 338;17.3162
1BP3 B T 337;1BP3 B W 339;9.40954
1BP3 B G 338;1BP3 B W 339;21.9778
1BP3 B G 338;1BP3 B F 340;12.9377
1BP3 B W 339;1BP3 B F 340;41.2066
1BP3 B F 340;1BP3 B T 341;27.1331
1BP3 B F 340;1BP3 B L 342;8.96036
1BP3 B F 340;1BP3 B P 386;16.6297
1BP3 B F 340;1BP3 B D 387;0.0397758
1BP3 B T 341;1BP3 B L 342;27.0147
1BP3 B T 341;1BP3 B L 343;16.0625
1BP3 B T 341;1BP3 B Q 363;18.6677
1BP3 B T 341;1BP3 B K 385;0.418812
1BP3 B T 341;1BP3 B P 386;5.95631
1BP3 B T 341;1BP3 B D 387;23.8889
1BP3 B L 342;1BP3 B L 343;24.6444
1BP3 B L 342;1BP3 B Y 344;22.4569
1BP3 B L 342;1BP3 B G 362;0.188524
1BP3 B L 342;1BP3 B Q 363;13.391
1BP3 B L 342;1BP3 B C 384;11.8623
1BP3 B L 342;1BP3 B K 385;7.0902
1BP3 B L 342;1BP3 B P 386;11.0854
1BP3 B L 343;1BP3 B Y 344;22.3971
1BP3 B L 343;1BP3 B F 360;24.6127
1BP3 B L 343;1BP3 B G 362;9.10361
1BP3 B L 343;1BP3 B Q 363;5.66339
1BP3 B L 343;1BP3 B C 384;5.64921
1BP3 B L 343;1BP3 B K 385;33.7672
1BP3 B L 343;1BP3 B D 387;20.2419
1BP3 B L 343;1BP3 B W 391;11.2394
1BP3 B Y 344;1BP3 B E 345;20.3197
1BP3 B Y 344;1BP3 B I 346;0.288369
1BP3 B Y 344;1BP3 B F 360;9.91663
1BP3 B Y 344;1BP3 B A 361;12.5194
1BP3 B Y 344;1BP3 B G 362;18.6856
1BP3 B Y 344;1BP3 B Q 363;7.46691
1BP3 B Y 344;1BP3 B Q 364;4.15566
1BP3 B Y 344;1BP3 B T 365;14.9396
1BP3 B Y 344;1BP3 B V 382;6.84148
1BP3 B Y 344;1BP3 B R 383;9.4316
1BP3 B Y 344;1BP3 B C 384;14.8259
1BP3 B Y 344;1BP3 B W 391;4.28631
1BP3 B E 345;1BP3 B I 346;22.1294
1BP3 B E 345;1BP3 B I 358;22.5758
1BP3 B E 345;1BP3 B H 359;7.68599
1BP3 B E 345;1BP3 B F 360;16.7587
1BP3 B E 345;1BP3 B A 361;3.83386
1BP3 B E 345;1BP3 B V 382;6.39228
1BP3 B E 345;1BP3 B R 383;35.3673
1BP3 B E 345;1BP3 B W 391;22.9408
1BP3 B E 345;1BP3 B W 394;9.80269
1BP3 B I 346;1BP3 B R 347;21.5905
1BP3 B I 346;1BP3 B L 348;7.22776
1BP3 B I 346;1BP3 B E 357;0.953408
1BP3 B I 346;1BP3 B I 358;7.89197
1BP3 B I 346;1BP3 B H 359;25.9952
1BP3 B I 346;1BP3 B A 361;7.60864
1BP3 B I 346;1BP3 B F 367;10.5294
1BP3 B I 346;1BP3 B I 369;8.58076
1BP3 B I 346;1BP3 B V 380;11.7259
1BP3 B I 346;1BP3 B Q 381;7.4226
1BP3 B I 346;1BP3 B V 382;14.6578
1BP3 B I 346;1BP3 B W 394;4.61052
1BP3 B R 347;1BP3 B L 348;16.9649
1BP3 B R 347;1BP3 B W 356;49.9108
1BP3 B R 347;1BP3 B E 357;6.63802
1BP3 B R 347;1BP3 B I 358;17.3279
1BP3 B R 347;1BP3 B L 379;0.0131248
1BP3 B R 347;1BP3 B V 380;7.13809
1BP3 B R 347;1BP3 B Q 381;33.1025
1BP3 B R 347;1BP3 B W 394;43.2568
1BP3 B L 348;1BP3 B K 349;19.5418
1BP3 B L 348;1BP3 B P 350;0.941016
1BP3 B L 348;1BP3 B W 356;9.90406
1BP3 B L 348;1BP3 B E 357;34.5139
1BP3 B L 348;1BP3 B H 359;11.1408
1BP3 B L 348;1BP3 B I 369;27.5699
1BP3 B L 348;1BP3 B L 372;5.48082
1BP3 B L 348;1BP3 B Y 378;19.6503
1BP3 B L 348;1BP3 B L 379;7.45631
1BP3 B L 348;1BP3 B V 380;14.3177
1BP3 B K 349;1BP3 B P 350;28.8637
1BP3 B K 349;1BP3 B E 351;10.394
1BP3 B K 349;1BP3 B K 352;0.275802
1BP3 B K 349;1BP3 B A 353;23.5561
1BP3 B K 349;1BP3 B A 354;13.7514
1BP3 B K 349;1BP3 B E 355;7.123
1BP3 B K 349;1BP3 B W 356;35.7096
1BP3 B K 349;1BP3 B E 357;1.30732
1BP3 B K 349;1BP3 B Y 378;7.19708
1BP3 B K 349;1BP3 B L 379;32.914
1BP3 B P 350;1BP3 B E 351;17.645
1BP3 B P 350;1BP3 B K 352;7.32036
1BP3 B P 350;1BP3 B A 353;25.6291
1BP3 B P 350;1BP3 B E 355;0.0675311
1BP3 B P 350;1BP3 B E 357;8.89959
1BP3 B P 350;1BP3 B H 373;5.18387
1BP3 B P 350;1BP3 B Q 376;14.0746
1BP3 B P 350;1BP3 B K 377;4.03323
1BP3 B P 350;1BP3 B Y 378;29.8838
1BP3 B P 350;1BP3 B L 379;0.0190304
1BP3 B E 351;1BP3 B K 352;28.9751
1BP3 B E 351;1BP3 B A 353;2.49783
1BP3 B E 351;1BP3 B Q 376;10.1213
1BP3 B E 351;1BP3 B K 377;24.4374
1BP3 B E 351;1BP3 B Y 378;2.74533
1BP3 B E 351;1BP3 B L 379;24.5516
1BP3 B E 351;1BP3 B F 399;14.5627
1BP3 B K 352;1BP3 B A 353;38.0376
1BP3 B K 352;1BP3 B Q 376;24.8543
1BP3 B A 353;1BP3 B A 354;30.6304
1BP3 B A 353;1BP3 B E 355;6.26066
1BP3 B A 354;1BP3 B E 355;40.2188
1BP3 B A 354;1BP3 B W 356;4.2564
1BP3 B E 355;1BP3 B W 356;37.5871
1BP3 B E 355;1BP3 B E 357;3.66801
1BP3 B W 356;1BP3 B E 357;29.4042
1BP3 B W 356;1BP3 B I 358;12.5389
1BP3 B W 356;1BP3 B L 379;21.2871
1BP3 B W 356;1BP3 B V 380;3.73406
1BP3 B W 356;1BP3 B Q 381;18.3904
1BP3 B W 356;1BP3 B A 397;4.45626
1BP3 B E 357;1BP3 B I 358;24.8142
1BP3 B E 357;1BP3 B H 359;19.8473
1BP3 B E 357;1BP3 B Y 378;0.319813
1BP3 B I 358;1BP3 B H 359;32.655
1BP3 B I 358;1BP3 B F 360;1.98846
1BP3 B I 358;1BP3 B R 383;1.56179
1BP3 B I 358;1BP3 B W 394;13.8551
1BP3 B H 359;1BP3 B F 360;25.3656
1BP3 B H 359;1BP3 B A 361;4.54787
1BP3 B H 359;1BP3 B F 367;21.3208
1BP3 B H 359;1BP3 B I 369;16.8702
1BP3 B F 360;1BP3 B A 361;19.9646
1BP3 B F 360;1BP3 B G 362;23.622
1BP3 B F 360;1BP3 B F 367;7.99129
1BP3 B F 360;1BP3 B W 391;12.0082
1BP3 B A 361;1BP3 B G 362;22.7905
1BP3 B A 361;1BP3 B Q 363;0.52135
1BP3 B A 361;1BP3 B Q 364;21.7299
1BP3 B A 361;1BP3 B E 366;1.84196
1BP3 B A 361;1BP3 B F 367;18.9566
1BP3 B G 362;1BP3 B Q 363;23.9094
1BP3 B G 362;1BP3 B Q 364;5.54231
1BP3 B Q 363;1BP3 B Q 364;27.5034
1BP3 B Q 363;1BP3 B T 365;7.00563
1BP3 B Q 364;1BP3 B T 365;28.522
1BP3 B Q 364;1BP3 B E 366;40.76
1BP3 B Q 364;1BP3 B F 367;0.124319
1BP3 B T 365;1BP3 B E 366;20.5396
1BP3 B E 366;1BP3 B F 367;31.3321
1BP3 B E 366;1BP3 B K 368;4.7213
1BP3 B F 367;1BP3 B K 368;42.1087
1BP3 B F 367;1BP3 B I 369;18.3208
1BP3 B K 368;1BP3 B I 369;27.4918
1BP3 B K 368;1BP3 B L 370;14.5937
1BP3 B I 369;1BP3 B L 370;32.2593
1BP3 B I 369;1BP3 B L 372;18.8919
1BP3 B I 369;1BP3 B V 380;0.0467569
1BP3 B L 370;1BP3 B S 371;35.5548
1BP3 B L 370;1BP3 B L 372;7.3417
1BP3 B S 371;1BP3 B L 372;26.6343
1BP3 B S 371;1BP3 B H 373;10.2334
1BP3 B L 372;1BP3 B H 373;19.0024
1BP3 B L 372;1BP3 B P 374;2.55973
1BP3 B L 372;1BP3 B Y 378;22.7156
1BP3 B L 372;1BP3 B I 402;21.5985
1BP3 B H 373;1BP3 B P 374;22.9141
1BP3 B H 373;1BP3 B G 375;10.8457
1BP3 B H 373;1BP3 B Q 376;20.3709
1BP3 B H 373;1BP3 B Y 378;17.8992
1BP3 B H 373;1BP3 B I 402;16.2035
1BP3 B P 374;1BP3 B G 375;23.9893
1BP3 B P 374;1BP3 B Q 376;4.25619
1BP3 B P 374;1BP3 B Q 401;8.41259
1BP3 B P 374;1BP3 B I 402;16.9596
1BP3 B P 374;1BP3 B P 403;13.0455
1BP3 B P 374;1BP3 B S 404;25.3887
1BP3 B G 375;1BP3 B Q 376;29.8207
1BP3 B G 375;1BP3 B Q 401;5.80664
1BP3 B Q 376;1BP3 B K 377;30.0773
1BP3 B Q 376;1BP3 B Y 378;5.79789
1BP3 B Q 376;1BP3 B Q 401;10.5954
1BP3 B Q 376;1BP3 B I 402;17.4282
1BP3 B K 377;1BP3 B Y 378;19.6383
1BP3 B K 377;1BP3 B L 379;0.130524
1BP3 B K 377;1BP3 B F 399;14.0228
1BP3 B K 377;1BP3 B I 400;5.98576
1BP3 B K 377;1BP3 B Q 401;16.3534
1BP3 B K 377;1BP3 B I 402;0.00678164
1BP3 B Y 378;1BP3 B L 379;27.705
1BP3 B Y 378;1BP3 B V 380;2.02148
1BP3 B Y 378;1BP3 B T 398;1.10596
1BP3 B Y 378;1BP3 B F 399;9.16651
1BP3 B Y 378;1BP3 B I 400;28.0489
1BP3 B Y 378;1BP3 B Q 401;0.0991546
1BP3 B Y 378;1BP3 B I 402;18.9466
1BP3 B L 379;1BP3 B V 380;22.8379
1BP3 B L 379;1BP3 B A 397;16.7669
1BP3 B L 379;1BP3 B T 398;2.31492
1BP3 B L 379;1BP3 B F 399;19.8894
1BP3 B V 380;1BP3 B Q 381;20.9269
1BP3 B V 380;1BP3 B P 396;1.97303
1BP3 B V 380;1BP3 B A 397;10.305
1BP3 B V 380;1BP3 B T 398;21.0057
1BP3 B V 380;1BP3 B I 400;1.71748
1BP3 B Q 381;1BP3 B V 382;18.9999
1BP3 B Q 381;1BP3 B W 394;23.791
1BP3 B Q 381;1BP3 B S 395;17.1005
1BP3 B Q 381;1BP3 B P 396;2.60293
1BP3 B Q 381;1BP3 B A 397;17.4241
1BP3 B V 382;1BP3 B R 383;20.1593
1BP3 B V 382;1BP3 B A 393;0.247402
1BP3 B V 382;1BP3 B W 394;8.36981
1BP3 B V 382;1BP3 B S 395;21.2135
1BP3 B R 383;1BP3 B C 384;17.8722
1BP3 B R 383;1BP3 B W 391;39.1986
1BP3 B R 383;1BP3 B S 392;20.8594
1BP3 B R 383;1BP3 B A 393;5.98001
1BP3 B R 383;1BP3 B W 394;44.0382
1BP3 B C 384;1BP3 B K 385;19.0045
1BP3 B C 384;1BP3 B Y 390;1.09936
1BP3 B C 384;1BP3 B W 391;8.07111
1BP3 B C 384;1BP3 B S 392;23.0331
1BP3 B K 385;1BP3 B P 386;28.279
1BP3 B K 385;1BP3 B D 387;17.4075
1BP3 B K 385;1BP3 B H 388;1.37511
1BP3 B K 385;1BP3 B G 389;15.9471
1BP3 B K 385;1BP3 B Y 390;6.8661
1BP3 B K 385;1BP3 B W 391;40.9782
1BP3 B P 386;1BP3 B D 387;18.9776
1BP3 B P 386;1BP3 B H 388;3.51207
1BP3 B P 386;1BP3 B G 389;15.4859
1BP3 B P 386;1BP3 B Y 390;8.0148
1BP3 B D 387;1BP3 B H 388;41.2102
1BP3 B D 387;1BP3 B G 389;0.932545
1BP3 B H 388;1BP3 B G 389;27.9695
1BP3 B G 389;1BP3 B Y 390;28.2274
1BP3 B G 389;1BP3 B W 391;1.52676
1BP3 B Y 390;1BP3 B W 391;28.1532
1BP3 B Y 390;1BP3 B S 392;0.619114
1BP3 B W 391;1BP3 B S 392;27.8597
1BP3 B S 392;1BP3 B A 393;35.1912
1BP3 B S 392;1BP3 B W 394;1.4681
1BP3 B A 393;1BP3 B W 394;30.91
1BP3 B A 393;1BP3 B S 395;1.97952
1BP3 B W 394;1BP3 B S 395;26.4388
1BP3 B W 394;1BP3 B P 396;1.62181
1BP3 B S 395;1BP3 B P 396;40.3893
1BP3 B S 395;1BP3 B A 397;0.162843
1BP3 B P 396;1BP3 B A 397;27.6429
1BP3 B P 396;1BP3 B T 398;8.84023
1BP3 B A 397;1BP3 B T 398;20.3549
1BP3 B A 397;1BP3 B F 399;8.4503
1BP3 B T 398;1BP3 B F 399;32.9272
1BP3 B T 398;1BP3 B I 400;2.97752
1BP3 B F 399;1BP3 B I 400;38.9235
1BP3 B F 399;1BP3 B Q 401;9.9719
1BP3 B I 400;1BP3 B Q 401;33.7239
1BP3 B I 400;1BP3 B I 402;5.23389
1BP3 B Q 401;1BP3 B I 402;33.1926
1BP3 B Q 401;1BP3 B P 403;5.21359
1BP3 B I 402;1BP3 B P 403;31.4439
1BP3 B I 402;1BP3 B S 404;0.895201
1BP3 B P 403;1BP3 B S 404;35.775
