V1;V2;Weight
1CBW F C 1;1CBW F G 2;15.433
1CBW F C 1;1CBW F V 3;16.9219
1CBW F C 1;1CBW G I 47;1.04357
1CBW F C 1;1CBW G S 119;0.759747
1CBW F C 1;1CBW G A 120;16.8471
1CBW F C 1;1CBW G V 121;7.2662
1CBW F C 1;1CBW G C 122;31.2873
1CBW F C 1;1CBW G L 123;0.236392
1CBW F C 1;1CBW H A 206;2.7195
1CBW F G 2;1CBW F V 3;22.0236
1CBW F G 2;1CBW F P 4;2.86876
1CBW F G 2;1CBW G W 29;9.56193
1CBW F G 2;1CBW G S 119;0.275991
1CBW F G 2;1CBW G A 120;8.52136
1CBW F G 2;1CBW G V 121;3.96493
1CBW F G 2;1CBW G C 122;9.16613
1CBW F G 2;1CBW H G 205;2.47416
1CBW F G 2;1CBW H A 206;6.61495
1CBW F G 2;1CBW H W 207;19.8987
1CBW F V 3;1CBW F P 4;35.2417
1CBW F V 3;1CBW F A 5;4.46709
1CBW F V 3;1CBW F Q 7;12.1466
1CBW F V 3;1CBW G W 29;1.97009
1CBW F V 3;1CBW G S 119;10.4719
1CBW F V 3;1CBW G A 120;0.0501399
1CBW F V 3;1CBW H G 205;11.7396
1CBW F V 3;1CBW H A 206;8.18897
1CBW F P 4;1CBW F A 5;27.7491
1CBW F P 4;1CBW F I 6;9.63141
1CBW F P 4;1CBW F Q 7;23.8232
1CBW F P 4;1CBW F P 8;10.6892
1CBW F P 4;1CBW G G 25;0.593279
1CBW F P 4;1CBW G S 26;8.52766
1CBW F P 4;1CBW G W 27;1.38375
1CBW F P 4;1CBW G P 28;15.3562
1CBW F P 4;1CBW G W 29;11.7527
1CBW F P 4;1CBW G Q 116;0.035042
1CBW F P 4;1CBW G S 119;1.99356
1CBW F P 4;1CBW H G 205;0.506696
1CBW F P 4;1CBW H W 207;12.8079
1CBW F A 5;1CBW F I 6;26.8158
1CBW F A 5;1CBW F Q 7;8.95541
1CBW F A 5;1CBW G G 25;0.026092
1CBW F A 5;1CBW G P 28;0.772085
1CBW F A 5;1CBW G S 115;1.68958
1CBW F A 5;1CBW G Q 116;31.611
1CBW F A 5;1CBW G S 119;1.51101
1CBW F I 6;1CBW F Q 7;26.5908
1CBW F I 6;1CBW F P 8;1.31109
1CBW F I 6;1CBW G V 23;12.6955
1CBW F I 6;1CBW G P 24;12.8987
1CBW F I 6;1CBW G G 25;12.7776
1CBW F I 6;1CBW G S 26;14.4835
1CBW F I 6;1CBW G Q 116;26.3644
1CBW F I 6;1CBW G T 117;11.4183
1CBW F Q 7;1CBW F P 8;34.1041
1CBW F Q 7;1CBW F V 9;9.09478
1CBW F Q 7;1CBW G V 23;5.573
1CBW F Q 7;1CBW G S 26;3.76834
1CBW F Q 7;1CBW H G 205;0.856645
1CBW F Q 7;1CBW H W 207;1.36253
1CBW F P 8;1CBW F V 9;24.481
1CBW F P 8;1CBW F L 10;4.13242
1CBW F P 8;1CBW F S 11;16.2899
1CBW F P 8;1CBW G V 23;0.885421
1CBW F P 8;1CBW G S 26;18.4851
1CBW F P 8;1CBW G W 27;18.0876
1CBW F P 8;1CBW H Q 157;1.775
1CBW F P 8;1CBW H W 207;13.6642
1CBW F V 9;1CBW F L 10;35.7236
1CBW F V 9;1CBW F S 11;1.57487
1CBW F V 9;1CBW G E 20;6.45001
1CBW F V 9;1CBW G E 21;0.0305161
1CBW F V 9;1CBW G V 23;31.2526
1CBW F V 9;1CBW G S 26;0.28824
1CBW F V 9;1CBW H Q 157;13.8624
1CBW F L 10;1CBW F S 11;36.8861
1CBW F L 10;1CBW G E 20;27.3331
1CBW F L 10;1CBW G W 27;0.785506
1CBW F L 10;1CBW G V 137;2.43806
1CBW F L 10;1CBW H Q 157;13.6143
1CBW F L 10;1CBW H S 159;17.9663
1CBW F S 11;1CBW G W 27;8.41352
1CBW F S 11;1CBW G T 135;10.6368
1CBW F S 11;1CBW G V 137;14.9827
1CBW F S 11;1CBW H Q 157;0.225597
1CBW F S 11;1CBW H S 159;7.0335
1CBW F S 11;1CBW H K 202;3.1398
1CBW F S 11;1CBW H W 207;18.1958
1CBW G I 16;1CBW G V 17;21.9595
1CBW G I 16;1CBW G N 18;1.09559
1CBW G I 16;1CBW G G 19;13.9914
1CBW G I 16;1CBW G T 138;18.2246
1CBW G I 16;1CBW G T 139;7.77731
1CBW G I 16;1CBW G G 140;9.92378
1CBW G I 16;1CBW G G 142;11.0935
1CBW G I 16;1CBW G L 143;9.38289
1CBW G I 16;1CBW G T 144;13.9174
1CBW G I 16;1CBW H Q 156;17.3482
1CBW G I 16;1CBW H Q 157;5.88538
1CBW G I 16;1CBW H A 158;13.0049
1CBW G I 16;1CBW H V 188;3.45923
1CBW G I 16;1CBW H S 189;10.1395
1CBW G I 16;1CBW H S 190;8.91629
1CBW G I 16;1CBW H C 191;4.63141
1CBW G I 16;1CBW H D 194;19.1343
1CBW G V 17;1CBW G N 18;28.5721
1CBW G V 17;1CBW G G 19;3.05671
1CBW G V 17;1CBW G L 143;3.33923
1CBW G V 17;1CBW G T 144;13.2305
1CBW G V 17;1CBW G R 145;13.1801
1CBW G V 17;1CBW G Y 146;3.97648
1CBW G V 17;1CBW H V 188;8.08537
1CBW G V 17;1CBW H S 189;19.4222
1CBW G V 17;1CBW H C 191;10.6805
1CBW G V 17;1CBW H C 220;15.2089
1CBW G V 17;1CBW H T 222;14.8578
1CBW G N 18;1CBW G G 19;33.4555
1CBW G N 18;1CBW G T 144;8.84884
1CBW G N 18;1CBW H G 187;16.9162
1CBW G N 18;1CBW H V 188;15.3407
1CBW G N 18;1CBW H T 222;5.28102
1CBW G G 19;1CBW G E 20;29.1674
1CBW G G 19;1CBW G T 144;2.48341
1CBW G G 19;1CBW H Q 156;8.09811
1CBW G G 19;1CBW H Q 157;4.62289
1CBW G G 19;1CBW H A 158;7.31008
1CBW G G 19;1CBW H V 188;2.17829
1CBW G E 20;1CBW G E 21;35.7818
1CBW G E 20;1CBW G A 22;0.9798
1CBW G E 20;1CBW H Q 156;14.7355
1CBW G E 20;1CBW H Q 157;37.5064
1CBW G E 20;1CBW H A 158;1.72852
1CBW G E 20;1CBW H S 159;1.87543
1CBW G E 21;1CBW G A 22;31.4796
1CBW G E 21;1CBW G V 23;2.44665
1CBW G E 21;1CBW G P 24;1.5978
1CBW G E 21;1CBW G F 71;10.7962
1CBW G E 21;1CBW H R 154;29.801
1CBW G E 21;1CBW H L 155;5.26356
1CBW G E 21;1CBW H Q 156;17.2904
1CBW G E 21;1CBW H Q 157;5.11526
1CBW G A 22;1CBW G V 23;27.2903
1CBW G A 22;1CBW G P 24;5.84668
1CBW G A 22;1CBW G S 26;2.63927
1CBW G A 22;1CBW G W 27;10.1467
1CBW G A 22;1CBW G F 71;11.7286
1CBW G A 22;1CBW H L 155;19.6817
1CBW G A 22;1CBW H Q 156;5.44838
1CBW G A 22;1CBW H Q 157;16.0388
1CBW G V 23;1CBW G P 24;35.4389
1CBW G V 23;1CBW G G 25;1.76416
1CBW G V 23;1CBW G S 26;22.9328
1CBW G V 23;1CBW G W 27;0.0772909
1CBW G V 23;1CBW G F 71;1.07854
1CBW G V 23;1CBW H L 155;0.832779
1CBW G V 23;1CBW H Q 157;2.58951
1CBW G P 24;1CBW G G 25;20.7319
1CBW G P 24;1CBW G S 26;3.45106
1CBW G P 24;1CBW G F 71;35.2235
1CBW G P 24;1CBW G T 117;0.0048422
1CBW G G 25;1CBW G S 26;17.4101
1CBW G G 25;1CBW G W 27;5.06189
1CBW G G 25;1CBW G P 28;11.2934
1CBW G G 25;1CBW G G 69;0.633834
1CBW G G 25;1CBW G E 70;3.72828
1CBW G G 25;1CBW G F 71;9.19967
1CBW G G 25;1CBW G Q 116;5.24365
1CBW G G 25;1CBW G T 117;21.0908
1CBW G G 25;1CBW H L 155;2.49842
1CBW G S 26;1CBW G W 27;32.2218
1CBW G S 26;1CBW G P 28;5.34095
1CBW G S 26;1CBW G W 29;0.146592
1CBW G S 26;1CBW H L 155;0.721965
1CBW G S 26;1CBW H Q 157;0.766296
1CBW G W 27;1CBW G P 28;22.8536
1CBW G W 27;1CBW G W 29;29.9858
1CBW G W 27;1CBW G Q 30;17.7909
1CBW G W 27;1CBW G V 137;15.348
1CBW G W 27;1CBW G T 139;22.3294
1CBW G W 27;1CBW H L 155;18.7577
1CBW G W 27;1CBW H Q 156;0.0967935
1CBW G W 27;1CBW H Q 157;16.7428
1CBW G W 27;1CBW H V 200;8.16421
1CBW G W 27;1CBW H W 207;14.8579
1CBW G P 28;1CBW G W 29;30.969
1CBW G P 28;1CBW G Q 30;8.57804
1CBW G P 28;1CBW G V 31;0.691548
1CBW G P 28;1CBW G L 46;4.70081
1CBW G P 28;1CBW G A 68;1.80161
1CBW G P 28;1CBW G G 69;2.63534
1CBW G P 28;1CBW G S 115;0.218439
1CBW G P 28;1CBW G Q 116;7.9563
1CBW G P 28;1CBW G T 117;16.0108
1CBW G P 28;1CBW G V 118;9.03706
1CBW G P 28;1CBW G S 119;23.6642
1CBW G W 29;1CBW G Q 30;24.3743
1CBW G W 29;1CBW G V 31;6.44156
1CBW G W 29;1CBW G G 44;0.374046
1CBW G W 29;1CBW G S 45;13.6502
1CBW G W 29;1CBW G L 46;18.8367
1CBW G W 29;1CBW G S 119;11.0777
1CBW G W 29;1CBW G A 120;9.01139
1CBW G W 29;1CBW G V 121;24.7853
1CBW G W 29;1CBW G T 139;1.78319
1CBW G W 29;1CBW H P 198;12.8168
1CBW G W 29;1CBW H V 200;16.5433
1CBW G W 29;1CBW H W 207;17.3044
1CBW G Q 30;1CBW G V 31;27.9057
1CBW G Q 30;1CBW G G 43;8.14419
1CBW G Q 30;1CBW G G 44;11.5265
1CBW G Q 30;1CBW G S 45;1.71726
1CBW G Q 30;1CBW G V 67;0.531262
1CBW G Q 30;1CBW G A 68;2.05197
1CBW G Q 30;1CBW G G 69;5.85467
1CBW G Q 30;1CBW G E 70;3.0555
1CBW G Q 30;1CBW G T 139;16.3232
1CBW G Q 30;1CBW G G 140;9.08651
1CBW G Q 30;1CBW G W 141;20.1748
1CBW G Q 30;1CBW H L 155;14.0216
1CBW G Q 30;1CBW H G 197;4.14193
1CBW G Q 30;1CBW H P 198;12.6929
1CBW G V 31;1CBW G S 32;22.3453
1CBW G V 31;1CBW G L 33;5.94365
1CBW G V 31;1CBW G G 43;2.76415
1CBW G V 31;1CBW G G 44;20.6546
1CBW G V 31;1CBW G S 45;3.22059
1CBW G V 31;1CBW G L 46;13.9886
1CBW G V 31;1CBW G V 52;13.3521
1CBW G V 31;1CBW G V 66;16.8339
1CBW G V 31;1CBW G V 67;6.92459
1CBW G V 31;1CBW G A 68;13.4323
1CBW G V 31;1CBW G L 83;0.433384
1CBW G V 31;1CBW G W 141;7.54383
1CBW G S 32;1CBW G L 33;20.0303
1CBW G S 32;1CBW G Q 34;15.1386
1CBW G S 32;1CBW G H 40;12.2088
1CBW G S 32;1CBW G C 42;1.97908
1CBW G S 32;1CBW G G 43;2.35617
1CBW G S 32;1CBW G G 44;0.186288
1CBW G S 32;1CBW G V 65;2.46742
1CBW G S 32;1CBW G V 66;3.37446
1CBW G S 32;1CBW G V 67;22.4663
1CBW G S 32;1CBW G E 70;7.33262
1CBW G S 32;1CBW G Q 73;4.97263
1CBW G S 32;1CBW G W 141;12.8423
1CBW G L 33;1CBW G Q 34;18.7126
1CBW G L 33;1CBW G F 39;0.000540708
1CBW G L 33;1CBW G H 40;6.49056
1CBW G L 33;1CBW G F 41;18.9994
1CBW G L 33;1CBW G C 42;24.4806
1CBW G L 33;1CBW G G 43;10.0654
1CBW G L 33;1CBW G G 44;3.04216
1CBW G L 33;1CBW G V 52;3.0686
1CBW G L 33;1CBW G T 54;10.8441
1CBW G L 33;1CBW G C 58;1.14871
1CBW G L 33;1CBW G V 60;15.8771
1CBW G L 33;1CBW G D 64;2.71528
1CBW G L 33;1CBW G V 65;6.28517
1CBW G L 33;1CBW G V 66;12.6357
1CBW G L 33;1CBW G I 85;3.9943
1CBW G L 33;1CBW G L 106;10.8611
1CBW G Q 34;1CBW G D 35;22.4475
1CBW G Q 34;1CBW G G 38;25.0552
1CBW G Q 34;1CBW G F 39;7.04569
1CBW G Q 34;1CBW G H 40;10.2123
1CBW G Q 34;1CBW G F 41;7.77958
1CBW G Q 34;1CBW G D 64;7.6164
1CBW G Q 34;1CBW G V 65;23.0141
1CBW G Q 34;1CBW G V 67;19.9255
1CBW G Q 34;1CBW G E 70;13.1435
1CBW G Q 34;1CBW G Q 73;7.38994
1CBW G Q 34;1CBW G K 82;1.7568
1CBW G D 35;1CBW G K 36;31.6755
1CBW G D 35;1CBW G T 37;20.9199
1CBW G D 35;1CBW G G 38;11.5162
1CBW G D 35;1CBW G F 39;26.4641
1CBW G D 35;1CBW G F 41;10.2264
1CBW G D 35;1CBW G S 63;0.034775
1CBW G D 35;1CBW G D 64;15.5664
1CBW G D 35;1CBW G V 65;6.37302
1CBW G D 35;1CBW I I 19;1.16498
1CBW G K 36;1CBW G T 37;30.6416
1CBW G K 36;1CBW G G 38;2.91985
1CBW G K 36;1CBW G S 63;27.4083
1CBW G K 36;1CBW G D 64;0.606678
1CBW G K 36;1CBW G V 65;8.43746
1CBW G T 37;1CBW G G 38;23.0573
1CBW G T 37;1CBW G F 39;10.6583
1CBW G G 38;1CBW G F 39;21.1543
1CBW G G 38;1CBW G H 40;4.83372
1CBW G F 39;1CBW G H 40;28.4187
1CBW G F 39;1CBW G F 41;15.0485
1CBW G F 39;1CBW I R 17;33.9109
1CBW G F 39;1CBW I I 18;0.209902
1CBW G F 39;1CBW I I 19;25.995
1CBW G F 39;1CBW I V 34;1.97309
1CBW G H 40;1CBW G F 41;19.5645
1CBW G H 40;1CBW G C 42;13.8092
1CBW G H 40;1CBW G G 43;3.97095
1CBW G H 40;1CBW G Q 73;16.6596
1CBW G H 40;1CBW G W 141;24.5113
1CBW G H 40;1CBW H T 151;10.3209
1CBW G H 40;1CBW H G 193;15.9012
1CBW G H 40;1CBW I R 17;17.2919
1CBW G F 41;1CBW G C 42;34.127
1CBW G F 41;1CBW G C 58;14.3417
1CBW G F 41;1CBW G G 59;1.56514
1CBW G F 41;1CBW G V 60;13.8177
1CBW G F 41;1CBW G D 64;17.8754
1CBW G F 41;1CBW H G 193;3.90894
1CBW G F 41;1CBW I A 16;4.19562
1CBW G F 41;1CBW I R 17;21.0112
1CBW G F 41;1CBW I I 18;14.4903
1CBW G C 42;1CBW G G 43;20.6988
1CBW G C 42;1CBW G T 54;0.253702
1CBW G C 42;1CBW G C 58;20.0883
1CBW G C 42;1CBW G V 60;0.000602662
1CBW G C 42;1CBW H G 193;6.65616
1CBW G C 42;1CBW H S 195;9.54424
1CBW G C 42;1CBW H G 196;0.0231472
1CBW G C 42;1CBW I A 16;9.53777
1CBW G C 42;1CBW I I 18;0.394406
1CBW G G 43;1CBW G G 44;16.2952
1CBW G G 43;1CBW G T 54;5.82032
1CBW G G 43;1CBW G C 58;0.0918161
1CBW G G 43;1CBW G G 140;0.222266
1CBW G G 43;1CBW G W 141;0.469235
1CBW G G 43;1CBW H G 193;4.15914
1CBW G G 43;1CBW H D 194;2.555
1CBW G G 43;1CBW H S 195;9.91115
1CBW G G 43;1CBW H G 196;7.85225
1CBW G G 43;1CBW H G 197;5.62418
1CBW G G 44;1CBW G S 45;18.9925
1CBW G G 44;1CBW G V 52;4.57929
1CBW G G 44;1CBW G V 53;4.0271
1CBW G G 44;1CBW G T 54;3.16193
1CBW G G 44;1CBW H G 196;6.79657
1CBW G G 44;1CBW H G 197;4.7934
1CBW G G 44;1CBW H P 198;2.90379
1CBW G S 45;1CBW G L 46;18.0959
1CBW G S 45;1CBW G I 47;5.19196
1CBW G S 45;1CBW G W 51;0.227325
1CBW G S 45;1CBW G V 52;10.8798
1CBW G S 45;1CBW G V 53;22.366
1CBW G S 45;1CBW G V 121;9.38911
1CBW G S 45;1CBW H G 196;1.02792
1CBW G S 45;1CBW H G 197;3.73968
1CBW G S 45;1CBW H P 198;12.7454
1CBW G S 45;1CBW H L 209;9.48978
1CBW G L 46;1CBW G I 47;16.9055
1CBW G L 46;1CBW G N 48;12.2991
1CBW G L 46;1CBW G E 49;2.68887
1CBW G L 46;1CBW G W 51;7.84107
1CBW G L 46;1CBW G V 52;11.4922
1CBW G L 46;1CBW G V 66;0.246404
1CBW G L 46;1CBW G A 68;7.79662
1CBW G L 46;1CBW G L 83;3.04598
1CBW G L 46;1CBW G L 108;7.94897
1CBW G L 46;1CBW G A 112;11.0498
1CBW G L 46;1CBW G F 114;6.99978
1CBW G L 46;1CBW G V 118;10.2832
1CBW G L 46;1CBW G S 119;9.256
1CBW G L 46;1CBW G A 120;10.0341
1CBW G L 46;1CBW G V 121;10.132
1CBW G I 47;1CBW G N 48;33.8607
1CBW G I 47;1CBW G W 51;21.6114
1CBW G I 47;1CBW G V 52;1.28243
1CBW G I 47;1CBW G V 53;16.4847
1CBW G I 47;1CBW G L 105;7.42777
1CBW G I 47;1CBW G A 120;10.4032
1CBW G I 47;1CBW G V 121;20.2544
1CBW G I 47;1CBW G L 123;25.5518
1CBW G I 47;1CBW H L 209;2.77816
1CBW G I 47;1CBW H V 238;7.15557
1CBW G I 47;1CBW H L 242;11.9762
1CBW G N 48;1CBW G E 49;31.6919
1CBW G N 48;1CBW G N 50;12.8535
1CBW G N 48;1CBW G W 51;26.0899
1CBW G N 48;1CBW G F 114;10.3495
1CBW G N 48;1CBW G A 120;8.34202
1CBW G N 48;1CBW H L 242;10.3028
1CBW G E 49;1CBW G N 50;31.8104
1CBW G E 49;1CBW G W 51;0.174283
1CBW G E 49;1CBW G L 108;6.47625
1CBW G E 49;1CBW G A 111;18.468
1CBW G E 49;1CBW G A 112;22.0271
1CBW G E 49;1CBW G F 114;25.219
1CBW G N 50;1CBW G W 51;33.8306
1CBW G N 50;1CBW G L 106;1.63631
1CBW G N 50;1CBW G K 107;12.1024
1CBW G N 50;1CBW G L 108;28.4402
1CBW G N 50;1CBW G A 111;16.9824
1CBW G W 51;1CBW G V 52;21.4326
1CBW G W 51;1CBW G V 53;0.0124754
1CBW G W 51;1CBW G F 89;16.6214
1CBW G W 51;1CBW G L 105;17.0495
1CBW G W 51;1CBW G L 106;12.6356
1CBW G W 51;1CBW G K 107;32.6808
1CBW G W 51;1CBW G L 108;3.29853
1CBW G W 51;1CBW H T 241;11.1756
1CBW G W 51;1CBW H L 242;35.367
1CBW G W 51;1CBW H N 245;4.79229
1CBW G V 52;1CBW G V 53;22.4833
1CBW G V 52;1CBW G T 54;3.40651
1CBW G V 52;1CBW G V 66;14.2011
1CBW G V 52;1CBW G T 104;0.964289
1CBW G V 52;1CBW G L 105;7.0948
1CBW G V 52;1CBW G L 106;33.6217
1CBW G V 52;1CBW G L 108;13.1719
1CBW G V 53;1CBW G T 54;22.0102
1CBW G V 53;1CBW G I 103;13.0781
1CBW G V 53;1CBW G T 104;5.89436
1CBW G V 53;1CBW G L 105;14.2218
1CBW G V 53;1CBW G L 106;0.00503775
1CBW G V 53;1CBW G L 123;2.77603
1CBW G V 53;1CBW H G 196;3.62333
1CBW G V 53;1CBW H G 197;0.308364
1CBW G V 53;1CBW H L 209;14.4817
1CBW G V 53;1CBW H I 212;14.9361
1CBW G V 53;1CBW H V 231;0.585212
1CBW G V 53;1CBW H V 238;6.64908
1CBW G T 54;1CBW G A 55;24.2589
1CBW G T 54;1CBW G A 56;0.0192567
1CBW G T 54;1CBW G C 58;7.06181
1CBW G T 54;1CBW G V 60;9.05981
1CBW G T 54;1CBW G D 102;0.214738
1CBW G T 54;1CBW G I 103;6.2954
1CBW G T 54;1CBW G T 104;26.7204
1CBW G T 54;1CBW G L 106;11.7672
1CBW G T 54;1CBW H G 196;9.74456
1CBW G T 54;1CBW H I 212;10.7705
1CBW G A 55;1CBW G A 56;16.3463
1CBW G A 55;1CBW G H 57;13.2743
1CBW G A 55;1CBW G C 58;18.0602
1CBW G A 55;1CBW G G 59;1.44021
1CBW G A 55;1CBW G V 60;1.33731
1CBW G A 55;1CBW G D 102;14.0432
1CBW G A 55;1CBW G I 103;1.08416
1CBW G A 55;1CBW G T 104;5.8413
1CBW G A 55;1CBW H S 195;0.532087
1CBW G A 55;1CBW H G 196;11.0182
1CBW G A 55;1CBW H I 212;8.18257
1CBW G A 55;1CBW H V 213;4.84294
1CBW G A 55;1CBW H S 214;0.780117
1CBW G A 56;1CBW G H 57;17.6304
1CBW G A 56;1CBW G C 58;1.95055
1CBW G A 56;1CBW G G 59;12.5186
1CBW G A 56;1CBW G V 60;0.00986349
1CBW G A 56;1CBW G K 90;17.131
1CBW G A 56;1CBW G N 91;0.332106
1CBW G A 56;1CBW G Y 94;18.8164
1CBW G A 56;1CBW G N 101;0.392526
1CBW G A 56;1CBW G D 102;9.58864
1CBW G A 56;1CBW G I 103;14.2664
1CBW G A 56;1CBW G T 104;11.853
1CBW G H 57;1CBW G C 58;24.0124
1CBW G H 57;1CBW G G 59;6.51686
1CBW G H 57;1CBW G Y 94;16.7336
1CBW G H 57;1CBW G I 99;1.59305
1CBW G H 57;1CBW G D 102;16.9042
1CBW G H 57;1CBW H S 195;11.9535
1CBW G H 57;1CBW H G 196;0.0571035
1CBW G H 57;1CBW H V 213;2.14581
1CBW G H 57;1CBW H S 214;9.70011
1CBW G H 57;1CBW I C 14;13.5182
1CBW G H 57;1CBW I K 15;2.10498
1CBW G H 57;1CBW I A 16;9.49463
1CBW G H 57;1CBW I I 18;3.19686
1CBW G H 57;1CBW I G 36;2.41416
1CBW G H 57;1CBW I G 37;22.6129
1CBW G H 57;1CBW I C 38;3.93331
1CBW G C 58;1CBW G G 59;24.5427
1CBW G C 58;1CBW G V 60;10.9675
1CBW G C 58;1CBW H S 195;6.03337
1CBW G C 58;1CBW H G 196;3.66726
1CBW G C 58;1CBW I A 16;4.02083
1CBW G C 58;1CBW I I 18;11.5073
1CBW G G 59;1CBW G V 60;27.3723
1CBW G G 59;1CBW G T 61;12.0346
1CBW G G 59;1CBW G D 64;2.3686
1CBW G V 60;1CBW G T 61;28.1295
1CBW G V 60;1CBW G D 64;10.816
1CBW G V 60;1CBW G I 85;8.61046
1CBW G V 60;1CBW G V 88;18.4709
1CBW G V 60;1CBW G T 104;6.08037
1CBW G V 60;1CBW G L 106;14.0756
1CBW G T 61;1CBW G T 62;21.6965
1CBW G T 61;1CBW G S 63;18.4111
1CBW G T 61;1CBW G D 64;22.3578
1CBW G T 61;1CBW G I 85;6.87716
1CBW G T 61;1CBW G V 88;9.92183
1CBW G T 62;1CBW G S 63;27.3615
1CBW G T 62;1CBW G D 64;7.25348
1CBW G T 62;1CBW G K 84;4.30204
1CBW G T 62;1CBW G I 85;27.0672
1CBW G T 62;1CBW G A 86;12.0179
1CBW G T 62;1CBW G K 87;6.07685
1CBW G T 62;1CBW G V 88;13.455
1CBW G S 63;1CBW G D 64;27.3016
1CBW G S 63;1CBW G V 65;5.63572
1CBW G D 64;1CBW G V 65;25.9584
1CBW G D 64;1CBW G K 84;5.63178
1CBW G D 64;1CBW G I 85;15.9268
1CBW G V 65;1CBW G V 66;21.6396
1CBW G V 65;1CBW G V 67;11.1906
1CBW G V 65;1CBW G K 82;27.3103
1CBW G V 65;1CBW G L 83;12.4987
1CBW G V 65;1CBW G K 84;9.45982
1CBW G V 65;1CBW G I 85;4.64327
1CBW G V 66;1CBW G V 67;20.8525
1CBW G V 66;1CBW G A 68;2.52315
1CBW G V 66;1CBW G Q 81;1.02147
1CBW G V 66;1CBW G K 82;2.25766
1CBW G V 66;1CBW G L 83;31.5433
1CBW G V 66;1CBW G I 85;11.3127
1CBW G V 66;1CBW G L 106;6.84173
1CBW G V 66;1CBW G L 108;10.5533
1CBW G V 67;1CBW G A 68;20.3257
1CBW G V 67;1CBW G G 69;0.481933
1CBW G V 67;1CBW G E 70;22.7131
1CBW G V 67;1CBW G I 80;17.1265
1CBW G V 67;1CBW G Q 81;5.83071
1CBW G V 67;1CBW G K 82;15.1747
1CBW G V 67;1CBW G L 83;0.0402253
1CBW G V 67;1CBW G W 141;0.841514
1CBW G A 68;1CBW G G 69;20.9077
1CBW G A 68;1CBW G E 70;2.98176
1CBW G A 68;1CBW G I 80;5.18816
1CBW G A 68;1CBW G Q 81;21.49
1CBW G A 68;1CBW G L 83;12.875
1CBW G A 68;1CBW G A 112;1.29169
1CBW G A 68;1CBW G V 118;13.404
1CBW G G 69;1CBW G E 70;29.5144
1CBW G G 69;1CBW G F 71;2.39303
1CBW G G 69;1CBW G E 78;3.94825
1CBW G G 69;1CBW G K 79;9.13816
1CBW G G 69;1CBW G I 80;8.44098
1CBW G G 69;1CBW G Q 81;0.109374
1CBW G G 69;1CBW G T 117;21.9523
1CBW G G 69;1CBW G V 118;10.8992
1CBW G E 70;1CBW G F 71;28.8853
1CBW G E 70;1CBW G D 72;1.67969
1CBW G E 70;1CBW G Q 73;28.7831
1CBW G E 70;1CBW G E 78;10.4122
1CBW G E 70;1CBW G I 80;22.3323
1CBW G E 70;1CBW G W 141;19.2442
1CBW G E 70;1CBW H L 155;3.20038
1CBW G F 71;1CBW G D 72;29.5901
1CBW G F 71;1CBW G Q 73;3.61887
1CBW G F 71;1CBW G E 78;15.1095
1CBW G F 71;1CBW G W 141;11.108
1CBW G F 71;1CBW H D 153;3.47534
1CBW G F 71;1CBW H R 154;23.0893
1CBW G F 71;1CBW H L 155;27.2215
1CBW G D 72;1CBW G Q 73;16.9543
1CBW G D 72;1CBW G G 74;11.5885
1CBW G D 72;1CBW G S 75;31.4842
1CBW G D 72;1CBW G E 78;18.8974
1CBW G D 72;1CBW H D 153;10.2773
1CBW G D 72;1CBW H R 154;24.8529
1CBW G Q 73;1CBW G G 74;23.8292
1CBW G Q 73;1CBW G S 75;5.21351
1CBW G Q 73;1CBW G S 76;0.624905
1CBW G Q 73;1CBW G W 141;25.2228
1CBW G Q 73;1CBW H T 151;9.40533
1CBW G Q 73;1CBW H P 152;5.12001
1CBW G Q 73;1CBW H D 153;17.6844
1CBW G G 74;1CBW G S 75;20.8138
1CBW G G 74;1CBW G S 76;7.0309
1CBW G G 74;1CBW H D 153;18.4984
1CBW G S 75;1CBW G S 76;24.3911
1CBW G S 75;1CBW G S 77;18.5704
1CBW G S 75;1CBW G E 78;22.9262
1CBW G S 76;1CBW G S 77;25.3583
1CBW G S 76;1CBW G E 78;12.372
1CBW G S 77;1CBW G E 78;26.5734
1CBW G S 77;1CBW G K 79;8.79965
1CBW G E 78;1CBW G K 79;32.6944
1CBW G E 78;1CBW G I 80;28.7226
1CBW G K 79;1CBW G I 80;26.3396
1CBW G K 79;1CBW G Q 81;3.23917
1CBW G K 79;1CBW G T 117;6.32352
1CBW G K 79;1CBW G V 118;1.54917
1CBW G I 80;1CBW G Q 81;28.4285
1CBW G I 80;1CBW G K 82;17.61
1CBW G Q 81;1CBW G K 82;23.3809
1CBW G Q 81;1CBW G L 83;20.477
1CBW G Q 81;1CBW G A 111;2.32751
1CBW G Q 81;1CBW G A 112;7.73498
1CBW G Q 81;1CBW G S 113;25.1861
1CBW G Q 81;1CBW G S 115;2.72497
1CBW G Q 81;1CBW G V 118;18.5149
1CBW G K 82;1CBW G L 83;28.9914
1CBW G K 82;1CBW G T 110;1.70081
1CBW G L 83;1CBW G K 84;27.5824
1CBW G L 83;1CBW G I 85;1.46115
1CBW G L 83;1CBW G L 108;20.2581
1CBW G L 83;1CBW G T 110;19.0411
1CBW G L 83;1CBW G A 111;6.1475
1CBW G L 83;1CBW G A 112;13.7371
1CBW G K 84;1CBW G I 85;25.3466
1CBW G K 84;1CBW G A 86;0.7037
1CBW G K 84;1CBW G L 108;9.87927
1CBW G K 84;1CBW G S 109;24.5507
1CBW G K 84;1CBW G T 110;11.6405
1CBW G I 85;1CBW G A 86;22.0574
1CBW G I 85;1CBW G K 87;8.37148
1CBW G I 85;1CBW G V 88;8.56247
1CBW G I 85;1CBW G L 106;18.8341
1CBW G I 85;1CBW G K 107;6.02698
1CBW G I 85;1CBW G L 108;8.81849
1CBW G I 85;1CBW G S 109;1.94679
1CBW G A 86;1CBW G K 87;32.6927
1CBW G A 86;1CBW G K 107;16.7485
1CBW G A 86;1CBW G L 108;5.88743
1CBW G A 86;1CBW G S 109;22.566
1CBW G K 87;1CBW G V 88;33.3508
1CBW G K 87;1CBW G F 89;29.5429
1CBW G K 87;1CBW G L 105;0.173824
1CBW G K 87;1CBW G L 106;2.70756
1CBW G K 87;1CBW G K 107;24.2996
1CBW G V 88;1CBW G F 89;26.1118
1CBW G V 88;1CBW G K 90;10.1589
1CBW G V 88;1CBW G T 104;12.0389
1CBW G V 88;1CBW G L 105;3.19413
1CBW G V 88;1CBW G L 106;11.51
1CBW G F 89;1CBW G K 90;22.3288
1CBW G F 89;1CBW G N 91;0.706776
1CBW G F 89;1CBW G T 104;8.62063
1CBW G F 89;1CBW G L 105;23.4972
1CBW G F 89;1CBW G L 106;0.0281245
1CBW G F 89;1CBW G K 107;13.0383
1CBW G F 89;1CBW H W 237;13.6945
1CBW G F 89;1CBW H T 241;21.024
1CBW G F 89;1CBW H N 245;13.3398
1CBW G K 90;1CBW G N 91;27.7257
1CBW G K 90;1CBW G S 92;20.2532
1CBW G K 90;1CBW G Y 94;20.7725
1CBW G K 90;1CBW G I 103;1.13471
1CBW G K 90;1CBW G T 104;14.365
1CBW G K 90;1CBW H W 237;4.68589
1CBW G N 91;1CBW G S 92;20.4167
1CBW G N 91;1CBW G K 93;21.129
1CBW G N 91;1CBW G Y 94;15.6951
1CBW G N 91;1CBW G N 101;13.5569
1CBW G N 91;1CBW G I 103;22.1999
1CBW G N 91;1CBW G T 104;0.325666
1CBW G N 91;1CBW H L 234;10.0182
1CBW G N 91;1CBW H W 237;32.6284
1CBW G S 92;1CBW G K 93;30.8902
1CBW G S 92;1CBW G Y 94;5.6237
1CBW G S 92;1CBW H W 237;9.38918
1CBW G K 93;1CBW G Y 94;20.5046
1CBW G K 93;1CBW G N 95;7.29272
1CBW G K 93;1CBW G N 100;0.187121
1CBW G K 93;1CBW G N 101;28.9711
1CBW G K 93;1CBW H W 237;4.95298
1CBW G Y 94;1CBW G N 95;26.938
1CBW G Y 94;1CBW G S 96;24.4563
1CBW G Y 94;1CBW G I 99;15.6865
1CBW G Y 94;1CBW G N 100;7.1543
1CBW G Y 94;1CBW G N 101;13.4006
1CBW G Y 94;1CBW G D 102;13.8866
1CBW G Y 94;1CBW G I 103;0.0116601
1CBW G Y 94;1CBW I G 37;1.11733
1CBW G Y 94;1CBW I C 38;8.77842
1CBW G N 95;1CBW G S 96;20.6582
1CBW G N 95;1CBW G L 97;15.3571
1CBW G N 95;1CBW G T 98;23.9014
1CBW G N 95;1CBW G I 99;10.8868
1CBW G N 95;1CBW G N 100;15.1292
1CBW G N 95;1CBW G N 101;1.15721
1CBW G S 96;1CBW G L 97;34.737
1CBW G S 96;1CBW G I 99;4.43645
1CBW G S 96;1CBW I C 38;6.25992
1CBW G S 96;1CBW I R 39;11.0006
1CBW G L 97;1CBW G T 98;24.4288
1CBW G L 97;1CBW G I 99;9.35185
1CBW G L 97;1CBW I R 39;43.5365
1CBW G T 98;1CBW G I 99;25.4108
1CBW G T 98;1CBW G N 100;11.8772
1CBW G T 98;1CBW H K 175;4.74053
1CBW G T 98;1CBW H K 177;25.8689
1CBW G T 98;1CBW H M 180;8.68098
1CBW G T 98;1CBW H W 215;2.66889
1CBW G I 99;1CBW G N 100;18.9074
1CBW G I 99;1CBW G N 101;0.439257
1CBW G I 99;1CBW G D 102;16.2691
1CBW G I 99;1CBW H M 180;9.8836
1CBW G I 99;1CBW H S 214;6.3698
1CBW G I 99;1CBW H W 215;27.6575
1CBW G I 99;1CBW I P 13;7.50594
1CBW G I 99;1CBW I C 14;10.7956
1CBW G I 99;1CBW I C 38;12.112
1CBW G I 99;1CBW I R 39;11.5428
1CBW G N 100;1CBW G N 101;41.8321
1CBW G N 100;1CBW G D 102;2.15082
1CBW G N 100;1CBW H K 177;16.1408
1CBW G N 100;1CBW H D 178;15.8011
1CBW G N 100;1CBW H A 179;13.0311
1CBW G N 100;1CBW H M 180;14.0653
1CBW G N 101;1CBW G D 102;18.3596
1CBW G N 101;1CBW G I 103;9.28469
1CBW G N 101;1CBW H D 178;2.41932
1CBW G N 101;1CBW H A 179;17.2918
1CBW G N 101;1CBW H M 180;0.0138198
1CBW G N 101;1CBW H A 229;0.115331
1CBW G N 101;1CBW H L 234;19.5143
1CBW G D 102;1CBW G I 103;18.0196
1CBW G D 102;1CBW H A 179;0.428126
1CBW G D 102;1CBW H I 212;4.88452
1CBW G D 102;1CBW H S 214;17.2662
1CBW G D 102;1CBW H A 229;20.7982
1CBW G D 102;1CBW H L 234;0.823219
1CBW G D 102;1CBW I C 14;0.540741
1CBW G I 103;1CBW G T 104;23.1532
1CBW G I 103;1CBW G L 105;1.0811
1CBW G I 103;1CBW H I 212;14.6086
1CBW G I 103;1CBW H A 229;2.31877
1CBW G I 103;1CBW H V 231;5.17246
1CBW G I 103;1CBW H L 234;23.9361
1CBW G I 103;1CBW H W 237;17.7825
1CBW G I 103;1CBW H V 238;10.4612
1CBW G T 104;1CBW G L 105;22.872
1CBW G T 104;1CBW G L 106;7.0687
1CBW G T 104;1CBW H W 237;3.68625
1CBW G L 105;1CBW G L 106;19.7594
1CBW G L 105;1CBW G K 107;0.052878
1CBW G L 105;1CBW H W 237;16.1638
1CBW G L 105;1CBW H V 238;19.3348
1CBW G L 105;1CBW H T 241;12.6559
1CBW G L 105;1CBW H L 242;9.4644
1CBW G L 106;1CBW G K 107;17.4472
1CBW G L 106;1CBW G L 108;7.09052
1CBW G K 107;1CBW G L 108;26.2394
1CBW G K 107;1CBW H A 244;5.68909
1CBW G K 107;1CBW H N 245;12.0387
1CBW G L 108;1CBW G S 109;18.6455
1CBW G L 108;1CBW G T 110;16.5873
1CBW G L 108;1CBW G A 111;2.86927
1CBW G L 108;1CBW G A 112;4.25302
1CBW G S 109;1CBW G T 110;36.1504
1CBW G T 110;1CBW G A 111;36.8193
1CBW G T 110;1CBW G A 112;0.00520344
1CBW G A 111;1CBW G A 112;23.3999
1CBW G A 111;1CBW G S 113;4.42113
1CBW G A 112;1CBW G S 113;23.7604
1CBW G A 112;1CBW G F 114;15.1261
1CBW G A 112;1CBW G V 118;8.16138
1CBW G S 113;1CBW G F 114;30.0705
1CBW G S 113;1CBW G S 115;3.73335
1CBW G S 113;1CBW G V 118;5.73175
1CBW G F 114;1CBW G S 115;29.3532
1CBW G F 114;1CBW G V 118;15.1336
1CBW G F 114;1CBW G S 119;18.4683
1CBW G F 114;1CBW G A 120;16.5217
1CBW G S 115;1CBW G Q 116;30.7824
1CBW G S 115;1CBW G T 117;13.0617
1CBW G S 115;1CBW G V 118;24.2391
1CBW G S 115;1CBW G S 119;8.91928
1CBW G Q 116;1CBW G T 117;25.413
1CBW G Q 116;1CBW G V 118;0.719598
1CBW G Q 116;1CBW G S 119;0.919448
1CBW G T 117;1CBW G V 118;24.5672
1CBW G V 118;1CBW G S 119;18.7071
1CBW G S 119;1CBW G A 120;27.7127
1CBW G A 120;1CBW G V 121;19.1695
1CBW G V 121;1CBW G C 122;23.6944
1CBW G V 121;1CBW G L 123;7.72797
1CBW G V 121;1CBW H P 198;0.117405
1CBW G V 121;1CBW H V 200;8.96091
1CBW G V 121;1CBW H W 207;7.61326
1CBW G V 121;1CBW H T 208;1.75757
1CBW G V 121;1CBW H L 209;19.5625
1CBW G C 122;1CBW G L 123;26.6097
1CBW G C 122;1CBW G P 124;0.649853
1CBW G C 122;1CBW H K 203;5.6303
1CBW G C 122;1CBW H A 206;13.1343
1CBW G C 122;1CBW H W 207;9.09959
1CBW G C 122;1CBW H T 208;16.9019
1CBW G C 122;1CBW H L 209;7.38237
1CBW G L 123;1CBW G P 124;32.9939
1CBW G L 123;1CBW H K 203;5.05003
1CBW G L 123;1CBW H T 208;3.54299
1CBW G L 123;1CBW H L 209;14.1023
1CBW G L 123;1CBW H V 231;8.97261
1CBW G L 123;1CBW H V 235;10.9721
1CBW G L 123;1CBW H V 238;16.9271
1CBW G L 123;1CBW H Q 239;13.501
1CBW G L 123;1CBW H L 242;6.46433
1CBW G P 124;1CBW G S 125;27.3882
1CBW G P 124;1CBW G A 126;0.00701695
1CBW G P 124;1CBW G D 128;8.03836
1CBW G P 124;1CBW G F 130;10.148
1CBW G P 124;1CBW H K 203;4.12534
1CBW G P 124;1CBW H T 208;14.2007
1CBW G P 124;1CBW H L 209;12.2304
1CBW G P 124;1CBW H V 210;1.75041
1CBW G P 124;1CBW H V 231;11.0723
1CBW G P 124;1CBW H T 232;14.3279
1CBW G P 124;1CBW H V 235;17.7566
1CBW G P 124;1CBW H Q 239;0.767506
1CBW G S 125;1CBW G A 126;24.0102
1CBW G S 125;1CBW G S 127;18.4075
1CBW G S 125;1CBW G D 128;29.8439
1CBW G S 125;1CBW H K 203;1.36943
1CBW G S 125;1CBW H T 232;6.90411
1CBW G S 125;1CBW H V 235;2.12341
1CBW G A 126;1CBW G S 127;26.1041
1CBW G A 126;1CBW G D 128;6.76502
1CBW G A 126;1CBW H T 232;22.0629
1CBW G A 126;1CBW H V 235;14.9588
1CBW G A 126;1CBW H N 236;19.1675
1CBW G S 127;1CBW G D 128;26.824
1CBW G S 127;1CBW G D 129;6.50485
1CBW G D 128;1CBW G D 129;30.1853
1CBW G D 128;1CBW G F 130;14.2603
1CBW G D 128;1CBW H K 203;24.0691
1CBW G D 128;1CBW H T 232;14.378
1CBW G D 129;1CBW G F 130;35.7484
1CBW G D 129;1CBW G A 131;14.1627
1CBW G F 130;1CBW G A 131;26.4618
1CBW G F 130;1CBW G A 132;3.06035
1CBW G F 130;1CBW G T 134;5.06934
1CBW G F 130;1CBW H L 162;16.8226
1CBW G F 130;1CBW H I 181;5.93885
1CBW G F 130;1CBW H C 201;13.7518
1CBW G F 130;1CBW H K 202;2.57775
1CBW G F 130;1CBW H K 203;15.0553
1CBW G F 130;1CBW H T 208;10.3928
1CBW G F 130;1CBW H V 210;28.6813
1CBW G F 130;1CBW H T 232;15.074
1CBW G A 131;1CBW G A 132;29.3429
1CBW G A 131;1CBW G G 133;0.239325
1CBW G A 131;1CBW G T 134;27.1923
1CBW G A 131;1CBW H L 162;8.27123
1CBW G A 132;1CBW G G 133;22.9204
1CBW G A 132;1CBW G T 134;3.42451
1CBW G A 132;1CBW H L 162;10.3232
1CBW G A 132;1CBW H L 163;10.6144
1CBW G A 132;1CBW H S 164;18.9548
1CBW G G 133;1CBW G T 134;21.8848
1CBW G G 133;1CBW G T 135;11.305
1CBW G G 133;1CBW H P 161;15.4379
1CBW G G 133;1CBW H L 162;12.3187
1CBW G G 133;1CBW H L 163;1.29641
1CBW G T 134;1CBW G T 135;27.0364
1CBW G T 134;1CBW G C 136;13.8489
1CBW G T 134;1CBW H L 160;1.26447
1CBW G T 134;1CBW H P 161;3.55279
1CBW G T 134;1CBW H L 162;16.0818
1CBW G T 134;1CBW H C 201;10.4306
1CBW G T 134;1CBW H K 202;1.49902
1CBW G T 135;1CBW G C 136;24.9587
1CBW G T 135;1CBW G V 137;2.99961
1CBW G T 135;1CBW H S 159;15.7982
1CBW G T 135;1CBW H L 160;7.68713
1CBW G T 135;1CBW H P 161;9.59641
1CBW G T 135;1CBW H C 201;2.25824
1CBW G T 135;1CBW H K 202;1.58642
1CBW G T 135;1CBW H W 207;3.60284
1CBW G C 136;1CBW G V 137;21.3984
1CBW G C 136;1CBW H S 159;4.56884
1CBW G C 136;1CBW H L 160;19.8035
1CBW G C 136;1CBW H L 162;11.0431
1CBW G C 136;1CBW H L 199;9.59528
1CBW G C 136;1CBW H V 200;7.54092
1CBW G C 136;1CBW H C 201;20.1688
1CBW G C 136;1CBW H W 207;2.38713
1CBW G V 137;1CBW G T 138;20.2608
1CBW G V 137;1CBW G T 139;8.85853
1CBW G V 137;1CBW H Q 157;8.29118
1CBW G V 137;1CBW H A 158;12.7795
1CBW G V 137;1CBW H S 159;10.8594
1CBW G V 137;1CBW H L 160;4.07378
1CBW G V 137;1CBW H P 198;1.38986
1CBW G V 137;1CBW H L 199;7.94412
1CBW G V 137;1CBW H V 200;24.0746
1CBW G V 137;1CBW H W 207;11.8801
1CBW G T 138;1CBW G T 139;25.8217
1CBW G T 138;1CBW H Q 157;2.8299
1CBW G T 138;1CBW H A 158;18.7767
1CBW G T 138;1CBW H L 160;17.439
1CBW G T 138;1CBW H V 188;0.0244946
1CBW G T 138;1CBW H S 190;10.0581
1CBW G T 138;1CBW H D 194;0.614894
1CBW G T 138;1CBW H P 198;11.7764
1CBW G T 138;1CBW H L 199;9.3831
1CBW G T 138;1CBW H V 213;10.006
1CBW G T 138;1CBW H Y 228;9.66883
1CBW G T 139;1CBW G G 140;19.907
1CBW G T 139;1CBW H L 155;7.45534
1CBW G T 139;1CBW H Q 156;8.01576
1CBW G T 139;1CBW H Q 157;8.54464
1CBW G T 139;1CBW H D 194;4.61624
1CBW G T 139;1CBW H G 197;4.45521
1CBW G T 139;1CBW H P 198;21.8961
1CBW G T 139;1CBW H V 200;2.61354
1CBW G T 139;1CBW H V 213;1.91374
1CBW G G 140;1CBW G W 141;24.1085
1CBW G G 140;1CBW G G 142;2.43579
1CBW G G 140;1CBW H P 152;0.30328
1CBW G G 140;1CBW H L 155;11.5319
1CBW G G 140;1CBW H Q 156;17.5854
1CBW G G 140;1CBW H G 193;0.201292
1CBW G G 140;1CBW H D 194;12.6601
1CBW G G 140;1CBW H G 197;0.166382
1CBW G W 141;1CBW G G 142;20.5082
1CBW G W 141;1CBW H T 151;11.98
1CBW G W 141;1CBW H P 152;21.7978
1CBW G W 141;1CBW H D 153;7.41313
1CBW G W 141;1CBW H R 154;3.43633
1CBW G W 141;1CBW H L 155;28.9962
1CBW G W 141;1CBW H Q 156;0.0485021
1CBW G W 141;1CBW H G 193;3.35263
1CBW G W 141;1CBW H D 194;1.47682
1CBW G G 142;1CBW G L 143;18.2118
1CBW G G 142;1CBW G T 144;2.48971
1CBW G G 142;1CBW H T 151;2.88921
1CBW G G 142;1CBW H P 152;9.53533
1CBW G G 142;1CBW H Q 156;0.542227
1CBW G G 142;1CBW H C 191;2.07922
1CBW G G 142;1CBW H M 192;4.88678
1CBW G G 142;1CBW H G 193;9.69693
1CBW G G 142;1CBW H D 194;11.9746
1CBW G L 143;1CBW G T 144;18.5026
1CBW G L 143;1CBW G R 145;15.3724
1CBW G L 143;1CBW G Y 146;13.3163
1CBW G L 143;1CBW H A 149;24.4363
1CBW G L 143;1CBW H N 150;10.1825
1CBW G L 143;1CBW H T 151;13.0027
1CBW G L 143;1CBW H P 152;3.933
1CBW G L 143;1CBW H C 191;19.6265
1CBW G L 143;1CBW H M 192;26.0911
1CBW G L 143;1CBW I R 17;7.63958
1CBW G T 144;1CBW G R 145;32.456
1CBW G T 144;1CBW H N 150;4.37129
1CBW G T 144;1CBW H P 152;21.9848
1CBW G T 144;1CBW H Q 156;15.6566
1CBW G R 145;1CBW G Y 146;43.1447
1CBW G R 145;1CBW H A 149;18.8833
1CBW G R 145;1CBW H C 191;0.68684
1CBW G Y 146;1CBW H A 149;6.68775
1CBW G Y 146;1CBW H C 191;7.3461
1CBW G Y 146;1CBW H M 192;16.8415
1CBW G Y 146;1CBW H S 218;13.5124
1CBW G Y 146;1CBW H T 219;35.7884
1CBW G Y 146;1CBW H C 220;9.60527
1CBW G Y 146;1CBW I T 11;15.1478
1CBW H A 149;1CBW H N 150;24.1626
1CBW H A 149;1CBW I R 17;3.08054
1CBW H N 150;1CBW H T 151;41.7296
1CBW H N 150;1CBW H P 152;4.2407
1CBW H N 150;1CBW I R 17;11.6375
1CBW H T 151;1CBW H P 152;32.5633
1CBW H T 151;1CBW H D 153;5.39157
1CBW H T 151;1CBW H M 192;2.02251
1CBW H T 151;1CBW H G 193;2.33065
1CBW H T 151;1CBW I R 17;25.3383
1CBW H P 152;1CBW H D 153;28.0339
1CBW H P 152;1CBW H R 154;7.96759
1CBW H P 152;1CBW H Q 156;17.0082
1CBW H D 153;1CBW H R 154;32.2431
1CBW H D 153;1CBW H L 155;0.206747
1CBW H R 154;1CBW H L 155;20.0812
1CBW H R 154;1CBW H Q 156;15.286
1CBW H L 155;1CBW H Q 156;24.895
1CBW H Q 156;1CBW H Q 157;19.1374
1CBW H Q 157;1CBW H A 158;25.2158
1CBW H Q 157;1CBW H S 159;1.87881
1CBW H A 158;1CBW H S 159;26.506
1CBW H A 158;1CBW H L 160;6.16337
1CBW H A 158;1CBW H V 188;17.0219
1CBW H S 159;1CBW H L 160;21.1088
1CBW H S 159;1CBW H P 161;1.90349
1CBW H S 159;1CBW H S 186;2.4791
1CBW H S 159;1CBW H V 188;10.6459
1CBW H L 160;1CBW H P 161;27.7398
1CBW H L 160;1CBW H L 162;1.49108
1CBW H L 160;1CBW H A 183;12.5289
1CBW H L 160;1CBW H G 184;12.413
1CBW H L 160;1CBW H S 186;3.75734
1CBW H L 160;1CBW H V 188;15.5007
1CBW H L 160;1CBW H S 189;3.15442
1CBW H L 160;1CBW H S 190;0.91822
1CBW H L 160;1CBW H L 199;12.7806
1CBW H L 160;1CBW H Y 228;12.6607
1CBW H P 161;1CBW H L 162;21.0842
1CBW H P 161;1CBW H L 163;12.9151
1CBW H P 161;1CBW H A 183;7.7422
1CBW H P 161;1CBW H G 184;16.4769
1CBW H P 161;1CBW H S 186;18.9782
1CBW H L 162;1CBW H L 163;28.1245
1CBW H L 162;1CBW H I 181;16.8263
1CBW H L 162;1CBW H C 182;3.39656
1CBW H L 162;1CBW H A 183;9.77173
1CBW H L 162;1CBW H L 199;12.4166
1CBW H L 162;1CBW H C 201;7.65137
1CBW H L 162;1CBW H V 210;8.13257
1CBW H L 163;1CBW H S 164;25.6768
1CBW H L 163;1CBW H N 165;6.54078
1CBW H L 163;1CBW H N 167;21.8424
1CBW H L 163;1CBW H C 168;9.6786
1CBW H L 163;1CBW H I 181;8.95869
1CBW H L 163;1CBW H C 182;22.4086
1CBW H L 163;1CBW H A 183;8.41868
1CBW H L 163;1CBW H G 184;12.1471
1CBW H L 163;1CBW H A 185;6.41116
1CBW H L 163;1CBW H P 225;12.0775
1CBW H L 163;1CBW H R 230;0.137337
1CBW H S 164;1CBW H N 165;20.3723
1CBW H S 164;1CBW H T 166;15.6351
1CBW H S 164;1CBW H N 167;25.3778
1CBW H S 164;1CBW H C 168;8.1767
1CBW H N 165;1CBW H T 166;20.8
1CBW H N 165;1CBW H C 168;10.4391
1CBW H N 165;1CBW H K 169;31.332
1CBW H N 165;1CBW H I 176;12.9274
1CBW H N 165;1CBW H K 177;6.29931
1CBW H N 165;1CBW H D 178;4.95967
1CBW H N 165;1CBW H M 180;8.29303
1CBW H N 165;1CBW H I 181;5.82301
1CBW H N 165;1CBW H C 182;7.26899
1CBW H N 165;1CBW H R 230;17.2629
1CBW H T 166;1CBW H N 167;16.9762
1CBW H T 166;1CBW H C 168;2.11808
1CBW H T 166;1CBW H K 169;16.8569
1CBW H T 166;1CBW H K 170;27.3259
1CBW H N 167;1CBW H C 168;21.2149
1CBW H N 167;1CBW H K 169;0.0318328
1CBW H N 167;1CBW H K 170;35.9935
1CBW H N 167;1CBW H Y 171;2.16034
1CBW H N 167;1CBW H P 225;0.246638
1CBW H C 168;1CBW H K 169;14.6557
1CBW H C 168;1CBW H K 170;3.33293
1CBW H C 168;1CBW H Y 171;9.28298
1CBW H C 168;1CBW H W 172;12.189
1CBW H C 168;1CBW H I 176;11.0168
1CBW H C 168;1CBW H C 182;21.8241
1CBW H C 168;1CBW H P 225;12.9612
1CBW H C 168;1CBW H V 227;1.4592
1CBW H K 169;1CBW H K 170;20.69
1CBW H K 169;1CBW H Y 171;2.59786
1CBW H K 169;1CBW H W 172;1.8794
1CBW H K 169;1CBW H G 173;32.9854
1CBW H K 169;1CBW H T 174;3.76816
1CBW H K 169;1CBW H I 176;31.5311
1CBW H K 169;1CBW H K 177;2.57065
1CBW H K 170;1CBW H Y 171;27.1874
1CBW H K 170;1CBW H G 173;0.759059
1CBW H Y 171;1CBW H W 172;54.7818
1CBW H Y 171;1CBW H G 173;7.84648
1CBW H Y 171;1CBW H S 217;4.34474
1CBW H Y 171;1CBW H S 223;0.0118425
1CBW H Y 171;1CBW H T 224;28.771
1CBW H Y 171;1CBW H P 225;13.8555
1CBW H W 172;1CBW H G 173;20.4482
1CBW H W 172;1CBW H T 174;2.79038
1CBW H W 172;1CBW H K 175;25.7795
1CBW H W 172;1CBW H I 176;15.9806
1CBW H W 172;1CBW H W 215;24.9897
1CBW H W 172;1CBW H G 216;11.3362
1CBW H W 172;1CBW H S 217;14.7702
1CBW H W 172;1CBW H S 218;0.682953
1CBW H W 172;1CBW H T 224;6.13704
1CBW H W 172;1CBW H P 225;17.9051
1CBW H W 172;1CBW H V 227;10.3166
1CBW H W 172;1CBW I P 13;2.37014
1CBW H G 173;1CBW H T 174;27.5975
1CBW H G 173;1CBW H K 175;1.08544
1CBW H G 173;1CBW H I 176;6.29361
1CBW H T 174;1CBW H K 175;29.9339
1CBW H T 174;1CBW H I 176;9.22218
1CBW H T 174;1CBW H K 177;14.7472
1CBW H K 175;1CBW H I 176;17.1228
1CBW H K 175;1CBW H K 177;16.3629
1CBW H K 175;1CBW H M 180;5.39627
1CBW H K 175;1CBW H W 215;19.0596
1CBW H I 176;1CBW H K 177;30.1512
1CBW H I 176;1CBW H M 180;15.4329
1CBW H I 176;1CBW H C 182;11.3848
1CBW H I 176;1CBW H W 215;6.68957
1CBW H I 176;1CBW H V 227;10.4886
1CBW H K 177;1CBW H D 178;30.8169
1CBW H K 177;1CBW H A 179;2.30473
1CBW H K 177;1CBW H M 180;28.6306
1CBW H D 178;1CBW H A 179;24.3748
1CBW H D 178;1CBW H M 180;3.93776
1CBW H D 178;1CBW H R 230;12.1313
1CBW H D 178;1CBW H A 233;4.17009
1CBW H A 179;1CBW H M 180;21.1251
1CBW H A 179;1CBW H A 229;7.68686
1CBW H A 179;1CBW H R 230;11.1083
1CBW H A 179;1CBW H A 233;11.8922
1CBW H A 179;1CBW H L 234;14.4996
1CBW H M 180;1CBW H I 181;18.7326
1CBW H M 180;1CBW H C 182;0.905459
1CBW H M 180;1CBW H S 214;1.08071
1CBW H M 180;1CBW H W 215;16.8276
1CBW H M 180;1CBW H V 227;12.6739
1CBW H M 180;1CBW H Y 228;6.27817
1CBW H M 180;1CBW H A 229;4.14657
1CBW H M 180;1CBW H R 230;15.0833
1CBW H I 181;1CBW H C 182;31.2018
1CBW H I 181;1CBW H L 199;7.28263
1CBW H I 181;1CBW H V 210;15.8282
1CBW H I 181;1CBW H G 211;5.28044
1CBW H I 181;1CBW H V 227;4.80192
1CBW H I 181;1CBW H Y 228;25.8675
1CBW H I 181;1CBW H A 229;2.29873
1CBW H I 181;1CBW H R 230;37.6235
1CBW H C 182;1CBW H A 183;20.1298
1CBW H C 182;1CBW H L 199;0.246093
1CBW H C 182;1CBW H P 225;5.96373
1CBW H C 182;1CBW H G 226;5.30118
1CBW H C 182;1CBW H V 227;10.871
1CBW H C 182;1CBW H Y 228;2.8029
1CBW H A 183;1CBW H G 184;18.2778
1CBW H A 183;1CBW H A 185;0.0792922
1CBW H A 183;1CBW H L 199;9.85561
1CBW H A 183;1CBW H P 225;7.55643
1CBW H A 183;1CBW H G 226;13.6735
1CBW H A 183;1CBW H Y 228;14.7834
1CBW H G 184;1CBW H A 185;23.6867
1CBW H G 184;1CBW H S 186;13.7806
1CBW H G 184;1CBW H V 188;4.76571
1CBW H G 184;1CBW H P 225;1.41254
1CBW H G 184;1CBW H G 226;0.427548
1CBW H A 185;1CBW H S 186;20.3381
1CBW H A 185;1CBW H G 187;3.82976
1CBW H A 185;1CBW H V 188;5.44839
1CBW H A 185;1CBW H T 222;7.62816
1CBW H A 185;1CBW H S 223;22.7584
1CBW H A 185;1CBW H T 224;9.7335
1CBW H A 185;1CBW H P 225;17.0279
1CBW H A 185;1CBW H G 226;1.07255
1CBW H S 186;1CBW H G 187;23.3531
1CBW H S 186;1CBW H V 188;21.1252
1CBW H S 186;1CBW H T 222;1.16227
1CBW H G 187;1CBW H V 188;20.4042
1CBW H G 187;1CBW H T 222;25.3405
1CBW H G 187;1CBW H S 223;0.608737
1CBW H V 188;1CBW H S 189;27.0528
1CBW H V 188;1CBW H T 222;14.8676
1CBW H V 188;1CBW H T 224;2.3061
1CBW H S 189;1CBW H S 190;33.342
1CBW H S 189;1CBW H C 191;2.12857
1CBW H S 189;1CBW H S 217;2.99276
1CBW H S 189;1CBW H C 220;15.6211
1CBW H S 189;1CBW H S 221;8.29714
1CBW H S 189;1CBW H T 222;7.60065
1CBW H S 189;1CBW H T 224;4.11805
1CBW H S 189;1CBW H G 226;9.51343
1CBW H S 189;1CBW H Y 228;0.273054
1CBW H S 189;1CBW I K 15;1.502
1CBW H S 190;1CBW H C 191;17.3628
1CBW H S 190;1CBW H D 194;10.6863
1CBW H S 190;1CBW H V 213;15.76
1CBW H S 190;1CBW H C 220;4.22049
1CBW H S 190;1CBW H G 226;6.79521
1CBW H S 190;1CBW H Y 228;16.6861
1CBW H S 190;1CBW I K 15;14.917
1CBW H C 191;1CBW H M 192;24.0392
1CBW H C 191;1CBW H G 193;1.07139
1CBW H C 191;1CBW H D 194;17.2694
1CBW H C 191;1CBW H C 220;17.3753
1CBW H C 191;1CBW I K 15;13.9601
1CBW H M 192;1CBW H G 193;14.4149
1CBW H M 192;1CBW H D 194;0.233136
1CBW H M 192;1CBW H S 217;0.0013118
1CBW H M 192;1CBW H S 218;6.64534
1CBW H M 192;1CBW H T 219;0.0157329
1CBW H M 192;1CBW H C 220;8.55494
1CBW H M 192;1CBW I T 11;17.4845
1CBW H M 192;1CBW I G 12;1.38647
1CBW H M 192;1CBW I C 14;4.97292
1CBW H M 192;1CBW I K 15;22.2508
1CBW H M 192;1CBW I A 16;8.85841
1CBW H M 192;1CBW I R 17;11.2856
1CBW H M 192;1CBW I V 34;11.5923
1CBW H M 192;1CBW I G 36;4.65576
1CBW H G 193;1CBW H D 194;18.8917
1CBW H G 193;1CBW H S 195;2.97783
1CBW H G 193;1CBW I K 15;5.77355
1CBW H G 193;1CBW I A 16;5.4111
1CBW H G 193;1CBW I R 17;12.29
1CBW H D 194;1CBW H S 195;19.4157
1CBW H D 194;1CBW H G 197;8.3337
1CBW H D 194;1CBW H V 213;17.3201
1CBW H D 194;1CBW I K 15;3.73338
1CBW H S 195;1CBW H G 196;15.3102
1CBW H S 195;1CBW H G 197;3.60962
1CBW H S 195;1CBW H V 213;10.8719
1CBW H S 195;1CBW H S 214;2.16597
1CBW H S 195;1CBW I K 15;17.4975
1CBW H S 195;1CBW I A 16;7.97678
1CBW H G 196;1CBW H G 197;20.0207
1CBW H G 196;1CBW H I 212;10.3096
1CBW H G 196;1CBW H V 213;7.69085
1CBW H G 197;1CBW H P 198;25.282
1CBW H G 197;1CBW H L 209;1.28973
1CBW H G 197;1CBW H I 212;11.4817
1CBW H G 197;1CBW H V 213;13.3585
1CBW H P 198;1CBW H L 199;18.7136
1CBW H P 198;1CBW H V 200;12.6607
1CBW H P 198;1CBW H L 209;10.9613
1CBW H P 198;1CBW H G 211;2.14451
1CBW H P 198;1CBW H I 212;1.04192
1CBW H P 198;1CBW H V 213;5.79755
1CBW H P 198;1CBW H Y 228;0.200797
1CBW H L 199;1CBW H V 200;19.795
1CBW H L 199;1CBW H C 201;3.09563
1CBW H L 199;1CBW H L 209;5.01629
1CBW H L 199;1CBW H V 210;15.3057
1CBW H L 199;1CBW H G 211;23.4222
1CBW H L 199;1CBW H I 212;0.362863
1CBW H L 199;1CBW H V 213;0.387778
1CBW H L 199;1CBW H Y 228;24.5126
1CBW H V 200;1CBW H C 201;18.4509
1CBW H V 200;1CBW H W 207;22.6798
1CBW H V 200;1CBW H T 208;8.40205
1CBW H V 200;1CBW H L 209;9.08571
1CBW H V 200;1CBW H V 210;1.04716
1CBW H C 201;1CBW H K 202;24.9217
1CBW H C 201;1CBW H K 203;1.67372
1CBW H C 201;1CBW H A 206;0.411286
1CBW H C 201;1CBW H W 207;10.9947
1CBW H C 201;1CBW H T 208;16.4769
1CBW H C 201;1CBW H V 210;18.2269
1CBW H K 202;1CBW H K 203;20.6656
1CBW H K 202;1CBW H N 204;6.20795
1CBW H K 202;1CBW H G 205;27.5411
1CBW H K 202;1CBW H A 206;10.4807
1CBW H K 202;1CBW H W 207;40.1264
1CBW H K 203;1CBW H N 204;38.025
1CBW H K 203;1CBW H G 205;0.10594
1CBW H K 203;1CBW H A 206;21.2899
1CBW H K 203;1CBW H T 208;23.8404
1CBW H N 204;1CBW H G 205;27.8435
1CBW H N 204;1CBW H A 206;10.8983
1CBW H G 205;1CBW H A 206;18.3948
1CBW H G 205;1CBW H W 207;3.71661
1CBW H A 206;1CBW H W 207;16.996
1CBW H A 206;1CBW H T 208;7.21967
1CBW H W 207;1CBW H T 208;16.3709
1CBW H T 208;1CBW H L 209;18.0237
1CBW H T 208;1CBW H V 210;8.76724
1CBW H L 209;1CBW H V 210;18.9053
1CBW H L 209;1CBW H G 211;8.1459
1CBW H L 209;1CBW H I 212;9.9466
1CBW H L 209;1CBW H V 231;21.7723
1CBW H V 210;1CBW H G 211;18.7831
1CBW H V 210;1CBW H R 230;5.97035
1CBW H V 210;1CBW H V 231;11.5751
1CBW H V 210;1CBW H T 232;7.08635
1CBW H G 211;1CBW H I 212;18.8622
1CBW H G 211;1CBW H Y 228;4.89252
1CBW H G 211;1CBW H A 229;5.83132
1CBW H G 211;1CBW H R 230;0.750678
1CBW H G 211;1CBW H V 231;6.9897
1CBW H I 212;1CBW H V 213;23.5191
1CBW H I 212;1CBW H S 214;3.99583
1CBW H I 212;1CBW H Y 228;9.83227
1CBW H I 212;1CBW H A 229;25.8751
1CBW H I 212;1CBW H V 231;13.627
1CBW H I 212;1CBW H L 234;0.62964
1CBW H V 213;1CBW H S 214;25.2666
1CBW H V 213;1CBW H W 215;0.708645
1CBW H V 213;1CBW H V 227;0.578598
1CBW H V 213;1CBW H Y 228;20.045
1CBW H V 213;1CBW I K 15;10.9901
1CBW H S 214;1CBW H W 215;29.9261
1CBW H S 214;1CBW H V 227;10.6153
1CBW H S 214;1CBW H Y 228;7.30083
1CBW H S 214;1CBW H A 229;8.99544
1CBW H S 214;1CBW I C 14;6.69811
1CBW H S 214;1CBW I K 15;7.91419
1CBW H W 215;1CBW H G 216;26.7721
1CBW H W 215;1CBW H G 226;3.69003
1CBW H W 215;1CBW H V 227;44.1135
1CBW H W 215;1CBW I P 13;21.0658
1CBW H W 215;1CBW I C 14;9.82512
1CBW H W 215;1CBW I K 15;10.1517
1CBW H G 216;1CBW H S 217;22.4783
1CBW H G 216;1CBW H S 218;3.56047
1CBW H G 216;1CBW H P 225;2.82857
1CBW H G 216;1CBW H G 226;7.53036
1CBW H G 216;1CBW H V 227;3.28446
1CBW H G 216;1CBW I P 13;15.7464
1CBW H G 216;1CBW I K 15;11.9863
1CBW H S 217;1CBW H S 218;21.3237
1CBW H S 217;1CBW H T 219;12.4486
1CBW H S 217;1CBW H C 220;11.4313
1CBW H S 217;1CBW H S 221;17.3189
1CBW H S 217;1CBW H T 224;14.986
1CBW H S 217;1CBW H P 225;1.02366
1CBW H S 217;1CBW H G 226;0.730694
1CBW H S 217;1CBW I K 15;9.9371
1CBW H S 218;1CBW H T 219;29.5792
1CBW H S 218;1CBW H C 220;1.01575
1CBW H S 218;1CBW I Y 10;3.94194
1CBW H S 218;1CBW I T 11;4.97653
1CBW H S 218;1CBW I G 12;14.4946
1CBW H S 218;1CBW I P 13;12.1604
1CBW H S 218;1CBW I K 15;4.38369
1CBW H T 219;1CBW H C 220;23.0742
1CBW H T 219;1CBW H S 221;15.9478
1CBW H C 220;1CBW H S 221;18.4283
1CBW H C 220;1CBW H T 222;6.43064
1CBW H C 220;1CBW I K 15;8.07463
1CBW H S 221;1CBW H T 222;21.3067
1CBW H S 221;1CBW H S 223;14.4996
1CBW H S 221;1CBW H T 224;26.3474
1CBW H T 222;1CBW H S 223;24.3879
1CBW H T 222;1CBW H T 224;3.39386
1CBW H S 223;1CBW H T 224;27.3326
1CBW H S 223;1CBW H P 225;1.78792
1CBW H T 224;1CBW H P 225;27.6778
1CBW H T 224;1CBW H G 226;4.77869
1CBW H P 225;1CBW H G 226;23.0972
1CBW H P 225;1CBW H V 227;4.45281
1CBW H G 226;1CBW H V 227;19.9268
1CBW H G 226;1CBW H Y 228;14.7966
1CBW H V 227;1CBW H Y 228;28.2836
1CBW H Y 228;1CBW H A 229;19.1212
1CBW H Y 228;1CBW H R 230;1.06505
1CBW H A 229;1CBW H R 230;16.062
1CBW H A 229;1CBW H V 231;4.5536
1CBW H A 229;1CBW H L 234;9.51427
1CBW H R 230;1CBW H V 231;15.292
1CBW H R 230;1CBW H T 232;24.7576
1CBW H R 230;1CBW H A 233;21.0034
1CBW H R 230;1CBW H L 234;12.6201
1CBW H V 231;1CBW H T 232;16.4366
1CBW H V 231;1CBW H A 233;3.15429
1CBW H V 231;1CBW H L 234;12.5123
1CBW H V 231;1CBW H V 235;18.5775
1CBW H V 231;1CBW H V 238;5.88173
1CBW H T 232;1CBW H A 233;22.6678
1CBW H T 232;1CBW H V 235;10.3567
1CBW H A 233;1CBW H L 234;29.5356
1CBW H A 233;1CBW H V 235;3.47323
1CBW H A 233;1CBW H N 236;4.76841
1CBW H A 233;1CBW H W 237;0.673402
1CBW H L 234;1CBW H V 235;15.9439
1CBW H L 234;1CBW H N 236;2.44546
1CBW H L 234;1CBW H W 237;21.1356
1CBW H L 234;1CBW H V 238;10.2405
1CBW H V 235;1CBW H N 236;25.4521
1CBW H V 235;1CBW H W 237;1.58893
1CBW H V 235;1CBW H V 238;15.7763
1CBW H V 235;1CBW H Q 239;24.6826
1CBW H N 236;1CBW H W 237;21.3776
1CBW H N 236;1CBW H V 238;0.10178
1CBW H N 236;1CBW H Q 239;24.0288
1CBW H N 236;1CBW H Q 240;14.0687
1CBW H W 237;1CBW H V 238;24.7336
1CBW H W 237;1CBW H Q 239;2.04935
1CBW H W 237;1CBW H Q 240;27.7707
1CBW H W 237;1CBW H T 241;25.8195
1CBW H V 238;1CBW H Q 239;18.499
1CBW H V 238;1CBW H Q 240;0.0200579
1CBW H V 238;1CBW H T 241;6.1632
1CBW H V 238;1CBW H L 242;17.881
1CBW H Q 239;1CBW H Q 240;20.2832
1CBW H Q 239;1CBW H T 241;2.85672
1CBW H Q 239;1CBW H L 242;19.0352
1CBW H Q 239;1CBW H A 243;10.778
1CBW H Q 240;1CBW H T 241;27.696
1CBW H Q 240;1CBW H A 243;21.4658
1CBW H Q 240;1CBW H N 245;1.62095
1CBW H T 241;1CBW H L 242;20.067
1CBW H T 241;1CBW H A 243;5.49703
1CBW H T 241;1CBW H N 245;15.6206
1CBW H L 242;1CBW H A 243;21.8661
1CBW H L 242;1CBW H A 244;8.94207
1CBW H L 242;1CBW H N 245;2.29468
1CBW H A 243;1CBW H A 244;28.4273
1CBW H A 243;1CBW H N 245;13.1598
1CBW H A 244;1CBW H N 245;33.051
1CBW I R 1;1CBW I P 2;38.4093
1CBW I R 1;1CBW I D 3;9.84841
1CBW I R 1;1CBW I C 5;0.0172196
1CBW I R 1;1CBW I L 6;2.31258
1CBW I R 1;1CBW I T 54;4.50697
1CBW I R 1;1CBW I G 56;1.4223
1CBW I R 1;1CBW I A 58;28.4158
1CBW I P 2;1CBW I D 3;22.5177
1CBW I P 2;1CBW I F 4;26.388
1CBW I P 2;1CBW I C 5;21.1522
1CBW I P 2;1CBW I L 6;3.46379
1CBW I P 2;1CBW I T 54;15.5525
1CBW I P 2;1CBW I C 55;0.143888
1CBW I P 2;1CBW I A 58;3.31045
1CBW I D 3;1CBW I F 4;23.5583
1CBW I D 3;1CBW I C 5;2.34136
1CBW I D 3;1CBW I L 6;27.9187
1CBW I D 3;1CBW I E 7;6.70201
1CBW I F 4;1CBW I C 5;21.6119
1CBW I F 4;1CBW I L 6;3.7356
1CBW I F 4;1CBW I E 7;17.8252
1CBW I F 4;1CBW I R 42;55.4672
1CBW I F 4;1CBW I N 43;19.7611
1CBW I F 4;1CBW I F 45;6.73662
1CBW I F 4;1CBW I T 54;14.498
1CBW I F 4;1CBW I C 55;7.4384
1CBW I C 5;1CBW I L 6;25.4524
1CBW I C 5;1CBW I E 7;0.105203
1CBW I C 5;1CBW I Y 23;18.3768
1CBW I C 5;1CBW I A 25;2.94594
1CBW I C 5;1CBW I N 43;10.1017
1CBW I C 5;1CBW I T 54;1.57227
1CBW I C 5;1CBW I C 55;21.7126
1CBW I C 5;1CBW I A 58;12.5476
1CBW I L 6;1CBW I E 7;28.1928
1CBW I L 6;1CBW I P 8;8.20341
1CBW I L 6;1CBW I Y 23;1.48192
1CBW I L 6;1CBW I A 25;20.7552
1CBW I L 6;1CBW I N 43;0.460242
1CBW I L 6;1CBW I A 58;15.1159
1CBW I E 7;1CBW I P 8;47.4112
1CBW I E 7;1CBW I P 9;0.96386
1CBW I E 7;1CBW I F 22;0.505431
1CBW I E 7;1CBW I Y 23;0.596194
1CBW I E 7;1CBW I K 41;22.3563
1CBW I E 7;1CBW I N 43;18.8976
1CBW I P 8;1CBW I P 9;43.6994
1CBW I P 8;1CBW I Y 10;4.95637
1CBW I P 8;1CBW I F 22;0.266197
1CBW I P 8;1CBW I K 41;8.59951
1CBW I P 8;1CBW I N 43;1.94308
1CBW I P 9;1CBW I Y 10;26.6142
1CBW I P 9;1CBW I T 11;1.92042
1CBW I P 9;1CBW I F 22;34.6806
1CBW I P 9;1CBW I F 33;21.5953
1CBW I P 9;1CBW I N 43;7.15342
1CBW I Y 10;1CBW I T 11;26.6477
1CBW I Y 10;1CBW I G 12;21.1815
1CBW I Y 10;1CBW I P 13;9.64653
1CBW I Y 10;1CBW I F 33;16.0662
1CBW I Y 10;1CBW I Y 35;8.32877
1CBW I Y 10;1CBW I C 38;0.366791
1CBW I Y 10;1CBW I R 39;28.6174
1CBW I Y 10;1CBW I A 40;3.26336
1CBW I Y 10;1CBW I K 41;47.3713
1CBW I Y 10;1CBW I N 43;2.01297
1CBW I Y 10;1CBW I N 44;4.26873
1CBW I T 11;1CBW I G 12;34.5507
1CBW I T 11;1CBW I C 14;1.71155
1CBW I T 11;1CBW I F 33;6.35155
1CBW I T 11;1CBW I V 34;16.2592
1CBW I T 11;1CBW I Y 35;11.4409
1CBW I T 11;1CBW I G 36;18.6687
1CBW I T 11;1CBW I G 37;0.917898
1CBW I T 11;1CBW I C 38;1.46127
1CBW I G 12;1CBW I P 13;21.8604
1CBW I G 12;1CBW I C 14;7.72696
1CBW I G 12;1CBW I K 15;1.32776
1CBW I G 12;1CBW I Y 35;0.401734
1CBW I G 12;1CBW I G 36;0.229876
1CBW I G 12;1CBW I C 38;6.58944
1CBW I G 12;1CBW I R 39;0.421468
1CBW I P 13;1CBW I C 14;21.0237
1CBW I P 13;1CBW I K 15;11.0621
1CBW I P 13;1CBW I C 38;8.88421
1CBW I P 13;1CBW I R 39;15.1485
1CBW I C 14;1CBW I K 15;21.0221
1CBW I C 14;1CBW I A 16;0.443318
1CBW I C 14;1CBW I G 36;18.6803
1CBW I C 14;1CBW I G 37;1.91218
1CBW I C 14;1CBW I C 38;23.2974
1CBW I K 15;1CBW I A 16;17.195
1CBW I K 15;1CBW I G 36;0.444385
1CBW I A 16;1CBW I R 17;19.0081
1CBW I A 16;1CBW I I 18;11.342
1CBW I A 16;1CBW I V 34;0.858658
1CBW I A 16;1CBW I Y 35;1.62038
1CBW I A 16;1CBW I G 36;16.0751
1CBW I A 16;1CBW I G 37;2.34371
1CBW I R 17;1CBW I I 18;22.348
1CBW I R 17;1CBW I I 19;0.842755
1CBW I R 17;1CBW I V 34;26.1229
1CBW I R 17;1CBW I Y 35;1.90099
1CBW I I 18;1CBW I I 19;31.8361
1CBW I I 18;1CBW I R 20;21.5009
1CBW I I 18;1CBW I F 33;1.58885
1CBW I I 18;1CBW I V 34;8.01336
1CBW I I 18;1CBW I Y 35;29.4767
1CBW I I 18;1CBW I G 36;0.630076
1CBW I I 18;1CBW I G 37;8.6503
1CBW I I 19;1CBW I R 20;29.4186
1CBW I I 19;1CBW I Y 21;5.7444
1CBW I I 19;1CBW I T 32;17.3849
1CBW I I 19;1CBW I F 33;6.67983
1CBW I I 19;1CBW I V 34;7.60995
1CBW I I 19;1CBW I K 46;0.640101
1CBW I R 20;1CBW I Y 21;24.3169
1CBW I R 20;1CBW I Q 31;0.056917
1CBW I R 20;1CBW I T 32;6.50303
1CBW I R 20;1CBW I F 33;27.2719
1CBW I R 20;1CBW I Y 35;31.245
1CBW I R 20;1CBW I A 40;3.74432
1CBW I R 20;1CBW I N 44;21.9132
1CBW I R 20;1CBW I F 45;11.6151
1CBW I R 20;1CBW I K 46;37.4508
1CBW I Y 21;1CBW I F 22;18.5135
1CBW I Y 21;1CBW I C 30;9.62157
1CBW I Y 21;1CBW I Q 31;10.9622
1CBW I Y 21;1CBW I T 32;19.8778
1CBW I Y 21;1CBW I F 33;6.63401
1CBW I Y 21;1CBW I N 44;4.8648
1CBW I Y 21;1CBW I F 45;22.5018
1CBW I Y 21;1CBW I K 46;8.77972
1CBW I Y 21;1CBW I S 47;14.872
1CBW I Y 21;1CBW I A 48;22.0931
1CBW I Y 21;1CBW I C 51;7.65614
1CBW I F 22;1CBW I Y 23;23.3525
1CBW I F 22;1CBW I N 24;23.2453
1CBW I F 22;1CBW I C 30;5.21062
1CBW I F 22;1CBW I Q 31;33.2995
1CBW I F 22;1CBW I T 32;6.77337
1CBW I F 22;1CBW I F 33;20.8895
1CBW I F 22;1CBW I N 43;20.3688
1CBW I F 22;1CBW I N 44;0.784208
1CBW I F 22;1CBW I F 45;2.46424
1CBW I F 22;1CBW I C 51;6.49383
1CBW I Y 23;1CBW I N 24;22.829
1CBW I Y 23;1CBW I A 25;22.8605
1CBW I Y 23;1CBW I G 28;17.1502
1CBW I Y 23;1CBW I L 29;8.5614
1CBW I Y 23;1CBW I C 30;11.5225
1CBW I Y 23;1CBW I N 43;19.2716
1CBW I Y 23;1CBW I F 45;0.400672
1CBW I Y 23;1CBW I C 51;10.1198
1CBW I Y 23;1CBW I M 52;4.05105
1CBW I Y 23;1CBW I C 55;23.9381
1CBW I Y 23;1CBW I G 56;5.90612
1CBW I Y 23;1CBW I G 57;15.0796
1CBW I Y 23;1CBW I A 58;15.673
1CBW I N 24;1CBW I A 25;18.8732
1CBW I N 24;1CBW I K 26;19.1658
1CBW I N 24;1CBW I A 27;18.0377
1CBW I N 24;1CBW I G 28;5.63293
1CBW I N 24;1CBW I L 29;16.4001
1CBW I N 24;1CBW I C 30;0.443854
1CBW I N 24;1CBW I Q 31;20.5844
1CBW I A 25;1CBW I K 26;28.1387
1CBW I A 25;1CBW I A 27;0.378425
1CBW I A 25;1CBW I G 28;6.36192
1CBW I A 25;1CBW I A 58;3.53224
1CBW I K 26;1CBW I A 27;19.5528
1CBW I K 26;1CBW I G 28;1.61269
1CBW I A 27;1CBW I G 28;17.125
1CBW I A 27;1CBW I L 29;24.0748
1CBW I A 27;1CBW I Q 31;8.104
1CBW I G 28;1CBW I L 29;19.8163
1CBW I G 28;1CBW I M 52;2.85363
1CBW I G 28;1CBW I G 56;0.025577
1CBW I G 28;1CBW I G 57;5.98138
1CBW I L 29;1CBW I C 30;27.7595
1CBW I L 29;1CBW I Q 31;15.0559
1CBW I L 29;1CBW I M 52;6.86824
1CBW I C 30;1CBW I Q 31;19.2817
1CBW I C 30;1CBW I A 48;10.2917
1CBW I C 30;1CBW I C 51;19.6116
1CBW I C 30;1CBW I M 52;22.9729
1CBW I C 30;1CBW I G 56;0.0358682
1CBW I Q 31;1CBW I T 32;25.5696
1CBW I Q 31;1CBW I F 33;0.166722
1CBW I T 32;1CBW I F 33;24.1263
1CBW I F 33;1CBW I V 34;34.6545
1CBW I F 33;1CBW I Y 35;12.9416
1CBW I F 33;1CBW I N 43;2.93938
1CBW I F 33;1CBW I N 44;16.2063
1CBW I V 34;1CBW I Y 35;20.8867
1CBW I V 34;1CBW I G 36;0.852856
1CBW I Y 35;1CBW I G 36;18.6949
1CBW I Y 35;1CBW I G 37;28.2983
1CBW I Y 35;1CBW I C 38;15.6766
1CBW I Y 35;1CBW I R 39;1.85635
1CBW I Y 35;1CBW I A 40;22.8265
1CBW I Y 35;1CBW I N 44;11.9703
1CBW I G 36;1CBW I G 37;15.1577
1CBW I G 36;1CBW I C 38;0.151564
1CBW I G 37;1CBW I C 38;20.8529
1CBW I C 38;1CBW I R 39;31.1815
1CBW I C 38;1CBW I A 40;1.29112
1CBW I R 39;1CBW I A 40;30.542
1CBW I R 39;1CBW I K 41;1.36391
1CBW I A 40;1CBW I K 41;34.9169
1CBW I A 40;1CBW I N 44;12.1761
1CBW I K 41;1CBW I R 42;31.8157
1CBW I K 41;1CBW I N 43;11.4552
1CBW I K 41;1CBW I N 44;17.844
1CBW I R 42;1CBW I N 43;17.5076
1CBW I R 42;1CBW I N 44;10.4166
1CBW I R 42;1CBW I F 45;9.85987
1CBW I N 43;1CBW I N 44;20.8254
1CBW I N 43;1CBW I F 45;9.89877
1CBW I N 43;1CBW I C 51;0.0529319
1CBW I N 43;1CBW I C 55;4.00552
1CBW I N 44;1CBW I F 45;31.4468
1CBW I F 45;1CBW I K 46;23.0349
1CBW I F 45;1CBW I S 47;8.41287
1CBW I F 45;1CBW I D 50;15.5496
1CBW I F 45;1CBW I C 51;26.0588
1CBW I F 45;1CBW I T 54;20.4396
1CBW I F 45;1CBW I C 55;8.47766
1CBW I K 46;1CBW I S 47;27.041
1CBW I K 46;1CBW I D 50;9.0593
1CBW I S 47;1CBW I A 48;19.8088
1CBW I S 47;1CBW I E 49;11.3563
1CBW I S 47;1CBW I D 50;25.1617
1CBW I S 47;1CBW I C 51;5.87039
1CBW I A 48;1CBW I E 49;22.9263
1CBW I A 48;1CBW I D 50;0.715159
1CBW I A 48;1CBW I C 51;6.94721
1CBW I A 48;1CBW I M 52;17.5658
1CBW I E 49;1CBW I D 50;25.8186
1CBW I E 49;1CBW I C 51;0.380941
1CBW I E 49;1CBW I M 52;8.46612
1CBW I E 49;1CBW I R 53;34.1475
1CBW I D 50;1CBW I C 51;15.9628
1CBW I D 50;1CBW I M 52;1.36811
1CBW I D 50;1CBW I R 53;23.491
1CBW I D 50;1CBW I T 54;13.1202
1CBW I C 51;1CBW I M 52;14.6213
1CBW I C 51;1CBW I R 53;0.370793
1CBW I C 51;1CBW I T 54;4.82105
1CBW I C 51;1CBW I C 55;10.6435
1CBW I C 51;1CBW I G 56;2.18649
1CBW I M 52;1CBW I R 53;18.1767
1CBW I M 52;1CBW I T 54;1.86012
1CBW I M 52;1CBW I C 55;0.281114
1CBW I M 52;1CBW I G 56;27.7814
1CBW I M 52;1CBW I G 57;1.08518
1CBW I R 53;1CBW I T 54;28.7589
1CBW I R 53;1CBW I G 56;1.15313
1CBW I T 54;1CBW I C 55;25.1866
1CBW I T 54;1CBW I G 56;2.86345
1CBW I T 54;1CBW I A 58;0.167343
1CBW I C 55;1CBW I G 56;19.4719
1CBW I C 55;1CBW I G 57;1.00482
1CBW I C 55;1CBW I A 58;14.3468
1CBW I G 56;1CBW I G 57;24.0191
1CBW I G 56;1CBW I A 58;7.37034
1CBW I G 57;1CBW I A 58;28.067
