V1;V2;Weight
1FFW A A 2;1FFW A D 3;31.0759
1FFW A A 2;1FFW A K 4;18.0011
1FFW A A 2;1FFW A L 6;4.52808
1FFW A A 2;1FFW A F 30;8.85841
1FFW A A 2;1FFW A F 124;24.2079
1FFW A A 2;1FFW A M 129;28.2499
1FFW A D 3;1FFW A K 4;21.2782
1FFW A D 3;1FFW A E 5;20.6327
1FFW A D 3;1FFW A L 6;25.1069
1FFW A D 3;1FFW A F 30;5.06494
1FFW A D 3;1FFW A M 129;0.88694
1FFW A K 4;1FFW A E 5;28.6097
1FFW A K 4;1FFW A L 6;6.1193
1FFW A K 4;1FFW A L 28;10.4328
1FFW A K 4;1FFW A G 29;23.7661
1FFW A K 4;1FFW A F 30;31.4372
1FFW A K 4;1FFW A N 31;4.44833
1FFW A K 4;1FFW A N 32;1.67442
1FFW A E 5;1FFW A L 6;19.7233
1FFW A E 5;1FFW A K 7;2.64747
1FFW A E 5;1FFW A N 31;15.7879
1FFW A E 5;1FFW A N 32;33.7289
1FFW A L 6;1FFW A K 7;24.1375
1FFW A L 6;1FFW A F 8;19.8146
1FFW A L 6;1FFW A F 30;11.1288
1FFW A L 6;1FFW A N 31;8.34344e-05
1FFW A L 6;1FFW A N 32;10.3685
1FFW A L 6;1FFW A G 52;20.5025
1FFW A L 6;1FFW A F 53;11.0955
1FFW A L 6;1FFW A F 124;9.19277
1FFW A L 6;1FFW A M 129;17.2331
1FFW A K 7;1FFW A F 8;21.0248
1FFW A K 7;1FFW A L 9;0.00279546
1FFW A K 7;1FFW A N 32;33.4269
1FFW A K 7;1FFW A V 33;1.10068
1FFW A K 7;1FFW A E 34;13.3193
1FFW A K 7;1FFW A A 48;4.89934
1FFW A K 7;1FFW A G 49;10.2942
1FFW A K 7;1FFW A G 50;19.558
1FFW A K 7;1FFW A Y 51;37.7958
1FFW A K 7;1FFW A G 52;10.0911
1FFW A K 7;1FFW A F 53;8.12263
1FFW A F 8;1FFW A L 9;19.1996
1FFW A F 8;1FFW A V 10;3.59033
1FFW A F 8;1FFW A L 25;21.427
1FFW A F 8;1FFW A F 30;21.633
1FFW A F 8;1FFW A N 32;8.22665
1FFW A F 8;1FFW A V 33;18.8894
1FFW A F 8;1FFW A E 34;8.55267
1FFW A F 8;1FFW A Y 51;6.00796
1FFW A F 8;1FFW A F 53;30.8521
1FFW A F 8;1FFW A I 55;11.6622
1FFW A F 8;1FFW A L 120;10.4724
1FFW A F 8;1FFW A F 124;4.66886
1FFW A L 9;1FFW A V 10;21.4357
1FFW A L 9;1FFW A V 11;11.9556
1FFW A L 9;1FFW A V 33;0.0322753
1FFW A L 9;1FFW A E 34;13.7829
1FFW A L 9;1FFW A E 35;6.3728
1FFW A L 9;1FFW A A 36;9.00802
1FFW A L 9;1FFW A A 42;11.2973
1FFW A L 9;1FFW A K 45;13.5828
1FFW A L 9;1FFW A L 46;15.8867
1FFW A L 9;1FFW A Y 51;20.0602
1FFW A L 9;1FFW A F 53;9.02293
1FFW A L 9;1FFW A V 54;18.5358
1FFW A L 9;1FFW A I 55;10.1971
1FFW A V 10;1FFW A V 11;22.263
1FFW A V 10;1FFW A D 12;3.93922
1FFW A V 10;1FFW A R 18;22.8625
1FFW A V 10;1FFW A V 21;20.0963
1FFW A V 10;1FFW A R 22;5.39807
1FFW A V 10;1FFW A L 25;7.86112
1FFW A V 10;1FFW A V 33;11.4085
1FFW A V 10;1FFW A E 34;6.74537
1FFW A V 10;1FFW A E 35;12.9484
1FFW A V 10;1FFW A A 36;6.94619
1FFW A V 10;1FFW A I 55;17.4879
1FFW A V 11;1FFW A D 12;21.4455
1FFW A V 11;1FFW A R 18;0.180019
1FFW A V 11;1FFW A A 36;14.7198
1FFW A V 11;1FFW A E 37;0.874463
1FFW A V 11;1FFW A D 38;9.688
1FFW A V 11;1FFW A G 39;1.49945
1FFW A V 11;1FFW A A 42;10.2141
1FFW A V 11;1FFW A V 54;7.58905
1FFW A V 11;1FFW A I 55;9.92661
1FFW A V 11;1FFW A S 56;13.8655
1FFW A V 11;1FFW A D 57;9.94771
1FFW A V 11;1FFW A M 60;13.4738
1FFW A V 11;1FFW A L 68;9.93763
1FFW A D 12;1FFW A D 13;23.0099
1FFW A D 12;1FFW A F 14;19.2468
1FFW A D 12;1FFW A M 17;20.0804
1FFW A D 12;1FFW A R 18;24.6237
1FFW A D 12;1FFW A V 21;0.190321
1FFW A D 12;1FFW A A 36;5.81137
1FFW A D 12;1FFW A E 37;7.598
1FFW A D 12;1FFW A D 57;21.6335
1FFW A D 12;1FFW A M 60;6.96386
1FFW A D 12;1FFW A V 86;0.780881
1FFW A D 12;1FFW A K 109;5.34071
1FFW A D 13;1FFW A F 14;38.36
1FFW A D 13;1FFW A S 15;3.44072
1FFW A D 13;1FFW A R 18;5.4986
1FFW A D 13;1FFW A E 37;18.2546
1FFW A D 13;1FFW A D 38;0.0702634
1FFW A D 13;1FFW A D 57;2.29571
1FFW A D 13;1FFW A N 59;8.42612
1FFW A D 13;1FFW A M 60;15.7135
1FFW A D 13;1FFW A P 61;22.4753
1FFW A F 14;1FFW A S 15;20.4034
1FFW A F 14;1FFW A T 16;9.68718
1FFW A F 14;1FFW A M 17;15.1625
1FFW A F 14;1FFW A R 18;10.6856
1FFW A F 14;1FFW A K 109;2.16063
1FFW A S 15;1FFW A T 16;28.7349
1FFW A S 15;1FFW A M 17;0.41133
1FFW A S 15;1FFW A R 18;30.983
1FFW A S 15;1FFW A R 19;12.5827
1FFW A S 15;1FFW A E 35;1.2668
1FFW A T 16;1FFW A M 17;21.207
1FFW A T 16;1FFW A R 18;1.07758
1FFW A T 16;1FFW A R 19;11.9472
1FFW A T 16;1FFW A I 20;26.3621
1FFW A M 17;1FFW A R 18;18.2919
1FFW A M 17;1FFW A R 19;1.06515
1FFW A M 17;1FFW A I 20;33.3082
1FFW A M 17;1FFW A V 21;24.3024
1FFW A M 17;1FFW A D 57;0.284915
1FFW A M 17;1FFW A V 86;5.21112
1FFW A M 17;1FFW A K 109;28.9163
1FFW A M 17;1FFW A P 110;3.34864
1FFW A M 17;1FFW A F 111;5.97143
1FFW A R 18;1FFW A R 19;17.5676
1FFW A R 18;1FFW A I 20;0.318398
1FFW A R 18;1FFW A V 21;4.57928
1FFW A R 18;1FFW A R 22;10.0314
1FFW A R 18;1FFW A E 35;38.5709
1FFW A R 18;1FFW A A 36;11.4957
1FFW A R 18;1FFW A E 37;13.491
1FFW A R 19;1FFW A I 20;20.4582
1FFW A R 19;1FFW A V 21;0.924592
1FFW A R 19;1FFW A R 22;17.585
1FFW A R 19;1FFW A N 23;26.2062
1FFW A R 19;1FFW A E 35;8.40023
1FFW A I 20;1FFW A V 21;20.1189
1FFW A I 20;1FFW A R 22;1.08973
1FFW A I 20;1FFW A N 23;11.726
1FFW A I 20;1FFW A L 24;26.552
1FFW A I 20;1FFW A F 111;1.99383
1FFW A V 21;1FFW A R 22;17.1638
1FFW A V 21;1FFW A N 23;0.493474
1FFW A V 21;1FFW A L 24;12.7153
1FFW A V 21;1FFW A L 25;15.7988
1FFW A V 21;1FFW A I 55;18.7579
1FFW A V 21;1FFW A V 86;4.29448
1FFW A V 21;1FFW A F 111;17.6031
1FFW A V 21;1FFW A L 116;6.77063
1FFW A R 22;1FFW A N 23;23.5004
1FFW A R 22;1FFW A L 24;0.88963
1FFW A R 22;1FFW A L 25;11.3911
1FFW A R 22;1FFW A K 26;16.6536
1FFW A R 22;1FFW A F 30;0.920382
1FFW A R 22;1FFW A N 31;6.75888
1FFW A R 22;1FFW A V 33;41.3135
1FFW A R 22;1FFW A E 34;6.69756
1FFW A R 22;1FFW A E 35;28.7761
1FFW A N 23;1FFW A L 24;20.5454
1FFW A N 23;1FFW A L 25;0.737604
1FFW A N 23;1FFW A K 26;26.0342
1FFW A N 23;1FFW A E 27;11.3956
1FFW A L 24;1FFW A L 25;15.5013
1FFW A L 24;1FFW A K 26;1.17506
1FFW A L 24;1FFW A E 27;16.6545
1FFW A L 24;1FFW A L 28;11.0681
1FFW A L 24;1FFW A F 111;21.9347
1FFW A L 24;1FFW A T 112;3.92443
1FFW A L 24;1FFW A A 113;25.1362
1FFW A L 24;1FFW A L 116;15.1414
1FFW A L 25;1FFW A K 26;14.0983
1FFW A L 25;1FFW A E 27;0.437255
1FFW A L 25;1FFW A L 28;12.4302
1FFW A L 25;1FFW A G 29;1.79202
1FFW A L 25;1FFW A F 30;27.71
1FFW A L 25;1FFW A V 33;14.1175
1FFW A L 25;1FFW A I 55;11.8678
1FFW A L 25;1FFW A L 116;12.375
1FFW A L 25;1FFW A L 120;9.02266
1FFW A K 26;1FFW A E 27;22.6485
1FFW A K 26;1FFW A L 28;1.93982
1FFW A K 26;1FFW A G 29;11.8779
1FFW A K 26;1FFW A F 30;11.3677
1FFW A K 26;1FFW A N 31;27.259
1FFW A E 27;1FFW A L 28;29.4016
1FFW A E 27;1FFW A G 29;3.53318
1FFW A E 27;1FFW A A 113;11.9008
1FFW A L 28;1FFW A G 29;20.5844
1FFW A L 28;1FFW A F 30;19.6095
1FFW A L 28;1FFW A A 113;18.3609
1FFW A L 28;1FFW A A 114;0.0760366
1FFW A L 28;1FFW A L 116;11.9076
1FFW A L 28;1FFW A E 117;31.5301
1FFW A L 28;1FFW A L 120;9.55977
1FFW A G 29;1FFW A F 30;19.8327
1FFW A G 29;1FFW A N 31;15.1345
1FFW A F 30;1FFW A N 31;25.2672
1FFW A F 30;1FFW A N 32;0.882321
1FFW A F 30;1FFW A V 33;9.29145
1FFW A F 30;1FFW A L 120;10.6416
1FFW A F 30;1FFW A F 124;14.6893
1FFW A N 31;1FFW A N 32;25.8024
1FFW A N 31;1FFW A V 33;13.0909
1FFW A N 32;1FFW A V 33;24.8027
1FFW A N 32;1FFW A E 34;6.94017
1FFW A V 33;1FFW A E 34;34.7031
1FFW A V 33;1FFW A E 35;3.41673
1FFW A E 34;1FFW A E 35;25.3498
1FFW A E 34;1FFW A K 45;5.00094
1FFW A E 34;1FFW A Y 51;18.8202
1FFW A E 35;1FFW A A 36;19.0917
1FFW A E 35;1FFW A K 45;15.7632
1FFW A A 36;1FFW A E 37;18.7243
1FFW A A 36;1FFW A D 38;3.04047
1FFW A A 36;1FFW A D 41;10.8997
1FFW A A 36;1FFW A A 42;9.68002
1FFW A A 36;1FFW A K 45;8.41979
1FFW A E 37;1FFW A D 38;36.0258
1FFW A E 37;1FFW A D 41;24.0975
1FFW A E 37;1FFW A M 60;3.63435
1FFW A E 37;1FFW A P 61;0.48718
1FFW A E 37;1FFW A N 62;0.157994
1FFW A D 38;1FFW A G 39;18.3796
1FFW A D 38;1FFW A V 40;12.2818
1FFW A D 38;1FFW A D 41;18.8786
1FFW A D 38;1FFW A A 42;7.35942
1FFW A D 38;1FFW A M 60;11.5268
1FFW A D 38;1FFW A P 61;14.8663
1FFW A D 38;1FFW A N 62;17.4379
1FFW A D 38;1FFW A M 63;2.71271
1FFW A G 39;1FFW A V 40;16.0618
1FFW A G 39;1FFW A D 41;0.364382
1FFW A G 39;1FFW A A 42;6.93444
1FFW A G 39;1FFW A L 43;8.40335
1FFW A G 39;1FFW A M 60;6.00902
1FFW A G 39;1FFW A M 63;20.1885
1FFW A G 39;1FFW A D 64;1.59579
1FFW A G 39;1FFW A L 68;14.859
1FFW A V 40;1FFW A D 41;20.0505
1FFW A V 40;1FFW A A 42;1.54946
1FFW A V 40;1FFW A L 43;12.9025
1FFW A V 40;1FFW A N 44;17.0479
1FFW A V 40;1FFW A N 62;18.9209
1FFW A V 40;1FFW A M 63;22.6481
1FFW A D 41;1FFW A A 42;15.1898
1FFW A D 41;1FFW A L 43;0.260542
1FFW A D 41;1FFW A N 44;16.6695
1FFW A D 41;1FFW A K 45;32.8063
1FFW A A 42;1FFW A L 43;15.2778
1FFW A A 42;1FFW A N 44;1.37226
1FFW A A 42;1FFW A K 45;7.68136
1FFW A A 42;1FFW A L 46;13.6911
1FFW A A 42;1FFW A V 54;0.391125
1FFW A A 42;1FFW A L 68;12.423
1FFW A L 43;1FFW A N 44;19.3707
1FFW A L 43;1FFW A K 45;0.69784
1FFW A L 43;1FFW A L 46;14.8282
1FFW A L 43;1FFW A Q 47;18.9291
1FFW A L 43;1FFW A M 63;17.5038
1FFW A L 43;1FFW A L 68;14.6459
1FFW A L 43;1FFW A T 71;27.7329
1FFW A L 43;1FFW A I 72;10.1439
1FFW A L 43;1FFW A D 75;0.151504
1FFW A L 43;1FFW A M 78;6.16264
1FFW A N 44;1FFW A K 45;23.7485
1FFW A N 44;1FFW A L 46;0.629389
1FFW A N 44;1FFW A Q 47;23.019
1FFW A N 44;1FFW A A 48;1.95645
1FFW A K 45;1FFW A L 46;16.4058
1FFW A K 45;1FFW A Q 47;2.1932
1FFW A K 45;1FFW A A 48;14.045
1FFW A K 45;1FFW A G 49;0.270202
1FFW A K 45;1FFW A Y 51;18.3967
1FFW A L 46;1FFW A Q 47;19.1197
1FFW A L 46;1FFW A A 48;2.25717
1FFW A L 46;1FFW A G 49;12.6872
1FFW A L 46;1FFW A Y 51;23.7734
1FFW A L 46;1FFW A V 54;14.088
1FFW A L 46;1FFW A L 68;4.80609
1FFW A L 46;1FFW A I 72;12.8768
1FFW A L 46;1FFW A M 78;27.2272
1FFW A L 46;1FFW A L 81;10.4438
1FFW A Q 47;1FFW A A 48;25.1013
1FFW A Q 47;1FFW A G 49;6.30811
1FFW A Q 47;1FFW A D 75;6.72653
1FFW A Q 47;1FFW A M 78;11.9035
1FFW A A 48;1FFW A G 49;30.3247
1FFW A A 48;1FFW A Y 51;5.82065
1FFW A G 49;1FFW A G 50;28.2342
1FFW A G 49;1FFW A Y 51;13.2015
1FFW A G 49;1FFW A M 78;1.03962
1FFW A G 50;1FFW A Y 51;24.2444
1FFW A G 50;1FFW A G 52;2.51038
1FFW A Y 51;1FFW A G 52;21.261
1FFW A Y 51;1FFW A F 53;5.06861
1FFW A Y 51;1FFW A V 54;1.97104
1FFW A Y 51;1FFW A L 81;20.4042
1FFW A G 52;1FFW A F 53;18.6396
1FFW A G 52;1FFW A L 81;9.1423
1FFW A G 52;1FFW A P 82;11.2792
1FFW A G 52;1FFW A M 129;5.27997
1FFW A F 53;1FFW A V 54;30.9022
1FFW A F 53;1FFW A I 55;8.81725
1FFW A F 53;1FFW A L 81;5.62081
1FFW A F 53;1FFW A P 82;23.7216
1FFW A F 53;1FFW A V 83;1.81049
1FFW A F 53;1FFW A L 84;10.4517
1FFW A F 53;1FFW A S 104;0.174379
1FFW A F 53;1FFW A L 120;15.6611
1FFW A F 53;1FFW A I 123;19.0792
1FFW A F 53;1FFW A F 124;13.7074
1FFW A F 53;1FFW A M 129;2.64183
1FFW A V 54;1FFW A I 55;21.7419
1FFW A V 54;1FFW A S 56;7.2245
1FFW A V 54;1FFW A L 68;9.2162
1FFW A V 54;1FFW A I 72;4.52265
1FFW A V 54;1FFW A L 81;13.6887
1FFW A V 54;1FFW A P 82;8.8286
1FFW A V 54;1FFW A V 83;23.6134
1FFW A V 54;1FFW A L 84;6.77528
1FFW A I 55;1FFW A S 56;20.3478
1FFW A I 55;1FFW A D 57;0.00238417
1FFW A I 55;1FFW A L 84;21.5141
1FFW A I 55;1FFW A V 86;14.5902
1FFW A I 55;1FFW A F 111;2.44796
1FFW A I 55;1FFW A L 116;10.2247
1FFW A I 55;1FFW A L 120;4.85605
1FFW A S 56;1FFW A D 57;23.8511
1FFW A S 56;1FFW A M 60;4.89708
1FFW A S 56;1FFW A G 65;5.53532
1FFW A S 56;1FFW A L 68;12.5053
1FFW A S 56;1FFW A V 83;6.06694
1FFW A S 56;1FFW A L 84;9.17957
1FFW A S 56;1FFW A M 85;17.1608
1FFW A S 56;1FFW A V 86;12.9113
1FFW A D 57;1FFW A W 58;22.8456
1FFW A D 57;1FFW A N 59;15.5487
1FFW A D 57;1FFW A M 60;15.9037
1FFW A D 57;1FFW A G 65;5.26752
1FFW A D 57;1FFW A M 85;3.71651
1FFW A D 57;1FFW A V 86;21.7274
1FFW A D 57;1FFW A T 87;0.518412
1FFW A D 57;1FFW A K 109;18.8958
1FFW A W 58;1FFW A N 59;37.4611
1FFW A W 58;1FFW A M 60;3.93626
1FFW A W 58;1FFW A D 64;12.0952
1FFW A W 58;1FFW A G 65;9.72862
1FFW A W 58;1FFW A L 66;29.1121
1FFW A W 58;1FFW A L 69;0.618824
1FFW A W 58;1FFW A M 85;25.8277
1FFW A W 58;1FFW A V 86;11.4117
1FFW A W 58;1FFW A T 87;22.8943
1FFW A W 58;1FFW A A 88;1.19162
1FFW A W 58;1FFW A N 94;38.8999
1FFW A W 58;1FFW A A 97;7.54533
1FFW A W 58;1FFW A A 98;14.1478
1FFW A N 59;1FFW A M 60;27.3959
1FFW A N 59;1FFW A D 64;2.59591
1FFW A M 60;1FFW A P 61;31.35
1FFW A M 60;1FFW A N 62;0.668736
1FFW A M 60;1FFW A M 63;10.9064
1FFW A M 60;1FFW A D 64;23.933
1FFW A M 60;1FFW A G 65;7.1376
1FFW A M 60;1FFW A L 68;3.16719
1FFW A P 61;1FFW A N 62;38.5114
1FFW A P 61;1FFW A M 63;8.37013
1FFW A N 62;1FFW A M 63;24.3612
1FFW A N 62;1FFW A E 67;3.45064
1FFW A M 63;1FFW A D 64;27.2099
1FFW A M 63;1FFW A E 67;33.8635
1FFW A M 63;1FFW A L 68;10.3994
1FFW A M 63;1FFW A T 71;7.13785
1FFW A D 64;1FFW A G 65;16.6818
1FFW A D 64;1FFW A L 66;13.8708
1FFW A D 64;1FFW A E 67;18.6661
1FFW A D 64;1FFW A L 68;7.36027
1FFW A G 65;1FFW A L 66;18.2153
1FFW A G 65;1FFW A E 67;1.11729
1FFW A G 65;1FFW A L 68;11.0544
1FFW A G 65;1FFW A L 69;9.17805
1FFW A G 65;1FFW A M 85;14.0871
1FFW A L 66;1FFW A E 67;19.3934
1FFW A L 66;1FFW A L 68;0.805466
1FFW A L 66;1FFW A L 69;14.5836
1FFW A L 66;1FFW A K 70;33.294
1FFW A L 66;1FFW A M 85;3.58987
1FFW A L 66;1FFW A A 97;21.7243
1FFW A L 66;1FFW A A 98;3.09343
1FFW A L 66;1FFW A A 101;10.0828
1FFW A E 67;1FFW A L 68;15.6544
1FFW A E 67;1FFW A L 69;0.611927
1FFW A E 67;1FFW A K 70;18.9595
1FFW A E 67;1FFW A T 71;19.7947
1FFW A L 68;1FFW A L 69;19.9769
1FFW A L 68;1FFW A K 70;0.633674
1FFW A L 68;1FFW A T 71;8.01493
1FFW A L 68;1FFW A I 72;19.6449
1FFW A L 68;1FFW A V 83;2.51919
1FFW A L 69;1FFW A K 70;18.4484
1FFW A L 69;1FFW A T 71;1.26552
1FFW A L 69;1FFW A I 72;13.9278
1FFW A L 69;1FFW A R 73;20.8295
1FFW A L 69;1FFW A V 83;19.524
1FFW A L 69;1FFW A M 85;14.3264
1FFW A L 69;1FFW A A 98;6.1722
1FFW A L 69;1FFW A A 101;17.1349
1FFW A L 69;1FFW A G 102;4.17855
1FFW A L 69;1FFW A A 103;15.4297
1FFW A K 70;1FFW A T 71;20.4704
1FFW A K 70;1FFW A I 72;0.626503
1FFW A K 70;1FFW A R 73;10.38
1FFW A K 70;1FFW A A 74;13.7469
1FFW A K 70;1FFW A A 101;21.5053
1FFW A T 71;1FFW A I 72;17.236
1FFW A T 71;1FFW A R 73;0.593921
1FFW A T 71;1FFW A A 74;10.1036
1FFW A T 71;1FFW A D 75;15.2589
1FFW A I 72;1FFW A R 73;26.0859
1FFW A I 72;1FFW A A 74;0.877975
1FFW A I 72;1FFW A D 75;10.8241
1FFW A I 72;1FFW A M 78;24.9542
1FFW A I 72;1FFW A S 79;6.62329
1FFW A I 72;1FFW A L 81;11.7695
1FFW A I 72;1FFW A V 83;14.5319
1FFW A R 73;1FFW A A 74;24.1193
1FFW A R 73;1FFW A D 75;3.2655
1FFW A R 73;1FFW A G 76;0.0116569
1FFW A R 73;1FFW A M 78;0.274391
1FFW A R 73;1FFW A S 79;34.2268
1FFW A R 73;1FFW A A 80;6.43883
1FFW A R 73;1FFW A L 81;13.9094
1FFW A R 73;1FFW A P 82;1.04308
1FFW A R 73;1FFW A V 83;9.69622
1FFW A R 73;1FFW A A 101;11.4407
1FFW A R 73;1FFW A G 102;24.0248
1FFW A R 73;1FFW A A 103;0.719009
1FFW A R 73;1FFW A S 104;10.5462
1FFW A A 74;1FFW A D 75;20.0243
1FFW A A 74;1FFW A G 76;8.83511
1FFW A D 75;1FFW A G 76;18.996
1FFW A D 75;1FFW A A 77;16.6055
1FFW A D 75;1FFW A M 78;27.7086
1FFW A D 75;1FFW A S 79;10.8432
1FFW A G 76;1FFW A A 77;27.203
1FFW A G 76;1FFW A M 78;0.192479
1FFW A G 76;1FFW A S 79;17.8706
1FFW A A 77;1FFW A M 78;28.7262
1FFW A A 77;1FFW A S 79;1.65324
1FFW A M 78;1FFW A S 79;18.7388
1FFW A M 78;1FFW A A 80;5.07553
1FFW A M 78;1FFW A L 81;28.2342
1FFW A S 79;1FFW A A 80;28.107
1FFW A S 79;1FFW A L 81;0.744322
1FFW A A 80;1FFW A L 81;23.3571
1FFW A A 80;1FFW A P 82;8.32186
1FFW A A 80;1FFW A L 127;9.32544
1FFW A L 81;1FFW A P 82;31.8603
1FFW A L 81;1FFW A V 83;8.36392
1FFW A P 82;1FFW A V 83;18.5223
1FFW A P 82;1FFW A S 104;9.88237
1FFW A P 82;1FFW A I 123;7.99828
1FFW A P 82;1FFW A L 127;14.2934
1FFW A P 82;1FFW A M 129;11.4802
1FFW A V 83;1FFW A L 84;22.2892
1FFW A V 83;1FFW A M 85;13.6128
1FFW A V 83;1FFW A A 103;6.75977
1FFW A V 83;1FFW A S 104;18.4573
1FFW A V 83;1FFW A G 105;3.78274
1FFW A V 83;1FFW A I 123;0.694702
1FFW A L 84;1FFW A M 85;22.1341
1FFW A L 84;1FFW A V 86;5.67462
1FFW A L 84;1FFW A G 105;12.4207
1FFW A L 84;1FFW A Y 106;7.54771
1FFW A L 84;1FFW A V 107;16.8282
1FFW A L 84;1FFW A F 111;0.116149
1FFW A L 84;1FFW A L 116;10.502
1FFW A L 84;1FFW A K 119;17.3518
1FFW A L 84;1FFW A L 120;8.13702
1FFW A L 84;1FFW A I 123;14.8739
1FFW A M 85;1FFW A V 86;19.7475
1FFW A M 85;1FFW A T 87;4.99387
1FFW A M 85;1FFW A A 98;7.66108
1FFW A M 85;1FFW A A 103;9.64101
1FFW A M 85;1FFW A G 105;8.01156
1FFW A M 85;1FFW A Y 106;15.0699
1FFW A M 85;1FFW A V 107;9.27398
1FFW A V 86;1FFW A T 87;22.5
1FFW A V 86;1FFW A V 107;16.755
1FFW A V 86;1FFW A K 109;16.4111
1FFW A V 86;1FFW A F 111;16.1842
1FFW A T 87;1FFW A A 88;22.6198
1FFW A T 87;1FFW A E 89;20.5848
1FFW A T 87;1FFW A A 90;1.37674
1FFW A T 87;1FFW A N 94;12.2515
1FFW A T 87;1FFW A I 95;2.86982
1FFW A T 87;1FFW A Y 106;14.812
1FFW A T 87;1FFW A V 107;10.2035
1FFW A T 87;1FFW A V 108;14.697
1FFW A T 87;1FFW A K 109;11.5985
1FFW A A 88;1FFW A E 89;31.5055
1FFW A A 88;1FFW A V 108;6.69535
1FFW A A 88;1FFW A K 109;33.634
1FFW A E 89;1FFW A A 90;23.4731
1FFW A E 89;1FFW A K 91;27.8529
1FFW A E 89;1FFW A N 94;2.7118
1FFW A E 89;1FFW A I 95;0.862355
1FFW A E 89;1FFW A V 108;8.75439
1FFW A A 90;1FFW A K 91;19.058
1FFW A A 90;1FFW A K 92;3.63809
1FFW A A 90;1FFW A I 95;12.3489
1FFW A A 90;1FFW A Y 106;7.99428
1FFW A A 90;1FFW A V 108;18.1213
1FFW A A 90;1FFW B H 181;29.0387
1FFW A K 91;1FFW A K 92;21.1713
1FFW A K 91;1FFW A E 93;23.3293
1FFW A K 91;1FFW A N 94;43.9357
1FFW A K 91;1FFW A I 95;14.2825
1FFW A K 92;1FFW A E 93;46.3688
1FFW A K 92;1FFW A N 94;1.19283
1FFW A K 92;1FFW A I 95;8.79117
1FFW A K 92;1FFW A I 96;19.3055
1FFW A K 92;1FFW B H 181;18.1003
1FFW A K 92;1FFW B L 182;26.6266
1FFW A K 92;1FFW B D 202;0.583866
1FFW A K 92;1FFW B I 203;24.7248
1FFW A E 93;1FFW A N 94;23.7016
1FFW A E 93;1FFW A I 95;0.52024
1FFW A E 93;1FFW A I 96;12.6765
1FFW A E 93;1FFW A A 97;12.4607
1FFW A N 94;1FFW A I 95;20.9144
1FFW A N 94;1FFW A I 96;1.07591
1FFW A N 94;1FFW A A 97;9.5016
1FFW A N 94;1FFW A A 98;8.29835
1FFW A I 95;1FFW A I 96;17.7119
1FFW A I 95;1FFW A A 97;0.604822
1FFW A I 95;1FFW A A 98;10.9826
1FFW A I 95;1FFW A A 99;7.53101
1FFW A I 95;1FFW A Y 106;28.6692
1FFW A I 95;1FFW B E 178;3.34939
1FFW A I 95;1FFW B H 181;11.5579
1FFW A I 95;1FFW B L 182;11.68
1FFW A I 95;1FFW B V 211;16.0506
1FFW A I 95;1FFW B F 214;9.13926
1FFW A I 96;1FFW A A 97;21.8679
1FFW A I 96;1FFW A A 98;1.35716
1FFW A I 96;1FFW A A 99;9.78369
1FFW A I 96;1FFW A Q 100;18.6799
1FFW A I 96;1FFW B L 182;15.661
1FFW A I 96;1FFW B I 203;8.47294
1FFW A I 96;1FFW B D 207;32.1556
1FFW A I 96;1FFW B I 208;0.0471352
1FFW A I 96;1FFW B A 210;0.2487
1FFW A I 96;1FFW B V 211;11.728
1FFW A A 97;1FFW A A 98;16.4404
1FFW A A 97;1FFW A A 99;0.37096
1FFW A A 97;1FFW A Q 100;8.85436
1FFW A A 97;1FFW A A 101;11.2896
1FFW A A 98;1FFW A A 99;17.6121
1FFW A A 98;1FFW A Q 100;0.753842
1FFW A A 98;1FFW A A 101;6.09182
1FFW A A 98;1FFW A G 102;2.52099
1FFW A A 98;1FFW A A 103;15.9432
1FFW A A 98;1FFW A Y 106;9.1195
1FFW A A 98;1FFW B F 214;7.26098
1FFW A A 99;1FFW A Q 100;20.3444
1FFW A A 99;1FFW A A 101;0.957308
1FFW A A 99;1FFW A G 102;10.0982
1FFW A A 99;1FFW A A 103;4.02448
1FFW A A 99;1FFW B D 207;0.445694
1FFW A A 99;1FFW B A 210;22.5894
1FFW A A 99;1FFW B V 211;10.0048
1FFW A A 99;1FFW B F 214;16.8487
1FFW A Q 100;1FFW A A 101;24.1696
1FFW A Q 100;1FFW A G 102;6.36151
1FFW A Q 100;1FFW B D 206;12.7735
1FFW A Q 100;1FFW B D 207;17.9942
1FFW A Q 100;1FFW B A 210;16.2874
1FFW A A 101;1FFW A G 102;17.6279
1FFW A A 101;1FFW A A 103;0.178094
1FFW A G 102;1FFW A A 103;24.1224
1FFW A G 102;1FFW A S 104;1.86487
1FFW A A 103;1FFW A S 104;21.0335
1FFW A A 103;1FFW A G 105;10.0222
1FFW A A 103;1FFW A Y 106;0.224924
1FFW A A 103;1FFW B F 214;17.9582
1FFW A S 104;1FFW A G 105;18.7632
1FFW A S 104;1FFW A K 122;0.642674
1FFW A S 104;1FFW A I 123;29.9621
1FFW A S 104;1FFW A K 126;4.26975
1FFW A S 104;1FFW A L 127;4.91811
1FFW A S 104;1FFW B F 214;11.7434
1FFW A G 105;1FFW A Y 106;21.6672
1FFW A G 105;1FFW A K 119;1.71923
1FFW A G 105;1FFW A I 123;5.2058
1FFW A G 105;1FFW B F 214;18.6397
1FFW A Y 106;1FFW A V 107;23.2012
1FFW A Y 106;1FFW A V 108;12.39
1FFW A Y 106;1FFW A K 119;23.4957
1FFW A Y 106;1FFW B E 178;21.892
1FFW A Y 106;1FFW B H 181;7.90838
1FFW A Y 106;1FFW B V 211;0.517359
1FFW A Y 106;1FFW B F 214;23.0299
1FFW A V 107;1FFW A V 108;26.5965
1FFW A V 107;1FFW A K 109;1.49861
1FFW A V 107;1FFW A F 111;23.1286
1FFW A V 107;1FFW A T 115;11.7093
1FFW A V 107;1FFW A L 116;4.82376
1FFW A V 107;1FFW A K 119;18.9915
1FFW A V 108;1FFW A K 109;25.4951
1FFW A V 108;1FFW A P 110;8.21882
1FFW A V 108;1FFW A F 111;10.8269
1FFW A V 108;1FFW A T 115;0.057659
1FFW A K 109;1FFW A P 110;35.6357
1FFW A K 109;1FFW A F 111;13.2734
1FFW A P 110;1FFW A F 111;28.4497
1FFW A P 110;1FFW A T 112;0.484069
1FFW A F 111;1FFW A T 112;35.0071
1FFW A F 111;1FFW A T 115;11.3389
1FFW A F 111;1FFW A L 116;21.9732
1FFW A T 112;1FFW A A 113;23.274
1FFW A T 112;1FFW A A 114;12.9561
1FFW A T 112;1FFW A T 115;26.4892
1FFW A T 112;1FFW A L 116;7.29022
1FFW A A 113;1FFW A A 114;23.3816
1FFW A A 113;1FFW A T 115;0.682778
1FFW A A 113;1FFW A L 116;10.1423
1FFW A A 113;1FFW A E 117;7.75032
1FFW A A 114;1FFW A T 115;18.8861
1FFW A A 114;1FFW A L 116;0.880347
1FFW A A 114;1FFW A E 117;17.875
1FFW A A 114;1FFW A E 118;22.3499
1FFW A T 115;1FFW A L 116;17.2407
1FFW A T 115;1FFW A E 117;0.939153
1FFW A T 115;1FFW A E 118;21.7995
1FFW A T 115;1FFW A K 119;22.2796
1FFW A L 116;1FFW A E 117;15.7075
1FFW A L 116;1FFW A E 118;0.626612
1FFW A L 116;1FFW A K 119;12.251
1FFW A L 116;1FFW A L 120;23.6018
1FFW A E 117;1FFW A E 118;20.0145
1FFW A E 117;1FFW A K 119;0.926025
1FFW A E 117;1FFW A L 120;10.1802
1FFW A E 117;1FFW A N 121;29.704
1FFW A E 118;1FFW A K 119;22.0688
1FFW A E 118;1FFW A L 120;0.653855
1FFW A E 118;1FFW A N 121;11.046
1FFW A E 118;1FFW A K 122;14.2122
1FFW A K 119;1FFW A L 120;19.5481
1FFW A K 119;1FFW A N 121;0.576619
1FFW A K 119;1FFW A K 122;10.5736
1FFW A K 119;1FFW A I 123;16.9766
1FFW A L 120;1FFW A N 121;18.0195
1FFW A L 120;1FFW A K 122;0.975608
1FFW A L 120;1FFW A I 123;10.801
1FFW A L 120;1FFW A F 124;27.9733
1FFW A N 121;1FFW A K 122;19.9103
1FFW A N 121;1FFW A I 123;1.13702
1FFW A N 121;1FFW A F 124;23.4427
1FFW A N 121;1FFW A E 125;14.2626
1FFW A K 122;1FFW A I 123;22.7282
1FFW A K 122;1FFW A F 124;0.272532
1FFW A K 122;1FFW A E 125;24.7481
1FFW A K 122;1FFW A K 126;26.2387
1FFW A K 122;1FFW B K 168;10.6091
1FFW A K 122;1FFW B E 171;9.04383
1FFW A K 122;1FFW B F 214;13.778
1FFW A K 122;1FFW B V 215;27.2577
1FFW A I 123;1FFW A F 124;20.6218
1FFW A I 123;1FFW A E 125;0.7282
1FFW A I 123;1FFW A K 126;12.4699
1FFW A I 123;1FFW A L 127;20.7053
1FFW A I 123;1FFW A M 129;3.22141
1FFW A F 124;1FFW A E 125;21.2374
1FFW A F 124;1FFW A K 126;0.955137
1FFW A F 124;1FFW A L 127;5.4155
1FFW A F 124;1FFW A G 128;4.12078
1FFW A F 124;1FFW A M 129;40.1823
1FFW A E 125;1FFW A K 126;24.6342
1FFW A E 125;1FFW A L 127;1.53406
1FFW A E 125;1FFW A G 128;12.9679
1FFW A E 125;1FFW A M 129;1.01793
1FFW A E 125;1FFW B K 168;18.9723
1FFW A K 126;1FFW A L 127;31.3856
1FFW A K 126;1FFW A G 128;1.86569
1FFW A K 126;1FFW B C 213;17.3759
1FFW A K 126;1FFW B F 214;7.42744
1FFW A K 126;1FFW B V 215;7.83622
1FFW A K 126;1FFW B I 216;8.41083
1FFW A K 126;1FFW B E 217;26.153
1FFW A L 127;1FFW A G 128;27.0002
1FFW A L 127;1FFW A M 129;23.9401
1FFW A G 128;1FFW A M 129;28.9344
1FFW B A 159;1FFW B R 160;27.9557
1FFW B A 159;1FFW B I 198;15.127
1FFW B A 159;1FFW B L 199;8.27901
1FFW B A 159;1FFW B P 200;14.8891
1FFW B A 159;1FFW B G 201;0.336537
1FFW B A 159;1FFW B T 225;6.68295
1FFW B A 159;1FFW B V 226;24.7374
1FFW B R 160;1FFW B R 161;22.4348
1FFW B R 160;1FFW B A 197;0.222652
1FFW B R 160;1FFW B I 198;9.57723
1FFW B R 160;1FFW B L 199;25.9197
1FFW B R 160;1FFW B G 201;1.25758
1FFW B R 160;1FFW B E 205;31.1925
1FFW B R 160;1FFW B F 223;18.7023
1FFW B R 160;1FFW B E 224;18.0954
1FFW B R 160;1FFW B T 225;25.1306
1FFW B R 160;1FFW B V 226;3.75084
1FFW B R 161;1FFW B I 162;21.3197
1FFW B R 161;1FFW B I 163;15.6957
1FFW B R 161;1FFW B D 187;20.8043
1FFW B R 161;1FFW B V 189;6.31096
1FFW B R 161;1FFW B S 196;13.0094
1FFW B R 161;1FFW B A 197;17.5188
1FFW B R 161;1FFW B I 198;18.9968
1FFW B R 161;1FFW B L 199;2.75706
1FFW B R 161;1FFW B T 222;1.38338
1FFW B R 161;1FFW B F 223;9.2825
1FFW B R 161;1FFW B E 224;33.2143
1FFW B R 161;1FFW B T 225;3.23277
1FFW B R 161;1FFW B V 226;21.4358
1FFW B I 162;1FFW B I 163;23.6849
1FFW B I 162;1FFW B L 164;13.894
1FFW B I 162;1FFW B L 179;17.4353
1FFW B I 162;1FFW B L 185;1.88166
1FFW B I 162;1FFW B L 195;2.80788
1FFW B I 162;1FFW B S 196;9.1477
1FFW B I 162;1FFW B A 197;23.1003
1FFW B I 162;1FFW B L 199;19.4715
1FFW B I 162;1FFW B I 208;9.25765
1FFW B I 162;1FFW B L 212;6.17064
1FFW B I 162;1FFW B I 221;8.61773
1FFW B I 162;1FFW B T 222;6.9428
1FFW B I 162;1FFW B F 223;16.2384
1FFW B I 163;1FFW B L 164;26.422
1FFW B I 163;1FFW B S 165;12.7005
1FFW B I 163;1FFW B S 194;4.28553
1FFW B I 163;1FFW B L 195;5.37257
1FFW B I 163;1FFW B S 196;16.2602
1FFW B I 163;1FFW B Q 220;3.77605
1FFW B I 163;1FFW B I 221;3.31021
1FFW B I 163;1FFW B T 222;33.888
1FFW B I 163;1FFW B E 224;20.7505
1FFW B L 164;1FFW B S 165;20.1588
1FFW B L 164;1FFW B L 167;15.2804
1FFW B L 164;1FFW B L 175;14.5343
1FFW B L 164;1FFW B L 179;8.05138
1FFW B L 164;1FFW B S 194;9.11516
1FFW B L 164;1FFW B L 195;31.3777
1FFW B L 164;1FFW B L 212;14.6707
1FFW B L 164;1FFW B I 216;9.92773
1FFW B L 164;1FFW B Q 220;7.33114
1FFW B L 164;1FFW B I 221;13.5213
1FFW B S 165;1FFW B R 166;38.4231
1FFW B S 165;1FFW B L 167;11.4643
1FFW B S 165;1FFW B D 193;2.43562
1FFW B S 165;1FFW B S 194;7.19322
1FFW B S 165;1FFW B D 219;0.117523
1FFW B S 165;1FFW B Q 220;27.7637
1FFW B S 165;1FFW B T 222;0.246558
1FFW B R 166;1FFW B L 167;22.1972
1FFW B R 166;1FFW B K 168;8.57063
1FFW B R 166;1FFW B E 171;1.15461
1FFW B R 166;1FFW B D 193;16.3999
1FFW B R 166;1FFW B S 194;0.0370403
1FFW B R 166;1FFW B D 219;24.3844
1FFW B R 166;1FFW B Q 220;28.5576
1FFW B L 167;1FFW B K 168;29.4195
1FFW B L 167;1FFW B E 171;17.3777
1FFW B L 167;1FFW B V 172;17.0396
1FFW B L 167;1FFW B L 175;13.8542
1FFW B L 167;1FFW B A 192;0.699923
1FFW B L 167;1FFW B D 193;30.3023
1FFW B L 167;1FFW B S 194;6.47573
1FFW B L 167;1FFW B L 195;8.20882
1FFW B L 167;1FFW B I 216;9.7638
1FFW B L 167;1FFW B Q 220;6.08096
1FFW B K 168;1FFW B A 169;33.994
1FFW B K 168;1FFW B G 170;2.52037
1FFW B K 168;1FFW B E 171;38.679
1FFW B K 168;1FFW B V 172;4.65249
1FFW B K 168;1FFW B A 192;1.03628
1FFW B K 168;1FFW B D 193;0.122495
1FFW B A 169;1FFW B G 170;27.9102
1FFW B A 169;1FFW B E 171;8.06311
1FFW B G 170;1FFW B E 171;17.2235
1FFW B G 170;1FFW B V 172;6.6426
1FFW B G 170;1FFW B D 173;17.4072
1FFW B G 170;1FFW B L 174;13.0687
1FFW B E 171;1FFW B V 172;18.4375
1FFW B E 171;1FFW B D 173;0.423407
1FFW B E 171;1FFW B L 174;16.5789
1FFW B E 171;1FFW B L 175;21.2331
1FFW B E 171;1FFW B V 215;14.557
1FFW B E 171;1FFW B I 216;12.5759
1FFW B E 171;1FFW B Q 220;1.53104
1FFW B V 172;1FFW B D 173;24.4399
1FFW B V 172;1FFW B L 174;0.539252
1FFW B V 172;1FFW B L 175;4.47032
1FFW B V 172;1FFW B E 176;9.12377
1FFW B V 172;1FFW B K 190;21.9241
1FFW B V 172;1FFW B G 191;10.3805
1FFW B V 172;1FFW B A 192;7.90078
1FFW B V 172;1FFW B D 193;4.86742
1FFW B V 172;1FFW B S 194;8.4036
1FFW B V 172;1FFW B L 195;15.6648
1FFW B D 173;1FFW B L 174;21.372
1FFW B D 173;1FFW B L 175;1.17657
1FFW B D 173;1FFW B E 176;11.8011
1FFW B D 173;1FFW B E 177;11.585
1FFW B D 173;1FFW B K 190;21.2439
1FFW B L 174;1FFW B L 175;21.8632
1FFW B L 174;1FFW B E 176;0.866242
1FFW B L 174;1FFW B E 177;20.3283
1FFW B L 174;1FFW B E 178;25.177
1FFW B L 174;1FFW B V 215;22.8785
1FFW B L 175;1FFW B E 176;16.1567
1FFW B L 175;1FFW B E 177;0.426731
1FFW B L 175;1FFW B E 178;16.1188
1FFW B L 175;1FFW B L 179;14.367
1FFW B L 175;1FFW B L 195;6.93879
1FFW B L 175;1FFW B L 212;16.5661
1FFW B L 175;1FFW B V 215;17.0403
1FFW B L 175;1FFW B I 216;15.9825
1FFW B E 176;1FFW B E 177;21.4836
1FFW B E 176;1FFW B E 178;0.848538
1FFW B E 176;1FFW B L 179;8.64798
1FFW B E 176;1FFW B G 180;8.06896
1FFW B E 176;1FFW B L 185;14.9233
1FFW B E 176;1FFW B V 188;19.0787
1FFW B E 176;1FFW B K 190;25.2436
1FFW B E 176;1FFW B L 195;14.0954
1FFW B E 177;1FFW B E 178;22.3023
1FFW B E 177;1FFW B L 179;1.06651
1FFW B E 177;1FFW B G 180;10.4935
1FFW B E 177;1FFW B H 181;30.5505
1FFW B E 178;1FFW B L 179;17.9164
1FFW B E 178;1FFW B G 180;1.11803
1FFW B E 178;1FFW B H 181;24.0893
1FFW B E 178;1FFW B L 182;11.5493
1FFW B E 178;1FFW B V 211;17.5112
1FFW B E 178;1FFW B L 212;9.96937
1FFW B E 178;1FFW B F 214;1.21327
1FFW B E 178;1FFW B V 215;9.18058
1FFW B L 179;1FFW B G 180;15.7518
1FFW B L 179;1FFW B H 181;0.475906
1FFW B L 179;1FFW B L 182;14.861
1FFW B L 179;1FFW B T 183;18.4527
1FFW B L 179;1FFW B L 185;26.2788
1FFW B L 179;1FFW B L 195;11.7639
1FFW B L 179;1FFW B A 197;2.57128
1FFW B L 179;1FFW B L 199;5.58187
1FFW B L 179;1FFW B I 208;11.5912
1FFW B L 179;1FFW B L 212;15.1595
1FFW B G 180;1FFW B H 181;23.4225
1FFW B G 180;1FFW B L 182;2.85313
1FFW B G 180;1FFW B T 183;18.9075
1FFW B G 180;1FFW B L 185;5.54278
1FFW B H 181;1FFW B L 182;23.9442
1FFW B H 181;1FFW B T 183;0.160748
1FFW B L 182;1FFW B T 183;27.8444
1FFW B L 182;1FFW B D 202;0.191166
1FFW B L 182;1FFW B I 203;17.1256
1FFW B L 182;1FFW B D 207;0.29017
1FFW B L 182;1FFW B I 208;14.8262
1FFW B L 182;1FFW B V 211;18.8251
1FFW B L 182;1FFW B L 212;5.92058
1FFW B T 183;1FFW B T 184;33.2895
1FFW B T 183;1FFW B L 185;13.7907
1FFW B T 183;1FFW B L 199;10.4041
1FFW B T 183;1FFW B P 200;13.2956
1FFW B T 183;1FFW B G 201;0.0524894
1FFW B T 183;1FFW B D 202;13.3313
1FFW B T 183;1FFW B I 203;11.7616
1FFW B T 183;1FFW B I 208;5.09873
1FFW B T 184;1FFW B L 185;29.4904
1FFW B T 184;1FFW B T 186;11.8696
1FFW B T 184;1FFW B I 198;0.327212
1FFW B T 184;1FFW B P 200;21.9841
1FFW B T 184;1FFW B D 202;5.62184
1FFW B L 185;1FFW B T 186;28.0384
1FFW B L 185;1FFW B V 188;22.5115
1FFW B L 185;1FFW B L 195;1.77137
1FFW B L 185;1FFW B A 197;14.7356
1FFW B L 185;1FFW B I 198;6.54825
1FFW B L 185;1FFW B L 199;11.7944
1FFW B L 185;1FFW B P 200;1.23434
1FFW B T 186;1FFW B D 187;29.3323
1FFW B T 186;1FFW B V 188;7.36002
1FFW B T 186;1FFW B A 197;3.96004
1FFW B T 186;1FFW B I 198;33.9724
1FFW B T 186;1FFW B P 200;5.87866
1FFW B D 187;1FFW B V 188;24.9328
1FFW B D 187;1FFW B V 189;15.1946
1FFW B D 187;1FFW B S 196;1.47071
1FFW B D 187;1FFW B A 197;5.11572
1FFW B D 187;1FFW B I 198;17.5166
1FFW B V 188;1FFW B V 189;26.5121
1FFW B V 188;1FFW B K 190;12.748
1FFW B V 188;1FFW B L 195;10.2878
1FFW B V 188;1FFW B S 196;4.43657
1FFW B V 188;1FFW B A 197;12.0033
1FFW B V 189;1FFW B K 190;24.443
1FFW B V 189;1FFW B G 191;10.8214
1FFW B V 189;1FFW B S 194;0.0870447
1FFW B V 189;1FFW B L 195;10.5266
1FFW B V 189;1FFW B S 196;30.2746
1FFW B K 190;1FFW B G 191;27.5962
1FFW B K 190;1FFW B A 192;0.767984
1FFW B K 190;1FFW B S 194;1.45618
1FFW B K 190;1FFW B L 195;12.2666
1FFW B G 191;1FFW B A 192;27.817
1FFW B G 191;1FFW B D 193;2.45346
1FFW B G 191;1FFW B S 194;27.0899
1FFW B G 191;1FFW B L 195;0.0535255
1FFW B A 192;1FFW B D 193;31.897
1FFW B A 192;1FFW B S 194;1.19642
1FFW B D 193;1FFW B S 194;29.5678
1FFW B S 194;1FFW B L 195;22.6221
1FFW B L 195;1FFW B S 196;28.9706
1FFW B L 195;1FFW B A 197;3.09681
1FFW B S 196;1FFW B A 197;22.4556
1FFW B A 197;1FFW B I 198;21.8466
1FFW B A 197;1FFW B L 199;4.03275
1FFW B I 198;1FFW B L 199;21.4513
1FFW B I 198;1FFW B P 200;7.26652
1FFW B I 198;1FFW B V 226;21.31
1FFW B L 199;1FFW B P 200;25.7963
1FFW B L 199;1FFW B G 201;12.5551
1FFW B L 199;1FFW B E 205;5.77321
1FFW B L 199;1FFW B I 208;17.0462
1FFW B L 199;1FFW B F 223;11.1421
1FFW B P 200;1FFW B G 201;26.4449
1FFW B P 200;1FFW B D 202;19.1407
1FFW B G 201;1FFW B D 202;27.042
1FFW B G 201;1FFW B I 203;16.0216
1FFW B D 202;1FFW B I 203;44.6453
1FFW B D 202;1FFW B A 204;0.0346974
1FFW B I 203;1FFW B A 204;33.8445
1FFW B I 203;1FFW B E 205;8.16278
1FFW B I 203;1FFW B D 207;10.3467
1FFW B I 203;1FFW B I 208;21.1075
1FFW B A 204;1FFW B E 205;20.9124
1FFW B A 204;1FFW B D 206;12.2657
1FFW B A 204;1FFW B D 207;25.9886
1FFW B A 204;1FFW B I 208;6.25812
1FFW B E 205;1FFW B D 206;27.2876
1FFW B E 205;1FFW B D 207;1.20796
1FFW B E 205;1FFW B I 208;15.3418
1FFW B E 205;1FFW B T 209;7.90277
1FFW B E 205;1FFW B F 223;37.1791
1FFW B D 206;1FFW B D 207;20.0174
1FFW B D 206;1FFW B I 208;0.781688
1FFW B D 206;1FFW B T 209;14.6465
1FFW B D 206;1FFW B A 210;9.82519
1FFW B D 207;1FFW B I 208;18.3193
1FFW B D 207;1FFW B T 209;0.60212
1FFW B D 207;1FFW B A 210;8.55653
1FFW B D 207;1FFW B V 211;10.9091
1FFW B I 208;1FFW B T 209;19.5977
1FFW B I 208;1FFW B A 210;1.132
1FFW B I 208;1FFW B V 211;7.29452
1FFW B I 208;1FFW B L 212;22.6154
1FFW B I 208;1FFW B I 221;1.70554
1FFW B I 208;1FFW B F 223;13.4141
1FFW B T 209;1FFW B A 210;20.2803
1FFW B T 209;1FFW B V 211;1.02842
1FFW B T 209;1FFW B L 212;5.58887
1FFW B T 209;1FFW B C 213;20.087
1FFW B T 209;1FFW B A 218;13.3258
1FFW B T 209;1FFW B I 221;22.4235
1FFW B T 209;1FFW B F 223;11.4012
1FFW B A 210;1FFW B V 211;16.6686
1FFW B A 210;1FFW B L 212;0.112016
1FFW B A 210;1FFW B C 213;14.3293
1FFW B A 210;1FFW B F 214;8.75214
1FFW B V 211;1FFW B L 212;25.4486
1FFW B V 211;1FFW B C 213;2.25277
1FFW B V 211;1FFW B F 214;24.0108
1FFW B V 211;1FFW B V 215;1.56946
1FFW B L 212;1FFW B C 213;14.3948
1FFW B L 212;1FFW B F 214;2.50366
1FFW B L 212;1FFW B V 215;11.2709
1FFW B L 212;1FFW B I 216;17.9745
1FFW B L 212;1FFW B I 221;13.5611
1FFW B C 213;1FFW B F 214;19.4864
1FFW B C 213;1FFW B V 215;2.77803
1FFW B C 213;1FFW B I 216;14.1105
1FFW B C 213;1FFW B E 217;4.03889
1FFW B C 213;1FFW B A 218;13.6522
1FFW B C 213;1FFW B I 221;6.56817
1FFW B F 214;1FFW B V 215;27.8363
1FFW B V 215;1FFW B I 216;28.9303
1FFW B V 215;1FFW B E 217;1.73773
1FFW B I 216;1FFW B E 217;30.1335
1FFW B I 216;1FFW B Q 220;24.8198
1FFW B I 216;1FFW B I 221;11.1738
1FFW B E 217;1FFW B A 218;22.2271
1FFW B E 217;1FFW B D 219;15.7581
1FFW B E 217;1FFW B Q 220;26.8531
1FFW B E 217;1FFW B I 221;6.18148
1FFW B A 218;1FFW B D 219;25.2556
1FFW B A 218;1FFW B Q 220;2.21733
1FFW B A 218;1FFW B I 221;22.6804
1FFW B D 219;1FFW B Q 220;25.6405
1FFW B D 219;1FFW B I 221;6.54698
1FFW B D 219;1FFW B T 222;5.38414
1FFW B Q 220;1FFW B I 221;18.8266
1FFW B Q 220;1FFW B T 222;2.23593
1FFW B I 221;1FFW B T 222;31.8202
1FFW B I 221;1FFW B F 223;14.2995
1FFW B T 222;1FFW B F 223;37.4506
1FFW B T 222;1FFW B E 224;11.5687
1FFW B F 223;1FFW B E 224;25.7604
1FFW B E 224;1FFW B T 225;33.7541
1FFW B E 224;1FFW B V 226;0.319107
1FFW B T 225;1FFW B V 226;41.8613
