V1;V2;Weight
1KNE A E 23;1KNE A Y 24;59.7028
1KNE A E 23;1KNE P T 6;12.5391
1KNE A E 23;1KNE P A 7;10.3173
1KNE A E 23;1KNE P R 8;37.3592
1KNE A E 23;1KNE P S 10;5.40474
1KNE A Y 24;1KNE A A 25;27.1424
1KNE A Y 24;1KNE A V 26;3.09172
1KNE A Y 24;1KNE A W 45;25.756
1KNE A Y 24;1KNE A Y 48;28.1149
1KNE A Y 24;1KNE P T 6;9.28694
1KNE A Y 24;1KNE P A 7;14.0563
1KNE A Y 24;1KNE P R 8;1.8219
1KNE A A 25;1KNE A V 26;17.7632
1KNE A A 25;1KNE A E 27;0.137508
1KNE A A 25;1KNE A W 45;10.805
1KNE A A 25;1KNE A K 46;38.0624
1KNE A A 25;1KNE P Q 5;7.28404
1KNE A A 25;1KNE P T 6;11.8466
1KNE A V 26;1KNE A E 27;23.8908
1KNE A V 26;1KNE A K 28;8.649
1KNE A V 26;1KNE A I 29;3.87605
1KNE A V 26;1KNE A L 43;18.6389
1KNE A V 26;1KNE A K 44;5.25302
1KNE A V 26;1KNE A W 45;11.4422
1KNE A V 26;1KNE A K 46;5.88342
1KNE A V 26;1KNE A L 61;1.83941
1KNE A V 26;1KNE A C 63;10.8581
1KNE A V 26;1KNE A L 66;14.9438
1KNE A V 26;1KNE P Q 5;20.288
1KNE A V 26;1KNE P T 6;7.62819
1KNE A V 26;1KNE P A 7;8.85491
1KNE A E 27;1KNE A K 28;39.8069
1KNE A E 27;1KNE A K 44;36.3543
1KNE A E 27;1KNE A W 45;2.34118
1KNE A E 27;1KNE A K 46;28.2438
1KNE A E 27;1KNE A G 47;2.15955
1KNE A E 27;1KNE A L 66;11.42
1KNE A K 28;1KNE A I 29;31.1567
1KNE A K 28;1KNE A I 30;25.5556
1KNE A K 28;1KNE A L 43;6.2342
1KNE A K 28;1KNE A K 44;25.8138
1KNE A K 28;1KNE A E 50;3.87322
1KNE A K 28;1KNE A L 66;11.8649
1KNE A I 29;1KNE A I 30;22.1433
1KNE A I 29;1KNE A D 31;9.06444
1KNE A I 29;1KNE A R 32;0.052383
1KNE A I 29;1KNE A Y 41;20.6762
1KNE A I 29;1KNE A Y 42;4.34155
1KNE A I 29;1KNE A L 43;11.4215
1KNE A I 29;1KNE A L 61;7.68528
1KNE A I 29;1KNE A C 63;3.33238
1KNE A I 29;1KNE A L 66;20.2908
1KNE A I 29;1KNE A I 67;14.1533
1KNE A I 29;1KNE A Y 70;33.2542
1KNE A I 30;1KNE A D 31;29.6322
1KNE A I 30;1KNE A Y 42;31.137
1KNE A I 30;1KNE A L 43;4.39671
1KNE A I 30;1KNE A K 44;10.4787
1KNE A I 30;1KNE A E 50;10.3866
1KNE A I 30;1KNE A N 53;10.4467
1KNE A I 30;1KNE A Y 70;8.11945
1KNE A D 31;1KNE A R 32;31.0042
1KNE A D 31;1KNE A Y 41;5.47483
1KNE A D 31;1KNE A Y 42;20.8847
1KNE A D 31;1KNE A W 55;17.0052
1KNE A D 31;1KNE A Y 70;17.8021
1KNE A R 32;1KNE A R 33;33.5047
1KNE A R 32;1KNE A V 34;17.9876
1KNE A R 32;1KNE A V 39;24.8651
1KNE A R 32;1KNE A E 40;6.6119
1KNE A R 32;1KNE A Y 41;17.6806
1KNE A R 32;1KNE A W 55;7.87919
1KNE A R 32;1KNE A Y 70;16.6094
1KNE A R 32;1KNE A E 71;13.5794
1KNE A R 32;1KNE A R 74;28.4526
1KNE A R 33;1KNE A V 34;32.3957
1KNE A R 33;1KNE A R 35;43.239
1KNE A R 33;1KNE A M 38;0.763604
1KNE A R 33;1KNE A V 39;5.61623
1KNE A R 33;1KNE A E 40;33.5376
1KNE A R 33;1KNE A W 55;54.2162
1KNE A V 34;1KNE A R 35;27.5562
1KNE A V 34;1KNE A K 36;0.124657
1KNE A V 34;1KNE A G 37;17.4308
1KNE A V 34;1KNE A M 38;8.18887
1KNE A V 34;1KNE A V 39;13.9339
1KNE A R 35;1KNE A K 36;49.9771
1KNE A R 35;1KNE A G 37;2.11965
1KNE A R 35;1KNE A M 38;20.5293
1KNE A R 35;1KNE A E 40;20.1612
1KNE A K 36;1KNE A G 37;27.2648
1KNE A K 36;1KNE A M 38;13.1843
1KNE A G 37;1KNE A M 38;22.0918
1KNE A G 37;1KNE A V 39;3.53213
1KNE A M 38;1KNE A V 39;31.4159
1KNE A M 38;1KNE A E 40;13.7116
1KNE A M 38;1KNE A P 57;14.5273
1KNE A M 38;1KNE A E 58;19.2916
1KNE A M 38;1KNE A N 59;15.2319
1KNE A V 39;1KNE A E 40;22.2316
1KNE A V 39;1KNE A Y 41;13.7993
1KNE A V 39;1KNE A P 57;3.61857
1KNE A V 39;1KNE A E 58;32.5749
1KNE A E 40;1KNE A Y 41;21.2197
1KNE A E 40;1KNE A W 55;22.5866
1KNE A E 40;1KNE A E 56;8.46332
1KNE A E 40;1KNE A P 57;18.4287
1KNE A E 40;1KNE A E 58;1.50609
1KNE A Y 41;1KNE A Y 42;14.8413
1KNE A Y 41;1KNE A L 43;16.7201
1KNE A Y 41;1KNE A T 54;1.72441
1KNE A Y 41;1KNE A W 55;7.51806
1KNE A Y 41;1KNE A E 56;17.3881
1KNE A Y 41;1KNE A E 58;20.5944
1KNE A Y 41;1KNE A L 61;14.1925
1KNE A Y 41;1KNE A I 67;25.7838
1KNE A Y 41;1KNE A Y 70;7.78431
1KNE A Y 41;1KNE A E 71;14.8088
1KNE A Y 42;1KNE A L 43;20.6046
1KNE A Y 42;1KNE A E 50;2.68297
1KNE A Y 42;1KNE A N 53;31.0915
1KNE A Y 42;1KNE A T 54;11.1946
1KNE A Y 42;1KNE A W 55;42.8776
1KNE A L 43;1KNE A K 44;20.8763
1KNE A L 43;1KNE A W 45;21.2512
1KNE A L 43;1KNE A N 53;9.49894
1KNE A L 43;1KNE A T 54;15.5764
1KNE A L 43;1KNE A E 56;11.0247
1KNE A L 43;1KNE A L 61;16.2802
1KNE A L 43;1KNE P A 7;4.55281
1KNE A K 44;1KNE A W 45;32.013
1KNE A K 44;1KNE A K 46;0.431053
1KNE A K 44;1KNE A G 47;1.91453
1KNE A K 44;1KNE A Y 48;13.0668
1KNE A K 44;1KNE A P 49;1.34375
1KNE A K 44;1KNE A E 50;25.8846
1KNE A K 44;1KNE A N 53;16.0019
1KNE A W 45;1KNE A K 46;19.8089
1KNE A W 45;1KNE A G 47;0.92362
1KNE A W 45;1KNE A Y 48;31.4856
1KNE A W 45;1KNE A P 49;0.331663
1KNE A W 45;1KNE A E 52;15.0205
1KNE A W 45;1KNE A N 53;6.42333
1KNE A W 45;1KNE A T 54;17.5757
1KNE A W 45;1KNE A E 56;12.9689
1KNE A W 45;1KNE P A 7;14.1445
1KNE A W 45;1KNE P R 8;9.38905
1KNE A W 45;1KNE P S 10;0.352823
1KNE A K 46;1KNE A G 47;25.8347
1KNE A K 46;1KNE A Y 48;13.5643
1KNE A G 47;1KNE A Y 48;33.8717
1KNE A G 47;1KNE A P 49;3.14127
1KNE A Y 48;1KNE A P 49;38.3278
1KNE A Y 48;1KNE A E 50;0.13673
1KNE A Y 48;1KNE A E 52;21.1572
1KNE A P 49;1KNE A E 50;23.6024
1KNE A P 49;1KNE A T 51;18.5888
1KNE A P 49;1KNE A E 52;23.1487
1KNE A P 49;1KNE A N 53;5.04061
1KNE A E 50;1KNE A T 51;25.8392
1KNE A E 50;1KNE A E 52;2.22288
1KNE A E 50;1KNE A N 53;32.4657
1KNE A T 51;1KNE A E 52;32.6597
1KNE A T 51;1KNE A N 53;7.36966
1KNE A E 52;1KNE A N 53;19.9969
1KNE A E 52;1KNE A T 54;13.9144
1KNE A N 53;1KNE A T 54;24.8975
1KNE A T 54;1KNE A W 55;25.4895
1KNE A T 54;1KNE A E 56;19.7262
1KNE A T 54;1KNE P S 10;2.82336
1KNE A W 55;1KNE A E 56;24.7458
1KNE A W 55;1KNE A P 57;2.59446
1KNE A W 55;1KNE P S 10;5.84974
1KNE A E 56;1KNE A P 57;26.9121
1KNE A E 56;1KNE A E 58;1.15527
1KNE A E 56;1KNE A N 60;11.8352
1KNE A E 56;1KNE A L 61;11.8526
1KNE A E 56;1KNE P A 7;1.19955
1KNE A E 56;1KNE P R 8;9.47411
1KNE A E 56;1KNE P S 10;23.9989
1KNE A P 57;1KNE A E 58;15.3786
1KNE A P 57;1KNE A N 59;18.8077
1KNE A P 57;1KNE A N 60;24.7937
1KNE A P 57;1KNE A L 61;5.26613
1KNE A P 57;1KNE P S 10;4.43575
1KNE A E 58;1KNE A N 59;27.1961
1KNE A E 58;1KNE A N 60;1.90126
1KNE A E 58;1KNE A L 61;20.0674
1KNE A E 58;1KNE A I 67;7.16697
1KNE A N 59;1KNE A N 60;33.3553
1KNE A N 59;1KNE A L 61;7.2292
1KNE A N 60;1KNE A L 61;23.75
1KNE A N 60;1KNE A D 62;1.78021
1KNE A N 60;1KNE P A 7;7.4297
1KNE A N 60;1KNE P R 8;46.3122
1KNE A N 60;1KNE P S 10;10.1578
1KNE A L 61;1KNE A D 62;25.9572
1KNE A L 61;1KNE A C 63;17.6028
1KNE A L 61;1KNE A I 67;17.5718
1KNE A L 61;1KNE P T 6;0.606837
1KNE A L 61;1KNE P A 7;13.4403
1KNE A D 62;1KNE A C 63;24.7129
1KNE A D 62;1KNE A Q 64;0.741123
1KNE A D 62;1KNE P Q 5;15.8354
1KNE A D 62;1KNE P T 6;28.631
1KNE A D 62;1KNE P A 7;2.96539
1KNE A C 63;1KNE A Q 64;24.5253
1KNE A C 63;1KNE A D 65;6.67878
1KNE A C 63;1KNE A L 66;19.7735
1KNE A C 63;1KNE A I 67;16.8531
1KNE A C 63;1KNE P Q 5;18.5261
1KNE A C 63;1KNE P T 6;6.8636
1KNE A C 63;1KNE P A 7;0.423413
1KNE A Q 64;1KNE A D 65;27.3841
1KNE A Q 64;1KNE A L 66;0.43609
1KNE A Q 64;1KNE A I 67;31.7619
1KNE A Q 64;1KNE A Q 68;34.2315
1KNE A D 65;1KNE A L 66;26.7305
1KNE A D 65;1KNE A I 67;0.94782
1KNE A D 65;1KNE A Q 68;8.18048
1KNE A D 65;1KNE A Q 69;14.8218
1KNE A D 65;1KNE P Q 5;1.23242
1KNE A L 66;1KNE A I 67;15.2567
1KNE A L 66;1KNE A Q 68;0.296809
1KNE A L 66;1KNE A Q 69;13.6503
1KNE A L 66;1KNE A Y 70;11.1146
1KNE A L 66;1KNE P Q 5;13.0026
1KNE A I 67;1KNE A Q 68;18.6063
1KNE A I 67;1KNE A Q 69;1.45165
1KNE A I 67;1KNE A Y 70;8.94867
1KNE A I 67;1KNE A E 71;19.787
1KNE A Q 68;1KNE A Q 69;20.4484
1KNE A Q 68;1KNE A Y 70;0.558458
1KNE A Q 68;1KNE A E 71;12.3279
1KNE A Q 68;1KNE A A 72;12.7972
1KNE A Q 69;1KNE A Y 70;18.6226
1KNE A Q 69;1KNE A E 71;0.653975
1KNE A Q 69;1KNE A A 72;16.9406
1KNE A Q 69;1KNE A S 73;20.2144
1KNE A Y 70;1KNE A E 71;25.6444
1KNE A Y 70;1KNE A A 72;2.44395
1KNE A Y 70;1KNE A S 73;18.9879
1KNE A Y 70;1KNE A R 74;21.9311
1KNE A E 71;1KNE A A 72;21.6135
1KNE A E 71;1KNE A S 73;0.236776
1KNE A E 71;1KNE A R 74;36.9949
1KNE A A 72;1KNE A S 73;22.0568
1KNE A A 72;1KNE A R 74;11.8665
1KNE A S 73;1KNE A R 74;27.5024
1KNE P Q 5;1KNE P T 6;39.0093
1KNE P T 6;1KNE P A 7;21.0713
1KNE P A 7;1KNE P R 8;21.9153
1KNE P R 8;1KNE P S 10;15.6941
