V1;V2;Weight
1KTZ A E 13;1KTZ A N 14;42.6271
1KTZ A E 13;1KTZ A C 16;4.69516
1KTZ A E 13;1KTZ A R 18;22.1426
1KTZ A E 13;1KTZ A P 47;23.3735
1KTZ A N 14;1KTZ A C 15;26.7578
1KTZ A N 14;1KTZ A C 16;15.063
1KTZ A N 14;1KTZ A R 18;6.59039
1KTZ A N 14;1KTZ A S 45;0.883833
1KTZ A N 14;1KTZ A G 46;4.50699
1KTZ A N 14;1KTZ A P 47;16.4451
1KTZ A C 15;1KTZ A C 16;24.8545
1KTZ A C 15;1KTZ A S 45;2.04506
1KTZ A C 15;1KTZ A G 46;7.94815
1KTZ A C 15;1KTZ A P 47;8.90129
1KTZ A C 15;1KTZ A C 48;4.24487
1KTZ A C 15;1KTZ A C 78;18.3926
1KTZ A C 15;1KTZ A V 79;0.217284
1KTZ A C 15;1KTZ A C 109;10.3516
1KTZ A C 15;1KTZ A K 110;8.78514
1KTZ A C 15;1KTZ A C 111;14.3606
1KTZ A C 16;1KTZ A V 17;30.831
1KTZ A C 16;1KTZ A R 18;23.462
1KTZ A C 16;1KTZ A F 43;0.836571
1KTZ A C 16;1KTZ A C 44;2.84686
1KTZ A C 16;1KTZ A S 45;11.4849
1KTZ A C 16;1KTZ A C 78;4.02487
1KTZ A C 16;1KTZ A C 109;12.0787
1KTZ A V 17;1KTZ A R 18;26.4826
1KTZ A V 17;1KTZ A P 19;6.61029
1KTZ A V 17;1KTZ A N 42;14.8426
1KTZ A V 17;1KTZ A F 43;5.93092
1KTZ A V 17;1KTZ A C 44;0.111178
1KTZ A V 17;1KTZ A V 106;14.2311
1KTZ A V 17;1KTZ A K 107;13.6381
1KTZ A V 17;1KTZ A S 108;9.48268
1KTZ A V 17;1KTZ A C 109;15.7596
1KTZ A R 18;1KTZ A P 19;32.6752
1KTZ A R 18;1KTZ A L 20;0.710063
1KTZ A R 18;1KTZ A N 42;7.34728
1KTZ A R 18;1KTZ A F 43;37.6652
1KTZ A R 18;1KTZ A C 44;0.400472
1KTZ A R 18;1KTZ A S 45;26.107
1KTZ A R 18;1KTZ A G 46;6.46224
1KTZ A R 18;1KTZ A P 47;0.470949
1KTZ A P 19;1KTZ A L 20;24.8738
1KTZ A P 19;1KTZ A Y 40;14.9292
1KTZ A P 19;1KTZ A N 42;10.596
1KTZ A P 19;1KTZ A F 43;6.32409
1KTZ A L 20;1KTZ A Y 21;31.289
1KTZ A L 20;1KTZ A I 22;21.1267
1KTZ A L 20;1KTZ A Y 39;0.450725
1KTZ A L 20;1KTZ A Y 40;11.2426
1KTZ A L 20;1KTZ A A 41;8.81727
1KTZ A L 20;1KTZ A N 42;24.0704
1KTZ A L 20;1KTZ A F 43;27.695
1KTZ A Y 21;1KTZ A I 22;28.8629
1KTZ A Y 21;1KTZ A D 23;18.7815
1KTZ A Y 21;1KTZ A D 27;5.43757
1KTZ A Y 21;1KTZ A K 37;7.67309
1KTZ A Y 21;1KTZ A G 38;19.1529
1KTZ A Y 21;1KTZ A Y 39;15.4126
1KTZ A Y 21;1KTZ A Y 40;37.4669
1KTZ A I 22;1KTZ A D 23;20.6859
1KTZ A I 22;1KTZ A F 24;4.83414
1KTZ A I 22;1KTZ A D 27;20.005
1KTZ A I 22;1KTZ A L 28;21.0628
1KTZ A I 22;1KTZ A G 38;5.86608
1KTZ A I 22;1KTZ A Y 39;31.368
1KTZ A I 22;1KTZ A A 41;15.9517
1KTZ A D 23;1KTZ A F 24;18.7357
1KTZ A D 23;1KTZ A R 25;11.1617
1KTZ A D 23;1KTZ A Q 26;26.1413
1KTZ A D 23;1KTZ A D 27;22.8955
1KTZ A D 23;1KTZ A L 28;3.124
1KTZ A D 23;1KTZ A K 37;15.3844
1KTZ A D 23;1KTZ A G 38;3.60541
1KTZ A F 24;1KTZ A R 25;20.5082
1KTZ A F 24;1KTZ A Q 26;0.272677
1KTZ A F 24;1KTZ A D 27;0.473185
1KTZ A F 24;1KTZ A L 28;22.1505
1KTZ A F 24;1KTZ A G 29;3.44672
1KTZ A F 24;1KTZ A W 30;30.6758
1KTZ A F 24;1KTZ A V 33;25.3608
1KTZ A F 24;1KTZ A P 36;13.9182
1KTZ A F 24;1KTZ A K 37;15.5201
1KTZ A F 24;1KTZ A G 38;11.3494
1KTZ A F 24;1KTZ A Y 39;13.4567
1KTZ A F 24;1KTZ A L 86;9.23817
1KTZ A F 24;1KTZ A I 88;6.94344
1KTZ A F 24;1KTZ A L 101;2.32713
1KTZ A F 24;1KTZ A M 104;5.8885
1KTZ A R 25;1KTZ A Q 26;40.5872
1KTZ A R 25;1KTZ A D 27;1.11314
1KTZ A R 25;1KTZ A L 28;0.042678
1KTZ A R 25;1KTZ A G 29;14.8565
1KTZ A R 25;1KTZ A W 30;11.5777
1KTZ A R 25;1KTZ A K 31;39.0308
1KTZ A R 25;1KTZ A K 37;4.51143
1KTZ A R 25;1KTZ B K 29;2.60968
1KTZ A R 25;1KTZ B T 51;3.23895
1KTZ A R 25;1KTZ B E 119;20.9343
1KTZ A Q 26;1KTZ A D 27;34.6299
1KTZ A Q 26;1KTZ A L 28;0.0165091
1KTZ A Q 26;1KTZ A G 29;1.97777
1KTZ A D 27;1KTZ A L 28;31.9891
1KTZ A D 27;1KTZ A G 29;2.72323
1KTZ A L 28;1KTZ A G 29;22.9813
1KTZ A L 28;1KTZ A W 30;40.8635
1KTZ A L 28;1KTZ A Y 39;5.36705
1KTZ A L 28;1KTZ A M 104;5.83442
1KTZ A G 29;1KTZ A W 30;22.7411
1KTZ A G 29;1KTZ A K 31;17.2734
1KTZ A W 30;1KTZ A K 31;21.0339
1KTZ A W 30;1KTZ A W 32;40.3037
1KTZ A W 30;1KTZ A V 33;16.7206
1KTZ A W 30;1KTZ A I 88;0.0249503
1KTZ A W 30;1KTZ A L 101;13.8676
1KTZ A W 30;1KTZ A M 104;13.6383
1KTZ A K 31;1KTZ A W 32;22.1631
1KTZ A K 31;1KTZ A V 33;8.4037
1KTZ A K 31;1KTZ B L 27;17.6557
1KTZ A K 31;1KTZ B T 51;13.1755
1KTZ A K 31;1KTZ B D 118;21.2218
1KTZ A K 31;1KTZ B E 119;17.3345
1KTZ A W 32;1KTZ A V 33;34.6598
1KTZ A W 32;1KTZ A H 34;4.67515
1KTZ A W 32;1KTZ A I 88;13.1903
1KTZ A W 32;1KTZ A Y 90;26.7535
1KTZ A W 32;1KTZ A Y 91;3.09354
1KTZ A W 32;1KTZ A L 101;6.51107
1KTZ A W 32;1KTZ B P 25;0.900258
1KTZ A W 32;1KTZ B L 27;21.6112
1KTZ A W 32;1KTZ B T 51;17.2421
1KTZ A W 32;1KTZ B S 52;0.709489
1KTZ A W 32;1KTZ B I 53;25.9492
1KTZ A V 33;1KTZ A H 34;21.6993
1KTZ A V 33;1KTZ A E 35;8.345
1KTZ A V 33;1KTZ A P 36;9.17618
1KTZ A V 33;1KTZ A K 37;12.5917
1KTZ A V 33;1KTZ A I 88;16.8855
1KTZ A V 33;1KTZ A L 89;3.62703
1KTZ A V 33;1KTZ A Y 90;3.77455
1KTZ A V 33;1KTZ A L 101;0.201895
1KTZ A H 34;1KTZ A E 35;38.7795
1KTZ A H 34;1KTZ A P 36;0.539458
1KTZ A H 34;1KTZ A K 37;19.1248
1KTZ A H 34;1KTZ A L 89;23.8972
1KTZ A H 34;1KTZ A Y 90;7.42632
1KTZ A H 34;1KTZ A Y 91;24.4137
1KTZ A H 34;1KTZ B S 49;23.3621
1KTZ A H 34;1KTZ B I 50;11.291
1KTZ A H 34;1KTZ B T 51;6.25101
1KTZ A E 35;1KTZ A P 36;35.8917
1KTZ A E 35;1KTZ A K 37;20.6319
1KTZ A E 35;1KTZ A I 88;5.11618
1KTZ A E 35;1KTZ A L 89;30.9348
1KTZ A P 36;1KTZ A K 37;23.1598
1KTZ A P 36;1KTZ A G 38;17.079
1KTZ A P 36;1KTZ A Y 39;5.6845
1KTZ A P 36;1KTZ A L 86;10.6465
1KTZ A P 36;1KTZ A T 87;9.89454
1KTZ A P 36;1KTZ A I 88;8.12946
1KTZ A K 37;1KTZ A G 38;18.9044
1KTZ A K 37;1KTZ B S 49;6.02646
1KTZ A G 38;1KTZ A Y 39;22.2512
1KTZ A Y 39;1KTZ A Y 40;28.9761
1KTZ A Y 39;1KTZ A A 41;21.3043
1KTZ A Y 39;1KTZ A L 86;27.2798
1KTZ A Y 39;1KTZ A M 104;31.3683
1KTZ A Y 39;1KTZ A V 105;9.79786
1KTZ A Y 40;1KTZ A A 41;14.8102
1KTZ A Y 40;1KTZ A N 42;19.4413
1KTZ A Y 40;1KTZ A V 105;12.8347
1KTZ A A 41;1KTZ A N 42;29.9913
1KTZ A A 41;1KTZ A M 104;9.68759
1KTZ A A 41;1KTZ A V 105;6.03364
1KTZ A A 41;1KTZ A V 106;12.0766
1KTZ A N 42;1KTZ A F 43;23.4285
1KTZ A N 42;1KTZ A V 105;6.92069
1KTZ A N 42;1KTZ A V 106;21.6346
1KTZ A N 42;1KTZ A K 107;5.38071
1KTZ A F 43;1KTZ A C 44;33.4945
1KTZ A F 43;1KTZ A S 45;13.8359
1KTZ A F 43;1KTZ A V 106;11.7454
1KTZ A F 43;1KTZ A C 109;1.15372
1KTZ A C 44;1KTZ A S 45;22.7912
1KTZ A C 44;1KTZ A C 78;18.9573
1KTZ A C 44;1KTZ A V 79;8.1923
1KTZ A C 44;1KTZ A P 80;16.3204
1KTZ A C 44;1KTZ A V 106;7.84002
1KTZ A C 44;1KTZ A S 108;0.58221
1KTZ A C 44;1KTZ A C 109;18.6756
1KTZ A S 45;1KTZ A G 46;25.0726
1KTZ A S 45;1KTZ A C 78;12.6146
1KTZ A G 46;1KTZ A P 47;30.4704
1KTZ A G 46;1KTZ A C 48;4.91755
1KTZ A G 46;1KTZ A C 78;13.4645
1KTZ A P 47;1KTZ A C 48;33.3873
1KTZ A P 47;1KTZ A C 111;2.15766
1KTZ A C 48;1KTZ A P 49;33.7333
1KTZ A C 48;1KTZ A Y 50;3.29681
1KTZ A C 48;1KTZ A S 75;0.0831327
1KTZ A C 48;1KTZ A P 76;18.1091
1KTZ A C 48;1KTZ A C 77;7.79355
1KTZ A C 48;1KTZ A C 78;7.632
1KTZ A C 48;1KTZ A C 111;18.6675
1KTZ A P 49;1KTZ A Y 50;24.5763
1KTZ A P 49;1KTZ A L 51;16.2936
1KTZ A P 49;1KTZ A S 53;1.62145
1KTZ A P 49;1KTZ A S 75;3.34087
1KTZ A P 49;1KTZ A P 76;19.002
1KTZ A P 49;1KTZ A C 111;13.542
1KTZ A Y 50;1KTZ A L 51;50.0748
1KTZ A Y 50;1KTZ A S 75;30.3727
1KTZ A Y 50;1KTZ A P 76;5.73847
1KTZ A L 51;1KTZ A R 52;36.1478
1KTZ A L 51;1KTZ A S 53;3.22279
1KTZ A L 51;1KTZ A P 76;10.7871
1KTZ A R 52;1KTZ A S 53;31.7115
1KTZ A R 52;1KTZ A A 54;21.3272
1KTZ A R 52;1KTZ A S 73;10.5288
1KTZ A R 52;1KTZ A A 74;15.2715
1KTZ A R 52;1KTZ A S 75;2.66967
1KTZ A R 52;1KTZ A P 76;23.3503
1KTZ A R 52;1KTZ A S 112;26.2405
1KTZ A S 53;1KTZ A A 54;36.7806
1KTZ A S 73;1KTZ A A 74;43.0776
1KTZ A A 74;1KTZ A S 75;40.3472
1KTZ A A 74;1KTZ A P 76;0.221518
1KTZ A A 74;1KTZ A C 77;2.12486
1KTZ A S 75;1KTZ A P 76;33.5629
1KTZ A S 75;1KTZ A C 77;10.4506
1KTZ A S 75;1KTZ A S 112;1.58966
1KTZ A P 76;1KTZ A C 77;22.5415
1KTZ A P 76;1KTZ A C 111;8.32107
1KTZ A P 76;1KTZ A S 112;16.0389
1KTZ A C 77;1KTZ A C 78;22.7226
1KTZ A C 77;1KTZ A V 79;17.8107
1KTZ A C 77;1KTZ A K 110;2.28187
1KTZ A C 77;1KTZ A C 111;4.53862
1KTZ A C 77;1KTZ A S 112;21.2384
1KTZ A C 78;1KTZ A V 79;24.2455
1KTZ A C 78;1KTZ A C 109;4.5552
1KTZ A C 78;1KTZ A K 110;2.53647
1KTZ A C 78;1KTZ A C 111;0.711295
1KTZ A V 79;1KTZ A P 80;35.5175
1KTZ A V 79;1KTZ A Q 81;0.101442
1KTZ A V 79;1KTZ A C 109;4.63435
1KTZ A V 79;1KTZ A K 110;29.252
1KTZ A V 79;1KTZ A S 112;13.548
1KTZ A P 80;1KTZ A Q 81;22.9923
1KTZ A P 80;1KTZ A D 82;0.675854
1KTZ A P 80;1KTZ A L 83;20.0945
1KTZ A P 80;1KTZ A V 106;15.2625
1KTZ A P 80;1KTZ A S 108;3.23483
1KTZ A P 80;1KTZ A C 109;1.38712
1KTZ A P 80;1KTZ A K 110;10.7379
1KTZ A Q 81;1KTZ A D 82;38.4022
1KTZ A Q 81;1KTZ A L 83;9.40762
1KTZ A Q 81;1KTZ A S 108;21.2946
1KTZ A Q 81;1KTZ A C 109;13.2764
1KTZ A Q 81;1KTZ A K 110;37.732
1KTZ A D 82;1KTZ A L 83;25.3153
1KTZ A D 82;1KTZ A E 84;11.5537
1KTZ A D 82;1KTZ A V 105;0.276247
1KTZ A D 82;1KTZ A V 106;2.48636
1KTZ A D 82;1KTZ A K 107;19.2209
1KTZ A D 82;1KTZ A S 108;25.9851
1KTZ A L 83;1KTZ A E 84;29.9026
1KTZ A L 83;1KTZ A P 85;1.21018
1KTZ A L 83;1KTZ A N 103;45.9585
1KTZ A L 83;1KTZ A M 104;1.03019
1KTZ A L 83;1KTZ A V 105;8.8142
1KTZ A L 83;1KTZ A V 106;16.9235
1KTZ A L 83;1KTZ A K 107;0.030278
1KTZ A E 84;1KTZ A P 85;42.2618
1KTZ A E 84;1KTZ A N 103;7.61161
1KTZ A E 84;1KTZ A M 104;5.25611
1KTZ A E 84;1KTZ A V 105;25.6857
1KTZ A E 84;1KTZ A K 107;26.1337
1KTZ A P 85;1KTZ A L 86;24.1426
1KTZ A P 85;1KTZ A T 87;0.241724
1KTZ A P 85;1KTZ A Q 100;25.6824
1KTZ A P 85;1KTZ A L 101;7.79033
1KTZ A P 85;1KTZ A S 102;13.0758
1KTZ A P 85;1KTZ A N 103;4.17382
1KTZ A P 85;1KTZ A M 104;2.71198
1KTZ A P 85;1KTZ A V 105;8.27991
1KTZ A L 86;1KTZ A T 87;32.417
1KTZ A L 86;1KTZ A I 88;14.9742
1KTZ A L 86;1KTZ A E 99;0.022847
1KTZ A L 86;1KTZ A Q 100;9.05576
1KTZ A L 86;1KTZ A L 101;18.9754
1KTZ A L 86;1KTZ A M 104;18.8601
1KTZ A L 86;1KTZ A V 105;10.957
1KTZ A T 87;1KTZ A I 88;25.1195
1KTZ A T 87;1KTZ A V 98;17.476
1KTZ A T 87;1KTZ A E 99;8.21146
1KTZ A T 87;1KTZ A Q 100;20.1464
1KTZ A I 88;1KTZ A L 89;23.3705
1KTZ A I 88;1KTZ A Y 90;14.7972
1KTZ A I 88;1KTZ A K 97;0.846284
1KTZ A I 88;1KTZ A V 98;7.26827
1KTZ A I 88;1KTZ A E 99;22.9813
1KTZ A I 88;1KTZ A Q 100;0.643715
1KTZ A I 88;1KTZ A L 101;25.672
1KTZ A L 89;1KTZ A Y 90;23.923
1KTZ A L 89;1KTZ A Y 91;8.20735
1KTZ A L 89;1KTZ A P 96;14.9127
1KTZ A L 89;1KTZ A K 97;12.2987
1KTZ A L 89;1KTZ A V 98;22.3073
1KTZ A Y 90;1KTZ A Y 91;30.5298
1KTZ A Y 90;1KTZ A V 92;14.2072
1KTZ A Y 90;1KTZ A T 95;0.563151
1KTZ A Y 90;1KTZ A P 96;3.1978
1KTZ A Y 90;1KTZ A K 97;41.755
1KTZ A Y 90;1KTZ A E 99;29.4986
1KTZ A Y 90;1KTZ B I 53;14.3968
1KTZ A Y 91;1KTZ A V 92;19.6433
1KTZ A Y 91;1KTZ A G 93;6.70683
1KTZ A Y 91;1KTZ A R 94;14.19
1KTZ A Y 91;1KTZ A T 95;8.65801
1KTZ A Y 91;1KTZ A P 96;28.0104
1KTZ A Y 91;1KTZ A K 97;0.0117706
1KTZ A Y 91;1KTZ B F 30;0.010545
1KTZ A Y 91;1KTZ B I 50;40.2782
1KTZ A Y 91;1KTZ B T 51;9.32686
1KTZ A Y 91;1KTZ B S 52;12.2318
1KTZ A Y 91;1KTZ B I 53;12.4115
1KTZ A V 92;1KTZ A G 93;21.0848
1KTZ A V 92;1KTZ A R 94;0.5949
1KTZ A V 92;1KTZ A T 95;22.2881
1KTZ A V 92;1KTZ A K 97;24.7297
1KTZ A V 92;1KTZ B S 52;0.895528
1KTZ A V 92;1KTZ B I 53;21.8141
1KTZ A V 92;1KTZ B C 54;0.48281
1KTZ A V 92;1KTZ B E 55;22.0753
1KTZ A G 93;1KTZ A R 94;19.5281
1KTZ A G 93;1KTZ A T 95;2.77233
1KTZ A G 93;1KTZ B F 30;17.0453
1KTZ A G 93;1KTZ B I 50;0.682913
1KTZ A G 93;1KTZ B S 52;13.1763
1KTZ A G 93;1KTZ B I 53;4.24049
1KTZ A G 93;1KTZ B C 54;2.34469
1KTZ A G 93;1KTZ B E 55;20.119
1KTZ A G 93;1KTZ B C 78;1.61461
1KTZ A R 94;1KTZ A T 95;27.1223
1KTZ A R 94;1KTZ A P 96;7.65769
1KTZ A R 94;1KTZ B F 30;39.6252
1KTZ A R 94;1KTZ B D 32;29.8471
1KTZ A R 94;1KTZ B I 50;0.658988
1KTZ A R 94;1KTZ B V 77;5.39683
1KTZ A R 94;1KTZ B Y 85;3.84451
1KTZ A T 95;1KTZ A P 96;33.9924
1KTZ A T 95;1KTZ A K 97;24.1975
1KTZ A P 96;1KTZ A K 97;25.6974
1KTZ A P 96;1KTZ A V 98;0.049398
1KTZ A K 97;1KTZ A V 98;26.4915
1KTZ A K 97;1KTZ A E 99;3.13417
1KTZ A V 98;1KTZ A E 99;30.5494
1KTZ A E 99;1KTZ A Q 100;36.5526
1KTZ A E 99;1KTZ A L 101;16.6798
1KTZ A Q 100;1KTZ A L 101;25.2285
1KTZ A Q 100;1KTZ A S 102;4.06343
1KTZ A L 101;1KTZ A S 102;24.5797
1KTZ A L 101;1KTZ A M 104;26.8694
1KTZ A S 102;1KTZ A N 103;41.928
1KTZ A S 102;1KTZ A M 104;9.81487
1KTZ A N 103;1KTZ A M 104;25.9923
1KTZ A N 103;1KTZ A V 105;0.997044
1KTZ A M 104;1KTZ A V 105;22.8565
1KTZ A M 104;1KTZ A V 106;2.97937
1KTZ A V 105;1KTZ A V 106;22.8043
1KTZ A V 105;1KTZ A K 107;20.8931
1KTZ A V 106;1KTZ A K 107;21.9029
1KTZ A V 106;1KTZ A S 108;7.83208
1KTZ A V 106;1KTZ A C 109;3.80269
1KTZ A K 107;1KTZ A S 108;25.4579
1KTZ A S 108;1KTZ A C 109;23.2178
1KTZ A C 109;1KTZ A K 110;22.0691
1KTZ A K 110;1KTZ A C 111;29.1214
1KTZ A K 110;1KTZ A S 112;17.3216
1KTZ A C 111;1KTZ A S 112;25.4607
1KTZ B P 25;1KTZ B Q 26;29.5527
1KTZ B P 25;1KTZ B L 27;16.7274
1KTZ B P 25;1KTZ B I 53;20.3838
1KTZ B P 25;1KTZ B C 54;0.403139
1KTZ B P 25;1KTZ B P 57;0.0464731
1KTZ B P 25;1KTZ B D 118;6.85448
1KTZ B Q 26;1KTZ B L 27;25.3699
1KTZ B Q 26;1KTZ B C 28;6.85796
1KTZ B Q 26;1KTZ B S 52;0.696557
1KTZ B Q 26;1KTZ B I 53;4.97036
1KTZ B Q 26;1KTZ B C 54;24.3682
1KTZ B Q 26;1KTZ B K 56;0.483915
1KTZ B Q 26;1KTZ B P 57;9.31481
1KTZ B Q 26;1KTZ B E 59;12.8309
1KTZ B Q 26;1KTZ B V 60;7.08241
1KTZ B Q 26;1KTZ B C 61;8.05707
1KTZ B Q 26;1KTZ B C 115;0.188654
1KTZ B Q 26;1KTZ B S 116;19.9017
1KTZ B Q 26;1KTZ B S 117;9.6301
1KTZ B Q 26;1KTZ B D 118;11.8715
1KTZ B Q 26;1KTZ B C 120;0.151977
1KTZ B L 27;1KTZ B C 28;18.626
1KTZ B L 27;1KTZ B T 51;12.3607
1KTZ B L 27;1KTZ B S 52;8.58695
1KTZ B L 27;1KTZ B I 53;14.3022
1KTZ B L 27;1KTZ B C 54;0.387228
1KTZ B L 27;1KTZ B C 61;3.48815
1KTZ B L 27;1KTZ B S 117;0.178677
1KTZ B L 27;1KTZ B D 118;28.534
1KTZ B L 27;1KTZ B E 119;13.5447
1KTZ B C 28;1KTZ B K 29;23.0306
1KTZ B C 28;1KTZ B F 30;4.19589
1KTZ B C 28;1KTZ B I 50;0.812411
1KTZ B C 28;1KTZ B T 51;8.21272
1KTZ B C 28;1KTZ B S 52;16.5867
1KTZ B C 28;1KTZ B C 54;9.08853
1KTZ B C 28;1KTZ B V 60;3.65016
1KTZ B C 28;1KTZ B C 61;20.433
1KTZ B C 28;1KTZ B V 77;3.50243
1KTZ B C 28;1KTZ B C 78;12.6228
1KTZ B C 28;1KTZ B E 119;5.80524
1KTZ B C 28;1KTZ B N 121;4.95333
1KTZ B K 29;1KTZ B F 30;16.6917
1KTZ B K 29;1KTZ B S 46;6.569
1KTZ B K 29;1KTZ B C 48;26.0118
1KTZ B K 29;1KTZ B S 49;7.4393
1KTZ B K 29;1KTZ B I 50;9.66429
1KTZ B K 29;1KTZ B T 51;17.0935
1KTZ B K 29;1KTZ B T 76;13.6387
1KTZ B K 29;1KTZ B V 77;5.86013
1KTZ B K 29;1KTZ B C 78;0.00732625
1KTZ B K 29;1KTZ B E 119;19.2539
1KTZ B K 29;1KTZ B N 121;21.0513
1KTZ B K 29;1KTZ B D 122;26.2302
1KTZ B F 30;1KTZ B C 31;17.3386
1KTZ B F 30;1KTZ B D 32;14.4751
1KTZ B F 30;1KTZ B C 48;3.82319
1KTZ B F 30;1KTZ B I 50;24.9604
1KTZ B F 30;1KTZ B S 52;12.7691
1KTZ B F 30;1KTZ B T 76;7.78986
1KTZ B F 30;1KTZ B V 77;18.0338
1KTZ B F 30;1KTZ B C 78;27.5491
1KTZ B C 31;1KTZ B D 32;29.826
1KTZ B C 31;1KTZ B V 33;2.71379
1KTZ B C 31;1KTZ B R 34;42.536
1KTZ B C 31;1KTZ B C 48;24.6743
1KTZ B C 31;1KTZ B S 49;6.12557
1KTZ B C 31;1KTZ B I 50;14.2859
1KTZ B C 31;1KTZ B T 76;12.0673
1KTZ B D 32;1KTZ B V 33;26.2705
1KTZ B D 32;1KTZ B R 34;4.04169
1KTZ B D 32;1KTZ B L 74;3.48266
1KTZ B D 32;1KTZ B E 75;12.4205
1KTZ B D 32;1KTZ B T 76;14.8779
1KTZ B D 32;1KTZ B V 77;10.7889
1KTZ B D 32;1KTZ B Y 85;0.157901
1KTZ B V 33;1KTZ B R 34;32.4538
1KTZ B V 33;1KTZ B R 66;1.5174
1KTZ B V 33;1KTZ B T 73;21.7261
1KTZ B V 33;1KTZ B L 74;3.93796
1KTZ B V 33;1KTZ B E 75;29.3296
1KTZ B V 33;1KTZ B H 86;0.00798476
1KTZ B R 34;1KTZ B F 35;36.3295
1KTZ B R 34;1KTZ B S 36;0.890283
1KTZ B R 34;1KTZ B S 46;0.0879403
1KTZ B R 34;1KTZ B N 47;2.65199
1KTZ B R 34;1KTZ B C 48;1.49963
1KTZ B R 34;1KTZ B S 49;2.26868
1KTZ B R 34;1KTZ B I 50;13.3109
1KTZ B R 34;1KTZ B T 73;9.01914
1KTZ B R 34;1KTZ B L 74;21.794
1KTZ B F 35;1KTZ B S 36;30.461
1KTZ B F 35;1KTZ B N 71;23.3009
1KTZ B F 35;1KTZ B I 72;8.28385
1KTZ B F 35;1KTZ B T 73;16.336
1KTZ B F 35;1KTZ B L 74;0.416029
1KTZ B S 36;1KTZ B T 37;32.2094
1KTZ B S 36;1KTZ B C 38;17.2963
1KTZ B S 36;1KTZ B M 45;1.97603
1KTZ B S 36;1KTZ B S 46;0.843097
1KTZ B S 36;1KTZ B W 65;2.1522
1KTZ B S 36;1KTZ B I 72;28.2535
1KTZ B S 36;1KTZ B T 73;5.06414
1KTZ B S 36;1KTZ B L 74;19.543
1KTZ B T 37;1KTZ B C 38;22.2508
1KTZ B T 37;1KTZ B D 39;11.401
1KTZ B T 37;1KTZ B Q 41;7.73489
1KTZ B T 37;1KTZ B N 47;3.53967
1KTZ B T 37;1KTZ B I 72;6.02977
1KTZ B C 38;1KTZ B D 39;20.1492
1KTZ B C 38;1KTZ B Q 41;7.96584
1KTZ B C 38;1KTZ B C 44;25.6465
1KTZ B C 38;1KTZ B M 45;2.14982
1KTZ B C 38;1KTZ B W 65;22.2277
1KTZ B C 38;1KTZ B I 72;9.57791
1KTZ B C 38;1KTZ B L 74;2.11426
1KTZ B C 38;1KTZ B I 124;6.5286
1KTZ B C 38;1KTZ B F 126;10.8608
1KTZ B D 39;1KTZ B N 40;50.7919
1KTZ B D 39;1KTZ B Q 41;21.1242
1KTZ B D 39;1KTZ B C 44;0.670614
1KTZ B D 39;1KTZ B W 65;13.8874
1KTZ B D 39;1KTZ B K 67;22.3957
1KTZ B D 39;1KTZ B I 72;17.0421
1KTZ B N 40;1KTZ B Q 41;32.2638
1KTZ B N 40;1KTZ B W 65;0.116873
1KTZ B N 40;1KTZ B K 67;3.95776
1KTZ B Q 41;1KTZ B K 42;28.201
1KTZ B Q 41;1KTZ B S 43;17.1031
1KTZ B Q 41;1KTZ B C 44;21.8295
1KTZ B Q 41;1KTZ B M 45;0.0132418
1KTZ B Q 41;1KTZ B F 126;14.7857
1KTZ B K 42;1KTZ B S 43;29.7249
1KTZ B K 42;1KTZ B I 125;13.4736
1KTZ B K 42;1KTZ B F 126;27.016
1KTZ B K 42;1KTZ B S 127;10.4473
1KTZ B K 42;1KTZ B E 128;10.2843
1KTZ B K 42;1KTZ B E 129;5.56537
1KTZ B K 42;1KTZ B Y 130;36.9633
1KTZ B S 43;1KTZ B C 44;25.2018
1KTZ B S 43;1KTZ B M 45;0.0134439
1KTZ B S 43;1KTZ B N 123;12.8557
1KTZ B S 43;1KTZ B I 124;6.71765
1KTZ B S 43;1KTZ B I 125;14.2705
1KTZ B S 43;1KTZ B F 126;3.85999
1KTZ B C 44;1KTZ B M 45;35.3587
1KTZ B C 44;1KTZ B S 46;0.737607
1KTZ B C 44;1KTZ B L 74;0.381957
1KTZ B C 44;1KTZ B D 122;1.17124
1KTZ B C 44;1KTZ B N 123;9.23729
1KTZ B C 44;1KTZ B I 124;26.3738
1KTZ B C 44;1KTZ B F 126;4.42003
1KTZ B M 45;1KTZ B S 46;21.7901
1KTZ B M 45;1KTZ B N 47;26.8191
1KTZ B M 45;1KTZ B L 74;3.82638
1KTZ B M 45;1KTZ B D 122;20.3047
1KTZ B M 45;1KTZ B N 123;22.9779
1KTZ B M 45;1KTZ B I 124;0.831456
1KTZ B S 46;1KTZ B N 47;27.0657
1KTZ B S 46;1KTZ B C 48;19.1513
1KTZ B S 46;1KTZ B L 74;23.7753
1KTZ B S 46;1KTZ B T 76;7.80079
1KTZ B S 46;1KTZ B N 121;5.81705
1KTZ B S 46;1KTZ B D 122;22.4842
1KTZ B S 46;1KTZ B I 124;3.08941
1KTZ B N 47;1KTZ B C 48;24.8643
1KTZ B N 47;1KTZ B S 49;4.99195
1KTZ B N 47;1KTZ B D 122;4.11996
1KTZ B C 48;1KTZ B S 49;20.783
1KTZ B C 48;1KTZ B I 50;11.428
1KTZ B C 48;1KTZ B T 76;8.22359
1KTZ B C 48;1KTZ B D 122;2.06771
1KTZ B S 49;1KTZ B I 50;24.4558
1KTZ B S 49;1KTZ B T 51;5.53765
1KTZ B I 50;1KTZ B T 51;21.3421
1KTZ B I 50;1KTZ B S 52;6.10649
1KTZ B T 51;1KTZ B S 52;22.7193
1KTZ B T 51;1KTZ B I 53;0.0979669
1KTZ B T 51;1KTZ B E 119;19.1242
1KTZ B S 52;1KTZ B I 53;22.1482
1KTZ B S 52;1KTZ B C 54;4.41296
1KTZ B S 52;1KTZ B C 78;6.61229
1KTZ B I 53;1KTZ B C 54;28.7569
1KTZ B I 53;1KTZ B E 55;1.41699
1KTZ B C 54;1KTZ B E 55;22.3556
1KTZ B C 54;1KTZ B K 56;13.2039
1KTZ B C 54;1KTZ B P 57;1.18436
1KTZ B C 54;1KTZ B E 59;15.0105
1KTZ B C 54;1KTZ B V 60;1.86789
1KTZ B C 54;1KTZ B C 78;22.5458
1KTZ B E 55;1KTZ B K 56;44.0166
1KTZ B E 55;1KTZ B P 57;5.79773
1KTZ B E 55;1KTZ B E 59;11.6122
1KTZ B E 55;1KTZ B C 78;0.234202
1KTZ B K 56;1KTZ B P 57;28.6785
1KTZ B K 56;1KTZ B Q 58;22.4547
1KTZ B K 56;1KTZ B E 59;38.721
1KTZ B K 56;1KTZ B D 80;2.05131
1KTZ B K 56;1KTZ B L 83;0.757485
1KTZ B P 57;1KTZ B Q 58;36.5098
1KTZ B P 57;1KTZ B E 59;7.11417
1KTZ B Q 58;1KTZ B E 59;24.1536
1KTZ B Q 58;1KTZ B V 60;6.45412
1KTZ B Q 58;1KTZ B D 80;20.5357
1KTZ B Q 58;1KTZ B P 81;13.0631
1KTZ B Q 58;1KTZ B K 82;20.5305
1KTZ B E 59;1KTZ B V 60;22.6918
1KTZ B E 59;1KTZ B C 78;16.6363
1KTZ B E 59;1KTZ B H 79;14.5114
1KTZ B E 59;1KTZ B D 80;17.69
1KTZ B E 59;1KTZ B P 81;1.39572
1KTZ B V 60;1KTZ B C 61;20.6629
1KTZ B V 60;1KTZ B V 62;5.88042
1KTZ B V 60;1KTZ B V 77;0.239598
1KTZ B V 60;1KTZ B C 78;5.49717
1KTZ B V 60;1KTZ B H 79;16.1577
1KTZ B V 60;1KTZ B P 81;17.301
1KTZ B V 60;1KTZ B L 90;6.59535
1KTZ B V 60;1KTZ B A 93;17.131
1KTZ B V 60;1KTZ B S 114;6.30293
1KTZ B V 60;1KTZ B C 115;8.13866
1KTZ B V 60;1KTZ B S 116;14.7914
1KTZ B C 61;1KTZ B V 62;19.8982
1KTZ B C 61;1KTZ B V 77;3.02643
1KTZ B C 61;1KTZ B C 78;0.707816
1KTZ B C 61;1KTZ B C 98;0.494916
1KTZ B C 61;1KTZ B S 114;7.26131
1KTZ B C 61;1KTZ B C 115;19.3223
1KTZ B C 61;1KTZ B S 116;0.163608
1KTZ B C 61;1KTZ B S 117;1.84175
1KTZ B C 61;1KTZ B E 119;1.78979
1KTZ B C 61;1KTZ B C 120;10.6968
1KTZ B C 61;1KTZ B N 121;14.4735
1KTZ B V 62;1KTZ B A 63;22.1191
1KTZ B V 62;1KTZ B V 64;7.48042
1KTZ B V 62;1KTZ B E 75;1.76186
1KTZ B V 62;1KTZ B T 76;5.27767
1KTZ B V 62;1KTZ B V 77;25.7321
1KTZ B V 62;1KTZ B C 78;0.464905
1KTZ B V 62;1KTZ B H 79;11.4838
1KTZ B V 62;1KTZ B Y 85;11.5634
1KTZ B V 62;1KTZ B L 90;15.5583
1KTZ B V 62;1KTZ B C 98;1.30533
1KTZ B V 62;1KTZ B M 112;7.58032
1KTZ B V 62;1KTZ B C 113;6.91462
1KTZ B V 62;1KTZ B S 114;6.11792
1KTZ B V 62;1KTZ B N 121;13.1634
1KTZ B A 63;1KTZ B V 64;18.1273
1KTZ B A 63;1KTZ B L 74;6.17365
1KTZ B A 63;1KTZ B E 75;6.34532
1KTZ B A 63;1KTZ B T 76;7.23549
1KTZ B A 63;1KTZ B C 98;6.16183
1KTZ B A 63;1KTZ B M 100;9.44866
1KTZ B A 63;1KTZ B M 112;6.5903
1KTZ B A 63;1KTZ B C 113;15.5762
1KTZ B A 63;1KTZ B N 121;8.46561
1KTZ B A 63;1KTZ B I 124;9.55124
1KTZ B V 64;1KTZ B W 65;20.2194
1KTZ B V 64;1KTZ B R 66;15.2749
1KTZ B V 64;1KTZ B T 73;2.06095
1KTZ B V 64;1KTZ B L 74;11.1186
1KTZ B V 64;1KTZ B E 75;32.4219
1KTZ B V 64;1KTZ B Y 85;5.97138
1KTZ B V 64;1KTZ B H 86;10.0725
1KTZ B V 64;1KTZ B M 100;2.3129
1KTZ B V 64;1KTZ B F 110;15.0821
1KTZ B V 64;1KTZ B F 111;7.02399
1KTZ B V 64;1KTZ B M 112;13.9105
1KTZ B W 65;1KTZ B R 66;25.449
1KTZ B W 65;1KTZ B K 67;19.16
1KTZ B W 65;1KTZ B I 72;17.6658
1KTZ B W 65;1KTZ B T 73;7.69112
1KTZ B W 65;1KTZ B L 74;12.2807
1KTZ B W 65;1KTZ B M 100;9.36393
1KTZ B W 65;1KTZ B T 109;16.7286
1KTZ B W 65;1KTZ B F 110;4.51323
1KTZ B W 65;1KTZ B F 111;33.9383
1KTZ B W 65;1KTZ B I 124;6.3309
1KTZ B W 65;1KTZ B F 126;21.1318
1KTZ B R 66;1KTZ B K 67;20.7632
1KTZ B R 66;1KTZ B N 68;0.947683
1KTZ B R 66;1KTZ B N 71;2.14019
1KTZ B R 66;1KTZ B I 72;8.25188
1KTZ B R 66;1KTZ B T 73;32.3737
1KTZ B R 66;1KTZ B E 75;3.86945
1KTZ B R 66;1KTZ B H 86;17.7479
1KTZ B R 66;1KTZ B K 105;13.0614
1KTZ B R 66;1KTZ B E 108;28.6084
1KTZ B R 66;1KTZ B T 109;6.43254
1KTZ B R 66;1KTZ B F 110;21.4591
1KTZ B K 67;1KTZ B N 68;33.0638
1KTZ B K 67;1KTZ B N 71;6.91038
1KTZ B K 67;1KTZ B I 72;21.6685
1KTZ B K 67;1KTZ B E 108;9.65818
1KTZ B K 67;1KTZ B T 109;26.6874
1KTZ B N 68;1KTZ B D 69;33.2919
1KTZ B N 68;1KTZ B E 70;14.1605
1KTZ B N 68;1KTZ B N 71;34.2641
1KTZ B N 68;1KTZ B G 107;9.8668
1KTZ B N 68;1KTZ B E 108;14.3572
1KTZ B D 69;1KTZ B E 70;34.4016
1KTZ B D 69;1KTZ B N 71;1.53838e-06
1KTZ B D 69;1KTZ B G 107;2.8225
1KTZ B E 70;1KTZ B N 71;48.0641
1KTZ B N 71;1KTZ B I 72;32.6673
1KTZ B N 71;1KTZ B T 73;12.0671
1KTZ B I 72;1KTZ B T 73;23.4213
1KTZ B T 73;1KTZ B L 74;19.6798
1KTZ B T 73;1KTZ B E 75;0.650657
1KTZ B L 74;1KTZ B E 75;22.3578
1KTZ B L 74;1KTZ B T 76;12.9055
1KTZ B L 74;1KTZ B M 100;3.50267
1KTZ B L 74;1KTZ B N 121;0.0900207
1KTZ B L 74;1KTZ B I 124;19.9532
1KTZ B E 75;1KTZ B T 76;22.7266
1KTZ B E 75;1KTZ B V 77;12.7225
1KTZ B E 75;1KTZ B Y 85;17.9954
1KTZ B E 75;1KTZ B H 86;15.3067
1KTZ B T 76;1KTZ B V 77;20.4058
1KTZ B T 76;1KTZ B N 121;14.0058
1KTZ B T 76;1KTZ B I 124;0.0227761
1KTZ B V 77;1KTZ B C 78;28.419
1KTZ B V 77;1KTZ B H 79;5.58863
1KTZ B V 77;1KTZ B Y 85;22.0149
1KTZ B V 77;1KTZ B N 121;4.76667
1KTZ B C 78;1KTZ B H 79;23.3027
1KTZ B C 78;1KTZ B Y 85;0.0193321
1KTZ B H 79;1KTZ B D 80;28.9596
1KTZ B H 79;1KTZ B P 81;4.03632
1KTZ B H 79;1KTZ B L 83;20.4413
1KTZ B H 79;1KTZ B P 84;9.66796
1KTZ B H 79;1KTZ B Y 85;29.0637
1KTZ B H 79;1KTZ B L 90;13.3225
1KTZ B D 80;1KTZ B P 81;22.7262
1KTZ B D 80;1KTZ B K 82;27.0136
1KTZ B D 80;1KTZ B L 83;32.3648
1KTZ B D 80;1KTZ B L 90;0.869904
1KTZ B P 81;1KTZ B K 82;30.0441
1KTZ B P 81;1KTZ B L 83;8.82889
1KTZ B P 81;1KTZ B I 89;7.24692
1KTZ B P 81;1KTZ B L 90;25.5852
1KTZ B P 81;1KTZ B A 93;14.3964
1KTZ B K 82;1KTZ B L 83;32.1732
1KTZ B K 82;1KTZ B P 84;5.15123
1KTZ B L 83;1KTZ B P 84;39.5865
1KTZ B L 83;1KTZ B Y 85;1.2129
1KTZ B L 83;1KTZ B F 88;0.5752
1KTZ B L 83;1KTZ B I 89;0.976761
1KTZ B L 83;1KTZ B L 90;6.6382
1KTZ B P 84;1KTZ B Y 85;22.6291
1KTZ B P 84;1KTZ B D 87;17.9866
1KTZ B P 84;1KTZ B F 88;12.2433
1KTZ B P 84;1KTZ B I 89;2.7604
1KTZ B Y 85;1KTZ B H 86;42.0671
1KTZ B Y 85;1KTZ B D 87;4.71711
1KTZ B Y 85;1KTZ B F 88;18.2555
1KTZ B Y 85;1KTZ B L 90;11.1076
1KTZ B Y 85;1KTZ B M 112;13.6462
1KTZ B H 86;1KTZ B D 87;28.6706
1KTZ B H 86;1KTZ B F 88;17.9677
1KTZ B H 86;1KTZ B K 105;9.41961
1KTZ B H 86;1KTZ B F 110;17.2938
1KTZ B H 86;1KTZ B M 112;4.57849
1KTZ B D 87;1KTZ B F 88;31.5614
1KTZ B D 87;1KTZ B I 89;0.0187448
1KTZ B F 88;1KTZ B I 89;33.5329
1KTZ B F 88;1KTZ B L 90;3.7039
1KTZ B F 88;1KTZ B K 103;32.8278
1KTZ B F 88;1KTZ B K 104;15.3954
1KTZ B F 88;1KTZ B K 105;14.7731
1KTZ B F 88;1KTZ B F 110;10.6456
1KTZ B F 88;1KTZ B M 112;12.6073
1KTZ B I 89;1KTZ B L 90;29.4751
1KTZ B I 89;1KTZ B E 91;27.3032
1KTZ B I 89;1KTZ B K 103;10.6227
1KTZ B I 89;1KTZ B M 112;4.82145
1KTZ B L 90;1KTZ B E 91;20.5574
1KTZ B L 90;1KTZ B D 92;7.43344
1KTZ B L 90;1KTZ B A 93;12.0226
1KTZ B L 90;1KTZ B M 112;16.417
1KTZ B L 90;1KTZ B C 113;2.16088
1KTZ B L 90;1KTZ B S 114;18.4824
1KTZ B E 91;1KTZ B D 92;36.2407
1KTZ B E 91;1KTZ B A 93;4.41684
1KTZ B E 91;1KTZ B A 94;0.113842
1KTZ B E 91;1KTZ B K 101;22.927
1KTZ B E 91;1KTZ B K 103;17.6946
1KTZ B D 92;1KTZ B A 93;17.0451
1KTZ B D 92;1KTZ B A 94;5.06289
1KTZ B D 92;1KTZ B S 95;21.1962
1KTZ B D 92;1KTZ B K 97;0.212038
1KTZ B D 92;1KTZ B I 99;4.20622
1KTZ B D 92;1KTZ B K 101;23.7102
1KTZ B D 92;1KTZ B M 112;1.00844
1KTZ B D 92;1KTZ B C 113;9.54941
1KTZ B D 92;1KTZ B S 114;25.2716
1KTZ B D 92;1KTZ B C 115;1.08398
1KTZ B A 93;1KTZ B A 94;22.574
1KTZ B A 93;1KTZ B S 95;3.4075
1KTZ B A 93;1KTZ B S 114;10.8835
1KTZ B A 93;1KTZ B C 115;7.93935
1KTZ B A 93;1KTZ B S 116;9.72442
1KTZ B A 94;1KTZ B S 95;24.4141
1KTZ B A 94;1KTZ B P 96;8.29306
1KTZ B A 94;1KTZ B S 116;13.9843
1KTZ B S 95;1KTZ B P 96;29.0035
1KTZ B S 95;1KTZ B K 97;17.5392
1KTZ B S 95;1KTZ B I 99;7.61958
1KTZ B S 95;1KTZ B S 114;2.45032
1KTZ B S 95;1KTZ B C 115;8.79705
1KTZ B S 95;1KTZ B S 116;7.4784
1KTZ B P 96;1KTZ B K 97;34.5075
1KTZ B P 96;1KTZ B C 115;3.52916
1KTZ B P 96;1KTZ B S 116;4.56662
1KTZ B P 96;1KTZ B S 117;24.7677
1KTZ B P 96;1KTZ B C 120;8.59628
1KTZ B K 97;1KTZ B C 98;20.2884
1KTZ B K 97;1KTZ B I 99;18.4425
1KTZ B K 97;1KTZ B S 114;3.44932
1KTZ B K 97;1KTZ B C 115;8.29181
1KTZ B K 97;1KTZ B C 120;3.95554
1KTZ B K 97;1KTZ B N 123;2.05401
1KTZ B K 97;1KTZ B I 125;17.0427
1KTZ B K 97;1KTZ B E 129;30.5763
1KTZ B C 98;1KTZ B I 99;17.4277
1KTZ B C 98;1KTZ B M 100;2.53186
1KTZ B C 98;1KTZ B C 113;23.7505
1KTZ B C 98;1KTZ B S 114;7.8223
1KTZ B C 98;1KTZ B C 115;13.2945
1KTZ B C 98;1KTZ B C 120;8.20035
1KTZ B C 98;1KTZ B N 121;10.086
1KTZ B C 98;1KTZ B N 123;9.71692
1KTZ B C 98;1KTZ B I 124;9.13823
1KTZ B C 98;1KTZ B I 125;13.0085
1KTZ B I 99;1KTZ B M 100;21.7173
1KTZ B I 99;1KTZ B K 101;27.2242
1KTZ B I 99;1KTZ B M 112;1.3565
1KTZ B I 99;1KTZ B C 113;10.3763
1KTZ B I 99;1KTZ B S 114;0.47806
1KTZ B I 99;1KTZ B I 125;21.1493
1KTZ B I 99;1KTZ B S 127;10.3145
1KTZ B I 99;1KTZ B E 128;24.4436
1KTZ B I 99;1KTZ B E 129;14.5522
1KTZ B M 100;1KTZ B K 101;23.6777
1KTZ B M 100;1KTZ B F 111;22.1901
1KTZ B M 100;1KTZ B M 112;10.1124
1KTZ B M 100;1KTZ B C 113;16.4203
1KTZ B M 100;1KTZ B I 124;17.8024
1KTZ B M 100;1KTZ B I 125;14.2226
1KTZ B M 100;1KTZ B F 126;20.9635
1KTZ B M 100;1KTZ B S 127;8.47585
1KTZ B K 101;1KTZ B E 102;26.9112
1KTZ B K 101;1KTZ B K 103;14.5682
1KTZ B K 101;1KTZ B F 111;10.7979
1KTZ B K 101;1KTZ B M 112;20.3508
1KTZ B K 101;1KTZ B E 128;5.11443
1KTZ B E 102;1KTZ B K 103;39.848
1KTZ B E 102;1KTZ B K 104;0.517226
1KTZ B E 102;1KTZ B E 108;0.0607332
1KTZ B E 102;1KTZ B T 109;15.7857
1KTZ B E 102;1KTZ B F 110;10.2886
1KTZ B E 102;1KTZ B F 111;32.3595
1KTZ B K 103;1KTZ B K 104;28.5977
1KTZ B K 103;1KTZ B K 105;7.58724
1KTZ B K 103;1KTZ B F 110;29.6606
1KTZ B K 103;1KTZ B F 111;0.912536
1KTZ B K 103;1KTZ B M 112;20.9798
1KTZ B K 104;1KTZ B K 105;30.7771
1KTZ B K 104;1KTZ B P 106;18.9405
1KTZ B K 105;1KTZ B P 106;37.7515
1KTZ B K 105;1KTZ B G 107;1.5732
1KTZ B K 105;1KTZ B E 108;34.9668
1KTZ B K 105;1KTZ B F 110;24.7168
1KTZ B P 106;1KTZ B G 107;29.9049
1KTZ B P 106;1KTZ B E 108;8.87933
1KTZ B G 107;1KTZ B E 108;29.3106
1KTZ B E 108;1KTZ B T 109;30.7064
1KTZ B E 108;1KTZ B F 110;11.0728
1KTZ B T 109;1KTZ B F 110;22.668
1KTZ B T 109;1KTZ B F 111;14.6671
1KTZ B F 110;1KTZ B F 111;27.8787
1KTZ B F 110;1KTZ B M 112;12.511
1KTZ B F 111;1KTZ B M 112;17.6908
1KTZ B F 111;1KTZ B F 126;23.2336
1KTZ B F 111;1KTZ B S 127;1.67425
1KTZ B M 112;1KTZ B C 113;26.4903
1KTZ B C 113;1KTZ B S 114;20.3133
1KTZ B C 113;1KTZ B I 124;4.59048
1KTZ B S 114;1KTZ B C 115;20.5087
1KTZ B C 115;1KTZ B S 116;16.6625
1KTZ B C 115;1KTZ B C 120;20.6671
1KTZ B C 115;1KTZ B N 121;4.88648
1KTZ B S 116;1KTZ B S 117;25.3254
1KTZ B S 116;1KTZ B C 120;2.42248
1KTZ B S 117;1KTZ B D 118;30.0985
1KTZ B S 117;1KTZ B E 119;1.05925
1KTZ B S 117;1KTZ B C 120;21.7355
1KTZ B D 118;1KTZ B E 119;25.3019
1KTZ B D 118;1KTZ B C 120;6.55356
1KTZ B E 119;1KTZ B C 120;18.851
1KTZ B E 119;1KTZ B N 121;6.11496
1KTZ B E 119;1KTZ B D 122;19.2642
1KTZ B E 119;1KTZ B N 123;0.773583
1KTZ B C 120;1KTZ B N 121;15.7866
1KTZ B C 120;1KTZ B D 122;2.85882
1KTZ B C 120;1KTZ B N 123;12.7046
1KTZ B N 121;1KTZ B D 122;16.8442
1KTZ B N 121;1KTZ B N 123;3.07352
1KTZ B N 121;1KTZ B I 124;9.07007
1KTZ B D 122;1KTZ B N 123;23.0414
1KTZ B D 122;1KTZ B I 124;1.77807
1KTZ B N 123;1KTZ B I 124;22.1271
1KTZ B N 123;1KTZ B I 125;22.5946
1KTZ B I 124;1KTZ B I 125;19.4637
1KTZ B I 124;1KTZ B F 126;14.8253
1KTZ B I 125;1KTZ B F 126;21.0529
1KTZ B I 125;1KTZ B S 127;8.68905
1KTZ B I 125;1KTZ B E 128;0.527698
1KTZ B I 125;1KTZ B E 129;19.7191
1KTZ B F 126;1KTZ B S 127;29.8222
1KTZ B S 127;1KTZ B E 128;34.3056
1KTZ B S 127;1KTZ B E 129;0.0162442
1KTZ B S 127;1KTZ B Y 130;0.0515151
1KTZ B E 128;1KTZ B E 129;35.5957
1KTZ B E 128;1KTZ B Y 130;7.5195
1KTZ B E 129;1KTZ B Y 130;40.5784
