V1;V2;Weight
1WQJ B A 3;1WQJ B I 4;26.9464
1WQJ B A 3;1WQJ B H 5;22.2948
1WQJ B A 3;1WQJ I R 21;0.102481
1WQJ B A 3;1WQJ I G 22;1.22285
1WQJ B A 3;1WQJ I F 23;7.24012
1WQJ B A 3;1WQJ I Y 24;36.6351
1WQJ B A 3;1WQJ I A 62;9.50649
1WQJ B I 4;1WQJ B H 5;34.1217
1WQJ B I 4;1WQJ I V 11;0.0429065
1WQJ B I 4;1WQJ I Q 15;4.09833
1WQJ B I 4;1WQJ I G 22;8.79987
1WQJ B I 4;1WQJ I F 23;44.6585
1WQJ B I 4;1WQJ I Y 24;6.95671
1WQJ B I 4;1WQJ I F 25;27.0236
1WQJ B H 5;1WQJ B C 6;39.0246
1WQJ B H 5;1WQJ B P 7;6.49722
1WQJ B H 5;1WQJ I Q 15;4.12727
1WQJ B H 5;1WQJ I G 19;0.050681
1WQJ B H 5;1WQJ I D 20;15.7351
1WQJ B H 5;1WQJ I R 21;11.9595
1WQJ B H 5;1WQJ I G 22;12.049
1WQJ B H 5;1WQJ I A 62;0.862512
1WQJ B C 6;1WQJ B P 7;35.3693
1WQJ B C 6;1WQJ B P 8;7.52798
1WQJ B C 6;1WQJ B C 9;0.529288
1WQJ B C 6;1WQJ B R 28;10.9335
1WQJ B C 6;1WQJ B G 31;5.06417
1WQJ B C 6;1WQJ B C 32;26.7114
1WQJ B C 6;1WQJ I Q 15;12.1882
1WQJ B P 7;1WQJ B P 8;40.6947
1WQJ B P 7;1WQJ B C 9;8.74424
1WQJ B P 7;1WQJ B K 13;2.70683
1WQJ B P 7;1WQJ B C 32;15.8866
1WQJ B P 7;1WQJ B C 34;0.424609
1WQJ B P 8;1WQJ B C 9;29.7
1WQJ B P 8;1WQJ B S 10;5.01027
1WQJ B P 8;1WQJ B K 13;7.6988
1WQJ B P 8;1WQJ B C 34;0.275322
1WQJ B C 9;1WQJ B S 10;24.5729
1WQJ B C 9;1WQJ B E 11;1.51413
1WQJ B C 9;1WQJ B K 13;5.99974
1WQJ B C 9;1WQJ B L 14;24.3767
1WQJ B C 9;1WQJ B R 28;2.3848
1WQJ B C 9;1WQJ B C 32;4.06148
1WQJ B C 9;1WQJ B G 33;1.17511
1WQJ B C 9;1WQJ B C 34;28.8005
1WQJ B S 10;1WQJ B E 11;23.1226
1WQJ B S 10;1WQJ B E 12;12.5534
1WQJ B S 10;1WQJ B K 13;31.2977
1WQJ B S 10;1WQJ B L 14;10.725
1WQJ B E 11;1WQJ B E 12;23.2128
1WQJ B E 11;1WQJ B K 13;0.36454
1WQJ B E 11;1WQJ B L 14;17.0091
1WQJ B E 11;1WQJ B A 15;14.5419
1WQJ B E 12;1WQJ B K 13;23.3498
1WQJ B E 12;1WQJ B L 14;0.974009
1WQJ B E 12;1WQJ B A 15;12.8852
1WQJ B E 12;1WQJ B R 16;10.0379
1WQJ B K 13;1WQJ B L 14;18.2075
1WQJ B K 13;1WQJ B A 15;0.994879
1WQJ B K 13;1WQJ B R 16;9.01131
1WQJ B K 13;1WQJ B C 17;8.60746
1WQJ B K 13;1WQJ B C 34;24.2476
1WQJ B K 13;1WQJ B C 35;2.94419
1WQJ B L 14;1WQJ B A 15;22.4556
1WQJ B L 14;1WQJ B R 16;1.3375
1WQJ B L 14;1WQJ B C 17;27.108
1WQJ B L 14;1WQJ B C 34;19.4293
1WQJ B A 15;1WQJ B R 16;23.3119
1WQJ B A 15;1WQJ B C 17;6.98779
1WQJ B R 16;1WQJ B C 17;25.0751
1WQJ B R 16;1WQJ B R 18;7.68122
1WQJ B C 17;1WQJ B R 18;26.1814
1WQJ B C 17;1WQJ B P 19;14.2898
1WQJ B C 17;1WQJ B C 34;4.69334
1WQJ B C 17;1WQJ B C 35;32.7169
1WQJ B C 17;1WQJ B A 36;1.98688
1WQJ B R 18;1WQJ B P 19;33.068
1WQJ B R 18;1WQJ B P 20;7.89603
1WQJ B R 18;1WQJ B C 35;6.0602
1WQJ B R 18;1WQJ B A 36;6.50456
1WQJ B P 19;1WQJ B P 20;36.2025
1WQJ B P 19;1WQJ B V 21;10.7675
1WQJ B P 20;1WQJ B V 21;28.1492
1WQJ B P 20;1WQJ B G 22;2.69512
1WQJ B P 20;1WQJ B C 23;14.2328
1WQJ B P 20;1WQJ B L 26;15.578
1WQJ B P 20;1WQJ B A 36;22.4003
1WQJ B P 20;1WQJ B T 37;10.8382
1WQJ B P 20;1WQJ B C 38;8.74351
1WQJ B V 21;1WQJ B G 22;31.2676
1WQJ B V 21;1WQJ B C 23;3.73868
1WQJ B V 21;1WQJ B C 38;10.73
1WQJ B G 22;1WQJ B C 23;27.717
1WQJ B G 22;1WQJ B E 24;8.86674
1WQJ B G 22;1WQJ B C 38;2.90877
1WQJ B C 23;1WQJ B E 24;27.4786
1WQJ B C 23;1WQJ B E 25;12.2655
1WQJ B C 23;1WQJ B L 26;15.6008
1WQJ B C 23;1WQJ B T 37;0.733207
1WQJ B C 23;1WQJ B C 38;26.5761
1WQJ B E 24;1WQJ B E 25;34.9715
1WQJ B E 24;1WQJ B C 38;1.13081
1WQJ B E 25;1WQJ B L 26;34.6042
1WQJ B E 25;1WQJ B V 27;8.81277
1WQJ B E 25;1WQJ B T 37;0.0751473
1WQJ B E 25;1WQJ B C 38;4.20182
1WQJ B E 25;1WQJ B A 39;24.6365
1WQJ B E 25;1WQJ B G 54;8.62799
1WQJ B E 25;1WQJ B S 55;29.0536
1WQJ B L 26;1WQJ B V 27;29.6286
1WQJ B L 26;1WQJ B A 36;17.7788
1WQJ B L 26;1WQJ B T 37;8.03479
1WQJ B L 26;1WQJ B C 38;0.332322
1WQJ B L 26;1WQJ B A 39;1.07668
1WQJ B V 27;1WQJ B R 28;31.4839
1WQJ B V 27;1WQJ B E 29;0.426325
1WQJ B V 27;1WQJ B A 36;7.78393
1WQJ B V 27;1WQJ B T 37;22.731
1WQJ B V 27;1WQJ B C 38;3.04635
1WQJ B V 27;1WQJ B A 39;16.4944
1WQJ B V 27;1WQJ B P 51;0.474617
1WQJ B V 27;1WQJ B R 52;23.5014
1WQJ B V 27;1WQJ B C 53;6.18907
1WQJ B V 27;1WQJ B G 54;4.55691
1WQJ B V 27;1WQJ B S 55;0.0113548
1WQJ B R 28;1WQJ B E 29;30.3737
1WQJ B R 28;1WQJ B P 30;0.802676
1WQJ B R 28;1WQJ B G 31;10.0421
1WQJ B R 28;1WQJ B C 32;5.96556
1WQJ B R 28;1WQJ B G 33;17.1644
1WQJ B R 28;1WQJ B C 34;10.6588
1WQJ B R 28;1WQJ B C 35;8.43286
1WQJ B R 28;1WQJ B A 36;3.72291
1WQJ B R 28;1WQJ B T 37;2.79223
1WQJ B R 28;1WQJ B P 51;0.281072
1WQJ B R 28;1WQJ B R 52;37.678
1WQJ B R 28;1WQJ I G 19;5.89143
1WQJ B R 28;1WQJ I D 20;22.9007
1WQJ B E 29;1WQJ B P 30;33.6462
1WQJ B E 29;1WQJ B G 31;0.00612163
1WQJ B E 29;1WQJ B G 33;19.5433
1WQJ B E 29;1WQJ B C 34;4.37955
1WQJ B E 29;1WQJ B C 35;34.1236
1WQJ B E 29;1WQJ B A 36;4.65951
1WQJ B E 29;1WQJ B T 37;19.4016
1WQJ B E 29;1WQJ B P 51;0.0639705
1WQJ B E 29;1WQJ B R 52;7.24788
1WQJ B P 30;1WQJ B G 31;25.5845
1WQJ B P 30;1WQJ B C 32;1.9919
1WQJ B P 30;1WQJ B G 33;9.54239
1WQJ B P 30;1WQJ B T 37;5.08413
1WQJ B P 30;1WQJ B V 48;10.4766
1WQJ B P 30;1WQJ B Y 49;16.4351
1WQJ B P 30;1WQJ B T 50;13.4844
1WQJ B P 30;1WQJ B P 51;9.72273
1WQJ B P 30;1WQJ B R 52;15.8219
1WQJ B G 31;1WQJ B C 32;20.253
1WQJ B G 31;1WQJ B G 33;0.845228
1WQJ B G 31;1WQJ B V 48;3.43527
1WQJ B G 31;1WQJ B R 52;12.6668
1WQJ B G 31;1WQJ I D 12;2.05438
1WQJ B G 31;1WQJ I Q 15;21.0664
1WQJ B G 31;1WQJ I F 16;1.21943
1WQJ B C 32;1WQJ B G 33;27.7227
1WQJ B C 32;1WQJ B C 34;8.72515
1WQJ B C 32;1WQJ I Q 15;16.9365
1WQJ B G 33;1WQJ B C 34;20.8276
1WQJ B G 33;1WQJ B C 35;1.22939
1WQJ B C 34;1WQJ B C 35;30.0516
1WQJ B C 35;1WQJ B A 36;30.9283
1WQJ B A 36;1WQJ B T 37;24.8047
1WQJ B T 37;1WQJ B C 38;28.396
1WQJ B T 37;1WQJ B A 39;0.580643
1WQJ B T 37;1WQJ B P 51;21.0285
1WQJ B T 37;1WQJ B R 52;0.736683
1WQJ B C 38;1WQJ B A 39;27.3805
1WQJ B C 38;1WQJ B L 40;4.46788
1WQJ B C 38;1WQJ B P 51;7.24498
1WQJ B C 38;1WQJ B R 52;0.0753425
1WQJ B A 39;1WQJ B L 40;26.3692
1WQJ B A 39;1WQJ B G 41;3.86246
1WQJ B A 39;1WQJ B M 44;2.39968
1WQJ B A 39;1WQJ B R 52;4.18419
1WQJ B A 39;1WQJ B C 53;0.407748
1WQJ B A 39;1WQJ B G 54;10.1233
1WQJ B L 40;1WQJ B G 41;20.6929
1WQJ B L 40;1WQJ B M 44;25.0411
1WQJ B L 40;1WQJ B P 45;11.1359
1WQJ B L 40;1WQJ B C 46;7.31587
1WQJ B L 40;1WQJ B T 50;5.68762
1WQJ B L 40;1WQJ B P 51;29.6213
1WQJ B L 40;1WQJ B R 52;10.2949
1WQJ B L 40;1WQJ B C 53;8.19834
1WQJ B L 40;1WQJ B G 54;8.91841
1WQJ B L 40;1WQJ B L 57;5.78629
1WQJ B L 40;1WQJ B C 79;12.8858
1WQJ B G 41;1WQJ B L 42;22.9866
1WQJ B G 41;1WQJ B G 43;0.829458
1WQJ B G 41;1WQJ B M 44;26.7894
1WQJ B G 41;1WQJ B L 57;8.92225
1WQJ B G 41;1WQJ B C 79;7.94649
1WQJ B L 42;1WQJ B G 43;27.698
1WQJ B L 42;1WQJ B M 44;8.35814
1WQJ B L 42;1WQJ B L 57;21.107
1WQJ B L 42;1WQJ B C 79;8.54919
1WQJ B L 42;1WQJ B M 80;9.73496
1WQJ B L 42;1WQJ B E 81;19.6606
1WQJ B G 43;1WQJ B M 44;21.7942
1WQJ B G 43;1WQJ B P 45;6.07931
1WQJ B G 43;1WQJ B V 78;19.7927
1WQJ B G 43;1WQJ B C 79;8.37559
1WQJ B G 43;1WQJ B M 80;0.0438893
1WQJ B M 44;1WQJ B P 45;33.9867
1WQJ B M 44;1WQJ B C 46;1.98743
1WQJ B M 44;1WQJ B V 78;6.74419
1WQJ B M 44;1WQJ B C 79;13.2701
1WQJ B P 45;1WQJ B C 46;18.6453
1WQJ B P 45;1WQJ B T 50;4.9741
1WQJ B P 45;1WQJ B G 75;10.7567
1WQJ B P 45;1WQJ B Q 76;5.0723
1WQJ B P 45;1WQJ B G 77;7.99045
1WQJ B P 45;1WQJ B V 78;5.07986
1WQJ B P 45;1WQJ B C 79;0.170463
1WQJ B C 46;1WQJ B G 47;16.5341
1WQJ B C 46;1WQJ B T 50;11.5222
1WQJ B C 46;1WQJ B P 51;2.76697
1WQJ B C 46;1WQJ B C 53;7.57129
1WQJ B C 46;1WQJ B C 59;21.6126
1WQJ B C 46;1WQJ B Y 60;0.131261
1WQJ B C 46;1WQJ B L 72;1.63377
1WQJ B C 46;1WQJ B G 75;11.3911
1WQJ B C 46;1WQJ B Q 76;0.450966
1WQJ B C 46;1WQJ B G 77;15.8318
1WQJ B C 46;1WQJ B V 78;8.43849
1WQJ B C 46;1WQJ B C 79;8.85997
1WQJ B C 46;1WQJ I F 16;3.05018e-05
1WQJ B G 47;1WQJ B V 48;18.5615
1WQJ B G 47;1WQJ B Y 49;3.00213
1WQJ B G 47;1WQJ B T 50;21.9595
1WQJ B G 47;1WQJ B P 51;1.56172
1WQJ B G 47;1WQJ B C 59;5.67459
1WQJ B G 47;1WQJ B L 72;11.2436
1WQJ B G 47;1WQJ B G 75;5.9031
1WQJ B G 47;1WQJ I F 16;15.4292
1WQJ B V 48;1WQJ B Y 49;38.2696
1WQJ B V 48;1WQJ B T 50;1.30372
1WQJ B V 48;1WQJ B L 69;0.296743
1WQJ B V 48;1WQJ B L 72;18.1755
1WQJ B V 48;1WQJ B M 73;20.5439
1WQJ B V 48;1WQJ B G 75;0.135
1WQJ B V 48;1WQJ I D 12;14.5812
1WQJ B V 48;1WQJ I A 13;13.0441
1WQJ B V 48;1WQJ I F 16;30.9556
1WQJ B Y 49;1WQJ B T 50;30.2426
1WQJ B Y 49;1WQJ B P 51;0.631815
1WQJ B Y 49;1WQJ B L 72;0.00038615
1WQJ B Y 49;1WQJ B M 73;34.2316
1WQJ B Y 49;1WQJ B G 75;0.589253
1WQJ B Y 49;1WQJ I E 9;9.71572
1WQJ B Y 49;1WQJ I D 12;26.5354
1WQJ B T 50;1WQJ B P 51;42.2207
1WQJ B T 50;1WQJ B R 52;2.24325
1WQJ B T 50;1WQJ B G 75;15.561
1WQJ B P 51;1WQJ B R 52;27.2304
1WQJ B P 51;1WQJ B C 53;1.08317
1WQJ B R 52;1WQJ B C 53;30.9066
1WQJ B R 52;1WQJ B G 54;0.195539
1WQJ B R 52;1WQJ I Q 15;5.37864
1WQJ B R 52;1WQJ I F 16;7.32677
1WQJ B R 52;1WQJ I G 19;12.4349
1WQJ B C 53;1WQJ B G 54;24.6022
1WQJ B C 53;1WQJ B L 57;14.0429
1WQJ B C 53;1WQJ B R 58;6.84084
1WQJ B C 53;1WQJ B C 59;14.4509
1WQJ B C 53;1WQJ B C 79;19.0949
1WQJ B G 54;1WQJ B S 55;23.6777
1WQJ B G 54;1WQJ B G 56;0.561916
1WQJ B G 54;1WQJ B L 57;23.9601
1WQJ B S 55;1WQJ B G 56;29.0641
1WQJ B S 55;1WQJ B L 57;11.4684
1WQJ B G 56;1WQJ B L 57;21.779
1WQJ B G 56;1WQJ B E 81;7.80917
1WQJ B G 56;1WQJ B L 82;26.6936
1WQJ B L 57;1WQJ B R 58;21.5815
1WQJ B L 57;1WQJ B C 79;11.3359
1WQJ B L 57;1WQJ B M 80;11.3258
1WQJ B L 57;1WQJ B E 81;11.8747
1WQJ B L 57;1WQJ B L 82;14.9128
1WQJ B R 58;1WQJ B C 59;33.3392
1WQJ B R 58;1WQJ B Y 60;45.5929
1WQJ B R 58;1WQJ B V 78;1.68375
1WQJ B R 58;1WQJ B C 79;3.07787
1WQJ B R 58;1WQJ B M 80;15.046
1WQJ B R 58;1WQJ B L 82;22.0654
1WQJ B R 58;1WQJ I F 16;1.13604
1WQJ B R 58;1WQJ I V 17;10.9192
1WQJ B R 58;1WQJ I L 54;23.2135
1WQJ B R 58;1WQJ I E 58;1.19657
1WQJ B C 59;1WQJ B Y 60;21.2894
1WQJ B C 59;1WQJ B P 61;1.28164
1WQJ B C 59;1WQJ B L 72;12.7923
1WQJ B C 59;1WQJ B G 77;3.5225
1WQJ B C 59;1WQJ B V 78;2.3758
1WQJ B C 59;1WQJ B C 79;1.37363
1WQJ B C 59;1WQJ I F 16;26.216
1WQJ B C 59;1WQJ I L 54;2.26987
1WQJ B Y 60;1WQJ B P 61;38.4548
1WQJ B Y 60;1WQJ B P 62;1.80114
1WQJ B Y 60;1WQJ B L 72;3.48763
1WQJ B Y 60;1WQJ B G 77;5.31772
1WQJ B Y 60;1WQJ B V 78;17.6939
1WQJ B Y 60;1WQJ B M 80;27.2612
1WQJ B Y 60;1WQJ B E 81;7.82533
1WQJ B Y 60;1WQJ B L 82;13.7983
1WQJ B Y 60;1WQJ I L 54;6.05649
1WQJ B P 61;1WQJ B P 62;32.3937
1WQJ B P 61;1WQJ B R 63;3.28769
1WQJ B P 61;1WQJ B V 65;5.53884
1WQJ B P 61;1WQJ B P 68;20.0993
1WQJ B P 61;1WQJ B T 71;5.97933
1WQJ B P 61;1WQJ B L 72;17.7737
1WQJ B P 61;1WQJ B G 77;2.90564
1WQJ B P 61;1WQJ B M 80;2.67678
1WQJ B P 61;1WQJ I L 54;15.8626
1WQJ B P 62;1WQJ B R 63;32.2747
1WQJ B P 62;1WQJ B G 64;3.04839
1WQJ B P 62;1WQJ B V 65;29.4215
1WQJ B P 62;1WQJ B T 71;10.8649
1WQJ B P 62;1WQJ B Q 76;15.6164
1WQJ B P 62;1WQJ B G 77;3.70007
1WQJ B P 62;1WQJ B V 78;12.2721
1WQJ B P 62;1WQJ B M 80;2.16714
1WQJ B R 63;1WQJ B G 64;28.485
1WQJ B R 63;1WQJ B V 65;8.9655
1WQJ B G 64;1WQJ B V 65;30.2369
1WQJ B G 64;1WQJ B E 66;4.4002
1WQJ B V 65;1WQJ B E 66;27.5577
1WQJ B V 65;1WQJ B K 67;7.32042
1WQJ B V 65;1WQJ B P 68;21.2584
1WQJ B V 65;1WQJ B T 71;18.3704
1WQJ B E 66;1WQJ B K 67;31.1896
1WQJ B E 66;1WQJ B P 68;6.7436
1WQJ B E 66;1WQJ I P 2;17.7634
1WQJ B K 67;1WQJ B P 68;16.995
1WQJ B K 67;1WQJ B L 69;1.38192
1WQJ B K 67;1WQJ B H 70;32.5736
1WQJ B K 67;1WQJ B T 71;13.0301
1WQJ B K 67;1WQJ I P 2;15.8566
1WQJ B K 67;1WQJ I E 3;24.1328
1WQJ B P 68;1WQJ B L 69;22.2403
1WQJ B P 68;1WQJ B H 70;0.576237
1WQJ B P 68;1WQJ B T 71;9.41826
1WQJ B P 68;1WQJ B L 72;9.3172
1WQJ B P 68;1WQJ I P 2;6.07893
1WQJ B P 68;1WQJ I E 3;9.72674
1WQJ B P 68;1WQJ I D 53;1.88023
1WQJ B P 68;1WQJ I L 54;6.78708
1WQJ B L 69;1WQJ B H 70;17.0428
1WQJ B L 69;1WQJ B T 71;1.08241
1WQJ B L 69;1WQJ B L 72;17.882
1WQJ B L 69;1WQJ B M 73;14.3596
1WQJ B L 69;1WQJ I E 3;23.6366
1WQJ B L 69;1WQJ I T 4;0.535426
1WQJ B L 69;1WQJ I L 5;21.8089
1WQJ B L 69;1WQJ I A 13;2.64167
1WQJ B L 69;1WQJ I C 52;16.8233
1WQJ B L 69;1WQJ I D 53;11.826
1WQJ B L 69;1WQJ I L 54;18.4093
1WQJ B L 69;1WQJ I L 57;11.1898
1WQJ B H 70;1WQJ B T 71;27.2244
1WQJ B H 70;1WQJ B L 72;0.76089
1WQJ B H 70;1WQJ B M 73;14.5427
1WQJ B H 70;1WQJ B H 74;37.7221
1WQJ B H 70;1WQJ I E 3;11.6252
1WQJ B H 70;1WQJ I L 5;1.30919
1WQJ B T 71;1WQJ B L 72;19.7243
1WQJ B T 71;1WQJ B M 73;0.615049
1WQJ B T 71;1WQJ B H 74;8.7881
1WQJ B T 71;1WQJ B G 75;2.36118
1WQJ B T 71;1WQJ B Q 76;23.7718
1WQJ B T 71;1WQJ B G 77;2.78699
1WQJ B L 72;1WQJ B M 73;16.9351
1WQJ B L 72;1WQJ B H 74;1.44943
1WQJ B L 72;1WQJ B G 75;6.83216
1WQJ B L 72;1WQJ B Q 76;0.449607
1WQJ B L 72;1WQJ B G 77;10.6357
1WQJ B L 72;1WQJ I F 16;17.1105
1WQJ B L 72;1WQJ I L 54;13.4848
1WQJ B M 73;1WQJ B H 74;30.8278
1WQJ B M 73;1WQJ B G 75;4.47626
1WQJ B M 73;1WQJ I L 5;21.2793
1WQJ B M 73;1WQJ I E 9;24.7931
1WQJ B M 73;1WQJ I D 12;0.439177
1WQJ B M 73;1WQJ I A 13;5.75054
1WQJ B H 74;1WQJ B G 75;19.5046
1WQJ B H 74;1WQJ B Q 76;23.9301
1WQJ B G 75;1WQJ B Q 76;26.5899
1WQJ B G 75;1WQJ B G 77;1.7278
1WQJ B Q 76;1WQJ B G 77;24.2159
1WQJ B Q 76;1WQJ B V 78;3.85369
1WQJ B G 77;1WQJ B V 78;21.4891
1WQJ B V 78;1WQJ B C 79;18.7317
1WQJ B V 78;1WQJ B M 80;25.0971
1WQJ B C 79;1WQJ B M 80;18.4406
1WQJ B M 80;1WQJ B E 81;26.2745
1WQJ B M 80;1WQJ B L 82;1.64779
1WQJ B E 81;1WQJ B L 82;33.9403
1WQJ I P 2;1WQJ I E 3;40.0193
1WQJ I P 2;1WQJ I S 51;9.73475
1WQJ I P 2;1WQJ I C 52;5.87722
1WQJ I E 3;1WQJ I T 4;36.1814
1WQJ I E 3;1WQJ I L 5;0.174288
1WQJ I E 3;1WQJ I R 50;0.000562725
1WQJ I E 3;1WQJ I S 51;6.97316
1WQJ I E 3;1WQJ I C 52;19.6914
1WQJ I E 3;1WQJ I D 53;0.648656
1WQJ I T 4;1WQJ I L 5;31.8079
1WQJ I T 4;1WQJ I C 6;8.77615
1WQJ I T 4;1WQJ I C 47;8.70274
1WQJ I T 4;1WQJ I C 48;16.5109
1WQJ I T 4;1WQJ I F 49;1.84072
1WQJ I T 4;1WQJ I R 50;12.9283
1WQJ I T 4;1WQJ I S 51;3.6648
1WQJ I T 4;1WQJ I C 52;5.34883
1WQJ I L 5;1WQJ I C 6;23.9789
1WQJ I L 5;1WQJ I E 9;17.5489
1WQJ I L 5;1WQJ I L 10;23.5332
1WQJ I L 5;1WQJ I A 13;12.5274
1WQJ I L 5;1WQJ I C 47;9.67349
1WQJ I L 5;1WQJ I C 48;7.50248
1WQJ I L 5;1WQJ I C 52;12.2832
1WQJ I L 5;1WQJ I L 57;4.50738
1WQJ I C 6;1WQJ I G 7;27.0505
1WQJ I C 6;1WQJ I A 8;1.32622
1WQJ I C 6;1WQJ I E 9;16.0286
1WQJ I C 6;1WQJ I L 10;11.7992
1WQJ I C 6;1WQJ I C 48;32.5359
1WQJ I G 7;1WQJ I A 8;24.4979
1WQJ I G 7;1WQJ I E 9;1.37132
1WQJ I G 7;1WQJ I L 10;13.4681
1WQJ I G 7;1WQJ I V 11;12.1587
1WQJ I G 7;1WQJ I V 44;4.32986
1WQJ I G 7;1WQJ I C 48;1.04486
1WQJ I A 8;1WQJ I E 9;22.8561
1WQJ I A 8;1WQJ I L 10;0.853429
1WQJ I A 8;1WQJ I V 11;14.032
1WQJ I A 8;1WQJ I D 12;21.1047
1WQJ I E 9;1WQJ I L 10;16.9468
1WQJ I E 9;1WQJ I V 11;0.597161
1WQJ I E 9;1WQJ I D 12;11.8885
1WQJ I E 9;1WQJ I A 13;8.03141
1WQJ I L 10;1WQJ I V 11;21.0195
1WQJ I L 10;1WQJ I D 12;0.860538
1WQJ I L 10;1WQJ I A 13;7.64387
1WQJ I L 10;1WQJ I L 14;19.6066
1WQJ I L 10;1WQJ I F 25;1.29346
1WQJ I L 10;1WQJ I I 43;15.4092
1WQJ I L 10;1WQJ I V 44;16.1885
1WQJ I L 10;1WQJ I C 47;10.4681
1WQJ I L 10;1WQJ I C 48;4.66367
1WQJ I L 10;1WQJ I C 52;2.12737
1WQJ I L 10;1WQJ I L 57;8.85827
1WQJ I V 11;1WQJ I D 12;21.6652
1WQJ I V 11;1WQJ I A 13;0.972721
1WQJ I V 11;1WQJ I L 14;15.4043
1WQJ I V 11;1WQJ I Q 15;22.3089
1WQJ I V 11;1WQJ I F 23;16.2017
1WQJ I V 11;1WQJ I F 25;20.1264
1WQJ I D 12;1WQJ I A 13;15.5198
1WQJ I D 12;1WQJ I L 14;0.565952
1WQJ I D 12;1WQJ I Q 15;17.4438
1WQJ I D 12;1WQJ I F 16;9.10744
1WQJ I A 13;1WQJ I L 14;16.7169
1WQJ I A 13;1WQJ I Q 15;1.19263
1WQJ I A 13;1WQJ I F 16;12.3941
1WQJ I A 13;1WQJ I V 17;10.1633
1WQJ I A 13;1WQJ I L 57;13.7085
1WQJ I L 14;1WQJ I Q 15;17.4853
1WQJ I L 14;1WQJ I F 16;0.581207
1WQJ I L 14;1WQJ I V 17;7.93371
1WQJ I L 14;1WQJ I C 18;19.412
1WQJ I L 14;1WQJ I F 23;27.9323
1WQJ I L 14;1WQJ I Y 24;0.469545
1WQJ I L 14;1WQJ I F 25;2.82325
1WQJ I L 14;1WQJ I I 43;19.062
1WQJ I L 14;1WQJ I L 57;26.0527
1WQJ I L 14;1WQJ I Y 60;9.03355
1WQJ I Q 15;1WQJ I F 16;21.9331
1WQJ I Q 15;1WQJ I V 17;1.41415
1WQJ I Q 15;1WQJ I C 18;5.34016
1WQJ I Q 15;1WQJ I G 19;17.875
1WQJ I Q 15;1WQJ I F 23;19.6157
1WQJ I F 16;1WQJ I V 17;35.2353
1WQJ I F 16;1WQJ I C 18;0.16716
1WQJ I F 16;1WQJ I G 19;3.38298
1WQJ I F 16;1WQJ I L 54;7.13923
1WQJ I F 16;1WQJ I L 57;0.00393941
1WQJ I V 17;1WQJ I C 18;22.493
1WQJ I V 17;1WQJ I G 19;3.18053
1WQJ I V 17;1WQJ I R 21;8.59991
1WQJ I V 17;1WQJ I L 54;16.0929
1WQJ I V 17;1WQJ I L 57;18.7564
1WQJ I V 17;1WQJ I E 58;18.934
1WQJ I V 17;1WQJ I C 61;5.36285
1WQJ I C 18;1WQJ I G 19;25.3579
1WQJ I C 18;1WQJ I D 20;1.87588
1WQJ I C 18;1WQJ I R 21;24.326
1WQJ I C 18;1WQJ I G 22;11.6433
1WQJ I C 18;1WQJ I F 23;10.6662
1WQJ I C 18;1WQJ I L 57;3.04994
1WQJ I C 18;1WQJ I Y 60;0.569174
1WQJ I C 18;1WQJ I C 61;22.1856
1WQJ I G 19;1WQJ I D 20;26.0572
1WQJ I G 19;1WQJ I R 21;2.23485
1WQJ I G 19;1WQJ I G 22;10.0442
1WQJ I D 20;1WQJ I R 21;23.9618
1WQJ I D 20;1WQJ I G 22;3.28358
1WQJ I R 21;1WQJ I G 22;20.7507
1WQJ I R 21;1WQJ I E 58;23.5478
1WQJ I R 21;1WQJ I C 61;19.1361
1WQJ I R 21;1WQJ I A 62;26.9518
1WQJ I R 21;1WQJ I P 63;17.3924
1WQJ I G 22;1WQJ I F 23;22.0139
1WQJ I G 22;1WQJ I C 61;3.41347
1WQJ I G 22;1WQJ I A 62;8.52305
1WQJ I F 23;1WQJ I Y 24;29.4156
1WQJ I F 23;1WQJ I F 25;18.4475
1WQJ I F 23;1WQJ I I 43;0.509168
1WQJ I F 23;1WQJ I Y 60;8.93753
1WQJ I F 23;1WQJ I C 61;2.88665
1WQJ I F 23;1WQJ I A 62;6.25475
1WQJ I Y 24;1WQJ I F 25;22.0692
1WQJ I Y 24;1WQJ I N 26;16.1246
1WQJ I Y 24;1WQJ I K 27;10.543
1WQJ I Y 24;1WQJ I I 43;3.73898
1WQJ I Y 24;1WQJ I Y 60;24.8615
1WQJ I Y 24;1WQJ I C 61;0.435911
1WQJ I Y 24;1WQJ I A 62;14.4543
1WQJ I Y 24;1WQJ I P 63;7.4244
1WQJ I F 25;1WQJ I N 26;35.7189
1WQJ I F 25;1WQJ I G 42;5.27284
1WQJ I F 25;1WQJ I I 43;24.0944
1WQJ I F 25;1WQJ I V 44;15.3088
1WQJ I F 25;1WQJ I Y 60;4.51753
1WQJ I N 26;1WQJ I K 27;23.5871
1WQJ I N 26;1WQJ I P 28;2.70358
1WQJ I N 26;1WQJ I Q 40;29.191
1WQJ I N 26;1WQJ I T 41;8.1811
1WQJ I N 26;1WQJ I G 42;14.0253
1WQJ I N 26;1WQJ I Y 60;5.13166
1WQJ I K 27;1WQJ I P 28;35.1107
1WQJ I K 27;1WQJ I T 29;2.00114
1WQJ I K 27;1WQJ I Q 40;9.81737
1WQJ I K 27;1WQJ I T 41;22.7865
1WQJ I K 27;1WQJ I M 59;8.88435
1WQJ I K 27;1WQJ I Y 60;20.2472
1WQJ I P 28;1WQJ I T 29;23.8564
1WQJ I P 28;1WQJ I G 30;14.5125
1WQJ I P 28;1WQJ I P 39;7.44756
1WQJ I P 28;1WQJ I Q 40;22.8659
1WQJ I T 29;1WQJ I G 30;22.2749
1WQJ I T 29;1WQJ I Y 31;33.7588
1WQJ I T 29;1WQJ I G 32;0.0631144
1WQJ I T 29;1WQJ I A 38;12.5779
1WQJ I T 29;1WQJ I P 39;15.0664
1WQJ I T 29;1WQJ I Q 40;5.48142
1WQJ I T 29;1WQJ I T 41;14.2497
1WQJ I G 30;1WQJ I Y 31;37.418
1WQJ I G 30;1WQJ I P 39;1.16441
1WQJ I Y 31;1WQJ I G 32;39.4018
1WQJ I Y 31;1WQJ I S 33;0.000707875
1WQJ I Y 31;1WQJ I A 38;0.0131064
1WQJ I Y 31;1WQJ I P 39;12.5606
1WQJ I G 32;1WQJ I S 33;29.6288
1WQJ I G 32;1WQJ I S 34;6.82401
1WQJ I G 32;1WQJ I R 37;4.54082
1WQJ I G 32;1WQJ I A 38;1.22488
1WQJ I G 32;1WQJ I P 39;3.15678
1WQJ I S 33;1WQJ I S 34;32.4145
1WQJ I S 33;1WQJ I R 37;8.3741
1WQJ I S 33;1WQJ I A 38;5.67021
1WQJ I S 33;1WQJ I P 39;26.0576
1WQJ I S 34;1WQJ I S 35;32.804
1WQJ I S 34;1WQJ I R 36;18.9619
1WQJ I S 34;1WQJ I R 37;27.8543
1WQJ I S 35;1WQJ I R 36;27.7144
1WQJ I S 35;1WQJ I R 37;2.53837
1WQJ I R 36;1WQJ I R 37;31.8771
1WQJ I R 37;1WQJ I A 38;36.0691
1WQJ I A 38;1WQJ I P 39;29.1096
1WQJ I A 38;1WQJ I Q 40;19.0031
1WQJ I A 38;1WQJ I T 41;0.658637
1WQJ I P 39;1WQJ I Q 40;31.4578
1WQJ I Q 40;1WQJ I T 41;30.4695
1WQJ I T 41;1WQJ I G 42;22.5823
1WQJ I T 41;1WQJ I E 46;19.6732
1WQJ I T 41;1WQJ I Y 60;16.4264
1WQJ I G 42;1WQJ I I 43;15.4508
1WQJ I G 42;1WQJ I V 44;4.2157
1WQJ I G 42;1WQJ I D 45;18.408
1WQJ I G 42;1WQJ I E 46;11.0614
1WQJ I G 42;1WQJ I Y 60;6.80467
1WQJ I I 43;1WQJ I V 44;24.2517
1WQJ I I 43;1WQJ I D 45;0.550538
1WQJ I I 43;1WQJ I E 46;9.14257
1WQJ I I 43;1WQJ I C 47;19.1495
1WQJ I I 43;1WQJ I C 48;0.455237
1WQJ I I 43;1WQJ I R 56;9.74921
1WQJ I I 43;1WQJ I L 57;8.37417
1WQJ I I 43;1WQJ I Y 60;27.5412
1WQJ I V 44;1WQJ I D 45;23.971
1WQJ I V 44;1WQJ I E 46;1.23725
1WQJ I V 44;1WQJ I C 47;1.75741
1WQJ I V 44;1WQJ I C 48;19.6496
1WQJ I V 44;1WQJ I F 49;20.3325
1WQJ I D 45;1WQJ I E 46;21.4727
1WQJ I D 45;1WQJ I C 47;0.786815
1WQJ I D 45;1WQJ I C 48;0.0450158
1WQJ I D 45;1WQJ I F 49;25.8644
1WQJ I D 45;1WQJ I R 50;25.7758
1WQJ I E 46;1WQJ I C 47;18.5802
1WQJ I E 46;1WQJ I C 48;0.0518418
1WQJ I E 46;1WQJ I F 49;0.110925
1WQJ I E 46;1WQJ I R 50;25.9368
1WQJ I E 46;1WQJ I S 51;13.2382
1WQJ I E 46;1WQJ I R 56;33.7027
1WQJ I E 46;1WQJ I M 59;0.39876
1WQJ I E 46;1WQJ I Y 60;14.5705
1WQJ I C 47;1WQJ I C 48;17.55
1WQJ I C 47;1WQJ I F 49;0.226957
1WQJ I C 47;1WQJ I R 50;1.79095
1WQJ I C 47;1WQJ I S 51;5.55974
1WQJ I C 47;1WQJ I C 52;25.577
1WQJ I C 47;1WQJ I D 53;0.712524
1WQJ I C 47;1WQJ I R 56;8.97309
1WQJ I C 47;1WQJ I L 57;6.22551
1WQJ I C 48;1WQJ I F 49;45.5761
1WQJ I C 48;1WQJ I R 50;1.14925
1WQJ I F 49;1WQJ I R 50;31.5268
1WQJ I R 50;1WQJ I S 51;33.5972
1WQJ I S 51;1WQJ I C 52;22.9757
1WQJ I S 51;1WQJ I D 53;9.77489
1WQJ I S 51;1WQJ I R 55;0.549965
1WQJ I S 51;1WQJ I R 56;14.9426
1WQJ I C 52;1WQJ I D 53;30.0981
1WQJ I C 52;1WQJ I R 56;1.32963
1WQJ I C 52;1WQJ I L 57;8.6294
1WQJ I D 53;1WQJ I L 54;21.9208
1WQJ I D 53;1WQJ I R 55;31.2988
1WQJ I D 53;1WQJ I R 56;20.9296
1WQJ I D 53;1WQJ I L 57;9.55482
1WQJ I L 54;1WQJ I R 55;23.7859
1WQJ I L 54;1WQJ I R 56;0.781804
1WQJ I L 54;1WQJ I L 57;14.5901
1WQJ I L 54;1WQJ I E 58;11.5128
1WQJ I R 55;1WQJ I R 56;45.3167
1WQJ I R 55;1WQJ I L 57;0.679859
1WQJ I R 55;1WQJ I E 58;13.0298
1WQJ I R 55;1WQJ I M 59;32.7706
1WQJ I R 56;1WQJ I L 57;17.8028
1WQJ I R 56;1WQJ I E 58;0.887515
1WQJ I R 56;1WQJ I M 59;32.3744
1WQJ I R 56;1WQJ I Y 60;13.2444
1WQJ I L 57;1WQJ I E 58;15.2776
1WQJ I L 57;1WQJ I M 59;1.59179
1WQJ I L 57;1WQJ I Y 60;8.18567
1WQJ I L 57;1WQJ I C 61;4.22729
1WQJ I E 58;1WQJ I M 59;22.5392
1WQJ I E 58;1WQJ I Y 60;1.81154
1WQJ I E 58;1WQJ I C 61;21.5816
1WQJ I M 59;1WQJ I Y 60;30.1966
1WQJ I M 59;1WQJ I C 61;6.44994
1WQJ I Y 60;1WQJ I C 61;21.9769
1WQJ I Y 60;1WQJ I A 62;1.01083
1WQJ I C 61;1WQJ I A 62;26.7831
1WQJ I C 61;1WQJ I P 63;3.1479
1WQJ I A 62;1WQJ I P 63;39.6203
