V1;V2;Weight
2B0U A G 1;2B0U A L 2;36.5963
2B0U A G 1;2B0U A E 3;3.62275
2B0U A G 1;2B0U A K 13;0.836587
2B0U A G 1;2B0U A S 52;3.76769
2B0U A G 1;2B0U A E 111;3.57517
2B0U A G 1;2B0U A E 112;15.3057
2B0U A G 1;2B0U A C 113;11.9602
2B0U A L 2;2B0U A E 3;35.3642
2B0U A L 2;2B0U A V 8;5.58524
2B0U A L 2;2B0U A I 10;18.776
2B0U A L 2;2B0U A C 11;12.4278
2B0U A L 2;2B0U A C 12;19.2832
2B0U A L 2;2B0U A K 13;16.712
2B0U A L 2;2B0U A I 48;0.158914
2B0U A L 2;2B0U A E 112;0.445069
2B0U A L 2;2B0U A C 113;6.93026
2B0U A E 3;2B0U A C 4;18.6075
2B0U A E 3;2B0U A D 5;27.7648
2B0U A E 3;2B0U A V 8;2.70206
2B0U A E 3;2B0U A C 12;3.79394
2B0U A E 3;2B0U A K 13;29.3396
2B0U A C 4;2B0U A D 5;24.4042
2B0U A C 4;2B0U A G 6;16.0587
2B0U A C 4;2B0U A V 8;1.7148
2B0U A C 4;2B0U A C 12;34.7188
2B0U A C 4;2B0U A K 13;15.8166
2B0U A C 4;2B0U A K 14;17.8893
2B0U A C 4;2B0U A E 41;6.62202
2B0U A D 5;2B0U A G 6;28.4726
2B0U A D 5;2B0U A K 7;1.04828
2B0U A D 5;2B0U A V 8;11.1194
2B0U A D 5;2B0U A Q 15;3.55595
2B0U A G 6;2B0U A K 7;31.7014
2B0U A G 6;2B0U A V 8;4.04828
2B0U A G 6;2B0U A N 9;0.195314
2B0U A K 7;2B0U A V 8;30.3943
2B0U A K 7;2B0U A N 9;12.1423
2B0U A V 8;2B0U A N 9;28.798
2B0U A V 8;2B0U A I 10;23.4757
2B0U A V 8;2B0U A C 12;5.02908
2B0U A N 9;2B0U A I 10;28.8487
2B0U A N 9;2B0U A C 12;3.18683
2B0U A N 9;2B0U A G 42;5.62393
2B0U A N 9;2B0U A E 43;32.5621
2B0U A N 9;2B0U A P 45;2.34618
2B0U A N 9;2B0U A I 48;0.421992
2B0U A I 10;2B0U A C 11;23.3199
2B0U A I 10;2B0U A C 12;17.4674
2B0U A I 10;2B0U A E 41;1.45021
2B0U A I 10;2B0U A G 42;6.37023
2B0U A I 10;2B0U A E 43;5.3213
2B0U A I 10;2B0U A P 45;0.0249903
2B0U A I 10;2B0U A I 48;32.9671
2B0U A C 11;2B0U A C 12;15.6807
2B0U A C 11;2B0U A E 41;2.30913
2B0U A C 11;2B0U A G 42;7.30175
2B0U A C 11;2B0U A E 43;9.156
2B0U A C 11;2B0U A C 44;1.80178
2B0U A C 11;2B0U A I 48;4.55789
2B0U A C 11;2B0U A C 81;20.1931
2B0U A C 11;2B0U A V 82;0.395378
2B0U A C 11;2B0U A C 113;13.3236
2B0U A C 11;2B0U A G 114;11.8708
2B0U A C 11;2B0U A C 115;14.0436
2B0U A C 12;2B0U A K 13;16.0684
2B0U A C 12;2B0U A K 14;1.98681
2B0U A C 12;2B0U A Y 39;0.43251
2B0U A C 12;2B0U A C 40;2.26809
2B0U A C 12;2B0U A E 41;17.6486
2B0U A C 12;2B0U A G 42;0.280471
2B0U A C 12;2B0U A C 81;1.68168
2B0U A C 12;2B0U A C 113;8.01088
2B0U A K 13;2B0U A K 14;22.3405
2B0U A K 13;2B0U A Q 15;3.39593
2B0U A K 13;2B0U A N 38;17.3496
2B0U A K 13;2B0U A Y 39;5.58948
2B0U A K 13;2B0U A C 40;0.294044
2B0U A K 13;2B0U A V 110;13.9811
2B0U A K 13;2B0U A E 111;26.5934
2B0U A K 13;2B0U A E 112;3.84169
2B0U A K 13;2B0U A C 113;16.667
2B0U A K 14;2B0U A Q 15;29.267
2B0U A K 14;2B0U A F 16;0.735084
2B0U A K 14;2B0U A N 38;7.3161
2B0U A K 14;2B0U A Y 39;34.9865
2B0U A K 14;2B0U A E 41;7.98631
2B0U A Q 15;2B0U A F 16;26.6955
2B0U A Q 15;2B0U A H 36;20.5797
2B0U A Q 15;2B0U A N 38;12.2256
2B0U A Q 15;2B0U A Y 39;5.1455
2B0U A F 16;2B0U A F 17;38.46
2B0U A F 16;2B0U A V 18;13.7744
2B0U A F 16;2B0U A Y 35;0.292719
2B0U A F 16;2B0U A H 36;11.4888
2B0U A F 16;2B0U A A 37;10.0476
2B0U A F 16;2B0U A N 38;20.0391
2B0U A F 16;2B0U A Y 39;16.2302
2B0U A F 16;2B0U B V 62;0.0285187
2B0U A F 16;2B0U B I 63;8.86327
2B0U A F 16;2B0U B Y 66;22.6055
2B0U A F 16;2B0U B H 71;0.034576
2B0U A F 16;2B0U B P 73;5.73652
2B0U A F 16;2B0U B F 74;22.0388
2B0U A F 17;2B0U A V 18;22.3192
2B0U A F 17;2B0U A S 19;21.7384
2B0U A F 17;2B0U A D 22;0.596602
2B0U A F 17;2B0U A S 33;5.21738
2B0U A F 17;2B0U A G 34;14.3781
2B0U A F 17;2B0U A Y 35;11.7994
2B0U A F 17;2B0U A H 36;26.0766
2B0U A F 17;2B0U B Y 66;2.52247
2B0U A V 18;2B0U A S 19;19.7614
2B0U A V 18;2B0U A F 20;8.79861
2B0U A V 18;2B0U A I 23;10.2587
2B0U A V 18;2B0U A G 34;6.2962
2B0U A V 18;2B0U A Y 35;28.3702
2B0U A V 18;2B0U A A 37;12.6024
2B0U A V 18;2B0U B V 62;13.8878
2B0U A V 18;2B0U B I 63;0.910692
2B0U A V 18;2B0U B Y 66;12.5995
2B0U A S 19;2B0U A F 20;19.4858
2B0U A S 19;2B0U A K 21;13.4815
2B0U A S 19;2B0U A D 22;26.5879
2B0U A S 19;2B0U A I 23;7.7491
2B0U A S 19;2B0U A S 33;3.98349
2B0U A S 19;2B0U A G 34;3.33354
2B0U A S 19;2B0U B Y 66;7.41309
2B0U A F 20;2B0U A K 21;17.9595
2B0U A F 20;2B0U A D 22;0.250583
2B0U A F 20;2B0U A I 23;13.4504
2B0U A F 20;2B0U A G 24;4.06094
2B0U A F 20;2B0U A W 25;26.2162
2B0U A F 20;2B0U A N 26;16.3053
2B0U A F 20;2B0U A I 29;26.7306
2B0U A F 20;2B0U A P 32;11.5015
2B0U A F 20;2B0U A S 33;21.0923
2B0U A F 20;2B0U A G 34;11.8633
2B0U A F 20;2B0U A Y 35;17.555
2B0U A F 20;2B0U A M 89;2.63859
2B0U A F 20;2B0U A M 91;11.7304
2B0U A F 20;2B0U A M 108;2.24622
2B0U A F 20;2B0U B F 58;2.02728
2B0U A F 20;2B0U B V 62;0.290637
2B0U A K 21;2B0U A D 22;35.2531
2B0U A K 21;2B0U A I 23;1.5687
2B0U A K 21;2B0U A G 24;12.8992
2B0U A K 21;2B0U A N 26;33.0846
2B0U A K 21;2B0U A S 33;0.440287
2B0U A D 22;2B0U A I 23;24.2438
2B0U A D 22;2B0U A G 24;1.63939
2B0U A D 22;2B0U B Y 66;21.5749
2B0U A D 22;2B0U B R 69;14.822
2B0U A D 22;2B0U B H 71;2.39795
2B0U A I 23;2B0U A G 24;22.2424
2B0U A I 23;2B0U A W 25;34.9207
2B0U A I 23;2B0U B V 62;13.1293
2B0U A I 23;2B0U B H 65;18.9188
2B0U A I 23;2B0U B Y 66;15.2468
2B0U A I 23;2B0U B R 69;18.8466
2B0U A G 24;2B0U A W 25;25.7942
2B0U A G 24;2B0U A N 26;6.0299
2B0U A G 24;2B0U A D 27;10.5164
2B0U A G 24;2B0U A W 28;4.67125
2B0U A W 25;2B0U A N 26;16.4625
2B0U A W 25;2B0U A D 27;5.1937
2B0U A W 25;2B0U A W 28;38.1675
2B0U A W 25;2B0U A I 29;24.652
2B0U A W 25;2B0U A Y 35;0.068174
2B0U A W 25;2B0U A M 91;0.282841
2B0U A W 25;2B0U B F 58;13.9114
2B0U A W 25;2B0U B T 61;4.39941
2B0U A W 25;2B0U B V 62;14.9441
2B0U A W 25;2B0U B H 65;15.0509
2B0U A W 25;2B0U C N 44;7.41942
2B0U A W 25;2B0U C F 47;21.9462
2B0U A N 26;2B0U A D 27;39.3004
2B0U A N 26;2B0U A W 28;0.0225277
2B0U A N 26;2B0U A I 29;15.499
2B0U A D 27;2B0U A W 28;21.1871
2B0U A D 27;2B0U A I 29;4.17613
2B0U A D 27;2B0U A I 30;0.171419
2B0U A D 27;2B0U A Y 94;10.0642
2B0U A W 28;2B0U A I 29;33.48
2B0U A W 28;2B0U A I 30;2.92692
2B0U A W 28;2B0U A M 91;12.4918
2B0U A W 28;2B0U A Y 93;19.109
2B0U A W 28;2B0U A Y 94;27.0254
2B0U A W 28;2B0U B F 58;2.60686
2B0U A W 28;2B0U C F 47;5.37819
2B0U A W 28;2B0U C K 48;33.0747
2B0U A W 28;2B0U C I 51;15.0215
2B0U A W 28;2B0U C F 52;16.6048
2B0U A I 29;2B0U A I 30;25.2304
2B0U A I 29;2B0U A A 31;8.42505
2B0U A I 29;2B0U A P 32;10.8068
2B0U A I 29;2B0U A M 91;19.0119
2B0U A I 29;2B0U A L 92;3.74605
2B0U A I 29;2B0U A Y 93;6.13383
2B0U A I 29;2B0U A Y 94;0.0835575
2B0U A I 30;2B0U A A 31;26.4012
2B0U A I 30;2B0U A P 32;3.17547
2B0U A I 30;2B0U A S 33;0.267771
2B0U A I 30;2B0U A L 92;26.2804
2B0U A I 30;2B0U A Y 93;12.0875
2B0U A I 30;2B0U A Y 94;26.0846
2B0U A I 30;2B0U A I 100;16.1473
2B0U A A 31;2B0U A P 32;33.4899
2B0U A A 31;2B0U A M 91;5.46513
2B0U A A 31;2B0U A L 92;24.8268
2B0U A P 32;2B0U A S 33;30.4475
2B0U A P 32;2B0U A G 34;13.8983
2B0U A P 32;2B0U A Y 35;1.00432
2B0U A P 32;2B0U A M 89;14.4578
2B0U A P 32;2B0U A S 90;7.48873
2B0U A P 32;2B0U A M 91;8.07978
2B0U A S 33;2B0U A G 34;22.5616
2B0U A G 34;2B0U A Y 35;18.6626
2B0U A Y 35;2B0U A H 36;22.6712
2B0U A Y 35;2B0U A A 37;19.2276
2B0U A Y 35;2B0U A M 89;16.7951
2B0U A Y 35;2B0U A M 108;28.0478
2B0U A Y 35;2B0U A I 109;10.8305
2B0U A Y 35;2B0U B F 58;10.9412
2B0U A Y 35;2B0U B H 59;1.6795
2B0U A Y 35;2B0U B V 62;12.1556
2B0U A H 36;2B0U A A 37;14.8465
2B0U A H 36;2B0U A N 38;17.2378
2B0U A H 36;2B0U A I 109;14.4262
2B0U A A 37;2B0U A N 38;26.829
2B0U A A 37;2B0U A M 108;3.67584
2B0U A A 37;2B0U A I 109;5.78886
2B0U A A 37;2B0U A V 110;8.46596
2B0U A A 37;2B0U B H 59;11.4785
2B0U A A 37;2B0U B V 62;4.21462
2B0U A A 37;2B0U B I 63;4.37377
2B0U A N 38;2B0U A Y 39;20.4439
2B0U A N 38;2B0U A R 87;0.0186355
2B0U A N 38;2B0U A I 109;9.94574
2B0U A N 38;2B0U A V 110;17.0447
2B0U A N 38;2B0U B H 59;7.16399
2B0U A N 38;2B0U B I 63;3.16475
2B0U A Y 39;2B0U A C 40;29.6335
2B0U A Y 39;2B0U A E 41;25.2856
2B0U A Y 39;2B0U A V 110;7.97616
2B0U A Y 39;2B0U A C 113;2.12745
2B0U A Y 39;2B0U B H 59;7.63943
2B0U A Y 39;2B0U B I 63;10.8355
2B0U A Y 39;2B0U B P 73;20.812
2B0U A Y 39;2B0U B F 74;20.7324
2B0U A Y 39;2B0U B L 77;15.3217
2B0U A C 40;2B0U A E 41;21.1931
2B0U A C 40;2B0U A C 81;19.47
2B0U A C 40;2B0U A V 82;9.11369
2B0U A C 40;2B0U A P 83;15.8175
2B0U A C 40;2B0U A V 110;7.12882
2B0U A C 40;2B0U A E 112;1.11078
2B0U A C 40;2B0U A C 113;20.2066
2B0U A C 40;2B0U B H 59;0.586748
2B0U A C 40;2B0U B L 77;13.5086
2B0U A E 41;2B0U A G 42;30.3629
2B0U A E 41;2B0U A C 81;12.3507
2B0U A E 41;2B0U B P 73;10.1241
2B0U A E 41;2B0U B N 76;0.440339
2B0U A E 41;2B0U B L 77;19.3172
2B0U A G 42;2B0U A E 43;27.3137
2B0U A G 42;2B0U A C 44;4.20457
2B0U A G 42;2B0U A C 81;14.279
2B0U A E 43;2B0U A C 44;24.2074
2B0U A E 43;2B0U A P 45;17.4048
2B0U A E 43;2B0U A I 48;0.954647
2B0U A E 43;2B0U A C 115;0.858463
2B0U A C 44;2B0U A P 45;33.6421
2B0U A C 44;2B0U A S 46;0.917038
2B0U A C 44;2B0U A I 48;0.14521
2B0U A C 44;2B0U A S 79;26.6936
2B0U A C 44;2B0U A C 80;3.32582
2B0U A C 44;2B0U A C 81;10.8612
2B0U A C 44;2B0U A C 115;23.2346
2B0U A P 45;2B0U A S 46;26.2982
2B0U A P 45;2B0U A H 47;7.63778
2B0U A P 45;2B0U A I 48;35.9681
2B0U A P 45;2B0U A A 49;9.52176
2B0U A P 45;2B0U A S 79;0.331496
2B0U A P 45;2B0U A C 115;2.65812
2B0U A S 46;2B0U A H 47;28.4214
2B0U A S 46;2B0U A I 48;2.87798
2B0U A S 46;2B0U A A 49;15.3206
2B0U A S 46;2B0U A G 50;8.35237
2B0U A S 46;2B0U A T 51;0.846261
2B0U A S 46;2B0U A N 64;24.1641
2B0U A S 46;2B0U A M 68;6.18529
2B0U A H 47;2B0U A I 48;21.9397
2B0U A H 47;2B0U A A 49;0.236754
2B0U A H 47;2B0U A G 50;0.096678
2B0U A H 47;2B0U A T 51;16.3295
2B0U A I 48;2B0U A A 49;19.3508
2B0U A I 48;2B0U A G 50;0.222154
2B0U A I 48;2B0U A T 51;6.58791
2B0U A I 48;2B0U A S 52;22.6568
2B0U A I 48;2B0U A C 115;9.86786
2B0U A A 49;2B0U A G 50;20.6098
2B0U A A 49;2B0U A T 51;1.56372
2B0U A A 49;2B0U A S 52;8.97768
2B0U A A 49;2B0U A S 54;1.0448
2B0U A A 49;2B0U A S 57;14.4398
2B0U A A 49;2B0U A S 60;18.1868
2B0U A A 49;2B0U A T 61;3.21336
2B0U A A 49;2B0U A N 64;1.30666
2B0U A A 49;2B0U A S 79;4.66422
2B0U A A 49;2B0U A C 115;17.1975
2B0U A G 50;2B0U A T 51;23.9451
2B0U A G 50;2B0U A S 52;1.49598
2B0U A G 50;2B0U A G 53;3.24281
2B0U A G 50;2B0U A S 57;11.9429
2B0U A G 50;2B0U A T 61;14.6266
2B0U A T 51;2B0U A S 52;18.7529
2B0U A T 51;2B0U A G 53;2.37073
2B0U A S 52;2B0U A G 53;22.5769
2B0U A S 52;2B0U A S 54;17.2363
2B0U A S 52;2B0U A S 57;2.51532
2B0U A S 52;2B0U A C 113;4.53702
2B0U A S 52;2B0U A G 114;5.1467
2B0U A S 52;2B0U A C 115;3.68963
2B0U A G 53;2B0U A S 54;27.0316
2B0U A G 53;2B0U A S 55;0.26257
2B0U A G 53;2B0U A S 57;11.9294
2B0U A S 54;2B0U A S 55;26.3069
2B0U A S 54;2B0U A L 56;10.9226
2B0U A S 54;2B0U A S 57;24.3655
2B0U A S 54;2B0U A F 58;0.297296
2B0U A S 54;2B0U A T 84;12.5772
2B0U A S 54;2B0U A C 113;4.77973
2B0U A S 54;2B0U A G 114;8.61046
2B0U A S 54;2B0U A C 115;6.54803
2B0U A S 54;2B0U B N 107;1.11131
2B0U A S 55;2B0U A L 56;25.8682
2B0U A S 55;2B0U A S 57;3.20521
2B0U A S 55;2B0U A F 58;1.9454
2B0U A S 55;2B0U A H 59;0.301084
2B0U A S 55;2B0U A T 84;25.473
2B0U A S 55;2B0U B L 86;13.8997
2B0U A S 55;2B0U B N 107;36.5349
2B0U A L 56;2B0U A S 57;18.1063
2B0U A L 56;2B0U A F 58;0.757047
2B0U A L 56;2B0U A H 59;12.665
2B0U A L 56;2B0U A S 60;13.5796
2B0U A L 56;2B0U A V 82;7.85465
2B0U A L 56;2B0U A P 83;2.68241
2B0U A L 56;2B0U A T 84;15.9474
2B0U A L 56;2B0U A G 114;2.96496
2B0U A L 56;2B0U A C 115;8.73839
2B0U A L 56;2B0U A S 116;21.2696
2B0U A L 56;2B0U B V 82;1.38654
2B0U A L 56;2B0U B P 83;23.4213
2B0U A L 56;2B0U B L 86;15.6942
2B0U A S 57;2B0U A F 58;25.8931
2B0U A S 57;2B0U A H 59;1.2021
2B0U A S 57;2B0U A S 60;7.83842
2B0U A S 57;2B0U A T 61;10.4238
2B0U A S 57;2B0U A C 115;0.323323
2B0U A F 58;2B0U A H 59;21.9995
2B0U A F 58;2B0U A S 60;0.757548
2B0U A F 58;2B0U A T 61;7.77931
2B0U A F 58;2B0U A V 62;20.7609
2B0U A F 58;2B0U B F 20;5.09896
2B0U A F 58;2B0U B W 25;15.19
2B0U A F 58;2B0U B W 28;1.91655
2B0U A F 58;2B0U B I 29;1.20301
2B0U A F 58;2B0U B Y 35;10.2931
2B0U A F 58;2B0U B M 91;7.01345
2B0U A F 58;2B0U B I 105;16.9415
2B0U A F 58;2B0U B Q 106;6.52873
2B0U A F 58;2B0U B N 107;6.22827
2B0U A F 58;2B0U B M 108;25.8783
2B0U A H 59;2B0U A S 60;21.8584
2B0U A H 59;2B0U A T 61;1.2632
2B0U A H 59;2B0U A V 62;13.7177
2B0U A H 59;2B0U A I 63;27.8689
2B0U A H 59;2B0U A S 116;0.330977
2B0U A H 59;2B0U B Y 35;2.13606
2B0U A H 59;2B0U B A 37;11.5613
2B0U A H 59;2B0U B N 38;7.73228
2B0U A H 59;2B0U B Y 39;7.73752
2B0U A H 59;2B0U B C 40;0.494059
2B0U A H 59;2B0U B P 83;9.52009
2B0U A H 59;2B0U B L 86;9.4846
2B0U A H 59;2B0U B N 107;8.73379
2B0U A H 59;2B0U B M 108;11.0598
2B0U A H 59;2B0U B I 109;0.00636832
2B0U A H 59;2B0U B V 110;16.4889
2B0U A S 60;2B0U A T 61;18.1999
2B0U A S 60;2B0U A V 62;0.83251
2B0U A S 60;2B0U A I 63;10.827
2B0U A S 60;2B0U A N 64;14.7804
2B0U A S 60;2B0U A R 67;0.117889
2B0U A S 60;2B0U A S 79;9.78587
2B0U A S 60;2B0U A C 115;5.13633
2B0U A S 60;2B0U A S 116;18.0572
2B0U A T 61;2B0U A V 62;18.4864
2B0U A T 61;2B0U A I 63;0.354023
2B0U A T 61;2B0U A N 64;10.4702
2B0U A T 61;2B0U A H 65;28.3252
2B0U A T 61;2B0U B W 25;9.02403
2B0U A V 62;2B0U A I 63;24.5991
2B0U A V 62;2B0U A N 64;0.926232
2B0U A V 62;2B0U A H 65;8.05611
2B0U A V 62;2B0U A Y 66;12.113
2B0U A V 62;2B0U B F 16;0.105308
2B0U A V 62;2B0U B V 18;15.2695
2B0U A V 62;2B0U B F 20;1.33617
2B0U A V 62;2B0U B I 23;15.3943
2B0U A V 62;2B0U B W 25;12.5348
2B0U A V 62;2B0U B Y 35;11.573
2B0U A V 62;2B0U B A 37;2.76214
2B0U A I 63;2B0U A N 64;18.3868
2B0U A I 63;2B0U A H 65;1.34429
2B0U A I 63;2B0U A Y 66;12.9395
2B0U A I 63;2B0U A R 67;19.7989
2B0U A I 63;2B0U A F 74;27.8368
2B0U A I 63;2B0U A L 77;4.86164
2B0U A I 63;2B0U B F 16;10.2274
2B0U A I 63;2B0U B V 18;1.74663
2B0U A I 63;2B0U B A 37;3.16787
2B0U A I 63;2B0U B N 38;3.35404
2B0U A I 63;2B0U B Y 39;10.7784
2B0U A N 64;2B0U A H 65;22.7801
2B0U A N 64;2B0U A Y 66;0.864991
2B0U A N 64;2B0U A R 67;38.1133
2B0U A N 64;2B0U A M 68;27.5031
2B0U A H 65;2B0U A Y 66;17.7764
2B0U A H 65;2B0U A R 67;0.853094
2B0U A H 65;2B0U A M 68;10.2717
2B0U A H 65;2B0U A R 69;28.6585
2B0U A H 65;2B0U B I 23;26.1884
2B0U A H 65;2B0U B W 25;13.1584
2B0U A Y 66;2B0U A R 67;15.7598
2B0U A Y 66;2B0U A M 68;1.25731
2B0U A Y 66;2B0U A R 69;13.6511
2B0U A Y 66;2B0U A G 70;4.18995
2B0U A Y 66;2B0U A H 71;34.3164
2B0U A Y 66;2B0U A F 74;13.6284
2B0U A Y 66;2B0U B F 16;22.8362
2B0U A Y 66;2B0U B F 17;3.49781
2B0U A Y 66;2B0U B V 18;14.8096
2B0U A Y 66;2B0U B S 19;9.68792
2B0U A Y 66;2B0U B D 22;23.6502
2B0U A Y 66;2B0U B I 23;16.047
2B0U A R 67;2B0U A M 68;32.7062
2B0U A R 67;2B0U A R 69;2.05229
2B0U A R 67;2B0U A G 70;13.1045
2B0U A R 67;2B0U A H 71;2.5757
2B0U A R 67;2B0U A F 74;25.4122
2B0U A R 67;2B0U A A 75;7.78587
2B0U A R 67;2B0U A L 77;22.8729
2B0U A R 67;2B0U A K 78;2.68428
2B0U A R 67;2B0U A S 79;18.3024
2B0U A R 67;2B0U A S 116;1.13146
2B0U A M 68;2B0U A R 69;37.5136
2B0U A M 68;2B0U A G 70;0.432664
2B0U A R 69;2B0U A G 70;30.0537
2B0U A R 69;2B0U A H 71;1.54503
2B0U A R 69;2B0U B D 22;17.2817
2B0U A R 69;2B0U B I 23;17.4885
2B0U A R 69;2B0U B G 24;3.64435
2B0U A G 70;2B0U A H 71;29.8591
2B0U A G 70;2B0U A S 72;6.87604
2B0U A G 70;2B0U A A 75;1.18134
2B0U A H 71;2B0U A S 72;31.8209
2B0U A H 71;2B0U A P 73;15.64
2B0U A H 71;2B0U A F 74;19.8195
2B0U A H 71;2B0U A A 75;9.76542
2B0U A H 71;2B0U B F 16;11.4619
2B0U A H 71;2B0U B D 22;1.83563
2B0U A S 72;2B0U A P 73;33.085
2B0U A S 72;2B0U A F 74;1.99193
2B0U A S 72;2B0U A A 75;13.0756
2B0U A S 72;2B0U A N 76;2.51118
2B0U A P 73;2B0U A F 74;33.8314
2B0U A P 73;2B0U A A 75;2.65769
2B0U A P 73;2B0U A N 76;7.76623
2B0U A P 73;2B0U A L 77;6.55521
2B0U A P 73;2B0U B F 16;7.30719
2B0U A P 73;2B0U B Y 39;22.7211
2B0U A P 73;2B0U B E 41;12.3312
2B0U A F 74;2B0U A A 75;21.3254
2B0U A F 74;2B0U A N 76;1.39589
2B0U A F 74;2B0U A L 77;29.8403
2B0U A F 74;2B0U B F 16;19.0614
2B0U A F 74;2B0U B Y 39;18.8547
2B0U A A 75;2B0U A N 76;37.2546
2B0U A A 75;2B0U A L 77;6.17668
2B0U A A 75;2B0U A K 78;0.35332
2B0U A N 76;2B0U A L 77;27.6979
2B0U A N 76;2B0U A K 78;9.28694
2B0U A N 76;2B0U B E 41;2.56611
2B0U A L 77;2B0U A K 78;37.2166
2B0U A L 77;2B0U B Y 39;13.0465
2B0U A L 77;2B0U B C 40;11.9224
2B0U A L 77;2B0U B E 41;23.232
2B0U A L 77;2B0U B C 81;0.787819
2B0U A K 78;2B0U A S 79;27.5146
2B0U A K 78;2B0U A C 80;12.4494
2B0U A K 78;2B0U A S 116;2.32208
2B0U A K 78;2B0U B C 80;2.87838
2B0U A S 79;2B0U A C 80;18.7183
2B0U A S 79;2B0U A C 115;6.83875
2B0U A S 79;2B0U A S 116;20.8431
2B0U A C 80;2B0U A C 81;26.3258
2B0U A C 80;2B0U A V 82;16.1291
2B0U A C 80;2B0U A G 114;1.98426
2B0U A C 80;2B0U A C 115;3.20975
2B0U A C 80;2B0U A S 116;16.0064
2B0U A C 80;2B0U B K 78;6.81381
2B0U A C 80;2B0U B S 79;0.978099
2B0U A C 80;2B0U B C 80;28.3914
2B0U A C 80;2B0U B V 82;5.89764
2B0U A C 80;2B0U B S 116;1.8708
2B0U A C 81;2B0U A V 82;22.3676
2B0U A C 81;2B0U A C 113;2.79349
2B0U A C 81;2B0U A G 114;2.44548
2B0U A C 81;2B0U A C 115;1.93312
2B0U A C 81;2B0U B S 116;0.762441
2B0U A V 82;2B0U A P 83;32.0421
2B0U A V 82;2B0U A T 84;5.08319
2B0U A V 82;2B0U A C 113;2.90513
2B0U A V 82;2B0U A G 114;16.4086
2B0U A V 82;2B0U A S 116;5.82863
2B0U A V 82;2B0U B L 56;0.972399
2B0U A V 82;2B0U B C 80;3.05058
2B0U A V 82;2B0U B V 82;19.5949
2B0U A V 82;2B0U B P 83;0.283793
2B0U A V 82;2B0U B S 116;16.7993
2B0U A P 83;2B0U A T 84;23.6855
2B0U A P 83;2B0U A K 85;2.16598
2B0U A P 83;2B0U A L 86;16.5266
2B0U A P 83;2B0U A V 110;14.7048
2B0U A P 83;2B0U A E 112;5.2464
2B0U A P 83;2B0U A C 113;0.848746
2B0U A P 83;2B0U B L 56;22.8539
2B0U A P 83;2B0U B H 59;9.43931
2B0U A P 83;2B0U B V 82;0.3415
2B0U A P 83;2B0U B P 83;2.3997
2B0U A P 83;2B0U B S 116;10.9521
2B0U A T 84;2B0U A K 85;30.928
2B0U A T 84;2B0U A L 86;2.84039
2B0U A T 84;2B0U A E 112;16.4801
2B0U A T 84;2B0U A C 113;8.09914
2B0U A T 84;2B0U A G 114;10.4128
2B0U A K 85;2B0U A L 86;31.4197
2B0U A K 85;2B0U A V 110;2.23529
2B0U A K 85;2B0U A E 111;17.6298
2B0U A K 85;2B0U A E 112;25.13
2B0U A L 86;2B0U A R 87;22.7714
2B0U A L 86;2B0U A P 88;4.99683
2B0U A L 86;2B0U A N 107;35.9648
2B0U A L 86;2B0U A M 108;1.01353
2B0U A L 86;2B0U A I 109;10.8869
2B0U A L 86;2B0U A V 110;11.8616
2B0U A L 86;2B0U A E 111;1.81255
2B0U A L 86;2B0U B S 55;17.6262
2B0U A L 86;2B0U B L 56;13.7912
2B0U A L 86;2B0U B H 59;11.0466
2B0U A R 87;2B0U A P 88;45.9473
2B0U A R 87;2B0U A N 107;4.02289
2B0U A R 87;2B0U A M 108;3.24865
2B0U A R 87;2B0U A I 109;51.3864
2B0U A R 87;2B0U A E 111;37.4289
2B0U A P 88;2B0U A M 89;27.4656
2B0U A P 88;2B0U A D 104;7.26603
2B0U A P 88;2B0U A I 105;7.53933
2B0U A P 88;2B0U A Q 106;27.9457
2B0U A P 88;2B0U A N 107;7.21587
2B0U A P 88;2B0U A M 108;4.20847
2B0U A P 88;2B0U A I 109;4.04169
2B0U A M 89;2B0U A S 90;36.0756
2B0U A M 89;2B0U A M 91;12.234
2B0U A M 89;2B0U A K 103;0.742936
2B0U A M 89;2B0U A D 104;9.20693
2B0U A M 89;2B0U A I 105;15.4685
2B0U A M 89;2B0U A M 108;26.7867
2B0U A M 89;2B0U A I 109;18.7424
2B0U A S 90;2B0U A M 91;24.1207
2B0U A S 90;2B0U A K 102;22.9847
2B0U A S 90;2B0U A K 103;6.18324
2B0U A S 90;2B0U A D 104;17.3378
2B0U A M 91;2B0U A L 92;21.4863
2B0U A M 91;2B0U A Y 93;20.3467
2B0U A M 91;2B0U A I 101;1.4035
2B0U A M 91;2B0U A K 102;9.63963
2B0U A M 91;2B0U A K 103;14.837
2B0U A M 91;2B0U A I 105;15.3321
2B0U A M 91;2B0U A M 108;16.457
2B0U A M 91;2B0U B F 58;6.02169
2B0U A M 91;2B0U C I 51;1.7152
2B0U A L 92;2B0U A Y 93;19.0941
2B0U A L 92;2B0U A I 100;13.3885
2B0U A L 92;2B0U A I 101;9.70779
2B0U A L 92;2B0U A K 102;13.3827
2B0U A Y 93;2B0U A Y 94;24.8501
2B0U A Y 93;2B0U A D 95;9.91618
2B0U A Y 93;2B0U A N 99;2.4935
2B0U A Y 93;2B0U A I 100;4.11678
2B0U A Y 93;2B0U A I 101;40.4786
2B0U A Y 93;2B0U A K 103;27.3203
2B0U A Y 93;2B0U A I 105;7.14347
2B0U A Y 93;2B0U C I 51;7.61245
2B0U A Y 93;2B0U C F 52;16.8682
2B0U A Y 94;2B0U A D 95;20.7131
2B0U A Y 94;2B0U A Q 98;23.4793
2B0U A Y 94;2B0U A N 99;8.7084
2B0U A Y 94;2B0U A I 100;11.7196
2B0U A Y 94;2B0U C F 52;8.74142
2B0U A D 95;2B0U A D 96;22.6992
2B0U A D 95;2B0U A G 97;11.098
2B0U A D 95;2B0U A Q 98;14.0208
2B0U A D 95;2B0U A N 99;27.0599
2B0U A D 95;2B0U A I 101;23.5609
2B0U A D 95;2B0U C F 52;16.4547
2B0U A D 96;2B0U A G 97;22.5942
2B0U A D 96;2B0U A Q 98;12.3875
2B0U A D 96;2B0U C W 49;9.15764
2B0U A D 96;2B0U C F 52;21.3998
2B0U A D 96;2B0U C N 53;12.7702
2B0U A G 97;2B0U A Q 98;18.6893
2B0U A G 97;2B0U A N 99;14.4625
2B0U A Q 98;2B0U A N 99;19.9731
2B0U A Q 98;2B0U A I 100;0.597818
2B0U A N 99;2B0U A I 100;20.4841
2B0U A N 99;2B0U A I 101;11.2188
2B0U A I 100;2B0U A I 101;23.3038
2B0U A I 101;2B0U A K 102;17.9507
2B0U A I 101;2B0U A K 103;13.5233
2B0U A K 102;2B0U A K 103;28.2273
2B0U A K 102;2B0U A D 104;7.22204
2B0U A K 103;2B0U A D 104;35.5272
2B0U A K 103;2B0U A I 105;19.6634
2B0U A K 103;2B0U C I 51;12.4264
2B0U A K 103;2B0U C F 52;13.2003
2B0U A D 104;2B0U A I 105;24.1374
2B0U A D 104;2B0U A Q 106;21.9332
2B0U A I 105;2B0U A Q 106;29.978
2B0U A I 105;2B0U A N 107;0.110826
2B0U A I 105;2B0U A M 108;22.213
2B0U A I 105;2B0U B F 58;9.9108
2B0U A I 105;2B0U C I 51;34.6412
2B0U A Q 106;2B0U A N 107;40.2503
2B0U A Q 106;2B0U A M 108;4.14355
2B0U A Q 106;2B0U B F 58;8.65427
2B0U A N 107;2B0U A M 108;18.7038
2B0U A N 107;2B0U A I 109;1.23348
2B0U A N 107;2B0U B S 54;0.242196
2B0U A N 107;2B0U B S 55;34.2897
2B0U A N 107;2B0U B F 58;9.11433
2B0U A N 107;2B0U B H 59;8.61659
2B0U A M 108;2B0U A I 109;24.6799
2B0U A M 108;2B0U B F 58;27.3341
2B0U A M 108;2B0U B H 59;11.1508
2B0U A I 109;2B0U A V 110;23.6699
2B0U A I 109;2B0U A E 111;7.09351
2B0U A I 109;2B0U B H 59;0.355437
2B0U A V 110;2B0U A E 111;19.161
2B0U A V 110;2B0U A E 112;8.07151
2B0U A V 110;2B0U A C 113;5.65323
2B0U A V 110;2B0U B H 59;16.4253
2B0U A E 111;2B0U A E 112;25.7316
2B0U A E 112;2B0U A C 113;23.9469
2B0U A C 113;2B0U A G 114;20.5293
2B0U A G 114;2B0U A C 115;22.5072
2B0U A G 114;2B0U A S 116;1.44786
2B0U A C 115;2B0U A S 116;19.1283
2B0U A S 116;2B0U B V 82;16.0979
2B0U A S 116;2B0U B P 83;10.1304
2B0U B G 1;2B0U B L 2;31.9526
2B0U B G 1;2B0U B E 3;14.2232
2B0U B G 1;2B0U B S 52;11.7576
2B0U B G 1;2B0U B E 112;6.52346
2B0U B G 1;2B0U B C 113;4.49487
2B0U B G 1;2B0U C L 5;1.35737
2B0U B G 1;2B0U C R 6;6.62303
2B0U B G 1;2B0U C V 15;13.3058
2B0U B L 2;2B0U B E 3;32.5925
2B0U B L 2;2B0U B C 4;2.31478
2B0U B L 2;2B0U B D 5;2.8139
2B0U B L 2;2B0U B V 8;12.3898
2B0U B L 2;2B0U B I 10;19.916
2B0U B L 2;2B0U B C 11;11.5999
2B0U B L 2;2B0U B C 12;17.7942
2B0U B L 2;2B0U B K 13;12.2824
2B0U B L 2;2B0U B I 48;2.22469
2B0U B L 2;2B0U B C 113;0.590698
2B0U B L 2;2B0U C L 5;2.61451
2B0U B L 2;2B0U C V 15;17.8447
2B0U B L 2;2B0U C Y 17;18.6523
2B0U B E 3;2B0U B C 4;22.6608
2B0U B E 3;2B0U B D 5;10.5707
2B0U B E 3;2B0U B C 12;0.343449
2B0U B E 3;2B0U B K 13;31.5833
2B0U B C 4;2B0U B D 5;29.6913
2B0U B C 4;2B0U B G 6;3.49049
2B0U B C 4;2B0U B V 8;1.6956
2B0U B C 4;2B0U B C 12;28.1557
2B0U B C 4;2B0U B K 13;17.5023
2B0U B C 4;2B0U B K 14;18.3561
2B0U B D 5;2B0U B G 6;31.6644
2B0U B D 5;2B0U B V 8;20.1488
2B0U B G 6;2B0U B K 7;38.4806
2B0U B G 6;2B0U B V 8;8.33578
2B0U B K 7;2B0U B V 8;28.4093
2B0U B K 7;2B0U B N 9;28.9404
2B0U B V 8;2B0U B N 9;31.3152
2B0U B V 8;2B0U B I 10;25.0655
2B0U B V 8;2B0U B C 12;2.03861
2B0U B V 8;2B0U C Y 17;20.4059
2B0U B N 9;2B0U B I 10;28.875
2B0U B N 9;2B0U B C 12;2.93609
2B0U B N 9;2B0U B G 42;2.82992
2B0U B N 9;2B0U B E 43;7.74346
2B0U B I 10;2B0U B C 11;22.3446
2B0U B I 10;2B0U B C 12;15.9841
2B0U B I 10;2B0U B E 41;1.26715
2B0U B I 10;2B0U B G 42;8.99412
2B0U B I 10;2B0U B E 43;10.0582
2B0U B I 10;2B0U B P 45;0.171323
2B0U B I 10;2B0U B I 48;32.8351
2B0U B I 10;2B0U C L 16;3.23215
2B0U B I 10;2B0U C Y 17;18.1389
2B0U B C 11;2B0U B C 12;18.3233
2B0U B C 11;2B0U B E 41;0.467424
2B0U B C 11;2B0U B G 42;6.78036
2B0U B C 11;2B0U B E 43;12.3287
2B0U B C 11;2B0U B C 44;1.43928
2B0U B C 11;2B0U B I 48;5.88443
2B0U B C 11;2B0U B C 81;19.1282
2B0U B C 11;2B0U B V 82;0.0596335
2B0U B C 11;2B0U B C 113;8.91325
2B0U B C 11;2B0U B G 114;14.5537
2B0U B C 11;2B0U B C 115;11.8508
2B0U B C 12;2B0U B K 13;15.3709
2B0U B C 12;2B0U B K 14;12.5195
2B0U B C 12;2B0U B Y 39;0.574686
2B0U B C 12;2B0U B C 40;2.98469
2B0U B C 12;2B0U B E 41;18.8563
2B0U B C 12;2B0U B G 42;0.110322
2B0U B C 12;2B0U B C 81;3.00878
2B0U B C 12;2B0U B C 113;9.44488
2B0U B K 13;2B0U B K 14;24.1406
2B0U B K 13;2B0U B Q 15;2.42174
2B0U B K 13;2B0U B N 38;15.9774
2B0U B K 13;2B0U B Y 39;3.32414
2B0U B K 13;2B0U B C 40;0.020591
2B0U B K 13;2B0U B V 110;14.2773
2B0U B K 13;2B0U B E 111;31.091
2B0U B K 13;2B0U B E 112;3.30182
2B0U B K 13;2B0U B C 113;19.3552
2B0U B K 14;2B0U B Q 15;30.6992
2B0U B K 14;2B0U B N 38;9.77691
2B0U B K 14;2B0U B Y 39;46.7672
2B0U B K 14;2B0U B E 41;31.8719
2B0U B K 14;2B0U B G 42;0.28622
2B0U B Q 15;2B0U B F 16;29.4805
2B0U B Q 15;2B0U B H 36;11.7119
2B0U B Q 15;2B0U B N 38;14.4281
2B0U B Q 15;2B0U B Y 39;7.2424
2B0U B F 16;2B0U B F 17;37.6306
2B0U B F 16;2B0U B V 18;15.1707
2B0U B F 16;2B0U B Y 35;0.394637
2B0U B F 16;2B0U B H 36;9.20687
2B0U B F 16;2B0U B A 37;6.17007
2B0U B F 16;2B0U B N 38;23.3464
2B0U B F 16;2B0U B Y 39;15.3367
2B0U B F 17;2B0U B V 18;24.3229
2B0U B F 17;2B0U B S 19;16.4472
2B0U B F 17;2B0U B S 33;5.20471
2B0U B F 17;2B0U B G 34;15.5562
2B0U B F 17;2B0U B Y 35;15.4042
2B0U B F 17;2B0U B H 36;29.0879
2B0U B F 17;2B0U C E 126;5.62648
2B0U B V 18;2B0U B S 19;20.2809
2B0U B V 18;2B0U B F 20;11.1949
2B0U B V 18;2B0U B I 23;9.65758
2B0U B V 18;2B0U B G 34;7.18406
2B0U B V 18;2B0U B Y 35;26.6418
2B0U B V 18;2B0U B A 37;12.0251
2B0U B S 19;2B0U B F 20;17.5998
2B0U B S 19;2B0U B K 21;19.6663
2B0U B S 19;2B0U B D 22;25.3885
2B0U B S 19;2B0U B I 23;6.06953
2B0U B S 19;2B0U B S 33;4.09427
2B0U B S 19;2B0U B G 34;2.36648
2B0U B F 20;2B0U B K 21;19.3698
2B0U B F 20;2B0U B D 22;0.086978
2B0U B F 20;2B0U B I 23;12.6283
2B0U B F 20;2B0U B G 24;2.28134
2B0U B F 20;2B0U B W 25;28.5429
2B0U B F 20;2B0U B N 26;14.4438
2B0U B F 20;2B0U B I 29;24.1227
2B0U B F 20;2B0U B P 32;14.5743
2B0U B F 20;2B0U B S 33;19.7689
2B0U B F 20;2B0U B G 34;11.541
2B0U B F 20;2B0U B Y 35;16.9096
2B0U B F 20;2B0U B M 89;1.91394
2B0U B F 20;2B0U B M 91;8.11959
2B0U B F 20;2B0U B M 108;4.12909
2B0U B K 21;2B0U B D 22;29.7558
2B0U B K 21;2B0U B I 23;2.27063
2B0U B K 21;2B0U B G 24;10.9341
2B0U B K 21;2B0U B N 26;25.4046
2B0U B K 21;2B0U B S 33;1.5896
2B0U B D 22;2B0U B I 23;20.5958
2B0U B D 22;2B0U B G 24;2.43229
2B0U B I 23;2B0U B G 24;21.1882
2B0U B I 23;2B0U B W 25;30.5298
2B0U B G 24;2B0U B W 25;24.9806
2B0U B G 24;2B0U B N 26;10.533
2B0U B G 24;2B0U B D 27;8.80002
2B0U B G 24;2B0U B W 28;3.08241
2B0U B W 25;2B0U B N 26;16.5565
2B0U B W 25;2B0U B D 27;6.51786
2B0U B W 25;2B0U B W 28;31.2378
2B0U B W 25;2B0U B I 29;25.2782
2B0U B N 26;2B0U B D 27;35.4163
2B0U B N 26;2B0U B W 28;0.0385792
2B0U B N 26;2B0U B I 29;16.821
2B0U B N 26;2B0U B I 30;0.361877
2B0U B N 26;2B0U C N 164;0.62081
2B0U B D 27;2B0U B W 28;30.4476
2B0U B D 27;2B0U B I 29;2.24327
2B0U B D 27;2B0U B I 30;2.19267
2B0U B D 27;2B0U B Y 94;7.26732
2B0U B D 27;2B0U C C 189;3.42969
2B0U B D 27;2B0U C R 192;30.3907
2B0U B W 28;2B0U B I 29;35.1643
2B0U B W 28;2B0U B I 30;3.20007
2B0U B W 28;2B0U B M 91;7.40697
2B0U B W 28;2B0U B Y 93;19.5315
2B0U B W 28;2B0U B Y 94;26.2626
2B0U B W 28;2B0U C R 192;14.8425
2B0U B I 29;2B0U B I 30;27.3237
2B0U B I 29;2B0U B A 31;8.56165
2B0U B I 29;2B0U B P 32;10.3157
2B0U B I 29;2B0U B M 91;21.8534
2B0U B I 29;2B0U B L 92;3.18827
2B0U B I 29;2B0U B Y 93;6.7224
2B0U B I 30;2B0U B A 31;25.8796
2B0U B I 30;2B0U B P 32;3.97822
2B0U B I 30;2B0U B S 33;0.677769
2B0U B I 30;2B0U B L 92;23.5403
2B0U B I 30;2B0U B Y 93;9.50032
2B0U B I 30;2B0U B Y 94;30.3572
2B0U B I 30;2B0U B I 100;7.76219
2B0U B I 30;2B0U C V 151;4.21717
2B0U B I 30;2B0U C V 161;28.4934
2B0U B I 30;2B0U C T 162;2.29908
2B0U B I 30;2B0U C C 196;5.72812
2B0U B A 31;2B0U B P 32;34.5791
2B0U B A 31;2B0U B M 91;5.44175
2B0U B A 31;2B0U B L 92;27.8759
2B0U B A 31;2B0U C L 105;17.2819
2B0U B A 31;2B0U C Y 159;0.0316861
2B0U B A 31;2B0U C C 160;0.349375
2B0U B A 31;2B0U C V 161;8.57822
2B0U B P 32;2B0U B S 33;30.1135
2B0U B P 32;2B0U B G 34;15.0132
2B0U B P 32;2B0U B Y 35;0.733654
2B0U B P 32;2B0U B M 89;17.7601
2B0U B P 32;2B0U B S 90;6.25726
2B0U B P 32;2B0U B M 91;7.73759
2B0U B P 32;2B0U C L 105;18.826
2B0U B P 32;2B0U C E 126;8.33337
2B0U B S 33;2B0U B G 34;23.3544
2B0U B G 34;2B0U B Y 35;19.6063
2B0U B G 34;2B0U B M 89;0.064815
2B0U B G 34;2B0U C E 126;7.00695
2B0U B Y 35;2B0U B H 36;18.7075
2B0U B Y 35;2B0U B A 37;20.6282
2B0U B Y 35;2B0U B M 89;17.911
2B0U B Y 35;2B0U B M 108;26.3188
2B0U B Y 35;2B0U B I 109;10.8897
2B0U B Y 35;2B0U C E 126;12.0194
2B0U B H 36;2B0U B A 37;14.4527
2B0U B H 36;2B0U B N 38;17.0594
2B0U B H 36;2B0U B I 109;15.6405
2B0U B H 36;2B0U C P 125;29.0067
2B0U B H 36;2B0U C E 126;20.5465
2B0U B A 37;2B0U B N 38;27.0952
2B0U B A 37;2B0U B M 108;4.37362
2B0U B A 37;2B0U B I 109;8.00178
2B0U B A 37;2B0U B V 110;10.007
2B0U B N 38;2B0U B Y 39;21.0405
2B0U B N 38;2B0U B I 109;7.09355
2B0U B N 38;2B0U B V 110;17.9512
2B0U B Y 39;2B0U B C 40;29.776
2B0U B Y 39;2B0U B E 41;18.0271
2B0U B Y 39;2B0U B P 83;0.0282834
2B0U B Y 39;2B0U B V 110;7.62027
2B0U B Y 39;2B0U B C 113;2.08909
2B0U B C 40;2B0U B E 41;20.9967
2B0U B C 40;2B0U B C 81;18.8351
2B0U B C 40;2B0U B V 82;8.36556
2B0U B C 40;2B0U B P 83;17.2802
2B0U B C 40;2B0U B V 110;7.33599
2B0U B C 40;2B0U B E 112;0.0892513
2B0U B C 40;2B0U B C 113;19.9537
2B0U B E 41;2B0U B G 42;28.8229
2B0U B E 41;2B0U B C 81;10.9738
2B0U B G 42;2B0U B E 43;28.7495
2B0U B G 42;2B0U B C 44;0.442767
2B0U B G 42;2B0U B C 81;14.4838
2B0U B E 43;2B0U B C 44;25.685
2B0U B E 43;2B0U B P 45;15.6546
2B0U B E 43;2B0U B I 48;1.74337
2B0U B E 43;2B0U B C 81;0.142533
2B0U B E 43;2B0U B C 115;2.54833
2B0U B C 44;2B0U B P 45;36.0044
2B0U B C 44;2B0U B I 48;0.13306
2B0U B C 44;2B0U B A 49;0.0662701
2B0U B C 44;2B0U B S 79;28.3243
2B0U B C 44;2B0U B C 80;4.96282
2B0U B C 44;2B0U B C 81;10.798
2B0U B C 44;2B0U B C 115;24.4922
2B0U B C 44;2B0U B S 116;0.263054
2B0U B P 45;2B0U B S 46;29.3423
2B0U B P 45;2B0U B H 47;21.5725
2B0U B P 45;2B0U B I 48;29.7559
2B0U B P 45;2B0U B A 49;12.496
2B0U B P 45;2B0U B N 64;0.238146
2B0U B P 45;2B0U B S 79;0.470648
2B0U B P 45;2B0U B C 115;0.900796
2B0U B S 46;2B0U B H 47;28.1959
2B0U B S 46;2B0U B I 48;1.46868
2B0U B S 46;2B0U B A 49;7.69291
2B0U B S 46;2B0U B G 50;6.99255
2B0U B S 46;2B0U B T 61;0.50249
2B0U B S 46;2B0U B N 64;22.7083
2B0U B S 46;2B0U B M 68;15.2943
2B0U B H 47;2B0U B I 48;35.3444
2B0U B H 47;2B0U B A 49;0.339455
2B0U B H 47;2B0U B G 50;1.70252
2B0U B H 47;2B0U B T 51;13.3048
2B0U B H 47;2B0U C L 16;32.1511
2B0U B H 47;2B0U C Y 17;12.3886
2B0U B H 47;2B0U C T 19;5.33692
2B0U B H 47;2B0U C D 43;6.83952
2B0U B H 47;2B0U C L 46;1.58191
2B0U B I 48;2B0U B A 49;22.2253
2B0U B I 48;2B0U B G 50;0.843942
2B0U B I 48;2B0U B T 51;8.62941
2B0U B I 48;2B0U B S 52;22.5204
2B0U B I 48;2B0U B C 115;7.95136
2B0U B I 48;2B0U C V 15;4.96366
2B0U B I 48;2B0U C L 16;13.0042
2B0U B I 48;2B0U C Y 17;0.0575679
2B0U B A 49;2B0U B G 50;21.0308
2B0U B A 49;2B0U B T 51;1.27996
2B0U B A 49;2B0U B S 52;12.7895
2B0U B A 49;2B0U B S 54;0.098382
2B0U B A 49;2B0U B S 57;15.3974
2B0U B A 49;2B0U B S 60;16.2047
2B0U B A 49;2B0U B T 61;4.03714
2B0U B A 49;2B0U B N 64;0.581666
2B0U B A 49;2B0U B S 79;1.57673
2B0U B A 49;2B0U B C 115;20.4008
2B0U B G 50;2B0U B T 51;20.0251
2B0U B G 50;2B0U B S 52;1.26644
2B0U B G 50;2B0U B G 53;2.69045
2B0U B G 50;2B0U B S 57;16.2403
2B0U B G 50;2B0U B T 61;13.0092
2B0U B G 50;2B0U C F 47;13.2133
2B0U B G 50;2B0U C M 50;17.7588
2B0U B T 51;2B0U B S 52;18.5396
2B0U B T 51;2B0U B G 53;7.41994
2B0U B T 51;2B0U C W 4;12.0201
2B0U B T 51;2B0U C Q 14;6.44047
2B0U B T 51;2B0U C V 15;15.2268
2B0U B T 51;2B0U C L 16;18.0084
2B0U B T 51;2B0U C L 46;8.80092
2B0U B T 51;2B0U C M 50;22.7672
2B0U B S 52;2B0U B G 53;19.4331
2B0U B S 52;2B0U B S 54;16.9279
2B0U B S 52;2B0U B S 57;4.13055
2B0U B S 52;2B0U B C 113;4.879
2B0U B S 52;2B0U B G 114;8.16869
2B0U B S 52;2B0U B C 115;4.71056
2B0U B S 52;2B0U C Q 14;2.10242
2B0U B S 52;2B0U C V 15;18.4888
2B0U B G 53;2B0U B S 54;29.8243
2B0U B G 53;2B0U B S 57;9.21443
2B0U B G 53;2B0U C Q 14;15.9872
2B0U B G 53;2B0U C M 50;2.53474
2B0U B S 54;2B0U B S 55;27.1082
2B0U B S 54;2B0U B L 56;12.4189
2B0U B S 54;2B0U B S 57;23.0338
2B0U B S 54;2B0U B F 58;0.609136
2B0U B S 54;2B0U B T 84;15.2539
2B0U B S 54;2B0U B C 113;5.43888
2B0U B S 54;2B0U B G 114;6.34799
2B0U B S 54;2B0U B C 115;2.13793
2B0U B S 55;2B0U B L 56;25.5945
2B0U B S 55;2B0U B S 57;1.23165
2B0U B S 55;2B0U B F 58;2.06055
2B0U B S 55;2B0U B H 59;0.940831
2B0U B S 55;2B0U B T 84;21.2788
2B0U B L 56;2B0U B S 57;18.5951
2B0U B L 56;2B0U B F 58;2.6999
2B0U B L 56;2B0U B H 59;12.8212
2B0U B L 56;2B0U B S 60;14.8255
2B0U B L 56;2B0U B V 82;8.6498
2B0U B L 56;2B0U B P 83;1.30837
2B0U B L 56;2B0U B T 84;16.5242
2B0U B L 56;2B0U B G 114;2.95323
2B0U B L 56;2B0U B C 115;11.9879
2B0U B L 56;2B0U B S 116;16.44
2B0U B S 57;2B0U B F 58;24.4339
2B0U B S 57;2B0U B H 59;0.172279
2B0U B S 57;2B0U B S 60;6.68472
2B0U B S 57;2B0U B T 61;10.7834
2B0U B S 57;2B0U B C 115;0.780707
2B0U B S 57;2B0U C F 47;2.01638
2B0U B F 58;2B0U B H 59;22.7807
2B0U B F 58;2B0U B S 60;1.01795
2B0U B F 58;2B0U B T 61;7.99289
2B0U B F 58;2B0U B V 62;19.5607
2B0U B F 58;2B0U C F 47;22.2317
2B0U B F 58;2B0U C I 51;18.0658
2B0U B H 59;2B0U B S 60;21.4049
2B0U B H 59;2B0U B T 61;1.43213
2B0U B H 59;2B0U B V 62;12.8624
2B0U B H 59;2B0U B I 63;26.4065
2B0U B H 59;2B0U B S 116;0.28527
2B0U B S 60;2B0U B T 61;17.8973
2B0U B S 60;2B0U B V 62;0.345868
2B0U B S 60;2B0U B I 63;10.9153
2B0U B S 60;2B0U B N 64;13.6535
2B0U B S 60;2B0U B R 67;3.22537
2B0U B S 60;2B0U B S 79;7.52369
2B0U B S 60;2B0U B C 115;7.90622
2B0U B S 60;2B0U B S 116;18.9219
2B0U B T 61;2B0U B V 62;18.2947
2B0U B T 61;2B0U B I 63;0.964393
2B0U B T 61;2B0U B N 64;12.8391
2B0U B T 61;2B0U B H 65;25.4171
2B0U B T 61;2B0U C F 47;25.5628
2B0U B V 62;2B0U B I 63;22.4283
2B0U B V 62;2B0U B N 64;0.914072
2B0U B V 62;2B0U B H 65;12.0218
2B0U B V 62;2B0U B Y 66;14.4268
2B0U B V 62;2B0U C F 47;1.08385
2B0U B I 63;2B0U B N 64;17.1216
2B0U B I 63;2B0U B H 65;0.989119
2B0U B I 63;2B0U B Y 66;13.9687
2B0U B I 63;2B0U B R 67;21.7174
2B0U B I 63;2B0U B F 74;24.1672
2B0U B I 63;2B0U B L 77;6.28339
2B0U B I 63;2B0U B S 116;4.75754
2B0U B N 64;2B0U B H 65;18.6019
2B0U B N 64;2B0U B Y 66;0.981447
2B0U B N 64;2B0U B R 67;33.0521
2B0U B N 64;2B0U B M 68;25.9908
2B0U B N 64;2B0U B S 79;2.9249
2B0U B H 65;2B0U B Y 66;20.4904
2B0U B H 65;2B0U B R 67;0.564856
2B0U B H 65;2B0U B M 68;12.694
2B0U B H 65;2B0U B R 69;40.2699
2B0U B H 65;2B0U C N 44;18.011
2B0U B H 65;2B0U C F 47;1.83596
2B0U B Y 66;2B0U B R 67;16.3685
2B0U B Y 66;2B0U B M 68;1.25088
2B0U B Y 66;2B0U B R 69;10.4064
2B0U B Y 66;2B0U B G 70;2.75553
2B0U B Y 66;2B0U B H 71;35.8915
2B0U B Y 66;2B0U B F 74;16.4352
2B0U B R 67;2B0U B M 68;32.53
2B0U B R 67;2B0U B R 69;0.471407
2B0U B R 67;2B0U B G 70;11.2476
2B0U B R 67;2B0U B H 71;1.70799
2B0U B R 67;2B0U B F 74;23.0309
2B0U B R 67;2B0U B A 75;12.4465
2B0U B R 67;2B0U B L 77;27.411
2B0U B R 67;2B0U B K 78;3.87042
2B0U B R 67;2B0U B S 79;22.5313
2B0U B R 67;2B0U B S 116;5.48189
2B0U B M 68;2B0U B R 69;27.7733
2B0U B M 68;2B0U B G 70;7.69431
2B0U B R 69;2B0U B G 70;22.3299
2B0U B R 69;2B0U B H 71;24.2683
2B0U B G 70;2B0U B H 71;21.1367
2B0U B G 70;2B0U B S 72;7.36946
2B0U B G 70;2B0U B A 75;13.7765
2B0U B H 71;2B0U B S 72;16.1995
2B0U B H 71;2B0U B P 73;12.8728
2B0U B H 71;2B0U B F 74;17.5109
2B0U B H 71;2B0U B A 75;8.92797
2B0U B S 72;2B0U B P 73;35.3066
2B0U B S 72;2B0U B F 74;0.571787
2B0U B S 72;2B0U B A 75;16.9466
2B0U B S 72;2B0U B N 76;8.04465
2B0U B P 73;2B0U B F 74;32.2857
2B0U B P 73;2B0U B A 75;0.637618
2B0U B P 73;2B0U B N 76;8.12022
2B0U B P 73;2B0U B L 77;9.69316
2B0U B F 74;2B0U B A 75;17.5459
2B0U B F 74;2B0U B N 76;1.90118
2B0U B F 74;2B0U B L 77;27.09
2B0U B A 75;2B0U B N 76;25.43
2B0U B A 75;2B0U B L 77;4.91018
2B0U B N 76;2B0U B L 77;28.1299
2B0U B N 76;2B0U B K 78;5.19145
2B0U B L 77;2B0U B K 78;32.0655
2B0U B L 77;2B0U B S 79;0.56133
2B0U B L 77;2B0U B S 116;1.20273
2B0U B K 78;2B0U B S 79;35.6438
2B0U B K 78;2B0U B C 80;12.4585
2B0U B S 79;2B0U B C 80;24.0943
2B0U B S 79;2B0U B C 115;3.50271
2B0U B S 79;2B0U B S 116;20.1696
2B0U B C 80;2B0U B C 81;22.8097
2B0U B C 80;2B0U B V 82;11.1974
2B0U B C 80;2B0U B G 114;0.898632
2B0U B C 80;2B0U B C 115;3.44896
2B0U B C 80;2B0U B S 116;17.2152
2B0U B C 81;2B0U B V 82;23.4526
2B0U B C 81;2B0U B C 113;2.60719
2B0U B C 81;2B0U B G 114;4.07063
2B0U B C 81;2B0U B C 115;1.02053
2B0U B V 82;2B0U B P 83;30.8999
2B0U B V 82;2B0U B T 84;6.60929
2B0U B V 82;2B0U B C 113;3.88975
2B0U B V 82;2B0U B G 114;13.9478
2B0U B V 82;2B0U B S 116;8.49696
2B0U B P 83;2B0U B T 84;22.8159
2B0U B P 83;2B0U B K 85;1.07718
2B0U B P 83;2B0U B L 86;16.5619
2B0U B P 83;2B0U B V 110;15.8965
2B0U B P 83;2B0U B E 112;3.71466
2B0U B P 83;2B0U B C 113;1.97805
2B0U B T 84;2B0U B K 85;28.9145
2B0U B T 84;2B0U B L 86;4.43979
2B0U B T 84;2B0U B E 112;16.2054
2B0U B T 84;2B0U B C 113;8.06474
2B0U B T 84;2B0U B G 114;9.79234
2B0U B K 85;2B0U B L 86;29.1458
2B0U B K 85;2B0U B V 110;0.497042
2B0U B K 85;2B0U B E 111;19.68
2B0U B K 85;2B0U B E 112;26.5211
2B0U B L 86;2B0U B R 87;21.6379
2B0U B L 86;2B0U B P 88;4.02436
2B0U B L 86;2B0U B N 107;34.4415
2B0U B L 86;2B0U B M 108;1.1517
2B0U B L 86;2B0U B I 109;10.4277
2B0U B L 86;2B0U B V 110;13.7322
2B0U B L 86;2B0U B E 111;5.49971
2B0U B R 87;2B0U B P 88;41.0364
2B0U B R 87;2B0U B M 89;0.0861429
2B0U B R 87;2B0U B N 107;5.91317
2B0U B R 87;2B0U B M 108;4.38747
2B0U B R 87;2B0U B I 109;45.6631
2B0U B R 87;2B0U B E 111;37.1789
2B0U B R 87;2B0U C E 123;19.2122
2B0U B R 87;2B0U C Q 124;0.861398
2B0U B R 87;2B0U C P 125;21.7394
2B0U B P 88;2B0U B M 89;27.9509
2B0U B P 88;2B0U B D 104;11.2595
2B0U B P 88;2B0U B I 105;7.06118
2B0U B P 88;2B0U B Q 106;25.607
2B0U B P 88;2B0U B N 107;7.55769
2B0U B P 88;2B0U B M 108;2.09479
2B0U B P 88;2B0U B I 109;3.60273
2B0U B M 89;2B0U B S 90;37.6054
2B0U B M 89;2B0U B M 91;7.42376
2B0U B M 89;2B0U B K 103;0.65502
2B0U B M 89;2B0U B D 104;6.38424
2B0U B M 89;2B0U B I 105;15.2078
2B0U B M 89;2B0U B M 108;25.8606
2B0U B M 89;2B0U B I 109;15.9596
2B0U B M 89;2B0U C E 126;16.4602
2B0U B S 90;2B0U B M 91;25.4093
2B0U B S 90;2B0U B K 102;19.3525
2B0U B S 90;2B0U B K 103;4.16164
2B0U B S 90;2B0U B D 104;16.2107
2B0U B S 90;2B0U C L 105;0.818922
2B0U B S 90;2B0U C D 106;6.17492
2B0U B M 91;2B0U B L 92;21.421
2B0U B M 91;2B0U B Y 93;20.419
2B0U B M 91;2B0U B I 101;0.942688
2B0U B M 91;2B0U B K 102;11.941
2B0U B M 91;2B0U B K 103;15.01
2B0U B M 91;2B0U B I 105;21.5264
2B0U B M 91;2B0U B M 108;14.8825
2B0U B L 92;2B0U B Y 93;19.6377
2B0U B L 92;2B0U B I 100;14.7281
2B0U B L 92;2B0U B I 101;10.745
2B0U B L 92;2B0U B K 102;12.4158
2B0U B L 92;2B0U C L 105;0.782864
2B0U B L 92;2B0U C V 151;4.88905
2B0U B L 92;2B0U C V 152;0.012661
2B0U B L 92;2B0U C D 153;5.9865
2B0U B L 92;2B0U C Y 159;27.9156
2B0U B L 92;2B0U C V 161;6.3717
2B0U B Y 93;2B0U B Y 94;23.6763
2B0U B Y 93;2B0U B D 95;7.548
2B0U B Y 93;2B0U B N 99;1.58713
2B0U B Y 93;2B0U B I 100;5.32358
2B0U B Y 93;2B0U B I 101;41.8804
2B0U B Y 93;2B0U B K 102;0.159124
2B0U B Y 93;2B0U B K 103;22.6862
2B0U B Y 93;2B0U B I 105;5.91752
2B0U B Y 94;2B0U B D 95;22.6163
2B0U B Y 94;2B0U B Q 98;20.6654
2B0U B Y 94;2B0U B N 99;6.16329
2B0U B Y 94;2B0U B I 100;14.655
2B0U B Y 94;2B0U C R 192;37.3683
2B0U B Y 94;2B0U C T 195;9.79082
2B0U B Y 94;2B0U C C 196;14.9892
2B0U B D 95;2B0U B D 96;24.7972
2B0U B D 95;2B0U B G 97;7.54658
2B0U B D 95;2B0U B Q 98;15.726
2B0U B D 95;2B0U B N 99;26.7107
2B0U B D 95;2B0U B I 101;25.2981
2B0U B D 95;2B0U C R 192;2.78899
2B0U B D 96;2B0U B G 97;22.8905
2B0U B D 96;2B0U B Q 98;11.2145
2B0U B D 96;2B0U C L 204;9.72169
2B0U B D 96;2B0U C K 225;9.11209
2B0U B D 96;2B0U C L 240;4.95688
2B0U B G 97;2B0U B Q 98;21.3565
2B0U B G 97;2B0U B N 99;14.958
2B0U B G 97;2B0U C L 191;0.866068
2B0U B G 97;2B0U C G 203;7.21689
2B0U B G 97;2B0U C L 204;21.6107
2B0U B Q 98;2B0U B N 99;19.4913
2B0U B Q 98;2B0U B I 100;0.892068
2B0U B Q 98;2B0U C L 177;3.5492
2B0U B Q 98;2B0U C A 188;14.8308
2B0U B Q 98;2B0U C L 191;19.572
2B0U B Q 98;2B0U C R 192;28.8382
2B0U B Q 98;2B0U C T 195;12.4778
2B0U B Q 98;2B0U C S 201;0.529486
2B0U B Q 98;2B0U C I 202;0.859427
2B0U B Q 98;2B0U C G 203;4.19801
2B0U B Q 98;2B0U C L 204;4.07562
2B0U B N 99;2B0U B I 100;19.8131
2B0U B N 99;2B0U B I 101;12.4528
2B0U B N 99;2B0U C T 195;0.116122
2B0U B N 99;2B0U C S 201;22.3536
2B0U B N 99;2B0U C I 202;1.15641
2B0U B N 99;2B0U C G 203;14.8962
2B0U B I 100;2B0U B I 101;21.2153
2B0U B I 100;2B0U C V 151;22.422
2B0U B I 100;2B0U C V 152;12.7579
2B0U B I 100;2B0U C D 153;11.207
2B0U B I 100;2B0U C Q 154;9.52115
2B0U B I 100;2B0U C Y 159;0.122263
2B0U B I 100;2B0U C T 195;15.3622
2B0U B I 100;2B0U C C 196;3.33924
2B0U B I 100;2B0U C G 199;3.04708
2B0U B I 100;2B0U C R 200;6.82998
2B0U B I 100;2B0U C S 201;19.8798
2B0U B I 101;2B0U B K 102;19.4213
2B0U B I 101;2B0U B K 103;7.26183
2B0U B I 101;2B0U C D 153;2.46443
2B0U B I 101;2B0U C Q 154;23.0454
2B0U B K 102;2B0U B K 103;30.2005
2B0U B K 102;2B0U B D 104;11.9095
2B0U B K 102;2B0U C D 106;2.81568
2B0U B K 102;2B0U C D 153;14.0702
2B0U B K 102;2B0U C Q 154;21.7377
2B0U B K 102;2B0U C T 155;1.69529
2B0U B K 102;2B0U C N 157;5.75134
2B0U B K 102;2B0U C Y 159;20.7515
2B0U B K 103;2B0U B D 104;36.3849
2B0U B K 103;2B0U B I 105;16.8101
2B0U B K 103;2B0U C Q 154;0.587048
2B0U B D 104;2B0U B I 105;20.4005
2B0U B D 104;2B0U B Q 106;14.8313
2B0U B I 105;2B0U B Q 106;28.9716
2B0U B I 105;2B0U B N 107;0.00157593
2B0U B I 105;2B0U B M 108;22.9142
2B0U B Q 106;2B0U B N 107;45.2333
2B0U B Q 106;2B0U B M 108;4.82866
2B0U B N 107;2B0U B M 108;19.1012
2B0U B N 107;2B0U B I 109;1.67351
2B0U B M 108;2B0U B I 109;24.1148
2B0U B M 108;2B0U B V 110;0.0431244
2B0U B I 109;2B0U B V 110;23.8217
2B0U B I 109;2B0U B E 111;9.68091
2B0U B I 109;2B0U C P 125;5.45822
2B0U B I 109;2B0U C E 126;7.43548
2B0U B V 110;2B0U B E 111;20.7924
2B0U B V 110;2B0U B E 112;5.96042
2B0U B V 110;2B0U B C 113;5.03829
2B0U B E 111;2B0U B E 112;26.0816
2B0U B E 112;2B0U B C 113;26.3381
2B0U B C 113;2B0U B G 114;19.1237
2B0U B G 114;2B0U B C 115;22.4844
2B0U B G 114;2B0U B S 116;0.235091
2B0U B C 115;2B0U B S 116;19.1656
2B0U C G 1;2B0U C N 2;27.4147
2B0U C G 1;2B0U C K 18;0.131052
2B0U C G 1;2B0U C T 19;7.49305
2B0U C G 1;2B0U C E 20;17.4483
2B0U C G 1;2B0U C L 21;21.7405
2B0U C G 1;2B0U C W 36;5.97519
2B0U C G 1;2B0U C T 37;2.14042
2B0U C G 1;2B0U C E 38;7.81124
2B0U C G 1;2B0U C E 39;1.2594
2B0U C G 1;2B0U C D 40;24.1594
2B0U C N 2;2B0U C C 3;19.0634
2B0U C N 2;2B0U C W 4;15.3835
2B0U C N 2;2B0U C L 16;13.6705
2B0U C N 2;2B0U C K 18;7.07955
2B0U C N 2;2B0U C T 19;6.85793
2B0U C N 2;2B0U C L 21;4.02885
2B0U C N 2;2B0U C W 36;9.62345
2B0U C N 2;2B0U C T 37;27.693
2B0U C N 2;2B0U C E 38;0.0300305
2B0U C N 2;2B0U C E 39;9.8701
2B0U C N 2;2B0U C D 40;10.9163
2B0U C N 2;2B0U C V 41;5.555
2B0U C N 2;2B0U C L 46;14.3677
2B0U C N 2;2B0U C W 49;1.35957
2B0U C C 3;2B0U C W 4;26.1234
2B0U C C 3;2B0U C L 16;8.8484
2B0U C C 3;2B0U C Y 17;17.909
2B0U C C 3;2B0U C K 18;15.2398
2B0U C C 3;2B0U C L 21;13.7997
2B0U C C 3;2B0U C C 26;22.5038
2B0U C C 3;2B0U C T 34;9.41588
2B0U C C 3;2B0U C S 35;2.48979
2B0U C C 3;2B0U C W 36;6.18829
2B0U C C 3;2B0U C T 37;0.0155036
2B0U C W 4;2B0U C L 5;18.1699
2B0U C W 4;2B0U C R 6;4.11059
2B0U C W 4;2B0U C C 13;26.3434
2B0U C W 4;2B0U C Q 14;14.3368
2B0U C W 4;2B0U C V 15;4.0512
2B0U C W 4;2B0U C L 16;23.5908
2B0U C W 4;2B0U C Y 17;9.00672
2B0U C W 4;2B0U C T 34;10.9123
2B0U C W 4;2B0U C S 35;21.1333
2B0U C W 4;2B0U C W 36;1.98544
2B0U C W 4;2B0U C T 37;17.4466
2B0U C W 4;2B0U C L 46;17.0797
2B0U C W 4;2B0U C W 49;0.898292
2B0U C W 4;2B0U C M 50;5.87833
2B0U C W 4;2B0U C A 56;15.011
2B0U C L 5;2B0U C R 6;26.2687
2B0U C L 5;2B0U C Q 14;2.78129
2B0U C L 5;2B0U C V 15;21.2664
2B0U C L 5;2B0U C Y 17;23.3433
2B0U C L 5;2B0U C S 33;8.4382
2B0U C L 5;2B0U C T 34;13.4705
2B0U C L 5;2B0U C S 35;1.24577
2B0U C R 6;2B0U C Q 7;27.3944
2B0U C R 6;2B0U C A 8;2.52227
2B0U C R 6;2B0U C R 12;2.65927
2B0U C R 6;2B0U C C 13;5.07027
2B0U C R 6;2B0U C Q 14;17.2212
2B0U C R 6;2B0U C V 15;11.7317
2B0U C R 6;2B0U C S 33;14.6483
2B0U C R 6;2B0U C S 35;4.52265
2B0U C R 6;2B0U C C 59;1.1312
2B0U C Q 7;2B0U C A 8;30.5677
2B0U C Q 7;2B0U C K 9;0.397749
2B0U C Q 7;2B0U C G 11;15.7707
2B0U C Q 7;2B0U C R 12;6.21377
2B0U C Q 7;2B0U C S 33;11.8643
2B0U C Q 7;2B0U C S 35;11.2659
2B0U C Q 7;2B0U C C 59;16.4606
2B0U C Q 7;2B0U C I 60;0.00361167
2B0U C Q 7;2B0U C P 61;19.6209
2B0U C Q 7;2B0U C K 84;19.8037
2B0U C A 8;2B0U C K 9;30.2524
2B0U C A 8;2B0U C N 10;13.2655
2B0U C A 8;2B0U C G 11;8.70661
2B0U C A 8;2B0U C R 12;16.112
2B0U C A 8;2B0U C Q 14;24.7118
2B0U C A 8;2B0U C G 54;2.52294
2B0U C A 8;2B0U C G 55;0.0505041
2B0U C K 9;2B0U C N 10;25.7045
2B0U C K 9;2B0U C G 11;4.77418
2B0U C N 10;2B0U C G 11;15.5282
2B0U C N 10;2B0U C R 12;23.0199
2B0U C N 10;2B0U C Q 14;0.00899546
2B0U C N 10;2B0U C N 53;4.0669
2B0U C N 10;2B0U C G 54;17.6596
2B0U C G 11;2B0U C R 12;20.357
2B0U C G 11;2B0U C C 59;14.0312
2B0U C G 11;2B0U C K 84;0.967937
2B0U C R 12;2B0U C C 13;15.4312
2B0U C R 12;2B0U C Q 14;5.49797
2B0U C R 12;2B0U C N 53;31.247
2B0U C R 12;2B0U C G 54;2.87726
2B0U C R 12;2B0U C G 55;8.89078
2B0U C R 12;2B0U C A 56;13.4289
2B0U C R 12;2B0U C P 57;12.7552
2B0U C R 12;2B0U C N 58;0.298488
2B0U C R 12;2B0U C C 59;8.2431
2B0U C C 13;2B0U C Q 14;18.7393
2B0U C C 13;2B0U C S 35;8.5595
2B0U C C 13;2B0U C W 36;5.20533
2B0U C C 13;2B0U C T 37;7.86054
2B0U C C 13;2B0U C M 50;1.26385
2B0U C C 13;2B0U C G 55;2.77531
2B0U C C 13;2B0U C A 56;24.5901
2B0U C C 13;2B0U C C 59;22.0515
2B0U C C 13;2B0U C I 60;0.662969
2B0U C Q 14;2B0U C V 15;34.1987
2B0U C Q 14;2B0U C M 50;6.71662
2B0U C Q 14;2B0U C G 54;7.25963
2B0U C Q 14;2B0U C G 55;11.4126
2B0U C V 15;2B0U C L 16;21.5329
2B0U C V 15;2B0U C Y 17;10.9149
2B0U C L 16;2B0U C Y 17;26.963
2B0U C L 16;2B0U C K 18;11.8704
2B0U C L 16;2B0U C T 19;7.70441
2B0U C L 16;2B0U C D 43;0.588918
2B0U C L 16;2B0U C L 46;15.3613
2B0U C Y 17;2B0U C K 18;32.301
2B0U C Y 17;2B0U C T 19;0.292549
2B0U C Y 17;2B0U C T 34;4.68244
2B0U C K 18;2B0U C T 19;33.9333
2B0U C K 18;2B0U C L 21;17.0772
2B0U C T 19;2B0U C E 20;46.3165
2B0U C T 19;2B0U C L 21;11.3867
2B0U C T 19;2B0U C D 40;1.32709
2B0U C E 20;2B0U C L 21;21.8648
2B0U C E 20;2B0U C E 25;0.458589
2B0U C E 20;2B0U C D 40;5.01215
2B0U C L 21;2B0U C S 22;30.6699
2B0U C L 21;2B0U C E 25;29.0497
2B0U C L 21;2B0U C C 26;13.3627
2B0U C L 21;2B0U C W 36;15.2674
2B0U C S 22;2B0U C K 23;23.5872
2B0U C S 22;2B0U C E 24;8.35124
2B0U C S 22;2B0U C E 25;28.2358
2B0U C S 22;2B0U C C 26;4.45693
2B0U C S 22;2B0U C W 36;8.24022
2B0U C K 23;2B0U C E 24;23.5582
2B0U C K 23;2B0U C E 25;0.825045
2B0U C K 23;2B0U C C 26;7.82243
2B0U C K 23;2B0U C C 27;27.0634
2B0U C K 23;2B0U C W 36;40.7778
2B0U C K 23;2B0U C I 60;27.0936
2B0U C K 23;2B0U C P 61;2.00257
2B0U C K 23;2B0U C C 62;0.600407
2B0U C E 24;2B0U C E 25;23.4295
2B0U C E 24;2B0U C C 26;1.60437
2B0U C E 24;2B0U C C 27;14.2939
2B0U C E 24;2B0U C S 28;12.4766
2B0U C E 25;2B0U C C 26;19.846
2B0U C E 25;2B0U C C 27;0.00897179
2B0U C E 25;2B0U C S 28;18.0367
2B0U C E 25;2B0U C T 29;1.40925
2B0U C C 26;2B0U C C 27;17.0533
2B0U C C 26;2B0U C S 28;4.68757
2B0U C C 26;2B0U C T 29;14.631
2B0U C C 26;2B0U C T 34;9.66298
2B0U C C 26;2B0U C S 35;5.01271
2B0U C C 26;2B0U C W 36;12.8587
2B0U C C 26;2B0U C C 62;8.73146
2B0U C C 27;2B0U C S 28;22.7645
2B0U C C 27;2B0U C T 29;5.26424
2B0U C C 27;2B0U C W 36;4.37849
2B0U C C 27;2B0U C I 60;0.939149
2B0U C C 27;2B0U C P 61;6.46538e-07
2B0U C C 27;2B0U C C 62;35.6884
2B0U C C 27;2B0U C K 63;11.3325
2B0U C S 28;2B0U C T 29;34.4088
2B0U C S 28;2B0U C G 30;8.19425
2B0U C S 28;2B0U C K 63;1.5872
2B0U C T 29;2B0U C G 30;20.0349
2B0U C T 29;2B0U C R 31;19.3741
2B0U C T 29;2B0U C T 34;11.2283
2B0U C T 29;2B0U C C 62;1.2165
2B0U C T 29;2B0U C K 63;6.57205
2B0U C G 30;2B0U C R 31;21.0351
2B0U C G 30;2B0U C L 32;4.0316
2B0U C G 30;2B0U C K 63;15.5267
2B0U C G 30;2B0U C E 67;0.00342521
2B0U C G 30;2B0U C N 68;14.9304
2B0U C G 30;2B0U C V 69;3.06191
2B0U C G 30;2B0U C D 70;7.2652
2B0U C R 31;2B0U C L 32;24.0919
2B0U C R 31;2B0U C S 33;2.93453
2B0U C R 31;2B0U C T 34;26.6757
2B0U C R 31;2B0U C C 62;1.42865
2B0U C R 31;2B0U C K 63;12.4993
2B0U C L 32;2B0U C S 33;40.6953
2B0U C L 32;2B0U C T 34;3.0051
2B0U C L 32;2B0U C C 62;0.224738
2B0U C L 32;2B0U C K 63;21.4673
2B0U C L 32;2B0U C V 69;26.6136
2B0U C L 32;2B0U C D 70;1.74012
2B0U C L 32;2B0U C C 77;0.983556
2B0U C L 32;2B0U C P 85;28.2078
2B0U C L 32;2B0U C R 86;3.87084
2B0U C L 32;2B0U C C 87;22.5839
2B0U C S 33;2B0U C T 34;22.1596
2B0U C S 33;2B0U C S 35;10.0401
2B0U C S 33;2B0U C P 61;0.785496
2B0U C S 33;2B0U C C 62;0.136761
2B0U C S 33;2B0U C P 85;1.913
2B0U C T 34;2B0U C S 35;20.1838
2B0U C T 34;2B0U C P 61;0.222692
2B0U C T 34;2B0U C C 62;24.5321
2B0U C T 34;2B0U C K 63;0.550655
2B0U C S 35;2B0U C W 36;18.1122
2B0U C S 35;2B0U C C 59;6.48809
2B0U C S 35;2B0U C I 60;7.37998
2B0U C S 35;2B0U C P 61;10.1867
2B0U C S 35;2B0U C C 62;6.04939
2B0U C W 36;2B0U C T 37;33.4177
2B0U C W 36;2B0U C E 38;23.5203
2B0U C W 36;2B0U C N 58;2.71287
2B0U C W 36;2B0U C C 59;1.38137
2B0U C W 36;2B0U C I 60;40.6913
2B0U C W 36;2B0U C C 62;4.16181
2B0U C T 37;2B0U C E 38;24.744
2B0U C T 37;2B0U C E 39;12.8395
2B0U C T 37;2B0U C L 46;7.16789e-06
2B0U C T 37;2B0U C W 49;9.14056
2B0U C T 37;2B0U C A 56;7.11668
2B0U C T 37;2B0U C P 57;10.9982
2B0U C T 37;2B0U C N 58;7.61088
2B0U C T 37;2B0U C C 59;1.32489
2B0U C T 37;2B0U C I 60;0.34866
2B0U C E 38;2B0U C E 39;31.5409
2B0U C E 38;2B0U C D 40;5.0859
2B0U C E 38;2B0U C N 58;10.9779
2B0U C E 38;2B0U C I 60;8.90414
2B0U C E 39;2B0U C D 40;31.5795
2B0U C E 39;2B0U C V 41;23.0836
2B0U C E 39;2B0U C W 49;18.0
2B0U C E 39;2B0U C P 57;0.249717
2B0U C E 39;2B0U C N 58;0.505242
2B0U C D 40;2B0U C V 41;30.2542
2B0U C V 41;2B0U C N 42;36.3521
2B0U C V 41;2B0U C D 43;8.55399
2B0U C V 41;2B0U C T 45;23.5724
2B0U C V 41;2B0U C L 46;14.2115
2B0U C V 41;2B0U C W 49;15.3128
2B0U C N 42;2B0U C D 43;26.887
2B0U C N 42;2B0U C N 44;28.5339
2B0U C N 42;2B0U C T 45;14.9057
2B0U C N 42;2B0U C L 46;5.56276
2B0U C D 43;2B0U C N 44;20.6002
2B0U C D 43;2B0U C T 45;0.890667
2B0U C D 43;2B0U C L 46;31.7935
2B0U C D 43;2B0U C F 47;7.92332
2B0U C N 44;2B0U C T 45;20.1577
2B0U C N 44;2B0U C L 46;0.729582
2B0U C N 44;2B0U C F 47;19.0778
2B0U C N 44;2B0U C K 48;21.4
2B0U C T 45;2B0U C L 46;16.4001
2B0U C T 45;2B0U C F 47;1.24198
2B0U C T 45;2B0U C K 48;20.8203
2B0U C T 45;2B0U C W 49;32.4676
2B0U C L 46;2B0U C F 47;15.7767
2B0U C L 46;2B0U C K 48;0.0849351
2B0U C L 46;2B0U C W 49;30.0869
2B0U C L 46;2B0U C M 50;20.0726
2B0U C L 46;2B0U C A 56;0.574809
2B0U C F 47;2B0U C K 48;24.1292
2B0U C F 47;2B0U C W 49;1.56
2B0U C F 47;2B0U C M 50;22.8015
2B0U C F 47;2B0U C I 51;19.056
2B0U C K 48;2B0U C W 49;18.3908
2B0U C K 48;2B0U C M 50;1.96976
2B0U C K 48;2B0U C I 51;13.4328
2B0U C K 48;2B0U C F 52;36.7332
2B0U C K 48;2B0U C N 53;0.0885199
2B0U C W 49;2B0U C M 50;15.431
2B0U C W 49;2B0U C I 51;0.850657
2B0U C W 49;2B0U C F 52;5.34617
2B0U C W 49;2B0U C N 53;28.6359
2B0U C W 49;2B0U C G 54;2.91234
2B0U C W 49;2B0U C G 55;13.9361
2B0U C W 49;2B0U C A 56;13.6049
2B0U C W 49;2B0U C P 57;32.5736
2B0U C M 50;2B0U C I 51;28.2196
2B0U C M 50;2B0U C G 54;12.8221
2B0U C M 50;2B0U C G 55;20.3715
2B0U C M 50;2B0U C A 56;1.45828
2B0U C I 51;2B0U C F 52;33.4359
2B0U C I 51;2B0U C G 54;5.43528
2B0U C F 52;2B0U C N 53;33.6937
2B0U C F 52;2B0U C G 54;6.69793
2B0U C N 53;2B0U C G 54;18.6996
2B0U C N 53;2B0U C G 55;8.01093
2B0U C N 53;2B0U C P 57;11.4021
2B0U C G 54;2B0U C G 55;19.9136
2B0U C G 55;2B0U C A 56;20.2293
2B0U C G 55;2B0U C P 57;1.80108
2B0U C A 56;2B0U C P 57;25.2134
2B0U C A 56;2B0U C N 58;0.102134
2B0U C A 56;2B0U C C 59;4.13079
2B0U C P 57;2B0U C N 58;34.8761
2B0U C P 57;2B0U C C 59;1.01566
2B0U C N 58;2B0U C C 59;22.8953
2B0U C N 58;2B0U C I 60;11.7156
2B0U C C 59;2B0U C I 60;19.6909
2B0U C C 59;2B0U C P 61;9.7921
2B0U C I 60;2B0U C P 61;33.8416
2B0U C I 60;2B0U C C 62;3.27046
2B0U C P 61;2B0U C C 62;22.7575
2B0U C P 61;2B0U C K 63;19.5885
2B0U C P 61;2B0U C E 64;9.81579
2B0U C P 61;2B0U C K 84;14.6796
2B0U C C 62;2B0U C K 63;43.5631
2B0U C C 62;2B0U C E 64;0.361894
2B0U C K 63;2B0U C E 64;26.2331
2B0U C K 63;2B0U C T 65;11.1233
2B0U C K 63;2B0U C E 67;11.7239
2B0U C K 63;2B0U C N 68;1.44325
2B0U C K 63;2B0U C V 69;12.5276
2B0U C K 63;2B0U C K 84;1.17392
2B0U C K 63;2B0U C P 85;18.7022
2B0U C E 64;2B0U C T 65;33.4039
2B0U C E 64;2B0U C M 79;4.55611
2B0U C E 64;2B0U C N 83;28.1256
2B0U C E 64;2B0U C K 84;1.41341
2B0U C E 64;2B0U C P 85;9.7031
2B0U C T 65;2B0U C C 66;19.8012
2B0U C T 65;2B0U C E 67;19.4894
2B0U C T 65;2B0U C V 69;3.63181
2B0U C T 65;2B0U C M 79;14.0929
2B0U C T 65;2B0U C P 85;10.138
2B0U C C 66;2B0U C E 67;23.2889
2B0U C C 66;2B0U C N 68;3.95324
2B0U C C 66;2B0U C V 69;17.6428
2B0U C C 66;2B0U C C 77;29.6751
2B0U C C 66;2B0U C R 78;1.50066
2B0U C C 66;2B0U C M 79;26.2128
2B0U C C 66;2B0U C P 85;7.09696
2B0U C E 67;2B0U C N 68;51.1466
2B0U C E 67;2B0U C V 69;7.51282
2B0U C N 68;2B0U C V 69;22.3352
2B0U C N 68;2B0U C D 70;10.1933
2B0U C V 69;2B0U C D 70;26.1293
2B0U C V 69;2B0U C C 71;14.4833
2B0U C V 69;2B0U C C 77;17.2901
2B0U C V 69;2B0U C P 85;3.38861
2B0U C V 69;2B0U C C 87;7.69158
2B0U C D 70;2B0U C C 71;27.5934
2B0U C D 70;2B0U C G 72;16.5053
2B0U C D 70;2B0U C C 87;1.70233
2B0U C C 71;2B0U C G 72;27.5795
2B0U C C 71;2B0U C K 75;36.4934
2B0U C C 71;2B0U C K 76;7.5574
2B0U C C 71;2B0U C C 77;7.18078
2B0U C C 71;2B0U C C 87;23.6728
2B0U C G 72;2B0U C P 73;37.1996
2B0U C G 72;2B0U C G 74;1.06739
2B0U C G 72;2B0U C K 75;15.3208
2B0U C P 73;2B0U C G 74;28.7236
2B0U C P 73;2B0U C K 75;13.2495
2B0U C P 73;2B0U C C 121;0.725887
2B0U C G 74;2B0U C K 75;20.7091
2B0U C G 74;2B0U C C 89;2.2988
2B0U C G 74;2B0U C A 90;23.0105
2B0U C G 74;2B0U C P 91;13.5298
2B0U C G 74;2B0U C C 121;8.667
2B0U C K 75;2B0U C K 76;22.4523
2B0U C K 75;2B0U C C 87;21.691
2B0U C K 75;2B0U C V 88;10.5118
2B0U C K 75;2B0U C C 89;11.5336
2B0U C K 75;2B0U C A 90;3.04894
2B0U C K 75;2B0U C C 121;14.7558
2B0U C K 76;2B0U C C 77;26.8376
2B0U C K 76;2B0U C R 78;12.3787
2B0U C K 76;2B0U C R 86;0.857787
2B0U C K 76;2B0U C C 87;4.99622
2B0U C K 76;2B0U C V 88;19.9823
2B0U C K 76;2B0U C A 90;16.6213
2B0U C C 77;2B0U C R 78;28.0374
2B0U C C 77;2B0U C M 79;2.77069
2B0U C C 77;2B0U C P 85;8.721
2B0U C C 77;2B0U C R 86;7.72098
2B0U C C 77;2B0U C C 87;3.75596
2B0U C C 77;2B0U C V 88;0.000120334
2B0U C R 78;2B0U C M 79;32.1395
2B0U C R 78;2B0U C N 80;7.22698
2B0U C R 78;2B0U C K 84;1.96851
2B0U C R 78;2B0U C P 85;0.874248
2B0U C R 78;2B0U C R 86;18.8261
2B0U C R 78;2B0U C V 88;33.7183
2B0U C R 78;2B0U C C 89;2.94322
2B0U C R 78;2B0U C A 90;9.12063
2B0U C M 79;2B0U C N 80;31.8938
2B0U C M 79;2B0U C N 83;19.7553
2B0U C M 79;2B0U C K 84;5.31444
2B0U C M 79;2B0U C P 85;8.58394
2B0U C N 80;2B0U C K 81;31.7387
2B0U C N 80;2B0U C K 82;9.1451
2B0U C N 80;2B0U C N 83;18.405
2B0U C N 80;2B0U C K 84;29.9754
2B0U C N 80;2B0U C P 85;0.047649
2B0U C N 80;2B0U C R 86;17.3693
2B0U C K 81;2B0U C K 82;30.2066
2B0U C K 81;2B0U C N 83;0.219924
2B0U C K 82;2B0U C N 83;32.3133
2B0U C K 82;2B0U C K 84;12.6432
2B0U C N 83;2B0U C K 84;25.4882
2B0U C N 83;2B0U C P 85;1.06274
2B0U C K 84;2B0U C P 85;33.3411
2B0U C K 84;2B0U C R 86;4.17786
2B0U C P 85;2B0U C R 86;22.4448
2B0U C P 85;2B0U C C 87;0.0578799
2B0U C R 86;2B0U C C 87;23.6613
2B0U C R 86;2B0U C V 88;14.4114
2B0U C C 87;2B0U C V 88;23.0138
2B0U C C 87;2B0U C C 89;0.0576188
2B0U C V 88;2B0U C C 89;31.7449
2B0U C V 88;2B0U C A 90;3.22004
2B0U C C 89;2B0U C A 90;21.2287
2B0U C C 89;2B0U C P 91;10.554
2B0U C C 89;2B0U C K 118;10.0855
2B0U C C 89;2B0U C C 121;20.5228
2B0U C C 89;2B0U C K 122;20.7888
2B0U C A 90;2B0U C P 91;33.9266
2B0U C A 90;2B0U C C 121;0.000167218
2B0U C P 91;2B0U C D 92;30.7942
2B0U C P 91;2B0U C C 93;13.8798
2B0U C P 91;2B0U C C 114;9.36376
2B0U C P 91;2B0U C L 117;20.1468
2B0U C P 91;2B0U C K 118;16.8343
2B0U C P 91;2B0U C C 121;9.0641
2B0U C D 92;2B0U C C 93;23.8471
2B0U C D 92;2B0U C S 94;7.22922
2B0U C D 92;2B0U C N 95;31.9792
2B0U C D 92;2B0U C I 96;4.90159
2B0U C D 92;2B0U C C 114;3.15956
2B0U C D 92;2B0U C L 117;13.4614
2B0U C C 93;2B0U C S 94;26.429
2B0U C C 93;2B0U C N 95;3.93887
2B0U C C 93;2B0U C I 96;10.5838
2B0U C C 93;2B0U C T 97;8.74214
2B0U C C 93;2B0U C C 114;35.8977
2B0U C C 93;2B0U C L 117;0.280082
2B0U C S 94;2B0U C N 95;26.4862
2B0U C S 94;2B0U C I 96;2.35938
2B0U C S 94;2B0U C T 97;15.2285
2B0U C N 95;2B0U C I 96;33.1216
2B0U C N 95;2B0U C T 97;0.0163526
2B0U C I 96;2B0U C T 97;25.7311
2B0U C I 96;2B0U C K 99;15.8592
2B0U C I 96;2B0U C E 113;25.425
2B0U C I 96;2B0U C C 114;4.21588
2B0U C I 96;2B0U C L 117;6.90686
2B0U C T 97;2B0U C K 99;33.6579
2B0U C T 97;2B0U C N 112;9.08711
2B0U C T 97;2B0U C E 113;8.33998
2B0U C T 97;2B0U C C 114;5.76356
2B0U C K 99;2B0U C G 100;38.1193
2B0U C K 99;2B0U C P 101;1.78211
2B0U C K 99;2B0U C V 102;4.97143
2B0U C K 99;2B0U C N 112;7.08385
2B0U C K 99;2B0U C E 113;19.1232
2B0U C K 99;2B0U C Q 132;26.9902
2B0U C G 100;2B0U C P 101;33.3335
2B0U C G 100;2B0U C V 102;6.56519
2B0U C G 100;2B0U C R 111;3.88222
2B0U C G 100;2B0U C N 112;10.2662
2B0U C G 100;2B0U C E 113;0.511092
2B0U C P 101;2B0U C V 102;20.6372
2B0U C P 101;2B0U C T 109;10.8332
2B0U C P 101;2B0U C Y 110;3.94794
2B0U C P 101;2B0U C R 111;17.338
2B0U C P 101;2B0U C N 112;0.986311
2B0U C P 101;2B0U C Q 132;2.51876
2B0U C P 101;2B0U C G 133;20.4325
2B0U C P 101;2B0U C R 134;8.75141
2B0U C V 102;2B0U C C 103;24.6716
2B0U C V 102;2B0U C G 104;0.815018
2B0U C V 102;2B0U C K 108;0.049084
2B0U C V 102;2B0U C T 109;10.0023
2B0U C V 102;2B0U C Y 110;21.0038
2B0U C V 102;2B0U C N 112;7.32335
2B0U C V 102;2B0U C E 113;15.0732
2B0U C V 102;2B0U C L 116;3.32149
2B0U C V 102;2B0U C V 129;22.2658
2B0U C V 102;2B0U C Y 131;2.61924
2B0U C V 102;2B0U C Q 132;17.531
2B0U C V 102;2B0U C G 133;10.8374
2B0U C V 102;2B0U C C 135;0.0365645
2B0U C C 103;2B0U C G 104;23.9357
2B0U C C 103;2B0U C G 107;1.36554
2B0U C C 103;2B0U C K 108;0.61803
2B0U C C 103;2B0U C T 109;1.20647
2B0U C C 103;2B0U C Y 110;0.00199325
2B0U C C 103;2B0U C L 116;0.371676
2B0U C C 103;2B0U C V 129;5.67391
2B0U C C 103;2B0U C Q 130;17.6863
2B0U C C 103;2B0U C Y 131;31.1437
2B0U C C 103;2B0U C Q 132;0.0709666
2B0U C C 103;2B0U C G 133;7.64151
2B0U C C 103;2B0U C R 134;0.499054
2B0U C C 103;2B0U C C 135;23.009
2B0U C C 103;2B0U C A 158;0.225182
2B0U C G 104;2B0U C L 105;13.6332
2B0U C G 104;2B0U C D 106;7.79729
2B0U C G 104;2B0U C G 107;7.02889
2B0U C G 104;2B0U C K 108;8.05648
2B0U C G 104;2B0U C Y 110;7.34321
2B0U C G 104;2B0U C L 116;7.68316
2B0U C G 104;2B0U C L 127;3.77708
2B0U C G 104;2B0U C E 128;4.0227
2B0U C G 104;2B0U C V 129;1.67718
2B0U C G 104;2B0U C Q 130;8.18367
2B0U C G 104;2B0U C C 135;2.99015
2B0U C L 105;2B0U C D 106;22.0859
2B0U C L 105;2B0U C G 107;2.73422
2B0U C L 105;2B0U C E 126;11.0664
2B0U C L 105;2B0U C L 127;9.59361
2B0U C L 105;2B0U C E 128;22.6747
2B0U C L 105;2B0U C V 129;0.192545
2B0U C L 105;2B0U C Q 130;27.5021
2B0U C L 105;2B0U C Y 159;17.752
2B0U C L 105;2B0U C C 160;2.89537
2B0U C L 105;2B0U C V 161;0.635036
2B0U C D 106;2B0U C G 107;22.7581
2B0U C D 106;2B0U C K 108;27.4023
2B0U C D 106;2B0U C Y 110;12.1967
2B0U C D 106;2B0U C Q 124;16.2431
2B0U C D 106;2B0U C L 127;17.2642
2B0U C D 106;2B0U C Y 159;1.99047
2B0U C G 107;2B0U C K 108;22.8366
2B0U C G 107;2B0U C T 109;1.48458
2B0U C G 107;2B0U C Q 130;3.28484
2B0U C G 107;2B0U C C 135;19.7322
2B0U C G 107;2B0U C N 157;3.11365
2B0U C G 107;2B0U C Y 159;11.8331
2B0U C K 108;2B0U C T 109;26.6928
2B0U C K 108;2B0U C Y 110;24.1512
2B0U C K 108;2B0U C Q 124;5.56415
2B0U C K 108;2B0U C C 135;5.9369
2B0U C T 109;2B0U C Y 110;30.2316
2B0U C T 109;2B0U C R 111;4.02317
2B0U C T 109;2B0U C G 133;1.38641
2B0U C T 109;2B0U C R 134;15.7075
2B0U C T 109;2B0U C C 135;19.282
2B0U C Y 110;2B0U C R 111;21.5018
2B0U C Y 110;2B0U C N 112;11.1303
2B0U C Y 110;2B0U C A 115;13.4683
2B0U C Y 110;2B0U C L 116;26.1883
2B0U C Y 110;2B0U C A 119;16.202
2B0U C Y 110;2B0U C Q 124;5.64472
2B0U C Y 110;2B0U C L 127;12.258
2B0U C R 111;2B0U C N 112;29.1678
2B0U C R 111;2B0U C A 115;14.1306
2B0U C N 112;2B0U C E 113;22.1772
2B0U C N 112;2B0U C C 114;12.9239
2B0U C N 112;2B0U C A 115;21.0946
2B0U C N 112;2B0U C L 116;3.76316
2B0U C E 113;2B0U C C 114;18.55
2B0U C E 113;2B0U C A 115;1.77876
2B0U C E 113;2B0U C L 116;16.4648
2B0U C E 113;2B0U C L 117;25.2433
2B0U C E 113;2B0U C V 129;18.919
2B0U C E 113;2B0U C Q 132;2.91753
2B0U C C 114;2B0U C A 115;17.6157
2B0U C C 114;2B0U C L 116;1.48162
2B0U C C 114;2B0U C L 117;19.8391
2B0U C C 114;2B0U C K 118;11.9784
2B0U C A 115;2B0U C L 116;14.8016
2B0U C A 115;2B0U C L 117;0.0450085
2B0U C A 115;2B0U C K 118;13.1941
2B0U C A 115;2B0U C A 119;10.1717
2B0U C L 116;2B0U C L 117;28.5648
2B0U C L 116;2B0U C K 118;1.62849
2B0U C L 116;2B0U C A 119;8.49078
2B0U C L 116;2B0U C R 120;9.68524
2B0U C L 116;2B0U C L 127;22.9062
2B0U C L 116;2B0U C E 128;12.2622
2B0U C L 116;2B0U C V 129;18.7435
2B0U C L 117;2B0U C K 118;15.7563
2B0U C L 117;2B0U C A 119;0.511352
2B0U C L 117;2B0U C R 120;37.6806
2B0U C L 117;2B0U C C 121;8.84511
2B0U C K 118;2B0U C A 119;19.5098
2B0U C K 118;2B0U C R 120;1.44135
2B0U C K 118;2B0U C C 121;5.94977
2B0U C K 118;2B0U C K 122;10.8996
2B0U C A 119;2B0U C R 120;17.1223
2B0U C A 119;2B0U C C 121;0.13105
2B0U C A 119;2B0U C K 122;11.6223
2B0U C A 119;2B0U C E 123;7.79984
2B0U C A 119;2B0U C Q 124;11.0413
2B0U C A 119;2B0U C L 127;8.44626
2B0U C R 120;2B0U C C 121;27.9084
2B0U C R 120;2B0U C K 122;1.53473
2B0U C R 120;2B0U C E 123;2.46487
2B0U C R 120;2B0U C Q 124;21.2021
2B0U C R 120;2B0U C P 125;23.1069
2B0U C R 120;2B0U C E 126;0.0576959
2B0U C R 120;2B0U C L 127;31.8371
2B0U C R 120;2B0U C E 128;1.69184
2B0U C C 121;2B0U C K 122;20.4905
2B0U C C 121;2B0U C E 123;3.01555
2B0U C C 121;2B0U C Q 124;0.306187
2B0U C C 121;2B0U C P 125;0.00455878
2B0U C K 122;2B0U C E 123;34.3367
2B0U C E 123;2B0U C Q 124;32.8706
2B0U C E 123;2B0U C P 125;2.90215
2B0U C Q 124;2B0U C P 125;22.9091
2B0U C Q 124;2B0U C E 126;6.92569
2B0U C Q 124;2B0U C L 127;25.9498
2B0U C P 125;2B0U C E 126;35.4437
2B0U C P 125;2B0U C L 127;0.917092
2B0U C E 126;2B0U C L 127;27.7778
2B0U C E 126;2B0U C E 128;6.29832
2B0U C L 127;2B0U C E 128;29.1525
2B0U C E 128;2B0U C V 129;28.9463
2B0U C E 128;2B0U C Q 130;1.68552
2B0U C V 129;2B0U C Q 130;26.6548
2B0U C V 129;2B0U C Y 131;11.0219
2B0U C V 129;2B0U C Q 132;13.0881
2B0U C V 129;2B0U C P 145;0.03125
2B0U C Q 130;2B0U C Y 131;32.3371
2B0U C Q 130;2B0U C P 145;13.0948
2B0U C Q 130;2B0U C A 158;4.54464
2B0U C Q 130;2B0U C Y 159;19.9053
2B0U C Q 130;2B0U C C 160;26.9446
2B0U C Q 130;2B0U C V 161;0.0165571
2B0U C Y 131;2B0U C Q 132;35.3175
2B0U C Y 131;2B0U C G 133;0.747971
2B0U C Y 131;2B0U C R 134;6.35212
2B0U C Y 131;2B0U C C 135;9.70003
2B0U C Y 131;2B0U C K 136;14.8739
2B0U C Y 131;2B0U C V 142;24.6042
2B0U C Y 131;2B0U C F 143;8.5503
2B0U C Y 131;2B0U C C 144;0.754226
2B0U C Y 131;2B0U C P 145;9.03117
2B0U C Y 131;2B0U C A 158;18.5223
2B0U C Y 131;2B0U C Y 159;4.88128
2B0U C Y 131;2B0U C C 160;16.123
2B0U C Q 132;2B0U C G 133;29.5806
2B0U C Q 132;2B0U C R 134;2.3329
2B0U C Q 132;2B0U C K 136;0.101438
2B0U C Q 132;2B0U C V 142;0.527727
2B0U C Q 132;2B0U C F 143;12.6854
2B0U C Q 132;2B0U C P 145;0.749564
2B0U C G 133;2B0U C R 134;26.7666
2B0U C G 133;2B0U C C 135;1.0706
2B0U C G 133;2B0U C K 136;1.74975
2B0U C R 134;2B0U C C 135;23.0546
2B0U C R 134;2B0U C K 136;33.1359
2B0U C C 135;2B0U C K 136;27.2576
2B0U C K 136;2B0U C K 137;30.4123
2B0U C K 136;2B0U C T 138;9.53992
2B0U C K 136;2B0U C D 141;20.0282
2B0U C K 136;2B0U C V 142;13.2378
2B0U C K 136;2B0U C N 157;3.5959
2B0U C K 136;2B0U C A 158;11.7377
2B0U C K 137;2B0U C T 138;29.5399
2B0U C K 137;2B0U C V 152;4.8443
2B0U C K 137;2B0U C T 155;15.0328
2B0U C K 137;2B0U C N 156;28.8758
2B0U C K 137;2B0U C N 157;22.1801
2B0U C K 137;2B0U C A 158;6.38219
2B0U C T 138;2B0U C C 139;20.2051
2B0U C T 138;2B0U C R 140;34.2367
2B0U C T 138;2B0U C D 141;1.57528
2B0U C T 138;2B0U C V 142;7.79783
2B0U C T 138;2B0U C V 152;3.56275
2B0U C T 138;2B0U C N 156;15.785
2B0U C T 138;2B0U C A 158;4.59188
2B0U C C 139;2B0U C R 140;27.6924
2B0U C C 139;2B0U C D 141;0.42134
2B0U C C 139;2B0U C V 142;15.6331
2B0U C C 139;2B0U C C 150;28.9101
2B0U C C 139;2B0U C V 151;7.90707
2B0U C C 139;2B0U C V 152;15.4109
2B0U C C 139;2B0U C A 158;4.77913
2B0U C C 139;2B0U C G 199;4.85676
2B0U C R 140;2B0U C D 141;31.8509
2B0U C R 140;2B0U C V 142;3.72287
2B0U C D 141;2B0U C V 142;29.7057
2B0U C D 141;2B0U C F 143;10.042
2B0U C V 142;2B0U C F 143;28.0625
2B0U C V 142;2B0U C C 144;13.8403
2B0U C V 142;2B0U C C 150;15.6337
2B0U C V 142;2B0U C A 158;8.84101
2B0U C V 142;2B0U C Y 159;0.079869
2B0U C V 142;2B0U C C 160;4.49896
2B0U C F 143;2B0U C C 144;32.1458
2B0U C F 143;2B0U C P 145;15.2318
2B0U C F 143;2B0U C C 160;0.0143148
2B0U C C 144;2B0U C P 145;23.4863
2B0U C C 144;2B0U C G 146;3.55255
2B0U C C 144;2B0U C S 148;15.9871
2B0U C C 144;2B0U C T 149;8.52753
2B0U C C 144;2B0U C C 150;13.638
2B0U C C 144;2B0U C Y 159;0.415937
2B0U C C 144;2B0U C C 160;18.814
2B0U C P 145;2B0U C G 146;33.2813
2B0U C P 145;2B0U C S 147;0.568453
2B0U C P 145;2B0U C S 148;22.989
2B0U C P 145;2B0U C C 160;5.47078
2B0U C G 146;2B0U C S 147;29.8116
2B0U C G 146;2B0U C S 148;4.63948
2B0U C S 147;2B0U C S 148;29.4314
2B0U C S 147;2B0U C T 149;6.61964
2B0U C S 147;2B0U C V 161;0.0920784
2B0U C S 147;2B0U C T 162;17.3261
2B0U C S 147;2B0U C C 163;1.06947
2B0U C S 147;2B0U C R 165;8.96347
2B0U C S 148;2B0U C T 149;20.8947
2B0U C S 148;2B0U C C 160;12.447
2B0U C S 148;2B0U C V 161;12.628
2B0U C S 148;2B0U C T 162;13.032
2B0U C T 149;2B0U C C 150;33.2479
2B0U C T 149;2B0U C V 151;5.51516
2B0U C T 149;2B0U C Y 159;2.20404
2B0U C T 149;2B0U C C 160;3.64085
2B0U C T 149;2B0U C V 161;19.328
2B0U C T 149;2B0U C T 162;0.0722571
2B0U C T 149;2B0U C C 163;17.0767
2B0U C T 149;2B0U C R 165;12.5188
2B0U C T 149;2B0U C C 196;5.78238
2B0U C T 149;2B0U C L 197;13.3787
2B0U C T 149;2B0U C G 199;0.258007
2B0U C C 150;2B0U C V 151;22.006
2B0U C C 150;2B0U C A 158;7.11362
2B0U C C 150;2B0U C Y 159;7.21923
2B0U C C 150;2B0U C C 160;0.277765
2B0U C C 150;2B0U C C 196;0.596941
2B0U C C 150;2B0U C G 199;8.32607
2B0U C V 151;2B0U C V 152;24.0328
2B0U C V 151;2B0U C N 157;0.872747
2B0U C V 151;2B0U C A 158;4.53502
2B0U C V 151;2B0U C Y 159;22.1056
2B0U C V 151;2B0U C V 161;13.3365
2B0U C V 151;2B0U C C 163;1.02498
2B0U C V 151;2B0U C T 195;0.112487
2B0U C V 151;2B0U C C 196;17.7989
2B0U C V 151;2B0U C G 199;14.1014
2B0U C V 152;2B0U C D 153;25.6374
2B0U C V 152;2B0U C N 156;19.9467
2B0U C V 152;2B0U C N 157;9.93777
2B0U C V 152;2B0U C A 158;6.73165
2B0U C V 152;2B0U C Y 159;2.50434
2B0U C V 152;2B0U C G 199;13.3856
2B0U C V 152;2B0U C R 200;17.2423
2B0U C V 152;2B0U C S 201;4.00669
2B0U C D 153;2B0U C Q 154;27.7347
2B0U C D 153;2B0U C T 155;11.6771
2B0U C D 153;2B0U C N 156;13.7848
2B0U C D 153;2B0U C N 157;20.7607
2B0U C D 153;2B0U C Y 159;13.43
2B0U C D 153;2B0U C S 201;1.55729
2B0U C Q 154;2B0U C T 155;42.2029
2B0U C Q 154;2B0U C N 156;3.21723
2B0U C Q 154;2B0U C S 201;1.69732
2B0U C T 155;2B0U C N 156;24.7279
2B0U C T 155;2B0U C N 157;15.8723
2B0U C N 156;2B0U C N 157;17.4484
2B0U C N 157;2B0U C A 158;22.4459
2B0U C N 157;2B0U C Y 159;22.3806
2B0U C A 158;2B0U C Y 159;24.9433
2B0U C Y 159;2B0U C C 160;17.2909
2B0U C Y 159;2B0U C V 161;12.8807
2B0U C C 160;2B0U C V 161;25.9865
2B0U C V 161;2B0U C T 162;37.2068
2B0U C V 161;2B0U C C 163;2.99352
2B0U C V 161;2B0U C C 196;8.98683
2B0U C T 162;2B0U C C 163;34.7736
2B0U C T 162;2B0U C N 164;4.85762
2B0U C T 162;2B0U C C 196;2.70386
2B0U C C 163;2B0U C N 164;29.1288
2B0U C C 163;2B0U C R 165;25.2299
2B0U C C 163;2B0U C K 193;1.57206
2B0U C C 163;2B0U C C 196;30.6086
2B0U C C 163;2B0U C L 197;14.6674
2B0U C N 164;2B0U C R 165;22.5144
2B0U C N 164;2B0U C I 166;23.7384
2B0U C N 164;2B0U C C 167;4.07701
2B0U C N 164;2B0U C C 189;10.8693
2B0U C N 164;2B0U C K 193;15.642
2B0U C N 164;2B0U C C 196;0.359734
2B0U C R 165;2B0U C I 166;37.0823
2B0U C R 165;2B0U C C 167;3.73138
2B0U C R 165;2B0U C K 193;30.5339
2B0U C R 165;2B0U C L 197;27.9746
2B0U C I 166;2B0U C C 167;32.0881
2B0U C I 166;2B0U C P 168;6.41529
2B0U C I 166;2B0U C C 189;3.21183
2B0U C C 167;2B0U C P 168;33.6539
2B0U C C 167;2B0U C E 169;2.58933
2B0U C C 167;2B0U C S 187;1.13859
2B0U C C 167;2B0U C C 189;24.5008
2B0U C C 167;2B0U C H 190;26.3139
2B0U C C 167;2B0U C K 193;14.3196
2B0U C P 168;2B0U C E 169;36.2773
2B0U C P 168;2B0U C P 170;4.86959
2B0U C P 168;2B0U C S 187;4.19881
2B0U C P 168;2B0U C C 189;10.6863
2B0U C P 168;2B0U C H 190;9.42581
2B0U C E 169;2B0U C P 170;37.0113
2B0U C E 169;2B0U C A 171;8.11193
2B0U C E 169;2B0U C H 190;2.19147
2B0U C P 170;2B0U C A 171;32.1051
2B0U C P 170;2B0U C S 172;17.2289
2B0U C P 170;2B0U C Q 175;23.4821
2B0U C P 170;2B0U C Y 176;11.2975
2B0U C P 170;2B0U C S 186;27.3833
2B0U C P 170;2B0U C S 187;4.04249
2B0U C P 170;2B0U C H 190;3.83043
2B0U C A 171;2B0U C S 172;31.7373
2B0U C S 172;2B0U C S 173;23.7852
2B0U C S 172;2B0U C E 174;13.9996
2B0U C S 172;2B0U C Q 175;26.4538
2B0U C S 172;2B0U C Y 176;10.3821
2B0U C S 172;2B0U C S 186;0.1023
2B0U C S 173;2B0U C E 174;27.3399
2B0U C S 173;2B0U C Q 175;0.48122
2B0U C S 173;2B0U C Y 176;33.1983
2B0U C S 173;2B0U C G 208;4.79532
2B0U C S 173;2B0U C K 209;10.5012
2B0U C E 174;2B0U C Q 175;23.7379
2B0U C E 174;2B0U C Y 176;9.97078
2B0U C E 174;2B0U C L 177;1.2488
2B0U C E 174;2B0U C E 207;8.40656
2B0U C E 174;2B0U C G 208;2.5567
2B0U C Q 175;2B0U C Y 176;20.0925
2B0U C Q 175;2B0U C L 177;11.5019
2B0U C Q 175;2B0U C S 186;8.25189
2B0U C Q 175;2B0U C S 187;15.0572
2B0U C Q 175;2B0U C A 188;1.79722
2B0U C Y 176;2B0U C L 177;22.085
2B0U C Y 176;2B0U C T 184;15.721
2B0U C Y 176;2B0U C Y 185;7.4694
2B0U C Y 176;2B0U C S 186;24.8741
2B0U C Y 176;2B0U C S 187;0.000774345
2B0U C Y 176;2B0U C E 207;2.71893
2B0U C Y 176;2B0U C G 208;19.1518
2B0U C Y 176;2B0U C K 209;20.2907
2B0U C L 177;2B0U C C 178;20.3803
2B0U C L 177;2B0U C V 183;0.272879
2B0U C L 177;2B0U C T 184;6.56672
2B0U C L 177;2B0U C Y 185;25.5396
2B0U C L 177;2B0U C S 187;8.4119
2B0U C L 177;2B0U C A 188;18.2515
2B0U C L 177;2B0U C L 191;13.1631
2B0U C L 177;2B0U C L 204;22.3108
2B0U C L 177;2B0U C Y 206;0.645762
2B0U C L 177;2B0U C E 207;18.6899
2B0U C L 177;2B0U C G 208;9.01316
2B0U C C 178;2B0U C G 179;24.4406
2B0U C C 178;2B0U C G 182;1.58885
2B0U C C 178;2B0U C V 183;2.20187
2B0U C C 178;2B0U C T 184;2.10081
2B0U C C 178;2B0U C Y 185;0.490051
2B0U C C 178;2B0U C L 191;0.44368
2B0U C C 178;2B0U C L 204;9.81123
2B0U C C 178;2B0U C A 205;14.4045
2B0U C C 178;2B0U C Y 206;32.9796
2B0U C C 178;2B0U C G 208;6.38047
2B0U C C 178;2B0U C K 209;2.54501
2B0U C C 178;2B0U C C 210;23.7776
2B0U C G 179;2B0U C N 180;15.8135
2B0U C G 179;2B0U C D 181;8.88112
2B0U C G 179;2B0U C G 182;8.97007
2B0U C G 179;2B0U C V 183;7.86853
2B0U C G 179;2B0U C Y 185;9.31494
2B0U C G 179;2B0U C L 191;5.04327
2B0U C G 179;2B0U C I 202;2.88549
2B0U C G 179;2B0U C G 203;4.91552
2B0U C G 179;2B0U C L 204;2.20732
2B0U C G 179;2B0U C A 205;8.48672
2B0U C G 179;2B0U C C 210;1.8016
2B0U C G 179;2B0U C R 235;0.842214
2B0U C N 180;2B0U C D 181;19.7219
2B0U C N 180;2B0U C G 182;3.7049
2B0U C N 180;2B0U C I 202;20.2321
2B0U C N 180;2B0U C G 203;17.3427
2B0U C N 180;2B0U C L 204;7.82046
2B0U C N 180;2B0U C A 205;15.6056
2B0U C N 180;2B0U C V 233;1.56869
2B0U C N 180;2B0U C R 235;15.9609
2B0U C N 180;2B0U C G 236;3.21343
2B0U C N 180;2B0U C R 237;37.0036
2B0U C D 181;2B0U C G 182;16.3947
2B0U C D 181;2B0U C V 183;28.4068
2B0U C D 181;2B0U C Y 185;13.6592
2B0U C D 181;2B0U C I 202;26.4878
2B0U C D 181;2B0U C R 235;14.0462
2B0U C G 182;2B0U C V 183;21.3082
2B0U C G 182;2B0U C T 184;2.12098
2B0U C G 182;2B0U C C 210;18.3597
2B0U C G 182;2B0U C R 235;23.8159
2B0U C V 183;2B0U C T 184;31.7164
2B0U C V 183;2B0U C Y 185;29.7383
2B0U C V 183;2B0U C C 210;6.01203
2B0U C T 184;2B0U C Y 185;27.2445
2B0U C T 184;2B0U C S 186;1.47752
2B0U C T 184;2B0U C G 208;1.53031
2B0U C T 184;2B0U C K 209;15.9937
2B0U C T 184;2B0U C C 210;22.0083
2B0U C Y 185;2B0U C S 186;21.2345
2B0U C Y 185;2B0U C S 187;8.92114
2B0U C Y 185;2B0U C H 190;14.7158
2B0U C Y 185;2B0U C L 191;28.7742
2B0U C Y 185;2B0U C A 194;19.1415
2B0U C Y 185;2B0U C I 202;9.20719
2B0U C S 186;2B0U C S 187;20.0862
2B0U C S 186;2B0U C H 190;22.7141
2B0U C S 187;2B0U C A 188;19.6431
2B0U C S 187;2B0U C C 189;16.7182
2B0U C S 187;2B0U C H 190;24.2049
2B0U C S 187;2B0U C L 191;6.35832
2B0U C A 188;2B0U C C 189;20.5496
2B0U C A 188;2B0U C H 190;0.420613
2B0U C A 188;2B0U C L 191;8.73826
2B0U C A 188;2B0U C R 192;25.3111
2B0U C C 189;2B0U C H 190;13.8955
2B0U C C 189;2B0U C L 191;0.760888
2B0U C C 189;2B0U C R 192;17.8487
2B0U C C 189;2B0U C K 193;9.05653
2B0U C H 190;2B0U C L 191;16.148
2B0U C H 190;2B0U C R 192;1.14995
2B0U C H 190;2B0U C K 193;19.1761
2B0U C H 190;2B0U C A 194;8.49002
2B0U C L 191;2B0U C R 192;17.6512
2B0U C L 191;2B0U C K 193;0.639081
2B0U C L 191;2B0U C A 194;8.11444
2B0U C L 191;2B0U C T 195;15.758
2B0U C L 191;2B0U C I 202;12.8237
2B0U C L 191;2B0U C G 203;9.11121
2B0U C L 191;2B0U C L 204;12.8002
2B0U C R 192;2B0U C K 193;18.4556
2B0U C R 192;2B0U C A 194;1.06311
2B0U C R 192;2B0U C T 195;10.8654
2B0U C R 192;2B0U C C 196;8.55629
2B0U C K 193;2B0U C A 194;18.6213
2B0U C K 193;2B0U C T 195;0.460329
2B0U C K 193;2B0U C C 196;8.73144
2B0U C K 193;2B0U C L 197;34.0074
2B0U C A 194;2B0U C T 195;17.1372
2B0U C A 194;2B0U C C 196;1.06375
2B0U C A 194;2B0U C L 197;11.1082
2B0U C A 194;2B0U C L 198;13.2784
2B0U C A 194;2B0U C I 202;11.8914
2B0U C T 195;2B0U C C 196;18.8199
2B0U C T 195;2B0U C L 197;0.360831
2B0U C T 195;2B0U C L 198;5.22662
2B0U C T 195;2B0U C G 199;6.1832
2B0U C T 195;2B0U C R 200;14.2728
2B0U C T 195;2B0U C S 201;5.85008
2B0U C T 195;2B0U C I 202;17.4251
2B0U C T 195;2B0U C G 203;1.16951
2B0U C C 196;2B0U C L 197;18.7545
2B0U C C 196;2B0U C L 198;1.51823
2B0U C C 196;2B0U C G 199;7.26361
2B0U C L 197;2B0U C L 198;27.4794
2B0U C L 197;2B0U C G 199;1.06703
2B0U C L 198;2B0U C G 199;23.3871
2B0U C L 198;2B0U C R 200;45.3809
2B0U C L 198;2B0U C S 201;0.745979
2B0U C L 198;2B0U C I 202;20.0848
2B0U C G 199;2B0U C R 200;22.3948
2B0U C R 200;2B0U C S 201;33.8264
2B0U C R 200;2B0U C I 202;4.85494
2B0U C S 201;2B0U C I 202;28.2778
2B0U C S 201;2B0U C G 203;1.0702
2B0U C I 202;2B0U C G 203;28.5159
2B0U C G 203;2B0U C L 204;19.6725
2B0U C G 203;2B0U C A 205;0.33862
2B0U C L 204;2B0U C A 205;22.6383
2B0U C L 204;2B0U C Y 206;14.3752
2B0U C L 204;2B0U C E 207;14.2861
2B0U C L 204;2B0U C K 225;13.8722
2B0U C L 204;2B0U C R 237;6.42639
2B0U C L 204;2B0U C C 238;3.62286
2B0U C A 205;2B0U C Y 206;30.7647
2B0U C A 205;2B0U C G 236;8.9701
2B0U C A 205;2B0U C R 237;10.2242
2B0U C A 205;2B0U C C 238;13.1444
2B0U C Y 206;2B0U C E 207;35.5544
2B0U C Y 206;2B0U C G 208;1.39787
2B0U C Y 206;2B0U C K 209;9.15473
2B0U C Y 206;2B0U C C 210;6.24905
2B0U C Y 206;2B0U C I 211;25.7136
2B0U C Y 206;2B0U C A 213;1.26686
2B0U C Y 206;2B0U C I 219;24.7729
2B0U C Y 206;2B0U C Q 220;8.30252
2B0U C Y 206;2B0U C T 222;1.86441
2B0U C Y 206;2B0U C K 225;0.574431
2B0U C Y 206;2B0U C G 236;9.4993
2B0U C Y 206;2B0U C R 237;2.89105
2B0U C Y 206;2B0U C C 238;16.7558
2B0U C E 207;2B0U C G 208;28.3065
2B0U C E 207;2B0U C K 209;0.425495
2B0U C E 207;2B0U C Q 220;4.24821
2B0U C E 207;2B0U C T 222;36.0986
2B0U C E 207;2B0U C K 225;11.1053
2B0U C G 208;2B0U C K 209;28.7918
2B0U C G 208;2B0U C C 210;0.0617402
2B0U C K 209;2B0U C C 210;24.8654
2B0U C K 209;2B0U C I 211;16.0252
2B0U C C 210;2B0U C I 211;28.6648
2B0U C C 210;2B0U C K 212;0.503007
2B0U C I 211;2B0U C K 212;32.2941
2B0U C I 211;2B0U C A 213;15.3263
2B0U C I 211;2B0U C D 218;21.2223
2B0U C I 211;2B0U C I 219;7.00343
2B0U C I 211;2B0U C Q 220;3.94246
2B0U C K 212;2B0U C A 213;30.3629
2B0U C K 212;2B0U C K 214;12.5239
2B0U C K 212;2B0U C D 218;4.04729
2B0U C A 213;2B0U C K 214;25.16
2B0U C A 213;2B0U C S 215;5.03395
2B0U C A 213;2B0U C D 218;14.3554
2B0U C A 213;2B0U C I 219;12.3939
2B0U C A 213;2B0U C W 229;17.7578
2B0U C A 213;2B0U C G 234;5.54541
2B0U C A 213;2B0U C G 236;0.695471
2B0U C K 214;2B0U C S 215;30.3733
2B0U C K 214;2B0U C D 218;17.225
2B0U C K 214;2B0U C W 229;15.9207
2B0U C K 214;2B0U C F 231;1.38689
2B0U C S 215;2B0U C C 216;20.3077
2B0U C S 215;2B0U C E 217;26.5847
2B0U C S 215;2B0U C D 218;10.0257
2B0U C S 215;2B0U C I 219;2.93817
2B0U C S 215;2B0U C W 229;15.8944
2B0U C S 215;2B0U C F 231;8.14884
2B0U C C 216;2B0U C E 217;24.442
2B0U C C 216;2B0U C D 218;0.976732
2B0U C C 216;2B0U C I 219;18.9366
2B0U C C 216;2B0U C C 227;31.9177
2B0U C C 216;2B0U C L 228;4.37122
2B0U C C 216;2B0U C W 229;21.0192
2B0U C C 216;2B0U C G 236;0.0195421
2B0U C C 216;2B0U C G 276;5.11737
2B0U C E 217;2B0U C D 218;29.2298
2B0U C E 217;2B0U C I 219;6.8578
2B0U C E 217;2B0U C Q 220;8.7813
2B0U C D 218;2B0U C I 219;18.1162
2B0U C D 218;2B0U C Q 220;11.1117
2B0U C I 219;2B0U C Q 220;34.07
2B0U C I 219;2B0U C C 221;11.0773
2B0U C I 219;2B0U C C 227;18.9917
2B0U C I 219;2B0U C W 229;7.78522
2B0U C I 219;2B0U C G 236;12.2629
2B0U C I 219;2B0U C R 237;4.3909
2B0U C I 219;2B0U C C 238;7.08897
2B0U C Q 220;2B0U C C 221;24.6913
2B0U C Q 220;2B0U C T 222;9.03078
2B0U C Q 220;2B0U C C 238;2.26384
2B0U C C 221;2B0U C T 222;26.895
2B0U C C 221;2B0U C G 223;0.521257
2B0U C C 221;2B0U C G 224;2.81633
2B0U C C 221;2B0U C K 225;21.1125
2B0U C C 221;2B0U C K 226;6.2103
2B0U C C 221;2B0U C C 227;13.0589
2B0U C C 221;2B0U C R 237;0.651395
2B0U C C 221;2B0U C C 238;22.5945
2B0U C T 222;2B0U C G 223;30.5642
2B0U C T 222;2B0U C G 224;1.05097
2B0U C T 222;2B0U C K 225;22.3976
2B0U C T 222;2B0U C C 238;5.04112
2B0U C G 223;2B0U C G 224;24.4723
2B0U C G 223;2B0U C K 225;13.2167
2B0U C G 223;2B0U C L 240;7.63883
2B0U C G 224;2B0U C K 225;25.8642
2B0U C G 224;2B0U C K 226;5.31686
2B0U C G 224;2B0U C L 240;4.45139
2B0U C G 224;2B0U C C 241;5.3582
2B0U C K 225;2B0U C K 226;24.0743
2B0U C K 225;2B0U C C 238;21.7275
2B0U C K 225;2B0U C S 239;15.9845
2B0U C K 225;2B0U C L 240;24.7597
2B0U C K 225;2B0U C C 241;0.440655
2B0U C K 226;2B0U C C 227;27.366
2B0U C K 226;2B0U C L 228;10.7345
2B0U C K 226;2B0U C R 237;1.35493
2B0U C K 226;2B0U C C 238;3.51315
2B0U C K 226;2B0U C S 239;15.2299
2B0U C K 226;2B0U C C 241;25.5434
2B0U C K 226;2B0U C C 273;17.644
2B0U C K 226;2B0U C S 274;10.3046
2B0U C K 226;2B0U C G 276;2.8512
2B0U C C 227;2B0U C L 228;24.1108
2B0U C C 227;2B0U C W 229;0.450754
2B0U C C 227;2B0U C G 236;1.47594
2B0U C C 227;2B0U C R 237;9.75003
2B0U C C 227;2B0U C C 238;0.284788
2B0U C C 227;2B0U C G 276;8.49219
2B0U C L 228;2B0U C W 229;18.7051
2B0U C L 228;2B0U C D 230;0.109052
2B0U C L 228;2B0U C R 235;1.00777
2B0U C L 228;2B0U C G 236;4.29651
2B0U C L 228;2B0U C R 237;24.5895
2B0U C L 228;2B0U C S 239;19.7111
2B0U C L 228;2B0U C C 241;5.34531
2B0U C L 228;2B0U C A 272;15.9497
2B0U C L 228;2B0U C C 273;17.5459
2B0U C L 228;2B0U C G 276;10.8645
2B0U C L 228;2B0U C V 277;5.08045
2B0U C L 228;2B0U C L 278;24.0249
2B0U C L 228;2B0U C L 279;0.0382127
2B0U C W 229;2B0U C D 230;27.3445
2B0U C W 229;2B0U C F 231;38.5638
2B0U C W 229;2B0U C G 234;17.6972
2B0U C W 229;2B0U C R 235;17.8211
2B0U C W 229;2B0U C G 236;11.9005
2B0U C W 229;2B0U C G 276;10.7939
2B0U C W 229;2B0U C V 277;11.3587
2B0U C W 229;2B0U C L 278;12.9775
2B0U C D 230;2B0U C F 231;19.3993
2B0U C D 230;2B0U C K 232;15.9698
2B0U C D 230;2B0U C V 233;24.2963
2B0U C D 230;2B0U C G 234;6.99779
2B0U C D 230;2B0U C R 235;19.1635
2B0U C D 230;2B0U C R 237;0.0231292
2B0U C D 230;2B0U C V 277;1.21259
2B0U C D 230;2B0U C L 278;28.3123
2B0U C D 230;2B0U C E 280;0.470125
2B0U C F 231;2B0U C K 232;28.4034
2B0U C F 231;2B0U C V 233;0.568682
2B0U C F 231;2B0U C G 234;8.67417
2B0U C F 231;2B0U C G 276;0.893321
2B0U C F 231;2B0U C V 277;23.8092
2B0U C K 232;2B0U C V 233;34.4875
2B0U C K 232;2B0U C G 234;1.41041
2B0U C V 233;2B0U C G 234;24.6225
2B0U C V 233;2B0U C R 235;29.6607
2B0U C G 234;2B0U C R 235;25.1308
2B0U C R 235;2B0U C G 236;29.5385
2B0U C R 235;2B0U C R 237;0.255951
2B0U C G 236;2B0U C R 237;22.9502
2B0U C R 237;2B0U C C 238;26.3485
2B0U C R 237;2B0U C S 239;14.1804
2B0U C R 237;2B0U C L 278;33.9987
2B0U C R 237;2B0U C E 280;17.9317
2B0U C C 238;2B0U C S 239;22.9566
2B0U C S 239;2B0U C L 240;28.8997
2B0U C S 239;2B0U C C 241;10.1988
2B0U C S 239;2B0U C C 273;1.23611
2B0U C S 239;2B0U C L 278;0.28322
2B0U C L 240;2B0U C C 241;25.3214
2B0U C L 240;2B0U C D 242;9.43697
2B0U C L 240;2B0U C E 243;0.99687
2B0U C L 240;2B0U C K 269;0.567925
2B0U C L 240;2B0U C C 273;5.55043
2B0U C C 241;2B0U C D 242;30.1832
2B0U C C 241;2B0U C E 243;8.90674
2B0U C C 241;2B0U C C 273;31.193
2B0U C D 242;2B0U C E 243;29.7862
2B0U C D 242;2B0U C L 244;4.23542
2B0U C E 243;2B0U C L 244;25.8646
2B0U C E 243;2B0U C C 245;4.11059
2B0U C E 243;2B0U C P 246;2.24743
2B0U C E 243;2B0U C C 266;21.6293
2B0U C E 243;2B0U C K 269;4.69367
2B0U C E 243;2B0U C E 270;8.12886
2B0U C L 244;2B0U C C 245;30.4013
2B0U C L 244;2B0U C P 246;5.65295
2B0U C L 244;2B0U C C 266;0.373854
2B0U C L 244;2B0U C E 270;9.28401
2B0U C C 245;2B0U C P 246;38.0761
2B0U C C 245;2B0U C D 247;5.61043
2B0U C C 245;2B0U C S 264;5.39402
2B0U C C 245;2B0U C C 266;33.6761
2B0U C C 245;2B0U C A 267;11.0261
2B0U C C 245;2B0U C E 270;17.4358
2B0U C P 246;2B0U C D 247;32.9681
2B0U C P 246;2B0U C S 248;10.371
2B0U C P 246;2B0U C D 251;6.2972
2B0U C P 246;2B0U C C 266;1.05763
2B0U C D 247;2B0U C S 248;37.4084
2B0U C D 247;2B0U C D 251;1.38863
2B0U C S 248;2B0U C K 249;29.9854
2B0U C S 248;2B0U C S 250;19.2868
2B0U C S 248;2B0U C D 251;24.6019
2B0U C K 249;2B0U C S 250;24.685
2B0U C K 249;2B0U C D 251;33.2823
2B0U C K 249;2B0U C P 253;2.6293
2B0U C K 249;2B0U C A 263;6.07686
2B0U C S 250;2B0U C D 251;21.0477
2B0U C S 250;2B0U C E 252;17.4002
2B0U C D 251;2B0U C E 252;22.0446
2B0U C D 251;2B0U C P 253;16.2951
2B0U C D 251;2B0U C A 263;15.465
2B0U C D 251;2B0U C S 264;19.2881
2B0U C E 252;2B0U C P 253;31.1061
2B0U C E 252;2B0U C V 254;7.83014
2B0U C E 252;2B0U C A 263;0.17941
2B0U C E 252;2B0U C S 264;7.30516
2B0U C E 252;2B0U C E 265;2.70978
2B0U C P 253;2B0U C V 254;21.8355
2B0U C P 253;2B0U C T 261;5.23108
2B0U C P 253;2B0U C Y 262;8.17225
2B0U C P 253;2B0U C A 263;19.6887
2B0U C P 253;2B0U C S 264;3.55093
2B0U C P 253;2B0U C G 285;28.6943
2B0U C P 253;2B0U C S 286;5.64538
2B0U C V 254;2B0U C C 255;22.4149
2B0U C V 254;2B0U C A 256;2.31894
2B0U C V 254;2B0U C A 260;1.19144
2B0U C V 254;2B0U C T 261;6.30319
2B0U C V 254;2B0U C Y 262;22.5918
2B0U C V 254;2B0U C S 264;6.75678
2B0U C V 254;2B0U C E 265;18.7732
2B0U C V 254;2B0U C M 268;12.9776
2B0U C V 254;2B0U C V 281;17.2406
2B0U C V 254;2B0U C H 283;5.51402
2B0U C V 254;2B0U C S 284;4.87556
2B0U C V 254;2B0U C G 285;5.82223
2B0U C V 254;2B0U C S 286;4.65343
2B0U C V 254;2B0U C C 287;0.181431
2B0U C C 255;2B0U C A 256;20.0406
2B0U C C 255;2B0U C N 259;14.5552
2B0U C C 255;2B0U C A 260;1.02686
2B0U C C 255;2B0U C T 261;0.56567
2B0U C C 255;2B0U C M 268;0.76103
2B0U C C 255;2B0U C V 281;2.93163
2B0U C C 255;2B0U C K 282;16.8518
2B0U C C 255;2B0U C H 283;23.789
2B0U C C 255;2B0U C S 284;0.737545
2B0U C C 255;2B0U C G 285;1.42274
2B0U C C 255;2B0U C S 286;11.5669
2B0U C C 255;2B0U C C 287;26.2116
2B0U C C 255;2B0U C N 288;0.37865
2B0U C A 256;2B0U C S 257;17.4095
2B0U C A 256;2B0U C D 258;9.39579
2B0U C A 256;2B0U C N 259;9.529
2B0U C A 256;2B0U C A 260;6.30046
2B0U C A 256;2B0U C Y 262;12.4054
2B0U C A 256;2B0U C M 268;14.0041
2B0U C A 256;2B0U C L 279;9.49674
2B0U C A 256;2B0U C E 280;4.22659
2B0U C A 256;2B0U C V 281;0.941152
2B0U C A 256;2B0U C K 282;10.8573
2B0U C A 256;2B0U C C 287;1.66945
2B0U C S 257;2B0U C D 258;23.1141
2B0U C S 257;2B0U C N 259;7.46474
2B0U C S 257;2B0U C L 278;7.66463
2B0U C S 257;2B0U C L 279;9.90733
2B0U C S 257;2B0U C E 280;27.2396
2B0U C S 257;2B0U C V 281;1.06082
2B0U C S 257;2B0U C K 282;14.0909
2B0U C D 258;2B0U C N 259;31.5384
2B0U C D 258;2B0U C A 260;15.6734
2B0U C D 258;2B0U C Y 262;14.655
2B0U C D 258;2B0U C L 279;19.9103
2B0U C N 259;2B0U C A 260;22.1917
2B0U C N 259;2B0U C K 282;29.4082
2B0U C N 259;2B0U C C 287;12.7765
2B0U C A 260;2B0U C T 261;22.7546
2B0U C A 260;2B0U C Y 262;24.6757
2B0U C A 260;2B0U C C 287;9.78844
2B0U C T 261;2B0U C Y 262;26.3975
2B0U C T 261;2B0U C A 263;2.08801
2B0U C T 261;2B0U C S 286;18.5228
2B0U C T 261;2B0U C C 287;29.5449
2B0U C Y 262;2B0U C A 263;22.4621
2B0U C Y 262;2B0U C S 264;6.94256
2B0U C Y 262;2B0U C A 267;11.8152
2B0U C Y 262;2B0U C M 268;17.3521
2B0U C Y 262;2B0U C A 271;17.602
2B0U C Y 262;2B0U C L 279;13.5541
2B0U C A 263;2B0U C S 264;21.8032
2B0U C A 263;2B0U C A 267;15.4056
2B0U C S 264;2B0U C E 265;19.4612
2B0U C S 264;2B0U C C 266;14.079
2B0U C S 264;2B0U C A 267;18.0702
2B0U C S 264;2B0U C M 268;5.06172
2B0U C E 265;2B0U C C 266;23.6537
2B0U C E 265;2B0U C A 267;0.553192
2B0U C E 265;2B0U C M 268;14.6819
2B0U C E 265;2B0U C K 269;34.4066
2B0U C E 265;2B0U C V 281;21.2634
2B0U C C 266;2B0U C A 267;14.1491
2B0U C C 266;2B0U C M 268;1.03055
2B0U C C 266;2B0U C K 269;14.3427
2B0U C C 266;2B0U C E 270;8.11075
2B0U C A 267;2B0U C M 268;14.4275
2B0U C A 267;2B0U C K 269;0.892916
2B0U C A 267;2B0U C E 270;18.1512
2B0U C A 267;2B0U C A 271;8.82005
2B0U C M 268;2B0U C K 269;27.164
2B0U C M 268;2B0U C E 270;0.891427
2B0U C M 268;2B0U C A 271;6.24051
2B0U C M 268;2B0U C A 272;5.80977
2B0U C M 268;2B0U C L 279;26.8306
2B0U C M 268;2B0U C E 280;9.8288
2B0U C M 268;2B0U C V 281;17.6419
2B0U C K 269;2B0U C E 270;19.4204
2B0U C K 269;2B0U C A 271;0.613048
2B0U C K 269;2B0U C A 272;11.2676
2B0U C K 269;2B0U C C 273;20.1384
2B0U C K 269;2B0U C L 279;8.46498
2B0U C K 269;2B0U C E 280;0.99608
2B0U C K 269;2B0U C V 281;2.48077
2B0U C E 270;2B0U C A 271;21.0849
2B0U C E 270;2B0U C A 272;0.670451
2B0U C E 270;2B0U C C 273;11.5634
2B0U C E 270;2B0U C S 274;12.4802
2B0U C A 271;2B0U C A 272;17.224
2B0U C A 271;2B0U C C 273;0.821732
2B0U C A 271;2B0U C S 274;15.6964
2B0U C A 271;2B0U C S 275;11.651
2B0U C A 271;2B0U C L 279;6.79179
2B0U C A 272;2B0U C C 273;17.251
2B0U C A 272;2B0U C S 274;0.576902
2B0U C A 272;2B0U C S 275;9.09519
2B0U C A 272;2B0U C G 276;5.28349
2B0U C A 272;2B0U C V 277;14.4392
2B0U C A 272;2B0U C L 278;1.63826
2B0U C A 272;2B0U C L 279;23.3928
2B0U C C 273;2B0U C S 274;19.7602
2B0U C C 273;2B0U C S 275;0.788443
2B0U C C 273;2B0U C G 276;6.78816
2B0U C S 274;2B0U C S 275;26.7927
2B0U C S 274;2B0U C G 276;3.27339
2B0U C S 275;2B0U C G 276;20.9539
2B0U C S 275;2B0U C V 277;26.6426
2B0U C S 275;2B0U C L 279;0.764193
2B0U C G 276;2B0U C V 277;20.7103
2B0U C V 277;2B0U C L 278;26.7555
2B0U C V 277;2B0U C L 279;11.5482
2B0U C L 278;2B0U C L 279;34.7047
2B0U C L 278;2B0U C E 280;23.3076
2B0U C L 279;2B0U C E 280;22.6336
2B0U C E 280;2B0U C V 281;29.9531
2B0U C E 280;2B0U C K 282;0.869697
2B0U C V 281;2B0U C K 282;33.8233
2B0U C V 281;2B0U C H 283;9.6267
2B0U C V 281;2B0U C S 284;0.176214
2B0U C K 282;2B0U C H 283;34.9758
2B0U C H 283;2B0U C S 284;37.3688
2B0U C H 283;2B0U C G 285;0.686175
2B0U C H 283;2B0U C S 286;2.25967
2B0U C S 284;2B0U C G 285;31.7354
2B0U C S 284;2B0U C S 286;3.54226
2B0U C G 285;2B0U C S 286;30.47
2B0U C S 286;2B0U C C 287;17.7683
2B0U C S 286;2B0U C N 288;28.499
2B0U C C 287;2B0U C N 288;32.1565
