V1;V2;Weight
3KUD A M 1;3KUD A T 2;32.0816
3KUD A M 1;3KUD A E 3;5.94402
3KUD A M 1;3KUD A Q 43;23.5919
3KUD A M 1;3KUD A T 50;25.7792
3KUD A M 1;3KUD A C 51;11.1762
3KUD A M 1;3KUD A L 52;24.1018
3KUD A T 2;3KUD A E 3;31.6656
3KUD A T 2;3KUD A Y 4;23.9033
3KUD A T 2;3KUD A E 49;17.6621
3KUD A T 2;3KUD A T 50;2.03379
3KUD A T 2;3KUD A C 51;11.8969
3KUD A T 2;3KUD A L 52;8.27007
3KUD A E 3;3KUD A Y 4;24.1987
3KUD A E 3;3KUD A K 5;23.287
3KUD A E 3;3KUD A R 41;15.8212
3KUD A E 3;3KUD A L 52;19.9373
3KUD A E 3;3KUD A D 54;10.7717
3KUD A E 3;3KUD A E 76;11.8656
3KUD A Y 4;3KUD A K 5;16.2117
3KUD A Y 4;3KUD A L 6;13.7124
3KUD A Y 4;3KUD A I 46;0.185604
3KUD A Y 4;3KUD A E 49;15.2629
3KUD A Y 4;3KUD A C 51;14.9575
3KUD A Y 4;3KUD A L 52;11.2476
3KUD A Y 4;3KUD A L 53;14.5011
3KUD A Y 4;3KUD A D 54;10.4256
3KUD A Y 4;3KUD A E 76;7.74791
3KUD A Y 4;3KUD A V 160;21.6904
3KUD A Y 4;3KUD A I 163;23.2933
3KUD A Y 4;3KUD A R 164;23.7272
3KUD A K 5;3KUD A L 6;21.2382
3KUD A K 5;3KUD A V 7;3.58775
3KUD A K 5;3KUD A D 54;28.0643
3KUD A K 5;3KUD A T 74;32.529
3KUD A K 5;3KUD A G 75;8.58566
3KUD A K 5;3KUD A E 76;27.8502
3KUD A K 5;3KUD A G 77;5.82756
3KUD A K 5;3KUD A I 163;1.56556
3KUD A L 6;3KUD A V 7;24.0131
3KUD A L 6;3KUD A V 8;2.6222
3KUD A L 6;3KUD A L 53;13.58
3KUD A L 6;3KUD A D 54;11.0218
3KUD A L 6;3KUD A I 55;21.1703
3KUD A L 6;3KUD A L 56;8.28292
3KUD A L 6;3KUD A G 77;6.34704
3KUD A L 6;3KUD A L 79;0.180584
3KUD A L 6;3KUD A F 156;20.3734
3KUD A L 6;3KUD A L 159;20.3348
3KUD A L 6;3KUD A V 160;10.8781
3KUD A L 6;3KUD A I 163;12.1564
3KUD A V 7;3KUD A V 8;22.3395
3KUD A V 7;3KUD A V 9;9.95248
3KUD A V 7;3KUD A I 55;0.126486
3KUD A V 7;3KUD A L 56;26.3803
3KUD A V 7;3KUD A T 58;7.43903
3KUD A V 7;3KUD A Y 71;5.88565
3KUD A V 7;3KUD A M 72;9.4682
3KUD A V 7;3KUD A T 74;1.0347
3KUD A V 7;3KUD A G 75;15.333
3KUD A V 7;3KUD A G 77;9.88978
3KUD A V 7;3KUD A F 78;21.7098
3KUD A V 7;3KUD A L 79;10.3167
3KUD A V 7;3KUD A L 159;1.79141
3KUD A V 8;3KUD A V 9;17.7006
3KUD A V 8;3KUD A K 16;22.9283
3KUD A V 8;3KUD A L 19;2.92703
3KUD A V 8;3KUD A T 20;8.402
3KUD A V 8;3KUD A I 55;11.0718
3KUD A V 8;3KUD A L 56;8.98446
3KUD A V 8;3KUD A D 57;11.513
3KUD A V 8;3KUD A T 58;12.1029
3KUD A V 8;3KUD A L 79;21.3129
3KUD A V 8;3KUD A V 81;9.09322
3KUD A V 8;3KUD A F 156;8.04879
3KUD A V 9;3KUD A G 10;20.797
3KUD A V 9;3KUD A K 16;9.38263
3KUD A V 9;3KUD A T 58;14.9229
3KUD A V 9;3KUD A R 68;4.34207
3KUD A V 9;3KUD A M 72;12.3196
3KUD A V 9;3KUD A F 78;8.2338
3KUD A V 9;3KUD A L 79;11.4722
3KUD A V 9;3KUD A C 80;15.0563
3KUD A V 9;3KUD A V 81;10.3232
3KUD A V 9;3KUD A Y 96;21.0127
3KUD A V 9;3KUD A I 100;10.736
3KUD A G 10;3KUD A A 11;18.7056
3KUD A G 10;3KUD A V 14;3.42314
3KUD A G 10;3KUD A K 16;13.1136
3KUD A G 10;3KUD A T 58;0.628843
3KUD A G 10;3KUD A A 59;1.51467
3KUD A G 10;3KUD A G 60;7.15174
3KUD A G 10;3KUD A C 80;0.219605
3KUD A G 10;3KUD A V 81;9.3523
3KUD A G 10;3KUD A I 93;3.91399
3KUD A G 10;3KUD A Y 96;22.3245
3KUD A A 11;3KUD A G 12;20.5504
3KUD A A 11;3KUD A G 13;0.588032
3KUD A A 11;3KUD A V 14;18.077
3KUD A A 11;3KUD A K 16;6.13149
3KUD A A 11;3KUD A G 60;3.57543
3KUD A A 11;3KUD A Q 61;13.1003
3KUD A A 11;3KUD A V 81;2.17634
3KUD A A 11;3KUD A N 86;1.49885
3KUD A A 11;3KUD A K 88;0.962409
3KUD A A 11;3KUD A S 89;16.2215
3KUD A A 11;3KUD A D 92;13.1653
3KUD A A 11;3KUD A I 93;0.0763862
3KUD A A 11;3KUD A Y 96;9.90823
3KUD A G 12;3KUD A G 13;23.5123
3KUD A G 12;3KUD A V 14;6.29181
3KUD A G 12;3KUD A K 16;1.68505
3KUD A G 12;3KUD A Y 32;7.69905
3KUD A G 12;3KUD A G 60;10.3101
3KUD A G 12;3KUD A Q 61;16.8702
3KUD A G 12;3KUD A E 62;11.1529
3KUD A G 12;3KUD A N 86;7.22181
3KUD A G 13;3KUD A V 14;19.9714
3KUD A G 13;3KUD A G 15;8.26707
3KUD A G 13;3KUD A K 16;4.24663
3KUD A G 13;3KUD A Y 32;28.1325
3KUD A G 13;3KUD A A 83;0.294216
3KUD A G 13;3KUD A N 86;2.39606
3KUD A G 13;3KUD A K 117;17.0407
3KUD A V 14;3KUD A G 15;20.1613
3KUD A V 14;3KUD A K 16;14.9675
3KUD A V 14;3KUD A V 81;18.9396
3KUD A V 14;3KUD A F 82;8.63802
3KUD A V 14;3KUD A A 83;16.8438
3KUD A V 14;3KUD A N 86;5.70903
3KUD A V 14;3KUD A S 89;10.2377
3KUD A V 14;3KUD A N 116;9.68184
3KUD A V 14;3KUD A K 117;9.72014
3KUD A G 15;3KUD A K 16;21.9846
3KUD A G 15;3KUD A S 17;2.97728
3KUD A G 15;3KUD A A 18;15.969
3KUD A G 15;3KUD A L 19;14.4945
3KUD A G 15;3KUD A V 81;1.61787
3KUD A G 15;3KUD A N 116;10.3382
3KUD A G 15;3KUD A K 117;4.20312
3KUD A G 15;3KUD A A 146;0.997749
3KUD A K 16;3KUD A S 17;23.01
3KUD A K 16;3KUD A A 18;0.345802
3KUD A K 16;3KUD A L 19;10.1329
3KUD A K 16;3KUD A T 20;10.8716
3KUD A K 16;3KUD A D 57;12.0679
3KUD A K 16;3KUD A T 58;14.178
3KUD A K 16;3KUD A A 59;2.17214
3KUD A K 16;3KUD A G 60;12.7548
3KUD A K 16;3KUD A V 81;10.3722
3KUD A S 17;3KUD A A 18;23.7553
3KUD A S 17;3KUD A L 19;1.43275
3KUD A S 17;3KUD A T 20;9.41324
3KUD A S 17;3KUD A I 21;19.1715
3KUD A S 17;3KUD A V 29;3.05663
3KUD A S 17;3KUD A D 33;6.77383
3KUD A S 17;3KUD A T 35;15.6524
3KUD A S 17;3KUD A Y 40;3.68613
3KUD A S 17;3KUD A D 57;17.1557
3KUD A S 17;3KUD A T 58;0.00988193
3KUD A A 18;3KUD A L 19;15.1416
3KUD A A 18;3KUD A T 20;0.677096
3KUD A A 18;3KUD A I 21;7.43803
3KUD A A 18;3KUD A Q 22;11.2887
3KUD A A 18;3KUD A H 27;0.812011
3KUD A A 18;3KUD A F 28;12.5943
3KUD A A 18;3KUD A V 29;21.3528
3KUD A A 18;3KUD A N 116;0.0803038
3KUD A A 18;3KUD A A 146;14.5486
3KUD A L 19;3KUD A T 20;17.3045
3KUD A L 19;3KUD A I 21;0.477196
3KUD A L 19;3KUD A Q 22;6.64051
3KUD A L 19;3KUD A L 23;7.15625
3KUD A L 19;3KUD A L 79;7.58923
3KUD A L 19;3KUD A V 81;12.156
3KUD A L 19;3KUD A V 114;7.85233
3KUD A L 19;3KUD A N 116;12.9221
3KUD A L 19;3KUD A T 144;14.1715
3KUD A L 19;3KUD A S 145;0.695993
3KUD A L 19;3KUD A A 146;16.627
3KUD A L 19;3KUD A V 152;19.8104
3KUD A L 19;3KUD A A 155;2.49184
3KUD A L 19;3KUD A F 156;15.3682
3KUD A T 20;3KUD A I 21;20.8431
3KUD A T 20;3KUD A Q 22;0.957321
3KUD A T 20;3KUD A L 23;9.98109
3KUD A T 20;3KUD A I 24;16.3663
3KUD A T 20;3KUD A Y 40;15.6747
3KUD A T 20;3KUD A I 55;16.8304
3KUD A T 20;3KUD A D 57;10.0009
3KUD A T 20;3KUD A F 156;11.6907
3KUD A I 21;3KUD A Q 22;17.1382
3KUD A I 21;3KUD A L 23;0.785953
3KUD A I 21;3KUD A I 24;15.3859
3KUD A I 21;3KUD A Q 25;15.0181
3KUD A I 21;3KUD A N 26;2.13839
3KUD A I 21;3KUD A H 27;16.7304
3KUD A I 21;3KUD A V 29;20.1815
3KUD A I 21;3KUD A Y 40;21.293
3KUD A I 21;3KUD B V 88;21.5158
3KUD A Q 22;3KUD A L 23;17.7277
3KUD A Q 22;3KUD A I 24;0.57848
3KUD A Q 22;3KUD A Q 25;0.28366
3KUD A Q 22;3KUD A N 26;22.1805
3KUD A Q 22;3KUD A H 27;15.5384
3KUD A Q 22;3KUD A F 28;12.588
3KUD A Q 22;3KUD A A 146;17.897
3KUD A Q 22;3KUD A K 147;5.94095
3KUD A Q 22;3KUD A R 149;33.2005
3KUD A Q 22;3KUD A V 152;11.1122
3KUD A L 23;3KUD A I 24;25.369
3KUD A L 23;3KUD A Q 25;1.47194
3KUD A L 23;3KUD A N 26;3.99165
3KUD A L 23;3KUD A K 42;14.4704
3KUD A L 23;3KUD A V 44;5.24301
3KUD A L 23;3KUD A L 53;12.7518
3KUD A L 23;3KUD A I 55;10.2539
3KUD A L 23;3KUD A R 149;14.7195
3KUD A L 23;3KUD A V 152;13.9064
3KUD A L 23;3KUD A E 153;11.9442
3KUD A L 23;3KUD A F 156;28.3137
3KUD A L 23;3KUD A Y 157;11.5938
3KUD A I 24;3KUD A Q 25;30.6918
3KUD A I 24;3KUD A N 26;0.353297
3KUD A I 24;3KUD A Y 40;23.5909
3KUD A I 24;3KUD A R 41;2.28746
3KUD A I 24;3KUD A K 42;41.0531
3KUD A I 24;3KUD A L 53;0.0177836
3KUD A I 24;3KUD A I 55;10.8388
3KUD A I 24;3KUD B V 88;11.7501
3KUD A I 24;3KUD B R 89;6.05032
3KUD A I 24;3KUD B G 90;2.77332e-05
3KUD A Q 25;3KUD A N 26;29.7343
3KUD A Q 25;3KUD A H 27;20.5396
3KUD A Q 25;3KUD A K 42;0.085271
3KUD A Q 25;3KUD B K 87;9.17561
3KUD A Q 25;3KUD B V 88;22.0835
3KUD A Q 25;3KUD B G 90;13.7062
3KUD A N 26;3KUD A H 27;23.2209
3KUD A N 26;3KUD A F 28;0.5647
3KUD A N 26;3KUD A K 42;5.56784
3KUD A N 26;3KUD A R 149;28.8006
3KUD A H 27;3KUD A F 28;36.4454
3KUD A H 27;3KUD A V 29;16.9703
3KUD A H 27;3KUD A D 30;3.49459
3KUD A H 27;3KUD A E 31;8.44333
3KUD A H 27;3KUD B K 84;2.56772
3KUD A H 27;3KUD B V 88;9.4001
3KUD A F 28;3KUD A V 29;28.9776
3KUD A F 28;3KUD A D 30;34.8889
3KUD A F 28;3KUD A A 146;14.3349
3KUD A F 28;3KUD A K 147;43.296
3KUD A V 29;3KUD A D 30;18.7379
3KUD A V 29;3KUD A E 31;36.6039
3KUD A V 29;3KUD A D 33;5.42734
3KUD A V 29;3KUD B K 84;0.713291
3KUD A V 29;3KUD B V 88;6.32024
3KUD A D 30;3KUD A E 31;43.3563
3KUD A D 30;3KUD A Y 32;2.80312
3KUD A E 31;3KUD A Y 32;30.74
3KUD A E 31;3KUD A D 33;13.5086
3KUD A E 31;3KUD B K 84;30.1419
3KUD A Y 32;3KUD A D 33;27.6384
3KUD A Y 32;3KUD A P 34;39.3943
3KUD A Y 32;3KUD A E 62;10.7901
3KUD A D 33;3KUD A P 34;39.1001
3KUD A D 33;3KUD A T 35;7.24355
3KUD A D 33;3KUD B N 71;1.59407
3KUD A D 33;3KUD B K 84;4.47881
3KUD A D 33;3KUD B K 85;17.398
3KUD A P 34;3KUD A T 35;30.0307
3KUD A P 34;3KUD A I 36;8.75416
3KUD A P 34;3KUD A E 62;16.12
3KUD A P 34;3KUD A Y 64;7.40219
3KUD A T 35;3KUD A I 36;25.5189
3KUD A T 35;3KUD A E 37;6.84687
3KUD A T 35;3KUD A D 38;15.9501
3KUD A T 35;3KUD A D 57;14.3915
3KUD A T 35;3KUD A T 58;11.0551
3KUD A T 35;3KUD A A 59;13.7245
3KUD A T 35;3KUD A G 60;3.96435
3KUD A T 35;3KUD A E 62;4.35488
3KUD A T 35;3KUD A Y 64;6.37495
3KUD A T 35;3KUD B K 85;0.822107
3KUD A I 36;3KUD A E 37;26.1355
3KUD A I 36;3KUD A D 38;1.57674
3KUD A I 36;3KUD A T 58;0.384758
3KUD A I 36;3KUD A A 59;9.42198
3KUD A I 36;3KUD A Y 64;31.1099
3KUD A I 36;3KUD A M 67;15.6784
3KUD A I 36;3KUD B T 57;11.0681
3KUD A I 36;3KUD B V 69;35.4691
3KUD A I 36;3KUD B V 70;0.393
3KUD A I 36;3KUD B N 71;14.9549
3KUD A E 37;3KUD A D 38;24.7493
3KUD A E 37;3KUD A S 39;0.157526
3KUD A E 37;3KUD A L 56;20.7506
3KUD A E 37;3KUD A D 57;5.55203
3KUD A E 37;3KUD A T 58;2.79065
3KUD A E 37;3KUD A M 67;27.0992
3KUD A E 37;3KUD A Y 71;1.54412
3KUD A E 37;3KUD B R 59;0.859701
3KUD A E 37;3KUD B R 67;1.97991
3KUD A E 37;3KUD B R 67;21.2328
3KUD A E 37;3KUD B T 68;4.79317
3KUD A E 37;3KUD B V 69;23.7415
3KUD A D 38;3KUD A S 39;18.2465
3KUD A D 38;3KUD A Y 40;19.6967
3KUD A D 38;3KUD A I 55;0.952675
3KUD A D 38;3KUD A L 56;7.41172
3KUD A D 38;3KUD A D 57;23.3928
3KUD A D 38;3KUD B R 67;5.22829
3KUD A D 38;3KUD B R 67;0.452148
3KUD A D 38;3KUD B T 68;12.8467
3KUD A D 38;3KUD B V 69;5.34791
3KUD A D 38;3KUD B K 85;15.8985
3KUD A D 38;3KUD B R 89;11.3408
3KUD A S 39;3KUD A Y 40;22.9479
3KUD A S 39;3KUD A R 41;0.613667
3KUD A S 39;3KUD A D 54;10.2595
3KUD A S 39;3KUD A I 55;7.2129
3KUD A S 39;3KUD A L 56;16.6742
3KUD A S 39;3KUD B K 65;7.6451
3KUD A S 39;3KUD B Q 66;13.1626
3KUD A S 39;3KUD B R 67;10.8685
3KUD A S 39;3KUD B R 67;14.2373
3KUD A S 39;3KUD B R 89;9.2318
3KUD A Y 40;3KUD A R 41;24.9824
3KUD A Y 40;3KUD A K 42;0.00360729
3KUD A Y 40;3KUD A L 53;2.12932
3KUD A Y 40;3KUD A D 54;5.96303
3KUD A Y 40;3KUD A I 55;26.7847
3KUD A Y 40;3KUD A D 57;10.9548
3KUD A Y 40;3KUD B Q 66;9.21608
3KUD A Y 40;3KUD B K 85;4.10761
3KUD A Y 40;3KUD B V 88;8.61759
3KUD A Y 40;3KUD B R 89;29.3073
3KUD A R 41;3KUD A K 42;27.5698
3KUD A R 41;3KUD A L 52;36.9144
3KUD A R 41;3KUD A L 53;6.59795
3KUD A R 41;3KUD A D 54;28.0085
3KUD A R 41;3KUD A I 55;0.00243431
3KUD A R 41;3KUD B N 64;18.1951
3KUD A R 41;3KUD B K 65;34.3041
3KUD A R 41;3KUD B Q 66;25.2826
3KUD A K 42;3KUD A Q 43;34.307
3KUD A K 42;3KUD A V 44;22.5888
3KUD A K 42;3KUD A C 51;1.27707
3KUD A K 42;3KUD A L 52;12.8788
3KUD A K 42;3KUD A L 53;23.594
3KUD A K 42;3KUD A I 55;1.65711
3KUD A Q 43;3KUD A V 44;27.7002
3KUD A Q 43;3KUD A V 45;0.203552
3KUD A Q 43;3KUD A T 50;20.4879
3KUD A Q 43;3KUD A C 51;6.3712
3KUD A Q 43;3KUD A L 52;11.1115
3KUD A V 44;3KUD A V 45;30.5612
3KUD A V 44;3KUD A I 46;12.0379
3KUD A V 44;3KUD A E 49;0.672494
3KUD A V 44;3KUD A T 50;6.70796
3KUD A V 44;3KUD A C 51;23.6273
3KUD A V 44;3KUD A L 53;21.9588
3KUD A V 44;3KUD A Y 157;12.0287
3KUD A V 45;3KUD A I 46;23.5202
3KUD A V 45;3KUD A D 47;1.70321
3KUD A V 45;3KUD A G 48;20.2426
3KUD A V 45;3KUD A E 49;8.35189
3KUD A V 45;3KUD A T 50;21.349
3KUD A V 45;3KUD A C 51;0.272004
3KUD A V 45;3KUD A Y 157;12.144
3KUD A I 46;3KUD A D 47;29.1416
3KUD A I 46;3KUD A G 48;2.47753
3KUD A I 46;3KUD A E 49;14.6971
3KUD A I 46;3KUD A C 51;11.5938
3KUD A I 46;3KUD A L 53;9.90064
3KUD A I 46;3KUD A F 156;0.0483353
3KUD A I 46;3KUD A Y 157;33.7775
3KUD A I 46;3KUD A V 160;19.5332
3KUD A I 46;3KUD A R 161;6.95194
3KUD A I 46;3KUD A R 164;17.5977
3KUD A D 47;3KUD A G 48;27.5624
3KUD A D 47;3KUD A E 49;6.6476
3KUD A D 47;3KUD A Y 157;0.745606
3KUD A D 47;3KUD A R 161;29.7152
3KUD A D 47;3KUD A R 164;15.4588
3KUD A G 48;3KUD A E 49;21.7381
3KUD A G 48;3KUD A T 50;4.15935
3KUD A E 49;3KUD A T 50;28.0244
3KUD A E 49;3KUD A C 51;15.3557
3KUD A E 49;3KUD A R 164;17.5598
3KUD A T 50;3KUD A C 51;19.0959
3KUD A C 51;3KUD A L 52;18.7113
3KUD A C 51;3KUD A L 53;5.03597
3KUD A C 51;3KUD A V 160;0.542827
3KUD A C 51;3KUD A R 164;3.71901
3KUD A L 52;3KUD A L 53;24.0157
3KUD A L 52;3KUD A D 54;4.79011
3KUD A L 53;3KUD A D 54;16.633
3KUD A L 53;3KUD A I 55;19.0557
3KUD A L 53;3KUD A F 156;5.70144
3KUD A L 53;3KUD A Y 157;5.09799
3KUD A L 53;3KUD A V 160;9.62788
3KUD A D 54;3KUD A I 55;21.1798
3KUD A D 54;3KUD A L 56;2.85221
3KUD A D 54;3KUD B K 65;7.3527
3KUD A I 55;3KUD A L 56;19.5373
3KUD A I 55;3KUD A D 57;6.33844
3KUD A I 55;3KUD A F 156;13.086
3KUD A L 56;3KUD A D 57;21.5828
3KUD A L 56;3KUD A T 58;14.5084
3KUD A L 56;3KUD A M 67;4.29442
3KUD A L 56;3KUD A R 68;4.18627
3KUD A L 56;3KUD A Y 71;18.8875
3KUD A L 56;3KUD A M 72;0.0141354
3KUD A L 56;3KUD B R 67;0.733249
3KUD A D 57;3KUD A T 58;27.3732
3KUD A T 58;3KUD A A 59;22.6232
3KUD A T 58;3KUD A G 60;2.21962
3KUD A T 58;3KUD A M 67;7.75981
3KUD A T 58;3KUD A R 68;18.8645
3KUD A T 58;3KUD A Y 71;6.02488e-06
3KUD A T 58;3KUD A M 72;2.55684
3KUD A T 58;3KUD A Y 96;0.0912963
3KUD A A 59;3KUD A G 60;22.1121
3KUD A A 59;3KUD A E 62;5.51619
3KUD A A 59;3KUD A E 63;1.55297
3KUD A A 59;3KUD A Y 64;16.9043
3KUD A A 59;3KUD A M 67;11.1244
3KUD A A 59;3KUD A R 68;11.2855
3KUD A A 59;3KUD A Y 96;0.107372
3KUD A G 60;3KUD A Q 61;18.1728
3KUD A G 60;3KUD A E 62;9.07856
3KUD A G 60;3KUD A E 63;1.6061
3KUD A G 60;3KUD A Y 64;0.0035978
3KUD A G 60;3KUD A R 68;6.7446
3KUD A G 60;3KUD A Y 96;5.57872
3KUD A Q 61;3KUD A E 62;38.003
3KUD A Q 61;3KUD A E 63;29.7743
3KUD A Q 61;3KUD A R 68;1.21537
3KUD A Q 61;3KUD A K 88;17.4299
3KUD A Q 61;3KUD A D 92;9.5188
3KUD A Q 61;3KUD A Y 96;13.7036
3KUD A E 62;3KUD A E 63;16.8561
3KUD A E 62;3KUD A Y 64;16.4777
3KUD A E 63;3KUD A Y 64;54.6417
3KUD A E 63;3KUD A S 65;23.1771
3KUD A E 63;3KUD A A 66;0.0270092
3KUD A E 63;3KUD A R 68;4.85274
3KUD A Y 64;3KUD A S 65;19.896
3KUD A Y 64;3KUD A A 66;6.16699
3KUD A Y 64;3KUD A M 67;18.3869
3KUD A Y 64;3KUD A R 68;5.11096
3KUD A S 65;3KUD A A 66;25.8308
3KUD A S 65;3KUD A M 67;7.68554
3KUD A S 65;3KUD A R 68;28.9611
3KUD A S 65;3KUD A D 69;6.28041
3KUD A A 66;3KUD A M 67;26.2435
3KUD A A 66;3KUD A D 69;10.2632
3KUD A M 67;3KUD A R 68;37.1938
3KUD A M 67;3KUD A D 69;7.99195
3KUD A M 67;3KUD A Y 71;18.9277
3KUD A R 68;3KUD A D 69;25.043
3KUD A R 68;3KUD A Y 71;15.3138
3KUD A R 68;3KUD A M 72;24.5621
3KUD A R 68;3KUD A Y 96;21.2987
3KUD A R 68;3KUD A Q 99;12.911
3KUD A R 68;3KUD A V 103;0.0751879
3KUD A D 69;3KUD A Q 70;25.1567
3KUD A D 69;3KUD A Y 71;11.1106
3KUD A D 69;3KUD A M 72;3.01349
3KUD A D 69;3KUD A Q 99;15.8808
3KUD A D 69;3KUD A R 102;0.574697
3KUD A D 69;3KUD A V 103;17.8911
3KUD A Q 70;3KUD A Y 71;46.3248
3KUD A Q 70;3KUD A M 72;6.13653
3KUD A Q 70;3KUD A R 73;20.8503
3KUD A Q 70;3KUD A T 74;21.2106
3KUD A Q 70;3KUD A V 103;5.24374
3KUD A Y 71;3KUD A M 72;23.3831
3KUD A Y 71;3KUD A T 74;17.6872
3KUD A M 72;3KUD A R 73;14.8567
3KUD A M 72;3KUD A T 74;5.37507
3KUD A M 72;3KUD A G 75;8.77427
3KUD A M 72;3KUD A F 78;22.4543
3KUD A M 72;3KUD A Q 99;14.2269
3KUD A M 72;3KUD A I 100;17.0015
3KUD A M 72;3KUD A V 103;20.0305
3KUD A M 72;3KUD A K 104;12.0297
3KUD A R 73;3KUD A T 74;24.439
3KUD A R 73;3KUD A G 75;1.17022
3KUD A R 73;3KUD A V 103;23.3033
3KUD A R 73;3KUD A K 104;43.386
3KUD A R 73;3KUD A D 105;0.460014
3KUD A T 74;3KUD A G 75;26.065
3KUD A T 74;3KUD A E 76;8.03413
3KUD A T 74;3KUD A K 104;0.542702
3KUD A G 75;3KUD A E 76;21.763
3KUD A G 75;3KUD A G 77;2.47926
3KUD A G 75;3KUD A F 78;11.6856
3KUD A G 75;3KUD A K 104;14.2116
3KUD A E 76;3KUD A G 77;17.4592
3KUD A E 76;3KUD A F 78;3.75403
3KUD A E 76;3KUD A K 104;2.53916
3KUD A E 76;3KUD A V 109;2.82026
3KUD A E 76;3KUD A P 110;14.3767
3KUD A E 76;3KUD A I 163;27.9659
3KUD A G 77;3KUD A F 78;22.4317
3KUD A G 77;3KUD A P 110;6.4389
3KUD A G 77;3KUD A L 159;11.6542
3KUD A G 77;3KUD A I 163;8.28312
3KUD A F 78;3KUD A L 79;18.148
3KUD A F 78;3KUD A C 80;5.72434
3KUD A F 78;3KUD A I 100;25.2431
3KUD A F 78;3KUD A K 104;9.51077
3KUD A F 78;3KUD A V 109;10.6629
3KUD A F 78;3KUD A P 110;8.66312
3KUD A F 78;3KUD A M 111;17.848
3KUD A F 78;3KUD A V 112;6.30946
3KUD A F 78;3KUD A L 159;11.8168
3KUD A L 79;3KUD A C 80;16.8452
3KUD A L 79;3KUD A V 81;12.3312
3KUD A L 79;3KUD A V 112;14.0039
3KUD A L 79;3KUD A V 114;14.2173
3KUD A L 79;3KUD A A 155;13.8594
3KUD A L 79;3KUD A F 156;24.5957
3KUD A L 79;3KUD A L 159;19.1932
3KUD A C 80;3KUD A V 81;18.3508
3KUD A C 80;3KUD A F 82;0.319218
3KUD A C 80;3KUD A I 93;18.7528
3KUD A C 80;3KUD A Y 96;6.261
3KUD A C 80;3KUD A R 97;6.26008
3KUD A C 80;3KUD A I 100;7.5145
3KUD A C 80;3KUD A M 111;16.3523
3KUD A C 80;3KUD A V 112;10.3508
3KUD A C 80;3KUD A L 113;14.0122
3KUD A C 80;3KUD A V 114;9.24667
3KUD A C 80;3KUD A I 139;1.60356
3KUD A V 81;3KUD A F 82;22.8504
3KUD A V 81;3KUD A S 89;0.989389
3KUD A V 81;3KUD A I 93;10.7223
3KUD A V 81;3KUD A V 114;18.9148
3KUD A V 81;3KUD A N 116;7.08551
3KUD A F 82;3KUD A A 83;24.0917
3KUD A F 82;3KUD A I 84;9.3054
3KUD A F 82;3KUD A N 86;0.50053
3KUD A F 82;3KUD A S 89;13.0073
3KUD A F 82;3KUD A F 90;23.3255
3KUD A F 82;3KUD A I 93;11.8557
3KUD A F 82;3KUD A L 113;13.5045
3KUD A F 82;3KUD A V 114;12.4057
3KUD A F 82;3KUD A G 115;13.8313
3KUD A F 82;3KUD A N 116;8.35162
3KUD A F 82;3KUD A V 125;14.2542
3KUD A F 82;3KUD A A 130;7.48595
3KUD A F 82;3KUD A Y 141;11.0413
3KUD A A 83;3KUD A I 84;15.3703
3KUD A A 83;3KUD A N 85;10.8111
3KUD A A 83;3KUD A N 86;19.9354
3KUD A A 83;3KUD A S 89;6.62798
3KUD A A 83;3KUD A G 115;0.100664
3KUD A A 83;3KUD A N 116;7.51487
3KUD A A 83;3KUD A K 117;13.061
3KUD A A 83;3KUD A V 125;2.95571
3KUD A I 84;3KUD A N 85;21.8675
3KUD A I 84;3KUD A N 86;1.64624
3KUD A I 84;3KUD A G 115;9.95723
3KUD A I 84;3KUD A N 116;11.255
3KUD A I 84;3KUD A K 117;11.0195
3KUD A I 84;3KUD A C 118;15.4795
3KUD A I 84;3KUD A L 120;12.403
3KUD A I 84;3KUD A A 122;0.338711
3KUD A I 84;3KUD A R 123;38.728
3KUD A I 84;3KUD A T 124;6.01426
3KUD A I 84;3KUD A V 125;18.7106
3KUD A I 84;3KUD A Y 141;4.29825
3KUD A I 84;3KUD A E 143;6.74869
3KUD A N 85;3KUD A N 86;29.0293
3KUD A N 85;3KUD A T 87;0.0279803
3KUD A N 85;3KUD A K 117;15.3882
3KUD A N 85;3KUD A L 120;22.7927
3KUD A N 85;3KUD A A 122;21.5791
3KUD A N 85;3KUD A R 123;1.25539
3KUD A N 85;3KUD A T 124;12.06
3KUD A N 86;3KUD A T 87;21.7266
3KUD A N 86;3KUD A K 88;14.2495
3KUD A N 86;3KUD A S 89;23.9556
3KUD A N 86;3KUD A F 90;4.68416
3KUD A N 86;3KUD A T 124;2.38919
3KUD A N 86;3KUD A V 125;4.44667
3KUD A T 87;3KUD A K 88;22.3699
3KUD A T 87;3KUD A S 89;0.845218
3KUD A T 87;3KUD A F 90;12.0495
3KUD A T 87;3KUD A E 91;28.8776
3KUD A T 87;3KUD A T 124;26.3992
3KUD A T 87;3KUD A V 125;12.3609
3KUD A K 88;3KUD A S 89;17.5756
3KUD A K 88;3KUD A F 90;1.10108
3KUD A K 88;3KUD A E 91;22.9088
3KUD A K 88;3KUD A D 92;31.7097
3KUD A S 89;3KUD A F 90;15.3253
3KUD A S 89;3KUD A E 91;0.634471
3KUD A S 89;3KUD A D 92;12.3495
3KUD A S 89;3KUD A I 93;9.14814
3KUD A F 90;3KUD A E 91;29.5867
3KUD A F 90;3KUD A D 92;1.27084
3KUD A F 90;3KUD A I 93;17.3568
3KUD A F 90;3KUD A H 94;0.795198
3KUD A F 90;3KUD A L 113;3.98153
3KUD A F 90;3KUD A V 125;23.1206
3KUD A F 90;3KUD A Q 129;26.3335
3KUD A F 90;3KUD A A 130;10.3688
3KUD A F 90;3KUD A L 133;24.4263
3KUD A E 91;3KUD A D 92;21.7669
3KUD A E 91;3KUD A I 93;1.97392
3KUD A E 91;3KUD A H 94;12.9855
3KUD A E 91;3KUD A Q 95;3.63527
3KUD A D 92;3KUD A I 93;15.7183
3KUD A D 92;3KUD A H 94;3.07906
3KUD A D 92;3KUD A Q 95;29.7372
3KUD A D 92;3KUD A Y 96;21.1752
3KUD A I 93;3KUD A H 94;19.6786
3KUD A I 93;3KUD A Q 95;1.05963
3KUD A I 93;3KUD A Y 96;17.6725
3KUD A I 93;3KUD A R 97;11.0333
3KUD A I 93;3KUD A L 113;16.3012
3KUD A I 93;3KUD A L 133;13.2668
3KUD A I 93;3KUD A Y 137;10.4852
3KUD A H 94;3KUD A Q 95;23.8823
3KUD A H 94;3KUD A Y 96;0.55405
3KUD A H 94;3KUD A R 97;9.43065
3KUD A H 94;3KUD A E 98;37.5381
3KUD A H 94;3KUD A L 133;2.19633
3KUD A H 94;3KUD A Y 137;25.8194
3KUD A Q 95;3KUD A Y 96;24.5214
3KUD A Q 95;3KUD A R 97;0.590534
3KUD A Q 95;3KUD A E 98;12.9343
3KUD A Q 95;3KUD A Q 99;12.6668
3KUD A Y 96;3KUD A R 97;16.7186
3KUD A Y 96;3KUD A E 98;1.12574
3KUD A Y 96;3KUD A Q 99;15.8781
3KUD A Y 96;3KUD A I 100;16.2073
3KUD A R 97;3KUD A E 98;22.5584
3KUD A R 97;3KUD A Q 99;0.358179
3KUD A R 97;3KUD A I 100;12.1903
3KUD A R 97;3KUD A K 101;37.0324
3KUD A R 97;3KUD A D 107;20.0831
3KUD A R 97;3KUD A V 109;6.15422
3KUD A R 97;3KUD A M 111;24.937
3KUD A R 97;3KUD A Y 137;50.9878
3KUD A R 97;3KUD A I 139;8.31456
3KUD A E 98;3KUD A Q 99;19.5134
3KUD A E 98;3KUD A I 100;0.800543
3KUD A E 98;3KUD A K 101;32.1649
3KUD A E 98;3KUD A R 102;13.9067
3KUD A E 98;3KUD A Y 137;0.781858
3KUD A Q 99;3KUD A I 100;17.6238
3KUD A Q 99;3KUD A K 101;0.726413
3KUD A Q 99;3KUD A R 102;36.6192
3KUD A Q 99;3KUD A V 103;20.8846
3KUD A I 100;3KUD A K 101;21.5317
3KUD A I 100;3KUD A R 102;1.2959
3KUD A I 100;3KUD A V 103;5.66796
3KUD A I 100;3KUD A K 104;16.2052
3KUD A I 100;3KUD A V 109;13.2228
3KUD A I 100;3KUD A M 111;16.4077
3KUD A K 101;3KUD A R 102;23.4922
3KUD A K 101;3KUD A V 103;0.183188
3KUD A K 101;3KUD A K 104;7.17614
3KUD A K 101;3KUD A D 105;8.67106
3KUD A K 101;3KUD A S 106;16.5754
3KUD A K 101;3KUD A D 107;22.2934
3KUD A K 101;3KUD A V 109;5.07564
3KUD A K 101;3KUD A M 111;0.0381064
3KUD A R 102;3KUD A V 103;34.6762
3KUD A R 102;3KUD A K 104;10.886
3KUD A R 102;3KUD A D 105;3.90362
3KUD A V 103;3KUD A K 104;22.5242
3KUD A K 104;3KUD A D 105;35.1549
3KUD A K 104;3KUD A S 106;0.937076
3KUD A K 104;3KUD A V 109;23.4636
3KUD A D 105;3KUD A S 106;34.7976
3KUD A S 106;3KUD A D 107;25.8016
3KUD A S 106;3KUD A D 108;21.9701
3KUD A S 106;3KUD A V 109;18.9205
3KUD A D 107;3KUD A D 108;29.2259
3KUD A D 107;3KUD A V 109;4.72327
3KUD A D 107;3KUD A Y 137;4.85012
3KUD A D 107;3KUD A I 139;0.282784
3KUD A D 108;3KUD A V 109;29.9262
3KUD A D 108;3KUD A P 110;8.07432
3KUD A D 108;3KUD A G 138;3.91305
3KUD A D 108;3KUD A E 162;1.78288
3KUD A V 109;3KUD A P 110;36.3435
3KUD A V 109;3KUD A M 111;16.3998
3KUD A V 109;3KUD A I 139;5.45356
3KUD A P 110;3KUD A M 111;19.4486
3KUD A P 110;3KUD A L 159;7.3901
3KUD A P 110;3KUD A E 162;19.21
3KUD A P 110;3KUD A I 163;19.2255
3KUD A P 110;3KUD A Q 165;1.56969
3KUD A M 111;3KUD A V 112;24.6051
3KUD A M 111;3KUD A Y 137;1.0642
3KUD A M 111;3KUD A I 139;29.9309
3KUD A M 111;3KUD A P 140;5.577
3KUD A M 111;3KUD A L 159;6.91668
3KUD A M 111;3KUD A E 162;9.98403
3KUD A V 112;3KUD A L 113;22.3394
3KUD A V 112;3KUD A V 114;11.3216
3KUD A V 112;3KUD A I 139;4.85409
3KUD A V 112;3KUD A P 140;15.9199
3KUD A V 112;3KUD A Y 141;0.27748
3KUD A V 112;3KUD A I 142;12.7649
3KUD A V 112;3KUD A A 155;6.84421
3KUD A V 112;3KUD A T 158;9.12688
3KUD A V 112;3KUD A L 159;15.7722
3KUD A V 112;3KUD A E 162;5.10049
3KUD A L 113;3KUD A V 114;19.8952
3KUD A L 113;3KUD A A 130;10.4938
3KUD A L 113;3KUD A L 133;13.4
3KUD A L 113;3KUD A A 134;12.3995
3KUD A L 113;3KUD A Y 137;2.90706
3KUD A L 113;3KUD A I 139;14.2921
3KUD A L 113;3KUD A P 140;7.71055
3KUD A L 113;3KUD A Y 141;20.8276
3KUD A L 113;3KUD A I 142;7.08206
3KUD A V 114;3KUD A G 115;16.6356
3KUD A V 114;3KUD A N 116;5.04162
3KUD A V 114;3KUD A Y 141;1.30299
3KUD A V 114;3KUD A I 142;11.1213
3KUD A V 114;3KUD A T 144;13.6125
3KUD A V 114;3KUD A A 155;11.62
3KUD A G 115;3KUD A N 116;17.1411
3KUD A G 115;3KUD A C 118;2.97486
3KUD A G 115;3KUD A Y 141;9.55006
3KUD A G 115;3KUD A I 142;4.81087
3KUD A G 115;3KUD A E 143;10.1484
3KUD A G 115;3KUD A T 144;8.32245
3KUD A N 116;3KUD A K 117;33.3659
3KUD A N 116;3KUD A C 118;2.56609
3KUD A N 116;3KUD A T 144;16.3697
3KUD A N 116;3KUD A S 145;2.26978
3KUD A N 116;3KUD A A 146;12.6735
3KUD A K 117;3KUD A C 118;13.8656
3KUD A K 117;3KUD A D 119;13.1984
3KUD A K 117;3KUD A L 120;30.3319
3KUD A K 117;3KUD A T 144;3.36302
3KUD A K 117;3KUD A S 145;4.37113
3KUD A K 117;3KUD A A 146;0.93427
3KUD A C 118;3KUD A D 119;23.5418
3KUD A C 118;3KUD A L 120;7.67294
3KUD A C 118;3KUD A R 123;7.86302
3KUD A C 118;3KUD A E 143;15.0569
3KUD A C 118;3KUD A T 144;15.3302
3KUD A C 118;3KUD A S 145;10.1185
3KUD A C 118;3KUD A T 148;0.253819
3KUD A C 118;3KUD A Q 150;23.4414
3KUD A D 119;3KUD A L 120;42.0467
3KUD A D 119;3KUD A A 121;2.46095
3KUD A D 119;3KUD A S 145;18.0986
3KUD A D 119;3KUD A A 146;0.160202
3KUD A D 119;3KUD A K 147;26.1722
3KUD A D 119;3KUD A T 148;12.3177
3KUD A L 120;3KUD A A 121;29.6578
3KUD A L 120;3KUD A A 122;11.1804
3KUD A L 120;3KUD A R 123;3.08565
3KUD A L 120;3KUD A K 147;0.654367
3KUD A A 121;3KUD A A 122;25.7075
3KUD A A 121;3KUD A R 123;13.128
3KUD A A 122;3KUD A R 123;21.9493
3KUD A A 122;3KUD A T 124;10.2245
3KUD A R 123;3KUD A T 124;27.5145
3KUD A R 123;3KUD A V 125;16.5567
3KUD A R 123;3KUD A E 126;28.2792
3KUD A R 123;3KUD A S 127;12.4376
3KUD A R 123;3KUD A Y 141;0.277253
3KUD A R 123;3KUD A E 143;21.6807
3KUD A T 124;3KUD A V 125;23.4915
3KUD A T 124;3KUD A E 126;6.68169
3KUD A T 124;3KUD A Q 129;9.30659
3KUD A V 125;3KUD A E 126;23.4245
3KUD A V 125;3KUD A S 127;0.0498474
3KUD A V 125;3KUD A Q 129;13.5292
3KUD A V 125;3KUD A A 130;6.10081
3KUD A V 125;3KUD A Y 141;1.00074
3KUD A E 126;3KUD A S 127;22.3901
3KUD A E 126;3KUD A R 128;29.1822
3KUD A E 126;3KUD A Q 129;25.4003
3KUD A E 126;3KUD A A 130;5.82517
3KUD A E 126;3KUD A Y 141;0.293727
3KUD A E 126;3KUD A E 143;0.000201071
3KUD A S 127;3KUD A R 128;20.166
3KUD A S 127;3KUD A Q 129;0.711562
3KUD A S 127;3KUD A A 130;6.99263
3KUD A S 127;3KUD A Q 131;26.5282
3KUD A S 127;3KUD A Y 141;15.0685
3KUD A S 127;3KUD A E 143;14.0649
3KUD A R 128;3KUD A Q 129;39.6033
3KUD A R 128;3KUD A A 130;0.705842
3KUD A R 128;3KUD A Q 131;15.6989
3KUD A R 128;3KUD A D 132;25.9568
3KUD A Q 129;3KUD A A 130;15.9729
3KUD A Q 129;3KUD A Q 131;0.599787
3KUD A Q 129;3KUD A D 132;13.9312
3KUD A Q 129;3KUD A L 133;7.81436
3KUD A A 130;3KUD A Q 131;15.8167
3KUD A A 130;3KUD A D 132;0.926337
3KUD A A 130;3KUD A L 133;7.14831
3KUD A A 130;3KUD A A 134;6.39148
3KUD A A 130;3KUD A Y 141;18.2731
3KUD A Q 131;3KUD A D 132;16.98
3KUD A Q 131;3KUD A L 133;0.964509
3KUD A Q 131;3KUD A A 134;8.7462
3KUD A Q 131;3KUD A R 135;34.8094
3KUD A Q 131;3KUD A Y 141;20.715
3KUD A D 132;3KUD A L 133;20.5766
3KUD A D 132;3KUD A A 134;0.473893
3KUD A D 132;3KUD A R 135;29.2354
3KUD A D 132;3KUD A S 136;12.6267
3KUD A L 133;3KUD A A 134;16.4255
3KUD A L 133;3KUD A R 135;1.16648
3KUD A L 133;3KUD A S 136;14.7397
3KUD A L 133;3KUD A Y 137;39.0365
3KUD A A 134;3KUD A R 135;18.1552
3KUD A A 134;3KUD A S 136;0.790602
3KUD A A 134;3KUD A Y 137;10.2304
3KUD A A 134;3KUD A G 138;3.85879
3KUD A A 134;3KUD A I 139;26.5216
3KUD A A 134;3KUD A P 140;2.8909
3KUD A A 134;3KUD A Y 141;11.3356
3KUD A R 135;3KUD A S 136;24.7833
3KUD A R 135;3KUD A Y 137;0.922873
3KUD A R 135;3KUD A G 138;13.5617
3KUD A R 135;3KUD A I 139;3.14737
3KUD A S 136;3KUD A Y 137;32.4126
3KUD A S 136;3KUD A G 138;2.84749
3KUD A Y 137;3KUD A G 138;22.1557
3KUD A Y 137;3KUD A I 139;26.3756
3KUD A G 138;3KUD A I 139;30.8411
3KUD A G 138;3KUD A E 162;2.51461
3KUD A I 139;3KUD A P 140;36.2072
3KUD A I 139;3KUD A Y 141;0.605446
3KUD A I 139;3KUD A E 162;3.61557
3KUD A P 140;3KUD A Y 141;24.0965
3KUD A P 140;3KUD A I 142;8.8081
3KUD A P 140;3KUD A T 158;14.1835
3KUD A P 140;3KUD A E 162;20.1423
3KUD A Y 141;3KUD A I 142;36.5401
3KUD A Y 141;3KUD A E 143;23.7518
3KUD A I 142;3KUD A E 143;31.457
3KUD A I 142;3KUD A T 144;5.69294
3KUD A I 142;3KUD A G 151;7.74273
3KUD A I 142;3KUD A D 154;17.9516
3KUD A I 142;3KUD A A 155;14.5698
3KUD A I 142;3KUD A T 158;18.1667
3KUD A E 143;3KUD A T 144;19.2655
3KUD A E 143;3KUD A Q 150;16.6816
3KUD A E 143;3KUD A G 151;6.92424
3KUD A T 144;3KUD A S 145;16.8228
3KUD A T 144;3KUD A A 146;0.0746549
3KUD A T 144;3KUD A Q 150;6.0786
3KUD A T 144;3KUD A G 151;7.97861
3KUD A T 144;3KUD A V 152;5.60507
3KUD A T 144;3KUD A A 155;7.24755
3KUD A S 145;3KUD A A 146;17.56
3KUD A S 145;3KUD A K 147;9.75445
3KUD A S 145;3KUD A T 148;15.701
3KUD A S 145;3KUD A R 149;7.35488
3KUD A S 145;3KUD A Q 150;14.051
3KUD A S 145;3KUD A V 152;5.54955
3KUD A A 146;3KUD A K 147;18.4206
3KUD A A 146;3KUD A T 148;0.276224
3KUD A A 146;3KUD A R 149;2.85585
3KUD A A 146;3KUD A V 152;4.41989
3KUD A K 147;3KUD A T 148;30.9547
3KUD A K 147;3KUD A R 149;2.02212
3KUD A T 148;3KUD A R 149;27.687
3KUD A T 148;3KUD A Q 150;23.8761
3KUD A R 149;3KUD A Q 150;19.8442
3KUD A R 149;3KUD A G 151;4.52442
3KUD A R 149;3KUD A V 152;26.6139
3KUD A R 149;3KUD A E 153;27.5573
3KUD A Q 150;3KUD A G 151;23.7236
3KUD A Q 150;3KUD A V 152;6.81135
3KUD A G 151;3KUD A V 152;17.6941
3KUD A G 151;3KUD A E 153;0.722105
3KUD A G 151;3KUD A D 154;23.2821
3KUD A G 151;3KUD A A 155;8.38854
3KUD A V 152;3KUD A E 153;26.0098
3KUD A V 152;3KUD A D 154;1.22181
3KUD A V 152;3KUD A A 155;8.52328
3KUD A V 152;3KUD A F 156;19.0318
3KUD A E 153;3KUD A D 154;27.2725
3KUD A E 153;3KUD A A 155;1.0647
3KUD A E 153;3KUD A F 156;4.74859
3KUD A E 153;3KUD A Y 157;44.5404
3KUD A D 154;3KUD A A 155;15.9304
3KUD A D 154;3KUD A F 156;0.389242
3KUD A D 154;3KUD A Y 157;5.65996
3KUD A D 154;3KUD A T 158;16.5721
3KUD A D 154;3KUD A R 161;3.22862
3KUD A A 155;3KUD A F 156;20.5364
3KUD A A 155;3KUD A Y 157;0.805576
3KUD A A 155;3KUD A T 158;5.29443
3KUD A A 155;3KUD A L 159;6.55792
3KUD A F 156;3KUD A Y 157;22.4334
3KUD A F 156;3KUD A T 158;0.868063
3KUD A F 156;3KUD A L 159;10.7112
3KUD A F 156;3KUD A V 160;10.5721
3KUD A Y 157;3KUD A T 158;16.8697
3KUD A Y 157;3KUD A L 159;0.648753
3KUD A Y 157;3KUD A V 160;10.7716
3KUD A Y 157;3KUD A R 161;33.1193
3KUD A T 158;3KUD A L 159;15.9267
3KUD A T 158;3KUD A V 160;0.906257
3KUD A T 158;3KUD A R 161;25.7191
3KUD A T 158;3KUD A E 162;16.6847
3KUD A L 159;3KUD A V 160;15.9706
3KUD A L 159;3KUD A R 161;1.1376
3KUD A L 159;3KUD A E 162;12.1842
3KUD A L 159;3KUD A I 163;15.297
3KUD A V 160;3KUD A R 161;16.6723
3KUD A V 160;3KUD A E 162;0.507015
3KUD A V 160;3KUD A I 163;13.3816
3KUD A V 160;3KUD A R 164;21.9683
3KUD A R 161;3KUD A E 162;17.7589
3KUD A R 161;3KUD A I 163;0.859304
3KUD A R 161;3KUD A R 164;23.0705
3KUD A R 161;3KUD A Q 165;18.554
3KUD A E 162;3KUD A I 163;17.006
3KUD A E 162;3KUD A R 164;1.04971
3KUD A E 162;3KUD A Q 165;37.53
3KUD A I 163;3KUD A R 164;21.6496
3KUD A I 163;3KUD A Q 165;9.60001
3KUD A R 164;3KUD A Q 165;28.8109
3KUD B N 56;3KUD B T 57;38.229
3KUD B N 56;3KUD B N 71;18.871
3KUD B N 56;3KUD B V 72;13.0678
3KUD B N 56;3KUD B I 122;32.0034
3KUD B T 57;3KUD B I 58;28.0298
3KUD B T 57;3KUD B R 59;1.68785
3KUD B T 57;3KUD B V 69;16.6443
3KUD B T 57;3KUD B V 70;9.78886
3KUD B T 57;3KUD B N 71;8.61361
3KUD B T 57;3KUD B V 72;5.44215
3KUD B T 57;3KUD B L 121;1.14021
3KUD B T 57;3KUD B I 122;16.2555
3KUD B T 57;3KUD B G 123;7.29325
3KUD B T 57;3KUD B E 124;0.360465
3KUD B I 58;3KUD B R 59;21.1954
3KUD B I 58;3KUD B V 60;13.5765
3KUD B I 58;3KUD B T 68;0.682618
3KUD B I 58;3KUD B V 69;8.77424
3KUD B I 58;3KUD B V 70;27.2822
3KUD B I 58;3KUD B V 72;13.6378
3KUD B I 58;3KUD B L 78;4.65535
3KUD B I 58;3KUD B C 81;7.88783
3KUD B I 58;3KUD B L 82;2.83403
3KUD B I 58;3KUD B A 118;5.71097
3KUD B I 58;3KUD B L 121;20.4447
3KUD B I 58;3KUD B I 122;2.42985
3KUD B I 58;3KUD B E 124;9.13366
3KUD B I 58;3KUD B E 125;1.25578
3KUD B I 58;3KUD B L 126;16.4884
3KUD B R 59;3KUD B V 60;19.5978
3KUD B R 59;3KUD B F 61;27.479
3KUD B R 59;3KUD B R 67;9.30157
3KUD B R 59;3KUD B T 68;4.38607
3KUD B R 59;3KUD B V 69;26.6016
3KUD B R 59;3KUD B E 124;13.7963
3KUD B R 59;3KUD B E 125;34.9522
3KUD B R 59;3KUD B L 126;7.23461
3KUD B V 60;3KUD B F 61;22.2928
3KUD B V 60;3KUD B L 62;10.2941
3KUD B V 60;3KUD B Q 66;0.298971
3KUD B V 60;3KUD B R 67;4.61315
3KUD B V 60;3KUD B T 68;27.0705
3KUD B V 60;3KUD B V 70;6.21037
3KUD B V 60;3KUD B L 82;19.8739
3KUD B V 60;3KUD B V 98;0.95848
3KUD B V 60;3KUD B L 126;20.6659
3KUD B V 60;3KUD B Q 127;2.4066
3KUD B V 60;3KUD B V 128;10.288
3KUD B F 61;3KUD B L 62;26.0811
3KUD B F 61;3KUD B Q 66;2.82432
3KUD B F 61;3KUD B R 67;43.4637
3KUD B F 61;3KUD B L 101;1.44877
3KUD B F 61;3KUD B E 125;10.6358
3KUD B F 61;3KUD B L 126;10.0985
3KUD B F 61;3KUD B Q 127;23.9526
3KUD B F 61;3KUD B V 128;7.28619
3KUD B L 62;3KUD B P 63;34.1522
3KUD B L 62;3KUD B N 64;3.00426
3KUD B L 62;3KUD B K 65;5.02609
3KUD B L 62;3KUD B Q 66;28.6237
3KUD B L 62;3KUD B R 67;0.693061
3KUD B L 62;3KUD B T 68;12.9885
3KUD B L 62;3KUD B L 82;5.50062
3KUD B L 62;3KUD B K 85;9.61536
3KUD B L 62;3KUD B L 86;17.4034
3KUD B L 62;3KUD B R 89;21.0022
3KUD B L 62;3KUD B L 91;2.57791
3KUD B L 62;3KUD B Q 127;3.7593
3KUD B L 62;3KUD B V 128;15.4036
3KUD B P 63;3KUD B N 64;29.5315
3KUD B P 63;3KUD B K 65;2.51154
3KUD B P 63;3KUD B Q 66;12.3973
3KUD B P 63;3KUD B L 86;1.9342
3KUD B P 63;3KUD B L 91;19.038
3KUD B P 63;3KUD B C 96;4.54756
3KUD B P 63;3KUD B V 128;20.8901
3KUD B P 63;3KUD B D 129;7.14101
3KUD B P 63;3KUD B F 130;20.7997
3KUD B N 64;3KUD B K 65;34.833
3KUD B N 64;3KUD B Q 66;14.4954
3KUD B N 64;3KUD B L 91;7.06141
3KUD B N 64;3KUD B F 130;15.4737
3KUD B K 65;3KUD B Q 66;21.6531
3KUD B K 65;3KUD B R 67;25.2086
3KUD B Q 66;3KUD B R 67;11.1629
3KUD B Q 66;3KUD B R 67;14.3613
3KUD B Q 66;3KUD B T 68;0.0814948
3KUD B Q 66;3KUD B R 89;27.477
3KUD B Q 66;3KUD B L 91;4.48448
3KUD B R 67;3KUD B T 68;13.3468
3KUD B R 67;3KUD B R 89;8.12307
3KUD B R 67;3KUD B T 68;6.74472
3KUD B R 67;3KUD B V 69;1.99266
3KUD B T 68;3KUD B V 69;27.3889
3KUD B T 68;3KUD B V 70;7.79647
3KUD B T 68;3KUD B L 82;6.53451
3KUD B T 68;3KUD B K 85;18.9659
3KUD B T 68;3KUD B R 89;5.45723
3KUD B V 69;3KUD B V 70;24.0812
3KUD B V 69;3KUD B N 71;0.544205
3KUD B V 69;3KUD B K 85;4.39881
3KUD B V 70;3KUD B N 71;26.6674
3KUD B V 70;3KUD B V 72;7.51873
3KUD B V 70;3KUD B C 81;21.002
3KUD B V 70;3KUD B L 82;10.5738
3KUD B V 70;3KUD B K 85;16.6048
3KUD B N 71;3KUD B V 72;30.6703
3KUD B N 71;3KUD B R 73;26.4094
3KUD B N 71;3KUD B M 76;3.96341
3KUD B N 71;3KUD B C 81;4.35403
3KUD B V 72;3KUD B R 73;35.4775
3KUD B V 72;3KUD B N 74;1.29759
3KUD B V 72;3KUD B M 76;4.18567
3KUD B V 72;3KUD B C 81;6.68359
3KUD B V 72;3KUD B A 118;18.7161
3KUD B V 72;3KUD B A 119;6.50004
3KUD B V 72;3KUD B I 122;23.6304
3KUD B R 73;3KUD B N 74;41.1468
3KUD B R 73;3KUD B M 76;38.9666
3KUD B R 73;3KUD B A 118;0.622063
3KUD B R 73;3KUD B A 119;0.00993752
3KUD B R 73;3KUD B I 122;1.13907
3KUD B N 74;3KUD B G 75;33.2763
3KUD B N 74;3KUD B M 76;17.1369
3KUD B N 74;3KUD B D 117;5.80719
3KUD B N 74;3KUD B A 118;1.64895
3KUD B N 74;3KUD B A 119;17.4902
3KUD B N 74;3KUD B I 122;0.480481
3KUD B G 75;3KUD B M 76;28.2539
3KUD B G 75;3KUD B S 77;5.04884
3KUD B G 75;3KUD B D 80;1.40498
3KUD B G 75;3KUD B D 117;0.0097259
3KUD B M 76;3KUD B S 77;22.9892
3KUD B M 76;3KUD B D 80;29.5884
3KUD B M 76;3KUD B C 81;19.2032
3KUD B M 76;3KUD B D 117;7.81422
3KUD B M 76;3KUD B A 118;17.3076
3KUD B S 77;3KUD B L 78;11.83
3KUD B S 77;3KUD B L 78;6.25499
3KUD B S 77;3KUD B H 79;7.4214
3KUD B S 77;3KUD B D 80;24.8186
3KUD B S 77;3KUD B C 81;8.28331
3KUD B S 77;3KUD B W 114;3.31962
3KUD B S 77;3KUD B N 115;25.3946
3KUD B S 77;3KUD B T 116;6.23688
3KUD B S 77;3KUD B D 117;4.73803
3KUD B S 77;3KUD B A 118;6.05565
3KUD B L 78;3KUD B H 79;15.5635
3KUD B L 78;3KUD B D 80;0.984214
3KUD B L 78;3KUD B C 81;4.5005
3KUD B L 78;3KUD B L 82;11.5235
3KUD B L 78;3KUD B W 114;7.51772
3KUD B L 78;3KUD B T 116;4.03522
3KUD B L 78;3KUD B D 117;0.0125948
3KUD B L 78;3KUD B H 79;1.78504
3KUD B L 78;3KUD B C 81;10.1565
3KUD B L 78;3KUD B L 82;7.36069
3KUD B L 78;3KUD B V 98;11.6947
3KUD B L 78;3KUD B L 112;13.3189
3KUD B L 78;3KUD B D 113;2.98241
3KUD B L 78;3KUD B W 114;12.8969
3KUD B L 78;3KUD B T 116;7.69628
3KUD B L 78;3KUD B D 117;6.98716
3KUD B L 78;3KUD B A 118;6.98352
3KUD B L 78;3KUD B L 121;11.8016
3KUD B L 78;3KUD B L 126;10.5982
3KUD B H 79;3KUD B D 80;32.4397
3KUD B H 79;3KUD B C 81;0.59625
3KUD B H 79;3KUD B L 82;2.23492
3KUD B H 79;3KUD B M 83;36.2955
3KUD B H 79;3KUD B P 93;19.4372
3KUD B H 79;3KUD B E 94;3.35366
3KUD B H 79;3KUD B W 114;32.5333
3KUD B H 79;3KUD B N 115;9.28548
3KUD B D 80;3KUD B C 81;20.681
3KUD B D 80;3KUD B L 82;2.7992
3KUD B D 80;3KUD B M 83;6.99938
3KUD B D 80;3KUD B K 84;7.40193
3KUD B C 81;3KUD B L 82;29.0944
3KUD B C 81;3KUD B K 84;2.94575
3KUD B C 81;3KUD B K 85;4.84596
3KUD B C 81;3KUD B A 118;6.51
3KUD B L 82;3KUD B M 83;19.6684
3KUD B L 82;3KUD B K 84;2.26949
3KUD B L 82;3KUD B K 85;20.7952
3KUD B L 82;3KUD B L 86;20.146
3KUD B L 82;3KUD B V 98;2.04884
3KUD B L 82;3KUD B W 114;12.1839
3KUD B L 82;3KUD B L 126;3.24986
3KUD B L 82;3KUD B V 128;4.71798
3KUD B M 83;3KUD B K 84;27.1737
3KUD B M 83;3KUD B K 85;0.802036
3KUD B M 83;3KUD B L 86;9.18677
3KUD B M 83;3KUD B K 87;40.4733
3KUD B M 83;3KUD B P 93;23.7745
3KUD B M 83;3KUD B W 114;1.12819
3KUD B K 84;3KUD B K 85;27.2692
3KUD B K 84;3KUD B L 86;0.789354
3KUD B K 84;3KUD B K 87;6.93213
3KUD B K 84;3KUD B V 88;22.0609
3KUD B K 85;3KUD B L 86;19.606
3KUD B K 85;3KUD B K 87;0.457003
3KUD B K 85;3KUD B V 88;14.5827
3KUD B K 85;3KUD B R 89;17.0536
3KUD B L 86;3KUD B K 87;17.6474
3KUD B L 86;3KUD B V 88;1.82808
3KUD B L 86;3KUD B R 89;12.6322
3KUD B L 86;3KUD B G 90;0.816281
3KUD B L 86;3KUD B L 91;28.6267
3KUD B L 86;3KUD B Q 92;4.03496
3KUD B L 86;3KUD B P 93;15.7137
3KUD B L 86;3KUD B C 96;10.7401
3KUD B L 86;3KUD B W 114;12.0406
3KUD B L 86;3KUD B V 128;10.8625
3KUD B K 87;3KUD B V 88;21.4307
3KUD B K 87;3KUD B R 89;0.608693
3KUD B K 87;3KUD B G 90;9.40343
3KUD B K 87;3KUD B L 91;15.6644
3KUD B K 87;3KUD B Q 92;0.534413
3KUD B K 87;3KUD B P 93;12.3774
3KUD B V 88;3KUD B R 89;26.0959
3KUD B V 88;3KUD B G 90;5.16218
3KUD B R 89;3KUD B G 90;19.2831
3KUD B R 89;3KUD B L 91;24.0655
3KUD B G 90;3KUD B L 91;24.4102
3KUD B G 90;3KUD B Q 92;13.4025
3KUD B L 91;3KUD B Q 92;34.5416
3KUD B L 91;3KUD B P 93;2.90294
3KUD B L 91;3KUD B C 96;5.99091
3KUD B L 91;3KUD B F 130;21.208
3KUD B Q 92;3KUD B P 93;24.9649
3KUD B Q 92;3KUD B E 94;6.26149
3KUD B Q 92;3KUD B C 95;34.2035
3KUD B Q 92;3KUD B C 96;11.8152
3KUD B Q 92;3KUD B F 130;6.19694
3KUD B P 93;3KUD B E 94;30.3026
3KUD B P 93;3KUD B C 95;1.4043
3KUD B P 93;3KUD B C 96;9.45366
3KUD B P 93;3KUD B W 114;24.6077
3KUD B E 94;3KUD B C 95;20.6976
3KUD B E 94;3KUD B C 96;4.22474
3KUD B E 94;3KUD B W 114;3.24337
3KUD B E 94;3KUD B L 131;16.0774
3KUD B C 95;3KUD B C 96;20.0366
3KUD B C 95;3KUD B F 130;18.6671
3KUD B C 95;3KUD B L 131;24.4191
3KUD B C 96;3KUD B A 97;19.9885
3KUD B C 96;3KUD B W 114;17.2294
3KUD B C 96;3KUD B V 128;10.5061
3KUD B C 96;3KUD B D 129;4.95984
3KUD B C 96;3KUD B F 130;16.8517
3KUD B C 96;3KUD B L 131;15.5639
3KUD B A 97;3KUD B V 98;20.2763
3KUD B A 97;3KUD B F 99;15.52
3KUD B A 97;3KUD B R 111;24.0056
3KUD B A 97;3KUD B L 112;0.141072
3KUD B A 97;3KUD B W 114;7.30303
3KUD B A 97;3KUD B Q 127;0.130318
3KUD B A 97;3KUD B V 128;7.79099
3KUD B A 97;3KUD B D 129;17.4518
3KUD B A 97;3KUD B L 131;10.6494
3KUD B V 98;3KUD B F 99;24.4196
3KUD B V 98;3KUD B R 111;7.16036
3KUD B V 98;3KUD B L 112;30.1326
3KUD B V 98;3KUD B D 113;2.63591
3KUD B V 98;3KUD B W 114;28.9159
3KUD B V 98;3KUD B L 126;13.8333
3KUD B V 98;3KUD B Q 127;6.1173
3KUD B V 98;3KUD B V 128;14.6174
3KUD B F 99;3KUD B R 100;16.8691
3KUD B F 99;3KUD B L 101;9.19356
3KUD B F 99;3KUD B K 109;34.9152
3KUD B F 99;3KUD B A 110;7.80868
3KUD B F 99;3KUD B R 111;18.347
3KUD B F 99;3KUD B L 112;5.39418
3KUD B F 99;3KUD B L 126;9.50912
3KUD B F 99;3KUD B Q 127;30.5393
3KUD B F 99;3KUD B V 128;2.34513
3KUD B F 99;3KUD B D 129;22.4578
3KUD B R 100;3KUD B L 101;21.6713
3KUD B R 100;3KUD B L 102;11.1304
3KUD B R 100;3KUD B K 108;0.607841
3KUD B R 100;3KUD B K 109;2.37997
3KUD B R 100;3KUD B A 110;29.4473
3KUD B R 100;3KUD B L 112;29.6851
3KUD B R 100;3KUD B T 116;19.1877
3KUD B R 100;3KUD B S 120;18.3775
3KUD B R 100;3KUD B L 121;19.0058
3KUD B R 100;3KUD B E 124;2.63878
3KUD B R 100;3KUD B E 125;3.34383
3KUD B R 100;3KUD B L 126;17.6549
3KUD B L 101;3KUD B L 102;28.4557
3KUD B L 101;3KUD B H 103;18.9508
3KUD B L 101;3KUD B E 104;1.27127
3KUD B L 101;3KUD B G 107;3.63013
3KUD B L 101;3KUD B K 108;5.11696
3KUD B L 101;3KUD B K 109;19.3595
3KUD B L 101;3KUD B E 124;2.85638
3KUD B L 101;3KUD B E 125;41.7492
3KUD B L 101;3KUD B L 126;5.82844
3KUD B L 101;3KUD B Q 127;22.8101
3KUD B L 102;3KUD B H 103;20.648
3KUD B L 102;3KUD B E 104;37.217
3KUD B L 102;3KUD B H 105;2.36293
3KUD B L 102;3KUD B K 106;0.735976
3KUD B L 102;3KUD B G 107;0.614019
3KUD B L 102;3KUD B K 108;34.454
3KUD B L 102;3KUD B K 109;2.40122
3KUD B L 102;3KUD B A 110;20.95
3KUD B H 103;3KUD B E 104;28.5306
3KUD B H 103;3KUD B H 105;2.11484
3KUD B H 103;3KUD B K 106;39.2641
3KUD B H 103;3KUD B G 107;21.1968
3KUD B H 103;3KUD B K 108;1.16608
3KUD B H 103;3KUD B E 125;17.5513
3KUD B E 104;3KUD B H 105;35.9946
3KUD B E 104;3KUD B K 106;0.348594
3KUD B H 105;3KUD B K 106;35.1853
3KUD B H 105;3KUD B K 108;32.9581
3KUD B K 106;3KUD B G 107;29.5951
3KUD B K 106;3KUD B K 108;3.07299
3KUD B G 107;3KUD B K 108;25.8623
3KUD B G 107;3KUD B K 109;9.2768
3KUD B K 108;3KUD B K 109;33.8812
3KUD B K 108;3KUD B A 110;0.548338
3KUD B K 109;3KUD B A 110;21.2047
3KUD B K 109;3KUD B R 111;5.32021
3KUD B K 109;3KUD B Q 127;14.3993
3KUD B K 109;3KUD B D 129;1.62581
3KUD B A 110;3KUD B R 111;22.4234
3KUD B A 110;3KUD B L 112;5.82555
3KUD B R 111;3KUD B L 112;44.5787
3KUD B R 111;3KUD B D 113;1.2151
3KUD B R 111;3KUD B L 131;9.96181
3KUD B L 112;3KUD B D 113;33.0399
3KUD B L 112;3KUD B W 114;2.70627
3KUD B L 112;3KUD B T 116;11.44
3KUD B L 112;3KUD B D 117;0.283289
3KUD B L 112;3KUD B L 121;5.10129
3KUD B L 112;3KUD B L 126;4.92304
3KUD B D 113;3KUD B W 114;28.4018
3KUD B D 113;3KUD B N 115;20.8072
3KUD B D 113;3KUD B T 116;29.7371
3KUD B W 114;3KUD B N 115;20.0754
3KUD B W 114;3KUD B T 116;2.75672
3KUD B W 114;3KUD B V 128;13.1022
3KUD B N 115;3KUD B T 116;23.5145
3KUD B N 115;3KUD B D 117;4.04295
3KUD B T 116;3KUD B D 117;33.5575
3KUD B T 116;3KUD B S 120;1.85325
3KUD B T 116;3KUD B L 121;0.298731
3KUD B D 117;3KUD B A 118;19.8788
3KUD B D 117;3KUD B A 119;14.6588
3KUD B D 117;3KUD B S 120;19.2677
3KUD B D 117;3KUD B L 121;9.24267
3KUD B A 118;3KUD B A 119;17.7111
3KUD B A 118;3KUD B S 120;2.49833
3KUD B A 118;3KUD B L 121;14.4675
3KUD B A 118;3KUD B I 122;4.41177
3KUD B A 119;3KUD B S 120;22.4409
3KUD B A 119;3KUD B L 121;4.75607
3KUD B A 119;3KUD B I 122;30.6016
3KUD B S 120;3KUD B L 121;31.1994
3KUD B S 120;3KUD B E 124;1.4376
3KUD B L 121;3KUD B I 122;17.4616
3KUD B L 121;3KUD B G 123;8.25698
3KUD B L 121;3KUD B E 124;24.2816
3KUD B L 121;3KUD B L 126;16.5138
3KUD B I 122;3KUD B G 123;24.9147
3KUD B G 123;3KUD B E 124;42.4553
3KUD B E 124;3KUD B E 125;34.2115
3KUD B E 124;3KUD B L 126;4.77581
3KUD B E 125;3KUD B L 126;29.7794
3KUD B L 126;3KUD B Q 127;18.111
3KUD B L 126;3KUD B V 128;0.0960936
3KUD B Q 127;3KUD B V 128;23.9303
3KUD B Q 127;3KUD B D 129;16.998
3KUD B V 128;3KUD B D 129;24.8503
3KUD B D 129;3KUD B F 130;33.5709
3KUD B D 129;3KUD B L 131;2.29615
3KUD B F 130;3KUD B L 131;29.6284
