PDB;Aminoacid;Chain;Position;HS;rpart_01;rf_01;pls_01;svm_01;gbm_01;rpart_02;rf_02;pls_02;svm_02;gbm_02;rpart_03;rf_03;pls_03;svm_03;gbm_03;rpart_04;rf_04;pls_04;svm_04;gbm_04;rpart_05;rf_05;pls_05;svm_05;gbm_05;rpart_06;rf_06;pls_06;svm_06;gbm_06;rpart_07;rf_07;pls_07;svm_07;gbm_07;rpart_08;rf_08;pls_08;svm_08;gbm_08;rpart_09;rf_09;pls_09;svm_09;gbm_09
1CHO;T;I;17;HS;HS;HS;HS;HS;HS;HS;HS;NHS;HS;HS;NHS;HS;NHS;NHS;NHS;NHS;NHS;NHS;NHS;NHS;NHS;NHS;NHS;NHS;NHS;NHS;NHS;NHS;NHS;NHS;NHS;NHS;NHS;NHS;NHS;NHS;NHS;NHS;NHS;NHS;NHS;NHS;NHS;NHS;NHS
1OGA;R;A;65;NHS;NHS;NHS;NHS;HS;NHS;NHS;NHS;NHS;NHS;NHS;NHS;NHS;NHS;NHS;NHS;NHS;NHS;NHS;NHS;NHS;NHS;NHS;NHS;NHS;NHS;NHS;NHS;NHS;NHS;NHS;NHS;NHS;NHS;NHS;NHS;NHS;NHS;NHS;NHS;NHS;NHS;NHS;NHS;NHS;NHS
1LFD;D;B;233;NHS;HS;NHS;NHS;HS;NHS;NHS;NHS;NHS;NHS;NHS;NHS;NHS;NHS;NHS;NHS;NHS;NHS;NHS;NHS;NHS;NHS;NHS;NHS;NHS;NHS;NHS;NHS;NHS;NHS;NHS;NHS;NHS;NHS;NHS;NHS;NHS;NHS;NHS;NHS;NHS;NHS;NHS;NHS;NHS;NHS
2HRK;K;A;159;NHS;NHS;NHS;NHS;NHS;NHS;NHS;NHS;NHS;NHS;NHS;NHS;NHS;NHS;NHS;NHS;NHS;NHS;NHS;NHS;NHS;NHS;NHS;NHS;NHS;NHS;NHS;NHS;NHS;NHS;NHS;NHS;NHS;NHS;NHS;NHS;NHS;NHS;NHS;NHS;NHS;NHS;NHS;NHS;NHS;NHS
1LFD;N;A;27;NHS;NHS;NHS;NHS;NHS;NHS;NHS;NHS;NHS;NHS;NHS;NHS;NHS;NHS;NHS;NHS;NHS;NHS;NHS;NHS;NHS;NHS;NHS;NHS;NHS;NHS;NHS;NHS;NHS;NHS;NHS;NHS;NHS;NHS;NHS;NHS;NHS;NHS;NHS;NHS;NHS;NHS;NHS;NHS;NHS;NHS
1EAW;F;A;97;NHS;NHS;NHS;HS;HS;HS;NHS;NHS;NHS;NHS;NHS;NHS;NHS;NHS;NHS;NHS;NHS;NHS;NHS;NHS;NHS;NHS;NHS;NHS;NHS;NHS;NHS;NHS;NHS;NHS;NHS;NHS;NHS;NHS;NHS;NHS;NHS;NHS;NHS;NHS;NHS;NHS;NHS;NHS;NHS;NHS
1GC1;S;C;60;NHS;NHS;NHS;HS;HS;HS;NHS;NHS;NHS;NHS;NHS;NHS;NHS;NHS;NHS;NHS;NHS;NHS;NHS;NHS;NHS;NHS;NHS;NHS;NHS;NHS;NHS;NHS;NHS;NHS;NHS;NHS;NHS;NHS;NHS;NHS;NHS;NHS;NHS;NHS;NHS;NHS;NHS;NHS;NHS;NHS
3HFM;R;Y;73;NHS;HS;HS;HS;HS;HS;NHS;HS;NHS;NHS;NHS;NHS;NHS;NHS;NHS;NHS;NHS;NHS;NHS;NHS;NHS;NHS;NHS;NHS;NHS;NHS;NHS;NHS;NHS;NHS;NHS;NHS;NHS;NHS;NHS;NHS;NHS;NHS;NHS;NHS;NHS;NHS;NHS;NHS;NHS;NHS
1OGA;R;E;98;HS;HS;HS;HS;HS;HS;HS;HS;HS;HS;HS;HS;HS;HS;HS;HS;HS;HS;HS;HS;HS;HS;HS;HS;HS;HS;HS;HS;HS;HS;HS;HS;HS;HS;HS;HS;NHS;NHS;NHS;NHS;NHS;NHS;NHS;NHS;NHS;NHS
1A22;R;A;178;HS;HS;NHS;HS;HS;HS;NHS;NHS;NHS;HS;NHS;NHS;NHS;NHS;NHS;NHS;NHS;NHS;NHS;NHS;NHS;NHS;NHS;NHS;NHS;NHS;NHS;NHS;NHS;NHS;NHS;NHS;NHS;NHS;NHS;NHS;NHS;NHS;NHS;NHS;NHS;NHS;NHS;NHS;NHS;NHS
2G2U;D;A;104;NHS;HS;HS;HS;HS;HS;NHS;NHS;NHS;HS;NHS;NHS;NHS;NHS;NHS;NHS;NHS;NHS;NHS;NHS;NHS;NHS;NHS;NHS;NHS;NHS;NHS;NHS;NHS;NHS;NHS;NHS;NHS;NHS;NHS;NHS;NHS;NHS;NHS;NHS;NHS;NHS;NHS;NHS;NHS;NHS
1XGQ;V;B;33;NHS;NHS;NHS;HS;HS;HS;NHS;NHS;NHS;NHS;NHS;NHS;NHS;NHS;NHS;NHS;NHS;NHS;NHS;NHS;NHS;NHS;NHS;NHS;NHS;NHS;NHS;NHS;NHS;NHS;NHS;NHS;NHS;NHS;NHS;NHS;NHS;NHS;NHS;NHS;NHS;NHS;NHS;NHS;NHS;NHS
1A22;D;B;364;NHS;NHS;NHS;HS;HS;HS;NHS;NHS;HS;HS;NHS;NHS;NHS;NHS;NHS;NHS;NHS;NHS;NHS;NHS;NHS;NHS;NHS;NHS;NHS;NHS;NHS;NHS;NHS;NHS;NHS;NHS;NHS;NHS;NHS;NHS;NHS;NHS;NHS;NHS;NHS;NHS;NHS;NHS;NHS;NHS
1DAN;V;U;207;NHS;HS;HS;HS;HS;HS;HS;HS;HS;HS;HS;NHS;NHS;NHS;NHS;HS;NHS;NHS;NHS;NHS;NHS;NHS;NHS;NHS;NHS;NHS;NHS;NHS;NHS;NHS;NHS;NHS;NHS;NHS;NHS;NHS;NHS;NHS;NHS;NHS;NHS;NHS;NHS;NHS;NHS;NHS
2WPT;P;A;56;HS;NHS;NHS;NHS;NHS;NHS;NHS;NHS;NHS;NHS;NHS;NHS;NHS;NHS;NHS;NHS;NHS;NHS;NHS;NHS;NHS;NHS;NHS;NHS;NHS;NHS;NHS;NHS;NHS;NHS;NHS;NHS;NHS;NHS;NHS;NHS;NHS;NHS;NHS;NHS;NHS;NHS;NHS;NHS;NHS;NHS
1AK4;P;D;493;NHS;HS;HS;NHS;NHS;HS;HS;HS;NHS;NHS;NHS;NHS;NHS;NHS;NHS;NHS;NHS;NHS;NHS;NHS;NHS;NHS;NHS;NHS;NHS;NHS;NHS;NHS;NHS;NHS;NHS;NHS;NHS;NHS;NHS;NHS;NHS;NHS;NHS;NHS;NHS;NHS;NHS;NHS;NHS;NHS
1JTG;D;B;49;HS;HS;HS;HS;HS;HS;HS;HS;HS;HS;HS;NHS;HS;HS;HS;HS;NHS;NHS;HS;HS;NHS;NHS;NHS;HS;NHS;NHS;NHS;NHS;NHS;NHS;NHS;NHS;NHS;NHS;NHS;NHS;NHS;NHS;NHS;NHS;NHS;NHS;NHS;NHS;NHS;NHS
1A22;D;A;171;NHS;HS;HS;HS;HS;HS;HS;HS;HS;HS;HS;NHS;HS;NHS;NHS;NHS;NHS;NHS;NHS;NHS;NHS;NHS;NHS;NHS;NHS;NHS;NHS;NHS;NHS;NHS;NHS;NHS;NHS;NHS;NHS;NHS;NHS;NHS;NHS;NHS;NHS;NHS;NHS;NHS;NHS;NHS
1A22;H;A;21;NHS;NHS;HS;HS;HS;HS;NHS;HS;HS;HS;HS;NHS;HS;HS;HS;NHS;NHS;NHS;NHS;NHS;NHS;NHS;NHS;NHS;NHS;NHS;NHS;NHS;NHS;NHS;NHS;NHS;NHS;NHS;NHS;NHS;NHS;NHS;NHS;NHS;NHS;NHS;NHS;NHS;NHS;NHS
3BK3;I;C;27;NHS;HS;HS;HS;HS;HS;HS;NHS;NHS;NHS;HS;NHS;NHS;NHS;NHS;NHS;NHS;NHS;NHS;NHS;NHS;NHS;NHS;NHS;NHS;NHS;NHS;NHS;NHS;NHS;NHS;NHS;NHS;NHS;NHS;NHS;NHS;NHS;NHS;NHS;NHS;NHS;NHS;NHS;NHS;NHS
1VFB;R;B;99;NHS;HS;HS;NHS;HS;HS;NHS;NHS;NHS;NHS;NHS;NHS;NHS;NHS;NHS;NHS;NHS;NHS;NHS;NHS;NHS;NHS;NHS;NHS;NHS;NHS;NHS;NHS;NHS;NHS;NHS;NHS;NHS;NHS;NHS;NHS;NHS;NHS;NHS;NHS;NHS;NHS;NHS;NHS;NHS;NHS
1OGA;E;A;154;NHS;NHS;NHS;HS;HS;NHS;NHS;NHS;NHS;NHS;NHS;NHS;NHS;NHS;NHS;NHS;NHS;NHS;NHS;NHS;NHS;NHS;NHS;NHS;NHS;NHS;NHS;NHS;NHS;NHS;NHS;NHS;NHS;NHS;NHS;NHS;NHS;NHS;NHS;NHS;NHS;NHS;NHS;NHS;NHS;NHS
1JRH;Y;I;49;HS;HS;HS;HS;HS;HS;HS;HS;HS;HS;HS;HS;HS;HS;HS;HS;HS;HS;HS;HS;HS;HS;HS;HS;HS;HS;HS;HS;HS;HS;HS;HS;HS;HS;NHS;HS;NHS;HS;NHS;NHS;NHS;NHS;NHS;NHS;NHS;NHS
2WPT;F;B;86;NHS;HS;HS;HS;HS;HS;HS;HS;HS;HS;HS;HS;HS;HS;HS;HS;HS;HS;HS;HS;HS;HS;HS;HS;HS;HS;HS;HS;HS;HS;HS;HS;NHS;HS;HS;HS;NHS;NHS;NHS;NHS;NHS;NHS;NHS;NHS;NHS;NHS
2FTL;R;I;39;HS;HS;NHS;NHS;NHS;HS;NHS;NHS;NHS;NHS;NHS;NHS;NHS;NHS;NHS;NHS;NHS;NHS;NHS;NHS;NHS;NHS;NHS;NHS;NHS;NHS;NHS;NHS;NHS;NHS;NHS;NHS;NHS;NHS;NHS;NHS;NHS;NHS;NHS;NHS;NHS;NHS;NHS;NHS;NHS;NHS
1DAN;K;T;20;HS;HS;HS;HS;HS;HS;HS;HS;HS;HS;HS;HS;HS;HS;HS;NHS;HS;HS;HS;HS;NHS;HS;NHS;NHS;NHS;NHS;HS;NHS;NHS;NHS;NHS;HS;NHS;NHS;NHS;NHS;NHS;NHS;NHS;NHS;NHS;NHS;NHS;NHS;NHS;NHS
2FTL;I;I;18;HS;HS;HS;HS;HS;HS;HS;HS;HS;HS;HS;NHS;NHS;NHS;NHS;NHS;NHS;NHS;NHS;NHS;NHS;NHS;NHS;NHS;NHS;NHS;NHS;NHS;NHS;NHS;NHS;NHS;NHS;NHS;NHS;NHS;NHS;NHS;NHS;NHS;NHS;NHS;NHS;NHS;NHS;NHS
1OGA;R;A;75;NHS;NHS;NHS;NHS;NHS;NHS;NHS;NHS;NHS;NHS;NHS;NHS;NHS;NHS;NHS;NHS;NHS;NHS;NHS;NHS;NHS;NHS;NHS;NHS;NHS;NHS;NHS;NHS;NHS;NHS;NHS;NHS;NHS;NHS;NHS;NHS;NHS;NHS;NHS;NHS;NHS;NHS;NHS;NHS;NHS;NHS
1EMV;Q;B;92;NHS;NHS;NHS;HS;HS;NHS;NHS;NHS;NHS;NHS;NHS;NHS;NHS;NHS;NHS;NHS;NHS;NHS;NHS;NHS;NHS;NHS;NHS;NHS;NHS;NHS;NHS;NHS;NHS;NHS;NHS;NHS;NHS;NHS;NHS;NHS;NHS;NHS;NHS;NHS;NHS;NHS;NHS;NHS;NHS;NHS
1A4Y;I;A;459;NHS;NHS;NHS;NHS;NHS;NHS;NHS;NHS;NHS;NHS;NHS;NHS;NHS;NHS;NHS;NHS;NHS;NHS;NHS;NHS;NHS;NHS;NHS;NHS;NHS;NHS;NHS;NHS;NHS;NHS;NHS;NHS;NHS;NHS;NHS;NHS;NHS;NHS;NHS;NHS;NHS;NHS;NHS;NHS;NHS;NHS
1VFB;Y;B;32;NHS;NHS;NHS;HS;HS;HS;NHS;NHS;HS;HS;NHS;NHS;NHS;NHS;NHS;NHS;NHS;NHS;NHS;NHS;NHS;NHS;NHS;NHS;NHS;NHS;NHS;NHS;NHS;NHS;NHS;NHS;NHS;NHS;NHS;NHS;NHS;NHS;NHS;NHS;NHS;NHS;NHS;NHS;NHS;NHS
2SIC;M;I;73;NHS;HS;HS;HS;HS;HS;HS;HS;HS;HS;HS;HS;HS;HS;HS;HS;HS;HS;HS;HS;HS;HS;HS;HS;HS;HS;HS;HS;HS;NHS;HS;HS;HS;HS;NHS;NHS;NHS;NHS;NHS;NHS;NHS;NHS;NHS;NHS;NHS;NHS
1DAN;R;U;135;NHS;HS;HS;HS;HS;HS;NHS;NHS;NHS;NHS;NHS;NHS;NHS;NHS;NHS;NHS;NHS;NHS;NHS;NHS;NHS;NHS;NHS;NHS;NHS;NHS;NHS;NHS;NHS;NHS;NHS;NHS;NHS;NHS;NHS;NHS;NHS;NHS;NHS;NHS;NHS;NHS;NHS;NHS;NHS;NHS
1IAR;Q;A;8;NHS;NHS;HS;NHS;NHS;NHS;NHS;HS;NHS;NHS;NHS;NHS;NHS;NHS;NHS;NHS;NHS;NHS;NHS;NHS;NHS;NHS;NHS;NHS;NHS;NHS;NHS;NHS;NHS;NHS;NHS;NHS;NHS;NHS;NHS;NHS;NHS;NHS;NHS;NHS;NHS;NHS;NHS;NHS;NHS;NHS
3BN9;F;B;94;NHS;NHS;NHS;NHS;HS;NHS;NHS;NHS;NHS;NHS;NHS;NHS;NHS;NHS;NHS;NHS;NHS;NHS;NHS;NHS;NHS;NHS;NHS;NHS;NHS;NHS;NHS;NHS;NHS;NHS;NHS;NHS;NHS;NHS;NHS;NHS;NHS;NHS;NHS;NHS;NHS;NHS;NHS;NHS;NHS;NHS
1FFW;D;B;207;NHS;NHS;HS;HS;HS;HS;NHS;NHS;HS;HS;NHS;NHS;NHS;NHS;HS;NHS;NHS;NHS;NHS;NHS;NHS;NHS;NHS;NHS;NHS;NHS;NHS;NHS;NHS;NHS;NHS;NHS;NHS;NHS;NHS;NHS;NHS;NHS;NHS;NHS;NHS;NHS;NHS;NHS;NHS;NHS
1DAN;L;T;72;NHS;NHS;HS;NHS;NHS;NHS;NHS;NHS;NHS;NHS;NHS;NHS;NHS;NHS;NHS;NHS;NHS;NHS;NHS;NHS;NHS;NHS;NHS;NHS;NHS;NHS;NHS;NHS;NHS;NHS;NHS;NHS;NHS;NHS;NHS;NHS;NHS;NHS;NHS;NHS;NHS;NHS;NHS;NHS;NHS;NHS
1OGA;V;A;76;NHS;HS;HS;NHS;HS;HS;HS;HS;NHS;NHS;NHS;NHS;NHS;NHS;NHS;NHS;NHS;NHS;NHS;NHS;NHS;NHS;NHS;NHS;NHS;NHS;NHS;NHS;NHS;NHS;NHS;NHS;NHS;NHS;NHS;NHS;NHS;NHS;NHS;NHS;NHS;NHS;NHS;NHS;NHS;NHS
1EMV;S;A;28;NHS;NHS;NHS;NHS;NHS;NHS;NHS;NHS;NHS;NHS;NHS;NHS;NHS;NHS;NHS;NHS;NHS;NHS;NHS;NHS;NHS;NHS;NHS;NHS;NHS;NHS;NHS;NHS;NHS;NHS;NHS;NHS;NHS;NHS;NHS;NHS;NHS;NHS;NHS;NHS;NHS;NHS;NHS;NHS;NHS;NHS
1DVF;Y;B;101;HS;HS;HS;HS;HS;HS;NHS;HS;HS;HS;HS;NHS;NHS;HS;HS;NHS;NHS;NHS;HS;HS;NHS;NHS;NHS;HS;NHS;NHS;NHS;NHS;NHS;NHS;NHS;NHS;NHS;NHS;NHS;NHS;NHS;NHS;NHS;NHS;NHS;NHS;NHS;NHS;NHS;NHS
1JRH;W;H;53;HS;HS;HS;HS;HS;HS;HS;HS;HS;HS;NHS;NHS;NHS;NHS;NHS;NHS;NHS;NHS;NHS;NHS;NHS;NHS;NHS;NHS;NHS;NHS;NHS;NHS;NHS;NHS;NHS;NHS;NHS;NHS;NHS;NHS;NHS;NHS;NHS;NHS;NHS;NHS;NHS;NHS;NHS;NHS
1DVF;D;B;58;NHS;NHS;NHS;HS;HS;NHS;NHS;NHS;NHS;NHS;NHS;NHS;NHS;NHS;NHS;NHS;NHS;NHS;NHS;NHS;NHS;NHS;NHS;NHS;NHS;NHS;NHS;NHS;NHS;NHS;NHS;NHS;NHS;NHS;NHS;NHS;NHS;NHS;NHS;NHS;NHS;NHS;NHS;NHS;NHS;NHS
1E50;T;A;161;HS;HS;HS;HS;HS;HS;NHS;HS;HS;HS;HS;NHS;HS;HS;HS;HS;NHS;HS;NHS;NHS;HS;NHS;HS;NHS;NHS;NHS;NHS;NHS;NHS;NHS;NHS;NHS;NHS;NHS;NHS;NHS;NHS;NHS;NHS;NHS;NHS;NHS;NHS;NHS;NHS;NHS
1KTZ;S;B;52;NHS;HS;HS;HS;HS;HS;HS;HS;HS;HS;HS;HS;HS;HS;HS;HS;HS;HS;HS;NHS;HS;HS;HS;NHS;NHS;HS;HS;HS;NHS;NHS;NHS;HS;NHS;NHS;NHS;NHS;NHS;NHS;NHS;NHS;NHS;NHS;NHS;NHS;NHS;NHS
1JTG;N;A;100;NHS;HS;HS;NHS;NHS;HS;NHS;NHS;NHS;NHS;NHS;NHS;NHS;NHS;NHS;NHS;NHS;NHS;NHS;NHS;NHS;NHS;NHS;NHS;NHS;NHS;NHS;NHS;NHS;NHS;NHS;NHS;NHS;NHS;NHS;NHS;NHS;NHS;NHS;NHS;NHS;NHS;NHS;NHS;NHS;NHS
1JTG;L;A;102;NHS;HS;HS;HS;HS;HS;HS;HS;HS;HS;HS;NHS;NHS;NHS;NHS;NHS;NHS;NHS;NHS;NHS;NHS;NHS;NHS;NHS;NHS;NHS;NHS;NHS;NHS;NHS;NHS;NHS;NHS;NHS;NHS;NHS;NHS;NHS;NHS;NHS;NHS;NHS;NHS;NHS;NHS;NHS
1A4Y;Q;B;12;NHS;NHS;HS;HS;HS;NHS;NHS;HS;NHS;NHS;NHS;NHS;NHS;NHS;NHS;NHS;NHS;NHS;NHS;NHS;NHS;NHS;NHS;NHS;NHS;NHS;NHS;NHS;NHS;NHS;NHS;NHS;NHS;NHS;NHS;NHS;NHS;NHS;NHS;NHS;NHS;NHS;NHS;NHS;NHS;NHS
1Z7X;E;W;344;NHS;NHS;NHS;NHS;NHS;NHS;NHS;NHS;NHS;NHS;NHS;NHS;NHS;NHS;NHS;NHS;NHS;NHS;NHS;NHS;NHS;NHS;NHS;NHS;NHS;NHS;NHS;NHS;NHS;NHS;NHS;NHS;NHS;NHS;NHS;NHS;NHS;NHS;NHS;NHS;NHS;NHS;NHS;NHS;NHS;NHS
3HFM;Y;H;58;NHS;HS;HS;HS;HS;HS;NHS;HS;HS;HS;HS;NHS;HS;HS;HS;NHS;NHS;NHS;NHS;NHS;NHS;NHS;NHS;NHS;NHS;NHS;NHS;NHS;NHS;NHS;NHS;NHS;NHS;NHS;NHS;NHS;NHS;NHS;NHS;NHS;NHS;NHS;NHS;NHS;NHS;NHS
1JTG;S;B;71;NHS;NHS;NHS;NHS;NHS;HS;NHS;NHS;NHS;NHS;NHS;NHS;NHS;NHS;NHS;NHS;NHS;NHS;NHS;NHS;NHS;NHS;NHS;NHS;NHS;NHS;NHS;NHS;NHS;NHS;NHS;NHS;NHS;NHS;NHS;NHS;NHS;NHS;NHS;NHS;NHS;NHS;NHS;NHS;NHS;NHS
1TM1;M;I;59;NHS;HS;HS;HS;HS;HS;HS;HS;HS;HS;HS;HS;HS;HS;HS;HS;HS;HS;HS;HS;HS;HS;HS;HS;HS;HS;HS;HS;HS;NHS;HS;HS;HS;NHS;NHS;HS;NHS;NHS;NHS;NHS;NHS;NHS;NHS;NHS;NHS;NHS
1DAN;E;T;24;NHS;NHS;NHS;NHS;HS;NHS;NHS;NHS;NHS;NHS;NHS;NHS;NHS;NHS;NHS;NHS;NHS;NHS;NHS;NHS;NHS;NHS;NHS;NHS;NHS;NHS;NHS;NHS;NHS;NHS;NHS;NHS;NHS;NHS;NHS;NHS;NHS;NHS;NHS;NHS;NHS;NHS;NHS;NHS;NHS;NHS
1EMV;F;B;86;HS;HS;HS;HS;HS;HS;HS;HS;HS;HS;HS;HS;HS;HS;HS;HS;HS;HS;HS;HS;HS;HS;HS;HS;HS;HS;HS;HS;HS;HS;HS;HS;HS;HS;HS;HS;NHS;HS;HS;NHS;HS;NHS;NHS;NHS;NHS;NHS
1A4Y;S;A;289;NHS;HS;HS;HS;HS;HS;NHS;HS;HS;HS;HS;NHS;NHS;NHS;NHS;HS;NHS;NHS;NHS;NHS;NHS;NHS;NHS;NHS;NHS;NHS;NHS;NHS;NHS;NHS;NHS;NHS;NHS;NHS;NHS;NHS;NHS;NHS;NHS;NHS;NHS;NHS;NHS;NHS;NHS;NHS
1A22;W;B;280;NHS;NHS;NHS;NHS;HS;HS;NHS;NHS;NHS;NHS;NHS;NHS;NHS;NHS;NHS;NHS;NHS;NHS;NHS;NHS;NHS;NHS;NHS;NHS;NHS;NHS;NHS;NHS;NHS;NHS;NHS;NHS;NHS;NHS;NHS;NHS;NHS;NHS;NHS;NHS;NHS;NHS;NHS;NHS;NHS;NHS
1EMV;S;A;50;HS;HS;HS;HS;HS;HS;HS;HS;HS;HS;HS;HS;HS;NHS;NHS;NHS;HS;NHS;NHS;NHS;NHS;HS;NHS;NHS;NHS;NHS;HS;NHS;NHS;NHS;NHS;HS;NHS;NHS;NHS;NHS;NHS;NHS;NHS;NHS;NHS;NHS;NHS;NHS;NHS;NHS
1FFW;I;B;216;NHS;NHS;HS;NHS;NHS;NHS;NHS;NHS;NHS;NHS;NHS;NHS;NHS;NHS;NHS;NHS;NHS;NHS;NHS;NHS;NHS;NHS;NHS;NHS;NHS;NHS;NHS;NHS;NHS;NHS;NHS;NHS;NHS;NHS;NHS;NHS;NHS;NHS;NHS;NHS;NHS;NHS;NHS;NHS;NHS;NHS
1IAR;W;A;91;NHS;NHS;HS;HS;HS;HS;NHS;NHS;HS;HS;NHS;NHS;NHS;NHS;NHS;NHS;NHS;NHS;NHS;NHS;NHS;NHS;NHS;NHS;NHS;NHS;NHS;NHS;NHS;NHS;NHS;NHS;NHS;NHS;NHS;NHS;NHS;NHS;NHS;NHS;NHS;NHS;NHS;NHS;NHS;NHS
2PCC;V;A;197;HS;NHS;HS;HS;HS;HS;NHS;HS;NHS;NHS;NHS;NHS;NHS;NHS;NHS;NHS;NHS;NHS;NHS;NHS;NHS;NHS;NHS;NHS;NHS;NHS;NHS;NHS;NHS;NHS;NHS;NHS;NHS;NHS;NHS;NHS;NHS;NHS;NHS;NHS;NHS;NHS;NHS;NHS;NHS;NHS
1VFB;T;C;118;NHS;NHS;NHS;NHS;HS;HS;NHS;NHS;NHS;NHS;NHS;NHS;NHS;NHS;NHS;NHS;NHS;NHS;NHS;NHS;NHS;NHS;NHS;NHS;NHS;NHS;NHS;NHS;NHS;NHS;NHS;NHS;NHS;NHS;NHS;NHS;NHS;NHS;NHS;NHS;NHS;NHS;NHS;NHS;NHS;NHS
2G2U;S;B;113;NHS;NHS;NHS;NHS;NHS;NHS;NHS;NHS;NHS;NHS;NHS;NHS;NHS;NHS;NHS;NHS;NHS;NHS;NHS;NHS;NHS;NHS;NHS;NHS;NHS;NHS;NHS;NHS;NHS;NHS;NHS;NHS;NHS;NHS;NHS;NHS;NHS;NHS;NHS;NHS;NHS;NHS;NHS;NHS;NHS;NHS
1KTZ;S;B;49;NHS;NHS;NHS;NHS;NHS;NHS;NHS;NHS;NHS;NHS;NHS;NHS;NHS;NHS;NHS;NHS;NHS;NHS;NHS;NHS;NHS;NHS;NHS;NHS;NHS;NHS;NHS;NHS;NHS;NHS;NHS;NHS;NHS;NHS;NHS;NHS;NHS;NHS;NHS;NHS;NHS;NHS;NHS;NHS;NHS;NHS
1JTG;S;B;113;NHS;NHS;NHS;NHS;NHS;NHS;NHS;NHS;NHS;NHS;NHS;NHS;NHS;NHS;NHS;NHS;NHS;NHS;NHS;NHS;NHS;NHS;NHS;NHS;NHS;NHS;NHS;NHS;NHS;NHS;NHS;NHS;NHS;NHS;NHS;NHS;NHS;NHS;NHS;NHS;NHS;NHS;NHS;NHS;NHS;NHS
1A22;F;A;176;NHS;HS;HS;HS;HS;HS;NHS;HS;HS;HS;HS;NHS;HS;HS;HS;HS;NHS;HS;HS;HS;HS;NHS;HS;NHS;NHS;HS;NHS;HS;NHS;NHS;NHS;NHS;NHS;NHS;NHS;NHS;NHS;NHS;NHS;NHS;NHS;NHS;NHS;NHS;NHS;NHS
3HFM;Y;L;96;HS;NHS;HS;HS;HS;HS;NHS;NHS;HS;HS;NHS;NHS;NHS;HS;HS;NHS;NHS;NHS;NHS;NHS;NHS;NHS;NHS;NHS;NHS;NHS;NHS;NHS;NHS;NHS;NHS;NHS;NHS;NHS;NHS;NHS;NHS;NHS;NHS;NHS;NHS;NHS;NHS;NHS;NHS;NHS
1E50;N;A;109;HS;NHS;HS;HS;HS;HS;NHS;NHS;NHS;NHS;NHS;NHS;NHS;NHS;NHS;NHS;NHS;NHS;NHS;NHS;NHS;NHS;NHS;NHS;NHS;NHS;NHS;NHS;NHS;NHS;NHS;NHS;NHS;NHS;NHS;NHS;NHS;NHS;NHS;NHS;NHS;NHS;NHS;NHS;NHS;NHS
2FTL;G;I;37;HS;NHS;NHS;HS;HS;NHS;NHS;NHS;NHS;NHS;NHS;NHS;NHS;NHS;NHS;NHS;NHS;NHS;NHS;NHS;NHS;NHS;NHS;NHS;NHS;NHS;NHS;NHS;NHS;NHS;NHS;NHS;NHS;NHS;NHS;NHS;NHS;NHS;NHS;NHS;NHS;NHS;NHS;NHS;NHS;NHS
1DVF;D;D;52;NHS;NHS;HS;NHS;HS;NHS;NHS;NHS;NHS;NHS;NHS;NHS;NHS;NHS;NHS;NHS;NHS;NHS;NHS;NHS;NHS;NHS;NHS;NHS;NHS;NHS;NHS;NHS;NHS;NHS;NHS;NHS;NHS;NHS;NHS;NHS;NHS;NHS;NHS;NHS;NHS;NHS;NHS;NHS;NHS;NHS
2FTL;V;I;34;HS;NHS;NHS;NHS;NHS;NHS;NHS;NHS;NHS;NHS;NHS;NHS;NHS;NHS;NHS;NHS;NHS;NHS;NHS;NHS;NHS;NHS;NHS;NHS;NHS;NHS;NHS;NHS;NHS;NHS;NHS;NHS;NHS;NHS;NHS;NHS;NHS;NHS;NHS;NHS;NHS;NHS;NHS;NHS;NHS;NHS
1XGT;L;B;33;HS;HS;HS;HS;HS;HS;HS;HS;HS;HS;HS;HS;HS;NHS;NHS;HS;HS;NHS;NHS;NHS;HS;HS;NHS;NHS;NHS;NHS;HS;NHS;NHS;NHS;NHS;HS;NHS;NHS;NHS;NHS;NHS;NHS;NHS;NHS;NHS;NHS;NHS;NHS;NHS;NHS
1A22;Q;A;22;NHS;NHS;HS;HS;HS;HS;NHS;NHS;NHS;NHS;NHS;NHS;NHS;NHS;NHS;NHS;NHS;NHS;NHS;NHS;NHS;NHS;NHS;NHS;NHS;NHS;NHS;NHS;NHS;NHS;NHS;NHS;NHS;NHS;NHS;NHS;NHS;NHS;NHS;NHS;NHS;NHS;NHS;NHS;NHS;NHS
1JRH;Y;L;30;NHS;HS;HS;HS;HS;HS;HS;HS;HS;HS;HS;NHS;NHS;NHS;NHS;NHS;NHS;NHS;NHS;NHS;NHS;NHS;NHS;NHS;NHS;NHS;NHS;NHS;NHS;NHS;NHS;NHS;NHS;NHS;NHS;NHS;NHS;NHS;NHS;NHS;NHS;NHS;NHS;NHS;NHS;NHS
1F47;D;A;4;NHS;HS;HS;HS;HS;HS;NHS;HS;NHS;NHS;NHS;NHS;NHS;NHS;NHS;NHS;NHS;NHS;NHS;NHS;NHS;NHS;NHS;NHS;NHS;NHS;NHS;NHS;NHS;NHS;NHS;NHS;NHS;NHS;NHS;NHS;NHS;NHS;NHS;NHS;NHS;NHS;NHS;NHS;NHS;NHS
1FFW;D;B;202;NHS;NHS;HS;NHS;NHS;NHS;NHS;NHS;NHS;NHS;NHS;NHS;NHS;NHS;NHS;NHS;NHS;NHS;NHS;NHS;NHS;NHS;NHS;NHS;NHS;NHS;NHS;NHS;NHS;NHS;NHS;NHS;NHS;NHS;NHS;NHS;NHS;NHS;NHS;NHS;NHS;NHS;NHS;NHS;NHS;NHS
2G2U;Y;B;143;NHS;NHS;NHS;HS;HS;HS;NHS;NHS;NHS;HS;NHS;NHS;NHS;NHS;NHS;NHS;NHS;NHS;NHS;NHS;NHS;NHS;NHS;NHS;NHS;NHS;NHS;NHS;NHS;NHS;NHS;NHS;NHS;NHS;NHS;NHS;NHS;NHS;NHS;NHS;NHS;NHS;NHS;NHS;NHS;NHS
1A22;E;B;275;NHS;NHS;NHS;NHS;HS;NHS;NHS;NHS;NHS;NHS;NHS;NHS;NHS;NHS;NHS;NHS;NHS;NHS;NHS;NHS;NHS;NHS;NHS;NHS;NHS;NHS;NHS;NHS;NHS;NHS;NHS;NHS;NHS;NHS;NHS;NHS;NHS;NHS;NHS;NHS;NHS;NHS;NHS;NHS;NHS;NHS
3SGB;T;I;17;HS;HS;HS;HS;HS;HS;HS;HS;NHS;HS;HS;NHS;HS;NHS;NHS;NHS;NHS;NHS;NHS;NHS;NHS;NHS;NHS;NHS;NHS;NHS;NHS;NHS;NHS;NHS;NHS;NHS;NHS;NHS;NHS;NHS;NHS;NHS;NHS;NHS;NHS;NHS;NHS;NHS;NHS;NHS
1KTZ;F;B;30;HS;HS;HS;HS;HS;HS;HS;HS;HS;HS;HS;NHS;NHS;HS;HS;HS;NHS;NHS;HS;HS;NHS;NHS;NHS;NHS;NHS;NHS;NHS;NHS;NHS;NHS;NHS;NHS;NHS;NHS;NHS;NHS;NHS;NHS;NHS;NHS;NHS;NHS;NHS;NHS;NHS;NHS
1H9D;N;B;104;HS;HS;HS;HS;HS;HS;HS;HS;HS;HS;HS;NHS;HS;HS;HS;HS;NHS;NHS;HS;NHS;HS;NHS;NHS;NHS;NHS;NHS;NHS;NHS;NHS;NHS;NHS;NHS;NHS;NHS;NHS;NHS;NHS;NHS;NHS;NHS;NHS;NHS;NHS;NHS;NHS;NHS
1JTG;G;B;141;NHS;NHS;HS;HS;HS;HS;NHS;NHS;NHS;NHS;NHS;NHS;NHS;NHS;NHS;NHS;NHS;NHS;NHS;NHS;NHS;NHS;NHS;NHS;NHS;NHS;NHS;NHS;NHS;NHS;NHS;NHS;NHS;NHS;NHS;NHS;NHS;NHS;NHS;NHS;NHS;NHS;NHS;NHS;NHS;NHS
3NPS;Q;A;175;NHS;NHS;NHS;NHS;HS;NHS;NHS;NHS;NHS;NHS;NHS;NHS;NHS;NHS;NHS;NHS;NHS;NHS;NHS;NHS;NHS;NHS;NHS;NHS;NHS;NHS;NHS;NHS;NHS;NHS;NHS;NHS;NHS;NHS;NHS;NHS;NHS;NHS;NHS;NHS;NHS;NHS;NHS;NHS;NHS;NHS
1XGR;I;B;33;HS;HS;HS;HS;HS;HS;HS;HS;NHS;NHS;HS;NHS;HS;NHS;NHS;HS;NHS;NHS;NHS;NHS;NHS;NHS;NHS;NHS;NHS;NHS;NHS;NHS;NHS;NHS;NHS;NHS;NHS;NHS;NHS;NHS;NHS;NHS;NHS;NHS;NHS;NHS;NHS;NHS;NHS;NHS
1JCK;V;B;91;HS;HS;HS;NHS;HS;HS;HS;HS;NHS;NHS;HS;NHS;NHS;NHS;NHS;NHS;NHS;NHS;NHS;NHS;NHS;NHS;NHS;NHS;NHS;NHS;NHS;NHS;NHS;NHS;NHS;NHS;NHS;NHS;NHS;NHS;NHS;NHS;NHS;NHS;NHS;NHS;NHS;NHS;NHS;NHS
1R0R;G;I;32;NHS;NHS;NHS;NHS;NHS;NHS;NHS;NHS;NHS;NHS;NHS;NHS;NHS;NHS;NHS;NHS;NHS;NHS;NHS;NHS;NHS;NHS;NHS;NHS;NHS;NHS;NHS;NHS;NHS;NHS;NHS;NHS;NHS;NHS;NHS;NHS;NHS;NHS;NHS;NHS;NHS;NHS;NHS;NHS;NHS;NHS
2WPT;R;B;54;NHS;NHS;NHS;NHS;NHS;NHS;NHS;NHS;NHS;NHS;NHS;NHS;NHS;NHS;NHS;NHS;NHS;NHS;NHS;NHS;NHS;NHS;NHS;NHS;NHS;NHS;NHS;NHS;NHS;NHS;NHS;NHS;NHS;NHS;NHS;NHS;NHS;NHS;NHS;NHS;NHS;NHS;NHS;NHS;NHS;NHS
1EMV;D;A;51;HS;NHS;NHS;HS;HS;NHS;NHS;NHS;HS;HS;NHS;NHS;NHS;NHS;NHS;NHS;NHS;NHS;NHS;NHS;NHS;NHS;NHS;NHS;NHS;NHS;NHS;NHS;NHS;NHS;NHS;NHS;NHS;NHS;NHS;NHS;NHS;NHS;NHS;NHS;NHS;NHS;NHS;NHS;NHS;NHS
1F47;K;A;14;NHS;NHS;HS;NHS;NHS;NHS;NHS;NHS;NHS;NHS;NHS;NHS;NHS;NHS;NHS;NHS;NHS;NHS;NHS;NHS;NHS;NHS;NHS;NHS;NHS;NHS;NHS;NHS;NHS;NHS;NHS;NHS;NHS;NHS;NHS;NHS;NHS;NHS;NHS;NHS;NHS;NHS;NHS;NHS;NHS;NHS
1JTG;W;B;112;HS;HS;HS;HS;HS;HS;HS;HS;HS;HS;HS;NHS;HS;HS;HS;HS;NHS;HS;NHS;HS;HS;NHS;NHS;NHS;NHS;NHS;NHS;NHS;NHS;NHS;NHS;NHS;NHS;NHS;NHS;NHS;NHS;NHS;NHS;NHS;NHS;NHS;NHS;NHS;NHS;NHS
1LFD;D;A;56;NHS;NHS;NHS;NHS;NHS;NHS;NHS;NHS;NHS;NHS;NHS;NHS;NHS;NHS;NHS;NHS;NHS;NHS;NHS;NHS;NHS;NHS;NHS;NHS;NHS;NHS;NHS;NHS;NHS;NHS;NHS;NHS;NHS;NHS;NHS;NHS;NHS;NHS;NHS;NHS;NHS;NHS;NHS;NHS;NHS;NHS
1LFD;N;A;29;NHS;NHS;HS;HS;HS;HS;NHS;NHS;NHS;NHS;NHS;NHS;NHS;NHS;NHS;NHS;NHS;NHS;NHS;NHS;NHS;NHS;NHS;NHS;NHS;NHS;NHS;NHS;NHS;NHS;NHS;NHS;NHS;NHS;NHS;NHS;NHS;NHS;NHS;NHS;NHS;NHS;NHS;NHS;NHS;NHS
2HRK;Y;B;106;HS;HS;HS;HS;HS;HS;HS;HS;HS;HS;HS;NHS;HS;HS;HS;HS;NHS;HS;HS;HS;HS;NHS;HS;HS;HS;HS;NHS;NHS;NHS;NHS;NHS;NHS;NHS;NHS;NHS;NHS;NHS;NHS;NHS;NHS;NHS;NHS;NHS;NHS;NHS;NHS
2FTL;P;I;13;HS;HS;HS;HS;HS;HS;NHS;NHS;NHS;NHS;NHS;NHS;NHS;NHS;NHS;NHS;NHS;NHS;NHS;NHS;NHS;NHS;NHS;NHS;NHS;NHS;NHS;NHS;NHS;NHS;NHS;NHS;NHS;NHS;NHS;NHS;NHS;NHS;NHS;NHS;NHS;NHS;NHS;NHS;NHS;NHS
1DAN;Y;U;94;NHS;HS;HS;HS;HS;HS;HS;HS;HS;HS;HS;HS;HS;HS;HS;HS;HS;HS;HS;HS;HS;HS;HS;HS;HS;HS;HS;HS;HS;NHS;HS;HS;HS;HS;NHS;HS;NHS;NHS;NHS;NHS;NHS;NHS;NHS;NHS;NHS;NHS
1VFB;Y;A;50;NHS;HS;HS;HS;HS;HS;NHS;HS;HS;HS;HS;NHS;NHS;NHS;NHS;NHS;NHS;NHS;NHS;NHS;NHS;NHS;NHS;NHS;NHS;NHS;NHS;NHS;NHS;NHS;NHS;NHS;NHS;NHS;NHS;NHS;NHS;NHS;NHS;NHS;NHS;NHS;NHS;NHS;NHS;NHS
3BN9;K;B;224;NHS;NHS;HS;NHS;NHS;NHS;NHS;NHS;NHS;NHS;NHS;NHS;NHS;NHS;NHS;NHS;NHS;NHS;NHS;NHS;NHS;NHS;NHS;NHS;NHS;NHS;NHS;NHS;NHS;NHS;NHS;NHS;NHS;NHS;NHS;NHS;NHS;NHS;NHS;NHS;NHS;NHS;NHS;NHS;NHS;NHS
1CBW;P;I;13;NHS;HS;HS;HS;HS;HS;HS;HS;HS;HS;HS;NHS;NHS;NHS;NHS;NHS;NHS;NHS;NHS;NHS;NHS;NHS;NHS;NHS;NHS;NHS;NHS;NHS;NHS;NHS;NHS;NHS;NHS;NHS;NHS;NHS;NHS;NHS;NHS;NHS;NHS;NHS;NHS;NHS;NHS;NHS
2WPT;K;B;97;NHS;HS;HS;HS;HS;HS;HS;HS;HS;HS;HS;NHS;NHS;HS;HS;NHS;NHS;NHS;NHS;NHS;NHS;NHS;NHS;NHS;NHS;NHS;NHS;NHS;NHS;NHS;NHS;NHS;NHS;NHS;NHS;NHS;NHS;NHS;NHS;NHS;NHS;NHS;NHS;NHS;NHS;NHS
3SGB;R;I;21;NHS;HS;NHS;NHS;HS;HS;NHS;NHS;NHS;NHS;NHS;NHS;NHS;NHS;NHS;NHS;NHS;NHS;NHS;NHS;NHS;NHS;NHS;NHS;NHS;NHS;NHS;NHS;NHS;NHS;NHS;NHS;NHS;NHS;NHS;NHS;NHS;NHS;NHS;NHS;NHS;NHS;NHS;NHS;NHS;NHS
1DAN;N;U;138;NHS;NHS;NHS;NHS;NHS;NHS;NHS;NHS;NHS;NHS;NHS;NHS;NHS;NHS;NHS;NHS;NHS;NHS;NHS;NHS;NHS;NHS;NHS;NHS;NHS;NHS;NHS;NHS;NHS;NHS;NHS;NHS;NHS;NHS;NHS;NHS;NHS;NHS;NHS;NHS;NHS;NHS;NHS;NHS;NHS;NHS
1A22;W;B;276;NHS;HS;HS;HS;HS;HS;HS;HS;HS;HS;HS;NHS;HS;HS;HS;NHS;NHS;NHS;HS;HS;NHS;NHS;NHS;NHS;NHS;NHS;NHS;NHS;NHS;NHS;NHS;NHS;NHS;NHS;NHS;NHS;NHS;NHS;NHS;NHS;NHS;NHS;NHS;NHS;NHS;NHS
1GC1;N;C;32;NHS;NHS;NHS;NHS;NHS;NHS;NHS;NHS;NHS;NHS;NHS;NHS;NHS;NHS;NHS;NHS;NHS;NHS;NHS;NHS;NHS;NHS;NHS;NHS;NHS;NHS;NHS;NHS;NHS;NHS;NHS;NHS;NHS;NHS;NHS;NHS;NHS;NHS;NHS;NHS;NHS;NHS;NHS;NHS;NHS;NHS
1A22;P;A;48;NHS;HS;HS;HS;HS;HS;HS;HS;NHS;NHS;HS;NHS;NHS;NHS;NHS;NHS;NHS;NHS;NHS;NHS;NHS;NHS;NHS;NHS;NHS;NHS;NHS;NHS;NHS;NHS;NHS;NHS;NHS;NHS;NHS;NHS;NHS;NHS;NHS;NHS;NHS;NHS;NHS;NHS;NHS;NHS
2WPT;S;B;84;NHS;NHS;NHS;HS;HS;HS;NHS;NHS;NHS;NHS;NHS;NHS;NHS;NHS;NHS;NHS;NHS;NHS;NHS;NHS;NHS;NHS;NHS;NHS;NHS;NHS;NHS;NHS;NHS;NHS;NHS;NHS;NHS;NHS;NHS;NHS;NHS;NHS;NHS;NHS;NHS;NHS;NHS;NHS;NHS;NHS
1VFB;D;C;18;NHS;NHS;NHS;NHS;HS;NHS;NHS;NHS;NHS;NHS;NHS;NHS;NHS;NHS;NHS;NHS;NHS;NHS;NHS;NHS;NHS;NHS;NHS;NHS;NHS;NHS;NHS;NHS;NHS;NHS;NHS;NHS;NHS;NHS;NHS;NHS;NHS;NHS;NHS;NHS;NHS;NHS;NHS;NHS;NHS;NHS
1CHO;Y;I;20;HS;HS;HS;HS;HS;HS;HS;HS;HS;HS;HS;HS;HS;HS;HS;HS;HS;HS;HS;HS;HS;HS;HS;HS;HS;HS;HS;HS;HS;NHS;HS;NHS;NHS;NHS;NHS;NHS;NHS;NHS;NHS;NHS;NHS;NHS;NHS;NHS;NHS;NHS
3BK3;I;C;21;NHS;HS;HS;HS;HS;HS;HS;HS;HS;HS;HS;NHS;HS;NHS;HS;HS;NHS;HS;NHS;NHS;HS;NHS;NHS;NHS;NHS;NHS;NHS;NHS;NHS;NHS;NHS;NHS;NHS;NHS;NHS;NHS;NHS;NHS;NHS;NHS;NHS;NHS;NHS;NHS;NHS;NHS
1EMV;R;B;54;NHS;NHS;HS;NHS;NHS;NHS;NHS;NHS;NHS;NHS;NHS;NHS;NHS;NHS;NHS;NHS;NHS;NHS;NHS;NHS;NHS;NHS;NHS;NHS;NHS;NHS;NHS;NHS;NHS;NHS;NHS;NHS;NHS;NHS;NHS;NHS;NHS;NHS;NHS;NHS;NHS;NHS;NHS;NHS;NHS;NHS
1AHW;T;C;197;NHS;NHS;NHS;NHS;NHS;NHS;NHS;NHS;NHS;NHS;NHS;NHS;NHS;NHS;NHS;NHS;NHS;NHS;NHS;NHS;NHS;NHS;NHS;NHS;NHS;NHS;NHS;NHS;NHS;NHS;NHS;NHS;NHS;NHS;NHS;NHS;NHS;NHS;NHS;NHS;NHS;NHS;NHS;NHS;NHS;NHS
1R0R;N;I;36;NHS;NHS;HS;NHS;NHS;NHS;NHS;NHS;NHS;NHS;NHS;NHS;NHS;NHS;NHS;NHS;NHS;NHS;NHS;NHS;NHS;NHS;NHS;NHS;NHS;NHS;NHS;NHS;NHS;NHS;NHS;NHS;NHS;NHS;NHS;NHS;NHS;NHS;NHS;NHS;NHS;NHS;NHS;NHS;NHS;NHS
1CHO;P;I;14;NHS;HS;HS;NHS;NHS;HS;NHS;NHS;NHS;NHS;NHS;NHS;NHS;NHS;NHS;NHS;NHS;NHS;NHS;NHS;NHS;NHS;NHS;NHS;NHS;NHS;NHS;NHS;NHS;NHS;NHS;NHS;NHS;NHS;NHS;NHS;NHS;NHS;NHS;NHS;NHS;NHS;NHS;NHS;NHS;NHS
1H9D;L;B;103;NHS;HS;HS;HS;HS;HS;NHS;NHS;NHS;NHS;NHS;NHS;NHS;NHS;NHS;NHS;NHS;NHS;NHS;NHS;NHS;NHS;NHS;NHS;NHS;NHS;NHS;NHS;NHS;NHS;NHS;NHS;NHS;NHS;NHS;NHS;NHS;NHS;NHS;NHS;NHS;NHS;NHS;NHS;NHS;NHS
1AHW;V;C;198;NHS;NHS;NHS;NHS;NHS;NHS;NHS;NHS;NHS;NHS;NHS;NHS;NHS;NHS;NHS;NHS;NHS;NHS;NHS;NHS;NHS;NHS;NHS;NHS;NHS;NHS;NHS;NHS;NHS;NHS;NHS;NHS;NHS;NHS;NHS;NHS;NHS;NHS;NHS;NHS;NHS;NHS;NHS;NHS;NHS;NHS
1E50;T;A;149;NHS;HS;HS;HS;HS;HS;HS;HS;NHS;NHS;HS;HS;NHS;NHS;NHS;NHS;HS;NHS;NHS;NHS;NHS;HS;NHS;NHS;NHS;NHS;HS;NHS;NHS;NHS;NHS;HS;NHS;NHS;NHS;NHS;NHS;NHS;NHS;NHS;NHS;NHS;NHS;NHS;NHS;NHS
1CHO;G;I;32;NHS;NHS;NHS;HS;HS;NHS;NHS;NHS;NHS;NHS;NHS;NHS;NHS;NHS;NHS;NHS;NHS;NHS;NHS;NHS;NHS;NHS;NHS;NHS;NHS;NHS;NHS;NHS;NHS;NHS;NHS;NHS;NHS;NHS;NHS;NHS;NHS;NHS;NHS;NHS;NHS;NHS;NHS;NHS;NHS;NHS
1A4Y;W;A;318;NHS;HS;HS;HS;HS;HS;HS;HS;HS;HS;HS;HS;HS;HS;HS;HS;HS;HS;HS;HS;HS;HS;HS;HS;HS;HS;HS;NHS;NHS;NHS;NHS;HS;NHS;NHS;NHS;NHS;NHS;NHS;NHS;NHS;NHS;NHS;NHS;NHS;NHS;NHS
1OGA;D;E;32;NHS;NHS;HS;HS;HS;NHS;NHS;NHS;NHS;NHS;NHS;NHS;NHS;NHS;NHS;NHS;NHS;NHS;NHS;NHS;NHS;NHS;NHS;NHS;NHS;NHS;NHS;NHS;NHS;NHS;NHS;NHS;NHS;NHS;NHS;NHS;NHS;NHS;NHS;NHS;NHS;NHS;NHS;NHS;NHS;NHS
2GOX;N;B;138;NHS;HS;HS;HS;HS;HS;HS;HS;HS;HS;HS;NHS;NHS;HS;NHS;HS;NHS;NHS;NHS;NHS;NHS;NHS;NHS;NHS;NHS;NHS;NHS;NHS;NHS;NHS;NHS;NHS;NHS;NHS;NHS;NHS;NHS;NHS;NHS;NHS;NHS;NHS;NHS;NHS;NHS;NHS
1JTG;Y;B;143;NHS;NHS;HS;HS;HS;HS;NHS;HS;HS;HS;HS;NHS;HS;HS;HS;NHS;NHS;NHS;HS;HS;NHS;NHS;NHS;NHS;NHS;NHS;NHS;NHS;NHS;NHS;NHS;NHS;NHS;NHS;NHS;NHS;NHS;NHS;NHS;NHS;NHS;NHS;NHS;NHS;NHS;NHS
1A22;R;B;417;NHS;HS;NHS;HS;HS;HS;NHS;NHS;NHS;NHS;NHS;NHS;NHS;NHS;NHS;NHS;NHS;NHS;NHS;NHS;NHS;NHS;NHS;NHS;NHS;NHS;NHS;NHS;NHS;NHS;NHS;NHS;NHS;NHS;NHS;NHS;NHS;NHS;NHS;NHS;NHS;NHS;NHS;NHS;NHS;NHS
1PPF;R;I;21;NHS;HS;NHS;NHS;HS;HS;HS;NHS;NHS;NHS;NHS;NHS;NHS;NHS;NHS;NHS;NHS;NHS;NHS;NHS;NHS;NHS;NHS;NHS;NHS;NHS;NHS;NHS;NHS;NHS;NHS;NHS;NHS;NHS;NHS;NHS;NHS;NHS;NHS;NHS;NHS;NHS;NHS;NHS;NHS;NHS
3BK3;I;C;2;NHS;HS;HS;HS;HS;HS;HS;HS;HS;HS;HS;NHS;HS;NHS;NHS;HS;NHS;NHS;NHS;NHS;NHS;NHS;NHS;NHS;NHS;NHS;NHS;NHS;NHS;NHS;NHS;NHS;NHS;NHS;NHS;NHS;NHS;NHS;NHS;NHS;NHS;NHS;NHS;NHS;NHS;NHS
2WPT;Y;A;54;HS;HS;HS;HS;HS;HS;HS;HS;HS;HS;HS;HS;HS;HS;HS;HS;HS;HS;HS;HS;HS;HS;HS;HS;HS;HS;HS;HS;HS;HS;HS;HS;HS;HS;NHS;HS;NHS;HS;HS;NHS;HS;NHS;NHS;NHS;NHS;NHS
1SMF;S;I;12;NHS;HS;HS;HS;HS;HS;HS;HS;HS;HS;NHS;NHS;NHS;NHS;NHS;NHS;NHS;NHS;NHS;NHS;NHS;NHS;NHS;NHS;NHS;NHS;NHS;NHS;NHS;NHS;NHS;NHS;NHS;NHS;NHS;NHS;NHS;NHS;NHS;NHS;NHS;NHS;NHS;NHS;NHS;NHS
2PCC;K;B;72;NHS;HS;HS;NHS;NHS;NHS;NHS;NHS;NHS;NHS;NHS;NHS;NHS;NHS;NHS;NHS;NHS;NHS;NHS;NHS;NHS;NHS;NHS;NHS;NHS;NHS;NHS;NHS;NHS;NHS;NHS;NHS;NHS;NHS;NHS;NHS;NHS;NHS;NHS;NHS;NHS;NHS;NHS;NHS;NHS;NHS
1A22;H;A;18;NHS;HS;HS;HS;HS;HS;NHS;HS;NHS;NHS;NHS;NHS;NHS;NHS;NHS;NHS;NHS;NHS;NHS;NHS;NHS;NHS;NHS;NHS;NHS;NHS;NHS;NHS;NHS;NHS;NHS;NHS;NHS;NHS;NHS;NHS;NHS;NHS;NHS;NHS;NHS;NHS;NHS;NHS;NHS;NHS
1AHW;Y;C;156;HS;HS;HS;HS;HS;HS;HS;HS;HS;HS;HS;NHS;HS;HS;HS;HS;NHS;HS;HS;HS;NHS;NHS;NHS;HS;NHS;NHS;NHS;NHS;NHS;NHS;NHS;NHS;NHS;NHS;NHS;NHS;NHS;NHS;NHS;NHS;NHS;NHS;NHS;NHS;NHS;NHS
1DAN;M;H;164;NHS;HS;HS;HS;HS;HS;HS;HS;HS;HS;HS;NHS;HS;HS;NHS;HS;NHS;HS;NHS;NHS;HS;NHS;NHS;NHS;NHS;NHS;NHS;NHS;NHS;NHS;NHS;NHS;NHS;NHS;NHS;NHS;NHS;NHS;NHS;NHS;NHS;NHS;NHS;NHS;NHS;NHS
2JEL;H;P;76;NHS;NHS;NHS;HS;HS;NHS;NHS;NHS;NHS;NHS;NHS;NHS;NHS;NHS;NHS;NHS;NHS;NHS;NHS;NHS;NHS;NHS;NHS;NHS;NHS;NHS;NHS;NHS;NHS;NHS;NHS;NHS;NHS;NHS;NHS;NHS;NHS;NHS;NHS;NHS;NHS;NHS;NHS;NHS;NHS;NHS
1OGA;N;E;55;NHS;HS;NHS;NHS;NHS;HS;NHS;NHS;NHS;NHS;NHS;NHS;NHS;NHS;NHS;NHS;NHS;NHS;NHS;NHS;NHS;NHS;NHS;NHS;NHS;NHS;NHS;NHS;NHS;NHS;NHS;NHS;NHS;NHS;NHS;NHS;NHS;NHS;NHS;NHS;NHS;NHS;NHS;NHS;NHS;NHS
1DAN;W;T;45;NHS;HS;HS;HS;HS;HS;NHS;HS;HS;HS;HS;NHS;HS;HS;HS;HS;NHS;NHS;HS;HS;NHS;NHS;NHS;HS;NHS;NHS;NHS;NHS;NHS;NHS;NHS;NHS;NHS;NHS;NHS;NHS;NHS;NHS;NHS;NHS;NHS;NHS;NHS;NHS;NHS;NHS
1LFD;K;A;32;NHS;HS;HS;HS;HS;HS;HS;HS;HS;HS;HS;HS;HS;HS;HS;NHS;HS;NHS;NHS;NHS;NHS;HS;NHS;NHS;NHS;NHS;HS;NHS;NHS;NHS;NHS;HS;NHS;NHS;NHS;NHS;NHS;NHS;NHS;NHS;NHS;NHS;NHS;NHS;NHS;NHS
1EMV;H;A;46;NHS;NHS;HS;NHS;NHS;NHS;NHS;NHS;NHS;NHS;NHS;NHS;NHS;NHS;NHS;NHS;NHS;NHS;NHS;NHS;NHS;NHS;NHS;NHS;NHS;NHS;NHS;NHS;NHS;NHS;NHS;NHS;NHS;NHS;NHS;NHS;NHS;NHS;NHS;NHS;NHS;NHS;NHS;NHS;NHS;NHS
1AK4;V;D;486;NHS;NHS;NHS;NHS;NHS;NHS;NHS;NHS;NHS;NHS;NHS;NHS;NHS;NHS;NHS;NHS;NHS;NHS;NHS;NHS;NHS;NHS;NHS;NHS;NHS;NHS;NHS;NHS;NHS;NHS;NHS;NHS;NHS;NHS;NHS;NHS;NHS;NHS;NHS;NHS;NHS;NHS;NHS;NHS;NHS;NHS
1Z7X;W;W;375;NHS;NHS;NHS;HS;HS;HS;NHS;NHS;NHS;NHS;NHS;NHS;NHS;NHS;NHS;NHS;NHS;NHS;NHS;NHS;NHS;NHS;NHS;NHS;NHS;NHS;NHS;NHS;NHS;NHS;NHS;NHS;NHS;NHS;NHS;NHS;NHS;NHS;NHS;NHS;NHS;NHS;NHS;NHS;NHS;NHS
1DQJ;W;C;63;NHS;NHS;HS;HS;HS;HS;NHS;HS;HS;HS;HS;NHS;HS;HS;HS;NHS;NHS;NHS;NHS;NHS;NHS;NHS;NHS;NHS;NHS;NHS;NHS;NHS;NHS;NHS;NHS;NHS;NHS;NHS;NHS;NHS;NHS;NHS;NHS;NHS;NHS;NHS;NHS;NHS;NHS;NHS
1A22;P;A;61;NHS;NHS;NHS;NHS;NHS;NHS;NHS;NHS;NHS;NHS;NHS;NHS;NHS;NHS;NHS;NHS;NHS;NHS;NHS;NHS;NHS;NHS;NHS;NHS;NHS;NHS;NHS;NHS;NHS;NHS;NHS;NHS;NHS;NHS;NHS;NHS;NHS;NHS;NHS;NHS;NHS;NHS;NHS;NHS;NHS;NHS
1EAW;H;A;143;NHS;NHS;HS;HS;HS;HS;NHS;HS;NHS;NHS;NHS;NHS;HS;NHS;NHS;NHS;NHS;NHS;NHS;NHS;NHS;NHS;NHS;NHS;NHS;NHS;NHS;NHS;NHS;NHS;NHS;NHS;NHS;NHS;NHS;NHS;NHS;NHS;NHS;NHS;NHS;NHS;NHS;NHS;NHS;NHS
1OGA;Q;A;72;NHS;NHS;NHS;HS;HS;HS;NHS;NHS;NHS;NHS;NHS;NHS;NHS;NHS;NHS;NHS;NHS;NHS;NHS;NHS;NHS;NHS;NHS;NHS;NHS;NHS;NHS;NHS;NHS;NHS;NHS;NHS;NHS;NHS;NHS;NHS;NHS;NHS;NHS;NHS;NHS;NHS;NHS;NHS;NHS;NHS
1DQJ;Y;A;96;NHS;NHS;HS;HS;HS;HS;NHS;NHS;HS;HS;NHS;NHS;NHS;HS;HS;NHS;NHS;NHS;NHS;NHS;NHS;NHS;NHS;NHS;NHS;NHS;NHS;NHS;NHS;NHS;NHS;NHS;NHS;NHS;NHS;NHS;NHS;NHS;NHS;NHS;NHS;NHS;NHS;NHS;NHS;NHS
2G2U;H;B;41;NHS;HS;HS;HS;HS;HS;HS;HS;HS;HS;HS;HS;HS;HS;HS;HS;HS;HS;HS;HS;HS;HS;HS;HS;HS;NHS;HS;NHS;HS;HS;NHS;HS;NHS;NHS;NHS;NHS;NHS;NHS;NHS;NHS;NHS;NHS;NHS;NHS;NHS;NHS
1E50;N;A;69;NHS;HS;HS;HS;HS;HS;HS;HS;NHS;NHS;HS;HS;NHS;NHS;NHS;NHS;HS;NHS;NHS;NHS;NHS;HS;NHS;NHS;NHS;NHS;HS;NHS;NHS;NHS;NHS;HS;NHS;NHS;NHS;NHS;HS;NHS;NHS;NHS;NHS;NHS;NHS;NHS;NHS;NHS
1A22;V;B;371;NHS;NHS;NHS;NHS;NHS;NHS;NHS;NHS;NHS;NHS;NHS;NHS;NHS;NHS;NHS;NHS;NHS;NHS;NHS;NHS;NHS;NHS;NHS;NHS;NHS;NHS;NHS;NHS;NHS;NHS;NHS;NHS;NHS;NHS;NHS;NHS;NHS;NHS;NHS;NHS;NHS;NHS;NHS;NHS;NHS;NHS
1Z7X;K;W;320;NHS;HS;HS;HS;HS;HS;NHS;NHS;HS;HS;NHS;NHS;NHS;NHS;NHS;NHS;NHS;NHS;NHS;NHS;NHS;NHS;NHS;NHS;NHS;NHS;NHS;NHS;NHS;NHS;NHS;NHS;NHS;NHS;NHS;NHS;NHS;NHS;NHS;NHS;NHS;NHS;NHS;NHS;NHS;NHS
3HFM;Y;L;50;HS;HS;HS;HS;HS;HS;HS;HS;HS;HS;HS;NHS;HS;HS;HS;HS;NHS;HS;HS;HS;HS;NHS;HS;HS;NHS;NHS;NHS;NHS;NHS;NHS;NHS;NHS;NHS;NHS;NHS;NHS;NHS;NHS;NHS;NHS;NHS;NHS;NHS;NHS;NHS;NHS
1LFD;D;B;238;HS;HS;HS;HS;HS;HS;HS;HS;HS;HS;HS;NHS;HS;HS;HS;NHS;NHS;NHS;HS;HS;NHS;NHS;NHS;HS;NHS;NHS;NHS;NHS;NHS;NHS;NHS;NHS;NHS;NHS;NHS;NHS;NHS;NHS;NHS;NHS;NHS;NHS;NHS;NHS;NHS;NHS
1F47;D;A;7;NHS;NHS;NHS;NHS;NHS;NHS;NHS;NHS;NHS;NHS;NHS;NHS;NHS;NHS;NHS;NHS;NHS;NHS;NHS;NHS;NHS;NHS;NHS;NHS;NHS;NHS;NHS;NHS;NHS;NHS;NHS;NHS;NHS;NHS;NHS;NHS;NHS;NHS;NHS;NHS;NHS;NHS;NHS;NHS;NHS;NHS
1AK4;G;D;489;HS;HS;HS;HS;HS;HS;HS;NHS;NHS;NHS;NHS;HS;NHS;NHS;NHS;NHS;HS;NHS;NHS;NHS;NHS;HS;NHS;NHS;NHS;NHS;HS;NHS;NHS;NHS;NHS;HS;NHS;NHS;NHS;NHS;NHS;NHS;NHS;NHS;NHS;NHS;NHS;NHS;NHS;NHS
1GC1;S;C;23;NHS;NHS;NHS;NHS;NHS;NHS;NHS;NHS;NHS;NHS;NHS;NHS;NHS;NHS;NHS;NHS;NHS;NHS;NHS;NHS;NHS;NHS;NHS;NHS;NHS;NHS;NHS;NHS;NHS;NHS;NHS;NHS;NHS;NHS;NHS;NHS;NHS;NHS;NHS;NHS;NHS;NHS;NHS;NHS;NHS;NHS
1DAN;T;U;203;NHS;NHS;NHS;NHS;NHS;NHS;NHS;NHS;NHS;NHS;NHS;NHS;NHS;NHS;NHS;NHS;NHS;NHS;NHS;NHS;NHS;NHS;NHS;NHS;NHS;NHS;NHS;NHS;NHS;NHS;NHS;NHS;NHS;NHS;NHS;NHS;NHS;NHS;NHS;NHS;NHS;NHS;NHS;NHS;NHS;NHS
3BN9;Q;B;174;NHS;HS;NHS;NHS;NHS;HS;NHS;NHS;NHS;NHS;NHS;NHS;NHS;NHS;NHS;NHS;NHS;NHS;NHS;NHS;NHS;NHS;NHS;NHS;NHS;NHS;NHS;NHS;NHS;NHS;NHS;NHS;NHS;NHS;NHS;NHS;NHS;NHS;NHS;NHS;NHS;NHS;NHS;NHS;NHS;NHS
1EAW;Q;A;38;NHS;HS;HS;HS;HS;HS;NHS;NHS;NHS;NHS;NHS;NHS;NHS;NHS;NHS;NHS;NHS;NHS;NHS;NHS;NHS;NHS;NHS;NHS;NHS;NHS;NHS;NHS;NHS;NHS;NHS;NHS;NHS;NHS;NHS;NHS;NHS;NHS;NHS;NHS;NHS;NHS;NHS;NHS;NHS;NHS
1DQJ;K;C;96;HS;HS;HS;HS;HS;HS;HS;HS;HS;HS;HS;HS;HS;HS;HS;HS;HS;HS;HS;HS;HS;HS;HS;HS;HS;HS;HS;HS;NHS;NHS;NHS;HS;NHS;NHS;NHS;NHS;NHS;NHS;NHS;NHS;NHS;NHS;NHS;NHS;NHS;NHS
1CBW;R;I;17;NHS;HS;HS;HS;HS;HS;HS;HS;HS;HS;HS;HS;HS;HS;HS;HS;HS;HS;HS;HS;HS;HS;HS;HS;HS;HS;HS;HS;HS;HS;NHS;NHS;NHS;HS;NHS;NHS;NHS;NHS;NHS;NHS;NHS;NHS;NHS;NHS;NHS;NHS
2G2U;E;B;31;NHS;NHS;NHS;NHS;HS;NHS;NHS;NHS;NHS;NHS;NHS;NHS;NHS;NHS;NHS;NHS;NHS;NHS;NHS;NHS;NHS;NHS;NHS;NHS;NHS;NHS;NHS;NHS;NHS;NHS;NHS;NHS;NHS;NHS;NHS;NHS;NHS;NHS;NHS;NHS;NHS;NHS;NHS;NHS;NHS;NHS
1DQJ;S;C;100;NHS;HS;HS;HS;HS;HS;HS;HS;HS;HS;HS;HS;HS;HS;HS;HS;HS;HS;HS;HS;HS;HS;NHS;NHS;NHS;HS;HS;NHS;NHS;NHS;NHS;HS;NHS;NHS;NHS;NHS;NHS;NHS;NHS;NHS;NHS;NHS;NHS;NHS;NHS;NHS
1E50;V;B;58;NHS;NHS;HS;HS;HS;HS;NHS;HS;NHS;NHS;NHS;NHS;NHS;NHS;NHS;NHS;NHS;NHS;NHS;NHS;NHS;NHS;NHS;NHS;NHS;NHS;NHS;NHS;NHS;NHS;NHS;NHS;NHS;NHS;NHS;NHS;NHS;NHS;NHS;NHS;NHS;NHS;NHS;NHS;NHS;NHS
1JCK;F;B;176;HS;NHS;NHS;HS;HS;HS;NHS;NHS;NHS;NHS;NHS;NHS;NHS;NHS;NHS;NHS;NHS;NHS;NHS;NHS;NHS;NHS;NHS;NHS;NHS;NHS;NHS;NHS;NHS;NHS;NHS;NHS;NHS;NHS;NHS;NHS;NHS;NHS;NHS;NHS;NHS;NHS;NHS;NHS;NHS;NHS
1F47;Y;A;5;NHS;HS;HS;HS;HS;HS;HS;HS;HS;HS;HS;NHS;HS;HS;HS;HS;NHS;HS;NHS;NHS;HS;NHS;NHS;NHS;NHS;HS;NHS;NHS;NHS;NHS;NHS;NHS;NHS;NHS;NHS;NHS;NHS;NHS;NHS;NHS;NHS;NHS;NHS;NHS;NHS;NHS
1JRH;R;H;95;NHS;NHS;NHS;HS;HS;NHS;NHS;NHS;NHS;NHS;NHS;NHS;NHS;NHS;NHS;NHS;NHS;NHS;NHS;NHS;NHS;NHS;NHS;NHS;NHS;NHS;NHS;NHS;NHS;NHS;NHS;NHS;NHS;NHS;NHS;NHS;NHS;NHS;NHS;NHS;NHS;NHS;NHS;NHS;NHS;NHS
1JRH;Y;H;99;NHS;HS;HS;HS;HS;HS;HS;HS;NHS;HS;HS;NHS;HS;NHS;NHS;HS;NHS;HS;NHS;NHS;HS;NHS;NHS;NHS;NHS;NHS;NHS;NHS;NHS;NHS;NHS;NHS;NHS;NHS;NHS;NHS;NHS;NHS;NHS;NHS;NHS;NHS;NHS;NHS;NHS;NHS
1AK4;I;D;491;NHS;NHS;NHS;NHS;NHS;NHS;NHS;NHS;NHS;NHS;NHS;NHS;NHS;NHS;NHS;NHS;NHS;NHS;NHS;NHS;NHS;NHS;NHS;NHS;NHS;NHS;NHS;NHS;NHS;NHS;NHS;NHS;NHS;NHS;NHS;NHS;NHS;NHS;NHS;NHS;NHS;NHS;NHS;NHS;NHS;NHS
1KTZ;E;B;55;NHS;NHS;NHS;NHS;NHS;HS;NHS;NHS;NHS;NHS;NHS;NHS;NHS;NHS;NHS;NHS;NHS;NHS;NHS;NHS;NHS;NHS;NHS;NHS;NHS;NHS;NHS;NHS;NHS;NHS;NHS;NHS;NHS;NHS;NHS;NHS;NHS;NHS;NHS;NHS;NHS;NHS;NHS;NHS;NHS;NHS
1DAN;K;T;41;NHS;NHS;NHS;NHS;NHS;NHS;NHS;NHS;NHS;NHS;NHS;NHS;NHS;NHS;NHS;NHS;NHS;NHS;NHS;NHS;NHS;NHS;NHS;NHS;NHS;NHS;NHS;NHS;NHS;NHS;NHS;NHS;NHS;NHS;NHS;NHS;NHS;NHS;NHS;NHS;NHS;NHS;NHS;NHS;NHS;NHS
1EMV;E;A;30;NHS;HS;HS;HS;HS;HS;NHS;NHS;HS;HS;HS;NHS;NHS;NHS;NHS;NHS;NHS;NHS;NHS;NHS;NHS;NHS;NHS;NHS;NHS;NHS;NHS;NHS;NHS;NHS;NHS;NHS;NHS;NHS;NHS;NHS;NHS;NHS;NHS;NHS;NHS;NHS;NHS;NHS;NHS;NHS
3BN9;D;B;96;HS;HS;HS;HS;HS;HS;NHS;HS;HS;HS;NHS;NHS;NHS;NHS;NHS;NHS;NHS;NHS;NHS;NHS;NHS;NHS;NHS;NHS;NHS;NHS;NHS;NHS;NHS;NHS;NHS;NHS;NHS;NHS;NHS;NHS;NHS;NHS;NHS;NHS;NHS;NHS;NHS;NHS;NHS;NHS
1R0R;L;I;18;NHS;HS;HS;HS;HS;HS;HS;HS;HS;HS;HS;HS;HS;HS;HS;HS;HS;HS;HS;HS;HS;HS;HS;HS;HS;HS;HS;HS;HS;NHS;HS;HS;HS;NHS;NHS;NHS;NHS;NHS;NHS;NHS;NHS;NHS;NHS;NHS;NHS;NHS
1JRH;D;H;56;NHS;NHS;NHS;NHS;NHS;NHS;NHS;NHS;NHS;NHS;NHS;NHS;NHS;NHS;NHS;NHS;NHS;NHS;NHS;NHS;NHS;NHS;NHS;NHS;NHS;NHS;NHS;NHS;NHS;NHS;NHS;NHS;NHS;NHS;NHS;NHS;NHS;NHS;NHS;NHS;NHS;NHS;NHS;NHS;NHS;NHS
1Z7X;E;W;401;NHS;NHS;NHS;NHS;NHS;NHS;NHS;NHS;NHS;NHS;NHS;NHS;NHS;NHS;NHS;NHS;NHS;NHS;NHS;NHS;NHS;NHS;NHS;NHS;NHS;NHS;NHS;NHS;NHS;NHS;NHS;NHS;NHS;NHS;NHS;NHS;NHS;NHS;NHS;NHS;NHS;NHS;NHS;NHS;NHS;NHS
1DAN;D;T;44;NHS;HS;NHS;HS;HS;HS;NHS;NHS;NHS;NHS;NHS;NHS;NHS;NHS;NHS;NHS;NHS;NHS;NHS;NHS;NHS;NHS;NHS;NHS;NHS;NHS;NHS;NHS;NHS;NHS;NHS;NHS;NHS;NHS;NHS;NHS;NHS;NHS;NHS;NHS;NHS;NHS;NHS;NHS;NHS;NHS
1PPF;P;I;14;NHS;NHS;NHS;NHS;NHS;NHS;NHS;NHS;NHS;NHS;NHS;NHS;NHS;NHS;NHS;NHS;NHS;NHS;NHS;NHS;NHS;NHS;NHS;NHS;NHS;NHS;NHS;NHS;NHS;NHS;NHS;NHS;NHS;NHS;NHS;NHS;NHS;NHS;NHS;NHS;NHS;NHS;NHS;NHS;NHS;NHS
1BRS;E;A;60;NHS;HS;HS;HS;HS;HS;NHS;HS;HS;HS;NHS;NHS;NHS;NHS;NHS;NHS;NHS;NHS;NHS;NHS;NHS;NHS;NHS;NHS;NHS;NHS;NHS;NHS;NHS;NHS;NHS;NHS;NHS;NHS;NHS;NHS;NHS;NHS;NHS;NHS;NHS;NHS;NHS;NHS;NHS;NHS
1EMV;E;A;41;HS;HS;HS;NHS;HS;NHS;NHS;NHS;NHS;NHS;NHS;NHS;NHS;NHS;NHS;NHS;NHS;NHS;NHS;NHS;NHS;NHS;NHS;NHS;NHS;NHS;NHS;NHS;NHS;NHS;NHS;NHS;NHS;NHS;NHS;NHS;NHS;NHS;NHS;NHS;NHS;NHS;NHS;NHS;NHS;NHS
1UUZ;H;A;62;NHS;HS;HS;HS;HS;HS;HS;HS;HS;HS;HS;HS;NHS;NHS;NHS;NHS;HS;NHS;NHS;NHS;NHS;HS;NHS;NHS;NHS;NHS;HS;NHS;NHS;NHS;NHS;NHS;NHS;NHS;NHS;NHS;NHS;NHS;NHS;NHS;NHS;NHS;NHS;NHS;NHS;NHS
1EAW;Q;A;175;NHS;NHS;NHS;NHS;NHS;NHS;NHS;NHS;NHS;NHS;NHS;NHS;NHS;NHS;NHS;NHS;NHS;NHS;NHS;NHS;NHS;NHS;NHS;NHS;NHS;NHS;NHS;NHS;NHS;NHS;NHS;NHS;NHS;NHS;NHS;NHS;NHS;NHS;NHS;NHS;NHS;NHS;NHS;NHS;NHS;NHS
2G2U;S;B;39;NHS;NHS;NHS;HS;HS;NHS;NHS;NHS;NHS;NHS;NHS;NHS;NHS;NHS;NHS;NHS;NHS;NHS;NHS;NHS;NHS;NHS;NHS;NHS;NHS;NHS;NHS;NHS;NHS;NHS;NHS;NHS;NHS;NHS;NHS;NHS;NHS;NHS;NHS;NHS;NHS;NHS;NHS;NHS;NHS;NHS
2WPT;V;B;98;NHS;NHS;NHS;NHS;NHS;NHS;NHS;NHS;NHS;NHS;NHS;NHS;NHS;NHS;NHS;NHS;NHS;NHS;NHS;NHS;NHS;NHS;NHS;NHS;NHS;NHS;NHS;NHS;NHS;NHS;NHS;NHS;NHS;NHS;NHS;NHS;NHS;NHS;NHS;NHS;NHS;NHS;NHS;NHS;NHS;NHS
1A22;S;B;299;NHS;NHS;NHS;NHS;NHS;NHS;NHS;NHS;NHS;NHS;NHS;NHS;NHS;NHS;NHS;NHS;NHS;NHS;NHS;NHS;NHS;NHS;NHS;NHS;NHS;NHS;NHS;NHS;NHS;NHS;NHS;NHS;NHS;NHS;NHS;NHS;NHS;NHS;NHS;NHS;NHS;NHS;NHS;NHS;NHS;NHS
1EMV;S;B;78;NHS;HS;HS;HS;HS;HS;NHS;NHS;NHS;NHS;NHS;NHS;NHS;NHS;NHS;NHS;NHS;NHS;NHS;NHS;NHS;NHS;NHS;NHS;NHS;NHS;NHS;NHS;NHS;NHS;NHS;NHS;NHS;NHS;NHS;NHS;NHS;NHS;NHS;NHS;NHS;NHS;NHS;NHS;NHS;NHS
3BN9;D;B;60a;NHS;NHS;HS;NHS;NHS;NHS;NHS;NHS;NHS;NHS;NHS;NHS;NHS;NHS;NHS;NHS;NHS;NHS;NHS;NHS;NHS;NHS;NHS;NHS;NHS;NHS;NHS;NHS;NHS;NHS;NHS;NHS;NHS;NHS;NHS;NHS;NHS;NHS;NHS;NHS;NHS;NHS;NHS;NHS;NHS;NHS
1JTG;M;A;129;NHS;HS;HS;HS;HS;HS;HS;HS;HS;HS;HS;HS;HS;NHS;NHS;HS;HS;NHS;NHS;NHS;NHS;HS;NHS;NHS;NHS;NHS;HS;NHS;NHS;NHS;NHS;HS;NHS;NHS;NHS;NHS;NHS;NHS;NHS;NHS;NHS;NHS;NHS;NHS;NHS;NHS
1A4Y;H;B;84;NHS;HS;HS;HS;HS;HS;NHS;NHS;HS;HS;NHS;NHS;NHS;NHS;NHS;NHS;NHS;NHS;NHS;NHS;NHS;NHS;NHS;NHS;NHS;NHS;NHS;NHS;NHS;NHS;NHS;NHS;NHS;NHS;NHS;NHS;NHS;NHS;NHS;NHS;NHS;NHS;NHS;NHS;NHS;NHS
1A22;Y;A;164;NHS;NHS;HS;HS;HS;HS;NHS;HS;NHS;NHS;NHS;NHS;NHS;NHS;NHS;NHS;NHS;NHS;NHS;NHS;NHS;NHS;NHS;NHS;NHS;NHS;NHS;NHS;NHS;NHS;NHS;NHS;NHS;NHS;NHS;NHS;NHS;NHS;NHS;NHS;NHS;NHS;NHS;NHS;NHS;NHS
1CHO;N;I;36;NHS;HS;NHS;HS;HS;HS;HS;NHS;NHS;NHS;NHS;HS;NHS;NHS;NHS;NHS;HS;NHS;NHS;NHS;NHS;HS;NHS;NHS;NHS;NHS;HS;NHS;NHS;NHS;NHS;HS;NHS;NHS;NHS;NHS;NHS;NHS;NHS;NHS;NHS;NHS;NHS;NHS;NHS;NHS
1A22;E;A;174;NHS;NHS;NHS;NHS;HS;NHS;NHS;NHS;NHS;NHS;NHS;NHS;NHS;NHS;NHS;NHS;NHS;NHS;NHS;NHS;NHS;NHS;NHS;NHS;NHS;NHS;NHS;NHS;NHS;NHS;NHS;NHS;NHS;NHS;NHS;NHS;NHS;NHS;NHS;NHS;NHS;NHS;NHS;NHS;NHS;NHS
1Z7X;D;W;435;HS;HS;HS;HS;HS;HS;NHS;HS;HS;HS;HS;NHS;HS;NHS;HS;NHS;NHS;NHS;NHS;NHS;NHS;NHS;NHS;NHS;NHS;NHS;NHS;NHS;NHS;NHS;NHS;NHS;NHS;NHS;NHS;NHS;NHS;NHS;NHS;NHS;NHS;NHS;NHS;NHS;NHS;NHS
1A4Y;D;A;435;HS;HS;HS;HS;HS;HS;NHS;HS;HS;HS;HS;NHS;NHS;NHS;NHS;NHS;NHS;NHS;NHS;NHS;NHS;NHS;NHS;NHS;NHS;NHS;NHS;NHS;NHS;NHS;NHS;NHS;NHS;NHS;NHS;NHS;NHS;NHS;NHS;NHS;NHS;NHS;NHS;NHS;NHS;NHS
3NPS;D;A;60a;NHS;NHS;NHS;NHS;NHS;NHS;NHS;NHS;NHS;NHS;NHS;NHS;NHS;NHS;NHS;NHS;NHS;NHS;NHS;NHS;NHS;NHS;NHS;NHS;NHS;NHS;NHS;NHS;NHS;NHS;NHS;NHS;NHS;NHS;NHS;NHS;NHS;NHS;NHS;NHS;NHS;NHS;NHS;NHS;NHS;NHS
3NPS;I;A;41;NHS;NHS;NHS;NHS;NHS;NHS;NHS;NHS;NHS;NHS;NHS;NHS;NHS;NHS;NHS;NHS;NHS;NHS;NHS;NHS;NHS;NHS;NHS;NHS;NHS;NHS;NHS;NHS;NHS;NHS;NHS;NHS;NHS;NHS;NHS;NHS;NHS;NHS;NHS;NHS;NHS;NHS;NHS;NHS;NHS;NHS
1DVF;D;B;54;HS;HS;NHS;HS;HS;HS;NHS;NHS;HS;HS;NHS;NHS;NHS;NHS;NHS;NHS;NHS;NHS;NHS;NHS;NHS;NHS;NHS;NHS;NHS;NHS;NHS;NHS;NHS;NHS;NHS;NHS;NHS;NHS;NHS;NHS;NHS;NHS;NHS;NHS;NHS;NHS;NHS;NHS;NHS;NHS
1EMV;V;A;34;HS;HS;HS;HS;HS;HS;HS;HS;NHS;HS;HS;NHS;HS;NHS;NHS;NHS;NHS;NHS;NHS;NHS;NHS;NHS;NHS;NHS;NHS;NHS;NHS;NHS;NHS;NHS;NHS;NHS;NHS;NHS;NHS;NHS;NHS;NHS;NHS;NHS;NHS;NHS;NHS;NHS;NHS;NHS
3BN9;T;B;98;NHS;HS;NHS;NHS;HS;NHS;NHS;NHS;NHS;NHS;NHS;NHS;NHS;NHS;NHS;NHS;NHS;NHS;NHS;NHS;NHS;NHS;NHS;NHS;NHS;NHS;NHS;NHS;NHS;NHS;NHS;NHS;NHS;NHS;NHS;NHS;NHS;NHS;NHS;NHS;NHS;NHS;NHS;NHS;NHS;NHS
1JTG;W;B;162;HS;HS;HS;HS;HS;HS;HS;HS;HS;HS;HS;NHS;HS;HS;HS;HS;NHS;NHS;NHS;NHS;HS;NHS;NHS;NHS;NHS;NHS;NHS;NHS;NHS;NHS;NHS;NHS;NHS;NHS;NHS;NHS;NHS;NHS;NHS;NHS;NHS;NHS;NHS;NHS;NHS;NHS
1H9D;R;B;3;NHS;HS;HS;HS;HS;HS;NHS;HS;NHS;HS;NHS;NHS;NHS;NHS;NHS;NHS;NHS;NHS;NHS;NHS;NHS;NHS;NHS;NHS;NHS;NHS;NHS;NHS;NHS;NHS;NHS;NHS;NHS;NHS;NHS;NHS;NHS;NHS;NHS;NHS;NHS;NHS;NHS;NHS;NHS;NHS
1A4Y;E;A;401;NHS;NHS;NHS;NHS;HS;NHS;NHS;NHS;NHS;NHS;NHS;NHS;NHS;NHS;NHS;NHS;NHS;NHS;NHS;NHS;NHS;NHS;NHS;NHS;NHS;NHS;NHS;NHS;NHS;NHS;NHS;NHS;NHS;NHS;NHS;NHS;NHS;NHS;NHS;NHS;NHS;NHS;NHS;NHS;NHS;NHS
1Z7X;W;W;318;NHS;NHS;HS;HS;HS;HS;NHS;NHS;HS;HS;NHS;NHS;NHS;HS;HS;NHS;NHS;NHS;NHS;NHS;NHS;NHS;NHS;NHS;NHS;NHS;NHS;NHS;NHS;NHS;NHS;NHS;NHS;NHS;NHS;NHS;NHS;NHS;NHS;NHS;NHS;NHS;NHS;NHS;NHS;NHS
1IAR;N;A;89;NHS;HS;HS;HS;HS;HS;HS;HS;HS;HS;HS;HS;HS;NHS;NHS;HS;HS;HS;NHS;NHS;NHS;HS;NHS;NHS;NHS;NHS;HS;NHS;NHS;NHS;NHS;HS;NHS;NHS;NHS;NHS;NHS;NHS;NHS;NHS;NHS;NHS;NHS;NHS;NHS;NHS
1S1Q;F;A;44;NHS;NHS;HS;HS;HS;HS;NHS;NHS;HS;HS;NHS;NHS;NHS;NHS;NHS;NHS;NHS;NHS;NHS;NHS;NHS;NHS;NHS;NHS;NHS;NHS;NHS;NHS;NHS;NHS;NHS;NHS;NHS;NHS;NHS;NHS;NHS;NHS;NHS;NHS;NHS;NHS;NHS;NHS;NHS;NHS
1A22;R;A;167;NHS;NHS;NHS;NHS;HS;NHS;NHS;NHS;NHS;NHS;NHS;NHS;NHS;NHS;NHS;NHS;NHS;NHS;NHS;NHS;NHS;NHS;NHS;NHS;NHS;NHS;NHS;NHS;NHS;NHS;NHS;NHS;NHS;NHS;NHS;NHS;NHS;NHS;NHS;NHS;NHS;NHS;NHS;NHS;NHS;NHS
1JTG;E;A;110;HS;HS;HS;HS;HS;HS;HS;HS;HS;HS;HS;NHS;NHS;HS;HS;NHS;NHS;NHS;NHS;NHS;NHS;NHS;NHS;NHS;NHS;NHS;NHS;NHS;NHS;NHS;NHS;NHS;NHS;NHS;NHS;NHS;NHS;NHS;NHS;NHS;NHS;NHS;NHS;NHS;NHS;NHS
1VFB;H;A;30;NHS;NHS;NHS;NHS;NHS;NHS;NHS;NHS;NHS;NHS;NHS;NHS;NHS;NHS;NHS;NHS;NHS;NHS;NHS;NHS;NHS;NHS;NHS;NHS;NHS;NHS;NHS;NHS;NHS;NHS;NHS;NHS;NHS;NHS;NHS;NHS;NHS;NHS;NHS;NHS;NHS;NHS;NHS;NHS;NHS;NHS
1KTZ;I;B;50;NHS;HS;HS;HS;HS;HS;HS;HS;NHS;NHS;HS;NHS;HS;NHS;NHS;NHS;NHS;NHS;NHS;NHS;NHS;NHS;NHS;NHS;NHS;NHS;NHS;NHS;NHS;NHS;NHS;NHS;NHS;NHS;NHS;NHS;NHS;NHS;NHS;NHS;NHS;NHS;NHS;NHS;NHS;NHS
1FCC;E;C;27;HS;HS;HS;HS;HS;HS;HS;HS;HS;HS;HS;NHS;HS;NHS;NHS;NHS;NHS;NHS;NHS;NHS;NHS;NHS;NHS;NHS;NHS;NHS;NHS;NHS;NHS;NHS;NHS;NHS;NHS;NHS;NHS;NHS;NHS;NHS;NHS;NHS;NHS;NHS;NHS;NHS;NHS;NHS
1JRH;Y;L;91;NHS;NHS;HS;HS;HS;HS;NHS;HS;HS;HS;HS;NHS;HS;HS;HS;HS;NHS;HS;HS;HS;HS;NHS;NHS;HS;HS;NHS;NHS;NHS;HS;HS;NHS;NHS;NHS;HS;NHS;NHS;NHS;NHS;NHS;NHS;NHS;NHS;NHS;NHS;NHS;NHS
1FC2;I;C;150;HS;HS;HS;HS;HS;HS;NHS;NHS;HS;NHS;HS;NHS;NHS;NHS;NHS;HS;NHS;NHS;NHS;NHS;NHS;NHS;NHS;NHS;NHS;NHS;NHS;NHS;NHS;NHS;NHS;NHS;NHS;NHS;NHS;NHS;NHS;NHS;NHS;NHS;NHS;NHS;NHS;NHS;NHS;NHS
1EAW;D;A;96;NHS;NHS;NHS;NHS;NHS;NHS;NHS;NHS;NHS;NHS;NHS;NHS;NHS;NHS;NHS;NHS;NHS;NHS;NHS;NHS;NHS;NHS;NHS;NHS;NHS;NHS;NHS;NHS;NHS;NHS;NHS;NHS;NHS;NHS;NHS;NHS;NHS;NHS;NHS;NHS;NHS;NHS;NHS;NHS;NHS;NHS
1DAN;T;T;17;NHS;NHS;HS;NHS;HS;HS;NHS;NHS;NHS;NHS;NHS;NHS;NHS;NHS;NHS;NHS;NHS;NHS;NHS;NHS;NHS;NHS;NHS;NHS;NHS;NHS;NHS;NHS;NHS;NHS;NHS;NHS;NHS;NHS;NHS;NHS;NHS;NHS;NHS;NHS;NHS;NHS;NHS;NHS;NHS;NHS
1EAW;Y;A;146;NHS;NHS;NHS;NHS;NHS;NHS;NHS;NHS;NHS;NHS;NHS;NHS;NHS;NHS;NHS;NHS;NHS;NHS;NHS;NHS;NHS;NHS;NHS;NHS;NHS;NHS;NHS;NHS;NHS;NHS;NHS;NHS;NHS;NHS;NHS;NHS;NHS;NHS;NHS;NHS;NHS;NHS;NHS;NHS;NHS;NHS
2WPT;S;A;50;HS;HS;HS;HS;HS;HS;HS;HS;HS;HS;HS;HS;HS;NHS;NHS;HS;HS;HS;NHS;NHS;NHS;HS;NHS;NHS;NHS;NHS;HS;NHS;NHS;NHS;NHS;HS;NHS;NHS;NHS;NHS;NHS;NHS;NHS;NHS;NHS;NHS;NHS;NHS;NHS;NHS
1JRH;H;H;100b;NHS;HS;HS;HS;HS;HS;HS;HS;HS;HS;HS;HS;HS;HS;HS;HS;HS;HS;HS;HS;HS;HS;HS;HS;HS;HS;HS;HS;HS;NHS;NHS;HS;HS;NHS;NHS;NHS;NHS;NHS;NHS;NHS;NHS;NHS;NHS;NHS;NHS;NHS
1BRS;E;D;76;NHS;NHS;NHS;HS;HS;NHS;NHS;NHS;NHS;NHS;NHS;NHS;NHS;NHS;NHS;NHS;NHS;NHS;NHS;NHS;NHS;NHS;NHS;NHS;NHS;NHS;NHS;NHS;NHS;NHS;NHS;NHS;NHS;NHS;NHS;NHS;NHS;NHS;NHS;NHS;NHS;NHS;NHS;NHS;NHS;NHS
1TM1;E;I;60;HS;HS;HS;HS;HS;HS;HS;HS;HS;HS;HS;NHS;HS;HS;HS;HS;NHS;NHS;NHS;HS;NHS;NHS;NHS;NHS;NHS;NHS;NHS;NHS;NHS;NHS;NHS;NHS;NHS;NHS;NHS;NHS;NHS;NHS;NHS;NHS;NHS;NHS;NHS;NHS;NHS;NHS
1BRS;E;A;73;HS;NHS;NHS;HS;HS;HS;NHS;NHS;NHS;HS;NHS;NHS;NHS;NHS;NHS;NHS;NHS;NHS;NHS;NHS;NHS;NHS;NHS;NHS;NHS;NHS;NHS;NHS;NHS;NHS;NHS;NHS;NHS;NHS;NHS;NHS;NHS;NHS;NHS;NHS;NHS;NHS;NHS;NHS;NHS;NHS
1JCK;T;B;20;NHS;HS;HS;HS;HS;HS;HS;HS;HS;HS;NHS;HS;NHS;NHS;NHS;NHS;HS;NHS;NHS;NHS;NHS;HS;NHS;NHS;NHS;NHS;HS;NHS;NHS;NHS;NHS;HS;NHS;NHS;NHS;NHS;NHS;NHS;NHS;NHS;NHS;NHS;NHS;NHS;NHS;NHS
1DVF;D;B;100;HS;HS;NHS;NHS;HS;HS;NHS;NHS;NHS;NHS;NHS;NHS;NHS;NHS;NHS;NHS;NHS;NHS;NHS;NHS;NHS;NHS;NHS;NHS;NHS;NHS;NHS;NHS;NHS;NHS;NHS;NHS;NHS;NHS;NHS;NHS;NHS;NHS;NHS;NHS;NHS;NHS;NHS;NHS;NHS;NHS
3BN9;H;B;143;NHS;NHS;HS;NHS;NHS;NHS;NHS;NHS;NHS;NHS;NHS;NHS;NHS;NHS;NHS;NHS;NHS;NHS;NHS;NHS;NHS;NHS;NHS;NHS;NHS;NHS;NHS;NHS;NHS;NHS;NHS;NHS;NHS;NHS;NHS;NHS;NHS;NHS;NHS;NHS;NHS;NHS;NHS;NHS;NHS;NHS
4CPA;V;I;38;HS;HS;HS;HS;HS;HS;HS;HS;HS;HS;HS;HS;HS;HS;HS;HS;HS;HS;HS;HS;HS;HS;HS;HS;HS;HS;HS;HS;HS;HS;HS;HS;NHS;HS;HS;HS;NHS;NHS;HS;NHS;NHS;NHS;NHS;NHS;NHS;NHS
1A22;E;B;320;NHS;HS;NHS;HS;HS;HS;NHS;NHS;NHS;NHS;NHS;NHS;NHS;NHS;NHS;NHS;NHS;NHS;NHS;NHS;NHS;NHS;NHS;NHS;NHS;NHS;NHS;NHS;NHS;NHS;NHS;NHS;NHS;NHS;NHS;NHS;NHS;NHS;NHS;NHS;NHS;NHS;NHS;NHS;NHS;NHS
3HFM;D;H;32;NHS;NHS;NHS;HS;HS;NHS;NHS;NHS;NHS;NHS;NHS;NHS;NHS;NHS;NHS;NHS;NHS;NHS;NHS;NHS;NHS;NHS;NHS;NHS;NHS;NHS;NHS;NHS;NHS;NHS;NHS;NHS;NHS;NHS;NHS;NHS;NHS;NHS;NHS;NHS;NHS;NHS;NHS;NHS;NHS;NHS
2WPT;D;A;51;HS;NHS;HS;HS;HS;HS;NHS;NHS;HS;HS;NHS;NHS;NHS;NHS;NHS;NHS;NHS;NHS;NHS;NHS;NHS;NHS;NHS;NHS;NHS;NHS;NHS;NHS;NHS;NHS;NHS;NHS;NHS;NHS;NHS;NHS;NHS;NHS;NHS;NHS;NHS;NHS;NHS;NHS;NHS;NHS
1JTG;E;B;73;NHS;NHS;HS;HS;HS;HS;NHS;NHS;HS;HS;NHS;NHS;NHS;NHS;NHS;NHS;NHS;NHS;NHS;NHS;NHS;NHS;NHS;NHS;NHS;NHS;NHS;NHS;NHS;NHS;NHS;NHS;NHS;NHS;NHS;NHS;NHS;NHS;NHS;NHS;NHS;NHS;NHS;NHS;NHS;NHS
1DQJ;D;B;32;HS;HS;HS;HS;HS;HS;HS;HS;HS;HS;HS;HS;NHS;HS;NHS;NHS;HS;NHS;NHS;NHS;NHS;HS;NHS;NHS;NHS;NHS;HS;NHS;NHS;NHS;NHS;HS;NHS;NHS;NHS;NHS;NHS;NHS;NHS;NHS;NHS;NHS;NHS;NHS;NHS;NHS
