c<A>r<6>a<1>R<LEU>A<N> 1
c<A>r<6>a<2>R<LEU>A<CA> 1
c<A>r<6>a<3>R<LEU>A<C> 2
c<A>r<6>a<5>R<LEU>A<CB> 2
c<A>r<6>a<6>R<LEU>A<CG> 1
c<A>r<6>a<7>R<LEU>A<CD1> 1
c<A>r<6>a<8>R<LEU>A<CD2> 1
c<A>r<7>a<9>R<LEU>A<N> 1
c<A>r<7>a<10>R<LEU>A<CA> 2
c<A>r<7>a<12>R<LEU>A<O> 1
c<A>r<7>a<13>R<LEU>A<CB> 1
c<A>r<7>a<14>R<LEU>A<CG> 2
c<A>r<7>a<15>R<LEU>A<CD1> 1
c<A>r<7>a<16>R<LEU>A<CD2> 1
c<A>r<8>a<17>R<VAL>A<N> 2
c<A>r<8>a<18>R<VAL>A<CA> 2
c<A>r<8>a<19>R<VAL>A<C> 2
c<A>r<8>a<20>R<VAL>A<O> 1
c<A>r<8>a<21>R<VAL>A<CB> 2
c<A>r<8>a<22>R<VAL>A<CG1> 1
c<A>r<8>a<23>R<VAL>A<CG2> 1
c<A>r<9>a<25>R<THR>A<CA> 2
c<A>r<9>a<26>R<THR>A<C> 2
c<A>r<9>a<27>R<THR>A<O> 2
c<A>r<10>a<31>R<PRO>A<N> 2
c<A>r<10>a<32>R<PRO>A<CA> 2
c<A>r<10>a<35>R<PRO>A<CB> 1
c<A>r<10>a<36>R<PRO>A<CG> 1
c<A>r<10>a<37>R<PRO>A<CD> 1
c<A>r<11>a<38>R<PRO>A<N> 2
c<A>r<11>a<39>R<PRO>A<CA> 1
c<A>r<11>a<40>R<PRO>A<C> 2
c<A>r<11>a<41>R<PRO>A<O> 2
c<A>r<11>a<42>R<PRO>A<CB> 1
c<A>r<11>a<43>R<PRO>A<CG> 1
c<A>r<11>a<44>R<PRO>A<CD> 1
c<A>r<12>a<45>R<LYS>A<N> 2
c<A>r<12>a<51>R<LYS>A<CD> 1
c<A>r<12>a<53>R<LYS>A<NZ> 1
c<A>r<13>a<54>R<ALA>A<N> 1
c<A>r<13>a<55>R<ALA>A<CA> 1
c<A>r<13>a<56>R<ALA>A<C> 2
c<A>r<13>a<57>R<ALA>A<O> 1
c<A>r<13>a<58>R<ALA>A<CB> 1
c<A>r<14>a<59>R<LEU>A<N> 2
c<A>r<14>a<60>R<LEU>A<CA> 2
c<A>r<14>a<61>R<LEU>A<C> 2
c<A>r<14>a<62>R<LEU>A<O> 1
c<A>r<14>a<63>R<LEU>A<CB> 2
c<A>r<14>a<64>R<LEU>A<CG> 1
c<A>r<14>a<65>R<LEU>A<CD1> 1
c<A>r<14>a<66>R<LEU>A<CD2> 2
c<A>r<15>a<68>R<LEU>A<CA> 2
c<A>r<15>a<69>R<LEU>A<C> 2
c<A>r<15>a<70>R<LEU>A<O> 1
c<A>r<15>a<73>R<LEU>A<CD1> 1
c<A>r<15>a<74>R<LEU>A<CD2> 1
c<A>r<16>a<77>R<LYS>A<C> 1
c<A>r<16>a<78>R<LYS>A<O> 2
c<A>r<16>a<79>R<LYS>A<CB> 1
c<A>r<17>a<84>R<PRO>A<N> 1
c<A>r<17>a<85>R<PRO>A<CA> 1
c<A>r<17>a<86>R<PRO>A<C> 2
c<A>r<17>a<87>R<PRO>A<O> 1
c<A>r<17>a<88>R<PRO>A<CB> 1
c<A>r<18>a<91>R<LEU>A<N> 1
c<A>r<18>a<92>R<LEU>A<CA> 1
c<A>r<18>a<94>R<LEU>A<O> 1
c<A>r<18>a<95>R<LEU>A<CB> 1
c<A>r<18>a<96>R<LEU>A<CG> 1
c<A>r<18>a<97>R<LEU>A<CD1> 1
c<A>r<18>a<98>R<LEU>A<CD2> 1
c<A>r<19>a<102>R<SER>A<O> 1
c<A>r<20>a<105>R<ILE>A<N> 1
c<A>r<20>a<109>R<ILE>A<CB> 2
c<A>r<20>a<110>R<ILE>A<CG1> 1
c<A>r<20>a<111>R<ILE>A<CG2> 1
c<A>r<20>a<112>R<ILE>A<CD1> 1
c<A>r<21>a<116>R<PRO>A<O> 1
c<A>r<21>a<117>R<PRO>A<CB> 1
c<A>r<21>a<118>R<PRO>A<CG> 1
c<A>r<21>a<119>R<PRO>A<CD> 1
c<A>r<22>a<127>R<ASN>A<ND2> 1
c<A>r<23>a<128>R<GLN>A<N> 1
c<A>r<23>a<131>R<GLN>A<O> 2
c<A>r<23>a<132>R<GLN>A<CB> 2
c<A>r<23>a<133>R<GLN>A<CG> 2
c<A>r<23>a<134>R<GLN>A<CD> 2
c<A>r<23>a<135>R<GLN>A<OE1> 1
c<A>r<23>a<136>R<GLN>A<NE2> 1
c<A>r<25>a<150>R<LEU>A<CG> 2
c<A>r<25>a<151>R<LEU>A<CD1> 2
c<A>r<25>a<152>R<LEU>A<CD2> 2
c<A>r<29>a<174>R<GLY>A<C> 1
c<A>r<29>a<175>R<GLY>A<O> 1
c<A>r<30>a<176>R<PRO>A<N> 2
c<A>r<30>a<178>R<PRO>A<C> 2
c<A>r<30>a<179>R<PRO>A<O> 1
c<A>r<30>a<180>R<PRO>A<CB> 2
c<A>r<30>a<181>R<PRO>A<CG> 2
c<A>r<30>a<182>R<PRO>A<CD> 1
c<A>r<31>a<186>R<SER>A<O> 2
c<A>r<32>a<190>R<ASN>A<CA> 2
c<A>r<32>a<193>R<ASN>A<CB> 1
c<A>r<32>a<195>R<ASN>A<OD1> 1
c<A>r<33>a<197>R<LEU>A<N> 2
c<A>r<33>a<200>R<LEU>A<O> 1
c<A>r<33>a<201>R<LEU>A<CB> 2
c<A>r<33>a<202>R<LEU>A<CG> 2
c<A>r<33>a<203>R<LEU>A<CD1> 1
c<A>r<33>a<204>R<LEU>A<CD2> 2
c<A>r<36>a<229>R<ARG>A<NH2> 1
c<A>r<37>a<233>R<ILE>A<O> 1
c<A>r<38>a<239>R<MET>A<CA> 1
c<A>r<38>a<240>R<MET>A<C> 1
c<A>r<38>a<241>R<MET>A<O> 1
c<A>r<38>a<242>R<MET>A<CB> 1
c<A>r<38>a<243>R<MET>A<CG> 2
c<A>r<38>a<244>R<MET>A<SD> 1
c<A>r<38>a<245>R<MET>A<CE> 1
c<A>r<40>a<255>R<ALA>A<CB> 1
c<A>r<41>a<257>R<GLY>A<CA> 1
c<A>r<41>a<258>R<GLY>A<C> 2
c<A>r<41>a<259>R<GLY>A<O> 1
c<A>r<42>a<260>R<GLY>A<N> 2
c<A>r<42>a<261>R<GLY>A<CA> 1
c<A>r<42>a<262>R<GLY>A<C> 2
c<A>r<42>a<263>R<GLY>A<O> 1
c<A>r<43>a<265>R<LEU>A<CA> 1
c<A>r<43>a<266>R<LEU>A<C> 2
c<A>r<43>a<267>R<LEU>A<O> 1
c<A>r<43>a<268>R<LEU>A<CB> 2
c<A>r<43>a<269>R<LEU>A<CG> 2
c<A>r<43>a<270>R<LEU>A<CD1> 1
c<A>r<43>a<271>R<LEU>A<CD2> 1
c<A>r<44>a<272>R<GLN>A<N> 1
c<A>r<44>a<273>R<GLN>A<CA> 2
c<A>r<44>a<275>R<GLN>A<O> 2
c<A>r<44>a<276>R<GLN>A<CB> 1
c<A>r<44>a<277>R<GLN>A<CG> 1
c<A>r<44>a<278>R<GLN>A<CD> 1
c<A>r<44>a<279>R<GLN>A<OE1> 2
c<A>r<44>a<280>R<GLN>A<NE2> 1
c<A>r<45>a<281>R<MET>A<N> 2
c<A>r<45>a<283>R<MET>A<C> 2
c<A>r<45>a<284>R<MET>A<O> 1
c<A>r<45>a<285>R<MET>A<CB> 2
c<A>r<45>a<286>R<MET>A<CG> 3
c<A>r<45>a<287>R<MET>A<SD> 2
c<A>r<45>a<288>R<MET>A<CE> 2
c<A>r<46>a<289>R<ILE>A<N> 2
c<A>r<46>a<290>R<ILE>A<CA> 2
c<A>r<46>a<291>R<ILE>A<C> 3
c<A>r<46>a<292>R<ILE>A<O> 3
c<A>r<46>a<293>R<ILE>A<CB> 2
c<A>r<46>a<295>R<ILE>A<CG2> 2
c<A>r<46>a<296>R<ILE>A<CD1> 1
c<A>r<47>a<297>R<GLY>A<N> 2
c<A>r<47>a<298>R<GLY>A<CA> 2
c<A>r<47>a<299>R<GLY>A<C> 2
c<A>r<48>a<301>R<SER>A<N> 2
c<A>r<48>a<305>R<SER>A<CB> 2
c<A>r<48>a<306>R<SER>A<OG> 1
c<A>r<49>a<307>R<MET>A<N> 1
c<A>r<49>a<309>R<MET>A<C> 1
c<A>r<49>a<311>R<MET>A<CB> 1
c<A>r<49>a<312>R<MET>A<CG> 1
c<A>r<49>a<313>R<MET>A<SD> 1
c<A>r<49>a<314>R<MET>A<CE> 1
c<A>r<50>a<315>R<SER>A<N> 1
c<A>r<50>a<316>R<SER>A<CA> 1
c<A>r<50>a<319>R<SER>A<CB> 1
c<A>r<50>a<320>R<SER>A<OG> 2
c<A>r<52>a<334>R<ASP>A<CB> 1
c<A>r<52>a<335>R<ASP>A<CG> 2
c<A>r<52>a<336>R<ASP>A<OD1> 1
c<A>r<52>a<337>R<ASP>A<OD2> 1
c<A>r<55>a<366>R<GLN>A<NE2> 1
c<A>r<56>a<372>R<ILE>A<CG1> 1
c<A>r<56>a<373>R<ILE>A<CG2> 2
c<A>r<56>a<374>R<ILE>A<CD1> 1
c<A>r<59>a<392>R<GLU>A<CA> 2
c<A>r<59>a<393>R<GLU>A<C> 3
c<A>r<59>a<394>R<GLU>A<O> 2
c<A>r<59>a<395>R<GLU>A<CB> 2
c<A>r<59>a<396>R<GLU>A<CG> 2
c<A>r<59>a<397>R<GLU>A<CD> 2
c<A>r<59>a<398>R<GLU>A<OE1> 1
c<A>r<59>a<399>R<GLU>A<OE2> 1
c<A>r<60>a<400>R<ILE>A<N> 2
c<A>r<60>a<401>R<ILE>A<CA> 1
c<A>r<60>a<405>R<ILE>A<CG1> 2
c<A>r<62>a<419>R<GLU>A<C> 2
c<A>r<62>a<420>R<GLU>A<O> 1
c<A>r<62>a<421>R<GLU>A<CB> 1
c<A>r<62>a<423>R<GLU>A<CD> 2
c<A>r<62>a<424>R<GLU>A<OE1> 1
c<A>r<62>a<425>R<GLU>A<OE2> 1
c<A>r<63>a<426>R<GLY>A<N> 2
c<A>r<63>a<427>R<GLY>A<CA> 1
c<A>r<65>a<440>R<GLN>A<C> 2
c<A>r<65>a<441>R<GLN>A<O> 2
c<A>r<65>a<442>R<GLN>A<CB> 1
c<A>r<66>a<447>R<TYR>A<N> 2
c<A>r<66>a<448>R<TYR>A<CA> 3
c<A>r<66>a<451>R<TYR>A<CB> 2
c<A>r<66>a<452>R<TYR>A<CG> 2
c<A>r<66>a<453>R<TYR>A<CD1> 2
c<A>r<66>a<454>R<TYR>A<CD2> 1
c<A>r<66>a<455>R<TYR>A<CE1> 1
c<A>r<66>a<456>R<TYR>A<CE2> 2
c<A>r<66>a<457>R<TYR>A<CZ> 2
c<A>r<66>a<458>R<TYR>A<OH> 1
c<A>r<69>a<478>R<GLN>A<CA> 2
c<A>r<69>a<479>R<GLN>A<C> 2
c<A>r<69>a<480>R<GLN>A<O> 1
c<A>r<69>a<481>R<GLN>A<CB> 1
c<A>r<69>a<482>R<GLN>A<CG> 2
c<A>r<69>a<483>R<GLN>A<CD> 2
c<A>r<69>a<484>R<GLN>A<OE1> 1
c<A>r<69>a<485>R<GLN>A<NE2> 2
c<A>r<70>a<486>R<THR>A<N> 2
c<A>r<70>a<487>R<THR>A<CA> 2
c<A>r<70>a<488>R<THR>A<C> 2
c<A>r<70>a<489>R<THR>A<O> 1
c<A>r<71>a<493>R<ARG>A<N> 2
c<A>r<71>a<498>R<ARG>A<CG> 1
c<A>r<71>a<499>R<ARG>A<CD> 2
c<A>r<71>a<500>R<ARG>A<NE> 1
c<A>r<71>a<501>R<ARG>A<CZ> 2
c<A>r<71>a<502>R<ARG>A<NH1> 1
c<A>r<71>a<503>R<ARG>A<NH2> 1
c<A>r<79>a<560>R<SER>A<O> 1
c<A>r<80>a<564>R<GLY>A<CA> 2
c<A>r<81>a<567>R<SER>A<N> 1
c<A>r<81>a<571>R<SER>A<CB> 1
c<A>r<81>a<572>R<SER>A<OG> 2
c<A>r<83>a<579>R<HIS>A<C> 2
c<A>r<83>a<580>R<HIS>A<O> 1
c<A>r<83>a<581>R<HIS>A<CB> 1
c<A>r<84>a<582>R<CYS>A<N> 2
c<A>r<84>a<583>R<CYS>A<CA> 2
c<A>r<84>a<586>R<CYS>A<CB> 2
c<A>r<84>a<587>R<CYS>A<SG> 1
c<A>r<87>a<605>R<GLU>A<CB> 2
c<A>r<87>a<606>R<GLU>A<CG> 2
c<A>r<87>a<607>R<GLU>A<CD> 2
c<A>r<87>a<608>R<GLU>A<OE1> 1
c<A>r<87>a<609>R<GLU>A<OE2> 1
c<A>r<91>a<633>R<VAL>A<CG1> 1
c<A>r<91>a<634>R<VAL>A<CG2> 1
c<A>r<107>a<746>R<ILE>A<CD1> 2
c<A>r<108>a<758>R<TRP>A<CZ2> 1
c<A>r<108>a<759>R<TRP>A<CZ3> 1
c<A>r<108>a<760>R<TRP>A<CH2> 1
c<A>r<111>a<777>R<ARG>A<O> 1
c<A>r<111>a<778>R<ARG>A<CB> 1
c<A>r<111>a<780>R<ARG>A<CD> 1
c<A>r<111>a<781>R<ARG>A<NE> 1
c<A>r<111>a<782>R<ARG>A<CZ> 2
c<A>r<111>a<783>R<ARG>A<NH1> 1
c<A>r<111>a<784>R<ARG>A<NH2> 1
c<A>r<114>a<801>R<ASP>A<CB> 2
c<A>r<114>a<802>R<ASP>A<CG> 1
c<A>r<114>a<803>R<ASP>A<OD1> 1
c<A>r<114>a<804>R<ASP>A<OD2> 1
c<A>r<115>a<805>R<ILE>A<N> 2
c<A>r<115>a<806>R<ILE>A<CA> 1
c<A>r<115>a<808>R<ILE>A<O> 2
c<A>r<115>a<810>R<ILE>A<CG1> 1
c<A>r<115>a<811>R<ILE>A<CG2> 1
c<A>r<115>a<812>R<ILE>A<CD1> 1
c<A>r<117>a<821>R<GLU>A<CB> 1
c<A>r<117>a<824>R<GLU>A<OE1> 1
c<A>r<118>a<827>R<ARG>A<CA> 1
c<A>r<118>a<828>R<ARG>A<C> 2
c<A>r<118>a<829>R<ARG>A<O> 1
c<A>r<118>a<830>R<ARG>A<CB> 1
c<A>r<118>a<831>R<ARG>A<CG> 1
c<A>r<118>a<832>R<ARG>A<CD> 1
c<A>r<118>a<833>R<ARG>A<NE> 2
c<A>r<118>a<834>R<ARG>A<CZ> 2
c<A>r<118>a<835>R<ARG>A<NH1> 2
c<A>r<118>a<836>R<ARG>A<NH2> 1
c<A>r<119>a<838>R<ILE>A<CA> 2
c<A>r<119>a<839>R<ILE>A<C> 1
c<A>r<119>a<843>R<ILE>A<CG2> 1
c<A>r<194>a<1412>R<TYR>A<CD2> 1
c<A>r<194>a<1414>R<TYR>A<CE2> 2
c<A>r<194>a<1416>R<TYR>A<OH> 1
c<A>r<196>a<1429>R<ASP>A<CB> 1
c<A>r<196>a<1430>R<ASP>A<CG> 2
c<A>r<196>a<1432>R<ASP>A<OD2> 1
c<A>r<197>a<1433>R<ARG>A<N> 1
c<A>r<197>a<1437>R<ARG>A<CB> 1
c<A>r<197>a<1439>R<ARG>A<CD> 1
c<A>r<197>a<1442>R<ARG>A<NH1> 1
c<A>r<197>a<1443>R<ARG>A<NH2> 1
c<A>r<208>a<1522>R<GLN>A<CG> 2
c<A>r<208>a<1523>R<GLN>A<CD> 2
c<A>r<208>a<1525>R<GLN>A<NE2> 1
c<A>r<209>a<1532>R<LLP>A<C4'> 1
c<A>r<209>a<1535>R<LLP>A<C5'> 2
c<A>r<209>a<1536>R<LLP>A<OP4> 2
c<A>r<209>a<1537>R<LLP>A<P> 2
c<A>r<209>a<1538>R<LLP>A<OP1> 2
c<A>r<209>a<1539>R<LLP>A<OP2> 1
c<A>r<209>a<1540>R<LLP>A<OP3> 2
c<A>r<213>a<1574>R<ALA>A<O> 3
c<A>r<214>a<1577>R<PRO>A<CA> 2
c<A>r<214>a<1580>R<PRO>A<CB> 1
c<A>r<214>a<1581>R<PRO>A<CG> 1
c<A>r<215>a<1585>R<PRO>A<C> 2
c<A>r<215>a<1586>R<PRO>A<O> 1
c<A>r<215>a<1587>R<PRO>A<CB> 1
c<A>r<215>a<1588>R<PRO>A<CG> 2
c<A>r<215>a<1589>R<PRO>A<CD> 2
c<A>r<216>a<1590>R<GLY>A<N> 1
c<A>r<216>a<1591>R<GLY>A<CA> 1
c<A>r<216>a<1593>R<GLY>A<O> 1
c<A>r<236>a<1749>R<LYS>A<O> 1
c<A>r<236>a<1750>R<LYS>A<CB> 1
c<A>r<236>a<1751>R<LYS>A<CG> 1
c<A>r<236>a<1752>R<LYS>A<CD> 1
c<A>r<236>a<1753>R<LYS>A<CE> 1
c<A>r<236>a<1754>R<LYS>A<NZ> 1
c<A>r<237>a<1755>R<PRO>A<N> 2
c<A>r<237>a<1758>R<PRO>A<O> 2
c<A>r<237>a<1759>R<PRO>A<CB> 2
c<A>r<237>a<1760>R<PRO>A<CG> 2
c<A>r<237>a<1761>R<PRO>A<CD> 2
c<A>r<238>a<1762>R<PHE>A<N> 2
c<A>r<238>a<1763>R<PHE>A<CA> 2
c<A>r<238>a<1764>R<PHE>A<C> 2
c<A>r<238>a<1765>R<PHE>A<O> 1
c<A>r<238>a<1766>R<PHE>A<CB> 1
c<A>r<238>a<1767>R<PHE>A<CG> 2
c<A>r<238>a<1768>R<PHE>A<CD1> 2
c<A>r<238>a<1769>R<PHE>A<CD2> 2
c<A>r<238>a<1770>R<PHE>A<CE1> 2
c<A>r<238>a<1771>R<PHE>A<CE2> 1
c<A>r<238>a<1772>R<PHE>A<CZ> 1
c<A>r<239>a<1774>R<SER>A<CA> 2
c<A>r<239>a<1775>R<SER>A<C> 2
c<A>r<239>a<1776>R<SER>A<O> 2
c<A>r<239>a<1777>R<SER>A<CB> 1
c<A>r<239>a<1778>R<SER>A<OG> 1
c<A>r<240>a<1779>R<PHE>A<N> 1
c<A>r<240>a<1780>R<PHE>A<CA> 2
c<A>r<240>a<1783>R<PHE>A<CB> 2
c<A>r<240>a<1784>R<PHE>A<CG> 2
c<A>r<240>a<1785>R<PHE>A<CD1> 2
c<A>r<240>a<1786>R<PHE>A<CD2> 1
c<A>r<240>a<1787>R<PHE>A<CE1> 2
c<A>r<240>a<1788>R<PHE>A<CE2> 1
c<A>r<240>a<1789>R<PHE>A<CZ> 2
c<A>r<241>a<1790>R<TYR>A<N> 2
c<A>r<241>a<1791>R<TYR>A<CA> 1
c<A>r<241>a<1794>R<TYR>A<CB> 1
c<A>r<241>a<1795>R<TYR>A<CG> 2
c<A>r<241>a<1796>R<TYR>A<CD1> 1
c<A>r<241>a<1797>R<TYR>A<CD2> 1
c<A>r<241>a<1798>R<TYR>A<CE1> 2
c<A>r<241>a<1799>R<TYR>A<CE2> 2
c<A>r<241>a<1800>R<TYR>A<CZ> 2
c<A>r<241>a<1801>R<TYR>A<OH> 1
c<A>r<242>a<1808>R<LEU>A<CD1> 1
c<A>r<243>a<1814>R<ASP>A<CB> 2
c<A>r<243>a<1815>R<ASP>A<CG> 2
c<A>r<243>a<1816>R<ASP>A<OD1> 1
c<A>r<243>a<1817>R<ASP>A<OD2> 1
c<A>r<246>a<1841>R<TRP>A<CD1> 2
c<A>r<246>a<1843>R<TRP>A<NE1> 1
c<A>r<246>a<1845>R<TRP>A<CE3> 2
c<A>r<246>a<1846>R<TRP>A<CZ2> 1
c<A>r<246>a<1847>R<TRP>A<CZ3> 2
c<A>r<246>a<1848>R<TRP>A<CH2> 1
c<A>r<255>a<1916>R<ASP>A<O> 1
c<A>r<256>a<1929>R<GLN>A<NE2> 1
c<A>r<257>a<1934>R<PRO>A<CB> 1
c<A>r<257>a<1935>R<PRO>A<CG> 1
c<A>r<257>a<1936>R<PRO>A<CD> 1
c<A>r<259>a<1955>R<MET>A<CE> 1
c<A>r<260>a<1959>R<TYR>A<O> 1
c<A>r<260>a<1960>R<TYR>A<CB> 1
c<A>r<260>a<1961>R<TYR>A<CG> 1
c<A>r<260>a<1963>R<TYR>A<CD2> 1
c<A>r<260>a<1964>R<TYR>A<CE1> 2
c<A>r<260>a<1965>R<TYR>A<CE2> 1
c<A>r<260>a<1966>R<TYR>A<CZ> 1
c<A>r<260>a<1967>R<TYR>A<OH> 1
c<A>r<261>a<1969>R<HIS>A<CA> 2
c<A>r<261>a<1971>R<HIS>A<O> 1
c<A>r<261>a<1975>R<HIS>A<CD2> 2
c<A>r<262>a<1979>R<HIS>A<CA> 2
c<A>r<262>a<1982>R<HIS>A<CB> 1
c<A>r<262>a<1983>R<HIS>A<CG> 2
c<A>r<262>a<1985>R<HIS>A<CD2> 2
c<A>r<263>a<1988>R<THR>A<N> 2
c<A>r<263>a<1991>R<THR>A<O> 1
c<A>r<263>a<1992>R<THR>A<CB> 2
c<A>r<263>a<1993>R<THR>A<OG1> 1
c<A>r<263>a<1994>R<THR>A<CG2> 2
c<A>r<264>a<1997>R<ILE>A<C> 2
c<A>r<264>a<1998>R<ILE>A<O> 2
c<A>r<265>a<2003>R<PRO>A<N> 2
c<A>r<265>a<2004>R<PRO>A<CA> 2
c<A>r<265>a<2005>R<PRO>A<C> 2
c<A>r<265>a<2007>R<PRO>A<CB> 1
c<A>r<265>a<2008>R<PRO>A<CG> 1
c<A>r<265>a<2009>R<PRO>A<CD> 1
c<A>r<266>a<2010>R<VAL>A<N> 2
c<A>r<266>a<2014>R<VAL>A<CB> 2
c<A>r<266>a<2016>R<VAL>A<CG2> 3
c<A>r<267>a<2017>R<ILE>A<N> 1
c<A>r<267>a<2021>R<ILE>A<CB> 1
c<A>r<267>a<2022>R<ILE>A<CG1> 1
c<A>r<267>a<2023>R<ILE>A<CG2> 1
c<A>r<267>a<2024>R<ILE>A<CD1> 2
c<A>r<268>a<2025>R<SER>A<N> 1
c<A>r<268>a<2030>R<SER>A<OG> 1
c<A>r<270>a<2040>R<TYR>A<CA> 3
c<A>r<270>a<2042>R<TYR>A<O> 2
c<A>r<270>a<2043>R<TYR>A<CB> 2
c<A>r<270>a<2044>R<TYR>A<CG> 2
c<A>r<270>a<2045>R<TYR>A<CD1> 2
c<A>r<270>a<2046>R<TYR>A<CD2> 2
c<A>r<270>a<2047>R<TYR>A<CE1> 2
c<A>r<270>a<2048>R<TYR>A<CE2> 2
c<A>r<270>a<2049>R<TYR>A<CZ> 3
c<A>r<270>a<2050>R<TYR>A<OH> 2
c<A>r<273>a<2066>R<ARG>A<CA> 1
c<A>r<273>a<2068>R<ARG>A<O> 1
c<A>r<273>a<2069>R<ARG>A<CB> 2
c<A>r<273>a<2070>R<ARG>A<CG> 2
c<A>r<273>a<2071>R<ARG>A<CD> 2
c<A>r<273>a<2072>R<ARG>A<NE> 1
c<A>r<273>a<2073>R<ARG>A<CZ> 2
c<A>r<273>a<2074>R<ARG>A<NH1> 2
c<A>r<273>a<2075>R<ARG>A<NH2> 1
c<A>r<274>a<2080>R<GLU>A<CB> 2
c<A>r<274>a<2082>R<GLU>A<CD> 2
c<A>r<274>a<2083>R<GLU>A<OE1> 2
c<A>r<274>a<2084>R<GLU>A<OE2> 1
c<A>r<276>a<2093>R<LEU>A<C> 2
c<A>r<276>a<2094>R<LEU>A<O> 1
c<A>r<276>a<2095>R<LEU>A<CB> 2
c<A>r<276>a<2097>R<LEU>A<CD1> 1
c<A>r<277>a<2099>R<ALA>A<N> 2
c<A>r<277>a<2100>R<ALA>A<CA> 2
c<A>r<277>a<2102>R<ALA>A<O> 1
c<A>r<277>a<2103>R<ALA>A<CB> 2
c<A>r<280>a<2121>R<ALA>A<CA> 2
c<A>r<280>a<2122>R<ALA>A<C> 2
c<A>r<280>a<2123>R<ALA>A<O> 1
c<A>r<280>a<2124>R<ALA>A<CB> 1
c<A>r<281>a<2125>R<GLU>A<N> 2
c<A>r<281>a<2126>R<GLU>A<CA> 1
c<A>r<281>a<2129>R<GLU>A<CB> 2
c<A>r<281>a<2130>R<GLU>A<CG> 1
c<A>r<281>a<2131>R<GLU>A<CD> 1
c<A>r<281>a<2132>R<GLU>A<OE1> 1
c<A>r<283>a<2144>R<GLY>A<CA> 1
c<A>r<284>a<2147>R<LEU>A<N> 1
c<A>r<284>a<2151>R<LEU>A<CB> 2
c<A>r<284>a<2152>R<LEU>A<CG> 2
c<A>r<284>a<2153>R<LEU>A<CD1> 2
c<A>r<285>a<2155>R<GLU>A<N> 1
c<A>r<285>a<2160>R<GLU>A<CG> 2
c<A>r<285>a<2161>R<GLU>A<CD> 2
c<A>r<285>a<2162>R<GLU>A<OE1> 1
c<A>r<285>a<2163>R<GLU>A<OE2> 1
c<A>r<288>a<2190>R<TRP>A<CZ3> 2
c<A>r<288>a<2191>R<TRP>A<CH2> 2
c<A>r<303>a<2313>R<GLN>A<O> 1
c<A>r<304>a<2320>R<ALA>A<CA> 1
c<A>r<304>a<2322>R<ALA>A<O> 1
c<A>r<304>a<2323>R<ALA>A<CB> 1
c<A>r<305>a<2325>R<LEU>A<CA> 1
c<A>r<305>a<2326>R<LEU>A<C> 2
c<A>r<305>a<2327>R<LEU>A<O> 1
c<A>r<305>a<2331>R<LEU>A<CD2> 1
c<A>r<306>a<2332>R<GLY>A<N> 2
c<A>r<306>a<2333>R<GLY>A<CA> 1
c<A>r<306>a<2334>R<GLY>A<C> 2
c<A>r<306>a<2335>R<GLY>A<O> 1
c<A>r<307>a<2336>R<LEU>A<N> 2
c<A>r<307>a<2341>R<LEU>A<CG> 2
c<A>r<307>a<2343>R<LEU>A<CD2> 2
c<A>r<327>a<2493>R<PRO>A<CB> 1
c<A>r<327>a<2494>R<PRO>A<CG> 2
c<A>r<328>a<2496>R<ALA>A<N> 1
c<A>r<328>a<2499>R<ALA>A<O> 1
c<A>r<328>a<2500>R<ALA>A<CB> 1
c<A>r<329>a<2502>R<GLY>A<CA> 1
c<A>r<330>a<2513>R<TYR>A<CE1> 1
c<A>r<330>a<2516>R<TYR>A<OH> 1
c<A>r<346>a<2658>R<GLU>A<OE1> 1
c<A>r<346>a<2659>R<GLU>A<OE2> 1
c<A>r<348>a<2674>R<MET>A<SD> 1
c<A>r<348>a<2675>R<MET>A<CE> 1
c<A>r<351>a<2690>R<LEU>A<CD1> 1
c<A>r<351>a<2691>R<LEU>A<CD2> 1
c<A>r<381>a<2906>R<ARG>A<O> 1
c<A>r<381>a<2908>R<ARG>A<CG> 1
c<A>r<381>a<2910>R<ARG>A<NE> 1
c<A>r<381>a<2911>R<ARG>A<CZ> 2
c<A>r<381>a<2913>R<ARG>A<NH2> 1
c<A>r<384>a<2926>R<LEU>A<C> 2
c<A>r<384>a<2927>R<LEU>A<O> 2
c<A>r<384>a<2928>R<LEU>A<CB> 1
c<A>r<384>a<2930>R<LEU>A<CD1> 1
c<A>r<384>a<2931>R<LEU>A<CD2> 2
c<A>r<385>a<2932>R<GLN>A<N> 2
c<A>r<385>a<2933>R<GLN>A<CA> 3
c<A>r<385>a<2935>R<GLN>A<O> 2
c<A>r<385>a<2936>R<GLN>A<CB> 2
c<A>r<385>a<2937>R<GLN>A<CG> 2
c<A>r<385>a<2938>R<GLN>A<CD> 2
c<A>r<385>a<2939>R<GLN>A<OE1> 1
c<A>r<385>a<2940>R<GLN>A<NE2> 1
c<A>r<386>a<2942>R<HIS>A<CA> 2
c<A>r<386>a<2943>R<HIS>A<C> 2
c<A>r<386>a<2944>R<HIS>A<O> 1
c<A>r<386>a<2947>R<HIS>A<ND1> 1
c<A>r<386>a<2949>R<HIS>A<CE1> 1
c<A>r<386>a<2950>R<HIS>A<NE2> 1
c<A>r<388>a<2959>R<PRO>A<C> 2
c<A>r<388>a<2960>R<PRO>A<O> 1
c<A>r<388>a<2961>R<PRO>A<CB> 1
c<A>r<388>a<2962>R<PRO>A<CG> 2
c<A>r<388>a<2963>R<PRO>A<CD> 2
c<A>r<389>a<2965>R<LYS>A<CA> 1
c<A>r<389>a<2966>R<LYS>A<C> 2
c<A>r<389>a<2967>R<LYS>A<O> 1
c<A>r<389>a<2968>R<LYS>A<CB> 1
c<A>r<389>a<2970>R<LYS>A<CD> 1
c<A>r<389>a<2971>R<LYS>A<CE> 1
c<A>r<389>a<2972>R<LYS>A<NZ> 1
c<A>r<390>a<2973>R<LYS>A<N> 1
c<A>r<390>a<2974>R<LYS>A<CA> 2
c<A>r<390>a<2975>R<LYS>A<C> 2
c<A>r<390>a<2976>R<LYS>A<O> 1
c<A>r<390>a<2977>R<LYS>A<CB> 2
c<A>r<390>a<2978>R<LYS>A<CG> 2
c<A>r<390>a<2979>R<LYS>A<CD> 2
c<A>r<390>a<2980>R<LYS>A<CE> 2
c<A>r<390>a<2981>R<LYS>A<NZ> 1
c<A>r<391>a<2982>R<LYS>A<N> 2
c<A>r<391>a<2983>R<LYS>A<CA> 2
c<A>r<391>a<2984>R<LYS>A<C> 2
c<A>r<391>a<2985>R<LYS>A<O> 2
c<A>r<391>a<2986>R<LYS>A<CB> 2
c<A>r<391>a<2987>R<LYS>A<CG> 2
c<A>r<391>a<2988>R<LYS>A<CD> 2
c<A>r<391>a<2989>R<LYS>A<CE> 1
c<A>r<391>a<2990>R<LYS>A<NZ> 1
c<A>r<392>a<2991>R<LEU>A<N> 1
c<A>r<392>a<2992>R<LEU>A<CA> 2
c<A>r<392>a<2993>R<LEU>A<C> 2
c<A>r<392>a<2994>R<LEU>A<O> 1
c<A>r<392>a<2995>R<LEU>A<CB> 2
c<A>r<392>a<2996>R<LEU>A<CG> 1
c<A>r<392>a<2997>R<LEU>A<CD1> 1
c<A>r<392>a<2998>R<LEU>A<CD2> 2
c<A>r<392>a<2999>R<LEU>A<OXT> 1
