"Metric";"Testing_Set"
"Accuracy";"0.624737945492662"
"Kappa";"0.224876082575304"
"AccuracyLower";"0.593141773850734"
"AccuracyUpper";"0.655561441809201"
"AccuracyNull";"0.761006289308176"
"AccuracyPValue";"1"
"McnemarPValue";"5.54875980433702e-31"
"Sensitivity";"0.697368421052632"
"Specificity";"0.601928374655647"
"Pos Pred Value";"0.354910714285714"
"Neg Pred Value";"0.863636363636364"
"Precision";"0.354910714285714"
"Recall";"0.697368421052632"
"F1";"0.470414201183432"
"Prevalence";"0.238993710691824"
"Detection Rate";"0.166666666666667"
"Detection Prevalence";"0.469601677148847"
"Balanced Accuracy";"0.649648397854139"
"TP";"159"
"TN";"437"
"FP";"289"
"FN";"69"
