"Metric";"Testing_Set"
"Accuracy";"0.547169811320755"
"Kappa";"0.186083989003697"
"AccuracyLower";"0.514954548149175"
"AccuracyUpper";"0.579093059169264"
"AccuracyNull";"0.761006289308176"
"AccuracyPValue";"1"
"McnemarPValue";"5.56142807901226e-64"
"Sensitivity";"0.824561403508772"
"Specificity";"0.460055096418733"
"Pos Pred Value";"0.324137931034483"
"Neg Pred Value";"0.893048128342246"
"Precision";"0.324137931034483"
"Recall";"0.824561403508772"
"F1";"0.465346534653465"
"Prevalence";"0.238993710691824"
"Detection Rate";"0.19706498951782"
"Detection Prevalence";"0.607966457023061"
"Balanced Accuracy";"0.642308249963752"
"TP";"188"
"TN";"334"
"FP";"392"
"FN";"40"
