"Metric";"Testing_Set"
"Accuracy";"0.758909853249476"
"Kappa";"0.0353977632411904"
"AccuracyLower";"0.730467754385361"
"AccuracyUpper";"0.7857435838212"
"AccuracyNull";"0.761006289308176"
"AccuracyPValue";"0.577749741663774"
"McnemarPValue";"2.04174721728489e-42"
"Sensitivity";"0.0394736842105263"
"Specificity";"0.984848484848485"
"Pos Pred Value";"0.45"
"Neg Pred Value";"0.765524625267666"
"Precision";"0.45"
"Recall";"0.0394736842105263"
"F1";"0.0725806451612903"
"Prevalence";"0.238993710691824"
"Detection Rate";"0.00943396226415094"
"Detection Prevalence";"0.0209643605870021"
"Balanced Accuracy";"0.512161084529506"
"TP";"9"
"TN";"715"
"FP";"11"
"FN";"219"
