"Metric";"Testing_Set"
"Accuracy";"0.757861635220126"
"Kappa";"0.215074904366038"
"AccuracyLower";"0.729382786061678"
"AccuracyUpper";"0.784738685402523"
"AccuracyNull";"0.761006289308176"
"AccuracyPValue";"0.607120181227749"
"McnemarPValue";"4.71979106297732e-11"
"Sensitivity";"0.271929824561404"
"Specificity";"0.910468319559229"
"Pos Pred Value";"0.488188976377953"
"Neg Pred Value";"0.799274486094317"
"Precision";"0.488188976377953"
"Recall";"0.271929824561404"
"F1";"0.349295774647887"
"Prevalence";"0.238993710691824"
"Detection Rate";"0.0649895178197065"
"Detection Prevalence";"0.133123689727463"
"Balanced Accuracy";"0.591199072060316"
"TP";"62"
"TN";"661"
"FP";"65"
"FN";"166"
