"Metric";"Testing_Set"
"Accuracy";"0.384696016771488"
"Kappa";"0.0811239207269648"
"AccuracyLower";"0.353695624405259"
"AccuracyUpper";"0.41641057259934"
"AccuracyNull";"0.761006289308176"
"AccuracyPValue";"1"
"McnemarPValue";"2.27410639470178e-117"
"Sensitivity";"0.93859649122807"
"Specificity";"0.210743801652893"
"Pos Pred Value";"0.271918678526048"
"Neg Pred Value";"0.916167664670659"
"Precision";"0.271918678526048"
"Recall";"0.93859649122807"
"F1";"0.421674876847291"
"Prevalence";"0.238993710691824"
"Detection Rate";"0.224318658280922"
"Detection Prevalence";"0.824947589098532"
"Balanced Accuracy";"0.574670146440481"
"TP";"214"
"TN";"153"
"FP";"573"
"FN";"14"
