"Metric";"Testing_Set"
"Accuracy";"0.729559748427673"
"Kappa";"0.286573913043478"
"AccuracyLower";"0.700169047710945"
"AccuracyUpper";"0.757525694055631"
"AccuracyNull";"0.761006289308176"
"AccuracyPValue";"0.988950220924948"
"McnemarPValue";"0.0927732917624952"
"Sensitivity";"0.495614035087719"
"Specificity";"0.803030303030303"
"Pos Pred Value";"0.44140625"
"Neg Pred Value";"0.835243553008596"
"Precision";"0.44140625"
"Recall";"0.495614035087719"
"F1";"0.466942148760331"
"Prevalence";"0.238993710691824"
"Detection Rate";"0.118448637316562"
"Detection Prevalence";"0.268343815513627"
"Balanced Accuracy";"0.649322169059011"
"TP";"113"
"TN";"583"
"FP";"143"
"FN";"115"
