"Metric";"Testing_Set"
"Accuracy";"0.740041928721174"
"Kappa";"0.24442400551851"
"AccuracyLower";"0.710971309084671"
"AccuracyUpper";"0.767622290373609"
"AccuracyNull";"0.761006289308176"
"AccuracyPValue";"0.939118638726075"
"McnemarPValue";"0.0262493840016334"
"Sensitivity";"0.37719298245614"
"Specificity";"0.853994490358127"
"Pos Pred Value";"0.447916666666667"
"Neg Pred Value";"0.813648293963255"
"Precision";"0.447916666666667"
"Recall";"0.37719298245614"
"F1";"0.40952380952381"
"Prevalence";"0.238993710691824"
"Detection Rate";"0.090146750524109"
"Detection Prevalence";"0.20125786163522"
"Balanced Accuracy";"0.615593736407134"
"TP";"86"
"TN";"620"
"FP";"106"
"FN";"142"
