"Metric";"Testing_Set"
"Accuracy";"0.768343815513627"
"Kappa";"0.0831789600020868"
"AccuracyLower";"0.740242557149003"
"AccuracyUpper";"0.794777537029704"
"AccuracyNull";"0.761006289308176"
"AccuracyPValue";"0.312627123308266"
"McnemarPValue";"4.71858722705748e-42"
"Sensitivity";"0.0701754385964912"
"Specificity";"0.987603305785124"
"Pos Pred Value";"0.640000000000001"
"Neg Pred Value";"0.771797631862218"
"Precision";"0.64"
"Recall";"0.0701754385964912"
"F1";"0.126482213438735"
"Prevalence";"0.238993710691824"
"Detection Rate";"0.0167714884696017"
"Detection Prevalence";"0.0262054507337526"
"Balanced Accuracy";"0.528889372190808"
"TP";"16"
"TN";"717"
"FP";"9"
"FN";"212"
