"Metric";"Testing_Set"
"Accuracy";"0.762054507337526"
"Kappa";"0.0541914520059743"
"AccuracyLower";"0.73372399225732"
"AccuracyUpper";"0.788756940352339"
"AccuracyNull";"0.761006289308176"
"AccuracyPValue";"0.487493726423534"
"McnemarPValue";"9.08438633616907e-42"
"Sensitivity";"0.0526315789473684"
"Specificity";"0.984848484848485"
"Pos Pred Value";"0.521739130434783"
"Neg Pred Value";"0.767991407089151"
"Precision";"0.521739130434783"
"Recall";"0.0526315789473684"
"F1";"0.0956175298804781"
"Prevalence";"0.238993710691824"
"Detection Rate";"0.0125786163522013"
"Detection Prevalence";"0.0241090146750524"
"Balanced Accuracy";"0.518740031897927"
"TP";"12"
"TN";"715"
"FP";"11"
"FN";"216"
