"Metric";"Testing_Set"
"Accuracy";"0.768343815513627"
"Kappa";"0.149485658961636"
"AccuracyLower";"0.740242557149003"
"AccuracyUpper";"0.794777537029704"
"AccuracyNull";"0.761006289308176"
"AccuracyPValue";"0.312627123308266"
"McnemarPValue";"5.95667984122894e-29"
"Sensitivity";"0.149122807017544"
"Specificity";"0.962809917355372"
"Pos Pred Value";"0.557377049180328"
"Neg Pred Value";"0.782754759238522"
"Precision";"0.557377049180328"
"Recall";"0.149122807017544"
"F1";"0.235294117647059"
"Prevalence";"0.238993710691824"
"Detection Rate";"0.0356394129979036"
"Detection Prevalence";"0.0639412997903564"
"Balanced Accuracy";"0.555966362186458"
"TP";"34"
"TN";"699"
"FP";"27"
"FN";"194"
