"Metric";"Testing_Set"
"Accuracy";"0.758909853249476"
"Kappa";"0.228057584328957"
"AccuracyLower";"0.730467754385361"
"AccuracyUpper";"0.7857435838212"
"AccuracyNull";"0.761006289308176"
"AccuracyPValue";"0.577749741663774"
"McnemarPValue";"8.66511204063913e-10"
"Sensitivity";"0.289473684210526"
"Specificity";"0.90633608815427"
"Pos Pred Value";"0.492537313432836"
"Neg Pred Value";"0.802439024390244"
"Precision";"0.492537313432836"
"Recall";"0.289473684210526"
"F1";"0.364640883977901"
"Prevalence";"0.238993710691824"
"Detection Rate";"0.0691823899371069"
"Detection Prevalence";"0.140461215932914"
"Balanced Accuracy";"0.597904886182398"
"TP";"66"
"TN";"658"
"FP";"68"
"FN";"162"
