"Metric";"Testing_Set"
"Accuracy";"0.490566037735849"
"Kappa";"0.143322764461985"
"AccuracyLower";"0.45839048125326"
"AccuracyUpper";"0.522799992002946"
"AccuracyNull";"0.761006289308176"
"AccuracyPValue";"1"
"McnemarPValue";"2.67685167920562e-81"
"Sensitivity";"0.859649122807018"
"Specificity";"0.37465564738292"
"Pos Pred Value";"0.301538461538462"
"Neg Pred Value";"0.894736842105263"
"Precision";"0.301538461538462"
"Recall";"0.859649122807018"
"F1";"0.446469248291572"
"Prevalence";"0.238993710691824"
"Detection Rate";"0.205450733752621"
"Detection Prevalence";"0.681341719077568"
"Balanced Accuracy";"0.617152385094969"
"TP";"196"
"TN";"272"
"FP";"454"
"FN";"32"
