"Metric";"Testing_Set"
"Accuracy";"0.727463312368973"
"Kappa";"0.307050186060545"
"AccuracyLower";"0.698010994052816"
"AccuracyUpper";"0.75550396742577"
"AccuracyNull";"0.761006289308176"
"AccuracyPValue";"0.992577504703519"
"McnemarPValue";"0.00101289436464419"
"Sensitivity";"0.548245614035088"
"Specificity";"0.783746556473829"
"Pos Pred Value";"0.443262411347518"
"Neg Pred Value";"0.84672619047619"
"Precision";"0.443262411347518"
"Recall";"0.548245614035088"
"F1";"0.490196078431373"
"Prevalence";"0.238993710691824"
"Detection Rate";"0.131027253668763"
"Detection Prevalence";"0.29559748427673"
"Balanced Accuracy";"0.665996085254458"
"TP";"125"
"TN";"569"
"FP";"157"
"FN";"103"
