"Metric";"Testing_Set"
"Accuracy";"0.747379454926625"
"Kappa";"0.206432373102491"
"AccuracyLower";"0.71854507569885"
"AccuracyUpper";"0.774677677686066"
"AccuracyNull";"0.761006289308176"
"AccuracyPValue";"0.84722941141834"
"McnemarPValue";"1.2772237461025e-07"
"Sensitivity";"0.289473684210526"
"Specificity";"0.891184573002755"
"Pos Pred Value";"0.455172413793103"
"Neg Pred Value";"0.799752781211372"
"Precision";"0.455172413793103"
"Recall";"0.289473684210526"
"F1";"0.353887399463807"
"Prevalence";"0.238993710691824"
"Detection Rate";"0.0691823899371069"
"Detection Prevalence";"0.151991614255765"
"Balanced Accuracy";"0.590329128606641"
"TP";"66"
"TN";"647"
"FP";"79"
"FN";"162"
