"Metric";"Testing_Set"
"Accuracy";"0.758909853249476"
"Kappa";"-0.00417376022845833"
"AccuracyLower";"0.730467754385361"
"AccuracyUpper";"0.7857435838212"
"AccuracyNull";"0.761006289308176"
"AccuracyPValue";"0.577749741663774"
"McnemarPValue";"8.56395396045809e-50"
"Sensitivity";"0"
"Specificity";"0.997245179063361"
"Pos Pred Value";"0"
"Neg Pred Value";"0.760504201680672"
"Precision";"0"
"Recall";"0"
"F1";"NaN"
"Prevalence";"0.238993710691824"
"Detection Rate";"0"
"Detection Prevalence";"0.00209643605870021"
"Balanced Accuracy";"0.49862258953168"
"TP";"0"
"TN";"724"
"FP";"2"
"FN";"228"
