"Metric";"Testing_Set"
"Accuracy";"0.772536687631027"
"Kappa";"0.1113200257566"
"AccuracyLower";"0.744592868928106"
"AccuracyUpper";"0.798786645076809"
"AccuracyNull";"0.761006289308176"
"AccuracyPValue";"0.21339095227416"
"McnemarPValue";"2.15490426087003e-40"
"Sensitivity";"0.0921052631578947"
"Specificity";"0.986225895316804"
"Pos Pred Value";"0.677419354838709"
"Neg Pred Value";"0.775731310942579"
"Precision";"0.67741935483871"
"Recall";"0.0921052631578947"
"F1";"0.162162162162162"
"Prevalence";"0.238993710691824"
"Detection Rate";"0.0220125786163522"
"Detection Prevalence";"0.0324947589098532"
"Balanced Accuracy";"0.53916557923735"
"TP";"21"
"TN";"716"
"FP";"10"
"FN";"207"
