"Metric";"Testing_Set"
"Accuracy";"0.771488469601677"
"Kappa";"0.101462048942347"
"AccuracyLower";"0.743504940931238"
"AccuracyUpper";"0.797784719765314"
"AccuracyNull";"0.761006289308176"
"AccuracyPValue";"0.236373722291859"
"McnemarPValue";"2.10797418359892e-41"
"Sensitivity";"0.0833333333333333"
"Specificity";"0.987603305785124"
"Pos Pred Value";"0.678571428571429"
"Neg Pred Value";"0.774298056155508"
"Precision";"0.678571428571429"
"Recall";"0.0833333333333333"
"F1";"0.1484375"
"Prevalence";"0.238993710691824"
"Detection Rate";"0.019916142557652"
"Detection Prevalence";"0.0293501048218029"
"Balanced Accuracy";"0.535468319559229"
"TP";"19"
"TN";"717"
"FP";"9"
"FN";"209"
