"Metric";"Testing_Set"
"Accuracy";"0.740041928721174"
"Kappa";"0.253916597290547"
"AccuracyLower";"0.710971309084671"
"AccuracyUpper";"0.767622290373609"
"AccuracyNull";"0.761006289308176"
"AccuracyPValue";"0.939118638726075"
"McnemarPValue";"0.086436622463098"
"Sensitivity";"0.394736842105263"
"Specificity";"0.848484848484849"
"Pos Pred Value";"0.45"
"Neg Pred Value";"0.816976127320955"
"Precision";"0.45"
"Recall";"0.394736842105263"
"F1";"0.420560747663551"
"Prevalence";"0.238993710691824"
"Detection Rate";"0.0943396226415094"
"Detection Prevalence";"0.209643605870021"
"Balanced Accuracy";"0.621610845295056"
"TP";"90"
"TN";"616"
"FP";"110"
"FN";"138"
