"Metric";"Testing_Set"
"Accuracy";"0.731656184486373"
"Kappa";"0.215057081147794"
"AccuracyLower";"0.702327893013728"
"AccuracyUpper";"0.759546626207111"
"AccuracyNull";"0.761006289308176"
"AccuracyPValue";"0.98385962515531"
"McnemarPValue";"0.0147892142217614"
"Sensitivity";"0.350877192982456"
"Specificity";"0.851239669421488"
"Pos Pred Value";"0.425531914893617"
"Neg Pred Value";"0.806788511749347"
"Precision";"0.425531914893617"
"Recall";"0.350877192982456"
"F1";"0.384615384615385"
"Prevalence";"0.238993710691824"
"Detection Rate";"0.0838574423480084"
"Detection Prevalence";"0.19706498951782"
"Balanced Accuracy";"0.601058431201972"
"TP";"80"
"TN";"618"
"FP";"108"
"FN";"148"
