"Metric";"Testing_Set"
"Accuracy";"0.509433962264151"
"Kappa";"0.159585281561293"
"AccuracyLower";"0.477200007997054"
"AccuracyUpper";"0.54160951874674"
"AccuracyNull";"0.761006289308176"
"AccuracyPValue";"1"
"McnemarPValue";"1.0535007999286e-76"
"Sensitivity";"0.855263157894737"
"Specificity";"0.400826446280992"
"Pos Pred Value";"0.309523809523809"
"Neg Pred Value";"0.898148148148148"
"Precision";"0.30952380952381"
"Recall";"0.855263157894737"
"F1";"0.454545454545455"
"Prevalence";"0.238993710691824"
"Detection Rate";"0.20440251572327"
"Detection Prevalence";"0.660377358490566"
"Balanced Accuracy";"0.628044802087864"
"TP";"195"
"TN";"291"
"FP";"435"
"FN";"33"
