"Metric";"Testing_Set"
"Accuracy";"0.505241090146751"
"Kappa";"0.160273911292127"
"AccuracyLower";"0.473016218505056"
"AccuracyUpper";"0.537433518658777"
"AccuracyNull";"0.761006289308176"
"AccuracyPValue";"1"
"McnemarPValue";"8.13682558440188e-80"
"Sensitivity";"0.868421052631579"
"Specificity";"0.391184573002755"
"Pos Pred Value";"0.309375"
"Neg Pred Value";"0.904458598726115"
"Precision";"0.309375"
"Recall";"0.868421052631579"
"F1";"0.456221198156682"
"Prevalence";"0.238993710691824"
"Detection Rate";"0.207547169811321"
"Detection Prevalence";"0.670859538784067"
"Balanced Accuracy";"0.629802812817167"
"TP";"198"
"TN";"284"
"FP";"442"
"FN";"30"
