"Metric";"Testing_Set"
"Accuracy";"0.733752620545073"
"Kappa";"0.319252941374776"
"AccuracyLower";"0.704487535786445"
"AccuracyUpper";"0.761566757994013"
"AccuracyNull";"0.761006289308176"
"AccuracyPValue";"0.976865373838175"
"McnemarPValue";"0.00210832080988656"
"Sensitivity";"0.552631578947368"
"Specificity";"0.790633608815427"
"Pos Pred Value";"0.453237410071942"
"Neg Pred Value";"0.849112426035503"
"Precision";"0.453237410071942"
"Recall";"0.552631578947368"
"F1";"0.49802371541502"
"Prevalence";"0.238993710691824"
"Detection Rate";"0.132075471698113"
"Detection Prevalence";"0.291404612159329"
"Balanced Accuracy";"0.671632593881398"
"TP";"126"
"TN";"574"
"FP";"152"
"FN";"102"
