"Metric";"Testing_Set"
"Accuracy";"0.732704402515723"
"Kappa";"0.326931057952489"
"AccuracyLower";"0.703407614347387"
"AccuracyUpper";"0.760556792518961"
"AccuracyNull";"0.761006289308176"
"AccuracyPValue";"0.980630779809873"
"McnemarPValue";"0.000171725156113631"
"Sensitivity";"0.574561403508772"
"Specificity";"0.78236914600551"
"Pos Pred Value";"0.453287197231834"
"Neg Pred Value";"0.854135338345865"
"Precision";"0.453287197231834"
"Recall";"0.574561403508772"
"F1";"0.506769825918762"
"Prevalence";"0.238993710691824"
"Detection Rate";"0.137316561844864"
"Detection Prevalence";"0.30293501048218"
"Balanced Accuracy";"0.678465274757141"
"TP";"131"
"TN";"568"
"FP";"158"
"FN";"97"
