"Metric";"Testing_Set"
"Accuracy";"0.560796645702306"
"Kappa";"0.170606909430439"
"AccuracyLower";"0.528632860605918"
"AccuracyUpper";"0.592584031800788"
"AccuracyNull";"0.761006289308176"
"AccuracyPValue";"1"
"McnemarPValue";"2.91398616609687e-49"
"Sensitivity";"0.745614035087719"
"Specificity";"0.502754820936639"
"Pos Pred Value";"0.32015065913371"
"Neg Pred Value";"0.862884160756501"
"Precision";"0.32015065913371"
"Recall";"0.745614035087719"
"F1";"0.447957839262187"
"Prevalence";"0.238993710691824"
"Detection Rate";"0.178197064989518"
"Detection Prevalence";"0.556603773584906"
"Balanced Accuracy";"0.624184428012179"
"TP";"170"
"TN";"365"
"FP";"361"
"FN";"58"
