"Metric";"Testing_Set"
"Accuracy";"0.678197064989518"
"Kappa";"0.277304828035474"
"AccuracyLower";"0.647512164240368"
"AccuracyUpper";"0.707777272444655"
"AccuracyNull";"0.761006289308176"
"AccuracyPValue";"0.999999997349114"
"McnemarPValue";"2.99380211128059e-17"
"Sensitivity";"0.653508771929825"
"Specificity";"0.685950413223141"
"Pos Pred Value";"0.395225464190981"
"Neg Pred Value";"0.863084922010399"
"Precision";"0.395225464190981"
"Recall";"0.653508771929825"
"F1";"0.492561983471074"
"Prevalence";"0.238993710691824"
"Detection Rate";"0.156184486373166"
"Detection Prevalence";"0.39517819706499"
"Balanced Accuracy";"0.669729592576483"
"TP";"149"
"TN";"498"
"FP";"228"
"FN";"79"
