"Metric";"Testing_Set"
"Accuracy";"0.726415094339623"
"Kappa";"0.285497839224531"
"AccuracyLower";"0.696932262303731"
"AccuracyUpper";"0.754492807986832"
"AccuracyNull";"0.761006289308176"
"AccuracyPValue";"0.993959840778378"
"McnemarPValue";"0.0353307448213015"
"Sensitivity";"0.504385964912281"
"Specificity";"0.796143250688705"
"Pos Pred Value";"0.437262357414449"
"Neg Pred Value";"0.836468885672938"
"Precision";"0.437262357414449"
"Recall";"0.504385964912281"
"F1";"0.468431771894094"
"Prevalence";"0.238993710691824"
"Detection Rate";"0.120545073375262"
"Detection Prevalence";"0.275681341719078"
"Balanced Accuracy";"0.650264607800493"
"TP";"115"
"TN";"578"
"FP";"148"
"FN";"113"
