"The table details the residue variety in % for each position in the query sequence."
"Each column shows the % for that amino-acid, found in position ('pos') in the MSA."
"In case there are residues which are not a standard amino-acid in the MSA, they are represented under column 'OTHER'"

pos,A,C,D,E,F,G,H,I,K,L,M,N,P,Q,R,S,T,V,W,Y,OTHER,MAX AA,ConSurf Grade
1,,,,,,,,,,,43.750,,,,,,,56.250,,,,V 56.250,3*
2,4.348,,4.348,,,82.609,,,,,,,,,,8.696,,,,,,G 82.609,4
3,6.667,,,,,16.667,,,,6.667,,,,,,70.000,,,,,,S 70.000,6
4,4.545,,,9.091,,59.091,,,2.273,,,,,,22.727,2.273,,,,,,G 59.091,2
5,1.923,,44.231,,,,3.846,,3.846,,,38.462,,,,3.846,,,,3.846,,D 44.231,3
6,5.000,,,,,,,,1.667,3.333,,1.667,71.667,,,10.000,5.000,1.667,,,,P 71.667,1
7,57.647,,,1.176,1.176,3.529,1.176,1.176,,,1.176,,3.529,3.529,1.176,10.588,3.529,10.588,,,,A 57.647,2
8,8.182,0.909,1.818,2.727,,0.909,2.727,0.909,,4.545,,4.545,23.636,19.091,1.818,14.545,11.818,,,1.818,,P 23.636,1
9,48.800,,0.800,0.800,,45.600,,,,,,,,,,0.800,1.600,1.600,,,,A 48.800,6
10,,,,,,100.000,,,,,,,,,,,,,,,,G 100.000,9
11,0.769,,,,,,,23.077,,1.538,19.231,22.308,,0.769,,1.538,3.077,26.154,,1.538,,V 26.154,6
12,,100.000,,,,,,,,,,,,,,,,,,,,C 100.000,9
13,,,,,,,,,,,,,,,,,,,100.000,,,W 100.000,9
14,0.769,,,,0.769,1.538,,,,82.308,,,,0.769,,10.000,0.769,,,3.077,,L 82.308,6
15,0.781,,,2.344,,1.562,1.562,,1.562,3.906,0.781,0.781,,67.969,7.031,9.375,2.344,,,,,Q 67.969,6
16,,,,,,,1.562,7.031,0.781,,5.469,0.781,,75.781,2.344,,2.344,3.906,,,,Q 75.781,6
17,5.785,,1.653,0.826,,67.769,,0.826,,,,4.132,,,0.826,16.529,1.653,,,,,G 67.769,3
18,,,,0.775,,,0.775,,31.783,1.550,,,7.752,20.930,25.581,9.302,1.550,,,,,K 31.783,2
19,0.775,,13.953,42.636,,0.775,,,1.550,,,36.434,,0.775,0.775,1.550,,0.775,,,,E 42.636,6
20,33.333,,0.758,0.758,,39.394,3.788,,,,,0.758,4.545,13.636,,3.030,,,,,,G 39.394,6
21,,,,,,0.746,,,16.418,2.239,0.746,,,2.239,53.731,,23.134,0.746,,,,R 53.731,7
22,,100.000,,,,,,,,,,,,,,,,,,,,C 100.000,9
23,2.239,,16.418,,,1.493,,,8.209,,,1.493,,21.642,2.239,25.373,20.896,,,,,S 25.373,7
24,2.239,,0.746,14.179,,,,1.493,,25.373,29.104,1.493,,0.746,1.493,2.239,1.493,19.403,,,,M 29.104,5
25,,,,,2.239,,,11.940,,35.821,2.985,,,,,1.493,0.746,44.776,,,,V 44.776,7
26,0.746,,,,1.493,,,1.493,,70.896,0.746,0.746,,,,1.493,,1.493,,20.896,,L 70.896,6
27,3.731,,,0.746,0.746,2.239,0.746,0.746,21.642,2.985,32.836,0.746,,6.716,17.164,6.716,0.746,0.746,,0.746,,M 32.836,1
28,1.481,,0.741,5.185,,1.481,0.741,0.741,,2.222,2.222,0.741,5.926,7.407,19.259,7.407,43.704,0.741,,,,T 43.704,5
29,1.471,,19.853,8.088,,47.059,0.735,,2.206,,0.735,8.824,0.735,,6.618,3.676,,,,,,G 47.059,1
30,,,,,0.735,,,5.882,,7.353,13.971,,,,,1.471,0.735,69.853,,,,V 69.853,7
31,,,2.143,,,2.143,,0.714,,,,,,,,55.714,38.571,0.714,,,,S 55.714,5
32,,,,1.429,,,2.857,,16.429,,,,,15.000,48.571,,,,15.000,0.714,,R 48.571,3
33,20.000,,5.714,67.857,,,,,2.143,,,,,4.286,,,,,,,,E 67.857,6
34,,,10.000,82.857,,,,,,,,3.571,,2.143,,,1.429,,,,,E 82.857,6
35,,100.000,,,,,,,,,,,,,,,,,,,,C 100.000,9
36,,100.000,,,,,,,,,,,,,,,,,,,,C 100.000,9
37,46.043,,1.439,1.439,,7.914,0.719,,5.755,,,,,1.439,16.547,18.705,,,,,,A 46.043,2
38,2.878,,5.036,,0.719,18.705,0.719,0.719,,0.719,,16.547,,,0.719,43.885,8.633,,,0.719,,S 43.885,5
39,6.383,,2.837,2.128,,69.504,0.709,,,,,4.255,,2.128,,9.220,2.837,,,,,G 69.504,3
40,6.383,,,,,2.128,5.674,,0.709,0.709,,25.532,0.709,,41.135,15.603,,0.709,,0.709,,R 41.135,4
41,11.348,,,0.709,,,,18.440,,44.681,0.709,,2.128,,,,2.837,19.149,,,,L 44.681,5
42,5.674,,51.773,1.418,0.709,18.440,,,,,,7.092,0.709,1.418,0.709,5.674,6.383,,,,,D 51.773,4
43,5.674,,,,,0.709,,,,,4.965,,,,3.546,1.418,74.468,8.511,,0.709,,T 74.468,6
44,81.429,,,,,0.714,,,,,,,,,,16.429,,,,1.429,,A 81.429,8
45,,,,,0.714,,,,,,,,,,,,,,92.143,7.143,,W 92.143,8
46,,,,,0.709,,,,,,,,,,,74.468,24.823,,,,,S 74.468,9
47,2.128,,7.092,22.695,,0.709,,,0.709,,,55.319,5.674,,,4.965,,0.709,,,,N 55.319,6
48,2.128,,3.546,30.496,12.057,0.709,2.128,0.709,1.418,4.965,,,,3.546,0.709,7.801,14.894,0.709,,14.184,,E 30.496,1
49,,,36.170,3.546,,,,,,,,2.837,,1.418,,23.404,32.624,,,,,D 36.170,7
50,,,0.709,1.418,1.418,,21.277,2.128,,34.043,3.546,,,4.255,,0.709,,21.986,,8.511,,L 34.043,4
51,0.709,,12.766,1.418,,0.709,,,,0.709,,4.255,70.922,2.837,,4.255,1.418,,,,,P 70.922,6
52,0.709,,6.383,4.965,1.418,26.241,,8.511,,2.128,12.057,13.475,4.255,,,17.021,2.128,0.709,,,,G 26.241,4
53,0.709,,1.418,,,19.858,0.709,,,,,59.574,,,,14.184,3.546,,,,,N 59.574,7
54,5.674,,2.837,21.986,,,,,34.752,,,,,2.837,1.418,6.383,23.404,0.709,,,,K 34.752,6
55,,,,,,,,39.716,,40.426,2.128,,,,,0.709,,17.021,,,,L 40.426,7
56,,,,,41.135,2.128,0.709,,,1.418,,7.092,,,,46.809,,0.709,,,,S 46.809,7
57,,,,,17.730,,,,7.801,55.319,,,,,14.894,0.709,,,,3.546,,L 55.319,7
58,,,,,,0.709,,0.709,,57.447,1.418,,,,,,,0.709,37.589,1.418,,L 57.447,6
59,,,0.709,,,52.482,1.418,2.837,3.546,4.255,15.603,0.709,,0.709,13.475,1.418,2.837,,,,,G 52.482,4
60,2.837,,,,47.518,,,21.986,,8.511,0.709,,,,,0.709,,17.021,,0.709,,F 47.518,5
61,0.709,0.709,,,19.149,,,0.709,,76.596,0.709,,,0.709,0.709,,,,,,,L 76.596,7
62,,,2.113,,,97.887,,,,,,,,,,,,,,,,G 97.887,9
63,20.423,,,0.704,,19.718,,19.718,,35.915,,,0.704,,,0.704,0.704,1.408,,,,L 35.915,7
64,,,,,,,,3.521,0.704,1.408,,,22.535,,,0.704,,70.423,,0.704,,V 70.423,8
65,1.408,,0.704,,,1.408,23.944,0.704,1.408,,,19.014,9.155,5.634,2.113,21.127,13.380,,,,,H 23.944,4
66,0.699,97.902,,,,,,,,,0.699,,,,,0.699,,,,,,C 97.902,9
67,1.399,,0.699,0.699,2.098,,11.888,16.084,21.678,21.678,2.098,0.699,,4.895,7.692,2.797,2.797,2.098,,0.699,,KL 21.678,1
68,2.778,,,,,,,,1.389,4.861,,,85.417,1.389,0.694,3.472,,,,,,P 85.417,5
69,0.694,97.917,,,,,,,,,,,,,,0.694,,0.694,,,,C 97.917,9
70,2.041,,,0.680,,,2.721,0.680,76.190,,0.680,,,2.721,14.286,,,,,,,K 76.190,5
71,1.351,,31.081,56.757,,3.378,,,2.027,,,0.676,,0.676,,,1.351,2.027,,,0.675675675675676,E 56.757,5
72,,,,1.361,,,,,,,,4.082,,,,50.340,42.857,1.361,,,,S 50.340,6
73,,97.279,,0.680,,,,,,0.680,,,0.680,,,,0.680,,,,,C 97.279,8
74,5.442,,33.333,48.299,,,0.680,0.680,1.361,,,0.680,0.680,1.361,,,3.401,4.082,,,,E 48.299,1
75,,0.680,4.082,4.762,,59.864,1.361,,,,,24.490,,1.361,,2.721,,0.680,,,,G 59.864,5
76,1.361,,,,0.680,,,0.680,0.680,1.361,,,,,0.680,,,94.558,,,,V 94.558,9
77,,0.680,29.932,21.088,,,0.680,,19.048,0.680,,3.401,1.361,9.524,6.122,2.041,0.680,4.762,,,,D 29.932,1
78,0.676,95.946,,,,0.676,,,0.676,,,,,0.676,,0.676,,,0.676,,,C 95.946,8
79,1.351,,0.676,6.757,0.676,72.297,,,,,,,3.378,,,13.514,,1.351,,,,G 72.297,4
80,4.730,0.676,1.351,9.459,,,,0.676,2.027,1.351,,,68.919,0.676,1.351,6.081,2.027,0.676,,,,P 68.919,1
81,,0.676,8.784,1.351,,83.784,0.676,,,,,2.027,,,0.676,1.351,,,,,0.675675675675676,G 83.784,5
82,,,,1.342,,2.013,0.671,,87.919,0.671,0.671,,0.671,0.671,4.027,,0.671,,,,0.671140939597315,K 87.919,6
83,18.121,0.671,,3.356,,0.671,,2.685,17.450,,,0.671,,0.671,18.792,1.342,4.027,30.201,0.671,,0.671140939597315,V 30.201,2
84,,95.946,,,,1.351,,,,0.676,,,,,0.676,0.676,,,,,0.675675675675676,C 95.946,8
85,0.676,,0.676,,1.351,,1.351,1.351,45.946,0.676,0.676,0.676,,,28.378,1.351,3.378,12.838,,,0.675675675675676,K 45.946,3
86,0.671,,,,0.671,,,4.698,0.671,8.725,71.812,,0.671,,,0.671,0.671,10.067,,,0.671140939597315,M 71.812,5
87,0.671,,,1.342,,0.671,2.013,,45.638,17.450,1.342,,,0.671,28.188,,,1.342,,,0.671140939597315,K 45.638,4
88,3.356,,2.685,1.342,,20.134,8.725,,18.792,0.671,9.396,4.698,,0.671,19.463,3.356,4.027,0.671,,1.342,0.671140939597315,G 20.134,1
89,0.667,,1.333,0.667,,71.333,0.667,,,,,14.667,,0.667,0.667,8.000,,0.667,,,0.666666666666667,G 71.333,5
90,0.671,,,,0.671,,1.342,0.671,24.832,0.671,0.671,0.671,0.671,1.342,62.416,1.342,2.013,0.671,,0.671,0.671140939597315,R 62.416,5
91,1.342,,,,,,,,,0.671,,,97.315,,0.671,,,,,,,P 97.315,9
92,0.671,,,,,,8.725,0.671,11.409,0.671,,,1.342,25.503,47.651,,2.685,,0.671,,,R 47.651,4
93,0.671,96.644,,,,1.342,,,,0.671,,,,,,,0.671,,,,,C 96.644,8
94,8.725,,,21.477,0.671,0.671,,6.711,,0.671,,,1.342,,0.671,,2.013,56.376,,0.671,,V 56.376,5
95,0.671,95.973,,,,0.671,,,,,,,,,1.342,0.671,,0.671,,,,C 95.973,8
96,56.000,,,,,,,0.667,1.333,0.667,,1.333,,,3.333,29.333,5.333,1.333,0.667,,,A 56.000,5
97,0.671,,,,,1.342,,,,1.342,,,95.302,0.671,,0.671,,,,,,P 95.302,8
98,,,71.918,7.534,,0.685,,0.685,4.795,1.370,,9.589,,,0.685,1.370,0.685,0.685,,,,D 71.918,4
99,,97.959,,,,,,,,0.680,,,,,,0.680,,,,0.680,,C 97.959,9
100,9.524,,,3.401,,2.041,,,10.884,,,2.041,2.041,,2.041,57.823,8.844,0.680,0.680,,,S 57.823,6
101,4.795,,2.055,4.795,0.685,22.603,11.644,0.685,4.110,,0.685,30.822,,1.370,4.795,8.904,0.685,0.685,0.685,,,N 30.822,1
102,2.055,0.685,1.370,,1.370,1.370,,30.137,4.110,36.301,,0.685,7.534,2.055,0.685,0.685,,10.959,,,,L 36.301,1
103,1.370,,0.685,1.370,,0.685,1.370,2.055,2.055,1.370,,2.740,28.767,2.740,10.959,17.123,26.027,0.685,,,,P 28.767,1
104,18.367,,0.680,2.721,1.361,6.803,2.041,0.680,7.483,3.401,1.361,,2.041,2.721,23.129,2.721,2.041,3.401,18.367,0.680,,R 23.129,1
105,2.027,,2.027,,,10.135,2.703,,48.649,1.351,1.351,0.676,0.676,2.027,25.000,2.027,0.676,0.676,,,,K 48.649,1
106,2.027,,,,2.027,41.216,16.892,0.676,0.676,26.351,1.351,1.351,0.676,1.351,1.351,,,4.054,,,,G 41.216,4
107,20.946,,,2.027,,,,,0.676,1.351,,,39.189,27.703,1.351,6.081,0.676,,,,,P 39.189,4
108,0.676,,0.676,,,,,2.027,,2.703,,,,,,,,93.919,,,,V 93.919,8
109,,96.000,,,,1.333,0.667,,,2.000,,,,,,,,,,,,C 96.000,8
110,2.667,,,,,94.667,,,,,,,,,0.667,1.333,0.667,,,,,G 94.667,8
111,,,,0.667,0.667,0.667,1.333,1.333,,4.667,1.333,1.333,,,0.667,69.333,18.000,,,,,S 69.333,6
112,0.667,,92.667,1.333,,,,,0.667,0.667,,2.667,,,0.667,,0.667,,,,,D 92.667,8
113,,,,0.667,,95.333,0.667,,,,,0.667,0.667,,0.667,0.667,,,0.667,,,G 95.333,8
114,18.000,0.667,0.667,,3.333,2.000,2.000,0.667,34.667,,,12.000,,,17.333,,2.000,2.667,,4.000,,K 34.667,1
115,,,0.667,1.333,0.667,1.333,0.667,0.667,0.667,,0.667,0.667,,,,22.000,70.000,0.667,,,,T 70.000,6
116,0.680,,,1.361,1.361,,0.680,,,,,,,,,,,,,95.918,,Y 95.918,8
117,1.351,,1.351,,,0.676,,0.676,33.784,0.676,,2.027,,2.027,54.054,2.027,,,0.676,,0.675675675675676,R 54.054,1
118,,0.676,66.216,0.676,,,2.027,,0.676,,,16.216,,,,11.486,0.676,0.676,,,0.675675675675676,D 66.216,6
119,1.361,,,72.789,,2.721,3.401,4.082,1.361,6.803,0.680,,2.041,1.361,,,,2.041,0.680,0.680,,E 72.789,4
120,0.676,97.973,,,,,,,,0.676,,,,,,,0.676,,,,,C 97.973,9
121,36.486,,5.405,25.676,,2.027,,0.676,3.378,,0.676,,0.676,,13.514,5.405,4.054,2.027,,,,A 36.486,4
122,0.676,,,,2.027,,,1.351,,90.541,3.378,,1.351,,0.676,,,,,,,L 90.541,6
123,,,,,,0.676,,0.676,12.838,58.108,0.676,,0.676,0.676,23.649,,,1.351,0.676,,,L 58.108,5
124,14.189,0.676,,,0.676,,,,35.135,5.405,16.892,,,,8.108,1.351,16.216,1.351,,,,K 35.135,5
125,64.189,,,2.027,0.676,,2.703,1.351,2.703,,,,0.676,2.703,11.486,2.703,2.027,3.378,0.676,2.703,,A 64.189,4
126,11.486,,,,,0.676,,0.676,27.703,,,2.703,2.027,2.027,49.324,2.703,,0.676,,,,R 49.324,4
127,0.676,95.946,,,,1.351,,,,,,,,,1.351,0.676,,,,,,C 95.946,8
128,,0.676,,3.378,,,,,32.432,0.676,10.811,,0.676,2.027,48.649,,,0.676,,,,R 48.649,5
129,1.342,,6.040,4.698,,59.060,2.013,,12.752,,,2.013,,1.342,5.369,0.671,3.356,1.342,,,,G 59.060,4
130,0.671,,2.013,1.342,0.671,2.685,55.705,,0.671,4.027,,6.040,0.671,9.396,4.027,6.711,0.671,2.013,0.671,2.013,,H 55.705,2
131,,,0.671,2.013,,0.671,6.040,,3.356,3.356,,0.671,71.812,1.342,4.027,3.356,1.342,0.671,,0.671,,P 71.812,3
132,1.342,,63.087,15.436,,1.342,1.342,,1.342,,,6.711,1.342,0.671,,3.356,2.685,1.342,,,,D 63.087,4
133,,,,0.671,,,,2.013,,92.617,,,2.013,,,,0.671,2.013,,,,L 92.617,7
134,5.369,,8.054,44.966,0.671,1.342,2.013,,,2.685,,,,2.013,15.436,7.383,6.040,4.027,,,,E 44.966,1
135,2.685,,,,,,,10.067,,2.685,0.671,,,,,1.342,3.356,79.195,,,,V 79.195,6
136,16.107,0.671,2.685,0.671,,1.342,,,0.671,0.671,50.336,,,23.490,0.671,0.671,0.671,0.671,0.671,,,M 50.336,7
137,,,,,,,0.671,,,0.671,,,2.013,,,,,1.342,0.671,94.631,,Y 94.631,8
138,0.667,,,1.333,5.333,2.000,6.000,,0.667,2.000,,6.000,6.000,51.333,11.333,0.667,0.667,0.667,,5.333,,Q 51.333,1
139,2.000,,,,,93.333,1.333,,0.667,0.667,,,,,0.667,1.333,,,,,,G 93.333,8
140,0.671,,4.027,18.792,1.342,1.342,6.711,,30.201,1.342,0.671,,7.383,1.342,16.107,4.027,1.342,2.013,,2.685,,K 30.201,1
141,,93.960,,,,0.671,,,,2.685,,,1.342,,0.671,,0.671,,,,,C 93.960,8
142,2.013,,,,,0.671,0.671,0.671,51.678,,,,0.671,22.819,19.463,0.671,,,0.671,,,K 51.678,5
143,,,0.667,5.333,,,,,71.333,0.667,0.667,2.667,,0.667,2.000,12.000,2.000,1.333,,0.667,,K 71.333,5
144,,,,0.671,0.671,0.671,,,,,0.671,0.671,,,,74.497,20.805,0.671,0.671,,,S 74.497,8
145,,96.644,,,,1.342,,,,0.671,,,,0.671,,0.671,,,,,,C 96.644,8
146,18.667,,8.667,8.000,,0.667,2.667,1.333,2.000,0.667,0.667,3.333,,1.333,16.000,31.333,3.333,0.667,,0.667,,S 31.333,2
147,1.333,,21.333,,1.333,4.000,12.000,,8.000,1.333,0.667,26.000,,5.333,10.000,8.000,,,,0.667,,N 26.000,2
148,,,,,,,,6.000,,0.667,,,,,1.333,,0.667,91.333,,,,V 91.333,8
149,1.333,,,3.333,2.000,0.667,2.000,2.000,1.333,18.000,1.333,1.333,,3.333,10.667,2.667,4.667,45.333,,,,V 45.333,2
150,,97.987,,,,,,,,,,,0.671,,,,,1.342,,,,C 97.987,9
151,0.671,,,1.342,,6.711,,,,2.685,,,82.550,0.671,0.671,4.027,0.671,,,,,P 82.550,5
152,2.013,,2.013,0.671,0.671,59.732,1.342,,0.671,,0.671,0.671,1.342,6.711,18.792,2.013,2.013,,0.671,,,G 59.732,2
153,0.676,,0.676,,,14.865,,,2.703,0.676,,2.027,22.297,,2.027,18.919,35.135,,,,,T 35.135,6
154,1.361,,,0.680,0.680,0.680,32.653,,12.925,2.041,,,0.680,19.728,7.483,19.728,1.361,,,,,H 32.653,6
155,,,,,1.361,,1.361,0.680,1.361,,1.361,1.361,,0.680,2.721,34.694,48.299,2.041,,4.082,,T 48.299,4
156,,97.973,,0.676,,,,,0.676,,,,,,,,0.676,,,,,C 97.973,9
157,,,,,0.680,0.680,,2.041,,20.408,0.680,,,,,,,75.510,,,,V 75.510,7
158,0.680,,,2.041,,,0.680,1.361,,14.966,0.680,,,0.680,,0.680,21.088,56.463,0.680,,,V 56.463,7
159,,,98.639,,,,,,,,,,,,0.680,0.680,,,,,,D 98.639,9
160,0.676,,,,,0.676,,,0.676,,,,,95.270,1.351,,,0.676,0.676,,,Q 95.270,8
161,,,,0.680,,1.361,0.680,0.680,,,0.680,19.728,,0.680,0.680,1.361,70.748,2.041,,0.680,,T 70.748,7
162,1.351,,2.703,,0.676,35.135,1.351,,0.676,14.865,0.676,40.541,0.676,,0.676,,0.676,,,,,N 40.541,6
163,,,0.676,1.351,,0.676,0.676,2.027,,3.378,2.027,19.595,,0.676,2.703,62.838,2.027,1.351,,,,S 62.838,5
164,76.351,,,,,0.676,,0.676,,,,,20.270,,0.676,0.676,0.676,,,,,A 76.351,8
165,,,,,0.676,,74.324,,,0.676,,0.676,,0.676,1.351,,,,,21.622,,H 74.324,8
166,,99.324,,,,,,,,,,,,,,0.676,,,,,,C 99.324,9
167,0.676,,,,,,,2.703,,,,0.676,0.676,,,0.676,,94.595,,,,V 94.595,9
168,,,,0.676,,,1.351,1.351,4.054,6.081,32.432,1.351,1.351,1.351,9.459,1.351,18.919,18.919,,1.351,,M 32.432,2
169,1.351,97.297,,,,,,,,,,,,,0.676,,,0.676,,,,C 97.297,8
170,7.432,,1.351,0.676,,1.351,0.676,0.676,,,0.676,21.622,0.676,2.703,55.405,4.730,1.351,0.676,,,,R 55.405,5
171,21.769,,,0.680,,0.680,1.361,1.361,2.721,2.721,2.041,0.680,,1.361,28.571,7.483,25.170,2.721,,0.680,,R 28.571,2
172,40.000,,,1.379,2.759,,2.759,15.172,4.138,3.448,2.069,2.759,,1.379,7.586,2.759,9.655,4.138,,,,A 40.000,1
173,,,,,,,,,1.149,2.299,,,93.103,1.149,1.149,,1.149,,,,,P 93.103,7
174,,98.630,,,,,,,,,,,,,,,1.370,,,,,C 98.630,9
175,1.379,,0.690,,,,,,,,,,92.414,0.690,0.690,2.759,0.690,0.690,,,,P 92.414,7
176,14.789,,6.338,26.761,,,0.704,8.451,1.408,4.930,7.042,0.704,4.930,7.042,0.704,2.113,1.408,12.676,,,,E 26.761,1
177,9.286,,,,0.714,1.429,,,0.714,0.714,,,70.000,2.143,0.714,2.143,,11.429,,,0.714285714285714,P 70.000,2
178,3.597,,,,0.719,,0.719,3.597,1.439,8.633,12.950,0.719,4.317,0.719,1.439,28.058,30.216,2.158,,0.719,,T 30.216,1
179,6.107,,,1.527,,3.053,,1.527,3.053,6.107,0.763,1.527,12.214,2.290,1.527,57.252,2.290,0.763,,,,S 57.252,1
180,3.623,,0.725,,2.174,1.449,,1.449,2.174,7.246,,2.174,47.826,1.449,2.899,23.913,2.899,,,,,P 47.826,1
181,3.597,,18.705,35.252,,25.899,0.719,,,0.719,,1.439,1.439,2.158,3.597,4.317,1.439,,,0.719,,E 35.252,2
182,,,1.439,0.719,,1.439,8.633,,1.439,2.158,,1.439,2.878,63.309,13.669,,0.719,0.719,,1.439,,Q 63.309,3
183,8.571,,,22.857,2.857,,2.143,,,5.000,5.000,,16.429,7.143,,1.429,5.714,0.714,,22.143,,E 22.857,1
184,,,,,0.714,,,25.714,,59.286,,,,,,,,14.286,,,,L 59.286,7
185,0.709,99.291,,,,,,,,,,,,,,,,,,,,C 99.291,9
186,2.817,,0.704,,,96.479,,,,,,,,,,,,,,,,G 96.479,9
187,4.225,,,1.408,,1.408,,,2.817,1.408,,77.465,0.704,,,5.634,2.817,2.113,,,,N 77.465,6
188,,,60.563,0.704,,,,,,,,38.028,,0.704,,,,,,,,D 60.563,8
189,0.704,,1.408,,,37.324,0.704,,,,,57.746,,0.704,,0.704,0.704,,,,,N 57.746,8
190,1.418,,,,0.709,,,45.390,0.709,1.418,,3.546,,0.709,2.128,,,43.972,,,,I 45.390,3
191,0.709,,,,,,,6.383,,,,,0.709,0.709,,,84.397,7.092,,,,T 84.397,8
192,,,,,,,0.719,,,0.719,,,,,,0.719,0.719,,,97.122,,Y 97.122,8
193,20.714,,0.714,2.857,,0.714,0.714,10.714,5.000,3.571,5.000,0.714,30.000,5.714,1.429,7.857,2.143,2.143,,,,P 30.000,1
194,,,0.709,,,0.709,,,,0.709,,0.709,,,0.709,94.326,2.128,,,,,S 94.326,9
195,56.738,,0.709,0.709,1.418,,,0.709,,2.837,1.418,,1.418,,1.418,25.532,3.546,2.837,,0.709,,A 56.738,4
196,,97.872,,,,,,,,0.709,,,1.418,,,,,,,,,C 97.872,9
197,2.128,,,1.418,,,90.780,,,1.418,,0.709,,1.418,,0.709,1.418,,,,,H 90.780,7
198,,,,,,,,1.418,,94.326,2.128,,,,,1.418,,0.709,,,,L 94.326,8
199,,,,,0.714,,0.714,0.714,1.429,,1.429,,,0.714,93.571,,,,0.714,,,R 93.571,8
200,1.429,,0.714,5.000,,,,,10.000,3.571,0.714,,,26.429,50.714,0.714,,,,0.714,,R 50.714,4
201,91.489,,,0.709,,,,,0.709,,1.418,,,,,2.128,2.128,1.418,,,,A 91.489,8
202,13.475,,,,,,,0.709,,0.709,,,,,,2.128,82.979,,,,,T 82.979,8
203,,97.872,0.709,,,0.709,,,,,,,,,,,,,,0.709,,C 97.872,9
204,1.429,,,0.714,51.429,,3.571,4.286,3.571,22.857,,,0.714,1.429,5.714,1.429,,1.429,,1.429,,F 51.429,2
205,3.571,,,,2.857,,1.429,,7.857,70.714,2.143,1.429,,2.143,4.286,2.143,0.714,,0.714,,,L 70.714,3
206,0.714,,,,,99.286,,,,,,,,,,,,,,,,G 99.286,9
207,0.714,,,,,0.714,2.143,,14.286,,0.714,0.714,,0.714,77.857,0.714,1.429,,,,,R 77.857,5
208,11.511,,0.719,,,0.719,,,,0.719,,,0.719,,,82.734,2.158,0.719,,,,S 82.734,8
209,,,,,,,,95.652,,2.899,,,,,,,,1.449,,,,I 95.652,9
210,,,,0.725,,84.058,,,1.449,,,,11.594,0.725,1.449,,,,,,,G 84.058,8
211,0.725,,,1.449,0.725,,0.725,4.348,,7.971,0.725,,,0.725,,0.725,,81.884,,,,V 81.884,7
212,40.580,,,,,0.725,0.725,0.725,1.449,0.725,,,,,54.348,0.725,,,,,,R 54.348,8
213,,,,,,,56.522,,,,,,,,,,0.725,,0.725,42.029,,H 56.522,8
214,4.348,,1.449,20.290,0.725,,2.899,,12.319,,,,15.217,3.623,4.348,4.348,1.449,,,28.986,,Y 28.986,1
215,0.725,,,,,97.826,,,,,,,,,,1.449,,,,,,G 97.826,9
216,1.449,,,,0.725,0.725,19.565,2.174,23.913,1.449,,5.072,3.623,0.725,5.797,33.333,,0.725,,,0.72463768115942,S 33.333,3
217,0.725,97.826,,,,,,,,0.725,,,,,,,,,,,0.72463768115942,C 97.826,9
218,17.600,,,,,0.800,,25.600,4.000,2.400,,12.800,,1.600,9.600,10.400,12.800,1.600,,0.800,,I 25.600,1
219,12.791,,3.488,3.488,,38.372,,,1.163,1.163,,12.791,,1.163,2.326,18.605,,2.326,,2.326,,G 38.372,1
220,19.481,,,,,2.597,,5.195,3.896,5.195,,1.299,28.571,,,10.390,16.883,6.494,,,,P 28.571,1
221,8.219,,,2.740,,1.370,,,,,,2.740,73.973,,2.740,5.479,1.370,1.370,,,,P 73.973,2
222,1.408,,,28.169,,4.225,,,19.718,,,1.408,1.408,7.042,30.986,1.408,2.817,,1.408,,,R 30.986,1
223,1.471,,1.471,11.765,11.765,4.412,2.941,,20.588,4.412,,5.882,13.235,2.941,5.882,1.471,,7.353,,4.412,,K 20.588,1
224,6.349,,,4.762,,,,1.587,,9.524,,,30.159,,,41.270,4.762,1.587,,,,S 41.270,1
225,11.765,,1.961,,,1.961,17.647,,1.961,15.686,1.961,,27.451,7.843,1.961,9.804,,,,,,P 27.451,1
226,1.754,,42.105,26.316,,3.509,,,8.772,5.263,,3.509,,,1.754,1.754,,5.263,,,,D 42.105,1
227,29.091,,1.818,1.818,20.000,5.455,,,,5.455,3.636,,3.636,3.636,,1.818,16.364,3.636,,3.636,,A 29.091,1
228,1.786,,19.643,57.143,,5.357,1.786,,1.786,,,1.786,,5.357,3.571,,1.786,,,,,E 57.143,1
229,1.786,,10.714,1.786,,28.571,,,,,,5.357,,,1.786,48.214,1.786,,,,,S 48.214,5
230,14.286,,14.286,66.667,,,,,,,,,,,,4.762,,,,,,E 66.667,4
231,,,,77.273,,,4.545,,,,,4.545,,,,13.636,,,,,,E 77.273,3*
232,13.793,,,51.724,,,,,,,,,,,,32.759,,1.724,,,,E 51.724,7
233,1.754,,,96.491,,,,,1.754,,,,,,,,,,,,,E 96.491,8
234,,,1.724,93.103,,,,,1.724,,,1.724,,1.724,,,,,,,,E 93.103,7
235,,,,2.439,,,,,,,,97.561,,,,,,,,,,N 97.561,9
236,,,,,90.000,,,,,,,,,,,,,,,10.000,,F 90.000,8
237,,,,,,,,3.571,,3.571,,,,,,,,92.857,,,,V 92.857,8
