c<I>r<10>a<1994>R<GLU>A<O> 1
c<I>r<10>a<1995>R<GLU>A<CB> 1
c<I>r<10>a<1996>R<GLU>A<CG> 1
c<I>r<11>a<2008>R<TYR>A<CE1> 1
c<I>r<11>a<2009>R<TYR>A<CE2> 2
c<I>r<11>a<2010>R<TYR>A<CZ> 2
c<I>r<11>a<2011>R<TYR>A<OH> 1
c<I>r<13>a<2020>R<LYS>A<CA> 2
c<I>r<13>a<2021>R<LYS>A<C> 3
c<I>r<13>a<2022>R<LYS>A<O> 2
c<I>r<13>a<2023>R<LYS>A<CB> 2
c<I>r<13>a<2024>R<LYS>A<CG> 2
c<I>r<13>a<2025>R<LYS>A<CD> 1
c<I>r<13>a<2026>R<LYS>A<CE> 1
c<I>r<13>a<2027>R<LYS>A<NZ> 1
c<I>r<14>a<2028>R<PRO>A<N> 2
c<I>r<14>a<2030>R<PRO>A<C> 2
c<I>r<14>a<2031>R<PRO>A<O> 1
c<I>r<14>a<2032>R<PRO>A<CB> 1
c<I>r<14>a<2033>R<PRO>A<CG> 1
c<I>r<14>a<2034>R<PRO>A<CD> 1
c<I>r<15>a<2035>R<ALA>A<N> 2
c<I>r<15>a<2036>R<ALA>A<CA> 2
c<I>r<15>a<2037>R<ALA>A<C> 2
c<I>r<15>a<2038>R<ALA>A<O> 2
c<I>r<15>a<2039>R<ALA>A<CB> 1
c<I>r<16>a<2040>R<CYS>A<N> 2
c<I>r<16>a<2041>R<CYS>A<CA> 2
c<I>r<16>a<2042>R<CYS>A<C> 2
c<I>r<16>a<2043>R<CYS>A<O> 1
c<I>r<16>a<2044>R<CYS>A<CB> 1
c<I>r<16>a<2045>R<CYS>A<SG> 1
c<I>r<17>a<2046>R<THR>A<N> 2
c<I>r<17>a<2047>R<THR>A<CA> 2
c<I>r<17>a<2048>R<THR>A<C> 2
c<I>r<17>a<2049>R<THR>A<O> 1
c<I>r<17>a<2050>R<THR>A<CB> 2
c<I>r<17>a<2051>R<THR>A<OG1> 1
c<I>r<17>a<2052>R<THR>A<CG2> 2
c<I>r<18>a<2053>R<LEU>A<N> 2
c<I>r<18>a<2054>R<LEU>A<CA> 2
c<I>r<18>a<2055>R<LEU>A<C> 2
c<I>r<18>a<2056>R<LEU>A<O> 3
c<I>r<18>a<2057>R<LEU>A<CB> 2
c<I>r<18>a<2058>R<LEU>A<CG> 2
c<I>r<18>a<2059>R<LEU>A<CD1> 1
c<I>r<18>a<2060>R<LEU>A<CD2> 1
c<I>r<19>a<2061>R<GLU>A<N> 2
c<I>r<19>a<2062>R<GLU>A<CA> 2
c<I>r<19>a<2063>R<GLU>A<C> 2
c<I>r<19>a<2064>R<GLU>A<O> 1
c<I>r<19>a<2065>R<GLU>A<CB> 2
c<I>r<19>a<2066>R<GLU>A<CG> 2
c<I>r<19>a<2067>R<GLU>A<CD> 2
c<I>r<19>a<2068>R<GLU>A<OE1> 1
c<I>r<19>a<2069>R<GLU>A<OE2> 1
c<I>r<20>a<2070>R<TYR>A<N> 2
c<I>r<20>a<2071>R<TYR>A<CA> 2
c<I>r<20>a<2073>R<TYR>A<O> 1
c<I>r<20>a<2074>R<TYR>A<CB> 2
c<I>r<20>a<2075>R<TYR>A<CG> 2
c<I>r<20>a<2076>R<TYR>A<CD1> 1
c<I>r<20>a<2077>R<TYR>A<CD2> 2
c<I>r<20>a<2078>R<TYR>A<CE1> 1
c<I>r<20>a<2079>R<TYR>A<CE2> 1
c<I>r<20>a<2080>R<TYR>A<CZ> 2
c<I>r<20>a<2081>R<TYR>A<OH> 1
c<I>r<21>a<2089>R<ARG>A<NE> 1
c<I>r<21>a<2090>R<ARG>A<CZ> 1
c<I>r<21>a<2091>R<ARG>A<NH1> 1
c<I>r<21>a<2092>R<ARG>A<NH2> 1
c<I>r<32>a<2178>R<GLY>A<CA> 1
c<I>r<32>a<2180>R<GLY>A<O> 2
c<I>r<34>a<2193>R<LYS>A<CB> 1
c<I>r<35>a<2202>R<CYS>A<N> 1
c<I>r<35>a<2206>R<CYS>A<CB> 1
c<I>r<35>a<2207>R<CYS>A<SG> 2
c<I>r<36>a<2215>R<ASN>A<ND2> 1
c<I>r<55>a<2356>R<LYS>A<NZ> 1
