c<B>r<0>R<MET> 1.28571
c<B>r<1>R<ILE> 1.66667
c<B>r<3>R<ARG> 1
c<B>r<6>R<LYS> 1.4
c<B>r<7>R<ILE> 1.66667
c<B>r<8>R<GLN> 1.16667
c<B>r<9>R<VAL> 1.5
c<B>r<10>R<TYR> 2.125
c<B>r<11>R<SER> 1
c<B>r<12>R<ARG> 1.55556
c<B>r<13>R<HIS> 1
c<B>r<14>R<PRO> 1
c<B>r<24>R<ASN> 1.5
c<B>r<26>R<TYR> 1.77778
c<B>r<28>R<SER> 1
c<B>r<31>R<HIS> 1.4
c<B>r<32>R<PRO> 1.5
c<B>r<33>R<SER> 1.66667
c<B>r<34>R<ASP> 1
c<B>r<51>R<HIS> 1
c<B>r<52>R<SER> 1
c<B>r<53>R<ASP> 1
c<B>r<54>R<LEU> 1.33333
c<B>r<55>R<SER> 2
c<B>r<56>R<PHE> 1.55556
c<B>r<57>R<SER> 1
c<B>r<58>R<LYS> 1
c<B>r<59>R<ASP> 1
c<B>r<60>R<TRP> 1.58333
c<B>r<62>R<PHE> 2
c<B>r<63>R<TYR> 1
c<B>r<65>R<LEU> 1.5
c<B>r<66>R<TYR> 1
c<B>r<67>R<TYR> 1
c<B>r<96>R<ASP> 1
c<B>r<97>R<ARG> 1
c<B>r<98>R<ASP> 1.33333
c<B>r<99>R<MET> 1.44444
