V1;V2;Weight
1C4Z A V 634;1C4Z A L 635;24.3891
1C4Z A V 634;1C4Z A Q 637;13.3396
1C4Z A V 634;1C4Z A S 638;9.93588
1C4Z A V 634;1C4Z D F 63;7.51891
1C4Z A V 634;1C4Z D K 64;21.8063
1C4Z A V 634;1C4Z D P 65;12.16
1C4Z A V 634;1C4Z D A 92;15.3242
1C4Z A V 634;1C4Z D W 95;8.09181
1C4Z A L 635;1C4Z A Q 637;0.450811
1C4Z A L 635;1C4Z A S 638;7.89191
1C4Z A L 635;1C4Z A L 639;21.3515
1C4Z A L 635;1C4Z A Q 661;1.17771
1C4Z A L 635;1C4Z A Y 694;20.7141
1C4Z A L 635;1C4Z D E 60;5.96989
1C4Z A L 635;1C4Z D F 63;16.8607
1C4Z A L 635;1C4Z D K 64;18.7634
1C4Z A Q 637;1C4Z A S 638;20.5004
1C4Z A Q 637;1C4Z A L 639;0.362562
1C4Z A Q 637;1C4Z A D 641;22.2816
1C4Z A Q 637;1C4Z D W 95;5.20599
1C4Z A Q 637;1C4Z D K 96;13.6714
1C4Z A Q 637;1C4Z D P 97;0.0064478
1C4Z A S 638;1C4Z A L 639;18.1001
1C4Z A S 638;1C4Z A D 641;6.11347
1C4Z A S 638;1C4Z A L 642;8.15498
1C4Z A S 638;1C4Z D P 62;0.714572
1C4Z A S 638;1C4Z D F 63;26.2759
1C4Z A S 638;1C4Z D W 95;8.47278
1C4Z A S 638;1C4Z D P 97;21.6362
1C4Z A L 639;1C4Z A D 641;0.410927
1C4Z A L 639;1C4Z A L 642;17.5126
1C4Z A L 639;1C4Z A F 690;7.78932
1C4Z A L 639;1C4Z A Y 694;19.1486
1C4Z A L 639;1C4Z D F 63;13.2354
1C4Z A D 641;1C4Z A L 642;17.1549
1C4Z A D 641;1C4Z A Y 645;15.5963
1C4Z A D 641;1C4Z A M 653;0.906807
1C4Z A D 641;1C4Z D W 95;0.843996
1C4Z A D 641;1C4Z D K 96;23.9179
1C4Z A D 641;1C4Z D P 97;20.3543
1C4Z A L 642;1C4Z A Y 645;8.16563
1C4Z A L 642;1C4Z A M 653;14.356
1C4Z A L 642;1C4Z A I 655;12.2412
1C4Z A L 642;1C4Z A F 690;11.2949
1C4Z A L 642;1C4Z D F 63;8.08114
1C4Z A L 642;1C4Z D P 97;5.61176
1C4Z A Y 645;1C4Z A D 652;21.4899
1C4Z A Y 645;1C4Z A M 653;15.6074
1C4Z A Y 645;1C4Z D P 97;0.234252
1C4Z A Y 645;1C4Z D A 98;18.9406
1C4Z A Y 645;1C4Z D K 100;5.2841
1C4Z A D 651;1C4Z A D 652;28.568
1C4Z A D 651;1C4Z A M 653;1.11851
1C4Z A D 651;1C4Z A M 654;5.08426
1C4Z A D 651;1C4Z D K 9;15.3118
1C4Z A D 651;1C4Z D K 100;0.193364
1C4Z A D 652;1C4Z A M 653;26.5297
1C4Z A D 652;1C4Z D R 6;3.05866
1C4Z A D 652;1C4Z D K 9;6.79797
1C4Z A D 652;1C4Z D A 98;7.41964
1C4Z A D 652;1C4Z D K 100;26.0505
1C4Z A M 653;1C4Z A M 654;21.1503
1C4Z A M 653;1C4Z A I 655;24.7932
1C4Z A M 653;1C4Z D R 6;19.2264
1C4Z A M 653;1C4Z D K 9;7.45465
1C4Z A M 653;1C4Z D P 62;2.24785
1C4Z A M 653;1C4Z D F 63;0.44576
1C4Z A M 653;1C4Z D P 97;22.4879
1C4Z A M 653;1C4Z D A 98;16.631
1C4Z A M 654;1C4Z A I 655;26.432
1C4Z A M 654;1C4Z A T 656;2.79036
1C4Z A M 654;1C4Z A P 681;20.0132
1C4Z A M 654;1C4Z D R 5;36.971
1C4Z A M 654;1C4Z D R 6;9.76041
1C4Z A M 654;1C4Z D K 9;22.0247
1C4Z A I 655;1C4Z A T 656;27.3087
1C4Z A I 655;1C4Z A P 681;3.54122
1C4Z A I 655;1C4Z A F 690;4.79257
1C4Z A I 655;1C4Z D R 5;8.08697
1C4Z A I 655;1C4Z D R 6;3.90464
1C4Z A I 655;1C4Z D P 62;18.7704
1C4Z A I 655;1C4Z D F 63;21.8442
1C4Z A T 656;1C4Z A Q 658;28.1738
1C4Z A T 656;1C4Z A I 659;1.3529
1C4Z A T 656;1C4Z A D 678;14.5356
1C4Z A T 656;1C4Z A K 679;5.26977
1C4Z A T 656;1C4Z A P 681;7.20038
1C4Z A T 656;1C4Z A F 690;6.53867
1C4Z A T 656;1C4Z D R 5;28.2495
1C4Z A Q 658;1C4Z A I 659;31.6065
1C4Z A Q 658;1C4Z A M 670;29.2572
1C4Z A Q 658;1C4Z A D 678;26.6883
1C4Z A Q 658;1C4Z D S 4;3.73846
1C4Z A Q 658;1C4Z D R 5;0.329546
1C4Z A I 659;1C4Z A S 660;31.3967
1C4Z A I 659;1C4Z A Q 661;7.05766
1C4Z A I 659;1C4Z A M 670;8.16338
1C4Z A I 659;1C4Z A F 690;8.79885
1C4Z A I 659;1C4Z A Y 694;27.0299
1C4Z A I 659;1C4Z D S 4;0.206105
1C4Z A I 659;1C4Z D F 63;5.60852
1C4Z A S 660;1C4Z A Q 661;28.7921
1C4Z A S 660;1C4Z A P 668;4.80243
1C4Z A S 660;1C4Z A M 670;13.2611
1C4Z A S 660;1C4Z A Y 694;1.51743
1C4Z A S 660;1C4Z D S 4;6.26706
1C4Z A S 660;1C4Z D A 59;24.7058
1C4Z A S 660;1C4Z D E 60;12.6895
1C4Z A Q 661;1C4Z A T 662;29.1025
1C4Z A Q 661;1C4Z A P 668;1.10165
1C4Z A Q 661;1C4Z A Y 694;7.26503
1C4Z A Q 661;1C4Z D A 59;1.7212
1C4Z A Q 661;1C4Z D E 60;11.1266
1C4Z A T 662;1C4Z A G 666;12.3436
1C4Z A T 662;1C4Z A P 668;15.2353
1C4Z A T 662;1C4Z D L 33;1.82307
1C4Z A T 662;1C4Z D P 58;3.26693
1C4Z A T 662;1C4Z D A 59;18.2659
1C4Z A T 662;1C4Z D E 60;16.0018
1C4Z A G 666;1C4Z A P 668;11.4642
1C4Z A G 666;1C4Z D N 31;0.151251
1C4Z A G 666;1C4Z D L 33;4.08529
1C4Z A P 668;1C4Z A M 670;17.2138
1C4Z A P 668;1C4Z D S 4;0.497363
1C4Z A P 668;1C4Z D N 31;12.7685
1C4Z A P 668;1C4Z D L 33;21.7029
1C4Z A P 668;1C4Z D A 59;10.4327
1C4Z A M 670;1C4Z D S 4;25.1819
1C4Z A M 670;1C4Z D L 33;0.00143465
1C4Z A D 678;1C4Z A K 679;27.0993
1C4Z A D 678;1C4Z D R 5;10.7734
1C4Z A K 679;1C4Z A P 681;22.971
1C4Z A K 679;1C4Z D R 5;2.26022
1C4Z A P 681;1C4Z D R 5;1.40202
1C4Z A F 690;1C4Z A Y 694;21.6888
1C4Z A F 690;1C4Z D F 63;13.8053
1C4Z A Y 694;1C4Z D E 60;10.8573
1C4Z A Y 694;1C4Z D F 63;18.6823
1C4Z D S 4;1C4Z D R 5;36.8802
1C4Z D S 4;1C4Z D R 6;2.75265
1C4Z D S 4;1C4Z D L 33;16.7902
1C4Z D S 4;1C4Z D A 59;10.3056
1C4Z D R 5;1C4Z D R 6;25.7179
1C4Z D R 6;1C4Z D K 9;23.7351
1C4Z D R 6;1C4Z D P 62;24.0691
1C4Z D R 6;1C4Z D W 95;2.16768
1C4Z D R 6;1C4Z D P 97;11.2083
1C4Z D R 6;1C4Z D A 98;7.01366
1C4Z D R 6;1C4Z D K 100;10.8375
1C4Z D K 9;1C4Z D K 100;4.74562
1C4Z D N 31;1C4Z D L 33;20.9214
1C4Z D L 33;1C4Z D P 58;2.11016
1C4Z D L 33;1C4Z D A 59;15.0227
1C4Z D P 58;1C4Z D A 59;21.6153
1C4Z D P 58;1C4Z D E 60;18.1815
1C4Z D P 58;1C4Z D K 64;20.6612
1C4Z D P 58;1C4Z D P 65;11.8362
1C4Z D A 59;1C4Z D E 60;21.3826
1C4Z D E 60;1C4Z D F 63;15.705
1C4Z D E 60;1C4Z D K 64;39.5431
1C4Z D P 62;1C4Z D F 63;31.9371
1C4Z D P 62;1C4Z D K 64;5.54391
1C4Z D P 62;1C4Z D W 95;14.0933
1C4Z D P 62;1C4Z D P 97;15.8903
1C4Z D F 63;1C4Z D K 64;20.6005
1C4Z D F 63;1C4Z D W 95;4.83252
1C4Z D F 63;1C4Z D P 97;9.79122
1C4Z D K 64;1C4Z D P 65;28.5339
1C4Z D K 64;1C4Z D W 95;8.5087
1C4Z D P 65;1C4Z D A 92;10.6077
1C4Z D P 65;1C4Z D W 95;24.263
1C4Z D A 92;1C4Z D W 95;11.0035
1C4Z D W 95;1C4Z D K 96;43.4679
1C4Z D W 95;1C4Z D P 97;10.6557
1C4Z D K 96;1C4Z D P 97;25.1132
1C4Z D K 96;1C4Z D A 98;7.31169
1C4Z D P 97;1C4Z D A 98;19.49
1C4Z D A 98;1C4Z D K 100;21.0783
