V1;V2;Weight
1GCQ A F 165;1GCQ A D 166;27.3009
1GCQ A F 165;1GCQ A N 208;6.73705
1GCQ A F 165;1GCQ A Y 209;28.8101
1GCQ A F 165;1GCQ C I 606;21.3211
1GCQ A F 165;1GCQ C P 607;25.0987
1GCQ A F 165;1GCQ C P 608;12.3537
1GCQ A D 166;1GCQ A F 167;22.8776
1GCQ A D 166;1GCQ A D 168;1.46022
1GCQ A D 166;1GCQ A Y 209;10.9067
1GCQ A D 166;1GCQ C P 607;0.575242
1GCQ A F 167;1GCQ A D 168;36.9851
1GCQ A F 167;1GCQ A Q 170;7.75601
1GCQ A F 167;1GCQ A W 193;11.191
1GCQ A F 167;1GCQ A P 206;16.7766
1GCQ A F 167;1GCQ A Y 209;12.6324
1GCQ A F 167;1GCQ C P 610;18.2607
1GCQ A F 167;1GCQ C W 636;0.510585
1GCQ A D 168;1GCQ A Q 170;15.1395
1GCQ A D 168;1GCQ C N 635;28.8193
1GCQ A Q 170;1GCQ A E 171;37.314
1GCQ A Q 170;1GCQ C P 610;2.69007
1GCQ A Q 170;1GCQ C E 633;8.45418
1GCQ A Q 170;1GCQ C H 634;36.1784
1GCQ A Q 170;1GCQ C N 635;17.5664
1GCQ A Q 170;1GCQ C W 636;16.4382
1GCQ A E 171;1GCQ C H 634;14.6587
1GCQ A N 192;1GCQ A W 193;29.6812
1GCQ A N 192;1GCQ A P 206;3.93129
1GCQ A N 192;1GCQ A R 207;15.6245
1GCQ A N 192;1GCQ A N 208;1.0047
1GCQ A N 192;1GCQ C G 611;26.3589
1GCQ A N 192;1GCQ C A 612;10.8999
1GCQ A W 193;1GCQ A P 206;15.8759
1GCQ A W 193;1GCQ A R 207;0.36526
1GCQ A W 193;1GCQ C P 610;17.4807
1GCQ A W 193;1GCQ C G 611;12.5422
1GCQ A W 193;1GCQ C F 613;9.43876
1GCQ A P 206;1GCQ A R 207;15.6084
1GCQ A P 206;1GCQ A N 208;7.46108
1GCQ A P 206;1GCQ A Y 209;21.6482
1GCQ A P 206;1GCQ C P 610;8.57915
1GCQ A P 206;1GCQ C G 611;8.15555
1GCQ A R 207;1GCQ A N 208;26.0677
1GCQ A R 207;1GCQ A Y 209;2.69632
1GCQ A R 207;1GCQ C G 611;0.29938
1GCQ A N 208;1GCQ A Y 209;25.1181
1GCQ A N 208;1GCQ C P 608;24.4946
1GCQ A N 208;1GCQ C P 609;6.09833
1GCQ A N 208;1GCQ C P 610;1.2183
1GCQ A N 208;1GCQ C G 611;12.9371
1GCQ A N 208;1GCQ C A 612;12.7773
1GCQ A Y 209;1GCQ C P 607;12.3767
1GCQ A Y 209;1GCQ C P 608;16.9652
1GCQ A Y 209;1GCQ C P 609;0.962253
1GCQ A Y 209;1GCQ C P 610;17.0293
1GCQ A Y 209;1GCQ C W 636;10.2197
1GCQ B Q 162;1GCQ B A 163;21.8022
1GCQ B Q 162;1GCQ B L 164;8.28711
1GCQ B Q 162;1GCQ B G 180;14.5281
1GCQ B Q 162;1GCQ B V 210;7.75558
1GCQ B Q 162;1GCQ B T 211;26.2599
1GCQ B Q 162;1GCQ B P 212;0.000295171
1GCQ B Q 162;1GCQ C A 630;0.132256
1GCQ B Q 162;1GCQ C E 631;7.19775
1GCQ B Q 162;1GCQ C A 632;14.1885
1GCQ B Q 162;1GCQ C E 633;19.6609
1GCQ B A 163;1GCQ B L 164;16.8697
1GCQ B A 163;1GCQ B F 165;6.91772
1GCQ B A 163;1GCQ B R 179;5.89421
1GCQ B A 163;1GCQ B G 180;8.20305
1GCQ B A 163;1GCQ B Y 209;2.87786
1GCQ B A 163;1GCQ B V 210;7.04533
1GCQ B A 163;1GCQ C A 632;5.56867
1GCQ B L 164;1GCQ B F 165;30.822
1GCQ B L 164;1GCQ B R 179;17.1807
1GCQ B L 164;1GCQ B N 208;0.41956
1GCQ B L 164;1GCQ B Y 209;12.3111
1GCQ B L 164;1GCQ B V 210;5.42968
1GCQ B L 164;1GCQ B T 211;18.0085
1GCQ B L 164;1GCQ C P 595;5.39133
1GCQ B L 164;1GCQ C M 597;6.80747
1GCQ B L 164;1GCQ C L 627;8.12618
1GCQ B L 164;1GCQ C A 630;10.058
1GCQ B L 164;1GCQ C E 631;5.38852
1GCQ B L 164;1GCQ C A 632;13.2703
1GCQ B L 164;1GCQ C W 637;20.9157
1GCQ B F 165;1GCQ B R 179;25.1314
1GCQ B F 165;1GCQ B N 208;0.420426
1GCQ B F 165;1GCQ B Y 209;22.0592
1GCQ B F 165;1GCQ C M 597;11.6505
1GCQ B F 165;1GCQ C W 637;12.3416
1GCQ B F 165;1GCQ C C 652;5.47022
1GCQ B F 165;1GCQ C V 655;13.218
1GCQ B F 165;1GCQ C H 656;10.5156
1GCQ B F 165;1GCQ C P 657;20.9999
1GCQ B R 179;1GCQ B G 180;22.3595
1GCQ B R 179;1GCQ C E 631;0.454603
1GCQ B R 179;1GCQ C A 632;28.4622
1GCQ B R 179;1GCQ C H 634;6.06191
1GCQ B R 179;1GCQ C N 635;1.84005
1GCQ B R 179;1GCQ C W 637;12.5189
1GCQ B R 179;1GCQ C C 652;17.4023
1GCQ B G 180;1GCQ C A 632;11.0665
1GCQ B G 180;1GCQ C E 633;2.84367
1GCQ B W 193;1GCQ B W 194;24.0284
1GCQ B W 193;1GCQ B P 206;26.5638
1GCQ B W 193;1GCQ B R 207;0.923079
1GCQ B W 193;1GCQ C V 659;0.0398688
1GCQ B W 194;1GCQ B R 207;47.3152
1GCQ B W 194;1GCQ B V 210;9.422
1GCQ B W 194;1GCQ C H 593;3.49588
1GCQ B P 206;1GCQ B R 207;17.0185
1GCQ B P 206;1GCQ B N 208;7.07509
1GCQ B P 206;1GCQ B Y 209;30.0019
1GCQ B P 206;1GCQ B V 210;0.688731
1GCQ B P 206;1GCQ C Y 658;0.676917
1GCQ B P 206;1GCQ C V 659;15.9325
1GCQ B R 207;1GCQ B N 208;33.2853
1GCQ B R 207;1GCQ B Y 209;2.75811
1GCQ B R 207;1GCQ B V 210;22.0602
1GCQ B R 207;1GCQ B T 211;0.687966
1GCQ B R 207;1GCQ B P 212;6.60298
1GCQ B R 207;1GCQ C H 593;14.4618
1GCQ B R 207;1GCQ C M 594;13.2466
1GCQ B R 207;1GCQ C P 595;13.9691
1GCQ B N 208;1GCQ B Y 209;18.9079
1GCQ B N 208;1GCQ B V 210;2.54602
1GCQ B N 208;1GCQ C M 594;1.11565
1GCQ B N 208;1GCQ C P 595;14.2477
1GCQ B N 208;1GCQ C K 596;24.2301
1GCQ B N 208;1GCQ C M 597;10.0761
1GCQ B N 208;1GCQ C P 657;13.6195
1GCQ B N 208;1GCQ C Y 658;27.9861
1GCQ B N 208;1GCQ C V 659;0.430358
1GCQ B Y 209;1GCQ B V 210;23.4873
1GCQ B Y 209;1GCQ C P 657;27.378
1GCQ B Y 209;1GCQ C V 659;13.5448
1GCQ B V 210;1GCQ B T 211;19.1898
1GCQ B V 210;1GCQ C P 595;10.0921
1GCQ B T 211;1GCQ B P 212;36.4303
1GCQ B T 211;1GCQ C M 594;9.25793
1GCQ B T 211;1GCQ C P 595;11.147
1GCQ B T 211;1GCQ C L 627;0.35186
1GCQ B T 211;1GCQ C A 630;20.4344
1GCQ B T 211;1GCQ C E 631;0.816441
1GCQ B P 212;1GCQ B R 215;27.7637
1GCQ B P 212;1GCQ C H 593;8.61977
1GCQ B P 212;1GCQ C M 594;13.7464
1GCQ B P 212;1GCQ C P 595;4.2079
1GCQ B P 212;1GCQ C A 630;0.491282
1GCQ B R 215;1GCQ C S 592;21.2623
1GCQ B R 215;1GCQ C H 593;9.64938
1GCQ B R 215;1GCQ C M 594;24.6213
1GCQ B R 215;1GCQ C T 628;15.3727
1GCQ B R 215;1GCQ C E 631;1.10868
1GCQ C S 592;1GCQ C H 593;31.65
1GCQ C S 592;1GCQ C M 594;23.6928
1GCQ C S 592;1GCQ C L 627;0.0563698
1GCQ C S 592;1GCQ C T 628;1.26117
1GCQ C H 593;1GCQ C M 594;20.8884
1GCQ C M 594;1GCQ C P 595;30.8346
1GCQ C M 594;1GCQ C K 596;9.46548
1GCQ C M 594;1GCQ C L 627;24.2742
1GCQ C M 594;1GCQ C T 628;12.4053
1GCQ C M 594;1GCQ C A 630;4.74834
1GCQ C P 595;1GCQ C K 596;19.7167
1GCQ C P 595;1GCQ C M 597;7.45497
1GCQ C P 595;1GCQ C L 627;24.8634
1GCQ C K 596;1GCQ C M 597;22.1604
1GCQ C K 596;1GCQ C L 627;0.115249
1GCQ C K 596;1GCQ C P 657;1.52612
1GCQ C K 596;1GCQ C Y 658;26.8997
1GCQ C M 597;1GCQ C L 627;19.7962
1GCQ C M 597;1GCQ C W 637;6.57892
1GCQ C M 597;1GCQ C V 655;19.2987
1GCQ C M 597;1GCQ C H 656;9.18741
1GCQ C M 597;1GCQ C P 657;9.55567
1GCQ C M 597;1GCQ C Y 658;6.62713
1GCQ C I 606;1GCQ C P 607;26.9527
1GCQ C I 606;1GCQ C P 608;9.36188
1GCQ C P 607;1GCQ C P 608;20.9179
1GCQ C P 607;1GCQ C W 636;13.3201
1GCQ C P 608;1GCQ C P 609;28.8738
1GCQ C P 608;1GCQ C P 610;1.59787
1GCQ C P 608;1GCQ C A 612;0.208422
1GCQ C P 608;1GCQ C W 636;5.1346
1GCQ C P 609;1GCQ C P 610;18.3803
1GCQ C P 609;1GCQ C G 611;1.04366
1GCQ C P 609;1GCQ C A 612;13.4775
1GCQ C P 609;1GCQ C F 613;12.6949
1GCQ C P 609;1GCQ C W 636;14.917
1GCQ C P 610;1GCQ C G 611;14.6852
1GCQ C P 610;1GCQ C A 612;2.44012
1GCQ C P 610;1GCQ C F 613;25.6623
1GCQ C P 610;1GCQ C W 636;22.1589
1GCQ C G 611;1GCQ C A 612;22.0857
1GCQ C G 611;1GCQ C F 613;7.1901
1GCQ C A 612;1GCQ C F 613;21.0426
1GCQ C F 613;1GCQ C W 636;14.6539
1GCQ C L 627;1GCQ C T 628;22.0908
1GCQ C L 627;1GCQ C A 630;12.7179
1GCQ C L 627;1GCQ C W 637;15.9389
1GCQ C L 627;1GCQ C V 655;0.0283974
1GCQ C A 630;1GCQ C E 631;31.16
1GCQ C A 630;1GCQ C W 636;0.368519
1GCQ C A 630;1GCQ C W 637;17.0587
1GCQ C E 631;1GCQ C A 632;15.7601
1GCQ C E 631;1GCQ C E 633;21.2943
1GCQ C E 631;1GCQ C H 634;39.089
1GCQ C E 631;1GCQ C W 637;12.9594
1GCQ C A 632;1GCQ C E 633;29.2112
1GCQ C A 632;1GCQ C H 634;3.46119
1GCQ C A 632;1GCQ C W 637;2.00045
1GCQ C E 633;1GCQ C H 634;36.4166
1GCQ C E 633;1GCQ C N 635;4.74471
1GCQ C H 634;1GCQ C N 635;18.8493
1GCQ C H 634;1GCQ C W 636;11.9171
1GCQ C H 634;1GCQ C W 637;11.1102
1GCQ C H 634;1GCQ C C 652;4.07711
1GCQ C N 635;1GCQ C W 636;33.3833
1GCQ C N 635;1GCQ C W 637;1.42586
1GCQ C N 635;1GCQ C C 652;24.6551
1GCQ C W 636;1GCQ C W 637;25.5987
1GCQ C W 636;1GCQ C C 652;0.000625561
1GCQ C W 637;1GCQ C C 652;26.0896
1GCQ C W 637;1GCQ C V 655;7.96943
1GCQ C C 652;1GCQ C V 655;16.8923
1GCQ C V 655;1GCQ C H 656;19.0259
1GCQ C H 656;1GCQ C P 657;35.3395
1GCQ C H 656;1GCQ C Y 658;0.313513
1GCQ C P 657;1GCQ C Y 658;17.9402
1GCQ C P 657;1GCQ C V 659;19.3169
1GCQ C Y 658;1GCQ C V 659;43.8433
