V1;V2;Weight
1GUA A E 3;1GUA A R 41;19.0039
1GUA A E 3;1GUA A M 52;22.8082
1GUA A E 3;1GUA A E 54;19.0137
1GUA A E 3;1GUA B K 65;5.39787
1GUA A V 21;1GUA A V 24;11.0452
1GUA A V 21;1GUA A Q 25;11.7136
1GUA A V 21;1GUA A I 27;18.4949
1GUA A V 21;1GUA A V 29;18.2742
1GUA A V 21;1GUA A Y 40;16.2206
1GUA A V 21;1GUA B K 84;0.549431
1GUA A V 21;1GUA B V 88;19.9692
1GUA A V 24;1GUA A Q 25;35.2273
1GUA A V 24;1GUA A Y 40;21.8245
1GUA A V 24;1GUA A R 41;2.73605
1GUA A V 24;1GUA A K 42;37.4637
1GUA A V 24;1GUA B V 88;7.2282
1GUA A V 24;1GUA B R 89;1.28243
1GUA A Q 25;1GUA A I 27;24.4639
1GUA A Q 25;1GUA A K 42;6.87843
1GUA A Q 25;1GUA B K 87;8.12732
1GUA A Q 25;1GUA B V 88;16.8097
1GUA A Q 25;1GUA B R 89;10.5871
1GUA A Q 25;1GUA B G 90;16.3081
1GUA A I 27;1GUA A V 29;10.3078
1GUA A I 27;1GUA B K 87;13.4179
1GUA A I 27;1GUA B V 88;11.6764
1GUA A V 29;1GUA A E 31;29.5954
1GUA A V 29;1GUA A D 33;0.811841
1GUA A V 29;1GUA B K 84;18.3766
1GUA A V 29;1GUA B V 88;5.76347
1GUA A E 31;1GUA A D 33;16.3727
1GUA A E 31;1GUA B K 84;19.6967
1GUA A D 33;1GUA A P 34;37.0303
1GUA A D 33;1GUA B N 71;7.27976
1GUA A D 33;1GUA B R 73;9.99877
1GUA A D 33;1GUA B K 84;27.0859
1GUA A P 34;1GUA A I 36;8.95909
1GUA A P 34;1GUA B N 71;4.99929
1GUA A I 36;1GUA A E 37;32.3091
1GUA A I 36;1GUA A D 38;1.79533
1GUA A I 36;1GUA B T 57;13.6709
1GUA A I 36;1GUA B V 69;30.5404
1GUA A I 36;1GUA B V 70;3.10165
1GUA A I 36;1GUA B N 71;21.7855
1GUA A E 37;1GUA A D 38;29.6905
1GUA A E 37;1GUA A L 56;7.22619
1GUA A E 37;1GUA B R 59;23.914
1GUA A E 37;1GUA B R 67;24.7978
1GUA A E 37;1GUA B T 68;7.5438
1GUA A E 37;1GUA B V 69;28.5694
1GUA A D 38;1GUA A S 39;19.0317
1GUA A D 38;1GUA A Y 40;17.9236
1GUA A D 38;1GUA A L 56;9.52542
1GUA A D 38;1GUA B R 67;6.10504
1GUA A D 38;1GUA B T 68;15.3015
1GUA A D 38;1GUA B V 69;2.73161
1GUA A D 38;1GUA B A 85;0.841403
1GUA A D 38;1GUA B R 89;12.2938
1GUA A S 39;1GUA A Y 40;24.2385
1GUA A S 39;1GUA A R 41;1.34527
1GUA A S 39;1GUA A E 54;12.2308
1GUA A S 39;1GUA A L 56;16.6817
1GUA A S 39;1GUA B K 65;6.55494
1GUA A S 39;1GUA B Q 66;12.2224
1GUA A S 39;1GUA B R 67;28.3777
1GUA A S 39;1GUA B R 89;11.6483
1GUA A Y 40;1GUA A R 41;25.8073
1GUA A Y 40;1GUA A E 54;5.22759
1GUA A Y 40;1GUA B Q 66;10.0653
1GUA A Y 40;1GUA B V 88;17.526
1GUA A Y 40;1GUA B R 89;26.4257
1GUA A R 41;1GUA A K 42;25.4989
1GUA A R 41;1GUA A M 52;24.0411
1GUA A R 41;1GUA A E 54;20.4107
1GUA A R 41;1GUA B N 64;40.4714
1GUA A R 41;1GUA B K 65;40.0403
1GUA A R 41;1GUA B Q 66;22.5586
1GUA A K 42;1GUA A Q 43;31.3236
1GUA A K 42;1GUA A M 52;10.7463
1GUA A K 42;1GUA B N 64;2.33363
1GUA A Q 43;1GUA A M 52;17.9214
1GUA A Q 43;1GUA B N 64;0.533166
1GUA A M 52;1GUA A E 54;0.418372
1GUA A M 52;1GUA B N 64;14.3331
1GUA A E 54;1GUA A L 56;6.30898
1GUA A E 54;1GUA B K 65;9.33442
1GUA A L 56;1GUA B R 67;3.05318
1GUA B T 57;1GUA B R 59;0.228969
1GUA B T 57;1GUA B V 69;16.2672
1GUA B T 57;1GUA B V 70;9.02641
1GUA B T 57;1GUA B N 71;10.7697
1GUA B R 59;1GUA B R 67;13.256
1GUA B R 59;1GUA B T 68;6.12701
1GUA B R 59;1GUA B V 69;24.2993
1GUA B N 64;1GUA B K 65;23.7514
1GUA B N 64;1GUA B Q 66;15.7308
1GUA B K 65;1GUA B Q 66;23.7251
1GUA B K 65;1GUA B R 67;0.407981
1GUA B Q 66;1GUA B R 67;22.603
1GUA B Q 66;1GUA B R 89;25.6862
1GUA B R 67;1GUA B T 68;21.8323
1GUA B R 67;1GUA B R 89;5.45911
1GUA B T 68;1GUA B V 69;26.6297
1GUA B T 68;1GUA B V 70;12.4171
1GUA B T 68;1GUA B A 85;14.3957
1GUA B T 68;1GUA B R 89;6.07264
1GUA B V 69;1GUA B V 70;25.0549
1GUA B V 70;1GUA B N 71;29.0564
1GUA B V 70;1GUA B A 85;8.93591
1GUA B N 71;1GUA B R 73;24.5955
1GUA B K 84;1GUA B A 85;23.3509
1GUA B K 84;1GUA B K 87;15.473
1GUA B K 84;1GUA B V 88;28.8417
1GUA B A 85;1GUA B K 87;0.494781
1GUA B A 85;1GUA B V 88;10.9875
1GUA B A 85;1GUA B R 89;22.5199
1GUA B K 87;1GUA B V 88;24.9239
1GUA B K 87;1GUA B R 89;1.97383
1GUA B K 87;1GUA B G 90;10.8552
1GUA B V 88;1GUA B R 89;26.3847
1GUA B V 88;1GUA B G 90;0.395091
1GUA B R 89;1GUA B G 90;20.4587
