V1;V2;Weight
1JTD A S 98;1JTD A Q 99;25.1335
1JTD A S 98;1JTD A N 100;15.0811
1JTD A S 98;1JTD A L 102;4.27923
1JTD A S 98;1JTD A L 113;8.71812
1JTD A S 98;1JTD B Y 208;11.6985
1JTD A Q 99;1JTD A N 100;17.8225
1JTD A Q 99;1JTD A L 102;15.3376
1JTD A Q 99;1JTD A L 113;25.747
1JTD A Q 99;1JTD B D 170;3.70431
1JTD A Q 99;1JTD B Y 191;0.793095
1JTD A Q 99;1JTD B D 206;18.1027
1JTD A Q 99;1JTD B Y 208;32.225
1JTD A Q 99;1JTD B F 209;9.82435
1JTD A Q 99;1JTD B F 230;19.9273
1JTD A Q 99;1JTD B R 247;2.18734
1JTD A N 100;1JTD A L 102;4.39938
1JTD A N 100;1JTD A V 103;0.0839563
1JTD A N 100;1JTD B Y 208;21.7976
1JTD A N 100;1JTD B F 209;13.2884
1JTD A N 100;1JTD B R 247;20.8044
1JTD A L 102;1JTD A V 103;25.4998
1JTD A L 102;1JTD A S 106;6.39797
1JTD A L 102;1JTD A E 110;15.0431
1JTD A L 102;1JTD A L 113;12.7447
1JTD A L 102;1JTD B Y 191;8.73357
1JTD A L 102;1JTD B I 229;8.39508
1JTD A L 102;1JTD B F 230;13.1899
1JTD A L 102;1JTD B R 247;6.93513
1JTD A L 102;1JTD B Y 248;2.24366
1JTD A L 102;1JTD B W 269;14.1335
1JTD A V 103;1JTD A E 104;28.6831
1JTD A V 103;1JTD A S 106;13.2826
1JTD A V 103;1JTD A P 167;14.6724
1JTD A V 103;1JTD B Y 248;18.8193
1JTD A V 103;1JTD B W 269;12.9137
1JTD A E 104;1JTD A Y 105;52.449
1JTD A E 104;1JTD A S 106;3.75024
1JTD A E 104;1JTD A P 167;24.6905
1JTD A E 104;1JTD B Y 248;0.490892
1JTD A E 104;1JTD B E 268;0.802969
1JTD A E 104;1JTD B W 269;29.2104
1JTD A E 104;1JTD B S 284;15.0441
1JTD A E 104;1JTD B R 286;6.69708
1JTD A E 104;1JTD B N 304;2.81425
1JTD A Y 105;1JTD A S 106;16.6369
1JTD A Y 105;1JTD A P 107;8.99925
1JTD A Y 105;1JTD A S 130;10.3337
1JTD A Y 105;1JTD A P 167;0.0729253
1JTD A Y 105;1JTD B G 49;15.3659
1JTD A Y 105;1JTD B N 50;29.766
1JTD A Y 105;1JTD B D 52;2.32689
1JTD A Y 105;1JTD B W 53;4.93645
1JTD A Y 105;1JTD B Y 73;10.2905
1JTD A Y 105;1JTD B E 268;3.35361
1JTD A Y 105;1JTD B W 269;0.180637
1JTD A Y 105;1JTD B R 286;14.8066
1JTD A Y 105;1JTD B N 304;23.7247
1JTD A S 106;1JTD A P 107;17.9809
1JTD A S 106;1JTD A V 108;1.22831
1JTD A S 106;1JTD A E 110;18.4822
1JTD A S 106;1JTD B Y 73;4.73123
1JTD A S 106;1JTD B E 268;2.16251
1JTD A P 107;1JTD A V 108;27.2677
1JTD A P 107;1JTD A E 110;12.6793
1JTD A P 107;1JTD A K 111;6.12221
1JTD A P 107;1JTD A M 129;16.4657
1JTD A P 107;1JTD A S 130;0.195577
1JTD A P 107;1JTD B W 53;10.4538
1JTD A P 107;1JTD B Y 73;22.1551
1JTD A P 107;1JTD B F 74;13.3916
1JTD A P 107;1JTD B N 112;8.26981
1JTD A P 107;1JTD B Y 113;7.09577
1JTD A P 107;1JTD B W 152;1.50942
1JTD A V 108;1JTD A E 110;2.01076
1JTD A V 108;1JTD A K 111;10.6711
1JTD A V 108;1JTD A M 129;21.0509
1JTD A V 108;1JTD B Y 113;7.80231
1JTD A E 110;1JTD A K 111;19.2974
1JTD A E 110;1JTD A L 113;7.2516
1JTD A E 110;1JTD B Y 73;7.43776
1JTD A E 110;1JTD B N 112;9.97007
1JTD A E 110;1JTD B A 151;2.60109
1JTD A E 110;1JTD B W 152;16.4458
1JTD A E 110;1JTD B V 190;9.23882
1JTD A E 110;1JTD B Y 191;18.5115
1JTD A E 110;1JTD B I 229;10.6103
1JTD A E 110;1JTD B E 268;17.2369
1JTD A K 111;1JTD A L 113;4.44207
1JTD A K 111;1JTD A T 114;0.621619
1JTD A K 111;1JTD B Y 113;18.7506
1JTD A K 111;1JTD B E 130;17.2857
1JTD A K 111;1JTD B D 131;20.0772
1JTD A K 111;1JTD B W 152;35.7608
1JTD A K 111;1JTD B D 167;6.72215
1JTD A L 113;1JTD A T 114;33.3252
1JTD A L 113;1JTD B D 170;12.3544
1JTD A L 113;1JTD B Y 191;21.8107
1JTD A L 113;1JTD B D 206;0.9875
1JTD A L 113;1JTD B F 230;0.32968
1JTD A T 114;1JTD B S 169;23.7934
1JTD A T 114;1JTD B D 170;5.57212
1JTD A M 129;1JTD A S 130;25.6621
1JTD A M 129;1JTD A K 215;15.4737
1JTD A M 129;1JTD A V 216;11.2523
1JTD A M 129;1JTD B W 53;24.7643
1JTD A M 129;1JTD B F 74;15.2096
1JTD A M 129;1JTD B L 91;6.12783
1JTD A M 129;1JTD B Y 113;0.667558
1JTD A S 130;1JTD A V 216;13.1519
1JTD A S 130;1JTD A S 235;3.10972
1JTD A S 130;1JTD A G 236;1.20499
1JTD A S 130;1JTD B D 52;11.2162
1JTD A S 130;1JTD B W 53;0.619011
1JTD A P 167;1JTD A E 168;36.7594
1JTD A P 167;1JTD A E 239;2.94076
1JTD A P 167;1JTD B Y 248;16.1874
1JTD A E 168;1JTD A E 239;1.24847
1JTD A E 168;1JTD B Y 248;11.3539
1JTD A K 215;1JTD A V 216;24.3117
1JTD A K 215;1JTD B D 52;0.755998
1JTD A K 215;1JTD B W 53;10.7465
1JTD A K 215;1JTD B L 91;29.9952
1JTD A V 216;1JTD A P 219;3.64966
1JTD A V 216;1JTD A S 235;17.9298
1JTD A V 216;1JTD A R 243;6.797
1JTD A V 216;1JTD B D 52;34.1817
1JTD A V 216;1JTD B W 53;17.4042
1JTD A P 219;1JTD A R 243;6.56438
1JTD A P 219;1JTD A D 271;0.291669
1JTD A P 219;1JTD A N 274;31.1321
1JTD A P 219;1JTD B N 51;2.20637
1JTD A P 219;1JTD B D 52;8.83082
1JTD A S 235;1JTD A G 236;19.4069
1JTD A S 235;1JTD A R 243;8.63172
1JTD A S 235;1JTD B D 52;1.68503
1JTD A G 236;1JTD A A 237;19.5446
1JTD A G 236;1JTD A R 243;15.5585
1JTD A G 236;1JTD B D 52;0.00454856
1JTD A A 237;1JTD A G 238;20.3097
1JTD A A 237;1JTD A R 243;11.7718
1JTD A A 237;1JTD A M 270;10.4488
1JTD A A 237;1JTD B N 50;27.8687
1JTD A A 237;1JTD B D 52;7.35614
1JTD A G 238;1JTD A E 239;25.8471
1JTD A G 238;1JTD A M 270;4.20209
1JTD A G 238;1JTD B N 50;9.52203
1JTD A E 239;1JTD B S 285;7.15536
1JTD A R 243;1JTD A M 270;20.102
1JTD A R 243;1JTD A N 274;16.0612
1JTD A R 243;1JTD B N 50;1.47045
1JTD A R 243;1JTD B N 51;1.94118
1JTD A R 243;1JTD B D 52;12.8222
1JTD A M 270;1JTD A D 271;20.8787
1JTD A M 270;1JTD A N 274;22.7235
1JTD A M 270;1JTD B G 49;1.15602
1JTD A M 270;1JTD B N 50;21.7377
1JTD A M 270;1JTD B N 51;18.8839
1JTD A D 271;1JTD A N 274;21.6062
1JTD A D 271;1JTD B N 51;11.7237
1JTD A D 271;1JTD B G 54;0.760985
1JTD A D 271;1JTD B A 56;0.36389
1JTD A D 271;1JTD B T 57;27.2115
1JTD A N 274;1JTD B N 51;5.38587
1JTD B G 49;1JTD B N 50;29.9446
1JTD B G 49;1JTD B N 51;5.82974
1JTD B G 49;1JTD B R 286;9.68989
1JTD B G 49;1JTD B N 304;10.7415
1JTD B N 50;1JTD B N 51;26.1257
1JTD B N 50;1JTD B D 52;28.2546
1JTD B N 50;1JTD B N 304;0.373593
1JTD B N 51;1JTD B D 52;22.0413
1JTD B N 51;1JTD B W 53;1.10353
1JTD B N 51;1JTD B G 54;16.7187
1JTD B N 51;1JTD B A 56;25.8326
1JTD B N 51;1JTD B T 57;9.53633
1JTD B D 52;1JTD B W 53;45.849
1JTD B D 52;1JTD B G 54;2.40597
1JTD B W 53;1JTD B G 54;21.0163
1JTD B W 53;1JTD B Y 73;17.9851
1JTD B W 53;1JTD B F 74;35.0148
1JTD B W 53;1JTD B L 91;4.9716
1JTD B W 53;1JTD B N 304;4.92165
1JTD B G 54;1JTD B A 56;1.81181
1JTD B G 54;1JTD B T 57;17.7282
1JTD B A 56;1JTD B T 57;21.9141
1JTD B Y 73;1JTD B F 74;36.7426
1JTD B Y 73;1JTD B N 112;25.2106
1JTD B Y 73;1JTD B E 268;15.0276
1JTD B Y 73;1JTD B N 304;20.2428
1JTD B F 74;1JTD B N 112;17.3812
1JTD B F 74;1JTD B Y 113;21.02
1JTD B N 112;1JTD B Y 113;34.6123
1JTD B N 112;1JTD B A 151;27.1745
1JTD B N 112;1JTD B W 152;15.0366
1JTD B N 112;1JTD B V 190;0.0441872
1JTD B N 112;1JTD B E 268;1.79701
1JTD B Y 113;1JTD B E 130;5.85315
1JTD B Y 113;1JTD B A 151;1.92733
1JTD B Y 113;1JTD B W 152;14.5148
1JTD B E 130;1JTD B D 131;36.1941
1JTD B D 131;1JTD B W 152;10.4371
1JTD B D 131;1JTD B D 167;24.9519
1JTD B A 151;1JTD B W 152;36.7438
1JTD B A 151;1JTD B V 190;22.0917
1JTD B A 151;1JTD B E 268;0.149009
1JTD B W 152;1JTD B D 167;27.7447
1JTD B W 152;1JTD B D 170;0.750297
1JTD B W 152;1JTD B V 190;16.14
1JTD B W 152;1JTD B Y 191;12.1631
1JTD B D 167;1JTD B S 169;25.0786
1JTD B D 167;1JTD B D 170;1.7536
1JTD B S 169;1JTD B D 170;35.5416
1JTD B D 170;1JTD B Y 191;25.9952
1JTD B D 170;1JTD B D 206;19.6809
1JTD B V 190;1JTD B Y 191;36.7509
1JTD B V 190;1JTD B I 229;22.6842
1JTD B V 190;1JTD B E 268;19.2445
1JTD B Y 191;1JTD B D 206;19.5076
1JTD B Y 191;1JTD B I 229;17.7163
1JTD B Y 191;1JTD B F 230;11.8735
1JTD B D 206;1JTD B Y 208;14.9459
1JTD B D 206;1JTD B F 230;5.56489
1JTD B Y 208;1JTD B F 209;44.8128
1JTD B Y 208;1JTD B F 230;1.09718
1JTD B F 209;1JTD B F 230;27.2394
1JTD B F 209;1JTD B R 247;21.7928
1JTD B I 229;1JTD B F 230;43.4446
1JTD B I 229;1JTD B E 268;30.1048
1JTD B I 229;1JTD B W 269;23.3349
1JTD B F 230;1JTD B R 247;4.6185
1JTD B F 230;1JTD B E 268;0.333355
1JTD B F 230;1JTD B W 269;14.9482
1JTD B R 247;1JTD B Y 248;47.8967
1JTD B R 247;1JTD B W 269;8.52202
1JTD B Y 248;1JTD B W 269;20.2145
1JTD B Y 248;1JTD B S 284;30.3934
1JTD B E 268;1JTD B W 269;38.462
1JTD B E 268;1JTD B N 304;4.35367
1JTD B W 269;1JTD B S 284;21.2609
1JTD B W 269;1JTD B R 286;0.150914
1JTD B W 269;1JTD B N 304;3.19448
1JTD B S 284;1JTD B S 285;29.463
1JTD B S 284;1JTD B R 286;3.35901
1JTD B S 284;1JTD B R 286;17.0648
1JTD B S 285;1JTD B R 286;22.7017
1JTD B S 285;1JTD B R 286;1.29246
1JTD B R 286;1JTD B N 304;18.5135
