V1;V2;Weight
1KTZ A R 25;1KTZ A K 31;39.0308
1KTZ A R 25;1KTZ A K 37;4.51143
1KTZ A R 25;1KTZ B K 29;2.60968
1KTZ A R 25;1KTZ B T 51;3.23895
1KTZ A R 25;1KTZ B E 119;20.9343
1KTZ A K 31;1KTZ A W 32;22.1631
1KTZ A K 31;1KTZ B L 27;17.6557
1KTZ A K 31;1KTZ B T 51;13.1755
1KTZ A K 31;1KTZ B D 118;21.2218
1KTZ A K 31;1KTZ B E 119;17.3345
1KTZ A W 32;1KTZ A H 34;4.67515
1KTZ A W 32;1KTZ A Y 90;26.7535
1KTZ A W 32;1KTZ A Y 91;3.09354
1KTZ A W 32;1KTZ B P 25;0.900258
1KTZ A W 32;1KTZ B L 27;21.6112
1KTZ A W 32;1KTZ B T 51;17.2421
1KTZ A W 32;1KTZ B S 52;0.709489
1KTZ A W 32;1KTZ B I 53;25.9492
1KTZ A H 34;1KTZ A K 37;19.1248
1KTZ A H 34;1KTZ A Y 90;7.42632
1KTZ A H 34;1KTZ A Y 91;24.4137
1KTZ A H 34;1KTZ B S 49;23.3621
1KTZ A H 34;1KTZ B I 50;11.291
1KTZ A H 34;1KTZ B T 51;6.25101
1KTZ A K 37;1KTZ B S 49;6.02646
1KTZ A Y 90;1KTZ A Y 91;30.5298
1KTZ A Y 90;1KTZ A V 92;14.2072
1KTZ A Y 90;1KTZ B I 53;14.3968
1KTZ A Y 91;1KTZ A V 92;19.6433
1KTZ A Y 91;1KTZ A G 93;6.70683
1KTZ A Y 91;1KTZ A R 94;14.19
1KTZ A Y 91;1KTZ B F 30;0.010545
1KTZ A Y 91;1KTZ B I 50;40.2782
1KTZ A Y 91;1KTZ B T 51;9.32686
1KTZ A Y 91;1KTZ B S 52;12.2318
1KTZ A Y 91;1KTZ B I 53;12.4115
1KTZ A V 92;1KTZ A G 93;21.0848
1KTZ A V 92;1KTZ A R 94;0.5949
1KTZ A V 92;1KTZ B S 52;0.895528
1KTZ A V 92;1KTZ B I 53;21.8141
1KTZ A V 92;1KTZ B C 54;0.48281
1KTZ A V 92;1KTZ B E 55;22.0753
1KTZ A G 93;1KTZ A R 94;19.5281
1KTZ A G 93;1KTZ B F 30;17.0453
1KTZ A G 93;1KTZ B I 50;0.682913
1KTZ A G 93;1KTZ B S 52;13.1763
1KTZ A G 93;1KTZ B I 53;4.24049
1KTZ A G 93;1KTZ B C 54;2.34469
1KTZ A G 93;1KTZ B E 55;20.119
1KTZ A G 93;1KTZ B C 78;1.61461
1KTZ A R 94;1KTZ B F 30;39.6252
1KTZ A R 94;1KTZ B D 32;29.8471
1KTZ A R 94;1KTZ B I 50;0.658988
1KTZ A R 94;1KTZ B V 77;5.39683
1KTZ A R 94;1KTZ B Y 85;3.84451
1KTZ B P 25;1KTZ B L 27;16.7274
1KTZ B P 25;1KTZ B I 53;20.3838
1KTZ B P 25;1KTZ B C 54;0.403139
1KTZ B P 25;1KTZ B D 118;6.85448
1KTZ B L 27;1KTZ B T 51;12.3607
1KTZ B L 27;1KTZ B S 52;8.58695
1KTZ B L 27;1KTZ B I 53;14.3022
1KTZ B L 27;1KTZ B C 54;0.387228
1KTZ B L 27;1KTZ B D 118;28.534
1KTZ B L 27;1KTZ B E 119;13.5447
1KTZ B K 29;1KTZ B F 30;16.6917
1KTZ B K 29;1KTZ B S 49;7.4393
1KTZ B K 29;1KTZ B I 50;9.66429
1KTZ B K 29;1KTZ B T 51;17.0935
1KTZ B K 29;1KTZ B V 77;5.86013
1KTZ B K 29;1KTZ B C 78;0.00732625
1KTZ B K 29;1KTZ B E 119;19.2539
1KTZ B F 30;1KTZ B D 32;14.4751
1KTZ B F 30;1KTZ B I 50;24.9604
1KTZ B F 30;1KTZ B S 52;12.7691
1KTZ B F 30;1KTZ B V 77;18.0338
1KTZ B F 30;1KTZ B C 78;27.5491
1KTZ B D 32;1KTZ B V 77;10.7889
1KTZ B D 32;1KTZ B Y 85;0.157901
1KTZ B S 49;1KTZ B I 50;24.4558
1KTZ B S 49;1KTZ B T 51;5.53765
1KTZ B I 50;1KTZ B T 51;21.3421
1KTZ B I 50;1KTZ B S 52;6.10649
1KTZ B T 51;1KTZ B S 52;22.7193
1KTZ B T 51;1KTZ B I 53;0.0979669
1KTZ B T 51;1KTZ B E 119;19.1242
1KTZ B S 52;1KTZ B I 53;22.1482
1KTZ B S 52;1KTZ B C 54;4.41296
1KTZ B S 52;1KTZ B C 78;6.61229
1KTZ B I 53;1KTZ B C 54;28.7569
1KTZ B I 53;1KTZ B E 55;1.41699
1KTZ B C 54;1KTZ B E 55;22.3556
1KTZ B C 54;1KTZ B C 78;22.5458
1KTZ B E 55;1KTZ B C 78;0.234202
1KTZ B V 77;1KTZ B C 78;28.419
1KTZ B V 77;1KTZ B Y 85;22.0149
1KTZ B C 78;1KTZ B Y 85;0.0193321
1KTZ B D 118;1KTZ B E 119;25.3019
