V1;V2;Weight
1VFB A H 30;1VFB A Y 32;13.6632
1VFB A H 30;1VFB A Y 50;7.66329
1VFB A H 30;1VFB A W 92;35.1398
1VFB A H 30;1VFB C C 127;1.90862
1VFB A H 30;1VFB C L 129;23.6909
1VFB A Y 32;1VFB A Y 50;31.5938
1VFB A Y 32;1VFB A F 91;24.6572
1VFB A Y 32;1VFB A W 92;17.1758
1VFB A Y 32;1VFB B Y 101;20.5352
1VFB A Y 32;1VFB C D 18;2.70523
1VFB A Y 32;1VFB C S 24;17.2911
1VFB A Y 32;1VFB C L 25;6.03191
1VFB A Y 32;1VFB C G 26;2.55073
1VFB A Y 32;1VFB C Q 121;20.7654
1VFB A Y 32;1VFB C I 124;13.2222
1VFB A Y 49;1VFB A Y 50;30.8199
1VFB A Y 49;1VFB A T 52;1.88433
1VFB A Y 49;1VFB A T 53;42.1302
1VFB A Y 49;1VFB B D 100;0.0985061
1VFB A Y 49;1VFB B Y 101;3.24812
1VFB A Y 49;1VFB B R 102;44.4043
1VFB A Y 49;1VFB C N 19;8.14739
1VFB A Y 49;1VFB C G 22;15.1132
1VFB A Y 50;1VFB A T 52;11.6786
1VFB A Y 50;1VFB A T 53;4.71129
1VFB A Y 50;1VFB B Y 101;2.78219
1VFB A Y 50;1VFB C K 13;3.11351
1VFB A Y 50;1VFB C D 18;28.2227
1VFB A Y 50;1VFB C N 19;29.3064
1VFB A Y 50;1VFB C S 24;4.87
1VFB A T 52;1VFB A T 53;28.7645
1VFB A T 52;1VFB C N 19;1.18117
1VFB A T 53;1VFB C N 19;17.9259
1VFB A T 53;1VFB C G 22;2.32349
1VFB A F 91;1VFB A W 92;17.8077
1VFB A F 91;1VFB A S 93;6.38464
1VFB A F 91;1VFB B Y 101;33.6678
1VFB A F 91;1VFB B R 102;9.09884
1VFB A F 91;1VFB C Q 121;8.21395
1VFB A W 92;1VFB A S 93;35.3128
1VFB A W 92;1VFB C Q 121;13.5753
1VFB A W 92;1VFB C I 124;13.8381
1VFB A W 92;1VFB C R 125;25.3324
1VFB A W 92;1VFB C G 126;6.86256
1VFB A W 92;1VFB C L 129;0.0733217
1VFB A S 93;1VFB C D 119;0.507193
1VFB A S 93;1VFB C Q 121;9.25412
1VFB A S 93;1VFB C R 125;30.1662
1VFB B T 30;1VFB B G 31;23.8361
1VFB B T 30;1VFB B Y 32;1.19508
1VFB B T 30;1VFB B G 53;20.8476
1VFB B T 30;1VFB B D 54;0.146289
1VFB B T 30;1VFB C K 116;6.55925
1VFB B T 30;1VFB C G 117;3.15254
1VFB B G 31;1VFB B Y 32;31.9306
1VFB B G 31;1VFB B G 53;0.00509735
1VFB B G 31;1VFB C R 112;0.0514896
1VFB B G 31;1VFB C K 116;26.9489
1VFB B G 31;1VFB C G 117;11.0849
1VFB B Y 32;1VFB B G 33;25.616
1VFB B Y 32;1VFB B W 52;1.35049
1VFB B Y 32;1VFB B G 53;10.4993
1VFB B Y 32;1VFB B R 99;23.8559
1VFB B Y 32;1VFB C N 103;4.14999
1VFB B Y 32;1VFB C K 116;26.216
1VFB B Y 32;1VFB C G 117;5.69613
1VFB B G 33;1VFB B W 52;9.94556
1VFB B G 33;1VFB B G 53;2.94887
1VFB B G 33;1VFB C G 117;3.06525
1VFB B W 52;1VFB B G 53;17.128
1VFB B W 52;1VFB B D 54;13.1063
1VFB B W 52;1VFB B Y 101;12.9067
1VFB B W 52;1VFB C G 117;11.0266
1VFB B W 52;1VFB C T 118;13.1317
1VFB B W 52;1VFB C D 119;31.385
1VFB B G 53;1VFB B D 54;23.1294
1VFB B G 53;1VFB C G 117;13.1506
1VFB B D 54;1VFB C G 117;4.40802
1VFB B D 54;1VFB C T 118;28.1348
1VFB B D 54;1VFB C D 119;1.65929
1VFB B R 99;1VFB B D 100;31.0206
1VFB B R 99;1VFB B Y 101;1.63394
1VFB B R 99;1VFB B R 102;46.9591
1VFB B R 99;1VFB C R 21;0.3882
1VFB B R 99;1VFB C Y 23;7.33152
1VFB B R 99;1VFB C G 102;19.5062
1VFB B R 99;1VFB C N 103;10.7624
1VFB B D 100;1VFB B Y 101;38.1107
1VFB B D 100;1VFB B R 102;24.7171
1VFB B D 100;1VFB C G 22;5.76683
1VFB B D 100;1VFB C Y 23;8.89133
1VFB B D 100;1VFB C S 24;17.2691
1VFB B D 100;1VFB C N 27;12.3313
1VFB B D 100;1VFB C V 120;4.43163
1VFB B Y 101;1VFB B R 102;21.0551
1VFB B Y 101;1VFB C S 24;9.95922
1VFB B Y 101;1VFB C T 118;2.20655
1VFB B Y 101;1VFB C D 119;12.4223
1VFB B Y 101;1VFB C V 120;13.8705
1VFB B Y 101;1VFB C Q 121;24.5406
1VFB B R 102;1VFB C N 19;0.579464
1VFB B R 102;1VFB C R 21;0.253914
1VFB B R 102;1VFB C G 22;18.8547
1VFB B R 102;1VFB C S 24;0.0422754
1VFB C K 13;1VFB C D 18;29.9315
1VFB C K 13;1VFB C L 25;16.1533
1VFB C K 13;1VFB C L 129;37.4776
1VFB C D 18;1VFB C N 19;27.7822
1VFB C D 18;1VFB C S 24;3.18489
1VFB C D 18;1VFB C L 25;29.9293
1VFB C N 19;1VFB C R 21;4.27622
1VFB C N 19;1VFB C G 22;21.1081
1VFB C N 19;1VFB C Y 23;12.3802
1VFB C N 19;1VFB C S 24;8.46076
1VFB C N 19;1VFB C L 25;1.20992
1VFB C R 21;1VFB C G 22;24.8888
1VFB C R 21;1VFB C Y 23;12.204
1VFB C R 21;1VFB C G 102;16.6541
1VFB C G 22;1VFB C Y 23;19.1877
1VFB C G 22;1VFB C S 24;2.05334
1VFB C Y 23;1VFB C S 24;19.3437
1VFB C Y 23;1VFB C L 25;0.393339
1VFB C Y 23;1VFB C N 27;12.8069
1VFB C Y 23;1VFB C G 102;14.9232
1VFB C Y 23;1VFB C N 103;8.24313
1VFB C S 24;1VFB C L 25;18.2944
1VFB C S 24;1VFB C G 26;7.15408
1VFB C S 24;1VFB C N 27;17.9447
1VFB C S 24;1VFB C V 120;5.34843
1VFB C S 24;1VFB C Q 121;1.0735
1VFB C L 25;1VFB C G 26;18.0813
1VFB C L 25;1VFB C N 27;1.89789
1VFB C L 25;1VFB C I 124;16.6345
1VFB C L 25;1VFB C L 129;14.2568
1VFB C G 26;1VFB C N 27;14.7352
1VFB C G 26;1VFB C V 120;16.599
1VFB C G 26;1VFB C Q 121;4.29831
1VFB C G 26;1VFB C I 124;13.4079
1VFB C N 27;1VFB C K 116;1.57438
1VFB C N 27;1VFB C V 120;22.8523
1VFB C G 102;1VFB C N 103;26.0454
1VFB C R 112;1VFB C K 116;27.752
1VFB C K 116;1VFB C G 117;22.6912
1VFB C K 116;1VFB C T 118;7.39324
1VFB C K 116;1VFB C V 120;0.450094
1VFB C G 117;1VFB C T 118;25.0005
1VFB C G 117;1VFB C V 120;0.0104464
1VFB C T 118;1VFB C D 119;22.6687
1VFB C T 118;1VFB C V 120;19.9893
1VFB C D 119;1VFB C V 120;15.9918
1VFB C D 119;1VFB C Q 121;6.91584
1VFB C D 119;1VFB C R 125;20.4803
1VFB C V 120;1VFB C Q 121;18.0246
1VFB C V 120;1VFB C I 124;1.16084
1VFB C Q 121;1VFB C I 124;20.2209
1VFB C Q 121;1VFB C R 125;27.9017
1VFB C I 124;1VFB C R 125;23.6975
1VFB C I 124;1VFB C G 126;1.71061
1VFB C I 124;1VFB C C 127;22.5389
1VFB C I 124;1VFB C L 129;17.3083
1VFB C R 125;1VFB C G 126;26.8757
1VFB C R 125;1VFB C C 127;6.64717
1VFB C G 126;1VFB C C 127;27.8823
1VFB C C 127;1VFB C L 129;25.4481
