V1;V2;Weight
1XGU A S 28;1XGU A S 30;10.2191
1XGU A S 28;1XGU A N 92;5.05067
1XGU A S 28;1XGU C N 19;6.68588
1XGU A S 30;1XGU A N 31;22.219
1XGU A S 30;1XGU A N 32;4.07707
1XGU A S 30;1XGU A S 67;14.2924
1XGU A S 30;1XGU A N 92;4.55424
1XGU A S 30;1XGU C K 13;8.46851
1XGU A S 30;1XGU C R 14;0.475791
1XGU A S 30;1XGU C G 16;15.3376
1XGU A S 30;1XGU C D 18;14.5413
1XGU A N 31;1XGU A N 32;22.0909
1XGU A N 31;1XGU A Y 50;28.222
1XGU A N 31;1XGU A Q 53;4.79798
1XGU A N 31;1XGU A S 67;4.77325
1XGU A N 31;1XGU C R 14;11.8108
1XGU A N 31;1XGU C H 15;15.606
1XGU A N 31;1XGU C G 16;8.5309
1XGU A N 31;1XGU C N 93;0.061692
1XGU A N 31;1XGU C K 96;6.90727
1XGU A N 32;1XGU A Y 50;12.3739
1XGU A N 32;1XGU A S 91;13.4653
1XGU A N 32;1XGU A N 92;19.4403
1XGU A N 32;1XGU C G 16;7.22743
1XGU A N 32;1XGU C Y 20;13.3328
1XGU A N 32;1XGU C K 96;7.88127
1XGU A K 49;1XGU A Y 50;37.5278
1XGU A K 49;1XGU A Q 53;32.7905
1XGU A K 49;1XGU B G 99;4.92962
1XGU A K 49;1XGU C N 93;12.4015
1XGU A Y 50;1XGU A Q 53;21.1014
1XGU A Y 50;1XGU A S 91;7.58904
1XGU A Y 50;1XGU B W 98;13.2977
1XGU A Y 50;1XGU C Y 20;5.71823
1XGU A Y 50;1XGU C N 93;24.306
1XGU A Y 50;1XGU C K 96;21.6361
1XGU A Q 53;1XGU C H 15;5.94557
1XGU A Q 53;1XGU C T 89;21.1798
1XGU A Q 53;1XGU C N 93;17.7414
1XGU A S 67;1XGU C R 14;2.7649
1XGU A S 91;1XGU A N 92;18.2792
1XGU A S 91;1XGU A S 93;2.86188
1XGU A S 91;1XGU A Y 96;25.2159
1XGU A S 91;1XGU B W 98;4.73233
1XGU A S 91;1XGU C Y 20;16.9945
1XGU A S 91;1XGU C R 21;5.7155
1XGU A N 92;1XGU A S 93;29.2068
1XGU A N 92;1XGU C G 16;1.3649
1XGU A N 92;1XGU C D 18;3.90552
1XGU A N 92;1XGU C N 19;17.9429
1XGU A N 92;1XGU C Y 20;14.5582
1XGU A N 92;1XGU C R 21;15.2517
1XGU A N 92;1XGU C G 22;0.0671144
1XGU A S 93;1XGU A W 94;28.3786
1XGU A S 93;1XGU A Y 96;8.76667
1XGU A S 93;1XGU C N 19;4.62855
1XGU A S 93;1XGU C R 21;9.3486
1XGU A S 93;1XGU C G 22;1.07783
1XGU A W 94;1XGU A Y 96;24.6827
1XGU A W 94;1XGU B Y 50;13.5809
1XGU A W 94;1XGU B Y 58;29.04
1XGU A W 94;1XGU C R 21;21.9174
1XGU A Y 96;1XGU B Y 50;11.5245
1XGU A Y 96;1XGU B W 98;20.6865
1XGU A Y 96;1XGU C Y 20;1.98349
1XGU A Y 96;1XGU C R 21;15.1858
1XGU A Y 96;1XGU C S 100;3.42282
1XGU B D 27;1XGU B S 31;20.5102
1XGU B D 27;1XGU B D 32;2.8201
1XGU B D 27;1XGU C R 73;0.859068
1XGU B D 27;1XGU C N 77;1.14037
1XGU B T 30;1XGU B S 31;21.664
1XGU B T 30;1XGU B D 32;4.53186
1XGU B T 30;1XGU B Y 53;5.88146
1XGU B T 30;1XGU B R 71;20.4692
1XGU B T 30;1XGU C R 73;33.2008
1XGU B T 30;1XGU C L 75;4.52195
1XGU B S 31;1XGU B D 32;23.5383
1XGU B S 31;1XGU C R 73;30.6812
1XGU B S 31;1XGU C N 74;0.886073
1XGU B S 31;1XGU C L 75;12.0847
1XGU B S 31;1XGU C N 77;7.21859
1XGU B D 32;1XGU B F 33;31.8461
1XGU B D 32;1XGU B S 52;0.740261
1XGU B D 32;1XGU B Y 53;5.63242
1XGU B D 32;1XGU B R 71;2.64848
1XGU B D 32;1XGU B W 98;3.32614
1XGU B D 32;1XGU B G 99;1.91075
1XGU B D 32;1XGU C L 75;15.1646
1XGU B D 32;1XGU C N 77;14.8148
1XGU B D 32;1XGU C K 97;14.9214
1XGU B F 33;1XGU B Y 50;9.96971
1XGU B F 33;1XGU B S 52;18.2427
1XGU B F 33;1XGU B Y 53;16.7997
1XGU B F 33;1XGU B W 98;29.5285
1XGU B F 33;1XGU C W 63;10.7037
1XGU B F 33;1XGU C L 75;8.96542
1XGU B F 33;1XGU C K 97;29.7721
1XGU B F 33;1XGU C I 98;0.808388
1XGU B F 33;1XGU C S 100;7.38998
1XGU B F 33;1XGU C D 101;8.58836
1XGU B Y 50;1XGU B S 52;10.8775
1XGU B Y 50;1XGU B S 56;0.818031
1XGU B Y 50;1XGU B Y 58;35.993
1XGU B Y 50;1XGU B W 98;19.9832
1XGU B Y 50;1XGU C R 21;11.2655
1XGU B Y 50;1XGU C S 100;15.5151
1XGU B S 52;1XGU B Y 53;17.2407
1XGU B S 52;1XGU B S 54;3.32151
1XGU B S 52;1XGU B S 56;18.8442
1XGU B S 52;1XGU B Y 58;1.67052
1XGU B S 52;1XGU B R 71;7.40371
1XGU B S 52;1XGU C S 100;0.964636
1XGU B S 52;1XGU C D 101;15.5364
1XGU B S 52;1XGU C G 102;0.709821
1XGU B Y 53;1XGU B S 54;34.5245
1XGU B Y 53;1XGU B R 71;19.7788
1XGU B Y 53;1XGU C W 62;25.0821
1XGU B Y 53;1XGU C W 63;24.4346
1XGU B Y 53;1XGU C R 73;12.3548
1XGU B Y 53;1XGU C L 75;14.9062
1XGU B Y 53;1XGU C I 98;0.413668
1XGU B Y 53;1XGU C D 101;16.529
1XGU B Y 53;1XGU C N 103;14.5343
1XGU B Y 53;1XGU C A 107;4.8914
1XGU B S 54;1XGU B S 56;16.8404
1XGU B S 54;1XGU B R 71;2.62375
1XGU B S 54;1XGU C D 101;15.1577
1XGU B S 54;1XGU C G 102;1.23289
1XGU B S 54;1XGU C N 103;10.4452
1XGU B S 56;1XGU B Y 58;6.71441
1XGU B S 56;1XGU C D 101;1.30718
1XGU B S 56;1XGU C G 102;19.506
1XGU B Y 58;1XGU C R 21;19.8627
1XGU B Y 58;1XGU C V 99;1.44387
1XGU B Y 58;1XGU C S 100;7.18455
1XGU B Y 58;1XGU C D 101;8.77152
1XGU B Y 58;1XGU C G 102;19.0068
1XGU B Y 58;1XGU C G 104;0.33936
1XGU B R 71;1XGU C R 73;0.209576
1XGU B W 98;1XGU B G 99;34.393
1XGU B W 98;1XGU C Y 20;7.89946
1XGU B W 98;1XGU C N 93;1.6339
1XGU B W 98;1XGU C K 96;2.49261
1XGU B W 98;1XGU C K 97;34.1176
1XGU B W 98;1XGU C S 100;12.9807
1XGU B G 99;1XGU C K 97;5.97807
1XGU C K 13;1XGU C R 14;23.6313
1XGU C K 13;1XGU C H 15;1.16346
1XGU C K 13;1XGU C G 16;8.87822
1XGU C K 13;1XGU C D 18;24.7776
1XGU C R 14;1XGU C H 15;36.8453
1XGU C R 14;1XGU C G 16;4.25998
1XGU C H 15;1XGU C G 16;13.4298
1XGU C H 15;1XGU C T 89;21.4004
1XGU C H 15;1XGU C N 93;1.01139
1XGU C H 15;1XGU C K 96;8.00861
1XGU C G 16;1XGU C D 18;5.14686
1XGU C G 16;1XGU C Y 20;7.68285
1XGU C G 16;1XGU C K 96;8.23005
1XGU C D 18;1XGU C N 19;30.5083
1XGU C D 18;1XGU C Y 20;3.53471
1XGU C N 19;1XGU C Y 20;16.0074
1XGU C N 19;1XGU C R 21;2.68951
1XGU C N 19;1XGU C G 22;20.8463
1XGU C Y 20;1XGU C R 21;33.8194
1XGU C Y 20;1XGU C G 22;2.03676
1XGU C Y 20;1XGU C K 96;30.9194
1XGU C Y 20;1XGU C V 99;11.6742
1XGU C Y 20;1XGU C S 100;7.91149
1XGU C R 21;1XGU C G 22;24.5279
1XGU C R 21;1XGU C V 99;11.1211
1XGU C R 21;1XGU C S 100;17.2522
1XGU C W 62;1XGU C W 63;34.3747
1XGU C W 62;1XGU C R 73;36.1954
1XGU C W 62;1XGU C N 74;6.49526
1XGU C W 62;1XGU C L 75;24.0455
1XGU C W 63;1XGU C N 74;7.00197
1XGU C W 63;1XGU C L 75;25.735
1XGU C W 63;1XGU C N 77;0.339941
1XGU C W 63;1XGU C K 97;5.87609
1XGU C W 63;1XGU C I 98;39.4283
1XGU C W 63;1XGU C D 101;1.10535
1XGU C W 63;1XGU C A 107;3.51872
1XGU C R 73;1XGU C N 74;29.089
1XGU C R 73;1XGU C L 75;16.248
1XGU C R 73;1XGU C N 77;0.752119
1XGU C N 74;1XGU C L 75;14.6969
1XGU C N 74;1XGU C N 77;30.072
1XGU C L 75;1XGU C N 77;8.46114
1XGU C L 75;1XGU C K 97;15.6878
1XGU C N 77;1XGU C K 97;7.94501
1XGU C T 89;1XGU C N 93;18.6402
1XGU C N 93;1XGU C K 96;13.5071
1XGU C N 93;1XGU C K 97;10.1786
1XGU C K 96;1XGU C K 97;16.6715
1XGU C K 96;1XGU C I 98;0.615148
1XGU C K 96;1XGU C V 99;10.4288
1XGU C K 96;1XGU C S 100;8.71314
1XGU C K 97;1XGU C I 98;18.4922
1XGU C K 97;1XGU C V 99;0.711867
1XGU C K 97;1XGU C S 100;9.54698
1XGU C K 97;1XGU C D 101;2.09934
1XGU C I 98;1XGU C V 99;18.3987
1XGU C I 98;1XGU C S 100;1.86838
1XGU C I 98;1XGU C D 101;13.2317
1XGU C I 98;1XGU C N 103;2.22117
1XGU C I 98;1XGU C G 104;4.96372
1XGU C I 98;1XGU C A 107;17.9068
1XGU C V 99;1XGU C S 100;19.4849
1XGU C V 99;1XGU C D 101;8.00033
1XGU C V 99;1XGU C G 104;20.2573
1XGU C S 100;1XGU C D 101;19.211
1XGU C D 101;1XGU C G 102;20.2903
1XGU C D 101;1XGU C N 103;20.3883
1XGU C D 101;1XGU C G 104;8.37633
1XGU C G 102;1XGU C N 103;22.8993
1XGU C G 102;1XGU C G 104;6.22568
1XGU C N 103;1XGU C G 104;25.4842
1XGU C N 103;1XGU C A 107;12.9839
1XGU C G 104;1XGU C A 107;8.88935
