V1;V2;Weight
3BT1 A N 10;3BT1 A C 11;38.895
3BT1 A N 10;3BT1 A C 19;10.7625
3BT1 A N 10;3BT1 U E 134;9.59735
3BT1 A N 10;3BT1 U E 135;6.70928
3BT1 A N 10;3BT1 U K 139;27.7061
3BT1 A C 11;3BT1 A C 19;18.0886
3BT1 A C 11;3BT1 A H 29;23.0425
3BT1 A C 11;3BT1 A C 31;2.48341
3BT1 A C 11;3BT1 U K 139;9.4091
3BT1 A T 18;3BT1 A C 19;33.6731
3BT1 A T 18;3BT1 A V 20;6.1254
3BT1 A T 18;3BT1 A W 30;0.360345
3BT1 A T 18;3BT1 A C 31;1.83647
3BT1 A T 18;3BT1 A N 32;34.2138
3BT1 A T 18;3BT1 U S 101;3.6443
3BT1 A C 19;3BT1 A V 20;29.3769
3BT1 A C 19;3BT1 A S 21;0.175513
3BT1 A C 19;3BT1 A H 29;10.2226
3BT1 A C 19;3BT1 A W 30;6.18224
3BT1 A C 19;3BT1 A C 31;1.34374
3BT1 A C 19;3BT1 U K 139;25.7073
3BT1 A V 20;3BT1 A S 21;22.562
3BT1 A V 20;3BT1 A H 29;6.34656
3BT1 A V 20;3BT1 A W 30;44.6289
3BT1 A V 20;3BT1 A C 31;1.02639
3BT1 A V 20;3BT1 A N 32;14.5627
3BT1 A V 20;3BT1 U Y 57;0.691485
3BT1 A V 20;3BT1 U S 101;8.84566
3BT1 A V 20;3BT1 U K 139;12.2702
3BT1 A V 20;3BT1 U D 141;13.5972
3BT1 A S 21;3BT1 A N 22;24.2184
3BT1 A S 21;3BT1 A N 27;14.823
3BT1 A S 21;3BT1 A I 28;6.12761
3BT1 A S 21;3BT1 A H 29;9.85288
3BT1 A S 21;3BT1 A W 30;8.82447
3BT1 A S 21;3BT1 U P 138;2.96622
3BT1 A S 21;3BT1 U K 139;27.0734
3BT1 A S 21;3BT1 U D 140;16.6204
3BT1 A S 21;3BT1 U D 141;3.84746
3BT1 A N 22;3BT1 A K 23;20.3436
3BT1 A N 22;3BT1 A Y 24;13.9656
3BT1 A N 22;3BT1 A F 25;24.0194
3BT1 A N 22;3BT1 A N 27;14.3279
3BT1 A N 22;3BT1 A I 28;6.56452
3BT1 A N 22;3BT1 A W 30;12.1526
3BT1 A N 22;3BT1 U L 55;10.3024
3BT1 A N 22;3BT1 U Y 57;0.875813
3BT1 A N 22;3BT1 U L 66;11.5367
3BT1 A N 22;3BT1 U D 140;8.80815
3BT1 A N 22;3BT1 U L 144;13.711
3BT1 A K 23;3BT1 A Y 24;43.4726
3BT1 A K 23;3BT1 A F 25;3.07689
3BT1 A K 23;3BT1 A S 26;3.63325
3BT1 A K 23;3BT1 A N 27;16.8896
3BT1 A K 23;3BT1 U K 50;3.65342
3BT1 A K 23;3BT1 U V 125;7.53765
3BT1 A K 23;3BT1 U V 126;4.8196
3BT1 A K 23;3BT1 U T 127;18.3592
3BT1 A K 23;3BT1 U P 138;0.138008
3BT1 A K 23;3BT1 U D 140;24.3701
3BT1 A K 23;3BT1 U H 166;20.9104
3BT1 A K 23;3BT1 U F 167;1.87596
3BT1 A K 23;3BT1 U D 254;27.255
3BT1 A K 23;3BT1 U A 255;16.6572
3BT1 A Y 24;3BT1 A F 25;29.3482
3BT1 A Y 24;3BT1 A S 26;1.78044
3BT1 A Y 24;3BT1 U K 50;1.55834
3BT1 A Y 24;3BT1 U R 53;24.214
3BT1 A Y 24;3BT1 U L 55;5.22628
3BT1 A Y 24;3BT1 U E 68;2.10749
3BT1 A Y 24;3BT1 U V 125;13.1141
3BT1 A Y 24;3BT1 U L 150;25.4643
3BT1 A Y 24;3BT1 U P 151;16.0561
3BT1 A Y 24;3BT1 U N 157;4.88296
3BT1 A Y 24;3BT1 U F 167;1.82371
3BT1 A Y 24;3BT1 U L 168;18.3748
3BT1 A Y 24;3BT1 U H 251;5.08596
3BT1 A Y 24;3BT1 U D 254;17.0063
3BT1 A Y 24;3BT1 U A 255;1.08516
3BT1 A F 25;3BT1 A S 26;20.3747
3BT1 A F 25;3BT1 A N 27;3.81438
3BT1 A F 25;3BT1 A I 28;15.4623
3BT1 A F 25;3BT1 U T 27;14.9984
3BT1 A F 25;3BT1 U R 53;14.7628
3BT1 A F 25;3BT1 U T 54;10.1573
3BT1 A F 25;3BT1 U L 55;12.6174
3BT1 A F 25;3BT1 U L 66;21.7333
3BT1 A F 25;3BT1 U T 67;8.89522
3BT1 A F 25;3BT1 U E 68;15.616
3BT1 A F 25;3BT1 U L 150;7.05274
3BT1 A S 26;3BT1 A N 27;27.5704
3BT1 A S 26;3BT1 A I 28;7.71592
3BT1 A S 26;3BT1 U R 25;22.9823
3BT1 A S 26;3BT1 U T 27;2.79006
3BT1 A S 26;3BT1 U E 42;5.50709
3BT1 A S 26;3BT1 U T 46;6.68179
3BT1 A S 26;3BT1 U K 50;19.8782
3BT1 A S 26;3BT1 U E 68;13.9028
3BT1 A N 27;3BT1 A I 28;21.3484
3BT1 A N 27;3BT1 A H 29;8.58978
3BT1 A N 27;3BT1 U P 138;0.894391
3BT1 A N 27;3BT1 U D 140;2.81625
3BT1 A N 27;3BT1 U E 230;1.38489
3BT1 A N 27;3BT1 U S 257;14.6845
3BT1 A I 28;3BT1 A H 29;30.7179
3BT1 A I 28;3BT1 A W 30;16.166
3BT1 A I 28;3BT1 U T 8;14.0448
3BT1 A I 28;3BT1 U R 25;0.288924
3BT1 A I 28;3BT1 U T 27;14.3767
3BT1 A I 28;3BT1 U V 29;16.353
3BT1 A I 28;3BT1 U L 40;4.23629
3BT1 A I 28;3BT1 U E 42;31.1427
3BT1 A I 28;3BT1 U L 66;3.74144
3BT1 A H 29;3BT1 A W 30;33.4688
3BT1 A H 29;3BT1 A C 31;3.11823
3BT1 A H 29;3BT1 A Q 40;12.6851
3BT1 A H 29;3BT1 A H 41;6.16546
3BT1 A H 29;3BT1 U T 8;2.22677
3BT1 A H 29;3BT1 U L 40;2.53743
3BT1 A H 29;3BT1 U K 139;1.78603
3BT1 A W 30;3BT1 A C 31;35.791
3BT1 A W 30;3BT1 A N 32;2.40401
3BT1 A W 30;3BT1 A Q 40;6.30432
3BT1 A W 30;3BT1 U V 29;17.4399
3BT1 A W 30;3BT1 U L 31;18.382
3BT1 A W 30;3BT1 U L 40;14.2658
3BT1 A W 30;3BT1 U Y 57;10.8447
3BT1 A W 30;3BT1 U T 64;12.5806
3BT1 A W 30;3BT1 U L 66;15.8772
3BT1 A C 31;3BT1 A N 32;23.7757
3BT1 A C 31;3BT1 A C 33;12.545
3BT1 A C 31;3BT1 A G 39;0.182598
3BT1 A C 31;3BT1 A Q 40;16.0188
3BT1 A C 31;3BT1 A H 41;14.8094
3BT1 A C 31;3BT1 U L 31;12.1653
3BT1 A N 32;3BT1 A C 33;29.9028
3BT1 A N 32;3BT1 A P 34;1.51855
3BT1 A N 32;3BT1 U T 59;3.1321
3BT1 A N 32;3BT1 U K 62;9.8718
3BT1 A N 32;3BT1 U S 101;24.2442
3BT1 A C 33;3BT1 A P 34;27.587
3BT1 A C 33;3BT1 A K 35;2.39438
3BT1 A C 33;3BT1 A G 38;7.76607
3BT1 A C 33;3BT1 A G 39;6.57612
3BT1 A C 33;3BT1 A Q 40;0.0595857
3BT1 A C 33;3BT1 U L 31;1.27614
3BT1 A C 33;3BT1 U K 62;15.4998
3BT1 A P 34;3BT1 A K 35;36.411
3BT1 A P 34;3BT1 U K 62;1.26906
3BT1 A K 35;3BT1 A K 46;15.486
3BT1 A K 35;3BT1 U L 61;7.0948
3BT1 A K 35;3BT1 U K 62;15.771
3BT1 A G 38;3BT1 A G 39;26.4632
3BT1 A G 38;3BT1 A K 46;13.2495
3BT1 A G 38;3BT1 U E 33;6.02044
3BT1 A G 38;3BT1 U E 36;0.575152
3BT1 A G 39;3BT1 A Q 40;19.1316
3BT1 A G 39;3BT1 A H 41;2.59706
3BT1 A G 39;3BT1 U L 31;3.52884
3BT1 A G 39;3BT1 U L 38;23.5918
3BT1 A Q 40;3BT1 A H 41;47.0972
3BT1 A Q 40;3BT1 U T 8;27.523
3BT1 A Q 40;3BT1 U N 9;9.03887
3BT1 A Q 40;3BT1 U L 31;2.50031
3BT1 A Q 40;3BT1 U L 38;12.3445
3BT1 A Q 40;3BT1 U L 40;27.6971
3BT1 A H 41;3BT1 A L 92;23.1749
3BT1 A H 41;3BT1 U N 9;1.65501
3BT1 A K 46;3BT1 A K 61;28.5974
3BT1 A K 46;3BT1 U E 33;15.242
3BT1 A K 46;3BT1 U E 36;24.8675
3BT1 A K 61;3BT1 U E 36;16.0839
3BT1 A N 75;3BT1 A A 86;10.2873
3BT1 A N 75;3BT1 A H 87;14.1497
3BT1 A N 75;3BT1 A K 98;32.0974
3BT1 A N 75;3BT1 U N 9;5.01867
3BT1 A N 75;3BT1 U G 10;3.72447
3BT1 A A 86;3BT1 A H 87;25.081
3BT1 A A 86;3BT1 A L 92;1.51935
3BT1 A A 86;3BT1 A K 98;1.30808
3BT1 A A 86;3BT1 U N 9;13.4819
3BT1 A H 87;3BT1 U N 9;21.1441
3BT1 A H 87;3BT1 U G 10;7.59312
3BT1 A H 87;3BT1 U D 11;32.3758
3BT1 A H 87;3BT1 U C 12;0.0591317
3BT1 A L 92;3BT1 U N 9;4.14631
3BT1 A K 98;3BT1 U T 8;11.8724
3BT1 A K 98;3BT1 U N 9;14.9925
3BT1 A K 98;3BT1 U G 10;14.517
3BT1 A K 98;3BT1 U L 38;0.80279
3BT1 A K 98;3BT1 U E 39;2.00068
3BT1 A K 98;3BT1 U V 41;7.18518
3BT1 U T 8;3BT1 U N 9;21.7538
3BT1 U T 8;3BT1 U G 10;6.07666
3BT1 U T 8;3BT1 U L 40;23.0873
3BT1 U T 8;3BT1 U V 41;17.9185
3BT1 U T 8;3BT1 U E 42;11.83
3BT1 U N 9;3BT1 U G 10;16.6601
3BT1 U N 9;3BT1 U D 11;14.6523
3BT1 U G 10;3BT1 U D 11;17.8989
3BT1 U G 10;3BT1 U C 12;17.0899
3BT1 U D 11;3BT1 U C 12;33.9115
3BT1 U R 25;3BT1 U T 27;14.2435
3BT1 U R 25;3BT1 U E 42;28.5918
3BT1 U R 25;3BT1 U T 46;18.8156
3BT1 U R 25;3BT1 U K 50;0.216755
3BT1 U R 25;3BT1 U E 68;11.8911
3BT1 U T 27;3BT1 U V 29;4.10464
3BT1 U T 27;3BT1 U L 40;1.61982
3BT1 U T 27;3BT1 U V 41;5.53715
3BT1 U T 27;3BT1 U E 42;19.8932
3BT1 U T 27;3BT1 U L 66;1.55682
3BT1 U T 27;3BT1 U T 67;6.99073
3BT1 U T 27;3BT1 U E 68;18.1848
3BT1 U V 29;3BT1 U L 31;14.9184
3BT1 U V 29;3BT1 U L 38;0.985981
3BT1 U V 29;3BT1 U E 39;5.44997
3BT1 U V 29;3BT1 U L 40;29.2788
3BT1 U V 29;3BT1 U T 64;6.01084
3BT1 U V 29;3BT1 U L 66;16.8831
3BT1 U L 31;3BT1 U E 33;16.1354
3BT1 U L 31;3BT1 U L 38;35.8117
3BT1 U L 31;3BT1 U L 40;10.6696
3BT1 U L 31;3BT1 U T 64;12.7342
3BT1 U E 33;3BT1 U E 36;41.4346
3BT1 U E 33;3BT1 U L 38;6.30315
3BT1 U E 33;3BT1 U L 61;5.48907
3BT1 U E 33;3BT1 U K 62;23.6057
3BT1 U L 38;3BT1 U E 39;32.9466
3BT1 U L 38;3BT1 U L 40;18.0596
3BT1 U E 39;3BT1 U L 40;29.7746
3BT1 U E 39;3BT1 U V 41;19.2937
3BT1 U L 40;3BT1 U V 41;24.4882
3BT1 U L 40;3BT1 U E 42;0.109409
3BT1 U V 41;3BT1 U E 42;22.827
3BT1 U T 46;3BT1 U K 50;22.7189
3BT1 U T 46;3BT1 U E 68;0.180835
3BT1 U K 50;3BT1 U R 53;11.4826
3BT1 U K 50;3BT1 U E 68;13.5704
3BT1 U K 50;3BT1 U D 254;22.4731
3BT1 U R 53;3BT1 U T 54;23.9835
3BT1 U R 53;3BT1 U T 67;6.64188
3BT1 U R 53;3BT1 U E 68;29.1072
3BT1 U R 53;3BT1 U L 150;10.8437
3BT1 U R 53;3BT1 U P 151;24.5889
3BT1 U R 53;3BT1 U D 254;16.1326
3BT1 U T 54;3BT1 U L 55;26.1828
3BT1 U T 54;3BT1 U L 66;14.3873
3BT1 U T 54;3BT1 U T 67;15.7514
3BT1 U T 54;3BT1 U L 150;1.80748
3BT1 U L 55;3BT1 U Y 57;14.8922
3BT1 U L 55;3BT1 U L 66;18.6958
3BT1 U L 55;3BT1 U V 125;12.371
3BT1 U L 55;3BT1 U L 144;15.7887
3BT1 U L 55;3BT1 U L 150;15.0247
3BT1 U Y 57;3BT1 U T 59;16.3544
3BT1 U Y 57;3BT1 U K 62;0.0328411
3BT1 U Y 57;3BT1 U T 64;38.1698
3BT1 U Y 57;3BT1 U L 66;11.8921
3BT1 U Y 57;3BT1 U S 101;2.26011
3BT1 U Y 57;3BT1 U D 141;10.7855
3BT1 U Y 57;3BT1 U L 144;26.6288
3BT1 U T 59;3BT1 U L 61;1.20494
3BT1 U T 59;3BT1 U K 62;35.3766
3BT1 U T 59;3BT1 U T 64;7.4778
3BT1 U T 59;3BT1 U S 101;14.993
3BT1 U T 59;3BT1 U D 141;0.0314022
3BT1 U L 61;3BT1 U K 62;31.356
3BT1 U K 62;3BT1 U T 64;1.72747
3BT1 U T 64;3BT1 U L 66;10.6233
3BT1 U L 66;3BT1 U T 67;18.552
3BT1 U T 67;3BT1 U E 68;22.653
3BT1 U S 101;3BT1 U D 141;24.4182
3BT1 U V 125;3BT1 U V 126;25.5023
3BT1 U V 125;3BT1 U T 127;9.30122
3BT1 U V 125;3BT1 U D 141;2.32414
3BT1 U V 125;3BT1 U L 144;36.5009
3BT1 U V 125;3BT1 U L 150;7.81971
3BT1 U V 125;3BT1 U F 167;9.04113
3BT1 U V 125;3BT1 U L 168;9.4637
3BT1 U V 126;3BT1 U T 127;19.895
3BT1 U V 126;3BT1 U H 166;7.00955
3BT1 U V 126;3BT1 U F 167;26.8869
3BT1 U T 127;3BT1 U P 138;0.731843
3BT1 U T 127;3BT1 U D 140;24.4682
3BT1 U T 127;3BT1 U D 141;8.49268
3BT1 U T 127;3BT1 U H 166;10.3592
3BT1 U E 134;3BT1 U E 135;55.533
3BT1 U E 134;3BT1 U K 139;0.278604
3BT1 U P 138;3BT1 U K 139;27.5085
3BT1 U P 138;3BT1 U D 140;21.112
3BT1 U P 138;3BT1 U A 255;0.2826
3BT1 U K 139;3BT1 U D 140;23.5994
3BT1 U K 139;3BT1 U D 141;4.62767
3BT1 U D 140;3BT1 U D 141;29.7272
3BT1 U D 140;3BT1 U L 144;1.24951
3BT1 U D 141;3BT1 U L 144;28.9785
3BT1 U L 150;3BT1 U P 151;31.8418
3BT1 U L 150;3BT1 U L 168;18.7796
3BT1 U P 151;3BT1 U N 157;1.20749
3BT1 U P 151;3BT1 U L 168;7.55602
3BT1 U P 151;3BT1 U H 251;16.45
3BT1 U P 151;3BT1 U D 254;7.19764
3BT1 U N 157;3BT1 U F 167;12.9961
3BT1 U N 157;3BT1 U L 168;30.1282
3BT1 U N 157;3BT1 U H 251;17.8972
3BT1 U H 166;3BT1 U F 167;21.8687
3BT1 U H 166;3BT1 U A 255;22.7235
3BT1 U F 167;3BT1 U L 168;25.189
3BT1 U E 230;3BT1 U S 257;29.4212
3BT1 U H 251;3BT1 U D 254;8.67158
3BT1 U H 251;3BT1 U A 255;9.96584
3BT1 U D 254;3BT1 U A 255;24.548
3BT1 U D 254;3BT1 U S 257;10.2533
3BT1 U A 255;3BT1 U S 257;5.5016
