V1;V2;Weight
3D3V A E 58;3D3V A G 62;12.5014
3D3V A E 58;3D3V A R 170;0.702525
3D3V A E 58;3D3V D D 26;26.9122
3D3V A E 58;3D3V D R 27;0.244396
3D3V A G 62;3D3V A R 65;25.1754
3D3V A G 62;3D3V A K 66;15.9336
3D3V A G 62;3D3V D T 98;0.506781
3D3V A R 65;3D3V A K 66;20.6041
3D3V A R 65;3D3V A K 68;15.3002
3D3V A R 65;3D3V A A 69;5.55912
3D3V A R 65;3D3V D D 26;0.664428
3D3V A R 65;3D3V D T 98;15.7654
3D3V A R 65;3D3V D D 99;15.6848
3D3V A R 65;3D3V D W 101;30.9043
3D3V A R 65;3D3V D G 102;14.4944
3D3V A K 66;3D3V A K 68;1.47564
3D3V A K 66;3D3V A A 69;13.084
3D3V A K 66;3D3V C L 1;10.556
3D3V A K 66;3D3V C L 2;24.3021
3D3V A K 66;3D3V C F 3;7.74939
3D3V A K 66;3D3V C G 4;6.97178
3D3V A K 66;3D3V C P 6;1.14117
3D3V A K 66;3D3V D G 28;1.2411
3D3V A K 66;3D3V D Q 30;9.43012
3D3V A K 66;3D3V D T 98;7.98037
3D3V A K 66;3D3V D D 99;22.7985
3D3V A K 68;3D3V A A 69;14.463
3D3V A K 68;3D3V A Q 72;10.3747
3D3V A K 68;3D3V D W 101;16.9803
3D3V A A 69;3D3V A Q 72;7.36543
3D3V A A 69;3D3V A T 73;10.2886
3D3V A A 69;3D3V C G 4;0.151431
3D3V A A 69;3D3V C P 6;12.6654
3D3V A A 69;3D3V D D 99;2.06436
3D3V A A 69;3D3V D S 100;3.39944
3D3V A A 69;3D3V D W 101;18.2368
3D3V A A 69;3D3V E L 98;15.4273
3D3V A Q 72;3D3V A T 73;16.1892
3D3V A Q 72;3D3V C Y 8;13.0321
3D3V A Q 72;3D3V D W 101;17.4462
3D3V A Q 72;3D3V E E 30;0.190286
3D3V A Q 72;3D3V E L 98;13.6329
3D3V A T 73;3D3V C P 6;17.6443
3D3V A T 73;3D3V C V 7;6.82466
3D3V A T 73;3D3V C Y 8;21.6882
3D3V A T 73;3D3V E L 98;13.2423
3D3V A A 149;3D3V A A 150;21.0423
3D3V A A 149;3D3V A H 151;15.1918
3D3V A A 149;3D3V E G 101;1.5334
3D3V A A 150;3D3V A H 151;23.5496
3D3V A A 150;3D3V A V 152;15.2872
3D3V A A 150;3D3V A Q 155;1.353
3D3V A A 150;3D3V C V 7;6.73847
3D3V A A 150;3D3V E A 99;2.64015
3D3V A A 150;3D3V E G 100;18.4062
3D3V A A 150;3D3V E G 101;13.8859
3D3V A A 150;3D3V E R 102;3.27081
3D3V A H 151;3D3V A V 152;17.1033
3D3V A H 151;3D3V A E 154;20.9575
3D3V A H 151;3D3V A Q 155;12.0036
3D3V A H 151;3D3V E G 101;5.55948
3D3V A H 151;3D3V E R 102;37.9598
3D3V A V 152;3D3V A E 154;1.45616
3D3V A V 152;3D3V A Q 155;13.4227
3D3V A V 152;3D3V C F 3;5.76998
3D3V A V 152;3D3V C V 7;23.867
3D3V A V 152;3D3V E G 100;0.253711
3D3V A E 154;3D3V A Q 155;28.8831
3D3V A E 154;3D3V A A 158;12.8111
3D3V A E 154;3D3V D Y 50;13.4987
3D3V A E 154;3D3V D K 55;2.89912
3D3V A E 154;3D3V E R 102;23.3325
3D3V A Q 155;3D3V A A 158;13.1794
3D3V A Q 155;3D3V A Y 159;7.48047
3D3V A Q 155;3D3V C F 3;21.2787
3D3V A Q 155;3D3V D S 31;2.67121
3D3V A Q 155;3D3V D Y 50;20.1515
3D3V A Q 155;3D3V E G 100;1.31689
3D3V A Q 155;3D3V E R 102;12.7056
3D3V A Q 155;3D3V E P 103;20.8842
3D3V A A 158;3D3V A Y 159;20.2814
3D3V A A 158;3D3V A E 161;4.31787
3D3V A A 158;3D3V A G 162;10.309
3D3V A A 158;3D3V A T 163;5.38933
3D3V A A 158;3D3V D Y 50;21.2842
3D3V A A 158;3D3V D S 51;21.1059
3D3V A Y 159;3D3V A E 161;1.17845
3D3V A Y 159;3D3V A G 162;4.79359
3D3V A Y 159;3D3V A T 163;26.9185
3D3V A Y 159;3D3V C L 1;12.1902
3D3V A Y 159;3D3V C L 2;8.05146
3D3V A Y 159;3D3V C F 3;28.5071
3D3V A Y 159;3D3V D Q 30;9.11541
3D3V A E 161;3D3V A G 162;23.4616
3D3V A E 161;3D3V D S 51;0.066785
3D3V A G 162;3D3V A T 163;16.4565
3D3V A G 162;3D3V A E 166;23.3155
3D3V A G 162;3D3V D S 51;6.16709
3D3V A G 162;3D3V D K 68;0.517806
3D3V A T 163;3D3V A E 166;12.095
3D3V A T 163;3D3V A W 167;23.8924
3D3V A T 163;3D3V C L 1;13.4056
3D3V A T 163;3D3V C L 2;0.0712619
3D3V A T 163;3D3V D G 28;1.004
3D3V A T 163;3D3V D S 29;0.564238
3D3V A T 163;3D3V D Q 30;18.1673
3D3V A T 163;3D3V D Y 50;1.63075
3D3V A T 163;3D3V D K 68;20.4068
3D3V A E 166;3D3V A W 167;27.5517
3D3V A E 166;3D3V A R 170;11.1819
3D3V A E 166;3D3V D N 52;14.0097
3D3V A E 166;3D3V D K 68;26.5714
3D3V A W 167;3D3V A R 170;34.6426
3D3V A W 167;3D3V C L 1;31.4673
3D3V A W 167;3D3V D R 27;28.347
3D3V A W 167;3D3V D G 28;10.5701
3D3V A W 167;3D3V D K 68;2.71344
3D3V A R 170;3D3V D R 27;32.8157
3D3V C L 1;3D3V C L 2;20.5309
3D3V C L 1;3D3V D G 28;18.2264
3D3V C L 1;3D3V D Q 30;6.51583
3D3V C L 2;3D3V C F 3;18.9773
3D3V C L 2;3D3V C G 4;0.352487
3D3V C L 2;3D3V D Q 30;6.39596
3D3V C F 3;3D3V C G 4;31.986
3D3V C F 3;3D3V C P 6;23.9983
3D3V C F 3;3D3V C V 7;0.579462
3D3V C F 3;3D3V D Q 30;3.84782
3D3V C G 4;3D3V C P 6;16.6084
3D3V C G 4;3D3V D Q 30;14.7925
3D3V C G 4;3D3V D T 98;2.7918
3D3V C G 4;3D3V D D 99;16.8148
3D3V C G 4;3D3V D S 100;15.0639
3D3V C P 6;3D3V C V 7;30.6247
3D3V C P 6;3D3V D S 100;13.2769
3D3V C P 6;3D3V E G 97;1.63694
3D3V C P 6;3D3V E L 98;15.9857
3D3V C V 7;3D3V C Y 8;30.2187
3D3V C V 7;3D3V E G 97;1.04237
3D3V C V 7;3D3V E L 98;9.44202
3D3V C V 7;3D3V E A 99;10.6327
3D3V C V 7;3D3V E G 100;20.8538
3D3V C Y 8;3D3V E E 30;23.5054
3D3V C Y 8;3D3V E L 98;24.9253
3D3V C Y 8;3D3V E A 99;16.7416
3D3V D D 26;3D3V D R 27;23.0794
3D3V D D 26;3D3V D G 28;12.1356
3D3V D D 26;3D3V D S 29;17.7819
3D3V D D 26;3D3V D T 98;20.2389
3D3V D R 27;3D3V D G 28;18.8323
3D3V D R 27;3D3V D S 29;5.88793
3D3V D R 27;3D3V D K 68;14.9489
3D3V D G 28;3D3V D S 29;21.4206
3D3V D G 28;3D3V D Q 30;10.141
3D3V D G 28;3D3V D K 68;0.23843
3D3V D G 28;3D3V D T 98;10.8064
3D3V D S 29;3D3V D Q 30;20.1714
3D3V D S 29;3D3V D S 31;0.20396
3D3V D S 29;3D3V D K 68;12.238
3D3V D S 29;3D3V D T 98;11.7845
3D3V D Q 30;3D3V D S 31;27.9347
3D3V D Q 30;3D3V D Y 50;14.7994
3D3V D Q 30;3D3V D K 68;6.2538
3D3V D Q 30;3D3V D T 98;18.546
3D3V D Q 30;3D3V D D 99;0.355561
3D3V D S 31;3D3V D Y 50;15.8059
3D3V D S 31;3D3V D T 98;0.286003
3D3V D S 31;3D3V E P 103;14.1818
3D3V D Y 50;3D3V D S 51;28.9528
3D3V D Y 50;3D3V D K 55;12.0165
3D3V D Y 50;3D3V D K 68;3.79231
3D3V D Y 50;3D3V E R 102;16.4068
3D3V D Y 50;3D3V E P 103;13.0848
3D3V D S 51;3D3V D N 52;32.1812
3D3V D S 51;3D3V D K 68;4.5484
3D3V D N 52;3D3V D K 68;20.8078
3D3V D K 55;3D3V E R 102;3.08708
3D3V D T 98;3D3V D D 99;30.093
3D3V D T 98;3D3V D G 102;7.24853
3D3V D D 99;3D3V D S 100;20.5071
3D3V D D 99;3D3V D W 101;13.3576
3D3V D D 99;3D3V D G 102;14.245
3D3V D S 100;3D3V D W 101;22.6835
3D3V D S 100;3D3V E G 97;26.4529
3D3V D S 100;3D3V E L 98;10.1789
3D3V D W 101;3D3V D G 102;18.1169
3D3V D W 101;3D3V E E 30;1.61486
3D3V D W 101;3D3V E G 97;4.91259
3D3V D W 101;3D3V E L 98;22.7778
3D3V E E 30;3D3V E G 97;4.18989
3D3V E E 30;3D3V E L 98;15.1232
3D3V E E 30;3D3V E A 99;13.6408
3D3V E G 97;3D3V E L 98;23.2335
3D3V E G 97;3D3V E A 99;1.29683
3D3V E G 97;3D3V E G 100;3.32062
3D3V E L 98;3D3V E A 99;17.1932
3D3V E L 98;3D3V E G 100;2.89098
3D3V E A 99;3D3V E G 100;25.2634
3D3V E G 100;3D3V E G 101;20.7715
3D3V E G 100;3D3V E R 102;7.09833
3D3V E G 100;3D3V E P 103;0.518724
3D3V E G 101;3D3V E R 102;30.4681
3D3V E R 102;3D3V E P 103;26.3755
