V1;V2;Weight
3U82 A P 23;3U82 A V 24;31.3267
3U82 A P 23;3U82 A L 25;15.757
3U82 A P 23;3U82 A Y 234;17.3257
3U82 A P 23;3U82 A I 238;12.6215
3U82 A P 23;3U82 B S 59;13.5592
3U82 A P 23;3U82 B P 130;20.7705
3U82 A P 23;3U82 B T 131;5.75896
3U82 A V 24;3U82 A L 25;34.5025
3U82 A V 24;3U82 A D 26;6.97562
3U82 A V 24;3U82 B S 59;4.48398
3U82 A L 25;3U82 A D 26;32.4125
3U82 A L 25;3U82 A Q 27;3.46032
3U82 A L 25;3U82 A T 230;17.1866
3U82 A L 25;3U82 A Y 234;16.3535
3U82 A L 25;3U82 B F 129;24.8071
3U82 A L 25;3U82 B P 130;13.0091
3U82 A D 26;3U82 A Q 27;27.0672
3U82 A D 26;3U82 A N 227;3.80598
3U82 A D 26;3U82 A T 230;1.57301
3U82 A D 26;3U82 B F 129;6.04287
3U82 A Q 27;3U82 A T 29;8.29539
3U82 A Q 27;3U82 A F 223;13.0067
3U82 A Q 27;3U82 A N 227;18.5426
3U82 A Q 27;3U82 B K 61;38.3646
3U82 A Q 27;3U82 B I 62;0.0957406
3U82 A Q 27;3U82 B T 63;18.9132
3U82 A Q 27;3U82 B F 129;21.3355
3U82 A T 29;3U82 B K 61;0.456824
3U82 A R 36;3U82 A V 37;23.3286
3U82 A R 36;3U82 A Q 132;13.2748
3U82 A R 36;3U82 B M 85;34.1393
3U82 A V 37;3U82 A Y 38;23.7682
3U82 A V 37;3U82 A H 39;15.8885
3U82 A V 37;3U82 A Q 132;9.98537
3U82 A V 37;3U82 B M 85;8.74637
3U82 A Y 38;3U82 A H 39;38.5025
3U82 A Y 38;3U82 A Q 132;24.6811
3U82 A Y 38;3U82 A R 134;22.7239
3U82 A Y 38;3U82 A V 214;2.70581
3U82 A Y 38;3U82 A P 221;10.8933
3U82 A Y 38;3U82 B Q 64;4.58446
3U82 A Y 38;3U82 B I 80;20.1666
3U82 A Y 38;3U82 B Y 81;0.220054
3U82 A Y 38;3U82 B N 82;13.6534
3U82 A Y 38;3U82 B M 85;17.6123
3U82 A Y 38;3U82 B G 86;7.2828
3U82 A Y 38;3U82 B V 87;4.87965
3U82 A Y 38;3U82 B S 88;24.8415
3U82 A H 39;3U82 A R 134;7.50501
3U82 A H 39;3U82 A V 214;13.2088
3U82 A H 39;3U82 A D 215;13.1684
3U82 A H 39;3U82 B S 88;3.91639
3U82 A H 39;3U82 B L 90;12.6901
3U82 A Q 132;3U82 A R 134;12.8296
3U82 A Q 132;3U82 A P 221;18.8954
3U82 A Q 132;3U82 A R 222;13.7664
3U82 A Q 132;3U82 B Q 64;3.9927
3U82 A Q 132;3U82 B N 82;4.76729
3U82 A Q 132;3U82 B M 85;20.8541
3U82 A R 134;3U82 A V 214;27.5237
3U82 A R 134;3U82 A D 215;13.197
3U82 A R 134;3U82 A M 219;28.9491
3U82 A R 134;3U82 A L 220;6.92698
3U82 A R 134;3U82 A P 221;22.5432
3U82 A R 134;3U82 B N 77;3.44006
3U82 A R 134;3U82 B I 80;5.29338
3U82 A R 134;3U82 B S 88;0.116532
3U82 A R 134;3U82 B L 90;0.778733
3U82 A Y 137;3U82 A D 139;9.83864
3U82 A Y 137;3U82 A P 198;17.3386
3U82 A Y 137;3U82 A I 217;5.30674
3U82 A Y 137;3U82 B K 75;0.89855
3U82 A D 139;3U82 A L 220;7.5909
3U82 A D 139;3U82 A R 222;21.4507
3U82 A D 139;3U82 A V 231;7.68581
3U82 A D 139;3U82 B N 133;3.04959
3U82 A P 198;3U82 A S 200;16.458
3U82 A P 198;3U82 B G 73;16.2402
3U82 A P 198;3U82 B S 74;0.100151
3U82 A S 200;3U82 B G 73;4.99594
3U82 A S 200;3U82 B S 74;7.78809
3U82 A V 214;3U82 A D 215;22.9433
3U82 A V 214;3U82 A S 216;0.672914
3U82 A V 214;3U82 A I 217;10.0415
3U82 A V 214;3U82 A G 218;2.92775
3U82 A V 214;3U82 A M 219;24.3935
3U82 A V 214;3U82 B N 77;1.36645
3U82 A D 215;3U82 A S 216;23.4978
3U82 A D 215;3U82 A I 217;1.38678
3U82 A D 215;3U82 A G 218;4.49191
3U82 A D 215;3U82 A M 219;0.015058
3U82 A D 215;3U82 B Q 76;3.46113
3U82 A D 215;3U82 B N 77;21.5957
3U82 A D 215;3U82 B I 80;0.5644
3U82 A D 215;3U82 B L 90;29.7032
3U82 A D 215;3U82 B A 91;2.55012
3U82 A S 216;3U82 A I 217;27.4328
3U82 A S 216;3U82 A G 218;1.45911
3U82 A S 216;3U82 B K 75;3.48869
3U82 A S 216;3U82 B Q 76;24.0866
3U82 A S 216;3U82 B A 91;2.00355
3U82 A I 217;3U82 A G 218;17.8482
3U82 A I 217;3U82 A M 219;15.9884
3U82 A I 217;3U82 B K 75;9.90703
3U82 A G 218;3U82 A M 219;15.7687
3U82 A G 218;3U82 A L 220;10.1435
3U82 A G 218;3U82 B Q 68;12.347
3U82 A G 218;3U82 B K 75;8.52612
3U82 A G 218;3U82 B Q 76;3.36385
3U82 A G 218;3U82 B N 77;13.0392
3U82 A M 219;3U82 A L 220;16.6523
3U82 A M 219;3U82 A P 221;2.5634
3U82 A M 219;3U82 B N 77;8.38527
3U82 A L 220;3U82 A P 221;25.5594
3U82 A L 220;3U82 A R 222;27.5774
3U82 A L 220;3U82 B Q 64;1.06771
3U82 A L 220;3U82 B T 66;16.0359
3U82 A L 220;3U82 B Q 68;14.4674
3U82 A L 220;3U82 B N 77;7.57223
3U82 A L 220;3U82 B E 125;17.3453
3U82 A L 220;3U82 B N 133;3.90016
3U82 A P 221;3U82 A R 222;26.4039
3U82 A P 221;3U82 B T 63;0.0662189
3U82 A P 221;3U82 B Q 64;30.1438
3U82 A P 221;3U82 B T 66;2.2862
3U82 A P 221;3U82 B N 77;2.27216
3U82 A P 221;3U82 B I 80;11.9973
3U82 A R 222;3U82 A F 223;53.6702
3U82 A R 222;3U82 A V 231;2.3262
3U82 A R 222;3U82 B T 63;5.00575
3U82 A R 222;3U82 B Q 64;5.80778
3U82 A R 222;3U82 B T 66;0.717997
3U82 A R 222;3U82 B E 125;6.60828
3U82 A R 222;3U82 B A 127;16.3672
3U82 A R 222;3U82 B T 128;0.0827833
3U82 A R 222;3U82 B G 132;1.08417
3U82 A R 222;3U82 B N 133;17.5103
3U82 A F 223;3U82 A N 227;15.1738
3U82 A F 223;3U82 A V 231;22.1962
3U82 A F 223;3U82 B T 63;26.4346
3U82 A F 223;3U82 B A 127;5.48727
3U82 A F 223;3U82 B T 128;8.09948
3U82 A F 223;3U82 B F 129;11.099
3U82 A N 227;3U82 A T 230;16.3683
3U82 A N 227;3U82 A V 231;12.2254
3U82 A N 227;3U82 B F 129;4.86708
3U82 A T 230;3U82 A V 231;16.1754
3U82 A T 230;3U82 A Y 234;10.4823
3U82 A T 230;3U82 B F 129;16.6199
3U82 A V 231;3U82 A Y 234;18.6972
3U82 A V 231;3U82 A S 235;6.33112
3U82 A V 231;3U82 B F 129;21.4261
3U82 A Y 234;3U82 A S 235;28.4439
3U82 A Y 234;3U82 A I 238;41.5678
3U82 A Y 234;3U82 B F 129;7.78012
3U82 A Y 234;3U82 B P 130;27.5869
3U82 A Y 234;3U82 B T 131;17.7237
3U82 A Y 234;3U82 B G 132;4.00587
3U82 A S 235;3U82 A I 238;16.2811
3U82 A S 235;3U82 B G 132;0.685462
3U82 A I 238;3U82 B T 131;4.04603
3U82 B S 59;3U82 B K 61;5.91405
3U82 B S 59;3U82 B F 129;2.70789
3U82 B S 59;3U82 B P 130;11.5639
3U82 B S 59;3U82 B T 131;1.39044
3U82 B K 61;3U82 B I 62;35.3131
3U82 B K 61;3U82 B T 63;4.40714
3U82 B K 61;3U82 B T 128;7.01168
3U82 B K 61;3U82 B F 129;22.2476
3U82 B I 62;3U82 B T 63;22.3747
3U82 B I 62;3U82 B Q 64;8.28768
3U82 B I 62;3U82 B Y 81;0.512959
3U82 B I 62;3U82 B A 127;4.71906
3U82 B I 62;3U82 B T 128;12.3955
3U82 B T 63;3U82 B Q 64;27.6496
3U82 B T 63;3U82 B N 82;14.2274
3U82 B T 63;3U82 B A 127;16.3307
3U82 B T 63;3U82 B T 128;5.53599
3U82 B T 63;3U82 B F 129;5.87806
3U82 B Q 64;3U82 B T 66;14.6956
3U82 B Q 64;3U82 B I 80;13.0263
3U82 B Q 64;3U82 B Y 81;5.7812
3U82 B Q 64;3U82 B N 82;19.5624
3U82 B Q 64;3U82 B E 125;2.72805
3U82 B Q 64;3U82 B A 127;22.0737
3U82 B T 66;3U82 B Q 68;11.1875
3U82 B T 66;3U82 B N 77;7.52916
3U82 B T 66;3U82 B I 80;15.5003
3U82 B T 66;3U82 B E 125;31.8224
3U82 B T 66;3U82 B A 127;0.374105
3U82 B Q 68;3U82 B K 75;32.6716
3U82 B Q 68;3U82 B Q 76;9.74173
3U82 B Q 68;3U82 B N 77;13.8614
3U82 B Q 68;3U82 B E 125;8.80433
3U82 B G 73;3U82 B S 74;26.5622
3U82 B G 73;3U82 B K 75;11.7596
3U82 B S 74;3U82 B K 75;24.2634
3U82 B S 74;3U82 B Q 76;8.09621
3U82 B K 75;3U82 B Q 76;19.7701
3U82 B K 75;3U82 B E 125;2.37143
3U82 B Q 76;3U82 B N 77;26.2048
3U82 B Q 76;3U82 B A 91;2.3633
3U82 B N 77;3U82 B I 80;8.87523
3U82 B N 77;3U82 B L 90;19.9534
3U82 B N 77;3U82 B A 91;3.02739
3U82 B I 80;3U82 B Y 81;20.5227
3U82 B I 80;3U82 B N 82;0.86739
3U82 B I 80;3U82 B G 86;0.957395
3U82 B I 80;3U82 B V 87;4.72488
3U82 B I 80;3U82 B S 88;28.3295
3U82 B I 80;3U82 B L 90;14.0251
3U82 B Y 81;3U82 B N 82;23.0243
3U82 B Y 81;3U82 B G 86;12.9039
3U82 B Y 81;3U82 B V 87;14.106
3U82 B N 82;3U82 B M 85;21.9681
3U82 B N 82;3U82 B G 86;18.3095
3U82 B M 85;3U82 B G 86;27.1808
3U82 B M 85;3U82 B V 87;2.55023
3U82 B G 86;3U82 B V 87;27.3214
3U82 B G 86;3U82 B S 88;0.247417
3U82 B V 87;3U82 B S 88;28.9699
3U82 B S 88;3U82 B L 90;12.3448
3U82 B L 90;3U82 B A 91;29.5626
3U82 B E 125;3U82 B A 127;8.66155
3U82 B E 125;3U82 B N 133;24.5228
3U82 B A 127;3U82 B T 128;21.7832
3U82 B A 127;3U82 B G 132;0.857831
3U82 B A 127;3U82 B N 133;10.1195
3U82 B T 128;3U82 B F 129;22.4336
3U82 B T 128;3U82 B P 130;0.408043
3U82 B T 128;3U82 B T 131;11.9101
3U82 B T 128;3U82 B G 132;32.1026
3U82 B T 128;3U82 B N 133;0.352541
3U82 B F 129;3U82 B P 130;37.9092
3U82 B F 129;3U82 B T 131;4.82355
3U82 B P 130;3U82 B T 131;21.9492
3U82 B P 130;3U82 B G 132;3.26398
3U82 B T 131;3U82 B G 132;26.187
3U82 B T 131;3U82 B N 133;2.36456
3U82 B G 132;3U82 B N 133;31.4478
