V1;V2;Weight
4JGH A P 182;4JGH A L 183;26.0437
4JGH A P 182;4JGH D W 53;14.4202
4JGH A L 183;4JGH A P 184;29.0658
4JGH A L 183;4JGH A T 185;3.88885
4JGH A L 183;4JGH A L 187;14.7277
4JGH A L 183;4JGH C M 105;8.3783
4JGH A L 183;4JGH D W 53;8.37774
4JGH A P 184;4JGH A T 185;18.4491
4JGH A P 184;4JGH A R 186;7.93397
4JGH A P 184;4JGH A L 187;20.8979
4JGH A P 184;4JGH C M 105;11.2426
4JGH A P 184;4JGH D L 52;23.3396
4JGH A P 184;4JGH D W 53;26.77
4JGH A T 185;4JGH A R 186;23.5493
4JGH A T 185;4JGH A L 187;0.109416
4JGH A T 185;4JGH D L 52;8.71092
4JGH A T 185;4JGH D D 55;15.5556
4JGH A R 186;4JGH A L 187;25.0394
4JGH A R 186;4JGH C N 108;16.5418
4JGH A R 186;4JGH D L 52;28.3572
4JGH A R 186;4JGH D Q 113;14.5175
4JGH A R 186;4JGH D I 116;27.45
4JGH A R 186;4JGH D T 117;17.8908
4JGH A L 187;4JGH C M 105;14.2536
4JGH A L 187;4JGH C N 108;18.4009
4JGH A L 187;4JGH D L 52;10.6457
4JGH C T 41;4JGH C A 44;11.4497
4JGH C T 41;4JGH C M 45;18.8231
4JGH C T 41;4JGH C F 62;0.229928
4JGH C T 41;4JGH C F 109;26.1677
4JGH C T 41;4JGH C D 111;9.29625
4JGH C T 41;4JGH D F 44;12.9575
4JGH C A 44;4JGH C M 45;14.6436
4JGH C A 44;4JGH C L 46;1.2949
4JGH C A 44;4JGH C S 47;17.0127
4JGH C A 44;4JGH D W 40;5.74241
4JGH C A 44;4JGH D F 44;15.4662
4JGH C A 44;4JGH D K 109;21.0374
4JGH C M 45;4JGH C L 46;17.0709
4JGH C M 45;4JGH C S 47;3.13465
4JGH C M 45;4JGH C G 50;6.67
4JGH C M 45;4JGH C V 60;17.0732
4JGH C M 45;4JGH C N 61;3.16645
4JGH C M 45;4JGH C F 62;14.0956
4JGH C M 45;4JGH C F 109;7.67504
4JGH C M 45;4JGH D W 40;10.0492
4JGH C M 45;4JGH D F 41;34.6462
4JGH C M 45;4JGH D F 44;24.0361
4JGH C M 45;4JGH D S 45;3.12647
4JGH C L 46;4JGH C S 47;18.0064
4JGH C L 46;4JGH C G 50;11.3557
4JGH C L 46;4JGH C Q 51;13.5432
4JGH C L 46;4JGH C F 52;15.4667
4JGH C L 46;4JGH C E 59;2.36848
4JGH C L 46;4JGH C V 60;18.3131
4JGH C L 46;4JGH D F 41;3.07091
4JGH C S 47;4JGH C G 48;22.6613
4JGH C S 47;4JGH C P 49;1.33562
4JGH C S 47;4JGH C G 50;5.76296
4JGH C S 47;4JGH C Q 51;12.1489
4JGH C S 47;4JGH D W 40;10.1271
4JGH C S 47;4JGH D K 109;19.4784
4JGH C G 48;4JGH C P 49;24.5152
4JGH C G 48;4JGH C G 50;2.64006
4JGH C G 48;4JGH C Q 51;21.9209
4JGH C G 48;4JGH D W 40;1.42568
4JGH C G 48;4JGH D I 106;16.9133
4JGH C G 48;4JGH D K 109;4.6073
4JGH C P 49;4JGH C G 50;15.0958
4JGH C P 49;4JGH C Q 51;2.78034
4JGH C P 49;4JGH D L 29;9.08229
4JGH C P 49;4JGH D V 35;26.8002
4JGH C P 49;4JGH D T 36;0.602023
4JGH C P 49;4JGH D K 37;18.4121
4JGH C P 49;4JGH D W 40;26.3815
4JGH C P 49;4JGH D I 106;12.5596
4JGH C G 50;4JGH C Q 51;17.3388
4JGH C G 50;4JGH C F 52;9.11957
4JGH C G 50;4JGH D K 37;13.1277
4JGH C G 50;4JGH D W 40;10.5997
4JGH C G 50;4JGH D F 41;6.07177
4JGH C Q 51;4JGH C F 52;43.2772
4JGH C Q 51;4JGH D K 37;14.3057
4JGH C F 52;4JGH C E 56;23.4903
4JGH C F 52;4JGH C E 59;23.5338
4JGH C F 52;4JGH D K 37;27.4479
4JGH C F 52;4JGH D F 41;3.34803
4JGH C E 56;4JGH D K 37;2.39047
4JGH C E 59;4JGH C V 60;24.4868
4JGH C E 59;4JGH C N 61;5.65776
4JGH C E 59;4JGH D K 37;0.729568
4JGH C E 59;4JGH D F 41;9.6922
4JGH C V 60;4JGH C N 61;24.583
4JGH C V 60;4JGH C F 62;17.5789
4JGH C V 60;4JGH D F 41;16.9675
4JGH C N 61;4JGH C F 62;27.1728
4JGH C N 61;4JGH C R 63;11.7868
4JGH C N 61;4JGH D Q 38;31.0869
4JGH C N 61;4JGH D F 41;23.4905
4JGH C N 61;4JGH D D 42;1.52159
4JGH C N 61;4JGH D S 45;1.23469
4JGH C F 62;4JGH C R 63;20.2485
4JGH C F 62;4JGH C E 64;2.60285
4JGH C F 62;4JGH C F 109;11.794
4JGH C F 62;4JGH D S 45;4.90397
4JGH C R 63;4JGH C E 64;51.5656
4JGH C R 63;4JGH D K 18;10.4
4JGH C R 63;4JGH D Q 38;5.17958
4JGH C R 63;4JGH D D 42;37.425
4JGH C R 63;4JGH D S 45;13.6243
4JGH C R 63;4JGH D D 46;16.7923
4JGH C E 64;4JGH D K 18;9.69385
4JGH C E 64;4JGH D S 45;21.3454
4JGH C E 64;4JGH D D 46;0.743207
4JGH C E 64;4JGH D A 49;6.94953
4JGH C M 105;4JGH C N 108;8.0671
4JGH C M 105;4JGH C F 109;10.0261
4JGH C M 105;4JGH D H 48;18.4074
4JGH C M 105;4JGH D A 49;2.0907
4JGH C M 105;4JGH D L 52;9.63439
4JGH C M 105;4JGH D W 53;24.433
4JGH C N 108;4JGH C F 109;20.1905
4JGH C N 108;4JGH C D 111;11.4582
4JGH C N 108;4JGH D H 48;9.39165
4JGH C N 108;4JGH D L 52;12.0088
4JGH C N 108;4JGH D Q 113;18.2278
4JGH C F 109;4JGH C D 111;4.51671
4JGH C F 109;4JGH D F 44;15.8357
4JGH C F 109;4JGH D S 45;17.9257
4JGH C F 109;4JGH D H 48;34.4743
4JGH C F 109;4JGH D Q 113;0.323264
4JGH C D 111;4JGH D I 116;12.3302
4JGH D K 18;4JGH D D 46;21.98
4JGH D K 18;4JGH D A 49;5.13052
4JGH D L 29;4JGH D V 35;16.7293
4JGH D L 29;4JGH D W 40;15.2345
4JGH D L 29;4JGH D I 106;11.2936
4JGH D V 35;4JGH D T 36;29.7302
4JGH D V 35;4JGH D K 37;1.44845
4JGH D V 35;4JGH D W 40;9.7623
4JGH D T 36;4JGH D K 37;23.5326
4JGH D T 36;4JGH D Q 38;12.3999
4JGH D T 36;4JGH D W 40;6.4206
4JGH D K 37;4JGH D Q 38;21.2093
4JGH D K 37;4JGH D W 40;11.6664
4JGH D K 37;4JGH D F 41;29.3978
4JGH D Q 38;4JGH D W 40;0.476951
4JGH D Q 38;4JGH D F 41;14.7079
4JGH D Q 38;4JGH D D 42;32.0814
4JGH D W 40;4JGH D F 41;24.5677
4JGH D W 40;4JGH D D 42;0.257061
4JGH D W 40;4JGH D F 44;25.7762
4JGH D W 40;4JGH D I 106;13.8778
4JGH D W 40;4JGH D K 109;11.4018
4JGH D F 41;4JGH D D 42;19.8623
4JGH D F 41;4JGH D F 44;12.1969
4JGH D F 41;4JGH D S 45;9.05286
4JGH D D 42;4JGH D F 44;0.157383
4JGH D D 42;4JGH D S 45;12.549
4JGH D D 42;4JGH D D 46;16.1763
4JGH D F 44;4JGH D S 45;16.3075
4JGH D F 44;4JGH D D 46;0.562535
4JGH D F 44;4JGH D H 48;10.163
4JGH D F 44;4JGH D K 109;13.5882
4JGH D S 45;4JGH D D 46;18.8093
4JGH D S 45;4JGH D H 48;8.61557
4JGH D S 45;4JGH D A 49;13.0252
4JGH D D 46;4JGH D H 48;1.12734
4JGH D D 46;4JGH D A 49;9.92451
4JGH D H 48;4JGH D A 49;24.9485
4JGH D H 48;4JGH D L 52;25.5809
4JGH D H 48;4JGH D Q 113;24.4259
4JGH D A 49;4JGH D L 52;4.33664
4JGH D A 49;4JGH D W 53;25.0554
4JGH D L 52;4JGH D W 53;27.57
4JGH D L 52;4JGH D Q 113;10.0726
4JGH D L 52;4JGH D T 117;3.0211
4JGH D W 53;4JGH D D 55;5.40875
4JGH D I 106;4JGH D K 109;17.9665
4JGH D Q 113;4JGH D I 116;21.0061
4JGH D Q 113;4JGH D T 117;12.4494
4JGH D I 116;4JGH D T 117;22.2998
