V1;V2;Weight
4NKQ A K 333;4NKQ A S 335;20.5499
4NKQ A K 333;4NKQ C M 79;7.23471
4NKQ A S 335;4NKQ A G 420;11.0764
4NKQ A S 335;4NKQ A Y 421;25.0852
4NKQ A S 335;4NKQ C E 21;1.85979
4NKQ A R 364;4NKQ A Y 365;41.9164
4NKQ A R 364;4NKQ A E 366;8.89767
4NKQ A R 364;4NKQ C R 24;29.4243
4NKQ A R 364;4NKQ C L 25;14.5681
4NKQ A R 364;4NKQ C L 28;17.2068
4NKQ A Y 365;4NKQ A E 366;23.4351
4NKQ A Y 365;4NKQ A H 367;20.878
4NKQ A Y 365;4NKQ A I 368;26.7624
4NKQ A Y 365;4NKQ A Y 421;0.110247
4NKQ A Y 365;4NKQ C Q 20;0.294345
4NKQ A Y 365;4NKQ C E 21;35.1475
4NKQ A Y 365;4NKQ C R 24;17.8168
4NKQ A Y 365;4NKQ C L 25;20.8384
4NKQ A E 366;4NKQ A H 367;28.7044
4NKQ A E 366;4NKQ A I 368;7.05518
4NKQ A E 366;4NKQ C R 24;26.8608
4NKQ A H 367;4NKQ A I 368;27.5799
4NKQ A H 367;4NKQ A R 418;30.599
4NKQ A H 367;4NKQ A Y 421;11.0552
4NKQ A H 367;4NKQ B V 282;3.24384
4NKQ A H 367;4NKQ C N 17;5.91556
4NKQ A H 367;4NKQ C Q 20;29.834
4NKQ A H 367;4NKQ C E 21;8.32946
4NKQ A H 367;4NKQ C R 24;2.06459
4NKQ A I 368;4NKQ A R 418;10.3545
4NKQ A I 368;4NKQ A Y 421;27.3484
4NKQ A I 368;4NKQ C E 21;0.235809
4NKQ A R 418;4NKQ A T 419;34.6759
4NKQ A R 418;4NKQ A G 420;4.06589
4NKQ A R 418;4NKQ A Y 421;27.5919
4NKQ A R 418;4NKQ B V 282;1.65038
4NKQ A R 418;4NKQ C E 14;1.41815
4NKQ A R 418;4NKQ C V 16;12.5253
4NKQ A R 418;4NKQ C N 17;19.2035
4NKQ A R 418;4NKQ C Q 20;7.10071
4NKQ A T 419;4NKQ A G 420;27.8537
4NKQ A T 419;4NKQ A Y 421;10.0649
4NKQ A T 419;4NKQ C E 14;20.9588
4NKQ A T 419;4NKQ C N 17;1.92129
4NKQ A G 420;4NKQ A Y 421;27.4667
4NKQ A G 420;4NKQ C E 14;7.1225
4NKQ A G 420;4NKQ C N 17;14.8391
4NKQ A Y 421;4NKQ C N 17;22.4405
4NKQ A Y 421;4NKQ C E 21;22.603
4NKQ B UNK 48;4NKQ B UNK 49;26.4906
4NKQ B UNK 48;4NKQ B UNK 50;6.08434
4NKQ B UNK 48;4NKQ C T 102;8.5566
4NKQ B UNK 48;4NKQ C S 105;1.46894
4NKQ B UNK 49;4NKQ B UNK 50;25.7373
4NKQ B UNK 49;4NKQ C I 100;6.22984
4NKQ B UNK 49;4NKQ C I 101;7.95968
4NKQ B UNK 49;4NKQ C T 102;2.6851
4NKQ B UNK 50;4NKQ C Q 99;25.0253
4NKQ B UNK 50;4NKQ C I 100;10.3506
4NKQ B UNK 50;4NKQ C I 101;14.0448
4NKQ B S 165;4NKQ B G 166;35.1682
4NKQ B S 165;4NKQ B L 167;6.50509
4NKQ B S 165;4NKQ C Q 50;8.5077
4NKQ B G 166;4NKQ B L 167;40.5794
4NKQ B G 166;4NKQ C Q 50;0.0451739
4NKQ B L 167;4NKQ B T 168;34.7909
4NKQ B L 167;4NKQ C Q 50;18.1187
4NKQ B T 168;4NKQ B S 169;21.693
4NKQ B T 168;4NKQ B R 170;19.7784
4NKQ B T 168;4NKQ C D 48;18.3173
4NKQ B T 168;4NKQ C Q 50;8.02428
4NKQ B T 168;4NKQ C E 51;9.14982
4NKQ B S 169;4NKQ B R 170;23.7576
4NKQ B S 169;4NKQ B D 192;11.8011
4NKQ B S 169;4NKQ B K 194;0.00466848
4NKQ B S 169;4NKQ C D 48;22.3314
4NKQ B S 169;4NKQ C L 49;11.1348
4NKQ B S 169;4NKQ C Q 50;9.24935
4NKQ B S 169;4NKQ C V 116;10.6658
4NKQ B R 170;4NKQ B L 190;43.0696
4NKQ B R 170;4NKQ B D 192;31.9997
4NKQ B R 170;4NKQ B K 195;5.66923
4NKQ B R 170;4NKQ C M 46;21.1425
4NKQ B R 170;4NKQ C F 47;2.65043
4NKQ B R 170;4NKQ C D 48;9.7756
4NKQ B R 170;4NKQ C N 109;1.40087
4NKQ B R 170;4NKQ C D 112;24.4812
4NKQ B L 190;4NKQ B D 192;8.2152
4NKQ B L 190;4NKQ C M 46;2.02902
4NKQ B D 192;4NKQ B K 194;2.65042
4NKQ B D 192;4NKQ B K 195;34.7846
4NKQ B D 192;4NKQ C D 112;0.465854
4NKQ B K 194;4NKQ B K 195;24.6137
4NKQ B K 194;4NKQ B D 231;2.86697
4NKQ B K 194;4NKQ B R 283;16.5142
4NKQ B K 194;4NKQ B I 284;26.2543
4NKQ B K 194;4NKQ C L 115;24.3403
4NKQ B K 194;4NKQ C V 116;5.56464
4NKQ B K 195;4NKQ B I 284;21.8344
4NKQ B K 195;4NKQ C D 112;15.8845
4NKQ B K 195;4NKQ C L 115;19.6706
4NKQ B L 230;4NKQ B D 231;27.2803
4NKQ B L 230;4NKQ B V 282;9.1762
4NKQ B L 230;4NKQ B R 283;1.533
4NKQ B L 230;4NKQ C E 14;18.1611
4NKQ B L 230;4NKQ C V 16;34.7531
4NKQ B L 230;4NKQ C P 118;6.40307
4NKQ B D 231;4NKQ B V 282;19.7182
4NKQ B D 231;4NKQ B R 283;16.2064
4NKQ B D 231;4NKQ C P 118;12.824
4NKQ B V 282;4NKQ B R 283;29.8936
4NKQ B V 282;4NKQ B I 284;0.177053
4NKQ B V 282;4NKQ B L 285;15.3727
4NKQ B V 282;4NKQ C V 16;4.6689
4NKQ B V 282;4NKQ C Q 20;24.8937
4NKQ B V 282;4NKQ C R 23;4.09771
4NKQ B R 283;4NKQ B I 284;30.8878
4NKQ B R 283;4NKQ B L 285;3.35803
4NKQ B R 283;4NKQ C I 19;12.7236
4NKQ B R 283;4NKQ C Q 20;8.87988
4NKQ B R 283;4NKQ C R 23;32.3934
4NKQ B R 283;4NKQ C L 114;10.8105
4NKQ B R 283;4NKQ C L 115;25.01
4NKQ B R 283;4NKQ C V 116;4.8661
4NKQ B R 283;4NKQ C I 117;16.362
4NKQ B R 283;4NKQ C P 118;8.34813
4NKQ B I 284;4NKQ B L 285;31.6895
4NKQ B I 284;4NKQ C L 115;8.01238
4NKQ B L 285;4NKQ C R 23;5.26727
4NKQ C E 14;4NKQ C V 16;17.329
4NKQ C E 14;4NKQ C N 17;16.9001
4NKQ C E 14;4NKQ C M 79;3.49644
4NKQ C V 16;4NKQ C N 17;17.922
4NKQ C V 16;4NKQ C I 19;20.3851
4NKQ C V 16;4NKQ C Q 20;23.051
4NKQ C V 16;4NKQ C P 118;1.93296
4NKQ C N 17;4NKQ C I 19;0.79814
4NKQ C N 17;4NKQ C Q 20;7.71273
4NKQ C N 17;4NKQ C E 21;16.3722
4NKQ C I 19;4NKQ C Q 20;20.3102
4NKQ C I 19;4NKQ C E 21;0.886063
4NKQ C I 19;4NKQ C R 23;16.2198
4NKQ C I 19;4NKQ C L 114;20.5562
4NKQ C I 19;4NKQ C I 117;17.7727
4NKQ C I 19;4NKQ C P 118;7.0534
4NKQ C Q 20;4NKQ C E 21;15.9789
4NKQ C Q 20;4NKQ C R 23;22.0489
4NKQ C Q 20;4NKQ C R 24;13.9994
4NKQ C E 21;4NKQ C R 23;0.469851
4NKQ C E 21;4NKQ C R 24;5.3792
4NKQ C E 21;4NKQ C L 25;14.3857
4NKQ C R 23;4NKQ C R 24;19.1598
4NKQ C R 23;4NKQ C L 25;1.20676
4NKQ C R 23;4NKQ C L 114;23.3938
4NKQ C R 23;4NKQ C L 115;19.2817
4NKQ C R 24;4NKQ C L 25;19.6068
4NKQ C R 24;4NKQ C L 28;38.9986
4NKQ C L 25;4NKQ C L 28;15.7337
4NKQ C M 46;4NKQ C F 47;24.5311
4NKQ C M 46;4NKQ C D 48;9.04448
4NKQ C M 46;4NKQ C Q 99;16.3385
4NKQ C M 46;4NKQ C N 109;23.303
4NKQ C F 47;4NKQ C D 48;36.7239
4NKQ C F 47;4NKQ C L 49;9.52893
4NKQ C F 47;4NKQ C N 109;2.98591
4NKQ C F 47;4NKQ C V 116;20.2095
4NKQ C F 47;4NKQ C I 117;7.65952
4NKQ C D 48;4NKQ C L 49;20.4105
4NKQ C D 48;4NKQ C Q 50;8.16964
4NKQ C D 48;4NKQ C E 51;17.7828
4NKQ C D 48;4NKQ C V 116;6.54118
4NKQ C L 49;4NKQ C Q 50;37.8275
4NKQ C L 49;4NKQ C E 51;4.39
4NKQ C L 49;4NKQ C V 116;24.9458
4NKQ C L 49;4NKQ C I 117;1.56103
4NKQ C L 49;4NKQ C P 118;20.0226
4NKQ C Q 50;4NKQ C E 51;28.1444
4NKQ C Q 99;4NKQ C I 100;29.6364
4NKQ C Q 99;4NKQ C I 101;11.719
4NKQ C I 100;4NKQ C I 101;26.8415
4NKQ C I 101;4NKQ C T 102;33.4452
4NKQ C I 101;4NKQ C S 105;25.6152
4NKQ C I 101;4NKQ C N 109;7.43392
4NKQ C T 102;4NKQ C S 105;20.1799
4NKQ C S 105;4NKQ C N 109;8.24981
4NKQ C N 109;4NKQ C D 112;15.7305
4NKQ C D 112;4NKQ C L 114;0.544884
4NKQ C D 112;4NKQ C L 115;23.0514
4NKQ C D 112;4NKQ C V 116;11.0257
4NKQ C L 114;4NKQ C L 115;14.5198
4NKQ C L 114;4NKQ C V 116;1.3978
4NKQ C L 114;4NKQ C I 117;13.6162
4NKQ C L 115;4NKQ C V 116;24.1219
4NKQ C V 116;4NKQ C I 117;25.6922
4NKQ C V 116;4NKQ C P 118;6.5608
4NKQ C I 117;4NKQ C P 118;39.4369
