V1;V2;Weight
5DWU A Y 39;5DWU A F 103;35.1984
5DWU A Y 39;5DWU A V 104;12.6637
5DWU A Y 39;5DWU A V 105;7.79477
5DWU A Y 39;5DWU B S 335;7.30123
5DWU A Y 39;5DWU B R 364;3.64397
5DWU A Y 39;5DWU B Y 365;15.7775
5DWU A Y 39;5DWU B Y 421;15.2704
5DWU A Y 39;5DWU H D 101;7.67183
5DWU A R 64;5DWU A V 65;26.0561
5DWU A R 64;5DWU A N 66;12.0644
5DWU A R 64;5DWU A D 109;8.2508
5DWU A R 64;5DWU H F 57;8.69982
5DWU A V 65;5DWU A N 66;32.1293
5DWU A V 65;5DWU H S 54;0.0807098
5DWU A V 65;5DWU H G 56;20.1524
5DWU A V 65;5DWU H F 57;19.9662
5DWU A N 66;5DWU H G 55;2.36945
5DWU A N 66;5DWU H G 56;13.3334
5DWU A N 66;5DWU H F 57;11.1579
5DWU A N 66;5DWU H P 58;7.93424
5DWU A Q 101;5DWU A S 102;26.4515
5DWU A Q 101;5DWU B R 364;13.4468
5DWU A Q 101;5DWU H P 30;1.13347
5DWU A Q 101;5DWU H W 31;25.1723
5DWU A Q 101;5DWU H S 53;17.8199
5DWU A Q 101;5DWU H S 54;6.03506
5DWU A Q 101;5DWU H N 74;2.47543
5DWU A S 102;5DWU A F 103;40.4063
5DWU A S 102;5DWU A V 104;0.218333
5DWU A S 102;5DWU A D 107;1.9704
5DWU A S 102;5DWU B R 364;5.48738
5DWU A S 102;5DWU B Y 365;0.0912067
5DWU A S 102;5DWU H W 31;8.47013
5DWU A S 102;5DWU H Y 32;0.679432
5DWU A S 102;5DWU H R 33;5.05818
5DWU A S 102;5DWU H R 52;19.2246
5DWU A S 102;5DWU H S 53;19.189
5DWU A F 103;5DWU A V 104;25.7086
5DWU A F 103;5DWU A D 107;4.75325
5DWU A F 103;5DWU B R 364;3.50681
5DWU A F 103;5DWU B Y 365;18.9425
5DWU A F 103;5DWU H R 52;4.01902
5DWU A F 103;5DWU H D 101;0.0102812
5DWU A V 104;5DWU A V 105;22.8514
5DWU A V 104;5DWU A T 106;14.4837
5DWU A V 104;5DWU A D 107;21.2517
5DWU A V 104;5DWU B S 335;0.381172
5DWU A V 104;5DWU B Y 365;7.85712
5DWU A V 104;5DWU H R 33;6.29414
5DWU A V 104;5DWU H R 52;17.2669
5DWU A V 104;5DWU H F 99;20.9801
5DWU A V 104;5DWU H D 101;20.8582
5DWU A V 104;5DWU H S 102;1.59533
5DWU A V 105;5DWU A T 106;22.8757
5DWU A V 105;5DWU A D 107;9.43645
5DWU A V 105;5DWU A V 108;0.774217
5DWU A V 105;5DWU B S 335;24.557
5DWU A V 105;5DWU B Y 421;7.08759
5DWU A V 105;5DWU H D 101;10.8645
5DWU A V 105;5DWU H S 102;11.4892
5DWU A V 105;5DWU L W 32;30.2622
5DWU A V 105;5DWU L A 91;8.82469
5DWU A V 105;5DWU L N 92;5.46279
5DWU A T 106;5DWU A D 107;23.5744
5DWU A T 106;5DWU A V 108;12.0232
5DWU A T 106;5DWU H R 52;5.00924
5DWU A T 106;5DWU H Y 59;0.783264
5DWU A T 106;5DWU H F 99;13.4616
5DWU A T 106;5DWU L A 91;10.0677
5DWU A T 106;5DWU L N 92;6.82881
5DWU A T 106;5DWU L S 93;12.0183
5DWU A T 106;5DWU L F 94;37.9034
5DWU A T 106;5DWU L I 96;5.23538
5DWU A D 107;5DWU A V 108;28.925
5DWU A D 107;5DWU A D 109;7.74961
5DWU A D 107;5DWU H R 52;25.4957
5DWU A D 107;5DWU H F 57;3.21845
5DWU A V 108;5DWU A D 109;38.301
5DWU A V 108;5DWU H F 57;8.93654
5DWU A V 108;5DWU H Y 59;0.807267
5DWU A D 109;5DWU H F 57;14.521
5DWU B S 335;5DWU B V 336;25.3916
5DWU B S 335;5DWU B G 420;4.68073
5DWU B S 335;5DWU B Y 421;20.9596
5DWU B S 335;5DWU L W 32;7.15385
5DWU B V 336;5DWU B G 420;9.11748
5DWU B V 336;5DWU B Y 421;3.79364
5DWU B V 336;5DWU L W 32;0.000548965
5DWU B R 364;5DWU B Y 365;37.0459
5DWU B R 364;5DWU B E 366;8.75077
5DWU B R 364;5DWU H P 30;22.2347
5DWU B R 364;5DWU H W 31;8.50886
5DWU B R 364;5DWU H Y 32;32.8885
5DWU B R 364;5DWU H Y 100;4.22372
5DWU B Y 365;5DWU B E 366;15.7203
5DWU B Y 365;5DWU B H 367;15.1768
5DWU B Y 365;5DWU B Y 421;0.758203
5DWU B Y 365;5DWU H Y 32;25.0093
5DWU B Y 365;5DWU H R 33;1.00398
5DWU B Y 365;5DWU H F 99;2.4403
5DWU B Y 365;5DWU H Y 100;27.8966
5DWU B Y 365;5DWU H D 101;23.2751
5DWU B E 366;5DWU B H 367;35.0723
5DWU B E 366;5DWU H Y 100;17.3611
5DWU B H 367;5DWU B Y 421;5.5064
5DWU B H 367;5DWU H Y 100;15.7588
5DWU B H 367;5DWU H D 101;12.7002
5DWU B H 367;5DWU H F 103;9.31409
5DWU B H 367;5DWU L Y 49;31.2451
5DWU B H 367;5DWU L A 50;1.25476
5DWU B T 419;5DWU B G 420;28.8966
5DWU B T 419;5DWU B Y 421;13.6918
5DWU B T 419;5DWU L S 30;4.95022
5DWU B T 419;5DWU L S 31;20.3939
5DWU B G 420;5DWU B Y 421;21.6173
5DWU B G 420;5DWU L S 30;11.0674
5DWU B G 420;5DWU L S 31;7.38323
5DWU B G 420;5DWU L W 32;28.9722
5DWU B Y 421;5DWU H D 101;12.2702
5DWU B Y 421;5DWU L W 32;21.8425
5DWU H P 30;5DWU H W 31;27.4779
5DWU H P 30;5DWU H Y 32;7.08837
5DWU H W 31;5DWU H Y 32;48.8811
5DWU H W 31;5DWU H R 33;5.30813
5DWU H W 31;5DWU H S 53;19.4549
5DWU H W 31;5DWU H N 74;34.4161
5DWU H Y 32;5DWU H R 33;30.1585
5DWU H Y 32;5DWU H F 99;2.01888
5DWU H Y 32;5DWU H Y 100;14.8879
5DWU H R 33;5DWU H R 52;21.3107
5DWU H R 33;5DWU H S 53;3.68532
5DWU H R 33;5DWU H F 99;21.7677
5DWU H R 52;5DWU H S 53;32.0697
5DWU H R 52;5DWU H S 54;5.5845
5DWU H R 52;5DWU H G 55;7.39883
5DWU H R 52;5DWU H G 56;10.6405
5DWU H R 52;5DWU H F 57;22.7913
5DWU H R 52;5DWU H Y 59;6.23602
5DWU H R 52;5DWU H F 99;2.00748
5DWU H R 52;5DWU L F 94;5.11502
5DWU H S 53;5DWU H S 54;26.8796
5DWU H S 53;5DWU H G 55;2.60675
5DWU H S 53;5DWU H N 74;18.3237
5DWU H S 54;5DWU H G 55;23.4387
5DWU H S 54;5DWU H G 56;10.9757
5DWU H S 54;5DWU H N 74;3.21973
5DWU H G 55;5DWU H G 56;26.3562
5DWU H G 55;5DWU H F 57;1.02816
5DWU H G 55;5DWU H P 58;2.79926
5DWU H G 56;5DWU H F 57;27.0691
5DWU H G 56;5DWU H P 58;10.2056
5DWU H F 57;5DWU H P 58;26.6071
5DWU H F 57;5DWU H Y 59;36.0273
5DWU H P 58;5DWU H Y 59;30.6875
5DWU H Y 59;5DWU L F 94;42.2636
5DWU H F 99;5DWU H Y 100;15.9732
5DWU H F 99;5DWU H D 101;17.9578
5DWU H F 99;5DWU H S 102;9.8275
5DWU H F 99;5DWU H F 103;11.4338
5DWU H F 99;5DWU L A 91;3.28003
5DWU H F 99;5DWU L F 94;2.03008
5DWU H F 99;5DWU L I 96;16.1558
5DWU H Y 100;5DWU H D 101;23.1271
5DWU H Y 100;5DWU H S 102;1.50389
5DWU H Y 100;5DWU H F 103;41.5966
5DWU H D 101;5DWU H S 102;24.3119
5DWU H D 101;5DWU H F 103;7.98633
5DWU H D 101;5DWU L W 32;4.39242
5DWU H S 102;5DWU H F 103;31.8155
5DWU H S 102;5DWU L W 32;17.2542
5DWU H S 102;5DWU L A 50;8.12056
5DWU H S 102;5DWU L A 91;21.7332
5DWU H S 102;5DWU L I 96;0.188121
5DWU H F 103;5DWU L Y 49;29.7936
5DWU H F 103;5DWU L A 50;3.59004
5DWU L S 30;5DWU L S 31;26.7774
5DWU L S 30;5DWU L W 32;10.3748
5DWU L S 30;5DWU L N 92;5.0258
5DWU L S 31;5DWU L W 32;24.2321
5DWU L S 31;5DWU L A 50;14.6929
5DWU L W 32;5DWU L A 50;9.83622
5DWU L W 32;5DWU L A 91;16.5779
5DWU L W 32;5DWU L N 92;24.4828
5DWU L Y 49;5DWU L A 50;30.9455
5DWU L A 91;5DWU L N 92;17.7647
5DWU L A 91;5DWU L S 93;5.21251
5DWU L A 91;5DWU L I 96;11.2384
5DWU L N 92;5DWU L S 93;35.0613
5DWU L S 93;5DWU L F 94;35.6459
5DWU L S 93;5DWU L I 96;8.34873
5DWU L F 94;5DWU L I 96;17.721
