c<C>r<13>R<LYS> 1
c<C>r<14>R<ARG> 1
c<C>r<15>R<HIS> 1.33333
c<C>r<16>R<GLY> 2
c<C>r<18>R<ASP> 1.33333
c<C>r<19>R<ASN> 1.5
c<C>r<20>R<TYR> 2.71429
c<C>r<21>R<ARG> 1.5
c<C>r<22>R<GLY> 1
c<C>r<62>R<TRP> 1
c<C>r<63>R<TRP> 1.5
c<C>r<72>R<SER> 1
c<C>r<73>R<ARG> 1.375
c<C>r<74>R<ASN> 2
c<C>r<75>R<LEU> 2.16667
c<C>r<77>R<ASN> 1
c<C>r<89>R<THR> 1.33333
c<C>r<93>R<ASN> 1.33333
c<C>r<96>R<LYS> 2.33333
c<C>r<97>R<LYS> 1.625
c<C>r<98>R<ILE> 1
c<C>r<99>R<VAL> 1
c<C>r<100>R<SER> 2.2
c<C>r<101>R<ASP> 2.125
c<C>r<102>R<GLY> 1.33333
c<C>r<103>R<ASN> 1
c<C>r<104>R<GLY> 1
c<C>r<107>R<ALA> 1
