c<B>r<1>a<1901>R<GLU>A<CG> 1
c<B>r<1>a<1902>R<GLU>A<CD> 1
c<B>r<1>a<1903>R<GLU>A<OE1> 1
c<B>r<30>a<2101>R<SER>A<O> 1
c<B>r<30>a<2103>R<SER>A<OG> 1
c<B>r<31>a<2104>R<SER>A<N> 2
c<B>r<31>a<2105>R<SER>A<CA> 2
c<B>r<31>a<2106>R<SER>A<C> 2
c<B>r<31>a<2108>R<SER>A<CB> 2
c<B>r<31>a<2109>R<SER>A<OG> 1
c<B>r<32>a<2110>R<TYR>A<N> 2
c<B>r<32>a<2113>R<TYR>A<O> 2
c<B>r<32>a<2119>R<TYR>A<CE2> 2
c<B>r<32>a<2120>R<TYR>A<CZ> 2
c<B>r<32>a<2121>R<TYR>A<OH> 1
c<B>r<37>a<2160>R<VAL>A<CG1> 2
c<B>r<37>a<2161>R<VAL>A<CG2> 2
c<B>r<39>a<2177>R<GLN>A<CB> 2
c<B>r<39>a<2178>R<GLN>A<CG> 1
c<B>r<39>a<2180>R<GLN>A<OE1> 1
c<B>r<39>a<2181>R<GLN>A<NE2> 1
c<B>r<43>a<2193>R<GLN>A<C> 1
c<B>r<43>a<2194>R<GLN>A<O> 1
c<B>r<44>a<2200>R<GLY>A<N> 1
c<B>r<44>a<2201>R<GLY>A<CA> 1
c<B>r<45>a<2204>R<LEU>A<N> 2
c<B>r<45>a<2206>R<LEU>A<C> 2
c<B>r<45>a<2207>R<LEU>A<O> 1
c<B>r<45>a<2208>R<LEU>A<CB> 2
c<B>r<45>a<2209>R<LEU>A<CG> 2
c<B>r<45>a<2210>R<LEU>A<CD1> 1
c<B>r<45>a<2211>R<LEU>A<CD2> 2
c<B>r<46>a<2212>R<GLU>A<N> 2
c<B>r<46>a<2213>R<GLU>A<CA> 1
c<B>r<46>a<2214>R<GLU>A<C> 2
c<B>r<47>a<2221>R<TRP>A<N> 1
c<B>r<47>a<2222>R<TRP>A<CA> 2
c<B>r<47>a<2224>R<TRP>A<O> 1
c<B>r<47>a<2225>R<TRP>A<CB> 2
c<B>r<47>a<2226>R<TRP>A<CG> 3
c<B>r<47>a<2227>R<TRP>A<CD1> 3
c<B>r<47>a<2228>R<TRP>A<CD2> 3
c<B>r<47>a<2229>R<TRP>A<NE1> 3
c<B>r<47>a<2230>R<TRP>A<CE2> 2
c<B>r<47>a<2231>R<TRP>A<CE3> 2
c<B>r<47>a<2232>R<TRP>A<CZ2> 2
c<B>r<47>a<2233>R<TRP>A<CZ3> 2
c<B>r<47>a<2234>R<TRP>A<CH2> 1
c<B>r<52>a<2265>R<ILE>A<CG2> 2
c<B>r<52>a<2266>R<ILE>A<CD1> 2
c<B>r<53>a<2276>R<ILE>A<C> 2
c<B>r<53>a<2278>R<ILE>A<CB> 2
c<B>r<53>a<2280>R<ILE>A<CG2> 1
c<B>r<53>a<2281>R<ILE>A<CD1> 1
c<B>r<54>a<2282>R<PHE>A<N> 2
c<B>r<54>a<2286>R<PHE>A<CB> 1
c<B>r<54>a<2287>R<PHE>A<CG> 1
c<B>r<54>a<2288>R<PHE>A<CD1> 1
c<B>r<54>a<2289>R<PHE>A<CD2> 1
c<B>r<54>a<2290>R<PHE>A<CE1> 1
c<B>r<54>a<2291>R<PHE>A<CE2> 1
c<B>r<54>a<2292>R<PHE>A<CZ> 1
c<B>r<58>a<2313>R<ASN>A<CB> 1
c<B>r<58>a<2316>R<ASN>A<ND2> 1
c<B>r<59>a<2317>R<TYR>A<N> 1
c<B>r<59>a<2320>R<TYR>A<O> 1
c<B>r<60>a<2330>R<ALA>A<CA> 2
c<B>r<60>a<2333>R<ALA>A<CB> 1
c<B>r<61>a<2334>R<GLN>A<N> 1
c<B>r<61>a<2338>R<GLN>A<CB> 1
c<B>r<61>a<2339>R<GLN>A<CG> 1
c<B>r<61>a<2342>R<GLN>A<NE2> 1
c<B>r<62>a<2343>R<LYS>A<N> 1
c<B>r<91>a<2599>R<TYR>A<CG> 3
c<B>r<91>a<2600>R<TYR>A<CD1> 2
c<B>r<91>a<2601>R<TYR>A<CD2> 3
c<B>r<91>a<2602>R<TYR>A<CE1> 2
c<B>r<91>a<2603>R<TYR>A<CE2> 2
c<B>r<91>a<2604>R<TYR>A<CZ> 2
c<B>r<91>a<2605>R<TYR>A<OH> 1
c<B>r<96>a<2642>R<PHE>A<CD2> 2
c<B>r<96>a<2643>R<PHE>A<CE1> 1
c<B>r<96>a<2644>R<PHE>A<CE2> 1
c<B>r<96>a<2645>R<PHE>A<CZ> 1
c<B>r<97>a<2651>R<HIS>A<CG> 2
c<B>r<97>a<2652>R<HIS>A<ND1> 2
c<B>r<97>a<2653>R<HIS>A<CD2> 1
c<B>r<97>a<2654>R<HIS>A<CE1> 2
c<B>r<97>a<2655>R<HIS>A<NE2> 1
c<B>r<98>a<2661>R<ILE>A<CG1> 3
c<B>r<98>a<2663>R<ILE>A<CD1> 2
c<B>r<99>a<2666>R<ARG>A<C> 2
c<B>r<99>a<2667>R<ARG>A<O> 1
c<B>r<99>a<2668>R<ARG>A<CB> 2
c<B>r<99>a<2669>R<ARG>A<CG> 1
c<B>r<99>a<2670>R<ARG>A<CD> 2
c<B>r<99>a<2671>R<ARG>A<NE> 2
c<B>r<99>a<2672>R<ARG>A<CZ> 2
c<B>r<99>a<2673>R<ARG>A<NH1> 1
c<B>r<99>a<2674>R<ARG>A<NH2> 1
c<B>r<100>a<2675>R<ARG>A<N> 2
c<B>r<100>a<2676>R<ARG>A<CA> 2
c<B>r<100>a<2678>R<ARG>A<O> 1
c<B>r<100>a<2679>R<ARG>A<CB> 1
c<B>r<100>a<2680>R<ARG>A<CG> 1
c<B>r<100>a<2681>R<ARG>A<CD> 1
c<B>r<100>a<2682>R<ARG>A<NE> 1
c<B>r<100>a<2683>R<ARG>A<CZ> 1
c<B>r<100>a<2684>R<ARG>A<NH1> 1
c<B>r<100>a<2685>R<ARG>A<NH2> 1
c<B>r<100>i<A>a<2687>R<TYR>A<CA> 2
c<B>r<100>i<A>a<2689>R<TYR>A<O> 1
c<B>r<100>i<A>a<2690>R<TYR>A<CB> 2
c<B>r<100>i<A>a<2692>R<TYR>A<CD1> 1
c<B>r<100>i<A>a<2694>R<TYR>A<CE1> 1
c<B>r<100>i<A>a<2696>R<TYR>A<CZ> 2
c<B>r<100>i<A>a<2697>R<TYR>A<OH> 1
c<B>r<100>i<B>a<2698>R<ARG>A<N> 2
c<B>r<100>i<B>a<2699>R<ARG>A<CA> 2
c<B>r<100>i<B>a<2700>R<ARG>A<C> 2
c<B>r<100>i<B>a<2701>R<ARG>A<O> 1
c<B>r<100>i<B>a<2702>R<ARG>A<CB> 1
c<B>r<100>i<B>a<2703>R<ARG>A<CG> 1
c<B>r<100>i<B>a<2704>R<ARG>A<CD> 1
c<B>r<100>i<B>a<2705>R<ARG>A<NE> 2
c<B>r<100>i<B>a<2706>R<ARG>A<CZ> 2
c<B>r<100>i<B>a<2707>R<ARG>A<NH1> 1
c<B>r<100>i<B>a<2708>R<ARG>A<NH2> 1
c<B>r<100>i<C>a<2709>R<SER>A<N> 1
c<B>r<100>i<C>a<2710>R<SER>A<CA> 2
c<B>r<100>i<C>a<2711>R<SER>A<C> 2
c<B>r<100>i<C>a<2712>R<SER>A<O> 1
c<B>r<100>i<C>a<2713>R<SER>A<CB> 1
c<B>r<100>i<C>a<2714>R<SER>A<OG> 1
c<B>r<100>i<E>a<2719>R<TYR>A<N> 2
c<B>r<100>i<F>a<2731>R<TYR>A<N> 3
c<B>r<100>i<F>a<2733>R<TYR>A<C> 3
c<B>r<100>i<F>a<2734>R<TYR>A<O> 3
c<B>r<100>i<F>a<2735>R<TYR>A<CB> 2
c<B>r<100>i<F>a<2738>R<TYR>A<CD2> 1
c<B>r<100>i<G>a<2743>R<ASP>A<N> 3
c<B>r<100>i<G>a<2744>R<ASP>A<CA> 3
c<B>r<100>i<G>a<2745>R<ASP>A<C> 3
c<B>r<100>i<G>a<2746>R<ASP>A<O> 3
c<B>r<100>i<G>a<2747>R<ASP>A<CB> 2
c<B>r<100>i<G>a<2748>R<ASP>A<CG> 2
c<B>r<100>i<G>a<2749>R<ASP>A<OD1> 2
c<B>r<100>i<G>a<2750>R<ASP>A<OD2> 1
c<B>r<100>i<H>a<2751>R<LYS>A<N> 3
c<B>r<100>i<H>a<2752>R<LYS>A<CA> 3
c<B>r<100>i<H>a<2753>R<LYS>A<C> 2
c<B>r<100>i<H>a<2754>R<LYS>A<O> 2
c<B>r<100>i<H>a<2755>R<LYS>A<CB> 2
c<B>r<100>i<H>a<2756>R<LYS>A<CG> 2
c<B>r<100>i<H>a<2757>R<LYS>A<CD> 2
c<B>r<100>i<H>a<2758>R<LYS>A<CE> 2
c<B>r<100>i<H>a<2759>R<LYS>A<NZ> 2
c<B>r<100>i<I>a<2760>R<MET>A<N> 3
c<B>r<100>i<I>a<2762>R<MET>A<C> 2
c<B>r<100>i<I>a<2763>R<MET>A<O> 2
c<B>r<100>i<I>a<2764>R<MET>A<CB> 2
c<B>r<100>i<I>a<2765>R<MET>A<CG> 3
c<B>r<100>i<I>a<2767>R<MET>A<CE> 2
c<B>r<101>a<2768>R<ASP>A<N> 2
c<B>r<101>a<2769>R<ASP>A<CA> 2
c<B>r<101>a<2771>R<ASP>A<O> 1
c<B>r<101>a<2772>R<ASP>A<CB> 1
c<B>r<101>a<2775>R<ASP>A<OD2> 1
c<B>r<102>a<2784>R<HIS>A<CE1> 1
c<B>r<102>a<2785>R<HIS>A<NE2> 1
c<B>r<103>a<2789>R<TRP>A<O> 1
c<B>r<103>a<2790>R<TRP>A<CB> 1
c<B>r<103>a<2791>R<TRP>A<CG> 2
c<B>r<103>a<2792>R<TRP>A<CD1> 1
c<B>r<103>a<2793>R<TRP>A<CD2> 2
c<B>r<103>a<2794>R<TRP>A<NE1> 2
c<B>r<103>a<2795>R<TRP>A<CE2> 2
c<B>r<103>a<2796>R<TRP>A<CE3> 2
c<B>r<103>a<2797>R<TRP>A<CZ2> 1
c<B>r<103>a<2798>R<TRP>A<CZ3> 2
c<B>r<103>a<2799>R<TRP>A<CH2> 1
c<B>r<104>a<2803>R<GLY>A<O> 1
c<B>r<105>a<2805>R<GLN>A<CA> 1
c<B>r<105>a<2806>R<GLN>A<C> 2
c<B>r<105>a<2807>R<GLN>A<O> 1
c<B>r<120>a<2911>R<SER>A<OG> 1
c<B>r<121>a<2915>R<VAL>A<O> 1
c<B>r<122>a<2923>R<PHE>A<CB> 1
c<B>r<122>a<2924>R<PHE>A<CG> 2
c<B>r<122>a<2925>R<PHE>A<CD1> 1
c<B>r<122>a<2926>R<PHE>A<CD2> 2
c<B>r<122>a<2927>R<PHE>A<CE1> 1
c<B>r<122>a<2928>R<PHE>A<CE2> 1
c<B>r<122>a<2929>R<PHE>A<CZ> 1
c<B>r<123>a<2930>R<PRO>A<N> 2
c<B>r<123>a<2933>R<PRO>A<O> 1
c<B>r<123>a<2935>R<PRO>A<CG> 1
c<B>r<123>a<2936>R<PRO>A<CD> 2
c<B>r<124>a<2938>R<LEU>A<CA> 1
c<B>r<124>a<2939>R<LEU>A<C> 2
c<B>r<124>a<2940>R<LEU>A<O> 2
c<B>r<124>a<2941>R<LEU>A<CB> 2
c<B>r<124>a<2943>R<LEU>A<CD1> 1
c<B>r<124>a<2944>R<LEU>A<CD2> 1
c<B>r<125>a<2945>R<ALA>A<N> 1
c<B>r<125>a<2948>R<ALA>A<O> 1
c<B>r<127>a<2957>R<SER>A<N> 1
c<B>r<127>a<2961>R<SER>A<CB> 1
c<B>r<127>a<2962>R<SER>A<OG> 1
c<B>r<129>a<2975>R<LYS>A<CD> 1
c<B>r<129>a<2976>R<LYS>A<CE> 1
c<B>r<135>a<3014>R<THR>A<O> 1
c<B>r<135>a<3015>R<THR>A<CB> 1
c<B>r<135>a<3017>R<THR>A<CG2> 1
c<B>r<136>a<3019>R<ALA>A<CA> 1
c<B>r<136>a<3020>R<ALA>A<C> 2
c<B>r<136>a<3021>R<ALA>A<O> 2
c<B>r<137>a<3023>R<ALA>A<N> 1
c<B>r<137>a<3025>R<ALA>A<C> 2
c<B>r<137>a<3026>R<ALA>A<O> 1
c<B>r<137>a<3027>R<ALA>A<CB> 2
c<B>r<138>a<3028>R<LEU>A<N> 2
c<B>r<138>a<3029>R<LEU>A<CA> 2
c<B>r<138>a<3030>R<LEU>A<C> 2
c<B>r<138>a<3031>R<LEU>A<O> 2
c<B>r<139>a<3036>R<GLY>A<N> 2
c<B>r<139>a<3037>R<GLY>A<CA> 2
c<B>r<141>a<3050>R<LEU>A<CB> 2
c<B>r<141>a<3052>R<LEU>A<CD1> 1
c<B>r<141>a<3053>R<LEU>A<CD2> 1
c<B>r<143>a<3067>R<LYS>A<CD> 1
c<B>r<143>a<3068>R<LYS>A<CE> 1
c<B>r<143>a<3069>R<LYS>A<NZ> 1
c<B>r<144>a<3077>R<ASP>A<OD2> 1
c<B>r<162>a<3213>R<GLY>A<CA> 1
c<B>r<162>a<3215>R<GLY>A<O> 1
c<B>r<164>a<3224>R<HIS>A<CA> 1
c<B>r<164>a<3225>R<HIS>A<C> 2
c<B>r<164>a<3227>R<HIS>A<CB> 2
c<B>r<164>a<3228>R<HIS>A<CG> 2
c<B>r<164>a<3229>R<HIS>A<ND1> 1
c<B>r<164>a<3230>R<HIS>A<CD2> 2
c<B>r<164>a<3231>R<HIS>A<CE1> 1
c<B>r<164>a<3232>R<HIS>A<NE2> 1
c<B>r<165>a<3233>R<THR>A<N> 1
c<B>r<165>a<3235>R<THR>A<C> 2
c<B>r<165>a<3236>R<THR>A<O> 1
c<B>r<166>a<3240>R<PHE>A<N> 2
c<B>r<166>a<3241>R<PHE>A<CA> 2
c<B>r<166>a<3244>R<PHE>A<CB> 1
c<B>r<166>a<3245>R<PHE>A<CG> 2
c<B>r<166>a<3246>R<PHE>A<CD1> 2
c<B>r<166>a<3247>R<PHE>A<CD2> 2
c<B>r<166>a<3248>R<PHE>A<CE1> 3
c<B>r<166>a<3249>R<PHE>A<CE2> 1
c<B>r<166>a<3250>R<PHE>A<CZ> 2
c<B>r<167>a<3251>R<PRO>A<N> 2
c<B>r<167>a<3254>R<PRO>A<O> 1
c<B>r<167>a<3255>R<PRO>A<CB> 1
c<B>r<167>a<3256>R<PRO>A<CG> 1
c<B>r<167>a<3257>R<PRO>A<CD> 1
c<B>r<168>a<3261>R<ALA>A<O> 1
c<B>r<169>a<3266>R<VAL>A<O> 1
c<B>r<169>a<3267>R<VAL>A<CB> 1
c<B>r<169>a<3268>R<VAL>A<CG1> 1
c<B>r<169>a<3269>R<VAL>A<CG2> 1
c<B>r<170>a<3273>R<LEU>A<O> 1
c<B>r<171>a<3279>R<GLU>A<CA> 1
c<B>r<171>a<3282>R<GLU>A<CB> 1
c<B>r<171>a<3283>R<GLU>A<CG> 1
c<B>r<171>a<3286>R<GLU>A<OE2> 1
c<B>r<172>a<3287>R<SER>A<N> 1
c<B>r<177>a<3330>l<A>R<SER>A<OG> 1
c<B>r<179>a<3340>R<SER>A<N> 1
c<B>r<179>a<3345>l<A>R<SER>A<CB> 1
c<B>r<179>a<3347>l<A>R<SER>A<OG> 1
c<B>r<181>a<3359>R<VAL>A<CB> 2
c<B>r<181>a<3360>R<VAL>A<CG1> 1
c<B>r<181>a<3361>R<VAL>A<CG2> 1
c<B>r<182>a<3364>R<VAL>A<C> 1
c<B>r<182>a<3365>R<VAL>A<O> 2
c<B>r<183>a<3374>R<THR>A<OG1> 1
c<B>r<183>a<3375>R<THR>A<CG2> 1
c<B>r<209>a<3581>R<LYS>A<CD> 1
c<B>r<209>a<3583>R<LYS>A<NZ> 1
c<B>r<215>a<5288>R<EDO>A<C1> 1
c<B>r<215>a<5289>R<EDO>A<O1> 1
c<B>r<215>a<5290>R<EDO>A<C2> 1
c<B>r<215>a<5291>R<EDO>A<O2> 2
