c<C>r<7>R<ILE> 1
c<C>r<8>R<LYS> 1.33333
c<C>r<9>R<VAL> 2.33333
c<C>r<10>R<SER> 1.75
c<C>r<11>R<GLY> 1.33333
c<C>r<20>R<SER> 1.25
c<C>r<21>R<GLU> 1.57143
c<C>r<22>R<ALA> 1.66667
c<C>r<23>R<SER> 1.33333
c<C>r<24>R<ILE> 1.5
c<C>r<25>R<GLN> 1
c<C>r<26>R<ASP> 1
c<C>r<32>R<ASP> 1
c<C>r<40>R<ILE> 1
c<C>r<41>R<GLU> 1.6
c<C>r<42>R<MET> 1.66667
c<C>r<43>R<ARG> 1.55556
c<C>r<44>R<GLN> 1.28571
c<C>r<54>R<GLU> 1
c<C>r<55>R<THR> 1.66667
c<C>r<56>R<SER> 1.75
c<C>r<57>R<GLY> 1.25
c<C>r<58>R<ILE> 2.25
c<C>r<59>R<GLY> 2
c<C>r<60>R<PRO> 1.2
c<C>r<62>R<GLU> 1
c<C>r<83>R<MET> 1.4
c<C>r<91>R<LEU> 2
c<C>r<92>R<ASP> 1.2
c<C>r<94>R<PHE> 1.66667
c<C>r<95>R<MET> 1.5
c<C>r<100>R<SER> 1
c<C>r<101>R<ASN> 1.71429
c<C>r<102>R<PHE> 1.36364
c<C>r<103>R<LEU> 1.57143
c<C>r<104>R<GLY> 1
c<C>r<105>R<ARG> 1
c<C>r<195>R<ARG> 1.2
c<C>r<201>R<GLN> 1
c<C>r<202>R<LYS> 1.28571
c<C>r<203>R<LEU> 1.33333
c<C>r<204>R<ASN> 1.33333
c<C>r<205>R<PRO> 1.33333
c<C>r<220>R<PHE> 1
c<C>r<225>R<GLY> 1
c<C>r<232>R<GLY> 3
c<C>r<233>R<PRO> 1.66667
c<C>r<234>R<PHE> 1.54545
c<C>r<235>R<GLY> 1.33333
c<C>r<238>R<LYS> 3
c<C>r<247>R<LYS> 1
c<C>r<260>R<GLY> 2
c<C>r<261>R<GLU> 1.5
c<C>r<262>R<ARG> 1.77778
c<C>r<263>R<GLY> 1.75
c<C>r<264>R<ASN> 1.5
c<C>r<265>R<GLU> 1
c<C>r<266>R<MET> 2
c<C>r<267>R<THR> 1.71429
c<C>r<268>R<ASP> 1.33333
c<C>r<270>R<VAL> 1
c<C>r<271>R<ASN> 1
c<C>r<272>R<GLU> 1.2
c<C>r<293>R<ALA> 2
c<C>r<295>R<THR> 1.33333
c<C>r<296>R<SER> 1.83333
c<C>r<297>R<ASN> 1.375
c<C>r<298>R<MET> 1.2
c<C>r<299>R<PRO> 1
c<C>r<300>R<VAL> 1.5
c<C>r<303>R<ARG> 1.66667
c<C>r<333>R<ARG> 1.8
c<C>r<336>R<GLU> 1.25
c<C>r<339>R<ARG> 1.125
c<C>r<340>R<GLU> 1.33333
c<C>r<342>R<SER> 2
c<C>r<343>R<GLY> 1
c<C>r<344>R<ARG> 1
c<C>r<346>R<GLU> 1.375
c<C>r<347>R<GLU> 1.2
c<C>r<348>R<MET> 1.42857
c<C>r<349>R<PRO> 1.2
c<C>r<350>R<GLY> 1.33333
c<C>r<351>R<ASP> 1
c<C>r<352>R<GLU> 1.14286
c<C>r<353>R<GLY> 1
c<C>r<356>R<ALA> 1.33333
c<C>r<357>R<TYR> 1.33333
c<C>r<359>R<GLY> 1
c<C>r<360>R<SER> 1
c<C>r<361>R<ARG> 1
c<C>r<363>R<ALA> 1.66667
c<C>r<364>R<GLU> 1.2
c<C>r<367>R<GLU> 1.28571
c<C>r<391>R<SER> 2
c<C>r<392>R<PRO> 2.4
c<C>r<393>R<SER> 1.33333
c<C>r<394>R<GLY> 1.25
c<C>r<395>R<GLY> 1
c<C>r<396>R<ASP> 1.25
c<C>r<397>R<ILE> 1.4
c<C>r<398>R<SER> 1.4
c<C>r<403>R<GLN> 1.2
c<C>r<404>R<ASN> 1
c<C>r<406>R<LEU> 1.5
c<C>r<407>R<ARG> 1.22222
c<C>r<408>R<VAL> 1.8
c<C>r<409>R<VAL> 1
c<C>r<410>R<LYS> 1.4
c<C>r<417>R<SER> 1
c<C>r<421>R<GLN> 1.375
c<C>r<422>R<LYS> 1.25
c<C>r<423>R<ARG> 1.44444
c<C>r<424>R<HIS> 2
c<C>r<425>R<PHE> 1
c<C>r<430>R<TRP> 2
c<C>r<431>R<ILE> 1.4
c<C>r<432>R<GLN> 1.16667
c<C>r<433>R<SER> 2
c<C>r<434>R<TYR> 1.33333
c<C>r<436>R<LEU> 1
c<C>r<437>R<TYR> 1.75
c<C>r<439>R<THR> 1
c<C>r<443>R<ARG> 1
c<C>r<458>R<THR> 1
c<C>r<461>R<MET> 1.33333
c<C>r<462>R<ARG> 1.42857
c<C>r<465>R<GLN> 1.2
c<C>r<468>R<GLU> 1
c<C>r<469>R<GLN> 1
c<C>r<470>R<LEU> 1.33333
c<C>r<472>R<GLU> 1.16667
c<C>r<473>R<ILE> 1.16667
c<C>r<474>R<VAL> 2
c<C>r<475>R<ARG> 1
c<C>r<476>R<LEU> 1
c<C>r<477>R<VAL> 1.14286
c<C>r<478>R<GLY> 1
c<C>r<479>R<ILE> 1
c<C>r<480>R<ASP> 1.2
c<C>r<481>R<SER> 1.2
c<C>r<482>R<LEU> 1.33333
c<C>r<483>R<SER> 1
c<C>r<486>R<ASP> 1
c<C>r<494>R<LYS> 1
c<C>r<498>R<GLU> 1
c<C>r<499>R<ASP> 1
c<C>r<502>R<GLN> 1.33333
c<C>r<504>R<ASN> 1
c<C>r<506>R<PHE> 1.11111
c<C>r<507>R<ASP> 1.33333
c<C>r<508>R<ASP> 1
c<C>r<509>R<VAL> 1.33333
c<C>r<550>R<VAL> 1
c<C>r<554>R<GLU> 1.2
c<C>r<557>R<SER> 1
c<C>r<558>R<ARG> 1.16667
c<C>r<560>R<LYS> 1.5
c<C>r<561>R<TYR> 1.5
c<C>r<601>R<ANP> 1.73333
c<C>r<602>R<MG> 2
