"Metric";"Training_Set";"Testing_Set";"Independent"
"Accuracy";"0.787644787644788";"0.737556561085973";"0.753668763102725"
"Kappa";"0.335060449050086";"0.0969423700154997";"0.205445176107004"
"AccuracyLower";"0.749866078337784";"0.674338899032414";"0.725045108343067"
"AccuracyUpper";"0.82210338266752";"0.794280567730731";"0.780716886734807"
"AccuracyNull";"0.752895752895753";"0.755656108597285";"0.758909853249476"
"AccuracyPValue";"0.0356936054459684";"0.761489857187692";"0.663364081860643"
"McnemarPValue";"4.34123371015731e-07";"1.47016079308294e-05";"2.8572493883752e-11"
"Sensitivity";"0.359375";"0.148148148148148";"0.265217391304348"
"Specificity";"0.928205128205128";"0.92814371257485";"0.908839779005525"
"Pos Pred Value";"0.621621621621622";"0.4";"0.480314960629921"
"Neg Pred Value";"0.815315315315315";"0.771144278606965";"0.795646916565901"
"Precision";"0.621621621621622";"0.4";"0.480314960629921"
"Recall";"0.359375";"0.148148148148148";"0.265217391304348"
"F1";"0.455445544554455";"0.216216216216216";"0.341736694677871"
"Prevalence";"0.247104247104247";"0.244343891402715";"0.241090146750524"
"Detection Rate";"0.0888030888030888";"0.0361990950226244";"0.0639412997903564"
"Detection Prevalence";"0.142857142857143";"0.0904977375565611";"0.133123689727463"
"Balanced Accuracy";"0.643790064102564";"0.538145930361499";"0.587028585154936"
"TP";"46";"8";"61"
"TN";"362";"155";"658"
"FP";"28";"12";"66"
"FN";"82";"46";"169"
