c<E>r<390>a<10239>R<LYS>A<NZ> 1
c<E>r<395>a<10277>R<ARG>A<NH2> 1
c<E>r<402>a<10323>R<THR>A<O> 1
c<E>r<402>a<10325>R<THR>A<OG1> 1
c<E>r<402>a<10326>R<THR>A<CG2> 1
c<E>r<404>a<10336>R<VAL>A<CG1> 1
c<E>r<404>a<10337>R<VAL>A<CG2> 1
c<E>r<426>a<10517>R<ARG>A<CZ> 2
c<E>r<426>a<10518>R<ARG>A<NH1> 1
c<E>r<426>a<10519>R<ARG>A<NH2> 1
c<E>r<432>a<10559>R<SER>A<O> 1
c<E>r<436>a<10590>R<TYR>A<CE2> 1
c<E>r<436>a<10591>R<TYR>A<CZ> 1
c<E>r<436>a<10592>R<TYR>A<OH> 1
c<E>r<440>a<10633>R<TYR>A<OH> 1
c<E>r<442>a<10649>R<TYR>A<CB> 1
c<E>r<442>a<10650>R<TYR>A<CG> 2
c<E>r<442>a<10651>R<TYR>A<CD1> 1
c<E>r<442>a<10653>R<TYR>A<CE1> 1
c<E>r<442>a<10656>R<TYR>A<OH> 1
c<E>r<443>a<10663>R<LEU>A<CD1> 1
c<E>r<443>a<10664>R<LEU>A<CD2> 1
c<E>r<460>a<10807>R<PHE>A<CD2> 2
c<E>r<460>a<10809>R<PHE>A<CE2> 1
c<E>r<462>a<10819>R<PRO>A<C> 1
c<E>r<462>a<10820>R<PRO>A<O> 1
c<E>r<462>a<10821>R<PRO>A<CB> 1
c<E>r<462>a<10822>R<PRO>A<CG> 1
c<E>r<462>a<10823>R<PRO>A<CD> 2
c<E>r<463>a<10824>R<ASP>A<N> 1
c<E>r<463>a<10825>R<ASP>A<CA> 1
c<E>r<463>a<10828>R<ASP>A<CB> 1
c<E>r<463>a<10831>R<ASP>A<OD2> 1
c<E>r<470>a<10875>R<PRO>A<O> 1
c<E>r<472>a<10885>R<LEU>A<CA> 1
c<E>r<472>a<10888>R<LEU>A<CB> 1
c<E>r<472>a<10889>R<LEU>A<CG> 2
c<E>r<472>a<10890>R<LEU>A<CD1> 1
c<E>r<472>a<10891>R<LEU>A<CD2> 1
c<E>r<473>a<10892>R<ASN>A<N> 1
c<E>r<473>a<10893>R<ASN>A<CA> 2
c<E>r<473>a<10896>R<ASN>A<CB> 1
c<E>r<473>a<10897>R<ASN>A<CG> 1
c<E>r<473>a<10898>R<ASN>A<OD1> 1
c<E>r<473>a<10899>R<ASN>A<ND2> 1
c<E>r<474>a<10903>R<CYS>A<O> 1
c<E>r<475>a<10911>R<TYR>A<CG> 2
c<E>r<475>a<10912>R<TYR>A<CD1> 2
c<E>r<475>a<10913>R<TYR>A<CD2> 1
c<E>r<475>a<10914>R<TYR>A<CE1> 1
c<E>r<475>a<10915>R<TYR>A<CE2> 1
c<E>r<475>a<10916>R<TYR>A<CZ> 2
c<E>r<475>a<10917>R<TYR>A<OH> 1
c<E>r<479>a<10954>R<ASN>A<ND2> 1
c<E>r<480>a<10958>R<ASP>A<O> 1
c<E>r<481>a<10966>R<TYR>A<O> 1
c<E>r<482>a<10976>R<GLY>A<CA> 2
c<E>r<482>a<10978>R<GLY>A<O> 1
c<E>r<484>a<10994>R<TYR>A<CB> 2
c<E>r<484>a<10995>R<TYR>A<CG> 2
c<E>r<484>a<10996>R<TYR>A<CD1> 2
c<E>r<484>a<10997>R<TYR>A<CD2> 2
c<E>r<484>a<10998>R<TYR>A<CE1> 2
c<E>r<484>a<10999>R<TYR>A<CE2> 1
c<E>r<484>a<11000>R<TYR>A<CZ> 2
c<E>r<484>a<11001>R<TYR>A<OH> 1
c<E>r<485>a<11005>R<THR>A<O> 1
c<E>r<486>a<11010>R<THR>A<CA> 2
c<E>r<486>a<11011>R<THR>A<C> 2
c<E>r<486>a<11012>R<THR>A<O> 1
c<E>r<486>a<11013>R<THR>A<CB> 2
c<E>r<486>a<11014>R<THR>A<OG1> 1
c<E>r<486>a<11015>R<THR>A<CG2> 1
c<E>r<487>a<11016>R<THR>A<N> 2
c<E>r<487>a<11017>R<THR>A<CA> 2
c<E>r<487>a<11018>R<THR>A<C> 2
c<E>r<487>a<11019>R<THR>A<O> 1
c<E>r<487>a<11020>R<THR>A<CB> 2
c<E>r<487>a<11022>R<THR>A<CG2> 2
c<E>r<488>a<11023>R<GLY>A<N> 1
c<E>r<488>a<11024>R<GLY>A<CA> 1
c<E>r<488>a<11026>R<GLY>A<O> 2
c<E>r<489>a<11032>R<ILE>A<CG1> 1
c<E>r<489>a<11034>R<ILE>A<CD1> 1
c<E>r<491>a<11042>R<TYR>A<O> 1
c<E>r<491>a<11043>R<TYR>A<CB> 2
c<E>r<491>a<11044>R<TYR>A<CG> 2
c<E>r<491>a<11045>R<TYR>A<CD1> 1
c<E>r<491>a<11046>R<TYR>A<CD2> 1
c<E>r<491>a<11047>R<TYR>A<CE1> 1
c<E>r<491>a<11048>R<TYR>A<CE2> 1
c<E>r<491>a<11049>R<TYR>A<CZ> 2
c<E>r<491>a<11050>R<TYR>A<OH> 1
c<E>r<492>a<11058>R<GLN>A<OE1> 1
c<E>r<492>a<11059>R<GLN>A<NE2> 1
