"The table details the residue variety in % for each position in the query sequence."
"Each column shows the % for that amino-acid, found in position ('pos') in the MSA."
"In case there are residues which are not a standard amino-acid in the MSA, they are represented under column 'OTHER'"

pos,A,C,D,E,F,G,H,I,K,L,M,N,P,Q,R,S,T,V,W,Y,OTHER,MAX AA,ConSurf Grade
1,,,25.000,,,,25.000,,,,,,,50.000,,,,,,,,Q 50.000,1*
2,18.182,,,9.091,,,,,,,,,,36.364,,,,9.091,,27.273,,Q 36.364,1
3,,,100.000,,,,,,,,,,,,,,,,,,,D 100.000,9
4,18.182,,,,,,,,,,,,81.818,,,,,,,,,P 81.818,7*
5,,,,,,,,36.364,,,,,,,,,36.364,27.273,,,,IT 36.364,1*
6,,100.000,,,,,,,,,,,,,,,,,,,,C 100.000,9
7,,,,,,54.545,9.091,,,,,27.273,,,,,,,,9.091,,G 54.545,3*
8,,,,,,,,,100.000,,,,,,,,,,,,,K 100.000,9
9,,,,,,,,,,,,,90.909,,,,9.091,,,,,P 90.909,6*
10,,100.000,,,,,,,,,,,,,,,,,,,,C 100.000,9
11,,,,9.091,,,,,36.364,,,18.182,,,,18.182,18.182,,,,,K 36.364,1*
12,,,,,,,,,,,,,,,,,100.000,,,,,T 100.000,9
13,,,,,,,72.727,,,,,,,9.091,18.182,,,,,,,H 72.727,6
14,,,100.000,,,,,,,,,,,,,,,,,,,D 100.000,9
15,,,100.000,,,,,,,,,,,,,,,,,,,D 100.000,9
16,,100.000,,,,,,,,,,,,,,,,,,,,C 100.000,9
17,,,,,,,,,,,,,,,,100.000,,,,,,S 100.000,9
18,9.091,,9.091,18.182,,45.455,,,9.091,,,9.091,,,,,,,,,,G 45.455,1
19,54.545,9.091,,,,36.364,,,,,,,,,,,,,,,,A 54.545,1*
20,,,,,,,,,,27.273,,,,,,18.182,9.091,,45.455,,,W 45.455,1
21,,,,,45.455,,,,,45.455,,,,,,,,,,9.091,,FL 45.455,1
22,,100.000,,,,,,,,,,,,,,,,,,,,C 100.000,9
23,,,,18.182,,,,,,,,,,54.545,,27.273,,,,,,Q 54.545,7
24,81.818,,,18.182,,,,,,,,,,,,,,,,,,A 81.818,8
25,,100.000,,,,,,,,,,,,,,,,,,,,C 100.000,9
26,,,,,,,,,,,,,,,18.182,,,,63.636,18.182,,W 63.636,4*
27,,,,,,,,,,,,63.636,,,27.273,,9.091,,,,,N 63.636,4*
28,27.273,,,,54.545,,,,,,,,,,,18.182,,,,,,F 54.545,2*
29,45.455,,,,,9.091,,,,,,,,,36.364,9.091,,,,,,A 45.455,4*
30,,,,,,36.364,,,27.273,,,,,18.182,18.182,,,,,,,G 36.364,2*
31,9.091,,,,,,,,,,,,,,,9.091,81.818,,,,,T 81.818,6
32,,100.000,,,,,,,,,,,,,,,,,,,,C 100.000,9
33,,,,,,100.000,,,,,,,,,,,,,,,,G 100.000,9
34,,,,,,,,,,,,,100.000,,,,,,,,,P 100.000,9
35,,,,,27.273,,,,,18.182,,,,,,,,,18.182,36.364,,Y 36.364,1
36,,,,,,,,,,,,,,,,,,100.000,,,,V 100.000,9
