c<B>r<5>R<LYS> 1
c<B>r<6>R<ILE> 1
c<B>r<7>R<ILE> 1.2
c<B>r<8>R<LYS> 1.33333
c<B>r<9>R<VAL> 2.2
c<B>r<10>R<SER> 1.66667
c<B>r<11>R<GLY> 1.5
c<B>r<17>R<GLU> 1
c<B>r<20>R<SER> 1
c<B>r<21>R<GLU> 1.25
c<B>r<22>R<ALA> 1.66667
c<B>r<23>R<SER> 1.5
c<B>r<24>R<ILE> 1.33333
c<B>r<25>R<GLN> 1.25
c<B>r<32>R<ASP> 1
c<B>r<40>R<ILE> 1
c<B>r<41>R<GLU> 1.5
c<B>r<42>R<MET> 1.66667
c<B>r<43>R<ARG> 1.375
c<B>r<44>R<GLN> 1.14286
c<B>r<54>R<GLU> 1
c<B>r<55>R<THR> 1.75
c<B>r<56>R<SER> 1.25
c<B>r<57>R<GLY> 1.25
c<B>r<58>R<ILE> 2.5
c<B>r<59>R<GLY> 2
c<B>r<60>R<PRO> 1.2
c<B>r<62>R<GLU> 1.33333
c<B>r<83>R<MET> 1.6
c<B>r<91>R<LEU> 2.57143
c<B>r<92>R<ASP> 1.4
c<B>r<94>R<PHE> 1.66667
c<B>r<95>R<MET> 1.5
c<B>r<100>R<SER> 1
c<B>r<101>R<ASN> 1.71429
c<B>r<102>R<PHE> 1.3
c<B>r<103>R<LEU> 1.57143
c<B>r<104>R<GLY> 1
c<B>r<194>R<ARG> 1
c<B>r<202>R<LYS> 1.125
c<B>r<203>R<LEU> 1.5
c<B>r<204>R<ASN> 1.16667
c<B>r<205>R<PRO> 1
c<B>r<225>R<GLY> 1
c<B>r<232>R<GLY> 3
c<B>r<233>R<PRO> 1.75
c<B>r<234>R<PHE> 1.44444
c<B>r<235>R<GLY> 1.33333
c<B>r<238>R<LYS> 2
c<B>r<260>R<GLY> 2
c<B>r<261>R<GLU> 1.66667
c<B>r<262>R<ARG> 1.75
c<B>r<263>R<GLY> 1.75
c<B>r<264>R<ASN> 1.25
c<B>r<265>R<GLU> 1
c<B>r<266>R<MET> 2
c<B>r<267>R<THR> 2.14286
c<B>r<268>R<ASP> 1.33333
c<B>r<270>R<VAL> 1.33333
c<B>r<271>R<ASN> 1
c<B>r<293>R<ALA> 2
c<B>r<295>R<THR> 1.33333
c<B>r<296>R<SER> 1.6
c<B>r<297>R<ASN> 1.375
c<B>r<298>R<MET> 1.5
c<B>r<300>R<VAL> 1
c<B>r<303>R<ARG> 1.66667
c<B>r<333>R<ARG> 1.83333
c<B>r<336>R<GLU> 1.33333
c<B>r<339>R<ARG> 1
c<B>r<340>R<GLU> 1
c<B>r<343>R<GLY> 1
c<B>r<344>R<ARG> 1
c<B>r<345>R<LEU> 1.5
c<B>r<346>R<GLU> 1.14286
c<B>r<347>R<GLU> 1.42857
c<B>r<348>R<MET> 1.14286
c<B>r<349>R<PRO> 1.2
c<B>r<350>R<GLY> 1.66667
c<B>r<351>R<ASP> 1
c<B>r<352>R<GLU> 1.16667
c<B>r<353>R<GLY> 1
c<B>r<355>R<PRO> 1
c<B>r<356>R<ALA> 1.4
c<B>r<357>R<TYR> 1.5
c<B>r<359>R<GLY> 1
c<B>r<360>R<SER> 1.2
c<B>r<363>R<ALA> 1.33333
c<B>r<364>R<GLU> 1.33333
c<B>r<367>R<GLU> 1.42857
c<B>r<368>R<ARG> 1
c<B>r<391>R<SER> 1.6
c<B>r<392>R<PRO> 2.4
c<B>r<393>R<SER> 1.16667
c<B>r<394>R<GLY> 1
c<B>r<395>R<GLY> 2
c<B>r<396>R<ASP> 1.2
c<B>r<398>R<SER> 1.25
c<B>r<399>R<GLU> 1.33333
c<B>r<400>R<PRO> 1
c<B>r<403>R<GLN> 1.33333
c<B>r<404>R<ASN> 1
c<B>r<406>R<LEU> 1.5
c<B>r<407>R<ARG> 1.4
c<B>r<408>R<VAL> 1.25
c<B>r<410>R<LYS> 1
c<B>r<421>R<GLN> 1.2
c<B>r<422>R<LYS> 1
c<B>r<423>R<ARG> 1.14286
c<B>r<430>R<TRP> 1
c<B>r<431>R<ILE> 1
c<B>r<432>R<GLN> 1.33333
c<B>r<433>R<SER> 1
c<B>r<434>R<TYR> 1.125
c<B>r<436>R<LEU> 1.33333
c<B>r<437>R<TYR> 1.33333
c<B>r<465>R<GLN> 1
c<B>r<469>R<GLN> 1
c<B>r<472>R<GLU> 1.125
c<B>r<473>R<ILE> 1.2
c<B>r<474>R<VAL> 1
c<B>r<475>R<ARG> 1.125
c<B>r<476>R<LEU> 1.57143
c<B>r<477>R<VAL> 1.33333
c<B>r<478>R<GLY> 1
c<B>r<479>R<ILE> 1
c<B>r<480>R<ASP> 1
c<B>r<481>R<SER> 1
c<B>r<504>R<ASN> 1
c<B>r<541>R<TYR> 1
c<B>r<554>R<GLU> 1
c<B>r<601>R<ANP> 1.45455
c<B>r<602>R<MG> 2
