"The table details the residue variety in % for each position in the query sequence."
"Each column shows the % for that amino-acid, found in position ('pos') in the MSA."
"In case there are residues which are not a standard amino-acid in the MSA, they are represented under column 'OTHER'"

pos,A,C,D,E,F,G,H,I,K,L,M,N,P,Q,R,S,T,V,W,Y,OTHER,MAX AA,ConSurf Grade
1,,,,86.364,,,,,,,,,,13.636,,,,,,,,E 86.364,5
2,18.841,,13.043,7.246,,,,1.449,,,,4.348,,,,37.681,17.391,,,,,S 37.681,1
3,4.918,,,1.639,,0.820,,,9.836,6.557,9.016,,59.836,0.820,0.820,4.098,,1.639,,,,P 59.836,1
4,,,,,,,,,,,,,100.000,,,,,,,,,P 100.000,9
5,,,,12.409,,,,0.730,19.708,0.730,,4.380,,1.460,24.818,21.898,9.489,4.380,,,,R 24.818,1
6,,,,,72.464,,,26.812,,0.725,,,,,,,,,,,,F 72.464,8
7,,,,2.174,0.725,,,28.261,,11.594,2.899,,,,,0.725,34.058,19.565,,,,T 34.058,1
8,,,0.725,2.174,,0.725,,1.449,52.899,1.449,4.348,,,1.449,23.188,,4.348,7.246,,,,K 52.899,1
9,5.797,,,3.623,2.174,,,14.493,13.043,1.449,,0.725,0.725,,9.420,20.290,18.116,10.145,,,,S 20.290,1
10,,,,,,,,,,,,,100.000,,,,,,,,,P 100.000,9
11,,,9.420,23.913,,0.725,0.725,2.899,6.522,,1.449,4.348,,10.870,11.594,3.623,13.043,10.870,,,,E 23.913,1
12,,,75.362,,,,,,,,,14.493,,,,9.420,0.725,,,,,D 75.362,7
13,,,,0.725,,,,0.725,0.725,2.899,2.899,,,91.304,,,,0.725,,,,Q 91.304,6
14,1.449,,,,,3.623,2.174,31.159,2.174,,0.725,,,11.594,0.725,0.725,45.652,,,,,T 45.652,3
15,0.725,,,,,72.464,,,,,,,,,,,,26.812,,,,G 72.464,9
16,,,,,,,,31.159,15.217,5.072,0.725,,0.725,,6.522,,,40.580,,,,V 40.580,5
17,13.768,,,0.725,,,0.725,,,,,3.623,,9.420,,63.043,3.623,4.348,,0.725,,S 63.043,6
18,,,,0.725,,97.101,,,,,,0.725,,,0.725,0.725,,,,,,G 97.101,8
19,0.725,,,,,95.652,,,,,,,,,2.174,0.725,,0.725,,,,G 95.652,8
20,2.174,,,,,,,15.217,,,,0.725,,,,,1.449,80.435,,,,V 80.435,7
21,84.058,,,,,,,0.725,,,,,,,,,,15.217,,,,A 84.058,8
22,6.522,0.725,,,0.725,0.725,,,,,,,,,,86.957,2.174,2.174,,,,S 86.957,8
23,,,,,99.275,,,,,0.725,,,,,,,,,,,,F 99.275,9
24,,,,,5.797,,,11.594,,,,,,,,,,65.217,,17.391,,V 65.217,5
25,,100.000,,,,,,,,,,,,,,,,,,,,C 100.000,9
26,7.246,,1.449,2.174,,1.449,0.725,,1.449,,,,,71.014,0.725,6.522,6.522,,,0.725,,Q 71.014,5
27,96.377,,,,,,,,,,,,,,,1.449,1.449,0.725,,,,A 96.377,8
28,5.072,,0.725,3.623,1.449,1.449,1.449,0.725,2.174,2.174,0.725,1.449,,1.449,10.870,7.971,46.377,12.319,,,,T 46.377,1
29,2.174,,,,,97.826,,,,,,,,,,,,,,,,G 97.826,8
30,5.072,,51.449,26.087,,,0.725,,,0.725,,12.319,,,,3.623,,,,,,D 51.449,2
31,,,,,,,,,,,,,100.000,,,,,,,,,P 100.000,9
32,2.899,,,0.725,,0.725,,,56.522,1.449,,,7.246,8.696,16.667,,4.348,0.725,,,,K 56.522,1
33,,,,,,,,,,,,,100.000,,,,,,,,,P 100.000,9
34,,0.725,1.449,,,,1.449,,14.493,2.174,0.725,1.449,,16.667,43.478,4.348,2.174,10.870,,,,R 43.478,1
35,,,,,,,,73.913,,0.725,,,,,,,,25.362,,,,I 73.913,9
36,0.725,,,4.348,3.623,,7.971,2.899,0.725,1.449,0.725,1.449,,4.348,,4.348,44.928,15.217,,7.246,,T 44.928,1
37,,,,,,,,,,,,,,,,,,,100.000,,,W 100.000,9
38,,,,,0.719,,0.719,,5.036,,28.777,33.813,,1.439,22.302,4.317,2.878,,,,,N 33.813,4
39,,,,0.719,,,,,97.842,,,,,,1.439,,,,,,,K 97.842,9
40,1.439,,1.439,,,0.719,,0.719,69.784,,0.719,23.741,,,0.719,0.719,,,,,,K 69.784,6
41,,,,,,94.964,,,,,,2.158,,,,2.158,0.719,,,,,G 94.964,6
42,0.719,,,0.719,,0.719,,,92.086,,,0.719,,,5.036,,,,,,,K 92.086,6
43,,,0.719,,,,,,82.734,,,,0.719,,15.827,,,,,,,K 82.734,5
44,,,,,0.719,,,8.633,0.719,2.158,,,0.719,,,,,87.050,,,,V 87.050,6
45,1.439,,,,0.719,,,,,,,25.899,,0.719,,56.835,13.669,0.719,,,,S 56.835,6
46,0.719,,,,,0.719,,,1.439,,,10.791,,20.863,,61.871,3.597,,,,,S 61.871,7
47,1.439,,,,,,,,,,0.719,2.158,2.158,71.942,0.719,15.108,5.755,,,,,Q 71.942,5
48,,,,,,,,,,,,,,0.719,99.281,,,,,,,R 99.281,9
49,,,,,55.000,,,17.143,,0.714,,,,,,,,2.143,,25.000,,F 55.000,7
50,2.128,,0.709,70.213,1.418,,1.418,0.709,,7.801,1.418,,,6.383,,2.128,4.965,0.709,,,,E 70.213,3
51,0.704,,,,,,,2.113,,,1.408,,,,,0.704,24.648,70.423,,,,V 70.423,7
52,0.704,,,0.704,1.408,,4.225,63.380,9.155,2.113,,,,7.746,0.704,2.113,1.408,4.930,,1.408,,I 63.380,1
53,0.704,,12.676,74.648,,0.704,,,,0.704,,2.113,2.113,1.408,,2.113,2.817,,,,,E 74.648,1
54,,,,,77.305,,,0.709,,,4.965,,0.709,2.128,,1.418,,1.418,,11.348,,F 77.305,5
55,3.597,,70.504,7.194,,,,,,,,2.158,12.950,0.719,0.719,0.719,1.439,,,,,D 70.504,4
56,0.709,0.709,50.355,17.021,0.709,13.475,,,,,,13.475,,2.128,,,0.709,0.709,,,,D 50.355,1
57,0.709,,,,,93.617,,,1.418,,,0.709,,,,3.546,,,,,,G 93.617,7
58,35.897,1.709,,0.855,,4.274,,1.709,,1.709,,,,,0.855,48.718,1.709,2.564,,,,S 48.718,2
59,1.905,,,,,96.190,,,,,,,,,,1.905,,,,,,G 96.190,6
60,32.624,0.709,,,,,,,0.709,0.709,,,,0.709,,61.702,2.128,0.709,,,,S 61.702,7
61,1.418,,,,0.709,,,3.546,0.709,14.894,3.546,,,,,,0.709,74.468,,,,V 74.468,6
62,0.709,,,,,,,,,97.872,0.709,,,,,,0.709,,,,,L 97.872,8
63,,,,,,,,,,,,,,,98.592,0.704,0.704,,,,,R 98.592,9
64,,,,,,,,94.366,,0.704,,,,0.704,,,0.704,3.521,,,,I 94.366,8
65,,,7.042,20.423,,0.704,,,,1.408,,,,69.718,,0.704,,,,,,Q 69.718,7
66,,,,,,,,,,,,,97.183,,0.704,1.408,0.704,,,,,P 97.183,8
67,2.128,,,0.709,,0.709,,,,71.631,,,,,,,,24.823,,,,L 71.631,8
68,,,,,,,,,8.511,,,,,,90.780,0.709,,,,,,R 90.780,7
69,29.577,,0.704,,,1.408,,2.113,,0.704,,,6.338,2.113,0.704,3.521,43.662,8.451,,,0.704225352112676,T 43.662,1
70,1.408,,0.704,0.704,,14.085,24.648,0.704,0.704,0.704,,5.634,39.437,4.225,1.408,2.113,,2.113,0.704,0.704,,P 39.437,1
71,,,,,0.704,,,,3.521,1.408,,,,,93.662,0.704,,,,,,R 93.662,7
72,,,96.479,,,0.704,,,,0.704,,0.704,0.704,,,0.704,,,,,,D 96.479,8
73,1.408,,14.789,73.239,,0.704,,,,,,6.338,,0.704,,2.113,,0.704,,,,E 73.239,5
74,66.197,,0.704,,,0.704,,1.408,,,,23.239,,,,2.113,4.930,0.704,,,,A 66.197,6
75,0.709,0.709,,1.418,0.709,1.418,,51.064,0.709,1.418,3.546,2.128,3.546,0.709,,,12.057,19.858,,,,I 51.064,1
76,0.704,,,,4.225,,,,,,,,,,,0.704,,,2.817,91.549,,Y 91.549,5
77,0.699,,,96.503,,,,,0.699,,,,0.699,0.699,,,0.699,,,,,E 96.503,8
78,0.699,97.902,,0.699,,,,,,,0.699,,,,,,,,,,,C 97.902,8
79,1.399,,,,0.699,,2.797,2.098,0.699,9.790,2.098,,,2.098,,0.699,32.168,45.455,,,,V 45.455,2
80,97.902,,,,,0.699,,,0.699,,,,,,0.699,,,,,,,A 97.902,9
81,3.497,,1.399,32.867,,,,,2.098,,,,,6.294,9.790,13.986,30.070,,,,,E 32.867,3
82,,,,,,,,,,,,99.296,,,,0.704,,,,,,N 99.296,9
83,0.704,,,1.408,,26.761,,,,,,2.817,0.704,,,60.563,6.338,0.704,,,,S 60.563,5
84,17.730,,,13.475,,0.709,0.709,1.418,,7.092,3.546,,,2.837,,0.709,,51.773,,,,V 51.773,1
85,4.255,,2.128,0.709,,92.908,,,,,,,,,,,,,,,,G 92.908,6
86,,,24.823,69.504,,0.709,,,0.709,,,1.418,,1.418,1.418,,,,,,,E 69.504,5
87,2.817,,,1.408,,,,47.183,0.704,3.521,,2.113,,,0.704,,4.930,36.620,,,,I 47.183,1
88,7.746,,,,,,,,0.704,0.704,0.704,29.577,,,3.521,34.507,20.423,2.113,,,,S 34.507,2
89,41.549,,,,0.704,,,5.634,,,,,0.704,,,2.817,28.169,20.423,,,,A 41.549,2
90,2.817,,4.225,11.268,,,2.817,,,1.408,,6.338,1.408,4.930,,36.620,26.761,1.408,,,,S 36.620,1
91,78.873,,,,2.113,,,,,,,,,,,6.338,11.972,0.704,,,,A 78.873,7
92,0.699,,,2.098,,,0.699,,56.643,0.699,0.699,,,6.993,14.685,1.399,14.685,0.699,,,,K 56.643,2
93,,,,,,,,,,98.621,,,0.690,,,,,0.690,,,,L 98.621,9
94,4.762,,3.401,0.680,,,,2.721,2.041,0.680,0.680,3.401,,0.680,2.721,17.007,57.823,2.721,,,0.680272108843537,T 57.823,1
95,,1.342,,,,0.671,,21.477,0.671,1.342,,,,,,,,73.826,0.671,,,V 73.826,6
96,,0.667,,,6.000,,4.000,16.000,,55.333,1.333,,1.333,,,,,3.333,,12.000,,L 55.333,1
97,2.667,,2.000,49.333,,,,,0.667,,,,2.000,,36.000,4.000,3.333,,,,,E 49.333,1
98,7.333,,1.333,75.333,,3.333,,,1.333,,0.667,2.000,4.667,,,0.667,2.000,1.333,,,,E 75.333,2
99,0.667,,73.333,10.000,,0.667,,,0.667,,,14.000,,,,,0.667,,,,,D 73.333,3
100,,,0.667,1.333,,,0.667,,13.333,14.000,0.667,6.000,,58.000,2.667,,0.667,2.000,,,,Q 58.000,3
101,,,,,,,,28.000,,60.000,1.333,,,,0.667,,3.333,6.667,,,,L 60.000,2
102,,,,0.667,,,,,,,,,98.667,,,,0.667,,,,,P 98.667,9
103,9.396,,0.671,0.671,8.725,0.671,26.174,0.671,1.342,1.342,2.013,1.342,26.174,1.342,3.356,9.396,3.356,3.356,,,,HP 26.174,1
104,,0.671,,0.671,,97.987,,,,,,,,,,,0.671,,,,,G 97.987,8
105,0.671,,,,97.987,,,,,,,,,,,,,,,1.342,,F 97.987,8
106,,,,,,,,,,,,,99.329,0.671,,,,,,,,P 99.329,9
107,1.342,,0.671,1.342,,,0.671,0.671,1.342,2.685,4.027,14.765,,7.383,2.013,20.805,32.886,9.396,,,,T 32.886,1
108,,,,,4.027,,,94.631,,,,,,,,,,1.342,,,,I 94.631,9
109,,,73.333,,,0.667,,,2.667,,,,0.667,,0.667,2.667,18.000,1.333,,,,D 73.333,7
110,,,,0.667,,,,0.667,,4.667,73.333,,,18.667,0.667,,,1.333,,,,M 73.333,7
111,10.000,,0.667,,,74.667,0.667,0.667,,2.000,,,2.667,3.333,,5.333,,,,,,G 74.667,3
112,,,,,0.667,0.667,,,,,,,98.667,,,,,,,,,P 98.667,9
113,1.333,,,,,1.333,0.667,0.667,,,,3.333,0.667,75.333,,4.667,11.333,0.667,,,,Q 75.333,4
114,0.667,,,,,0.667,,0.667,,77.333,1.333,0.667,,,,0.667,18.000,,,,,L 77.333,7
115,,,,,,,,,90.667,,,,0.667,4.000,4.000,,,0.667,,,,K 90.667,8
116,0.667,,,,,4.000,,,,,,,,,,1.333,,94.000,,,,V 94.000,9
117,,,0.667,,,,,4.667,,,,,,,,,,94.667,,,,V 94.667,9
118,,,,98.667,,,,,,,,,,0.667,,0.667,,,,,,E 98.667,9
119,,,,,,,,8.000,20.000,1.333,5.333,,,,61.333,,,4.000,,,,R 61.333,3
120,6.000,,1.333,,,20.667,,,,,,3.333,,,,5.333,62.667,,0.667,,,T 62.667,6
121,,0.667,,,,,20.667,,4.000,0.667,,1.333,,,70.000,,2.667,,,,,R 70.000,7
122,,,,,,,,0.667,0.667,0.667,0.667,12.000,0.667,0.667,,6.000,78.000,,,,,T 78.000,6
123,92.000,,,,,0.667,,,,,,,,,,,5.333,2.000,,,,A 92.000,7
124,,,,,,,,,,10.000,1.333,1.333,,0.667,,0.667,74.000,12.000,,,,T 74.000,5
125,,,,,,,,0.667,,22.000,75.333,,,,1.333,0.667,,,,,,M 75.333,7
126,,,0.667,,,,,,,76.000,,0.667,4.667,4.000,0.667,7.333,2.667,2.667,,0.667,,L 76.000,1
127,,99.333,,,,0.667,,,,,,,,,,,,,,,,C 99.333,9
128,77.333,,0.667,0.667,,1.333,0.667,,5.333,,,,0.667,2.000,0.667,4.667,5.333,0.667,,,,A 77.333,4
129,98.000,,,,,,,,,,,,0.667,,,,0.667,0.667,,,,A 98.000,9
130,1.333,,0.667,3.333,,5.333,,3.333,,,0.667,,,,,69.333,8.667,6.667,0.667,,,S 69.333,5
131,,,,0.667,,98.667,,,,,,,,,,,0.667,,,,,G 98.667,8
132,0.667,,4.000,0.667,0.667,,1.333,8.667,1.333,,,62.000,0.667,,,12.000,8.000,,,,,N 62.000,2
133,,,,,,,,,,,,,98.667,,,,0.667,0.667,,,,P 98.667,9
134,1.333,,73.333,1.333,,,,,1.333,1.333,0.667,0.667,9.333,1.333,0.667,2.000,6.000,0.667,,,,D 73.333,2
135,,,,,,0.667,,0.667,,,,,98.000,,,,,0.667,,,,P 98.000,8
136,,0.667,7.333,65.333,,,,8.667,4.667,,,2.000,,1.333,4.000,0.667,3.333,2.000,,,,E 65.333,2
137,,,,,,,,94.667,,2.000,,,,,,,,3.333,,,,I 94.667,8
138,0.667,,,,6.000,,3.333,,,,,0.667,,,3.333,45.333,32.667,,,8.000,,S 45.333,1
139,,,,,,0.667,,,,,,,,0.667,,,,,98.667,,,W 98.667,7
140,,,,,68.000,,0.667,5.333,,8.000,1.333,0.667,0.667,,,,,10.000,,5.333,,F 68.000,3
141,,0.671,,,,,,,86.577,,,,,,12.752,,,,,,,K 86.577,7
142,0.671,,84.564,2.013,,,,,0.671,,,10.738,,,0.671,0.671,,,,,,D 84.564,5
143,,,1.342,,60.403,0.671,,,,2.013,27.517,1.342,,2.685,,0.671,1.342,,,2.013,,F 60.403,1
144,,,,,,,,4.698,1.342,83.893,1.342,,,,0.671,1.342,2.013,4.698,,,,L 83.893,3
145,,,,,,,,,2.000,,,,96.000,,2.000,,,,,,,P 96.000,8
146,,,0.667,,,,,18.667,,1.333,,,,,,,,79.333,,,,V 79.333,7
147,,,75.333,6.000,,,,,1.333,,,14.667,0.667,1.333,0.667,,,,,,,D 75.333,4
148,,,,,,,,24.667,,3.333,8.000,,29.333,,,0.667,32.000,2.000,,,,T 32.000,4
149,14.286,,2.521,1.681,,10.084,,,0.840,,,10.924,,,,48.739,9.244,1.681,,,,S 48.739,1
150,16.667,,0.926,,0.926,2.778,1.852,,,11.111,,19.444,,,,33.333,12.963,,,,,S 33.333,1
151,2.000,,0.667,,,1.333,,,2.667,,,18.667,,,,65.333,8.667,0.667,,,,S 65.333,3
152,0.667,,7.333,1.333,,,2.000,0.667,0.667,,,68.667,,11.333,,6.000,1.333,,,,,N 68.667,3
153,1.361,,,,,73.469,,,,,,,24.490,,,0.680,,,,,,G 73.469,8
154,,,0.671,,,,0.671,,,,,,,,98.658,,,,,,,R 98.658,9
155,,,,,,,,74.497,,2.013,,,,,,,,1.342,,22.148,,I 74.497,8
156,,,,,,,,,74.497,,1.342,,0.671,,1.342,10.067,10.067,2.013,,,,K 74.497,5
157,,,,,,,,8.725,1.342,6.040,1.342,,0.671,71.141,,,0.671,10.067,,,,Q 71.141,6
158,2.000,,,,,,,0.667,2.000,86.000,1.333,1.333,,0.667,4.000,0.667,,1.333,,,,L 86.000,5
159,2.000,,11.333,7.333,,,0.667,,0.667,,,0.667,0.667,2.000,72.000,2.000,0.667,,,,,R 72.000,3
160,2.041,,3.401,2.721,,2.721,,,,,,0.680,,0.680,,83.673,4.082,,,,,S 83.673,6
161,14.286,,2.857,65.714,,14.286,,2.857,,,,,,,,,,,,,,E 65.714,1
162,11.429,,,,,,5.714,,2.857,,,,2.857,,2.857,48.571,20.000,5.714,,,,S 48.571,1
163,2.857,,,,62.857,5.714,,11.429,,5.714,,,2.857,,,2.857,,2.857,,2.857,,F 62.857,1
164,,1.613,,17.742,1.613,70.968,,,1.613,,,,,,,1.613,1.613,3.226,,,,G 70.968,1
165,,,,,1.613,85.484,,,1.613,1.613,,,,,3.226,4.839,,1.613,,,,G 85.484,1
166,1.587,,,,,,,,,1.587,,1.587,,,1.587,6.349,84.127,3.175,,,,T 84.127,3*
167,,,,1.408,1.408,7.042,2.817,,2.817,1.408,,1.408,74.648,4.225,,,2.817,,,,,P 74.648,1
168,,,,,,,,74.026,2.597,3.896,6.494,1.299,,,2.597,1.299,1.299,6.494,,,,I 74.026,2
169,2.597,,1.299,1.299,3.896,,1.299,1.299,,,,,11.688,1.299,72.727,1.299,1.299,,,,,R 72.727,2
170,,,,,,96.667,0.667,,,,,,,,0.667,1.333,0.667,,,,,G 96.667,7
171,85.333,,,,0.667,2.000,,,,,,,,,,8.667,2.667,,,0.667,,A 85.333,6
172,,,,,,,,,,100.000,,,,,,,,,,,,L 100.000,9
173,0.667,,,,,,,,,0.667,,0.667,,98.000,,,,,,,,Q 98.000,9
174,,,,,,,,98.667,,0.667,,,,,,,,0.667,,,,I 98.667,9
175,,,4.667,74.000,2.000,,,0.667,2.667,,1.333,,,1.333,1.333,1.333,10.000,0.667,,,,E 74.000,4
176,3.333,,6.000,3.333,,1.333,0.667,,2.000,,2.667,58.667,,9.333,4.667,8.000,,,,,,N 58.667,2
177,4.000,,,,,,,,,,,,,,,92.667,3.333,,,,,S 92.667,9
178,0.667,,6.667,78.000,,,,,2.667,,0.667,2.667,,3.333,2.667,0.667,,2.000,,,,E 78.000,3
179,,,1.333,86.667,,,,0.667,1.333,,2.667,0.667,2.000,,,,,4.667,,,,E 86.667,7
180,1.333,,4.000,9.333,,0.667,,,3.333,2.000,0.667,2.667,1.333,1.333,,47.333,25.333,0.667,,,,S 47.333,1
181,,0.671,99.329,,,,,,,,,,,,,,,,,,,D 99.329,9
182,0.671,,,4.027,,,0.671,,,2.013,1.342,0.671,,90.604,,,,,,,,Q 90.604,7
183,0.671,,,,,99.329,,,,,,,,,,,,,,,,G 99.329,9
184,,,,0.671,,,,,90.604,0.671,,2.013,,2.013,2.685,0.671,0.671,,,,,K 90.604,7
185,,,,,0.671,,,,,,,,,,,,,,,99.329,,Y 99.329,9
186,0.671,,0.671,97.987,,,,,,,,,,0.671,,,,,,,,E 97.987,9
187,,98.667,,,0.667,,,,,,,,,,,0.667,,,,,,C 98.667,8
188,0.667,,,,0.667,,,3.333,,,0.667,,,,,,,94.667,,,,V 94.667,8
189,98.000,,,,,,0.667,,,,,,,,,0.667,,0.667,,,,A 98.000,9
190,0.667,,0.667,16.000,,,,2.000,,,11.333,8.667,,0.667,,12.000,38.000,10.000,,,,T 38.000,3
191,,,,,,,,,0.667,,,99.333,,,,,,,,,,N 99.333,9
192,4.000,,1.333,2.667,,2.000,,0.667,,,,6.000,,,2.000,72.667,4.000,4.667,,,,S 72.667,3
193,47.333,,6.667,8.000,0.667,,1.333,3.333,1.333,0.667,1.333,,,10.000,0.667,,,18.667,,,,A 47.333,4
194,,,,,0.667,98.667,,,0.667,,,,,,,,,,,,,G 98.667,8
195,,,,,,,,,,0.667,,,,,,2.667,70.667,26.000,,,,T 70.667,8
196,5.333,,2.000,17.333,,,0.667,,,0.667,,,,0.667,72.667,0.667,,,,,,R 72.667,8
197,,0.667,,,6.667,,3.333,2.000,,0.667,,,,,,0.667,,0.667,,85.333,,Y 85.333,5
198,,,,,,,,,,0.667,,,,,,98.000,1.333,,,,,S 98.000,9
199,39.333,,,0.667,,2.667,1.333,,14.000,,,1.333,4.000,2.000,,28.667,4.000,,,2.000,,A 39.333,3
200,5.333,,,,1.333,1.333,0.667,,,0.667,2.000,,74.000,2.000,0.667,10.667,,0.667,,0.667,,P 74.000,3
201,85.333,,,,,0.667,,2.000,,,,0.667,0.667,,,,10.667,,,,,A 85.333,8
202,,,,,,,0.667,,,2.000,6.000,78.000,1.333,4.667,,2.667,3.333,0.667,,,0.666666666666667,N 78.000,5
203,,,,,1.333,,,,,98.000,,,,,,,,0.667,,,,L 98.000,8
204,,,,,2.667,,1.333,,,,,,,,,,,,,96.000,,Y 96.000,8
205,,,,,,,,,,,,,2.013,,,,,97.987,,,,V 97.987,9
206,,0.671,,,,,,,18.121,,,,,,79.866,1.342,,,,,,R 79.866,8
207,,,28.125,64.062,,1.562,,,3.125,,,,1.562,,,,,1.562,,,,E 64.062,2*
208,,1.562,,,,,,,,60.938,1.562,,3.125,29.688,,,,3.125,,,,L 60.938,1
209,3.125,,,,,,,,,,,1.562,1.562,,93.750,,,,,,,R 93.750,6
210,,,3.125,90.625,,1.562,,,,,,,1.562,1.562,,1.562,,,,,,E 90.625,5
211,0.667,0.667,,,,,,1.333,,2.667,0.667,,,,,,,93.333,,0.667,,V 93.333,7
212,1.333,,,,,,,,0.667,,,,,,98.000,,,,,,,R 98.000,9
213,,,,,,,,,,,,0.667,,,98.000,1.333,,,,,,R 98.000,9
214,,,,,0.667,,,1.333,,2.667,0.667,,,,,,1.333,93.333,,,,V 93.333,8
215,16.000,,,0.667,,,,,,0.667,,,76.667,,,4.000,1.333,0.667,,,,P 76.667,1
216,,,,,,,,,0.667,,,,99.333,,,,,,,,,P 99.333,9
217,,,,0.667,,,1.333,,,,1.333,2.000,,9.333,72.667,3.333,5.333,,,4.000,,R 72.667,4
218,,,,,98.000,,,,,0.667,,,,,,0.667,,,,0.667,,F 98.000,8
219,,,,,,,,,,,,,,,,95.333,4.667,,,,,S 95.333,9
220,,,,,,,,91.333,0.667,,,,0.667,,4.000,0.667,,2.667,,,,I 91.333,8
221,,0.667,,,,,,,,16.000,0.667,,72.000,2.667,2.000,3.333,2.000,0.667,,,,P 72.000,1
222,,,,,,,,,0.667,,,,99.333,,,,,,,,,P 99.333,9
223,4.667,,2.000,8.667,,,,1.333,0.667,1.333,4.667,2.667,12.000,1.333,1.333,19.333,38.000,2.000,,,,T 38.000,1
224,4.698,,13.423,0.671,,,1.342,,0.671,1.342,0.671,36.913,12.752,,,24.832,2.685,,,,,N 36.913,1
225,0.671,1.342,,,0.671,,44.295,0.671,2.685,2.013,,8.054,,17.450,,10.738,0.671,3.356,,7.383,,H 44.295,1
226,,,1.342,95.973,1.342,,,,,,,0.671,,,,,0.671,,,,,E 95.973,8
227,,,,,,,,38.000,,1.333,,,,,,,,60.667,,,,V 60.667,9
228,,,,,,,0.667,0.667,2.000,1.333,90.000,,,,,1.333,2.000,2.000,,,,M 90.000,7
229,0.667,,,,,,,,,17.333,2.667,,78.667,,,,,,,0.667,,P 78.667,7
230,0.667,,,,,96.667,,,,0.667,,0.667,,,,1.333,,,,,,G 96.667,7
231,12.667,,2.000,0.667,,76.000,,,,,,,,1.333,1.333,5.333,0.667,,,,,G 76.000,4
232,,,7.333,,,0.667,,,,,,13.333,,,0.667,75.333,2.000,,0.667,,,S 75.333,7
233,0.667,,,,,,,10.000,,22.000,,,,,,,1.333,65.333,,0.667,,V 65.333,3
234,0.667,,,,,,,,,,,96.000,,,,2.000,1.333,,,,,N 96.000,8
235,,,,,,,,40.000,,58.667,,,,,,,0.667,0.667,,,,L 58.667,7
236,0.667,,,0.667,,,,,,,,0.667,,,,2.667,95.333,,,,,T 95.333,8
237,,99.333,,,,,,,,,,,,,,0.667,,,,,,C 99.333,9
238,,,,0.667,,,,2.000,,,,,,1.333,,,,96.000,,,,V 96.000,9
239,98.667,,,,,0.667,,,,,,,,0.667,,,,,,,,A 98.667,9
240,,,,,0.667,1.333,,,,,0.667,,,,,0.667,,96.000,,0.667,,V 96.000,8
241,,,,,,100.000,,,,,,,,,,,,,,,,G 100.000,9
242,24.667,,,,,,,,,,,,,,,74.000,,1.333,,,,S 74.000,7
243,,,,,,,,,,,,,100.000,,,,,,,,,P 100.000,9
244,,,,,,,,,,2.000,98.000,,,,,,,,,,,M 98.000,9
245,,,,,,,,,,,,,100.000,,,,,,,,,P 100.000,9
246,,,,,14.667,,2.667,,,2.000,,,,,0.667,,,1.333,,78.667,,Y 78.667,1
247,,,,,,,,1.333,,2.000,,,,,,,,96.667,,,,V 96.667,8
248,,,,,,,,,96.000,,,0.667,,,2.667,0.667,,,,,,K 96.000,8
249,,,,,,,,,,,,,,,,,,,100.000,,,W 100.000,9
250,,,,,,,,3.333,2.667,0.667,58.667,,,,22.000,,6.667,6.000,,,,M 58.667,4
251,4.667,,,,0.667,,,,22.000,36.667,8.667,0.667,,6.000,2.667,9.333,6.000,2.667,,,,L 36.667,1
252,,,3.333,8.667,,74.667,,,,,,10.667,1.333,,,1.333,,,,,,G 74.667,3
253,38.000,,4.000,15.333,,,2.000,1.333,,3.333,1.333,2.000,1.333,3.333,,17.333,7.333,3.333,,,,A 38.000,1
254,2.000,,,50.000,,,,3.333,0.667,3.333,0.667,,,10.667,0.667,,8.667,20.000,,,,E 50.000,1
255,,,60.000,37.333,,1.333,,,,,,,,1.333,,,,,,,,D 60.000,6
256,,,,,,,,0.667,,94.667,4.000,,,,0.667,,,,,,,L 94.667,7
257,0.667,,,,,,,0.667,,,,0.667,,,,3.333,94.667,,,,,T 94.667,8
258,2.000,,0.667,0.667,,,,,22.000,0.667,,,61.333,5.333,5.333,1.333,0.667,,,,,P 61.333,4
259,,,15.333,82.000,,,,,,0.667,,,,1.333,,,,0.667,,,,E 82.000,4
260,0.667,,64.000,20.667,,,1.333,0.667,,,,8.667,,,,2.000,1.333,,,0.667,,D 64.000,1
261,,,29.333,47.333,,,2.667,,10.000,1.333,,3.333,0.667,2.000,,3.333,,,,,,E 47.333,1
262,0.671,,,,,,,5.369,,18.121,70.470,,,,,,0.671,4.698,,,,M 70.470,4
263,,,,,,,,,,,,,100.000,,,,,,,,,P 100.000,9
264,,,,,,,,46.000,,11.333,1.333,,,,,,0.667,40.667,,,,I 46.000,2
265,0.667,,,,,98.667,,,,,,,,,,0.667,,,,,,G 98.667,9
266,,,,,,,,1.333,14.000,,,,,,84.000,0.667,,,,,,R 84.000,7
267,,,,,,,,,,,,98.000,,,,1.333,,,,0.667,,N 98.000,9
268,,,,,,,,4.000,,,,,,,,,4.667,90.667,,0.667,,V 90.667,8
269,,,,,,,,0.667,,98.000,1.333,,,,,,,,,,,L 98.000,8
270,0.667,,0.667,80.000,,,0.667,1.333,0.667,,3.333,0.667,,7.333,,,,4.000,,0.667,,E 80.000,2
271,,,0.667,,,,,0.667,,89.333,,,,,,,,9.333,,,,L 89.333,8
272,0.667,,0.667,3.333,0.667,,,1.333,5.333,1.333,,23.333,,0.667,2.000,6.000,54.000,0.667,,,,T 54.000,1
273,,,26.000,0.667,,14.667,,,1.333,,,49.333,,,,8.000,,,,,,N 49.333,3
274,,,,,,,,55.333,,,,,0.667,,,,,44.000,,,,I 55.333,6
275,,,0.667,0.667,,,4.667,,14.667,0.667,2.000,,,14.000,58.667,0.667,0.667,2.000,,0.667,,R 58.667,1
276,0.667,,4.667,56.000,,,2.000,,2.000,,,,,31.333,2.000,,0.667,0.667,,,,E 56.000,3
277,,,,,,,,,,0.667,,,,,,98.667,0.667,,,,,S 98.667,9
278,88.667,,,,,1.333,,,1.333,,,3.333,,,,1.333,2.000,1.333,,0.667,,A 88.667,7
279,,,,,,,0.667,,,,,98.667,,,,0.667,,,,,,N 98.667,9
280,,,,,1.333,,,,,,,,,,,,,,,98.667,,Y 98.667,8
281,,,,,,,,,,,,,,0.667,,2.667,96.667,,,,,T 96.667,8
282,,99.333,,,,,,,,0.667,,,,,,,,,,,,C 99.333,9
283,0.667,,,0.667,0.667,0.667,,12.667,,,2.667,,,,,,2.667,79.333,,,,V 79.333,6
284,100.000,,,,,,,,,,,,,,,,,,,,,A 100.000,9
285,15.333,,,,,1.333,0.667,21.333,,0.667,48.667,0.667,,1.333,0.667,5.333,1.333,2.000,,,0.666666666666667,M 48.667,2
286,,,,,,,,,,,,,,,,98.000,2.000,,,,,S 98.000,9
287,5.333,,11.333,1.333,,,,0.667,2.667,,,,0.667,,,58.000,18.000,2.000,,,,S 58.000,4
288,,,,,0.667,,,,,99.333,,,,,,,,,,,,L 99.333,9
289,,,,,,100.000,,,,,,,,,,,,,,,,G 100.000,9
290,1.342,,,0.671,,,,28.859,,2.013,20.134,2.685,,2.685,,2.685,2.013,36.913,,,,V 36.913,1
291,,,,,,0.671,,96.644,,0.671,,,,,,,,2.013,,,,I 96.644,8
292,,,7.383,87.248,,,1.342,,,,,2.013,,1.342,,,,0.671,,,,E 87.248,5
293,63.758,,0.671,,0.671,,4.698,,,,,,,,0.671,6.711,22.148,0.671,,,,A 63.758,1
294,0.671,,,,0.671,0.671,0.671,5.369,,,4.027,1.342,,,,1.342,50.336,34.899,,,,T 50.336,1
295,71.141,,,,,,,0.671,,,,,0.671,,,15.436,10.067,2.013,,,,A 71.141,3
296,,,,2.013,,0.671,1.342,,,4.027,5.369,,0.671,79.866,,1.342,0.671,1.342,,2.685,,Q 79.866,3
297,,,0.671,,,,,40.268,,,,,,,,,,59.060,,,,V 59.060,7
298,0.671,,,0.671,2.685,,,11.409,19.463,10.738,0.671,2.013,,0.671,1.342,4.027,43.624,1.342,0.671,,,T 43.624,1
299,,,,,,,,0.671,,,,,,,,,0.671,98.658,,,,V 98.658,9
300,,,,,,,1.342,,74.497,,,,,22.819,1.342,,,,,,,K 74.497,8
301,53.378,,,0.676,,1.351,,,,,,0.676,,,,36.486,7.432,,,,,A 53.378,7
302,,,,,0.676,,,,0.676,95.946,,,,0.676,0.676,,0.676,0.676,,,,L 95.946,7
303,,,,,,0.671,,0.671,,,,,97.987,,0.671,,,,,,,P 97.987,8
304,2.685,,0.671,,,9.396,0.671,1.342,61.745,1.342,,3.356,0.671,0.671,10.738,4.698,1.342,,0.671,,,K 61.745,1
305,24.324,,,,,,,,2.703,,2.703,,60.811,2.703,,4.054,,2.703,,,,P 60.811,1
306,1.351,,,,0.676,,,,0.676,,,,96.622,,,,,0.676,,,,P 96.622,7
307,2.703,,1.351,8.108,,38.514,1.351,6.757,,0.676,,,0.676,0.676,,1.351,35.135,2.703,,,,G 38.514,2
308,2.041,,8.844,2.041,4.082,0.680,1.361,0.680,,,3.401,18.367,,0.680,0.680,22.449,31.973,2.041,,0.680,,T 31.973,2
309,,,,,0.680,0.680,,3.401,,32.653,1.361,,40.136,,,0.680,0.680,19.728,,,,P 40.136,2
310,1.361,,,0.680,,2.041,,23.810,2.721,2.721,4.762,0.680,,18.367,4.082,0.680,11.565,25.850,,0.680,,V 25.850,1
311,2.027,0.676,,,2.027,,,5.405,0.676,0.676,,,,,,,1.351,87.162,,,,V 87.162,6
312,,,,0.676,,,,0.676,0.676,,1.351,,,,,25.000,64.865,6.081,,0.676,,T 64.865,7
313,0.676,,13.514,83.108,,,0.676,,,,0.676,,,0.676,,0.676,,,,,,E 83.108,6
314,,,,0.676,,,,13.514,0.676,0.676,0.676,4.054,,,9.459,2.703,55.405,12.162,,,,T 55.405,6
315,1.351,,,,,0.676,,,0.676,,,,,,,2.703,94.595,,,,,T 94.595,8
316,93.919,,1.351,,,,,0.676,,,,,2.703,,,1.351,,,,,,A 93.919,8
317,0.676,,,,,,,,,,0.676,,,0.676,0.676,0.676,96.622,,,,,T 96.622,8
318,,,0.676,,,,,,,,,0.676,,1.351,0.676,93.919,2.703,,,,,S 93.919,8
319,,,,,,,,27.703,,,0.676,,,,,,,71.622,,,,V 71.622,6
320,,,,,,,,,10.135,0.676,,,,0.676,15.541,0.676,71.622,,0.676,,,T 71.622,8
321,,0.676,,,,,,22.973,,74.324,,,,,,,,2.027,,,,L 74.324,7
322,1.351,,,4.054,,,0.676,0.676,,0.676,2.027,1.351,,,,10.135,78.378,0.676,,,,T 78.378,5
323,,,,,,,,,,0.676,,,,,0.676,,,,98.649,,,W 98.649,7
324,0.676,,65.541,5.405,,,,,1.351,1.351,,,,,,23.649,1.351,0.676,,,,D 65.541,6
325,,,0.680,0.680,0.680,,,,,0.680,,,0.680,,,72.109,0.680,,,23.810,,S 72.109,7
326,,,1.361,2.041,,74.150,0.680,,12.245,,,3.401,6.122,,,,,,,,,G 74.150,5
327,0.680,,0.680,,,17.007,,,,,,74.150,1.361,,2.721,1.361,2.041,,,,,N 74.150,6
328,6.849,,1.370,0.685,0.685,0.685,,,,,0.685,2.055,74.658,1.370,0.685,8.904,0.685,0.685,,,,P 74.658,1
329,1.361,,39.456,57.823,,,0.680,,,0.680,,,,,,,,,,,,E 57.823,5
330,0.680,,7.483,6.803,,,1.361,,0.680,1.361,0.680,4.082,70.068,2.041,0.680,3.401,0.680,,,,,P 70.068,2
331,,,,,0.680,,,10.884,,19.048,1.361,0.680,,,0.680,,,66.667,,,,V 66.667,4
332,4.138,,0.690,,,,,0.690,0.690,2.759,1.379,2.069,2.069,15.862,2.759,63.448,2.759,0.690,,,,S 63.448,3
333,,,,,2.721,0.680,5.442,,0.680,,,,,,,2.041,,,,88.435,,Y 88.435,4
334,,,,,5.442,,,,,,,,,,,,,0.680,,93.878,,Y 93.878,7
335,,,,0.676,,2.703,,35.135,,4.730,11.486,,,,,,1.351,43.919,,,,V 43.919,5
336,0.676,,,,,,,88.514,,1.351,,,,,,,0.676,8.784,,,,I 88.514,7
337,,,0.676,6.081,,,0.676,,,0.676,,0.676,,88.514,0.676,,1.351,0.676,,,,Q 88.514,7
338,,,,,4.054,,19.595,,,,,,,,,,,,0.676,75.676,,Y 75.676,6
339,,,,,,,,,47.973,0.676,,,,2.027,47.973,0.676,,,0.676,,,KR 47.973,5
340,36.486,,,,,2.703,,0.676,,,,,45.270,,,14.189,,0.676,,,,P 45.270,2
341,2.721,,,,0.680,,0.680,,89.116,,,0.680,,,4.082,0.680,1.361,,,,,K 89.116,6
342,7.483,,,0.680,3.401,11.565,6.122,,0.680,8.844,,6.803,0.680,8.163,,27.211,5.442,3.401,,9.524,,S 27.211,1
343,22.449,,0.680,,,0.680,,0.680,0.680,2.721,,,16.327,4.762,,40.816,6.803,3.401,,,,S 40.816,2
344,,,50.000,19.863,,2.055,1.370,,,,,22.603,,1.370,0.685,0.685,1.370,,,,,D 50.000,1
345,0.680,,8.844,3.401,,14.286,,,,,,21.088,,21.769,2.721,22.449,1.361,2.721,0.680,,,S 22.449,3
346,21.622,,4.730,3.378,,20.270,,,18.243,4.054,,0.676,15.541,2.703,,5.405,3.378,,,,,A 21.622,1
347,,,,,53.378,,0.676,,,,,,,0.676,,0.676,,,,44.595,,F 53.378,1
348,7.432,,0.676,18.243,0.676,,0.676,,13.514,,,,0.676,42.568,,14.865,0.676,,,,,Q 42.568,6
349,0.676,,,71.622,,0.676,,5.405,0.676,,,,,,,1.351,18.919,0.676,,,,E 71.622,7
350,0.676,,,,,,,37.838,6.081,1.351,1.351,,,,,,2.027,50.676,,,,V 50.676,6
351,,,58.108,14.189,,,,,,,,0.676,0.676,,0.676,25.000,0.676,,,,,D 58.108,7
352,1.351,,6.081,0.676,0.676,77.703,,,,,,0.676,,,,12.838,,,,,,G 77.703,4
353,,,0.676,0.676,,,,54.730,,,0.676,,,,,,,43.243,,,,I 54.730,8
354,47.297,,0.676,,,,,11.486,,,0.676,0.676,0.676,1.351,,,35.811,1.351,,,,A 47.297,7
355,,,,0.676,,,,,,,1.351,0.676,,,,10.135,87.162,,,,,T 87.162,7
356,0.676,,0.676,,,,,0.676,0.676,1.351,18.243,1.351,2.703,,0.676,0.676,71.622,0.676,,,,T 71.622,6
357,,,,1.351,6.757,,2.703,,,,,,,,72.973,0.676,,,,15.541,,R 72.973,5
358,,,0.676,,,,3.378,,,,,,,,,,,,,95.946,,Y 95.946,8
359,,,0.676,,,,8.784,,,,0.676,,,1.351,,75.676,8.784,4.054,,,,S 75.676,7
360,,,,,,,,63.514,,0.676,,,,,,,,35.811,,,,I 63.514,7
361,2.027,,0.676,0.676,,70.270,0.676,,,,,,,0.676,22.973,0.676,1.351,,,,,G 70.270,7
362,2.027,,4.730,,,77.027,,,,,,6.081,,,,8.108,2.027,,,,,G 77.027,5
363,,,,,,,,0.676,,99.324,,,,,,,,,,,,L 99.324,9
364,,,,,,0.676,,,0.676,0.676,,,,0.676,,81.081,1.351,0.676,,14.189,,S 81.081,7
365,0.676,,,,,,,,,,,,98.649,,,0.676,,,,,,P 98.649,9
366,,,0.676,,18.919,,,,,,,23.649,,,,,,,0.676,56.081,,Y 56.081,6
367,,,,,0.676,,,,,0.676,,,,,,52.703,45.946,,,,,S 52.703,8
368,,,12.162,79.054,,,4.054,0.676,,0.676,,,0.676,1.351,1.351,,,,,,,E 79.054,4
369,,,,,,,,,,,,,,,,,,,,100.000,,Y 100.000,9
370,1.351,,3.378,88.514,,,1.351,,,,,,,2.703,1.351,,,0.676,,0.676,,E 88.514,6
371,,,,,64.189,,,21.622,,6.757,6.081,,,,,,,1.351,,,,F 64.189,6
372,,,,,4.730,,0.676,0.676,1.351,0.676,,,,1.351,66.216,,,0.676,5.405,18.243,,R 66.216,3
373,,,,,,,,6.757,,0.676,,,,,,,,92.568,,,,V 92.568,7
374,4.054,,,,,,,27.703,,12.162,20.946,,,,0.676,25.000,,9.459,,,,I 27.703,4
375,97.973,,,0.676,,,,,,,,,,,,0.676,,0.676,,,,A 97.973,9
376,0.676,,,,12.162,,1.351,2.027,,,,,,,0.676,1.351,0.676,79.730,,1.351,,V 79.730,4
377,,,,,,,,,,,,98.649,,,,0.676,0.676,,,,,N 98.649,9
378,2.703,,5.405,0.676,,0.676,0.676,,0.676,,,47.973,,,,25.000,14.189,2.027,,,,N 47.973,2
379,,,,,,,,83.784,,4.730,0.676,,,,,,,10.811,,,,I 83.784,6
380,,,,,,100.000,,,,,,,,,,,,,,,,G 100.000,9
381,,,,,,,0.676,,1.351,,,,0.676,29.730,66.892,,,0.676,,,,R 66.892,7
382,,,,,,99.324,,,,,,,,,,0.676,,,,,,G 99.324,9
383,2.027,,,1.351,,,,,,0.676,0.676,,89.189,,0.676,2.703,2.027,0.676,,,,P 89.189,4
384,3.378,,,0.676,0.676,,2.027,,,,,,87.162,,2.027,4.054,,,,,,P 87.162,3
385,,,,,,2.041,,,,,,,,,,97.959,,,,,,S 97.959,9
386,13.605,,12.925,33.333,,4.762,2.041,0.680,0.680,1.361,,4.082,2.721,1.361,,10.884,7.483,3.401,,,0.680272108843537,E 33.333,1
387,6.164,,1.370,,,,,5.479,2.740,6.164,,,47.945,,7.534,7.534,7.534,7.534,,,,P 47.945,1
388,8.333,,,1.389,,,,7.639,0.694,,,,,,0.694,,1.389,79.861,,,,V 79.861,6
389,0.935,,8.411,43.925,1.869,,0.935,8.411,0.935,3.738,2.804,0.935,,,2.804,0.935,9.346,13.084,,0.935,,E 43.925,1
390,8.642,,,,,,,,,,,,,,,,71.605,19.753,,,,T 71.605,6
391,,,,,,,1.724,,,,,,,8.621,89.655,,,,,,,R 89.655,5
392,,,,,,,,,20.000,,,,,,,,80.000,,,,,T 80.000,5*
393,,,,,,,100.000,,,,,,,,,,,,,,,H 100.000,6*
394,,,,,,,100.000,,,,,,,,,,,,,,,H 100.000,6*
395,,,,,,,100.000,,,,,,,,,,,,,,,H 100.000,6*
396,,,,,,,100.000,,,,,,,,,,,,,,,H 100.000,6*
397,,,,,,,100.000,,,,,,,,,,,,,,,H 100.000,6*
398,,,,,,,100.000,,,,,,,,,,,,,,,H 100.000,6*
