c<A>r<113>a<869>R<LYS>A<CD> 1
c<A>r<113>a<870>R<LYS>A<CE> 1
c<A>r<113>a<871>R<LYS>A<NZ> 1
c<A>r<116>a<892>R<ARG>A<NE> 1
c<A>r<116>a<895>R<ARG>A<NH2> 1
c<A>r<133>a<1035>R<TYR>A<CE1> 2
c<A>r<133>a<1038>R<TYR>A<OH> 1
c<A>r<166>a<1267>R<TYR>A<O> 2
c<A>r<166>a<1271>R<TYR>A<CD2> 2
c<A>r<166>a<1273>R<TYR>A<CE2> 2
c<A>r<166>a<1274>R<TYR>A<CZ> 2
c<A>r<166>a<1275>R<TYR>A<OH> 1
c<A>r<167>a<1279>R<GLU>A<O> 1
c<A>r<167>a<1280>R<GLU>A<CB> 2
c<A>r<167>a<1281>R<GLU>A<CG> 2
c<A>r<167>a<1282>R<GLU>A<CD> 2
c<A>r<167>a<1283>R<GLU>A<OE1> 1
c<A>r<167>a<1284>R<GLU>A<OE2> 1
c<A>r<168>a<1288>R<GLY>A<O> 1
c<A>r<169>a<1292>R<TYR>A<O> 2
c<A>r<169>a<1293>R<TYR>A<CB> 2
c<A>r<169>a<1294>R<TYR>A<CG> 2
c<A>r<169>a<1295>R<TYR>A<CD1> 2
c<A>r<169>a<1296>R<TYR>A<CD2> 2
c<A>r<169>a<1297>R<TYR>A<CE1> 1
c<A>r<169>a<1298>R<TYR>A<CE2> 1
c<A>r<169>a<1299>R<TYR>A<CZ> 1
c<A>r<169>a<1300>R<TYR>A<OH> 1
c<A>r<170>a<1304>R<ALA>A<O> 2
c<A>r<171>a<1307>R<LEU>A<CA> 2
c<A>r<171>a<1310>R<LEU>A<CB> 2
c<A>r<171>a<1312>R<LEU>A<CD1> 1
c<A>r<171>a<1313>R<LEU>A<CD2> 1
c<A>r<172>a<1318>R<PRO>A<CB> 1
c<A>r<172>a<1319>R<PRO>A<CG> 1
c<A>r<172>a<1320>R<PRO>A<CD> 1
c<A>r<173>a<1321>R<HIS>A<N> 1
c<A>r<173>a<1325>R<HIS>A<CB> 1
c<A>r<173>a<1326>R<HIS>A<CG> 2
c<A>r<173>a<1327>R<HIS>A<ND1> 1
c<A>r<173>a<1328>R<HIS>A<CD2> 1
c<A>r<173>a<1329>R<HIS>A<CE1> 1
c<A>r<173>a<1330>R<HIS>A<NE2> 1
c<A>r<283>a<2195>R<MET>A<O> 1
c<A>r<284>a<2201>R<LYS>A<CA> 1
c<A>r<284>a<2202>R<LYS>A<C> 2
c<A>r<284>a<2203>R<LYS>A<O> 1
c<A>r<285>a<2210>R<CYS>A<CA> 2
c<A>r<285>a<2211>R<CYS>A<C> 2
c<A>r<285>a<2212>R<CYS>A<O> 2
c<A>r<286>a<2215>R<ASP>A<N> 1
c<A>r<286>a<2216>R<ASP>A<CA> 2
c<A>r<286>a<2219>R<ASP>A<CB> 1
c<A>r<286>a<2220>R<ASP>A<CG> 2
c<A>r<286>a<2221>R<ASP>A<OD1> 2
c<A>r<286>a<2222>R<ASP>A<OD2> 1
c<A>r<287>a<2223>R<VAL>A<N> 2
c<A>r<287>a<2227>R<VAL>A<CB> 1
c<A>r<287>a<2229>R<VAL>A<CG2> 1
c<A>r<288>a<2232>R<ASP>A<C> 2
c<A>r<288>a<2233>R<ASP>A<O> 1
c<A>r<288>a<2234>R<ASP>A<CB> 1
c<A>r<288>a<2235>R<ASP>A<CG> 1
c<A>r<288>a<2236>R<ASP>A<OD1> 1
c<A>r<288>a<2237>R<ASP>A<OD2> 1
c<A>r<289>a<2244>R<ILE>A<CG2> 1
c<A>r<289>a<2245>R<ILE>A<CD1> 1
c<A>r<290>a<2255>R<ARG>A<NH1> 1
c<A>r<290>a<2256>R<ARG>A<NH2> 1
c<A>r<351>a<2714>R<THR>A<CG2> 1
c<A>r<354>a<2738>R<GLN>A<O> 1
c<A>r<355>a<2745>R<MET>A<CA> 1
c<A>r<355>a<2747>R<MET>A<O> 1
c<A>r<355>a<2749>R<MET>A<CG> 2
c<A>r<355>a<2750>R<MET>A<SD> 1
c<A>r<355>a<2751>R<MET>A<CE> 1
c<A>r<361>a<2802>R<GLU>A<CB> 2
c<A>r<361>a<2803>R<GLU>A<CG> 2
c<A>r<361>a<2804>R<GLU>A<CD> 1
c<A>r<361>a<2805>R<GLU>A<OE1> 1
c<A>r<361>a<2806>R<GLU>A<OE2> 1
c<A>r<364>a<2832>R<GLU>A<CG> 1
c<A>r<364>a<2833>R<GLU>A<CD> 1
c<A>r<364>a<2834>R<GLU>A<OE1> 1
c<A>r<364>a<2835>R<GLU>A<OE2> 1
c<A>r<365>a<2840>R<SER>A<CB> 1
c<A>r<365>a<2841>R<SER>A<OG> 1
c<A>r<368>a<2858>R<SER>A<OG> 1
c<A>r<369>a<2864>R<ILE>A<CG1> 1
c<A>r<369>a<2866>R<ILE>A<CD1> 2
c<A>r<371>a<2875>R<HIS>A<CA> 2
c<A>r<371>a<2877>R<HIS>A<O> 2
c<A>r<371>a<2878>R<HIS>A<CB> 1
c<A>r<371>a<2879>R<HIS>A<CG> 1
c<A>r<371>a<2881>R<HIS>A<CD2> 1
c<A>r<372>a<2885>R<ARG>A<CA> 2
c<A>r<372>a<2886>R<ARG>A<C> 3
c<A>r<372>a<2887>R<ARG>A<O> 3
c<A>r<372>a<2888>R<ARG>A<CB> 2
c<A>r<372>a<2889>R<ARG>A<CG> 1
c<A>r<372>a<2890>R<ARG>A<CD> 1
c<A>r<372>a<2891>R<ARG>A<NE> 2
c<A>r<372>a<2892>R<ARG>A<CZ> 2
c<A>r<372>a<2893>R<ARG>A<NH1> 1
c<A>r<372>a<2894>R<ARG>A<NH2> 1
c<A>r<373>a<2895>R<LYS>A<N> 3
c<A>r<373>a<2896>R<LYS>A<CA> 2
c<A>r<373>a<2897>R<LYS>A<C> 2
c<A>r<373>a<2898>R<LYS>A<O> 1
c<A>r<373>a<2899>R<LYS>A<CB> 2
c<A>r<373>a<2900>R<LYS>A<CG> 2
c<A>r<373>a<2901>R<LYS>A<CD> 2
c<A>r<373>a<2902>R<LYS>A<CE> 1
c<A>r<373>a<2903>R<LYS>A<NZ> 1
c<A>r<374>a<2907>R<CYS>A<O> 1
c<A>r<375>a<2910>R<PHE>A<N> 2
c<A>r<375>a<2911>R<PHE>A<CA> 2
c<A>r<375>a<2912>R<PHE>A<C> 2
c<A>r<375>a<2913>R<PHE>A<O> 1
c<A>r<375>a<2914>R<PHE>A<CB> 1
c<A>r<375>a<2916>R<PHE>A<CD1> 2
c<A>r<375>a<2917>R<PHE>A<CD2> 1
c<A>r<375>a<2918>R<PHE>A<CE1> 1
c<A>r<375>a<2919>R<PHE>A<CE2> 2
c<A>r<375>a<2921>R<PHE>A<OXT> 2
