V1;V2;Weight
1BP3 A F 1;1BP3 A P 2;37.4509
1BP3 A F 1;1BP3 A T 3;16.5376
1BP3 A P 2;1BP3 A T 3;23.549
1BP3 A P 2;1BP3 A I 4;14.2154
1BP3 A P 2;1BP3 A P 5;0.492928
1BP3 A T 3;1BP3 A I 4;28.3738
1BP3 A T 3;1BP3 A P 5;6.71176
1BP3 A T 3;1BP3 A R 127;16.0814
1BP3 A I 4;1BP3 A P 5;37.9127
1BP3 A I 4;1BP3 A L 6;0.0484956
1BP3 A I 4;1BP3 A R 8;12.1382
1BP3 A I 4;1BP3 A L 9;26.772
1BP3 A I 4;1BP3 A R 127;23.5977
1BP3 A P 5;1BP3 A L 6;22.4754
1BP3 A P 5;1BP3 A S 7;18.2134
1BP3 A P 5;1BP3 A R 8;14.3689
1BP3 A P 5;1BP3 A L 9;8.79104
1BP3 A P 5;1BP3 A R 127;2.23431
1BP3 A L 6;1BP3 A S 7;20.6376
1BP3 A L 6;1BP3 A R 8;0.799401
1BP3 A L 6;1BP3 A L 9;22.0552
1BP3 A L 6;1BP3 A F 10;24.0594
1BP3 A L 6;1BP3 A L 124;9.65293
1BP3 A L 6;1BP3 A R 127;38.3225
1BP3 A L 6;1BP3 A L 128;10.1871
1BP3 A L 6;1BP3 A S 184;1.06287
1BP3 A L 6;1BP3 A V 185;18.5773
1BP3 A S 7;1BP3 A R 8;24.3534
1BP3 A S 7;1BP3 A L 9;0.220173
1BP3 A S 7;1BP3 A F 10;4.06286
1BP3 A S 7;1BP3 A D 11;26.9477
1BP3 A S 7;1BP3 A V 185;16.2497
1BP3 A R 8;1BP3 A L 9;22.0941
1BP3 A R 8;1BP3 A F 10;1.46781
1BP3 A R 8;1BP3 A D 11;21.0683
1BP3 A R 8;1BP3 A N 12;34.8412
1BP3 A L 9;1BP3 A F 10;17.1107
1BP3 A L 9;1BP3 A D 11;0.0115678
1BP3 A L 9;1BP3 A N 12;11.4827
1BP3 A L 9;1BP3 A A 13;8.14704
1BP3 A L 9;1BP3 A R 120;4.57361
1BP3 A L 9;1BP3 A T 123;19.6667
1BP3 A L 9;1BP3 A L 124;22.4634
1BP3 A L 9;1BP3 A R 127;16.3405
1BP3 A F 10;1BP3 A D 11;18.2942
1BP3 A F 10;1BP3 A N 12;1.59868
1BP3 A F 10;1BP3 A A 13;8.76517
1BP3 A F 10;1BP3 A M 14;18.0275
1BP3 A F 10;1BP3 A L 76;7.44002
1BP3 A F 10;1BP3 A L 124;26.682
1BP3 A F 10;1BP3 A L 128;12.4476
1BP3 A F 10;1BP3 A L 177;10.4198
1BP3 A F 10;1BP3 A V 180;16.1424
1BP3 A F 10;1BP3 A Q 181;26.0659
1BP3 A F 10;1BP3 A S 184;8.93874
1BP3 A F 10;1BP3 A V 185;15.617
1BP3 A D 11;1BP3 A N 12;19.5986
1BP3 A D 11;1BP3 A A 13;0.640286
1BP3 A D 11;1BP3 A M 14;11.1309
1BP3 A D 11;1BP3 A L 15;13.9802
1BP3 A D 11;1BP3 A Q 181;17.3836
1BP3 A D 11;1BP3 A V 185;3.51891
1BP3 A D 11;1BP3 A S 188;5.02734
1BP3 A N 12;1BP3 A A 13;18.043
1BP3 A N 12;1BP3 A M 14;0.841728
1BP3 A N 12;1BP3 A L 15;16.9838
1BP3 A N 12;1BP3 A R 16;28.7142
1BP3 A N 12;1BP3 A R 120;22.5473
1BP3 A A 13;1BP3 A M 14;18.1682
1BP3 A A 13;1BP3 A L 15;1.54979
1BP3 A A 13;1BP3 A R 16;10.0066
1BP3 A A 13;1BP3 A A 17;8.05877
1BP3 A A 13;1BP3 A L 117;10.5253
1BP3 A A 13;1BP3 A R 120;15.698
1BP3 A A 13;1BP3 A I 121;0.914351
1BP3 A A 13;1BP3 A L 124;9.98892
1BP3 A A 13;1BP3 A L 177;11.8967
1BP3 A M 14;1BP3 A L 15;22.4148
1BP3 A M 14;1BP3 A R 16;0.353849
1BP3 A M 14;1BP3 A A 17;11.8231
1BP3 A M 14;1BP3 A H 18;11.7503
1BP3 A M 14;1BP3 A E 174;14.7639
1BP3 A M 14;1BP3 A L 177;19.2955
1BP3 A M 14;1BP3 A R 178;20.7159
1BP3 A M 14;1BP3 A Q 181;21.9965
1BP3 A L 15;1BP3 A R 16;31.4667
1BP3 A L 15;1BP3 A A 17;0.61841
1BP3 A L 15;1BP3 A H 18;14.0844
1BP3 A L 15;1BP3 A R 19;11.4903
1BP3 A R 16;1BP3 A A 17;15.5279
1BP3 A R 16;1BP3 A H 18;1.43728
1BP3 A R 16;1BP3 A R 19;9.31216
1BP3 A R 16;1BP3 A L 20;12.8948
1BP3 A R 16;1BP3 A L 113;15.8002
1BP3 A R 16;1BP3 A D 116;19.9033
1BP3 A R 16;1BP3 A L 117;17.0142
1BP3 A R 16;1BP3 A R 120;27.4853
1BP3 A A 17;1BP3 A H 18;15.3756
1BP3 A A 17;1BP3 A R 19;0.373568
1BP3 A A 17;1BP3 A L 20;9.9135
1BP3 A A 17;1BP3 A H 21;9.9514
1BP3 A A 17;1BP3 A L 117;13.7678
1BP3 A A 17;1BP3 A M 170;3.29123
1BP3 A A 17;1BP3 A V 173;9.7503
1BP3 A A 17;1BP3 A E 174;19.6223
1BP3 A A 17;1BP3 A L 177;9.12225
1BP3 A H 18;1BP3 A R 19;22.639
1BP3 A H 18;1BP3 A L 20;0.908147
1BP3 A H 18;1BP3 A H 21;10.4296
1BP3 A H 18;1BP3 A Q 22;24.1445
1BP3 A H 18;1BP3 A E 174;19.4885
1BP3 A R 19;1BP3 A L 20;19.8805
1BP3 A R 19;1BP3 A H 21;0.620346
1BP3 A R 19;1BP3 A Q 22;13.1193
1BP3 A R 19;1BP3 A L 23;29.7906
1BP3 A R 19;1BP3 A V 102;0.880696
1BP3 A R 19;1BP3 A Y 103;14.5245
1BP3 A R 19;1BP3 A G 104;17.5411
1BP3 A R 19;1BP3 A A 105;3.46773
1BP3 A R 19;1BP3 A S 108;11.1406
1BP3 A R 19;1BP3 A L 113;18.7703
1BP3 A L 20;1BP3 A H 21;16.0043
1BP3 A L 20;1BP3 A Q 22;0.940038
1BP3 A L 20;1BP3 A L 23;16.6024
1BP3 A L 20;1BP3 A A 24;7.23834
1BP3 A L 20;1BP3 A I 83;2.73274
1BP3 A L 20;1BP3 A V 110;7.21315
1BP3 A L 20;1BP3 A L 113;27.1144
1BP3 A L 20;1BP3 A L 114;17.8432
1BP3 A L 20;1BP3 A L 117;15.4708
1BP3 A L 20;1BP3 A F 166;12.5249
1BP3 A L 20;1BP3 A M 170;25.1093
1BP3 A H 21;1BP3 A Q 22;17.4613
1BP3 A H 21;1BP3 A L 23;0.70852
1BP3 A H 21;1BP3 A A 24;6.10434
1BP3 A H 21;1BP3 A F 25;14.1535
1BP3 A H 21;1BP3 A R 167;9.30623
1BP3 A H 21;1BP3 A M 170;15.9974
1BP3 A H 21;1BP3 A D 171;23.8534
1BP3 A H 21;1BP3 A E 174;18.5953
1BP3 A Q 22;1BP3 A L 23;21.4535
1BP3 A Q 22;1BP3 A A 24;1.0768
1BP3 A Q 22;1BP3 A F 25;26.1737
1BP3 A Q 22;1BP3 A D 26;28.5974
1BP3 A L 23;1BP3 A A 24;19.4772
1BP3 A L 23;1BP3 A F 25;1.17624
1BP3 A L 23;1BP3 A D 26;5.20604
1BP3 A L 23;1BP3 A T 27;18.2271
1BP3 A L 23;1BP3 A F 97;14.1855
1BP3 A L 23;1BP3 A V 102;10.1589
1BP3 A L 23;1BP3 A G 104;0.00185328
1BP3 A L 23;1BP3 A A 105;17.1896
1BP3 A L 23;1BP3 A S 108;9.26531
1BP3 A L 23;1BP3 A V 110;15.3343
1BP3 A L 23;1BP3 A L 113;5.49923
1BP3 A L 23;1BP3 A F 166;6.80827
1BP3 A A 24;1BP3 A F 25;18.7645
1BP3 A A 24;1BP3 A D 26;0.274239
1BP3 A A 24;1BP3 A T 27;6.67467
1BP3 A A 24;1BP3 A Y 28;12.212
1BP3 A A 24;1BP3 A F 97;2.93231
1BP3 A A 24;1BP3 A L 163;4.84456
1BP3 A A 24;1BP3 A F 166;17.8583
1BP3 A A 24;1BP3 A R 167;18.8597
1BP3 A A 24;1BP3 A M 170;7.07182
1BP3 A F 25;1BP3 A D 26;30.9488
1BP3 A F 25;1BP3 A T 27;0.632379
1BP3 A F 25;1BP3 A Y 28;7.27293
1BP3 A F 25;1BP3 A Q 29;34.8771
1BP3 A F 25;1BP3 A R 167;26.2589
1BP3 A D 26;1BP3 A T 27;15.7298
1BP3 A D 26;1BP3 A Y 28;1.06292
1BP3 A D 26;1BP3 A Q 29;17.4952
1BP3 A D 26;1BP3 A E 30;9.74475
1BP3 A D 26;1BP3 A V 102;24.0729
1BP3 A T 27;1BP3 A Y 28;20.3145
1BP3 A T 27;1BP3 A Q 29;0.29535
1BP3 A T 27;1BP3 A E 30;15.6486
1BP3 A T 27;1BP3 A F 31;10.9386
1BP3 A T 27;1BP3 A V 96;8.37726
1BP3 A T 27;1BP3 A F 97;15.9299
1BP3 A T 27;1BP3 A S 100;11.3476
1BP3 A T 27;1BP3 A V 102;11.0733
1BP3 A T 27;1BP3 A A 105;1.2783
1BP3 A T 27;1BP3 A L 163;14.7156
1BP3 A Y 28;1BP3 A Q 29;24.9853
1BP3 A Y 28;1BP3 A E 30;0.964981
1BP3 A Y 28;1BP3 A F 31;6.85083
1BP3 A Y 28;1BP3 A E 32;30.0757
1BP3 A Y 28;1BP3 A Y 42;11.8484
1BP3 A Y 28;1BP3 A F 44;5.21101
1BP3 A Y 28;1BP3 A Y 160;19.4896
1BP3 A Y 28;1BP3 A L 163;23.0736
1BP3 A Y 28;1BP3 A Y 164;20.2974
1BP3 A Y 28;1BP3 A R 167;30.2996
1BP3 A Q 29;1BP3 A E 30;19.3244
1BP3 A Q 29;1BP3 A F 31;0.612661
1BP3 A Q 29;1BP3 A E 32;8.76658
1BP3 A Q 29;1BP3 A E 33;21.1147
1BP3 A Q 29;1BP3 A R 167;0.176713
1BP3 A E 30;1BP3 A F 31;20.6448
1BP3 A E 30;1BP3 A E 32;0.159655
1BP3 A E 30;1BP3 A E 33;13.6786
1BP3 A E 30;1BP3 A A 34;11.6057
1BP3 A E 30;1BP3 A Y 35;5.7701
1BP3 A E 30;1BP3 A V 96;0.241609
1BP3 A E 30;1BP3 A N 99;6.81788
1BP3 A E 30;1BP3 A S 100;17.1837
1BP3 A E 30;1BP3 A L 101;17.9988
1BP3 A E 30;1BP3 A V 102;19.2446
1BP3 A F 31;1BP3 A E 32;19.6939
1BP3 A F 31;1BP3 A E 33;1.71652
1BP3 A F 31;1BP3 A A 34;6.13231
1BP3 A F 31;1BP3 A Y 35;45.7743
1BP3 A F 31;1BP3 A I 36;4.26392
1BP3 A F 31;1BP3 A V 96;17.1459
1BP3 A F 31;1BP3 A L 156;14.0343
1BP3 A F 31;1BP3 A N 159;13.8715
1BP3 A F 31;1BP3 A Y 160;24.9153
1BP3 A F 31;1BP3 A L 163;17.5225
1BP3 A E 32;1BP3 A E 33;24.4988
1BP3 A E 32;1BP3 A A 34;2.03655
1BP3 A E 32;1BP3 A Y 35;8.70992
1BP3 A E 32;1BP3 A I 36;8.18193
1BP3 A E 32;1BP3 A P 37;17.5439
1BP3 A E 32;1BP3 A K 38;3.06236
1BP3 A E 32;1BP3 A K 41;5.64907
1BP3 A E 32;1BP3 A Y 42;11.4965
1BP3 A E 32;1BP3 A Y 160;21.2511
1BP3 A E 33;1BP3 A A 34;23.1565
1BP3 A E 33;1BP3 A P 37;14.8779
1BP3 A E 33;1BP3 A K 38;1.83225
1BP3 A A 34;1BP3 A Y 35;40.5302
1BP3 A A 34;1BP3 A P 37;12.3147
1BP3 A Y 35;1BP3 A I 36;24.3986
1BP3 A Y 35;1BP3 A P 37;3.24199
1BP3 A Y 35;1BP3 A N 99;3.42576
1BP3 A Y 35;1BP3 A L 156;27.3039
1BP3 A Y 35;1BP3 A Y 160;0.412413
1BP3 A I 36;1BP3 A P 37;29.772
1BP3 A I 36;1BP3 A K 38;0.515212
1BP3 A I 36;1BP3 A Q 40;29.5228
1BP3 A I 36;1BP3 A K 41;14.3138
1BP3 A I 36;1BP3 A S 43;3.42517
1BP3 A I 36;1BP3 A L 156;28.704
1BP3 A I 36;1BP3 A L 157;17.4939
1BP3 A I 36;1BP3 A Y 160;23.9881
1BP3 A P 37;1BP3 A K 38;52.4169
1BP3 A P 37;1BP3 A Q 40;4.06722
1BP3 A P 37;1BP3 A K 41;8.84004
1BP3 A K 38;1BP3 A E 39;27.2876
1BP3 A K 38;1BP3 A Q 40;8.39606
1BP3 A K 38;1BP3 A K 41;27.1317
1BP3 A E 39;1BP3 A Q 40;29.2133
1BP3 A E 39;1BP3 A K 41;20.6019
1BP3 A E 39;1BP3 A Y 42;0.0931961
1BP3 A Q 40;1BP3 A K 41;20.658
1BP3 A Q 40;1BP3 A Y 42;4.13385
1BP3 A Q 40;1BP3 A S 43;23.6486
1BP3 A Q 40;1BP3 A L 157;14.0414
1BP3 A K 41;1BP3 A Y 42;30.8429
1BP3 A K 41;1BP3 A S 43;6.59408
1BP3 A K 41;1BP3 A Y 160;13.1157
1BP3 A Y 42;1BP3 A S 43;17.4071
1BP3 A Y 42;1BP3 A F 44;23.2828
1BP3 A Y 42;1BP3 A L 45;30.3871
1BP3 A Y 42;1BP3 A Q 46;7.00216
1BP3 A Y 42;1BP3 A Y 160;8.46883
1BP3 A Y 42;1BP3 A Y 164;5.91503
1BP3 A Y 42;1BP3 A R 167;6.91431
1BP3 A S 43;1BP3 A F 44;16.5641
1BP3 A S 43;1BP3 A L 45;1.49797
1BP3 A S 43;1BP3 A Q 46;19.7063
1BP3 A S 43;1BP3 A T 50;6.48029
1BP3 A S 43;1BP3 A L 157;26.2155
1BP3 A S 43;1BP3 A Y 160;1.65889
1BP3 A F 44;1BP3 A L 45;30.9664
1BP3 A F 44;1BP3 A Q 46;0.488927
1BP3 A F 44;1BP3 A T 50;17.6871
1BP3 A F 44;1BP3 A S 51;15.9111
1BP3 A F 44;1BP3 A L 157;13.6985
1BP3 A F 44;1BP3 A Y 160;23.1187
1BP3 A F 44;1BP3 A G 161;16.5339
1BP3 A F 44;1BP3 A Y 164;32.6161
1BP3 A L 45;1BP3 A Q 46;19.9578
1BP3 A L 45;1BP3 A N 47;8.88051
1BP3 A L 45;1BP3 A T 50;1.67606
1BP3 A L 45;1BP3 A S 51;16.5196
1BP3 A L 45;1BP3 A Y 164;3.00068
1BP3 A Q 46;1BP3 A N 47;49.3307
1BP3 A Q 46;1BP3 A Q 49;19.4474
1BP3 A Q 46;1BP3 A T 50;24.6769
1BP3 A N 47;1BP3 A P 48;32.7341
1BP3 A N 47;1BP3 A Q 49;7.38707
1BP3 A N 47;1BP3 A T 50;4.97988
1BP3 A N 47;1BP3 A S 51;4.93469
1BP3 A P 48;1BP3 A Q 49;26.4651
1BP3 A P 48;1BP3 A T 50;0.851722
1BP3 A P 48;1BP3 A S 51;9.02135
1BP3 A P 48;1BP3 A L 52;25.645
1BP3 A Q 49;1BP3 A T 50;40.8971
1BP3 A Q 49;1BP3 A S 51;0.0534845
1BP3 A Q 49;1BP3 A L 52;11.1145
1BP3 A T 50;1BP3 A S 51;19.1082
1BP3 A T 50;1BP3 A L 52;10.4496
1BP3 A T 50;1BP3 A L 157;7.46373
1BP3 A T 50;1BP3 A G 161;2.10758
1BP3 A S 51;1BP3 A L 52;30.2431
1BP3 A S 51;1BP3 A C 53;3.83477
1BP3 A S 51;1BP3 A Y 164;6.32341
1BP3 A S 51;1BP3 A C 165;3.78169
1BP3 A L 52;1BP3 A C 53;25.0574
1BP3 A L 52;1BP3 A F 54;1.87514
1BP3 A L 52;1BP3 A E 56;27.4934
1BP3 A L 52;1BP3 A C 165;3.35907
1BP3 A C 53;1BP3 A F 54;25.0992
1BP3 A C 53;1BP3 A S 55;16.0246
1BP3 A C 53;1BP3 A E 56;27.2308
1BP3 A C 53;1BP3 A Y 164;5.63836
1BP3 A C 53;1BP3 A C 165;25.6714
1BP3 A C 53;1BP3 A K 168;15.1102
1BP3 A C 53;1BP3 A D 169;3.10815
1BP3 A F 54;1BP3 A S 55;27.8389
1BP3 A F 54;1BP3 A E 56;9.93292
1BP3 A F 54;1BP3 A S 57;11.3187
1BP3 A F 54;1BP3 A I 58;1.14365
1BP3 A F 54;1BP3 A S 85;15.2
1BP3 A F 54;1BP3 A W 86;18.0932
1BP3 A F 54;1BP3 A P 89;15.176
1BP3 A F 54;1BP3 A S 144;20.8991
1BP3 A F 54;1BP3 A K 145;14.8189
1BP3 A F 54;1BP3 A F 146;27.3447
1BP3 A F 54;1BP3 A L 162;11.7438
1BP3 A F 54;1BP3 A C 165;5.49205
1BP3 A S 55;1BP3 A E 56;20.1577
1BP3 A S 55;1BP3 A I 58;14.8909
1BP3 A S 55;1BP3 A T 60;4.24344
1BP3 A S 55;1BP3 A L 82;10.4079
1BP3 A S 55;1BP3 A S 85;8.21896
1BP3 A S 55;1BP3 A W 86;8.2585
1BP3 A S 55;1BP3 A S 144;1.04765
1BP3 A S 55;1BP3 A C 165;1.97331
1BP3 A S 55;1BP3 A D 169;17.7246
1BP3 A S 55;1BP3 A K 172;9.57514
1BP3 A E 56;1BP3 A S 57;27.1301
1BP3 A E 56;1BP3 A I 58;18.585
1BP3 A E 56;1BP3 A P 59;1.53625
1BP3 A E 56;1BP3 A T 60;0.365744
1BP3 A E 56;1BP3 A K 172;2.25992
1BP3 A S 57;1BP3 A I 58;24.1822
1BP3 A S 57;1BP3 A P 59;8.22779
1BP3 A S 57;1BP3 A T 142;24.8288
1BP3 A S 57;1BP3 A S 144;14.4953
1BP3 A I 58;1BP3 A P 59;28.1444
1BP3 A I 58;1BP3 A T 60;20.0035
1BP3 A I 58;1BP3 A I 78;11.3105
1BP3 A I 58;1BP3 A L 81;20.1837
1BP3 A I 58;1BP3 A L 82;12.9874
1BP3 A I 58;1BP3 A S 85;6.72495
1BP3 A I 58;1BP3 A I 138;9.42875
1BP3 A I 58;1BP3 A T 142;19.4086
1BP3 A I 58;1BP3 A S 144;3.20532
1BP3 A P 59;1BP3 A T 60;23.0853
1BP3 A P 59;1BP3 A P 61;0.66809
1BP3 A P 59;1BP3 A I 78;5.43528
1BP3 A P 59;1BP3 A Q 137;22.9962
1BP3 A P 59;1BP3 A I 138;22.2736
1BP3 A P 59;1BP3 A T 142;2.47523
1BP3 A T 60;1BP3 A P 61;34.8561
1BP3 A T 60;1BP3 A S 62;6.37878
1BP3 A T 60;1BP3 A E 66;1.68527
1BP3 A T 60;1BP3 A I 78;14.3983
1BP3 A T 60;1BP3 A L 82;8.93347
1BP3 A T 60;1BP3 A Q 137;0.573464
1BP3 A T 60;1BP3 A K 172;23.9787
1BP3 A T 60;1BP3 A F 176;7.12554
1BP3 A P 61;1BP3 A S 62;20.0587
1BP3 A P 61;1BP3 A N 63;0.000798417
1BP3 A P 61;1BP3 A E 66;20.0238
1BP3 A P 61;1BP3 A T 67;19.3018
1BP3 A P 61;1BP3 A K 70;16.7261
1BP3 A P 61;1BP3 A L 75;6.35392
1BP3 A P 61;1BP3 A I 78;9.76764
1BP3 A P 61;1BP3 A Q 137;2.61477
1BP3 A P 61;1BP3 A F 176;14.6212
1BP3 A S 62;1BP3 A N 63;26.5224
1BP3 A S 62;1BP3 A E 66;21.8334
1BP3 A S 62;1BP3 A T 67;0.719439
1BP3 A N 63;1BP3 A R 64;23.6885
1BP3 A N 63;1BP3 A E 65;22.8002
1BP3 A N 63;1BP3 A E 66;30.9721
1BP3 A N 63;1BP3 A T 67;13.783
1BP3 A R 64;1BP3 A E 65;31.1162
1BP3 A R 64;1BP3 A E 66;0.796156
1BP3 A R 64;1BP3 A T 67;6.79601
1BP3 A R 64;1BP3 A Q 68;44.208
1BP3 A E 65;1BP3 A E 66;14.8939
1BP3 A E 65;1BP3 A T 67;0.803818
1BP3 A E 65;1BP3 A Q 68;17.5698
1BP3 A E 65;1BP3 A Q 69;19.9457
1BP3 A E 66;1BP3 A T 67;15.3221
1BP3 A E 66;1BP3 A Q 68;0.47145
1BP3 A E 66;1BP3 A Q 69;30.4069
1BP3 A E 66;1BP3 A K 70;12.5829
1BP3 A T 67;1BP3 A Q 68;19.1452
1BP3 A T 67;1BP3 A Q 69;1.14811
1BP3 A T 67;1BP3 A K 70;4.61215
1BP3 A T 67;1BP3 A L 75;15.8794
1BP3 A T 67;1BP3 A T 175;2.29916
1BP3 A T 67;1BP3 A F 176;12.4111
1BP3 A T 67;1BP3 A I 179;14.9953
1BP3 A T 67;1BP3 A R 183;0.416832
1BP3 A Q 68;1BP3 A Q 69;24.5348
1BP3 A Q 68;1BP3 A K 70;2.16415
1BP3 A Q 68;1BP3 A L 75;0.000839944
1BP3 A Q 68;1BP3 A I 179;8.72517
1BP3 A Q 68;1BP3 A R 183;18.0839
1BP3 A Q 69;1BP3 A K 70;28.9438
1BP3 A Q 69;1BP3 A S 71;6.22762
1BP3 A K 70;1BP3 A S 71;19.2703
1BP3 A K 70;1BP3 A E 74;28.4869
1BP3 A K 70;1BP3 A L 75;23.8421
1BP3 A K 70;1BP3 A I 78;3.10999
1BP3 A K 70;1BP3 A G 136;5.92766e-05
1BP3 A K 70;1BP3 A Q 137;30.9696
1BP3 A K 70;1BP3 A R 183;7.49338
1BP3 A S 71;1BP3 A N 72;21.0742
1BP3 A S 71;1BP3 A L 73;13.9015
1BP3 A S 71;1BP3 A E 74;29.4571
1BP3 A S 71;1BP3 A L 75;7.90667
1BP3 A S 71;1BP3 A R 183;8.49833
1BP3 A N 72;1BP3 A L 73;20.0984
1BP3 A N 72;1BP3 A E 74;0.142664
1BP3 A N 72;1BP3 A L 75;9.26609
1BP3 A N 72;1BP3 A L 76;11.1071
1BP3 A N 72;1BP3 A L 128;13.6222
1BP3 A N 72;1BP3 A V 180;23.293
1BP3 A N 72;1BP3 A R 183;34.7716
1BP3 A N 72;1BP3 A S 184;11.6716
1BP3 A L 73;1BP3 A E 74;22.0645
1BP3 A L 73;1BP3 A L 75;1.07213
1BP3 A L 73;1BP3 A L 76;16.03
1BP3 A L 73;1BP3 A R 77;8.46168
1BP3 A L 73;1BP3 A M 125;28.4273
1BP3 A L 73;1BP3 A L 128;24.4986
1BP3 A L 73;1BP3 A E 129;16.5122
1BP3 A L 73;1BP3 A P 133;3.13768
1BP3 A L 73;1BP3 A R 134;11.7851
1BP3 A E 74;1BP3 A L 75;17.0073
1BP3 A E 74;1BP3 A L 76;0.454053
1BP3 A E 74;1BP3 A R 77;19.1769
1BP3 A E 74;1BP3 A I 78;11.6141
1BP3 A E 74;1BP3 A T 135;3.40023
1BP3 A E 74;1BP3 A G 136;19.1933
1BP3 A E 74;1BP3 A Q 137;18.986
1BP3 A L 75;1BP3 A L 76;17.5443
1BP3 A L 75;1BP3 A R 77;1.60969
1BP3 A L 75;1BP3 A I 78;12.3889
1BP3 A L 75;1BP3 A S 79;6.81581
1BP3 A L 75;1BP3 A F 176;26.2662
1BP3 A L 75;1BP3 A I 179;15.3973
1BP3 A L 75;1BP3 A V 180;14.3389
1BP3 A L 75;1BP3 A R 183;10.4573
1BP3 A L 76;1BP3 A R 77;17.0292
1BP3 A L 76;1BP3 A I 78;0.818635
1BP3 A L 76;1BP3 A S 79;11.8615
1BP3 A L 76;1BP3 A L 80;4.38537
1BP3 A L 76;1BP3 A I 121;19.7187
1BP3 A L 76;1BP3 A L 124;15.8869
1BP3 A L 76;1BP3 A M 125;19.8786
1BP3 A L 76;1BP3 A L 128;13.5106
1BP3 A L 76;1BP3 A F 176;0.0622146
1BP3 A L 76;1BP3 A L 177;13.2867
1BP3 A L 76;1BP3 A V 180;15.2339
1BP3 A R 77;1BP3 A I 78;20.8031
1BP3 A R 77;1BP3 A S 79;1.24017
1BP3 A R 77;1BP3 A L 80;15.6456
1BP3 A R 77;1BP3 A L 81;25.7021
1BP3 A R 77;1BP3 A M 125;23.2531
1BP3 A R 77;1BP3 A R 134;30.7353
1BP3 A R 77;1BP3 A T 135;0.518798
1BP3 A R 77;1BP3 A G 136;2.78936
1BP3 A R 77;1BP3 A Q 137;13.5224
1BP3 A R 77;1BP3 A I 138;29.0364
1BP3 A R 77;1BP3 A F 139;8.49574
1BP3 A I 78;1BP3 A S 79;16.0235
1BP3 A I 78;1BP3 A L 80;1.05781
1BP3 A I 78;1BP3 A L 81;15.8109
1BP3 A I 78;1BP3 A L 82;21.7003
1BP3 A I 78;1BP3 A Q 137;10.5036
1BP3 A I 78;1BP3 A I 138;9.7746
1BP3 A I 78;1BP3 A F 176;14.4007
1BP3 A S 79;1BP3 A L 80;15.9614
1BP3 A S 79;1BP3 A L 81;0.110071
1BP3 A S 79;1BP3 A L 82;12.1349
1BP3 A S 79;1BP3 A I 83;11.152
1BP3 A S 79;1BP3 A I 121;8.5512
1BP3 A S 79;1BP3 A V 173;19.0494
1BP3 A S 79;1BP3 A F 176;11.8734
1BP3 A S 79;1BP3 A L 177;11.3483
1BP3 A L 80;1BP3 A L 81;20.9193
1BP3 A L 80;1BP3 A L 82;1.11671
1BP3 A L 80;1BP3 A I 83;17.8978
1BP3 A L 80;1BP3 A Q 84;26.9142
1BP3 A L 80;1BP3 A E 118;16.8124
1BP3 A L 80;1BP3 A I 121;19.8906
1BP3 A L 80;1BP3 A Q 122;24.789
1BP3 A L 80;1BP3 A M 125;13.1045
1BP3 A L 81;1BP3 A L 82;18.1349
1BP3 A L 81;1BP3 A I 83;0.94627
1BP3 A L 81;1BP3 A Q 84;21.8025
1BP3 A L 81;1BP3 A S 85;12.2215
1BP3 A L 81;1BP3 A I 138;15.5103
1BP3 A L 81;1BP3 A Q 141;15.6258
1BP3 A L 81;1BP3 A T 142;14.4335
1BP3 A L 82;1BP3 A I 83;17.9765
1BP3 A L 82;1BP3 A Q 84;0.209063
1BP3 A L 82;1BP3 A S 85;11.5939
1BP3 A L 82;1BP3 A W 86;16.0816
1BP3 A L 82;1BP3 A D 169;18.498
1BP3 A L 82;1BP3 A M 170;3.50299
1BP3 A L 82;1BP3 A K 172;14.2962
1BP3 A L 82;1BP3 A V 173;14.3362
1BP3 A L 82;1BP3 A F 176;4.75433
1BP3 A I 83;1BP3 A Q 84;17.5058
1BP3 A I 83;1BP3 A S 85;0.763497
1BP3 A I 83;1BP3 A W 86;7.33171
1BP3 A I 83;1BP3 A L 87;11.1391
1BP3 A I 83;1BP3 A L 114;31.3344
1BP3 A I 83;1BP3 A L 117;15.9943
1BP3 A I 83;1BP3 A E 118;18.2251
1BP3 A I 83;1BP3 A I 121;7.8297
1BP3 A I 83;1BP3 A M 170;8.06495
1BP3 A I 83;1BP3 A V 173;14.1103
1BP3 A Q 84;1BP3 A S 85;18.8851
1BP3 A Q 84;1BP3 A W 86;1.50066
1BP3 A Q 84;1BP3 A L 87;26.6164
1BP3 A Q 84;1BP3 A E 88;0.83872
1BP3 A Q 84;1BP3 A E 118;18.206
1BP3 A Q 84;1BP3 A Q 122;2.57091
1BP3 A Q 84;1BP3 A Q 141;9.69938
1BP3 A Q 84;1BP3 A Y 143;26.3013
1BP3 A S 85;1BP3 A W 86;18.4038
1BP3 A S 85;1BP3 A L 87;2.10171
1BP3 A S 85;1BP3 A E 88;2.58387
1BP3 A S 85;1BP3 A P 89;9.73355
1BP3 A S 85;1BP3 A T 142;3.76288
1BP3 A S 85;1BP3 A Y 143;15.6974
1BP3 A S 85;1BP3 A S 144;17.6012
1BP3 A W 86;1BP3 A L 87;15.7087
1BP3 A W 86;1BP3 A E 88;1.29039
1BP3 A W 86;1BP3 A P 89;17.9979
1BP3 A W 86;1BP3 A V 90;21.294
1BP3 A W 86;1BP3 A L 93;10.177
1BP3 A W 86;1BP3 A L 114;12.9606
1BP3 A W 86;1BP3 A L 162;15.478
1BP3 A W 86;1BP3 A C 165;10.012
1BP3 A W 86;1BP3 A F 166;31.1825
1BP3 A W 86;1BP3 A D 169;15.8978
1BP3 A W 86;1BP3 A M 170;10.3303
1BP3 A L 87;1BP3 A E 88;26.3543
1BP3 A L 87;1BP3 A P 89;0.339005
1BP3 A L 87;1BP3 A V 90;8.50814
1BP3 A L 87;1BP3 A Q 91;8.24913
1BP3 A L 87;1BP3 A Y 111;31.4107
1BP3 A L 87;1BP3 A L 114;14.2756
1BP3 A L 87;1BP3 A K 115;20.5247
1BP3 A L 87;1BP3 A E 118;9.37661
1BP3 A L 87;1BP3 A Y 143;12.258
1BP3 A E 88;1BP3 A P 89;27.7042
1BP3 A E 88;1BP3 A V 90;3.35183
1BP3 A E 88;1BP3 A Q 91;21.5902
1BP3 A E 88;1BP3 A F 92;8.70535
1BP3 A E 88;1BP3 A Y 143;25.5653
1BP3 A E 88;1BP3 A S 144;1.14768
1BP3 A E 88;1BP3 A K 145;22.559
1BP3 A P 89;1BP3 A V 90;15.6339
1BP3 A P 89;1BP3 A Q 91;2.71315
1BP3 A P 89;1BP3 A F 92;18.6837
1BP3 A P 89;1BP3 A L 93;8.63978
1BP3 A P 89;1BP3 A S 144;0.711421
1BP3 A P 89;1BP3 A K 145;11.6853
1BP3 A P 89;1BP3 A F 146;12.3445
1BP3 A P 89;1BP3 A L 162;10.3569
1BP3 A V 90;1BP3 A Q 91;19.8777
1BP3 A V 90;1BP3 A F 92;0.214427
1BP3 A V 90;1BP3 A L 93;19.5173
1BP3 A V 90;1BP3 A R 94;9.78576
1BP3 A V 90;1BP3 A F 97;14.1523
1BP3 A V 90;1BP3 A V 110;14.9369
1BP3 A V 90;1BP3 A Y 111;11.9491
1BP3 A V 90;1BP3 A L 114;11.587
1BP3 A V 90;1BP3 A F 166;9.28428
1BP3 A Q 91;1BP3 A F 92;33.4011
1BP3 A Q 91;1BP3 A L 93;1.31094
1BP3 A Q 91;1BP3 A R 94;39.864
1BP3 A Q 91;1BP3 A Y 111;23.5633
1BP3 A F 92;1BP3 A L 93;23.9717
1BP3 A F 92;1BP3 A R 94;3.75624
1BP3 A F 92;1BP3 A S 95;14.624
1BP3 A F 92;1BP3 A V 96;1.5098
1BP3 A F 92;1BP3 A K 145;12.9846
1BP3 A F 92;1BP3 A F 146;15.425
1BP3 A F 92;1BP3 A D 147;0.000437609
1BP3 A F 92;1BP3 A T 148;23.369
1BP3 A F 92;1BP3 A N 159;9.38274
1BP3 A F 92;1BP3 A L 162;8.62105
1BP3 A L 93;1BP3 A R 94;15.3792
1BP3 A L 93;1BP3 A S 95;2.31827
1BP3 A L 93;1BP3 A V 96;24.1659
1BP3 A L 93;1BP3 A F 97;24.201
1BP3 A L 93;1BP3 A N 159;9.81345
1BP3 A L 93;1BP3 A L 162;23.6585
1BP3 A L 93;1BP3 A L 163;12.7927
1BP3 A L 93;1BP3 A F 166;4.32364
1BP3 A R 94;1BP3 A S 95;24.1921
1BP3 A R 94;1BP3 A V 96;0.489383
1BP3 A R 94;1BP3 A F 97;12.587
1BP3 A R 94;1BP3 A A 98;16.8202
1BP3 A R 94;1BP3 A N 109;16.8872
1BP3 A R 94;1BP3 A Y 111;1.27776
1BP3 A S 95;1BP3 A V 96;28.8498
1BP3 A S 95;1BP3 A F 97;0.350204
1BP3 A S 95;1BP3 A A 98;10.2793
1BP3 A S 95;1BP3 A N 99;8.0913
1BP3 A S 95;1BP3 A N 159;10.2251
1BP3 A V 96;1BP3 A F 97;20.3355
1BP3 A V 96;1BP3 A A 98;2.5897
1BP3 A V 96;1BP3 A N 99;6.06542
1BP3 A V 96;1BP3 A S 100;11.9732
1BP3 A V 96;1BP3 A N 159;15.4234
1BP3 A V 96;1BP3 A L 163;17.0305
1BP3 A F 97;1BP3 A A 98;19.2453
1BP3 A F 97;1BP3 A N 99;0.0627168
1BP3 A F 97;1BP3 A S 100;11.9431
1BP3 A F 97;1BP3 A A 105;17.6906
1BP3 A F 97;1BP3 A S 106;6.01867
1BP3 A F 97;1BP3 A V 110;24.1803
1BP3 A F 97;1BP3 A L 163;9.73562
1BP3 A F 97;1BP3 A F 166;14.5465
1BP3 A A 98;1BP3 A N 99;25.3011
1BP3 A A 98;1BP3 A S 100;6.67689
1BP3 A A 98;1BP3 A S 106;24.0361
1BP3 A N 99;1BP3 A S 100;20.0077
1BP3 A N 99;1BP3 A L 101;20.0112
1BP3 A S 100;1BP3 A L 101;19.1228
1BP3 A S 100;1BP3 A V 102;17.0172
1BP3 A S 100;1BP3 A Y 103;0.993995
1BP3 A S 100;1BP3 A A 105;11.3831
1BP3 A S 100;1BP3 A S 106;5.81998
1BP3 A L 101;1BP3 A V 102;23.8523
1BP3 A L 101;1BP3 A Y 103;11.5964
1BP3 A V 102;1BP3 A Y 103;31.4864
1BP3 A V 102;1BP3 A G 104;0.155408
1BP3 A V 102;1BP3 A A 105;14.4373
1BP3 A V 102;1BP3 A S 106;0.0472703
1BP3 A Y 103;1BP3 A G 104;26.5272
1BP3 A Y 103;1BP3 A A 105;3.94906
1BP3 A Y 103;1BP3 A S 106;0.980903
1BP3 A Y 103;1BP3 A D 107;18.9211
1BP3 A G 104;1BP3 A A 105;19.0559
1BP3 A G 104;1BP3 A S 106;2.25291
1BP3 A G 104;1BP3 A D 107;15.1433
1BP3 A G 104;1BP3 A S 108;16.8662
1BP3 A A 105;1BP3 A S 106;27.5215
1BP3 A A 105;1BP3 A D 107;0.176195
1BP3 A A 105;1BP3 A S 108;13.8106
1BP3 A A 105;1BP3 A N 109;0.310227
1BP3 A A 105;1BP3 A V 110;2.95874
1BP3 A S 106;1BP3 A D 107;31.9218
1BP3 A S 106;1BP3 A S 108;3.78938
1BP3 A S 106;1BP3 A N 109;15.0334
1BP3 A D 107;1BP3 A S 108;21.3944
1BP3 A D 107;1BP3 A N 109;11.2316
1BP3 A S 108;1BP3 A N 109;17.9577
1BP3 A S 108;1BP3 A V 110;9.27723
1BP3 A S 108;1BP3 A D 112;0.0170579
1BP3 A S 108;1BP3 A L 113;23.7789
1BP3 A N 109;1BP3 A V 110;17.6373
1BP3 A N 109;1BP3 A Y 111;14.9489
1BP3 A N 109;1BP3 A D 112;31.0726
1BP3 A N 109;1BP3 A L 113;5.03343
1BP3 A V 110;1BP3 A Y 111;19.2119
1BP3 A V 110;1BP3 A D 112;1.5341
1BP3 A V 110;1BP3 A L 113;15.559
1BP3 A V 110;1BP3 A L 114;18.1572
1BP3 A V 110;1BP3 A F 166;10.5773
1BP3 A Y 111;1BP3 A D 112;24.1282
1BP3 A Y 111;1BP3 A L 113;0.183938
1BP3 A Y 111;1BP3 A L 114;13.2719
1BP3 A Y 111;1BP3 A K 115;30.9822
1BP3 A D 112;1BP3 A L 113;23.8488
1BP3 A D 112;1BP3 A L 114;1.55644
1BP3 A D 112;1BP3 A K 115;13.5886
1BP3 A D 112;1BP3 A D 116;11.3885
1BP3 A L 113;1BP3 A L 114;16.1788
1BP3 A L 113;1BP3 A K 115;0.582483
1BP3 A L 113;1BP3 A D 116;13.0292
1BP3 A L 113;1BP3 A L 117;11.4056
1BP3 A L 114;1BP3 A K 115;17.691
1BP3 A L 114;1BP3 A D 116;0.611084
1BP3 A L 114;1BP3 A L 117;6.64989
1BP3 A L 114;1BP3 A E 118;8.67053
1BP3 A L 114;1BP3 A F 166;9.0508
1BP3 A L 114;1BP3 A M 170;4.90063
1BP3 A K 115;1BP3 A D 116;21.7717
1BP3 A K 115;1BP3 A L 117;0.470854
1BP3 A K 115;1BP3 A E 118;35.4214
1BP3 A K 115;1BP3 A E 119;7.80353
1BP3 A D 116;1BP3 A L 117;19.2208
1BP3 A D 116;1BP3 A E 118;1.83114
1BP3 A D 116;1BP3 A E 119;11.6112
1BP3 A D 116;1BP3 A R 120;28.4949
1BP3 A L 117;1BP3 A E 118;17.125
1BP3 A L 117;1BP3 A E 119;0.649067
1BP3 A L 117;1BP3 A R 120;16.7153
1BP3 A L 117;1BP3 A I 121;20.7754
1BP3 A L 117;1BP3 A M 170;0.723384
1BP3 A L 117;1BP3 A V 173;10.0301
1BP3 A L 117;1BP3 A L 177;3.80023
1BP3 A E 118;1BP3 A E 119;19.1415
1BP3 A E 118;1BP3 A R 120;0.257422
1BP3 A E 118;1BP3 A I 121;7.61249
1BP3 A E 118;1BP3 A Q 122;22.5873
1BP3 A E 119;1BP3 A R 120;20.0433
1BP3 A E 119;1BP3 A I 121;2.10334
1BP3 A E 119;1BP3 A Q 122;17.8112
1BP3 A E 119;1BP3 A T 123;14.5187
1BP3 A R 120;1BP3 A I 121;16.808
1BP3 A R 120;1BP3 A Q 122;0.132046
1BP3 A R 120;1BP3 A T 123;12.7317
1BP3 A R 120;1BP3 A L 124;17.7735
1BP3 A I 121;1BP3 A Q 122;17.4482
1BP3 A I 121;1BP3 A T 123;1.33955
1BP3 A I 121;1BP3 A L 124;15.3355
1BP3 A I 121;1BP3 A M 125;14.0748
1BP3 A I 121;1BP3 A V 173;4.39283
1BP3 A I 121;1BP3 A L 177;18.0919
1BP3 A Q 122;1BP3 A T 123;21.454
1BP3 A Q 122;1BP3 A L 124;0.223908
1BP3 A Q 122;1BP3 A M 125;14.5378
1BP3 A Q 122;1BP3 A G 126;10.414
1BP3 A T 123;1BP3 A L 124;23.5348
1BP3 A T 123;1BP3 A M 125;1.61178
1BP3 A T 123;1BP3 A G 126;7.94229
1BP3 A T 123;1BP3 A R 127;15.5097
1BP3 A L 124;1BP3 A M 125;14.3961
1BP3 A L 124;1BP3 A G 126;0.188304
1BP3 A L 124;1BP3 A R 127;8.47031
1BP3 A L 124;1BP3 A L 128;13.3857
1BP3 A L 124;1BP3 A L 177;8.22775
1BP3 A M 125;1BP3 A G 126;19.2975
1BP3 A M 125;1BP3 A R 127;0.764004
1BP3 A M 125;1BP3 A L 128;9.20638
1BP3 A M 125;1BP3 A E 129;8.63737
1BP3 A M 125;1BP3 A R 134;13.1805
1BP3 A G 126;1BP3 A R 127;21.005
1BP3 A G 126;1BP3 A L 128;2.66628
1BP3 A G 126;1BP3 A E 129;24.6107
1BP3 A G 126;1BP3 A D 130;0.000844784
1BP3 A R 127;1BP3 A L 128;26.482
1BP3 A R 127;1BP3 A E 129;6.4929
1BP3 A L 128;1BP3 A E 129;24.876
1BP3 A L 128;1BP3 A V 180;7.7839
1BP3 A L 128;1BP3 A S 184;12.3527
1BP3 A E 129;1BP3 A D 130;34.7136
1BP3 A E 129;1BP3 A G 131;14.9588
1BP3 A E 129;1BP3 A S 132;17.1496
1BP3 A E 129;1BP3 A P 133;0.592399
1BP3 A E 129;1BP3 A R 134;15.0403
1BP3 A D 130;1BP3 A G 131;28.961
1BP3 A D 130;1BP3 A S 132;0.344628
1BP3 A G 131;1BP3 A S 132;36.9174
1BP3 A S 132;1BP3 A P 133;49.5917
1BP3 A S 132;1BP3 A R 134;2.69547
1BP3 A P 133;1BP3 A R 134;27.3741
1BP3 A P 133;1BP3 A T 135;31.8093
1BP3 A R 134;1BP3 A T 135;27.1395
1BP3 A R 134;1BP3 A G 136;0.00655218
1BP3 A R 134;1BP3 A I 138;0.371458
1BP3 A R 134;1BP3 A F 139;25.6929
1BP3 A T 135;1BP3 A G 136;28.1878
1BP3 A T 135;1BP3 A F 139;21.9386
1BP3 A G 136;1BP3 A Q 137;25.4498
1BP3 A G 136;1BP3 A F 139;17.2045
1BP3 A Q 137;1BP3 A I 138;33.4606
1BP3 A Q 137;1BP3 A F 139;17.6178
1BP3 A I 138;1BP3 A F 139;29.4742
1BP3 A I 138;1BP3 A K 140;8.58115
1BP3 A I 138;1BP3 A Q 141;1.15074
1BP3 A I 138;1BP3 A T 142;14.2423
1BP3 A F 139;1BP3 A K 140;34.0527
1BP3 A F 139;1BP3 A Q 141;2.29036
1BP3 A F 139;1BP3 A T 142;0.394104
1BP3 A K 140;1BP3 A Q 141;27.9764
1BP3 A K 140;1BP3 A T 142;12.6249
1BP3 A Q 141;1BP3 A T 142;17.2655
1BP3 A Q 141;1BP3 A Y 143;22.7034
1BP3 A T 142;1BP3 A Y 143;23.0525
1BP3 A T 142;1BP3 A S 144;7.92045
1BP3 A Y 143;1BP3 A S 144;40.5014
1BP3 A Y 143;1BP3 A K 145;0.595794
1BP3 A S 144;1BP3 A K 145;36.8378
1BP3 A K 145;1BP3 A F 146;41.4476
1BP3 A K 145;1BP3 A D 147;15.1526
1BP3 A K 145;1BP3 A T 148;14.4064
1BP3 A F 146;1BP3 A D 147;45.7952
1BP3 A F 146;1BP3 A T 148;3.8041
1BP3 A F 146;1BP3 A K 158;23.6436
1BP3 A F 146;1BP3 A L 162;22.3798
1BP3 A D 147;1BP3 A T 148;44.0335
1BP3 A D 147;1BP3 A K 158;17.3037
1BP3 A T 148;1BP3 A K 158;3.1567
1BP3 A D 153;1BP3 A D 154;32.3797
1BP3 A D 153;1BP3 A A 155;14.3546
1BP3 A D 154;1BP3 A A 155;25.2729
1BP3 A D 154;1BP3 A L 156;6.80474
1BP3 A D 154;1BP3 A L 157;29.8917
1BP3 A D 154;1BP3 A K 158;17.975
1BP3 A A 155;1BP3 A L 156;28.7134
1BP3 A A 155;1BP3 A L 157;1.84869
1BP3 A A 155;1BP3 A K 158;10.9747
1BP3 A A 155;1BP3 A N 159;11.4147
1BP3 A L 156;1BP3 A L 157;20.4107
1BP3 A L 156;1BP3 A K 158;1.30536
1BP3 A L 156;1BP3 A N 159;8.39878
1BP3 A L 156;1BP3 A Y 160;6.70597
1BP3 A L 157;1BP3 A K 158;21.3909
1BP3 A L 157;1BP3 A N 159;0.563822
1BP3 A L 157;1BP3 A Y 160;15.7176
1BP3 A L 157;1BP3 A G 161;8.52141
1BP3 A K 158;1BP3 A N 159;25.9774
1BP3 A K 158;1BP3 A Y 160;0.75737
1BP3 A K 158;1BP3 A G 161;8.4827
1BP3 A K 158;1BP3 A L 162;20.1342
1BP3 A N 159;1BP3 A Y 160;17.5105
1BP3 A N 159;1BP3 A G 161;1.17297
1BP3 A N 159;1BP3 A L 162;15.4127
1BP3 A N 159;1BP3 A L 163;11.171
1BP3 A Y 160;1BP3 A G 161;17.8243
1BP3 A Y 160;1BP3 A L 162;0.838508
1BP3 A Y 160;1BP3 A L 163;12.2176
1BP3 A Y 160;1BP3 A Y 164;7.84268
1BP3 A G 161;1BP3 A L 162;20.0375
1BP3 A G 161;1BP3 A L 163;0.333038
1BP3 A G 161;1BP3 A Y 164;10.1826
1BP3 A G 161;1BP3 A C 165;12.0318
1BP3 A L 162;1BP3 A L 163;17.4009
1BP3 A L 162;1BP3 A Y 164;1.3634
1BP3 A L 162;1BP3 A C 165;11.7791
1BP3 A L 162;1BP3 A F 166;5.97269
1BP3 A L 163;1BP3 A Y 164;15.2548
1BP3 A L 163;1BP3 A C 165;0.848548
1BP3 A L 163;1BP3 A F 166;14.8003
1BP3 A L 163;1BP3 A R 167;8.74509
1BP3 A Y 164;1BP3 A C 165;26.7656
1BP3 A Y 164;1BP3 A F 166;0.595214
1BP3 A Y 164;1BP3 A R 167;23.5162
1BP3 A Y 164;1BP3 A K 168;30.2798
1BP3 A C 165;1BP3 A F 166;14.0744
1BP3 A C 165;1BP3 A R 167;0.800204
1BP3 A C 165;1BP3 A K 168;11.3088
1BP3 A C 165;1BP3 A D 169;14.4184
1BP3 A F 166;1BP3 A R 167;16.277
1BP3 A F 166;1BP3 A K 168;1.13065
1BP3 A F 166;1BP3 A D 169;5.79269
1BP3 A F 166;1BP3 A M 170;34.9738
1BP3 A R 167;1BP3 A K 168;21.2588
1BP3 A R 167;1BP3 A D 169;0.486389
1BP3 A R 167;1BP3 A M 170;5.99232
1BP3 A R 167;1BP3 A D 171;7.91583
1BP3 A K 168;1BP3 A D 169;18.9989
1BP3 A K 168;1BP3 A M 170;0.796931
1BP3 A K 168;1BP3 A D 171;9.51583
1BP3 A K 168;1BP3 A K 172;31.3832
1BP3 A D 169;1BP3 A M 170;26.5539
1BP3 A D 169;1BP3 A D 171;1.22933
1BP3 A D 169;1BP3 A K 172;22.1154
1BP3 A D 169;1BP3 A V 173;11.12
1BP3 A M 170;1BP3 A D 171;17.9005
1BP3 A M 170;1BP3 A K 172;0.431647
1BP3 A M 170;1BP3 A V 173;19.1331
1BP3 A M 170;1BP3 A E 174;8.38477
1BP3 A D 171;1BP3 A K 172;16.6436
1BP3 A D 171;1BP3 A V 173;1.94399
1BP3 A D 171;1BP3 A E 174;9.28566
1BP3 A D 171;1BP3 A T 175;19.4339
1BP3 A K 172;1BP3 A V 173;18.5163
1BP3 A K 172;1BP3 A E 174;0.0355161
1BP3 A K 172;1BP3 A T 175;6.16659
1BP3 A K 172;1BP3 A F 176;25.9114
1BP3 A V 173;1BP3 A E 174;19.2195
1BP3 A V 173;1BP3 A T 175;0.737034
1BP3 A V 173;1BP3 A F 176;8.17277
1BP3 A V 173;1BP3 A L 177;17.0011
1BP3 A E 174;1BP3 A T 175;22.6138
1BP3 A E 174;1BP3 A F 176;1.51652
1BP3 A E 174;1BP3 A L 177;7.43937
1BP3 A E 174;1BP3 A R 178;10.2208
1BP3 A T 175;1BP3 A F 176;22.3362
1BP3 A T 175;1BP3 A L 177;0.0828499
1BP3 A T 175;1BP3 A R 178;11.875
1BP3 A T 175;1BP3 A I 179;14.9553
1BP3 A F 176;1BP3 A L 177;19.1129
1BP3 A F 176;1BP3 A R 178;1.5384
1BP3 A F 176;1BP3 A I 179;18.4085
1BP3 A F 176;1BP3 A V 180;9.65642
1BP3 A L 177;1BP3 A R 178;15.3953
1BP3 A L 177;1BP3 A I 179;0.900306
1BP3 A L 177;1BP3 A V 180;12.4047
1BP3 A L 177;1BP3 A Q 181;7.28781
1BP3 A R 178;1BP3 A I 179;18.5239
1BP3 A R 178;1BP3 A V 180;0.699328
1BP3 A R 178;1BP3 A Q 181;22.7924
1BP3 A R 178;1BP3 A C 182;24.2119
1BP3 A R 178;1BP3 A S 188;5.74675
1BP3 A R 178;1BP3 A C 189;8.70179
1BP3 A I 179;1BP3 A V 180;18.336
1BP3 A I 179;1BP3 A Q 181;0.771051
1BP3 A I 179;1BP3 A C 182;10.1133
1BP3 A I 179;1BP3 A R 183;23.6316
1BP3 A V 180;1BP3 A Q 181;16.2324
1BP3 A V 180;1BP3 A C 182;1.27397
1BP3 A V 180;1BP3 A R 183;6.3111
1BP3 A V 180;1BP3 A S 184;16.8859
1BP3 A V 180;1BP3 A V 185;0.120671
1BP3 A Q 181;1BP3 A C 182;23.3111
1BP3 A Q 181;1BP3 A R 183;0.403854
1BP3 A Q 181;1BP3 A S 184;1.16981
1BP3 A Q 181;1BP3 A V 185;27.8559
1BP3 A Q 181;1BP3 A S 188;11.3294
1BP3 A Q 181;1BP3 A C 189;0.0217841
1BP3 A C 182;1BP3 A R 183;23.7119
1BP3 A C 182;1BP3 A S 184;2.30519
1BP3 A C 182;1BP3 A V 185;7.9907
1BP3 A C 182;1BP3 A E 186;7.46062
1BP3 A C 182;1BP3 A G 187;0.750293
1BP3 A C 182;1BP3 A S 188;1.37957
1BP3 A C 182;1BP3 A C 189;28.8564
1BP3 A R 183;1BP3 A S 184;25.2709
1BP3 A R 183;1BP3 A E 186;4.38325
1BP3 A S 184;1BP3 A V 185;26.2259
1BP3 A S 184;1BP3 A E 186;22.7039
1BP3 A V 185;1BP3 A E 186;23.0749
1BP3 A V 185;1BP3 A G 187;7.82087
1BP3 A V 185;1BP3 A S 188;14.0472
1BP3 A V 185;1BP3 A C 189;3.90834
1BP3 A E 186;1BP3 A G 187;29.2511
1BP3 A G 187;1BP3 A S 188;24.6577
1BP3 A G 187;1BP3 A C 189;13.2552
1BP3 A G 187;1BP3 A G 190;9.82777
1BP3 A S 188;1BP3 A C 189;23.0111
1BP3 A C 189;1BP3 A G 190;30.0269
