V1;V2;Weight
1BRS D K 1;1BRS D K 2;35.881
1BRS D K 1;1BRS D A 3;0.935877
1BRS D K 1;1BRS D K 22;1.52347
1BRS D K 1;1BRS D E 23;13.2706
1BRS D K 1;1BRS D L 24;13.1356
1BRS D K 1;1BRS D A 25;15.5639
1BRS D K 1;1BRS D V 45;2.96859
1BRS D K 1;1BRS D E 46;40.1571
1BRS D K 1;1BRS D P 48;16.8786
1BRS D K 1;1BRS D L 49;22.3012
1BRS D K 1;1BRS D V 50;11.1394
1BRS D K 2;1BRS D A 3;24.7593
1BRS D K 2;1BRS D V 4;18.4685
1BRS D K 2;1BRS D E 23;9.03179
1BRS D K 2;1BRS D L 49;1.0655
1BRS D K 2;1BRS D V 50;27.4627
1BRS D K 2;1BRS D E 52;21.0543
1BRS D K 2;1BRS D R 54;0.031751
1BRS D K 2;1BRS D I 87;1.95776
1BRS D A 3;1BRS D V 4;21.1507
1BRS D A 3;1BRS D I 5;1.07006
1BRS D A 3;1BRS D L 20;0.802659
1BRS D A 3;1BRS D E 23;22.1255
1BRS D A 3;1BRS D L 24;11.861
1BRS D A 3;1BRS D L 49;6.63066
1BRS D A 3;1BRS D V 50;9.11402
1BRS D A 3;1BRS D L 51;18.6122
1BRS D A 3;1BRS D E 52;9.46555
1BRS D V 4;1BRS D I 5;26.2697
1BRS D V 4;1BRS D N 6;15.249
1BRS D V 4;1BRS D T 19;5.76976
1BRS D V 4;1BRS D E 23;26.496
1BRS D V 4;1BRS D L 51;0.177194
1BRS D V 4;1BRS D E 52;16.6184
1BRS D V 4;1BRS D R 54;23.0062
1BRS D I 5;1BRS D N 6;21.4886
1BRS D I 5;1BRS D G 7;8.3437
1BRS D I 5;1BRS D I 10;11.7509
1BRS D I 5;1BRS D L 16;14.1586
1BRS D I 5;1BRS D T 19;14.8929
1BRS D I 5;1BRS D L 20;14.4285
1BRS D I 5;1BRS D E 23;2.7614
1BRS D I 5;1BRS D L 51;16.1004
1BRS D I 5;1BRS D E 52;8.34535
1BRS D I 5;1BRS D W 53;35.6941
1BRS D I 5;1BRS D R 54;11.918
1BRS D I 5;1BRS D S 59;0.592225
1BRS D I 5;1BRS D V 70;0.0486223
1BRS D I 5;1BRS D F 74;0.486697
1BRS D N 6;1BRS D G 7;14.3265
1BRS D N 6;1BRS D E 8;19.6352
1BRS D N 6;1BRS D Q 9;32.3413
1BRS D N 6;1BRS D I 10;9.66082
1BRS D N 6;1BRS D T 19;2.03139
1BRS D N 6;1BRS D R 54;26.4283
1BRS D G 7;1BRS D E 8;17.7658
1BRS D G 7;1BRS D Q 9;1.19103
1BRS D G 7;1BRS D I 10;14.5762
1BRS D G 7;1BRS D W 53;3.1238
1BRS D G 7;1BRS D R 54;10.9884
1BRS D G 7;1BRS D Q 55;9.26382
1BRS D G 7;1BRS D F 56;0.0759121
1BRS D G 7;1BRS D Q 58;4.72452
1BRS D G 7;1BRS D S 59;14.8196
1BRS D G 7;1BRS D L 62;0.000213894
1BRS D E 8;1BRS D Q 9;38.1249
1BRS D E 8;1BRS D I 10;5.53143
1BRS D E 8;1BRS D R 11;11.9081
1BRS D E 8;1BRS D R 54;1.86212
1BRS D E 8;1BRS D Q 55;23.4901
1BRS D E 8;1BRS D Q 58;21.8014
1BRS D E 8;1BRS D L 62;0.753119
1BRS D Q 9;1BRS D I 10;24.3503
1BRS D Q 9;1BRS D R 11;14.4265
1BRS D Q 9;1BRS D D 15;6.98982
1BRS D I 10;1BRS D R 11;17.218
1BRS D I 10;1BRS D S 12;7.87597
1BRS D I 10;1BRS D D 15;15.2438
1BRS D I 10;1BRS D L 16;21.1693
1BRS D I 10;1BRS D T 19;15.4785
1BRS D I 10;1BRS D Q 58;0.169016
1BRS D I 10;1BRS D S 59;16.2058
1BRS D I 10;1BRS D L 62;14.8292
1BRS D I 10;1BRS D T 63;10.0415
1BRS D R 11;1BRS D S 12;26.0618
1BRS D R 11;1BRS D D 15;16.7113
1BRS D R 11;1BRS D L 62;42.4264
1BRS D S 12;1BRS D I 13;22.8041
1BRS D S 12;1BRS D S 14;4.05558
1BRS D S 12;1BRS D S 14;10.7457
1BRS D S 12;1BRS D D 15;23.1653
1BRS D S 12;1BRS D L 16;3.89832
1BRS D S 12;1BRS D L 62;8.70129
1BRS D S 12;1BRS D T 63;7.55487
1BRS D I 13;1BRS D S 14;21.0369
1BRS D I 13;1BRS D S 14;7.32744
1BRS D I 13;1BRS D D 15;0.981599
1BRS D I 13;1BRS D L 16;19.834
1BRS D I 13;1BRS D H 17;28.3358
1BRS D I 13;1BRS D L 62;0.148
1BRS D I 13;1BRS D T 63;23.7748
1BRS D I 13;1BRS D G 66;12.862
1BRS D I 13;1BRS D A 67;0.0703024
1BRS D I 13;1BRS D V 70;8.45096
1BRS D S 14;1BRS D D 15;15.8434
1BRS D S 14;1BRS D L 16;0.841851
1BRS D S 14;1BRS D H 17;11.7486
1BRS D S 14;1BRS D Q 18;15.2381
1BRS D S 14;1BRS D E 32;2.34516
1BRS D S 14;1BRS D D 15;3.69491
1BRS D S 14;1BRS D Q 18;5.98099
1BRS D S 14;1BRS D E 32;3.44013
1BRS D D 15;1BRS D L 16;16.2462
1BRS D D 15;1BRS D H 17;0.466423
1BRS D D 15;1BRS D Q 18;12.8372
1BRS D D 15;1BRS D T 19;12.8392
1BRS D L 16;1BRS D H 17;18.3817
1BRS D L 16;1BRS D Q 18;1.31508
1BRS D L 16;1BRS D T 19;11.4589
1BRS D L 16;1BRS D L 20;21.0951
1BRS D L 16;1BRS D W 53;15.0319
1BRS D L 16;1BRS D S 59;2.21621
1BRS D L 16;1BRS D T 63;8.91563
1BRS D L 16;1BRS D G 66;0.899462
1BRS D L 16;1BRS D A 67;10.2002
1BRS D L 16;1BRS D V 70;14.9383
1BRS D H 17;1BRS D Q 18;19.764
1BRS D H 17;1BRS D T 19;0.606663
1BRS D H 17;1BRS D L 20;17.5076
1BRS D H 17;1BRS D K 21;10.0552
1BRS D H 17;1BRS D Y 30;20.8481
1BRS D H 17;1BRS D E 32;31.2193
1BRS D H 17;1BRS D N 33;12.5227
1BRS D H 17;1BRS D L 34;6.89865
1BRS D H 17;1BRS D L 37;4.52017
1BRS D H 17;1BRS D V 70;9.55859
1BRS D Q 18;1BRS D T 19;20.7824
1BRS D Q 18;1BRS D L 20;0.882032
1BRS D Q 18;1BRS D K 21;23.0341
1BRS D Q 18;1BRS D K 22;11.1761
1BRS D Q 18;1BRS D E 32;23.6122
1BRS D T 19;1BRS D L 20;19.6909
1BRS D T 19;1BRS D K 21;0.939631
1BRS D T 19;1BRS D K 22;9.71937
1BRS D T 19;1BRS D E 23;22.7767
1BRS D L 20;1BRS D K 21;16.8176
1BRS D L 20;1BRS D K 22;1.1514
1BRS D L 20;1BRS D E 23;8.81175
1BRS D L 20;1BRS D L 24;25.7301
1BRS D L 20;1BRS D A 25;0.0669876
1BRS D L 20;1BRS D L 26;10.26
1BRS D L 20;1BRS D Y 30;6.97705
1BRS D L 20;1BRS D L 37;13.3829
1BRS D L 20;1BRS D L 51;4.26262
1BRS D L 20;1BRS D W 53;0.0957335
1BRS D L 20;1BRS D V 70;12.1135
1BRS D L 20;1BRS D F 74;13.0097
1BRS D K 21;1BRS D K 22;23.0821
1BRS D K 21;1BRS D E 23;0.0353769
1BRS D K 21;1BRS D L 24;0.468974
1BRS D K 21;1BRS D A 25;7.73766
1BRS D K 21;1BRS D L 26;28.948
1BRS D K 21;1BRS D P 27;5.5523
1BRS D K 21;1BRS D E 28;36.9386
1BRS D K 21;1BRS D Y 30;22.1274
1BRS D K 21;1BRS D E 32;11.2675
1BRS D K 22;1BRS D E 23;37.3727
1BRS D K 22;1BRS D L 24;1.6276
1BRS D K 22;1BRS D A 25;12.6606
1BRS D E 23;1BRS D L 24;20.6817
1BRS D E 23;1BRS D A 25;1.33245
1BRS D L 24;1BRS D A 25;24.8788
1BRS D L 24;1BRS D L 26;20.5228
1BRS D L 24;1BRS D L 37;7.10306
1BRS D L 24;1BRS D L 41;8.38359
1BRS D L 24;1BRS D W 44;1.74475
1BRS D L 24;1BRS D V 45;21.9118
1BRS D L 24;1BRS D E 46;1.14554
1BRS D L 24;1BRS D L 49;15.9524
1BRS D L 24;1BRS D L 51;2.90472
1BRS D L 24;1BRS D F 74;12.4388
1BRS D A 25;1BRS D L 26;23.7025
1BRS D A 25;1BRS D W 44;14.0954
1BRS D L 26;1BRS D P 27;31.0812
1BRS D L 26;1BRS D E 28;5.42044
1BRS D L 26;1BRS D Y 30;23.9413
1BRS D L 26;1BRS D L 37;6.82166
1BRS D L 26;1BRS D A 40;13.2434
1BRS D L 26;1BRS D L 41;0.10367
1BRS D L 26;1BRS D W 44;7.53113
1BRS D L 26;1BRS D V 45;9.51525
1BRS D P 27;1BRS D E 28;22.5768
1BRS D P 27;1BRS D Y 29;25.3985
1BRS D P 27;1BRS D Y 30;20.3453
1BRS D P 27;1BRS D A 40;7.0751
1BRS D P 27;1BRS D W 44;35.4797
1BRS D E 28;1BRS D Y 29;28.0152
1BRS D E 28;1BRS D Y 30;4.50619
1BRS D Y 29;1BRS D Y 30;23.7042
1BRS D Y 29;1BRS D G 31;3.46971
1BRS D Y 29;1BRS D D 39;1.35255
1BRS D Y 29;1BRS D W 44;13.5193
1BRS D Y 30;1BRS D G 31;18.9703
1BRS D Y 30;1BRS D E 32;33.0098
1BRS D Y 30;1BRS D N 33;3.84316
1BRS D Y 30;1BRS D A 36;10.8161
1BRS D Y 30;1BRS D L 37;16.679
1BRS D Y 30;1BRS D A 40;5.67803
1BRS D G 31;1BRS D E 32;22.8466
1BRS D G 31;1BRS D N 33;10.875
1BRS D G 31;1BRS D A 36;7.34652
1BRS D E 32;1BRS D N 33;22.9937
1BRS D E 32;1BRS D A 36;2.00065
1BRS D N 33;1BRS D L 34;18.3881
1BRS D N 33;1BRS D D 35;8.89532
1BRS D N 33;1BRS D A 36;16.8253
1BRS D N 33;1BRS D L 37;8.22416
1BRS D L 34;1BRS D D 35;16.8073
1BRS D L 34;1BRS D A 36;0.574932
1BRS D L 34;1BRS D L 37;14.7349
1BRS D L 34;1BRS D W 38;7.92503
1BRS D L 34;1BRS D S 69;26.8097
1BRS D L 34;1BRS D V 70;14.6831
1BRS D L 34;1BRS D V 73;18.6501
1BRS D D 35;1BRS D A 36;15.0354
1BRS D D 35;1BRS D L 37;1.02215
1BRS D D 35;1BRS D W 38;11.6796
1BRS D D 35;1BRS D D 39;9.00188
1BRS D A 36;1BRS D L 37;15.9066
1BRS D A 36;1BRS D W 38;0.679007
1BRS D A 36;1BRS D D 39;6.97044
1BRS D A 36;1BRS D A 40;8.71103
1BRS D L 37;1BRS D W 38;16.2031
1BRS D L 37;1BRS D D 39;0.985119
1BRS D L 37;1BRS D A 40;10.6334
1BRS D L 37;1BRS D L 41;23.756
1BRS D L 37;1BRS D V 70;13.5638
1BRS D L 37;1BRS D V 73;14.734
1BRS D L 37;1BRS D F 74;10.0938
1BRS D W 38;1BRS D D 39;20.769
1BRS D W 38;1BRS D A 40;0.866888
1BRS D W 38;1BRS D L 41;8.87639
1BRS D W 38;1BRS D T 42;33.1055
1BRS D W 38;1BRS D V 73;20.5037
1BRS D W 38;1BRS D E 76;15.726
1BRS D W 38;1BRS D A 77;13.5438
1BRS D W 38;1BRS D E 80;26.4018
1BRS D D 39;1BRS D A 40;20.765
1BRS D D 39;1BRS D L 41;0.619961
1BRS D D 39;1BRS D T 42;7.64428
1BRS D D 39;1BRS D G 43;9.79216
1BRS D D 39;1BRS D W 44;0.850009
1BRS D A 40;1BRS D L 41;18.6361
1BRS D A 40;1BRS D T 42;1.28694
1BRS D A 40;1BRS D G 43;2.25108
1BRS D A 40;1BRS D W 44;18.0252
1BRS D A 40;1BRS D V 45;13.3475
1BRS D L 41;1BRS D T 42;26.2276
1BRS D L 41;1BRS D G 43;1.30687
1BRS D L 41;1BRS D W 44;0.858914
1BRS D L 41;1BRS D V 45;17.6084
1BRS D L 41;1BRS D Y 47;25.9404
1BRS D L 41;1BRS D L 49;5.6032
1BRS D L 41;1BRS D V 73;10.3479
1BRS D L 41;1BRS D F 74;23.2507
1BRS D L 41;1BRS D A 77;13.7155
1BRS D L 41;1BRS D A 82;1.67889
1BRS D L 41;1BRS D I 84;5.98085
1BRS D T 42;1BRS D G 43;20.9515
1BRS D T 42;1BRS D W 44;0.190244
1BRS D T 42;1BRS D Y 47;0.200202
1BRS D T 42;1BRS D A 77;9.58887
1BRS D T 42;1BRS D E 80;4.12631
1BRS D T 42;1BRS D A 82;2.96607
1BRS D G 43;1BRS D W 44;28.267
1BRS D W 44;1BRS D V 45;32.0661
1BRS D W 44;1BRS D E 46;1.16979
1BRS D V 45;1BRS D E 46;31.326
1BRS D V 45;1BRS D Y 47;24.7596
1BRS D V 45;1BRS D L 49;10.1953
1BRS D E 46;1BRS D Y 47;35.5014
1BRS D E 46;1BRS D P 48;2.63495
1BRS D E 46;1BRS D L 49;5.41979
1BRS D Y 47;1BRS D P 48;35.5372
1BRS D Y 47;1BRS D L 49;13.6297
1BRS D Y 47;1BRS D A 77;1.3565
1BRS D Y 47;1BRS D A 82;19.07
1BRS D Y 47;1BRS D D 83;19.1315
1BRS D Y 47;1BRS D I 84;13.6306
1BRS D P 48;1BRS D L 49;20.682
1BRS D P 48;1BRS D V 50;4.46468
1BRS D P 48;1BRS D D 83;27.725
1BRS D L 49;1BRS D V 50;29.6537
1BRS D L 49;1BRS D L 51;7.70552
1BRS D L 49;1BRS D F 74;8.38218
1BRS D L 49;1BRS D D 83;9.65434
1BRS D L 49;1BRS D I 84;21.9465
1BRS D L 49;1BRS D T 85;9.24401
1BRS D V 50;1BRS D L 51;20.6269
1BRS D V 50;1BRS D E 52;4.03289
1BRS D V 50;1BRS D T 85;24.412
1BRS D V 50;1BRS D I 87;15.882
1BRS D L 51;1BRS D E 52;21.1416
1BRS D L 51;1BRS D W 53;20.1681
1BRS D L 51;1BRS D L 71;3.93612
1BRS D L 51;1BRS D F 74;27.5962
1BRS D L 51;1BRS D I 84;6.15676
1BRS D L 51;1BRS D T 85;9.99047
1BRS D L 51;1BRS D I 86;20.1864
1BRS D L 51;1BRS D I 87;10.8097
1BRS D E 52;1BRS D W 53;18.6949
1BRS D E 52;1BRS D R 54;32.2163
1BRS D E 52;1BRS D I 87;26.8906
1BRS D E 52;1BRS D S 89;12.72
1BRS D W 53;1BRS D R 54;24.161
1BRS D W 53;1BRS D F 56;30.7095
1BRS D W 53;1BRS D S 59;12.8115
1BRS D W 53;1BRS D A 67;12.9162
1BRS D W 53;1BRS D V 70;11.4625
1BRS D W 53;1BRS D L 71;16.1429
1BRS D W 53;1BRS D F 74;3.96665
1BRS D W 53;1BRS D I 86;1.50317
1BRS D W 53;1BRS D I 87;11.6876
1BRS D W 53;1BRS D L 88;15.9936
1BRS D W 53;1BRS D S 89;10.9442
1BRS D R 54;1BRS D Q 55;29.529
1BRS D R 54;1BRS D F 56;3.13111
1BRS D R 54;1BRS D S 89;16.4284
1BRS D Q 55;1BRS D F 56;18.4115
1BRS D Q 55;1BRS D E 57;4.40916
1BRS D Q 55;1BRS D Q 58;27.8442
1BRS D Q 55;1BRS D S 59;4.85967
1BRS D Q 55;1BRS D S 89;12.0211
1BRS D F 56;1BRS D E 57;35.2486
1BRS D F 56;1BRS D Q 58;1.03004
1BRS D F 56;1BRS D S 59;12.1226
1BRS D F 56;1BRS D K 60;20.5354
1BRS D F 56;1BRS D A 67;13.586
1BRS D F 56;1BRS D E 68;18.1723
1BRS D F 56;1BRS D L 71;16.7745
1BRS D F 56;1BRS D L 88;18.0445
1BRS D F 56;1BRS D S 89;10.9625
1BRS D E 57;1BRS D Q 58;23.9125
1BRS D E 57;1BRS D S 59;0.726344
1BRS D E 57;1BRS D K 60;31.0588
1BRS D E 57;1BRS D Q 61;10.0378
1BRS D Q 58;1BRS D S 59;17.147
1BRS D Q 58;1BRS D K 60;1.15224
1BRS D Q 58;1BRS D Q 61;12.9974
1BRS D Q 58;1BRS D L 62;13.2527
1BRS D S 59;1BRS D K 60;14.7556
1BRS D S 59;1BRS D Q 61;0.866217
1BRS D S 59;1BRS D L 62;8.31766
1BRS D S 59;1BRS D T 63;13.4329
1BRS D S 59;1BRS D A 67;9.28121
1BRS D K 60;1BRS D Q 61;25.3727
1BRS D K 60;1BRS D L 62;0.664052
1BRS D K 60;1BRS D T 63;15.7532
1BRS D K 60;1BRS D G 66;3.09416
1BRS D K 60;1BRS D A 67;12.6955
1BRS D K 60;1BRS D E 68;22.2602
1BRS D Q 61;1BRS D L 62;33.6235
1BRS D Q 61;1BRS D T 63;6.90136
1BRS D L 62;1BRS D T 63;25.3163
1BRS D T 63;1BRS D G 66;20.2593
1BRS D T 63;1BRS D A 67;12.8593
1BRS D G 66;1BRS D A 67;17.9501
1BRS D G 66;1BRS D E 68;11.4363
1BRS D G 66;1BRS D S 69;22.2265
1BRS D G 66;1BRS D V 70;10.3148
1BRS D A 67;1BRS D E 68;17.7837
1BRS D A 67;1BRS D S 69;0.446171
1BRS D A 67;1BRS D V 70;6.32738
1BRS D A 67;1BRS D L 71;7.45405
1BRS D E 68;1BRS D S 69;20.7885
1BRS D E 68;1BRS D V 70;1.1433
1BRS D E 68;1BRS D L 71;22.7159
1BRS D E 68;1BRS D Q 72;19.081
1BRS D S 69;1BRS D V 70;16.7401
1BRS D S 69;1BRS D L 71;0.461502
1BRS D S 69;1BRS D Q 72;20.3249
1BRS D S 69;1BRS D V 73;10.6671
1BRS D V 70;1BRS D L 71;16.8253
1BRS D V 70;1BRS D Q 72;1.33037
1BRS D V 70;1BRS D V 73;9.43408
1BRS D V 70;1BRS D F 74;16.4856
1BRS D L 71;1BRS D Q 72;18.7868
1BRS D L 71;1BRS D V 73;0.924111
1BRS D L 71;1BRS D F 74;15.3861
1BRS D L 71;1BRS D R 75;24.6813
1BRS D L 71;1BRS D I 86;14.0136
1BRS D L 71;1BRS D L 88;23.9451
1BRS D Q 72;1BRS D V 73;18.9767
1BRS D Q 72;1BRS D F 74;0.672212
1BRS D Q 72;1BRS D R 75;13.905
1BRS D Q 72;1BRS D E 76;29.5402
1BRS D V 73;1BRS D F 74;16.8302
1BRS D V 73;1BRS D R 75;1.04962
1BRS D V 73;1BRS D E 76;10.1593
1BRS D V 73;1BRS D A 77;8.41374
1BRS D F 74;1BRS D R 75;16.3271
1BRS D F 74;1BRS D E 76;0.677847
1BRS D F 74;1BRS D A 77;6.7431
1BRS D F 74;1BRS D K 78;8.49035
1BRS D F 74;1BRS D I 84;19.9943
1BRS D F 74;1BRS D I 86;12.1733
1BRS D R 75;1BRS D E 76;18.524
1BRS D R 75;1BRS D A 77;0.917973
1BRS D R 75;1BRS D K 78;14.1916
1BRS D R 75;1BRS D A 79;12.4786
1BRS D R 75;1BRS D I 86;19.5976
1BRS D R 75;1BRS D L 88;0.851922
1BRS D E 76;1BRS D A 77;15.844
1BRS D E 76;1BRS D K 78;0.898652
1BRS D E 76;1BRS D A 79;14.364
1BRS D E 76;1BRS D E 80;13.6292
1BRS D A 77;1BRS D K 78;16.3106
1BRS D A 77;1BRS D A 79;0.443568
1BRS D A 77;1BRS D E 80;11.663
1BRS D A 77;1BRS D G 81;1.43146
1BRS D A 77;1BRS D A 82;17.2291
1BRS D A 77;1BRS D I 84;7.61141
1BRS D K 78;1BRS D A 79;23.0874
1BRS D K 78;1BRS D E 80;1.76139
1BRS D K 78;1BRS D G 81;10.3795
1BRS D K 78;1BRS D A 82;18.1234
1BRS D K 78;1BRS D D 83;5.2987
1BRS D K 78;1BRS D I 84;32.378
1BRS D K 78;1BRS D T 85;4.21643
1BRS D K 78;1BRS D I 86;13.8583
1BRS D A 79;1BRS D E 80;24.1976
1BRS D A 79;1BRS D G 81;6.47279
1BRS D E 80;1BRS D G 81;22.1339
1BRS D E 80;1BRS D A 82;2.81728
1BRS D G 81;1BRS D A 82;26.9846
1BRS D G 81;1BRS D D 83;6.63858
1BRS D A 82;1BRS D D 83;21.0613
1BRS D A 82;1BRS D I 84;14.9315
1BRS D D 83;1BRS D I 84;21.7225
1BRS D D 83;1BRS D T 85;7.78889
1BRS D I 84;1BRS D T 85;25.2939
1BRS D I 84;1BRS D I 86;15.3892
1BRS D T 85;1BRS D I 86;27.7784
1BRS D T 85;1BRS D I 87;14.4922
1BRS D I 86;1BRS D I 87;27.4335
1BRS D I 86;1BRS D L 88;18.7973
1BRS D I 87;1BRS D L 88;28.7317
1BRS D I 87;1BRS D S 89;14.31
1BRS D L 88;1BRS D S 89;28.7195
