V1;V2;Weight
1C4Z D S 4;1C4Z D R 5;36.8802
1C4Z D S 4;1C4Z D R 6;2.75265
1C4Z D S 4;1C4Z D L 7;25.0702
1C4Z D S 4;1C4Z D M 8;5.17097
1C4Z D S 4;1C4Z D L 32;0.4987
1C4Z D S 4;1C4Z D L 33;16.7902
1C4Z D S 4;1C4Z D A 59;10.3056
1C4Z D S 4;1C4Z D Y 61;16.5581
1C4Z D R 5;1C4Z D R 6;25.7179
1C4Z D R 5;1C4Z D L 7;3.54501
1C4Z D R 5;1C4Z D M 8;48.4532
1C4Z D R 6;1C4Z D L 7;17.2385
1C4Z D R 6;1C4Z D M 8;5.42336
1C4Z D R 6;1C4Z D K 9;23.7351
1C4Z D R 6;1C4Z D E 10;23.6423
1C4Z D R 6;1C4Z D Y 61;25.6329
1C4Z D R 6;1C4Z D P 62;24.0691
1C4Z D R 6;1C4Z D W 95;2.16768
1C4Z D R 6;1C4Z D P 97;11.2083
1C4Z D R 6;1C4Z D A 98;7.01366
1C4Z D R 6;1C4Z D T 99;8.47945
1C4Z D R 6;1C4Z D K 100;10.8375
1C4Z D L 7;1C4Z D M 8;20.6942
1C4Z D L 7;1C4Z D E 10;11.5441
1C4Z D L 7;1C4Z D L 11;15.3587
1C4Z D L 7;1C4Z D L 32;25.5245
1C4Z D L 7;1C4Z D L 33;10.35
1C4Z D L 7;1C4Z D W 35;13.3927
1C4Z D L 7;1C4Z D F 57;20.952
1C4Z D L 7;1C4Z D Y 61;18.6443
1C4Z D L 7;1C4Z D T 101;1.11161
1C4Z D M 8;1C4Z D K 9;23.0286
1C4Z D M 8;1C4Z D E 10;2.00488
1C4Z D M 8;1C4Z D L 11;4.81216
1C4Z D M 8;1C4Z D E 12;22.3575
1C4Z D M 8;1C4Z D L 32;3.64166
1C4Z D K 9;1C4Z D E 10;29.7117
1C4Z D K 9;1C4Z D L 11;0.30533
1C4Z D K 9;1C4Z D E 12;23.4051
1C4Z D K 9;1C4Z D E 13;13.0934
1C4Z D K 9;1C4Z D K 100;4.74562
1C4Z D E 10;1C4Z D L 11;23.1587
1C4Z D E 10;1C4Z D E 12;0.52552
1C4Z D E 10;1C4Z D E 13;19.3781
1C4Z D E 10;1C4Z D I 14;1.44182
1C4Z D E 10;1C4Z D W 35;7.56539
1C4Z D E 10;1C4Z D Y 61;9.17568
1C4Z D E 10;1C4Z D K 100;18.8151
1C4Z D E 10;1C4Z D T 101;20.2019
1C4Z D E 10;1C4Z D D 102;11.0456
1C4Z D L 11;1C4Z D E 12;21.5119
1C4Z D L 11;1C4Z D E 13;3.78289
1C4Z D L 11;1C4Z D I 14;35.292
1C4Z D L 11;1C4Z D N 24;6.87478
1C4Z D L 11;1C4Z D I 25;4.97555
1C4Z D L 11;1C4Z D Q 26;16.1088
1C4Z D L 11;1C4Z D L 32;17.3256
1C4Z D L 11;1C4Z D W 35;31.8085
1C4Z D E 12;1C4Z D E 13;20.4661
1C4Z D E 12;1C4Z D I 14;12.3049
1C4Z D E 12;1C4Z D R 15;7.44583
1C4Z D E 13;1C4Z D I 14;21.0945
1C4Z D E 13;1C4Z D R 15;0.786904
1C4Z D E 13;1C4Z D K 16;23.9206
1C4Z D E 13;1C4Z D M 19;0.255373
1C4Z D E 13;1C4Z D D 102;1.68271
1C4Z D I 14;1C4Z D R 15;31.7967
1C4Z D I 14;1C4Z D K 16;9.84714
1C4Z D I 14;1C4Z D C 17;9.4216
1C4Z D I 14;1C4Z D N 24;12.6339
1C4Z D I 14;1C4Z D W 35;0.773319
1C4Z D R 15;1C4Z D K 16;20.0089
1C4Z D R 15;1C4Z D C 17;12.9358
1C4Z D K 16;1C4Z D C 17;33.3012
1C4Z D K 16;1C4Z D M 19;4.00829
1C4Z D C 17;1C4Z D G 18;33.2244
1C4Z D C 17;1C4Z D M 19;9.3743
1C4Z D G 18;1C4Z D M 19;36.2444
1C4Z D M 19;1C4Z D K 20;36.2361
1C4Z D M 19;1C4Z D N 21;4.76554
1C4Z D M 19;1C4Z D F 22;33.032
1C4Z D M 19;1C4Z D D 102;21.0316
1C4Z D M 19;1C4Z D I 105;9.8886
1C4Z D M 19;1C4Z D I 109;0.5762
1C4Z D K 20;1C4Z D N 21;40.7425
1C4Z D K 20;1C4Z D F 22;1.97233
1C4Z D K 20;1C4Z D I 109;10.4276
1C4Z D N 21;1C4Z D F 22;26.9234
1C4Z D N 21;1C4Z D L 38;1.4132
1C4Z D N 21;1C4Z D I 39;9.3225
1C4Z D N 21;1C4Z D V 40;36.1793
1C4Z D N 21;1C4Z D P 41;4.23892
1C4Z D N 21;1C4Z D D 42;11.8056
1C4Z D N 21;1C4Z D I 109;28.5924
1C4Z D N 21;1C4Z D N 113;1.79982
1C4Z D F 22;1C4Z D R 23;29.1575
1C4Z D F 22;1C4Z D N 24;25.5692
1C4Z D F 22;1C4Z D W 35;9.72986
1C4Z D F 22;1C4Z D Q 36;1.41933
1C4Z D F 22;1C4Z D G 37;9.31944
1C4Z D F 22;1C4Z D L 38;15.0662
1C4Z D F 22;1C4Z D I 39;11.6525
1C4Z D F 22;1C4Z D V 40;4.00928
1C4Z D F 22;1C4Z D I 53;8.93701
1C4Z D F 22;1C4Z D I 55;10.5051
1C4Z D F 22;1C4Z D I 105;29.517
1C4Z D F 22;1C4Z D I 109;2.48521
1C4Z D R 23;1C4Z D N 24;41.0888
1C4Z D R 23;1C4Z D I 25;15.6825
1C4Z D R 23;1C4Z D Q 36;9.18086
1C4Z D R 23;1C4Z D G 37;10.867
1C4Z D R 23;1C4Z D L 38;41.8828
1C4Z D R 23;1C4Z D V 40;3.99031
1C4Z D R 23;1C4Z D R 52;12.1845
1C4Z D N 24;1C4Z D I 25;34.4832
1C4Z D N 24;1C4Z D Q 26;4.35826
1C4Z D N 24;1C4Z D W 35;15.1068
1C4Z D N 24;1C4Z D Q 36;9.58605
1C4Z D N 24;1C4Z D G 37;6.49574
1C4Z D I 25;1C4Z D Q 26;49.9544
1C4Z D I 25;1C4Z D V 27;4.38194
1C4Z D I 25;1C4Z D W 35;1.26393
1C4Z D I 25;1C4Z D Q 36;23.4688
1C4Z D Q 26;1C4Z D V 27;22.0782
1C4Z D Q 26;1C4Z D D 28;10.0651
1C4Z D Q 26;1C4Z D E 29;22.9759
1C4Z D Q 26;1C4Z D A 30;0.575865
1C4Z D Q 26;1C4Z D L 32;25.3504
1C4Z D Q 26;1C4Z D T 34;10.0614
1C4Z D Q 26;1C4Z D W 35;19.8848
1C4Z D Q 26;1C4Z D Q 36;0.526121
1C4Z D V 27;1C4Z D D 28;35.3379
1C4Z D V 27;1C4Z D E 29;0.105505
1C4Z D V 27;1C4Z D T 34;16.9752
1C4Z D V 27;1C4Z D W 35;4.93112
1C4Z D V 27;1C4Z D Q 36;36.4541
1C4Z D V 27;1C4Z D R 52;1.91482
1C4Z D V 27;1C4Z D E 54;3.53637
1C4Z D D 28;1C4Z D E 29;37.9473
1C4Z D D 28;1C4Z D A 30;13.4049
1C4Z D D 28;1C4Z D N 31;12.5206
1C4Z D D 28;1C4Z D L 32;1.80509
1C4Z D D 28;1C4Z D T 34;20.0193
1C4Z D E 29;1C4Z D A 30;33.9548
1C4Z D E 29;1C4Z D L 32;0.576684
1C4Z D A 30;1C4Z D N 31;30.8882
1C4Z D A 30;1C4Z D L 32;20.1511
1C4Z D N 31;1C4Z D L 32;20.5891
1C4Z D N 31;1C4Z D L 33;20.9214
1C4Z D N 31;1C4Z D T 34;4.1591
1C4Z D L 32;1C4Z D L 33;18.7247
1C4Z D L 32;1C4Z D T 34;2.74058
1C4Z D L 32;1C4Z D W 35;9.90411
1C4Z D L 32;1C4Z D F 57;2.85734
1C4Z D L 33;1C4Z D T 34;32.9358
1C4Z D L 33;1C4Z D W 35;0.539498
1C4Z D L 33;1C4Z D I 55;0.961927
1C4Z D L 33;1C4Z D N 56;7.03606
1C4Z D L 33;1C4Z D F 57;35.1744
1C4Z D L 33;1C4Z D P 58;2.11016
1C4Z D L 33;1C4Z D A 59;15.0227
1C4Z D L 33;1C4Z D Y 61;2.26528
1C4Z D T 34;1C4Z D W 35;24.4034
1C4Z D T 34;1C4Z D E 54;1.44406
1C4Z D T 34;1C4Z D I 55;5.7833
1C4Z D T 34;1C4Z D N 56;19.7179
1C4Z D T 34;1C4Z D F 57;0.156305
1C4Z D W 35;1C4Z D Q 36;25.6104
1C4Z D W 35;1C4Z D I 53;1.60147
1C4Z D W 35;1C4Z D E 54;9.5633
1C4Z D W 35;1C4Z D I 55;39.5112
1C4Z D W 35;1C4Z D F 57;21.1839
1C4Z D W 35;1C4Z D T 101;17.0298
1C4Z D W 35;1C4Z D I 105;4.0697
1C4Z D Q 36;1C4Z D G 37;19.0966
1C4Z D Q 36;1C4Z D R 52;32.4288
1C4Z D Q 36;1C4Z D I 53;8.72
1C4Z D Q 36;1C4Z D E 54;10.776
1C4Z D Q 36;1C4Z D K 71;7.8421
1C4Z D G 37;1C4Z D L 38;17.4974
1C4Z D G 37;1C4Z D F 51;0.0176941
1C4Z D G 37;1C4Z D R 52;11.7929
1C4Z D G 37;1C4Z D I 53;17.7187
1C4Z D L 38;1C4Z D I 39;17.6555
1C4Z D L 38;1C4Z D V 40;12.4436
1C4Z D L 38;1C4Z D A 50;20.5449
1C4Z D L 38;1C4Z D F 51;13.4276
1C4Z D L 38;1C4Z D R 52;16.8704
1C4Z D L 38;1C4Z D I 53;0.932548
1C4Z D L 38;1C4Z D T 72;1.83813
1C4Z D I 39;1C4Z D V 40;16.2821
1C4Z D I 39;1C4Z D P 41;17.3303
1C4Z D I 39;1C4Z D A 50;4.92532
1C4Z D I 39;1C4Z D F 51;26.0802
1C4Z D I 39;1C4Z D I 53;21.0851
1C4Z D I 39;1C4Z D F 70;10.4242
1C4Z D I 39;1C4Z D I 74;1.1754
1C4Z D I 39;1C4Z D I 105;7.86468
1C4Z D I 39;1C4Z D L 108;12.1741
1C4Z D I 39;1C4Z D I 109;15.7245
1C4Z D I 39;1C4Z D V 112;10.2927
1C4Z D V 40;1C4Z D P 41;30.2516
1C4Z D V 40;1C4Z D D 42;0.170874
1C4Z D V 40;1C4Z D K 48;21.4268
1C4Z D V 40;1C4Z D A 50;18.1156
1C4Z D P 41;1C4Z D D 42;29.1422
1C4Z D P 41;1C4Z D N 43;0.242606
1C4Z D P 41;1C4Z D P 44;4.09624
1C4Z D P 41;1C4Z D Y 46;21.6373
1C4Z D P 41;1C4Z D D 47;0.538126
1C4Z D P 41;1C4Z D K 48;15.4588
1C4Z D P 41;1C4Z D G 49;3.20896
1C4Z D P 41;1C4Z D A 50;5.43304
1C4Z D P 41;1C4Z D F 51;13.0854
1C4Z D P 41;1C4Z D I 109;2.96382
1C4Z D P 41;1C4Z D V 112;15.2349
1C4Z D P 41;1C4Z D N 113;10.1642
1C4Z D D 42;1C4Z D N 43;30.2951
1C4Z D D 42;1C4Z D P 44;0.376048
1C4Z D D 42;1C4Z D Y 46;1.0305
1C4Z D D 42;1C4Z D D 47;14.167
1C4Z D D 42;1C4Z D K 48;2.91752
1C4Z D D 42;1C4Z D N 113;14.6248
1C4Z D N 43;1C4Z D P 44;42.5784
1C4Z D N 43;1C4Z D Y 46;1.69178
1C4Z D N 43;1C4Z D D 47;15.9213
1C4Z D N 43;1C4Z D N 113;8.99407
1C4Z D P 44;1C4Z D P 45;32.1804
1C4Z D P 44;1C4Z D Y 46;23.3258
1C4Z D P 44;1C4Z D D 47;9.2723
1C4Z D P 44;1C4Z D V 112;6.48071
1C4Z D P 44;1C4Z D N 113;27.3524
1C4Z D P 44;1C4Z D P 115;3.51146
1C4Z D P 45;1C4Z D Y 46;26.852
1C4Z D P 45;1C4Z D D 47;10.3057
1C4Z D P 45;1C4Z D R 133;0.689275
1C4Z D P 45;1C4Z D F 136;10.9423
1C4Z D P 45;1C4Z D C 137;28.9474
1C4Z D P 45;1C4Z D A 140;9.84703
1C4Z D P 45;1C4Z D E 141;27.1109
1C4Z D P 45;1C4Z D T 144;6.57943
1C4Z D Y 46;1C4Z D D 47;16.0464
1C4Z D Y 46;1C4Z D K 48;5.15219
1C4Z D Y 46;1C4Z D G 49;1.10162
1C4Z D Y 46;1C4Z D F 51;12.6828
1C4Z D Y 46;1C4Z D I 74;15.4152
1C4Z D Y 46;1C4Z D Y 75;13.6235
1C4Z D Y 46;1C4Z D H 76;15.3454
1C4Z D Y 46;1C4Z D P 77;2.19581
1C4Z D Y 46;1C4Z D V 112;19.3359
1C4Z D Y 46;1C4Z D P 115;6.94458
1C4Z D Y 46;1C4Z D F 136;11.1966
1C4Z D Y 46;1C4Z D A 140;6.6591
1C4Z D Y 46;1C4Z D T 144;19.856
1C4Z D D 47;1C4Z D K 48;43.5242
1C4Z D D 47;1C4Z D E 141;18.0137
1C4Z D D 47;1C4Z D T 144;5.59092
1C4Z D K 48;1C4Z D G 49;31.7758
1C4Z D K 48;1C4Z D A 50;0.194075
1C4Z D K 48;1C4Z D T 144;5.09001
1C4Z D K 48;1C4Z D K 145;8.25002
1C4Z D G 49;1C4Z D A 50;33.8283
1C4Z D G 49;1C4Z D F 51;12.7656
1C4Z D G 49;1C4Z D T 144;21.4474
1C4Z D G 49;1C4Z D K 145;1.32295
1C4Z D A 50;1C4Z D F 51;23.1557
1C4Z D A 50;1C4Z D T 72;9.63579
1C4Z D A 50;1C4Z D Y 147;1.7701
1C4Z D F 51;1C4Z D R 52;15.3955
1C4Z D F 51;1C4Z D I 53;5.46705
1C4Z D F 51;1C4Z D F 70;11.7206
1C4Z D F 51;1C4Z D T 72;22.6242
1C4Z D F 51;1C4Z D K 73;8.95764
1C4Z D F 51;1C4Z D I 74;25.9144
1C4Z D F 51;1C4Z D V 112;0.344193
1C4Z D F 51;1C4Z D F 143;0.0222954
1C4Z D F 51;1C4Z D T 144;18.4121
1C4Z D F 51;1C4Z D Y 147;2.98263
1C4Z D R 52;1C4Z D I 53;20.9476
1C4Z D R 52;1C4Z D F 70;3.72337
1C4Z D R 52;1C4Z D K 71;49.7411
1C4Z D R 52;1C4Z D T 72;18.2357
1C4Z D I 53;1C4Z D E 54;23.1942
1C4Z D I 53;1C4Z D I 55;13.386
1C4Z D I 53;1C4Z D I 68;17.1567
1C4Z D I 53;1C4Z D T 69;4.80255
1C4Z D I 53;1C4Z D F 70;20.2233
1C4Z D I 53;1C4Z D K 71;3.31907
1C4Z D I 53;1C4Z D L 108;10.8888
1C4Z D E 54;1C4Z D I 55;19.5441
1C4Z D E 54;1C4Z D N 56;15.7527
1C4Z D E 54;1C4Z D K 67;1.92062
1C4Z D E 54;1C4Z D I 68;4.00002
1C4Z D E 54;1C4Z D T 69;25.0068
1C4Z D E 54;1C4Z D K 71;7.2699
1C4Z D I 55;1C4Z D N 56;26.8308
1C4Z D I 55;1C4Z D F 57;16.5725
1C4Z D I 55;1C4Z D P 66;10.0364
1C4Z D I 55;1C4Z D K 67;3.57588
1C4Z D I 55;1C4Z D I 68;18.4416
1C4Z D I 55;1C4Z D T 101;6.01961
1C4Z D I 55;1C4Z D V 104;5.52941
1C4Z D I 55;1C4Z D I 105;16.7092
1C4Z D N 56;1C4Z D F 57;20.1179
1C4Z D N 56;1C4Z D P 58;6.63665
1C4Z D N 56;1C4Z D P 66;4.8187
1C4Z D N 56;1C4Z D K 67;36.7427
1C4Z D N 56;1C4Z D T 69;9.16727
1C4Z D F 57;1C4Z D P 58;29.0635
1C4Z D F 57;1C4Z D A 59;0.231231
1C4Z D F 57;1C4Z D Y 61;21.1287
1C4Z D F 57;1C4Z D K 64;0.401725
1C4Z D F 57;1C4Z D P 65;0.224933
1C4Z D F 57;1C4Z D P 66;20.9763
1C4Z D F 57;1C4Z D T 101;11.9179
1C4Z D P 58;1C4Z D A 59;21.6153
1C4Z D P 58;1C4Z D E 60;18.1815
1C4Z D P 58;1C4Z D Y 61;15.8337
1C4Z D P 58;1C4Z D K 64;20.6612
1C4Z D P 58;1C4Z D P 65;11.8362
1C4Z D P 58;1C4Z D P 66;2.61935
1C4Z D P 58;1C4Z D K 67;0.285037
1C4Z D A 59;1C4Z D E 60;21.3826
1C4Z D A 59;1C4Z D Y 61;10.7225
1C4Z D E 60;1C4Z D Y 61;18.0391
1C4Z D E 60;1C4Z D F 63;15.705
1C4Z D E 60;1C4Z D K 64;39.5431
1C4Z D Y 61;1C4Z D P 62;38.78
1C4Z D Y 61;1C4Z D F 63;5.292
1C4Z D Y 61;1C4Z D K 64;11.8846
1C4Z D Y 61;1C4Z D P 66;9.70682
1C4Z D Y 61;1C4Z D W 95;10.4407
1C4Z D Y 61;1C4Z D T 99;0.760381
1C4Z D Y 61;1C4Z D K 100;0.156653
1C4Z D Y 61;1C4Z D T 101;12.3043
1C4Z D P 62;1C4Z D F 63;31.9371
1C4Z D P 62;1C4Z D K 64;5.54391
1C4Z D P 62;1C4Z D W 95;14.0933
1C4Z D P 62;1C4Z D P 97;15.8903
1C4Z D F 63;1C4Z D K 64;20.6005
1C4Z D F 63;1C4Z D W 95;4.83252
1C4Z D F 63;1C4Z D P 97;9.79122
1C4Z D K 64;1C4Z D P 65;28.5339
1C4Z D K 64;1C4Z D P 66;1.25806
1C4Z D K 64;1C4Z D W 95;8.5087
1C4Z D P 65;1C4Z D P 66;30.7026
1C4Z D P 65;1C4Z D K 67;1.19829
1C4Z D P 65;1C4Z D I 90;15.0978
1C4Z D P 65;1C4Z D S 91;1.03292
1C4Z D P 65;1C4Z D A 92;10.6077
1C4Z D P 65;1C4Z D W 95;24.263
1C4Z D P 66;1C4Z D K 67;25.1301
1C4Z D P 66;1C4Z D I 68;2.51276
1C4Z D P 66;1C4Z D I 90;23.2285
1C4Z D P 66;1C4Z D W 95;11.7498
1C4Z D P 66;1C4Z D T 101;6.87715
1C4Z D P 66;1C4Z D V 104;7.64309
1C4Z D K 67;1C4Z D I 68;29.6736
1C4Z D K 67;1C4Z D T 69;12.6814
1C4Z D K 67;1C4Z D Q 84;0.220343
1C4Z D K 67;1C4Z D I 90;5.42596
1C4Z D I 68;1C4Z D T 69;28.58
1C4Z D I 68;1C4Z D F 70;1.3742
1C4Z D I 68;1C4Z D G 83;0.510076
1C4Z D I 68;1C4Z D Q 84;4.44012
1C4Z D I 68;1C4Z D V 85;27.4954
1C4Z D I 68;1C4Z D L 87;13.1514
1C4Z D I 68;1C4Z D I 90;16.0007
1C4Z D I 68;1C4Z D V 104;12.3201
1C4Z D I 68;1C4Z D I 105;6.29317
1C4Z D I 68;1C4Z D L 108;17.4713
1C4Z D T 69;1C4Z D F 70;29.0855
1C4Z D T 69;1C4Z D K 71;3.51734
1C4Z D T 69;1C4Z D K 82;10.2984
1C4Z D T 69;1C4Z D G 83;10.4811
1C4Z D T 69;1C4Z D Q 84;5.80825
1C4Z D T 69;1C4Z D V 85;1.77589
1C4Z D F 70;1C4Z D K 71;26.5419
1C4Z D F 70;1C4Z D T 72;12.4609
1C4Z D F 70;1C4Z D K 73;3.04897
1C4Z D F 70;1C4Z D I 74;18.7624
1C4Z D F 70;1C4Z D I 79;22.3897
1C4Z D F 70;1C4Z D K 82;0.591119
1C4Z D F 70;1C4Z D G 83;22.3682
1C4Z D F 70;1C4Z D V 85;16.288
1C4Z D F 70;1C4Z D L 108;11.4521
1C4Z D F 70;1C4Z D V 112;5.05652
1C4Z D K 71;1C4Z D T 72;35.3994
1C4Z D K 71;1C4Z D K 73;9.15353
1C4Z D T 72;1C4Z D K 73;29.9569
1C4Z D T 72;1C4Z D I 74;3.30703
1C4Z D T 72;1C4Z D Y 147;17.5207
1C4Z D K 73;1C4Z D I 74;29.1128
1C4Z D K 73;1C4Z D E 81;13.4458
1C4Z D K 73;1C4Z D F 143;23.7782
1C4Z D K 73;1C4Z D Y 147;43.5619
1C4Z D I 74;1C4Z D Y 75;27.9086
1C4Z D I 74;1C4Z D H 76;19.7214
1C4Z D I 74;1C4Z D I 79;23.7588
1C4Z D I 74;1C4Z D D 80;3.35055
1C4Z D I 74;1C4Z D E 81;0.770249
1C4Z D I 74;1C4Z D V 112;12.0759
1C4Z D I 74;1C4Z D R 122;8.49429
1C4Z D I 74;1C4Z D F 143;8.07226
1C4Z D I 74;1C4Z D T 144;0.466458
1C4Z D Y 75;1C4Z D H 76;16.2411
1C4Z D Y 75;1C4Z D R 122;6.5537
1C4Z D Y 75;1C4Z D L 125;30.7924
1C4Z D Y 75;1C4Z D E 128;17.0797
1C4Z D Y 75;1C4Z D K 135;0.168517
1C4Z D Y 75;1C4Z D F 136;20.3149
1C4Z D Y 75;1C4Z D N 139;22.3296
1C4Z D Y 75;1C4Z D A 140;18.9453
1C4Z D Y 75;1C4Z D F 143;35.4101
1C4Z D Y 75;1C4Z D T 144;2.27075
1C4Z D H 76;1C4Z D P 77;27.1088
1C4Z D H 76;1C4Z D N 78;14.6959
1C4Z D H 76;1C4Z D I 79;33.0985
1C4Z D H 76;1C4Z D L 111;13.4844
1C4Z D H 76;1C4Z D V 112;14.454
1C4Z D H 76;1C4Z D P 115;10.9379
1C4Z D H 76;1C4Z D R 122;3.81539
1C4Z D H 76;1C4Z D L 125;11.3316
1C4Z D H 76;1C4Z D F 136;1.37495
1C4Z D P 77;1C4Z D N 78;22.5267
1C4Z D P 77;1C4Z D I 79;8.08741
1C4Z D P 77;1C4Z D P 115;11.7502
1C4Z D P 77;1C4Z D P 117;9.43037
1C4Z D P 77;1C4Z D P 120;7.66226
1C4Z D P 77;1C4Z D L 121;6.49422
1C4Z D P 77;1C4Z D R 122;14.223
1C4Z D P 77;1C4Z D L 125;14.8717
1C4Z D P 77;1C4Z D A 126;9.79599
1C4Z D P 77;1C4Z D Y 129;9.8091
1C4Z D P 77;1C4Z D F 136;10.8178
1C4Z D N 78;1C4Z D I 79;19.8393
1C4Z D N 78;1C4Z D Q 84;0.131945
1C4Z D N 78;1C4Z D V 85;2.9809
1C4Z D N 78;1C4Z D C 86;14.2429
1C4Z D N 78;1C4Z D L 111;20.2154
1C4Z D N 78;1C4Z D P 115;7.89465
1C4Z D N 78;1C4Z D Q 116;21.0171
1C4Z D N 78;1C4Z D P 117;4.52483
1C4Z D N 78;1C4Z D H 119;3.80851
1C4Z D N 78;1C4Z D P 120;7.16136
1C4Z D N 78;1C4Z D L 121;15.9421
1C4Z D I 79;1C4Z D D 80;29.446
1C4Z D I 79;1C4Z D G 83;9.45054
1C4Z D I 79;1C4Z D Q 84;7.14016
1C4Z D I 79;1C4Z D V 85;13.0092
1C4Z D I 79;1C4Z D L 108;0.213914
1C4Z D I 79;1C4Z D L 111;2.37172
1C4Z D I 79;1C4Z D V 112;4.27966
1C4Z D I 79;1C4Z D L 121;6.01326
1C4Z D I 79;1C4Z D R 122;11.4951
1C4Z D D 80;1C4Z D E 81;23.5909
1C4Z D D 80;1C4Z D K 82;11.6507
1C4Z D D 80;1C4Z D G 83;9.84015
1C4Z D D 80;1C4Z D Q 84;15.11
1C4Z D D 80;1C4Z D L 121;37.5876
1C4Z D D 80;1C4Z D R 122;11.9368
1C4Z D E 81;1C4Z D K 82;26.9644
1C4Z D E 81;1C4Z D G 83;8.06861
1C4Z D E 81;1C4Z D R 122;18.4592
1C4Z D K 82;1C4Z D G 83;17.7955
1C4Z D K 82;1C4Z D Q 84;12.6682
1C4Z D G 83;1C4Z D Q 84;18.8674
1C4Z D G 83;1C4Z D V 85;5.53381
1C4Z D Q 84;1C4Z D V 85;24.4738
1C4Z D Q 84;1C4Z D L 121;15.3057
1C4Z D V 85;1C4Z D C 86;28.6922
1C4Z D V 85;1C4Z D L 87;15.1222
1C4Z D V 85;1C4Z D I 90;1.32611
1C4Z D V 85;1C4Z D S 91;2.58957
1C4Z D V 85;1C4Z D L 108;13.4683
1C4Z D V 85;1C4Z D L 111;9.83262
1C4Z D V 85;1C4Z D L 121;2.29606
1C4Z D C 86;1C4Z D L 87;20.2638
1C4Z D C 86;1C4Z D P 88;11.1864
1C4Z D C 86;1C4Z D S 91;14.9396
1C4Z D C 86;1C4Z D L 111;8.96407
1C4Z D C 86;1C4Z D Q 116;7.31287
1C4Z D C 86;1C4Z D H 119;6.19378
1C4Z D C 86;1C4Z D L 121;19.1795
1C4Z D L 87;1C4Z D P 88;24.1291
1C4Z D L 87;1C4Z D V 89;16.6896
1C4Z D L 87;1C4Z D I 90;24.96
1C4Z D L 87;1C4Z D S 91;10.8897
1C4Z D L 87;1C4Z D V 104;9.46388
1C4Z D L 87;1C4Z D S 107;9.22902
1C4Z D L 87;1C4Z D L 108;17.6388
1C4Z D L 87;1C4Z D L 111;13.3487
1C4Z D P 88;1C4Z D V 89;23.764
1C4Z D P 88;1C4Z D I 90;4.67889
1C4Z D P 88;1C4Z D S 91;17.4276
1C4Z D P 88;1C4Z D N 94;25.1175
1C4Z D P 88;1C4Z D W 95;0.150159
1C4Z D P 88;1C4Z D L 111;1.57003
1C4Z D P 88;1C4Z D Q 116;24.0336
1C4Z D V 89;1C4Z D I 90;25.4807
1C4Z D V 89;1C4Z D N 94;10.0054
1C4Z D V 89;1C4Z D W 95;13.5237
1C4Z D V 89;1C4Z D K 96;0.362622
1C4Z D V 89;1C4Z D T 99;14.5064
1C4Z D V 89;1C4Z D Q 103;11.4945
1C4Z D V 89;1C4Z D V 104;11.8767
1C4Z D V 89;1C4Z D S 107;18.645
1C4Z D I 90;1C4Z D S 91;27.1458
1C4Z D I 90;1C4Z D A 92;4.99887
1C4Z D I 90;1C4Z D W 95;17.7455
1C4Z D I 90;1C4Z D V 104;16.6827
1C4Z D S 91;1C4Z D A 92;30.0107
1C4Z D S 91;1C4Z D N 94;7.096
1C4Z D S 91;1C4Z D W 95;0.846771
1C4Z D A 92;1C4Z D E 93;34.8146
1C4Z D A 92;1C4Z D N 94;5.9089
1C4Z D A 92;1C4Z D W 95;11.0035
1C4Z D E 93;1C4Z D N 94;36.9827
1C4Z D E 93;1C4Z D W 95;1.82327
1C4Z D N 94;1C4Z D W 95;27.5954
1C4Z D N 94;1C4Z D K 96;19.9483
1C4Z D W 95;1C4Z D K 96;43.4679
1C4Z D W 95;1C4Z D P 97;10.6557
1C4Z D W 95;1C4Z D T 99;19.8214
1C4Z D W 95;1C4Z D T 101;1.26087
1C4Z D W 95;1C4Z D V 104;8.72202
1C4Z D K 96;1C4Z D P 97;25.1132
1C4Z D K 96;1C4Z D A 98;7.31169
1C4Z D K 96;1C4Z D T 99;29.6161
1C4Z D P 97;1C4Z D A 98;19.49
1C4Z D P 97;1C4Z D T 99;1.98925
1C4Z D A 98;1C4Z D T 99;22.9829
1C4Z D A 98;1C4Z D K 100;21.0783
1C4Z D A 98;1C4Z D Q 103;0.0239968
1C4Z D T 99;1C4Z D K 100;18.226
1C4Z D T 99;1C4Z D T 101;1.92697
1C4Z D T 99;1C4Z D Q 103;28.3216
1C4Z D T 99;1C4Z D V 104;5.28798
1C4Z D K 100;1C4Z D T 101;17.3387
1C4Z D K 100;1C4Z D D 102;18.4455
1C4Z D K 100;1C4Z D Q 103;27.8393
1C4Z D K 100;1C4Z D V 104;4.84346
1C4Z D T 101;1C4Z D D 102;24.3145
1C4Z D T 101;1C4Z D Q 103;1.38591
1C4Z D T 101;1C4Z D V 104;25.707
1C4Z D T 101;1C4Z D I 105;17.5087
1C4Z D D 102;1C4Z D Q 103;21.1568
1C4Z D D 102;1C4Z D V 104;0.256575
1C4Z D D 102;1C4Z D I 105;9.10717
1C4Z D D 102;1C4Z D Q 106;19.2986
1C4Z D Q 103;1C4Z D V 104;19.8124
1C4Z D Q 103;1C4Z D I 105;5.72751
1C4Z D Q 103;1C4Z D Q 106;13.0373
1C4Z D Q 103;1C4Z D S 107;16.6318
1C4Z D V 104;1C4Z D I 105;28.8524
1C4Z D V 104;1C4Z D S 107;5.3118
1C4Z D V 104;1C4Z D L 108;5.83949
1C4Z D I 105;1C4Z D Q 106;24.7022
1C4Z D I 105;1C4Z D S 107;4.58297
1C4Z D I 105;1C4Z D L 108;7.36687
1C4Z D I 105;1C4Z D I 109;12.3648
1C4Z D Q 106;1C4Z D S 107;19.8876
1C4Z D Q 106;1C4Z D L 108;2.0302
1C4Z D Q 106;1C4Z D I 109;27.5413
1C4Z D Q 106;1C4Z D A 110;11.6541
1C4Z D S 107;1C4Z D L 108;16.0034
1C4Z D S 107;1C4Z D I 109;0.569436
1C4Z D S 107;1C4Z D A 110;13.6072
1C4Z D S 107;1C4Z D L 111;10.136
1C4Z D L 108;1C4Z D I 109;22.9747
1C4Z D L 108;1C4Z D A 110;1.39251
1C4Z D L 108;1C4Z D L 111;18.2342
1C4Z D L 108;1C4Z D V 112;17.3668
1C4Z D I 109;1C4Z D A 110;18.9796
1C4Z D I 109;1C4Z D L 111;0.542393
1C4Z D I 109;1C4Z D V 112;11.4695
1C4Z D I 109;1C4Z D N 113;23.3028
1C4Z D A 110;1C4Z D L 111;18.0848
1C4Z D A 110;1C4Z D V 112;1.71364
1C4Z D A 110;1C4Z D N 113;11.6879
1C4Z D A 110;1C4Z D D 114;16.0786
1C4Z D L 111;1C4Z D V 112;18.2088
1C4Z D L 111;1C4Z D D 114;12.0754
1C4Z D L 111;1C4Z D P 115;6.36906
1C4Z D L 111;1C4Z D Q 116;21.5148
1C4Z D V 112;1C4Z D N 113;21.9919
1C4Z D V 112;1C4Z D D 114;4.35981
1C4Z D V 112;1C4Z D P 115;6.71448
1C4Z D N 113;1C4Z D D 114;26.4942
1C4Z D N 113;1C4Z D P 115;1.72913
1C4Z D D 114;1C4Z D P 115;29.6492
1C4Z D D 114;1C4Z D Q 116;5.06825
1C4Z D D 114;1C4Z D Y 129;2.87064
1C4Z D P 115;1C4Z D Q 116;17.0305
1C4Z D P 115;1C4Z D P 117;16.3631
1C4Z D P 115;1C4Z D Y 129;34.2965
1C4Z D P 115;1C4Z D F 136;2.26242
1C4Z D Q 116;1C4Z D P 117;19.3639
1C4Z D Q 116;1C4Z D E 118;20.112
1C4Z D Q 116;1C4Z D H 119;8.07974
1C4Z D Q 116;1C4Z D P 120;0.332372
1C4Z D P 117;1C4Z D E 118;26.1148
1C4Z D P 117;1C4Z D H 119;0.747306
1C4Z D P 117;1C4Z D P 120;18.2373
1C4Z D P 117;1C4Z D A 126;16.4201
1C4Z D P 117;1C4Z D Y 129;18.1413
1C4Z D P 117;1C4Z D S 130;7.50063
1C4Z D E 118;1C4Z D H 119;27.9448
1C4Z D E 118;1C4Z D P 120;8.93197
1C4Z D H 119;1C4Z D P 120;26.9863
1C4Z D H 119;1C4Z D L 121;6.53598
1C4Z D P 120;1C4Z D L 121;21.4446
1C4Z D P 120;1C4Z D R 122;13.055
1C4Z D P 120;1C4Z D A 123;17.88
1C4Z D P 120;1C4Z D A 126;14.5011
1C4Z D L 121;1C4Z D R 122;24.8317
1C4Z D R 122;1C4Z D A 123;20.3437
1C4Z D R 122;1C4Z D D 124;19.8105
1C4Z D R 122;1C4Z D L 125;31.9876
1C4Z D R 122;1C4Z D A 126;6.26873
1C4Z D R 122;1C4Z D F 143;0.116966
1C4Z D A 123;1C4Z D D 124;26.0536
1C4Z D A 123;1C4Z D A 126;12.094
1C4Z D A 123;1C4Z D E 127;10.8163
1C4Z D D 124;1C4Z D L 125;25.4056
1C4Z D D 124;1C4Z D A 126;2.64149
1C4Z D D 124;1C4Z D E 127;8.13641
1C4Z D D 124;1C4Z D E 128;9.535
1C4Z D L 125;1C4Z D A 126;15.5247
1C4Z D L 125;1C4Z D E 127;0.237811
1C4Z D L 125;1C4Z D E 128;19.09
1C4Z D L 125;1C4Z D Y 129;8.81772
1C4Z D L 125;1C4Z D F 136;12.8033
1C4Z D A 126;1C4Z D E 127;19.341
1C4Z D A 126;1C4Z D E 128;0.994124
1C4Z D A 126;1C4Z D Y 129;9.63737
1C4Z D A 126;1C4Z D S 130;11.1786
1C4Z D E 127;1C4Z D E 128;20.9042
1C4Z D E 127;1C4Z D Y 129;2.2916
1C4Z D E 127;1C4Z D S 130;11.8541
1C4Z D E 127;1C4Z D K 131;36.1939
1C4Z D E 127;1C4Z D D 132;0.0110488
1C4Z D E 128;1C4Z D Y 129;15.2689
1C4Z D E 128;1C4Z D K 131;3.82068
1C4Z D E 128;1C4Z D D 132;16.272
1C4Z D E 128;1C4Z D K 135;33.4792
1C4Z D E 128;1C4Z D F 136;16.1882
1C4Z D E 128;1C4Z D N 139;2.79471
1C4Z D Y 129;1C4Z D S 130;28.0456
1C4Z D Y 129;1C4Z D K 131;0.995876
1C4Z D Y 129;1C4Z D D 132;8.39699
1C4Z D Y 129;1C4Z D R 133;48.3541
1C4Z D Y 129;1C4Z D F 136;29.4298
1C4Z D S 130;1C4Z D K 131;28.2631
1C4Z D S 130;1C4Z D D 132;6.09277
1C4Z D S 130;1C4Z D R 133;5.74892
1C4Z D K 131;1C4Z D D 132;31.6701
1C4Z D D 132;1C4Z D R 133;21.7748
1C4Z D D 132;1C4Z D K 134;15.764
1C4Z D D 132;1C4Z D K 135;27.9967
1C4Z D D 132;1C4Z D F 136;6.8399
1C4Z D R 133;1C4Z D K 134;25.1871
1C4Z D R 133;1C4Z D F 136;7.39716
1C4Z D R 133;1C4Z D C 137;27.7255
1C4Z D K 134;1C4Z D K 135;19.2724
1C4Z D K 134;1C4Z D F 136;7.16568
1C4Z D K 134;1C4Z D C 137;11.6214
1C4Z D K 134;1C4Z D K 138;14.5455
1C4Z D K 134;1C4Z D N 139;0.0587606
1C4Z D K 135;1C4Z D F 136;16.5439
1C4Z D K 135;1C4Z D K 138;4.20535
1C4Z D K 135;1C4Z D N 139;22.6511
1C4Z D F 136;1C4Z D C 137;25.3365
1C4Z D F 136;1C4Z D K 138;2.3757
1C4Z D F 136;1C4Z D N 139;7.98581
1C4Z D F 136;1C4Z D A 140;16.4635
1C4Z D C 137;1C4Z D K 138;21.0005
1C4Z D C 137;1C4Z D N 139;0.0323268
1C4Z D C 137;1C4Z D A 140;3.12203
1C4Z D C 137;1C4Z D E 141;16.9656
1C4Z D K 138;1C4Z D N 139;22.867
1C4Z D K 138;1C4Z D A 140;3.49737
1C4Z D K 138;1C4Z D E 141;7.62205
1C4Z D K 138;1C4Z D E 142;15.1548
1C4Z D N 139;1C4Z D A 140;14.5924
1C4Z D N 139;1C4Z D E 142;8.89027
1C4Z D N 139;1C4Z D F 143;11.0021
1C4Z D A 140;1C4Z D E 141;14.8298
1C4Z D A 140;1C4Z D E 142;2.89795
1C4Z D A 140;1C4Z D F 143;10.1252
1C4Z D A 140;1C4Z D T 144;12.6779
1C4Z D E 141;1C4Z D E 142;19.0218
1C4Z D E 141;1C4Z D F 143;0.570534
1C4Z D E 141;1C4Z D T 144;11.0039
1C4Z D E 141;1C4Z D K 145;15.2988
1C4Z D E 142;1C4Z D F 143;15.7559
1C4Z D E 142;1C4Z D T 144;0.429533
1C4Z D E 142;1C4Z D K 145;12.8645
1C4Z D E 142;1C4Z D K 146;21.2256
1C4Z D F 143;1C4Z D T 144;21.7653
1C4Z D F 143;1C4Z D K 145;0.511207
1C4Z D F 143;1C4Z D K 146;32.4795
1C4Z D F 143;1C4Z D Y 147;31.6493
1C4Z D T 144;1C4Z D K 145;24.6362
1C4Z D T 144;1C4Z D K 146;2.32123
1C4Z D T 144;1C4Z D Y 147;12.9824
1C4Z D K 145;1C4Z D K 146;33.578
1C4Z D K 145;1C4Z D Y 147;0.0150523
1C4Z D K 146;1C4Z D Y 147;48.4961
