V1;V2;Weight
1DQJ C K 1;1DQJ C V 2;31.8703
1DQJ C K 1;1DQJ C F 3;30.8382
1DQJ C K 1;1DQJ C E 7;19.6019
1DQJ C K 1;1DQJ C F 38;1.84653
1DQJ C K 1;1DQJ C N 39;8.65583
1DQJ C K 1;1DQJ C T 40;20.837
1DQJ C K 1;1DQJ C Q 41;15.3035
1DQJ C K 1;1DQJ C S 86;31.2706
1DQJ C V 2;1DQJ C F 3;29.4668
1DQJ C V 2;1DQJ C G 4;1.90907
1DQJ C V 2;1DQJ C E 7;2.57526
1DQJ C V 2;1DQJ C N 37;10.8424
1DQJ C V 2;1DQJ C F 38;6.64726
1DQJ C V 2;1DQJ C N 39;21.8563
1DQJ C F 3;1DQJ C G 4;26.4623
1DQJ C F 3;1DQJ C R 5;0.228395
1DQJ C F 3;1DQJ C E 7;20.035
1DQJ C F 3;1DQJ C L 8;23.888
1DQJ C F 3;1DQJ C A 11;13.3278
1DQJ C F 3;1DQJ C F 38;27.8699
1DQJ C F 3;1DQJ C T 40;10.4841
1DQJ C F 3;1DQJ C I 55;7.58776
1DQJ C F 3;1DQJ C S 86;10.617
1DQJ C F 3;1DQJ C I 88;14.4265
1DQJ C G 4;1DQJ C R 5;24.7454
1DQJ C G 4;1DQJ C C 6;1.65526
1DQJ C G 4;1DQJ C E 7;23.2952
1DQJ C G 4;1DQJ C L 8;7.90894
1DQJ C G 4;1DQJ C F 38;1.60461
1DQJ C R 5;1DQJ C C 6;37.195
1DQJ C R 5;1DQJ C E 7;0.882934
1DQJ C R 5;1DQJ C L 8;7.95317
1DQJ C R 5;1DQJ C A 9;9.32367
1DQJ C R 5;1DQJ C V 29;12.8911
1DQJ C R 5;1DQJ C F 38;26.8975
1DQJ C R 5;1DQJ C A 122;5.15155
1DQJ C R 5;1DQJ C W 123;32.5816
1DQJ C R 5;1DQJ C I 124;0.992512
1DQJ C R 5;1DQJ C R 125;12.5169
1DQJ C R 5;1DQJ C G 126;4.13188
1DQJ C R 5;1DQJ C C 127;8.94507
1DQJ C C 6;1DQJ C E 7;24.2889
1DQJ C C 6;1DQJ C L 8;0.859161
1DQJ C C 6;1DQJ C A 9;9.87537
1DQJ C C 6;1DQJ C A 10;11.0085
1DQJ C C 6;1DQJ C G 126;2.83251
1DQJ C C 6;1DQJ C C 127;32.586
1DQJ C C 6;1DQJ C R 128;0.717555
1DQJ C C 6;1DQJ C L 129;1.96027
1DQJ C E 7;1DQJ C L 8;15.4279
1DQJ C E 7;1DQJ C A 9;0.681581
1DQJ C E 7;1DQJ C A 10;11.7354
1DQJ C E 7;1DQJ C A 11;10.7416
1DQJ C L 8;1DQJ C A 9;17.3459
1DQJ C L 8;1DQJ C A 10;1.04374
1DQJ C L 8;1DQJ C A 11;9.97978
1DQJ C L 8;1DQJ C M 12;29.4076
1DQJ C L 8;1DQJ C V 29;7.48095
1DQJ C L 8;1DQJ C A 32;8.97638
1DQJ C L 8;1DQJ C F 38;14.6478
1DQJ C L 8;1DQJ C I 55;17.0542
1DQJ C L 8;1DQJ C I 88;12.0245
1DQJ C A 9;1DQJ C A 10;14.1271
1DQJ C A 9;1DQJ C A 11;0.565746
1DQJ C A 9;1DQJ C M 12;7.64177
1DQJ C A 9;1DQJ C K 13;7.08963
1DQJ C A 9;1DQJ C L 25;11.031
1DQJ C A 9;1DQJ C V 29;14.7298
1DQJ C A 9;1DQJ C W 123;1.02212
1DQJ C A 9;1DQJ C I 124;8.37295
1DQJ C A 9;1DQJ C C 127;6.14879
1DQJ C A 9;1DQJ C L 129;11.8501
1DQJ C A 10;1DQJ C A 11;19.5457
1DQJ C A 10;1DQJ C M 12;0.927279
1DQJ C A 10;1DQJ C K 13;10.8328
1DQJ C A 10;1DQJ C R 14;12.3076
1DQJ C A 10;1DQJ C R 128;0.0742754
1DQJ C A 10;1DQJ C L 129;19.5263
1DQJ C A 11;1DQJ C M 12;15.4663
1DQJ C A 11;1DQJ C K 13;0.764976
1DQJ C A 11;1DQJ C R 14;14.6902
1DQJ C A 11;1DQJ C H 15;17.3334
1DQJ C A 11;1DQJ C I 88;12.6752
1DQJ C M 12;1DQJ C K 13;16.1383
1DQJ C M 12;1DQJ C R 14;0.839592
1DQJ C M 12;1DQJ C H 15;9.91188
1DQJ C M 12;1DQJ C G 16;2.33844
1DQJ C M 12;1DQJ C L 17;30.8275
1DQJ C M 12;1DQJ C D 18;0.359594
1DQJ C M 12;1DQJ C L 25;11.659
1DQJ C M 12;1DQJ C W 28;16.9006
1DQJ C M 12;1DQJ C V 29;11.3046
1DQJ C M 12;1DQJ C A 32;6.42267
1DQJ C M 12;1DQJ C I 55;5.6804
1DQJ C M 12;1DQJ C L 56;12.0194
1DQJ C M 12;1DQJ C I 88;11.4595
1DQJ C M 12;1DQJ C V 92;4.31061
1DQJ C K 13;1DQJ C R 14;23.8555
1DQJ C K 13;1DQJ C H 15;0.854668
1DQJ C K 13;1DQJ C G 16;8.77675
1DQJ C K 13;1DQJ C L 17;0.833549
1DQJ C K 13;1DQJ C D 18;29.8574
1DQJ C K 13;1DQJ C L 25;16.2171
1DQJ C K 13;1DQJ C L 129;37.6708
1DQJ C R 14;1DQJ C H 15;41.4092
1DQJ C R 14;1DQJ C G 16;4.87034
1DQJ C R 14;1DQJ C D 87;0.336897
1DQJ C R 14;1DQJ C T 89;0.482154
1DQJ C H 15;1DQJ C G 16;13.2765
1DQJ C H 15;1DQJ C L 17;4.66332
1DQJ C H 15;1DQJ C D 87;4.79079
1DQJ C H 15;1DQJ C I 88;17.7273
1DQJ C H 15;1DQJ C T 89;21.9425
1DQJ C H 15;1DQJ C V 92;22.8134
1DQJ C H 15;1DQJ C N 93;0.988621
1DQJ C H 15;1DQJ C K 96;8.25795
1DQJ C G 16;1DQJ C L 17;17.0749
1DQJ C G 16;1DQJ C D 18;4.8179
1DQJ C G 16;1DQJ C Y 20;7.6808
1DQJ C G 16;1DQJ C K 96;8.52584
1DQJ C L 17;1DQJ C D 18;19.7349
1DQJ C L 17;1DQJ C N 19;1.66511
1DQJ C L 17;1DQJ C Y 20;16.4958
1DQJ C L 17;1DQJ C Y 23;3.61795
1DQJ C L 17;1DQJ C S 24;0.0404741
1DQJ C L 17;1DQJ C L 25;5.60877
1DQJ C L 17;1DQJ C W 28;40.5453
1DQJ C L 17;1DQJ C L 56;3.90622
1DQJ C L 17;1DQJ C V 92;21.7492
1DQJ C L 17;1DQJ C A 95;5.25642
1DQJ C L 17;1DQJ C K 96;14.4939
1DQJ C D 18;1DQJ C N 19;30.6234
1DQJ C D 18;1DQJ C Y 20;3.41122
1DQJ C D 18;1DQJ C Y 23;0.32936
1DQJ C D 18;1DQJ C S 24;7.71178
1DQJ C D 18;1DQJ C L 25;31.6624
1DQJ C D 18;1DQJ C I 124;1.36948
1DQJ C N 19;1DQJ C Y 20;15.8623
1DQJ C N 19;1DQJ C R 21;2.96009
1DQJ C N 19;1DQJ C G 22;23.338
1DQJ C N 19;1DQJ C Y 23;10.1307
1DQJ C N 19;1DQJ C S 24;8.3821
1DQJ C N 19;1DQJ C L 25;0.143327
1DQJ C Y 20;1DQJ C R 21;32.9923
1DQJ C Y 20;1DQJ C G 22;2.29353
1DQJ C Y 20;1DQJ C Y 23;14.4325
1DQJ C Y 20;1DQJ C W 28;10.0527
1DQJ C Y 20;1DQJ C K 96;30.8408
1DQJ C Y 20;1DQJ C V 99;11.6663
1DQJ C Y 20;1DQJ C S 100;8.19716
1DQJ C R 21;1DQJ C G 22;24.448
1DQJ C R 21;1DQJ C Y 23;17.2864
1DQJ C R 21;1DQJ C V 99;10.2433
1DQJ C R 21;1DQJ C S 100;16.77
1DQJ C G 22;1DQJ C Y 23;22.784
1DQJ C G 22;1DQJ C S 24;7.48875
1DQJ C G 22;1DQJ C N 27;0.0639068
1DQJ C Y 23;1DQJ C S 24;20.0655
1DQJ C Y 23;1DQJ C N 27;15.6842
1DQJ C Y 23;1DQJ C W 28;18.6582
1DQJ C Y 23;1DQJ C V 99;15.1579
1DQJ C Y 23;1DQJ C G 104;12.232
1DQJ C Y 23;1DQJ C M 105;26.2726
1DQJ C Y 23;1DQJ C N 106;3.72502
1DQJ C Y 23;1DQJ C W 111;15.0688
1DQJ C S 24;1DQJ C L 25;18.3971
1DQJ C S 24;1DQJ C G 26;8.65962
1DQJ C S 24;1DQJ C N 27;22.3426
1DQJ C S 24;1DQJ C W 28;5.98302
1DQJ C S 24;1DQJ C V 120;11.1961
1DQJ C S 24;1DQJ C Q 121;2.73422
1DQJ C S 24;1DQJ C I 124;0.334348
1DQJ C L 25;1DQJ C G 26;17.4393
1DQJ C L 25;1DQJ C N 27;1.13755
1DQJ C L 25;1DQJ C W 28;15.7301
1DQJ C L 25;1DQJ C V 29;14.6988
1DQJ C L 25;1DQJ C I 124;24.6209
1DQJ C L 25;1DQJ C L 129;10.6602
1DQJ C G 26;1DQJ C N 27;15.4547
1DQJ C G 26;1DQJ C W 28;1.07183
1DQJ C G 26;1DQJ C V 29;6.96264
1DQJ C G 26;1DQJ C C 30;9.09888
1DQJ C G 26;1DQJ C V 120;15.3314
1DQJ C G 26;1DQJ C Q 121;5.01438
1DQJ C G 26;1DQJ C W 123;7.42604
1DQJ C G 26;1DQJ C I 124;12.8183
1DQJ C N 27;1DQJ C W 28;19.0686
1DQJ C N 27;1DQJ C V 29;0.382991
1DQJ C N 27;1DQJ C C 30;7.25387
1DQJ C N 27;1DQJ C A 31;8.17092
1DQJ C N 27;1DQJ C M 105;12.8716
1DQJ C N 27;1DQJ C W 111;24.749
1DQJ C N 27;1DQJ C C 115;1.57285
1DQJ C N 27;1DQJ C K 116;0.910819
1DQJ C N 27;1DQJ C G 117;0.77412
1DQJ C N 27;1DQJ C V 120;26.4177
1DQJ C W 28;1DQJ C V 29;16.2657
1DQJ C W 28;1DQJ C C 30;1.01213
1DQJ C W 28;1DQJ C A 31;8.68939
1DQJ C W 28;1DQJ C A 32;8.28205
1DQJ C W 28;1DQJ C L 56;14.2911
1DQJ C W 28;1DQJ C A 95;10.9871
1DQJ C W 28;1DQJ C K 96;1.60283
1DQJ C W 28;1DQJ C V 99;14.2488
1DQJ C W 28;1DQJ C M 105;23.8255
1DQJ C W 28;1DQJ C W 108;10.3624
1DQJ C V 29;1DQJ C C 30;16.5279
1DQJ C V 29;1DQJ C A 31;0.650163
1DQJ C V 29;1DQJ C A 32;7.37044
1DQJ C V 29;1DQJ C K 33;6.65893
1DQJ C V 29;1DQJ C F 38;11.9859
1DQJ C V 29;1DQJ C W 123;19.9607
1DQJ C V 29;1DQJ C I 124;8.50596
1DQJ C C 30;1DQJ C A 31;16.2109
1DQJ C C 30;1DQJ C A 32;1.00204
1DQJ C C 30;1DQJ C K 33;9.00125
1DQJ C C 30;1DQJ C F 34;17.2948
1DQJ C C 30;1DQJ C R 114;4.90316
1DQJ C C 30;1DQJ C C 115;21.5636
1DQJ C C 30;1DQJ C T 118;2.29558
1DQJ C C 30;1DQJ C V 120;5.99192
1DQJ C C 30;1DQJ C W 123;27.9799
1DQJ C A 31;1DQJ C A 32;15.5942
1DQJ C A 31;1DQJ C K 33;0.763879
1DQJ C A 31;1DQJ C F 34;6.12481
1DQJ C A 31;1DQJ C E 35;17.588
1DQJ C A 31;1DQJ C L 56;11.6085
1DQJ C A 31;1DQJ C M 105;9.06001
1DQJ C A 31;1DQJ C W 108;7.4511
1DQJ C A 31;1DQJ C A 110;1.36328
1DQJ C A 31;1DQJ C W 111;14.8173
1DQJ C A 31;1DQJ C C 115;6.09125
1DQJ C A 32;1DQJ C K 33;15.8215
1DQJ C A 32;1DQJ C F 34;0.599939
1DQJ C A 32;1DQJ C E 35;5.62798
1DQJ C A 32;1DQJ C S 36;7.44186
1DQJ C A 32;1DQJ C N 37;2.51794
1DQJ C A 32;1DQJ C F 38;10.4204
1DQJ C A 32;1DQJ C I 55;15.6647
1DQJ C A 32;1DQJ C L 56;10.5234
1DQJ C K 33;1DQJ C F 34;47.6182
1DQJ C K 33;1DQJ C E 35;1.28967
1DQJ C K 33;1DQJ C S 36;1.3057
1DQJ C K 33;1DQJ C N 37;35.0599
1DQJ C K 33;1DQJ C F 38;23.1381
1DQJ C K 33;1DQJ C W 123;25.044
1DQJ C F 34;1DQJ C E 35;24.9067
1DQJ C F 34;1DQJ C S 36;1.09747
1DQJ C F 34;1DQJ C N 37;0.449065
1DQJ C F 34;1DQJ C A 110;20.4193
1DQJ C F 34;1DQJ C R 114;42.3809
1DQJ C F 34;1DQJ C C 115;7.22054
1DQJ C F 34;1DQJ C W 123;12.7731
1DQJ C E 35;1DQJ C S 36;25.4087
1DQJ C E 35;1DQJ C A 42;0.484568
1DQJ C E 35;1DQJ C I 55;4.79954
1DQJ C E 35;1DQJ C L 56;12.7878
1DQJ C E 35;1DQJ C Q 57;32.3205
1DQJ C E 35;1DQJ C W 108;21.2114
1DQJ C E 35;1DQJ C V 109;1.91398
1DQJ C E 35;1DQJ C A 110;21.9451
1DQJ C E 35;1DQJ C W 111;0.694458
1DQJ C S 36;1DQJ C N 37;29.3702
1DQJ C S 36;1DQJ C F 38;4.60103
1DQJ C S 36;1DQJ C N 39;21.1228
1DQJ C S 36;1DQJ C A 42;14.061
1DQJ C S 36;1DQJ C G 54;3.5436
1DQJ C S 36;1DQJ C I 55;15.3322
1DQJ C S 36;1DQJ C Q 57;3.90556
1DQJ C N 37;1DQJ C F 38;28.7277
1DQJ C N 37;1DQJ C N 39;5.89636
1DQJ C F 38;1DQJ C N 39;15.3692
1DQJ C F 38;1DQJ C T 40;2.03928
1DQJ C F 38;1DQJ C I 55;14.6652
1DQJ C F 38;1DQJ C W 123;7.46867
1DQJ C N 39;1DQJ C T 40;16.2682
1DQJ C N 39;1DQJ C Q 41;19.6547
1DQJ C N 39;1DQJ C A 42;24.2593
1DQJ C N 39;1DQJ C G 54;2.29513
1DQJ C N 39;1DQJ C I 55;7.4557
1DQJ C T 40;1DQJ C Q 41;21.0379
1DQJ C T 40;1DQJ C A 42;2.2518
1DQJ C T 40;1DQJ C G 54;7.31622
1DQJ C T 40;1DQJ C I 55;19.0254
1DQJ C T 40;1DQJ C L 83;4.04822
1DQJ C T 40;1DQJ C L 84;14.7514
1DQJ C T 40;1DQJ C S 85;12.6481
1DQJ C T 40;1DQJ C S 86;7.96214
1DQJ C T 40;1DQJ C I 88;8.32539
1DQJ C Q 41;1DQJ C A 42;19.831
1DQJ C Q 41;1DQJ C T 43;10.5004
1DQJ C Q 41;1DQJ C L 84;37.7551
1DQJ C Q 41;1DQJ C S 85;1.68091
1DQJ C Q 41;1DQJ C S 86;7.5682
1DQJ C A 42;1DQJ C T 43;24.8105
1DQJ C A 42;1DQJ C D 52;0.412777
1DQJ C A 42;1DQJ C Y 53;2.90573
1DQJ C A 42;1DQJ C G 54;10.9587
1DQJ C A 42;1DQJ C Q 57;14.5038
1DQJ C A 42;1DQJ C L 84;5.50914
1DQJ C T 43;1DQJ C N 44;29.4195
1DQJ C T 43;1DQJ C R 45;0.48419
1DQJ C T 43;1DQJ C T 51;11.7762
1DQJ C T 43;1DQJ C D 52;6.18146
1DQJ C T 43;1DQJ C Y 53;8.98873
1DQJ C T 43;1DQJ C Q 57;5.57271
1DQJ C T 43;1DQJ C L 84;6.89426
1DQJ C N 44;1DQJ C R 45;36.209
1DQJ C N 44;1DQJ C N 46;13.0256
1DQJ C N 44;1DQJ C T 51;12.5595
1DQJ C N 44;1DQJ C D 52;27.4973
1DQJ C N 44;1DQJ C Q 57;12.8417
1DQJ C R 45;1DQJ C N 46;36.6026
1DQJ C R 45;1DQJ C T 47;0.0674154
1DQJ C R 45;1DQJ C S 50;3.60549
1DQJ C R 45;1DQJ C T 51;17.8996
1DQJ C N 46;1DQJ C T 47;30.14
1DQJ C N 46;1DQJ C D 48;23.1878
1DQJ C N 46;1DQJ C S 50;21.8881
1DQJ C N 46;1DQJ C T 51;4.65888
1DQJ C N 46;1DQJ C D 52;14.2166
1DQJ C N 46;1DQJ C N 59;9.3453
1DQJ C T 47;1DQJ C D 48;31.8033
1DQJ C D 48;1DQJ C G 49;29.9148
1DQJ C D 48;1DQJ C S 50;23.5413
1DQJ C D 48;1DQJ C R 61;14.2748
1DQJ C D 48;1DQJ C P 70;2.52881
1DQJ C G 49;1DQJ C S 50;20.8358
1DQJ C G 49;1DQJ C T 51;3.60112
1DQJ C G 49;1DQJ C D 66;0.692818
1DQJ C G 49;1DQJ C R 68;10.2468
1DQJ C G 49;1DQJ C T 69;11.1132
1DQJ C G 49;1DQJ C P 70;22.8492
1DQJ C S 50;1DQJ C T 51;22.8435
1DQJ C S 50;1DQJ C N 59;12.1573
1DQJ C S 50;1DQJ C S 60;5.96147
1DQJ C S 50;1DQJ C R 61;12.4242
1DQJ C S 50;1DQJ C T 69;9.7095
1DQJ C S 50;1DQJ C P 70;0.0654271
1DQJ C T 51;1DQJ C D 52;20.9858
1DQJ C T 51;1DQJ C Y 53;26.9466
1DQJ C T 51;1DQJ C I 58;1.22209
1DQJ C T 51;1DQJ C N 59;4.55628
1DQJ C T 51;1DQJ C S 60;15.1076
1DQJ C T 51;1DQJ C D 66;4.35469
1DQJ C T 51;1DQJ C R 68;10.7637
1DQJ C T 51;1DQJ C T 69;0.0764449
1DQJ C D 52;1DQJ C Y 53;19.6038
1DQJ C D 52;1DQJ C Q 57;30.2811
1DQJ C D 52;1DQJ C I 58;4.58551
1DQJ C D 52;1DQJ C N 59;17.6248
1DQJ C Y 53;1DQJ C G 54;18.8175
1DQJ C Y 53;1DQJ C L 56;1.23647
1DQJ C Y 53;1DQJ C Q 57;11.509
1DQJ C Y 53;1DQJ C I 58;21.3884
1DQJ C Y 53;1DQJ C S 60;5.80673
1DQJ C Y 53;1DQJ C C 64;4.74827
1DQJ C Y 53;1DQJ C D 66;15.6726
1DQJ C Y 53;1DQJ C R 68;14.9248
1DQJ C Y 53;1DQJ C C 80;23.7496
1DQJ C Y 53;1DQJ C S 81;2.77993
1DQJ C Y 53;1DQJ C L 83;16.3911
1DQJ C Y 53;1DQJ C L 84;24.8672
1DQJ C Y 53;1DQJ C S 91;1.19458
1DQJ C G 54;1DQJ C I 55;17.9391
1DQJ C G 54;1DQJ C L 56;3.2831
1DQJ C G 54;1DQJ C Q 57;13.0737
1DQJ C G 54;1DQJ C L 83;10.4719
1DQJ C G 54;1DQJ C L 84;6.46226
1DQJ C G 54;1DQJ C S 91;2.68593
1DQJ C I 55;1DQJ C L 56;31.4283
1DQJ C I 55;1DQJ C Q 57;1.02877
1DQJ C I 55;1DQJ C L 83;0.788314
1DQJ C I 55;1DQJ C I 88;12.3172
1DQJ C I 55;1DQJ C S 91;15.4005
1DQJ C I 55;1DQJ C V 92;0.168489
1DQJ C L 56;1DQJ C Q 57;23.1243
1DQJ C L 56;1DQJ C I 58;16.4096
1DQJ C L 56;1DQJ C S 91;11.3914
1DQJ C L 56;1DQJ C V 92;3.60095
1DQJ C L 56;1DQJ C A 95;12.2614
1DQJ C L 56;1DQJ C M 105;0.150899
1DQJ C L 56;1DQJ C W 108;28.9468
1DQJ C Q 57;1DQJ C I 58;18.4216
1DQJ C Q 57;1DQJ C N 59;3.78227
1DQJ C Q 57;1DQJ C W 108;5.07843
1DQJ C I 58;1DQJ C N 59;22.7511
1DQJ C I 58;1DQJ C S 60;0.47443
1DQJ C I 58;1DQJ C W 63;14.1505
1DQJ C I 58;1DQJ C C 64;6.82514
1DQJ C I 58;1DQJ C L 83;20.4727
1DQJ C I 58;1DQJ C S 91;13.6608
1DQJ C I 58;1DQJ C C 94;15.4878
1DQJ C I 58;1DQJ C A 95;6.38027
1DQJ C I 58;1DQJ C I 98;14.61
1DQJ C I 58;1DQJ C W 108;7.24309
1DQJ C N 59;1DQJ C S 60;16.9063
1DQJ C N 59;1DQJ C R 61;16.0264
1DQJ C N 59;1DQJ C W 62;9.50964
1DQJ C N 59;1DQJ C W 63;23.1635
1DQJ C N 59;1DQJ C C 64;6.68489
1DQJ C S 60;1DQJ C R 61;17.7141
1DQJ C S 60;1DQJ C W 62;1.58523
1DQJ C S 60;1DQJ C W 63;0.842758
1DQJ C S 60;1DQJ C C 64;21.1395
1DQJ C S 60;1DQJ C N 65;0.0433313
1DQJ C S 60;1DQJ C D 66;9.60185
1DQJ C S 60;1DQJ C T 69;16.5578
1DQJ C S 60;1DQJ C S 72;8.01256
1DQJ C S 60;1DQJ C R 73;0.199286
1DQJ C S 60;1DQJ C N 74;0.498005
1DQJ C S 60;1DQJ C C 80;6.59845
1DQJ C R 61;1DQJ C W 62;49.2795
1DQJ C R 61;1DQJ C T 69;10.0841
1DQJ C R 61;1DQJ C P 70;13.7279
1DQJ C R 61;1DQJ C G 71;27.9615
1DQJ C R 61;1DQJ C S 72;5.58148
1DQJ C R 61;1DQJ C R 73;18.2101
1DQJ C R 61;1DQJ C N 74;0.185506
1DQJ C W 62;1DQJ C W 63;35.276
1DQJ C W 62;1DQJ C C 64;0.51192
1DQJ C W 62;1DQJ C R 73;43.4268
1DQJ C W 62;1DQJ C N 74;6.19305
1DQJ C W 62;1DQJ C L 75;23.6678
1DQJ C W 63;1DQJ C C 64;20.9115
1DQJ C W 63;1DQJ C N 74;7.03368
1DQJ C W 63;1DQJ C L 75;25.6773
1DQJ C W 63;1DQJ C C 76;23.2213
1DQJ C W 63;1DQJ C N 77;0.377911
1DQJ C W 63;1DQJ C I 78;1.74993
1DQJ C W 63;1DQJ C C 94;6.17334
1DQJ C W 63;1DQJ C K 97;5.5617
1DQJ C W 63;1DQJ C I 98;37.2859
1DQJ C W 63;1DQJ C A 107;3.69894
1DQJ C C 64;1DQJ C N 65;17.6634
1DQJ C C 64;1DQJ C D 66;0.264166
1DQJ C C 64;1DQJ C S 72;3.00204
1DQJ C C 64;1DQJ C N 74;13.5294
1DQJ C C 64;1DQJ C C 76;2.28959e-05
1DQJ C C 64;1DQJ C I 78;12.6257
1DQJ C C 64;1DQJ C P 79;0.845611
1DQJ C C 64;1DQJ C C 80;21.4621
1DQJ C C 64;1DQJ C L 83;11.9763
1DQJ C C 64;1DQJ C C 94;0.57057
1DQJ C N 65;1DQJ C D 66;23.7975
1DQJ C N 65;1DQJ C G 67;22.8291
1DQJ C N 65;1DQJ C T 69;0.225883
1DQJ C N 65;1DQJ C S 72;16.6432
1DQJ C N 65;1DQJ C N 74;20.7827
1DQJ C N 65;1DQJ C I 78;6.90008
1DQJ C N 65;1DQJ C P 79;13.9762
1DQJ C N 65;1DQJ C C 80;13.2251
1DQJ C D 66;1DQJ C G 67;24.6076
1DQJ C D 66;1DQJ C R 68;35.1167
1DQJ C D 66;1DQJ C T 69;17.8285
1DQJ C D 66;1DQJ C S 72;0.658951
1DQJ C D 66;1DQJ C C 80;13.8249
1DQJ C D 66;1DQJ C S 81;0.39889
1DQJ C G 67;1DQJ C R 68;28.3174
1DQJ C G 67;1DQJ C T 69;1.22879
1DQJ C R 68;1DQJ C T 69;25.1886
1DQJ C R 68;1DQJ C P 70;7.36929
1DQJ C T 69;1DQJ C P 70;33.3404
1DQJ C T 69;1DQJ C G 71;2.47296
1DQJ C T 69;1DQJ C S 72;25.3596
1DQJ C P 70;1DQJ C G 71;26.1572
1DQJ C P 70;1DQJ C S 72;1.28011
1DQJ C G 71;1DQJ C S 72;25.2829
1DQJ C G 71;1DQJ C R 73;7.97583
1DQJ C S 72;1DQJ C R 73;26.2649
1DQJ C S 72;1DQJ C N 74;7.00602
1DQJ C R 73;1DQJ C N 74;28.9214
1DQJ C R 73;1DQJ C L 75;19.0484
1DQJ C R 73;1DQJ C N 77;0.660829
1DQJ C N 74;1DQJ C L 75;14.9308
1DQJ C N 74;1DQJ C C 76;1.69079
1DQJ C N 74;1DQJ C N 77;30.5786
1DQJ C N 74;1DQJ C I 78;12.981
1DQJ C L 75;1DQJ C C 76;16.5241
1DQJ C L 75;1DQJ C N 77;8.09185
1DQJ C L 75;1DQJ C K 97;15.7376
1DQJ C C 76;1DQJ C N 77;25.0907
1DQJ C C 76;1DQJ C I 78;18.6931
1DQJ C C 76;1DQJ C C 94;27.311
1DQJ C C 76;1DQJ C K 97;18.5826
1DQJ C C 76;1DQJ C I 98;1.42872
1DQJ C N 77;1DQJ C I 78;25.6376
1DQJ C N 77;1DQJ C P 79;0.713698
1DQJ C N 77;1DQJ C K 97;8.5597
1DQJ C I 78;1DQJ C P 79;42.5202
1DQJ C I 78;1DQJ C C 80;0.441484
1DQJ C I 78;1DQJ C A 82;12.7028
1DQJ C I 78;1DQJ C L 83;12.4972
1DQJ C I 78;1DQJ C A 90;13.4794
1DQJ C I 78;1DQJ C C 94;5.51304
1DQJ C P 79;1DQJ C C 80;15.9749
1DQJ C P 79;1DQJ C S 81;16.2229
1DQJ C P 79;1DQJ C A 82;17.4533
1DQJ C P 79;1DQJ C L 83;3.33734
1DQJ C C 80;1DQJ C S 81;21.642
1DQJ C C 80;1DQJ C A 82;1.59889
1DQJ C C 80;1DQJ C L 83;14.5884
1DQJ C C 80;1DQJ C L 84;3.92413
1DQJ C S 81;1DQJ C A 82;23.1537
1DQJ C S 81;1DQJ C L 83;2.01541
1DQJ C S 81;1DQJ C L 84;21.9515
1DQJ C S 81;1DQJ C S 85;5.93278
1DQJ C A 82;1DQJ C L 83;20.4922
1DQJ C A 82;1DQJ C L 84;1.7491
1DQJ C A 82;1DQJ C S 85;14.8516
1DQJ C A 82;1DQJ C D 87;3.98538
1DQJ C A 82;1DQJ C A 90;19.5842
1DQJ C A 82;1DQJ C S 91;1.16995
1DQJ C L 83;1DQJ C L 84;18.5645
1DQJ C L 83;1DQJ C S 85;3.95704
1DQJ C L 83;1DQJ C A 90;11.3572
1DQJ C L 83;1DQJ C S 91;25.0405
1DQJ C L 83;1DQJ C C 94;8.27717
1DQJ C L 84;1DQJ C S 85;24.9058
1DQJ C S 85;1DQJ C S 86;23.6515
1DQJ C S 85;1DQJ C D 87;30.4916
1DQJ C S 85;1DQJ C I 88;2.5203
1DQJ C S 86;1DQJ C D 87;23.6759
1DQJ C S 86;1DQJ C I 88;6.14054
1DQJ C D 87;1DQJ C I 88;23.6485
1DQJ C D 87;1DQJ C T 89;29.5695
1DQJ C D 87;1DQJ C A 90;4.39713
1DQJ C D 87;1DQJ C S 91;0.558428
1DQJ C I 88;1DQJ C T 89;17.2378
1DQJ C I 88;1DQJ C A 90;2.08439
1DQJ C I 88;1DQJ C S 91;17.0012
1DQJ C I 88;1DQJ C V 92;23.5697
1DQJ C T 89;1DQJ C A 90;24.8499
1DQJ C T 89;1DQJ C S 91;0.531143
1DQJ C T 89;1DQJ C V 92;7.17195
1DQJ C T 89;1DQJ C N 93;17.9522
1DQJ C A 90;1DQJ C S 91;18.1653
1DQJ C A 90;1DQJ C V 92;1.22886
1DQJ C A 90;1DQJ C N 93;13.3603
1DQJ C A 90;1DQJ C C 94;10.7954
1DQJ C S 91;1DQJ C V 92;19.3302
1DQJ C S 91;1DQJ C N 93;0.393672
1DQJ C S 91;1DQJ C C 94;4.29479
1DQJ C S 91;1DQJ C A 95;9.69218
1DQJ C V 92;1DQJ C N 93;22.748
1DQJ C V 92;1DQJ C C 94;0.988984
1DQJ C V 92;1DQJ C A 95;10.1508
1DQJ C V 92;1DQJ C K 96;20.7679
1DQJ C N 93;1DQJ C C 94;21.0225
1DQJ C N 93;1DQJ C A 95;0.627985
1DQJ C N 93;1DQJ C K 96;14.3772
1DQJ C N 93;1DQJ C K 97;9.93337
1DQJ C C 94;1DQJ C A 95;15.7667
1DQJ C C 94;1DQJ C K 96;1.18394
1DQJ C C 94;1DQJ C K 97;8.46759
1DQJ C C 94;1DQJ C I 98;15.0459
1DQJ C A 95;1DQJ C K 96;16.7149
1DQJ C A 95;1DQJ C K 97;0.876436
1DQJ C A 95;1DQJ C I 98;10.014
1DQJ C A 95;1DQJ C V 99;8.76256
1DQJ C A 95;1DQJ C W 108;14.1994
1DQJ C K 96;1DQJ C K 97;16.5053
1DQJ C K 96;1DQJ C I 98;0.593151
1DQJ C K 96;1DQJ C V 99;9.69186
1DQJ C K 96;1DQJ C S 100;8.42999
1DQJ C K 97;1DQJ C I 98;16.9465
1DQJ C K 97;1DQJ C V 99;0.764872
1DQJ C K 97;1DQJ C S 100;9.18188
1DQJ C K 97;1DQJ C D 101;1.34749
1DQJ C I 98;1DQJ C V 99;18.5154
1DQJ C I 98;1DQJ C S 100;2.01415
1DQJ C I 98;1DQJ C D 101;11.526
1DQJ C I 98;1DQJ C N 103;1.91379
1DQJ C I 98;1DQJ C G 104;5.3827
1DQJ C I 98;1DQJ C A 107;17.4697
1DQJ C I 98;1DQJ C W 108;21.7969
1DQJ C V 99;1DQJ C S 100;19.8699
1DQJ C V 99;1DQJ C D 101;7.86052
1DQJ C V 99;1DQJ C G 104;19.7745
1DQJ C V 99;1DQJ C M 105;10.0007
1DQJ C V 99;1DQJ C W 108;7.31411
1DQJ C S 100;1DQJ C D 101;18.6461
1DQJ C D 101;1DQJ C G 102;19.9779
1DQJ C D 101;1DQJ C N 103;18.4233
1DQJ C D 101;1DQJ C G 104;9.01817
1DQJ C G 102;1DQJ C N 103;22.9664
1DQJ C G 102;1DQJ C G 104;6.2383
1DQJ C N 103;1DQJ C G 104;25.4798
1DQJ C N 103;1DQJ C M 105;0.356984
1DQJ C N 103;1DQJ C N 106;31.0149
1DQJ C N 103;1DQJ C A 107;12.1616
1DQJ C G 104;1DQJ C M 105;14.6765
1DQJ C G 104;1DQJ C N 106;2.72218
1DQJ C G 104;1DQJ C A 107;8.72022
1DQJ C G 104;1DQJ C W 108;1.41045
1DQJ C M 105;1DQJ C N 106;15.5883
1DQJ C M 105;1DQJ C A 107;4.14375
1DQJ C M 105;1DQJ C W 108;30.8656
1DQJ C M 105;1DQJ C W 111;35.379
1DQJ C M 105;1DQJ C R 112;0.140417
1DQJ C N 106;1DQJ C A 107;21.5667
1DQJ C N 106;1DQJ C W 108;4.04566
1DQJ C N 106;1DQJ C V 109;0.291764
1DQJ C N 106;1DQJ C W 111;13.3
1DQJ C N 106;1DQJ C R 112;34.7497
1DQJ C N 106;1DQJ C K 116;20.3435
1DQJ C A 107;1DQJ C W 108;30.0715
1DQJ C A 107;1DQJ C V 109;9.72632
1DQJ C A 107;1DQJ C R 112;0.024625
1DQJ C W 108;1DQJ C V 109;18.3094
1DQJ C W 108;1DQJ C A 110;2.06269
1DQJ C W 108;1DQJ C W 111;18.3301
1DQJ C W 108;1DQJ C R 112;7.73109
1DQJ C V 109;1DQJ C A 110;23.9655
1DQJ C V 109;1DQJ C W 111;1.38963
1DQJ C V 109;1DQJ C R 112;37.9434
1DQJ C V 109;1DQJ C N 113;26.5157
1DQJ C A 110;1DQJ C W 111;20.5376
1DQJ C A 110;1DQJ C R 112;0.378154
1DQJ C A 110;1DQJ C N 113;8.94089
1DQJ C A 110;1DQJ C R 114;14.5937
1DQJ C A 110;1DQJ C C 115;3.33447
1DQJ C W 111;1DQJ C R 112;24.6371
1DQJ C W 111;1DQJ C N 113;0.641143
1DQJ C W 111;1DQJ C R 114;1.09174
1DQJ C W 111;1DQJ C C 115;26.6686
1DQJ C W 111;1DQJ C K 116;37.6515
1DQJ C W 111;1DQJ C G 117;1.04678
1DQJ C W 111;1DQJ C V 120;0.134522
1DQJ C R 112;1DQJ C N 113;36.8
1DQJ C R 112;1DQJ C R 114;0.904826
1DQJ C R 112;1DQJ C C 115;1.97644
1DQJ C R 112;1DQJ C K 116;33.5067
1DQJ C N 113;1DQJ C R 114;42.1016
1DQJ C N 113;1DQJ C C 115;1.04702
1DQJ C N 113;1DQJ C T 118;0.404304
1DQJ C R 114;1DQJ C C 115;23.0697
1DQJ C R 114;1DQJ C T 118;10.056
1DQJ C C 115;1DQJ C K 116;19.6082
1DQJ C C 115;1DQJ C G 117;2.75924
1DQJ C C 115;1DQJ C T 118;18.915
1DQJ C C 115;1DQJ C V 120;12.3383
1DQJ C K 116;1DQJ C G 117;31.024
1DQJ C K 116;1DQJ C T 118;7.23989
1DQJ C G 117;1DQJ C T 118;33.6757
1DQJ C G 117;1DQJ C V 120;1.45452
1DQJ C T 118;1DQJ C D 119;30.5502
1DQJ C T 118;1DQJ C V 120;26.6263
1DQJ C T 118;1DQJ C W 123;2.24556
1DQJ C D 119;1DQJ C V 120;17.0328
1DQJ C D 119;1DQJ C Q 121;15.1335
1DQJ C D 119;1DQJ C A 122;22.341
1DQJ C D 119;1DQJ C W 123;1.72602
1DQJ C D 119;1DQJ C R 125;19.112
1DQJ C V 120;1DQJ C Q 121;23.9896
1DQJ C V 120;1DQJ C A 122;2.5032
1DQJ C V 120;1DQJ C W 123;19.7276
1DQJ C V 120;1DQJ C I 124;0.489239
1DQJ C Q 121;1DQJ C A 122;14.2307
1DQJ C Q 121;1DQJ C W 123;2.29097
1DQJ C Q 121;1DQJ C I 124;25.6454
1DQJ C Q 121;1DQJ C R 125;35.4785
1DQJ C A 122;1DQJ C W 123;25.3138
1DQJ C A 122;1DQJ C I 124;0.979713
1DQJ C A 122;1DQJ C R 125;32.0156
1DQJ C W 123;1DQJ C I 124;21.1549
1DQJ C W 123;1DQJ C R 125;0.771066
1DQJ C W 123;1DQJ C C 127;2.62409
1DQJ C I 124;1DQJ C R 125;23.5197
1DQJ C I 124;1DQJ C G 126;1.59376
1DQJ C I 124;1DQJ C C 127;19.7514
1DQJ C I 124;1DQJ C L 129;20.1405
1DQJ C R 125;1DQJ C G 126;30.1704
1DQJ C R 125;1DQJ C C 127;3.71439
1DQJ C G 126;1DQJ C C 127;24.8044
1DQJ C G 126;1DQJ C R 128;15.1003
1DQJ C C 127;1DQJ C R 128;28.0219
1DQJ C C 127;1DQJ C L 129;25.7429
1DQJ C R 128;1DQJ C L 129;29.7204
