V1;V2;Weight
1EFN B R 71;1EFN B P 72;31.7163
1EFN B R 71;1EFN B Q 73;0.0525426
1EFN B R 71;1EFN B H 116;27.2302
1EFN B R 71;1EFN B T 117;18.3191
1EFN B R 71;1EFN B Q 118;0.166932
1EFN B P 72;1EFN B Q 73;27.6055
1EFN B P 72;1EFN B V 74;3.20955
1EFN B P 72;1EFN B H 116;7.07769
1EFN B Q 73;1EFN B V 74;32.9084
1EFN B Q 73;1EFN B P 75;1.38432
1EFN B Q 73;1EFN B L 76;5.45673
1EFN B Q 73;1EFN B Y 115;30.8785
1EFN B Q 73;1EFN B H 116;29.5069
1EFN B Q 73;1EFN B G 119;3.88517
1EFN B V 74;1EFN B P 75;30.6769
1EFN B V 74;1EFN B L 76;1.71806
1EFN B V 74;1EFN B Y 115;0.584779
1EFN B V 74;1EFN B H 116;11.0869
1EFN B V 74;1EFN B T 117;11.0956
1EFN B V 74;1EFN B Q 118;6.59213
1EFN B V 74;1EFN B G 119;8.07551
1EFN B P 75;1EFN B L 76;28.27
1EFN B P 75;1EFN B R 77;1.70812
1EFN B P 75;1EFN B Q 118;0.121729
1EFN B P 75;1EFN B G 119;5.47492
1EFN B L 76;1EFN B R 77;29.2894
1EFN B L 76;1EFN B P 78;12.2175
1EFN B L 76;1EFN B Y 115;12.1023
1EFN B L 76;1EFN B G 119;11.0104
1EFN B L 76;1EFN B F 121;20.734
1EFN B R 77;1EFN B P 78;35.0545
1EFN B R 77;1EFN B M 79;1.06334
1EFN B R 77;1EFN B Q 118;20.8462
1EFN B R 77;1EFN B G 119;13.1955
1EFN B R 77;1EFN B Y 120;38.4733
1EFN B R 77;1EFN B F 121;2.15323
1EFN B P 78;1EFN B M 79;28.702
1EFN B P 78;1EFN B T 80;17.2749
1EFN B P 78;1EFN B A 83;2.20921
1EFN B P 78;1EFN B Y 120;9.03653
1EFN B M 79;1EFN B T 80;36.1222
1EFN B M 79;1EFN B A 83;9.37403
1EFN B M 79;1EFN B A 84;11.95
1EFN B M 79;1EFN B L 87;10.1736
1EFN B M 79;1EFN B Y 120;23.6664
1EFN B M 79;1EFN B F 121;0.0358889
1EFN B M 79;1EFN B W 124;30.2891
1EFN B M 79;1EFN B T 138;14.7259
1EFN B T 80;1EFN B Y 81;26.509
1EFN B T 80;1EFN B K 82;12.7763
1EFN B T 80;1EFN B A 83;21.0634
1EFN B T 80;1EFN B A 84;7.04838
1EFN B T 80;1EFN B T 138;1.62877
1EFN B Y 81;1EFN B K 82;28.7913
1EFN B Y 81;1EFN B A 83;0.581395
1EFN B Y 81;1EFN B A 84;6.9248
1EFN B Y 81;1EFN B V 85;26.2823
1EFN B Y 81;1EFN B T 138;0.239547
1EFN B Y 81;1EFN B F 139;36.2222
1EFN B Y 81;1EFN B G 140;10.6633
1EFN B Y 81;1EFN B A 190;22.1479
1EFN B Y 81;1EFN B F 191;8.15533
1EFN B K 82;1EFN B A 83;19.6481
1EFN B K 82;1EFN B A 84;0.752817
1EFN B K 82;1EFN B V 85;10.9999
1EFN B K 82;1EFN B D 86;31.4478
1EFN B A 83;1EFN B A 84;15.1923
1EFN B A 83;1EFN B V 85;0.512761
1EFN B A 83;1EFN B D 86;10.5508
1EFN B A 83;1EFN B L 87;12.2167
1EFN B A 83;1EFN B Y 120;20.2506
1EFN B A 84;1EFN B V 85;14.948
1EFN B A 84;1EFN B D 86;0.959114
1EFN B A 84;1EFN B L 87;10.6707
1EFN B A 84;1EFN B S 88;8.70081
1EFN B A 84;1EFN B W 124;3.22135
1EFN B A 84;1EFN B T 138;9.7183
1EFN B A 84;1EFN B F 139;3.52767
1EFN B A 84;1EFN B G 140;8.08457
1EFN B A 84;1EFN B W 141;16.5366
1EFN B V 85;1EFN B D 86;25.1427
1EFN B V 85;1EFN B L 87;0.650046
1EFN B V 85;1EFN B S 88;9.45368
1EFN B V 85;1EFN B H 89;28.4424
1EFN B V 85;1EFN B G 140;14.7875
1EFN B V 85;1EFN B C 142;5.61756
1EFN B V 85;1EFN B A 190;12.4574
1EFN B D 86;1EFN B L 87;15.4074
1EFN B D 86;1EFN B S 88;1.14923
1EFN B D 86;1EFN B H 89;10.6689
1EFN B D 86;1EFN B F 90;10.0502
1EFN B L 87;1EFN B S 88;16.7498
1EFN B L 87;1EFN B H 89;0.603227
1EFN B L 87;1EFN B F 90;16.9585
1EFN B L 87;1EFN B L 91;20.431
1EFN B L 87;1EFN B W 113;0.850623
1EFN B L 87;1EFN B I 114;21.3378
1EFN B L 87;1EFN B Q 118;5.83836
1EFN B L 87;1EFN B Y 120;11.9155
1EFN B L 87;1EFN B W 124;12.9475
1EFN B L 87;1EFN B W 141;9.52278
1EFN B S 88;1EFN B H 89;19.4077
1EFN B S 88;1EFN B F 90;1.08018
1EFN B S 88;1EFN B L 91;5.28956
1EFN B S 88;1EFN B K 92;8.94872
1EFN B S 88;1EFN B G 140;2.44835
1EFN B S 88;1EFN B W 141;14.2034
1EFN B S 88;1EFN B C 142;16.2869
1EFN B S 88;1EFN B Y 143;12.8076
1EFN B S 88;1EFN B F 185;11.2985
1EFN B H 89;1EFN B F 90;16.5021
1EFN B H 89;1EFN B L 91;0.33968
1EFN B H 89;1EFN B K 92;18.1643
1EFN B H 89;1EFN B E 93;23.2211
1EFN B H 89;1EFN B C 142;5.73055
1EFN B H 89;1EFN B F 185;17.0367
1EFN B H 89;1EFN B S 187;2.47193
1EFN B H 89;1EFN B A 190;0.246236
1EFN B F 90;1EFN B L 91;29.7563
1EFN B F 90;1EFN B K 92;1.44992
1EFN B F 90;1EFN B E 93;28.6654
1EFN B F 90;1EFN B K 94;18.2078
1EFN B F 90;1EFN B W 113;21.0093
1EFN B F 90;1EFN B T 117;0.501603
1EFN B F 90;1EFN B Q 118;6.89184
1EFN B L 91;1EFN B K 92;17.6834
1EFN B L 91;1EFN B E 93;0.488531
1EFN B L 91;1EFN B K 94;20.9366
1EFN B L 91;1EFN B G 95;4.26869
1EFN B L 91;1EFN B G 96;2.68345
1EFN B L 91;1EFN B L 97;22.0364
1EFN B L 91;1EFN B L 110;16.2454
1EFN B L 91;1EFN B W 113;12.4873
1EFN B L 91;1EFN B I 114;10.3419
1EFN B L 91;1EFN B W 124;0.390733
1EFN B L 91;1EFN B W 141;13.9539
1EFN B L 91;1EFN B Y 143;10.2792
1EFN B K 92;1EFN B E 93;24.2057
1EFN B K 92;1EFN B K 94;0.829596
1EFN B K 92;1EFN B G 95;14.0534
1EFN B K 92;1EFN B E 98;11.9702
1EFN B K 92;1EFN B Y 143;12.9505
1EFN B K 92;1EFN B F 185;35.3529
1EFN B E 93;1EFN B K 94;21.6696
1EFN B E 93;1EFN B G 95;9.24925
1EFN B K 94;1EFN B G 95;24.5031
1EFN B K 94;1EFN B G 96;4.67807
1EFN B K 94;1EFN B L 97;0.0408425
1EFN B G 95;1EFN B G 96;30.7715
1EFN B G 95;1EFN B E 98;0.739948
1EFN B G 96;1EFN B L 97;24.8948
1EFN B G 96;1EFN B E 98;14.3539
1EFN B G 96;1EFN B L 100;17.4295
1EFN B L 97;1EFN B E 98;19.8688
1EFN B L 97;1EFN B G 99;1.38695
1EFN B L 97;1EFN B L 100;23.1106
1EFN B L 97;1EFN B L 110;20.8178
1EFN B L 97;1EFN B W 141;7.35058
1EFN B L 97;1EFN B Y 143;22.6696
1EFN B L 97;1EFN B W 183;36.2864
1EFN B E 98;1EFN B G 99;22.5964
1EFN B E 98;1EFN B L 100;8.00794
1EFN B E 98;1EFN B Y 143;13.669
1EFN B E 98;1EFN B W 183;5.62784
1EFN B E 98;1EFN B R 184;15.8242
1EFN B E 98;1EFN B F 185;18.1993
1EFN B G 99;1EFN B L 100;19.1736
1EFN B G 99;1EFN B I 101;6.72053
1EFN B G 99;1EFN B E 182;21.5046
1EFN B G 99;1EFN B W 183;8.32819
1EFN B G 99;1EFN B R 184;15.9685
1EFN B L 100;1EFN B I 101;23.2305
1EFN B L 100;1EFN B H 102;2.11465
1EFN B L 100;1EFN B R 106;28.461
1EFN B L 100;1EFN B E 182;5.52736
1EFN B L 100;1EFN B W 183;26.3666
1EFN B I 101;1EFN B H 102;28.7831
1EFN B I 101;1EFN B S 103;0.639136
1EFN B I 101;1EFN B R 106;26.2219
1EFN B I 101;1EFN B V 148;7.87232
1EFN B I 101;1EFN B V 180;22.7435
1EFN B I 101;1EFN B L 181;8.99918
1EFN B I 101;1EFN B E 182;15.0318
1EFN B I 101;1EFN B W 183;3.56674
1EFN B H 102;1EFN B S 103;36.7337
1EFN B H 102;1EFN B Q 104;15.8327
1EFN B H 102;1EFN B R 106;0.155965
1EFN B H 102;1EFN B Q 107;16.8661
1EFN B H 102;1EFN B Y 127;2.72367
1EFN B H 102;1EFN B L 145;27.1284
1EFN B H 102;1EFN B L 181;26.8196
1EFN B H 102;1EFN B E 182;5.34119
1EFN B H 102;1EFN B W 183;21.8618
1EFN B S 103;1EFN B Q 104;22.5272
1EFN B S 103;1EFN B R 105;14.8772
1EFN B S 103;1EFN B R 106;30.0549
1EFN B S 103;1EFN B Q 107;6.95916
1EFN B S 103;1EFN B W 183;1.74954
1EFN B Q 104;1EFN B R 105;21.8365
1EFN B Q 104;1EFN B R 106;0.272589
1EFN B Q 104;1EFN B Q 107;24.1365
1EFN B Q 104;1EFN B D 108;34.0763
1EFN B R 105;1EFN B R 106;18.8094
1EFN B R 105;1EFN B Q 107;1.22978
1EFN B R 105;1EFN B D 108;11.3538
1EFN B R 105;1EFN B I 109;26.9668
1EFN B R 106;1EFN B Q 107;14.7366
1EFN B R 106;1EFN B D 108;0.276879
1EFN B R 106;1EFN B I 109;18.7017
1EFN B R 106;1EFN B L 110;10.5721
1EFN B R 106;1EFN B W 183;14.515
1EFN B Q 107;1EFN B D 108;19.8082
1EFN B Q 107;1EFN B I 109;1.42875
1EFN B Q 107;1EFN B L 110;12.011
1EFN B Q 107;1EFN B D 111;21.8107
1EFN B Q 107;1EFN B Q 125;27.0706
1EFN B Q 107;1EFN B N 126;0.774248
1EFN B Q 107;1EFN B Y 127;11.4818
1EFN B Q 107;1EFN B W 183;14.3793
1EFN B D 108;1EFN B I 109;16.059
1EFN B D 108;1EFN B L 110;0.488236
1EFN B D 108;1EFN B D 111;13.6675
1EFN B D 108;1EFN B L 112;16.7349
1EFN B I 109;1EFN B L 110;20.6271
1EFN B I 109;1EFN B D 111;0.886559
1EFN B I 109;1EFN B L 112;12.7336
1EFN B I 109;1EFN B W 113;13.9624
1EFN B L 110;1EFN B D 111;18.4356
1EFN B L 110;1EFN B L 112;0.889768
1EFN B L 110;1EFN B W 113;19.1286
1EFN B L 110;1EFN B I 114;21.2184
1EFN B L 110;1EFN B W 124;0.0413623
1EFN B L 110;1EFN B Q 125;10.7367
1EFN B L 110;1EFN B W 141;3.72886
1EFN B L 110;1EFN B W 183;10.8857
1EFN B D 111;1EFN B L 112;17.1693
1EFN B D 111;1EFN B W 113;0.847746
1EFN B D 111;1EFN B I 114;13.8818
1EFN B D 111;1EFN B Y 115;8.77638
1EFN B D 111;1EFN B Y 120;1.45302
1EFN B D 111;1EFN B P 122;24.6472
1EFN B D 111;1EFN B D 123;0.479143
1EFN B D 111;1EFN B W 124;13.9651
1EFN B D 111;1EFN B Q 125;19.4237
1EFN B L 112;1EFN B W 113;20.7088
1EFN B L 112;1EFN B I 114;0.711926
1EFN B L 112;1EFN B Y 115;17.46
1EFN B L 112;1EFN B H 116;11.7323
1EFN B L 112;1EFN B P 122;12.326
1EFN B W 113;1EFN B I 114;30.3398
1EFN B W 113;1EFN B Y 115;1.12984
1EFN B W 113;1EFN B H 116;9.68974
1EFN B W 113;1EFN B T 117;42.0806
1EFN B W 113;1EFN B Q 118;1.70454
1EFN B I 114;1EFN B Y 115;17.4513
1EFN B I 114;1EFN B H 116;0.505595
1EFN B I 114;1EFN B T 117;6.23682
1EFN B I 114;1EFN B Q 118;16.6512
1EFN B I 114;1EFN B G 119;3.55692
1EFN B I 114;1EFN B Y 120;16.6315
1EFN B I 114;1EFN B W 124;18.9815
1EFN B I 114;1EFN B Q 125;0.697541
1EFN B I 114;1EFN B W 141;0.139164
1EFN B Y 115;1EFN B H 116;21.7469
1EFN B Y 115;1EFN B T 117;0.721411
1EFN B Y 115;1EFN B Q 118;0.276902
1EFN B Y 115;1EFN B G 119;15.0657
1EFN B Y 115;1EFN B Y 120;14.1811
1EFN B Y 115;1EFN B F 121;21.4923
1EFN B Y 115;1EFN B P 122;16.9674
1EFN B H 116;1EFN B T 117;30.616
1EFN B H 116;1EFN B Q 118;0.514144
1EFN B H 116;1EFN B G 119;0.311141
1EFN B T 117;1EFN B Q 118;39.6845
1EFN B T 117;1EFN B G 119;0.0435507
1EFN B Q 118;1EFN B G 119;16.1214
1EFN B Q 118;1EFN B Y 120;14.1893
1EFN B G 119;1EFN B Y 120;17.8481
1EFN B G 119;1EFN B F 121;3.56109
1EFN B Y 120;1EFN B F 121;21.7
1EFN B Y 120;1EFN B P 122;4.80407
1EFN B Y 120;1EFN B W 124;10.9073
1EFN B F 121;1EFN B P 122;27.0948
1EFN B F 121;1EFN B D 123;25.58
1EFN B F 121;1EFN B W 124;8.44137
1EFN B P 122;1EFN B D 123;24.0915
1EFN B P 122;1EFN B W 124;6.74746
1EFN B D 123;1EFN B W 124;34.4719
1EFN B D 123;1EFN B Q 125;0.595808
1EFN B D 123;1EFN B N 126;20.9793
1EFN B W 124;1EFN B Q 125;45.7408
1EFN B W 124;1EFN B N 126;14.8927
1EFN B W 124;1EFN B L 137;2.31491
1EFN B W 124;1EFN B T 138;31.4751
1EFN B W 124;1EFN B W 141;28.0921
1EFN B Q 125;1EFN B N 126;26.5192
1EFN B Q 125;1EFN B Y 127;22.8092
1EFN B Q 125;1EFN B P 136;0.205657
1EFN B Q 125;1EFN B T 138;0.785476
1EFN B Q 125;1EFN B W 141;18.1762
1EFN B Q 125;1EFN B W 183;9.3569
1EFN B N 126;1EFN B Y 127;28.4889
1EFN B N 126;1EFN B P 136;4.38159
1EFN B N 126;1EFN B L 137;32.5802
1EFN B N 126;1EFN B T 138;0.0846967
1EFN B Y 127;1EFN B T 128;27.1251
1EFN B Y 127;1EFN B P 129;1.24755
1EFN B Y 127;1EFN B R 134;15.7643
1EFN B Y 127;1EFN B Y 135;6.9551
1EFN B Y 127;1EFN B P 136;12.4565
1EFN B Y 127;1EFN B L 137;8.6124
1EFN B Y 127;1EFN B W 141;12.7976
1EFN B Y 127;1EFN B Y 143;8.19112
1EFN B Y 127;1EFN B K 144;5.16387
1EFN B Y 127;1EFN B L 145;26.463
1EFN B Y 127;1EFN B W 183;8.62547
1EFN B Y 127;1EFN B Y 202;2.90474
1EFN B T 128;1EFN B P 129;33.6739
1EFN B T 128;1EFN B V 133;2.9289
1EFN B T 128;1EFN B R 134;16.5315
1EFN B T 128;1EFN B Y 135;25.169
1EFN B T 128;1EFN B L 137;11.3669
1EFN B T 128;1EFN B A 195;12.4973
1EFN B T 128;1EFN B L 198;0.713093
1EFN B T 128;1EFN B H 199;20.1497
1EFN B T 128;1EFN B Y 202;5.36636
1EFN B P 129;1EFN B G 130;37.8743
1EFN B P 129;1EFN B P 131;1.65332
1EFN B P 129;1EFN B V 133;4.61051
1EFN B P 129;1EFN B R 134;7.80671
1EFN B P 129;1EFN B H 199;23.1025
1EFN B P 129;1EFN B E 201;2.20827
1EFN B P 129;1EFN B Y 202;24.4041
1EFN B G 130;1EFN B P 131;34.8996
1EFN B G 130;1EFN B V 133;0.00496692
1EFN B G 130;1EFN B R 134;20.0442
1EFN B P 131;1EFN B G 132;24.7933
1EFN B P 131;1EFN B V 133;3.71199
1EFN B P 131;1EFN B R 134;6.8749
1EFN B P 131;1EFN B E 179;16.4987
1EFN B G 132;1EFN B V 133;23.7131
1EFN B G 132;1EFN B R 134;10.0651
1EFN B G 132;1EFN B L 145;0.641923
1EFN B G 132;1EFN B P 147;15.7426
1EFN B G 132;1EFN B E 179;14.0995
1EFN B G 132;1EFN B L 181;2.89913
1EFN B V 133;1EFN B R 134;22.7239
1EFN B V 133;1EFN B Y 135;35.7678
1EFN B V 133;1EFN B K 144;16.1302
1EFN B V 133;1EFN B L 145;7.97951
1EFN B V 133;1EFN B V 146;17.551
1EFN B V 133;1EFN B P 147;9.15088
1EFN B R 134;1EFN B Y 135;16.9828
1EFN B R 134;1EFN B P 136;0.621556
1EFN B R 134;1EFN B K 144;6.19963
1EFN B R 134;1EFN B L 145;26.409
1EFN B R 134;1EFN B E 179;16.6761
1EFN B R 134;1EFN B L 181;26.2077
1EFN B Y 135;1EFN B P 136;24.4832
1EFN B Y 135;1EFN B L 137;3.05818
1EFN B Y 135;1EFN B K 144;18.2552
1EFN B Y 135;1EFN B D 186;2.12789
1EFN B Y 135;1EFN B L 189;11.4478
1EFN B Y 135;1EFN B V 194;24.731
1EFN B Y 135;1EFN B A 195;13.4966
1EFN B Y 135;1EFN B L 198;18.5668
1EFN B Y 135;1EFN B H 199;0.00911415
1EFN B P 136;1EFN B L 137;17.6723
1EFN B P 136;1EFN B T 138;12.047
1EFN B P 136;1EFN B F 139;0.0785111
1EFN B P 136;1EFN B W 141;23.3637
1EFN B P 136;1EFN B Y 143;9.27239
1EFN B P 136;1EFN B K 144;5.6768
1EFN B P 136;1EFN B L 189;17.7737
1EFN B P 136;1EFN B H 193;5.98929
1EFN B P 136;1EFN B V 194;0.00164683
1EFN B P 136;1EFN B A 195;9.86614
1EFN B L 137;1EFN B T 138;27.1975
1EFN B L 137;1EFN B F 139;2.33077
1EFN B L 137;1EFN B H 193;10.5526
1EFN B L 137;1EFN B A 195;10.9569
1EFN B L 137;1EFN B H 199;0.30621
1EFN B L 137;1EFN B Y 202;29.6444
1EFN B L 137;1EFN B F 203;24.8018
1EFN B T 138;1EFN B F 139;30.4775
1EFN B T 138;1EFN B G 140;1.80629
1EFN B T 138;1EFN B W 141;18.6871
1EFN B T 138;1EFN B H 193;0.581305
1EFN B F 139;1EFN B G 140;19.6919
1EFN B F 139;1EFN B W 141;0.72222
1EFN B F 139;1EFN B L 189;10.4001
1EFN B F 139;1EFN B A 190;10.6435
1EFN B F 139;1EFN B F 191;11.0816
1EFN B F 139;1EFN B H 192;6.62395
1EFN B F 139;1EFN B H 193;44.6859
1EFN B G 140;1EFN B W 141;18.8273
1EFN B G 140;1EFN B C 142;8.95984
1EFN B G 140;1EFN B L 189;5.08923
1EFN B G 140;1EFN B A 190;7.21416
1EFN B W 141;1EFN B C 142;16.1984
1EFN B W 141;1EFN B Y 143;32.5555
1EFN B W 141;1EFN B W 183;2.89658
1EFN B W 141;1EFN B L 189;8.33451
1EFN B C 142;1EFN B Y 143;21.3093
1EFN B C 142;1EFN B R 184;0.00306138
1EFN B C 142;1EFN B F 185;21.1374
1EFN B C 142;1EFN B D 186;12.1298
1EFN B C 142;1EFN B S 187;10.4618
1EFN B C 142;1EFN B L 189;11.0526
1EFN B C 142;1EFN B A 190;14.2831
1EFN B Y 143;1EFN B K 144;18.4634
1EFN B Y 143;1EFN B W 183;17.7587
1EFN B Y 143;1EFN B R 184;10.4405
1EFN B Y 143;1EFN B F 185;22.5048
1EFN B Y 143;1EFN B D 186;0.598359
1EFN B Y 143;1EFN B L 189;6.61556
1EFN B K 144;1EFN B L 145;20.9237
1EFN B K 144;1EFN B V 146;16.3465
1EFN B K 144;1EFN B E 182;2.01546
1EFN B K 144;1EFN B W 183;3.94471
1EFN B K 144;1EFN B R 184;28.7128
1EFN B K 144;1EFN B F 185;1.00926
1EFN B K 144;1EFN B D 186;27.0018
1EFN B K 144;1EFN B R 188;2.64377
1EFN B K 144;1EFN B L 189;10.6462
1EFN B L 145;1EFN B V 146;16.235
1EFN B L 145;1EFN B P 147;1.7303
1EFN B L 145;1EFN B L 181;21.6774
1EFN B L 145;1EFN B E 182;9.4328
1EFN B L 145;1EFN B W 183;15.3894
1EFN B V 146;1EFN B P 147;34.8717
1EFN B V 146;1EFN B V 148;3.12555
1EFN B V 146;1EFN B L 181;7.26234
1EFN B V 146;1EFN B E 182;20.677
1EFN B V 146;1EFN B R 184;29.6752
1EFN B P 147;1EFN B V 148;33.9727
1EFN B P 147;1EFN B E 179;20.7073
1EFN B P 147;1EFN B V 180;4.35924
1EFN B P 147;1EFN B L 181;12.8211
1EFN B P 147;1EFN B E 182;0.705298
1EFN B P 147;1EFN B R 184;0.142864
1EFN B V 148;1EFN B E 179;0.663211
1EFN B V 148;1EFN B V 180;27.898
1EFN B V 148;1EFN B L 181;2.78436
1EFN B V 148;1EFN B E 182;19.8309
1EFN B R 178;1EFN B E 179;37.8803
1EFN B R 178;1EFN B V 180;13.1176
1EFN B E 179;1EFN B V 180;27.1646
1EFN B E 179;1EFN B L 181;19.9127
1EFN B V 180;1EFN B L 181;26.3852
1EFN B L 181;1EFN B E 182;19.3747
1EFN B E 182;1EFN B W 183;17.6995
1EFN B E 182;1EFN B R 184;31.8609
1EFN B W 183;1EFN B R 184;19.6876
1EFN B R 184;1EFN B F 185;21.4331
1EFN B R 184;1EFN B D 186;3.64556
1EFN B R 184;1EFN B L 189;0.0410589
1EFN B F 185;1EFN B D 186;22.9583
1EFN B F 185;1EFN B S 187;24.0779
1EFN B D 186;1EFN B S 187;20.8584
1EFN B D 186;1EFN B R 188;37.9938
1EFN B D 186;1EFN B L 189;27.9907
1EFN B S 187;1EFN B R 188;20.0714
1EFN B S 187;1EFN B L 189;2.48859
1EFN B S 187;1EFN B A 190;8.74031
1EFN B S 187;1EFN B F 191;15.0057
1EFN B R 188;1EFN B L 189;20.0461
1EFN B R 188;1EFN B A 190;2.38307
1EFN B R 188;1EFN B F 191;18.8973
1EFN B R 188;1EFN B H 192;26.1144
1EFN B R 188;1EFN B V 194;1.7135
1EFN B L 189;1EFN B A 190;16.576
1EFN B L 189;1EFN B F 191;1.44177
1EFN B L 189;1EFN B H 192;15.9686
1EFN B L 189;1EFN B H 193;0.132944
1EFN B L 189;1EFN B V 194;16.8652
1EFN B L 189;1EFN B A 195;0.0593305
1EFN B A 190;1EFN B F 191;32.9778
1EFN B F 191;1EFN B H 192;37.502
1EFN B H 192;1EFN B H 193;20.0971
1EFN B H 192;1EFN B V 194;20.8055
1EFN B H 192;1EFN B E 197;16.2487
1EFN B H 193;1EFN B V 194;16.2845
1EFN B H 193;1EFN B A 195;8.05588
1EFN B H 193;1EFN B R 196;35.3098
1EFN B H 193;1EFN B E 197;16.9841
1EFN B H 193;1EFN B F 203;13.3752
1EFN B V 194;1EFN B A 195;20.8056
1EFN B V 194;1EFN B R 196;1.31816
1EFN B V 194;1EFN B E 197;23.3322
1EFN B V 194;1EFN B L 198;23.1866
1EFN B A 195;1EFN B R 196;16.0021
1EFN B A 195;1EFN B E 197;0.664525
1EFN B A 195;1EFN B L 198;5.36172
1EFN B A 195;1EFN B H 199;13.2762
1EFN B A 195;1EFN B F 203;8.38616
1EFN B R 196;1EFN B E 197;24.1795
1EFN B R 196;1EFN B L 198;0.426204
1EFN B R 196;1EFN B H 199;2.95756
1EFN B R 196;1EFN B P 200;18.7539
1EFN B R 196;1EFN B F 203;34.8282
1EFN B E 197;1EFN B L 198;31.3684
1EFN B E 197;1EFN B H 199;0.864469
1EFN B E 197;1EFN B P 200;10.0228
1EFN B L 198;1EFN B H 199;40.1697
1EFN B L 198;1EFN B P 200;6.80184
1EFN B L 198;1EFN B E 201;0.833392
1EFN B H 199;1EFN B P 200;18.2436
1EFN B H 199;1EFN B E 201;25.7156
1EFN B H 199;1EFN B Y 202;16.8398
1EFN B H 199;1EFN B F 203;7.01876
1EFN B P 200;1EFN B E 201;28.6949
1EFN B P 200;1EFN B Y 202;1.88145
1EFN B P 200;1EFN B F 203;24.1028
1EFN B E 201;1EFN B Y 202;44.845
1EFN B E 201;1EFN B F 203;8.41087
1EFN B Y 202;1EFN B F 203;38.1421
