V1;V2;Weight
1EFN A A 85;1EFN A L 86;34.0721
1EFN A A 85;1EFN A F 87;13.5776
1EFN A A 85;1EFN A F 109;0.583832
1EFN A A 85;1EFN A Q 110;10.9335
1EFN A A 85;1EFN A I 111;10.7529
1EFN A A 85;1EFN A V 141;0.194412
1EFN A L 86;1EFN A F 87;24.2073
1EFN A L 86;1EFN A K 108;5.69746
1EFN A L 86;1EFN A F 109;10.499
1EFN A L 86;1EFN A Q 110;1.54803
1EFN A L 86;1EFN A P 140;5.36802
1EFN A L 86;1EFN A V 141;32.388
1EFN A F 87;1EFN A V 88;18.1827
1EFN A F 87;1EFN A K 108;6.85548
1EFN A F 87;1EFN A F 109;23.1853
1EFN A F 87;1EFN A I 111;23.7225
1EFN A F 87;1EFN A W 120;24.5195
1EFN A F 87;1EFN A V 138;18.3756
1EFN A F 87;1EFN A A 139;10.3019
1EFN A F 87;1EFN A P 140;28.681
1EFN A F 87;1EFN A V 141;8.44309
1EFN A V 88;1EFN A A 89;22.2402
1EFN A V 88;1EFN A L 90;11.5846
1EFN A V 88;1EFN A G 106;19.6265
1EFN A V 88;1EFN A E 107;5.99601
1EFN A V 88;1EFN A K 108;8.2153
1EFN A V 88;1EFN A F 109;2.60447
1EFN A V 88;1EFN A V 138;9.01895
1EFN A V 88;1EFN A A 139;18.3042
1EFN A V 88;1EFN A P 140;6.73719
1EFN A V 88;1EFN A V 141;19.8078
1EFN A A 89;1EFN A L 90;20.9661
1EFN A A 89;1EFN A Y 91;6.78758
1EFN A A 89;1EFN A F 103;9.29591
1EFN A A 89;1EFN A H 104;5.30107
1EFN A A 89;1EFN A K 105;8.27658
1EFN A A 89;1EFN A G 106;12.8041
1EFN A A 89;1EFN A E 107;11.3108
1EFN A A 89;1EFN A F 109;7.12889
1EFN A A 89;1EFN A Y 137;2.7459
1EFN A A 89;1EFN A V 138;8.87367
1EFN A L 90;1EFN A Y 91;51.8872
1EFN A L 90;1EFN A K 105;22.1934
1EFN A L 90;1EFN A N 136;7.12596
1EFN A L 90;1EFN A Y 137;12.1703
1EFN A L 90;1EFN A V 138;7.6433
1EFN A L 90;1EFN A A 139;25.1333
1EFN A Y 91;1EFN A D 92;25.8639
1EFN A Y 91;1EFN A F 103;7.21496
1EFN A Y 91;1EFN A H 104;1.29564
1EFN A Y 91;1EFN A K 105;12.4012
1EFN A Y 91;1EFN A N 136;5.87669
1EFN A Y 91;1EFN A Y 137;27.3066
1EFN A D 92;1EFN A Y 93;22.9423
1EFN A D 92;1EFN A F 103;11.5324
1EFN A D 92;1EFN A H 104;23.2695
1EFN A D 92;1EFN A K 105;15.7223
1EFN A D 92;1EFN A Y 137;10.6252
1EFN A Y 93;1EFN A E 94;37.1138
1EFN A Y 93;1EFN A A 95;14.2198
1EFN A Y 93;1EFN A I 96;0.503406
1EFN A Y 93;1EFN A D 100;7.58912
1EFN A Y 93;1EFN A L 101;9.47951
1EFN A Y 93;1EFN A S 102;10.4075
1EFN A Y 93;1EFN A F 103;33.5476
1EFN A Y 93;1EFN A W 119;15.5921
1EFN A Y 93;1EFN A Y 132;2.1107
1EFN A Y 93;1EFN A I 133;1.81373
1EFN A Y 93;1EFN A P 134;15.4454
1EFN A Y 93;1EFN A Y 137;11.4009
1EFN A E 94;1EFN A A 95;28.3158
1EFN A E 94;1EFN A I 96;0.494411
1EFN A E 94;1EFN A S 102;11.1911
1EFN A A 95;1EFN A I 96;21.4691
1EFN A A 95;1EFN A T 97;14.8416
1EFN A A 95;1EFN A D 100;13.2923
1EFN A A 95;1EFN A L 101;3.6121
1EFN A A 95;1EFN A S 102;21.0563
1EFN A I 96;1EFN A T 97;35.1411
1EFN A I 96;1EFN A D 100;3.97433
1EFN A T 97;1EFN A E 98;29.2423
1EFN A T 97;1EFN A D 99;18.8603
1EFN A T 97;1EFN A D 100;27.677
1EFN A E 98;1EFN A D 99;25.7262
1EFN A E 98;1EFN A D 100;11.8702
1EFN A E 98;1EFN A L 101;0.0257332
1EFN A E 98;1EFN A T 130;7.94173
1EFN A E 98;1EFN A G 131;0.781621
1EFN A D 99;1EFN A D 100;21.2763
1EFN A D 99;1EFN A T 130;0.719266
1EFN A D 99;1EFN A G 131;9.40873
1EFN A D 99;1EFN A Y 132;18.3827
1EFN A D 100;1EFN A L 101;22.2182
1EFN A D 100;1EFN A S 102;1.51756
1EFN A D 100;1EFN A W 119;5.51934
1EFN A D 100;1EFN A T 130;0.416094
1EFN A D 100;1EFN A G 131;5.61935
1EFN A D 100;1EFN A Y 132;23.4613
1EFN A L 101;1EFN A S 102;30.3972
1EFN A L 101;1EFN A F 103;8.21666
1EFN A L 101;1EFN A E 107;0.801059
1EFN A L 101;1EFN A F 109;12.5649
1EFN A L 101;1EFN A A 122;9.09576
1EFN A L 101;1EFN A R 123;1.17162
1EFN A L 101;1EFN A S 124;12.3281
1EFN A L 101;1EFN A T 127;0.580093
1EFN A L 101;1EFN A E 129;18.8605
1EFN A L 101;1EFN A T 130;8.8657
1EFN A L 101;1EFN A G 131;15.1994
1EFN A L 101;1EFN A Y 132;8.306
1EFN A L 101;1EFN A I 133;15.4257
1EFN A S 102;1EFN A F 103;29.0551
1EFN A S 102;1EFN A E 107;5.02335
1EFN A S 102;1EFN A F 109;0.0737245
1EFN A S 102;1EFN A S 124;0.0269718
1EFN A F 103;1EFN A H 104;34.8618
1EFN A F 103;1EFN A E 107;16.5071
1EFN A F 103;1EFN A F 109;17.1368
1EFN A F 103;1EFN A I 133;12.8644
1EFN A F 103;1EFN A P 134;7.51385
1EFN A F 103;1EFN A Y 137;12.3608
1EFN A F 103;1EFN A V 138;8.10927
1EFN A H 104;1EFN A K 105;24.4967
1EFN A H 104;1EFN A G 106;0.690492
1EFN A H 104;1EFN A E 107;22.4096
1EFN A K 105;1EFN A G 106;25.2573
1EFN A K 105;1EFN A E 107;3.61652
1EFN A G 106;1EFN A E 107;21.4362
1EFN A G 106;1EFN A K 108;5.94654
1EFN A E 107;1EFN A K 108;22.4406
1EFN A E 107;1EFN A F 109;19.7744
1EFN A E 107;1EFN A S 124;14.7027
1EFN A E 107;1EFN A T 126;22.1556
1EFN A E 107;1EFN A T 127;9.87591
1EFN A K 108;1EFN A F 109;24.5261
1EFN A K 108;1EFN A S 124;3.17764
1EFN A K 108;1EFN A L 125;21.9564
1EFN A K 108;1EFN A T 126;11.0735
1EFN A K 108;1EFN A V 141;5.81178
1EFN A F 109;1EFN A Q 110;22.6179
1EFN A F 109;1EFN A I 111;9.39843
1EFN A F 109;1EFN A A 122;8.65236
1EFN A F 109;1EFN A R 123;8.54736
1EFN A F 109;1EFN A S 124;9.43786
1EFN A F 109;1EFN A L 125;5.55908
1EFN A F 109;1EFN A I 133;12.3656
1EFN A F 109;1EFN A V 138;13.1986
1EFN A Q 110;1EFN A I 111;23.9036
1EFN A Q 110;1EFN A L 112;17.2483
1EFN A Q 110;1EFN A A 122;6.22025
1EFN A Q 110;1EFN A R 123;42.0652
1EFN A Q 110;1EFN A L 125;2.00326
1EFN A I 111;1EFN A L 112;20.0436
1EFN A I 111;1EFN A N 113;14.6322
1EFN A I 111;1EFN A S 114;11.3736
1EFN A I 111;1EFN A W 120;24.085
1EFN A I 111;1EFN A E 121;4.16305
1EFN A I 111;1EFN A A 122;11.0332
1EFN A I 111;1EFN A I 133;6.80063
1EFN A I 111;1EFN A V 138;3.15284
1EFN A L 112;1EFN A N 113;28.1917
1EFN A L 112;1EFN A E 121;14.3329
1EFN A L 112;1EFN A A 122;7.96428
1EFN A L 112;1EFN A R 123;3.68911
1EFN A L 112;1EFN A T 130;8.00523
1EFN A N 113;1EFN A S 114;25.3013
1EFN A N 113;1EFN A S 115;13.8395
1EFN A N 113;1EFN A E 116;21.9962
1EFN A N 113;1EFN A W 120;7.13892
1EFN A N 113;1EFN A E 121;25.3829
1EFN A N 113;1EFN A Y 132;1.94357
1EFN A S 114;1EFN A S 115;26.7307
1EFN A S 114;1EFN A E 116;4.75034
1EFN A S 114;1EFN A G 117;11.0219
1EFN A S 114;1EFN A W 120;30.5671
1EFN A S 115;1EFN A E 116;27.6989
1EFN A S 115;1EFN A G 117;2.68222
1EFN A E 116;1EFN A G 117;33.4284
1EFN A E 116;1EFN A W 119;13.4301
1EFN A E 116;1EFN A W 120;0.771365
1EFN A E 116;1EFN A Y 132;29.6029
1EFN A G 117;1EFN A D 118;28.7044
1EFN A G 117;1EFN A W 119;8.50203
1EFN A G 117;1EFN A W 120;11.4241
1EFN A D 118;1EFN A W 119;23.7629
1EFN A D 118;1EFN A W 120;9.54443
1EFN A D 118;1EFN A I 133;0.0326461
1EFN A D 118;1EFN A P 134;0.515821
1EFN A D 118;1EFN A S 135;23.0436
1EFN A W 119;1EFN A W 120;20.4872
1EFN A W 119;1EFN A E 121;0.226207
1EFN A W 119;1EFN A Y 132;26.2231
1EFN A W 119;1EFN A I 133;15.4468
1EFN A W 119;1EFN A P 134;16.9266
1EFN A W 119;1EFN A S 135;0.0369435
1EFN A W 120;1EFN A E 121;19.5782
1EFN A W 120;1EFN A A 122;2.24353
1EFN A W 120;1EFN A G 131;0.876357
1EFN A W 120;1EFN A Y 132;8.08805
1EFN A W 120;1EFN A I 133;26.1969
1EFN A W 120;1EFN A S 135;31.1686
1EFN A W 120;1EFN A V 138;8.04454
1EFN A E 121;1EFN A A 122;20.6282
1EFN A E 121;1EFN A T 130;1.90614
1EFN A E 121;1EFN A G 131;7.18106
1EFN A E 121;1EFN A Y 132;25.2302
1EFN A A 122;1EFN A R 123;17.4502
1EFN A A 122;1EFN A E 129;0.336391
1EFN A A 122;1EFN A T 130;11.287
1EFN A A 122;1EFN A G 131;13.607
1EFN A A 122;1EFN A I 133;11.808
1EFN A R 123;1EFN A S 124;20.7605
1EFN A R 123;1EFN A L 125;8.79142
1EFN A R 123;1EFN A G 128;14.2008
1EFN A R 123;1EFN A E 129;10.0717
1EFN A R 123;1EFN A T 130;23.1728
1EFN A S 124;1EFN A L 125;18.2631
1EFN A S 124;1EFN A T 126;6.92416
1EFN A S 124;1EFN A T 127;17.7332
1EFN A S 124;1EFN A G 128;9.63039
1EFN A S 124;1EFN A E 129;11.1811
1EFN A L 125;1EFN A T 126;25.4987
1EFN A L 125;1EFN A T 127;5.89239
1EFN A L 125;1EFN A G 128;5.5527
1EFN A T 126;1EFN A T 127;30.9158
1EFN A T 127;1EFN A G 128;28.8138
1EFN A T 127;1EFN A E 129;16.889
1EFN A G 128;1EFN A E 129;25.4023
1EFN A E 129;1EFN A T 130;25.6086
1EFN A T 130;1EFN A G 131;23.7496
1EFN A G 131;1EFN A Y 132;19.1046
1EFN A G 131;1EFN A I 133;3.19807
1EFN A Y 132;1EFN A I 133;20.3841
1EFN A I 133;1EFN A P 134;25.022
1EFN A I 133;1EFN A S 135;6.48576
1EFN A I 133;1EFN A V 138;16.2269
1EFN A P 134;1EFN A S 135;15.9607
1EFN A P 134;1EFN A N 136;6.26869
1EFN A P 134;1EFN A Y 137;22.7367
1EFN A P 134;1EFN A V 138;5.5762
1EFN A S 135;1EFN A N 136;24.8676
1EFN A S 135;1EFN A Y 137;2.18602
1EFN A S 135;1EFN A V 138;20.6817
1EFN A N 136;1EFN A Y 137;25.9435
1EFN A N 136;1EFN A V 138;4.54859
1EFN A Y 137;1EFN A V 138;20.7048
1EFN A V 138;1EFN A A 139;20.0924
1EFN A V 138;1EFN A P 140;0.00732554
1EFN A A 139;1EFN A P 140;34.1648
1EFN A A 139;1EFN A V 141;0.317046
1EFN A P 140;1EFN A V 141;30.4149
