V1;V2;Weight
1F47 B M 1;1F47 B D 2;43.7234
1F47 B M 1;1F47 B P 4;19.7573
1F47 B D 2;1F47 B K 3;36.8099
1F47 B D 2;1F47 B P 4;12.8862
1F47 B K 3;1F47 B P 4;43.9246
1F47 B K 3;1F47 B K 5;5.92748
1F47 B K 3;1F47 B R 6;23.6036
1F47 B K 3;1F47 B E 138;3.93851
1F47 B P 4;1F47 B K 5;33.5542
1F47 B P 4;1F47 B R 6;6.52884
1F47 B P 4;1F47 B E 138;1.8369
1F47 B K 5;1F47 B R 6;20.3561
1F47 B K 5;1F47 B K 7;7.40167
1F47 B K 5;1F47 B E 138;29.366
1F47 B K 5;1F47 B D 141;28.0509
1F47 B K 5;1F47 B A 142;20.1875
1F47 B R 6;1F47 B K 7;20.7269
1F47 B R 6;1F47 B E 8;15.3758
1F47 B R 6;1F47 B A 9;9.45336
1F47 B R 6;1F47 B E 131;0.831967
1F47 B R 6;1F47 B I 135;27.6389
1F47 B R 6;1F47 B E 138;36.0101
1F47 B R 6;1F47 B V 139;13.7037
1F47 B R 6;1F47 B A 142;6.30308
1F47 B K 7;1F47 B E 8;28.3411
1F47 B K 7;1F47 B P 89;7.24795
1F47 B K 7;1F47 B V 139;6.07868
1F47 B K 7;1F47 B A 142;25.3492
1F47 B K 7;1F47 B N 143;33.2903
1F47 B E 8;1F47 B A 9;28.0181
1F47 B E 8;1F47 B Q 87;1.07459
1F47 B E 8;1F47 B V 88;8.61886
1F47 B E 8;1F47 B P 89;8.17196
1F47 B E 8;1F47 B V 139;10.004
1F47 B A 9;1F47 B V 10;33.9529
1F47 B A 9;1F47 B I 11;3.27947
1F47 B A 9;1F47 B M 86;0.547269
1F47 B A 9;1F47 B Q 87;5.41423
1F47 B A 9;1F47 B V 88;25.2659
1F47 B A 9;1F47 B I 135;13.5019
1F47 B A 9;1F47 B V 139;6.96157
1F47 B V 10;1F47 B I 11;26.1369
1F47 B V 10;1F47 B I 12;24.0609
1F47 B V 10;1F47 B F 85;9.7142
1F47 B V 10;1F47 B M 86;8.65906
1F47 B V 10;1F47 B Q 87;16.6787
1F47 B V 10;1F47 B V 88;0.216287
1F47 B V 10;1F47 B I 135;0.623788
1F47 B I 11;1F47 B I 12;23.8139
1F47 B I 11;1F47 B M 13;3.25524
1F47 B I 11;1F47 B I 84;0.14479
1F47 B I 11;1F47 B F 85;5.34473
1F47 B I 11;1F47 B M 86;26.2334
1F47 B I 11;1F47 B V 88;11.0017
1F47 B I 11;1F47 B F 98;8.96289
1F47 B I 11;1F47 B M 101;13.6016
1F47 B I 11;1F47 B Y 132;27.2938
1F47 B I 11;1F47 B I 135;18.0572
1F47 B I 11;1F47 B I 136;12.4735
1F47 B I 12;1F47 B M 13;23.1124
1F47 B I 12;1F47 B N 14;4.58165
1F47 B I 12;1F47 B T 83;13.7668
1F47 B I 12;1F47 B I 84;4.57527
1F47 B I 12;1F47 B F 85;9.25773
1F47 B I 12;1F47 B M 101;1.05726
1F47 B I 12;1F47 B D 118;0.027705
1F47 B I 12;1F47 B D 119;30.1622
1F47 B I 12;1F47 B Y 132;14.6964
1F47 B M 13;1F47 B N 14;25.4609
1F47 B M 13;1F47 B V 15;0.119069
1F47 B M 13;1F47 B T 83;5.60004
1F47 B M 13;1F47 B I 84;26.2972
1F47 B M 13;1F47 B F 98;10.3156
1F47 B M 13;1F47 B M 101;20.1118
1F47 B M 13;1F47 B L 102;17.073
1F47 B M 13;1F47 B A 105;11.7818
1F47 B M 13;1F47 B V 116;7.94712
1F47 B M 13;1F47 B L 117;5.33301
1F47 B M 13;1F47 B D 118;5.11702
1F47 B M 13;1F47 B D 119;1.49154
1F47 B M 13;1F47 B M 124;12.137
1F47 B M 13;1F47 B L 129;0.810976
1F47 B M 13;1F47 B Y 132;10.6592
1F47 B N 14;1F47 B V 15;23.2113
1F47 B N 14;1F47 B A 16;4.14476
1F47 B N 14;1F47 B M 64;15.101
1F47 B N 14;1F47 B V 82;9.41425
1F47 B N 14;1F47 B T 83;18.2617
1F47 B N 14;1F47 B I 84;2.86304
1F47 B N 14;1F47 B A 105;0.10359
1F47 B N 14;1F47 B V 115;1.03274
1F47 B N 14;1F47 B V 116;7.59498
1F47 B N 14;1F47 B L 117;25.8003
1F47 B N 14;1F47 B D 118;7.7332
1F47 B N 14;1F47 B D 119;7.70049
1F47 B N 14;1F47 B R 121;12.1126
1F47 B V 15;1F47 B A 16;19.9788
1F47 B V 15;1F47 B L 23;8.99047
1F47 B V 15;1F47 B L 28;0.33221
1F47 B V 15;1F47 B M 64;0.134442
1F47 B V 15;1F47 B G 81;4.25993
1F47 B V 15;1F47 B V 82;26.2567
1F47 B V 15;1F47 B I 84;10.4764
1F47 B V 15;1F47 B A 105;15.2444
1F47 B V 15;1F47 B I 108;13.8187
1F47 B V 15;1F47 B A 109;11.554
1F47 B V 15;1F47 B V 112;5.96437
1F47 B V 15;1F47 B G 114;4.31439
1F47 B V 15;1F47 B V 115;8.40799
1F47 B V 15;1F47 B V 116;7.62914
1F47 B A 16;1F47 B A 17;26.1467
1F47 B A 16;1F47 B H 18;1.23927
1F47 B A 16;1F47 B L 23;5.31844
1F47 B A 16;1F47 B M 64;10.5774
1F47 B A 16;1F47 B P 80;7.70693
1F47 B A 16;1F47 B G 81;4.34965
1F47 B A 16;1F47 B G 114;7.08826
1F47 B A 16;1F47 B V 115;21.1378
1F47 B A 16;1F47 B L 117;18.0097
1F47 B A 17;1F47 B H 18;25.8663
1F47 B A 17;1F47 B H 19;6.77518
1F47 B A 17;1F47 B S 21;15.624
1F47 B A 17;1F47 B E 22;8.9261
1F47 B A 17;1F47 B L 23;21.0537
1F47 B A 17;1F47 B T 79;0.151678
1F47 B A 17;1F47 B P 80;12.3808
1F47 B A 17;1F47 B G 113;1.02681
1F47 B A 17;1F47 B G 114;2.63586
1F47 B A 17;1F47 B V 115;3.83331
1F47 B H 18;1F47 B H 19;45.3187
1F47 B H 18;1F47 B G 20;1.13544
1F47 B H 18;1F47 B S 21;25.6319
1F47 B H 18;1F47 B G 113;7.57386
1F47 B H 18;1F47 B G 114;2.03816
1F47 B H 18;1F47 B V 115;15.4515
1F47 B H 19;1F47 B G 20;36.5765
1F47 B H 19;1F47 B S 21;1.12402
1F47 B G 20;1F47 B S 21;34.6988
1F47 B S 21;1F47 B E 22;36.8819
1F47 B S 21;1F47 B P 80;3.60249
1F47 B E 22;1F47 B L 23;21.7389
1F47 B E 22;1F47 B N 24;3.24801
1F47 B E 22;1F47 B T 78;29.5832
1F47 B E 22;1F47 B T 79;10.0451
1F47 B E 22;1F47 B P 80;27.0897
1F47 B L 23;1F47 B N 24;26.5148
1F47 B L 23;1F47 B G 25;2.73954
1F47 B L 23;1F47 B L 28;18.0223
1F47 B L 23;1F47 B T 78;9.72463
1F47 B L 23;1F47 B T 79;23.278
1F47 B L 23;1F47 B P 80;2.57259
1F47 B L 23;1F47 B G 81;8.04159
1F47 B L 23;1F47 B V 82;2.87225
1F47 B L 23;1F47 B V 112;26.1979
1F47 B L 23;1F47 B G 113;2.69146
1F47 B L 23;1F47 B G 114;6.67665
1F47 B N 24;1F47 B G 25;16.4198
1F47 B N 24;1F47 B E 26;23.9191
1F47 B N 24;1F47 B L 27;33.0568
1F47 B N 24;1F47 B L 28;10.1629
1F47 B N 24;1F47 B F 77;1.20323
1F47 B N 24;1F47 B T 78;10.7662
1F47 B N 24;1F47 B T 79;0.0143957
1F47 B N 24;1F47 B V 112;3.38976
1F47 B G 25;1F47 B E 26;19.7582
1F47 B G 25;1F47 B L 27;0.487876
1F47 B G 25;1F47 B L 28;11.9546
1F47 B G 25;1F47 B L 29;10.4263
1F47 B G 25;1F47 B F 77;27.1716
1F47 B G 25;1F47 B T 78;4.1853
1F47 B G 25;1F47 B T 79;3.08196
1F47 B E 26;1F47 B L 27;18.5049
1F47 B E 26;1F47 B L 28;1.41262
1F47 B E 26;1F47 B L 29;12.6964
1F47 B E 26;1F47 B N 30;21.1272
1F47 B E 26;1F47 B M 74;5.15434
1F47 B E 26;1F47 B K 75;13.863
1F47 B E 26;1F47 B D 76;16.0964
1F47 B E 26;1F47 B F 77;17.4655
1F47 B L 27;1F47 B L 28;15.6231
1F47 B L 27;1F47 B L 29;0.354439
1F47 B L 27;1F47 B N 30;17.18
1F47 B L 27;1F47 B S 31;15.8391
1F47 B L 27;1F47 B E 111;16.3106
1F47 B L 27;1F47 B V 112;23.1097
1F47 B L 28;1F47 B L 29;20.2908
1F47 B L 28;1F47 B N 30;1.08021
1F47 B L 28;1F47 B S 31;7.55037
1F47 B L 28;1F47 B I 32;24.6451
1F47 B L 28;1F47 B N 63;0.0653966
1F47 B L 28;1F47 B F 70;8.01931
1F47 B L 28;1F47 B F 77;4.08652
1F47 B L 28;1F47 B T 79;14.2834
1F47 B L 28;1F47 B G 81;0.0145317
1F47 B L 28;1F47 B V 82;18.1035
1F47 B L 28;1F47 B I 108;9.43322
1F47 B L 28;1F47 B V 112;16.2221
1F47 B L 29;1F47 B N 30;22.5674
1F47 B L 29;1F47 B S 31;0.877906
1F47 B L 29;1F47 B I 32;16.55
1F47 B L 29;1F47 B Q 33;18.2623
1F47 B L 29;1F47 B Y 45;17.4597
1F47 B L 29;1F47 B F 70;14.5151
1F47 B L 29;1F47 B D 71;6.15817
1F47 B L 29;1F47 B P 72;18.5612
1F47 B L 29;1F47 B M 74;12.0529
1F47 B L 29;1F47 B F 77;15.2126
1F47 B N 30;1F47 B S 31;19.0354
1F47 B N 30;1F47 B I 32;0.544686
1F47 B N 30;1F47 B Q 33;17.6529
1F47 B N 30;1F47 B Q 34;13.7789
1F47 B S 31;1F47 B I 32;16.4565
1F47 B S 31;1F47 B Q 33;0.954687
1F47 B S 31;1F47 B Q 34;11.9298
1F47 B S 31;1F47 B A 35;8.57804
1F47 B S 31;1F47 B H 107;1.68416
1F47 B S 31;1F47 B I 108;14.7768
1F47 B S 31;1F47 B E 111;20.656
1F47 B S 31;1F47 B V 112;10.5295
1F47 B I 32;1F47 B Q 33;19.4516
1F47 B I 32;1F47 B Q 34;0.709215
1F47 B I 32;1F47 B A 35;6.94085
1F47 B I 32;1F47 B G 36;1.57427
1F47 B I 32;1F47 B F 37;21.213
1F47 B I 32;1F47 B Y 45;25.0169
1F47 B I 32;1F47 B L 61;18.5949
1F47 B I 32;1F47 B F 70;6.15689
1F47 B I 32;1F47 B V 82;3.76045
1F47 B I 32;1F47 B I 108;14.4451
1F47 B Q 33;1F47 B Q 34;23.1251
1F47 B Q 33;1F47 B A 35;1.31749
1F47 B Q 33;1F47 B G 36;11.0983
1F47 B Q 33;1F47 B F 37;16.1355
1F47 B Q 33;1F47 B F 39;0.00861553
1F47 B Q 33;1F47 B Y 45;18.6402
1F47 B Q 33;1F47 B P 72;10.9367
1F47 B Q 34;1F47 B A 35;17.5429
1F47 B Q 34;1F47 B G 36;6.29844
1F47 B Q 34;1F47 B H 107;25.1482
1F47 B Q 34;1F47 B E 111;24.4753
1F47 B A 35;1F47 B G 36;20.0019
1F47 B A 35;1F47 B F 37;11.8633
1F47 B A 35;1F47 B R 47;9.56597
1F47 B A 35;1F47 B S 104;15.6757
1F47 B A 35;1F47 B H 107;20.3467
1F47 B A 35;1F47 B I 108;10.829
1F47 B G 36;1F47 B F 37;23.0101
1F47 B G 36;1F47 B I 38;10.8058
1F47 B G 36;1F47 B H 46;0.971652
1F47 B G 36;1F47 B R 47;22.9345
1F47 B F 37;1F47 B I 38;25.4161
1F47 B F 37;1F47 B Y 45;16.2166
1F47 B F 37;1F47 B H 46;12.7734
1F47 B F 37;1F47 B R 47;11.7422
1F47 B F 37;1F47 B F 59;16.6569
1F47 B F 37;1F47 B S 60;5.23763
1F47 B F 37;1F47 B L 61;17.8189
1F47 B F 37;1F47 B I 84;11.822
1F47 B F 37;1F47 B S 104;12.7897
1F47 B F 37;1F47 B I 108;9.58694
1F47 B I 38;1F47 B F 39;35.0845
1F47 B I 38;1F47 B G 40;2.96009
1F47 B I 38;1F47 B I 44;0.17993
1F47 B I 38;1F47 B Y 45;8.18532
1F47 B I 38;1F47 B H 46;21.4255
1F47 B I 38;1F47 B R 47;0.00594043
1F47 B I 38;1F47 B H 48;15.021
1F47 B I 38;1F47 B S 50;1.30556
1F47 B I 38;1F47 B P 51;16.4348
1F47 B I 38;1F47 B D 52;9.09733
1F47 B I 38;1F47 B G 53;16.334
1F47 B F 39;1F47 B G 40;34.3496
1F47 B F 39;1F47 B N 43;28.1609
1F47 B F 39;1F47 B I 44;10.1374
1F47 B F 39;1F47 B Y 45;29.0062
1F47 B F 39;1F47 B F 70;16.6439
1F47 B F 39;1F47 B D 71;0.344927
1F47 B F 39;1F47 B P 72;31.8196
1F47 B G 40;1F47 B D 41;26.9625
1F47 B G 40;1F47 B M 42;0.877663
1F47 B G 40;1F47 B N 43;12.0886
1F47 B G 40;1F47 B I 44;9.28324
1F47 B G 40;1F47 B H 46;6.05039
1F47 B G 40;1F47 B H 48;0.606002
1F47 B D 41;1F47 B M 42;42.7661
1F47 B D 41;1F47 B N 43;2.20644
1F47 B D 41;1F47 B I 44;7.45236
1F47 B D 41;1F47 B H 46;22.2111
1F47 B M 42;1F47 B N 43;23.2308
1F47 B M 42;1F47 B I 44;16.3359
1F47 B M 42;1F47 B H 46;8.13547
1F47 B M 42;1F47 B S 60;1.34586
1F47 B M 42;1F47 B T 69;8.96503
1F47 B M 42;1F47 B F 85;2.11972
1F47 B N 43;1F47 B I 44;17.7875
1F47 B N 43;1F47 B T 69;19.7561
1F47 B N 43;1F47 B F 70;13.1208
1F47 B I 44;1F47 B Y 45;22.4607
1F47 B I 44;1F47 B H 46;15.6106
1F47 B I 44;1F47 B S 60;7.87191
1F47 B I 44;1F47 B L 61;9.37964
1F47 B I 44;1F47 B A 62;13.9242
1F47 B I 44;1F47 B G 68;6.19417
1F47 B I 44;1F47 B T 69;7.39306
1F47 B I 44;1F47 B F 70;7.27993
1F47 B I 44;1F47 B F 85;8.86917
1F47 B Y 45;1F47 B H 46;21.0522
1F47 B Y 45;1F47 B S 60;5.06299
1F47 B Y 45;1F47 B L 61;24.6251
1F47 B Y 45;1F47 B F 70;17.1898
1F47 B Y 45;1F47 B P 72;13.0783
1F47 B H 46;1F47 B R 47;19.6797
1F47 B H 46;1F47 B H 48;19.376
1F47 B H 46;1F47 B A 57;19.1705
1F47 B H 46;1F47 B F 59;4.45997
1F47 B H 46;1F47 B S 60;15.9948
1F47 B R 47;1F47 B H 48;39.5244
1F47 B R 47;1F47 B P 51;1.76971
1F47 B R 47;1F47 B A 57;4.30182
1F47 B R 47;1F47 B L 58;15.9151
1F47 B R 47;1F47 B F 59;32.5068
1F47 B R 47;1F47 B L 100;33.7385
1F47 B R 47;1F47 B S 104;7.76553
1F47 B H 48;1F47 B L 49;24.5308
1F47 B H 48;1F47 B S 50;21.8424
1F47 B H 48;1F47 B P 51;1.13135
1F47 B H 48;1F47 B G 53;26.0759
1F47 B H 48;1F47 B S 54;5.69488
1F47 B H 48;1F47 B G 55;11.2992
1F47 B H 48;1F47 B P 56;12.3333
1F47 B H 48;1F47 B A 57;10.9511
1F47 B H 48;1F47 B L 58;9.18081
1F47 B H 48;1F47 B L 100;0.130755
1F47 B L 49;1F47 B S 50;27.3454
1F47 B L 49;1F47 B P 51;4.24239
1F47 B L 49;1F47 B P 56;14.7013
1F47 B L 49;1F47 B L 58;28.0531
1F47 B L 49;1F47 B Y 91;24.8811
1F47 B L 49;1F47 B G 92;6.33649
1F47 B L 49;1F47 B L 97;6.92611
1F47 B S 50;1F47 B P 51;29.6999
1F47 B S 50;1F47 B D 52;19.406
1F47 B S 50;1F47 B G 53;7.17257
1F47 B S 50;1F47 B S 54;15.8331
1F47 B P 51;1F47 B D 52;26.9459
1F47 B P 51;1F47 B G 53;1.28921
1F47 B D 52;1F47 B G 53;19.0803
1F47 B D 52;1F47 B S 54;27.1439
1F47 B G 53;1F47 B S 54;21.6536
1F47 B G 53;1F47 B G 55;5.50307
1F47 B S 54;1F47 B G 55;30.9313
1F47 B S 54;1F47 B P 56;0.0164765
1F47 B G 55;1F47 B P 56;37.1363
1F47 B G 55;1F47 B A 57;0.661727
1F47 B P 56;1F47 B A 57;32.4076
1F47 B P 56;1F47 B L 58;1.14092
1F47 B P 56;1F47 B Y 91;23.3862
1F47 B A 57;1F47 B L 58;29.1794
1F47 B A 57;1F47 B F 59;5.22365
1F47 B A 57;1F47 B S 60;6.78807
1F47 B A 57;1F47 B Y 91;2.14081
1F47 B L 58;1F47 B F 59;34.8629
1F47 B L 58;1F47 B M 86;14.0609
1F47 B L 58;1F47 B Q 87;4.5224
1F47 B L 58;1F47 B S 90;10.9362
1F47 B L 58;1F47 B Y 91;13.0002
1F47 B L 58;1F47 B L 97;26.5237
1F47 B L 58;1F47 B L 100;8.94592
1F47 B F 59;1F47 B S 60;23.4271
1F47 B F 59;1F47 B I 84;9.43999
1F47 B F 59;1F47 B F 85;8.02316
1F47 B F 59;1F47 B M 86;17.1343
1F47 B F 59;1F47 B L 97;6.99787
1F47 B F 59;1F47 B L 100;13.2099
1F47 B F 59;1F47 B M 101;24.6195
1F47 B F 59;1F47 B S 104;10.3049
1F47 B S 60;1F47 B L 61;17.7608
1F47 B S 60;1F47 B T 83;0.621103
1F47 B S 60;1F47 B I 84;9.17071
1F47 B S 60;1F47 B F 85;34.2539
1F47 B L 61;1F47 B A 62;19.7114
1F47 B L 61;1F47 B F 70;10.9922
1F47 B L 61;1F47 B V 82;19.2132
1F47 B L 61;1F47 B T 83;6.41704
1F47 B L 61;1F47 B I 84;14.5855
1F47 B L 61;1F47 B F 85;1.78288
1F47 B L 61;1F47 B I 108;10.2756
1F47 B A 62;1F47 B N 63;18.0871
1F47 B A 62;1F47 B M 64;0.60276
1F47 B A 62;1F47 B G 68;7.63686
1F47 B A 62;1F47 B F 70;6.61498
1F47 B A 62;1F47 B V 82;5.94125
1F47 B A 62;1F47 B T 83;17.1038
1F47 B A 62;1F47 B F 85;9.66847
1F47 B N 63;1F47 B M 64;18.6874
1F47 B N 63;1F47 B V 65;26.4019
1F47 B N 63;1F47 B K 66;0.676708
1F47 B N 63;1F47 B P 67;1.06665
1F47 B N 63;1F47 B G 68;20.1936
1F47 B N 63;1F47 B T 69;7.32938
1F47 B N 63;1F47 B F 70;22.085
1F47 B N 63;1F47 B F 77;1.09195
1F47 B N 63;1F47 B T 79;19.3768
1F47 B N 63;1F47 B G 81;4.54809
1F47 B N 63;1F47 B V 82;5.24823
1F47 B N 63;1F47 B T 83;1.02189
1F47 B M 64;1F47 B V 65;23.4043
1F47 B M 64;1F47 B T 79;0.847897
1F47 B M 64;1F47 B P 80;17.7295
1F47 B M 64;1F47 B G 81;20.3159
1F47 B M 64;1F47 B V 82;10.1429
1F47 B M 64;1F47 B T 83;15.4176
1F47 B M 64;1F47 B L 117;2.11457
1F47 B M 64;1F47 B R 121;16.2663
1F47 B V 65;1F47 B K 66;28.8545
1F47 B V 65;1F47 B P 67;0.27456
1F47 B V 65;1F47 B G 68;6.82356
1F47 B V 65;1F47 B T 79;2.80153
1F47 B V 65;1F47 B P 80;20.4316
1F47 B K 66;1F47 B P 67;35.5053
1F47 B K 66;1F47 B G 68;2.65818
1F47 B P 67;1F47 B G 68;19.6538
1F47 B P 67;1F47 B T 69;28.4063
1F47 B G 68;1F47 B T 69;21.0477
1F47 B G 68;1F47 B F 70;4.14103
1F47 B T 69;1F47 B F 70;33.2086
1F47 B F 70;1F47 B D 71;31.8413
1F47 B F 70;1F47 B P 72;3.18831
1F47 B F 70;1F47 B F 77;11.8506
1F47 B F 70;1F47 B T 79;0.957437
1F47 B F 70;1F47 B V 82;7.63556
1F47 B D 71;1F47 B P 72;26.6354
1F47 B D 71;1F47 B E 73;18.5126
1F47 B D 71;1F47 B M 74;30.5492
1F47 B D 71;1F47 B F 77;0.00906912
1F47 B P 72;1F47 B E 73;32.8297
1F47 B P 72;1F47 B M 74;4.52796
1F47 B P 72;1F47 B K 75;0.660242
1F47 B E 73;1F47 B M 74;22.4002
1F47 B E 73;1F47 B K 75;23.9694
1F47 B M 74;1F47 B K 75;41.2597
1F47 B M 74;1F47 B D 76;2.07841
1F47 B M 74;1F47 B F 77;42.3015
1F47 B K 75;1F47 B D 76;34.1069
1F47 B K 75;1F47 B F 77;6.49826
1F47 B D 76;1F47 B F 77;26.4602
1F47 B F 77;1F47 B T 78;42.5615
1F47 B F 77;1F47 B T 79;10.503
1F47 B T 78;1F47 B T 79;23.9461
1F47 B T 78;1F47 B P 80;0.193454
1F47 B T 79;1F47 B P 80;26.4203
1F47 B T 79;1F47 B G 81;15.1562
1F47 B T 79;1F47 B V 82;1.36409
1F47 B P 80;1F47 B G 81;15.8034
1F47 B G 81;1F47 B V 82;19.7879
1F47 B V 82;1F47 B T 83;17.5699
1F47 B V 82;1F47 B I 84;7.09948
1F47 B V 82;1F47 B I 108;4.83373
1F47 B T 83;1F47 B I 84;21.5695
1F47 B T 83;1F47 B F 85;11.4463
1F47 B I 84;1F47 B F 85;18.6897
1F47 B I 84;1F47 B M 101;21.0956
1F47 B I 84;1F47 B S 104;1.9644
1F47 B I 84;1F47 B A 105;14.4796
1F47 B I 84;1F47 B I 108;6.02254
1F47 B F 85;1F47 B M 86;19.2262
1F47 B F 85;1F47 B Q 87;5.22079
1F47 B F 85;1F47 B M 101;6.34884
1F47 B M 86;1F47 B Q 87;27.7675
1F47 B M 86;1F47 B V 88;16.8183
1F47 B M 86;1F47 B S 90;8.73598
1F47 B M 86;1F47 B E 94;4.66176
1F47 B M 86;1F47 B L 97;15.8984
1F47 B M 86;1F47 B F 98;11.0447
1F47 B M 86;1F47 B M 101;17.5856
1F47 B M 86;1F47 B I 136;8.03772
1F47 B Q 87;1F47 B V 88;24.6658
1F47 B Q 87;1F47 B P 89;6.4699
1F47 B Q 87;1F47 B S 90;9.6374
1F47 B V 88;1F47 B P 89;26.5345
1F47 B V 88;1F47 B S 90;6.78502
1F47 B V 88;1F47 B E 94;11.3844
1F47 B V 88;1F47 B I 135;2.43638
1F47 B V 88;1F47 B I 136;16.5624
1F47 B V 88;1F47 B V 139;16.0787
1F47 B P 89;1F47 B S 90;26.3924
1F47 B P 89;1F47 B E 94;12.0572
1F47 B P 89;1F47 B V 139;13.6026
1F47 B P 89;1F47 B K 140;2.81177
1F47 B P 89;1F47 B N 143;20.5893
1F47 B S 90;1F47 B Y 91;33.7794
1F47 B S 90;1F47 B G 92;2.56536
1F47 B S 90;1F47 B E 94;28.4508
1F47 B S 90;1F47 B L 97;10.2968
1F47 B Y 91;1F47 B G 92;30.183
1F47 B Y 91;1F47 B D 93;0.085977
1F47 B Y 91;1F47 B E 94;1.61235
1F47 B Y 91;1F47 B L 97;11.8088
1F47 B G 92;1F47 B D 93;26.9592
1F47 B G 92;1F47 B E 94;13.2137
1F47 B G 92;1F47 B L 97;1.52943
1F47 B G 92;1F47 B K 140;0.546008
1F47 B D 93;1F47 B E 94;16.8326
1F47 B D 93;1F47 B L 95;10.2426
1F47 B D 93;1F47 B Q 96;32.5793
1F47 B D 93;1F47 B L 97;17.9091
1F47 B E 94;1F47 B L 95;21.5192
1F47 B E 94;1F47 B Q 96;0.804169
1F47 B E 94;1F47 B L 97;16.6765
1F47 B E 94;1F47 B F 98;6.82507
1F47 B E 94;1F47 B I 136;22.3673
1F47 B E 94;1F47 B V 139;0.728527
1F47 B E 94;1F47 B K 140;25.1842
1F47 B L 95;1F47 B Q 96;20.3755
1F47 B L 95;1F47 B L 97;0.904364
1F47 B L 95;1F47 B F 98;14.4722
1F47 B L 95;1F47 B K 99;10.2626
1F47 B L 95;1F47 B Q 133;20.7956
1F47 B L 95;1F47 B I 136;19.6145
1F47 B L 95;1F47 B R 137;29.926
1F47 B L 95;1F47 B K 140;4.90851
1F47 B Q 96;1F47 B L 97;20.8078
1F47 B Q 96;1F47 B F 98;0.916632
1F47 B Q 96;1F47 B K 99;35.215
1F47 B Q 96;1F47 B L 100;14.7447
1F47 B Q 96;1F47 B Q 103;2.46272
1F47 B L 97;1F47 B F 98;15.3931
1F47 B L 97;1F47 B K 99;0.820188
1F47 B L 97;1F47 B L 100;15.337
1F47 B L 97;1F47 B M 101;7.44595
1F47 B F 98;1F47 B K 99;22.2483
1F47 B F 98;1F47 B L 100;0.804298
1F47 B F 98;1F47 B M 101;17.8996
1F47 B F 98;1F47 B L 102;22.0382
1F47 B F 98;1F47 B L 129;17.9412
1F47 B F 98;1F47 B Y 132;17.252
1F47 B F 98;1F47 B Q 133;20.4778
1F47 B F 98;1F47 B I 136;16.9268
1F47 B K 99;1F47 B L 100;17.4729
1F47 B K 99;1F47 B M 101;0.904407
1F47 B K 99;1F47 B L 102;12.167
1F47 B K 99;1F47 B Q 103;36.5129
1F47 B L 100;1F47 B M 101;15.17
1F47 B L 100;1F47 B L 102;0.542946
1F47 B L 100;1F47 B Q 103;25.3162
1F47 B L 100;1F47 B S 104;15.398
1F47 B M 101;1F47 B L 102;17.1181
1F47 B M 101;1F47 B Q 103;0.774178
1F47 B M 101;1F47 B S 104;8.28438
1F47 B M 101;1F47 B A 105;8.40973
1F47 B L 102;1F47 B Q 103;21.2407
1F47 B L 102;1F47 B S 104;0.955936
1F47 B L 102;1F47 B A 105;9.86819
1F47 B L 102;1F47 B Q 106;14.4776
1F47 B L 102;1F47 B V 116;11.5841
1F47 B L 102;1F47 B M 124;5.56381
1F47 B L 102;1F47 B L 129;27.7645
1F47 B Q 103;1F47 B S 104;18.5255
1F47 B Q 103;1F47 B A 105;0.861868
1F47 B Q 103;1F47 B Q 106;10.8241
1F47 B Q 103;1F47 B H 107;13.9528
1F47 B S 104;1F47 B A 105;17.7628
1F47 B S 104;1F47 B Q 106;0.561704
1F47 B S 104;1F47 B H 107;10.4435
1F47 B S 104;1F47 B I 108;11.2109
1F47 B A 105;1F47 B Q 106;15.159
1F47 B A 105;1F47 B H 107;1.16262
1F47 B A 105;1F47 B I 108;7.8904
1F47 B A 105;1F47 B A 109;6.87185
1F47 B A 105;1F47 B V 116;11.4737
1F47 B Q 106;1F47 B H 107;17.6581
1F47 B Q 106;1F47 B I 108;0.580735
1F47 B Q 106;1F47 B A 109;18.18
1F47 B Q 106;1F47 B D 110;30.7506
1F47 B Q 106;1F47 B G 114;1.00731
1F47 B Q 106;1F47 B V 115;0.183729
1F47 B Q 106;1F47 B V 116;23.2831
1F47 B H 107;1F47 B I 108;18.5598
1F47 B H 107;1F47 B A 109;0.728316
1F47 B H 107;1F47 B D 110;16.3528
1F47 B H 107;1F47 B E 111;21.595
1F47 B I 108;1F47 B A 109;15.3411
1F47 B I 108;1F47 B D 110;1.23409
1F47 B I 108;1F47 B E 111;7.29675
1F47 B I 108;1F47 B V 112;17.6993
1F47 B A 109;1F47 B D 110;20.1976
1F47 B A 109;1F47 B E 111;0.434641
1F47 B A 109;1F47 B V 112;5.48062
1F47 B A 109;1F47 B G 113;8.58507
1F47 B A 109;1F47 B G 114;19.9207
1F47 B A 109;1F47 B V 115;5.45342
1F47 B A 109;1F47 B V 116;7.71926
1F47 B D 110;1F47 B E 111;29.7103
1F47 B D 110;1F47 B V 112;0.763739
1F47 B D 110;1F47 B G 113;9.61676
1F47 B E 111;1F47 B V 112;16.5888
1F47 B E 111;1F47 B G 113;2.74567
1F47 B V 112;1F47 B G 113;24.8289
1F47 B V 112;1F47 B G 114;8.37167
1F47 B G 113;1F47 B G 114;23.9529
1F47 B G 113;1F47 B V 115;1.75446
1F47 B G 114;1F47 B V 115;27.4302
1F47 B V 115;1F47 B V 116;23.6295
1F47 B V 115;1F47 B L 117;18.1162
1F47 B V 115;1F47 B M 123;22.8111
1F47 B V 116;1F47 B L 117;22.2897
1F47 B V 116;1F47 B M 123;9.20596
1F47 B V 116;1F47 B M 124;27.4359
1F47 B L 117;1F47 B D 118;19.447
1F47 B L 117;1F47 B R 121;29.2491
1F47 B L 117;1F47 B R 122;7.73804
1F47 B L 117;1F47 B M 123;18.3647
1F47 B L 117;1F47 B M 124;8.63068
1F47 B D 118;1F47 B D 119;18.8773
1F47 B D 118;1F47 B Q 120;14.1233
1F47 B D 118;1F47 B R 121;8.56349
1F47 B D 118;1F47 B R 122;26.3116
1F47 B D 118;1F47 B M 123;3.28033
1F47 B D 118;1F47 B M 124;14.9459
1F47 B D 118;1F47 B K 128;24.397
1F47 B D 118;1F47 B Y 132;6.62259
1F47 B D 119;1F47 B Q 120;44.3469
1F47 B D 119;1F47 B R 121;10.0124
1F47 B D 119;1F47 B K 128;14.8887
1F47 B D 119;1F47 B Y 132;12.0066
1F47 B Q 120;1F47 B R 121;28.8846
1F47 B Q 120;1F47 B R 122;24.5325
1F47 B Q 120;1F47 B K 128;6.32432
1F47 B R 121;1F47 B R 122;27.7794
1F47 B R 121;1F47 B M 123;0.42159
1F47 B R 122;1F47 B M 123;31.6989
1F47 B R 122;1F47 B M 124;2.07927
1F47 B M 123;1F47 B M 124;30.6721
1F47 B M 123;1F47 B T 125;14.8794
1F47 B M 123;1F47 B K 128;0.163362
1F47 B M 124;1F47 B T 125;32.9831
1F47 B M 124;1F47 B P 126;0.353683
1F47 B M 124;1F47 B K 128;12.2251
1F47 B M 124;1F47 B L 129;23.0896
1F47 B M 124;1F47 B Y 132;11.7617
1F47 B T 125;1F47 B P 126;29.0005
1F47 B T 125;1F47 B Q 127;21.383
1F47 B T 125;1F47 B K 128;20.4576
1F47 B T 125;1F47 B L 129;10.2002
1F47 B P 126;1F47 B Q 127;35.1157
1F47 B P 126;1F47 B K 128;0.779699
1F47 B P 126;1F47 B L 129;21.6311
1F47 B P 126;1F47 B R 130;12.7732
1F47 B Q 127;1F47 B K 128;19.53
1F47 B Q 127;1F47 B L 129;0.777846
1F47 B Q 127;1F47 B R 130;11.7942
1F47 B Q 127;1F47 B E 131;11.7741
1F47 B K 128;1F47 B L 129;16.0142
1F47 B K 128;1F47 B R 130;0.905726
1F47 B K 128;1F47 B E 131;36.9699
1F47 B K 128;1F47 B Y 132;27.8539
1F47 B L 129;1F47 B R 130;17.5604
1F47 B L 129;1F47 B E 131;0.851813
1F47 B L 129;1F47 B Y 132;13.0575
1F47 B L 129;1F47 B Q 133;15.1646
1F47 B R 130;1F47 B E 131;18.3836
1F47 B R 130;1F47 B Y 132;0.974375
1F47 B R 130;1F47 B Q 133;24.4644
1F47 B R 130;1F47 B D 134;32.9032
1F47 B R 130;1F47 B R 137;16.9361
1F47 B E 131;1F47 B Y 132;22.007
1F47 B E 131;1F47 B Q 133;0.684999
1F47 B E 131;1F47 B D 134;14.3539
1F47 B E 131;1F47 B I 135;28.768
1F47 B Y 132;1F47 B Q 133;16.504
1F47 B Y 132;1F47 B D 134;0.975836
1F47 B Y 132;1F47 B I 135;18.2248
1F47 B Y 132;1F47 B I 136;12.6047
1F47 B Q 133;1F47 B D 134;15.0191
1F47 B Q 133;1F47 B I 135;0.74235
1F47 B Q 133;1F47 B I 136;12.9426
1F47 B Q 133;1F47 B R 137;29.539
1F47 B D 134;1F47 B I 135;18.9793
1F47 B D 134;1F47 B I 136;0.766191
1F47 B D 134;1F47 B R 137;26.5001
1F47 B D 134;1F47 B E 138;13.1406
1F47 B I 135;1F47 B I 136;18.3202
1F47 B I 135;1F47 B R 137;0.940635
1F47 B I 135;1F47 B E 138;17.784
1F47 B I 135;1F47 B V 139;15.3983
1F47 B I 136;1F47 B R 137;18.7287
1F47 B I 136;1F47 B E 138;0.598674
1F47 B I 136;1F47 B V 139;8.39013
1F47 B I 136;1F47 B K 140;14.8508
1F47 B R 137;1F47 B E 138;18.0015
1F47 B R 137;1F47 B V 139;0.849612
1F47 B R 137;1F47 B K 140;14.0928
1F47 B R 137;1F47 B D 141;21.6131
1F47 B E 138;1F47 B V 139;19.3818
1F47 B E 138;1F47 B K 140;0.640567
1F47 B E 138;1F47 B D 141;9.82813
1F47 B E 138;1F47 B A 142;7.48618
1F47 B V 139;1F47 B K 140;21.1657
1F47 B V 139;1F47 B D 141;0.861797
1F47 B V 139;1F47 B A 142;7.45523
1F47 B V 139;1F47 B N 143;14.9798
1F47 B K 140;1F47 B D 141;23.4311
1F47 B K 140;1F47 B A 142;0.827265
1F47 B K 140;1F47 B N 143;10.8053
1F47 B K 140;1F47 B A 144;10.5864
1F47 B D 141;1F47 B A 142;20.6677
1F47 B D 141;1F47 B N 143;1.12597
1F47 B D 141;1F47 B A 144;21.5415
1F47 B A 142;1F47 B N 143;18.7155
1F47 B A 142;1F47 B A 144;5.7803
1F47 B N 143;1F47 B A 144;30.571
