V1;V2;Weight
1GCQ A S 158;1GCQ A T 159;32.9019
1GCQ A S 158;1GCQ A Y 160;17.8434
1GCQ A S 158;1GCQ A H 184;16.8832
1GCQ A S 158;1GCQ A V 185;3.16299
1GCQ A T 159;1GCQ A Y 160;30.1491
1GCQ A T 159;1GCQ A V 161;1.24693
1GCQ A T 159;1GCQ A I 183;0.0272013
1GCQ A T 159;1GCQ A H 184;9.1116
1GCQ A T 159;1GCQ A V 185;33.5944
1GCQ A T 159;1GCQ A N 188;2.97473
1GCQ A Y 160;1GCQ A V 161;23.1063
1GCQ A Y 160;1GCQ A F 182;17.2397
1GCQ A Y 160;1GCQ A I 183;11.3574
1GCQ A Y 160;1GCQ A H 184;30.181
1GCQ A Y 160;1GCQ A V 185;2.69558
1GCQ A Y 160;1GCQ A P 212;3.68448
1GCQ A Y 160;1GCQ A V 213;26.5422
1GCQ A V 161;1GCQ A Q 162;17.1562
1GCQ A V 161;1GCQ A D 181;0.437139
1GCQ A V 161;1GCQ A F 182;6.92386
1GCQ A V 161;1GCQ A I 183;28.4571
1GCQ A V 161;1GCQ A V 185;16.8553
1GCQ A V 161;1GCQ A W 194;8.07449
1GCQ A V 161;1GCQ A F 205;8.29822
1GCQ A V 161;1GCQ A R 207;3.15559
1GCQ A V 161;1GCQ A V 210;19.9217
1GCQ A V 161;1GCQ A T 211;7.6838
1GCQ A V 161;1GCQ A P 212;14.6925
1GCQ A V 161;1GCQ A V 213;7.51773
1GCQ A Q 162;1GCQ A A 163;24.741
1GCQ A Q 162;1GCQ A L 164;3.98462
1GCQ A Q 162;1GCQ A G 180;23.5231
1GCQ A Q 162;1GCQ A D 181;6.7385
1GCQ A Q 162;1GCQ A F 182;28.1732
1GCQ A Q 162;1GCQ A I 183;0.813363
1GCQ A Q 162;1GCQ A V 210;8.18487
1GCQ A Q 162;1GCQ A T 211;26.2823
1GCQ A Q 162;1GCQ A V 213;14.0632
1GCQ A A 163;1GCQ A L 164;20.5061
1GCQ A A 163;1GCQ A F 165;5.65787
1GCQ A A 163;1GCQ A F 177;12.6756
1GCQ A A 163;1GCQ A R 178;5.5525
1GCQ A A 163;1GCQ A R 179;8.83236
1GCQ A A 163;1GCQ A G 180;12.2399
1GCQ A A 163;1GCQ A D 181;12.8328
1GCQ A A 163;1GCQ A I 183;8.23282
1GCQ A A 163;1GCQ A Y 209;3.20954
1GCQ A A 163;1GCQ A V 210;6.14437
1GCQ A L 164;1GCQ A F 165;46.4586
1GCQ A L 164;1GCQ A R 179;29.499
1GCQ A L 164;1GCQ A N 208;5.90264
1GCQ A L 164;1GCQ A Y 209;11.7318
1GCQ A L 164;1GCQ A V 210;14.6768
1GCQ A L 164;1GCQ A T 211;24.2876
1GCQ A F 165;1GCQ A D 166;27.3009
1GCQ A F 165;1GCQ A F 177;8.68157
1GCQ A F 165;1GCQ A R 178;1.05579
1GCQ A F 165;1GCQ A R 179;18.8668
1GCQ A F 165;1GCQ A N 208;6.73705
1GCQ A F 165;1GCQ A Y 209;28.8101
1GCQ A D 166;1GCQ A F 167;22.8776
1GCQ A D 166;1GCQ A D 168;1.46022
1GCQ A D 166;1GCQ A F 177;4.42795
1GCQ A D 166;1GCQ A R 178;33.7952
1GCQ A D 166;1GCQ A R 179;17.8964
1GCQ A D 166;1GCQ A Y 209;10.9067
1GCQ A F 167;1GCQ A D 168;36.9851
1GCQ A F 167;1GCQ A P 169;9.72463
1GCQ A F 167;1GCQ A Q 170;7.75601
1GCQ A F 167;1GCQ A E 174;12.7906
1GCQ A F 167;1GCQ A L 175;10.149
1GCQ A F 167;1GCQ A G 176;10.5455
1GCQ A F 167;1GCQ A F 177;30.25
1GCQ A F 167;1GCQ A R 178;8.84606
1GCQ A F 167;1GCQ A W 193;11.191
1GCQ A F 167;1GCQ A M 204;2.12176
1GCQ A F 167;1GCQ A F 205;1.04111
1GCQ A F 167;1GCQ A P 206;16.7766
1GCQ A F 167;1GCQ A Y 209;12.6324
1GCQ A D 168;1GCQ A P 169;31.7031
1GCQ A D 168;1GCQ A Q 170;15.1395
1GCQ A D 168;1GCQ A R 178;22.9007
1GCQ A P 169;1GCQ A Q 170;26.6558
1GCQ A P 169;1GCQ A E 171;7.14841
1GCQ A P 169;1GCQ A E 174;22.104
1GCQ A P 169;1GCQ A L 175;2.8119
1GCQ A P 169;1GCQ A G 176;19.1086
1GCQ A Q 170;1GCQ A E 171;37.314
1GCQ A Q 170;1GCQ A E 174;13.4657
1GCQ A E 171;1GCQ A D 172;36.8601
1GCQ A E 171;1GCQ A G 173;0.437274
1GCQ A E 171;1GCQ A E 174;32.9656
1GCQ A D 172;1GCQ A G 173;35.158
1GCQ A D 172;1GCQ A E 174;4.59551
1GCQ A G 173;1GCQ A E 174;26.0276
1GCQ A G 173;1GCQ A T 202;1.51977
1GCQ A G 173;1GCQ A G 203;10.7624
1GCQ A G 173;1GCQ A M 204;14.5572
1GCQ A E 174;1GCQ A L 175;20.6165
1GCQ A E 174;1GCQ A G 176;0.0121442
1GCQ A E 174;1GCQ A W 193;21.0227
1GCQ A E 174;1GCQ A T 202;1.45702
1GCQ A E 174;1GCQ A G 203;2.68404
1GCQ A E 174;1GCQ A M 204;15.9772
1GCQ A L 175;1GCQ A G 176;26.2421
1GCQ A L 175;1GCQ A F 177;10.4717
1GCQ A L 175;1GCQ A I 183;8.33731
1GCQ A L 175;1GCQ A G 196;7.8066
1GCQ A L 175;1GCQ A A 197;4.12281
1GCQ A L 175;1GCQ A C 198;15.2613
1GCQ A L 175;1GCQ A H 199;9.37653
1GCQ A L 175;1GCQ A Q 201;14.7459
1GCQ A L 175;1GCQ A T 202;7.12598
1GCQ A L 175;1GCQ A G 203;15.6447
1GCQ A L 175;1GCQ A M 204;9.8199
1GCQ A L 175;1GCQ A F 205;16.1182
1GCQ A L 175;1GCQ A P 206;0.000129071
1GCQ A G 176;1GCQ A F 177;26.3011
1GCQ A G 176;1GCQ A C 198;1.73434
1GCQ A G 176;1GCQ A H 199;16.2538
1GCQ A F 177;1GCQ A R 178;32.9736
1GCQ A F 177;1GCQ A D 181;11.5215
1GCQ A F 177;1GCQ A I 183;17.5775
1GCQ A F 177;1GCQ A C 198;6.30388
1GCQ A F 177;1GCQ A H 199;5.52761
1GCQ A F 177;1GCQ A F 205;12.1254
1GCQ A F 177;1GCQ A P 206;8.29441
1GCQ A F 177;1GCQ A Y 209;13.5601
1GCQ A F 177;1GCQ A V 210;6.42892
1GCQ A R 178;1GCQ A R 179;25.3786
1GCQ A R 178;1GCQ A G 180;0.597809
1GCQ A R 178;1GCQ A D 181;26.9344
1GCQ A R 179;1GCQ A G 180;25.4451
1GCQ A R 179;1GCQ A D 181;3.38255
1GCQ A G 180;1GCQ A D 181;23.0499
1GCQ A G 180;1GCQ A F 182;8.27168
1GCQ A D 181;1GCQ A F 182;23.9434
1GCQ A D 181;1GCQ A I 183;7.74777
1GCQ A D 181;1GCQ A C 198;15.3121
1GCQ A D 181;1GCQ A H 199;5.14962
1GCQ A F 182;1GCQ A I 183;21.7953
1GCQ A F 182;1GCQ A H 184;0.217246
1GCQ A F 182;1GCQ A A 197;1.16334
1GCQ A F 182;1GCQ A C 198;13.3874
1GCQ A F 182;1GCQ A V 213;21.1849
1GCQ A I 183;1GCQ A H 184;22.7537
1GCQ A I 183;1GCQ A V 185;4.26071
1GCQ A I 183;1GCQ A G 196;4.02315
1GCQ A I 183;1GCQ A A 197;10.095
1GCQ A I 183;1GCQ A C 198;11.4
1GCQ A I 183;1GCQ A F 205;16.8024
1GCQ A I 183;1GCQ A V 210;8.60921
1GCQ A H 184;1GCQ A V 185;29.276
1GCQ A H 184;1GCQ A M 186;20.2365
1GCQ A H 184;1GCQ A G 196;5.2679
1GCQ A H 184;1GCQ A A 197;28.7039
1GCQ A H 184;1GCQ A F 205;0.00149453
1GCQ A V 185;1GCQ A M 186;24.9794
1GCQ A V 185;1GCQ A D 187;6.21709
1GCQ A V 185;1GCQ A N 188;14.2151
1GCQ A V 185;1GCQ A W 194;18.8903
1GCQ A V 185;1GCQ A K 195;4.07448
1GCQ A V 185;1GCQ A G 196;1.67399
1GCQ A V 185;1GCQ A F 205;9.69572
1GCQ A M 186;1GCQ A D 187;28.4015
1GCQ A M 186;1GCQ A K 195;35.0007
1GCQ A M 186;1GCQ A G 196;10.4915
1GCQ A M 186;1GCQ A A 197;10.2619
1GCQ A M 186;1GCQ A T 202;17.5301
1GCQ A D 187;1GCQ A N 188;23.617
1GCQ A D 187;1GCQ A S 189;28.8985
1GCQ A D 187;1GCQ A D 190;0.070145
1GCQ A D 187;1GCQ A W 193;0.391464
1GCQ A D 187;1GCQ A W 194;8.47498
1GCQ A D 187;1GCQ A K 195;31.4574
1GCQ A D 187;1GCQ A M 204;1.22607
1GCQ A N 188;1GCQ A S 189;28.3491
1GCQ A N 188;1GCQ A D 190;5.21175
1GCQ A N 188;1GCQ A W 194;38.6699
1GCQ A S 189;1GCQ A D 190;33.5905
1GCQ A S 189;1GCQ A P 191;7.01125
1GCQ A S 189;1GCQ A W 193;0.0225592
1GCQ A S 189;1GCQ A W 194;0.102065
1GCQ A D 190;1GCQ A P 191;37.2208
1GCQ A D 190;1GCQ A N 192;11.8913
1GCQ A D 190;1GCQ A W 193;30.0944
1GCQ A D 190;1GCQ A W 194;11.9309
1GCQ A D 190;1GCQ A M 204;4.25527
1GCQ A P 191;1GCQ A N 192;38.6878
1GCQ A P 191;1GCQ A W 194;7.22479
1GCQ A P 191;1GCQ A R 207;9.1932
1GCQ A N 192;1GCQ A W 193;29.6812
1GCQ A N 192;1GCQ A W 194;1.63081
1GCQ A N 192;1GCQ A F 205;0.157722
1GCQ A N 192;1GCQ A P 206;3.93129
1GCQ A N 192;1GCQ A R 207;15.6245
1GCQ A N 192;1GCQ A N 208;1.0047
1GCQ A W 193;1GCQ A W 194;24.212
1GCQ A W 193;1GCQ A M 204;33.5974
1GCQ A W 193;1GCQ A F 205;12.5082
1GCQ A W 193;1GCQ A P 206;15.8759
1GCQ A W 193;1GCQ A R 207;0.36526
1GCQ A W 194;1GCQ A K 195;17.3037
1GCQ A W 194;1GCQ A G 196;0.272482
1GCQ A W 194;1GCQ A G 203;0.915852
1GCQ A W 194;1GCQ A M 204;10.5874
1GCQ A W 194;1GCQ A F 205;36.9577
1GCQ A W 194;1GCQ A R 207;43.924
1GCQ A W 194;1GCQ A V 210;0.344028
1GCQ A W 194;1GCQ A P 212;0.214953
1GCQ A K 195;1GCQ A G 196;17.7556
1GCQ A K 195;1GCQ A T 202;17.3988
1GCQ A K 195;1GCQ A G 203;13.9116
1GCQ A K 195;1GCQ A M 204;22.2013
1GCQ A K 195;1GCQ A F 205;4.161
1GCQ A G 196;1GCQ A A 197;14.5639
1GCQ A G 196;1GCQ A Q 201;0.0216243
1GCQ A G 196;1GCQ A T 202;6.89984
1GCQ A G 196;1GCQ A G 203;10.8921
1GCQ A G 196;1GCQ A F 205;10.1883
1GCQ A A 197;1GCQ A C 198;23.8934
1GCQ A A 197;1GCQ A Q 201;8.54365
1GCQ A A 197;1GCQ A T 202;10.9082
1GCQ A C 198;1GCQ A H 199;44.9812
1GCQ A C 198;1GCQ A G 200;4.33349
1GCQ A C 198;1GCQ A Q 201;13.8257
1GCQ A H 199;1GCQ A G 200;26.5477
1GCQ A H 199;1GCQ A Q 201;29.8687
1GCQ A G 200;1GCQ A Q 201;32.4234
1GCQ A Q 201;1GCQ A T 202;31.3387
1GCQ A T 202;1GCQ A G 203;24.8158
1GCQ A G 203;1GCQ A M 204;19.1682
1GCQ A G 203;1GCQ A F 205;3.1619
1GCQ A M 204;1GCQ A F 205;17.0123
1GCQ A F 205;1GCQ A P 206;26.5165
1GCQ A F 205;1GCQ A R 207;10.4098
1GCQ A F 205;1GCQ A V 210;14.3026
1GCQ A P 206;1GCQ A R 207;15.6084
1GCQ A P 206;1GCQ A N 208;7.46108
1GCQ A P 206;1GCQ A Y 209;21.6482
1GCQ A P 206;1GCQ A V 210;4.29939
1GCQ A R 207;1GCQ A N 208;26.0677
1GCQ A R 207;1GCQ A Y 209;2.69632
1GCQ A R 207;1GCQ A V 210;34.1908
1GCQ A R 207;1GCQ A T 211;1.21383
1GCQ A R 207;1GCQ A P 212;23.6705
1GCQ A N 208;1GCQ A Y 209;25.1181
1GCQ A N 208;1GCQ A V 210;4.08671
1GCQ A Y 209;1GCQ A V 210;21.1972
1GCQ A V 210;1GCQ A T 211;22.1209
1GCQ A V 210;1GCQ A P 212;0.117904
1GCQ A T 211;1GCQ A P 212;41.4697
1GCQ A T 211;1GCQ A V 213;4.22469
1GCQ A P 212;1GCQ A V 213;31.0925
1GCQ B T 159;1GCQ B Y 160;42.3205
1GCQ B T 159;1GCQ B V 161;5.40521
1GCQ B T 159;1GCQ B I 183;0.121645
1GCQ B T 159;1GCQ B H 184;16.12
1GCQ B T 159;1GCQ B V 185;30.2511
1GCQ B T 159;1GCQ B N 188;7.74834
1GCQ B T 159;1GCQ B P 212;0.273902
1GCQ B T 159;1GCQ B N 214;5.45784
1GCQ B Y 160;1GCQ B V 161;21.1344
1GCQ B Y 160;1GCQ B F 182;18.4927
1GCQ B Y 160;1GCQ B I 183;10.9561
1GCQ B Y 160;1GCQ B H 184;36.6671
1GCQ B Y 160;1GCQ B V 185;1.90454
1GCQ B Y 160;1GCQ B P 212;2.66905
1GCQ B Y 160;1GCQ B V 213;28.037
1GCQ B Y 160;1GCQ B N 214;1.89405
1GCQ B V 161;1GCQ B Q 162;17.2125
1GCQ B V 161;1GCQ B A 163;0.224198
1GCQ B V 161;1GCQ B D 181;0.604059
1GCQ B V 161;1GCQ B F 182;6.40893
1GCQ B V 161;1GCQ B I 183;27.3874
1GCQ B V 161;1GCQ B V 185;17.7073
1GCQ B V 161;1GCQ B W 194;11.9639
1GCQ B V 161;1GCQ B F 205;4.8281
1GCQ B V 161;1GCQ B V 210;19.7845
1GCQ B V 161;1GCQ B T 211;9.30126
1GCQ B V 161;1GCQ B P 212;12.0807
1GCQ B V 161;1GCQ B V 213;7.40702
1GCQ B Q 162;1GCQ B A 163;21.8022
1GCQ B Q 162;1GCQ B L 164;8.28711
1GCQ B Q 162;1GCQ B G 180;14.5281
1GCQ B Q 162;1GCQ B D 181;5.62508
1GCQ B Q 162;1GCQ B F 182;26.5965
1GCQ B Q 162;1GCQ B I 183;0.052304
1GCQ B Q 162;1GCQ B V 210;7.75558
1GCQ B Q 162;1GCQ B T 211;26.2599
1GCQ B Q 162;1GCQ B P 212;0.000295171
1GCQ B Q 162;1GCQ B V 213;9.58153
1GCQ B A 163;1GCQ B L 164;16.8697
1GCQ B A 163;1GCQ B F 165;6.91772
1GCQ B A 163;1GCQ B F 177;12.5343
1GCQ B A 163;1GCQ B R 178;5.75883
1GCQ B A 163;1GCQ B R 179;5.89421
1GCQ B A 163;1GCQ B G 180;8.20305
1GCQ B A 163;1GCQ B D 181;13.878
1GCQ B A 163;1GCQ B I 183;8.69829
1GCQ B A 163;1GCQ B Y 209;2.87786
1GCQ B A 163;1GCQ B V 210;7.04533
1GCQ B L 164;1GCQ B F 165;30.822
1GCQ B L 164;1GCQ B R 179;17.1807
1GCQ B L 164;1GCQ B N 208;0.41956
1GCQ B L 164;1GCQ B Y 209;12.3111
1GCQ B L 164;1GCQ B V 210;5.42968
1GCQ B L 164;1GCQ B T 211;18.0085
1GCQ B F 165;1GCQ B D 166;27.6116
1GCQ B F 165;1GCQ B F 167;0.0341233
1GCQ B F 165;1GCQ B F 177;7.9852
1GCQ B F 165;1GCQ B R 178;1.12971
1GCQ B F 165;1GCQ B R 179;25.1314
1GCQ B F 165;1GCQ B N 208;0.420426
1GCQ B F 165;1GCQ B Y 209;22.0592
1GCQ B D 166;1GCQ B F 167;21.4708
1GCQ B D 166;1GCQ B D 168;1.24257
1GCQ B D 166;1GCQ B F 177;4.02664
1GCQ B D 166;1GCQ B R 178;32.5101
1GCQ B D 166;1GCQ B R 179;18.9296
1GCQ B D 166;1GCQ B Y 209;10.5093
1GCQ B F 167;1GCQ B D 168;25.1793
1GCQ B F 167;1GCQ B P 169;23.9645
1GCQ B F 167;1GCQ B E 174;10.5792
1GCQ B F 167;1GCQ B L 175;9.57241
1GCQ B F 167;1GCQ B G 176;5.92293
1GCQ B F 167;1GCQ B F 177;32.5032
1GCQ B F 167;1GCQ B R 178;6.17934
1GCQ B F 167;1GCQ B W 193;8.83062
1GCQ B F 167;1GCQ B M 204;3.29935
1GCQ B F 167;1GCQ B F 205;8.15698
1GCQ B F 167;1GCQ B P 206;17.951
1GCQ B F 167;1GCQ B Y 209;25.096
1GCQ B D 168;1GCQ B P 169;39.4597
1GCQ B D 168;1GCQ B Q 170;3.54509
1GCQ B D 168;1GCQ B G 176;1.7098
1GCQ B D 168;1GCQ B R 178;31.3974
1GCQ B P 169;1GCQ B Q 170;32.6203
1GCQ B P 169;1GCQ B E 171;6.88498
1GCQ B P 169;1GCQ B E 174;24.2632
1GCQ B P 169;1GCQ B L 175;4.31139
1GCQ B P 169;1GCQ B G 176;12.3946
1GCQ B Q 170;1GCQ B E 171;45.403
1GCQ B Q 170;1GCQ B D 172;4.64333
1GCQ B Q 170;1GCQ B E 174;1.08864
1GCQ B E 171;1GCQ B D 172;35.8865
1GCQ B E 171;1GCQ B G 173;0.180111
1GCQ B E 171;1GCQ B E 174;33.8233
1GCQ B D 172;1GCQ B G 173;34.1968
1GCQ B D 172;1GCQ B E 174;6.95434
1GCQ B G 173;1GCQ B E 174;24.52
1GCQ B G 173;1GCQ B T 202;3.22617
1GCQ B G 173;1GCQ B G 203;10.6453
1GCQ B G 173;1GCQ B M 204;14.7866
1GCQ B E 174;1GCQ B L 175;18.7187
1GCQ B E 174;1GCQ B G 176;4.1853
1GCQ B E 174;1GCQ B W 193;20.3887
1GCQ B E 174;1GCQ B T 202;2.61649
1GCQ B E 174;1GCQ B G 203;2.74738
1GCQ B E 174;1GCQ B M 204;14.4072
1GCQ B L 175;1GCQ B G 176;29.3646
1GCQ B L 175;1GCQ B F 177;15.3399
1GCQ B L 175;1GCQ B I 183;10.0731
1GCQ B L 175;1GCQ B G 196;9.98048
1GCQ B L 175;1GCQ B A 197;4.17156
1GCQ B L 175;1GCQ B C 198;18.2609
1GCQ B L 175;1GCQ B Q 201;12.2299
1GCQ B L 175;1GCQ B T 202;8.36873
1GCQ B L 175;1GCQ B G 203;15.1158
1GCQ B L 175;1GCQ B M 204;8.41668
1GCQ B L 175;1GCQ B F 205;14.1671
1GCQ B G 176;1GCQ B F 177;23.3374
1GCQ B G 176;1GCQ B R 178;2.51891
1GCQ B G 176;1GCQ B C 198;4.6504
1GCQ B G 176;1GCQ B H 199;9.70795
1GCQ B F 177;1GCQ B R 178;34.9426
1GCQ B F 177;1GCQ B D 181;8.77452
1GCQ B F 177;1GCQ B I 183;17.9728
1GCQ B F 177;1GCQ B C 198;7.50342
1GCQ B F 177;1GCQ B H 199;7.19288
1GCQ B F 177;1GCQ B F 205;15.359
1GCQ B F 177;1GCQ B P 206;0.700655
1GCQ B F 177;1GCQ B Y 209;14.0085
1GCQ B F 177;1GCQ B V 210;5.8013
1GCQ B R 178;1GCQ B R 179;23.9248
1GCQ B R 178;1GCQ B G 180;0.606025
1GCQ B R 178;1GCQ B D 181;26.5634
1GCQ B R 178;1GCQ B H 199;3.24715
1GCQ B R 179;1GCQ B G 180;22.3595
1GCQ B R 179;1GCQ B D 181;4.19242
1GCQ B G 180;1GCQ B D 181;24.2464
1GCQ B G 180;1GCQ B F 182;11.8544
1GCQ B D 181;1GCQ B F 182;24.9475
1GCQ B D 181;1GCQ B I 183;7.11748
1GCQ B D 181;1GCQ B C 198;10.1127
1GCQ B D 181;1GCQ B H 199;19.9244
1GCQ B F 182;1GCQ B I 183;21.0508
1GCQ B F 182;1GCQ B H 184;0.721042
1GCQ B F 182;1GCQ B A 197;2.01822
1GCQ B F 182;1GCQ B C 198;11.6173
1GCQ B F 182;1GCQ B V 213;20.7158
1GCQ B I 183;1GCQ B H 184;20.7739
1GCQ B I 183;1GCQ B V 185;7.51589
1GCQ B I 183;1GCQ B G 196;5.37209
1GCQ B I 183;1GCQ B A 197;9.91677
1GCQ B I 183;1GCQ B C 198;10.2053
1GCQ B I 183;1GCQ B F 205;11.9723
1GCQ B I 183;1GCQ B V 210;8.95179
1GCQ B H 184;1GCQ B V 185;28.1231
1GCQ B H 184;1GCQ B M 186;13.8795
1GCQ B H 184;1GCQ B G 196;4.13293
1GCQ B H 184;1GCQ B A 197;27.7477
1GCQ B V 185;1GCQ B M 186;24.2688
1GCQ B V 185;1GCQ B D 187;7.41561
1GCQ B V 185;1GCQ B N 188;17.1252
1GCQ B V 185;1GCQ B W 194;15.8704
1GCQ B V 185;1GCQ B K 195;5.52699
1GCQ B V 185;1GCQ B G 196;2.96582
1GCQ B V 185;1GCQ B F 205;5.07338
1GCQ B M 186;1GCQ B D 187;28.7941
1GCQ B M 186;1GCQ B K 195;36.1499
1GCQ B M 186;1GCQ B G 196;9.9375
1GCQ B M 186;1GCQ B A 197;11.415
1GCQ B M 186;1GCQ B T 202;18.0115
1GCQ B D 187;1GCQ B N 188;22.833
1GCQ B D 187;1GCQ B S 189;25.3172
1GCQ B D 187;1GCQ B D 190;0.737388
1GCQ B D 187;1GCQ B W 193;1.32621
1GCQ B D 187;1GCQ B W 194;8.74018
1GCQ B D 187;1GCQ B K 195;29.546
1GCQ B D 187;1GCQ B M 204;1.32632
1GCQ B N 188;1GCQ B S 189;29.4047
1GCQ B N 188;1GCQ B D 190;6.13454
1GCQ B N 188;1GCQ B P 191;0.470867
1GCQ B N 188;1GCQ B W 193;0.023969
1GCQ B N 188;1GCQ B W 194;35.0527
1GCQ B S 189;1GCQ B D 190;32.1739
1GCQ B S 189;1GCQ B P 191;8.09774
1GCQ B D 190;1GCQ B P 191;33.5832
1GCQ B D 190;1GCQ B N 192;16.5408
1GCQ B D 190;1GCQ B W 193;28.1677
1GCQ B D 190;1GCQ B W 194;11.6477
1GCQ B D 190;1GCQ B M 204;0.705664
1GCQ B P 191;1GCQ B N 192;41.6486
1GCQ B P 191;1GCQ B W 194;4.06561
1GCQ B P 191;1GCQ B R 207;15.4886
1GCQ B N 192;1GCQ B W 193;34.5534
1GCQ B N 192;1GCQ B W 194;0.746727
1GCQ B N 192;1GCQ B P 206;6.6979
1GCQ B N 192;1GCQ B R 207;16.6099
1GCQ B W 193;1GCQ B W 194;24.0284
1GCQ B W 193;1GCQ B M 204;35.8034
1GCQ B W 193;1GCQ B F 205;15.1274
1GCQ B W 193;1GCQ B P 206;26.5638
1GCQ B W 193;1GCQ B R 207;0.923079
1GCQ B W 194;1GCQ B K 195;18.1664
1GCQ B W 194;1GCQ B G 203;0.419883
1GCQ B W 194;1GCQ B M 204;11.2958
1GCQ B W 194;1GCQ B F 205;36.509
1GCQ B W 194;1GCQ B R 207;47.3152
1GCQ B W 194;1GCQ B V 210;9.422
1GCQ B K 195;1GCQ B G 196;18.398
1GCQ B K 195;1GCQ B T 202;15.417
1GCQ B K 195;1GCQ B G 203;15.1469
1GCQ B K 195;1GCQ B M 204;23.2503
1GCQ B K 195;1GCQ B F 205;4.05724
1GCQ B G 196;1GCQ B A 197;14.4132
1GCQ B G 196;1GCQ B T 202;7.00605
1GCQ B G 196;1GCQ B G 203;10.6037
1GCQ B G 196;1GCQ B F 205;8.43315
1GCQ B A 197;1GCQ B C 198;24.5125
1GCQ B A 197;1GCQ B Q 201;6.60862
1GCQ B A 197;1GCQ B T 202;11.1214
1GCQ B C 198;1GCQ B H 199;42.1882
1GCQ B C 198;1GCQ B G 200;4.54279
1GCQ B C 198;1GCQ B Q 201;16.521
1GCQ B H 199;1GCQ B G 200;26.7614
1GCQ B H 199;1GCQ B Q 201;16.2777
1GCQ B G 200;1GCQ B Q 201;32.9711
1GCQ B Q 201;1GCQ B T 202;33.3893
1GCQ B T 202;1GCQ B G 203;23.4325
1GCQ B G 203;1GCQ B M 204;18.4029
1GCQ B G 203;1GCQ B F 205;2.81134
1GCQ B M 204;1GCQ B F 205;17.6047
1GCQ B F 205;1GCQ B P 206;27.929
1GCQ B F 205;1GCQ B R 207;7.25831
1GCQ B F 205;1GCQ B Y 209;1.71562
1GCQ B F 205;1GCQ B V 210;16.0687
1GCQ B P 206;1GCQ B R 207;17.0185
1GCQ B P 206;1GCQ B N 208;7.07509
1GCQ B P 206;1GCQ B Y 209;30.0019
1GCQ B P 206;1GCQ B V 210;0.688731
1GCQ B R 207;1GCQ B N 208;33.2853
1GCQ B R 207;1GCQ B Y 209;2.75811
1GCQ B R 207;1GCQ B V 210;22.0602
1GCQ B R 207;1GCQ B T 211;0.687966
1GCQ B R 207;1GCQ B P 212;6.60298
1GCQ B N 208;1GCQ B Y 209;18.9079
1GCQ B N 208;1GCQ B V 210;2.54602
1GCQ B Y 209;1GCQ B V 210;23.4873
1GCQ B V 210;1GCQ B T 211;19.1898
1GCQ B T 211;1GCQ B P 212;36.4303
1GCQ B T 211;1GCQ B V 213;1.92763
1GCQ B P 212;1GCQ B V 213;21.5241
1GCQ B P 212;1GCQ B N 214;17.3888
1GCQ B P 212;1GCQ B R 215;27.7637
1GCQ B V 213;1GCQ B N 214;28.9149
1GCQ B V 213;1GCQ B R 215;14.4547
1GCQ B N 214;1GCQ B R 215;41.3824
