V1;V2;Weight
1GUA A M 1;1GUA A R 2;30.7757
1GUA A M 1;1GUA A E 3;5.96716
1GUA A M 1;1GUA A Q 43;19.5156
1GUA A M 1;1GUA A Q 50;24.776
1GUA A M 1;1GUA A C 51;9.17969
1GUA A M 1;1GUA A M 52;26.1006
1GUA A R 2;1GUA A E 3;31.7943
1GUA A R 2;1GUA A Y 4;33.0111
1GUA A R 2;1GUA A Q 49;6.58362
1GUA A R 2;1GUA A Q 50;1.89447
1GUA A R 2;1GUA A C 51;12.0443
1GUA A R 2;1GUA A M 52;9.61433
1GUA A R 2;1GUA A Q 76;4.5483
1GUA A R 2;1GUA A I 165;16.0364
1GUA A R 2;1GUA A N 166;17.8159
1GUA A E 3;1GUA A Y 4;26.547
1GUA A E 3;1GUA A K 5;13.1693
1GUA A E 3;1GUA A R 41;19.0039
1GUA A E 3;1GUA A M 52;22.8082
1GUA A E 3;1GUA A L 53;1.28414
1GUA A E 3;1GUA A E 54;19.0137
1GUA A E 3;1GUA A Q 76;10.841
1GUA A Y 4;1GUA A K 5;19.0017
1GUA A Y 4;1GUA A L 6;11.3176
1GUA A Y 4;1GUA A Q 49;5.16677
1GUA A Y 4;1GUA A C 51;16.2875
1GUA A Y 4;1GUA A M 52;9.37999
1GUA A Y 4;1GUA A L 53;17.1749
1GUA A Y 4;1GUA A E 54;11.4977
1GUA A Y 4;1GUA A Q 76;8.88461
1GUA A Y 4;1GUA A V 162;24.3784
1GUA A Y 4;1GUA A I 165;21.7384
1GUA A Y 4;1GUA A N 166;16.2287
1GUA A K 5;1GUA A L 6;24.4447
1GUA A K 5;1GUA A V 7;1.44243
1GUA A K 5;1GUA A E 54;34.6787
1GUA A K 5;1GUA A N 74;29.5213
1GUA A K 5;1GUA A G 75;10.1051
1GUA A K 5;1GUA A Q 76;31.1226
1GUA A K 5;1GUA A G 77;4.33724
1GUA A K 5;1GUA A I 165;0.61748
1GUA A L 6;1GUA A V 7;25.8989
1GUA A L 6;1GUA A V 8;2.25502
1GUA A L 6;1GUA A L 53;13.028
1GUA A L 6;1GUA A E 54;13.3631
1GUA A L 6;1GUA A I 55;18.2396
1GUA A L 6;1GUA A L 56;10.6851
1GUA A L 6;1GUA A Q 76;0.0814287
1GUA A L 6;1GUA A G 77;13.9275
1GUA A L 6;1GUA A F 158;18.4058
1GUA A L 6;1GUA A L 161;22.6763
1GUA A L 6;1GUA A V 162;6.55607
1GUA A L 6;1GUA A I 165;10.6201
1GUA A V 7;1GUA A V 8;23.1669
1GUA A V 7;1GUA A L 9;17.2395
1GUA A V 7;1GUA A I 55;0.17328
1GUA A V 7;1GUA A L 56;22.8419
1GUA A V 7;1GUA A T 58;8.89867
1GUA A V 7;1GUA A Y 71;17.0058
1GUA A V 7;1GUA A M 72;1.78048
1GUA A V 7;1GUA A G 75;11.6296
1GUA A V 7;1GUA A G 77;8.32626
1GUA A V 7;1GUA A F 78;21.4638
1GUA A V 7;1GUA A A 79;9.78264
1GUA A V 7;1GUA A L 161;0.584665
1GUA A V 8;1GUA A L 9;18.6704
1GUA A V 8;1GUA A K 16;23.5199
1GUA A V 8;1GUA A L 19;2.77299
1GUA A V 8;1GUA A T 20;9.37803
1GUA A V 8;1GUA A I 55;11.5143
1GUA A V 8;1GUA A L 56;9.84014
1GUA A V 8;1GUA A D 57;9.51101
1GUA A V 8;1GUA A T 58;12.3721
1GUA A V 8;1GUA A A 79;17.066
1GUA A V 8;1GUA A V 81;10.2386
1GUA A V 8;1GUA A F 158;13.6795
1GUA A L 9;1GUA A G 10;20.0788
1GUA A L 9;1GUA A K 16;7.9981
1GUA A L 9;1GUA A T 58;17.6264
1GUA A L 9;1GUA A R 68;15.2088
1GUA A L 9;1GUA A Y 71;1.32539
1GUA A L 9;1GUA A M 72;15.7006
1GUA A L 9;1GUA A F 78;10.3551
1GUA A L 9;1GUA A A 79;10.7335
1GUA A L 9;1GUA A L 80;15.8348
1GUA A L 9;1GUA A V 81;10.012
1GUA A L 9;1GUA A L 93;0.596916
1GUA A L 9;1GUA A L 96;19.3819
1GUA A L 9;1GUA A I 100;9.38933
1GUA A G 10;1GUA A S 11;23.6263
1GUA A G 10;1GUA A V 14;3.11556
1GUA A G 10;1GUA A K 16;14.1937
1GUA A G 10;1GUA A T 58;2.80955
1GUA A G 10;1GUA A A 59;0.178747
1GUA A G 10;1GUA A G 60;9.4134
1GUA A G 10;1GUA A V 81;7.40231
1GUA A G 10;1GUA A L 93;7.00504
1GUA A G 10;1GUA A L 96;12.9487
1GUA A S 11;1GUA A G 12;24.9997
1GUA A S 11;1GUA A G 13;0.609342
1GUA A S 11;1GUA A V 14;16.7075
1GUA A S 11;1GUA A K 16;6.4962
1GUA A S 11;1GUA A G 60;9.55398
1GUA A S 11;1GUA A V 81;2.27301
1GUA A S 11;1GUA A T 89;18.3871
1GUA A S 11;1GUA A D 92;23.3777
1GUA A S 11;1GUA A L 93;2.74588
1GUA A S 11;1GUA A L 96;0.935711
1GUA A G 12;1GUA A G 13;23.7256
1GUA A G 12;1GUA A V 14;6.5324
1GUA A G 12;1GUA A K 16;3.24441
1GUA A G 12;1GUA A Y 32;9.79181
1GUA A G 12;1GUA A G 60;14.0604
1GUA A G 12;1GUA A T 61;12.8145
1GUA A G 12;1GUA A T 89;7.01214
1GUA A G 13;1GUA A V 14;20.0157
1GUA A G 13;1GUA A G 15;7.89527
1GUA A G 13;1GUA A K 16;3.60358
1GUA A G 13;1GUA A Y 32;27.1974
1GUA A G 13;1GUA A S 83;1.10973
1GUA A G 13;1GUA A K 117;17.5683
1GUA A V 14;1GUA A G 15;20.3275
1GUA A V 14;1GUA A K 16;15.3014
1GUA A V 14;1GUA A V 81;19.5579
1GUA A V 14;1GUA A Y 82;8.73643
1GUA A V 14;1GUA A S 83;16.7959
1GUA A V 14;1GUA A T 89;14.7526
1GUA A V 14;1GUA A N 116;9.93796
1GUA A V 14;1GUA A K 117;9.92704
1GUA A G 15;1GUA A K 16;22.5914
1GUA A G 15;1GUA A S 17;2.72635
1GUA A G 15;1GUA A A 18;17.9214
1GUA A G 15;1GUA A L 19;12.8678
1GUA A G 15;1GUA A V 81;1.52132
1GUA A G 15;1GUA A N 116;9.54394
1GUA A G 15;1GUA A K 117;4.78078
1GUA A G 15;1GUA A A 148;0.0272022
1GUA A K 16;1GUA A S 17;22.1347
1GUA A K 16;1GUA A A 18;0.463363
1GUA A K 16;1GUA A L 19;10.1062
1GUA A K 16;1GUA A T 20;11.6541
1GUA A K 16;1GUA A T 35;0.00418392
1GUA A K 16;1GUA A D 57;11.9359
1GUA A K 16;1GUA A T 58;17.0793
1GUA A K 16;1GUA A A 59;0.375357
1GUA A K 16;1GUA A G 60;11.2468
1GUA A K 16;1GUA A V 81;10.3214
1GUA A S 17;1GUA A A 18;23.9731
1GUA A S 17;1GUA A L 19;1.23629
1GUA A S 17;1GUA A T 20;8.99063
1GUA A S 17;1GUA A V 21;19.8656
1GUA A S 17;1GUA A V 29;6.00071
1GUA A S 17;1GUA A D 33;3.15646
1GUA A S 17;1GUA A T 35;15.4613
1GUA A S 17;1GUA A Y 40;2.07343
1GUA A S 17;1GUA A D 57;18.7048
1GUA A A 18;1GUA A L 19;15.3783
1GUA A A 18;1GUA A T 20;0.54712
1GUA A A 18;1GUA A V 21;4.07311
1GUA A A 18;1GUA A Q 22;11.9856
1GUA A A 18;1GUA A I 27;1.03745
1GUA A A 18;1GUA A F 28;10.8665
1GUA A A 18;1GUA A V 29;21.9656
1GUA A A 18;1GUA A N 116;0.990985
1GUA A A 18;1GUA A A 148;16.3038
1GUA A L 19;1GUA A T 20;18.4036
1GUA A L 19;1GUA A V 21;0.582689
1GUA A L 19;1GUA A Q 22;6.51313
1GUA A L 19;1GUA A F 23;7.26517
1GUA A L 19;1GUA A V 81;15.1799
1GUA A L 19;1GUA A V 114;4.62583
1GUA A L 19;1GUA A N 116;15.6027
1GUA A L 19;1GUA A S 146;9.15502
1GUA A L 19;1GUA A S 147;1.86258
1GUA A L 19;1GUA A A 148;14.9879
1GUA A L 19;1GUA A V 154;19.8543
1GUA A L 19;1GUA A I 157;16.5528
1GUA A L 19;1GUA A F 158;11.5697
1GUA A T 20;1GUA A V 21;19.2253
1GUA A T 20;1GUA A Q 22;1.07109
1GUA A T 20;1GUA A F 23;9.00724
1GUA A T 20;1GUA A V 24;15.7641
1GUA A T 20;1GUA A Y 40;17.8229
1GUA A T 20;1GUA A I 55;17.0968
1GUA A T 20;1GUA A D 57;11.3951
1GUA A T 20;1GUA A F 158;11.1104
1GUA A V 21;1GUA A Q 22;17.6112
1GUA A V 21;1GUA A F 23;0.920851
1GUA A V 21;1GUA A V 24;11.0452
1GUA A V 21;1GUA A Q 25;11.7136
1GUA A V 21;1GUA A G 26;2.65862
1GUA A V 21;1GUA A I 27;18.4949
1GUA A V 21;1GUA A V 29;18.2742
1GUA A V 21;1GUA A Y 40;16.2206
1GUA A V 21;1GUA A D 57;0.0958783
1GUA A Q 22;1GUA A F 23;22.6862
1GUA A Q 22;1GUA A V 24;0.602327
1GUA A Q 22;1GUA A Q 25;0.779307
1GUA A Q 22;1GUA A G 26;25.281
1GUA A Q 22;1GUA A I 27;14.2968
1GUA A Q 22;1GUA A F 28;14.9726
1GUA A Q 22;1GUA A A 148;17.8997
1GUA A Q 22;1GUA A K 149;1.74222
1GUA A Q 22;1GUA A K 151;29.1274
1GUA A Q 22;1GUA A V 154;16.2355
1GUA A Q 22;1GUA A N 155;0.0171729
1GUA A F 23;1GUA A V 24;30.3533
1GUA A F 23;1GUA A Q 25;0.8084
1GUA A F 23;1GUA A G 26;1.02088
1GUA A F 23;1GUA A K 42;12.961
1GUA A F 23;1GUA A V 44;14.1808
1GUA A F 23;1GUA A L 53;12.571
1GUA A F 23;1GUA A I 55;13.0331
1GUA A F 23;1GUA A V 154;13.1078
1GUA A F 23;1GUA A N 155;25.2464
1GUA A F 23;1GUA A F 158;28.0718
1GUA A F 23;1GUA A Y 159;15.5417
1GUA A V 24;1GUA A Q 25;35.2273
1GUA A V 24;1GUA A G 26;0.687408
1GUA A V 24;1GUA A Y 40;21.8245
1GUA A V 24;1GUA A R 41;2.73605
1GUA A V 24;1GUA A K 42;37.4637
1GUA A V 24;1GUA A I 55;9.30646
1GUA A Q 25;1GUA A G 26;24.6479
1GUA A Q 25;1GUA A I 27;24.4639
1GUA A Q 25;1GUA A K 42;6.87843
1GUA A G 26;1GUA A I 27;26.758
1GUA A G 26;1GUA A F 28;1.20024
1GUA A G 26;1GUA A K 151;7.83245
1GUA A I 27;1GUA A F 28;33.1895
1GUA A I 27;1GUA A V 29;10.3078
1GUA A F 28;1GUA A V 29;33.3091
1GUA A F 28;1GUA A D 30;30.8416
1GUA A F 28;1GUA A A 148;12.9029
1GUA A F 28;1GUA A K 149;43.6156
1GUA A F 28;1GUA A K 151;0.0974156
1GUA A V 29;1GUA A D 30;20.6566
1GUA A V 29;1GUA A E 31;29.5954
1GUA A V 29;1GUA A D 33;0.811841
1GUA A D 30;1GUA A E 31;45.5208
1GUA A D 30;1GUA A Y 32;1.88732
1GUA A E 31;1GUA A Y 32;31.3346
1GUA A E 31;1GUA A D 33;16.3727
1GUA A Y 32;1GUA A D 33;25.0106
1GUA A Y 32;1GUA A P 34;33.6921
1GUA A Y 32;1GUA A T 61;5.42521
1GUA A D 33;1GUA A P 34;37.0303
1GUA A D 33;1GUA A T 35;8.69033
1GUA A P 34;1GUA A T 35;32.1359
1GUA A P 34;1GUA A I 36;8.95909
1GUA A P 34;1GUA A T 61;12.2359
1GUA A T 35;1GUA A I 36;28.8946
1GUA A T 35;1GUA A E 37;6.70214
1GUA A T 35;1GUA A D 38;17.9851
1GUA A T 35;1GUA A D 57;14.9443
1GUA A T 35;1GUA A T 58;10.2217
1GUA A T 35;1GUA A A 59;21.1584
1GUA A T 35;1GUA A G 60;2.54877
1GUA A T 35;1GUA A T 61;4.84618
1GUA A I 36;1GUA A E 37;32.3091
1GUA A I 36;1GUA A D 38;1.79533
1GUA A I 36;1GUA A A 59;15.4877
1GUA A I 36;1GUA A E 62;3.99179
1GUA A E 37;1GUA A D 38;29.6905
1GUA A E 37;1GUA A L 56;7.22619
1GUA A E 37;1GUA A D 57;3.10624
1GUA A E 37;1GUA A T 58;0.268957
1GUA A E 37;1GUA A A 59;0.163644
1GUA A E 37;1GUA A Y 71;15.6063
1GUA A D 38;1GUA A S 39;19.0317
1GUA A D 38;1GUA A Y 40;17.9236
1GUA A D 38;1GUA A I 55;0.172125
1GUA A D 38;1GUA A L 56;9.52542
1GUA A D 38;1GUA A D 57;25.7717
1GUA A S 39;1GUA A Y 40;24.2385
1GUA A S 39;1GUA A R 41;1.34527
1GUA A S 39;1GUA A E 54;12.2308
1GUA A S 39;1GUA A I 55;6.20544
1GUA A S 39;1GUA A L 56;16.6817
1GUA A Y 40;1GUA A R 41;25.8073
1GUA A Y 40;1GUA A L 53;0.638137
1GUA A Y 40;1GUA A E 54;5.22759
1GUA A Y 40;1GUA A I 55;27.9598
1GUA A Y 40;1GUA A D 57;15.0864
1GUA A R 41;1GUA A K 42;25.4989
1GUA A R 41;1GUA A M 52;24.0411
1GUA A R 41;1GUA A L 53;9.56291
1GUA A R 41;1GUA A E 54;20.4107
1GUA A R 41;1GUA A I 55;0.53008
1GUA A K 42;1GUA A Q 43;31.3236
1GUA A K 42;1GUA A V 44;22.6506
1GUA A K 42;1GUA A C 51;1.22171
1GUA A K 42;1GUA A M 52;10.7463
1GUA A K 42;1GUA A L 53;20.4724
1GUA A K 42;1GUA A I 55;1.5914
1GUA A Q 43;1GUA A V 44;32.3886
1GUA A Q 43;1GUA A E 45;1.5058
1GUA A Q 43;1GUA A Q 50;24.3249
1GUA A Q 43;1GUA A C 51;7.75077
1GUA A Q 43;1GUA A M 52;17.9214
1GUA A V 44;1GUA A E 45;29.0556
1GUA A V 44;1GUA A V 46;9.86976
1GUA A V 44;1GUA A Q 49;0.566886
1GUA A V 44;1GUA A Q 50;5.38804
1GUA A V 44;1GUA A C 51;23.2847
1GUA A V 44;1GUA A L 53;18.2033
1GUA A V 44;1GUA A Y 159;10.8743
1GUA A E 45;1GUA A V 46;23.6331
1GUA A E 45;1GUA A D 47;2.04126
1GUA A E 45;1GUA A C 48;21.0127
1GUA A E 45;1GUA A Q 49;11.1458
1GUA A E 45;1GUA A Q 50;17.5857
1GUA A E 45;1GUA A C 51;0.138814
1GUA A E 45;1GUA A Y 159;11.7523
1GUA A V 46;1GUA A D 47;35.1565
1GUA A V 46;1GUA A C 48;1.65812
1GUA A V 46;1GUA A Q 49;20.8902
1GUA A V 46;1GUA A C 51;12.6426
1GUA A V 46;1GUA A L 53;2.09424
1GUA A V 46;1GUA A Y 159;26.1388
1GUA A V 46;1GUA A V 162;22.3401
1GUA A V 46;1GUA A R 163;12.7598
1GUA A V 46;1GUA A N 166;2.4152
1GUA A D 47;1GUA A C 48;35.4491
1GUA A D 47;1GUA A Q 49;8.72052
1GUA A D 47;1GUA A R 163;32.526
1GUA A D 47;1GUA A N 166;0.841342
1GUA A C 48;1GUA A Q 49;27.5317
1GUA A C 48;1GUA A Q 50;0.483047
1GUA A Q 49;1GUA A Q 50;31.2752
1GUA A Q 49;1GUA A C 51;11.8882
1GUA A Q 49;1GUA A N 166;2.87187
1GUA A Q 50;1GUA A C 51;20.4091
1GUA A C 51;1GUA A M 52;17.8854
1GUA A C 51;1GUA A L 53;8.78918
1GUA A C 51;1GUA A V 162;5.57804
1GUA A M 52;1GUA A L 53;25.3464
1GUA A M 52;1GUA A E 54;0.418372
1GUA A L 53;1GUA A E 54;18.8329
1GUA A L 53;1GUA A I 55;15.454
1GUA A L 53;1GUA A F 158;8.55277
1GUA A L 53;1GUA A Y 159;2.43461
1GUA A L 53;1GUA A V 162;15.2094
1GUA A E 54;1GUA A I 55;22.6335
1GUA A E 54;1GUA A L 56;6.30898
1GUA A I 55;1GUA A L 56;21.6389
1GUA A I 55;1GUA A D 57;5.91067
1GUA A I 55;1GUA A F 158;17.3348
1GUA A L 56;1GUA A D 57;23.9058
1GUA A L 56;1GUA A T 58;12.1272
1GUA A L 56;1GUA A Y 71;34.5615
1GUA A D 57;1GUA A T 58;29.4557
1GUA A D 57;1GUA A A 59;0.0150612
1GUA A T 58;1GUA A A 59;30.1303
1GUA A T 58;1GUA A G 60;2.36413
1GUA A T 58;1GUA A E 62;3.51524
1GUA A T 58;1GUA A R 68;4.7274
1GUA A T 58;1GUA A Y 71;15.2302
1GUA A A 59;1GUA A G 60;25.3419
1GUA A A 59;1GUA A T 61;9.88258
1GUA A A 59;1GUA A E 62;32.332
1GUA A G 60;1GUA A T 61;27.8135
1GUA A G 60;1GUA A E 62;2.88682
1GUA A T 61;1GUA A E 62;31.2415
1GUA A E 62;1GUA A Q 63;33.1085
1GUA A E 62;1GUA A F 64;19.4501
1GUA A E 62;1GUA A T 65;25.4246
1GUA A E 62;1GUA A M 67;0.20939
1GUA A E 62;1GUA A R 68;11.4091
1GUA A E 62;1GUA A Y 71;2.96902
1GUA A Q 63;1GUA A F 64;64.3777
1GUA A Q 63;1GUA A T 65;5.69966
1GUA A F 64;1GUA A T 65;24.7857
1GUA A F 64;1GUA A A 66;9.97882
1GUA A F 64;1GUA A M 67;3.00696
1GUA A T 65;1GUA A A 66;27.636
1GUA A T 65;1GUA A M 67;4.42372
1GUA A T 65;1GUA A R 68;40.2523
1GUA A T 65;1GUA A D 69;1.90625
1GUA A T 65;1GUA A Q 99;2.13581
1GUA A A 66;1GUA A M 67;26.9791
1GUA A A 66;1GUA A R 68;1.71619
1GUA A A 66;1GUA A D 69;12.725
1GUA A A 66;1GUA A L 70;8.57034
1GUA A M 67;1GUA A R 68;18.0953
1GUA A M 67;1GUA A D 69;1.68219
1GUA A M 67;1GUA A L 70;36.3159
1GUA A M 67;1GUA A Y 71;42.6425
1GUA A R 68;1GUA A D 69;18.2492
1GUA A R 68;1GUA A L 70;1.10371
1GUA A R 68;1GUA A Y 71;19.7701
1GUA A R 68;1GUA A M 72;25.3548
1GUA A R 68;1GUA A D 95;1.34469
1GUA A R 68;1GUA A L 96;23.6408
1GUA A R 68;1GUA A Q 99;28.8011
1GUA A D 69;1GUA A L 70;26.0677
1GUA A D 69;1GUA A Y 71;0.409603
1GUA A D 69;1GUA A M 72;9.6644
1GUA A D 69;1GUA A K 73;8.32083
1GUA A D 69;1GUA A Q 99;14.6579
1GUA A D 69;1GUA A R 102;23.0057
1GUA A D 69;1GUA A V 103;22.391
1GUA A L 70;1GUA A Y 71;23.4382
1GUA A L 70;1GUA A M 72;1.18784
1GUA A L 70;1GUA A K 73;32.5254
1GUA A L 70;1GUA A N 74;18.1467
1GUA A Y 71;1GUA A M 72;20.1959
1GUA A Y 71;1GUA A K 73;0.801563
1GUA A Y 71;1GUA A N 74;6.92503
1GUA A Y 71;1GUA A G 75;8.22727
1GUA A Y 71;1GUA A F 78;0.913866
1GUA A M 72;1GUA A K 73;16.0952
1GUA A M 72;1GUA A N 74;1.01984
1GUA A M 72;1GUA A G 75;4.63787
1GUA A M 72;1GUA A F 78;18.7585
1GUA A M 72;1GUA A L 96;9.56724
1GUA A M 72;1GUA A Q 99;19.8158
1GUA A M 72;1GUA A I 100;21.0915
1GUA A M 72;1GUA A V 103;15.2422
1GUA A M 72;1GUA A K 104;11.4911
1GUA A K 73;1GUA A N 74;41.1136
1GUA A K 73;1GUA A G 75;1.42346
1GUA A K 73;1GUA A V 103;17.1715
1GUA A K 73;1GUA A K 104;14.7031
1GUA A N 74;1GUA A G 75;23.5844
1GUA A N 74;1GUA A Q 76;4.74844
1GUA A N 74;1GUA A K 104;0.0275608
1GUA A G 75;1GUA A Q 76;23.2015
1GUA A G 75;1GUA A G 77;1.14456
1GUA A G 75;1GUA A F 78;12.4811
1GUA A G 75;1GUA A K 104;12.9246
1GUA A Q 76;1GUA A G 77;18.4596
1GUA A Q 76;1GUA A F 78;4.28157
1GUA A Q 76;1GUA A K 104;3.65568
1GUA A Q 76;1GUA A V 109;3.15239
1GUA A Q 76;1GUA A P 110;13.5523
1GUA A Q 76;1GUA A I 165;28.5747
1GUA A G 77;1GUA A F 78;24.7467
1GUA A G 77;1GUA A V 109;0.00422503
1GUA A G 77;1GUA A P 110;9.23521
1GUA A G 77;1GUA A L 161;9.55616
1GUA A G 77;1GUA A I 165;6.09176
1GUA A F 78;1GUA A A 79;16.9826
1GUA A F 78;1GUA A L 80;9.50093
1GUA A F 78;1GUA A I 100;21.8825
1GUA A F 78;1GUA A K 104;8.80731
1GUA A F 78;1GUA A V 109;12.4046
1GUA A F 78;1GUA A P 110;9.39634
1GUA A F 78;1GUA A M 111;14.7238
1GUA A F 78;1GUA A I 112;6.59261
1GUA A F 78;1GUA A L 161;11.2286
1GUA A A 79;1GUA A L 80;19.4371
1GUA A A 79;1GUA A V 81;10.8703
1GUA A A 79;1GUA A I 112;10.624
1GUA A A 79;1GUA A V 114;3.91345
1GUA A A 79;1GUA A I 157;10.6959
1GUA A A 79;1GUA A F 158;3.71269
1GUA A A 79;1GUA A L 161;10.7616
1GUA A L 80;1GUA A V 81;17.6725
1GUA A L 80;1GUA A Y 82;0.48725
1GUA A L 80;1GUA A L 93;21.5333
1GUA A L 80;1GUA A L 96;9.86991
1GUA A L 80;1GUA A R 97;10.0356
1GUA A L 80;1GUA A I 100;9.38592
1GUA A L 80;1GUA A M 111;16.4635
1GUA A L 80;1GUA A I 112;10.4548
1GUA A L 80;1GUA A L 113;13.2188
1GUA A L 80;1GUA A V 114;10.1044
1GUA A L 80;1GUA A W 138;12.7567
1GUA A V 81;1GUA A Y 82;22.0148
1GUA A V 81;1GUA A T 89;1.25373
1GUA A V 81;1GUA A L 93;10.8972
1GUA A V 81;1GUA A V 114;20.6814
1GUA A V 81;1GUA A N 116;8.22261
1GUA A V 81;1GUA A I 157;1.21258
1GUA A Y 82;1GUA A S 83;24.6137
1GUA A Y 82;1GUA A I 84;11.5025
1GUA A Y 82;1GUA A T 89;12.0605
1GUA A Y 82;1GUA A F 90;29.1524
1GUA A Y 82;1GUA A L 93;13.0842
1GUA A Y 82;1GUA A L 113;13.968
1GUA A Y 82;1GUA A V 114;13.2402
1GUA A Y 82;1GUA A G 115;17.3804
1GUA A Y 82;1GUA A N 116;9.26791
1GUA A Y 82;1GUA A V 126;14.1022
1GUA A Y 82;1GUA A G 127;1.91686
1GUA A Y 82;1GUA A K 128;0.104423
1GUA A Y 82;1GUA A G 131;7.69143
1GUA A Y 82;1GUA A F 143;10.6946
1GUA A Y 82;1GUA A E 145;4.85292
1GUA A S 83;1GUA A I 84;16.8034
1GUA A S 83;1GUA A T 85;14.116
1GUA A S 83;1GUA A A 86;17.2439
1GUA A S 83;1GUA A T 89;11.7038
1GUA A S 83;1GUA A F 90;0.229358
1GUA A S 83;1GUA A N 116;6.01989
1GUA A S 83;1GUA A K 117;16.8968
1GUA A S 83;1GUA A V 126;3.83672
1GUA A I 84;1GUA A T 85;22.2734
1GUA A I 84;1GUA A A 86;1.54261
1GUA A I 84;1GUA A G 115;10.3733
1GUA A I 84;1GUA A N 116;11.4975
1GUA A I 84;1GUA A K 117;11.2239
1GUA A I 84;1GUA A C 118;14.0277
1GUA A I 84;1GUA A L 120;7.02406
1GUA A I 84;1GUA A E 121;4.56266
1GUA A I 84;1GUA A E 123;0.0323973
1GUA A I 84;1GUA A R 124;32.4667
1GUA A I 84;1GUA A V 125;7.90956
1GUA A I 84;1GUA A V 126;19.444
1GUA A I 84;1GUA A E 145;10.8531
1GUA A T 85;1GUA A A 86;27.1768
1GUA A T 85;1GUA A K 117;13.825
1GUA A T 85;1GUA A L 120;18.4206
1GUA A T 85;1GUA A E 123;23.3272
1GUA A T 85;1GUA A R 124;1.57434
1GUA A T 85;1GUA A V 125;13.6656
1GUA A A 86;1GUA A Q 87;19.9846
1GUA A A 86;1GUA A S 88;8.41677
1GUA A A 86;1GUA A T 89;23.297
1GUA A A 86;1GUA A F 90;3.03899
1GUA A A 86;1GUA A V 125;5.41829
1GUA A A 86;1GUA A V 126;3.79254
1GUA A Q 87;1GUA A S 88;22.8486
1GUA A Q 87;1GUA A T 89;1.53885
1GUA A Q 87;1GUA A F 90;10.431
1GUA A Q 87;1GUA A N 91;18.8671
1GUA A Q 87;1GUA A V 125;39.8513
1GUA A Q 87;1GUA A V 126;11.5231
1GUA A S 88;1GUA A T 89;25.063
1GUA A S 88;1GUA A F 90;0.969912
1GUA A S 88;1GUA A N 91;16.7353
1GUA A S 88;1GUA A D 92;21.2513
1GUA A T 89;1GUA A F 90;17.2007
1GUA A T 89;1GUA A N 91;0.481065
1GUA A T 89;1GUA A D 92;11.6304
1GUA A T 89;1GUA A L 93;10.1742
1GUA A F 90;1GUA A N 91;32.9972
1GUA A F 90;1GUA A D 92;1.42344
1GUA A F 90;1GUA A L 93;15.4037
1GUA A F 90;1GUA A Q 94;2.08894
1GUA A F 90;1GUA A L 113;4.15646
1GUA A F 90;1GUA A V 126;22.3566
1GUA A F 90;1GUA A Q 130;24.849
1GUA A F 90;1GUA A G 131;8.24735
1GUA A F 90;1GUA A L 134;30.8289
1GUA A N 91;1GUA A D 92;23.9873
1GUA A N 91;1GUA A L 93;2.7723
1GUA A N 91;1GUA A Q 94;12.3759
1GUA A N 91;1GUA A D 95;1.03379
1GUA A N 91;1GUA A Q 130;0.334118
1GUA A D 92;1GUA A L 93;21.0918
1GUA A D 92;1GUA A Q 94;1.69762
1GUA A D 92;1GUA A D 95;12.1258
1GUA A D 92;1GUA A L 96;12.9482
1GUA A L 93;1GUA A Q 94;18.2296
1GUA A L 93;1GUA A D 95;1.7033
1GUA A L 93;1GUA A L 96;22.5214
1GUA A L 93;1GUA A R 97;5.9392
1GUA A L 93;1GUA A L 113;10.4246
1GUA A L 93;1GUA A L 134;4.43121
1GUA A L 93;1GUA A W 138;11.5794
1GUA A Q 94;1GUA A D 95;23.4693
1GUA A Q 94;1GUA A L 96;0.710216
1GUA A Q 94;1GUA A R 97;11.5141
1GUA A Q 94;1GUA A E 98;37.7078
1GUA A Q 94;1GUA A L 134;12.2419
1GUA A Q 94;1GUA A W 138;26.5864
1GUA A D 95;1GUA A L 96;23.6394
1GUA A D 95;1GUA A R 97;0.598389
1GUA A D 95;1GUA A E 98;22.3564
1GUA A D 95;1GUA A Q 99;16.3185
1GUA A L 96;1GUA A R 97;16.4284
1GUA A L 96;1GUA A E 98;1.112
1GUA A L 96;1GUA A Q 99;12.4556
1GUA A L 96;1GUA A I 100;13.2969
1GUA A R 97;1GUA A E 98;21.527
1GUA A R 97;1GUA A Q 99;0.741999
1GUA A R 97;1GUA A I 100;10.8954
1GUA A R 97;1GUA A L 101;37.4143
1GUA A R 97;1GUA A E 107;15.1624
1GUA A R 97;1GUA A V 109;2.85842
1GUA A R 97;1GUA A M 111;25.5041
1GUA A R 97;1GUA A Q 137;0.729355
1GUA A R 97;1GUA A W 138;48.5986
1GUA A R 97;1GUA A C 139;13.5237
1GUA A R 97;1GUA A C 141;4.30964
1GUA A E 98;1GUA A Q 99;19.4969
1GUA A E 98;1GUA A I 100;1.03629
1GUA A E 98;1GUA A L 101;13.062
1GUA A E 98;1GUA A R 102;12.771
1GUA A Q 99;1GUA A I 100;15.7077
1GUA A Q 99;1GUA A L 101;0.528765
1GUA A Q 99;1GUA A R 102;27.0465
1GUA A Q 99;1GUA A V 103;11.4817
1GUA A I 100;1GUA A L 101;22.2337
1GUA A I 100;1GUA A R 102;1.27651
1GUA A I 100;1GUA A V 103;7.82548
1GUA A I 100;1GUA A K 104;18.2585
1GUA A I 100;1GUA A V 109;8.87231
1GUA A I 100;1GUA A M 111;14.7322
1GUA A L 101;1GUA A R 102;21.7173
1GUA A L 101;1GUA A V 103;0.699956
1GUA A L 101;1GUA A K 104;3.55022
1GUA A L 101;1GUA A D 105;11.4831
1GUA A L 101;1GUA A T 106;17.6799
1GUA A L 101;1GUA A E 107;21.1538
1GUA A L 101;1GUA A V 109;10.0543
1GUA A L 101;1GUA A M 111;5.42249
1GUA A R 102;1GUA A V 103;35.2505
1GUA A R 102;1GUA A K 104;0.438546
1GUA A R 102;1GUA A D 105;12.1667
1GUA A V 103;1GUA A K 104;28.4618
1GUA A V 103;1GUA A D 105;4.70901
1GUA A K 104;1GUA A D 105;26.6299
1GUA A K 104;1GUA A T 106;16.1511
1GUA A K 104;1GUA A V 109;23.1345
1GUA A D 105;1GUA A T 106;30.6721
1GUA A T 106;1GUA A E 107;25.6582
1GUA A T 106;1GUA A D 108;24.1167
1GUA A T 106;1GUA A V 109;11.9727
1GUA A E 107;1GUA A D 108;41.4919
1GUA A E 107;1GUA A V 109;7.34901
1GUA A E 107;1GUA A C 139;27.0426
1GUA A D 108;1GUA A V 109;28.2899
1GUA A D 108;1GUA A P 110;4.25946
1GUA A D 108;1GUA A C 139;6.82381
1GUA A V 109;1GUA A P 110;35.991
1GUA A V 109;1GUA A M 111;19.647
1GUA A V 109;1GUA A Q 164;0.816278
1GUA A P 110;1GUA A M 111;17.8489
1GUA A P 110;1GUA A L 161;9.20852
1GUA A P 110;1GUA A Q 164;25.123
1GUA A P 110;1GUA A I 165;17.5858
1GUA A M 111;1GUA A I 112;23.076
1GUA A M 111;1GUA A L 113;0.160719
1GUA A M 111;1GUA A W 138;5.99486
1GUA A M 111;1GUA A C 141;23.2129
1GUA A M 111;1GUA A A 142;7.18662
1GUA A M 111;1GUA A L 161;7.24844
1GUA A M 111;1GUA A Q 164;16.4695
1GUA A I 112;1GUA A L 113;22.541
1GUA A I 112;1GUA A V 114;14.0389
1GUA A I 112;1GUA A C 141;2.55075
1GUA A I 112;1GUA A A 142;18.794
1GUA A I 112;1GUA A F 143;4.96496
1GUA A I 112;1GUA A L 144;17.13
1GUA A I 112;1GUA A E 156;0.618947
1GUA A I 112;1GUA A I 157;18.5871
1GUA A I 112;1GUA A D 160;13.068
1GUA A I 112;1GUA A L 161;13.6468
1GUA A I 112;1GUA A Q 164;3.10474
1GUA A L 113;1GUA A V 114;21.7935
1GUA A L 113;1GUA A G 115;0.0101482
1GUA A L 113;1GUA A G 131;6.73415
1GUA A L 113;1GUA A L 134;14.1692
1GUA A L 113;1GUA A A 135;12.2309
1GUA A L 113;1GUA A W 138;17.8381
1GUA A L 113;1GUA A C 141;8.4566
1GUA A L 113;1GUA A A 142;7.3627
1GUA A L 113;1GUA A F 143;22.0225
1GUA A L 113;1GUA A L 144;7.19466
1GUA A V 114;1GUA A G 115;18.3459
1GUA A V 114;1GUA A N 116;5.51709
1GUA A V 114;1GUA A F 143;0.167721
1GUA A V 114;1GUA A L 144;14.7894
1GUA A V 114;1GUA A E 145;0.0678455
1GUA A V 114;1GUA A S 146;9.99742
1GUA A V 114;1GUA A I 157;18.325
1GUA A G 115;1GUA A N 116;17.5047
1GUA A G 115;1GUA A C 118;3.22789
1GUA A G 115;1GUA A F 143;3.35529
1GUA A G 115;1GUA A L 144;6.2219
1GUA A G 115;1GUA A E 145;13.7462
1GUA A G 115;1GUA A S 146;7.46704
1GUA A N 116;1GUA A K 117;33.0778
1GUA A N 116;1GUA A C 118;2.55546
1GUA A N 116;1GUA A S 146;14.456
1GUA A N 116;1GUA A S 147;4.51015
1GUA A N 116;1GUA A A 148;11.0797
1GUA A K 117;1GUA A C 118;13.9575
1GUA A K 117;1GUA A D 119;13.255
1GUA A K 117;1GUA A L 120;28.293
1GUA A K 117;1GUA A S 146;3.04551
1GUA A K 117;1GUA A S 147;4.41051
1GUA A K 117;1GUA A A 148;0.344712
1GUA A C 118;1GUA A D 119;22.2197
1GUA A C 118;1GUA A L 120;2.65289
1GUA A C 118;1GUA A E 121;13.7726
1GUA A C 118;1GUA A R 124;4.30911
1GUA A C 118;1GUA A E 145;21.3134
1GUA A C 118;1GUA A S 146;15.0646
1GUA A C 118;1GUA A S 147;6.827
1GUA A C 118;1GUA A I 152;19.0663
1GUA A D 119;1GUA A L 120;38.9745
1GUA A D 119;1GUA A E 121;9.28557
1GUA A D 119;1GUA A S 147;16.473
1GUA A D 119;1GUA A A 148;0.0971877
1GUA A D 119;1GUA A K 149;22.3207
1GUA A D 119;1GUA A S 150;14.0513
1GUA A D 119;1GUA A I 152;5.88095
1GUA A L 120;1GUA A E 121;17.7512
1GUA A L 120;1GUA A D 122;2.29621
1GUA A L 120;1GUA A E 123;31.6314
1GUA A L 120;1GUA A R 124;4.64304
1GUA A L 120;1GUA A K 149;1.76799
1GUA A E 121;1GUA A D 122;32.2725
1GUA A E 121;1GUA A E 123;1.48297
1GUA A E 121;1GUA A R 124;42.5295
1GUA A E 121;1GUA A K 128;2.31979
1GUA A D 122;1GUA A E 123;39.06
1GUA A D 122;1GUA A R 124;4.61757
1GUA A E 123;1GUA A R 124;20.1109
1GUA A E 123;1GUA A V 125;10.785
1GUA A R 124;1GUA A V 125;26.7985
1GUA A R 124;1GUA A V 126;17.0684
1GUA A R 124;1GUA A G 127;11.7876
1GUA A R 124;1GUA A K 128;21.5301
1GUA A R 124;1GUA A E 145;17.7228
1GUA A V 125;1GUA A V 126;27.3702
1GUA A V 125;1GUA A G 127;1.2368
1GUA A V 125;1GUA A Q 130;5.40176
1GUA A V 126;1GUA A G 127;25.8615
1GUA A V 126;1GUA A Q 130;16.7191
1GUA A V 126;1GUA A G 131;2.4985
1GUA A V 126;1GUA A E 145;0.145027
1GUA A G 127;1GUA A K 128;22.2202
1GUA A G 127;1GUA A E 129;2.222
1GUA A G 127;1GUA A Q 130;22.5748
1GUA A G 127;1GUA A G 131;6.41707
1GUA A G 127;1GUA A E 145;1.33397
1GUA A K 128;1GUA A E 129;25.2155
1GUA A K 128;1GUA A Q 130;1.24019
1GUA A K 128;1GUA A G 131;5.3374
1GUA A K 128;1GUA A Q 132;10.2606
1GUA A K 128;1GUA A F 143;17.9353
1GUA A K 128;1GUA A E 145;28.2951
1GUA A E 129;1GUA A Q 130;22.2611
1GUA A E 129;1GUA A G 131;0.895112
1GUA A E 129;1GUA A Q 132;13.7748
1GUA A E 129;1GUA A N 133;33.9169
1GUA A E 129;1GUA A R 136;6.80695
1GUA A Q 130;1GUA A G 131;16.439
1GUA A Q 130;1GUA A Q 132;0.248136
1GUA A Q 130;1GUA A N 133;11.9455
1GUA A Q 130;1GUA A L 134;8.97954
1GUA A G 131;1GUA A Q 132;14.8901
1GUA A G 131;1GUA A N 133;1.46764
1GUA A G 131;1GUA A L 134;7.20175
1GUA A G 131;1GUA A A 135;5.1532
1GUA A G 131;1GUA A F 143;11.5429
1GUA A Q 132;1GUA A N 133;16.7312
1GUA A Q 132;1GUA A L 134;1.18484
1GUA A Q 132;1GUA A A 135;12.3808
1GUA A Q 132;1GUA A R 136;40.6055
1GUA A Q 132;1GUA A C 141;3.78313
1GUA A Q 132;1GUA A F 143;32.9312
1GUA A N 133;1GUA A L 134;19.6654
1GUA A N 133;1GUA A A 135;0.449784
1GUA A N 133;1GUA A R 136;29.8169
1GUA A N 133;1GUA A Q 137;20.6483
1GUA A L 134;1GUA A A 135;17.1315
1GUA A L 134;1GUA A R 136;1.30186
1GUA A L 134;1GUA A Q 137;22.0862
1GUA A L 134;1GUA A W 138;33.4021
1GUA A A 135;1GUA A R 136;16.7149
1GUA A A 135;1GUA A Q 137;0.975467
1GUA A A 135;1GUA A W 138;13.8024
1GUA A A 135;1GUA A N 140;4.84249
1GUA A A 135;1GUA A C 141;22.4341
1GUA A A 135;1GUA A A 142;1.79117
1GUA A A 135;1GUA A F 143;10.3965
1GUA A R 136;1GUA A Q 137;23.5385
1GUA A R 136;1GUA A W 138;1.14058
1GUA A R 136;1GUA A C 139;5.22478
1GUA A R 136;1GUA A N 140;38.7129
1GUA A Q 137;1GUA A W 138;24.6453
1GUA A Q 137;1GUA A C 139;12.4274
1GUA A W 138;1GUA A C 139;19.6782
1GUA A W 138;1GUA A N 140;1.52005
1GUA A W 138;1GUA A C 141;24.903
1GUA A C 139;1GUA A N 140;32.3797
1GUA A C 139;1GUA A C 141;4.5378
1GUA A N 140;1GUA A C 141;26.8715
1GUA A N 140;1GUA A A 142;2.50121
1GUA A C 141;1GUA A A 142;31.5701
1GUA A C 141;1GUA A F 143;3.15678
1GUA A C 141;1GUA A Q 164;0.132251
1GUA A A 142;1GUA A F 143;24.1606
1GUA A A 142;1GUA A D 160;12.1804
1GUA A A 142;1GUA A Q 164;8.91029
1GUA A F 143;1GUA A L 144;40.465
1GUA A F 143;1GUA A E 145;13.9087
1GUA A L 144;1GUA A E 145;27.5818
1GUA A L 144;1GUA A S 146;6.40917
1GUA A L 144;1GUA A N 153;24.4361
1GUA A L 144;1GUA A E 156;13.5589
1GUA A L 144;1GUA A I 157;12.6319
1GUA A L 144;1GUA A D 160;1.59719
1GUA A E 145;1GUA A S 146;16.2872
1GUA A E 145;1GUA A I 152;4.98926
1GUA A E 145;1GUA A N 153;12.7855
1GUA A S 146;1GUA A S 147;17.1809
1GUA A S 146;1GUA A I 152;9.0863
1GUA A S 146;1GUA A N 153;6.10135
1GUA A S 146;1GUA A V 154;1.99512
1GUA A S 146;1GUA A I 157;6.20435
1GUA A S 147;1GUA A A 148;18.2128
1GUA A S 147;1GUA A K 149;6.90696
1GUA A S 147;1GUA A S 150;11.2577
1GUA A S 147;1GUA A K 151;6.30927
1GUA A S 147;1GUA A I 152;20.3086
1GUA A S 147;1GUA A V 154;6.25799
1GUA A A 148;1GUA A K 149;22.0842
1GUA A A 148;1GUA A S 150;0.27258
1GUA A A 148;1GUA A K 151;5.91845
1GUA A A 148;1GUA A V 154;5.624
1GUA A K 149;1GUA A S 150;27.3511
1GUA A K 149;1GUA A K 151;11.0715
1GUA A S 150;1GUA A K 151;29.1877
1GUA A S 150;1GUA A I 152;21.3107
1GUA A K 151;1GUA A I 152;21.2178
1GUA A K 151;1GUA A N 153;4.04348
1GUA A K 151;1GUA A V 154;14.8022
1GUA A I 152;1GUA A N 153;33.259
1GUA A I 152;1GUA A V 154;8.35434
1GUA A N 153;1GUA A V 154;18.396
1GUA A N 153;1GUA A N 155;0.27339
1GUA A N 153;1GUA A E 156;32.789
1GUA A N 153;1GUA A I 157;9.42746
1GUA A V 154;1GUA A N 155;28.6513
1GUA A V 154;1GUA A E 156;3.67344
1GUA A V 154;1GUA A I 157;12.8492
1GUA A V 154;1GUA A F 158;11.6304
1GUA A N 155;1GUA A E 156;30.0828
1GUA A N 155;1GUA A I 157;1.49475
1GUA A N 155;1GUA A F 158;6.46016
1GUA A N 155;1GUA A Y 159;37.7542
1GUA A E 156;1GUA A I 157;17.4425
1GUA A E 156;1GUA A F 158;0.880971
1GUA A E 156;1GUA A Y 159;14.9878
1GUA A E 156;1GUA A D 160;14.3522
1GUA A E 156;1GUA A R 163;3.48231
1GUA A I 157;1GUA A F 158;37.33
1GUA A I 157;1GUA A Y 159;0.369271
1GUA A I 157;1GUA A D 160;4.88123
1GUA A I 157;1GUA A L 161;13.5433
1GUA A F 158;1GUA A Y 159;19.6883
1GUA A F 158;1GUA A D 160;1.12867
1GUA A F 158;1GUA A L 161;14.0718
1GUA A F 158;1GUA A V 162;10.1888
1GUA A Y 159;1GUA A D 160;17.4757
1GUA A Y 159;1GUA A L 161;0.919244
1GUA A Y 159;1GUA A V 162;10.5173
1GUA A Y 159;1GUA A R 163;33.6393
1GUA A D 160;1GUA A L 161;18.0288
1GUA A D 160;1GUA A V 162;0.813109
1GUA A D 160;1GUA A R 163;25.3868
1GUA A D 160;1GUA A Q 164;23.8755
1GUA A D 160;1GUA A R 167;8.65931
1GUA A L 161;1GUA A V 162;16.5737
1GUA A L 161;1GUA A R 163;0.871566
1GUA A L 161;1GUA A Q 164;15.9868
1GUA A L 161;1GUA A I 165;14.6216
1GUA A V 162;1GUA A R 163;17.8821
1GUA A V 162;1GUA A Q 164;0.86125
1GUA A V 162;1GUA A I 165;10.6036
1GUA A V 162;1GUA A N 166;19.1489
1GUA A R 163;1GUA A Q 164;15.4782
1GUA A R 163;1GUA A I 165;0.849707
1GUA A R 163;1GUA A N 166;16.9439
1GUA A R 163;1GUA A R 167;27.3978
1GUA A Q 164;1GUA A I 165;18.9595
1GUA A Q 164;1GUA A N 166;0.965045
1GUA A Q 164;1GUA A R 167;40.853
1GUA A I 165;1GUA A N 166;18.3455
1GUA A I 165;1GUA A R 167;11.5441
1GUA A N 166;1GUA A R 167;29.6646
