V1;V2;Weight
1IAR B F 1;1IAR B K 2;35.4299
1IAR B F 1;1IAR B M 23;16.9945
1IAR B F 1;1IAR B N 24;10.1809
1IAR B F 1;1IAR B G 25;0.128509
1IAR B F 1;1IAR B P 26;7.31416
1IAR B F 1;1IAR B T 27;15.1796
1IAR B F 1;1IAR B E 32;29.2062
1IAR B F 1;1IAR B L 33;7.18024
1IAR B F 1;1IAR B A 80;14.2302
1IAR B F 1;1IAR B Q 83;8.21623
1IAR B F 1;1IAR B L 85;23.4715
1IAR B K 2;1IAR B V 3;31.1991
1IAR B K 2;1IAR B L 4;4.60761
1IAR B K 2;1IAR B M 23;13.1933
1IAR B K 2;1IAR B N 24;37.39
1IAR B K 2;1IAR B L 85;0.0279763
1IAR B V 3;1IAR B L 4;24.7852
1IAR B V 3;1IAR B Q 5;8.6026
1IAR B V 3;1IAR B E 6;9.06617
1IAR B V 3;1IAR B P 7;6.03885
1IAR B V 3;1IAR B W 21;9.51019
1IAR B V 3;1IAR B K 22;5.6517
1IAR B V 3;1IAR B M 23;17.1911
1IAR B V 3;1IAR B L 78;10.8913
1IAR B V 3;1IAR B L 85;15.2737
1IAR B V 3;1IAR B W 86;12.7939
1IAR B L 4;1IAR B Q 5;25.1053
1IAR B L 4;1IAR B E 6;3.71732
1IAR B L 4;1IAR B K 22;18.2505
1IAR B L 4;1IAR B M 23;10.7771
1IAR B L 4;1IAR B N 24;27.4001
1IAR B L 4;1IAR B A 57;2.08973
1IAR B Q 5;1IAR B E 6;33.1542
1IAR B Q 5;1IAR B P 7;0.143843
1IAR B Q 5;1IAR B T 8;15.018
1IAR B Q 5;1IAR B E 20;19.6701
1IAR B Q 5;1IAR B W 21;15.9346
1IAR B Q 5;1IAR B K 22;38.3625
1IAR B E 6;1IAR B P 7;28.2117
1IAR B E 6;1IAR B T 8;7.34241
1IAR B E 6;1IAR B E 20;0.392216
1IAR B E 6;1IAR B W 21;1.78652
1IAR B E 6;1IAR B W 86;33.8227
1IAR B P 7;1IAR B T 8;24.1927
1IAR B P 7;1IAR B C 9;7.63059
1IAR B P 7;1IAR B C 19;6.38209
1IAR B P 7;1IAR B E 20;5.92237
1IAR B P 7;1IAR B W 21;21.4404
1IAR B P 7;1IAR B L 35;9.07935
1IAR B P 7;1IAR B L 76;5.28749
1IAR B P 7;1IAR B L 78;7.91607
1IAR B P 7;1IAR B W 86;36.3062
1IAR B T 8;1IAR B C 9;29.9442
1IAR B T 8;1IAR B V 10;0.538351
1IAR B T 8;1IAR B T 18;1.1319
1IAR B T 8;1IAR B C 19;5.62339
1IAR B T 8;1IAR B E 20;30.563
1IAR B C 9;1IAR B V 10;26.4775
1IAR B C 9;1IAR B S 17;1.34777
1IAR B C 9;1IAR B T 18;7.9449
1IAR B C 9;1IAR B C 19;21.855
1IAR B C 9;1IAR B L 76;10.3621
1IAR B C 9;1IAR B F 90;30.2872
1IAR B C 9;1IAR B H 95;11.4577
1IAR B V 10;1IAR B S 11;20.45
1IAR B V 10;1IAR B D 12;0.0135433
1IAR B V 10;1IAR B I 16;0.000108784
1IAR B V 10;1IAR B S 17;6.85105
1IAR B V 10;1IAR B T 18;30.0465
1IAR B V 10;1IAR B F 90;6.10167
1IAR B V 10;1IAR B H 95;15.0114
1IAR B V 10;1IAR B V 96;0.000330484
1IAR B V 10;1IAR B K 97;29.0103
1IAR B V 10;1IAR B T 186;2.01494
1IAR B S 11;1IAR B D 12;18.7657
1IAR B S 11;1IAR B Y 13;15.3837
1IAR B S 11;1IAR B M 14;0.300365
1IAR B S 11;1IAR B I 16;6.67333
1IAR B S 11;1IAR B S 17;11.6092
1IAR B S 11;1IAR B M 65;6.25293
1IAR B S 11;1IAR B V 68;2.97768
1IAR B S 11;1IAR B F 90;5.7585
1IAR B S 11;1IAR B P 92;17.6335
1IAR B S 11;1IAR B H 95;7.35308
1IAR B S 11;1IAR B V 96;12.2148
1IAR B S 11;1IAR B K 97;11.0141
1IAR B D 12;1IAR B Y 13;19.5809
1IAR B D 12;1IAR B M 14;12.6999
1IAR B D 12;1IAR B S 15;4.24259
1IAR B D 12;1IAR B I 16;32.2435
1IAR B D 12;1IAR B V 96;2.26779
1IAR B D 12;1IAR B K 97;10.8697
1IAR B D 12;1IAR B P 98;1.80498
1IAR B D 12;1IAR B R 99;28.646
1IAR B D 12;1IAR B Y 122;13.9235
1IAR B D 12;1IAR B L 128;1.44321
1IAR B Y 13;1IAR B M 14;19.0606
1IAR B Y 13;1IAR B I 16;0.032181
1IAR B Y 13;1IAR B V 68;35.7566
1IAR B Y 13;1IAR B V 69;8.5385
1IAR B Y 13;1IAR B S 70;5.82783
1IAR B Y 13;1IAR B P 92;5.66019
1IAR B Y 13;1IAR B S 93;15.8523
1IAR B Y 13;1IAR B V 96;17.7739
1IAR B Y 13;1IAR B Y 122;2.37812
1IAR B Y 13;1IAR B N 126;15.705
1IAR B Y 13;1IAR B Y 127;12.207
1IAR B Y 13;1IAR B L 128;19.2155
1IAR B Y 13;1IAR B Y 183;13.9235
1IAR B M 14;1IAR B S 15;31.3446
1IAR B M 14;1IAR B I 16;0.126081
1IAR B M 14;1IAR B M 65;6.86756
1IAR B M 14;1IAR B D 66;4.99723
1IAR B M 14;1IAR B D 67;8.91966
1IAR B M 14;1IAR B V 68;9.24243
1IAR B M 14;1IAR B R 99;31.7038
1IAR B M 14;1IAR B P 121;7.51925
1IAR B M 14;1IAR B Y 122;15.7692
1IAR B M 14;1IAR B P 123;21.9398
1IAR B M 14;1IAR B N 126;12.3298
1IAR B S 15;1IAR B I 16;30.9486
1IAR B S 15;1IAR B L 63;0.000750641
1IAR B S 15;1IAR B L 64;11.1297
1IAR B S 15;1IAR B M 65;25.4972
1IAR B S 15;1IAR B D 66;1.26636
1IAR B S 15;1IAR B R 99;13.3149
1IAR B I 16;1IAR B S 17;24.2078
1IAR B I 16;1IAR B T 18;10.6943
1IAR B I 16;1IAR B H 62;13.8176
1IAR B I 16;1IAR B L 63;7.7699
1IAR B I 16;1IAR B L 64;17.0888
1IAR B I 16;1IAR B M 65;7.23786
1IAR B I 16;1IAR B R 99;5.13613
1IAR B S 17;1IAR B T 18;20.1757
1IAR B S 17;1IAR B C 19;2.36258
1IAR B S 17;1IAR B C 61;1.1201
1IAR B S 17;1IAR B H 62;3.25664
1IAR B S 17;1IAR B L 63;27.4475
1IAR B S 17;1IAR B M 65;15.7624
1IAR B S 17;1IAR B F 90;11.5461
1IAR B S 17;1IAR B P 92;0.857008
1IAR B T 18;1IAR B C 19;24.0466
1IAR B T 18;1IAR B E 20;4.41066
1IAR B T 18;1IAR B V 60;11.7151
1IAR B T 18;1IAR B C 61;6.11656
1IAR B T 18;1IAR B H 62;21.8553
1IAR B C 19;1IAR B E 20;21.7114
1IAR B C 19;1IAR B W 21;7.50565
1IAR B C 19;1IAR B L 35;10.6403
1IAR B C 19;1IAR B V 60;6.60861
1IAR B C 19;1IAR B C 61;17.5162
1IAR B C 19;1IAR B L 63;14.6308
1IAR B C 19;1IAR B L 76;5.1016
1IAR B C 19;1IAR B F 90;0.988931
1IAR B E 20;1IAR B W 21;24.4753
1IAR B E 20;1IAR B K 22;0.774752
1IAR B E 20;1IAR B N 54;8.00099
1IAR B E 20;1IAR B C 59;6.15612
1IAR B E 20;1IAR B V 60;13.343
1IAR B W 21;1IAR B K 22;25.7535
1IAR B W 21;1IAR B M 23;11.2619
1IAR B W 21;1IAR B C 29;0.0101072
1IAR B W 21;1IAR B L 33;10.4481
1IAR B W 21;1IAR B L 35;15.0371
1IAR B W 21;1IAR B P 51;13.0438
1IAR B W 21;1IAR B N 54;3.36579
1IAR B W 21;1IAR B G 58;3.86184
1IAR B W 21;1IAR B C 59;36.8391
1IAR B W 21;1IAR B V 60;4.56277
1IAR B W 21;1IAR B C 61;10.7466
1IAR B W 21;1IAR B L 78;22.603
1IAR B K 22;1IAR B M 23;19.3002
1IAR B K 22;1IAR B N 54;12.1924
1IAR B K 22;1IAR B A 57;11.3239
1IAR B K 22;1IAR B G 58;11.0634
1IAR B K 22;1IAR B C 59;0.172347
1IAR B M 23;1IAR B N 24;18.7015
1IAR B M 23;1IAR B G 25;5.2001
1IAR B M 23;1IAR B T 27;17.519
1IAR B M 23;1IAR B L 33;13.8416
1IAR B M 23;1IAR B A 57;22.8841
1IAR B M 23;1IAR B C 59;5.66907
1IAR B M 23;1IAR B L 78;4.05965
1IAR B M 23;1IAR B L 85;11.5251
1IAR B N 24;1IAR B G 25;34.0171
1IAR B N 24;1IAR B P 26;0.0173869
1IAR B N 24;1IAR B T 27;0.701177
1IAR B N 24;1IAR B A 57;0.0873798
1IAR B G 25;1IAR B P 26;35.7865
1IAR B G 25;1IAR B T 27;8.25556
1IAR B G 25;1IAR B A 57;13.2976
1IAR B P 26;1IAR B T 27;26.0989
1IAR B P 26;1IAR B E 32;1.02838
1IAR B P 26;1IAR B G 56;12.6587
1IAR B P 26;1IAR B A 57;4.58634
1IAR B T 27;1IAR B N 28;24.1491
1IAR B T 27;1IAR B C 29;10.8171
1IAR B T 27;1IAR B E 32;14.3319
1IAR B T 27;1IAR B L 33;9.59047
1IAR B T 27;1IAR B N 53;11.0505
1IAR B T 27;1IAR B G 56;12.6236
1IAR B T 27;1IAR B A 57;6.71397
1IAR B T 27;1IAR B C 59;6.36383
1IAR B N 28;1IAR B C 29;16.7456
1IAR B N 28;1IAR B S 30;15.0725
1IAR B N 28;1IAR B T 31;29.6482
1IAR B N 28;1IAR B E 32;23.7246
1IAR B N 28;1IAR B L 33;0.0685854
1IAR B N 28;1IAR B N 53;10.4088
1IAR B C 29;1IAR B S 30;17.8514
1IAR B C 29;1IAR B T 31;2.5116
1IAR B C 29;1IAR B E 32;2.15426
1IAR B C 29;1IAR B L 33;17.1191
1IAR B C 29;1IAR B R 34;0.325429
1IAR B C 29;1IAR B P 51;15.7706
1IAR B C 29;1IAR B E 52;7.67424
1IAR B C 29;1IAR B N 53;18.3695
1IAR B C 29;1IAR B A 57;0.196637
1IAR B C 29;1IAR B G 58;4.27571
1IAR B C 29;1IAR B C 59;20.565
1IAR B S 30;1IAR B T 31;29.5624
1IAR B S 30;1IAR B R 34;12.9821
1IAR B S 30;1IAR B I 50;22.3517
1IAR B S 30;1IAR B P 51;15.2263
1IAR B S 30;1IAR B E 52;7.96022
1IAR B S 30;1IAR B N 53;1.81582
1IAR B T 31;1IAR B E 32;34.3393
1IAR B T 31;1IAR B L 33;0.946089
1IAR B T 31;1IAR B R 34;11.907
1IAR B E 32;1IAR B L 33;29.6721
1IAR B E 32;1IAR B R 34;1.35858
1IAR B E 32;1IAR B W 79;0.794747
1IAR B E 32;1IAR B A 80;9.36778
1IAR B E 32;1IAR B G 81;8.11591
1IAR B L 33;1IAR B R 34;31.4501
1IAR B L 33;1IAR B P 51;14.3553
1IAR B L 33;1IAR B C 59;7.86351
1IAR B L 33;1IAR B L 78;13.5573
1IAR B L 33;1IAR B W 79;7.53672
1IAR B L 33;1IAR B A 80;7.1486
1IAR B L 33;1IAR B L 85;8.74743
1IAR B R 34;1IAR B L 35;17.222
1IAR B R 34;1IAR B L 36;14.6368
1IAR B R 34;1IAR B T 48;19.0496
1IAR B R 34;1IAR B C 49;4.74375
1IAR B R 34;1IAR B I 50;26.1491
1IAR B R 34;1IAR B P 51;6.58674
1IAR B R 34;1IAR B D 77;2.17937
1IAR B R 34;1IAR B L 78;8.01074
1IAR B R 34;1IAR B W 79;25.1529
1IAR B R 34;1IAR B G 81;1.20109
1IAR B L 35;1IAR B L 36;23.184
1IAR B L 35;1IAR B Y 37;7.58798
1IAR B L 35;1IAR B H 47;0.0761753
1IAR B L 35;1IAR B T 48;3.8138
1IAR B L 35;1IAR B C 49;20.125
1IAR B L 35;1IAR B P 51;4.22646
1IAR B L 35;1IAR B C 61;12.5588
1IAR B L 35;1IAR B L 63;11.1684
1IAR B L 35;1IAR B L 76;16.7965
1IAR B L 35;1IAR B D 77;8.01489
1IAR B L 35;1IAR B L 78;20.7103
1IAR B L 35;1IAR B W 86;5.04882
1IAR B L 36;1IAR B Y 37;22.7028
1IAR B L 36;1IAR B A 46;11.0608
1IAR B L 36;1IAR B H 47;10.1917
1IAR B L 36;1IAR B T 48;21.6569
1IAR B L 36;1IAR B T 75;1.60924
1IAR B L 36;1IAR B L 76;4.94306
1IAR B L 36;1IAR B D 77;27.7338
1IAR B L 36;1IAR B W 79;23.709
1IAR B Y 37;1IAR B Q 38;22.9814
1IAR B Y 37;1IAR B E 45;0.772677
1IAR B Y 37;1IAR B A 46;2.62885
1IAR B Y 37;1IAR B H 47;47.5839
1IAR B Y 37;1IAR B T 48;7.26973
1IAR B Y 37;1IAR B C 49;12.0504
1IAR B Y 37;1IAR B H 62;1.07613
1IAR B Y 37;1IAR B L 63;30.4042
1IAR B Y 37;1IAR B L 64;27.1766
1IAR B Y 37;1IAR B M 65;4.70482
1IAR B Y 37;1IAR B Y 74;17.5314
1IAR B Y 37;1IAR B T 75;6.51269
1IAR B Y 37;1IAR B L 76;10.8735
1IAR B Q 38;1IAR B L 39;27.3323
1IAR B Q 38;1IAR B V 40;4.88554
1IAR B Q 38;1IAR B S 44;20.7855
1IAR B Q 38;1IAR B E 45;12.5542
1IAR B Q 38;1IAR B A 46;25.8501
1IAR B Q 38;1IAR B H 47;1.34283
1IAR B Q 38;1IAR B N 73;0.0085732
1IAR B Q 38;1IAR B Y 74;12.9093
1IAR B Q 38;1IAR B T 75;23.7929
1IAR B L 39;1IAR B V 40;22.6514
1IAR B L 39;1IAR B F 41;22.5235
1IAR B L 39;1IAR B L 43;6.24328
1IAR B L 39;1IAR B S 44;23.0848
1IAR B L 39;1IAR B E 45;1.75124
1IAR B L 39;1IAR B H 47;0.739705
1IAR B L 39;1IAR B D 72;17.9739
1IAR B L 39;1IAR B N 73;12.4139
1IAR B L 39;1IAR B Y 74;32.5101
1IAR B V 40;1IAR B F 41;28.2387
1IAR B V 40;1IAR B N 73;27.1894
1IAR B V 40;1IAR B Y 74;4.62964
1IAR B V 40;1IAR B T 75;18.6584
1IAR B V 40;1IAR B S 89;2.40002
1IAR B F 41;1IAR B L 42;35.3781
1IAR B F 41;1IAR B L 43;30.0216
1IAR B F 41;1IAR B S 44;12.7785
1IAR B F 41;1IAR B D 72;0.0957532
1IAR B L 42;1IAR B L 43;31.4131
1IAR B L 42;1IAR B S 44;8.93588
1IAR B L 43;1IAR B S 44;27.1077
1IAR B S 44;1IAR B E 45;33.1925
1IAR B E 45;1IAR B A 46;32.2894
1IAR B E 45;1IAR B H 47;36.0697
1IAR B A 46;1IAR B H 47;28.8209
1IAR B A 46;1IAR B T 48;0.597819
1IAR B H 47;1IAR B T 48;27.2575
1IAR B H 47;1IAR B L 64;2.98404
1IAR B H 47;1IAR B Y 74;3.64045
1IAR B T 48;1IAR B C 49;26.9633
1IAR B T 48;1IAR B I 50;7.23286
1IAR B C 49;1IAR B I 50;26.0168
1IAR B C 49;1IAR B P 51;4.24153
1IAR B C 49;1IAR B C 61;18.673
1IAR B C 49;1IAR B H 62;19.0787
1IAR B C 49;1IAR B L 63;10.2917
1IAR B I 50;1IAR B P 51;30.0079
1IAR B I 50;1IAR B E 52;1.91704
1IAR B I 50;1IAR B C 61;4.53855
1IAR B I 50;1IAR B H 62;0.207965
1IAR B P 51;1IAR B E 52;22.6668
1IAR B P 51;1IAR B C 59;3.52547
1IAR B P 51;1IAR B V 60;9.61626
1IAR B P 51;1IAR B C 61;12.405
1IAR B P 51;1IAR B L 78;0.375596
1IAR B E 52;1IAR B N 53;36.7532
1IAR B E 52;1IAR B N 54;0.124043
1IAR B E 52;1IAR B C 59;3.71355
1IAR B E 52;1IAR B V 60;33.1303
1IAR B E 52;1IAR B C 61;0.0291058
1IAR B E 52;1IAR B H 62;17.7988
1IAR B N 53;1IAR B N 54;24.3042
1IAR B N 53;1IAR B G 55;15.4768
1IAR B N 53;1IAR B G 56;9.33385
1IAR B N 53;1IAR B A 57;0.239269
1IAR B N 53;1IAR B G 58;8.27255
1IAR B N 53;1IAR B C 59;1.0417
1IAR B N 53;1IAR B V 60;1.49627
1IAR B N 54;1IAR B G 55;29.3395
1IAR B N 54;1IAR B G 58;20.5704
1IAR B N 54;1IAR B C 59;8.45574
1IAR B N 54;1IAR B V 60;20.9403
1IAR B G 55;1IAR B G 56;26.4383
1IAR B G 55;1IAR B A 57;2.56222
1IAR B G 55;1IAR B G 58;8.7685
1IAR B G 56;1IAR B A 57;24.5087
1IAR B G 56;1IAR B G 58;0.766114
1IAR B A 57;1IAR B G 58;24.1106
1IAR B A 57;1IAR B C 59;3.36718
1IAR B G 58;1IAR B C 59;18.3583
1IAR B C 59;1IAR B V 60;20.4236
1IAR B V 60;1IAR B C 61;24.1022
1IAR B V 60;1IAR B H 62;13.8737
1IAR B C 61;1IAR B H 62;21.7731
1IAR B C 61;1IAR B L 63;7.8374
1IAR B H 62;1IAR B L 63;19.6435
1IAR B H 62;1IAR B L 64;15.3327
1IAR B L 63;1IAR B L 64;21.0215
1IAR B L 63;1IAR B M 65;14.1754
1IAR B L 63;1IAR B Y 74;3.38938
1IAR B L 63;1IAR B L 76;10.9803
1IAR B L 63;1IAR B F 90;5.99058
1IAR B L 64;1IAR B M 65;29.4426
1IAR B L 64;1IAR B D 66;0.579161
1IAR B L 64;1IAR B Y 74;0.428918
1IAR B M 65;1IAR B D 66;29.9375
1IAR B M 65;1IAR B D 67;8.81696
1IAR B M 65;1IAR B V 68;13.7773
1IAR B M 65;1IAR B Y 74;30.5295
1IAR B M 65;1IAR B F 90;3.73605
1IAR B M 65;1IAR B P 92;10.3392
1IAR B D 66;1IAR B D 67;36.9143
1IAR B D 66;1IAR B Y 74;0.928456
1IAR B D 67;1IAR B V 68;34.0288
1IAR B D 67;1IAR B V 69;2.47059
1IAR B D 67;1IAR B D 72;1.83554
1IAR B D 67;1IAR B Y 74;6.15577
1IAR B V 68;1IAR B V 69;29.2083
1IAR B V 68;1IAR B D 72;12.7492
1IAR B V 68;1IAR B Y 74;5.14255
1IAR B V 68;1IAR B P 92;15.4962
1IAR B V 68;1IAR B S 93;0.237623
1IAR B V 68;1IAR B Y 127;7.61547
1IAR B V 69;1IAR B S 70;17.5049
1IAR B V 69;1IAR B A 71;5.91729
1IAR B V 69;1IAR B D 72;24.8433
1IAR B V 69;1IAR B P 92;0.261365
1IAR B V 69;1IAR B S 93;3.75435
1IAR B V 69;1IAR B Y 127;11.5309
1IAR B S 70;1IAR B A 71;18.1823
1IAR B S 70;1IAR B D 72;4.5711
1IAR B S 70;1IAR B K 91;10.7548
1IAR B S 70;1IAR B S 93;14.2198
1IAR B A 71;1IAR B D 72;22.2799
1IAR B A 71;1IAR B N 73;12.2378
1IAR B A 71;1IAR B K 91;11.7955
1IAR B D 72;1IAR B N 73;20.8101
1IAR B D 72;1IAR B Y 74;8.90327
1IAR B D 72;1IAR B K 91;9.23329
1IAR B D 72;1IAR B P 92;10.8915
1IAR B D 72;1IAR B S 93;0.925255
1IAR B N 73;1IAR B Y 74;23.7442
1IAR B N 73;1IAR B S 89;12.5306
1IAR B N 73;1IAR B F 90;6.54671
1IAR B N 73;1IAR B K 91;29.381
1IAR B N 73;1IAR B P 92;1.3857
1IAR B Y 74;1IAR B T 75;17.9903
1IAR B Y 74;1IAR B L 76;13.2051
1IAR B Y 74;1IAR B S 89;9.74675
1IAR B Y 74;1IAR B F 90;23.9465
1IAR B Y 74;1IAR B P 92;11.4312
1IAR B T 75;1IAR B L 76;22.6941
1IAR B T 75;1IAR B D 77;12.7603
1IAR B T 75;1IAR B K 87;16.3992
1IAR B T 75;1IAR B G 88;9.69751
1IAR B T 75;1IAR B S 89;5.3532
1IAR B L 76;1IAR B D 77;20.4228
1IAR B L 76;1IAR B L 78;0.121435
1IAR B L 76;1IAR B W 86;21.8914
1IAR B L 76;1IAR B K 87;4.75244
1IAR B L 76;1IAR B G 88;15.8596
1IAR B L 76;1IAR B S 89;7.42495
1IAR B L 76;1IAR B F 90;15.9154
1IAR B D 77;1IAR B L 78;15.9553
1IAR B D 77;1IAR B W 79;21.7984
1IAR B D 77;1IAR B L 84;11.2649
1IAR B D 77;1IAR B W 86;3.40604
1IAR B D 77;1IAR B K 87;24.7152
1IAR B L 78;1IAR B W 79;20.8369
1IAR B L 78;1IAR B L 84;6.79342
1IAR B L 78;1IAR B L 85;22.2546
1IAR B L 78;1IAR B W 86;25.7002
1IAR B W 79;1IAR B A 80;18.8019
1IAR B W 79;1IAR B G 81;14.7231
1IAR B W 79;1IAR B Q 82;17.8727
1IAR B W 79;1IAR B Q 83;9.09274
1IAR B W 79;1IAR B L 84;37.8369
1IAR B W 79;1IAR B L 85;3.67152
1IAR B W 79;1IAR B K 87;0.0801924
1IAR B A 80;1IAR B G 81;22.4938
1IAR B A 80;1IAR B Q 82;4.40374
1IAR B A 80;1IAR B Q 83;26.7855
1IAR B A 80;1IAR B L 85;14.9837
1IAR B G 81;1IAR B Q 82;30.5756
1IAR B G 81;1IAR B Q 83;0.493434
1IAR B Q 82;1IAR B Q 83;29.2986
1IAR B Q 82;1IAR B L 84;0.478064
1IAR B Q 83;1IAR B L 84;22.8152
1IAR B Q 83;1IAR B L 85;20.1657
1IAR B L 84;1IAR B L 85;25.0384
1IAR B L 84;1IAR B W 86;12.9433
1IAR B L 84;1IAR B K 87;25.9718
1IAR B L 85;1IAR B W 86;27.4215
1IAR B W 86;1IAR B K 87;35.7355
1IAR B W 86;1IAR B G 88;17.5203
1IAR B W 86;1IAR B S 89;5.59926
1IAR B K 87;1IAR B G 88;25.6993
1IAR B G 88;1IAR B S 89;27.5172
1IAR B S 89;1IAR B F 90;27.3357
1IAR B S 89;1IAR B K 91;0.0232126
1IAR B F 90;1IAR B K 91;26.8102
1IAR B F 90;1IAR B P 92;21.1887
1IAR B F 90;1IAR B H 95;19.6331
1IAR B K 91;1IAR B P 92;18.2677
1IAR B K 91;1IAR B S 93;13.2854
1IAR B K 91;1IAR B E 94;37.9251
1IAR B K 91;1IAR B H 95;13.4167
1IAR B P 92;1IAR B S 93;18.5055
1IAR B P 92;1IAR B E 94;1.91796
1IAR B P 92;1IAR B H 95;8.5483
1IAR B P 92;1IAR B V 96;6.77837
1IAR B S 93;1IAR B E 94;28.7366
1IAR B S 93;1IAR B H 95;1.42762
1IAR B S 93;1IAR B V 96;12.6029
1IAR B S 93;1IAR B Y 183;16.4776
1IAR B E 94;1IAR B H 95;42.4486
1IAR B E 94;1IAR B V 96;2.22816
1IAR B E 94;1IAR B Y 183;1.72285
1IAR B E 94;1IAR B N 184;1.23476
1IAR B H 95;1IAR B V 96;24.4083
1IAR B H 95;1IAR B K 97;1.85796
1IAR B V 96;1IAR B K 97;18.7415
1IAR B V 96;1IAR B P 98;7.63441
1IAR B V 96;1IAR B Y 122;0.204015
1IAR B V 96;1IAR B L 128;12.0609
1IAR B V 96;1IAR B Y 183;13.6948
1IAR B V 96;1IAR B N 184;0.83201
1IAR B V 96;1IAR B T 185;24.3895
1IAR B V 96;1IAR B T 186;9.48511
1IAR B K 97;1IAR B P 98;31.3825
1IAR B K 97;1IAR B R 99;0.0267962
1IAR B K 97;1IAR B T 186;17.478
1IAR B K 97;1IAR B W 187;13.0483
1IAR B K 97;1IAR B S 188;5.90866
1IAR B K 97;1IAR B E 189;30.5607
1IAR B P 98;1IAR B R 99;25.4526
1IAR B P 98;1IAR B A 100;1.6988
1IAR B P 98;1IAR B Y 122;12.1502
1IAR B P 98;1IAR B L 128;6.31335
1IAR B P 98;1IAR B L 132;9.43679
1IAR B P 98;1IAR B A 178;8.13803
1IAR B P 98;1IAR B W 179;6.28676
1IAR B P 98;1IAR B A 180;3.06033
1IAR B P 98;1IAR B T 185;10.9904
1IAR B P 98;1IAR B T 186;7.53861
1IAR B P 98;1IAR B W 187;1.81176
1IAR B P 98;1IAR B S 188;19.4449
1IAR B P 98;1IAR B E 189;1.59772
1IAR B R 99;1IAR B A 100;27.7467
1IAR B R 99;1IAR B P 101;2.73087
1IAR B R 99;1IAR B P 121;31.9957
1IAR B R 99;1IAR B Y 122;18.4585
1IAR B R 99;1IAR B L 132;0.497445
1IAR B R 99;1IAR B A 178;2.89942
1IAR B R 99;1IAR B S 188;5.75453
1IAR B A 100;1IAR B P 101;28.8636
1IAR B A 100;1IAR B G 102;3.31428
1IAR B A 100;1IAR B P 121;10.9819
1IAR B A 100;1IAR B S 188;7.13177
1IAR B A 100;1IAR B E 189;18.1391
1IAR B A 100;1IAR B W 190;6.3009
1IAR B A 100;1IAR B S 191;5.23507
1IAR B A 100;1IAR B P 192;0.0291871
1IAR B P 101;1IAR B G 102;22.7602
1IAR B P 101;1IAR B W 118;9.06812
1IAR B P 101;1IAR B S 119;7.50356
1IAR B P 101;1IAR B P 121;13.6965
1IAR B P 101;1IAR B L 132;0.000220446
1IAR B P 101;1IAR B Y 134;10.3111
1IAR B P 101;1IAR B V 176;17.6941
1IAR B P 101;1IAR B R 177;7.81662
1IAR B P 101;1IAR B A 178;9.73013
1IAR B P 101;1IAR B S 188;4.76396
1IAR B P 101;1IAR B E 189;1.11762
1IAR B P 101;1IAR B S 191;13.6586
1IAR B P 101;1IAR B P 192;2.23475
1IAR B G 102;1IAR B N 103;26.3661
1IAR B G 102;1IAR B L 104;6.3111
1IAR B G 102;1IAR B W 118;7.12293
1IAR B G 102;1IAR B S 119;16.9995
1IAR B G 102;1IAR B P 121;1.66973
1IAR B G 102;1IAR B V 176;0.173112
1IAR B G 102;1IAR B S 191;4.22681
1IAR B G 102;1IAR B P 192;8.20995
1IAR B N 103;1IAR B L 104;20.9021
1IAR B N 103;1IAR B T 105;15.1044
1IAR B N 103;1IAR B T 117;5.10431
1IAR B N 103;1IAR B W 118;7.39525
1IAR B N 103;1IAR B S 119;25.0706
1IAR B N 103;1IAR B P 192;2.27213
1IAR B L 104;1IAR B T 105;28.0777
1IAR B L 104;1IAR B V 106;0.178543
1IAR B L 104;1IAR B L 116;12.4213
1IAR B L 104;1IAR B T 117;7.39737
1IAR B L 104;1IAR B W 118;18.8023
1IAR B L 104;1IAR B V 136;3.5439
1IAR B L 104;1IAR B A 174;10.4127
1IAR B L 104;1IAR B R 175;7.70504
1IAR B L 104;1IAR B V 176;13.4249
1IAR B L 104;1IAR B S 191;10.3157
1IAR B L 104;1IAR B P 192;12.2398
1IAR B L 104;1IAR B S 193;1.28747
1IAR B L 104;1IAR B T 194;26.7068
1IAR B T 105;1IAR B V 106;32.549
1IAR B T 105;1IAR B H 107;0.101199
1IAR B T 105;1IAR B L 115;0.815731
1IAR B T 105;1IAR B L 116;5.40142
1IAR B T 105;1IAR B T 117;30.0602
1IAR B T 105;1IAR B T 194;8.98464
1IAR B V 106;1IAR B H 107;36.7359
1IAR B V 106;1IAR B L 114;11.3086
1IAR B V 106;1IAR B L 115;6.57742
1IAR B V 106;1IAR B L 116;15.9568
1IAR B V 106;1IAR B T 117;0.0801057
1IAR B V 106;1IAR B A 174;0.592888
1IAR B V 106;1IAR B T 194;16.9865
1IAR B V 106;1IAR B K 195;5.59984
1IAR B V 106;1IAR B W 196;27.0382
1IAR B H 107;1IAR B T 113;1.53537
1IAR B H 107;1IAR B L 114;9.86857
1IAR B H 107;1IAR B L 115;40.2416
1IAR B H 107;1IAR B T 117;3.09103
1IAR B D 112;1IAR B T 113;45.3279
1IAR B D 112;1IAR B L 114;0.0460638
1IAR B D 112;1IAR B I 161;0.529988
1IAR B D 112;1IAR B A 162;13.2829
1IAR B T 113;1IAR B L 114;32.2579
1IAR B T 113;1IAR B L 115;9.31603
1IAR B T 113;1IAR B R 160;22.0655
1IAR B T 113;1IAR B I 161;10.4364
1IAR B T 113;1IAR B A 162;6.89925
1IAR B L 114;1IAR B L 115;22.964
1IAR B L 114;1IAR B L 116;13.7397
1IAR B L 114;1IAR B L 159;2.06188
1IAR B L 114;1IAR B R 160;5.01243
1IAR B L 114;1IAR B I 161;37.9137
1IAR B L 114;1IAR B A 162;1.19529
1IAR B L 114;1IAR B W 196;35.3517
1IAR B L 115;1IAR B L 116;26.6585
1IAR B L 115;1IAR B T 117;11.6506
1IAR B L 115;1IAR B S 158;10.7467
1IAR B L 115;1IAR B L 159;9.20697
1IAR B L 115;1IAR B R 160;34.8288
1IAR B L 116;1IAR B T 117;18.7265
1IAR B L 116;1IAR B W 118;9.85824
1IAR B L 116;1IAR B V 136;10.4682
1IAR B L 116;1IAR B I 138;5.35446
1IAR B L 116;1IAR B S 158;6.10681
1IAR B L 116;1IAR B L 159;26.9717
1IAR B L 116;1IAR B I 161;8.97604
1IAR B L 116;1IAR B A 174;10.652
1IAR B L 116;1IAR B T 194;0.498748
1IAR B L 116;1IAR B W 196;7.7539
1IAR B T 117;1IAR B W 118;29.4436
1IAR B T 117;1IAR B P 157;9.34562
1IAR B T 117;1IAR B S 158;11.6344
1IAR B W 118;1IAR B S 119;29.8648
1IAR B W 118;1IAR B N 120;0.162603
1IAR B W 118;1IAR B Y 134;22.2526
1IAR B W 118;1IAR B V 136;13.4672
1IAR B W 118;1IAR B V 152;11.3104
1IAR B W 118;1IAR B P 157;37.1863
1IAR B W 118;1IAR B S 158;11.8712
1IAR B W 118;1IAR B L 159;8.02958
1IAR B W 118;1IAR B V 176;21.2824
1IAR B S 119;1IAR B N 120;31.0379
1IAR B S 119;1IAR B P 121;6.5142
1IAR B S 119;1IAR B Y 134;0.51103
1IAR B S 119;1IAR B P 157;2.07775
1IAR B N 120;1IAR B P 121;26.2807
1IAR B N 120;1IAR B Y 122;22.2766
1IAR B N 120;1IAR B Y 129;34.6515
1IAR B N 120;1IAR B L 132;11.0097
1IAR B N 120;1IAR B Y 134;18.1681
1IAR B N 120;1IAR B Y 154;6.51986
1IAR B N 120;1IAR B P 157;11.3163
1IAR B P 121;1IAR B Y 122;30.4967
1IAR B P 121;1IAR B P 123;1.54106
1IAR B P 121;1IAR B L 132;9.89518
1IAR B P 121;1IAR B Y 134;3.36274
1IAR B P 121;1IAR B A 178;0.623771
1IAR B Y 122;1IAR B P 123;29.0714
1IAR B Y 122;1IAR B P 124;0.399154
1IAR B Y 122;1IAR B N 126;15.9481
1IAR B Y 122;1IAR B L 128;21.65
1IAR B Y 122;1IAR B Y 129;21.2448
1IAR B Y 122;1IAR B L 132;13.2676
1IAR B P 123;1IAR B P 124;28.2621
1IAR B P 123;1IAR B D 125;17.8613
1IAR B P 123;1IAR B N 126;19.5325
1IAR B P 123;1IAR B Y 129;8.71147
1IAR B P 124;1IAR B D 125;28.4213
1IAR B P 124;1IAR B N 126;5.57013
1IAR B P 124;1IAR B Y 129;38.5099
1IAR B D 125;1IAR B N 126;24.6615
1IAR B D 125;1IAR B Y 127;4.02651
1IAR B N 126;1IAR B Y 127;27.137
1IAR B N 126;1IAR B L 128;14.9498
1IAR B N 126;1IAR B Y 129;15.1289
1IAR B N 126;1IAR B N 130;2.65898
1IAR B Y 127;1IAR B L 128;19.5211
1IAR B Y 127;1IAR B Y 129;1.02086
1IAR B Y 127;1IAR B N 130;8.28738
1IAR B Y 127;1IAR B H 131;7.52396
1IAR B Y 127;1IAR B Y 183;12.597
1IAR B L 128;1IAR B Y 129;18.4833
1IAR B L 128;1IAR B N 130;2.9081
1IAR B L 128;1IAR B H 131;13.7234
1IAR B L 128;1IAR B L 132;15.4829
1IAR B L 128;1IAR B A 180;11.8862
1IAR B L 128;1IAR B Y 183;18.4619
1IAR B L 128;1IAR B T 185;2.41569
1IAR B Y 129;1IAR B N 130;28.6741
1IAR B Y 129;1IAR B H 131;1.4676
1IAR B Y 129;1IAR B L 132;9.54503
1IAR B Y 129;1IAR B Y 154;11.0882
1IAR B N 130;1IAR B H 131;42.1612
1IAR B N 130;1IAR B L 132;0.408209
1IAR B N 130;1IAR B Y 154;35.1978
1IAR B H 131;1IAR B L 132;22.2092
1IAR B H 131;1IAR B T 133;5.37695
1IAR B H 131;1IAR B Y 154;0.974618
1IAR B H 131;1IAR B W 179;1.065
1IAR B H 131;1IAR B A 180;17.1946
1IAR B H 131;1IAR B Q 181;6.07101
1IAR B H 131;1IAR B A 182;24.2884
1IAR B H 131;1IAR B Y 183;12.672
1IAR B L 132;1IAR B T 133;23.0444
1IAR B L 132;1IAR B Y 134;18.0337
1IAR B L 132;1IAR B T 153;1.76999
1IAR B L 132;1IAR B Y 154;23.2591
1IAR B L 132;1IAR B A 178;14.5015
1IAR B L 132;1IAR B W 179;10.4945
1IAR B L 132;1IAR B A 180;8.93272
1IAR B T 133;1IAR B Y 134;26.2049
1IAR B T 133;1IAR B A 135;0.111342
1IAR B T 133;1IAR B N 151;15.3588
1IAR B T 133;1IAR B V 152;9.28871
1IAR B T 133;1IAR B T 153;7.15993
1IAR B T 133;1IAR B A 178;8.2348
1IAR B T 133;1IAR B W 179;34.6565
1IAR B T 133;1IAR B A 180;0.000586806
1IAR B T 133;1IAR B Q 181;7.58068
1IAR B T 133;1IAR B W 187;7.36613
1IAR B Y 134;1IAR B A 135;19.6765
1IAR B Y 134;1IAR B V 136;3.24102
1IAR B Y 134;1IAR B Y 150;1.31754
1IAR B Y 134;1IAR B N 151;6.44932
1IAR B Y 134;1IAR B V 152;26.5692
1IAR B Y 134;1IAR B T 153;8.51572
1IAR B Y 134;1IAR B Y 154;13.4605
1IAR B Y 134;1IAR B E 156;0.93392
1IAR B Y 134;1IAR B P 157;13.3818
1IAR B Y 134;1IAR B V 176;8.71837
1IAR B Y 134;1IAR B R 177;5.4228
1IAR B Y 134;1IAR B A 178;11.5079
1IAR B Y 134;1IAR B W 187;1.06215
1IAR B A 135;1IAR B V 136;18.5902
1IAR B A 135;1IAR B N 137;0.299032
1IAR B A 135;1IAR B I 149;13.7225
1IAR B A 135;1IAR B Y 150;4.01183
1IAR B A 135;1IAR B N 151;9.13785
1IAR B A 135;1IAR B R 175;0.0853011
1IAR B A 135;1IAR B V 176;8.42638
1IAR B A 135;1IAR B R 177;20.607
1IAR B A 135;1IAR B A 178;0.00265001
1IAR B A 135;1IAR B W 187;17.9415
1IAR B A 135;1IAR B W 190;11.4196
1IAR B V 136;1IAR B N 137;19.6873
1IAR B V 136;1IAR B I 138;12.5465
1IAR B V 136;1IAR B R 148;1.20207
1IAR B V 136;1IAR B I 149;9.25405
1IAR B V 136;1IAR B Y 150;21.1273
1IAR B V 136;1IAR B V 152;8.30756
1IAR B V 136;1IAR B L 159;12.9325
1IAR B V 136;1IAR B A 174;3.88325
1IAR B V 136;1IAR B R 175;8.60796
1IAR B V 136;1IAR B V 176;14.7298
1IAR B V 136;1IAR B W 190;0.213483
1IAR B N 137;1IAR B I 138;23.5774
1IAR B N 137;1IAR B W 139;16.3985
1IAR B N 137;1IAR B F 147;13.6931
1IAR B N 137;1IAR B R 148;7.3681
1IAR B N 137;1IAR B I 149;14.5227
1IAR B N 137;1IAR B R 173;0.230685
1IAR B N 137;1IAR B A 174;6.66642
1IAR B N 137;1IAR B R 175;33.9539
1IAR B N 137;1IAR B W 190;17.376
1IAR B I 138;1IAR B W 139;23.9495
1IAR B I 138;1IAR B F 147;6.55927
1IAR B I 138;1IAR B R 148;21.7477
1IAR B I 138;1IAR B Y 150;14.7515
1IAR B I 138;1IAR B L 159;4.16836
1IAR B I 138;1IAR B I 161;12.4702
1IAR B I 138;1IAR B Y 172;15.1896
1IAR B I 138;1IAR B R 173;7.02599
1IAR B I 138;1IAR B A 174;6.77892
1IAR B I 138;1IAR B W 196;16.1737
1IAR B W 139;1IAR B S 140;21.1391
1IAR B W 139;1IAR B E 141;12.2112
1IAR B W 139;1IAR B P 144;24.5834
1IAR B W 139;1IAR B A 145;0.107337
1IAR B W 139;1IAR B D 146;7.3631
1IAR B W 139;1IAR B F 147;13.7453
1IAR B W 139;1IAR B Y 172;10.6876
1IAR B W 139;1IAR B R 173;50.5373
1IAR B W 139;1IAR B A 174;3.68091
1IAR B W 139;1IAR B R 175;24.0332
1IAR B W 139;1IAR B S 193;9.64239
1IAR B S 140;1IAR B E 141;15.2783
1IAR B S 140;1IAR B N 142;11.2669
1IAR B S 140;1IAR B D 143;13.2182
1IAR B S 140;1IAR B P 144;7.92855
1IAR B S 140;1IAR B D 146;19.7787
1IAR B S 140;1IAR B I 170;19.7035
1IAR B S 140;1IAR B S 171;3.04207
1IAR B S 140;1IAR B Y 172;16.6417
1IAR B E 141;1IAR B N 142;26.1567
1IAR B E 141;1IAR B D 143;8.18639
1IAR B E 141;1IAR B P 144;7.45646
1IAR B E 141;1IAR B I 170;0.114592
1IAR B E 141;1IAR B S 171;24.3046
1IAR B E 141;1IAR B Y 172;4.70117
1IAR B E 141;1IAR B R 173;37.1593
1IAR B E 141;1IAR B K 195;26.8596
1IAR B N 142;1IAR B D 143;33.777
1IAR B N 142;1IAR B G 169;0.815962
1IAR B N 142;1IAR B I 170;22.845
1IAR B N 142;1IAR B S 171;18.9464
1IAR B N 142;1IAR B H 197;1.99716
1IAR B D 143;1IAR B P 144;35.9349
1IAR B D 143;1IAR B D 146;1.21427
1IAR B P 144;1IAR B A 145;33.8543
1IAR B P 144;1IAR B D 146;16.917
1IAR B P 144;1IAR B F 147;0.394438
1IAR B A 145;1IAR B D 146;22.2648
1IAR B A 145;1IAR B F 147;25.1307
1IAR B D 146;1IAR B F 147;27.406
1IAR B D 146;1IAR B I 170;5.42439
1IAR B D 146;1IAR B Y 172;9.74471
1IAR B F 147;1IAR B R 148;36.9638
1IAR B F 147;1IAR B I 149;20.2372
1IAR B R 148;1IAR B I 149;26.3907
1IAR B R 148;1IAR B Y 150;32.2496
1IAR B R 148;1IAR B I 161;3.08059
1IAR B R 148;1IAR B A 163;27.0245
1IAR B I 149;1IAR B Y 150;29.1522
1IAR B I 149;1IAR B N 151;12.9259
1IAR B I 149;1IAR B R 177;3.18492
1IAR B I 149;1IAR B W 190;7.80739
1IAR B Y 150;1IAR B N 151;25.7719
1IAR B Y 150;1IAR B V 152;8.21218
1IAR B Y 150;1IAR B L 159;25.0138
1IAR B Y 150;1IAR B R 160;0.878616
1IAR B Y 150;1IAR B I 161;26.5179
1IAR B Y 150;1IAR B A 163;3.76105
1IAR B N 151;1IAR B V 152;27.334
1IAR B N 151;1IAR B T 153;1.07271
1IAR B N 151;1IAR B W 187;3.80721
1IAR B V 152;1IAR B T 153;35.6461
1IAR B V 152;1IAR B E 156;10.8795
1IAR B V 152;1IAR B P 157;0.327282
1IAR B V 152;1IAR B S 158;11.5806
1IAR B V 152;1IAR B L 159;13.717
1IAR B T 153;1IAR B Y 154;32.9846
1IAR B T 153;1IAR B L 155;13.7334
1IAR B T 153;1IAR B E 156;8.85574
1IAR B Y 154;1IAR B L 155;56.1822
1IAR B Y 154;1IAR B E 156;3.3437
1IAR B Y 154;1IAR B P 157;5.26682
1IAR B L 155;1IAR B E 156;32.5431
1IAR B L 155;1IAR B P 157;7.1791
1IAR B E 156;1IAR B P 157;29.7144
1IAR B E 156;1IAR B S 158;32.3669
1IAR B E 156;1IAR B R 160;7.02106
1IAR B P 157;1IAR B S 158;17.5326
1IAR B S 158;1IAR B L 159;23.0664
1IAR B S 158;1IAR B R 160;8.88225
1IAR B L 159;1IAR B R 160;30.8119
1IAR B L 159;1IAR B I 161;18.0976
1IAR B R 160;1IAR B I 161;23.5232
1IAR B R 160;1IAR B A 162;0.584463
1IAR B I 161;1IAR B A 162;35.471
1IAR B I 161;1IAR B A 163;10.3902
1IAR B I 161;1IAR B W 196;2.87932
1IAR B A 162;1IAR B A 163;37.8001
1IAR B G 169;1IAR B I 170;37.3024
1IAR B G 169;1IAR B Y 172;0.00628614
1IAR B G 169;1IAR B H 197;24.7765
1IAR B I 170;1IAR B S 171;23.3688
1IAR B I 170;1IAR B Y 172;34.3174
1IAR B I 170;1IAR B H 197;16.7741
1IAR B S 171;1IAR B Y 172;20.4635
1IAR B S 171;1IAR B K 195;3.44013
1IAR B S 171;1IAR B W 196;9.48501
1IAR B S 171;1IAR B H 197;19.996
1IAR B Y 172;1IAR B R 173;19.1118
1IAR B Y 172;1IAR B K 195;8.53955
1IAR B Y 172;1IAR B W 196;43.0312
1IAR B Y 172;1IAR B H 197;1.59189
1IAR B R 173;1IAR B A 174;17.6489
1IAR B R 173;1IAR B S 193;15.7548
1IAR B R 173;1IAR B T 194;8.87657
1IAR B R 173;1IAR B K 195;17.5757
1IAR B R 173;1IAR B W 196;4.62239
1IAR B A 174;1IAR B R 175;16.5156
1IAR B A 174;1IAR B S 193;8.77925
1IAR B A 174;1IAR B T 194;19.4223
1IAR B A 174;1IAR B W 196;10.8606
1IAR B R 175;1IAR B V 176;17.9694
1IAR B R 175;1IAR B W 190;52.7405
1IAR B R 175;1IAR B S 191;10.0446
1IAR B R 175;1IAR B P 192;0.840231
1IAR B R 175;1IAR B S 193;13.4682
1IAR B V 176;1IAR B R 177;19.8458
1IAR B V 176;1IAR B E 189;0.364899
1IAR B V 176;1IAR B W 190;9.94903
1IAR B V 176;1IAR B S 191;23.4341
1IAR B R 177;1IAR B A 178;17.9695
1IAR B R 177;1IAR B W 187;48.8845
1IAR B R 177;1IAR B S 188;16.3623
1IAR B R 177;1IAR B E 189;4.97026
1IAR B R 177;1IAR B W 190;49.3086
1IAR B A 178;1IAR B W 179;17.1066
1IAR B A 178;1IAR B T 186;0.107099
1IAR B A 178;1IAR B W 187;11.2795
1IAR B A 178;1IAR B S 188;16.6252
1IAR B W 179;1IAR B A 180;22.3845
1IAR B W 179;1IAR B Q 181;33.8093
1IAR B W 179;1IAR B N 184;9.2093
1IAR B W 179;1IAR B T 185;24.0226
1IAR B W 179;1IAR B T 186;6.75241
1IAR B W 179;1IAR B W 187;35.3706
1IAR B A 180;1IAR B Q 181;17.9462
1IAR B A 180;1IAR B A 182;2.99805
1IAR B A 180;1IAR B Y 183;11.9139
1IAR B A 180;1IAR B N 184;2.83858
1IAR B A 180;1IAR B T 185;20.9909
1IAR B Q 181;1IAR B A 182;30.7847
1IAR B Q 181;1IAR B Y 183;1.24544
1IAR B Q 181;1IAR B N 184;14.3772
1IAR B Q 181;1IAR B T 185;0.0104805
1IAR B A 182;1IAR B Y 183;28.3121
1IAR B A 182;1IAR B N 184;4.60437
1IAR B Y 183;1IAR B N 184;26.6634
1IAR B Y 183;1IAR B T 185;12.9346
1IAR B N 184;1IAR B T 185;27.2678
1IAR B N 184;1IAR B T 186;0.293684
1IAR B T 185;1IAR B T 186;31.2398
1IAR B T 186;1IAR B W 187;31.6435
1IAR B T 186;1IAR B S 188;0.0665844
1IAR B W 187;1IAR B S 188;27.8982
1IAR B S 188;1IAR B E 189;30.2807
1IAR B S 188;1IAR B W 190;0.904963
1IAR B E 189;1IAR B W 190;32.8389
1IAR B E 189;1IAR B S 191;0.479431
1IAR B W 190;1IAR B S 191;31.0718
1IAR B W 190;1IAR B P 192;2.07067
1IAR B S 191;1IAR B P 192;37.274
1IAR B S 191;1IAR B S 193;3.75163
1IAR B P 192;1IAR B S 193;30.2843
1IAR B P 192;1IAR B T 194;0.855057
1IAR B S 193;1IAR B T 194;28.4743
1IAR B T 194;1IAR B K 195;35.0741
1IAR B T 194;1IAR B W 196;2.49625
1IAR B K 195;1IAR B W 196;34.611
1IAR B W 196;1IAR B H 197;39.7653
