V1;V2;Weight
1LFD A G 14;1LFD A D 15;31.8196
1LFD A G 14;1LFD A C 16;5.15608
1LFD A G 14;1LFD A T 37;0.443486
1LFD A G 14;1LFD A S 38;4.09491
1LFD A D 15;1LFD A C 16;20.1671
1LFD A D 15;1LFD A T 37;6.6352
1LFD A D 15;1LFD A S 38;25.0528
1LFD A D 15;1LFD A F 84;18.8298
1LFD A D 15;1LFD A Y 85;5.5222
1LFD A C 16;1LFD A C 17;21.5872
1LFD A C 16;1LFD A L 35;15.2483
1LFD A C 16;1LFD A V 36;7.06249
1LFD A C 16;1LFD A T 37;13.6983
1LFD A C 16;1LFD A S 38;0.059445
1LFD A C 16;1LFD A F 84;11.5175
1LFD A C 17;1LFD A I 18;17.6293
1LFD A C 17;1LFD A I 19;11.1355
1LFD A C 17;1LFD A I 34;0.971845
1LFD A C 17;1LFD A L 35;10.2241
1LFD A C 17;1LFD A V 36;23.3089
1LFD A C 17;1LFD A F 84;12.8908
1LFD A C 17;1LFD A M 87;13.4721
1LFD A C 17;1LFD A Y 93;18.0917
1LFD A I 18;1LFD A I 19;22.9418
1LFD A I 18;1LFD A R 20;4.08817
1LFD A I 18;1LFD A S 33;11.462
1LFD A I 18;1LFD A I 34;6.1353
1LFD A I 18;1LFD A L 35;12.0271
1LFD A I 18;1LFD A Y 93;12.619
1LFD A I 19;1LFD A R 20;21.8946
1LFD A I 19;1LFD A V 21;12.6883
1LFD A I 19;1LFD A K 32;0.652708
1LFD A I 19;1LFD A S 33;7.10787
1LFD A I 19;1LFD A I 34;27.0597
1LFD A I 19;1LFD A V 36;19.447
1LFD A I 19;1LFD A V 45;7.42417
1LFD A I 19;1LFD A L 65;2.61868
1LFD A I 19;1LFD A V 83;2.76955
1LFD A I 19;1LFD A M 87;8.07895
1LFD A I 19;1LFD A Y 93;15.1635
1LFD A I 19;1LFD A F 95;24.1376
1LFD A R 20;1LFD A V 21;19.6434
1LFD A R 20;1LFD A S 22;0.580561
1LFD A R 20;1LFD A Y 31;46.7527
1LFD A R 20;1LFD A K 32;1.7548
1LFD A R 20;1LFD A S 33;11.5286
1LFD A R 20;1LFD A Y 93;13.0228
1LFD A R 20;1LFD A D 94;26.4548
1LFD A R 20;1LFD A F 95;12.98
1LFD A V 21;1LFD A S 22;21.2098
1LFD A V 21;1LFD A Y 31;8.70138
1LFD A V 21;1LFD A K 32;19.3158
1LFD A V 21;1LFD A I 34;13.9821
1LFD A V 21;1LFD A V 45;0.762994
1LFD A V 21;1LFD A A 49;14.7011
1LFD A V 21;1LFD A K 52;0.35515
1LFD A V 21;1LFD A H 53;19.1681
1LFD A V 21;1LFD A L 65;8.02201
1LFD A V 21;1LFD A F 95;14.3058
1LFD A V 21;1LFD A I 96;1.68486
1LFD A V 21;1LFD A L 97;12.811
1LFD A S 22;1LFD A L 23;29.6109
1LFD A S 22;1LFD A N 29;1.14907
1LFD A S 22;1LFD A M 30;15.4527
1LFD A S 22;1LFD A Y 31;9.87133
1LFD A S 22;1LFD A H 53;4.73197
1LFD A S 22;1LFD A I 68;8.60069
1LFD A S 22;1LFD A F 95;11.655
1LFD A S 22;1LFD A I 96;18.6344
1LFD A S 22;1LFD A L 97;8.1538
1LFD A L 23;1LFD A D 24;26.7953
1LFD A L 23;1LFD A V 25;40.9285
1LFD A L 23;1LFD A N 27;10.5286
1LFD A L 23;1LFD A N 29;6.69778
1LFD A L 23;1LFD A M 30;0.223206
1LFD A L 23;1LFD A H 53;31.7615
1LFD A L 23;1LFD A L 55;20.1999
1LFD A L 23;1LFD A Y 63;5.27383
1LFD A L 23;1LFD A I 96;4.03135
1LFD A L 23;1LFD A L 97;20.3433
1LFD A D 24;1LFD A V 25;36.4385
1LFD A D 24;1LFD A Y 63;2.51914
1LFD A D 24;1LFD A I 96;17.8953
1LFD A D 24;1LFD A L 97;7.52172
1LFD A D 24;1LFD A K 98;21.6004
1LFD A D 24;1LFD A K 99;8.17737
1LFD A V 25;1LFD A D 26;35.5946
1LFD A V 25;1LFD A N 27;22.3704
1LFD A V 25;1LFD A N 29;1.11771
1LFD A D 26;1LFD A N 27;29.4968
1LFD A D 26;1LFD A G 28;5.89015
1LFD A N 27;1LFD A G 28;25.6435
1LFD A N 27;1LFD A N 29;22.816
1LFD A N 27;1LFD A H 53;3.54156
1LFD A G 28;1LFD A N 29;21.0553
1LFD A G 28;1LFD A M 30;4.50542
1LFD A N 29;1LFD A M 30;29.9187
1LFD A N 29;1LFD A Y 31;13.8325
1LFD A N 29;1LFD A K 32;17.2677
1LFD A N 29;1LFD A H 53;12.3722
1LFD A M 30;1LFD A Y 31;30.7047
1LFD A Y 31;1LFD A K 32;22.0786
1LFD A Y 31;1LFD A S 33;6.70028
1LFD A Y 31;1LFD A H 53;0.364533
1LFD A K 32;1LFD A S 33;18.8854
1LFD A K 32;1LFD A I 34;5.12407
1LFD A K 32;1LFD A K 52;32.9362
1LFD A K 32;1LFD A H 53;27.4277
1LFD A K 32;1LFD A N 54;11.8042
1LFD A S 33;1LFD A I 34;21.3746
1LFD A S 33;1LFD A K 52;10.5448
1LFD A I 34;1LFD A L 35;21.7728
1LFD A I 34;1LFD A V 36;3.41398
1LFD A I 34;1LFD A V 45;12.4741
1LFD A I 34;1LFD A K 48;20.7674
1LFD A I 34;1LFD A A 49;12.7514
1LFD A I 34;1LFD A K 52;19.37
1LFD A L 35;1LFD A V 36;24.0506
1LFD A L 35;1LFD A T 37;9.29608
1LFD A L 35;1LFD A D 40;1.70191
1LFD A L 35;1LFD A V 45;0.465922
1LFD A L 35;1LFD A K 48;14.1251
1LFD A V 36;1LFD A T 37;20.539
1LFD A V 36;1LFD A D 40;10.0721
1LFD A V 36;1LFD A V 45;12.7802
1LFD A V 36;1LFD A V 83;13.1191
1LFD A V 36;1LFD A F 84;17.0254
1LFD A V 36;1LFD A M 87;4.89767
1LFD A T 37;1LFD A S 38;17.3686
1LFD A T 37;1LFD A Q 39;16.6369
1LFD A T 37;1LFD A D 40;25.7993
1LFD A T 37;1LFD A K 48;1.86425
1LFD A T 37;1LFD A N 82;0.250048
1LFD A T 37;1LFD A F 84;7.56855
1LFD A S 38;1LFD A Q 39;28.7571
1LFD A S 38;1LFD A D 40;1.36153
1LFD A S 38;1LFD A N 82;12.9942
1LFD A S 38;1LFD A F 84;18.4238
1LFD A S 38;1LFD A Y 85;19.9691
1LFD A Q 39;1LFD A D 40;17.724
1LFD A Q 39;1LFD A K 41;15.5534
1LFD A Q 39;1LFD A T 44;0.476987
1LFD A Q 39;1LFD A N 82;6.10918
1LFD A D 40;1LFD A K 41;18.6504
1LFD A D 40;1LFD A T 44;12.5287
1LFD A D 40;1LFD A V 45;15.6954
1LFD A D 40;1LFD A K 48;14.3586
1LFD A D 40;1LFD A N 82;10.2804
1LFD A D 40;1LFD A V 83;9.53435
1LFD A D 40;1LFD A F 84;2.13316
1LFD A K 41;1LFD A A 42;14.9087
1LFD A K 41;1LFD A P 43;18.2678
1LFD A K 41;1LFD A T 44;27.3789
1LFD A K 41;1LFD A V 45;6.79078
1LFD A K 41;1LFD A N 80;18.2221
1LFD A K 41;1LFD A A 81;5.73745
1LFD A K 41;1LFD A N 82;12.4484
1LFD A K 41;1LFD A V 83;3.40248
1LFD A A 42;1LFD A P 43;19.9893
1LFD A A 42;1LFD A T 44;1.19851
1LFD A A 42;1LFD A V 45;6.56874
1LFD A A 42;1LFD A I 46;21.6428
1LFD A A 42;1LFD A L 65;5.69303
1LFD A A 42;1LFD A I 77;9.04698
1LFD A A 42;1LFD A P 78;6.76563
1LFD A A 42;1LFD A E 79;11.5406
1LFD A A 42;1LFD A N 80;2.29338
1LFD A A 42;1LFD A A 81;9.85577
1LFD A A 42;1LFD A V 83;9.87384
1LFD A P 43;1LFD A T 44;24.7568
1LFD A P 43;1LFD A V 45;0.332458
1LFD A P 43;1LFD A I 46;12.3072
1LFD A P 43;1LFD A R 47;12.1112
1LFD A P 43;1LFD A P 60;11.5228
1LFD A P 43;1LFD A E 79;11.4407
1LFD A P 43;1LFD A N 80;17.1677
1LFD A T 44;1LFD A V 45;17.4265
1LFD A T 44;1LFD A I 46;1.12924
1LFD A T 44;1LFD A R 47;9.70537
1LFD A T 44;1LFD A K 48;18.9566
1LFD A V 45;1LFD A I 46;17.452
1LFD A V 45;1LFD A R 47;0.680125
1LFD A V 45;1LFD A K 48;13.2598
1LFD A V 45;1LFD A A 49;10.5265
1LFD A V 45;1LFD A L 65;16.4784
1LFD A V 45;1LFD A V 83;15.9523
1LFD A I 46;1LFD A R 47;16.3779
1LFD A I 46;1LFD A K 48;0.912091
1LFD A I 46;1LFD A A 49;7.96501
1LFD A I 46;1LFD A M 50;17.8461
1LFD A I 46;1LFD A P 60;19.0602
1LFD A I 46;1LFD A Y 63;17.5827
1LFD A I 46;1LFD A E 64;5.35778
1LFD A I 46;1LFD A L 65;22.5974
1LFD A I 46;1LFD A E 79;4.6842
1LFD A I 46;1LFD A L 97;13.6339
1LFD A R 47;1LFD A K 48;19.9173
1LFD A R 47;1LFD A A 49;0.758681
1LFD A R 47;1LFD A M 50;21.8285
1LFD A R 47;1LFD A D 51;32.1221
1LFD A R 47;1LFD A L 55;5.17061
1LFD A R 47;1LFD A D 56;14.6431
1LFD A R 47;1LFD A D 58;9.63377
1LFD A R 47;1LFD A E 59;0.905458
1LFD A R 47;1LFD A P 60;29.2753
1LFD A K 48;1LFD A A 49;16.0354
1LFD A K 48;1LFD A M 50;0.638832
1LFD A K 48;1LFD A D 51;8.67959
1LFD A K 48;1LFD A K 52;11.1085
1LFD A A 49;1LFD A M 50;16.1059
1LFD A A 49;1LFD A D 51;0.868802
1LFD A A 49;1LFD A K 52;9.43987
1LFD A A 49;1LFD A H 53;14.1091
1LFD A A 49;1LFD A L 65;4.71325
1LFD A A 49;1LFD A L 97;14.587
1LFD A M 50;1LFD A D 51;17.0106
1LFD A M 50;1LFD A K 52;0.766712
1LFD A M 50;1LFD A H 53;6.63301
1LFD A M 50;1LFD A N 54;2.88409
1LFD A M 50;1LFD A L 55;32.7185
1LFD A M 50;1LFD A D 58;10.4867
1LFD A M 50;1LFD A E 59;4.79549
1LFD A M 50;1LFD A P 60;12.6258
1LFD A M 50;1LFD A Y 63;16.4021
1LFD A M 50;1LFD A L 97;13.0086
1LFD A D 51;1LFD A K 52;21.6585
1LFD A D 51;1LFD A H 53;1.16553
1LFD A D 51;1LFD A N 54;9.47978
1LFD A D 51;1LFD A L 55;2.03672
1LFD A D 51;1LFD A D 56;23.9443
1LFD A K 52;1LFD A H 53;19.7245
1LFD A K 52;1LFD A N 54;6.62005
1LFD A H 53;1LFD A N 54;26.2445
1LFD A H 53;1LFD A L 55;14.7934
1LFD A H 53;1LFD A L 97;5.88705
1LFD A N 54;1LFD A L 55;25.9041
1LFD A N 54;1LFD A D 56;15.9634
1LFD A L 55;1LFD A D 56;20.7629
1LFD A L 55;1LFD A E 57;3.28539
1LFD A L 55;1LFD A D 58;24.7072
1LFD A L 55;1LFD A Y 63;19.2314
1LFD A L 55;1LFD A L 97;6.49154
1LFD A D 56;1LFD A E 57;31.1016
1LFD A D 56;1LFD A D 58;4.64789
1LFD A E 57;1LFD A D 58;42.9572
1LFD A E 57;1LFD A E 59;6.34122
1LFD A D 58;1LFD A E 59;27.1268
1LFD A D 58;1LFD A P 60;0.0616084
1LFD A D 58;1LFD A D 62;0.00614103
1LFD A D 58;1LFD A Y 63;19.6565
1LFD A D 58;1LFD A K 99;8.71435
1LFD A E 59;1LFD A P 60;22.7262
1LFD A E 59;1LFD A E 61;24.9568
1LFD A E 59;1LFD A D 62;14.684
1LFD A E 59;1LFD A Y 63;8.02996
1LFD A P 60;1LFD A E 61;34.0413
1LFD A P 60;1LFD A D 62;0.78672
1LFD A P 60;1LFD A Y 63;14.7247
1LFD A E 61;1LFD A D 62;24.514
1LFD A E 61;1LFD A Y 63;7.87038
1LFD A E 61;1LFD A R 100;9.70144
1LFD A D 62;1LFD A Y 63;24.4416
1LFD A D 62;1LFD A K 99;29.326
1LFD A D 62;1LFD A R 100;21.106
1LFD A Y 63;1LFD A E 64;21.7434
1LFD A Y 63;1LFD A L 97;17.3076
1LFD A Y 63;1LFD A K 98;12.7981
1LFD A Y 63;1LFD A K 99;30.1862
1LFD A Y 63;1LFD A R 100;8.07979
1LFD A E 64;1LFD A L 65;25.9507
1LFD A E 64;1LFD A L 66;22.2004
1LFD A E 64;1LFD A K 76;21.875
1LFD A E 64;1LFD A I 77;4.00179
1LFD A E 64;1LFD A I 96;1.95406
1LFD A E 64;1LFD A L 97;9.8436
1LFD A E 64;1LFD A K 98;30.6595
1LFD A E 64;1LFD A K 99;1.89717
1LFD A E 64;1LFD A R 100;33.4531
1LFD A L 65;1LFD A L 66;24.6671
1LFD A L 65;1LFD A L 75;0.251899
1LFD A L 65;1LFD A K 76;0.726056
1LFD A L 65;1LFD A I 77;35.5198
1LFD A L 65;1LFD A V 83;10.9818
1LFD A L 65;1LFD A F 95;18.7502
1LFD A L 65;1LFD A I 96;7.12886
1LFD A L 65;1LFD A L 97;10.8356
1LFD A L 66;1LFD A Q 67;17.408
1LFD A L 66;1LFD A I 68;2.0645
1LFD A L 66;1LFD A K 74;23.816
1LFD A L 66;1LFD A L 75;7.32155
1LFD A L 66;1LFD A K 76;24.5494
1LFD A L 66;1LFD A I 77;1.44158
1LFD A L 66;1LFD A F 95;10.3029
1LFD A L 66;1LFD A I 96;26.7047
1LFD A L 66;1LFD A K 98;17.2365
1LFD A Q 67;1LFD A I 68;18.645
1LFD A Q 67;1LFD A I 69;17.7135
1LFD A Q 67;1LFD A K 74;8.41922
1LFD A Q 67;1LFD A L 75;28.01
1LFD A Q 67;1LFD A I 77;6.79489
1LFD A Q 67;1LFD A M 87;12.1017
1LFD A Q 67;1LFD A N 88;16.8597
1LFD A Q 67;1LFD A A 91;4.33872
1LFD A Q 67;1LFD A N 92;11.6937
1LFD A Q 67;1LFD A Y 93;2.70203
1LFD A Q 67;1LFD A D 94;6.36211
1LFD A Q 67;1LFD A F 95;21.742
1LFD A I 68;1LFD A I 69;21.6894
1LFD A I 68;1LFD A S 70;18.6687
1LFD A I 68;1LFD A E 71;2.28838
1LFD A I 68;1LFD A H 73;1.5858
1LFD A I 68;1LFD A K 74;21.5081
1LFD A I 68;1LFD A N 92;12.6056
1LFD A I 68;1LFD A D 94;31.2342
1LFD A I 68;1LFD A F 95;8.29096
1LFD A I 68;1LFD A I 96;13.7972
1LFD A I 69;1LFD A S 70;30.4488
1LFD A I 69;1LFD A H 73;36.5943
1LFD A I 69;1LFD A K 74;2.21222
1LFD A I 69;1LFD A L 75;13.9388
1LFD A I 69;1LFD A N 88;17.1495
1LFD A I 69;1LFD A A 91;21.6259
1LFD A I 69;1LFD A N 92;13.7637
1LFD A S 70;1LFD A E 71;31.3164
1LFD A S 70;1LFD A D 72;12.8874
1LFD A S 70;1LFD A H 73;24.8887
1LFD A S 70;1LFD A K 74;4.95147
1LFD A E 71;1LFD A D 72;47.8763
1LFD A E 71;1LFD A H 73;0.373346
1LFD A E 71;1LFD A K 74;1.01864
1LFD A D 72;1LFD A H 73;29.3464
1LFD A D 72;1LFD A K 74;2.25551
1LFD A H 73;1LFD A K 74;38.622
1LFD A H 73;1LFD A L 75;8.43622
1LFD A K 74;1LFD A L 75;20.8497
1LFD A K 74;1LFD A K 76;11.375
1LFD A K 74;1LFD A I 96;16.4373
1LFD A K 74;1LFD A K 98;1.89749
1LFD A L 75;1LFD A K 76;32.7201
1LFD A L 75;1LFD A I 77;17.1006
1LFD A L 75;1LFD A P 78;0.49007
1LFD A L 75;1LFD A A 86;11.4552
1LFD A L 75;1LFD A M 87;3.67545
1LFD A L 75;1LFD A N 88;10.4399
1LFD A K 76;1LFD A I 77;22.0945
1LFD A K 76;1LFD A P 78;12.9023
1LFD A I 77;1LFD A P 78;32.6699
1LFD A I 77;1LFD A E 79;5.51426
1LFD A I 77;1LFD A A 81;5.9545
1LFD A I 77;1LFD A V 83;17.7923
1LFD A I 77;1LFD A A 86;11.4924
1LFD A I 77;1LFD A M 87;8.73477
1LFD A I 77;1LFD A F 95;10.2654
1LFD A P 78;1LFD A E 79;22.3428
1LFD A P 78;1LFD A N 80;5.37057
1LFD A P 78;1LFD A A 81;27.0698
1LFD A P 78;1LFD A A 86;7.53258
1LFD A E 79;1LFD A N 80;43.4458
1LFD A E 79;1LFD A R 100;18.9394
1LFD A N 80;1LFD A A 81;27.1837
1LFD A N 80;1LFD A N 82;1.74203
1LFD A A 81;1LFD A N 82;23.8029
1LFD A A 81;1LFD A V 83;5.6927
1LFD A A 81;1LFD A A 86;12.078
1LFD A N 82;1LFD A V 83;14.7984
1LFD A N 82;1LFD A F 84;10.6224
1LFD A N 82;1LFD A Y 85;29.4537
1LFD A N 82;1LFD A A 86;12.0656
1LFD A V 83;1LFD A F 84;17.2934
1LFD A V 83;1LFD A Y 85;1.06212
1LFD A V 83;1LFD A A 86;7.73567
1LFD A V 83;1LFD A M 87;20.1134
1LFD A V 83;1LFD A F 95;8.97907
1LFD A F 84;1LFD A Y 85;44.8202
1LFD A F 84;1LFD A A 86;0.537822
1LFD A F 84;1LFD A M 87;17.736
1LFD A F 84;1LFD A S 89;3.29161
1LFD A Y 85;1LFD A A 86;25.344
1LFD A Y 85;1LFD A M 87;6.89414
1LFD A A 86;1LFD A M 87;24.4332
1LFD A A 86;1LFD A N 88;1.07019
1LFD A M 87;1LFD A N 88;22.1485
1LFD A M 87;1LFD A S 89;19.1995
1LFD A M 87;1LFD A Y 93;17.0441
1LFD A M 87;1LFD A F 95;17.742
1LFD A N 88;1LFD A S 89;18.9258
1LFD A N 88;1LFD A A 90;17.3764
1LFD A N 88;1LFD A A 91;22.0503
1LFD A N 88;1LFD A Y 93;2.6121
1LFD A S 89;1LFD A A 90;28.6466
1LFD A S 89;1LFD A A 91;5.98452
1LFD A S 89;1LFD A Y 93;29.0205
1LFD A A 90;1LFD A A 91;25.0682
1LFD A A 91;1LFD A N 92;31.5224
1LFD A A 91;1LFD A Y 93;11.3972
1LFD A N 92;1LFD A Y 93;21.6091
1LFD A N 92;1LFD A D 94;26.315
1LFD A N 92;1LFD A F 95;0.112283
1LFD A Y 93;1LFD A D 94;20.5039
1LFD A Y 93;1LFD A F 95;10.6318
1LFD A D 94;1LFD A F 95;22.2315
1LFD A F 95;1LFD A I 96;18.3216
1LFD A I 96;1LFD A L 97;21.8388
1LFD A I 96;1LFD A K 98;16.4057
1LFD A L 97;1LFD A K 98;19.1083
1LFD A K 98;1LFD A K 99;35.9411
1LFD A K 98;1LFD A R 100;0.758106
1LFD A K 99;1LFD A R 100;29.5854
