V1;V2;Weight
1LP9 E M 0;1LP9 E D 1;37.7489
1LP9 E M 0;1LP9 E S 2;10.4774
1LP9 E M 0;1LP9 E Q 25;34.0033
1LP9 E M 0;1LP9 E S 26;14.8773
1LP9 E M 0;1LP9 E T 27;21.9215
1LP9 E D 1;1LP9 E S 2;21.1331
1LP9 E D 1;1LP9 E Q 25;7.29319
1LP9 E D 1;1LP9 E S 26;4.40746
1LP9 E D 1;1LP9 E T 27;19.8915
1LP9 E D 1;1LP9 E L 92;8.77516
1LP9 E D 1;1LP9 E L 96;31.0107
1LP9 E D 1;1LP9 E V 105;10.728
1LP9 E S 2;1LP9 E V 3;30.7849
1LP9 E S 2;1LP9 E T 4;3.01632
1LP9 E S 2;1LP9 E Y 24;7.98104
1LP9 E S 2;1LP9 E Q 25;31.1475
1LP9 E S 2;1LP9 E L 92;8.67164
1LP9 E S 2;1LP9 E V 105;6.56177
1LP9 E V 3;1LP9 E T 4;33.0641
1LP9 E V 3;1LP9 E Q 5;6.08841
1LP9 E V 3;1LP9 E C 22;8.03303
1LP9 E V 3;1LP9 E T 23;5.26262
1LP9 E V 3;1LP9 E Y 24;8.77144
1LP9 E V 3;1LP9 E L 32;4.90808
1LP9 E V 3;1LP9 E C 90;12.3785
1LP9 E V 3;1LP9 E A 91;3.24098
1LP9 E V 3;1LP9 E L 92;13.2706
1LP9 E V 3;1LP9 E V 105;13.1741
1LP9 E V 3;1LP9 E F 106;2.24363
1LP9 E V 3;1LP9 E G 107;18.9573
1LP9 E V 3;1LP9 E Q 108;0.312672
1LP9 E T 4;1LP9 E Q 5;35.3167
1LP9 E T 4;1LP9 E N 21;1.33654
1LP9 E T 4;1LP9 E C 22;6.26153
1LP9 E T 4;1LP9 E T 23;33.3281
1LP9 E T 4;1LP9 E Y 24;0.936985
1LP9 E T 4;1LP9 E G 107;0.153785
1LP9 E Q 5;1LP9 E T 6;26.5959
1LP9 E Q 5;1LP9 E E 7;9.38486
1LP9 E Q 5;1LP9 E N 21;9.70356
1LP9 E Q 5;1LP9 E C 22;5.18919
1LP9 E Q 5;1LP9 E W 34;10.3889
1LP9 E Q 5;1LP9 E Y 88;5.17085
1LP9 E Q 5;1LP9 E Y 89;5.07529
1LP9 E Q 5;1LP9 E C 90;16.0377
1LP9 E Q 5;1LP9 E G 107;10.6704
1LP9 E Q 5;1LP9 E Q 108;11.497
1LP9 E Q 5;1LP9 E G 109;14.4776
1LP9 E Q 5;1LP9 E T 110;13.6817
1LP9 E T 6;1LP9 E E 7;36.6182
1LP9 E T 6;1LP9 E G 8;2.213
1LP9 E T 6;1LP9 E V 10;15.2479
1LP9 E T 6;1LP9 E M 19;1.20899
1LP9 E T 6;1LP9 E L 20;7.24857
1LP9 E T 6;1LP9 E N 21;31.7445
1LP9 E T 6;1LP9 E G 109;4.03835
1LP9 E T 6;1LP9 E T 110;25.9461
1LP9 E E 7;1LP9 E G 8;37.8631
1LP9 E E 7;1LP9 E L 9;1.35435
1LP9 E E 7;1LP9 E V 10;1.62095
1LP9 E E 7;1LP9 E T 110;0.0805119
1LP9 E G 8;1LP9 E L 9;30.2042
1LP9 E G 8;1LP9 E V 10;3.92429
1LP9 E G 8;1LP9 E T 110;7.71227
1LP9 E G 8;1LP9 E S 111;8.48331
1LP9 E G 8;1LP9 F H 41;9.14772
1LP9 E L 9;1LP9 E V 10;29.7042
1LP9 E L 9;1LP9 E T 11;20.0768
1LP9 E L 9;1LP9 E S 111;23.2772
1LP9 E L 9;1LP9 E L 112;2.6503
1LP9 E L 9;1LP9 E S 113;18.8911
1LP9 E V 10;1LP9 E T 11;28.0749
1LP9 E V 10;1LP9 E L 12;7.40214
1LP9 E V 10;1LP9 E M 19;4.71128
1LP9 E V 10;1LP9 E L 20;16.3883
1LP9 E V 10;1LP9 E T 110;9.25843
1LP9 E V 10;1LP9 E S 111;9.60619
1LP9 E V 10;1LP9 E L 112;19.6932
1LP9 E V 10;1LP9 E S 113;7.68552
1LP9 E T 11;1LP9 E L 12;29.8699
1LP9 E T 11;1LP9 E T 13;0.0236384
1LP9 E T 11;1LP9 E L 112;0.0349981
1LP9 E T 11;1LP9 E S 113;14.804
1LP9 E T 11;1LP9 E V 115;19.1605
1LP9 E T 11;1LP9 E S 148;0.979174
1LP9 E T 11;1LP9 E K 165;4.7016
1LP9 E L 12;1LP9 E T 13;28.7459
1LP9 E L 12;1LP9 E E 14;0.456975
1LP9 E L 12;1LP9 E L 16;22.1357
1LP9 E L 12;1LP9 E P 17;14.4351
1LP9 E L 12;1LP9 E V 18;14.1925
1LP9 E L 12;1LP9 E M 19;0.259169
1LP9 E L 12;1LP9 E A 80;11.1336
1LP9 E L 12;1LP9 E L 112;15.579
1LP9 E L 12;1LP9 E S 113;7.27802
1LP9 E L 12;1LP9 E V 114;12.7568
1LP9 E L 12;1LP9 E V 115;9.13003
1LP9 E T 13;1LP9 E E 14;29.2032
1LP9 E T 13;1LP9 E G 15;0.564601
1LP9 E T 13;1LP9 E L 16;30.0788
1LP9 E T 13;1LP9 E A 80;2.29575
1LP9 E T 13;1LP9 E V 114;1.28261
1LP9 E T 13;1LP9 E V 115;18.047
1LP9 E T 13;1LP9 E P 116;3.27669
1LP9 E T 13;1LP9 E N 117;20.4589
1LP9 E T 13;1LP9 E S 148;0.845523
1LP9 E T 13;1LP9 E Q 149;15.784
1LP9 E E 14;1LP9 E G 15;23.484
1LP9 E E 14;1LP9 E L 16;5.51716
1LP9 E E 14;1LP9 E A 80;7.99739
1LP9 E E 14;1LP9 E Q 81;4.26396
1LP9 E E 14;1LP9 E L 82;24.1667
1LP9 E E 14;1LP9 E V 114;11.2717
1LP9 E E 14;1LP9 E V 115;8.62225
1LP9 E E 14;1LP9 E P 116;10.7408
1LP9 E E 14;1LP9 E N 117;25.7859
1LP9 E E 14;1LP9 E K 176;1.10263
1LP9 E G 15;1LP9 E L 16;25.8653
1LP9 E G 15;1LP9 E P 17;1.84151
1LP9 E G 15;1LP9 E S 78;3.58857
1LP9 E G 15;1LP9 E S 79;22.3713
1LP9 E G 15;1LP9 E A 80;12.3982
1LP9 E L 16;1LP9 E P 17;34.5294
1LP9 E L 16;1LP9 E V 18;1.62153
1LP9 E L 16;1LP9 E S 78;1.71463
1LP9 E L 16;1LP9 E S 79;2.62679
1LP9 E L 16;1LP9 E A 80;11.7874
1LP9 E P 17;1LP9 E V 18;21.5448
1LP9 E P 17;1LP9 E M 19;8.1612
1LP9 E P 17;1LP9 E K 77;8.01426
1LP9 E P 17;1LP9 E S 78;19.8535
1LP9 E P 17;1LP9 E S 79;0.0271686
1LP9 E P 17;1LP9 E A 80;0.0802311
1LP9 E V 18;1LP9 E M 19;27.0773
1LP9 E V 18;1LP9 E L 20;13.8165
1LP9 E V 18;1LP9 E F 62;11.8849
1LP9 E V 18;1LP9 E L 75;9.30385
1LP9 E V 18;1LP9 E Q 76;13.1437
1LP9 E V 18;1LP9 E K 77;26.5134
1LP9 E V 18;1LP9 E A 80;13.0143
1LP9 E V 18;1LP9 E D 84;3.27715
1LP9 E V 18;1LP9 E L 112;17.7121
1LP9 E M 19;1LP9 E L 20;31.5551
1LP9 E M 19;1LP9 E N 21;19.7218
1LP9 E M 19;1LP9 E H 74;19.1051
1LP9 E M 19;1LP9 E L 75;6.23214
1LP9 E M 19;1LP9 E Q 76;20.2655
1LP9 E L 20;1LP9 E N 21;21.9445
1LP9 E L 20;1LP9 E C 22;0.534021
1LP9 E L 20;1LP9 E W 34;15.3137
1LP9 E L 20;1LP9 E F 62;0.00438646
1LP9 E L 20;1LP9 E H 74;5.30787
1LP9 E L 20;1LP9 E L 75;27.6968
1LP9 E L 20;1LP9 E Y 88;14.3542
1LP9 E L 20;1LP9 E T 110;20.9369
1LP9 E L 20;1LP9 E S 111;0.00037793
1LP9 E L 20;1LP9 E L 112;16.2987
1LP9 E N 21;1LP9 E C 22;19.7464
1LP9 E N 21;1LP9 E T 23;3.75467
1LP9 E N 21;1LP9 E W 34;4.88136
1LP9 E N 21;1LP9 E H 74;20.6021
1LP9 E N 21;1LP9 E T 110;0.758472
1LP9 E C 22;1LP9 E T 23;27.6782
1LP9 E C 22;1LP9 E Y 24;2.28034
1LP9 E C 22;1LP9 E L 32;5.63317
1LP9 E C 22;1LP9 E W 34;9.13487
1LP9 E C 22;1LP9 E S 72;3.8897
1LP9 E C 22;1LP9 E F 73;17.9889
1LP9 E C 22;1LP9 E H 74;13.192
1LP9 E C 22;1LP9 E C 90;17.5249
1LP9 E T 23;1LP9 E Y 24;28.1822
1LP9 E T 23;1LP9 E S 70;5.74545
1LP9 E T 23;1LP9 E S 71;10.7631
1LP9 E T 23;1LP9 E S 72;9.9183
1LP9 E T 23;1LP9 E H 74;8.83077
1LP9 E Y 24;1LP9 E Q 25;32.8814
1LP9 E Y 24;1LP9 E S 26;14.17
1LP9 E Y 24;1LP9 E P 30;19.2689
1LP9 E Y 24;1LP9 E L 32;21.6767
1LP9 E Y 24;1LP9 E L 66;12.2405
1LP9 E Y 24;1LP9 E H 67;0.505127
1LP9 E Y 24;1LP9 E K 68;10.7825
1LP9 E Y 24;1LP9 E S 71;44.02
1LP9 E Y 24;1LP9 E S 72;5.39319
1LP9 E Y 24;1LP9 E F 73;3.78831
1LP9 E Y 24;1LP9 E L 92;9.99828
1LP9 E Q 25;1LP9 E S 26;20.0571
1LP9 E Q 25;1LP9 E S 71;1.13251
1LP9 E Q 25;1LP9 E L 92;5.07076
1LP9 E S 26;1LP9 E T 27;24.0127
1LP9 E S 26;1LP9 E Y 28;16.984
1LP9 E S 26;1LP9 E S 29;0.993976
1LP9 E S 26;1LP9 E P 30;13.0421
1LP9 E S 26;1LP9 E S 71;0.202834
1LP9 E S 26;1LP9 E L 92;13.1977
1LP9 E S 26;1LP9 E L 96;7.03512
1LP9 E T 27;1LP9 E Y 28;54.9572
1LP9 E T 27;1LP9 E L 96;0.459324
1LP9 E Y 28;1LP9 E S 29;32.0115
1LP9 E Y 28;1LP9 E P 30;5.06641
1LP9 E Y 28;1LP9 E L 96;1.28167
1LP9 E Y 28;1LP9 E S 98;18.0503
1LP9 E Y 28;1LP9 E S 99;20.5455
1LP9 E S 29;1LP9 E P 30;32.1397
1LP9 E S 29;1LP9 E F 31;18.6824
1LP9 E S 29;1LP9 E K 68;15.107
1LP9 E S 29;1LP9 E S 98;2.42547
1LP9 E P 30;1LP9 E F 31;31.6457
1LP9 E P 30;1LP9 E L 32;8.44865
1LP9 E P 30;1LP9 E S 49;2.11752
1LP9 E P 30;1LP9 E L 66;12.1065
1LP9 E P 30;1LP9 E K 68;25.1062
1LP9 E P 30;1LP9 E L 92;5.18482
1LP9 E F 31;1LP9 E L 32;21.398
1LP9 E F 31;1LP9 E F 33;11.1806
1LP9 E F 31;1LP9 E S 49;10.5466
1LP9 E F 31;1LP9 E F 50;21.0586
1LP9 E F 31;1LP9 E L 66;0.261834
1LP9 E F 31;1LP9 E A 91;0.0157007
1LP9 E F 31;1LP9 E L 92;9.0436
1LP9 E F 31;1LP9 E F 93;32.3332
1LP9 E F 31;1LP9 E S 98;3.83723
1LP9 E L 32;1LP9 E F 33;28.1105
1LP9 E L 32;1LP9 E K 48;1.83929
1LP9 E L 32;1LP9 E S 49;20.9419
1LP9 E L 32;1LP9 E L 66;10.5455
1LP9 E L 32;1LP9 E F 73;21.8397
1LP9 E L 32;1LP9 E C 90;8.97676
1LP9 E L 32;1LP9 E A 91;10.4322
1LP9 E L 32;1LP9 E L 92;15.0597
1LP9 E L 32;1LP9 E F 93;0.0295704
1LP9 E F 33;1LP9 E W 34;20.203
1LP9 E F 33;1LP9 E Y 35;11.4369
1LP9 E F 33;1LP9 E L 45;11.4007
1LP9 E F 33;1LP9 E L 47;7.25453
1LP9 E F 33;1LP9 E K 48;16.5941
1LP9 E F 33;1LP9 E S 49;3.07529
1LP9 E F 33;1LP9 E F 50;13.315
1LP9 E F 33;1LP9 E F 73;7.09795
1LP9 E F 33;1LP9 E Y 89;1.25953
1LP9 E F 33;1LP9 E C 90;6.70108
1LP9 E F 33;1LP9 E A 91;22.7992
1LP9 E F 33;1LP9 E F 93;12.8431
1LP9 E F 33;1LP9 E L 104;8.87655
1LP9 E F 33;1LP9 F Y 100;26.1708
1LP9 E W 34;1LP9 E Y 35;23.0815
1LP9 E W 34;1LP9 E L 45;5.00615
1LP9 E W 34;1LP9 E L 46;17.4242
1LP9 E W 34;1LP9 E L 47;25.6846
1LP9 E W 34;1LP9 E A 64;6.17498
1LP9 E W 34;1LP9 E F 73;20.1093
1LP9 E W 34;1LP9 E H 74;1.67259
1LP9 E W 34;1LP9 E L 75;31.6583
1LP9 E W 34;1LP9 E Y 88;13.8344
1LP9 E W 34;1LP9 E Y 89;12.3933
1LP9 E W 34;1LP9 E C 90;17.16
1LP9 E W 34;1LP9 E T 110;1.25302
1LP9 E Y 35;1LP9 E V 36;20.8219
1LP9 E Y 35;1LP9 E P 43;9.84661
1LP9 E Y 35;1LP9 E K 44;13.6354
1LP9 E Y 35;1LP9 E L 45;27.5789
1LP9 E Y 35;1LP9 E L 46;5.04062
1LP9 E Y 35;1LP9 E L 87;0.13295
1LP9 E Y 35;1LP9 E Y 88;6.44995
1LP9 E Y 35;1LP9 E Y 89;28.2204
1LP9 E Y 35;1LP9 E A 91;5.7363
1LP9 E Y 35;1LP9 E L 104;12.8986
1LP9 E Y 35;1LP9 E F 106;18.5827
1LP9 E Y 35;1LP9 F L 43;0.0463316
1LP9 E Y 35;1LP9 F Y 100;9.01026
1LP9 E Y 35;1LP9 F E 105;3.83708
1LP9 E Y 35;1LP9 F Q 106;16.0535
1LP9 E Y 35;1LP9 F F 108;12.032
1LP9 E V 36;1LP9 E Q 37;22.5249
1LP9 E V 36;1LP9 E H 38;15.7298
1LP9 E V 36;1LP9 E A 42;1.94597
1LP9 E V 36;1LP9 E P 43;6.46744
1LP9 E V 36;1LP9 E K 44;36.2023
1LP9 E V 36;1LP9 E L 45;0.785404
1LP9 E V 36;1LP9 E L 46;22.1664
1LP9 E V 36;1LP9 E A 86;8.58659
1LP9 E V 36;1LP9 E L 87;6.83468
1LP9 E V 36;1LP9 E Y 88;20.9808
1LP9 E V 36;1LP9 E Y 89;1.72952
1LP9 E Q 37;1LP9 E H 38;27.0058
1LP9 E Q 37;1LP9 E L 39;15.8933
1LP9 E Q 37;1LP9 E N 40;0.113153
1LP9 E Q 37;1LP9 E E 41;13.9379
1LP9 E Q 37;1LP9 E A 42;5.75721
1LP9 E Q 37;1LP9 E P 43;19.0057
1LP9 E Q 37;1LP9 E A 86;6.04758
1LP9 E Q 37;1LP9 E L 87;34.5052
1LP9 E Q 37;1LP9 E Y 89;9.21501
1LP9 E Q 37;1LP9 F Q 37;16.1451
1LP9 E Q 37;1LP9 F F 91;12.7898
1LP9 E H 38;1LP9 E L 39;25.6522
1LP9 E H 38;1LP9 E N 40;2.01519
1LP9 E H 38;1LP9 E E 41;40.5774
1LP9 E H 38;1LP9 E A 42;1.18732
1LP9 E H 38;1LP9 E K 44;14.0129
1LP9 E H 38;1LP9 E S 83;15.6861
1LP9 E H 38;1LP9 E D 84;3.97008
1LP9 E H 38;1LP9 E S 85;10.4704
1LP9 E H 38;1LP9 E A 86;14.7683
1LP9 E H 38;1LP9 E Y 88;3.14002
1LP9 E L 39;1LP9 E N 40;50.5606
1LP9 E L 39;1LP9 E E 41;2.86373
1LP9 E L 39;1LP9 E S 85;0.836074
1LP9 E L 39;1LP9 E A 86;3.08453
1LP9 E L 39;1LP9 F R 113;0.799656
1LP9 E L 39;1LP9 F P 176;32.27
1LP9 E L 39;1LP9 F Q 177;12.8593
1LP9 E N 40;1LP9 E E 41;32.202
1LP9 E N 40;1LP9 F R 9;8.35471
1LP9 E N 40;1LP9 F P 110;6.39851
1LP9 E N 40;1LP9 F R 113;20.3036
1LP9 E N 40;1LP9 F P 176;2.31238
1LP9 E E 41;1LP9 E A 42;34.1936
1LP9 E E 41;1LP9 E P 43;0.712828
1LP9 E E 41;1LP9 E K 44;12.6369
1LP9 E E 41;1LP9 F F 91;3.82714
1LP9 E E 41;1LP9 F P 110;5.32693
1LP9 E A 42;1LP9 E P 43;26.5117
1LP9 E A 42;1LP9 E K 44;9.71894
1LP9 E A 42;1LP9 F F 91;3.42577
1LP9 E A 42;1LP9 F F 108;14.5101
1LP9 E A 42;1LP9 F G 109;8.9179
1LP9 E A 42;1LP9 F P 110;9.8066
1LP9 E P 43;1LP9 E K 44;23.3853
1LP9 E P 43;1LP9 E Y 89;9.57997
1LP9 E P 43;1LP9 E F 106;0.13911
1LP9 E P 43;1LP9 F Q 37;1.05357
1LP9 E P 43;1LP9 F L 43;14.1144
1LP9 E P 43;1LP9 F F 91;15.5772
1LP9 E P 43;1LP9 F Q 106;0.191197
1LP9 E P 43;1LP9 F F 108;33.9862
1LP9 E P 43;1LP9 F G 109;0.344263
1LP9 E K 44;1LP9 E L 45;30.5522
1LP9 E K 44;1LP9 E L 46;2.69522
1LP9 E K 44;1LP9 E H 58;7.27281
1LP9 E K 44;1LP9 F Q 106;2.55357
1LP9 E K 44;1LP9 F F 108;0.532425
1LP9 E L 45;1LP9 E L 46;25.7713
1LP9 E L 45;1LP9 E L 47;10.0598
1LP9 E L 45;1LP9 E K 48;22.2654
1LP9 E L 45;1LP9 E H 58;9.72371
1LP9 E L 45;1LP9 F Y 100;5.94128
1LP9 E L 45;1LP9 F E 105;29.9084
1LP9 E L 45;1LP9 F Q 106;2.76652
1LP9 E L 46;1LP9 E L 47;30.2592
1LP9 E L 46;1LP9 E E 57;1.68666
1LP9 E L 46;1LP9 E H 58;40.449
1LP9 E L 46;1LP9 E Q 59;0.456867
1LP9 E L 46;1LP9 E F 62;23.1545
1LP9 E L 46;1LP9 E L 75;9.15943
1LP9 E L 46;1LP9 E Y 88;10.1701
1LP9 E L 47;1LP9 E K 48;31.2304
1LP9 E L 47;1LP9 E E 57;23.204
1LP9 E L 47;1LP9 E H 58;5.76032
1LP9 E L 47;1LP9 E F 62;6.66422
1LP9 E L 47;1LP9 E H 63;6.4101
1LP9 E L 47;1LP9 E A 64;9.16509
1LP9 E L 47;1LP9 E F 73;10.0989
1LP9 E L 47;1LP9 E L 75;8.5826
1LP9 E K 48;1LP9 E S 49;15.2007
1LP9 E K 48;1LP9 E F 50;21.6395
1LP9 E K 48;1LP9 E P 56;13.1164
1LP9 E K 48;1LP9 E E 57;7.09392
1LP9 E K 48;1LP9 E A 64;0.0147199
1LP9 E K 48;1LP9 E F 73;3.50833
1LP9 E K 48;1LP9 F Y 100;16.7181
1LP9 E K 48;1LP9 F E 105;7.92611
1LP9 E S 49;1LP9 E F 50;25.3723
1LP9 E S 49;1LP9 E N 53;5.7617
1LP9 E S 49;1LP9 E K 54;2.36043
1LP9 E S 49;1LP9 E P 56;14.4576
1LP9 E S 49;1LP9 E L 66;19.9634
1LP9 E S 49;1LP9 E F 73;16.01
1LP9 E F 50;1LP9 E T 51;29.4085
1LP9 E F 50;1LP9 E D 52;2.2659
1LP9 E F 50;1LP9 E N 53;0.133199
1LP9 E F 50;1LP9 E P 56;15.4159
1LP9 E F 50;1LP9 E F 93;0.507541
1LP9 E F 50;1LP9 F Y 100;16.0815
1LP9 E T 51;1LP9 E D 52;39.8441
1LP9 E T 51;1LP9 E R 55;7.54078
1LP9 E T 51;1LP9 E P 56;19.7696
1LP9 E D 52;1LP9 E N 53;48.6269
1LP9 E D 52;1LP9 E K 54;1.24464
1LP9 E D 52;1LP9 E R 55;16.7755
1LP9 E D 52;1LP9 E P 56;1.44431
1LP9 E N 53;1LP9 E K 54;55.0319
1LP9 E N 53;1LP9 E R 55;2.55396
1LP9 E N 53;1LP9 E P 56;0.658758
1LP9 E N 53;1LP9 E L 66;0.0291862
1LP9 E K 54;1LP9 E R 55;21.3963
1LP9 E K 54;1LP9 E P 56;3.74526
1LP9 E K 54;1LP9 E A 64;0.555121
1LP9 E K 54;1LP9 E T 65;18.3018
1LP9 E K 54;1LP9 E L 66;35.2712
1LP9 E K 54;1LP9 E H 67;3.97129
1LP9 E K 54;1LP9 E K 68;36.0658
1LP9 E R 55;1LP9 E P 56;26.8046
1LP9 E R 55;1LP9 E E 57;24.8648
1LP9 E R 55;1LP9 E H 63;23.0029
1LP9 E R 55;1LP9 E A 64;2.54348
1LP9 E R 55;1LP9 E T 65;24.6306
1LP9 E P 56;1LP9 E E 57;39.2098
1LP9 E P 56;1LP9 E A 64;5.53238
1LP9 E P 56;1LP9 E L 66;1.23274
1LP9 E P 56;1LP9 E F 73;2.75261
1LP9 E E 57;1LP9 E H 58;28.0023
1LP9 E E 57;1LP9 E F 62;4.41839
1LP9 E E 57;1LP9 E H 63;17.3903
1LP9 E E 57;1LP9 E A 64;19.938
1LP9 E E 57;1LP9 E T 65;1.61464
1LP9 E E 57;1LP9 E F 73;0.0481509
1LP9 E H 58;1LP9 E Q 59;43.8341
1LP9 E H 58;1LP9 E G 61;0.492873
1LP9 E H 58;1LP9 E F 62;12.9418
1LP9 E Q 59;1LP9 E G 61;23.4656
1LP9 E Q 59;1LP9 E F 62;23.2029
1LP9 E Q 59;1LP9 E K 77;9.84995
1LP9 E Q 59;1LP9 E Q 81;4.17022
1LP9 E G 61;1LP9 E F 62;20.5842
1LP9 E G 61;1LP9 E H 63;10.1643
1LP9 E G 61;1LP9 E Q 76;0.264635
1LP9 E G 61;1LP9 E K 77;22.2567
1LP9 E G 61;1LP9 E S 78;2.44696
1LP9 E G 61;1LP9 E Q 81;0.436215
1LP9 E F 62;1LP9 E H 63;20.7245
1LP9 E F 62;1LP9 E L 75;18.8578
1LP9 E F 62;1LP9 E Q 76;8.19137
1LP9 E F 62;1LP9 E K 77;23.8367
1LP9 E F 62;1LP9 E D 84;16.4108
1LP9 E F 62;1LP9 E Y 88;19.1291
1LP9 E F 62;1LP9 E L 112;3.45529
1LP9 E H 63;1LP9 E A 64;19.5234
1LP9 E H 63;1LP9 E T 65;3.95828
1LP9 E H 63;1LP9 E H 74;0.685733
1LP9 E H 63;1LP9 E L 75;6.40768
1LP9 E H 63;1LP9 E Q 76;42.2298
1LP9 E H 63;1LP9 E K 77;6.54001
1LP9 E H 63;1LP9 E S 78;10.8445
1LP9 E A 64;1LP9 E T 65;21.8714
1LP9 E A 64;1LP9 E L 66;0.2667
1LP9 E A 64;1LP9 E F 73;19.7832
1LP9 E A 64;1LP9 E H 74;10.2645
1LP9 E A 64;1LP9 E L 75;4.86492
1LP9 E A 64;1LP9 E Q 76;2.0523
1LP9 E T 65;1LP9 E L 66;15.958
1LP9 E T 65;1LP9 E H 67;30.8868
1LP9 E T 65;1LP9 E S 72;3.29956
1LP9 E T 65;1LP9 E F 73;8.81698
1LP9 E T 65;1LP9 E H 74;8.97913
1LP9 E T 65;1LP9 E Q 76;10.4964
1LP9 E L 66;1LP9 E H 67;21.8604
1LP9 E L 66;1LP9 E K 68;17.0211
1LP9 E L 66;1LP9 E S 72;8.59822
1LP9 E L 66;1LP9 E F 73;19.5606
1LP9 E H 67;1LP9 E K 68;18.8988
1LP9 E H 67;1LP9 E S 69;11.0142
1LP9 E H 67;1LP9 E S 70;14.814
1LP9 E H 67;1LP9 E S 71;5.29512
1LP9 E H 67;1LP9 E S 72;24.9992
1LP9 E H 67;1LP9 E H 74;0.788676
1LP9 E K 68;1LP9 E S 69;30.0249
1LP9 E K 68;1LP9 E S 70;0.774931
1LP9 E K 68;1LP9 E S 71;14.5792
1LP9 E S 69;1LP9 E S 70;31.2744
1LP9 E S 69;1LP9 E S 71;3.13735
1LP9 E S 70;1LP9 E S 71;24.979
1LP9 E S 70;1LP9 E S 72;20.7728
1LP9 E S 71;1LP9 E S 72;15.4295
1LP9 E S 72;1LP9 E F 73;19.0586
1LP9 E S 72;1LP9 E H 74;21.2732
1LP9 E F 73;1LP9 E H 74;22.2989
1LP9 E F 73;1LP9 E L 75;0.27274
1LP9 E F 73;1LP9 E C 90;7.18263
1LP9 E H 74;1LP9 E L 75;17.14
1LP9 E H 74;1LP9 E Q 76;13.8024
1LP9 E L 75;1LP9 E Q 76;24.0337
1LP9 E L 75;1LP9 E Y 88;13.0563
1LP9 E L 75;1LP9 E L 112;3.10748e-05
1LP9 E Q 76;1LP9 E K 77;20.4395
1LP9 E K 77;1LP9 E S 78;25.2828
1LP9 E K 77;1LP9 E S 79;19.5969
1LP9 E K 77;1LP9 E A 80;4.27431
1LP9 E K 77;1LP9 E Q 81;19.7599
1LP9 E K 77;1LP9 E D 84;15.7187
1LP9 E S 78;1LP9 E S 79;28.669
1LP9 E S 79;1LP9 E A 80;24.5338
1LP9 E S 79;1LP9 E Q 81;7.29459
1LP9 E S 79;1LP9 E D 84;0.00244325
1LP9 E A 80;1LP9 E Q 81;21.9721
1LP9 E A 80;1LP9 E D 84;7.3791
1LP9 E A 80;1LP9 E L 112;1.62279
1LP9 E A 80;1LP9 E V 114;12.4635
1LP9 E Q 81;1LP9 E L 82;19.3166
1LP9 E Q 81;1LP9 E S 83;20.9008
1LP9 E Q 81;1LP9 E D 84;24.3148
1LP9 E Q 81;1LP9 E V 114;11.3803
1LP9 E L 82;1LP9 E S 83;25.3492
1LP9 E L 82;1LP9 E D 84;2.06177
1LP9 E L 82;1LP9 E S 85;12.8263
1LP9 E L 82;1LP9 E V 114;25.5227
1LP9 E L 82;1LP9 E V 115;5.58715
1LP9 E L 82;1LP9 E P 116;17.2314
1LP9 E L 82;1LP9 E V 167;5.09107
1LP9 E L 82;1LP9 E K 176;23.1341
1LP9 E S 83;1LP9 E D 84;23.2867
1LP9 E S 83;1LP9 E S 85;5.69964
1LP9 E D 84;1LP9 E S 85;17.9583
1LP9 E D 84;1LP9 E A 86;5.19565
1LP9 E D 84;1LP9 E Y 88;16.4834
1LP9 E D 84;1LP9 E L 112;12.944
1LP9 E D 84;1LP9 E V 114;4.03913
1LP9 E S 85;1LP9 E A 86;21.441
1LP9 E S 85;1LP9 E L 112;11.0571
1LP9 E S 85;1LP9 E S 113;9.26081
1LP9 E S 85;1LP9 E V 114;22.5364
1LP9 E A 86;1LP9 E L 87;21.8277
1LP9 E A 86;1LP9 E Y 88;15.6466
1LP9 E A 86;1LP9 E T 110;1.0552
1LP9 E A 86;1LP9 E S 111;4.79115
1LP9 E A 86;1LP9 E L 112;18.3466
1LP9 E L 87;1LP9 E Y 88;22.7456
1LP9 E L 87;1LP9 E Y 89;20.736
1LP9 E L 87;1LP9 E Q 108;0.828984
1LP9 E L 87;1LP9 E G 109;9.41274
1LP9 E L 87;1LP9 E T 110;7.29246
1LP9 E L 87;1LP9 E S 111;15.9087
1LP9 E L 87;1LP9 F Q 37;5.96114
1LP9 E L 87;1LP9 F G 40;16.4982
1LP9 E L 87;1LP9 F H 41;8.88083
1LP9 E Y 88;1LP9 E Y 89;16.9577
1LP9 E Y 88;1LP9 E G 109;4.7613
1LP9 E Y 88;1LP9 E T 110;19.2479
1LP9 E Y 88;1LP9 E L 112;15.6384
1LP9 E Y 89;1LP9 E C 90;18.8731
1LP9 E Y 89;1LP9 E A 91;1.49633
1LP9 E Y 89;1LP9 E F 106;17.2401
1LP9 E Y 89;1LP9 E G 107;8.84129
1LP9 E Y 89;1LP9 E Q 108;3.77881
1LP9 E Y 89;1LP9 E G 109;11.8038
1LP9 E Y 89;1LP9 F Q 37;10.6135
1LP9 E Y 89;1LP9 F G 40;0.135595
1LP9 E Y 89;1LP9 F H 41;3.00144
1LP9 E Y 89;1LP9 F G 42;13.643
1LP9 E Y 89;1LP9 F L 43;20.1035
1LP9 E C 90;1LP9 E A 91;22.1782
1LP9 E C 90;1LP9 E V 105;0.270246
1LP9 E C 90;1LP9 E F 106;3.27957
1LP9 E C 90;1LP9 E G 107;8.74194
1LP9 E A 91;1LP9 E L 92;17.6805
1LP9 E A 91;1LP9 E F 93;1.07933
1LP9 E A 91;1LP9 E L 104;12.986
1LP9 E A 91;1LP9 E V 105;7.69613
1LP9 E A 91;1LP9 E F 106;17.323
1LP9 E L 92;1LP9 E F 93;22.3279
1LP9 E L 92;1LP9 E L 96;21.7584
1LP9 E L 92;1LP9 E K 103;1.87107
1LP9 E L 92;1LP9 E L 104;5.16195
1LP9 E L 92;1LP9 E V 105;24.9843
1LP9 E F 93;1LP9 E L 96;25.61
1LP9 E F 93;1LP9 E A 97;18.0744
1LP9 E F 93;1LP9 E S 102;8.95943
1LP9 E F 93;1LP9 E K 103;13.6888
1LP9 E F 93;1LP9 E L 104;16.1032
1LP9 E F 93;1LP9 F S 99;13.66
1LP9 E F 93;1LP9 F Y 100;24.286
1LP9 E F 93;1LP9 F Q 106;0.315781
1LP9 E L 96;1LP9 E A 97;23.2631
1LP9 E L 96;1LP9 E S 98;0.119597
1LP9 E L 96;1LP9 E S 100;19.0437
1LP9 E L 96;1LP9 E F 101;2.95125
1LP9 E L 96;1LP9 E S 102;3.51475
1LP9 E L 96;1LP9 E K 103;31.3278
1LP9 E L 96;1LP9 E V 105;15.0605
1LP9 E A 97;1LP9 E S 98;28.8608
1LP9 E A 97;1LP9 E S 99;0.245346
1LP9 E A 97;1LP9 E S 100;9.60442
1LP9 E A 97;1LP9 E S 102;10.4193
1LP9 E S 98;1LP9 E S 99;22.7771
1LP9 E S 98;1LP9 E S 100;1.30934
1LP9 E S 99;1LP9 E S 100;34.65
1LP9 E S 100;1LP9 E F 101;27.9826
1LP9 E S 100;1LP9 E S 102;1.95619
1LP9 E S 100;1LP9 E K 103;8.10345
1LP9 E F 101;1LP9 E S 102;33.4192
1LP9 E F 101;1LP9 E K 103;12.9691
1LP9 E F 101;1LP9 F Y 31;14.0519
1LP9 E F 101;1LP9 F Y 33;2.19515
1LP9 E F 101;1LP9 F Y 48;31.2665
1LP9 E F 101;1LP9 F Y 50;18.6626
1LP9 E F 101;1LP9 F E 56;0.407923
1LP9 E S 102;1LP9 E K 103;22.8436
1LP9 E S 102;1LP9 F Y 31;1.62493
1LP9 E S 102;1LP9 F Y 33;9.62579
1LP9 E S 102;1LP9 F Y 48;2.88137
1LP9 E S 102;1LP9 F S 99;17.8748
1LP9 E S 102;1LP9 F Q 106;0.347669
1LP9 E K 103;1LP9 E L 104;28.3191
1LP9 E K 103;1LP9 E V 105;15.5545
1LP9 E K 103;1LP9 F Y 33;3.32967
1LP9 E K 103;1LP9 F Y 35;0.0510547
1LP9 E K 103;1LP9 F L 45;21.19
1LP9 E K 103;1LP9 F Y 48;5.67862
1LP9 E K 103;1LP9 F G 58;3.11134
1LP9 E K 103;1LP9 F D 59;25.7623
1LP9 E K 103;1LP9 F S 99;0.00757455
1LP9 E K 103;1LP9 F Q 106;3.743
1LP9 E L 104;1LP9 E V 105;22.702
1LP9 E L 104;1LP9 E F 106;23.3329
1LP9 E L 104;1LP9 F Y 35;15.6248
1LP9 E L 104;1LP9 F L 43;0.400496
1LP9 E L 104;1LP9 F L 45;6.1479
1LP9 E L 104;1LP9 F D 59;1.98411
1LP9 E L 104;1LP9 F S 99;2.73924
1LP9 E L 104;1LP9 F Y 100;14.7514
1LP9 E L 104;1LP9 F Q 106;21.4602
1LP9 E L 104;1LP9 F F 108;0.707314
1LP9 E V 105;1LP9 E F 106;29.9978
1LP9 E V 105;1LP9 E G 107;0.538507
1LP9 E V 105;1LP9 F D 59;9.12934
1LP9 E F 106;1LP9 E G 107;29.5308
1LP9 E F 106;1LP9 E Q 108;3.08885
1LP9 E F 106;1LP9 F Y 35;14.2809
1LP9 E F 106;1LP9 F G 42;0.023439
1LP9 E F 106;1LP9 F L 43;43.3951
1LP9 E F 106;1LP9 F R 44;0.144131
1LP9 E F 106;1LP9 F Q 106;0.645583
1LP9 E F 106;1LP9 F F 108;10.4309
1LP9 E G 107;1LP9 E Q 108;24.3044
1LP9 E G 107;1LP9 E G 109;2.39043
1LP9 E G 107;1LP9 F G 42;4.38428
1LP9 E G 107;1LP9 F L 43;1.89587
1LP9 E Q 108;1LP9 E G 109;24.704
1LP9 E Q 108;1LP9 F D 38;1.1395
1LP9 E Q 108;1LP9 F H 41;30.6401
1LP9 E Q 108;1LP9 F G 42;22.6637
1LP9 E Q 108;1LP9 F L 43;0.117385
1LP9 E Q 108;1LP9 F R 44;8.67547
1LP9 E G 109;1LP9 E T 110;18.4019
1LP9 E G 109;1LP9 F H 41;11.575
1LP9 E T 110;1LP9 E S 111;24.0878
1LP9 E T 110;1LP9 E L 112;2.74633
1LP9 E T 110;1LP9 F H 41;1.88176
1LP9 E S 111;1LP9 E L 112;20.3916
1LP9 E S 111;1LP9 F G 40;1.39396
1LP9 E S 111;1LP9 F H 41;15.581
1LP9 E L 112;1LP9 E S 113;24.4776
1LP9 E L 112;1LP9 E V 114;8.97314
1LP9 E S 113;1LP9 E V 114;21.0998
1LP9 E S 113;1LP9 E V 115;14.7314
1LP9 E V 114;1LP9 E V 115;21.9931
1LP9 E V 114;1LP9 E P 116;0.627626
1LP9 E V 114;1LP9 E V 167;2.30623
1LP9 E V 115;1LP9 E P 116;27.2306
1LP9 E V 115;1LP9 E N 117;0.0957375
1LP9 E V 115;1LP9 E S 148;15.9662
1LP9 E V 115;1LP9 E Q 149;4.93235
1LP9 E V 115;1LP9 E K 165;17.7452
1LP9 E V 115;1LP9 E V 167;6.22415
1LP9 E V 115;1LP9 E N 178;0.488
1LP9 E P 116;1LP9 E N 117;20.8691
1LP9 E P 116;1LP9 E I 118;17.2411
1LP9 E P 116;1LP9 E S 148;19.082
1LP9 E P 116;1LP9 E V 167;21.8151
1LP9 E P 116;1LP9 E K 176;15.7252
1LP9 E P 116;1LP9 E N 178;7.04401
1LP9 E N 117;1LP9 E I 118;29.715
1LP9 E N 117;1LP9 E Q 119;12.3083
1LP9 E N 117;1LP9 E D 147;2.42853
1LP9 E N 117;1LP9 E S 148;0.226051
1LP9 E I 118;1LP9 E Q 119;25.8048
1LP9 E I 118;1LP9 E N 120;7.89765
1LP9 E I 118;1LP9 E P 121;25.1495
1LP9 E I 118;1LP9 E D 145;5.27148
1LP9 E I 118;1LP9 E F 146;8.18864
1LP9 E I 118;1LP9 E D 147;16.2254
1LP9 E I 118;1LP9 E S 148;9.36834
1LP9 E I 118;1LP9 E K 176;23.3529
1LP9 E I 118;1LP9 E S 177;0.187448
1LP9 E I 118;1LP9 E N 178;13.2077
1LP9 E Q 119;1LP9 E N 120;45.9798
1LP9 E Q 119;1LP9 E P 121;8.1885
1LP9 E N 120;1LP9 E P 121;28.0705
1LP9 E N 120;1LP9 E E 122;13.4434
1LP9 E P 121;1LP9 E E 122;23.5371
1LP9 E P 121;1LP9 E P 123;15.2608
1LP9 E P 121;1LP9 E D 145;6.38724
1LP9 E P 121;1LP9 E F 146;3.19882
1LP9 E P 121;1LP9 E D 147;24.3151
1LP9 E E 122;1LP9 E P 123;28.1765
1LP9 E E 122;1LP9 E A 124;0.375119
1LP9 E E 122;1LP9 E T 144;0.837504
1LP9 E E 122;1LP9 E D 145;19.3286
1LP9 E E 122;1LP9 F N 139;0.420843
1LP9 E E 122;1LP9 F K 140;33.9531
1LP9 E P 123;1LP9 E A 124;28.4171
1LP9 E P 123;1LP9 E F 143;11.1592
1LP9 E P 123;1LP9 E T 144;4.65616
1LP9 E P 123;1LP9 E D 145;5.65218
1LP9 E P 123;1LP9 E F 146;15.7595
1LP9 E P 123;1LP9 E D 147;1.48344
1LP9 E P 123;1LP9 F K 140;0.16675
1LP9 E A 124;1LP9 E V 125;27.5471
1LP9 E A 124;1LP9 E Y 126;21.066
1LP9 E A 124;1LP9 E L 142;2.06772
1LP9 E A 124;1LP9 E F 143;12.1507
1LP9 E A 124;1LP9 E T 144;15.7785
1LP9 E A 124;1LP9 F K 140;10.6163
1LP9 E V 125;1LP9 E Y 126;33.504
1LP9 E V 125;1LP9 E C 141;3.18461
1LP9 E V 125;1LP9 E L 142;7.82036
1LP9 E V 125;1LP9 E F 143;17.0895
1LP9 E V 125;1LP9 E C 191;21.6424
1LP9 E V 125;1LP9 E Q 192;1.03169
1LP9 E V 125;1LP9 E I 194;1.26003
1LP9 E V 125;1LP9 E F 195;20.5954
1LP9 E Y 126;1LP9 E Q 127;23.2464
1LP9 E Y 126;1LP9 E L 128;10.6776
1LP9 E Y 126;1LP9 E L 140;0.330736
1LP9 E Y 126;1LP9 E C 141;5.02889
1LP9 E Y 126;1LP9 E L 142;29.9144
1LP9 E Y 126;1LP9 E T 144;12.2011
1LP9 E Y 126;1LP9 E C 191;4.55514
1LP9 E Y 126;1LP9 F S 133;15.9597
1LP9 E Y 126;1LP9 F A 135;12.8685
1LP9 E Y 126;1LP9 F E 136;29.2186
1LP9 E Y 126;1LP9 F N 139;9.67995
1LP9 E Y 126;1LP9 F K 140;16.2119
1LP9 E Q 127;1LP9 E L 128;26.9503
1LP9 E Q 127;1LP9 E K 129;14.1601
1LP9 E Q 127;1LP9 E T 139;25.3169
1LP9 E Q 127;1LP9 E L 140;7.20653
1LP9 E Q 127;1LP9 E C 141;0.796377
1LP9 E Q 127;1LP9 E T 190;6.7371
1LP9 E Q 127;1LP9 E C 191;24.8449
1LP9 E Q 127;1LP9 F S 133;11.6465
1LP9 E L 128;1LP9 E K 129;23.2404
1LP9 E L 128;1LP9 E T 139;7.53565
1LP9 E L 128;1LP9 E L 140;23.6644
1LP9 E L 128;1LP9 E C 141;0.77119
1LP9 E L 128;1LP9 E L 142;19.9445
1LP9 E L 128;1LP9 F F 130;18.9806
1LP9 E L 128;1LP9 F E 131;13.2202
1LP9 E L 128;1LP9 F P 132;3.7199
1LP9 E L 128;1LP9 F S 133;13.4019
1LP9 E L 128;1LP9 F E 136;0.412568
1LP9 E L 128;1LP9 F T 144;7.75029
1LP9 E L 128;1LP9 F L 145;0.307981
1LP9 E L 128;1LP9 F V 146;14.5973
1LP9 E K 129;1LP9 E D 132;19.4016
1LP9 E K 129;1LP9 E P 133;10.6757
1LP9 E K 129;1LP9 E S 138;4.01619
1LP9 E K 129;1LP9 E T 139;20.1841
1LP9 E K 129;1LP9 F F 130;9.6842
1LP9 E K 129;1LP9 F E 131;16.8515
1LP9 E D 132;1LP9 E P 133;24.0385
1LP9 E D 132;1LP9 E R 134;15.905
1LP9 E D 132;1LP9 E S 135;31.3759
1LP9 E D 132;1LP9 E Q 136;0.0717516
1LP9 E D 132;1LP9 E S 138;18.4014
1LP9 E D 132;1LP9 E T 139;1.99694e-05
1LP9 E D 132;1LP9 F S 128;18.4593
1LP9 E D 132;1LP9 F L 129;10.2824
1LP9 E D 132;1LP9 F F 130;20.0613
1LP9 E P 133;1LP9 E R 134;38.8524
1LP9 E P 133;1LP9 E S 135;7.82929
1LP9 E P 133;1LP9 E Q 136;1.75131
1LP9 E P 133;1LP9 F L 129;7.33863
1LP9 E P 133;1LP9 F F 130;0.0526955
1LP9 E P 133;1LP9 F E 131;25.4654
1LP9 E P 133;1LP9 F R 244;0.560092
1LP9 E R 134;1LP9 E S 135;29.9934
1LP9 E R 134;1LP9 E Q 136;0.167472
1LP9 E R 134;1LP9 F S 128;1.35376
1LP9 E R 134;1LP9 F L 129;12.1555
1LP9 E R 134;1LP9 F E 131;4.38399
1LP9 E R 134;1LP9 F A 239;8.63704
1LP9 E R 134;1LP9 F E 240;20.9282
1LP9 E R 134;1LP9 F A 241;7.76645
1LP9 E R 134;1LP9 F W 242;7.48607
1LP9 E R 134;1LP9 F R 244;1.62295
1LP9 E S 135;1LP9 E Q 136;33.832
1LP9 E S 135;1LP9 E D 137;0.743342
1LP9 E S 135;1LP9 E S 138;22.4619
1LP9 E S 135;1LP9 F S 128;2.08305
1LP9 E Q 136;1LP9 E D 137;41.3194
1LP9 E Q 136;1LP9 E S 138;2.73707
1LP9 E Q 136;1LP9 E T 139;0.842385
1LP9 E D 137;1LP9 E S 138;28.2526
1LP9 E D 137;1LP9 E T 139;18.6374
1LP9 E D 137;1LP9 E Q 186;0.129543
1LP9 E D 137;1LP9 E T 187;12.5669
1LP9 E D 137;1LP9 E S 188;0.478563
1LP9 E S 138;1LP9 E T 139;27.3472
1LP9 E S 138;1LP9 F F 130;12.7789
1LP9 E S 138;1LP9 F R 150;1.06877
1LP9 E T 139;1LP9 E L 140;24.1086
1LP9 E T 139;1LP9 E C 141;0.909411
1LP9 E T 139;1LP9 E W 183;8.76746
1LP9 E T 139;1LP9 E S 184;5.83801
1LP9 E T 139;1LP9 E C 191;0.0403554
1LP9 E T 139;1LP9 F F 130;10.9733
1LP9 E L 140;1LP9 E C 141;28.6224
1LP9 E L 140;1LP9 E L 142;0.641203
1LP9 E L 140;1LP9 E I 181;16.391
1LP9 E L 140;1LP9 E A 182;9.28044
1LP9 E L 140;1LP9 E W 183;17.4679
1LP9 E L 140;1LP9 E C 191;1.03152
1LP9 E L 140;1LP9 F F 130;23.8218
1LP9 E L 140;1LP9 F V 146;14.7822
1LP9 E L 140;1LP9 F L 148;15.2007
1LP9 E L 140;1LP9 F S 193;0.0941967
1LP9 E C 141;1LP9 E L 142;19.6583
1LP9 E C 141;1LP9 E A 180;0.166844
1LP9 E C 141;1LP9 E I 181;7.53536
1LP9 E C 141;1LP9 E A 182;18.8133
1LP9 E C 141;1LP9 E W 183;0.773532
1LP9 E C 141;1LP9 E C 191;25.1461
1LP9 E C 141;1LP9 E I 194;15.8488
1LP9 E C 141;1LP9 E F 195;9.23977
1LP9 E L 142;1LP9 E F 143;21.0573
1LP9 E L 142;1LP9 E T 144;17.1116
1LP9 E L 142;1LP9 E G 179;2.2749
1LP9 E L 142;1LP9 E A 180;8.05764
1LP9 E L 142;1LP9 E I 181;12.6008
1LP9 E L 142;1LP9 E F 195;3.07461
1LP9 E L 142;1LP9 F S 133;0.000215146
1LP9 E L 142;1LP9 F E 136;4.95278
1LP9 E L 142;1LP9 F T 144;17.6788
1LP9 E L 142;1LP9 F V 146;9.44033
1LP9 E L 142;1LP9 F R 195;11.2788
1LP9 E F 143;1LP9 E T 144;20.3659
1LP9 E F 143;1LP9 E F 146;28.4758
1LP9 E F 143;1LP9 E I 150;16.8814
1LP9 E F 143;1LP9 E N 151;0.298634
1LP9 E F 143;1LP9 E V 152;10.9255
1LP9 E F 143;1LP9 E P 153;1.45109
1LP9 E F 143;1LP9 E G 179;4.50992
1LP9 E F 143;1LP9 E A 180;18.8671
1LP9 E F 143;1LP9 E F 195;36.9544
1LP9 E T 144;1LP9 E D 145;26.6726
1LP9 E T 144;1LP9 E F 146;9.1249
1LP9 E T 144;1LP9 E S 177;6.66301
1LP9 E T 144;1LP9 E N 178;6.37566
1LP9 E T 144;1LP9 E G 179;3.18328
1LP9 E T 144;1LP9 F E 136;2.51537
1LP9 E T 144;1LP9 F K 140;5.67858
1LP9 E T 144;1LP9 F T 144;3.9616
1LP9 E T 144;1LP9 F R 195;7.32465
1LP9 E T 144;1LP9 F R 197;9.17879
1LP9 E D 145;1LP9 E F 146;21.6739
1LP9 E D 145;1LP9 E K 176;0.759767
1LP9 E D 145;1LP9 E S 177;14.6443
1LP9 E D 145;1LP9 E N 178;9.17804
1LP9 E D 145;1LP9 F K 140;18.7192
1LP9 E D 145;1LP9 F K 142;1.80358
1LP9 E D 145;1LP9 F R 197;16.5566
1LP9 E F 146;1LP9 E D 147;29.4068
1LP9 E F 146;1LP9 E S 148;0.137699
1LP9 E F 146;1LP9 E I 150;21.1856
1LP9 E F 146;1LP9 E V 152;11.2492
1LP9 E F 146;1LP9 E K 165;15.5736
1LP9 E F 146;1LP9 E N 178;31.0092
1LP9 E F 146;1LP9 E G 179;8.30101
1LP9 E F 146;1LP9 E A 180;5.17348
1LP9 E D 147;1LP9 E S 148;24.6457
1LP9 E D 147;1LP9 E Q 149;19.2078
1LP9 E D 147;1LP9 E I 150;25.0555
1LP9 E D 147;1LP9 E K 165;0.428482
1LP9 E D 147;1LP9 E N 178;2.65536
1LP9 E S 148;1LP9 E Q 149;31.6379
1LP9 E S 148;1LP9 E I 150;4.99928
1LP9 E S 148;1LP9 E K 165;20.7086
1LP9 E S 148;1LP9 E N 178;13.4563
1LP9 E Q 149;1LP9 E I 150;28.9476
1LP9 E Q 149;1LP9 E N 151;10.4474
1LP9 E Q 149;1LP9 E T 198;2.23049
1LP9 E I 150;1LP9 E N 151;30.0372
1LP9 E I 150;1LP9 E V 152;7.88948
1LP9 E I 150;1LP9 E K 165;9.21963
1LP9 E I 150;1LP9 E T 198;21.9432
1LP9 E N 151;1LP9 E V 152;29.7222
1LP9 E N 151;1LP9 E P 153;8.3655
1LP9 E N 151;1LP9 E F 195;0.734554
1LP9 E N 151;1LP9 E E 197;2.48877
1LP9 E N 151;1LP9 E T 198;50.5442
1LP9 E V 152;1LP9 E P 153;39.4242
1LP9 E V 152;1LP9 E K 154;5.92458
1LP9 E V 152;1LP9 E I 162;8.30673
1LP9 E V 152;1LP9 E T 163;6.882
1LP9 E V 152;1LP9 E D 164;2.34517
1LP9 E V 152;1LP9 E K 165;16.6204
1LP9 E V 152;1LP9 E A 180;12.7611
1LP9 E V 152;1LP9 E F 195;7.43147
1LP9 E P 153;1LP9 E K 154;33.4269
1LP9 E P 153;1LP9 E M 156;1.8439
1LP9 E P 153;1LP9 E I 162;20.1321
1LP9 E P 153;1LP9 E T 163;0.687176
1LP9 E P 153;1LP9 E I 194;7.28432
1LP9 E P 153;1LP9 E F 195;18.9869
1LP9 E P 153;1LP9 E K 196;13.0568
1LP9 E P 153;1LP9 E E 197;20.4394
1LP9 E P 153;1LP9 E T 198;0.0192564
1LP9 E K 154;1LP9 E T 155;34.2044
1LP9 E K 154;1LP9 E M 156;10.2187
1LP9 E K 154;1LP9 E I 162;6.7034
1LP9 E K 154;1LP9 E E 197;1.43121
1LP9 E T 155;1LP9 E M 156;30.7911
1LP9 E T 155;1LP9 E E 157;11.8562
1LP9 E T 155;1LP9 E T 160;22.0949
1LP9 E T 155;1LP9 E F 161;12.2189
1LP9 E T 155;1LP9 E I 162;25.6786
1LP9 E M 156;1LP9 E E 157;33.9273
1LP9 E M 156;1LP9 E S 158;0.541547
1LP9 E M 156;1LP9 E K 196;7.81578
1LP9 E M 156;1LP9 E E 197;23.7817
1LP9 E E 157;1LP9 E S 158;35.5888
1LP9 E E 157;1LP9 E G 159;0.0913776
1LP9 E E 157;1LP9 E T 160;35.0746
1LP9 E E 157;1LP9 E Q 186;27.2723
1LP9 E E 157;1LP9 E F 189;3.88841
1LP9 E E 157;1LP9 E I 194;1.36892
1LP9 E S 158;1LP9 E G 159;29.1879
1LP9 E S 158;1LP9 E T 160;5.94834
1LP9 E S 158;1LP9 E S 184;0.723643
1LP9 E S 158;1LP9 E Q 186;6.12447
1LP9 E G 159;1LP9 E T 160;15.9146
1LP9 E G 159;1LP9 E F 161;21.5076
1LP9 E G 159;1LP9 E W 183;0.0464049
1LP9 E G 159;1LP9 E S 184;14.8994
1LP9 E G 159;1LP9 E N 185;18.1937
1LP9 E G 159;1LP9 E Q 186;1.02052
1LP9 E T 160;1LP9 E F 161;30.6533
1LP9 E T 160;1LP9 E I 162;9.03993
1LP9 E T 160;1LP9 E A 182;2.89003
1LP9 E T 160;1LP9 E W 183;7.31079
1LP9 E T 160;1LP9 E S 184;15.9749
1LP9 E T 160;1LP9 E Q 186;4.15719
1LP9 E T 160;1LP9 E I 194;9.36826
1LP9 E F 161;1LP9 E I 162;26.1998
1LP9 E F 161;1LP9 E I 181;0.0802605
1LP9 E F 161;1LP9 E A 182;6.84838
1LP9 E F 161;1LP9 E W 183;46.0558
1LP9 E F 161;1LP9 E S 184;1.60451
1LP9 E F 161;1LP9 E N 185;2.88505
1LP9 E F 161;1LP9 F R 150;6.67352
1LP9 E F 161;1LP9 F Y 179;4.03303
1LP9 E F 161;1LP9 F K 180;6.39199
1LP9 E F 161;1LP9 F E 181;36.9913
1LP9 E I 162;1LP9 E T 163;31.265
1LP9 E I 162;1LP9 E D 164;1.98192
1LP9 E I 162;1LP9 E A 180;2.47795
1LP9 E I 162;1LP9 E I 181;7.36648
1LP9 E I 162;1LP9 E A 182;13.1608
1LP9 E I 162;1LP9 E W 183;1.78659
1LP9 E I 162;1LP9 E I 194;16.8223
1LP9 E I 162;1LP9 E F 195;12.9717
1LP9 E I 162;1LP9 F Y 179;7.03867
1LP9 E T 163;1LP9 E D 164;31.3218
1LP9 E T 163;1LP9 E K 165;0.695784
1LP9 E T 163;1LP9 E T 166;1.36033
1LP9 E T 163;1LP9 E G 179;0.137652
1LP9 E T 163;1LP9 E A 180;12.3387
1LP9 E T 163;1LP9 E I 181;23.7914
1LP9 E T 163;1LP9 E W 183;14.7846
1LP9 E T 163;1LP9 F D 175;11.2805
1LP9 E T 163;1LP9 F Y 179;20.4673
1LP9 E T 163;1LP9 F S 193;8.72439
1LP9 E D 164;1LP9 E K 165;33.2788
1LP9 E D 164;1LP9 E T 166;8.74309
1LP9 E D 164;1LP9 E G 179;1.08151
1LP9 E D 164;1LP9 E A 180;1.86444
1LP9 E D 164;1LP9 F D 175;0.700703
1LP9 E D 164;1LP9 F P 176;0.569155
1LP9 E D 164;1LP9 F Y 179;31.7101
1LP9 E K 165;1LP9 E T 166;30.3806
1LP9 E K 165;1LP9 E V 167;3.35161
1LP9 E K 165;1LP9 E N 178;13.7504
1LP9 E K 165;1LP9 E G 179;7.84107
1LP9 E K 165;1LP9 E A 180;5.7734
1LP9 E K 165;1LP9 F P 176;0.317475
1LP9 E T 166;1LP9 E V 167;26.6291
1LP9 E T 166;1LP9 E S 177;0.535645
1LP9 E T 166;1LP9 E N 178;7.32949
1LP9 E T 166;1LP9 E G 179;17.97
1LP9 E T 166;1LP9 F S 173;16.5284
1LP9 E T 166;1LP9 F T 174;5.47333
1LP9 E T 166;1LP9 F D 175;16.0351
1LP9 E T 166;1LP9 F P 176;11.5033
1LP9 E T 166;1LP9 F Y 179;0.674503
1LP9 E T 166;1LP9 F R 195;16.2036
1LP9 E V 167;1LP9 E L 168;24.7023
1LP9 E V 167;1LP9 E D 169;1.64901
1LP9 E V 167;1LP9 E K 176;12.864
1LP9 E V 167;1LP9 E S 177;7.52339
1LP9 E V 167;1LP9 E N 178;13.0163
1LP9 E V 167;1LP9 F V 172;1.15487
1LP9 E V 167;1LP9 F S 173;13.6219
1LP9 E V 167;1LP9 F R 195;2.69734
1LP9 E L 168;1LP9 E D 169;28.3501
1LP9 E L 168;1LP9 E M 170;11.3332
1LP9 E L 168;1LP9 E S 175;5.09513
1LP9 E L 168;1LP9 E K 176;5.28554
1LP9 E L 168;1LP9 E S 177;24.2025
1LP9 E L 168;1LP9 F T 144;4.11196
1LP9 E L 168;1LP9 F G 171;14.801
1LP9 E L 168;1LP9 F V 172;5.21838
1LP9 E L 168;1LP9 F S 173;11.4151
1LP9 E L 168;1LP9 F R 195;28.398
1LP9 E L 168;1LP9 F L 196;0.00302012
1LP9 E L 168;1LP9 F R 197;20.4114
1LP9 E D 169;1LP9 E M 170;24.7412
1LP9 E D 169;1LP9 E K 171;5.86325
1LP9 E D 169;1LP9 E D 174;4.81815
1LP9 E D 169;1LP9 E S 175;6.82664
1LP9 E D 169;1LP9 E K 176;30.2929
1LP9 E D 169;1LP9 F S 170;4.59327
1LP9 E D 169;1LP9 F G 171;12.864
1LP9 E D 169;1LP9 F V 172;3.92676
1LP9 E M 170;1LP9 E K 171;23.7011
1LP9 E M 170;1LP9 E A 172;17.7717
1LP9 E M 170;1LP9 E M 173;4.85588
1LP9 E M 170;1LP9 E D 174;2.50302
1LP9 E M 170;1LP9 E S 175;29.0374
1LP9 E M 170;1LP9 E S 177;0.137349
1LP9 E M 170;1LP9 F K 142;21.21
1LP9 E M 170;1LP9 F S 170;0.95218
1LP9 E M 170;1LP9 F G 171;8.2484
1LP9 E M 170;1LP9 F R 197;27.1119
1LP9 E M 170;1LP9 F V 198;9.79521
1LP9 E M 170;1LP9 F S 199;9.66464
1LP9 E K 171;1LP9 E A 172;33.2875
1LP9 E K 171;1LP9 E M 173;11.7044
1LP9 E K 171;1LP9 F S 170;31.1607
1LP9 E A 172;1LP9 E M 173;31.4039
1LP9 E A 172;1LP9 E S 175;4.30423
1LP9 E M 173;1LP9 E D 174;45.7138
1LP9 E M 173;1LP9 E S 175;12.2787
1LP9 E D 174;1LP9 E S 175;23.4185
1LP9 E D 174;1LP9 E K 176;23.8778
1LP9 E S 175;1LP9 E K 176;25.2207
1LP9 E S 175;1LP9 E S 177;8.23347
1LP9 E S 175;1LP9 F K 142;18.7714
1LP9 E S 175;1LP9 F R 197;0.730503
1LP9 E K 176;1LP9 E S 177;22.7238
1LP9 E K 176;1LP9 E N 178;0.388017
1LP9 E S 177;1LP9 E N 178;23.7146
1LP9 E S 177;1LP9 E G 179;0.0537098
1LP9 E S 177;1LP9 F K 142;0.191784
1LP9 E S 177;1LP9 F R 195;11.9459
1LP9 E S 177;1LP9 F R 197;14.4514
1LP9 E N 178;1LP9 E G 179;15.2652
1LP9 E N 178;1LP9 F R 195;2.62486
1LP9 E G 179;1LP9 E A 180;21.699
1LP9 E G 179;1LP9 E I 181;0.228289
1LP9 E G 179;1LP9 F R 195;16.0836
1LP9 E A 180;1LP9 E I 181;24.1929
1LP9 E A 180;1LP9 E F 195;11.1097
1LP9 E A 180;1LP9 F R 195;0.315069
1LP9 E I 181;1LP9 E A 182;18.6848
1LP9 E I 181;1LP9 E W 183;11.0579
1LP9 E I 181;1LP9 E F 195;5.17847
1LP9 E I 181;1LP9 F V 146;18.0889
1LP9 E I 181;1LP9 F L 148;0.857947
1LP9 E I 181;1LP9 F D 175;0.0193016
1LP9 E I 181;1LP9 F S 193;17.7249
1LP9 E I 181;1LP9 F S 194;4.8455
1LP9 E I 181;1LP9 F R 195;13.4025
1LP9 E A 182;1LP9 E W 183;24.99
1LP9 E A 182;1LP9 E I 194;15.1562
1LP9 E A 182;1LP9 E F 195;9.74072
1LP9 E W 183;1LP9 E S 184;34.7823
1LP9 E W 183;1LP9 F F 130;0.000325357
1LP9 E W 183;1LP9 F L 148;26.4793
1LP9 E W 183;1LP9 F R 150;22.6196
1LP9 E W 183;1LP9 F D 175;0.0735034
1LP9 E W 183;1LP9 F Y 179;10.1914
1LP9 E W 183;1LP9 F E 181;6.90184
1LP9 E W 183;1LP9 F A 191;14.8637
1LP9 E W 183;1LP9 F L 192;0.922447
1LP9 E W 183;1LP9 F S 193;5.11608
1LP9 E S 184;1LP9 E N 185;28.8576
1LP9 E S 184;1LP9 E Q 186;19.317
1LP9 E S 184;1LP9 F R 150;6.57726
1LP9 E N 185;1LP9 E Q 186;28.3187
1LP9 E N 185;1LP9 E T 187;7.41607
1LP9 E N 185;1LP9 F R 150;16.4314
1LP9 E Q 186;1LP9 E T 187;31.7094
1LP9 E Q 186;1LP9 E S 188;7.07314
1LP9 E Q 186;1LP9 E F 189;38.4804
1LP9 E T 187;1LP9 E S 188;44.4278
1LP9 E T 187;1LP9 E F 189;2.05052
1LP9 E S 188;1LP9 E F 189;47.7356
1LP9 E S 188;1LP9 E T 190;1.88475
1LP9 E F 189;1LP9 E T 190;40.7067
1LP9 E F 189;1LP9 E C 191;0.168301
1LP9 E F 189;1LP9 E I 194;3.54471
1LP9 E T 190;1LP9 E C 191;24.5365
1LP9 E T 190;1LP9 E Q 192;21.5938
1LP9 E T 190;1LP9 E D 193;9.22059
1LP9 E T 190;1LP9 E I 194;11.7813
1LP9 E C 191;1LP9 E Q 192;25.1098
1LP9 E C 191;1LP9 E D 193;1.88519
1LP9 E C 191;1LP9 E I 194;18.2733
1LP9 E C 191;1LP9 E F 195;2.75977
1LP9 E Q 192;1LP9 E D 193;41.0415
1LP9 E Q 192;1LP9 E I 194;0.145412
1LP9 E Q 192;1LP9 E F 195;0.208278
1LP9 E Q 192;1LP9 E K 196;2.23867
1LP9 E D 193;1LP9 E I 194;25.9975
1LP9 E D 193;1LP9 E F 195;3.76521
1LP9 E D 193;1LP9 E K 196;30.3218
1LP9 E I 194;1LP9 E F 195;34.0786
1LP9 E I 194;1LP9 E K 196;5.03039
1LP9 E F 195;1LP9 E K 196;22.5588
1LP9 E F 195;1LP9 E E 197;2.5725
1LP9 E F 195;1LP9 E T 198;0.203583
1LP9 E K 196;1LP9 E E 197;52.6298
1LP9 E E 197;1LP9 E T 198;37.7786
1LP9 F E 1;1LP9 F A 2;35.8278
1LP9 F E 1;1LP9 F A 3;10.0797
1LP9 F E 1;1LP9 F N 27;2.85216
1LP9 F E 1;1LP9 F Y 107;1.29513
1LP9 F A 2;1LP9 F A 3;25.4428
1LP9 F A 2;1LP9 F N 27;18.0616
1LP9 F A 2;1LP9 F H 29;7.64039
1LP9 F A 2;1LP9 F Y 107;33.3239
1LP9 F A 3;1LP9 F V 4;32.7023
1LP9 F A 3;1LP9 F T 5;5.86108
1LP9 F A 3;1LP9 F Q 25;5.84289
1LP9 F A 3;1LP9 F T 26;2.98927
1LP9 F A 3;1LP9 F N 27;17.7114
1LP9 F A 3;1LP9 F Y 107;2.25443
1LP9 F V 4;1LP9 F T 5;29.7298
1LP9 F V 4;1LP9 F Q 6;1.99249
1LP9 F V 4;1LP9 F C 23;9.34065
1LP9 F V 4;1LP9 F H 24;6.38169
1LP9 F V 4;1LP9 F Q 25;10.2116
1LP9 F V 4;1LP9 F N 27;3.85311
1LP9 F V 4;1LP9 F M 32;0.564551
1LP9 F V 4;1LP9 F C 92;8.37186
1LP9 F V 4;1LP9 F A 93;4.48494
1LP9 F V 4;1LP9 F S 94;10.7639
1LP9 F V 4;1LP9 F Y 107;14.5772
1LP9 F V 4;1LP9 F F 108;9.75359
1LP9 F V 4;1LP9 F G 109;16.5213
1LP9 F V 4;1LP9 F P 110;7.80725
1LP9 F T 5;1LP9 F Q 6;29.4584
1LP9 F T 5;1LP9 F C 23;7.07136
1LP9 F T 5;1LP9 F H 24;35.0488
1LP9 F T 5;1LP9 F G 109;0.205429
1LP9 F T 5;1LP9 F P 110;7.38159
1LP9 F Q 6;1LP9 F S 7;28.1484
1LP9 F Q 6;1LP9 F P 8;1.2312
1LP9 F Q 6;1LP9 F R 9;15.1092
1LP9 F Q 6;1LP9 F S 22;8.62875
1LP9 F Q 6;1LP9 F C 23;6.74588
1LP9 F Q 6;1LP9 F W 34;12.6781
1LP9 F Q 6;1LP9 F Y 90;5.55126
1LP9 F Q 6;1LP9 F F 91;5.82048
1LP9 F Q 6;1LP9 F C 92;15.2188
1LP9 F Q 6;1LP9 F G 109;9.64151
1LP9 F Q 6;1LP9 F P 110;16.6663
1LP9 F Q 6;1LP9 F G 111;13.8693
1LP9 F Q 6;1LP9 F T 112;14.9581
1LP9 F S 7;1LP9 F P 8;36.9261
1LP9 F S 7;1LP9 F R 9;1.9952
1LP9 F S 7;1LP9 F T 20;0.456512
1LP9 F S 7;1LP9 F L 21;2.73363
1LP9 F S 7;1LP9 F S 22;33.5628
1LP9 F S 7;1LP9 F T 112;2.94833
1LP9 F P 8;1LP9 F R 9;24.0826
1LP9 F P 8;1LP9 F S 10;16.4576
1LP9 F P 8;1LP9 F K 11;16.3755
1LP9 F P 8;1LP9 F T 20;9.99188
1LP9 F P 8;1LP9 F L 21;12.0128
1LP9 F P 8;1LP9 F T 112;17.5798
1LP9 F R 9;1LP9 F S 10;27.5641
1LP9 F R 9;1LP9 F P 110;35.9458
1LP9 F R 9;1LP9 F G 111;17.2744
1LP9 F R 9;1LP9 F T 112;9.30952
1LP9 F R 9;1LP9 F R 113;14.0158
1LP9 F R 9;1LP9 F H 217;0.688204
1LP9 F S 10;1LP9 F K 11;27.2914
1LP9 F S 10;1LP9 F V 12;1.90351
1LP9 F S 10;1LP9 F T 112;3.8579
1LP9 F S 10;1LP9 F R 113;10.9633
1LP9 F S 10;1LP9 F H 156;16.8
1LP9 F S 10;1LP9 F H 217;23.7135
1LP9 F S 10;1LP9 F G 218;1.57779
1LP9 F K 11;1LP9 F V 12;37.9099
1LP9 F K 11;1LP9 F A 13;9.20676
1LP9 F K 11;1LP9 F K 18;4.04408
1LP9 F K 11;1LP9 F V 19;18.2884
1LP9 F K 11;1LP9 F T 20;0.0720823
1LP9 F K 11;1LP9 F L 21;5.15956
1LP9 F K 11;1LP9 F T 112;5.32797
1LP9 F K 11;1LP9 F R 113;7.00748
1LP9 F K 11;1LP9 F L 114;20.4921
1LP9 F K 11;1LP9 F T 115;5.84927
1LP9 F K 11;1LP9 F H 156;7.62494
1LP9 F K 11;1LP9 F G 218;1.63346
1LP9 F K 11;1LP9 F S 220;7.66926
1LP9 F K 11;1LP9 F E 222;13.1121
1LP9 F K 11;1LP9 F D 223;11.0325
1LP9 F V 12;1LP9 F A 13;23.7819
1LP9 F V 12;1LP9 F L 114;0.0347333
1LP9 F V 12;1LP9 F T 115;11.6484
1LP9 F V 12;1LP9 F L 116a;11.0154
1LP9 F V 12;1LP9 F L 119;10.9247
1LP9 F V 12;1LP9 F V 122;7.54706
1LP9 F V 12;1LP9 F P 154;15.3575
1LP9 F V 12;1LP9 F H 156;8.4986
1LP9 F V 12;1LP9 F H 217;4.845
1LP9 F V 12;1LP9 F G 218;17.2174
1LP9 F V 12;1LP9 F L 219;12.7867
1LP9 F V 12;1LP9 F D 223;10.1279
1LP9 F A 13;1LP9 F V 14;27.5948
1LP9 F A 13;1LP9 F G 17;2.19417
1LP9 F A 13;1LP9 F V 19;14.0928
1LP9 F A 13;1LP9 F A 82;4.11482
1LP9 F A 13;1LP9 F L 114;8.25491
1LP9 F A 13;1LP9 F T 115;7.82108
1LP9 F A 13;1LP9 F V 116;13.6249
1LP9 F A 13;1LP9 F L 116a;10.0931
1LP9 F A 13;1LP9 F L 119;5.36786
1LP9 F A 13;1LP9 F D 223;0.467246
1LP9 F V 14;1LP9 F T 15;29.4027
1LP9 F V 14;1LP9 F G 16;0.602195
1LP9 F V 14;1LP9 F G 17;16.1333
1LP9 F V 14;1LP9 F A 82;5.61439
1LP9 F V 14;1LP9 F V 116;5.11768
1LP9 F V 14;1LP9 F L 116a;9.9154
1LP9 F V 14;1LP9 F E 117;11.2457
1LP9 F V 14;1LP9 F D 118;7.66142
1LP9 F V 14;1LP9 F L 119;25.7495
1LP9 F V 14;1LP9 F D 223;0.96574
1LP9 F T 15;1LP9 F G 16;22.9707
1LP9 F T 15;1LP9 F G 17;4.52226
1LP9 F T 15;1LP9 F A 82;8.69299
1LP9 F T 15;1LP9 F S 83;6.21195
1LP9 F T 15;1LP9 F L 84;18.3672
1LP9 F T 15;1LP9 F V 116;10.069
1LP9 F T 15;1LP9 F L 116a;8.15105
1LP9 F T 15;1LP9 F E 117;23.107
1LP9 F G 16;1LP9 F G 17;23.6759
1LP9 F G 16;1LP9 F K 18;1.15487
1LP9 F G 16;1LP9 F E 80;3.4211
1LP9 F G 16;1LP9 F L 81;25.9264
1LP9 F G 16;1LP9 F A 82;11.4059
1LP9 F G 17;1LP9 F K 18;25.2642
1LP9 F G 17;1LP9 F V 19;4.976
1LP9 F G 17;1LP9 F L 79;2.43815
1LP9 F G 17;1LP9 F E 80;4.12734
1LP9 F G 17;1LP9 F L 81;1.39811
1LP9 F G 17;1LP9 F A 82;13.4424
1LP9 F K 18;1LP9 F V 19;29.9556
1LP9 F K 18;1LP9 F T 20;12.0693
1LP9 F K 18;1LP9 F I 78;14.4199
1LP9 F K 18;1LP9 F L 79;6.16918
1LP9 F K 18;1LP9 F E 80;31.3643
1LP9 F V 19;1LP9 F T 20;31.1691
1LP9 F V 19;1LP9 F L 21;14.683
1LP9 F V 19;1LP9 F L 77;1.46179
1LP9 F V 19;1LP9 F I 78;6.06752
1LP9 F V 19;1LP9 F L 79;31.154
1LP9 F V 19;1LP9 F A 82;8.65533
1LP9 F V 19;1LP9 F L 114;14.8465
1LP9 F V 19;1LP9 F V 116;0.379896
1LP9 F T 20;1LP9 F L 21;26.7127
1LP9 F T 20;1LP9 F S 22;10.7864
1LP9 F T 20;1LP9 F S 76;12.3114
1LP9 F T 20;1LP9 F L 77;6.26029
1LP9 F T 20;1LP9 F I 78;17.243
1LP9 F L 21;1LP9 F S 22;21.2671
1LP9 F L 21;1LP9 F W 34;17.3999
1LP9 F L 21;1LP9 F F 75;0.0889408
1LP9 F L 21;1LP9 F S 76;6.59249
1LP9 F L 21;1LP9 F L 77;28.9931
1LP9 F L 21;1LP9 F L 79;7.13856
1LP9 F L 21;1LP9 F Y 90;16.7127
1LP9 F L 21;1LP9 F T 112;20.249
1LP9 F L 21;1LP9 F L 114;10.0773
1LP9 F S 22;1LP9 F C 23;24.7551
1LP9 F S 22;1LP9 F W 34;8.84726
1LP9 F S 22;1LP9 F F 75;1.95548
1LP9 F S 22;1LP9 F S 76;11.9003
1LP9 F S 22;1LP9 F T 112;0.450688
1LP9 F C 23;1LP9 F H 24;24.0136
1LP9 F C 23;1LP9 F Q 25;0.586093
1LP9 F C 23;1LP9 F M 32;11.9842
1LP9 F C 23;1LP9 F W 34;8.19908
1LP9 F C 23;1LP9 F E 73;1.00651
1LP9 F C 23;1LP9 F N 74;9.86912
1LP9 F C 23;1LP9 F F 75;19.1404
1LP9 F C 23;1LP9 F S 76;0.00299628
1LP9 F C 23;1LP9 F C 92;17.721
1LP9 F H 24;1LP9 F Q 25;28.1859
1LP9 F H 24;1LP9 F T 26;16.042
1LP9 F H 24;1LP9 F M 32;1.50063
1LP9 F H 24;1LP9 F E 73;20.4815
1LP9 F H 24;1LP9 F N 74;19.0844
1LP9 F Q 25;1LP9 F T 26;23.5942
1LP9 F Q 25;1LP9 F N 27;16.8739
1LP9 F Q 25;1LP9 F N 28;4.74658
1LP9 F Q 25;1LP9 F H 29;18.0719
1LP9 F Q 25;1LP9 F M 32;16.369
1LP9 F Q 25;1LP9 F R 69;0.271419
1LP9 F Q 25;1LP9 F Q 72;7.87869
1LP9 F Q 25;1LP9 F E 73;24.5411
1LP9 F Q 25;1LP9 F S 94;11.1019
1LP9 F T 26;1LP9 F N 27;28.5136
1LP9 F T 26;1LP9 F N 28;9.64612
1LP9 F T 26;1LP9 F E 73;11.8142
1LP9 F N 27;1LP9 F N 28;24.8736
1LP9 F N 27;1LP9 F H 29;25.5443
1LP9 F N 27;1LP9 F S 94;5.22195
1LP9 F N 27;1LP9 F Y 107;1.76447
1LP9 F N 28;1LP9 F H 29;21.9753
1LP9 F N 28;1LP9 F D 30;3.95431
1LP9 F N 28;1LP9 F Q 72;32.9074
1LP9 F N 28;1LP9 F D 96;2.72132
1LP9 F H 29;1LP9 F D 30;18.1173
1LP9 F H 29;1LP9 F Y 31;5.88263
1LP9 F H 29;1LP9 F M 32;1.75618
1LP9 F H 29;1LP9 F R 69;5.31852
1LP9 F H 29;1LP9 F Q 72;11.71
1LP9 F H 29;1LP9 F S 94;13.0371
1LP9 F H 29;1LP9 F S 95;15.0267
1LP9 F H 29;1LP9 F D 96;24.2521
1LP9 F H 29;1LP9 F Y 107;13.8705
1LP9 F D 30;1LP9 F Y 31;31.2887
1LP9 F D 30;1LP9 F M 32;0.00670382
1LP9 F D 30;1LP9 F S 49;1.1733
1LP9 F D 30;1LP9 F Y 50;15.4396
1LP9 F D 30;1LP9 F V 51;14.1734
1LP9 F D 30;1LP9 F A 52;1.44662
1LP9 F D 30;1LP9 F R 69;14.1596
1LP9 F D 30;1LP9 F Q 72;20.313
1LP9 F D 30;1LP9 F S 95;1.43312
1LP9 F D 30;1LP9 F D 96;3.50305
1LP9 F Y 31;1LP9 F M 32;20.6452
1LP9 F Y 31;1LP9 F Y 33;19.3801
1LP9 F Y 31;1LP9 F Y 48;0.816307
1LP9 F Y 31;1LP9 F S 49;7.42111
1LP9 F Y 31;1LP9 F Y 50;21.6323
1LP9 F Y 31;1LP9 F R 69;0.387698
1LP9 F Y 31;1LP9 F S 94;5.90919
1LP9 F Y 31;1LP9 F S 95;21.3896
1LP9 F Y 31;1LP9 F D 96;9.9378
1LP9 F Y 31;1LP9 F W 97;19.3315
1LP9 F Y 31;1LP9 F S 99;7.34822
1LP9 F M 32;1LP9 F Y 33;24.6645
1LP9 F M 32;1LP9 F Y 48;5.74418
1LP9 F M 32;1LP9 F S 49;16.8247
1LP9 F M 32;1LP9 F R 69;20.8027
1LP9 F M 32;1LP9 F Q 72;4.61141
1LP9 F M 32;1LP9 F E 73;7.83895
1LP9 F M 32;1LP9 F N 74;3.7568
1LP9 F M 32;1LP9 F F 75;25.649
1LP9 F M 32;1LP9 F C 92;6.51739
1LP9 F M 32;1LP9 F A 93;7.50097
1LP9 F M 32;1LP9 F S 94;10.7468
1LP9 F Y 33;1LP9 F W 34;19.8777
1LP9 F Y 33;1LP9 F Y 35;16.5161
1LP9 F Y 33;1LP9 F L 45;13.4302
1LP9 F Y 33;1LP9 F H 47;2.10707
1LP9 F Y 33;1LP9 F Y 48;20.0551
1LP9 F Y 33;1LP9 F S 49;0.870295
1LP9 F Y 33;1LP9 F F 75;8.25648
1LP9 F Y 33;1LP9 F F 91;0.519456
1LP9 F Y 33;1LP9 F C 92;9.40976
1LP9 F Y 33;1LP9 F A 93;22.6851
1LP9 F Y 33;1LP9 F S 94;5.49633
1LP9 F Y 33;1LP9 F S 95;11.7589
1LP9 F Y 33;1LP9 F S 99;10.6992
1LP9 F Y 33;1LP9 F Q 106;25.1671
1LP9 F W 34;1LP9 F Y 35;21.8632
1LP9 F W 34;1LP9 F L 45;8.34139
1LP9 F W 34;1LP9 F I 46;17.0055
1LP9 F W 34;1LP9 F H 47;16.4765
1LP9 F W 34;1LP9 F A 67;2.98346
1LP9 F W 34;1LP9 F F 75;27.1988
1LP9 F W 34;1LP9 F S 76;7.11183
1LP9 F W 34;1LP9 F L 77;31.9626
1LP9 F W 34;1LP9 F Y 90;10.3932
1LP9 F W 34;1LP9 F F 91;9.30734
1LP9 F W 34;1LP9 F C 92;17.3128
1LP9 F W 34;1LP9 F T 112;1.26166
1LP9 F Y 35;1LP9 F R 36;19.2114
1LP9 F Y 35;1LP9 F L 43;23.7092
1LP9 F Y 35;1LP9 F R 44;9.24591
1LP9 F Y 35;1LP9 F L 45;27.1286
1LP9 F Y 35;1LP9 F I 46;7.7681
1LP9 F Y 35;1LP9 F V 89;0.169475
1LP9 F Y 35;1LP9 F Y 90;7.68103
1LP9 F Y 35;1LP9 F F 91;26.3521
1LP9 F Y 35;1LP9 F C 92;0.363137
1LP9 F Y 35;1LP9 F A 93;6.42185
1LP9 F Y 35;1LP9 F Q 106;15.3778
1LP9 F Y 35;1LP9 F F 108;13.9165
1LP9 F R 36;1LP9 F Q 37;20.8088
1LP9 F R 36;1LP9 F D 38;22.6817
1LP9 F R 36;1LP9 F G 42;2.76444
1LP9 F R 36;1LP9 F L 43;7.42713
1LP9 F R 36;1LP9 F R 44;38.1897
1LP9 F R 36;1LP9 F I 46;11.7049
1LP9 F R 36;1LP9 F I 60;15.6379
1LP9 F R 36;1LP9 F Y 65;17.0226
1LP9 F R 36;1LP9 F S 85;18.9588
1LP9 F R 36;1LP9 F Q 86;8.87489
1LP9 F R 36;1LP9 F T 87;5.37836
1LP9 F R 36;1LP9 F A 88;13.9421
1LP9 F R 36;1LP9 F V 89;5.19626
1LP9 F R 36;1LP9 F Y 90;15.0594
1LP9 F R 36;1LP9 F F 91;0.287497
1LP9 F Q 37;1LP9 F D 38;26.3735
1LP9 F Q 37;1LP9 F T 39;1.13793
1LP9 F Q 37;1LP9 F G 40;18.6525
1LP9 F Q 37;1LP9 F H 41;8.19274
1LP9 F Q 37;1LP9 F G 42;9.15416
1LP9 F Q 37;1LP9 F L 43;10.0517
1LP9 F Q 37;1LP9 F A 88;7.87513
1LP9 F Q 37;1LP9 F V 89;35.8271
1LP9 F Q 37;1LP9 F F 91;17.2221
1LP9 F D 38;1LP9 F T 39;33.5846
1LP9 F D 38;1LP9 F G 40;2.88035
1LP9 F D 38;1LP9 F H 41;25.7331
1LP9 F D 38;1LP9 F G 42;0.0043178
1LP9 F D 38;1LP9 F R 44;16.4115
1LP9 F D 38;1LP9 F T 87;5.5571
1LP9 F D 38;1LP9 F A 88;8.34522
1LP9 F T 39;1LP9 F G 40;26.1647
1LP9 F T 39;1LP9 F H 41;13.6511
1LP9 F T 39;1LP9 F A 88;0.000549388
1LP9 F T 39;1LP9 F V 89;0.0690502
1LP9 F G 40;1LP9 F H 41;24.9298
1LP9 F G 40;1LP9 F V 89;0.233135
1LP9 F G 40;1LP9 F Q 177;3.02593
1LP9 F H 41;1LP9 F G 42;21.6128
1LP9 F G 42;1LP9 F L 43;22.5466
1LP9 F G 42;1LP9 F R 44;4.61917
1LP9 F L 43;1LP9 F R 44;25.7902
1LP9 F L 43;1LP9 F L 45;1.65538
1LP9 F L 43;1LP9 F F 91;12.4372
1LP9 F L 43;1LP9 F F 108;13.4177
1LP9 F R 44;1LP9 F L 45;20.6502
1LP9 F R 44;1LP9 F I 46;4.43391
1LP9 F R 44;1LP9 F D 59;3.69131
1LP9 F R 44;1LP9 F I 60;38.7114
1LP9 F L 45;1LP9 F I 46;17.4766
1LP9 F L 45;1LP9 F H 47;8.66409
1LP9 F L 45;1LP9 F Y 48;18.4134
1LP9 F L 45;1LP9 F G 58;13.2682
1LP9 F L 45;1LP9 F D 59;26.452
1LP9 F L 45;1LP9 F I 60;9.59787
1LP9 F L 45;1LP9 F P 61;0.0551808
1LP9 F I 46;1LP9 F H 47;29.562
1LP9 F I 46;1LP9 F K 57;0.196429
1LP9 F I 46;1LP9 F G 58;8.28316
1LP9 F I 46;1LP9 F I 60;19.3219
1LP9 F I 46;1LP9 F P 61;12.0699
1LP9 F I 46;1LP9 F Y 65;20.6862
1LP9 F I 46;1LP9 F L 77;14.1494
1LP9 F I 46;1LP9 F Y 90;8.90821
1LP9 F H 47;1LP9 F Y 48;19.1128
1LP9 F H 47;1LP9 F T 55;9.83289
1LP9 F H 47;1LP9 F E 56;8.07747
1LP9 F H 47;1LP9 F K 57;17.0587
1LP9 F H 47;1LP9 F G 58;4.99417
1LP9 F H 47;1LP9 F P 61;13.3864
1LP9 F H 47;1LP9 F Y 65;16.0633
1LP9 F H 47;1LP9 F K 66;8.13089
1LP9 F H 47;1LP9 F A 67;15.9466
1LP9 F H 47;1LP9 F F 75;7.20301
1LP9 F H 47;1LP9 F L 77;7.43449
1LP9 F Y 48;1LP9 F S 49;26.2393
1LP9 F Y 48;1LP9 F Y 50;4.64236
1LP9 F Y 48;1LP9 F T 55;6.04514
1LP9 F Y 48;1LP9 F E 56;36.8771
1LP9 F Y 48;1LP9 F K 57;11.4601
1LP9 F Y 48;1LP9 F G 58;6.17994
1LP9 F Y 48;1LP9 F F 75;9.44592
1LP9 F S 49;1LP9 F Y 50;23.2845
1LP9 F S 49;1LP9 F V 51;6.49107
1LP9 F S 49;1LP9 F S 54;10.3436
1LP9 F S 49;1LP9 F T 55;5.75938
1LP9 F S 49;1LP9 F E 56;2.10404
1LP9 F S 49;1LP9 F R 69;20.0955
1LP9 F S 49;1LP9 F F 75;10.8653
1LP9 F Y 50;1LP9 F V 51;37.2298
1LP9 F Y 50;1LP9 F S 54;20.9706
1LP9 F Y 50;1LP9 F T 55;0.219592
1LP9 F Y 50;1LP9 F E 56;18.5031
1LP9 F Y 50;1LP9 F R 69;0.0172969
1LP9 F V 51;1LP9 F A 52;37.9278
1LP9 F V 51;1LP9 F D 53;0.491603
1LP9 F V 51;1LP9 F S 54;20.2
1LP9 F V 51;1LP9 F R 69;9.31313
1LP9 F A 52;1LP9 F D 53;31.2681
1LP9 F A 52;1LP9 F S 54;2.63251
1LP9 F A 52;1LP9 F R 69;11.9847
1LP9 F A 52;1LP9 F P 70;1.69549
1LP9 F A 52;1LP9 F S 71;11.6691
1LP9 F A 52;1LP9 F Q 72;16.3742
1LP9 F D 53;1LP9 F S 54;27.9053
1LP9 F D 53;1LP9 F R 69;20.0316
1LP9 F D 53;1LP9 F P 70;14.3616
1LP9 F S 54;1LP9 F T 55;32.4397
1LP9 F S 54;1LP9 F E 56;5.53244
1LP9 F S 54;1LP9 F R 69;7.859
1LP9 F T 55;1LP9 F E 56;38.6148
1LP9 F T 55;1LP9 F K 57;0.045066
1LP9 F T 55;1LP9 F A 67;23.1463
1LP9 F T 55;1LP9 F S 68;3.36943
1LP9 F T 55;1LP9 F R 69;7.696
1LP9 F T 55;1LP9 F F 75;8.37417
1LP9 F E 56;1LP9 F K 57;28.2326
1LP9 F E 56;1LP9 F G 58;0.405831
1LP9 F K 57;1LP9 F G 58;24.9639
1LP9 F K 57;1LP9 F P 61;27.4794
1LP9 F K 57;1LP9 F D 62;7.17539
1LP9 F G 58;1LP9 F D 59;22.9997
1LP9 F G 58;1LP9 F P 61;14.7791
1LP9 F D 59;1LP9 F I 60;31.0465
1LP9 F D 59;1LP9 F P 61;7.70479
1LP9 F I 60;1LP9 F P 61;22.756
1LP9 F I 60;1LP9 F D 62;9.09181
1LP9 F I 60;1LP9 F Y 65;11.2099
1LP9 F P 61;1LP9 F D 62;31.0797
1LP9 F P 61;1LP9 F G 64;1.18799
1LP9 F P 61;1LP9 F Y 65;15.3105
1LP9 F D 62;1LP9 F G 64;26.6756
1LP9 F D 62;1LP9 F Y 65;11.817
1LP9 F D 62;1LP9 F Q 86;1.12708
1LP9 F G 64;1LP9 F Y 65;27.1863
1LP9 F G 64;1LP9 F K 66;0.635274
1LP9 F G 64;1LP9 F I 78;0.851878
1LP9 F G 64;1LP9 F L 79;8.11552
1LP9 F G 64;1LP9 F E 80;5.46485
1LP9 F G 64;1LP9 F L 81;2.84823
1LP9 F G 64;1LP9 F Q 86;18.0426
1LP9 F Y 65;1LP9 F K 66;27.6553
1LP9 F Y 65;1LP9 F L 77;14.8351
1LP9 F Y 65;1LP9 F I 78;6.55789
1LP9 F Y 65;1LP9 F L 79;15.3211
1LP9 F Y 65;1LP9 F Q 86;20.0271
1LP9 F Y 65;1LP9 F Y 90;15.9561
1LP9 F K 66;1LP9 F A 67;26.9616
1LP9 F K 66;1LP9 F S 76;0.00579191
1LP9 F K 66;1LP9 F L 77;7.08117
1LP9 F K 66;1LP9 F I 78;40.7451
1LP9 F K 66;1LP9 F E 80;32.9564
1LP9 F A 67;1LP9 F S 68;23.6179
1LP9 F A 67;1LP9 F F 75;9.65863
1LP9 F A 67;1LP9 F S 76;8.06458
1LP9 F A 67;1LP9 F L 77;4.64519
1LP9 F A 67;1LP9 F I 78;5.66416
1LP9 F S 68;1LP9 F R 69;20.1623
1LP9 F S 68;1LP9 F P 70;20.1107
1LP9 F S 68;1LP9 F N 74;0.00178865
1LP9 F S 68;1LP9 F F 75;11.3888
1LP9 F S 68;1LP9 F S 76;24.0684
1LP9 F S 68;1LP9 F I 78;13.5431
1LP9 F R 69;1LP9 F P 70;21.8848
1LP9 F R 69;1LP9 F S 71;12.0339
1LP9 F R 69;1LP9 F Q 72;16.6172
1LP9 F R 69;1LP9 F N 74;8.97832
1LP9 F R 69;1LP9 F F 75;15.2481
1LP9 F P 70;1LP9 F S 71;31.2027
1LP9 F P 70;1LP9 F N 74;22.99
1LP9 F P 70;1LP9 F F 75;1.23299
1LP9 F P 70;1LP9 F S 76;6.26362
1LP9 F S 71;1LP9 F Q 72;19.9895
1LP9 F S 71;1LP9 F E 73;18.8127
1LP9 F S 71;1LP9 F N 74;22.9243
1LP9 F Q 72;1LP9 F E 73;41.1432
1LP9 F Q 72;1LP9 F N 74;1.18215
1LP9 F E 73;1LP9 F N 74;24.2202
1LP9 F N 74;1LP9 F F 75;19.7784
1LP9 F N 74;1LP9 F S 76;2.64234
1LP9 F F 75;1LP9 F S 76;23.6823
1LP9 F F 75;1LP9 F C 92;4.36712
1LP9 F S 76;1LP9 F L 77;17.7695
1LP9 F S 76;1LP9 F I 78;9.82379
1LP9 F L 77;1LP9 F I 78;21.3488
1LP9 F L 77;1LP9 F L 79;12.1536
1LP9 F L 77;1LP9 F Y 90;10.99
1LP9 F I 78;1LP9 F L 79;23.5676
1LP9 F I 78;1LP9 F E 80;16.5099
1LP9 F L 79;1LP9 F E 80;18.7868
1LP9 F L 79;1LP9 F L 81;3.06886
1LP9 F L 79;1LP9 F A 82;12.9102
1LP9 F L 79;1LP9 F Q 86;19.4962
1LP9 F L 79;1LP9 F Y 90;5.04368
1LP9 F L 79;1LP9 F L 114;12.9222
1LP9 F L 79;1LP9 F V 116;1.29804
1LP9 F E 80;1LP9 F L 81;39.6863
1LP9 F E 80;1LP9 F A 82;0.0923462
1LP9 F L 81;1LP9 F A 82;22.9226
1LP9 F L 81;1LP9 F S 83;7.25444
1LP9 F L 81;1LP9 F Q 86;5.09391
1LP9 F A 82;1LP9 F S 83;19.87
1LP9 F A 82;1LP9 F Q 86;6.68365
1LP9 F A 82;1LP9 F L 114;0.0303487
1LP9 F A 82;1LP9 F V 116;14.1072
1LP9 F S 83;1LP9 F L 84;20.2345
1LP9 F S 83;1LP9 F S 85;18.5923
1LP9 F S 83;1LP9 F Q 86;25.0737
1LP9 F S 83;1LP9 F T 87;0.621344
1LP9 F S 83;1LP9 F V 116;12.9019
1LP9 F L 84;1LP9 F S 85;25.3986
1LP9 F L 84;1LP9 F Q 86;1.87062
1LP9 F L 84;1LP9 F T 87;16.9194
1LP9 F L 84;1LP9 F V 116;18.5913
1LP9 F L 84;1LP9 F L 116a;7.01916
1LP9 F L 84;1LP9 F E 117;24.8253
1LP9 F S 85;1LP9 F Q 86;21.3237
1LP9 F S 85;1LP9 F T 87;5.1494
1LP9 F Q 86;1LP9 F T 87;17.1484
1LP9 F Q 86;1LP9 F A 88;5.09659
1LP9 F Q 86;1LP9 F Y 90;13.9321
1LP9 F Q 86;1LP9 F L 114;7.31386
1LP9 F Q 86;1LP9 F V 116;6.96012
1LP9 F T 87;1LP9 F A 88;23.5112
1LP9 F T 87;1LP9 F L 114;9.30188
1LP9 F T 87;1LP9 F T 115;20.9155
1LP9 F T 87;1LP9 F V 116;20.2914
1LP9 F A 88;1LP9 F V 89;25.7208
1LP9 F A 88;1LP9 F Y 90;15.9664
1LP9 F A 88;1LP9 F T 112;0.997023
1LP9 F A 88;1LP9 F R 113;3.12301
1LP9 F A 88;1LP9 F L 114;18.211
1LP9 F V 89;1LP9 F Y 90;21.346
1LP9 F V 89;1LP9 F F 91;19.5533
1LP9 F V 89;1LP9 F P 110;0.118026
1LP9 F V 89;1LP9 F G 111;6.4604
1LP9 F V 89;1LP9 F T 112;10.3626
1LP9 F V 89;1LP9 F R 113;28.5561
1LP9 F Y 90;1LP9 F F 91;18.7873
1LP9 F Y 90;1LP9 F G 111;4.51729
1LP9 F Y 90;1LP9 F T 112;20.8519
1LP9 F Y 90;1LP9 F L 114;16.1706
1LP9 F F 91;1LP9 F C 92;19.9967
1LP9 F F 91;1LP9 F F 108;14.3006
1LP9 F F 91;1LP9 F G 109;8.22288
1LP9 F F 91;1LP9 F P 110;9.76917
1LP9 F F 91;1LP9 F G 111;11.8923
1LP9 F C 92;1LP9 F A 93;25.9111
1LP9 F C 92;1LP9 F S 94;0.000843188
1LP9 F C 92;1LP9 F F 108;6.28358
1LP9 F C 92;1LP9 F G 109;8.49059
1LP9 F A 93;1LP9 F S 94;18.7533
1LP9 F A 93;1LP9 F Q 106;9.08071
1LP9 F A 93;1LP9 F Y 107;8.68597
1LP9 F A 93;1LP9 F F 108;15.2675
1LP9 F A 93;1LP9 F G 109;0.0359753
1LP9 F S 94;1LP9 F S 95;16.9323
1LP9 F S 94;1LP9 F E 105;0.0598885
1LP9 F S 94;1LP9 F Q 106;5.37543
1LP9 F S 94;1LP9 F Y 107;20.0404
1LP9 F S 95;1LP9 F D 96;25.4647
1LP9 F S 95;1LP9 F V 98;2.5985
1LP9 F S 95;1LP9 F S 99;9.72074
1LP9 F S 95;1LP9 F E 105;8.83689
1LP9 F S 95;1LP9 F Q 106;7.83773
1LP9 F S 95;1LP9 F Y 107;3.58481
1LP9 F D 96;1LP9 F W 97;35.1203
1LP9 F D 96;1LP9 F V 98;26.029
1LP9 F D 96;1LP9 F S 99;5.18121
1LP9 F D 96;1LP9 F E 105;0.883713
1LP9 F D 96;1LP9 F Y 107;2.65773
1LP9 F W 97;1LP9 F V 98;34.3658
1LP9 F W 97;1LP9 F S 99;11.8915
1LP9 F V 98;1LP9 F S 99;14.0773
1LP9 F V 98;1LP9 F Y 100;25.3473
1LP9 F V 98;1LP9 F E 105;22.1671
1LP9 F S 99;1LP9 F Y 100;17.318
1LP9 F S 99;1LP9 F E 105;3.02656
1LP9 F S 99;1LP9 F Q 106;13.9511
1LP9 F Y 100;1LP9 F E 105;26.8779
1LP9 F Y 100;1LP9 F Q 106;2.05031
1LP9 F E 105;1LP9 F Q 106;21.5637
1LP9 F E 105;1LP9 F Y 107;39.8475
1LP9 F Q 106;1LP9 F Y 107;23.4987
1LP9 F Q 106;1LP9 F F 108;19.0426
1LP9 F Y 107;1LP9 F F 108;23.6744
1LP9 F Y 107;1LP9 F G 109;0.0852361
1LP9 F F 108;1LP9 F G 109;22.3258
1LP9 F G 109;1LP9 F P 110;20.7136
1LP9 F G 109;1LP9 F G 111;1.90922
1LP9 F P 110;1LP9 F G 111;21.9824
1LP9 F G 111;1LP9 F T 112;19.8332
1LP9 F G 111;1LP9 F R 113;1.93444
1LP9 F T 112;1LP9 F R 113;22.1331
1LP9 F T 112;1LP9 F L 114;7.87674
1LP9 F R 113;1LP9 F L 114;19.3721
1LP9 F R 113;1LP9 F T 115;0.0571975
1LP9 F R 113;1LP9 F D 155;12.6281
1LP9 F R 113;1LP9 F H 156;29.2166
1LP9 F R 113;1LP9 F V 157;7.94307
1LP9 F R 113;1LP9 F P 176;1.78607
1LP9 F R 113;1LP9 F Q 177;7.06946
1LP9 F L 114;1LP9 F T 115;25.9895
1LP9 F L 114;1LP9 F V 116;12.817
1LP9 F L 114;1LP9 F H 156;1.17114
1LP9 F T 115;1LP9 F V 116;20.6851
1LP9 F T 115;1LP9 F L 116a;20.3987
1LP9 F T 115;1LP9 F F 153;2.41083
1LP9 F T 115;1LP9 F P 154;12.5025
1LP9 F T 115;1LP9 F D 155;6.2387
1LP9 F T 115;1LP9 F H 156;18.2277
1LP9 F V 116;1LP9 F L 116a;25.0398
1LP9 F L 116a;1LP9 F E 117;19.8364
1LP9 F L 116a;1LP9 F D 118;17.9987
1LP9 F L 116a;1LP9 F L 119;8.00293
1LP9 F L 116a;1LP9 F N 121;1.04776
1LP9 F L 116a;1LP9 F V 122;10.2873
1LP9 F L 116a;1LP9 F F 153;25.9714
1LP9 F L 116a;1LP9 F P 154;5.70169
1LP9 F E 117;1LP9 F D 118;31.6564
1LP9 F D 118;1LP9 F L 119;27.1095
1LP9 F D 118;1LP9 F R 120;37.6367
1LP9 F D 118;1LP9 F N 121;16.9278
1LP9 F D 118;1LP9 F V 122;0.0678323
1LP9 F D 118;1LP9 F F 153;0.0356143
1LP9 F L 119;1LP9 F R 120;17.2482
1LP9 F L 119;1LP9 F N 121;3.25676
1LP9 F L 119;1LP9 F V 122;20.0173
1LP9 F L 119;1LP9 F L 219;19.4956
1LP9 F L 119;1LP9 F D 223;16.1362
1LP9 F L 119;1LP9 F K 224;12.3428
1LP9 F L 119;1LP9 F W 225;16.1495
1LP9 F R 120;1LP9 F N 121;29.6359
1LP9 F R 120;1LP9 F V 122;6.27582
1LP9 F R 120;1LP9 F T 123;0.513009
1LP9 F R 120;1LP9 F W 225;20.1807
1LP9 F R 120;1LP9 F P 226;11.2964
1LP9 F N 121;1LP9 F V 122;18.6337
1LP9 F N 121;1LP9 F T 123;11.5252
1LP9 F N 121;1LP9 F F 153;20.3672
1LP9 F N 121;1LP9 F Y 187;39.8758
1LP9 F V 122;1LP9 F T 123;22.8703
1LP9 F V 122;1LP9 F P 124;0.121647
1LP9 F V 122;1LP9 F F 153;6.41948
1LP9 F V 122;1LP9 F P 154;15.0475
1LP9 F V 122;1LP9 F F 216;7.62101
1LP9 F V 122;1LP9 F G 218;4.5598
1LP9 F V 122;1LP9 F L 219;14.9642
1LP9 F V 122;1LP9 F W 225;5.28296
1LP9 F V 122;1LP9 F P 232;23.2409
1LP9 F T 123;1LP9 F P 124;35.3543
1LP9 F T 123;1LP9 F G 151;15.6378
1LP9 F T 123;1LP9 F F 152;8.15807
1LP9 F T 123;1LP9 F F 153;18.482
1LP9 F T 123;1LP9 F Y 187;5.72679
1LP9 F T 123;1LP9 F F 216;9.06681
1LP9 F T 123;1LP9 F P 232;2.67986
1LP9 F P 124;1LP9 F P 125;25.5233
1LP9 F P 124;1LP9 F K 126;5.78263
1LP9 F P 124;1LP9 F G 151;5.88418
1LP9 F P 124;1LP9 F F 152;3.26225
1LP9 F P 124;1LP9 F F 216;14.6622
1LP9 F P 124;1LP9 F P 232;15.1771
1LP9 F P 124;1LP9 F Q 235;20.1846
1LP9 F P 124;1LP9 F I 237;10.085
1LP9 F P 125;1LP9 F K 126;27.2345
1LP9 F P 125;1LP9 F V 127;8.23403
1LP9 F P 125;1LP9 F A 149;6.45601
1LP9 F P 125;1LP9 F R 150;5.95142
1LP9 F P 125;1LP9 F G 151;0.993189
1LP9 F P 125;1LP9 F F 152;19.654
1LP9 F P 125;1LP9 F V 157;3.20768
1LP9 F P 125;1LP9 F V 214;14.2386
1LP9 F P 125;1LP9 F F 216;15.3254
1LP9 F P 125;1LP9 F I 237;27.6641
1LP9 F K 126;1LP9 F V 127;24.8703
1LP9 F K 126;1LP9 F S 128;6.9591
1LP9 F K 126;1LP9 F L 148;2.97474
1LP9 F K 126;1LP9 F A 149;4.28961
1LP9 F K 126;1LP9 F R 150;26.4983
1LP9 F K 126;1LP9 F G 151;6.64229
1LP9 F K 126;1LP9 F I 237;1.29606
1LP9 F V 127;1LP9 F S 128;27.8997
1LP9 F V 127;1LP9 F C 147;9.82967
1LP9 F V 127;1LP9 F L 148;3.70011
1LP9 F V 127;1LP9 F A 149;9.24605
1LP9 F V 127;1LP9 F C 212;7.34242
1LP9 F V 127;1LP9 F Q 213;0.0225978
1LP9 F V 127;1LP9 F V 214;13.4207
1LP9 F V 127;1LP9 F I 237;24.2415
1LP9 F V 127;1LP9 F S 238;10.2867
1LP9 F V 127;1LP9 F A 239;18.6745
1LP9 F S 128;1LP9 F L 129;20.8002
1LP9 F S 128;1LP9 F F 130;16.1477
1LP9 F S 128;1LP9 F V 146;0.966085
1LP9 F S 128;1LP9 F C 147;6.72795
1LP9 F S 128;1LP9 F L 148;23.1839
1LP9 F S 128;1LP9 F R 150;1.1548
1LP9 F S 128;1LP9 F A 239;5.36136
1LP9 F L 129;1LP9 F F 130;26.7923
1LP9 F L 129;1LP9 F E 131;9.91048
1LP9 F L 129;1LP9 F L 145;16.651
1LP9 F L 129;1LP9 F V 146;8.00855
1LP9 F L 129;1LP9 F C 147;6.37157
1LP9 F L 129;1LP9 F W 161;12.7864
1LP9 F L 129;1LP9 F F 210;7.75047
1LP9 F L 129;1LP9 F R 211;1.22446
1LP9 F L 129;1LP9 F C 212;6.98661
1LP9 F L 129;1LP9 F A 239;18.4692
1LP9 F L 129;1LP9 F E 240;9.63711
1LP9 F L 129;1LP9 F A 241;14.4841
1LP9 F F 130;1LP9 F E 131;21.0682
1LP9 F F 130;1LP9 F P 132;0.313126
1LP9 F F 130;1LP9 F T 144;0.0111376
1LP9 F F 130;1LP9 F L 145;6.75357
1LP9 F F 130;1LP9 F V 146;23.5866
1LP9 F F 130;1LP9 F L 148;19.7502
1LP9 F E 131;1LP9 F P 132;33.6879
1LP9 F E 131;1LP9 F S 133;0.882787
1LP9 F E 131;1LP9 F T 144;0.0742538
1LP9 F E 131;1LP9 F L 145;1.83868
1LP9 F E 131;1LP9 F W 203;12.0733
1LP9 F E 131;1LP9 F A 241;11.8568
1LP9 F E 131;1LP9 F R 244;26.3395
1LP9 F P 132;1LP9 F S 133;25.6059
1LP9 F P 132;1LP9 F K 134;7.76744
1LP9 F P 132;1LP9 F E 136;3.29392
1LP9 F P 132;1LP9 F I 137;12.5996
1LP9 F P 132;1LP9 F A 143;12.6271
1LP9 F P 132;1LP9 F T 144;13.4697
1LP9 F P 132;1LP9 F L 145;15.9926
1LP9 F P 132;1LP9 F W 203;21.9424
1LP9 F S 133;1LP9 F K 134;20.7496
1LP9 F S 133;1LP9 F A 135;13.3783
1LP9 F S 133;1LP9 F E 136;19.9627
1LP9 F S 133;1LP9 F I 137;11.0502
1LP9 F S 133;1LP9 F T 144;0.0699816
1LP9 F K 134;1LP9 F A 135;23.9356
1LP9 F K 134;1LP9 F E 136;0.481865
1LP9 F K 134;1LP9 F I 137;20.5824
1LP9 F K 134;1LP9 F A 138;13.7274
1LP9 F K 134;1LP9 F H 204;0.453871
1LP9 F K 134;1LP9 F A 245;2.69211
1LP9 F A 135;1LP9 F E 136;16.8554
1LP9 F A 135;1LP9 F I 137;0.989825
1LP9 F A 135;1LP9 F A 138;7.51518
1LP9 F A 135;1LP9 F N 139;25.3212
1LP9 F E 136;1LP9 F I 137;16.8701
1LP9 F E 136;1LP9 F A 138;0.905048
1LP9 F E 136;1LP9 F N 139;4.17325
1LP9 F E 136;1LP9 F K 140;18.654
1LP9 F E 136;1LP9 F Q 141;2.0075
1LP9 F E 136;1LP9 F K 142;16.7801
1LP9 F E 136;1LP9 F A 143;4.40736
1LP9 F E 136;1LP9 F T 144;18.2912
1LP9 F E 136;1LP9 F R 197;12.6256
1LP9 F I 137;1LP9 F A 138;26.2568
1LP9 F I 137;1LP9 F N 139;0.692224
1LP9 F I 137;1LP9 F K 140;0.213308
1LP9 F I 137;1LP9 F Q 141;13.4716
1LP9 F I 137;1LP9 F K 142;12.8412
1LP9 F I 137;1LP9 F A 143;10.4761
1LP9 F I 137;1LP9 F A 200;18.7929
1LP9 F I 137;1LP9 F W 203;17.2446
1LP9 F I 137;1LP9 F H 204;22.7281
1LP9 F A 138;1LP9 F N 139;29.7922
1LP9 F A 138;1LP9 F K 140;0.448878
1LP9 F A 138;1LP9 F Q 141;13.5756
1LP9 F N 139;1LP9 F K 140;30.8984
1LP9 F N 139;1LP9 F Q 141;11.7776
1LP9 F K 140;1LP9 F Q 141;31.5824
1LP9 F K 140;1LP9 F K 142;25.1888
1LP9 F K 140;1LP9 F R 197;3.86502
1LP9 F Q 141;1LP9 F K 142;22.4959
1LP9 F Q 141;1LP9 F S 199;7.80598
1LP9 F Q 141;1LP9 F A 200;20.6907
1LP9 F K 142;1LP9 F A 143;17.5108
1LP9 F K 142;1LP9 F R 197;30.6361
1LP9 F K 142;1LP9 F V 198;5.30551
1LP9 F K 142;1LP9 F S 199;4.64296
1LP9 F K 142;1LP9 F A 200;5.83357
1LP9 F A 143;1LP9 F T 144;14.8098
1LP9 F A 143;1LP9 F L 145;8.27633
1LP9 F A 143;1LP9 F L 196;1.33955
1LP9 F A 143;1LP9 F R 197;8.81231
1LP9 F A 143;1LP9 F V 198;18.9377
1LP9 F A 143;1LP9 F S 199;2.54154
1LP9 F A 143;1LP9 F A 200;2.98628
1LP9 F A 143;1LP9 F W 203;11.8797
1LP9 F T 144;1LP9 F L 145;21.2573
1LP9 F T 144;1LP9 F V 146;6.7565
1LP9 F T 144;1LP9 F R 195;15.5786
1LP9 F T 144;1LP9 F L 196;4.84341
1LP9 F T 144;1LP9 F R 197;19.5516
1LP9 F L 145;1LP9 F V 146;20.292
1LP9 F L 145;1LP9 F W 161;12.1106
1LP9 F L 145;1LP9 F S 194;0.400457
1LP9 F L 145;1LP9 F R 195;4.69132
1LP9 F L 145;1LP9 F L 196;29.2762
1LP9 F L 145;1LP9 F V 198;8.74732
1LP9 F L 145;1LP9 F W 203;15.6478
1LP9 F L 145;1LP9 F F 210;20.556
1LP9 F L 145;1LP9 F A 241;1.83654
1LP9 F V 146;1LP9 F C 147;21.9544
1LP9 F V 146;1LP9 F L 148;3.72308
1LP9 F V 146;1LP9 F W 161;1.7703
1LP9 F V 146;1LP9 F S 193;4.00852
1LP9 F V 146;1LP9 F S 194;8.33646
1LP9 F V 146;1LP9 F R 195;6.53854
1LP9 F C 147;1LP9 F L 148;22.2635
1LP9 F C 147;1LP9 F A 149;2.85053
1LP9 F C 147;1LP9 F L 159;10.741
1LP9 F C 147;1LP9 F W 161;12.926
1LP9 F C 147;1LP9 F L 192;0.807268
1LP9 F C 147;1LP9 F S 193;7.70228
1LP9 F C 147;1LP9 F S 194;16.0442
1LP9 F C 147;1LP9 F C 212;19.674
1LP9 F C 147;1LP9 F V 214;1.97032
1LP9 F C 147;1LP9 F A 239;0.33105
1LP9 F L 148;1LP9 F A 149;21.8097
1LP9 F L 148;1LP9 F R 150;24.1346
1LP9 F L 148;1LP9 F A 191;4.08468
1LP9 F L 148;1LP9 F L 192;8.96304
1LP9 F L 148;1LP9 F S 193;11.272
1LP9 F A 149;1LP9 F R 150;18.6745
1LP9 F A 149;1LP9 F F 152;11.5
1LP9 F A 149;1LP9 F V 157;0.0146447
1LP9 F A 149;1LP9 F L 159;4.4543
1LP9 F A 149;1LP9 F A 191;5.98438
1LP9 F A 149;1LP9 F L 192;22.0578
1LP9 F A 149;1LP9 F V 214;13.3119
1LP9 F R 150;1LP9 F G 151;21.7489
1LP9 F R 150;1LP9 F F 152;8.10759
1LP9 F R 150;1LP9 F E 181;24.6802
1LP9 F R 150;1LP9 F Y 190;3.86471
1LP9 F R 150;1LP9 F A 191;8.54304
1LP9 F G 151;1LP9 F F 152;17.1579
1LP9 F G 151;1LP9 F E 181;6.94377
1LP9 F G 151;1LP9 F Y 187;0.568387
1LP9 F G 151;1LP9 F S 189;15.2241
1LP9 F G 151;1LP9 F Y 190;3.87342
1LP9 F F 152;1LP9 F F 153;18.074
1LP9 F F 152;1LP9 F P 154;7.3101
1LP9 F F 152;1LP9 F D 155;8.23433
1LP9 F F 152;1LP9 F V 157;23.6503
1LP9 F F 152;1LP9 F A 178;7.72075
1LP9 F F 152;1LP9 F Y 187;0.456497
1LP9 F F 152;1LP9 F S 189;5.55662
1LP9 F F 152;1LP9 F Y 190;32.7088
1LP9 F F 152;1LP9 F A 191;7.17785
1LP9 F F 152;1LP9 F L 192;9.34748
1LP9 F F 152;1LP9 F V 214;1.3435
1LP9 F F 152;1LP9 F F 216;6.42477
1LP9 F F 153;1LP9 F P 154;40.3208
1LP9 F F 153;1LP9 F K 180;4.94509
1LP9 F F 153;1LP9 F N 186;7.79968
1LP9 F F 153;1LP9 F Y 187;33.1947
1LP9 F F 153;1LP9 F S 189;3.02905
1LP9 F F 153;1LP9 F Y 190;19.4489
1LP9 F F 153;1LP9 F F 216;7.40044
1LP9 F P 154;1LP9 F D 155;18.7172
1LP9 F P 154;1LP9 F H 156;16.415
1LP9 F P 154;1LP9 F V 157;1.0777
1LP9 F P 154;1LP9 F Y 190;6.82377
1LP9 F P 154;1LP9 F F 216;12.3678
1LP9 F P 154;1LP9 F H 217;4.28428
1LP9 F P 154;1LP9 F G 218;1.03452
1LP9 F D 155;1LP9 F H 156;29.2289
1LP9 F D 155;1LP9 F V 157;14.045
1LP9 F D 155;1LP9 F A 178;16.7704
1LP9 F D 155;1LP9 F Y 190;30.867
1LP9 F H 156;1LP9 F V 157;22.8167
1LP9 F H 156;1LP9 F E 158;1.69119
1LP9 F H 156;1LP9 F Q 215;0.425533
1LP9 F H 156;1LP9 F F 216;5.72168
1LP9 F H 156;1LP9 F H 217;28.4653
1LP9 F V 157;1LP9 F E 158;35.2558
1LP9 F V 157;1LP9 F A 178;5.20739
1LP9 F V 157;1LP9 F L 192;17.158
1LP9 F V 157;1LP9 F V 214;14.4095
1LP9 F V 157;1LP9 F Q 215;7.32304
1LP9 F V 157;1LP9 F F 216;13.5531
1LP9 F V 157;1LP9 F H 217;1.0418
1LP9 F E 158;1LP9 F L 159;28.9702
1LP9 F E 158;1LP9 F S 160;2.22417
1LP9 F E 158;1LP9 F L 192;1.9382
1LP9 F E 158;1LP9 F Q 213;2.01252
1LP9 F E 158;1LP9 F V 214;6.88823
1LP9 F E 158;1LP9 F Q 215;36.4471
1LP9 F E 158;1LP9 F H 217;21.1656
1LP9 F L 159;1LP9 F S 160;33.6942
1LP9 F L 159;1LP9 F W 161;10.5481
1LP9 F L 159;1LP9 F E 167;0.00582227
1LP9 F L 159;1LP9 F T 174;22.422
1LP9 F L 159;1LP9 F L 192;25.6359
1LP9 F L 159;1LP9 F S 193;3.41816
1LP9 F L 159;1LP9 F S 194;12.8773
1LP9 F L 159;1LP9 F C 212;11.5984
1LP9 F L 159;1LP9 F Q 213;5.84861
1LP9 F L 159;1LP9 F V 214;16.0883
1LP9 F S 160;1LP9 F W 161;25.1685
1LP9 F S 160;1LP9 F W 162;15.6973
1LP9 F S 160;1LP9 F E 167;19.0094
1LP9 F S 160;1LP9 F R 211;0.629965
1LP9 F S 160;1LP9 F C 212;4.93976
1LP9 F S 160;1LP9 F Q 213;30.9047
1LP9 F W 161;1LP9 F W 162;24.4407
1LP9 F W 161;1LP9 F V 163;0.403424
1LP9 F W 161;1LP9 F K 166;0.00240772
1LP9 F W 161;1LP9 F E 167;11.3871
1LP9 F W 161;1LP9 F V 168;22.2306
1LP9 F W 161;1LP9 F V 172;20.42
1LP9 F W 161;1LP9 F T 174;0.86013
1LP9 F W 161;1LP9 F S 194;14.9508
1LP9 F W 161;1LP9 F R 195;5.06899
1LP9 F W 161;1LP9 F L 196;31.2031
1LP9 F W 161;1LP9 F F 210;3.76104
1LP9 F W 161;1LP9 F R 211;13.538
1LP9 F W 161;1LP9 F C 212;15.9854
1LP9 F W 162;1LP9 F V 163;22.187
1LP9 F W 162;1LP9 F N 164;0.309477
1LP9 F W 162;1LP9 F G 165;22.3798
1LP9 F W 162;1LP9 F K 166;11.9693
1LP9 F W 162;1LP9 F E 167;32.7397
1LP9 F W 162;1LP9 F V 168;1.48004
1LP9 F W 162;1LP9 F L 196;0.249052
1LP9 F W 162;1LP9 F H 209;3.05932
1LP9 F W 162;1LP9 F F 210;3.38369
1LP9 F W 162;1LP9 F R 211;55.4505
1LP9 F W 162;1LP9 F Q 213;23.9005
1LP9 F V 163;1LP9 F N 164;31.4274
1LP9 F V 163;1LP9 F G 165;3.24189
1LP9 F V 163;1LP9 F K 166;21.2377
1LP9 F V 163;1LP9 F V 168;26.1849
1LP9 F V 163;1LP9 F L 196;12.6351
1LP9 F V 163;1LP9 F V 198;3.727
1LP9 F V 163;1LP9 F F 202;17.7294
1LP9 F V 163;1LP9 F N 208;1.32272
1LP9 F V 163;1LP9 F H 209;8.57334
1LP9 F V 163;1LP9 F F 210;13.0377
1LP9 F N 164;1LP9 F G 165;25.3335
1LP9 F N 164;1LP9 F K 166;20.1944
1LP9 F N 164;1LP9 F F 202;8.98774
1LP9 F N 164;1LP9 F R 207;8.57157
1LP9 F N 164;1LP9 F N 208;17.9154
1LP9 F N 164;1LP9 F H 209;24.2853
1LP9 F G 165;1LP9 F K 166;25.2499
1LP9 F G 165;1LP9 F H 209;6.42141
1LP9 F G 165;1LP9 F R 211;1.11794
1LP9 F K 166;1LP9 F E 167;26.3336
1LP9 F K 166;1LP9 F V 168;9.3759
1LP9 F E 167;1LP9 F V 168;30.1129
1LP9 F E 167;1LP9 F H 169;28.7911
1LP9 F V 168;1LP9 F H 169;32.4997
1LP9 F V 168;1LP9 F S 170;8.98852
1LP9 F V 168;1LP9 F V 172;13.0728
1LP9 F V 168;1LP9 F L 196;9.70678
1LP9 F H 169;1LP9 F S 170;30.8367
1LP9 F H 169;1LP9 F G 171;1.80453
1LP9 F H 169;1LP9 F V 172;22.0471
1LP9 F S 170;1LP9 F G 171;23.505
1LP9 F S 170;1LP9 F V 172;5.18892
1LP9 F S 170;1LP9 F L 196;6.65092
1LP9 F S 170;1LP9 F R 197;0.448469
1LP9 F G 171;1LP9 F V 172;20.8218
1LP9 F G 171;1LP9 F S 173;0.257551
1LP9 F G 171;1LP9 F R 195;2.3742
1LP9 F G 171;1LP9 F L 196;8.84912
1LP9 F G 171;1LP9 F R 197;15.8797
1LP9 F V 172;1LP9 F S 173;25.7838
1LP9 F V 172;1LP9 F T 174;13.204
1LP9 F V 172;1LP9 F S 194;2.96218
1LP9 F V 172;1LP9 F R 195;6.34481
1LP9 F V 172;1LP9 F L 196;10.5657
1LP9 F S 173;1LP9 F T 174;26.6629
1LP9 F S 173;1LP9 F D 175;0.260007
1LP9 F S 173;1LP9 F S 193;0.0732655
1LP9 F S 173;1LP9 F S 194;7.76224
1LP9 F S 173;1LP9 F R 195;27.2488
1LP9 F T 174;1LP9 F D 175;30.4251
1LP9 F T 174;1LP9 F P 176;8.98377
1LP9 F T 174;1LP9 F L 192;7.37975
1LP9 F T 174;1LP9 F S 193;5.38863
1LP9 F T 174;1LP9 F S 194;14.4583
1LP9 F D 175;1LP9 F P 176;30.2361
1LP9 F D 175;1LP9 F Q 177;8.30225
1LP9 F D 175;1LP9 F Y 179;19.1355
1LP9 F D 175;1LP9 F L 192;20.637
1LP9 F D 175;1LP9 F S 193;30.0365
1LP9 F P 176;1LP9 F Q 177;43.1296
1LP9 F P 176;1LP9 F Y 179;5.06096
1LP9 F P 176;1LP9 F L 192;0.798575
1LP9 F Q 177;1LP9 F A 178;35.038
1LP9 F Q 177;1LP9 F Y 179;12.118
1LP9 F Q 177;1LP9 F L 192;5.63645
1LP9 F A 178;1LP9 F Y 179;23.1696
1LP9 F A 178;1LP9 F K 180;2.07349
1LP9 F A 178;1LP9 F Y 190;16.3895
1LP9 F A 178;1LP9 F A 191;6.17814
1LP9 F A 178;1LP9 F L 192;14.0727
1LP9 F Y 179;1LP9 F K 180;24.8753
1LP9 F Y 179;1LP9 F E 181;6.42579
1LP9 F Y 179;1LP9 F Y 190;8.64168
1LP9 F Y 179;1LP9 F A 191;25.3332
1LP9 F Y 179;1LP9 F L 192;3.17994
1LP9 F Y 179;1LP9 F S 193;1.44936e-06
1LP9 F K 180;1LP9 F E 181;21.0827
1LP9 F K 180;1LP9 F S 182;17.7654
1LP9 F K 180;1LP9 F N 186;29.0148
1LP9 F K 180;1LP9 F S 189;7.35919
1LP9 F K 180;1LP9 F Y 190;36.6022
1LP9 F E 181;1LP9 F S 182;31.2201
1LP9 F E 181;1LP9 F S 189;24.0929
1LP9 F E 181;1LP9 F Y 190;6.89645
1LP9 F E 181;1LP9 F A 191;11.6483
1LP9 F S 182;1LP9 F N 186;21.6514
1LP9 F S 182;1LP9 F Y 187;6.2858
1LP9 F S 182;1LP9 F S 189;22.8398
1LP9 F N 186;1LP9 F Y 187;37.6004
1LP9 F N 186;1LP9 F S 189;1.28597
1LP9 F Y 187;1LP9 F S 189;26.0096
1LP9 F S 189;1LP9 F Y 190;22.8271
1LP9 F Y 190;1LP9 F A 191;17.7804
1LP9 F A 191;1LP9 F L 192;20.8196
1LP9 F L 192;1LP9 F S 193;26.3517
1LP9 F L 192;1LP9 F V 214;3.13591
1LP9 F S 193;1LP9 F S 194;21.1099
1LP9 F S 194;1LP9 F R 195;21.8666
1LP9 F R 195;1LP9 F L 196;17.9887
1LP9 F R 195;1LP9 F R 197;0.219412
1LP9 F L 196;1LP9 F R 197;23.8022
1LP9 F L 196;1LP9 F V 198;14.8142
1LP9 F L 196;1LP9 F F 210;11.0174
1LP9 F L 196;1LP9 F R 211;0.0817527
1LP9 F R 197;1LP9 F V 198;27.3629
1LP9 F V 198;1LP9 F S 199;26.5287
1LP9 F V 198;1LP9 F F 202;20.0718
1LP9 F V 198;1LP9 F W 203;9.43261
1LP9 F V 198;1LP9 F F 210;12.6568
1LP9 F S 199;1LP9 F A 200;18.9654
1LP9 F S 199;1LP9 F T 201;13.7053
1LP9 F S 199;1LP9 F F 202;20.2259
1LP9 F S 199;1LP9 F W 203;6.81055
1LP9 F A 200;1LP9 F T 201;23.6694
1LP9 F A 200;1LP9 F F 202;0.919147
1LP9 F A 200;1LP9 F W 203;9.20455
1LP9 F A 200;1LP9 F H 204;21.1368
1LP9 F T 201;1LP9 F F 202;21.8225
1LP9 F T 201;1LP9 F W 203;0.603925
1LP9 F T 201;1LP9 F H 204;13.7059
1LP9 F T 201;1LP9 F N 205;11.8243
1LP9 F F 202;1LP9 F W 203;17.3613
1LP9 F F 202;1LP9 F H 204;0.89634
1LP9 F F 202;1LP9 F N 205;9.75227
1LP9 F F 202;1LP9 F N 208;35.7865
1LP9 F F 202;1LP9 F F 210;15.5382
1LP9 F F 202;1LP9 F G 243;0.422634
1LP9 F W 203;1LP9 F H 204;27.0355
1LP9 F W 203;1LP9 F N 205;3.63575
1LP9 F W 203;1LP9 F F 210;20.0383
1LP9 F W 203;1LP9 F A 241;7.11969
1LP9 F W 203;1LP9 F W 242;4.32782
1LP9 F W 203;1LP9 F G 243;13.5112
1LP9 F W 203;1LP9 F R 244;34.7528
1LP9 F H 204;1LP9 F N 205;18.2271
1LP9 F H 204;1LP9 F P 206;9.19474
1LP9 F H 204;1LP9 F G 243;0.0915202
1LP9 F H 204;1LP9 F R 244;16.715
1LP9 F H 204;1LP9 F A 245;33.4764
1LP9 F N 205;1LP9 F P 206;27.9794
1LP9 F N 205;1LP9 F R 207;23.3888
1LP9 F N 205;1LP9 F N 208;27.0933
1LP9 F N 205;1LP9 F G 243;9.74128
1LP9 F N 205;1LP9 F R 244;0.0611771
1LP9 F P 206;1LP9 F R 207;25.1962
1LP9 F P 206;1LP9 F N 208;3.05158
1LP9 F P 206;1LP9 F W 242;12.8898
1LP9 F P 206;1LP9 F G 243;16.0371
1LP9 F P 206;1LP9 F R 244;4.81552
1LP9 F P 206;1LP9 F A 245;7.48463
1LP9 F R 207;1LP9 F N 208;27.7096
1LP9 F R 207;1LP9 F H 209;6.36922
1LP9 F R 207;1LP9 F W 242;6.09492
1LP9 F N 208;1LP9 F H 209;16.9221
1LP9 F N 208;1LP9 F F 210;14.5243
1LP9 F N 208;1LP9 F W 242;7.84748
1LP9 F N 208;1LP9 F G 243;7.32491
1LP9 F H 209;1LP9 F F 210;27.4652
1LP9 F H 209;1LP9 F R 211;12.3042
1LP9 F H 209;1LP9 F E 240;18.3395
1LP9 F H 209;1LP9 F A 241;5.46458
1LP9 F H 209;1LP9 F W 242;36.1707
1LP9 F F 210;1LP9 F R 211;20.5207
1LP9 F F 210;1LP9 F E 240;5.9407
1LP9 F F 210;1LP9 F A 241;20.1005
1LP9 F F 210;1LP9 F W 242;3.47755
1LP9 F F 210;1LP9 F G 243;7.84622
1LP9 F R 211;1LP9 F C 212;21.7798
1LP9 F R 211;1LP9 F Q 213;23.7403
1LP9 F R 211;1LP9 F N 236;0.951802
1LP9 F R 211;1LP9 F S 238;23.1882
1LP9 F R 211;1LP9 F A 239;5.81404
1LP9 F R 211;1LP9 F E 240;20.0596
1LP9 F C 212;1LP9 F Q 213;20.5563
1LP9 F C 212;1LP9 F V 214;4.11845
1LP9 F C 212;1LP9 F I 237;0.334173
1LP9 F C 212;1LP9 F S 238;7.48072
1LP9 F C 212;1LP9 F A 239;17.2249
1LP9 F Q 213;1LP9 F V 214;23.7864
1LP9 F Q 213;1LP9 F Q 215;9.82029
1LP9 F Q 213;1LP9 F N 236;25.7184
1LP9 F Q 213;1LP9 F I 237;3.68147
1LP9 F Q 213;1LP9 F S 238;11.1236
1LP9 F V 214;1LP9 F Q 215;21.2276
1LP9 F V 214;1LP9 F F 216;4.98681
1LP9 F V 214;1LP9 F Q 235;1.98709
1LP9 F V 214;1LP9 F N 236;4.94937
1LP9 F V 214;1LP9 F I 237;20.2863
1LP9 F Q 215;1LP9 F F 216;20.9118
1LP9 F Q 215;1LP9 F H 217;23.9474
1LP9 F Q 215;1LP9 F T 234;11.8399
1LP9 F Q 215;1LP9 F Q 235;2.67762
1LP9 F Q 215;1LP9 F N 236;25.1738
1LP9 F F 216;1LP9 F H 217;24.8956
1LP9 F F 216;1LP9 F G 218;11.5524
1LP9 F F 216;1LP9 F P 232;8.18683
1LP9 F F 216;1LP9 F V 233;6.15139
1LP9 F F 216;1LP9 F T 234;8.57484
1LP9 F F 216;1LP9 F Q 235;24.6169
1LP9 F F 216;1LP9 F I 237;1.66175
1LP9 F H 217;1LP9 F G 218;19.7192
1LP9 F H 217;1LP9 F T 234;21.0765
1LP9 F G 218;1LP9 F L 219;24.5643
1LP9 F G 218;1LP9 F S 220;1.68719
1LP9 F G 218;1LP9 F P 232;3.43793
1LP9 F G 218;1LP9 F V 233;2.41658
1LP9 F G 218;1LP9 F T 234;15.4845
1LP9 F L 219;1LP9 F S 220;28.3294
1LP9 F L 219;1LP9 F D 223;21.7061
1LP9 F L 219;1LP9 F K 224;1.8719
1LP9 F L 219;1LP9 F W 225;11.4244
1LP9 F L 219;1LP9 F K 231;11.6647
1LP9 F L 219;1LP9 F P 232;18.6365
1LP9 F L 219;1LP9 F V 233;16.5923
1LP9 F L 219;1LP9 F T 234;8.26994
1LP9 F S 220;1LP9 F E 221;28.078
1LP9 F S 220;1LP9 F E 222;15.6775
1LP9 F S 220;1LP9 F D 223;20.1817
1LP9 F S 220;1LP9 F K 231;7.18732
1LP9 F S 220;1LP9 F V 233;3.60689
1LP9 F E 221;1LP9 F E 222;26.6904
1LP9 F E 221;1LP9 F D 223;5.87913
1LP9 F E 221;1LP9 F K 231;21.5982
1LP9 F E 221;1LP9 F V 233;16.985
1LP9 F E 222;1LP9 F D 223;27.6049
1LP9 F E 222;1LP9 F K 224;10.4965
1LP9 F D 223;1LP9 F K 224;28.3506
1LP9 F D 223;1LP9 F W 225;0.481279
1LP9 F D 223;1LP9 F K 231;15.7592
1LP9 F K 224;1LP9 F W 225;35.2529
1LP9 F K 224;1LP9 F P 226;1.60454
1LP9 F K 224;1LP9 F K 231;0.970621
1LP9 F W 225;1LP9 F P 226;64.4565
1LP9 F W 225;1LP9 F E 227;0.665675
1LP9 F W 225;1LP9 F S 229;26.575
1LP9 F W 225;1LP9 F P 230;5.86891
1LP9 F W 225;1LP9 F K 231;31.4795
1LP9 F W 225;1LP9 F P 232;19.7759
1LP9 F P 226;1LP9 F E 227;31.2418
1LP9 F P 226;1LP9 F G 228;7.93475
1LP9 F P 226;1LP9 F S 229;8.79284
1LP9 F E 227;1LP9 F G 228;33.5275
1LP9 F E 227;1LP9 F S 229;4.51824
1LP9 F G 228;1LP9 F S 229;30.4868
1LP9 F G 228;1LP9 F P 230;0.565511
1LP9 F S 229;1LP9 F P 230;45.7851
1LP9 F S 229;1LP9 F K 231;2.20592
1LP9 F P 230;1LP9 F K 231;27.5176
1LP9 F P 230;1LP9 F P 232;8.20299
1LP9 F K 231;1LP9 F P 232;22.5538
1LP9 F K 231;1LP9 F V 233;31.4832
1LP9 F K 231;1LP9 F Q 235;4.34202
1LP9 F P 232;1LP9 F V 233;17.168
1LP9 F P 232;1LP9 F Q 235;3.89705
1LP9 F V 233;1LP9 F T 234;30.0805
1LP9 F V 233;1LP9 F Q 235;23.4726
1LP9 F T 234;1LP9 F Q 235;27.2727
1LP9 F T 234;1LP9 F N 236;0.606763
1LP9 F Q 235;1LP9 F N 236;32.619
1LP9 F Q 235;1LP9 F I 237;19.8241
1LP9 F N 236;1LP9 F I 237;30.1561
1LP9 F N 236;1LP9 F S 238;3.36088
1LP9 F I 237;1LP9 F S 238;32.5325
1LP9 F S 238;1LP9 F A 239;25.2782
1LP9 F S 238;1LP9 F E 240;1.72026
1LP9 F A 239;1LP9 F E 240;26.0321
1LP9 F E 240;1LP9 F A 241;18.9478
1LP9 F E 240;1LP9 F W 242;22.5552
1LP9 F A 241;1LP9 F W 242;31.2595
1LP9 F A 241;1LP9 F R 244;8.75059
1LP9 F W 242;1LP9 F G 243;24.8442
1LP9 F W 242;1LP9 F R 244;16.5862
1LP9 F G 243;1LP9 F R 244;23.6729
1LP9 F R 244;1LP9 F A 245;32.1937
