V1;V2;Weight
1N8Z A D 1;1N8Z A I 2;30.5442
1N8Z A D 1;1N8Z A Q 3;23.1009
1N8Z A D 1;1N8Z A S 26;0.0784669
1N8Z A D 1;1N8Z A Q 27;13.2939
1N8Z A D 1;1N8Z A T 93;2.11535
1N8Z A D 1;1N8Z A P 95;27.2895
1N8Z A D 1;1N8Z A T 97;10.3992
1N8Z A D 1;1N8Z B D 62;5.23721
1N8Z A I 2;1N8Z A Q 3;25.5367
1N8Z A I 2;1N8Z A M 4;4.12051
1N8Z A I 2;1N8Z A A 25;3.81279
1N8Z A I 2;1N8Z A S 26;9.21633
1N8Z A I 2;1N8Z A Q 27;29.1897
1N8Z A I 2;1N8Z A D 28;6.50347
1N8Z A I 2;1N8Z A V 29;13.3276
1N8Z A I 2;1N8Z A Q 90;19.4633
1N8Z A I 2;1N8Z A Y 92;7.58254
1N8Z A I 2;1N8Z A T 93;23.9333
1N8Z A I 2;1N8Z A P 95;1.33086
1N8Z A I 2;1N8Z A T 97;17.1974
1N8Z A Q 3;1N8Z A M 4;28.0398
1N8Z A Q 3;1N8Z A T 5;7.27739
1N8Z A Q 3;1N8Z A R 24;1.53368
1N8Z A Q 3;1N8Z A A 25;3.69439
1N8Z A Q 3;1N8Z A S 26;35.8226
1N8Z A Q 3;1N8Z A Q 27;3.52521
1N8Z A Q 3;1N8Z A T 97;2.13084
1N8Z A M 4;1N8Z A T 5;21.9657
1N8Z A M 4;1N8Z A Q 6;3.43552
1N8Z A M 4;1N8Z A C 23;19.1091
1N8Z A M 4;1N8Z A R 24;8.19535
1N8Z A M 4;1N8Z A A 25;14.9516
1N8Z A M 4;1N8Z A V 29;2.32433
1N8Z A M 4;1N8Z A V 33;7.87398
1N8Z A M 4;1N8Z A F 71;5.14465
1N8Z A M 4;1N8Z A C 88;7.46832
1N8Z A M 4;1N8Z A Q 89;4.01946
1N8Z A M 4;1N8Z A Q 90;18.165
1N8Z A M 4;1N8Z A T 97;13.6398
1N8Z A M 4;1N8Z A F 98;8.95596
1N8Z A M 4;1N8Z A G 99;14.5356
1N8Z A M 4;1N8Z A Q 100;4.61987
1N8Z A T 5;1N8Z A Q 6;26.1231
1N8Z A T 5;1N8Z A S 7;9.18206
1N8Z A T 5;1N8Z A T 22;0.0566671
1N8Z A T 5;1N8Z A C 23;9.40006
1N8Z A T 5;1N8Z A R 24;29.3756
1N8Z A T 5;1N8Z A Q 100;7.00014
1N8Z A Q 6;1N8Z A S 7;25.5283
1N8Z A Q 6;1N8Z A P 8;2.01114
1N8Z A Q 6;1N8Z A S 9;5.71085
1N8Z A Q 6;1N8Z A I 21;5.28121
1N8Z A Q 6;1N8Z A T 22;6.52937
1N8Z A Q 6;1N8Z A C 23;8.03489
1N8Z A Q 6;1N8Z A W 35;6.90267
1N8Z A Q 6;1N8Z A Y 86;5.60839
1N8Z A Q 6;1N8Z A Y 87;7.10716
1N8Z A Q 6;1N8Z A C 88;13.5336
1N8Z A Q 6;1N8Z A G 99;11.6106
1N8Z A Q 6;1N8Z A Q 100;23.6303
1N8Z A Q 6;1N8Z A G 101;16.4354
1N8Z A Q 6;1N8Z A T 102;12.7084
1N8Z A S 7;1N8Z A P 8;37.466
1N8Z A S 7;1N8Z A S 9;1.11057
1N8Z A S 7;1N8Z A I 21;4.65841
1N8Z A S 7;1N8Z A T 22;29.3383
1N8Z A S 7;1N8Z A C 23;0.0709412
1N8Z A S 7;1N8Z A T 102;2.19296
1N8Z A P 8;1N8Z A S 9;23.6243
1N8Z A P 8;1N8Z A S 10;17.8031
1N8Z A P 8;1N8Z A L 11;18.28
1N8Z A P 8;1N8Z A T 20;6.3354
1N8Z A P 8;1N8Z A I 21;5.66918
1N8Z A P 8;1N8Z A T 22;0.188931
1N8Z A P 8;1N8Z A G 101;0.202814
1N8Z A P 8;1N8Z A T 102;16.4038
1N8Z A S 9;1N8Z A S 10;29.7767
1N8Z A S 9;1N8Z A Q 100;11.244
1N8Z A S 9;1N8Z A G 101;12.615
1N8Z A S 9;1N8Z A T 102;7.40954
1N8Z A S 9;1N8Z A K 103;9.17107
1N8Z A S 10;1N8Z A L 11;25.8824
1N8Z A S 10;1N8Z A T 102;2.9108
1N8Z A S 10;1N8Z A K 103;18.323
1N8Z A S 10;1N8Z A E 105;13.9675
1N8Z A L 11;1N8Z A S 12;31.0667
1N8Z A L 11;1N8Z A A 13;9.53218
1N8Z A L 11;1N8Z A V 19;19.1863
1N8Z A L 11;1N8Z A T 20;8.35404
1N8Z A L 11;1N8Z A I 21;7.91419
1N8Z A L 11;1N8Z A T 102;5.93492
1N8Z A L 11;1N8Z A K 103;9.53782
1N8Z A L 11;1N8Z A V 104;19.9403
1N8Z A L 11;1N8Z A E 105;17.3552
1N8Z A S 12;1N8Z A A 13;23.9622
1N8Z A S 12;1N8Z A E 105;23.994
1N8Z A S 12;1N8Z A I 106;0.927452
1N8Z A S 12;1N8Z A K 107;35.0104
1N8Z A S 12;1N8Z A Y 140;3.85074
1N8Z A A 13;1N8Z A S 14;19.3044
1N8Z A A 13;1N8Z A D 17;13.3703
1N8Z A A 13;1N8Z A V 19;12.201
1N8Z A A 13;1N8Z A L 78;13.6792
1N8Z A A 13;1N8Z A V 104;1.06917
1N8Z A A 13;1N8Z A E 105;8.51453
1N8Z A A 13;1N8Z A I 106;5.82072
1N8Z A A 13;1N8Z A K 107;15.3154
1N8Z A S 14;1N8Z A V 15;30.2288
1N8Z A S 14;1N8Z A G 16;0.338929
1N8Z A S 14;1N8Z A D 17;24.6282
1N8Z A S 14;1N8Z A L 78;10.0142
1N8Z A S 14;1N8Z A I 106;2.48962
1N8Z A S 14;1N8Z A K 107;29.3895
1N8Z A V 15;1N8Z A G 16;25.8588
1N8Z A V 15;1N8Z A D 17;3.75491
1N8Z A V 15;1N8Z A L 78;12.8194
1N8Z A V 15;1N8Z A Q 79;15.3877
1N8Z A V 15;1N8Z A P 80;22.0368
1N8Z A V 15;1N8Z A I 106;14.6669
1N8Z A V 15;1N8Z A K 107;2.35175
1N8Z A V 15;1N8Z A R 108;1.77908
1N8Z A V 15;1N8Z A S 171;0.85181
1N8Z A G 16;1N8Z A D 17;23.6992
1N8Z A G 16;1N8Z A R 18;0.849752
1N8Z A G 16;1N8Z A S 76;4.11273
1N8Z A G 16;1N8Z A S 77;18.1629
1N8Z A G 16;1N8Z A L 78;8.68216
1N8Z A G 16;1N8Z A Q 79;1.98954
1N8Z A D 17;1N8Z A R 18;30.3914
1N8Z A D 17;1N8Z A V 19;7.90601
1N8Z A D 17;1N8Z A I 75;2.64312
1N8Z A D 17;1N8Z A S 76;4.89157
1N8Z A D 17;1N8Z A S 77;3.30644
1N8Z A D 17;1N8Z A L 78;16.1481
1N8Z A R 18;1N8Z A V 19;25.0395
1N8Z A R 18;1N8Z A T 20;15.5969
1N8Z A R 18;1N8Z A T 74;25.5987
1N8Z A R 18;1N8Z A I 75;4.01576
1N8Z A R 18;1N8Z A S 76;20.9958
1N8Z A V 19;1N8Z A T 20;29.4317
1N8Z A V 19;1N8Z A I 21;7.66602
1N8Z A V 19;1N8Z A L 73;1.26515
1N8Z A V 19;1N8Z A T 74;8.71348
1N8Z A V 19;1N8Z A I 75;28.3698
1N8Z A V 19;1N8Z A L 78;14.8099
1N8Z A V 19;1N8Z A V 104;6.31008
1N8Z A T 20;1N8Z A I 21;24.3357
1N8Z A T 20;1N8Z A T 22;11.2589
1N8Z A T 20;1N8Z A T 72;15.0772
1N8Z A T 20;1N8Z A L 73;4.51698
1N8Z A T 20;1N8Z A T 74;9.66013
1N8Z A I 21;1N8Z A T 22;23.31
1N8Z A I 21;1N8Z A W 35;16.1056
1N8Z A I 21;1N8Z A F 71;0.890813
1N8Z A I 21;1N8Z A T 72;8.45411
1N8Z A I 21;1N8Z A L 73;28.205
1N8Z A I 21;1N8Z A I 75;5.48508
1N8Z A I 21;1N8Z A Y 86;12.9315
1N8Z A I 21;1N8Z A T 102;21.8167
1N8Z A I 21;1N8Z A V 104;8.308
1N8Z A T 22;1N8Z A C 23;24.8258
1N8Z A T 22;1N8Z A R 24;1.47196
1N8Z A T 22;1N8Z A W 35;3.4652
1N8Z A T 22;1N8Z A D 70;20.1595
1N8Z A T 22;1N8Z A F 71;9.57353
1N8Z A T 22;1N8Z A T 72;13.9399
1N8Z A C 23;1N8Z A R 24;18.1996
1N8Z A C 23;1N8Z A A 25;0.342768
1N8Z A C 23;1N8Z A V 33;0.459494
1N8Z A C 23;1N8Z A W 35;7.7216
1N8Z A C 23;1N8Z A T 69;1.62147
1N8Z A C 23;1N8Z A D 70;3.30172
1N8Z A C 23;1N8Z A F 71;21.8694
1N8Z A C 23;1N8Z A C 88;19.9172
1N8Z A C 23;1N8Z A G 99;0.00647031
1N8Z A R 24;1N8Z A A 25;27.4072
1N8Z A R 24;1N8Z A S 26;1.29345
1N8Z A R 24;1N8Z A T 69;17.786
1N8Z A R 24;1N8Z A D 70;34.9951
1N8Z A A 25;1N8Z A S 26;24.4532
1N8Z A A 25;1N8Z A Q 27;10.7474
1N8Z A A 25;1N8Z A V 29;11.4182
1N8Z A A 25;1N8Z A V 33;0.0167784
1N8Z A A 25;1N8Z A T 69;24.2965
1N8Z A A 25;1N8Z A F 71;7.14363
1N8Z A S 26;1N8Z A Q 27;39.6537
1N8Z A S 26;1N8Z A T 69;0.539424
1N8Z A Q 27;1N8Z A D 28;29.9591
1N8Z A Q 27;1N8Z A V 29;6.83421
1N8Z A Q 27;1N8Z A T 69;8.61646
1N8Z A Q 27;1N8Z A T 93;0.0873707
1N8Z A D 28;1N8Z A V 29;21.9248
1N8Z A D 28;1N8Z A N 30;13.6649
1N8Z A D 28;1N8Z A R 66;12.3957
1N8Z A D 28;1N8Z A T 69;14.5096
1N8Z A D 28;1N8Z A Y 92;21.4854
1N8Z A V 29;1N8Z A N 30;22.0822
1N8Z A V 29;1N8Z A T 31;1.74444
1N8Z A V 29;1N8Z A A 32;14.4384
1N8Z A V 29;1N8Z A V 33;9.66201
1N8Z A V 29;1N8Z A R 66;2.10181
1N8Z A V 29;1N8Z A T 69;1.34315
1N8Z A V 29;1N8Z A F 71;10.126
1N8Z A V 29;1N8Z A Q 90;13.501
1N8Z A V 29;1N8Z A Y 92;20.5887
1N8Z A N 30;1N8Z A T 31;31.4306
1N8Z A N 30;1N8Z A A 32;1.81781
1N8Z A N 30;1N8Z A R 66;30.5948
1N8Z A N 30;1N8Z A F 71;7.4655
1N8Z A N 30;1N8Z A Y 92;12.1551
1N8Z A T 31;1N8Z A A 32;21.4611
1N8Z A T 31;1N8Z A V 33;9.21875
1N8Z A T 31;1N8Z A S 50;25.406
1N8Z A T 31;1N8Z A A 51;16.5709
1N8Z A T 31;1N8Z A R 66;11.725
1N8Z A T 31;1N8Z A F 71;4.59337
1N8Z A A 32;1N8Z A V 33;17.871
1N8Z A A 32;1N8Z A S 50;1.71419
1N8Z A A 32;1N8Z A Q 89;0.149898
1N8Z A A 32;1N8Z A Q 90;5.14558
1N8Z A A 32;1N8Z A H 91;28.5733
1N8Z A A 32;1N8Z A Y 92;11.7946
1N8Z A V 33;1N8Z A A 34;24.9746
1N8Z A V 33;1N8Z A W 35;10.5676
1N8Z A V 33;1N8Z A I 48;1.217
1N8Z A V 33;1N8Z A Y 49;3.24927
1N8Z A V 33;1N8Z A S 50;6.52702
1N8Z A V 33;1N8Z A A 51;15.7134
1N8Z A V 33;1N8Z A F 71;30.0572
1N8Z A V 33;1N8Z A C 88;8.21833
1N8Z A V 33;1N8Z A Q 89;10.7006
1N8Z A V 33;1N8Z A Q 90;4.82672
1N8Z A V 33;1N8Z A H 91;6.06401
1N8Z A A 34;1N8Z A W 35;21.7711
1N8Z A A 34;1N8Z A Y 36;12.2492
1N8Z A A 34;1N8Z A L 46;5.20621
1N8Z A A 34;1N8Z A I 48;6.33918
1N8Z A A 34;1N8Z A Y 49;5.16698
1N8Z A A 34;1N8Z A S 50;0.259924
1N8Z A A 34;1N8Z A Y 87;1.06038
1N8Z A A 34;1N8Z A C 88;5.33324
1N8Z A A 34;1N8Z A Q 89;23.043
1N8Z A A 34;1N8Z A H 91;6.27533
1N8Z A A 34;1N8Z B A 106;9.34313
1N8Z A W 35;1N8Z A Y 36;22.8554
1N8Z A W 35;1N8Z A L 46;6.29411
1N8Z A W 35;1N8Z A L 47;15.3372
1N8Z A W 35;1N8Z A I 48;28.6
1N8Z A W 35;1N8Z A A 51;6.67188
1N8Z A W 35;1N8Z A G 64;3.66375
1N8Z A W 35;1N8Z A S 65;0.747865
1N8Z A W 35;1N8Z A F 71;14.5484
1N8Z A W 35;1N8Z A T 72;7.90459
1N8Z A W 35;1N8Z A L 73;33.7692
1N8Z A W 35;1N8Z A Y 86;4.33248
1N8Z A W 35;1N8Z A Y 87;11.9706
1N8Z A W 35;1N8Z A C 88;19.0532
1N8Z A Y 36;1N8Z A Q 37;17.7482
1N8Z A Y 36;1N8Z A Q 38;0.580166
1N8Z A Y 36;1N8Z A P 44;12.7339
1N8Z A Y 36;1N8Z A K 45;9.07597
1N8Z A Y 36;1N8Z A L 46;18.8325
1N8Z A Y 36;1N8Z A L 47;7.05821
1N8Z A Y 36;1N8Z A L 73;0.29615
1N8Z A Y 36;1N8Z A T 85;0.752155
1N8Z A Y 36;1N8Z A Y 86;9.22498
1N8Z A Y 36;1N8Z A Y 87;29.027
1N8Z A Y 36;1N8Z A C 88;0.518737
1N8Z A Y 36;1N8Z A Q 89;18.6643
1N8Z A Y 36;1N8Z A F 98;10.6896
1N8Z A Y 36;1N8Z B L 45;3.79577
1N8Z A Y 36;1N8Z B A 106;3.4332
1N8Z A Y 36;1N8Z B M 107;20.8523
1N8Z A Y 36;1N8Z B W 110;15.4727
1N8Z A Q 37;1N8Z A Q 38;20.6936
1N8Z A Q 37;1N8Z A K 39;26.0265
1N8Z A Q 37;1N8Z A A 43;1.92534
1N8Z A Q 37;1N8Z A P 44;5.82686
1N8Z A Q 37;1N8Z A K 45;31.5792
1N8Z A Q 37;1N8Z A L 47;22.5252
1N8Z A Q 37;1N8Z A F 62;8.95809
1N8Z A Q 37;1N8Z A E 81;1.49698
1N8Z A Q 37;1N8Z A D 82;6.93011
1N8Z A Q 37;1N8Z A A 84;10.0884
1N8Z A Q 37;1N8Z A T 85;3.88024
1N8Z A Q 37;1N8Z A Y 86;19.262
1N8Z A Q 38;1N8Z A K 39;29.9579
1N8Z A Q 38;1N8Z A P 40;2.16046
1N8Z A Q 38;1N8Z A K 42;12.5335
1N8Z A Q 38;1N8Z A A 43;4.10001
1N8Z A Q 38;1N8Z A P 44;20.0352
1N8Z A Q 38;1N8Z A A 84;8.00692
1N8Z A Q 38;1N8Z A T 85;27.1236
1N8Z A Q 38;1N8Z A Y 87;16.7519
1N8Z A Q 38;1N8Z B Q 39;19.1751
1N8Z A Q 38;1N8Z B L 45;6.58807
1N8Z A Q 38;1N8Z B Y 95;9.03098
1N8Z A K 39;1N8Z A P 40;33.6068
1N8Z A K 39;1N8Z A G 41;2.66901
1N8Z A K 39;1N8Z A K 42;28.0915
1N8Z A K 39;1N8Z A A 43;1.17564
1N8Z A K 39;1N8Z A K 45;2.27632
1N8Z A K 39;1N8Z A E 81;24.7991
1N8Z A K 39;1N8Z A D 82;0.299435
1N8Z A K 39;1N8Z A F 83;11.0472
1N8Z A K 39;1N8Z A A 84;9.19814
1N8Z A K 39;1N8Z A S 168;8.92687
1N8Z A P 40;1N8Z A G 41;27.2636
1N8Z A P 40;1N8Z A K 42;13.4394
1N8Z A P 40;1N8Z A F 83;19.6436
1N8Z A P 40;1N8Z A A 84;4.97334
1N8Z A P 40;1N8Z A T 85;0.313223
1N8Z A P 40;1N8Z A E 165;28.0261
1N8Z A P 40;1N8Z A Q 166;0.825904
1N8Z A G 41;1N8Z A K 42;37.2852
1N8Z A G 41;1N8Z B Y 95;1.80893
1N8Z A G 41;1N8Z B Q 112;1.19274
1N8Z A K 42;1N8Z A A 43;32.583
1N8Z A K 42;1N8Z A P 44;0.0523029
1N8Z A K 42;1N8Z A K 45;5.85738
1N8Z A K 42;1N8Z B Y 95;9.90517
1N8Z A K 42;1N8Z B Q 112;3.92543
1N8Z A A 43;1N8Z A P 44;27.0574
1N8Z A A 43;1N8Z A K 45;12.8996
1N8Z A A 43;1N8Z B Y 95;10.9762
1N8Z A A 43;1N8Z B W 110;14.0
1N8Z A A 43;1N8Z B G 111;8.33077
1N8Z A A 43;1N8Z B Q 112;9.26626
1N8Z A P 44;1N8Z A K 45;23.3589
1N8Z A P 44;1N8Z A Y 87;1.53342
1N8Z A P 44;1N8Z B L 45;16.256
1N8Z A P 44;1N8Z B Y 95;7.70014
1N8Z A P 44;1N8Z B W 110;34.3428
1N8Z A K 45;1N8Z A L 46;27.9694
1N8Z A K 45;1N8Z A L 47;7.05459
1N8Z A K 45;1N8Z B D 108;1.03947
1N8Z A K 45;1N8Z B W 110;2.66683
1N8Z A L 46;1N8Z A L 47;20.9718
1N8Z A L 46;1N8Z A I 48;10.0521
1N8Z A L 46;1N8Z A Y 49;8.31524
1N8Z A L 46;1N8Z A Y 55;34.0147
1N8Z A L 46;1N8Z A V 58;7.62657
1N8Z A L 46;1N8Z B F 104;8.99317
1N8Z A L 46;1N8Z B A 106;10.86
1N8Z A L 46;1N8Z B M 107;9.33063
1N8Z A L 46;1N8Z B D 108;17.437
1N8Z A L 46;1N8Z B W 110;1.94429
1N8Z A L 47;1N8Z A I 48;26.8958
1N8Z A L 47;1N8Z A F 53;0.246984
1N8Z A L 47;1N8Z A L 54;5.10756
1N8Z A L 47;1N8Z A Y 55;11.9495
1N8Z A L 47;1N8Z A V 58;25.2844
1N8Z A L 47;1N8Z A P 59;0.368664
1N8Z A L 47;1N8Z A F 62;20.4173
1N8Z A L 47;1N8Z A L 73;11.0406
1N8Z A L 47;1N8Z A Y 86;9.1416
1N8Z A I 48;1N8Z A Y 49;22.0132
1N8Z A I 48;1N8Z A A 51;10.381
1N8Z A I 48;1N8Z A S 52;6.69266
1N8Z A I 48;1N8Z A F 53;11.2694
1N8Z A I 48;1N8Z A L 54;10.8824
1N8Z A I 48;1N8Z A Y 55;1.16445
1N8Z A I 48;1N8Z A F 62;7.16375
1N8Z A I 48;1N8Z A S 63;9.88443
1N8Z A I 48;1N8Z A G 64;12.5446
1N8Z A I 48;1N8Z A L 73;11.8039
1N8Z A Y 49;1N8Z A S 50;34.1763
1N8Z A Y 49;1N8Z A A 51;3.27162
1N8Z A Y 49;1N8Z A S 52;2.40088
1N8Z A Y 49;1N8Z A F 53;43.2428
1N8Z A Y 49;1N8Z A L 54;8.05643
1N8Z A Y 49;1N8Z A Y 55;16.0449
1N8Z A Y 49;1N8Z A H 91;0.00487252
1N8Z A Y 49;1N8Z B F 104;31.5751
1N8Z A Y 49;1N8Z B A 106;11.8733
1N8Z A S 50;1N8Z A A 51;15.6339
1N8Z A S 50;1N8Z A S 52;7.74502
1N8Z A S 50;1N8Z A F 53;11.6311
1N8Z A S 50;1N8Z A H 91;11.6899
1N8Z A S 50;1N8Z B A 106;0.137012
1N8Z A A 51;1N8Z A S 52;20.9165
1N8Z A A 51;1N8Z A G 64;7.23762
1N8Z A A 51;1N8Z A S 65;8.89233
1N8Z A A 51;1N8Z A R 66;10.2105
1N8Z A A 51;1N8Z A F 71;12.6441
1N8Z A S 52;1N8Z A F 53;36.5043
1N8Z A S 52;1N8Z A L 54;5.74499
1N8Z A S 52;1N8Z A S 63;0.121721
1N8Z A S 52;1N8Z A G 64;21.9227
1N8Z A S 52;1N8Z A S 65;5.66641
1N8Z A S 52;1N8Z A R 66;0.880878
1N8Z A F 53;1N8Z A L 54;23.2295
1N8Z A F 53;1N8Z A Y 55;2.36133
1N8Z A L 54;1N8Z A Y 55;29.3328
1N8Z A L 54;1N8Z A S 56;2.52656
1N8Z A L 54;1N8Z A V 58;23.2114
1N8Z A L 54;1N8Z A P 59;4.8623
1N8Z A L 54;1N8Z A S 60;17.3108
1N8Z A L 54;1N8Z A F 62;17.5671
1N8Z A L 54;1N8Z A S 63;0.436534
1N8Z A Y 55;1N8Z A S 56;49.7343
1N8Z A Y 55;1N8Z A G 57;2.42654
1N8Z A Y 55;1N8Z A V 58;21.0974
1N8Z A Y 55;1N8Z B F 104;12.9473
1N8Z A Y 55;1N8Z B D 108;22.1646
1N8Z A Y 55;1N8Z B Y 109;15.656
1N8Z A S 56;1N8Z A G 57;31.3283
1N8Z A S 56;1N8Z A V 58;6.07671
1N8Z A G 57;1N8Z A V 58;28.2763
1N8Z A G 57;1N8Z A P 59;6.56273
1N8Z A V 58;1N8Z A P 59;34.5974
1N8Z A V 58;1N8Z A S 60;3.06834
1N8Z A V 58;1N8Z A F 62;11.7447
1N8Z A P 59;1N8Z A S 60;20.1885
1N8Z A P 59;1N8Z A R 61;33.074
1N8Z A P 59;1N8Z A F 62;23.9727
1N8Z A P 59;1N8Z A E 81;0.677215
1N8Z A S 60;1N8Z A R 61;26.0463
1N8Z A S 60;1N8Z A F 62;10.9766
1N8Z A S 60;1N8Z A S 63;3.59705
1N8Z A R 61;1N8Z A F 62;31.8017
1N8Z A R 61;1N8Z A S 63;3.61578
1N8Z A R 61;1N8Z A T 74;3.67144
1N8Z A R 61;1N8Z A I 75;12.4848
1N8Z A R 61;1N8Z A S 76;25.6984
1N8Z A R 61;1N8Z A S 77;18.5863
1N8Z A R 61;1N8Z A L 78;0.215266
1N8Z A R 61;1N8Z A Q 79;19.5442
1N8Z A R 61;1N8Z A E 81;17.1235
1N8Z A R 61;1N8Z A D 82;17.0246
1N8Z A F 62;1N8Z A S 63;24.3095
1N8Z A F 62;1N8Z A L 73;9.97456
1N8Z A F 62;1N8Z A T 74;4.98668
1N8Z A F 62;1N8Z A I 75;20.394
1N8Z A F 62;1N8Z A D 82;12.2373
1N8Z A F 62;1N8Z A Y 86;8.78441
1N8Z A S 63;1N8Z A G 64;30.7837
1N8Z A S 63;1N8Z A S 65;2.16097
1N8Z A S 63;1N8Z A T 72;0.523514
1N8Z A S 63;1N8Z A L 73;7.86788
1N8Z A S 63;1N8Z A T 74;30.5681
1N8Z A S 63;1N8Z A S 76;1.52344
1N8Z A G 64;1N8Z A S 65;24.2306
1N8Z A G 64;1N8Z A T 72;6.42326
1N8Z A G 64;1N8Z A L 73;2.16519
1N8Z A G 64;1N8Z A T 74;0.126081
1N8Z A S 65;1N8Z A R 66;32.1534
1N8Z A S 65;1N8Z A D 70;0.190395
1N8Z A S 65;1N8Z A F 71;9.08439
1N8Z A S 65;1N8Z A T 72;32.6304
1N8Z A S 65;1N8Z A T 74;2.50289
1N8Z A R 66;1N8Z A S 67;30.349
1N8Z A R 66;1N8Z A G 68;27.594
1N8Z A R 66;1N8Z A T 69;1.43966
1N8Z A R 66;1N8Z A D 70;4.86275
1N8Z A R 66;1N8Z A F 71;22.1023
1N8Z A S 67;1N8Z A G 68;26.6919
1N8Z A S 67;1N8Z A T 69;2.96012
1N8Z A S 67;1N8Z A D 70;29.9309
1N8Z A S 67;1N8Z A T 72;1.71709
1N8Z A G 68;1N8Z A T 69;26.5404
1N8Z A G 68;1N8Z A D 70;2.67896
1N8Z A G 68;1N8Z A F 71;3.84269
1N8Z A T 69;1N8Z A D 70;23.1365
1N8Z A T 69;1N8Z A F 71;13.5581
1N8Z A D 70;1N8Z A F 71;22.331
1N8Z A D 70;1N8Z A T 72;5.01125
1N8Z A F 71;1N8Z A T 72;20.3448
1N8Z A F 71;1N8Z A C 88;0.633324
1N8Z A T 72;1N8Z A L 73;21.2329
1N8Z A T 72;1N8Z A T 74;12.2264
1N8Z A L 73;1N8Z A T 74;23.9492
1N8Z A L 73;1N8Z A I 75;11.2001
1N8Z A L 73;1N8Z A Y 86;14.5946
1N8Z A T 74;1N8Z A I 75;22.1666
1N8Z A T 74;1N8Z A S 76;12.2422
1N8Z A I 75;1N8Z A S 76;16.6707
1N8Z A I 75;1N8Z A S 77;3.36616
1N8Z A I 75;1N8Z A L 78;19.6602
1N8Z A I 75;1N8Z A D 82;11.2792
1N8Z A I 75;1N8Z A Y 86;13.8406
1N8Z A I 75;1N8Z A V 104;5.09704
1N8Z A S 76;1N8Z A S 77;29.3472
1N8Z A S 77;1N8Z A L 78;17.0261
1N8Z A S 77;1N8Z A Q 79;20.4741
1N8Z A S 77;1N8Z A D 82;0.00219859
1N8Z A L 78;1N8Z A Q 79;26.8765
1N8Z A L 78;1N8Z A D 82;11.9244
1N8Z A L 78;1N8Z A V 104;13.8796
1N8Z A L 78;1N8Z A E 105;1.17222
1N8Z A L 78;1N8Z A I 106;14.6732
1N8Z A Q 79;1N8Z A P 80;29.6575
1N8Z A Q 79;1N8Z A E 81;19.3551
1N8Z A Q 79;1N8Z A D 82;19.8284
1N8Z A Q 79;1N8Z A F 83;0.012501
1N8Z A Q 79;1N8Z A I 106;5.53873
1N8Z A P 80;1N8Z A E 81;23.6212
1N8Z A P 80;1N8Z A D 82;2.65932
1N8Z A P 80;1N8Z A F 83;9.29487
1N8Z A P 80;1N8Z A I 106;12.8624
1N8Z A P 80;1N8Z A D 167;2.13032
1N8Z A P 80;1N8Z A S 168;14.9831
1N8Z A P 80;1N8Z A K 169;18.7063
1N8Z A P 80;1N8Z A S 171;13.7283
1N8Z A E 81;1N8Z A D 82;21.7622
1N8Z A E 81;1N8Z A F 83;7.34947
1N8Z A E 81;1N8Z A A 84;0.0137706
1N8Z A E 81;1N8Z A S 168;22.9172
1N8Z A E 81;1N8Z A K 169;1.10925
1N8Z A D 82;1N8Z A F 83;17.235
1N8Z A D 82;1N8Z A A 84;5.0269
1N8Z A D 82;1N8Z A Y 86;15.7621
1N8Z A D 82;1N8Z A V 104;7.4106
1N8Z A D 82;1N8Z A I 106;2.80439
1N8Z A F 83;1N8Z A A 84;24.6812
1N8Z A F 83;1N8Z A K 103;19.0728
1N8Z A F 83;1N8Z A V 104;11.3531
1N8Z A F 83;1N8Z A E 105;4.90699
1N8Z A F 83;1N8Z A I 106;17.5124
1N8Z A F 83;1N8Z A E 165;15.3643
1N8Z A F 83;1N8Z A Q 166;40.2011
1N8Z A F 83;1N8Z A D 167;1.85889
1N8Z A F 83;1N8Z A S 168;10.2853
1N8Z A F 83;1N8Z A S 171;0.0397575
1N8Z A F 83;1N8Z A Y 173;1.31168
1N8Z A A 84;1N8Z A T 85;21.7724
1N8Z A A 84;1N8Z A Y 86;14.9021
1N8Z A A 84;1N8Z A T 102;0.908575
1N8Z A A 84;1N8Z A K 103;10.3467
1N8Z A A 84;1N8Z A V 104;14.3758
1N8Z A T 85;1N8Z A Y 86;22.7922
1N8Z A T 85;1N8Z A Y 87;24.8301
1N8Z A T 85;1N8Z A Q 100;1.19746
1N8Z A T 85;1N8Z A G 101;8.36353
1N8Z A T 85;1N8Z A T 102;8.32644
1N8Z A T 85;1N8Z A K 103;22.8237
1N8Z A Y 86;1N8Z A Y 87;20.4504
1N8Z A Y 86;1N8Z A G 101;4.88175
1N8Z A Y 86;1N8Z A T 102;19.1972
1N8Z A Y 86;1N8Z A V 104;13.1056
1N8Z A Y 87;1N8Z A C 88;21.0356
1N8Z A Y 87;1N8Z A Q 89;0.00309813
1N8Z A Y 87;1N8Z A F 98;10.0765
1N8Z A Y 87;1N8Z A G 99;9.617
1N8Z A Y 87;1N8Z A Q 100;7.60505
1N8Z A Y 87;1N8Z A G 101;11.1318
1N8Z A Y 87;1N8Z B Q 39;8.50391
1N8Z A Y 87;1N8Z B K 43;4.09766
1N8Z A Y 87;1N8Z B G 44;11.1962
1N8Z A Y 87;1N8Z B L 45;27.2446
1N8Z A C 88;1N8Z A Q 89;20.8968
1N8Z A C 88;1N8Z A T 97;0.00905057
1N8Z A C 88;1N8Z A F 98;7.09232
1N8Z A C 88;1N8Z A G 99;14.6793
1N8Z A Q 89;1N8Z A Q 90;23.7996
1N8Z A Q 89;1N8Z A H 91;9.75252
1N8Z A Q 89;1N8Z A P 96;13.2174
1N8Z A Q 89;1N8Z A T 97;11.824
1N8Z A Q 89;1N8Z A F 98;23.5643
1N8Z A Q 89;1N8Z A G 99;0.0366973
1N8Z A Q 89;1N8Z B W 99;2.45418
1N8Z A Q 89;1N8Z B Y 105;1.77786
1N8Z A Q 89;1N8Z B A 106;3.61401
1N8Z A Q 89;1N8Z B M 107;15.1074
1N8Z A Q 90;1N8Z A H 91;19.3038
1N8Z A Q 90;1N8Z A Y 92;9.5296
1N8Z A Q 90;1N8Z A T 93;12.6339
1N8Z A Q 90;1N8Z A P 95;6.46708
1N8Z A Q 90;1N8Z A P 96;9.13313
1N8Z A Q 90;1N8Z A T 97;24.1184
1N8Z A H 91;1N8Z A Y 92;16.1368
1N8Z A H 91;1N8Z A T 93;8.00223
1N8Z A H 91;1N8Z A P 96;9.5809
1N8Z A H 91;1N8Z B W 99;9.16635
1N8Z A H 91;1N8Z B Y 105;26.4715
1N8Z A H 91;1N8Z B A 106;8.01954
1N8Z A Y 92;1N8Z A T 93;34.3489
1N8Z A T 93;1N8Z A T 94;32.697
1N8Z A T 93;1N8Z A P 95;8.92863
1N8Z A T 93;1N8Z A P 96;5.70243
1N8Z A T 94;1N8Z A P 95;32.9224
1N8Z A T 94;1N8Z A P 96;9.6458
1N8Z A T 94;1N8Z B W 47;8.2058
1N8Z A T 94;1N8Z B R 50;12.6412
1N8Z A T 94;1N8Z B R 59;31.821
1N8Z A T 94;1N8Z B W 99;4.75916
1N8Z A P 95;1N8Z A P 96;23.8366
1N8Z A P 95;1N8Z A T 97;11.7692
1N8Z A P 95;1N8Z B W 47;19.5152
1N8Z A P 95;1N8Z B R 59;7.06676
1N8Z A P 95;1N8Z B Y 60;4.08391
1N8Z A P 95;1N8Z B A 61;4.063
1N8Z A P 96;1N8Z A T 97;25.5051
1N8Z A P 96;1N8Z A F 98;1.27471
1N8Z A P 96;1N8Z B H 35;3.63732
1N8Z A P 96;1N8Z B W 47;34.5254
1N8Z A P 96;1N8Z B R 50;0.63107
1N8Z A P 96;1N8Z B W 99;13.264
1N8Z A P 96;1N8Z B M 107;7.34341
1N8Z A T 97;1N8Z A F 98;31.4947
1N8Z A T 97;1N8Z A G 99;0.406071
1N8Z A T 97;1N8Z B W 47;0.405456
1N8Z A F 98;1N8Z A G 99;29.6188
1N8Z A F 98;1N8Z A Q 100;0.94219
1N8Z A F 98;1N8Z B V 37;12.1743
1N8Z A F 98;1N8Z B L 45;36.5252
1N8Z A F 98;1N8Z B E 46;2.04275
1N8Z A F 98;1N8Z B W 47;14.9057
1N8Z A F 98;1N8Z B M 107;7.24271
1N8Z A F 98;1N8Z B W 110;9.74975
1N8Z A G 99;1N8Z A Q 100;21.6481
1N8Z A G 99;1N8Z A G 101;2.65788
1N8Z A G 99;1N8Z B G 44;1.18947
1N8Z A G 99;1N8Z B L 45;2.12413
1N8Z A Q 100;1N8Z A G 101;27.1594
1N8Z A Q 100;1N8Z B G 44;12.2994
1N8Z A G 101;1N8Z A T 102;18.088
1N8Z A G 101;1N8Z A K 103;0.0211895
1N8Z A T 102;1N8Z A K 103;19.7783
1N8Z A T 102;1N8Z A V 104;5.42358
1N8Z A K 103;1N8Z A V 104;23.7553
1N8Z A K 103;1N8Z A E 105;31.0618
1N8Z A K 103;1N8Z A E 165;10.7801
1N8Z A K 103;1N8Z A Q 166;0.390684
1N8Z A K 103;1N8Z A Y 173;4.45097
1N8Z A V 104;1N8Z A E 105;23.6612
1N8Z A V 104;1N8Z A I 106;7.00439
1N8Z A E 105;1N8Z A I 106;24.5242
1N8Z A E 105;1N8Z A K 107;0.790473
1N8Z A E 105;1N8Z A Y 140;1.01287
1N8Z A E 105;1N8Z A Q 166;6.13918
1N8Z A E 105;1N8Z A Y 173;8.28686
1N8Z A I 106;1N8Z A K 107;22.0664
1N8Z A I 106;1N8Z A R 108;8.51314
1N8Z A I 106;1N8Z A Y 140;10.4232
1N8Z A I 106;1N8Z A Q 166;22.4349
1N8Z A I 106;1N8Z A S 171;16.0032
1N8Z A I 106;1N8Z A Y 173;4.57118e-05
1N8Z A K 107;1N8Z A R 108;28.9406
1N8Z A K 107;1N8Z A Y 140;19.7277
1N8Z A R 108;1N8Z A T 109;54.6431
1N8Z A R 108;1N8Z A V 110;6.12511
1N8Z A R 108;1N8Z A A 111;11.3231
1N8Z A R 108;1N8Z A Y 140;32.8828
1N8Z A R 108;1N8Z A Q 166;0.585522
1N8Z A R 108;1N8Z A D 170;20.1167
1N8Z A R 108;1N8Z A S 171;16.4636
1N8Z A R 108;1N8Z A T 172;15.0686
1N8Z A T 109;1N8Z A V 110;39.203
1N8Z A T 109;1N8Z A A 111;1.91968
1N8Z A T 109;1N8Z A Y 140;7.34735
1N8Z A V 110;1N8Z A A 111;26.0711
1N8Z A V 110;1N8Z A A 112;2.59629
1N8Z A V 110;1N8Z A Y 140;10.5376
1N8Z A V 110;1N8Z A P 141;12.6722
1N8Z A V 110;1N8Z A H 198;2.49758
1N8Z A V 110;1N8Z A Q 199;14.7967
1N8Z A V 110;1N8Z A G 200;15.4038
1N8Z A A 111;1N8Z A A 112;27.0802
1N8Z A A 111;1N8Z A P 113;1.68149
1N8Z A A 111;1N8Z A N 138;7.28595
1N8Z A A 111;1N8Z A F 139;9.80508
1N8Z A A 111;1N8Z A Y 140;17.4066
1N8Z A A 111;1N8Z A T 172;7.38911
1N8Z A A 111;1N8Z A H 198;5.98082
1N8Z A A 111;1N8Z A G 200;0.521002
1N8Z A A 112;1N8Z A P 113;27.4887
1N8Z A A 112;1N8Z A S 114;2.74766
1N8Z A A 112;1N8Z A N 137;0.639246
1N8Z A A 112;1N8Z A N 138;6.87499
1N8Z A A 112;1N8Z A F 139;0.959598
1N8Z A A 112;1N8Z A H 198;1.00675
1N8Z A A 112;1N8Z A G 200;18.3989
1N8Z A A 112;1N8Z A L 201;13.9995
1N8Z A P 113;1N8Z A S 114;24.852
1N8Z A P 113;1N8Z A V 115;14.5579
1N8Z A P 113;1N8Z A L 136;15.8499
1N8Z A P 113;1N8Z A N 137;7.5161
1N8Z A P 113;1N8Z A N 138;1.2552
1N8Z A P 113;1N8Z A F 139;18.785
1N8Z A P 113;1N8Z A A 144;0.0655259
1N8Z A P 113;1N8Z A V 196;2.75419
1N8Z A P 113;1N8Z A H 198;17.2305
1N8Z A P 113;1N8Z A G 200;0.201136
1N8Z A P 113;1N8Z A L 201;24.597
1N8Z A S 114;1N8Z A V 115;22.513
1N8Z A S 114;1N8Z A F 116;18.0515
1N8Z A S 114;1N8Z A L 135;2.17739
1N8Z A S 114;1N8Z A L 136;4.83358
1N8Z A S 114;1N8Z A N 137;25.2633
1N8Z A S 114;1N8Z A N 138;0.187337
1N8Z A S 114;1N8Z B S 139;13.9777
1N8Z A V 115;1N8Z A F 116;30.1838
1N8Z A V 115;1N8Z A C 134;7.07798
1N8Z A V 115;1N8Z A L 135;6.59317
1N8Z A V 115;1N8Z A L 136;7.97176
1N8Z A V 115;1N8Z A C 194;3.77335
1N8Z A V 115;1N8Z A V 196;17.4259
1N8Z A V 115;1N8Z A L 201;5.62918
1N8Z A V 115;1N8Z A V 205;21.1638
1N8Z A V 115;1N8Z A K 207;31.1617
1N8Z A V 115;1N8Z B K 136;0.290977
1N8Z A V 115;1N8Z B S 139;2.40459
1N8Z A F 116;1N8Z A I 117;19.6147
1N8Z A F 116;1N8Z A F 118;9.83785
1N8Z A F 116;1N8Z A V 133;0.492828
1N8Z A F 116;1N8Z A C 134;8.08838
1N8Z A F 116;1N8Z A L 135;32.0414
1N8Z A F 116;1N8Z A N 137;11.6905
1N8Z A F 116;1N8Z A K 207;7.31357
1N8Z A F 116;1N8Z B K 136;5.82207
1N8Z A F 116;1N8Z B S 137;19.7759
1N8Z A F 116;1N8Z B T 138;5.12791
1N8Z A F 116;1N8Z B S 139;17.2579
1N8Z A F 116;1N8Z B T 142;5.94534
1N8Z A F 116;1N8Z B A 144;16.722
1N8Z A F 116;1N8Z B T 190;6.67901
1N8Z A I 117;1N8Z A F 118;29.0094
1N8Z A I 117;1N8Z A P 119;6.83164
1N8Z A I 117;1N8Z A V 132;7.89966
1N8Z A I 117;1N8Z A V 133;6.95024
1N8Z A I 117;1N8Z A C 134;5.55435
1N8Z A I 117;1N8Z A W 148;8.57882
1N8Z A I 117;1N8Z A Y 192;5.00504
1N8Z A I 117;1N8Z A A 193;1.36384
1N8Z A I 117;1N8Z A C 194;8.24723
1N8Z A I 117;1N8Z A K 207;17.9545
1N8Z A I 117;1N8Z A S 208;10.0836
1N8Z A I 117;1N8Z A F 209;20.4673
1N8Z A I 117;1N8Z B A 132;0.0123771
1N8Z A I 117;1N8Z B S 134;2.9442
1N8Z A I 117;1N8Z B K 136;25.4486
1N8Z A I 117;1N8Z B S 137;6.28946
1N8Z A F 118;1N8Z A P 119;31.9669
1N8Z A F 118;1N8Z A P 120;0.339568
1N8Z A F 118;1N8Z A S 131;1.43624
1N8Z A F 118;1N8Z A V 132;6.5567
1N8Z A F 118;1N8Z A V 133;30.8531
1N8Z A F 118;1N8Z A C 134;0.375584
1N8Z A F 118;1N8Z A L 135;13.2328
1N8Z A F 118;1N8Z A F 209;1.49557
1N8Z A F 118;1N8Z B L 131;30.4374
1N8Z A F 118;1N8Z B A 132;14.5429
1N8Z A F 118;1N8Z B P 133;1.0385
1N8Z A F 118;1N8Z B S 134;0.0140906
1N8Z A F 118;1N8Z B S 137;11.8195
1N8Z A F 118;1N8Z B A 144;12.2198
1N8Z A F 118;1N8Z B L 145;8.53666
1N8Z A F 118;1N8Z B V 188;6.13463
1N8Z A P 119;1N8Z A P 120;36.3958
1N8Z A P 119;1N8Z A S 121;4.37288
1N8Z A P 119;1N8Z A S 131;2.42161
1N8Z A P 119;1N8Z A V 132;0.948545
1N8Z A P 119;1N8Z A Y 186;4.69489
1N8Z A P 119;1N8Z A F 209;31.1032
1N8Z A P 119;1N8Z A C 214;6.9025
1N8Z A P 119;1N8Z B P 130;2.59243
1N8Z A P 119;1N8Z B L 131;5.98898
1N8Z A P 119;1N8Z B A 132;9.79811
1N8Z A P 119;1N8Z B S 134;6.75996
1N8Z A P 119;1N8Z B K 136;1.87419
1N8Z A P 120;1N8Z A S 121;28.0192
1N8Z A P 120;1N8Z A D 122;2.25961
1N8Z A P 120;1N8Z A Q 124;8.74611
1N8Z A P 120;1N8Z A L 125;20.3298
1N8Z A P 120;1N8Z A A 130;11.0029
1N8Z A P 120;1N8Z A S 131;15.0413
1N8Z A P 120;1N8Z A V 132;11.9342
1N8Z A P 120;1N8Z A Y 186;17.9286
1N8Z A P 120;1N8Z A F 209;3.43654
1N8Z A S 121;1N8Z A D 122;22.6651
1N8Z A S 121;1N8Z A E 123;9.98702
1N8Z A S 121;1N8Z A Q 124;16.5612
1N8Z A S 121;1N8Z A L 125;10.2227
1N8Z A S 121;1N8Z B F 129;9.9098
1N8Z A S 121;1N8Z B P 130;28.6187
1N8Z A S 121;1N8Z B A 132;0.698284
1N8Z A D 122;1N8Z A E 123;22.3775
1N8Z A D 122;1N8Z A Q 124;0.485966
1N8Z A D 122;1N8Z A L 125;23.8576
1N8Z A D 122;1N8Z A K 126;20.1952
1N8Z A E 123;1N8Z A Q 124;17.8953
1N8Z A E 123;1N8Z A L 125;0.986593
1N8Z A E 123;1N8Z A K 126;37.7219
1N8Z A E 123;1N8Z A S 127;8.19588
1N8Z A E 123;1N8Z B V 128;0.779702
1N8Z A E 123;1N8Z B F 129;17.4996
1N8Z A E 123;1N8Z B P 130;6.55888
1N8Z A E 123;1N8Z B K 216;14.2844
1N8Z A Q 124;1N8Z A L 125;17.7288
1N8Z A Q 124;1N8Z A K 126;1.20418
1N8Z A Q 124;1N8Z A S 127;13.763
1N8Z A Q 124;1N8Z A G 128;1.42448
1N8Z A Q 124;1N8Z A T 129;27.0426
1N8Z A Q 124;1N8Z A A 130;5.74886
1N8Z A Q 124;1N8Z A S 131;18.0752
1N8Z A Q 124;1N8Z B F 129;33.4861
1N8Z A Q 124;1N8Z B L 148;8.67195
1N8Z A Q 124;1N8Z B K 150;7.63066
1N8Z A L 125;1N8Z A K 126;16.8256
1N8Z A L 125;1N8Z A S 127;2.26272
1N8Z A L 125;1N8Z A G 128;5.29561
1N8Z A L 125;1N8Z A T 129;10.0278
1N8Z A L 125;1N8Z A A 130;8.86085
1N8Z A L 125;1N8Z A K 183;29.0169
1N8Z A L 125;1N8Z A Y 186;21.4573
1N8Z A L 125;1N8Z A E 187;8.92306
1N8Z A K 126;1N8Z A S 127;23.7476
1N8Z A K 126;1N8Z A G 128;2.9922
1N8Z A K 126;1N8Z A K 183;17.5645
1N8Z A S 127;1N8Z A G 128;23.5956
1N8Z A S 127;1N8Z A T 129;10.2528
1N8Z A S 127;1N8Z B F 129;7.90492
1N8Z A G 128;1N8Z A T 129;23.4502
1N8Z A G 128;1N8Z A S 182;9.43469
1N8Z A G 128;1N8Z A K 183;25.2808
1N8Z A T 129;1N8Z A A 130;22.8234
1N8Z A T 129;1N8Z A S 131;1.96865
1N8Z A T 129;1N8Z A T 180;9.24076
1N8Z A T 129;1N8Z A L 181;8.05832
1N8Z A T 129;1N8Z A S 182;5.09733
1N8Z A T 129;1N8Z A K 183;6.15437
1N8Z A T 129;1N8Z B K 150;18.1838
1N8Z A T 129;1N8Z B D 151;0.939071
1N8Z A A 130;1N8Z A S 131;18.3419
1N8Z A A 130;1N8Z A V 132;5.09409
1N8Z A A 130;1N8Z A L 179;3.14048
1N8Z A A 130;1N8Z A T 180;4.75818
1N8Z A A 130;1N8Z A L 181;21.7528
1N8Z A A 130;1N8Z A S 182;1.3672
1N8Z A A 130;1N8Z A K 183;3.72053
1N8Z A A 130;1N8Z A Y 186;12.906
1N8Z A S 131;1N8Z A V 132;17.6003
1N8Z A S 131;1N8Z A V 133;10.9925
1N8Z A S 131;1N8Z A T 178;9.57615
1N8Z A S 131;1N8Z A L 179;4.50523
1N8Z A S 131;1N8Z A T 180;8.85071
1N8Z A S 131;1N8Z B L 131;1.44617
1N8Z A S 131;1N8Z B L 148;17.0129
1N8Z A S 131;1N8Z B K 150;9.25073
1N8Z A V 132;1N8Z A V 133;19.4284
1N8Z A V 132;1N8Z A W 148;16.8487
1N8Z A V 132;1N8Z A S 177;0.832807
1N8Z A V 132;1N8Z A T 178;6.17409
1N8Z A V 132;1N8Z A L 179;28.9008
1N8Z A V 132;1N8Z A L 181;4.5911
1N8Z A V 132;1N8Z A Y 186;7.65584
1N8Z A V 132;1N8Z A Y 192;15.5399
1N8Z A V 132;1N8Z A F 209;9.53988
1N8Z A V 133;1N8Z A C 134;22.2042
1N8Z A V 133;1N8Z A L 135;5.56702
1N8Z A V 133;1N8Z A W 148;4.13067
1N8Z A V 133;1N8Z A S 176;9.97007
1N8Z A V 133;1N8Z A S 177;6.37134
1N8Z A V 133;1N8Z A T 178;12.3182
1N8Z A V 133;1N8Z B L 131;20.2923
1N8Z A V 133;1N8Z B L 148;11.8248
1N8Z A V 133;1N8Z B S 186;8.47252
1N8Z A V 133;1N8Z B V 188;3.20579
1N8Z A C 134;1N8Z A L 135;20.6853
1N8Z A C 134;1N8Z A L 136;11.6139
1N8Z A C 134;1N8Z A V 146;3.4134
1N8Z A C 134;1N8Z A W 148;10.7304
1N8Z A C 134;1N8Z A L 175;0.478467
1N8Z A C 134;1N8Z A S 176;4.04754
1N8Z A C 134;1N8Z A S 177;21.0989
1N8Z A C 134;1N8Z A C 194;19.2994
1N8Z A C 134;1N8Z A V 196;2.52449
1N8Z A C 134;1N8Z A K 207;0.654887
1N8Z A L 135;1N8Z A L 136;25.0485
1N8Z A L 135;1N8Z A N 137;18.947
1N8Z A L 135;1N8Z A S 174;2.42448
1N8Z A L 135;1N8Z A L 175;8.1364
1N8Z A L 135;1N8Z A S 176;6.3066
1N8Z A L 135;1N8Z B A 144;10.4586
1N8Z A L 135;1N8Z B H 171;0.0488397
1N8Z A L 135;1N8Z B F 173;10.6463
1N8Z A L 135;1N8Z B V 188;23.9787
1N8Z A L 135;1N8Z B T 190;0.170481
1N8Z A L 136;1N8Z A N 137;16.2556
1N8Z A L 136;1N8Z A N 138;0.195566
1N8Z A L 136;1N8Z A F 139;17.1845
1N8Z A L 136;1N8Z A A 144;9.11382
1N8Z A L 136;1N8Z A V 146;9.21276
1N8Z A L 136;1N8Z A S 174;5.17948
1N8Z A L 136;1N8Z A L 175;33.0775
1N8Z A L 136;1N8Z A S 176;0.287095
1N8Z A L 136;1N8Z A S 177;2.42932
1N8Z A L 136;1N8Z A V 196;19.4176
1N8Z A L 136;1N8Z A H 198;0.434078
1N8Z A N 137;1N8Z A N 138;41.7475
1N8Z A N 137;1N8Z A F 139;2.59648
1N8Z A N 137;1N8Z A S 174;9.89727
1N8Z A N 137;1N8Z B A 144;0.105732
1N8Z A N 137;1N8Z B G 169;0.241113
1N8Z A N 137;1N8Z B H 171;13.3059
1N8Z A N 137;1N8Z B V 188;4.43132
1N8Z A N 137;1N8Z B T 190;18.1733
1N8Z A N 138;1N8Z A F 139;16.8363
1N8Z A N 138;1N8Z A D 167;0.995062
1N8Z A N 138;1N8Z A D 170;12.8187
1N8Z A N 138;1N8Z A T 172;23.7714
1N8Z A N 138;1N8Z A Y 173;6.39563
1N8Z A N 138;1N8Z A S 174;8.82612
1N8Z A N 138;1N8Z B H 171;15.0957
1N8Z A N 138;1N8Z B T 190;0.719748
1N8Z A F 139;1N8Z A Y 140;18.7246
1N8Z A F 139;1N8Z A P 141;7.43336
1N8Z A F 139;1N8Z A R 142;13.0483
1N8Z A F 139;1N8Z A E 143;0.63056
1N8Z A F 139;1N8Z A A 144;8.90349
1N8Z A F 139;1N8Z A V 163;3.34517
1N8Z A F 139;1N8Z A T 172;10.1476
1N8Z A F 139;1N8Z A Y 173;30.9094
1N8Z A F 139;1N8Z A S 174;5.37087
1N8Z A F 139;1N8Z A L 175;16.4772
1N8Z A F 139;1N8Z A H 198;13.255
1N8Z A Y 140;1N8Z A P 141;46.173
1N8Z A Y 140;1N8Z A R 142;0.414452
1N8Z A Y 140;1N8Z A Q 166;6.02687
1N8Z A Y 140;1N8Z A S 171;5.9924
1N8Z A Y 140;1N8Z A T 172;6.37574
1N8Z A Y 140;1N8Z A Y 173;19.4561
1N8Z A Y 140;1N8Z A H 198;8.48847
1N8Z A P 141;1N8Z A R 142;21.8598
1N8Z A P 141;1N8Z A E 143;8.60403
1N8Z A P 141;1N8Z A Y 173;2.19304
1N8Z A P 141;1N8Z A H 198;12.2822
1N8Z A P 141;1N8Z A Q 199;27.4364
1N8Z A R 142;1N8Z A E 143;27.751
1N8Z A R 142;1N8Z A A 144;5.15735
1N8Z A R 142;1N8Z A V 163;40.9728
1N8Z A R 142;1N8Z A T 164;2.18298
1N8Z A R 142;1N8Z A E 165;1.75426
1N8Z A R 142;1N8Z A Y 173;39.287
1N8Z A R 142;1N8Z A L 175;6.32083
1N8Z A E 143;1N8Z A A 144;33.3709
1N8Z A E 143;1N8Z A H 198;8.7613
1N8Z A E 143;1N8Z A Q 199;25.8348
1N8Z A A 144;1N8Z A K 145;26.4353
1N8Z A A 144;1N8Z A V 146;6.54053
1N8Z A A 144;1N8Z A E 161;9.65451
1N8Z A A 144;1N8Z A L 175;10.0795
1N8Z A A 144;1N8Z A V 196;5.50474
1N8Z A A 144;1N8Z A T 197;6.69153
1N8Z A A 144;1N8Z A H 198;13.5171
1N8Z A K 145;1N8Z A V 146;25.1927
1N8Z A K 145;1N8Z A Q 147;29.0419
1N8Z A K 145;1N8Z A E 161;0.567932
1N8Z A K 145;1N8Z A E 195;3.16257
1N8Z A K 145;1N8Z A V 196;8.91988
1N8Z A K 145;1N8Z A T 197;44.028
1N8Z A V 146;1N8Z A Q 147;27.7991
1N8Z A V 146;1N8Z A W 148;8.52852
1N8Z A V 146;1N8Z A S 159;1.85069
1N8Z A V 146;1N8Z A E 161;21.8158
1N8Z A V 146;1N8Z A L 175;10.7411
1N8Z A V 146;1N8Z A S 177;18.0288
1N8Z A V 146;1N8Z A C 194;10.0562
1N8Z A V 146;1N8Z A E 195;5.85123
1N8Z A V 146;1N8Z A V 196;12.7065
1N8Z A Q 147;1N8Z A W 148;29.4356
1N8Z A Q 147;1N8Z A K 149;17.4526
1N8Z A Q 147;1N8Z A L 154;24.9726
1N8Z A Q 147;1N8Z A C 194;3.7313
1N8Z A Q 147;1N8Z A E 195;42.6842
1N8Z A Q 147;1N8Z A T 197;2.2775
1N8Z A W 148;1N8Z A K 149;23.2795
1N8Z A W 148;1N8Z A V 150;5.84884
1N8Z A W 148;1N8Z A A 153;2.61876
1N8Z A W 148;1N8Z A L 154;10.3728
1N8Z A W 148;1N8Z A Q 155;21.2252
1N8Z A W 148;1N8Z A S 159;16.7223
1N8Z A W 148;1N8Z A S 177;17.95
1N8Z A W 148;1N8Z A T 178;1.4592
1N8Z A W 148;1N8Z A L 179;32.0523
1N8Z A W 148;1N8Z A Y 192;3.587
1N8Z A W 148;1N8Z A A 193;16.1905
1N8Z A W 148;1N8Z A C 194;15.3536
1N8Z A K 149;1N8Z A V 150;17.9897
1N8Z A K 149;1N8Z A D 151;1.40244
1N8Z A K 149;1N8Z A N 152;32.3102
1N8Z A K 149;1N8Z A A 153;9.23798
1N8Z A K 149;1N8Z A L 154;12.6192
1N8Z A K 149;1N8Z A V 191;6.02794
1N8Z A K 149;1N8Z A A 193;31.7615
1N8Z A K 149;1N8Z A C 194;0.00316416
1N8Z A K 149;1N8Z A E 195;27.7713
1N8Z A K 149;1N8Z A T 206;0.573696
1N8Z A V 150;1N8Z A D 151;25.2852
1N8Z A V 150;1N8Z A N 152;2.94069
1N8Z A V 150;1N8Z A A 153;15.6974
1N8Z A V 150;1N8Z A Q 155;24.0252
1N8Z A V 150;1N8Z A L 179;11.5366
1N8Z A V 150;1N8Z A L 181;7.14752
1N8Z A V 150;1N8Z A H 189;18.452
1N8Z A V 150;1N8Z A V 191;4.07485
1N8Z A V 150;1N8Z A Y 192;23.2396
1N8Z A V 150;1N8Z A A 193;2.81584
1N8Z A D 151;1N8Z A N 152;27.102
1N8Z A D 151;1N8Z A A 153;8.68743
1N8Z A D 151;1N8Z A K 188;0.258599
1N8Z A D 151;1N8Z A H 189;30.3135
1N8Z A D 151;1N8Z A K 190;8.14396
1N8Z A D 151;1N8Z A V 191;27.2076
1N8Z A D 151;1N8Z A Y 192;4.51641e-05
1N8Z A N 152;1N8Z A A 153;24.73
1N8Z A N 152;1N8Z A L 154;0.345159
1N8Z A N 152;1N8Z A V 191;19.8275
1N8Z A N 152;1N8Z A A 193;1.43349
1N8Z A A 153;1N8Z A L 154;29.8161
1N8Z A A 153;1N8Z A Q 155;13.0629
1N8Z A L 154;1N8Z A Q 155;47.6768
1N8Z A L 154;1N8Z A S 156;10.9287
1N8Z A Q 155;1N8Z A S 156;33.0114
1N8Z A Q 155;1N8Z A N 158;23.0372
1N8Z A Q 155;1N8Z A S 159;3.14645
1N8Z A Q 155;1N8Z A L 179;8.71107
1N8Z A Q 155;1N8Z A L 181;5.50746
1N8Z A S 156;1N8Z A G 157;30.1818
1N8Z A S 156;1N8Z A N 158;17.4489
1N8Z A S 156;1N8Z A S 159;0.856828
1N8Z A G 157;1N8Z A N 158;26.1412
1N8Z A G 157;1N8Z A S 159;9.05468
1N8Z A N 158;1N8Z A S 159;29.2788
1N8Z A N 158;1N8Z A T 178;1.65603
1N8Z A N 158;1N8Z A L 179;19.9943
1N8Z A N 158;1N8Z A T 180;23.2559
1N8Z A N 158;1N8Z A L 181;13.7749
1N8Z A S 159;1N8Z A Q 160;35.9341
1N8Z A S 159;1N8Z A S 177;6.3532
1N8Z A S 159;1N8Z A T 178;7.87361
1N8Z A S 159;1N8Z A L 179;7.77124
1N8Z A Q 160;1N8Z A E 161;29.894
1N8Z A Q 160;1N8Z A S 162;0.397876
1N8Z A Q 160;1N8Z A S 176;3.32138
1N8Z A Q 160;1N8Z A S 177;6.59507
1N8Z A Q 160;1N8Z A T 178;30.9815
1N8Z A Q 160;1N8Z B V 176;24.1867
1N8Z A Q 160;1N8Z B L 177;13.2691
1N8Z A Q 160;1N8Z B Q 178;16.9518
1N8Z A Q 160;1N8Z B S 179;4.21802
1N8Z A E 161;1N8Z A S 162;24.0527
1N8Z A E 161;1N8Z A V 163;4.1083
1N8Z A E 161;1N8Z A L 175;22.48
1N8Z A E 161;1N8Z A S 176;5.1349
1N8Z A E 161;1N8Z A S 177;10.4208
1N8Z A E 161;1N8Z B V 176;13.7264
1N8Z A S 162;1N8Z A V 163;25.2099
1N8Z A S 162;1N8Z A L 175;8.0803
1N8Z A S 162;1N8Z A S 176;22.4728
1N8Z A S 162;1N8Z B F 173;18.2283
1N8Z A S 162;1N8Z B P 174;18.0411
1N8Z A S 162;1N8Z B V 176;13.892
1N8Z A V 163;1N8Z A T 164;28.2281
1N8Z A V 163;1N8Z A E 165;0.996082
1N8Z A V 163;1N8Z A Y 173;11.0237
1N8Z A V 163;1N8Z A S 174;7.11098
1N8Z A V 163;1N8Z A L 175;19.5133
1N8Z A V 163;1N8Z B F 173;2.52034
1N8Z A V 163;1N8Z B P 174;16.046
1N8Z A T 164;1N8Z A E 165;39.4854
1N8Z A T 164;1N8Z A Q 166;0.00533845
1N8Z A T 164;1N8Z A T 172;0.385789
1N8Z A T 164;1N8Z A Y 173;14.6699
1N8Z A T 164;1N8Z A S 174;20.1783
1N8Z A T 164;1N8Z B H 171;18.8093
1N8Z A T 164;1N8Z B T 172;8.31242
1N8Z A T 164;1N8Z B F 173;15.5738
1N8Z A T 164;1N8Z B P 174;11.2124
1N8Z A E 165;1N8Z A Q 166;25.9647
1N8Z A E 165;1N8Z A D 167;6.57143
1N8Z A E 165;1N8Z A T 172;2.04055
1N8Z A E 165;1N8Z A Y 173;3.78126
1N8Z A E 165;1N8Z B P 174;7.05702
1N8Z A Q 166;1N8Z A D 167;23.5503
1N8Z A Q 166;1N8Z A S 168;5.23642
1N8Z A Q 166;1N8Z A S 171;21.9897
1N8Z A Q 166;1N8Z A T 172;5.09652
1N8Z A Q 166;1N8Z A Y 173;30.4529
1N8Z A D 167;1N8Z A S 168;25.9678
1N8Z A D 167;1N8Z A K 169;16.2549
1N8Z A D 167;1N8Z A D 170;20.1763
1N8Z A D 167;1N8Z A S 171;17.0641
1N8Z A D 167;1N8Z A T 172;17.5177
1N8Z A D 167;1N8Z B H 171;15.1869
1N8Z A S 168;1N8Z A K 169;33.5578
1N8Z A K 169;1N8Z A D 170;27.9178
1N8Z A K 169;1N8Z A S 171;1.96171
1N8Z A D 170;1N8Z A S 171;22.1858
1N8Z A D 170;1N8Z A T 172;22.7112
1N8Z A S 171;1N8Z A T 172;17.7483
1N8Z A S 171;1N8Z A Y 173;2.15757
1N8Z A T 172;1N8Z A Y 173;25.9495
1N8Z A T 172;1N8Z B H 171;0.393722
1N8Z A Y 173;1N8Z A S 174;21.4876
1N8Z A Y 173;1N8Z B H 171;0.618437
1N8Z A S 174;1N8Z A L 175;14.8116
1N8Z A S 174;1N8Z B H 171;17.7171
1N8Z A S 174;1N8Z B F 173;10.4163
1N8Z A L 175;1N8Z A S 176;22.4129
1N8Z A L 175;1N8Z A S 177;5.05658
1N8Z A L 175;1N8Z B F 173;7.48862
1N8Z A S 176;1N8Z A S 177;20.4084
1N8Z A S 176;1N8Z A T 178;8.23632
1N8Z A S 176;1N8Z B F 173;19.5171
1N8Z A S 176;1N8Z B S 186;11.2039
1N8Z A S 176;1N8Z B V 188;0.743526
1N8Z A S 177;1N8Z A T 178;20.2328
1N8Z A T 178;1N8Z A L 179;18.6302
1N8Z A T 178;1N8Z A T 180;16.2995
1N8Z A T 178;1N8Z B L 148;9.01675
1N8Z A T 178;1N8Z B V 176;10.8677
1N8Z A T 178;1N8Z B S 184;5.8043
1N8Z A L 179;1N8Z A T 180;19.2722
1N8Z A L 179;1N8Z A L 181;17.8799
1N8Z A L 179;1N8Z A Y 192;6.74428
1N8Z A T 180;1N8Z A L 181;33.2211
1N8Z A T 180;1N8Z B K 150;12.3247
1N8Z A T 180;1N8Z B Q 178;15.0477
1N8Z A L 181;1N8Z A S 182;28.6505
1N8Z A L 181;1N8Z A K 183;0.0935833
1N8Z A L 181;1N8Z A D 185;21.8957
1N8Z A L 181;1N8Z A Y 186;16.533
1N8Z A L 181;1N8Z A H 189;1.92705
1N8Z A L 181;1N8Z A Y 192;9.86697
1N8Z A S 182;1N8Z A K 183;16.9197
1N8Z A S 182;1N8Z A A 184;13.159
1N8Z A S 182;1N8Z A D 185;23.2126
1N8Z A S 182;1N8Z A Y 186;7.6554
1N8Z A K 183;1N8Z A A 184;23.0508
1N8Z A K 183;1N8Z A D 185;0.138839
1N8Z A K 183;1N8Z A Y 186;9.84056
1N8Z A K 183;1N8Z A E 187;31.6775
1N8Z A A 184;1N8Z A D 185;20.4351
1N8Z A A 184;1N8Z A Y 186;1.38822
1N8Z A A 184;1N8Z A E 187;13.7923
1N8Z A A 184;1N8Z A K 188;15.7528
1N8Z A D 185;1N8Z A Y 186;17.7269
1N8Z A D 185;1N8Z A E 187;0.454715
1N8Z A D 185;1N8Z A K 188;32.7365
1N8Z A D 185;1N8Z A H 189;10.758
1N8Z A D 185;1N8Z A Y 192;0.824573
1N8Z A Y 186;1N8Z A E 187;26.6145
1N8Z A Y 186;1N8Z A K 188;2.94897
1N8Z A Y 186;1N8Z A H 189;6.79785
1N8Z A Y 186;1N8Z A Y 192;28.9161
1N8Z A Y 186;1N8Z A F 209;11.2397
1N8Z A Y 186;1N8Z A R 211;28.7578
1N8Z A Y 186;1N8Z A G 212;2.18622
1N8Z A E 187;1N8Z A K 188;24.057
1N8Z A E 187;1N8Z A H 189;3.97
1N8Z A E 187;1N8Z A R 211;40.4587
1N8Z A K 188;1N8Z A H 189;48.9235
1N8Z A K 188;1N8Z A K 190;0.159982
1N8Z A H 189;1N8Z A K 190;24.7294
1N8Z A H 189;1N8Z A V 191;0.445503
1N8Z A H 189;1N8Z A Y 192;16.0392
1N8Z A H 189;1N8Z A R 211;13.1524
1N8Z A K 190;1N8Z A V 191;30.0294
1N8Z A K 190;1N8Z A Y 192;8.58469
1N8Z A K 190;1N8Z A F 209;1.05108
1N8Z A K 190;1N8Z A N 210;12.5484
1N8Z A K 190;1N8Z A R 211;21.8135
1N8Z A V 191;1N8Z A Y 192;24.311
1N8Z A V 191;1N8Z A A 193;7.5886
1N8Z A V 191;1N8Z A S 208;9.46529
1N8Z A V 191;1N8Z A F 209;3.67199
1N8Z A V 191;1N8Z A N 210;18.6275
1N8Z A Y 192;1N8Z A A 193;21.9553
1N8Z A Y 192;1N8Z A K 207;0.00146474
1N8Z A Y 192;1N8Z A S 208;9.32255
1N8Z A Y 192;1N8Z A F 209;36.8008
1N8Z A Y 192;1N8Z A R 211;8.26665
1N8Z A A 193;1N8Z A C 194;19.0766
1N8Z A A 193;1N8Z A E 195;1.72146
1N8Z A A 193;1N8Z A T 206;11.1957
1N8Z A A 193;1N8Z A K 207;3.21694
1N8Z A A 193;1N8Z A S 208;12.5416
1N8Z A C 194;1N8Z A E 195;21.0334
1N8Z A C 194;1N8Z A V 196;7.84459
1N8Z A C 194;1N8Z A V 205;2.13674
1N8Z A C 194;1N8Z A T 206;5.47865
1N8Z A C 194;1N8Z A K 207;21.3623
1N8Z A E 195;1N8Z A V 196;22.4717
1N8Z A E 195;1N8Z A T 197;4.74004
1N8Z A E 195;1N8Z A P 204;17.5093
1N8Z A E 195;1N8Z A V 205;6.68845
1N8Z A E 195;1N8Z A T 206;21.2992
1N8Z A V 196;1N8Z A T 197;25.4105
1N8Z A V 196;1N8Z A H 198;2.96602
1N8Z A V 196;1N8Z A L 201;10.2957
1N8Z A V 196;1N8Z A P 204;6.77202
1N8Z A V 196;1N8Z A V 205;20.0556
1N8Z A T 197;1N8Z A H 198;34.0978
1N8Z A T 197;1N8Z A L 201;2.93468
1N8Z A T 197;1N8Z A P 204;32.2496
1N8Z A H 198;1N8Z A Q 199;32.2781
1N8Z A H 198;1N8Z A G 200;15.1803
1N8Z A H 198;1N8Z A L 201;27.5463
1N8Z A Q 199;1N8Z A G 200;18.5708
1N8Z A Q 199;1N8Z A L 201;3.25199
1N8Z A G 200;1N8Z A L 201;23.8974
1N8Z A G 200;1N8Z A S 202;3.70832
1N8Z A L 201;1N8Z A S 202;32.8786
1N8Z A L 201;1N8Z A S 203;9.88692
1N8Z A L 201;1N8Z A P 204;8.92174
1N8Z A L 201;1N8Z A V 205;23.7563
1N8Z A S 202;1N8Z A S 203;31.4429
1N8Z A S 202;1N8Z A P 204;6.22745
1N8Z A S 203;1N8Z A P 204;40.8316
1N8Z A S 203;1N8Z A V 205;9.77383
1N8Z A P 204;1N8Z A V 205;22.1563
1N8Z A P 204;1N8Z A T 206;4.20114
1N8Z A V 205;1N8Z A T 206;29.404
1N8Z A V 205;1N8Z A K 207;10.318
1N8Z A T 206;1N8Z A K 207;28.8327
1N8Z A T 206;1N8Z A S 208;8.61915
1N8Z A K 207;1N8Z A S 208;24.804
1N8Z A K 207;1N8Z B S 135;2.30311
1N8Z A K 207;1N8Z B K 136;30.2281
1N8Z A K 207;1N8Z B T 138;6.79367
1N8Z A K 207;1N8Z B S 139;3.17305
1N8Z A S 208;1N8Z A F 209;21.9419
1N8Z A S 208;1N8Z A N 210;1.28147
1N8Z A S 208;1N8Z B K 136;19.2132
1N8Z A F 209;1N8Z A N 210;38.4959
1N8Z A F 209;1N8Z A R 211;10.5196
1N8Z A F 209;1N8Z A G 212;0.635582
1N8Z A F 209;1N8Z B K 136;16.7562
1N8Z A N 210;1N8Z A R 211;21.9907
1N8Z A N 210;1N8Z A G 212;3.89587
1N8Z A N 210;1N8Z A E 213;39.3489
1N8Z A N 210;1N8Z A C 214;1.77935
1N8Z A R 211;1N8Z A G 212;29.8409
1N8Z A R 211;1N8Z A E 213;7.50933
1N8Z A G 212;1N8Z A E 213;21.3719
1N8Z A G 212;1N8Z A C 214;15.0338
1N8Z A E 213;1N8Z A C 214;33.7408
1N8Z A C 214;1N8Z B S 134;4.85257
1N8Z B E 1;1N8Z B V 2;38.8194
1N8Z B E 1;1N8Z B Q 3;16.4395
1N8Z B E 1;1N8Z B S 25;3.98555
1N8Z B E 1;1N8Z B G 26;6.55861
1N8Z B E 1;1N8Z B Y 109;20.0195
1N8Z B V 2;1N8Z B Q 3;30.7599
1N8Z B V 2;1N8Z B L 4;4.03972
1N8Z B V 2;1N8Z B S 25;4.50824
1N8Z B V 2;1N8Z B G 26;14.4864
1N8Z B V 2;1N8Z B F 27;17.4609
1N8Z B V 2;1N8Z B R 98;15.5407
1N8Z B V 2;1N8Z B Y 109;42.0314
1N8Z B Q 3;1N8Z B L 4;33.2121
1N8Z B Q 3;1N8Z B V 5;17.5461
1N8Z B Q 3;1N8Z B A 23;1.40158
1N8Z B Q 3;1N8Z B A 24;3.53903
1N8Z B Q 3;1N8Z B S 25;31.8062
1N8Z B Q 3;1N8Z B F 27;2.56559
1N8Z B Q 3;1N8Z B Y 109;1.12508
1N8Z B Q 3;1N8Z B Q 112;0.102181
1N8Z B L 4;1N8Z B V 5;21.6284
1N8Z B L 4;1N8Z B E 6;2.71452
1N8Z B L 4;1N8Z B C 22;14.0846
1N8Z B L 4;1N8Z B A 23;4.17368
1N8Z B L 4;1N8Z B A 24;11.495
1N8Z B L 4;1N8Z B F 27;11.8389
1N8Z B L 4;1N8Z B I 34;7.27617
1N8Z B L 4;1N8Z B C 96;12.7332
1N8Z B L 4;1N8Z B S 97;6.77674
1N8Z B L 4;1N8Z B R 98;8.75941
1N8Z B L 4;1N8Z B Y 109;13.0036
1N8Z B L 4;1N8Z B W 110;10.9762
1N8Z B L 4;1N8Z B G 111;19.6006
1N8Z B L 4;1N8Z B Q 112;5.82418
1N8Z B V 5;1N8Z B E 6;28.2837
1N8Z B V 5;1N8Z B S 7;6.09304
1N8Z B V 5;1N8Z B S 21;1.94651
1N8Z B V 5;1N8Z B C 22;8.92168
1N8Z B V 5;1N8Z B A 23;30.5167
1N8Z B V 5;1N8Z B S 25;4.59126
1N8Z B V 5;1N8Z B Q 112;18.3016
1N8Z B E 6;1N8Z B S 7;25.4184
1N8Z B E 6;1N8Z B S 21;5.8832
1N8Z B E 6;1N8Z B C 22;5.03646
1N8Z B E 6;1N8Z B W 36;10.3513
1N8Z B E 6;1N8Z B Y 94;5.50686
1N8Z B E 6;1N8Z B Y 95;8.03868
1N8Z B E 6;1N8Z B C 96;13.2893
1N8Z B E 6;1N8Z B G 111;12.8888
1N8Z B E 6;1N8Z B Q 112;24.1877
1N8Z B E 6;1N8Z B G 113;12.5105
1N8Z B E 6;1N8Z B T 114;16.712
1N8Z B S 7;1N8Z B G 8;26.7866
1N8Z B S 7;1N8Z B G 9;1.26035
1N8Z B S 7;1N8Z B R 19;0.613761
1N8Z B S 7;1N8Z B L 20;8.54026
1N8Z B S 7;1N8Z B S 21;31.0771
1N8Z B S 7;1N8Z B A 23;1.83539
1N8Z B S 7;1N8Z B W 36;0.0205649
1N8Z B S 7;1N8Z B T 114;12.9407
1N8Z B S 7;1N8Z B K 208;0.207875
1N8Z B G 8;1N8Z B G 9;25.9396
1N8Z B G 8;1N8Z B L 18;16.562
1N8Z B G 8;1N8Z B R 19;10.6554
1N8Z B G 8;1N8Z B L 20;7.4289
1N8Z B G 8;1N8Z B S 21;0.308864
1N8Z B G 8;1N8Z B T 114;1.51588
1N8Z B G 8;1N8Z B K 208;9.81372
1N8Z B G 9;1N8Z B G 10;26.7739
1N8Z B G 9;1N8Z B L 18;2.73709
1N8Z B G 9;1N8Z B L 20;6.12055
1N8Z B G 9;1N8Z B T 114;18.8453
1N8Z B G 9;1N8Z B L 115;6.78528
1N8Z B G 9;1N8Z B V 116;4.2273
1N8Z B G 9;1N8Z B K 208;19.042
1N8Z B G 10;1N8Z B L 11;26.241
1N8Z B G 10;1N8Z B V 12;4.79703
1N8Z B G 10;1N8Z B L 18;8.58905
1N8Z B G 10;1N8Z B L 115;9.6989
1N8Z B G 10;1N8Z B V 116;6.8117
1N8Z B G 10;1N8Z B T 117;12.6458
1N8Z B G 10;1N8Z B P 154;1.97538
1N8Z B G 10;1N8Z B E 155;1.21775
1N8Z B G 10;1N8Z B K 208;1.26644
1N8Z B G 10;1N8Z B P 209;10.7488
1N8Z B L 11;1N8Z B V 12;31.1152
1N8Z B L 11;1N8Z B Q 13;0.710372
1N8Z B L 11;1N8Z B L 18;3.63009
1N8Z B L 11;1N8Z B T 117;16.2568
1N8Z B L 11;1N8Z B S 119;12.1132
1N8Z B L 11;1N8Z B A 121;11.5604
1N8Z B L 11;1N8Z B S 122;8.67572
1N8Z B L 11;1N8Z B T 123;19.0079
1N8Z B L 11;1N8Z B F 153;12.9292
1N8Z B L 11;1N8Z B P 154;20.8758
1N8Z B L 11;1N8Z B P 209;3.16115
1N8Z B V 12;1N8Z B Q 13;32.7247
1N8Z B V 12;1N8Z B P 14;0.665752
1N8Z B V 12;1N8Z B G 16;10.2322
1N8Z B V 12;1N8Z B S 17;11.0668
1N8Z B V 12;1N8Z B L 18;16.6868
1N8Z B V 12;1N8Z B L 86;15.0498
1N8Z B V 12;1N8Z B V 116;6.77964
1N8Z B V 12;1N8Z B T 117;8.48001
1N8Z B V 12;1N8Z B V 118;14.1563
1N8Z B V 12;1N8Z B S 119;10.641
1N8Z B Q 13;1N8Z B P 14;37.0206
1N8Z B Q 13;1N8Z B G 15;0.737661
1N8Z B Q 13;1N8Z B G 16;13.9377
1N8Z B Q 13;1N8Z B L 86;0.978777
1N8Z B Q 13;1N8Z B V 118;3.03155
1N8Z B Q 13;1N8Z B S 119;6.86652
1N8Z B Q 13;1N8Z B S 120;13.7633
1N8Z B P 14;1N8Z B G 15;25.0587
1N8Z B P 14;1N8Z B G 16;3.23542
1N8Z B P 14;1N8Z B L 86;3.03824
1N8Z B P 14;1N8Z B R 87;5.90793
1N8Z B P 14;1N8Z B A 88;3.42865
1N8Z B P 14;1N8Z B V 118;13.6671
1N8Z B P 14;1N8Z B S 119;13.3013
1N8Z B P 14;1N8Z B S 120;20.3555
1N8Z B G 15;1N8Z B G 16;25.5404
1N8Z B G 15;1N8Z B S 17;1.39265
1N8Z B G 15;1N8Z B S 85;14.3168
1N8Z B G 15;1N8Z B L 86;12.581
1N8Z B G 15;1N8Z B R 87;13.0944
1N8Z B G 16;1N8Z B S 17;25.162
1N8Z B G 16;1N8Z B M 83;0.365019
1N8Z B G 16;1N8Z B N 84;0.566093
1N8Z B G 16;1N8Z B S 85;5.7675
1N8Z B G 16;1N8Z B L 86;13.6081
1N8Z B S 17;1N8Z B L 18;27.1296
1N8Z B S 17;1N8Z B Q 82;7.82475
1N8Z B S 17;1N8Z B M 83;5.66877
1N8Z B S 17;1N8Z B N 84;19.9828
1N8Z B S 17;1N8Z B S 85;3.4576
1N8Z B S 17;1N8Z B L 86;3.5596
1N8Z B L 18;1N8Z B R 19;32.6845
1N8Z B L 18;1N8Z B L 20;7.23196
1N8Z B L 18;1N8Z B L 81;1.10647
1N8Z B L 18;1N8Z B Q 82;9.48038
1N8Z B L 18;1N8Z B M 83;29.7906
1N8Z B L 18;1N8Z B L 86;6.40347
1N8Z B L 18;1N8Z B V 116;11.1971
1N8Z B R 19;1N8Z B L 20;25.642
1N8Z B R 19;1N8Z B S 21;6.37279
1N8Z B R 19;1N8Z B S 71;5.95384
1N8Z B R 19;1N8Z B Y 80;40.4355
1N8Z B R 19;1N8Z B L 81;6.39666
1N8Z B R 19;1N8Z B Q 82;30.498
1N8Z B R 19;1N8Z B M 83;0.00434456
1N8Z B L 20;1N8Z B S 21;18.8363
1N8Z B L 20;1N8Z B W 36;17.5827
1N8Z B L 20;1N8Z B Y 80;7.14301
1N8Z B L 20;1N8Z B L 81;25.9139
1N8Z B L 20;1N8Z B M 83;15.4291
1N8Z B L 20;1N8Z B Y 94;14.624
1N8Z B L 20;1N8Z B T 114;11.052
1N8Z B L 20;1N8Z B V 116;10.924
1N8Z B S 21;1N8Z B C 22;17.1892
1N8Z B S 21;1N8Z B A 23;3.41744
1N8Z B S 21;1N8Z B W 36;10.5796
1N8Z B S 21;1N8Z B T 78;10.2655
1N8Z B S 21;1N8Z B A 79;2.81298
1N8Z B S 21;1N8Z B Y 80;16.9776
1N8Z B C 22;1N8Z B A 23;18.5378
1N8Z B C 22;1N8Z B A 24;5.81742
1N8Z B C 22;1N8Z B I 29;0.459907
1N8Z B C 22;1N8Z B I 34;0.912296
1N8Z B C 22;1N8Z B W 36;10.7842
1N8Z B C 22;1N8Z B N 77;0.332392
1N8Z B C 22;1N8Z B T 78;8.63755
1N8Z B C 22;1N8Z B A 79;24.1879
1N8Z B C 22;1N8Z B C 96;21.7998
1N8Z B A 23;1N8Z B A 24;24.0115
1N8Z B A 23;1N8Z B S 25;4.0326
1N8Z B A 23;1N8Z B K 76;1.2217
1N8Z B A 23;1N8Z B N 77;1.37806
1N8Z B A 23;1N8Z B T 78;19.836
1N8Z B A 24;1N8Z B S 25;26.4888
1N8Z B A 24;1N8Z B F 27;13.8978
1N8Z B A 24;1N8Z B I 29;12.1725
1N8Z B A 24;1N8Z B I 34;0.291739
1N8Z B A 24;1N8Z B K 76;1.03442
1N8Z B A 24;1N8Z B N 77;30.2393
1N8Z B A 24;1N8Z B T 78;0.0352752
1N8Z B S 25;1N8Z B G 26;27.3427
1N8Z B S 25;1N8Z B F 27;8.95081
1N8Z B S 25;1N8Z B N 77;1.5111
1N8Z B G 26;1N8Z B F 27;31.9196
1N8Z B G 26;1N8Z B N 77;0.904205
1N8Z B F 27;1N8Z B N 28;37.9556
1N8Z B F 27;1N8Z B I 29;12.1462
1N8Z B F 27;1N8Z B D 31;1.95979
1N8Z B F 27;1N8Z B T 32;9.32356
1N8Z B F 27;1N8Z B I 34;8.57041
1N8Z B F 27;1N8Z B N 77;11.0363
1N8Z B F 27;1N8Z B R 98;33.1072
1N8Z B N 28;1N8Z B I 29;17.2449
1N8Z B N 28;1N8Z B K 30;11.2252
1N8Z B N 28;1N8Z B D 31;38.0848
1N8Z B N 28;1N8Z B T 32;3.25444
1N8Z B N 28;1N8Z B N 77;15.2852
1N8Z B I 29;1N8Z B K 30;20.1475
1N8Z B I 29;1N8Z B D 31;1.96336
1N8Z B I 29;1N8Z B T 32;12.0937
1N8Z B I 29;1N8Z B I 34;19.8216
1N8Z B I 29;1N8Z B P 53;22.2655
1N8Z B I 29;1N8Z B A 72;8.5259
1N8Z B I 29;1N8Z B D 73;3.42695
1N8Z B I 29;1N8Z B T 74;12.4776
1N8Z B I 29;1N8Z B N 77;26.0061
1N8Z B I 29;1N8Z B T 78;9.61902
1N8Z B I 29;1N8Z B A 79;9.73355
1N8Z B K 30;1N8Z B D 31;27.084
1N8Z B K 30;1N8Z B T 32;3.48126
1N8Z B K 30;1N8Z B Y 52;6.51383
1N8Z B K 30;1N8Z B P 53;8.744
1N8Z B K 30;1N8Z B T 54;28.3107
1N8Z B K 30;1N8Z B T 74;15.7306
1N8Z B K 30;1N8Z B N 77;0.165359
1N8Z B D 31;1N8Z B T 32;30.7268
1N8Z B D 31;1N8Z B Y 52;3.90714
1N8Z B D 31;1N8Z B G 101;3.95767
1N8Z B D 31;1N8Z B D 102;12.7237
1N8Z B T 32;1N8Z B Y 33;33.1728
1N8Z B T 32;1N8Z B I 34;5.75349
1N8Z B T 32;1N8Z B Y 52;13.1591
1N8Z B T 32;1N8Z B P 53;7.80027
1N8Z B T 32;1N8Z B R 98;8.354
1N8Z B T 32;1N8Z B W 99;14.4735
1N8Z B T 32;1N8Z B G 100;6.52625
1N8Z B T 32;1N8Z B G 101;16.169
1N8Z B T 32;1N8Z B D 102;3.21665
1N8Z B T 32;1N8Z B Y 105;0.619834
1N8Z B Y 33;1N8Z B I 34;21.4946
1N8Z B Y 33;1N8Z B H 35;8.82372
1N8Z B Y 33;1N8Z B R 50;23.2369
1N8Z B Y 33;1N8Z B I 51;7.20286
1N8Z B Y 33;1N8Z B Y 52;40.4267
1N8Z B Y 33;1N8Z B P 53;0.0874927
1N8Z B Y 33;1N8Z B S 97;0.0113033
1N8Z B Y 33;1N8Z B R 98;6.92817
1N8Z B Y 33;1N8Z B W 99;24.1979
1N8Z B Y 33;1N8Z B D 102;6.57206
1N8Z B Y 33;1N8Z B Y 105;10.0181
1N8Z B I 34;1N8Z B H 35;24.1704
1N8Z B I 34;1N8Z B W 36;3.22766
1N8Z B I 34;1N8Z B R 50;6.81566
1N8Z B I 34;1N8Z B I 51;22.5903
1N8Z B I 34;1N8Z B P 53;7.6463
1N8Z B I 34;1N8Z B I 70;7.06188
1N8Z B I 34;1N8Z B A 79;16.9994
1N8Z B I 34;1N8Z B C 96;12.2994
1N8Z B I 34;1N8Z B S 97;8.98412
1N8Z B I 34;1N8Z B R 98;8.76665
1N8Z B H 35;1N8Z B W 36;23.5699
1N8Z B H 35;1N8Z B V 37;6.71413
1N8Z B H 35;1N8Z B W 47;13.9343
1N8Z B H 35;1N8Z B A 49;6.51419
1N8Z B H 35;1N8Z B R 50;18.7298
1N8Z B H 35;1N8Z B I 70;1.8671
1N8Z B H 35;1N8Z B C 96;7.43145
1N8Z B H 35;1N8Z B S 97;23.8591
1N8Z B H 35;1N8Z B R 98;3.53625
1N8Z B H 35;1N8Z B W 99;23.0538
1N8Z B H 35;1N8Z B M 107;15.0252
1N8Z B W 36;1N8Z B V 37;22.241
1N8Z B W 36;1N8Z B W 47;2.72444
1N8Z B W 36;1N8Z B V 48;17.2164
1N8Z B W 36;1N8Z B A 49;14.3722
1N8Z B W 36;1N8Z B I 70;15.5887
1N8Z B W 36;1N8Z B A 79;7.62483
1N8Z B W 36;1N8Z B Y 80;10.0821
1N8Z B W 36;1N8Z B L 81;28.922
1N8Z B W 36;1N8Z B Y 94;15.5488
1N8Z B W 36;1N8Z B Y 95;12.69
1N8Z B W 36;1N8Z B C 96;14.1285
1N8Z B W 36;1N8Z B T 114;1.84169
1N8Z B V 37;1N8Z B R 38;22.29
1N8Z B V 37;1N8Z B L 45;10.378
1N8Z B V 37;1N8Z B E 46;10.7239
1N8Z B V 37;1N8Z B W 47;13.552
1N8Z B V 37;1N8Z B V 48;3.23823
1N8Z B V 37;1N8Z B V 93;0.379427
1N8Z B V 37;1N8Z B Y 94;5.06634
1N8Z B V 37;1N8Z B Y 95;27.6102
1N8Z B V 37;1N8Z B C 96;0.490682
1N8Z B V 37;1N8Z B S 97;6.35146
1N8Z B V 37;1N8Z B M 107;8.46603
1N8Z B V 37;1N8Z B W 110;15.6545
1N8Z B R 38;1N8Z B Q 39;20.6187
1N8Z B R 38;1N8Z B A 40;3.26115
1N8Z B R 38;1N8Z B G 44;1.88054
1N8Z B R 38;1N8Z B L 45;4.06266
1N8Z B R 38;1N8Z B E 46;45.4195
1N8Z B R 38;1N8Z B V 48;17.9036
1N8Z B R 38;1N8Z B S 63;12.737
1N8Z B R 38;1N8Z B V 64;9.35105
1N8Z B R 38;1N8Z B R 67;1.88349
1N8Z B R 38;1N8Z B F 68;5.35848
1N8Z B R 38;1N8Z B E 89;11.8734
1N8Z B R 38;1N8Z B D 90;18.4013
1N8Z B R 38;1N8Z B A 92;12.9246
1N8Z B R 38;1N8Z B V 93;6.25364
1N8Z B R 38;1N8Z B Y 94;26.5101
1N8Z B R 38;1N8Z B Y 95;2.11565
1N8Z B Q 39;1N8Z B A 40;28.6843
1N8Z B Q 39;1N8Z B P 41;3.13077
1N8Z B Q 39;1N8Z B G 42;1.25302
1N8Z B Q 39;1N8Z B K 43;13.7093
1N8Z B Q 39;1N8Z B G 44;12.2714
1N8Z B Q 39;1N8Z B L 45;15.5527
1N8Z B Q 39;1N8Z B A 92;8.43969
1N8Z B Q 39;1N8Z B V 93;24.9062
1N8Z B Q 39;1N8Z B Y 95;15.6085
1N8Z B A 40;1N8Z B P 41;25.9191
1N8Z B A 40;1N8Z B G 42;3.6547
1N8Z B A 40;1N8Z B K 43;29.52
1N8Z B A 40;1N8Z B G 44;2.73242
1N8Z B A 40;1N8Z B E 89;7.37553
1N8Z B A 40;1N8Z B T 91;7.78146
1N8Z B A 40;1N8Z B A 92;10.8229
1N8Z B P 41;1N8Z B G 42;25.8215
1N8Z B P 41;1N8Z B K 43;14.9637
1N8Z B P 41;1N8Z B T 91;20.6642
1N8Z B P 41;1N8Z B A 92;5.09289
1N8Z B P 41;1N8Z B V 93;0.314527
1N8Z B P 41;1N8Z B L 115;10.3463
1N8Z B G 42;1N8Z B K 43;37.011
1N8Z B K 43;1N8Z B G 44;32.8708
1N8Z B G 44;1N8Z B L 45;23.6505
1N8Z B G 44;1N8Z B E 46;3.98234
1N8Z B L 45;1N8Z B E 46;23.0504
1N8Z B L 45;1N8Z B Y 95;7.70844
1N8Z B L 45;1N8Z B W 110;9.63196
1N8Z B E 46;1N8Z B W 47;29.0195
1N8Z B E 46;1N8Z B V 48;8.72812
1N8Z B E 46;1N8Z B A 61;3.58032
1N8Z B E 46;1N8Z B S 63;16.6683
1N8Z B W 47;1N8Z B V 48;23.9241
1N8Z B W 47;1N8Z B A 49;13.9254
1N8Z B W 47;1N8Z B R 50;12.4653
1N8Z B W 47;1N8Z B R 59;11.5408
1N8Z B W 47;1N8Z B Y 60;12.1075
1N8Z B W 47;1N8Z B A 61;23.8741
1N8Z B W 47;1N8Z B M 107;6.426
1N8Z B V 48;1N8Z B A 49;25.1009
1N8Z B V 48;1N8Z B Y 60;3.53607
1N8Z B V 48;1N8Z B A 61;12.5381
1N8Z B V 48;1N8Z B S 63;0.589209
1N8Z B V 48;1N8Z B V 64;21.9936
1N8Z B V 48;1N8Z B F 68;9.77856
1N8Z B V 48;1N8Z B L 81;10.7985
1N8Z B V 48;1N8Z B Y 94;6.53154
1N8Z B A 49;1N8Z B R 50;16.6646
1N8Z B A 49;1N8Z B R 59;5.90634
1N8Z B A 49;1N8Z B Y 60;13.2285
1N8Z B A 49;1N8Z B V 64;0.411556
1N8Z B A 49;1N8Z B F 68;0.174464
1N8Z B A 49;1N8Z B I 70;13.6662
1N8Z B A 49;1N8Z B L 81;6.3661
1N8Z B R 50;1N8Z B I 51;21.0155
1N8Z B R 50;1N8Z B Y 52;1.10004
1N8Z B R 50;1N8Z B Y 57;3.27089
1N8Z B R 50;1N8Z B T 58;7.60904
1N8Z B R 50;1N8Z B R 59;31.35
1N8Z B R 50;1N8Z B I 70;10.3249
1N8Z B R 50;1N8Z B W 99;12.8753
1N8Z B I 51;1N8Z B Y 52;20.5022
1N8Z B I 51;1N8Z B P 53;14.8271
1N8Z B I 51;1N8Z B G 56;14.6673
1N8Z B I 51;1N8Z B Y 57;6.07222
1N8Z B I 51;1N8Z B T 58;10.9289
1N8Z B I 51;1N8Z B I 70;22.0049
1N8Z B I 51;1N8Z B S 71;15.1876
1N8Z B I 51;1N8Z B A 72;15.9219
1N8Z B I 51;1N8Z B A 79;4.96568
1N8Z B Y 52;1N8Z B P 53;20.2622
1N8Z B Y 52;1N8Z B T 54;24.1086
1N8Z B Y 52;1N8Z B N 55;25.781
1N8Z B Y 52;1N8Z B G 56;6.8427
1N8Z B Y 52;1N8Z B Y 57;17.8509
1N8Z B Y 52;1N8Z B D 102;10.5908
1N8Z B P 53;1N8Z B T 54;25.1052
1N8Z B P 53;1N8Z B N 55;2.26309
1N8Z B P 53;1N8Z B G 56;11.1188
1N8Z B P 53;1N8Z B A 72;17.6197
1N8Z B P 53;1N8Z B T 74;13.2218
1N8Z B P 53;1N8Z B A 79;0.0633048
1N8Z B T 54;1N8Z B N 55;31.0949
1N8Z B T 54;1N8Z B T 74;0.404652
1N8Z B N 55;1N8Z B G 56;23.6856
1N8Z B N 55;1N8Z B Y 57;45.3398
1N8Z B G 56;1N8Z B Y 57;19.2663
1N8Z B G 56;1N8Z B T 58;12.9898
1N8Z B G 56;1N8Z B A 72;0.584695
1N8Z B Y 57;1N8Z B T 58;25.0424
1N8Z B T 58;1N8Z B R 59;31.9873
1N8Z B T 58;1N8Z B Y 60;24.6784
1N8Z B T 58;1N8Z B I 70;16.3229
1N8Z B R 59;1N8Z B Y 60;32.7722
1N8Z B R 59;1N8Z B I 70;0.248972
1N8Z B Y 60;1N8Z B A 61;22.6507
1N8Z B Y 60;1N8Z B D 62;4.98481
1N8Z B Y 60;1N8Z B V 64;10.4486
1N8Z B Y 60;1N8Z B K 65;35.6035
1N8Z B Y 60;1N8Z B G 66;0.487062
1N8Z B Y 60;1N8Z B F 68;16.3818
1N8Z B Y 60;1N8Z B T 69;14.7668
1N8Z B Y 60;1N8Z B I 70;17.4621
1N8Z B Y 60;1N8Z B L 81;1.27878
1N8Z B A 61;1N8Z B D 62;23.4649
1N8Z B A 61;1N8Z B S 63;12.8837
1N8Z B A 61;1N8Z B V 64;13.7932
1N8Z B A 61;1N8Z B K 65;7.67504
1N8Z B D 62;1N8Z B S 63;26.727
1N8Z B D 62;1N8Z B V 64;2.72375
1N8Z B D 62;1N8Z B K 65;22.3137
1N8Z B S 63;1N8Z B V 64;28.2864
1N8Z B S 63;1N8Z B R 67;15.4252
1N8Z B V 64;1N8Z B K 65;25.0123
1N8Z B V 64;1N8Z B G 66;0.945226
1N8Z B V 64;1N8Z B R 67;20.7923
1N8Z B V 64;1N8Z B F 68;30.3158
1N8Z B V 64;1N8Z B D 90;0.26881
1N8Z B K 65;1N8Z B G 66;30.7458
1N8Z B K 65;1N8Z B R 67;7.64574
1N8Z B K 65;1N8Z B F 68;0.611519
1N8Z B G 66;1N8Z B R 67;30.6753
1N8Z B G 66;1N8Z B F 68;6.15316
1N8Z B G 66;1N8Z B T 69;0.325821
1N8Z B G 66;1N8Z B N 84;0.695848
1N8Z B R 67;1N8Z B F 68;37.4111
1N8Z B R 67;1N8Z B T 69;6.3438
1N8Z B R 67;1N8Z B Q 82;2.49651
1N8Z B R 67;1N8Z B N 84;29.9856
1N8Z B R 67;1N8Z B S 85;24.8166
1N8Z B R 67;1N8Z B L 86;3.4659
1N8Z B R 67;1N8Z B R 87;13.9306
1N8Z B R 67;1N8Z B E 89;3.86586
1N8Z B R 67;1N8Z B D 90;19.0722
1N8Z B F 68;1N8Z B T 69;23.1998
1N8Z B F 68;1N8Z B L 81;15.6803
1N8Z B F 68;1N8Z B Q 82;4.70534
1N8Z B F 68;1N8Z B M 83;21.6073
1N8Z B F 68;1N8Z B N 84;8.30794
1N8Z B F 68;1N8Z B L 86;11.5304
1N8Z B F 68;1N8Z B D 90;7.5724
1N8Z B F 68;1N8Z B Y 94;10.5387
1N8Z B T 69;1N8Z B I 70;25.7164
1N8Z B T 69;1N8Z B S 71;8.63052
1N8Z B T 69;1N8Z B Y 80;1.93814
1N8Z B T 69;1N8Z B L 81;8.47148
1N8Z B T 69;1N8Z B Q 82;32.7853
1N8Z B T 69;1N8Z B N 84;3.97187
1N8Z B I 70;1N8Z B S 71;26.6023
1N8Z B I 70;1N8Z B A 79;2.76941
1N8Z B I 70;1N8Z B Y 80;8.83575
1N8Z B I 70;1N8Z B L 81;9.48947
1N8Z B S 71;1N8Z B A 72;25.1067
1N8Z B S 71;1N8Z B A 79;5.644
1N8Z B S 71;1N8Z B Y 80;30.8159
1N8Z B S 71;1N8Z B Q 82;3.03424
1N8Z B A 72;1N8Z B D 73;24.6281
1N8Z B A 72;1N8Z B T 74;5.49858
1N8Z B A 72;1N8Z B T 78;2.95129
1N8Z B A 72;1N8Z B A 79;5.24178
1N8Z B A 72;1N8Z B Y 80;5.41603
1N8Z B D 73;1N8Z B T 74;20.8731
1N8Z B D 73;1N8Z B S 75;17.3964
1N8Z B D 73;1N8Z B K 76;29.6265
1N8Z B D 73;1N8Z B N 77;4.10186
1N8Z B D 73;1N8Z B T 78;15.4836
1N8Z B D 73;1N8Z B Y 80;18.3379
1N8Z B T 74;1N8Z B S 75;32.1371
1N8Z B T 74;1N8Z B K 76;0.462823
1N8Z B T 74;1N8Z B N 77;16.0711
1N8Z B S 75;1N8Z B K 76;29.5255
1N8Z B S 75;1N8Z B N 77;6.39051
1N8Z B K 76;1N8Z B N 77;21.4894
1N8Z B K 76;1N8Z B T 78;21.8327
1N8Z B K 76;1N8Z B Y 80;15.436
1N8Z B N 77;1N8Z B T 78;17.8901
1N8Z B N 77;1N8Z B A 79;0.00751468
1N8Z B T 78;1N8Z B A 79;21.3942
1N8Z B T 78;1N8Z B Y 80;21.6814
1N8Z B A 79;1N8Z B Y 80;23.4423
1N8Z B A 79;1N8Z B C 96;0.9635
1N8Z B Y 80;1N8Z B L 81;17.3897
1N8Z B Y 80;1N8Z B Q 82;3.10432
1N8Z B L 81;1N8Z B Q 82;18.9322
1N8Z B L 81;1N8Z B M 83;18.1957
1N8Z B L 81;1N8Z B Y 94;10.463
1N8Z B Q 82;1N8Z B M 83;21.0767
1N8Z B Q 82;1N8Z B N 84;21.1411
1N8Z B M 83;1N8Z B N 84;18.1385
1N8Z B M 83;1N8Z B L 86;22.1629
1N8Z B M 83;1N8Z B Y 94;10.8856
1N8Z B M 83;1N8Z B V 116;9.56903
1N8Z B N 84;1N8Z B S 85;28.6373
1N8Z B N 84;1N8Z B L 86;5.14699
1N8Z B S 85;1N8Z B L 86;17.3242
1N8Z B S 85;1N8Z B R 87;26.6743
1N8Z B L 86;1N8Z B R 87;24.6647
1N8Z B L 86;1N8Z B D 90;12.402
1N8Z B L 86;1N8Z B Y 94;1.8619
1N8Z B L 86;1N8Z B V 116;7.04614
1N8Z B L 86;1N8Z B V 118;16.9259
1N8Z B R 87;1N8Z B A 88;22.7598
1N8Z B R 87;1N8Z B E 89;17.8347
1N8Z B R 87;1N8Z B D 90;19.6353
1N8Z B R 87;1N8Z B T 91;1.11753
1N8Z B R 87;1N8Z B V 118;14.9503
1N8Z B A 88;1N8Z B E 89;26.2282
1N8Z B A 88;1N8Z B D 90;2.25589
1N8Z B A 88;1N8Z B T 91;18.9835
1N8Z B A 88;1N8Z B V 118;17.0882
1N8Z B E 89;1N8Z B D 90;25.6184
1N8Z B E 89;1N8Z B T 91;6.68311
1N8Z B E 89;1N8Z B A 92;1.14402
1N8Z B D 90;1N8Z B T 91;17.3166
1N8Z B D 90;1N8Z B A 92;7.45406
1N8Z B D 90;1N8Z B Y 94;14.4969
1N8Z B D 90;1N8Z B V 116;3.889
1N8Z B D 90;1N8Z B V 118;7.19306
1N8Z B T 91;1N8Z B A 92;18.746
1N8Z B T 91;1N8Z B L 115;5.72474
1N8Z B T 91;1N8Z B V 116;8.59037
1N8Z B T 91;1N8Z B T 117;13.6478
1N8Z B T 91;1N8Z B V 118;22.2407
1N8Z B A 92;1N8Z B V 93;18.7652
1N8Z B A 92;1N8Z B Y 94;13.9018
1N8Z B A 92;1N8Z B T 114;0.765761
1N8Z B A 92;1N8Z B L 115;11.3332
1N8Z B A 92;1N8Z B V 116;12.9552
1N8Z B V 93;1N8Z B Y 94;20.4068
1N8Z B V 93;1N8Z B Y 95;24.999
1N8Z B V 93;1N8Z B Q 112;1.78097
1N8Z B V 93;1N8Z B G 113;10.6773
1N8Z B V 93;1N8Z B T 114;7.84629
1N8Z B V 93;1N8Z B L 115;24.4363
1N8Z B Y 94;1N8Z B Y 95;17.807
1N8Z B Y 94;1N8Z B G 113;4.50129
1N8Z B Y 94;1N8Z B T 114;19.5256
1N8Z B Y 94;1N8Z B V 116;15.8646
1N8Z B Y 95;1N8Z B C 96;21.2302
1N8Z B Y 95;1N8Z B S 97;0.113279
1N8Z B Y 95;1N8Z B W 110;17.2211
1N8Z B Y 95;1N8Z B G 111;6.71155
1N8Z B Y 95;1N8Z B Q 112;9.58151
1N8Z B Y 95;1N8Z B G 113;9.20477
1N8Z B C 96;1N8Z B S 97;23.025
1N8Z B C 96;1N8Z B W 110;6.21591
1N8Z B C 96;1N8Z B G 111;7.68441
1N8Z B S 97;1N8Z B R 98;20.2393
1N8Z B S 97;1N8Z B M 107;14.9938
1N8Z B S 97;1N8Z B Y 109;6.92922
1N8Z B S 97;1N8Z B W 110;15.7247
1N8Z B R 98;1N8Z B W 99;16.9701
1N8Z B R 98;1N8Z B G 100;24.8389
1N8Z B R 98;1N8Z B G 101;1.8985
1N8Z B R 98;1N8Z B A 106;0.13022
1N8Z B R 98;1N8Z B M 107;9.76088
1N8Z B R 98;1N8Z B D 108;20.6449
1N8Z B R 98;1N8Z B Y 109;28.2709
1N8Z B W 99;1N8Z B G 100;17.7509
1N8Z B W 99;1N8Z B G 101;5.59665
1N8Z B W 99;1N8Z B F 104;9.29932
1N8Z B W 99;1N8Z B Y 105;33.73
1N8Z B W 99;1N8Z B A 106;12.7318
1N8Z B W 99;1N8Z B M 107;18.5175
1N8Z B W 99;1N8Z B D 108;0.0171173
1N8Z B G 100;1N8Z B G 101;21.4587
1N8Z B G 100;1N8Z B F 104;14.5981
1N8Z B G 100;1N8Z B A 106;0.803492
1N8Z B G 100;1N8Z B D 108;13.7039
1N8Z B G 101;1N8Z B D 102;27.3053
1N8Z B G 101;1N8Z B G 103;1.2819
1N8Z B G 101;1N8Z B F 104;13.751
1N8Z B G 101;1N8Z B Y 105;6.26551
1N8Z B D 102;1N8Z B G 103;24.8016
1N8Z B D 102;1N8Z B F 104;0.355993
1N8Z B D 102;1N8Z B Y 105;23.4928
1N8Z B G 103;1N8Z B F 104;28.9993
1N8Z B G 103;1N8Z B Y 105;8.49483
1N8Z B F 104;1N8Z B Y 105;28.714
1N8Z B F 104;1N8Z B A 106;21.4044
1N8Z B F 104;1N8Z B D 108;13.5714
1N8Z B Y 105;1N8Z B A 106;21.1566
1N8Z B A 106;1N8Z B M 107;16.6006
1N8Z B A 106;1N8Z B D 108;5.55951
1N8Z B M 107;1N8Z B D 108;16.3521
1N8Z B M 107;1N8Z B Y 109;2.68972
1N8Z B M 107;1N8Z B W 110;22.775
1N8Z B D 108;1N8Z B Y 109;41.0276
1N8Z B D 108;1N8Z B W 110;4.43152
1N8Z B Y 109;1N8Z B W 110;29.7977
1N8Z B W 110;1N8Z B G 111;25.1043
1N8Z B G 111;1N8Z B Q 112;19.8556
1N8Z B G 111;1N8Z B G 113;1.52557
1N8Z B Q 112;1N8Z B G 113;33.6794
1N8Z B Q 112;1N8Z B T 114;3.43361
1N8Z B G 113;1N8Z B T 114;23.3267
1N8Z B G 113;1N8Z B L 115;0.100691
1N8Z B T 114;1N8Z B L 115;25.5877
1N8Z B T 114;1N8Z B V 116;5.54385
1N8Z B T 114;1N8Z B K 208;3.54695
1N8Z B L 115;1N8Z B V 116;22.3751
1N8Z B L 115;1N8Z B T 117;19.3031
1N8Z B L 115;1N8Z B E 155;23.5053
1N8Z B L 115;1N8Z B P 156;20.8394
1N8Z B V 116;1N8Z B T 117;20.9083
1N8Z B V 116;1N8Z B V 118;10.0877
1N8Z B T 117;1N8Z B V 118;19.6672
1N8Z B T 117;1N8Z B S 119;8.80634
1N8Z B T 117;1N8Z B F 153;5.25597
1N8Z B T 117;1N8Z B P 154;16.9921
1N8Z B T 117;1N8Z B E 155;8.07549
1N8Z B V 118;1N8Z B S 119;26.5634
1N8Z B S 119;1N8Z B S 120;22.7641
1N8Z B S 119;1N8Z B A 121;18.1906
1N8Z B S 119;1N8Z B F 153;14.7738
1N8Z B S 120;1N8Z B A 121;33.9687
1N8Z B S 120;1N8Z B S 122;1.68135
1N8Z B A 121;1N8Z B S 122;30.7778
1N8Z B A 121;1N8Z B F 153;19.8603
1N8Z B S 122;1N8Z B T 123;33.1648
1N8Z B S 122;1N8Z B K 124;5.43323
1N8Z B S 122;1N8Z B F 153;12.5593
1N8Z B S 122;1N8Z B L 182;1.4588
1N8Z B T 123;1N8Z B K 124;27.37
1N8Z B T 123;1N8Z B G 125;0.45399
1N8Z B T 123;1N8Z B F 153;7.91876
1N8Z B T 123;1N8Z B P 154;7.93397
1N8Z B T 123;1N8Z B H 207;3.21859
1N8Z B T 123;1N8Z B P 209;19.2978
1N8Z B T 123;1N8Z B S 210;13.5425
1N8Z B K 124;1N8Z B G 125;30.1065
1N8Z B K 124;1N8Z B D 151;11.2595
1N8Z B K 124;1N8Z B Y 152;8.29568
1N8Z B K 124;1N8Z B F 153;16.5993
1N8Z B K 124;1N8Z B L 182;30.9255
1N8Z B K 124;1N8Z B H 207;4.12785
1N8Z B K 124;1N8Z B S 210;1.09783
1N8Z B G 125;1N8Z B P 126;25.0224
1N8Z B G 125;1N8Z B S 127;2.43597
1N8Z B G 125;1N8Z B D 151;7.62621
1N8Z B G 125;1N8Z B Y 152;1.57425
1N8Z B G 125;1N8Z B H 207;2.91508
1N8Z B G 125;1N8Z B S 210;14.3297
1N8Z B G 125;1N8Z B T 212;6.52665
1N8Z B P 126;1N8Z B S 127;26.0485
1N8Z B P 126;1N8Z B V 128;10.444
1N8Z B P 126;1N8Z B V 149;11.3818
1N8Z B P 126;1N8Z B K 150;8.40197
1N8Z B P 126;1N8Z B D 151;3.79143
1N8Z B P 126;1N8Z B Y 152;15.2276
1N8Z B P 126;1N8Z B V 157;4.43194
1N8Z B P 126;1N8Z B V 205;6.16743
1N8Z B P 126;1N8Z B H 207;14.1606
1N8Z B P 126;1N8Z B S 210;0.428994
1N8Z B P 126;1N8Z B T 212;22.6725
1N8Z B P 126;1N8Z B V 214;2.72392
1N8Z B S 127;1N8Z B V 128;25.7294
1N8Z B S 127;1N8Z B F 129;24.6529
1N8Z B S 127;1N8Z B L 148;1.2572
1N8Z B S 127;1N8Z B V 149;3.42091
1N8Z B S 127;1N8Z B K 150;20.3724
1N8Z B S 127;1N8Z B D 151;9.07017
1N8Z B V 128;1N8Z B F 129;31.2578
1N8Z B V 128;1N8Z B P 130;0.234256
1N8Z B V 128;1N8Z B C 147;8.53833
1N8Z B V 128;1N8Z B L 148;7.60247
1N8Z B V 128;1N8Z B V 149;11.0338
1N8Z B V 128;1N8Z B C 203;4.63874
1N8Z B V 128;1N8Z B V 205;17.3354
1N8Z B V 128;1N8Z B T 212;1.08453
1N8Z B V 128;1N8Z B V 214;25.9346
1N8Z B V 128;1N8Z B K 216;21.7997
1N8Z B F 129;1N8Z B P 130;30.4393
1N8Z B F 129;1N8Z B L 131;1.30954
1N8Z B F 129;1N8Z B C 147;6.93811
1N8Z B F 129;1N8Z B L 148;34.6859
1N8Z B F 129;1N8Z B K 150;14.6241
1N8Z B F 129;1N8Z B K 216;2.59248
1N8Z B P 130;1N8Z B L 131;24.0904
1N8Z B P 130;1N8Z B A 132;13.7284
1N8Z B P 130;1N8Z B G 146;1.57678
1N8Z B P 130;1N8Z B C 147;3.56128
1N8Z B P 130;1N8Z B L 148;0.122737
1N8Z B P 130;1N8Z B K 216;21.2592
1N8Z B P 130;1N8Z B K 217;5.36699
1N8Z B P 130;1N8Z B V 218;17.0592
1N8Z B P 130;1N8Z B E 219;1.20441
1N8Z B L 131;1N8Z B A 132;17.6772
1N8Z B L 131;1N8Z B P 133;2.37423
1N8Z B L 131;1N8Z B L 145;6.01931
1N8Z B L 131;1N8Z B G 146;21.6724
1N8Z B L 131;1N8Z B C 147;8.28695
1N8Z B L 131;1N8Z B L 148;15.1629
1N8Z B L 131;1N8Z B S 186;9.86255
1N8Z B L 131;1N8Z B S 187;1.53331
1N8Z B L 131;1N8Z B V 188;9.90912
1N8Z B L 131;1N8Z B V 218;7.45391
1N8Z B A 132;1N8Z B P 133;26.4624
1N8Z B A 132;1N8Z B S 134;8.10419
1N8Z B A 132;1N8Z B S 137;2.05195
1N8Z B A 132;1N8Z B V 218;4.7729
1N8Z B A 132;1N8Z B E 219;9.43869
1N8Z B A 132;1N8Z B P 220;10.2915
1N8Z B P 133;1N8Z B S 134;29.2872
1N8Z B P 133;1N8Z B S 137;5.46839
1N8Z B P 133;1N8Z B T 138;0.351891
1N8Z B P 133;1N8Z B A 143;8.79879
1N8Z B P 133;1N8Z B A 144;7.40659
1N8Z B P 133;1N8Z B L 145;20.323
1N8Z B P 133;1N8Z B L 196;13.9596
1N8Z B P 133;1N8Z B V 218;7.52004
1N8Z B P 133;1N8Z B E 219;7.2652
1N8Z B P 133;1N8Z B P 220;29.1517
1N8Z B S 134;1N8Z B S 135;26.8725
1N8Z B S 134;1N8Z B K 136;13.719
1N8Z B S 134;1N8Z B S 137;17.7481
1N8Z B S 134;1N8Z B T 138;15.6026
1N8Z B S 134;1N8Z B L 196;1.29684
1N8Z B S 134;1N8Z B P 220;0.907367
1N8Z B S 135;1N8Z B K 136;39.1352
1N8Z B S 135;1N8Z B S 137;1.47397
1N8Z B S 135;1N8Z B T 138;26.2577
1N8Z B K 136;1N8Z B S 137;18.0078
1N8Z B K 136;1N8Z B T 138;1.74529
1N8Z B S 137;1N8Z B T 138;20.2073
1N8Z B S 137;1N8Z B T 142;1.21617
1N8Z B S 137;1N8Z B A 143;4.28316
1N8Z B S 137;1N8Z B A 144;18.6281
1N8Z B T 138;1N8Z B S 139;26.164
1N8Z B T 138;1N8Z B G 140;6.84873
1N8Z B T 138;1N8Z B T 142;10.1888
1N8Z B T 138;1N8Z B A 143;11.4766
1N8Z B T 138;1N8Z B S 193;10.9106
1N8Z B T 138;1N8Z B L 196;5.00364
1N8Z B S 139;1N8Z B G 140;31.4524
1N8Z B S 139;1N8Z B G 141;1.30301
1N8Z B S 139;1N8Z B T 142;23.7828
1N8Z B G 140;1N8Z B G 141;26.7558
1N8Z B G 140;1N8Z B T 142;5.21605
1N8Z B G 140;1N8Z B S 193;2.83974
1N8Z B G 141;1N8Z B T 142;25.0455
1N8Z B G 141;1N8Z B P 192;9.07365
1N8Z B G 141;1N8Z B S 193;18.0826
1N8Z B G 141;1N8Z B S 194;0.794759
1N8Z B T 142;1N8Z B A 143;20.2102
1N8Z B T 142;1N8Z B A 144;0.221002
1N8Z B T 142;1N8Z B T 190;20.5809
1N8Z B T 142;1N8Z B V 191;10.7018
1N8Z B T 142;1N8Z B P 192;3.60197
1N8Z B T 142;1N8Z B S 193;5.9518
1N8Z B A 143;1N8Z B A 144;21.0296
1N8Z B A 143;1N8Z B L 145;1.6495
1N8Z B A 143;1N8Z B V 189;1.32309
1N8Z B A 143;1N8Z B T 190;6.86902
1N8Z B A 143;1N8Z B V 191;23.0171
1N8Z B A 143;1N8Z B P 192;0.0151471
1N8Z B A 143;1N8Z B S 193;9.23882
1N8Z B A 143;1N8Z B L 196;11.2337
1N8Z B A 144;1N8Z B L 145;20.0854
1N8Z B A 144;1N8Z B V 188;1.84021
1N8Z B A 144;1N8Z B V 189;7.26708
1N8Z B A 144;1N8Z B T 190;9.54164
1N8Z B L 145;1N8Z B G 146;20.1197
1N8Z B L 145;1N8Z B W 161;10.3629
1N8Z B L 145;1N8Z B V 188;8.14515
1N8Z B L 145;1N8Z B V 189;30.0121
1N8Z B L 145;1N8Z B V 191;12.9096
1N8Z B L 145;1N8Z B L 196;6.55905
1N8Z B L 145;1N8Z B Y 201;19.7472
1N8Z B L 145;1N8Z B V 218;16.7246
1N8Z B G 146;1N8Z B C 147;15.5739
1N8Z B G 146;1N8Z B W 161;11.022
1N8Z B G 146;1N8Z B S 187;4.24465
1N8Z B G 146;1N8Z B V 188;5.78033
1N8Z B G 146;1N8Z B V 189;0.151692
1N8Z B G 146;1N8Z B V 218;9.15501
1N8Z B C 147;1N8Z B L 148;17.0032
1N8Z B C 147;1N8Z B V 149;8.30358
1N8Z B C 147;1N8Z B V 159;2.50461
1N8Z B C 147;1N8Z B W 161;8.14639
1N8Z B C 147;1N8Z B L 185;0.0055984
1N8Z B C 147;1N8Z B S 186;7.0299
1N8Z B C 147;1N8Z B S 187;17.7296
1N8Z B C 147;1N8Z B C 203;18.6984
1N8Z B C 147;1N8Z B V 205;2.72005
1N8Z B C 147;1N8Z B K 216;5.15373
1N8Z B C 147;1N8Z B V 218;8.79956
1N8Z B L 148;1N8Z B V 149;21.2858
1N8Z B L 148;1N8Z B K 150;15.1352
1N8Z B L 148;1N8Z B S 184;9.38154
1N8Z B L 148;1N8Z B L 185;8.52138
1N8Z B L 148;1N8Z B S 186;13.7194
1N8Z B V 149;1N8Z B K 150;17.8001
1N8Z B V 149;1N8Z B D 151;5.02578e-08
1N8Z B V 149;1N8Z B Y 152;12.1517
1N8Z B V 149;1N8Z B V 157;10.7497
1N8Z B V 149;1N8Z B V 159;7.01821
1N8Z B V 149;1N8Z B Y 183;0.0288933
1N8Z B V 149;1N8Z B S 184;6.1743
1N8Z B V 149;1N8Z B L 185;29.0882
1N8Z B V 149;1N8Z B S 186;0.444002
1N8Z B V 149;1N8Z B S 187;0.834813
1N8Z B V 149;1N8Z B V 205;15.4508
1N8Z B K 150;1N8Z B D 151;49.5812
1N8Z B K 150;1N8Z B Y 152;2.48684
1N8Z B K 150;1N8Z B Q 178;17.6506
1N8Z B K 150;1N8Z B Y 183;0.0175726
1N8Z B K 150;1N8Z B S 184;14.9396
1N8Z B D 151;1N8Z B Y 152;17.5435
1N8Z B D 151;1N8Z B Q 178;10.1184
1N8Z B D 151;1N8Z B S 180;3.75667
1N8Z B D 151;1N8Z B L 182;26.5629
1N8Z B D 151;1N8Z B Y 183;7.50421
1N8Z B D 151;1N8Z B S 184;1.87215
1N8Z B Y 152;1N8Z B F 153;19.2183
1N8Z B Y 152;1N8Z B P 154;7.6874
1N8Z B Y 152;1N8Z B E 155;16.2095
1N8Z B Y 152;1N8Z B P 156;1.98475
1N8Z B Y 152;1N8Z B V 157;20.7447
1N8Z B Y 152;1N8Z B A 175;7.34177
1N8Z B Y 152;1N8Z B L 182;8.93843
1N8Z B Y 152;1N8Z B Y 183;35.3122
1N8Z B Y 152;1N8Z B S 184;4.5799
1N8Z B Y 152;1N8Z B L 185;13.0905
1N8Z B Y 152;1N8Z B H 207;11.1429
1N8Z B F 153;1N8Z B P 154;34.6314
1N8Z B F 153;1N8Z B L 177;4.37323
1N8Z B F 153;1N8Z B G 181;15.6711
1N8Z B F 153;1N8Z B L 182;13.8042
1N8Z B F 153;1N8Z B Y 183;20.2844
1N8Z B F 153;1N8Z B H 207;7.30345
1N8Z B P 154;1N8Z B E 155;28.0631
1N8Z B P 154;1N8Z B P 156;0.781346
1N8Z B P 154;1N8Z B Y 183;6.95036
1N8Z B P 154;1N8Z B H 207;10.9109
1N8Z B P 154;1N8Z B P 209;15.7862
1N8Z B E 155;1N8Z B P 156;36.3833
1N8Z B E 155;1N8Z B V 157;7.79345
1N8Z B E 155;1N8Z B A 175;15.426
1N8Z B E 155;1N8Z B Y 183;25.3157
1N8Z B E 155;1N8Z B L 185;5.369
1N8Z B E 155;1N8Z B H 207;0.0405509
1N8Z B E 155;1N8Z B P 209;4.82787
1N8Z B P 156;1N8Z B V 157;30.1066
1N8Z B P 156;1N8Z B T 158;1.81026
1N8Z B P 156;1N8Z B N 206;2.04113
1N8Z B P 156;1N8Z B H 207;8.41956
1N8Z B P 156;1N8Z B K 208;6.46632
1N8Z B P 156;1N8Z B P 209;14.9402
1N8Z B V 157;1N8Z B T 158;32.8177
1N8Z B V 157;1N8Z B V 159;8.51662
1N8Z B V 157;1N8Z B T 172;2.03029
1N8Z B V 157;1N8Z B L 185;19.4505
1N8Z B V 157;1N8Z B V 205;9.33099
1N8Z B V 157;1N8Z B N 206;7.32669
1N8Z B V 157;1N8Z B H 207;11.4575
1N8Z B T 158;1N8Z B V 159;28.1785
1N8Z B T 158;1N8Z B S 160;6.08563
1N8Z B T 158;1N8Z B N 204;4.98413
1N8Z B T 158;1N8Z B V 205;4.88164
1N8Z B T 158;1N8Z B N 206;34.9378
1N8Z B V 159;1N8Z B S 160;30.3891
1N8Z B V 159;1N8Z B W 161;7.80908
1N8Z B V 159;1N8Z B V 170;1.2097
1N8Z B V 159;1N8Z B T 172;23.0465
1N8Z B V 159;1N8Z B L 185;6.81126
1N8Z B V 159;1N8Z B S 187;16.5622
1N8Z B V 159;1N8Z B C 203;7.30984
1N8Z B V 159;1N8Z B N 204;6.97058
1N8Z B V 159;1N8Z B V 205;13.9088
1N8Z B S 160;1N8Z B W 161;28.3769
1N8Z B S 160;1N8Z B S 163;4.50571
1N8Z B S 160;1N8Z B G 164;12.4322
1N8Z B S 160;1N8Z B V 170;0.100399
1N8Z B S 160;1N8Z B I 202;0.110258
1N8Z B S 160;1N8Z B C 203;4.62477
1N8Z B S 160;1N8Z B N 204;31.9652
1N8Z B W 161;1N8Z B N 162;20.1045
1N8Z B W 161;1N8Z B S 163;1.89525
1N8Z B W 161;1N8Z B G 164;9.05783
1N8Z B W 161;1N8Z B A 165;1.61826
1N8Z B W 161;1N8Z B L 166;33.4216
1N8Z B W 161;1N8Z B V 170;18.0102
1N8Z B W 161;1N8Z B T 172;0.0260085
1N8Z B W 161;1N8Z B S 187;14.5154
1N8Z B W 161;1N8Z B V 188;4.37081
1N8Z B W 161;1N8Z B V 189;15.8982
1N8Z B W 161;1N8Z B Y 201;9.54264
1N8Z B W 161;1N8Z B I 202;12.2674
1N8Z B W 161;1N8Z B C 203;17.8907
1N8Z B W 161;1N8Z B N 204;3.60481
1N8Z B W 161;1N8Z B V 218;9.33888
1N8Z B N 162;1N8Z B S 163;26.5985
1N8Z B N 162;1N8Z B G 164;1.68942
1N8Z B N 162;1N8Z B A 165;20.6604
1N8Z B N 162;1N8Z B L 166;15.89
1N8Z B N 162;1N8Z B Q 199;7.02082
1N8Z B N 162;1N8Z B T 200;13.0766
1N8Z B N 162;1N8Z B Y 201;14.0945
1N8Z B N 162;1N8Z B I 202;26.0015
1N8Z B N 162;1N8Z B N 204;3.20355
1N8Z B S 163;1N8Z B G 164;22.7921
1N8Z B S 163;1N8Z B A 165;3.7389
1N8Z B S 163;1N8Z B I 202;0.36312
1N8Z B S 163;1N8Z B N 204;22.8933
1N8Z B G 164;1N8Z B A 165;23.7075
1N8Z B G 164;1N8Z B L 166;5.22068
1N8Z B G 164;1N8Z B T 167;18.3172
1N8Z B G 164;1N8Z B N 204;0.248133
1N8Z B A 165;1N8Z B L 166;24.4509
1N8Z B A 165;1N8Z B T 167;6.56668
1N8Z B L 166;1N8Z B T 167;27.6254
1N8Z B L 166;1N8Z B S 168;13.0019
1N8Z B L 166;1N8Z B V 170;10.9218
1N8Z B L 166;1N8Z B V 189;17.0246
1N8Z B L 166;1N8Z B T 190;2.04373
1N8Z B L 166;1N8Z B V 191;9.21921
1N8Z B L 166;1N8Z B Y 201;16.5176
1N8Z B T 167;1N8Z B S 168;33.5453
1N8Z B T 167;1N8Z B G 169;1.78373
1N8Z B T 167;1N8Z B V 170;23.5763
1N8Z B S 168;1N8Z B G 169;26.6632
1N8Z B S 168;1N8Z B V 170;3.39596
1N8Z B S 168;1N8Z B V 189;4.89202
1N8Z B S 168;1N8Z B T 190;5.20257
1N8Z B G 169;1N8Z B V 170;21.3121
1N8Z B G 169;1N8Z B H 171;13.3938
1N8Z B G 169;1N8Z B V 188;1.90201
1N8Z B G 169;1N8Z B V 189;10.5985
1N8Z B G 169;1N8Z B T 190;20.0523
1N8Z B V 170;1N8Z B H 171;35.8346
1N8Z B V 170;1N8Z B T 172;11.128
1N8Z B V 170;1N8Z B S 187;5.19896
1N8Z B V 170;1N8Z B V 188;7.39757
1N8Z B V 170;1N8Z B V 189;11.6527
1N8Z B H 171;1N8Z B T 172;22.9426
1N8Z B H 171;1N8Z B F 173;11.0851
1N8Z B H 171;1N8Z B S 186;0.582789
1N8Z B H 171;1N8Z B S 187;3.82258
1N8Z B H 171;1N8Z B V 188;25.5758
1N8Z B H 171;1N8Z B T 190;0.0367008
1N8Z B T 172;1N8Z B F 173;25.7034
1N8Z B T 172;1N8Z B P 174;4.79196
1N8Z B T 172;1N8Z B L 185;16.2023
1N8Z B T 172;1N8Z B S 186;2.66103
1N8Z B T 172;1N8Z B S 187;14.8762
1N8Z B F 173;1N8Z B P 174;29.1524
1N8Z B F 173;1N8Z B A 175;2.20235
1N8Z B F 173;1N8Z B L 185;15.9317
1N8Z B F 173;1N8Z B S 186;25.482
1N8Z B F 173;1N8Z B S 187;0.132153
1N8Z B F 173;1N8Z B V 188;12.5151
1N8Z B P 174;1N8Z B A 175;30.704
1N8Z B P 174;1N8Z B V 176;5.71477
1N8Z B P 174;1N8Z B S 184;0.381354
1N8Z B P 174;1N8Z B L 185;2.88236
1N8Z B A 175;1N8Z B V 176;24.4888
1N8Z B A 175;1N8Z B L 177;1.95349
1N8Z B A 175;1N8Z B Y 183;16.6771
1N8Z B A 175;1N8Z B S 184;5.97701
1N8Z B A 175;1N8Z B L 185;13.6359
1N8Z B V 176;1N8Z B L 177;26.0488
1N8Z B V 176;1N8Z B Q 178;7.11338
1N8Z B V 176;1N8Z B L 182;0.309808
1N8Z B V 176;1N8Z B Y 183;7.74696
1N8Z B V 176;1N8Z B S 184;30.1198
1N8Z B L 177;1N8Z B Q 178;30.8364
1N8Z B L 177;1N8Z B S 179;0.443137
1N8Z B L 177;1N8Z B G 181;15.2289
1N8Z B L 177;1N8Z B L 182;3.44516
1N8Z B L 177;1N8Z B Y 183;33.8955
1N8Z B Q 178;1N8Z B S 179;26.643
1N8Z B Q 178;1N8Z B S 180;18.7766
1N8Z B Q 178;1N8Z B G 181;10.3408
1N8Z B Q 178;1N8Z B L 182;18.181
1N8Z B Q 178;1N8Z B Y 183;3.03135
1N8Z B Q 178;1N8Z B S 184;15.8468
1N8Z B S 179;1N8Z B S 180;26.2771
1N8Z B S 179;1N8Z B G 181;5.40798
1N8Z B S 180;1N8Z B G 181;21.3496
1N8Z B S 180;1N8Z B L 182;29.3442
1N8Z B G 181;1N8Z B L 182;23.4421
1N8Z B G 181;1N8Z B Y 183;1.41188
1N8Z B L 182;1N8Z B Y 183;22.0086
1N8Z B Y 183;1N8Z B S 184;18.9352
1N8Z B S 184;1N8Z B L 185;24.5595
1N8Z B L 185;1N8Z B S 186;31.4569
1N8Z B L 185;1N8Z B S 187;4.58054
1N8Z B S 186;1N8Z B S 187;18.3397
1N8Z B S 186;1N8Z B V 188;7.32114
1N8Z B S 187;1N8Z B V 188;22.1293
1N8Z B V 188;1N8Z B V 189;23.8797
1N8Z B V 189;1N8Z B T 190;27.8823
1N8Z B V 189;1N8Z B V 191;10.3521
1N8Z B V 189;1N8Z B Y 201;1.16168
1N8Z B T 190;1N8Z B V 191;26.8946
1N8Z B T 190;1N8Z B P 192;0.540814
1N8Z B V 191;1N8Z B P 192;35.445
1N8Z B V 191;1N8Z B S 193;2.03245
1N8Z B V 191;1N8Z B S 195;2.85678
1N8Z B V 191;1N8Z B L 196;8.83996
1N8Z B V 191;1N8Z B Y 201;22.6551
1N8Z B P 192;1N8Z B S 193;15.8544
1N8Z B P 192;1N8Z B S 194;16.553
1N8Z B P 192;1N8Z B S 195;20.6974
1N8Z B P 192;1N8Z B L 196;2.86105
1N8Z B P 192;1N8Z B Q 199;1.44682
1N8Z B P 192;1N8Z B Y 201;4.44438
1N8Z B S 193;1N8Z B S 194;27.9211
1N8Z B S 193;1N8Z B S 195;1.39737
1N8Z B S 193;1N8Z B L 196;28.8922
1N8Z B S 194;1N8Z B S 195;24.2516
1N8Z B S 194;1N8Z B L 196;8.36504
1N8Z B S 194;1N8Z B T 198;7.34268
1N8Z B S 195;1N8Z B L 196;21.6232
1N8Z B S 195;1N8Z B G 197;1.07606
1N8Z B S 195;1N8Z B T 198;17.0808
1N8Z B S 195;1N8Z B Q 199;23.2834
1N8Z B S 195;1N8Z B Y 201;13.4764
1N8Z B L 196;1N8Z B G 197;25.2067
1N8Z B L 196;1N8Z B T 198;7.62075
1N8Z B L 196;1N8Z B Q 199;1.02664
1N8Z B L 196;1N8Z B Y 201;10.7424
1N8Z B L 196;1N8Z B P 220;20.7421
1N8Z B G 197;1N8Z B T 198;27.0286
1N8Z B G 197;1N8Z B Q 199;9.93985
1N8Z B G 197;1N8Z B Y 201;0.0162189
1N8Z B G 197;1N8Z B E 219;0.290099
1N8Z B G 197;1N8Z B P 220;9.70574
1N8Z B T 198;1N8Z B Q 199;35.356
1N8Z B T 198;1N8Z B T 200;3.63953
1N8Z B Q 199;1N8Z B T 200;33.6708
1N8Z B Q 199;1N8Z B Y 201;33.4517
1N8Z B T 200;1N8Z B Y 201;29.3953
1N8Z B T 200;1N8Z B I 202;19.5829
1N8Z B T 200;1N8Z B K 217;8.3504
1N8Z B Y 201;1N8Z B I 202;20.3208
1N8Z B Y 201;1N8Z B K 216;0.402043
1N8Z B Y 201;1N8Z B K 217;5.80999
1N8Z B Y 201;1N8Z B V 218;25.7948
1N8Z B I 202;1N8Z B C 203;20.2744
1N8Z B I 202;1N8Z B N 204;13.0642
1N8Z B I 202;1N8Z B D 215;14.9326
1N8Z B I 202;1N8Z B K 216;10.6022
1N8Z B I 202;1N8Z B K 217;15.3311
1N8Z B I 202;1N8Z B V 218;0.0871394
1N8Z B C 203;1N8Z B N 204;18.0928
1N8Z B C 203;1N8Z B V 205;10.4478
1N8Z B C 203;1N8Z B V 214;3.22245
1N8Z B C 203;1N8Z B D 215;4.13724
1N8Z B C 203;1N8Z B K 216;20.7143
1N8Z B C 203;1N8Z B V 218;1.06946
1N8Z B N 204;1N8Z B V 205;20.5729
1N8Z B N 204;1N8Z B N 206;1.47148
1N8Z B N 204;1N8Z B V 214;3.94617
1N8Z B N 204;1N8Z B D 215;20.2987
1N8Z B V 205;1N8Z B N 206;26.2618
1N8Z B V 205;1N8Z B H 207;2.04022
1N8Z B V 205;1N8Z B T 212;3.35179
1N8Z B V 205;1N8Z B K 213;6.44398
1N8Z B V 205;1N8Z B V 214;25.5461
1N8Z B N 206;1N8Z B H 207;20.3659
1N8Z B N 206;1N8Z B K 208;17.2823
1N8Z B N 206;1N8Z B N 211;1.56822
1N8Z B N 206;1N8Z B T 212;9.56099
1N8Z B N 206;1N8Z B K 213;23.5102
1N8Z B H 207;1N8Z B K 208;16.7442
1N8Z B H 207;1N8Z B P 209;18.9396
1N8Z B H 207;1N8Z B S 210;18.1207
1N8Z B H 207;1N8Z B N 211;2.7368
1N8Z B H 207;1N8Z B T 212;19.0574
1N8Z B K 208;1N8Z B P 209;37.8005
1N8Z B K 208;1N8Z B S 210;1.67483
1N8Z B K 208;1N8Z B N 211;23.1503
1N8Z B K 208;1N8Z B T 212;0.00555745
1N8Z B P 209;1N8Z B S 210;18.0565
1N8Z B P 209;1N8Z B N 211;2.3048
1N8Z B S 210;1N8Z B N 211;26.1423
1N8Z B S 210;1N8Z B T 212;17.5938
1N8Z B N 211;1N8Z B T 212;21.9276
1N8Z B N 211;1N8Z B K 213;33.4551
1N8Z B T 212;1N8Z B K 213;25.1662
1N8Z B T 212;1N8Z B V 214;16.1893
1N8Z B K 213;1N8Z B V 214;29.5201
1N8Z B K 213;1N8Z B D 215;3.56329
1N8Z B V 214;1N8Z B D 215;34.0897
1N8Z B V 214;1N8Z B K 216;15.0399
1N8Z B D 215;1N8Z B K 216;21.7772
1N8Z B D 215;1N8Z B K 217;2.46929
1N8Z B K 216;1N8Z B K 217;33.8841
1N8Z B K 216;1N8Z B V 218;8.54641
1N8Z B K 217;1N8Z B V 218;22.464
1N8Z B K 217;1N8Z B E 219;19.0452
1N8Z B V 218;1N8Z B E 219;32.2245
1N8Z B V 218;1N8Z B P 220;0.137349
1N8Z B E 219;1N8Z B P 220;43.9703
