V1;V2;Weight
1REW A S 12;1REW A S 13;30.7506
1REW A S 12;1REW A K 15;12.922
1REW A S 12;1REW A H 17;5.93192
1REW A S 12;1REW A G 45;9.13148
1REW A S 12;1REW A E 46;18.4995
1REW A S 13;1REW A C 14;22.5958
1REW A S 13;1REW A K 15;16.9272
1REW A S 13;1REW A H 17;0.0450328
1REW A S 13;1REW A H 44;2.71358
1REW A S 13;1REW A G 45;4.16817
1REW A S 13;1REW A E 46;14.9055
1REW A S 13;1REW A P 48;17.3991
1REW A S 13;1REW A H 54;4.43578
1REW A S 13;1REW A L 55;7.51601
1REW A C 14;1REW A K 15;24.4815
1REW A C 14;1REW A H 44;2.62445
1REW A C 14;1REW A G 45;8.7128
1REW A C 14;1REW A E 46;9.45167
1REW A C 14;1REW A C 47;2.65051
1REW A C 14;1REW A H 54;5.19041
1REW A C 14;1REW A L 55;22.617
1REW A C 14;1REW A C 79;19.3112
1REW A C 14;1REW A V 80;0.0385684
1REW A C 14;1REW A C 111;7.23168
1REW A C 14;1REW A G 112;9.72844
1REW A C 14;1REW A C 113;8.60741
1REW A K 15;1REW A R 16;33.1387
1REW A K 15;1REW A H 17;22.7075
1REW A K 15;1REW A Y 42;0.302054
1REW A K 15;1REW A C 43;3.40421
1REW A K 15;1REW A H 44;11.9143
1REW A K 15;1REW A C 79;4.2183
1REW A K 15;1REW A C 111;10.9554
1REW A R 16;1REW A H 17;28.1112
1REW A R 16;1REW A P 18;1.7076
1REW A R 16;1REW A F 41;41.5312
1REW A R 16;1REW A Y 42;6.88307
1REW A R 16;1REW A C 43;0.498559
1REW A R 16;1REW A V 107;0.5714
1REW A R 16;1REW A V 108;19.7242
1REW A R 16;1REW A E 109;22.4679
1REW A R 16;1REW A G 110;3.98543
1REW A R 16;1REW A C 111;16.4969
1REW A H 17;1REW A P 18;35.2929
1REW A H 17;1REW A L 19;0.0433066
1REW A H 17;1REW A F 41;10.1047
1REW A H 17;1REW A Y 42;41.6671
1REW A H 17;1REW A C 43;0.560277
1REW A H 17;1REW A H 44;24.1728
1REW A H 17;1REW A G 45;0.0683181
1REW A P 18;1REW A L 19;28.1322
1REW A P 18;1REW A H 39;2.64239
1REW A P 18;1REW A F 41;13.3689
1REW A P 18;1REW A Y 42;10.6599
1REW A P 18;1REW B I 74;1.92142
1REW A L 19;1REW A Y 20;36.2649
1REW A L 19;1REW A V 21;12.4641
1REW A L 19;1REW A Y 38;0.0380944
1REW A L 19;1REW A H 39;8.7822
1REW A L 19;1REW A A 40;15.0897
1REW A L 19;1REW A F 41;25.3772
1REW A L 19;1REW A Y 42;13.772
1REW A L 19;1REW B H 60;1.9521
1REW A L 19;1REW B V 63;0.977658
1REW A L 19;1REW B Q 64;8.86031
1REW A L 19;1REW B V 67;17.696
1REW A L 19;1REW B I 74;24.1815
1REW A Y 20;1REW A V 21;24.9541
1REW A Y 20;1REW A D 22;28.1616
1REW A Y 20;1REW A P 36;6.53887
1REW A Y 20;1REW A G 37;18.1391
1REW A Y 20;1REW A Y 38;16.0254
1REW A Y 20;1REW A H 39;36.6464
1REW A Y 20;1REW A A 40;2.97056e-05
1REW A V 21;1REW A D 22;22.0262
1REW A V 21;1REW A F 23;14.6833
1REW A V 21;1REW A V 26;12.6896
1REW A V 21;1REW A W 28;2.81268
1REW A V 21;1REW A G 37;6.53534
1REW A V 21;1REW A Y 38;29.2264
1REW A V 21;1REW A A 40;10.3954
1REW A V 21;1REW B V 63;14.9758
1REW A V 21;1REW B V 67;13.9086
1REW A D 22;1REW A F 23;17.3281
1REW A D 22;1REW A S 24;17.8402
1REW A D 22;1REW A D 25;30.1799
1REW A D 22;1REW A V 26;10.1102
1REW A D 22;1REW A P 36;14.1479
1REW A D 22;1REW A G 37;2.69915
1REW A F 23;1REW A S 24;16.7506
1REW A F 23;1REW A D 25;0.671615
1REW A F 23;1REW A V 26;13.8073
1REW A F 23;1REW A G 27;3.91075
1REW A F 23;1REW A W 28;30.2999
1REW A F 23;1REW A N 29;12.2822
1REW A F 23;1REW A I 32;25.5787
1REW A F 23;1REW A P 35;15.5324
1REW A F 23;1REW A P 36;15.5575
1REW A F 23;1REW A G 37;10.2021
1REW A F 23;1REW A Y 38;16.8269
1REW A F 23;1REW A I 87;0.412426
1REW A F 23;1REW A M 89;13.49
1REW A F 23;1REW B V 63;0.394273
1REW A S 24;1REW A D 25;25.7555
1REW A S 24;1REW A V 26;1.30106
1REW A S 24;1REW A G 27;10.9025
1REW A S 24;1REW A W 28;0.00638531
1REW A S 24;1REW A N 29;33.28
1REW A S 24;1REW A P 36;1.01597
1REW A D 25;1REW A V 26;22.3601
1REW A D 25;1REW A G 27;0.903687
1REW A D 25;1REW B V 70;11.5656
1REW A V 26;1REW A G 27;16.5095
1REW A V 26;1REW A W 28;27.3942
1REW A V 26;1REW B L 66;4.44016
1REW A V 26;1REW B V 67;15.1599
1REW A V 26;1REW B V 70;14.2977
1REW A G 27;1REW A W 28;21.813
1REW A G 27;1REW A N 29;5.5546
1REW A G 27;1REW A D 30;10.3505
1REW A G 27;1REW A W 31;0.0160502
1REW A W 28;1REW A N 29;18.3041
1REW A W 28;1REW A D 30;6.9395
1REW A W 28;1REW A W 31;29.7294
1REW A W 28;1REW A I 32;24.9543
1REW A W 28;1REW B V 63;12.7084
1REW A W 28;1REW B L 66;18.1219
1REW A N 29;1REW A D 30;29.6756
1REW A N 29;1REW A W 31;0.789852
1REW A N 29;1REW A I 32;13.4247
1REW A N 29;1REW A V 33;1.37259
1REW A N 29;1REW A P 36;3.2717
1REW A D 30;1REW A W 31;32.3073
1REW A D 30;1REW A I 32;0.741641
1REW A D 30;1REW A L 92;17.2161
1REW A W 31;1REW A I 32;38.6047
1REW A W 31;1REW A V 33;3.59413
1REW A W 31;1REW A M 89;2.29137
1REW A W 31;1REW A Y 91;23.9208
1REW A W 31;1REW A L 92;27.9553
1REW A W 31;1REW A Y 103;6.42903
1REW A I 32;1REW A V 33;24.1494
1REW A I 32;1REW A A 34;9.59514
1REW A I 32;1REW A P 35;8.65223
1REW A I 32;1REW A M 89;20.3424
1REW A I 32;1REW A L 90;6.07509
1REW A I 32;1REW A Y 91;8.41374
1REW A V 33;1REW A A 34;30.2975
1REW A V 33;1REW A P 35;1.5454
1REW A V 33;1REW A P 36;2.0857
1REW A V 33;1REW A L 90;25.1212
1REW A V 33;1REW A Y 91;9.46667
1REW A V 33;1REW A L 92;13.8273
1REW A V 33;1REW A V 98;15.3197
1REW A A 34;1REW A P 35;32.8236
1REW A A 34;1REW A P 36;2.79589
1REW A A 34;1REW A M 89;5.95372
1REW A A 34;1REW A L 90;27.7345
1REW A P 35;1REW A P 36;32.6561
1REW A P 35;1REW A G 37;18.0888
1REW A P 35;1REW A Y 38;6.44898
1REW A P 35;1REW A I 87;6.71677
1REW A P 35;1REW A S 88;10.1185
1REW A P 35;1REW A M 89;10.9539
1REW A P 36;1REW A G 37;20.4232
1REW A G 37;1REW A Y 38;22.7943
1REW A Y 38;1REW A H 39;26.0626
1REW A Y 38;1REW A A 40;17.4814
1REW A Y 38;1REW A I 87;29.5502
1REW A Y 38;1REW A M 89;1.29521
1REW A Y 38;1REW A M 106;22.902
1REW A Y 38;1REW A V 107;8.41517
1REW A Y 38;1REW B H 60;0.199136
1REW A Y 38;1REW B V 63;15.3477
1REW A H 39;1REW A A 40;15.5401
1REW A H 39;1REW A F 41;29.157
1REW A H 39;1REW A V 107;13.0429
1REW A A 40;1REW A F 41;25.1705
1REW A A 40;1REW A M 106;4.90683
1REW A A 40;1REW A V 107;7.01315
1REW A A 40;1REW A V 108;7.9997
1REW A A 40;1REW B H 60;13.7318
1REW A A 40;1REW B V 63;3.59703
1REW A F 41;1REW A Y 42;19.3741
1REW A F 41;1REW A V 107;11.9882
1REW A F 41;1REW A V 108;14.1986
1REW A F 41;1REW B H 60;8.27535
1REW A Y 42;1REW A C 43;29.5308
1REW A Y 42;1REW A H 44;11.6522
1REW A Y 42;1REW A P 81;0.0836043
1REW A Y 42;1REW A V 108;7.09191
1REW A Y 42;1REW A C 111;0.91019
1REW A Y 42;1REW B H 60;4.49077
1REW A Y 42;1REW B Q 64;15.9176
1REW A Y 42;1REW B K 73;5.50417
1REW A Y 42;1REW B I 74;20.1727
1REW A Y 42;1REW B P 75;21.9888
1REW A C 43;1REW A H 44;22.2415
1REW A C 43;1REW A C 79;17.5426
1REW A C 43;1REW A V 80;9.39424
1REW A C 43;1REW A P 81;15.9704
1REW A C 43;1REW A V 108;8.52736
1REW A C 43;1REW A G 110;0.522509
1REW A C 43;1REW A C 111;18.7123
1REW A C 43;1REW B H 60;0.00413877
1REW A C 43;1REW B Q 64;5.65754
1REW A C 43;1REW B P 75;3.76791
1REW A H 44;1REW A G 45;35.3387
1REW A H 44;1REW A C 79;13.0225
1REW A H 44;1REW B P 75;21.3492
1REW A G 45;1REW A E 46;24.0079
1REW A G 45;1REW A C 47;4.42223
1REW A G 45;1REW A C 79;13.5541
1REW A E 46;1REW A C 47;24.6483
1REW A E 46;1REW A P 48;27.8747
1REW A E 46;1REW A L 55;0.922685
1REW A E 46;1REW A K 76;26.1676
1REW A E 46;1REW A C 113;0.478271
1REW A C 47;1REW A P 48;21.7584
1REW A C 47;1REW A L 51;10.4987
1REW A C 47;1REW A L 55;0.724615
1REW A C 47;1REW A T 65;10.1925
1REW A C 47;1REW A K 76;17.1499
1REW A C 47;1REW A A 77;20.8916
1REW A C 47;1REW A C 78;5.37521
1REW A C 47;1REW A C 79;7.38002
1REW A C 47;1REW A C 113;20.0897
1REW A P 48;1REW A F 49;28.2649
1REW A P 48;1REW A P 50;10.1082
1REW A P 48;1REW A L 51;12.454
1REW A P 48;1REW A L 55;10.6849
1REW A P 48;1REW A T 65;4.92807
1REW A P 48;1REW A K 76;4.94474
1REW A F 49;1REW A P 50;35.7436
1REW A F 49;1REW A L 51;0.274079
1REW A F 49;1REW A I 62;0.0181037
1REW A F 49;1REW A T 65;21.2652
1REW A F 49;1REW A L 66;18.5598
1REW A F 49;1REW A S 69;3.93576
1REW A F 49;1REW A K 76;0.196179
1REW A P 50;1REW A L 51;21.0705
1REW A P 50;1REW A A 52;6.62408
1REW A P 50;1REW A L 55;0.529744
1REW A P 50;1REW A T 65;0.0287688
1REW A L 51;1REW A A 52;26.222
1REW A L 51;1REW A D 53;0.00917988
1REW A L 51;1REW A L 55;13.7317
1REW A L 51;1REW A S 57;17.8346
1REW A L 51;1REW A A 61;7.83144
1REW A L 51;1REW A I 62;14.1825
1REW A L 51;1REW A T 65;16.664
1REW A L 51;1REW A A 77;2.23881
1REW A L 51;1REW A C 113;10.1388
1REW A A 52;1REW A D 53;21.9956
1REW A A 52;1REW A H 54;15.3543
1REW A A 52;1REW A L 55;24.0533
1REW A A 52;1REW A N 56;2.14445
1REW A A 52;1REW A S 57;1.52265
1REW A D 53;1REW A H 54;27.9117
1REW A D 53;1REW A L 55;2.43687
1REW A D 53;1REW A N 56;18.1393
1REW A H 54;1REW A L 55;35.2479
1REW A H 54;1REW A N 56;14.3703
1REW A H 54;1REW A C 111;8.9815
1REW A L 55;1REW A N 56;21.212
1REW A L 55;1REW A S 57;12.2039
1REW A L 55;1REW A C 111;4.76357
1REW A L 55;1REW A G 112;13.3131
1REW A L 55;1REW A C 113;20.0804
1REW A N 56;1REW A S 57;23.9168
1REW A N 56;1REW A T 58;0.364586
1REW A N 56;1REW A T 82;13.0761
1REW A N 56;1REW A C 111;3.07704
1REW A N 56;1REW A G 112;1.88114
1REW A N 56;1REW A C 113;0.777406
1REW A N 56;1REW A R 114;16.7407
1REW A S 57;1REW A T 58;27.1681
1REW A S 57;1REW A N 59;0.371511
1REW A S 57;1REW A A 61;4.62011
1REW A S 57;1REW A I 62;10.6332
1REW A S 57;1REW A C 113;14.8035
1REW A S 57;1REW A R 114;0.627331
1REW A T 58;1REW A N 59;20.0851
1REW A T 58;1REW A H 60;9.9097
1REW A T 58;1REW A A 61;16.5104
1REW A T 58;1REW A I 62;10.8939
1REW A T 58;1REW A C 113;1.54315
1REW A T 58;1REW A R 114;32.3215
1REW A T 58;1REW B P 81;0.254446
1REW A T 58;1REW B L 84;17.4048
1REW A T 58;1REW B D 105;17.8639
1REW A N 59;1REW A H 60;16.6652
1REW A N 59;1REW A A 61;0.731128
1REW A N 59;1REW A I 62;14.372
1REW A N 59;1REW A V 63;11.2874
1REW A N 59;1REW B Y 103;14.0981
1REW A N 59;1REW B Q 104;15.2324
1REW A N 59;1REW B D 105;9.7228
1REW A N 59;1REW B M 106;13.3647
1REW A H 60;1REW A A 61;19.4743
1REW A H 60;1REW A I 62;0.787055
1REW A H 60;1REW A V 63;12.2777
1REW A H 60;1REW A Q 64;27.2791
1REW A H 60;1REW A R 114;4.02624
1REW A H 60;1REW B L 19;1.87831
1REW A H 60;1REW B Y 38;0.242253
1REW A H 60;1REW B A 40;13.6437
1REW A H 60;1REW B F 41;8.45571
1REW A H 60;1REW B Y 42;4.74068
1REW A H 60;1REW B C 43;0.0150022
1REW A H 60;1REW B P 81;9.04052
1REW A H 60;1REW B L 84;12.3973
1REW A H 60;1REW B D 105;9.93117
1REW A H 60;1REW B M 106;17.0609
1REW A H 60;1REW B V 107;1.41493
1REW A H 60;1REW B V 108;13.6258
1REW A A 61;1REW A I 62;15.3526
1REW A A 61;1REW A V 63;0.580283
1REW A A 61;1REW A Q 64;9.57393
1REW A A 61;1REW A T 65;10.4247
1REW A A 61;1REW A A 77;13.0313
1REW A A 61;1REW A C 113;7.48457
1REW A A 61;1REW A R 114;13.1778
1REW A I 62;1REW A V 63;19.2754
1REW A I 62;1REW A Q 64;0.731245
1REW A I 62;1REW A T 65;10.0066
1REW A I 62;1REW A L 66;17.0115
1REW A V 63;1REW A Q 64;19.496
1REW A V 63;1REW A T 65;1.04865
1REW A V 63;1REW A L 66;11.9409
1REW A V 63;1REW A V 67;17.7109
1REW A V 63;1REW B L 19;1.02832
1REW A V 63;1REW B V 21;13.8122
1REW A V 63;1REW B F 23;0.138505
1REW A V 63;1REW B W 28;15.0922
1REW A V 63;1REW B Y 38;15.1812
1REW A V 63;1REW B A 40;3.85581
1REW A V 63;1REW B M 106;9.37892
1REW A Q 64;1REW A T 65;18.2746
1REW A Q 64;1REW A L 66;0.784477
1REW A Q 64;1REW A V 67;10.2835
1REW A Q 64;1REW A N 68;9.03463
1REW A Q 64;1REW A I 74;11.8511
1REW A Q 64;1REW A P 75;18.398
1REW A Q 64;1REW A K 76;7.75734
1REW A Q 64;1REW A A 77;13.9398
1REW A Q 64;1REW A R 114;4.84196
1REW A Q 64;1REW B L 19;8.46925
1REW A Q 64;1REW B Y 42;15.9159
1REW A Q 64;1REW B C 43;6.11807
1REW A Q 64;1REW B P 81;2.84397
1REW A T 65;1REW A L 66;19.0598
1REW A T 65;1REW A V 67;0.707577
1REW A T 65;1REW A N 68;12.9237
1REW A T 65;1REW A S 69;10.2171
1REW A T 65;1REW A K 76;6.69825
1REW A T 65;1REW A A 77;11.6452
1REW A L 66;1REW A V 67;19.5718
1REW A L 66;1REW A N 68;0.858166
1REW A L 66;1REW A S 69;14.622
1REW A L 66;1REW A V 70;9.86514
1REW A L 66;1REW B V 26;0.122645
1REW A L 66;1REW B W 28;20.5878
1REW A V 67;1REW A N 68;15.4143
1REW A V 67;1REW A S 69;1.26488
1REW A V 67;1REW A V 70;15.2174
1REW A V 67;1REW A N 71;12.067
1REW A V 67;1REW A I 74;19.3751
1REW A V 67;1REW B L 19;17.3214
1REW A V 67;1REW B V 21;14.3231
1REW A V 67;1REW B V 26;14.5102
1REW A V 67;1REW B W 28;1.14417
1REW A N 68;1REW A S 69;27.1295
1REW A N 68;1REW A V 70;1.23311
1REW A N 68;1REW A N 71;9.47147
1REW A N 68;1REW A S 72;26.237
1REW A N 68;1REW A I 74;16.7605
1REW A N 68;1REW A P 75;8.09028
1REW A N 68;1REW A K 76;34.2709
1REW A S 69;1REW A V 70;20.8046
1REW A S 69;1REW A N 71;0.394804
1REW A V 70;1REW A N 71;32.8313
1REW A V 70;1REW B D 25;4.44431
1REW A V 70;1REW B V 26;18.912
1REW A N 71;1REW A S 72;22.7069
1REW A N 71;1REW A K 73;34.675
1REW A N 71;1REW A I 74;15.8703
1REW A S 72;1REW A K 73;25.1774
1REW A S 72;1REW A I 74;7.69393
1REW A S 72;1REW A P 75;3.67369
1REW A K 73;1REW A I 74;27.8813
1REW A K 73;1REW A P 75;8.6361
1REW A K 73;1REW B Y 42;5.28233
1REW A I 74;1REW A P 75;29.7881
1REW A I 74;1REW B P 18;1.72407
1REW A I 74;1REW B L 19;24.0041
1REW A I 74;1REW B Y 42;19.1967
1REW A P 75;1REW A K 76;32.1984
1REW A P 75;1REW A A 77;0.00517798
1REW A P 75;1REW B Y 42;22.216
1REW A P 75;1REW B C 43;3.10979
1REW A P 75;1REW B H 44;23.4703
1REW A K 76;1REW A A 77;35.7769
1REW A K 76;1REW A C 78;2.07447
1REW A A 77;1REW A C 78;24.6941
1REW A A 77;1REW A C 113;5.66848
1REW A A 77;1REW A R 114;12.7176
1REW A C 78;1REW A C 79;28.3545
1REW A C 78;1REW A V 80;9.98811
1REW A C 78;1REW A G 112;1.74314
1REW A C 78;1REW A C 113;3.93325
1REW A C 78;1REW A R 114;15.403
1REW A C 78;1REW B C 78;27.598
1REW A C 78;1REW B C 79;2.21054
1REW A C 78;1REW B V 80;10.9122
1REW A C 79;1REW A V 80;22.2003
1REW A C 79;1REW A C 111;4.09564
1REW A C 79;1REW A G 112;3.42691
1REW A C 79;1REW A C 113;1.63781
1REW A C 79;1REW B C 78;2.43075
1REW A V 80;1REW A P 81;31.5224
1REW A V 80;1REW A T 82;5.89932
1REW A V 80;1REW A C 111;4.37707
1REW A V 80;1REW A G 112;15.0097
1REW A V 80;1REW A R 114;15.356
1REW A V 80;1REW B C 78;10.9023
1REW A V 80;1REW B V 80;17.6714
1REW A V 80;1REW B R 114;17.0653
1REW A P 81;1REW A T 82;24.1808
1REW A P 81;1REW A E 83;3.5768
1REW A P 81;1REW A L 84;21.6098
1REW A P 81;1REW A V 108;13.8731
1REW A P 81;1REW A G 110;4.03813
1REW A P 81;1REW A C 111;1.13303
1REW A P 81;1REW A R 114;0.264393
1REW A P 81;1REW B T 58;0.632172
1REW A P 81;1REW B H 60;8.62622
1REW A P 81;1REW B Q 64;2.65625
1REW A P 81;1REW B R 114;25.0632
1REW A T 82;1REW A E 83;32.886
1REW A T 82;1REW A L 84;0.949604
1REW A T 82;1REW A G 110;11.5824
1REW A T 82;1REW A C 111;9.45018
1REW A T 82;1REW A G 112;14.0302
1REW A T 82;1REW A C 113;0.00657801
1REW A T 82;1REW A R 114;34.2709
1REW A E 83;1REW A L 84;37.1335
1REW A E 83;1REW A V 108;3.5429
1REW A E 83;1REW A E 109;30.3449
1REW A E 83;1REW A G 110;17.5539
1REW A L 84;1REW A S 85;24.8533
1REW A L 84;1REW A D 105;33.508
1REW A L 84;1REW A M 106;0.578843
1REW A L 84;1REW A V 107;12.1367
1REW A L 84;1REW A V 108;9.11686
1REW A L 84;1REW A E 109;5.5128
1REW A L 84;1REW B T 58;17.3692
1REW A L 84;1REW B H 60;12.432
1REW A S 85;1REW A A 86;32.8258
1REW A S 85;1REW A D 105;7.07416
1REW A S 85;1REW A M 106;7.02227
1REW A S 85;1REW A V 107;26.0823
1REW A S 85;1REW A E 109;22.8772
1REW A A 86;1REW A I 87;29.37
1REW A A 86;1REW A N 102;14.5218
1REW A A 86;1REW A Y 103;7.43282
1REW A A 86;1REW A Q 104;19.0616
1REW A A 86;1REW A D 105;3.11968
1REW A A 86;1REW A M 106;2.13943
1REW A A 86;1REW A V 107;1.3598
1REW A I 87;1REW A S 88;30.3532
1REW A I 87;1REW A M 89;18.6815
1REW A I 87;1REW A K 101;0.478502
1REW A I 87;1REW A N 102;7.49815
1REW A I 87;1REW A Y 103;20.1699
1REW A I 87;1REW A M 106;18.9295
1REW A I 87;1REW A V 107;14.627
1REW A S 88;1REW A M 89;23.6958
1REW A S 88;1REW A L 100;17.7916
1REW A S 88;1REW A K 101;5.44919
1REW A S 88;1REW A N 102;18.6503
1REW A S 88;1REW A Y 103;0.00248716
1REW A M 89;1REW A L 90;22.3673
1REW A M 89;1REW A Y 91;8.16813
1REW A M 89;1REW A V 99;1.49945
1REW A M 89;1REW A L 100;10.8302
1REW A M 89;1REW A K 101;15.4566
1REW A M 89;1REW A Y 103;27.3867
1REW A M 89;1REW A M 106;2.39038
1REW A L 90;1REW A Y 91;19.9655
1REW A L 90;1REW A V 98;17.0452
1REW A L 90;1REW A V 99;8.83721
1REW A L 90;1REW A L 100;25.8931
1REW A Y 91;1REW A L 92;26.3676
1REW A Y 91;1REW A D 93;15.5854
1REW A Y 91;1REW A K 97;3.06751
1REW A Y 91;1REW A V 98;7.54706
1REW A Y 91;1REW A V 99;41.6659
1REW A Y 91;1REW A K 101;22.6366
1REW A Y 91;1REW A Y 103;13.7616
1REW A L 92;1REW A D 93;27.7934
1REW A L 92;1REW A E 96;35.6364
1REW A L 92;1REW A K 97;9.00756
1REW A L 92;1REW A V 98;12.9066
1REW A D 93;1REW A E 94;32.3961
1REW A D 93;1REW A N 95;18.0488
1REW A D 93;1REW A E 96;12.1138
1REW A D 93;1REW A K 97;24.587
1REW A D 93;1REW A V 99;15.5321
1REW A E 94;1REW A N 95;31.9013
1REW A E 94;1REW A E 96;3.32613
1REW A N 95;1REW A E 96;27.368
1REW A N 95;1REW A K 97;29.3718
1REW A E 96;1REW A K 97;29.8954
1REW A E 96;1REW A V 98;1.02705
1REW A K 97;1REW A V 98;29.4076
1REW A K 97;1REW A V 99;7.93853
1REW A V 98;1REW A V 99;26.6559
1REW A V 98;1REW A L 100;1.1991
1REW A V 99;1REW A L 100;33.5779
1REW A V 99;1REW A K 101;6.38117
1REW A L 100;1REW A K 101;28.5753
1REW A L 100;1REW A N 102;1.88417
1REW A K 101;1REW A N 102;36.6674
1REW A K 101;1REW A Y 103;36.8439
1REW A N 102;1REW A Y 103;23.1352
1REW A N 102;1REW A Q 104;23.0765
1REW A Y 103;1REW A Q 104;19.5889
1REW A Y 103;1REW A M 106;18.6795
1REW A Y 103;1REW B N 59;14.1831
1REW A Q 104;1REW A D 105;35.0293
1REW A Q 104;1REW A M 106;5.75245
1REW A Q 104;1REW B N 59;14.982
1REW A D 105;1REW A M 106;16.9091
1REW A D 105;1REW A V 107;0.469086
1REW A D 105;1REW B T 58;18.6682
1REW A D 105;1REW B N 59;9.09728
1REW A D 105;1REW B H 60;9.90713
1REW A M 106;1REW A V 107;22.5205
1REW A M 106;1REW B N 59;15.5922
1REW A M 106;1REW B H 60;18.6235
1REW A M 106;1REW B V 63;10.4709
1REW A V 107;1REW A V 108;22.2929
1REW A V 107;1REW A E 109;14.5517
1REW A V 107;1REW B H 60;1.51065
1REW A V 108;1REW A E 109;18.187
1REW A V 108;1REW A G 110;10.5892
1REW A V 108;1REW A C 111;4.78543
1REW A V 108;1REW B H 60;13.4944
1REW A E 109;1REW A G 110;25.0256
1REW A G 110;1REW A C 111;23.5558
1REW A C 111;1REW A G 112;19.0253
1REW A G 112;1REW A C 113;17.4417
1REW A G 112;1REW A R 114;3.93711
1REW A C 113;1REW A R 114;21.979
1REW A R 114;1REW B V 80;16.5623
1REW A R 114;1REW B P 81;25.7617
1REW A R 114;1REW B L 84;0.000192347
1REW B S 12;1REW B S 13;32.5192
1REW B S 12;1REW B K 15;8.12256
1REW B S 12;1REW B H 17;6.59152
1REW B S 12;1REW B H 44;0.0880837
1REW B S 12;1REW B G 45;9.99061
1REW B S 12;1REW B E 46;16.1109
1REW B S 13;1REW B C 14;22.7375
1REW B S 13;1REW B K 15;12.9338
1REW B S 13;1REW B H 17;0.169899
1REW B S 13;1REW B H 44;2.47391
1REW B S 13;1REW B G 45;3.86169
1REW B S 13;1REW B E 46;14.8478
1REW B S 13;1REW B P 48;17.29
1REW B S 13;1REW B H 54;1.96676
1REW B S 13;1REW B L 55;6.5028
1REW B C 14;1REW B K 15;24.2367
1REW B C 14;1REW B H 44;2.34135
1REW B C 14;1REW B G 45;8.47277
1REW B C 14;1REW B E 46;10.2902
1REW B C 14;1REW B C 47;2.66798
1REW B C 14;1REW B H 54;5.1157
1REW B C 14;1REW B L 55;22.0726
1REW B C 14;1REW B C 79;19.3105
1REW B C 14;1REW B V 80;0.0123733
1REW B C 14;1REW B C 111;7.06415
1REW B C 14;1REW B G 112;10.2748
1REW B C 14;1REW B C 113;8.95175
1REW B K 15;1REW B R 16;36.9837
1REW B K 15;1REW B H 17;27.4441
1REW B K 15;1REW B P 18;0.652451
1REW B K 15;1REW B Y 42;0.28251
1REW B K 15;1REW B C 43;3.83382
1REW B K 15;1REW B H 44;11.5249
1REW B K 15;1REW B C 79;4.45703
1REW B K 15;1REW B C 111;10.6553
1REW B R 16;1REW B H 17;26.6978
1REW B R 16;1REW B P 18;1.47039
1REW B R 16;1REW B F 41;41.9832
1REW B R 16;1REW B Y 42;6.63897
1REW B R 16;1REW B C 43;0.459528
1REW B R 16;1REW B V 107;0.583084
1REW B R 16;1REW B V 108;19.7762
1REW B R 16;1REW B E 109;21.8899
1REW B R 16;1REW B G 110;4.76094
1REW B R 16;1REW B C 111;16.2244
1REW B H 17;1REW B P 18;35.2019
1REW B H 17;1REW B L 19;0.0532604
1REW B H 17;1REW B F 41;10.2251
1REW B H 17;1REW B Y 42;41.6319
1REW B H 17;1REW B C 43;0.406811
1REW B H 17;1REW B H 44;22.9276
1REW B H 17;1REW B G 45;0.4179
1REW B P 18;1REW B L 19;28.2487
1REW B P 18;1REW B Y 20;0.010089
1REW B P 18;1REW B H 39;3.13073
1REW B P 18;1REW B F 41;14.1884
1REW B P 18;1REW B Y 42;10.3891
1REW B L 19;1REW B Y 20;36.0282
1REW B L 19;1REW B V 21;13.5285
1REW B L 19;1REW B Y 38;0.055496
1REW B L 19;1REW B H 39;8.90894
1REW B L 19;1REW B A 40;14.4778
1REW B L 19;1REW B F 41;25.2257
1REW B L 19;1REW B Y 42;14.4119
1REW B Y 20;1REW B V 21;23.6026
1REW B Y 20;1REW B D 22;28.8993
1REW B Y 20;1REW B P 36;6.5761
1REW B Y 20;1REW B G 37;17.7704
1REW B Y 20;1REW B Y 38;16.4933
1REW B Y 20;1REW B H 39;36.0175
1REW B V 21;1REW B D 22;20.9569
1REW B V 21;1REW B F 23;13.916
1REW B V 21;1REW B V 26;12.4631
1REW B V 21;1REW B W 28;5.19314
1REW B V 21;1REW B G 37;6.38582
1REW B V 21;1REW B Y 38;28.9428
1REW B V 21;1REW B A 40;10.3765
1REW B D 22;1REW B F 23;17.205
1REW B D 22;1REW B S 24;16.9376
1REW B D 22;1REW B D 25;30.6291
1REW B D 22;1REW B V 26;12.0359
1REW B D 22;1REW B P 36;12.6843
1REW B D 22;1REW B G 37;2.93362
1REW B F 23;1REW B S 24;18.4866
1REW B F 23;1REW B D 25;0.746169
1REW B F 23;1REW B V 26;12.1461
1REW B F 23;1REW B G 27;3.92646
1REW B F 23;1REW B W 28;27.4521
1REW B F 23;1REW B N 29;12.3986
1REW B F 23;1REW B I 32;26.6612
1REW B F 23;1REW B P 35;15.3302
1REW B F 23;1REW B P 36;16.2681
1REW B F 23;1REW B G 37;10.8853
1REW B F 23;1REW B Y 38;16.699
1REW B F 23;1REW B I 87;0.512594
1REW B F 23;1REW B M 89;11.8062
1REW B F 23;1REW B M 106;1.26075
1REW B S 24;1REW B D 25;26.6095
1REW B S 24;1REW B V 26;0.90086
1REW B S 24;1REW B G 27;7.61743
1REW B S 24;1REW B N 29;27.4911
1REW B S 24;1REW B P 36;2.58296
1REW B D 25;1REW B V 26;22.069
1REW B D 25;1REW B G 27;1.51327
1REW B V 26;1REW B G 27;15.4178
1REW B V 26;1REW B W 28;26.4716
1REW B G 27;1REW B W 28;20.8392
1REW B G 27;1REW B N 29;10.7108
1REW B G 27;1REW B D 30;11.4305
1REW B G 27;1REW B W 31;0.282529
1REW B W 28;1REW B N 29;16.7994
1REW B W 28;1REW B D 30;6.48482
1REW B W 28;1REW B W 31;30.7915
1REW B W 28;1REW B I 32;22.5093
1REW B N 29;1REW B D 30;31.9261
1REW B N 29;1REW B W 31;1.55807
1REW B N 29;1REW B I 32;15.7515
1REW B N 29;1REW B V 33;2.68656
1REW B D 30;1REW B W 31;37.3973
1REW B D 30;1REW B I 32;0.140054
1REW B D 30;1REW B V 33;0.716095
1REW B D 30;1REW B L 92;11.4593
1REW B W 31;1REW B I 32;38.1197
1REW B W 31;1REW B V 33;5.07746
1REW B W 31;1REW B M 89;2.61492
1REW B W 31;1REW B Y 91;22.8718
1REW B W 31;1REW B L 92;25.6073
1REW B W 31;1REW B Y 103;6.46662
1REW B I 32;1REW B V 33;23.4233
1REW B I 32;1REW B A 34;9.56224
1REW B I 32;1REW B P 35;8.15412
1REW B I 32;1REW B M 89;20.7158
1REW B I 32;1REW B L 90;5.45292
1REW B I 32;1REW B Y 91;7.37996
1REW B V 33;1REW B A 34;30.0478
1REW B V 33;1REW B P 35;1.44342
1REW B V 33;1REW B P 36;2.80429
1REW B V 33;1REW B L 90;22.855
1REW B V 33;1REW B Y 91;6.57254
1REW B V 33;1REW B L 92;17.904
1REW B V 33;1REW B V 98;14.9745
1REW B A 34;1REW B P 35;33.2646
1REW B A 34;1REW B P 36;3.37497
1REW B A 34;1REW B M 89;6.24514
1REW B A 34;1REW B L 90;27.6936
1REW B P 35;1REW B P 36;32.1536
1REW B P 35;1REW B G 37;17.4742
1REW B P 35;1REW B Y 38;6.75387
1REW B P 35;1REW B I 87;7.82683
1REW B P 35;1REW B S 88;10.2936
1REW B P 35;1REW B M 89;10.948
1REW B P 36;1REW B G 37;20.1199
1REW B G 37;1REW B Y 38;22.6165
1REW B Y 38;1REW B H 39;26.0092
1REW B Y 38;1REW B A 40;18.0811
1REW B Y 38;1REW B I 87;25.6525
1REW B Y 38;1REW B M 89;0.265514
1REW B Y 38;1REW B M 106;27.0672
1REW B Y 38;1REW B V 107;8.76983
1REW B H 39;1REW B A 40;15.5314
1REW B H 39;1REW B F 41;28.1055
1REW B H 39;1REW B V 107;13.0355
1REW B A 40;1REW B F 41;24.801
1REW B A 40;1REW B M 106;5.34405
1REW B A 40;1REW B V 107;7.33538
1REW B A 40;1REW B V 108;7.89235
1REW B F 41;1REW B Y 42;19.5303
1REW B F 41;1REW B V 107;11.3313
1REW B F 41;1REW B V 108;14.4839
1REW B Y 42;1REW B C 43;29.618
1REW B Y 42;1REW B H 44;11.8477
1REW B Y 42;1REW B P 81;0.0839113
1REW B Y 42;1REW B V 108;7.04039
1REW B Y 42;1REW B C 111;0.985619
1REW B C 43;1REW B H 44;23.1328
1REW B C 43;1REW B C 79;17.3365
1REW B C 43;1REW B V 80;9.33876
1REW B C 43;1REW B P 81;16.4663
1REW B C 43;1REW B V 108;8.03834
1REW B C 43;1REW B G 110;0.387849
1REW B C 43;1REW B C 111;18.3463
1REW B H 44;1REW B G 45;33.8369
1REW B H 44;1REW B C 79;12.5407
1REW B G 45;1REW B E 46;23.4631
1REW B G 45;1REW B C 47;4.31605
1REW B G 45;1REW B C 79;14.0083
1REW B E 46;1REW B C 47;25.3277
1REW B E 46;1REW B P 48;26.8685
1REW B E 46;1REW B L 55;0.831788
1REW B E 46;1REW B K 76;25.7003
1REW B E 46;1REW B C 113;0.467786
1REW B C 47;1REW B P 48;23.2464
1REW B C 47;1REW B F 49;0.0121744
1REW B C 47;1REW B L 51;10.3026
1REW B C 47;1REW B L 55;0.476091
1REW B C 47;1REW B T 65;9.58941
1REW B C 47;1REW B K 76;17.4898
1REW B C 47;1REW B A 77;20.8395
1REW B C 47;1REW B C 78;5.1212
1REW B C 47;1REW B C 79;7.6061
1REW B C 47;1REW B C 113;20.0407
1REW B P 48;1REW B F 49;28.5534
1REW B P 48;1REW B P 50;10.0513
1REW B P 48;1REW B L 51;12.2747
1REW B P 48;1REW B L 55;11.7772
1REW B P 48;1REW B T 65;4.86148
1REW B P 48;1REW B K 76;3.67878
1REW B F 49;1REW B P 50;35.2869
1REW B F 49;1REW B L 51;0.231183
1REW B F 49;1REW B I 62;0.0289702
1REW B F 49;1REW B T 65;22.2628
1REW B F 49;1REW B L 66;17.9163
1REW B F 49;1REW B S 69;2.489
1REW B P 50;1REW B L 51;20.9873
1REW B P 50;1REW B A 52;6.40693
1REW B P 50;1REW B L 55;0.652201
1REW B P 50;1REW B T 65;0.0914997
1REW B L 51;1REW B A 52;26.1849
1REW B L 51;1REW B L 55;13.7935
1REW B L 51;1REW B S 57;17.6428
1REW B L 51;1REW B A 61;8.20464
1REW B L 51;1REW B I 62;14.7928
1REW B L 51;1REW B T 65;16.8293
1REW B L 51;1REW B A 77;2.51795
1REW B L 51;1REW B C 113;10.6072
1REW B A 52;1REW B D 53;22.1539
1REW B A 52;1REW B H 54;14.0305
1REW B A 52;1REW B L 55;24.2529
1REW B A 52;1REW B N 56;2.1421
1REW B A 52;1REW B S 57;1.64259
1REW B D 53;1REW B H 54;26.9976
1REW B D 53;1REW B L 55;2.2874
1REW B D 53;1REW B N 56;13.7574
1REW B H 54;1REW B L 55;34.9344
1REW B H 54;1REW B N 56;17.5796
1REW B H 54;1REW B C 111;5.98265
1REW B L 55;1REW B N 56;21.1625
1REW B L 55;1REW B S 57;12.6487
1REW B L 55;1REW B T 82;0.0733321
1REW B L 55;1REW B C 111;4.18023
1REW B L 55;1REW B G 112;12.3419
1REW B L 55;1REW B C 113;20.0035
1REW B L 55;1REW B R 114;0.103038
1REW B N 56;1REW B S 57;21.1631
1REW B N 56;1REW B T 58;0.0787855
1REW B N 56;1REW B T 82;16.4174
1REW B N 56;1REW B G 110;1.76917
1REW B N 56;1REW B C 111;8.88027
1REW B N 56;1REW B G 112;2.6945
1REW B N 56;1REW B C 113;0.0437037
1REW B N 56;1REW B R 114;20.3145
1REW B S 57;1REW B T 58;27.3564
1REW B S 57;1REW B N 59;0.802758
1REW B S 57;1REW B A 61;4.5705
1REW B S 57;1REW B I 62;14.7785
1REW B S 57;1REW B C 113;14.2872
1REW B S 57;1REW B R 114;1.43975
1REW B T 58;1REW B N 59;20.6891
1REW B T 58;1REW B H 60;10.2616
1REW B T 58;1REW B A 61;17.0688
1REW B T 58;1REW B I 62;10.7559
1REW B T 58;1REW B C 113;1.27004
1REW B T 58;1REW B R 114;32.8714
1REW B N 59;1REW B H 60;15.011
1REW B N 59;1REW B A 61;0.722205
1REW B N 59;1REW B I 62;14.3262
1REW B N 59;1REW B V 63;9.47376
1REW B H 60;1REW B A 61;19.4512
1REW B H 60;1REW B I 62;0.916766
1REW B H 60;1REW B V 63;10.5225
1REW B H 60;1REW B Q 64;27.4643
1REW B H 60;1REW B R 114;3.49223
1REW B A 61;1REW B I 62;15.1931
1REW B A 61;1REW B V 63;0.490206
1REW B A 61;1REW B Q 64;9.76647
1REW B A 61;1REW B T 65;10.3661
1REW B A 61;1REW B A 77;12.9441
1REW B A 61;1REW B C 113;7.4041
1REW B A 61;1REW B R 114;12.4631
1REW B I 62;1REW B V 63;19.216
1REW B I 62;1REW B Q 64;0.812015
1REW B I 62;1REW B T 65;10.1238
1REW B I 62;1REW B L 66;16.9412
1REW B V 63;1REW B Q 64;19.2065
1REW B V 63;1REW B T 65;1.04647
1REW B V 63;1REW B L 66;14.0877
1REW B V 63;1REW B V 67;17.7888
1REW B Q 64;1REW B T 65;18.1322
1REW B Q 64;1REW B L 66;0.710309
1REW B Q 64;1REW B V 67;10.902
1REW B Q 64;1REW B N 68;9.24754
1REW B Q 64;1REW B I 74;11.0191
1REW B Q 64;1REW B P 75;18.5939
1REW B Q 64;1REW B K 76;8.03796
1REW B Q 64;1REW B A 77;13.7288
1REW B Q 64;1REW B R 114;5.12847
1REW B T 65;1REW B L 66;19.4505
1REW B T 65;1REW B V 67;0.722153
1REW B T 65;1REW B N 68;12.8779
1REW B T 65;1REW B S 69;10.2662
1REW B T 65;1REW B K 76;6.7706
1REW B T 65;1REW B A 77;11.226
1REW B L 66;1REW B V 67;19.5933
1REW B L 66;1REW B N 68;0.893081
1REW B L 66;1REW B S 69;14.4087
1REW B L 66;1REW B V 70;9.00342
1REW B V 67;1REW B N 68;15.8542
1REW B V 67;1REW B S 69;1.12837
1REW B V 67;1REW B V 70;12.4909
1REW B V 67;1REW B N 71;15.6314
1REW B V 67;1REW B I 74;17.0815
1REW B N 68;1REW B S 69;26.8218
1REW B N 68;1REW B V 70;1.34542
1REW B N 68;1REW B N 71;9.23643
1REW B N 68;1REW B S 72;23.2003
1REW B N 68;1REW B I 74;16.8432
1REW B N 68;1REW B P 75;7.59213
1REW B N 68;1REW B K 76;35.15
1REW B S 69;1REW B V 70;19.6614
1REW B S 69;1REW B N 71;0.173029
1REW B V 70;1REW B N 71;30.661
1REW B V 70;1REW B S 72;0.115637
1REW B N 71;1REW B S 72;20.4278
1REW B N 71;1REW B K 73;24.9415
1REW B N 71;1REW B I 74;25.7599
1REW B S 72;1REW B K 73;27.5343
1REW B S 72;1REW B I 74;7.82012
1REW B S 72;1REW B P 75;2.29297
1REW B K 73;1REW B I 74;24.8114
1REW B K 73;1REW B P 75;8.80548
1REW B I 74;1REW B P 75;30.6221
1REW B P 75;1REW B K 76;32.7119
1REW B K 76;1REW B A 77;35.4464
1REW B K 76;1REW B C 78;2.92005
1REW B A 77;1REW B C 78;24.0132
1REW B A 77;1REW B C 113;6.03228
1REW B A 77;1REW B R 114;12.8946
1REW B C 78;1REW B C 79;28.2288
1REW B C 78;1REW B V 80;9.9082
1REW B C 78;1REW B G 112;1.87118
1REW B C 78;1REW B C 113;3.71437
1REW B C 78;1REW B R 114;15.5352
1REW B C 79;1REW B V 80;22.4609
1REW B C 79;1REW B C 111;3.9043
1REW B C 79;1REW B G 112;3.55662
1REW B C 79;1REW B C 113;1.35856
1REW B V 80;1REW B P 81;31.6148
1REW B V 80;1REW B T 82;6.55698
1REW B V 80;1REW B C 111;4.30788
1REW B V 80;1REW B G 112;15.0317
1REW B V 80;1REW B R 114;15.1997
1REW B P 81;1REW B T 82;23.7377
1REW B P 81;1REW B E 83;3.47933
1REW B P 81;1REW B L 84;20.8755
1REW B P 81;1REW B V 108;14.0144
1REW B P 81;1REW B G 110;3.84377
1REW B P 81;1REW B C 111;1.17647
1REW B P 81;1REW B R 114;0.181261
1REW B T 82;1REW B E 83;33.1973
1REW B T 82;1REW B L 84;0.519988
1REW B T 82;1REW B G 110;10.9876
1REW B T 82;1REW B C 111;6.94955
1REW B T 82;1REW B G 112;12.3838
1REW B T 82;1REW B C 113;9.53756e-07
1REW B T 82;1REW B R 114;31.1118
1REW B E 83;1REW B L 84;36.985
1REW B E 83;1REW B S 85;0.0590834
1REW B E 83;1REW B V 108;3.44564
1REW B E 83;1REW B E 109;30.8751
1REW B E 83;1REW B G 110;17.5038
1REW B L 84;1REW B S 85;25.0537
1REW B L 84;1REW B D 105;33.5878
1REW B L 84;1REW B M 106;0.543349
1REW B L 84;1REW B V 107;12.2667
1REW B L 84;1REW B V 108;9.09039
1REW B L 84;1REW B E 109;4.84071
1REW B S 85;1REW B A 86;32.4886
1REW B S 85;1REW B Q 104;0.00551938
1REW B S 85;1REW B D 105;7.14202
1REW B S 85;1REW B M 106;6.54147
1REW B S 85;1REW B V 107;25.5288
1REW B S 85;1REW B E 109;23.3351
1REW B A 86;1REW B I 87;29.7591
1REW B A 86;1REW B N 102;14.5956
1REW B A 86;1REW B Y 103;7.89158
1REW B A 86;1REW B Q 104;18.8274
1REW B A 86;1REW B D 105;2.96926
1REW B A 86;1REW B M 106;2.31251
1REW B A 86;1REW B V 107;1.39858
1REW B I 87;1REW B S 88;30.1852
1REW B I 87;1REW B M 89;16.2145
1REW B I 87;1REW B K 101;0.513396
1REW B I 87;1REW B N 102;7.40015
1REW B I 87;1REW B Y 103;19.5226
1REW B I 87;1REW B M 106;20.2196
1REW B I 87;1REW B V 107;15.0985
1REW B S 88;1REW B M 89;23.207
1REW B S 88;1REW B L 100;17.2134
1REW B S 88;1REW B K 101;6.06613
1REW B S 88;1REW B N 102;17.6622
1REW B M 89;1REW B L 90;21.8775
1REW B M 89;1REW B Y 91;8.13377
1REW B M 89;1REW B V 99;1.97231
1REW B M 89;1REW B L 100;11.6649
1REW B M 89;1REW B K 101;15.1604
1REW B M 89;1REW B Y 103;28.2393
1REW B M 89;1REW B M 106;8.28221
1REW B L 90;1REW B Y 91;19.2751
1REW B L 90;1REW B V 98;19.8811
1REW B L 90;1REW B V 99;10.0527
1REW B L 90;1REW B L 100;24.754
1REW B Y 91;1REW B L 92;24.2695
1REW B Y 91;1REW B D 93;20.4031
1REW B Y 91;1REW B K 97;2.37924
1REW B Y 91;1REW B V 98;7.20376
1REW B Y 91;1REW B V 99;39.9497
1REW B Y 91;1REW B K 101;26.0081
1REW B Y 91;1REW B Y 103;13.4823
1REW B L 92;1REW B D 93;28.4121
1REW B L 92;1REW B E 94;0.288913
1REW B L 92;1REW B E 96;30.0472
1REW B L 92;1REW B K 97;5.26589
1REW B L 92;1REW B V 98;15.7432
1REW B D 93;1REW B E 94;33.8945
1REW B D 93;1REW B N 95;20.9495
1REW B D 93;1REW B E 96;8.36739
1REW B D 93;1REW B K 97;28.839
1REW B D 93;1REW B V 99;10.8443
1REW B E 94;1REW B N 95;42.2335
1REW B N 95;1REW B E 96;30.194
1REW B N 95;1REW B K 97;11.0837
1REW B E 96;1REW B K 97;23.2256
1REW B E 96;1REW B V 98;6.85708
1REW B K 97;1REW B V 98;30.7443
1REW B K 97;1REW B V 99;27.0148
1REW B V 98;1REW B V 99;24.4563
1REW B V 99;1REW B L 100;31.3199
1REW B V 99;1REW B K 101;4.53262
1REW B L 100;1REW B K 101;30.9892
1REW B L 100;1REW B N 102;0.807412
1REW B K 101;1REW B N 102;36.097
1REW B K 101;1REW B Y 103;35.3235
1REW B N 102;1REW B Y 103;22.3157
1REW B N 102;1REW B Q 104;24.8203
1REW B Y 103;1REW B Q 104;19.3949
1REW B Y 103;1REW B M 106;19.6571
1REW B Q 104;1REW B D 105;35.2559
1REW B Q 104;1REW B M 106;5.93828
1REW B D 105;1REW B M 106;16.7383
1REW B D 105;1REW B V 107;0.475445
1REW B M 106;1REW B V 107;23.1694
1REW B V 107;1REW B V 108;22.4569
1REW B V 107;1REW B E 109;14.9257
1REW B V 108;1REW B E 109;18.2106
1REW B V 108;1REW B G 110;10.2275
1REW B V 108;1REW B C 111;4.89339
1REW B E 109;1REW B G 110;25.2778
1REW B G 110;1REW B C 111;23.3416
1REW B C 111;1REW B G 112;18.1239
1REW B G 112;1REW B C 113;17.5607
1REW B G 112;1REW B R 114;3.49246
1REW B C 113;1REW B R 114;22.8506
