V1;V2;Weight
1S1Q A V 3;1S1Q A S 4;35.8544
1S1Q A V 3;1S1Q A Q 7;26.2831
1S1Q A V 3;1S1Q A L 8;3.01067
1S1Q A V 3;1S1Q A I 29;7.39193
1S1Q A V 3;1S1Q A K 36;7.14419
1S1Q A V 3;1S1Q A P 37;19.9747
1S1Q A S 4;1S1Q A E 5;26.164
1S1Q A S 4;1S1Q A S 6;12.6956
1S1Q A S 4;1S1Q A Q 7;25.2074
1S1Q A S 4;1S1Q A L 8;11.8611
1S1Q A S 4;1S1Q A I 29;1.12006
1S1Q A E 5;1S1Q A S 6;24.7198
1S1Q A E 5;1S1Q A Q 7;0.30755
1S1Q A E 5;1S1Q A L 8;14.012
1S1Q A E 5;1S1Q A K 9;17.3402
1S1Q A E 5;1S1Q A V 22;16.8082
1S1Q A E 5;1S1Q A R 23;8.56491
1S1Q A E 5;1S1Q A V 26;23.9958
1S1Q A S 6;1S1Q A Q 7;19.3555
1S1Q A S 6;1S1Q A L 8;1.584
1S1Q A S 6;1S1Q A K 9;12.2777
1S1Q A S 6;1S1Q A K 10;29.6411
1S1Q A Q 7;1S1Q A L 8;22.8643
1S1Q A Q 7;1S1Q A K 9;0.532969
1S1Q A Q 7;1S1Q A K 10;32.2096
1S1Q A L 8;1S1Q A K 9;16.7604
1S1Q A L 8;1S1Q A K 10;3.7937
1S1Q A L 8;1S1Q A V 12;25.5199
1S1Q A L 8;1S1Q A T 21;0.0815929
1S1Q A L 8;1S1Q A V 22;20.539
1S1Q A L 8;1S1Q A T 25;18.6485
1S1Q A L 8;1S1Q A V 26;12.7256
1S1Q A L 8;1S1Q A I 29;6.90463
1S1Q A L 8;1S1Q A P 37;22.8836
1S1Q A K 9;1S1Q A K 10;21.476
1S1Q A K 9;1S1Q A V 12;12.2016
1S1Q A K 9;1S1Q A S 13;10.1847
1S1Q A K 9;1S1Q A R 18;16.0492
1S1Q A K 9;1S1Q A D 19;22.5717
1S1Q A K 9;1S1Q A V 22;27.9941
1S1Q A K 9;1S1Q A R 23;4.12016
1S1Q A K 10;1S1Q A V 12;12.0387
1S1Q A K 10;1S1Q A S 13;22.1623
1S1Q A K 10;1S1Q A L 39;5.2475
1S1Q A V 12;1S1Q A S 13;18.1345
1S1Q A V 12;1S1Q A K 14;3.57373
1S1Q A V 12;1S1Q A Y 15;33.8327
1S1Q A V 12;1S1Q A R 18;17.8441
1S1Q A V 12;1S1Q A T 21;17.8276
1S1Q A V 12;1S1Q A V 22;12.2653
1S1Q A V 12;1S1Q A T 25;0.279236
1S1Q A V 12;1S1Q A L 39;12.733
1S1Q A V 12;1S1Q A L 76;2.08069
1S1Q A S 13;1S1Q A K 14;39.9264
1S1Q A S 13;1S1Q A Y 15;3.46779
1S1Q A S 13;1S1Q A R 18;22.8771
1S1Q A K 14;1S1Q A Y 15;29.9143
1S1Q A K 14;1S1Q A K 16;4.18177
1S1Q A K 14;1S1Q A E 51;18.1827
1S1Q A K 14;1S1Q A D 78;11.0341
1S1Q A Y 15;1S1Q A K 16;24.1069
1S1Q A Y 15;1S1Q A Y 17;7.35127
1S1Q A Y 15;1S1Q A R 18;22.2063
1S1Q A Y 15;1S1Q A T 21;14.5886
1S1Q A Y 15;1S1Q A L 39;7.88988
1S1Q A Y 15;1S1Q A E 51;5.67911
1S1Q A Y 15;1S1Q A L 52;19.4276
1S1Q A Y 15;1S1Q A N 54;1.26401
1S1Q A Y 15;1S1Q A L 76;20.5153
1S1Q A Y 15;1S1Q A L 77;6.06351
1S1Q A Y 15;1S1Q A D 78;25.7605
1S1Q A Y 15;1S1Q A Y 80;8.85152
1S1Q A K 16;1S1Q A Y 17;64.8826
1S1Q A K 16;1S1Q A R 18;3.86881
1S1Q A K 16;1S1Q A D 78;14.3691
1S1Q A K 16;1S1Q A T 79;5.39876
1S1Q A Y 17;1S1Q A R 18;20.3721
1S1Q A Y 17;1S1Q A D 19;2.64073
1S1Q A Y 17;1S1Q A L 20;22.2239
1S1Q A Y 17;1S1Q A T 21;11.0974
1S1Q A Y 17;1S1Q A D 78;1.97315
1S1Q A Y 17;1S1Q A T 79;15.5668
1S1Q A Y 17;1S1Q A Y 80;11.1779
1S1Q A Y 17;1S1Q A P 81;8.19763
1S1Q A Y 17;1S1Q A Y 82;31.3199
1S1Q A R 18;1S1Q A D 19;29.1324
1S1Q A R 18;1S1Q A L 20;0.912974
1S1Q A R 18;1S1Q A T 21;7.86651
1S1Q A R 18;1S1Q A V 22;11.6129
1S1Q A D 19;1S1Q A L 20;26.9225
1S1Q A D 19;1S1Q A T 21;0.690024
1S1Q A D 19;1S1Q A V 22;8.5848
1S1Q A D 19;1S1Q A R 23;26.9657
1S1Q A L 20;1S1Q A T 21;19.2626
1S1Q A L 20;1S1Q A V 22;0.816123
1S1Q A L 20;1S1Q A R 23;10.1756
1S1Q A L 20;1S1Q A E 24;18.0991
1S1Q A L 20;1S1Q A Y 80;0.271441
1S1Q A L 20;1S1Q A P 81;16.8895
1S1Q A L 20;1S1Q A Y 82;11.9844
1S1Q A L 20;1S1Q A H 119;20.0484
1S1Q A T 21;1S1Q A V 22;19.1848
1S1Q A T 21;1S1Q A R 23;0.803174
1S1Q A T 21;1S1Q A E 24;7.01864
1S1Q A T 21;1S1Q A T 25;17.3354
1S1Q A T 21;1S1Q A L 76;13.1546
1S1Q A T 21;1S1Q A Y 80;25.4102
1S1Q A T 21;1S1Q A P 81;2.90093
1S1Q A T 21;1S1Q A L 124;0.557476
1S1Q A V 22;1S1Q A R 23;23.4296
1S1Q A V 22;1S1Q A E 24;0.704152
1S1Q A V 22;1S1Q A T 25;8.28389
1S1Q A V 22;1S1Q A V 26;14.6678
1S1Q A R 23;1S1Q A E 24;20.2417
1S1Q A R 23;1S1Q A T 25;1.15053
1S1Q A R 23;1S1Q A V 26;16.2653
1S1Q A R 23;1S1Q A N 27;26.1543
1S1Q A E 24;1S1Q A T 25;16.349
1S1Q A E 24;1S1Q A V 26;0.417615
1S1Q A E 24;1S1Q A N 27;15.2908
1S1Q A E 24;1S1Q A V 28;10.7845
1S1Q A E 24;1S1Q A Y 80;16.2019
1S1Q A E 24;1S1Q A P 81;10.394
1S1Q A E 24;1S1Q A H 119;9.46606
1S1Q A E 24;1S1Q A S 122;3.11181
1S1Q A E 24;1S1Q A D 123;20.3466
1S1Q A E 24;1S1Q A L 124;19.6673
1S1Q A E 24;1S1Q A L 125;1.47304
1S1Q A T 25;1S1Q A V 26;16.2133
1S1Q A T 25;1S1Q A N 27;1.07844
1S1Q A T 25;1S1Q A V 28;9.46229
1S1Q A T 25;1S1Q A I 29;17.9889
1S1Q A T 25;1S1Q A P 37;8.52696
1S1Q A T 25;1S1Q A L 55;15.6661
1S1Q A T 25;1S1Q A L 76;7.89516
1S1Q A T 25;1S1Q A L 124;11.5607
1S1Q A V 26;1S1Q A N 27;24.7802
1S1Q A V 26;1S1Q A V 28;1.13431
1S1Q A V 26;1S1Q A I 29;16.7828
1S1Q A V 26;1S1Q A T 30;22.358
1S1Q A N 27;1S1Q A V 28;18.9366
1S1Q A N 27;1S1Q A I 29;0.242049
1S1Q A N 27;1S1Q A T 30;10.0291
1S1Q A N 27;1S1Q A L 31;15.1389
1S1Q A N 27;1S1Q A L 125;17.8723
1S1Q A V 28;1S1Q A I 29;22.0475
1S1Q A V 28;1S1Q A T 30;1.8694
1S1Q A V 28;1S1Q A L 31;5.4731
1S1Q A V 28;1S1Q A Y 32;16.7898
1S1Q A V 28;1S1Q A L 35;9.61766
1S1Q A V 28;1S1Q A L 55;12.6108
1S1Q A V 28;1S1Q A L 124;13.2064
1S1Q A V 28;1S1Q A L 125;18.1062
1S1Q A V 28;1S1Q A I 128;14.8353
1S1Q A I 29;1S1Q A T 30;24.0779
1S1Q A I 29;1S1Q A L 31;0.612693
1S1Q A I 29;1S1Q A Y 32;12.3283
1S1Q A I 29;1S1Q A K 33;14.6176
1S1Q A I 29;1S1Q A L 35;16.8329
1S1Q A I 29;1S1Q A K 36;1.7248
1S1Q A I 29;1S1Q A P 37;17.7102
1S1Q A I 29;1S1Q A L 55;9.34616
1S1Q A T 30;1S1Q A L 31;34.6616
1S1Q A T 30;1S1Q A Y 32;0.832774
1S1Q A T 30;1S1Q A K 33;14.9266
1S1Q A L 31;1S1Q A Y 32;38.4403
1S1Q A L 31;1S1Q A K 33;7.78926
1S1Q A L 31;1S1Q A L 125;26.1756
1S1Q A L 31;1S1Q A Q 129;10.8511
1S1Q A Y 32;1S1Q A K 33;20.5931
1S1Q A Y 32;1S1Q A D 34;3.95377
1S1Q A Y 32;1S1Q A L 35;23.249
1S1Q A Y 32;1S1Q A T 58;2.39765
1S1Q A Y 32;1S1Q A I 59;6.57608
1S1Q A Y 32;1S1Q A P 60;20.4561
1S1Q A Y 32;1S1Q A L 125;11.6133
1S1Q A Y 32;1S1Q A I 128;18.3599
1S1Q A Y 32;1S1Q A Q 129;21.795
1S1Q A Y 32;1S1Q A I 132;17.9014
1S1Q A K 33;1S1Q A D 34;34.15
1S1Q A K 33;1S1Q A L 35;10.0643
1S1Q A K 33;1S1Q A K 36;0.65583
1S1Q A D 34;1S1Q A L 35;20.2476
1S1Q A D 34;1S1Q A K 36;1.70577
1S1Q A D 34;1S1Q A T 56;1.64702
1S1Q A D 34;1S1Q A G 57;9.73154
1S1Q A D 34;1S1Q A T 58;31.0005
1S1Q A D 34;1S1Q A P 60;0.217012
1S1Q A D 34;1S1Q A N 69;5.47039
1S1Q A L 35;1S1Q A K 36;25.5417
1S1Q A L 35;1S1Q A P 37;0.109173
1S1Q A L 35;1S1Q A L 55;16.9354
1S1Q A L 35;1S1Q A T 56;9.14838
1S1Q A L 35;1S1Q A G 57;8.84076
1S1Q A L 35;1S1Q A T 58;11.1576
1S1Q A L 35;1S1Q A I 59;10.9116
1S1Q A L 35;1S1Q A I 72;14.8536
1S1Q A L 35;1S1Q A L 74;3.8822
1S1Q A L 35;1S1Q A I 128;10.286
1S1Q A K 36;1S1Q A P 37;30.9512
1S1Q A K 36;1S1Q A V 38;21.5267
1S1Q A K 36;1S1Q A N 54;1.85949
1S1Q A K 36;1S1Q A L 55;8.91106
1S1Q A K 36;1S1Q A T 56;34.4668
1S1Q A P 37;1S1Q A V 38;29.4291
1S1Q A P 37;1S1Q A N 54;6.12756
1S1Q A P 37;1S1Q A L 55;12.3447
1S1Q A V 38;1S1Q A L 39;36.3933
1S1Q A V 38;1S1Q A D 40;16.8754
1S1Q A V 38;1S1Q A L 52;2.16141
1S1Q A V 38;1S1Q A N 54;30.3326
1S1Q A V 38;1S1Q A T 56;13.7799
1S1Q A L 39;1S1Q A D 40;28.9315
1S1Q A L 39;1S1Q A E 51;36.3335
1S1Q A L 39;1S1Q A L 52;15.8696
1S1Q A L 39;1S1Q A N 54;0.0254174
1S1Q A D 40;1S1Q A S 41;29.0629
1S1Q A D 40;1S1Q A Y 42;1.70217
1S1Q A D 40;1S1Q A R 50;0.423462
1S1Q A D 40;1S1Q A E 51;9.53362
1S1Q A D 40;1S1Q A L 52;14.7366
1S1Q A D 40;1S1Q A N 54;13.3993
1S1Q A D 40;1S1Q A W 75;17.4983
1S1Q A S 41;1S1Q A Y 42;18.089
1S1Q A S 41;1S1Q A V 43;9.87958
1S1Q A S 41;1S1Q A S 49;14.1242
1S1Q A S 41;1S1Q A R 50;6.4483
1S1Q A S 41;1S1Q A E 51;11.8579
1S1Q A S 41;1S1Q A W 75;6.57819
1S1Q A Y 42;1S1Q A V 43;23.4877
1S1Q A Y 42;1S1Q A F 44;33.5527
1S1Q A Y 42;1S1Q A S 48;0.0901273
1S1Q A Y 42;1S1Q A S 49;7.46369
1S1Q A Y 42;1S1Q A R 50;15.1738
1S1Q A Y 42;1S1Q A L 52;15.1225
1S1Q A Y 42;1S1Q A W 75;32.5184
1S1Q A Y 42;1S1Q A I 86;22.264
1S1Q A Y 42;1S1Q A F 88;12.4908
1S1Q A Y 42;1S1Q A K 108;0.686966
1S1Q A V 43;1S1Q A F 44;21.8997
1S1Q A V 43;1S1Q A N 45;0.836589
1S1Q A V 43;1S1Q A G 47;6.36084
1S1Q A V 43;1S1Q A S 48;6.38998
1S1Q A V 43;1S1Q A S 49;14.8421
1S1Q A F 44;1S1Q A N 45;24.2405
1S1Q A F 44;1S1Q A D 46;12.4391
1S1Q A F 44;1S1Q A G 47;7.2447
1S1Q A F 44;1S1Q A S 48;23.7275
1S1Q A F 44;1S1Q A S 49;3.36986
1S1Q A F 44;1S1Q A R 50;19.0572
1S1Q A F 44;1S1Q A L 52;9.39061
1S1Q A F 44;1S1Q A L 77;14.7128
1S1Q A F 44;1S1Q A I 86;9.92621
1S1Q A N 45;1S1Q A D 46;20.1096
1S1Q A N 45;1S1Q A G 47;2.18075
1S1Q A D 46;1S1Q A G 47;17.6697
1S1Q A D 46;1S1Q A S 48;26.4691
1S1Q A G 47;1S1Q A S 48;25.986
1S1Q A G 47;1S1Q A S 49;4.06711
1S1Q A S 48;1S1Q A S 49;27.7142
1S1Q A S 48;1S1Q A R 50;2.81171
1S1Q A S 49;1S1Q A R 50;36.2611
1S1Q A R 50;1S1Q A E 51;26.2085
1S1Q A R 50;1S1Q A L 52;20.6892
1S1Q A R 50;1S1Q A D 78;13.4209
1S1Q A E 51;1S1Q A L 52;24.4616
1S1Q A E 51;1S1Q A D 78;0.809786
1S1Q A L 52;1S1Q A N 54;14.1958
1S1Q A L 52;1S1Q A W 75;22.8806
1S1Q A L 52;1S1Q A L 76;13.6364
1S1Q A L 52;1S1Q A L 77;16.2647
1S1Q A L 52;1S1Q A D 78;13.8479
1S1Q A L 52;1S1Q A I 86;3.18556
1S1Q A N 54;1S1Q A L 55;23.2302
1S1Q A N 54;1S1Q A T 56;11.7839
1S1Q A N 54;1S1Q A C 73;13.8227
1S1Q A N 54;1S1Q A L 74;7.58318
1S1Q A N 54;1S1Q A W 75;27.3394
1S1Q A N 54;1S1Q A L 76;12.8092
1S1Q A L 55;1S1Q A T 56;19.339
1S1Q A L 55;1S1Q A I 72;2.24352
1S1Q A L 55;1S1Q A C 73;7.15625
1S1Q A L 55;1S1Q A L 74;32.8468
1S1Q A L 55;1S1Q A L 76;8.71521
1S1Q A L 55;1S1Q A L 124;13.4246
1S1Q A L 55;1S1Q A I 128;1.90569
1S1Q A T 56;1S1Q A G 57;25.919
1S1Q A T 56;1S1Q A I 72;9.27198
1S1Q A T 56;1S1Q A C 73;11.2834
1S1Q A T 56;1S1Q A K 90;0.132532
1S1Q A G 57;1S1Q A T 58;22.4001
1S1Q A G 57;1S1Q A I 70;0.0896051
1S1Q A G 57;1S1Q A P 71;7.48557
1S1Q A G 57;1S1Q A I 72;16.2818
1S1Q A T 58;1S1Q A I 59;24.9592
1S1Q A T 58;1S1Q A P 60;2.26786
1S1Q A T 58;1S1Q A N 69;28.4701
1S1Q A T 58;1S1Q A I 70;8.26912
1S1Q A T 58;1S1Q A P 71;14.1893
1S1Q A T 58;1S1Q A I 72;1.6046
1S1Q A I 59;1S1Q A P 60;25.6536
1S1Q A I 59;1S1Q A V 61;12.4535
1S1Q A I 59;1S1Q A Y 68;2.239
1S1Q A I 59;1S1Q A N 69;5.2653
1S1Q A I 59;1S1Q A I 70;20.6872
1S1Q A I 59;1S1Q A I 72;26.4961
1S1Q A I 59;1S1Q A I 128;18.3656
1S1Q A I 59;1S1Q A I 132;18.5547
1S1Q A I 59;1S1Q A F 135;12.6111
1S1Q A P 60;1S1Q A V 61;18.1041
1S1Q A P 60;1S1Q A P 62;7.56519
1S1Q A P 60;1S1Q A T 67;14.4913
1S1Q A P 60;1S1Q A Y 68;2.46732
1S1Q A P 60;1S1Q A N 69;13.1518
1S1Q A P 60;1S1Q A I 132;18.0798
1S1Q A V 61;1S1Q A P 62;27.7185
1S1Q A V 61;1S1Q A Y 63;8.28057
1S1Q A V 61;1S1Q A N 66;0.132394
1S1Q A V 61;1S1Q A T 67;7.26232
1S1Q A V 61;1S1Q A Y 68;24.93
1S1Q A V 61;1S1Q A I 70;17.9992
1S1Q A V 61;1S1Q A I 132;17.0274
1S1Q A V 61;1S1Q A F 135;19.1882
1S1Q A V 61;1S1Q A G 136;9.03959
1S1Q A P 62;1S1Q A Y 63;25.12
1S1Q A P 62;1S1Q A N 66;7.88509
1S1Q A P 62;1S1Q A T 67;14.0105
1S1Q A P 62;1S1Q A I 132;11.6581
1S1Q A P 62;1S1Q A G 136;12.8595
1S1Q A Y 63;1S1Q A R 64;63.8449
1S1Q A Y 63;1S1Q A G 65;4.2174
1S1Q A Y 63;1S1Q A N 66;16.3993
1S1Q A Y 63;1S1Q A Y 68;28.6655
1S1Q A Y 63;1S1Q A F 135;2.55212
1S1Q A Y 63;1S1Q A G 136;16.5612
1S1Q A Y 63;1S1Q A D 137;6.02594
1S1Q A Y 63;1S1Q A P 139;34.9678
1S1Q A R 64;1S1Q A G 65;27.0131
1S1Q A R 64;1S1Q A N 66;14.7043
1S1Q A R 64;1S1Q A Y 68;11.5561
1S1Q A G 65;1S1Q A N 66;33.0999
1S1Q A N 66;1S1Q A T 67;31.7747
1S1Q A N 66;1S1Q A Y 68;26.9557
1S1Q A T 67;1S1Q A Y 68;28.8418
1S1Q A T 67;1S1Q A N 69;18.5898
1S1Q A Y 68;1S1Q A N 69;23.1398
1S1Q A Y 68;1S1Q A I 70;15.9822
1S1Q A Y 68;1S1Q A V 141;8.96695
1S1Q A Y 68;1S1Q A S 143;11.1494
1S1Q A N 69;1S1Q A I 70;16.8291
1S1Q A N 69;1S1Q A P 71;9.0139
1S1Q A I 70;1S1Q A P 71;27.6634
1S1Q A I 70;1S1Q A I 72;12.2325
1S1Q A I 70;1S1Q A V 89;10.4081
1S1Q A I 70;1S1Q A F 135;13.744
1S1Q A I 70;1S1Q A P 139;0.438046
1S1Q A I 70;1S1Q A P 140;16.8159
1S1Q A I 70;1S1Q A V 141;19.1064
1S1Q A P 71;1S1Q A I 72;19.9878
1S1Q A P 71;1S1Q A V 89;9.49582
1S1Q A P 71;1S1Q A K 90;26.5614
1S1Q A P 71;1S1Q A P 91;4.94031
1S1Q A P 71;1S1Q A T 92;16.7691
1S1Q A P 71;1S1Q A V 141;6.29907
1S1Q A I 72;1S1Q A C 73;21.7979
1S1Q A I 72;1S1Q A L 74;22.8509
1S1Q A I 72;1S1Q A F 88;8.30705
1S1Q A I 72;1S1Q A V 89;6.75131
1S1Q A I 72;1S1Q A K 90;9.26882
1S1Q A I 72;1S1Q A I 109;9.46015
1S1Q A I 72;1S1Q A I 128;5.00978
1S1Q A I 72;1S1Q A F 135;6.01035
1S1Q A C 73;1S1Q A L 74;22.8109
1S1Q A C 73;1S1Q A W 75;23.4834
1S1Q A C 73;1S1Q A I 86;2.32172
1S1Q A C 73;1S1Q A C 87;3.92623
1S1Q A C 73;1S1Q A F 88;21.042
1S1Q A C 73;1S1Q A K 90;16.8262
1S1Q A L 74;1S1Q A W 75;16.6133
1S1Q A L 74;1S1Q A L 76;10.7388
1S1Q A L 74;1S1Q A P 85;8.45615
1S1Q A L 74;1S1Q A I 86;3.05127
1S1Q A L 74;1S1Q A C 87;17.2477
1S1Q A L 74;1S1Q A F 88;0.291703
1S1Q A L 74;1S1Q A I 109;3.6929
1S1Q A L 74;1S1Q A L 124;10.8141
1S1Q A L 74;1S1Q A L 127;13.1277
1S1Q A L 74;1S1Q A I 128;15.3428
1S1Q A W 75;1S1Q A L 76;22.3254
1S1Q A W 75;1S1Q A L 77;4.83795
1S1Q A W 75;1S1Q A P 85;9.33267
1S1Q A W 75;1S1Q A I 86;31.1616
1S1Q A W 75;1S1Q A F 88;12.2157
1S1Q A W 75;1S1Q A K 90;1.79718
1S1Q A L 76;1S1Q A L 77;21.8538
1S1Q A L 76;1S1Q A D 78;0.0305367
1S1Q A L 76;1S1Q A Y 80;24.2558
1S1Q A L 76;1S1Q A P 85;11.6612
1S1Q A L 76;1S1Q A L 124;18.0431
1S1Q A L 77;1S1Q A D 78;19.1846
1S1Q A L 77;1S1Q A T 79;16.006
1S1Q A L 77;1S1Q A Y 80;16.2402
1S1Q A L 77;1S1Q A N 83;19.0427
1S1Q A L 77;1S1Q A P 84;12.5613
1S1Q A L 77;1S1Q A P 85;1.33381
1S1Q A L 77;1S1Q A I 86;19.6253
1S1Q A D 78;1S1Q A T 79;32.1242
1S1Q A D 78;1S1Q A Y 80;4.17761
1S1Q A T 79;1S1Q A Y 80;19.8108
1S1Q A T 79;1S1Q A P 81;0.360378
1S1Q A T 79;1S1Q A Y 82;14.4648
1S1Q A T 79;1S1Q A N 83;24.9804
1S1Q A Y 80;1S1Q A P 81;36.5301
1S1Q A Y 80;1S1Q A Y 82;1.69546
1S1Q A Y 80;1S1Q A N 83;14.6428
1S1Q A Y 80;1S1Q A P 84;0.985645
1S1Q A Y 80;1S1Q A P 85;10.1933
1S1Q A Y 80;1S1Q A W 117;15.4331
1S1Q A Y 80;1S1Q A S 122;0.0550235
1S1Q A Y 80;1S1Q A D 123;1.76796
1S1Q A Y 80;1S1Q A L 124;17.7431
1S1Q A P 81;1S1Q A Y 82;27.5891
1S1Q A P 81;1S1Q A N 83;4.05512
1S1Q A P 81;1S1Q A W 117;13.5839
1S1Q A P 81;1S1Q A H 119;25.0735
1S1Q A P 81;1S1Q A S 122;1.69699
1S1Q A Y 82;1S1Q A N 83;32.9757
1S1Q A Y 82;1S1Q A P 84;0.205501
1S1Q A Y 82;1S1Q A W 117;8.6292
1S1Q A Y 82;1S1Q A K 118;0.919678
1S1Q A Y 82;1S1Q A H 119;34.0375
1S1Q A N 83;1S1Q A P 84;36.3054
1S1Q A N 83;1S1Q A P 85;0.024016
1S1Q A N 83;1S1Q A W 117;7.93988
1S1Q A P 84;1S1Q A P 85;33.4946
1S1Q A P 84;1S1Q A I 86;4.08468
1S1Q A P 84;1S1Q A L 114;22.7364
1S1Q A P 84;1S1Q A W 117;26.6457
1S1Q A P 85;1S1Q A I 86;22.7616
1S1Q A P 85;1S1Q A C 87;14.2601
1S1Q A P 85;1S1Q A L 114;12.9287
1S1Q A P 85;1S1Q A W 117;11.4726
1S1Q A P 85;1S1Q A L 124;9.18959
1S1Q A P 85;1S1Q A L 127;10.1547
1S1Q A I 86;1S1Q A C 87;24.8148
1S1Q A I 86;1S1Q A F 88;15.7637
1S1Q A I 86;1S1Q A K 108;15.7588
1S1Q A C 87;1S1Q A F 88;22.7899
1S1Q A C 87;1S1Q A G 107;0.00564197
1S1Q A C 87;1S1Q A K 108;9.05108
1S1Q A C 87;1S1Q A I 109;26.9449
1S1Q A C 87;1S1Q A L 114;15.9137
1S1Q A C 87;1S1Q A L 127;10.3527
1S1Q A F 88;1S1Q A V 89;19.3588
1S1Q A F 88;1S1Q A K 90;19.4216
1S1Q A F 88;1S1Q A N 106;10.8938
1S1Q A F 88;1S1Q A G 107;8.76026
1S1Q A F 88;1S1Q A K 108;25.099
1S1Q A F 88;1S1Q A I 109;9.41103
1S1Q A V 89;1S1Q A K 90;22.9952
1S1Q A V 89;1S1Q A P 91;16.4257
1S1Q A V 89;1S1Q A I 97;7.86573
1S1Q A V 89;1S1Q A V 103;10.6608
1S1Q A V 89;1S1Q A N 106;3.09614
1S1Q A V 89;1S1Q A G 107;17.9385
1S1Q A V 89;1S1Q A I 109;12.2525
1S1Q A V 89;1S1Q A F 135;8.59688
1S1Q A V 89;1S1Q A P 140;10.9783
1S1Q A V 89;1S1Q A V 141;12.1438
1S1Q A K 90;1S1Q A P 91;29.6738
1S1Q A K 90;1S1Q A T 92;4.26071
1S1Q A K 90;1S1Q A N 106;2.5842
1S1Q A P 91;1S1Q A T 92;29.7684
1S1Q A P 91;1S1Q A T 96;7.34593
1S1Q A P 91;1S1Q A I 97;21.2454
1S1Q A P 91;1S1Q A N 106;0.815335
1S1Q A P 91;1S1Q A G 107;0.00580262
1S1Q A P 91;1S1Q A V 141;9.38991
1S1Q A T 92;1S1Q A S 93;26.7501
1S1Q A T 92;1S1Q A S 94;27.654
1S1Q A T 92;1S1Q A T 96;3.31117
1S1Q A S 93;1S1Q A S 94;31.0976
1S1Q A S 94;1S1Q A T 96;12.091
1S1Q A S 94;1S1Q A F 142;3.00556
1S1Q A S 94;1S1Q A S 143;23.0813
1S1Q A T 96;1S1Q A I 97;25.7034
1S1Q A T 96;1S1Q A K 98;1.79341
1S1Q A T 96;1S1Q A V 141;12.5607
1S1Q A T 96;1S1Q A F 142;46.7776
1S1Q A T 96;1S1Q A S 143;3.46672
1S1Q A I 97;1S1Q A K 98;19.6589
1S1Q A I 97;1S1Q A T 99;19.2176
1S1Q A I 97;1S1Q A V 103;13.1938
1S1Q A I 97;1S1Q A D 104;6.48232
1S1Q A I 97;1S1Q A A 105;12.3513
1S1Q A I 97;1S1Q A N 106;4.16545
1S1Q A I 97;1S1Q A G 107;10.9043
1S1Q A I 97;1S1Q A P 140;7.6269
1S1Q A I 97;1S1Q A V 141;6.78729
1S1Q A I 97;1S1Q A F 142;3.11807
1S1Q A K 98;1S1Q A T 99;32.7807
1S1Q A K 98;1S1Q A G 100;1.52497
1S1Q A K 98;1S1Q A V 103;8.34712
1S1Q A K 98;1S1Q A P 139;24.9273
1S1Q A K 98;1S1Q A P 140;12.7559
1S1Q A K 98;1S1Q A V 141;7.61927
1S1Q A K 98;1S1Q A F 142;27.9565
1S1Q A T 99;1S1Q A G 100;28.8435
1S1Q A T 99;1S1Q A V 103;9.09226
1S1Q A T 99;1S1Q A D 104;8.81433
1S1Q A T 99;1S1Q A A 105;18.6949
1S1Q A G 100;1S1Q A K 101;32.0805
1S1Q A G 100;1S1Q A H 102;3.28424
1S1Q A G 100;1S1Q A V 103;19.8818
1S1Q A G 100;1S1Q A D 104;1.66564
1S1Q A G 100;1S1Q A Y 110;0.869663
1S1Q A K 101;1S1Q A H 102;39.8241
1S1Q A K 101;1S1Q A V 103;0.618953
1S1Q A K 101;1S1Q A Y 110;14.5468
1S1Q A K 101;1S1Q A E 138;24.21
1S1Q A H 102;1S1Q A V 103;26.027
1S1Q A H 102;1S1Q A K 108;0.522833
1S1Q A H 102;1S1Q A I 109;10.4977
1S1Q A H 102;1S1Q A Y 110;25.4821
1S1Q A H 102;1S1Q A L 111;10.8801
1S1Q A H 102;1S1Q A P 112;10.8502
1S1Q A H 102;1S1Q A V 134;21.8606
1S1Q A H 102;1S1Q A F 135;12.0057
1S1Q A H 102;1S1Q A E 138;23.4621
1S1Q A V 103;1S1Q A D 104;24.7978
1S1Q A V 103;1S1Q A G 107;10.8706
1S1Q A V 103;1S1Q A K 108;7.18927
1S1Q A V 103;1S1Q A I 109;4.50851
1S1Q A V 103;1S1Q A Y 110;3.85153
1S1Q A V 103;1S1Q A F 135;3.57199
1S1Q A V 103;1S1Q A P 140;20.4978
1S1Q A D 104;1S1Q A A 105;22.3084
1S1Q A D 104;1S1Q A N 106;21.2571
1S1Q A D 104;1S1Q A G 107;7.49067
1S1Q A D 104;1S1Q A K 108;22.0116
1S1Q A D 104;1S1Q A Y 110;26.5178
1S1Q A A 105;1S1Q A N 106;23.2436
1S1Q A A 105;1S1Q A G 107;1.59616
1S1Q A N 106;1S1Q A G 107;17.0626
1S1Q A N 106;1S1Q A K 108;7.65491
1S1Q A G 107;1S1Q A K 108;17.2605
1S1Q A G 107;1S1Q A I 109;4.22516
1S1Q A K 108;1S1Q A I 109;25.757
1S1Q A K 108;1S1Q A Y 110;30.4903
1S1Q A I 109;1S1Q A Y 110;26.7256
1S1Q A I 109;1S1Q A L 111;17.9284
1S1Q A I 109;1S1Q A L 114;17.1214
1S1Q A I 109;1S1Q A L 127;0.0758041
1S1Q A I 109;1S1Q A F 135;20.4777
1S1Q A Y 110;1S1Q A L 111;28.9468
1S1Q A Y 110;1S1Q A L 114;2.59075
1S1Q A L 111;1S1Q A P 112;29.7317
1S1Q A L 111;1S1Q A Y 113;9.47211
1S1Q A L 111;1S1Q A L 114;25.2164
1S1Q A L 111;1S1Q A H 115;9.73548
1S1Q A L 111;1S1Q A L 127;16.5865
1S1Q A L 111;1S1Q A V 130;18.7359
1S1Q A L 111;1S1Q A V 134;16.9862
1S1Q A L 111;1S1Q A F 135;5.27653
1S1Q A P 112;1S1Q A Y 113;24.1105
1S1Q A P 112;1S1Q A L 114;1.1867
1S1Q A P 112;1S1Q A H 115;11.6497
1S1Q A P 112;1S1Q A E 116;30.513
1S1Q A P 112;1S1Q A V 130;2.85657
1S1Q A P 112;1S1Q A V 134;3.75024
1S1Q A Y 113;1S1Q A L 114;19.7744
1S1Q A Y 113;1S1Q A H 115;0.187196
1S1Q A Y 113;1S1Q A E 116;7.61241
1S1Q A Y 113;1S1Q A W 117;23.8896
1S1Q A Y 113;1S1Q A Q 121;8.17775
1S1Q A Y 113;1S1Q A S 122;19.4937
1S1Q A Y 113;1S1Q A D 123;13.7094
1S1Q A Y 113;1S1Q A G 126;16.9183
1S1Q A Y 113;1S1Q A L 127;22.03
1S1Q A Y 113;1S1Q A V 130;26.3837
1S1Q A L 114;1S1Q A H 115;25.2748
1S1Q A L 114;1S1Q A E 116;1.69282
1S1Q A L 114;1S1Q A W 117;17.7372
1S1Q A L 114;1S1Q A L 127;15.4074
1S1Q A H 115;1S1Q A E 116;35.8638
1S1Q A H 115;1S1Q A W 117;3.95858
1S1Q A E 116;1S1Q A W 117;23.2326
1S1Q A E 116;1S1Q A K 118;9.64955
1S1Q A E 116;1S1Q A S 122;4.05643
1S1Q A W 117;1S1Q A K 118;31.3195
1S1Q A W 117;1S1Q A H 119;5.50006
1S1Q A W 117;1S1Q A S 122;26.3064
1S1Q A W 117;1S1Q A D 123;9.95154
1S1Q A W 117;1S1Q A L 124;4.33719
1S1Q A W 117;1S1Q A L 127;9.06474
1S1Q A K 118;1S1Q A H 119;33.971
1S1Q A K 118;1S1Q A P 120;0.00376149
1S1Q A K 118;1S1Q A Q 121;30.753
1S1Q A K 118;1S1Q A S 122;18.7828
1S1Q A H 119;1S1Q A P 120;48.6468
1S1Q A H 119;1S1Q A Q 121;5.02416
1S1Q A H 119;1S1Q A S 122;9.56476
1S1Q A P 120;1S1Q A Q 121;40.7164
1S1Q A P 120;1S1Q A S 122;8.94867
1S1Q A P 120;1S1Q A D 123;7.3365
1S1Q A Q 121;1S1Q A S 122;22.3177
1S1Q A Q 121;1S1Q A D 123;4.73338
1S1Q A S 122;1S1Q A D 123;20.7911
1S1Q A D 123;1S1Q A L 124;17.5389
1S1Q A D 123;1S1Q A L 125;14.3577
1S1Q A D 123;1S1Q A G 126;13.4172
1S1Q A D 123;1S1Q A L 127;6.41252
1S1Q A L 124;1S1Q A L 125;17.9474
1S1Q A L 124;1S1Q A G 126;0.618998
1S1Q A L 124;1S1Q A L 127;15.7516
1S1Q A L 124;1S1Q A I 128;14.3116
1S1Q A L 125;1S1Q A G 126;21.227
1S1Q A L 125;1S1Q A L 127;0.868548
1S1Q A L 125;1S1Q A I 128;11.6229
1S1Q A L 125;1S1Q A Q 129;22.579
1S1Q A G 126;1S1Q A L 127;14.6788
1S1Q A G 126;1S1Q A I 128;0.842692
1S1Q A G 126;1S1Q A Q 129;10.481
1S1Q A G 126;1S1Q A V 130;12.8062
1S1Q A L 127;1S1Q A I 128;26.274
1S1Q A L 127;1S1Q A Q 129;0.901342
1S1Q A L 127;1S1Q A V 130;15.7599
1S1Q A L 127;1S1Q A I 132;0.13136
1S1Q A I 128;1S1Q A Q 129;17.8996
1S1Q A I 128;1S1Q A V 130;2.04954
1S1Q A I 128;1S1Q A I 132;20.3394
1S1Q A Q 129;1S1Q A V 130;20.0451
1S1Q A Q 129;1S1Q A I 132;14.6035
1S1Q A Q 129;1S1Q A V 133;15.6413
1S1Q A V 130;1S1Q A I 132;10.8017
1S1Q A V 130;1S1Q A V 133;14.6606
1S1Q A V 130;1S1Q A V 134;23.1303
1S1Q A I 132;1S1Q A V 133;24.8651
1S1Q A I 132;1S1Q A V 134;2.03309
1S1Q A I 132;1S1Q A F 135;15.2934
1S1Q A I 132;1S1Q A G 136;10.0779
1S1Q A V 133;1S1Q A V 134;27.2782
1S1Q A V 133;1S1Q A F 135;0.529971
1S1Q A V 133;1S1Q A G 136;6.70562
1S1Q A V 133;1S1Q A D 137;19.9267
1S1Q A V 134;1S1Q A F 135;27.9495
1S1Q A V 134;1S1Q A G 136;1.614
1S1Q A V 134;1S1Q A D 137;8.83297
1S1Q A V 134;1S1Q A E 138;22.2005
1S1Q A F 135;1S1Q A G 136;17.0334
1S1Q A F 135;1S1Q A D 137;0.957103
1S1Q A F 135;1S1Q A E 138;13.8889
1S1Q A F 135;1S1Q A P 139;11.8631
1S1Q A F 135;1S1Q A P 140;26.7726
1S1Q A G 136;1S1Q A D 137;25.8305
1S1Q A G 136;1S1Q A E 138;0.378374
1S1Q A G 136;1S1Q A P 139;1.19127
1S1Q A D 137;1S1Q A E 138;31.9703
1S1Q A D 137;1S1Q A P 139;8.38568
1S1Q A E 138;1S1Q A P 139;26.8869
1S1Q A E 138;1S1Q A P 140;5.93663
1S1Q A P 139;1S1Q A P 140;23.8033
1S1Q A P 139;1S1Q A V 141;17.4938
1S1Q A P 140;1S1Q A V 141;29.0462
1S1Q A V 141;1S1Q A F 142;34.2529
1S1Q A V 141;1S1Q A S 143;0.941987
1S1Q A F 142;1S1Q A S 143;42.3066
