V1;V2;Weight
1SMF I C 9;1SMF I T 10;21.2088
1SMF I C 9;1SMF I K 11;4.25273
1SMF I C 9;1SMF I P 15;7.7157
1SMF I C 9;1SMF I E 16;6.38142
1SMF I C 9;1SMF I C 17;32.6632
1SMF I T 10;1SMF I K 11;16.1508
1SMF I T 10;1SMF I S 12;10.4203
1SMF I T 10;1SMF I P 15;8.03401
1SMF I T 10;1SMF I E 16;31.768
1SMF I K 11;1SMF I S 12;15.8556
1SMF I S 12;1SMF I I 13;21.0726
1SMF I S 12;1SMF I P 14;12.2725
1SMF I S 12;1SMF I P 15;10.8562
1SMF I S 12;1SMF I E 16;9.28894
1SMF I I 13;1SMF I P 14;34.3163
1SMF I I 13;1SMF I P 15;1.87018
1SMF I P 14;1SMF I P 15;36.2252
1SMF I P 14;1SMF I E 16;7.31047
1SMF I P 15;1SMF I E 16;24.2501
1SMF I P 15;1SMF I C 17;17.5495
1SMF I E 16;1SMF I C 17;27.2869
