V1;V2;Weight
1VFB A D 1;1VFB A I 2;30.8029
1VFB A D 1;1VFB A V 3;14.9684
1VFB A D 1;1VFB A S 26;5.12561
1VFB A D 1;1VFB A P 95;27.7316
1VFB A D 1;1VFB A T 97;9.12413
1VFB A D 1;1VFB B S 61;22.7161
1VFB A I 2;1VFB A V 3;22.915
1VFB A I 2;1VFB A L 4;4.48563
1VFB A I 2;1VFB A A 25;6.19051
1VFB A I 2;1VFB A S 26;11.275
1VFB A I 2;1VFB A G 27;20.0181
1VFB A I 2;1VFB A N 28;6.74536
1VFB A I 2;1VFB A I 29;14.0408
1VFB A I 2;1VFB A H 90;23.516
1VFB A I 2;1VFB A W 92;17.7666
1VFB A I 2;1VFB A P 95;2.03087
1VFB A I 2;1VFB A T 97;12.4058
1VFB A V 3;1VFB A L 4;33.1655
1VFB A V 3;1VFB A T 5;10.5873
1VFB A V 3;1VFB A R 24;2.21764
1VFB A V 3;1VFB A A 25;3.77831
1VFB A V 3;1VFB A S 26;24.7312
1VFB A V 3;1VFB A T 97;10.8155
1VFB A L 4;1VFB A T 5;23.5943
1VFB A L 4;1VFB A Q 6;2.64871
1VFB A L 4;1VFB A C 23;9.0087
1VFB A L 4;1VFB A R 24;7.4565
1VFB A L 4;1VFB A A 25;13.133
1VFB A L 4;1VFB A I 29;5.83179
1VFB A L 4;1VFB A L 33;10.3637
1VFB A L 4;1VFB A Y 71;0.861538
1VFB A L 4;1VFB A C 88;12.225
1VFB A L 4;1VFB A Q 89;4.92884
1VFB A L 4;1VFB A H 90;15.8552
1VFB A L 4;1VFB A T 97;15.2552
1VFB A L 4;1VFB A F 98;13.3167
1VFB A L 4;1VFB A G 99;13.8338
1VFB A L 4;1VFB A G 100;4.56207
1VFB A T 5;1VFB A Q 6;28.6173
1VFB A T 5;1VFB A S 7;6.58061
1VFB A T 5;1VFB A T 22;2.52697
1VFB A T 5;1VFB A C 23;6.03589
1VFB A T 5;1VFB A R 24;53.5011
1VFB A Q 6;1VFB A S 7;28.5204
1VFB A Q 6;1VFB A P 8;1.47222
1VFB A Q 6;1VFB A A 9;2.33684
1VFB A Q 6;1VFB A I 21;9.39232
1VFB A Q 6;1VFB A T 22;7.36275
1VFB A Q 6;1VFB A C 23;14.5426
1VFB A Q 6;1VFB A W 35;6.65392
1VFB A Q 6;1VFB A Y 86;8.15959
1VFB A Q 6;1VFB A Y 87;6.61839
1VFB A Q 6;1VFB A C 88;6.90253
1VFB A Q 6;1VFB A G 99;11.2447
1VFB A Q 6;1VFB A G 100;11.4617
1VFB A Q 6;1VFB A G 101;19.0509
1VFB A Q 6;1VFB A T 102;11.8836
1VFB A S 7;1VFB A P 8;37.4338
1VFB A S 7;1VFB A A 9;1.55799
1VFB A S 7;1VFB A T 20;0.0109299
1VFB A S 7;1VFB A I 21;5.8295
1VFB A S 7;1VFB A T 22;30.8913
1VFB A S 7;1VFB A T 102;2.23426
1VFB A P 8;1VFB A A 9;25.3603
1VFB A P 8;1VFB A S 10;16.6415
1VFB A P 8;1VFB A L 11;18.2292
1VFB A P 8;1VFB A T 20;8.34007
1VFB A P 8;1VFB A I 21;5.87088
1VFB A P 8;1VFB A G 101;2.58671
1VFB A P 8;1VFB A T 102;18.8605
1VFB A A 9;1VFB A S 10;28.8248
1VFB A A 9;1VFB A G 101;11.3353
1VFB A A 9;1VFB A T 102;6.23603
1VFB A A 9;1VFB A K 103;12.3112
1VFB A S 10;1VFB A L 11;25.4303
1VFB A S 10;1VFB A S 12;0.667884
1VFB A S 10;1VFB A T 102;4.06674
1VFB A S 10;1VFB A K 103;20.4305
1VFB A S 10;1VFB A E 105;14.991
1VFB A L 11;1VFB A S 12;30.8111
1VFB A L 11;1VFB A A 13;2.03837
1VFB A L 11;1VFB A V 19;24.2932
1VFB A L 11;1VFB A T 20;9.7802
1VFB A L 11;1VFB A I 21;10.9035
1VFB A L 11;1VFB A T 102;10.8689
1VFB A L 11;1VFB A K 103;7.37265
1VFB A L 11;1VFB A L 104;22.2122
1VFB A L 11;1VFB A E 105;12.6125
1VFB A S 12;1VFB A A 13;21.0706
1VFB A S 12;1VFB A E 17;3.74133
1VFB A S 12;1VFB A V 19;0.0707027
1VFB A S 12;1VFB A L 104;0.030778
1VFB A S 12;1VFB A E 105;18.5567
1VFB A S 12;1VFB A I 106;6.1387
1VFB A S 12;1VFB A K 107;23.8109
1VFB A A 13;1VFB A S 14;20.5855
1VFB A A 13;1VFB A E 17;12.2877
1VFB A A 13;1VFB A V 19;9.31658
1VFB A A 13;1VFB A L 78;9.4003
1VFB A A 13;1VFB A F 83;11.1386
1VFB A A 13;1VFB A L 104;9.32045
1VFB A A 13;1VFB A E 105;7.67557
1VFB A A 13;1VFB A I 106;3.96192
1VFB A A 13;1VFB A K 107;17.153
1VFB A S 14;1VFB A V 15;31.5164
1VFB A S 14;1VFB A G 16;0.678246
1VFB A S 14;1VFB A E 17;27.7595
1VFB A S 14;1VFB A L 78;7.70866
1VFB A S 14;1VFB A F 83;2.22737
1VFB A S 14;1VFB A I 106;1.0587
1VFB A S 14;1VFB A K 107;29.5871
1VFB A V 15;1VFB A G 16;25.1705
1VFB A V 15;1VFB A E 17;3.98355
1VFB A V 15;1VFB A L 78;13.0015
1VFB A V 15;1VFB A Q 79;15.9553
1VFB A V 15;1VFB A P 80;22.6353
1VFB A V 15;1VFB A F 83;14.4168
1VFB A V 15;1VFB A I 106;2.24401
1VFB A G 16;1VFB A E 17;24.4466
1VFB A G 16;1VFB A T 18;2.42693
1VFB A G 16;1VFB A S 77;20.9332
1VFB A G 16;1VFB A L 78;9.75139
1VFB A G 16;1VFB A Q 79;3.44651
1VFB A E 17;1VFB A T 18;29.8369
1VFB A E 17;1VFB A V 19;8.45963
1VFB A E 17;1VFB A I 75;1.50549
1VFB A E 17;1VFB A S 77;5.63492
1VFB A E 17;1VFB A L 78;18.4169
1VFB A E 17;1VFB A K 107;17.1076
1VFB A T 18;1VFB A V 19;31.081
1VFB A T 18;1VFB A T 20;2.42215
1VFB A T 18;1VFB A K 74;14.7736
1VFB A T 18;1VFB A I 75;7.80752
1VFB A T 18;1VFB A N 76;22.5653
1VFB A T 18;1VFB A S 77;9.20452
1VFB A T 18;1VFB A L 78;0.347074
1VFB A V 19;1VFB A T 20;28.9412
1VFB A V 19;1VFB A I 21;5.09116
1VFB A V 19;1VFB A L 73;0.572334
1VFB A V 19;1VFB A K 74;7.4967
1VFB A V 19;1VFB A I 75;27.4457
1VFB A V 19;1VFB A L 78;13.4033
1VFB A V 19;1VFB A L 104;11.6462
1VFB A T 20;1VFB A I 21;25.4179
1VFB A T 20;1VFB A T 22;12.5409
1VFB A T 20;1VFB A S 72;14.106
1VFB A T 20;1VFB A L 73;8.04035
1VFB A T 20;1VFB A K 74;18.9649
1VFB A I 21;1VFB A T 22;23.6717
1VFB A I 21;1VFB A W 35;15.9474
1VFB A I 21;1VFB A S 72;5.48494
1VFB A I 21;1VFB A L 73;28.0733
1VFB A I 21;1VFB A I 75;8.85551
1VFB A I 21;1VFB A Y 86;17.2731
1VFB A I 21;1VFB A T 102;19.9003
1VFB A I 21;1VFB A L 104;3.92201
1VFB A T 22;1VFB A C 23;21.3817
1VFB A T 22;1VFB A R 24;1.36583
1VFB A T 22;1VFB A W 35;4.26849
1VFB A T 22;1VFB A Q 70;14.1928
1VFB A T 22;1VFB A Y 71;7.33773
1VFB A T 22;1VFB A S 72;12.5692
1VFB A C 23;1VFB A R 24;21.2007
1VFB A C 23;1VFB A A 25;0.842495
1VFB A C 23;1VFB A L 33;6.46216
1VFB A C 23;1VFB A W 35;13.291
1VFB A C 23;1VFB A T 69;0.729945
1VFB A C 23;1VFB A Q 70;4.66083
1VFB A C 23;1VFB A Y 71;23.2562
1VFB A C 23;1VFB A C 88;18.5799
1VFB A C 23;1VFB A G 99;0.659276
1VFB A R 24;1VFB A A 25;27.4768
1VFB A R 24;1VFB A S 26;4.80502
1VFB A R 24;1VFB A T 69;12.5337
1VFB A R 24;1VFB A Q 70;29.3078
1VFB A A 25;1VFB A S 26;21.7724
1VFB A A 25;1VFB A G 27;10.6412
1VFB A A 25;1VFB A I 29;11.8944
1VFB A A 25;1VFB A G 68;0.413216
1VFB A A 25;1VFB A T 69;25.3441
1VFB A A 25;1VFB A Y 71;4.31395
1VFB A S 26;1VFB A G 27;25.7814
1VFB A S 26;1VFB A T 69;1.52356
1VFB A G 27;1VFB A N 28;23.1731
1VFB A G 27;1VFB A I 29;5.95252
1VFB A G 27;1VFB A G 68;0.292981
1VFB A G 27;1VFB A T 69;10.5763
1VFB A N 28;1VFB A I 29;16.8636
1VFB A N 28;1VFB A H 30;41.5144
1VFB A N 28;1VFB A G 68;21.4761
1VFB A N 28;1VFB A T 69;12.1898
1VFB A N 28;1VFB A W 92;7.55901
1VFB A I 29;1VFB A H 30;19.5775
1VFB A I 29;1VFB A N 31;3.64413
1VFB A I 29;1VFB A Y 32;19.7167
1VFB A I 29;1VFB A L 33;14.1253
1VFB A I 29;1VFB A G 68;7.01241
1VFB A I 29;1VFB A T 69;0.000195548
1VFB A I 29;1VFB A Y 71;16.4091
1VFB A I 29;1VFB A H 90;18.8772
1VFB A I 29;1VFB A F 91;0.00268232
1VFB A I 29;1VFB A W 92;19.3034
1VFB A H 30;1VFB A N 31;23.7427
1VFB A H 30;1VFB A Y 32;13.6632
1VFB A H 30;1VFB A Y 50;7.66329
1VFB A H 30;1VFB A G 68;3.24893
1VFB A H 30;1VFB A Y 71;2.64415
1VFB A H 30;1VFB A W 92;35.1398
1VFB A N 31;1VFB A Y 32;14.741
1VFB A N 31;1VFB A L 33;6.63363
1VFB A N 31;1VFB A Y 50;34.8566
1VFB A N 31;1VFB A T 51;23.2221
1VFB A N 31;1VFB A T 52;3.73164
1VFB A N 31;1VFB A G 66;7.10949
1VFB A N 31;1VFB A S 67;11.4837
1VFB A N 31;1VFB A G 68;3.08148
1VFB A N 31;1VFB A Y 71;15.8832
1VFB A Y 32;1VFB A L 33;19.3511
1VFB A Y 32;1VFB A Y 50;31.5938
1VFB A Y 32;1VFB A H 90;5.67088
1VFB A Y 32;1VFB A F 91;24.6572
1VFB A Y 32;1VFB A W 92;17.1758
1VFB A Y 32;1VFB B Y 101;20.5352
1VFB A L 33;1VFB A A 34;25.6131
1VFB A L 33;1VFB A W 35;18.2593
1VFB A L 33;1VFB A V 48;1.33438
1VFB A L 33;1VFB A Y 49;3.71452
1VFB A L 33;1VFB A Y 50;8.9254
1VFB A L 33;1VFB A T 51;19.8427
1VFB A L 33;1VFB A S 65;0.115173
1VFB A L 33;1VFB A Y 71;26.539
1VFB A L 33;1VFB A C 88;10.8916
1VFB A L 33;1VFB A Q 89;10.5939
1VFB A L 33;1VFB A H 90;4.77953
1VFB A L 33;1VFB A F 91;2.62591
1VFB A A 34;1VFB A W 35;22.4534
1VFB A A 34;1VFB A Y 36;13.2586
1VFB A A 34;1VFB A L 46;6.874
1VFB A A 34;1VFB A V 48;6.95686
1VFB A A 34;1VFB A Y 49;8.3965
1VFB A A 34;1VFB A Y 50;0.378515
1VFB A A 34;1VFB A Y 87;0.287994
1VFB A A 34;1VFB A C 88;6.51645
1VFB A A 34;1VFB A Q 89;16.1688
1VFB A A 34;1VFB A F 91;11.1677
1VFB A A 34;1VFB B Y 101;2.11536
1VFB A A 34;1VFB B R 102;4.24794
1VFB A W 35;1VFB A Y 36;23.7574
1VFB A W 35;1VFB A L 46;5.53701
1VFB A W 35;1VFB A L 47;15.011
1VFB A W 35;1VFB A V 48;26.5971
1VFB A W 35;1VFB A T 51;5.2871
1VFB A W 35;1VFB A G 64;3.38158
1VFB A W 35;1VFB A S 65;0.614373
1VFB A W 35;1VFB A Y 71;6.55561
1VFB A W 35;1VFB A S 72;11.1212
1VFB A W 35;1VFB A L 73;34.9887
1VFB A W 35;1VFB A Y 86;5.53749
1VFB A W 35;1VFB A Y 87;12.7546
1VFB A W 35;1VFB A C 88;14.4463
1VFB A Y 36;1VFB A Q 37;19.4913
1VFB A Y 36;1VFB A Q 38;0.19145
1VFB A Y 36;1VFB A P 44;12.2481
1VFB A Y 36;1VFB A Q 45;11.0643
1VFB A Y 36;1VFB A L 46;19.1128
1VFB A Y 36;1VFB A L 47;6.74476
1VFB A Y 36;1VFB A S 85;0.167605
1VFB A Y 36;1VFB A Y 86;10.6719
1VFB A Y 36;1VFB A Y 87;29.2953
1VFB A Y 36;1VFB A C 88;1.21448
1VFB A Y 36;1VFB A Q 89;16.5722
1VFB A Y 36;1VFB A F 91;4.7606
1VFB A Y 36;1VFB A F 98;9.46153
1VFB A Y 36;1VFB B L 45;4.62498
1VFB A Y 36;1VFB B R 102;1.12096
1VFB A Y 36;1VFB B L 103;18.8245
1VFB A Y 36;1VFB B W 106;16.8575
1VFB A Q 37;1VFB A Q 38;24.7582
1VFB A Q 37;1VFB A K 39;25.6491
1VFB A Q 37;1VFB A S 43;1.87554
1VFB A Q 37;1VFB A P 44;4.71648
1VFB A Q 37;1VFB A Q 45;34.5204
1VFB A Q 37;1VFB A L 47;21.5859
1VFB A Q 37;1VFB A F 62;7.35341
1VFB A Q 37;1VFB A E 81;4.39546
1VFB A Q 37;1VFB A D 82;9.14594
1VFB A Q 37;1VFB A F 83;0.495682
1VFB A Q 37;1VFB A G 84;3.62288
1VFB A Q 37;1VFB A S 85;7.01595
1VFB A Q 37;1VFB A Y 86;21.2246
1VFB A Q 37;1VFB A Y 87;0.214234
1VFB A Q 38;1VFB A K 39;32.7448
1VFB A Q 38;1VFB A Q 40;1.17833
1VFB A Q 38;1VFB A G 41;0.140005
1VFB A Q 38;1VFB A K 42;14.0626
1VFB A Q 38;1VFB A S 43;5.62895
1VFB A Q 38;1VFB A P 44;20.9343
1VFB A Q 38;1VFB A G 84;5.54861
1VFB A Q 38;1VFB A S 85;27.5695
1VFB A Q 38;1VFB A Y 87;17.3286
1VFB A Q 38;1VFB B Q 39;21.1522
1VFB A Q 38;1VFB B L 45;3.72272
1VFB A Q 38;1VFB B Y 94;7.46343
1VFB A K 39;1VFB A Q 40;29.384
1VFB A K 39;1VFB A G 41;3.83277
1VFB A K 39;1VFB A K 42;30.7599
1VFB A K 39;1VFB A S 43;1.5861
1VFB A K 39;1VFB A E 81;27.3942
1VFB A K 39;1VFB A D 82;0.347923
1VFB A K 39;1VFB A F 83;14.3143
1VFB A K 39;1VFB A G 84;5.6995
1VFB A Q 40;1VFB A G 41;26.879
1VFB A Q 40;1VFB A K 42;13.345
1VFB A Q 40;1VFB A F 83;3.2036
1VFB A Q 40;1VFB A G 84;7.72678
1VFB A G 41;1VFB A K 42;34.4663
1VFB A K 42;1VFB A S 43;35.1116
1VFB A K 42;1VFB A P 44;0.0304639
1VFB A K 42;1VFB B Y 94;5.7686
1VFB A K 42;1VFB B Q 108;0.0542812
1VFB A S 43;1VFB A P 44;30.527
1VFB A S 43;1VFB A Q 45;5.83577
1VFB A S 43;1VFB B Y 94;11.0389
1VFB A S 43;1VFB B W 106;11.9257
1VFB A S 43;1VFB B G 107;8.85756
1VFB A S 43;1VFB B Q 108;15.3361
1VFB A P 44;1VFB A Q 45;22.6458
1VFB A P 44;1VFB A Y 87;1.19845
1VFB A P 44;1VFB B L 45;17.7491
1VFB A P 44;1VFB B Y 94;10.9097
1VFB A P 44;1VFB B W 106;36.2813
1VFB A Q 45;1VFB A L 46;32.5814
1VFB A Q 45;1VFB A L 47;16.2174
1VFB A Q 45;1VFB A V 58;8.35093
1VFB A Q 45;1VFB B W 106;2.77868
1VFB A L 46;1VFB A L 47;20.1248
1VFB A L 46;1VFB A V 48;9.66204
1VFB A L 46;1VFB A Y 49;13.4167
1VFB A L 46;1VFB A A 55;23.0228
1VFB A L 46;1VFB A V 58;4.97673
1VFB A L 46;1VFB B R 102;16.5458
1VFB A L 46;1VFB B L 103;11.2869
1VFB A L 46;1VFB B D 104;21.8523
1VFB A L 46;1VFB B W 106;3.68337
1VFB A L 47;1VFB A V 48;27.3794
1VFB A L 47;1VFB A L 54;4.59406
1VFB A L 47;1VFB A A 55;10.6635
1VFB A L 47;1VFB A V 58;26.1605
1VFB A L 47;1VFB A F 62;19.202
1VFB A L 47;1VFB A L 73;8.66838
1VFB A L 47;1VFB A Y 86;9.99093
1VFB A V 48;1VFB A Y 49;21.833
1VFB A V 48;1VFB A T 51;10.2989
1VFB A V 48;1VFB A T 52;7.54321
1VFB A V 48;1VFB A T 53;10.1787
1VFB A V 48;1VFB A L 54;12.5858
1VFB A V 48;1VFB A A 55;0.948914
1VFB A V 48;1VFB A V 58;0.903441
1VFB A V 48;1VFB A F 62;5.93726
1VFB A V 48;1VFB A S 63;1.44419
1VFB A V 48;1VFB A G 64;9.22334
1VFB A V 48;1VFB A L 73;11.4924
1VFB A Y 49;1VFB A Y 50;30.8199
1VFB A Y 49;1VFB A T 51;3.12028
1VFB A Y 49;1VFB A T 52;1.88433
1VFB A Y 49;1VFB A T 53;42.1302
1VFB A Y 49;1VFB A L 54;6.1579
1VFB A Y 49;1VFB A A 55;12.3815
1VFB A Y 49;1VFB B D 100;0.0985061
1VFB A Y 49;1VFB B Y 101;3.24812
1VFB A Y 49;1VFB B R 102;44.4043
1VFB A Y 50;1VFB A T 51;16.0446
1VFB A Y 50;1VFB A T 52;11.6786
1VFB A Y 50;1VFB A T 53;4.71129
1VFB A Y 50;1VFB B Y 101;2.78219
1VFB A T 51;1VFB A T 52;25.3902
1VFB A T 51;1VFB A G 64;8.83995
1VFB A T 51;1VFB A S 65;12.7392
1VFB A T 51;1VFB A G 66;10.5934
1VFB A T 51;1VFB A Y 71;14.4995
1VFB A T 51;1VFB A S 72;0.0161539
1VFB A T 52;1VFB A T 53;28.7645
1VFB A T 52;1VFB A L 54;12.6334
1VFB A T 52;1VFB A S 63;0.0689877
1VFB A T 52;1VFB A G 64;20.6965
1VFB A T 52;1VFB A S 65;6.86375
1VFB A T 52;1VFB A G 66;0.984926
1VFB A T 53;1VFB A L 54;30.6984
1VFB A T 53;1VFB A A 55;1.40281
1VFB A L 54;1VFB A A 55;27.1754
1VFB A L 54;1VFB A D 56;2.4262
1VFB A L 54;1VFB A V 58;21.154
1VFB A L 54;1VFB A P 59;4.73416
1VFB A L 54;1VFB A S 60;14.5448
1VFB A L 54;1VFB A F 62;17.1934
1VFB A L 54;1VFB A S 63;5.27352
1VFB A L 54;1VFB A G 64;1.80209
1VFB A A 55;1VFB A D 56;32.4004
1VFB A A 55;1VFB A G 57;2.78393
1VFB A A 55;1VFB A V 58;20.4977
1VFB A D 56;1VFB A G 57;29.085
1VFB A D 56;1VFB A V 58;6.56804
1VFB A D 56;1VFB B R 99;0.391403
1VFB A G 57;1VFB A V 58;25.6562
1VFB A G 57;1VFB A P 59;10.3299
1VFB A V 58;1VFB A P 59;34.0254
1VFB A V 58;1VFB A S 60;1.96343
1VFB A V 58;1VFB A F 62;15.0138
1VFB A P 59;1VFB A S 60;22.0935
1VFB A P 59;1VFB A R 61;34.0005
1VFB A P 59;1VFB A F 62;22.6834
1VFB A S 60;1VFB A R 61;26.8008
1VFB A S 60;1VFB A F 62;10.4493
1VFB A S 60;1VFB A S 63;3.51997
1VFB A R 61;1VFB A F 62;29.515
1VFB A R 61;1VFB A S 63;2.78756
1VFB A R 61;1VFB A K 74;2.82654
1VFB A R 61;1VFB A I 75;12.1903
1VFB A R 61;1VFB A N 76;33.9304
1VFB A R 61;1VFB A S 77;8.30794
1VFB A R 61;1VFB A L 78;2.49272
1VFB A R 61;1VFB A Q 79;21.4405
1VFB A R 61;1VFB A E 81;16.4054
1VFB A R 61;1VFB A D 82;16.911
1VFB A F 62;1VFB A S 63;23.5435
1VFB A F 62;1VFB A L 73;12.7149
1VFB A F 62;1VFB A K 74;4.81712
1VFB A F 62;1VFB A I 75;21.8809
1VFB A F 62;1VFB A D 82;12.352
1VFB A F 62;1VFB A Y 86;10.4052
1VFB A S 63;1VFB A G 64;29.6927
1VFB A S 63;1VFB A S 65;0.218403
1VFB A S 63;1VFB A S 72;1.47074
1VFB A S 63;1VFB A L 73;10.1382
1VFB A S 63;1VFB A K 74;35.6561
1VFB A S 63;1VFB A N 76;4.06995
1VFB A G 64;1VFB A S 65;24.7063
1VFB A G 64;1VFB A S 72;6.66798
1VFB A G 64;1VFB A L 73;4.91027
1VFB A S 65;1VFB A G 66;26.0191
1VFB A S 65;1VFB A Y 71;6.96885
1VFB A S 65;1VFB A S 72;30.49
1VFB A G 66;1VFB A S 67;28.7592
1VFB A G 66;1VFB A Q 70;8.11395
1VFB A G 66;1VFB A Y 71;11.8732
1VFB A G 66;1VFB A S 72;0.43805
1VFB A S 67;1VFB A G 68;24.3805
1VFB A S 67;1VFB A T 69;5.78378
1VFB A S 67;1VFB A Q 70;13.9268
1VFB A S 67;1VFB A Y 71;11.0281
1VFB A G 68;1VFB A T 69;22.6787
1VFB A G 68;1VFB A Y 71;13.6684
1VFB A T 69;1VFB A Q 70;23.8438
1VFB A T 69;1VFB A Y 71;9.27025
1VFB A Q 70;1VFB A Y 71;28.7564
1VFB A Q 70;1VFB A S 72;2.80568
1VFB A Y 71;1VFB A S 72;23.3196
1VFB A S 72;1VFB A L 73;18.991
1VFB A S 72;1VFB A K 74;3.10542
1VFB A L 73;1VFB A K 74;23.5068
1VFB A L 73;1VFB A I 75;11.6041
1VFB A L 73;1VFB A Y 86;12.4438
1VFB A K 74;1VFB A I 75;22.8342
1VFB A K 74;1VFB A N 76;27.0655
1VFB A I 75;1VFB A N 76;20.6842
1VFB A I 75;1VFB A S 77;0.406271
1VFB A I 75;1VFB A L 78;15.2525
1VFB A I 75;1VFB A D 82;10.5831
1VFB A I 75;1VFB A Y 86;11.1699
1VFB A I 75;1VFB A L 104;10.148
1VFB A N 76;1VFB A S 77;28.7743
1VFB A N 76;1VFB A L 78;2.63002
1VFB A S 77;1VFB A L 78;18.1475
1VFB A S 77;1VFB A Q 79;14.9956
1VFB A L 78;1VFB A Q 79;24.5755
1VFB A L 78;1VFB A D 82;13.0856
1VFB A L 78;1VFB A F 83;15.8972
1VFB A L 78;1VFB A L 104;13.0793
1VFB A Q 79;1VFB A P 80;28.7405
1VFB A Q 79;1VFB A E 81;14.6872
1VFB A Q 79;1VFB A D 82;17.9635
1VFB A Q 79;1VFB A F 83;5.44145
1VFB A P 80;1VFB A E 81;31.8216
1VFB A P 80;1VFB A D 82;2.16608
1VFB A P 80;1VFB A F 83;23.034
1VFB A P 80;1VFB A I 106;0.191247
1VFB A E 81;1VFB A D 82;23.6919
1VFB A E 81;1VFB A F 83;4.72097
1VFB A D 82;1VFB A F 83;22.698
1VFB A D 82;1VFB A G 84;2.32698
1VFB A D 82;1VFB A Y 86;16.2305
1VFB A D 82;1VFB A L 104;10.5947
1VFB A F 83;1VFB A G 84;23.671
1VFB A F 83;1VFB A L 104;22.2216
1VFB A F 83;1VFB A E 105;10.9672
1VFB A F 83;1VFB A I 106;36.8852
1VFB A G 84;1VFB A S 85;22.2658
1VFB A G 84;1VFB A Y 86;9.26622
1VFB A G 84;1VFB A T 102;0.926192
1VFB A G 84;1VFB A K 103;3.77124
1VFB A G 84;1VFB A L 104;20.5592
1VFB A S 85;1VFB A Y 86;24.1557
1VFB A S 85;1VFB A Y 87;19.3336
1VFB A S 85;1VFB A G 101;0.886108
1VFB A S 85;1VFB A T 102;8.95211
1VFB A S 85;1VFB A K 103;19.2222
1VFB A Y 86;1VFB A Y 87;23.9647
1VFB A Y 86;1VFB A G 101;5.11161
1VFB A Y 86;1VFB A T 102;19.2461
1VFB A Y 86;1VFB A L 104;14.7763
1VFB A Y 87;1VFB A C 88;20.9272
1VFB A Y 87;1VFB A F 98;9.8188
1VFB A Y 87;1VFB A G 99;8.8946
1VFB A Y 87;1VFB A G 100;5.70598
1VFB A Y 87;1VFB A G 101;15.5481
1VFB A Y 87;1VFB A K 103;0.961184
1VFB A Y 87;1VFB B Q 39;7.79581
1VFB A Y 87;1VFB B K 43;5.44318
1VFB A Y 87;1VFB B G 44;13.9195
1VFB A Y 87;1VFB B L 45;28.2118
1VFB A C 88;1VFB A Q 89;17.8592
1VFB A C 88;1VFB A F 98;9.07112
1VFB A C 88;1VFB A G 99;14.7337
1VFB A Q 89;1VFB A H 90;21.8914
1VFB A Q 89;1VFB A F 91;22.4002
1VFB A Q 89;1VFB A R 96;12.2619
1VFB A Q 89;1VFB A T 97;9.613
1VFB A Q 89;1VFB A F 98;25.4377
1VFB A Q 89;1VFB B N 35;1.79573
1VFB A Q 89;1VFB B W 47;7.92831
1VFB A Q 89;1VFB B L 103;10.9727
1VFB A H 90;1VFB A F 91;21.7603
1VFB A H 90;1VFB A W 92;18.902
1VFB A H 90;1VFB A S 93;0.709211
1VFB A H 90;1VFB A P 95;10.9512
1VFB A H 90;1VFB A R 96;16.306
1VFB A H 90;1VFB A T 97;21.5756
1VFB A F 91;1VFB A W 92;17.8077
1VFB A F 91;1VFB A S 93;6.38464
1VFB A F 91;1VFB A R 96;26.6595
1VFB A F 91;1VFB B N 35;0.393581
1VFB A F 91;1VFB B E 98;7.73042
1VFB A F 91;1VFB B Y 101;33.6678
1VFB A F 91;1VFB B R 102;9.09884
1VFB A F 91;1VFB B L 103;11.9742
1VFB A W 92;1VFB A S 93;35.3128
1VFB A W 92;1VFB A T 94;2.07985
1VFB A W 92;1VFB A P 95;1.41287
1VFB A W 92;1VFB A R 96;0.121861
1VFB A S 93;1VFB A T 94;40.4579
1VFB A S 93;1VFB A P 95;0.929877
1VFB A S 93;1VFB A R 96;12.1298
1VFB A T 94;1VFB A P 95;37.8471
1VFB A T 94;1VFB A R 96;12.999
1VFB A T 94;1VFB B W 47;6.80623
1VFB A T 94;1VFB B M 50;6.10372
1VFB A T 94;1VFB B W 52;7.08228
1VFB A T 94;1VFB B D 58;29.0386
1VFB A T 94;1VFB B Y 59;1.88264
1VFB A P 95;1VFB A R 96;22.3572
1VFB A P 95;1VFB A T 97;9.13346
1VFB A P 95;1VFB B W 47;11.2865
1VFB A P 95;1VFB B Y 59;8.50031
1VFB A P 95;1VFB B N 60;6.85807
1VFB A P 95;1VFB B S 61;15.3102
1VFB A R 96;1VFB A T 97;26.7326
1VFB A R 96;1VFB A F 98;0.00335354
1VFB A R 96;1VFB B N 35;6.56328
1VFB A R 96;1VFB B W 47;40.3524
1VFB A R 96;1VFB B M 50;11.9849
1VFB A R 96;1VFB B W 52;8.47276
1VFB A R 96;1VFB B E 98;13.1596
1VFB A R 96;1VFB B Y 101;9.38593
1VFB A R 96;1VFB B L 103;0.00112815
1VFB A T 97;1VFB A F 98;30.747
1VFB A T 97;1VFB B W 47;5.10184
1VFB A F 98;1VFB A G 99;28.2469
1VFB A F 98;1VFB A G 100;0.780314
1VFB A F 98;1VFB B V 37;13.6529
1VFB A F 98;1VFB B L 45;34.5453
1VFB A F 98;1VFB B E 46;4.89895
1VFB A F 98;1VFB B W 47;17.9526
1VFB A F 98;1VFB B L 103;3.67724
1VFB A F 98;1VFB B W 106;7.21944
1VFB A G 99;1VFB A G 100;22.2779
1VFB A G 99;1VFB A G 101;2.68055
1VFB A G 99;1VFB B G 44;0.637936
1VFB A G 99;1VFB B L 45;2.83135
1VFB A G 100;1VFB A G 101;26.0066
1VFB A G 100;1VFB B G 44;9.92446
1VFB A G 101;1VFB A T 102;20.7961
1VFB A G 101;1VFB A K 103;1.29161
1VFB A T 102;1VFB A K 103;23.6775
1VFB A T 102;1VFB A L 104;5.79893
1VFB A K 103;1VFB A L 104;20.2382
1VFB A K 103;1VFB A E 105;17.9399
1VFB A K 103;1VFB B G 42;10.7306
1VFB A L 104;1VFB A E 105;25.0159
1VFB A E 105;1VFB A I 106;28.9048
1VFB A E 105;1VFB A K 107;0.299545
1VFB A I 106;1VFB A K 107;38.1406
1VFB B Q 1;1VFB B V 2;27.112
1VFB B Q 1;1VFB B Q 3;26.1416
1VFB B Q 1;1VFB B S 25;15.5951
1VFB B Q 1;1VFB B G 26;21.6601
1VFB B V 2;1VFB B Q 3;30.9093
1VFB B V 2;1VFB B L 4;6.56824
1VFB B V 2;1VFB B S 25;4.14447
1VFB B V 2;1VFB B G 26;12.1235
1VFB B V 2;1VFB B F 27;16.1251
1VFB B V 2;1VFB B R 97;18.599
1VFB B V 2;1VFB B Y 105;40.3078
1VFB B Q 3;1VFB B L 4;30.1809
1VFB B Q 3;1VFB B Q 5;16.1732
1VFB B Q 3;1VFB B T 23;1.89341
1VFB B Q 3;1VFB B V 24;6.5155
1VFB B Q 3;1VFB B S 25;28.5807
1VFB B Q 3;1VFB B F 27;2.78765
1VFB B L 4;1VFB B Q 5;27.4431
1VFB B L 4;1VFB B E 6;0.314358
1VFB B L 4;1VFB B C 22;7.50032
1VFB B L 4;1VFB B T 23;4.38671
1VFB B L 4;1VFB B V 24;12.2425
1VFB B L 4;1VFB B F 27;9.86088
1VFB B L 4;1VFB B V 34;8.14646
1VFB B L 4;1VFB B C 95;13.57
1VFB B L 4;1VFB B A 96;6.59942
1VFB B L 4;1VFB B R 97;12.248
1VFB B L 4;1VFB B Y 105;13.9172
1VFB B L 4;1VFB B W 106;10.3667
1VFB B L 4;1VFB B G 107;18.7636
1VFB B L 4;1VFB B Q 108;3.31785
1VFB B Q 5;1VFB B E 6;30.1349
1VFB B Q 5;1VFB B S 7;4.71302
1VFB B Q 5;1VFB B T 21;2.29113
1VFB B Q 5;1VFB B C 22;6.38656
1VFB B Q 5;1VFB B T 23;36.2628
1VFB B Q 5;1VFB B S 25;1.52465
1VFB B Q 5;1VFB B C 95;3.4211
1VFB B Q 5;1VFB B G 107;0.0361875
1VFB B Q 5;1VFB B Q 108;0.924906
1VFB B E 6;1VFB B S 7;25.7774
1VFB B E 6;1VFB B I 20;5.94364
1VFB B E 6;1VFB B T 21;6.64892
1VFB B E 6;1VFB B C 22;2.96397
1VFB B E 6;1VFB B W 36;7.60579
1VFB B E 6;1VFB B Y 93;5.19221
1VFB B E 6;1VFB B Y 94;8.43949
1VFB B E 6;1VFB B C 95;19.9342
1VFB B E 6;1VFB B G 107;10.9529
1VFB B E 6;1VFB B Q 108;6.20385
1VFB B E 6;1VFB B G 109;19.9693
1VFB B E 6;1VFB B T 110;16.3531
1VFB B S 7;1VFB B G 8;26.4982
1VFB B S 7;1VFB B S 19;0.38786
1VFB B S 7;1VFB B I 20;9.58678
1VFB B S 7;1VFB B T 21;27.0583
1VFB B S 7;1VFB B T 23;4.07983
1VFB B S 7;1VFB B T 110;6.98159
1VFB B G 8;1VFB B P 9;31.2125
1VFB B G 8;1VFB B G 10;6.55341
1VFB B G 8;1VFB B S 19;3.50625
1VFB B G 8;1VFB B I 20;8.09088
1VFB B G 8;1VFB B T 110;18.7248
1VFB B P 9;1VFB B G 10;22.3746
1VFB B P 9;1VFB B L 11;17.8127
1VFB B P 9;1VFB B V 12;14.6833
1VFB B P 9;1VFB B S 17;0.0283968
1VFB B P 9;1VFB B L 18;12.6962
1VFB B P 9;1VFB B S 19;11.9631
1VFB B P 9;1VFB B I 20;4.27955
1VFB B P 9;1VFB B L 112;9.33156
1VFB B G 10;1VFB B L 11;21.3781
1VFB B G 10;1VFB B T 110;3.31907
1VFB B G 10;1VFB B T 111;15.4403
1VFB B G 10;1VFB B L 112;13.4423
1VFB B G 10;1VFB B T 113;11.9063
1VFB B L 11;1VFB B V 12;29.1783
1VFB B L 11;1VFB B Q 16;3.82313
1VFB B L 11;1VFB B L 112;3.66376
1VFB B L 11;1VFB B T 113;24.8084
1VFB B L 11;1VFB B S 115;21.4531
1VFB B V 12;1VFB B A 13;22.5323
1VFB B V 12;1VFB B P 14;0.640392
1VFB B V 12;1VFB B Q 16;23.3738
1VFB B V 12;1VFB B S 17;4.36078
1VFB B V 12;1VFB B L 18;8.96745
1VFB B V 12;1VFB B L 85;14.6556
1VFB B V 12;1VFB B L 112;14.567
1VFB B V 12;1VFB B T 113;7.93644
1VFB B V 12;1VFB B V 114;14.7113
1VFB B V 12;1VFB B S 115;11.4316
1VFB B A 13;1VFB B P 14;21.3014
1VFB B A 13;1VFB B S 15;15.3566
1VFB B A 13;1VFB B Q 16;28.2367
1VFB B A 13;1VFB B L 85;5.21837
1VFB B A 13;1VFB B V 114;1.18088
1VFB B A 13;1VFB B S 115;9.33018
1VFB B A 13;1VFB B S 116;14.107
1VFB B P 14;1VFB B S 15;26.8682
1VFB B P 14;1VFB B Q 16;8.51632
1VFB B P 14;1VFB B S 84;5.91589
1VFB B P 14;1VFB B L 85;27.6875
1VFB B P 14;1VFB B H 86;3.14472
1VFB B P 14;1VFB B T 87;2.59892
1VFB B P 14;1VFB B V 114;11.2019
1VFB B P 14;1VFB B S 115;11.8417
1VFB B P 14;1VFB B S 116;17.6474
1VFB B S 15;1VFB B Q 16;30.6463
1VFB B S 15;1VFB B S 17;0.107284
1VFB B S 15;1VFB B S 116;1.76303
1VFB B Q 16;1VFB B S 17;34.5112
1VFB B Q 16;1VFB B N 83;1.65977
1VFB B Q 16;1VFB B S 84;3.28824
1VFB B Q 16;1VFB B L 85;13.3466
1VFB B S 17;1VFB B L 18;24.7548
1VFB B S 17;1VFB B S 19;4.32653
1VFB B S 17;1VFB B K 81;0.843506
1VFB B S 17;1VFB B M 82;7.30124
1VFB B S 17;1VFB B N 83;19.6397
1VFB B S 17;1VFB B L 85;3.00537
1VFB B L 18;1VFB B S 19;27.2084
1VFB B L 18;1VFB B I 20;20.0424
1VFB B L 18;1VFB B L 80;6.67798
1VFB B L 18;1VFB B K 81;7.95436
1VFB B L 18;1VFB B M 82;33.6251
1VFB B L 18;1VFB B L 85;17.6065
1VFB B L 18;1VFB B D 89;0.0944143
1VFB B L 18;1VFB B Y 93;7.19278
1VFB B L 18;1VFB B L 112;21.5842
1VFB B S 19;1VFB B I 20;25.5082
1VFB B S 19;1VFB B T 21;2.79865
1VFB B S 19;1VFB B F 79;9.35316
1VFB B S 19;1VFB B L 80;6.41111
1VFB B S 19;1VFB B K 81;15.5849
1VFB B I 20;1VFB B T 21;25.55
1VFB B I 20;1VFB B W 36;18.395
1VFB B I 20;1VFB B V 78;0.37082
1VFB B I 20;1VFB B F 79;7.78224
1VFB B I 20;1VFB B L 80;26.6631
1VFB B I 20;1VFB B Y 93;20.3811
1VFB B I 20;1VFB B T 110;12.3005
1VFB B I 20;1VFB B L 112;5.16444
1VFB B T 21;1VFB B C 22;21.2025
1VFB B T 21;1VFB B T 23;10.5801
1VFB B T 21;1VFB B W 36;3.66694
1VFB B T 21;1VFB B Q 77;16.0304
1VFB B T 21;1VFB B V 78;5.19595
1VFB B T 21;1VFB B F 79;19.9615
1VFB B C 22;1VFB B T 23;18.56
1VFB B C 22;1VFB B V 24;12.4948
1VFB B C 22;1VFB B V 34;5.64047
1VFB B C 22;1VFB B W 36;11.2671
1VFB B C 22;1VFB B S 76;0.918797
1VFB B C 22;1VFB B Q 77;6.08254
1VFB B C 22;1VFB B V 78;22.9841
1VFB B C 22;1VFB B C 95;18.5859
1VFB B T 23;1VFB B V 24;28.6859
1VFB B T 23;1VFB B K 75;5.24732
1VFB B T 23;1VFB B S 76;7.63938
1VFB B T 23;1VFB B Q 77;20.9943
1VFB B V 24;1VFB B S 25;30.6305
1VFB B V 24;1VFB B F 27;25.6596
1VFB B V 24;1VFB B L 29;16.5557
1VFB B V 24;1VFB B V 34;4.12334
1VFB B V 24;1VFB B S 76;30.3239
1VFB B V 24;1VFB B Q 77;0.136167
1VFB B V 24;1VFB B V 78;4.66232
1VFB B S 25;1VFB B G 26;22.5026
1VFB B S 25;1VFB B F 27;13.2061
1VFB B S 25;1VFB B S 76;0.28326
1VFB B G 26;1VFB B F 27;30.9002
1VFB B F 27;1VFB B S 28;35.3397
1VFB B F 27;1VFB B L 29;12.2219
1VFB B F 27;1VFB B Y 32;21.8081
1VFB B F 27;1VFB B G 33;0.00822843
1VFB B F 27;1VFB B V 34;6.57073
1VFB B F 27;1VFB B S 76;5.17209
1VFB B F 27;1VFB B R 97;27.682
1VFB B S 28;1VFB B L 29;23.8998
1VFB B S 28;1VFB B T 30;23.0033
1VFB B S 28;1VFB B G 31;9.70651
1VFB B S 28;1VFB B Y 32;13.948
1VFB B S 28;1VFB B N 73;0.214704
1VFB B S 28;1VFB B S 76;0.789184
1VFB B L 29;1VFB B T 30;16.6923
1VFB B L 29;1VFB B G 31;1.30073
1VFB B L 29;1VFB B Y 32;15.1976
1VFB B L 29;1VFB B V 34;12.4107
1VFB B L 29;1VFB B I 51;0.0102479
1VFB B L 29;1VFB B G 53;4.73079
1VFB B L 29;1VFB B K 71;24.2681
1VFB B L 29;1VFB B D 72;3.20769
1VFB B L 29;1VFB B N 73;20.6209
1VFB B L 29;1VFB B S 76;13.1052
1VFB B L 29;1VFB B Q 77;8.12737
1VFB B L 29;1VFB B V 78;12.7769
1VFB B T 30;1VFB B G 31;23.8361
1VFB B T 30;1VFB B Y 32;1.19508
1VFB B T 30;1VFB B G 53;20.8476
1VFB B T 30;1VFB B D 54;0.146289
1VFB B T 30;1VFB B K 71;1.90312
1VFB B T 30;1VFB B N 73;23.6538
1VFB B G 31;1VFB B Y 32;31.9306
1VFB B G 31;1VFB B G 53;0.00509735
1VFB B Y 32;1VFB B G 33;25.616
1VFB B Y 32;1VFB B V 34;3.21366
1VFB B Y 32;1VFB B I 51;0.600412
1VFB B Y 32;1VFB B W 52;1.35049
1VFB B Y 32;1VFB B G 53;10.4993
1VFB B Y 32;1VFB B K 71;0.609317
1VFB B Y 32;1VFB B R 97;32.4143
1VFB B Y 32;1VFB B E 98;9.50559
1VFB B Y 32;1VFB B R 99;23.8559
1VFB B G 33;1VFB B V 34;23.0228
1VFB B G 33;1VFB B N 35;1.24449
1VFB B G 33;1VFB B M 50;5.65606
1VFB B G 33;1VFB B I 51;6.52603
1VFB B G 33;1VFB B W 52;9.94556
1VFB B G 33;1VFB B G 53;2.94887
1VFB B G 33;1VFB B A 96;0.00123796
1VFB B G 33;1VFB B R 97;5.99247
1VFB B G 33;1VFB B E 98;23.3003
1VFB B V 34;1VFB B N 35;24.6231
1VFB B V 34;1VFB B W 36;8.26905
1VFB B V 34;1VFB B M 50;7.94651
1VFB B V 34;1VFB B I 51;23.633
1VFB B V 34;1VFB B I 69;0.321954
1VFB B V 34;1VFB B V 78;19.6843
1VFB B V 34;1VFB B C 95;7.38016
1VFB B V 34;1VFB B A 96;9.11193
1VFB B V 34;1VFB B R 97;4.80281
1VFB B V 34;1VFB B E 98;0.485454
1VFB B N 35;1VFB B W 36;24.0484
1VFB B N 35;1VFB B V 37;6.72265
1VFB B N 35;1VFB B W 47;14.501
1VFB B N 35;1VFB B G 49;5.31085
1VFB B N 35;1VFB B M 50;17.1236
1VFB B N 35;1VFB B Y 94;0.675311
1VFB B N 35;1VFB B C 95;6.43627
1VFB B N 35;1VFB B A 96;19.0406
1VFB B N 35;1VFB B E 98;12.9993
1VFB B N 35;1VFB B L 103;18.9756
1VFB B W 36;1VFB B V 37;22.29
1VFB B W 36;1VFB B W 47;4.06013
1VFB B W 36;1VFB B L 48;19.8836
1VFB B W 36;1VFB B G 49;13.9392
1VFB B W 36;1VFB B M 50;0.938344
1VFB B W 36;1VFB B I 51;0.0356111
1VFB B W 36;1VFB B I 69;19.6077
1VFB B W 36;1VFB B V 78;15.6193
1VFB B W 36;1VFB B F 79;5.27745
1VFB B W 36;1VFB B L 80;31.7886
1VFB B W 36;1VFB B Y 93;8.26372
1VFB B W 36;1VFB B Y 94;14.0182
1VFB B W 36;1VFB B C 95;14.2838
1VFB B V 37;1VFB B R 38;21.8032
1VFB B V 37;1VFB B L 45;12.4338
1VFB B V 37;1VFB B E 46;9.74531
1VFB B V 37;1VFB B W 47;11.5863
1VFB B V 37;1VFB B L 48;8.18362
1VFB B V 37;1VFB B R 92;0.0797965
1VFB B V 37;1VFB B Y 93;4.52004
1VFB B V 37;1VFB B Y 94;29.3133
1VFB B V 37;1VFB B A 96;3.28369
1VFB B V 37;1VFB B L 103;7.6616
1VFB B V 37;1VFB B W 106;16.0472
1VFB B R 38;1VFB B Q 39;18.6716
1VFB B R 38;1VFB B P 40;9.30321
1VFB B R 38;1VFB B G 44;0.84627
1VFB B R 38;1VFB B L 45;5.48642
1VFB B R 38;1VFB B E 46;43.8053
1VFB B R 38;1VFB B L 48;21.03
1VFB B R 38;1VFB B L 63;13.013
1VFB B R 38;1VFB B R 66;3.00837
1VFB B R 38;1VFB B M 82;8.07822
1VFB B R 38;1VFB B D 88;10.2447
1VFB B R 38;1VFB B D 89;17.2502
1VFB B R 38;1VFB B A 91;12.7701
1VFB B R 38;1VFB B R 92;6.29963
1VFB B R 38;1VFB B Y 93;25.553
1VFB B R 38;1VFB B Y 94;2.67008
1VFB B Q 39;1VFB B P 40;30.0839
1VFB B Q 39;1VFB B P 41;2.24988
1VFB B Q 39;1VFB B G 42;0.338339
1VFB B Q 39;1VFB B K 43;14.7211
1VFB B Q 39;1VFB B G 44;9.19911
1VFB B Q 39;1VFB B L 45;17.7722
1VFB B Q 39;1VFB B A 91;7.55889
1VFB B Q 39;1VFB B R 92;24.8269
1VFB B Q 39;1VFB B Y 94;14.4559
1VFB B P 40;1VFB B P 41;28.4248
1VFB B P 40;1VFB B G 42;3.48206
1VFB B P 40;1VFB B K 43;32.9782
1VFB B P 40;1VFB B G 44;8.53981
1VFB B P 40;1VFB B E 46;13.1343
1VFB B P 40;1VFB B D 88;8.2505
1VFB B P 40;1VFB B T 90;7.95221
1VFB B P 40;1VFB B A 91;10.632
1VFB B P 41;1VFB B G 42;25.8913
1VFB B P 41;1VFB B K 43;15.0753
1VFB B P 41;1VFB B T 90;22.7376
1VFB B P 41;1VFB B A 91;6.82328
1VFB B P 41;1VFB B R 92;0.0734048
1VFB B G 42;1VFB B K 43;33.9738
1VFB B K 43;1VFB B G 44;28.9956
1VFB B G 44;1VFB B L 45;24.6392
1VFB B G 44;1VFB B E 46;2.43755
1VFB B L 45;1VFB B E 46;23.1259
1VFB B L 45;1VFB B Y 94;7.02705
1VFB B L 45;1VFB B W 106;7.6322
1VFB B E 46;1VFB B W 47;25.7836
1VFB B E 46;1VFB B L 48;9.85518
1VFB B E 46;1VFB B N 60;11.4025
1VFB B E 46;1VFB B L 63;10.7752
1VFB B W 47;1VFB B L 48;23.3753
1VFB B W 47;1VFB B G 49;18.2349
1VFB B W 47;1VFB B M 50;12.0691
1VFB B W 47;1VFB B D 58;8.15557
1VFB B W 47;1VFB B Y 59;7.45692
1VFB B W 47;1VFB B N 60;24.6237
1VFB B W 47;1VFB B L 103;1.5734
1VFB B L 48;1VFB B G 49;19.5292
1VFB B L 48;1VFB B Y 59;4.13534
1VFB B L 48;1VFB B N 60;13.6454
1VFB B L 48;1VFB B L 63;12.6897
1VFB B L 48;1VFB B L 67;22.4784
1VFB B L 48;1VFB B I 69;1.56649
1VFB B L 48;1VFB B L 80;12.646
1VFB B L 48;1VFB B M 82;5.33158
1VFB B L 48;1VFB B Y 93;11.8928
1VFB B G 49;1VFB B M 50;15.7169
1VFB B G 49;1VFB B D 58;4.34808
1VFB B G 49;1VFB B Y 59;5.81153
1VFB B G 49;1VFB B N 60;0.17821
1VFB B G 49;1VFB B I 69;10.0847
1VFB B M 50;1VFB B I 51;23.1417
1VFB B M 50;1VFB B W 52;30.2559
1VFB B M 50;1VFB B T 57;9.01851
1VFB B M 50;1VFB B D 58;22.005
1VFB B M 50;1VFB B Y 59;0.290887
1VFB B M 50;1VFB B I 69;13.6617
1VFB B M 50;1VFB B E 98;10.1024
1VFB B I 51;1VFB B W 52;25.4949
1VFB B I 51;1VFB B G 55;16.7848
1VFB B I 51;1VFB B N 56;6.2385
1VFB B I 51;1VFB B T 57;14.1487
1VFB B I 51;1VFB B I 69;16.7814
1VFB B I 51;1VFB B S 70;10.7255
1VFB B I 51;1VFB B K 71;26.7594
1VFB B I 51;1VFB B V 78;11.2181
1VFB B W 52;1VFB B G 53;17.128
1VFB B W 52;1VFB B D 54;13.1063
1VFB B W 52;1VFB B G 55;7.22799
1VFB B W 52;1VFB B N 56;23.8725
1VFB B W 52;1VFB B T 57;2.67623
1VFB B W 52;1VFB B D 58;16.554
1VFB B W 52;1VFB B K 71;6.63961
1VFB B W 52;1VFB B E 98;8.3972
1VFB B W 52;1VFB B Y 101;12.9067
1VFB B G 53;1VFB B D 54;23.1294
1VFB B G 53;1VFB B G 55;2.75922
1VFB B G 53;1VFB B K 71;11.8629
1VFB B G 53;1VFB B N 73;1.51024
1VFB B D 54;1VFB B G 55;23.0939
1VFB B D 54;1VFB B N 56;29.4197
1VFB B D 54;1VFB B K 71;0.0229003
1VFB B G 55;1VFB B N 56;23.376
1VFB B G 55;1VFB B T 57;7.58446
1VFB B G 55;1VFB B K 71;10.1995
1VFB B N 56;1VFB B T 57;27.5412
1VFB B N 56;1VFB B D 58;1.28936
1VFB B T 57;1VFB B D 58;31.5291
1VFB B T 57;1VFB B Y 59;26.4196
1VFB B T 57;1VFB B I 69;15.3833
1VFB B D 58;1VFB B Y 59;31.8873
1VFB B D 58;1VFB B I 69;0.426935
1VFB B Y 59;1VFB B N 60;20.7044
1VFB B Y 59;1VFB B S 61;5.21044
1VFB B Y 59;1VFB B K 64;36.6728
1VFB B Y 59;1VFB B L 67;24.7859
1VFB B Y 59;1VFB B S 68;10.7563
1VFB B Y 59;1VFB B I 69;25.643
1VFB B N 60;1VFB B S 61;21.3929
1VFB B N 60;1VFB B A 62;13.0757
1VFB B N 60;1VFB B L 63;25.1561
1VFB B N 60;1VFB B K 64;10.0313
1VFB B N 60;1VFB B L 67;2.38878
1VFB B S 61;1VFB B A 62;28.6907
1VFB B S 61;1VFB B L 63;1.0522
1VFB B S 61;1VFB B K 64;27.6208
1VFB B S 61;1VFB B S 65;0.0367559
1VFB B A 62;1VFB B L 63;35.1041
1VFB B A 62;1VFB B K 64;2.00847
1VFB B A 62;1VFB B S 65;8.03437
1VFB B A 62;1VFB B R 66;1.03875
1VFB B L 63;1VFB B K 64;17.5653
1VFB B L 63;1VFB B S 65;4.88009
1VFB B L 63;1VFB B R 66;31.1387
1VFB B L 63;1VFB B L 67;23.1002
1VFB B L 63;1VFB B M 82;6.83631
1VFB B K 64;1VFB B S 65;27.7106
1VFB B K 64;1VFB B R 66;1.62752
1VFB B K 64;1VFB B L 67;17.9301
1VFB B S 65;1VFB B R 66;32.7172
1VFB B S 65;1VFB B L 67;1.94508
1VFB B S 65;1VFB B N 83;7.18498
1VFB B R 66;1VFB B L 67;25.5852
1VFB B R 66;1VFB B S 68;0.0912723
1VFB B R 66;1VFB B K 81;1.66687
1VFB B R 66;1VFB B M 82;24.6406
1VFB B R 66;1VFB B N 83;35.2638
1VFB B R 66;1VFB B S 84;18.4686
1VFB B R 66;1VFB B L 85;4.18809
1VFB B R 66;1VFB B H 86;23.5088
1VFB B R 66;1VFB B D 89;15.5183
1VFB B L 67;1VFB B S 68;26.3983
1VFB B L 67;1VFB B I 69;2.9651
1VFB B L 67;1VFB B L 80;15.6229
1VFB B L 67;1VFB B K 81;6.79132
1VFB B L 67;1VFB B M 82;20.6332
1VFB B L 67;1VFB B N 83;8.43546e-06
1VFB B S 68;1VFB B I 69;23.2488
1VFB B S 68;1VFB B S 70;1.9409
1VFB B S 68;1VFB B F 79;0.327264
1VFB B S 68;1VFB B L 80;5.39667
1VFB B S 68;1VFB B K 81;40.969
1VFB B S 68;1VFB B N 83;0.306376
1VFB B I 69;1VFB B S 70;25.3677
1VFB B I 69;1VFB B V 78;6.26703
1VFB B I 69;1VFB B F 79;8.26368
1VFB B I 69;1VFB B L 80;15.005
1VFB B I 69;1VFB B K 81;3.10907
1VFB B S 70;1VFB B K 71;25.2355
1VFB B S 70;1VFB B V 78;6.67171
1VFB B S 70;1VFB B F 79;23.9409
1VFB B S 70;1VFB B K 81;18.4301
1VFB B K 71;1VFB B D 72;24.444
1VFB B K 71;1VFB B N 73;25.6497
1VFB B K 71;1VFB B Q 77;5.42127
1VFB B K 71;1VFB B V 78;12.0753
1VFB B K 71;1VFB B F 79;7.64709
1VFB B D 72;1VFB B N 73;22.3585
1VFB B D 72;1VFB B S 74;15.3339
1VFB B D 72;1VFB B K 75;36.8758
1VFB B D 72;1VFB B S 76;4.4491
1VFB B D 72;1VFB B Q 77;14.7256
1VFB B D 72;1VFB B F 79;11.4502
1VFB B N 73;1VFB B S 74;27.856
1VFB B N 73;1VFB B K 75;0.516478
1VFB B N 73;1VFB B S 76;13.4254
1VFB B S 74;1VFB B K 75;29.294
1VFB B S 74;1VFB B S 76;7.46559
1VFB B K 75;1VFB B S 76;22.3861
1VFB B K 75;1VFB B Q 77;33.8141
1VFB B K 75;1VFB B F 79;11.6258
1VFB B S 76;1VFB B Q 77;18.019
1VFB B Q 77;1VFB B V 78;19.0573
1VFB B Q 77;1VFB B F 79;20.6974
1VFB B V 78;1VFB B F 79;24.9963
1VFB B F 79;1VFB B L 80;18.343
1VFB B F 79;1VFB B K 81;19.1472
1VFB B L 80;1VFB B K 81;25.9627
1VFB B L 80;1VFB B M 82;9.29844
1VFB B L 80;1VFB B Y 93;9.63599
1VFB B K 81;1VFB B M 82;22.2971
1VFB B K 81;1VFB B N 83;0.34575
1VFB B M 82;1VFB B N 83;23.524
1VFB B M 82;1VFB B L 85;13.8921
1VFB B M 82;1VFB B D 89;8.05381
1VFB B M 82;1VFB B Y 93;12.2572
1VFB B N 83;1VFB B S 84;35.9848
1VFB B N 83;1VFB B L 85;9.2701
1VFB B S 84;1VFB B L 85;23.9963
1VFB B S 84;1VFB B H 86;15.3035
1VFB B L 85;1VFB B H 86;23.7017
1VFB B L 85;1VFB B D 89;13.0859
1VFB B L 85;1VFB B L 112;3.62846
1VFB B L 85;1VFB B V 114;14.7007
1VFB B H 86;1VFB B T 87;21.792
1VFB B H 86;1VFB B D 88;14.0043
1VFB B H 86;1VFB B D 89;21.6476
1VFB B H 86;1VFB B V 114;11.7465
1VFB B T 87;1VFB B D 88;30.3031
1VFB B T 87;1VFB B D 89;2.43302
1VFB B T 87;1VFB B T 90;18.0601
1VFB B T 87;1VFB B V 114;22.1059
1VFB B T 87;1VFB B S 115;13.2116
1VFB B D 88;1VFB B D 89;21.2345
1VFB B D 88;1VFB B T 90;8.37808
1VFB B D 88;1VFB B A 91;0.552145
1VFB B D 89;1VFB B T 90;17.5657
1VFB B D 89;1VFB B A 91;6.39602
1VFB B D 89;1VFB B Y 93;14.8905
1VFB B D 89;1VFB B L 112;7.02329
1VFB B D 89;1VFB B V 114;10.7429
1VFB B T 90;1VFB B A 91;20.5985
1VFB B T 90;1VFB B T 111;1.23586
1VFB B T 90;1VFB B L 112;10.3242
1VFB B T 90;1VFB B T 113;20.5983
1VFB B T 90;1VFB B V 114;18.8256
1VFB B A 91;1VFB B R 92;21.5272
1VFB B A 91;1VFB B Y 93;14.1424
1VFB B A 91;1VFB B T 110;0.852221
1VFB B A 91;1VFB B T 111;7.55478
1VFB B A 91;1VFB B L 112;15.7794
1VFB B R 92;1VFB B Y 93;19.5121
1VFB B R 92;1VFB B Y 94;26.1761
1VFB B R 92;1VFB B Q 108;18.764
1VFB B R 92;1VFB B G 109;18.1782
1VFB B R 92;1VFB B T 110;11.6332
1VFB B R 92;1VFB B T 111;27.0664
1VFB B Y 93;1VFB B Y 94;20.4607
1VFB B Y 93;1VFB B G 109;6.19673
1VFB B Y 93;1VFB B T 110;21.3472
1VFB B Y 93;1VFB B L 112;16.7982
1VFB B Y 94;1VFB B C 95;21.4347
1VFB B Y 94;1VFB B A 96;0.636069
1VFB B Y 94;1VFB B W 106;18.3521
1VFB B Y 94;1VFB B G 107;8.39267
1VFB B Y 94;1VFB B Q 108;8.31916
1VFB B Y 94;1VFB B G 109;9.60057
1VFB B C 95;1VFB B A 96;19.0848
1VFB B C 95;1VFB B W 106;4.30411
1VFB B C 95;1VFB B G 107;8.99778
1VFB B A 96;1VFB B R 97;18.2662
1VFB B A 96;1VFB B E 98;1.83588
1VFB B A 96;1VFB B L 103;16.2768
1VFB B A 96;1VFB B Y 105;6.5352
1VFB B A 96;1VFB B W 106;19.6539
1VFB B R 97;1VFB B E 98;21.1115
1VFB B R 97;1VFB B R 99;12.364
1VFB B R 97;1VFB B R 102;0.747073
1VFB B R 97;1VFB B L 103;9.01319
1VFB B R 97;1VFB B D 104;25.9391
1VFB B R 97;1VFB B Y 105;28.8214
1VFB B E 98;1VFB B R 99;21.5608
1VFB B E 98;1VFB B D 100;4.61835
1VFB B E 98;1VFB B Y 101;17.0721
1VFB B E 98;1VFB B R 102;8.54957
1VFB B E 98;1VFB B L 103;12.3025
1VFB B E 98;1VFB B D 104;0.106248
1VFB B R 99;1VFB B D 100;31.0206
1VFB B R 99;1VFB B Y 101;1.63394
1VFB B R 99;1VFB B R 102;46.9591
1VFB B R 99;1VFB B D 104;20.4281
1VFB B D 100;1VFB B Y 101;38.1107
1VFB B D 100;1VFB B R 102;24.7171
1VFB B Y 101;1VFB B R 102;21.0551
1VFB B R 102;1VFB B L 103;18.7939
1VFB B R 102;1VFB B D 104;11.9317
1VFB B L 103;1VFB B D 104;16.8177
1VFB B L 103;1VFB B Y 105;1.81711
1VFB B L 103;1VFB B W 106;23.5405
1VFB B D 104;1VFB B Y 105;46.271
1VFB B D 104;1VFB B W 106;4.13595
1VFB B Y 105;1VFB B W 106;28.3852
1VFB B W 106;1VFB B G 107;28.337
1VFB B G 107;1VFB B Q 108;19.4142
1VFB B G 107;1VFB B G 109;1.67215
1VFB B Q 108;1VFB B G 109;22.0107
1VFB B G 109;1VFB B T 110;21.3138
1VFB B T 110;1VFB B T 111;32.7315
1VFB B T 110;1VFB B L 112;2.8937
1VFB B T 111;1VFB B L 112;27.0746
1VFB B T 111;1VFB B T 113;9.6765
1VFB B L 112;1VFB B T 113;24.3033
1VFB B L 112;1VFB B V 114;9.54999
1VFB B T 113;1VFB B V 114;26.5558
1VFB B T 113;1VFB B S 115;4.16255
1VFB B V 114;1VFB B S 115;24.2516
1VFB B S 115;1VFB B S 116;36.107
