V1;V2;Weight
1XGQ A M 0;1XGQ A D 1;44.1681
1XGQ A M 0;1XGQ A I 2;5.4913
1XGQ A M 0;1XGQ A Q 27;18.2367
1XGQ A M 0;1XGQ A W 94;6.21565
1XGQ A M 0;1XGQ A P 95;2.71187
1XGQ A D 1;1XGQ A I 2;25.1213
1XGQ A D 1;1XGQ A V 3;14.1545
1XGQ A D 1;1XGQ A S 26;2.46319
1XGQ A D 1;1XGQ A Q 27;1.95861
1XGQ A D 1;1XGQ A P 95;23.2327
1XGQ A D 1;1XGQ A T 97;8.54658
1XGQ A D 1;1XGQ B H 60;9.66593
1XGQ A D 1;1XGQ B P 61;11.2215
1XGQ A D 1;1XGQ B S 62;0.250417
1XGQ A I 2;1XGQ A V 3;26.0783
1XGQ A I 2;1XGQ A L 4;9.28164
1XGQ A I 2;1XGQ A A 25;5.21387
1XGQ A I 2;1XGQ A S 26;9.26322
1XGQ A I 2;1XGQ A Q 27;29.2942
1XGQ A I 2;1XGQ A S 28;1.99684
1XGQ A I 2;1XGQ A I 29;14.8706
1XGQ A I 2;1XGQ A Q 90;20.2061
1XGQ A I 2;1XGQ A N 92;2.92364
1XGQ A I 2;1XGQ A S 93;19.6186
1XGQ A I 2;1XGQ A P 95;2.32274
1XGQ A I 2;1XGQ A T 97;22.5396
1XGQ A V 3;1XGQ A L 4;31.7635
1XGQ A V 3;1XGQ A T 5;13.7674
1XGQ A V 3;1XGQ A R 24;2.65978
1XGQ A V 3;1XGQ A A 25;3.13241
1XGQ A V 3;1XGQ A S 26;27.7674
1XGQ A V 3;1XGQ A T 97;0.312792
1XGQ A L 4;1XGQ A T 5;23.0219
1XGQ A L 4;1XGQ A Q 6;1.35904
1XGQ A L 4;1XGQ A C 23;10.4698
1XGQ A L 4;1XGQ A R 24;7.21203
1XGQ A L 4;1XGQ A A 25;11.8575
1XGQ A L 4;1XGQ A I 29;5.212
1XGQ A L 4;1XGQ A L 33;8.64451
1XGQ A L 4;1XGQ A F 71;0.177284
1XGQ A L 4;1XGQ A C 88;11.169
1XGQ A L 4;1XGQ A Q 89;4.24616
1XGQ A L 4;1XGQ A Q 90;13.4878
1XGQ A L 4;1XGQ A T 97;12.912
1XGQ A L 4;1XGQ A F 98;10.9797
1XGQ A L 4;1XGQ A G 99;17.2625
1XGQ A L 4;1XGQ A G 100;5.99907
1XGQ A T 5;1XGQ A Q 6;33.3901
1XGQ A T 5;1XGQ A S 7;5.75674
1XGQ A T 5;1XGQ A S 22;1.72246
1XGQ A T 5;1XGQ A C 23;6.39934
1XGQ A T 5;1XGQ A R 24;29.8874
1XGQ A T 5;1XGQ A C 88;0.00631274
1XGQ A T 5;1XGQ A G 100;0.285107
1XGQ A Q 6;1XGQ A S 7;25.3505
1XGQ A Q 6;1XGQ A P 8;0.59497
1XGQ A Q 6;1XGQ A A 9;5.96681
1XGQ A Q 6;1XGQ A L 21;0.734703
1XGQ A Q 6;1XGQ A S 22;10.3467
1XGQ A Q 6;1XGQ A C 23;6.72888
1XGQ A Q 6;1XGQ A W 35;9.79802
1XGQ A Q 6;1XGQ A Y 86;6.757
1XGQ A Q 6;1XGQ A F 87;7.94885
1XGQ A Q 6;1XGQ A C 88;16.4772
1XGQ A Q 6;1XGQ A G 99;11.731
1XGQ A Q 6;1XGQ A G 100;7.36852
1XGQ A Q 6;1XGQ A G 101;21.721
1XGQ A Q 6;1XGQ A T 102;14.419
1XGQ A S 7;1XGQ A P 8;36.8729
1XGQ A S 7;1XGQ A A 9;2.16976
1XGQ A S 7;1XGQ A S 20;0.196767
1XGQ A S 7;1XGQ A L 21;2.90705
1XGQ A S 7;1XGQ A S 22;33.9083
1XGQ A S 7;1XGQ A R 24;1.17017
1XGQ A S 7;1XGQ A T 102;7.46422
1XGQ A P 8;1XGQ A A 9;24.4743
1XGQ A P 8;1XGQ A T 10;17.6257
1XGQ A P 8;1XGQ A L 11;20.926
1XGQ A P 8;1XGQ A S 20;4.55295
1XGQ A P 8;1XGQ A L 21;4.00366
1XGQ A P 8;1XGQ A G 101;0.0827078
1XGQ A P 8;1XGQ A T 102;17.32
1XGQ A A 9;1XGQ A T 10;29.4018
1XGQ A A 9;1XGQ A M 85;0.523181
1XGQ A A 9;1XGQ A G 101;11.1364
1XGQ A A 9;1XGQ A T 102;5.80883
1XGQ A A 9;1XGQ A K 103;10.4827
1XGQ A T 10;1XGQ A L 11;28.34
1XGQ A T 10;1XGQ A S 12;4.19127
1XGQ A T 10;1XGQ A T 102;3.10708
1XGQ A T 10;1XGQ A K 103;17.1923
1XGQ A T 10;1XGQ A E 105;15.9521
1XGQ A T 10;1XGQ A D 143;2.18799
1XGQ A L 11;1XGQ A S 12;30.8416
1XGQ A L 11;1XGQ A V 13;16.8712
1XGQ A L 11;1XGQ A V 19;18.8114
1XGQ A L 11;1XGQ A S 20;5.44307
1XGQ A L 11;1XGQ A L 21;10.8335
1XGQ A L 11;1XGQ A T 102;7.41839
1XGQ A L 11;1XGQ A K 103;9.36793
1XGQ A L 11;1XGQ A L 104;14.0497
1XGQ A L 11;1XGQ A E 105;9.34585
1XGQ A S 12;1XGQ A V 13;23.2802
1XGQ A S 12;1XGQ A E 105;18.8606
1XGQ A S 12;1XGQ A I 106;3.22993
1XGQ A S 12;1XGQ A K 107;19.5731
1XGQ A S 12;1XGQ A Y 140;15.5187
1XGQ A S 12;1XGQ A P 141;0.499486
1XGQ A S 12;1XGQ A Y 173;0.456423
1XGQ A V 13;1XGQ A T 14;24.7054
1XGQ A V 13;1XGQ A P 15;2.13799
1XGQ A V 13;1XGQ A D 17;17.0017
1XGQ A V 13;1XGQ A S 18;1.8841
1XGQ A V 13;1XGQ A V 19;11.7422
1XGQ A V 13;1XGQ A V 78;13.3749
1XGQ A V 13;1XGQ A F 83;13.3199
1XGQ A V 13;1XGQ A L 104;12.5416
1XGQ A V 13;1XGQ A E 105;6.51953
1XGQ A V 13;1XGQ A I 106;3.82378
1XGQ A V 13;1XGQ A K 107;16.3342
1XGQ A T 14;1XGQ A P 15;43.1148
1XGQ A T 14;1XGQ A G 16;0.920347
1XGQ A T 14;1XGQ A D 17;30.8088
1XGQ A T 14;1XGQ A V 78;1.53717
1XGQ A T 14;1XGQ A F 83;0.401398
1XGQ A T 14;1XGQ A I 106;0.0779248
1XGQ A T 14;1XGQ A K 107;23.7189
1XGQ A P 15;1XGQ A G 16;23.512
1XGQ A P 15;1XGQ A D 17;1.84635
1XGQ A P 15;1XGQ A V 78;10.246
1XGQ A P 15;1XGQ A E 79;7.73574
1XGQ A P 15;1XGQ A T 80;18.2637
1XGQ A P 15;1XGQ A F 83;15.4
1XGQ A P 15;1XGQ A I 106;12.9188
1XGQ A P 15;1XGQ A K 107;0.890626
1XGQ A G 16;1XGQ A D 17;26.1764
1XGQ A G 16;1XGQ A S 18;2.14161
1XGQ A G 16;1XGQ A S 77;22.3045
1XGQ A G 16;1XGQ A V 78;10.564
1XGQ A G 16;1XGQ A E 79;4.71581
1XGQ A D 17;1XGQ A S 18;30.714
1XGQ A D 17;1XGQ A V 19;0.128101
1XGQ A D 17;1XGQ A S 77;4.8901
1XGQ A D 17;1XGQ A V 78;13.7897
1XGQ A S 18;1XGQ A V 19;30.251
1XGQ A S 18;1XGQ A I 75;7.26578
1XGQ A S 18;1XGQ A N 76;14.6632
1XGQ A S 18;1XGQ A S 77;12.8355
1XGQ A S 18;1XGQ A V 78;1.8098
1XGQ A V 19;1XGQ A S 20;34.5592
1XGQ A V 19;1XGQ A L 21;12.5234
1XGQ A V 19;1XGQ A L 73;0.910284
1XGQ A V 19;1XGQ A S 74;7.08415
1XGQ A V 19;1XGQ A I 75;26.8813
1XGQ A V 19;1XGQ A V 78;11.7529
1XGQ A V 19;1XGQ A L 104;9.15504
1XGQ A S 20;1XGQ A L 21;24.2444
1XGQ A S 20;1XGQ A S 22;1.99511
1XGQ A S 20;1XGQ A T 72;14.2686
1XGQ A S 20;1XGQ A L 73;4.54143
1XGQ A S 20;1XGQ A S 74;11.6089
1XGQ A L 21;1XGQ A S 22;24.686
1XGQ A L 21;1XGQ A W 35;15.0032
1XGQ A L 21;1XGQ A F 71;0.548427
1XGQ A L 21;1XGQ A T 72;11.2254
1XGQ A L 21;1XGQ A L 73;28.2988
1XGQ A L 21;1XGQ A I 75;7.65819
1XGQ A L 21;1XGQ A Y 86;17.5916
1XGQ A L 21;1XGQ A T 102;23.3854
1XGQ A L 21;1XGQ A L 104;9.62344
1XGQ A S 22;1XGQ A C 23;20.3529
1XGQ A S 22;1XGQ A R 24;16.4977
1XGQ A S 22;1XGQ A W 35;5.23373
1XGQ A S 22;1XGQ A D 70;3.16003
1XGQ A S 22;1XGQ A F 71;7.44456
1XGQ A S 22;1XGQ A T 72;4.83882
1XGQ A S 22;1XGQ A T 102;1.52957
1XGQ A C 23;1XGQ A R 24;25.2695
1XGQ A C 23;1XGQ A A 25;0.224838
1XGQ A C 23;1XGQ A L 33;9.76793
1XGQ A C 23;1XGQ A W 35;11.8905
1XGQ A C 23;1XGQ A T 69;1.16052
1XGQ A C 23;1XGQ A D 70;1.43301
1XGQ A C 23;1XGQ A F 71;26.8088
1XGQ A C 23;1XGQ A C 88;16.9531
1XGQ A R 24;1XGQ A A 25;24.1156
1XGQ A R 24;1XGQ A S 26;0.404475
1XGQ A R 24;1XGQ A T 69;14.7556
1XGQ A R 24;1XGQ A D 70;29.8359
1XGQ A R 24;1XGQ A F 71;0.321055
1XGQ A A 25;1XGQ A S 26;23.2328
1XGQ A A 25;1XGQ A Q 27;11.4046
1XGQ A A 25;1XGQ A I 29;11.68
1XGQ A A 25;1XGQ A G 68;1.05797
1XGQ A A 25;1XGQ A T 69;26.2837
1XGQ A A 25;1XGQ A F 71;5.20638
1XGQ A S 26;1XGQ A Q 27;36.378
1XGQ A S 26;1XGQ A T 69;1.28075
1XGQ A Q 27;1XGQ A S 28;28.8482
1XGQ A Q 27;1XGQ A I 29;6.77155
1XGQ A Q 27;1XGQ A G 68;0.932231
1XGQ A Q 27;1XGQ A T 69;8.54199
1XGQ A Q 27;1XGQ A S 93;1.62874
1XGQ A S 28;1XGQ A I 29;23.0937
1XGQ A S 28;1XGQ A S 30;10.0702
1XGQ A S 28;1XGQ A G 68;14.6723
1XGQ A S 28;1XGQ A T 69;13.8227
1XGQ A S 28;1XGQ A N 92;4.72665
1XGQ A I 29;1XGQ A S 30;22.7285
1XGQ A I 29;1XGQ A N 31;1.07462
1XGQ A I 29;1XGQ A N 32;19.0174
1XGQ A I 29;1XGQ A L 33;12.1451
1XGQ A I 29;1XGQ A G 68;9.89274
1XGQ A I 29;1XGQ A F 71;14.2038
1XGQ A I 29;1XGQ A Q 90;14.3217
1XGQ A I 29;1XGQ A N 92;22.7381
1XGQ A S 30;1XGQ A N 31;22.369
1XGQ A S 30;1XGQ A N 32;4.55344
1XGQ A S 30;1XGQ A S 67;10.0312
1XGQ A S 30;1XGQ A G 68;15.0299
1XGQ A S 30;1XGQ A F 71;7.8064
1XGQ A S 30;1XGQ A N 92;5.04564
1XGQ A N 31;1XGQ A N 32;21.943
1XGQ A N 31;1XGQ A L 33;6.16308
1XGQ A N 31;1XGQ A Y 50;28.2895
1XGQ A N 31;1XGQ A A 51;15.7777
1XGQ A N 31;1XGQ A Q 53;5.17343
1XGQ A N 31;1XGQ A G 66;0.977477
1XGQ A N 31;1XGQ A S 67;4.13453
1XGQ A N 31;1XGQ A F 71;3.70922
1XGQ A N 32;1XGQ A L 33;16.857
1XGQ A N 32;1XGQ A H 34;6.25111
1XGQ A N 32;1XGQ A Y 50;12.4413
1XGQ A N 32;1XGQ A F 71;0.528184
1XGQ A N 32;1XGQ A Q 89;0.205738
1XGQ A N 32;1XGQ A Q 90;7.03814
1XGQ A N 32;1XGQ A S 91;13.74
1XGQ A N 32;1XGQ A N 92;19.1188
1XGQ A L 33;1XGQ A H 34;29.1119
1XGQ A L 33;1XGQ A W 35;16.7208
1XGQ A L 33;1XGQ A I 48;0.695404
1XGQ A L 33;1XGQ A K 49;0.802037
1XGQ A L 33;1XGQ A Y 50;5.24845
1XGQ A L 33;1XGQ A A 51;16.1315
1XGQ A L 33;1XGQ A F 71;26.3168
1XGQ A L 33;1XGQ A C 88;9.59845
1XGQ A L 33;1XGQ A Q 89;10.3325
1XGQ A L 33;1XGQ A Q 90;4.90489
1XGQ A H 34;1XGQ A W 35;20.9544
1XGQ A H 34;1XGQ A Y 36;11.1825
1XGQ A H 34;1XGQ A L 46;9.91464
1XGQ A H 34;1XGQ A I 48;4.71254
1XGQ A H 34;1XGQ A K 49;12.6864
1XGQ A H 34;1XGQ A Y 50;24.6863
1XGQ A H 34;1XGQ A F 87;0.772548
1XGQ A H 34;1XGQ A C 88;6.31962
1XGQ A H 34;1XGQ A Q 89;32.6446
1XGQ A H 34;1XGQ A Q 90;0.847218
1XGQ A H 34;1XGQ A S 91;17.2608
1XGQ A W 35;1XGQ A Y 36;23.9164
1XGQ A W 35;1XGQ A R 45;0.00741327
1XGQ A W 35;1XGQ A L 46;8.17252
1XGQ A W 35;1XGQ A L 47;13.8759
1XGQ A W 35;1XGQ A I 48;26.315
1XGQ A W 35;1XGQ A A 51;7.95703
1XGQ A W 35;1XGQ A G 64;4.07481
1XGQ A W 35;1XGQ A S 65;0.782771
1XGQ A W 35;1XGQ A F 71;9.7753
1XGQ A W 35;1XGQ A T 72;10.1078
1XGQ A W 35;1XGQ A L 73;37.6879
1XGQ A W 35;1XGQ A Y 86;6.35228
1XGQ A W 35;1XGQ A F 87;10.5244
1XGQ A W 35;1XGQ A C 88;12.3771
1XGQ A Y 36;1XGQ A Q 37;20.3108
1XGQ A Y 36;1XGQ A Q 38;0.119338
1XGQ A Y 36;1XGQ A P 44;15.8782
1XGQ A Y 36;1XGQ A R 45;10.8716
1XGQ A Y 36;1XGQ A L 46;25.551
1XGQ A Y 36;1XGQ A L 47;4.66946
1XGQ A Y 36;1XGQ A L 73;0.76213
1XGQ A Y 36;1XGQ A M 85;0.0258746
1XGQ A Y 36;1XGQ A Y 86;10.4494
1XGQ A Y 36;1XGQ A F 87;31.8395
1XGQ A Y 36;1XGQ A C 88;0.603324
1XGQ A Y 36;1XGQ A Q 89;21.9447
1XGQ A Y 36;1XGQ A F 98;11.9944
1XGQ A Y 36;1XGQ B L 45;1.23104
1XGQ A Y 36;1XGQ B W 98;0.737206
1XGQ A Y 36;1XGQ B G 99;0.456047
1XGQ A Y 36;1XGQ B G 100;16.0624
1XGQ A Y 36;1XGQ B W 103;23.0352
1XGQ A Q 37;1XGQ A Q 38;24.6779
1XGQ A Q 37;1XGQ A K 39;22.0963
1XGQ A Q 37;1XGQ A S 43;1.77134
1XGQ A Q 37;1XGQ A P 44;4.94058
1XGQ A Q 37;1XGQ A R 45;43.8112
1XGQ A Q 37;1XGQ A L 47;17.7265
1XGQ A Q 37;1XGQ A F 62;7.55404
1XGQ A Q 37;1XGQ A E 81;2.76875
1XGQ A Q 37;1XGQ A D 82;10.4459
1XGQ A Q 37;1XGQ A F 83;0.0179637
1XGQ A Q 37;1XGQ A G 84;1.20674
1XGQ A Q 37;1XGQ A M 85;7.1912
1XGQ A Q 37;1XGQ A Y 86;21.9573
1XGQ A Q 37;1XGQ A F 87;0.335508
1XGQ A Q 38;1XGQ A K 39;33.2597
1XGQ A Q 38;1XGQ A S 40;0.444709
1XGQ A Q 38;1XGQ A E 42;13.4823
1XGQ A Q 38;1XGQ A S 43;8.35754
1XGQ A Q 38;1XGQ A P 44;24.0486
1XGQ A Q 38;1XGQ A G 84;2.22782
1XGQ A Q 38;1XGQ A M 85;28.612
1XGQ A Q 38;1XGQ A F 87;18.7826
1XGQ A Q 38;1XGQ B K 39;19.593
1XGQ A Q 38;1XGQ B N 43;1.11279
1XGQ A Q 38;1XGQ B L 45;3.78306
1XGQ A Q 38;1XGQ B Y 94;12.2155
1XGQ A K 39;1XGQ A S 40;31.9008
1XGQ A K 39;1XGQ A H 41;1.99507
1XGQ A K 39;1XGQ A E 42;44.8638
1XGQ A K 39;1XGQ A S 43;1.09042
1XGQ A K 39;1XGQ A R 45;3.66217
1XGQ A K 39;1XGQ A E 81;29.7217
1XGQ A K 39;1XGQ A D 82;2.26435
1XGQ A K 39;1XGQ A F 83;16.5605
1XGQ A K 39;1XGQ A G 84;8.71022
1XGQ A S 40;1XGQ A H 41;37.39
1XGQ A S 40;1XGQ A E 42;12.3325
1XGQ A S 40;1XGQ A F 83;0.346179
1XGQ A S 40;1XGQ A G 84;2.77207
1XGQ A S 40;1XGQ A D 165;14.9312
1XGQ A H 41;1XGQ A E 42;32.7892
1XGQ A H 41;1XGQ A D 165;4.31966
1XGQ A E 42;1XGQ A S 43;33.5829
1XGQ A E 42;1XGQ B Y 94;3.78876
1XGQ A E 42;1XGQ B A 105;1.5176
1XGQ A S 43;1XGQ A P 44;28.7023
1XGQ A S 43;1XGQ A R 45;4.88409
1XGQ A S 43;1XGQ B Y 94;10.9751
1XGQ A S 43;1XGQ B W 103;11.857
1XGQ A S 43;1XGQ B G 104;8.86524
1XGQ A S 43;1XGQ B A 105;15.3275
1XGQ A P 44;1XGQ A R 45;22.4531
1XGQ A P 44;1XGQ A F 87;2.36489
1XGQ A P 44;1XGQ B L 45;12.8081
1XGQ A P 44;1XGQ B Y 94;11.178
1XGQ A P 44;1XGQ B W 103;39.5008
1XGQ A R 45;1XGQ A L 46;27.9356
1XGQ A R 45;1XGQ A L 47;20.7602
1XGQ A R 45;1XGQ A G 57;2.64763
1XGQ A R 45;1XGQ A I 58;16.8119
1XGQ A R 45;1XGQ A P 59;13.7714
1XGQ A R 45;1XGQ A F 62;5.60821
1XGQ A R 45;1XGQ A E 81;0.933091
1XGQ A R 45;1XGQ A D 82;1.25239
1XGQ A R 45;1XGQ B W 103;1.75129
1XGQ A L 46;1XGQ A L 47;19.4033
1XGQ A L 46;1XGQ A I 48;9.27413
1XGQ A L 46;1XGQ A K 49;16.1244
1XGQ A L 46;1XGQ A I 55;19.1876
1XGQ A L 46;1XGQ A I 58;9.80223
1XGQ A L 46;1XGQ B G 99;11.4141
1XGQ A L 46;1XGQ B G 100;15.7348
1XGQ A L 46;1XGQ B D 101;15.2129
1XGQ A L 46;1XGQ B W 103;0.904296
1XGQ A L 47;1XGQ A I 48;30.129
1XGQ A L 47;1XGQ A S 54;1.17191
1XGQ A L 47;1XGQ A I 55;10.74
1XGQ A L 47;1XGQ A I 58;28.0757
1XGQ A L 47;1XGQ A P 59;0.53878
1XGQ A L 47;1XGQ A F 62;23.3228
1XGQ A L 47;1XGQ A L 73;10.2584
1XGQ A L 47;1XGQ A Y 86;9.26636
1XGQ A I 48;1XGQ A K 49;22.1551
1XGQ A I 48;1XGQ A A 51;8.59106
1XGQ A I 48;1XGQ A S 52;10.8851
1XGQ A I 48;1XGQ A Q 53;11.0636
1XGQ A I 48;1XGQ A S 54;11.8882
1XGQ A I 48;1XGQ A I 55;3.71109
1XGQ A I 48;1XGQ A I 58;0.941024
1XGQ A I 48;1XGQ A F 62;13.4509
1XGQ A I 48;1XGQ A S 63;10.9187
1XGQ A I 48;1XGQ A G 64;11.7809
1XGQ A I 48;1XGQ A L 73;9.69504
1XGQ A K 49;1XGQ A Y 50;36.8567
1XGQ A K 49;1XGQ A A 51;2.57301
1XGQ A K 49;1XGQ A S 52;1.42404
1XGQ A K 49;1XGQ A Q 53;33.2242
1XGQ A K 49;1XGQ A S 54;2.86417
1XGQ A K 49;1XGQ A I 55;21.4026
1XGQ A K 49;1XGQ B G 99;7.53583
1XGQ A K 49;1XGQ B D 101;7.52589
1XGQ A Y 50;1XGQ A A 51;15.0299
1XGQ A Y 50;1XGQ A S 52;9.87873
1XGQ A Y 50;1XGQ A Q 53;21.6505
1XGQ A Y 50;1XGQ A S 91;7.1178
1XGQ A Y 50;1XGQ B W 98;13.568
1XGQ A A 51;1XGQ A S 52;20.8177
1XGQ A A 51;1XGQ A G 64;7.61664
1XGQ A A 51;1XGQ A S 65;10.7141
1XGQ A A 51;1XGQ A G 66;11.1158
1XGQ A A 51;1XGQ A S 67;0.0389133
1XGQ A A 51;1XGQ A F 71;12.5424
1XGQ A S 52;1XGQ A Q 53;26.3228
1XGQ A S 52;1XGQ A S 54;6.691
1XGQ A S 52;1XGQ A G 64;18.3893
1XGQ A S 52;1XGQ A S 65;6.33588
1XGQ A S 52;1XGQ A G 66;0.853141
1XGQ A Q 53;1XGQ A S 54;27.9496
1XGQ A Q 53;1XGQ A I 55;2.75873
1XGQ A S 54;1XGQ A I 55;33.8391
1XGQ A S 54;1XGQ A S 56;4.02776
1XGQ A S 54;1XGQ A I 58;1.02335
1XGQ A S 54;1XGQ A F 62;2.91953
1XGQ A I 55;1XGQ A S 56;36.5574
1XGQ A I 55;1XGQ A G 57;2.44215
1XGQ A I 55;1XGQ A I 58;32.587
1XGQ A I 55;1XGQ B D 101;16.5838
1XGQ A S 56;1XGQ A G 57;30.6664
1XGQ A S 56;1XGQ A I 58;1.75806
1XGQ A G 57;1XGQ A I 58;31.292
1XGQ A G 57;1XGQ A P 59;7.47636
1XGQ A I 58;1XGQ A P 59;38.232
1XGQ A I 58;1XGQ A S 60;5.89203
1XGQ A I 58;1XGQ A F 62;12.5071
1XGQ A P 59;1XGQ A S 60;23.9712
1XGQ A P 59;1XGQ A R 61;31.8113
1XGQ A P 59;1XGQ A F 62;26.377
1XGQ A S 60;1XGQ A R 61;28.1375
1XGQ A S 60;1XGQ A F 62;12.3735
1XGQ A S 60;1XGQ A S 63;3.5231
1XGQ A S 60;1XGQ A N 76;0.0389294
1XGQ A R 61;1XGQ A F 62;33.2718
1XGQ A R 61;1XGQ A S 63;4.01856
1XGQ A R 61;1XGQ A S 74;3.60679
1XGQ A R 61;1XGQ A I 75;14.7865
1XGQ A R 61;1XGQ A N 76;36.164
1XGQ A R 61;1XGQ A S 77;6.89858
1XGQ A R 61;1XGQ A V 78;0.454993
1XGQ A R 61;1XGQ A E 79;20.4196
1XGQ A R 61;1XGQ A E 81;17.1234
1XGQ A R 61;1XGQ A D 82;17.0793
1XGQ A F 62;1XGQ A S 63;23.523
1XGQ A F 62;1XGQ A L 73;9.07927
1XGQ A F 62;1XGQ A S 74;4.93411
1XGQ A F 62;1XGQ A I 75;21.0723
1XGQ A F 62;1XGQ A D 82;11.6291
1XGQ A F 62;1XGQ A Y 86;8.69158
1XGQ A S 63;1XGQ A G 64;27.1833
1XGQ A S 63;1XGQ A T 72;0.154324
1XGQ A S 63;1XGQ A L 73;9.73009
1XGQ A S 63;1XGQ A S 74;30.2723
1XGQ A G 64;1XGQ A S 65;24.2166
1XGQ A G 64;1XGQ A T 72;6.62626
1XGQ A G 64;1XGQ A L 73;3.59759
1XGQ A G 64;1XGQ A S 74;0.463439
1XGQ A S 65;1XGQ A G 66;30.5846
1XGQ A S 65;1XGQ A F 71;8.10814
1XGQ A S 65;1XGQ A T 72;31.3
1XGQ A S 65;1XGQ A S 74;3.41246
1XGQ A G 66;1XGQ A S 67;28.874
1XGQ A G 66;1XGQ A D 70;8.4383
1XGQ A G 66;1XGQ A F 71;9.24834
1XGQ A G 66;1XGQ A T 72;0.71987
1XGQ A S 67;1XGQ A G 68;22.1166
1XGQ A S 67;1XGQ A T 69;4.596
1XGQ A S 67;1XGQ A D 70;15.8994
1XGQ A S 67;1XGQ A F 71;9.50061
1XGQ A G 68;1XGQ A T 69;20.9357
1XGQ A G 68;1XGQ A F 71;8.09044
1XGQ A T 69;1XGQ A D 70;25.4403
1XGQ A T 69;1XGQ A F 71;8.18152
1XGQ A D 70;1XGQ A F 71;32.251
1XGQ A D 70;1XGQ A T 72;7.44022
1XGQ A F 71;1XGQ A T 72;25.5054
1XGQ A T 72;1XGQ A L 73;20.5708
1XGQ A T 72;1XGQ A S 74;12.4113
1XGQ A L 73;1XGQ A S 74;23.265
1XGQ A L 73;1XGQ A I 75;10.0774
1XGQ A L 73;1XGQ A Y 86;13.8668
1XGQ A S 74;1XGQ A I 75;23.16
1XGQ A S 74;1XGQ A N 76;2.45675
1XGQ A I 75;1XGQ A N 76;19.9519
1XGQ A I 75;1XGQ A S 77;4.17732
1XGQ A I 75;1XGQ A V 78;18.9581
1XGQ A I 75;1XGQ A D 82;8.14665
1XGQ A I 75;1XGQ A Y 86;10.2319
1XGQ A I 75;1XGQ A L 104;10.2058
1XGQ A N 76;1XGQ A S 77;36.6806
1XGQ A S 77;1XGQ A V 78;18.8656
1XGQ A S 77;1XGQ A E 79;16.8869
1XGQ A V 78;1XGQ A E 79;26.6485
1XGQ A V 78;1XGQ A D 82;11.9931
1XGQ A V 78;1XGQ A F 83;11.5345
1XGQ A V 78;1XGQ A L 104;12.7629
1XGQ A E 79;1XGQ A T 80;22.3036
1XGQ A E 79;1XGQ A E 81;17.2555
1XGQ A E 79;1XGQ A D 82;19.5751
1XGQ A E 79;1XGQ A F 83;5.51039
1XGQ A T 80;1XGQ A E 81;36.7548
1XGQ A T 80;1XGQ A D 82;2.14226
1XGQ A T 80;1XGQ A F 83;18.1154
1XGQ A T 80;1XGQ A I 106;8.25639
1XGQ A E 81;1XGQ A D 82;25.2204
1XGQ A E 81;1XGQ A F 83;3.83636
1XGQ A D 82;1XGQ A F 83;22.5672
1XGQ A D 82;1XGQ A G 84;1.34788
1XGQ A D 82;1XGQ A Y 86;14.7213
1XGQ A D 82;1XGQ A L 104;8.21184
1XGQ A F 83;1XGQ A G 84;22.8687
1XGQ A F 83;1XGQ A L 104;23.3702
1XGQ A F 83;1XGQ A E 105;11.8633
1XGQ A F 83;1XGQ A I 106;30.3588
1XGQ A F 83;1XGQ A Q 166;1.1463
1XGQ A G 84;1XGQ A M 85;22.8178
1XGQ A G 84;1XGQ A Y 86;9.71497
1XGQ A G 84;1XGQ A T 102;0.996238
1XGQ A G 84;1XGQ A K 103;10.1644
1XGQ A G 84;1XGQ A L 104;19.5882
1XGQ A M 85;1XGQ A Y 86;25.2509
1XGQ A M 85;1XGQ A F 87;20.1582
1XGQ A M 85;1XGQ A G 100;4.45934
1XGQ A M 85;1XGQ A G 101;8.70432
1XGQ A M 85;1XGQ A T 102;8.92075
1XGQ A M 85;1XGQ A K 103;30.9222
1XGQ A M 85;1XGQ B N 43;26.9426
1XGQ A Y 86;1XGQ A F 87;20.9437
1XGQ A Y 86;1XGQ A G 101;5.04138
1XGQ A Y 86;1XGQ A T 102;21.1597
1XGQ A Y 86;1XGQ A L 104;16.9715
1XGQ A F 87;1XGQ A C 88;21.1044
1XGQ A F 87;1XGQ A F 98;9.60042
1XGQ A F 87;1XGQ A G 99;9.35242
1XGQ A F 87;1XGQ A G 100;5.48739
1XGQ A F 87;1XGQ A G 101;10.6363
1XGQ A F 87;1XGQ B K 39;3.18994
1XGQ A F 87;1XGQ B N 43;19.9983
1XGQ A F 87;1XGQ B L 45;27.2965
1XGQ A C 88;1XGQ A Q 89;16.486
1XGQ A C 88;1XGQ A F 98;8.24947
1XGQ A C 88;1XGQ A G 99;10.5621
1XGQ A Q 89;1XGQ A Q 90;23.6022
1XGQ A Q 89;1XGQ A S 91;7.6977
1XGQ A Q 89;1XGQ A Y 96;12.9473
1XGQ A Q 89;1XGQ A T 97;10.0963
1XGQ A Q 89;1XGQ A F 98;24.2503
1XGQ A Q 89;1XGQ B Y 47;15.8407
1XGQ A Q 89;1XGQ B W 103;0.295173
1XGQ A Q 90;1XGQ A S 91;17.8139
1XGQ A Q 90;1XGQ A N 92;8.9246
1XGQ A Q 90;1XGQ A S 93;12.8302
1XGQ A Q 90;1XGQ A P 95;6.32118
1XGQ A Q 90;1XGQ A Y 96;10.973
1XGQ A Q 90;1XGQ A T 97;22.1503
1XGQ A S 91;1XGQ A N 92;18.6191
1XGQ A S 91;1XGQ A S 93;2.75325
1XGQ A S 91;1XGQ A Y 96;24.8956
1XGQ A S 91;1XGQ B W 98;5.55269
1XGQ A N 92;1XGQ A S 93;29.2916
1XGQ A S 93;1XGQ A W 94;27.4536
1XGQ A S 93;1XGQ A P 95;5.97611
1XGQ A S 93;1XGQ A Y 96;8.48021
1XGQ A W 94;1XGQ A P 95;41.216
1XGQ A W 94;1XGQ A Y 96;24.986
1XGQ A W 94;1XGQ B Y 47;14.151
1XGQ A W 94;1XGQ B M 48;0.881662
1XGQ A W 94;1XGQ B G 49;9.84238
1XGQ A W 94;1XGQ B Y 50;14.1475
1XGQ A W 94;1XGQ B Y 58;27.5245
1XGQ A W 94;1XGQ B Y 59;16.6296
1XGQ A W 94;1XGQ B H 60;8.01499
1XGQ A W 94;1XGQ B P 61;7.09609
1XGQ A P 95;1XGQ A Y 96;20.9249
1XGQ A P 95;1XGQ A T 97;12.0057
1XGQ A P 95;1XGQ B Y 47;1.31957
1XGQ A P 95;1XGQ B H 60;18.127
1XGQ A P 95;1XGQ B P 61;18.3544
1XGQ A Y 96;1XGQ A T 97;24.7987
1XGQ A Y 96;1XGQ A F 98;0.215752
1XGQ A Y 96;1XGQ B Y 47;41.1401
1XGQ A Y 96;1XGQ B Y 50;11.7232
1XGQ A Y 96;1XGQ B H 60;4.97528
1XGQ A Y 96;1XGQ B W 98;19.2962
1XGQ A T 97;1XGQ A F 98;31.7291
1XGQ A T 97;1XGQ B L 45;0.0510482
1XGQ A T 97;1XGQ B E 46;0.00455762
1XGQ A T 97;1XGQ B Y 47;0.89962
1XGQ A T 97;1XGQ B H 60;7.26961
1XGQ A F 98;1XGQ A G 99;29.1533
1XGQ A F 98;1XGQ A G 100;0.454676
1XGQ A F 98;1XGQ B I 37;13.5201
1XGQ A F 98;1XGQ B L 45;43.81
1XGQ A F 98;1XGQ B E 46;4.71709
1XGQ A F 98;1XGQ B Y 47;20.6704
1XGQ A F 98;1XGQ B W 103;9.23438
1XGQ A G 99;1XGQ A G 100;22.2093
1XGQ A G 99;1XGQ A G 101;2.46229
1XGQ A G 99;1XGQ B N 43;1.14583
1XGQ A G 99;1XGQ B K 44;0.0343869
1XGQ A G 99;1XGQ B L 45;2.51322
1XGQ A G 100;1XGQ A G 101;25.1091
1XGQ A G 100;1XGQ B G 42;0.555521
1XGQ A G 100;1XGQ B N 43;10.6474
1XGQ A G 100;1XGQ B K 44;21.2765
1XGQ A G 101;1XGQ A T 102;19.1647
1XGQ A G 101;1XGQ A K 103;0.00125364
1XGQ A T 102;1XGQ A K 103;22.1161
1XGQ A T 102;1XGQ A L 104;4.89798
1XGQ A K 103;1XGQ A L 104;20.4049
1XGQ A K 103;1XGQ A E 105;30.7755
1XGQ A K 103;1XGQ A D 165;8.03098
1XGQ A K 103;1XGQ B N 43;9.82831
1XGQ A L 104;1XGQ A E 105;22.6167
1XGQ A E 105;1XGQ A I 106;18.6412
1XGQ A E 105;1XGQ A K 107;0.631064
1XGQ A E 105;1XGQ A Y 140;0.17602
1XGQ A E 105;1XGQ A K 142;8.16319
1XGQ A E 105;1XGQ A Q 166;14.0218
1XGQ A E 105;1XGQ A Y 173;26.7853
1XGQ A I 106;1XGQ A K 107;28.0412
1XGQ A I 106;1XGQ A R 108;5.35005
1XGQ A I 106;1XGQ A Y 140;8.35637
1XGQ A I 106;1XGQ A Q 166;27.3034
1XGQ A I 106;1XGQ A S 171;24.87
1XGQ A K 107;1XGQ A R 108;40.2371
1XGQ A K 107;1XGQ A D 110;7.3113
1XGQ A K 107;1XGQ A Y 140;17.1157
1XGQ A K 107;1XGQ A K 199;5.70576
1XGQ A R 108;1XGQ A A 109;50.959
1XGQ A R 108;1XGQ A D 110;5.86281
1XGQ A R 108;1XGQ A A 111;12.9201
1XGQ A R 108;1XGQ A Y 140;30.0374
1XGQ A R 108;1XGQ A Q 166;0.520655
1XGQ A R 108;1XGQ A D 170;19.9016
1XGQ A R 108;1XGQ A S 171;17.4027
1XGQ A R 108;1XGQ A T 172;16.2717
1XGQ A A 109;1XGQ A D 110;30.7745
1XGQ A A 109;1XGQ A A 111;1.85911
1XGQ A A 109;1XGQ A Y 140;6.2358
1XGQ A D 110;1XGQ A A 111;22.3791
1XGQ A D 110;1XGQ A Y 140;16.9905
1XGQ A D 110;1XGQ A P 141;11.7803
1XGQ A D 110;1XGQ A K 199;23.0688
1XGQ A D 110;1XGQ A T 200;16.6015
1XGQ A A 111;1XGQ A A 112;25.8602
1XGQ A A 111;1XGQ A P 113;0.479516
1XGQ A A 111;1XGQ A N 138;8.45501
1XGQ A A 111;1XGQ A F 139;9.62616
1XGQ A A 111;1XGQ A Y 140;18.3488
1XGQ A A 111;1XGQ A T 172;5.20809
1XGQ A A 111;1XGQ A H 198;4.3661
1XGQ A A 111;1XGQ A T 200;7.86798
1XGQ A A 112;1XGQ A P 113;28.5217
1XGQ A A 112;1XGQ A T 114;5.36293
1XGQ A A 112;1XGQ A N 137;0.952957
1XGQ A A 112;1XGQ A N 138;6.81839
1XGQ A A 112;1XGQ A F 139;2.71095
1XGQ A A 112;1XGQ A H 198;0.84963
1XGQ A A 112;1XGQ A T 200;23.0717
1XGQ A A 112;1XGQ A I 205;10.3976
1XGQ A P 113;1XGQ A T 114;21.9662
1XGQ A P 113;1XGQ A V 115;13.5585
1XGQ A P 113;1XGQ A L 136;9.60749
1XGQ A P 113;1XGQ A N 137;5.9382
1XGQ A P 113;1XGQ A N 138;0.421257
1XGQ A P 113;1XGQ A F 139;18.7542
1XGQ A P 113;1XGQ A I 144;10.2798
1XGQ A P 113;1XGQ A A 196;6.37875
1XGQ A P 113;1XGQ A H 198;15.5064
1XGQ A P 113;1XGQ A T 200;3.10503
1XGQ A P 113;1XGQ A I 205;22.2441
1XGQ A T 114;1XGQ A V 115;26.4961
1XGQ A T 114;1XGQ A S 116;8.87519
1XGQ A T 114;1XGQ A F 135;4.76744
1XGQ A T 114;1XGQ A L 136;3.30141
1XGQ A T 114;1XGQ A N 137;32.0244
1XGQ A T 114;1XGQ A N 138;3.61085
1XGQ A T 114;1XGQ B S 135;0.11934
1XGQ A T 114;1XGQ B T 137;5.60968
1XGQ A T 114;1XGQ B T 182;1.62866
1XGQ A V 115;1XGQ A S 116;28.6657
1XGQ A V 115;1XGQ A C 134;9.68357
1XGQ A V 115;1XGQ A F 135;6.30508
1XGQ A V 115;1XGQ A L 136;14.7096
1XGQ A V 115;1XGQ A C 194;7.10758
1XGQ A V 115;1XGQ A A 196;8.30456
1XGQ A V 115;1XGQ A I 205;18.8974
1XGQ A V 115;1XGQ A K 207;33.8623
1XGQ A S 116;1XGQ A I 117;23.0842
1XGQ A S 116;1XGQ A F 118;16.4425
1XGQ A S 116;1XGQ A V 133;0.45814
1XGQ A S 116;1XGQ A C 134;8.06842
1XGQ A S 116;1XGQ A F 135;21.0364
1XGQ A S 116;1XGQ A K 207;4.54774
1XGQ A S 116;1XGQ B T 137;22.9605
1XGQ A I 117;1XGQ A F 118;31.8233
1XGQ A I 117;1XGQ A P 119;0.904801
1XGQ A I 117;1XGQ A V 132;7.51906
1XGQ A I 117;1XGQ A V 133;7.0684
1XGQ A I 117;1XGQ A C 134;7.13183
1XGQ A I 117;1XGQ A W 148;9.28322
1XGQ A I 117;1XGQ A Y 192;7.12034
1XGQ A I 117;1XGQ A T 193;3.29012
1XGQ A I 117;1XGQ A C 194;10.3901
1XGQ A I 117;1XGQ A K 207;21.37
1XGQ A I 117;1XGQ A S 208;14.7363
1XGQ A I 117;1XGQ A F 209;19.1499
1XGQ A I 117;1XGQ B P 126;5.45735
1XGQ A I 117;1XGQ B V 127;6.89663
1XGQ A F 118;1XGQ A P 119;30.7563
1XGQ A F 118;1XGQ A S 131;0.802731
1XGQ A F 118;1XGQ A V 132;8.47629
1XGQ A F 118;1XGQ A V 133;26.2633
1XGQ A F 118;1XGQ A C 134;0.33411
1XGQ A F 118;1XGQ A F 135;15.53
1XGQ A F 118;1XGQ A F 209;3.27842
1XGQ A F 118;1XGQ B L 124;25.1309
1XGQ A F 118;1XGQ B A 125;12.2176
1XGQ A F 118;1XGQ B P 126;11.5119
1XGQ A F 118;1XGQ B V 127;0.104074
1XGQ A F 118;1XGQ B T 137;17.6072
1XGQ A F 118;1XGQ B L 138;7.17415
1XGQ A F 118;1XGQ B G 139;1.80874
1XGQ A P 119;1XGQ A P 120;35.9548
1XGQ A P 119;1XGQ A S 121;4.46403
1XGQ A P 119;1XGQ A S 131;3.881
1XGQ A P 119;1XGQ A V 132;2.16406
1XGQ A P 119;1XGQ A V 133;0.0243933
1XGQ A P 119;1XGQ A Y 186;6.39433
1XGQ A P 119;1XGQ A F 209;15.4583
1XGQ A P 119;1XGQ B P 123;1.58648
1XGQ A P 119;1XGQ B L 124;8.67596
1XGQ A P 119;1XGQ B A 125;13.2363
1XGQ A P 119;1XGQ B P 126;0.644243
1XGQ A P 119;1XGQ B V 127;28.8464
1XGQ A P 120;1XGQ A S 121;27.0556
1XGQ A P 120;1XGQ A S 122;1.66686
1XGQ A P 120;1XGQ A Q 124;7.96732
1XGQ A P 120;1XGQ A L 125;19.5626
1XGQ A P 120;1XGQ A G 129;0.404423
1XGQ A P 120;1XGQ A A 130;12.9057
1XGQ A P 120;1XGQ A S 131;14.9895
1XGQ A P 120;1XGQ A V 132;9.83233
1XGQ A P 120;1XGQ A Y 186;21.2933
1XGQ A P 120;1XGQ A F 209;2.14555
1XGQ A P 120;1XGQ B L 124;0.184805
1XGQ A S 121;1XGQ A S 122;21.3609
1XGQ A S 121;1XGQ A E 123;11.0894
1XGQ A S 121;1XGQ A Q 124;17.7573
1XGQ A S 121;1XGQ A L 125;10.8082
1XGQ A S 121;1XGQ B Y 122;12.7785
1XGQ A S 121;1XGQ B P 123;22.6724
1XGQ A S 121;1XGQ B L 124;2.31216
1XGQ A S 122;1XGQ A E 123;29.8167
1XGQ A S 122;1XGQ A Q 124;0.54798
1XGQ A S 122;1XGQ A L 125;17.3525
1XGQ A S 122;1XGQ A T 126;15.4335
1XGQ A E 123;1XGQ A Q 124;16.0394
1XGQ A E 123;1XGQ A L 125;0.841633
1XGQ A E 123;1XGQ A T 126;15.2346
1XGQ A E 123;1XGQ A S 127;9.51487
1XGQ A E 123;1XGQ B V 121;0.567662
1XGQ A E 123;1XGQ B Y 122;14.9492
1XGQ A E 123;1XGQ B P 123;19.5176
1XGQ A E 123;1XGQ B K 208;23.7808
1XGQ A E 123;1XGQ B K 209;0.331888
1XGQ A Q 124;1XGQ A L 125;15.6177
1XGQ A Q 124;1XGQ A T 126;1.18171
1XGQ A Q 124;1XGQ A S 127;13.8409
1XGQ A Q 124;1XGQ A G 128;2.06349
1XGQ A Q 124;1XGQ A G 129;22.1484
1XGQ A Q 124;1XGQ A A 130;8.26496
1XGQ A Q 124;1XGQ A S 131;19.5144
1XGQ A Q 124;1XGQ A T 180;1.82411
1XGQ A Q 124;1XGQ B Y 122;32.1074
1XGQ A Q 124;1XGQ B L 141;5.8696
1XGQ A Q 124;1XGQ B K 143;12.5097
1XGQ A L 125;1XGQ A T 126;20.9824
1XGQ A L 125;1XGQ A S 127;0.841978
1XGQ A L 125;1XGQ A G 128;7.58018
1XGQ A L 125;1XGQ A G 129;11.1331
1XGQ A L 125;1XGQ A A 130;5.98656
1XGQ A L 125;1XGQ A K 183;34.798
1XGQ A L 125;1XGQ A Y 186;19.2356
1XGQ A L 125;1XGQ A E 187;8.35986
1XGQ A T 126;1XGQ A S 127;24.0516
1XGQ A T 126;1XGQ A G 128;5.33137
1XGQ A T 126;1XGQ A K 183;5.56569
1XGQ A S 127;1XGQ A G 128;22.661
1XGQ A S 127;1XGQ A G 129;7.33129
1XGQ A S 127;1XGQ B Y 122;14.4975
1XGQ A G 128;1XGQ A G 129;20.996
1XGQ A G 128;1XGQ A T 182;9.67752
1XGQ A G 128;1XGQ A K 183;21.7373
1XGQ A G 129;1XGQ A A 130;19.1942
1XGQ A G 129;1XGQ A T 180;0.687646
1XGQ A G 129;1XGQ A L 181;3.3306
1XGQ A G 129;1XGQ A T 182;2.96724
1XGQ A G 129;1XGQ A K 183;6.54778
1XGQ A G 129;1XGQ B K 143;0.987312
1XGQ A A 130;1XGQ A S 131;16.1662
1XGQ A A 130;1XGQ A V 132;3.14205
1XGQ A A 130;1XGQ A L 179;2.17672
1XGQ A A 130;1XGQ A T 180;5.54854
1XGQ A A 130;1XGQ A L 181;24.3594
1XGQ A A 130;1XGQ A T 182;4.50999
1XGQ A A 130;1XGQ A K 183;4.45791
1XGQ A A 130;1XGQ A Y 186;12.7336
1XGQ A S 131;1XGQ A V 132;18.3028
1XGQ A S 131;1XGQ A V 133;7.48043
1XGQ A S 131;1XGQ A T 178;9.74702
1XGQ A S 131;1XGQ A L 179;4.16066
1XGQ A S 131;1XGQ A T 180;14.0348
1XGQ A S 131;1XGQ B L 124;1.63763
1XGQ A S 131;1XGQ B L 141;14.5406
1XGQ A S 131;1XGQ B K 143;7.50485
1XGQ A V 132;1XGQ A V 133;19.5259
1XGQ A V 132;1XGQ A W 148;19.0053
1XGQ A V 132;1XGQ A S 177;0.50032
1XGQ A V 132;1XGQ A T 178;7.22949
1XGQ A V 132;1XGQ A L 179;26.3504
1XGQ A V 132;1XGQ A L 181;4.32944
1XGQ A V 132;1XGQ A Y 186;7.71027
1XGQ A V 132;1XGQ A Y 192;14.0177
1XGQ A V 132;1XGQ A F 209;11.223
1XGQ A V 133;1XGQ A C 134;22.8003
1XGQ A V 133;1XGQ A F 135;13.4294
1XGQ A V 133;1XGQ A W 148;3.86318
1XGQ A V 133;1XGQ A S 176;5.21149
1XGQ A V 133;1XGQ A S 177;5.55079
1XGQ A V 133;1XGQ A T 178;15.949
1XGQ A V 133;1XGQ B L 124;19.0363
1XGQ A V 133;1XGQ B L 141;12.9027
1XGQ A V 133;1XGQ B S 178;4.88607
1XGQ A C 134;1XGQ A F 135;20.4459
1XGQ A C 134;1XGQ A L 136;13.1058
1XGQ A C 134;1XGQ A W 148;9.91231
1XGQ A C 134;1XGQ A M 175;0.25856
1XGQ A C 134;1XGQ A S 176;4.12175
1XGQ A C 134;1XGQ A S 177;19.8161
1XGQ A C 134;1XGQ A C 194;20.5782
1XGQ A C 134;1XGQ A K 207;0.61162
1XGQ A F 135;1XGQ A L 136;19.1584
1XGQ A F 135;1XGQ A N 137;14.0649
1XGQ A F 135;1XGQ A M 175;4.782
1XGQ A F 135;1XGQ A S 176;11.2668
1XGQ A F 135;1XGQ B L 124;10.6126
1XGQ A F 135;1XGQ B T 137;5.01628
1XGQ A F 135;1XGQ B L 138;1.85078
1XGQ A F 135;1XGQ B G 139;5.79475
1XGQ A F 135;1XGQ B C 140;0.171446
1XGQ A F 135;1XGQ B F 166;12.3609
1XGQ A F 135;1XGQ B S 178;10.7263
1XGQ A F 135;1XGQ B S 179;7.82518
1XGQ A F 135;1XGQ B S 180;19.1051
1XGQ A L 136;1XGQ A N 137;20.1017
1XGQ A L 136;1XGQ A F 139;11.929
1XGQ A L 136;1XGQ A I 144;11.8244
1XGQ A L 136;1XGQ A N 145;0.00594932
1XGQ A L 136;1XGQ A V 146;13.8531
1XGQ A L 136;1XGQ A S 174;3.03341
1XGQ A L 136;1XGQ A M 175;33.8547
1XGQ A L 136;1XGQ A S 176;0.65209
1XGQ A L 136;1XGQ A S 177;6.82272
1XGQ A L 136;1XGQ A C 194;4.89626
1XGQ A L 136;1XGQ A A 196;13.4898
1XGQ A N 137;1XGQ A N 138;30.8368
1XGQ A N 137;1XGQ A F 139;5.02162
1XGQ A N 137;1XGQ A Y 173;0.039205
1XGQ A N 137;1XGQ A S 174;10.7935
1XGQ A N 137;1XGQ A M 175;2.55284
1XGQ A N 137;1XGQ B T 137;5.20972
1XGQ A N 137;1XGQ B H 164;14.5809
1XGQ A N 137;1XGQ B F 166;7.23908
1XGQ A N 137;1XGQ B S 180;11.7426
1XGQ A N 137;1XGQ B T 182;6.46655
1XGQ A N 138;1XGQ A F 139;15.9282
1XGQ A N 138;1XGQ A D 167;5.96964
1XGQ A N 138;1XGQ A D 170;15.2208
1XGQ A N 138;1XGQ A T 172;22.8332
1XGQ A N 138;1XGQ A Y 173;5.52749
1XGQ A N 138;1XGQ A S 174;7.83097
1XGQ A N 138;1XGQ B H 164;17.644
1XGQ A F 139;1XGQ A Y 140;20.1224
1XGQ A F 139;1XGQ A P 141;7.23028
1XGQ A F 139;1XGQ A K 142;16.2702
1XGQ A F 139;1XGQ A D 143;0.000545093
1XGQ A F 139;1XGQ A I 144;22.7923
1XGQ A F 139;1XGQ A W 163;0.846005
1XGQ A F 139;1XGQ A T 172;8.45598
1XGQ A F 139;1XGQ A Y 173;29.9399
1XGQ A F 139;1XGQ A S 174;6.29431
1XGQ A F 139;1XGQ A M 175;9.83341
1XGQ A F 139;1XGQ A H 198;9.3783
1XGQ A Y 140;1XGQ A P 141;43.4659
1XGQ A Y 140;1XGQ A K 142;0.459936
1XGQ A Y 140;1XGQ A Q 166;5.32987
1XGQ A Y 140;1XGQ A S 171;4.88937
1XGQ A Y 140;1XGQ A T 172;7.03637
1XGQ A Y 140;1XGQ A Y 173;15.4718
1XGQ A Y 140;1XGQ A H 198;8.69549
1XGQ A Y 140;1XGQ A T 200;1.35408
1XGQ A P 141;1XGQ A K 142;22.1588
1XGQ A P 141;1XGQ A D 143;27.7834
1XGQ A P 141;1XGQ A I 144;0.00579173
1XGQ A P 141;1XGQ A Y 173;1.69213
1XGQ A P 141;1XGQ A H 198;14.7476
1XGQ A P 141;1XGQ A K 199;21.4134
1XGQ A P 141;1XGQ A T 200;0.154128
1XGQ A K 142;1XGQ A D 143;28.4161
1XGQ A K 142;1XGQ A I 144;11.7429
1XGQ A K 142;1XGQ A W 163;26.836
1XGQ A K 142;1XGQ A T 164;8.1626
1XGQ A K 142;1XGQ A Y 173;41.9313
1XGQ A K 142;1XGQ A S 174;7.32643
1XGQ A K 142;1XGQ A M 175;0.721078
1XGQ A D 143;1XGQ A I 144;26.835
1XGQ A D 143;1XGQ A H 198;11.231
1XGQ A D 143;1XGQ A K 199;10.1591
1XGQ A I 144;1XGQ A N 145;32.8568
1XGQ A I 144;1XGQ A V 146;3.44025
1XGQ A I 144;1XGQ A W 163;7.00564
1XGQ A I 144;1XGQ A M 175;17.1754
1XGQ A I 144;1XGQ A A 196;6.68187
1XGQ A I 144;1XGQ A T 197;10.3734
1XGQ A I 144;1XGQ A H 198;15.757
1XGQ A N 145;1XGQ A V 146;32.6858
1XGQ A N 145;1XGQ A K 147;14.9813
1XGQ A N 145;1XGQ A E 195;3.2757
1XGQ A N 145;1XGQ A A 196;5.02631
1XGQ A N 145;1XGQ A T 197;33.074
1XGQ A V 146;1XGQ A K 147;27.0644
1XGQ A V 146;1XGQ A W 148;10.7794
1XGQ A V 146;1XGQ A V 159;2.55674
1XGQ A V 146;1XGQ A N 161;11.1142
1XGQ A V 146;1XGQ A M 175;18.2642
1XGQ A V 146;1XGQ A S 177;13.2217
1XGQ A V 146;1XGQ A C 194;11.8199
1XGQ A V 146;1XGQ A E 195;8.76619
1XGQ A V 146;1XGQ A A 196;2.95369
1XGQ A K 147;1XGQ A W 148;30.5238
1XGQ A K 147;1XGQ A K 149;23.2677
1XGQ A K 147;1XGQ A E 154;30.8464
1XGQ A K 147;1XGQ A T 193;2.19632
1XGQ A K 147;1XGQ A C 194;3.16327
1XGQ A K 147;1XGQ A E 195;38.8363
1XGQ A W 148;1XGQ A K 149;25.0881
1XGQ A W 148;1XGQ A I 150;0.487398
1XGQ A W 148;1XGQ A E 154;6.74556
1XGQ A W 148;1XGQ A R 155;24.2002
1XGQ A W 148;1XGQ A V 159;21.1113
1XGQ A W 148;1XGQ A S 177;17.0337
1XGQ A W 148;1XGQ A T 178;3.46261
1XGQ A W 148;1XGQ A L 179;28.2512
1XGQ A W 148;1XGQ A Y 192;4.80996
1XGQ A W 148;1XGQ A T 193;15.428
1XGQ A W 148;1XGQ A C 194;13.777
1XGQ A K 149;1XGQ A I 150;23.1377
1XGQ A K 149;1XGQ A D 151;0.428207
1XGQ A K 149;1XGQ A G 152;22.0247
1XGQ A K 149;1XGQ A S 153;8.66736
1XGQ A K 149;1XGQ A E 154;11.8265
1XGQ A K 149;1XGQ A R 155;2.62397
1XGQ A K 149;1XGQ A L 179;0.0483199
1XGQ A K 149;1XGQ A S 191;3.02374
1XGQ A K 149;1XGQ A Y 192;5.22331
1XGQ A K 149;1XGQ A T 193;31.9353
1XGQ A K 149;1XGQ A E 195;26.927
1XGQ A I 150;1XGQ A D 151;26.0299
1XGQ A I 150;1XGQ A G 152;3.26661
1XGQ A I 150;1XGQ A S 153;23.8673
1XGQ A I 150;1XGQ A R 155;27.7861
1XGQ A I 150;1XGQ A L 179;12.0245
1XGQ A I 150;1XGQ A L 181;11.1483
1XGQ A I 150;1XGQ A H 189;25.9886
1XGQ A I 150;1XGQ A S 191;7.89972
1XGQ A I 150;1XGQ A Y 192;17.4574
1XGQ A D 151;1XGQ A G 152;23.9005
1XGQ A D 151;1XGQ A S 153;8.50027
1XGQ A D 151;1XGQ A R 188;1.39523
1XGQ A D 151;1XGQ A H 189;21.4653
1XGQ A D 151;1XGQ A N 190;13.8481
1XGQ A D 151;1XGQ A S 191;24.9149
1XGQ A G 152;1XGQ A S 153;24.5253
1XGQ A G 152;1XGQ A E 154;1.83376
1XGQ A G 152;1XGQ A S 191;6.31729
1XGQ A S 153;1XGQ A E 154;31.2947
1XGQ A S 153;1XGQ A R 155;4.13995
1XGQ A E 154;1XGQ A R 155;28.5862
1XGQ A E 154;1XGQ A Q 156;30.7763
1XGQ A R 155;1XGQ A Q 156;29.5615
1XGQ A R 155;1XGQ A N 157;29.6713
1XGQ A R 155;1XGQ A G 158;1.88801
1XGQ A R 155;1XGQ A V 159;9.84223
1XGQ A R 155;1XGQ A L 179;12.29
1XGQ A R 155;1XGQ A T 180;1.38907
1XGQ A R 155;1XGQ A L 181;15.9689
1XGQ A R 155;1XGQ A E 185;15.356
1XGQ A R 155;1XGQ A H 189;5.00437
1XGQ A Q 156;1XGQ A N 157;33.7366
1XGQ A Q 156;1XGQ A G 158;1.12072
1XGQ A Q 156;1XGQ A V 159;20.2724
1XGQ A N 157;1XGQ A G 158;25.7359
1XGQ A N 157;1XGQ A V 159;4.16675
1XGQ A N 157;1XGQ A L 179;4.8885
1XGQ A N 157;1XGQ A L 181;0.164463
1XGQ A G 158;1XGQ A V 159;20.9417
1XGQ A G 158;1XGQ A L 160;8.18301
1XGQ A G 158;1XGQ A T 178;4.11332
1XGQ A G 158;1XGQ A L 179;8.3953
1XGQ A G 158;1XGQ A T 180;24.2446
1XGQ A G 158;1XGQ A L 181;0.295274
1XGQ A G 158;1XGQ B Q 171;0.033448
1XGQ A V 159;1XGQ A L 160;33.1967
1XGQ A V 159;1XGQ A N 161;14.1037
1XGQ A V 159;1XGQ A S 177;5.78355
1XGQ A V 159;1XGQ A T 178;7.63221
1XGQ A V 159;1XGQ A L 179;12.0616
1XGQ A L 160;1XGQ A N 161;30.525
1XGQ A L 160;1XGQ A S 162;0.0293089
1XGQ A L 160;1XGQ A S 176;1.4018
1XGQ A L 160;1XGQ A S 177;3.05848
1XGQ A L 160;1XGQ A T 178;27.1116
1XGQ A L 160;1XGQ A T 180;0.810903
1XGQ A L 160;1XGQ B V 169;23.6569
1XGQ A L 160;1XGQ B L 170;11.5596
1XGQ A L 160;1XGQ B Q 171;26.9621
1XGQ A L 160;1XGQ B T 176;0.270351
1XGQ A N 161;1XGQ A S 162;21.9135
1XGQ A N 161;1XGQ A W 163;30.2052
1XGQ A N 161;1XGQ A M 175;12.7319
1XGQ A N 161;1XGQ A S 176;6.58667
1XGQ A N 161;1XGQ A S 177;12.3571
1XGQ A N 161;1XGQ B V 169;14.5764
1XGQ A S 162;1XGQ A W 163;29.1552
1XGQ A S 162;1XGQ A M 175;7.87943
1XGQ A S 162;1XGQ A S 176;21.5622
1XGQ A S 162;1XGQ B F 166;15.082
1XGQ A S 162;1XGQ B P 167;19.9936
1XGQ A S 162;1XGQ B V 169;13.0313
1XGQ A S 162;1XGQ B S 178;0.398629
1XGQ A W 163;1XGQ A T 164;25.3457
1XGQ A W 163;1XGQ A D 165;0.782531
1XGQ A W 163;1XGQ A S 174;3.62377
1XGQ A W 163;1XGQ A M 175;29.2243
1XGQ A W 163;1XGQ B F 166;2.56989
1XGQ A W 163;1XGQ B P 167;16.6966
1XGQ A T 164;1XGQ A D 165;41.0419
1XGQ A T 164;1XGQ A D 167;0.985593
1XGQ A T 164;1XGQ A T 172;0.0076499
1XGQ A T 164;1XGQ A Y 173;9.32248
1XGQ A T 164;1XGQ A S 174;24.5679
1XGQ A T 164;1XGQ B H 164;9.93714
1XGQ A T 164;1XGQ B T 165;9.61484
1XGQ A T 164;1XGQ B F 166;16.5186
1XGQ A T 164;1XGQ B P 167;10.8667
1XGQ A D 165;1XGQ A Q 166;33.0096
1XGQ A D 165;1XGQ A D 167;8.38243
1XGQ A D 165;1XGQ A T 172;0.604613
1XGQ A D 165;1XGQ A Y 173;5.27215
1XGQ A D 165;1XGQ B P 167;1.27169
1XGQ A Q 166;1XGQ A D 167;22.1758
1XGQ A Q 166;1XGQ A S 168;8.68074
1XGQ A Q 166;1XGQ A S 171;20.464
1XGQ A Q 166;1XGQ A T 172;5.19885
1XGQ A Q 166;1XGQ A Y 173;31.2286
1XGQ A D 167;1XGQ A S 168;27.9337
1XGQ A D 167;1XGQ A K 169;20.5429
1XGQ A D 167;1XGQ A D 170;14.2087
1XGQ A D 167;1XGQ A S 171;16.908
1XGQ A D 167;1XGQ A T 172;20.3506
1XGQ A D 167;1XGQ A Y 173;0.738446
1XGQ A D 167;1XGQ A S 174;0.622437
1XGQ A D 167;1XGQ B H 164;15.3415
1XGQ A S 168;1XGQ A K 169;33.3025
1XGQ A S 168;1XGQ A D 170;0.409137
1XGQ A S 168;1XGQ A S 171;1.98491
1XGQ A K 169;1XGQ A D 170;32.5984
1XGQ A K 169;1XGQ A S 171;0.420835
1XGQ A K 169;1XGQ B S 160;7.99358
1XGQ A K 169;1XGQ B S 161;5.76016
1XGQ A K 169;1XGQ B G 162;4.79549
1XGQ A K 169;1XGQ B V 163;4.7252
1XGQ A D 170;1XGQ A S 171;24.3316
1XGQ A D 170;1XGQ A T 172;22.4051
1XGQ A S 171;1XGQ A T 172;16.6659
1XGQ A S 171;1XGQ A Y 173;1.89668
1XGQ A T 172;1XGQ A Y 173;26.7849
1XGQ A T 172;1XGQ A S 174;1.52073
1XGQ A T 172;1XGQ B H 164;0.0735492
1XGQ A Y 173;1XGQ A S 174;22.715
1XGQ A S 174;1XGQ A M 175;16.934
1XGQ A S 174;1XGQ B H 164;17.7622
1XGQ A S 174;1XGQ B F 166;9.19929
1XGQ A M 175;1XGQ A S 176;22.4799
1XGQ A M 175;1XGQ A S 177;3.96589
1XGQ A M 175;1XGQ B F 166;11.8013
1XGQ A S 176;1XGQ A S 177;21.4142
1XGQ A S 176;1XGQ A T 178;7.45753
1XGQ A S 176;1XGQ B F 166;14.8735
1XGQ A S 176;1XGQ B S 178;12.5367
1XGQ A S 177;1XGQ A T 178;21.538
1XGQ A S 177;1XGQ A C 194;0.553225
1XGQ A T 178;1XGQ A L 179;19.8083
1XGQ A T 178;1XGQ A T 180;12.3458
1XGQ A T 178;1XGQ B L 141;11.3057
1XGQ A T 178;1XGQ B Q 171;1.45364
1XGQ A T 178;1XGQ B T 176;6.34224
1XGQ A T 178;1XGQ B S 178;3.17048
1XGQ A L 179;1XGQ A T 180;19.8284
1XGQ A L 179;1XGQ A L 181;20.1022
1XGQ A L 179;1XGQ A Y 192;7.79016
1XGQ A T 180;1XGQ A L 181;36.2812
1XGQ A T 180;1XGQ B K 143;13.759
1XGQ A T 180;1XGQ B Q 171;22.9026
1XGQ A L 181;1XGQ A T 182;25.2833
1XGQ A L 181;1XGQ A E 185;24.115
1XGQ A L 181;1XGQ A Y 186;13.9266
1XGQ A L 181;1XGQ A H 189;2.42606
1XGQ A L 181;1XGQ A Y 192;10.495
1XGQ A T 182;1XGQ A K 183;17.3429
1XGQ A T 182;1XGQ A D 184;13.4695
1XGQ A T 182;1XGQ A E 185;33.6755
1XGQ A T 182;1XGQ A Y 186;6.62456
1XGQ A T 182;1XGQ A R 188;0.892966
1XGQ A K 183;1XGQ A D 184;28.6644
1XGQ A K 183;1XGQ A E 185;0.521893
1XGQ A K 183;1XGQ A Y 186;7.84516
1XGQ A K 183;1XGQ A E 187;37.5429
1XGQ A D 184;1XGQ A E 185;16.0619
1XGQ A D 184;1XGQ A Y 186;0.758877
1XGQ A D 184;1XGQ A E 187;15.9851
1XGQ A D 184;1XGQ A R 188;32.3163
1XGQ A E 185;1XGQ A Y 186;17.4399
1XGQ A E 185;1XGQ A E 187;0.9374
1XGQ A E 185;1XGQ A R 188;29.2352
1XGQ A E 185;1XGQ A H 189;18.2008
1XGQ A E 185;1XGQ A Y 192;1.2705
1XGQ A Y 186;1XGQ A E 187;23.7989
1XGQ A Y 186;1XGQ A R 188;1.7997
1XGQ A Y 186;1XGQ A H 189;6.20476
1XGQ A Y 186;1XGQ A Y 192;25.7782
1XGQ A Y 186;1XGQ A F 209;12.3231
1XGQ A Y 186;1XGQ A R 211;30.0305
1XGQ A E 187;1XGQ A R 188;23.6514
1XGQ A E 187;1XGQ A H 189;2.79477
1XGQ A E 187;1XGQ A R 211;34.9675
1XGQ A R 188;1XGQ A H 189;41.3125
1XGQ A R 188;1XGQ A R 211;0.0343151
1XGQ A H 189;1XGQ A N 190;23.7911
1XGQ A H 189;1XGQ A S 191;0.461095
1XGQ A H 189;1XGQ A Y 192;15.3823
1XGQ A H 189;1XGQ A R 211;14.2284
1XGQ A N 190;1XGQ A S 191;24.0058
1XGQ A N 190;1XGQ A Y 192;9.8401
1XGQ A N 190;1XGQ A F 209;2.00992
1XGQ A N 190;1XGQ A N 210;14.142
1XGQ A N 190;1XGQ A R 211;22.2648
1XGQ A N 190;1XGQ A N 212;27.6187
1XGQ A S 191;1XGQ A Y 192;22.8279
1XGQ A S 191;1XGQ A T 193;6.75226
1XGQ A S 191;1XGQ A S 208;5.2831
1XGQ A S 191;1XGQ A F 209;3.43758
1XGQ A S 191;1XGQ A N 210;16.2306
1XGQ A Y 192;1XGQ A T 193;19.3671
1XGQ A Y 192;1XGQ A S 208;9.55196
1XGQ A Y 192;1XGQ A F 209;31.5066
1XGQ A Y 192;1XGQ A R 211;8.2629
1XGQ A T 193;1XGQ A C 194;20.5962
1XGQ A T 193;1XGQ A E 195;13.4918
1XGQ A T 193;1XGQ A V 206;12.9215
1XGQ A T 193;1XGQ A K 207;5.60383
1XGQ A T 193;1XGQ A S 208;16.9604
1XGQ A C 194;1XGQ A E 195;21.2294
1XGQ A C 194;1XGQ A A 196;2.7625
1XGQ A C 194;1XGQ A I 205;3.05609
1XGQ A C 194;1XGQ A V 206;3.16976
1XGQ A C 194;1XGQ A K 207;19.0102
1XGQ A E 195;1XGQ A A 196;20.1606
1XGQ A E 195;1XGQ A T 197;3.47121
1XGQ A E 195;1XGQ A P 204;18.0595
1XGQ A E 195;1XGQ A I 205;4.49943
1XGQ A E 195;1XGQ A V 206;19.1577
1XGQ A A 196;1XGQ A T 197;20.0303
1XGQ A A 196;1XGQ A H 198;5.06813
1XGQ A A 196;1XGQ A P 204;9.87108
1XGQ A A 196;1XGQ A I 205;26.2271
1XGQ A T 197;1XGQ A H 198;31.3736
1XGQ A T 197;1XGQ A S 201;5.73974
1XGQ A T 197;1XGQ A T 202;4.61714
1XGQ A T 197;1XGQ A P 204;22.2404
1XGQ A H 198;1XGQ A K 199;32.1323
1XGQ A H 198;1XGQ A T 200;23.2634
1XGQ A H 198;1XGQ A S 201;20.8747
1XGQ A H 198;1XGQ A P 204;0.487037
1XGQ A H 198;1XGQ A I 205;1.35645
1XGQ A K 199;1XGQ A T 200;22.5903
1XGQ A K 199;1XGQ A S 201;8.49447
1XGQ A T 200;1XGQ A S 201;33.2135
1XGQ A T 200;1XGQ A I 205;0.698113
1XGQ A S 201;1XGQ A T 202;30.2498
1XGQ A S 201;1XGQ A S 203;26.6451
1XGQ A S 201;1XGQ A P 204;1.92548
1XGQ A S 201;1XGQ A I 205;9.41732
1XGQ A T 202;1XGQ A S 203;28.0543
1XGQ A T 202;1XGQ A P 204;9.86948
1XGQ A S 203;1XGQ A P 204;36.795
1XGQ A S 203;1XGQ A I 205;3.85968
1XGQ A P 204;1XGQ A I 205;22.3792
1XGQ A P 204;1XGQ A V 206;19.6073
1XGQ A I 205;1XGQ A V 206;27.4226
1XGQ A I 205;1XGQ A K 207;14.6642
1XGQ A V 206;1XGQ A K 207;34.1235
1XGQ A V 206;1XGQ A S 208;8.6257
1XGQ A K 207;1XGQ A S 208;23.15
1XGQ A S 208;1XGQ A F 209;32.7811
1XGQ A S 208;1XGQ A N 210;3.39455
1XGQ A F 209;1XGQ A N 210;36.6014
1XGQ A F 209;1XGQ A R 211;7.11527
1XGQ A F 209;1XGQ A E 213;0.0638986
1XGQ A F 209;1XGQ B V 127;29.1586
1XGQ A N 210;1XGQ A R 211;18.0382
1XGQ A N 210;1XGQ A N 212;19.1413
1XGQ A N 210;1XGQ A E 213;30.2405
1XGQ A N 210;1XGQ A C 214;0.822779
1XGQ A N 210;1XGQ B V 127;2.66324
1XGQ A R 211;1XGQ A N 212;21.1953
1XGQ A R 211;1XGQ A E 213;4.01429
1XGQ A R 211;1XGQ A C 214;11.8905
1XGQ A N 212;1XGQ A E 213;34.3927
1XGQ A N 212;1XGQ A C 214;0.000316245
1XGQ A E 213;1XGQ A C 214;51.322
1XGQ A E 213;1XGQ B V 127;3.37592
1XGQ A C 214;1XGQ B V 127;20.0909
1XGQ A C 214;1XGQ B C 128;38.7763
1XGQ A C 214;1XGQ B D 130;2.49521
1XGQ B E 1;1XGQ B V 2;35.4221
1XGQ B E 1;1XGQ B Q 3;28.852
1XGQ B E 1;1XGQ B T 25;2.85844
1XGQ B E 1;1XGQ B G 26;18.3502
1XGQ B V 2;1XGQ B Q 3;24.7939
1XGQ B V 2;1XGQ B L 4;5.55843
1XGQ B V 2;1XGQ B V 24;5.60767
1XGQ B V 2;1XGQ B T 25;6.29927
1XGQ B V 2;1XGQ B G 26;5.68051
1XGQ B V 2;1XGQ B D 27;14.3648
1XGQ B V 2;1XGQ B W 34;10.2769
1XGQ B V 2;1XGQ B D 101;1.18147
1XGQ B V 2;1XGQ B V 102;31.5454
1XGQ B Q 3;1XGQ B L 4;30.0889
1XGQ B Q 3;1XGQ B S 23;3.25273
1XGQ B Q 3;1XGQ B V 24;3.23139
1XGQ B Q 3;1XGQ B T 25;33.5974
1XGQ B Q 3;1XGQ B V 102;6.04776
1XGQ B L 4;1XGQ B Q 5;27.0369
1XGQ B L 4;1XGQ B C 22;10.0107
1XGQ B L 4;1XGQ B S 23;6.55935
1XGQ B L 4;1XGQ B V 24;13.5983
1XGQ B L 4;1XGQ B W 34;13.233
1XGQ B L 4;1XGQ B Y 78;5.37082
1XGQ B L 4;1XGQ B C 95;11.1342
1XGQ B L 4;1XGQ B A 96;7.87224
1XGQ B L 4;1XGQ B S 97;1.93999
1XGQ B L 4;1XGQ B V 102;20.6884
1XGQ B L 4;1XGQ B W 103;8.76793
1XGQ B L 4;1XGQ B G 104;15.616
1XGQ B L 4;1XGQ B A 105;2.76738
1XGQ B Q 5;1XGQ B E 6;41.2703
1XGQ B Q 5;1XGQ B S 7;5.73833
1XGQ B Q 5;1XGQ B T 21;2.64614
1XGQ B Q 5;1XGQ B C 22;6.62937
1XGQ B Q 5;1XGQ B S 23;28.0713
1XGQ B Q 5;1XGQ B C 95;4.08399
1XGQ B Q 5;1XGQ B G 104;2.39615
1XGQ B Q 5;1XGQ B A 105;16.8106
1XGQ B Q 5;1XGQ B G 106;1.08243
1XGQ B E 6;1XGQ B S 7;26.9692
1XGQ B E 6;1XGQ B L 20;2.9957
1XGQ B E 6;1XGQ B T 21;6.43244
1XGQ B E 6;1XGQ B C 22;1.5175
1XGQ B E 6;1XGQ B W 36;10.2108
1XGQ B E 6;1XGQ B Y 93;5.26276
1XGQ B E 6;1XGQ B Y 94;8.01144
1XGQ B E 6;1XGQ B C 95;20.0867
1XGQ B E 6;1XGQ B G 104;12.0517
1XGQ B E 6;1XGQ B A 105;3.39073
1XGQ B E 6;1XGQ B G 106;15.6168
1XGQ B E 6;1XGQ B T 107;20.1065
1XGQ B S 7;1XGQ B G 8;29.4729
1XGQ B S 7;1XGQ B L 20;10.0205
1XGQ B S 7;1XGQ B T 21;33.5486
1XGQ B S 7;1XGQ B S 23;4.13267
1XGQ B S 7;1XGQ B T 107;6.2009
1XGQ B G 8;1XGQ B P 9;32.0937
1XGQ B G 8;1XGQ B S 10;8.93059
1XGQ B G 8;1XGQ B S 19;3.08247
1XGQ B G 8;1XGQ B L 20;11.8205
1XGQ B G 8;1XGQ B T 21;0.267245
1XGQ B G 8;1XGQ B T 107;7.04553
1XGQ B P 9;1XGQ B S 10;21.7707
1XGQ B P 9;1XGQ B L 11;14.4884
1XGQ B P 9;1XGQ B V 12;12.4954
1XGQ B P 9;1XGQ B L 18;0.587258
1XGQ B P 9;1XGQ B S 19;23.6979
1XGQ B P 9;1XGQ B L 20;3.69112
1XGQ B P 9;1XGQ B V 109;11.0178
1XGQ B S 10;1XGQ B L 11;30.0887
1XGQ B S 10;1XGQ B T 107;3.4941
1XGQ B S 10;1XGQ B T 108;15.6295
1XGQ B S 10;1XGQ B V 109;9.16251
1XGQ B S 10;1XGQ B T 110;13.7825
1XGQ B L 11;1XGQ B V 12;31.7753
1XGQ B L 11;1XGQ B K 13;12.2379
1XGQ B L 11;1XGQ B V 109;0.969756
1XGQ B L 11;1XGQ B T 110;17.4247
1XGQ B L 11;1XGQ B S 112;14.3027
1XGQ B L 11;1XGQ B A 114;5.98139
1XGQ B L 11;1XGQ B F 146;20.3828
1XGQ B L 11;1XGQ B P 147;10.6992
1XGQ B V 12;1XGQ B K 13;27.3019
1XGQ B V 12;1XGQ B P 14;0.0582533
1XGQ B V 12;1XGQ B Q 16;9.62563
1XGQ B V 12;1XGQ B T 17;13.5557
1XGQ B V 12;1XGQ B L 18;16.7443
1XGQ B V 12;1XGQ B S 19;2.24156
1XGQ B V 12;1XGQ B V 85;10.9448
1XGQ B V 12;1XGQ B V 109;11.2854
1XGQ B V 12;1XGQ B T 110;7.64427
1XGQ B V 12;1XGQ B V 111;15.3921
1XGQ B V 12;1XGQ B S 112;6.0733
1XGQ B K 13;1XGQ B P 14;28.1936
1XGQ B K 13;1XGQ B S 15;0.146243
1XGQ B K 13;1XGQ B Q 16;24.5103
1XGQ B K 13;1XGQ B V 85;4.41875
1XGQ B K 13;1XGQ B V 111;1.83841
1XGQ B K 13;1XGQ B S 112;11.0201
1XGQ B K 13;1XGQ B S 113;14.7278
1XGQ B K 13;1XGQ B A 114;5.80199
1XGQ B K 13;1XGQ B K 115;11.2826
1XGQ B P 14;1XGQ B S 15;28.4524
1XGQ B P 14;1XGQ B Q 16;6.66254
1XGQ B P 14;1XGQ B V 85;6.5432
1XGQ B P 14;1XGQ B T 86;7.64119
1XGQ B P 14;1XGQ B T 87;10.8195
1XGQ B P 14;1XGQ B V 111;11.7355
1XGQ B P 14;1XGQ B S 112;9.55344
1XGQ B P 14;1XGQ B S 113;20.7739
1XGQ B S 15;1XGQ B Q 16;37.4768
1XGQ B S 15;1XGQ B T 17;0.651978
1XGQ B S 15;1XGQ B S 84;20.9661
1XGQ B S 15;1XGQ B V 85;12.9298
1XGQ B Q 16;1XGQ B T 17;30.2387
1XGQ B Q 16;1XGQ B L 18;0.0259801
1XGQ B Q 16;1XGQ B L 82;0.553191
1XGQ B Q 16;1XGQ B N 83;1.60531
1XGQ B Q 16;1XGQ B S 84;4.99127
1XGQ B Q 16;1XGQ B V 85;12.7726
1XGQ B T 17;1XGQ B L 18;22.351
1XGQ B T 17;1XGQ B S 19;16.5043
1XGQ B T 17;1XGQ B Q 81;15.757
1XGQ B T 17;1XGQ B L 82;8.40629
1XGQ B T 17;1XGQ B N 83;20.8651
1XGQ B T 17;1XGQ B S 84;1.11388
1XGQ B T 17;1XGQ B V 85;0.132105
1XGQ B L 18;1XGQ B S 19;26.5886
1XGQ B L 18;1XGQ B L 20;12.0536
1XGQ B L 18;1XGQ B L 80;12.8845
1XGQ B L 18;1XGQ B Q 81;5.16127
1XGQ B L 18;1XGQ B L 82;26.8339
1XGQ B L 18;1XGQ B V 85;12.4247
1XGQ B L 18;1XGQ B D 89;5.10588
1XGQ B L 18;1XGQ B Y 93;16.1651
1XGQ B L 18;1XGQ B V 109;19.1582
1XGQ B L 18;1XGQ B V 111;4.35741
1XGQ B S 19;1XGQ B L 20;28.1471
1XGQ B S 19;1XGQ B L 80;7.81381
1XGQ B S 19;1XGQ B Q 81;5.17695
1XGQ B S 19;1XGQ B V 109;0.000371193
1XGQ B L 20;1XGQ B T 21;22.6956
1XGQ B L 20;1XGQ B W 36;18.765
1XGQ B L 20;1XGQ B Y 79;10.2392
1XGQ B L 20;1XGQ B L 80;24.1923
1XGQ B L 20;1XGQ B Y 93;15.5365
1XGQ B L 20;1XGQ B T 107;16.0207
1XGQ B L 20;1XGQ B V 109;14.5693
1XGQ B T 21;1XGQ B C 22;21.0033
1XGQ B T 21;1XGQ B S 23;6.98939
1XGQ B T 21;1XGQ B W 36;6.92774
1XGQ B T 21;1XGQ B Q 77;17.7251
1XGQ B T 21;1XGQ B Y 78;2.45891
1XGQ B T 21;1XGQ B Y 79;22.4567
1XGQ B C 22;1XGQ B S 23;19.4854
1XGQ B C 22;1XGQ B V 24;6.26137
1XGQ B C 22;1XGQ B W 36;9.44073
1XGQ B C 22;1XGQ B Q 77;8.07804
1XGQ B C 22;1XGQ B Y 78;30.4579
1XGQ B C 22;1XGQ B C 95;17.3538
1XGQ B S 23;1XGQ B V 24;20.6856
1XGQ B S 23;1XGQ B T 25;12.8815
1XGQ B S 23;1XGQ B N 76;2.00516
1XGQ B S 23;1XGQ B Q 77;21.2539
1XGQ B V 24;1XGQ B T 25;31.0384
1XGQ B V 24;1XGQ B D 27;11.685
1XGQ B V 24;1XGQ B S 28;1.72813
1XGQ B V 24;1XGQ B V 29;12.8659
1XGQ B V 24;1XGQ B W 34;17.8822
1XGQ B V 24;1XGQ B K 75;0.174234
1XGQ B V 24;1XGQ B N 76;33.0336
1XGQ B V 24;1XGQ B Q 77;3.04177
1XGQ B V 24;1XGQ B Y 78;9.76923
1XGQ B T 25;1XGQ B G 26;25.3859
1XGQ B T 25;1XGQ B D 27;6.30521
1XGQ B T 25;1XGQ B N 76;0.530475
1XGQ B G 26;1XGQ B D 27;31.9313
1XGQ B D 27;1XGQ B S 28;34.2146
1XGQ B D 27;1XGQ B V 29;0.0129311
1XGQ B D 27;1XGQ B S 31;18.744
1XGQ B D 27;1XGQ B D 32;5.42825
1XGQ B D 27;1XGQ B W 34;7.24411
1XGQ B D 27;1XGQ B N 76;10.7171
1XGQ B S 28;1XGQ B V 29;18.1844
1XGQ B S 28;1XGQ B T 30;16.3963
1XGQ B S 28;1XGQ B S 31;22.2452
1XGQ B S 28;1XGQ B D 32;1.03149
1XGQ B S 28;1XGQ B W 34;5.89692
1XGQ B S 28;1XGQ B T 73;5.0966
1XGQ B S 28;1XGQ B N 76;13.7764
1XGQ B V 29;1XGQ B T 30;24.7477
1XGQ B V 29;1XGQ B S 31;2.23192
1XGQ B V 29;1XGQ B D 32;6.45915
1XGQ B V 29;1XGQ B W 34;25.1101
1XGQ B V 29;1XGQ B I 51;0.186665
1XGQ B V 29;1XGQ B S 52;0.00849499
1XGQ B V 29;1XGQ B Y 53;0.127648
1XGQ B V 29;1XGQ B R 71;21.6651
1XGQ B V 29;1XGQ B D 72;4.43029
1XGQ B V 29;1XGQ B T 73;11.048
1XGQ B V 29;1XGQ B N 76;20.7388
1XGQ B V 29;1XGQ B Q 77;10.1198
1XGQ B V 29;1XGQ B Y 78;10.0025
1XGQ B T 30;1XGQ B S 31;21.4266
1XGQ B T 30;1XGQ B D 32;3.72921
1XGQ B T 30;1XGQ B Y 53;10.0738
1XGQ B T 30;1XGQ B R 71;21.9039
1XGQ B T 30;1XGQ B T 73;22.8616
1XGQ B S 31;1XGQ B D 32;24.338
1XGQ B D 32;1XGQ B V 33;30.7531
1XGQ B D 32;1XGQ B W 34;30.4337
1XGQ B D 32;1XGQ B I 51;0.787537
1XGQ B D 32;1XGQ B S 52;3.61857
1XGQ B D 32;1XGQ B Y 53;13.333
1XGQ B D 32;1XGQ B R 71;0.230117
1XGQ B D 32;1XGQ B S 97;11.7256
1XGQ B D 32;1XGQ B W 98;1.5049
1XGQ B D 32;1XGQ B G 99;1.24421
1XGQ B V 33;1XGQ B W 34;23.9764
1XGQ B V 33;1XGQ B S 35;0.0295233
1XGQ B V 33;1XGQ B Y 50;15.3207
1XGQ B V 33;1XGQ B I 51;7.20286
1XGQ B V 33;1XGQ B S 52;15.6051
1XGQ B V 33;1XGQ B Y 53;15.3828
1XGQ B V 33;1XGQ B S 97;3.77621
1XGQ B V 33;1XGQ B W 98;30.6339
1XGQ B W 34;1XGQ B S 35;18.8942
1XGQ B W 34;1XGQ B W 36;0.0238909
1XGQ B W 34;1XGQ B Y 50;7.97882
1XGQ B W 34;1XGQ B I 51;27.48
1XGQ B W 34;1XGQ B S 52;0.809976
1XGQ B W 34;1XGQ B I 69;0.958811
1XGQ B W 34;1XGQ B R 71;0.883116
1XGQ B W 34;1XGQ B Y 78;27.2729
1XGQ B W 34;1XGQ B A 96;4.58535
1XGQ B W 34;1XGQ B S 97;13.317
1XGQ B W 34;1XGQ B W 98;2.18031
1XGQ B W 34;1XGQ B V 102;5.55177
1XGQ B S 35;1XGQ B W 36;22.7804
1XGQ B S 35;1XGQ B I 37;10.5874
1XGQ B S 35;1XGQ B Y 47;16.2614
1XGQ B S 35;1XGQ B G 49;5.94789
1XGQ B S 35;1XGQ B Y 50;11.2946
1XGQ B S 35;1XGQ B I 69;0.423328
1XGQ B S 35;1XGQ B Y 78;11.7443
1XGQ B S 35;1XGQ B C 95;5.85084
1XGQ B S 35;1XGQ B A 96;16.1466
1XGQ B S 35;1XGQ B S 97;2.48907
1XGQ B S 35;1XGQ B W 98;9.00716
1XGQ B W 36;1XGQ B I 37;23.3471
1XGQ B W 36;1XGQ B Y 47;3.12843
1XGQ B W 36;1XGQ B M 48;22.1558
1XGQ B W 36;1XGQ B G 49;11.603
1XGQ B W 36;1XGQ B I 67;0.301365
1XGQ B W 36;1XGQ B I 69;19.3347
1XGQ B W 36;1XGQ B Y 78;19.3134
1XGQ B W 36;1XGQ B Y 79;9.64018
1XGQ B W 36;1XGQ B L 80;30.6559
1XGQ B W 36;1XGQ B Y 93;7.24514
1XGQ B W 36;1XGQ B Y 94;13.0504
1XGQ B W 36;1XGQ B C 95;13.1491
1XGQ B I 37;1XGQ B R 38;22.3066
1XGQ B I 37;1XGQ B L 45;12.3458
1XGQ B I 37;1XGQ B E 46;8.99798
1XGQ B I 37;1XGQ B Y 47;23.3332
1XGQ B I 37;1XGQ B M 48;5.47496
1XGQ B I 37;1XGQ B T 92;0.224871
1XGQ B I 37;1XGQ B Y 93;4.00116
1XGQ B I 37;1XGQ B Y 94;30.1303
1XGQ B I 37;1XGQ B C 95;0.489472
1XGQ B I 37;1XGQ B A 96;11.966
1XGQ B I 37;1XGQ B S 97;0.409578
1XGQ B I 37;1XGQ B W 103;23.7675
1XGQ B R 38;1XGQ B K 39;17.6556
1XGQ B R 38;1XGQ B F 40;29.388
1XGQ B R 38;1XGQ B K 44;1.5388
1XGQ B R 38;1XGQ B L 45;6.96716
1XGQ B R 38;1XGQ B E 46;33.6629
1XGQ B R 38;1XGQ B M 48;23.8894
1XGQ B R 38;1XGQ B L 63;11.5777
1XGQ B R 38;1XGQ B R 66;2.0563
1XGQ B R 38;1XGQ B L 82;7.36453
1XGQ B R 38;1XGQ B E 88;0.173217
1XGQ B R 38;1XGQ B D 89;18.8085
1XGQ B R 38;1XGQ B A 91;8.87497
1XGQ B R 38;1XGQ B T 92;5.26804
1XGQ B R 38;1XGQ B Y 93;23.6265
1XGQ B R 38;1XGQ B Y 94;1.47543
1XGQ B K 39;1XGQ B F 40;28.7399
1XGQ B K 39;1XGQ B P 41;1.49124
1XGQ B K 39;1XGQ B G 42;0.0163301
1XGQ B K 39;1XGQ B N 43;26.4611
1XGQ B K 39;1XGQ B K 44;6.85046
1XGQ B K 39;1XGQ B L 45;19.4725
1XGQ B K 39;1XGQ B A 91;9.74048
1XGQ B K 39;1XGQ B T 92;27.1354
1XGQ B K 39;1XGQ B Y 94;19.0221
1XGQ B F 40;1XGQ B P 41;37.6835
1XGQ B F 40;1XGQ B G 42;0.57717
1XGQ B F 40;1XGQ B N 43;3.85138
1XGQ B F 40;1XGQ B K 44;34.7135
1XGQ B F 40;1XGQ B L 45;0.63375
1XGQ B F 40;1XGQ B E 46;20.2175
1XGQ B F 40;1XGQ B E 88;15.6043
1XGQ B F 40;1XGQ B D 89;2.39248
1XGQ B F 40;1XGQ B T 90;5.35454
1XGQ B F 40;1XGQ B A 91;12.8994
1XGQ B P 41;1XGQ B G 42;28.8009
1XGQ B P 41;1XGQ B N 43;0.648201
1XGQ B P 41;1XGQ B K 44;9.82519
1XGQ B P 41;1XGQ B T 90;18.7982
1XGQ B P 41;1XGQ B A 91;4.75784
1XGQ B G 42;1XGQ B N 43;31.6322
1XGQ B G 42;1XGQ B K 44;16.2075
1XGQ B N 43;1XGQ B K 44;23.1266
1XGQ B N 43;1XGQ B L 45;5.35873
1XGQ B K 44;1XGQ B L 45;25.2112
1XGQ B K 44;1XGQ B E 46;0.694585
1XGQ B L 45;1XGQ B E 46;24.7453
1XGQ B L 45;1XGQ B Y 94;5.30894
1XGQ B L 45;1XGQ B W 103;2.13147
1XGQ B E 46;1XGQ B Y 47;23.2713
1XGQ B E 46;1XGQ B M 48;11.4427
1XGQ B E 46;1XGQ B H 60;17.9501
1XGQ B E 46;1XGQ B S 62;10.5205
1XGQ B E 46;1XGQ B L 63;12.6199
1XGQ B Y 47;1XGQ B M 48;17.4801
1XGQ B Y 47;1XGQ B G 49;11.1023
1XGQ B Y 47;1XGQ B Y 50;6.72983
1XGQ B Y 47;1XGQ B H 60;13.6307
1XGQ B Y 47;1XGQ B S 97;2.74781
1XGQ B Y 47;1XGQ B W 98;14.9535
1XGQ B Y 47;1XGQ B W 103;0.283225
1XGQ B M 48;1XGQ B G 49;19.5241
1XGQ B M 48;1XGQ B Y 59;3.39231
1XGQ B M 48;1XGQ B H 60;12.2465
1XGQ B M 48;1XGQ B L 63;21.1671
1XGQ B M 48;1XGQ B I 67;17.8167
1XGQ B M 48;1XGQ B I 69;0.279681
1XGQ B M 48;1XGQ B L 80;15.2809
1XGQ B M 48;1XGQ B L 82;12.4909
1XGQ B M 48;1XGQ B Y 93;12.7778
1XGQ B G 49;1XGQ B Y 50;16.3422
1XGQ B G 49;1XGQ B Y 58;5.25527
1XGQ B G 49;1XGQ B Y 59;3.12323
1XGQ B G 49;1XGQ B H 60;0.0608569
1XGQ B G 49;1XGQ B I 67;0.506965
1XGQ B G 49;1XGQ B I 69;11.4173
1XGQ B Y 50;1XGQ B I 51;19.855
1XGQ B Y 50;1XGQ B S 52;9.63062
1XGQ B Y 50;1XGQ B S 56;0.107281
1XGQ B Y 50;1XGQ B T 57;9.27437
1XGQ B Y 50;1XGQ B Y 58;35.4843
1XGQ B Y 50;1XGQ B Y 59;0.0332216
1XGQ B Y 50;1XGQ B I 69;10.8349
1XGQ B Y 50;1XGQ B W 98;13.7797
1XGQ B I 51;1XGQ B S 52;25.4091
1XGQ B I 51;1XGQ B G 55;17.1908
1XGQ B I 51;1XGQ B S 56;5.71011
1XGQ B I 51;1XGQ B T 57;12.0843
1XGQ B I 51;1XGQ B I 69;21.6005
1XGQ B I 51;1XGQ B T 70;9.75098
1XGQ B I 51;1XGQ B R 71;21.0861
1XGQ B I 51;1XGQ B Y 78;10.6605
1XGQ B S 52;1XGQ B Y 53;22.2769
1XGQ B S 52;1XGQ B S 54;6.39584
1XGQ B S 52;1XGQ B G 55;7.27069
1XGQ B S 52;1XGQ B S 56;18.9254
1XGQ B S 52;1XGQ B T 57;0.0148053
1XGQ B S 52;1XGQ B R 71;7.49835
1XGQ B Y 53;1XGQ B S 54;35.005
1XGQ B Y 53;1XGQ B G 55;0.923141
1XGQ B Y 53;1XGQ B R 71;16.2667
1XGQ B S 54;1XGQ B G 55;21.5341
1XGQ B S 54;1XGQ B S 56;13.6794
1XGQ B S 54;1XGQ B R 71;10.552
1XGQ B G 55;1XGQ B S 56;24.61
1XGQ B G 55;1XGQ B T 57;7.77522
1XGQ B G 55;1XGQ B I 69;0.0259687
1XGQ B G 55;1XGQ B R 71;12.7656
1XGQ B S 56;1XGQ B T 57;34.4844
1XGQ B S 56;1XGQ B Y 58;2.90397
1XGQ B T 57;1XGQ B Y 58;36.0342
1XGQ B T 57;1XGQ B Y 59;28.1398
1XGQ B T 57;1XGQ B I 69;13.1779
1XGQ B Y 58;1XGQ B Y 59;27.1806
1XGQ B Y 58;1XGQ B I 69;0.757304
1XGQ B Y 59;1XGQ B H 60;19.3245
1XGQ B Y 59;1XGQ B P 61;7.15909
1XGQ B Y 59;1XGQ B L 63;0.0249673
1XGQ B Y 59;1XGQ B K 64;32.7163
1XGQ B Y 59;1XGQ B I 67;33.4289
1XGQ B Y 59;1XGQ B S 68;11.1456
1XGQ B Y 59;1XGQ B I 69;25.3286
1XGQ B H 60;1XGQ B P 61;23.7531
1XGQ B H 60;1XGQ B S 62;21.5625
1XGQ B H 60;1XGQ B L 63;19.0227
1XGQ B H 60;1XGQ B K 64;7.13681
1XGQ B H 60;1XGQ B I 67;0.294543
1XGQ B P 61;1XGQ B S 62;26.3027
1XGQ B P 61;1XGQ B L 63;1.93501
1XGQ B P 61;1XGQ B K 64;24.4806
1XGQ B S 62;1XGQ B L 63;33.036
1XGQ B S 62;1XGQ B K 64;2.36976
1XGQ B S 62;1XGQ B R 66;4.3235
1XGQ B L 63;1XGQ B K 64;19.4598
1XGQ B L 63;1XGQ B S 65;3.1522
1XGQ B L 63;1XGQ B R 66;26.3595
1XGQ B L 63;1XGQ B I 67;22.0658
1XGQ B L 63;1XGQ B L 82;10.6452
1XGQ B K 64;1XGQ B S 65;39.9638
1XGQ B K 64;1XGQ B I 67;8.15856
1XGQ B S 65;1XGQ B R 66;35.0122
1XGQ B S 65;1XGQ B I 67;9.37098
1XGQ B S 65;1XGQ B N 83;4.19176
1XGQ B R 66;1XGQ B I 67;21.7291
1XGQ B R 66;1XGQ B S 68;0.433451
1XGQ B R 66;1XGQ B Q 81;5.09027
1XGQ B R 66;1XGQ B L 82;27.3029
1XGQ B R 66;1XGQ B N 83;36.9269
1XGQ B R 66;1XGQ B S 84;21.4807
1XGQ B R 66;1XGQ B V 85;4.98623
1XGQ B R 66;1XGQ B T 86;0.338128
1XGQ B R 66;1XGQ B D 89;19.2023
1XGQ B I 67;1XGQ B S 68;27.9456
1XGQ B I 67;1XGQ B I 69;10.5073
1XGQ B I 67;1XGQ B L 80;12.962
1XGQ B I 67;1XGQ B Q 81;6.25222
1XGQ B I 67;1XGQ B L 82;9.92873
1XGQ B S 68;1XGQ B I 69;21.5845
1XGQ B S 68;1XGQ B T 70;15.6659
1XGQ B S 68;1XGQ B Y 79;1.79329
1XGQ B S 68;1XGQ B L 80;5.65378
1XGQ B S 68;1XGQ B Q 81;40.1153
1XGQ B I 69;1XGQ B T 70;29.481
1XGQ B I 69;1XGQ B Y 78;6.31809
1XGQ B I 69;1XGQ B Y 79;9.63693
1XGQ B I 69;1XGQ B L 80;6.26478
1XGQ B T 70;1XGQ B R 71;25.8006
1XGQ B T 70;1XGQ B Y 78;6.76197
1XGQ B T 70;1XGQ B Y 79;31.7824
1XGQ B R 71;1XGQ B D 72;24.9068
1XGQ B R 71;1XGQ B T 73;13.6738
1XGQ B R 71;1XGQ B Q 77;4.23484
1XGQ B R 71;1XGQ B Y 78;9.97602
1XGQ B R 71;1XGQ B Y 79;7.81169
1XGQ B D 72;1XGQ B T 73;22.1015
1XGQ B D 72;1XGQ B S 74;15.9261
1XGQ B D 72;1XGQ B K 75;29.1355
1XGQ B D 72;1XGQ B N 76;6.12251
1XGQ B D 72;1XGQ B Q 77;14.3418
1XGQ B D 72;1XGQ B Y 79;16.253
1XGQ B T 73;1XGQ B S 74;29.4615
1XGQ B T 73;1XGQ B K 75;0.579568
1XGQ B T 73;1XGQ B N 76;13.1498
1XGQ B S 74;1XGQ B K 75;30.0308
1XGQ B S 74;1XGQ B N 76;3.40737
1XGQ B K 75;1XGQ B N 76;27.3305
1XGQ B K 75;1XGQ B Q 77;30.0101
1XGQ B K 75;1XGQ B Y 79;14.9538
1XGQ B N 76;1XGQ B Q 77;19.8137
1XGQ B Q 77;1XGQ B Y 78;18.2122
1XGQ B Q 77;1XGQ B Y 79;20.7184
1XGQ B Y 78;1XGQ B Y 79;24.0481
1XGQ B Y 78;1XGQ B C 95;7.62733
1XGQ B Y 78;1XGQ B A 96;6.35653
1XGQ B Y 79;1XGQ B L 80;22.3691
1XGQ B Y 79;1XGQ B Q 81;0.232501
1XGQ B L 80;1XGQ B Q 81;28.753
1XGQ B L 80;1XGQ B L 82;7.38173
1XGQ B L 80;1XGQ B Y 93;9.99092
1XGQ B Q 81;1XGQ B L 82;19.5
1XGQ B Q 81;1XGQ B N 83;20.9314
1XGQ B L 82;1XGQ B N 83;19.4111
1XGQ B L 82;1XGQ B V 85;13.9015
1XGQ B L 82;1XGQ B D 89;8.07244
1XGQ B L 82;1XGQ B Y 93;5.98878
1XGQ B N 83;1XGQ B S 84;29.2149
1XGQ B N 83;1XGQ B V 85;5.63161
1XGQ B S 84;1XGQ B V 85;18.2022
1XGQ B S 84;1XGQ B T 86;10.0364
1XGQ B S 84;1XGQ B D 89;0.0266405
1XGQ B V 85;1XGQ B T 86;24.3162
1XGQ B V 85;1XGQ B D 89;13.3822
1XGQ B V 85;1XGQ B V 111;15.8106
1XGQ B T 86;1XGQ B T 87;19.3748
1XGQ B T 86;1XGQ B E 88;25.7362
1XGQ B T 86;1XGQ B D 89;18.332
1XGQ B T 86;1XGQ B T 90;0.127406
1XGQ B T 86;1XGQ B V 111;11.7248
1XGQ B T 87;1XGQ B E 88;36.5019
1XGQ B T 87;1XGQ B D 89;1.71254
1XGQ B T 87;1XGQ B T 90;18.9645
1XGQ B T 87;1XGQ B V 111;21.741
1XGQ B T 87;1XGQ B S 112;4.95255
1XGQ B T 87;1XGQ B L 170;3.78248
1XGQ B T 87;1XGQ B D 173;0.489017
1XGQ B E 88;1XGQ B D 89;21.8095
1XGQ B E 88;1XGQ B T 90;6.45865
1XGQ B D 89;1XGQ B T 90;17.8978
1XGQ B D 89;1XGQ B A 91;5.29547
1XGQ B D 89;1XGQ B Y 93;12.6036
1XGQ B D 89;1XGQ B V 109;2.24177
1XGQ B D 89;1XGQ B V 111;9.56845
1XGQ B T 90;1XGQ B A 91;23.2854
1XGQ B T 90;1XGQ B T 108;4.20362
1XGQ B T 90;1XGQ B V 109;7.90719
1XGQ B T 90;1XGQ B T 110;19.6112
1XGQ B T 90;1XGQ B V 111;18.4034
1XGQ B T 90;1XGQ B Y 175;0.929684
1XGQ B A 91;1XGQ B T 92;21.8389
1XGQ B A 91;1XGQ B Y 93;16.1842
1XGQ B A 91;1XGQ B T 107;0.246666
1XGQ B A 91;1XGQ B T 108;9.12622
1XGQ B A 91;1XGQ B V 109;12.103
1XGQ B T 92;1XGQ B Y 93;20.726
1XGQ B T 92;1XGQ B Y 94;25.9282
1XGQ B T 92;1XGQ B A 105;0.873743
1XGQ B T 92;1XGQ B G 106;6.79212
1XGQ B T 92;1XGQ B T 107;8.44796
1XGQ B T 92;1XGQ B T 108;21.2226
1XGQ B Y 93;1XGQ B Y 94;21.0759
1XGQ B Y 93;1XGQ B G 106;4.82151
1XGQ B Y 93;1XGQ B T 107;21.3787
1XGQ B Y 93;1XGQ B V 109;14.3726
1XGQ B Y 94;1XGQ B C 95;20.4272
1XGQ B Y 94;1XGQ B A 96;0.134551
1XGQ B Y 94;1XGQ B W 103;17.8742
1XGQ B Y 94;1XGQ B G 104;6.09438
1XGQ B Y 94;1XGQ B A 105;7.54632
1XGQ B Y 94;1XGQ B G 106;11.2565
1XGQ B C 95;1XGQ B A 96;17.6009
1XGQ B C 95;1XGQ B W 103;4.78396
1XGQ B C 95;1XGQ B G 104;9.22111
1XGQ B A 96;1XGQ B S 97;25.0447
1XGQ B A 96;1XGQ B W 98;0.130174
1XGQ B A 96;1XGQ B G 100;2.06174
1XGQ B A 96;1XGQ B V 102;6.4208
1XGQ B A 96;1XGQ B W 103;21.5287
1XGQ B S 97;1XGQ B W 98;20.3804
1XGQ B S 97;1XGQ B G 99;9.23764
1XGQ B S 97;1XGQ B G 100;14.3776
1XGQ B S 97;1XGQ B D 101;8.20501
1XGQ B S 97;1XGQ B V 102;24.1292
1XGQ B W 98;1XGQ B G 99;34.6825
1XGQ B W 98;1XGQ B G 100;5.99893
1XGQ B G 99;1XGQ B G 100;16.6195
1XGQ B G 99;1XGQ B D 101;16.0436
1XGQ B G 100;1XGQ B D 101;19.3369
1XGQ B G 100;1XGQ B V 102;2.82342
1XGQ B G 100;1XGQ B W 103;16.0252
1XGQ B D 101;1XGQ B V 102;29.1356
1XGQ B D 101;1XGQ B W 103;3.13686
1XGQ B V 102;1XGQ B W 103;34.0349
1XGQ B W 103;1XGQ B G 104;26.9639
1XGQ B W 103;1XGQ B A 105;0.568257
1XGQ B G 104;1XGQ B A 105;19.0141
1XGQ B G 104;1XGQ B G 106;3.00867
1XGQ B A 105;1XGQ B G 106;28.4561
1XGQ B G 106;1XGQ B T 107;25.618
1XGQ B T 107;1XGQ B T 108;31.6164
1XGQ B T 107;1XGQ B V 109;7.47502
1XGQ B T 108;1XGQ B V 109;26.1023
1XGQ B T 108;1XGQ B T 110;13.5778
1XGQ B V 109;1XGQ B T 110;22.3736
1XGQ B V 109;1XGQ B V 111;5.38842
1XGQ B T 110;1XGQ B V 111;23.9111
1XGQ B T 110;1XGQ B S 112;8.42373
1XGQ B T 110;1XGQ B F 146;7.28798
1XGQ B T 110;1XGQ B Y 175;20.073
1XGQ B V 111;1XGQ B S 112;22.6782
1XGQ B S 112;1XGQ B S 113;21.458
1XGQ B S 112;1XGQ B A 114;15.8487
1XGQ B S 112;1XGQ B F 146;14.9949
1XGQ B S 112;1XGQ B L 170;0.417932
1XGQ B S 112;1XGQ B D 173;7.6602
1XGQ B S 113;1XGQ B A 114;28.9715
1XGQ B S 113;1XGQ B K 115;9.82618
1XGQ B S 113;1XGQ B D 173;6.81973
1XGQ B A 114;1XGQ B K 115;30.5813
1XGQ B A 114;1XGQ B T 116;0.0047294
1XGQ B A 114;1XGQ B F 146;22.7232
1XGQ B A 114;1XGQ B D 173;15.0319
1XGQ B A 114;1XGQ B L 174;9.72551
1XGQ B K 115;1XGQ B T 116;31.7181
1XGQ B K 115;1XGQ B T 117;11.7773
1XGQ B K 115;1XGQ B F 146;9.57642
1XGQ B K 115;1XGQ B L 174;1.23106
1XGQ B T 116;1XGQ B T 117;27.5157
1XGQ B T 116;1XGQ B F 146;11.8631
1XGQ B T 116;1XGQ B P 147;11.6858
1XGQ B T 116;1XGQ B H 199;2.39121
1XGQ B T 116;1XGQ B A 201;18.0279
1XGQ B T 116;1XGQ B S 202;13.4938
1XGQ B T 117;1XGQ B A 118;33.0296
1XGQ B T 117;1XGQ B P 119;0.303455
1XGQ B T 117;1XGQ B G 144;10.4862
1XGQ B T 117;1XGQ B Y 145;8.24372
1XGQ B T 117;1XGQ B F 146;16.531
1XGQ B T 117;1XGQ B L 174;18.3474
1XGQ B T 117;1XGQ B H 199;6.04229
1XGQ B T 117;1XGQ B S 202;1.34017
1XGQ B A 118;1XGQ B P 119;32.0891
1XGQ B A 118;1XGQ B S 120;2.63007
1XGQ B A 118;1XGQ B K 143;0.163765
1XGQ B A 118;1XGQ B G 144;5.15878
1XGQ B A 118;1XGQ B Y 145;1.3524
1XGQ B A 118;1XGQ B H 199;2.37052
1XGQ B A 118;1XGQ B S 202;14.6458
1XGQ B A 118;1XGQ B T 204;16.4187
1XGQ B P 119;1XGQ B S 120;26.2775
1XGQ B P 119;1XGQ B V 121;10.494
1XGQ B P 119;1XGQ B V 142;10.7539
1XGQ B P 119;1XGQ B K 143;6.05066
1XGQ B P 119;1XGQ B G 144;2.52911
1XGQ B P 119;1XGQ B Y 145;17.684
1XGQ B P 119;1XGQ B V 150;4.75475
1XGQ B P 119;1XGQ B V 197;9.17022
1XGQ B P 119;1XGQ B H 199;14.5758
1XGQ B P 119;1XGQ B S 202;0.481447
1XGQ B P 119;1XGQ B T 204;7.56668
1XGQ B P 119;1XGQ B V 206;9.01798
1XGQ B S 120;1XGQ B V 121;24.3503
1XGQ B S 120;1XGQ B Y 122;28.7444
1XGQ B S 120;1XGQ B L 141;2.55318
1XGQ B S 120;1XGQ B V 142;4.44015
1XGQ B S 120;1XGQ B K 143;25.1393
1XGQ B V 121;1XGQ B Y 122;29.3354
1XGQ B V 121;1XGQ B P 123;1.2981
1XGQ B V 121;1XGQ B C 140;10.384
1XGQ B V 121;1XGQ B L 141;4.21671
1XGQ B V 121;1XGQ B V 142;9.56847
1XGQ B V 121;1XGQ B C 195;4.21195
1XGQ B V 121;1XGQ B V 197;16.4089
1XGQ B V 121;1XGQ B V 206;19.9851
1XGQ B V 121;1XGQ B D 207;0.221438
1XGQ B V 121;1XGQ B K 208;32.6867
1XGQ B Y 122;1XGQ B P 123;25.9506
1XGQ B Y 122;1XGQ B L 124;7.20442
1XGQ B Y 122;1XGQ B C 140;8.30755
1XGQ B Y 122;1XGQ B L 141;33.9121
1XGQ B Y 122;1XGQ B K 143;13.7798
1XGQ B Y 122;1XGQ B K 208;2.09327
1XGQ B P 123;1XGQ B L 124;26.3044
1XGQ B P 123;1XGQ B A 125;6.07729
1XGQ B P 123;1XGQ B G 139;1.61562
1XGQ B P 123;1XGQ B C 140;1.84708
1XGQ B P 123;1XGQ B K 208;16.4771
1XGQ B P 123;1XGQ B K 209;8.81213
1XGQ B P 123;1XGQ B I 210;21.2544
1XGQ B L 124;1XGQ B A 125;19.4843
1XGQ B L 124;1XGQ B L 138;5.9367
1XGQ B L 124;1XGQ B G 139;24.8387
1XGQ B L 124;1XGQ B C 140;9.84003
1XGQ B L 124;1XGQ B L 141;17.8654
1XGQ B L 124;1XGQ B S 178;3.47913
1XGQ B L 124;1XGQ B I 210;9.06286
1XGQ B A 125;1XGQ B P 126;31.5304
1XGQ B A 125;1XGQ B V 127;0.902266
1XGQ B A 125;1XGQ B G 129;0.782344
1XGQ B A 125;1XGQ B L 138;4.39661
1XGQ B A 125;1XGQ B W 188;8.20345
1XGQ B A 125;1XGQ B I 210;16.8397
1XGQ B P 126;1XGQ B V 127;25.5606
1XGQ B P 126;1XGQ B C 128;3.81834
1XGQ B P 126;1XGQ B G 129;17.5213
1XGQ B P 126;1XGQ B D 130;16.6066
1XGQ B P 126;1XGQ B T 131;6.7599
1XGQ B P 126;1XGQ B V 136;9.50462
1XGQ B P 126;1XGQ B T 137;3.2773
1XGQ B P 126;1XGQ B L 138;8.4428
1XGQ B P 126;1XGQ B W 188;10.7313
1XGQ B V 127;1XGQ B C 128;29.6292
1XGQ B V 127;1XGQ B G 129;1.3542
1XGQ B V 127;1XGQ B D 130;10.0562
1XGQ B C 128;1XGQ B G 129;26.5469
1XGQ B C 128;1XGQ B D 130;24.9823
1XGQ B G 129;1XGQ B D 130;16.7166
1XGQ B G 129;1XGQ B T 131;14.8667
1XGQ B G 129;1XGQ B W 188;11.606
1XGQ B D 130;1XGQ B T 131;23.155
1XGQ B D 130;1XGQ B T 132;23.0958
1XGQ B T 131;1XGQ B T 132;34.6327
1XGQ B T 131;1XGQ B G 133;1.93091
1XGQ B T 131;1XGQ B S 135;2.39633
1XGQ B T 131;1XGQ B V 136;19.3252
1XGQ B T 131;1XGQ B S 185;17.5648
1XGQ B T 131;1XGQ B W 188;16.4919
1XGQ B T 131;1XGQ B P 189;6.1807
1XGQ B T 132;1XGQ B G 133;44.1566
1XGQ B T 132;1XGQ B S 135;1.79949
1XGQ B G 133;1XGQ B S 134;27.0308
1XGQ B G 133;1XGQ B S 135;12.9623
1XGQ B G 133;1XGQ B S 185;11.0
1XGQ B S 134;1XGQ B S 135;24.6725
1XGQ B S 134;1XGQ B T 184;8.38759
1XGQ B S 134;1XGQ B S 185;16.7301
1XGQ B S 134;1XGQ B S 186;0.103642
1XGQ B S 135;1XGQ B V 136;25.3253
1XGQ B S 135;1XGQ B T 182;15.8689
1XGQ B S 135;1XGQ B V 183;7.1423
1XGQ B S 135;1XGQ B T 184;8.79689
1XGQ B S 135;1XGQ B S 185;8.9056
1XGQ B V 136;1XGQ B T 137;29.4455
1XGQ B V 136;1XGQ B L 138;16.3322
1XGQ B V 136;1XGQ B V 181;0.657273
1XGQ B V 136;1XGQ B T 182;9.52972
1XGQ B V 136;1XGQ B V 183;21.906
1XGQ B V 136;1XGQ B T 184;4.08538
1XGQ B V 136;1XGQ B S 185;7.93666
1XGQ B V 136;1XGQ B W 188;18.2749
1XGQ B T 137;1XGQ B L 138;24.7053
1XGQ B T 137;1XGQ B S 180;6.91839
1XGQ B T 137;1XGQ B V 181;6.8731
1XGQ B T 137;1XGQ B T 182;18.5462
1XGQ B L 138;1XGQ B G 139;19.6049
1XGQ B L 138;1XGQ B W 154;2.89068
1XGQ B L 138;1XGQ B S 180;5.09275
1XGQ B L 138;1XGQ B V 181;27.5563
1XGQ B L 138;1XGQ B V 183;6.74321
1XGQ B L 138;1XGQ B W 188;20.72
1XGQ B L 138;1XGQ B I 193;11.9533
1XGQ B L 138;1XGQ B I 210;17.0739
1XGQ B G 139;1XGQ B C 140;15.3107
1XGQ B G 139;1XGQ B W 154;10.3838
1XGQ B G 139;1XGQ B S 179;4.75624
1XGQ B G 139;1XGQ B S 180;2.02372
1XGQ B G 139;1XGQ B I 210;8.02521
1XGQ B C 140;1XGQ B L 141;18.5728
1XGQ B C 140;1XGQ B V 142;6.9392
1XGQ B C 140;1XGQ B L 152;9.39175
1XGQ B C 140;1XGQ B W 154;9.60142
1XGQ B C 140;1XGQ B L 177;0.174421
1XGQ B C 140;1XGQ B S 178;7.56021
1XGQ B C 140;1XGQ B S 179;15.3762
1XGQ B C 140;1XGQ B C 195;18.6366
1XGQ B C 140;1XGQ B V 197;1.40056
1XGQ B C 140;1XGQ B K 208;1.88819
1XGQ B C 140;1XGQ B I 210;1.69862
1XGQ B L 141;1XGQ B V 142;20.9217
1XGQ B L 141;1XGQ B K 143;14.2814
1XGQ B L 141;1XGQ B T 176;14.7354
1XGQ B L 141;1XGQ B L 177;5.92332
1XGQ B L 141;1XGQ B S 178;11.9348
1XGQ B V 142;1XGQ B K 143;17.2554
1XGQ B V 142;1XGQ B Y 145;14.4652
1XGQ B V 142;1XGQ B V 150;10.014
1XGQ B V 142;1XGQ B L 152;9.43092
1XGQ B V 142;1XGQ B Y 175;0.274348
1XGQ B V 142;1XGQ B T 176;7.20519
1XGQ B V 142;1XGQ B L 177;27.3242
1XGQ B V 142;1XGQ B S 178;0.0970471
1XGQ B V 142;1XGQ B V 197;15.7139
1XGQ B K 143;1XGQ B G 144;30.2511
1XGQ B K 143;1XGQ B Y 145;3.20668
1XGQ B K 143;1XGQ B Q 171;18.0179
1XGQ B K 143;1XGQ B Y 175;1.07642
1XGQ B K 143;1XGQ B T 176;16.2134
1XGQ B G 144;1XGQ B Y 145;17.4779
1XGQ B G 144;1XGQ B L 174;24.5864
1XGQ B G 144;1XGQ B Y 175;6.98631
1XGQ B G 144;1XGQ B T 176;3.66532
1XGQ B Y 145;1XGQ B F 146;19.9249
1XGQ B Y 145;1XGQ B P 147;5.48868
1XGQ B Y 145;1XGQ B E 148;12.1728
1XGQ B Y 145;1XGQ B P 149;5.04443
1XGQ B Y 145;1XGQ B V 150;23.4392
1XGQ B Y 145;1XGQ B A 168;9.53575
1XGQ B Y 145;1XGQ B L 174;7.51009
1XGQ B Y 145;1XGQ B Y 175;35.636
1XGQ B Y 145;1XGQ B T 176;3.70294
1XGQ B Y 145;1XGQ B L 177;13.7547
1XGQ B Y 145;1XGQ B H 199;9.81703
1XGQ B F 146;1XGQ B P 147;41.0299
1XGQ B F 146;1XGQ B L 170;1.80831
1XGQ B F 146;1XGQ B D 173;8.42149
1XGQ B F 146;1XGQ B L 174;10.8162
1XGQ B F 146;1XGQ B Y 175;18.9643
1XGQ B F 146;1XGQ B H 199;9.10334
1XGQ B P 147;1XGQ B E 148;36.6178
1XGQ B P 147;1XGQ B P 149;1.30019
1XGQ B P 147;1XGQ B Y 175;5.94046
1XGQ B P 147;1XGQ B H 199;11.1767
1XGQ B P 147;1XGQ B A 201;19.0556
1XGQ B E 148;1XGQ B P 149;43.3827
1XGQ B E 148;1XGQ B A 168;18.0381
1XGQ B E 148;1XGQ B Y 175;35.179
1XGQ B E 148;1XGQ B A 201;1.65347
1XGQ B P 149;1XGQ B V 150;32.5855
1XGQ B P 149;1XGQ B T 151;4.99583
1XGQ B P 149;1XGQ B H 199;9.23033
1XGQ B P 149;1XGQ B P 200;16.8739
1XGQ B P 149;1XGQ B A 201;0.99127
1XGQ B V 150;1XGQ B T 151;30.6096
1XGQ B V 150;1XGQ B L 152;7.34288
1XGQ B V 150;1XGQ B L 177;17.3662
1XGQ B V 150;1XGQ B V 197;11.3352
1XGQ B V 150;1XGQ B A 198;8.03234
1XGQ B V 150;1XGQ B H 199;12.4131
1XGQ B V 150;1XGQ B P 200;2.79272
1XGQ B T 151;1XGQ B L 152;25.5524
1XGQ B T 151;1XGQ B T 153;8.89666
1XGQ B T 151;1XGQ B N 196;3.08811
1XGQ B T 151;1XGQ B V 197;5.51773
1XGQ B T 151;1XGQ B A 198;25.9071
1XGQ B T 151;1XGQ B P 200;9.99084
1XGQ B T 151;1XGQ B K 205;5.64278
1XGQ B L 152;1XGQ B T 153;36.7843
1XGQ B L 152;1XGQ B W 154;13.5586
1XGQ B L 152;1XGQ B V 163;0.0697721
1XGQ B L 152;1XGQ B T 165;17.9961
1XGQ B L 152;1XGQ B L 177;11.4122
1XGQ B L 152;1XGQ B S 178;0.0145509
1XGQ B L 152;1XGQ B S 179;15.5585
1XGQ B L 152;1XGQ B C 195;10.7011
1XGQ B L 152;1XGQ B N 196;6.67446
1XGQ B L 152;1XGQ B V 197;11.8254
1XGQ B T 153;1XGQ B W 154;26.2529
1XGQ B T 153;1XGQ B S 156;8.85151
1XGQ B T 153;1XGQ B G 157;12.7649
1XGQ B T 153;1XGQ B T 194;0.452381
1XGQ B T 153;1XGQ B C 195;3.49912
1XGQ B T 153;1XGQ B N 196;31.7102
1XGQ B T 153;1XGQ B K 205;2.84594
1XGQ B W 154;1XGQ B N 155;17.4053
1XGQ B W 154;1XGQ B S 156;1.8622
1XGQ B W 154;1XGQ B G 157;8.75026
1XGQ B W 154;1XGQ B S 158;1.27417
1XGQ B W 154;1XGQ B L 159;30.5857
1XGQ B W 154;1XGQ B V 163;17.9194
1XGQ B W 154;1XGQ B S 179;15.5723
1XGQ B W 154;1XGQ B S 180;3.62099
1XGQ B W 154;1XGQ B V 181;24.5453
1XGQ B W 154;1XGQ B I 193;12.4701
1XGQ B W 154;1XGQ B T 194;10.6376
1XGQ B W 154;1XGQ B C 195;14.2008
1XGQ B W 154;1XGQ B N 196;2.11911
1XGQ B W 154;1XGQ B I 210;10.8899
1XGQ B N 155;1XGQ B S 156;24.6409
1XGQ B N 155;1XGQ B G 157;1.96748
1XGQ B N 155;1XGQ B S 158;23.4502
1XGQ B N 155;1XGQ B L 159;18.7509
1XGQ B N 155;1XGQ B Q 191;12.6142
1XGQ B N 155;1XGQ B S 192;12.526
1XGQ B N 155;1XGQ B I 193;11.7629
1XGQ B N 155;1XGQ B T 194;25.2467
1XGQ B N 155;1XGQ B N 196;4.6691
1XGQ B S 156;1XGQ B G 157;21.5257
1XGQ B S 156;1XGQ B S 158;5.21249
1XGQ B S 156;1XGQ B N 196;21.981
1XGQ B S 156;1XGQ B D 207;2.3751
1XGQ B G 157;1XGQ B S 158;22.5633
1XGQ B G 157;1XGQ B L 159;8.73514
1XGQ B G 157;1XGQ B S 160;13.5151
1XGQ B S 158;1XGQ B L 159;24.2215
1XGQ B S 158;1XGQ B S 160;4.15993
1XGQ B L 159;1XGQ B S 160;27.0807
1XGQ B L 159;1XGQ B S 161;11.8051
1XGQ B L 159;1XGQ B V 163;6.48492
1XGQ B L 159;1XGQ B V 181;14.8447
1XGQ B L 159;1XGQ B V 183;18.303
1XGQ B L 159;1XGQ B T 187;3.05826
1XGQ B L 159;1XGQ B I 193;16.9396
1XGQ B S 160;1XGQ B S 161;34.2573
1XGQ B S 160;1XGQ B G 162;0.376598
1XGQ B S 160;1XGQ B V 163;18.1332
1XGQ B S 161;1XGQ B G 162;27.1566
1XGQ B S 161;1XGQ B V 163;7.39611
1XGQ B S 161;1XGQ B V 181;4.53739
1XGQ B S 161;1XGQ B T 182;5.18874
1XGQ B S 161;1XGQ B V 183;0.297947
1XGQ B G 162;1XGQ B V 163;23.7514
1XGQ B G 162;1XGQ B H 164;6.50959
1XGQ B G 162;1XGQ B S 180;2.7065
1XGQ B G 162;1XGQ B V 181;5.59269
1XGQ B G 162;1XGQ B T 182;25.3802
1XGQ B V 163;1XGQ B H 164;35.3192
1XGQ B V 163;1XGQ B T 165;13.1101
1XGQ B V 163;1XGQ B S 179;4.87304
1XGQ B V 163;1XGQ B S 180;7.34692
1XGQ B V 163;1XGQ B V 181;11.5381
1XGQ B H 164;1XGQ B T 165;22.0343
1XGQ B H 164;1XGQ B F 166;16.6256
1XGQ B H 164;1XGQ B S 178;0.0682197
1XGQ B H 164;1XGQ B S 179;6.10421
1XGQ B H 164;1XGQ B S 180;23.76
1XGQ B H 164;1XGQ B T 182;1.16257
1XGQ B T 165;1XGQ B F 166;26.0119
1XGQ B T 165;1XGQ B P 167;2.75017
1XGQ B T 165;1XGQ B L 177;16.6902
1XGQ B T 165;1XGQ B S 178;3.69726
1XGQ B T 165;1XGQ B S 179;14.6536
1XGQ B F 166;1XGQ B P 167;31.3422
1XGQ B F 166;1XGQ B A 168;0.898411
1XGQ B F 166;1XGQ B L 177;12.978
1XGQ B F 166;1XGQ B S 178;21.8944
1XGQ B F 166;1XGQ B S 179;1.21421
1XGQ B F 166;1XGQ B S 180;4.79128
1XGQ B P 167;1XGQ B A 168;31.5906
1XGQ B P 167;1XGQ B V 169;6.18774
1XGQ B P 167;1XGQ B T 176;1.08206
1XGQ B P 167;1XGQ B L 177;3.98428
1XGQ B A 168;1XGQ B V 169;26.6836
1XGQ B A 168;1XGQ B Y 175;12.8429
1XGQ B A 168;1XGQ B T 176;8.12569
1XGQ B A 168;1XGQ B L 177;15.9918
1XGQ B V 169;1XGQ B L 170;28.7805
1XGQ B V 169;1XGQ B Q 171;3.93085
1XGQ B V 169;1XGQ B L 174;0.61803
1XGQ B V 169;1XGQ B Y 175;10.5438
1XGQ B V 169;1XGQ B T 176;28.0881
1XGQ B L 170;1XGQ B Q 171;20.4974
1XGQ B L 170;1XGQ B S 172;3.30491
1XGQ B L 170;1XGQ B D 173;26.4023
1XGQ B L 170;1XGQ B L 174;9.52287
1XGQ B L 170;1XGQ B Y 175;26.9719
1XGQ B Q 171;1XGQ B S 172;34.3074
1XGQ B Q 171;1XGQ B D 173;1.42473
1XGQ B Q 171;1XGQ B L 174;23.1062
1XGQ B Q 171;1XGQ B Y 175;0.0419064
1XGQ B Q 171;1XGQ B T 176;23.9757
1XGQ B S 172;1XGQ B D 173;31.1693
1XGQ B S 172;1XGQ B L 174;11.9601
1XGQ B D 173;1XGQ B L 174;24.3548
1XGQ B D 173;1XGQ B Y 175;0.35228
1XGQ B L 174;1XGQ B Y 175;21.9885
1XGQ B L 174;1XGQ B T 176;0.852109
1XGQ B Y 175;1XGQ B T 176;20.7163
1XGQ B T 176;1XGQ B L 177;24.0923
1XGQ B T 176;1XGQ B S 178;0.0570914
1XGQ B L 177;1XGQ B S 178;33.3138
1XGQ B L 177;1XGQ B S 179;1.59742
1XGQ B S 178;1XGQ B S 179;18.2602
1XGQ B S 179;1XGQ B S 180;18.4401
1XGQ B S 180;1XGQ B V 181;20.003
1XGQ B S 180;1XGQ B T 182;2.82381
1XGQ B V 181;1XGQ B T 182;23.5154
1XGQ B V 181;1XGQ B V 183;8.03601
1XGQ B V 181;1XGQ B I 193;8.32343
1XGQ B T 182;1XGQ B V 183;32.1099
1XGQ B V 183;1XGQ B T 184;27.2974
1XGQ B V 183;1XGQ B T 187;19.2771
1XGQ B V 183;1XGQ B W 188;6.22633
1XGQ B V 183;1XGQ B I 193;12.3239
1XGQ B T 184;1XGQ B S 185;16.1779
1XGQ B T 184;1XGQ B S 186;19.628
1XGQ B T 184;1XGQ B T 187;23.5783
1XGQ B T 184;1XGQ B W 188;3.04239
1XGQ B S 185;1XGQ B S 186;26.0786
1XGQ B S 185;1XGQ B T 187;2.12667
1XGQ B S 185;1XGQ B W 188;16.7419
1XGQ B S 185;1XGQ B P 189;0.127872
1XGQ B S 185;1XGQ B S 190;0.211457
1XGQ B S 186;1XGQ B T 187;21.8762
1XGQ B S 186;1XGQ B W 188;0.669541
1XGQ B S 186;1XGQ B S 190;14.7479
1XGQ B T 187;1XGQ B W 188;20.4372
1XGQ B T 187;1XGQ B S 190;8.50305
1XGQ B T 187;1XGQ B Q 191;31.8912
1XGQ B T 187;1XGQ B I 193;8.43573
1XGQ B W 188;1XGQ B P 189;54.6693
1XGQ B W 188;1XGQ B S 190;5.53198
1XGQ B W 188;1XGQ B Q 191;8.82424
1XGQ B W 188;1XGQ B S 192;2.2079
1XGQ B W 188;1XGQ B I 193;21.446
1XGQ B W 188;1XGQ B K 209;1.93835
1XGQ B W 188;1XGQ B I 210;27.2075
1XGQ B P 189;1XGQ B S 190;28.8848
1XGQ B P 189;1XGQ B Q 191;9.06931
1XGQ B P 189;1XGQ B S 192;3.46381
1XGQ B P 189;1XGQ B K 209;2.30989
1XGQ B S 190;1XGQ B Q 191;27.48
1XGQ B S 190;1XGQ B S 192;1.50427
1XGQ B Q 191;1XGQ B S 192;36.8318
1XGQ B Q 191;1XGQ B I 193;7.77548
1XGQ B S 192;1XGQ B I 193;23.6842
1XGQ B S 192;1XGQ B T 194;6.54265
1XGQ B S 192;1XGQ B K 209;26.6902
1XGQ B I 193;1XGQ B T 194;22.2476
1XGQ B I 193;1XGQ B K 208;0.025228
1XGQ B I 193;1XGQ B K 209;7.96177
1XGQ B I 193;1XGQ B I 210;22.1758
1XGQ B T 194;1XGQ B C 195;20.5226
1XGQ B T 194;1XGQ B N 196;12.3785
1XGQ B T 194;1XGQ B D 207;13.7626
1XGQ B T 194;1XGQ B K 208;9.9614
1XGQ B T 194;1XGQ B K 209;20.1798
1XGQ B T 194;1XGQ B I 210;1.25554
1XGQ B C 195;1XGQ B N 196;19.7111
1XGQ B C 195;1XGQ B V 197;8.52565
1XGQ B C 195;1XGQ B V 206;2.23928
1XGQ B C 195;1XGQ B D 207;4.74269
1XGQ B C 195;1XGQ B K 208;20.497
1XGQ B C 195;1XGQ B I 210;6.0208
1XGQ B N 196;1XGQ B V 197;17.9367
1XGQ B N 196;1XGQ B K 205;16.5993
1XGQ B N 196;1XGQ B V 206;2.48177
1XGQ B N 196;1XGQ B D 207;19.9436
1XGQ B V 197;1XGQ B A 198;20.3871
1XGQ B V 197;1XGQ B H 199;1.84502
1XGQ B V 197;1XGQ B T 204;1.54516
1XGQ B V 197;1XGQ B K 205;12.1204
1XGQ B V 197;1XGQ B V 206;24.3777
1XGQ B A 198;1XGQ B H 199;18.0627
1XGQ B A 198;1XGQ B P 200;13.0337
1XGQ B A 198;1XGQ B T 204;6.4199
1XGQ B A 198;1XGQ B K 205;24.7393
1XGQ B H 199;1XGQ B P 200;22.3956
1XGQ B H 199;1XGQ B A 201;12.8679
1XGQ B H 199;1XGQ B S 202;19.3613
1XGQ B H 199;1XGQ B S 203;3.5418
1XGQ B H 199;1XGQ B T 204;22.5603
1XGQ B P 200;1XGQ B A 201;28.734
1XGQ B P 200;1XGQ B S 202;1.48625
1XGQ B P 200;1XGQ B S 203;18.1282
1XGQ B P 200;1XGQ B T 204;0.31796
1XGQ B A 201;1XGQ B S 202;19.4148
1XGQ B A 201;1XGQ B S 203;4.42891
1XGQ B S 202;1XGQ B S 203;25.0511
1XGQ B S 202;1XGQ B T 204;22.0318
1XGQ B S 203;1XGQ B T 204;27.4443
1XGQ B S 203;1XGQ B K 205;0.560932
1XGQ B T 204;1XGQ B K 205;29.4676
1XGQ B T 204;1XGQ B V 206;10.3722
1XGQ B K 205;1XGQ B V 206;35.9644
1XGQ B K 205;1XGQ B D 207;10.0927
1XGQ B V 206;1XGQ B D 207;31.6567
1XGQ B V 206;1XGQ B K 208;5.05031
1XGQ B D 207;1XGQ B K 208;29.8572
1XGQ B D 207;1XGQ B K 209;1.40405
1XGQ B K 208;1XGQ B K 209;27.818
1XGQ B K 208;1XGQ B I 210;8.28959
1XGQ B K 209;1XGQ B I 210;38.8297
