V1;V2;Weight
1XGR A M 0;1XGR A D 1;40.5526
1XGR A M 0;1XGR A I 2;5.61492
1XGR A M 0;1XGR A V 3;4.15523
1XGR A M 0;1XGR A S 26;7.25999
1XGR A M 0;1XGR A Q 27;23.7558
1XGR A D 1;1XGR A I 2;24.7144
1XGR A D 1;1XGR A V 3;13.3864
1XGR A D 1;1XGR A S 26;1.87686
1XGR A D 1;1XGR A Q 27;1.31558
1XGR A D 1;1XGR A P 95;23.3516
1XGR A D 1;1XGR A T 97;10.0363
1XGR A D 1;1XGR B H 60;8.66286
1XGR A D 1;1XGR B P 61;10.7733
1XGR A D 1;1XGR B S 62;4.76889
1XGR A I 2;1XGR A V 3;24.7099
1XGR A I 2;1XGR A L 4;10.106
1XGR A I 2;1XGR A A 25;6.0441
1XGR A I 2;1XGR A S 26;9.17491
1XGR A I 2;1XGR A Q 27;28.3884
1XGR A I 2;1XGR A S 28;1.5494
1XGR A I 2;1XGR A I 29;15.2923
1XGR A I 2;1XGR A Q 90;20.0764
1XGR A I 2;1XGR A N 92;2.65517
1XGR A I 2;1XGR A S 93;19.6797
1XGR A I 2;1XGR A P 95;1.54468
1XGR A I 2;1XGR A T 97;22.5928
1XGR A V 3;1XGR A L 4;30.9109
1XGR A V 3;1XGR A T 5;13.8601
1XGR A V 3;1XGR A R 24;2.90801
1XGR A V 3;1XGR A A 25;3.33175
1XGR A V 3;1XGR A S 26;27.8339
1XGR A V 3;1XGR A T 97;0.0209492
1XGR A L 4;1XGR A T 5;22.7991
1XGR A L 4;1XGR A Q 6;1.87555
1XGR A L 4;1XGR A C 23;10.6961
1XGR A L 4;1XGR A R 24;6.96009
1XGR A L 4;1XGR A A 25;12.5094
1XGR A L 4;1XGR A I 29;5.35039
1XGR A L 4;1XGR A L 33;8.54909
1XGR A L 4;1XGR A F 71;0.204663
1XGR A L 4;1XGR A C 88;10.7907
1XGR A L 4;1XGR A Q 89;3.9893
1XGR A L 4;1XGR A Q 90;13.0243
1XGR A L 4;1XGR A T 97;12.3965
1XGR A L 4;1XGR A F 98;11.0035
1XGR A L 4;1XGR A G 99;16.6944
1XGR A L 4;1XGR A G 100;6.24978
1XGR A T 5;1XGR A Q 6;31.2285
1XGR A T 5;1XGR A S 7;11.1058
1XGR A T 5;1XGR A S 22;2.5441
1XGR A T 5;1XGR A C 23;5.57449
1XGR A T 5;1XGR A R 24;30.1521
1XGR A T 5;1XGR A C 88;0.00236089
1XGR A T 5;1XGR A G 100;0.141995
1XGR A Q 6;1XGR A S 7;25.3988
1XGR A Q 6;1XGR A P 8;2.38947
1XGR A Q 6;1XGR A A 9;5.57461
1XGR A Q 6;1XGR A L 21;0.941556
1XGR A Q 6;1XGR A S 22;10.2375
1XGR A Q 6;1XGR A C 23;6.67936
1XGR A Q 6;1XGR A W 35;11.1585
1XGR A Q 6;1XGR A Y 86;6.82414
1XGR A Q 6;1XGR A F 87;7.74437
1XGR A Q 6;1XGR A C 88;16.2267
1XGR A Q 6;1XGR A G 99;10.5295
1XGR A Q 6;1XGR A G 100;7.39539
1XGR A Q 6;1XGR A G 101;21.3006
1XGR A Q 6;1XGR A T 102;14.9907
1XGR A S 7;1XGR A P 8;37.4135
1XGR A S 7;1XGR A A 9;0.408215
1XGR A S 7;1XGR A S 20;1.33506
1XGR A S 7;1XGR A L 21;3.40914
1XGR A S 7;1XGR A S 22;30.8332
1XGR A S 7;1XGR A R 24;2.08492
1XGR A S 7;1XGR A T 102;6.92205
1XGR A P 8;1XGR A A 9;26.1655
1XGR A P 8;1XGR A T 10;15.6691
1XGR A P 8;1XGR A L 11;25.559
1XGR A P 8;1XGR A S 20;2.93947
1XGR A P 8;1XGR A L 21;2.24341
1XGR A P 8;1XGR A G 101;0.37423
1XGR A P 8;1XGR A T 102;16.071
1XGR A A 9;1XGR A T 10;29.7095
1XGR A A 9;1XGR A M 85;0.574803
1XGR A A 9;1XGR A G 101;10.953
1XGR A A 9;1XGR A T 102;6.53164
1XGR A A 9;1XGR A K 103;9.76772
1XGR A T 10;1XGR A L 11;29.1447
1XGR A T 10;1XGR A S 12;3.85969
1XGR A T 10;1XGR A T 102;3.45586
1XGR A T 10;1XGR A K 103;17.5199
1XGR A T 10;1XGR A E 105;15.184
1XGR A L 11;1XGR A S 12;28.3875
1XGR A L 11;1XGR A V 13;12.1329
1XGR A L 11;1XGR A V 19;17.4123
1XGR A L 11;1XGR A S 20;6.27174
1XGR A L 11;1XGR A L 21;11.5604
1XGR A L 11;1XGR A T 102;7.42975
1XGR A L 11;1XGR A K 103;8.94404
1XGR A L 11;1XGR A L 104;13.3711
1XGR A L 11;1XGR A E 105;9.30065
1XGR A S 12;1XGR A V 13;25.9696
1XGR A S 12;1XGR A E 105;17.2654
1XGR A S 12;1XGR A I 106;4.16123
1XGR A S 12;1XGR A K 107;17.7387
1XGR A S 12;1XGR A Y 140;15.5746
1XGR A S 12;1XGR A Y 173;2.08447
1XGR A V 13;1XGR A T 14;26.4184
1XGR A V 13;1XGR A P 15;2.35043
1XGR A V 13;1XGR A D 17;13.0456
1XGR A V 13;1XGR A S 18;2.89248
1XGR A V 13;1XGR A V 19;14.8607
1XGR A V 13;1XGR A V 78;13.1251
1XGR A V 13;1XGR A F 83;13.5497
1XGR A V 13;1XGR A L 104;12.68
1XGR A V 13;1XGR A E 105;6.68095
1XGR A V 13;1XGR A I 106;4.62215
1XGR A V 13;1XGR A K 107;16.8138
1XGR A T 14;1XGR A P 15;42.4272
1XGR A T 14;1XGR A G 16;0.730778
1XGR A T 14;1XGR A D 17;31.0824
1XGR A T 14;1XGR A V 78;1.82748
1XGR A T 14;1XGR A F 83;0.409776
1XGR A T 14;1XGR A I 106;0.0736511
1XGR A T 14;1XGR A K 107;22.7574
1XGR A P 15;1XGR A G 16;23.5965
1XGR A P 15;1XGR A D 17;2.98845
1XGR A P 15;1XGR A V 78;9.88326
1XGR A P 15;1XGR A E 79;6.61049
1XGR A P 15;1XGR A T 80;18.6137
1XGR A P 15;1XGR A F 83;16.4791
1XGR A P 15;1XGR A I 106;14.5937
1XGR A P 15;1XGR A K 107;1.00118
1XGR A G 16;1XGR A D 17;26.7018
1XGR A G 16;1XGR A S 18;1.81132
1XGR A G 16;1XGR A S 77;23.9872
1XGR A G 16;1XGR A V 78;10.2472
1XGR A G 16;1XGR A E 79;2.57252
1XGR A D 17;1XGR A S 18;31.078
1XGR A D 17;1XGR A V 19;3.98219e-06
1XGR A D 17;1XGR A I 75;0.134307
1XGR A D 17;1XGR A S 77;5.42391
1XGR A D 17;1XGR A V 78;14.4668
1XGR A S 18;1XGR A V 19;30.8987
1XGR A S 18;1XGR A I 75;7.2286
1XGR A S 18;1XGR A N 76;13.4891
1XGR A S 18;1XGR A S 77;9.99902
1XGR A S 18;1XGR A V 78;1.8106
1XGR A V 19;1XGR A S 20;33.825
1XGR A V 19;1XGR A L 21;13.7303
1XGR A V 19;1XGR A L 73;1.47759
1XGR A V 19;1XGR A S 74;7.22169
1XGR A V 19;1XGR A I 75;25.2225
1XGR A V 19;1XGR A V 78;12.0915
1XGR A V 19;1XGR A L 104;10.863
1XGR A S 20;1XGR A L 21;23.1233
1XGR A S 20;1XGR A S 22;2.94888
1XGR A S 20;1XGR A T 72;14.8265
1XGR A S 20;1XGR A L 73;3.88387
1XGR A S 20;1XGR A S 74;10.7069
1XGR A L 21;1XGR A S 22;23.7771
1XGR A L 21;1XGR A W 35;14.6845
1XGR A L 21;1XGR A F 71;0.367684
1XGR A L 21;1XGR A T 72;11.0174
1XGR A L 21;1XGR A L 73;29.7821
1XGR A L 21;1XGR A I 75;6.5284
1XGR A L 21;1XGR A Y 86;16.8816
1XGR A L 21;1XGR A T 102;22.6435
1XGR A L 21;1XGR A L 104;9.93185
1XGR A S 22;1XGR A C 23;20.6148
1XGR A S 22;1XGR A R 24;22.6147
1XGR A S 22;1XGR A W 35;5.0147
1XGR A S 22;1XGR A D 70;1.82931
1XGR A S 22;1XGR A F 71;7.58237
1XGR A S 22;1XGR A T 72;6.01491
1XGR A S 22;1XGR A T 102;1.55185
1XGR A C 23;1XGR A R 24;26.548
1XGR A C 23;1XGR A A 25;0.253251
1XGR A C 23;1XGR A L 33;10.4429
1XGR A C 23;1XGR A W 35;12.4955
1XGR A C 23;1XGR A T 69;1.05531
1XGR A C 23;1XGR A D 70;1.50858
1XGR A C 23;1XGR A F 71;27.0048
1XGR A C 23;1XGR A C 88;16.5426
1XGR A R 24;1XGR A A 25;23.7336
1XGR A R 24;1XGR A S 26;0.372858
1XGR A R 24;1XGR A T 69;14.109
1XGR A R 24;1XGR A D 70;25.3788
1XGR A R 24;1XGR A F 71;0.491746
1XGR A A 25;1XGR A S 26;22.4077
1XGR A A 25;1XGR A Q 27;12.8488
1XGR A A 25;1XGR A I 29;11.2768
1XGR A A 25;1XGR A G 68;0.538734
1XGR A A 25;1XGR A T 69;24.9616
1XGR A A 25;1XGR A F 71;5.00551
1XGR A S 26;1XGR A Q 27;37.0904
1XGR A S 26;1XGR A T 69;0.623629
1XGR A Q 27;1XGR A S 28;28.2681
1XGR A Q 27;1XGR A I 29;7.00615
1XGR A Q 27;1XGR A G 68;1.31973
1XGR A Q 27;1XGR A T 69;9.93424
1XGR A Q 27;1XGR A S 93;1.50517
1XGR A S 28;1XGR A I 29;22.8016
1XGR A S 28;1XGR A S 30;10.3578
1XGR A S 28;1XGR A G 68;15.3316
1XGR A S 28;1XGR A T 69;13.3973
1XGR A S 28;1XGR A N 92;5.18128
1XGR A I 29;1XGR A S 30;23.7215
1XGR A I 29;1XGR A N 31;1.00776
1XGR A I 29;1XGR A N 32;19.8317
1XGR A I 29;1XGR A L 33;11.2701
1XGR A I 29;1XGR A G 68;9.74726
1XGR A I 29;1XGR A F 71;13.8086
1XGR A I 29;1XGR A Q 90;14.6522
1XGR A I 29;1XGR A N 92;23.0728
1XGR A S 30;1XGR A N 31;21.9565
1XGR A S 30;1XGR A N 32;4.77078
1XGR A S 30;1XGR A S 67;9.80668
1XGR A S 30;1XGR A G 68;15.0525
1XGR A S 30;1XGR A F 71;8.02229
1XGR A S 30;1XGR A N 92;4.17529
1XGR A N 31;1XGR A N 32;21.7702
1XGR A N 31;1XGR A L 33;5.62448
1XGR A N 31;1XGR A Y 50;28.1732
1XGR A N 31;1XGR A A 51;15.0561
1XGR A N 31;1XGR A Q 53;4.83244
1XGR A N 31;1XGR A G 66;1.06571
1XGR A N 31;1XGR A S 67;5.05583
1XGR A N 31;1XGR A F 71;3.70976
1XGR A N 32;1XGR A L 33;17.337
1XGR A N 32;1XGR A H 34;6.21501
1XGR A N 32;1XGR A Y 50;12.7776
1XGR A N 32;1XGR A F 71;0.607485
1XGR A N 32;1XGR A Q 89;0.194999
1XGR A N 32;1XGR A Q 90;7.40293
1XGR A N 32;1XGR A S 91;13.4698
1XGR A N 32;1XGR A N 92;18.3903
1XGR A L 33;1XGR A H 34;29.4176
1XGR A L 33;1XGR A W 35;16.7657
1XGR A L 33;1XGR A I 48;0.707831
1XGR A L 33;1XGR A K 49;0.624142
1XGR A L 33;1XGR A Y 50;5.07518
1XGR A L 33;1XGR A A 51;16.9817
1XGR A L 33;1XGR A F 71;26.9991
1XGR A L 33;1XGR A C 88;9.544
1XGR A L 33;1XGR A Q 89;10.5237
1XGR A L 33;1XGR A Q 90;4.62354
1XGR A H 34;1XGR A W 35;20.9538
1XGR A H 34;1XGR A Y 36;11.7223
1XGR A H 34;1XGR A L 46;10.0647
1XGR A H 34;1XGR A I 48;5.77568
1XGR A H 34;1XGR A K 49;12.1611
1XGR A H 34;1XGR A Y 50;24.3289
1XGR A H 34;1XGR A F 87;0.684968
1XGR A H 34;1XGR A C 88;6.49697
1XGR A H 34;1XGR A Q 89;32.2216
1XGR A H 34;1XGR A Q 90;0.848529
1XGR A H 34;1XGR A S 91;17.0659
1XGR A W 35;1XGR A Y 36;24.0827
1XGR A W 35;1XGR A L 46;7.34222
1XGR A W 35;1XGR A L 47;14.1476
1XGR A W 35;1XGR A I 48;26.5828
1XGR A W 35;1XGR A A 51;7.44284
1XGR A W 35;1XGR A G 64;4.14719
1XGR A W 35;1XGR A S 65;0.792943
1XGR A W 35;1XGR A F 71;9.20235
1XGR A W 35;1XGR A T 72;9.53169
1XGR A W 35;1XGR A L 73;37.2663
1XGR A W 35;1XGR A Y 86;6.37469
1XGR A W 35;1XGR A F 87;10.7314
1XGR A W 35;1XGR A C 88;12.5013
1XGR A Y 36;1XGR A Q 37;20.4258
1XGR A Y 36;1XGR A Q 38;0.340792
1XGR A Y 36;1XGR A P 44;16.2401
1XGR A Y 36;1XGR A R 45;10.1721
1XGR A Y 36;1XGR A L 46;26.6045
1XGR A Y 36;1XGR A L 47;4.1919
1XGR A Y 36;1XGR A L 73;0.128793
1XGR A Y 36;1XGR A M 85;0.364869
1XGR A Y 36;1XGR A Y 86;10.1373
1XGR A Y 36;1XGR A F 87;31.2364
1XGR A Y 36;1XGR A C 88;0.593388
1XGR A Y 36;1XGR A Q 89;21.2625
1XGR A Y 36;1XGR A F 98;13.0071
1XGR A Y 36;1XGR B I 37;0.392476
1XGR A Y 36;1XGR B L 45;1.05629
1XGR A Y 36;1XGR B W 98;1.4585
1XGR A Y 36;1XGR B G 99;1.56305
1XGR A Y 36;1XGR B G 100;15.8916
1XGR A Y 36;1XGR B W 103;21.0574
1XGR A Q 37;1XGR A Q 38;25.1253
1XGR A Q 37;1XGR A K 39;22.3098
1XGR A Q 37;1XGR A S 43;1.2455
1XGR A Q 37;1XGR A P 44;4.7659
1XGR A Q 37;1XGR A R 45;43.4318
1XGR A Q 37;1XGR A L 47;17.6745
1XGR A Q 37;1XGR A F 62;7.46237
1XGR A Q 37;1XGR A E 81;3.54684
1XGR A Q 37;1XGR A D 82;11.2074
1XGR A Q 37;1XGR A F 83;0.147067
1XGR A Q 37;1XGR A G 84;1.60967
1XGR A Q 37;1XGR A M 85;7.02853
1XGR A Q 37;1XGR A Y 86;21.9598
1XGR A Q 37;1XGR A F 87;0.208367
1XGR A Q 38;1XGR A K 39;32.9855
1XGR A Q 38;1XGR A S 40;1.09169
1XGR A Q 38;1XGR A E 42;13.409
1XGR A Q 38;1XGR A S 43;8.66328
1XGR A Q 38;1XGR A P 44;23.721
1XGR A Q 38;1XGR A G 84;2.20255
1XGR A Q 38;1XGR A M 85;29.7718
1XGR A Q 38;1XGR A F 87;17.5008
1XGR A Q 38;1XGR B K 39;19.1469
1XGR A Q 38;1XGR B N 43;1.7749
1XGR A Q 38;1XGR B L 45;3.21744
1XGR A Q 38;1XGR B Y 94;10.1254
1XGR A K 39;1XGR A S 40;31.0543
1XGR A K 39;1XGR A H 41;1.62066
1XGR A K 39;1XGR A E 42;45.6123
1XGR A K 39;1XGR A S 43;0.870634
1XGR A K 39;1XGR A R 45;3.64635
1XGR A K 39;1XGR A E 81;30.4026
1XGR A K 39;1XGR A D 82;1.08458
1XGR A K 39;1XGR A F 83;15.4237
1XGR A K 39;1XGR A G 84;7.35473
1XGR A S 40;1XGR A H 41;37.3687
1XGR A S 40;1XGR A E 42;11.3223
1XGR A S 40;1XGR A F 83;0.12256
1XGR A S 40;1XGR A G 84;2.84787
1XGR A S 40;1XGR A K 103;0.245438
1XGR A S 40;1XGR A D 165;17.361
1XGR A H 41;1XGR A E 42;33.5604
1XGR A H 41;1XGR A D 165;4.76838
1XGR A E 42;1XGR A S 43;33.1998
1XGR A E 42;1XGR B Y 94;3.29429
1XGR A E 42;1XGR B A 105;1.16736
1XGR A S 43;1XGR A P 44;28.5283
1XGR A S 43;1XGR A R 45;5.81893
1XGR A S 43;1XGR B Y 94;11.9789
1XGR A S 43;1XGR B W 103;14.8315
1XGR A S 43;1XGR B G 104;9.28334
1XGR A S 43;1XGR B A 105;13.0202
1XGR A P 44;1XGR A R 45;22.1603
1XGR A P 44;1XGR A F 87;2.07217
1XGR A P 44;1XGR A F 98;0.32353
1XGR A P 44;1XGR B K 39;0.000932785
1XGR A P 44;1XGR B L 45;13.5213
1XGR A P 44;1XGR B Y 94;10.6592
1XGR A P 44;1XGR B W 103;40.7257
1XGR A R 45;1XGR A L 46;26.9803
1XGR A R 45;1XGR A L 47;20.9941
1XGR A R 45;1XGR A G 57;2.44978
1XGR A R 45;1XGR A I 58;16.8409
1XGR A R 45;1XGR A P 59;12.4829
1XGR A R 45;1XGR A R 61;0.346938
1XGR A R 45;1XGR A F 62;6.38029
1XGR A R 45;1XGR A E 81;3.20915
1XGR A R 45;1XGR A D 82;1.07077
1XGR A R 45;1XGR B W 103;1.64134
1XGR A L 46;1XGR A L 47;19.8361
1XGR A L 46;1XGR A I 48;8.73916
1XGR A L 46;1XGR A K 49;15.7762
1XGR A L 46;1XGR A I 55;24.5054
1XGR A L 46;1XGR A I 58;9.25592
1XGR A L 46;1XGR B G 99;13.6137
1XGR A L 46;1XGR B G 100;14.8586
1XGR A L 46;1XGR B D 101;10.7254
1XGR A L 46;1XGR B W 103;0.936834
1XGR A L 47;1XGR A I 48;30.3882
1XGR A L 47;1XGR A S 54;0.975136
1XGR A L 47;1XGR A I 55;11.6004
1XGR A L 47;1XGR A I 58;28.1141
1XGR A L 47;1XGR A P 59;0.468391
1XGR A L 47;1XGR A F 62;22.7155
1XGR A L 47;1XGR A L 73;8.81132
1XGR A L 47;1XGR A Y 86;9.12739
1XGR A I 48;1XGR A K 49;21.7599
1XGR A I 48;1XGR A A 51;9.72477
1XGR A I 48;1XGR A S 52;10.2789
1XGR A I 48;1XGR A Q 53;11.1365
1XGR A I 48;1XGR A S 54;10.4729
1XGR A I 48;1XGR A I 55;4.06828
1XGR A I 48;1XGR A I 58;1.51692
1XGR A I 48;1XGR A F 62;13.5928
1XGR A I 48;1XGR A S 63;10.1969
1XGR A I 48;1XGR A G 64;11.2649
1XGR A I 48;1XGR A L 73;9.96643
1XGR A K 49;1XGR A Y 50;34.6299
1XGR A K 49;1XGR A A 51;2.92726
1XGR A K 49;1XGR A S 52;1.48391
1XGR A K 49;1XGR A Q 53;33.8852
1XGR A K 49;1XGR A S 54;3.6788
1XGR A K 49;1XGR A I 55;24.1588
1XGR A K 49;1XGR B G 99;2.06524
1XGR A Y 50;1XGR A A 51;15.4274
1XGR A Y 50;1XGR A S 52;9.26362
1XGR A Y 50;1XGR A Q 53;19.7311
1XGR A Y 50;1XGR A S 91;7.12533
1XGR A Y 50;1XGR B W 98;14.2312
1XGR A A 51;1XGR A S 52;20.7588
1XGR A A 51;1XGR A G 64;7.70361
1XGR A A 51;1XGR A S 65;10.7844
1XGR A A 51;1XGR A G 66;10.404
1XGR A A 51;1XGR A S 67;0.00530975
1XGR A A 51;1XGR A F 71;12.2728
1XGR A S 52;1XGR A Q 53;27.6849
1XGR A S 52;1XGR A S 54;6.36214
1XGR A S 52;1XGR A G 64;18.2339
1XGR A S 52;1XGR A S 65;6.44401
1XGR A S 52;1XGR A G 66;0.396848
1XGR A Q 53;1XGR A S 54;28.6737
1XGR A Q 53;1XGR A I 55;2.22817
1XGR A S 54;1XGR A I 55;33.2932
1XGR A S 54;1XGR A S 56;4.45292
1XGR A S 54;1XGR A I 58;1.09174
1XGR A S 54;1XGR A F 62;2.76803
1XGR A I 55;1XGR A S 56;35.5627
1XGR A I 55;1XGR A G 57;2.9988
1XGR A I 55;1XGR A I 58;32.0938
1XGR A I 55;1XGR B D 101;3.96004
1XGR A S 56;1XGR A G 57;30.691
1XGR A S 56;1XGR A I 58;0.395124
1XGR A G 57;1XGR A I 58;33.4567
1XGR A G 57;1XGR A P 59;6.93038
1XGR A I 58;1XGR A P 59;39.3458
1XGR A I 58;1XGR A S 60;5.54626
1XGR A I 58;1XGR A F 62;13.1976
1XGR A P 59;1XGR A S 60;24.2736
1XGR A P 59;1XGR A R 61;30.9481
1XGR A P 59;1XGR A F 62;25.8985
1XGR A S 60;1XGR A R 61;27.9561
1XGR A S 60;1XGR A F 62;12.1872
1XGR A S 60;1XGR A S 63;3.98541
1XGR A R 61;1XGR A F 62;33.5609
1XGR A R 61;1XGR A S 63;4.49445
1XGR A R 61;1XGR A S 74;3.21332
1XGR A R 61;1XGR A I 75;15.2854
1XGR A R 61;1XGR A N 76;35.0828
1XGR A R 61;1XGR A S 77;6.37512
1XGR A R 61;1XGR A V 78;0.290351
1XGR A R 61;1XGR A E 79;22.4286
1XGR A R 61;1XGR A E 81;16.4885
1XGR A R 61;1XGR A D 82;17.332
1XGR A F 62;1XGR A S 63;24.1141
1XGR A F 62;1XGR A L 73;9.10416
1XGR A F 62;1XGR A S 74;4.40957
1XGR A F 62;1XGR A I 75;21.0073
1XGR A F 62;1XGR A D 82;11.4307
1XGR A F 62;1XGR A Y 86;8.64338
1XGR A S 63;1XGR A G 64;27.6041
1XGR A S 63;1XGR A T 72;0.363521
1XGR A S 63;1XGR A L 73;9.71152
1XGR A S 63;1XGR A S 74;30.5144
1XGR A G 64;1XGR A S 65;24.6984
1XGR A G 64;1XGR A T 72;7.28451
1XGR A G 64;1XGR A L 73;3.63721
1XGR A G 64;1XGR A S 74;0.352556
1XGR A S 65;1XGR A G 66;30.7627
1XGR A S 65;1XGR A F 71;9.34899
1XGR A S 65;1XGR A T 72;30.0569
1XGR A S 65;1XGR A S 74;3.01791
1XGR A G 66;1XGR A S 67;28.2655
1XGR A G 66;1XGR A D 70;9.20294
1XGR A G 66;1XGR A F 71;8.89242
1XGR A G 66;1XGR A T 72;0.494075
1XGR A S 67;1XGR A G 68;22.2727
1XGR A S 67;1XGR A T 69;5.06205
1XGR A S 67;1XGR A D 70;15.7375
1XGR A S 67;1XGR A F 71;10.0864
1XGR A G 68;1XGR A T 69;20.8974
1XGR A G 68;1XGR A F 71;7.42986
1XGR A T 69;1XGR A D 70;25.2795
1XGR A T 69;1XGR A F 71;8.54119
1XGR A D 70;1XGR A F 71;31.0163
1XGR A D 70;1XGR A T 72;6.6806
1XGR A F 71;1XGR A T 72;26.0011
1XGR A T 72;1XGR A L 73;20.3655
1XGR A T 72;1XGR A S 74;12.7649
1XGR A L 73;1XGR A S 74;23.2013
1XGR A L 73;1XGR A I 75;10.7305
1XGR A L 73;1XGR A Y 86;14.5827
1XGR A S 74;1XGR A I 75;24.0071
1XGR A S 74;1XGR A N 76;2.91036
1XGR A I 75;1XGR A N 76;20.8531
1XGR A I 75;1XGR A S 77;3.87419
1XGR A I 75;1XGR A V 78;19.863
1XGR A I 75;1XGR A D 82;8.59409
1XGR A I 75;1XGR A Y 86;9.8667
1XGR A I 75;1XGR A L 104;9.17305
1XGR A N 76;1XGR A S 77;36.3659
1XGR A S 77;1XGR A V 78;18.7552
1XGR A S 77;1XGR A E 79;20.3839
1XGR A V 78;1XGR A E 79;26.133
1XGR A V 78;1XGR A D 82;11.09
1XGR A V 78;1XGR A F 83;12.1081
1XGR A V 78;1XGR A L 104;12.4028
1XGR A E 79;1XGR A T 80;25.1576
1XGR A E 79;1XGR A E 81;13.7047
1XGR A E 79;1XGR A D 82;19.5198
1XGR A E 79;1XGR A F 83;7.03083
1XGR A T 80;1XGR A E 81;32.1446
1XGR A T 80;1XGR A D 82;2.02352
1XGR A T 80;1XGR A F 83;16.5588
1XGR A T 80;1XGR A I 106;8.47175
1XGR A E 81;1XGR A D 82;25.6098
1XGR A E 81;1XGR A F 83;4.55225
1XGR A D 82;1XGR A F 83;23.5681
1XGR A D 82;1XGR A G 84;1.17445
1XGR A D 82;1XGR A Y 86;14.1937
1XGR A D 82;1XGR A L 104;8.32374
1XGR A F 83;1XGR A G 84;23.4227
1XGR A F 83;1XGR A L 104;23.0003
1XGR A F 83;1XGR A E 105;10.752
1XGR A F 83;1XGR A I 106;31.0554
1XGR A F 83;1XGR A Q 166;1.29666
1XGR A G 84;1XGR A M 85;20.659
1XGR A G 84;1XGR A Y 86;9.49114
1XGR A G 84;1XGR A T 102;1.10913
1XGR A G 84;1XGR A K 103;18.261
1XGR A G 84;1XGR A L 104;18.9227
1XGR A M 85;1XGR A Y 86;24.337
1XGR A M 85;1XGR A F 87;20.0745
1XGR A M 85;1XGR A G 100;4.37565
1XGR A M 85;1XGR A G 101;9.35435
1XGR A M 85;1XGR A T 102;8.90976
1XGR A M 85;1XGR A K 103;32.9498
1XGR A M 85;1XGR B N 43;28.7299
1XGR A Y 86;1XGR A F 87;20.5167
1XGR A Y 86;1XGR A G 101;5.20986
1XGR A Y 86;1XGR A T 102;21.4107
1XGR A Y 86;1XGR A L 104;17.2652
1XGR A F 87;1XGR A C 88;21.1516
1XGR A F 87;1XGR A F 98;8.90325
1XGR A F 87;1XGR A G 99;9.75908
1XGR A F 87;1XGR A G 100;5.64758
1XGR A F 87;1XGR A G 101;10.7054
1XGR A F 87;1XGR B K 39;4.24274
1XGR A F 87;1XGR B N 43;20.1112
1XGR A F 87;1XGR B L 45;26.9169
1XGR A C 88;1XGR A Q 89;16.5627
1XGR A C 88;1XGR A F 98;8.39043
1XGR A C 88;1XGR A G 99;11.8213
1XGR A Q 89;1XGR A Q 90;24.0261
1XGR A Q 89;1XGR A S 91;7.32448
1XGR A Q 89;1XGR A Y 96;13.554
1XGR A Q 89;1XGR A T 97;9.99639
1XGR A Q 89;1XGR A F 98;25.8187
1XGR A Q 89;1XGR B I 37;0.567788
1XGR A Q 89;1XGR B Y 47;13.6612
1XGR A Q 90;1XGR A S 91;18.1989
1XGR A Q 90;1XGR A N 92;7.98151
1XGR A Q 90;1XGR A S 93;13.7938
1XGR A Q 90;1XGR A P 95;6.15384
1XGR A Q 90;1XGR A Y 96;10.6703
1XGR A Q 90;1XGR A T 97;23.1723
1XGR A S 91;1XGR A N 92;18.4962
1XGR A S 91;1XGR A S 93;2.87678
1XGR A S 91;1XGR A Y 96;24.8819
1XGR A S 91;1XGR B W 98;5.32198
1XGR A N 92;1XGR A S 93;30.0216
1XGR A S 93;1XGR A W 94;27.7304
1XGR A S 93;1XGR A P 95;5.61073
1XGR A S 93;1XGR A Y 96;8.91532
1XGR A W 94;1XGR A P 95;41.3427
1XGR A W 94;1XGR A Y 96;24.6719
1XGR A W 94;1XGR B Y 47;13.6317
1XGR A W 94;1XGR B M 48;0.502973
1XGR A W 94;1XGR B G 49;9.6764
1XGR A W 94;1XGR B Y 50;13.8237
1XGR A W 94;1XGR B Y 58;28.5085
1XGR A W 94;1XGR B Y 59;16.5513
1XGR A W 94;1XGR B H 60;7.85736
1XGR A W 94;1XGR B P 61;6.89359
1XGR A P 95;1XGR A Y 96;20.974
1XGR A P 95;1XGR A T 97;11.6284
1XGR A P 95;1XGR B Y 47;1.46609
1XGR A P 95;1XGR B H 60;18.6484
1XGR A P 95;1XGR B P 61;18.882
1XGR A Y 96;1XGR A T 97;24.5549
1XGR A Y 96;1XGR A F 98;0.286076
1XGR A Y 96;1XGR B Y 47;41.3907
1XGR A Y 96;1XGR B Y 50;11.6198
1XGR A Y 96;1XGR B H 60;5.0901
1XGR A Y 96;1XGR B W 98;19.1781
1XGR A T 97;1XGR A F 98;30.9971
1XGR A T 97;1XGR B Y 47;0.731733
1XGR A T 97;1XGR B H 60;6.60539
1XGR A F 98;1XGR A G 99;29.0913
1XGR A F 98;1XGR A G 100;0.139509
1XGR A F 98;1XGR B I 37;16.6118
1XGR A F 98;1XGR B L 45;43.2523
1XGR A F 98;1XGR B E 46;4.34178
1XGR A F 98;1XGR B Y 47;19.6779
1XGR A F 98;1XGR B W 103;7.52328
1XGR A G 99;1XGR A G 100;22.3307
1XGR A G 99;1XGR A G 101;2.40251
1XGR A G 99;1XGR B N 43;1.08905
1XGR A G 99;1XGR B K 44;0.104089
1XGR A G 99;1XGR B L 45;3.04868
1XGR A G 100;1XGR A G 101;24.8006
1XGR A G 100;1XGR B G 42;1.50596
1XGR A G 100;1XGR B N 43;11.4542
1XGR A G 100;1XGR B K 44;21.8513
1XGR A G 101;1XGR A T 102;18.1709
1XGR A T 102;1XGR A K 103;22.3437
1XGR A T 102;1XGR A L 104;4.45859
1XGR A K 103;1XGR A L 104;22.4359
1XGR A K 103;1XGR A E 105;32.3113
1XGR A K 103;1XGR A D 165;11.4227
1XGR A K 103;1XGR B N 43;3.22397
1XGR A L 104;1XGR A E 105;22.2706
1XGR A E 105;1XGR A I 106;18.338
1XGR A E 105;1XGR A K 107;0.403742
1XGR A E 105;1XGR A K 142;7.98777
1XGR A E 105;1XGR A Q 166;17.8449
1XGR A E 105;1XGR A Y 173;25.7474
1XGR A I 106;1XGR A K 107;28.3661
1XGR A I 106;1XGR A R 108;3.94918
1XGR A I 106;1XGR A Y 140;7.10602
1XGR A I 106;1XGR A Q 166;27.96
1XGR A I 106;1XGR A S 171;24.168
1XGR A I 106;1XGR A Y 173;0.0178978
1XGR A K 107;1XGR A R 108;42.2759
1XGR A K 107;1XGR A A 109;0.0150966
1XGR A K 107;1XGR A D 110;5.49112
1XGR A K 107;1XGR A Y 140;16.9024
1XGR A R 108;1XGR A A 109;51.0567
1XGR A R 108;1XGR A D 110;6.7482
1XGR A R 108;1XGR A A 111;12.2988
1XGR A R 108;1XGR A Y 140;30.5406
1XGR A R 108;1XGR A Q 166;0.440694
1XGR A R 108;1XGR A D 170;19.0749
1XGR A R 108;1XGR A S 171;18.3308
1XGR A R 108;1XGR A T 172;15.8584
1XGR A A 109;1XGR A D 110;30.7072
1XGR A A 109;1XGR A A 111;1.21109
1XGR A A 109;1XGR A Y 140;6.21776
1XGR A D 110;1XGR A A 111;22.0988
1XGR A D 110;1XGR A Y 140;16.6739
1XGR A D 110;1XGR A P 141;11.8011
1XGR A D 110;1XGR A K 199;21.9717
1XGR A D 110;1XGR A T 200;15.6794
1XGR A A 111;1XGR A A 112;25.5074
1XGR A A 111;1XGR A P 113;0.438378
1XGR A A 111;1XGR A N 138;8.72634
1XGR A A 111;1XGR A F 139;9.3684
1XGR A A 111;1XGR A Y 140;18.6743
1XGR A A 111;1XGR A T 172;5.94597
1XGR A A 111;1XGR A H 198;4.18719
1XGR A A 111;1XGR A T 200;7.90297
1XGR A A 112;1XGR A P 113;28.9014
1XGR A A 112;1XGR A T 114;4.92773
1XGR A A 112;1XGR A N 137;0.7514
1XGR A A 112;1XGR A N 138;6.74768
1XGR A A 112;1XGR A F 139;2.66111
1XGR A A 112;1XGR A H 198;0.611979
1XGR A A 112;1XGR A T 200;23.8948
1XGR A A 112;1XGR A S 201;0.638982
1XGR A A 112;1XGR A I 205;9.50731
1XGR A P 113;1XGR A T 114;22.6121
1XGR A P 113;1XGR A V 115;13.8581
1XGR A P 113;1XGR A L 136;9.9028
1XGR A P 113;1XGR A N 137;6.06218
1XGR A P 113;1XGR A N 138;0.394088
1XGR A P 113;1XGR A F 139;18.7134
1XGR A P 113;1XGR A I 144;9.56417
1XGR A P 113;1XGR A A 196;5.71962
1XGR A P 113;1XGR A H 198;14.8349
1XGR A P 113;1XGR A T 200;3.76908
1XGR A P 113;1XGR A I 205;22.4162
1XGR A T 114;1XGR A V 115;25.6486
1XGR A T 114;1XGR A S 116;8.4642
1XGR A T 114;1XGR A F 135;4.53538
1XGR A T 114;1XGR A L 136;3.57174
1XGR A T 114;1XGR A N 137;32.3419
1XGR A T 114;1XGR A N 138;3.48487
1XGR A T 114;1XGR B S 135;0.105191
1XGR A T 114;1XGR B T 137;7.67504
1XGR A T 114;1XGR B T 182;1.15217
1XGR A V 115;1XGR A S 116;28.0117
1XGR A V 115;1XGR A C 134;9.1579
1XGR A V 115;1XGR A F 135;6.15795
1XGR A V 115;1XGR A L 136;16.2057
1XGR A V 115;1XGR A C 194;7.37138
1XGR A V 115;1XGR A A 196;7.47803
1XGR A V 115;1XGR A I 205;18.8783
1XGR A V 115;1XGR A K 207;35.0339
1XGR A S 116;1XGR A I 117;23.2369
1XGR A S 116;1XGR A F 118;17.6207
1XGR A S 116;1XGR A V 133;0.378661
1XGR A S 116;1XGR A C 134;8.38132
1XGR A S 116;1XGR A F 135;21.5138
1XGR A S 116;1XGR A K 207;4.22383
1XGR A S 116;1XGR B T 137;21.6969
1XGR A I 117;1XGR A F 118;31.8338
1XGR A I 117;1XGR A P 119;1.93795
1XGR A I 117;1XGR A V 132;8.14754
1XGR A I 117;1XGR A V 133;6.4941
1XGR A I 117;1XGR A C 134;7.67486
1XGR A I 117;1XGR A W 148;9.08158
1XGR A I 117;1XGR A Y 192;7.05876
1XGR A I 117;1XGR A T 193;2.95907
1XGR A I 117;1XGR A C 194;10.2755
1XGR A I 117;1XGR A K 207;21.7327
1XGR A I 117;1XGR A S 208;13.5305
1XGR A I 117;1XGR A F 209;18.0881
1XGR A I 117;1XGR B P 126;4.92172
1XGR A I 117;1XGR B V 127;11.4052
1XGR A F 118;1XGR A P 119;30.2948
1XGR A F 118;1XGR A S 131;1.37362
1XGR A F 118;1XGR A V 132;8.10038
1XGR A F 118;1XGR A V 133;25.9752
1XGR A F 118;1XGR A C 134;0.315202
1XGR A F 118;1XGR A F 135;15.1892
1XGR A F 118;1XGR A F 209;1.81714
1XGR A F 118;1XGR B L 124;26.3559
1XGR A F 118;1XGR B A 125;13.2748
1XGR A F 118;1XGR B P 126;10.9697
1XGR A F 118;1XGR B T 137;17.1822
1XGR A F 118;1XGR B L 138;7.71481
1XGR A F 118;1XGR B G 139;1.79101
1XGR A P 119;1XGR A P 120;34.6478
1XGR A P 119;1XGR A S 121;4.81131
1XGR A P 119;1XGR A S 131;2.7984
1XGR A P 119;1XGR A V 132;2.31235
1XGR A P 119;1XGR A Y 186;6.3077
1XGR A P 119;1XGR A F 209;20.0588
1XGR A P 119;1XGR B P 123;1.60621
1XGR A P 119;1XGR B L 124;8.37442
1XGR A P 119;1XGR B A 125;11.3692
1XGR A P 119;1XGR B P 126;0.424729
1XGR A P 119;1XGR B V 127;26.7042
1XGR A P 120;1XGR A S 121;27.1876
1XGR A P 120;1XGR A S 122;1.02447
1XGR A P 120;1XGR A Q 124;7.62399
1XGR A P 120;1XGR A L 125;20.0197
1XGR A P 120;1XGR A G 129;0.310027
1XGR A P 120;1XGR A A 130;12.6308
1XGR A P 120;1XGR A S 131;15.5433
1XGR A P 120;1XGR A V 132;10.4972
1XGR A P 120;1XGR A Y 186;21.08
1XGR A P 120;1XGR A F 209;2.20935
1XGR A P 120;1XGR B L 124;0.360043
1XGR A S 121;1XGR A S 122;22.1241
1XGR A S 121;1XGR A E 123;10.5269
1XGR A S 121;1XGR A Q 124;17.5728
1XGR A S 121;1XGR A L 125;11.6092
1XGR A S 121;1XGR B Y 122;12.5739
1XGR A S 121;1XGR B P 123;23.0593
1XGR A S 121;1XGR B L 124;2.42262
1XGR A S 122;1XGR A E 123;30.331
1XGR A S 122;1XGR A Q 124;0.857263
1XGR A S 122;1XGR A L 125;16.9666
1XGR A S 122;1XGR A T 126;14.7471
1XGR A E 123;1XGR A Q 124;16.3448
1XGR A E 123;1XGR A L 125;0.713997
1XGR A E 123;1XGR A T 126;15.1962
1XGR A E 123;1XGR A S 127;9.28087
1XGR A E 123;1XGR B V 121;1.16026
1XGR A E 123;1XGR B Y 122;15.1807
1XGR A E 123;1XGR B P 123;17.0651
1XGR A E 123;1XGR B K 208;26.9478
1XGR A Q 124;1XGR A L 125;16.2169
1XGR A Q 124;1XGR A T 126;1.18941
1XGR A Q 124;1XGR A S 127;14.0395
1XGR A Q 124;1XGR A G 128;2.067
1XGR A Q 124;1XGR A G 129;21.4913
1XGR A Q 124;1XGR A A 130;8.20773
1XGR A Q 124;1XGR A S 131;19.2342
1XGR A Q 124;1XGR A T 180;0.953176
1XGR A Q 124;1XGR B Y 122;32.0842
1XGR A Q 124;1XGR B L 141;6.34058
1XGR A Q 124;1XGR B K 143;13.4643
1XGR A L 125;1XGR A T 126;20.1374
1XGR A L 125;1XGR A S 127;0.833438
1XGR A L 125;1XGR A G 128;7.85123
1XGR A L 125;1XGR A G 129;11.4996
1XGR A L 125;1XGR A A 130;6.445
1XGR A L 125;1XGR A K 183;34.5852
1XGR A L 125;1XGR A Y 186;18.8564
1XGR A L 125;1XGR A E 187;5.64735
1XGR A T 126;1XGR A S 127;24.4103
1XGR A T 126;1XGR A G 128;5.62679
1XGR A T 126;1XGR A K 183;7.98682
1XGR A S 127;1XGR A G 128;22.7984
1XGR A S 127;1XGR A G 129;6.94117
1XGR A S 127;1XGR B Y 122;14.811
1XGR A G 128;1XGR A G 129;20.9918
1XGR A G 128;1XGR A T 182;9.15287
1XGR A G 128;1XGR A K 183;21.3763
1XGR A G 129;1XGR A A 130;19.6294
1XGR A G 129;1XGR A T 180;0.15764
1XGR A G 129;1XGR A L 181;3.65202
1XGR A G 129;1XGR A T 182;3.61989
1XGR A G 129;1XGR A K 183;6.70454
1XGR A G 129;1XGR B K 143;0.585142
1XGR A A 130;1XGR A S 131;16.9711
1XGR A A 130;1XGR A V 132;3.23711
1XGR A A 130;1XGR A L 179;1.9261
1XGR A A 130;1XGR A T 180;5.21597
1XGR A A 130;1XGR A L 181;24.4431
1XGR A A 130;1XGR A T 182;5.49693
1XGR A A 130;1XGR A K 183;3.7193
1XGR A A 130;1XGR A Y 186;12.6656
1XGR A S 131;1XGR A V 132;17.9764
1XGR A S 131;1XGR A V 133;8.27942
1XGR A S 131;1XGR A T 178;9.11186
1XGR A S 131;1XGR A L 179;3.85704
1XGR A S 131;1XGR A T 180;14.5205
1XGR A S 131;1XGR B L 124;2.17638
1XGR A S 131;1XGR B L 141;13.9397
1XGR A S 131;1XGR B K 143;7.64328
1XGR A V 132;1XGR A V 133;19.291
1XGR A V 132;1XGR A W 148;19.0931
1XGR A V 132;1XGR A S 177;0.37912
1XGR A V 132;1XGR A T 178;7.00613
1XGR A V 132;1XGR A L 179;26.7635
1XGR A V 132;1XGR A L 181;4.20645
1XGR A V 132;1XGR A Y 186;8.22625
1XGR A V 132;1XGR A Y 192;13.7858
1XGR A V 132;1XGR A F 209;11.2515
1XGR A V 133;1XGR A C 134;23.2825
1XGR A V 133;1XGR A F 135;13.4168
1XGR A V 133;1XGR A W 148;3.17651
1XGR A V 133;1XGR A S 176;3.37174
1XGR A V 133;1XGR A S 177;4.38971
1XGR A V 133;1XGR A T 178;17.945
1XGR A V 133;1XGR B L 124;19.8333
1XGR A V 133;1XGR B L 141;13.4843
1XGR A V 133;1XGR B S 178;5.66931
1XGR A C 134;1XGR A F 135;20.6172
1XGR A C 134;1XGR A L 136;12.7957
1XGR A C 134;1XGR A W 148;10.2588
1XGR A C 134;1XGR A M 175;0.129963
1XGR A C 134;1XGR A S 176;4.54058
1XGR A C 134;1XGR A S 177;19.7471
1XGR A C 134;1XGR A C 194;20.4787
1XGR A C 134;1XGR A K 207;0.513239
1XGR A F 135;1XGR A L 136;19.6598
1XGR A F 135;1XGR A N 137;13.2776
1XGR A F 135;1XGR A M 175;4.41786
1XGR A F 135;1XGR A S 176;11.0647
1XGR A F 135;1XGR B L 124;10.7882
1XGR A F 135;1XGR B T 137;4.55523
1XGR A F 135;1XGR B L 138;1.96725
1XGR A F 135;1XGR B G 139;5.27635
1XGR A F 135;1XGR B C 140;0.0611639
1XGR A F 135;1XGR B F 166;13.0994
1XGR A F 135;1XGR B S 178;11.085
1XGR A F 135;1XGR B S 179;9.23374
1XGR A F 135;1XGR B S 180;19.796
1XGR A L 136;1XGR A N 137;20.5525
1XGR A L 136;1XGR A F 139;12.4162
1XGR A L 136;1XGR A I 144;12.2019
1XGR A L 136;1XGR A N 145;0.000364276
1XGR A L 136;1XGR A V 146;12.8271
1XGR A L 136;1XGR A S 174;3.03012
1XGR A L 136;1XGR A M 175;32.6654
1XGR A L 136;1XGR A S 176;0.695693
1XGR A L 136;1XGR A S 177;7.03936
1XGR A L 136;1XGR A C 194;5.33395
1XGR A L 136;1XGR A A 196;13.4827
1XGR A N 137;1XGR A N 138;31.3026
1XGR A N 137;1XGR A F 139;5.54325
1XGR A N 137;1XGR A Y 173;0.0220192
1XGR A N 137;1XGR A S 174;10.9749
1XGR A N 137;1XGR A M 175;2.22402
1XGR A N 137;1XGR B T 137;5.18243
1XGR A N 137;1XGR B H 164;15.264
1XGR A N 137;1XGR B F 166;7.0454
1XGR A N 137;1XGR B S 180;12.5303
1XGR A N 137;1XGR B T 182;6.91712
1XGR A N 138;1XGR A F 139;15.7794
1XGR A N 138;1XGR A D 167;5.29622
1XGR A N 138;1XGR A D 170;15.7219
1XGR A N 138;1XGR A T 172;22.7861
1XGR A N 138;1XGR A Y 173;5.61391
1XGR A N 138;1XGR A S 174;8.20476
1XGR A N 138;1XGR B H 164;17.3832
1XGR A F 139;1XGR A Y 140;19.7509
1XGR A F 139;1XGR A P 141;7.14859
1XGR A F 139;1XGR A K 142;16.4948
1XGR A F 139;1XGR A D 143;0.0252503
1XGR A F 139;1XGR A I 144;21.8982
1XGR A F 139;1XGR A W 163;0.712261
1XGR A F 139;1XGR A T 172;8.04489
1XGR A F 139;1XGR A Y 173;30.0251
1XGR A F 139;1XGR A S 174;6.71613
1XGR A F 139;1XGR A M 175;10.8172
1XGR A F 139;1XGR A H 198;9.79592
1XGR A Y 140;1XGR A P 141;42.4313
1XGR A Y 140;1XGR A K 142;1.05312
1XGR A Y 140;1XGR A Q 166;4.60572
1XGR A Y 140;1XGR A S 171;5.26773
1XGR A Y 140;1XGR A T 172;7.38702
1XGR A Y 140;1XGR A Y 173;15.9572
1XGR A Y 140;1XGR A H 198;8.22541
1XGR A Y 140;1XGR A T 200;1.44751
1XGR A P 141;1XGR A K 142;21.7279
1XGR A P 141;1XGR A D 143;28.1434
1XGR A P 141;1XGR A Y 173;1.41391
1XGR A P 141;1XGR A H 198;14.7235
1XGR A P 141;1XGR A K 199;21.2802
1XGR A P 141;1XGR A T 200;0.152311
1XGR A K 142;1XGR A D 143;29.2476
1XGR A K 142;1XGR A I 144;10.9286
1XGR A K 142;1XGR A W 163;26.8489
1XGR A K 142;1XGR A T 164;6.73202
1XGR A K 142;1XGR A Y 173;42.8106
1XGR A K 142;1XGR A S 174;5.50505
1XGR A K 142;1XGR A M 175;0.931139
1XGR A D 143;1XGR A I 144;27.2823
1XGR A D 143;1XGR A H 198;10.8138
1XGR A D 143;1XGR A K 199;9.32785
1XGR A I 144;1XGR A N 145;32.6116
1XGR A I 144;1XGR A V 146;4.26412
1XGR A I 144;1XGR A W 163;5.46977
1XGR A I 144;1XGR A M 175;17.8668
1XGR A I 144;1XGR A A 196;7.24582
1XGR A I 144;1XGR A T 197;10.899
1XGR A I 144;1XGR A H 198;16.0148
1XGR A N 145;1XGR A V 146;32.2879
1XGR A N 145;1XGR A K 147;19.4794
1XGR A N 145;1XGR A E 195;3.45306
1XGR A N 145;1XGR A A 196;5.5212
1XGR A N 145;1XGR A T 197;34.594
1XGR A V 146;1XGR A K 147;26.948
1XGR A V 146;1XGR A W 148;10.8019
1XGR A V 146;1XGR A V 159;1.92183
1XGR A V 146;1XGR A N 161;11.6787
1XGR A V 146;1XGR A M 175;18.3772
1XGR A V 146;1XGR A S 177;13.7415
1XGR A V 146;1XGR A C 194;11.6189
1XGR A V 146;1XGR A E 195;7.94906
1XGR A V 146;1XGR A A 196;3.08041
1XGR A K 147;1XGR A W 148;30.6219
1XGR A K 147;1XGR A K 149;21.8115
1XGR A K 147;1XGR A E 154;34.1444
1XGR A K 147;1XGR A R 155;9.78302e-05
1XGR A K 147;1XGR A T 193;2.30123
1XGR A K 147;1XGR A C 194;2.90031
1XGR A K 147;1XGR A E 195;39.5612
1XGR A K 147;1XGR A T 197;2.50031
1XGR A W 148;1XGR A K 149;23.8971
1XGR A W 148;1XGR A I 150;1.2823
1XGR A W 148;1XGR A E 154;5.82768
1XGR A W 148;1XGR A R 155;25.3948
1XGR A W 148;1XGR A V 159;20.5885
1XGR A W 148;1XGR A S 177;17.5658
1XGR A W 148;1XGR A T 178;3.39922
1XGR A W 148;1XGR A L 179;28.8686
1XGR A W 148;1XGR A Y 192;4.75971
1XGR A W 148;1XGR A T 193;15.6651
1XGR A W 148;1XGR A C 194;14.1001
1XGR A K 149;1XGR A I 150;22.77
1XGR A K 149;1XGR A D 151;0.717287
1XGR A K 149;1XGR A G 152;23.3022
1XGR A K 149;1XGR A S 153;8.35564
1XGR A K 149;1XGR A E 154;11.5697
1XGR A K 149;1XGR A R 155;2.04874
1XGR A K 149;1XGR A S 191;2.91814
1XGR A K 149;1XGR A Y 192;4.99324
1XGR A K 149;1XGR A T 193;32.5633
1XGR A K 149;1XGR A E 195;26.5195
1XGR A I 150;1XGR A D 151;25.8571
1XGR A I 150;1XGR A G 152;2.72421
1XGR A I 150;1XGR A S 153;23.4251
1XGR A I 150;1XGR A R 155;27.614
1XGR A I 150;1XGR A L 179;12.5295
1XGR A I 150;1XGR A L 181;10.9472
1XGR A I 150;1XGR A H 189;25.206
1XGR A I 150;1XGR A S 191;7.82133
1XGR A I 150;1XGR A Y 192;18.0218
1XGR A D 151;1XGR A G 152;23.5806
1XGR A D 151;1XGR A S 153;9.36535
1XGR A D 151;1XGR A R 188;1.22758
1XGR A D 151;1XGR A H 189;21.1568
1XGR A D 151;1XGR A N 190;14.1037
1XGR A D 151;1XGR A S 191;25.4206
1XGR A G 152;1XGR A S 153;23.9675
1XGR A G 152;1XGR A E 154;2.1665
1XGR A G 152;1XGR A S 191;6.38234
1XGR A S 153;1XGR A E 154;30.735
1XGR A S 153;1XGR A R 155;4.50172
1XGR A E 154;1XGR A R 155;28.887
1XGR A E 154;1XGR A Q 156;24.7984
1XGR A R 155;1XGR A Q 156;30.4729
1XGR A R 155;1XGR A N 157;29.0446
1XGR A R 155;1XGR A G 158;3.14651
1XGR A R 155;1XGR A V 159;9.18819
1XGR A R 155;1XGR A L 179;12.3124
1XGR A R 155;1XGR A T 180;1.54969
1XGR A R 155;1XGR A L 181;16.9311
1XGR A R 155;1XGR A E 185;17.2959
1XGR A R 155;1XGR A H 189;4.18341
1XGR A Q 156;1XGR A N 157;34.6721
1XGR A Q 156;1XGR A G 158;1.13397
1XGR A Q 156;1XGR A V 159;20.9635
1XGR A N 157;1XGR A G 158;24.9474
1XGR A N 157;1XGR A V 159;3.82645
1XGR A N 157;1XGR A L 179;4.94191
1XGR A N 157;1XGR A L 181;0.026105
1XGR A G 158;1XGR A V 159;20.8973
1XGR A G 158;1XGR A L 160;7.53165
1XGR A G 158;1XGR A T 178;3.81709
1XGR A G 158;1XGR A L 179;8.1858
1XGR A G 158;1XGR A T 180;24.4911
1XGR A G 158;1XGR A L 181;0.199089
1XGR A V 159;1XGR A L 160;33.6171
1XGR A V 159;1XGR A N 161;13.2241
1XGR A V 159;1XGR A S 177;6.09888
1XGR A V 159;1XGR A T 178;7.16083
1XGR A V 159;1XGR A L 179;13.5136
1XGR A L 160;1XGR A N 161;30.2958
1XGR A L 160;1XGR A S 176;1.88545
1XGR A L 160;1XGR A S 177;2.77452
1XGR A L 160;1XGR A T 178;27.4002
1XGR A L 160;1XGR A T 180;1.09633
1XGR A L 160;1XGR B V 169;24.9637
1XGR A L 160;1XGR B L 170;11.3211
1XGR A L 160;1XGR B Q 171;26.2138
1XGR A L 160;1XGR B T 176;0.277726
1XGR A N 161;1XGR A S 162;21.7391
1XGR A N 161;1XGR A W 163;30.4837
1XGR A N 161;1XGR A M 175;11.9362
1XGR A N 161;1XGR A S 176;6.35364
1XGR A N 161;1XGR A S 177;12.8502
1XGR A N 161;1XGR B V 169;15.0472
1XGR A S 162;1XGR A W 163;29.2462
1XGR A S 162;1XGR A M 175;8.15939
1XGR A S 162;1XGR A S 176;23.1541
1XGR A S 162;1XGR B F 166;13.8032
1XGR A S 162;1XGR B P 167;20.4265
1XGR A S 162;1XGR B V 169;12.7519
1XGR A W 163;1XGR A T 164;25.9338
1XGR A W 163;1XGR A D 165;0.58742
1XGR A W 163;1XGR A S 174;3.43372
1XGR A W 163;1XGR A M 175;29.8885
1XGR A W 163;1XGR B F 166;2.70245
1XGR A W 163;1XGR B P 167;16.5035
1XGR A T 164;1XGR A D 165;41.0278
1XGR A T 164;1XGR A D 167;1.75673
1XGR A T 164;1XGR A T 172;0.00413515
1XGR A T 164;1XGR A Y 173;8.99183
1XGR A T 164;1XGR A S 174;26.1673
1XGR A T 164;1XGR B H 164;10.5735
1XGR A T 164;1XGR B T 165;10.5952
1XGR A T 164;1XGR B F 166;16.1627
1XGR A T 164;1XGR B P 167;10.4457
1XGR A D 165;1XGR A Q 166;32.7737
1XGR A D 165;1XGR A D 167;8.95601
1XGR A D 165;1XGR A T 172;0.67984
1XGR A D 165;1XGR A Y 173;5.34697
1XGR A D 165;1XGR B P 167;0.256089
1XGR A Q 166;1XGR A D 167;22.1084
1XGR A Q 166;1XGR A S 168;7.79449
1XGR A Q 166;1XGR A S 171;20.8903
1XGR A Q 166;1XGR A T 172;4.67203
1XGR A Q 166;1XGR A Y 173;30.1354
1XGR A D 167;1XGR A S 168;28.5123
1XGR A D 167;1XGR A K 169;24.0504
1XGR A D 167;1XGR A D 170;13.2128
1XGR A D 167;1XGR A S 171;15.6936
1XGR A D 167;1XGR A T 172;20.1937
1XGR A D 167;1XGR A Y 173;0.60202
1XGR A D 167;1XGR A S 174;1.2612
1XGR A D 167;1XGR B H 164;16.0382
1XGR A S 168;1XGR A K 169;34.0747
1XGR A S 168;1XGR A D 170;0.734017
1XGR A S 168;1XGR A S 171;2.78292
1XGR A K 169;1XGR A D 170;33.7513
1XGR A K 169;1XGR A S 171;0.104271
1XGR A K 169;1XGR B S 160;7.69363
1XGR A K 169;1XGR B S 161;5.56117
1XGR A K 169;1XGR B G 162;5.62404
1XGR A K 169;1XGR B V 163;7.15411
1XGR A D 170;1XGR A S 171;24.7048
1XGR A D 170;1XGR A T 172;22.9889
1XGR A S 171;1XGR A T 172;17.2097
1XGR A S 171;1XGR A Y 173;1.97567
1XGR A T 172;1XGR A Y 173;25.9677
1XGR A T 172;1XGR A S 174;1.59593
1XGR A T 172;1XGR B H 164;0.118451
1XGR A Y 173;1XGR A S 174;23.5264
1XGR A S 174;1XGR A M 175;17.4654
1XGR A S 174;1XGR B H 164;18.4388
1XGR A S 174;1XGR B F 166;7.88287
1XGR A M 175;1XGR A S 176;21.8696
1XGR A M 175;1XGR A S 177;4.27333
1XGR A M 175;1XGR B F 166;12.7399
1XGR A S 176;1XGR A S 177;20.5181
1XGR A S 176;1XGR A T 178;6.94598
1XGR A S 176;1XGR B F 166;15.5128
1XGR A S 176;1XGR B S 178;12.1015
1XGR A S 177;1XGR A T 178;22.1806
1XGR A S 177;1XGR A C 194;1.26995
1XGR A T 178;1XGR A L 179;19.8028
1XGR A T 178;1XGR A T 180;12.651
1XGR A T 178;1XGR B L 141;10.5898
1XGR A T 178;1XGR B Q 171;0.369135
1XGR A T 178;1XGR B T 176;6.48611
1XGR A T 178;1XGR B S 178;4.17418
1XGR A L 179;1XGR A T 180;20.0334
1XGR A L 179;1XGR A L 181;18.4649
1XGR A L 179;1XGR A Y 192;7.95831
1XGR A T 180;1XGR A L 181;37.1928
1XGR A T 180;1XGR A E 185;0.193092
1XGR A T 180;1XGR B K 143;13.5151
1XGR A T 180;1XGR B Q 171;23.1332
1XGR A L 181;1XGR A T 182;25.0196
1XGR A L 181;1XGR A E 185;26.2616
1XGR A L 181;1XGR A Y 186;13.6789
1XGR A L 181;1XGR A H 189;3.3094
1XGR A L 181;1XGR A Y 192;10.5892
1XGR A T 182;1XGR A K 183;17.8084
1XGR A T 182;1XGR A D 184;12.9695
1XGR A T 182;1XGR A E 185;33.2183
1XGR A T 182;1XGR A Y 186;6.48925
1XGR A T 182;1XGR A R 188;0.333265
1XGR A K 183;1XGR A D 184;28.3262
1XGR A K 183;1XGR A E 185;0.70727
1XGR A K 183;1XGR A Y 186;7.63656
1XGR A K 183;1XGR A E 187;38.4856
1XGR A D 184;1XGR A E 185;17.2773
1XGR A D 184;1XGR A Y 186;0.726758
1XGR A D 184;1XGR A E 187;16.1622
1XGR A D 184;1XGR A R 188;31.411
1XGR A E 185;1XGR A Y 186;17.1374
1XGR A E 185;1XGR A E 187;0.87033
1XGR A E 185;1XGR A R 188;28.592
1XGR A E 185;1XGR A H 189;16.1271
1XGR A E 185;1XGR A Y 192;1.04387
1XGR A Y 186;1XGR A E 187;23.734
1XGR A Y 186;1XGR A R 188;2.16048
1XGR A Y 186;1XGR A H 189;5.87288
1XGR A Y 186;1XGR A Y 192;25.4118
1XGR A Y 186;1XGR A F 209;12.3236
1XGR A Y 186;1XGR A R 211;31.7118
1XGR A E 187;1XGR A R 188;23.8666
1XGR A E 187;1XGR A H 189;2.59349
1XGR A E 187;1XGR A R 211;32.7924
1XGR A R 188;1XGR A H 189;42.3349
1XGR A R 188;1XGR A R 211;0.204198
1XGR A H 189;1XGR A N 190;23.7316
1XGR A H 189;1XGR A S 191;0.59218
1XGR A H 189;1XGR A Y 192;15.4833
1XGR A H 189;1XGR A R 211;14.7863
1XGR A N 190;1XGR A S 191;23.3965
1XGR A N 190;1XGR A Y 192;9.86679
1XGR A N 190;1XGR A F 209;1.69425
1XGR A N 190;1XGR A N 210;18.217
1XGR A N 190;1XGR A R 211;19.9561
1XGR A N 190;1XGR A N 212;27.5745
1XGR A S 191;1XGR A Y 192;22.6941
1XGR A S 191;1XGR A T 193;6.33863
1XGR A S 191;1XGR A S 208;6.32975
1XGR A S 191;1XGR A F 209;3.94358
1XGR A S 191;1XGR A N 210;15.1765
1XGR A Y 192;1XGR A T 193;19.3358
1XGR A Y 192;1XGR A S 208;9.99786
1XGR A Y 192;1XGR A F 209;31.6221
1XGR A Y 192;1XGR A R 211;8.9611
1XGR A T 193;1XGR A C 194;20.6548
1XGR A T 193;1XGR A E 195;12.0997
1XGR A T 193;1XGR A V 206;14.891
1XGR A T 193;1XGR A K 207;6.40259
1XGR A T 193;1XGR A S 208;17.3542
1XGR A C 194;1XGR A E 195;21.1234
1XGR A C 194;1XGR A A 196;2.81559
1XGR A C 194;1XGR A I 205;2.84477
1XGR A C 194;1XGR A V 206;3.48041
1XGR A C 194;1XGR A K 207;19.5939
1XGR A E 195;1XGR A A 196;20.5757
1XGR A E 195;1XGR A T 197;3.25112
1XGR A E 195;1XGR A P 204;23.4149
1XGR A E 195;1XGR A I 205;5.46159
1XGR A E 195;1XGR A V 206;17.617
1XGR A A 196;1XGR A T 197;20.1011
1XGR A A 196;1XGR A H 198;5.11575
1XGR A A 196;1XGR A S 201;0.0680615
1XGR A A 196;1XGR A P 204;10.1221
1XGR A A 196;1XGR A I 205;26.0878
1XGR A T 197;1XGR A H 198;30.5623
1XGR A T 197;1XGR A S 201;5.31849
1XGR A T 197;1XGR A T 202;3.32115
1XGR A T 197;1XGR A P 204;21.0593
1XGR A H 198;1XGR A K 199;31.2904
1XGR A H 198;1XGR A T 200;23.2187
1XGR A H 198;1XGR A S 201;21.9072
1XGR A H 198;1XGR A P 204;0.404469
1XGR A H 198;1XGR A I 205;1.82256
1XGR A K 199;1XGR A T 200;22.2244
1XGR A K 199;1XGR A S 201;9.22804
1XGR A T 200;1XGR A S 201;32.2352
1XGR A T 200;1XGR A I 205;0.954536
1XGR A S 201;1XGR A T 202;31.5648
1XGR A S 201;1XGR A S 203;23.9665
1XGR A S 201;1XGR A P 204;1.78547
1XGR A S 201;1XGR A I 205;11.6459
1XGR A T 202;1XGR A S 203;28.7511
1XGR A T 202;1XGR A P 204;9.28111
1XGR A S 203;1XGR A P 204;37.2503
1XGR A S 203;1XGR A I 205;4.36179
1XGR A P 204;1XGR A I 205;20.8986
1XGR A P 204;1XGR A V 206;17.8029
1XGR A I 205;1XGR A V 206;27.6995
1XGR A I 205;1XGR A K 207;13.044
1XGR A V 206;1XGR A K 207;34.6391
1XGR A V 206;1XGR A S 208;6.92169
1XGR A K 207;1XGR A S 208;23.2837
1XGR A S 208;1XGR A F 209;33.4208
1XGR A S 208;1XGR A N 210;2.10049
1XGR A S 208;1XGR B V 127;0.188364
1XGR A F 209;1XGR A N 210;36.9616
1XGR A F 209;1XGR A R 211;6.88025
1XGR A F 209;1XGR B V 127;26.0923
1XGR A N 210;1XGR A R 211;17.7612
1XGR A N 210;1XGR A N 212;16.1179
1XGR A N 210;1XGR A E 213;35.2555
1XGR A N 210;1XGR B V 127;3.58477
1XGR A R 211;1XGR A N 212;20.782
1XGR A R 211;1XGR A E 213;9.25123
1XGR A R 211;1XGR A C 214;11.4112
1XGR A N 212;1XGR A E 213;37.623
1XGR A E 213;1XGR A C 214;41.1301
1XGR A E 213;1XGR B V 127;6.90413
1XGR A E 213;1XGR B C 128;6.74603
1XGR A C 214;1XGR B V 127;9.86567
1XGR A C 214;1XGR B C 128;37.3783
1XGR B A 1;1XGR B V 2;29.8071
1XGR B A 1;1XGR B Q 3;16.0832
1XGR B A 1;1XGR B T 25;2.18784
1XGR B A 1;1XGR B G 26;16.1966
1XGR B V 2;1XGR B Q 3;26.0841
1XGR B V 2;1XGR B L 4;5.6135
1XGR B V 2;1XGR B V 24;7.68684
1XGR B V 2;1XGR B T 25;7.15817
1XGR B V 2;1XGR B G 26;7.01068
1XGR B V 2;1XGR B D 27;17.708
1XGR B V 2;1XGR B W 34;11.0377
1XGR B V 2;1XGR B D 101;6.11765
1XGR B V 2;1XGR B V 102;26.8325
1XGR B Q 3;1XGR B L 4;30.9265
1XGR B Q 3;1XGR B S 23;3.17355
1XGR B Q 3;1XGR B V 24;2.76853
1XGR B Q 3;1XGR B T 25;31.9626
1XGR B Q 3;1XGR B V 102;6.74699
1XGR B L 4;1XGR B Q 5;28.2146
1XGR B L 4;1XGR B C 22;10.5264
1XGR B L 4;1XGR B S 23;6.63857
1XGR B L 4;1XGR B V 24;12.4409
1XGR B L 4;1XGR B W 34;15.0715
1XGR B L 4;1XGR B Y 78;4.74749
1XGR B L 4;1XGR B C 95;11.0982
1XGR B L 4;1XGR B A 96;7.92437
1XGR B L 4;1XGR B S 97;1.92787
1XGR B L 4;1XGR B V 102;19.9141
1XGR B L 4;1XGR B W 103;10.4821
1XGR B L 4;1XGR B G 104;15.3572
1XGR B L 4;1XGR B A 105;1.76335
1XGR B Q 5;1XGR B E 6;42.2168
1XGR B Q 5;1XGR B S 7;5.26328
1XGR B Q 5;1XGR B T 21;2.50496
1XGR B Q 5;1XGR B C 22;7.18095
1XGR B Q 5;1XGR B S 23;26.6489
1XGR B Q 5;1XGR B C 95;4.09667
1XGR B Q 5;1XGR B G 104;2.50059
1XGR B Q 5;1XGR B A 105;18.6367
1XGR B Q 5;1XGR B G 106;2.63905
1XGR B Q 5;1XGR B T 107;0.701289
1XGR B E 6;1XGR B S 7;26.3236
1XGR B E 6;1XGR B L 20;2.85214
1XGR B E 6;1XGR B T 21;6.233
1XGR B E 6;1XGR B C 22;1.53157
1XGR B E 6;1XGR B W 36;10.5034
1XGR B E 6;1XGR B Y 93;5.37608
1XGR B E 6;1XGR B Y 94;7.97989
1XGR B E 6;1XGR B C 95;20.2608
1XGR B E 6;1XGR B G 104;11.6625
1XGR B E 6;1XGR B A 105;4.08173
1XGR B E 6;1XGR B G 106;15.463
1XGR B E 6;1XGR B T 107;20.4566
1XGR B S 7;1XGR B G 8;29.1497
1XGR B S 7;1XGR B L 20;10.3047
1XGR B S 7;1XGR B T 21;33.7008
1XGR B S 7;1XGR B S 23;3.58804
1XGR B S 7;1XGR B T 107;5.33154
1XGR B G 8;1XGR B P 9;32.0851
1XGR B G 8;1XGR B S 10;9.04869
1XGR B G 8;1XGR B S 19;3.16867
1XGR B G 8;1XGR B L 20;12.178
1XGR B G 8;1XGR B T 107;7.13152
1XGR B G 8;1XGR B V 109;0.00610467
1XGR B P 9;1XGR B S 10;21.863
1XGR B P 9;1XGR B L 11;14.717
1XGR B P 9;1XGR B V 12;11.6643
1XGR B P 9;1XGR B L 18;0.296788
1XGR B P 9;1XGR B S 19;24.2173
1XGR B P 9;1XGR B L 20;3.22335
1XGR B P 9;1XGR B V 109;10.9235
1XGR B S 10;1XGR B L 11;30.6815
1XGR B S 10;1XGR B T 107;3.66919
1XGR B S 10;1XGR B T 108;15.4875
1XGR B S 10;1XGR B V 109;9.78635
1XGR B S 10;1XGR B T 110;13.2196
1XGR B L 11;1XGR B V 12;32.7085
1XGR B L 11;1XGR B K 13;8.77986
1XGR B L 11;1XGR B V 109;0.550726
1XGR B L 11;1XGR B T 110;17.5298
1XGR B L 11;1XGR B S 112;14.099
1XGR B L 11;1XGR B A 114;6.65501
1XGR B L 11;1XGR B F 146;20.5746
1XGR B L 11;1XGR B P 147;12.3464
1XGR B V 12;1XGR B K 13;27.5252
1XGR B V 12;1XGR B P 14;0.238901
1XGR B V 12;1XGR B Q 16;9.12275
1XGR B V 12;1XGR B T 17;13.713
1XGR B V 12;1XGR B L 18;16.2501
1XGR B V 12;1XGR B S 19;2.3604
1XGR B V 12;1XGR B V 85;10.9002
1XGR B V 12;1XGR B V 109;11.6427
1XGR B V 12;1XGR B T 110;8.26525
1XGR B V 12;1XGR B V 111;15.0456
1XGR B V 12;1XGR B S 112;7.19979
1XGR B K 13;1XGR B P 14;27.5796
1XGR B K 13;1XGR B S 15;0.139827
1XGR B K 13;1XGR B Q 16;24.3129
1XGR B K 13;1XGR B V 85;4.85112
1XGR B K 13;1XGR B V 111;1.88555
1XGR B K 13;1XGR B S 112;10.2469
1XGR B K 13;1XGR B S 113;17.0571
1XGR B K 13;1XGR B A 114;5.47703
1XGR B K 13;1XGR B K 115;8.15787
1XGR B P 14;1XGR B S 15;27.8939
1XGR B P 14;1XGR B Q 16;6.5761
1XGR B P 14;1XGR B V 85;6.93051
1XGR B P 14;1XGR B T 86;6.80622
1XGR B P 14;1XGR B T 87;11.3276
1XGR B P 14;1XGR B V 111;12.4158
1XGR B P 14;1XGR B S 112;9.99322
1XGR B P 14;1XGR B S 113;19.7601
1XGR B S 15;1XGR B Q 16;36.3783
1XGR B S 15;1XGR B T 17;0.094997
1XGR B S 15;1XGR B S 84;21.2971
1XGR B S 15;1XGR B V 85;13.2784
1XGR B Q 16;1XGR B T 17;30.8422
1XGR B Q 16;1XGR B L 18;0.0294615
1XGR B Q 16;1XGR B L 82;0.499726
1XGR B Q 16;1XGR B N 83;1.76463
1XGR B Q 16;1XGR B S 84;5.45505
1XGR B Q 16;1XGR B V 85;13.1486
1XGR B T 17;1XGR B L 18;22.9201
1XGR B T 17;1XGR B S 19;15.238
1XGR B T 17;1XGR B Q 81;13.4457
1XGR B T 17;1XGR B L 82;8.46088
1XGR B T 17;1XGR B N 83;21.6784
1XGR B T 17;1XGR B S 84;0.546911
1XGR B T 17;1XGR B V 85;0.113776
1XGR B L 18;1XGR B S 19;27.5272
1XGR B L 18;1XGR B L 20;11.8738
1XGR B L 18;1XGR B L 80;12.5593
1XGR B L 18;1XGR B Q 81;4.76105
1XGR B L 18;1XGR B L 82;27.634
1XGR B L 18;1XGR B V 85;12.875
1XGR B L 18;1XGR B D 89;5.24682
1XGR B L 18;1XGR B Y 93;17.0673
1XGR B L 18;1XGR B V 109;19.4338
1XGR B L 18;1XGR B V 111;4.67755
1XGR B S 19;1XGR B L 20;28.0825
1XGR B S 19;1XGR B L 80;8.31629
1XGR B S 19;1XGR B Q 81;5.90969
1XGR B S 19;1XGR B V 109;0.0552526
1XGR B L 20;1XGR B T 21;23.0159
1XGR B L 20;1XGR B W 36;18.8796
1XGR B L 20;1XGR B Y 79;10.2177
1XGR B L 20;1XGR B L 80;23.8552
1XGR B L 20;1XGR B Y 93;15.3689
1XGR B L 20;1XGR B T 107;15.8986
1XGR B L 20;1XGR B V 109;14.9295
1XGR B T 21;1XGR B C 22;20.9186
1XGR B T 21;1XGR B S 23;7.93058
1XGR B T 21;1XGR B W 36;7.88862
1XGR B T 21;1XGR B Q 77;16.7016
1XGR B T 21;1XGR B Y 78;3.34014
1XGR B T 21;1XGR B Y 79;22.1353
1XGR B C 22;1XGR B S 23;20.0751
1XGR B C 22;1XGR B V 24;5.89683
1XGR B C 22;1XGR B W 36;9.58342
1XGR B C 22;1XGR B Q 77;8.05559
1XGR B C 22;1XGR B Y 78;30.1081
1XGR B C 22;1XGR B C 95;17.3317
1XGR B S 23;1XGR B V 24;20.5334
1XGR B S 23;1XGR B T 25;14.9004
1XGR B S 23;1XGR B N 76;2.20726
1XGR B S 23;1XGR B Q 77;20.9946
1XGR B V 24;1XGR B T 25;29.6604
1XGR B V 24;1XGR B D 27;15.6635
1XGR B V 24;1XGR B S 28;3.8489
1XGR B V 24;1XGR B V 29;15.1353
1XGR B V 24;1XGR B W 34;16.3652
1XGR B V 24;1XGR B K 75;0.30727
1XGR B V 24;1XGR B N 76;27.0065
1XGR B V 24;1XGR B Q 77;3.15985
1XGR B V 24;1XGR B Y 78;8.98649
1XGR B T 25;1XGR B G 26;25.2862
1XGR B T 25;1XGR B D 27;6.3307
1XGR B G 26;1XGR B D 27;31.5059
1XGR B D 27;1XGR B S 28;33.0271
1XGR B D 27;1XGR B V 29;0.355124
1XGR B D 27;1XGR B S 31;23.9562
1XGR B D 27;1XGR B W 34;1.40837
1XGR B D 27;1XGR B N 76;7.56178
1XGR B S 28;1XGR B V 29;18.0111
1XGR B S 28;1XGR B T 30;20.8105
1XGR B S 28;1XGR B S 31;20.8429
1XGR B S 28;1XGR B D 32;0.297098
1XGR B S 28;1XGR B W 34;5.93726
1XGR B S 28;1XGR B T 73;3.79473
1XGR B S 28;1XGR B N 76;14.498
1XGR B V 29;1XGR B T 30;24.0218
1XGR B V 29;1XGR B S 31;2.2469
1XGR B V 29;1XGR B D 32;5.44762
1XGR B V 29;1XGR B W 34;23.9033
1XGR B V 29;1XGR B I 51;0.252584
1XGR B V 29;1XGR B S 52;0.440632
1XGR B V 29;1XGR B Y 53;1.70056
1XGR B V 29;1XGR B R 71;21.4402
1XGR B V 29;1XGR B D 72;4.41587
1XGR B V 29;1XGR B T 73;11.3489
1XGR B V 29;1XGR B N 76;19.4677
1XGR B V 29;1XGR B Q 77;10.1029
1XGR B V 29;1XGR B Y 78;9.48072
1XGR B T 30;1XGR B S 31;19.3447
1XGR B T 30;1XGR B D 32;3.55052
1XGR B T 30;1XGR B Y 53;11.3243
1XGR B T 30;1XGR B R 71;15.8147
1XGR B T 30;1XGR B T 73;20.4644
1XGR B S 31;1XGR B D 32;26.7483
1XGR B S 31;1XGR B W 34;3.67919
1XGR B D 32;1XGR B I 33;29.2347
1XGR B D 32;1XGR B W 34;30.1139
1XGR B D 32;1XGR B I 51;0.616091
1XGR B D 32;1XGR B S 52;2.08993
1XGR B D 32;1XGR B Y 53;12.9786
1XGR B D 32;1XGR B S 97;11.8284
1XGR B D 32;1XGR B W 98;3.35701
1XGR B D 32;1XGR B G 99;2.16184
1XGR B D 32;1XGR B D 101;5.66298
1XGR B I 33;1XGR B W 34;23.7946
1XGR B I 33;1XGR B Y 50;17.2181
1XGR B I 33;1XGR B I 51;6.8399
1XGR B I 33;1XGR B S 52;15.3966
1XGR B I 33;1XGR B Y 53;17.1454
1XGR B I 33;1XGR B S 97;3.61558
1XGR B I 33;1XGR B W 98;33.9151
1XGR B W 34;1XGR B S 35;18.3003
1XGR B W 34;1XGR B Y 50;7.71232
1XGR B W 34;1XGR B I 51;28.422
1XGR B W 34;1XGR B S 52;1.23851
1XGR B W 34;1XGR B I 69;0.421017
1XGR B W 34;1XGR B R 71;0.109575
1XGR B W 34;1XGR B Y 78;26.4783
1XGR B W 34;1XGR B A 96;5.75048
1XGR B W 34;1XGR B S 97;13.0679
1XGR B W 34;1XGR B W 98;2.3918
1XGR B W 34;1XGR B V 102;6.74528
1XGR B S 35;1XGR B W 36;24.5414
1XGR B S 35;1XGR B I 37;9.79218
1XGR B S 35;1XGR B Y 47;16.7941
1XGR B S 35;1XGR B G 49;5.74778
1XGR B S 35;1XGR B Y 50;10.7226
1XGR B S 35;1XGR B I 69;0.808322
1XGR B S 35;1XGR B Y 78;12.3552
1XGR B S 35;1XGR B Y 94;0.233064
1XGR B S 35;1XGR B C 95;5.83016
1XGR B S 35;1XGR B A 96;20.4226
1XGR B S 35;1XGR B S 97;4.2496
1XGR B S 35;1XGR B W 98;3.94956
1XGR B W 36;1XGR B I 37;22.9231
1XGR B W 36;1XGR B Y 47;2.73022
1XGR B W 36;1XGR B M 48;22.3069
1XGR B W 36;1XGR B G 49;11.2237
1XGR B W 36;1XGR B I 67;0.163772
1XGR B W 36;1XGR B I 69;18.6496
1XGR B W 36;1XGR B Y 78;19.7503
1XGR B W 36;1XGR B Y 79;10.3142
1XGR B W 36;1XGR B L 80;30.1307
1XGR B W 36;1XGR B Y 93;7.239
1XGR B W 36;1XGR B Y 94;12.7391
1XGR B W 36;1XGR B C 95;12.4102
1XGR B I 37;1XGR B R 38;22.3535
1XGR B I 37;1XGR B L 45;11.9017
1XGR B I 37;1XGR B E 46;9.6267
1XGR B I 37;1XGR B Y 47;23.8181
1XGR B I 37;1XGR B M 48;5.98025
1XGR B I 37;1XGR B T 92;0.133824
1XGR B I 37;1XGR B Y 93;4.08287
1XGR B I 37;1XGR B Y 94;30.085
1XGR B I 37;1XGR B A 96;8.91903
1XGR B I 37;1XGR B S 97;0.338161
1XGR B I 37;1XGR B W 103;25.3177
1XGR B R 38;1XGR B K 39;18.0747
1XGR B R 38;1XGR B F 40;29.5161
1XGR B R 38;1XGR B K 44;1.57619
1XGR B R 38;1XGR B L 45;7.0687
1XGR B R 38;1XGR B E 46;34.0684
1XGR B R 38;1XGR B M 48;24.4978
1XGR B R 38;1XGR B L 63;11.7217
1XGR B R 38;1XGR B R 66;1.32527
1XGR B R 38;1XGR B L 82;7.22462
1XGR B R 38;1XGR B E 88;0.13607
1XGR B R 38;1XGR B D 89;18.1988
1XGR B R 38;1XGR B A 91;8.31648
1XGR B R 38;1XGR B T 92;5.59983
1XGR B R 38;1XGR B Y 93;23.564
1XGR B R 38;1XGR B Y 94;2.05682
1XGR B K 39;1XGR B F 40;27.1983
1XGR B K 39;1XGR B P 41;1.55162
1XGR B K 39;1XGR B N 43;21.3357
1XGR B K 39;1XGR B K 44;7.02264
1XGR B K 39;1XGR B L 45;20.4578
1XGR B K 39;1XGR B A 91;9.61888
1XGR B K 39;1XGR B T 92;30.9772
1XGR B K 39;1XGR B Y 94;21.4726
1XGR B F 40;1XGR B P 41;38.1169
1XGR B F 40;1XGR B G 42;0.0664045
1XGR B F 40;1XGR B N 43;5.00011
1XGR B F 40;1XGR B K 44;33.6141
1XGR B F 40;1XGR B L 45;0.362753
1XGR B F 40;1XGR B E 46;19.9689
1XGR B F 40;1XGR B E 88;15.134
1XGR B F 40;1XGR B D 89;2.9556
1XGR B F 40;1XGR B T 90;6.1911
1XGR B F 40;1XGR B A 91;12.5999
1XGR B P 41;1XGR B G 42;29.5974
1XGR B P 41;1XGR B N 43;1.09551
1XGR B P 41;1XGR B K 44;9.3081
1XGR B P 41;1XGR B T 90;17.8548
1XGR B P 41;1XGR B A 91;4.49309
1XGR B G 42;1XGR B N 43;33.6174
1XGR B G 42;1XGR B K 44;17.107
1XGR B N 43;1XGR B K 44;21.3608
1XGR B N 43;1XGR B L 45;5.46415
1XGR B K 44;1XGR B L 45;25.069
1XGR B K 44;1XGR B E 46;0.802395
1XGR B L 45;1XGR B E 46;25.0247
1XGR B L 45;1XGR B Y 94;5.63162
1XGR B L 45;1XGR B W 103;1.02903
1XGR B E 46;1XGR B Y 47;23.3028
1XGR B E 46;1XGR B M 48;12.401
1XGR B E 46;1XGR B H 60;16.1845
1XGR B E 46;1XGR B S 62;8.53255
1XGR B E 46;1XGR B L 63;15.4572
1XGR B Y 47;1XGR B M 48;17.2351
1XGR B Y 47;1XGR B G 49;11.5185
1XGR B Y 47;1XGR B Y 50;9.27295
1XGR B Y 47;1XGR B H 60;13.9192
1XGR B Y 47;1XGR B S 97;1.67478
1XGR B Y 47;1XGR B W 98;16.1877
1XGR B M 48;1XGR B G 49;19.8927
1XGR B M 48;1XGR B Y 59;3.02916
1XGR B M 48;1XGR B H 60;13.212
1XGR B M 48;1XGR B L 63;15.8979
1XGR B M 48;1XGR B I 67;21.1838
1XGR B M 48;1XGR B I 69;0.524315
1XGR B M 48;1XGR B L 80;14.5456
1XGR B M 48;1XGR B L 82;12.5166
1XGR B M 48;1XGR B Y 93;13.1854
1XGR B G 49;1XGR B Y 50;15.8489
1XGR B G 49;1XGR B Y 58;5.04032
1XGR B G 49;1XGR B Y 59;3.63123
1XGR B G 49;1XGR B H 60;0.264043
1XGR B G 49;1XGR B I 67;0.43798
1XGR B G 49;1XGR B I 69;10.7117
1XGR B Y 50;1XGR B I 51;19.9805
1XGR B Y 50;1XGR B S 52;8.48823
1XGR B Y 50;1XGR B S 56;0.877034
1XGR B Y 50;1XGR B T 57;8.59757
1XGR B Y 50;1XGR B Y 58;35.8691
1XGR B Y 50;1XGR B Y 59;0.255734
1XGR B Y 50;1XGR B I 69;11.6034
1XGR B Y 50;1XGR B W 98;13.0569
1XGR B I 51;1XGR B S 52;25.2846
1XGR B I 51;1XGR B G 55;16.3116
1XGR B I 51;1XGR B S 56;5.82419
1XGR B I 51;1XGR B T 57;11.8911
1XGR B I 51;1XGR B I 69;21.1491
1XGR B I 51;1XGR B T 70;9.67565
1XGR B I 51;1XGR B R 71;19.7546
1XGR B I 51;1XGR B Y 78;12.5263
1XGR B S 52;1XGR B Y 53;26.4837
1XGR B S 52;1XGR B S 54;7.49034
1XGR B S 52;1XGR B G 55;7.81992
1XGR B S 52;1XGR B S 56;17.3963
1XGR B S 52;1XGR B Y 58;0.315574
1XGR B S 52;1XGR B R 71;6.10549
1XGR B Y 53;1XGR B S 54;32.1261
1XGR B Y 53;1XGR B G 55;0.592313
1XGR B Y 53;1XGR B R 71;13.8174
1XGR B S 54;1XGR B G 55;20.6155
1XGR B S 54;1XGR B S 56;14.3904
1XGR B S 54;1XGR B R 71;13.7389
1XGR B G 55;1XGR B S 56;23.72
1XGR B G 55;1XGR B T 57;8.92337
1XGR B G 55;1XGR B R 71;14.1806
1XGR B S 56;1XGR B T 57;31.6662
1XGR B S 56;1XGR B Y 58;4.15522
1XGR B T 57;1XGR B Y 58;34.6654
1XGR B T 57;1XGR B Y 59;27.4523
1XGR B T 57;1XGR B I 69;13.6087
1XGR B Y 58;1XGR B Y 59;27.2512
1XGR B Y 58;1XGR B I 69;0.346254
1XGR B Y 59;1XGR B H 60;20.7542
1XGR B Y 59;1XGR B P 61;7.46454
1XGR B Y 59;1XGR B K 64;33.2801
1XGR B Y 59;1XGR B I 67;32.9329
1XGR B Y 59;1XGR B S 68;10.9335
1XGR B Y 59;1XGR B I 69;26.4952
1XGR B Y 59;1XGR B T 70;0.000430172
1XGR B H 60;1XGR B P 61;24.0304
1XGR B H 60;1XGR B S 62;20.1466
1XGR B H 60;1XGR B L 63;21.498
1XGR B H 60;1XGR B K 64;6.77496
1XGR B H 60;1XGR B I 67;0.68234
1XGR B P 61;1XGR B S 62;26.5026
1XGR B P 61;1XGR B L 63;1.6149
1XGR B P 61;1XGR B K 64;23.4288
1XGR B S 62;1XGR B L 63;31.7765
1XGR B S 62;1XGR B K 64;3.2577
1XGR B S 62;1XGR B R 66;2.78511
1XGR B L 63;1XGR B K 64;19.9763
1XGR B L 63;1XGR B S 65;0.838703
1XGR B L 63;1XGR B R 66;28.6806
1XGR B L 63;1XGR B I 67;23.0455
1XGR B L 63;1XGR B L 82;11.1687
1XGR B K 64;1XGR B S 65;41.9398
1XGR B K 64;1XGR B R 66;2.03275
1XGR B K 64;1XGR B I 67;6.3496
1XGR B S 65;1XGR B R 66;35.5887
1XGR B S 65;1XGR B I 67;8.18927
1XGR B S 65;1XGR B N 83;4.52488
1XGR B R 66;1XGR B I 67;22.0199
1XGR B R 66;1XGR B S 68;0.417747
1XGR B R 66;1XGR B Q 81;4.79007
1XGR B R 66;1XGR B L 82;25.2879
1XGR B R 66;1XGR B N 83;35.2114
1XGR B R 66;1XGR B S 84;21.2661
1XGR B R 66;1XGR B V 85;4.99841
1XGR B R 66;1XGR B T 86;1.12481
1XGR B R 66;1XGR B D 89;19.9892
1XGR B I 67;1XGR B S 68;28.7628
1XGR B I 67;1XGR B I 69;10.2558
1XGR B I 67;1XGR B L 80;13.1908
1XGR B I 67;1XGR B Q 81;6.46648
1XGR B I 67;1XGR B L 82;10.8525
1XGR B S 68;1XGR B I 69;22.3953
1XGR B S 68;1XGR B T 70;14.5032
1XGR B S 68;1XGR B Y 79;1.35085
1XGR B S 68;1XGR B L 80;5.58006
1XGR B S 68;1XGR B Q 81;40.7221
1XGR B I 69;1XGR B T 70;30.1125
1XGR B I 69;1XGR B Y 78;5.89969
1XGR B I 69;1XGR B Y 79;10.2922
1XGR B I 69;1XGR B L 80;6.63683
1XGR B T 70;1XGR B R 71;25.3794
1XGR B T 70;1XGR B Y 78;6.61955
1XGR B T 70;1XGR B Y 79;31.8272
1XGR B R 71;1XGR B D 72;25.2693
1XGR B R 71;1XGR B T 73;18.252
1XGR B R 71;1XGR B Q 77;4.51482
1XGR B R 71;1XGR B Y 78;10.2423
1XGR B R 71;1XGR B Y 79;8.19734
1XGR B D 72;1XGR B T 73;22.3859
1XGR B D 72;1XGR B S 74;14.9409
1XGR B D 72;1XGR B K 75;30.2816
1XGR B D 72;1XGR B N 76;6.32328
1XGR B D 72;1XGR B Q 77;14.6375
1XGR B D 72;1XGR B Y 79;15.7308
1XGR B T 73;1XGR B S 74;28.6637
1XGR B T 73;1XGR B K 75;0.689714
1XGR B T 73;1XGR B N 76;13.9952
1XGR B S 74;1XGR B K 75;31.3215
1XGR B S 74;1XGR B N 76;7.14695
1XGR B K 75;1XGR B N 76;27.7275
1XGR B K 75;1XGR B Q 77;32.5612
1XGR B K 75;1XGR B Y 79;15.314
1XGR B N 76;1XGR B Q 77;19.7044
1XGR B Q 77;1XGR B Y 78;18.4303
1XGR B Q 77;1XGR B Y 79;20.1139
1XGR B Y 78;1XGR B Y 79;25.0878
1XGR B Y 78;1XGR B C 95;8.00505
1XGR B Y 78;1XGR B A 96;6.21145
1XGR B Y 79;1XGR B L 80;23.1199
1XGR B Y 79;1XGR B Q 81;0.125959
1XGR B L 80;1XGR B Q 81;28.4984
1XGR B L 80;1XGR B L 82;8.16108
1XGR B L 80;1XGR B Y 93;9.52385
1XGR B Q 81;1XGR B L 82;19.5918
1XGR B Q 81;1XGR B N 83;22.7723
1XGR B L 82;1XGR B N 83;20.4584
1XGR B L 82;1XGR B V 85;13.127
1XGR B L 82;1XGR B D 89;7.66153
1XGR B L 82;1XGR B Y 93;5.5536
1XGR B N 83;1XGR B S 84;29.3501
1XGR B N 83;1XGR B V 85;5.34432
1XGR B S 84;1XGR B V 85;18.0522
1XGR B S 84;1XGR B T 86;10.3909
1XGR B S 84;1XGR B D 89;0.0409648
1XGR B V 85;1XGR B T 86;23.6939
1XGR B V 85;1XGR B D 89;12.969
1XGR B V 85;1XGR B V 111;15.8751
1XGR B T 86;1XGR B T 87;19.2872
1XGR B T 86;1XGR B E 88;25.9847
1XGR B T 86;1XGR B D 89;19.0371
1XGR B T 86;1XGR B T 90;0.105
1XGR B T 86;1XGR B V 111;11.8519
1XGR B T 87;1XGR B E 88;36.6374
1XGR B T 87;1XGR B D 89;2.09308
1XGR B T 87;1XGR B T 90;18.8434
1XGR B T 87;1XGR B V 111;21.5086
1XGR B T 87;1XGR B S 112;5.10224
1XGR B T 87;1XGR B L 170;3.2824
1XGR B E 88;1XGR B D 89;20.862
1XGR B E 88;1XGR B T 90;6.06755
1XGR B D 89;1XGR B T 90;18.2569
1XGR B D 89;1XGR B A 91;5.13632
1XGR B D 89;1XGR B Y 93;12.4066
1XGR B D 89;1XGR B V 109;1.73416
1XGR B D 89;1XGR B V 111;9.4376
1XGR B T 90;1XGR B A 91;23.6733
1XGR B T 90;1XGR B T 108;4.54965
1XGR B T 90;1XGR B V 109;7.50054
1XGR B T 90;1XGR B T 110;21.1116
1XGR B T 90;1XGR B V 111;17.7122
1XGR B T 90;1XGR B Y 175;0.137467
1XGR B A 91;1XGR B T 92;21.8834
1XGR B A 91;1XGR B Y 93;16.0987
1XGR B A 91;1XGR B T 107;0.255467
1XGR B A 91;1XGR B T 108;9.72497
1XGR B A 91;1XGR B V 109;12.1803
1XGR B T 92;1XGR B Y 93;21.0107
1XGR B T 92;1XGR B Y 94;24.8879
1XGR B T 92;1XGR B A 105;0.892513
1XGR B T 92;1XGR B G 106;6.67913
1XGR B T 92;1XGR B T 107;7.911
1XGR B T 92;1XGR B T 108;21.3066
1XGR B Y 93;1XGR B Y 94;20.5387
1XGR B Y 93;1XGR B G 106;4.7074
1XGR B Y 93;1XGR B T 107;21.4501
1XGR B Y 93;1XGR B V 109;14.585
1XGR B Y 94;1XGR B C 95;20.957
1XGR B Y 94;1XGR B A 96;0.875729
1XGR B Y 94;1XGR B W 103;17.1984
1XGR B Y 94;1XGR B G 104;5.37692
1XGR B Y 94;1XGR B A 105;8.55941
1XGR B Y 94;1XGR B G 106;11.3567
1XGR B C 95;1XGR B A 96;18.1266
1XGR B C 95;1XGR B W 103;5.14896
1XGR B C 95;1XGR B G 104;9.68121
1XGR B A 96;1XGR B S 97;24.3957
1XGR B A 96;1XGR B W 98;0.0213668
1XGR B A 96;1XGR B G 100;2.12199
1XGR B A 96;1XGR B V 102;6.65698
1XGR B A 96;1XGR B W 103;20.3815
1XGR B S 97;1XGR B W 98;20.8175
1XGR B S 97;1XGR B G 99;4.9883
1XGR B S 97;1XGR B G 100;13.4114
1XGR B S 97;1XGR B D 101;12.4328
1XGR B S 97;1XGR B V 102;22.3458
1XGR B W 98;1XGR B G 99;34.4401
1XGR B W 98;1XGR B G 100;5.78698
1XGR B G 99;1XGR B G 100;15.3845
1XGR B G 99;1XGR B D 101;17.2304
1XGR B G 100;1XGR B D 101;18.5907
1XGR B G 100;1XGR B V 102;3.70878
1XGR B G 100;1XGR B W 103;16.9075
1XGR B D 101;1XGR B V 102;32.8603
1XGR B D 101;1XGR B W 103;1.86281
1XGR B V 102;1XGR B W 103;36.3529
1XGR B W 103;1XGR B G 104;26.9191
1XGR B W 103;1XGR B A 105;0.193066
1XGR B G 104;1XGR B A 105;21.0415
1XGR B G 104;1XGR B G 106;2.53165
1XGR B A 105;1XGR B G 106;28.3914
1XGR B G 106;1XGR B T 107;25.9436
1XGR B T 107;1XGR B T 108;31.2872
1XGR B T 107;1XGR B V 109;7.82048
1XGR B T 108;1XGR B V 109;25.7555
1XGR B T 108;1XGR B T 110;13.5304
1XGR B V 109;1XGR B T 110;22.3939
1XGR B V 109;1XGR B V 111;4.64158
1XGR B T 110;1XGR B V 111;23.8929
1XGR B T 110;1XGR B S 112;8.95718
1XGR B T 110;1XGR B F 146;5.84255
1XGR B T 110;1XGR B L 170;1.53566
1XGR B T 110;1XGR B Y 175;19.4232
1XGR B V 111;1XGR B S 112;21.6663
1XGR B S 112;1XGR B S 113;21.7472
1XGR B S 112;1XGR B A 114;15.9731
1XGR B S 112;1XGR B F 146;15.0288
1XGR B S 112;1XGR B D 173;7.15185
1XGR B S 113;1XGR B A 114;29.4216
1XGR B S 113;1XGR B K 115;8.11354
1XGR B S 113;1XGR B D 173;3.82453
1XGR B A 114;1XGR B K 115;30.6571
1XGR B A 114;1XGR B T 116;0.270055
1XGR B A 114;1XGR B F 146;23.0672
1XGR B A 114;1XGR B D 173;13.8558
1XGR B A 114;1XGR B L 174;9.85086
1XGR B K 115;1XGR B T 116;31.6462
1XGR B K 115;1XGR B T 117;11.7853
1XGR B K 115;1XGR B F 146;9.21263
1XGR B K 115;1XGR B L 174;1.39477
1XGR B T 116;1XGR B T 117;26.4862
1XGR B T 116;1XGR B F 146;12.3292
1XGR B T 116;1XGR B P 147;11.822
1XGR B T 116;1XGR B H 199;2.71096
1XGR B T 116;1XGR B A 201;17.3826
1XGR B T 116;1XGR B S 202;13.6375
1XGR B T 117;1XGR B A 118;33.0729
1XGR B T 117;1XGR B P 119;0.401713
1XGR B T 117;1XGR B G 144;10.7961
1XGR B T 117;1XGR B Y 145;7.97463
1XGR B T 117;1XGR B F 146;16.4178
1XGR B T 117;1XGR B L 174;17.9092
1XGR B T 117;1XGR B H 199;6.36243
1XGR B T 117;1XGR B S 202;1.92901
1XGR B A 118;1XGR B P 119;32.3509
1XGR B A 118;1XGR B S 120;2.43457
1XGR B A 118;1XGR B K 143;0.166305
1XGR B A 118;1XGR B G 144;4.87853
1XGR B A 118;1XGR B Y 145;1.37544
1XGR B A 118;1XGR B H 199;2.46924
1XGR B A 118;1XGR B S 202;14.2269
1XGR B A 118;1XGR B T 204;16.7291
1XGR B P 119;1XGR B S 120;26.6546
1XGR B P 119;1XGR B V 121;10.8299
1XGR B P 119;1XGR B V 142;11.0134
1XGR B P 119;1XGR B K 143;6.41524
1XGR B P 119;1XGR B G 144;2.4759
1XGR B P 119;1XGR B Y 145;17.9589
1XGR B P 119;1XGR B V 150;5.01264
1XGR B P 119;1XGR B V 197;8.26783
1XGR B P 119;1XGR B H 199;14.5364
1XGR B P 119;1XGR B S 202;0.226064
1XGR B P 119;1XGR B T 204;8.23882
1XGR B P 119;1XGR B V 206;7.67953
1XGR B S 120;1XGR B V 121;24.2949
1XGR B S 120;1XGR B Y 122;28.9923
1XGR B S 120;1XGR B L 141;2.57495
1XGR B S 120;1XGR B V 142;4.01604
1XGR B S 120;1XGR B K 143;24.6797
1XGR B V 121;1XGR B Y 122;28.2123
1XGR B V 121;1XGR B P 123;1.86182
1XGR B V 121;1XGR B C 140;11.05
1XGR B V 121;1XGR B L 141;4.20642
1XGR B V 121;1XGR B V 142;10.1256
1XGR B V 121;1XGR B C 195;3.83135
1XGR B V 121;1XGR B V 197;16.7642
1XGR B V 121;1XGR B V 206;22.0184
1XGR B V 121;1XGR B D 207;0.0179925
1XGR B V 121;1XGR B K 208;29.2975
1XGR B Y 122;1XGR B P 123;25.9357
1XGR B Y 122;1XGR B L 124;7.23271
1XGR B Y 122;1XGR B C 140;7.29404
1XGR B Y 122;1XGR B L 141;33.9083
1XGR B Y 122;1XGR B K 143;15.7667
1XGR B Y 122;1XGR B K 208;1.3227
1XGR B P 123;1XGR B L 124;25.6159
1XGR B P 123;1XGR B A 125;6.52912
1XGR B P 123;1XGR B G 139;1.61204
1XGR B P 123;1XGR B C 140;2.0392
1XGR B P 123;1XGR B K 208;19.1342
1XGR B P 123;1XGR B K 209;7.37106
1XGR B P 123;1XGR B I 210;20.5214
1XGR B L 124;1XGR B A 125;19.1515
1XGR B L 124;1XGR B L 138;5.19879
1XGR B L 124;1XGR B G 139;24.2635
1XGR B L 124;1XGR B C 140;9.91223
1XGR B L 124;1XGR B L 141;17.8302
1XGR B L 124;1XGR B S 178;3.23747
1XGR B L 124;1XGR B S 179;0.0728239
1XGR B L 124;1XGR B I 210;8.78148
1XGR B A 125;1XGR B P 126;31.8118
1XGR B A 125;1XGR B V 127;0.827481
1XGR B A 125;1XGR B G 129;2.49271
1XGR B A 125;1XGR B L 138;3.98019
1XGR B A 125;1XGR B W 188;8.19652
1XGR B A 125;1XGR B I 210;16.5754
1XGR B P 126;1XGR B V 127;26.3829
1XGR B P 126;1XGR B C 128;2.01277
1XGR B P 126;1XGR B G 129;17.9152
1XGR B P 126;1XGR B D 130;17.1625
1XGR B P 126;1XGR B T 131;5.44592
1XGR B P 126;1XGR B V 136;11.1525
1XGR B P 126;1XGR B T 137;3.19472
1XGR B P 126;1XGR B L 138;9.01759
1XGR B P 126;1XGR B W 188;11.3974
1XGR B V 127;1XGR B C 128;34.4195
1XGR B V 127;1XGR B G 129;2.47539
1XGR B V 127;1XGR B D 130;11.7898
1XGR B C 128;1XGR B G 129;26.7282
1XGR B C 128;1XGR B D 130;18.8831
1XGR B G 129;1XGR B D 130;27.6066
1XGR B G 129;1XGR B W 188;11.9386
1XGR B G 129;1XGR B P 189;0.242169
1XGR B D 130;1XGR B T 131;46.5777
1XGR B D 130;1XGR B T 132;10.5028
1XGR B D 130;1XGR B W 188;3.18945
1XGR B D 130;1XGR B P 189;1.15719
1XGR B T 131;1XGR B T 132;38.2466
1XGR B T 131;1XGR B G 133;4.4664
1XGR B T 131;1XGR B S 135;1.26675
1XGR B T 131;1XGR B V 136;18.9815
1XGR B T 131;1XGR B S 185;18.3346
1XGR B T 131;1XGR B W 188;10.3641
1XGR B T 131;1XGR B P 189;3.58311
1XGR B T 132;1XGR B G 133;42.3283
1XGR B T 132;1XGR B S 135;3.24805
1XGR B G 133;1XGR B S 134;25.7965
1XGR B G 133;1XGR B S 135;14.8218
1XGR B G 133;1XGR B S 185;9.13772
1XGR B S 134;1XGR B S 135;24.3943
1XGR B S 134;1XGR B T 184;10.5677
1XGR B S 134;1XGR B S 185;16.4346
1XGR B S 135;1XGR B V 136;28.0115
1XGR B S 135;1XGR B T 182;15.6917
1XGR B S 135;1XGR B V 183;7.13913
1XGR B S 135;1XGR B T 184;7.22938
1XGR B S 135;1XGR B S 185;9.03463
1XGR B V 136;1XGR B T 137;30.9565
1XGR B V 136;1XGR B L 138;14.9916
1XGR B V 136;1XGR B V 181;0.485595
1XGR B V 136;1XGR B T 182;8.57611
1XGR B V 136;1XGR B V 183;22.4989
1XGR B V 136;1XGR B T 184;4.75914
1XGR B V 136;1XGR B S 185;8.98468
1XGR B V 136;1XGR B W 188;18.2989
1XGR B T 137;1XGR B L 138;24.4867
1XGR B T 137;1XGR B S 180;7.54606
1XGR B T 137;1XGR B V 181;9.06365
1XGR B T 137;1XGR B T 182;18.6161
1XGR B L 138;1XGR B G 139;20.164
1XGR B L 138;1XGR B W 154;3.21527
1XGR B L 138;1XGR B S 180;5.04199
1XGR B L 138;1XGR B V 181;26.7298
1XGR B L 138;1XGR B V 183;7.58612
1XGR B L 138;1XGR B W 188;22.3114
1XGR B L 138;1XGR B I 193;12.2851
1XGR B L 138;1XGR B I 210;17.474
1XGR B G 139;1XGR B C 140;15.7904
1XGR B G 139;1XGR B W 154;10.6204
1XGR B G 139;1XGR B S 179;4.97176
1XGR B G 139;1XGR B S 180;1.59934
1XGR B G 139;1XGR B I 210;8.82753
1XGR B C 140;1XGR B L 141;18.7951
1XGR B C 140;1XGR B V 142;7.41175
1XGR B C 140;1XGR B L 152;9.09328
1XGR B C 140;1XGR B W 154;8.95965
1XGR B C 140;1XGR B L 177;0.643208
1XGR B C 140;1XGR B S 178;6.96865
1XGR B C 140;1XGR B S 179;16.4142
1XGR B C 140;1XGR B C 195;18.9592
1XGR B C 140;1XGR B V 197;1.61806
1XGR B C 140;1XGR B K 208;1.56512
1XGR B C 140;1XGR B I 210;1.78214
1XGR B L 141;1XGR B V 142;19.72
1XGR B L 141;1XGR B K 143;15.0262
1XGR B L 141;1XGR B T 176;14.8978
1XGR B L 141;1XGR B L 177;5.47141
1XGR B L 141;1XGR B S 178;12.5445
1XGR B V 142;1XGR B K 143;17.1244
1XGR B V 142;1XGR B Y 145;14.3369
1XGR B V 142;1XGR B V 150;9.53582
1XGR B V 142;1XGR B L 152;9.4934
1XGR B V 142;1XGR B Y 175;0.521084
1XGR B V 142;1XGR B T 176;6.674
1XGR B V 142;1XGR B L 177;27.3793
1XGR B V 142;1XGR B V 197;16.255
1XGR B K 143;1XGR B G 144;29.7235
1XGR B K 143;1XGR B Y 145;2.68587
1XGR B K 143;1XGR B Q 171;19.1393
1XGR B K 143;1XGR B Y 175;0.889078
1XGR B K 143;1XGR B T 176;15.6344
1XGR B G 144;1XGR B Y 145;17.5524
1XGR B G 144;1XGR B L 174;24.028
1XGR B G 144;1XGR B Y 175;7.43131
1XGR B G 144;1XGR B T 176;3.77563
1XGR B Y 145;1XGR B F 146;20.0759
1XGR B Y 145;1XGR B P 147;6.0752
1XGR B Y 145;1XGR B E 148;16.5218
1XGR B Y 145;1XGR B P 149;2.74414
1XGR B Y 145;1XGR B V 150;23.475
1XGR B Y 145;1XGR B A 168;7.52611
1XGR B Y 145;1XGR B L 174;6.86948
1XGR B Y 145;1XGR B Y 175;36.7427
1XGR B Y 145;1XGR B T 176;3.47432
1XGR B Y 145;1XGR B L 177;12.5325
1XGR B Y 145;1XGR B H 199;9.09654
1XGR B F 146;1XGR B P 147;40.526
1XGR B F 146;1XGR B L 170;1.76097
1XGR B F 146;1XGR B D 173;7.55277
1XGR B F 146;1XGR B L 174;11.2787
1XGR B F 146;1XGR B Y 175;19.9612
1XGR B F 146;1XGR B H 199;8.84903
1XGR B F 146;1XGR B A 201;0.0118087
1XGR B P 147;1XGR B E 148;36.7437
1XGR B P 147;1XGR B P 149;1.74728
1XGR B P 147;1XGR B Y 175;5.49001
1XGR B P 147;1XGR B H 199;10.8337
1XGR B P 147;1XGR B A 201;18.3498
1XGR B E 148;1XGR B P 149;45.197
1XGR B E 148;1XGR B V 150;2.6264
1XGR B E 148;1XGR B A 168;18.6933
1XGR B E 148;1XGR B Y 175;29.5216
1XGR B E 148;1XGR B L 177;2.83056
1XGR B E 148;1XGR B A 201;1.33756
1XGR B P 149;1XGR B V 150;31.5722
1XGR B P 149;1XGR B T 151;4.48072
1XGR B P 149;1XGR B H 199;8.54241
1XGR B P 149;1XGR B P 200;15.9657
1XGR B P 149;1XGR B A 201;0.445071
1XGR B V 150;1XGR B T 151;30.4086
1XGR B V 150;1XGR B L 152;5.71298
1XGR B V 150;1XGR B L 177;18.6013
1XGR B V 150;1XGR B V 197;11.4197
1XGR B V 150;1XGR B A 198;8.78872
1XGR B V 150;1XGR B H 199;11.9771
1XGR B V 150;1XGR B P 200;2.21743
1XGR B T 151;1XGR B L 152;26.5683
1XGR B T 151;1XGR B T 153;8.12298
1XGR B T 151;1XGR B N 196;3.42701
1XGR B T 151;1XGR B V 197;7.24249
1XGR B T 151;1XGR B A 198;27.9601
1XGR B T 151;1XGR B P 200;7.35666
1XGR B T 151;1XGR B K 205;2.33523
1XGR B L 152;1XGR B T 153;36.6343
1XGR B L 152;1XGR B W 154;12.9313
1XGR B L 152;1XGR B V 163;0.462747
1XGR B L 152;1XGR B T 165;18.3725
1XGR B L 152;1XGR B L 177;13.1516
1XGR B L 152;1XGR B S 179;16.0242
1XGR B L 152;1XGR B C 195;10.6104
1XGR B L 152;1XGR B N 196;6.79743
1XGR B L 152;1XGR B V 197;10.5818
1XGR B T 153;1XGR B W 154;27.2456
1XGR B T 153;1XGR B S 156;8.48015
1XGR B T 153;1XGR B G 157;14.5297
1XGR B T 153;1XGR B T 194;0.474603
1XGR B T 153;1XGR B C 195;4.26086
1XGR B T 153;1XGR B N 196;31.4271
1XGR B T 153;1XGR B K 205;1.52908
1XGR B W 154;1XGR B N 155;17.5949
1XGR B W 154;1XGR B S 156;1.60896
1XGR B W 154;1XGR B G 157;8.92796
1XGR B W 154;1XGR B S 158;1.65025
1XGR B W 154;1XGR B L 159;30.4111
1XGR B W 154;1XGR B V 163;18.3083
1XGR B W 154;1XGR B S 179;14.1365
1XGR B W 154;1XGR B S 180;4.082
1XGR B W 154;1XGR B V 181;24.8336
1XGR B W 154;1XGR B I 193;12.8111
1XGR B W 154;1XGR B T 194;9.69994
1XGR B W 154;1XGR B C 195;15.291
1XGR B W 154;1XGR B N 196;1.61428
1XGR B W 154;1XGR B I 210;10.5766
1XGR B N 155;1XGR B S 156;25.678
1XGR B N 155;1XGR B G 157;1.97942
1XGR B N 155;1XGR B S 158;22.2056
1XGR B N 155;1XGR B L 159;18.982
1XGR B N 155;1XGR B Q 191;12.606
1XGR B N 155;1XGR B S 192;11.4597
1XGR B N 155;1XGR B I 193;13.3817
1XGR B N 155;1XGR B T 194;25.5642
1XGR B N 155;1XGR B N 196;3.85854
1XGR B S 156;1XGR B G 157;21.5878
1XGR B S 156;1XGR B S 158;3.33387
1XGR B S 156;1XGR B N 196;21.8648
1XGR B S 156;1XGR B D 207;1.89588
1XGR B G 157;1XGR B S 158;22.3016
1XGR B G 157;1XGR B L 159;8.15355
1XGR B G 157;1XGR B S 160;12.8034
1XGR B S 158;1XGR B L 159;23.6343
1XGR B S 158;1XGR B S 160;6.51435
1XGR B L 159;1XGR B S 160;26.3971
1XGR B L 159;1XGR B S 161;10.4577
1XGR B L 159;1XGR B V 163;6.23952
1XGR B L 159;1XGR B V 181;14.9458
1XGR B L 159;1XGR B V 183;18.476
1XGR B L 159;1XGR B T 187;3.75519
1XGR B L 159;1XGR B Q 191;0.76118
1XGR B L 159;1XGR B I 193;17.7025
1XGR B S 160;1XGR B S 161;34.5826
1XGR B S 160;1XGR B G 162;0.172246
1XGR B S 160;1XGR B V 163;17.4986
1XGR B S 161;1XGR B G 162;26.9998
1XGR B S 161;1XGR B V 163;7.80415
1XGR B S 161;1XGR B V 181;5.04712
1XGR B S 161;1XGR B T 182;5.20863
1XGR B S 161;1XGR B V 183;0.398344
1XGR B G 162;1XGR B V 163;22.8598
1XGR B G 162;1XGR B H 164;6.4375
1XGR B G 162;1XGR B S 180;2.76239
1XGR B G 162;1XGR B V 181;6.22137
1XGR B G 162;1XGR B T 182;25.4908
1XGR B V 163;1XGR B H 164;34.8753
1XGR B V 163;1XGR B T 165;13.0892
1XGR B V 163;1XGR B S 179;4.78745
1XGR B V 163;1XGR B S 180;7.21745
1XGR B V 163;1XGR B V 181;11.358
1XGR B H 164;1XGR B T 165;22.1918
1XGR B H 164;1XGR B F 166;15.6818
1XGR B H 164;1XGR B S 178;0.0105013
1XGR B H 164;1XGR B S 179;6.04505
1XGR B H 164;1XGR B S 180;23.3128
1XGR B T 165;1XGR B F 166;26.9952
1XGR B T 165;1XGR B P 167;2.19686
1XGR B T 165;1XGR B L 177;16.5597
1XGR B T 165;1XGR B S 178;3.5342
1XGR B T 165;1XGR B S 179;13.7036
1XGR B F 166;1XGR B P 167;32.1268
1XGR B F 166;1XGR B A 168;1.10482
1XGR B F 166;1XGR B L 177;13.3172
1XGR B F 166;1XGR B S 178;21.9488
1XGR B F 166;1XGR B S 179;1.52061
1XGR B F 166;1XGR B S 180;4.72679
1XGR B P 167;1XGR B A 168;32.3873
1XGR B P 167;1XGR B V 169;5.29822
1XGR B P 167;1XGR B T 176;1.03969
1XGR B P 167;1XGR B L 177;3.27249
1XGR B P 167;1XGR B S 178;0.00290089
1XGR B A 168;1XGR B V 169;26.6632
1XGR B A 168;1XGR B Y 175;13.5952
1XGR B A 168;1XGR B T 176;9.08564
1XGR B A 168;1XGR B L 177;14.6141
1XGR B V 169;1XGR B L 170;28.869
1XGR B V 169;1XGR B Q 171;4.58455
1XGR B V 169;1XGR B L 174;0.938213
1XGR B V 169;1XGR B Y 175;8.51597
1XGR B V 169;1XGR B T 176;29.7737
1XGR B L 170;1XGR B Q 171;21.0591
1XGR B L 170;1XGR B S 172;2.46068
1XGR B L 170;1XGR B D 173;23.2538
1XGR B L 170;1XGR B L 174;10.5362
1XGR B L 170;1XGR B Y 175;29.428
1XGR B Q 171;1XGR B S 172;38.8236
1XGR B Q 171;1XGR B D 173;1.84963
1XGR B Q 171;1XGR B L 174;22.4566
1XGR B Q 171;1XGR B T 176;23.375
1XGR B S 172;1XGR B D 173;32.4562
1XGR B S 172;1XGR B L 174;12.6755
1XGR B D 173;1XGR B L 174;25.0201
1XGR B D 173;1XGR B Y 175;0.0981802
1XGR B L 174;1XGR B Y 175;22.1767
1XGR B L 174;1XGR B T 176;1.06139
1XGR B Y 175;1XGR B T 176;20.8312
1XGR B T 176;1XGR B L 177;24.3837
1XGR B T 176;1XGR B S 178;0.352665
1XGR B L 177;1XGR B S 178;32.7669
1XGR B L 177;1XGR B S 179;1.73884
1XGR B S 178;1XGR B S 179;18.2653
1XGR B S 179;1XGR B S 180;18.555
1XGR B S 180;1XGR B V 181;20.239
1XGR B S 180;1XGR B T 182;1.84899
1XGR B V 181;1XGR B T 182;22.6067
1XGR B V 181;1XGR B V 183;8.152
1XGR B V 181;1XGR B I 193;7.31748
1XGR B T 182;1XGR B V 183;33.1574
1XGR B V 183;1XGR B T 184;27.2158
1XGR B V 183;1XGR B T 187;18.5201
1XGR B V 183;1XGR B W 188;6.42206
1XGR B V 183;1XGR B I 193;11.7155
1XGR B T 184;1XGR B S 185;16.6433
1XGR B T 184;1XGR B S 186;19.3518
1XGR B T 184;1XGR B T 187;24.4077
1XGR B T 184;1XGR B W 188;3.17695
1XGR B S 185;1XGR B S 186;25.9598
1XGR B S 185;1XGR B T 187;2.09482
1XGR B S 185;1XGR B W 188;16.148
1XGR B S 185;1XGR B P 189;0.512018
1XGR B S 185;1XGR B S 190;1.25008
1XGR B S 186;1XGR B T 187;22.6952
1XGR B S 186;1XGR B W 188;0.648253
1XGR B S 186;1XGR B S 190;17.1499
1XGR B T 187;1XGR B W 188;20.2647
1XGR B T 187;1XGR B S 190;7.27634
1XGR B T 187;1XGR B Q 191;32.5162
1XGR B T 187;1XGR B I 193;8.51214
1XGR B W 188;1XGR B P 189;54.5669
1XGR B W 188;1XGR B S 190;5.30735
1XGR B W 188;1XGR B Q 191;8.8034
1XGR B W 188;1XGR B S 192;4.87361
1XGR B W 188;1XGR B I 193;20.5856
1XGR B W 188;1XGR B I 210;28.7288
1XGR B P 189;1XGR B S 190;29.7486
1XGR B P 189;1XGR B Q 191;7.049
1XGR B P 189;1XGR B S 192;4.93544
1XGR B S 190;1XGR B Q 191;25.2091
1XGR B S 190;1XGR B S 192;2.5058
1XGR B Q 191;1XGR B S 192;35.0021
1XGR B Q 191;1XGR B I 193;7.9266
1XGR B S 192;1XGR B I 193;25.0707
1XGR B S 192;1XGR B T 194;5.69113
1XGR B S 192;1XGR B K 209;24.9116
1XGR B S 192;1XGR B I 210;0.840113
1XGR B I 193;1XGR B T 194;22.7984
1XGR B I 193;1XGR B K 208;0.0834681
1XGR B I 193;1XGR B K 209;6.13077
1XGR B I 193;1XGR B I 210;22.7794
1XGR B T 194;1XGR B C 195;20.5918
1XGR B T 194;1XGR B N 196;12.8239
1XGR B T 194;1XGR B D 207;13.1795
1XGR B T 194;1XGR B K 208;10.5246
1XGR B T 194;1XGR B K 209;18.6001
1XGR B T 194;1XGR B I 210;1.1654
1XGR B C 195;1XGR B N 196;20.3343
1XGR B C 195;1XGR B V 197;8.51186
1XGR B C 195;1XGR B V 206;2.24071
1XGR B C 195;1XGR B D 207;4.28583
1XGR B C 195;1XGR B K 208;19.9266
1XGR B C 195;1XGR B I 210;6.21548
1XGR B N 196;1XGR B V 197;20.7515
1XGR B N 196;1XGR B A 198;0.00396616
1XGR B N 196;1XGR B K 205;13.8962
1XGR B N 196;1XGR B V 206;3.10288
1XGR B N 196;1XGR B D 207;22.5232
1XGR B V 197;1XGR B A 198;22.5227
1XGR B V 197;1XGR B H 199;1.18707
1XGR B V 197;1XGR B T 204;0.427467
1XGR B V 197;1XGR B K 205;12.6552
1XGR B V 197;1XGR B V 206;23.9449
1XGR B A 198;1XGR B H 199;18.6163
1XGR B A 198;1XGR B P 200;14.145
1XGR B A 198;1XGR B T 204;5.81277
1XGR B A 198;1XGR B K 205;23.2743
1XGR B H 199;1XGR B P 200;22.8613
1XGR B H 199;1XGR B A 201;13.7414
1XGR B H 199;1XGR B S 202;18.4533
1XGR B H 199;1XGR B S 203;3.15219
1XGR B H 199;1XGR B T 204;24.9814
1XGR B P 200;1XGR B A 201;29.2263
1XGR B P 200;1XGR B S 202;1.33416
1XGR B P 200;1XGR B S 203;17.0741
1XGR B P 200;1XGR B T 204;0.983659
1XGR B A 201;1XGR B S 202;19.2368
1XGR B A 201;1XGR B S 203;4.83302
1XGR B S 202;1XGR B S 203;25.6039
1XGR B S 202;1XGR B T 204;20.9184
1XGR B S 203;1XGR B T 204;27.5926
1XGR B S 203;1XGR B K 205;0.274075
1XGR B T 204;1XGR B K 205;31.2705
1XGR B T 204;1XGR B V 206;8.72445
1XGR B K 205;1XGR B V 206;35.5089
1XGR B K 205;1XGR B D 207;7.65268
1XGR B V 206;1XGR B D 207;35.529
1XGR B V 206;1XGR B K 208;1.00302
1XGR B D 207;1XGR B K 208;28.2068
1XGR B D 207;1XGR B K 209;1.61201
1XGR B K 208;1XGR B K 209;30.2427
1XGR B K 208;1XGR B I 210;8.89061
1XGR B K 209;1XGR B I 210;35.301
