V1;V2;Weight
1XGT A M 0;1XGT A D 1;41.322
1XGT A M 0;1XGT A I 2;4.83569
1XGT A M 0;1XGT A V 3;7.44045
1XGT A M 0;1XGT A S 26;5.48858
1XGT A M 0;1XGT A Q 27;24.4061
1XGT A D 1;1XGT A I 2;25.4033
1XGT A D 1;1XGT A V 3;12.3478
1XGT A D 1;1XGT A S 26;1.8251
1XGT A D 1;1XGT A Q 27;1.83616
1XGT A D 1;1XGT A P 95;23.3377
1XGT A D 1;1XGT A T 97;9.90454
1XGT A D 1;1XGT B H 60;8.57141
1XGT A D 1;1XGT B P 61;11.8748
1XGT A D 1;1XGT B S 62;4.52293
1XGT A I 2;1XGT A V 3;26.0784
1XGT A I 2;1XGT A L 4;9.3084
1XGT A I 2;1XGT A A 25;5.57592
1XGT A I 2;1XGT A S 26;9.1155
1XGT A I 2;1XGT A Q 27;28.648
1XGT A I 2;1XGT A S 28;1.73802
1XGT A I 2;1XGT A I 29;15.4279
1XGT A I 2;1XGT A Q 90;20.7642
1XGT A I 2;1XGT A N 92;2.49055
1XGT A I 2;1XGT A S 93;19.1515
1XGT A I 2;1XGT A P 95;1.67809
1XGT A I 2;1XGT A T 97;22.4072
1XGT A V 3;1XGT A L 4;31.0292
1XGT A V 3;1XGT A T 5;14.0404
1XGT A V 3;1XGT A R 24;3.00795
1XGT A V 3;1XGT A A 25;3.0069
1XGT A V 3;1XGT A S 26;28.5133
1XGT A V 3;1XGT A T 97;0.0754958
1XGT A L 4;1XGT A T 5;22.5967
1XGT A L 4;1XGT A Q 6;1.39658
1XGT A L 4;1XGT A C 23;10.6554
1XGT A L 4;1XGT A R 24;6.84096
1XGT A L 4;1XGT A A 25;12.0845
1XGT A L 4;1XGT A I 29;5.3429
1XGT A L 4;1XGT A L 33;8.87669
1XGT A L 4;1XGT A F 71;0.233229
1XGT A L 4;1XGT A C 88;10.6182
1XGT A L 4;1XGT A Q 89;4.70689
1XGT A L 4;1XGT A Q 90;12.8481
1XGT A L 4;1XGT A T 97;12.5887
1XGT A L 4;1XGT A F 98;11.176
1XGT A L 4;1XGT A G 99;17.043
1XGT A L 4;1XGT A G 100;6.096
1XGT A T 5;1XGT A Q 6;32.7685
1XGT A T 5;1XGT A S 7;7.10019
1XGT A T 5;1XGT A S 22;2.66653
1XGT A T 5;1XGT A C 23;5.59349
1XGT A T 5;1XGT A R 24;30.928
1XGT A T 5;1XGT A C 88;0.000932309
1XGT A T 5;1XGT A G 100;0.300999
1XGT A Q 6;1XGT A S 7;24.3569
1XGT A Q 6;1XGT A P 8;0.942094
1XGT A Q 6;1XGT A A 9;7.14323
1XGT A Q 6;1XGT A L 21;1.04265
1XGT A Q 6;1XGT A S 22;10.7408
1XGT A Q 6;1XGT A C 23;6.2074
1XGT A Q 6;1XGT A W 35;10.2609
1XGT A Q 6;1XGT A Y 86;6.89116
1XGT A Q 6;1XGT A F 87;7.70418
1XGT A Q 6;1XGT A C 88;16.581
1XGT A Q 6;1XGT A G 99;11.2395
1XGT A Q 6;1XGT A G 100;8.2062
1XGT A Q 6;1XGT A G 101;21.2782
1XGT A Q 6;1XGT A T 102;14.6071
1XGT A S 7;1XGT A P 8;36.5716
1XGT A S 7;1XGT A A 9;1.66692
1XGT A S 7;1XGT A S 20;0.319851
1XGT A S 7;1XGT A L 21;2.49165
1XGT A S 7;1XGT A S 22;31.6629
1XGT A S 7;1XGT A R 24;8.52439
1XGT A S 7;1XGT A T 102;6.62243
1XGT A P 8;1XGT A A 9;24.0905
1XGT A P 8;1XGT A T 10;18.0737
1XGT A P 8;1XGT A L 11;20.5736
1XGT A P 8;1XGT A S 20;4.29879
1XGT A P 8;1XGT A L 21;4.11717
1XGT A P 8;1XGT A G 101;0.0495223
1XGT A P 8;1XGT A T 102;17.352
1XGT A A 9;1XGT A T 10;28.4334
1XGT A A 9;1XGT A M 85;0.614
1XGT A A 9;1XGT A G 101;12.6581
1XGT A A 9;1XGT A T 102;6.02973
1XGT A A 9;1XGT A K 103;10.3322
1XGT A T 10;1XGT A L 11;28.6247
1XGT A T 10;1XGT A S 12;4.47907
1XGT A T 10;1XGT A T 102;3.11625
1XGT A T 10;1XGT A K 103;18.0582
1XGT A T 10;1XGT A E 105;11.7516
1XGT A L 11;1XGT A S 12;31.5733
1XGT A L 11;1XGT A V 13;15.5774
1XGT A L 11;1XGT A V 19;17.858
1XGT A L 11;1XGT A S 20;5.49682
1XGT A L 11;1XGT A L 21;9.53145
1XGT A L 11;1XGT A T 102;7.52107
1XGT A L 11;1XGT A K 103;9.82453
1XGT A L 11;1XGT A L 104;14.5941
1XGT A L 11;1XGT A E 105;8.50435
1XGT A S 12;1XGT A V 13;22.4123
1XGT A S 12;1XGT A E 105;17.1471
1XGT A S 12;1XGT A I 106;3.56669
1XGT A S 12;1XGT A K 107;18.9774
1XGT A S 12;1XGT A Y 140;15.3879
1XGT A S 12;1XGT A Y 173;2.21898
1XGT A V 13;1XGT A T 14;28.1589
1XGT A V 13;1XGT A P 15;2.54069
1XGT A V 13;1XGT A D 17;11.4336
1XGT A V 13;1XGT A S 18;2.55993
1XGT A V 13;1XGT A V 19;10.9647
1XGT A V 13;1XGT A V 78;13.3824
1XGT A V 13;1XGT A F 83;13.7014
1XGT A V 13;1XGT A L 104;13.2502
1XGT A V 13;1XGT A E 105;6.34753
1XGT A V 13;1XGT A I 106;4.11697
1XGT A V 13;1XGT A K 107;16.0241
1XGT A T 14;1XGT A P 15;41.6426
1XGT A T 14;1XGT A G 16;0.866123
1XGT A T 14;1XGT A D 17;29.5264
1XGT A T 14;1XGT A V 78;1.35382
1XGT A T 14;1XGT A F 83;0.221864
1XGT A T 14;1XGT A I 106;0.0548925
1XGT A T 14;1XGT A K 107;22.3251
1XGT A P 15;1XGT A G 16;23.359
1XGT A P 15;1XGT A D 17;2.99386
1XGT A P 15;1XGT A V 78;9.85746
1XGT A P 15;1XGT A E 79;7.08576
1XGT A P 15;1XGT A T 80;16.5078
1XGT A P 15;1XGT A F 83;15.8345
1XGT A P 15;1XGT A I 106;14.6737
1XGT A P 15;1XGT A K 107;1.34402
1XGT A G 16;1XGT A D 17;26.5775
1XGT A G 16;1XGT A S 18;1.59125
1XGT A G 16;1XGT A S 77;24.8113
1XGT A G 16;1XGT A V 78;10.9281
1XGT A G 16;1XGT A E 79;3.30815
1XGT A D 17;1XGT A S 18;31.0844
1XGT A D 17;1XGT A S 77;5.18568
1XGT A D 17;1XGT A V 78;13.49
1XGT A S 18;1XGT A V 19;30.9471
1XGT A S 18;1XGT A I 75;7.46732
1XGT A S 18;1XGT A N 76;13.0794
1XGT A S 18;1XGT A S 77;11.3788
1XGT A S 18;1XGT A V 78;1.86064
1XGT A V 19;1XGT A S 20;33.8132
1XGT A V 19;1XGT A L 21;12.6618
1XGT A V 19;1XGT A L 73;1.33343
1XGT A V 19;1XGT A S 74;7.20936
1XGT A V 19;1XGT A I 75;25.9615
1XGT A V 19;1XGT A V 78;11.7192
1XGT A V 19;1XGT A L 104;10.9085
1XGT A S 20;1XGT A L 21;24.5598
1XGT A S 20;1XGT A S 22;1.6868
1XGT A S 20;1XGT A T 72;14.9046
1XGT A S 20;1XGT A L 73;4.41611
1XGT A S 20;1XGT A S 74;10.5946
1XGT A L 21;1XGT A S 22;24.7315
1XGT A L 21;1XGT A C 23;0.0309981
1XGT A L 21;1XGT A W 35;15.3229
1XGT A L 21;1XGT A F 71;0.520569
1XGT A L 21;1XGT A T 72;11.6634
1XGT A L 21;1XGT A L 73;28.4462
1XGT A L 21;1XGT A I 75;6.79093
1XGT A L 21;1XGT A Y 86;17.4101
1XGT A L 21;1XGT A T 102;23.3304
1XGT A L 21;1XGT A L 104;9.73398
1XGT A S 22;1XGT A C 23;21.7594
1XGT A S 22;1XGT A R 24;19.547
1XGT A S 22;1XGT A W 35;4.73485
1XGT A S 22;1XGT A D 70;2.88447
1XGT A S 22;1XGT A F 71;7.87351
1XGT A S 22;1XGT A T 72;5.05869
1XGT A S 22;1XGT A T 102;1.70795
1XGT A C 23;1XGT A R 24;24.7339
1XGT A C 23;1XGT A A 25;0.244124
1XGT A C 23;1XGT A L 33;9.9406
1XGT A C 23;1XGT A W 35;12.0026
1XGT A C 23;1XGT A T 69;1.32853
1XGT A C 23;1XGT A D 70;1.96277
1XGT A C 23;1XGT A F 71;27.1822
1XGT A C 23;1XGT A C 88;17.0476
1XGT A R 24;1XGT A A 25;25.7836
1XGT A R 24;1XGT A S 26;0.332703
1XGT A R 24;1XGT A T 69;15.7538
1XGT A R 24;1XGT A D 70;27.397
1XGT A R 24;1XGT A F 71;0.0712742
1XGT A A 25;1XGT A S 26;22.8546
1XGT A A 25;1XGT A Q 27;11.8913
1XGT A A 25;1XGT A I 29;11.6795
1XGT A A 25;1XGT A G 68;0.741158
1XGT A A 25;1XGT A T 69;24.1036
1XGT A A 25;1XGT A F 71;5.344
1XGT A S 26;1XGT A Q 27;37.7458
1XGT A S 26;1XGT A T 69;1.02912
1XGT A Q 27;1XGT A S 28;28.6007
1XGT A Q 27;1XGT A I 29;6.84847
1XGT A Q 27;1XGT A G 68;1.06528
1XGT A Q 27;1XGT A T 69;9.0748
1XGT A Q 27;1XGT A S 93;0.409457
1XGT A S 28;1XGT A I 29;22.8021
1XGT A S 28;1XGT A S 30;10.3288
1XGT A S 28;1XGT A G 68;14.405
1XGT A S 28;1XGT A T 69;13.8522
1XGT A S 28;1XGT A N 92;5.03217
1XGT A I 29;1XGT A S 30;22.6612
1XGT A I 29;1XGT A N 31;1.15441
1XGT A I 29;1XGT A N 32;18.6588
1XGT A I 29;1XGT A L 33;11.6757
1XGT A I 29;1XGT A G 68;10.0657
1XGT A I 29;1XGT A F 71;13.6022
1XGT A I 29;1XGT A Q 90;14.4549
1XGT A I 29;1XGT A N 92;22.6665
1XGT A S 30;1XGT A N 31;22.7275
1XGT A S 30;1XGT A N 32;4.44815
1XGT A S 30;1XGT A S 67;12.5187
1XGT A S 30;1XGT A G 68;14.819
1XGT A S 30;1XGT A F 71;8.08243
1XGT A S 30;1XGT A N 92;4.53702
1XGT A N 31;1XGT A N 32;21.5989
1XGT A N 31;1XGT A L 33;5.81603
1XGT A N 31;1XGT A Y 50;28.3346
1XGT A N 31;1XGT A A 51;15.2304
1XGT A N 31;1XGT A Q 53;5.13961
1XGT A N 31;1XGT A G 66;1.31163
1XGT A N 31;1XGT A S 67;3.96381
1XGT A N 31;1XGT A F 71;3.59704
1XGT A N 32;1XGT A L 33;17.4138
1XGT A N 32;1XGT A H 34;6.26749
1XGT A N 32;1XGT A Y 50;12.1816
1XGT A N 32;1XGT A F 71;0.702229
1XGT A N 32;1XGT A Q 89;0.173858
1XGT A N 32;1XGT A Q 90;7.27575
1XGT A N 32;1XGT A S 91;12.8217
1XGT A N 32;1XGT A N 92;19.6875
1XGT A L 33;1XGT A H 34;29.0774
1XGT A L 33;1XGT A W 35;15.9414
1XGT A L 33;1XGT A I 48;0.743229
1XGT A L 33;1XGT A K 49;0.643729
1XGT A L 33;1XGT A Y 50;5.55626
1XGT A L 33;1XGT A A 51;16.658
1XGT A L 33;1XGT A F 71;26.5433
1XGT A L 33;1XGT A C 88;9.2414
1XGT A L 33;1XGT A Q 89;10.3358
1XGT A L 33;1XGT A Q 90;4.85913
1XGT A H 34;1XGT A W 35;20.984
1XGT A H 34;1XGT A Y 36;12.3698
1XGT A H 34;1XGT A L 46;9.73255
1XGT A H 34;1XGT A I 48;5.34139
1XGT A H 34;1XGT A K 49;12.5846
1XGT A H 34;1XGT A Y 50;24.0194
1XGT A H 34;1XGT A F 87;0.695723
1XGT A H 34;1XGT A C 88;6.2606
1XGT A H 34;1XGT A Q 89;32.2279
1XGT A H 34;1XGT A Q 90;0.782103
1XGT A H 34;1XGT A S 91;17.3477
1XGT A W 35;1XGT A Y 36;23.7341
1XGT A W 35;1XGT A L 46;7.81854
1XGT A W 35;1XGT A L 47;14.1472
1XGT A W 35;1XGT A I 48;26.6367
1XGT A W 35;1XGT A A 51;7.83167
1XGT A W 35;1XGT A G 64;4.00477
1XGT A W 35;1XGT A S 65;0.93699
1XGT A W 35;1XGT A F 71;9.36628
1XGT A W 35;1XGT A T 72;9.72579
1XGT A W 35;1XGT A L 73;36.5343
1XGT A W 35;1XGT A Y 86;6.76
1XGT A W 35;1XGT A F 87;10.3359
1XGT A W 35;1XGT A C 88;12.8567
1XGT A Y 36;1XGT A Q 37;20.2084
1XGT A Y 36;1XGT A Q 38;0.166741
1XGT A Y 36;1XGT A P 44;14.432
1XGT A Y 36;1XGT A R 45;11.0801
1XGT A Y 36;1XGT A L 46;25.5046
1XGT A Y 36;1XGT A L 47;6.05557
1XGT A Y 36;1XGT A L 73;0.455113
1XGT A Y 36;1XGT A M 85;0.118709
1XGT A Y 36;1XGT A Y 86;9.78234
1XGT A Y 36;1XGT A F 87;31.4264
1XGT A Y 36;1XGT A C 88;0.669698
1XGT A Y 36;1XGT A Q 89;22.258
1XGT A Y 36;1XGT A F 98;11.1541
1XGT A Y 36;1XGT B I 37;0.0632126
1XGT A Y 36;1XGT B L 45;1.13556
1XGT A Y 36;1XGT B W 98;1.10447
1XGT A Y 36;1XGT B G 99;3.29378
1XGT A Y 36;1XGT B G 100;15.1824
1XGT A Y 36;1XGT B W 103;21.474
1XGT A Q 37;1XGT A Q 38;25.2882
1XGT A Q 37;1XGT A K 39;22.086
1XGT A Q 37;1XGT A S 43;1.14338
1XGT A Q 37;1XGT A P 44;5.12231
1XGT A Q 37;1XGT A R 45;43.251
1XGT A Q 37;1XGT A L 47;18.4341
1XGT A Q 37;1XGT A F 62;7.57757
1XGT A Q 37;1XGT A E 81;3.00678
1XGT A Q 37;1XGT A D 82;11.2315
1XGT A Q 37;1XGT A F 83;0.346247
1XGT A Q 37;1XGT A G 84;1.77574
1XGT A Q 37;1XGT A M 85;7.92165
1XGT A Q 37;1XGT A Y 86;21.183
1XGT A Q 37;1XGT A F 87;0.638355
1XGT A Q 38;1XGT A K 39;32.546
1XGT A Q 38;1XGT A S 40;1.29569
1XGT A Q 38;1XGT A E 42;13.3177
1XGT A Q 38;1XGT A S 43;8.53654
1XGT A Q 38;1XGT A P 44;24.2462
1XGT A Q 38;1XGT A G 84;2.68732
1XGT A Q 38;1XGT A M 85;28.4515
1XGT A Q 38;1XGT A F 87;17.6193
1XGT A Q 38;1XGT B K 39;19.4616
1XGT A Q 38;1XGT B N 43;1.93616
1XGT A Q 38;1XGT B L 45;2.75806
1XGT A Q 38;1XGT B Y 94;11.4429
1XGT A K 39;1XGT A S 40;31.0342
1XGT A K 39;1XGT A H 41;1.95904
1XGT A K 39;1XGT A E 42;45.6587
1XGT A K 39;1XGT A S 43;1.40422
1XGT A K 39;1XGT A R 45;4.24984
1XGT A K 39;1XGT A E 81;31.3506
1XGT A K 39;1XGT A D 82;1.22848
1XGT A K 39;1XGT A F 83;15.8003
1XGT A K 39;1XGT A G 84;6.71826
1XGT A S 40;1XGT A H 41;39.3133
1XGT A S 40;1XGT A E 42;12.128
1XGT A S 40;1XGT A F 83;0.141843
1XGT A S 40;1XGT A G 84;3.00883
1XGT A S 40;1XGT A D 165;14.3855
1XGT A H 41;1XGT A E 42;31.7393
1XGT A H 41;1XGT A D 165;11.7394
1XGT A E 42;1XGT A S 43;34.0141
1XGT A E 42;1XGT B Y 94;3.39646
1XGT A E 42;1XGT B A 105;0.861509
1XGT A S 43;1XGT A P 44;31.4574
1XGT A S 43;1XGT A R 45;5.63246
1XGT A S 43;1XGT B Y 94;10.1227
1XGT A S 43;1XGT B W 103;14.8699
1XGT A S 43;1XGT B G 104;8.80127
1XGT A S 43;1XGT B A 105;11.2756
1XGT A P 44;1XGT A R 45;22.2665
1XGT A P 44;1XGT A F 87;1.91537
1XGT A P 44;1XGT B K 39;0.00801473
1XGT A P 44;1XGT B L 45;12.4449
1XGT A P 44;1XGT B Y 94;11.7001
1XGT A P 44;1XGT B W 103;37.6884
1XGT A R 45;1XGT A L 46;27.576
1XGT A R 45;1XGT A L 47;19.7806
1XGT A R 45;1XGT A G 57;2.92599
1XGT A R 45;1XGT A I 58;17.9861
1XGT A R 45;1XGT A P 59;14.0429
1XGT A R 45;1XGT A R 61;0.920403
1XGT A R 45;1XGT A F 62;5.20448
1XGT A R 45;1XGT A E 81;3.84485
1XGT A R 45;1XGT A D 82;1.76677
1XGT A R 45;1XGT B W 103;2.00679
1XGT A L 46;1XGT A L 47;19.5458
1XGT A L 46;1XGT A I 48;8.73564
1XGT A L 46;1XGT A K 49;14.8576
1XGT A L 46;1XGT A I 55;24.2195
1XGT A L 46;1XGT A I 58;10.0007
1XGT A L 46;1XGT B G 99;14.0634
1XGT A L 46;1XGT B G 100;13.9662
1XGT A L 46;1XGT B D 101;11.5573
1XGT A L 46;1XGT B W 103;1.17134
1XGT A L 47;1XGT A I 48;30.0919
1XGT A L 47;1XGT A Q 53;0.0208929
1XGT A L 47;1XGT A S 54;0.0322587
1XGT A L 47;1XGT A I 55;11.4551
1XGT A L 47;1XGT A I 58;27.4761
1XGT A L 47;1XGT A P 59;0.402886
1XGT A L 47;1XGT A F 62;23.2201
1XGT A L 47;1XGT A L 73;10.3356
1XGT A L 47;1XGT A Y 86;9.59434
1XGT A I 48;1XGT A K 49;21.9336
1XGT A I 48;1XGT A A 51;9.48325
1XGT A I 48;1XGT A S 52;9.93614
1XGT A I 48;1XGT A Q 53;11.5814
1XGT A I 48;1XGT A S 54;11.3234
1XGT A I 48;1XGT A I 55;4.33687
1XGT A I 48;1XGT A I 58;1.3427
1XGT A I 48;1XGT A F 62;13.9601
1XGT A I 48;1XGT A S 63;9.61225
1XGT A I 48;1XGT A G 64;11.9016
1XGT A I 48;1XGT A L 73;9.59011
1XGT A K 49;1XGT A Y 50;34.891
1XGT A K 49;1XGT A A 51;2.34787
1XGT A K 49;1XGT A S 52;1.00558
1XGT A K 49;1XGT A Q 53;34.9849
1XGT A K 49;1XGT A S 54;6.52909
1XGT A K 49;1XGT A I 55;24.5487
1XGT A Y 50;1XGT A A 51;15.4793
1XGT A Y 50;1XGT A S 52;9.8424
1XGT A Y 50;1XGT A Q 53;21.4541
1XGT A Y 50;1XGT A S 91;7.3649
1XGT A Y 50;1XGT B W 98;13.885
1XGT A A 51;1XGT A S 52;20.2586
1XGT A A 51;1XGT A G 64;7.67773
1XGT A A 51;1XGT A S 65;10.5419
1XGT A A 51;1XGT A G 66;10.8243
1XGT A A 51;1XGT A S 67;0.0134472
1XGT A A 51;1XGT A F 71;12.5781
1XGT A S 52;1XGT A Q 53;26.8535
1XGT A S 52;1XGT A S 54;9.064
1XGT A S 52;1XGT A G 64;19.3282
1XGT A S 52;1XGT A S 65;6.23243
1XGT A S 52;1XGT A G 66;1.00797
1XGT A Q 53;1XGT A S 54;27.5439
1XGT A Q 53;1XGT A I 55;3.27851
1XGT A S 54;1XGT A I 55;32.4001
1XGT A S 54;1XGT A S 56;4.329
1XGT A S 54;1XGT A F 62;2.19868
1XGT A I 55;1XGT A S 56;36.0231
1XGT A I 55;1XGT A G 57;2.15388
1XGT A I 55;1XGT A I 58;32.5465
1XGT A I 55;1XGT B D 101;2.41302
1XGT A S 56;1XGT A G 57;30.9217
1XGT A S 56;1XGT A I 58;1.93749
1XGT A G 57;1XGT A I 58;31.3947
1XGT A G 57;1XGT A P 59;7.48298
1XGT A I 58;1XGT A P 59;37.7659
1XGT A I 58;1XGT A S 60;6.31618
1XGT A I 58;1XGT A F 62;12.735
1XGT A P 59;1XGT A S 60;23.3964
1XGT A P 59;1XGT A R 61;31.6168
1XGT A P 59;1XGT A F 62;26.1609
1XGT A S 60;1XGT A R 61;27.7057
1XGT A S 60;1XGT A F 62;11.7253
1XGT A S 60;1XGT A S 63;3.76014
1XGT A S 60;1XGT A N 76;0.531496
1XGT A R 61;1XGT A F 62;33.5224
1XGT A R 61;1XGT A S 63;4.26358
1XGT A R 61;1XGT A S 74;3.79338
1XGT A R 61;1XGT A I 75;14.3939
1XGT A R 61;1XGT A N 76;33.1285
1XGT A R 61;1XGT A S 77;6.70592
1XGT A R 61;1XGT A V 78;0.363779
1XGT A R 61;1XGT A E 79;20.3709
1XGT A R 61;1XGT A E 81;16.4543
1XGT A R 61;1XGT A D 82;17.1514
1XGT A F 62;1XGT A S 63;23.4494
1XGT A F 62;1XGT A L 73;9.52063
1XGT A F 62;1XGT A S 74;4.59233
1XGT A F 62;1XGT A I 75;21.1212
1XGT A F 62;1XGT A D 82;11.9667
1XGT A F 62;1XGT A Y 86;8.93246
1XGT A S 63;1XGT A G 64;27.4935
1XGT A S 63;1XGT A T 72;0.536325
1XGT A S 63;1XGT A L 73;9.93698
1XGT A S 63;1XGT A S 74;30.3398
1XGT A G 64;1XGT A S 65;24.3541
1XGT A G 64;1XGT A T 72;6.04595
1XGT A G 64;1XGT A L 73;3.63136
1XGT A G 64;1XGT A S 74;0.254737
1XGT A S 65;1XGT A G 66;30.3832
1XGT A S 65;1XGT A F 71;8.45877
1XGT A S 65;1XGT A T 72;30.6739
1XGT A S 65;1XGT A S 74;3.87549
1XGT A G 66;1XGT A S 67;28.2214
1XGT A G 66;1XGT A D 70;9.10543
1XGT A G 66;1XGT A F 71;9.70215
1XGT A G 66;1XGT A T 72;0.754338
1XGT A S 67;1XGT A G 68;23.2603
1XGT A S 67;1XGT A T 69;5.25923
1XGT A S 67;1XGT A D 70;15.662
1XGT A S 67;1XGT A F 71;8.72448
1XGT A G 68;1XGT A T 69;20.6573
1XGT A G 68;1XGT A F 71;8.15452
1XGT A T 69;1XGT A D 70;25.7641
1XGT A T 69;1XGT A F 71;8.47445
1XGT A D 70;1XGT A F 71;31.2238
1XGT A D 70;1XGT A T 72;7.84347
1XGT A F 71;1XGT A T 72;25.4351
1XGT A T 72;1XGT A L 73;20.3298
1XGT A T 72;1XGT A S 74;12.5725
1XGT A L 73;1XGT A S 74;23.3834
1XGT A L 73;1XGT A I 75;10.3466
1XGT A L 73;1XGT A Y 86;13.487
1XGT A S 74;1XGT A I 75;22.9307
1XGT A S 74;1XGT A N 76;2.76038
1XGT A I 75;1XGT A N 76;19.9425
1XGT A I 75;1XGT A S 77;4.88279
1XGT A I 75;1XGT A V 78;18.8867
1XGT A I 75;1XGT A D 82;8.24007
1XGT A I 75;1XGT A Y 86;10.7544
1XGT A I 75;1XGT A L 104;9.86709
1XGT A N 76;1XGT A S 77;34.4984
1XGT A S 77;1XGT A V 78;19.3121
1XGT A S 77;1XGT A E 79;17.8997
1XGT A V 78;1XGT A E 79;27.0598
1XGT A V 78;1XGT A D 82;11.6158
1XGT A V 78;1XGT A F 83;12.0905
1XGT A V 78;1XGT A L 104;12.3477
1XGT A E 79;1XGT A T 80;23.2418
1XGT A E 79;1XGT A E 81;16.2224
1XGT A E 79;1XGT A D 82;19.7071
1XGT A E 79;1XGT A F 83;6.46735
1XGT A T 80;1XGT A E 81;37.6797
1XGT A T 80;1XGT A D 82;2.05009
1XGT A T 80;1XGT A F 83;17.5116
1XGT A T 80;1XGT A I 106;9.06698
1XGT A E 81;1XGT A D 82;25.3362
1XGT A E 81;1XGT A F 83;4.46783
1XGT A D 82;1XGT A F 83;23.3526
1XGT A D 82;1XGT A G 84;1.01673
1XGT A D 82;1XGT A Y 86;14.9664
1XGT A D 82;1XGT A L 104;7.17284
1XGT A F 83;1XGT A G 84;24.0298
1XGT A F 83;1XGT A L 104;22.5386
1XGT A F 83;1XGT A E 105;12.9584
1XGT A F 83;1XGT A I 106;29.7741
1XGT A F 83;1XGT A Q 166;0.805548
1XGT A G 84;1XGT A M 85;20.7156
1XGT A G 84;1XGT A Y 86;9.604
1XGT A G 84;1XGT A T 102;1.07083
1XGT A G 84;1XGT A K 103;16.1788
1XGT A G 84;1XGT A L 104;17.7684
1XGT A M 85;1XGT A Y 86;24.8457
1XGT A M 85;1XGT A F 87;20.6745
1XGT A M 85;1XGT A G 100;3.9504
1XGT A M 85;1XGT A G 101;9.44929
1XGT A M 85;1XGT A T 102;9.40208
1XGT A M 85;1XGT A K 103;32.2585
1XGT A M 85;1XGT B N 43;27.1262
1XGT A Y 86;1XGT A F 87;20.7264
1XGT A Y 86;1XGT A G 101;4.93378
1XGT A Y 86;1XGT A T 102;20.8572
1XGT A Y 86;1XGT A L 104;16.801
1XGT A F 87;1XGT A C 88;21.5379
1XGT A F 87;1XGT A F 98;9.03006
1XGT A F 87;1XGT A G 99;9.68079
1XGT A F 87;1XGT A G 100;5.20917
1XGT A F 87;1XGT A G 101;10.2022
1XGT A F 87;1XGT B K 39;4.07156
1XGT A F 87;1XGT B N 43;20.8731
1XGT A F 87;1XGT B L 45;27.396
1XGT A C 88;1XGT A Q 89;17.4256
1XGT A C 88;1XGT A F 98;7.91898
1XGT A C 88;1XGT A G 99;11.1805
1XGT A Q 89;1XGT A Q 90;23.6626
1XGT A Q 89;1XGT A S 91;7.14342
1XGT A Q 89;1XGT A Y 96;13.4589
1XGT A Q 89;1XGT A T 97;10.1789
1XGT A Q 89;1XGT A F 98;25.4526
1XGT A Q 89;1XGT B I 37;0.540723
1XGT A Q 89;1XGT B Y 47;13.3916
1XGT A Q 90;1XGT A S 91;17.8012
1XGT A Q 90;1XGT A N 92;8.55289
1XGT A Q 90;1XGT A S 93;13.6217
1XGT A Q 90;1XGT A P 95;6.10762
1XGT A Q 90;1XGT A Y 96;10.956
1XGT A Q 90;1XGT A T 97;22.7106
1XGT A S 91;1XGT A N 92;18.4884
1XGT A S 91;1XGT A S 93;3.24613
1XGT A S 91;1XGT A Y 96;25.6509
1XGT A S 91;1XGT B W 98;5.43297
1XGT A N 92;1XGT A S 93;28.9276
1XGT A S 93;1XGT A W 94;27.3728
1XGT A S 93;1XGT A P 95;6.10333
1XGT A S 93;1XGT A Y 96;8.18945
1XGT A W 94;1XGT A P 95;42.2695
1XGT A W 94;1XGT A Y 96;23.9022
1XGT A W 94;1XGT B Y 47;14.0405
1XGT A W 94;1XGT B M 48;0.81905
1XGT A W 94;1XGT B G 49;9.35004
1XGT A W 94;1XGT B Y 50;13.994
1XGT A W 94;1XGT B Y 58;27.9848
1XGT A W 94;1XGT B Y 59;16.7848
1XGT A W 94;1XGT B H 60;7.93267
1XGT A W 94;1XGT B P 61;6.2622
1XGT A P 95;1XGT A Y 96;20.4729
1XGT A P 95;1XGT A T 97;11.6863
1XGT A P 95;1XGT B Y 47;1.4142
1XGT A P 95;1XGT B H 60;17.7499
1XGT A P 95;1XGT B P 61;18.5184
1XGT A Y 96;1XGT A T 97;24.8801
1XGT A Y 96;1XGT A F 98;0.416125
1XGT A Y 96;1XGT B Y 47;42.1357
1XGT A Y 96;1XGT B Y 50;11.5536
1XGT A Y 96;1XGT B H 60;4.9914
1XGT A Y 96;1XGT B W 98;20.8106
1XGT A T 97;1XGT A F 98;31.6857
1XGT A T 97;1XGT B Y 47;0.522015
1XGT A T 97;1XGT B H 60;7.27081
1XGT A F 98;1XGT A G 99;29.0038
1XGT A F 98;1XGT A G 100;0.297491
1XGT A F 98;1XGT B I 37;15.1315
1XGT A F 98;1XGT B L 45;44.2654
1XGT A F 98;1XGT B E 46;4.71747
1XGT A F 98;1XGT B Y 47;20.1572
1XGT A F 98;1XGT B W 103;7.74628
1XGT A G 99;1XGT A G 100;22.282
1XGT A G 99;1XGT A G 101;2.46447
1XGT A G 99;1XGT B N 43;0.971295
1XGT A G 99;1XGT B K 44;0.131174
1XGT A G 99;1XGT B L 45;2.57015
1XGT A G 100;1XGT A G 101;24.7576
1XGT A G 100;1XGT B G 42;1.06294
1XGT A G 100;1XGT B N 43;10.9829
1XGT A G 100;1XGT B K 44;22.4352
1XGT A G 101;1XGT A T 102;18.0122
1XGT A T 102;1XGT A K 103;21.3602
1XGT A T 102;1XGT A L 104;5.07619
1XGT A K 103;1XGT A L 104;21.2049
1XGT A K 103;1XGT A E 105;32.4479
1XGT A K 103;1XGT A D 165;2.2987
1XGT A K 103;1XGT B N 43;6.45879
1XGT A L 104;1XGT A E 105;21.7197
1XGT A E 105;1XGT A I 106;18.6035
1XGT A E 105;1XGT A K 107;0.70069
1XGT A E 105;1XGT A K 142;6.61847
1XGT A E 105;1XGT A Q 166;20.1534
1XGT A E 105;1XGT A Y 173;24.986
1XGT A I 106;1XGT A K 107;27.9826
1XGT A I 106;1XGT A R 108;4.50345
1XGT A I 106;1XGT A Y 140;7.73339
1XGT A I 106;1XGT A Q 166;26.4627
1XGT A I 106;1XGT A S 171;24.3823
1XGT A I 106;1XGT A Y 173;0.0642658
1XGT A K 107;1XGT A R 108;41.0552
1XGT A K 107;1XGT A D 110;7.25715
1XGT A K 107;1XGT A Y 140;17.437
1XGT A R 108;1XGT A A 109;50.7134
1XGT A R 108;1XGT A D 110;5.94472
1XGT A R 108;1XGT A A 111;11.9365
1XGT A R 108;1XGT A Y 140;29.8221
1XGT A R 108;1XGT A Q 166;0.49135
1XGT A R 108;1XGT A D 170;20.8481
1XGT A R 108;1XGT A S 171;18.1747
1XGT A R 108;1XGT A T 172;16.2442
1XGT A A 109;1XGT A D 110;31.1451
1XGT A A 109;1XGT A A 111;1.61901
1XGT A A 109;1XGT A Y 140;6.04866
1XGT A D 110;1XGT A A 111;22.8346
1XGT A D 110;1XGT A Y 140;16.7889
1XGT A D 110;1XGT A P 141;13.1615
1XGT A D 110;1XGT A H 198;0.0117529
1XGT A D 110;1XGT A K 199;23.0584
1XGT A D 110;1XGT A T 200;15.1494
1XGT A A 111;1XGT A A 112;25.594
1XGT A A 111;1XGT A P 113;0.585549
1XGT A A 111;1XGT A N 138;8.20435
1XGT A A 111;1XGT A F 139;9.66004
1XGT A A 111;1XGT A Y 140;17.9236
1XGT A A 111;1XGT A T 172;6.26882
1XGT A A 111;1XGT A H 198;4.17289
1XGT A A 111;1XGT A T 200;8.11024
1XGT A A 112;1XGT A P 113;29.02
1XGT A A 112;1XGT A T 114;5.20588
1XGT A A 112;1XGT A N 137;0.944101
1XGT A A 112;1XGT A N 138;6.78117
1XGT A A 112;1XGT A F 139;2.30445
1XGT A A 112;1XGT A H 198;0.566733
1XGT A A 112;1XGT A T 200;22.7846
1XGT A A 112;1XGT A S 201;0.0830166
1XGT A A 112;1XGT A I 205;9.38696
1XGT A P 113;1XGT A T 114;21.9576
1XGT A P 113;1XGT A V 115;13.6649
1XGT A P 113;1XGT A L 136;9.77046
1XGT A P 113;1XGT A N 137;6.92665
1XGT A P 113;1XGT A N 138;0.533501
1XGT A P 113;1XGT A F 139;18.8036
1XGT A P 113;1XGT A I 144;9.7687
1XGT A P 113;1XGT A A 196;5.49472
1XGT A P 113;1XGT A H 198;14.3841
1XGT A P 113;1XGT A T 200;3.43436
1XGT A P 113;1XGT A I 205;21.566
1XGT A T 114;1XGT A V 115;26.3423
1XGT A T 114;1XGT A S 116;9.26262
1XGT A T 114;1XGT A F 135;4.66167
1XGT A T 114;1XGT A L 136;3.30737
1XGT A T 114;1XGT A N 137;31.8743
1XGT A T 114;1XGT A N 138;2.51727
1XGT A T 114;1XGT B T 137;11.9536
1XGT A V 115;1XGT A S 116;27.9475
1XGT A V 115;1XGT A C 134;9.84446
1XGT A V 115;1XGT A F 135;6.67755
1XGT A V 115;1XGT A L 136;14.8808
1XGT A V 115;1XGT A C 194;7.08809
1XGT A V 115;1XGT A A 196;9.15871
1XGT A V 115;1XGT A I 205;18.6233
1XGT A V 115;1XGT A K 207;35.3872
1XGT A S 116;1XGT A I 117;22.6726
1XGT A S 116;1XGT A F 118;17.4206
1XGT A S 116;1XGT A V 133;0.569245
1XGT A S 116;1XGT A C 134;7.65019
1XGT A S 116;1XGT A F 135;21.3557
1XGT A S 116;1XGT A K 207;3.96338
1XGT A S 116;1XGT B T 137;20.7273
1XGT A I 117;1XGT A F 118;31.9712
1XGT A I 117;1XGT A P 119;0.647514
1XGT A I 117;1XGT A V 132;7.59781
1XGT A I 117;1XGT A V 133;6.7698
1XGT A I 117;1XGT A C 134;7.53204
1XGT A I 117;1XGT A W 148;9.47421
1XGT A I 117;1XGT A Y 192;6.8576
1XGT A I 117;1XGT A T 193;2.85439
1XGT A I 117;1XGT A C 194;10.1717
1XGT A I 117;1XGT A K 207;22.0106
1XGT A I 117;1XGT A S 208;14.9176
1XGT A I 117;1XGT A F 209;17.2909
1XGT A I 117;1XGT B A 125;0.001298
1XGT A I 117;1XGT B P 126;3.9896
1XGT A I 117;1XGT B V 127;14.7294
1XGT A F 118;1XGT A P 119;30.9328
1XGT A F 118;1XGT A S 131;1.12255
1XGT A F 118;1XGT A V 132;8.1347
1XGT A F 118;1XGT A V 133;26.4212
1XGT A F 118;1XGT A C 134;0.24601
1XGT A F 118;1XGT A F 135;15.4981
1XGT A F 118;1XGT A F 209;2.32425
1XGT A F 118;1XGT B L 124;25.9136
1XGT A F 118;1XGT B A 125;13.705
1XGT A F 118;1XGT B P 126;11.0601
1XGT A F 118;1XGT B T 137;16.6055
1XGT A F 118;1XGT B L 138;7.96251
1XGT A F 118;1XGT B G 139;1.15865
1XGT A P 119;1XGT A P 120;35.1197
1XGT A P 119;1XGT A S 121;4.0691
1XGT A P 119;1XGT A S 131;3.37546
1XGT A P 119;1XGT A V 132;1.96561
1XGT A P 119;1XGT A V 133;0.00823285
1XGT A P 119;1XGT A Y 186;6.8324
1XGT A P 119;1XGT A F 209;20.7147
1XGT A P 119;1XGT B P 123;1.32764
1XGT A P 119;1XGT B L 124;8.36391
1XGT A P 119;1XGT B A 125;9.74742
1XGT A P 119;1XGT B P 126;0.0331291
1XGT A P 119;1XGT B V 127;26.9327
1XGT A P 120;1XGT A S 121;27.4877
1XGT A P 120;1XGT A S 122;1.3065
1XGT A P 120;1XGT A Q 124;7.56618
1XGT A P 120;1XGT A L 125;19.6311
1XGT A P 120;1XGT A G 129;0.371493
1XGT A P 120;1XGT A A 130;12.6018
1XGT A P 120;1XGT A S 131;16.29
1XGT A P 120;1XGT A V 132;9.68804
1XGT A P 120;1XGT A Y 186;20.6499
1XGT A P 120;1XGT A F 209;2.09321
1XGT A P 120;1XGT B L 124;0.302418
1XGT A S 121;1XGT A S 122;21.2974
1XGT A S 121;1XGT A E 123;10.6899
1XGT A S 121;1XGT A Q 124;18.0226
1XGT A S 121;1XGT A L 125;11.2882
1XGT A S 121;1XGT B Y 122;12.9607
1XGT A S 121;1XGT B P 123;21.9246
1XGT A S 121;1XGT B L 124;2.39052
1XGT A S 122;1XGT A E 123;30.5935
1XGT A S 122;1XGT A Q 124;0.752784
1XGT A S 122;1XGT A L 125;17.7682
1XGT A S 122;1XGT A T 126;15.1404
1XGT A E 123;1XGT A Q 124;15.6657
1XGT A E 123;1XGT A L 125;0.792694
1XGT A E 123;1XGT A T 126;14.825
1XGT A E 123;1XGT A S 127;9.29632
1XGT A E 123;1XGT B V 121;1.25818
1XGT A E 123;1XGT B Y 122;15.6172
1XGT A E 123;1XGT B P 123;18.6295
1XGT A E 123;1XGT B K 208;24.5969
1XGT A Q 124;1XGT A L 125;15.7162
1XGT A Q 124;1XGT A T 126;1.0413
1XGT A Q 124;1XGT A S 127;14.5332
1XGT A Q 124;1XGT A G 128;1.81646
1XGT A Q 124;1XGT A G 129;22.1717
1XGT A Q 124;1XGT A A 130;7.43729
1XGT A Q 124;1XGT A S 131;19.0662
1XGT A Q 124;1XGT A T 180;1.43656
1XGT A Q 124;1XGT B Y 122;31.0742
1XGT A Q 124;1XGT B L 141;5.49815
1XGT A Q 124;1XGT B K 143;14.1291
1XGT A L 125;1XGT A T 126;20.1601
1XGT A L 125;1XGT A S 127;1.066
1XGT A L 125;1XGT A G 128;7.25244
1XGT A L 125;1XGT A G 129;11.1753
1XGT A L 125;1XGT A A 130;6.31512
1XGT A L 125;1XGT A K 183;34.0175
1XGT A L 125;1XGT A Y 186;18.3416
1XGT A L 125;1XGT A E 187;5.84144
1XGT A T 126;1XGT A S 127;23.9102
1XGT A T 126;1XGT A G 128;5.33522
1XGT A T 126;1XGT A K 183;7.3719
1XGT A S 127;1XGT A G 128;22.8482
1XGT A S 127;1XGT A G 129;7.24064
1XGT A S 127;1XGT B Y 122;14.5029
1XGT A G 128;1XGT A G 129;20.6341
1XGT A G 128;1XGT A T 182;9.94199
1XGT A G 128;1XGT A K 183;22.2289
1XGT A G 129;1XGT A A 130;19.0791
1XGT A G 129;1XGT A T 180;0.540047
1XGT A G 129;1XGT A L 181;3.53444
1XGT A G 129;1XGT A T 182;3.01073
1XGT A G 129;1XGT A K 183;6.89846
1XGT A G 129;1XGT B K 143;1.1075
1XGT A A 130;1XGT A S 131;16.485
1XGT A A 130;1XGT A V 132;3.0578
1XGT A A 130;1XGT A L 179;2.04602
1XGT A A 130;1XGT A T 180;5.34231
1XGT A A 130;1XGT A L 181;24.3002
1XGT A A 130;1XGT A T 182;5.189
1XGT A A 130;1XGT A K 183;4.20102
1XGT A A 130;1XGT A Y 186;12.8969
1XGT A S 131;1XGT A V 132;18.3056
1XGT A S 131;1XGT A V 133;7.73296
1XGT A S 131;1XGT A T 178;9.02735
1XGT A S 131;1XGT A L 179;3.83102
1XGT A S 131;1XGT A T 180;14.4197
1XGT A S 131;1XGT B L 124;1.47403
1XGT A S 131;1XGT B L 141;13.9438
1XGT A S 131;1XGT B K 143;7.12495
1XGT A V 132;1XGT A V 133;19.813
1XGT A V 132;1XGT A W 148;19.0631
1XGT A V 132;1XGT A S 177;0.454869
1XGT A V 132;1XGT A T 178;7.75637
1XGT A V 132;1XGT A L 179;27.0207
1XGT A V 132;1XGT A L 181;4.18678
1XGT A V 132;1XGT A Y 186;7.66987
1XGT A V 132;1XGT A Y 192;12.6772
1XGT A V 132;1XGT A F 209;11.2047
1XGT A V 133;1XGT A C 134;23.389
1XGT A V 133;1XGT A F 135;13.5975
1XGT A V 133;1XGT A W 148;3.46482
1XGT A V 133;1XGT A S 176;3.26541
1XGT A V 133;1XGT A S 177;4.54265
1XGT A V 133;1XGT A T 178;17.8254
1XGT A V 133;1XGT B L 124;20.7161
1XGT A V 133;1XGT B L 141;12.6388
1XGT A V 133;1XGT B S 178;6.03565
1XGT A C 134;1XGT A F 135;19.7607
1XGT A C 134;1XGT A L 136;13.2392
1XGT A C 134;1XGT A W 148;10.0949
1XGT A C 134;1XGT A M 175;0.167203
1XGT A C 134;1XGT A S 176;4.54883
1XGT A C 134;1XGT A S 177;20.2114
1XGT A C 134;1XGT A C 194;20.5722
1XGT A C 134;1XGT A K 207;0.715647
1XGT A F 135;1XGT A L 136;19.7428
1XGT A F 135;1XGT A N 137;13.8802
1XGT A F 135;1XGT A M 175;4.18906
1XGT A F 135;1XGT A S 176;11.1739
1XGT A F 135;1XGT B L 124;10.87
1XGT A F 135;1XGT B T 137;3.53669
1XGT A F 135;1XGT B L 138;2.34183
1XGT A F 135;1XGT B G 139;4.89722
1XGT A F 135;1XGT B C 140;0.0149288
1XGT A F 135;1XGT B F 166;13.1361
1XGT A F 135;1XGT B S 178;10.5668
1XGT A F 135;1XGT B S 179;8.65074
1XGT A F 135;1XGT B S 180;21.3163
1XGT A L 136;1XGT A N 137;20.3851
1XGT A L 136;1XGT A F 139;11.462
1XGT A L 136;1XGT A I 144;12.8238
1XGT A L 136;1XGT A N 145;0.258022
1XGT A L 136;1XGT A V 146;13.4188
1XGT A L 136;1XGT A S 174;3.08571
1XGT A L 136;1XGT A M 175;34.2266
1XGT A L 136;1XGT A S 176;0.539306
1XGT A L 136;1XGT A S 177;6.68632
1XGT A L 136;1XGT A C 194;4.68288
1XGT A L 136;1XGT A A 196;13.4238
1XGT A N 137;1XGT A N 138;30.9917
1XGT A N 137;1XGT A F 139;4.81446
1XGT A N 137;1XGT A Y 173;0.00715119
1XGT A N 137;1XGT A S 174;10.8744
1XGT A N 137;1XGT A M 175;2.22203
1XGT A N 137;1XGT B T 137;6.87038
1XGT A N 137;1XGT B H 164;15.6899
1XGT A N 137;1XGT B F 166;7.02296
1XGT A N 137;1XGT B S 180;11.9233
1XGT A N 137;1XGT B T 182;6.08264
1XGT A N 138;1XGT A F 139;15.5068
1XGT A N 138;1XGT A D 167;5.81977
1XGT A N 138;1XGT A D 170;15.448
1XGT A N 138;1XGT A T 172;22.9446
1XGT A N 138;1XGT A Y 173;5.53744
1XGT A N 138;1XGT A S 174;8.51663
1XGT A N 138;1XGT B H 164;18.1085
1XGT A F 139;1XGT A Y 140;19.7695
1XGT A F 139;1XGT A P 141;7.11173
1XGT A F 139;1XGT A K 142;15.9743
1XGT A F 139;1XGT A D 143;0.0720395
1XGT A F 139;1XGT A I 144;22.1069
1XGT A F 139;1XGT A W 163;1.33246
1XGT A F 139;1XGT A T 172;8.71561
1XGT A F 139;1XGT A Y 173;30.2779
1XGT A F 139;1XGT A S 174;6.39343
1XGT A F 139;1XGT A M 175;10.3375
1XGT A F 139;1XGT A H 198;9.845
1XGT A Y 140;1XGT A P 141;42.3844
1XGT A Y 140;1XGT A K 142;0.710333
1XGT A Y 140;1XGT A Q 166;4.65136
1XGT A Y 140;1XGT A S 171;5.03308
1XGT A Y 140;1XGT A T 172;7.0498
1XGT A Y 140;1XGT A Y 173;16.4403
1XGT A Y 140;1XGT A H 198;8.58562
1XGT A Y 140;1XGT A T 200;1.31284
1XGT A P 141;1XGT A K 142;21.3889
1XGT A P 141;1XGT A D 143;27.4305
1XGT A P 141;1XGT A Y 173;1.72182
1XGT A P 141;1XGT A H 198;14.3399
1XGT A P 141;1XGT A K 199;21.05
1XGT A P 141;1XGT A T 200;0.0834024
1XGT A K 142;1XGT A D 143;29.3644
1XGT A K 142;1XGT A I 144;10.6093
1XGT A K 142;1XGT A W 163;27.4933
1XGT A K 142;1XGT A T 164;7.78679
1XGT A K 142;1XGT A Y 173;43.1719
1XGT A K 142;1XGT A S 174;5.93134
1XGT A K 142;1XGT A M 175;0.535971
1XGT A D 143;1XGT A I 144;27.3081
1XGT A D 143;1XGT A H 198;10.7345
1XGT A D 143;1XGT A K 199;11.5624
1XGT A I 144;1XGT A N 145;34.8754
1XGT A I 144;1XGT A V 146;1.02163
1XGT A I 144;1XGT A W 163;7.17984
1XGT A I 144;1XGT A M 175;17.7204
1XGT A I 144;1XGT A A 196;6.3048
1XGT A I 144;1XGT A T 197;11.1809
1XGT A I 144;1XGT A H 198;16.2291
1XGT A N 145;1XGT A V 146;35.754
1XGT A N 145;1XGT A K 147;11.8891
1XGT A N 145;1XGT A E 195;2.88958
1XGT A N 145;1XGT A A 196;4.85136
1XGT A N 145;1XGT A T 197;30.6413
1XGT A V 146;1XGT A K 147;27.2737
1XGT A V 146;1XGT A W 148;11.4985
1XGT A V 146;1XGT A V 159;2.6661
1XGT A V 146;1XGT A N 161;11.5569
1XGT A V 146;1XGT A M 175;17.534
1XGT A V 146;1XGT A S 177;14.3489
1XGT A V 146;1XGT A C 194;12.3621
1XGT A V 146;1XGT A E 195;8.78899
1XGT A V 146;1XGT A A 196;2.69377
1XGT A K 147;1XGT A W 148;29.5715
1XGT A K 147;1XGT A K 149;27.2201
1XGT A K 147;1XGT A E 154;31.1917
1XGT A K 147;1XGT A T 193;2.07425
1XGT A K 147;1XGT A C 194;2.92764
1XGT A K 147;1XGT A E 195;41.3365
1XGT A W 148;1XGT A K 149;23.7352
1XGT A W 148;1XGT A I 150;1.60689
1XGT A W 148;1XGT A E 154;6.14721
1XGT A W 148;1XGT A R 155;25.1808
1XGT A W 148;1XGT A V 159;20.1809
1XGT A W 148;1XGT A S 177;16.6442
1XGT A W 148;1XGT A T 178;2.9848
1XGT A W 148;1XGT A L 179;28.7403
1XGT A W 148;1XGT A Y 192;5.40575
1XGT A W 148;1XGT A T 193;15.5353
1XGT A W 148;1XGT A C 194;14.202
1XGT A K 149;1XGT A I 150;22.3972
1XGT A K 149;1XGT A D 151;0.734001
1XGT A K 149;1XGT A G 152;23.1657
1XGT A K 149;1XGT A S 153;8.48958
1XGT A K 149;1XGT A E 154;11.4552
1XGT A K 149;1XGT A R 155;1.66668
1XGT A K 149;1XGT A S 191;2.8803
1XGT A K 149;1XGT A Y 192;4.22595
1XGT A K 149;1XGT A T 193;31.7385
1XGT A K 149;1XGT A E 195;26.9076
1XGT A I 150;1XGT A D 151;25.8703
1XGT A I 150;1XGT A G 152;2.86326
1XGT A I 150;1XGT A S 153;23.2528
1XGT A I 150;1XGT A R 155;27.8879
1XGT A I 150;1XGT A L 179;12.6665
1XGT A I 150;1XGT A L 181;10.3976
1XGT A I 150;1XGT A H 189;25.1269
1XGT A I 150;1XGT A S 191;7.52466
1XGT A I 150;1XGT A Y 192;18.6239
1XGT A D 151;1XGT A G 152;23.9567
1XGT A D 151;1XGT A S 153;8.66422
1XGT A D 151;1XGT A R 188;1.23455
1XGT A D 151;1XGT A H 189;21.6841
1XGT A D 151;1XGT A N 190;13.7113
1XGT A D 151;1XGT A S 191;26.0882
1XGT A G 152;1XGT A S 153;24.4544
1XGT A G 152;1XGT A E 154;1.71191
1XGT A G 152;1XGT A S 191;5.91793
1XGT A S 153;1XGT A E 154;31.4454
1XGT A S 153;1XGT A R 155;4.40956
1XGT A E 154;1XGT A R 155;28.6654
1XGT A E 154;1XGT A Q 156;28.0393
1XGT A R 155;1XGT A Q 156;30.003
1XGT A R 155;1XGT A N 157;29.7951
1XGT A R 155;1XGT A G 158;3.15185
1XGT A R 155;1XGT A V 159;9.76205
1XGT A R 155;1XGT A L 179;12.0775
1XGT A R 155;1XGT A T 180;2.37349
1XGT A R 155;1XGT A L 181;16.6296
1XGT A R 155;1XGT A E 185;18.0943
1XGT A R 155;1XGT A H 189;4.36532
1XGT A Q 156;1XGT A N 157;33.1654
1XGT A Q 156;1XGT A G 158;1.08488
1XGT A Q 156;1XGT A V 159;20.1131
1XGT A N 157;1XGT A G 158;25.5618
1XGT A N 157;1XGT A V 159;4.46255
1XGT A N 157;1XGT A L 179;4.59729
1XGT A G 158;1XGT A V 159;21.2862
1XGT A G 158;1XGT A L 160;7.3246
1XGT A G 158;1XGT A T 178;3.7676
1XGT A G 158;1XGT A L 179;8.09823
1XGT A G 158;1XGT A T 180;24.0397
1XGT A G 158;1XGT A L 181;0.00242794
1XGT A V 159;1XGT A L 160;33.2702
1XGT A V 159;1XGT A N 161;13.2207
1XGT A V 159;1XGT A S 177;5.91261
1XGT A V 159;1XGT A T 178;7.74468
1XGT A V 159;1XGT A L 179;12.8995
1XGT A L 160;1XGT A N 161;30.4352
1XGT A L 160;1XGT A S 176;1.9558
1XGT A L 160;1XGT A S 177;2.71683
1XGT A L 160;1XGT A T 178;26.8011
1XGT A L 160;1XGT A T 180;0.303106
1XGT A L 160;1XGT B V 169;25.186
1XGT A L 160;1XGT B L 170;10.807
1XGT A L 160;1XGT B Q 171;26.3913
1XGT A L 160;1XGT B T 176;0.113912
1XGT A N 161;1XGT A S 162;21.8776
1XGT A N 161;1XGT A W 163;29.8817
1XGT A N 161;1XGT A M 175;12.6576
1XGT A N 161;1XGT A S 176;6.02028
1XGT A N 161;1XGT A S 177;12.6771
1XGT A N 161;1XGT B V 169;13.7759
1XGT A S 162;1XGT A W 163;29.5522
1XGT A S 162;1XGT A M 175;7.93673
1XGT A S 162;1XGT A S 176;22.9478
1XGT A S 162;1XGT B F 166;13.6879
1XGT A S 162;1XGT B P 167;20.6351
1XGT A S 162;1XGT B V 169;13.3971
1XGT A W 163;1XGT A T 164;25.8741
1XGT A W 163;1XGT A D 165;0.977956
1XGT A W 163;1XGT A S 174;3.6107
1XGT A W 163;1XGT A M 175;30.4072
1XGT A W 163;1XGT B F 166;2.53745
1XGT A W 163;1XGT B P 167;15.8688
1XGT A T 164;1XGT A D 165;41.8855
1XGT A T 164;1XGT A D 167;1.57009
1XGT A T 164;1XGT A T 172;0.0923156
1XGT A T 164;1XGT A Y 173;8.33842
1XGT A T 164;1XGT A S 174;25.4609
1XGT A T 164;1XGT B H 164;9.92638
1XGT A T 164;1XGT B T 165;10.6872
1XGT A T 164;1XGT B F 166;15.662
1XGT A T 164;1XGT B P 167;11.2764
1XGT A D 165;1XGT A Q 166;33.9281
1XGT A D 165;1XGT A D 167;8.15352
1XGT A D 165;1XGT A T 172;0.841696
1XGT A D 165;1XGT A Y 173;4.68851
1XGT A D 165;1XGT B P 167;0.442761
1XGT A Q 166;1XGT A D 167;22.1357
1XGT A Q 166;1XGT A S 168;9.64795
1XGT A Q 166;1XGT A S 171;21.1485
1XGT A Q 166;1XGT A T 172;4.9259
1XGT A Q 166;1XGT A Y 173;29.1108
1XGT A D 167;1XGT A S 168;26.9213
1XGT A D 167;1XGT A K 169;24.1366
1XGT A D 167;1XGT A D 170;13.1195
1XGT A D 167;1XGT A S 171;16.13
1XGT A D 167;1XGT A T 172;20.653
1XGT A D 167;1XGT A Y 173;0.345251
1XGT A D 167;1XGT A S 174;1.15341
1XGT A D 167;1XGT B H 164;15.3034
1XGT A S 168;1XGT A K 169;31.8145
1XGT A S 168;1XGT A D 170;0.663461
1XGT A S 168;1XGT A S 171;1.45562
1XGT A K 169;1XGT A D 170;33.8474
1XGT A K 169;1XGT A S 171;0.0742743
1XGT A K 169;1XGT B S 160;7.4545
1XGT A K 169;1XGT B S 161;5.84324
1XGT A K 169;1XGT B G 162;5.76454
1XGT A K 169;1XGT B V 163;8.51471
1XGT A D 170;1XGT A S 171;24.563
1XGT A D 170;1XGT A T 172;21.0444
1XGT A S 171;1XGT A T 172;16.9361
1XGT A S 171;1XGT A Y 173;1.81773
1XGT A T 172;1XGT A Y 173;26.181
1XGT A T 172;1XGT A S 174;1.45018
1XGT A T 172;1XGT B H 164;0.032323
1XGT A Y 173;1XGT A S 174;23.0686
1XGT A S 174;1XGT A M 175;17.2249
1XGT A S 174;1XGT B H 164;17.7802
1XGT A S 174;1XGT B F 166;8.80387
1XGT A M 175;1XGT A S 176;21.8967
1XGT A M 175;1XGT A S 177;5.12535
1XGT A M 175;1XGT B F 166;11.6757
1XGT A S 176;1XGT A S 177;20.6744
1XGT A S 176;1XGT A T 178;6.28417
1XGT A S 176;1XGT B F 166;16.2561
1XGT A S 176;1XGT B S 178;12.3397
1XGT A S 177;1XGT A T 178;22.085
1XGT A S 177;1XGT A C 194;0.729787
1XGT A T 178;1XGT A L 179;19.9163
1XGT A T 178;1XGT A T 180;12.4258
1XGT A T 178;1XGT B L 141;11.2093
1XGT A T 178;1XGT B Q 171;0.913885
1XGT A T 178;1XGT B T 176;5.83174
1XGT A T 178;1XGT B S 178;5.14322
1XGT A L 179;1XGT A T 180;20.7427
1XGT A L 179;1XGT A L 181;18.3353
1XGT A L 179;1XGT A Y 192;7.68201
1XGT A T 180;1XGT A L 181;36.1796
1XGT A T 180;1XGT A E 185;0.106322
1XGT A T 180;1XGT B K 143;13.6269
1XGT A T 180;1XGT B Q 171;23.1396
1XGT A L 181;1XGT A T 182;25.1954
1XGT A L 181;1XGT A E 185;24.88
1XGT A L 181;1XGT A Y 186;14.801
1XGT A L 181;1XGT A H 189;2.96672
1XGT A L 181;1XGT A Y 192;10.7474
1XGT A T 182;1XGT A K 183;17.6473
1XGT A T 182;1XGT A D 184;12.8827
1XGT A T 182;1XGT A E 185;31.9852
1XGT A T 182;1XGT A Y 186;6.42521
1XGT A T 182;1XGT A R 188;0.591066
1XGT A K 183;1XGT A D 184;27.5626
1XGT A K 183;1XGT A E 185;0.496638
1XGT A K 183;1XGT A Y 186;7.21736
1XGT A K 183;1XGT A E 187;38.3683
1XGT A D 184;1XGT A E 185;17.3879
1XGT A D 184;1XGT A Y 186;0.809761
1XGT A D 184;1XGT A E 187;18.6563
1XGT A D 184;1XGT A R 188;30.5539
1XGT A E 185;1XGT A Y 186;17.0966
1XGT A E 185;1XGT A E 187;1.03205
1XGT A E 185;1XGT A R 188;30.0802
1XGT A E 185;1XGT A H 189;16.8847
1XGT A E 185;1XGT A Y 192;1.01957
1XGT A Y 186;1XGT A E 187;23.4737
1XGT A Y 186;1XGT A R 188;1.73943
1XGT A Y 186;1XGT A H 189;5.84295
1XGT A Y 186;1XGT A Y 192;25.8521
1XGT A Y 186;1XGT A F 209;12.2999
1XGT A Y 186;1XGT A R 211;30.9729
1XGT A E 187;1XGT A R 188;23.5118
1XGT A E 187;1XGT A H 189;2.75279
1XGT A E 187;1XGT A R 211;32.4266
1XGT A R 188;1XGT A H 189;41.3364
1XGT A R 188;1XGT A R 211;0.121076
1XGT A H 189;1XGT A N 190;23.494
1XGT A H 189;1XGT A S 191;0.565467
1XGT A H 189;1XGT A Y 192;16.1031
1XGT A H 189;1XGT A R 211;14.3713
1XGT A N 190;1XGT A S 191;23.4377
1XGT A N 190;1XGT A Y 192;10.4038
1XGT A N 190;1XGT A F 209;1.9687
1XGT A N 190;1XGT A N 210;17.7365
1XGT A N 190;1XGT A R 211;19.9288
1XGT A N 190;1XGT A N 212;27.6761
1XGT A S 191;1XGT A Y 192;22.2512
1XGT A S 191;1XGT A T 193;6.97638
1XGT A S 191;1XGT A S 208;5.73794
1XGT A S 191;1XGT A F 209;3.76655
1XGT A S 191;1XGT A N 210;15.367
1XGT A Y 192;1XGT A T 193;19.4277
1XGT A Y 192;1XGT A S 208;9.78018
1XGT A Y 192;1XGT A F 209;31.7156
1XGT A Y 192;1XGT A R 211;8.121
1XGT A T 193;1XGT A C 194;20.3078
1XGT A T 193;1XGT A E 195;13.0948
1XGT A T 193;1XGT A V 206;13.7593
1XGT A T 193;1XGT A K 207;6.57463
1XGT A T 193;1XGT A S 208;16.2863
1XGT A C 194;1XGT A E 195;20.8636
1XGT A C 194;1XGT A A 196;3.27151
1XGT A C 194;1XGT A I 205;3.12153
1XGT A C 194;1XGT A V 206;3.1042
1XGT A C 194;1XGT A K 207;19.294
1XGT A E 195;1XGT A A 196;20.4094
1XGT A E 195;1XGT A T 197;3.10624
1XGT A E 195;1XGT A P 204;17.8046
1XGT A E 195;1XGT A I 205;4.46838
1XGT A E 195;1XGT A V 206;19.7053
1XGT A A 196;1XGT A T 197;20.4783
1XGT A A 196;1XGT A H 198;5.48071
1XGT A A 196;1XGT A S 201;0.336602
1XGT A A 196;1XGT A P 204;10.1869
1XGT A A 196;1XGT A I 205;27.0056
1XGT A T 197;1XGT A H 198;30.4645
1XGT A T 197;1XGT A S 201;5.8882
1XGT A T 197;1XGT A T 202;2.6342
1XGT A T 197;1XGT A P 204;21.7293
1XGT A H 198;1XGT A K 199;31.2796
1XGT A H 198;1XGT A T 200;24.4911
1XGT A H 198;1XGT A S 201;21.4036
1XGT A H 198;1XGT A P 204;0.194412
1XGT A H 198;1XGT A I 205;2.48266
1XGT A K 199;1XGT A T 200;22.6624
1XGT A K 199;1XGT A S 201;8.1714
1XGT A T 200;1XGT A S 201;32.7484
1XGT A T 200;1XGT A I 205;1.4813
1XGT A S 201;1XGT A T 202;30.9467
1XGT A S 201;1XGT A S 203;25.6233
1XGT A S 201;1XGT A P 204;1.17467
1XGT A S 201;1XGT A I 205;11.6726
1XGT A T 202;1XGT A S 203;29.7359
1XGT A T 202;1XGT A P 204;7.84641
1XGT A S 203;1XGT A P 204;39.3876
1XGT A S 203;1XGT A I 205;3.36249
1XGT A P 204;1XGT A I 205;22.1848
1XGT A P 204;1XGT A V 206;20.1986
1XGT A I 205;1XGT A V 206;28.0491
1XGT A I 205;1XGT A K 207;13.5558
1XGT A V 206;1XGT A K 207;33.2331
1XGT A V 206;1XGT A S 208;7.26515
1XGT A K 207;1XGT A S 208;23.7285
1XGT A S 208;1XGT A F 209;32.8893
1XGT A S 208;1XGT A N 210;2.46674
1XGT A S 208;1XGT B V 127;1.51184
1XGT A F 209;1XGT A N 210;36.8739
1XGT A F 209;1XGT A R 211;6.75423
1XGT A F 209;1XGT A E 213;0.807189
1XGT A F 209;1XGT B V 127;25.1913
1XGT A N 210;1XGT A R 211;17.8521
1XGT A N 210;1XGT A N 212;16.6021
1XGT A N 210;1XGT A E 213;33.7681
1XGT A N 210;1XGT A C 214;5.72639
1XGT A N 210;1XGT B V 127;2.56743
1XGT A R 211;1XGT A N 212;22.2635
1XGT A R 211;1XGT A E 213;15.7757
1XGT A R 211;1XGT A C 214;0.849657
1XGT A N 212;1XGT A E 213;38.1238
1XGT A E 213;1XGT A C 214;46.6309
1XGT A E 213;1XGT B C 128;3.91184
1XGT A C 214;1XGT B V 127;12.5765
1XGT A C 214;1XGT B C 128;47.6507
1XGT A C 214;1XGT B D 130;2.13161
1XGT B E 1;1XGT B V 2;35.0405
1XGT B E 1;1XGT B Q 3;26.9565
1XGT B E 1;1XGT B T 25;1.94862
1XGT B E 1;1XGT B G 26;19.5172
1XGT B V 2;1XGT B Q 3;25.5598
1XGT B V 2;1XGT B L 4;5.3454
1XGT B V 2;1XGT B V 24;7.28522
1XGT B V 2;1XGT B T 25;6.4479
1XGT B V 2;1XGT B G 26;5.42432
1XGT B V 2;1XGT B D 27;17.788
1XGT B V 2;1XGT B W 34;11.1271
1XGT B V 2;1XGT B D 101;6.66094
1XGT B V 2;1XGT B V 102;28.8665
1XGT B Q 3;1XGT B L 4;30.9362
1XGT B Q 3;1XGT B S 23;3.04775
1XGT B Q 3;1XGT B V 24;2.98138
1XGT B Q 3;1XGT B T 25;32.3512
1XGT B Q 3;1XGT B V 102;6.56886
1XGT B L 4;1XGT B Q 5;28.308
1XGT B L 4;1XGT B C 22;10.5912
1XGT B L 4;1XGT B S 23;6.95498
1XGT B L 4;1XGT B V 24;12.9934
1XGT B L 4;1XGT B W 34;14.1533
1XGT B L 4;1XGT B Y 78;4.13157
1XGT B L 4;1XGT B C 95;10.2386
1XGT B L 4;1XGT B A 96;7.77427
1XGT B L 4;1XGT B S 97;2.12863
1XGT B L 4;1XGT B V 102;19.4715
1XGT B L 4;1XGT B W 103;10.3002
1XGT B L 4;1XGT B G 104;16.2247
1XGT B L 4;1XGT B A 105;2.19657
1XGT B Q 5;1XGT B E 6;41.2796
1XGT B Q 5;1XGT B S 7;5.86451
1XGT B Q 5;1XGT B T 21;2.86436
1XGT B Q 5;1XGT B C 22;7.13093
1XGT B Q 5;1XGT B S 23;27.1371
1XGT B Q 5;1XGT B T 25;0.242663
1XGT B Q 5;1XGT B C 95;4.36009
1XGT B Q 5;1XGT B G 104;2.26054
1XGT B Q 5;1XGT B A 105;17.815
1XGT B Q 5;1XGT B G 106;1.44067
1XGT B Q 5;1XGT B T 107;0.0768958
1XGT B E 6;1XGT B S 7;26.4052
1XGT B E 6;1XGT B L 20;3.11538
1XGT B E 6;1XGT B T 21;5.86292
1XGT B E 6;1XGT B C 22;1.29126
1XGT B E 6;1XGT B W 36;10.1071
1XGT B E 6;1XGT B Y 93;4.81991
1XGT B E 6;1XGT B Y 94;8.50659
1XGT B E 6;1XGT B C 95;19.4802
1XGT B E 6;1XGT B G 104;11.707
1XGT B E 6;1XGT B A 105;3.98374
1XGT B E 6;1XGT B G 106;15.7331
1XGT B E 6;1XGT B T 107;21.8744
1XGT B S 7;1XGT B G 8;29.5178
1XGT B S 7;1XGT B L 20;9.92555
1XGT B S 7;1XGT B T 21;33.7607
1XGT B S 7;1XGT B S 23;5.06692
1XGT B S 7;1XGT B T 107;4.97115
1XGT B G 8;1XGT B P 9;32.379
1XGT B G 8;1XGT B S 10;8.56578
1XGT B G 8;1XGT B S 19;2.99818
1XGT B G 8;1XGT B L 20;12.2033
1XGT B G 8;1XGT B T 21;1.23366e-05
1XGT B G 8;1XGT B T 107;6.9963
1XGT B P 9;1XGT B S 10;22.3253
1XGT B P 9;1XGT B L 11;14.3349
1XGT B P 9;1XGT B V 12;12.3076
1XGT B P 9;1XGT B L 18;0.456531
1XGT B P 9;1XGT B S 19;23.5633
1XGT B P 9;1XGT B L 20;3.83052
1XGT B P 9;1XGT B V 109;11.1328
1XGT B S 10;1XGT B L 11;30.5908
1XGT B S 10;1XGT B T 107;3.27245
1XGT B S 10;1XGT B T 108;15.5265
1XGT B S 10;1XGT B V 109;9.01097
1XGT B S 10;1XGT B T 110;13.4337
1XGT B L 11;1XGT B V 12;32.8153
1XGT B L 11;1XGT B K 13;9.92737
1XGT B L 11;1XGT B V 109;1.04984
1XGT B L 11;1XGT B T 110;17.2937
1XGT B L 11;1XGT B S 112;14.7616
1XGT B L 11;1XGT B A 114;7.17849
1XGT B L 11;1XGT B F 146;20.6644
1XGT B L 11;1XGT B P 147;10.1472
1XGT B V 12;1XGT B K 13;27.7264
1XGT B V 12;1XGT B P 14;0.143202
1XGT B V 12;1XGT B Q 16;9.77565
1XGT B V 12;1XGT B T 17;13.939
1XGT B V 12;1XGT B L 18;16.322
1XGT B V 12;1XGT B S 19;2.37886
1XGT B V 12;1XGT B V 85;10.9641
1XGT B V 12;1XGT B V 109;11.2006
1XGT B V 12;1XGT B T 110;7.48488
1XGT B V 12;1XGT B V 111;14.5123
1XGT B V 12;1XGT B S 112;6.61242
1XGT B K 13;1XGT B P 14;28.1285
1XGT B K 13;1XGT B S 15;0.316348
1XGT B K 13;1XGT B Q 16;24.758
1XGT B K 13;1XGT B V 85;5.00843
1XGT B K 13;1XGT B V 111;2.11353
1XGT B K 13;1XGT B S 112;9.83644
1XGT B K 13;1XGT B S 113;13.5209
1XGT B K 13;1XGT B A 114;3.80022
1XGT B K 13;1XGT B K 115;2.43416
1XGT B P 14;1XGT B S 15;28.3989
1XGT B P 14;1XGT B Q 16;5.94209
1XGT B P 14;1XGT B V 85;6.11288
1XGT B P 14;1XGT B T 86;7.60414
1XGT B P 14;1XGT B T 87;11.1477
1XGT B P 14;1XGT B V 111;11.8048
1XGT B P 14;1XGT B S 112;10.4184
1XGT B P 14;1XGT B S 113;19.964
1XGT B S 15;1XGT B Q 16;36.787
1XGT B S 15;1XGT B T 17;0.21455
1XGT B S 15;1XGT B S 84;21.4494
1XGT B S 15;1XGT B V 85;13.2373
1XGT B Q 16;1XGT B T 17;29.8901
1XGT B Q 16;1XGT B L 82;0.560426
1XGT B Q 16;1XGT B N 83;1.43644
1XGT B Q 16;1XGT B S 84;5.64457
1XGT B Q 16;1XGT B V 85;12.9662
1XGT B T 17;1XGT B L 18;22.7369
1XGT B T 17;1XGT B S 19;15.1909
1XGT B T 17;1XGT B Q 81;14.8526
1XGT B T 17;1XGT B L 82;8.56814
1XGT B T 17;1XGT B N 83;20.6461
1XGT B T 17;1XGT B S 84;1.07193
1XGT B T 17;1XGT B V 85;0.273385
1XGT B L 18;1XGT B S 19;27.2244
1XGT B L 18;1XGT B L 20;12.0563
1XGT B L 18;1XGT B L 80;12.3128
1XGT B L 18;1XGT B Q 81;4.97969
1XGT B L 18;1XGT B L 82;26.9459
1XGT B L 18;1XGT B V 85;13.0624
1XGT B L 18;1XGT B D 89;5.15288
1XGT B L 18;1XGT B Y 93;16.9163
1XGT B L 18;1XGT B V 109;20.0105
1XGT B L 18;1XGT B V 111;4.94242
1XGT B S 19;1XGT B L 20;27.9759
1XGT B S 19;1XGT B L 80;8.19549
1XGT B S 19;1XGT B Q 81;6.166
1XGT B S 19;1XGT B V 109;0.0225136
1XGT B L 20;1XGT B T 21;22.9721
1XGT B L 20;1XGT B W 36;18.2192
1XGT B L 20;1XGT B Y 79;9.34201
1XGT B L 20;1XGT B L 80;24.3913
1XGT B L 20;1XGT B Y 93;15.5911
1XGT B L 20;1XGT B T 107;16.903
1XGT B L 20;1XGT B V 109;14.7134
1XGT B T 21;1XGT B C 22;20.7006
1XGT B T 21;1XGT B S 23;7.72205
1XGT B T 21;1XGT B W 36;7.08252
1XGT B T 21;1XGT B Q 77;16.4118
1XGT B T 21;1XGT B Y 78;3.07332
1XGT B T 21;1XGT B Y 79;23.3851
1XGT B C 22;1XGT B S 23;19.8173
1XGT B C 22;1XGT B V 24;5.76194
1XGT B C 22;1XGT B W 36;10.261
1XGT B C 22;1XGT B Q 77;7.80158
1XGT B C 22;1XGT B Y 78;30.4438
1XGT B C 22;1XGT B C 95;17.665
1XGT B S 23;1XGT B V 24;20.0179
1XGT B S 23;1XGT B T 25;14.6055
1XGT B S 23;1XGT B N 76;2.50273
1XGT B S 23;1XGT B Q 77;20.5116
1XGT B V 24;1XGT B T 25;28.8792
1XGT B V 24;1XGT B D 27;11.8875
1XGT B V 24;1XGT B S 28;3.42338
1XGT B V 24;1XGT B V 29;14.521
1XGT B V 24;1XGT B W 34;16.4944
1XGT B V 24;1XGT B N 76;31.4031
1XGT B V 24;1XGT B Q 77;2.77255
1XGT B V 24;1XGT B Y 78;8.98602
1XGT B T 25;1XGT B G 26;25.5209
1XGT B T 25;1XGT B D 27;6.74288
1XGT B T 25;1XGT B N 76;0.676107
1XGT B G 26;1XGT B D 27;31.282
1XGT B D 27;1XGT B S 28;30.5198
1XGT B D 27;1XGT B V 29;0.0026336
1XGT B D 27;1XGT B S 31;23.1634
1XGT B D 27;1XGT B W 34;1.3907
1XGT B D 27;1XGT B N 76;10.9073
1XGT B S 28;1XGT B V 29;17.37
1XGT B S 28;1XGT B T 30;21.6789
1XGT B S 28;1XGT B S 31;20.7643
1XGT B S 28;1XGT B D 32;0.0312439
1XGT B S 28;1XGT B W 34;5.55609
1XGT B S 28;1XGT B T 73;2.97889
1XGT B S 28;1XGT B N 76;14.7183
1XGT B V 29;1XGT B T 30;24.5255
1XGT B V 29;1XGT B S 31;2.34551
1XGT B V 29;1XGT B D 32;4.52753
1XGT B V 29;1XGT B W 34;24.4391
1XGT B V 29;1XGT B I 51;0.0644035
1XGT B V 29;1XGT B S 52;1.09082
1XGT B V 29;1XGT B Y 53;1.31286
1XGT B V 29;1XGT B R 71;20.0695
1XGT B V 29;1XGT B D 72;4.37732
1XGT B V 29;1XGT B T 73;11.7427
1XGT B V 29;1XGT B N 76;20.0118
1XGT B V 29;1XGT B Q 77;10.3172
1XGT B V 29;1XGT B Y 78;10.4149
1XGT B T 30;1XGT B S 31;19.4036
1XGT B T 30;1XGT B D 32;3.92018
1XGT B T 30;1XGT B Y 53;11.8083
1XGT B T 30;1XGT B R 71;15.2412
1XGT B T 30;1XGT B T 73;20.4804
1XGT B S 31;1XGT B D 32;28.7261
1XGT B S 31;1XGT B W 34;4.88425
1XGT B D 32;1XGT B L 33;31.6291
1XGT B D 32;1XGT B W 34;29.1949
1XGT B D 32;1XGT B I 51;0.173214
1XGT B D 32;1XGT B S 52;2.9499
1XGT B D 32;1XGT B Y 53;12.5306
1XGT B D 32;1XGT B S 97;11.9901
1XGT B D 32;1XGT B W 98;3.75467
1XGT B D 32;1XGT B G 99;2.2591
1XGT B D 32;1XGT B D 101;5.65302
1XGT B D 32;1XGT B V 102;0.00011223
1XGT B L 33;1XGT B W 34;22.724
1XGT B L 33;1XGT B Y 50;13.6224
1XGT B L 33;1XGT B I 51;5.68329
1XGT B L 33;1XGT B S 52;15.9505
1XGT B L 33;1XGT B Y 53;18.6368
1XGT B L 33;1XGT B S 97;3.38271
1XGT B L 33;1XGT B W 98;31.1816
1XGT B W 34;1XGT B S 35;17.9546
1XGT B W 34;1XGT B W 36;0.00395165
1XGT B W 34;1XGT B Y 50;9.75702
1XGT B W 34;1XGT B I 51;27.6129
1XGT B W 34;1XGT B S 52;2.38813
1XGT B W 34;1XGT B I 69;0.812845
1XGT B W 34;1XGT B Y 78;27.7282
1XGT B W 34;1XGT B A 96;5.84519
1XGT B W 34;1XGT B S 97;12.2786
1XGT B W 34;1XGT B W 98;3.89276
1XGT B W 34;1XGT B V 102;6.1699
1XGT B S 35;1XGT B W 36;24.1081
1XGT B S 35;1XGT B I 37;11.1255
1XGT B S 35;1XGT B Y 47;16.3136
1XGT B S 35;1XGT B G 49;6.18396
1XGT B S 35;1XGT B Y 50;8.9894
1XGT B S 35;1XGT B I 69;0.576794
1XGT B S 35;1XGT B Y 78;11.6765
1XGT B S 35;1XGT B Y 94;0.159294
1XGT B S 35;1XGT B C 95;5.95756
1XGT B S 35;1XGT B A 96;20.1697
1XGT B S 35;1XGT B S 97;4.0313
1XGT B S 35;1XGT B W 98;4.22151
1XGT B W 36;1XGT B I 37;22.8735
1XGT B W 36;1XGT B Y 47;2.55985
1XGT B W 36;1XGT B M 48;21.5858
1XGT B W 36;1XGT B G 49;11.4211
1XGT B W 36;1XGT B I 67;0.157352
1XGT B W 36;1XGT B I 69;18.6888
1XGT B W 36;1XGT B Y 78;19.6107
1XGT B W 36;1XGT B Y 79;10.2124
1XGT B W 36;1XGT B L 80;31.3903
1XGT B W 36;1XGT B Y 93;6.58705
1XGT B W 36;1XGT B Y 94;12.5619
1XGT B W 36;1XGT B C 95;13.3115
1XGT B I 37;1XGT B R 38;22.0645
1XGT B I 37;1XGT B L 45;11.8234
1XGT B I 37;1XGT B E 46;9.10309
1XGT B I 37;1XGT B Y 47;23.655
1XGT B I 37;1XGT B M 48;6.08655
1XGT B I 37;1XGT B T 92;0.239916
1XGT B I 37;1XGT B Y 93;4.491
1XGT B I 37;1XGT B Y 94;29.912
1XGT B I 37;1XGT B A 96;9.29913
1XGT B I 37;1XGT B S 97;0.475465
1XGT B I 37;1XGT B W 103;25.1622
1XGT B R 38;1XGT B K 39;18.1039
1XGT B R 38;1XGT B F 40;29.5139
1XGT B R 38;1XGT B K 44;1.50666
1XGT B R 38;1XGT B L 45;7.6106
1XGT B R 38;1XGT B E 46;33.5783
1XGT B R 38;1XGT B M 48;23.5276
1XGT B R 38;1XGT B L 63;11.5432
1XGT B R 38;1XGT B R 66;2.14711
1XGT B R 38;1XGT B L 82;7.82488
1XGT B R 38;1XGT B E 88;0.150872
1XGT B R 38;1XGT B D 89;18.3288
1XGT B R 38;1XGT B A 91;8.2804
1XGT B R 38;1XGT B T 92;5.83477
1XGT B R 38;1XGT B Y 93;23.5381
1XGT B R 38;1XGT B Y 94;1.85915
1XGT B K 39;1XGT B F 40;29.1156
1XGT B K 39;1XGT B P 41;1.00858
1XGT B K 39;1XGT B G 42;0.00510981
1XGT B K 39;1XGT B N 43;26.6844
1XGT B K 39;1XGT B K 44;8.43159
1XGT B K 39;1XGT B L 45;19.4532
1XGT B K 39;1XGT B A 91;10.0852
1XGT B K 39;1XGT B T 92;27.7658
1XGT B K 39;1XGT B Y 94;19.5565
1XGT B F 40;1XGT B P 41;39.1416
1XGT B F 40;1XGT B G 42;0.550527
1XGT B F 40;1XGT B N 43;4.77904
1XGT B F 40;1XGT B K 44;32.5689
1XGT B F 40;1XGT B L 45;0.901609
1XGT B F 40;1XGT B E 46;20.2675
1XGT B F 40;1XGT B E 88;15.3117
1XGT B F 40;1XGT B D 89;2.63407
1XGT B F 40;1XGT B T 90;5.87398
1XGT B F 40;1XGT B A 91;12.5448
1XGT B P 41;1XGT B G 42;29.6576
1XGT B P 41;1XGT B N 43;0.528262
1XGT B P 41;1XGT B K 44;8.80903
1XGT B P 41;1XGT B T 90;18.01
1XGT B P 41;1XGT B A 91;4.33691
1XGT B G 42;1XGT B N 43;32.0797
1XGT B G 42;1XGT B K 44;17.1113
1XGT B N 43;1XGT B K 44;22.5236
1XGT B N 43;1XGT B L 45;4.08742
1XGT B K 44;1XGT B L 45;25.8137
1XGT B K 44;1XGT B E 46;0.441647
1XGT B L 45;1XGT B E 46;24.7948
1XGT B L 45;1XGT B Y 94;5.61249
1XGT B L 45;1XGT B W 103;2.37349
1XGT B E 46;1XGT B Y 47;22.8363
1XGT B E 46;1XGT B M 48;11.9075
1XGT B E 46;1XGT B H 60;19.1073
1XGT B E 46;1XGT B S 62;8.36642
1XGT B E 46;1XGT B L 63;14.399
1XGT B Y 47;1XGT B M 48;17.1225
1XGT B Y 47;1XGT B G 49;11.2856
1XGT B Y 47;1XGT B Y 50;9.59851
1XGT B Y 47;1XGT B H 60;13.4783
1XGT B Y 47;1XGT B S 97;1.32671
1XGT B Y 47;1XGT B W 98;16.863
1XGT B M 48;1XGT B G 49;19.789
1XGT B M 48;1XGT B Y 59;3.2603
1XGT B M 48;1XGT B H 60;13.3858
1XGT B M 48;1XGT B L 63;19.1936
1XGT B M 48;1XGT B I 67;19.2518
1XGT B M 48;1XGT B I 69;0.377921
1XGT B M 48;1XGT B L 80;14.6306
1XGT B M 48;1XGT B L 82;12.4957
1XGT B M 48;1XGT B Y 93;13.1102
1XGT B G 49;1XGT B Y 50;15.8533
1XGT B G 49;1XGT B Y 58;5.2898
1XGT B G 49;1XGT B Y 59;3.06479
1XGT B G 49;1XGT B H 60;0.0870764
1XGT B G 49;1XGT B I 67;0.445199
1XGT B G 49;1XGT B I 69;11.7957
1XGT B Y 50;1XGT B I 51;21.9975
1XGT B Y 50;1XGT B S 52;7.71754
1XGT B Y 50;1XGT B S 56;0.000178227
1XGT B Y 50;1XGT B T 57;8.82629
1XGT B Y 50;1XGT B Y 58;36.3559
1XGT B Y 50;1XGT B Y 59;0.0502144
1XGT B Y 50;1XGT B I 69;10.4458
1XGT B Y 50;1XGT B W 98;16.634
1XGT B I 51;1XGT B S 52;27.3723
1XGT B I 51;1XGT B G 55;16.5982
1XGT B I 51;1XGT B S 56;5.70871
1XGT B I 51;1XGT B T 57;13.1275
1XGT B I 51;1XGT B I 69;21.9818
1XGT B I 51;1XGT B T 70;8.89263
1XGT B I 51;1XGT B R 71;19.5252
1XGT B I 51;1XGT B Y 78;11.8963
1XGT B S 52;1XGT B Y 53;27.2672
1XGT B S 52;1XGT B S 54;7.03162
1XGT B S 52;1XGT B G 55;7.63059
1XGT B S 52;1XGT B S 56;16.8726
1XGT B S 52;1XGT B T 57;0.169685
1XGT B S 52;1XGT B R 71;6.74512
1XGT B Y 53;1XGT B S 54;33.1545
1XGT B Y 53;1XGT B G 55;0.871728
1XGT B Y 53;1XGT B R 71;14.8743
1XGT B S 54;1XGT B G 55;21.8081
1XGT B S 54;1XGT B S 56;14.2426
1XGT B S 54;1XGT B R 71;14.2472
1XGT B G 55;1XGT B S 56;25.0835
1XGT B G 55;1XGT B T 57;7.25709
1XGT B G 55;1XGT B I 69;0.0394581
1XGT B G 55;1XGT B R 71;13.6802
1XGT B S 56;1XGT B T 57;30.9998
1XGT B S 56;1XGT B Y 58;1.70177
1XGT B T 57;1XGT B Y 58;37.4827
1XGT B T 57;1XGT B Y 59;26.7282
1XGT B T 57;1XGT B I 69;13.4533
1XGT B Y 58;1XGT B Y 59;27.1917
1XGT B Y 58;1XGT B I 69;0.807925
1XGT B Y 59;1XGT B H 60;19.4431
1XGT B Y 59;1XGT B P 61;6.40868
1XGT B Y 59;1XGT B K 64;36.9505
1XGT B Y 59;1XGT B I 67;32.0807
1XGT B Y 59;1XGT B S 68;12.6517
1XGT B Y 59;1XGT B I 69;25.6494
1XGT B Y 59;1XGT B T 70;0.135167
1XGT B H 60;1XGT B P 61;23.5411
1XGT B H 60;1XGT B S 62;20.7773
1XGT B H 60;1XGT B L 63;19.378
1XGT B H 60;1XGT B K 64;7.02402
1XGT B H 60;1XGT B I 67;0.738805
1XGT B P 61;1XGT B S 62;26.6581
1XGT B P 61;1XGT B L 63;2.58222
1XGT B P 61;1XGT B K 64;24.0038
1XGT B S 62;1XGT B L 63;33.1499
1XGT B S 62;1XGT B K 64;0.0211515
1XGT B S 62;1XGT B S 65;0.195328
1XGT B S 62;1XGT B R 66;3.66446
1XGT B L 63;1XGT B K 64;15.9537
1XGT B L 63;1XGT B S 65;7.2236
1XGT B L 63;1XGT B R 66;26.4443
1XGT B L 63;1XGT B I 67;23.9325
1XGT B L 63;1XGT B L 82;10.4957
1XGT B K 64;1XGT B S 65;34.5142
1XGT B K 64;1XGT B I 67;6.78936
1XGT B S 65;1XGT B R 66;36.7196
1XGT B S 65;1XGT B I 67;6.13661
1XGT B S 65;1XGT B N 83;3.49839
1XGT B R 66;1XGT B I 67;22.548
1XGT B R 66;1XGT B S 68;0.686181
1XGT B R 66;1XGT B Q 81;4.99693
1XGT B R 66;1XGT B L 82;26.5686
1XGT B R 66;1XGT B N 83;38.2429
1XGT B R 66;1XGT B S 84;20.3739
1XGT B R 66;1XGT B V 85;4.65466
1XGT B R 66;1XGT B T 86;0.361627
1XGT B R 66;1XGT B D 89;19.6704
1XGT B I 67;1XGT B S 68;28.271
1XGT B I 67;1XGT B I 69;10.1207
1XGT B I 67;1XGT B L 80;13.34
1XGT B I 67;1XGT B Q 81;6.58134
1XGT B I 67;1XGT B L 82;10.7839
1XGT B S 68;1XGT B I 69;20.4935
1XGT B S 68;1XGT B T 70;13.7294
1XGT B S 68;1XGT B Y 79;1.68386
1XGT B S 68;1XGT B L 80;5.22184
1XGT B S 68;1XGT B Q 81;38.7132
1XGT B I 69;1XGT B T 70;29.7399
1XGT B I 69;1XGT B Y 78;6.61057
1XGT B I 69;1XGT B Y 79;9.72195
1XGT B I 69;1XGT B L 80;6.57719
1XGT B T 70;1XGT B R 71;25.3739
1XGT B T 70;1XGT B Y 78;6.21111
1XGT B T 70;1XGT B Y 79;32.3402
1XGT B R 71;1XGT B D 72;25.3983
1XGT B R 71;1XGT B T 73;18.5027
1XGT B R 71;1XGT B Q 77;3.86828
1XGT B R 71;1XGT B Y 78;10.8464
1XGT B R 71;1XGT B Y 79;7.46063
1XGT B D 72;1XGT B T 73;22.3711
1XGT B D 72;1XGT B S 74;14.946
1XGT B D 72;1XGT B K 75;31.1109
1XGT B D 72;1XGT B N 76;5.64854
1XGT B D 72;1XGT B Q 77;15.123
1XGT B D 72;1XGT B Y 79;16.2814
1XGT B T 73;1XGT B S 74;29.8444
1XGT B T 73;1XGT B K 75;1.45477
1XGT B T 73;1XGT B N 76;13.5937
1XGT B S 74;1XGT B K 75;32.1387
1XGT B S 74;1XGT B N 76;1.93931
1XGT B K 75;1XGT B N 76;27.2496
1XGT B K 75;1XGT B Q 77;32.5144
1XGT B K 75;1XGT B Y 79;14.7971
1XGT B N 76;1XGT B Q 77;19.5113
1XGT B Q 77;1XGT B Y 78;18.2116
1XGT B Q 77;1XGT B Y 79;20.212
1XGT B Y 78;1XGT B Y 79;24.5097
1XGT B Y 78;1XGT B C 95;7.68906
1XGT B Y 78;1XGT B A 96;6.55712
1XGT B Y 79;1XGT B L 80;22.8474
1XGT B Y 79;1XGT B Q 81;0.30479
1XGT B L 80;1XGT B Q 81;28.7531
1XGT B L 80;1XGT B L 82;7.67054
1XGT B L 80;1XGT B Y 93;10.2152
1XGT B Q 81;1XGT B L 82;19.6309
1XGT B Q 81;1XGT B N 83;21.6597
1XGT B L 82;1XGT B N 83;20.3293
1XGT B L 82;1XGT B V 85;13.7246
1XGT B L 82;1XGT B D 89;7.92113
1XGT B L 82;1XGT B Y 93;5.63511
1XGT B N 83;1XGT B S 84;29.4303
1XGT B N 83;1XGT B V 85;5.22948
1XGT B S 84;1XGT B V 85;18.0773
1XGT B S 84;1XGT B T 86;10.073
1XGT B S 84;1XGT B D 89;0.116999
1XGT B V 85;1XGT B T 86;23.4186
1XGT B V 85;1XGT B D 89;12.9211
1XGT B V 85;1XGT B V 111;16.1381
1XGT B T 86;1XGT B T 87;19.4153
1XGT B T 86;1XGT B E 88;25.2833
1XGT B T 86;1XGT B D 89;19.6783
1XGT B T 86;1XGT B T 90;0.109204
1XGT B T 86;1XGT B V 111;12.1293
1XGT B T 87;1XGT B E 88;37.1826
1XGT B T 87;1XGT B D 89;1.99312
1XGT B T 87;1XGT B T 90;18.3955
1XGT B T 87;1XGT B V 111;20.8769
1XGT B T 87;1XGT B S 112;5.54247
1XGT B T 87;1XGT B L 170;3.28783
1XGT B T 87;1XGT B D 173;1.66607
1XGT B E 88;1XGT B D 89;21.5018
1XGT B E 88;1XGT B T 90;5.96969
1XGT B D 89;1XGT B T 90;18.4626
1XGT B D 89;1XGT B A 91;5.0491
1XGT B D 89;1XGT B Y 93;12.1228
1XGT B D 89;1XGT B V 109;1.87388
1XGT B D 89;1XGT B V 111;9.40137
1XGT B T 90;1XGT B A 91;24.1229
1XGT B T 90;1XGT B T 108;4.1695
1XGT B T 90;1XGT B V 109;7.52107
1XGT B T 90;1XGT B T 110;20.9351
1XGT B T 90;1XGT B V 111;18.4593
1XGT B T 90;1XGT B Y 175;0.787013
1XGT B A 91;1XGT B T 92;21.7945
1XGT B A 91;1XGT B Y 93;15.9754
1XGT B A 91;1XGT B T 107;0.350881
1XGT B A 91;1XGT B T 108;9.67975
1XGT B A 91;1XGT B V 109;12.4008
1XGT B T 92;1XGT B Y 93;21.2324
1XGT B T 92;1XGT B Y 94;25.639
1XGT B T 92;1XGT B A 105;1.11341
1XGT B T 92;1XGT B G 106;6.4763
1XGT B T 92;1XGT B T 107;7.63051
1XGT B T 92;1XGT B T 108;20.5038
1XGT B Y 93;1XGT B Y 94;20.8288
1XGT B Y 93;1XGT B G 106;4.89912
1XGT B Y 93;1XGT B T 107;20.9557
1XGT B Y 93;1XGT B V 109;14.2473
1XGT B Y 94;1XGT B C 95;21.0452
1XGT B Y 94;1XGT B A 96;0.779187
1XGT B Y 94;1XGT B W 103;17.327
1XGT B Y 94;1XGT B G 104;6.15246
1XGT B Y 94;1XGT B A 105;9.08424
1XGT B Y 94;1XGT B G 106;10.9553
1XGT B C 95;1XGT B A 96;18.7667
1XGT B C 95;1XGT B W 103;5.0348
1XGT B C 95;1XGT B G 104;9.32554
1XGT B A 96;1XGT B S 97;23.4345
1XGT B A 96;1XGT B W 98;0.13543
1XGT B A 96;1XGT B G 100;2.89732
1XGT B A 96;1XGT B V 102;6.36653
1XGT B A 96;1XGT B W 103;19.2298
1XGT B S 97;1XGT B W 98;19.9046
1XGT B S 97;1XGT B G 99;5.38081
1XGT B S 97;1XGT B G 100;13.7825
1XGT B S 97;1XGT B D 101;12.9278
1XGT B S 97;1XGT B V 102;22.3384
1XGT B W 98;1XGT B G 99;35.1188
1XGT B W 98;1XGT B G 100;4.8277
1XGT B G 99;1XGT B G 100;15.7771
1XGT B G 99;1XGT B D 101;15.8946
1XGT B G 100;1XGT B D 101;18.1265
1XGT B G 100;1XGT B V 102;3.5524
1XGT B G 100;1XGT B W 103;17.4465
1XGT B D 101;1XGT B V 102;32.7388
1XGT B D 101;1XGT B W 103;2.10553
1XGT B V 102;1XGT B W 103;35.3824
1XGT B W 103;1XGT B G 104;27.3409
1XGT B W 103;1XGT B A 105;0.0975273
1XGT B G 104;1XGT B A 105;21.4554
1XGT B G 104;1XGT B G 106;2.70196
1XGT B A 105;1XGT B G 106;28.4601
1XGT B G 106;1XGT B T 107;25.2935
1XGT B T 107;1XGT B T 108;31.7005
1XGT B T 107;1XGT B V 109;7.64087
1XGT B T 108;1XGT B V 109;25.2953
1XGT B T 108;1XGT B T 110;13.5703
1XGT B V 109;1XGT B T 110;22.3757
1XGT B V 109;1XGT B V 111;5.14735
1XGT B T 110;1XGT B V 111;23.4873
1XGT B T 110;1XGT B S 112;8.85734
1XGT B T 110;1XGT B F 146;7.12998
1XGT B T 110;1XGT B L 170;1.58186
1XGT B T 110;1XGT B Y 175;19.3704
1XGT B V 111;1XGT B S 112;21.9625
1XGT B S 112;1XGT B S 113;21.7907
1XGT B S 112;1XGT B A 114;16.2342
1XGT B S 112;1XGT B F 146;14.2455
1XGT B S 112;1XGT B L 170;1.46772
1XGT B S 112;1XGT B D 173;7.5204
1XGT B S 113;1XGT B A 114;29.6915
1XGT B S 113;1XGT B K 115;9.01065
1XGT B S 113;1XGT B D 173;4.47063
1XGT B A 114;1XGT B K 115;30.467
1XGT B A 114;1XGT B T 116;0.184446
1XGT B A 114;1XGT B F 146;23.6223
1XGT B A 114;1XGT B D 173;13.5889
1XGT B A 114;1XGT B L 174;9.94333
1XGT B K 115;1XGT B T 116;31.7847
1XGT B K 115;1XGT B T 117;11.8365
1XGT B K 115;1XGT B F 146;9.16883
1XGT B K 115;1XGT B L 174;1.392
1XGT B T 116;1XGT B T 117;27.1452
1XGT B T 116;1XGT B F 146;11.6376
1XGT B T 116;1XGT B P 147;11.6451
1XGT B T 116;1XGT B H 199;2.60457
1XGT B T 116;1XGT B A 201;17.754
1XGT B T 116;1XGT B S 202;13.2849
1XGT B T 117;1XGT B A 118;32.728
1XGT B T 117;1XGT B P 119;0.195612
1XGT B T 117;1XGT B G 144;10.6069
1XGT B T 117;1XGT B Y 145;8.50359
1XGT B T 117;1XGT B F 146;16.4889
1XGT B T 117;1XGT B L 174;17.9693
1XGT B T 117;1XGT B H 199;6.24496
1XGT B T 117;1XGT B S 202;1.42552
1XGT B A 118;1XGT B P 119;32.4814
1XGT B A 118;1XGT B S 120;2.26852
1XGT B A 118;1XGT B K 143;0.227384
1XGT B A 118;1XGT B G 144;5.05732
1XGT B A 118;1XGT B Y 145;1.74654
1XGT B A 118;1XGT B H 199;2.74291
1XGT B A 118;1XGT B S 202;15.0257
1XGT B A 118;1XGT B T 204;16.0747
1XGT B P 119;1XGT B S 120;26.142
1XGT B P 119;1XGT B V 121;11.3886
1XGT B P 119;1XGT B V 142;10.7026
1XGT B P 119;1XGT B K 143;6.61549
1XGT B P 119;1XGT B G 144;2.25611
1XGT B P 119;1XGT B Y 145;17.843
1XGT B P 119;1XGT B V 150;5.08662
1XGT B P 119;1XGT B V 197;8.82812
1XGT B P 119;1XGT B H 199;14.3361
1XGT B P 119;1XGT B S 202;0.330311
1XGT B P 119;1XGT B T 204;6.63187
1XGT B P 119;1XGT B V 206;7.67402
1XGT B S 120;1XGT B V 121;24.5369
1XGT B S 120;1XGT B Y 122;28.4299
1XGT B S 120;1XGT B L 141;2.35855
1XGT B S 120;1XGT B V 142;4.00928
1XGT B S 120;1XGT B K 143;25.206
1XGT B V 121;1XGT B Y 122;29.4785
1XGT B V 121;1XGT B P 123;1.37298
1XGT B V 121;1XGT B C 140;11.3255
1XGT B V 121;1XGT B L 141;4.8857
1XGT B V 121;1XGT B V 142;9.42892
1XGT B V 121;1XGT B C 195;3.90113
1XGT B V 121;1XGT B V 197;16.7481
1XGT B V 121;1XGT B V 206;21.985
1XGT B V 121;1XGT B D 207;0.0262706
1XGT B V 121;1XGT B K 208;29.2661
1XGT B Y 122;1XGT B P 123;26.007
1XGT B Y 122;1XGT B L 124;6.7437
1XGT B Y 122;1XGT B C 140;7.63317
1XGT B Y 122;1XGT B L 141;33.832
1XGT B Y 122;1XGT B K 143;13.9906
1XGT B Y 122;1XGT B K 208;1.78582
1XGT B P 123;1XGT B L 124;26.403
1XGT B P 123;1XGT B A 125;6.1715
1XGT B P 123;1XGT B G 139;1.52733
1XGT B P 123;1XGT B C 140;2.33316
1XGT B P 123;1XGT B K 208;19.3267
1XGT B P 123;1XGT B K 209;6.36156
1XGT B P 123;1XGT B I 210;20.556
1XGT B L 124;1XGT B A 125;19.5457
1XGT B L 124;1XGT B L 138;5.88326
1XGT B L 124;1XGT B G 139;24.0172
1XGT B L 124;1XGT B C 140;10.0802
1XGT B L 124;1XGT B L 141;16.9283
1XGT B L 124;1XGT B S 178;3.59983
1XGT B L 124;1XGT B S 179;0.15013
1XGT B L 124;1XGT B I 210;9.02643
1XGT B A 125;1XGT B P 126;31.2901
1XGT B A 125;1XGT B V 127;2.18519
1XGT B A 125;1XGT B G 129;2.149
1XGT B A 125;1XGT B L 138;3.68677
1XGT B A 125;1XGT B W 188;7.81639
1XGT B A 125;1XGT B I 210;17.1261
1XGT B P 126;1XGT B V 127;27.5705
1XGT B P 126;1XGT B C 128;1.83778
1XGT B P 126;1XGT B G 129;17.5176
1XGT B P 126;1XGT B D 130;19.8728
1XGT B P 126;1XGT B T 131;0.144442
1XGT B P 126;1XGT B V 136;12.379
1XGT B P 126;1XGT B T 137;3.55424
1XGT B P 126;1XGT B L 138;9.27143
1XGT B P 126;1XGT B W 188;12.3356
1XGT B V 127;1XGT B C 128;33.8736
1XGT B V 127;1XGT B G 129;2.23153
1XGT B V 127;1XGT B D 130;10.4767
1XGT B C 128;1XGT B G 129;25.6736
1XGT B C 128;1XGT B D 130;24.4959
1XGT B G 129;1XGT B D 130;22.8037
1XGT B G 129;1XGT B T 131;4.74157
1XGT B G 129;1XGT B W 188;12.389
1XGT B G 129;1XGT B P 189;1.38627
1XGT B D 130;1XGT B T 131;36.3587
1XGT B D 130;1XGT B T 132;7.03029
1XGT B D 130;1XGT B V 136;1.33557
1XGT B D 130;1XGT B W 188;0.369783
1XGT B T 131;1XGT B T 132;38.8029
1XGT B T 131;1XGT B G 133;2.47369
1XGT B T 131;1XGT B S 135;2.65801
1XGT B T 131;1XGT B V 136;18.2317
1XGT B T 131;1XGT B S 185;18.807
1XGT B T 131;1XGT B W 188;13.4406
1XGT B T 131;1XGT B P 189;7.55785
1XGT B T 132;1XGT B G 133;42.598
1XGT B T 132;1XGT B S 135;4.65854
1XGT B T 132;1XGT B V 136;0.144839
1XGT B G 133;1XGT B S 134;25.7649
1XGT B G 133;1XGT B S 135;13.8668
1XGT B G 133;1XGT B S 185;10.0999
1XGT B S 134;1XGT B S 135;23.121
1XGT B S 134;1XGT B T 184;10.5796
1XGT B S 134;1XGT B S 185;16.1638
1XGT B S 134;1XGT B S 186;0.0822299
1XGT B S 135;1XGT B V 136;25.438
1XGT B S 135;1XGT B T 137;1.27763
1XGT B S 135;1XGT B T 182;14.2977
1XGT B S 135;1XGT B V 183;6.97804
1XGT B S 135;1XGT B T 184;7.22292
1XGT B S 135;1XGT B S 185;9.35694
1XGT B V 136;1XGT B T 137;31.1187
1XGT B V 136;1XGT B L 138;15.5006
1XGT B V 136;1XGT B V 181;0.718672
1XGT B V 136;1XGT B T 182;7.07625
1XGT B V 136;1XGT B V 183;22.3487
1XGT B V 136;1XGT B T 184;3.61875
1XGT B V 136;1XGT B S 185;6.88442
1XGT B V 136;1XGT B W 188;18.4232
1XGT B T 137;1XGT B L 138;22.9509
1XGT B T 137;1XGT B S 180;6.44965
1XGT B T 137;1XGT B V 181;7.26452
1XGT B T 137;1XGT B T 182;24.4991
1XGT B L 138;1XGT B G 139;19.7552
1XGT B L 138;1XGT B W 154;2.68038
1XGT B L 138;1XGT B S 180;6.48986
1XGT B L 138;1XGT B V 181;27.5002
1XGT B L 138;1XGT B V 183;7.18127
1XGT B L 138;1XGT B W 188;20.1919
1XGT B L 138;1XGT B I 193;12.1228
1XGT B L 138;1XGT B I 210;17.5869
1XGT B G 139;1XGT B C 140;15.3614
1XGT B G 139;1XGT B W 154;10.9063
1XGT B G 139;1XGT B S 179;5.05411
1XGT B G 139;1XGT B S 180;1.97794
1XGT B G 139;1XGT B I 210;8.5191
1XGT B C 140;1XGT B L 141;19.0465
1XGT B C 140;1XGT B V 142;7.2022
1XGT B C 140;1XGT B L 152;8.91853
1XGT B C 140;1XGT B W 154;8.93573
1XGT B C 140;1XGT B L 177;0.296333
1XGT B C 140;1XGT B S 178;7.12013
1XGT B C 140;1XGT B S 179;15.6986
1XGT B C 140;1XGT B C 195;19.3818
1XGT B C 140;1XGT B V 197;1.74946
1XGT B C 140;1XGT B K 208;1.85042
1XGT B C 140;1XGT B I 210;1.52936
1XGT B L 141;1XGT B V 142;20.2602
1XGT B L 141;1XGT B K 143;15.5562
1XGT B L 141;1XGT B T 176;14.9572
1XGT B L 141;1XGT B L 177;6.29764
1XGT B L 141;1XGT B S 178;11.9377
1XGT B V 142;1XGT B K 143;16.8155
1XGT B V 142;1XGT B Y 145;14.1949
1XGT B V 142;1XGT B V 150;10.1257
1XGT B V 142;1XGT B L 152;9.71187
1XGT B V 142;1XGT B Y 175;0.624086
1XGT B V 142;1XGT B T 176;6.82442
1XGT B V 142;1XGT B L 177;27.9073
1XGT B V 142;1XGT B S 178;0.109641
1XGT B V 142;1XGT B V 197;15.869
1XGT B K 143;1XGT B G 144;29.8684
1XGT B K 143;1XGT B Y 145;2.6167
1XGT B K 143;1XGT B Q 171;18.1157
1XGT B K 143;1XGT B Y 175;0.827589
1XGT B K 143;1XGT B T 176;15.7659
1XGT B G 144;1XGT B Y 145;17.3669
1XGT B G 144;1XGT B L 174;24.2991
1XGT B G 144;1XGT B Y 175;7.2369
1XGT B G 144;1XGT B T 176;4.14121
1XGT B Y 145;1XGT B F 146;20.3599
1XGT B Y 145;1XGT B P 147;6.05053
1XGT B Y 145;1XGT B E 148;13.8049
1XGT B Y 145;1XGT B P 149;4.00262
1XGT B Y 145;1XGT B V 150;25.0311
1XGT B Y 145;1XGT B A 168;9.32299
1XGT B Y 145;1XGT B L 174;7.42539
1XGT B Y 145;1XGT B Y 175;36.2281
1XGT B Y 145;1XGT B T 176;3.38551
1XGT B Y 145;1XGT B L 177;12.2146
1XGT B Y 145;1XGT B H 199;8.80816
1XGT B F 146;1XGT B P 147;41.3269
1XGT B F 146;1XGT B L 170;2.0216
1XGT B F 146;1XGT B D 173;7.34478
1XGT B F 146;1XGT B L 174;10.5848
1XGT B F 146;1XGT B Y 175;19.8034
1XGT B F 146;1XGT B H 199;8.63464
1XGT B F 146;1XGT B A 201;0.00520214
1XGT B P 147;1XGT B E 148;36.7162
1XGT B P 147;1XGT B P 149;1.50046
1XGT B P 147;1XGT B Y 175;5.00154
1XGT B P 147;1XGT B H 199;10.8757
1XGT B P 147;1XGT B A 201;18.8573
1XGT B E 148;1XGT B P 149;43.1736
1XGT B E 148;1XGT B A 168;17.3878
1XGT B E 148;1XGT B Y 175;34.2824
1XGT B E 148;1XGT B L 177;0.0139705
1XGT B E 148;1XGT B A 201;1.61
1XGT B P 149;1XGT B V 150;32.4514
1XGT B P 149;1XGT B T 151;5.8955
1XGT B P 149;1XGT B H 199;8.85739
1XGT B P 149;1XGT B P 200;16.7326
1XGT B P 149;1XGT B A 201;1.29775
1XGT B V 150;1XGT B T 151;30.1573
1XGT B V 150;1XGT B L 152;5.91625
1XGT B V 150;1XGT B L 177;17.9525
1XGT B V 150;1XGT B V 197;10.9362
1XGT B V 150;1XGT B A 198;7.83416
1XGT B V 150;1XGT B H 199;12.8016
1XGT B V 150;1XGT B P 200;2.46156
1XGT B T 151;1XGT B L 152;26.7063
1XGT B T 151;1XGT B T 153;7.61516
1XGT B T 151;1XGT B N 196;3.4546
1XGT B T 151;1XGT B V 197;6.69927
1XGT B T 151;1XGT B A 198;28.6876
1XGT B T 151;1XGT B P 200;9.8142
1XGT B L 152;1XGT B T 153;37.2836
1XGT B L 152;1XGT B W 154;13.2215
1XGT B L 152;1XGT B V 163;0.248155
1XGT B L 152;1XGT B T 165;17.969
1XGT B L 152;1XGT B L 177;11.8946
1XGT B L 152;1XGT B S 178;0.0184043
1XGT B L 152;1XGT B S 179;15.8627
1XGT B L 152;1XGT B C 195;10.4595
1XGT B L 152;1XGT B N 196;6.3178
1XGT B L 152;1XGT B V 197;11.1066
1XGT B T 153;1XGT B W 154;26.6318
1XGT B T 153;1XGT B S 156;7.9829
1XGT B T 153;1XGT B G 157;14.7964
1XGT B T 153;1XGT B T 194;0.386933
1XGT B T 153;1XGT B C 195;4.58416
1XGT B T 153;1XGT B N 196;32.3821
1XGT B W 154;1XGT B N 155;17.5288
1XGT B W 154;1XGT B S 156;1.44104
1XGT B W 154;1XGT B G 157;9.05761
1XGT B W 154;1XGT B S 158;1.34887
1XGT B W 154;1XGT B L 159;30.3175
1XGT B W 154;1XGT B V 163;18.117
1XGT B W 154;1XGT B S 179;14.3999
1XGT B W 154;1XGT B S 180;4.29151
1XGT B W 154;1XGT B V 181;24.6532
1XGT B W 154;1XGT B I 193;12.107
1XGT B W 154;1XGT B T 194;10.1542
1XGT B W 154;1XGT B C 195;14.9511
1XGT B W 154;1XGT B N 196;1.91267
1XGT B W 154;1XGT B I 210;10.8874
1XGT B N 155;1XGT B S 156;25.1517
1XGT B N 155;1XGT B G 157;1.85178
1XGT B N 155;1XGT B S 158;22.0738
1XGT B N 155;1XGT B L 159;19.9656
1XGT B N 155;1XGT B Q 191;12.7285
1XGT B N 155;1XGT B S 192;11.9337
1XGT B N 155;1XGT B I 193;12.8324
1XGT B N 155;1XGT B T 194;24.7679
1XGT B N 155;1XGT B N 196;4.03026
1XGT B S 156;1XGT B G 157;21.1183
1XGT B S 156;1XGT B S 158;4.89397
1XGT B S 156;1XGT B N 196;22.2917
1XGT B S 156;1XGT B K 205;2.79326
1XGT B G 157;1XGT B S 158;21.995
1XGT B G 157;1XGT B L 159;8.18823
1XGT B G 157;1XGT B S 160;13.1242
1XGT B S 158;1XGT B L 159;22.9733
1XGT B S 158;1XGT B S 160;5.79777
1XGT B L 159;1XGT B S 160;25.963
1XGT B L 159;1XGT B S 161;11.0233
1XGT B L 159;1XGT B V 163;6.6384
1XGT B L 159;1XGT B V 181;15.3123
1XGT B L 159;1XGT B T 182;0.000407912
1XGT B L 159;1XGT B V 183;18.5743
1XGT B L 159;1XGT B T 187;3.54942
1XGT B L 159;1XGT B Q 191;0.0245524
1XGT B L 159;1XGT B I 193;16.567
1XGT B S 160;1XGT B S 161;34.9177
1XGT B S 160;1XGT B G 162;0.0375141
1XGT B S 160;1XGT B V 163;17.2243
1XGT B S 161;1XGT B G 162;26.8225
1XGT B S 161;1XGT B V 163;8.44672
1XGT B S 161;1XGT B V 181;4.68664
1XGT B S 161;1XGT B T 182;4.7652
1XGT B S 161;1XGT B V 183;0.165894
1XGT B G 162;1XGT B V 163;22.5761
1XGT B G 162;1XGT B H 164;7.09058
1XGT B G 162;1XGT B S 180;2.36618
1XGT B G 162;1XGT B V 181;5.90291
1XGT B G 162;1XGT B T 182;26.7512
1XGT B V 163;1XGT B H 164;34.1152
1XGT B V 163;1XGT B T 165;13.5403
1XGT B V 163;1XGT B S 179;4.53672
1XGT B V 163;1XGT B S 180;7.08069
1XGT B V 163;1XGT B V 181;11.3354
1XGT B H 164;1XGT B T 165;21.9311
1XGT B H 164;1XGT B F 166;16.228
1XGT B H 164;1XGT B S 179;5.70315
1XGT B H 164;1XGT B S 180;23.401
1XGT B H 164;1XGT B T 182;1.4047
1XGT B T 165;1XGT B F 166;26.0898
1XGT B T 165;1XGT B P 167;2.8267
1XGT B T 165;1XGT B L 177;16.2399
1XGT B T 165;1XGT B S 178;3.4725
1XGT B T 165;1XGT B S 179;14.5321
1XGT B F 166;1XGT B P 167;31.5969
1XGT B F 166;1XGT B A 168;0.870569
1XGT B F 166;1XGT B L 177;13.6252
1XGT B F 166;1XGT B S 178;21.7628
1XGT B F 166;1XGT B S 179;1.61064
1XGT B F 166;1XGT B S 180;4.20112
1XGT B P 167;1XGT B A 168;31.9807
1XGT B P 167;1XGT B V 169;4.97668
1XGT B P 167;1XGT B T 176;0.905326
1XGT B P 167;1XGT B L 177;3.78699
1XGT B A 168;1XGT B V 169;27.0382
1XGT B A 168;1XGT B Y 175;12.5283
1XGT B A 168;1XGT B T 176;8.82624
1XGT B A 168;1XGT B L 177;16.2233
1XGT B V 169;1XGT B L 170;28.1592
1XGT B V 169;1XGT B Q 171;4.80096
1XGT B V 169;1XGT B L 174;0.636217
1XGT B V 169;1XGT B Y 175;9.92437
1XGT B V 169;1XGT B T 176;28.4927
1XGT B L 170;1XGT B Q 171;21.0949
1XGT B L 170;1XGT B S 172;1.94391
1XGT B L 170;1XGT B D 173;24.1471
1XGT B L 170;1XGT B L 174;9.11958
1XGT B L 170;1XGT B Y 175;31.1003
1XGT B Q 171;1XGT B S 172;35.315
1XGT B Q 171;1XGT B D 173;2.24345
1XGT B Q 171;1XGT B L 174;23.1863
1XGT B Q 171;1XGT B T 176;23.9902
1XGT B S 172;1XGT B D 173;31.9751
1XGT B S 172;1XGT B L 174;13.5788
1XGT B D 173;1XGT B L 174;24.4712
1XGT B D 173;1XGT B Y 175;0.0635872
1XGT B L 174;1XGT B Y 175;20.9589
1XGT B L 174;1XGT B T 176;1.45894
1XGT B Y 175;1XGT B T 176;20.4188
1XGT B T 176;1XGT B L 177;24.3642
1XGT B T 176;1XGT B S 178;0.0852118
1XGT B L 177;1XGT B S 178;32.9
1XGT B L 177;1XGT B S 179;1.21544
1XGT B S 178;1XGT B S 179;18.6402
1XGT B S 179;1XGT B S 180;18.3247
1XGT B S 180;1XGT B V 181;20.3442
1XGT B S 180;1XGT B T 182;2.42543
1XGT B V 181;1XGT B T 182;22.9009
1XGT B V 181;1XGT B V 183;8.18222
1XGT B V 181;1XGT B I 193;7.58706
1XGT B T 182;1XGT B V 183;33.0975
1XGT B V 183;1XGT B T 184;27.5433
1XGT B V 183;1XGT B T 187;18.7789
1XGT B V 183;1XGT B W 188;6.29451
1XGT B V 183;1XGT B I 193;11.6733
1XGT B T 184;1XGT B S 185;15.7811
1XGT B T 184;1XGT B S 186;19.5509
1XGT B T 184;1XGT B T 187;24.4184
1XGT B T 184;1XGT B W 188;3.05324
1XGT B S 185;1XGT B S 186;25.6016
1XGT B S 185;1XGT B T 187;2.02931
1XGT B S 185;1XGT B W 188;16.2447
1XGT B S 185;1XGT B P 189;0.000823278
1XGT B S 185;1XGT B S 190;1.70102
1XGT B S 186;1XGT B T 187;22.5037
1XGT B S 186;1XGT B W 188;0.705337
1XGT B S 186;1XGT B S 190;16.8514
1XGT B T 187;1XGT B W 188;20.3879
1XGT B T 187;1XGT B S 190;7.58303
1XGT B T 187;1XGT B Q 191;31.7263
1XGT B T 187;1XGT B I 193;8.44636
1XGT B W 188;1XGT B P 189;54.4075
1XGT B W 188;1XGT B S 190;6.04155
1XGT B W 188;1XGT B Q 191;9.17685
1XGT B W 188;1XGT B S 192;2.33949
1XGT B W 188;1XGT B I 193;22.6113
1XGT B W 188;1XGT B I 210;28.3709
1XGT B P 189;1XGT B S 190;30.2368
1XGT B P 189;1XGT B Q 191;7.88524
1XGT B P 189;1XGT B S 192;2.86264
1XGT B S 190;1XGT B Q 191;26.006
1XGT B S 190;1XGT B S 192;2.46702
1XGT B Q 191;1XGT B S 192;36.6927
1XGT B Q 191;1XGT B I 193;8.08393
1XGT B S 192;1XGT B I 193;24.5523
1XGT B S 192;1XGT B T 194;7.93983
1XGT B S 192;1XGT B K 209;22.5688
1XGT B I 193;1XGT B T 194;21.2805
1XGT B I 193;1XGT B K 208;0.00283067
1XGT B I 193;1XGT B K 209;8.37724
1XGT B I 193;1XGT B I 210;21.1564
1XGT B T 194;1XGT B C 195;21.0123
1XGT B T 194;1XGT B N 196;13.1115
1XGT B T 194;1XGT B D 207;12.2197
1XGT B T 194;1XGT B K 208;10.8499
1XGT B T 194;1XGT B K 209;17.8693
1XGT B T 194;1XGT B I 210;1.19586
1XGT B C 195;1XGT B N 196;20.0428
1XGT B C 195;1XGT B V 197;8.47766
1XGT B C 195;1XGT B V 206;2.37976
1XGT B C 195;1XGT B D 207;4.33887
1XGT B C 195;1XGT B K 208;19.569
1XGT B C 195;1XGT B I 210;5.97133
1XGT B N 196;1XGT B V 197;21.3439
1XGT B N 196;1XGT B A 198;0.526676
1XGT B N 196;1XGT B K 205;16.6012
1XGT B N 196;1XGT B V 206;3.43669
1XGT B N 196;1XGT B D 207;17.4157
1XGT B V 197;1XGT B A 198;22.88
1XGT B V 197;1XGT B H 199;1.5126
1XGT B V 197;1XGT B T 204;0.578412
1XGT B V 197;1XGT B K 205;11.5371
1XGT B V 197;1XGT B V 206;23.9308
1XGT B A 198;1XGT B H 199;18.2108
1XGT B A 198;1XGT B P 200;13.24
1XGT B A 198;1XGT B T 204;6.25203
1XGT B A 198;1XGT B K 205;20.8859
1XGT B H 199;1XGT B P 200;21.9308
1XGT B H 199;1XGT B A 201;14.3122
1XGT B H 199;1XGT B S 202;19.0802
1XGT B H 199;1XGT B S 203;3.23354
1XGT B H 199;1XGT B T 204;23.3571
1XGT B P 200;1XGT B A 201;28.7175
1XGT B P 200;1XGT B S 202;1.13749
1XGT B P 200;1XGT B S 203;16.5195
1XGT B P 200;1XGT B T 204;0.95349
1XGT B A 201;1XGT B S 202;19.094
1XGT B A 201;1XGT B S 203;5.107
1XGT B S 202;1XGT B S 203;25.5174
1XGT B S 202;1XGT B T 204;21.4055
1XGT B S 203;1XGT B T 204;28.9052
1XGT B T 204;1XGT B K 205;29.9558
1XGT B T 204;1XGT B V 206;9.68456
1XGT B K 205;1XGT B V 206;34.3531
1XGT B K 205;1XGT B D 207;16.4591
1XGT B V 206;1XGT B D 207;35.0819
1XGT B V 206;1XGT B K 208;1.38769
1XGT B D 207;1XGT B K 208;29.9941
1XGT B D 207;1XGT B K 209;0.560853
1XGT B K 208;1XGT B K 209;31.6748
1XGT B K 208;1XGT B I 210;7.93526
1XGT B K 209;1XGT B I 210;35.8417
