V1;V2;Weight
1XGU C K 1;1XGU C V 2;32.7603
1XGU C K 1;1XGU C F 3;30.6006
1XGU C K 1;1XGU C E 7;19.0436
1XGU C K 1;1XGU C F 38;1.59907
1XGU C K 1;1XGU C N 39;9.0116
1XGU C K 1;1XGU C T 40;24.4111
1XGU C K 1;1XGU C Q 41;17.4831
1XGU C K 1;1XGU C L 84;0.0585527
1XGU C K 1;1XGU C S 86;34.1962
1XGU C V 2;1XGU C F 3;29.8015
1XGU C V 2;1XGU C G 4;1.51652
1XGU C V 2;1XGU C E 7;2.16413
1XGU C V 2;1XGU C N 37;10.7862
1XGU C V 2;1XGU C F 38;6.40966
1XGU C V 2;1XGU C N 39;22.7646
1XGU C F 3;1XGU C G 4;27.2187
1XGU C F 3;1XGU C R 5;0.0257122
1XGU C F 3;1XGU C E 7;20.246
1XGU C F 3;1XGU C L 8;23.7785
1XGU C F 3;1XGU C A 11;12.0018
1XGU C F 3;1XGU C N 37;0.00751991
1XGU C F 3;1XGU C F 38;27.1618
1XGU C F 3;1XGU C T 40;10.0068
1XGU C F 3;1XGU C I 55;7.41028
1XGU C F 3;1XGU C S 86;9.18187
1XGU C F 3;1XGU C I 88;14.5222
1XGU C G 4;1XGU C R 5;24.8135
1XGU C G 4;1XGU C C 6;1.68544
1XGU C G 4;1XGU C E 7;22.2853
1XGU C G 4;1XGU C L 8;7.78204
1XGU C G 4;1XGU C F 38;2.15912
1XGU C R 5;1XGU C C 6;36.24
1XGU C R 5;1XGU C E 7;0.960303
1XGU C R 5;1XGU C L 8;8.41892
1XGU C R 5;1XGU C A 9;9.06442
1XGU C R 5;1XGU C V 29;13.0065
1XGU C R 5;1XGU C F 38;27.5475
1XGU C R 5;1XGU C A 122;3.59232
1XGU C R 5;1XGU C W 123;32.2572
1XGU C R 5;1XGU C I 124;1.80112
1XGU C R 5;1XGU C R 125;11.5605
1XGU C R 5;1XGU C G 126;3.73466
1XGU C R 5;1XGU C C 127;9.39675
1XGU C C 6;1XGU C E 7;24.3176
1XGU C C 6;1XGU C L 8;0.894153
1XGU C C 6;1XGU C A 9;9.81809
1XGU C C 6;1XGU C A 10;9.79628
1XGU C C 6;1XGU C G 126;4.80936
1XGU C C 6;1XGU C C 127;29.7782
1XGU C C 6;1XGU C R 128;1.82025
1XGU C C 6;1XGU C L 129;3.99814
1XGU C E 7;1XGU C L 8;15.4038
1XGU C E 7;1XGU C A 9;0.671802
1XGU C E 7;1XGU C A 10;10.8183
1XGU C E 7;1XGU C A 11;10.8574
1XGU C E 7;1XGU C R 14;1.25004
1XGU C L 8;1XGU C A 9;17.617
1XGU C L 8;1XGU C A 10;0.830851
1XGU C L 8;1XGU C A 11;10.9652
1XGU C L 8;1XGU C M 12;29.6141
1XGU C L 8;1XGU C V 29;5.82325
1XGU C L 8;1XGU C A 32;9.36643
1XGU C L 8;1XGU C F 38;15.6884
1XGU C L 8;1XGU C I 55;16.9273
1XGU C L 8;1XGU C I 88;11.502
1XGU C A 9;1XGU C A 10;15.0271
1XGU C A 9;1XGU C A 11;0.807389
1XGU C A 9;1XGU C M 12;7.87817
1XGU C A 9;1XGU C K 13;7.36014
1XGU C A 9;1XGU C L 25;12.5568
1XGU C A 9;1XGU C V 29;14.5885
1XGU C A 9;1XGU C W 123;0.934677
1XGU C A 9;1XGU C I 124;7.37264
1XGU C A 9;1XGU C C 127;6.30479
1XGU C A 9;1XGU C L 129;10.7553
1XGU C A 10;1XGU C A 11;16.5045
1XGU C A 10;1XGU C M 12;0.696955
1XGU C A 10;1XGU C K 13;12.1157
1XGU C A 10;1XGU C R 14;21.6281
1XGU C A 10;1XGU C R 128;2.49701
1XGU C A 10;1XGU C L 129;18.164
1XGU C A 11;1XGU C M 12;15.1323
1XGU C A 11;1XGU C K 13;0.957298
1XGU C A 11;1XGU C R 14;28.0927
1XGU C A 11;1XGU C H 15;11.5012
1XGU C A 11;1XGU C I 88;14.1257
1XGU C M 12;1XGU C K 13;16.0186
1XGU C M 12;1XGU C R 14;0.627866
1XGU C M 12;1XGU C H 15;10.1734
1XGU C M 12;1XGU C G 16;2.45646
1XGU C M 12;1XGU C L 17;31.4276
1XGU C M 12;1XGU C D 18;0.259701
1XGU C M 12;1XGU C L 25;11.4981
1XGU C M 12;1XGU C W 28;17.6983
1XGU C M 12;1XGU C V 29;11.0165
1XGU C M 12;1XGU C A 32;6.49034
1XGU C M 12;1XGU C I 55;6.40004
1XGU C M 12;1XGU C L 56;11.3932
1XGU C M 12;1XGU C I 88;10.8536
1XGU C M 12;1XGU C V 92;5.22503
1XGU C K 13;1XGU C R 14;23.6313
1XGU C K 13;1XGU C H 15;1.16346
1XGU C K 13;1XGU C G 16;8.87822
1XGU C K 13;1XGU C L 17;0.92777
1XGU C K 13;1XGU C D 18;24.7776
1XGU C K 13;1XGU C L 25;16.9098
1XGU C K 13;1XGU C L 129;36.8833
1XGU C R 14;1XGU C H 15;36.8453
1XGU C R 14;1XGU C G 16;4.25998
1XGU C H 15;1XGU C G 16;13.4298
1XGU C H 15;1XGU C L 17;4.52728
1XGU C H 15;1XGU C D 87;5.3242
1XGU C H 15;1XGU C I 88;18.3208
1XGU C H 15;1XGU C T 89;21.4004
1XGU C H 15;1XGU C V 92;23.2617
1XGU C H 15;1XGU C N 93;1.01139
1XGU C H 15;1XGU C K 96;8.00861
1XGU C G 16;1XGU C L 17;17.2985
1XGU C G 16;1XGU C D 18;5.14686
1XGU C G 16;1XGU C Y 20;7.68285
1XGU C G 16;1XGU C K 96;8.23005
1XGU C L 17;1XGU C D 18;20.0347
1XGU C L 17;1XGU C N 19;1.57933
1XGU C L 17;1XGU C Y 20;16.1038
1XGU C L 17;1XGU C Y 23;3.67038
1XGU C L 17;1XGU C S 24;0.00359298
1XGU C L 17;1XGU C L 25;5.23201
1XGU C L 17;1XGU C W 28;40.8819
1XGU C L 17;1XGU C L 56;3.47691
1XGU C L 17;1XGU C V 92;22.0971
1XGU C L 17;1XGU C A 95;5.22318
1XGU C L 17;1XGU C K 96;14.7903
1XGU C D 18;1XGU C N 19;30.5083
1XGU C D 18;1XGU C Y 20;3.53471
1XGU C D 18;1XGU C Y 23;0.33548
1XGU C D 18;1XGU C S 24;7.94356
1XGU C D 18;1XGU C L 25;33.1859
1XGU C D 18;1XGU C I 124;1.41858
1XGU C N 19;1XGU C Y 20;16.0074
1XGU C N 19;1XGU C R 21;2.68951
1XGU C N 19;1XGU C G 22;20.8463
1XGU C N 19;1XGU C Y 23;11.6713
1XGU C N 19;1XGU C S 24;7.74654
1XGU C N 19;1XGU C L 25;0.20943
1XGU C Y 20;1XGU C R 21;33.8194
1XGU C Y 20;1XGU C G 22;2.03676
1XGU C Y 20;1XGU C Y 23;14.7595
1XGU C Y 20;1XGU C W 28;10.5021
1XGU C Y 20;1XGU C K 96;30.9194
1XGU C Y 20;1XGU C V 99;11.6742
1XGU C Y 20;1XGU C S 100;7.91149
1XGU C R 21;1XGU C G 22;24.5279
1XGU C R 21;1XGU C Y 23;17.2082
1XGU C R 21;1XGU C V 99;11.1211
1XGU C R 21;1XGU C S 100;17.2522
1XGU C G 22;1XGU C Y 23;25.1242
1XGU C G 22;1XGU C S 24;5.33271
1XGU C G 22;1XGU C N 27;0.135336
1XGU C Y 23;1XGU C S 24;20.2943
1XGU C Y 23;1XGU C L 25;0.187648
1XGU C Y 23;1XGU C N 27;16.2617
1XGU C Y 23;1XGU C W 28;17.5494
1XGU C Y 23;1XGU C V 99;13.9944
1XGU C Y 23;1XGU C G 104;12.2406
1XGU C Y 23;1XGU C M 105;27.149
1XGU C Y 23;1XGU C N 106;4.23076
1XGU C Y 23;1XGU C W 111;15.6344
1XGU C S 24;1XGU C L 25;18.0803
1XGU C S 24;1XGU C G 26;7.99401
1XGU C S 24;1XGU C N 27;23.0755
1XGU C S 24;1XGU C W 28;5.33639
1XGU C S 24;1XGU C V 120;11.083
1XGU C S 24;1XGU C Q 121;4.10818
1XGU C S 24;1XGU C I 124;1.17035
1XGU C L 25;1XGU C G 26;16.5588
1XGU C L 25;1XGU C N 27;1.37175
1XGU C L 25;1XGU C W 28;16.2504
1XGU C L 25;1XGU C V 29;14.6107
1XGU C L 25;1XGU C I 124;21.0965
1XGU C L 25;1XGU C L 129;12.281
1XGU C G 26;1XGU C N 27;14.7082
1XGU C G 26;1XGU C W 28;0.93239
1XGU C G 26;1XGU C V 29;7.77298
1XGU C G 26;1XGU C C 30;8.37719
1XGU C G 26;1XGU C V 120;15.0535
1XGU C G 26;1XGU C Q 121;5.16906
1XGU C G 26;1XGU C W 123;6.55137
1XGU C G 26;1XGU C I 124;14.1239
1XGU C N 27;1XGU C W 28;18.8873
1XGU C N 27;1XGU C V 29;0.532273
1XGU C N 27;1XGU C C 30;6.18204
1XGU C N 27;1XGU C A 31;8.57229
1XGU C N 27;1XGU C M 105;13.2309
1XGU C N 27;1XGU C W 111;22.929
1XGU C N 27;1XGU C C 115;1.96793
1XGU C N 27;1XGU C K 116;0.811944
1XGU C N 27;1XGU C G 117;9.41934e-05
1XGU C N 27;1XGU C V 120;27.1479
1XGU C W 28;1XGU C V 29;16.225
1XGU C W 28;1XGU C C 30;0.692858
1XGU C W 28;1XGU C A 31;9.56769
1XGU C W 28;1XGU C A 32;8.7567
1XGU C W 28;1XGU C L 56;14.4201
1XGU C W 28;1XGU C A 95;10.968
1XGU C W 28;1XGU C K 96;1.73378
1XGU C W 28;1XGU C V 99;14.5728
1XGU C W 28;1XGU C M 105;23.9603
1XGU C W 28;1XGU C W 108;10.8143
1XGU C V 29;1XGU C C 30;16.1928
1XGU C V 29;1XGU C A 31;0.972737
1XGU C V 29;1XGU C A 32;6.99655
1XGU C V 29;1XGU C K 33;6.78546
1XGU C V 29;1XGU C F 38;12.3357
1XGU C V 29;1XGU C W 123;19.8236
1XGU C V 29;1XGU C I 124;9.15933
1XGU C C 30;1XGU C A 31;16.219
1XGU C C 30;1XGU C A 32;0.739221
1XGU C C 30;1XGU C K 33;9.38828
1XGU C C 30;1XGU C F 34;17.8741
1XGU C C 30;1XGU C R 114;5.01113
1XGU C C 30;1XGU C C 115;21.0776
1XGU C C 30;1XGU C T 118;2.10281
1XGU C C 30;1XGU C V 120;6.2454
1XGU C C 30;1XGU C W 123;28.0606
1XGU C A 31;1XGU C A 32;16.1243
1XGU C A 31;1XGU C K 33;1.04698
1XGU C A 31;1XGU C F 34;6.18751
1XGU C A 31;1XGU C E 35;17.4762
1XGU C A 31;1XGU C L 56;11.4955
1XGU C A 31;1XGU C M 105;9.04896
1XGU C A 31;1XGU C W 108;6.96601
1XGU C A 31;1XGU C A 110;1.13992
1XGU C A 31;1XGU C W 111;14.5739
1XGU C A 31;1XGU C C 115;6.23984
1XGU C A 32;1XGU C K 33;15.8784
1XGU C A 32;1XGU C F 34;0.615767
1XGU C A 32;1XGU C E 35;4.77305
1XGU C A 32;1XGU C S 36;7.43312
1XGU C A 32;1XGU C N 37;2.70188
1XGU C A 32;1XGU C F 38;11.3539
1XGU C A 32;1XGU C I 55;15.7954
1XGU C A 32;1XGU C L 56;10.4887
1XGU C K 33;1XGU C F 34;49.3452
1XGU C K 33;1XGU C E 35;1.09555
1XGU C K 33;1XGU C S 36;1.19765
1XGU C K 33;1XGU C N 37;33.6266
1XGU C K 33;1XGU C F 38;22.7665
1XGU C K 33;1XGU C W 123;25.5987
1XGU C F 34;1XGU C E 35;24.943
1XGU C F 34;1XGU C S 36;1.50755
1XGU C F 34;1XGU C N 37;1.19403
1XGU C F 34;1XGU C A 110;19.6506
1XGU C F 34;1XGU C W 111;1.42995e-05
1XGU C F 34;1XGU C R 114;38.0026
1XGU C F 34;1XGU C C 115;6.23436
1XGU C F 34;1XGU C W 123;12.9115
1XGU C E 35;1XGU C S 36;25.5931
1XGU C E 35;1XGU C A 42;0.571658
1XGU C E 35;1XGU C I 55;4.78529
1XGU C E 35;1XGU C L 56;12.352
1XGU C E 35;1XGU C Q 57;31.7258
1XGU C E 35;1XGU C W 108;22.5619
1XGU C E 35;1XGU C V 109;2.19575
1XGU C E 35;1XGU C A 110;22.5405
1XGU C E 35;1XGU C W 111;0.902913
1XGU C S 36;1XGU C N 37;29.4691
1XGU C S 36;1XGU C F 38;4.32984
1XGU C S 36;1XGU C N 39;20.9746
1XGU C S 36;1XGU C A 42;14.2761
1XGU C S 36;1XGU C G 54;4.14641
1XGU C S 36;1XGU C I 55;15.1367
1XGU C S 36;1XGU C Q 57;4.04624
1XGU C N 37;1XGU C F 38;28.9235
1XGU C N 37;1XGU C N 39;5.84491
1XGU C F 38;1XGU C N 39;15.1627
1XGU C F 38;1XGU C T 40;1.61781
1XGU C F 38;1XGU C I 55;13.7481
1XGU C F 38;1XGU C W 123;7.17474
1XGU C N 39;1XGU C T 40;16.6683
1XGU C N 39;1XGU C Q 41;18.0291
1XGU C N 39;1XGU C A 42;24.57
1XGU C N 39;1XGU C G 54;2.62916
1XGU C N 39;1XGU C I 55;7.97225
1XGU C T 40;1XGU C Q 41;19.4029
1XGU C T 40;1XGU C A 42;2.32081
1XGU C T 40;1XGU C G 54;7.04774
1XGU C T 40;1XGU C I 55;18.5844
1XGU C T 40;1XGU C L 83;5.00391
1XGU C T 40;1XGU C L 84;16.9694
1XGU C T 40;1XGU C S 85;12.9417
1XGU C T 40;1XGU C S 86;7.42078
1XGU C T 40;1XGU C I 88;7.52542
1XGU C Q 41;1XGU C A 42;19.3923
1XGU C Q 41;1XGU C T 43;11.522
1XGU C Q 41;1XGU C L 84;28.4162
1XGU C Q 41;1XGU C S 86;3.40051
1XGU C A 42;1XGU C T 43;25.1245
1XGU C A 42;1XGU C D 52;0.227733
1XGU C A 42;1XGU C Y 53;2.36076
1XGU C A 42;1XGU C G 54;10.5271
1XGU C A 42;1XGU C Q 57;14.2193
1XGU C A 42;1XGU C L 84;3.42737
1XGU C T 43;1XGU C N 44;27.934
1XGU C T 43;1XGU C T 51;10.1904
1XGU C T 43;1XGU C D 52;6.91484
1XGU C T 43;1XGU C Y 53;11.5802
1XGU C T 43;1XGU C Q 57;6.60606
1XGU C T 43;1XGU C L 84;14.842
1XGU C N 44;1XGU C R 45;37.8779
1XGU C N 44;1XGU C N 46;12.7423
1XGU C N 44;1XGU C S 50;0.0232597
1XGU C N 44;1XGU C T 51;12.245
1XGU C N 44;1XGU C D 52;26.9589
1XGU C N 44;1XGU C Q 57;12.1352
1XGU C R 45;1XGU C N 46;37.3134
1XGU C R 45;1XGU C S 50;4.03879
1XGU C R 45;1XGU C T 51;17.3362
1XGU C N 46;1XGU C T 47;30.6073
1XGU C N 46;1XGU C D 48;22.2513
1XGU C N 46;1XGU C S 50;21.979
1XGU C N 46;1XGU C T 51;4.56578
1XGU C N 46;1XGU C D 52;15.0787
1XGU C N 46;1XGU C N 59;8.66439
1XGU C T 47;1XGU C D 48;33.2074
1XGU C D 48;1XGU C G 49;29.2548
1XGU C D 48;1XGU C S 50;24.407
1XGU C D 48;1XGU C N 59;0.725926
1XGU C D 48;1XGU C R 61;14.308
1XGU C D 48;1XGU C T 69;0.000140448
1XGU C D 48;1XGU C P 70;4.05846
1XGU C G 49;1XGU C S 50;20.5952
1XGU C G 49;1XGU C T 51;4.03821
1XGU C G 49;1XGU C D 66;0.405306
1XGU C G 49;1XGU C R 68;10.3419
1XGU C G 49;1XGU C T 69;11.0703
1XGU C G 49;1XGU C P 70;22.0719
1XGU C S 50;1XGU C T 51;22.2429
1XGU C S 50;1XGU C N 59;11.7219
1XGU C S 50;1XGU C S 60;5.73444
1XGU C S 50;1XGU C R 61;10.7899
1XGU C S 50;1XGU C T 69;10.0365
1XGU C S 50;1XGU C P 70;0.0121971
1XGU C T 51;1XGU C D 52;20.8764
1XGU C T 51;1XGU C Y 53;27.2963
1XGU C T 51;1XGU C I 58;1.3127
1XGU C T 51;1XGU C N 59;4.01844
1XGU C T 51;1XGU C S 60;15.5753
1XGU C T 51;1XGU C D 66;4.60872
1XGU C T 51;1XGU C R 68;13.3372
1XGU C T 51;1XGU C T 69;0.146994
1XGU C D 52;1XGU C Y 53;18.6522
1XGU C D 52;1XGU C Q 57;30.1555
1XGU C D 52;1XGU C I 58;4.47575
1XGU C D 52;1XGU C N 59;17.6784
1XGU C Y 53;1XGU C G 54;18.5926
1XGU C Y 53;1XGU C L 56;0.989542
1XGU C Y 53;1XGU C Q 57;10.8904
1XGU C Y 53;1XGU C I 58;20.4091
1XGU C Y 53;1XGU C S 60;5.48512
1XGU C Y 53;1XGU C C 64;4.84184
1XGU C Y 53;1XGU C D 66;15.6583
1XGU C Y 53;1XGU C R 68;15.9399
1XGU C Y 53;1XGU C C 80;23.2031
1XGU C Y 53;1XGU C S 81;3.2447
1XGU C Y 53;1XGU C L 83;17.212
1XGU C Y 53;1XGU C L 84;21.9485
1XGU C Y 53;1XGU C S 91;0.945766
1XGU C G 54;1XGU C I 55;17.7349
1XGU C G 54;1XGU C L 56;3.26397
1XGU C G 54;1XGU C Q 57;13.874
1XGU C G 54;1XGU C L 83;10.1115
1XGU C G 54;1XGU C L 84;6.24473
1XGU C G 54;1XGU C S 91;2.69538
1XGU C I 55;1XGU C L 56;31.8166
1XGU C I 55;1XGU C Q 57;1.04516
1XGU C I 55;1XGU C L 83;0.922247
1XGU C I 55;1XGU C I 88;11.8788
1XGU C I 55;1XGU C S 91;16.0226
1XGU C L 56;1XGU C Q 57;22.934
1XGU C L 56;1XGU C I 58;17.1648
1XGU C L 56;1XGU C S 91;11.6323
1XGU C L 56;1XGU C V 92;3.36442
1XGU C L 56;1XGU C A 95;12.5627
1XGU C L 56;1XGU C W 108;29.0955
1XGU C Q 57;1XGU C I 58;18.4024
1XGU C Q 57;1XGU C N 59;3.83356
1XGU C Q 57;1XGU C W 108;4.341
1XGU C I 58;1XGU C N 59;23.9351
1XGU C I 58;1XGU C S 60;0.460379
1XGU C I 58;1XGU C W 63;13.3368
1XGU C I 58;1XGU C C 64;7.30378
1XGU C I 58;1XGU C L 83;20.8849
1XGU C I 58;1XGU C S 91;11.8932
1XGU C I 58;1XGU C C 94;15.2814
1XGU C I 58;1XGU C A 95;6.56089
1XGU C I 58;1XGU C I 98;15.3231
1XGU C I 58;1XGU C W 108;7.58864
1XGU C N 59;1XGU C S 60;17.3626
1XGU C N 59;1XGU C R 61;14.4443
1XGU C N 59;1XGU C W 62;12.7969
1XGU C N 59;1XGU C W 63;21.4491
1XGU C N 59;1XGU C C 64;6.86282
1XGU C S 60;1XGU C R 61;17.4395
1XGU C S 60;1XGU C W 62;2.33701
1XGU C S 60;1XGU C W 63;0.630937
1XGU C S 60;1XGU C C 64;20.8415
1XGU C S 60;1XGU C N 65;0.134942
1XGU C S 60;1XGU C D 66;9.82331
1XGU C S 60;1XGU C T 69;15.5548
1XGU C S 60;1XGU C S 72;8.61638
1XGU C S 60;1XGU C R 73;0.257511
1XGU C S 60;1XGU C N 74;0.546714
1XGU C S 60;1XGU C C 80;6.95892
1XGU C R 61;1XGU C W 62;52.4707
1XGU C R 61;1XGU C T 69;9.99132
1XGU C R 61;1XGU C P 70;11.2573
1XGU C R 61;1XGU C G 71;23.9681
1XGU C R 61;1XGU C S 72;6.00617
1XGU C R 61;1XGU C R 73;22.6545
1XGU C R 61;1XGU C N 74;0.0919163
1XGU C W 62;1XGU C W 63;34.3747
1XGU C W 62;1XGU C C 64;0.831199
1XGU C W 62;1XGU C R 73;36.1954
1XGU C W 62;1XGU C N 74;6.49526
1XGU C W 62;1XGU C L 75;24.0455
1XGU C W 63;1XGU C C 64;20.4717
1XGU C W 63;1XGU C N 74;7.00197
1XGU C W 63;1XGU C L 75;25.735
1XGU C W 63;1XGU C C 76;22.5353
1XGU C W 63;1XGU C N 77;0.339941
1XGU C W 63;1XGU C I 78;1.7911
1XGU C W 63;1XGU C C 94;6.3638
1XGU C W 63;1XGU C K 97;5.87609
1XGU C W 63;1XGU C I 98;39.4283
1XGU C W 63;1XGU C D 101;1.10535
1XGU C W 63;1XGU C A 107;3.51872
1XGU C C 64;1XGU C N 65;17.562
1XGU C C 64;1XGU C D 66;0.279378
1XGU C C 64;1XGU C S 72;2.34959
1XGU C C 64;1XGU C N 74;12.899
1XGU C C 64;1XGU C I 78;12.7465
1XGU C C 64;1XGU C P 79;0.419094
1XGU C C 64;1XGU C C 80;22.3989
1XGU C C 64;1XGU C L 83;12.7988
1XGU C C 64;1XGU C C 94;0.710413
1XGU C N 65;1XGU C D 66;23.7517
1XGU C N 65;1XGU C G 67;22.502
1XGU C N 65;1XGU C R 68;0.127288
1XGU C N 65;1XGU C T 69;0.0909011
1XGU C N 65;1XGU C S 72;17.0598
1XGU C N 65;1XGU C N 74;21.2087
1XGU C N 65;1XGU C I 78;6.9978
1XGU C N 65;1XGU C P 79;12.6989
1XGU C N 65;1XGU C C 80;13.7198
1XGU C D 66;1XGU C G 67;24.8135
1XGU C D 66;1XGU C R 68;34.3811
1XGU C D 66;1XGU C T 69;16.9786
1XGU C D 66;1XGU C S 72;0.923235
1XGU C D 66;1XGU C C 80;13.887
1XGU C D 66;1XGU C S 81;0.355964
1XGU C G 67;1XGU C R 68;29.8562
1XGU C G 67;1XGU C T 69;0.124226
1XGU C G 67;1XGU C S 72;0.00445122
1XGU C R 68;1XGU C T 69;27.1056
1XGU C R 68;1XGU C P 70;5.27947
1XGU C T 69;1XGU C P 70;34.466
1XGU C T 69;1XGU C G 71;2.33413
1XGU C T 69;1XGU C S 72;25.7955
1XGU C P 70;1XGU C G 71;27.4374
1XGU C P 70;1XGU C S 72;1.65753
1XGU C G 71;1XGU C S 72;24.7785
1XGU C G 71;1XGU C R 73;8.75213
1XGU C S 72;1XGU C R 73;26.2447
1XGU C S 72;1XGU C N 74;6.44084
1XGU C R 73;1XGU C N 74;29.089
1XGU C R 73;1XGU C L 75;16.248
1XGU C R 73;1XGU C N 77;0.752119
1XGU C N 74;1XGU C L 75;14.6969
1XGU C N 74;1XGU C C 76;1.56391
1XGU C N 74;1XGU C N 77;30.072
1XGU C N 74;1XGU C I 78;13.7975
1XGU C L 75;1XGU C C 76;16.5295
1XGU C L 75;1XGU C N 77;8.46114
1XGU C L 75;1XGU C K 97;15.6878
1XGU C C 76;1XGU C N 77;24.7633
1XGU C C 76;1XGU C I 78;18.7655
1XGU C C 76;1XGU C C 94;27.38
1XGU C C 76;1XGU C K 97;19.0269
1XGU C C 76;1XGU C I 98;1.48095
1XGU C N 77;1XGU C I 78;25.8081
1XGU C N 77;1XGU C P 79;0.637311
1XGU C N 77;1XGU C K 97;7.94501
1XGU C I 78;1XGU C P 79;42.7356
1XGU C I 78;1XGU C C 80;0.978999
1XGU C I 78;1XGU C A 82;12.5831
1XGU C I 78;1XGU C L 83;12.1646
1XGU C I 78;1XGU C A 90;13.4843
1XGU C I 78;1XGU C C 94;5.08303
1XGU C P 79;1XGU C C 80;16.229
1XGU C P 79;1XGU C S 81;16.4849
1XGU C P 79;1XGU C A 82;17.6995
1XGU C P 79;1XGU C L 83;2.79914
1XGU C C 80;1XGU C S 81;21.6313
1XGU C C 80;1XGU C A 82;1.59608
1XGU C C 80;1XGU C L 83;14.3044
1XGU C C 80;1XGU C L 84;3.53309
1XGU C S 81;1XGU C A 82;22.672
1XGU C S 81;1XGU C L 83;1.83254
1XGU C S 81;1XGU C L 84;21.9565
1XGU C S 81;1XGU C S 85;5.60763
1XGU C A 82;1XGU C L 83;20.083
1XGU C A 82;1XGU C L 84;1.71817
1XGU C A 82;1XGU C S 85;16.8295
1XGU C A 82;1XGU C D 87;3.08632
1XGU C A 82;1XGU C A 90;20.5731
1XGU C A 82;1XGU C S 91;1.14895
1XGU C L 83;1XGU C L 84;18.0648
1XGU C L 83;1XGU C S 85;4.21857
1XGU C L 83;1XGU C A 90;11.2481
1XGU C L 83;1XGU C S 91;26.0076
1XGU C L 83;1XGU C C 94;8.74478
1XGU C L 84;1XGU C S 85;25.1362
1XGU C L 84;1XGU C S 86;1.49228
1XGU C S 85;1XGU C S 86;24.3712
1XGU C S 85;1XGU C D 87;30.6781
1XGU C S 85;1XGU C I 88;2.525
1XGU C S 86;1XGU C D 87;24.4991
1XGU C S 86;1XGU C I 88;5.39617
1XGU C D 87;1XGU C I 88;24.3479
1XGU C D 87;1XGU C T 89;29.4746
1XGU C D 87;1XGU C A 90;5.37113
1XGU C D 87;1XGU C S 91;0.552731
1XGU C I 88;1XGU C T 89;17.434
1XGU C I 88;1XGU C A 90;2.23246
1XGU C I 88;1XGU C S 91;16.9829
1XGU C I 88;1XGU C V 92;23.1901
1XGU C T 89;1XGU C A 90;23.9906
1XGU C T 89;1XGU C S 91;0.430886
1XGU C T 89;1XGU C V 92;6.77125
1XGU C T 89;1XGU C N 93;18.6402
1XGU C A 90;1XGU C S 91;18.5991
1XGU C A 90;1XGU C V 92;1.24902
1XGU C A 90;1XGU C N 93;13.5231
1XGU C A 90;1XGU C C 94;10.5596
1XGU C S 91;1XGU C V 92;19.6489
1XGU C S 91;1XGU C N 93;0.425254
1XGU C S 91;1XGU C C 94;4.58638
1XGU C S 91;1XGU C A 95;9.31346
1XGU C V 92;1XGU C N 93;23.1646
1XGU C V 92;1XGU C C 94;1.18542
1XGU C V 92;1XGU C A 95;10.0976
1XGU C V 92;1XGU C K 96;20.6951
1XGU C N 93;1XGU C C 94;20.7668
1XGU C N 93;1XGU C A 95;0.464074
1XGU C N 93;1XGU C K 96;13.5071
1XGU C N 93;1XGU C K 97;10.1786
1XGU C C 94;1XGU C A 95;15.5414
1XGU C C 94;1XGU C K 96;1.27707
1XGU C C 94;1XGU C K 97;7.91834
1XGU C C 94;1XGU C I 98;15.2277
1XGU C A 95;1XGU C K 96;16.3067
1XGU C A 95;1XGU C K 97;0.762359
1XGU C A 95;1XGU C I 98;9.6989
1XGU C A 95;1XGU C V 99;8.84261
1XGU C A 95;1XGU C W 108;13.8749
1XGU C K 96;1XGU C K 97;16.6715
1XGU C K 96;1XGU C I 98;0.615148
1XGU C K 96;1XGU C V 99;10.4288
1XGU C K 96;1XGU C S 100;8.71314
1XGU C K 97;1XGU C I 98;18.4922
1XGU C K 97;1XGU C V 99;0.711867
1XGU C K 97;1XGU C S 100;9.54698
1XGU C K 97;1XGU C D 101;2.09934
1XGU C I 98;1XGU C V 99;18.3987
1XGU C I 98;1XGU C S 100;1.86838
1XGU C I 98;1XGU C D 101;13.2317
1XGU C I 98;1XGU C N 103;2.22117
1XGU C I 98;1XGU C G 104;4.96372
1XGU C I 98;1XGU C A 107;17.9068
1XGU C I 98;1XGU C W 108;20.596
1XGU C V 99;1XGU C S 100;19.4849
1XGU C V 99;1XGU C D 101;8.00033
1XGU C V 99;1XGU C G 104;20.2573
1XGU C V 99;1XGU C M 105;9.42101
1XGU C V 99;1XGU C W 108;7.32785
1XGU C S 100;1XGU C D 101;19.211
1XGU C D 101;1XGU C G 102;20.2903
1XGU C D 101;1XGU C N 103;20.3883
1XGU C D 101;1XGU C G 104;8.37633
1XGU C G 102;1XGU C N 103;22.8993
1XGU C G 102;1XGU C G 104;6.22568
1XGU C N 103;1XGU C G 104;25.4842
1XGU C N 103;1XGU C M 105;0.550184
1XGU C N 103;1XGU C N 106;31.1911
1XGU C N 103;1XGU C A 107;12.9839
1XGU C G 104;1XGU C M 105;14.5522
1XGU C G 104;1XGU C N 106;2.7899
1XGU C G 104;1XGU C A 107;8.88935
1XGU C G 104;1XGU C W 108;1.71752
1XGU C M 105;1XGU C N 106;15.3917
1XGU C M 105;1XGU C A 107;3.5743
1XGU C M 105;1XGU C W 108;30.5364
1XGU C M 105;1XGU C W 111;35.8468
1XGU C M 105;1XGU C R 112;0.183626
1XGU C N 106;1XGU C A 107;21.6589
1XGU C N 106;1XGU C W 108;4.97373
1XGU C N 106;1XGU C V 109;1.17246
1XGU C N 106;1XGU C W 111;13.151
1XGU C N 106;1XGU C R 112;33.691
1XGU C N 106;1XGU C K 116;19.1614
1XGU C A 107;1XGU C W 108;30.6277
1XGU C A 107;1XGU C V 109;8.43918
1XGU C W 108;1XGU C V 109;18.4723
1XGU C W 108;1XGU C A 110;2.12403
1XGU C W 108;1XGU C W 111;18.3088
1XGU C W 108;1XGU C R 112;7.8961
1XGU C V 109;1XGU C A 110;23.6669
1XGU C V 109;1XGU C W 111;1.2476
1XGU C V 109;1XGU C R 112;35.29
1XGU C V 109;1XGU C N 113;26.9785
1XGU C A 110;1XGU C W 111;20.5481
1XGU C A 110;1XGU C R 112;0.446026
1XGU C A 110;1XGU C N 113;10.1485
1XGU C A 110;1XGU C R 114;14.0548
1XGU C A 110;1XGU C C 115;2.9218
1XGU C W 111;1XGU C R 112;24.9186
1XGU C W 111;1XGU C N 113;0.868799
1XGU C W 111;1XGU C R 114;1.14771
1XGU C W 111;1XGU C C 115;26.5742
1XGU C W 111;1XGU C K 116;38.7605
1XGU C W 111;1XGU C G 117;0.486127
1XGU C W 111;1XGU C V 120;0.435584
1XGU C R 112;1XGU C N 113;36.3977
1XGU C R 112;1XGU C R 114;0.742516
1XGU C R 112;1XGU C C 115;1.27097
1XGU C R 112;1XGU C K 116;34.0917
1XGU C N 113;1XGU C R 114;49.424
1XGU C N 113;1XGU C C 115;0.772613
1XGU C N 113;1XGU C T 118;1.05642
1XGU C R 114;1XGU C C 115;22.0162
1XGU C R 114;1XGU C T 118;13.5017
1XGU C R 114;1XGU C W 123;0.006492
1XGU C C 115;1XGU C K 116;19.6792
1XGU C C 115;1XGU C G 117;2.67121
1XGU C C 115;1XGU C T 118;18.1477
1XGU C C 115;1XGU C V 120;14.6143
1XGU C K 116;1XGU C G 117;30.3689
1XGU C K 116;1XGU C T 118;9.24675
1XGU C G 117;1XGU C T 118;32.3411
1XGU C G 117;1XGU C V 120;0.694209
1XGU C T 118;1XGU C D 119;30.7498
1XGU C T 118;1XGU C V 120;23.9232
1XGU C T 118;1XGU C W 123;2.65697
1XGU C D 119;1XGU C V 120;17.1129
1XGU C D 119;1XGU C Q 121;17.0332
1XGU C D 119;1XGU C A 122;21.1815
1XGU C D 119;1XGU C W 123;1.61254
1XGU C D 119;1XGU C R 125;18.1228
1XGU C V 120;1XGU C Q 121;23.1087
1XGU C V 120;1XGU C A 122;2.82018
1XGU C V 120;1XGU C W 123;19.9197
1XGU C V 120;1XGU C I 124;0.484297
1XGU C Q 121;1XGU C A 122;14.3381
1XGU C Q 121;1XGU C W 123;1.94869
1XGU C Q 121;1XGU C I 124;23.7231
1XGU C Q 121;1XGU C R 125;34.931
1XGU C A 122;1XGU C W 123;25.6859
1XGU C A 122;1XGU C I 124;1.48332
1XGU C A 122;1XGU C R 125;32.768
1XGU C W 123;1XGU C I 124;20.755
1XGU C W 123;1XGU C R 125;0.444703
1XGU C W 123;1XGU C C 127;1.64554
1XGU C I 124;1XGU C R 125;24.6759
1XGU C I 124;1XGU C G 126;1.34417
1XGU C I 124;1XGU C C 127;20.3778
1XGU C I 124;1XGU C L 129;19.4872
1XGU C R 125;1XGU C G 126;30.8141
1XGU C R 125;1XGU C C 127;2.43065
1XGU C G 126;1XGU C C 127;27.0834
1XGU C G 126;1XGU C R 128;10.9813
1XGU C C 127;1XGU C R 128;30.1051
1XGU C C 127;1XGU C L 129;21.6777
1XGU C R 128;1XGU C L 129;33.6436
