V1;V2;Weight
1Z7X W S 1;1Z7X W L 2;29.9823
1Z7X W L 2;1Z7X W D 3;26.6473
1Z7X W L 2;1Z7X W I 4;25.2587
1Z7X W D 3;1Z7X W I 4;29.9516
1Z7X W D 3;1Z7X W Q 5;17.908
1Z7X W D 3;1Z7X W Q 28;1.83262
1Z7X W D 3;1Z7X W A 56;3.60434
1Z7X W I 4;1Z7X W Q 5;30.41
1Z7X W I 4;1Z7X W S 6;1.90347
1Z7X W I 4;1Z7X W Q 30;36.5487
1Z7X W Q 5;1Z7X W S 6;22.288
1Z7X W Q 5;1Z7X W L 25;11.272
1Z7X W Q 5;1Z7X W Q 28;28.3594
1Z7X W Q 5;1Z7X W C 29;19.7627
1Z7X W Q 5;1Z7X W Q 30;12.8728
1Z7X W Q 5;1Z7X W V 31;3.03062
1Z7X W S 6;1Z7X W L 7;20.9848
1Z7X W S 6;1Z7X W D 8;2.37961
1Z7X W S 6;1Z7X W L 25;0.575031
1Z7X W S 6;1Z7X W C 29;9.23312
1Z7X W S 6;1Z7X W Q 30;0.0162454
1Z7X W S 6;1Z7X W V 31;23.3975
1Z7X W S 6;1Z7X W R 33;1.37961
1Z7X W L 7;1Z7X W D 8;23.9996
1Z7X W L 7;1Z7X W I 9;15.517
1Z7X W L 7;1Z7X W R 18;0.85185
1Z7X W L 7;1Z7X W L 22;17.4109
1Z7X W L 7;1Z7X W L 25;17.9505
1Z7X W L 7;1Z7X W L 26;10.6211
1Z7X W L 7;1Z7X W C 29;10.5243
1Z7X W L 7;1Z7X W V 31;11.902
1Z7X W L 7;1Z7X W V 32;15.2368
1Z7X W L 7;1Z7X W R 33;10.694
1Z7X W L 7;1Z7X W L 34;10.8506
1Z7X W D 8;1Z7X W I 9;23.5529
1Z7X W D 8;1Z7X W Q 10;21.8361
1Z7X W D 8;1Z7X W V 31;0.724486
1Z7X W D 8;1Z7X W R 33;39.9874
1Z7X W D 8;1Z7X W D 35;0.050655
1Z7X W I 9;1Z7X W Q 10;22.2513
1Z7X W I 9;1Z7X W E 12;16.9435
1Z7X W I 9;1Z7X W L 14;12.2389
1Z7X W I 9;1Z7X W R 18;8.72506
1Z7X W I 9;1Z7X W L 22;11.6014
1Z7X W I 9;1Z7X W R 33;10.4815
1Z7X W I 9;1Z7X W L 34;15.6146
1Z7X W I 9;1Z7X W D 35;8.61499
1Z7X W I 9;1Z7X W C 37;14.223
1Z7X W Q 10;1Z7X W C 11;24.3057
1Z7X W Q 10;1Z7X W E 12;5.11985
1Z7X W Q 10;1Z7X W R 33;1.57934
1Z7X W Q 10;1Z7X W D 35;20.9152
1Z7X W Q 10;1Z7X W C 37;1.58069
1Z7X W C 11;1Z7X W E 12;22.7183
1Z7X W C 11;1Z7X W E 13;0.207631
1Z7X W C 11;1Z7X W D 35;6.34265
1Z7X W C 11;1Z7X W D 36;26.2663
1Z7X W C 11;1Z7X W C 37;1.75144
1Z7X W E 12;1Z7X W E 13;34.2656
1Z7X W E 12;1Z7X W L 14;16.8823
1Z7X W E 12;1Z7X W R 18;11.6364
1Z7X W E 12;1Z7X W D 36;5.04186
1Z7X W E 12;1Z7X W C 37;17.1579
1Z7X W E 13;1Z7X W L 14;32.6646
1Z7X W E 13;1Z7X W S 15;5.81759
1Z7X W E 13;1Z7X W D 36;0.999892
1Z7X W E 13;1Z7X W C 37;6.76079
1Z7X W E 13;1Z7X W G 38;19.5765
1Z7X W L 14;1Z7X W S 15;26.306
1Z7X W L 14;1Z7X W R 18;18.0896
1Z7X W L 14;1Z7X W W 19;17.6761
1Z7X W L 14;1Z7X W L 22;11.419
1Z7X W L 14;1Z7X W L 34;5.96349
1Z7X W L 14;1Z7X W C 37;24.0859
1Z7X W L 14;1Z7X W L 39;6.22995
1Z7X W L 14;1Z7X W R 43;19.3426
1Z7X W S 15;1Z7X W D 16;22.7008
1Z7X W S 15;1Z7X W A 17;14.2563
1Z7X W S 15;1Z7X W R 18;21.3221
1Z7X W S 15;1Z7X W W 19;9.00507
1Z7X W S 15;1Z7X W R 43;3.71396
1Z7X W D 16;1Z7X W A 17;24.0263
1Z7X W D 16;1Z7X W R 18;0.230445
1Z7X W D 16;1Z7X W W 19;10.614
1Z7X W D 16;1Z7X W A 20;13.0206
1Z7X W D 16;1Z7X W R 43;23.3879
1Z7X W A 17;1Z7X W R 18;18.9761
1Z7X W A 17;1Z7X W W 19;1.20828
1Z7X W A 17;1Z7X W A 20;11.6242
1Z7X W A 17;1Z7X W E 21;17.1417
1Z7X W R 18;1Z7X W W 19;17.1527
1Z7X W R 18;1Z7X W A 20;0.685574
1Z7X W R 18;1Z7X W E 21;30.056
1Z7X W R 18;1Z7X W L 22;32.4139
1Z7X W R 18;1Z7X W L 25;0.0199203
1Z7X W W 19;1Z7X W A 20;19.8193
1Z7X W W 19;1Z7X W E 21;1.04472
1Z7X W W 19;1Z7X W L 22;25.2239
1Z7X W W 19;1Z7X W L 23;29.3661
1Z7X W W 19;1Z7X W L 26;10.095
1Z7X W W 19;1Z7X W L 34;11.5183
1Z7X W W 19;1Z7X W L 39;10.3651
1Z7X W W 19;1Z7X W R 43;42.4674
1Z7X W W 19;1Z7X W D 46;18.6689
1Z7X W W 19;1Z7X W I 47;11.6409
1Z7X W A 20;1Z7X W E 21;22.1005
1Z7X W A 20;1Z7X W L 22;1.05135
1Z7X W A 20;1Z7X W L 23;16.8837
1Z7X W A 20;1Z7X W P 24;9.69253
1Z7X W E 21;1Z7X W L 22;20.6795
1Z7X W E 21;1Z7X W L 23;0.731092
1Z7X W E 21;1Z7X W P 24;13.5177
1Z7X W E 21;1Z7X W L 25;7.53087
1Z7X W L 22;1Z7X W L 23;16.6191
1Z7X W L 22;1Z7X W P 24;2.2195
1Z7X W L 22;1Z7X W L 25;23.629
1Z7X W L 22;1Z7X W L 26;15.1777
1Z7X W L 22;1Z7X W L 34;4.52464
1Z7X W L 23;1Z7X W P 24;23.3096
1Z7X W L 23;1Z7X W L 25;0.98694
1Z7X W L 23;1Z7X W L 26;21.8967
1Z7X W L 23;1Z7X W Q 27;14.7351
1Z7X W L 23;1Z7X W D 46;24.6168
1Z7X W L 23;1Z7X W I 47;0.306851
1Z7X W L 23;1Z7X W A 50;10.7321
1Z7X W P 24;1Z7X W L 25;22.2741
1Z7X W P 24;1Z7X W L 26;0.629728
1Z7X W P 24;1Z7X W Q 27;22.2913
1Z7X W P 24;1Z7X W Q 28;24.959
1Z7X W L 25;1Z7X W L 26;18.5172
1Z7X W L 25;1Z7X W Q 27;1.52274
1Z7X W L 25;1Z7X W Q 28;16.4509
1Z7X W L 25;1Z7X W C 29;27.6593
1Z7X W L 25;1Z7X W V 32;0.91565
1Z7X W L 26;1Z7X W Q 27;13.9241
1Z7X W L 26;1Z7X W Q 28;1.38732
1Z7X W L 26;1Z7X W C 29;0.20344
1Z7X W L 26;1Z7X W V 32;23.2245
1Z7X W L 26;1Z7X W L 34;10.6824
1Z7X W L 26;1Z7X W D 46;0.314331
1Z7X W L 26;1Z7X W I 47;17.0231
1Z7X W L 26;1Z7X W A 50;17.2992
1Z7X W L 26;1Z7X W L 51;14.5651
1Z7X W L 26;1Z7X W N 54;10.2503
1Z7X W L 26;1Z7X W L 57;0.00225046
1Z7X W Q 27;1Z7X W Q 28;28.0979
1Z7X W Q 27;1Z7X W S 49;0.0739672
1Z7X W Q 27;1Z7X W A 50;21.25
1Z7X W Q 27;1Z7X W V 53;27.6669
1Z7X W Q 27;1Z7X W N 54;13.9237
1Z7X W Q 27;1Z7X W P 55;5.54239
1Z7X W Q 28;1Z7X W C 29;21.1669
1Z7X W Q 28;1Z7X W Q 30;2.33978
1Z7X W Q 28;1Z7X W N 54;7.21917
1Z7X W Q 28;1Z7X W P 55;0.477075
1Z7X W Q 28;1Z7X W A 56;11.9036
1Z7X W C 29;1Z7X W Q 30;16.5418
1Z7X W C 29;1Z7X W V 31;9.09875
1Z7X W C 29;1Z7X W V 32;12.5724
1Z7X W C 29;1Z7X W N 54;11.2748
1Z7X W C 29;1Z7X W A 56;2.48508
1Z7X W C 29;1Z7X W L 57;8.49383
1Z7X W Q 30;1Z7X W V 31;35.6837
1Z7X W Q 30;1Z7X W A 56;20.9445
1Z7X W Q 30;1Z7X W L 57;7.50353
1Z7X W Q 30;1Z7X W A 58;21.4764
1Z7X W Q 30;1Z7X W E 59;6.27866
1Z7X W V 31;1Z7X W V 32;22.0638
1Z7X W V 31;1Z7X W R 33;25.5911
1Z7X W V 31;1Z7X W L 57;0.869307
1Z7X W V 31;1Z7X W A 58;2.3127
1Z7X W V 31;1Z7X W E 59;26.8176
1Z7X W V 32;1Z7X W R 33;22.0244
1Z7X W V 32;1Z7X W L 34;13.3841
1Z7X W V 32;1Z7X W I 47;0.0906229
1Z7X W V 32;1Z7X W L 51;4.90131
1Z7X W V 32;1Z7X W N 54;1.49902
1Z7X W V 32;1Z7X W L 57;11.8528
1Z7X W V 32;1Z7X W E 59;9.52348
1Z7X W V 32;1Z7X W L 60;21.6665
1Z7X W V 32;1Z7X W N 61;8.0859
1Z7X W V 32;1Z7X W L 62;1.75629
1Z7X W R 33;1Z7X W L 34;22.9394
1Z7X W R 33;1Z7X W D 35;6.1236
1Z7X W R 33;1Z7X W E 59;25.5319
1Z7X W R 33;1Z7X W N 61;29.0588
1Z7X W L 34;1Z7X W D 35;18.4357
1Z7X W L 34;1Z7X W D 36;0.245186
1Z7X W L 34;1Z7X W C 37;14.5315
1Z7X W L 34;1Z7X W L 39;15.4539
1Z7X W L 34;1Z7X W I 47;7.23703
1Z7X W L 34;1Z7X W L 60;0.0966249
1Z7X W L 34;1Z7X W N 61;8.86519
1Z7X W L 34;1Z7X W L 62;19.8802
1Z7X W L 34;1Z7X W R 63;0.815952
1Z7X W L 34;1Z7X W N 65;7.63839
1Z7X W D 35;1Z7X W D 36;25.8771
1Z7X W D 35;1Z7X W C 37;7.71579
1Z7X W D 35;1Z7X W N 61;3.74767
1Z7X W D 35;1Z7X W R 63;32.0075
1Z7X W D 35;1Z7X W S 64;8.17969
1Z7X W D 35;1Z7X W N 65;0.291364
1Z7X W D 36;1Z7X W C 37;18.4232
1Z7X W D 36;1Z7X W G 38;7.16747
1Z7X W D 36;1Z7X W R 63;3.49501
1Z7X W D 36;1Z7X W S 64;26.9679
1Z7X W D 36;1Z7X W N 65;5.62963
1Z7X W C 37;1Z7X W G 38;22.3836
1Z7X W C 37;1Z7X W L 39;13.887
1Z7X W C 37;1Z7X W R 43;1.24873
1Z7X W C 37;1Z7X W N 65;7.87461
1Z7X W G 38;1Z7X W L 39;23.1747
1Z7X W G 38;1Z7X W T 40;13.9618
1Z7X W G 38;1Z7X W R 43;4.87823
1Z7X W G 38;1Z7X W S 64;0.480819
1Z7X W G 38;1Z7X W N 65;7.074
1Z7X W G 38;1Z7X W E 66;1.50134
1Z7X W L 39;1Z7X W T 40;24.755
1Z7X W L 39;1Z7X W R 43;19.6832
1Z7X W L 39;1Z7X W C 44;3.37226
1Z7X W L 39;1Z7X W I 47;12.6462
1Z7X W L 39;1Z7X W L 62;10.68
1Z7X W L 39;1Z7X W N 65;23.7603
1Z7X W L 39;1Z7X W E 66;13.734
1Z7X W L 39;1Z7X W L 67;16.6443
1Z7X W T 40;1Z7X W E 41;24.6447
1Z7X W T 40;1Z7X W A 42;12.9062
1Z7X W T 40;1Z7X W R 43;23.4037
1Z7X W T 40;1Z7X W C 44;11.9163
1Z7X W T 40;1Z7X W E 66;5.61158
1Z7X W T 40;1Z7X W L 67;3.25337
1Z7X W E 41;1Z7X W A 42;23.8926
1Z7X W E 41;1Z7X W R 43;0.79441
1Z7X W E 41;1Z7X W C 44;12.1863
1Z7X W E 41;1Z7X W K 45;31.5482
1Z7X W E 41;1Z7X W E 66;1.38939
1Z7X W E 41;1Z7X W L 67;6.54008
1Z7X W E 41;1Z7X W V 70;26.2192
1Z7X W E 41;1Z7X W G 71;10.0097
1Z7X W E 41;1Z7X W C 74;7.24736
1Z7X W A 42;1Z7X W R 43;21.6818
1Z7X W A 42;1Z7X W C 44;1.01657
1Z7X W A 42;1Z7X W K 45;18.4231
1Z7X W A 42;1Z7X W D 46;12.1882
1Z7X W R 43;1Z7X W C 44;15.8597
1Z7X W R 43;1Z7X W K 45;1.15406
1Z7X W R 43;1Z7X W D 46;14.2551
1Z7X W R 43;1Z7X W I 47;12.0794
1Z7X W C 44;1Z7X W K 45;15.2007
1Z7X W C 44;1Z7X W D 46;0.514086
1Z7X W C 44;1Z7X W I 47;15.8967
1Z7X W C 44;1Z7X W S 48;9.14913
1Z7X W C 44;1Z7X W L 62;0.359317
1Z7X W C 44;1Z7X W L 67;16.2862
1Z7X W C 44;1Z7X W G 71;14.8199
1Z7X W C 44;1Z7X W C 74;12.4067
1Z7X W C 44;1Z7X W V 75;16.5879
1Z7X W K 45;1Z7X W D 46;22.1287
1Z7X W K 45;1Z7X W I 47;0.701306
1Z7X W K 45;1Z7X W S 48;12.3507
1Z7X W K 45;1Z7X W S 49;13.8447
1Z7X W K 45;1Z7X W C 74;21.9821
1Z7X W D 46;1Z7X W I 47;17.3697
1Z7X W D 46;1Z7X W S 48;1.15697
1Z7X W D 46;1Z7X W S 49;11.5601
1Z7X W D 46;1Z7X W A 50;10.7324
1Z7X W I 47;1Z7X W S 48;18.8887
1Z7X W I 47;1Z7X W S 49;0.778537
1Z7X W I 47;1Z7X W A 50;6.85349
1Z7X W I 47;1Z7X W L 51;25.6275
1Z7X W I 47;1Z7X W L 60;7.06347
1Z7X W I 47;1Z7X W L 62;14.6547
1Z7X W I 47;1Z7X W L 67;0.0706177
1Z7X W I 47;1Z7X W V 75;14.1384
1Z7X W S 48;1Z7X W S 49;19.875
1Z7X W S 48;1Z7X W A 50;0.793893
1Z7X W S 48;1Z7X W L 51;6.83977
1Z7X W S 48;1Z7X W R 52;17.6113
1Z7X W S 48;1Z7X W C 74;13.7903
1Z7X W S 48;1Z7X W V 75;5.17948
1Z7X W S 48;1Z7X W Q 77;6.94246
1Z7X W S 48;1Z7X W G 78;16.5709
1Z7X W S 49;1Z7X W A 50;20.6549
1Z7X W S 49;1Z7X W L 51;0.682602
1Z7X W S 49;1Z7X W R 52;17.4272
1Z7X W S 49;1Z7X W V 53;12.5341
1Z7X W A 50;1Z7X W L 51;17.9609
1Z7X W A 50;1Z7X W R 52;1.00253
1Z7X W A 50;1Z7X W V 53;11.1839
1Z7X W A 50;1Z7X W N 54;5.46288
1Z7X W L 51;1Z7X W R 52;17.82
1Z7X W L 51;1Z7X W V 53;1.91624
1Z7X W L 51;1Z7X W N 54;24.0736
1Z7X W L 51;1Z7X W L 57;21.3088
1Z7X W L 51;1Z7X W L 60;17.3252
1Z7X W L 51;1Z7X W V 75;7.59741
1Z7X W L 51;1Z7X W G 78;15.0219
1Z7X W L 51;1Z7X W L 79;12.3131
1Z7X W L 51;1Z7X W T 81;2.60482
1Z7X W L 51;1Z7X W S 83;0.834314
1Z7X W L 51;1Z7X W C 84;4.03701
1Z7X W R 52;1Z7X W V 53;29.3487
1Z7X W R 52;1Z7X W N 54;1.68996
1Z7X W R 52;1Z7X W Q 77;22.7402
1Z7X W R 52;1Z7X W G 78;15.4675
1Z7X W R 52;1Z7X W Q 80;14.7871
1Z7X W R 52;1Z7X W T 81;41.0247
1Z7X W R 52;1Z7X W S 83;7.96096
1Z7X W V 53;1Z7X W N 54;16.3465
1Z7X W V 53;1Z7X W P 55;12.4491
1Z7X W V 53;1Z7X W S 83;2.38369
1Z7X W N 54;1Z7X W P 55;24.1868
1Z7X W N 54;1Z7X W A 56;10.2517
1Z7X W N 54;1Z7X W L 57;25.7187
1Z7X W N 54;1Z7X W S 83;5.66
1Z7X W N 54;1Z7X W C 84;7.05259
1Z7X W N 54;1Z7X W K 85;1.1206
1Z7X W P 55;1Z7X W A 56;31.8304
1Z7X W P 55;1Z7X W L 57;3.20168
1Z7X W P 55;1Z7X W S 83;26.762
1Z7X W P 55;1Z7X W K 85;17.7688
1Z7X W A 56;1Z7X W L 57;18.7783
1Z7X W A 56;1Z7X W A 58;6.1835
1Z7X W A 56;1Z7X W K 85;1.7558
1Z7X W L 57;1Z7X W A 58;18.4203
1Z7X W L 57;1Z7X W E 59;11.2589
1Z7X W L 57;1Z7X W L 60;11.7041
1Z7X W L 57;1Z7X W L 79;8.47966
1Z7X W L 57;1Z7X W C 84;6.06933
1Z7X W L 57;1Z7X W K 85;13.8539
1Z7X W L 57;1Z7X W I 86;18.868
1Z7X W A 58;1Z7X W E 59;23.0365
1Z7X W A 58;1Z7X W K 85;3.81206
1Z7X W A 58;1Z7X W I 86;8.07476
1Z7X W A 58;1Z7X W Q 87;30.9441
1Z7X W A 58;1Z7X W K 88;8.22861
1Z7X W E 59;1Z7X W L 60;22.7907
1Z7X W E 59;1Z7X W N 61;11.6504
1Z7X W E 59;1Z7X W I 86;1.78002
1Z7X W E 59;1Z7X W K 88;38.1942
1Z7X W L 60;1Z7X W N 61;22.4503
1Z7X W L 60;1Z7X W L 62;22.4602
1Z7X W L 60;1Z7X W V 75;10.3917
1Z7X W L 60;1Z7X W L 79;6.10754
1Z7X W L 60;1Z7X W I 86;11.0858
1Z7X W L 60;1Z7X W K 88;7.26327
1Z7X W L 60;1Z7X W L 89;22.4867
1Z7X W L 60;1Z7X W S 90;8.19652
1Z7X W L 60;1Z7X W L 91;0.0685803
1Z7X W N 61;1Z7X W L 62;22.4652
1Z7X W N 61;1Z7X W R 63;25.5602
1Z7X W N 61;1Z7X W S 90;22.1787
1Z7X W N 61;1Z7X W H 118;1.61132
1Z7X W L 62;1Z7X W R 63;19.4982
1Z7X W L 62;1Z7X W S 64;0.061973
1Z7X W L 62;1Z7X W N 65;12.5502
1Z7X W L 62;1Z7X W L 67;15.1578
1Z7X W L 62;1Z7X W V 75;13.8409
1Z7X W L 62;1Z7X W L 89;0.615709
1Z7X W L 62;1Z7X W S 90;10.827
1Z7X W L 62;1Z7X W L 91;10.4527
1Z7X W L 62;1Z7X W C 94;10.0596
1Z7X W R 63;1Z7X W S 64;28.8072
1Z7X W R 63;1Z7X W N 65;4.91318
1Z7X W R 63;1Z7X W S 90;9.51372
1Z7X W R 63;1Z7X W L 91;0.861439
1Z7X W R 63;1Z7X W Q 92;46.7031
1Z7X W R 63;1Z7X W N 93;0.638695
1Z7X W R 63;1Z7X W C 94;2.71812
1Z7X W S 64;1Z7X W N 65;24.3175
1Z7X W S 64;1Z7X W Q 92;4.49428
1Z7X W S 64;1Z7X W N 93;33.9241
1Z7X W S 64;1Z7X W C 94;1.71176
1Z7X W N 65;1Z7X W E 66;24.0246
1Z7X W N 65;1Z7X W L 67;17.7533
1Z7X W N 65;1Z7X W N 93;6.53351
1Z7X W N 65;1Z7X W C 94;13.4712
1Z7X W N 65;1Z7X W C 95;0.799002
1Z7X W E 66;1Z7X W L 67;21.6501
1Z7X W E 66;1Z7X W G 68;3.5759
1Z7X W E 66;1Z7X W C 94;0.747473
1Z7X W E 66;1Z7X W C 95;25.8929
1Z7X W L 67;1Z7X W G 68;24.4449
1Z7X W L 67;1Z7X W V 70;1.59961
1Z7X W L 67;1Z7X W G 71;17.8893
1Z7X W L 67;1Z7X W V 72;14.8049
1Z7X W L 67;1Z7X W V 75;6.10058
1Z7X W L 67;1Z7X W L 91;7.28357
1Z7X W L 67;1Z7X W C 94;19.6115
1Z7X W L 67;1Z7X W C 95;0.121327
1Z7X W G 68;1Z7X W D 69;21.5844
1Z7X W G 68;1Z7X W V 70;3.27378
1Z7X W G 68;1Z7X W G 71;3.0941
1Z7X W G 68;1Z7X W V 72;11.8927
1Z7X W G 68;1Z7X W C 94;6.38415
1Z7X W G 68;1Z7X W C 95;18.0817
1Z7X W G 68;1Z7X W L 96;2.19874
1Z7X W D 69;1Z7X W V 70;27.1847
1Z7X W D 69;1Z7X W G 71;0.542839
1Z7X W D 69;1Z7X W V 72;7.91879
1Z7X W D 69;1Z7X W H 73;13.345
1Z7X W D 69;1Z7X W C 95;4.84459
1Z7X W D 69;1Z7X W L 96;12.9735
1Z7X W D 69;1Z7X W T 97;21.0879
1Z7X W D 69;1Z7X W A 99;14.2377
1Z7X W D 69;1Z7X W G 100;17.401
1Z7X W V 70;1Z7X W G 71;21.0627
1Z7X W V 70;1Z7X W V 72;0.998157
1Z7X W V 70;1Z7X W H 73;14.1798
1Z7X W V 70;1Z7X W C 74;17.3433
1Z7X W G 71;1Z7X W V 72;15.6075
1Z7X W G 71;1Z7X W H 73;0.732802
1Z7X W G 71;1Z7X W C 74;8.12661
1Z7X W G 71;1Z7X W V 75;7.77826
1Z7X W V 72;1Z7X W H 73;19.4734
1Z7X W V 72;1Z7X W C 74;1.05677
1Z7X W V 72;1Z7X W V 75;11.019
1Z7X W V 72;1Z7X W L 76;23.9818
1Z7X W V 72;1Z7X W L 91;21.9733
1Z7X W V 72;1Z7X W C 94;8.77325
1Z7X W V 72;1Z7X W L 96;24.5616
1Z7X W V 72;1Z7X W G 100;1.88816
1Z7X W V 72;1Z7X W V 103;0.388452
1Z7X W V 72;1Z7X W L 104;3.83523
1Z7X W H 73;1Z7X W C 74;18.7367
1Z7X W H 73;1Z7X W V 75;0.630785
1Z7X W H 73;1Z7X W L 76;9.08949
1Z7X W H 73;1Z7X W Q 77;35.6506
1Z7X W H 73;1Z7X W Q 80;0.318166
1Z7X W H 73;1Z7X W V 103;41.2716
1Z7X W C 74;1Z7X W V 75;17.1565
1Z7X W C 74;1Z7X W L 76;0.685936
1Z7X W C 74;1Z7X W Q 77;21.4676
1Z7X W C 74;1Z7X W G 78;2.91142
1Z7X W V 75;1Z7X W L 76;21.7722
1Z7X W V 75;1Z7X W Q 77;1.13731
1Z7X W V 75;1Z7X W G 78;7.94506
1Z7X W V 75;1Z7X W L 79;11.545
1Z7X W V 75;1Z7X W L 89;3.17576
1Z7X W V 75;1Z7X W L 91;8.55657
1Z7X W L 76;1Z7X W Q 77;16.1246
1Z7X W L 76;1Z7X W G 78;1.33541
1Z7X W L 76;1Z7X W L 79;22.0401
1Z7X W L 76;1Z7X W Q 80;12.3221
1Z7X W L 76;1Z7X W L 89;10.9205
1Z7X W L 76;1Z7X W L 91;7.22072
1Z7X W L 76;1Z7X W G 100;0.567941
1Z7X W L 76;1Z7X W V 103;14.5889
1Z7X W L 76;1Z7X W L 104;22.4924
1Z7X W L 76;1Z7X W T 107;24.6795
1Z7X W L 76;1Z7X W L 108;0.183148
1Z7X W L 76;1Z7X W L 111;0.798115
1Z7X W Q 77;1Z7X W G 78;15.9276
1Z7X W Q 77;1Z7X W L 79;1.65947
1Z7X W Q 77;1Z7X W Q 80;30.8559
1Z7X W G 78;1Z7X W L 79;20.4593
1Z7X W G 78;1Z7X W Q 80;3.08974
1Z7X W G 78;1Z7X W T 81;4.37317
1Z7X W G 78;1Z7X W C 84;1.58579
1Z7X W L 79;1Z7X W Q 80;20.138
1Z7X W L 79;1Z7X W T 81;6.58982
1Z7X W L 79;1Z7X W C 84;25.8535
1Z7X W L 79;1Z7X W I 86;18.9873
1Z7X W L 79;1Z7X W L 89;12.3711
1Z7X W L 79;1Z7X W T 107;3.83617
1Z7X W L 79;1Z7X W L 111;26.3346
1Z7X W Q 80;1Z7X W T 81;27.1919
1Z7X W Q 80;1Z7X W P 82;2.80596
1Z7X W Q 80;1Z7X W V 103;2.57002
1Z7X W Q 80;1Z7X W T 107;20.2733
1Z7X W Q 80;1Z7X W T 110;10.8581
1Z7X W Q 80;1Z7X W L 111;3.76866
1Z7X W T 81;1Z7X W P 82;35.5474
1Z7X W T 81;1Z7X W S 83;15.2653
1Z7X W T 81;1Z7X W C 84;19.9934
1Z7X W P 82;1Z7X W S 83;27.1404
1Z7X W P 82;1Z7X W C 84;6.76893
1Z7X W P 82;1Z7X W K 85;1.14699
1Z7X W S 83;1Z7X W C 84;22.1567
1Z7X W S 83;1Z7X W K 85;16.0232
1Z7X W C 84;1Z7X W K 85;25.9066
1Z7X W C 84;1Z7X W I 86;15.6609
1Z7X W C 84;1Z7X W L 111;9.37453
1Z7X W C 84;1Z7X W T 113;10.3514
1Z7X W K 85;1Z7X W I 86;17.5116
1Z7X W K 85;1Z7X W Q 87;15.1301
1Z7X W K 85;1Z7X W T 113;22.8911
1Z7X W I 86;1Z7X W Q 87;16.3251
1Z7X W I 86;1Z7X W K 88;9.97676
1Z7X W I 86;1Z7X W L 89;11.6023
1Z7X W I 86;1Z7X W L 111;13.1481
1Z7X W I 86;1Z7X W T 113;14.4428
1Z7X W I 86;1Z7X W L 114;20.2782
1Z7X W Q 87;1Z7X W K 88;32.4748
1Z7X W Q 87;1Z7X W T 113;14.4934
1Z7X W Q 87;1Z7X W L 114;8.29032
1Z7X W Q 87;1Z7X W Q 115;25.494
1Z7X W Q 87;1Z7X W E 116;6.10462
1Z7X W K 88;1Z7X W L 89;20.4081
1Z7X W K 88;1Z7X W L 114;4.21015
1Z7X W K 88;1Z7X W Q 115;0.908099
1Z7X W K 88;1Z7X W E 116;34.1666
1Z7X W L 89;1Z7X W S 90;26.7985
1Z7X W L 89;1Z7X W L 91;19.5823
1Z7X W L 89;1Z7X W L 104;3.87766
1Z7X W L 89;1Z7X W L 108;2.00956
1Z7X W L 89;1Z7X W L 111;2.85423
1Z7X W L 89;1Z7X W L 114;16.7738
1Z7X W L 89;1Z7X W E 116;10.1684
1Z7X W L 89;1Z7X W L 117;22.9669
1Z7X W L 89;1Z7X W H 118;8.69727
1Z7X W S 90;1Z7X W L 91;23.1195
1Z7X W S 90;1Z7X W Q 92;11.329
1Z7X W S 90;1Z7X W L 117;0.137961
1Z7X W S 90;1Z7X W H 118;23.4108
1Z7X W L 91;1Z7X W Q 92;17.7567
1Z7X W L 91;1Z7X W N 93;0.445073
1Z7X W L 91;1Z7X W C 94;21.6786
1Z7X W L 91;1Z7X W L 96;7.84744
1Z7X W L 91;1Z7X W L 104;8.58173
1Z7X W L 91;1Z7X W L 117;4.27336
1Z7X W L 91;1Z7X W H 118;8.66108
1Z7X W L 91;1Z7X W L 119;14.6662
1Z7X W L 91;1Z7X W N 122;9.72347
1Z7X W Q 92;1Z7X W N 93;23.6128
1Z7X W Q 92;1Z7X W C 94;4.78412
1Z7X W Q 92;1Z7X W H 118;17.4445
1Z7X W Q 92;1Z7X W L 119;1.95732
1Z7X W Q 92;1Z7X W S 120;26.026
1Z7X W Q 92;1Z7X W D 121;17.7758
1Z7X W Q 92;1Z7X W N 122;1.51491
1Z7X W Q 92;1Z7X W Q 147;5.32089
1Z7X W N 93;1Z7X W C 94;18.0426
1Z7X W N 93;1Z7X W C 95;8.54921
1Z7X W N 93;1Z7X W S 120;4.00418
1Z7X W N 93;1Z7X W D 121;29.988
1Z7X W N 93;1Z7X W N 122;4.03764
1Z7X W C 94;1Z7X W C 95;20.0908
1Z7X W C 94;1Z7X W L 96;7.83783
1Z7X W C 94;1Z7X W D 121;0.0566259
1Z7X W C 94;1Z7X W N 122;8.19882
1Z7X W C 95;1Z7X W L 96;21.5271
1Z7X W C 95;1Z7X W T 97;11.2183
1Z7X W C 95;1Z7X W D 121;1.72755
1Z7X W C 95;1Z7X W N 122;5.90692
1Z7X W C 95;1Z7X W L 123;0.186242
1Z7X W L 96;1Z7X W T 97;26.0291
1Z7X W L 96;1Z7X W G 100;13.9345
1Z7X W L 96;1Z7X W C 101;4.42439
1Z7X W L 96;1Z7X W L 104;13.4704
1Z7X W L 96;1Z7X W L 119;10.4228
1Z7X W L 96;1Z7X W N 122;25.3288
1Z7X W L 96;1Z7X W L 123;10.4448
1Z7X W L 96;1Z7X W L 124;16.4827
1Z7X W T 97;1Z7X W G 98;19.426
1Z7X W T 97;1Z7X W A 99;14.7882
1Z7X W T 97;1Z7X W G 100;5.91505
1Z7X W T 97;1Z7X W C 101;6.56359
1Z7X W T 97;1Z7X W L 123;16.095
1Z7X W T 97;1Z7X W L 124;6.34182
1Z7X W G 98;1Z7X W A 99;23.7414
1Z7X W G 98;1Z7X W G 100;1.54962
1Z7X W G 98;1Z7X W C 101;14.4396
1Z7X W G 98;1Z7X W G 102;1.8097
1Z7X W G 98;1Z7X W L 123;4.77115
1Z7X W G 98;1Z7X W L 124;13.3083
1Z7X W G 98;1Z7X W G 128;12.7882
1Z7X W G 98;1Z7X W L 131;5.43838
1Z7X W A 99;1Z7X W G 100;19.8775
1Z7X W A 99;1Z7X W C 101;1.72339
1Z7X W A 99;1Z7X W G 102;3.86008
1Z7X W A 99;1Z7X W V 103;2.61585
1Z7X W G 100;1Z7X W C 101;17.8211
1Z7X W G 100;1Z7X W G 102;2.36348
1Z7X W G 100;1Z7X W V 103;14.7828
1Z7X W G 100;1Z7X W L 104;9.49731
1Z7X W C 101;1Z7X W G 102;17.9003
1Z7X W C 101;1Z7X W V 103;0.824072
1Z7X W C 101;1Z7X W L 104;10.9043
1Z7X W C 101;1Z7X W S 105;9.08633
1Z7X W C 101;1Z7X W L 124;16.2457
1Z7X W C 101;1Z7X W G 128;18.1066
1Z7X W C 101;1Z7X W L 129;0.642409
1Z7X W C 101;1Z7X W L 131;9.05874
1Z7X W C 101;1Z7X W L 132;19.4481
1Z7X W G 102;1Z7X W V 103;22.8723
1Z7X W G 102;1Z7X W L 104;0.857429
1Z7X W G 102;1Z7X W S 105;9.3863
1Z7X W G 102;1Z7X W S 106;13.3845
1Z7X W G 102;1Z7X W L 131;21.0318
1Z7X W V 103;1Z7X W L 104;16.7306
1Z7X W V 103;1Z7X W S 105;0.659255
1Z7X W V 103;1Z7X W S 106;14.0161
1Z7X W V 103;1Z7X W T 107;14.6879
1Z7X W L 104;1Z7X W S 105;15.853
1Z7X W L 104;1Z7X W S 106;0.773436
1Z7X W L 104;1Z7X W T 107;9.70506
1Z7X W L 104;1Z7X W L 108;26.5231
1Z7X W L 104;1Z7X W L 117;8.92996
1Z7X W L 104;1Z7X W L 119;15.4013
1Z7X W L 104;1Z7X W L 124;0.298065
1Z7X W L 104;1Z7X W L 132;15.2015
1Z7X W S 105;1Z7X W S 106;20.0703
1Z7X W S 105;1Z7X W T 107;0.756626
1Z7X W S 105;1Z7X W L 108;11.7343
1Z7X W S 105;1Z7X W R 109;10.9534
1Z7X W S 105;1Z7X W L 131;15.6263
1Z7X W S 105;1Z7X W L 132;15.437
1Z7X W S 105;1Z7X W E 134;2.99008
1Z7X W S 105;1Z7X W G 135;17.0203
1Z7X W S 106;1Z7X W T 107;22.4908
1Z7X W S 106;1Z7X W L 108;1.3179
1Z7X W S 106;1Z7X W R 109;21.3568
1Z7X W S 106;1Z7X W T 110;9.11271
1Z7X W T 107;1Z7X W L 108;19.669
1Z7X W T 107;1Z7X W R 109;2.23468
1Z7X W T 107;1Z7X W T 110;17.6496
1Z7X W T 107;1Z7X W L 111;21.5242
1Z7X W L 108;1Z7X W R 109;17.8979
1Z7X W L 108;1Z7X W T 110;1.6896
1Z7X W L 108;1Z7X W L 111;16.96
1Z7X W L 108;1Z7X W L 114;16.0083
1Z7X W L 108;1Z7X W L 117;16.6143
1Z7X W L 108;1Z7X W L 132;11.4674
1Z7X W L 108;1Z7X W G 135;7.58652
1Z7X W L 108;1Z7X W L 136;16.5799
1Z7X W L 108;1Z7X W Q 140;1.01575
1Z7X W L 108;1Z7X W C 141;20.9039
1Z7X W L 108;1Z7X W L 143;4.29936
1Z7X W R 109;1Z7X W T 110;30.0199
1Z7X W R 109;1Z7X W L 111;1.53376
1Z7X W R 109;1Z7X W P 112;0.131498
1Z7X W R 109;1Z7X W E 134;22.8813
1Z7X W R 109;1Z7X W G 135;15.9394
1Z7X W R 109;1Z7X W D 138;39.8254
1Z7X W R 109;1Z7X W Q 140;18.9485
1Z7X W R 109;1Z7X W C 141;2.19946
1Z7X W T 110;1Z7X W L 111;31.0961
1Z7X W T 110;1Z7X W P 112;13.3791
1Z7X W T 110;1Z7X W Q 140;1.52818
1Z7X W L 111;1Z7X W P 112;23.8373
1Z7X W L 111;1Z7X W T 113;9.35948
1Z7X W L 111;1Z7X W L 114;30.8319
1Z7X W L 111;1Z7X W Q 140;2.85608
1Z7X W L 111;1Z7X W C 141;1.51799
1Z7X W L 111;1Z7X W R 142;2.41631
1Z7X W P 112;1Z7X W T 113;25.9633
1Z7X W P 112;1Z7X W L 114;4.75723
1Z7X W P 112;1Z7X W Q 115;1.20758
1Z7X W P 112;1Z7X W Q 140;31.4236
1Z7X W P 112;1Z7X W R 142;28.7454
1Z7X W T 113;1Z7X W L 114;17.6595
1Z7X W T 113;1Z7X W Q 115;12.4488
1Z7X W L 114;1Z7X W Q 115;18.2696
1Z7X W L 114;1Z7X W E 116;8.37415
1Z7X W L 114;1Z7X W L 117;8.22695
1Z7X W L 114;1Z7X W R 142;9.91736
1Z7X W L 114;1Z7X W L 143;22.6309
1Z7X W Q 115;1Z7X W E 116;22.2827
1Z7X W Q 115;1Z7X W R 142;8.99818
1Z7X W Q 115;1Z7X W L 143;9.75494
1Z7X W Q 115;1Z7X W E 144;34.7515
1Z7X W Q 115;1Z7X W K 145;8.46949
1Z7X W E 116;1Z7X W L 117;20.1835
1Z7X W E 116;1Z7X W H 118;25.5066
1Z7X W E 116;1Z7X W L 143;4.7695
1Z7X W E 116;1Z7X W K 145;38.0107
1Z7X W E 116;1Z7X W Q 147;4.05967
1Z7X W E 116;1Z7X W E 173;3.38926
1Z7X W L 117;1Z7X W H 118;26.2687
1Z7X W L 117;1Z7X W L 119;23.5926
1Z7X W L 117;1Z7X W L 132;1.88135
1Z7X W L 117;1Z7X W L 136;2.17015
1Z7X W L 117;1Z7X W L 143;16.5196
1Z7X W L 117;1Z7X W K 145;8.092
1Z7X W L 117;1Z7X W L 146;19.2187
1Z7X W L 117;1Z7X W Q 147;7.28901
1Z7X W H 118;1Z7X W L 119;21.6439
1Z7X W H 118;1Z7X W S 120;3.73791
1Z7X W H 118;1Z7X W K 145;0.507261
1Z7X W H 118;1Z7X W L 146;0.0586976
1Z7X W H 118;1Z7X W Q 147;37.3405
1Z7X W H 118;1Z7X W E 173;0.037451
1Z7X W L 119;1Z7X W S 120;19.4159
1Z7X W L 119;1Z7X W N 122;16.6822
1Z7X W L 119;1Z7X W L 124;12.2495
1Z7X W L 119;1Z7X W L 132;12.1004
1Z7X W L 119;1Z7X W L 146;5.92144
1Z7X W L 119;1Z7X W Q 147;9.73487
1Z7X W L 119;1Z7X W L 148;12.3922
1Z7X W L 119;1Z7X W C 151;8.33778
1Z7X W S 120;1Z7X W D 121;22.5025
1Z7X W S 120;1Z7X W N 122;4.97491
1Z7X W S 120;1Z7X W Q 147;17.8082
1Z7X W S 120;1Z7X W L 148;2.71772
1Z7X W S 120;1Z7X W E 149;25.9996
1Z7X W S 120;1Z7X W C 151;3.92352
1Z7X W D 121;1Z7X W N 122;25.2524
1Z7X W D 121;1Z7X W E 149;6.22154
1Z7X W D 121;1Z7X W Y 150;30.7264
1Z7X W D 121;1Z7X W C 151;1.37969
1Z7X W N 122;1Z7X W L 123;22.4416
1Z7X W N 122;1Z7X W L 124;16.761
1Z7X W N 122;1Z7X W Y 150;7.16009
1Z7X W N 122;1Z7X W C 151;12.3666
1Z7X W L 123;1Z7X W L 124;19.9189
1Z7X W L 123;1Z7X W G 125;7.73439
1Z7X W L 123;1Z7X W Y 150;0.564131
1Z7X W L 123;1Z7X W C 151;1.95066
1Z7X W L 123;1Z7X W S 152;25.0576
1Z7X W L 124;1Z7X W G 125;26.3812
1Z7X W L 124;1Z7X W G 128;9.07853
1Z7X W L 124;1Z7X W L 129;9.80334
1Z7X W L 124;1Z7X W L 132;6.95018
1Z7X W L 124;1Z7X W L 148;9.59721
1Z7X W L 124;1Z7X W C 151;19.8285
1Z7X W L 124;1Z7X W S 152;0.616597
1Z7X W L 124;1Z7X W L 153;6.54209
1Z7X W G 125;1Z7X W D 126;21.8418
1Z7X W G 125;1Z7X W A 127;2.60738
1Z7X W G 125;1Z7X W G 128;3.13184
1Z7X W G 125;1Z7X W L 129;7.8781
1Z7X W G 125;1Z7X W C 151;4.299
1Z7X W G 125;1Z7X W S 152;15.0713
1Z7X W G 125;1Z7X W L 153;9.52287
1Z7X W D 126;1Z7X W A 127;24.1224
1Z7X W D 126;1Z7X W G 128;0.839734
1Z7X W D 126;1Z7X W L 129;7.30089
1Z7X W D 126;1Z7X W Q 130;22.8515
1Z7X W D 126;1Z7X W S 152;4.8954
1Z7X W D 126;1Z7X W L 153;6.00714
1Z7X W D 126;1Z7X W S 154;22.1916
1Z7X W D 126;1Z7X W A 156;13.4976
1Z7X W D 126;1Z7X W S 157;16.1032
1Z7X W A 127;1Z7X W G 128;24.607
1Z7X W A 127;1Z7X W L 129;0.682888
1Z7X W A 127;1Z7X W Q 130;18.5875
1Z7X W A 127;1Z7X W L 131;13.0589
1Z7X W G 128;1Z7X W L 129;17.453
1Z7X W G 128;1Z7X W Q 130;0.757389
1Z7X W G 128;1Z7X W L 131;9.83771
1Z7X W G 128;1Z7X W L 132;8.0241
1Z7X W L 129;1Z7X W Q 130;21.724
1Z7X W L 129;1Z7X W L 131;0.86594
1Z7X W L 129;1Z7X W L 132;17.698
1Z7X W L 129;1Z7X W C 133;18.3043
1Z7X W L 129;1Z7X W L 148;10.7354
1Z7X W L 129;1Z7X W L 153;19.7868
1Z7X W L 129;1Z7X W S 157;22.2474
1Z7X W L 129;1Z7X W P 160;7.5409
1Z7X W L 129;1Z7X W L 161;13.6954
1Z7X W Q 130;1Z7X W L 131;19.5011
1Z7X W Q 130;1Z7X W L 132;0.819542
1Z7X W Q 130;1Z7X W C 133;10.3053
1Z7X W Q 130;1Z7X W E 134;15.5164
1Z7X W Q 130;1Z7X W A 156;18.0429
1Z7X W Q 130;1Z7X W S 157;2.32964
1Z7X W Q 130;1Z7X W P 160;19.8474
1Z7X W L 131;1Z7X W L 132;16.0481
1Z7X W L 131;1Z7X W C 133;0.767986
1Z7X W L 131;1Z7X W E 134;31.5689
1Z7X W L 131;1Z7X W G 135;1.02841
1Z7X W L 132;1Z7X W C 133;15.9738
1Z7X W L 132;1Z7X W E 134;1.7675
1Z7X W L 132;1Z7X W G 135;5.97303
1Z7X W L 132;1Z7X W L 136;22.7931
1Z7X W L 132;1Z7X W L 146;3.65721
1Z7X W L 132;1Z7X W L 148;8.06173
1Z7X W C 133;1Z7X W E 134;17.5845
1Z7X W C 133;1Z7X W G 135;0.540049
1Z7X W C 133;1Z7X W L 136;19.3575
1Z7X W C 133;1Z7X W L 137;16.4333
1Z7X W C 133;1Z7X W P 160;17.8377
1Z7X W C 133;1Z7X W L 161;12.0397
1Z7X W C 133;1Z7X W S 163;0.710209
1Z7X W C 133;1Z7X W V 164;13.5108
1Z7X W E 134;1Z7X W G 135;17.4742
1Z7X W E 134;1Z7X W L 136;0.743488
1Z7X W E 134;1Z7X W L 137;18.1013
1Z7X W E 134;1Z7X W D 138;5.31755
1Z7X W G 135;1Z7X W L 136;16.2353
1Z7X W G 135;1Z7X W L 137;1.73871
1Z7X W G 135;1Z7X W D 138;10.1531
1Z7X W G 135;1Z7X W C 141;5.35429
1Z7X W L 136;1Z7X W L 137;16.1882
1Z7X W L 136;1Z7X W D 138;2.25209
1Z7X W L 136;1Z7X W C 141;23.0625
1Z7X W L 136;1Z7X W L 143;14.7566
1Z7X W L 136;1Z7X W L 146;16.6049
1Z7X W L 136;1Z7X W L 161;3.19026
1Z7X W L 136;1Z7X W V 164;25.4194
1Z7X W L 136;1Z7X W K 168;11.2467
1Z7X W L 137;1Z7X W D 138;20.4575
1Z7X W L 137;1Z7X W P 139;9.77411
1Z7X W L 137;1Z7X W S 163;24.0316
1Z7X W L 137;1Z7X W V 164;14.7773
1Z7X W L 137;1Z7X W A 167;19.2959
1Z7X W L 137;1Z7X W K 168;8.0995
1Z7X W D 138;1Z7X W P 139;30.4278
1Z7X W D 138;1Z7X W Q 140;17.8374
1Z7X W D 138;1Z7X W C 141;13.3494
1Z7X W D 138;1Z7X W K 168;6.54281
1Z7X W P 139;1Z7X W Q 140;23.9528
1Z7X W P 139;1Z7X W C 141;5.13884
1Z7X W P 139;1Z7X W R 142;16.5664
1Z7X W P 139;1Z7X W K 168;6.73188
1Z7X W Q 140;1Z7X W C 141;19.3824
1Z7X W Q 140;1Z7X W R 142;26.0359
1Z7X W C 141;1Z7X W R 142;27.5983
1Z7X W C 141;1Z7X W L 143;18.9665
1Z7X W C 141;1Z7X W V 164;0.042438
1Z7X W C 141;1Z7X W K 168;20.9056
1Z7X W R 142;1Z7X W L 143;23.8655
1Z7X W R 142;1Z7X W E 144;10.5683
1Z7X W R 142;1Z7X W K 168;2.52581
1Z7X W R 142;1Z7X W D 170;2.3346
1Z7X W L 143;1Z7X W E 144;19.5419
1Z7X W L 143;1Z7X W K 145;8.83323
1Z7X W L 143;1Z7X W L 146;15.0384
1Z7X W L 143;1Z7X W K 168;11.5375
1Z7X W L 143;1Z7X W D 170;2.51666
1Z7X W L 143;1Z7X W F 171;20.1334
1Z7X W E 144;1Z7X W K 145;25.3456
1Z7X W E 144;1Z7X W D 170;29.0906
1Z7X W E 144;1Z7X W F 171;15.7174
1Z7X W E 144;1Z7X W K 172;32.344
1Z7X W E 144;1Z7X W E 173;4.81896
1Z7X W K 145;1Z7X W L 146;20.4759
1Z7X W K 145;1Z7X W Q 147;0.734754
1Z7X W K 145;1Z7X W F 171;3.60083
1Z7X W K 145;1Z7X W K 172;19.9954
1Z7X W K 145;1Z7X W E 173;30.9078
1Z7X W K 145;1Z7X W E 201;5.83499
1Z7X W L 146;1Z7X W Q 147;26.609
1Z7X W L 146;1Z7X W L 148;21.3585
1Z7X W L 146;1Z7X W L 161;9.96406
1Z7X W L 146;1Z7X W V 164;3.57031
1Z7X W L 146;1Z7X W F 171;15.4728
1Z7X W L 146;1Z7X W E 173;11.751
1Z7X W L 146;1Z7X W L 174;19.0324
1Z7X W L 146;1Z7X W T 175;8.34208
1Z7X W Q 147;1Z7X W L 148;22.3557
1Z7X W Q 147;1Z7X W E 149;0.388257
1Z7X W Q 147;1Z7X W E 173;20.9584
1Z7X W Q 147;1Z7X W T 175;21.0995
1Z7X W Q 147;1Z7X W K 204;2.9475
1Z7X W L 148;1Z7X W E 149;19.7649
1Z7X W L 148;1Z7X W Y 150;0.372104
1Z7X W L 148;1Z7X W C 151;19.7637
1Z7X W L 148;1Z7X W L 153;13.5503
1Z7X W L 148;1Z7X W L 161;13.7664
1Z7X W L 148;1Z7X W L 174;5.11477
1Z7X W L 148;1Z7X W T 175;13.0707
1Z7X W L 148;1Z7X W V 176;11.715
1Z7X W L 148;1Z7X W N 179;7.4621
1Z7X W E 149;1Z7X W Y 150;32.8492
1Z7X W E 149;1Z7X W C 151;4.37522
1Z7X W E 149;1Z7X W T 175;18.7824
1Z7X W E 149;1Z7X W V 176;1.75017
1Z7X W E 149;1Z7X W S 177;24.1279
1Z7X W E 149;1Z7X W N 178;14.1433
1Z7X W E 149;1Z7X W N 179;0.976396
1Z7X W E 149;1Z7X W K 204;0.0522073
1Z7X W Y 150;1Z7X W C 151;18.7857
1Z7X W Y 150;1Z7X W S 152;5.88336
1Z7X W Y 150;1Z7X W S 177;2.63411
1Z7X W Y 150;1Z7X W N 178;50.9368
1Z7X W Y 150;1Z7X W N 179;3.07275
1Z7X W C 151;1Z7X W S 152;20.4631
1Z7X W C 151;1Z7X W L 153;16.8469
1Z7X W C 151;1Z7X W N 178;0.00833688
1Z7X W C 151;1Z7X W N 179;8.16557
1Z7X W S 152;1Z7X W L 153;24.7927
1Z7X W S 152;1Z7X W S 154;1.47728
1Z7X W S 152;1Z7X W N 178;1.08118
1Z7X W S 152;1Z7X W N 179;5.38443
1Z7X W S 152;1Z7X W D 180;0.333414
1Z7X W L 153;1Z7X W S 154;20.9298
1Z7X W L 153;1Z7X W S 157;12.7414
1Z7X W L 153;1Z7X W L 161;3.50373
1Z7X W L 153;1Z7X W V 176;9.06654
1Z7X W L 153;1Z7X W N 179;24.5595
1Z7X W L 153;1Z7X W D 180;13.2856
1Z7X W L 153;1Z7X W I 181;7.6333
1Z7X W S 154;1Z7X W A 155;20.9622
1Z7X W S 154;1Z7X W A 156;13.4275
1Z7X W S 154;1Z7X W S 157;10.0778
1Z7X W S 154;1Z7X W C 158;3.05837
1Z7X W S 154;1Z7X W D 180;16.5424
1Z7X W S 154;1Z7X W I 181;10.1966
1Z7X W A 155;1Z7X W A 156;23.4033
1Z7X W A 155;1Z7X W S 157;2.03302
1Z7X W A 155;1Z7X W C 158;14.483
1Z7X W A 155;1Z7X W E 159;5.31764
1Z7X W A 155;1Z7X W D 180;3.25749
1Z7X W A 155;1Z7X W I 181;15.2026
1Z7X W A 155;1Z7X W N 182;2.79873
1Z7X W A 155;1Z7X W A 184;9.64959
1Z7X W A 155;1Z7X W G 185;13.2202
1Z7X W A 155;1Z7X W V 188;0.835281
1Z7X W A 156;1Z7X W S 157;16.1344
1Z7X W A 156;1Z7X W C 158;1.85
1Z7X W A 156;1Z7X W E 159;5.17734
1Z7X W A 156;1Z7X W P 160;10.2247
1Z7X W S 157;1Z7X W C 158;19.5548
1Z7X W S 157;1Z7X W E 159;0.399917
1Z7X W S 157;1Z7X W P 160;9.04717
1Z7X W S 157;1Z7X W L 161;14.2659
1Z7X W S 157;1Z7X W I 181;1.67623
1Z7X W C 158;1Z7X W E 159;17.6984
1Z7X W C 158;1Z7X W P 160;0.524563
1Z7X W C 158;1Z7X W L 161;10.5316
1Z7X W C 158;1Z7X W A 162;8.81359
1Z7X W C 158;1Z7X W V 176;0.732851
1Z7X W C 158;1Z7X W I 181;15.8306
1Z7X W C 158;1Z7X W G 185;15.2711
1Z7X W C 158;1Z7X W V 188;13.7153
1Z7X W C 158;1Z7X W L 189;21.1628
1Z7X W E 159;1Z7X W P 160;29.7588
1Z7X W E 159;1Z7X W L 161;1.08939
1Z7X W E 159;1Z7X W A 162;11.4478
1Z7X W E 159;1Z7X W S 163;11.1728
1Z7X W E 159;1Z7X W R 166;7.23221
1Z7X W E 159;1Z7X W V 188;31.9703
1Z7X W P 160;1Z7X W L 161;16.0568
1Z7X W P 160;1Z7X W A 162;0.580007
1Z7X W P 160;1Z7X W S 163;16.2298
1Z7X W P 160;1Z7X W V 164;8.00758
1Z7X W L 161;1Z7X W A 162;15.7132
1Z7X W L 161;1Z7X W S 163;1.1255
1Z7X W L 161;1Z7X W V 164;16.5534
1Z7X W L 161;1Z7X W L 165;14.7793
1Z7X W L 161;1Z7X W L 174;14.8365
1Z7X W L 161;1Z7X W V 176;12.7135
1Z7X W L 161;1Z7X W I 181;0.0411451
1Z7X W L 161;1Z7X W L 189;15.2109
1Z7X W A 162;1Z7X W S 163;15.3052
1Z7X W A 162;1Z7X W V 164;0.823521
1Z7X W A 162;1Z7X W L 165;12.788
1Z7X W A 162;1Z7X W R 166;20.0921
1Z7X W A 162;1Z7X W V 188;12.6992
1Z7X W A 162;1Z7X W L 189;8.38427
1Z7X W A 162;1Z7X W G 192;14.5078
1Z7X W S 163;1Z7X W V 164;16.5338
1Z7X W S 163;1Z7X W L 165;0.642256
1Z7X W S 163;1Z7X W R 166;32.3682
1Z7X W S 163;1Z7X W A 167;9.09941
1Z7X W V 164;1Z7X W L 165;22.4342
1Z7X W V 164;1Z7X W R 166;0.95226
1Z7X W V 164;1Z7X W A 167;7.77608
1Z7X W V 164;1Z7X W K 168;21.2098
1Z7X W V 164;1Z7X W F 171;13.2364
1Z7X W L 165;1Z7X W R 166;16.7687
1Z7X W L 165;1Z7X W A 167;1.17119
1Z7X W L 165;1Z7X W K 168;10.9879
1Z7X W L 165;1Z7X W F 171;22.2028
1Z7X W L 165;1Z7X W L 174;18.8731
1Z7X W L 165;1Z7X W L 189;13.311
1Z7X W L 165;1Z7X W G 192;7.81877
1Z7X W L 165;1Z7X W L 193;24.9091
1Z7X W L 165;1Z7X W S 196;15.0298
1Z7X W L 165;1Z7X W C 198;6.02294
1Z7X W L 165;1Z7X W L 200;2.94188
1Z7X W R 166;1Z7X W A 167;23.2741
1Z7X W R 166;1Z7X W K 168;3.45229
1Z7X W R 166;1Z7X W P 169;2.55601
1Z7X W R 166;1Z7X W G 192;12.6133
1Z7X W R 166;1Z7X W D 195;25.1173
1Z7X W R 166;1Z7X W S 196;10.6658
1Z7X W R 166;1Z7X W P 197;11.7705
1Z7X W A 167;1Z7X W K 168;31.4285
1Z7X W A 167;1Z7X W P 169;12.1577
1Z7X W K 168;1Z7X W P 169;22.3458
1Z7X W K 168;1Z7X W D 170;8.03946
1Z7X W K 168;1Z7X W F 171;24.1011
1Z7X W K 168;1Z7X W S 196;2.93026
1Z7X W K 168;1Z7X W P 197;0.403938
1Z7X W K 168;1Z7X W C 198;5.62189
1Z7X W P 169;1Z7X W D 170;20.0195
1Z7X W P 169;1Z7X W F 171;2.30363
1Z7X W P 169;1Z7X W S 196;0.385103
1Z7X W P 169;1Z7X W P 197;27.0097
1Z7X W P 169;1Z7X W C 198;12.0714
1Z7X W P 169;1Z7X W Q 199;3.45647
1Z7X W D 170;1Z7X W F 171;21.9625
1Z7X W D 170;1Z7X W K 172;15.8814
1Z7X W D 170;1Z7X W Q 199;0.0458497
1Z7X W F 171;1Z7X W K 172;21.227
1Z7X W F 171;1Z7X W E 173;10.5274
1Z7X W F 171;1Z7X W L 174;11.9066
1Z7X W F 171;1Z7X W C 198;17.6515
1Z7X W F 171;1Z7X W Q 199;8.20225
1Z7X W F 171;1Z7X W L 200;15.5273
1Z7X W K 172;1Z7X W E 173;19.8985
1Z7X W K 172;1Z7X W Q 199;4.244
1Z7X W K 172;1Z7X W L 200;10.5637
1Z7X W K 172;1Z7X W E 201;42.1178
1Z7X W K 172;1Z7X W A 202;5.42952
1Z7X W E 173;1Z7X W L 174;21.4893
1Z7X W E 173;1Z7X W T 175;10.8893
1Z7X W E 173;1Z7X W L 200;4.40078
1Z7X W E 173;1Z7X W E 201;0.121669
1Z7X W E 173;1Z7X W A 202;25.189
1Z7X W E 173;1Z7X W K 204;14.3422
1Z7X W E 173;1Z7X W E 230;0.72344
1Z7X W L 174;1Z7X W T 175;23.5772
1Z7X W L 174;1Z7X W V 176;15.819
1Z7X W L 174;1Z7X W L 189;13.02
1Z7X W L 174;1Z7X W L 193;2.91788
1Z7X W L 174;1Z7X W L 200;8.15984
1Z7X W L 174;1Z7X W A 202;6.17871
1Z7X W L 174;1Z7X W L 203;23.4472
1Z7X W L 174;1Z7X W K 204;8.37797
1Z7X W L 174;1Z7X W L 205;0.707705
1Z7X W T 175;1Z7X W V 176;21.642
1Z7X W T 175;1Z7X W S 177;10.5852
1Z7X W T 175;1Z7X W K 204;29.5409
1Z7X W V 176;1Z7X W S 177;18.9116
1Z7X W V 176;1Z7X W N 178;0.000275293
1Z7X W V 176;1Z7X W N 179;18.9402
1Z7X W V 176;1Z7X W I 181;15.5777
1Z7X W V 176;1Z7X W L 189;8.72638
1Z7X W V 176;1Z7X W L 203;0.00215367
1Z7X W V 176;1Z7X W K 204;6.07619
1Z7X W V 176;1Z7X W L 205;11.7002
1Z7X W V 176;1Z7X W C 208;9.63184
1Z7X W S 177;1Z7X W N 178;20.6144
1Z7X W S 177;1Z7X W N 179;4.22575
1Z7X W S 177;1Z7X W K 204;11.555
1Z7X W S 177;1Z7X W L 205;3.20665
1Z7X W S 177;1Z7X W E 206;25.1691
1Z7X W S 177;1Z7X W C 208;4.37043
1Z7X W N 178;1Z7X W N 179;25.9105
1Z7X W N 178;1Z7X W E 206;8.10876
1Z7X W N 178;1Z7X W S 207;30.1607
1Z7X W N 178;1Z7X W C 208;2.05668
1Z7X W N 179;1Z7X W D 180;22.1757
1Z7X W N 179;1Z7X W I 181;15.7399
1Z7X W N 179;1Z7X W S 207;6.52787
1Z7X W N 179;1Z7X W C 208;12.943
1Z7X W D 180;1Z7X W I 181;16.2731
1Z7X W D 180;1Z7X W N 182;28.5457
1Z7X W D 180;1Z7X W S 207;1.25234
1Z7X W D 180;1Z7X W C 208;4.70777
1Z7X W D 180;1Z7X W G 209;0.242089
1Z7X W I 181;1Z7X W N 182;25.1664
1Z7X W I 181;1Z7X W A 184;0.309797
1Z7X W I 181;1Z7X W G 185;12.1799
1Z7X W I 181;1Z7X W V 186;15.999
1Z7X W I 181;1Z7X W L 189;9.2837
1Z7X W I 181;1Z7X W L 205;7.7406
1Z7X W I 181;1Z7X W C 208;17.8372
1Z7X W N 182;1Z7X W E 183;24.3674
1Z7X W N 182;1Z7X W A 184;3.93589
1Z7X W N 182;1Z7X W G 185;2.87055
1Z7X W N 182;1Z7X W V 186;12.3105
1Z7X W N 182;1Z7X W C 208;8.84955
1Z7X W N 182;1Z7X W G 209;20.2117
1Z7X W N 182;1Z7X W N 214;0.149614
1Z7X W E 183;1Z7X W A 184;23.5827
1Z7X W E 183;1Z7X W G 185;0.578799
1Z7X W E 183;1Z7X W V 186;4.73285
1Z7X W E 183;1Z7X W R 187;22.2267
1Z7X W E 183;1Z7X W G 209;4.1832
1Z7X W E 183;1Z7X W T 211;27.7152
1Z7X W E 183;1Z7X W D 213;19.2658
1Z7X W E 183;1Z7X W N 214;21.8372
1Z7X W E 183;1Z7X W D 217;0.132066
1Z7X W A 184;1Z7X W G 185;20.5919
1Z7X W A 184;1Z7X W V 186;0.831137
1Z7X W A 184;1Z7X W R 187;29.5306
1Z7X W A 184;1Z7X W V 188;16.1997
1Z7X W G 185;1Z7X W V 186;16.5433
1Z7X W G 185;1Z7X W R 187;0.865672
1Z7X W G 185;1Z7X W V 188;7.30373
1Z7X W G 185;1Z7X W L 189;8.08609
1Z7X W V 186;1Z7X W R 187;17.3156
1Z7X W V 186;1Z7X W V 188;0.982819
1Z7X W V 186;1Z7X W L 189;10.3388
1Z7X W V 186;1Z7X W C 190;17.3588
1Z7X W V 186;1Z7X W L 205;13.1663
1Z7X W V 186;1Z7X W C 208;5.1048
1Z7X W V 186;1Z7X W G 209;0.95078
1Z7X W V 186;1Z7X W V 210;17.5858
1Z7X W V 186;1Z7X W N 214;17.2249
1Z7X W V 186;1Z7X W D 217;2.50059
1Z7X W V 186;1Z7X W L 218;7.38194
1Z7X W R 187;1Z7X W V 188;28.9587
1Z7X W R 187;1Z7X W L 189;0.706389
1Z7X W R 187;1Z7X W C 190;9.0605
1Z7X W R 187;1Z7X W Q 191;14.5769
1Z7X W R 187;1Z7X W N 214;5.7406
1Z7X W R 187;1Z7X W D 217;27.8679
1Z7X W V 188;1Z7X W L 189;17.3626
1Z7X W V 188;1Z7X W C 190;0.730309
1Z7X W V 188;1Z7X W Q 191;12.6135
1Z7X W V 188;1Z7X W G 192;5.9626
1Z7X W L 189;1Z7X W C 190;20.282
1Z7X W L 189;1Z7X W Q 191;0.775891
1Z7X W L 189;1Z7X W G 192;5.99227
1Z7X W L 189;1Z7X W L 193;12.9817
1Z7X W L 189;1Z7X W L 203;3.84039
1Z7X W L 189;1Z7X W L 205;14.5686
1Z7X W C 190;1Z7X W Q 191;19.2052
1Z7X W C 190;1Z7X W G 192;1.03248
1Z7X W C 190;1Z7X W L 193;10.4003
1Z7X W C 190;1Z7X W K 194;8.25194
1Z7X W C 190;1Z7X W L 203;3.60385
1Z7X W C 190;1Z7X W L 205;3.69683
1Z7X W C 190;1Z7X W D 217;19.6992
1Z7X W C 190;1Z7X W L 218;13.9406
1Z7X W C 190;1Z7X W I 221;21.1203
1Z7X W Q 191;1Z7X W G 192;18.4537
1Z7X W Q 191;1Z7X W L 193;0.707167
1Z7X W Q 191;1Z7X W K 194;24.4724
1Z7X W Q 191;1Z7X W D 195;34.6572
1Z7X W G 192;1Z7X W L 193;15.0803
1Z7X W G 192;1Z7X W K 194;0.630957
1Z7X W G 192;1Z7X W D 195;8.48672
1Z7X W G 192;1Z7X W S 196;8.11352
1Z7X W L 193;1Z7X W K 194;17.5812
1Z7X W L 193;1Z7X W D 195;0.955727
1Z7X W L 193;1Z7X W S 196;12.3708
1Z7X W L 193;1Z7X W C 198;9.53637
1Z7X W L 193;1Z7X W L 200;20.7814
1Z7X W L 193;1Z7X W L 203;18.9544
1Z7X W L 193;1Z7X W I 221;19.3345
1Z7X W L 193;1Z7X W K 225;19.288
1Z7X W K 194;1Z7X W D 195;25.7784
1Z7X W K 194;1Z7X W S 196;6.65724
1Z7X W K 194;1Z7X W D 217;1.31873
1Z7X W K 194;1Z7X W G 220;20.859
1Z7X W K 194;1Z7X W I 221;16.6715
1Z7X W K 194;1Z7X W S 224;21.6512
1Z7X W K 194;1Z7X W K 225;5.94939
1Z7X W D 195;1Z7X W S 196;20.9863
1Z7X W D 195;1Z7X W P 197;7.77032
1Z7X W S 196;1Z7X W P 197;28.5006
1Z7X W S 196;1Z7X W C 198;18.9813
1Z7X W S 196;1Z7X W K 225;11.0879
1Z7X W P 197;1Z7X W C 198;20.1772
1Z7X W P 197;1Z7X W Q 199;14.2688
1Z7X W P 197;1Z7X W K 225;2.07544
1Z7X W C 198;1Z7X W Q 199;19.7689
1Z7X W C 198;1Z7X W L 200;17.3012
1Z7X W C 198;1Z7X W K 225;19.8226
1Z7X W Q 199;1Z7X W L 200;15.6385
1Z7X W Q 199;1Z7X W E 201;10.4372
1Z7X W Q 199;1Z7X W K 225;3.68798
1Z7X W Q 199;1Z7X W A 226;4.53087
1Z7X W Q 199;1Z7X W S 227;32.6223
1Z7X W L 200;1Z7X W E 201;17.0079
1Z7X W L 200;1Z7X W A 202;11.121
1Z7X W L 200;1Z7X W L 203;12.6742
1Z7X W L 200;1Z7X W I 221;2.28898
1Z7X W L 200;1Z7X W K 225;15.6069
1Z7X W L 200;1Z7X W S 227;10.5663
1Z7X W L 200;1Z7X W L 228;19.5619
1Z7X W E 201;1Z7X W A 202;22.7931
1Z7X W E 201;1Z7X W S 227;13.1468
1Z7X W E 201;1Z7X W L 228;7.11049
1Z7X W E 201;1Z7X W R 229;21.19
1Z7X W E 201;1Z7X W E 230;6.3485
1Z7X W A 202;1Z7X W L 203;19.076
1Z7X W A 202;1Z7X W K 204;6.46621
1Z7X W A 202;1Z7X W L 228;4.67989
1Z7X W A 202;1Z7X W E 230;21.9099
1Z7X W L 203;1Z7X W K 204;26.3379
1Z7X W L 203;1Z7X W L 205;23.2521
1Z7X W L 203;1Z7X W L 218;9.42218
1Z7X W L 203;1Z7X W I 221;9.73303
1Z7X W L 203;1Z7X W L 228;8.93929
1Z7X W L 203;1Z7X W E 230;8.49231
1Z7X W L 203;1Z7X W L 231;22.9871
1Z7X W L 203;1Z7X W A 232;7.36512
1Z7X W L 203;1Z7X W L 233;0.332362
1Z7X W K 204;1Z7X W L 205;23.2003
1Z7X W K 204;1Z7X W E 206;5.40739
1Z7X W K 204;1Z7X W E 230;25.2408
1Z7X W K 204;1Z7X W A 232;20.2231
1Z7X W L 205;1Z7X W E 206;17.9035
1Z7X W L 205;1Z7X W S 207;0.147765
1Z7X W L 205;1Z7X W C 208;18.4209
1Z7X W L 205;1Z7X W V 210;11.6717
1Z7X W L 205;1Z7X W L 218;9.08316
1Z7X W L 205;1Z7X W A 232;7.63255
1Z7X W L 205;1Z7X W L 233;16.806
1Z7X W L 205;1Z7X W N 236;6.30249
1Z7X W E 206;1Z7X W S 207;21.7109
1Z7X W E 206;1Z7X W C 208;4.70324
1Z7X W E 206;1Z7X W A 232;18.4827
1Z7X W E 206;1Z7X W L 233;5.43153
1Z7X W E 206;1Z7X W G 234;16.871
1Z7X W E 206;1Z7X W S 235;0.19434
1Z7X W E 206;1Z7X W N 236;2.04499
1Z7X W E 206;1Z7X W W 261;11.8473
1Z7X W E 206;1Z7X W W 263;22.7713
1Z7X W S 207;1Z7X W C 208;18.9465
1Z7X W S 207;1Z7X W G 209;3.89445
1Z7X W S 207;1Z7X W G 234;4.41436
1Z7X W S 207;1Z7X W S 235;27.1457
1Z7X W S 207;1Z7X W N 236;4.74799
1Z7X W S 207;1Z7X W W 263;4.81606
1Z7X W C 208;1Z7X W G 209;20.248
1Z7X W C 208;1Z7X W V 210;9.04579
1Z7X W C 208;1Z7X W N 236;6.05059
1Z7X W G 209;1Z7X W V 210;21.9848
1Z7X W G 209;1Z7X W T 211;10.7981
1Z7X W G 209;1Z7X W N 214;1.12909
1Z7X W G 209;1Z7X W S 235;0.369403
1Z7X W G 209;1Z7X W N 236;7.79243
1Z7X W G 209;1Z7X W K 237;0.123792
1Z7X W V 210;1Z7X W T 211;24.1435
1Z7X W V 210;1Z7X W N 214;12.0362
1Z7X W V 210;1Z7X W C 215;1.84145
1Z7X W V 210;1Z7X W L 218;11.4211
1Z7X W V 210;1Z7X W L 233;8.56638
1Z7X W V 210;1Z7X W N 236;23.0822
1Z7X W V 210;1Z7X W K 237;10.843
1Z7X W V 210;1Z7X W L 238;14.7829
1Z7X W T 211;1Z7X W S 212;21.6872
1Z7X W T 211;1Z7X W D 213;8.52232
1Z7X W T 211;1Z7X W N 214;22.0056
1Z7X W T 211;1Z7X W C 215;6.63218
1Z7X W T 211;1Z7X W K 237;6.19447
1Z7X W T 211;1Z7X W L 238;5.37589
1Z7X W S 212;1Z7X W D 213;25.1978
1Z7X W S 212;1Z7X W N 214;0.829002
1Z7X W S 212;1Z7X W C 215;12.432
1Z7X W S 212;1Z7X W R 216;1.22721
1Z7X W S 212;1Z7X W K 237;11.9413
1Z7X W S 212;1Z7X W L 238;13.6898
1Z7X W S 212;1Z7X W G 239;2.29099
1Z7X W S 212;1Z7X W V 241;15.1657
1Z7X W S 212;1Z7X W G 242;9.56289
1Z7X W S 212;1Z7X W E 245;10.3596
1Z7X W D 213;1Z7X W N 214;17.4473
1Z7X W D 213;1Z7X W C 215;2.30843
1Z7X W D 213;1Z7X W R 216;45.8706
1Z7X W D 213;1Z7X W D 217;6.68794
1Z7X W D 213;1Z7X W V 241;1.25663
1Z7X W D 213;1Z7X W E 245;4.51316
1Z7X W N 214;1Z7X W C 215;14.6162
1Z7X W N 214;1Z7X W R 216;1.19333
1Z7X W N 214;1Z7X W D 217;24.0584
1Z7X W N 214;1Z7X W L 218;13.0898
1Z7X W C 215;1Z7X W R 216;15.5113
1Z7X W C 215;1Z7X W D 217;0.803268
1Z7X W C 215;1Z7X W L 218;14.3197
1Z7X W C 215;1Z7X W C 219;8.99664
1Z7X W C 215;1Z7X W L 233;0.680899
1Z7X W C 215;1Z7X W L 238;17.8257
1Z7X W C 215;1Z7X W G 242;16.5804
1Z7X W C 215;1Z7X W M 243;0.0272408
1Z7X W C 215;1Z7X W E 245;10.4804
1Z7X W C 215;1Z7X W L 246;19.6651
1Z7X W R 216;1Z7X W D 217;24.8054
1Z7X W R 216;1Z7X W L 218;0.617222
1Z7X W R 216;1Z7X W C 219;13.4824
1Z7X W R 216;1Z7X W G 220;7.96404
1Z7X W R 216;1Z7X W E 245;37.7817
1Z7X W D 217;1Z7X W L 218;16.1544
1Z7X W D 217;1Z7X W C 219;0.976605
1Z7X W D 217;1Z7X W G 220;8.28922
1Z7X W D 217;1Z7X W I 221;9.33416
1Z7X W L 218;1Z7X W C 219;16.0903
1Z7X W L 218;1Z7X W G 220;1.27836
1Z7X W L 218;1Z7X W I 221;16.5548
1Z7X W L 218;1Z7X W V 222;12.3419
1Z7X W L 218;1Z7X W L 231;10.4567
1Z7X W L 218;1Z7X W L 233;21.1269
1Z7X W L 218;1Z7X W L 238;0.514371
1Z7X W L 218;1Z7X W L 246;11.9787
1Z7X W C 219;1Z7X W G 220;20.1275
1Z7X W C 219;1Z7X W I 221;0.835169
1Z7X W C 219;1Z7X W V 222;7.6144
1Z7X W C 219;1Z7X W A 223;11.5826
1Z7X W C 219;1Z7X W E 245;12.6249
1Z7X W C 219;1Z7X W L 246;13.8469
1Z7X W C 219;1Z7X W P 248;10.3942
1Z7X W C 219;1Z7X W G 249;16.9274
1Z7X W C 219;1Z7X W H 252;0.962192
1Z7X W G 220;1Z7X W I 221;17.4268
1Z7X W G 220;1Z7X W V 222;0.640777
1Z7X W G 220;1Z7X W A 223;11.4884
1Z7X W G 220;1Z7X W S 224;13.2771
1Z7X W I 221;1Z7X W V 222;21.5277
1Z7X W I 221;1Z7X W A 223;0.77229
1Z7X W I 221;1Z7X W S 224;10.4615
1Z7X W I 221;1Z7X W K 225;25.9253
1Z7X W I 221;1Z7X W L 228;11.701
1Z7X W I 221;1Z7X W L 231;0.920908
1Z7X W V 222;1Z7X W A 223;20.7692
1Z7X W V 222;1Z7X W S 224;1.37505
1Z7X W V 222;1Z7X W K 225;11.0469
1Z7X W V 222;1Z7X W A 226;0.577665
1Z7X W V 222;1Z7X W L 228;17.0683
1Z7X W V 222;1Z7X W L 231;14.5337
1Z7X W V 222;1Z7X W L 246;8.52182
1Z7X W V 222;1Z7X W G 249;9.46411
1Z7X W V 222;1Z7X W L 250;19.7396
1Z7X W V 222;1Z7X W S 254;0.846911
1Z7X W V 222;1Z7X W S 255;21.0719
1Z7X W V 222;1Z7X W L 257;6.94614
1Z7X W A 223;1Z7X W S 224;25.6493
1Z7X W A 223;1Z7X W K 225;1.52486
1Z7X W A 223;1Z7X W A 226;1.27717
1Z7X W A 223;1Z7X W G 249;11.3844
1Z7X W A 223;1Z7X W H 252;27.7464
1Z7X W A 223;1Z7X W S 254;13.9841
1Z7X W A 223;1Z7X W S 255;0.540321
1Z7X W S 224;1Z7X W K 225;33.0879
1Z7X W S 224;1Z7X W A 226;6.43589
1Z7X W K 225;1Z7X W A 226;22.451
1Z7X W K 225;1Z7X W S 227;11.9868
1Z7X W K 225;1Z7X W L 228;24.5073
1Z7X W K 225;1Z7X W S 255;1.86029
1Z7X W K 225;1Z7X W R 256;0.6883
1Z7X W A 226;1Z7X W S 227;21.6893
1Z7X W A 226;1Z7X W L 228;3.6017
1Z7X W A 226;1Z7X W R 229;11.8982
1Z7X W A 226;1Z7X W S 254;27.0467
1Z7X W A 226;1Z7X W S 255;3.51409
1Z7X W A 226;1Z7X W R 256;10.3513
1Z7X W S 227;1Z7X W L 228;15.4244
1Z7X W S 227;1Z7X W R 229;20.4491
1Z7X W L 228;1Z7X W R 229;23.5857
1Z7X W L 228;1Z7X W E 230;9.33788
1Z7X W L 228;1Z7X W L 231;12.6132
1Z7X W L 228;1Z7X W R 256;3.37841
1Z7X W L 228;1Z7X W L 257;24.788
1Z7X W R 229;1Z7X W E 230;22.0142
1Z7X W R 229;1Z7X W R 256;27.8494
1Z7X W R 229;1Z7X W L 257;7.52306
1Z7X W R 229;1Z7X W R 258;31.0331
1Z7X W R 229;1Z7X W T 259;7.89134
1Z7X W E 230;1Z7X W L 231;22.0421
1Z7X W E 230;1Z7X W A 232;10.4959
1Z7X W E 230;1Z7X W L 257;5.04061
1Z7X W E 230;1Z7X W T 259;26.9966
1Z7X W E 230;1Z7X W W 261;2.78085
1Z7X W L 231;1Z7X W A 232;21.2294
1Z7X W L 231;1Z7X W L 233;23.1077
1Z7X W L 231;1Z7X W L 246;8.16106
1Z7X W L 231;1Z7X W L 250;2.64735
1Z7X W L 231;1Z7X W L 257;14.1587
1Z7X W L 231;1Z7X W T 259;8.69308
1Z7X W L 231;1Z7X W L 260;19.8129
1Z7X W L 231;1Z7X W W 261;9.32652
1Z7X W L 231;1Z7X W I 262;0.00368188
1Z7X W A 232;1Z7X W L 233;22.537
1Z7X W A 232;1Z7X W W 261;17.5194
1Z7X W L 233;1Z7X W G 234;17.481
1Z7X W L 233;1Z7X W N 236;15.2989
1Z7X W L 233;1Z7X W L 238;16.2546
1Z7X W L 233;1Z7X W L 246;10.8034
1Z7X W L 233;1Z7X W L 260;2.86168
1Z7X W L 233;1Z7X W W 261;7.90263
1Z7X W L 233;1Z7X W I 262;11.8903
1Z7X W L 233;1Z7X W C 265;7.87495
1Z7X W G 234;1Z7X W S 235;17.7249
1Z7X W G 234;1Z7X W N 236;4.56282
1Z7X W G 234;1Z7X W W 261;3.75162
1Z7X W G 234;1Z7X W I 262;2.44589
1Z7X W G 234;1Z7X W W 263;18.5465
1Z7X W G 234;1Z7X W C 265;3.37563
1Z7X W S 235;1Z7X W N 236;25.6575
1Z7X W S 235;1Z7X W W 263;21.5877
1Z7X W S 235;1Z7X W E 264;22.3194
1Z7X W S 235;1Z7X W C 265;1.84128
1Z7X W N 236;1Z7X W K 237;25.539
1Z7X W N 236;1Z7X W L 238;16.1722
1Z7X W N 236;1Z7X W E 264;6.89679
1Z7X W N 236;1Z7X W C 265;13.8935
1Z7X W N 236;1Z7X W G 266;0.0944817
1Z7X W K 237;1Z7X W L 238;19.0752
1Z7X W K 237;1Z7X W G 239;3.76596
1Z7X W K 237;1Z7X W C 265;2.60026
1Z7X W K 237;1Z7X W G 266;3.34971
1Z7X W L 238;1Z7X W G 239;23.9945
1Z7X W L 238;1Z7X W V 241;0.4351
1Z7X W L 238;1Z7X W G 242;12.2927
1Z7X W L 238;1Z7X W M 243;10.0184
1Z7X W L 238;1Z7X W L 246;5.49481
1Z7X W L 238;1Z7X W I 262;7.53301
1Z7X W L 238;1Z7X W C 265;21.8256
1Z7X W L 238;1Z7X W I 267;2.61573
1Z7X W G 239;1Z7X W D 240;20.6448
1Z7X W G 239;1Z7X W V 241;4.45523
1Z7X W G 239;1Z7X W G 242;3.67722
1Z7X W G 239;1Z7X W M 243;9.77048
1Z7X W G 239;1Z7X W C 265;7.29681
1Z7X W G 239;1Z7X W G 266;13.6708
1Z7X W G 239;1Z7X W I 267;7.33644
1Z7X W D 240;1Z7X W V 241;22.4298
1Z7X W D 240;1Z7X W G 242;0.746939
1Z7X W D 240;1Z7X W M 243;10.2
1Z7X W D 240;1Z7X W A 244;8.61204
1Z7X W D 240;1Z7X W G 266;5.46249
1Z7X W D 240;1Z7X W I 267;7.87923
1Z7X W D 240;1Z7X W T 268;23.3806
1Z7X W D 240;1Z7X W K 270;26.3257
1Z7X W D 240;1Z7X W G 271;16.5825
1Z7X W D 240;1Z7X W D 274;3.20015
1Z7X W V 241;1Z7X W G 242;18.7522
1Z7X W V 241;1Z7X W M 243;0.719303
1Z7X W V 241;1Z7X W A 244;13.3858
1Z7X W V 241;1Z7X W E 245;24.9424
1Z7X W V 241;1Z7X W K 270;13.056
1Z7X W G 242;1Z7X W M 243;17.2386
1Z7X W G 242;1Z7X W A 244;1.02141
1Z7X W G 242;1Z7X W E 245;8.32025
1Z7X W G 242;1Z7X W L 246;7.84334
1Z7X W M 243;1Z7X W A 244;16.907
1Z7X W M 243;1Z7X W E 245;1.3582
1Z7X W M 243;1Z7X W L 246;20.1777
1Z7X W M 243;1Z7X W C 247;21.8447
1Z7X W M 243;1Z7X W L 250;1.70114
1Z7X W M 243;1Z7X W L 260;1.26354
1Z7X W M 243;1Z7X W I 262;12.4318
1Z7X W M 243;1Z7X W I 267;22.9699
1Z7X W M 243;1Z7X W G 271;13.1493
1Z7X W M 243;1Z7X W D 274;7.59302
1Z7X W M 243;1Z7X W L 275;15.2323
1Z7X W A 244;1Z7X W E 245;21.92
1Z7X W A 244;1Z7X W L 246;0.554864
1Z7X W A 244;1Z7X W C 247;3.407
1Z7X W A 244;1Z7X W P 248;15.8351
1Z7X W A 244;1Z7X W K 270;8.17317
1Z7X W A 244;1Z7X W D 274;18.5558
1Z7X W E 245;1Z7X W L 246;15.9001
1Z7X W E 245;1Z7X W P 248;11.5045
1Z7X W L 246;1Z7X W C 247;16.8104
1Z7X W L 246;1Z7X W P 248;3.63043
1Z7X W L 246;1Z7X W G 249;6.43046
1Z7X W L 246;1Z7X W L 250;23.3638
1Z7X W L 246;1Z7X W L 260;7.90747
1Z7X W L 246;1Z7X W I 262;5.00409
1Z7X W C 247;1Z7X W P 248;23.5592
1Z7X W C 247;1Z7X W G 249;1.10719
1Z7X W C 247;1Z7X W L 250;18.0662
1Z7X W C 247;1Z7X W L 251;16.5783
1Z7X W C 247;1Z7X W D 274;18.0661
1Z7X W C 247;1Z7X W L 275;9.90762
1Z7X W C 247;1Z7X W R 277;0.83927
1Z7X W C 247;1Z7X W V 278;14.487
1Z7X W P 248;1Z7X W G 249;17.0387
1Z7X W P 248;1Z7X W L 250;0.524358
1Z7X W P 248;1Z7X W L 251;17.2673
1Z7X W P 248;1Z7X W H 252;15.4996
1Z7X W G 249;1Z7X W L 250;15.2832
1Z7X W G 249;1Z7X W L 251;1.5033
1Z7X W G 249;1Z7X W H 252;16.0466
1Z7X W G 249;1Z7X W S 255;5.25549
1Z7X W L 250;1Z7X W L 251;15.8923
1Z7X W L 250;1Z7X W H 252;3.33995
1Z7X W L 250;1Z7X W S 255;12.3297
1Z7X W L 250;1Z7X W L 257;16.6543
1Z7X W L 250;1Z7X W L 260;16.8145
1Z7X W L 250;1Z7X W L 275;4.05665
1Z7X W L 250;1Z7X W V 278;24.6887
1Z7X W L 250;1Z7X W K 282;13.1054
1Z7X W L 250;1Z7X W L 285;1.50494
1Z7X W L 251;1Z7X W H 252;21.0019
1Z7X W L 251;1Z7X W P 253;10.029
1Z7X W L 251;1Z7X W D 274;0.303109
1Z7X W L 251;1Z7X W R 277;19.5247
1Z7X W L 251;1Z7X W V 278;17.8614
1Z7X W L 251;1Z7X W A 281;14.9477
1Z7X W L 251;1Z7X W K 282;14.7334
1Z7X W H 252;1Z7X W P 253;28.1342
1Z7X W H 252;1Z7X W S 254;12.8607
1Z7X W H 252;1Z7X W S 255;12.8361
1Z7X W H 252;1Z7X W K 282;7.25059
1Z7X W P 253;1Z7X W S 254;27.8858
1Z7X W P 253;1Z7X W S 255;4.00639
1Z7X W P 253;1Z7X W R 256;8.50668
1Z7X W P 253;1Z7X W K 282;13.6692
1Z7X W S 254;1Z7X W S 255;22.0308
1Z7X W S 254;1Z7X W R 256;10.5519
1Z7X W S 255;1Z7X W R 256;25.1639
1Z7X W S 255;1Z7X W L 257;13.9313
1Z7X W S 255;1Z7X W K 282;17.2067
1Z7X W S 255;1Z7X W S 284;2.18581
1Z7X W R 256;1Z7X W L 257;22.3964
1Z7X W R 256;1Z7X W R 258;5.58361
1Z7X W R 256;1Z7X W K 282;3.59518
1Z7X W R 256;1Z7X W E 283;7.39503
1Z7X W R 256;1Z7X W S 284;41.5313
1Z7X W L 257;1Z7X W R 258;16.249
1Z7X W L 257;1Z7X W T 259;10.1153
1Z7X W L 257;1Z7X W L 260;12.6121
1Z7X W L 257;1Z7X W K 282;0.255035
1Z7X W L 257;1Z7X W S 284;8.14477
1Z7X W L 257;1Z7X W L 285;21.943
1Z7X W R 258;1Z7X W T 259;26.274
1Z7X W R 258;1Z7X W S 284;10.5607
1Z7X W R 258;1Z7X W L 285;7.61327
1Z7X W R 258;1Z7X W K 286;42.8529
1Z7X W R 258;1Z7X W E 287;12.4978
1Z7X W R 258;1Z7X W E 315;11.7289
1Z7X W T 259;1Z7X W L 260;19.297
1Z7X W T 259;1Z7X W W 261;19.0421
1Z7X W T 259;1Z7X W L 285;3.19595
1Z7X W T 259;1Z7X W E 287;28.2435
1Z7X W L 260;1Z7X W W 261;22.8946
1Z7X W L 260;1Z7X W I 262;24.4394
1Z7X W L 260;1Z7X W L 275;9.75249
1Z7X W L 260;1Z7X W V 278;0.950631
1Z7X W L 260;1Z7X W L 285;17.9273
1Z7X W L 260;1Z7X W E 287;7.32332
1Z7X W L 260;1Z7X W L 288;19.5141
1Z7X W L 260;1Z7X W S 289;6.25384
1Z7X W W 261;1Z7X W I 262;21.7828
1Z7X W W 261;1Z7X W W 263;15.7535
1Z7X W W 261;1Z7X W E 287;6.52554
1Z7X W W 261;1Z7X W L 288;3.29641
1Z7X W W 261;1Z7X W S 289;25.3441
1Z7X W W 261;1Z7X W W 318;24.3281
1Z7X W I 262;1Z7X W W 263;18.4505
1Z7X W I 262;1Z7X W C 265;16.887
1Z7X W I 262;1Z7X W I 267;12.073
1Z7X W I 262;1Z7X W L 275;7.68615
1Z7X W I 262;1Z7X W L 288;7.42822
1Z7X W I 262;1Z7X W S 289;13.1657
1Z7X W I 262;1Z7X W L 290;13.0727
1Z7X W I 262;1Z7X W N 293;6.55218
1Z7X W W 263;1Z7X W E 264;34.5123
1Z7X W W 263;1Z7X W C 265;5.37861
1Z7X W W 263;1Z7X W S 289;13.1915
1Z7X W W 263;1Z7X W L 290;2.74917
1Z7X W W 263;1Z7X W A 291;14.1282
1Z7X W W 263;1Z7X W N 293;2.17126
1Z7X W E 264;1Z7X W C 265;17.1375
1Z7X W E 264;1Z7X W G 266;5.87552
1Z7X W E 264;1Z7X W A 291;6.59158
1Z7X W E 264;1Z7X W G 292;18.8759
1Z7X W E 264;1Z7X W N 293;7.98291
1Z7X W C 265;1Z7X W G 266;19.6851
1Z7X W C 265;1Z7X W I 267;15.5174
1Z7X W C 265;1Z7X W N 293;8.28285
1Z7X W G 266;1Z7X W I 267;21.1596
1Z7X W G 266;1Z7X W T 268;9.50517
1Z7X W G 266;1Z7X W N 293;5.7982
1Z7X W G 266;1Z7X W E 294;0.408674
1Z7X W I 267;1Z7X W T 268;25.1129
1Z7X W I 267;1Z7X W G 271;7.15977
1Z7X W I 267;1Z7X W C 272;7.51604
1Z7X W I 267;1Z7X W L 275;1.16918
1Z7X W I 267;1Z7X W L 290;13.5374
1Z7X W I 267;1Z7X W N 293;21.7998
1Z7X W I 267;1Z7X W E 294;10.1688
1Z7X W I 267;1Z7X W L 295;11.6565
1Z7X W T 268;1Z7X W A 269;22.8717
1Z7X W T 268;1Z7X W K 270;12.2909
1Z7X W T 268;1Z7X W G 271;3.58905
1Z7X W T 268;1Z7X W C 272;7.18123
1Z7X W T 268;1Z7X W E 294;18.0461
1Z7X W T 268;1Z7X W L 295;8.05401
1Z7X W A 269;1Z7X W K 270;23.8233
1Z7X W A 269;1Z7X W G 271;0.281346
1Z7X W A 269;1Z7X W C 272;10.4628
1Z7X W A 269;1Z7X W G 273;4.9955
1Z7X W A 269;1Z7X W E 294;1.56669
1Z7X W A 269;1Z7X W L 295;13.6849
1Z7X W A 269;1Z7X W E 298;17.3383
1Z7X W A 269;1Z7X W G 299;9.24851
1Z7X W A 269;1Z7X W L 302;14.0988
1Z7X W K 270;1Z7X W G 271;18.4443
1Z7X W K 270;1Z7X W C 272;1.21793
1Z7X W K 270;1Z7X W G 273;9.08485
1Z7X W K 270;1Z7X W D 274;18.9631
1Z7X W K 270;1Z7X W R 277;0.698405
1Z7X W K 270;1Z7X W L 302;0.10247
1Z7X W G 271;1Z7X W C 272;15.8547
1Z7X W G 271;1Z7X W G 273;1.13897
1Z7X W G 271;1Z7X W D 274;14.5699
1Z7X W G 271;1Z7X W L 275;8.26505
1Z7X W C 272;1Z7X W G 273;16.1552
1Z7X W C 272;1Z7X W D 274;0.634249
1Z7X W C 272;1Z7X W L 275;14.9542
1Z7X W C 272;1Z7X W C 276;15.6368
1Z7X W C 272;1Z7X W L 290;7.49948
1Z7X W C 272;1Z7X W L 295;13.4746
1Z7X W C 272;1Z7X W G 299;12.4811
1Z7X W C 272;1Z7X W L 302;6.66021
1Z7X W C 272;1Z7X W L 303;13.2108
1Z7X W G 273;1Z7X W D 274;16.3387
1Z7X W G 273;1Z7X W L 275;0.762536
1Z7X W G 273;1Z7X W C 276;13.1986
1Z7X W G 273;1Z7X W R 277;19.886
1Z7X W G 273;1Z7X W L 302;16.6402
1Z7X W D 274;1Z7X W L 275;15.6568
1Z7X W D 274;1Z7X W C 276;1.04019
1Z7X W D 274;1Z7X W R 277;38.7247
1Z7X W D 274;1Z7X W V 278;7.5067
1Z7X W L 275;1Z7X W C 276;16.0743
1Z7X W L 275;1Z7X W R 277;1.08426
1Z7X W L 275;1Z7X W V 278;16.4256
1Z7X W L 275;1Z7X W L 279;17.8834
1Z7X W L 275;1Z7X W L 285;3.16183
1Z7X W L 275;1Z7X W L 288;15.7777
1Z7X W L 275;1Z7X W L 290;14.8512
1Z7X W L 275;1Z7X W L 303;3.08871
1Z7X W C 276;1Z7X W R 277;20.3494
1Z7X W C 276;1Z7X W V 278;0.845319
1Z7X W C 276;1Z7X W L 279;14.5688
1Z7X W C 276;1Z7X W R 280;9.81295
1Z7X W C 276;1Z7X W L 302;15.5038
1Z7X W C 276;1Z7X W L 303;13.577
1Z7X W C 276;1Z7X W T 306;23.3832
1Z7X W R 277;1Z7X W V 278;17.1768
1Z7X W R 277;1Z7X W L 279;0.568011
1Z7X W R 277;1Z7X W R 280;10.284
1Z7X W R 277;1Z7X W A 281;11.6441
1Z7X W V 278;1Z7X W L 279;19.6436
1Z7X W V 278;1Z7X W R 280;1.08116
1Z7X W V 278;1Z7X W A 281;5.26771
1Z7X W V 278;1Z7X W K 282;22.7736
1Z7X W V 278;1Z7X W L 285;15.057
1Z7X W L 279;1Z7X W R 280;16.9817
1Z7X W L 279;1Z7X W A 281;1.1095
1Z7X W L 279;1Z7X W K 282;13.6998
1Z7X W L 279;1Z7X W E 283;0.191849
1Z7X W L 279;1Z7X W L 285;20.5927
1Z7X W L 279;1Z7X W L 288;13.1968
1Z7X W L 279;1Z7X W L 303;14.1475
1Z7X W L 279;1Z7X W T 306;12.5627
1Z7X W L 279;1Z7X W L 307;3.78944
1Z7X W L 279;1Z7X W G 311;1.74561
1Z7X W L 279;1Z7X W C 312;27.2286
1Z7X W L 279;1Z7X W Q 313;0.150035
1Z7X W L 279;1Z7X W L 314;18.4527
1Z7X W L 279;1Z7X W L 317;0.00103903
1Z7X W R 280;1Z7X W A 281;26.1873
1Z7X W R 280;1Z7X W K 282;1.45399
1Z7X W R 280;1Z7X W T 306;16.4417
1Z7X W R 280;1Z7X W E 309;39.3004
1Z7X W R 280;1Z7X W P 310;17.0745
1Z7X W R 280;1Z7X W G 311;16.2936
1Z7X W R 280;1Z7X W C 312;8.06776
1Z7X W A 281;1Z7X W K 282;31.6279
1Z7X W A 281;1Z7X W E 283;11.9446
1Z7X W A 281;1Z7X W G 311;0.0492662
1Z7X W K 282;1Z7X W E 283;23.3297
1Z7X W K 282;1Z7X W S 284;18.4777
1Z7X W K 282;1Z7X W L 285;21.0441
1Z7X W K 282;1Z7X W G 311;0.294463
1Z7X W K 282;1Z7X W C 312;0.0845969
1Z7X W K 282;1Z7X W Q 313;1.45257
1Z7X W E 283;1Z7X W S 284;22.0666
1Z7X W E 283;1Z7X W L 285;6.49905
1Z7X W E 283;1Z7X W K 286;12.948
1Z7X W E 283;1Z7X W G 311;13.8415
1Z7X W E 283;1Z7X W C 312;0.350805
1Z7X W E 283;1Z7X W Q 313;31.0469
1Z7X W S 284;1Z7X W L 285;17.1774
1Z7X W S 284;1Z7X W K 286;15.8559
1Z7X W L 285;1Z7X W K 286;18.4338
1Z7X W L 285;1Z7X W E 287;7.34429
1Z7X W L 285;1Z7X W L 288;9.68755
1Z7X W L 285;1Z7X W C 312;0.437164
1Z7X W L 285;1Z7X W Q 313;3.42196
1Z7X W L 285;1Z7X W L 314;18.0851
1Z7X W K 286;1Z7X W E 287;26.4929
1Z7X W K 286;1Z7X W Q 313;26.0373
1Z7X W K 286;1Z7X W L 314;9.57465
1Z7X W K 286;1Z7X W E 315;28.8518
1Z7X W K 286;1Z7X W S 316;6.00727
1Z7X W K 286;1Z7X W F 341;0.430314
1Z7X W E 287;1Z7X W L 288;18.546
1Z7X W E 287;1Z7X W L 314;4.98212
1Z7X W E 287;1Z7X W E 315;3.07606
1Z7X W E 287;1Z7X W S 316;16.2331
1Z7X W E 287;1Z7X W W 318;8.29429
1Z7X W L 288;1Z7X W S 289;21.526
1Z7X W L 288;1Z7X W L 290;15.0768
1Z7X W L 288;1Z7X W L 303;4.89158
1Z7X W L 288;1Z7X W L 314;14.098
1Z7X W L 288;1Z7X W S 316;6.76911
1Z7X W L 288;1Z7X W L 317;17.7674
1Z7X W L 288;1Z7X W W 318;13.7895
1Z7X W S 289;1Z7X W L 290;18.3303
1Z7X W S 289;1Z7X W A 291;9.31705
1Z7X W S 289;1Z7X W W 318;15.6634
1Z7X W L 290;1Z7X W A 291;17.1668
1Z7X W L 290;1Z7X W G 292;0.255741
1Z7X W L 290;1Z7X W N 293;20.0487
1Z7X W L 290;1Z7X W L 295;18.2652
1Z7X W L 290;1Z7X W L 303;10.2647
1Z7X W L 290;1Z7X W L 317;4.48358
1Z7X W L 290;1Z7X W W 318;7.52064
1Z7X W L 290;1Z7X W V 319;9.038
1Z7X W L 290;1Z7X W C 322;8.55701
1Z7X W A 291;1Z7X W G 292;14.7714
1Z7X W A 291;1Z7X W N 293;3.70063
1Z7X W A 291;1Z7X W W 318;7.90055
1Z7X W A 291;1Z7X W V 319;2.31073
1Z7X W A 291;1Z7X W K 320;18.6551
1Z7X W A 291;1Z7X W C 322;2.5909
1Z7X W A 291;1Z7X W Q 346;4.71176
1Z7X W G 292;1Z7X W N 293;21.1992
1Z7X W G 292;1Z7X W E 294;3.36797
1Z7X W G 292;1Z7X W K 320;5.23649
1Z7X W G 292;1Z7X W S 321;19.1333
1Z7X W G 292;1Z7X W C 322;2.19271
1Z7X W N 293;1Z7X W E 294;20.6624
1Z7X W N 293;1Z7X W L 295;17.7276
1Z7X W N 293;1Z7X W S 321;3.46824
1Z7X W N 293;1Z7X W C 322;12.5003
1Z7X W E 294;1Z7X W L 295;19.5264
1Z7X W E 294;1Z7X W G 296;5.39813
1Z7X W E 294;1Z7X W S 321;0.276321
1Z7X W E 294;1Z7X W C 322;1.87903
1Z7X W E 294;1Z7X W S 323;22.5567
1Z7X W L 295;1Z7X W G 296;23.9094
1Z7X W L 295;1Z7X W E 298;2.17233
1Z7X W L 295;1Z7X W G 299;15.6864
1Z7X W L 295;1Z7X W A 300;0.292492
1Z7X W L 295;1Z7X W L 303;7.49793
1Z7X W L 295;1Z7X W V 319;4.57856
1Z7X W L 295;1Z7X W C 322;17.527
1Z7X W L 295;1Z7X W S 323;0.0907821
1Z7X W L 295;1Z7X W F 324;11.3938
1Z7X W G 296;1Z7X W D 297;21.3803
1Z7X W G 296;1Z7X W E 298;3.3463
1Z7X W G 296;1Z7X W G 299;3.73339
1Z7X W G 296;1Z7X W A 300;5.22378
1Z7X W G 296;1Z7X W C 322;5.40578
1Z7X W G 296;1Z7X W S 323;16.157
1Z7X W G 296;1Z7X W F 324;11.3299
1Z7X W D 297;1Z7X W E 298;24.5502
1Z7X W D 297;1Z7X W G 299;0.354265
1Z7X W D 297;1Z7X W A 300;8.60264
1Z7X W D 297;1Z7X W R 301;11.9611
1Z7X W D 297;1Z7X W S 323;3.23297
1Z7X W D 297;1Z7X W F 324;7.16477
1Z7X W D 297;1Z7X W T 325;24.2165
1Z7X W D 297;1Z7X W A 327;12.9106
1Z7X W D 297;1Z7X W C 328;19.4014
1Z7X W D 297;1Z7X W H 331;1.50912
1Z7X W E 298;1Z7X W G 299;17.3915
1Z7X W E 298;1Z7X W A 300;1.06089
1Z7X W E 298;1Z7X W R 301;37.8764
1Z7X W E 298;1Z7X W L 302;25.0174
1Z7X W G 299;1Z7X W A 300;16.4421
1Z7X W G 299;1Z7X W R 301;0.758494
1Z7X W G 299;1Z7X W L 302;9.50878
1Z7X W G 299;1Z7X W L 303;11.7285
1Z7X W G 299;1Z7X W F 324;0.0364811
1Z7X W A 300;1Z7X W R 301;18.6245
1Z7X W A 300;1Z7X W L 302;0.84018
1Z7X W A 300;1Z7X W L 303;10.3201
1Z7X W A 300;1Z7X W C 304;13.5159
1Z7X W A 300;1Z7X W F 324;16.7733
1Z7X W A 300;1Z7X W C 328;12.7162
1Z7X W A 300;1Z7X W H 331;2.03389
1Z7X W A 300;1Z7X W F 332;12.5937
1Z7X W R 301;1Z7X W L 302;31.7863
1Z7X W R 301;1Z7X W L 303;0.766414
1Z7X W R 301;1Z7X W C 304;7.01957
1Z7X W R 301;1Z7X W E 305;43.1192
1Z7X W R 301;1Z7X W C 328;0.185252
1Z7X W R 301;1Z7X W H 331;33.4042
1Z7X W L 302;1Z7X W L 303;16.374
1Z7X W L 302;1Z7X W C 304;0.626182
1Z7X W L 302;1Z7X W E 305;20.6555
1Z7X W L 302;1Z7X W T 306;9.45872
1Z7X W L 303;1Z7X W C 304;18.0118
1Z7X W L 303;1Z7X W E 305;1.01043
1Z7X W L 303;1Z7X W T 306;9.2174
1Z7X W L 303;1Z7X W L 307;19.5949
1Z7X W L 303;1Z7X W L 314;0.769125
1Z7X W L 303;1Z7X W L 317;18.1046
1Z7X W L 303;1Z7X W V 319;7.20995
1Z7X W L 303;1Z7X W F 324;4.65388
1Z7X W L 303;1Z7X W F 332;6.37607
1Z7X W C 304;1Z7X W E 305;18.7709
1Z7X W C 304;1Z7X W T 306;0.761375
1Z7X W C 304;1Z7X W L 307;12.5553
1Z7X W C 304;1Z7X W L 308;15.5825
1Z7X W C 304;1Z7X W C 328;0.039882
1Z7X W C 304;1Z7X W H 331;19.8619
1Z7X W C 304;1Z7X W F 332;22.4529
1Z7X W C 304;1Z7X W V 335;14.671
1Z7X W E 305;1Z7X W T 306;19.3505
1Z7X W E 305;1Z7X W L 307;0.783637
1Z7X W E 305;1Z7X W L 308;16.4394
1Z7X W E 305;1Z7X W E 309;17.7949
1Z7X W E 305;1Z7X W H 331;2.84577
1Z7X W T 306;1Z7X W L 307;19.5931
1Z7X W T 306;1Z7X W L 308;2.04842
1Z7X W T 306;1Z7X W E 309;23.1991
1Z7X W T 306;1Z7X W C 312;16.2102
1Z7X W L 307;1Z7X W L 308;21.5921
1Z7X W L 307;1Z7X W E 309;5.23933
1Z7X W L 307;1Z7X W C 312;16.1722
1Z7X W L 307;1Z7X W L 314;18.3763
1Z7X W L 307;1Z7X W L 317;12.3916
1Z7X W L 307;1Z7X W F 332;4.58436
1Z7X W L 307;1Z7X W V 335;19.9348
1Z7X W L 307;1Z7X W N 339;31.7902
1Z7X W L 307;1Z7X W L 342;16.7283
1Z7X W L 308;1Z7X W E 309;28.6813
1Z7X W L 308;1Z7X W P 310;2.29693
1Z7X W L 308;1Z7X W H 331;7.31723
1Z7X W L 308;1Z7X W S 334;18.6099
1Z7X W L 308;1Z7X W V 335;15.6039
1Z7X W L 308;1Z7X W Q 338;26.0662
1Z7X W L 308;1Z7X W N 339;3.15072
1Z7X W E 309;1Z7X W P 310;39.5355
1Z7X W E 309;1Z7X W G 311;1.50653
1Z7X W E 309;1Z7X W C 312;9.06819
1Z7X W P 310;1Z7X W G 311;29.6658
1Z7X W P 310;1Z7X W C 312;1.09287
1Z7X W G 311;1Z7X W C 312;24.8179
1Z7X W G 311;1Z7X W Q 313;10.2737
1Z7X W G 311;1Z7X W F 341;1.41204
1Z7X W C 312;1Z7X W Q 313;22.3129
1Z7X W C 312;1Z7X W L 314;15.458
1Z7X W C 312;1Z7X W N 339;7.08181
1Z7X W C 312;1Z7X W F 341;11.5301
1Z7X W Q 313;1Z7X W L 314;21.9517
1Z7X W Q 313;1Z7X W E 315;5.5338
1Z7X W Q 313;1Z7X W F 341;40.3198
1Z7X W L 314;1Z7X W E 315;16.5205
1Z7X W L 314;1Z7X W S 316;9.70023
1Z7X W L 314;1Z7X W L 317;15.2784
1Z7X W L 314;1Z7X W N 339;1.15916
1Z7X W L 314;1Z7X W F 341;8.03767
1Z7X W L 314;1Z7X W L 342;17.7794
1Z7X W E 315;1Z7X W S 316;26.587
1Z7X W E 315;1Z7X W F 341;10.2126
1Z7X W E 315;1Z7X W L 342;8.3593
1Z7X W E 315;1Z7X W L 343;32.4874
1Z7X W E 315;1Z7X W E 344;5.84472
1Z7X W S 316;1Z7X W L 317;16.5817
1Z7X W S 316;1Z7X W W 318;19.7054
1Z7X W S 316;1Z7X W L 342;4.61031
1Z7X W S 316;1Z7X W L 343;0.20475
1Z7X W S 316;1Z7X W E 344;22.0836
1Z7X W L 317;1Z7X W W 318;24.6941
1Z7X W L 317;1Z7X W V 319;21.2687
1Z7X W L 317;1Z7X W F 332;10.4211
1Z7X W L 317;1Z7X W L 342;12.7129
1Z7X W L 317;1Z7X W E 344;9.14959
1Z7X W L 317;1Z7X W L 345;17.9336
1Z7X W L 317;1Z7X W Q 346;9.06953
1Z7X W W 318;1Z7X W V 319;19.9361
1Z7X W W 318;1Z7X W K 320;0.408908
1Z7X W W 318;1Z7X W E 344;22.5066
1Z7X W W 318;1Z7X W Q 346;36.9187
1Z7X W W 318;1Z7X W W 375;7.68095
1Z7X W V 319;1Z7X W K 320;17.8367
1Z7X W V 319;1Z7X W S 321;0.310001
1Z7X W V 319;1Z7X W C 322;17.4795
1Z7X W V 319;1Z7X W F 324;15.8162
1Z7X W V 319;1Z7X W F 332;5.5706
1Z7X W V 319;1Z7X W L 345;7.74365
1Z7X W V 319;1Z7X W Q 346;12.4772
1Z7X W V 319;1Z7X W I 347;13.0511
1Z7X W V 319;1Z7X W N 350;6.67211
1Z7X W K 320;1Z7X W S 321;23.3713
1Z7X W K 320;1Z7X W C 322;4.52117
1Z7X W K 320;1Z7X W Q 346;35.4898
1Z7X W K 320;1Z7X W I 347;2.19171
1Z7X W K 320;1Z7X W S 348;20.1179
1Z7X W K 320;1Z7X W N 349;15.7249
1Z7X W K 320;1Z7X W N 350;0.97552
1Z7X W S 321;1Z7X W C 322;17.9394
1Z7X W S 321;1Z7X W S 323;7.29706
1Z7X W S 321;1Z7X W S 348;3.4987
1Z7X W S 321;1Z7X W N 349;26.3616
1Z7X W S 321;1Z7X W N 350;4.20414
1Z7X W C 322;1Z7X W S 323;20.1108
1Z7X W C 322;1Z7X W F 324;17.6152
1Z7X W C 322;1Z7X W N 350;8.50007
1Z7X W S 323;1Z7X W F 324;22.8208
1Z7X W S 323;1Z7X W T 325;8.23588
1Z7X W S 323;1Z7X W N 349;0.989732
1Z7X W S 323;1Z7X W N 350;6.0728
1Z7X W S 323;1Z7X W R 351;2.28433
1Z7X W F 324;1Z7X W T 325;22.392
1Z7X W F 324;1Z7X W C 328;10.8128
1Z7X W F 324;1Z7X W F 332;11.5757
1Z7X W F 324;1Z7X W I 347;9.78955
1Z7X W F 324;1Z7X W N 350;23.0046
1Z7X W F 324;1Z7X W R 351;12.6098
1Z7X W F 324;1Z7X W L 352;8.87838
1Z7X W T 325;1Z7X W A 326;20.1686
1Z7X W T 325;1Z7X W A 327;14.5089
1Z7X W T 325;1Z7X W C 328;10.6386
1Z7X W T 325;1Z7X W C 329;2.87243
1Z7X W T 325;1Z7X W R 351;17.2176
1Z7X W T 325;1Z7X W L 352;7.24922
1Z7X W A 326;1Z7X W A 327;24.292
1Z7X W A 326;1Z7X W C 328;1.80031
1Z7X W A 326;1Z7X W C 329;12.2141
1Z7X W A 326;1Z7X W S 330;0.663538
1Z7X W A 326;1Z7X W R 351;4.76307
1Z7X W A 326;1Z7X W L 352;11.7787
1Z7X W A 326;1Z7X W E 353;9.13024
1Z7X W A 326;1Z7X W A 355;12.0329
1Z7X W A 326;1Z7X W G 356;9.74776
1Z7X W A 326;1Z7X W E 359;10.2732
1Z7X W A 327;1Z7X W C 328;19.1394
1Z7X W A 327;1Z7X W C 329;2.13131
1Z7X W A 327;1Z7X W S 330;10.0012
1Z7X W A 327;1Z7X W H 331;7.53144
1Z7X W C 328;1Z7X W C 329;22.8608
1Z7X W C 328;1Z7X W S 330;2.11073
1Z7X W C 328;1Z7X W H 331;19.4943
1Z7X W C 328;1Z7X W F 332;19.0572
1Z7X W C 328;1Z7X W I 347;2.04019
1Z7X W C 328;1Z7X W L 352;4.79489
1Z7X W C 329;1Z7X W S 330;17.0088
1Z7X W C 329;1Z7X W H 331;1.25944
1Z7X W C 329;1Z7X W F 332;9.06641
1Z7X W C 329;1Z7X W S 333;9.2322
1Z7X W C 329;1Z7X W I 347;2.00547
1Z7X W C 329;1Z7X W L 352;15.379
1Z7X W C 329;1Z7X W G 356;15.9015
1Z7X W C 329;1Z7X W E 359;13.0355
1Z7X W C 329;1Z7X W L 360;17.1217
1Z7X W S 330;1Z7X W H 331;32.1036
1Z7X W S 330;1Z7X W F 332;0.273247
1Z7X W S 330;1Z7X W S 333;12.8234
1Z7X W S 330;1Z7X W S 334;13.9391
1Z7X W S 330;1Z7X W E 359;23.9799
1Z7X W H 331;1Z7X W F 332;15.167
1Z7X W H 331;1Z7X W S 333;1.39411
1Z7X W H 331;1Z7X W S 334;9.57913
1Z7X W H 331;1Z7X W V 335;8.15745
1Z7X W F 332;1Z7X W S 333;15.9694
1Z7X W F 332;1Z7X W S 334;0.794714
1Z7X W F 332;1Z7X W V 335;17.2721
1Z7X W F 332;1Z7X W L 336;13.6898
1Z7X W F 332;1Z7X W L 342;1.55832
1Z7X W F 332;1Z7X W L 345;19.46
1Z7X W F 332;1Z7X W I 347;15.6302
1Z7X W F 332;1Z7X W L 360;13.2214
1Z7X W S 333;1Z7X W S 334;19.7283
1Z7X W S 333;1Z7X W V 335;0.760076
1Z7X W S 333;1Z7X W L 336;8.35306
1Z7X W S 333;1Z7X W A 337;7.7893
1Z7X W S 333;1Z7X W E 359;14.3818
1Z7X W S 333;1Z7X W L 360;9.15442
1Z7X W S 333;1Z7X W Q 362;6.32374
1Z7X W S 333;1Z7X W G 363;18.8604
1Z7X W S 333;1Z7X W Q 366;0.665451
1Z7X W S 334;1Z7X W V 335;15.7537
1Z7X W S 334;1Z7X W L 336;0.820409
1Z7X W S 334;1Z7X W A 337;11.3234
1Z7X W S 334;1Z7X W Q 338;24.2882
1Z7X W V 335;1Z7X W L 336;26.2919
1Z7X W V 335;1Z7X W A 337;1.0412
1Z7X W V 335;1Z7X W Q 338;2.97734
1Z7X W V 335;1Z7X W N 339;24.9016
1Z7X W V 335;1Z7X W L 342;13.4716
1Z7X W L 336;1Z7X W A 337;17.6396
1Z7X W L 336;1Z7X W Q 338;2.04292
1Z7X W L 336;1Z7X W N 339;5.85271
1Z7X W L 336;1Z7X W R 340;0.762746
1Z7X W L 336;1Z7X W L 342;8.71599
1Z7X W L 336;1Z7X W L 345;15.5377
1Z7X W L 336;1Z7X W L 360;19.3655
1Z7X W L 336;1Z7X W G 363;5.69799
1Z7X W L 336;1Z7X W L 364;21.9147
1Z7X W L 336;1Z7X W S 369;12.4419
1Z7X W L 336;1Z7X W V 370;2.80718
1Z7X W L 336;1Z7X W L 371;24.957
1Z7X W L 336;1Z7X W L 374;6.92288
1Z7X W A 337;1Z7X W Q 338;28.1471
1Z7X W A 337;1Z7X W R 340;13.0327
1Z7X W A 337;1Z7X W G 363;12.8149
1Z7X W A 337;1Z7X W Q 366;22.0061
1Z7X W A 337;1Z7X W P 367;4.0009
1Z7X W A 337;1Z7X W S 369;5.60618
1Z7X W Q 338;1Z7X W N 339;25.325
1Z7X W Q 338;1Z7X W R 340;24.1632
1Z7X W N 339;1Z7X W R 340;24.4879
1Z7X W N 339;1Z7X W F 341;15.6433
1Z7X W N 339;1Z7X W L 342;18.4052
1Z7X W N 339;1Z7X W S 369;0.404751
1Z7X W N 339;1Z7X W V 370;10.4899
1Z7X W R 340;1Z7X W F 341;35.9961
1Z7X W R 340;1Z7X W L 343;0.659703
1Z7X W R 340;1Z7X W P 367;5.10496
1Z7X W R 340;1Z7X W G 368;23.5572
1Z7X W R 340;1Z7X W S 369;5.91788
1Z7X W R 340;1Z7X W V 370;23.7436
1Z7X W F 341;1Z7X W L 342;17.1487
1Z7X W F 341;1Z7X W L 343;12.0049
1Z7X W F 341;1Z7X W V 370;1.2351
1Z7X W L 342;1Z7X W L 343;17.4017
1Z7X W L 342;1Z7X W E 344;9.65065
1Z7X W L 342;1Z7X W L 345;12.2944
1Z7X W L 342;1Z7X W V 370;9.90881
1Z7X W L 342;1Z7X W L 371;18.1929
1Z7X W L 343;1Z7X W E 344;21.8937
1Z7X W L 343;1Z7X W V 370;16.286
1Z7X W L 343;1Z7X W L 371;9.95982
1Z7X W L 343;1Z7X W R 372;48.6374
1Z7X W L 343;1Z7X W V 373;7.13113
1Z7X W E 344;1Z7X W L 345;20.3432
1Z7X W E 344;1Z7X W Q 346;3.39166
1Z7X W E 344;1Z7X W L 371;4.8439
1Z7X W E 344;1Z7X W V 373;28.3842
1Z7X W E 344;1Z7X W W 375;19.4933
1Z7X W L 345;1Z7X W Q 346;19.3208
1Z7X W L 345;1Z7X W I 347;20.2315
1Z7X W L 345;1Z7X W L 360;6.894
1Z7X W L 345;1Z7X W L 371;11.1173
1Z7X W L 345;1Z7X W V 373;6.75435
1Z7X W L 345;1Z7X W L 374;19.3468
1Z7X W L 345;1Z7X W W 375;10.691
1Z7X W Q 346;1Z7X W I 347;16.9553
1Z7X W Q 346;1Z7X W S 348;8.57482
1Z7X W Q 346;1Z7X W W 375;29.4375
1Z7X W I 347;1Z7X W S 348;18.6771
1Z7X W I 347;1Z7X W N 350;15.1945
1Z7X W I 347;1Z7X W L 352;19.6191
1Z7X W I 347;1Z7X W L 360;10.1097
1Z7X W I 347;1Z7X W L 374;4.75774
1Z7X W I 347;1Z7X W W 375;10.9459
1Z7X W I 347;1Z7X W L 376;8.91475
1Z7X W I 347;1Z7X W C 379;7.66287
1Z7X W S 348;1Z7X W N 349;23.0947
1Z7X W S 348;1Z7X W N 350;5.79108
1Z7X W S 348;1Z7X W W 375;15.3796
1Z7X W S 348;1Z7X W L 376;2.22765
1Z7X W S 348;1Z7X W A 377;21.9659
1Z7X W S 348;1Z7X W C 379;4.76622
1Z7X W S 348;1Z7X W D 403;1.13077
1Z7X W N 349;1Z7X W N 350;24.8557
1Z7X W N 349;1Z7X W A 377;9.09722
1Z7X W N 349;1Z7X W D 378;34.0168
1Z7X W N 349;1Z7X W C 379;2.27285
1Z7X W N 349;1Z7X W N 406;2.45518
1Z7X W N 350;1Z7X W R 351;22.9146
1Z7X W N 350;1Z7X W L 352;17.8454
1Z7X W N 350;1Z7X W D 378;5.53946
1Z7X W N 350;1Z7X W C 379;14.9085
1Z7X W R 351;1Z7X W L 352;15.9493
1Z7X W R 351;1Z7X W E 353;19.6163
1Z7X W R 351;1Z7X W C 379;1.61378
1Z7X W R 351;1Z7X W D 380;16.5149
1Z7X W L 352;1Z7X W E 353;23.1536
1Z7X W L 352;1Z7X W A 355;0.00184249
1Z7X W L 352;1Z7X W G 356;10.689
1Z7X W L 352;1Z7X W V 357;11.9597
1Z7X W L 352;1Z7X W L 360;8.07972
1Z7X W L 352;1Z7X W L 376;5.80375
1Z7X W L 352;1Z7X W C 379;17.2594
1Z7X W E 353;1Z7X W D 354;22.7044
1Z7X W E 353;1Z7X W A 355;10.2348
1Z7X W E 353;1Z7X W G 356;2.87012
1Z7X W E 353;1Z7X W V 357;12.3463
1Z7X W E 353;1Z7X W C 379;8.23799
1Z7X W E 353;1Z7X W D 380;32.7186
1Z7X W E 353;1Z7X W V 381;1.42465
1Z7X W D 354;1Z7X W A 355;23.5065
1Z7X W D 354;1Z7X W G 356;0.616309
1Z7X W D 354;1Z7X W V 357;5.19293
1Z7X W D 354;1Z7X W R 358;14.6062
1Z7X W D 354;1Z7X W D 380;8.58547
1Z7X W D 354;1Z7X W V 381;3.74995
1Z7X W D 354;1Z7X W S 382;19.9341
1Z7X W D 354;1Z7X W S 384;17.6992
1Z7X W D 354;1Z7X W S 385;22.1335
1Z7X W A 355;1Z7X W G 356;18.6367
1Z7X W A 355;1Z7X W V 357;0.600508
1Z7X W A 355;1Z7X W R 358;14.2295
1Z7X W A 355;1Z7X W E 359;16.8884
1Z7X W G 356;1Z7X W V 357;16.223
1Z7X W G 356;1Z7X W R 358;1.05721
1Z7X W G 356;1Z7X W E 359;10.1328
1Z7X W G 356;1Z7X W L 360;8.21004
1Z7X W V 357;1Z7X W R 358;18.8856
1Z7X W V 357;1Z7X W E 359;0.935455
1Z7X W V 357;1Z7X W L 360;15.5878
1Z7X W V 357;1Z7X W C 361;15.8975
1Z7X W V 357;1Z7X W L 376;17.6612
1Z7X W V 357;1Z7X W C 379;6.16427
1Z7X W V 357;1Z7X W V 381;15.9822
1Z7X W V 357;1Z7X W S 385;14.2183
1Z7X W V 357;1Z7X W S 388;0.802274
1Z7X W V 357;1Z7X W L 389;10.3005
1Z7X W R 358;1Z7X W E 359;20.7948
1Z7X W R 358;1Z7X W L 360;0.605513
1Z7X W R 358;1Z7X W C 361;10.3935
1Z7X W R 358;1Z7X W Q 362;30.1467
1Z7X W R 358;1Z7X W S 384;4.78702
1Z7X W R 358;1Z7X W S 385;3.8698
1Z7X W R 358;1Z7X W S 387;4.34452
1Z7X W R 358;1Z7X W S 388;30.841
1Z7X W E 359;1Z7X W L 360;16.9914
1Z7X W E 359;1Z7X W C 361;0.981238
1Z7X W E 359;1Z7X W Q 362;24.9444
1Z7X W E 359;1Z7X W G 363;3.39583
1Z7X W L 360;1Z7X W C 361;20.202
1Z7X W L 360;1Z7X W Q 362;1.10746
1Z7X W L 360;1Z7X W G 363;4.38446
1Z7X W L 360;1Z7X W L 364;10.3041
1Z7X W L 360;1Z7X W L 374;13.1689
1Z7X W L 360;1Z7X W L 376;12.4344
1Z7X W C 361;1Z7X W Q 362;20.6951
1Z7X W C 361;1Z7X W G 363;0.571099
1Z7X W C 361;1Z7X W L 364;7.23067
1Z7X W C 361;1Z7X W G 365;9.39577
1Z7X W C 361;1Z7X W L 374;1.71076
1Z7X W C 361;1Z7X W L 376;0.594575
1Z7X W C 361;1Z7X W S 385;0.028342
1Z7X W C 361;1Z7X W S 388;17.632
1Z7X W C 361;1Z7X W L 389;18.9293
1Z7X W C 361;1Z7X W T 392;25.3503
1Z7X W Q 362;1Z7X W G 363;16.8755
1Z7X W Q 362;1Z7X W L 364;0.664887
1Z7X W Q 362;1Z7X W G 365;7.85607
1Z7X W Q 362;1Z7X W Q 366;21.1669
1Z7X W G 363;1Z7X W L 364;16.273
1Z7X W G 363;1Z7X W G 365;1.3463
1Z7X W G 363;1Z7X W Q 366;15.2429
1Z7X W G 363;1Z7X W S 369;3.33733
1Z7X W L 364;1Z7X W G 365;15.8895
1Z7X W L 364;1Z7X W Q 366;4.71945
1Z7X W L 364;1Z7X W S 369;17.5539
1Z7X W L 364;1Z7X W L 371;22.0697
1Z7X W L 364;1Z7X W L 374;12.4475
1Z7X W L 364;1Z7X W T 392;19.3438
1Z7X W L 364;1Z7X W N 396;22.7671
1Z7X W L 364;1Z7X W S 398;1.53314
1Z7X W L 364;1Z7X W L 399;18.8862
1Z7X W G 365;1Z7X W Q 366;22.2841
1Z7X W G 365;1Z7X W P 367;8.34917
1Z7X W G 365;1Z7X W T 392;10.3329
1Z7X W G 365;1Z7X W A 395;21.0208
1Z7X W G 365;1Z7X W N 396;5.87936
1Z7X W Q 366;1Z7X W P 367;40.5779
1Z7X W Q 366;1Z7X W G 368;1.11403
1Z7X W Q 366;1Z7X W S 369;13.9716
1Z7X W Q 366;1Z7X W N 396;1.17495
1Z7X W P 367;1Z7X W G 368;27.4561
1Z7X W P 367;1Z7X W S 369;3.374
1Z7X W P 367;1Z7X W A 395;1.91747
1Z7X W G 368;1Z7X W S 369;25.6562
1Z7X W G 368;1Z7X W V 370;8.06111
1Z7X W S 369;1Z7X W V 370;25.0676
1Z7X W S 369;1Z7X W L 371;0.455697
1Z7X W S 369;1Z7X W N 396;14.1645
1Z7X W S 369;1Z7X W S 398;10.1222
1Z7X W V 370;1Z7X W L 371;24.987
1Z7X W V 370;1Z7X W R 372;8.14671
1Z7X W V 370;1Z7X W S 398;15.3374
1Z7X W L 371;1Z7X W R 372;16.1917
1Z7X W L 371;1Z7X W V 373;9.30911
1Z7X W L 371;1Z7X W L 374;13.9892
1Z7X W L 371;1Z7X W N 396;0.0566037
1Z7X W L 371;1Z7X W S 398;11.2
1Z7X W L 371;1Z7X W L 399;17.5513
1Z7X W R 372;1Z7X W V 373;27.5455
1Z7X W R 372;1Z7X W S 398;11.9602
1Z7X W R 372;1Z7X W L 399;9.09799
1Z7X W R 372;1Z7X W R 400;22.9209
1Z7X W R 372;1Z7X W E 401;5.44928
1Z7X W V 373;1Z7X W L 374;20.9669
1Z7X W V 373;1Z7X W W 375;18.5161
1Z7X W V 373;1Z7X W L 399;4.27489
1Z7X W V 373;1Z7X W R 400;1.65006
1Z7X W V 373;1Z7X W E 401;35.0222
1Z7X W L 374;1Z7X W W 375;23.6136
1Z7X W L 374;1Z7X W L 376;21.4824
1Z7X W L 374;1Z7X W L 389;4.76392
1Z7X W L 374;1Z7X W L 399;12.75
1Z7X W L 374;1Z7X W E 401;7.53951
1Z7X W L 374;1Z7X W L 402;21.1973
1Z7X W L 374;1Z7X W D 403;7.90366
1Z7X W W 375;1Z7X W L 376;19.9753
1Z7X W W 375;1Z7X W A 377;0.156221
1Z7X W W 375;1Z7X W E 401;0.206413
1Z7X W W 375;1Z7X W D 403;32.4727
1Z7X W W 375;1Z7X W V 432;1.11282
1Z7X W L 376;1Z7X W A 377;18.4849
1Z7X W L 376;1Z7X W D 378;0.242962
1Z7X W L 376;1Z7X W C 379;17.932
1Z7X W L 376;1Z7X W V 381;8.87425
1Z7X W L 376;1Z7X W L 389;9.46641
1Z7X W L 376;1Z7X W L 402;7.03634
1Z7X W L 376;1Z7X W D 403;12.0845
1Z7X W L 376;1Z7X W L 404;15.4071
1Z7X W L 376;1Z7X W N 407;7.13227
1Z7X W A 377;1Z7X W D 378;20.5434
1Z7X W A 377;1Z7X W C 379;5.14531
1Z7X W A 377;1Z7X W D 403;15.1203
1Z7X W A 377;1Z7X W L 404;2.14533
1Z7X W A 377;1Z7X W S 405;15.7416
1Z7X W A 377;1Z7X W N 406;3.43553
1Z7X W A 377;1Z7X W N 407;1.5025
1Z7X W D 378;1Z7X W C 379;17.1243
1Z7X W D 378;1Z7X W D 380;13.7368
1Z7X W D 378;1Z7X W S 405;4.12421
1Z7X W D 378;1Z7X W N 406;33.264
1Z7X W D 378;1Z7X W N 407;8.01145
1Z7X W C 379;1Z7X W D 380;21.6515
1Z7X W C 379;1Z7X W V 381;12.0868
1Z7X W C 379;1Z7X W N 407;5.59146
1Z7X W D 380;1Z7X W V 381;21.551
1Z7X W D 380;1Z7X W S 382;4.89001
1Z7X W D 380;1Z7X W N 407;5.85311
1Z7X W D 380;1Z7X W C 408;10.4966
1Z7X W V 381;1Z7X W S 382;20.7544
1Z7X W V 381;1Z7X W S 385;12.5658
1Z7X W V 381;1Z7X W C 386;2.28972
1Z7X W V 381;1Z7X W L 389;7.98954
1Z7X W V 381;1Z7X W L 404;8.96063
1Z7X W V 381;1Z7X W N 407;24.6523
1Z7X W V 381;1Z7X W C 408;11.3387
1Z7X W V 381;1Z7X W L 409;14.7011
1Z7X W S 382;1Z7X W D 383;21.1047
1Z7X W S 382;1Z7X W S 384;14.0084
1Z7X W S 382;1Z7X W S 385;8.3016
1Z7X W S 382;1Z7X W C 386;4.31025
1Z7X W S 382;1Z7X W C 408;15.5022
1Z7X W S 382;1Z7X W L 409;9.019
1Z7X W D 383;1Z7X W S 384;25.231
1Z7X W D 383;1Z7X W S 385;0.974661
1Z7X W D 383;1Z7X W C 386;11.6419
1Z7X W D 383;1Z7X W S 387;2.36482
1Z7X W D 383;1Z7X W C 408;4.53179
1Z7X W D 383;1Z7X W L 409;12.1397
1Z7X W D 383;1Z7X W G 410;14.8489
1Z7X W D 383;1Z7X W D 411;0.034624
1Z7X W D 383;1Z7X W A 412;15.8658
1Z7X W D 383;1Z7X W G 413;17.2551
1Z7X W D 383;1Z7X W Q 416;12.6331
1Z7X W S 384;1Z7X W S 385;20.1244
1Z7X W S 384;1Z7X W C 386;2.16622
1Z7X W S 384;1Z7X W S 387;14.6586
1Z7X W S 384;1Z7X W S 388;3.02961
1Z7X W S 385;1Z7X W C 386;15.7187
1Z7X W S 385;1Z7X W S 387;1.70712
1Z7X W S 385;1Z7X W S 388;14.0168
1Z7X W S 385;1Z7X W L 389;14.9561
1Z7X W C 386;1Z7X W S 387;16.5113
1Z7X W C 386;1Z7X W S 388;0.441737
1Z7X W C 386;1Z7X W L 389;14.342
1Z7X W C 386;1Z7X W A 390;9.47262
1Z7X W C 386;1Z7X W L 404;0.75083
1Z7X W C 386;1Z7X W L 409;14.6357
1Z7X W C 386;1Z7X W G 413;16.5368
1Z7X W C 386;1Z7X W I 414;0.0317725
1Z7X W C 386;1Z7X W Q 416;12.2275
1Z7X W C 386;1Z7X W L 417;18.285
1Z7X W S 387;1Z7X W S 388;25.5022
1Z7X W S 387;1Z7X W L 389;0.883467
1Z7X W S 387;1Z7X W A 390;10.4835
1Z7X W S 387;1Z7X W A 391;13.0335
1Z7X W S 387;1Z7X W Q 416;21.5957
1Z7X W S 388;1Z7X W L 389;15.109
1Z7X W S 388;1Z7X W A 390;0.664781
1Z7X W S 388;1Z7X W A 391;12.6441
1Z7X W S 388;1Z7X W T 392;10.0904
1Z7X W L 389;1Z7X W A 390;15.8949
1Z7X W L 389;1Z7X W A 391;1.09675
1Z7X W L 389;1Z7X W T 392;11.2227
1Z7X W L 389;1Z7X W L 393;17.3851
1Z7X W L 389;1Z7X W L 402;15.468
1Z7X W L 389;1Z7X W L 404;16.1906
1Z7X W L 389;1Z7X W L 409;0.00938152
1Z7X W L 389;1Z7X W L 417;11.1503
1Z7X W A 390;1Z7X W A 391;20.9224
1Z7X W A 390;1Z7X W T 392;0.530404
1Z7X W A 390;1Z7X W L 393;10.3104
1Z7X W A 390;1Z7X W L 394;7.87979
1Z7X W A 390;1Z7X W Q 416;16.4016
1Z7X W A 390;1Z7X W L 417;8.47834
1Z7X W A 390;1Z7X W S 420;20.3944
1Z7X W A 391;1Z7X W T 392;19.1374
1Z7X W A 391;1Z7X W L 393;1.25026
1Z7X W A 391;1Z7X W L 394;12.2027
1Z7X W A 391;1Z7X W A 395;13.2569
1Z7X W T 392;1Z7X W L 393;22.0718
1Z7X W T 392;1Z7X W L 394;1.92265
1Z7X W T 392;1Z7X W A 395;8.62904
1Z7X W T 392;1Z7X W N 396;19.8726
1Z7X W T 392;1Z7X W L 399;0.739866
1Z7X W L 393;1Z7X W L 394;21.6689
1Z7X W L 393;1Z7X W A 395;0.142381
1Z7X W L 393;1Z7X W N 396;9.77399
1Z7X W L 393;1Z7X W H 397;3.64638
1Z7X W L 393;1Z7X W L 399;14.4889
1Z7X W L 393;1Z7X W L 402;15.6733
1Z7X W L 393;1Z7X W L 417;12.9925
1Z7X W L 393;1Z7X W S 420;10.6142
1Z7X W L 393;1Z7X W V 421;11.6756
1Z7X W L 393;1Z7X W C 426;22.6482
1Z7X W L 393;1Z7X W L 427;0.801053
1Z7X W L 393;1Z7X W L 428;18.244
1Z7X W L 393;1Z7X W L 431;2.12678
1Z7X W L 394;1Z7X W A 395;23.5268
1Z7X W L 394;1Z7X W N 396;2.26412
1Z7X W L 394;1Z7X W H 397;19.391
1Z7X W L 394;1Z7X W S 420;21.823
1Z7X W L 394;1Z7X W Q 423;28.2476
1Z7X W L 394;1Z7X W G 425;4.83256
1Z7X W L 394;1Z7X W C 426;11.1101
1Z7X W A 395;1Z7X W N 396;24.7675
1Z7X W A 395;1Z7X W H 397;12.1667
1Z7X W N 396;1Z7X W H 397;33.6755
1Z7X W N 396;1Z7X W S 398;14.0415
1Z7X W N 396;1Z7X W L 399;15.2678
1Z7X W H 397;1Z7X W S 398;23.4659
1Z7X W H 397;1Z7X W L 399;2.99281
1Z7X W H 397;1Z7X W R 400;13.9824
1Z7X W H 397;1Z7X W G 425;16.5463
1Z7X W H 397;1Z7X W C 426;1.14546
1Z7X W H 397;1Z7X W L 427;17.8203
1Z7X W S 398;1Z7X W L 399;16.5971
1Z7X W S 398;1Z7X W R 400;18.6005
1Z7X W L 399;1Z7X W R 400;26.0446
1Z7X W L 399;1Z7X W E 401;9.42518
1Z7X W L 399;1Z7X W L 402;14.9722
1Z7X W L 399;1Z7X W L 427;1.96913
1Z7X W L 399;1Z7X W L 428;19.8337
1Z7X W R 400;1Z7X W E 401;28.0399
1Z7X W R 400;1Z7X W L 427;23.292
1Z7X W R 400;1Z7X W L 428;9.17088
1Z7X W R 400;1Z7X W E 429;36.0023
1Z7X W R 400;1Z7X W Q 430;5.52424
1Z7X W E 401;1Z7X W L 402;20.8182
1Z7X W E 401;1Z7X W D 403;0.0710323
1Z7X W E 401;1Z7X W L 428;4.99887
1Z7X W E 401;1Z7X W E 429;2.23307
1Z7X W E 401;1Z7X W Q 430;29.0318
1Z7X W E 401;1Z7X W V 432;3.27642
1Z7X W L 402;1Z7X W D 403;23.9284
1Z7X W L 402;1Z7X W L 404;19.8538
1Z7X W L 402;1Z7X W L 417;2.10164
1Z7X W L 402;1Z7X W L 428;10.9657
1Z7X W L 402;1Z7X W Q 430;7.62525
1Z7X W L 402;1Z7X W L 431;20.9264
1Z7X W L 402;1Z7X W V 432;11.9862
1Z7X W D 403;1Z7X W L 404;19.9985
1Z7X W D 403;1Z7X W S 405;14.3869
1Z7X W D 403;1Z7X W V 432;25.1096
1Z7X W L 404;1Z7X W S 405;18.1828
1Z7X W L 404;1Z7X W N 406;0.00817467
1Z7X W L 404;1Z7X W N 407;18.0935
1Z7X W L 404;1Z7X W L 409;12.6118
1Z7X W L 404;1Z7X W L 417;14.9128
1Z7X W L 404;1Z7X W L 431;8.66314
1Z7X W L 404;1Z7X W V 432;7.39829
1Z7X W L 404;1Z7X W L 433;12.5312
1Z7X W L 404;1Z7X W I 436;8.67557
1Z7X W S 405;1Z7X W N 406;20.6823
1Z7X W S 405;1Z7X W N 407;4.70756
1Z7X W S 405;1Z7X W V 432;9.80727
1Z7X W S 405;1Z7X W L 433;3.63654
1Z7X W S 405;1Z7X W Y 434;20.6171
1Z7X W S 405;1Z7X W D 435;1.15286
1Z7X W S 405;1Z7X W I 436;3.58095
1Z7X W N 406;1Z7X W N 407;20.6395
1Z7X W N 406;1Z7X W Y 434;4.55444
1Z7X W N 406;1Z7X W D 435;24.2249
1Z7X W N 406;1Z7X W I 436;3.92297
1Z7X W N 407;1Z7X W C 408;20.3845
1Z7X W N 407;1Z7X W L 409;17.8398
1Z7X W N 407;1Z7X W D 435;2.97097
1Z7X W N 407;1Z7X W I 436;14.5486
1Z7X W C 408;1Z7X W L 409;19.0462
1Z7X W C 408;1Z7X W G 410;0.747689
1Z7X W L 409;1Z7X W G 410;19.2339
1Z7X W L 409;1Z7X W G 413;1.75759
1Z7X W L 409;1Z7X W I 414;14.3998
1Z7X W L 409;1Z7X W L 417;6.35835
1Z7X W L 409;1Z7X W L 433;4.21535
1Z7X W L 409;1Z7X W I 436;24.4789
1Z7X W L 409;1Z7X W Y 437;4.38506
1Z7X W G 410;1Z7X W D 411;23.2631
1Z7X W G 410;1Z7X W A 412;2.45135
1Z7X W G 410;1Z7X W G 413;4.74228
1Z7X W G 410;1Z7X W I 414;15.8869
1Z7X W G 410;1Z7X W I 436;0.422908
1Z7X W G 410;1Z7X W Y 437;6.65797
1Z7X W G 410;1Z7X W W 438;0.260646
1Z7X W D 411;1Z7X W A 412;25.2648
1Z7X W D 411;1Z7X W G 413;0.926161
1Z7X W D 411;1Z7X W I 414;7.94358
1Z7X W D 411;1Z7X W L 415;11.993
1Z7X W D 411;1Z7X W Y 437;0.353897
1Z7X W D 411;1Z7X W W 438;10.0371
1Z7X W D 411;1Z7X W S 439;22.7704
1Z7X W D 411;1Z7X W E 441;1.59436
1Z7X W D 411;1Z7X W M 442;21.7205
1Z7X W D 411;1Z7X W R 445;1.4903
1Z7X W A 412;1Z7X W G 413;17.8185
1Z7X W A 412;1Z7X W I 414;0.291069
1Z7X W A 412;1Z7X W L 415;13.785
1Z7X W A 412;1Z7X W Q 416;19.824
1Z7X W G 413;1Z7X W I 414;17.0244
1Z7X W G 413;1Z7X W L 415;1.28612
1Z7X W G 413;1Z7X W Q 416;10.7986
1Z7X W G 413;1Z7X W L 417;7.35388
1Z7X W I 414;1Z7X W L 415;15.6786
1Z7X W I 414;1Z7X W Q 416;1.09521
1Z7X W I 414;1Z7X W L 417;20.2611
1Z7X W I 414;1Z7X W V 418;15.8259
1Z7X W I 414;1Z7X W L 431;0.510906
1Z7X W I 414;1Z7X W L 433;14.5458
1Z7X W I 414;1Z7X W I 436;10.2819
1Z7X W I 414;1Z7X W Y 437;1.1528
1Z7X W I 414;1Z7X W W 438;17.9087
1Z7X W I 414;1Z7X W M 442;15.7111
1Z7X W I 414;1Z7X W L 446;11.3907
1Z7X W L 415;1Z7X W Q 416;21.1836
1Z7X W L 415;1Z7X W L 417;0.790598
1Z7X W L 415;1Z7X W V 418;13.8948
1Z7X W L 415;1Z7X W E 419;29.0245
1Z7X W L 415;1Z7X W M 442;10.7021
1Z7X W L 415;1Z7X W R 445;27.0149
1Z7X W Q 416;1Z7X W L 417;17.7209
1Z7X W Q 416;1Z7X W V 418;0.549406
1Z7X W Q 416;1Z7X W E 419;13.6739
1Z7X W Q 416;1Z7X W S 420;6.73665
1Z7X W L 417;1Z7X W V 418;17.7668
1Z7X W L 417;1Z7X W E 419;0.974915
1Z7X W L 417;1Z7X W S 420;7.90491
1Z7X W L 417;1Z7X W V 421;15.4576
1Z7X W L 417;1Z7X W L 431;15.865
1Z7X W L 417;1Z7X W L 433;6.90743
1Z7X W V 418;1Z7X W E 419;22.3061
1Z7X W V 418;1Z7X W S 420;2.00426
1Z7X W V 418;1Z7X W V 421;12.4271
1Z7X W V 418;1Z7X W R 422;20.5584
1Z7X W V 418;1Z7X W L 431;1.44505
1Z7X W V 418;1Z7X W M 442;8.9931
1Z7X W V 418;1Z7X W R 445;16.4948
1Z7X W V 418;1Z7X W L 446;9.92133
1Z7X W V 418;1Z7X W L 449;20.0105
1Z7X W E 419;1Z7X W S 420;20.0226
1Z7X W E 419;1Z7X W R 422;33.1767
1Z7X W E 419;1Z7X W Q 423;14.7057
1Z7X W E 419;1Z7X W R 445;2.49145
1Z7X W S 420;1Z7X W V 421;17.0379
1Z7X W S 420;1Z7X W R 422;2.42157
1Z7X W S 420;1Z7X W Q 423;12.9301
1Z7X W S 420;1Z7X W C 426;8.18073
1Z7X W V 421;1Z7X W R 422;16.4121
1Z7X W V 421;1Z7X W Q 423;3.00324
1Z7X W V 421;1Z7X W C 426;16.6194
1Z7X W V 421;1Z7X W L 428;13.8529
1Z7X W V 421;1Z7X W L 431;14.7382
1Z7X W V 421;1Z7X W L 449;14.0311
1Z7X W V 421;1Z7X W K 453;13.0291
1Z7X W V 421;1Z7X W L 456;18.4474
1Z7X W V 421;1Z7X W V 458;6.67328e-05
1Z7X W R 422;1Z7X W Q 423;33.6532
1Z7X W R 422;1Z7X W P 424;8.28894
1Z7X W R 422;1Z7X W L 449;18.3397
1Z7X W R 422;1Z7X W K 453;12.4859
1Z7X W Q 423;1Z7X W P 424;27.4899
1Z7X W Q 423;1Z7X W G 425;8.1857
1Z7X W Q 423;1Z7X W C 426;12.3227
1Z7X W Q 423;1Z7X W K 453;7.58026
1Z7X W P 424;1Z7X W G 425;20.4634
1Z7X W P 424;1Z7X W C 426;4.84149
1Z7X W P 424;1Z7X W L 427;7.29616
1Z7X W P 424;1Z7X W K 453;8.84068
1Z7X W G 425;1Z7X W C 426;19.5831
1Z7X W G 425;1Z7X W L 427;11.7184
1Z7X W C 426;1Z7X W L 427;26.5756
1Z7X W C 426;1Z7X W L 428;17.6608
1Z7X W C 426;1Z7X W K 453;16.6265
1Z7X W L 427;1Z7X W L 428;24.7145
1Z7X W L 427;1Z7X W E 429;9.94685
1Z7X W L 427;1Z7X W K 453;0.0589214
1Z7X W L 428;1Z7X W E 429;19.7993
1Z7X W L 428;1Z7X W Q 430;9.56258
1Z7X W L 428;1Z7X W L 431;12.5786
1Z7X W L 428;1Z7X W K 453;5.39428
1Z7X W L 428;1Z7X W S 455;3.24199
1Z7X W L 428;1Z7X W L 456;22.4882
1Z7X W E 429;1Z7X W Q 430;22.7604
1Z7X W E 429;1Z7X W S 455;20.3973
1Z7X W E 429;1Z7X W L 456;8.03686
1Z7X W E 429;1Z7X W R 457;11.4608
1Z7X W Q 430;1Z7X W L 431;18.914
1Z7X W Q 430;1Z7X W V 432;11.688
1Z7X W Q 430;1Z7X W L 456;5.30948
1Z7X W Q 430;1Z7X W R 457;25.8452
1Z7X W Q 430;1Z7X W I 459;15.2804
1Z7X W L 431;1Z7X W V 432;20.8282
1Z7X W L 431;1Z7X W L 433;24.3595
1Z7X W L 431;1Z7X W L 446;2.71312
1Z7X W L 431;1Z7X W L 449;1.31533
1Z7X W L 431;1Z7X W L 456;11.127
1Z7X W L 431;1Z7X W R 457;7.74902
1Z7X W L 431;1Z7X W V 458;20.5217
1Z7X W L 431;1Z7X W I 459;8.14999
1Z7X W V 432;1Z7X W L 433;22.9035
1Z7X W V 432;1Z7X W Y 434;13.1094
1Z7X W V 432;1Z7X W I 459;18.6256
1Z7X W L 433;1Z7X W Y 434;19.8112
1Z7X W L 433;1Z7X W D 435;1.38951
1Z7X W L 433;1Z7X W I 436;23.0872
1Z7X W L 433;1Z7X W W 438;22.5522
1Z7X W L 433;1Z7X W L 446;7.79992
1Z7X W L 433;1Z7X W V 458;13.318
1Z7X W L 433;1Z7X W I 459;10.2233
1Z7X W L 433;1Z7X W S 460;9.09993
1Z7X W Y 434;1Z7X W D 435;27.2966
1Z7X W Y 434;1Z7X W I 436;6.23081
1Z7X W Y 434;1Z7X W I 459;18.0
1Z7X W Y 434;1Z7X W S 460;28.7042
1Z7X W D 435;1Z7X W I 436;27.0089
1Z7X W D 435;1Z7X W S 460;1.10082
1Z7X W I 436;1Z7X W Y 437;28.5326
1Z7X W I 436;1Z7X W W 438;20.2275
1Z7X W Y 437;1Z7X W W 438;38.4633
1Z7X W Y 437;1Z7X W S 439;6.1637
1Z7X W W 438;1Z7X W S 439;25.8384
1Z7X W W 438;1Z7X W E 440;3.96061
1Z7X W W 438;1Z7X W M 442;12.867
1Z7X W W 438;1Z7X W E 443;19.9847
1Z7X W W 438;1Z7X W L 446;22.1235
1Z7X W W 438;1Z7X W V 458;3.92281
1Z7X W W 438;1Z7X W S 460;14.0906
1Z7X W S 439;1Z7X W E 440;17.7751
1Z7X W S 439;1Z7X W E 441;16.7712
1Z7X W S 439;1Z7X W M 442;13.0063
1Z7X W S 439;1Z7X W E 443;6.64418
1Z7X W E 440;1Z7X W E 441;22.5497
1Z7X W E 440;1Z7X W M 442;0.416777
1Z7X W E 440;1Z7X W E 443;19.2657
1Z7X W E 440;1Z7X W D 444;18.4493
1Z7X W E 441;1Z7X W M 442;17.7089
1Z7X W E 441;1Z7X W E 443;1.05894
1Z7X W E 441;1Z7X W D 444;17.6857
1Z7X W E 441;1Z7X W R 445;20.8815
1Z7X W M 442;1Z7X W E 443;14.9698
1Z7X W M 442;1Z7X W D 444;1.15059
1Z7X W M 442;1Z7X W R 445;34.7221
1Z7X W M 442;1Z7X W L 446;22.7563
1Z7X W E 443;1Z7X W D 444;20.2837
1Z7X W E 443;1Z7X W R 445;0.446029
1Z7X W E 443;1Z7X W L 446;15.4634
1Z7X W E 443;1Z7X W Q 447;34.6334
1Z7X W D 444;1Z7X W R 445;19.2712
1Z7X W D 444;1Z7X W L 446;1.28468
1Z7X W D 444;1Z7X W Q 447;21.2789
1Z7X W D 444;1Z7X W A 448;13.6117
1Z7X W R 445;1Z7X W L 446;15.9868
1Z7X W R 445;1Z7X W Q 447;0.345785
1Z7X W R 445;1Z7X W A 448;14.9626
1Z7X W R 445;1Z7X W L 449;11.609
1Z7X W L 446;1Z7X W Q 447;18.4947
1Z7X W L 446;1Z7X W A 448;1.0906
1Z7X W L 446;1Z7X W L 449;19.7577
1Z7X W L 446;1Z7X W E 450;14.7906
1Z7X W L 446;1Z7X W V 458;19.653
1Z7X W Q 447;1Z7X W A 448;19.3039
1Z7X W Q 447;1Z7X W L 449;0.606173
1Z7X W Q 447;1Z7X W E 450;16.8504
1Z7X W Q 447;1Z7X W K 451;12.9831
1Z7X W A 448;1Z7X W L 449;18.1869
1Z7X W A 448;1Z7X W E 450;0.9783
1Z7X W A 448;1Z7X W K 451;10.679
1Z7X W A 448;1Z7X W D 452;23.0822
1Z7X W L 449;1Z7X W E 450;20.6489
1Z7X W L 449;1Z7X W K 451;0.891161
1Z7X W L 449;1Z7X W D 452;12.8183
1Z7X W L 449;1Z7X W K 453;22.4047
1Z7X W L 449;1Z7X W L 456;12.7912
1Z7X W L 449;1Z7X W V 458;9.11757
1Z7X W E 450;1Z7X W K 451;22.4709
1Z7X W E 450;1Z7X W D 452;0.579563
1Z7X W E 450;1Z7X W K 453;8.88392
1Z7X W E 450;1Z7X W P 454;13.6768
1Z7X W E 450;1Z7X W L 456;14.4986
1Z7X W E 450;1Z7X W R 457;6.65391
1Z7X W E 450;1Z7X W V 458;31.6872
1Z7X W K 451;1Z7X W D 452;27.7673
1Z7X W K 451;1Z7X W K 453;1.32752
1Z7X W K 451;1Z7X W P 454;9.94813
1Z7X W D 452;1Z7X W K 453;21.3388
1Z7X W D 452;1Z7X W P 454;3.34076
1Z7X W K 453;1Z7X W P 454;18.9
1Z7X W K 453;1Z7X W S 455;21.2749
1Z7X W K 453;1Z7X W L 456;29.1234
1Z7X W P 454;1Z7X W S 455;28.7745
1Z7X W P 454;1Z7X W L 456;11.063
1Z7X W P 454;1Z7X W R 457;1.96241
1Z7X W S 455;1Z7X W L 456;19.7663
1Z7X W S 455;1Z7X W R 457;2.56274
1Z7X W L 456;1Z7X W R 457;25.1124
1Z7X W L 456;1Z7X W V 458;12.3931
1Z7X W R 457;1Z7X W V 458;23.572
1Z7X W R 457;1Z7X W I 459;23.658
1Z7X W V 458;1Z7X W I 459;24.6277
1Z7X W V 458;1Z7X W S 460;7.77807
1Z7X W I 459;1Z7X W S 460;29.3178
