V1;V2;Weight
2AW2 B P 2;2AW2 B S 3;32.226
2AW2 B P 2;2AW2 B C 4;16.9387
2AW2 B P 2;2AW2 B P 10;19.6769
2AW2 B P 2;2AW2 B G 12;4.29264
2AW2 B P 2;2AW2 B S 13;22.7639
2AW2 B P 2;2AW2 B E 14;3.21513
2AW2 B P 2;2AW2 B C 15;5.94152
2AW2 B S 3;2AW2 B C 4;21.3857
2AW2 B S 3;2AW2 B K 5;3.48083
2AW2 B S 3;2AW2 B E 8;1.08758
2AW2 B S 3;2AW2 B C 15;12.1525
2AW2 B C 4;2AW2 B K 5;31.5365
2AW2 B C 4;2AW2 B E 6;0.050148
2AW2 B C 4;2AW2 B E 8;15.1271
2AW2 B C 4;2AW2 B Y 9;8.57898
2AW2 B C 4;2AW2 B P 10;15.0777
2AW2 B C 4;2AW2 B E 14;0.13344
2AW2 B C 4;2AW2 B C 15;21.8998
2AW2 B K 5;2AW2 B E 6;30.0562
2AW2 B K 5;2AW2 B D 7;18.9917
2AW2 B K 5;2AW2 B E 8;41.6014
2AW2 B K 5;2AW2 B K 18;0.349734
2AW2 B E 6;2AW2 B D 7;20.7926
2AW2 B E 6;2AW2 B E 8;1.86842
2AW2 B E 6;2AW2 B K 18;16.3798
2AW2 B E 6;2AW2 B L 49;1.8449
2AW2 B D 7;2AW2 B E 8;29.2099
2AW2 B D 7;2AW2 B P 17;1.53055
2AW2 B D 7;2AW2 B K 18;15.1927
2AW2 B D 7;2AW2 B L 49;17.1499
2AW2 B E 8;2AW2 B Y 9;18.3424
2AW2 B E 8;2AW2 B C 15;15.4857
2AW2 B E 8;2AW2 B C 16;13.5748
2AW2 B E 8;2AW2 B P 17;6.2011
2AW2 B E 8;2AW2 B K 18;15.7998
2AW2 B Y 9;2AW2 B P 10;41.2467
2AW2 B Y 9;2AW2 B V 11;19.7526
2AW2 B Y 9;2AW2 B E 14;0.142357
2AW2 B Y 9;2AW2 B C 15;3.7186
2AW2 B Y 9;2AW2 B C 16;25.9111
2AW2 B Y 9;2AW2 B P 17;6.78486
2AW2 B Y 9;2AW2 B K 18;23.3098
2AW2 B Y 9;2AW2 B C 19;0.0109506
2AW2 B Y 9;2AW2 B V 25;18.6319
2AW2 B Y 9;2AW2 B A 28;7.28305
2AW2 B Y 9;2AW2 B C 29;2.95428
2AW2 B Y 9;2AW2 B T 35;6.87266
2AW2 B Y 9;2AW2 B G 51;29.8005
2AW2 B P 10;2AW2 B V 11;25.5122
2AW2 B P 10;2AW2 B G 12;5.98344
2AW2 B P 10;2AW2 B E 14;4.74613
2AW2 B P 10;2AW2 B C 15;1.41987
2AW2 B V 11;2AW2 B G 12;34.3447
2AW2 B V 11;2AW2 B S 13;0.934613
2AW2 B V 11;2AW2 B E 14;21.2685
2AW2 B V 11;2AW2 B C 15;0.631393
2AW2 B V 11;2AW2 B C 16;16.5864
2AW2 B V 11;2AW2 B A 28;18.5604
2AW2 B V 11;2AW2 B C 29;6.18112
2AW2 B G 12;2AW2 B S 13;28.9327
2AW2 B G 12;2AW2 B E 14;2.72889
2AW2 B S 13;2AW2 B E 14;44.3854
2AW2 B E 14;2AW2 B C 15;28.9842
2AW2 B E 14;2AW2 B C 16;1.27912
2AW2 B E 14;2AW2 B E 31;5.23459
2AW2 B C 15;2AW2 B C 16;26.1541
2AW2 B C 16;2AW2 B P 17;25.3663
2AW2 B C 16;2AW2 B K 18;2.01546
2AW2 B C 16;2AW2 B C 29;22.9775
2AW2 B C 16;2AW2 B G 30;0.143905
2AW2 B C 16;2AW2 B T 35;1.21692
2AW2 B P 17;2AW2 B K 18;21.054
2AW2 B P 17;2AW2 B C 19;0.642249
2AW2 B P 17;2AW2 B V 25;0.00410599
2AW2 B P 17;2AW2 B C 29;5.82669
2AW2 B P 17;2AW2 B G 34;2.90444
2AW2 B P 17;2AW2 B T 35;23.2026
2AW2 B K 18;2AW2 B C 19;21.8966
2AW2 B K 18;2AW2 B S 20;0.00366865
2AW2 B K 18;2AW2 B V 25;0.0383954
2AW2 B K 18;2AW2 B T 35;0.38074
2AW2 B K 18;2AW2 B C 37;0.293541
2AW2 B K 18;2AW2 B L 49;32.0191
2AW2 B K 18;2AW2 B N 50;15.6173
2AW2 B K 18;2AW2 B G 51;6.03364
2AW2 B C 19;2AW2 B S 20;22.7173
2AW2 B C 19;2AW2 B Y 23;9.40782
2AW2 B C 19;2AW2 B R 24;5.69756
2AW2 B C 19;2AW2 B V 25;14.6109
2AW2 B C 19;2AW2 B T 35;6.67383
2AW2 B C 19;2AW2 B V 36;0.730477
2AW2 B C 19;2AW2 B C 37;21.3914
2AW2 B C 19;2AW2 B H 48;0.0376138
2AW2 B C 19;2AW2 B L 49;8.5867
2AW2 B C 19;2AW2 B N 50;22.5565
2AW2 B S 20;2AW2 B P 21;32.3412
2AW2 B S 20;2AW2 B G 22;0.587269
2AW2 B S 20;2AW2 B Y 23;20.9326
2AW2 B S 20;2AW2 B C 37;1.21849
2AW2 B S 20;2AW2 B H 48;0.595163
2AW2 B S 20;2AW2 B L 49;9.89518
2AW2 B S 20;2AW2 B N 50;5.54586
2AW2 B P 21;2AW2 B G 22;16.5685
2AW2 B P 21;2AW2 B Y 23;10.8975
2AW2 B P 21;2AW2 B I 46;6.90316
2AW2 B P 21;2AW2 B A 47;12.8319
2AW2 B P 21;2AW2 B H 48;14.5472
2AW2 B P 21;2AW2 B L 49;16.2625
2AW2 B P 21;2AW2 B N 50;1.60466
2AW2 B P 21;2AW2 B T 76;22.4184
2AW2 B G 22;2AW2 B Y 23;27.0618
2AW2 B G 22;2AW2 B P 39;4.84963
2AW2 B G 22;2AW2 B C 40;13.4694
2AW2 B G 22;2AW2 B I 46;10.0745
2AW2 B G 22;2AW2 B N 50;0.0953708
2AW2 B G 22;2AW2 B R 75;21.9281
2AW2 B G 22;2AW2 B T 76;8.18339
2AW2 B Y 23;2AW2 B R 24;16.7674
2AW2 B Y 23;2AW2 B C 37;10.8416
2AW2 B Y 23;2AW2 B E 38;11.7658
2AW2 B Y 23;2AW2 B P 39;18.3547
2AW2 B Y 23;2AW2 B C 40;6.46683
2AW2 B Y 23;2AW2 B I 46;7.79838
2AW2 B Y 23;2AW2 B N 50;7.72878
2AW2 B Y 23;2AW2 B C 55;0.0706976
2AW2 B Y 23;2AW2 B R 75;8.03331
2AW2 B R 24;2AW2 B V 25;24.032
2AW2 B R 24;2AW2 B K 26;2.73162
2AW2 B R 24;2AW2 B C 37;4.93102
2AW2 B R 24;2AW2 B E 38;47.7219
2AW2 B R 24;2AW2 B P 39;4.85966
2AW2 B R 24;2AW2 B C 40;1.62462
2AW2 B R 24;2AW2 B P 41;25.6293
2AW2 B R 24;2AW2 B I 46;6.31829
2AW2 B R 24;2AW2 B N 50;3.06727
2AW2 B R 24;2AW2 B L 52;6.69128
2AW2 B R 24;2AW2 B S 53;13.4241
2AW2 B R 24;2AW2 B K 54;18.4374
2AW2 B R 24;2AW2 B C 55;18.304
2AW2 B V 25;2AW2 B K 26;26.5001
2AW2 B V 25;2AW2 B E 27;8.0273
2AW2 B V 25;2AW2 B A 28;7.85148
2AW2 B V 25;2AW2 B T 35;10.3636
2AW2 B V 25;2AW2 B V 36;3.52309
2AW2 B V 25;2AW2 B C 37;0.634115
2AW2 B V 25;2AW2 B E 38;0.142685
2AW2 B V 25;2AW2 B N 50;4.16904
2AW2 B V 25;2AW2 B G 51;11.3465
2AW2 B V 25;2AW2 B L 52;13.2521
2AW2 B V 25;2AW2 B S 53;23.2635
2AW2 B K 26;2AW2 B E 27;31.3404
2AW2 B K 26;2AW2 B V 36;23.1114
2AW2 B K 26;2AW2 B C 37;3.95942
2AW2 B K 26;2AW2 B E 38;34.4278
2AW2 B E 27;2AW2 B A 28;38.4183
2AW2 B E 27;2AW2 B C 29;1.31518
2AW2 B E 27;2AW2 B T 33;1.05244
2AW2 B E 27;2AW2 B G 34;0.353903
2AW2 B E 27;2AW2 B T 35;5.48811
2AW2 B E 27;2AW2 B V 36;38.2662
2AW2 B A 28;2AW2 B C 29;38.8845
2AW2 B A 28;2AW2 B T 33;1.78843
2AW2 B A 28;2AW2 B G 34;0.923263
2AW2 B A 28;2AW2 B T 35;2.70498
2AW2 B A 28;2AW2 B V 36;0.0147191
2AW2 B C 29;2AW2 B G 30;29.2148
2AW2 B C 29;2AW2 B T 33;8.51565
2AW2 B C 29;2AW2 B G 34;10.3712
2AW2 B C 29;2AW2 B T 35;16.5919
2AW2 B G 30;2AW2 B E 31;17.0713
2AW2 B G 30;2AW2 B L 32;2.32206
2AW2 B G 30;2AW2 B T 33;22.6605
2AW2 B E 31;2AW2 B L 32;20.2678
2AW2 B E 31;2AW2 B T 33;0.196464
2AW2 B L 32;2AW2 B T 33;26.7582
2AW2 B T 33;2AW2 B G 34;23.2635
2AW2 B G 34;2AW2 B T 35;17.4906
2AW2 B G 34;2AW2 B V 36;5.90212
2AW2 B T 35;2AW2 B V 36;21.7332
2AW2 B T 35;2AW2 B C 37;10.3741
2AW2 B V 36;2AW2 B C 37;22.2332
2AW2 B C 37;2AW2 B E 38;18.4919
2AW2 B C 37;2AW2 B P 39;0.0456781
2AW2 B E 38;2AW2 B P 39;35.8793
2AW2 B E 38;2AW2 B C 40;1.05784
2AW2 B E 38;2AW2 B C 55;0.0235724
2AW2 B P 39;2AW2 B C 40;24.1634
2AW2 B P 39;2AW2 B P 41;7.55785
2AW2 B P 39;2AW2 B R 75;19.7897
2AW2 B C 40;2AW2 B P 41;27.6678
2AW2 B C 40;2AW2 B P 42;2.49511
2AW2 B C 40;2AW2 B T 44;9.20428
2AW2 B C 40;2AW2 B Y 45;6.2563
2AW2 B C 40;2AW2 B I 46;9.67209
2AW2 B C 40;2AW2 B C 55;17.9105
2AW2 B C 40;2AW2 B R 75;24.8777
2AW2 B P 41;2AW2 B P 42;40.4297
2AW2 B P 41;2AW2 B G 43;1.22947
2AW2 B P 41;2AW2 B T 44;29.9626
2AW2 B P 41;2AW2 B C 55;7.00958
2AW2 B P 41;2AW2 B R 75;1.61015
2AW2 B P 42;2AW2 B G 43;28.8368
2AW2 B P 42;2AW2 B T 44;7.37967
2AW2 B P 42;2AW2 B R 75;0.0967935
2AW2 B G 43;2AW2 B T 44;22.3512
2AW2 B G 43;2AW2 B Q 57;10.345
2AW2 B G 43;2AW2 B C 58;25.7397
2AW2 B T 44;2AW2 B Y 45;18.3328
2AW2 B T 44;2AW2 B K 54;0.565856
2AW2 B T 44;2AW2 B C 55;17.6822
2AW2 B T 44;2AW2 B L 56;8.10137
2AW2 B T 44;2AW2 B Q 57;18.735
2AW2 B T 44;2AW2 B C 58;11.2084
2AW2 B T 44;2AW2 B C 73;0.770136
2AW2 B T 44;2AW2 B S 74;3.47705
2AW2 B T 44;2AW2 B R 75;7.82486
2AW2 B Y 45;2AW2 B I 46;24.923
2AW2 B Y 45;2AW2 B A 47;17.3502
2AW2 B Y 45;2AW2 B C 55;4.68516
2AW2 B Y 45;2AW2 B L 56;41.9642
2AW2 B Y 45;2AW2 B Q 57;9.70319
2AW2 B Y 45;2AW2 B C 58;7.06411
2AW2 B Y 45;2AW2 B C 73;7.72826
2AW2 B Y 45;2AW2 B S 74;6.18436
2AW2 B Y 45;2AW2 B R 75;9.17201
2AW2 B Y 45;2AW2 B T 76;1.97362
2AW2 B Y 45;2AW2 B E 77;8.2172
2AW2 B Y 45;2AW2 B N 78;38.8297
2AW2 B I 46;2AW2 B A 47;21.4705
2AW2 B I 46;2AW2 B H 48;11.0506
2AW2 B I 46;2AW2 B N 50;21.4865
2AW2 B I 46;2AW2 B L 52;17.9742
2AW2 B I 46;2AW2 B K 54;2.35794
2AW2 B I 46;2AW2 B C 55;13.1334
2AW2 B I 46;2AW2 B L 56;14.7315
2AW2 B I 46;2AW2 B R 75;7.60109
2AW2 B I 46;2AW2 B T 76;5.9434
2AW2 B A 47;2AW2 B H 48;43.9884
2AW2 B A 47;2AW2 B L 56;0.797128
2AW2 B A 47;2AW2 B T 76;15.2301
2AW2 B A 47;2AW2 B E 77;2.93852
2AW2 B A 47;2AW2 B N 78;1.60901
2AW2 B H 48;2AW2 B L 49;33.2997
2AW2 B H 48;2AW2 B N 50;9.31218
2AW2 B L 49;2AW2 B N 50;20.6702
2AW2 B N 50;2AW2 B G 51;20.6286
2AW2 B N 50;2AW2 B L 52;21.4399
2AW2 B G 51;2AW2 B L 52;27.7565
2AW2 B G 51;2AW2 B S 53;3.34146
2AW2 B L 52;2AW2 B S 53;20.8132
2AW2 B L 52;2AW2 B K 54;18.9721
2AW2 B L 52;2AW2 B C 55;0.21924
2AW2 B L 52;2AW2 B L 56;16.5218
2AW2 B S 53;2AW2 B K 54;29.9006
2AW2 B K 54;2AW2 B C 55;38.0535
2AW2 B K 54;2AW2 B L 56;2.13625
2AW2 B K 54;2AW2 B Q 57;7.6081
2AW2 B C 55;2AW2 B L 56;24.6733
2AW2 B C 55;2AW2 B Q 57;4.81918
2AW2 B L 56;2AW2 B Q 57;27.6169
2AW2 B L 56;2AW2 B C 58;0.680478
2AW2 B Q 57;2AW2 B C 58;29.9504
2AW2 B Q 57;2AW2 B Q 59;4.19147
2AW2 B Q 57;2AW2 B N 78;1.90439
2AW2 B C 58;2AW2 B Q 59;28.7841
2AW2 B C 58;2AW2 B M 60;17.1829
2AW2 B C 58;2AW2 B C 73;29.141
2AW2 B C 58;2AW2 B N 78;2.29306
2AW2 B C 58;2AW2 B A 79;0.883052
2AW2 B Q 59;2AW2 B M 60;40.6961
2AW2 B Q 59;2AW2 B C 61;2.21934
2AW2 B Q 59;2AW2 B C 73;0.301767
2AW2 B Q 59;2AW2 B N 78;18.1274
2AW2 B Q 59;2AW2 B A 79;27.3613
2AW2 B Q 59;2AW2 B V 80;0.0578372
2AW2 B Q 59;2AW2 B C 81;13.9832
2AW2 B M 60;2AW2 B C 61;26.5947
2AW2 B M 60;2AW2 B D 62;10.5439
2AW2 B M 60;2AW2 B L 67;2.87909
2AW2 B M 60;2AW2 B C 81;8.50418
2AW2 B C 61;2AW2 B D 62;19.7273
2AW2 B C 61;2AW2 B P 63;11.3829
2AW2 B C 61;2AW2 B L 67;18.9365
2AW2 B C 61;2AW2 B R 68;4.62051
2AW2 B C 61;2AW2 B A 69;19.8016
2AW2 B C 61;2AW2 B A 79;8.45194
2AW2 B C 61;2AW2 B V 80;3.17145
2AW2 B C 61;2AW2 B C 81;22.3737
2AW2 B D 62;2AW2 B P 63;27.1378
2AW2 B D 62;2AW2 B A 64;22.3894
2AW2 B D 62;2AW2 B M 65;26.7264
2AW2 B D 62;2AW2 B G 66;0.450009
2AW2 B D 62;2AW2 B L 67;17.2466
2AW2 B P 63;2AW2 B A 64;23.8978
2AW2 B P 63;2AW2 B M 65;1.945
2AW2 B P 63;2AW2 B G 66;13.2357
2AW2 B P 63;2AW2 B L 67;16.8321
2AW2 B P 63;2AW2 B S 84;0.965583
2AW2 B A 64;2AW2 B M 65;26.9325
2AW2 B A 64;2AW2 B G 66;4.11318
2AW2 B M 65;2AW2 B G 66;18.0317
2AW2 B M 65;2AW2 B L 67;15.1967
2AW2 B M 65;2AW2 B A 98;11.2657
2AW2 B M 65;2AW2 B A 99;22.6673
2AW2 B M 65;2AW2 B C 100;13.7337
2AW2 B G 66;2AW2 B L 67;17.1825
2AW2 B G 66;2AW2 B C 83;2.01067
2AW2 B G 66;2AW2 B S 84;15.3172
2AW2 B G 66;2AW2 B H 87;15.7375
2AW2 B G 66;2AW2 B C 100;16.0361
2AW2 B L 67;2AW2 B R 68;22.4936
2AW2 B L 67;2AW2 B C 81;16.5974
2AW2 B L 67;2AW2 B G 82;12.0404
2AW2 B L 67;2AW2 B C 83;0.939545
2AW2 B L 67;2AW2 B S 84;8.75732
2AW2 B L 67;2AW2 B C 97;12.2738
2AW2 B L 67;2AW2 B A 98;16.2451
2AW2 B L 67;2AW2 B A 99;6.53121
2AW2 B L 67;2AW2 B C 100;9.06336
2AW2 B R 68;2AW2 B A 69;35.7625
2AW2 B R 68;2AW2 B S 70;5.1938
2AW2 B R 68;2AW2 B C 81;2.91807
2AW2 B R 68;2AW2 B G 82;17.4262
2AW2 B R 68;2AW2 B C 83;6.83966
2AW2 B R 68;2AW2 B S 84;16.6061
2AW2 B R 68;2AW2 B P 85;21.1774
2AW2 B A 69;2AW2 B S 70;22.7673
2AW2 B A 69;2AW2 B R 71;12.8762
2AW2 B A 69;2AW2 B N 72;15.6783
2AW2 B A 69;2AW2 B A 79;3.64232
2AW2 B A 69;2AW2 B V 80;3.13457
2AW2 B A 69;2AW2 B C 81;1.32184
2AW2 B S 70;2AW2 B R 71;30.3967
2AW2 B S 70;2AW2 B V 80;22.7924
2AW2 B S 70;2AW2 B C 81;1.16627
2AW2 B S 70;2AW2 B G 82;13.8415
2AW2 B R 71;2AW2 B N 72;35.896
2AW2 B R 71;2AW2 B E 77;37.3713
2AW2 B R 71;2AW2 B N 78;11.7908
2AW2 B R 71;2AW2 B A 79;8.09804
2AW2 B R 71;2AW2 B V 80;36.2409
2AW2 B N 72;2AW2 B C 73;30.7624
2AW2 B N 72;2AW2 B S 74;5.50812
2AW2 B N 72;2AW2 B E 77;5.48266
2AW2 B N 72;2AW2 B N 78;4.35191
2AW2 B N 72;2AW2 B A 79;5.62159
2AW2 B C 73;2AW2 B S 74;30.2595
2AW2 B C 73;2AW2 B E 77;5.85553
2AW2 B C 73;2AW2 B N 78;6.30624
2AW2 B C 73;2AW2 B A 79;19.7759
2AW2 B S 74;2AW2 B R 75;25.6322
2AW2 B S 74;2AW2 B T 76;13.4776
2AW2 B S 74;2AW2 B E 77;27.2802
2AW2 B R 75;2AW2 B T 76;23.0769
2AW2 B R 75;2AW2 B E 77;0.600477
2AW2 B T 76;2AW2 B E 77;34.6618
2AW2 B E 77;2AW2 B N 78;26.4384
2AW2 B N 78;2AW2 B A 79;30.0598
2AW2 B N 78;2AW2 B V 80;10.019
2AW2 B A 79;2AW2 B V 80;25.8041
2AW2 B A 79;2AW2 B C 81;1.3634
2AW2 B V 80;2AW2 B C 81;28.6055
2AW2 B V 80;2AW2 B G 82;0.662105
2AW2 B V 80;2AW2 B H 96;22.6207
2AW2 B C 81;2AW2 B G 82;22.756
2AW2 B C 81;2AW2 B H 96;13.0712
2AW2 B C 81;2AW2 B C 97;18.3593
2AW2 B G 82;2AW2 B C 83;28.0822
2AW2 B G 82;2AW2 B S 84;0.000861114
2AW2 B G 82;2AW2 B H 96;1.18917
2AW2 B G 82;2AW2 B C 97;6.05849
2AW2 B G 82;2AW2 B C 100;0.294814
2AW2 B C 83;2AW2 B S 84;26.5169
2AW2 B C 83;2AW2 B P 85;0.911072
2AW2 B C 83;2AW2 B H 87;15.3651
2AW2 B C 83;2AW2 B F 88;5.65463
2AW2 B C 83;2AW2 B C 89;11.1027
2AW2 B C 83;2AW2 B C 97;7.42107
2AW2 B C 83;2AW2 B C 100;18.143
2AW2 B S 84;2AW2 B P 85;34.2744
2AW2 B S 84;2AW2 B G 86;2.8693
2AW2 B S 84;2AW2 B H 87;27.2187
2AW2 B P 85;2AW2 B G 86;27.6673
2AW2 B P 85;2AW2 B H 87;11.7627
2AW2 B G 86;2AW2 B H 87;25.0178
2AW2 B G 86;2AW2 B A 102;7.21809
2AW2 B G 86;2AW2 B Y 103;25.7945
2AW2 B H 87;2AW2 B F 88;21.0166
2AW2 B H 87;2AW2 B C 100;13.1494
2AW2 B H 87;2AW2 B R 101;10.3058
2AW2 B H 87;2AW2 B A 102;22.3217
2AW2 B H 87;2AW2 B Y 103;15.2426
2AW2 B F 88;2AW2 B C 89;30.5791
2AW2 B F 88;2AW2 B I 90;18.5883
2AW2 B F 88;2AW2 B C 100;8.20911
2AW2 B F 88;2AW2 B R 101;34.8864
2AW2 B F 88;2AW2 B A 102;8.45412
2AW2 B F 88;2AW2 B Y 103;34.3636
2AW2 B C 89;2AW2 B I 90;26.4389
2AW2 B C 89;2AW2 B V 91;11.0151
2AW2 B C 89;2AW2 B Q 92;17.3211
2AW2 B C 89;2AW2 B C 97;24.0441
2AW2 B C 89;2AW2 B A 99;2.96237
2AW2 B C 89;2AW2 B C 100;2.0714
2AW2 B I 90;2AW2 B V 91;40.7769
2AW2 B I 90;2AW2 B Q 92;0.0318888
2AW2 B I 90;2AW2 B A 99;18.7963
2AW2 B I 90;2AW2 B C 100;9.74071
2AW2 B I 90;2AW2 B R 101;41.0468
2AW2 B V 91;2AW2 B Q 92;37.2353
2AW2 B V 91;2AW2 B H 96;1.22736
2AW2 B V 91;2AW2 B C 97;4.30815
2AW2 B V 91;2AW2 B A 98;21.593
2AW2 B V 91;2AW2 B A 99;20.9133
2AW2 B Q 92;2AW2 B D 95;25.3345
2AW2 B Q 92;2AW2 B H 96;20.4983
2AW2 B Q 92;2AW2 B C 97;2.64203
2AW2 B Q 92;2AW2 B A 98;6.66476
2AW2 B D 95;2AW2 B H 96;40.7545
2AW2 B H 96;2AW2 B C 97;36.3058
2AW2 B H 96;2AW2 B A 98;2.91914
2AW2 B C 97;2AW2 B A 98;22.4702
2AW2 B C 97;2AW2 B A 99;8.84071
2AW2 B C 97;2AW2 B C 100;4.63901
2AW2 B A 98;2AW2 B A 99;22.7761
2AW2 B A 99;2AW2 B C 100;20.7143
2AW2 B C 100;2AW2 B R 101;22.0344
2AW2 B R 101;2AW2 B A 102;34.777
2AW2 B R 101;2AW2 B Y 103;0.0525455
2AW2 B A 102;2AW2 B Y 103;31.6507
