V1;V2;Weight
2DVW A G 3;2DVW A C 4;38.0138
2DVW A G 3;2DVW A V 5;2.49716
2DVW A G 3;2DVW A Y 15;4.81548
2DVW A G 3;2DVW A S 16;12.8428
2DVW A C 4;2DVW A V 5;21.4843
2DVW A C 4;2DVW A S 6;6.79314
2DVW A C 4;2DVW A M 9;6.80569
2DVW A C 4;2DVW A N 12;23.6641
2DVW A C 4;2DVW A S 16;1.06017
2DVW A V 5;2DVW A S 6;27.8265
2DVW A V 5;2DVW A C 11;2.54657
2DVW A V 5;2DVW A N 12;12.1833
2DVW A V 5;2DVW A Y 15;22.1381
2DVW A V 5;2DVW A Q 38;2.22552
2DVW A V 5;2DVW A D 39;1.66796
2DVW A V 5;2DVW A W 46;25.4141
2DVW A S 6;2DVW A N 7;27.2067
2DVW A S 6;2DVW A I 8;10.9244
2DVW A S 6;2DVW A C 11;10.5768
2DVW A S 6;2DVW A N 12;21.13
2DVW A S 6;2DVW A D 37;13.3614
2DVW A S 6;2DVW A Q 38;7.32233
2DVW A S 6;2DVW A D 39;0.946795
2DVW A S 6;2DVW A W 46;7.24533
2DVW A N 7;2DVW A I 8;39.2486
2DVW A N 7;2DVW A M 9;4.32563
2DVW A N 7;2DVW A N 12;1.57605
2DVW A N 7;2DVW A T 36;0.064087
2DVW A N 7;2DVW A D 37;8.79152
2DVW A N 7;2DVW A Q 38;35.1414
2DVW A I 8;2DVW A M 9;22.9071
2DVW A I 8;2DVW A I 10;15.6292
2DVW A I 8;2DVW A C 11;15.898
2DVW A I 8;2DVW A N 12;9.10073
2DVW A I 8;2DVW A L 32;0.191702
2DVW A I 8;2DVW A R 35;30.1945
2DVW A I 8;2DVW A T 36;11.0739
2DVW A I 8;2DVW A D 37;11.4238
2DVW A M 9;2DVW A I 10;20.8258
2DVW A M 9;2DVW A C 11;1.61559
2DVW A M 9;2DVW A N 12;28.156
2DVW A M 9;2DVW A L 13;28.4442
2DVW A M 9;2DVW A E 21;3.82063
2DVW A M 9;2DVW A R 25;8.01135
2DVW A I 10;2DVW A C 11;22.8371
2DVW A I 10;2DVW A N 12;0.343245
2DVW A I 10;2DVW A L 13;19.9172
2DVW A I 10;2DVW A A 14;7.72855
2DVW A I 10;2DVW A L 22;16.5456
2DVW A I 10;2DVW A R 25;10.0637
2DVW A I 10;2DVW A I 26;13.5123
2DVW A I 10;2DVW A L 32;32.2028
2DVW A I 10;2DVW A A 33;0.0419471
2DVW A I 10;2DVW A R 35;8.79933
2DVW A I 10;2DVW A A 43;12.9277
2DVW A C 11;2DVW A N 12;16.8354
2DVW A C 11;2DVW A L 13;1.05494
2DVW A C 11;2DVW A A 14;8.74582
2DVW A C 11;2DVW A Y 15;7.75921
2DVW A C 11;2DVW A R 35;5.19245
2DVW A C 11;2DVW A T 36;0.0490059
2DVW A C 11;2DVW A D 37;8.43902
2DVW A C 11;2DVW A R 41;3.87935
2DVW A C 11;2DVW A T 42;7.34838
2DVW A C 11;2DVW A A 43;9.46608
2DVW A C 11;2DVW A W 46;18.1548
2DVW A N 12;2DVW A L 13;19.1752
2DVW A N 12;2DVW A A 14;0.612763
2DVW A N 12;2DVW A Y 15;7.21531
2DVW A N 12;2DVW A S 16;18.6752
2DVW A L 13;2DVW A A 14;17.9007
2DVW A L 13;2DVW A Y 15;0.90334
2DVW A L 13;2DVW A S 16;7.04175
2DVW A L 13;2DVW A G 17;3.75016
2DVW A L 13;2DVW A K 18;30.6237
2DVW A L 13;2DVW A E 21;26.4803
2DVW A L 13;2DVW A L 22;13.6158
2DVW A L 13;2DVW A R 25;12.2535
2DVW A L 13;2DVW A I 55;1.99274
2DVW A A 14;2DVW A Y 15;16.4452
2DVW A A 14;2DVW A S 16;0.600967
2DVW A A 14;2DVW A G 17;3.21264
2DVW A A 14;2DVW A L 22;11.266
2DVW A A 14;2DVW A A 43;14.9725
2DVW A A 14;2DVW A W 46;4.92015
2DVW A A 14;2DVW A A 47;11.5798
2DVW A A 14;2DVW A H 52;6.18915
2DVW A A 14;2DVW A I 55;14.3851
2DVW A Y 15;2DVW A S 16;25.667
2DVW A Y 15;2DVW A G 17;2.09938
2DVW A Y 15;2DVW A W 46;28.3107
2DVW A Y 15;2DVW A A 47;0.667079
2DVW A Y 15;2DVW A S 49;12.0475
2DVW A Y 15;2DVW A A 50;28.4575
2DVW A Y 15;2DVW A H 52;9.2666
2DVW A S 16;2DVW A G 17;19.3608
2DVW A S 16;2DVW A K 18;30.4479
2DVW A S 16;2DVW A H 52;4.93592
2DVW A G 17;2DVW A K 18;18.3619
2DVW A G 17;2DVW A L 19;13.7844
2DVW A G 17;2DVW A H 52;17.8776
2DVW A G 17;2DVW A I 55;11.1071
2DVW A K 18;2DVW A L 19;17.6353
2DVW A K 18;2DVW A D 20;2.37853
2DVW A K 18;2DVW A E 21;20.7179
2DVW A K 18;2DVW A L 22;11.2907
2DVW A K 18;2DVW A I 55;3.15129
2DVW A L 19;2DVW A D 20;32.0814
2DVW A L 19;2DVW A E 21;0.676517
2DVW A L 19;2DVW A L 22;10.7955
2DVW A L 19;2DVW A K 23;32.8563
2DVW A L 19;2DVW A E 54;36.7987
2DVW A L 19;2DVW A I 55;23.5244
2DVW A L 19;2DVW A F 58;4.80995
2DVW A D 20;2DVW A E 21;24.0443
2DVW A D 20;2DVW A L 22;0.942457
2DVW A D 20;2DVW A K 23;20.0561
2DVW A D 20;2DVW A E 24;14.0896
2DVW A E 21;2DVW A L 22;18.2718
2DVW A E 21;2DVW A K 23;0.619572
2DVW A E 21;2DVW A E 24;20.9667
2DVW A E 21;2DVW A R 25;26.0677
2DVW A L 22;2DVW A K 23;21.7071
2DVW A L 22;2DVW A E 24;1.03045
2DVW A L 22;2DVW A R 25;4.74202
2DVW A L 22;2DVW A I 26;22.4224
2DVW A L 22;2DVW A A 43;6.27128
2DVW A L 22;2DVW A I 55;21.1595
2DVW A L 22;2DVW A F 58;11.5444
2DVW A L 22;2DVW A L 59;6.31529
2DVW A K 23;2DVW A E 24;19.4216
2DVW A K 23;2DVW A R 25;0.580713
2DVW A K 23;2DVW A I 26;4.67902
2DVW A K 23;2DVW A L 27;25.031
2DVW A K 23;2DVW A F 58;34.0805
2DVW A E 24;2DVW A R 25;25.577
2DVW A E 24;2DVW A I 26;0.738165
2DVW A E 24;2DVW A L 27;12.7512
2DVW A E 24;2DVW A A 28;12.1294
2DVW A R 25;2DVW A I 26;17.3629
2DVW A R 25;2DVW A L 27;0.889149
2DVW A R 25;2DVW A A 28;12.7453
2DVW A R 25;2DVW A D 29;9.77018
2DVW A R 25;2DVW A L 32;33.5244
2DVW A I 26;2DVW A L 27;23.048
2DVW A I 26;2DVW A A 28;1.51402
2DVW A I 26;2DVW A D 29;10.5834
2DVW A I 26;2DVW A K 30;17.351
2DVW A I 26;2DVW A L 32;11.3907
2DVW A I 26;2DVW A A 33;17.3639
2DVW A I 26;2DVW A A 43;3.07251
2DVW A I 26;2DVW A F 58;12.1384
2DVW A I 26;2DVW A L 59;8.57819
2DVW A I 26;2DVW A L 62;11.3845
2DVW A L 27;2DVW A A 28;27.3828
2DVW A L 27;2DVW A D 29;0.298551
2DVW A L 27;2DVW A K 30;7.33872
2DVW A L 27;2DVW A F 58;20.6038
2DVW A L 27;2DVW A L 62;5.07502
2DVW A A 28;2DVW A D 29;27.6551
2DVW A A 28;2DVW A K 30;2.92012
2DVW A D 29;2DVW A K 30;19.7427
2DVW A D 29;2DVW A S 31;22.1744
2DVW A D 29;2DVW A L 32;29.2636
2DVW A D 29;2DVW A A 33;0.336768
2DVW A D 29;2DVW A R 35;6.88523
2DVW A K 30;2DVW A S 31;24.1551
2DVW A K 30;2DVW A L 32;1.9305
2DVW A K 30;2DVW A A 33;15.4205
2DVW A K 30;2DVW A T 34;2.66152
2DVW A K 30;2DVW A L 62;36.5308
2DVW A K 30;2DVW A G 63;0.000365964
2DVW A K 30;2DVW A V 64;0.819492
2DVW A S 31;2DVW A L 32;19.7769
2DVW A S 31;2DVW A A 33;2.08623
2DVW A S 31;2DVW A T 34;15.8498
2DVW A S 31;2DVW A R 35;17.8978
2DVW A L 32;2DVW A A 33;19.2935
2DVW A L 32;2DVW A T 34;1.84537
2DVW A L 32;2DVW A R 35;39.0614
2DVW A L 32;2DVW A T 42;0.0958911
2DVW A L 32;2DVW A A 43;3.24322
2DVW A A 33;2DVW A T 34;25.2109
2DVW A A 33;2DVW A R 35;0.605585
2DVW A A 33;2DVW A T 42;8.57135
2DVW A A 33;2DVW A A 43;8.16848
2DVW A A 33;2DVW A L 44;1.52005
2DVW A A 33;2DVW A L 59;11.8172
2DVW A A 33;2DVW A L 62;10.0286
2DVW A A 33;2DVW A V 64;16.4459
2DVW A T 34;2DVW A R 35;21.5307
2DVW A T 34;2DVW A T 36;10.4113
2DVW A T 34;2DVW A T 42;16.7324
2DVW A T 34;2DVW A V 64;13.1131
2DVW A T 34;2DVW A P 65;17.0368
2DVW A R 35;2DVW A T 36;29.0722
2DVW A R 35;2DVW A D 37;0.237526
2DVW A R 35;2DVW A R 41;1.31016
2DVW A R 35;2DVW A T 42;11.1121
2DVW A R 35;2DVW A A 43;1.12712
2DVW A T 36;2DVW A D 37;26.3605
2DVW A T 36;2DVW A S 40;16.5787
2DVW A T 36;2DVW A R 41;5.89164
2DVW A T 36;2DVW A T 42;12.3142
2DVW A D 37;2DVW A Q 38;24.127
2DVW A D 37;2DVW A D 39;14.6846
2DVW A D 37;2DVW A S 40;11.1598
2DVW A D 37;2DVW A R 41;21.058
2DVW A D 37;2DVW A W 46;9.96852
2DVW A Q 38;2DVW A D 39;26.5449
2DVW A Q 38;2DVW A S 40;3.31534
2DVW A Q 38;2DVW A D 71;5.29462
2DVW A D 39;2DVW A S 40;17.0334
2DVW A D 39;2DVW A R 41;15.4693
2DVW A D 39;2DVW A W 46;7.47459
2DVW A D 39;2DVW A D 70;6.99507
2DVW A D 39;2DVW A D 71;19.4297
2DVW A S 40;2DVW A R 41;17.747
2DVW A S 40;2DVW A T 42;2.0906
2DVW A S 40;2DVW A H 45;6.20204
2DVW A S 40;2DVW A D 68;0.0650434
2DVW A S 40;2DVW A K 69;9.50469
2DVW A S 40;2DVW A D 70;11.6408
2DVW A S 40;2DVW A D 71;17.0795
2DVW A R 41;2DVW A T 42;20.468
2DVW A R 41;2DVW A H 45;22.1634
2DVW A R 41;2DVW A W 46;32.1092
2DVW A R 41;2DVW A S 49;5.70422
2DVW A R 41;2DVW A D 70;25.636
2DVW A R 41;2DVW A W 74;4.15238
2DVW A R 41;2DVW A I 79;14.352
2DVW A T 42;2DVW A A 43;20.3476
2DVW A T 42;2DVW A L 44;15.4107
2DVW A T 42;2DVW A H 45;25.419
2DVW A T 42;2DVW A W 46;9.67445
2DVW A T 42;2DVW A D 68;6.61857
2DVW A A 43;2DVW A L 44;16.4487
2DVW A A 43;2DVW A H 45;0.452022
2DVW A A 43;2DVW A W 46;6.14288
2DVW A A 43;2DVW A A 47;9.09943
2DVW A A 43;2DVW A I 55;0.398112
2DVW A A 43;2DVW A L 59;14.6727
2DVW A L 44;2DVW A H 45;21.0924
2DVW A L 44;2DVW A W 46;1.06413
2DVW A L 44;2DVW A A 47;7.56772
2DVW A L 44;2DVW A C 48;18.6524
2DVW A L 44;2DVW A V 56;14.0247
2DVW A L 44;2DVW A L 59;19.5154
2DVW A L 44;2DVW A L 60;9.34281
2DVW A L 44;2DVW A V 64;13.2734
2DVW A L 44;2DVW A P 65;8.99906
2DVW A L 44;2DVW A V 66;8.49293
2DVW A L 44;2DVW A P 76;18.7503
2DVW A L 44;2DVW A L 92;7.70483
2DVW A H 45;2DVW A W 46;18.3201
2DVW A H 45;2DVW A A 47;0.557696
2DVW A H 45;2DVW A C 48;7.36078
2DVW A H 45;2DVW A S 49;7.23987
2DVW A H 45;2DVW A D 68;17.5874
2DVW A H 45;2DVW A K 69;3.26473
2DVW A H 45;2DVW A D 70;9.17876
2DVW A H 45;2DVW A W 74;5.67774
2DVW A H 45;2DVW A S 75;1.71934
2DVW A H 45;2DVW A P 76;19.6303
2DVW A H 45;2DVW A I 79;22.078
2DVW A W 46;2DVW A A 47;17.1234
2DVW A W 46;2DVW A C 48;1.09965
2DVW A W 46;2DVW A S 49;13.539
2DVW A W 46;2DVW A A 50;6.41521
2DVW A A 47;2DVW A C 48;16.0866
2DVW A A 47;2DVW A S 49;0.673251
2DVW A A 47;2DVW A A 50;4.74063
2DVW A A 47;2DVW A G 51;5.06304
2DVW A A 47;2DVW A H 52;15.518
2DVW A A 47;2DVW A I 55;11.8879
2DVW A A 47;2DVW A V 56;13.5908
2DVW A A 47;2DVW A L 59;3.57017
2DVW A A 47;2DVW A I 88;2.06137
2DVW A C 48;2DVW A S 49;16.8986
2DVW A C 48;2DVW A A 50;0.835788
2DVW A C 48;2DVW A G 51;4.86483
2DVW A C 48;2DVW A V 56;9.45787
2DVW A C 48;2DVW A P 76;12.2412
2DVW A C 48;2DVW A I 79;9.0655
2DVW A C 48;2DVW A A 80;12.1322
2DVW A C 48;2DVW A A 83;2.14789
2DVW A C 48;2DVW A R 85;8.80216
2DVW A C 48;2DVW A I 88;14.7426
2DVW A C 48;2DVW A L 92;6.87413
2DVW A S 49;2DVW A A 50;16.7718
2DVW A S 49;2DVW A G 51;1.41611
2DVW A S 49;2DVW A I 79;12.5166
2DVW A S 49;2DVW A A 83;7.2344
2DVW A S 49;2DVW A R 85;8.53064
2DVW A A 50;2DVW A G 51;20.2022
2DVW A A 50;2DVW A H 52;21.8326
2DVW A A 50;2DVW A R 85;15.4031
2DVW A G 51;2DVW A H 52;20.5167
2DVW A G 51;2DVW A T 53;11.9757
2DVW A G 51;2DVW A R 85;17.0776
2DVW A G 51;2DVW A I 88;10.8082
2DVW A H 52;2DVW A T 53;17.5163
2DVW A H 52;2DVW A E 54;4.50006
2DVW A H 52;2DVW A I 55;22.1415
2DVW A H 52;2DVW A V 56;8.64994
2DVW A H 52;2DVW A I 88;3.04342
2DVW A T 53;2DVW A E 54;24.5625
2DVW A T 53;2DVW A I 55;0.64469
2DVW A T 53;2DVW A V 56;10.2875
2DVW A T 53;2DVW A E 57;27.8243
2DVW A T 53;2DVW A E 87;25.0865
2DVW A T 53;2DVW A I 88;22.008
2DVW A T 53;2DVW A A 91;2.64569
2DVW A E 54;2DVW A I 55;20.4151
2DVW A E 54;2DVW A V 56;0.831323
2DVW A E 54;2DVW A E 57;22.2668
2DVW A E 54;2DVW A F 58;10.6076
2DVW A I 55;2DVW A V 56;16.6633
2DVW A I 55;2DVW A E 57;0.756068
2DVW A I 55;2DVW A F 58;10.1688
2DVW A I 55;2DVW A L 59;18.7502
2DVW A V 56;2DVW A E 57;18.3738
2DVW A V 56;2DVW A F 58;0.806544
2DVW A V 56;2DVW A L 59;11.0469
2DVW A V 56;2DVW A L 60;20.6821
2DVW A V 56;2DVW A I 88;21.5512
2DVW A V 56;2DVW A A 91;4.93818
2DVW A V 56;2DVW A L 92;5.49076
2DVW A E 57;2DVW A F 58;17.9824
2DVW A E 57;2DVW A L 59;0.73697
2DVW A E 57;2DVW A L 60;14.0405
2DVW A E 57;2DVW A Q 61;14.6393
2DVW A E 57;2DVW A A 91;11.1973
2DVW A F 58;2DVW A L 59;24.5938
2DVW A F 58;2DVW A L 60;0.657461
2DVW A F 58;2DVW A Q 61;34.0778
2DVW A F 58;2DVW A L 62;21.9006
2DVW A L 59;2DVW A L 60;17.2644
2DVW A L 59;2DVW A Q 61;0.711269
2DVW A L 59;2DVW A L 62;15.0518
2DVW A L 59;2DVW A G 63;2.68776
2DVW A L 59;2DVW A V 64;25.7867
2DVW A L 60;2DVW A Q 61;20.3801
2DVW A L 60;2DVW A L 62;1.26196
2DVW A L 60;2DVW A G 63;11.5329
2DVW A L 60;2DVW A V 64;11.6787
2DVW A L 60;2DVW A V 66;11.0929
2DVW A L 60;2DVW A A 91;18.3045
2DVW A L 60;2DVW A L 92;13.3081
2DVW A L 60;2DVW A K 95;35.908
2DVW A Q 61;2DVW A L 62;30.3708
2DVW A Q 61;2DVW A G 63;5.24986
2DVW A Q 61;2DVW A K 95;5.83455
2DVW A L 62;2DVW A G 63;23.1109
2DVW A L 62;2DVW A V 64;10.9732
2DVW A G 63;2DVW A V 64;29.7007
2DVW A G 63;2DVW A P 65;5.80233
2DVW A G 63;2DVW A K 95;4.70936
2DVW A V 64;2DVW A P 65;34.9368
2DVW A V 64;2DVW A V 66;11.1488
2DVW A V 64;2DVW A K 95;0.495494
2DVW A P 65;2DVW A V 66;24.5259
2DVW A P 65;2DVW A N 67;3.26553
2DVW A P 65;2DVW A D 68;28.6544
2DVW A P 65;2DVW A P 76;0.424624
2DVW A V 66;2DVW A N 67;35.9117
2DVW A V 66;2DVW A D 68;1.3351
2DVW A V 66;2DVW A S 75;0.85036
2DVW A V 66;2DVW A P 76;15.2863
2DVW A V 66;2DVW A L 77;1.92764
2DVW A V 66;2DVW A L 92;13.5862
2DVW A V 66;2DVW A K 95;25.3668
2DVW A V 66;2DVW A G 96;3.74563
2DVW A V 66;2DVW A A 97;15.5976
2DVW A N 67;2DVW A D 68;27.4889
2DVW A N 67;2DVW A K 69;11.8623
2DVW A N 67;2DVW A S 75;14.1592
2DVW A N 67;2DVW A P 76;3.19021
2DVW A N 67;2DVW A L 77;0.947734
2DVW A N 67;2DVW A G 96;8.00104
2DVW A N 67;2DVW A A 97;7.94705
2DVW A N 67;2DVW A H 98;37.9548
2DVW A N 67;2DVW A A 101;1.68042
2DVW A D 68;2DVW A K 69;25.9167
2DVW A D 68;2DVW A W 74;0.0933606
2DVW A D 68;2DVW A S 75;3.39383
2DVW A D 68;2DVW A P 76;9.98291
2DVW A K 69;2DVW A D 70;25.4489
2DVW A K 69;2DVW A G 73;22.2904
2DVW A K 69;2DVW A W 74;4.64508
2DVW A K 69;2DVW A S 75;12.4238
2DVW A K 69;2DVW A H 78;1.0328
2DVW A K 69;2DVW A A 101;12.4048
2DVW A K 69;2DVW A V 102;25.6205
2DVW A D 70;2DVW A D 71;23.2381
2DVW A D 70;2DVW A A 72;13.7257
2DVW A D 70;2DVW A G 73;10.8384
2DVW A D 70;2DVW A W 74;25.4181
2DVW A D 70;2DVW A I 79;2.53073
2DVW A D 71;2DVW A A 72;25.7517
2DVW A D 71;2DVW A G 73;4.31758
2DVW A D 71;2DVW A Q 104;5.73435
2DVW A A 72;2DVW A G 73;16.1332
2DVW A A 72;2DVW A W 74;17.4372
2DVW A A 72;2DVW A N 103;3.06091
2DVW A A 72;2DVW A Q 104;31.5962
2DVW A G 73;2DVW A W 74;15.3806
2DVW A G 73;2DVW A S 75;2.3368
2DVW A G 73;2DVW A H 78;4.10558
2DVW A G 73;2DVW A V 102;2.85826
2DVW A G 73;2DVW A N 103;13.7377
2DVW A G 73;2DVW A Q 104;5.23001
2DVW A W 74;2DVW A S 75;18.0375
2DVW A W 74;2DVW A H 78;20.8853
2DVW A W 74;2DVW A I 79;19.2464
2DVW A W 74;2DVW A S 82;6.56784
2DVW A W 74;2DVW A N 103;18.956
2DVW A W 74;2DVW A Q 104;3.08251
2DVW A W 74;2DVW A N 105;3.87405
2DVW A W 74;2DVW A Y 112;23.1071
2DVW A S 75;2DVW A P 76;21.6379
2DVW A S 75;2DVW A L 77;11.9433
2DVW A S 75;2DVW A H 78;25.3923
2DVW A S 75;2DVW A I 79;8.52455
2DVW A S 75;2DVW A H 98;1.41355
2DVW A S 75;2DVW A A 101;11.0777
2DVW A S 75;2DVW A P 109;1.93128
2DVW A P 76;2DVW A L 77;17.8331
2DVW A P 76;2DVW A H 78;0.767223
2DVW A P 76;2DVW A I 79;11.2108
2DVW A P 76;2DVW A A 80;7.71817
2DVW A P 76;2DVW A L 92;13.1505
2DVW A L 77;2DVW A H 78;15.9545
2DVW A L 77;2DVW A I 79;0.807065
2DVW A L 77;2DVW A A 80;5.97008
2DVW A L 77;2DVW A A 81;13.4454
2DVW A L 77;2DVW A V 89;15.6484
2DVW A L 77;2DVW A L 92;16.8539
2DVW A L 77;2DVW A L 93;12.5635
2DVW A L 77;2DVW A A 97;18.7137
2DVW A L 77;2DVW A H 98;10.3706
2DVW A L 77;2DVW A V 99;8.44159
2DVW A L 77;2DVW A P 109;16.8941
2DVW A L 77;2DVW A L 125;12.4098
2DVW A H 78;2DVW A I 79;16.7993
2DVW A H 78;2DVW A A 80;0.560107
2DVW A H 78;2DVW A A 81;5.2311
2DVW A H 78;2DVW A S 82;9.95814
2DVW A H 78;2DVW A A 101;13.0937
2DVW A H 78;2DVW A V 102;6.02474
2DVW A H 78;2DVW A N 103;11.7564
2DVW A H 78;2DVW A C 107;6.27671
2DVW A H 78;2DVW A T 108;5.04201
2DVW A H 78;2DVW A P 109;22.5098
2DVW A H 78;2DVW A Y 112;14.5563
2DVW A I 79;2DVW A A 80;17.8255
2DVW A I 79;2DVW A A 81;0.763657
2DVW A I 79;2DVW A S 82;4.09512
2DVW A I 79;2DVW A A 83;10.8525
2DVW A A 80;2DVW A A 81;16.6085
2DVW A A 80;2DVW A S 82;0.849969
2DVW A A 80;2DVW A A 83;4.99878
2DVW A A 80;2DVW A G 84;3.35976
2DVW A A 80;2DVW A R 85;17.9383
2DVW A A 80;2DVW A I 88;8.48054
2DVW A A 80;2DVW A V 89;12.4687
2DVW A A 80;2DVW A L 92;6.63757
2DVW A A 80;2DVW A I 121;1.52506
2DVW A A 81;2DVW A S 82;19.4885
2DVW A A 81;2DVW A A 83;0.540341
2DVW A A 81;2DVW A G 84;5.16357
2DVW A A 81;2DVW A V 89;9.52187
2DVW A A 81;2DVW A P 109;12.5851
2DVW A A 81;2DVW A Y 112;1.32662
2DVW A A 81;2DVW A A 113;8.185
2DVW A A 81;2DVW A R 118;7.35785
2DVW A A 81;2DVW A I 121;16.5788
2DVW A A 81;2DVW A L 125;6.58438
2DVW A S 82;2DVW A A 83;14.327
2DVW A S 82;2DVW A G 84;3.02874
2DVW A S 82;2DVW A Y 112;20.2341
2DVW A S 82;2DVW A A 113;0.965023
2DVW A S 82;2DVW A K 116;19.9361
2DVW A S 82;2DVW A R 118;10.6029
2DVW A A 83;2DVW A G 84;17.5279
2DVW A A 83;2DVW A R 85;24.1694
2DVW A A 83;2DVW A R 118;8.90366
2DVW A G 84;2DVW A R 85;20.4208
2DVW A G 84;2DVW A D 86;13.4115
2DVW A G 84;2DVW A R 118;19.8062
2DVW A G 84;2DVW A I 121;10.3759
2DVW A R 85;2DVW A D 86;18.2539
2DVW A R 85;2DVW A E 87;1.94776
2DVW A R 85;2DVW A I 88;21.6104
2DVW A R 85;2DVW A V 89;10.2698
2DVW A R 85;2DVW A I 121;4.93577
2DVW A D 86;2DVW A E 87;33.3184
2DVW A D 86;2DVW A I 88;1.11481
2DVW A D 86;2DVW A V 89;7.68504
2DVW A D 86;2DVW A K 90;10.0229
2DVW A D 86;2DVW A E 120;27.5974
2DVW A D 86;2DVW A I 121;18.8499
2DVW A D 86;2DVW A M 124;14.0599
2DVW A E 87;2DVW A I 88;19.864
2DVW A E 87;2DVW A V 89;0.620211
2DVW A E 87;2DVW A K 90;29.1375
2DVW A E 87;2DVW A A 91;11.2652
2DVW A E 87;2DVW A E 120;1.77122
2DVW A I 88;2DVW A V 89;16.3476
2DVW A I 88;2DVW A K 90;0.917158
2DVW A I 88;2DVW A A 91;10.7844
2DVW A I 88;2DVW A L 92;17.65
2DVW A V 89;2DVW A K 90;16.8263
2DVW A V 89;2DVW A A 91;0.508405
2DVW A V 89;2DVW A L 92;9.21071
2DVW A V 89;2DVW A L 93;17.8245
2DVW A V 89;2DVW A I 121;18.2452
2DVW A V 89;2DVW A M 124;12.7933
2DVW A V 89;2DVW A L 125;6.6535
2DVW A K 90;2DVW A A 91;21.1062
2DVW A K 90;2DVW A L 92;1.12458
2DVW A K 90;2DVW A L 93;14.5773
2DVW A K 90;2DVW A V 94;21.1109
2DVW A K 90;2DVW A E 120;5.23891
2DVW A K 90;2DVW A M 124;24.032
2DVW A A 91;2DVW A L 92;16.4181
2DVW A A 91;2DVW A L 93;0.821789
2DVW A A 91;2DVW A V 94;13.7527
2DVW A A 91;2DVW A K 95;9.55307
2DVW A L 92;2DVW A L 93;16.0837
2DVW A L 92;2DVW A V 94;0.616936
2DVW A L 92;2DVW A K 95;10.512
2DVW A L 92;2DVW A G 96;2.12477
2DVW A L 92;2DVW A A 97;19.2058
2DVW A L 93;2DVW A V 94;24.276
2DVW A L 93;2DVW A K 95;1.43766
2DVW A L 93;2DVW A G 96;10.689
2DVW A L 93;2DVW A A 97;15.1629
2DVW A L 93;2DVW A V 99;13.1409
2DVW A L 93;2DVW A M 124;20.7262
2DVW A L 93;2DVW A L 125;9.95423
2DVW A L 93;2DVW A G 128;7.31879
2DVW A V 94;2DVW A K 95;30.9826
2DVW A V 94;2DVW A G 96;5.25048
2DVW A K 95;2DVW A G 96;21.5355
2DVW A K 95;2DVW A A 97;0.646079
2DVW A G 96;2DVW A A 97;24.0615
2DVW A G 96;2DVW A H 98;9.71654
2DVW A A 97;2DVW A H 98;18.8668
2DVW A A 97;2DVW A V 99;8.50411
2DVW A H 98;2DVW A V 99;20.0802
2DVW A H 98;2DVW A N 100;4.1925
2DVW A H 98;2DVW A A 101;26.497
2DVW A H 98;2DVW A P 109;3.92607
2DVW A V 99;2DVW A N 100;33.9215
2DVW A V 99;2DVW A A 101;1.75531
2DVW A V 99;2DVW A T 108;4.4112
2DVW A V 99;2DVW A P 109;10.7132
2DVW A V 99;2DVW A L 110;1.7304
2DVW A V 99;2DVW A L 125;17.7369
2DVW A V 99;2DVW A G 128;18.9296
2DVW A V 99;2DVW A G 129;7.99648
2DVW A V 99;2DVW A A 130;15.4953
2DVW A N 100;2DVW A A 101;24.0081
2DVW A N 100;2DVW A V 102;9.26012
2DVW A N 100;2DVW A T 108;19.8524
2DVW A N 100;2DVW A P 109;0.130133
2DVW A N 100;2DVW A G 129;9.07124
2DVW A N 100;2DVW A A 130;7.4523
2DVW A N 100;2DVW A N 131;23.899
2DVW A N 100;2DVW A A 134;2.42167
2DVW A A 101;2DVW A V 102;20.8515
2DVW A A 101;2DVW A C 107;0.708563
2DVW A A 101;2DVW A T 108;6.98811
2DVW A A 101;2DVW A P 109;8.96392
2DVW A V 102;2DVW A N 103;27.438
2DVW A V 102;2DVW A G 106;20.2477
2DVW A V 102;2DVW A C 107;6.84031
2DVW A V 102;2DVW A T 108;9.97839
2DVW A V 102;2DVW A A 134;0.0289156
2DVW A V 102;2DVW A K 135;1.04357
2DVW A V 102;2DVW A H 137;3.22303
2DVW A N 103;2DVW A Q 104;22.5703
2DVW A N 103;2DVW A N 105;15.6243
2DVW A N 103;2DVW A G 106;8.7453
2DVW A N 103;2DVW A C 107;15.825
2DVW A N 103;2DVW A Y 112;11.185
2DVW A N 103;2DVW A H 137;3.39138
2DVW A Q 104;2DVW A N 105;28.0613
2DVW A Q 104;2DVW A G 106;0.754791
2DVW A Q 104;2DVW A H 137;15.1026
2DVW A N 105;2DVW A G 106;13.615
2DVW A N 105;2DVW A C 107;14.1821
2DVW A N 105;2DVW A Y 112;6.39674
2DVW A N 105;2DVW A D 136;8.72538
2DVW A N 105;2DVW A H 137;17.7656
2DVW A N 105;2DVW A Y 138;7.94223
2DVW A N 105;2DVW A R 145;1.54559
2DVW A G 106;2DVW A C 107;16.986
2DVW A G 106;2DVW A T 108;3.25592
2DVW A G 106;2DVW A H 111;3.55344
2DVW A G 106;2DVW A A 134;0.633672
2DVW A G 106;2DVW A K 135;9.06765
2DVW A G 106;2DVW A D 136;10.3292
2DVW A G 106;2DVW A H 137;17.409
2DVW A C 107;2DVW A T 108;18.4348
2DVW A C 107;2DVW A H 111;19.1376
2DVW A C 107;2DVW A Y 112;14.8907
2DVW A C 107;2DVW A D 136;11.7428
2DVW A C 107;2DVW A R 145;8.66793
2DVW A T 108;2DVW A P 109;20.0052
2DVW A T 108;2DVW A L 110;15.6735
2DVW A T 108;2DVW A H 111;24.0699
2DVW A T 108;2DVW A Y 112;6.79287
2DVW A T 108;2DVW A A 130;0.115983
2DVW A T 108;2DVW A N 131;1.44003
2DVW A T 108;2DVW A A 134;20.0274
2DVW A P 109;2DVW A L 110;16.8684
2DVW A P 109;2DVW A H 111;1.28276
2DVW A P 109;2DVW A Y 112;11.3274
2DVW A P 109;2DVW A A 113;7.02896
2DVW A P 109;2DVW A L 125;13.4275
2DVW A L 110;2DVW A H 111;17.4604
2DVW A L 110;2DVW A Y 112;1.06853
2DVW A L 110;2DVW A A 113;9.84925
2DVW A L 110;2DVW A A 114;13.0178
2DVW A L 110;2DVW A A 122;12.2275
2DVW A L 110;2DVW A L 125;17.869
2DVW A L 110;2DVW A L 126;16.0779
2DVW A L 110;2DVW A A 130;14.5651
2DVW A L 110;2DVW A N 131;9.26473
2DVW A L 110;2DVW A P 132;9.83135
2DVW A L 110;2DVW A A 134;0.0160186
2DVW A L 110;2DVW A A 142;15.7636
2DVW A L 110;2DVW A M 154;0.426125
2DVW A L 110;2DVW A L 158;12.4007
2DVW A H 111;2DVW A Y 112;22.3181
2DVW A H 111;2DVW A A 113;0.248986
2DVW A H 111;2DVW A A 114;4.84022
2DVW A H 111;2DVW A S 115;9.20636
2DVW A H 111;2DVW A A 134;15.1693
2DVW A H 111;2DVW A K 135;3.07803
2DVW A H 111;2DVW A D 136;9.80702
2DVW A H 111;2DVW A A 140;7.44266
2DVW A H 111;2DVW A T 141;8.01774
2DVW A H 111;2DVW A A 142;18.2
2DVW A H 111;2DVW A R 145;23.0637
2DVW A Y 112;2DVW A A 113;18.9012
2DVW A Y 112;2DVW A A 114;1.46812
2DVW A Y 112;2DVW A S 115;6.86058
2DVW A Y 112;2DVW A K 116;14.955
2DVW A Y 112;2DVW A R 118;1.34944
2DVW A Y 112;2DVW A R 145;2.00227
2DVW A A 113;2DVW A A 114;17.5649
2DVW A A 113;2DVW A S 115;0.279564
2DVW A A 113;2DVW A K 116;3.02576
2DVW A A 113;2DVW A N 117;3.12274
2DVW A A 113;2DVW A R 118;21.6196
2DVW A A 113;2DVW A I 121;7.82752
2DVW A A 113;2DVW A A 122;9.13342
2DVW A A 113;2DVW A L 125;5.69341
2DVW A A 113;2DVW A M 154;4.91869
2DVW A A 114;2DVW A S 115;18.226
2DVW A A 114;2DVW A K 116;1.53757
2DVW A A 114;2DVW A N 117;4.89764
2DVW A A 114;2DVW A A 122;0.769232
2DVW A A 114;2DVW A A 142;13.4514
2DVW A A 114;2DVW A R 145;1.01256
2DVW A A 114;2DVW A A 146;9.12493
2DVW A A 114;2DVW A N 151;7.16174
2DVW A A 114;2DVW A M 154;21.8266
2DVW A A 114;2DVW A L 158;7.22847
2DVW A S 115;2DVW A K 116;21.2172
2DVW A S 115;2DVW A N 117;2.01319
2DVW A S 115;2DVW A R 145;18.3296
2DVW A S 115;2DVW A A 146;1.82463
2DVW A S 115;2DVW A K 149;24.5428
2DVW A S 115;2DVW A N 151;9.38053
2DVW A K 116;2DVW A N 117;25.654
2DVW A K 116;2DVW A R 118;34.7069
2DVW A K 116;2DVW A K 149;8.55323
2DVW A N 117;2DVW A R 118;18.8723
2DVW A N 117;2DVW A H 119;33.7545
2DVW A N 117;2DVW A N 151;32.8355
2DVW A N 117;2DVW A K 153;0.028554
2DVW A N 117;2DVW A M 154;11.0084
2DVW A R 118;2DVW A H 119;16.7792
2DVW A R 118;2DVW A E 120;1.70948
2DVW A R 118;2DVW A I 121;20.0589
2DVW A R 118;2DVW A A 122;7.26646
2DVW A R 118;2DVW A M 154;6.37428
2DVW A H 119;2DVW A E 120;26.6075
2DVW A H 119;2DVW A I 121;1.08685
2DVW A H 119;2DVW A A 122;8.19542
2DVW A H 119;2DVW A V 123;10.2483
2DVW A H 119;2DVW A K 153;26.0889
2DVW A H 119;2DVW A M 154;21.5786
2DVW A H 119;2DVW A I 157;20.3293
2DVW A E 120;2DVW A I 121;19.1472
2DVW A E 120;2DVW A A 122;0.669202
2DVW A E 120;2DVW A V 123;15.3488
2DVW A E 120;2DVW A M 124;26.1075
2DVW A I 121;2DVW A A 122;15.88
2DVW A I 121;2DVW A V 123;0.977427
2DVW A I 121;2DVW A M 124;18.377
2DVW A I 121;2DVW A L 125;18.0063
2DVW A A 122;2DVW A V 123;16.5271
2DVW A A 122;2DVW A M 124;0.636744
2DVW A A 122;2DVW A L 125;9.01975
2DVW A A 122;2DVW A L 126;16.5139
2DVW A A 122;2DVW A M 154;14.4456
2DVW A A 122;2DVW A I 157;6.99082
2DVW A A 122;2DVW A L 158;0.772548
2DVW A V 123;2DVW A M 124;20.6554
2DVW A V 123;2DVW A L 125;0.879913
2DVW A V 123;2DVW A L 126;8.28523
2DVW A V 123;2DVW A E 127;20.2334
2DVW A V 123;2DVW A I 157;21.0918
2DVW A V 123;2DVW A Y 161;20.8356
2DVW A M 124;2DVW A L 125;17.5073
2DVW A M 124;2DVW A L 126;0.624307
2DVW A M 124;2DVW A E 127;11.6003
2DVW A M 124;2DVW A G 128;9.85182
2DVW A L 125;2DVW A L 126;15.6108
2DVW A L 125;2DVW A E 127;0.46298
2DVW A L 125;2DVW A G 128;7.25006
2DVW A L 125;2DVW A G 129;1.48876
2DVW A L 125;2DVW A A 130;17.405
2DVW A L 126;2DVW A E 127;20.3764
2DVW A L 126;2DVW A G 128;1.76224
2DVW A L 126;2DVW A G 129;9.20328
2DVW A L 126;2DVW A A 130;21.5361
2DVW A L 126;2DVW A P 132;13.1159
2DVW A L 126;2DVW A I 157;10.0641
2DVW A L 126;2DVW A L 158;12.7184
2DVW A L 126;2DVW A Y 161;37.0847
2DVW A E 127;2DVW A G 128;21.7982
2DVW A E 127;2DVW A G 129;5.93411
2DVW A E 127;2DVW A Y 161;27.7812
2DVW A G 128;2DVW A G 129;20.2311
2DVW A G 128;2DVW A A 130;0.751463
2DVW A G 129;2DVW A A 130;22.1158
2DVW A G 129;2DVW A N 131;4.56516
2DVW A A 130;2DVW A N 131;18.3152
2DVW A A 130;2DVW A P 132;10.068
2DVW A N 131;2DVW A P 132;27.6435
2DVW A N 131;2DVW A D 133;17.6784
2DVW A N 131;2DVW A A 134;29.3317
2DVW A P 132;2DVW A D 133;28.1166
2DVW A P 132;2DVW A A 134;4.20559
2DVW A P 132;2DVW A T 141;6.75751
2DVW A P 132;2DVW A A 142;8.06097
2DVW A P 132;2DVW A M 143;1.60809
2DVW A P 132;2DVW A L 158;7.69674
2DVW A P 132;2DVW A Y 161;14.059
2DVW A P 132;2DVW A K 162;5.45686
2DVW A P 132;2DVW A A 163;20.7122
2DVW A D 133;2DVW A A 134;20.4907
2DVW A D 133;2DVW A K 135;11.2127
2DVW A D 133;2DVW A T 141;9.25102
2DVW A D 133;2DVW A K 162;3.06849
2DVW A D 133;2DVW A A 163;6.99037
2DVW A D 133;2DVW A S 164;24.5588
2DVW A D 133;2DVW A I 167;20.156
2DVW A A 134;2DVW A K 135;23.9109
2DVW A A 134;2DVW A A 140;0.591795
2DVW A A 134;2DVW A T 141;8.83924
2DVW A A 134;2DVW A A 142;2.02242
2DVW A K 135;2DVW A D 136;24.8095
2DVW A K 135;2DVW A H 137;0.260717
2DVW A K 135;2DVW A D 139;34.0651
2DVW A K 135;2DVW A A 140;5.32091
2DVW A K 135;2DVW A T 141;6.91169
2DVW A K 135;2DVW A I 167;24.5386
2DVW A K 135;2DVW A Q 168;5.25174
2DVW A D 136;2DVW A H 137;22.6791
2DVW A D 136;2DVW A Y 138;20.0993
2DVW A D 136;2DVW A D 139;13.7518
2DVW A D 136;2DVW A A 140;23.1427
2DVW A D 136;2DVW A R 145;14.3446
2DVW A H 137;2DVW A Y 138;35.6244
2DVW A H 137;2DVW A D 139;4.98953
2DVW A H 137;2DVW A T 170;5.66738
2DVW A Y 138;2DVW A D 139;16.7236
2DVW A Y 138;2DVW A A 140;8.83113
2DVW A Y 138;2DVW A D 169;7.73981
2DVW A Y 138;2DVW A T 170;28.8395
2DVW A D 139;2DVW A A 140;16.909
2DVW A D 139;2DVW A T 141;1.26821
2DVW A D 139;2DVW A H 144;2.61635
2DVW A D 139;2DVW A I 167;5.32684
2DVW A D 139;2DVW A Q 168;12.258
2DVW A D 139;2DVW A D 169;13.3251
2DVW A D 139;2DVW A T 170;15.7598
2DVW A A 140;2DVW A T 141;19.3724
2DVW A A 140;2DVW A H 144;15.8439
2DVW A A 140;2DVW A R 145;11.4731
2DVW A A 140;2DVW A D 169;12.2398
2DVW A T 141;2DVW A A 142;19.1445
2DVW A T 141;2DVW A M 143;13.0343
2DVW A T 141;2DVW A H 144;26.3452
2DVW A T 141;2DVW A R 145;8.86486
2DVW A T 141;2DVW A S 164;3.77158
2DVW A T 141;2DVW A I 167;18.0278
2DVW A T 141;2DVW A P 175;3.17903
2DVW A A 142;2DVW A M 143;17.1514
2DVW A A 142;2DVW A H 144;1.0987
2DVW A A 142;2DVW A R 145;10.5905
2DVW A A 142;2DVW A A 146;6.91054
2DVW A A 142;2DVW A L 158;12.9834
2DVW A M 143;2DVW A H 144;15.2884
2DVW A M 143;2DVW A R 145;0.806546
2DVW A M 143;2DVW A A 146;7.09842
2DVW A M 143;2DVW A A 147;12.594
2DVW A M 143;2DVW A V 155;9.61528
2DVW A M 143;2DVW A L 158;19.551
2DVW A M 143;2DVW A L 159;13.7093
2DVW A M 143;2DVW A A 163;18.2747
2DVW A M 143;2DVW A S 164;10.8204
2DVW A M 143;2DVW A T 165;12.7499
2DVW A M 143;2DVW A P 175;20.7511
2DVW A M 143;2DVW A L 191;10.5185
2DVW A H 144;2DVW A R 145;21.6448
2DVW A H 144;2DVW A A 146;0.6206
2DVW A H 144;2DVW A A 147;4.53228
2DVW A H 144;2DVW A A 148;9.36467
2DVW A H 144;2DVW A I 167;12.6503
2DVW A H 144;2DVW A Q 168;0.903794
2DVW A H 144;2DVW A D 169;13.13
2DVW A H 144;2DVW A N 173;7.32723
2DVW A H 144;2DVW A T 174;5.57703
2DVW A H 144;2DVW A P 175;21.8571
2DVW A H 144;2DVW A L 178;22.9584
2DVW A R 145;2DVW A A 146;18.7772
2DVW A R 145;2DVW A A 147;0.879615
2DVW A R 145;2DVW A A 148;6.46927
2DVW A R 145;2DVW A K 149;15.6924
2DVW A R 145;2DVW A N 151;0.144389
2DVW A A 146;2DVW A A 147;17.6026
2DVW A A 146;2DVW A A 148;0.632007
2DVW A A 146;2DVW A K 149;4.52342
2DVW A A 146;2DVW A G 150;4.0062
2DVW A A 146;2DVW A N 151;21.2593
2DVW A A 146;2DVW A M 154;9.13647
2DVW A A 146;2DVW A V 155;12.8148
2DVW A A 146;2DVW A L 158;6.37484
2DVW A A 146;2DVW A E 187;0.799009
2DVW A A 147;2DVW A A 148;18.5075
2DVW A A 147;2DVW A K 149;1.15313
2DVW A A 147;2DVW A G 150;4.69806
2DVW A A 147;2DVW A V 155;11.1739
2DVW A A 147;2DVW A P 175;12.2892
2DVW A A 147;2DVW A L 178;1.99176
2DVW A A 147;2DVW A A 179;12.5355
2DVW A A 147;2DVW A R 184;7.55263
2DVW A A 147;2DVW A E 187;9.87046
2DVW A A 147;2DVW A L 191;8.51056
2DVW A A 148;2DVW A K 149;17.097
2DVW A A 148;2DVW A G 150;1.40617
2DVW A A 148;2DVW A L 178;19.1521
2DVW A A 148;2DVW A A 179;1.09053
2DVW A A 148;2DVW A E 182;16.7415
2DVW A A 148;2DVW A R 184;9.57723
2DVW A K 149;2DVW A G 150;20.4456
2DVW A K 149;2DVW A N 151;20.3312
2DVW A K 149;2DVW A R 184;15.6831
2DVW A G 150;2DVW A N 151;21.7649
2DVW A G 150;2DVW A L 152;6.32017
2DVW A G 150;2DVW A R 184;16.1809
2DVW A G 150;2DVW A E 187;18.1899
2DVW A N 151;2DVW A L 152;18.0229
2DVW A N 151;2DVW A K 153;2.39641
2DVW A N 151;2DVW A M 154;13.5647
2DVW A N 151;2DVW A V 155;9.96433
2DVW A N 151;2DVW A E 187;2.42339
2DVW A L 152;2DVW A K 153;26.9974
2DVW A L 152;2DVW A M 154;1.04812
2DVW A L 152;2DVW A V 155;14.4461
2DVW A L 152;2DVW A H 156;30.6199
2DVW A L 152;2DVW A E 186;24.9769
2DVW A L 152;2DVW A E 187;27.0958
2DVW A L 152;2DVW A F 190;7.48902
2DVW A K 153;2DVW A M 154;16.9685
2DVW A K 153;2DVW A V 155;0.779063
2DVW A K 153;2DVW A H 156;24.5825
2DVW A K 153;2DVW A I 157;14.7089
2DVW A M 154;2DVW A V 155;16.0234
2DVW A M 154;2DVW A H 156;1.07039
2DVW A M 154;2DVW A I 157;18.5811
2DVW A M 154;2DVW A L 158;21.0326
2DVW A V 155;2DVW A H 156;16.6834
2DVW A V 155;2DVW A I 157;0.472874
2DVW A V 155;2DVW A L 158;9.21252
2DVW A V 155;2DVW A L 159;16.5471
2DVW A V 155;2DVW A E 187;13.8815
2DVW A V 155;2DVW A F 190;13.7295
2DVW A V 155;2DVW A L 191;12.7157
2DVW A H 156;2DVW A I 157;19.3527
2DVW A H 156;2DVW A L 158;1.25392
2DVW A H 156;2DVW A L 159;5.86749
2DVW A H 156;2DVW A F 160;30.2913
2DVW A H 156;2DVW A F 190;30.5435
2DVW A I 157;2DVW A L 158;19.9994
2DVW A I 157;2DVW A L 159;0.380011
2DVW A I 157;2DVW A F 160;14.5288
2DVW A I 157;2DVW A Y 161;20.3411
2DVW A L 158;2DVW A L 159;18.5091
2DVW A L 158;2DVW A F 160;1.10234
2DVW A L 158;2DVW A Y 161;10.2601
2DVW A L 158;2DVW A K 162;1.31272
2DVW A L 158;2DVW A A 163;20.6272
2DVW A L 159;2DVW A F 160;22.4951
2DVW A L 159;2DVW A Y 161;1.56948
2DVW A L 159;2DVW A K 162;25.3588
2DVW A L 159;2DVW A A 163;13.1262
2DVW A L 159;2DVW A T 165;14.3115
2DVW A L 159;2DVW A F 190;12.9417
2DVW A L 159;2DVW A L 191;8.41795
2DVW A L 159;2DVW A Q 194;25.6895
2DVW A F 160;2DVW A Y 161;28.8138
2DVW A F 160;2DVW A K 162;11.9158
2DVW A F 160;2DVW A F 190;16.2856
2DVW A F 160;2DVW A Q 194;12.1918
2DVW A Y 161;2DVW A K 162;25.2536
2DVW A Y 161;2DVW A A 163;2.75525
2DVW A K 162;2DVW A A 163;25.2638
2DVW A K 162;2DVW A S 164;6.51462
2DVW A K 162;2DVW A Q 194;8.94583
2DVW A A 163;2DVW A S 164;21.4015
2DVW A A 163;2DVW A T 165;4.49216
2DVW A S 164;2DVW A T 165;22.393
2DVW A S 164;2DVW A N 166;6.47962
2DVW A S 164;2DVW A I 167;22.7378
2DVW A S 164;2DVW A P 175;2.71907
2DVW A T 165;2DVW A N 166;34.2415
2DVW A T 165;2DVW A I 167;2.08546
2DVW A T 165;2DVW A T 174;6.02783
2DVW A T 165;2DVW A P 175;12.559
2DVW A T 165;2DVW A L 176;1.84896
2DVW A T 165;2DVW A L 191;11.5179
2DVW A T 165;2DVW A Q 194;6.28342
2DVW A T 165;2DVW A G 195;3.20561
2DVW A T 165;2DVW A A 196;21.2553
2DVW A N 166;2DVW A I 167;25.6309
2DVW A N 166;2DVW A Q 168;8.56044
2DVW A N 166;2DVW A T 174;13.2931
2DVW A N 166;2DVW A P 175;0.0159594
2DVW A N 166;2DVW A G 195;6.91617
2DVW A N 166;2DVW A A 196;5.80687
2DVW A N 166;2DVW A S 197;19.5861
2DVW A N 166;2DVW A I 200;21.1199
2DVW A I 167;2DVW A Q 168;26.7783
2DVW A I 167;2DVW A N 173;0.630617
2DVW A I 167;2DVW A T 174;7.11916
2DVW A I 167;2DVW A P 175;7.88258
2DVW A Q 168;2DVW A D 169;22.6698
2DVW A Q 168;2DVW A G 172;23.9689
2DVW A Q 168;2DVW A N 173;6.09854
2DVW A Q 168;2DVW A T 174;8.4011
2DVW A Q 168;2DVW A I 200;19.339
2DVW A Q 168;2DVW A E 201;9.27132
2DVW A Q 168;2DVW A N 202;1.24702
2DVW A D 169;2DVW A T 170;20.871
2DVW A D 169;2DVW A E 171;14.8313
2DVW A D 169;2DVW A G 172;10.5955
2DVW A D 169;2DVW A N 173;23.906
2DVW A D 169;2DVW A L 178;7.08926
2DVW A D 169;2DVW A K 203;2.04475
2DVW A T 170;2DVW A E 171;24.209
2DVW A T 170;2DVW A G 172;1.7953
2DVW A T 170;2DVW A K 203;24.9217
2DVW A E 171;2DVW A G 172;13.0479
2DVW A E 171;2DVW A N 173;22.7097
2DVW A E 171;2DVW A N 202;6.49386
2DVW A E 171;2DVW A K 203;19.4108
2DVW A E 171;2DVW A E 204;6.77163
2DVW A G 172;2DVW A N 173;16.5049
2DVW A G 172;2DVW A T 174;1.42237
2DVW A G 172;2DVW A H 177;3.65159
2DVW A G 172;2DVW A I 200;1.5689
2DVW A G 172;2DVW A E 201;0.30197
2DVW A G 172;2DVW A N 202;13.0525
2DVW A G 172;2DVW A K 203;14.4005
2DVW A N 173;2DVW A T 174;17.8735
2DVW A N 173;2DVW A H 177;18.3653
2DVW A N 173;2DVW A L 178;18.5758
2DVW A N 173;2DVW A N 202;18.4075
2DVW A N 173;2DVW A V 211;1.03764
2DVW A T 174;2DVW A P 175;20.2709
2DVW A T 174;2DVW A L 176;11.251
2DVW A T 174;2DVW A H 177;24.919
2DVW A T 174;2DVW A L 178;7.42662
2DVW A T 174;2DVW A A 196;0.110255
2DVW A T 174;2DVW A S 197;3.26702
2DVW A T 174;2DVW A I 200;16.0838
2DVW A T 174;2DVW A P 208;3.93394
2DVW A P 175;2DVW A L 176;17.3687
2DVW A P 175;2DVW A H 177;0.829974
2DVW A P 175;2DVW A L 178;11.4138
2DVW A P 175;2DVW A A 179;6.89329
2DVW A P 175;2DVW A L 191;9.53419
2DVW A L 176;2DVW A H 177;15.9596
2DVW A L 176;2DVW A L 178;1.20931
2DVW A L 176;2DVW A A 179;9.47627
2DVW A L 176;2DVW A C 180;16.9981
2DVW A L 176;2DVW A A 188;13.0397
2DVW A L 176;2DVW A L 191;17.9109
2DVW A L 176;2DVW A V 192;12.4057
2DVW A L 176;2DVW A A 196;16.1588
2DVW A L 176;2DVW A S 197;8.7527
2DVW A L 176;2DVW A I 198;9.18126
2DVW A L 176;2DVW A P 208;16.1176
2DVW A L 176;2DVW A L 209;0.137602
2DVW A L 176;2DVW A L 220;7.33847
2DVW A H 177;2DVW A L 178;20.0173
2DVW A H 177;2DVW A A 179;0.264009
2DVW A H 177;2DVW A C 180;6.29067
2DVW A H 177;2DVW A D 181;9.17073
2DVW A H 177;2DVW A I 200;12.9255
2DVW A H 177;2DVW A E 201;0.739698
2DVW A H 177;2DVW A N 202;11.9807
2DVW A H 177;2DVW A K 206;5.69835
2DVW A H 177;2DVW A T 207;4.81177
2DVW A H 177;2DVW A P 208;24.496
2DVW A H 177;2DVW A V 211;17.0825
2DVW A L 178;2DVW A A 179;18.0637
2DVW A L 178;2DVW A C 180;1.22356
2DVW A L 178;2DVW A D 181;11.5421
2DVW A L 178;2DVW A E 182;14.1525
2DVW A L 178;2DVW A R 184;0.390159
2DVW A A 179;2DVW A C 180;18.0452
2DVW A A 179;2DVW A D 181;0.453786
2DVW A A 179;2DVW A E 182;3.69981
2DVW A A 179;2DVW A E 183;3.84868
2DVW A A 179;2DVW A R 184;21.2446
2DVW A A 179;2DVW A E 187;6.31806
2DVW A A 179;2DVW A A 188;10.45
2DVW A A 179;2DVW A L 191;5.44181
2DVW A A 179;2DVW A L 216;0.470708
2DVW A C 180;2DVW A D 181;18.3238
2DVW A C 180;2DVW A E 182;1.4718
2DVW A C 180;2DVW A E 183;10.2289
2DVW A C 180;2DVW A A 188;6.49817
2DVW A C 180;2DVW A P 208;15.6877
2DVW A C 180;2DVW A L 209;0.439275
2DVW A C 180;2DVW A V 211;7.22138
2DVW A C 180;2DVW A A 212;18.8551
2DVW A C 180;2DVW A K 213;2.60981
2DVW A C 180;2DVW A L 216;11.8898
2DVW A C 180;2DVW A L 220;12.0565
2DVW A D 181;2DVW A E 182;29.9901
2DVW A D 181;2DVW A E 183;4.04878
2DVW A D 181;2DVW A V 211;28.283
2DVW A E 182;2DVW A E 183;22.0197
2DVW A E 182;2DVW A R 184;22.0697
2DVW A E 183;2DVW A R 184;19.1704
2DVW A E 183;2DVW A V 185;23.0194
2DVW A E 183;2DVW A K 213;31.7842
2DVW A E 183;2DVW A L 216;13.0019
2DVW A R 184;2DVW A V 185;18.295
2DVW A R 184;2DVW A E 186;0.385271
2DVW A R 184;2DVW A E 187;22.7083
2DVW A R 184;2DVW A A 188;9.25233
2DVW A R 184;2DVW A L 216;2.38376
2DVW A V 185;2DVW A E 186;32.4276
2DVW A V 185;2DVW A E 187;3.07293
2DVW A V 185;2DVW A A 188;7.33451
2DVW A V 185;2DVW A K 189;24.1396
2DVW A V 185;2DVW A L 216;24.3029
2DVW A V 185;2DVW A I 219;7.7194
2DVW A E 186;2DVW A E 187;24.0853
2DVW A E 186;2DVW A A 188;0.328833
2DVW A E 186;2DVW A K 189;31.243
2DVW A E 186;2DVW A F 190;12.7757
2DVW A E 187;2DVW A A 188;16.4157
2DVW A E 187;2DVW A K 189;0.917674
2DVW A E 187;2DVW A F 190;7.72761
2DVW A E 187;2DVW A L 191;15.4185
2DVW A A 188;2DVW A K 189;15.6246
2DVW A A 188;2DVW A F 190;0.650335
2DVW A A 188;2DVW A L 191;7.68267
2DVW A A 188;2DVW A V 192;8.24919
2DVW A A 188;2DVW A L 216;8.88196
2DVW A A 188;2DVW A L 220;12.9872
2DVW A K 189;2DVW A F 190;19.8017
2DVW A K 189;2DVW A L 191;0.892477
2DVW A K 189;2DVW A V 192;6.65962
2DVW A K 189;2DVW A T 193;12.574
2DVW A K 189;2DVW A L 216;4.25994
2DVW A K 189;2DVW A I 219;17.573
2DVW A K 189;2DVW A L 220;12.2305
2DVW A K 189;2DVW A L 223;23.6813
2DVW A F 190;2DVW A L 191;20.331
2DVW A F 190;2DVW A V 192;0.677185
2DVW A F 190;2DVW A T 193;15.6922
2DVW A F 190;2DVW A Q 194;30.0984
2DVW A L 191;2DVW A V 192;15.4651
2DVW A L 191;2DVW A T 193;0.554145
2DVW A L 191;2DVW A Q 194;11.261
2DVW A L 191;2DVW A G 195;2.13761
2DVW A L 191;2DVW A A 196;19.8443
2DVW A V 192;2DVW A T 193;19.1555
2DVW A V 192;2DVW A Q 194;1.50345
2DVW A V 192;2DVW A G 195;10.734
2DVW A V 192;2DVW A A 196;16.6614
2DVW A V 192;2DVW A I 198;10.9231
2DVW A V 192;2DVW A L 220;18.4308
2DVW A V 192;2DVW A L 223;12.265
2DVW A V 192;2DVW A A 224;14.5732
2DVW A V 192;2DVW A E 227;9.54944
2DVW A T 193;2DVW A Q 194;30.3411
2DVW A T 193;2DVW A G 195;4.66956
2DVW A T 193;2DVW A L 223;16.056
2DVW A T 193;2DVW A E 227;31.326
2DVW A Q 194;2DVW A G 195;22.8709
2DVW A Q 194;2DVW A A 196;1.85364
2DVW A G 195;2DVW A A 196;24.0058
2DVW A G 195;2DVW A S 197;5.10288
2DVW A G 195;2DVW A E 227;2.50696
2DVW A A 196;2DVW A S 197;22.0336
2DVW A A 196;2DVW A I 198;4.68568
2DVW A A 196;2DVW A A 224;1.20239
2DVW A S 197;2DVW A I 198;18.0054
2DVW A S 197;2DVW A Y 199;20.1163
2DVW A S 197;2DVW A I 200;23.5187
2DVW A S 197;2DVW A P 208;7.28638
2DVW A I 198;2DVW A Y 199;49.4544
2DVW A I 198;2DVW A I 200;0.0183806
2DVW A I 198;2DVW A T 207;8.57326
2DVW A I 198;2DVW A P 208;11.9388
2DVW A I 198;2DVW A L 209;30.8702
2DVW A I 198;2DVW A L 220;9.14236
2DVW A I 198;2DVW A K 221;14.1473
2DVW A I 198;2DVW A A 224;18.502
2DVW A I 198;2DVW A E 225;1.11566
2DVW A Y 199;2DVW A I 200;22.9497
2DVW A Y 199;2DVW A E 201;8.36415
2DVW A Y 199;2DVW A T 207;15.4099
2DVW A Y 199;2DVW A P 208;0.368354
2DVW A Y 199;2DVW A L 209;1.72626
2DVW A Y 199;2DVW A K 221;4.77157
2DVW A Y 199;2DVW A A 224;4.01181
2DVW A Y 199;2DVW A E 225;7.62828
2DVW A Y 199;2DVW A E 228;22.0099
2DVW A I 200;2DVW A E 201;26.5762
2DVW A I 200;2DVW A N 202;0.207423
2DVW A I 200;2DVW A K 206;0.593409
2DVW A I 200;2DVW A T 207;5.47174
2DVW A I 200;2DVW A P 208;9.89639
2DVW A E 201;2DVW A N 202;25.4133
2DVW A E 201;2DVW A E 205;38.2598
2DVW A E 201;2DVW A K 206;6.85921
2DVW A E 201;2DVW A T 207;14.7478
2DVW A E 201;2DVW A Q 210;1.10453
2DVW A N 202;2DVW A K 203;22.1759
2DVW A N 202;2DVW A E 204;19.1663
2DVW A N 202;2DVW A E 205;12.7672
2DVW A N 202;2DVW A K 206;22.0622
2DVW A N 202;2DVW A V 211;9.11136
2DVW A K 203;2DVW A E 204;24.8282
2DVW A K 203;2DVW A E 205;11.4701
2DVW A E 204;2DVW A E 205;24.0534
2DVW A E 204;2DVW A K 206;31.6927
2DVW A E 205;2DVW A K 206;21.6613
2DVW A E 205;2DVW A Q 210;7.54779
2DVW A K 206;2DVW A T 207;18.377
2DVW A K 206;2DVW A Q 210;33.1328
2DVW A K 206;2DVW A V 211;13.3226
2DVW A T 207;2DVW A P 208;18.9355
2DVW A T 207;2DVW A L 209;13.1307
2DVW A T 207;2DVW A Q 210;30.9291
2DVW A T 207;2DVW A V 211;8.06181
2DVW A P 208;2DVW A L 209;21.9478
2DVW A P 208;2DVW A Q 210;0.594211
2DVW A P 208;2DVW A V 211;9.49957
2DVW A P 208;2DVW A A 212;6.01725
2DVW A P 208;2DVW A L 220;0.486814
2DVW A L 209;2DVW A Q 210;24.2602
2DVW A L 209;2DVW A V 211;1.61234
2DVW A L 209;2DVW A A 212;15.3947
2DVW A L 209;2DVW A K 213;0.46552
2DVW A L 209;2DVW A G 217;25.8886
2DVW A L 209;2DVW A L 220;12.415
2DVW A L 209;2DVW A K 221;21.7817
2DVW A Q 210;2DVW A V 211;23.1954
2DVW A Q 210;2DVW A A 212;6.5937
2DVW A V 211;2DVW A A 212;23.9235
2DVW A V 211;2DVW A K 213;0.008715
2DVW A A 212;2DVW A K 213;29.9812
2DVW A A 212;2DVW A G 214;5.56768
2DVW A A 212;2DVW A L 216;11.4446
2DVW A A 212;2DVW A G 217;7.47948
2DVW A A 212;2DVW A L 220;2.64992
2DVW A K 213;2DVW A G 214;26.7837
2DVW A K 213;2DVW A G 215;5.53458
2DVW A K 213;2DVW A L 216;22.3629
2DVW A K 213;2DVW A G 217;6.02864
2DVW A G 214;2DVW A G 215;22.5041
2DVW A G 214;2DVW A L 216;0.496412
2DVW A G 214;2DVW A G 217;7.29199
2DVW A G 214;2DVW A L 218;15.2796
2DVW A G 215;2DVW A L 216;19.6373
2DVW A G 215;2DVW A G 217;1.18096
2DVW A G 215;2DVW A L 218;17.2763
2DVW A G 215;2DVW A I 219;15.8644
2DVW A L 216;2DVW A G 217;16.4484
2DVW A L 216;2DVW A L 218;0.544163
2DVW A L 216;2DVW A I 219;21.8407
2DVW A L 216;2DVW A L 220;23.0822
2DVW A G 217;2DVW A L 218;18.6708
2DVW A G 217;2DVW A I 219;1.24808
2DVW A G 217;2DVW A L 220;7.22743
2DVW A G 217;2DVW A K 221;8.86807
2DVW A L 218;2DVW A I 219;20.4066
2DVW A L 218;2DVW A L 220;0.269613
2DVW A L 218;2DVW A K 221;23.2796
2DVW A L 218;2DVW A R 222;11.9617
2DVW A I 219;2DVW A L 220;20.1004
2DVW A I 219;2DVW A K 221;1.47764
2DVW A I 219;2DVW A R 222;11.6431
2DVW A I 219;2DVW A L 223;21.3828
2DVW A L 220;2DVW A K 221;16.4024
2DVW A L 220;2DVW A R 222;0.570253
2DVW A L 220;2DVW A L 223;12.5304
2DVW A L 220;2DVW A A 224;8.30324
2DVW A K 221;2DVW A R 222;19.6052
2DVW A K 221;2DVW A L 223;0.654138
2DVW A K 221;2DVW A A 224;5.97338
2DVW A K 221;2DVW A E 225;37.561
2DVW A R 222;2DVW A L 223;25.7143
2DVW A R 222;2DVW A A 224;1.18377
2DVW A R 222;2DVW A E 225;31.1306
2DVW A R 222;2DVW A G 226;20.9117
2DVW A R 222;2DVW A A 229;3.05012
2DVW A L 223;2DVW A A 224;15.3208
2DVW A L 223;2DVW A E 225;0.486846
2DVW A L 223;2DVW A G 226;8.66983
2DVW A L 223;2DVW A E 227;13.7995
2DVW A A 224;2DVW A E 225;17.1054
2DVW A A 224;2DVW A G 226;1.35965
2DVW A A 224;2DVW A E 227;12.2964
2DVW A A 224;2DVW A E 228;18.1189
2DVW A E 225;2DVW A G 226;16.6738
2DVW A E 225;2DVW A E 227;0.630477
2DVW A E 225;2DVW A E 228;23.49
2DVW A E 225;2DVW A A 229;12.8597
2DVW A G 226;2DVW A E 227;19.7474
2DVW A G 226;2DVW A E 228;1.27032
2DVW A G 226;2DVW A A 229;11.5572
2DVW A G 226;2DVW A S 230;13.6152
2DVW A E 227;2DVW A E 228;22.9207
2DVW A E 227;2DVW A A 229;0.196905
2DVW A E 227;2DVW A S 230;17.4629
2DVW A E 227;2DVW A M 231;17.7515
2DVW A E 228;2DVW A A 229;26.127
2DVW A E 228;2DVW A S 230;4.85703
2DVW A E 228;2DVW A M 231;11.0645
2DVW A A 229;2DVW A S 230;24.7296
2DVW A A 229;2DVW A M 231;9.03778
2DVW A S 230;2DVW A M 231;40.3319
