V1;V2;Weight
2J0T D C 1;2J0T D T 2;20.028
2J0T D C 1;2J0T D C 3;7.40144
2J0T D C 1;2J0T D E 67;4.06607
2J0T D C 1;2J0T D S 68;11.4117
2J0T D C 1;2J0T D C 70;21.379
2J0T D C 1;2J0T D T 98;8.96435
2J0T D C 1;2J0T D C 99;4.06594
2J0T D T 2;2J0T D C 3;20.8348
2J0T D T 2;2J0T D C 99;1.34951
2J0T D C 3;2J0T D V 4;20.6015
2J0T D C 3;2J0T D P 5;10.9975
2J0T D C 3;2J0T D P 6;0.0130661
2J0T D C 3;2J0T D T 98;14.1632
2J0T D C 3;2J0T D C 99;24.7905
2J0T D V 4;2J0T D P 5;36.6003
2J0T D V 4;2J0T D P 6;10.8652
2J0T D V 4;2J0T D C 99;2.11943
2J0T D P 5;2J0T D P 6;34.8879
2J0T D P 5;2J0T D H 7;4.76003
2J0T D P 5;2J0T D C 99;0.453684
2J0T D P 6;2J0T D H 7;24.2911
2J0T D P 6;2J0T D P 8;3.22193
2J0T D P 6;2J0T D T 10;11.3587
2J0T D P 6;2J0T D A 11;15.8034
2J0T D P 6;2J0T D C 99;17.9434
2J0T D P 6;2J0T D S 100;3.35375
2J0T D P 6;2J0T D F 101;30.0795
2J0T D H 7;2J0T D P 8;34.932
2J0T D H 7;2J0T D Q 9;36.6219
2J0T D H 7;2J0T D T 10;21.3754
2J0T D H 7;2J0T D A 11;6.69582
2J0T D H 7;2J0T D F 101;0.135788
2J0T D H 7;2J0T D Q 112;3.51396
2J0T D H 7;2J0T D Y 120;3.14695
2J0T D P 8;2J0T D Q 9;17.2705
2J0T D P 8;2J0T D T 10;0.152407
2J0T D P 8;2J0T D A 11;10.0153
2J0T D P 8;2J0T D F 12;9.21054
2J0T D P 8;2J0T D F 101;25.518
2J0T D P 8;2J0T D L 108;0.628499
2J0T D P 8;2J0T D Q 112;21.3406
2J0T D P 8;2J0T D F 116;16.689
2J0T D P 8;2J0T D Y 120;18.4084
2J0T D Q 9;2J0T D T 10;24.1315
2J0T D Q 9;2J0T D A 11;1.42517
2J0T D Q 9;2J0T D F 12;8.35677
2J0T D Q 9;2J0T D C 13;10.883
2J0T D Q 9;2J0T D Y 120;32.0901
2J0T D T 10;2J0T D A 11;18.9878
2J0T D T 10;2J0T D F 12;1.10405
2J0T D T 10;2J0T D C 13;11.9121
2J0T D T 10;2J0T D N 14;27.0621
2J0T D A 11;2J0T D F 12;19.302
2J0T D A 11;2J0T D C 13;0.785275
2J0T D A 11;2J0T D N 14;10.474
2J0T D A 11;2J0T D S 15;16.6101
2J0T D A 11;2J0T D V 18;1.08888
2J0T D A 11;2J0T D A 86;8.84212
2J0T D A 11;2J0T D F 101;13.4615
2J0T D A 11;2J0T D F 116;1.3747
2J0T D F 12;2J0T D C 13;20.4232
2J0T D F 12;2J0T D N 14;0.977492
2J0T D F 12;2J0T D S 15;7.38646
2J0T D F 12;2J0T D V 18;25.5709
2J0T D F 12;2J0T D Y 46;10.3059
2J0T D F 12;2J0T D K 47;27.6598
2J0T D F 12;2J0T D A 86;0.16653
2J0T D F 12;2J0T D G 115;1.96826
2J0T D F 12;2J0T D F 116;24.199
2J0T D F 12;2J0T D Y 120;23.9545
2J0T D F 12;2J0T D T 121;26.0723
2J0T D F 12;2J0T D C 124;10.0339
2J0T D C 13;2J0T D N 14;30.95
2J0T D C 13;2J0T D S 15;4.81428
2J0T D C 13;2J0T D K 47;10.6941
2J0T D C 13;2J0T D Y 120;2.9232
2J0T D C 13;2J0T D G 123;8.1943
2J0T D C 13;2J0T D C 124;31.7102
2J0T D N 14;2J0T D S 15;25.4713
2J0T D N 14;2J0T D D 16;4.99477
2J0T D N 14;2J0T D K 88;18.6446
2J0T D S 15;2J0T D D 16;22.3588
2J0T D S 15;2J0T D L 17;4.6969
2J0T D S 15;2J0T D V 18;8.33558
2J0T D S 15;2J0T D K 47;12.4614
2J0T D S 15;2J0T D A 86;16.3382
2J0T D S 15;2J0T D G 87;11.7209
2J0T D S 15;2J0T D K 88;5.77503
2J0T D D 16;2J0T D L 17;29.8187
2J0T D D 16;2J0T D K 47;16.6533
2J0T D D 16;2J0T D G 48;7.05327
2J0T D D 16;2J0T D L 52;7.12652
2J0T D D 16;2J0T D G 87;5.9926
2J0T D D 16;2J0T D K 88;20.3031
2J0T D D 16;2J0T D L 89;26.5133
2J0T D L 17;2J0T D V 18;16.5547
2J0T D L 17;2J0T D I 19;16.7083
2J0T D L 17;2J0T D M 45;10.7893
2J0T D L 17;2J0T D K 47;9.32188
2J0T D L 17;2J0T D G 48;11.5446
2J0T D L 17;2J0T D A 51;1.3597
2J0T D L 17;2J0T D A 55;10.6396
2J0T D L 17;2J0T D A 56;3.42489
2J0T D L 17;2J0T D I 58;14.0627
2J0T D L 17;2J0T D I 85;5.01593
2J0T D L 17;2J0T D A 86;3.35474
2J0T D L 17;2J0T D G 87;12.5986
2J0T D L 17;2J0T D K 88;0.240641
2J0T D L 17;2J0T D L 89;21.4187
2J0T D L 17;2J0T D L 94;21.7373
2J0T D V 18;2J0T D I 19;18.6343
2J0T D V 18;2J0T D M 45;0.00181925
2J0T D V 18;2J0T D Y 46;19.4751
2J0T D V 18;2J0T D K 47;26.402
2J0T D V 18;2J0T D L 84;11.3526
2J0T D V 18;2J0T D I 85;4.97518
2J0T D V 18;2J0T D A 86;12.5131
2J0T D V 18;2J0T D F 116;12.2754
2J0T D I 19;2J0T D R 20;22.1022
2J0T D I 19;2J0T D A 21;9.32246
2J0T D I 19;2J0T D I 40;9.44809
2J0T D I 19;2J0T D M 42;17.0679
2J0T D I 19;2J0T D K 44;5.21155
2J0T D I 19;2J0T D M 45;17.1565
2J0T D I 19;2J0T D Y 46;3.46221
2J0T D I 19;2J0T D K 47;3.38033
2J0T D I 19;2J0T D I 58;9.1356
2J0T D I 19;2J0T D F 83;0.869551
2J0T D I 19;2J0T D L 84;8.87111
2J0T D I 19;2J0T D I 85;29.686
2J0T D I 19;2J0T D L 94;7.19563
2J0T D R 20;2J0T D A 21;19.8512
2J0T D R 20;2J0T D M 42;3.7733
2J0T D R 20;2J0T D T 43;15.9932
2J0T D R 20;2J0T D K 44;21.9477
2J0T D R 20;2J0T D Y 46;13.4123
2J0T D R 20;2J0T D E 82;8.00277
2J0T D R 20;2J0T D F 83;7.11806
2J0T D R 20;2J0T D L 84;6.57336
2J0T D R 20;2J0T D W 105;9.99211
2J0T D A 21;2J0T D K 22;22.016
2J0T D A 21;2J0T D F 23;1.89744
2J0T D A 21;2J0T D I 40;13.1065
2J0T D A 21;2J0T D K 41;5.37599
2J0T D A 21;2J0T D M 42;8.43766
2J0T D A 21;2J0T D T 43;6.93202
2J0T D A 21;2J0T D E 81;0.463672
2J0T D A 21;2J0T D E 82;8.99554
2J0T D A 21;2J0T D F 83;18.2375
2J0T D A 21;2J0T D I 85;13.1654
2J0T D K 22;2J0T D F 23;23.9662
2J0T D K 22;2J0T D V 24;5.31552
2J0T D K 22;2J0T D I 40;7.68415
2J0T D K 22;2J0T D K 41;21.5708
2J0T D K 22;2J0T D T 43;4.84676
2J0T D K 22;2J0T D R 79;6.69886
2J0T D K 22;2J0T D S 80;9.95429
2J0T D K 22;2J0T D E 81;9.70013
2J0T D K 22;2J0T D E 82;7.61311
2J0T D K 22;2J0T D F 83;0.819026
2J0T D F 23;2J0T D V 24;25.6473
2J0T D F 23;2J0T D G 25;6.64636
2J0T D F 23;2J0T D Y 38;21.7233
2J0T D F 23;2J0T D E 39;4.05383
2J0T D F 23;2J0T D I 40;16.5149
2J0T D F 23;2J0T D V 61;10.191
2J0T D F 23;2J0T D Y 72;13.0299
2J0T D F 23;2J0T D H 74;32.3957
2J0T D F 23;2J0T D R 79;20.0345
2J0T D F 23;2J0T D E 81;2.60312
2J0T D F 23;2J0T D F 83;16.0303
2J0T D F 23;2J0T D I 85;15.1615
2J0T D F 23;2J0T D I 96;1.30887
2J0T D F 23;2J0T D V 102;7.51393
2J0T D V 24;2J0T D G 25;29.6434
2J0T D V 24;2J0T D E 39;36.4252
2J0T D V 24;2J0T D I 40;4.19734
2J0T D V 24;2J0T D K 41;12.0051
2J0T D V 24;2J0T D R 59;2.36725
2J0T D V 24;2J0T D R 79;18.6289
2J0T D G 25;2J0T D T 26;29.3717
2J0T D G 25;2J0T D P 27;3.26849
2J0T D G 25;2J0T D Y 38;10.0293
2J0T D G 25;2J0T D E 39;9.35139
2J0T D G 25;2J0T D R 79;17.7388
2J0T D T 26;2J0T D P 27;41.5524
2J0T D T 26;2J0T D E 28;6.10879
2J0T D T 26;2J0T D R 37;0.247609
2J0T D T 26;2J0T D Y 38;0.467675
2J0T D T 26;2J0T D E 39;2.18331
2J0T D T 26;2J0T D R 79;20.442
2J0T D P 27;2J0T D E 28;23.0243
2J0T D P 27;2J0T D V 29;8.74165
2J0T D P 27;2J0T D Q 36;21.2922
2J0T D P 27;2J0T D R 37;6.345
2J0T D P 27;2J0T D Y 38;31.2999
2J0T D P 27;2J0T D F 73;2.73157
2J0T D E 28;2J0T D V 29;27.7579
2J0T D E 28;2J0T D N 30;1.17934
2J0T D E 28;2J0T D Y 35;0.00022523
2J0T D E 28;2J0T D Q 36;8.00917
2J0T D E 28;2J0T D R 37;38.6855
2J0T D E 28;2J0T D F 60;3.04789
2J0T D V 29;2J0T D N 30;27.9056
2J0T D V 29;2J0T D Q 31;33.2426
2J0T D V 29;2J0T D L 34;0.646517
2J0T D V 29;2J0T D Y 35;5.21961
2J0T D V 29;2J0T D Q 36;14.9743
2J0T D V 29;2J0T D A 65;15.5697
2J0T D N 30;2J0T D Q 31;19.8455
2J0T D N 30;2J0T D T 32;24.9409
2J0T D N 30;2J0T D T 33;26.443
2J0T D N 30;2J0T D L 34;7.13249
2J0T D N 30;2J0T D Y 35;16.4881
2J0T D N 30;2J0T D Q 36;0.00184324
2J0T D N 30;2J0T D A 65;0.00430123
2J0T D Q 31;2J0T D T 32;28.7515
2J0T D Q 31;2J0T D L 34;16.4651
2J0T D Q 31;2J0T D M 66;2.96952
2J0T D T 32;2J0T D T 33;29.6541
2J0T D T 32;2J0T D L 34;7.59643
2J0T D T 33;2J0T D L 34;26.582
2J0T D T 33;2J0T D Y 35;31.5315
2J0T D L 34;2J0T D Y 35;20.1345
2J0T D L 34;2J0T D P 64;5.85923
2J0T D L 34;2J0T D A 65;20.5189
2J0T D L 34;2J0T D M 66;31.0346
2J0T D L 34;2J0T D V 69;2.21918
2J0T D Y 35;2J0T D Q 36;24.3865
2J0T D Y 35;2J0T D Y 62;10.9617
2J0T D Y 35;2J0T D T 63;12.4906
2J0T D Y 35;2J0T D P 64;27.1927
2J0T D Y 35;2J0T D A 65;8.49478
2J0T D Y 35;2J0T D Q 90;5.58414
2J0T D Y 35;2J0T D H 95;21.5038
2J0T D Q 36;2J0T D R 37;24.4873
2J0T D Q 36;2J0T D Y 38;13.5252
2J0T D Q 36;2J0T D V 61;0.24622
2J0T D Q 36;2J0T D Y 62;8.13897
2J0T D Q 36;2J0T D T 63;28.6619
2J0T D Q 36;2J0T D P 64;5.88341
2J0T D Q 36;2J0T D A 65;17.3754
2J0T D Q 36;2J0T D G 71;0.464001
2J0T D Q 36;2J0T D Y 72;4.53344
2J0T D Q 36;2J0T D F 73;17.5322
2J0T D R 37;2J0T D Y 38;22.8156
2J0T D R 37;2J0T D E 39;2.31938
2J0T D R 37;2J0T D F 60;44.17
2J0T D R 37;2J0T D V 61;7.25619
2J0T D R 37;2J0T D Y 62;35.6702
2J0T D R 37;2J0T D T 63;0.226415
2J0T D Y 38;2J0T D E 39;23.0564
2J0T D Y 38;2J0T D I 40;7.87912
2J0T D Y 38;2J0T D R 59;0.0210289
2J0T D Y 38;2J0T D F 60;8.2131
2J0T D Y 38;2J0T D V 61;28.58
2J0T D Y 38;2J0T D T 63;11.9701
2J0T D Y 38;2J0T D Y 72;17.8029
2J0T D Y 38;2J0T D F 73;8.46021
2J0T D Y 38;2J0T D H 74;22.1389
2J0T D E 39;2J0T D I 40;19.2696
2J0T D E 39;2J0T D R 59;28.2504
2J0T D E 39;2J0T D F 60;28.129
2J0T D I 40;2J0T D K 41;18.7897
2J0T D I 40;2J0T D M 42;9.95347
2J0T D I 40;2J0T D I 58;12.7556
2J0T D I 40;2J0T D R 59;28.4909
2J0T D I 40;2J0T D F 60;6.00375
2J0T D I 40;2J0T D V 61;18.2565
2J0T D I 40;2J0T D I 85;7.70689
2J0T D I 40;2J0T D L 94;4.61047
2J0T D K 41;2J0T D M 42;22.9767
2J0T D K 41;2J0T D T 43;8.11979
2J0T D K 41;2J0T D R 59;2.45211
2J0T D M 42;2J0T D T 43;32.7807
2J0T D M 42;2J0T D K 44;8.88728
2J0T D M 42;2J0T D M 45;24.4668
2J0T D M 42;2J0T D I 58;27.0986
2J0T D M 42;2J0T D R 59;0.502454
2J0T D T 43;2J0T D K 44;32.1786
2J0T D T 43;2J0T D E 82;24.7469
2J0T D K 44;2J0T D M 45;26.4686
2J0T D K 44;2J0T D Y 46;18.5648
2J0T D M 45;2J0T D Y 46;33.3827
2J0T D M 45;2J0T D K 47;10.8792
2J0T D M 45;2J0T D G 48;12.2041
2J0T D M 45;2J0T D F 49;16.4932
2J0T D M 45;2J0T D A 55;3.10354
2J0T D M 45;2J0T D A 56;0.0441112
2J0T D M 45;2J0T D I 58;6.5901
2J0T D Y 46;2J0T D K 47;26.9585
2J0T D Y 46;2J0T D L 84;8.45196
2J0T D Y 46;2J0T D W 105;23.6412
2J0T D Y 46;2J0T D F 116;26.7201
2J0T D Y 46;2J0T D T 117;16.613
2J0T D K 47;2J0T D G 48;25.0011
2J0T D K 47;2J0T D F 49;3.60819
2J0T D K 47;2J0T D C 124;2.34425
2J0T D G 48;2J0T D F 49;22.041
2J0T D G 48;2J0T D Q 50;6.9519
2J0T D G 48;2J0T D A 51;11.717
2J0T D G 48;2J0T D L 52;0.569907
2J0T D G 48;2J0T D A 55;2.52857
2J0T D F 49;2J0T D Q 50;28.3388
2J0T D F 49;2J0T D A 51;4.82712
2J0T D F 49;2J0T D A 55;1.91011
2J0T D Q 50;2J0T D A 51;25.2705
2J0T D Q 50;2J0T D L 52;14.7227
2J0T D A 51;2J0T D L 52;23.4355
2J0T D A 51;2J0T D G 53;9.84883
2J0T D A 51;2J0T D D 54;5.52371
2J0T D A 51;2J0T D A 55;11.9657
2J0T D A 51;2J0T D L 89;4.83637
2J0T D L 52;2J0T D G 53;33.4687
2J0T D L 52;2J0T D L 89;7.73523
2J0T D G 53;2J0T D D 54;28.9443
2J0T D G 53;2J0T D A 55;0.0751983
2J0T D G 53;2J0T D L 89;6.64863
2J0T D D 54;2J0T D A 55;28.0601
2J0T D D 54;2J0T D L 89;7.40554
2J0T D D 54;2J0T D D 91;2.91456
2J0T D D 54;2J0T D G 92;1.67142
2J0T D A 55;2J0T D A 56;30.9476
2J0T D A 55;2J0T D L 89;14.865
2J0T D A 55;2J0T D G 92;6.48862
2J0T D A 56;2J0T D D 57;24.9871
2J0T D A 56;2J0T D I 58;21.5988
2J0T D A 56;2J0T D L 89;5.94462
2J0T D A 56;2J0T D G 92;10.3596
2J0T D D 57;2J0T D I 58;25.2534
2J0T D D 57;2J0T D R 59;10.2302
2J0T D D 57;2J0T D F 60;0.476209
2J0T D D 57;2J0T D G 92;5.12074
2J0T D I 58;2J0T D R 59;24.3852
2J0T D I 58;2J0T D F 60;12.3694
2J0T D I 58;2J0T D V 61;0.0625162
2J0T D I 58;2J0T D L 89;1.4725
2J0T D I 58;2J0T D G 92;0.0917622
2J0T D I 58;2J0T D L 93;0.141527
2J0T D I 58;2J0T D L 94;24.7549
2J0T D R 59;2J0T D F 60;44.3933
2J0T D F 60;2J0T D V 61;18.3811
2J0T D F 60;2J0T D Y 62;25.7479
2J0T D F 60;2J0T D L 93;0.10705
2J0T D F 60;2J0T D L 94;5.17486
2J0T D V 61;2J0T D Y 62;24.4937
2J0T D V 61;2J0T D T 63;2.77443
2J0T D V 61;2J0T D Y 72;0.89919
2J0T D V 61;2J0T D I 85;7.20614
2J0T D V 61;2J0T D L 94;19.9274
2J0T D V 61;2J0T D H 95;1.53164
2J0T D V 61;2J0T D I 96;20.2713
2J0T D Y 62;2J0T D T 63;21.9926
2J0T D Y 62;2J0T D L 93;42.7207
2J0T D Y 62;2J0T D L 94;13.2575
2J0T D Y 62;2J0T D H 95;23.0647
2J0T D Y 62;2J0T D I 96;9.11659
2J0T D T 63;2J0T D P 64;27.3264
2J0T D T 63;2J0T D A 65;0.0871129
2J0T D T 63;2J0T D C 70;0.745579
2J0T D T 63;2J0T D G 71;2.98477
2J0T D T 63;2J0T D Y 72;18.6529
2J0T D T 63;2J0T D H 95;1.38542
2J0T D T 63;2J0T D I 96;15.7838
2J0T D T 63;2J0T D T 97;2.26978
2J0T D P 64;2J0T D A 65;17.7742
2J0T D P 64;2J0T D M 66;5.79576
2J0T D P 64;2J0T D V 69;18.9585
2J0T D P 64;2J0T D C 70;5.5268
2J0T D P 64;2J0T D G 71;17.8848
2J0T D P 64;2J0T D F 73;1.16909
2J0T D P 64;2J0T D H 95;0.329136
2J0T D P 64;2J0T D I 96;4.60793
2J0T D P 64;2J0T D T 97;10.7102
2J0T D A 65;2J0T D M 66;35.1873
2J0T D A 65;2J0T D V 69;0.000153134
2J0T D A 65;2J0T D G 71;0.0685711
2J0T D A 65;2J0T D F 73;14.8863
2J0T D M 66;2J0T D E 67;20.0529
2J0T D M 66;2J0T D S 68;12.6952
2J0T D M 66;2J0T D V 69;23.1376
2J0T D M 66;2J0T D C 70;0.894685
2J0T D M 66;2J0T D G 71;8.47391
2J0T D M 66;2J0T D F 73;1.77852
2J0T D E 67;2J0T D S 68;22.8433
2J0T D E 67;2J0T D V 69;1.18737
2J0T D E 67;2J0T D C 70;5.90579
2J0T D E 67;2J0T D G 71;13.8795
2J0T D E 67;2J0T D F 73;37.0475
2J0T D E 67;2J0T D T 98;4.3879
2J0T D S 68;2J0T D V 69;18.5474
2J0T D S 68;2J0T D C 70;1.93651
2J0T D V 69;2J0T D C 70;23.7189
2J0T D V 69;2J0T D G 71;1.54683
2J0T D C 70;2J0T D G 71;16.8334
2J0T D C 70;2J0T D Y 72;1.90289
2J0T D C 70;2J0T D T 97;20.3828
2J0T D C 70;2J0T D T 98;14.4834
2J0T D C 70;2J0T D C 99;3.92419
2J0T D G 71;2J0T D Y 72;16.8314
2J0T D G 71;2J0T D F 73;13.0186
2J0T D G 71;2J0T D T 98;7.56571
2J0T D Y 72;2J0T D F 73;31.7558
2J0T D Y 72;2J0T D H 74;24.0383
2J0T D Y 72;2J0T D R 75;2.942
2J0T D Y 72;2J0T D F 83;4.43124
2J0T D Y 72;2J0T D I 96;16.7665
2J0T D Y 72;2J0T D T 97;11.0426
2J0T D Y 72;2J0T D T 98;16.744
2J0T D Y 72;2J0T D S 100;1.055
2J0T D Y 72;2J0T D V 102;30.9578
2J0T D F 73;2J0T D H 74;22.0244
2J0T D F 73;2J0T D R 75;16.9327
2J0T D F 73;2J0T D T 98;0.00225133
2J0T D H 74;2J0T D R 75;29.0514
2J0T D H 74;2J0T D S 76;24.6778
2J0T D H 74;2J0T D F 83;17.7224
2J0T D H 74;2J0T D V 102;0.0952792
2J0T D R 75;2J0T D S 76;29.6957
2J0T D R 75;2J0T D E 81;0.0620953
2J0T D R 75;2J0T D F 83;6.0307
2J0T D S 76;2J0T D H 77;34.7813
2J0T D S 76;2J0T D N 78;16.5236
2J0T D S 76;2J0T D R 79;2.97646
2J0T D S 76;2J0T D E 81;12.6997
2J0T D S 76;2J0T D F 83;12.2452
2J0T D H 77;2J0T D N 78;30.9328
2J0T D H 77;2J0T D R 79;12.8756
2J0T D N 78;2J0T D R 79;28.8209
2J0T D N 78;2J0T D S 80;5.45911
2J0T D N 78;2J0T D E 81;20.33
2J0T D N 78;2J0T D F 83;0.118073
2J0T D R 79;2J0T D S 80;27.3657
2J0T D R 79;2J0T D E 81;6.41895
2J0T D S 80;2J0T D E 81;25.1992
2J0T D S 80;2J0T D E 82;9.28706
2J0T D E 81;2J0T D E 82;27.8608
2J0T D E 81;2J0T D F 83;27.8111
2J0T D E 81;2J0T D P 104;19.547
2J0T D E 81;2J0T D W 105;0.000125337
2J0T D E 81;2J0T D N 106;3.54217
2J0T D E 82;2J0T D F 83;21.3419
2J0T D E 82;2J0T D P 104;5.44544
2J0T D E 82;2J0T D W 105;32.9332
2J0T D E 82;2J0T D N 106;2.12129
2J0T D F 83;2J0T D L 84;19.546
2J0T D F 83;2J0T D I 85;13.1588
2J0T D F 83;2J0T D V 102;12.9515
2J0T D F 83;2J0T D A 103;8.7603
2J0T D F 83;2J0T D P 104;23.6854
2J0T D F 83;2J0T D W 105;4.55468
2J0T D L 84;2J0T D I 85;21.5041
2J0T D L 84;2J0T D A 86;8.45848
2J0T D L 84;2J0T D F 101;18.747
2J0T D L 84;2J0T D V 102;7.7419
2J0T D L 84;2J0T D A 103;17.796
2J0T D L 84;2J0T D W 105;21.2773
2J0T D L 84;2J0T D L 108;8.9533
2J0T D L 84;2J0T D F 116;24.7129
2J0T D I 85;2J0T D A 86;17.0799
2J0T D I 85;2J0T D G 87;3.76347
2J0T D I 85;2J0T D L 94;13.3259
2J0T D I 85;2J0T D I 96;16.2235
2J0T D I 85;2J0T D F 101;0.748913
2J0T D I 85;2J0T D V 102;11.5257
2J0T D A 86;2J0T D G 87;18.0492
2J0T D A 86;2J0T D I 96;5.78325
2J0T D A 86;2J0T D S 100;9.74468
2J0T D A 86;2J0T D F 101;24.7261
2J0T D A 86;2J0T D V 102;0.760111
2J0T D A 86;2J0T D F 116;2.71299
2J0T D G 87;2J0T D K 88;21.5364
2J0T D G 87;2J0T D L 94;12.6248
2J0T D G 87;2J0T D H 95;4.59535
2J0T D G 87;2J0T D I 96;8.11321
2J0T D G 87;2J0T D S 100;3.1927
2J0T D K 88;2J0T D L 89;23.0315
2J0T D K 88;2J0T D Q 90;18.4907
2J0T D K 88;2J0T D L 93;0.835965
2J0T D K 88;2J0T D L 94;8.3558
2J0T D K 88;2J0T D H 95;23.2265
2J0T D K 88;2J0T D S 100;0.0726342
2J0T D L 89;2J0T D Q 90;26.9181
2J0T D L 89;2J0T D D 91;8.89379
2J0T D L 89;2J0T D G 92;12.263
2J0T D L 89;2J0T D L 93;7.81103
2J0T D L 89;2J0T D L 94;11.5351
2J0T D Q 90;2J0T D D 91;27.4645
2J0T D Q 90;2J0T D G 92;4.02683
2J0T D Q 90;2J0T D L 93;17.8315
2J0T D Q 90;2J0T D H 95;39.4353
2J0T D D 91;2J0T D G 92;27.2186
2J0T D D 91;2J0T D L 93;0.000248733
2J0T D G 92;2J0T D L 93;35.5651
2J0T D G 92;2J0T D L 94;0.631867
2J0T D L 93;2J0T D L 94;21.9468
2J0T D L 93;2J0T D H 95;21.7749
2J0T D L 94;2J0T D H 95;22.0827
2J0T D L 94;2J0T D I 96;2.57141
2J0T D H 95;2J0T D I 96;27.4591
2J0T D H 95;2J0T D T 97;0.383461
2J0T D H 95;2J0T D S 100;0.777552
2J0T D I 96;2J0T D T 97;29.3167
2J0T D I 96;2J0T D S 100;16.3796
2J0T D I 96;2J0T D V 102;15.8829
2J0T D T 97;2J0T D T 98;17.4057
2J0T D T 97;2J0T D C 99;16.764
2J0T D T 97;2J0T D S 100;26.883
2J0T D T 97;2J0T D V 102;0.981122
2J0T D T 98;2J0T D C 99;18.5311
2J0T D T 98;2J0T D S 100;8.67103
2J0T D C 99;2J0T D S 100;23.8189
2J0T D C 99;2J0T D F 101;0.0799922
2J0T D S 100;2J0T D F 101;22.2847
2J0T D S 100;2J0T D V 102;17.0235
2J0T D F 101;2J0T D V 102;24.1608
2J0T D F 101;2J0T D A 103;17.8423
2J0T D F 101;2J0T D L 108;12.9027
2J0T D F 101;2J0T D Q 112;2.00043
2J0T D F 101;2J0T D F 116;10.8825
2J0T D V 102;2J0T D A 103;27.7705
2J0T D V 102;2J0T D P 104;1.19229
2J0T D A 103;2J0T D P 104;28.294
2J0T D A 103;2J0T D W 105;2.00713
2J0T D A 103;2J0T D S 107;4.43276
2J0T D A 103;2J0T D L 108;13.7926
2J0T D P 104;2J0T D W 105;17.0948
2J0T D P 104;2J0T D N 106;5.68622
2J0T D P 104;2J0T D S 107;29.2935
2J0T D P 104;2J0T D L 108;7.42818
2J0T D W 105;2J0T D N 106;33.9778
2J0T D W 105;2J0T D S 107;1.47277
2J0T D W 105;2J0T D L 108;21.6623
2J0T D W 105;2J0T D R 113;53.2571
2J0T D W 105;2J0T D F 116;10.8459
2J0T D W 105;2J0T D T 117;2.50307
2J0T D N 106;2J0T D S 107;25.6626
2J0T D N 106;2J0T D L 108;8.22283
2J0T D N 106;2J0T D R 113;21.8555
2J0T D S 107;2J0T D L 108;29.3469
2J0T D S 107;2J0T D S 109;3.50534
2J0T D S 107;2J0T D Q 112;0.844797
2J0T D L 108;2J0T D S 109;25.2858
2J0T D L 108;2J0T D L 110;0.0281388
2J0T D L 108;2J0T D Q 112;25.831
2J0T D L 108;2J0T D R 113;25.6333
2J0T D L 108;2J0T D F 116;12.5664
2J0T D S 109;2J0T D L 110;26.3941
2J0T D S 109;2J0T D A 111;10.9828
2J0T D S 109;2J0T D Q 112;30.9788
2J0T D S 109;2J0T D R 113;11.6388
2J0T D L 110;2J0T D A 111;26.725
2J0T D L 110;2J0T D Q 112;0.922046
2J0T D L 110;2J0T D R 113;11.4854
2J0T D L 110;2J0T D R 114;13.9759
2J0T D A 111;2J0T D Q 112;21.1865
2J0T D A 111;2J0T D R 113;0.380968
2J0T D A 111;2J0T D R 114;5.681
2J0T D A 111;2J0T D G 115;11.3925
2J0T D A 111;2J0T D T 119;0.596743
2J0T D A 111;2J0T D Y 120;4.84617
2J0T D Q 112;2J0T D R 113;17.0663
2J0T D Q 112;2J0T D R 114;1.12245
2J0T D Q 112;2J0T D G 115;6.00748
2J0T D Q 112;2J0T D F 116;13.6844
2J0T D Q 112;2J0T D Y 120;16.3081
2J0T D R 113;2J0T D R 114;18.7839
2J0T D R 113;2J0T D G 115;0.984687
2J0T D R 113;2J0T D F 116;5.54779
2J0T D R 113;2J0T D T 117;13.1943
2J0T D R 114;2J0T D G 115;16.9617
2J0T D R 114;2J0T D F 116;0.787714
2J0T D R 114;2J0T D T 117;17.8069
2J0T D R 114;2J0T D K 118;4.27734
2J0T D R 114;2J0T D T 119;12.7808
2J0T D G 115;2J0T D F 116;17.2144
2J0T D G 115;2J0T D T 117;1.48996
2J0T D G 115;2J0T D K 118;3.27074
2J0T D G 115;2J0T D T 119;16.6733
2J0T D G 115;2J0T D Y 120;24.8012
2J0T D G 115;2J0T D T 121;0.00570019
2J0T D F 116;2J0T D T 117;22.8228
2J0T D F 116;2J0T D K 118;3.73424
2J0T D F 116;2J0T D Y 120;17.8577
2J0T D T 117;2J0T D K 118;28.2589
2J0T D K 118;2J0T D T 119;30.1055
2J0T D K 118;2J0T D T 121;11.4956
2J0T D K 118;2J0T D V 122;6.28937
2J0T D T 119;2J0T D Y 120;28.2013
2J0T D T 119;2J0T D T 121;5.95629
2J0T D T 119;2J0T D V 122;20.3368
2J0T D T 119;2J0T D G 123;4.058
2J0T D Y 120;2J0T D T 121;17.4557
2J0T D Y 120;2J0T D V 122;1.52281
2J0T D Y 120;2J0T D G 123;12.5169
2J0T D Y 120;2J0T D C 124;7.72551
2J0T D T 121;2J0T D V 122;27.9477
2J0T D T 121;2J0T D G 123;0.83353
2J0T D T 121;2J0T D C 124;20.7675
2J0T D V 122;2J0T D G 123;24.1556
2J0T D V 122;2J0T D C 124;10.7913
2J0T D G 123;2J0T D C 124;22.6299
