V1;V2;Weight
3BK3 A K 11;3BK3 A S 12;36.7068
3BK3 A K 11;3BK3 A S 13;6.02029
3BK3 A K 11;3BK3 A E 46;24.9767
3BK3 A S 12;3BK3 A S 13;23.576
3BK3 A S 12;3BK3 A K 15;16.3586
3BK3 A S 12;3BK3 A H 17;1.22605
3BK3 A S 12;3BK3 A H 44;1.65002
3BK3 A S 12;3BK3 A G 45;10.4081
3BK3 A S 12;3BK3 A E 46;11.047
3BK3 A S 13;3BK3 A C 14;21.6141
3BK3 A S 13;3BK3 A K 15;24.941
3BK3 A S 13;3BK3 A H 17;0.0637916
3BK3 A S 13;3BK3 A H 44;2.68399
3BK3 A S 13;3BK3 A G 45;5.18981
3BK3 A S 13;3BK3 A E 46;11.4265
3BK3 A S 13;3BK3 A P 48;8.80578
3BK3 A S 13;3BK3 A A 52;1.98442
3BK3 A S 13;3BK3 A H 54;11.7528
3BK3 A S 13;3BK3 A L 55;6.9381
3BK3 A C 14;3BK3 A K 15;27.0122
3BK3 A C 14;3BK3 A H 44;2.42695
3BK3 A C 14;3BK3 A G 45;8.16936
3BK3 A C 14;3BK3 A E 46;9.49363
3BK3 A C 14;3BK3 A C 47;4.42461
3BK3 A C 14;3BK3 A H 54;4.73493
3BK3 A C 14;3BK3 A L 55;26.3666
3BK3 A C 14;3BK3 A C 79;18.8236
3BK3 A C 14;3BK3 A C 111;7.28768
3BK3 A C 14;3BK3 A G 112;11.2819
3BK3 A C 14;3BK3 A C 113;6.52536
3BK3 A K 15;3BK3 A R 16;33.3459
3BK3 A K 15;3BK3 A H 17;21.2459
3BK3 A K 15;3BK3 A Y 42;0.281896
3BK3 A K 15;3BK3 A C 43;3.4648
3BK3 A K 15;3BK3 A H 44;13.1373
3BK3 A K 15;3BK3 A C 79;3.88397
3BK3 A K 15;3BK3 A C 111;10.9214
3BK3 A R 16;3BK3 A H 17;32.6144
3BK3 A R 16;3BK3 A P 18;0.943564
3BK3 A R 16;3BK3 A M 41;24.4022
3BK3 A R 16;3BK3 A Y 42;7.50386
3BK3 A R 16;3BK3 A C 43;0.284841
3BK3 A R 16;3BK3 A V 108;17.8689
3BK3 A R 16;3BK3 A E 109;24.5023
3BK3 A R 16;3BK3 A G 110;5.80185
3BK3 A R 16;3BK3 A C 111;16.0926
3BK3 A H 17;3BK3 A P 18;37.4731
3BK3 A H 17;3BK3 A L 19;0.0570766
3BK3 A H 17;3BK3 A M 41;9.0265
3BK3 A H 17;3BK3 A Y 42;40.1211
3BK3 A H 17;3BK3 A C 43;0.39831
3BK3 A H 17;3BK3 A H 44;24.6725
3BK3 A P 18;3BK3 A L 19;27.0962
3BK3 A P 18;3BK3 A M 41;13.4809
3BK3 A P 18;3BK3 A Y 42;10.295
3BK3 A L 19;3BK3 A Y 20;36.931
3BK3 A L 19;3BK3 A V 21;13.2211
3BK3 A L 19;3BK3 A Y 38;0.0697714
3BK3 A L 19;3BK3 A H 39;3.7271
3BK3 A L 19;3BK3 A A 40;10.7254
3BK3 A L 19;3BK3 A M 41;29.2236
3BK3 A L 19;3BK3 A Y 42;15.3687
3BK3 A Y 20;3BK3 A V 21;28.2742
3BK3 A Y 20;3BK3 A D 22;24.0945
3BK3 A Y 20;3BK3 A P 36;9.31298
3BK3 A Y 20;3BK3 A G 37;14.1672
3BK3 A Y 20;3BK3 A Y 38;15.9871
3BK3 A Y 20;3BK3 A H 39;33.6714
3BK3 A V 21;3BK3 A D 22;24.6359
3BK3 A V 21;3BK3 A F 23;13.8193
3BK3 A V 21;3BK3 A V 26;11.2612
3BK3 A V 21;3BK3 A W 28;0.332258
3BK3 A V 21;3BK3 A G 37;6.09546
3BK3 A V 21;3BK3 A Y 38;26.709
3BK3 A V 21;3BK3 A A 40;11.514
3BK3 A D 22;3BK3 A F 23;17.4725
3BK3 A D 22;3BK3 A S 24;14.5632
3BK3 A D 22;3BK3 A D 25;33.3917
3BK3 A D 22;3BK3 A V 26;8.98179
3BK3 A D 22;3BK3 A P 36;10.7539
3BK3 A D 22;3BK3 A G 37;3.35169
3BK3 A F 23;3BK3 A S 24;18.3434
3BK3 A F 23;3BK3 A D 25;1.04595
3BK3 A F 23;3BK3 A V 26;13.7918
3BK3 A F 23;3BK3 A G 27;3.45928
3BK3 A F 23;3BK3 A W 28;28.9137
3BK3 A F 23;3BK3 A N 29;11.8176
3BK3 A F 23;3BK3 A I 32;20.6581
3BK3 A F 23;3BK3 A P 35;15.2189
3BK3 A F 23;3BK3 A P 36;14.8436
3BK3 A F 23;3BK3 A G 37;14.4219
3BK3 A F 23;3BK3 A Y 38;14.7803
3BK3 A F 23;3BK3 A I 87;3.47438
3BK3 A F 23;3BK3 A M 89;11.4856
3BK3 A F 23;3BK3 A M 106;5.05072
3BK3 A S 24;3BK3 A D 25;26.6292
3BK3 A S 24;3BK3 A V 26;1.0308
3BK3 A S 24;3BK3 A G 27;9.12141
3BK3 A S 24;3BK3 A N 29;31.55
3BK3 A S 24;3BK3 A P 36;4.02684
3BK3 A D 25;3BK3 A V 26;26.5574
3BK3 A D 25;3BK3 A G 27;3.11507
3BK3 A V 26;3BK3 A G 27;22.1313
3BK3 A V 26;3BK3 A W 28;27.7273
3BK3 A G 27;3BK3 A W 28;24.5016
3BK3 A G 27;3BK3 A N 29;9.7008
3BK3 A G 27;3BK3 A D 30;12.0075
3BK3 A G 27;3BK3 A W 31;0.619546
3BK3 A W 28;3BK3 A N 29;17.4117
3BK3 A W 28;3BK3 A D 30;7.17962
3BK3 A W 28;3BK3 A W 31;35.1614
3BK3 A W 28;3BK3 A I 32;23.2033
3BK3 A W 28;3BK3 A M 89;1.69713
3BK3 A W 28;3BK3 A M 106;2.3489
3BK3 A N 29;3BK3 A D 30;32.2264
3BK3 A N 29;3BK3 A W 31;1.78005
3BK3 A N 29;3BK3 A I 32;19.0649
3BK3 A N 29;3BK3 A V 33;2.45619
3BK3 A N 29;3BK3 A L 92;1.18169
3BK3 A D 30;3BK3 A W 31;33.7052
3BK3 A D 30;3BK3 A I 32;0.00418433
3BK3 A D 30;3BK3 A L 92;12.5912
3BK3 A W 31;3BK3 A I 32;36.1482
3BK3 A W 31;3BK3 A V 33;2.07407
3BK3 A W 31;3BK3 A M 89;6.76037
3BK3 A W 31;3BK3 A M 91;26.3523
3BK3 A W 31;3BK3 A L 92;29.3204
3BK3 A W 31;3BK3 A Y 103;9.02734
3BK3 A I 32;3BK3 A V 33;23.6237
3BK3 A I 32;3BK3 A A 34;10.2217
3BK3 A I 32;3BK3 A P 35;10.1623
3BK3 A I 32;3BK3 A M 89;23.2638
3BK3 A I 32;3BK3 A L 90;5.15382
3BK3 A I 32;3BK3 A M 91;6.36066
3BK3 A I 32;3BK3 A L 92;0.276322
3BK3 A V 33;3BK3 A A 34;27.2171
3BK3 A V 33;3BK3 A P 35;1.04525
3BK3 A V 33;3BK3 A P 36;2.16251
3BK3 A V 33;3BK3 A L 90;27.1499
3BK3 A V 33;3BK3 A M 91;5.06965
3BK3 A V 33;3BK3 A L 92;18.6064
3BK3 A V 33;3BK3 A V 98;10.2742
3BK3 A A 34;3BK3 A P 35;27.2862
3BK3 A A 34;3BK3 A P 36;2.75962
3BK3 A A 34;3BK3 A M 89;3.49881
3BK3 A A 34;3BK3 A L 90;16.8709
3BK3 A P 35;3BK3 A P 36;31.9358
3BK3 A P 35;3BK3 A G 37;16.691
3BK3 A P 35;3BK3 A Y 38;3.43816
3BK3 A P 35;3BK3 A I 87;8.91179
3BK3 A P 35;3BK3 A S 88;8.22452
3BK3 A P 35;3BK3 A M 89;9.98377
3BK3 A P 36;3BK3 A G 37;20.7621
3BK3 A G 37;3BK3 A Y 38;24.4958
3BK3 A Y 38;3BK3 A H 39;26.6514
3BK3 A Y 38;3BK3 A A 40;20.0878
3BK3 A Y 38;3BK3 A I 87;24.755
3BK3 A Y 38;3BK3 A M 106;27.1775
3BK3 A Y 38;3BK3 A V 107;11.9502
3BK3 A H 39;3BK3 A A 40;14.296
3BK3 A H 39;3BK3 A M 41;27.1158
3BK3 A H 39;3BK3 A V 107;13.2417
3BK3 A A 40;3BK3 A M 41;25.8489
3BK3 A A 40;3BK3 A M 106;3.32635
3BK3 A A 40;3BK3 A V 107;6.88223
3BK3 A A 40;3BK3 A V 108;8.34302
3BK3 A M 41;3BK3 A Y 42;19.6618
3BK3 A M 41;3BK3 A V 107;5.94365
3BK3 A M 41;3BK3 A V 108;15.0268
3BK3 A Y 42;3BK3 A C 43;30.6029
3BK3 A Y 42;3BK3 A H 44;12.8555
3BK3 A Y 42;3BK3 A P 81;0.161024
3BK3 A Y 42;3BK3 A V 108;8.57672
3BK3 A Y 42;3BK3 A C 111;0.950537
3BK3 A C 43;3BK3 A H 44;22.0147
3BK3 A C 43;3BK3 A C 79;17.5771
3BK3 A C 43;3BK3 A V 80;8.18991
3BK3 A C 43;3BK3 A P 81;16.7968
3BK3 A C 43;3BK3 A V 108;8.23392
3BK3 A C 43;3BK3 A G 110;0.423122
3BK3 A C 43;3BK3 A C 111;18.8687
3BK3 A H 44;3BK3 A G 45;35.7451
3BK3 A H 44;3BK3 A C 79;11.3475
3BK3 A G 45;3BK3 A E 46;23.6152
3BK3 A G 45;3BK3 A C 47;2.9993
3BK3 A G 45;3BK3 A A 77;0.0337569
3BK3 A G 45;3BK3 A C 79;14.9616
3BK3 A E 46;3BK3 A C 47;26.1088
3BK3 A E 46;3BK3 A P 48;26.8205
3BK3 A E 46;3BK3 A F 49;0.118464
3BK3 A E 46;3BK3 A L 55;2.6314
3BK3 A E 46;3BK3 A K 76;24.9851
3BK3 A C 47;3BK3 A P 48;25.873
3BK3 A C 47;3BK3 A L 55;1.65916
3BK3 A C 47;3BK3 A T 65;10.2598
3BK3 A C 47;3BK3 A K 76;16.4929
3BK3 A C 47;3BK3 A A 77;22.4121
3BK3 A C 47;3BK3 A C 78;3.67748
3BK3 A C 47;3BK3 A C 79;8.58598
3BK3 A C 47;3BK3 A C 113;23.3762
3BK3 A P 48;3BK3 A F 49;25.7876
3BK3 A P 48;3BK3 A P 50;12.3054
3BK3 A P 48;3BK3 A L 51;12.6158
3BK3 A P 48;3BK3 A A 52;16.3592
3BK3 A P 48;3BK3 A L 55;12.1614
3BK3 A P 48;3BK3 A T 65;7.88818
3BK3 A P 48;3BK3 A K 76;3.65864
3BK3 A P 48;3BK3 A C 113;0.404998
3BK3 A F 49;3BK3 A P 50;46.202
3BK3 A F 49;3BK3 A L 51;14.9439
3BK3 A F 49;3BK3 A T 65;17.8285
3BK3 A F 49;3BK3 A L 66;22.73
3BK3 A F 49;3BK3 A N 68;1.81405
3BK3 A F 49;3BK3 A S 69;25.5344
3BK3 A F 49;3BK3 A K 76;12.8004
3BK3 A P 50;3BK3 A L 51;32.4102
3BK3 A P 50;3BK3 A A 52;1.93998
3BK3 A L 51;3BK3 A A 52;30.5989
3BK3 A L 51;3BK3 A D 53;6.30695
3BK3 A L 51;3BK3 A S 57;5.40133
3BK3 A L 51;3BK3 A I 62;22.7356
3BK3 A L 51;3BK3 A T 65;17.5174
3BK3 A L 51;3BK3 A L 66;7.65946
3BK3 A A 52;3BK3 A D 53;24.9983
3BK3 A A 52;3BK3 A H 54;17.0968
3BK3 A A 52;3BK3 A L 55;27.5492
3BK3 A A 52;3BK3 A S 57;0.234586
3BK3 A D 53;3BK3 A H 54;29.6187
3BK3 A D 53;3BK3 A L 55;8.91294
3BK3 A H 54;3BK3 A L 55;41.5109
3BK3 A H 54;3BK3 A N 56;3.39254
3BK3 A L 55;3BK3 A N 56;28.5514
3BK3 A L 55;3BK3 A S 57;16.5033
3BK3 A L 55;3BK3 A C 111;1.56642
3BK3 A L 55;3BK3 A G 112;3.09623
3BK3 A L 55;3BK3 A C 113;14.7902
3BK3 A N 56;3BK3 A S 57;27.1607
3BK3 A N 56;3BK3 A T 58;0.668727
3BK3 A N 56;3BK3 A T 82;9.77756
3BK3 A N 56;3BK3 A E 83;6.64768
3BK3 A N 56;3BK3 A C 111;6.9917
3BK3 A N 56;3BK3 A G 112;12.3906
3BK3 A N 56;3BK3 A C 113;9.15386
3BK3 A N 56;3BK3 A R 114;22.7484
3BK3 A S 57;3BK3 A T 58;24.5702
3BK3 A S 57;3BK3 A N 59;1.70891
3BK3 A S 57;3BK3 A A 61;8.70666
3BK3 A S 57;3BK3 A I 62;22.8647
3BK3 A S 57;3BK3 A C 113;17.4595
3BK3 A S 57;3BK3 A R 114;2.78964
3BK3 A T 58;3BK3 A N 59;20.9338
3BK3 A T 58;3BK3 A H 60;9.4574
3BK3 A T 58;3BK3 A A 61;17.3291
3BK3 A T 58;3BK3 A I 62;8.48626
3BK3 A T 58;3BK3 A C 113;2.87411
3BK3 A T 58;3BK3 A R 114;34.1608
3BK3 A N 59;3BK3 A H 60;16.4798
3BK3 A N 59;3BK3 A A 61;1.44471
3BK3 A N 59;3BK3 A I 62;14.0698
3BK3 A N 59;3BK3 A V 63;7.0503
3BK3 A H 60;3BK3 A A 61;18.6309
3BK3 A H 60;3BK3 A I 62;0.573493
3BK3 A H 60;3BK3 A V 63;15.1509
3BK3 A H 60;3BK3 A Q 64;26.8403
3BK3 A H 60;3BK3 A R 114;4.41494
3BK3 A A 61;3BK3 A I 62;16.8532
3BK3 A A 61;3BK3 A V 63;0.360717
3BK3 A A 61;3BK3 A Q 64;9.66634
3BK3 A A 61;3BK3 A T 65;12.6595
3BK3 A A 61;3BK3 A A 77;14.8936
3BK3 A A 61;3BK3 A C 113;8.36206
3BK3 A A 61;3BK3 A R 114;10.2979
3BK3 A I 62;3BK3 A V 63;17.4133
3BK3 A I 62;3BK3 A Q 64;1.28312
3BK3 A I 62;3BK3 A T 65;10.5911
3BK3 A I 62;3BK3 A L 66;16.3625
3BK3 A V 63;3BK3 A Q 64;19.377
3BK3 A V 63;3BK3 A T 65;0.731922
3BK3 A V 63;3BK3 A L 66;10.7975
3BK3 A V 63;3BK3 A V 67;15.9109
3BK3 A Q 64;3BK3 A T 65;17.4203
3BK3 A Q 64;3BK3 A L 66;0.732679
3BK3 A Q 64;3BK3 A V 67;11.735
3BK3 A Q 64;3BK3 A N 68;9.06407
3BK3 A Q 64;3BK3 A I 74;12.4582
3BK3 A Q 64;3BK3 A P 75;20.7366
3BK3 A Q 64;3BK3 A K 76;5.93939
3BK3 A Q 64;3BK3 A A 77;13.5606
3BK3 A Q 64;3BK3 A R 114;4.21635
3BK3 A T 65;3BK3 A L 66;20.3053
3BK3 A T 65;3BK3 A V 67;0.775969
3BK3 A T 65;3BK3 A N 68;13.2856
3BK3 A T 65;3BK3 A S 69;8.50824
3BK3 A T 65;3BK3 A K 76;9.22912
3BK3 A T 65;3BK3 A A 77;11.5895
3BK3 A L 66;3BK3 A V 67;18.769
3BK3 A L 66;3BK3 A N 68;0.954523
3BK3 A L 66;3BK3 A S 69;18.6022
3BK3 A L 66;3BK3 A V 70;7.60371
3BK3 A V 67;3BK3 A N 68;15.7978
3BK3 A V 67;3BK3 A S 69;1.6003
3BK3 A V 67;3BK3 A V 70;12.318
3BK3 A V 67;3BK3 A N 71;17.9418
3BK3 A V 67;3BK3 A I 74;16.2494
3BK3 A N 68;3BK3 A S 69;25.4612
3BK3 A N 68;3BK3 A V 70;3.04314
3BK3 A N 68;3BK3 A N 71;8.29265
3BK3 A N 68;3BK3 A S 72;22.5741
3BK3 A N 68;3BK3 A I 74;16.575
3BK3 A N 68;3BK3 A P 75;7.50741
3BK3 A N 68;3BK3 A K 76;35.3505
3BK3 A S 69;3BK3 A V 70;35.3945
3BK3 A V 70;3BK3 A N 71;31.269
3BK3 A V 70;3BK3 A S 72;4.03907
3BK3 A N 71;3BK3 A S 72;20.6052
3BK3 A N 71;3BK3 A K 73;21.0409
3BK3 A N 71;3BK3 A I 74;24.9267
3BK3 A S 72;3BK3 A K 73;30.9762
3BK3 A S 72;3BK3 A I 74;7.40816
3BK3 A S 72;3BK3 A P 75;1.96221
3BK3 A K 73;3BK3 A I 74;23.869
3BK3 A K 73;3BK3 A P 75;8.38192
3BK3 A I 74;3BK3 A P 75;28.9134
3BK3 A P 75;3BK3 A K 76;33.2277
3BK3 A P 75;3BK3 A A 77;0.000544584
3BK3 A K 76;3BK3 A A 77;34.0351
3BK3 A K 76;3BK3 A C 78;4.05189
3BK3 A A 77;3BK3 A C 78;23.8949
3BK3 A A 77;3BK3 A C 79;0.904583
3BK3 A A 77;3BK3 A C 113;6.97621
3BK3 A A 77;3BK3 A R 114;12.7125
3BK3 A C 78;3BK3 A C 79;26.5378
3BK3 A C 78;3BK3 A V 80;10.6902
3BK3 A C 78;3BK3 A G 112;1.25103
3BK3 A C 78;3BK3 A C 113;3.99295
3BK3 A C 78;3BK3 A R 114;15.9301
3BK3 A C 79;3BK3 A V 80;22.702
3BK3 A C 79;3BK3 A C 111;3.71469
3BK3 A C 79;3BK3 A G 112;3.87479
3BK3 A C 79;3BK3 A C 113;0.787788
3BK3 A V 80;3BK3 A P 81;32.6247
3BK3 A V 80;3BK3 A T 82;4.91036
3BK3 A V 80;3BK3 A C 111;4.3619
3BK3 A V 80;3BK3 A G 112;15.4664
3BK3 A V 80;3BK3 A R 114;17.2616
3BK3 A P 81;3BK3 A T 82;24.2477
3BK3 A P 81;3BK3 A E 83;0.760791
3BK3 A P 81;3BK3 A L 84;22.2551
3BK3 A P 81;3BK3 A V 108;15.14
3BK3 A P 81;3BK3 A G 110;2.94209
3BK3 A P 81;3BK3 A C 111;1.27039
3BK3 A P 81;3BK3 A R 114;0.956262
3BK3 A T 82;3BK3 A E 83;48.4368
3BK3 A T 82;3BK3 A L 84;4.20006
3BK3 A T 82;3BK3 A G 110;9.28963
3BK3 A T 82;3BK3 A C 111;11.8873
3BK3 A T 82;3BK3 A G 112;10.4255
3BK3 A T 82;3BK3 A R 114;23.4767
3BK3 A E 83;3BK3 A L 84;29.2477
3BK3 A E 83;3BK3 A V 108;2.64139
3BK3 A E 83;3BK3 A E 109;19.9328
3BK3 A E 83;3BK3 A G 110;25.2738
3BK3 A E 83;3BK3 A C 111;0.400415
3BK3 A L 84;3BK3 A S 85;27.1211
3BK3 A L 84;3BK3 A D 105;33.3267
3BK3 A L 84;3BK3 A M 106;2.13574
3BK3 A L 84;3BK3 A V 107;9.96538
3BK3 A L 84;3BK3 A V 108;10.9691
3BK3 A L 84;3BK3 A E 109;8.00895
3BK3 A S 85;3BK3 A A 86;33.9423
3BK3 A S 85;3BK3 A I 87;0.416153
3BK3 A S 85;3BK3 A Q 104;1.26538
3BK3 A S 85;3BK3 A D 105;6.39676
3BK3 A S 85;3BK3 A M 106;7.2646
3BK3 A S 85;3BK3 A V 107;26.7332
3BK3 A S 85;3BK3 A E 109;18.8183
3BK3 A A 86;3BK3 A I 87;33.742
3BK3 A A 86;3BK3 A N 102;7.8582
3BK3 A A 86;3BK3 A Y 103;10.0585
3BK3 A A 86;3BK3 A Q 104;21.6995
3BK3 A A 86;3BK3 A D 105;1.55987
3BK3 A A 86;3BK3 A M 106;1.74956
3BK3 A A 86;3BK3 A V 107;0.354691
3BK3 A I 87;3BK3 A S 88;32.6929
3BK3 A I 87;3BK3 A M 89;14.0263
3BK3 A I 87;3BK3 A K 101;0.198835
3BK3 A I 87;3BK3 A N 102;5.49563
3BK3 A I 87;3BK3 A Y 103;18.945
3BK3 A I 87;3BK3 A M 106;19.6277
3BK3 A I 87;3BK3 A V 107;13.8372
3BK3 A S 88;3BK3 A M 89;19.3176
3BK3 A S 88;3BK3 A L 100;10.9281
3BK3 A S 88;3BK3 A K 101;5.46255
3BK3 A S 88;3BK3 A N 102;16.4219
3BK3 A S 88;3BK3 A Y 103;0.0162637
3BK3 A M 89;3BK3 A L 90;18.4023
3BK3 A M 89;3BK3 A M 91;7.6624
3BK3 A M 89;3BK3 A V 99;1.20758
3BK3 A M 89;3BK3 A L 100;11.1949
3BK3 A M 89;3BK3 A K 101;12.4905
3BK3 A M 89;3BK3 A Y 103;31.0403
3BK3 A M 89;3BK3 A M 106;10.8062
3BK3 A L 90;3BK3 A M 91;19.8315
3BK3 A L 90;3BK3 A V 98;19.1304
3BK3 A L 90;3BK3 A V 99;8.63593
3BK3 A L 90;3BK3 A L 100;16.0077
3BK3 A M 91;3BK3 A L 92;27.0633
3BK3 A M 91;3BK3 A D 93;12.5709
3BK3 A M 91;3BK3 A K 97;1.36536
3BK3 A M 91;3BK3 A V 98;6.51805
3BK3 A M 91;3BK3 A V 99;30.3775
3BK3 A M 91;3BK3 A K 101;22.3658
3BK3 A M 91;3BK3 A Y 103;14.5362
3BK3 A L 92;3BK3 A D 93;28.6467
3BK3 A L 92;3BK3 A E 96;32.6631
3BK3 A L 92;3BK3 A K 97;4.12086
3BK3 A L 92;3BK3 A V 98;13.095
3BK3 A D 93;3BK3 A E 94;37.6855
3BK3 A D 93;3BK3 A N 95;13.4365
3BK3 A D 93;3BK3 A E 96;10.9805
3BK3 A D 93;3BK3 A K 97;33.4516
3BK3 A D 93;3BK3 A V 99;13.7293
3BK3 A E 94;3BK3 A N 95;34.9754
3BK3 A E 94;3BK3 A E 96;5.61154
3BK3 A N 95;3BK3 A E 96;33.0321
3BK3 A N 95;3BK3 A K 97;21.4021
3BK3 A E 96;3BK3 A K 97;21.3167
3BK3 A E 96;3BK3 A V 98;8.83669
3BK3 A K 97;3BK3 A V 98;25.2254
3BK3 A K 97;3BK3 A V 99;9.85545
3BK3 A V 98;3BK3 A V 99;25.7665
3BK3 A V 99;3BK3 A L 100;26.0775
3BK3 A V 99;3BK3 A K 101;17.931
3BK3 A L 100;3BK3 A K 101;23.8183
3BK3 A L 100;3BK3 A N 102;1.37955
3BK3 A K 101;3BK3 A N 102;20.2477
3BK3 A K 101;3BK3 A Y 103;22.3045
3BK3 A N 102;3BK3 A Y 103;21.1887
3BK3 A N 102;3BK3 A Q 104;14.7932
3BK3 A Y 103;3BK3 A Q 104;20.0253
3BK3 A Y 103;3BK3 A M 106;18.5238
3BK3 A Q 104;3BK3 A D 105;37.5615
3BK3 A Q 104;3BK3 A M 106;6.19537
3BK3 A D 105;3BK3 A M 106;16.8907
3BK3 A M 106;3BK3 A V 107;20.6188
3BK3 A V 107;3BK3 A V 108;23.9955
3BK3 A V 107;3BK3 A E 109;15.88
3BK3 A V 108;3BK3 A E 109;20.1474
3BK3 A V 108;3BK3 A G 110;9.19523
3BK3 A V 108;3BK3 A C 111;3.39557
3BK3 A E 109;3BK3 A G 110;23.2814
3BK3 A G 110;3BK3 A C 111;23.2551
3BK3 A C 111;3BK3 A G 112;19.404
3BK3 A G 112;3BK3 A C 113;18.7611
3BK3 A G 112;3BK3 A R 114;5.77831
3BK3 A C 113;3BK3 A R 114;25.5343
