V1;V2;Weight
3BN9 B V 16;3BN9 B V 17;23.1113
3BN9 B V 16;3BN9 B G 18;2.12348
3BN9 B V 16;3BN9 B G 19;12.6669
3BN9 B V 16;3BN9 B V 138;17.5462
3BN9 B V 16;3BN9 B T 139;5.14036
3BN9 B V 16;3BN9 B G 140;9.0621
3BN9 B V 16;3BN9 B G 142;9.51927
3BN9 B V 16;3BN9 B H 143;8.98506
3BN9 B V 16;3BN9 B T 144;14.1353
3BN9 B V 16;3BN9 B Q 156;23.2236
3BN9 B V 16;3BN9 B K 157;4.17436
3BN9 B V 16;3BN9 B G 158;8.9137
3BN9 B V 16;3BN9 B V 188;2.72133
3BN9 B V 16;3BN9 B D 189;9.33992
3BN9 B V 16;3BN9 B S 190;4.23229
3BN9 B V 16;3BN9 B C 191;4.08945
3BN9 B V 16;3BN9 B D 194;18.0113
3BN9 B V 17;3BN9 B G 18;23.5051
3BN9 B V 17;3BN9 B G 19;3.91664
3BN9 B V 17;3BN9 B H 143;2.80661
3BN9 B V 17;3BN9 B T 144;14.9847
3BN9 B V 17;3BN9 B Q 145;13.3902
3BN9 B V 17;3BN9 B Y 146;2.79831
3BN9 B V 17;3BN9 B G 187;9.9307
3BN9 B V 17;3BN9 B V 188;7.43206
3BN9 B V 17;3BN9 B D 189;18.7513
3BN9 B V 17;3BN9 B S 190;0.578661
3BN9 B V 17;3BN9 B C 191;9.50662
3BN9 B V 17;3BN9 B C 220;9.73952
3BN9 B V 17;3BN9 B A 221;17.895
3BN9 B G 18;3BN9 B G 19;31.2079
3BN9 B G 18;3BN9 B T 20;2.03538
3BN9 B G 18;3BN9 B T 144;4.03982
3BN9 B G 18;3BN9 B G 187;7.58882
3BN9 B G 18;3BN9 B V 188;18.9986
3BN9 B G 19;3BN9 B T 20;30.6905
3BN9 B G 19;3BN9 B Q 156;10.3025
3BN9 B G 19;3BN9 B K 157;8.2366
3BN9 B G 19;3BN9 B G 158;5.86717
3BN9 B G 19;3BN9 B V 188;1.99436
3BN9 B T 20;3BN9 B D 21;30.8884
3BN9 B T 20;3BN9 B A 22;1.98624
3BN9 B T 20;3BN9 B Q 156;14.7265
3BN9 B T 20;3BN9 B K 157;32.6826
3BN9 B D 21;3BN9 B A 22;25.3385
3BN9 B D 21;3BN9 B D 23;7.21798
3BN9 B D 21;3BN9 B I 154;25.5108
3BN9 B D 21;3BN9 B L 155;2.706
3BN9 B D 21;3BN9 B Q 156;17.2392
3BN9 B D 21;3BN9 B K 157;7.71337
3BN9 B A 22;3BN9 B D 23;28.7364
3BN9 B A 22;3BN9 B E 24;0.109442
3BN9 B A 22;3BN9 B E 26;5.37894
3BN9 B A 22;3BN9 B W 27;11.2206
3BN9 B A 22;3BN9 B H 71;14.3245
3BN9 B A 22;3BN9 B T 139;0.253898
3BN9 B A 22;3BN9 B I 154;3.53319
3BN9 B A 22;3BN9 B L 155;23.4049
3BN9 B A 22;3BN9 B Q 156;3.09996
3BN9 B A 22;3BN9 B K 157;12.7358
3BN9 B D 23;3BN9 B E 24;29.155
3BN9 B D 23;3BN9 B G 25;2.9542
3BN9 B D 23;3BN9 B E 26;31.7027
3BN9 B D 23;3BN9 B W 27;0.386442
3BN9 B D 23;3BN9 B H 71;5.08948
3BN9 B D 23;3BN9 B K 157;10.1291
3BN9 B E 24;3BN9 B G 25;23.6234
3BN9 B E 24;3BN9 B E 26;4.52394
3BN9 B E 24;3BN9 B H 71;33.3821
3BN9 B E 24;3BN9 B M 117;15.1002
3BN9 B G 25;3BN9 B E 26;23.6332
3BN9 B G 25;3BN9 B W 27;3.59674
3BN9 B G 25;3BN9 B P 28;16.7784
3BN9 B G 25;3BN9 B H 71;4.58805
3BN9 B G 25;3BN9 B S 116;9.50569
3BN9 B G 25;3BN9 B M 117;22.0198
3BN9 B G 25;3BN9 B R 119;0.154277
3BN9 B E 26;3BN9 B W 27;47.6347
3BN9 B E 26;3BN9 B P 28;6.94465
3BN9 B E 26;3BN9 B W 29;7.56538
3BN9 B E 26;3BN9 B K 157;21.3632
3BN9 B W 27;3BN9 B P 28;22.6992
3BN9 B W 27;3BN9 B W 29;27.4837
3BN9 B W 27;3BN9 B Q 30;20.406
3BN9 B W 27;3BN9 B W 137;24.4064
3BN9 B W 27;3BN9 B T 139;25.764
3BN9 B W 27;3BN9 B L 155;16.594
3BN9 B W 27;3BN9 B K 157;15.8795
3BN9 B W 27;3BN9 B S 200;12.9076
3BN9 B W 27;3BN9 B V 202;12.3775
3BN9 B P 28;3BN9 B W 29;34.8279
3BN9 B P 28;3BN9 B Q 30;5.7553
3BN9 B P 28;3BN9 B V 31;0.418697
3BN9 B P 28;3BN9 B L 46;3.60168
3BN9 B P 28;3BN9 B L 68;1.95266
3BN9 B P 28;3BN9 B G 69;3.51815
3BN9 B P 28;3BN9 B S 116;6.83101
3BN9 B P 28;3BN9 B M 117;17.9498
3BN9 B P 28;3BN9 B V 118;7.24178
3BN9 B P 28;3BN9 B R 119;32.5547
3BN9 B W 29;3BN9 B Q 30;23.1377
3BN9 B W 29;3BN9 B V 31;6.5256
3BN9 B W 29;3BN9 B A 44;0.977616
3BN9 B W 29;3BN9 B S 45;7.97659
3BN9 B W 29;3BN9 B L 46;18.8153
3BN9 B W 29;3BN9 B R 119;14.3425
3BN9 B W 29;3BN9 B P 120;10.1976
3BN9 B W 29;3BN9 B I 121;31.7909
3BN9 B W 29;3BN9 B T 139;0.447115
3BN9 B W 29;3BN9 B P 198;13.8332
3BN9 B W 29;3BN9 B S 200;10.4948
3BN9 B W 29;3BN9 B V 202;1.25284
3BN9 B W 29;3BN9 B I 207;28.631
3BN9 B Q 30;3BN9 B V 31;30.8173
3BN9 B Q 30;3BN9 B H 40;0.376193
3BN9 B Q 30;3BN9 B G 43;7.48822
3BN9 B Q 30;3BN9 B A 44;5.8099
3BN9 B Q 30;3BN9 B F 67;1.37837
3BN9 B Q 30;3BN9 B L 68;3.18129
3BN9 B Q 30;3BN9 B G 69;5.37717
3BN9 B Q 30;3BN9 B L 70;5.46644
3BN9 B Q 30;3BN9 B T 139;16.8206
3BN9 B Q 30;3BN9 B G 140;7.54081
3BN9 B Q 30;3BN9 B W 141;20.5067
3BN9 B Q 30;3BN9 B L 155;14.753
3BN9 B Q 30;3BN9 B G 197;3.91448
3BN9 B Q 30;3BN9 B P 198;18.5304
3BN9 B V 31;3BN9 B S 32;22.6515
3BN9 B V 31;3BN9 B L 33;8.75157
3BN9 B V 31;3BN9 B H 40;0.319167
3BN9 B V 31;3BN9 B G 43;5.65994
3BN9 B V 31;3BN9 B A 44;22.1855
3BN9 B V 31;3BN9 B S 45;2.30406
3BN9 B V 31;3BN9 B L 46;8.33143
3BN9 B V 31;3BN9 B L 52;13.6875
3BN9 B V 31;3BN9 B A 66;6.69985
3BN9 B V 31;3BN9 B F 67;11.34
3BN9 B V 31;3BN9 B L 68;18.5636
3BN9 B V 31;3BN9 B W 141;5.30008
3BN9 B S 32;3BN9 B L 33;20.9907
3BN9 B S 32;3BN9 B H 34;12.3652
3BN9 B S 32;3BN9 B H 40;12.5902
3BN9 B S 32;3BN9 B C 42;1.53783
3BN9 B S 32;3BN9 B G 43;0.26513
3BN9 B S 32;3BN9 B T 65;1.43793
3BN9 B S 32;3BN9 B A 66;3.88671
3BN9 B S 32;3BN9 B F 67;21.5617
3BN9 B S 32;3BN9 B L 70;9.12858
3BN9 B S 32;3BN9 B Q 73;6.18129
3BN9 B S 32;3BN9 B W 141;13.0513
3BN9 B L 33;3BN9 B H 34;18.125
3BN9 B L 33;3BN9 B A 35;0.0879287
3BN9 B L 33;3BN9 B H 40;5.2017
3BN9 B L 33;3BN9 B I 41;7.71061
3BN9 B L 33;3BN9 B C 42;22.1393
3BN9 B L 33;3BN9 B G 43;3.80584
3BN9 B L 33;3BN9 B A 44;10.5138
3BN9 B L 33;3BN9 B L 52;5.29729
3BN9 B L 33;3BN9 B S 54;0.0132177
3BN9 B L 33;3BN9 B Y 59;10.5929
3BN9 B L 33;3BN9 B W 64;22.5773
3BN9 B L 33;3BN9 B T 65;8.07743
3BN9 B L 33;3BN9 B A 66;11.1286
3BN9 B L 33;3BN9 B L 85;11.3944
3BN9 B L 33;3BN9 B L 106;10.0106
3BN9 B H 34;3BN9 B A 35;23.3
3BN9 B H 34;3BN9 B L 36;0.535463
3BN9 B H 34;3BN9 B G 39;21.6712
3BN9 B H 34;3BN9 B H 40;14.6721
3BN9 B H 34;3BN9 B I 41;0.427399
3BN9 B H 34;3BN9 B Q 63;0.648178
3BN9 B H 34;3BN9 B W 64;11.5874
3BN9 B H 34;3BN9 B T 65;25.0942
3BN9 B H 34;3BN9 B F 67;21.1391
3BN9 B H 34;3BN9 B L 70;1.24743
3BN9 B H 34;3BN9 B Q 73;10.7102
3BN9 B H 34;3BN9 B R 76;21.7064
3BN9 B A 35;3BN9 B L 36;20.9137
3BN9 B A 35;3BN9 B G 37;3.49434
3BN9 B A 35;3BN9 B Q 38;16.7348
3BN9 B A 35;3BN9 B G 39;10.12
3BN9 B A 35;3BN9 B I 41;11.2625
3BN9 B A 35;3BN9 B F 60e;7.937
3BN9 B A 35;3BN9 B Y 60g;7.12853
3BN9 B A 35;3BN9 B Q 63;6.03387
3BN9 B A 35;3BN9 B W 64;14.2511
3BN9 B L 36;3BN9 B G 37;26.956
3BN9 B L 36;3BN9 B Q 38;10.1549
3BN9 B L 36;3BN9 B F 60e;21.3166
3BN9 B L 36;3BN9 B T 62;8.80474
3BN9 B L 36;3BN9 B Q 63;37.2956
3BN9 B L 36;3BN9 B W 64;0.914959
3BN9 B L 36;3BN9 B T 65;10.3512
3BN9 B G 37;3BN9 B Q 38;30.3184
3BN9 B G 37;3BN9 B G 39;1.49825
3BN9 B Q 38;3BN9 B G 39;30.8225
3BN9 B Q 38;3BN9 B H 40;5.78335
3BN9 B Q 38;3BN9 B I 41;23.7119
3BN9 B Q 38;3BN9 B F 60e;15.9359
3BN9 B Q 38;3BN9 B Y 60g;18.7292
3BN9 B G 39;3BN9 B H 40;20.9866
3BN9 B G 39;3BN9 B I 41;5.76728
3BN9 B G 39;3BN9 B R 76;1.92946
3BN9 B H 40;3BN9 B I 41;31.2333
3BN9 B H 40;3BN9 B C 42;11.8035
3BN9 B H 40;3BN9 B G 43;5.26621
3BN9 B H 40;3BN9 B Q 73;15.6345
3BN9 B H 40;3BN9 B W 141;29.5064
3BN9 B H 40;3BN9 B G 142;1.09928
3BN9 B H 40;3BN9 B G 193;16.0643
3BN9 B I 41;3BN9 B C 42;30.785
3BN9 B I 41;3BN9 B C 58;1.99447
3BN9 B I 41;3BN9 B Y 60g;15.089
3BN9 B I 41;3BN9 B W 64;14.019
3BN9 B I 41;3BN9 B G 193;13.868
3BN9 B I 41;3BN9 B S 195;0.274874
3BN9 B C 42;3BN9 B G 43;22.1744
3BN9 B C 42;3BN9 B S 54;1.28566
3BN9 B C 42;3BN9 B C 58;22.1131
3BN9 B C 42;3BN9 B Y 59;5.70269
3BN9 B C 42;3BN9 B W 64;7.03963
3BN9 B C 42;3BN9 B G 193;4.63774
3BN9 B C 42;3BN9 B S 195;11.3443
3BN9 B C 42;3BN9 B G 196;0.0289428
3BN9 B G 43;3BN9 B A 44;16.3138
3BN9 B G 43;3BN9 B S 54;7.68954
3BN9 B G 43;3BN9 B Y 59;0.468285
3BN9 B G 43;3BN9 B G 193;3.38552
3BN9 B G 43;3BN9 B D 194;4.83599
3BN9 B G 43;3BN9 B S 195;7.91259
3BN9 B G 43;3BN9 B G 196;6.93596
3BN9 B G 43;3BN9 B G 197;8.07779
3BN9 B A 44;3BN9 B S 45;19.4724
3BN9 B A 44;3BN9 B L 52;10.1309
3BN9 B A 44;3BN9 B V 53;5.29171
3BN9 B A 44;3BN9 B S 54;7.63396
3BN9 B A 44;3BN9 B Y 59;0.157344
3BN9 B A 44;3BN9 B L 106;4.52789
3BN9 B A 44;3BN9 B G 196;4.62292
3BN9 B A 44;3BN9 B G 197;5.60685
3BN9 B A 44;3BN9 B P 198;6.04877
3BN9 B S 45;3BN9 B L 46;17.0416
3BN9 B S 45;3BN9 B I 47;10.1386
3BN9 B S 45;3BN9 B W 51;0.000153029
3BN9 B S 45;3BN9 B L 52;8.82871
3BN9 B S 45;3BN9 B V 53;24.6592
3BN9 B S 45;3BN9 B I 121;5.4192
3BN9 B S 45;3BN9 B G 196;0.493532
3BN9 B S 45;3BN9 B G 197;1.0663
3BN9 B S 45;3BN9 B P 198;11.4486
3BN9 B S 45;3BN9 B Q 209;16.1504
3BN9 B L 46;3BN9 B I 47;18.6829
3BN9 B L 46;3BN9 B S 48;14.0599
3BN9 B L 46;3BN9 B P 49;1.7344
3BN9 B L 46;3BN9 B W 51;4.3384
3BN9 B L 46;3BN9 B L 52;13.8227
3BN9 B L 46;3BN9 B L 68;14.2659
3BN9 B L 46;3BN9 B L 108;3.87797
3BN9 B L 46;3BN9 B A 112;9.84665
3BN9 B L 46;3BN9 B Y 114;9.36299
3BN9 B L 46;3BN9 B V 118;9.33182
3BN9 B L 46;3BN9 B R 119;9.83306
3BN9 B L 46;3BN9 B P 120;14.3076
3BN9 B L 46;3BN9 B I 121;9.76003
3BN9 B I 47;3BN9 B S 48;25.2554
3BN9 B I 47;3BN9 B W 51;18.8681
3BN9 B I 47;3BN9 B L 52;3.03884
3BN9 B I 47;3BN9 B V 53;17.8147
3BN9 B I 47;3BN9 B L 105;2.77187
3BN9 B I 47;3BN9 B P 120;11.0443
3BN9 B I 47;3BN9 B I 121;17.3657
3BN9 B I 47;3BN9 B L 123;23.547
3BN9 B I 47;3BN9 B Q 209;4.08556
3BN9 B I 47;3BN9 B I 238;8.47697
3BN9 B I 47;3BN9 B T 242;2.82187
3BN9 B I 47;3BN9 B V 244;21.8344
3BN9 B S 48;3BN9 B P 49;31.2956
3BN9 B S 48;3BN9 B N 50;10.1286
3BN9 B S 48;3BN9 B W 51;21.6932
3BN9 B S 48;3BN9 B L 108;0.00644409
3BN9 B S 48;3BN9 B Y 114;6.9155
3BN9 B S 48;3BN9 B P 120;3.99531
3BN9 B S 48;3BN9 B V 244;18.5042
3BN9 B P 49;3BN9 B N 50;29.7577
3BN9 B P 49;3BN9 B W 51;0.453692
3BN9 B P 49;3BN9 B L 108;6.35344
3BN9 B P 49;3BN9 B P 111;15.8111
3BN9 B P 49;3BN9 B A 112;20.8326
3BN9 B P 49;3BN9 B Y 114;25.2797
3BN9 B N 50;3BN9 B W 51;32.7944
3BN9 B N 50;3BN9 B L 106;1.02961
3BN9 B N 50;3BN9 B E 107;15.3159
3BN9 B N 50;3BN9 B L 108;23.9113
3BN9 B N 50;3BN9 B K 110;0.342718
3BN9 B N 50;3BN9 B P 111;20.0741
3BN9 B W 51;3BN9 B L 52;26.1072
3BN9 B W 51;3BN9 B R 87;16.4383
3BN9 B W 51;3BN9 B I 89;12.7804
3BN9 B W 51;3BN9 B L 105;15.0929
3BN9 B W 51;3BN9 B L 106;11.2737
3BN9 B W 51;3BN9 B E 107;30.176
3BN9 B W 51;3BN9 B L 108;1.96318
3BN9 B W 51;3BN9 B N 241;5.11195
3BN9 B W 51;3BN9 B T 242;37.2128
3BN9 B W 51;3BN9 B V 244;9.90457
3BN9 B L 52;3BN9 B V 53;20.5081
3BN9 B L 52;3BN9 B S 54;0.62218
3BN9 B L 52;3BN9 B A 66;7.09291
3BN9 B L 52;3BN9 B L 68;6.08504
3BN9 B L 52;3BN9 B L 85;4.81013
3BN9 B L 52;3BN9 B A 104;0.594709
3BN9 B L 52;3BN9 B L 105;8.05247
3BN9 B L 52;3BN9 B L 106;34.4171
3BN9 B L 52;3BN9 B L 108;19.5618
3BN9 B V 53;3BN9 B S 54;21.0646
3BN9 B V 53;3BN9 B I 103;9.86649
3BN9 B V 53;3BN9 B A 104;4.72427
3BN9 B V 53;3BN9 B L 105;13.0048
3BN9 B V 53;3BN9 B L 106;0.0461044
3BN9 B V 53;3BN9 B L 123;4.35733
3BN9 B V 53;3BN9 B G 196;4.91806
3BN9 B V 53;3BN9 B Q 209;7.79133
3BN9 B V 53;3BN9 B V 212;10.978
3BN9 B V 53;3BN9 B L 231;9.10453
3BN9 B V 53;3BN9 B I 238;7.84517
3BN9 B S 54;3BN9 B A 55;18.807
3BN9 B S 54;3BN9 B C 58;2.67982
3BN9 B S 54;3BN9 B Y 59;15.1744
3BN9 B S 54;3BN9 B I 103;5.67504
3BN9 B S 54;3BN9 B A 104;19.2142
3BN9 B S 54;3BN9 B L 106;11.7586
3BN9 B S 54;3BN9 B G 196;9.90614
3BN9 B S 54;3BN9 B V 212;6.93427
3BN9 B A 55;3BN9 B A 56;14.8243
3BN9 B A 55;3BN9 B H 57;10.8586
3BN9 B A 55;3BN9 B C 58;14.8287
3BN9 B A 55;3BN9 B Y 59;7.93026
3BN9 B A 55;3BN9 B D 102;12.4437
3BN9 B A 55;3BN9 B I 103;2.49063
3BN9 B A 55;3BN9 B A 104;2.482
3BN9 B A 55;3BN9 B S 195;0.71843
3BN9 B A 55;3BN9 B G 196;12.0589
3BN9 B A 55;3BN9 B V 212;8.95493
3BN9 B A 55;3BN9 B V 213;5.13114
3BN9 B A 55;3BN9 B S 214;0.703736
3BN9 B A 56;3BN9 B H 57;14.0059
3BN9 B A 56;3BN9 B C 58;2.67225
3BN9 B A 56;3BN9 B Y 59;13.9166
3BN9 B A 56;3BN9 B I 60;5.41259
3BN9 B A 56;3BN9 B S 90;15.4104
3BN9 B A 56;3BN9 B H 91;1.65241
3BN9 B A 56;3BN9 B F 94;19.1249
3BN9 B A 56;3BN9 B Y 101;0.976724
3BN9 B A 56;3BN9 B D 102;8.12901
3BN9 B A 56;3BN9 B I 103;13.8994
3BN9 B A 56;3BN9 B A 104;9.13983
3BN9 B H 57;3BN9 B C 58;26.7505
3BN9 B H 57;3BN9 B Y 59;2.16733
3BN9 B H 57;3BN9 B I 60;21.4174
3BN9 B H 57;3BN9 B F 94;13.2702
3BN9 B H 57;3BN9 B F 99;24.2979
3BN9 B H 57;3BN9 B D 102;15.5013
3BN9 B H 57;3BN9 B S 195;12.303
3BN9 B H 57;3BN9 B V 213;1.20333
3BN9 B H 57;3BN9 B S 214;11.7797
3BN9 B C 58;3BN9 B Y 59;29.9619
3BN9 B C 58;3BN9 B I 60;2.68542
3BN9 B C 58;3BN9 B Y 60g;9.46335
3BN9 B C 58;3BN9 B W 64;8.80897
3BN9 B C 58;3BN9 B S 195;8.73803
3BN9 B C 58;3BN9 B G 196;2.95593
3BN9 B Y 59;3BN9 B I 60;23.9638
3BN9 B Y 59;3BN9 B D 60a;0.263165
3BN9 B Y 59;3BN9 B Y 60g;12.2038
3BN9 B Y 59;3BN9 B S 60h;19.6874
3BN9 B Y 59;3BN9 B W 64;19.4954
3BN9 B Y 59;3BN9 B L 85;1.95976
3BN9 B Y 59;3BN9 B I 88;23.5942
3BN9 B Y 59;3BN9 B S 90;8.06679
3BN9 B Y 59;3BN9 B A 104;7.70158
3BN9 B Y 59;3BN9 B L 106;17.3043
3BN9 B I 60;3BN9 B D 60a;32.6098
3BN9 B I 60;3BN9 B D 60b;9.93643
3BN9 B I 60;3BN9 B Y 60g;13.0886
3BN9 B I 60;3BN9 B S 60h;1.18667
3BN9 B I 60;3BN9 B F 94;16.3086
3BN9 B I 60;3BN9 B D 96;15.3332
3BN9 B I 60;3BN9 B F 99;1.46227
3BN9 B D 60a;3BN9 B D 60b;23.6579
3BN9 B D 60a;3BN9 B F 60e;6.11246
3BN9 B D 60a;3BN9 B R 60f;22.9889
3BN9 B D 60a;3BN9 B Y 60g;6.36349
3BN9 B D 60a;3BN9 B S 60h;22.2521
3BN9 B D 60b;3BN9 B R 60c;29.778
3BN9 B D 60b;3BN9 B G 60d;4.53489
3BN9 B D 60b;3BN9 B F 60e;14.9645
3BN9 B D 60b;3BN9 B Y 60g;21.9232
3BN9 B R 60c;3BN9 B G 60d;29.6343
3BN9 B R 60c;3BN9 B F 60e;11.371
3BN9 B R 60c;3BN9 B Y 60g;4.18627
3BN9 B G 60d;3BN9 B F 60e;25.3323
3BN9 B G 60d;3BN9 B R 60f;3.98051
3BN9 B F 60e;3BN9 B R 60f;27.815
3BN9 B F 60e;3BN9 B Y 60g;35.0306
3BN9 B F 60e;3BN9 B Q 63;26.2624
3BN9 B F 60e;3BN9 B W 64;1.23501
3BN9 B R 60f;3BN9 B Y 60g;14.8408
3BN9 B R 60f;3BN9 B S 60h;10.3466
3BN9 B R 60f;3BN9 B D 60i;44.6846
3BN9 B R 60f;3BN9 B Q 63;16.1945
3BN9 B R 60f;3BN9 B W 64;0.0221222
3BN9 B Y 60g;3BN9 B S 60h;14.2585
3BN9 B Y 60g;3BN9 B D 60i;4.82827
3BN9 B Y 60g;3BN9 B Q 63;0.71765
3BN9 B Y 60g;3BN9 B W 64;25.5353
3BN9 B Y 60g;3BN9 B I 88;2.91418
3BN9 B S 60h;3BN9 B D 60i;19.6416
3BN9 B S 60h;3BN9 B P 61;9.00984
3BN9 B S 60h;3BN9 B I 88;12.5809
3BN9 B D 60i;3BN9 B P 61;26.2763
3BN9 B D 60i;3BN9 B T 62;24.1079
3BN9 B D 60i;3BN9 B Q 63;22.7019
3BN9 B D 60i;3BN9 B W 64;7.42023
3BN9 B D 60i;3BN9 B I 88;1.42412
3BN9 B P 61;3BN9 B T 62;25.22
3BN9 B P 61;3BN9 B Q 63;2.00544
3BN9 B P 61;3BN9 B W 64;15.7852
3BN9 B P 61;3BN9 B L 85;24.8932
3BN9 B P 61;3BN9 B K 86;11.1525
3BN9 B P 61;3BN9 B R 87;10.0827
3BN9 B P 61;3BN9 B I 88;20.9897
3BN9 B T 62;3BN9 B Q 63;29.9566
3BN9 B T 62;3BN9 B W 64;8.66346
3BN9 B T 62;3BN9 B L 85;4.80658
3BN9 B Q 63;3BN9 B W 64;27.0185
3BN9 B Q 63;3BN9 B T 65;0.0261066
3BN9 B W 64;3BN9 B T 65;27.8989
3BN9 B W 64;3BN9 B R 84;8.21704
3BN9 B W 64;3BN9 B L 85;20.7595
3BN9 B W 64;3BN9 B I 88;7.57234
3BN9 B T 65;3BN9 B A 66;22.5963
3BN9 B T 65;3BN9 B F 67;17.9403
3BN9 B T 65;3BN9 B E 82;19.8573
3BN9 B T 65;3BN9 B R 83;7.40745
3BN9 B T 65;3BN9 B R 84;10.5626
3BN9 B T 65;3BN9 B L 85;1.55124
3BN9 B A 66;3BN9 B F 67;20.0683
3BN9 B A 66;3BN9 B L 68;7.82494
3BN9 B A 66;3BN9 B Q 81;1.29023
3BN9 B A 66;3BN9 B E 82;4.43072
3BN9 B A 66;3BN9 B R 83;20.9967
3BN9 B A 66;3BN9 B L 85;8.40023
3BN9 B A 66;3BN9 B L 108;4.76496
3BN9 B F 67;3BN9 B L 68;20.897
3BN9 B F 67;3BN9 B L 70;19.5258
3BN9 B F 67;3BN9 B R 76;32.3243
3BN9 B F 67;3BN9 B V 80;12.4367
3BN9 B F 67;3BN9 B Q 81;4.18373
3BN9 B F 67;3BN9 B E 82;27.6474
3BN9 B F 67;3BN9 B W 141;0.161366
3BN9 B L 68;3BN9 B G 69;19.8415
3BN9 B L 68;3BN9 B L 70;5.31868
3BN9 B L 68;3BN9 B G 79;1.0992
3BN9 B L 68;3BN9 B V 80;8.57217
3BN9 B L 68;3BN9 B Q 81;27.6029
3BN9 B L 68;3BN9 B R 83;13.119
3BN9 B L 68;3BN9 B L 108;9.1895
3BN9 B L 68;3BN9 B A 112;10.3163
3BN9 B L 68;3BN9 B V 118;16.9
3BN9 B G 69;3BN9 B L 70;23.4949
3BN9 B G 69;3BN9 B H 71;4.91676
3BN9 B G 69;3BN9 B P 78;1.41312
3BN9 B G 69;3BN9 B G 79;6.27272
3BN9 B G 69;3BN9 B V 80;12.0558
3BN9 B G 69;3BN9 B M 117;29.6756
3BN9 B G 69;3BN9 B V 118;7.75492
3BN9 B L 70;3BN9 B H 71;25.6949
3BN9 B L 70;3BN9 B D 72;11.1619
3BN9 B L 70;3BN9 B Q 73;15.8873
3BN9 B L 70;3BN9 B Q 75;4.0498
3BN9 B L 70;3BN9 B R 76;17.8514
3BN9 B L 70;3BN9 B V 80;18.8009
3BN9 B L 70;3BN9 B W 141;25.9044
3BN9 B L 70;3BN9 B L 155;4.75857
3BN9 B H 71;3BN9 B D 72;32.8761
3BN9 B H 71;3BN9 B Q 75;0.0707317
3BN9 B H 71;3BN9 B V 80;1.72437
3BN9 B H 71;3BN9 B M 117;5.82831
3BN9 B H 71;3BN9 B W 141;9.01662
3BN9 B H 71;3BN9 B L 153;0.797603
3BN9 B H 71;3BN9 B I 154;25.7566
3BN9 B H 71;3BN9 B L 155;18.2985
3BN9 B D 72;3BN9 B Q 73;17.2851
3BN9 B D 72;3BN9 B S 74;18.6804
3BN9 B D 72;3BN9 B Q 75;35.0754
3BN9 B D 72;3BN9 B R 76;1.26879
3BN9 B D 72;3BN9 B W 141;0.755221
3BN9 B D 72;3BN9 B L 153;13.0033
3BN9 B D 72;3BN9 B I 154;21.8738
3BN9 B Q 73;3BN9 B S 74;22.2246
3BN9 B Q 73;3BN9 B Q 75;2.41665
3BN9 B Q 73;3BN9 B R 76;29.4299
3BN9 B Q 73;3BN9 B W 141;22.8057
3BN9 B Q 73;3BN9 B A 152;5.44155
3BN9 B Q 73;3BN9 B L 153;23.1984
3BN9 B S 74;3BN9 B Q 75;34.6188
3BN9 B S 74;3BN9 B R 76;2.56908
3BN9 B S 74;3BN9 B L 153;21.3544
3BN9 B Q 75;3BN9 B R 76;20.1165
3BN9 B Q 75;3BN9 B S 77;4.69524
3BN9 B Q 75;3BN9 B A 77a;22.4885
3BN9 B Q 75;3BN9 B V 80;4.04383
3BN9 B R 76;3BN9 B S 77;27.5721
3BN9 B R 76;3BN9 B A 77a;1.85206
3BN9 B R 76;3BN9 B V 80;17.3793
3BN9 B S 77;3BN9 B A 77a;30.5632
3BN9 B S 77;3BN9 B P 78;3.19979
3BN9 B S 77;3BN9 B V 80;0.676611
3BN9 B A 77a;3BN9 B P 78;40.8774
3BN9 B A 77a;3BN9 B G 79;1.93524
3BN9 B A 77a;3BN9 B V 80;24.9511
3BN9 B P 78;3BN9 B G 79;27.4271
3BN9 B P 78;3BN9 B V 80;4.31861
3BN9 B P 78;3BN9 B M 117;3.64817
3BN9 B G 79;3BN9 B V 80;22.7217
3BN9 B G 79;3BN9 B Q 81;10.6476
3BN9 B G 79;3BN9 B S 115;5.50629
3BN9 B G 79;3BN9 B M 117;15.6969
3BN9 B G 79;3BN9 B V 118;6.21262
3BN9 B V 80;3BN9 B Q 81;29.489
3BN9 B V 80;3BN9 B E 82;3.39461
3BN9 B Q 81;3BN9 B E 82;23.4412
3BN9 B Q 81;3BN9 B R 83;22.0476
3BN9 B Q 81;3BN9 B A 112;6.1199
3BN9 B Q 81;3BN9 B E 113;26.047
3BN9 B Q 81;3BN9 B S 115;6.66772
3BN9 B Q 81;3BN9 B V 118;15.6071
3BN9 B E 82;3BN9 B R 83;39.9589
3BN9 B E 82;3BN9 B R 84;11.5324
3BN9 B E 82;3BN9 B K 110;0.393277
3BN9 B R 83;3BN9 B R 84;30.321
3BN9 B R 83;3BN9 B L 85;2.4618
3BN9 B R 83;3BN9 B L 108;16.559
3BN9 B R 83;3BN9 B E 109;0.605537
3BN9 B R 83;3BN9 B K 110;43.5869
3BN9 B R 83;3BN9 B P 111;10.8887
3BN9 B R 83;3BN9 B A 112;7.53048
3BN9 B R 83;3BN9 B E 113;11.4791
3BN9 B R 84;3BN9 B L 85;27.1952
3BN9 B R 84;3BN9 B L 108;4.8103
3BN9 B R 84;3BN9 B E 109;43.0509
3BN9 B R 84;3BN9 B K 110;0.662534
3BN9 B L 85;3BN9 B K 86;21.3882
3BN9 B L 85;3BN9 B R 87;6.20566
3BN9 B L 85;3BN9 B I 88;10.1652
3BN9 B L 85;3BN9 B L 106;17.5409
3BN9 B L 85;3BN9 B E 107;8.07711
3BN9 B L 85;3BN9 B L 108;11.659
3BN9 B L 85;3BN9 B E 109;10.5089
3BN9 B K 86;3BN9 B R 87;32.1569
3BN9 B K 86;3BN9 B E 107;31.5273
3BN9 B K 86;3BN9 B L 108;6.9672
3BN9 B K 86;3BN9 B E 109;21.7267
3BN9 B R 87;3BN9 B I 88;31.4671
3BN9 B R 87;3BN9 B I 89;27.4513
3BN9 B R 87;3BN9 B L 105;1.00251
3BN9 B R 87;3BN9 B L 106;5.91712
3BN9 B R 87;3BN9 B E 107;34.6402
3BN9 B R 87;3BN9 B N 241;7.88461
3BN9 B I 88;3BN9 B I 89;26.1737
3BN9 B I 88;3BN9 B S 90;12.7659
3BN9 B I 88;3BN9 B A 104;4.86143
3BN9 B I 88;3BN9 B L 105;4.28456
3BN9 B I 88;3BN9 B L 106;15.6128
3BN9 B I 89;3BN9 B S 90;27.1912
3BN9 B I 89;3BN9 B H 91;0.294397
3BN9 B I 89;3BN9 B P 92;1.36814
3BN9 B I 89;3BN9 B A 104;5.88956
3BN9 B I 89;3BN9 B L 105;28.4637
3BN9 B I 89;3BN9 B W 237;14.6822
3BN9 B I 89;3BN9 B N 241;26.4363
3BN9 B I 89;3BN9 B T 242;0.625109
3BN9 B S 90;3BN9 B H 91;24.1306
3BN9 B S 90;3BN9 B P 92;9.78067
3BN9 B S 90;3BN9 B F 94;6.65377
3BN9 B S 90;3BN9 B I 103;1.30119
3BN9 B S 90;3BN9 B A 104;10.0736
3BN9 B S 90;3BN9 B W 237;2.22374
3BN9 B H 91;3BN9 B P 92;31.7963
3BN9 B H 91;3BN9 B F 93;21.9881
3BN9 B H 91;3BN9 B F 94;18.4474
3BN9 B H 91;3BN9 B Y 101;20.6532
3BN9 B H 91;3BN9 B I 103;18.3877
3BN9 B H 91;3BN9 B A 104;0.179239
3BN9 B H 91;3BN9 B F 234;15.892
3BN9 B H 91;3BN9 B W 237;29.6814
3BN9 B P 92;3BN9 B F 93;37.411
3BN9 B P 92;3BN9 B F 94;5.03671
3BN9 B P 92;3BN9 B W 237;17.7308
3BN9 B F 93;3BN9 B F 94;21.0935
3BN9 B F 93;3BN9 B N 95;8.39767
3BN9 B F 93;3BN9 B D 100;2.46661
3BN9 B F 93;3BN9 B Y 101;41.3222
3BN9 B F 94;3BN9 B N 95;27.5182
3BN9 B F 94;3BN9 B D 96;16.7211
3BN9 B F 94;3BN9 B F 99;12.8178
3BN9 B F 94;3BN9 B D 100;6.53204
3BN9 B F 94;3BN9 B Y 101;12.3919
3BN9 B F 94;3BN9 B D 102;12.8306
3BN9 B N 95;3BN9 B D 96;18.0108
3BN9 B N 95;3BN9 B F 97;10.1613
3BN9 B N 95;3BN9 B T 98;18.9474
3BN9 B N 95;3BN9 B F 99;9.10225
3BN9 B N 95;3BN9 B D 100;14.3534
3BN9 B D 96;3BN9 B F 97;21.3511
3BN9 B D 96;3BN9 B T 98;0.277351
3BN9 B D 96;3BN9 B F 99;19.5309
3BN9 B F 97;3BN9 B T 98;22.4502
3BN9 B F 97;3BN9 B F 99;1.26176
3BN9 B T 98;3BN9 B F 99;18.7519
3BN9 B T 98;3BN9 B D 100;17.0838
3BN9 B T 98;3BN9 B Q 175;4.19105
3BN9 B T 98;3BN9 B T 177;6.55477
3BN9 B T 98;3BN9 B M 180;8.89252
3BN9 B T 98;3BN9 B W 215;0.91878
3BN9 B F 99;3BN9 B D 100;18.7053
3BN9 B F 99;3BN9 B Y 101;0.931176
3BN9 B F 99;3BN9 B D 102;19.2013
3BN9 B F 99;3BN9 B M 180;8.90643
3BN9 B F 99;3BN9 B S 214;10.1865
3BN9 B F 99;3BN9 B W 215;17.3926
3BN9 B D 100;3BN9 B Y 101;38.9342
3BN9 B D 100;3BN9 B D 102;1.68115
3BN9 B D 100;3BN9 B T 177;19.5759
3BN9 B D 100;3BN9 B R 179;20.0335
3BN9 B D 100;3BN9 B M 180;9.92367
3BN9 B Y 101;3BN9 B D 102;18.3139
3BN9 B Y 101;3BN9 B I 103;8.39367
3BN9 B Y 101;3BN9 B R 179;43.729
3BN9 B Y 101;3BN9 B M 180;0.203001
3BN9 B Y 101;3BN9 B T 229;1.73204
3BN9 B Y 101;3BN9 B F 234;18.2438
3BN9 B D 102;3BN9 B I 103;17.805
3BN9 B D 102;3BN9 B R 179;0.0696
3BN9 B D 102;3BN9 B V 212;4.87454
3BN9 B D 102;3BN9 B S 214;17.1397
3BN9 B D 102;3BN9 B T 229;23.736
3BN9 B I 103;3BN9 B A 104;21.7367
3BN9 B I 103;3BN9 B L 105;4.39238
3BN9 B I 103;3BN9 B V 212;9.54937
3BN9 B I 103;3BN9 B T 229;9.43269
3BN9 B I 103;3BN9 B L 231;11.0077
3BN9 B I 103;3BN9 B F 234;23.7177
3BN9 B I 103;3BN9 B W 237;15.6867
3BN9 B I 103;3BN9 B I 238;5.99666
3BN9 B A 104;3BN9 B L 105;23.005
3BN9 B A 104;3BN9 B L 106;7.49915
3BN9 B A 104;3BN9 B W 237;3.61943
3BN9 B L 105;3BN9 B L 106;21.5112
3BN9 B L 105;3BN9 B E 107;0.211836
3BN9 B L 105;3BN9 B W 237;19.7305
3BN9 B L 105;3BN9 B I 238;17.6982
3BN9 B L 105;3BN9 B N 241;8.39052
3BN9 B L 105;3BN9 B T 242;15.5078
3BN9 B L 106;3BN9 B E 107;17.2772
3BN9 B L 106;3BN9 B L 108;3.36469
3BN9 B E 107;3BN9 B L 108;26.8592
3BN9 B E 107;3BN9 B E 109;0.0106815
3BN9 B L 108;3BN9 B E 109;22.2023
3BN9 B L 108;3BN9 B K 110;14.1548
3BN9 B L 108;3BN9 B P 111;1.84799
3BN9 B L 108;3BN9 B A 112;9.14148
3BN9 B E 109;3BN9 B K 110;34.1318
3BN9 B E 109;3BN9 B P 111;2.95521
3BN9 B K 110;3BN9 B P 111;35.4427
3BN9 B K 110;3BN9 B A 112;0.913069
3BN9 B K 110;3BN9 B E 113;8.28343
3BN9 B P 111;3BN9 B A 112;23.1339
3BN9 B P 111;3BN9 B E 113;8.17226
3BN9 B A 112;3BN9 B E 113;25.0766
3BN9 B A 112;3BN9 B Y 114;10.1682
3BN9 B A 112;3BN9 B V 118;7.19157
3BN9 B E 113;3BN9 B Y 114;29.4416
3BN9 B E 113;3BN9 B S 115;4.03639
3BN9 B E 113;3BN9 B V 118;8.37852
3BN9 B Y 114;3BN9 B S 115;28.1337
3BN9 B Y 114;3BN9 B V 118;13.6513
3BN9 B Y 114;3BN9 B R 119;8.34488
3BN9 B Y 114;3BN9 B P 120;30.2206
3BN9 B S 115;3BN9 B S 116;26.6436
3BN9 B S 115;3BN9 B M 117;10.9052
3BN9 B S 115;3BN9 B V 118;19.1379
3BN9 B S 115;3BN9 B R 119;15.0677
3BN9 B S 116;3BN9 B M 117;35.6106
3BN9 B S 116;3BN9 B V 118;0.0975262
3BN9 B S 116;3BN9 B R 119;24.7454
3BN9 B M 117;3BN9 B V 118;20.3207
3BN9 B V 118;3BN9 B R 119;20.2839
3BN9 B R 119;3BN9 B P 120;31.7363
3BN9 B P 120;3BN9 B I 121;26.8005
3BN9 B P 120;3BN9 B S 122;0.287488
3BN9 B I 121;3BN9 B S 122;32.1799
3BN9 B I 121;3BN9 B L 123;5.61412
3BN9 B I 121;3BN9 B P 198;2.81109
3BN9 B I 121;3BN9 B S 200;8.67371
3BN9 B I 121;3BN9 B I 207;17.0124
3BN9 B I 121;3BN9 B F 208;7.30469
3BN9 B I 121;3BN9 B Q 209;23.3215
3BN9 B S 122;3BN9 B L 123;29.6816
3BN9 B S 122;3BN9 B P 124;1.4364
3BN9 B S 122;3BN9 B I 207;14.4831
3BN9 B S 122;3BN9 B F 208;21.6092
3BN9 B S 122;3BN9 B Q 209;8.46994
3BN9 B L 123;3BN9 B P 124;28.6819
3BN9 B L 123;3BN9 B D 125;5.58013
3BN9 B L 123;3BN9 B F 208;8.51003
3BN9 B L 123;3BN9 B Q 209;5.35742
3BN9 B L 123;3BN9 B L 231;12.7039
3BN9 B L 123;3BN9 B R 235;28.8825
3BN9 B L 123;3BN9 B I 238;18.3529
3BN9 B L 123;3BN9 B V 244;12.4459
3BN9 B P 124;3BN9 B D 125;22.727
3BN9 B P 124;3BN9 B H 128;14.112
3BN9 B P 124;3BN9 B F 130;9.2988
3BN9 B P 124;3BN9 B F 208;10.759
3BN9 B P 124;3BN9 B Q 209;12.7872
3BN9 B P 124;3BN9 B A 210;0.867431
3BN9 B P 124;3BN9 B L 231;15.208
3BN9 B P 124;3BN9 B P 232;18.4444
3BN9 B P 124;3BN9 B R 235;14.5518
3BN9 B D 125;3BN9 B A 126;20.7135
3BN9 B D 125;3BN9 B S 127;16.3501
3BN9 B D 125;3BN9 B H 128;20.6913
3BN9 B D 125;3BN9 B P 232;6.31389
3BN9 B D 125;3BN9 B R 235;15.176
3BN9 B A 126;3BN9 B S 127;26.3124
3BN9 B A 126;3BN9 B H 128;4.94197
3BN9 B A 126;3BN9 B P 232;22.5722
3BN9 B A 126;3BN9 B L 233;5.2831
3BN9 B A 126;3BN9 B R 235;13.2334
3BN9 B A 126;3BN9 B D 236;7.92029
3BN9 B S 127;3BN9 B H 128;25.8245
3BN9 B S 127;3BN9 B V 129;12.748
3BN9 B H 128;3BN9 B V 129;40.9213
3BN9 B H 128;3BN9 B F 130;23.11
3BN9 B H 128;3BN9 B E 203;4.97784
3BN9 B H 128;3BN9 B F 208;25.7669
3BN9 B H 128;3BN9 B P 232;15.8076
3BN9 B V 129;3BN9 B F 130;30.2146
3BN9 B V 129;3BN9 B P 131;27.848
3BN9 B V 129;3BN9 B K 134;0.936188
3BN9 B F 130;3BN9 B P 131;23.6745
3BN9 B F 130;3BN9 B A 132;0.537815
3BN9 B F 130;3BN9 B K 134;18.0494
3BN9 B F 130;3BN9 B I 136;4.47279
3BN9 B F 130;3BN9 B V 162;17.6708
3BN9 B F 130;3BN9 B M 181;12.8291
3BN9 B F 130;3BN9 B S 201;12.8739
3BN9 B F 130;3BN9 B E 203;3.41252
3BN9 B F 130;3BN9 B F 208;9.6891
3BN9 B F 130;3BN9 B Q 209;0.827389
3BN9 B F 130;3BN9 B A 210;26.1887
3BN9 B F 130;3BN9 B R 230;3.59208
3BN9 B F 130;3BN9 B P 232;12.6613
3BN9 B P 131;3BN9 B A 132;31.7266
3BN9 B P 131;3BN9 B G 133;0.174405
3BN9 B P 131;3BN9 B K 134;25.0345
3BN9 B P 131;3BN9 B V 162;6.91685
3BN9 B A 132;3BN9 B G 133;24.6036
3BN9 B A 132;3BN9 B K 134;3.97714
3BN9 B A 132;3BN9 B V 162;13.4858
3BN9 B A 132;3BN9 B I 163;3.51808
3BN9 B A 132;3BN9 B N 164;21.9731
3BN9 B G 133;3BN9 B K 134;21.2718
3BN9 B G 133;3BN9 B A 135;2.29379
3BN9 B G 133;3BN9 B R 161;25.7022
3BN9 B G 133;3BN9 B V 162;14.7705
3BN9 B K 134;3BN9 B A 135;28.0695
3BN9 B K 134;3BN9 B I 136;18.5661
3BN9 B K 134;3BN9 B I 160;0.661453
3BN9 B K 134;3BN9 B R 161;5.6617
3BN9 B K 134;3BN9 B V 162;18.1393
3BN9 B K 134;3BN9 B S 201;9.91687
3BN9 B K 134;3BN9 B V 202;5.20652
3BN9 B K 134;3BN9 B E 203;20.547
3BN9 B A 135;3BN9 B I 136;23.2608
3BN9 B A 135;3BN9 B W 137;6.15213
3BN9 B A 135;3BN9 B E 159;21.2585
3BN9 B A 135;3BN9 B I 160;4.07815
3BN9 B A 135;3BN9 B R 161;28.4191
3BN9 B A 135;3BN9 B V 202;5.49972
3BN9 B I 136;3BN9 B W 137;27.1204
3BN9 B I 136;3BN9 B G 158;0.810434
3BN9 B I 136;3BN9 B E 159;7.10429
3BN9 B I 136;3BN9 B I 160;21.5568
3BN9 B I 136;3BN9 B R 161;0.213887
3BN9 B I 136;3BN9 B V 162;11.9096
3BN9 B I 136;3BN9 B M 181;3.24122
3BN9 B I 136;3BN9 B V 183;10.8173
3BN9 B I 136;3BN9 B L 199;16.4846
3BN9 B I 136;3BN9 B S 200;6.59915
3BN9 B I 136;3BN9 B S 201;14.8718
3BN9 B I 136;3BN9 B V 202;1.21863
3BN9 B I 136;3BN9 B A 210;9.11792
3BN9 B W 137;3BN9 B V 138;20.8537
3BN9 B W 137;3BN9 B T 139;3.89916
3BN9 B W 137;3BN9 B K 157;25.2262
3BN9 B W 137;3BN9 B G 158;12.3874
3BN9 B W 137;3BN9 B E 159;39.4602
3BN9 B W 137;3BN9 B I 160;2.78262
3BN9 B W 137;3BN9 B P 198;1.86637
3BN9 B W 137;3BN9 B L 199;11.0118
3BN9 B W 137;3BN9 B S 200;24.3704
3BN9 B W 137;3BN9 B V 202;19.4319
3BN9 B V 138;3BN9 B T 139;29.1653
3BN9 B V 138;3BN9 B Q 156;0.0705541
3BN9 B V 138;3BN9 B K 157;4.38562
3BN9 B V 138;3BN9 B G 158;19.4233
3BN9 B V 138;3BN9 B I 160;17.2775
3BN9 B V 138;3BN9 B V 188;0.39446
3BN9 B V 138;3BN9 B D 189;3.2702
3BN9 B V 138;3BN9 B S 190;12.394
3BN9 B V 138;3BN9 B D 194;4.31281
3BN9 B V 138;3BN9 B P 198;7.07378
3BN9 B V 138;3BN9 B L 199;5.43744
3BN9 B V 138;3BN9 B V 213;10.7152
3BN9 B V 138;3BN9 B Y 228;13.6311
3BN9 B T 139;3BN9 B G 140;18.8124
3BN9 B T 139;3BN9 B L 155;9.75647
3BN9 B T 139;3BN9 B Q 156;8.23098
3BN9 B T 139;3BN9 B K 157;8.39402
3BN9 B T 139;3BN9 B D 194;6.1694
3BN9 B T 139;3BN9 B G 197;2.81197
3BN9 B T 139;3BN9 B P 198;18.9168
3BN9 B T 139;3BN9 B S 200;3.03028
3BN9 B T 139;3BN9 B V 213;2.73123
3BN9 B G 140;3BN9 B W 141;22.5752
3BN9 B G 140;3BN9 B G 142;2.55605
3BN9 B G 140;3BN9 B A 152;1.59362
3BN9 B G 140;3BN9 B I 154;0.02
3BN9 B G 140;3BN9 B L 155;13.4325
3BN9 B G 140;3BN9 B Q 156;16.5816
3BN9 B G 140;3BN9 B G 193;0.01633
3BN9 B G 140;3BN9 B D 194;12.3527
3BN9 B W 141;3BN9 B G 142;23.5265
3BN9 B W 141;3BN9 B G 151;9.10886
3BN9 B W 141;3BN9 B A 152;23.3063
3BN9 B W 141;3BN9 B L 153;6.83432
3BN9 B W 141;3BN9 B I 154;3.28555
3BN9 B W 141;3BN9 B L 155;29.5961
3BN9 B W 141;3BN9 B G 193;1.83191
3BN9 B W 141;3BN9 B D 194;1.27565
3BN9 B G 142;3BN9 B H 143;19.4534
3BN9 B G 142;3BN9 B T 144;4.31001
3BN9 B G 142;3BN9 B T 150;0.0259031
3BN9 B G 142;3BN9 B G 151;5.39255
3BN9 B G 142;3BN9 B A 152;6.86812
3BN9 B G 142;3BN9 B Q 156;0.286659
3BN9 B G 142;3BN9 B C 191;0.746079
3BN9 B G 142;3BN9 B Q 192;6.10657
3BN9 B G 142;3BN9 B G 193;10.5475
3BN9 B G 142;3BN9 B D 194;12.5394
3BN9 B H 143;3BN9 B T 144;17.076
3BN9 B H 143;3BN9 B Q 145;10.3333
3BN9 B H 143;3BN9 B G 147;9.62526
3BN9 B H 143;3BN9 B G 148;21.9228
3BN9 B H 143;3BN9 B T 150;8.95428
3BN9 B H 143;3BN9 B G 151;14.7304
3BN9 B H 143;3BN9 B C 191;17.6935
3BN9 B H 143;3BN9 B Q 192;34.0027
3BN9 B T 144;3BN9 B Q 145;27.4659
3BN9 B T 144;3BN9 B G 148;0.0110677
3BN9 B T 144;3BN9 B T 150;18.9825
3BN9 B T 144;3BN9 B A 152;15.6164
3BN9 B T 144;3BN9 B Q 156;13.2929
3BN9 B Q 145;3BN9 B Y 146;33.4519
3BN9 B Q 145;3BN9 B G 147;1.83643
3BN9 B Q 145;3BN9 B G 148;23.8508
3BN9 B Q 145;3BN9 B T 150;1.03024
3BN9 B Q 145;3BN9 B C 191;5.1214
3BN9 B Y 146;3BN9 B G 147;32.023
3BN9 B Y 146;3BN9 B G 148;2.58868
3BN9 B Y 146;3BN9 B C 191;6.18718
3BN9 B Y 146;3BN9 B G 219;6.66556
3BN9 B Y 146;3BN9 B C 220;24.8492
3BN9 B Y 146;3BN9 B Q 221a;7.89365
3BN9 B G 147;3BN9 B G 148;26.8034
3BN9 B G 147;3BN9 B C 191;1.46365
3BN9 B G 148;3BN9 B T 150;30.2787
3BN9 B T 150;3BN9 B G 151;35.5106
3BN9 B T 150;3BN9 B A 152;2.21648
3BN9 B G 151;3BN9 B A 152;24.258
3BN9 B G 151;3BN9 B L 153;10.1641
3BN9 B A 152;3BN9 B L 153;25.332
3BN9 B A 152;3BN9 B I 154;9.98955
3BN9 B A 152;3BN9 B L 155;0.000274748
3BN9 B A 152;3BN9 B Q 156;14.5225
3BN9 B L 153;3BN9 B I 154;29.3745
3BN9 B L 153;3BN9 B L 155;0.0692527
3BN9 B I 154;3BN9 B L 155;24.4376
3BN9 B I 154;3BN9 B Q 156;13.1081
3BN9 B L 155;3BN9 B Q 156;24.6997
3BN9 B Q 156;3BN9 B K 157;19.498
3BN9 B K 157;3BN9 B G 158;19.4851
3BN9 B K 157;3BN9 B E 159;0.167056
3BN9 B G 158;3BN9 B E 159;19.3422
3BN9 B G 158;3BN9 B I 160;7.72962
3BN9 B G 158;3BN9 B V 188;9.26222
3BN9 B E 159;3BN9 B I 160;20.6213
3BN9 B E 159;3BN9 B R 161;6.14437
3BN9 B E 159;3BN9 B F 184a;13.5511
3BN9 B E 159;3BN9 B V 188;11.3788
3BN9 B I 160;3BN9 B R 161;20.2678
3BN9 B I 160;3BN9 B V 183;19.1297
3BN9 B I 160;3BN9 B G 184;11.4313
3BN9 B I 160;3BN9 B F 184a;9.49179
3BN9 B I 160;3BN9 B V 188;14.6001
3BN9 B I 160;3BN9 B D 189;6.04848
3BN9 B I 160;3BN9 B S 190;0.0257367
3BN9 B I 160;3BN9 B L 199;7.17648
3BN9 B I 160;3BN9 B Y 228;11.4623
3BN9 B R 161;3BN9 B V 162;22.47
3BN9 B R 161;3BN9 B I 163;6.15988
3BN9 B R 161;3BN9 B V 183;8.45531
3BN9 B R 161;3BN9 B G 184;18.8659
3BN9 B R 161;3BN9 B F 184a;25.634
3BN9 B V 162;3BN9 B I 163;35.2213
3BN9 B V 162;3BN9 B N 164;0.386373
3BN9 B V 162;3BN9 B M 181;17.6858
3BN9 B V 162;3BN9 B C 182;4.09323
3BN9 B V 162;3BN9 B V 183;9.97091
3BN9 B V 162;3BN9 B R 230;3.10284
3BN9 B I 163;3BN9 B N 164;31.6793
3BN9 B I 163;3BN9 B Q 165;3.9815
3BN9 B I 163;3BN9 B T 167;13.651
3BN9 B I 163;3BN9 B C 168;8.40131
3BN9 B I 163;3BN9 B L 171;6.02891
3BN9 B I 163;3BN9 B M 181;1.63509
3BN9 B I 163;3BN9 B C 182;26.8595
3BN9 B I 163;3BN9 B V 183;3.42319
3BN9 B I 163;3BN9 B G 184;10.1794
3BN9 B I 163;3BN9 B F 184a;6.90623
3BN9 B I 163;3BN9 B L 185;13.2465
3BN9 B I 163;3BN9 B P 225;12.2935
3BN9 B I 163;3BN9 B R 230;3.88067
3BN9 B N 164;3BN9 B Q 165;22.5176
3BN9 B N 164;3BN9 B T 166;14.488
3BN9 B N 164;3BN9 B T 167;27.0261
3BN9 B N 164;3BN9 B C 168;7.6712
3BN9 B Q 165;3BN9 B T 166;22.9828
3BN9 B Q 165;3BN9 B T 167;0.382107
3BN9 B Q 165;3BN9 B C 168;16.9237
3BN9 B Q 165;3BN9 B E 169;29.4919
3BN9 B Q 165;3BN9 B I 176;10.909
3BN9 B Q 165;3BN9 B T 177;6.62781
3BN9 B Q 165;3BN9 B P 178;9.61574
3BN9 B Q 165;3BN9 B M 180;9.37283
3BN9 B Q 165;3BN9 B M 181;3.86563
3BN9 B Q 165;3BN9 B C 182;0.941023
3BN9 B Q 165;3BN9 B R 230;22.0978
3BN9 B T 166;3BN9 B T 167;18.8263
3BN9 B T 166;3BN9 B C 168;1.02931
3BN9 B T 166;3BN9 B E 169;16.2588
3BN9 B T 166;3BN9 B N 170;26.7007
3BN9 B T 167;3BN9 B C 168;16.0056
3BN9 B T 167;3BN9 B E 169;0.658244
3BN9 B T 167;3BN9 B N 170;16.3415
3BN9 B T 167;3BN9 B L 171;23.279
3BN9 B T 167;3BN9 B L 185;13.4751
3BN9 B C 168;3BN9 B E 169;16.1864
3BN9 B C 168;3BN9 B N 170;1.29031
3BN9 B C 168;3BN9 B L 171;11.0872
3BN9 B C 168;3BN9 B L 172;8.73946
3BN9 B C 168;3BN9 B I 176;21.2334
3BN9 B C 168;3BN9 B M 180;0.478974
3BN9 B C 168;3BN9 B M 181;3.00908
3BN9 B C 168;3BN9 B C 182;27.8438
3BN9 B C 168;3BN9 B V 227;0.167399
3BN9 B E 169;3BN9 B N 170;24.4179
3BN9 B E 169;3BN9 B L 171;0.524869
3BN9 B E 169;3BN9 B L 172;7.5865
3BN9 B E 169;3BN9 B P 173;12.7895
3BN9 B E 169;3BN9 B Q 174;1.22703
3BN9 B E 169;3BN9 B I 176;27.3522
3BN9 B N 170;3BN9 B L 171;24.4613
3BN9 B N 170;3BN9 B L 172;1.40279
3BN9 B N 170;3BN9 B P 173;15.4809
3BN9 B L 171;3BN9 B L 172;28.1267
3BN9 B L 171;3BN9 B P 173;8.81989
3BN9 B L 171;3BN9 B C 182;3.43364
3BN9 B L 171;3BN9 B L 185;18.0169
3BN9 B L 171;3BN9 B N 223;32.3861
3BN9 B L 171;3BN9 B K 224;8.10519
3BN9 B L 171;3BN9 B P 225;13.7107
3BN9 B L 172;3BN9 B P 173;22.0507
3BN9 B L 172;3BN9 B Q 174;1.44163
3BN9 B L 172;3BN9 B Q 175;21.253
3BN9 B L 172;3BN9 B I 176;19.968
3BN9 B L 172;3BN9 B C 182;7.12711
3BN9 B L 172;3BN9 B W 215;14.6274
3BN9 B L 172;3BN9 B G 216;0.588743
3BN9 B L 172;3BN9 B D 217;17.0814
3BN9 B L 172;3BN9 B N 223;0.541162
3BN9 B L 172;3BN9 B K 224;14.6326
3BN9 B L 172;3BN9 B P 225;11.5298
3BN9 B L 172;3BN9 B V 227;9.92603
3BN9 B P 173;3BN9 B Q 174;34.3098
3BN9 B P 173;3BN9 B Q 175;7.2076
3BN9 B Q 174;3BN9 B Q 175;24.401
3BN9 B Q 174;3BN9 B I 176;2.39578
3BN9 B Q 175;3BN9 B I 176;25.0516
3BN9 B Q 175;3BN9 B T 177;5.8455
3BN9 B Q 175;3BN9 B M 180;9.73592
3BN9 B Q 175;3BN9 B W 215;26.21
3BN9 B Q 175;3BN9 B D 217;4.54935
3BN9 B I 176;3BN9 B T 177;30.5323
3BN9 B I 176;3BN9 B P 178;0.665547
3BN9 B I 176;3BN9 B M 180;17.3267
3BN9 B I 176;3BN9 B C 182;2.08795
3BN9 B I 176;3BN9 B W 215;5.68917
3BN9 B I 176;3BN9 B V 227;9.05679
3BN9 B T 177;3BN9 B P 178;28.1564
3BN9 B T 177;3BN9 B R 179;17.4876
3BN9 B T 177;3BN9 B M 180;29.8526
3BN9 B P 178;3BN9 B R 179;40.4014
3BN9 B P 178;3BN9 B M 180;3.65752
3BN9 B P 178;3BN9 B R 230;11.1188
3BN9 B P 178;3BN9 B L 233;9.88659
3BN9 B R 179;3BN9 B M 180;22.5239
3BN9 B R 179;3BN9 B Y 228;0.4356
3BN9 B R 179;3BN9 B T 229;11.9891
3BN9 B R 179;3BN9 B R 230;13.8092
3BN9 B R 179;3BN9 B L 233;19.2391
3BN9 B R 179;3BN9 B F 234;12.269
3BN9 B M 180;3BN9 B M 181;18.2865
3BN9 B M 180;3BN9 B S 214;2.02294
3BN9 B M 180;3BN9 B W 215;14.0897
3BN9 B M 180;3BN9 B V 227;15.4563
3BN9 B M 180;3BN9 B Y 228;6.34584
3BN9 B M 180;3BN9 B T 229;3.44501
3BN9 B M 180;3BN9 B R 230;11.1434
3BN9 B M 181;3BN9 B C 182;25.1275
3BN9 B M 181;3BN9 B V 183;14.5605
3BN9 B M 181;3BN9 B L 199;8.56861
3BN9 B M 181;3BN9 B A 210;10.3813
3BN9 B M 181;3BN9 B G 211;2.1463
3BN9 B M 181;3BN9 B G 226;0.560592
3BN9 B M 181;3BN9 B V 227;9.10287
3BN9 B M 181;3BN9 B Y 228;24.302
3BN9 B M 181;3BN9 B T 229;1.64036
3BN9 B M 181;3BN9 B R 230;37.4931
3BN9 B C 182;3BN9 B V 183;19.917
3BN9 B C 182;3BN9 B P 225;12.8679
3BN9 B C 182;3BN9 B G 226;6.22095
3BN9 B C 182;3BN9 B V 227;7.53933
3BN9 B V 183;3BN9 B G 184;18.732
3BN9 B V 183;3BN9 B D 189;3.20316
3BN9 B V 183;3BN9 B L 199;11.1995
3BN9 B V 183;3BN9 B P 225;6.17392
3BN9 B V 183;3BN9 B G 226;11.9303
3BN9 B V 183;3BN9 B Y 228;19.3071
3BN9 B G 184;3BN9 B F 184a;29.641
3BN9 B G 184;3BN9 B V 188;6.07542
3BN9 B G 184;3BN9 B D 189;1.36694
3BN9 B G 184;3BN9 B P 225;6.74301
3BN9 B G 184;3BN9 B G 226;0.0165706
3BN9 B F 184a;3BN9 B L 185;25.3209
3BN9 B F 184a;3BN9 B S 186;13.553
3BN9 B F 184a;3BN9 B G 186a;23.7161
3BN9 B F 184a;3BN9 B V 188;23.0123
3BN9 B F 184a;3BN9 B Q 221a;0.973235
3BN9 B F 184a;3BN9 B N 223;1.49007
3BN9 B F 184a;3BN9 B K 224;0.672018
3BN9 B F 184a;3BN9 B P 225;14.3354
3BN9 B L 185;3BN9 B S 186;22.7395
3BN9 B L 185;3BN9 B G 186a;3.33301
3BN9 B L 185;3BN9 B R 222;8.62567
3BN9 B L 185;3BN9 B N 223;30.5248
3BN9 B L 185;3BN9 B P 225;3.67552
3BN9 B S 186;3BN9 B G 186a;26.7028
3BN9 B S 186;3BN9 B G 187;5.90306
3BN9 B S 186;3BN9 B A 221;0.054024
3BN9 B S 186;3BN9 B R 222;22.3559
3BN9 B G 186a;3BN9 B G 187;18.9143
3BN9 B G 186a;3BN9 B V 188;11.9058
3BN9 B G 186a;3BN9 B D 189;0.270215
3BN9 B G 186a;3BN9 B A 221;8.37138
3BN9 B G 186a;3BN9 B Q 221a;9.21983
3BN9 B G 186a;3BN9 B R 222;6.19846
3BN9 B G 186a;3BN9 B N 223;0.690028
3BN9 B G 186a;3BN9 B P 225;0.982577
3BN9 B G 187;3BN9 B V 188;23.455
3BN9 B G 187;3BN9 B D 189;0.00944849
3BN9 B G 187;3BN9 B A 221;22.5074
3BN9 B V 188;3BN9 B D 189;27.1758
3BN9 B V 188;3BN9 B A 221;1.89681
3BN9 B V 188;3BN9 B P 225;0.161803
3BN9 B D 189;3BN9 B S 190;33.6578
3BN9 B D 189;3BN9 B C 191;0.0963725
3BN9 B D 189;3BN9 B G 216;0.519463
3BN9 B D 189;3BN9 B G 219;2.04976
3BN9 B D 189;3BN9 B C 220;5.46775
3BN9 B D 189;3BN9 B A 221;21.5712
3BN9 B D 189;3BN9 B K 224;8.12584
3BN9 B D 189;3BN9 B P 225;5.88064
3BN9 B D 189;3BN9 B G 226;15.6334
3BN9 B D 189;3BN9 B Y 228;2.90809
3BN9 B S 190;3BN9 B C 191;19.4415
3BN9 B S 190;3BN9 B D 194;8.17071
3BN9 B S 190;3BN9 B V 213;12.2535
3BN9 B S 190;3BN9 B W 215;1.62071
3BN9 B S 190;3BN9 B C 220;6.17179
3BN9 B S 190;3BN9 B G 226;6.32581
3BN9 B S 190;3BN9 B V 227;0.921827
3BN9 B S 190;3BN9 B Y 228;14.9758
3BN9 B C 191;3BN9 B Q 192;27.6594
3BN9 B C 191;3BN9 B G 193;1.27772
3BN9 B C 191;3BN9 B D 194;18.6581
3BN9 B C 191;3BN9 B S 195;4.27153
3BN9 B C 191;3BN9 B V 213;1.1281
3BN9 B C 191;3BN9 B C 220;19.6915
3BN9 B Q 192;3BN9 B G 193;27.4786
3BN9 B Q 192;3BN9 B D 194;1.36895
3BN9 B Q 192;3BN9 B S 195;4.44885
3BN9 B Q 192;3BN9 B C 220;0.337451
3BN9 B G 193;3BN9 B D 194;18.5902
3BN9 B G 193;3BN9 B S 195;12.5697
3BN9 B D 194;3BN9 B S 195;18.7083
3BN9 B D 194;3BN9 B G 196;0.00393396
3BN9 B D 194;3BN9 B G 197;7.84932
3BN9 B D 194;3BN9 B V 213;16.5278
3BN9 B S 195;3BN9 B G 196;14.9061
3BN9 B S 195;3BN9 B G 197;2.57918
3BN9 B S 195;3BN9 B V 213;14.1736
3BN9 B S 195;3BN9 B S 214;6.66004
3BN9 B G 196;3BN9 B G 197;19.0727
3BN9 B G 196;3BN9 B Q 209;0.521153
3BN9 B G 196;3BN9 B V 212;10.4547
3BN9 B G 196;3BN9 B V 213;8.33111
3BN9 B G 197;3BN9 B P 198;24.3208
3BN9 B G 197;3BN9 B L 199;1.2455
3BN9 B G 197;3BN9 B Q 209;2.9049
3BN9 B G 197;3BN9 B G 211;0.457975
3BN9 B G 197;3BN9 B V 212;7.28853
3BN9 B G 197;3BN9 B V 213;16.0296
3BN9 B P 198;3BN9 B L 199;19.4916
3BN9 B P 198;3BN9 B S 200;12.4529
3BN9 B P 198;3BN9 B Q 209;13.1233
3BN9 B P 198;3BN9 B G 211;0.962823
3BN9 B P 198;3BN9 B V 213;4.04479
3BN9 B L 199;3BN9 B S 200;19.5031
3BN9 B L 199;3BN9 B S 201;0.649703
3BN9 B L 199;3BN9 B F 208;0.0229664
3BN9 B L 199;3BN9 B Q 209;8.17189
3BN9 B L 199;3BN9 B A 210;16.8771
3BN9 B L 199;3BN9 B G 211;23.483
3BN9 B L 199;3BN9 B V 212;1.11377
3BN9 B L 199;3BN9 B V 213;2.4946
3BN9 B L 199;3BN9 B Y 228;23.4047
3BN9 B S 200;3BN9 B S 201;18.5017
3BN9 B S 200;3BN9 B V 202;7.41055
3BN9 B S 200;3BN9 B I 207;4.38074
3BN9 B S 200;3BN9 B F 208;2.74509
3BN9 B S 200;3BN9 B Q 209;1.16923
3BN9 B S 200;3BN9 B A 210;0.47819
3BN9 B S 201;3BN9 B V 202;21.3399
3BN9 B S 201;3BN9 B E 203;14.3693
3BN9 B S 201;3BN9 B R 206;1.09176
3BN9 B S 201;3BN9 B I 207;8.47845
3BN9 B S 201;3BN9 B F 208;21.2856
3BN9 B S 201;3BN9 B A 210;9.57975
3BN9 B V 202;3BN9 B E 203;33.8055
3BN9 B V 202;3BN9 B A 204;1.79299
3BN9 B V 202;3BN9 B G 205;3.02324
3BN9 B V 202;3BN9 B R 206;2.56817
3BN9 B V 202;3BN9 B I 207;28.0141
3BN9 B E 203;3BN9 B A 204;28.6965
3BN9 B E 203;3BN9 B D 204a;15.3495
3BN9 B E 203;3BN9 B G 205;10.0176
3BN9 B E 203;3BN9 B R 206;27.7718
3BN9 B E 203;3BN9 B I 207;0.00759721
3BN9 B E 203;3BN9 B F 208;15.8436
3BN9 B A 204;3BN9 B D 204a;27.4144
3BN9 B A 204;3BN9 B G 205;2.29723
3BN9 B D 204a;3BN9 B G 205;26.2818
3BN9 B D 204a;3BN9 B R 206;36.2113
3BN9 B G 205;3BN9 B R 206;24.5964
3BN9 B G 205;3BN9 B I 207;14.3871
3BN9 B R 206;3BN9 B I 207;27.6567
3BN9 B R 206;3BN9 B F 208;33.5154
3BN9 B I 207;3BN9 B F 208;24.8581
3BN9 B F 208;3BN9 B Q 209;17.2064
3BN9 B F 208;3BN9 B A 210;3.1177
3BN9 B Q 209;3BN9 B A 210;16.8399
3BN9 B Q 209;3BN9 B G 211;12.9037
3BN9 B Q 209;3BN9 B V 212;7.77644
3BN9 B Q 209;3BN9 B L 231;22.0438
3BN9 B A 210;3BN9 B G 211;17.1957
3BN9 B A 210;3BN9 B R 230;2.93184
3BN9 B A 210;3BN9 B L 231;7.91294
3BN9 B A 210;3BN9 B P 232;6.42923
3BN9 B G 211;3BN9 B V 212;20.5106
3BN9 B G 211;3BN9 B Y 228;2.61218
3BN9 B G 211;3BN9 B T 229;8.15548
3BN9 B G 211;3BN9 B R 230;0.610229
3BN9 B G 211;3BN9 B L 231;8.61908
3BN9 B V 212;3BN9 B V 213;22.4981
3BN9 B V 212;3BN9 B S 214;4.29511
3BN9 B V 212;3BN9 B Y 228;11.5493
3BN9 B V 212;3BN9 B T 229;24.7893
3BN9 B V 212;3BN9 B L 231;8.82109
3BN9 B V 213;3BN9 B S 214;25.7197
3BN9 B V 213;3BN9 B W 215;0.548807
3BN9 B V 213;3BN9 B V 227;0.952109
3BN9 B V 213;3BN9 B Y 228;17.6943
3BN9 B S 214;3BN9 B W 215;33.0255
3BN9 B S 214;3BN9 B V 227;13.0232
3BN9 B S 214;3BN9 B Y 228;6.31558
3BN9 B S 214;3BN9 B T 229;11.9473
3BN9 B W 215;3BN9 B G 216;32.9764
3BN9 B W 215;3BN9 B D 217;7.93132
3BN9 B W 215;3BN9 B G 226;3.04626
3BN9 B W 215;3BN9 B V 227;40.3996
3BN9 B G 216;3BN9 B D 217;23.3487
3BN9 B G 216;3BN9 B G 219;9.61701
3BN9 B G 216;3BN9 B K 224;0.633058
3BN9 B G 216;3BN9 B P 225;3.24548
3BN9 B G 216;3BN9 B G 226;5.57672
3BN9 B G 216;3BN9 B V 227;3.59926
3BN9 B D 217;3BN9 B G 219;23.9849
3BN9 B D 217;3BN9 B C 220;0.864607
3BN9 B D 217;3BN9 B Q 221a;5.72619
3BN9 B D 217;3BN9 B K 224;42.3922
3BN9 B D 217;3BN9 B P 225;1.37384
3BN9 B G 219;3BN9 B C 220;24.5304
3BN9 B G 219;3BN9 B Q 221a;2.19877
3BN9 B G 219;3BN9 B K 224;0.626863
3BN9 B C 220;3BN9 B A 221;24.7194
3BN9 B C 220;3BN9 B Q 221a;19.966
3BN9 B C 220;3BN9 B K 224;0.312204
3BN9 B A 221;3BN9 B Q 221a;24.7378
3BN9 B A 221;3BN9 B R 222;1.91697
3BN9 B A 221;3BN9 B K 224;1.16882
3BN9 B Q 221a;3BN9 B R 222;27.6807
3BN9 B Q 221a;3BN9 B N 223;1.66921
3BN9 B Q 221a;3BN9 B K 224;31.2542
3BN9 B Q 221a;3BN9 B P 225;0.499414
3BN9 B R 222;3BN9 B N 223;36.6201
3BN9 B R 222;3BN9 B K 224;11.9203
3BN9 B N 223;3BN9 B K 224;25.339
3BN9 B N 223;3BN9 B P 225;5.53804
3BN9 B K 224;3BN9 B P 225;30.464
3BN9 B K 224;3BN9 B G 226;0.0473471
3BN9 B P 225;3BN9 B G 226;24.2777
3BN9 B P 225;3BN9 B V 227;4.43463
3BN9 B G 226;3BN9 B V 227;19.1349
3BN9 B G 226;3BN9 B Y 228;11.6296
3BN9 B V 227;3BN9 B Y 228;26.5091
3BN9 B Y 228;3BN9 B T 229;20.6064
3BN9 B Y 228;3BN9 B R 230;2.1297
3BN9 B T 229;3BN9 B R 230;21.7631
3BN9 B T 229;3BN9 B L 231;4.74887
3BN9 B T 229;3BN9 B F 234;13.5578
3BN9 B R 230;3BN9 B L 231;17.7151
3BN9 B R 230;3BN9 B P 232;10.0672
3BN9 B R 230;3BN9 B L 233;23.7153
3BN9 B R 230;3BN9 B F 234;9.1972
3BN9 B L 231;3BN9 B P 232;22.029
3BN9 B L 231;3BN9 B L 233;1.89647
3BN9 B L 231;3BN9 B F 234;16.4178
3BN9 B L 231;3BN9 B R 235;4.30819
3BN9 B L 231;3BN9 B I 238;11.1758
3BN9 B P 232;3BN9 B L 233;25.5689
3BN9 B P 232;3BN9 B F 234;2.36445
3BN9 B P 232;3BN9 B R 235;10.3459
3BN9 B L 233;3BN9 B F 234;34.4659
3BN9 B L 233;3BN9 B R 235;2.8085
3BN9 B L 233;3BN9 B D 236;1.16823
3BN9 B L 233;3BN9 B W 237;1.28545
3BN9 B F 234;3BN9 B R 235;17.1736
3BN9 B F 234;3BN9 B D 236;2.03001
3BN9 B F 234;3BN9 B W 237;24.6226
3BN9 B F 234;3BN9 B I 238;15.7386
3BN9 B R 235;3BN9 B D 236;30.2169
3BN9 B R 235;3BN9 B W 237;0.816469
3BN9 B R 235;3BN9 B I 238;17.7133
3BN9 B R 235;3BN9 B K 239;24.5366
3BN9 B R 235;3BN9 B V 244;18.915
3BN9 B D 236;3BN9 B W 237;21.9379
3BN9 B D 236;3BN9 B I 238;0.759489
3BN9 B D 236;3BN9 B K 239;12.2793
3BN9 B D 236;3BN9 B E 240;24.8882
3BN9 B W 237;3BN9 B I 238;25.139
3BN9 B W 237;3BN9 B K 239;0.459959
3BN9 B W 237;3BN9 B E 240;17.1227
3BN9 B W 237;3BN9 B N 241;30.6679
3BN9 B I 238;3BN9 B K 239;17.4657
3BN9 B I 238;3BN9 B E 240;1.14597
3BN9 B I 238;3BN9 B N 241;2.72466
3BN9 B I 238;3BN9 B T 242;20.541
3BN9 B I 238;3BN9 B G 243;0.756481
3BN9 B I 238;3BN9 B V 244;6.06783
3BN9 B K 239;3BN9 B E 240;26.5185
3BN9 B K 239;3BN9 B N 241;0.828806
3BN9 B K 239;3BN9 B T 242;1.92128
3BN9 B K 239;3BN9 B G 243;30.3974
3BN9 B K 239;3BN9 B V 244;23.0741
3BN9 B E 240;3BN9 B N 241;34.3137
3BN9 B E 240;3BN9 B T 242;1.10684
3BN9 B E 240;3BN9 B G 243;0.833968
3BN9 B N 241;3BN9 B T 242;25.5359
3BN9 B N 241;3BN9 B G 243;0.0453476
3BN9 B T 242;3BN9 B G 243;26.1239
3BN9 B T 242;3BN9 B V 244;17.9851
3BN9 B G 243;3BN9 B V 244;24.6172
