V1;V2;Weight
3NPS A V 16;3NPS A V 17;21.4668
3NPS A V 16;3NPS A G 18;1.18551
3NPS A V 16;3NPS A G 19;12.7209
3NPS A V 16;3NPS A V 138;18.6118
3NPS A V 16;3NPS A T 139;5.43346
3NPS A V 16;3NPS A G 140;8.80034
3NPS A V 16;3NPS A G 142;10.6003
3NPS A V 16;3NPS A H 143;8.49963
3NPS A V 16;3NPS A T 144;13.7416
3NPS A V 16;3NPS A Q 156;22.4389
3NPS A V 16;3NPS A K 157;4.38151
3NPS A V 16;3NPS A G 158;8.31029
3NPS A V 16;3NPS A V 188;3.28447
3NPS A V 16;3NPS A D 189;8.58423
3NPS A V 16;3NPS A S 190;4.58868
3NPS A V 16;3NPS A C 191;3.52727
3NPS A V 16;3NPS A D 194;17.6586
3NPS A V 17;3NPS A G 18;21.3662
3NPS A V 17;3NPS A G 19;3.17235
3NPS A V 17;3NPS A H 143;5.44743
3NPS A V 17;3NPS A T 144;11.3095
3NPS A V 17;3NPS A Q 145;18.0684
3NPS A V 17;3NPS A Y 146;10.0428
3NPS A V 17;3NPS A G 187;8.30836
3NPS A V 17;3NPS A V 188;8.34617
3NPS A V 17;3NPS A D 189;17.5621
3NPS A V 17;3NPS A S 190;0.687997
3NPS A V 17;3NPS A C 191;10.2768
3NPS A V 17;3NPS A C 220;7.58572
3NPS A V 17;3NPS A A 221;17.5817
3NPS A G 18;3NPS A G 19;31.4505
3NPS A G 18;3NPS A T 144;4.37217
3NPS A G 18;3NPS A Q 145;3.64749
3NPS A G 18;3NPS A G 158;0.587232
3NPS A G 18;3NPS A E 159;0.0685419
3NPS A G 18;3NPS A G 187;9.89759
3NPS A G 18;3NPS A V 188;19.6473
3NPS A G 19;3NPS A T 20;28.7267
3NPS A G 19;3NPS A Q 156;8.62359
3NPS A G 19;3NPS A K 157;7.3135
3NPS A G 19;3NPS A G 158;6.19787
3NPS A G 19;3NPS A V 188;0.876051
3NPS A T 20;3NPS A D 21;33.8565
3NPS A T 20;3NPS A A 22;1.36429
3NPS A T 20;3NPS A W 137;0.967658
3NPS A T 20;3NPS A Q 156;16.4604
3NPS A T 20;3NPS A K 157;34.8042
3NPS A D 21;3NPS A A 22;25.9659
3NPS A D 21;3NPS A D 23;3.40984
3NPS A D 21;3NPS A I 154;28.0729
3NPS A D 21;3NPS A L 155;2.85458
3NPS A D 21;3NPS A Q 156;18.6868
3NPS A D 21;3NPS A K 157;8.76305
3NPS A A 22;3NPS A D 23;28.3656
3NPS A A 22;3NPS A E 24;0.64127
3NPS A A 22;3NPS A E 26;4.92403
3NPS A A 22;3NPS A W 27;11.8415
3NPS A A 22;3NPS A H 71;14.4854
3NPS A A 22;3NPS A T 139;0.315764
3NPS A A 22;3NPS A I 154;3.5356
3NPS A A 22;3NPS A L 155;22.6016
3NPS A A 22;3NPS A Q 156;3.15896
3NPS A A 22;3NPS A K 157;11.919
3NPS A D 23;3NPS A E 24;29.414
3NPS A D 23;3NPS A G 25;2.78001
3NPS A D 23;3NPS A E 26;35.9001
3NPS A D 23;3NPS A W 27;0.353471
3NPS A D 23;3NPS A H 71;3.87255
3NPS A D 23;3NPS A K 157;10.1622
3NPS A E 24;3NPS A G 25;23.5995
3NPS A E 24;3NPS A E 26;3.5459
3NPS A E 24;3NPS A H 71;37.4803
3NPS A E 24;3NPS A M 117;17.2145
3NPS A G 25;3NPS A E 26;23.2657
3NPS A G 25;3NPS A W 27;3.60326
3NPS A G 25;3NPS A P 28;17.4011
3NPS A G 25;3NPS A H 71;1.55067
3NPS A G 25;3NPS A S 116;10.9938
3NPS A G 25;3NPS A M 117;21.6563
3NPS A E 26;3NPS A W 27;48.6466
3NPS A E 26;3NPS A P 28;6.64868
3NPS A E 26;3NPS A W 29;6.57039
3NPS A E 26;3NPS A K 157;19.5449
3NPS A E 26;3NPS A I 207;1.10293
3NPS A W 27;3NPS A P 28;22.3952
3NPS A W 27;3NPS A W 29;27.6803
3NPS A W 27;3NPS A Q 30;18.542
3NPS A W 27;3NPS A W 137;26.6525
3NPS A W 27;3NPS A T 139;24.3509
3NPS A W 27;3NPS A L 155;16.0796
3NPS A W 27;3NPS A K 157;15.7997
3NPS A W 27;3NPS A S 200;14.9405
3NPS A W 27;3NPS A V 202;5.50518
3NPS A W 27;3NPS A I 207;5.20482
3NPS A P 28;3NPS A W 29;36.1337
3NPS A P 28;3NPS A Q 30;5.96309
3NPS A P 28;3NPS A V 31;0.390329
3NPS A P 28;3NPS A L 46;3.50702
3NPS A P 28;3NPS A L 68;0.186824
3NPS A P 28;3NPS A G 69;3.11645
3NPS A P 28;3NPS A S 116;6.82111
3NPS A P 28;3NPS A M 117;18.0563
3NPS A P 28;3NPS A V 118;8.38384
3NPS A P 28;3NPS A R 119;31.8605
3NPS A W 29;3NPS A Q 30;23.9072
3NPS A W 29;3NPS A V 31;6.6203
3NPS A W 29;3NPS A A 44;0.637131
3NPS A W 29;3NPS A S 45;10.4095
3NPS A W 29;3NPS A L 46;17.006
3NPS A W 29;3NPS A R 119;15.1291
3NPS A W 29;3NPS A P 120;10.05
3NPS A W 29;3NPS A I 121;31.4527
3NPS A W 29;3NPS A T 139;0.681912
3NPS A W 29;3NPS A P 198;11.8529
3NPS A W 29;3NPS A S 200;10.4004
3NPS A W 29;3NPS A I 207;29.2093
3NPS A Q 30;3NPS A V 31;29.3404
3NPS A Q 30;3NPS A G 43;7.20471
3NPS A Q 30;3NPS A A 44;6.06332
3NPS A Q 30;3NPS A S 45;0.122376
3NPS A Q 30;3NPS A F 67;0.941568
3NPS A Q 30;3NPS A L 68;2.1544
3NPS A Q 30;3NPS A G 69;7.50891
3NPS A Q 30;3NPS A L 70;5.93818
3NPS A Q 30;3NPS A T 139;17.8539
3NPS A Q 30;3NPS A G 140;6.40795
3NPS A Q 30;3NPS A W 141;19.2337
3NPS A Q 30;3NPS A L 155;16.6764
3NPS A Q 30;3NPS A G 197;3.75605
3NPS A Q 30;3NPS A P 198;17.4757
3NPS A V 31;3NPS A S 32;23.5853
3NPS A V 31;3NPS A L 33;0.513612
3NPS A V 31;3NPS A L 33;4.28756
3NPS A V 31;3NPS A H 40;0.0266221
3NPS A V 31;3NPS A G 43;6.20711
3NPS A V 31;3NPS A A 44;22.7286
3NPS A V 31;3NPS A S 45;3.6942
3NPS A V 31;3NPS A L 46;10.4729
3NPS A V 31;3NPS A L 52;16.4379
3NPS A V 31;3NPS A A 66;7.3703
3NPS A V 31;3NPS A F 67;11.6382
3NPS A V 31;3NPS A L 68;0.0509814
3NPS A V 31;3NPS A L 68;18.2996
3NPS A V 31;3NPS A W 141;6.60234
3NPS A S 32;3NPS A L 33;13.6427
3NPS A S 32;3NPS A L 33;6.57495
3NPS A S 32;3NPS A H 34;11.9738
3NPS A S 32;3NPS A H 40;11.7824
3NPS A S 32;3NPS A C 42;1.50186
3NPS A S 32;3NPS A G 43;0.950506
3NPS A S 32;3NPS A T 65;1.3049
3NPS A S 32;3NPS A A 66;3.2026
3NPS A S 32;3NPS A F 67;22.0242
3NPS A S 32;3NPS A L 70;9.08056
3NPS A S 32;3NPS A Q 73;6.86282
3NPS A S 32;3NPS A W 141;13.3231
3NPS A L 33;3NPS A H 34;14.7393
3NPS A L 33;3NPS A A 35;0.0411894
3NPS A L 33;3NPS A H 40;4.95792
3NPS A L 33;3NPS A I 41;7.57368
3NPS A L 33;3NPS A C 42;11.2811
3NPS A L 33;3NPS A G 43;0.774641
3NPS A L 33;3NPS A A 44;0.02985
3NPS A L 33;3NPS A W 64;4.80368
3NPS A L 33;3NPS A H 34;3.72236
3NPS A L 33;3NPS A C 42;5.02424
3NPS A L 33;3NPS A C 42;5.06851
3NPS A L 33;3NPS A G 43;4.60546
3NPS A L 33;3NPS A A 44;9.65578
3NPS A L 33;3NPS A L 52;4.91509
3NPS A L 33;3NPS A S 54;0.86062
3NPS A L 33;3NPS A Y 59;12.3872
3NPS A L 33;3NPS A W 64;19.1374
3NPS A L 33;3NPS A T 65;8.14332
3NPS A L 33;3NPS A A 66;12.0206
3NPS A L 33;3NPS A L 85;11.3861
3NPS A L 33;3NPS A L 106;11.8583
3NPS A H 34;3NPS A A 35;22.7656
3NPS A H 34;3NPS A L 36;0.924212
3NPS A H 34;3NPS A G 39;21.2596
3NPS A H 34;3NPS A H 40;15.2352
3NPS A H 34;3NPS A I 41;0.547121
3NPS A H 34;3NPS A Q 63;0.403533
3NPS A H 34;3NPS A W 64;11.9913
3NPS A H 34;3NPS A T 65;24.7102
3NPS A H 34;3NPS A F 67;21.0734
3NPS A H 34;3NPS A L 70;1.97685
3NPS A H 34;3NPS A Q 73;10.0492
3NPS A H 34;3NPS A R 76;21.031
3NPS A A 35;3NPS A L 36;20.8334
3NPS A A 35;3NPS A G 37;2.79154
3NPS A A 35;3NPS A Q 38;17.5423
3NPS A A 35;3NPS A G 39;10.2958
3NPS A A 35;3NPS A I 41;10.6372
3NPS A A 35;3NPS A F 60e;8.24869
3NPS A A 35;3NPS A Y 60g;7.66521
3NPS A A 35;3NPS A Q 63;6.03747
3NPS A A 35;3NPS A W 64;14.878
3NPS A L 36;3NPS A G 37;29.0211
3NPS A L 36;3NPS A Q 38;10.7039
3NPS A L 36;3NPS A F 60e;20.4516
3NPS A L 36;3NPS A T 62;10.0219
3NPS A L 36;3NPS A Q 63;35.1973
3NPS A L 36;3NPS A W 64;0.706348
3NPS A L 36;3NPS A T 65;8.97506
3NPS A G 37;3NPS A Q 38;30.8513
3NPS A G 37;3NPS A G 39;0.79784
3NPS A Q 38;3NPS A G 39;31.2077
3NPS A Q 38;3NPS A H 40;4.31572
3NPS A Q 38;3NPS A I 41;22.7124
3NPS A Q 38;3NPS A F 60e;16.7924
3NPS A Q 38;3NPS A Y 60g;19.8076
3NPS A G 39;3NPS A H 40;20.9094
3NPS A G 39;3NPS A I 41;6.55458
3NPS A G 39;3NPS A R 76;3.29614
3NPS A H 40;3NPS A I 41;31.8403
3NPS A H 40;3NPS A C 42;10.1487
3NPS A H 40;3NPS A C 42;0.919137
3NPS A H 40;3NPS A G 43;5.62181
3NPS A H 40;3NPS A Q 73;16.831
3NPS A H 40;3NPS A G 140;0.0465519
3NPS A H 40;3NPS A W 141;27.0461
3NPS A H 40;3NPS A G 142;0.16538
3NPS A H 40;3NPS A G 193;17.5425
3NPS A I 41;3NPS A C 42;13.0459
3NPS A I 41;3NPS A C 42;16.9832
3NPS A I 41;3NPS A C 58;2.02322
3NPS A I 41;3NPS A Y 60g;13.5886
3NPS A I 41;3NPS A W 64;14.4063
3NPS A I 41;3NPS A G 193;14.2119
3NPS A I 41;3NPS A S 195;1.43834
3NPS A C 42;3NPS A G 43;15.0408
3NPS A C 42;3NPS A W 64;0.387843
3NPS A C 42;3NPS A G 193;0.2076
3NPS A C 42;3NPS A G 43;7.28339
3NPS A C 42;3NPS A S 54;0.897001
3NPS A C 42;3NPS A C 58;20.303
3NPS A C 42;3NPS A Y 59;5.59948
3NPS A C 42;3NPS A W 64;5.3947
3NPS A C 42;3NPS A G 193;2.80715
3NPS A C 42;3NPS A S 195;13.64
3NPS A C 42;3NPS A G 196;0.268353
3NPS A G 43;3NPS A A 44;16.874
3NPS A G 43;3NPS A S 54;6.41364
3NPS A G 43;3NPS A Y 59;0.564373
3NPS A G 43;3NPS A G 140;0.00115804
3NPS A G 43;3NPS A W 141;0.721427
3NPS A G 43;3NPS A G 193;3.44844
3NPS A G 43;3NPS A D 194;4.10017
3NPS A G 43;3NPS A S 195;7.13821
3NPS A G 43;3NPS A G 196;7.24714
3NPS A G 43;3NPS A G 197;8.06315
3NPS A A 44;3NPS A S 45;19.3038
3NPS A A 44;3NPS A L 52;10.8124
3NPS A A 44;3NPS A V 53;6.03206
3NPS A A 44;3NPS A S 54;7.21646
3NPS A A 44;3NPS A L 106;2.63442
3NPS A A 44;3NPS A G 196;5.58186
3NPS A A 44;3NPS A G 197;4.5096
3NPS A A 44;3NPS A P 198;6.70648
3NPS A S 45;3NPS A L 46;16.4258
3NPS A S 45;3NPS A I 47;8.34784
3NPS A S 45;3NPS A L 52;9.99281
3NPS A S 45;3NPS A V 53;21.5303
3NPS A S 45;3NPS A I 121;6.7602
3NPS A S 45;3NPS A G 196;0.738486
3NPS A S 45;3NPS A G 197;0.124867
3NPS A S 45;3NPS A P 198;12.9497
3NPS A S 45;3NPS A Q 209;13.3505
3NPS A L 46;3NPS A I 47;18.6934
3NPS A L 46;3NPS A S 48;13.4334
3NPS A L 46;3NPS A P 49;1.23399
3NPS A L 46;3NPS A W 51;5.4549
3NPS A L 46;3NPS A L 52;13.86
3NPS A L 46;3NPS A L 68;9.03926
3NPS A L 46;3NPS A L 108;6.04405
3NPS A L 46;3NPS A A 112;10.053
3NPS A L 46;3NPS A Y 114;9.40868
3NPS A L 46;3NPS A V 118;10.8892
3NPS A L 46;3NPS A R 119;10.4132
3NPS A L 46;3NPS A P 120;13.7584
3NPS A L 46;3NPS A I 121;9.01558
3NPS A I 47;3NPS A S 48;24.2781
3NPS A I 47;3NPS A W 51;19.6648
3NPS A I 47;3NPS A L 52;5.05952
3NPS A I 47;3NPS A V 53;18.4973
3NPS A I 47;3NPS A L 105;4.47529
3NPS A I 47;3NPS A P 120;11.6482
3NPS A I 47;3NPS A I 121;18.3823
3NPS A I 47;3NPS A L 123;20.2236
3NPS A I 47;3NPS A Q 209;3.15116
3NPS A I 47;3NPS A I 238;8.94282
3NPS A I 47;3NPS A T 242;4.15474
3NPS A I 47;3NPS A V 244;23.2892
3NPS A S 48;3NPS A P 49;28.2149
3NPS A S 48;3NPS A N 50;11.035
3NPS A S 48;3NPS A W 51;18.8649
3NPS A S 48;3NPS A Y 114;10.5248
3NPS A S 48;3NPS A P 120;3.51027
3NPS A S 48;3NPS A V 244;18.9358
3NPS A P 49;3NPS A N 50;31.7426
3NPS A P 49;3NPS A W 51;0.17618
3NPS A P 49;3NPS A L 108;6.4184
3NPS A P 49;3NPS A P 111;16.3942
3NPS A P 49;3NPS A A 112;20.8442
3NPS A P 49;3NPS A Y 114;24.8099
3NPS A N 50;3NPS A W 51;34.2148
3NPS A N 50;3NPS A L 106;0.594723
3NPS A N 50;3NPS A E 107;13.9326
3NPS A N 50;3NPS A L 108;22.6994
3NPS A N 50;3NPS A K 110;0.0233526
3NPS A N 50;3NPS A P 111;18.0447
3NPS A W 51;3NPS A L 52;23.8008
3NPS A W 51;3NPS A R 87;6.27727
3NPS A W 51;3NPS A I 89;15.1758
3NPS A W 51;3NPS A L 105;15.1652
3NPS A W 51;3NPS A L 106;11.303
3NPS A W 51;3NPS A E 107;35.7603
3NPS A W 51;3NPS A L 108;3.38779
3NPS A W 51;3NPS A N 241;9.18954
3NPS A W 51;3NPS A T 242;36.8267
3NPS A W 51;3NPS A V 244;8.35988
3NPS A L 52;3NPS A V 53;20.4904
3NPS A L 52;3NPS A S 54;0.219073
3NPS A L 52;3NPS A A 66;6.89993
3NPS A L 52;3NPS A L 68;3.60682
3NPS A L 52;3NPS A L 85;3.59002
3NPS A L 52;3NPS A A 104;0.27823
3NPS A L 52;3NPS A L 105;8.54348
3NPS A L 52;3NPS A L 106;33.4538
3NPS A L 52;3NPS A L 108;19.6347
3NPS A V 53;3NPS A S 54;23.4118
3NPS A V 53;3NPS A I 103;9.92694
3NPS A V 53;3NPS A A 104;5.05679
3NPS A V 53;3NPS A L 105;11.782
3NPS A V 53;3NPS A L 106;0.142573
3NPS A V 53;3NPS A L 123;5.15908
3NPS A V 53;3NPS A G 196;3.74507
3NPS A V 53;3NPS A Q 209;8.56385
3NPS A V 53;3NPS A V 212;10.2483
3NPS A V 53;3NPS A L 231;9.09421
3NPS A V 53;3NPS A I 238;6.39823
3NPS A S 54;3NPS A A 55;18.871
3NPS A S 54;3NPS A C 58;2.85812
3NPS A S 54;3NPS A Y 59;13.7177
3NPS A S 54;3NPS A D 102;0.16829
3NPS A S 54;3NPS A I 103;6.78248
3NPS A S 54;3NPS A A 104;16.3501
3NPS A S 54;3NPS A L 106;11.7628
3NPS A S 54;3NPS A G 196;10.3721
3NPS A S 54;3NPS A V 212;9.57164
3NPS A A 55;3NPS A A 56;14.3377
3NPS A A 55;3NPS A H 57;12.2271
3NPS A A 55;3NPS A C 58;13.5219
3NPS A A 55;3NPS A Y 59;8.64235
3NPS A A 55;3NPS A D 102;13.9256
3NPS A A 55;3NPS A I 103;1.8816
3NPS A A 55;3NPS A A 104;3.49859
3NPS A A 55;3NPS A S 195;0.228474
3NPS A A 55;3NPS A G 196;10.8664
3NPS A A 55;3NPS A V 212;8.36267
3NPS A A 55;3NPS A V 213;4.66095
3NPS A A 55;3NPS A S 214;1.57457
3NPS A A 56;3NPS A H 57;13.7225
3NPS A A 56;3NPS A C 58;2.22457
3NPS A A 56;3NPS A Y 59;12.3577
3NPS A A 56;3NPS A I 60;9.53413
3NPS A A 56;3NPS A S 90;14.3732
3NPS A A 56;3NPS A H 91;1.93161
3NPS A A 56;3NPS A F 94;17.6781
3NPS A A 56;3NPS A Y 101;1.40787
3NPS A A 56;3NPS A D 102;8.10549
3NPS A A 56;3NPS A I 103;13.4477
3NPS A A 56;3NPS A A 104;7.64367
3NPS A H 57;3NPS A C 58;26.5519
3NPS A H 57;3NPS A Y 59;2.17069
3NPS A H 57;3NPS A I 60;18.3557
3NPS A H 57;3NPS A F 94;12.0001
3NPS A H 57;3NPS A F 99;25.2323
3NPS A H 57;3NPS A D 102;14.9529
3NPS A H 57;3NPS A S 195;15.2431
3NPS A H 57;3NPS A G 196;0.10911
3NPS A H 57;3NPS A V 213;1.98149
3NPS A H 57;3NPS A S 214;12.7559
3NPS A C 58;3NPS A Y 59;29.2422
3NPS A C 58;3NPS A I 60;2.85274
3NPS A C 58;3NPS A Y 60g;10.4854
3NPS A C 58;3NPS A W 64;9.52944
3NPS A C 58;3NPS A S 195;6.81561
3NPS A C 58;3NPS A G 196;3.79624
3NPS A Y 59;3NPS A I 60;25.4014
3NPS A Y 59;3NPS A Y 60g;12.1511
3NPS A Y 59;3NPS A S 60h;17.5423
3NPS A Y 59;3NPS A W 64;19.5081
3NPS A Y 59;3NPS A L 85;2.6151
3NPS A Y 59;3NPS A I 88;24.1189
3NPS A Y 59;3NPS A S 90;7.16306
3NPS A Y 59;3NPS A A 104;7.35397
3NPS A Y 59;3NPS A L 106;16.0043
3NPS A I 60;3NPS A D 60a;37.7712
3NPS A I 60;3NPS A D 60b;2.3887
3NPS A I 60;3NPS A Y 60g;15.5541
3NPS A I 60;3NPS A S 60h;3.7561
3NPS A I 60;3NPS A S 90;7.34426
3NPS A I 60;3NPS A F 94;19.5996
3NPS A I 60;3NPS A D 96;20.3053
3NPS A D 60a;3NPS A D 60b;32.4661
3NPS A D 60a;3NPS A F 60e;4.42422
3NPS A D 60a;3NPS A R 60f;30.7656
3NPS A D 60a;3NPS A Y 60g;6.12663
3NPS A D 60a;3NPS A S 60h;22.317
3NPS A D 60a;3NPS A D 60i;0.0814642
3NPS A D 60b;3NPS A R 60c;35.0028
3NPS A D 60b;3NPS A G 60d;9.68485
3NPS A D 60b;3NPS A F 60e;23.4466
3NPS A D 60b;3NPS A R 60f;0.644937
3NPS A D 60b;3NPS A Y 60g;22.0461
3NPS A R 60c;3NPS A G 60d;27.7161
3NPS A R 60c;3NPS A F 60e;1.49549
3NPS A G 60d;3NPS A F 60e;33.8131
3NPS A F 60e;3NPS A R 60f;30.3394
3NPS A F 60e;3NPS A Y 60g;36.0844
3NPS A F 60e;3NPS A Q 63;27.3111
3NPS A F 60e;3NPS A W 64;1.06724
3NPS A R 60f;3NPS A Y 60g;14.6424
3NPS A R 60f;3NPS A S 60h;15.6806
3NPS A R 60f;3NPS A D 60i;36.5892
3NPS A R 60f;3NPS A Q 63;16.7368
3NPS A R 60f;3NPS A W 64;0.0862832
3NPS A Y 60g;3NPS A S 60h;14.8796
3NPS A Y 60g;3NPS A D 60i;3.78666
3NPS A Y 60g;3NPS A Q 63;0.720201
3NPS A Y 60g;3NPS A W 64;25.8263
3NPS A Y 60g;3NPS A I 88;3.30101
3NPS A S 60h;3NPS A D 60i;19.2785
3NPS A S 60h;3NPS A P 61;8.46329
3NPS A S 60h;3NPS A I 88;13.4982
3NPS A D 60i;3NPS A P 61;25.9988
3NPS A D 60i;3NPS A T 62;24.9883
3NPS A D 60i;3NPS A Q 63;21.327
3NPS A D 60i;3NPS A W 64;6.26658
3NPS A D 60i;3NPS A I 88;1.57152
3NPS A P 61;3NPS A T 62;26.5224
3NPS A P 61;3NPS A Q 63;2.3927
3NPS A P 61;3NPS A W 64;14.7321
3NPS A P 61;3NPS A L 85;26.6566
3NPS A P 61;3NPS A K 86;11.2076
3NPS A P 61;3NPS A R 87;9.85528
3NPS A P 61;3NPS A I 88;19.9385
3NPS A T 62;3NPS A Q 63;29.7349
3NPS A T 62;3NPS A W 64;8.57793
3NPS A T 62;3NPS A L 85;4.10672
3NPS A Q 63;3NPS A W 64;29.1369
3NPS A W 64;3NPS A T 65;28.2222
3NPS A W 64;3NPS A R 84;9.84187
3NPS A W 64;3NPS A L 85;19.7013
3NPS A W 64;3NPS A I 88;6.97779
3NPS A T 65;3NPS A A 66;22.4801
3NPS A T 65;3NPS A F 67;22.2537
3NPS A T 65;3NPS A E 82;9.14104
3NPS A T 65;3NPS A R 83;11.5607
3NPS A T 65;3NPS A R 84;6.57577
3NPS A T 65;3NPS A L 85;0.871386
3NPS A A 66;3NPS A F 67;18.549
3NPS A A 66;3NPS A L 68;10.1142
3NPS A A 66;3NPS A Q 81;0.903306
3NPS A A 66;3NPS A E 82;4.40779
3NPS A A 66;3NPS A R 83;20.1819
3NPS A A 66;3NPS A L 85;8.65186
3NPS A A 66;3NPS A L 108;6.71867
3NPS A F 67;3NPS A L 68;12.3349
3NPS A F 67;3NPS A L 68;7.63461
3NPS A F 67;3NPS A G 69;0.124499
3NPS A F 67;3NPS A L 70;19.9379
3NPS A F 67;3NPS A R 76;30.3457
3NPS A F 67;3NPS A V 80;13.1633
3NPS A F 67;3NPS A Q 81;4.76755
3NPS A F 67;3NPS A E 82;0.0225224
3NPS A F 67;3NPS A E 82;22.2058
3NPS A F 67;3NPS A W 141;0.134024
3NPS A L 68;3NPS A G 69;11.9246
3NPS A L 68;3NPS A L 70;5.16185
3NPS A L 68;3NPS A G 79;0.903888
3NPS A L 68;3NPS A V 80;7.36663
3NPS A L 68;3NPS A Q 81;11.5144
3NPS A L 68;3NPS A V 118;2.46611
3NPS A L 68;3NPS A G 69;7.32338
3NPS A L 68;3NPS A L 70;5.8974e-06
3NPS A L 68;3NPS A Q 81;20.6564
3NPS A L 68;3NPS A E 82;0.0973971
3NPS A L 68;3NPS A R 83;15.6811
3NPS A L 68;3NPS A L 108;10.3274
3NPS A L 68;3NPS A A 112;11.8891
3NPS A L 68;3NPS A V 118;15.1763
3NPS A G 69;3NPS A L 70;22.7193
3NPS A G 69;3NPS A H 71;2.56578
3NPS A G 69;3NPS A P 78;0.831384
3NPS A G 69;3NPS A G 79;6.00067
3NPS A G 69;3NPS A V 80;11.3127
3NPS A G 69;3NPS A M 117;31.6967
3NPS A G 69;3NPS A V 118;9.29038
3NPS A L 70;3NPS A H 71;25.8737
3NPS A L 70;3NPS A D 72;13.6389
3NPS A L 70;3NPS A Q 73;15.2463
3NPS A L 70;3NPS A Q 75;6.24011
3NPS A L 70;3NPS A R 76;15.7946
3NPS A L 70;3NPS A A 77a;0.00619009
3NPS A L 70;3NPS A V 80;17.7516
3NPS A L 70;3NPS A M 117;2.07887
3NPS A L 70;3NPS A W 141;24.3938
3NPS A L 70;3NPS A L 155;5.66941
3NPS A H 71;3NPS A D 72;30.6493
3NPS A H 71;3NPS A Q 75;0.450436
3NPS A H 71;3NPS A V 80;1.29704
3NPS A H 71;3NPS A M 117;13.0729
3NPS A H 71;3NPS A W 141;8.15509
3NPS A H 71;3NPS A L 153;0.885411
3NPS A H 71;3NPS A I 154;29.6863
3NPS A H 71;3NPS A L 155;17.2199
3NPS A D 72;3NPS A Q 73;16.5452
3NPS A D 72;3NPS A S 74;18.4283
3NPS A D 72;3NPS A Q 75;40.1567
3NPS A D 72;3NPS A R 76;0.932947
3NPS A D 72;3NPS A W 141;0.603017
3NPS A D 72;3NPS A L 153;14.9468
3NPS A D 72;3NPS A I 154;18.3775
3NPS A Q 73;3NPS A S 74;22.1266
3NPS A Q 73;3NPS A Q 75;2.59895
3NPS A Q 73;3NPS A R 76;30.7086
3NPS A Q 73;3NPS A W 141;23.7755
3NPS A Q 73;3NPS A A 152;6.15336
3NPS A Q 73;3NPS A L 153;22.2232
3NPS A S 74;3NPS A Q 75;31.133
3NPS A S 74;3NPS A R 76;2.70585
3NPS A S 74;3NPS A L 153;24.8418
3NPS A Q 75;3NPS A R 76;19.4259
3NPS A Q 75;3NPS A S 77;4.51442
3NPS A Q 75;3NPS A A 77a;28.2894
3NPS A Q 75;3NPS A V 80;3.58345
3NPS A R 76;3NPS A S 77;29.3389
3NPS A R 76;3NPS A A 77a;0.792588
3NPS A R 76;3NPS A V 80;17.2424
3NPS A R 76;3NPS A E 82;4.26334
3NPS A S 77;3NPS A A 77a;29.0148
3NPS A S 77;3NPS A P 78;5.47172
3NPS A S 77;3NPS A V 80;2.77735
3NPS A S 77;3NPS A E 82;0.377317
3NPS A A 77a;3NPS A P 78;39.1444
3NPS A A 77a;3NPS A G 79;1.82157
3NPS A A 77a;3NPS A V 80;24.7375
3NPS A P 78;3NPS A G 79;27.4992
3NPS A P 78;3NPS A V 80;4.5455
3NPS A P 78;3NPS A M 117;6.79949
3NPS A G 79;3NPS A V 80;23.6373
3NPS A G 79;3NPS A Q 81;10.9055
3NPS A G 79;3NPS A S 115;5.46589
3NPS A G 79;3NPS A M 117;14.227
3NPS A G 79;3NPS A V 118;6.12935
3NPS A V 80;3NPS A Q 81;29.0351
3NPS A V 80;3NPS A E 82;2.93065
3NPS A V 80;3NPS A E 82;1.85668
3NPS A Q 81;3NPS A E 82;16.9507
3NPS A Q 81;3NPS A E 82;5.52306
3NPS A Q 81;3NPS A R 83;21.9985
3NPS A Q 81;3NPS A A 112;3.59834
3NPS A Q 81;3NPS A E 113;24.7753
3NPS A Q 81;3NPS A S 115;5.98529
3NPS A Q 81;3NPS A V 118;14.6929
3NPS A E 82;3NPS A R 83;35.5763
3NPS A E 82;3NPS A R 83;4.28309
3NPS A R 83;3NPS A R 84;33.7959
3NPS A R 83;3NPS A L 85;1.23702
3NPS A R 83;3NPS A L 108;15.9957
3NPS A R 83;3NPS A E 109;0.216358
3NPS A R 83;3NPS A K 110;27.2914
3NPS A R 83;3NPS A P 111;12.3945
3NPS A R 83;3NPS A A 112;5.48616
3NPS A R 83;3NPS A E 113;11.4537
3NPS A R 84;3NPS A L 85;29.4198
3NPS A R 84;3NPS A L 108;5.97399
3NPS A R 84;3NPS A E 109;46.7505
3NPS A R 84;3NPS A K 110;8.80073
3NPS A L 85;3NPS A K 86;21.4201
3NPS A L 85;3NPS A R 87;6.39661
3NPS A L 85;3NPS A I 88;11.3447
3NPS A L 85;3NPS A L 106;18.8936
3NPS A L 85;3NPS A E 107;9.38484
3NPS A L 85;3NPS A L 108;10.9042
3NPS A L 85;3NPS A E 109;5.65362
3NPS A K 86;3NPS A R 87;28.324
3NPS A K 86;3NPS A E 107;39.626
3NPS A K 86;3NPS A L 108;9.84642
3NPS A K 86;3NPS A E 109;28.6314
3NPS A R 87;3NPS A I 88;32.763
3NPS A R 87;3NPS A I 89;32.7018
3NPS A R 87;3NPS A L 105;1.64422
3NPS A R 87;3NPS A L 106;4.68025
3NPS A R 87;3NPS A E 107;31.793
3NPS A I 88;3NPS A I 89;24.7744
3NPS A I 88;3NPS A S 90;5.82464
3NPS A I 88;3NPS A S 90;8.56836
3NPS A I 88;3NPS A A 104;5.00665
3NPS A I 88;3NPS A L 105;4.37538
3NPS A I 88;3NPS A L 106;12.9021
3NPS A I 89;3NPS A S 90;22.1842
3NPS A I 89;3NPS A S 90;5.08785
3NPS A I 89;3NPS A H 91;0.101041
3NPS A I 89;3NPS A P 92;1.49692
3NPS A I 89;3NPS A A 104;6.3185
3NPS A I 89;3NPS A L 105;28.1056
3NPS A I 89;3NPS A W 237;14.7502
3NPS A I 89;3NPS A N 241;29.0871
3NPS A I 89;3NPS A T 242;0.250783
3NPS A S 90;3NPS A H 91;15.9943
3NPS A S 90;3NPS A P 92;9.75792
3NPS A S 90;3NPS A W 237;2.54288
3NPS A S 90;3NPS A H 91;8.03838
3NPS A S 90;3NPS A F 94;3.97691
3NPS A S 90;3NPS A I 103;1.43937
3NPS A S 90;3NPS A A 104;9.28192
3NPS A H 91;3NPS A P 92;31.9458
3NPS A H 91;3NPS A F 93;21.3928
3NPS A H 91;3NPS A F 94;18.4668
3NPS A H 91;3NPS A Y 101;21.9308
3NPS A H 91;3NPS A I 103;18.676
3NPS A H 91;3NPS A A 104;0.103052
3NPS A H 91;3NPS A F 234;14.9092
3NPS A H 91;3NPS A W 237;30.8597
3NPS A P 92;3NPS A F 93;40.6031
3NPS A P 92;3NPS A F 94;5.71286
3NPS A P 92;3NPS A W 237;16.9012
3NPS A F 93;3NPS A F 94;21.1657
3NPS A F 93;3NPS A N 95;8.44745
3NPS A F 93;3NPS A D 100;2.15079
3NPS A F 93;3NPS A Y 101;38.5695
3NPS A F 94;3NPS A N 95;28.8193
3NPS A F 94;3NPS A D 96;18.9753
3NPS A F 94;3NPS A F 99;16.825
3NPS A F 94;3NPS A D 100;7.44811
3NPS A F 94;3NPS A Y 101;13.4553
3NPS A F 94;3NPS A D 102;11.9017
3NPS A N 95;3NPS A D 96;21.9748
3NPS A N 95;3NPS A F 97;14.2835
3NPS A N 95;3NPS A T 98;22.3908
3NPS A N 95;3NPS A F 99;9.42307
3NPS A N 95;3NPS A D 100;16.0636
3NPS A D 96;3NPS A F 97;20.7308
3NPS A D 96;3NPS A T 98;0.151672
3NPS A D 96;3NPS A F 99;11.5164
3NPS A F 97;3NPS A T 98;31.2582
3NPS A F 97;3NPS A F 99;3.22418
3NPS A T 98;3NPS A F 99;18.8315
3NPS A T 98;3NPS A D 100;15.5148
3NPS A T 98;3NPS A Q 175;7.30332
3NPS A T 98;3NPS A T 177;6.43147
3NPS A T 98;3NPS A M 180;10.2209
3NPS A T 98;3NPS A W 215;4.12264
3NPS A F 99;3NPS A D 100;18.4808
3NPS A F 99;3NPS A Y 101;1.53998
3NPS A F 99;3NPS A D 102;19.5734
3NPS A F 99;3NPS A M 180;9.2426
3NPS A F 99;3NPS A S 214;12.675
3NPS A F 99;3NPS A W 215;14.1376
3NPS A F 99;3NPS A T 229;0.100609
3NPS A D 100;3NPS A Y 101;36.8802
3NPS A D 100;3NPS A D 102;1.47924
3NPS A D 100;3NPS A T 177;19.4277
3NPS A D 100;3NPS A R 179;19.9548
3NPS A D 100;3NPS A M 180;9.69019
3NPS A Y 101;3NPS A D 102;17.7555
3NPS A Y 101;3NPS A I 103;9.66373
3NPS A Y 101;3NPS A R 179;45.4611
3NPS A Y 101;3NPS A M 180;0.201873
3NPS A Y 101;3NPS A T 229;1.39073
3NPS A Y 101;3NPS A F 234;18.7317
3NPS A D 102;3NPS A I 103;17.7754
3NPS A D 102;3NPS A R 179;0.0439362
3NPS A D 102;3NPS A V 212;5.07251
3NPS A D 102;3NPS A S 214;15.8759
3NPS A D 102;3NPS A T 229;24.88
3NPS A I 103;3NPS A A 104;21.8228
3NPS A I 103;3NPS A L 105;4.2875
3NPS A I 103;3NPS A V 212;7.10916
3NPS A I 103;3NPS A T 229;9.40815
3NPS A I 103;3NPS A L 231;10.5388
3NPS A I 103;3NPS A F 234;23.5731
3NPS A I 103;3NPS A W 237;16.6678
3NPS A I 103;3NPS A I 238;6.57674
3NPS A A 104;3NPS A L 105;21.3306
3NPS A A 104;3NPS A L 106;9.35176
3NPS A A 104;3NPS A W 237;3.55807
3NPS A L 105;3NPS A L 106;20.9325
3NPS A L 105;3NPS A E 107;0.32334
3NPS A L 105;3NPS A W 237;20.5953
3NPS A L 105;3NPS A I 238;18.4046
3NPS A L 105;3NPS A N 241;9.76634
3NPS A L 105;3NPS A T 242;13.9449
3NPS A L 106;3NPS A E 107;17.0604
3NPS A L 106;3NPS A L 108;3.24247
3NPS A E 107;3NPS A L 108;22.9522
3NPS A E 107;3NPS A E 109;0.142019
3NPS A L 108;3NPS A E 109;19.5282
3NPS A L 108;3NPS A K 110;14.9645
3NPS A L 108;3NPS A P 111;1.98701
3NPS A L 108;3NPS A A 112;7.67823
3NPS A E 109;3NPS A K 110;48.8189
3NPS A E 109;3NPS A P 111;1.63191
3NPS A K 110;3NPS A P 111;35.8791
3NPS A K 110;3NPS A A 112;0.825572
3NPS A P 111;3NPS A A 112;24.9848
3NPS A P 111;3NPS A E 113;4.97546
3NPS A A 112;3NPS A E 113;24.2052
3NPS A A 112;3NPS A Y 114;11.38
3NPS A A 112;3NPS A V 118;6.06945
3NPS A E 113;3NPS A Y 114;29.5204
3NPS A E 113;3NPS A S 115;3.79635
3NPS A E 113;3NPS A V 118;7.41083
3NPS A Y 114;3NPS A S 115;28.1946
3NPS A Y 114;3NPS A V 118;13.9042
3NPS A Y 114;3NPS A R 119;7.7433
3NPS A Y 114;3NPS A P 120;30.5393
3NPS A S 115;3NPS A S 116;29.4096
3NPS A S 115;3NPS A M 117;11.0999
3NPS A S 115;3NPS A V 118;20.9657
3NPS A S 115;3NPS A R 119;14.3966
3NPS A S 116;3NPS A M 117;33.9263
3NPS A S 116;3NPS A V 118;0.479162
3NPS A S 116;3NPS A R 119;16.9746
3NPS A M 117;3NPS A V 118;20.4436
3NPS A V 118;3NPS A R 119;21.099
3NPS A R 119;3NPS A P 120;31.9734
3NPS A P 120;3NPS A I 121;25.302
3NPS A P 120;3NPS A S 122;1.77521
3NPS A I 121;3NPS A S 122;31.9772
3NPS A I 121;3NPS A L 123;6.14435
3NPS A I 121;3NPS A P 198;4.15443
3NPS A I 121;3NPS A L 199;0.47832
3NPS A I 121;3NPS A S 200;8.54567
3NPS A I 121;3NPS A I 207;14.2574
3NPS A I 121;3NPS A F 208;6.1535
3NPS A I 121;3NPS A Q 209;23.9691
3NPS A S 122;3NPS A L 123;26.52
3NPS A S 122;3NPS A P 124;1.62404
3NPS A S 122;3NPS A I 207;14.82
3NPS A S 122;3NPS A F 208;24.0898
3NPS A S 122;3NPS A Q 209;8.22132
3NPS A L 123;3NPS A P 124;25.7374
3NPS A L 123;3NPS A D 125;5.59723
3NPS A L 123;3NPS A F 208;10.4804
3NPS A L 123;3NPS A Q 209;4.83047
3NPS A L 123;3NPS A L 231;13.7706
3NPS A L 123;3NPS A R 235;29.8884
3NPS A L 123;3NPS A I 238;19.7393
3NPS A L 123;3NPS A V 244;12.7509
3NPS A P 124;3NPS A D 125;22.4898
3NPS A P 124;3NPS A H 128;13.0404
3NPS A P 124;3NPS A F 130;9.94491
3NPS A P 124;3NPS A F 208;14.0805
3NPS A P 124;3NPS A Q 209;12.1775
3NPS A P 124;3NPS A A 210;0.441491
3NPS A P 124;3NPS A L 231;14.9525
3NPS A P 124;3NPS A P 232;17.1847
3NPS A P 124;3NPS A R 235;12.5178
3NPS A D 125;3NPS A A 126;20.3395
3NPS A D 125;3NPS A S 127;17.2846
3NPS A D 125;3NPS A H 128;19.5672
3NPS A D 125;3NPS A F 208;1.10143
3NPS A D 125;3NPS A P 232;7.02644
3NPS A D 125;3NPS A R 235;17.43
3NPS A A 126;3NPS A S 127;26.8569
3NPS A A 126;3NPS A H 128;5.76701
3NPS A A 126;3NPS A P 232;23.4757
3NPS A A 126;3NPS A L 233;6.59285
3NPS A A 126;3NPS A R 235;11.8477
3NPS A A 126;3NPS A D 236;5.61421
3NPS A S 127;3NPS A H 128;24.4067
3NPS A S 127;3NPS A V 129;14.638
3NPS A H 128;3NPS A V 129;36.301
3NPS A H 128;3NPS A F 130;22.9593
3NPS A H 128;3NPS A E 203;18.4167
3NPS A H 128;3NPS A R 206;0.49354
3NPS A H 128;3NPS A F 208;21.8933
3NPS A H 128;3NPS A P 232;13.8012
3NPS A V 129;3NPS A F 130;27.3915
3NPS A V 129;3NPS A P 131;27.7977
3NPS A V 129;3NPS A K 134;0.420615
3NPS A V 129;3NPS A E 203;4.44451
3NPS A F 130;3NPS A P 131;23.8043
3NPS A F 130;3NPS A A 132;1.51131
3NPS A F 130;3NPS A K 134;10.8347
3NPS A F 130;3NPS A I 136;4.43909
3NPS A F 130;3NPS A V 162;18.8876
3NPS A F 130;3NPS A M 181;11.3469
3NPS A F 130;3NPS A S 201;14.587
3NPS A F 130;3NPS A E 203;5.85284
3NPS A F 130;3NPS A F 208;10.1303
3NPS A F 130;3NPS A Q 209;2.40169
3NPS A F 130;3NPS A A 210;25.2973
3NPS A F 130;3NPS A R 230;7.78239
3NPS A F 130;3NPS A P 232;14.8368
3NPS A P 131;3NPS A A 132;31.9026
3NPS A P 131;3NPS A G 133;0.407828
3NPS A P 131;3NPS A K 134;29.6774
3NPS A P 131;3NPS A V 162;7.18607
3NPS A A 132;3NPS A G 133;24.4613
3NPS A A 132;3NPS A K 134;3.34423
3NPS A A 132;3NPS A V 162;12.5401
3NPS A A 132;3NPS A I 163;3.00523
3NPS A A 132;3NPS A N 164;23.9253
3NPS A G 133;3NPS A K 134;21.722
3NPS A G 133;3NPS A A 135;0.996584
3NPS A G 133;3NPS A R 161;27.2756
3NPS A G 133;3NPS A V 162;13.1861
3NPS A K 134;3NPS A A 135;31.0668
3NPS A K 134;3NPS A I 136;1.35985
3NPS A K 134;3NPS A I 136;15.4579
3NPS A K 134;3NPS A I 160;0.868062
3NPS A K 134;3NPS A R 161;6.51752
3NPS A K 134;3NPS A V 162;17.3812
3NPS A K 134;3NPS A S 201;9.58756
3NPS A K 134;3NPS A V 202;16.6175
3NPS A K 134;3NPS A E 203;13.0382
3NPS A K 134;3NPS A A 204;3.45247
3NPS A A 135;3NPS A I 136;10.9351
3NPS A A 135;3NPS A I 136;12.5198
3NPS A A 135;3NPS A W 137;4.1573
3NPS A A 135;3NPS A E 159;22.4112
3NPS A A 135;3NPS A I 160;4.02621
3NPS A A 135;3NPS A R 161;28.1946
3NPS A A 135;3NPS A V 202;4.26402
3NPS A I 136;3NPS A W 137;16.447
3NPS A I 136;3NPS A G 158;0.618291
3NPS A I 136;3NPS A E 159;8.32424
3NPS A I 136;3NPS A I 160;15.7366
3NPS A I 136;3NPS A L 199;0.00169576
3NPS A I 136;3NPS A W 137;11.6751
3NPS A I 136;3NPS A E 159;0.0660216
3NPS A I 136;3NPS A I 160;6.37686
3NPS A I 136;3NPS A R 161;0.129465
3NPS A I 136;3NPS A V 162;15.3664
3NPS A I 136;3NPS A M 181;2.84334
3NPS A I 136;3NPS A V 183;11.501
3NPS A I 136;3NPS A L 199;17.0367
3NPS A I 136;3NPS A S 200;6.99444
3NPS A I 136;3NPS A S 201;16.2235
3NPS A I 136;3NPS A V 202;1.07014
3NPS A I 136;3NPS A A 210;9.5306
3NPS A W 137;3NPS A V 138;20.48
3NPS A W 137;3NPS A T 139;5.49327
3NPS A W 137;3NPS A K 157;25.7366
3NPS A W 137;3NPS A G 158;14.9342
3NPS A W 137;3NPS A E 159;38.419
3NPS A W 137;3NPS A I 160;1.7844
3NPS A W 137;3NPS A P 198;1.92852
3NPS A W 137;3NPS A L 199;10.3151
3NPS A W 137;3NPS A S 200;26.5743
3NPS A W 137;3NPS A S 201;0.278683
3NPS A W 137;3NPS A V 202;17.2425
3NPS A V 138;3NPS A T 139;28.7541
3NPS A V 138;3NPS A Q 156;0.0796836
3NPS A V 138;3NPS A K 157;4.43874
3NPS A V 138;3NPS A G 158;19.4796
3NPS A V 138;3NPS A I 160;16.9756
3NPS A V 138;3NPS A V 188;1.39016
3NPS A V 138;3NPS A D 189;4.18779
3NPS A V 138;3NPS A S 190;12.2668
3NPS A V 138;3NPS A D 194;3.31829
3NPS A V 138;3NPS A P 198;6.57739
3NPS A V 138;3NPS A L 199;8.00517
3NPS A V 138;3NPS A V 213;10.9874
3NPS A V 138;3NPS A Y 228;10.7271
3NPS A T 139;3NPS A G 140;18.9813
3NPS A T 139;3NPS A L 155;9.50555
3NPS A T 139;3NPS A Q 156;8.43562
3NPS A T 139;3NPS A K 157;9.0767
3NPS A T 139;3NPS A D 194;5.80848
3NPS A T 139;3NPS A G 197;4.85744
3NPS A T 139;3NPS A P 198;18.0925
3NPS A T 139;3NPS A S 200;3.74368
3NPS A T 139;3NPS A V 213;2.26497
3NPS A G 140;3NPS A W 141;23.5689
3NPS A G 140;3NPS A G 142;2.39556
3NPS A G 140;3NPS A A 152;0.664169
3NPS A G 140;3NPS A I 154;0.025132
3NPS A G 140;3NPS A L 155;13.5194
3NPS A G 140;3NPS A Q 156;16.9033
3NPS A G 140;3NPS A G 193;0.32312
3NPS A G 140;3NPS A D 194;12.3689
3NPS A W 141;3NPS A G 142;24.3307
3NPS A W 141;3NPS A G 151;6.85455
3NPS A W 141;3NPS A A 152;25.8766
3NPS A W 141;3NPS A L 153;7.61295
3NPS A W 141;3NPS A I 154;3.08317
3NPS A W 141;3NPS A L 155;28.5695
3NPS A W 141;3NPS A G 193;2.44685
3NPS A W 141;3NPS A D 194;1.31108
3NPS A G 142;3NPS A H 143;18.1028
3NPS A G 142;3NPS A T 144;6.10137
3NPS A G 142;3NPS A G 151;6.14795
3NPS A G 142;3NPS A A 152;5.08794
3NPS A G 142;3NPS A Q 156;0.730199
3NPS A G 142;3NPS A C 191;1.2542
3NPS A G 142;3NPS A Q 192;6.0613
3NPS A G 142;3NPS A G 193;10.9656
3NPS A G 142;3NPS A D 194;12.1094
3NPS A H 143;3NPS A T 144;15.3845
3NPS A H 143;3NPS A Q 145;8.82171
3NPS A H 143;3NPS A G 148;9.78758
3NPS A H 143;3NPS A T 150;8.50488
3NPS A H 143;3NPS A T 150;6.31397
3NPS A H 143;3NPS A G 151;13.7524
3NPS A H 143;3NPS A C 191;18.468
3NPS A H 143;3NPS A Q 192;33.1809
3NPS A H 143;3NPS A D 194;0.0428599
3NPS A T 144;3NPS A Q 145;37.7019
3NPS A T 144;3NPS A T 150;15.2361
3NPS A T 144;3NPS A T 150;1.67216
3NPS A T 144;3NPS A G 151;3.71924
3NPS A T 144;3NPS A A 152;13.6462
3NPS A T 144;3NPS A Q 156;14.5856
3NPS A Q 145;3NPS A Y 146;26.861
3NPS A Q 145;3NPS A G 147;1.17234
3NPS A Q 145;3NPS A G 148;20.0556
3NPS A Q 145;3NPS A T 150;1.79186
3NPS A Q 145;3NPS A C 191;1.19463
3NPS A Y 146;3NPS A G 147;22.5567
3NPS A Y 146;3NPS A G 148;1.97809
3NPS A Y 146;3NPS A C 191;6.44125
3NPS A Y 146;3NPS A G 219;8.39097
3NPS A Y 146;3NPS A C 220;25.6466
3NPS A Y 146;3NPS A A 221;0.732309
3NPS A Y 146;3NPS A Q 221a;16.9069
3NPS A G 147;3NPS A G 148;22.1674
3NPS A G 148;3NPS A T 150;16.5232
3NPS A G 148;3NPS A T 150;15.7453
3NPS A T 150;3NPS A G 151;15.1047
3NPS A T 150;3NPS A G 151;19.3878
3NPS A G 151;3NPS A A 152;25.1543
3NPS A G 151;3NPS A L 153;1.98767
3NPS A A 152;3NPS A L 153;27.1191
3NPS A A 152;3NPS A I 154;10.8525
3NPS A A 152;3NPS A Q 156;13.1877
3NPS A L 153;3NPS A I 154;27.8
3NPS A L 153;3NPS A L 155;0.0764931
3NPS A I 154;3NPS A L 155;24.8359
3NPS A I 154;3NPS A Q 156;12.2646
3NPS A L 155;3NPS A Q 156;24.1037
3NPS A Q 156;3NPS A K 157;19.163
3NPS A K 157;3NPS A G 158;18.1816
3NPS A G 158;3NPS A E 159;19.4005
3NPS A G 158;3NPS A I 160;4.61859
3NPS A G 158;3NPS A V 188;8.69498
3NPS A E 159;3NPS A I 160;21.5428
3NPS A E 159;3NPS A R 161;5.00068
3NPS A E 159;3NPS A F 184a;12.6383
3NPS A E 159;3NPS A V 188;13.5668
3NPS A I 160;3NPS A R 161;19.8655
3NPS A I 160;3NPS A V 183;20.3245
3NPS A I 160;3NPS A G 184;11.2876
3NPS A I 160;3NPS A F 184a;10.7853
3NPS A I 160;3NPS A V 188;15.0559
3NPS A I 160;3NPS A D 189;7.07169
3NPS A I 160;3NPS A S 190;0.13626
3NPS A I 160;3NPS A L 199;8.19697
3NPS A I 160;3NPS A Y 228;10.1232
3NPS A R 161;3NPS A V 162;20.9421
3NPS A R 161;3NPS A I 163;7.40032
3NPS A R 161;3NPS A V 183;8.63143
3NPS A R 161;3NPS A G 184;18.9597
3NPS A R 161;3NPS A F 184a;26.0935
3NPS A V 162;3NPS A I 163;32.9867
3NPS A V 162;3NPS A M 181;16.9432
3NPS A V 162;3NPS A C 182;3.09235
3NPS A V 162;3NPS A V 183;10.804
3NPS A V 162;3NPS A R 230;4.09381
3NPS A I 163;3NPS A N 164;30.9919
3NPS A I 163;3NPS A Q 165;5.66616
3NPS A I 163;3NPS A T 167;14.1595
3NPS A I 163;3NPS A C 168;8.64019
3NPS A I 163;3NPS A L 171;7.28446
3NPS A I 163;3NPS A M 181;1.06402
3NPS A I 163;3NPS A C 182;25.7681
3NPS A I 163;3NPS A V 183;3.30482
3NPS A I 163;3NPS A G 184;11.4197
3NPS A I 163;3NPS A F 184a;5.925
3NPS A I 163;3NPS A L 185;12.5538
3NPS A I 163;3NPS A P 225;12.5504
3NPS A I 163;3NPS A R 230;5.23302
3NPS A N 164;3NPS A Q 165;23.3357
3NPS A N 164;3NPS A T 166;16.9168
3NPS A N 164;3NPS A T 167;25.0761
3NPS A N 164;3NPS A C 168;6.88665
3NPS A Q 165;3NPS A T 166;22.0988
3NPS A Q 165;3NPS A T 167;0.660702
3NPS A Q 165;3NPS A C 168;16.5781
3NPS A Q 165;3NPS A E 169;26.0363
3NPS A Q 165;3NPS A I 176;10.5919
3NPS A Q 165;3NPS A T 177;6.72991
3NPS A Q 165;3NPS A P 178;9.61613
3NPS A Q 165;3NPS A M 180;9.76587
3NPS A Q 165;3NPS A M 181;4.70241
3NPS A Q 165;3NPS A C 182;1.02159
3NPS A Q 165;3NPS A R 230;22.7563
3NPS A T 166;3NPS A T 167;21.045
3NPS A T 166;3NPS A C 168;0.906466
3NPS A T 166;3NPS A E 169;21.9273
3NPS A T 166;3NPS A N 170;23.723
3NPS A T 167;3NPS A C 168;15.1155
3NPS A T 167;3NPS A E 169;0.871505
3NPS A T 167;3NPS A N 170;9.79306
3NPS A T 167;3NPS A L 171;23.2927
3NPS A T 167;3NPS A L 185;13.1129
3NPS A C 168;3NPS A E 169;16.1683
3NPS A C 168;3NPS A N 170;1.23873
3NPS A C 168;3NPS A L 171;11.6607
3NPS A C 168;3NPS A L 172;7.81468
3NPS A C 168;3NPS A I 176;21.38
3NPS A C 168;3NPS A M 180;0.699007
3NPS A C 168;3NPS A M 181;3.39456
3NPS A C 168;3NPS A C 182;29.674
3NPS A C 168;3NPS A V 227;0.77772
3NPS A E 169;3NPS A N 170;27.5115
3NPS A E 169;3NPS A L 171;0.459536
3NPS A E 169;3NPS A L 172;7.95346
3NPS A E 169;3NPS A P 173;8.60218
3NPS A E 169;3NPS A Q 174;3.46238
3NPS A E 169;3NPS A I 176;29.1318
3NPS A E 169;3NPS A T 177;0.892743
3NPS A E 169;3NPS A P 178;2.88141
3NPS A N 170;3NPS A L 171;23.5423
3NPS A N 170;3NPS A L 172;1.33658
3NPS A N 170;3NPS A P 173;18.2747
3NPS A L 171;3NPS A L 172;28.2509
3NPS A L 171;3NPS A P 173;9.60636
3NPS A L 171;3NPS A C 182;4.19172
3NPS A L 171;3NPS A L 185;18.3175
3NPS A L 171;3NPS A N 223;31.3749
3NPS A L 171;3NPS A K 224;1.63914
3NPS A L 171;3NPS A P 225;15.4845
3NPS A L 172;3NPS A P 173;21.6943
3NPS A L 172;3NPS A Q 174;1.21712
3NPS A L 172;3NPS A Q 175;26.4234
3NPS A L 172;3NPS A I 176;17.8936
3NPS A L 172;3NPS A C 182;7.90342
3NPS A L 172;3NPS A W 215;14.7639
3NPS A L 172;3NPS A G 216;0.660278
3NPS A L 172;3NPS A D 217;18.9993
3NPS A L 172;3NPS A N 223;1.70237
3NPS A L 172;3NPS A K 224;12.4204
3NPS A L 172;3NPS A P 225;11.947
3NPS A L 172;3NPS A V 227;9.42208
3NPS A P 173;3NPS A Q 174;34.5144
3NPS A P 173;3NPS A Q 175;15.1238
3NPS A Q 174;3NPS A Q 175;30.9573
3NPS A Q 174;3NPS A I 176;1.02943
3NPS A Q 175;3NPS A I 176;27.7422
3NPS A Q 175;3NPS A T 177;4.78772
3NPS A Q 175;3NPS A M 180;9.34379
3NPS A Q 175;3NPS A W 215;23.4247
3NPS A Q 175;3NPS A D 217;1.26141
3NPS A I 176;3NPS A T 177;30.8929
3NPS A I 176;3NPS A P 178;0.677779
3NPS A I 176;3NPS A M 180;16.3215
3NPS A I 176;3NPS A C 182;1.84453
3NPS A I 176;3NPS A W 215;6.56026
3NPS A I 176;3NPS A V 227;10.1257
3NPS A T 177;3NPS A P 178;27.6973
3NPS A T 177;3NPS A R 179;18.3091
3NPS A T 177;3NPS A M 180;29.5395
3NPS A P 178;3NPS A R 179;39.2515
3NPS A P 178;3NPS A M 180;3.75231
3NPS A P 178;3NPS A R 230;10.5241
3NPS A P 178;3NPS A L 233;11.8482
3NPS A R 179;3NPS A M 180;21.6308
3NPS A R 179;3NPS A Y 228;0.0163114
3NPS A R 179;3NPS A T 229;11.3239
3NPS A R 179;3NPS A R 230;13.0732
3NPS A R 179;3NPS A L 233;18.4058
3NPS A R 179;3NPS A F 234;13.7787
3NPS A M 180;3NPS A M 181;18.0594
3NPS A M 180;3NPS A S 214;2.37282
3NPS A M 180;3NPS A W 215;12.8803
3NPS A M 180;3NPS A V 227;14.856
3NPS A M 180;3NPS A Y 228;6.97719
3NPS A M 180;3NPS A T 229;4.64335
3NPS A M 180;3NPS A R 230;10.7853
3NPS A M 181;3NPS A C 182;23.6274
3NPS A M 181;3NPS A V 183;14.5281
3NPS A M 181;3NPS A L 199;8.44985
3NPS A M 181;3NPS A A 210;11.3653
3NPS A M 181;3NPS A G 211;2.26435
3NPS A M 181;3NPS A G 226;0.473371
3NPS A M 181;3NPS A V 227;8.84742
3NPS A M 181;3NPS A Y 228;24.9994
3NPS A M 181;3NPS A T 229;1.49974
3NPS A M 181;3NPS A R 230;38.1007
3NPS A M 181;3NPS A P 232;0.0271651
3NPS A C 182;3NPS A V 183;20.6809
3NPS A C 182;3NPS A P 225;14.6312
3NPS A C 182;3NPS A G 226;6.02328
3NPS A C 182;3NPS A V 227;7.47867
3NPS A C 182;3NPS A Y 228;0.00470207
3NPS A V 183;3NPS A G 184;17.9859
3NPS A V 183;3NPS A D 189;3.79595
3NPS A V 183;3NPS A L 199;10.9207
3NPS A V 183;3NPS A P 225;7.12622
3NPS A V 183;3NPS A G 226;11.0402
3NPS A V 183;3NPS A Y 228;18.3332
3NPS A G 184;3NPS A F 184a;30.7725
3NPS A G 184;3NPS A V 188;5.59176
3NPS A G 184;3NPS A D 189;1.13738
3NPS A G 184;3NPS A P 225;7.18698
3NPS A G 184;3NPS A G 226;0.00438413
3NPS A F 184a;3NPS A L 185;24.8561
3NPS A F 184a;3NPS A S 186;14.8091
3NPS A F 184a;3NPS A G 186a;26.4988
3NPS A F 184a;3NPS A V 188;21.7257
3NPS A F 184a;3NPS A Q 221a;1.36953
3NPS A F 184a;3NPS A N 223;2.02352
3NPS A F 184a;3NPS A K 224;1.20502
3NPS A F 184a;3NPS A P 225;13.4292
3NPS A L 185;3NPS A S 186;22.4187
3NPS A L 185;3NPS A G 186a;2.64644
3NPS A L 185;3NPS A R 222;8.67661
3NPS A L 185;3NPS A N 223;29.3549
3NPS A L 185;3NPS A P 225;2.31123
3NPS A S 186;3NPS A G 186a;26.2175
3NPS A S 186;3NPS A G 187;4.1483
3NPS A S 186;3NPS A A 221;1.03709
3NPS A S 186;3NPS A R 222;16.9882
3NPS A G 186a;3NPS A G 187;19.7127
3NPS A G 186a;3NPS A V 188;10.9629
3NPS A G 186a;3NPS A A 221;10.3443
3NPS A G 186a;3NPS A Q 221a;8.22478
3NPS A G 186a;3NPS A R 222;3.78411
3NPS A G 186a;3NPS A N 223;0.267256
3NPS A G 187;3NPS A V 188;23.4508
3NPS A G 187;3NPS A A 221;20.2223
3NPS A V 188;3NPS A D 189;26.0649
3NPS A V 188;3NPS A A 221;5.16475
3NPS A V 188;3NPS A P 225;0.00378572
3NPS A D 189;3NPS A S 190;31.3537
3NPS A D 189;3NPS A C 191;0.0614658
3NPS A D 189;3NPS A G 219;1.40244
3NPS A D 189;3NPS A C 220;7.0141
3NPS A D 189;3NPS A A 221;19.634
3NPS A D 189;3NPS A K 224;8.42858
3NPS A D 189;3NPS A P 225;4.24301
3NPS A D 189;3NPS A G 226;14.253
3NPS A D 189;3NPS A Y 228;2.84595
3NPS A S 190;3NPS A C 191;18.679
3NPS A S 190;3NPS A D 194;9.28407
3NPS A S 190;3NPS A V 213;12.2755
3NPS A S 190;3NPS A W 215;0.641851
3NPS A S 190;3NPS A C 220;5.63803
3NPS A S 190;3NPS A G 226;4.31081
3NPS A S 190;3NPS A V 227;0.93298
3NPS A S 190;3NPS A Y 228;15.657
3NPS A C 191;3NPS A Q 192;25.4693
3NPS A C 191;3NPS A G 193;1.49072
3NPS A C 191;3NPS A D 194;19.2711
3NPS A C 191;3NPS A S 195;2.72345
3NPS A C 191;3NPS A V 213;0.662208
3NPS A C 191;3NPS A C 220;19.4101
3NPS A Q 192;3NPS A G 193;28.9056
3NPS A Q 192;3NPS A D 194;0.715119
3NPS A Q 192;3NPS A S 195;2.73877
3NPS A Q 192;3NPS A C 220;0.0993933
3NPS A G 193;3NPS A D 194;20.2993
3NPS A G 193;3NPS A S 195;10.8398
3NPS A D 194;3NPS A S 195;20.0111
3NPS A D 194;3NPS A G 196;0.0913613
3NPS A D 194;3NPS A G 197;8.43114
3NPS A D 194;3NPS A V 213;16.6665
3NPS A S 195;3NPS A G 196;15.1347
3NPS A S 195;3NPS A G 197;2.25274
3NPS A S 195;3NPS A V 213;14.42
3NPS A S 195;3NPS A S 214;5.10122
3NPS A G 196;3NPS A G 197;19.5421
3NPS A G 196;3NPS A Q 209;1.28998
3NPS A G 196;3NPS A V 212;11.6533
3NPS A G 196;3NPS A V 213;8.45478
3NPS A G 197;3NPS A P 198;26.5118
3NPS A G 197;3NPS A L 199;0.925256
3NPS A G 197;3NPS A Q 209;1.15986
3NPS A G 197;3NPS A G 211;0.0574252
3NPS A G 197;3NPS A V 212;7.26109
3NPS A G 197;3NPS A V 213;16.3708
3NPS A P 198;3NPS A L 199;20.7835
3NPS A P 198;3NPS A S 200;10.7
3NPS A P 198;3NPS A Q 209;14.4481
3NPS A P 198;3NPS A G 211;2.25324
3NPS A P 198;3NPS A V 212;0.0723172
3NPS A P 198;3NPS A V 213;3.25585
3NPS A L 199;3NPS A S 200;20.1556
3NPS A L 199;3NPS A S 201;0.274333
3NPS A L 199;3NPS A F 208;0.279423
3NPS A L 199;3NPS A Q 209;8.17068
3NPS A L 199;3NPS A A 210;16.4128
3NPS A L 199;3NPS A G 211;21.6819
3NPS A L 199;3NPS A V 212;1.02504
3NPS A L 199;3NPS A V 213;1.69134
3NPS A L 199;3NPS A Y 228;23.5204
3NPS A S 200;3NPS A S 201;20.7905
3NPS A S 200;3NPS A V 202;2.01185
3NPS A S 200;3NPS A I 207;7.87826
3NPS A S 200;3NPS A F 208;2.80586
3NPS A S 200;3NPS A Q 209;0.567848
3NPS A S 200;3NPS A A 210;0.549874
3NPS A S 201;3NPS A V 202;24.3002
3NPS A S 201;3NPS A E 203;7.76377
3NPS A S 201;3NPS A R 206;1.57906
3NPS A S 201;3NPS A I 207;10.8154
3NPS A S 201;3NPS A F 208;19.8834
3NPS A S 201;3NPS A A 210;8.24496
3NPS A V 202;3NPS A E 203;29.9326
3NPS A V 202;3NPS A A 204;0.14753
3NPS A V 202;3NPS A G 205;16.3704
3NPS A V 202;3NPS A R 206;4.00027
3NPS A V 202;3NPS A I 207;19.9453
3NPS A E 203;3NPS A A 204;30.1694
3NPS A E 203;3NPS A D 204a;13.4969
3NPS A E 203;3NPS A G 205;8.78461
3NPS A E 203;3NPS A R 206;22.6715
3NPS A E 203;3NPS A F 208;13.9872
3NPS A A 204;3NPS A D 204a;27.176
3NPS A A 204;3NPS A G 205;5.15012
3NPS A D 204a;3NPS A G 205;22.758
3NPS A D 204a;3NPS A R 206;38.1946
3NPS A G 205;3NPS A R 206;23.6191
3NPS A G 205;3NPS A I 207;10.9965
3NPS A R 206;3NPS A I 207;24.6897
3NPS A R 206;3NPS A F 208;36.122
3NPS A I 207;3NPS A F 208;24.3563
3NPS A F 208;3NPS A Q 209;18.0521
3NPS A F 208;3NPS A A 210;2.61605
3NPS A Q 209;3NPS A A 210;16.8648
3NPS A Q 209;3NPS A G 211;12.1334
3NPS A Q 209;3NPS A V 212;8.524
3NPS A Q 209;3NPS A L 231;22.9014
3NPS A A 210;3NPS A G 211;17.5378
3NPS A A 210;3NPS A R 230;3.4043
3NPS A A 210;3NPS A L 231;8.47411
3NPS A A 210;3NPS A P 232;5.99313
3NPS A G 211;3NPS A V 212;20.7889
3NPS A G 211;3NPS A Y 228;2.20806
3NPS A G 211;3NPS A T 229;8.15417
3NPS A G 211;3NPS A R 230;0.417554
3NPS A G 211;3NPS A L 231;8.24909
3NPS A V 212;3NPS A V 213;21.9189
3NPS A V 212;3NPS A S 214;4.50713
3NPS A V 212;3NPS A Y 228;11.5515
3NPS A V 212;3NPS A T 229;24.8817
3NPS A V 212;3NPS A L 231;8.35538
3NPS A V 213;3NPS A S 214;25.155
3NPS A V 213;3NPS A W 215;1.44318
3NPS A V 213;3NPS A V 227;1.65243
3NPS A V 213;3NPS A Y 228;18.2637
3NPS A S 214;3NPS A W 215;35.5966
3NPS A S 214;3NPS A V 227;12.504
3NPS A S 214;3NPS A Y 228;5.70468
3NPS A S 214;3NPS A T 229;11.0436
3NPS A W 215;3NPS A G 216;33.3387
3NPS A W 215;3NPS A D 217;8.63893
3NPS A W 215;3NPS A G 226;2.50566
3NPS A W 215;3NPS A V 227;41.019
3NPS A G 216;3NPS A D 217;23.7221
3NPS A G 216;3NPS A G 219;8.15309
3NPS A G 216;3NPS A K 224;0.428856
3NPS A G 216;3NPS A P 225;2.93251
3NPS A G 216;3NPS A G 226;4.97824
3NPS A G 216;3NPS A V 227;3.82185
3NPS A D 217;3NPS A G 219;28.5532
3NPS A D 217;3NPS A C 220;0.690421
3NPS A D 217;3NPS A Q 221a;10.2109
3NPS A D 217;3NPS A K 224;42.9733
3NPS A D 217;3NPS A P 225;1.55792
3NPS A G 219;3NPS A C 220;20.4721
3NPS A G 219;3NPS A Q 221a;10.0048
3NPS A G 219;3NPS A K 224;0.972434
3NPS A C 220;3NPS A A 221;23.4785
3NPS A C 220;3NPS A Q 221a;17.566
3NPS A C 220;3NPS A K 224;0.543164
3NPS A A 221;3NPS A Q 221a;24.4463
3NPS A A 221;3NPS A R 222;1.25326
3NPS A A 221;3NPS A K 224;2.08871
3NPS A Q 221a;3NPS A R 222;27.3993
3NPS A Q 221a;3NPS A N 223;1.65506
3NPS A Q 221a;3NPS A K 224;40.4739
3NPS A R 222;3NPS A N 223;41.1549
3NPS A R 222;3NPS A K 224;13.5662
3NPS A N 223;3NPS A K 224;25.1363
3NPS A N 223;3NPS A P 225;7.46535
3NPS A K 224;3NPS A P 225;30.8465
3NPS A K 224;3NPS A G 226;0.53564
3NPS A P 225;3NPS A G 226;24.3575
3NPS A P 225;3NPS A V 227;4.47589
3NPS A G 226;3NPS A V 227;18.784
3NPS A G 226;3NPS A Y 228;12.2607
3NPS A V 227;3NPS A Y 228;27.076
3NPS A Y 228;3NPS A T 229;19.726
3NPS A Y 228;3NPS A R 230;2.04844
3NPS A T 229;3NPS A R 230;22.0247
3NPS A T 229;3NPS A L 231;3.74624
3NPS A T 229;3NPS A F 234;12.5883
3NPS A R 230;3NPS A L 231;17.4625
3NPS A R 230;3NPS A P 232;11.2243
3NPS A R 230;3NPS A L 233;22.1219
3NPS A R 230;3NPS A F 234;10.007
3NPS A L 231;3NPS A P 232;21.5013
3NPS A L 231;3NPS A L 233;2.49393
3NPS A L 231;3NPS A F 234;15.2788
3NPS A L 231;3NPS A R 235;5.50769
3NPS A L 231;3NPS A I 238;11.9363
3NPS A P 232;3NPS A L 233;25.8826
3NPS A P 232;3NPS A F 234;1.81096
3NPS A P 232;3NPS A R 235;10.1561
3NPS A L 233;3NPS A F 234;34.1612
3NPS A L 233;3NPS A R 235;2.67396
3NPS A L 233;3NPS A D 236;3.66946
3NPS A L 233;3NPS A W 237;1.15491
3NPS A F 234;3NPS A R 235;16.852
3NPS A F 234;3NPS A D 236;2.27342
3NPS A F 234;3NPS A W 237;24.3107
3NPS A F 234;3NPS A I 238;16.8103
3NPS A R 235;3NPS A D 236;30.5343
3NPS A R 235;3NPS A W 237;0.540212
3NPS A R 235;3NPS A I 238;14.9228
3NPS A R 235;3NPS A K 239;22.1401
3NPS A R 235;3NPS A V 244;18.9881
3NPS A D 236;3NPS A W 237;21.504
3NPS A D 236;3NPS A I 238;0.964869
3NPS A D 236;3NPS A K 239;13.6068
3NPS A D 236;3NPS A E 240;25.9047
3NPS A W 237;3NPS A I 238;25.689
3NPS A W 237;3NPS A K 239;0.522818
3NPS A W 237;3NPS A E 240;19.1613
3NPS A W 237;3NPS A N 241;30.4154
3NPS A I 238;3NPS A K 239;17.3818
3NPS A I 238;3NPS A E 240;1.05369
3NPS A I 238;3NPS A N 241;3.9383
3NPS A I 238;3NPS A T 242;18.7544
3NPS A I 238;3NPS A G 243;0.377713
3NPS A I 238;3NPS A V 244;6.54146
3NPS A K 239;3NPS A E 240;26.2883
3NPS A K 239;3NPS A N 241;1.32023
3NPS A K 239;3NPS A T 242;2.11758
3NPS A K 239;3NPS A G 243;35.3994
3NPS A K 239;3NPS A V 244;18.2469
3NPS A E 240;3NPS A N 241;31.9685
3NPS A E 240;3NPS A T 242;1.44226
3NPS A E 240;3NPS A G 243;0.945869
3NPS A N 241;3NPS A T 242;25.3731
3NPS A T 242;3NPS A G 243;26.0458
3NPS A T 242;3NPS A V 244;21.0567
3NPS A G 243;3NPS A V 244;22.5712
