V1;V2;Weight
3R9A B Q 325;3R9A B F 326;36.6948
3R9A B Q 325;3R9A B E 327;27.8752
3R9A B Q 325;3R9A B E 359;10.7931
3R9A B Q 325;3R9A B W 372;17.8676
3R9A B Q 325;3R9A B L 375;13.5457
3R9A B Q 325;3R9A B Q 379;2.68181
3R9A B Q 325;3R9A B L 387;23.3869
3R9A B Q 325;3R9A B S 390;28.216
3R9A B Q 325;3R9A B A 391;6.82174
3R9A B Q 325;3R9A B R 394;3.28131
3R9A B F 326;3R9A B E 327;33.1895
3R9A B F 326;3R9A B E 328;0.325568
3R9A B F 326;3R9A B E 359;2.72137
3R9A B F 326;3R9A B L 387;23.8256
3R9A B E 327;3R9A B E 328;29.9541
3R9A B E 327;3R9A B E 329;8.24737
3R9A B E 327;3R9A B E 359;17.4189
3R9A B E 327;3R9A B V 362;9.42215
3R9A B E 327;3R9A B Q 363;32.2908
3R9A B E 327;3R9A B W 372;6.44311
3R9A B E 327;3R9A B L 375;2.12423
3R9A B E 328;3R9A B E 329;51.7925
3R9A B E 328;3R9A B N 330;14.3095
3R9A B E 328;3R9A B P 331;0.0353723
3R9A B E 328;3R9A B R 333;0.642802
3R9A B E 328;3R9A B L 356;17.9285
3R9A B E 328;3R9A B E 359;18.1795
3R9A B E 328;3R9A B Q 363;7.16364
3R9A B E 328;3R9A B G 596;11.7547
3R9A B E 328;3R9A B G 597;3.25263
3R9A B E 328;3R9A B A 598;20.0795
3R9A B E 329;3R9A B N 330;24.1745
3R9A B E 329;3R9A B P 331;9.26822
3R9A B N 330;3R9A B P 331;28.4122
3R9A B N 330;3R9A B L 332;12.0222
3R9A B N 330;3R9A B R 333;31.2632
3R9A B N 330;3R9A B L 356;28.6023
3R9A B N 330;3R9A B E 359;6.50835
3R9A B N 330;3R9A B A 360;5.84541
3R9A B N 330;3R9A B Q 363;5.66444
3R9A B P 331;3R9A B L 332;33.1853
3R9A B P 331;3R9A B R 333;3.68393
3R9A B P 331;3R9A B D 334;1.79092
3R9A B P 331;3R9A B N 353;1.7969
3R9A B P 331;3R9A B L 356;16.9746
3R9A B L 332;3R9A B R 333;15.7787
3R9A B L 332;3R9A B D 334;2.83819
3R9A B L 332;3R9A B H 335;29.759
3R9A B L 332;3R9A B R 345;15.9768
3R9A B L 332;3R9A B N 353;17.6551
3R9A B L 332;3R9A B L 356;13.6467
3R9A B L 332;3R9A B L 357;22.7848
3R9A B L 332;3R9A B A 360;8.95072
3R9A B R 333;3R9A B D 334;43.179
3R9A B R 333;3R9A B H 335;2.13657
3R9A B R 333;3R9A B P 338;0.000283015
3R9A B R 333;3R9A B A 360;19.0329
3R9A B R 333;3R9A B Q 363;41.2183
3R9A B R 333;3R9A B Q 364;22.0278
3R9A B D 334;3R9A B H 335;25.5938
3R9A B D 334;3R9A B P 336;10.2924
3R9A B D 334;3R9A B Q 364;6.81042
3R9A B H 335;3R9A B P 336;37.1937
3R9A B H 335;3R9A B Q 337;13.4159
3R9A B H 335;3R9A B P 338;17.4986
3R9A B H 335;3R9A B E 341;21.0942
3R9A B H 335;3R9A B R 344;4.02813
3R9A B H 335;3R9A B R 345;4.24837
3R9A B H 335;3R9A B L 357;13.0861
3R9A B H 335;3R9A B A 360;0.670663
3R9A B H 335;3R9A B Q 364;9.21294
3R9A B P 336;3R9A B Q 337;31.7925
3R9A B P 336;3R9A B P 338;5.53806
3R9A B P 336;3R9A B Q 364;7.48554
3R9A B Q 337;3R9A B P 338;22.0124
3R9A B Q 337;3R9A B F 339;1.5239
3R9A B Q 337;3R9A B E 340;31.6397
3R9A B Q 337;3R9A B E 341;8.56441
3R9A B Q 337;3R9A B R 344;5.92183
3R9A B P 338;3R9A B F 339;21.9422
3R9A B P 338;3R9A B E 340;2.26046
3R9A B P 338;3R9A B E 341;5.19877
3R9A B P 338;3R9A B G 342;7.09766
3R9A B P 338;3R9A B L 357;23.3281
3R9A B P 338;3R9A B F 358;0.550561
3R9A B P 338;3R9A B A 360;10.1049
3R9A B P 338;3R9A B A 361;13.811
3R9A B P 338;3R9A B Q 364;17.9816
3R9A B F 339;3R9A B E 340;36.5314
3R9A B F 339;3R9A B E 341;0.642914
3R9A B F 339;3R9A B G 342;3.73611
3R9A B F 339;3R9A B L 343;34.1211
3R9A B F 339;3R9A B L 357;0.51264
3R9A B F 339;3R9A B F 358;18.9084
3R9A B F 339;3R9A B A 361;12.3236
3R9A B F 339;3R9A B H 368;23.083
3R9A B F 339;3R9A B E 370;20.1132
3R9A B F 339;3R9A B A 371;13.3737
3R9A B F 339;3R9A B Y 374;15.4417
3R9A B E 340;3R9A B E 341;15.9383
3R9A B E 340;3R9A B G 342;0.739162
3R9A B E 340;3R9A B L 343;18.2344
3R9A B E 340;3R9A B R 344;26.3928
3R9A B E 340;3R9A B H 368;4.57601
3R9A B E 341;3R9A B G 342;14.8122
3R9A B E 341;3R9A B L 343;1.2023
3R9A B E 341;3R9A B R 344;44.2409
3R9A B E 341;3R9A B R 345;32.7593
3R9A B E 341;3R9A B E 348;3.82027
3R9A B E 341;3R9A B L 357;14.9163
3R9A B G 342;3R9A B L 343;14.1981
3R9A B G 342;3R9A B R 344;0.869517
3R9A B G 342;3R9A B R 345;6.56972
3R9A B G 342;3R9A B L 346;7.9103
3R9A B G 342;3R9A B A 354;10.1255
3R9A B G 342;3R9A B L 357;12.5862
3R9A B G 342;3R9A B F 358;13.3814
3R9A B L 343;3R9A B R 344;20.6956
3R9A B L 343;3R9A B R 345;0.515485
3R9A B L 343;3R9A B L 346;14.5249
3R9A B L 343;3R9A B Q 347;12.3568
3R9A B L 343;3R9A B F 358;9.82341
3R9A B L 343;3R9A B Y 374;22.4179
3R9A B R 344;3R9A B R 345;15.7146
3R9A B R 344;3R9A B L 346;1.13114
3R9A B R 344;3R9A B Q 347;15.0142
3R9A B R 344;3R9A B E 348;30.0599
3R9A B R 345;3R9A B L 346;17.8097
3R9A B R 345;3R9A B Q 347;0.721513
3R9A B R 345;3R9A B E 348;20.7074
3R9A B R 345;3R9A B G 349;2.8848
3R9A B R 345;3R9A B D 350;37.9089
3R9A B R 345;3R9A B N 353;19.4101
3R9A B R 345;3R9A B A 354;8.41789
3R9A B R 345;3R9A B L 357;12.9897
3R9A B L 346;3R9A B Q 347;23.5341
3R9A B L 346;3R9A B E 348;0.867984
3R9A B L 346;3R9A B G 349;7.95492
3R9A B L 346;3R9A B D 350;1.5803
3R9A B L 346;3R9A B L 351;12.1801
3R9A B L 346;3R9A B A 354;13.3249
3R9A B L 346;3R9A B F 358;9.65958
3R9A B L 346;3R9A B Y 374;18.2675
3R9A B L 346;3R9A B T 377;1.00543
3R9A B L 346;3R9A B T 378;16.5594
3R9A B L 346;3R9A B E 381;10.0562
3R9A B L 346;3R9A B Y 522;13.681
3R9A B L 346;3R9A B Q 552;11.2989
3R9A B Q 347;3R9A B E 348;24.9162
3R9A B Q 347;3R9A B G 349;5.58307
3R9A B Q 347;3R9A B Q 552;3.109
3R9A B E 348;3R9A B G 349;23.2134
3R9A B E 348;3R9A B D 350;10.552
3R9A B G 349;3R9A B D 350;21.6628
3R9A B G 349;3R9A B L 351;8.13644
3R9A B G 349;3R9A B P 352;0.969605
3R9A B G 349;3R9A B Q 552;20.4325
3R9A B G 349;3R9A B P 553;4.23178
3R9A B G 349;3R9A B G 554;8.73518
3R9A B D 350;3R9A B L 351;18.3503
3R9A B D 350;3R9A B P 352;13.1967
3R9A B D 350;3R9A B N 353;25.2331
3R9A B D 350;3R9A B A 354;8.04482
3R9A B L 351;3R9A B P 352;32.6712
3R9A B L 351;3R9A B N 353;1.35119
3R9A B L 351;3R9A B A 354;9.12281
3R9A B L 351;3R9A B V 355;15.3383
3R9A B L 351;3R9A B T 378;15.7635
3R9A B L 351;3R9A B E 381;21.3697
3R9A B L 351;3R9A B N 382;16.1706
3R9A B L 351;3R9A B Q 552;12.366
3R9A B L 351;3R9A B G 554;18.9365
3R9A B L 351;3R9A B Y 555;6.27173
3R9A B L 351;3R9A B I 556;3.79483
3R9A B P 352;3R9A B N 353;23.4171
3R9A B P 352;3R9A B A 354;0.5936
3R9A B P 352;3R9A B V 355;12.484
3R9A B P 352;3R9A B L 356;13.5913
3R9A B P 352;3R9A B N 382;2.34006
3R9A B P 352;3R9A B G 554;3.33977
3R9A B P 352;3R9A B M 585;13.5675
3R9A B P 352;3R9A B Q 586;5.88243
3R9A B P 352;3R9A B K 588;14.7367
3R9A B P 352;3R9A B S 589;2.88712
3R9A B N 353;3R9A B A 354;16.5694
3R9A B N 353;3R9A B V 355;0.818272
3R9A B N 353;3R9A B L 356;21.1477
3R9A B N 353;3R9A B L 357;13.4169
3R9A B A 354;3R9A B V 355;16.4636
3R9A B A 354;3R9A B L 356;0.841141
3R9A B A 354;3R9A B L 357;8.57148
3R9A B A 354;3R9A B F 358;20.0956
3R9A B A 354;3R9A B T 378;4.02561
3R9A B V 355;3R9A B L 356;24.2353
3R9A B V 355;3R9A B L 357;1.23089
3R9A B V 355;3R9A B F 358;8.30301
3R9A B V 355;3R9A B E 359;18.8917
3R9A B V 355;3R9A B L 375;12.0388
3R9A B V 355;3R9A B T 378;15.753
3R9A B V 355;3R9A B Q 379;20.5738
3R9A B V 355;3R9A B N 382;13.2333
3R9A B L 356;3R9A B L 357;15.9356
3R9A B L 356;3R9A B F 358;0.359637
3R9A B L 356;3R9A B E 359;13.184
3R9A B L 356;3R9A B A 360;8.20825
3R9A B L 356;3R9A B S 589;0.144976
3R9A B L 357;3R9A B F 358;17.6566
3R9A B L 357;3R9A B E 359;1.05256
3R9A B L 357;3R9A B A 360;9.52694
3R9A B L 357;3R9A B A 361;7.03877
3R9A B F 358;3R9A B E 359;15.7801
3R9A B F 358;3R9A B A 360;0.464493
3R9A B F 358;3R9A B A 361;9.92829
3R9A B F 358;3R9A B V 362;11.0168
3R9A B F 358;3R9A B A 371;13.5065
3R9A B F 358;3R9A B Y 374;20.6511
3R9A B F 358;3R9A B L 375;19.007
3R9A B F 358;3R9A B T 378;10.9518
3R9A B E 359;3R9A B A 360;15.898
3R9A B E 359;3R9A B A 361;1.39328
3R9A B E 359;3R9A B V 362;10.1089
3R9A B E 359;3R9A B Q 363;18.2122
3R9A B E 359;3R9A B L 375;18.0584
3R9A B E 359;3R9A B Q 379;9.26655
3R9A B E 359;3R9A B L 387;2.24892
3R9A B A 360;3R9A B A 361;15.0559
3R9A B A 360;3R9A B V 362;0.690989
3R9A B A 360;3R9A B Q 363;11.7547
3R9A B A 360;3R9A B Q 364;13.6564
3R9A B A 361;3R9A B V 362;16.0278
3R9A B A 361;3R9A B Q 363;0.872916
3R9A B A 361;3R9A B Q 364;8.84273
3R9A B A 361;3R9A B D 365;12.4266
3R9A B A 361;3R9A B H 368;11.1344
3R9A B A 361;3R9A B A 371;10.3741
3R9A B V 362;3R9A B Q 363;22.3439
3R9A B V 362;3R9A B Q 364;0.689083
3R9A B V 362;3R9A B D 365;9.06594
3R9A B V 362;3R9A B P 366;16.1392
3R9A B V 362;3R9A B H 368;5.1374
3R9A B V 362;3R9A B A 371;10.7011
3R9A B V 362;3R9A B W 372;34.368
3R9A B V 362;3R9A B L 375;9.75681
3R9A B Q 363;3R9A B Q 364;21.4479
3R9A B Q 363;3R9A B D 365;0.796592
3R9A B Q 363;3R9A B P 366;10.6831
3R9A B Q 364;3R9A B D 365;28.1583
3R9A B Q 364;3R9A B P 366;5.86257
3R9A B D 365;3R9A B P 366;23.6955
3R9A B D 365;3R9A B K 367;20.5849
3R9A B D 365;3R9A B H 368;29.1059
3R9A B D 365;3R9A B W 372;0.0916048
3R9A B P 366;3R9A B K 367;27.6462
3R9A B P 366;3R9A B H 368;3.21155
3R9A B P 366;3R9A B W 372;18.2717
3R9A B P 366;3R9A B R 394;12.865
3R9A B P 366;3R9A B L 398;2.70637
3R9A B K 367;3R9A B H 368;17.8203
3R9A B K 367;3R9A B M 369;9.91219
3R9A B K 367;3R9A B W 372;0.000185001
3R9A B K 367;3R9A B R 394;14.3182
3R9A B K 367;3R9A B L 398;33.4177
3R9A B H 368;3R9A B M 369;16.4923
3R9A B H 368;3R9A B E 370;20.5342
3R9A B H 368;3R9A B A 371;19.5199
3R9A B H 368;3R9A B W 372;11.3433
3R9A B H 368;3R9A B L 398;0.62128
3R9A B M 369;3R9A B E 370;46.6433
3R9A B M 369;3R9A B A 371;0.87243
3R9A B M 369;3R9A B W 372;9.18209
3R9A B M 369;3R9A B Q 373;9.78037
3R9A B M 369;3R9A B C 395;19.3432
3R9A B M 369;3R9A B L 398;21.1634
3R9A B M 369;3R9A B K 399;27.7699
3R9A B M 369;3R9A B N 402;12.0944
3R9A B E 370;3R9A B A 371;15.4507
3R9A B E 370;3R9A B W 372;0.771357
3R9A B E 370;3R9A B Q 373;16.2902
3R9A B E 370;3R9A B Y 374;14.1172
3R9A B A 371;3R9A B W 372;14.674
3R9A B A 371;3R9A B Q 373;0.934605
3R9A B A 371;3R9A B Y 374;5.55484
3R9A B A 371;3R9A B L 375;8.7063
3R9A B W 372;3R9A B Q 373;17.0593
3R9A B W 372;3R9A B Y 374;0.751037
3R9A B W 372;3R9A B L 375;17.2034
3R9A B W 372;3R9A B G 376;5.50786
3R9A B W 372;3R9A B S 390;0.301808
3R9A B W 372;3R9A B A 391;25.825
3R9A B W 372;3R9A B L 392;1.74491
3R9A B W 372;3R9A B R 394;1.67223
3R9A B W 372;3R9A B R 394;34.9627
3R9A B W 372;3R9A B C 395;12.2099
3R9A B W 372;3R9A B L 398;7.9802
3R9A B Q 373;3R9A B Y 374;37.398
3R9A B Q 373;3R9A B L 375;0.741443
3R9A B Q 373;3R9A B G 376;3.9305
3R9A B Q 373;3R9A B T 377;17.7966
3R9A B Q 373;3R9A B L 392;9.52493
3R9A B Q 373;3R9A B C 395;13.5648
3R9A B Q 373;3R9A B N 402;17.3128
3R9A B Q 373;3R9A B T 404;22.2479
3R9A B Q 373;3R9A B A 405;9.26286
3R9A B Y 374;3R9A B L 375;16.4089
3R9A B Y 374;3R9A B G 376;1.1687
3R9A B Y 374;3R9A B T 377;17.5091
3R9A B Y 374;3R9A B T 378;14.4366
3R9A B L 375;3R9A B G 376;16.0789
3R9A B L 375;3R9A B T 377;0.282526
3R9A B L 375;3R9A B T 378;6.21402
3R9A B L 375;3R9A B Q 379;25.0124
3R9A B L 375;3R9A B L 387;0.0798584
3R9A B L 375;3R9A B A 391;12.5028
3R9A B G 376;3R9A B T 377;16.8503
3R9A B G 376;3R9A B T 378;1.16894
3R9A B G 376;3R9A B Q 379;4.96311
3R9A B G 376;3R9A B A 380;7.4984
3R9A B G 376;3R9A B A 388;13.646
3R9A B G 376;3R9A B A 391;8.35234
3R9A B G 376;3R9A B L 392;14.2187
3R9A B T 377;3R9A B T 378;21.0051
3R9A B T 377;3R9A B Q 379;0.436924
3R9A B T 377;3R9A B A 380;13.0483
3R9A B T 377;3R9A B E 381;21.0593
3R9A B T 377;3R9A B L 392;8.642
3R9A B T 377;3R9A B T 404;13.7596
3R9A B T 377;3R9A B A 405;1.12094
3R9A B T 377;3R9A B A 408;16.2928
3R9A B T 377;3R9A B L 523;6.10101
3R9A B T 378;3R9A B Q 379;16.5577
3R9A B T 378;3R9A B A 380;1.42312
3R9A B T 378;3R9A B E 381;17.3516
3R9A B T 378;3R9A B N 382;6.32931
3R9A B Q 379;3R9A B A 380;15.4643
3R9A B Q 379;3R9A B E 381;0.74879
3R9A B Q 379;3R9A B N 382;20.8887
3R9A B Q 379;3R9A B E 383;1.89663
3R9A B Q 379;3R9A B Q 384;25.6755
3R9A B Q 379;3R9A B L 387;23.5129
3R9A B Q 379;3R9A B A 388;10.3484
3R9A B Q 379;3R9A B A 391;0.488636
3R9A B A 380;3R9A B E 381;19.4638
3R9A B A 380;3R9A B N 382;1.03869
3R9A B A 380;3R9A B E 383;6.261
3R9A B A 380;3R9A B Q 384;3.00761
3R9A B A 380;3R9A B E 385;4.64607
3R9A B A 380;3R9A B A 388;11.4029
3R9A B A 380;3R9A B L 392;2.3539
3R9A B A 380;3R9A B A 408;3.11752
3R9A B A 380;3R9A B V 411;0.84115
3R9A B A 380;3R9A B S 412;6.79997
3R9A B A 380;3R9A B R 557;26.6556
3R9A B E 381;3R9A B N 382;14.5235
3R9A B E 381;3R9A B E 383;3.02013
3R9A B E 381;3R9A B Y 522;19.0993
3R9A B E 381;3R9A B L 523;21.3858
3R9A B E 381;3R9A B Q 552;2.15234
3R9A B E 381;3R9A B Y 555;23.3661
3R9A B E 381;3R9A B I 556;7.87233
3R9A B E 381;3R9A B R 557;10.2059
3R9A B N 382;3R9A B E 383;16.0237
3R9A B N 382;3R9A B Q 384;15.8961
3R9A B N 382;3R9A B I 556;17.9805
3R9A B N 382;3R9A B Q 586;20.9727
3R9A B N 382;3R9A B A 598;5.74517
3R9A B N 382;3R9A B S 600;2.32979
3R9A B E 383;3R9A B Q 384;22.2848
3R9A B E 383;3R9A B E 385;7.76829
3R9A B E 383;3R9A B I 556;7.36709
3R9A B E 383;3R9A B R 557;35.0999
3R9A B E 383;3R9A B Y 560;15.459
3R9A B E 383;3R9A B Q 586;0.303724
3R9A B E 383;3R9A B S 600;13.2657
3R9A B E 383;3R9A B N 602;21.7233
3R9A B E 383;3R9A B I 603;10.6704
3R9A B Q 384;3R9A B E 385;22.1666
3R9A B Q 384;3R9A B L 386;3.01125
3R9A B Q 384;3R9A B L 387;29.5852
3R9A B Q 384;3R9A B A 388;8.21263
3R9A B Q 384;3R9A B R 557;0.87147
3R9A B Q 384;3R9A B Q 586;2.89465
3R9A B Q 384;3R9A B A 598;16.5761
3R9A B Q 384;3R9A B M 599;7.0308
3R9A B Q 384;3R9A B S 600;15.3192
3R9A B Q 384;3R9A B E 601;1.71309
3R9A B E 385;3R9A B L 386;25.4802
3R9A B E 385;3R9A B L 387;0.440118
3R9A B E 385;3R9A B A 388;11.9837
3R9A B E 385;3R9A B I 389;18.5208
3R9A B E 385;3R9A B S 412;20.2265
3R9A B E 385;3R9A B N 415;13.3507
3R9A B E 385;3R9A B E 416;16.9118
3R9A B E 385;3R9A B R 557;21.3192
3R9A B L 386;3R9A B L 387;26.2231
3R9A B L 386;3R9A B A 388;0.992046
3R9A B L 386;3R9A B I 389;20.9713
3R9A B L 386;3R9A B S 390;12.1498
3R9A B L 386;3R9A B E 416;16.2242
3R9A B L 387;3R9A B A 388;16.8166
3R9A B L 387;3R9A B I 389;0.489368
3R9A B L 387;3R9A B S 390;11.6696
3R9A B L 387;3R9A B A 391;9.53756
3R9A B L 387;3R9A B A 598;2.31458
3R9A B A 388;3R9A B I 389;16.5166
3R9A B A 388;3R9A B S 390;1.02317
3R9A B A 388;3R9A B A 391;5.19596
3R9A B A 388;3R9A B L 392;15.6502
3R9A B A 388;3R9A B S 412;5.11261
3R9A B I 389;3R9A B S 390;20.0055
3R9A B I 389;3R9A B A 391;0.758208
3R9A B I 389;3R9A B L 392;8.9162
3R9A B I 389;3R9A B R 393;30.2341
3R9A B I 389;3R9A B L 409;14.8277
3R9A B I 389;3R9A B S 412;14.9681
3R9A B I 389;3R9A B F 413;17.1425
3R9A B I 389;3R9A B E 416;12.0223
3R9A B I 389;3R9A B L 418;2.84576
3R9A B S 390;3R9A B A 391;17.9153
3R9A B S 390;3R9A B L 392;0.549754
3R9A B S 390;3R9A B R 393;14.3081
3R9A B S 390;3R9A B R 394;4.4533
3R9A B S 390;3R9A B R 394;10.0191
3R9A B A 391;3R9A B L 392;16.7836
3R9A B A 391;3R9A B R 393;1.11791
3R9A B A 391;3R9A B R 394;2.68771
3R9A B A 391;3R9A B R 394;3.86577
3R9A B A 391;3R9A B C 395;6.52576
3R9A B L 392;3R9A B R 393;17.2536
3R9A B L 392;3R9A B R 394;0.523123
3R9A B L 392;3R9A B C 395;10.1058
3R9A B L 392;3R9A B L 396;14.2127
3R9A B L 392;3R9A B A 405;18.1638
3R9A B L 392;3R9A B A 408;16.1217
3R9A B L 392;3R9A B L 409;20.7566
3R9A B L 392;3R9A B S 412;7.70606
3R9A B R 393;3R9A B R 394;17.1337
3R9A B R 393;3R9A B R 394;0.216249
3R9A B R 393;3R9A B C 395;1.57551
3R9A B R 393;3R9A B L 396;13.432
3R9A B R 393;3R9A B E 397;22.0016
3R9A B R 393;3R9A B L 409;14.328
3R9A B R 393;3R9A B F 413;19.8679
3R9A B R 393;3R9A B L 418;1.56694
3R9A B R 393;3R9A B Q 421;4.51653
3R9A B R 394;3R9A B C 395;15.0165
3R9A B R 394;3R9A B L 396;0.448162
3R9A B R 394;3R9A B E 397;11.1106
3R9A B R 394;3R9A B L 398;8.42521
3R9A B R 394;3R9A B C 395;1.1728
3R9A B R 394;3R9A B E 397;26.5962
3R9A B R 394;3R9A B L 398;15.2022
3R9A B C 395;3R9A B L 396;18.5963
3R9A B C 395;3R9A B E 397;1.07438
3R9A B C 395;3R9A B L 398;9.8185
3R9A B C 395;3R9A B K 399;7.92684
3R9A B C 395;3R9A B N 402;9.24692
3R9A B C 395;3R9A B A 405;9.97683
3R9A B L 396;3R9A B E 397;21.9565
3R9A B L 396;3R9A B L 398;1.65035
3R9A B L 396;3R9A B K 399;10.7047
3R9A B L 396;3R9A B P 400;26.6384
3R9A B L 396;3R9A B N 402;8.94486
3R9A B L 396;3R9A B A 405;13.8233
3R9A B L 396;3R9A B L 406;23.6469
3R9A B L 396;3R9A B L 409;18.3929
3R9A B L 396;3R9A B T 425;0.280328
3R9A B E 397;3R9A B L 398;26.5262
3R9A B E 397;3R9A B K 399;0.120446
3R9A B E 397;3R9A B P 400;7.65724
3R9A B L 398;3R9A B K 399;21.7332
3R9A B L 398;3R9A B P 400;7.96686
3R9A B K 399;3R9A B P 400;20.2347
3R9A B K 399;3R9A B D 401;32.3039
3R9A B K 399;3R9A B N 402;29.6437
3R9A B P 400;3R9A B D 401;22.8101
3R9A B P 400;3R9A B N 402;2.42292
3R9A B P 400;3R9A B L 406;10.0776
3R9A B P 400;3R9A B Y 432;21.8874
3R9A B D 401;3R9A B N 402;16.4466
3R9A B D 401;3R9A B Q 403;14.6723
3R9A B D 401;3R9A B L 406;4.71525
3R9A B D 401;3R9A B Y 432;34.2766
3R9A B N 402;3R9A B Q 403;19.5039
3R9A B N 402;3R9A B T 404;8.38584
3R9A B N 402;3R9A B A 405;15.7622
3R9A B N 402;3R9A B L 406;11.6579
3R9A B Q 403;3R9A B T 404;26.1567
3R9A B Q 403;3R9A B A 405;1.12527
3R9A B Q 403;3R9A B L 406;12.5513
3R9A B Q 403;3R9A B M 407;7.48579
3R9A B Q 403;3R9A B W 429;28.9298
3R9A B Q 403;3R9A B Y 432;15.1418
3R9A B Q 403;3R9A B T 433;19.7023
3R9A B Q 403;3R9A B P 434;10.8809
3R9A B T 404;3R9A B A 405;17.6744
3R9A B T 404;3R9A B L 406;0.514965
3R9A B T 404;3R9A B M 407;9.48902
3R9A B T 404;3R9A B A 408;12.6404
3R9A B T 404;3R9A B W 429;0.0776669
3R9A B A 405;3R9A B L 406;16.8956
3R9A B A 405;3R9A B M 407;0.753831
3R9A B A 405;3R9A B A 408;6.60663
3R9A B A 405;3R9A B L 409;9.26182
3R9A B L 406;3R9A B M 407;17.9736
3R9A B L 406;3R9A B A 408;0.995496
3R9A B L 406;3R9A B L 409;6.3019
3R9A B L 406;3R9A B A 410;6.62548
3R9A B L 406;3R9A B T 425;27.699
3R9A B L 406;3R9A B D 428;17.1566
3R9A B L 406;3R9A B W 429;17.8891
3R9A B L 406;3R9A B Y 432;11.8287
3R9A B M 407;3R9A B A 408;20.0959
3R9A B M 407;3R9A B L 409;0.791252
3R9A B M 407;3R9A B A 410;11.4997
3R9A B M 407;3R9A B V 411;17.6502
3R9A B M 407;3R9A B T 425;0.000288139
3R9A B M 407;3R9A B L 426;13.9769
3R9A B M 407;3R9A B W 429;31.8894
3R9A B M 407;3R9A B F 475;2.98472
3R9A B M 407;3R9A B D 489;13.1301
3R9A B M 407;3R9A B C 492;18.524
3R9A B M 407;3R9A B G 493;11.5355
3R9A B M 407;3R9A B V 496;4.71493
3R9A B M 407;3R9A B K 527;0.121906
3R9A B A 408;3R9A B L 409;14.6205
3R9A B A 408;3R9A B A 410;0.694702
3R9A B A 408;3R9A B V 411;15.2622
3R9A B A 408;3R9A B S 412;10.5379
3R9A B L 409;3R9A B A 410;16.6748
3R9A B L 409;3R9A B V 411;1.21784
3R9A B L 409;3R9A B S 412;11.0377
3R9A B L 409;3R9A B F 413;35.6815
3R9A B L 409;3R9A B T 425;14.9284
3R9A B A 410;3R9A B V 411;17.7995
3R9A B A 410;3R9A B S 412;0.446351
3R9A B A 410;3R9A B F 413;7.61181
3R9A B A 410;3R9A B T 414;9.80113
3R9A B A 410;3R9A B A 422;13.5836
3R9A B A 410;3R9A B T 425;13.378
3R9A B A 410;3R9A B L 426;16.8107
3R9A B A 410;3R9A B V 496;6.42509
3R9A B V 411;3R9A B S 412;19.5132
3R9A B V 411;3R9A B F 413;1.03634
3R9A B V 411;3R9A B T 414;10.5223
3R9A B V 411;3R9A B N 415;15.2093
3R9A B V 411;3R9A B C 492;2.05729
3R9A B V 411;3R9A B V 496;15.9094
3R9A B V 411;3R9A B K 527;19.0686
3R9A B V 411;3R9A B R 557;2.05034
3R9A B S 412;3R9A B F 413;17.488
3R9A B S 412;3R9A B T 414;0.784831
3R9A B S 412;3R9A B N 415;10.2799
3R9A B S 412;3R9A B E 416;9.5812
3R9A B S 412;3R9A B R 557;0.426163
3R9A B F 413;3R9A B T 414;17.0259
3R9A B F 413;3R9A B N 415;0.812927
3R9A B F 413;3R9A B E 416;9.92684
3R9A B F 413;3R9A B S 417;2.76434
3R9A B F 413;3R9A B L 418;35.5896
3R9A B F 413;3R9A B Q 421;23.8127
3R9A B F 413;3R9A B A 422;11.0439
3R9A B F 413;3R9A B T 425;8.72884
3R9A B T 414;3R9A B N 415;23.0625
3R9A B T 414;3R9A B E 416;1.13668
3R9A B T 414;3R9A B S 417;14.2045
3R9A B T 414;3R9A B L 418;1.59363
3R9A B T 414;3R9A B A 422;9.34168
3R9A B T 414;3R9A B V 496;13.9251
3R9A B T 414;3R9A B N 499;7.11411
3R9A B T 414;3R9A B L 500;25.4383
3R9A B N 415;3R9A B E 416;23.0158
3R9A B N 415;3R9A B S 417;7.30971
3R9A B N 415;3R9A B R 557;7.34549
3R9A B E 416;3R9A B S 417;24.6155
3R9A B E 416;3R9A B L 418;25.6928
3R9A B S 417;3R9A B L 418;21.0075
3R9A B S 417;3R9A B Q 419;21.95
3R9A B S 417;3R9A B L 500;1.39318
3R9A B L 418;3R9A B Q 419;19.1583
3R9A B L 418;3R9A B R 420;1.02959
3R9A B L 418;3R9A B Q 421;37.7348
3R9A B L 418;3R9A B A 422;8.81824
3R9A B L 418;3R9A B L 500;0.391771
3R9A B Q 419;3R9A B R 420;26.9098
3R9A B Q 419;3R9A B Q 421;1.27698
3R9A B Q 419;3R9A B A 422;7.92239
3R9A B Q 419;3R9A B C 423;15.0692
3R9A B Q 419;3R9A B L 500;41.0375
3R9A B R 420;3R9A B Q 421;47.5123
3R9A B R 420;3R9A B A 422;1.04403
3R9A B R 420;3R9A B C 423;7.65346
3R9A B R 420;3R9A B E 424;32.5999
3R9A B R 420;3R9A B L 467;22.3185
3R9A B Q 421;3R9A B A 422;16.2571
3R9A B Q 421;3R9A B C 423;0.746314
3R9A B Q 421;3R9A B E 424;20.2296
3R9A B Q 421;3R9A B T 425;11.6043
3R9A B A 422;3R9A B C 423;16.7484
3R9A B A 422;3R9A B E 424;0.841202
3R9A B A 422;3R9A B T 425;6.77406
3R9A B A 422;3R9A B L 426;14.8723
3R9A B A 422;3R9A B V 496;0.322367
3R9A B A 422;3R9A B L 500;10.903
3R9A B C 423;3R9A B E 424;17.3338
3R9A B C 423;3R9A B T 425;0.86961
3R9A B C 423;3R9A B L 426;9.40222
3R9A B C 423;3R9A B R 427;7.45457
3R9A B C 423;3R9A B L 467;14.6495
3R9A B C 423;3R9A B F 468;21.7166
3R9A B C 423;3R9A B V 471;18.5483
3R9A B C 423;3R9A B L 497;8.38631
3R9A B C 423;3R9A B L 500;8.70417
3R9A B E 424;3R9A B T 425;20.0658
3R9A B E 424;3R9A B L 426;0.758183
3R9A B E 424;3R9A B R 427;27.7151
3R9A B E 424;3R9A B D 428;15.9797
3R9A B E 424;3R9A B L 467;14.0882
3R9A B T 425;3R9A B L 426;17.0719
3R9A B T 425;3R9A B R 427;0.997049
3R9A B T 425;3R9A B D 428;13.4151
3R9A B T 425;3R9A B W 429;8.58271
3R9A B L 426;3R9A B R 427;15.834
3R9A B L 426;3R9A B D 428;0.735545
3R9A B L 426;3R9A B W 429;14.8181
3R9A B L 426;3R9A B L 430;6.43668
3R9A B L 426;3R9A B V 471;6.68329
3R9A B L 426;3R9A B F 475;22.0543
3R9A B L 426;3R9A B G 493;10.9629
3R9A B L 426;3R9A B V 496;13.5558
3R9A B L 426;3R9A B L 497;14.2954
3R9A B L 426;3R9A B L 500;5.05848
3R9A B R 427;3R9A B D 428;22.5422
3R9A B R 427;3R9A B W 429;0.775306
3R9A B R 427;3R9A B L 430;9.56163
3R9A B R 427;3R9A B R 431;10.5489
3R9A B R 427;3R9A B V 440;22.8755
3R9A B R 427;3R9A B L 467;18.7044
3R9A B R 427;3R9A B E 470;21.7878
3R9A B R 427;3R9A B V 471;17.2664
3R9A B R 427;3R9A B L 474;14.2298
3R9A B R 427;3R9A B F 475;1.48556
3R9A B D 428;3R9A B W 429;15.6103
3R9A B D 428;3R9A B L 430;1.25924
3R9A B D 428;3R9A B R 431;28.0392
3R9A B D 428;3R9A B Y 432;24.5495
3R9A B W 429;3R9A B L 430;28.7286
3R9A B W 429;3R9A B R 431;0.392015
3R9A B W 429;3R9A B Y 432;5.34605
3R9A B W 429;3R9A B T 433;28.4286
3R9A B W 429;3R9A B Y 436;6.53938
3R9A B W 429;3R9A B F 475;12.0666
3R9A B W 429;3R9A B D 487;2.71429
3R9A B W 429;3R9A B D 489;22.3277
3R9A B W 429;3R9A B V 490;13.1764
3R9A B L 430;3R9A B R 431;16.0477
3R9A B L 430;3R9A B Y 432;1.56753
3R9A B L 430;3R9A B T 433;11.1384
3R9A B L 430;3R9A B Y 436;24.6063
3R9A B L 430;3R9A B A 437;2.90062
3R9A B L 430;3R9A B L 439;8.80852
3R9A B L 430;3R9A B V 440;10.8545
3R9A B L 430;3R9A B L 474;19.3566
3R9A B L 430;3R9A B F 475;24.8194
3R9A B L 430;3R9A B A 478;9.03326
3R9A B L 430;3R9A B V 490;3.46858
3R9A B R 431;3R9A B Y 432;58.9156
3R9A B R 431;3R9A B T 433;1.94
3R9A B R 431;3R9A B Y 436;0.11442
3R9A B R 431;3R9A B A 437;22.4606
3R9A B R 431;3R9A B V 440;25.2862
3R9A B Y 432;3R9A B T 433;16.8099
3R9A B Y 432;3R9A B P 434;10.1865
3R9A B Y 432;3R9A B A 437;0.212516
3R9A B T 433;3R9A B P 434;24.241
3R9A B T 433;3R9A B A 435;11.0866
3R9A B T 433;3R9A B Y 436;23.3669
3R9A B T 433;3R9A B A 437;7.9847
3R9A B T 433;3R9A B D 487;0.990243
3R9A B P 434;3R9A B A 435;28.3712
3R9A B P 434;3R9A B Y 436;1.03864
3R9A B P 434;3R9A B A 437;16.3777
3R9A B P 434;3R9A B H 438;2.04968
3R9A B A 435;3R9A B Y 436;34.9157
3R9A B A 435;3R9A B A 437;1.15254
3R9A B A 435;3R9A B H 438;11.9772
3R9A B A 435;3R9A B L 481;9.59409
3R9A B Y 436;3R9A B A 437;16.7924
3R9A B Y 436;3R9A B H 438;5.03852
3R9A B Y 436;3R9A B L 439;22.0843
3R9A B Y 436;3R9A B V 440;4.25766
3R9A B Y 436;3R9A B A 478;21.8849
3R9A B Y 436;3R9A B L 481;16.2422
3R9A B Y 436;3R9A B D 487;23.5119
3R9A B Y 436;3R9A B V 490;14.6761
3R9A B A 437;3R9A B H 438;26.8114
3R9A B A 437;3R9A B L 439;2.55588
3R9A B A 437;3R9A B V 440;15.5206
3R9A B H 438;3R9A B L 439;41.3466
3R9A B H 438;3R9A B V 440;6.92234
3R9A B H 438;3R9A B L 481;19.7336
3R9A B L 439;3R9A B V 440;25.6434
3R9A B L 439;3R9A B L 474;24.803
3R9A B L 439;3R9A B A 477;19.6424
3R9A B L 439;3R9A B A 478;10.6905
3R9A B L 439;3R9A B L 481;12.5575
3R9A B V 440;3R9A B E 470;0.208258
3R9A B V 440;3R9A B L 474;16.6233
3R9A B D 465;3R9A B S 466;27.9869
3R9A B D 465;3R9A B L 467;6.92127
3R9A B D 465;3R9A B F 468;19.6316
3R9A B D 465;3R9A B L 469;27.7685
3R9A B S 466;3R9A B L 467;26.6891
3R9A B S 466;3R9A B F 468;0.885784
3R9A B S 466;3R9A B L 469;14.0579
3R9A B S 466;3R9A B E 470;15.0845
3R9A B L 467;3R9A B F 468;22.2879
3R9A B L 467;3R9A B L 469;0.967562
3R9A B L 467;3R9A B E 470;18.7806
3R9A B L 467;3R9A B V 471;18.7181
3R9A B F 468;3R9A B L 469;31.9966
3R9A B F 468;3R9A B E 470;0.805272
3R9A B F 468;3R9A B V 471;6.85462
3R9A B F 468;3R9A B K 472;26.1548
3R9A B F 468;3R9A B L 497;23.2195
3R9A B F 468;3R9A B F 498;1.28922
3R9A B F 468;3R9A B L 500;12.8268
3R9A B F 468;3R9A B S 501;21.7249
3R9A B F 468;3R9A B E 503;2.78722
3R9A B L 469;3R9A B E 470;20.4674
3R9A B L 469;3R9A B V 471;0.784572
3R9A B L 469;3R9A B K 472;25.6354
3R9A B L 469;3R9A B E 473;19.5595
3R9A B E 470;3R9A B V 471;20.1415
3R9A B E 470;3R9A B K 472;0.749905
3R9A B E 470;3R9A B E 473;11.0756
3R9A B E 470;3R9A B L 474;25.6835
3R9A B V 471;3R9A B K 472;16.3892
3R9A B V 471;3R9A B E 473;0.900897
3R9A B V 471;3R9A B L 474;18.0068
3R9A B V 471;3R9A B F 475;17.9986
3R9A B V 471;3R9A B L 497;14.8808
3R9A B K 472;3R9A B E 473;28.701
3R9A B K 472;3R9A B L 474;0.961087
3R9A B K 472;3R9A B F 475;5.31035
3R9A B K 472;3R9A B L 476;26.6876
3R9A B K 472;3R9A B L 494;9.17589
3R9A B K 472;3R9A B L 497;15.4191
3R9A B K 472;3R9A B F 498;17.7236
3R9A B K 472;3R9A B E 503;13.9317
3R9A B K 472;3R9A B K 506;6.86306
3R9A B E 473;3R9A B L 474;19.67
3R9A B E 473;3R9A B F 475;0.84834
3R9A B E 473;3R9A B L 476;25.6093
3R9A B E 473;3R9A B A 477;12.4867
3R9A B E 473;3R9A B R 480;9.94869
3R9A B L 474;3R9A B F 475;17.3018
3R9A B L 474;3R9A B L 476;0.682012
3R9A B L 474;3R9A B A 477;11.8568
3R9A B L 474;3R9A B A 478;6.70846
3R9A B F 475;3R9A B L 476;16.6356
3R9A B F 475;3R9A B A 477;0.833024
3R9A B F 475;3R9A B A 478;10.4677
3R9A B F 475;3R9A B V 479;8.83313
3R9A B F 475;3R9A B D 489;0.47083
3R9A B F 475;3R9A B V 490;19.1428
3R9A B F 475;3R9A B G 493;10.1687
3R9A B F 475;3R9A B L 494;17.5176
3R9A B F 475;3R9A B L 497;13.6959
3R9A B L 476;3R9A B A 477;15.7915
3R9A B L 476;3R9A B A 478;1.24297
3R9A B L 476;3R9A B V 479;14.2041
3R9A B L 476;3R9A B R 480;27.8969
3R9A B L 476;3R9A B L 494;21.4482
3R9A B L 476;3R9A B F 498;11.0355
3R9A B A 477;3R9A B A 478;15.6534
3R9A B A 477;3R9A B V 479;0.56156
3R9A B A 477;3R9A B R 480;29.7332
3R9A B A 477;3R9A B L 481;11.5138
3R9A B A 478;3R9A B V 479;20.7132
3R9A B A 478;3R9A B R 480;1.07175
3R9A B A 478;3R9A B L 481;13.3126
3R9A B A 478;3R9A B D 482;1.72861
3R9A B A 478;3R9A B V 490;11.2249
3R9A B V 479;3R9A B R 480;23.5234
3R9A B V 479;3R9A B L 481;2.87918
3R9A B V 479;3R9A B D 482;9.86497
3R9A B V 479;3R9A B P 483;11.378
3R9A B V 479;3R9A B S 485;0.659957
3R9A B V 479;3R9A B V 490;16.9574
3R9A B V 479;3R9A B Q 491;22.7922
3R9A B V 479;3R9A B L 494;13.8106
3R9A B R 480;3R9A B L 481;23.0802
3R9A B R 480;3R9A B D 482;0.72084
3R9A B R 480;3R9A B P 483;19.2037
3R9A B L 481;3R9A B D 482;28.0591
3R9A B L 481;3R9A B P 483;7.22848
3R9A B D 482;3R9A B P 483;24.783
3R9A B D 482;3R9A B T 484;18.0974
3R9A B D 482;3R9A B S 485;36.3389
3R9A B P 483;3R9A B T 484;35.6946
3R9A B P 483;3R9A B S 485;5.26178
3R9A B P 483;3R9A B I 486;2.32114
3R9A B T 484;3R9A B S 485;28.7302
3R9A B T 484;3R9A B I 486;5.26254
3R9A B S 485;3R9A B I 486;34.3537
3R9A B S 485;3R9A B D 487;8.42988
3R9A B I 486;3R9A B D 487;25.0025
3R9A B I 486;3R9A B P 488;11.7488
3R9A B I 486;3R9A B Q 491;16.3333
3R9A B I 486;3R9A B A 513;23.262
3R9A B I 486;3R9A B A 514;2.82117
3R9A B I 486;3R9A B S 516;12.0068
3R9A B I 486;3R9A B V 517;24.9341
3R9A B D 487;3R9A B P 488;25.2603
3R9A B D 487;3R9A B D 489;14.9188
3R9A B D 487;3R9A B V 490;23.6136
3R9A B D 487;3R9A B Q 491;12.6468
3R9A B P 488;3R9A B D 489;28.1144
3R9A B P 488;3R9A B V 490;0.338239
3R9A B P 488;3R9A B Q 491;7.15068
3R9A B P 488;3R9A B C 492;10.4504
3R9A B P 488;3R9A B A 514;20.6526
3R9A B P 488;3R9A B V 517;16.0847
3R9A B P 488;3R9A B R 518;29.3618
3R9A B P 488;3R9A B L 524;6.32175
3R9A B D 489;3R9A B V 490;17.427
3R9A B D 489;3R9A B Q 491;0.963952
3R9A B D 489;3R9A B C 492;14.9503
3R9A B D 489;3R9A B G 493;5.38545
3R9A B D 489;3R9A B R 518;4.18247
3R9A B V 490;3R9A B Q 491;19.9536
3R9A B V 490;3R9A B C 492;1.00263
3R9A B V 490;3R9A B G 493;3.95878
3R9A B V 490;3R9A B L 494;10.3269
3R9A B Q 491;3R9A B C 492;17.7857
3R9A B Q 491;3R9A B G 493;0.501416
3R9A B Q 491;3R9A B L 494;12.5856
3R9A B Q 491;3R9A B G 495;5.62584
3R9A B Q 491;3R9A B D 509;0.136177
3R9A B Q 491;3R9A B C 510;32.6928
3R9A B Q 491;3R9A B F 511;2.67227
3R9A B Q 491;3R9A B A 513;14.1298
3R9A B Q 491;3R9A B A 514;8.27932
3R9A B C 492;3R9A B G 493;16.35
3R9A B C 492;3R9A B L 494;1.12984
3R9A B C 492;3R9A B G 495;3.95236
3R9A B C 492;3R9A B V 496;13.8832
3R9A B C 492;3R9A B F 511;15.5299
3R9A B C 492;3R9A B A 514;2.92088
3R9A B C 492;3R9A B L 524;13.6966
3R9A B C 492;3R9A B K 527;15.3885
3R9A B G 493;3R9A B L 494;14.4403
3R9A B G 493;3R9A B G 495;0.706847
3R9A B G 493;3R9A B V 496;8.95606
3R9A B G 493;3R9A B L 497;10.871
3R9A B L 494;3R9A B G 495;15.2328
3R9A B L 494;3R9A B V 496;0.911792
3R9A B L 494;3R9A B L 497;20.0308
3R9A B L 494;3R9A B F 498;28.9273
3R9A B L 494;3R9A B C 510;15.7636
3R9A B G 495;3R9A B V 496;15.0651
3R9A B G 495;3R9A B L 497;0.848129
3R9A B G 495;3R9A B F 498;6.282
3R9A B G 495;3R9A B N 499;10.2475
3R9A B G 495;3R9A B A 507;11.4848
3R9A B G 495;3R9A B C 510;10.2518
3R9A B G 495;3R9A B F 511;12.0912
3R9A B V 496;3R9A B L 497;16.5514
3R9A B V 496;3R9A B F 498;0.759772
3R9A B V 496;3R9A B N 499;10.0383
3R9A B V 496;3R9A B L 500;14.1941
3R9A B V 496;3R9A B F 511;8.84418
3R9A B V 496;3R9A B K 527;4.66182
3R9A B L 497;3R9A B F 498;18.7518
3R9A B L 497;3R9A B N 499;1.12502
3R9A B L 497;3R9A B L 500;17.3372
3R9A B L 497;3R9A B S 501;5.2484
3R9A B F 498;3R9A B N 499;16.6819
3R9A B F 498;3R9A B L 500;0.739593
3R9A B F 498;3R9A B S 501;11.3722
3R9A B F 498;3R9A B G 502;4.30139
3R9A B F 498;3R9A B E 503;30.7317
3R9A B F 498;3R9A B Y 504;1.60255
3R9A B F 498;3R9A B K 506;33.332
3R9A B F 498;3R9A B A 507;12.0919
3R9A B F 498;3R9A B C 510;8.78783
3R9A B N 499;3R9A B L 500;22.5879
3R9A B N 499;3R9A B S 501;0.968569
3R9A B N 499;3R9A B G 502;7.38476
3R9A B N 499;3R9A B Y 504;25.4165
3R9A B N 499;3R9A B A 507;8.51958
3R9A B N 499;3R9A B F 511;5.1624
3R9A B N 499;3R9A B A 530;0.000147365
3R9A B N 499;3R9A B T 531;13.1951
3R9A B N 499;3R9A B N 534;10.7766
3R9A B L 500;3R9A B S 501;22.5628
3R9A B L 500;3R9A B G 502;3.49036
3R9A B S 501;3R9A B G 502;22.8785
3R9A B S 501;3R9A B E 503;25.9962
3R9A B G 502;3R9A B E 503;19.6689
3R9A B G 502;3R9A B Y 504;32.1739
3R9A B E 503;3R9A B Y 504;17.7527
3R9A B E 503;3R9A B D 505;3.65459
3R9A B E 503;3R9A B K 506;33.0849
3R9A B E 503;3R9A B A 507;5.0274
3R9A B Y 504;3R9A B D 505;24.9218
3R9A B Y 504;3R9A B K 506;0.868336
3R9A B Y 504;3R9A B A 507;9.85075
3R9A B Y 504;3R9A B V 508;11.3383
3R9A B Y 504;3R9A B T 531;18.2491
3R9A B Y 504;3R9A B N 534;37.0205
3R9A B Y 504;3R9A B G 535;15.6944
3R9A B Y 504;3R9A B Q 537;1.62296
3R9A B D 505;3R9A B K 506;24.846
3R9A B D 505;3R9A B A 507;0.882662
3R9A B D 505;3R9A B V 508;14.6315
3R9A B D 505;3R9A B D 509;13.6211
3R9A B D 505;3R9A B G 535;0.56289
3R9A B D 505;3R9A B Q 537;14.0656
3R9A B K 506;3R9A B A 507;15.2371
3R9A B K 506;3R9A B V 508;0.566571
3R9A B K 506;3R9A B D 509;20.8436
3R9A B K 506;3R9A B C 510;10.8966
3R9A B A 507;3R9A B V 508;15.6057
3R9A B A 507;3R9A B D 509;1.20597
3R9A B A 507;3R9A B C 510;9.62691
3R9A B A 507;3R9A B F 511;14.5492
3R9A B A 507;3R9A B T 531;9.26513
3R9A B V 508;3R9A B D 509;23.8538
3R9A B V 508;3R9A B C 510;0.92179
3R9A B V 508;3R9A B F 511;5.03942
3R9A B V 508;3R9A B T 512;17.6131
3R9A B V 508;3R9A B L 528;17.8705
3R9A B V 508;3R9A B T 531;15.8384
3R9A B V 508;3R9A B L 532;21.3695
3R9A B V 508;3R9A B Q 537;10.185
3R9A B D 509;3R9A B C 510;19.864
3R9A B D 509;3R9A B F 511;0.597166
3R9A B D 509;3R9A B T 512;12.4273
3R9A B D 509;3R9A B A 513;13.5315
3R9A B C 510;3R9A B F 511;19.0655
3R9A B C 510;3R9A B T 512;0.729291
3R9A B C 510;3R9A B A 513;6.53455
3R9A B C 510;3R9A B A 514;6.88732
3R9A B F 511;3R9A B T 512;16.7037
3R9A B F 511;3R9A B A 513;0.95509
3R9A B F 511;3R9A B A 514;10.4822
3R9A B F 511;3R9A B L 515;14.9478
3R9A B F 511;3R9A B L 524;16.9294
3R9A B F 511;3R9A B K 527;23.3836
3R9A B F 511;3R9A B L 528;17.5388
3R9A B F 511;3R9A B T 531;10.6086
3R9A B T 512;3R9A B A 513;20.6041
3R9A B T 512;3R9A B A 514;0.680248
3R9A B T 512;3R9A B L 515;14.6352
3R9A B T 512;3R9A B S 516;11.79
3R9A B T 512;3R9A B L 528;17.1859
3R9A B A 513;3R9A B A 514;17.0792
3R9A B A 513;3R9A B L 515;0.999388
3R9A B A 513;3R9A B S 516;13.0255
3R9A B A 513;3R9A B V 517;5.00506
3R9A B A 514;3R9A B L 515;14.8107
3R9A B A 514;3R9A B S 516;1.29196
3R9A B A 514;3R9A B V 517;8.02651
3R9A B A 514;3R9A B R 518;7.49949
3R9A B A 514;3R9A B L 524;18.965
3R9A B L 515;3R9A B S 516;20.6167
3R9A B L 515;3R9A B V 517;2.37007
3R9A B L 515;3R9A B R 518;12.0548
3R9A B L 515;3R9A B P 519;21.9026
3R9A B L 515;3R9A B D 521;4.69335
3R9A B L 515;3R9A B L 524;20.9286
3R9A B L 515;3R9A B W 525;34.6017
3R9A B L 515;3R9A B L 528;14.4775
3R9A B S 516;3R9A B V 517;28.5864
3R9A B S 516;3R9A B P 519;6.21722
3R9A B V 517;3R9A B R 518;40.5007
3R9A B V 517;3R9A B P 519;11.7918
3R9A B R 518;3R9A B P 519;19.2583
3R9A B R 518;3R9A B N 520;4.21286
3R9A B R 518;3R9A B D 521;24.0593
3R9A B R 518;3R9A B L 524;10.8686
3R9A B P 519;3R9A B N 520;40.8542
3R9A B P 519;3R9A B D 521;1.60709
3R9A B P 519;3R9A B W 525;16.2638
3R9A B P 519;3R9A B R 547;7.3416
3R9A B P 519;3R9A B L 551;1.63973
3R9A B N 520;3R9A B D 521;22.7337
3R9A B N 520;3R9A B Y 522;9.67047
3R9A B N 520;3R9A B W 525;0.480988
3R9A B N 520;3R9A B R 547;0.771374
3R9A B N 520;3R9A B L 551;29.6382
3R9A B D 521;3R9A B Y 522;20.7161
3R9A B D 521;3R9A B L 523;21.5541
3R9A B D 521;3R9A B L 524;27.5016
3R9A B D 521;3R9A B W 525;9.89263
3R9A B D 521;3R9A B L 551;0.803898
3R9A B Y 522;3R9A B L 523;35.1535
3R9A B Y 522;3R9A B L 524;0.768981
3R9A B Y 522;3R9A B W 525;9.53915
3R9A B Y 522;3R9A B N 526;5.77885
3R9A B Y 522;3R9A B A 548;14.2866
3R9A B Y 522;3R9A B L 551;21.2595
3R9A B Y 522;3R9A B Q 552;32.4915
3R9A B Y 522;3R9A B Y 555;18.9184
3R9A B L 523;3R9A B L 524;19.6322
3R9A B L 523;3R9A B W 525;1.0174
3R9A B L 523;3R9A B N 526;6.34774
3R9A B L 523;3R9A B K 527;30.8799
3R9A B L 523;3R9A B Y 555;20.8248
3R9A B L 524;3R9A B W 525;15.4901
3R9A B L 524;3R9A B N 526;0.701846
3R9A B L 524;3R9A B K 527;17.959
3R9A B L 524;3R9A B L 528;7.83491
3R9A B W 525;3R9A B N 526;17.7136
3R9A B W 525;3R9A B K 527;0.939834
3R9A B W 525;3R9A B L 528;21.5779
3R9A B W 525;3R9A B G 529;5.614
3R9A B W 525;3R9A B A 543;0.307717
3R9A B W 525;3R9A B A 544;29.118
3R9A B W 525;3R9A B Y 545;0.604474
3R9A B W 525;3R9A B R 547;45.103
3R9A B W 525;3R9A B A 548;10.8956
3R9A B W 525;3R9A B L 551;9.93016
3R9A B N 526;3R9A B K 527;18.4405
3R9A B N 526;3R9A B L 528;0.632856
3R9A B N 526;3R9A B G 529;4.16655
3R9A B N 526;3R9A B A 530;9.84298
3R9A B N 526;3R9A B A 544;0.00261428
3R9A B N 526;3R9A B Y 545;14.3784
3R9A B N 526;3R9A B A 548;6.37663
3R9A B N 526;3R9A B Y 555;16.6841
3R9A B N 526;3R9A B R 557;8.71295
3R9A B N 526;3R9A B S 558;15.5681
3R9A B N 526;3R9A B N 561;9.84343
3R9A B K 527;3R9A B L 528;15.2735
3R9A B K 527;3R9A B G 529;0.953247
3R9A B K 527;3R9A B A 530;6.09298
3R9A B K 527;3R9A B T 531;9.08924
3R9A B K 527;3R9A B Y 555;0.908757
3R9A B L 528;3R9A B G 529;15.007
3R9A B L 528;3R9A B A 530;0.482038
3R9A B L 528;3R9A B T 531;9.2582
3R9A B L 528;3R9A B L 532;27.7499
3R9A B L 528;3R9A B A 544;7.63925
3R9A B G 529;3R9A B A 530;13.3576
3R9A B G 529;3R9A B T 531;1.21738
3R9A B G 529;3R9A B L 532;9.42932
3R9A B G 529;3R9A B A 533;6.64053
3R9A B G 529;3R9A B A 541;10.7654
3R9A B G 529;3R9A B A 544;9.10111
3R9A B G 529;3R9A B Y 545;12.7901
3R9A B A 530;3R9A B T 531;16.0906
3R9A B A 530;3R9A B L 532;0.552039
3R9A B A 530;3R9A B A 533;5.64157
3R9A B A 530;3R9A B N 534;15.2706
3R9A B A 530;3R9A B Y 545;9.49917
3R9A B A 530;3R9A B N 561;4.821
3R9A B T 531;3R9A B L 532;17.6164
3R9A B T 531;3R9A B A 533;0.589436
3R9A B T 531;3R9A B N 534;10.0161
3R9A B T 531;3R9A B G 535;5.6202
3R9A B T 531;3R9A B Q 537;0.656223
3R9A B L 532;3R9A B A 533;15.229
3R9A B L 532;3R9A B N 534;1.26318
3R9A B L 532;3R9A B G 535;6.54514
3R9A B L 532;3R9A B N 536;1.8349
3R9A B L 532;3R9A B Q 537;37.0459
3R9A B L 532;3R9A B E 540;22.8023
3R9A B L 532;3R9A B A 541;10.0454
3R9A B L 532;3R9A B A 544;6.14925
3R9A B A 533;3R9A B N 534;16.6412
3R9A B A 533;3R9A B G 535;0.907168
3R9A B A 533;3R9A B N 536;14.3866
3R9A B A 533;3R9A B Q 537;2.75004
3R9A B A 533;3R9A B S 538;5.21009
3R9A B A 533;3R9A B A 541;9.92697
3R9A B A 533;3R9A B Y 545;6.23082
3R9A B A 533;3R9A B S 565;10.3023
3R9A B A 533;3R9A B N 568;3.61847
3R9A B N 534;3R9A B G 535;16.942
3R9A B N 534;3R9A B N 536;11.7657
3R9A B G 535;3R9A B N 536;26.3748
3R9A B G 535;3R9A B Q 537;18.6436
3R9A B N 536;3R9A B Q 537;19.8578
3R9A B N 536;3R9A B S 538;18.5764
3R9A B N 536;3R9A B N 568;7.08625
3R9A B Q 537;3R9A B S 538;18.4654
3R9A B Q 537;3R9A B E 539;0.54407
3R9A B Q 537;3R9A B E 540;30.2019
3R9A B Q 537;3R9A B A 541;7.69065
3R9A B S 538;3R9A B E 539;22.5921
3R9A B S 538;3R9A B E 540;2.34143
3R9A B S 538;3R9A B A 541;10.3111
3R9A B S 538;3R9A B V 542;9.96163
3R9A B S 538;3R9A B S 565;11.5133
3R9A B S 538;3R9A B N 568;14.8565
3R9A B S 538;3R9A B L 569;22.8433
3R9A B E 539;3R9A B E 540;32.8991
3R9A B E 539;3R9A B A 541;0.928128
3R9A B E 539;3R9A B V 542;18.9298
3R9A B E 539;3R9A B A 543;11.1208
3R9A B E 539;3R9A B L 569;26.9937
3R9A B E 540;3R9A B A 541;15.3949
3R9A B E 540;3R9A B V 542;0.651235
3R9A B E 540;3R9A B A 543;13.7253
3R9A B E 540;3R9A B A 544;8.10107
3R9A B A 541;3R9A B V 542;16.0593
3R9A B A 541;3R9A B A 543;0.89644
3R9A B A 541;3R9A B A 544;6.97175
3R9A B A 541;3R9A B Y 545;18.414
3R9A B A 541;3R9A B S 565;6.13767
3R9A B V 542;3R9A B A 543;20.4957
3R9A B V 542;3R9A B A 544;1.20405
3R9A B V 542;3R9A B Y 545;11.4066
3R9A B V 542;3R9A B R 546;31.8018
3R9A B V 542;3R9A B L 562;18.7035
3R9A B V 542;3R9A B S 565;10.6039
3R9A B V 542;3R9A B C 566;5.61673
3R9A B V 542;3R9A B L 569;11.8406
3R9A B A 543;3R9A B A 544;20.2478
3R9A B A 543;3R9A B Y 545;0.475779
3R9A B A 543;3R9A B R 546;13.0747
3R9A B A 543;3R9A B R 547;12.1183
3R9A B A 544;3R9A B Y 545;18.2821
3R9A B A 544;3R9A B R 546;0.815756
3R9A B A 544;3R9A B R 547;8.26734
3R9A B A 544;3R9A B A 548;6.24777
3R9A B Y 545;3R9A B R 546;16.9881
3R9A B Y 545;3R9A B R 547;1.49836
3R9A B Y 545;3R9A B A 548;9.05747
3R9A B Y 545;3R9A B L 549;15.7347
3R9A B Y 545;3R9A B S 558;16.8951
3R9A B Y 545;3R9A B N 561;23.0939
3R9A B Y 545;3R9A B L 562;21.698
3R9A B Y 545;3R9A B S 565;9.41305
3R9A B R 546;3R9A B R 547;17.5253
3R9A B R 546;3R9A B A 548;0.195157
3R9A B R 546;3R9A B L 549;13.353
3R9A B R 546;3R9A B E 550;22.771
3R9A B R 546;3R9A B L 562;22.152
3R9A B R 546;3R9A B C 566;2.12071
3R9A B R 546;3R9A B E 574;9.24703
3R9A B R 546;3R9A B H 578;14.2044
3R9A B R 547;3R9A B A 548;16.2991
3R9A B R 547;3R9A B L 549;1.49954
3R9A B R 547;3R9A B E 550;27.5166
3R9A B R 547;3R9A B L 551;20.7653
3R9A B A 548;3R9A B L 549;16.3664
3R9A B A 548;3R9A B E 550;0.74055
3R9A B A 548;3R9A B L 551;9.24855
3R9A B A 548;3R9A B Q 552;9.43755
3R9A B A 548;3R9A B Y 555;11.0768
3R9A B A 548;3R9A B S 558;8.62111
3R9A B L 549;3R9A B E 550;21.8612
3R9A B L 549;3R9A B L 551;0.560746
3R9A B L 549;3R9A B Q 552;11.428
3R9A B L 549;3R9A B P 553;22.5147
3R9A B L 549;3R9A B Y 555;11.7992
3R9A B L 549;3R9A B S 558;11.9298
3R9A B L 549;3R9A B R 559;34.7371
3R9A B L 549;3R9A B L 562;15.6107
3R9A B E 550;3R9A B L 551;28.375
3R9A B E 550;3R9A B Q 552;1.32768
3R9A B E 550;3R9A B P 553;10.0061
3R9A B L 551;3R9A B Q 552;28.5154
3R9A B L 551;3R9A B P 553;5.44042
3R9A B Q 552;3R9A B P 553;22.3536
3R9A B Q 552;3R9A B G 554;9.68155
3R9A B Q 552;3R9A B Y 555;21.3459
3R9A B P 553;3R9A B G 554;23.1709
3R9A B P 553;3R9A B Y 555;4.46019
3R9A B P 553;3R9A B R 559;18.5472
3R9A B P 553;3R9A B M 585;13.1576
3R9A B G 554;3R9A B Y 555;16.9484
3R9A B G 554;3R9A B I 556;17.6213
3R9A B G 554;3R9A B M 585;11.9331
3R9A B Y 555;3R9A B I 556;17.4811
3R9A B Y 555;3R9A B R 557;15.1935
3R9A B Y 555;3R9A B S 558;20.6151
3R9A B Y 555;3R9A B R 559;6.75509
3R9A B Y 555;3R9A B M 585;0.0500393
3R9A B I 556;3R9A B R 557;16.1994
3R9A B I 556;3R9A B S 558;1.1606
3R9A B I 556;3R9A B R 559;10.7789
3R9A B I 556;3R9A B Y 560;9.69818
3R9A B I 556;3R9A B A 582;20.4309
3R9A B I 556;3R9A B M 585;17.2342
3R9A B I 556;3R9A B Q 586;19.1993
3R9A B I 556;3R9A B I 603;9.50067
3R9A B R 557;3R9A B S 558;17.6598
3R9A B R 557;3R9A B R 559;0.583306
3R9A B R 557;3R9A B Y 560;10.4274
3R9A B R 557;3R9A B N 561;13.9419
3R9A B S 558;3R9A B R 559;15.4345
3R9A B S 558;3R9A B Y 560;1.07651
3R9A B S 558;3R9A B N 561;7.50165
3R9A B S 558;3R9A B L 562;8.0323
3R9A B R 559;3R9A B Y 560;18.9225
3R9A B R 559;3R9A B N 561;0.337956
3R9A B R 559;3R9A B L 562;14.0605
3R9A B R 559;3R9A B G 563;5.55534
3R9A B R 559;3R9A B H 578;26.5063
3R9A B R 559;3R9A B F 579;0.821821
3R9A B R 559;3R9A B E 581;22.889
3R9A B R 559;3R9A B A 582;14.9133
3R9A B R 559;3R9A B M 585;23.137
3R9A B Y 560;3R9A B N 561;20.3272
3R9A B Y 560;3R9A B L 562;1.38976
3R9A B Y 560;3R9A B G 563;4.77539
3R9A B Y 560;3R9A B I 564;29.2311
3R9A B Y 560;3R9A B H 578;0.260119
3R9A B Y 560;3R9A B F 579;20.8142
3R9A B Y 560;3R9A B A 582;5.93986
3R9A B Y 560;3R9A B N 602;17.843
3R9A B Y 560;3R9A B I 603;25.9289
3R9A B Y 560;3R9A B T 606;20.7902
3R9A B N 561;3R9A B L 562;15.3692
3R9A B N 561;3R9A B G 563;0.793722
3R9A B N 561;3R9A B I 564;18.0933
3R9A B N 561;3R9A B S 565;8.36058
3R9A B L 562;3R9A B G 563;16.09
3R9A B L 562;3R9A B I 564;0.983121
3R9A B L 562;3R9A B S 565;8.63981
3R9A B L 562;3R9A B C 566;16.9386
3R9A B L 562;3R9A B H 578;23.0387
3R9A B G 563;3R9A B I 564;14.1761
3R9A B G 563;3R9A B S 565;0.551205
3R9A B G 563;3R9A B C 566;8.16074
3R9A B G 563;3R9A B I 567;7.01859
3R9A B G 563;3R9A B A 575;11.3558
3R9A B G 563;3R9A B H 578;10.7483
3R9A B G 563;3R9A B F 579;12.2778
3R9A B I 564;3R9A B S 565;17.0632
3R9A B I 564;3R9A B C 566;1.1217
3R9A B I 564;3R9A B I 567;16.5084
3R9A B I 564;3R9A B N 568;12.8143
3R9A B I 564;3R9A B F 579;6.92231
3R9A B I 564;3R9A B T 606;8.17121
3R9A B S 565;3R9A B C 566;16.5464
3R9A B S 565;3R9A B I 567;0.774585
3R9A B S 565;3R9A B N 568;15.5979
3R9A B S 565;3R9A B L 569;15.2891
3R9A B C 566;3R9A B I 567;16.4154
3R9A B C 566;3R9A B N 568;0.728061
3R9A B C 566;3R9A B L 569;13.2544
3R9A B C 566;3R9A B G 570;3.77635
3R9A B C 566;3R9A B A 571;24.3276
3R9A B C 566;3R9A B H 572;0.136726
3R9A B C 566;3R9A B E 574;15.6678
3R9A B C 566;3R9A B A 575;10.0379
3R9A B C 566;3R9A B H 578;10.1864
3R9A B I 567;3R9A B N 568;17.0463
3R9A B I 567;3R9A B L 569;1.04529
3R9A B I 567;3R9A B G 570;6.05782
3R9A B I 567;3R9A B A 571;0.413202
3R9A B I 567;3R9A B H 572;14.539
3R9A B I 567;3R9A B A 575;11.1696
3R9A B I 567;3R9A B F 579;8.99923
3R9A B I 567;3R9A B T 606;12.9278
3R9A B I 567;3R9A B L 609;0.858677
3R9A B I 567;3R9A B A 610;11.2831
3R9A B I 567;3R9A B M 613;17.9487
3R9A B N 568;3R9A B L 569;23.0486
3R9A B N 568;3R9A B G 570;1.66439
3R9A B L 569;3R9A B G 570;21.5282
3R9A B L 569;3R9A B A 571;12.9648
3R9A B G 570;3R9A B A 571;18.8266
3R9A B G 570;3R9A B H 572;28.1008
3R9A B A 571;3R9A B H 572;17.9277
3R9A B A 571;3R9A B R 573;1.68279
3R9A B A 571;3R9A B E 574;26.7531
3R9A B A 571;3R9A B A 575;7.32252
3R9A B H 572;3R9A B R 573;20.8918
3R9A B H 572;3R9A B E 574;0.645612
3R9A B H 572;3R9A B A 575;9.87469
3R9A B H 572;3R9A B V 576;11.4698
3R9A B H 572;3R9A B A 610;9.51102
3R9A B H 572;3R9A B M 613;31.3966
3R9A B H 572;3R9A B L 614;20.3707
3R9A B R 573;3R9A B E 574;24.4587
3R9A B R 573;3R9A B A 575;0.995589
3R9A B R 573;3R9A B V 576;10.2865
3R9A B R 573;3R9A B E 577;29.2541
3R9A B R 573;3R9A B L 614;33.296
3R9A B R 573;3R9A B Q 616;15.8181
3R9A B R 573;3R9A B M 634;2.00331
3R9A B R 573;3R9A B F 635;26.1873
3R9A B E 574;3R9A B A 575;15.9557
3R9A B E 574;3R9A B V 576;0.605104
3R9A B E 574;3R9A B E 577;20.1799
3R9A B E 574;3R9A B H 578;21.7591
3R9A B A 575;3R9A B V 576;15.9215
3R9A B A 575;3R9A B E 577;1.10716
3R9A B A 575;3R9A B H 578;8.59348
3R9A B A 575;3R9A B F 579;18.5274
3R9A B A 575;3R9A B A 610;4.17635
3R9A B V 576;3R9A B E 577;18.8785
3R9A B V 576;3R9A B H 578;0.436378
3R9A B V 576;3R9A B F 579;10.0658
3R9A B V 576;3R9A B L 580;19.1689
3R9A B V 576;3R9A B L 607;17.2277
3R9A B V 576;3R9A B A 610;12.3508
3R9A B V 576;3R9A B L 611;14.7352
3R9A B V 576;3R9A B L 614;9.24272
3R9A B V 576;3R9A B F 635;16.6833
3R9A B E 577;3R9A B H 578;17.8074
3R9A B E 577;3R9A B F 579;1.14074
3R9A B E 577;3R9A B L 580;9.49736
3R9A B E 577;3R9A B E 581;22.3985
3R9A B E 577;3R9A B F 635;17.0427
3R9A B E 577;3R9A B L 637;22.3221
3R9A B H 578;3R9A B F 579;19.3975
3R9A B H 578;3R9A B L 580;0.478674
3R9A B H 578;3R9A B E 581;22.5221
3R9A B H 578;3R9A B A 582;9.15042
3R9A B F 579;3R9A B L 580;16.9962
3R9A B F 579;3R9A B E 581;1.00882
3R9A B F 579;3R9A B A 582;9.30493
3R9A B F 579;3R9A B L 583;13.1931
3R9A B F 579;3R9A B I 603;17.014
3R9A B F 579;3R9A B T 606;13.4036
3R9A B F 579;3R9A B L 607;22.5144
3R9A B F 579;3R9A B A 610;7.96296
3R9A B L 580;3R9A B E 581;17.1938
3R9A B L 580;3R9A B A 582;0.713972
3R9A B L 580;3R9A B L 583;9.27831
3R9A B L 580;3R9A B N 584;8.77002
3R9A B L 580;3R9A B W 604;0.0989455
3R9A B L 580;3R9A B L 607;16.352
3R9A B L 580;3R9A B L 628;17.2496
3R9A B L 580;3R9A B L 631;19.4538
3R9A B L 580;3R9A B L 632;17.1669
3R9A B L 580;3R9A B F 635;14.3184
3R9A B L 580;3R9A B L 637;13.0135
3R9A B E 581;3R9A B A 582;16.6188
3R9A B E 581;3R9A B L 583;0.908585
3R9A B E 581;3R9A B N 584;12.1684
3R9A B E 581;3R9A B M 585;20.209
3R9A B E 581;3R9A B L 632;1.77193
3R9A B E 581;3R9A B L 637;19.7827
3R9A B A 582;3R9A B L 583;17.7278
3R9A B A 582;3R9A B N 584;0.742487
3R9A B A 582;3R9A B M 585;9.04663
3R9A B A 582;3R9A B Q 586;9.35136
3R9A B A 582;3R9A B I 603;11.7234
3R9A B L 583;3R9A B N 584;14.7471
3R9A B L 583;3R9A B M 585;0.790402
3R9A B L 583;3R9A B Q 586;15.1133
3R9A B L 583;3R9A B R 587;7.1148
3R9A B L 583;3R9A B M 599;24.54
3R9A B L 583;3R9A B S 600;6.14497
3R9A B L 583;3R9A B I 603;19.8138
3R9A B L 583;3R9A B W 604;23.4906
3R9A B L 583;3R9A B L 607;9.83916
3R9A B L 583;3R9A B L 628;12.8241
3R9A B N 584;3R9A B M 585;21.5421
3R9A B N 584;3R9A B Q 586;1.0346
3R9A B N 584;3R9A B R 587;17.7725
3R9A B N 584;3R9A B K 588;31.4159
3R9A B N 584;3R9A B L 628;12.8126
3R9A B N 584;3R9A B L 632;17.0486
3R9A B N 584;3R9A B P 638;7.28819
3R9A B N 584;3R9A B Q 639;11.3968
3R9A B M 585;3R9A B Q 586;19.1881
3R9A B M 585;3R9A B R 587;0.977947
3R9A B M 585;3R9A B K 588;14.207
3R9A B Q 586;3R9A B R 587;15.4087
3R9A B Q 586;3R9A B K 588;8.20415
3R9A B Q 586;3R9A B G 597;10.1973
3R9A B Q 586;3R9A B A 598;16.7473
3R9A B Q 586;3R9A B M 599;11.6741
3R9A B Q 586;3R9A B S 600;14.1407
3R9A B Q 586;3R9A B I 603;6.44488
3R9A B R 587;3R9A B K 588;20.4555
3R9A B R 587;3R9A B S 589;3.34868
3R9A B R 587;3R9A B E 595;47.9815
3R9A B R 587;3R9A B G 596;2.09242
3R9A B R 587;3R9A B G 597;19.5351
3R9A B R 587;3R9A B M 599;21.1641
3R9A B R 587;3R9A B D 627;0.310148
3R9A B R 587;3R9A B L 628;25.2803
3R9A B R 587;3R9A B S 629;19.2128
3R9A B R 587;3R9A B L 632;4.59539
3R9A B R 587;3R9A B Q 639;11.1707
3R9A B K 588;3R9A B S 589;35.9566
3R9A B K 588;3R9A B R 590;3.84668
3R9A B K 588;3R9A B G 594;0.331598
3R9A B K 588;3R9A B E 595;10.5009
3R9A B K 588;3R9A B G 597;3.05217
3R9A B K 588;3R9A B Q 639;21.6492
3R9A B S 589;3R9A B R 590;33.1186
3R9A B S 589;3R9A B G 594;11.7427
3R9A B S 589;3R9A B E 595;5.16955
3R9A B S 589;3R9A B G 596;12.2069
3R9A B S 589;3R9A B G 597;7.09292
3R9A B R 590;3R9A B R 593;18.6353
3R9A B R 590;3R9A B G 594;22.8981
3R9A B R 593;3R9A B G 594;34.3069
3R9A B R 593;3R9A B E 595;15.4593
3R9A B G 594;3R9A B E 595;24.5477
3R9A B G 594;3R9A B G 596;8.82871
3R9A B E 595;3R9A B G 596;20.5171
3R9A B E 595;3R9A B G 597;0.737905
3R9A B E 595;3R9A B S 629;9.94727
3R9A B E 595;3R9A B Q 639;7.25324
3R9A B G 596;3R9A B G 597;27.7251
3R9A B G 596;3R9A B A 598;2.01044
3R9A B G 597;3R9A B A 598;25.4546
3R9A B G 597;3R9A B M 599;9.38077
3R9A B A 598;3R9A B M 599;24.4427
3R9A B A 598;3R9A B S 600;0.13077
3R9A B M 599;3R9A B S 600;18.0489
3R9A B M 599;3R9A B E 601;8.39027
3R9A B M 599;3R9A B W 604;29.4782
3R9A B M 599;3R9A B R 626;1.66352
3R9A B M 599;3R9A B L 628;12.7555
3R9A B S 600;3R9A B E 601;18.6588
3R9A B S 600;3R9A B N 602;9.43826
3R9A B S 600;3R9A B I 603;17.747
3R9A B S 600;3R9A B W 604;9.66719
3R9A B E 601;3R9A B N 602;25.2745
3R9A B E 601;3R9A B I 603;0.550072
3R9A B E 601;3R9A B W 604;20.4022
3R9A B E 601;3R9A B S 605;11.834
3R9A B E 601;3R9A B R 626;26.8725
3R9A B N 602;3R9A B I 603;20.995
3R9A B N 602;3R9A B W 604;1.05285
3R9A B N 602;3R9A B S 605;11.8559
3R9A B N 602;3R9A B T 606;10.3011
3R9A B I 603;3R9A B W 604;16.8926
3R9A B I 603;3R9A B S 605;1.09767
3R9A B I 603;3R9A B T 606;6.9154
3R9A B I 603;3R9A B L 607;10.047
3R9A B W 604;3R9A B S 605;17.4825
3R9A B W 604;3R9A B T 606;0.586158
3R9A B W 604;3R9A B L 607;18.8731
3R9A B W 604;3R9A B R 608;9.46993
3R9A B W 604;3R9A B A 622;0.185604
3R9A B W 604;3R9A B A 623;12.7977
3R9A B W 604;3R9A B R 626;51.6108
3R9A B W 604;3R9A B D 627;2.90382
3R9A B W 604;3R9A B L 628;14.081
3R9A B W 604;3R9A B L 631;10.2034
3R9A B S 605;3R9A B T 606;21.3755
3R9A B S 605;3R9A B L 607;1.04587
3R9A B S 605;3R9A B R 608;14.2305
3R9A B S 605;3R9A B L 609;16.4598
3R9A B S 605;3R9A B R 626;10.8208
3R9A B T 606;3R9A B L 607;16.5963
3R9A B T 606;3R9A B R 608;0.779371
3R9A B T 606;3R9A B L 609;18.506
3R9A B T 606;3R9A B A 610;8.21942
3R9A B L 607;3R9A B R 608;17.6245
3R9A B L 607;3R9A B L 609;1.14631
3R9A B L 607;3R9A B A 610;9.09861
3R9A B L 607;3R9A B L 611;23.4739
3R9A B L 607;3R9A B A 623;4.28218
3R9A B L 607;3R9A B L 628;0.00615982
3R9A B L 607;3R9A B L 631;7.12756
3R9A B R 608;3R9A B L 609;19.0605
3R9A B R 608;3R9A B A 610;0.482116
3R9A B R 608;3R9A B L 611;14.1767
3R9A B R 608;3R9A B S 612;12.1938
3R9A B R 608;3R9A B Y 620;31.2733
3R9A B R 608;3R9A B A 623;15.6066
3R9A B R 608;3R9A B D 624;24.3692
3R9A B R 608;3R9A B R 626;5.93963
3R9A B L 609;3R9A B A 610;16.0315
3R9A B L 609;3R9A B L 611;1.15135
3R9A B L 609;3R9A B S 612;9.41327
3R9A B L 609;3R9A B M 613;22.9268
3R9A B A 610;3R9A B L 611;15.0846
3R9A B A 610;3R9A B S 612;1.078
3R9A B A 610;3R9A B M 613;15.913
3R9A B A 610;3R9A B L 614;8.04628
3R9A B L 611;3R9A B S 612;14.8548
3R9A B L 611;3R9A B M 613;0.537549
3R9A B L 611;3R9A B L 614;12.5531
3R9A B L 611;3R9A B G 615;5.00003
3R9A B L 611;3R9A B Q 616;14.8369
3R9A B L 611;3R9A B A 619;15.0273
3R9A B L 611;3R9A B Y 620;15.6892
3R9A B L 611;3R9A B A 623;10.1278
3R9A B L 611;3R9A B L 631;8.34133
3R9A B L 611;3R9A B F 635;12.1474
3R9A B S 612;3R9A B M 613;20.795
3R9A B S 612;3R9A B L 614;0.924281
3R9A B S 612;3R9A B G 615;8.83072
3R9A B S 612;3R9A B Y 620;16.5203
3R9A B M 613;3R9A B L 614;22.0074
3R9A B M 613;3R9A B G 615;2.18355
3R9A B L 614;3R9A B G 615;21.7837
3R9A B L 614;3R9A B Q 616;19.2415
3R9A B L 614;3R9A B F 635;9.46842
3R9A B G 615;3R9A B Q 616;19.2592
3R9A B G 615;3R9A B S 617;13.3582
3R9A B G 615;3R9A B Y 620;10.5509
3R9A B Q 616;3R9A B S 617;15.4573
3R9A B Q 616;3R9A B D 618;18.1985
3R9A B Q 616;3R9A B A 619;17.1463
3R9A B Q 616;3R9A B Y 620;9.65226
3R9A B Q 616;3R9A B M 634;15.4029
3R9A B Q 616;3R9A B F 635;18.3317
3R9A B S 617;3R9A B D 618;31.6734
3R9A B S 617;3R9A B A 619;2.7323
3R9A B S 617;3R9A B Y 620;35.9688
3R9A B S 617;3R9A B G 621;1.70604
3R9A B D 618;3R9A B A 619;18.9602
3R9A B D 618;3R9A B Y 620;1.35494
3R9A B D 618;3R9A B G 621;2.84812
3R9A B D 618;3R9A B A 622;2.17993
3R9A B D 618;3R9A B M 634;21.9644
3R9A B A 619;3R9A B Y 620;19.1285
3R9A B A 619;3R9A B G 621;1.87132
3R9A B A 619;3R9A B A 622;8.29304
3R9A B A 619;3R9A B A 623;7.3895
3R9A B A 619;3R9A B L 631;11.5914
3R9A B A 619;3R9A B M 634;11.8802
3R9A B A 619;3R9A B F 635;6.92916
3R9A B Y 620;3R9A B G 621;23.2684
3R9A B Y 620;3R9A B A 622;0.684774
3R9A B Y 620;3R9A B A 623;6.82879
3R9A B Y 620;3R9A B D 624;16.6512
3R9A B G 621;3R9A B A 622;23.1204
3R9A B G 621;3R9A B A 623;0.816892
3R9A B G 621;3R9A B D 624;14.9451
3R9A B G 621;3R9A B A 625;13.1997
3R9A B A 622;3R9A B A 623;16.4386
3R9A B A 622;3R9A B D 624;0.629444
3R9A B A 622;3R9A B A 625;9.04208
3R9A B A 622;3R9A B R 626;3.2735
3R9A B A 622;3R9A B D 627;21.6084
3R9A B A 622;3R9A B T 630;12.8031
3R9A B A 622;3R9A B L 631;13.9355
3R9A B A 622;3R9A B M 634;7.0472
3R9A B A 623;3R9A B D 624;17.0397
3R9A B A 623;3R9A B A 625;1.1354
3R9A B A 623;3R9A B R 626;16.3913
3R9A B A 623;3R9A B L 631;11.8331
3R9A B D 624;3R9A B A 625;21.5682
3R9A B D 624;3R9A B R 626;21.0649
3R9A B A 625;3R9A B R 626;25.4155
3R9A B A 625;3R9A B D 627;15.611
3R9A B R 626;3R9A B D 627;17.9784
3R9A B R 626;3R9A B L 628;6.02362
3R9A B D 627;3R9A B L 628;18.3202
3R9A B D 627;3R9A B S 629;11.5711
3R9A B D 627;3R9A B T 630;27.5891
3R9A B D 627;3R9A B L 631;11.1359
3R9A B L 628;3R9A B S 629;18.1123
3R9A B L 628;3R9A B T 630;1.06945
3R9A B L 628;3R9A B L 631;12.9802
3R9A B L 628;3R9A B L 632;24.249
3R9A B S 629;3R9A B T 630;21.9101
3R9A B S 629;3R9A B L 631;0.594488
3R9A B S 629;3R9A B L 632;8.74782
3R9A B S 629;3R9A B T 633;9.82369
3R9A B S 629;3R9A B Q 639;22.2108
3R9A B T 630;3R9A B L 631;17.5186
3R9A B T 630;3R9A B L 632;0.846011
3R9A B T 630;3R9A B T 633;13.5629
3R9A B T 630;3R9A B M 634;28.6171
3R9A B L 631;3R9A B L 632;16.3624
3R9A B L 631;3R9A B T 633;0.898556
3R9A B L 631;3R9A B M 634;15.7656
3R9A B L 631;3R9A B F 635;18.782
3R9A B L 632;3R9A B T 633;18.7513
3R9A B L 632;3R9A B M 634;0.625429
3R9A B L 632;3R9A B F 635;5.71731
3R9A B L 632;3R9A B G 636;3.45308
3R9A B L 632;3R9A B L 637;36.3235
3R9A B L 632;3R9A B P 638;8.229
3R9A B L 632;3R9A B Q 639;19.2474
3R9A B T 633;3R9A B M 634;25.8823
3R9A B T 633;3R9A B F 635;1.65656
3R9A B T 633;3R9A B G 636;12.5252
3R9A B T 633;3R9A B L 637;4.91699
3R9A B T 633;3R9A B Q 639;11.4699
3R9A B M 634;3R9A B F 635;28.848
3R9A B M 634;3R9A B G 636;2.92503
3R9A B F 635;3R9A B G 636;23.6449
3R9A B F 635;3R9A B L 637;15.0483
3R9A B G 636;3R9A B L 637;26.7273
3R9A B G 636;3R9A B P 638;5.83828
3R9A B L 637;3R9A B P 638;41.645
3R9A B L 637;3R9A B Q 639;5.26999
3R9A B P 638;3R9A B Q 639;32.8791
