V1;V2;Weight
3SGB I D 7;3SGB I C 8;29.2729
3SGB I D 7;3SGB I S 9;24.285
3SGB I D 7;3SGB I E 10;9.91223
3SGB I D 7;3SGB I Y 11;2.61808
3SGB I D 7;3SGB I K 34;24.0927
3SGB I D 7;3SGB I C 38;3.40251
3SGB I C 8;3SGB I S 9;26.2541
3SGB I C 8;3SGB I E 10;1.07301
3SGB I C 8;3SGB I Y 11;21.8427
3SGB I C 8;3SGB I K 34;0.519725
3SGB I C 8;3SGB I F 37;8.53709
3SGB I C 8;3SGB I C 38;24.4974
3SGB I C 8;3SGB I V 41;19.5441
3SGB I C 8;3SGB I V 42;7.23316
3SGB I S 9;3SGB I E 10;32.0001
3SGB I S 9;3SGB I Y 11;12.328
3SGB I E 10;3SGB I Y 11;36.0812
3SGB I E 10;3SGB I P 12;3.82685
3SGB I E 10;3SGB I K 13;25.859
3SGB I E 10;3SGB I K 34;5.6653
3SGB I Y 11;3SGB I P 12;33.3399
3SGB I Y 11;3SGB I K 13;30.9001
3SGB I Y 11;3SGB I K 34;12.4485
3SGB I Y 11;3SGB I C 35;24.3749
3SGB I Y 11;3SGB I C 38;22.8401
3SGB I Y 11;3SGB I N 39;10.6163
3SGB I Y 11;3SGB I V 42;13.5409
3SGB I P 12;3SGB I K 13;28.2051
3SGB I P 12;3SGB I P 14;4.11973
3SGB I P 12;3SGB I N 39;10.2097
3SGB I P 12;3SGB I V 42;30.5241
3SGB I K 13;3SGB I P 14;35.3245
3SGB I K 13;3SGB I A 15;15.0297
3SGB I K 13;3SGB I C 16;0.451424
3SGB I K 13;3SGB I C 35;14.1651
3SGB I K 13;3SGB I N 39;20.8193
3SGB I P 14;3SGB I A 15;28.6512
3SGB I P 14;3SGB I N 39;0.0379803
3SGB I A 15;3SGB I C 16;21.8827
3SGB I A 15;3SGB I C 35;3.80897
3SGB I A 15;3SGB I N 39;1.83865
3SGB I C 16;3SGB I T 17;24.9993
3SGB I C 16;3SGB I L 18;9.39561
3SGB I C 16;3SGB I N 33;1.81832
3SGB I C 16;3SGB I C 35;26.9215
3SGB I C 16;3SGB I N 36;16.4097
3SGB I C 16;3SGB I N 39;12.5547
3SGB I T 17;3SGB I L 18;19.9291
3SGB I T 17;3SGB I E 19;18.379
3SGB I T 17;3SGB I N 33;9.30024
3SGB I T 17;3SGB I C 35;4.38738
3SGB I T 17;3SGB I N 36;0.234065
3SGB I L 18;3SGB I E 19;17.982
3SGB I L 18;3SGB I N 33;3.30795
3SGB I L 18;3SGB I N 36;7.20926
3SGB I E 19;3SGB I Y 20;18.2253
3SGB I E 19;3SGB I R 21;24.7226
3SGB I E 19;3SGB I G 32;1.17744
3SGB I E 19;3SGB I N 33;27.6224
3SGB I Y 20;3SGB I R 21;21.6281
3SGB I Y 20;3SGB I P 22;27.0288
3SGB I Y 20;3SGB I T 30;11.2433
3SGB I Y 20;3SGB I G 32;17.0606
3SGB I Y 20;3SGB I K 55;24.5893
3SGB I R 21;3SGB I P 22;29.9061
3SGB I R 21;3SGB I L 23;7.73655
3SGB I R 21;3SGB I Y 31;0.014202
3SGB I R 21;3SGB I G 32;8.49384
3SGB I R 21;3SGB I N 33;15.5632
3SGB I R 21;3SGB I K 34;2.10756
3SGB I P 22;3SGB I L 23;23.1119
3SGB I P 22;3SGB I T 30;8.986
3SGB I P 22;3SGB I Y 31;5.29767
3SGB I P 22;3SGB I G 32;5.19579
3SGB I P 22;3SGB I N 33;0.0036379
3SGB I P 22;3SGB I F 53;0.40128
3SGB I P 22;3SGB I G 54;21.5005
3SGB I P 22;3SGB I K 55;16.9314
3SGB I L 23;3SGB I C 24;18.4497
3SGB I L 23;3SGB I G 25;1.31266
3SGB I L 23;3SGB I K 29;0.644363
3SGB I L 23;3SGB I T 30;7.35537
3SGB I L 23;3SGB I Y 31;22.45
3SGB I L 23;3SGB I N 33;5.36312
3SGB I L 23;3SGB I K 34;22.5592
3SGB I L 23;3SGB I F 37;19.1793
3SGB I L 23;3SGB I L 50;18.4471
3SGB I L 23;3SGB I H 52;1.53326
3SGB I L 23;3SGB I F 53;25.2791
3SGB I L 23;3SGB I G 54;9.0978
3SGB I L 23;3SGB I K 55;0.0101272
3SGB I C 24;3SGB I G 25;23.2711
3SGB I C 24;3SGB I N 28;4.13979
3SGB I C 24;3SGB I K 29;1.28189
3SGB I C 24;3SGB I T 30;1.52522
3SGB I C 24;3SGB I F 37;0.139526
3SGB I C 24;3SGB I L 50;9.67471
3SGB I C 24;3SGB I S 51;17.0486
3SGB I C 24;3SGB I H 52;29.9904
3SGB I C 24;3SGB I G 54;6.8168
3SGB I C 24;3SGB I K 55;1.51148
3SGB I C 24;3SGB I C 56;25.7232
3SGB I G 25;3SGB I S 26;15.8979
3SGB I G 25;3SGB I D 27;7.34117
3SGB I G 25;3SGB I N 28;10.1744
3SGB I G 25;3SGB I K 29;8.42364
3SGB I G 25;3SGB I Y 31;8.69866
3SGB I G 25;3SGB I F 37;7.52721
3SGB I G 25;3SGB I L 48;3.70697
3SGB I G 25;3SGB I T 49;3.59473
3SGB I G 25;3SGB I L 50;1.74774
3SGB I G 25;3SGB I S 51;7.97983
3SGB I G 25;3SGB I C 56;2.17599
3SGB I S 26;3SGB I D 27;22.1808
3SGB I S 26;3SGB I N 28;12.3086
3SGB I S 26;3SGB I T 47;4.16522
3SGB I S 26;3SGB I L 48;12.5201
3SGB I S 26;3SGB I T 49;28.2513
3SGB I S 26;3SGB I L 50;0.588475
3SGB I S 26;3SGB I S 51;12.2978
3SGB I D 27;3SGB I N 28;29.1142
3SGB I D 27;3SGB I K 29;21.3978
3SGB I D 27;3SGB I Y 31;15.9433
3SGB I D 27;3SGB I L 48;19.9807
3SGB I N 28;3SGB I K 29;20.9479
3SGB I N 28;3SGB I T 30;1.59912
3SGB I N 28;3SGB I C 56;19.7307
3SGB I K 29;3SGB I T 30;35.4568
3SGB I K 29;3SGB I Y 31;38.0962
3SGB I K 29;3SGB I C 56;6.08538
3SGB I T 30;3SGB I Y 31;24.0701
3SGB I T 30;3SGB I G 32;5.33803
3SGB I T 30;3SGB I G 54;0.444663
3SGB I T 30;3SGB I K 55;16.6065
3SGB I T 30;3SGB I C 56;20.5144
3SGB I Y 31;3SGB I G 32;21.666
3SGB I Y 31;3SGB I N 33;7.9966
3SGB I Y 31;3SGB I N 36;12.9268
3SGB I Y 31;3SGB I F 37;26.172
3SGB I Y 31;3SGB I A 40;18.2418
3SGB I Y 31;3SGB I L 48;13.5487
3SGB I G 32;3SGB I N 33;18.3774
3SGB I G 32;3SGB I N 36;6.11008
3SGB I N 33;3SGB I K 34;22.7427
3SGB I N 33;3SGB I C 35;12.0981
3SGB I N 33;3SGB I N 36;19.9938
3SGB I N 33;3SGB I F 37;7.415
3SGB I K 34;3SGB I C 35;22.099
3SGB I K 34;3SGB I N 36;0.767649
3SGB I K 34;3SGB I F 37;12.7806
3SGB I K 34;3SGB I C 38;23.323
3SGB I K 34;3SGB I F 53;2.32677
3SGB I C 35;3SGB I N 36;16.2333
3SGB I C 35;3SGB I F 37;0.721477
3SGB I C 35;3SGB I C 38;3.91344
3SGB I C 35;3SGB I N 39;11.5862
3SGB I N 36;3SGB I F 37;16.6887
3SGB I N 36;3SGB I C 38;0.707227
3SGB I N 36;3SGB I N 39;11.1933
3SGB I N 36;3SGB I A 40;10.0502
3SGB I F 37;3SGB I C 38;21.6596
3SGB I F 37;3SGB I N 39;1.15518
3SGB I F 37;3SGB I A 40;8.43767
3SGB I F 37;3SGB I V 41;23.6027
3SGB I F 37;3SGB I L 48;13.4054
3SGB I F 37;3SGB I T 49;9.71421
3SGB I F 37;3SGB I L 50;24.7323
3SGB I C 38;3SGB I N 39;16.1094
3SGB I C 38;3SGB I A 40;0.695102
3SGB I C 38;3SGB I V 41;9.84264
3SGB I C 38;3SGB I V 42;10.2148
3SGB I N 39;3SGB I A 40;18.6454
3SGB I N 39;3SGB I V 41;0.797889
3SGB I N 39;3SGB I V 42;11.6567
3SGB I N 39;3SGB I E 43;12.3959
3SGB I A 40;3SGB I V 41;14.8138
3SGB I A 40;3SGB I V 42;0.890494
3SGB I A 40;3SGB I E 43;17.3491
3SGB I A 40;3SGB I S 44;10.8694
3SGB I A 40;3SGB I L 48;14.295
3SGB I V 41;3SGB I V 42;23.3112
3SGB I V 41;3SGB I E 43;0.629867
3SGB I V 41;3SGB I S 44;10.7143
3SGB I V 41;3SGB I N 45;2.4001
3SGB I V 41;3SGB I G 46;19.5786
3SGB I V 41;3SGB I L 48;26.7941
3SGB I V 41;3SGB I T 49;0.0409873
3SGB I V 42;3SGB I E 43;24.703
3SGB I V 42;3SGB I S 44;1.47861
3SGB I V 42;3SGB I N 45;14.0255
3SGB I V 42;3SGB I G 46;1.39776
3SGB I E 43;3SGB I S 44;22.1437
3SGB I E 43;3SGB I N 45;5.84261
3SGB I S 44;3SGB I N 45;23.6589
3SGB I S 44;3SGB I G 46;3.87165
3SGB I S 44;3SGB I T 47;30.1021
3SGB I S 44;3SGB I L 48;15.1653
3SGB I N 45;3SGB I G 46;25.5261
3SGB I N 45;3SGB I T 47;6.12129
3SGB I G 46;3SGB I T 47;23.2118
3SGB I G 46;3SGB I L 48;6.0976
3SGB I G 46;3SGB I T 49;5.69227
3SGB I T 47;3SGB I L 48;24.8229
3SGB I T 47;3SGB I T 49;10.322
3SGB I L 48;3SGB I T 49;30.1594
3SGB I T 49;3SGB I L 50;31.2882
3SGB I T 49;3SGB I S 51;1.09385
3SGB I L 50;3SGB I S 51;27.7702
3SGB I L 50;3SGB I H 52;15.4656
3SGB I L 50;3SGB I F 53;24.5471
3SGB I S 51;3SGB I H 52;39.5469
3SGB I H 52;3SGB I F 53;40.8183
3SGB I H 52;3SGB I G 54;3.0391
3SGB I H 52;3SGB I K 55;11.1772
3SGB I H 52;3SGB I C 56;8.78683
3SGB I F 53;3SGB I G 54;28.9224
3SGB I F 53;3SGB I K 55;0.274554
3SGB I G 54;3SGB I K 55;26.3789
3SGB I G 54;3SGB I C 56;0.150525
3SGB I K 55;3SGB I C 56;30.812
