V1;V2;Weight
3UII A T 5;3UII A L 6;39.7198
3UII A T 5;3UII A P 7;5.09195
3UII A L 6;3UII A P 7;42.9085
3UII A L 6;3UII A P 8;4.15629
3UII A L 6;3UII A W 10;12.5418
3UII A L 6;3UII A Q 11;20.8645
3UII A L 6;3UII A L 14;28.2457
3UII A L 6;3UII A F 93;10.6818
3UII A L 6;3UII A F 101;2.80336
3UII A P 7;3UII A P 8;27.6107
3UII A P 7;3UII A A 9;0.0139374
3UII A P 7;3UII A W 10;24.3381
3UII A P 7;3UII A Q 11;9.39592
3UII A P 8;3UII A A 9;24.8585
3UII A P 8;3UII A W 10;12.1438
3UII A P 8;3UII A Q 11;18.8833
3UII A P 8;3UII A P 12;7.0411
3UII A A 9;3UII A W 10;41.7853
3UII A A 9;3UII A P 12;5.44366
3UII A A 9;3UII A R 108;18.1229
3UII A W 10;3UII A Q 11;17.0849
3UII A W 10;3UII A P 12;7.28992
3UII A W 10;3UII A F 13;22.1413
3UII A W 10;3UII A L 14;3.0571
3UII A W 10;3UII A F 93;1.28321
3UII A W 10;3UII A F 101;20.4484
3UII A W 10;3UII A D 105;20.6129
3UII A W 10;3UII A R 108;9.43485
3UII A Q 11;3UII A P 12;19.6568
3UII A Q 11;3UII A F 13;3.17139
3UII A Q 11;3UII A L 14;27.2088
3UII A Q 11;3UII A H 17;32.3858
3UII A P 12;3UII A F 13;16.6248
3UII A P 12;3UII A L 14;4.55185
3UII A P 12;3UII A H 17;15.625
3UII A P 12;3UII A R 18;14.7825
3UII A P 12;3UII A I 44;8.30728
3UII A P 12;3UII A F 58;25.5511
3UII A P 12;3UII A R 108;12.4987
3UII A F 13;3UII A L 14;19.8001
3UII A F 13;3UII A K 15;3.10964
3UII A F 13;3UII A R 18;9.08744
3UII A F 13;3UII A F 58;27.2868
3UII A F 13;3UII A F 59;10.9358
3UII A F 13;3UII A F 86;5.87576
3UII A F 13;3UII A F 93;31.9931
3UII A F 13;3UII A L 96;0.364352
3UII A F 13;3UII A F 101;22.5482
3UII A F 13;3UII A L 104;15.4256
3UII A F 13;3UII A D 105;13.1048
3UII A F 13;3UII A R 108;17.37
3UII A L 14;3UII A K 15;20.9229
3UII A L 14;3UII A D 16;5.28648
3UII A L 14;3UII A H 17;20.1357
3UII A L 14;3UII A R 18;10.1031
3UII A L 14;3UII A F 93;21.836
3UII A L 14;3UII A E 94;5.14654
3UII A K 15;3UII A D 16;27.5662
3UII A K 15;3UII A H 17;1.06629
3UII A K 15;3UII A R 18;26.4497
3UII A K 15;3UII A I 19;20.463
3UII A K 15;3UII A E 36;23.3113
3UII A K 15;3UII A R 37;0.744852
3UII A K 15;3UII A A 39;11.0971
3UII A K 15;3UII A E 40;32.163
3UII A K 15;3UII A Q 92;11.1251
3UII A D 16;3UII A H 17;22.0944
3UII A D 16;3UII A R 18;0.751837
3UII A D 16;3UII A I 19;25.0255
3UII A D 16;3UII A S 20;13.1225
3UII A H 17;3UII A R 18;19.8359
3UII A H 17;3UII A I 19;0.462406
3UII A H 17;3UII A S 20;20.9378
3UII A H 17;3UII A T 21;19.2386
3UII A H 17;3UII A I 44;8.03787
3UII A R 18;3UII A I 19;15.731
3UII A R 18;3UII A S 20;1.25204
3UII A R 18;3UII A T 21;12.0237
3UII A R 18;3UII A F 22;6.82205
3UII A R 18;3UII A A 39;20.8434
3UII A R 18;3UII A E 40;4.11171
3UII A R 18;3UII A G 42;15.0271
3UII A R 18;3UII A F 43;10.8711
3UII A R 18;3UII A I 44;17.3479
3UII A R 18;3UII A F 58;14.2676
3UII A R 18;3UII A F 86;16.6446
3UII A I 19;3UII A S 20;22.8099
3UII A I 19;3UII A T 21;1.99179
3UII A I 19;3UII A F 22;19.6417
3UII A I 19;3UII A P 35;17.3026
3UII A I 19;3UII A E 36;20.9858
3UII A I 19;3UII A A 39;13.0986
3UII A S 20;3UII A T 21;21.904
3UII A S 20;3UII A F 22;6.16642
3UII A S 20;3UII A K 23;20.0512
3UII A T 21;3UII A F 22;18.807
3UII A T 21;3UII A K 23;12.7099
3UII A T 21;3UII A I 44;22.7148
3UII A T 21;3UII A H 45;26.7475
3UII A T 21;3UII A P 47;0.626292
3UII A F 22;3UII A K 23;29.0381
3UII A F 22;3UII A N 24;0.281929
3UII A F 22;3UII A W 25;29.1607
3UII A F 22;3UII A P 35;24.9996
3UII A F 22;3UII A M 38;17.5446
3UII A F 22;3UII A A 39;4.35647
3UII A F 22;3UII A F 43;11.67
3UII A F 22;3UII A I 44;5.66653
3UII A F 22;3UII A H 45;22.6966
3UII A F 22;3UII A A 55;4.37999
3UII A K 23;3UII A N 24;35.1176
3UII A K 23;3UII A W 25;6.05331
3UII A K 23;3UII A H 45;17.3622
3UII A K 23;3UII A P 47;3.7397
3UII A N 24;3UII A W 25;25.0827
3UII A N 24;3UII A P 26;13.1356
3UII A N 24;3UII A H 45;2.80923
3UII A N 24;3UII A P 52;0.385486
3UII A W 25;3UII A P 26;30.4996
3UII A W 25;3UII A F 27;26.9784
3UII A W 25;3UII A L 28;20.6567
3UII A W 25;3UII A C 33;11.6917
3UII A W 25;3UII A T 34;0.452999
3UII A W 25;3UII A P 35;16.0068
3UII A W 25;3UII A M 38;17.3236
3UII A W 25;3UII A H 45;21.6918
3UII A W 25;3UII A P 52;0.00954238
3UII A W 25;3UII A D 53;16.8935
3UII A W 25;3UII A L 54;0.637989
3UII A W 25;3UII A A 55;4.39718
3UII A W 25;3UII A W 67;14.0235
3UII A P 26;3UII A F 27;44.9638
3UII A P 26;3UII A L 28;18.0531
3UII A P 26;3UII A C 31;0.419077
3UII A P 26;3UII A H 45;0.5644
3UII A P 26;3UII A P 52;2.32711
3UII A P 26;3UII A D 53;8.74337
3UII A F 27;3UII A L 28;20.2838
3UII A F 27;3UII A C 31;20.2836
3UII A F 27;3UII A C 33;18.7821
3UII A F 27;3UII A T 34;6.14469
3UII A F 27;3UII A P 35;3.59226
3UII A F 27;3UII A D 53;6.61028
3UII A F 27;3UII A W 67;22.5684
3UII A F 27;3UII A E 68;4.28035
3UII A F 27;3UII A P 69;21.6189
3UII A L 28;3UII A E 29;44.4924
3UII A L 28;3UII A G 30;0.0192625
3UII A L 28;3UII A C 31;14.75
3UII A L 28;3UII A T 34;10.4938
3UII A L 28;3UII A P 35;18.3414
3UII A E 29;3UII A G 30;29.7025
3UII A E 29;3UII A C 31;8.00178
3UII A E 29;3UII A T 34;6.79428
3UII A G 30;3UII A C 31;32.7342
3UII A G 30;3UII A A 32;0.574591
3UII A G 30;3UII A T 34;1.13585
3UII A C 31;3UII A A 32;26.0122
3UII A C 31;3UII A C 33;5.07532
3UII A C 31;3UII A T 34;16.8974
3UII A C 31;3UII A P 69;24.0631
3UII A A 32;3UII A C 33;15.4434
3UII A A 32;3UII A T 34;5.40548
3UII A A 32;3UII A R 37;14.1516
3UII A A 32;3UII A P 69;8.49778
3UII A A 32;3UII A D 70;17.8194
3UII A A 32;3UII A D 71;6.47917
3UII A A 32;3UII A D 72;8.25297
3UII A A 32;3UII A P 73;5.28283
3UII A C 33;3UII A T 34;18.5
3UII A C 33;3UII A R 37;1.50114
3UII A C 33;3UII A M 38;11.5381
3UII A C 33;3UII A W 67;11.9659
3UII A C 33;3UII A E 68;8.54003
3UII A C 33;3UII A P 69;8.93358
3UII A C 33;3UII A D 71;12.4579
3UII A C 33;3UII A P 73;10.5474
3UII A T 34;3UII A P 35;23.9107
3UII A T 34;3UII A E 36;14.2666
3UII A T 34;3UII A R 37;22.0818
3UII A T 34;3UII A M 38;8.90219
3UII A P 35;3UII A E 36;21.0424
3UII A P 35;3UII A R 37;0.658827
3UII A P 35;3UII A M 38;9.68005
3UII A P 35;3UII A A 39;8.44595
3UII A E 36;3UII A R 37;39.0143
3UII A E 36;3UII A M 38;0.540024
3UII A E 36;3UII A A 39;5.89349
3UII A E 36;3UII A E 40;9.33346
3UII A R 37;3UII A M 38;14.8935
3UII A R 37;3UII A A 39;0.997
3UII A R 37;3UII A E 40;31.1852
3UII A R 37;3UII A A 41;8.74875
3UII A R 37;3UII A D 72;5.49255
3UII A R 37;3UII A P 73;15.513
3UII A R 37;3UII A I 74;20.3428
3UII A M 38;3UII A A 39;16.8405
3UII A M 38;3UII A E 40;0.352701
3UII A M 38;3UII A A 41;7.5591
3UII A M 38;3UII A G 42;2.20975
3UII A M 38;3UII A F 43;26.0005
3UII A M 38;3UII A A 55;8.45178
3UII A M 38;3UII A W 67;17.9889
3UII A M 38;3UII A P 73;17.0344
3UII A A 39;3UII A E 40;17.3601
3UII A A 39;3UII A A 41;2.06207
3UII A A 39;3UII A G 42;4.76192
3UII A A 39;3UII A F 43;6.68313
3UII A E 40;3UII A A 41;18.9868
3UII A E 40;3UII A G 42;1.74146
3UII A E 40;3UII A I 74;12.3576
3UII A E 40;3UII A F 86;12.2961
3UII A E 40;3UII A Q 92;10.6886
3UII A A 41;3UII A G 42;14.7211
3UII A A 41;3UII A F 43;10.6286
3UII A A 41;3UII A P 73;9.06626
3UII A A 41;3UII A I 74;18.8648
3UII A A 41;3UII A H 77;13.6494
3UII A A 41;3UII A F 86;8.13921
3UII A A 41;3UII A L 87;6.7856
3UII A G 42;3UII A F 43;19.5568
3UII A G 42;3UII A I 44;1.19028
3UII A G 42;3UII A Q 56;0.871667
3UII A G 42;3UII A C 57;9.4394
3UII A G 42;3UII A F 58;14.9024
3UII A G 42;3UII A H 77;3.90374
3UII A G 42;3UII A F 86;8.47095
3UII A F 43;3UII A I 44;20.1048
3UII A F 43;3UII A A 55;15.0233
3UII A F 43;3UII A Q 56;9.43069
3UII A F 43;3UII A C 57;12.2505
3UII A F 43;3UII A K 62;4.85729
3UII A F 43;3UII A L 64;16.5902
3UII A F 43;3UII A W 67;11.8665
3UII A F 43;3UII A P 73;11.2609
3UII A F 43;3UII A E 76;0.666555
3UII A F 43;3UII A H 77;22.4978
3UII A I 44;3UII A H 45;24.1142
3UII A I 44;3UII A C 46;13.9863
3UII A I 44;3UII A L 54;0.0320166
3UII A I 44;3UII A A 55;7.80204
3UII A I 44;3UII A Q 56;24.8348
3UII A I 44;3UII A F 58;13.5862
3UII A H 45;3UII A C 46;20.6133
3UII A H 45;3UII A P 47;29.0383
3UII A H 45;3UII A P 52;8.84003
3UII A H 45;3UII A D 53;5.5717
3UII A H 45;3UII A L 54;9.45771
3UII A H 45;3UII A A 55;2.41542
3UII A C 46;3UII A P 47;26.8847
3UII A C 46;3UII A T 48;5.71353
3UII A C 46;3UII A L 54;30.1557
3UII A C 46;3UII A A 55;4.46009
3UII A C 46;3UII A Q 56;18.5425
3UII A C 46;3UII A E 63;4.71768
3UII A P 47;3UII A T 48;31.8299
3UII A P 47;3UII A E 51;2.20766
3UII A P 47;3UII A P 52;14.9113
3UII A P 47;3UII A L 54;6.50554
3UII A T 48;3UII A E 49;37.8816
3UII A T 48;3UII A N 50;4.85749
3UII A T 48;3UII A E 51;29.3928
3UII A T 48;3UII A P 52;11.4334
3UII A T 48;3UII A L 54;11.688
3UII A E 49;3UII A N 50;31.7771
3UII A E 49;3UII A E 51;3.4876
3UII A E 49;3UII A P 52;11.9366
3UII A N 50;3UII A E 51;33.1138
3UII A N 50;3UII A P 52;8.30426
3UII A E 51;3UII A P 52;19.5501
3UII A E 51;3UII A D 53;9.17869
3UII A E 51;3UII A L 54;26.2363
3UII A E 51;3UII A E 65;22.7855
3UII A P 52;3UII A D 53;31.4728
3UII A P 52;3UII A L 54;0.730355
3UII A D 53;3UII A L 54;21.8997
3UII A D 53;3UII A A 55;3.21107
3UII A D 53;3UII A L 64;1.22412
3UII A D 53;3UII A E 65;11.8367
3UII A D 53;3UII A G 66;11.4252
3UII A D 53;3UII A W 67;22.1593
3UII A L 54;3UII A A 55;23.2851
3UII A L 54;3UII A E 63;19.5589
3UII A L 54;3UII A L 64;8.38425
3UII A L 54;3UII A E 65;12.8619
3UII A A 55;3UII A Q 56;17.3256
3UII A A 55;3UII A K 62;0.816699
3UII A A 55;3UII A E 63;7.22745
3UII A A 55;3UII A L 64;16.0922
3UII A A 55;3UII A W 67;7.90443
3UII A Q 56;3UII A C 57;22.3276
3UII A Q 56;3UII A F 58;6.39309
3UII A Q 56;3UII A F 61;29.1844
3UII A Q 56;3UII A K 62;5.57183
3UII A Q 56;3UII A E 63;23.0846
3UII A Q 56;3UII A K 115;4.07817
3UII A C 57;3UII A F 58;20.324
3UII A C 57;3UII A F 59;10.5685
3UII A C 57;3UII A C 60;13.8722
3UII A C 57;3UII A F 61;13.2407
3UII A C 57;3UII A K 62;12.6039
3UII A C 57;3UII A H 77;17.6316
3UII A C 57;3UII A C 84;5.70811
3UII A C 57;3UII A F 86;3.10566
3UII A F 58;3UII A F 59;33.3746
3UII A F 58;3UII A C 60;0.0685594
3UII A F 58;3UII A F 61;15.7244
3UII A F 58;3UII A F 86;19.2531
3UII A F 58;3UII A R 108;19.567
3UII A F 59;3UII A C 60;17.1748
3UII A F 59;3UII A F 61;7.36622
3UII A F 59;3UII A C 84;7.79804
3UII A F 59;3UII A A 85;15.5036
3UII A F 59;3UII A F 86;23.9732
3UII A F 59;3UII A V 89;0.0474636
3UII A F 59;3UII A L 104;23.5839
3UII A F 59;3UII A E 107;11.9213
3UII A F 59;3UII A R 108;25.06
3UII A F 59;3UII A N 111;16.7792
3UII A C 60;3UII A F 61;24.4249
3UII A C 60;3UII A K 62;16.7202
3UII A C 60;3UII A H 77;5.32288
3UII A C 60;3UII A S 81;14.5637
3UII A C 60;3UII A C 84;18.9301
3UII A C 60;3UII A N 111;18.8912
3UII A C 60;3UII A K 115;5.8832
3UII A F 61;3UII A K 62;18.0989
3UII A F 61;3UII A E 63;5.55524
3UII A F 61;3UII A R 108;17.3447
3UII A F 61;3UII A N 111;8.43659
3UII A F 61;3UII A K 112;31.2326
3UII A F 61;3UII A K 115;30.2787
3UII A K 62;3UII A E 63;26.7481
3UII A K 62;3UII A L 64;14.0908
3UII A K 62;3UII A H 77;2.53821
3UII A K 62;3UII A H 80;19.0533
3UII A K 62;3UII A S 81;17.1254
3UII A K 62;3UII A K 115;15.4595
3UII A E 63;3UII A L 64;22.3681
3UII A E 63;3UII A K 115;15.5535
3UII A L 64;3UII A E 65;17.7536
3UII A L 64;3UII A W 67;20.3729
3UII A L 64;3UII A E 76;11.2884
3UII A L 64;3UII A H 77;5.61283
3UII A L 64;3UII A H 80;21.8632
3UII A E 65;3UII A G 66;21.1474
3UII A E 65;3UII A W 67;8.5052
3UII A G 66;3UII A W 67;21.4564
3UII A G 66;3UII A E 68;12.9419
3UII A G 66;3UII A D 71;1.20748
3UII A W 67;3UII A E 68;24.5463
3UII A W 67;3UII A P 69;0.0368247
3UII A W 67;3UII A D 71;14.9798
3UII A W 67;3UII A D 72;0.163636
3UII A W 67;3UII A P 73;10.4721
3UII A W 67;3UII A E 76;11.7918
3UII A E 68;3UII A P 69;29.2865
3UII A E 68;3UII A D 70;7.28905
3UII A E 68;3UII A D 71;31.0225
3UII A P 69;3UII A D 70;29.4591
3UII A P 69;3UII A D 71;2.02196
3UII A D 70;3UII A D 71;22.9609
3UII A D 70;3UII A D 72;7.30643
3UII A D 71;3UII A D 72;19.7931
3UII A D 71;3UII A P 73;4.6694
3UII A D 71;3UII A E 76;16.0166
3UII A D 72;3UII A P 73;23.9447
3UII A D 72;3UII A I 74;21.1541
3UII A D 72;3UII A E 75;31.0021
3UII A D 72;3UII A E 76;14.5574
3UII A P 73;3UII A I 74;17.5026
3UII A P 73;3UII A E 75;0.610035
3UII A P 73;3UII A E 76;8.05547
3UII A P 73;3UII A H 77;8.32462
3UII A I 74;3UII A E 75;31.2967
3UII A I 74;3UII A E 76;0.803321
3UII A I 74;3UII A H 77;9.86029
3UII A I 74;3UII A K 78;20.3975
3UII A I 74;3UII A L 87;12.417
3UII A E 75;3UII A E 76;22.0698
3UII A E 75;3UII A H 77;0.712265
3UII A E 75;3UII A K 78;27.3948
3UII A E 75;3UII A K 79;15.6768
3UII A E 76;3UII A H 77;18.1986
3UII A E 76;3UII A K 78;0.409549
3UII A E 76;3UII A K 79;23.893
3UII A E 76;3UII A H 80;18.1953
3UII A H 77;3UII A K 78;16.7804
3UII A H 77;3UII A K 79;1.81728
3UII A H 77;3UII A H 80;4.06842
3UII A H 77;3UII A S 81;20.9378
3UII A H 77;3UII A C 84;9.74473
3UII A H 77;3UII A F 86;2.97861
3UII A H 77;3UII A L 87;20.1017
3UII A K 78;3UII A K 79;24.5722
3UII A K 78;3UII A H 80;0.588305
3UII A K 78;3UII A S 81;2.06597
3UII A K 78;3UII A S 82;22.4001
3UII A K 78;3UII A L 87;24.7351
3UII A K 79;3UII A H 80;47.1945
3UII A K 79;3UII A S 81;1.829
3UII A K 79;3UII A S 82;1.83521
3UII A H 80;3UII A S 81;25.9124
3UII A H 80;3UII A S 82;0.000223633
3UII A S 81;3UII A S 82;22.8737
3UII A S 81;3UII A G 83;6.12713
3UII A S 81;3UII A C 84;14.4211
3UII A S 81;3UII A L 87;4.77274
3UII A S 82;3UII A G 83;29.4281
3UII A S 82;3UII A C 84;4.60148
3UII A S 82;3UII A L 87;10.01
3UII A G 83;3UII A C 84;26.4704
3UII A G 83;3UII A A 85;9.38719
3UII A G 83;3UII A E 107;2.56566
3UII A C 84;3UII A A 85;20.4044
3UII A C 84;3UII A F 86;12.2913
3UII A C 84;3UII A L 87;25.9144
3UII A C 84;3UII A S 88;4.80143
3UII A C 84;3UII A N 111;1.60105
3UII A A 85;3UII A F 86;16.3922
3UII A A 85;3UII A L 87;2.29799
3UII A A 85;3UII A S 88;18.7487
3UII A A 85;3UII A V 89;6.83969
3UII A A 85;3UII A L 104;9.66531
3UII A A 85;3UII A E 107;21.8066
3UII A A 85;3UII A N 111;1.63031
3UII A F 86;3UII A L 87;27.4286
3UII A F 86;3UII A S 88;1.78815
3UII A F 86;3UII A V 89;38.6689
3UII A F 86;3UII A L 104;1.02076
3UII A L 87;3UII A S 88;20.1264
3UII A L 87;3UII A V 89;3.01777
3UII A L 87;3UII A K 90;15.8064
3UII A S 88;3UII A V 89;20.5339
3UII A S 88;3UII A K 90;25.6081
3UII A V 89;3UII A K 90;28.7032
3UII A V 89;3UII A K 91;16.8727
3UII A V 89;3UII A Q 92;7.24352
3UII A V 89;3UII A L 96;16.338
3UII A V 89;3UII A L 104;21.8586
3UII A K 90;3UII A K 91;38.9854
3UII A K 90;3UII A Q 92;3.25356
3UII A K 91;3UII A Q 92;31.8631
3UII A K 91;3UII A F 93;0.0232505
3UII A K 91;3UII A E 95;29.5966
3UII A K 91;3UII A L 96;23.4951
3UII A K 91;3UII A E 100;19.9978
3UII A Q 92;3UII A F 93;37.1028
3UII A Q 92;3UII A E 94;3.89599
3UII A Q 92;3UII A E 95;16.1749
3UII A Q 92;3UII A L 96;3.70778
3UII A F 93;3UII A E 94;31.6004
3UII A F 93;3UII A E 95;5.62363
3UII A F 93;3UII A L 96;30.1197
3UII A F 93;3UII A F 101;17.2991
3UII A E 94;3UII A E 95;22.3554
3UII A E 94;3UII A L 96;3.08981
3UII A E 95;3UII A L 96;22.0782
3UII A E 95;3UII A T 97;1.92018
3UII A E 95;3UII A E 100;1.85587
3UII A L 96;3UII A T 97;21.4946
3UII A L 96;3UII A L 98;0.076794
3UII A L 96;3UII A E 100;20.2546
3UII A L 96;3UII A F 101;10.5279
3UII A L 96;3UII A L 104;17.187
3UII A T 97;3UII A L 98;15.3857
3UII A T 97;3UII A G 99;10.1175
3UII A T 97;3UII A E 100;35.3367
3UII A T 97;3UII A F 101;8.0698
3UII A L 98;3UII A G 99;15.9326
3UII A L 98;3UII A E 100;0.408725
3UII A L 98;3UII A F 101;14.5941
3UII A L 98;3UII A L 102;26.3494
3UII A G 99;3UII A E 100;18.1355
3UII A G 99;3UII A F 101;1.04979
3UII A G 99;3UII A L 102;8.59497
3UII A G 99;3UII A K 103;12.4669
3UII A G 99;3UII A R 106;4.70263
3UII A E 100;3UII A F 101;16.4269
3UII A E 100;3UII A L 102;0.484746
3UII A E 100;3UII A K 103;13.6136
3UII A E 100;3UII A L 104;17.5025
3UII A F 101;3UII A L 102;31.1599
3UII A F 101;3UII A K 103;1.27624
3UII A F 101;3UII A L 104;15.6197
3UII A F 101;3UII A D 105;17.2084
3UII A L 102;3UII A K 103;16.1022
3UII A L 102;3UII A L 104;0.143336
3UII A L 102;3UII A D 105;15.3407
3UII A L 102;3UII A R 106;30.5759
3UII A K 103;3UII A L 104;23.8296
3UII A K 103;3UII A D 105;1.45124
3UII A K 103;3UII A R 106;39.8763
3UII A K 103;3UII A E 107;9.45151
3UII A L 104;3UII A D 105;15.2457
3UII A L 104;3UII A R 106;1.42694
3UII A L 104;3UII A E 107;12.3264
3UII A L 104;3UII A R 108;5.80369
3UII A D 105;3UII A R 106;19.3823
3UII A D 105;3UII A E 107;0.25458
3UII A D 105;3UII A R 108;22.7395
3UII A D 105;3UII A A 109;10.6776
3UII A R 106;3UII A E 107;18.8517
3UII A R 106;3UII A R 108;1.1275
3UII A R 106;3UII A A 109;13.7716
3UII A R 106;3UII A K 110;16.4267
3UII A E 107;3UII A R 108;15.216
3UII A E 107;3UII A A 109;1.26247
3UII A E 107;3UII A K 110;22.8794
3UII A E 107;3UII A N 111;24.451
3UII A R 108;3UII A A 109;18.8856
3UII A R 108;3UII A K 110;0.513934
3UII A R 108;3UII A N 111;7.5906
3UII A R 108;3UII A K 112;8.81424
3UII A A 109;3UII A K 110;20.8742
3UII A A 109;3UII A N 111;0.0801039
3UII A A 109;3UII A K 112;13.7002
3UII A A 109;3UII A I 113;17.7084
3UII A K 110;3UII A N 111;21.5613
3UII A K 110;3UII A K 112;2.04989
3UII A K 110;3UII A I 113;18.0083
3UII A K 110;3UII A A 114;8.99222
3UII A N 111;3UII A K 112;15.1288
3UII A N 111;3UII A I 113;0.00550328
3UII A N 111;3UII A A 114;15.6787
3UII A N 111;3UII A K 115;10.222
3UII A K 112;3UII A I 113;25.4642
3UII A K 112;3UII A A 114;0.833462
3UII A K 112;3UII A K 115;13.1475
3UII A K 112;3UII A E 116;11.6684
3UII A I 113;3UII A A 114;21.4443
3UII A I 113;3UII A K 115;1.08757
3UII A I 113;3UII A E 116;19.0572
3UII A I 113;3UII A T 117;19.177
3UII A A 114;3UII A K 115;18.8858
3UII A A 114;3UII A E 116;0.245652
3UII A A 114;3UII A T 117;14.4527
3UII A A 114;3UII A N 118;11.5269
3UII A K 115;3UII A E 116;18.9476
3UII A K 115;3UII A T 117;1.45263
3UII A K 115;3UII A N 118;15.0331
3UII A K 115;3UII A N 119;31.9474
3UII A E 116;3UII A T 117;19.051
3UII A E 116;3UII A N 118;0.408565
3UII A E 116;3UII A N 119;17.4011
3UII A E 116;3UII A K 120;37.9211
3UII A T 117;3UII A N 118;20.3668
3UII A T 117;3UII A N 119;1.06273
3UII A T 117;3UII A K 120;13.8503
3UII A T 117;3UII A K 121;12.5596
3UII A N 118;3UII A N 119;19.6871
3UII A N 118;3UII A K 120;0.819366
3UII A N 118;3UII A K 121;19.6901
3UII A N 118;3UII A K 122;33.4702
3UII A N 119;3UII A K 120;18.3416
3UII A N 119;3UII A K 121;1.00132
3UII A N 119;3UII A K 122;20.3978
3UII A N 119;3UII A E 123;21.6585
3UII A K 120;3UII A K 121;19.1814
3UII A K 120;3UII A K 122;0.695124
3UII A K 120;3UII A E 123;24.3673
3UII A K 120;3UII A F 124;12.8509
3UII A K 121;3UII A K 122;20.3012
3UII A K 121;3UII A E 123;0.76928
3UII A K 121;3UII A F 124;14.3512
3UII A K 121;3UII A E 125;37.628
3UII A K 122;3UII A E 123;20.2033
3UII A K 122;3UII A F 124;1.18005
3UII A K 122;3UII A E 125;18.9133
3UII A K 122;3UII A E 126;13.091
3UII A E 123;3UII A F 124;19.4524
3UII A E 123;3UII A E 125;0.278254
3UII A E 123;3UII A E 126;14.3454
3UII A E 123;3UII A T 127;14.0604
3UII A F 124;3UII A E 125;26.1578
3UII A F 124;3UII A E 126;1.5449
3UII A F 124;3UII A T 127;14.08
3UII A F 124;3UII A A 128;18.8936
3UII A E 125;3UII A E 126;19.3819
3UII A E 125;3UII A T 127;0.239605
3UII A E 125;3UII A A 128;13.758
3UII A E 125;3UII A K 129;16.7415
3UII A E 125;3UII A R 132;0.0205892
3UII A E 126;3UII A T 127;18.4799
3UII A E 126;3UII A A 128;1.54647
3UII A E 126;3UII A K 129;25.4227
3UII A E 126;3UII A K 130;34.7029
3UII A T 127;3UII A A 128;20.1801
3UII A T 127;3UII A K 129;0.48264
3UII A T 127;3UII A K 130;23.0382
3UII A T 127;3UII A V 131;20.8067
3UII A A 128;3UII A K 129;16.3985
3UII A A 128;3UII A K 130;1.27783
3UII A A 128;3UII A V 131;12.8509
3UII A A 128;3UII A R 132;27.1168
3UII A K 129;3UII A K 130;20.207
3UII A K 129;3UII A V 131;0.773024
3UII A K 129;3UII A R 132;29.3765
3UII A K 129;3UII A R 133;14.2494
3UII A K 130;3UII A V 131;20.6711
3UII A K 130;3UII A R 132;0.375761
3UII A K 130;3UII A R 133;41.0269
3UII A K 130;3UII A A 134;9.97361
3UII A V 131;3UII A R 132;20.0234
3UII A V 131;3UII A R 133;0.616777
3UII A V 131;3UII A A 134;14.0162
3UII A V 131;3UII A I 135;29.5716
3UII A R 132;3UII A R 133;19.9681
3UII A R 132;3UII A A 134;1.0362
3UII A R 132;3UII A I 135;14.9632
3UII A R 132;3UII A E 136;28.291
3UII A R 133;3UII A A 134;28.7626
3UII A R 133;3UII A I 135;1.14439
3UII A R 133;3UII A E 136;18.5088
3UII A R 133;3UII A Q 137;31.954
3UII A A 134;3UII A I 135;19.1557
3UII A A 134;3UII A E 136;0.526844
3UII A A 134;3UII A Q 137;14.1817
3UII A A 134;3UII A L 138;17.4199
3UII A I 135;3UII A E 136;21.2799
3UII A I 135;3UII A Q 137;0.535412
3UII A I 135;3UII A L 138;21.6541
3UII A I 135;3UII A A 139;12.0532
3UII A E 136;3UII A Q 137;27.5621
3UII A E 136;3UII A L 138;2.68089
3UII A E 136;3UII A A 139;22.237
3UII A Q 137;3UII A L 138;27.3486
3UII A Q 137;3UII A A 139;4.59708
3UII A L 138;3UII A A 139;26.4639
