V1;V2;Weight
4HRN D C 9;4HRN D S 10;30.9309
4HRN D C 9;4HRN D Q 11;9.57718
4HRN D C 9;4HRN D F 12;8.32191
4HRN D C 9;4HRN D L 13;20.5172
4HRN D C 9;4HRN D C 18;26.3852
4HRN D S 10;4HRN D Q 11;29.426
4HRN D S 10;4HRN D C 18;2.23342
4HRN D S 10;4HRN D R 36;14.8516
4HRN D Q 11;4HRN D F 12;30.2094
4HRN D Q 11;4HRN D C 18;10.2595
4HRN D Q 11;4HRN D V 19;8.1839
4HRN D Q 11;4HRN D E 20;11.8698
4HRN D Q 11;4HRN D R 36;19.8865
4HRN D F 12;4HRN D L 13;20.6612
4HRN D F 12;4HRN D R 14;0.0308523
4HRN D F 12;4HRN D E 17;0.906972
4HRN D F 12;4HRN D C 18;4.07773
4HRN D F 12;4HRN D V 19;23.336
4HRN D F 12;4HRN D E 20;13.1971
4HRN D F 12;4HRN D E 21;10.6733
4HRN D F 12;4HRN D C 22;13.8237
4HRN D F 12;4HRN D V 33;7.82839
4HRN D F 12;4HRN D R 36;36.6938
4HRN D F 12;4HRN D H 37;0.194654
4HRN D F 12;4HRN D C 38;6.51036
4HRN D L 13;4HRN D R 14;17.1601
4HRN D L 13;4HRN D G 15;14.6842
4HRN D L 13;4HRN D Q 16;8.93999
4HRN D L 13;4HRN D E 17;6.9576
4HRN D L 13;4HRN D C 18;5.71866
4HRN D L 13;4HRN D V 19;1.43887
4HRN D L 13;4HRN D R 36;10.8858
4HRN D L 13;4HRN D H 37;27.55
4HRN D L 13;4HRN D C 38;13.1949
4HRN D R 14;4HRN D G 15;26.317
4HRN D R 14;4HRN D Q 16;2.15794
4HRN D R 14;4HRN D E 17;26.2716
4HRN D R 14;4HRN D V 19;29.0758
4HRN D R 14;4HRN D E 21;7.36697
4HRN D R 14;4HRN D C 22;4.09206
4HRN D R 14;4HRN D R 23;35.2731
4HRN D R 14;4HRN D E 31;18.1699
4HRN D R 14;4HRN D C 38;22.4847
4HRN D G 15;4HRN D Q 16;22.8927
4HRN D G 15;4HRN D E 17;1.02024
4HRN D G 15;4HRN D H 37;2.88319
4HRN D G 15;4HRN D C 38;3.75499
4HRN D Q 16;4HRN D E 17;26.4131
4HRN D Q 16;4HRN D C 18;5.67525
4HRN D E 17;4HRN D C 18;22.7464
4HRN D E 17;4HRN D V 19;14.8554
4HRN D C 18;4HRN D V 19;29.4149
4HRN D V 19;4HRN D E 20;26.3514
4HRN D V 19;4HRN D E 21;14.2235
4HRN D V 19;4HRN D C 38;7.1231
4HRN D E 20;4HRN D E 21;33.5643
4HRN D E 21;4HRN D C 22;35.574
4HRN D E 21;4HRN D R 23;0.114423
4HRN D E 21;4HRN D Q 26;13.0332
4HRN D E 21;4HRN D C 38;2.24964
4HRN D C 22;4HRN D R 23;19.6568
4HRN D C 22;4HRN D V 24;19.6752
4HRN D C 22;4HRN D Q 26;5.15334
4HRN D C 22;4HRN D E 31;8.30919
4HRN D C 22;4HRN D Y 32;0.387959
4HRN D C 22;4HRN D V 33;16.3024
4HRN D C 22;4HRN D H 37;1.44066
4HRN D C 22;4HRN D C 38;21.7207
4HRN D R 23;4HRN D V 24;20.2434
4HRN D R 23;4HRN D L 25;0.407244
4HRN D R 23;4HRN D Q 26;23.4475
4HRN D R 23;4HRN D G 27;13.6872
4HRN D R 23;4HRN D L 28;16.2689
4HRN D R 23;4HRN D P 29;18.7695
4HRN D R 23;4HRN D R 30;10.9383
4HRN D R 23;4HRN D E 31;30.5482
4HRN D V 24;4HRN D L 25;35.1226
4HRN D V 24;4HRN D Q 26;2.22231
4HRN D V 24;4HRN D R 30;7.08212
4HRN D V 24;4HRN D E 31;14.1961
4HRN D V 24;4HRN D Y 32;0.129388
4HRN D V 24;4HRN D V 33;9.57001
4HRN D V 24;4HRN D S 51;2.00272
4HRN D V 24;4HRN D V 52;15.1912
4HRN D V 24;4HRN D T 53;5.45721
4HRN D L 25;4HRN D Q 26;35.1327
4HRN D L 25;4HRN D R 30;10.8915
4HRN D L 25;4HRN D Q 48;3.38482
4HRN D L 25;4HRN D D 49;10.5935
4HRN D L 25;4HRN D S 51;17.6491
4HRN D L 25;4HRN D V 52;9.30896
4HRN D Q 26;4HRN D G 27;28.8466
4HRN D Q 26;4HRN D R 30;15.8594
4HRN D G 27;4HRN D L 28;27.3231
4HRN D G 27;4HRN D P 29;1.79927
4HRN D G 27;4HRN D R 30;19.6971
4HRN D L 28;4HRN D P 29;36.1145
4HRN D L 28;4HRN D R 30;17.4046
4HRN D L 28;4HRN D P 47;18.6792
4HRN D P 29;4HRN D R 30;26.6398
4HRN D P 29;4HRN D E 31;9.63184
4HRN D P 29;4HRN D P 40;15.1768
4HRN D P 29;4HRN D C 41;4.69302
4HRN D R 30;4HRN D E 31;20.8265
4HRN D R 30;4HRN D P 40;3.95806
4HRN D R 30;4HRN D C 41;18.5123
4HRN D R 30;4HRN D P 47;21.1978
4HRN D R 30;4HRN D Q 48;12.4972
4HRN D R 30;4HRN D D 49;12.8442
4HRN D R 30;4HRN D S 51;0.271336
4HRN D R 30;4HRN D T 53;24.299
4HRN D E 31;4HRN D Y 32;22.1045
4HRN D E 31;4HRN D V 33;0.510782
4HRN D E 31;4HRN D C 38;15.2734
4HRN D E 31;4HRN D L 39;12.5004
4HRN D E 31;4HRN D P 40;7.86082
4HRN D E 31;4HRN D C 41;9.80174
4HRN D E 31;4HRN D V 52;2.20702
4HRN D E 31;4HRN D T 53;2.67669
4HRN D E 31;4HRN D C 54;2.52957
4HRN D Y 32;4HRN D V 33;30.271
4HRN D Y 32;4HRN D N 34;13.3941
4HRN D Y 32;4HRN D H 37;0.703168
4HRN D Y 32;4HRN D C 38;2.94094
4HRN D Y 32;4HRN D L 39;44.7669
4HRN D Y 32;4HRN D P 40;9.48956
4HRN D Y 32;4HRN D C 41;3.22779
4HRN D Y 32;4HRN D C 54;14.5958
4HRN D Y 32;4HRN D F 55;11.2259
4HRN D Y 32;4HRN D G 56;14.9307
4HRN D Y 32;4HRN D P 57;27.7147
4HRN D V 33;4HRN D N 34;21.9421
4HRN D V 33;4HRN D A 35;0.0614353
4HRN D V 33;4HRN D R 36;8.78368
4HRN D V 33;4HRN D H 37;11.7026
4HRN D V 33;4HRN D C 38;0.576254
4HRN D V 33;4HRN D L 39;0.453015
4HRN D N 34;4HRN D A 35;27.9374
4HRN D N 34;4HRN D R 36;2.65761
4HRN D N 34;4HRN D H 37;19.2206
4HRN D N 34;4HRN D L 39;15.2579
4HRN D A 35;4HRN D R 36;28.5449
4HRN D A 35;4HRN D H 37;17.3402
4HRN D R 36;4HRN D H 37;20.7231
4HRN D R 36;4HRN D C 38;0.212993
4HRN D H 37;4HRN D C 38;18.3048
4HRN D H 37;4HRN D L 39;20.1679
4HRN D C 38;4HRN D L 39;26.708
4HRN D C 38;4HRN D P 40;1.90104
4HRN D L 39;4HRN D P 40;32.572
4HRN D L 39;4HRN D C 41;0.21688
4HRN D P 40;4HRN D C 41;29.6703
4HRN D P 40;4HRN D H 42;0.435401
4HRN D P 40;4HRN D G 56;0.0330078
4HRN D P 40;4HRN D P 57;10.4942
4HRN D C 41;4HRN D H 42;26.3408
4HRN D C 41;4HRN D P 43;9.39591
4HRN D C 41;4HRN D C 45;7.91746
4HRN D C 41;4HRN D T 53;12.6576
4HRN D C 41;4HRN D C 54;22.1178
4HRN D C 41;4HRN D G 56;2.9469
4HRN D C 41;4HRN D P 57;0.527115
4HRN D H 42;4HRN D P 43;41.4357
4HRN D H 42;4HRN D E 44;22.6762
4HRN D H 42;4HRN D C 45;22.0825
4HRN D H 42;4HRN D C 54;0.128118
4HRN D H 42;4HRN D G 56;2.5489
4HRN D H 42;4HRN D P 57;17.9562
4HRN D H 42;4HRN D E 58;20.9187
4HRN D H 42;4HRN D A 59;22.3179
4HRN D H 42;4HRN D C 62;2.75313
4HRN D H 42;4HRN D C 74;0.993561
4HRN D P 43;4HRN D E 44;25.4652
4HRN D P 43;4HRN D C 45;7.53694
4HRN D P 43;4HRN D A 66;6.75621
4HRN D P 43;4HRN D H 67;0.576073
4HRN D E 44;4HRN D C 45;18.5363
4HRN D E 44;4HRN D Q 46;0.383847
4HRN D E 44;4HRN D A 59;2.65403
4HRN D E 44;4HRN D C 62;2.01899
4HRN D E 44;4HRN D C 65;2.4679
4HRN D E 44;4HRN D A 66;17.226
4HRN D E 44;4HRN D H 67;20.9693
4HRN D E 44;4HRN D C 74;23.4686
4HRN D E 44;4HRN D V 75;11.7725
4HRN D E 44;4HRN D A 76;17.9757
4HRN D C 45;4HRN D Q 46;17.0678
4HRN D C 45;4HRN D P 47;10.8057
4HRN D C 45;4HRN D T 53;14.3669
4HRN D C 45;4HRN D C 54;7.50364
4HRN D C 45;4HRN D G 56;0.356063
4HRN D C 45;4HRN D E 58;2.52777
4HRN D C 45;4HRN D Q 61;0.471924
4HRN D C 45;4HRN D C 62;26.0739
4HRN D C 45;4HRN D A 64;2.66724
4HRN D C 45;4HRN D C 65;0.367396
4HRN D C 45;4HRN D A 66;5.94289
4HRN D C 45;4HRN D C 74;0.373466
4HRN D Q 46;4HRN D P 47;42.7888
4HRN D Q 46;4HRN D Q 48;20.5293
4HRN D Q 46;4HRN D T 53;8.89908
4HRN D Q 46;4HRN D V 63;0.175512
4HRN D Q 46;4HRN D A 64;19.8414
4HRN D Q 46;4HRN D C 65;13.4997
4HRN D Q 46;4HRN D A 66;22.8474
4HRN D P 47;4HRN D Q 48;23.8556
4HRN D P 47;4HRN D D 49;5.16481
4HRN D P 47;4HRN D T 53;9.15485
4HRN D P 47;4HRN D A 66;2.6179
4HRN D Q 48;4HRN D D 49;28.2219
4HRN D Q 48;4HRN D G 50;1.78963
4HRN D Q 48;4HRN D S 51;22.2039
4HRN D Q 48;4HRN D V 52;6.62832
4HRN D Q 48;4HRN D T 53;15.2499
4HRN D Q 48;4HRN D V 63;19.4169
4HRN D Q 48;4HRN D A 64;14.6667
4HRN D D 49;4HRN D G 50;24.88
4HRN D D 49;4HRN D S 51;4.4851
4HRN D G 50;4HRN D S 51;21.2409
4HRN D S 51;4HRN D V 52;27.7066
4HRN D S 51;4HRN D T 53;1.15627
4HRN D S 51;4HRN D V 63;4.05826
4HRN D V 52;4HRN D T 53;20.5466
4HRN D V 52;4HRN D C 54;10.5032
4HRN D V 52;4HRN D F 55;9.44155
4HRN D V 52;4HRN D V 63;10.7137
4HRN D T 53;4HRN D C 54;21.1847
4HRN D T 53;4HRN D C 62;2.95335
4HRN D T 53;4HRN D V 63;13.6034
4HRN D T 53;4HRN D A 64;0.279837
4HRN D C 54;4HRN D F 55;23.314
4HRN D C 54;4HRN D G 56;10.8689
4HRN D C 54;4HRN D E 58;0.0564256
4HRN D C 54;4HRN D Q 61;7.77093
4HRN D C 54;4HRN D C 62;3.77438
4HRN D C 54;4HRN D V 63;3.51971
4HRN D F 55;4HRN D G 56;22.2586
4HRN D F 55;4HRN D Q 61;25.0099
4HRN D F 55;4HRN D C 62;4.5355
4HRN D F 55;4HRN D V 63;13.1031
4HRN D G 56;4HRN D P 57;20.2507
4HRN D G 56;4HRN D E 58;5.35639
4HRN D G 56;4HRN D Q 61;19.488
4HRN D P 57;4HRN D E 58;27.6896
4HRN D P 57;4HRN D Q 61;10.8605
4HRN D E 58;4HRN D A 59;21.7908
4HRN D E 58;4HRN D D 60;10.4378
4HRN D E 58;4HRN D Q 61;24.0795
4HRN D E 58;4HRN D C 62;3.29791
4HRN D E 58;4HRN D F 73;0.258451
4HRN D A 59;4HRN D D 60;18.0691
4HRN D A 59;4HRN D Q 61;3.05211
4HRN D A 59;4HRN D C 62;11.5932
4HRN D A 59;4HRN D P 72;1.94999
4HRN D A 59;4HRN D F 73;16.7968
4HRN D A 59;4HRN D C 74;25.292
4HRN D D 60;4HRN D Q 61;32.5206
4HRN D D 60;4HRN D C 62;2.0763
4HRN D D 60;4HRN D P 72;26.2159
4HRN D D 60;4HRN D F 73;20.635
4HRN D Q 61;4HRN D C 62;25.8481
4HRN D C 62;4HRN D V 63;26.0001
4HRN D C 62;4HRN D A 64;9.68736
4HRN D C 62;4HRN D C 74;15.7412
4HRN D V 63;4HRN D A 64;33.7716
4HRN D A 64;4HRN D C 65;26.8974
4HRN D A 64;4HRN D C 74;3.07691
4HRN D C 65;4HRN D A 66;19.1815
4HRN D C 65;4HRN D H 67;16.1552
4HRN D C 65;4HRN D Y 68;5.6813
4HRN D C 65;4HRN D K 69;17.1238
4HRN D C 65;4HRN D F 73;1.80103
4HRN D C 65;4HRN D C 74;27.6966
4HRN D A 66;4HRN D H 67;45.4463
4HRN D A 66;4HRN D C 74;0.114432
4HRN D H 67;4HRN D Y 68;39.2903
4HRN D H 67;4HRN D K 69;2.096
4HRN D H 67;4HRN D C 74;0.582603
4HRN D H 67;4HRN D V 75;5.17833
4HRN D H 67;4HRN D A 76;15.0479
4HRN D Y 68;4HRN D K 69;27.2699
4HRN D Y 68;4HRN D D 70;0.0475684
4HRN D Y 68;4HRN D F 73;0.742909
4HRN D Y 68;4HRN D C 74;4.04401
4HRN D Y 68;4HRN D V 75;24.4585
4HRN D Y 68;4HRN D A 76;14.4586
4HRN D Y 68;4HRN D R 77;8.31219
4HRN D Y 68;4HRN D C 78;26.3227
4HRN D K 69;4HRN D D 70;24.9908
4HRN D K 69;4HRN D P 71;12.5211
4HRN D K 69;4HRN D F 73;4.74211
4HRN D K 69;4HRN D C 74;0.670796
4HRN D K 69;4HRN D V 75;0.462754
4HRN D K 69;4HRN D C 78;11.9646
4HRN D D 70;4HRN D P 71;38.1689
4HRN D D 70;4HRN D P 72;0.144734
4HRN D D 70;4HRN D F 73;24.6866
4HRN D D 70;4HRN D V 75;17.1127
4HRN D D 70;4HRN D C 78;20.1765
4HRN D P 71;4HRN D P 72;35.311
4HRN D P 71;4HRN D F 73;3.85951
4HRN D P 72;4HRN D F 73;40.7537
4HRN D P 72;4HRN D C 74;1.98023
4HRN D F 73;4HRN D C 74;20.5306
4HRN D F 73;4HRN D V 75;13.0312
4HRN D C 74;4HRN D V 75;22.4258
4HRN D V 75;4HRN D A 76;23.9447
4HRN D V 75;4HRN D R 77;19.6341
4HRN D V 75;4HRN D C 78;3.25531
4HRN D A 76;4HRN D R 77;28.3186
4HRN D R 77;4HRN D C 78;33.4963
