V1;V2;Weight
4I77 Z T 8;4I77 Z A 9;29.7962
4I77 Z T 8;4I77 Z L 10;7.98585
4I77 Z T 8;4I77 Z R 11;20.1186
4I77 Z T 8;4I77 Z E 12;23.9918
4I77 Z T 8;4I77 Z F 107;5.2178
4I77 Z A 9;4I77 Z L 10;18.5528
4I77 Z A 9;4I77 Z R 11;0.520398
4I77 Z A 9;4I77 Z E 12;19.6725
4I77 Z A 9;4I77 Z L 13;10.5543
4I77 Z A 9;4I77 Z M 66;2.53266
4I77 Z A 9;4I77 Z F 70;22.4195
4I77 Z L 10;4I77 Z R 11;19.3147
4I77 Z L 10;4I77 Z E 12;0.688265
4I77 Z L 10;4I77 Z L 13;14.6388
4I77 Z L 10;4I77 Z I 14;18.7737
4I77 Z L 10;4I77 Z Y 44;19.4155
4I77 Z L 10;4I77 Z F 70;16.6722
4I77 Z L 10;4I77 Z L 103;16.9016
4I77 Z L 10;4I77 Z L 106;13.7489
4I77 Z L 10;4I77 Z F 107;23.0659
4I77 Z R 11;4I77 Z E 12;16.6503
4I77 Z R 11;4I77 Z L 13;1.10174
4I77 Z R 11;4I77 Z I 14;15.4679
4I77 Z R 11;4I77 Z E 15;30.389
4I77 Z R 11;4I77 Z F 107;41.6465
4I77 Z E 12;4I77 Z L 13;15.5161
4I77 Z E 12;4I77 Z I 14;0.606426
4I77 Z E 12;4I77 Z E 15;27.9083
4I77 Z E 12;4I77 Z E 16;9.37029
4I77 Z E 12;4I77 Z M 66;21.1946
4I77 Z L 13;4I77 Z I 14;17.4821
4I77 Z L 13;4I77 Z E 15;0.625013
4I77 Z L 13;4I77 Z E 16;8.56841
4I77 Z L 13;4I77 Z L 17;20.3733
4I77 Z L 13;4I77 Z Y 44;9.57155
4I77 Z L 13;4I77 Z T 63;12.1095
4I77 Z L 13;4I77 Z M 66;24.2121
4I77 Z L 13;4I77 Z L 67;18.0423
4I77 Z L 13;4I77 Z F 70;13.1424
4I77 Z L 13;4I77 Z L 99;2.22521
4I77 Z L 13;4I77 Z L 103;15.1389
4I77 Z I 14;4I77 Z E 15;19.7081
4I77 Z I 14;4I77 Z E 16;1.02748
4I77 Z I 14;4I77 Z L 17;10.1976
4I77 Z I 14;4I77 Z V 18;16.2425
4I77 Z I 14;4I77 Z L 100;14.8832
4I77 Z I 14;4I77 Z L 103;19.7755
4I77 Z I 14;4I77 Z K 104;27.3201
4I77 Z I 14;4I77 Z F 107;15.0459
4I77 Z E 15;4I77 Z E 16;17.581
4I77 Z E 15;4I77 Z L 17;0.733351
4I77 Z E 15;4I77 Z V 18;11.5749
4I77 Z E 15;4I77 Z N 19;19.216
4I77 Z E 16;4I77 Z L 17;17.4589
4I77 Z E 16;4I77 Z V 18;0.766984
4I77 Z E 16;4I77 Z N 19;24.0795
4I77 Z E 16;4I77 Z I 20;25.6116
4I77 Z E 16;4I77 Z A 59;4.1914
4I77 Z E 16;4I77 Z K 62;33.608
4I77 Z E 16;4I77 Z T 63;15.0237
4I77 Z E 16;4I77 Z M 66;14.5995
4I77 Z L 17;4I77 Z V 18;14.7771
4I77 Z L 17;4I77 Z N 19;0.444553
4I77 Z L 17;4I77 Z I 20;14.6771
4I77 Z L 17;4I77 Z T 21;9.16079
4I77 Z L 17;4I77 Z L 51;0.00807611
4I77 Z L 17;4I77 Z T 63;16.6141
4I77 Z L 17;4I77 Z V 96;27.5276
4I77 Z L 17;4I77 Z L 99;17.6677
4I77 Z L 17;4I77 Z L 100;21.7614
4I77 Z L 17;4I77 Z L 103;9.75095
4I77 Z V 18;4I77 Z N 19;18.8323
4I77 Z V 18;4I77 Z I 20;1.76365
4I77 Z V 18;4I77 Z T 21;16.3907
4I77 Z V 18;4I77 Z Q 22;20.7622
4I77 Z V 18;4I77 Z L 100;17.8306
4I77 Z V 18;4I77 Z K 104;12.9203
4I77 Z N 19;4I77 Z I 20;24.9168
4I77 Z N 19;4I77 Z T 21;0.763046
4I77 Z N 19;4I77 Z Q 22;30.976
4I77 Z I 20;4I77 Z T 21;23.5824
4I77 Z I 20;4I77 Z Q 22;6.84134
4I77 Z I 20;4I77 Z L 28;32.2257
4I77 Z I 20;4I77 Z A 59;20.683
4I77 Z I 20;4I77 Z I 60;9.5753
4I77 Z I 20;4I77 Z T 63;10.0435
4I77 Z I 20;4I77 Z V 96;11.4028
4I77 Z T 21;4I77 Z Q 22;29.8946
4I77 Z T 21;4I77 Z L 28;6.81012
4I77 Z T 21;4I77 Z A 93;9.91693
4I77 Z T 21;4I77 Z V 96;12.7288
4I77 Z T 21;4I77 Z K 97;25.6377
4I77 Z T 21;4I77 Z L 100;7.91358
4I77 Z P 27;4I77 Z L 28;36.1144
4I77 Z P 27;4I77 Z C 29;1.13458
4I77 Z P 27;4I77 Z N 30;31.8533
4I77 Z P 27;4I77 Z A 93;0.743222
4I77 Z L 28;4I77 Z C 29;33.1381
4I77 Z L 28;4I77 Z N 30;5.7505
4I77 Z L 28;4I77 Z S 32;0.15454
4I77 Z L 28;4I77 Z C 57;0.648787
4I77 Z L 28;4I77 Z A 59;17.1803
4I77 Z L 28;4I77 Z I 60;5.72468
4I77 Z L 28;4I77 Z E 91;1.60523
4I77 Z L 28;4I77 Z V 92;20.258
4I77 Z L 28;4I77 Z A 93;24.1818
4I77 Z L 28;4I77 Z V 96;7.70495
4I77 Z C 29;4I77 Z N 30;26.6082
4I77 Z C 29;4I77 Z G 31;2.09489
4I77 Z C 29;4I77 Z S 32;21.7564
4I77 Z C 29;4I77 Z V 54;10.0448
4I77 Z C 29;4I77 Z S 55;0.133048
4I77 Z C 29;4I77 Z C 57;25.0385
4I77 Z C 29;4I77 Z A 59;0.661031
4I77 Z C 29;4I77 Z I 60;9.43249
4I77 Z C 29;4I77 Z V 92;16.4921
4I77 Z N 30;4I77 Z G 31;30.8167
4I77 Z N 30;4I77 Z S 32;5.34106
4I77 Z G 31;4I77 Z S 32;27.3296
4I77 Z G 31;4I77 Z M 33;11.7718
4I77 Z S 32;4I77 Z M 33;30.5266
4I77 Z S 32;4I77 Z V 34;0.668989
4I77 Z S 32;4I77 Z V 54;16.4559
4I77 Z S 32;4I77 Z S 55;5.97049
4I77 Z S 32;4I77 Z I 90;0.289086
4I77 Z S 32;4I77 Z E 91;4.4656
4I77 Z S 32;4I77 Z V 92;14.8037
4I77 Z M 33;4I77 Z V 34;24.8885
4I77 Z M 33;4I77 Z N 53;5.15689
4I77 Z M 33;4I77 Z V 54;2.37946
4I77 Z M 33;4I77 Z K 89;45.5957
4I77 Z M 33;4I77 Z I 90;16.1176
4I77 Z M 33;4I77 Z E 91;20.114
4I77 Z M 33;4I77 Z V 92;0.00084864
4I77 Z V 34;4I77 Z W 35;23.4826
4I77 Z V 34;4I77 Z S 36;0.642653
4I77 Z V 34;4I77 Z S 50;17.8788
4I77 Z V 34;4I77 Z L 51;10.7184
4I77 Z V 34;4I77 Z N 53;2.11537
4I77 Z V 34;4I77 Z V 54;13.2871
4I77 Z V 34;4I77 Z T 88;0.0682988
4I77 Z V 34;4I77 Z K 89;12.5808
4I77 Z V 34;4I77 Z I 90;23.6934
4I77 Z V 34;4I77 Z E 91;2.04204
4I77 Z V 34;4I77 Z V 92;15.264
4I77 Z V 34;4I77 Z F 95;14.668
4I77 Z W 35;4I77 Z S 36;23.3884
4I77 Z W 35;4I77 Z I 37;5.2666
4I77 Z W 35;4I77 Z S 50;20.0148
4I77 Z W 35;4I77 Z N 53;6.31412
4I77 Z W 35;4I77 Z F 80;13.3573
4I77 Z W 35;4I77 Z L 83;13.5543
4I77 Z W 35;4I77 Z V 85;2.16388
4I77 Z W 35;4I77 Z R 86;37.155
4I77 Z W 35;4I77 Z D 87;18.6538
4I77 Z W 35;4I77 Z T 88;9.36752
4I77 Z W 35;4I77 Z K 89;40.1039
4I77 Z W 35;4I77 Z I 90;1.77161
4I77 Z W 35;4I77 Z F 95;6.47125
4I77 Z S 36;4I77 Z I 37;31.9195
4I77 Z S 36;4I77 Z N 38;1.472
4I77 Z S 36;4I77 Z L 83;3.35491
4I77 Z S 36;4I77 Z V 85;15.6899
4I77 Z S 36;4I77 Z D 87;0.0733846
4I77 Z S 36;4I77 Z T 88;32.2611
4I77 Z S 36;4I77 Z K 89;0.00360055
4I77 Z S 36;4I77 Z I 90;18.4503
4I77 Z S 36;4I77 Z F 95;1.73698
4I77 Z S 36;4I77 Z D 98;7.21558
4I77 Z I 37;4I77 Z N 38;31.5999
4I77 Z I 37;4I77 Z L 39;33.8403
4I77 Z I 37;4I77 Z M 43;4.52065
4I77 Z I 37;4I77 Z A 46;25.7468
4I77 Z I 37;4I77 Z A 47;9.90523
4I77 Z I 37;4I77 Z E 49;0.000526687
4I77 Z I 37;4I77 Z S 50;9.42385
4I77 Z I 37;4I77 Z L 83;20.3315
4I77 Z I 37;4I77 Z I 90;0.0766356
4I77 Z I 37;4I77 Z F 95;17.9124
4I77 Z I 37;4I77 Z L 99;0.00990538
4I77 Z N 38;4I77 Z L 39;22.4181
4I77 Z N 38;4I77 Z T 40;22.2047
4I77 Z N 38;4I77 Z M 43;13.7844
4I77 Z N 38;4I77 Z A 46;4.10724
4I77 Z N 38;4I77 Z L 83;2.81848
4I77 Z N 38;4I77 Z V 85;29.7658
4I77 Z L 39;4I77 Z T 40;28.4011
4I77 Z L 39;4I77 Z M 43;6.60476
4I77 Z L 39;4I77 Z A 47;1.13323
4I77 Z L 39;4I77 Z F 95;0.607575
4I77 Z L 39;4I77 Z D 98;19.8657
4I77 Z L 39;4I77 Z L 99;19.106
4I77 Z L 39;4I77 Z H 102;41.034
4I77 Z T 40;4I77 Z A 41;24.7666
4I77 Z T 40;4I77 Z G 42;8.49479
4I77 Z T 40;4I77 Z M 43;25.7144
4I77 Z T 40;4I77 Z H 102;12.9836
4I77 Z T 40;4I77 Z L 106;5.79838
4I77 Z A 41;4I77 Z G 42;26.6452
4I77 Z A 41;4I77 Z M 43;28.0653
4I77 Z G 42;4I77 Z M 43;19.5574
4I77 Z G 42;4I77 Z Y 44;27.5591
4I77 Z G 42;4I77 Z C 45;3.7081
4I77 Z G 42;4I77 Z H 102;2.23717
4I77 Z G 42;4I77 Z L 106;12.1768
4I77 Z M 43;4I77 Z Y 44;18.4322
4I77 Z M 43;4I77 Z C 45;5.82757
4I77 Z M 43;4I77 Z A 46;21.252
4I77 Z M 43;4I77 Z A 47;9.56303
4I77 Z M 43;4I77 Z S 82;9.89144
4I77 Z M 43;4I77 Z L 99;0.205934
4I77 Z M 43;4I77 Z H 102;8.79424
4I77 Z Y 44;4I77 Z C 45;18.9264
4I77 Z Y 44;4I77 Z A 46;0.645517
4I77 Z Y 44;4I77 Z A 47;8.05539
4I77 Z Y 44;4I77 Z L 48;9.79032
4I77 Z Y 44;4I77 Z L 67;24.1479
4I77 Z Y 44;4I77 Z F 70;45.6882
4I77 Z Y 44;4I77 Z C 71;9.94324
4I77 Z Y 44;4I77 Z L 99;0.481827
4I77 Z Y 44;4I77 Z L 103;12.5324
4I77 Z Y 44;4I77 Z L 106;11.1926
4I77 Z C 45;4I77 Z A 46;16.5629
4I77 Z C 45;4I77 Z A 47;0.755612
4I77 Z C 45;4I77 Z L 48;8.96291
4I77 Z C 45;4I77 Z E 49;12.9919
4I77 Z C 45;4I77 Z C 71;27.7001
4I77 Z C 45;4I77 Z H 73;11.497
4I77 Z C 45;4I77 Z V 75;6.35872
4I77 Z C 45;4I77 Z S 82;19.4242
4I77 Z A 46;4I77 Z A 47;15.5392
4I77 Z A 46;4I77 Z L 48;0.80064
4I77 Z A 46;4I77 Z E 49;9.4249
4I77 Z A 46;4I77 Z S 50;6.87255
4I77 Z A 46;4I77 Z S 82;16.563
4I77 Z A 46;4I77 Z L 83;6.47899
4I77 Z A 47;4I77 Z L 48;16.8286
4I77 Z A 47;4I77 Z E 49;0.802545
4I77 Z A 47;4I77 Z S 50;6.26813
4I77 Z A 47;4I77 Z L 51;11.2078
4I77 Z A 47;4I77 Z L 67;14.4951
4I77 Z A 47;4I77 Z F 95;14.0986
4I77 Z A 47;4I77 Z L 99;16.5122
4I77 Z L 48;4I77 Z E 49;16.1137
4I77 Z L 48;4I77 Z S 50;1.13194
4I77 Z L 48;4I77 Z L 51;7.66139
4I77 Z L 48;4I77 Z I 52;25.2783
4I77 Z L 48;4I77 Z Q 64;13.9126
4I77 Z L 48;4I77 Z L 67;21.4572
4I77 Z L 48;4I77 Z S 68;18.0662
4I77 Z L 48;4I77 Z C 71;16.7153
4I77 Z L 48;4I77 Z H 73;2.03653
4I77 Z L 48;4I77 Z V 75;18.1483
4I77 Z E 49;4I77 Z S 50;19.5774
4I77 Z E 49;4I77 Z L 51;0.458314
4I77 Z E 49;4I77 Z I 52;13.3682
4I77 Z E 49;4I77 Z N 53;6.70185
4I77 Z E 49;4I77 Z V 75;26.3356
4I77 Z E 49;4I77 Z S 76;0.0635278
4I77 Z E 49;4I77 Z Q 79;6.65058
4I77 Z E 49;4I77 Z F 80;25.8381
4I77 Z E 49;4I77 Z S 81;14.084
4I77 Z E 49;4I77 Z S 82;16.1268
4I77 Z E 49;4I77 Z L 83;14.9462
4I77 Z S 50;4I77 Z L 51;18.793
4I77 Z S 50;4I77 Z I 52;1.55245
4I77 Z S 50;4I77 Z N 53;13.0446
4I77 Z S 50;4I77 Z V 54;0.794814
4I77 Z S 50;4I77 Z F 80;1.36314
4I77 Z S 50;4I77 Z L 83;5.92172
4I77 Z S 50;4I77 Z F 95;11.4183
4I77 Z L 51;4I77 Z I 52;16.4329
4I77 Z L 51;4I77 Z N 53;3.32144
4I77 Z L 51;4I77 Z V 54;19.1867
4I77 Z L 51;4I77 Z I 60;18.0508
4I77 Z L 51;4I77 Z T 63;11.4586
4I77 Z L 51;4I77 Z Q 64;21.1518
4I77 Z L 51;4I77 Z L 67;11.5505
4I77 Z L 51;4I77 Z V 92;10.9418
4I77 Z L 51;4I77 Z F 95;20.8272
4I77 Z L 51;4I77 Z V 96;4.9608
4I77 Z L 51;4I77 Z L 99;3.38
4I77 Z I 52;4I77 Z N 53;22.7742
4I77 Z I 52;4I77 Z V 54;4.97485
4I77 Z I 52;4I77 Z Q 64;9.41569
4I77 Z I 52;4I77 Z S 68;0.0249187
4I77 Z I 52;4I77 Z V 75;26.6497
4I77 Z I 52;4I77 Z S 76;9.04212
4I77 Z I 52;4I77 Z A 77;18.8689
4I77 Z I 52;4I77 Z G 78;0.840124
4I77 Z I 52;4I77 Z Q 79;0.621856
4I77 Z I 52;4I77 Z F 80;0.935978
4I77 Z N 53;4I77 Z V 54;22.413
4I77 Z N 53;4I77 Z S 55;3.08184
4I77 Z N 53;4I77 Z A 77;8.39597
4I77 Z N 53;4I77 Z G 78;15.052
4I77 Z N 53;4I77 Z F 80;15.5828
4I77 Z V 54;4I77 Z S 55;27.4621
4I77 Z V 54;4I77 Z G 56;0.259447
4I77 Z V 54;4I77 Z C 57;8.51502
4I77 Z V 54;4I77 Z I 60;15.4469
4I77 Z V 54;4I77 Z Q 64;2.98832
4I77 Z V 54;4I77 Z V 92;8.88135
4I77 Z S 55;4I77 Z G 56;23.2825
4I77 Z S 55;4I77 Z C 57;7.692
4I77 Z G 56;4I77 Z C 57;19.8631
4I77 Z G 56;4I77 Z S 58;0.509556
4I77 Z C 57;4I77 Z S 58;15.2051
4I77 Z C 57;4I77 Z A 59;11.6557
4I77 Z C 57;4I77 Z I 60;19.5884
4I77 Z C 57;4I77 Z E 61;4.89763
4I77 Z S 58;4I77 Z A 59;25.2497
4I77 Z S 58;4I77 Z I 60;1.9273
4I77 Z S 58;4I77 Z E 61;16.0071
4I77 Z S 58;4I77 Z K 62;1.77487
4I77 Z A 59;4I77 Z I 60;20.0081
4I77 Z A 59;4I77 Z E 61;1.2964
4I77 Z A 59;4I77 Z K 62;3.03583
4I77 Z A 59;4I77 Z T 63;1.5089
4I77 Z I 60;4I77 Z E 61;17.7098
4I77 Z I 60;4I77 Z K 62;2.29061
4I77 Z I 60;4I77 Z T 63;17.8623
4I77 Z I 60;4I77 Z Q 64;24.0095
4I77 Z I 60;4I77 Z V 92;8.88144
4I77 Z I 60;4I77 Z V 96;3.81052
4I77 Z E 61;4I77 Z K 62;23.0328
4I77 Z E 61;4I77 Z T 63;0.697564
4I77 Z E 61;4I77 Z Q 64;13.2307
4I77 Z E 61;4I77 Z R 65;37.4067
4I77 Z K 62;4I77 Z T 63;18.639
4I77 Z K 62;4I77 Z Q 64;0.822681
4I77 Z K 62;4I77 Z R 65;14.8159
4I77 Z K 62;4I77 Z M 66;26.8413
4I77 Z T 63;4I77 Z Q 64;17.207
4I77 Z T 63;4I77 Z R 65;0.593241
4I77 Z T 63;4I77 Z M 66;10.282
4I77 Z T 63;4I77 Z L 67;19.4095
4I77 Z T 63;4I77 Z V 96;1.8528
4I77 Z T 63;4I77 Z L 99;4.08625
4I77 Z Q 64;4I77 Z R 65;14.6422
4I77 Z Q 64;4I77 Z M 66;0.707805
4I77 Z Q 64;4I77 Z L 67;9.68571
4I77 Z Q 64;4I77 Z S 68;8.73428
4I77 Z R 65;4I77 Z M 66;15.7754
4I77 Z R 65;4I77 Z L 67;0.679129
4I77 Z R 65;4I77 Z S 68;9.9032
4I77 Z R 65;4I77 Z G 69;4.88997
4I77 Z M 66;4I77 Z L 67;16.7032
4I77 Z M 66;4I77 Z S 68;0.879146
4I77 Z M 66;4I77 Z G 69;8.01996
4I77 Z M 66;4I77 Z F 70;14.8314
4I77 Z L 67;4I77 Z S 68;14.3259
4I77 Z L 67;4I77 Z G 69;1.42979
4I77 Z L 67;4I77 Z F 70;10.3013
4I77 Z L 67;4I77 Z C 71;8.52715
4I77 Z L 67;4I77 Z L 99;12.4404
4I77 Z L 67;4I77 Z L 103;0.972935
4I77 Z S 68;4I77 Z G 69;18.9546
4I77 Z S 68;4I77 Z F 70;0.625806
4I77 Z S 68;4I77 Z C 71;12.7847
4I77 Z S 68;4I77 Z P 72;9.29258
4I77 Z G 69;4I77 Z F 70;24.2598
4I77 Z G 69;4I77 Z C 71;1.09618
4I77 Z G 69;4I77 Z P 72;9.67975
4I77 Z F 70;4I77 Z C 71;18.9224
4I77 Z F 70;4I77 Z P 72;10.3975
4I77 Z C 71;4I77 Z P 72;21.2795
4I77 Z C 71;4I77 Z H 73;20.6579
4I77 Z C 71;4I77 Z V 75;8.41523
4I77 Z P 72;4I77 Z H 73;43.5761
4I77 Z P 72;4I77 Z K 74;1.91616
4I77 Z H 73;4I77 Z K 74;31.9795
4I77 Z H 73;4I77 Z V 75;15.9543
4I77 Z K 74;4I77 Z V 75;31.6245
4I77 Z K 74;4I77 Z S 76;7.09757
4I77 Z V 75;4I77 Z S 76;33.8471
4I77 Z V 75;4I77 Z Q 79;1.14059
4I77 Z S 76;4I77 Z A 77;28.09
4I77 Z S 76;4I77 Z G 78;2.34554
4I77 Z S 76;4I77 Z Q 79;39.4848
4I77 Z A 77;4I77 Z G 78;21.9005
4I77 Z A 77;4I77 Z Q 79;7.39596
4I77 Z G 78;4I77 Z Q 79;24.7863
4I77 Z G 78;4I77 Z F 80;22.365
4I77 Z Q 79;4I77 Z F 80;34.4702
4I77 Z F 80;4I77 Z S 81;29.7396
4I77 Z F 80;4I77 Z L 83;20.0802
4I77 Z F 80;4I77 Z R 86;36.8136
4I77 Z S 81;4I77 Z S 82;23.494
4I77 Z S 81;4I77 Z L 83;6.90256
4I77 Z S 81;4I77 Z H 84;15.5023
4I77 Z S 82;4I77 Z L 83;20.6465
4I77 Z S 82;4I77 Z H 84;18.4981
4I77 Z L 83;4I77 Z H 84;29.2642
4I77 Z L 83;4I77 Z V 85;17.4241
4I77 Z L 83;4I77 Z R 86;30.0858
4I77 Z H 84;4I77 Z V 85;31.9951
4I77 Z H 84;4I77 Z R 86;16.7911
4I77 Z V 85;4I77 Z R 86;20.2392
4I77 Z V 85;4I77 Z D 87;18.9552
4I77 Z V 85;4I77 Z T 88;1.31852
4I77 Z R 86;4I77 Z D 87;31.0666
4I77 Z D 87;4I77 Z T 88;34.0623
4I77 Z D 87;4I77 Z K 89;5.65728
4I77 Z T 88;4I77 Z K 89;26.7541
4I77 Z T 88;4I77 Z I 90;15.1917
4I77 Z K 89;4I77 Z I 90;23.835
4I77 Z I 90;4I77 Z E 91;25.0753
4I77 Z I 90;4I77 Z V 92;0.906695
4I77 Z I 90;4I77 Z Q 94;21.5932
4I77 Z I 90;4I77 Z F 95;17.4271
4I77 Z I 90;4I77 Z D 98;12.6193
4I77 Z E 91;4I77 Z V 92;18.9618
4I77 Z E 91;4I77 Z A 93;15.5531
4I77 Z E 91;4I77 Z Q 94;21.0281
4I77 Z E 91;4I77 Z F 95;6.16467
4I77 Z V 92;4I77 Z A 93;17.6098
4I77 Z V 92;4I77 Z Q 94;0.48675
4I77 Z V 92;4I77 Z F 95;11.1451
4I77 Z V 92;4I77 Z V 96;15.7002
4I77 Z A 93;4I77 Z Q 94;20.4255
4I77 Z A 93;4I77 Z F 95;0.865381
4I77 Z A 93;4I77 Z V 96;7.20695
4I77 Z A 93;4I77 Z K 97;24.694
4I77 Z Q 94;4I77 Z F 95;14.2802
4I77 Z Q 94;4I77 Z V 96;0.746311
4I77 Z Q 94;4I77 Z K 97;23.1101
4I77 Z Q 94;4I77 Z D 98;30.0841
4I77 Z F 95;4I77 Z V 96;22.3731
4I77 Z F 95;4I77 Z K 97;0.743203
4I77 Z F 95;4I77 Z D 98;11.9348
4I77 Z F 95;4I77 Z L 99;25.8083
4I77 Z V 96;4I77 Z K 97;17.492
4I77 Z V 96;4I77 Z D 98;0.947361
4I77 Z V 96;4I77 Z L 99;11.6366
4I77 Z V 96;4I77 Z L 100;15.694
4I77 Z K 97;4I77 Z D 98;18.6686
4I77 Z K 97;4I77 Z L 99;0.460192
4I77 Z K 97;4I77 Z L 100;17.8688
4I77 Z K 97;4I77 Z L 101;18.8929
4I77 Z D 98;4I77 Z L 99;18.6181
4I77 Z D 98;4I77 Z L 100;1.14177
4I77 Z D 98;4I77 Z L 101;20.4313
4I77 Z D 98;4I77 Z H 102;6.44694
4I77 Z L 99;4I77 Z L 100;16.3702
4I77 Z L 99;4I77 Z L 101;1.05202
4I77 Z L 99;4I77 Z H 102;8.34927
4I77 Z L 99;4I77 Z L 103;32.2381
4I77 Z L 100;4I77 Z L 101;21.7499
4I77 Z L 100;4I77 Z H 102;0.679624
4I77 Z L 100;4I77 Z L 103;8.63172
4I77 Z L 100;4I77 Z K 104;28.5324
4I77 Z L 101;4I77 Z H 102;21.6158
4I77 Z L 101;4I77 Z L 103;0.735221
4I77 Z L 101;4I77 Z K 104;8.69203
4I77 Z L 101;4I77 Z K 105;12.5419
4I77 Z L 101;4I77 Z R 108;0.965465
4I77 Z H 102;4I77 Z L 103;30.106
4I77 Z H 102;4I77 Z K 104;1.11078
4I77 Z H 102;4I77 Z K 105;20.9098
4I77 Z H 102;4I77 Z L 106;30.9533
4I77 Z L 103;4I77 Z K 104;16.2205
4I77 Z L 103;4I77 Z K 105;1.04338
4I77 Z L 103;4I77 Z L 106;16.9748
4I77 Z L 103;4I77 Z F 107;7.75851
4I77 Z K 104;4I77 Z K 105;18.1633
4I77 Z K 104;4I77 Z L 106;0.631849
4I77 Z K 104;4I77 Z F 107;12.8723
4I77 Z K 104;4I77 Z R 108;20.7597
4I77 Z K 105;4I77 Z L 106;24.6389
4I77 Z K 105;4I77 Z F 107;1.2051
4I77 Z K 105;4I77 Z R 108;38.7462
4I77 Z L 106;4I77 Z F 107;21.0469
4I77 Z L 106;4I77 Z R 108;9.42704
4I77 Z F 107;4I77 Z R 108;33.3782
