V1;V2;Weight
4JFF A G 1;4JFF A S 2;26.9847
4JFF A G 1;4JFF A H 3;18.7931
4JFF A G 1;4JFF A G 104;2.57777
4JFF A G 1;4JFF A S 105;26.8392
4JFF A G 1;4JFF A W 107;2.56657
4JFF A G 1;4JFF A E 264;17.7706
4JFF A S 2;4JFF A H 3;33.0917
4JFF A S 2;4JFF A D 29;3.0959
4JFF A S 2;4JFF A D 102;0.266659
4JFF A S 2;4JFF A V 103;8.06059
4JFF A S 2;4JFF A G 104;11.0594
4JFF A S 2;4JFF A S 105;5.73166
4JFF A S 2;4JFF A L 110;10.6232
4JFF A H 3;4JFF A S 4;22.6042
4JFF A H 3;4JFF A V 28;0.500789
4JFF A H 3;4JFF A D 29;22.5612
4JFF A H 3;4JFF A D 102;5.50094
4JFF A H 3;4JFF A V 103;24.8944
4JFF A H 3;4JFF A G 104;1.60498
4JFF A H 3;4JFF A W 107;14.9723
4JFF A H 3;4JFF A L 168;7.97221
4JFF A H 3;4JFF A L 172;23.9942
4JFF A H 3;4JFF A L 179;6.54471
4JFF A H 3;4JFF A Q 180;10.3929
4JFF A S 4;4JFF A M 5;17.9145
4JFF A S 4;4JFF A R 6;19.8101
4JFF A S 4;4JFF A Y 27;0.28404
4JFF A S 4;4JFF A V 28;6.819
4JFF A S 4;4JFF A D 29;26.6557
4JFF A S 4;4JFF A C 101;7.26203
4JFF A S 4;4JFF A D 102;11.155
4JFF A S 4;4JFF A L 168;13.3449
4JFF A M 5;4JFF A R 6;26.3674
4JFF A M 5;4JFF A Y 7;14.0939
4JFF A M 5;4JFF A Y 27;8.12149
4JFF A M 5;4JFF A V 28;8.86386
4JFF A M 5;4JFF A F 33;9.1606
4JFF A M 5;4JFF A G 100;5.73267
4JFF A M 5;4JFF A C 101;14.4503
4JFF A M 5;4JFF A Y 159;4.44672
4JFF A M 5;4JFF A C 164;24.2587
4JFF A M 5;4JFF A W 167;5.66752
4JFF A M 5;4JFF A L 168;20.074
4JFF A M 5;4JFF A Y 171;11.2879
4JFF A M 5;4JFF C E 1;11.2946
4JFF A R 6;4JFF A Y 7;24.2499
4JFF A R 6;4JFF A F 8;24.758
4JFF A R 6;4JFF A V 25;0.517755
4JFF A R 6;4JFF A G 26;4.81676
4JFF A R 6;4JFF A Y 27;23.2072
4JFF A R 6;4JFF A D 29;2.32799
4JFF A R 6;4JFF A F 33;0.647908
4JFF A R 6;4JFF A M 98;21.2646
4JFF A R 6;4JFF A Y 99;4.97065
4JFF A R 6;4JFF A G 100;9.99113
4JFF A R 6;4JFF A C 101;4.77125
4JFF A R 6;4JFF A D 102;14.4906
4JFF A R 6;4JFF A Y 113;23.5367
4JFF A R 6;4JFF B K 58;9.09292
4JFF A Y 7;4JFF A F 8;20.3275
4JFF A Y 7;4JFF A F 9;18.3858
4JFF A Y 7;4JFF A A 24;1.9436
4JFF A Y 7;4JFF A V 25;9.63285
4JFF A Y 7;4JFF A G 26;10.2877
4JFF A Y 7;4JFF A F 33;13.9807
4JFF A Y 7;4JFF A V 34;11.5903
4JFF A Y 7;4JFF A M 45;2.93204
4JFF A Y 7;4JFF A Y 59;1.63808
4JFF A Y 7;4JFF A E 63;3.22034
4JFF A Y 7;4JFF A R 97;0.486556
4JFF A Y 7;4JFF A M 98;10.2608
4JFF A Y 7;4JFF A Y 99;29.099
4JFF A Y 7;4JFF A G 100;1.50417
4JFF A Y 7;4JFF A Y 159;6.7803
4JFF A Y 7;4JFF C E 1;16.3371
4JFF A Y 7;4JFF C L 2;25.7893
4JFF A F 8;4JFF A F 9;23.2765
4JFF A F 8;4JFF A T 10;0.121978
4JFF A F 8;4JFF A I 23;2.41264
4JFF A F 8;4JFF A A 24;6.15151
4JFF A F 8;4JFF A V 25;29.4981
4JFF A F 8;4JFF A G 26;0.0178284
4JFF A F 8;4JFF A Y 27;16.4552
4JFF A F 8;4JFF A R 97;2.90638
4JFF A F 8;4JFF A M 98;19.2478
4JFF A F 8;4JFF B L 54;0.416435
4JFF A F 8;4JFF B S 55;11.7163
4JFF A F 8;4JFF B F 56;38.7173
4JFF A F 8;4JFF B S 57;4.48704
4JFF A F 8;4JFF B K 58;0.185276
4JFF A F 8;4JFF B Y 63;3.28206
4JFF A F 9;4JFF A T 10;20.4537
4JFF A F 9;4JFF A F 22;14.5442
4JFF A F 9;4JFF A I 23;4.47776
4JFF A F 9;4JFF A A 24;14.0556
4JFF A F 9;4JFF A V 25;0.0384431
4JFF A F 9;4JFF A V 67;5.4374
4JFF A F 9;4JFF A H 70;20.0364
4JFF A F 9;4JFF A H 74;12.9892
4JFF A F 9;4JFF A V 95;0.530948
4JFF A F 9;4JFF A Q 96;7.23503
4JFF A F 9;4JFF A R 97;29.6384
4JFF A F 9;4JFF A M 98;1.32533
4JFF A F 9;4JFF A Y 99;13.1594
4JFF A F 9;4JFF B F 56;9.65133
4JFF A F 9;4JFF C L 2;11.7843
4JFF A T 10;4JFF A S 11;20.5922
4JFF A T 10;4JFF A V 12;10.5368
4JFF A T 10;4JFF A R 21;3.01155
4JFF A T 10;4JFF A F 22;10.3895
4JFF A T 10;4JFF A I 23;23.436
4JFF A T 10;4JFF A H 74;1.38795
4JFF A T 10;4JFF A T 94;7.04482
4JFF A T 10;4JFF A V 95;4.95604
4JFF A T 10;4JFF A Q 96;8.11312
4JFF A T 10;4JFF B S 33;1.51486
4JFF A T 10;4JFF B L 54;18.4713
4JFF A T 10;4JFF B S 55;0.561418
4JFF A T 10;4JFF B F 56;11.2042
4JFF A T 10;4JFF B F 62;13.4341
4JFF A S 11;4JFF A V 12;19.4081
4JFF A S 11;4JFF A P 20;6.71004
4JFF A S 11;4JFF A R 21;5.79623
4JFF A S 11;4JFF A F 22;14.9614
4JFF A S 11;4JFF A S 71;0.867215
4JFF A S 11;4JFF A H 74;19.631
4JFF A S 11;4JFF A R 75;0.445642
4JFF A S 11;4JFF A L 78;14.3422
4JFF A S 11;4JFF A H 93;0.871576
4JFF A S 11;4JFF A T 94;6.38325
4JFF A S 11;4JFF A V 95;18.8706
4JFF A V 12;4JFF A S 13;22.0704
4JFF A V 12;4JFF A R 14;9.16355
4JFF A V 12;4JFF A P 20;9.32598
4JFF A V 12;4JFF A R 21;24.7553
4JFF A V 12;4JFF A L 78;1.32752
4JFF A V 12;4JFF A S 92;13.6407
4JFF A V 12;4JFF A H 93;6.83529
4JFF A V 12;4JFF A T 94;18.7051
4JFF A V 12;4JFF B P 32;2.22039
4JFF A V 12;4JFF B S 33;16.5522
4JFF A V 12;4JFF B D 34;12.9243
4JFF A V 12;4JFF B L 54;1.53498
4JFF A V 12;4JFF B F 62;0.11143
4JFF A S 13;4JFF A R 14;21.8888
4JFF A S 13;4JFF A P 15;16.2966
4JFF A S 13;4JFF A R 17;9.07175e-05
4JFF A S 13;4JFF A P 20;12.0086
4JFF A S 13;4JFF A L 78;19.8924
4JFF A S 13;4JFF A R 82;0.604123
4JFF A S 13;4JFF A G 91;2.59132
4JFF A S 13;4JFF A S 92;12.2793
4JFF A S 13;4JFF A H 93;21.1673
4JFF A R 14;4JFF A P 15;24.6095
4JFF A R 14;4JFF A G 16;3.35016
4JFF A R 14;4JFF A R 17;42.4395
4JFF A R 14;4JFF A G 18;21.2642
4JFF A R 14;4JFF A E 19;19.1376
4JFF A R 14;4JFF A P 20;8.75953
4JFF A R 14;4JFF A R 21;26.3473
4JFF A R 14;4JFF A D 39;22.9041
4JFF A R 14;4JFF A S 92;0.57269
4JFF A P 15;4JFF A G 16;28.0677
4JFF A P 15;4JFF A R 17;13.1733
4JFF A P 15;4JFF A G 18;1.46499
4JFF A P 15;4JFF A E 89;19.6634
4JFF A P 15;4JFF A A 90;15.7292
4JFF A P 15;4JFF A G 91;10.7998
4JFF A P 15;4JFF A S 92;8.76457
4JFF A G 16;4JFF A R 17;35.0273
4JFF A G 16;4JFF A G 18;2.87491
4JFF A R 17;4JFF A G 18;30.2135
4JFF A R 17;4JFF A S 92;6.96752
4JFF A R 17;4JFF B D 34;8.18844
4JFF A G 18;4JFF A E 19;33.8609
4JFF A G 18;4JFF A P 20;1.25934
4JFF A E 19;4JFF A P 20;35.1261
4JFF A E 19;4JFF A S 38;12.6752
4JFF A E 19;4JFF A D 39;4.09727
4JFF A E 19;4JFF A R 75;28.1655
4JFF A P 20;4JFF A R 21;18.063
4JFF A P 20;4JFF A F 22;6.92597
4JFF A P 20;4JFF A S 38;8.06023
4JFF A P 20;4JFF A D 39;0.58726
4JFF A P 20;4JFF A S 71;0.0190208
4JFF A P 20;4JFF A R 75;29.7027
4JFF A P 20;4JFF A L 78;13.1944
4JFF A R 21;4JFF A F 22;20.2035
4JFF A R 21;4JFF A I 23;27.1646
4JFF A R 21;4JFF A D 37;19.7718
4JFF A R 21;4JFF A S 38;7.06794
4JFF A R 21;4JFF A D 39;23.5531
4JFF A R 21;4JFF B H 51;1.20544
4JFF A F 22;4JFF A I 23;26.8319
4JFF A F 22;4JFF A A 24;9.75827
4JFF A F 22;4JFF A F 36;17.2855
4JFF A F 22;4JFF A D 37;4.91006
4JFF A F 22;4JFF A S 38;23.0333
4JFF A F 22;4JFF A V 67;13.8897
4JFF A F 22;4JFF A K 68;0.000805501
4JFF A F 22;4JFF A H 70;8.34871
4JFF A F 22;4JFF A S 71;30.0598
4JFF A F 22;4JFF A H 74;8.24507
4JFF A I 23;4JFF A A 24;24.6604
4JFF A I 23;4JFF A V 25;2.13761
4JFF A I 23;4JFF A R 35;2.8103
4JFF A I 23;4JFF A F 36;8.86325
4JFF A I 23;4JFF A D 37;16.346
4JFF A I 23;4JFF B D 53;9.66161
4JFF A I 23;4JFF B L 54;43.4495
4JFF A A 24;4JFF A V 25;25.0979
4JFF A A 24;4JFF A R 35;8.77229
4JFF A A 24;4JFF A F 36;19.6173
4JFF A A 24;4JFF A M 45;4.52094
4JFF A A 24;4JFF A V 67;9.22839
4JFF A A 24;4JFF B D 53;0.166238
4JFF A A 24;4JFF B L 54;0.0384792
4JFF A A 24;4JFF C L 2;0.767823
4JFF A V 25;4JFF A G 26;21.7252
4JFF A V 25;4JFF A Y 27;16.4276
4JFF A V 25;4JFF A Q 32;14.9989
4JFF A V 25;4JFF A V 34;6.80678
4JFF A V 25;4JFF A R 35;5.25154
4JFF A V 25;4JFF B D 53;9.60186
4JFF A V 25;4JFF B L 54;9.90872
4JFF A V 25;4JFF B S 55;10.4778
4JFF A G 26;4JFF A Y 27;18.434
4JFF A G 26;4JFF A Q 32;6.34343
4JFF A G 26;4JFF A F 33;14.1986
4JFF A G 26;4JFF A V 34;17.6959
4JFF A Y 27;4JFF A V 28;17.6873
4JFF A Y 27;4JFF A D 29;14.1552
4JFF A Y 27;4JFF A D 30;12.1765
4JFF A Y 27;4JFF A T 31;10.7012
4JFF A Y 27;4JFF A Q 32;26.211
4JFF A Y 27;4JFF A F 33;10.9229
4JFF A Y 27;4JFF B D 53;3.88839
4JFF A Y 27;4JFF B S 55;12.2432
4JFF A Y 27;4JFF B Y 63;20.0926
4JFF A V 28;4JFF A D 29;27.552
4JFF A V 28;4JFF A D 30;0.960561
4JFF A V 28;4JFF A T 31;18.4858
4JFF A V 28;4JFF A F 33;12.8157
4JFF A V 28;4JFF A W 51;10.7971
4JFF A V 28;4JFF A L 168;12.3094
4JFF A V 28;4JFF A Y 171;12.7368
4JFF A V 28;4JFF A L 172;8.13614
4JFF A V 28;4JFF A L 179;20.7322
4JFF A V 28;4JFF A Y 209;0.739538
4JFF A D 29;4JFF A D 30;31.1916
4JFF A D 29;4JFF A T 31;1.87014
4JFF A D 29;4JFF A L 172;4.00884
4JFF A D 29;4JFF A L 179;11.0853
4JFF A D 29;4JFF A Y 209;12.1521
4JFF A D 29;4JFF A P 210;3.56461
4JFF A D 30;4JFF A T 31;21.9178
4JFF A D 30;4JFF A Q 32;0.940579
4JFF A D 30;4JFF A Y 209;16.3204
4JFF A D 30;4JFF A P 210;10.6337
4JFF A D 30;4JFF A A 211;17.8354
4JFF A D 30;4JFF A E 212;1.47366
4JFF A D 30;4JFF A G 239;1.46107
4JFF A D 30;4JFF A F 241;22.5366
4JFF A T 31;4JFF A Q 32;29.3695
4JFF A T 31;4JFF A F 33;5.25607
4JFF A T 31;4JFF A R 48;0.00609403
4JFF A T 31;4JFF A A 49;7.61321
4JFF A T 31;4JFF A W 51;7.48095
4JFF A T 31;4JFF A T 178;13.8652
4JFF A T 31;4JFF A L 179;12.3829
4JFF A T 31;4JFF A R 181;1.2686
4JFF A T 31;4JFF A Y 209;17.4067
4JFF A T 31;4JFF A G 239;0.0220113
4JFF A Q 32;4JFF A F 33;17.6553
4JFF A Q 32;4JFF A V 34;5.70673
4JFF A Q 32;4JFF A R 35;3.52838
4JFF A Q 32;4JFF A R 48;32.0942
4JFF A Q 32;4JFF A A 49;4.26384
4JFF A Q 32;4JFF B S 52;2.70218
4JFF A Q 32;4JFF B D 53;19.2998
4JFF A F 33;4JFF A V 34;38.2016
4JFF A F 33;4JFF A P 47;2.30681
4JFF A F 33;4JFF A R 48;11.1145
4JFF A F 33;4JFF A A 49;9.66826
4JFF A F 33;4JFF A W 51;18.042
4JFF A F 33;4JFF A I 52;19.4644
4JFF A F 33;4JFF A Y 59;4.95164
4JFF A F 33;4JFF A Y 171;11.5612
4JFF A F 33;4JFF C E 1;1.3624
4JFF A V 34;4JFF A R 35;19.1108
4JFF A V 34;4JFF A M 45;20.2516
4JFF A V 34;4JFF A E 46;7.30888
4JFF A V 34;4JFF A P 47;3.10309
4JFF A V 34;4JFF A R 48;8.11642
4JFF A V 34;4JFF A I 52;7.36409
4JFF A V 34;4JFF A Y 59;5.08758
4JFF A V 34;4JFF A W 60;10.192
4JFF A R 35;4JFF A F 36;24.6472
4JFF A R 35;4JFF A D 37;22.0803
4JFF A R 35;4JFF A A 40;12.2225
4JFF A R 35;4JFF A R 44;1.29691
4JFF A R 35;4JFF A M 45;12.8837
4JFF A R 35;4JFF A E 46;41.7124
4JFF A R 35;4JFF A R 48;27.7508
4JFF A R 35;4JFF B D 53;31.2486
4JFF A F 36;4JFF A D 37;32.6934
4JFF A F 36;4JFF A S 38;13.9886
4JFF A F 36;4JFF A Q 43;19.2923
4JFF A F 36;4JFF A R 44;16.6028
4JFF A F 36;4JFF A M 45;12.8269
4JFF A F 36;4JFF A E 46;1.03418
4JFF A F 36;4JFF A T 64;2.22386
4JFF A F 36;4JFF A V 67;21.8865
4JFF A F 36;4JFF A K 68;17.6613
4JFF A F 36;4JFF A S 71;3.75355
4JFF A D 37;4JFF A S 38;17.232
4JFF A D 37;4JFF A D 39;11.8821
4JFF A D 37;4JFF A A 40;26.0348
4JFF A D 37;4JFF A Q 43;5.27213
4JFF A D 37;4JFF A R 44;0.566504
4JFF A D 37;4JFF A E 46;1.99208
4JFF A S 38;4JFF A D 39;29.3812
4JFF A S 38;4JFF A A 40;1.08074
4JFF A S 38;4JFF A Q 43;18.2763
4JFF A S 38;4JFF A S 71;4.44009
4JFF A D 39;4JFF A A 40;27.5159
4JFF A D 39;4JFF A A 41;2.58771
4JFF A D 39;4JFF A Q 43;0.264039
4JFF A A 40;4JFF A A 41;27.1789
4JFF A A 40;4JFF A S 42;11.1659
4JFF A A 40;4JFF A Q 43;18.7406
4JFF A A 40;4JFF A E 46;5.10324
4JFF A A 41;4JFF A S 42;29.8462
4JFF A A 41;4JFF A Q 43;11.1608
4JFF A S 42;4JFF A Q 43;24.66
4JFF A S 42;4JFF A R 44;29.0628
4JFF A S 42;4JFF A E 46;22.1624
4JFF A Q 43;4JFF A R 44;22.8044
4JFF A Q 43;4JFF A T 64;3.86477
4JFF A Q 43;4JFF A K 68;26.114
4JFF A R 44;4JFF A M 45;25.5213
4JFF A R 44;4JFF A E 46;13.1789
4JFF A R 44;4JFF A P 57;1.53927
4JFF A R 44;4JFF A W 60;15.5731
4JFF A R 44;4JFF A D 61;25.3576
4JFF A R 44;4JFF A T 64;27.0822
4JFF A R 44;4JFF A K 68;0.219669
4JFF A M 45;4JFF A E 46;21.4226
4JFF A M 45;4JFF A P 47;1.87633
4JFF A M 45;4JFF A W 60;25.4818
4JFF A M 45;4JFF A E 63;20.2693
4JFF A M 45;4JFF A T 64;17.647
4JFF A M 45;4JFF A V 67;16.7971
4JFF A M 45;4JFF C L 2;13.5901
4JFF A E 46;4JFF A P 47;32.0096
4JFF A E 46;4JFF A R 48;14.6436
4JFF A E 46;4JFF A W 60;3.99697
4JFF A P 47;4JFF A R 48;30.2491
4JFF A P 47;4JFF A A 49;3.36445
4JFF A P 47;4JFF A I 52;9.0615
4JFF A P 47;4JFF A E 53;25.2463
4JFF A P 47;4JFF A W 60;20.3387
4JFF A R 48;4JFF A A 49;28.1963
4JFF A R 48;4JFF A P 50;0.521792
4JFF A R 48;4JFF A I 52;0.799192
4JFF A R 48;4JFF B S 52;0.346935
4JFF A R 48;4JFF B D 53;13.9607
4JFF A A 49;4JFF A P 50;29.5153
4JFF A A 49;4JFF A W 51;17.6819
4JFF A A 49;4JFF A I 52;15.7429
4JFF A A 49;4JFF A E 53;8.91353
4JFF A A 49;4JFF A T 178;0.811311
4JFF A P 50;4JFF A W 51;29.414
4JFF A P 50;4JFF A I 52;1.95022
4JFF A P 50;4JFF A E 53;27.354
4JFF A P 50;4JFF A Q 54;10.118
4JFF A P 50;4JFF A T 178;10.3737
4JFF A W 51;4JFF A I 52;33.6165
4JFF A W 51;4JFF A E 53;0.759797
4JFF A W 51;4JFF A Q 54;19.7673
4JFF A W 51;4JFF A E 55;2.25123
4JFF A W 51;4JFF A Y 171;22.1725
4JFF A W 51;4JFF A N 174;21.5892
4JFF A W 51;4JFF A G 175;18.6527
4JFF A W 51;4JFF A E 177;0.454591
4JFF A W 51;4JFF A T 178;17.426
4JFF A W 51;4JFF A L 179;20.4825
4JFF A I 52;4JFF A E 53;17.6741
4JFF A I 52;4JFF A Q 54;3.4499
4JFF A I 52;4JFF A E 55;20.6536
4JFF A I 52;4JFF A Y 59;13.5316
4JFF A I 52;4JFF A W 60;17.5336
4JFF A I 52;4JFF A Y 171;11.4957
4JFF A E 53;4JFF A Q 54;26.0347
4JFF A E 53;4JFF A E 55;9.30194
4JFF A E 53;4JFF A W 60;10.0817
4JFF A Q 54;4JFF A E 55;27.2605
4JFF A Q 54;4JFF A G 56;6.06717
4JFF A Q 54;4JFF A N 174;7.16439
4JFF A E 55;4JFF A G 56;28.4652
4JFF A E 55;4JFF A P 57;0.00387947
4JFF A E 55;4JFF A Y 59;27.2328
4JFF A E 55;4JFF A W 60;15.2477
4JFF A E 55;4JFF A W 167;9.6199
4JFF A E 55;4JFF A R 170;25.0762
4JFF A E 55;4JFF A Y 171;8.16209
4JFF A E 55;4JFF A N 174;6.86251
4JFF A G 56;4JFF A P 57;25.8069
4JFF A G 56;4JFF A E 58;17.5193
4JFF A G 56;4JFF A Y 59;9.65979
4JFF A G 56;4JFF A W 60;10.5166
4JFF A P 57;4JFF A E 58;34.033
4JFF A P 57;4JFF A Y 59;0.612582
4JFF A P 57;4JFF A W 60;14.7329
4JFF A P 57;4JFF A D 61;21.4266
4JFF A E 58;4JFF A Y 59;24.7608
4JFF A E 58;4JFF A W 60;0.83677
4JFF A E 58;4JFF A D 61;13.2286
4JFF A E 58;4JFF A G 62;7.10474
4JFF A E 58;4JFF A R 65;2.36533
4JFF A Y 59;4JFF A W 60;35.5846
4JFF A Y 59;4JFF A D 61;0.823064
4JFF A Y 59;4JFF A G 62;5.60701
4JFF A Y 59;4JFF A E 63;35.7116
4JFF A Y 59;4JFF A W 167;16.378
4JFF A Y 59;4JFF A Y 171;12.7059
4JFF A Y 59;4JFF C E 1;12.8664
4JFF A W 60;4JFF A D 61;15.3137
4JFF A W 60;4JFF A G 62;0.695184
4JFF A W 60;4JFF A E 63;11.2402
4JFF A W 60;4JFF A T 64;11.9023
4JFF A D 61;4JFF A G 62;16.0738
4JFF A D 61;4JFF A E 63;0.621649
4JFF A D 61;4JFF A T 64;9.47359
4JFF A D 61;4JFF A R 65;30.006
4JFF A G 62;4JFF A E 63;17.1855
4JFF A G 62;4JFF A T 64;1.13366
4JFF A G 62;4JFF A R 65;17.3139
4JFF A G 62;4JFF A K 66;15.3219
4JFF A E 63;4JFF A T 64;15.7721
4JFF A E 63;4JFF A R 65;0.615754
4JFF A E 63;4JFF A K 66;20.6087
4JFF A E 63;4JFF A V 67;7.57329
4JFF A E 63;4JFF C E 1;13.5393
4JFF A E 63;4JFF C L 2;21.9301
4JFF A T 64;4JFF A R 65;21.4077
4JFF A T 64;4JFF A K 66;0.77612
4JFF A T 64;4JFF A V 67;11.7041
4JFF A T 64;4JFF A K 68;25.3464
4JFF A R 65;4JFF A K 66;18.1514
4JFF A R 65;4JFF A V 67;0.791032
4JFF A R 65;4JFF A K 68;6.73398
4JFF A R 65;4JFF A A 69;9.03923
4JFF A K 66;4JFF A V 67;15.0946
4JFF A K 66;4JFF A K 68;0.856062
4JFF A K 66;4JFF A A 69;8.56325
4JFF A K 66;4JFF A H 70;13.7616
4JFF A K 66;4JFF C E 1;9.92793
4JFF A K 66;4JFF C L 2;24.009
4JFF A K 66;4JFF C A 3;5.18882
4JFF A K 66;4JFF C G 4;10.6412
4JFF A V 67;4JFF A K 68;21.0648
4JFF A V 67;4JFF A A 69;0.619959
4JFF A V 67;4JFF A H 70;12.784
4JFF A V 67;4JFF A S 71;5.8844
4JFF A V 67;4JFF C L 2;12.4865
4JFF A K 68;4JFF A A 69;16.1752
4JFF A K 68;4JFF A H 70;0.901948
4JFF A K 68;4JFF A S 71;14.3163
4JFF A K 68;4JFF A Q 72;13.5238
4JFF A A 69;4JFF A H 70;17.0222
4JFF A A 69;4JFF A S 71;1.17296
4JFF A A 69;4JFF A Q 72;9.04468
4JFF A A 69;4JFF A T 73;13.8797
4JFF A A 69;4JFF C I 7;0.0022523
4JFF A H 70;4JFF A S 71;15.8064
4JFF A H 70;4JFF A Q 72;0.654009
4JFF A H 70;4JFF A T 73;13.4473
4JFF A H 70;4JFF A H 74;15.6209
4JFF A H 70;4JFF A R 97;6.19468
4JFF A H 70;4JFF A Y 99;11.0865
4JFF A H 70;4JFF C L 2;9.54382
4JFF A H 70;4JFF C A 3;6.04178
4JFF A H 70;4JFF C I 7;22.1416
4JFF A S 71;4JFF A Q 72;21.3051
4JFF A S 71;4JFF A T 73;1.01681
4JFF A S 71;4JFF A H 74;9.66174
4JFF A S 71;4JFF A R 75;14.6558
4JFF A Q 72;4JFF A T 73;19.3855
4JFF A Q 72;4JFF A H 74;0.515925
4JFF A Q 72;4JFF A R 75;13.0192
4JFF A Q 72;4JFF A V 76;8.58337
4JFF A T 73;4JFF A H 74;21.532
4JFF A T 73;4JFF A R 75;1.35327
4JFF A T 73;4JFF A V 76;9.40196
4JFF A T 73;4JFF A D 77;13.3275
4JFF A T 73;4JFF A R 97;5.65187
4JFF A T 73;4JFF C I 7;11.3834
4JFF A T 73;4JFF C L 8;5.1497
4JFF A T 73;4JFF C T 9;11.6153
4JFF A H 74;4JFF A R 75;16.9739
4JFF A H 74;4JFF A V 76;0.505553
4JFF A H 74;4JFF A D 77;15.578
4JFF A H 74;4JFF A L 78;13.8311
4JFF A H 74;4JFF A V 95;20.5021
4JFF A H 74;4JFF A Q 96;1.69088
4JFF A H 74;4JFF A R 97;24.4742
4JFF A H 74;4JFF A Y 116;4.68089
4JFF A H 74;4JFF C I 7;0.0686581
4JFF A R 75;4JFF A V 76;18.4651
4JFF A R 75;4JFF A D 77;0.782638
4JFF A R 75;4JFF A L 78;13.8915
4JFF A R 75;4JFF A G 79;7.86278
4JFF A V 76;4JFF A D 77;15.0319
4JFF A V 76;4JFF A L 78;1.02802
4JFF A V 76;4JFF A G 79;7.79826
4JFF A V 76;4JFF A T 80;18.3421
4JFF A V 76;4JFF C T 9;18.5342
4JFF A D 77;4JFF A L 78;16.4555
4JFF A D 77;4JFF A G 79;1.20446
4JFF A D 77;4JFF A T 80;9.0283
4JFF A D 77;4JFF A L 81;15.3164
4JFF A D 77;4JFF A V 95;4.09692
4JFF A D 77;4JFF A R 97;4.71945
4JFF A D 77;4JFF A Y 116;14.6444
4JFF A D 77;4JFF C L 8;1.74517
4JFF A D 77;4JFF C T 9;15.6732
4JFF A D 77;4JFF C V 10;19.2873
4JFF A L 78;4JFF A G 79;20.2662
4JFF A L 78;4JFF A T 80;0.614815
4JFF A L 78;4JFF A L 81;7.78081
4JFF A L 78;4JFF A R 82;15.5904
4JFF A L 78;4JFF A H 93;13.6363
4JFF A L 78;4JFF A T 94;3.68781
4JFF A L 78;4JFF A V 95;18.0087
4JFF A L 78;4JFF A Y 118;9.37768
4JFF A G 79;4JFF A T 80;22.2641
4JFF A G 79;4JFF A L 81;0.593142
4JFF A G 79;4JFF A R 82;25.3346
4JFF A G 79;4JFF A G 83;7.69468
4JFF A T 80;4JFF A L 81;17.0693
4JFF A T 80;4JFF A R 82;1.25077
4JFF A T 80;4JFF A G 83;8.31868
4JFF A T 80;4JFF A Y 84;32.2839
4JFF A T 80;4JFF C T 9;5.71622
4JFF A T 80;4JFF C V 10;17.1364
4JFF A L 81;4JFF A R 82;17.279
4JFF A L 81;4JFF A G 83;0.939682
4JFF A L 81;4JFF A Y 84;16.9596
4JFF A L 81;4JFF A Y 85;19.6674
4JFF A L 81;4JFF A Q 87;1.98579
4JFF A L 81;4JFF A V 95;8.66822
4JFF A L 81;4JFF A Y 116;8.55072
4JFF A L 81;4JFF A Y 118;28.7015
4JFF A L 81;4JFF A Y 123;16.6508
4JFF A L 81;4JFF A A 139;0.0629649
4JFF A L 81;4JFF C V 10;13.6717
4JFF A R 82;4JFF A G 83;23.1571
4JFF A R 82;4JFF A Y 84;0.520087
4JFF A R 82;4JFF A Y 85;3.36708
4JFF A R 82;4JFF A N 86;5.72323
4JFF A R 82;4JFF A Q 87;37.1806
4JFF A R 82;4JFF A S 88;12.0105
4JFF A R 82;4JFF A E 89;42.9459
4JFF A R 82;4JFF A G 91;1.60275
4JFF A R 82;4JFF A H 93;12.8734
4JFF A R 82;4JFF A Y 118;6.04596
4JFF A G 83;4JFF A Y 84;24.0043
4JFF A G 83;4JFF A Y 85;0.815376
4JFF A G 83;4JFF A N 86;13.7666
4JFF A G 83;4JFF A Q 87;0.167823
4JFF A Y 84;4JFF A Y 85;25.4727
4JFF A Y 84;4JFF A N 86;6.46716
4JFF A Y 84;4JFF A Y 123;6.97049
4JFF A Y 84;4JFF A A 139;25.1461
4JFF A Y 84;4JFF A T 142;27.5799
4JFF A Y 84;4JFF A T 143;4.15086
4JFF A Y 84;4JFF A K 146;3.05008
4JFF A Y 84;4JFF C V 10;14.3238
4JFF A Y 85;4JFF A N 86;23.1807
4JFF A Y 85;4JFF A Q 87;25.0091
4JFF A Y 85;4JFF A Y 118;20.94
4JFF A Y 85;4JFF A Y 123;16.9109
4JFF A Y 85;4JFF A D 137;23.6125
4JFF A Y 85;4JFF A A 139;15.0686
4JFF A N 86;4JFF A Q 87;25.6111
4JFF A N 86;4JFF A S 88;0.750119
4JFF A Q 87;4JFF A S 88;34.5603
4JFF A Q 87;4JFF A H 93;22.7571
4JFF A Q 87;4JFF A Y 118;15.5391
4JFF A Q 87;4JFF A D 119;5.79857
4JFF A S 88;4JFF A E 89;24.1534
4JFF A S 88;4JFF A A 90;18.5399
4JFF A S 88;4JFF A G 91;7.83044
4JFF A S 88;4JFF A H 93;6.46782
4JFF A E 89;4JFF A A 90;25.0537
4JFF A E 89;4JFF A G 91;2.88679
4JFF A A 90;4JFF A G 91;30.0174
4JFF A A 90;4JFF A S 92;0.154678
4JFF A G 91;4JFF A S 92;25.6264
4JFF A G 91;4JFF A H 93;19.116
4JFF A S 92;4JFF A H 93;31.4588
4JFF A S 92;4JFF A T 94;0.441607
4JFF A S 92;4JFF A D 119;0.0134817
4JFF A S 92;4JFF B M 0;10.905
4JFF A S 92;4JFF B D 34;5.55294
4JFF A H 93;4JFF A T 94;22.3563
4JFF A H 93;4JFF A Y 118;14.3282
4JFF A H 93;4JFF A D 119;18.8093
4JFF A H 93;4JFF B M 0;5.28856
4JFF A T 94;4JFF A V 95;23.8186
4JFF A T 94;4JFF A Q 96;11.4582
4JFF A T 94;4JFF A A 117;1.16676
4JFF A T 94;4JFF A Y 118;10.1151
4JFF A T 94;4JFF A D 119;20.8083
4JFF A T 94;4JFF A G 120;0.949115
4JFF A T 94;4JFF B M 0;0.0469725
4JFF A T 94;4JFF B H 31;12.3885
4JFF A T 94;4JFF B P 32;9.19632
4JFF A T 94;4JFF B S 33;2.43949
4JFF A T 94;4JFF B F 62;6.87606
4JFF A V 95;4JFF A Q 96;24.7763
4JFF A V 95;4JFF A R 97;0.0391438
4JFF A V 95;4JFF A Y 116;19.3187
4JFF A V 95;4JFF A A 117;5.9243
4JFF A V 95;4JFF A Y 118;8.40012
4JFF A Q 96;4JFF A R 97;18.3809
4JFF A Q 96;4JFF A Y 116;8.65727
4JFF A Q 96;4JFF A A 117;23.9424
4JFF A Q 96;4JFF A D 119;0.019214
4JFF A Q 96;4JFF A G 120;6.61107
4JFF A Q 96;4JFF B H 31;9.25024
4JFF A Q 96;4JFF B F 56;17.0218
4JFF A Q 96;4JFF B W 60;27.7434
4JFF A Q 96;4JFF B F 62;11.195
4JFF A R 97;4JFF A M 98;22.841
4JFF A R 97;4JFF A Y 99;11.8398
4JFF A R 97;4JFF A H 114;20.7535
4JFF A R 97;4JFF A Q 115;8.72881
4JFF A R 97;4JFF A Y 116;24.864
4JFF A R 97;4JFF A W 147;8.27836
4JFF A R 97;4JFF B F 56;7.03576
4JFF A R 97;4JFF B W 60;4.59449
4JFF A R 97;4JFF C G 6;1.66688
4JFF A R 97;4JFF C I 7;23.0655
4JFF A R 97;4JFF C L 8;11.1578
4JFF A R 97;4JFF C V 10;0.0536601
4JFF A M 98;4JFF A Y 99;28.9906
4JFF A M 98;4JFF A G 100;0.897506
4JFF A M 98;4JFF A Y 113;16.246
4JFF A M 98;4JFF A H 114;4.79418
4JFF A M 98;4JFF A Q 115;35.2147
4JFF A M 98;4JFF B F 56;8.95313
4JFF A M 98;4JFF B K 58;7.76952
4JFF A M 98;4JFF B W 60;8.93318
4JFF A Y 99;4JFF A G 100;21.5157
4JFF A Y 99;4JFF A Y 113;8.81906
4JFF A Y 99;4JFF A H 114;18.3392
4JFF A Y 99;4JFF A L 156;3.3997
4JFF A Y 99;4JFF A Y 159;16.6553
4JFF A Y 99;4JFF A L 160;7.36547
4JFF A Y 99;4JFF C L 2;8.0447
4JFF A Y 99;4JFF C A 3;17.1795
4JFF A Y 99;4JFF C I 7;8.34877
4JFF A G 100;4JFF A C 101;17.2401
4JFF A G 100;4JFF A G 112;5.20311
4JFF A G 100;4JFF A Y 113;17.7471
4JFF A G 100;4JFF A Y 159;1.3835
4JFF A G 100;4JFF A L 160;12.3627
4JFF A G 100;4JFF A C 164;7.7755
4JFF A C 101;4JFF A D 102;23.094
4JFF A C 101;4JFF A V 103;1.7803
4JFF A C 101;4JFF A F 109;2.97757
4JFF A C 101;4JFF A R 111;3.4183
4JFF A C 101;4JFF A G 112;2.08215
4JFF A C 101;4JFF A Y 113;2.09852
4JFF A C 101;4JFF A L 160;7.9252
4JFF A C 101;4JFF A C 164;20.5218
4JFF A C 101;4JFF A V 165;12.8995
4JFF A C 101;4JFF A L 168;10.2523
4JFF A D 102;4JFF A V 103;22.2901
4JFF A D 102;4JFF A F 109;5.77353
4JFF A D 102;4JFF A L 110;19.5355
4JFF A D 102;4JFF A R 111;25.1368
4JFF A D 102;4JFF A Y 113;16.6134
4JFF A D 102;4JFF A V 165;0.968509
4JFF A D 102;4JFF A L 168;0.744697
4JFF A V 103;4JFF A G 104;19.6866
4JFF A V 103;4JFF A W 107;21.5717
4JFF A V 103;4JFF A R 108;8.1807
4JFF A V 103;4JFF A F 109;5.49711
4JFF A V 103;4JFF A L 110;9.02033
4JFF A V 103;4JFF A V 165;14.3957
4JFF A V 103;4JFF A L 168;18.8886
4JFF A V 103;4JFF A R 169;3.24279
4JFF A V 103;4JFF A L 172;5.11712
4JFF A G 104;4JFF A S 105;19.7837
4JFF A G 104;4JFF A D 106;10.7117
4JFF A G 104;4JFF A W 107;11.3304
4JFF A G 104;4JFF A R 108;6.33087
4JFF A G 104;4JFF A L 110;17.496
4JFF A S 105;4JFF A D 106;29.6873
4JFF A S 105;4JFF A W 107;12.8818
4JFF A D 106;4JFF A W 107;26.6585
4JFF A D 106;4JFF A R 108;39.6421
4JFF A D 106;4JFF A L 110;1.02102
4JFF A W 107;4JFF A R 108;17.0036
4JFF A W 107;4JFF A F 109;0.319395
4JFF A W 107;4JFF A V 165;0.754838
4JFF A W 107;4JFF A R 169;42.7866
4JFF A W 107;4JFF A L 172;24.672
4JFF A W 107;4JFF A E 173;18.9627
4JFF A W 107;4JFF A Q 180;21.8501
4JFF A R 108;4JFF A F 109;28.859
4JFF A R 108;4JFF A L 110;5.75341
4JFF A R 108;4JFF A R 169;14.7113
4JFF A F 109;4JFF A L 110;33.9054
4JFF A F 109;4JFF A R 111;18.2587
4JFF A F 109;4JFF A G 112;9.69021
4JFF A F 109;4JFF A L 130;14.8086
4JFF A F 109;4JFF A L 160;10.0342
4JFF A F 109;4JFF A E 161;32.0904
4JFF A F 109;4JFF A V 165;18.6278
4JFF A F 109;4JFF A R 169;4.72903
4JFF A L 110;4JFF A R 111;29.5802
4JFF A L 110;4JFF A E 128;0.726205
4JFF A R 111;4JFF A G 112;32.6261
4JFF A R 111;4JFF A Y 113;43.3104
4JFF A R 111;4JFF A Q 115;2.5623
4JFF A R 111;4JFF A L 126;4.7373
4JFF A R 111;4JFF A K 127;0.861728
4JFF A R 111;4JFF A E 128;48.9652
4JFF A G 112;4JFF A Y 113;22.7673
4JFF A G 112;4JFF A L 126;0.61283
4JFF A G 112;4JFF A K 127;0.43158
4JFF A G 112;4JFF A E 128;3.83722
4JFF A G 112;4JFF A L 130;18.3021
4JFF A G 112;4JFF A L 160;9.50702
4JFF A Y 113;4JFF A H 114;22.7092
4JFF A Y 113;4JFF A Q 115;16.7845
4JFF A Y 113;4JFF A L 126;3.94437
4JFF A Y 113;4JFF A L 130;1.94976
4JFF A Y 113;4JFF A L 160;13.6128
4JFF A Y 113;4JFF B K 58;15.1101
4JFF A H 114;4JFF A Q 115;29.367
4JFF A H 114;4JFF A Y 116;5.39991
4JFF A H 114;4JFF A I 124;1.27348
4JFF A H 114;4JFF A A 125;3.40225
4JFF A H 114;4JFF A L 126;27.139
4JFF A H 114;4JFF A W 133;9.28877
4JFF A H 114;4JFF A W 147;10.9925
4JFF A H 114;4JFF A V 152;0.386329
4JFF A H 114;4JFF A L 156;24.0114
4JFF A H 114;4JFF A L 160;5.76628
4JFF A H 114;4JFF C G 6;2.52982
4JFF A H 114;4JFF C I 7;5.69401
4JFF A Q 115;4JFF A Y 116;20.1699
4JFF A Q 115;4JFF A D 122;2.78801
4JFF A Q 115;4JFF A I 124;2.29129
4JFF A Q 115;4JFF A A 125;20.9258
4JFF A Q 115;4JFF A L 126;4.66884
4JFF A Q 115;4JFF B K 58;10.1266
4JFF A Q 115;4JFF B W 60;23.8011
4JFF A Y 116;4JFF A A 117;23.9251
4JFF A Y 116;4JFF A Y 118;2.59228
4JFF A Y 116;4JFF A D 122;4.12837
4JFF A Y 116;4JFF A Y 123;21.2522
4JFF A Y 116;4JFF A I 124;28.7832
4JFF A Y 116;4JFF A A 125;0.615509
4JFF A Y 116;4JFF A W 147;8.58939
4JFF A Y 116;4JFF B W 60;10.4982
4JFF A Y 116;4JFF C V 10;16.9034
4JFF A A 117;4JFF A Y 118;19.5848
4JFF A A 117;4JFF A D 119;0.00149245
4JFF A A 117;4JFF A G 120;5.04458
4JFF A A 117;4JFF A K 121;9.0276
4JFF A A 117;4JFF A D 122;2.99531
4JFF A A 117;4JFF A Y 123;5.42925
4JFF A A 117;4JFF B W 60;21.0846
4JFF A Y 118;4JFF A D 119;39.3956
4JFF A Y 118;4JFF A G 120;3.68618
4JFF A Y 118;4JFF A K 121;20.5616
4JFF A Y 118;4JFF A Y 123;16.3546
4JFF A Y 118;4JFF B M 0;0.829854
4JFF A D 119;4JFF A G 120;17.0942
4JFF A D 119;4JFF A K 121;5.4812
4JFF A D 119;4JFF B M 0;42.6143
4JFF A D 119;4JFF B I 1;9.37932
4JFF A D 119;4JFF B H 31;5.68671
4JFF A G 120;4JFF A K 121;21.4498
4JFF A G 120;4JFF B I 1;15.0818
4JFF A G 120;4JFF B R 3;5.74351
4JFF A G 120;4JFF B H 31;17.5622
4JFF A G 120;4JFF B D 59;3.80745
4JFF A G 120;4JFF B W 60;15.1769
4JFF A K 121;4JFF A D 122;32.5166
4JFF A K 121;4JFF A Y 123;2.36691
4JFF A K 121;4JFF B M 0;23.2694
4JFF A K 121;4JFF B I 1;24.8567
4JFF A K 121;4JFF B W 60;3.11286
4JFF A D 122;4JFF A Y 123;21.9995
4JFF A D 122;4JFF A I 124;2.21455
4JFF A D 122;4JFF A A 125;7.18107
4JFF A D 122;4JFF A A 136;22.1429
4JFF A D 122;4JFF B K 58;0.0103731
4JFF A D 122;4JFF B W 60;24.7606
4JFF A Y 123;4JFF A I 124;33.1756
4JFF A Y 123;4JFF A T 134;0.0589939
4JFF A Y 123;4JFF A A 135;1.79739
4JFF A Y 123;4JFF A A 136;13.6636
4JFF A Y 123;4JFF A D 137;2.33641
4JFF A Y 123;4JFF A A 139;10.9112
4JFF A Y 123;4JFF A A 140;24.242
4JFF A Y 123;4JFF A T 143;15.1753
4JFF A Y 123;4JFF C V 10;10.6414
4JFF A I 124;4JFF A A 125;25.4925
4JFF A I 124;4JFF A W 133;20.4342
4JFF A I 124;4JFF A T 134;10.5645
4JFF A I 124;4JFF A A 135;8.08691
4JFF A I 124;4JFF A A 136;0.0310998
4JFF A I 124;4JFF A A 140;7.23947
4JFF A I 124;4JFF A T 143;11.9582
4JFF A I 124;4JFF A K 144;12.6188
4JFF A I 124;4JFF A W 147;19.8869
4JFF A I 124;4JFF C V 10;1.16206
4JFF A A 125;4JFF A L 126;24.2403
4JFF A A 125;4JFF A K 127;2.64213
4JFF A A 125;4JFF A S 132;0.0790269
4JFF A A 125;4JFF A W 133;11.1786
4JFF A A 125;4JFF A T 134;27.7475
4JFF A L 126;4JFF A K 127;30.2689
4JFF A L 126;4JFF A E 128;0.27537
4JFF A L 126;4JFF A L 130;23.363
4JFF A L 126;4JFF A R 131;4.44761
4JFF A L 126;4JFF A S 132;9.71675
4JFF A L 126;4JFF A W 133;23.7306
4JFF A L 126;4JFF A T 134;0.0557864
4JFF A L 126;4JFF A A 153;13.2197
4JFF A L 126;4JFF A L 156;13.0822
4JFF A L 126;4JFF A R 157;0.939253
4JFF A L 126;4JFF A L 160;7.52638
4JFF A K 127;4JFF A E 128;26.5485
4JFF A K 127;4JFF A D 129;17.1802
4JFF A K 127;4JFF A L 130;12.0572
4JFF A K 127;4JFF A R 131;0.159372
4JFF A K 127;4JFF A S 132;29.3928
4JFF A K 127;4JFF A W 133;11.1107
4JFF A K 127;4JFF A T 134;31.0509
4JFF A E 128;4JFF A D 129;25.6957
4JFF A E 128;4JFF A L 130;14.5632
4JFF A D 129;4JFF A L 130;24.638
4JFF A D 129;4JFF A R 131;21.6013
4JFF A D 129;4JFF A S 132;20.6192
4JFF A D 129;4JFF A R 157;1.53608
4JFF A L 130;4JFF A R 131;20.9834
4JFF A L 130;4JFF A A 153;9.67138
4JFF A L 130;4JFF A E 154;0.610525
4JFF A L 130;4JFF A R 157;33.1204
4JFF A L 130;4JFF A L 160;15.2914
4JFF A L 130;4JFF A E 161;8.67403
4JFF A R 131;4JFF A S 132;28.0236
4JFF A R 131;4JFF A W 133;5.72725
4JFF A R 131;4JFF A E 148;0.553692
4JFF A R 131;4JFF A A 153;15.7876
4JFF A R 131;4JFF A E 154;29.2688
4JFF A S 132;4JFF A W 133;27.5579
4JFF A S 132;4JFF A E 148;1.29372
4JFF A W 133;4JFF A T 134;18.9894
4JFF A W 133;4JFF A A 135;4.34847
4JFF A W 133;4JFF A K 144;30.1551
4JFF A W 133;4JFF A W 147;29.4708
4JFF A W 133;4JFF A E 148;20.7878
4JFF A W 133;4JFF A V 152;10.5651
4JFF A W 133;4JFF A A 153;17.8013
4JFF A W 133;4JFF A L 156;8.50805
4JFF A T 134;4JFF A A 135;25.7175
4JFF A T 134;4JFF A A 136;8.51314
4JFF A A 135;4JFF A A 136;23.9756
4JFF A A 135;4JFF A D 137;6.25598
4JFF A A 135;4JFF A A 140;12.6531
4JFF A A 135;4JFF A Q 141;20.4703
4JFF A A 135;4JFF A K 144;13.5815
4JFF A A 136;4JFF A D 137;33.7641
4JFF A A 136;4JFF A A 140;3.59497
4JFF A D 137;4JFF A M 138;28.2157
4JFF A D 137;4JFF A A 139;8.94139
4JFF A D 137;4JFF A A 140;16.9155
4JFF A D 137;4JFF A Q 141;11.3474
4JFF A M 138;4JFF A A 139;24.7928
4JFF A M 138;4JFF A A 140;0.865891
4JFF A M 138;4JFF A Q 141;30.9761
4JFF A M 138;4JFF A T 142;8.87112
4JFF A A 139;4JFF A A 140;14.6316
4JFF A A 139;4JFF A Q 141;1.59274
4JFF A A 139;4JFF A T 142;13.4954
4JFF A A 139;4JFF A T 143;4.19875
4JFF A A 140;4JFF A Q 141;14.1797
4JFF A A 140;4JFF A T 142;0.783206
4JFF A A 140;4JFF A T 143;9.24069
4JFF A A 140;4JFF A K 144;7.31305
4JFF A Q 141;4JFF A T 142;19.0612
4JFF A Q 141;4JFF A T 143;0.964615
4JFF A Q 141;4JFF A K 144;28.446
4JFF A Q 141;4JFF A H 145;29.4892
4JFF A T 142;4JFF A T 143;18.588
4JFF A T 142;4JFF A K 144;0.644997
4JFF A T 142;4JFF A H 145;13.971
4JFF A T 142;4JFF A K 146;14.7918
4JFF A T 142;4JFF C V 10;0.336933
4JFF A T 143;4JFF A K 144;15.9148
4JFF A T 143;4JFF A H 145;0.972898
4JFF A T 143;4JFF A K 146;12.4122
4JFF A T 143;4JFF A W 147;23.0314
4JFF A T 143;4JFF C V 10;24.3202
4JFF A K 144;4JFF A H 145;24.6631
4JFF A K 144;4JFF A K 146;0.735174
4JFF A K 144;4JFF A W 147;8.07587
4JFF A K 144;4JFF A E 148;38.0354
4JFF A H 145;4JFF A K 146;20.243
4JFF A H 145;4JFF A W 147;0.729258
4JFF A H 145;4JFF A E 148;21.9548
4JFF A H 145;4JFF A A 149;12.6945
4JFF A K 146;4JFF A W 147;28.1406
4JFF A K 146;4JFF A E 148;1.22123
4JFF A K 146;4JFF A A 149;12.7231
4JFF A K 146;4JFF A A 150;12.2195
4JFF A K 146;4JFF C L 8;9.73282
4JFF A K 146;4JFF C T 9;20.0713
4JFF A K 146;4JFF C V 10;18.2722
4JFF A W 147;4JFF A E 148;18.8324
4JFF A W 147;4JFF A A 149;0.460534
4JFF A W 147;4JFF A A 150;4.82547
4JFF A W 147;4JFF A H 151;5.38274
4JFF A W 147;4JFF A V 152;35.6387
4JFF A W 147;4JFF A A 153;0.822126
4JFF A W 147;4JFF A L 156;0.000305482
4JFF A W 147;4JFF C G 6;0.536569
4JFF A W 147;4JFF C L 8;23.0946
4JFF A W 147;4JFF C T 9;7.55301
4JFF A W 147;4JFF C V 10;12.1772
4JFF A E 148;4JFF A A 149;22.9046
4JFF A E 148;4JFF A A 150;1.61352
4JFF A E 148;4JFF A H 151;19.806
4JFF A A 149;4JFF A A 150;22.3876
4JFF A A 149;4JFF A H 151;13.572
4JFF A A 150;4JFF A H 151;27.6829
4JFF A A 150;4JFF A V 152;8.99831
4JFF A A 150;4JFF A Q 155;13.0242
4JFF A A 150;4JFF C L 8;14.4424
4JFF A H 151;4JFF A V 152;16.3784
4JFF A H 151;4JFF A A 153;1.80103
4JFF A H 151;4JFF A E 154;34.7256
4JFF A H 151;4JFF A Q 155;11.9841
4JFF A V 152;4JFF A A 153;18.5311
4JFF A V 152;4JFF A E 154;0.883445
4JFF A V 152;4JFF A Q 155;14.1537
4JFF A V 152;4JFF A L 156;17.092
4JFF A V 152;4JFF C G 6;17.8487
4JFF A V 152;4JFF C L 8;16.8825
4JFF A A 153;4JFF A E 154;28.2057
4JFF A A 153;4JFF A Q 155;0.900686
4JFF A A 153;4JFF A L 156;9.95842
4JFF A A 153;4JFF A R 157;9.85341
4JFF A E 154;4JFF A Q 155;15.9055
4JFF A E 154;4JFF A L 156;0.570183
4JFF A E 154;4JFF A R 157;16.4383
4JFF A E 154;4JFF A A 158;7.6861
4JFF A Q 155;4JFF A L 156;16.5335
4JFF A Q 155;4JFF A R 157;1.04877
4JFF A Q 155;4JFF A A 158;7.22664
4JFF A Q 155;4JFF A Y 159;6.31634
4JFF A Q 155;4JFF C I 5;23.5415
4JFF A Q 155;4JFF C G 6;18.287
4JFF A Q 155;4JFF C L 8;6.26855
4JFF A L 156;4JFF A R 157;18.1699
4JFF A L 156;4JFF A A 158;0.938011
4JFF A L 156;4JFF A Y 159;16.0102
4JFF A L 156;4JFF A L 160;24.7858
4JFF A L 156;4JFF C A 3;4.72337
4JFF A L 156;4JFF C I 5;5.11242
4JFF A L 156;4JFF C G 6;15.209
4JFF A L 156;4JFF C I 7;6.20926
4JFF A R 157;4JFF A A 158;32.1081
4JFF A R 157;4JFF A Y 159;0.623293
4JFF A R 157;4JFF A L 160;3.91616
4JFF A R 157;4JFF A E 161;38.6662
4JFF A R 157;4JFF A G 162;2.18999
4JFF A A 158;4JFF A Y 159;19.0981
4JFF A A 158;4JFF A L 160;0.443462
4JFF A A 158;4JFF A E 161;0.637597
4JFF A A 158;4JFF A G 162;11.5376
4JFF A A 158;4JFF A T 163;7.17098
4JFF A A 158;4JFF C I 5;7.70587
4JFF A Y 159;4JFF A L 160;31.235
4JFF A Y 159;4JFF A E 161;1.02804
4JFF A Y 159;4JFF A G 162;3.0549
4JFF A Y 159;4JFF A T 163;22.6104
4JFF A Y 159;4JFF A C 164;27.9577
4JFF A Y 159;4JFF C E 1;13.1387
4JFF A Y 159;4JFF C L 2;4.965
4JFF A Y 159;4JFF C A 3;21.2259
4JFF A Y 159;4JFF C G 4;0.0137504
4JFF A Y 159;4JFF C I 5;13.1917
4JFF A L 160;4JFF A E 161;17.9789
4JFF A L 160;4JFF A G 162;1.12484
4JFF A L 160;4JFF A C 164;10.4939
4JFF A L 160;4JFF A V 165;5.4884
4JFF A E 161;4JFF A G 162;23.9441
4JFF A E 161;4JFF A V 165;14.5337
4JFF A G 162;4JFF A T 163;17.0555
4JFF A G 162;4JFF A C 164;2.03492
4JFF A G 162;4JFF A V 165;11.3567
4JFF A G 162;4JFF A E 166;20.8621
4JFF A T 163;4JFF A C 164;18.1432
4JFF A T 163;4JFF A V 165;0.890926
4JFF A T 163;4JFF A E 166;17.3815
4JFF A T 163;4JFF A W 167;23.6871
4JFF A T 163;4JFF C E 1;10.3231
4JFF A T 163;4JFF C I 5;0.38699
4JFF A C 164;4JFF A V 165;15.2847
4JFF A C 164;4JFF A E 166;0.30695
4JFF A C 164;4JFF A W 167;4.09024
4JFF A C 164;4JFF A L 168;9.19546
4JFF A C 164;4JFF C E 1;1.48323
4JFF A V 165;4JFF A E 166;21.7186
4JFF A V 165;4JFF A W 167;1.14253
4JFF A V 165;4JFF A L 168;11.7428
4JFF A V 165;4JFF A R 169;31.9275
4JFF A E 166;4JFF A W 167;26.9916
4JFF A E 166;4JFF A L 168;0.448682
4JFF A E 166;4JFF A R 169;23.6275
4JFF A E 166;4JFF A R 170;11.6497
4JFF A W 167;4JFF A L 168;16.5554
4JFF A W 167;4JFF A R 169;1.03359
4JFF A W 167;4JFF A R 170;28.9005
4JFF A W 167;4JFF A Y 171;31.0941
4JFF A W 167;4JFF C E 1;29.5785
4JFF A L 168;4JFF A R 169;18.3672
4JFF A L 168;4JFF A R 170;0.61579
4JFF A L 168;4JFF A Y 171;10.5628
4JFF A L 168;4JFF A L 172;24.1829
4JFF A R 169;4JFF A R 170;17.1133
4JFF A R 169;4JFF A Y 171;0.697932
4JFF A R 169;4JFF A L 172;12.1129
4JFF A R 169;4JFF A E 173;20.5293
4JFF A R 170;4JFF A Y 171;23.2293
4JFF A R 170;4JFF A L 172;0.89304
4JFF A R 170;4JFF A E 173;16.3321
4JFF A R 170;4JFF A N 174;31.4978
4JFF A Y 171;4JFF A L 172;16.6228
4JFF A Y 171;4JFF A E 173;1.56848
4JFF A Y 171;4JFF A N 174;10.2439
4JFF A Y 171;4JFF A G 175;7.87737
4JFF A Y 171;4JFF A L 179;10.016
4JFF A Y 171;4JFF C E 1;12.8493
4JFF A L 172;4JFF A E 173;16.808
4JFF A L 172;4JFF A N 174;0.0539208
4JFF A L 172;4JFF A G 175;2.54116
4JFF A L 172;4JFF A K 176;8.39028
4JFF A L 172;4JFF A L 179;20.4996
4JFF A L 172;4JFF A Q 180;18.1554
4JFF A E 173;4JFF A N 174;29.9497
4JFF A E 173;4JFF A G 175;1.51489
4JFF A E 173;4JFF A K 176;18.9166
4JFF A E 173;4JFF A Q 180;3.7387
4JFF A N 174;4JFF A G 175;16.6164
4JFF A N 174;4JFF A K 176;2.61568
4JFF A N 174;4JFF A E 177;9.87768
4JFF A G 175;4JFF A K 176;16.3524
4JFF A G 175;4JFF A E 177;7.9988
4JFF A G 175;4JFF A T 178;8.79221
4JFF A G 175;4JFF A L 179;15.3337
4JFF A G 175;4JFF A Q 180;0.134841
4JFF A K 176;4JFF A E 177;44.6518
4JFF A K 176;4JFF A T 178;2.59626
4JFF A K 176;4JFF A L 179;1.69905
4JFF A K 176;4JFF A Q 180;33.6675
4JFF A K 176;4JFF A R 181;3.88131
4JFF A E 177;4JFF A T 178;26.6392
4JFF A E 177;4JFF A R 181;16.0395
4JFF A T 178;4JFF A L 179;27.165
4JFF A T 178;4JFF A Q 180;0.842442
4JFF A T 178;4JFF A R 181;32.4462
4JFF A T 178;4JFF A Y 209;5.81047
4JFF A L 179;4JFF A Q 180;22.6097
4JFF A L 179;4JFF A R 181;7.26809
4JFF A L 179;4JFF A Y 209;15.7034
4JFF A Q 180;4JFF A R 181;29.3957
4JFF A Q 180;4JFF A T 182;1.67885
4JFF A R 181;4JFF A T 182;35.3614
4JFF A R 181;4JFF A D 183;27.9175
4JFF A R 181;4JFF A Y 209;32.5654
4JFF A R 181;4JFF A P 210;3.71857
4JFF A R 181;4JFF A D 238;1.87384
4JFF A R 181;4JFF A G 239;11.847
4JFF A R 181;4JFF A T 240;7.66839
4JFF A T 182;4JFF A D 183;25.1901
4JFF A T 182;4JFF A A 184;5.39081
4JFF A T 182;4JFF A Y 209;8.06198
4JFF A T 182;4JFF A P 210;7.60624
4JFF A T 182;4JFF A H 263;2.52942
4JFF A T 182;4JFF A E 264;12.6193
4JFF A T 182;4JFF A G 265;22.1347
4JFF A D 183;4JFF A A 184;25.2491
4JFF A D 183;4JFF A P 185;1.14624
4JFF A D 183;4JFF A S 207;10.2892
4JFF A D 183;4JFF A F 208;8.51383
4JFF A D 183;4JFF A Y 209;24.7937
4JFF A D 183;4JFF A T 240;10.3812
4JFF A D 183;4JFF A H 263;5.34232
4JFF A D 183;4JFF A G 265;1.15818
4JFF A A 184;4JFF A P 185;27.3422
4JFF A A 184;4JFF A K 186;9.43554
4JFF A A 184;4JFF A L 206;0.468282
4JFF A A 184;4JFF A S 207;6.65462
4JFF A A 184;4JFF A F 208;1.35059
4JFF A A 184;4JFF A H 263;1.05069
4JFF A A 184;4JFF A G 265;15.5348
4JFF A A 184;4JFF A L 266;14.3132
4JFF A P 185;4JFF A K 186;21.679
4JFF A P 185;4JFF A T 187;16.2183
4JFF A P 185;4JFF A A 205;7.80647
4JFF A P 185;4JFF A L 206;7.46427
4JFF A P 185;4JFF A S 207;0.327454
4JFF A P 185;4JFF A F 208;16.1063
4JFF A P 185;4JFF A I 213;9.69115
4JFF A P 185;4JFF A V 261;7.27426
4JFF A P 185;4JFF A H 263;13.1501
4JFF A P 185;4JFF A L 266;20.171
4JFF A K 186;4JFF A T 187;28.4121
4JFF A K 186;4JFF A H 188;0.057486
4JFF A K 186;4JFF A W 204;0.105909
4JFF A K 186;4JFF A A 205;2.93871
4JFF A K 186;4JFF A L 206;28.65
4JFF A K 186;4JFF A S 207;24.8172
4JFF A T 187;4JFF A H 188;32.2456
4JFF A T 187;4JFF A C 203;0.206668
4JFF A T 187;4JFF A W 204;13.4523
4JFF A T 187;4JFF A A 205;6.40034
4JFF A T 187;4JFF A L 206;1.96793
4JFF A T 187;4JFF A V 261;14.6759
4JFF A T 187;4JFF A L 266;0.289372
4JFF A T 187;4JFF A L 270;4.78255
4JFF A T 187;4JFF A L 272;25.5674
4JFF A H 188;4JFF A M 189;33.4195
4JFF A H 188;4JFF A T 190;14.6417
4JFF A H 188;4JFF A R 202;0.0497989
4JFF A H 188;4JFF A C 203;4.244
4JFF A H 188;4JFF A W 204;40.9194
4JFF A H 188;4JFF A L 206;11.8837
4JFF A H 188;4JFF A L 272;8.69616
4JFF A H 188;4JFF B P 14;14.5408
4JFF A M 189;4JFF A T 190;30.0867
4JFF A M 189;4JFF A L 201;18.3909
4JFF A M 189;4JFF A R 202;12.2476
4JFF A M 189;4JFF A C 203;10.6216
4JFF A M 189;4JFF A W 204;1.78381
4JFF A M 189;4JFF A W 217;14.3928
4JFF A M 189;4JFF A Y 257;3.40416
4JFF A M 189;4JFF A T 258;0.597866
4JFF A M 189;4JFF A C 259;9.31699
4JFF A M 189;4JFF A L 272;12.1806
4JFF A M 189;4JFF A R 273;8.00837
4JFF A M 189;4JFF A W 274;27.3255
4JFF A M 189;4JFF A P 276;12.1562
4JFF A T 190;4JFF A H 191;32.0061
4JFF A T 190;4JFF A T 200;1.85181
4JFF A T 190;4JFF A L 201;5.14561
4JFF A T 190;4JFF A R 202;21.164
4JFF A T 190;4JFF A W 204;11.4576
4JFF A T 190;4JFF A P 276;4.50373
4JFF A T 190;4JFF B D 98;19.8832
4JFF A H 191;4JFF A H 192;40.9937
4JFF A H 191;4JFF A A 193;3.71544
4JFF A H 191;4JFF A A 199;15.26
4JFF A H 191;4JFF A T 200;9.33396
4JFF A H 191;4JFF A L 201;17.2556
4JFF A H 191;4JFF A S 251;0.0316788
4JFF A H 191;4JFF A E 254;22.9017
4JFF A H 191;4JFF A P 276;43.7626
4JFF A H 192;4JFF A A 193;44.073
4JFF A H 192;4JFF A V 194;2.43339
4JFF A H 192;4JFF A A 199;4.92911
4JFF A H 192;4JFF A T 200;18.7832
4JFF A A 193;4JFF A V 194;24.5821
4JFF A A 193;4JFF A S 195;14.2342
4JFF A A 193;4JFF A H 197;0.0116407
4JFF A A 193;4JFF A E 198;7.84789
4JFF A A 193;4JFF A A 199;11.6667
4JFF A A 193;4JFF A S 251;4.52321
4JFF A V 194;4JFF A S 195;35.3361
4JFF A V 194;4JFF A E 198;18.0648
4JFF A V 194;4JFF A A 199;5.48486
4JFF A V 194;4JFF A T 200;13.7634
4JFF A V 194;4JFF A V 248;5.87213
4JFF A S 195;4JFF A D 196;37.1884
4JFF A S 195;4JFF A H 197;2.96421
4JFF A S 195;4JFF A E 198;26.132
4JFF A S 195;4JFF A S 251;0.0283999
4JFF A D 196;4JFF A H 197;32.7946
4JFF A D 196;4JFF A E 198;6.14789
4JFF A H 197;4JFF A E 198;42.3582
4JFF A H 197;4JFF A V 249;1.62605
4JFF A H 197;4JFF A P 250;22.9699
4JFF A H 197;4JFF A S 251;25.8668
4JFF A E 198;4JFF A A 199;19.9201
4JFF A E 198;4JFF A V 248;16.6594
4JFF A E 198;4JFF A V 249;9.19044
4JFF A E 198;4JFF A P 250;0.429816
4JFF A E 198;4JFF A S 251;6.39697
4JFF A A 199;4JFF A T 200;20.2821
4JFF A A 199;4JFF A L 201;9.53178
4JFF A A 199;4JFF A V 247;1.14037
4JFF A A 199;4JFF A V 248;10.0139
4JFF A A 199;4JFF A V 249;18.5729
4JFF A A 199;4JFF A S 251;12.027
4JFF A A 199;4JFF A E 254;2.70207
4JFF A T 200;4JFF A L 201;19.5846
4JFF A T 200;4JFF A R 202;19.5318
4JFF A T 200;4JFF A A 246;8.38765
4JFF A T 200;4JFF A V 247;8.2524
4JFF A T 200;4JFF A V 248;19.0229
4JFF A L 201;4JFF A R 202;17.4083
4JFF A L 201;4JFF A W 217;9.36318
4JFF A L 201;4JFF A A 246;4.21716
4JFF A L 201;4JFF A V 247;25.8167
4JFF A L 201;4JFF A V 249;15.5366
4JFF A L 201;4JFF A E 254;23.6626
4JFF A L 201;4JFF A Y 257;13.8227
4JFF A L 201;4JFF A W 274;7.59426
4JFF A L 201;4JFF A E 275;0.076637
4JFF A L 201;4JFF A P 276;2.09232
4JFF A R 202;4JFF A C 203;18.7862
4JFF A R 202;4JFF A W 204;14.1902
4JFF A R 202;4JFF A W 217;3.18646
4JFF A R 202;4JFF A W 244;26.1849
4JFF A R 202;4JFF A A 245;4.6552
4JFF A R 202;4JFF A A 246;19.631
4JFF A R 202;4JFF B D 96;1.40495
4JFF A R 202;4JFF B D 98;27.1851
4JFF A R 202;4JFF B M 99;31.3797
4JFF A C 203;4JFF A W 204;27.0156
4JFF A C 203;4JFF A L 215;13.51
4JFF A C 203;4JFF A W 217;11.9354
4JFF A C 203;4JFF A W 244;7.40594
4JFF A C 203;4JFF A A 245;13.3696
4JFF A C 203;4JFF A C 259;20.2867
4JFF A C 203;4JFF A V 261;2.87618
4JFF A C 203;4JFF A L 272;9.89057
4JFF A W 204;4JFF A A 205;19.0542
4JFF A W 204;4JFF A L 206;27.1824
4JFF A W 204;4JFF A L 215;4.35726
4JFF A W 204;4JFF A R 234;8.62961
4JFF A W 204;4JFF A Q 242;4.4006
4JFF A W 204;4JFF A K 243;4.92163
4JFF A W 204;4JFF A W 244;22.1904
4JFF A W 204;4JFF A V 261;1.36489
4JFF A W 204;4JFF A L 272;0.0263677
4JFF A W 204;4JFF B R 97;7.52334
4JFF A W 204;4JFF B D 98;16.1671
4JFF A W 204;4JFF B M 99;15.2866
4JFF A A 205;4JFF A L 206;23.3359
4JFF A A 205;4JFF A F 208;10.7619
4JFF A A 205;4JFF A I 213;12.2456
4JFF A A 205;4JFF A L 215;9.66309
4JFF A A 205;4JFF A Q 242;4.86893
4JFF A A 205;4JFF A K 243;20.6382
4JFF A A 205;4JFF A V 261;5.16603
4JFF A L 206;4JFF A S 207;29.6665
4JFF A L 206;4JFF A F 208;7.52856
4JFF A L 206;4JFF A F 241;2.10189
4JFF A L 206;4JFF A Q 242;25.225
4JFF A L 206;4JFF A K 243;0.803479
4JFF A L 206;4JFF B R 12;3.28703
4JFF A L 206;4JFF B P 14;14.2237
4JFF A S 207;4JFF A F 208;15.6505
4JFF A S 207;4JFF A A 236;2.11406
4JFF A S 207;4JFF A D 238;4.09487
4JFF A S 207;4JFF A T 240;26.9164
4JFF A S 207;4JFF A F 241;6.26185
4JFF A S 207;4JFF A Q 242;1.92599
4JFF A S 207;4JFF B R 12;0.0744755
4JFF A S 207;4JFF B H 13;9.24797
4JFF A F 208;4JFF A Y 209;18.2649
4JFF A F 208;4JFF A P 210;7.70148
4JFF A F 208;4JFF A A 211;9.97773
4JFF A F 208;4JFF A E 212;0.199466
4JFF A F 208;4JFF A I 213;23.2831
4JFF A F 208;4JFF A T 233;5.69602
4JFF A F 208;4JFF A T 240;7.14339
4JFF A F 208;4JFF A F 241;31.8674
4JFF A F 208;4JFF A Q 242;8.40231
4JFF A F 208;4JFF A K 243;7.40799
4JFF A F 208;4JFF A H 263;11.8197
4JFF A Y 209;4JFF A P 210;43.9446
4JFF A Y 209;4JFF A G 239;9.76382
4JFF A Y 209;4JFF A T 240;5.12683
4JFF A Y 209;4JFF A F 241;10.6094
4JFF A Y 209;4JFF A H 263;8.35853
4JFF A P 210;4JFF A A 211;19.3896
4JFF A P 210;4JFF A E 212;13.9825
4JFF A P 210;4JFF A F 241;3.08035
4JFF A P 210;4JFF A H 263;14.8815
4JFF A P 210;4JFF A E 264;21.0712
4JFF A A 211;4JFF A E 212;26.0671
4JFF A A 211;4JFF A I 213;9.14642
4JFF A A 211;4JFF A T 233;18.4502
4JFF A A 211;4JFF A F 241;24.3192
4JFF A E 212;4JFF A I 213;28.6716
4JFF A E 212;4JFF A H 263;13.413
4JFF A E 212;4JFF A E 264;4.26109
4JFF A I 213;4JFF A T 214;35.0166
4JFF A I 213;4JFF A L 215;6.18988
4JFF A I 213;4JFF A T 233;3.89562
4JFF A I 213;4JFF A K 243;22.8746
4JFF A I 213;4JFF A V 261;7.10173
4JFF A I 213;4JFF A Q 262;12.7896
4JFF A I 213;4JFF A H 263;14.266
4JFF A T 214;4JFF A L 215;27.3058
4JFF A T 214;4JFF A T 216;19.5648
4JFF A T 214;4JFF A K 243;0.259447
4JFF A T 214;4JFF A H 260;3.26794
4JFF A T 214;4JFF A V 261;6.13129
4JFF A T 214;4JFF A Q 262;35.6516
4JFF A L 215;4JFF A T 216;27.1747
4JFF A L 215;4JFF A T 228;0.489178
4JFF A L 215;4JFF A L 230;10.4794
4JFF A L 215;4JFF A K 243;26.6736
4JFF A L 215;4JFF A W 244;7.07572
4JFF A L 215;4JFF A A 245;24.2902
4JFF A L 215;4JFF A C 259;10.817
4JFF A L 215;4JFF A H 260;6.46262
4JFF A L 215;4JFF A V 261;12.561
4JFF A T 216;4JFF A W 217;32.9571
4JFF A T 216;4JFF A Q 218;4.892
4JFF A T 216;4JFF A E 222;18.9648
4JFF A T 216;4JFF A Q 226;5.43704
4JFF A T 216;4JFF A T 228;1.58804
4JFF A T 216;4JFF A A 245;1.85227
4JFF A T 216;4JFF A T 258;0.410011
4JFF A T 216;4JFF A C 259;5.40914
4JFF A T 216;4JFF A H 260;30.3108
4JFF A W 217;4JFF A Q 218;26.9549
4JFF A W 217;4JFF A E 222;5.9012
4JFF A W 217;4JFF A Q 226;19.0253
4JFF A W 217;4JFF A T 228;17.0217
4JFF A W 217;4JFF A A 245;17.2679
4JFF A W 217;4JFF A A 246;8.00125
4JFF A W 217;4JFF A V 247;25.9319
4JFF A W 217;4JFF A Y 257;15.9342
4JFF A W 217;4JFF A T 258;12.0265
4JFF A W 217;4JFF A C 259;19.0797
4JFF A W 217;4JFF A H 260;0.600882
4JFF A Q 218;4JFF A R 219;24.2659
4JFF A Q 218;4JFF A D 220;20.0622
4JFF A Q 218;4JFF A G 221;3.69697
4JFF A Q 218;4JFF A E 222;28.2365
4JFF A Q 218;4JFF A Q 226;5.33634
4JFF A Q 218;4JFF A R 256;1.26664
4JFF A Q 218;4JFF A Y 257;7.44512
4JFF A Q 218;4JFF A T 258;24.2839
4JFF A Q 218;4JFF A H 260;31.7612
4JFF A R 219;4JFF A D 220;61.0236
4JFF A R 219;4JFF A Q 226;4.73085
4JFF A R 219;4JFF A R 256;61.9909
4JFF A R 219;4JFF A Y 257;13.8718
4JFF A R 219;4JFF A T 258;5.72993
4JFF A D 220;4JFF A G 221;34.0256
4JFF A D 220;4JFF A E 222;6.25572
4JFF A D 220;4JFF A T 258;0.0745312
4JFF A G 221;4JFF A E 222;30.2954
4JFF A G 221;4JFF A D 223;9.12451
4JFF A E 222;4JFF A D 223;30.0724
4JFF A E 222;4JFF A Q 224;23.5303
4JFF A E 222;4JFF A Q 226;16.1046
4JFF A D 223;4JFF A Q 224;38.9975
4JFF A Q 224;4JFF A T 225;36.571
4JFF A Q 224;4JFF A Q 226;7.67181
4JFF A T 225;4JFF A Q 226;39.0157
4JFF A T 225;4JFF A D 227;5.92183
4JFF A T 225;4JFF A L 230;3.95525
4JFF A Q 226;4JFF A D 227;31.6277
4JFF A Q 226;4JFF A T 228;33.5343
4JFF A Q 226;4JFF A V 247;5.81325
4JFF A Q 226;4JFF A Y 257;5.13241
4JFF A D 227;4JFF A T 228;22.0705
4JFF A D 227;4JFF A E 229;22.7532
4JFF A T 228;4JFF A E 229;25.4737
4JFF A T 228;4JFF A L 230;17.6884
4JFF A T 228;4JFF A A 245;9.07491
4JFF A T 228;4JFF A A 246;11.7054
4JFF A T 228;4JFF A V 247;14.3833
4JFF A E 229;4JFF A L 230;28.4152
4JFF A E 229;4JFF A V 231;2.96595
4JFF A E 229;4JFF A W 244;8.17161
4JFF A E 229;4JFF A A 245;1.97619
4JFF A E 229;4JFF A A 246;10.0314
4JFF A L 230;4JFF A V 231;28.2494
4JFF A L 230;4JFF A E 232;7.27321
4JFF A L 230;4JFF A K 243;23.2849
4JFF A L 230;4JFF A W 244;4.084
4JFF A L 230;4JFF A A 245;12.117
4JFF A V 231;4JFF A E 232;29.3173
4JFF A V 231;4JFF A T 233;0.372919
4JFF A V 231;4JFF A R 234;5.92549
4JFF A V 231;4JFF A K 243;17.343
4JFF A V 231;4JFF A W 244;44.7459
4JFF A V 231;4JFF B Q 8;21.2237
4JFF A V 231;4JFF B M 99;0.00475358
4JFF A E 232;4JFF A T 233;29.7985
4JFF A E 232;4JFF A R 234;6.18484
4JFF A E 232;4JFF A Q 242;0.228395
4JFF A E 232;4JFF A K 243;5.50799
4JFF A E 232;4JFF B K 6;27.953
4JFF A E 232;4JFF B I 7;1.73934
4JFF A E 232;4JFF B Q 8;23.1557
4JFF A E 232;4JFF B Y 26;16.7023
4JFF A E 232;4JFF B S 28;11.9167
4JFF A T 233;4JFF A R 234;23.0104
4JFF A T 233;4JFF A P 235;0.209634
4JFF A T 233;4JFF A F 241;10.3309
4JFF A T 233;4JFF A Q 242;5.95587
4JFF A T 233;4JFF A K 243;25.1164
4JFF A T 233;4JFF B Y 26;10.8266
4JFF A R 234;4JFF A P 235;24.308
4JFF A R 234;4JFF A A 236;1.31285
4JFF A R 234;4JFF A F 241;10.7697
4JFF A R 234;4JFF A Q 242;41.3306
4JFF A R 234;4JFF A K 243;4.24992
4JFF A R 234;4JFF A W 244;12.5609
4JFF A R 234;4JFF B Q 8;24.834
4JFF A R 234;4JFF B V 9;1.32789
4JFF A R 234;4JFF B Y 10;38.0362
4JFF A R 234;4JFF B S 11;0.174954
4JFF A R 234;4JFF B Y 26;9.81032
4JFF A R 234;4JFF B M 99;15.4175
4JFF A P 235;4JFF A A 236;18.1495
4JFF A P 235;4JFF A G 237;8.24104
4JFF A P 235;4JFF A T 240;5.25229
4JFF A P 235;4JFF A F 241;19.8839
4JFF A P 235;4JFF A Q 242;0.613173
4JFF A P 235;4JFF B Y 10;13.8285
4JFF A P 235;4JFF B N 24;2.18801
4JFF A P 235;4JFF B Y 26;23.7352
4JFF A P 235;4JFF B Y 63;0.0146046
4JFF A P 235;4JFF B L 65;22.9163
4JFF A A 236;4JFF A G 237;19.8796
4JFF A A 236;4JFF A D 238;10.418
4JFF A A 236;4JFF A T 240;18.8799
4JFF A A 236;4JFF A F 241;5.95565
4JFF A A 236;4JFF A Q 242;16.3553
4JFF A A 236;4JFF B Y 10;2.4358
4JFF A A 236;4JFF B R 12;24.7749
4JFF A A 236;4JFF B N 24;10.7608
4JFF A A 236;4JFF B L 65;1.27051
4JFF A G 237;4JFF A D 238;22.5372
4JFF A G 237;4JFF A G 239;9.51913
4JFF A G 237;4JFF A T 240;2.09655
4JFF A G 237;4JFF B R 12;17.8368
4JFF A G 237;4JFF B N 24;0.827483
4JFF A G 237;4JFF B L 65;15.4063
4JFF A G 237;4JFF B Y 67;2.25498
4JFF A D 238;4JFF A G 239;23.8475
4JFF A D 238;4JFF A T 240;27.0803
4JFF A D 238;4JFF B R 12;24.779
4JFF A D 238;4JFF B H 13;12.5076
4JFF A G 239;4JFF A T 240;23.8129
4JFF A G 239;4JFF A F 241;9.28909
4JFF A T 240;4JFF A F 241;26.5368
4JFF A F 241;4JFF A Q 242;19.1676
4JFF A Q 242;4JFF A K 243;23.8711
4JFF A Q 242;4JFF B Y 10;11.0078
4JFF A Q 242;4JFF B S 11;9.85181
4JFF A Q 242;4JFF B R 12;12.0232
4JFF A K 243;4JFF A W 244;29.035
4JFF A W 244;4JFF A A 245;22.5293
4JFF A W 244;4JFF A A 246;14.8442
4JFF A W 244;4JFF B Q 8;0.39652
4JFF A W 244;4JFF B M 99;30.1921
4JFF A A 245;4JFF A A 246;14.2239
4JFF A A 245;4JFF A C 259;0.495451
4JFF A A 246;4JFF A V 247;24.9532
4JFF A V 247;4JFF A V 248;26.5831
4JFF A V 247;4JFF A V 249;11.6901
4JFF A V 247;4JFF A Y 257;15.4811
4JFF A V 248;4JFF A V 249;33.8883
4JFF A V 248;4JFF A Y 257;0.0376146
4JFF A V 249;4JFF A P 250;36.2908
4JFF A V 249;4JFF A S 251;3.36669
4JFF A V 249;4JFF A Q 253;3.81635
4JFF A V 249;4JFF A E 254;5.97044
4JFF A V 249;4JFF A Y 257;31.8385
4JFF A P 250;4JFF A S 251;21.0392
4JFF A P 250;4JFF A G 252;5.10911
4JFF A P 250;4JFF A Q 253;33.8682
4JFF A P 250;4JFF A E 254;1.66111
4JFF A P 250;4JFF A Y 257;9.50881
4JFF A S 251;4JFF A G 252;32.1322
4JFF A S 251;4JFF A Q 253;1.09192
4JFF A S 251;4JFF A E 254;19.4603
4JFF A G 252;4JFF A Q 253;27.4264
4JFF A G 252;4JFF A E 254;9.78647
4JFF A Q 253;4JFF A E 254;26.6037
4JFF A Q 253;4JFF A Q 255;1.46465
4JFF A Q 253;4JFF A R 256;39.3616
4JFF A Q 253;4JFF A Y 257;9.86873
4JFF A E 254;4JFF A Q 255;23.023
4JFF A E 254;4JFF A R 256;5.60977
4JFF A E 254;4JFF A Y 257;16.2799
4JFF A E 254;4JFF A R 273;1.30704
4JFF A E 254;4JFF A W 274;3.09485
4JFF A E 254;4JFF A E 275;29.5063
4JFF A E 254;4JFF A P 276;7.80318
4JFF A Q 255;4JFF A R 256;28.5149
4JFF A Q 255;4JFF A Y 257;5.73015
4JFF A Q 255;4JFF A R 273;20.8635
4JFF A Q 255;4JFF A E 275;33.6967
4JFF A R 256;4JFF A Y 257;36.0099
4JFF A R 256;4JFF A T 258;0.849922
4JFF A Y 257;4JFF A T 258;21.9806
4JFF A Y 257;4JFF A R 273;13.5728
4JFF A Y 257;4JFF A W 274;0.166428
4JFF A T 258;4JFF A C 259;18.3037
4JFF A T 258;4JFF A H 260;18.6087
4JFF A T 258;4JFF A T 271;14.3292
4JFF A T 258;4JFF A L 272;7.24749
4JFF A T 258;4JFF A R 273;23.3985
4JFF A C 259;4JFF A H 260;22.5752
4JFF A C 259;4JFF A V 261;6.55373
4JFF A C 259;4JFF A L 270;0.529999
4JFF A C 259;4JFF A T 271;4.64243
4JFF A C 259;4JFF A L 272;26.2754
4JFF A C 259;4JFF A R 273;0.498329
4JFF A H 260;4JFF A V 261;22.9668
4JFF A H 260;4JFF A Q 262;0.0171565
4JFF A H 260;4JFF A P 269;0.628786
4JFF A H 260;4JFF A L 270;9.17191
4JFF A H 260;4JFF A T 271;25.2056
4JFF A V 261;4JFF A Q 262;25.2453
4JFF A V 261;4JFF A H 263;0.618148
4JFF A V 261;4JFF A L 266;10.2277
4JFF A V 261;4JFF A P 269;7.92486
4JFF A V 261;4JFF A L 270;30.8699
4JFF A V 261;4JFF A L 272;8.19887
4JFF A Q 262;4JFF A H 263;33.3266
4JFF A Q 262;4JFF A L 266;0.649627
4JFF A Q 262;4JFF A P 269;23.1625
4JFF A H 263;4JFF A E 264;32.0815
4JFF A H 263;4JFF A G 265;11.4178
4JFF A H 263;4JFF A L 266;31.8051
4JFF A H 263;4JFF A P 269;0.200612
4JFF A E 264;4JFF A G 265;19.7067
4JFF A E 264;4JFF A L 266;8.91738
4JFF A E 264;4JFF A P 267;0.812055
4JFF A G 265;4JFF A L 266;21.7932
4JFF A G 265;4JFF A P 267;9.39706
4JFF A L 266;4JFF A P 267;34.6687
4JFF A L 266;4JFF A K 268;9.41456
4JFF A L 266;4JFF A P 269;5.203
4JFF A L 266;4JFF A L 270;23.7865
4JFF A P 267;4JFF A K 268;50.7065
4JFF A P 267;4JFF A P 269;8.39995
4JFF A K 268;4JFF A P 269;36.0258
4JFF A K 268;4JFF A L 270;10.5904
4JFF A P 269;4JFF A L 270;26.7676
4JFF A P 269;4JFF A T 271;8.24387
4JFF A L 270;4JFF A T 271;29.6978
4JFF A L 270;4JFF A L 272;15.4897
4JFF A T 271;4JFF A L 272;28.4938
4JFF A T 271;4JFF A R 273;9.89095
4JFF A L 272;4JFF A R 273;29.3804
4JFF A R 273;4JFF A W 274;33.3516
4JFF A R 273;4JFF A E 275;13.4651
4JFF A W 274;4JFF A E 275;49.8396
4JFF A W 274;4JFF A P 276;41.9724
4JFF A E 275;4JFF A P 276;30.1129
4JFF B M 0;4JFF B I 1;35.0595
4JFF B M 0;4JFF B Q 2;18.8722
4JFF B M 0;4JFF B H 31;2.51234
4JFF B M 0;4JFF B P 32;10.5178
4JFF B I 1;4JFF B Q 2;35.1384
4JFF B I 1;4JFF B R 3;34.4359
4JFF B I 1;4JFF B H 31;12.6681
4JFF B I 1;4JFF B P 32;1.03963
4JFF B Q 2;4JFF B R 3;24.2485
4JFF B Q 2;4JFF B T 4;0.714308
4JFF B Q 2;4JFF B H 31;7.69191
4JFF B Q 2;4JFF B P 32;15.1259
4JFF B Q 2;4JFF B V 85;19.8166
4JFF B Q 2;4JFF B T 86;19.9733
4JFF B R 3;4JFF B T 4;24.5486
4JFF B R 3;4JFF B P 5;1.22739
4JFF B R 3;4JFF B G 29;13.0805
4JFF B R 3;4JFF B F 30;10.394
4JFF B R 3;4JFF B H 31;25.6982
4JFF B R 3;4JFF B D 59;33.6038
4JFF B R 3;4JFF B W 60;0.143603
4JFF B R 3;4JFF B S 61;13.1837
4JFF B R 3;4JFF B H 84;4.93465
4JFF B R 3;4JFF B T 86;7.16627
4JFF B T 4;4JFF B P 5;32.0188
4JFF B T 4;4JFF B K 6;5.65714
4JFF B T 4;4JFF B S 28;0.26167
4JFF B T 4;4JFF B G 29;8.69779
4JFF B T 4;4JFF B F 30;1.25795
4JFF B T 4;4JFF B H 84;0.0228342
4JFF B T 4;4JFF B T 86;27.0954
4JFF B T 4;4JFF B L 87;10.0377
4JFF B P 5;4JFF B K 6;26.5368
4JFF B P 5;4JFF B I 7;14.4385
4JFF B P 5;4JFF B V 27;6.0253
4JFF B P 5;4JFF B S 28;6.2849
4JFF B P 5;4JFF B G 29;1.57447
4JFF B P 5;4JFF B F 30;15.934
4JFF B P 5;4JFF B I 35;7.7785
4JFF B P 5;4JFF B V 82;7.82728
4JFF B P 5;4JFF B H 84;13.0739
4JFF B P 5;4JFF B T 86;3.87008
4JFF B P 5;4JFF B L 87;14.289
4JFF B K 6;4JFF B I 7;29.757
4JFF B K 6;4JFF B Y 26;2.19317
4JFF B K 6;4JFF B V 27;6.38702
4JFF B K 6;4JFF B S 28;29.6386
4JFF B K 6;4JFF B G 29;15.277
4JFF B I 7;4JFF B Q 8;34.2146
4JFF B I 7;4JFF B V 9;1.87871
4JFF B I 7;4JFF B C 25;8.58161
4JFF B I 7;4JFF B Y 26;5.87016
4JFF B I 7;4JFF B V 27;9.2652
4JFF B I 7;4JFF B C 80;4.58847
4JFF B I 7;4JFF B V 82;22.2112
4JFF B I 7;4JFF B L 87;2.85482
4JFF B I 7;4JFF B K 91;17.1097
4JFF B I 7;4JFF B V 93;30.7539
4JFF B Q 8;4JFF B V 9;22.4658
4JFF B Q 8;4JFF B Y 10;12.07
4JFF B Q 8;4JFF B C 25;7.30035
4JFF B Q 8;4JFF B Y 26;23.2993
4JFF B Q 8;4JFF B V 93;2.42257
4JFF B Q 8;4JFF B M 99;0.620039
4JFF B V 9;4JFF B Y 10;23.8417
4JFF B V 9;4JFF B L 23;10.3862
4JFF B V 9;4JFF B N 24;8.62357
4JFF B V 9;4JFF B C 25;6.01233
4JFF B V 9;4JFF B L 39;2.98789
4JFF B V 9;4JFF B A 79;6.30893
4JFF B V 9;4JFF B C 80;11.8973
4JFF B V 9;4JFF B V 93;20.9974
4JFF B V 9;4JFF B K 94;8.25112
4JFF B V 9;4JFF B W 95;21.0908
4JFF B V 9;4JFF B D 96;2.2592
4JFF B V 9;4JFF B M 99;7.79183
4JFF B Y 10;4JFF B S 11;29.7054
4JFF B Y 10;4JFF B R 12;0.333549
4JFF B Y 10;4JFF B F 22;0.216296
4JFF B Y 10;4JFF B L 23;8.25229
4JFF B Y 10;4JFF B N 24;35.7127
4JFF B Y 10;4JFF B C 25;1.16604
4JFF B Y 10;4JFF B Y 26;12.6522
4JFF B Y 10;4JFF B L 65;6.84928
4JFF B Y 10;4JFF B W 95;11.5603
4JFF B Y 10;4JFF B M 99;8.68295
4JFF B S 11;4JFF B R 12;18.7745
4JFF B S 11;4JFF B H 13;13.7904
4JFF B S 11;4JFF B P 14;1.81629
4JFF B S 11;4JFF B A 15;9.12588
4JFF B S 11;4JFF B N 21;8.34469
4JFF B S 11;4JFF B F 22;6.37461
4JFF B S 11;4JFF B L 23;2.44555
4JFF B S 11;4JFF B N 24;1.51434
4JFF B S 11;4JFF B F 70;7.59229
4JFF B S 11;4JFF B W 95;16.0465
4JFF B S 11;4JFF B R 97;3.13435
4JFF B R 12;4JFF B H 13;44.8569
4JFF B R 12;4JFF B P 14;0.330126
4JFF B R 12;4JFF B N 21;6.58346
4JFF B R 12;4JFF B F 22;53.0158
4JFF B R 12;4JFF B N 24;11.503
4JFF B R 12;4JFF B Y 67;14.4641
4JFF B H 13;4JFF B P 14;41.8021
4JFF B H 13;4JFF B A 15;2.78425
4JFF B H 13;4JFF B S 20;3.12268
4JFF B H 13;4JFF B N 21;25.099
4JFF B H 13;4JFF B F 22;1.72346
4JFF B P 14;4JFF B A 15;23.8237
4JFF B P 14;4JFF B E 16;22.5506
4JFF B P 14;4JFF B N 21;3.44767
4JFF B A 15;4JFF B E 16;26.4363
4JFF B A 15;4JFF B N 17;4.67349
4JFF B A 15;4JFF B N 21;7.65183
4JFF B A 15;4JFF B F 70;0.584974
4JFF B A 15;4JFF B P 72;12.5747
4JFF B A 15;4JFF B W 95;11.9004
4JFF B A 15;4JFF B R 97;23.3365
4JFF B E 16;4JFF B N 17;27.2814
4JFF B E 16;4JFF B G 18;2.17499
4JFF B E 16;4JFF B K 19;49.2128
4JFF B E 16;4JFF B N 21;0.682701
4JFF B E 16;4JFF B P 72;10.9489
4JFF B N 17;4JFF B G 18;24.2252
4JFF B N 17;4JFF B K 19;2.64651
4JFF B N 17;4JFF B P 72;13.5275
4JFF B N 17;4JFF B T 73;14.6489
4JFF B N 17;4JFF B E 74;26.8101
4JFF B N 17;4JFF B R 97;11.8305
4JFF B G 18;4JFF B K 19;26.2705
4JFF B G 18;4JFF B S 20;1.33287
4JFF B G 18;4JFF B T 71;12.814
4JFF B G 18;4JFF B P 72;9.72398
4JFF B G 18;4JFF B T 73;3.84525
4JFF B K 19;4JFF B S 20;38.4355
4JFF B K 19;4JFF B N 21;4.08511
4JFF B K 19;4JFF B F 70;0.156117
4JFF B K 19;4JFF B T 71;6.56719
4JFF B K 19;4JFF B P 72;9.44919
4JFF B S 20;4JFF B N 21;33.292
4JFF B S 20;4JFF B F 22;3.7318
4JFF B S 20;4JFF B E 69;9.83065
4JFF B S 20;4JFF B F 70;4.36506
4JFF B S 20;4JFF B T 71;16.3521
4JFF B N 21;4JFF B F 22;33.2634
4JFF B N 21;4JFF B E 69;7.34377
4JFF B N 21;4JFF B F 70;27.3904
4JFF B N 21;4JFF B P 72;8.49569
4JFF B F 22;4JFF B L 23;16.0653
4JFF B F 22;4JFF B N 24;8.78755
4JFF B F 22;4JFF B E 50;0.591303
4JFF B F 22;4JFF B Y 67;16.7965
4JFF B F 22;4JFF B T 68;11.24
4JFF B F 22;4JFF B E 69;25.2621
4JFF B F 22;4JFF B F 70;8.82313
4JFF B L 23;4JFF B N 24;23.3246
4JFF B L 23;4JFF B L 39;22.7252
4JFF B L 23;4JFF B L 40;2.53324
4JFF B L 23;4JFF B I 46;6.98343
4JFF B L 23;4JFF B Y 66;0.573532
4JFF B L 23;4JFF B Y 67;6.38805
4JFF B L 23;4JFF B T 68;19.3795
4JFF B L 23;4JFF B F 70;25.6175
4JFF B L 23;4JFF B Y 78;17.8038
4JFF B L 23;4JFF B A 79;6.12841
4JFF B L 23;4JFF B W 95;13.6314
4JFF B N 24;4JFF B C 25;18.3496
4JFF B N 24;4JFF B L 39;3.65808
4JFF B N 24;4JFF B L 65;14.951
4JFF B N 24;4JFF B Y 66;5.68099
4JFF B N 24;4JFF B Y 67;11.2456
4JFF B C 25;4JFF B Y 26;18.1664
4JFF B C 25;4JFF B V 27;9.95921
4JFF B C 25;4JFF B V 37;8.03343
4JFF B C 25;4JFF B L 39;9.42962
4JFF B C 25;4JFF B L 64;1.93248
4JFF B C 25;4JFF B L 65;7.02523
4JFF B C 25;4JFF B Y 66;21.3808
4JFF B C 25;4JFF B C 80;17.3501
4JFF B C 25;4JFF B V 82;2.5538
4JFF B Y 26;4JFF B V 27;23.6679
4JFF B Y 26;4JFF B S 28;16.7314
4JFF B Y 26;4JFF B Y 63;25.852
4JFF B Y 26;4JFF B L 64;10.2648
4JFF B Y 26;4JFF B L 65;16.1653
4JFF B V 27;4JFF B S 28;18.3723
4JFF B V 27;4JFF B F 30;13.2756
4JFF B V 27;4JFF B I 35;11.7026
4JFF B V 27;4JFF B V 37;11.8549
4JFF B V 27;4JFF B Y 63;4.85998
4JFF B V 27;4JFF B L 64;23.2877
4JFF B V 27;4JFF B Y 66;6.15373
4JFF B V 27;4JFF B V 82;10.8355
4JFF B S 28;4JFF B G 29;19.8234
4JFF B S 28;4JFF B F 30;8.97613
4JFF B S 28;4JFF B F 62;3.45622
4JFF B S 28;4JFF B Y 63;11.7522
4JFF B G 29;4JFF B F 30;15.8053
4JFF B G 29;4JFF B D 59;0.590249
4JFF B G 29;4JFF B S 61;21.7858
4JFF B G 29;4JFF B F 62;6.7219
4JFF B G 29;4JFF B Y 63;0.322698
4JFF B F 30;4JFF B H 31;20.191
4JFF B F 30;4JFF B P 32;5.57924
4JFF B F 30;4JFF B S 33;10.801
4JFF B F 30;4JFF B D 34;0.00538619
4JFF B F 30;4JFF B I 35;21.3139
4JFF B F 30;4JFF B L 54;1.5844
4JFF B F 30;4JFF B S 61;6.36061
4JFF B F 30;4JFF B F 62;33.5237
4JFF B F 30;4JFF B Y 63;3.09703
4JFF B F 30;4JFF B L 64;12.5235
4JFF B F 30;4JFF B H 84;9.98762
4JFF B H 31;4JFF B P 32;34.7916
4JFF B H 31;4JFF B W 60;10.3145
4JFF B H 31;4JFF B S 61;4.03669
4JFF B H 31;4JFF B F 62;16.8413
4JFF B H 31;4JFF B H 84;7.75142
4JFF B H 31;4JFF B T 86;1.56793
4JFF B P 32;4JFF B S 33;21.6139
4JFF B P 32;4JFF B D 34;18.8016
4JFF B P 32;4JFF B I 35;0.00276907
4JFF B P 32;4JFF B F 62;3.32439
4JFF B P 32;4JFF B H 84;12.5663
4JFF B P 32;4JFF B V 85;16.8969
4JFF B P 32;4JFF B T 86;0.128098
4JFF B S 33;4JFF B D 34;29.8885
4JFF B S 33;4JFF B I 35;10.124
4JFF B S 33;4JFF B L 54;21.0139
4JFF B S 33;4JFF B F 62;20.2034
4JFF B S 33;4JFF B L 64;2.64203
4JFF B D 34;4JFF B I 35;27.1515
4JFF B D 34;4JFF B H 84;11.1898
4JFF B D 34;4JFF B V 85;3.67906
4JFF B I 35;4JFF B E 36;30.9019
4JFF B I 35;4JFF B V 37;12.3689
4JFF B I 35;4JFF B L 64;10.7343
4JFF B I 35;4JFF B Y 66;13.2602
4JFF B I 35;4JFF B V 82;9.39065
4JFF B I 35;4JFF B N 83;7.89342
4JFF B I 35;4JFF B H 84;14.5503
4JFF B E 36;4JFF B V 37;26.3134
4JFF B E 36;4JFF B D 38;7.19112
4JFF B E 36;4JFF B R 81;14.063
4JFF B E 36;4JFF B V 82;6.53659
4JFF B E 36;4JFF B N 83;36.1806
4JFF B V 37;4JFF B D 38;35.5639
4JFF B V 37;4JFF B L 39;3.45185
4JFF B V 37;4JFF B R 45;1.18704
4JFF B V 37;4JFF B V 49;3.127
4JFF B V 37;4JFF B Y 66;41.5398
4JFF B V 37;4JFF B C 80;7.61372
4JFF B V 37;4JFF B R 81;4.79381
4JFF B V 37;4JFF B V 82;10.7495
4JFF B D 38;4JFF B L 39;25.9506
4JFF B D 38;4JFF B L 40;10.1036
4JFF B D 38;4JFF B R 45;32.7798
4JFF B D 38;4JFF B V 49;2.4999
4JFF B D 38;4JFF B A 79;0.0907782
4JFF B D 38;4JFF B C 80;7.69767
4JFF B D 38;4JFF B R 81;41.5164
4JFF B L 39;4JFF B L 40;18.8532
4JFF B L 39;4JFF B E 44;0.010986
4JFF B L 39;4JFF B R 45;4.62507
4JFF B L 39;4JFF B I 46;23.888
4JFF B L 39;4JFF B V 49;22.0448
4JFF B L 39;4JFF B Y 66;9.10656
4JFF B L 39;4JFF B Y 67;5.42676
4JFF B L 39;4JFF B T 68;11.9897
4JFF B L 39;4JFF B A 79;6.83407
4JFF B L 39;4JFF B C 80;8.65624
4JFF B L 40;4JFF B K 41;15.8393
4JFF B L 40;4JFF B N 42;0.938396
4JFF B L 40;4JFF B G 43;23.8437
4JFF B L 40;4JFF B E 44;9.26099
4JFF B L 40;4JFF B R 45;13.9083
4JFF B L 40;4JFF B I 46;6.95255
4JFF B L 40;4JFF B E 77;0.913864
4JFF B L 40;4JFF B Y 78;7.85164
4JFF B L 40;4JFF B A 79;30.2662
4JFF B L 40;4JFF B C 80;1.34463
4JFF B L 40;4JFF B R 81;26.0309
4JFF B L 40;4JFF B I 92;16.2232
4JFF B K 41;4JFF B N 42;35.7061
4JFF B K 41;4JFF B G 43;1.97015
4JFF B K 41;4JFF B E 44;24.61
4JFF B K 41;4JFF B I 46;17.5756
4JFF B K 41;4JFF B D 76;17.9425
4JFF B K 41;4JFF B E 77;5.57162
4JFF B K 41;4JFF B Y 78;28.3034
4JFF B N 42;4JFF B G 43;28.9155
4JFF B N 42;4JFF B E 44;8.41785
4JFF B N 42;4JFF B K 75;2.97353
4JFF B N 42;4JFF B D 76;16.2693
4JFF B N 42;4JFF B E 77;31.0327
4JFF B G 43;4JFF B E 44;27.184
4JFF B G 43;4JFF B R 45;0.871607
4JFF B G 43;4JFF B E 77;0.396611
4JFF B G 43;4JFF B A 79;0.617756
4JFF B E 44;4JFF B R 45;31.6963
4JFF B E 44;4JFF B I 46;5.85968
4JFF B R 45;4JFF B I 46;31.6655
4JFF B R 45;4JFF B E 47;22.013
4JFF B R 45;4JFF B V 49;10.1314
4JFF B R 45;4JFF B R 81;11.7795
4JFF B I 46;4JFF B E 47;33.6429
4JFF B I 46;4JFF B K 48;0.238648
4JFF B I 46;4JFF B V 49;14.8136
4JFF B I 46;4JFF B T 68;20.7121
4JFF B I 46;4JFF B E 69;1.04102
4JFF B I 46;4JFF B F 70;2.88796
4JFF B I 46;4JFF B Y 78;9.68548
4JFF B E 47;4JFF B K 48;54.0684
4JFF B E 47;4JFF B V 49;6.96911
4JFF B E 47;4JFF B T 68;2.03715
4JFF B K 48;4JFF B V 49;25.0226
4JFF B K 48;4JFF B E 50;9.24029
4JFF B K 48;4JFF B Y 67;0.0714797
4JFF B K 48;4JFF B T 68;14.2477
4JFF B K 48;4JFF B E 69;0.458141
4JFF B V 49;4JFF B E 50;30.3709
4JFF B V 49;4JFF B H 51;4.58989
4JFF B V 49;4JFF B Y 66;16.0547
4JFF B V 49;4JFF B Y 67;7.29728
4JFF B V 49;4JFF B T 68;10.4043
4JFF B E 50;4JFF B H 51;27.1381
4JFF B E 50;4JFF B Y 66;6.26177
4JFF B E 50;4JFF B Y 67;48.2225
4JFF B E 50;4JFF B T 68;0.313041
4JFF B H 51;4JFF B S 52;37.1864
4JFF B H 51;4JFF B D 53;2.6118
4JFF B H 51;4JFF B L 54;0.365704
4JFF B H 51;4JFF B L 64;10.6757
4JFF B H 51;4JFF B L 65;6.94654
4JFF B H 51;4JFF B Y 66;33.3136
4JFF B H 51;4JFF B Y 67;12.3676
4JFF B S 52;4JFF B D 53;37.634
4JFF B S 52;4JFF B L 54;4.42723
4JFF B S 52;4JFF B Y 63;4.74835
4JFF B S 52;4JFF B L 64;14.1449
4JFF B S 52;4JFF B L 65;26.0229
4JFF B S 52;4JFF B Y 67;8.50614
4JFF B D 53;4JFF B L 54;24.9532
4JFF B D 53;4JFF B S 55;8.25389
4JFF B D 53;4JFF B Y 63;3.27617
4JFF B D 53;4JFF B L 64;0.396757
4JFF B L 54;4JFF B S 55;26.8774
4JFF B L 54;4JFF B F 56;0.0442672
4JFF B L 54;4JFF B F 62;17.4364
4JFF B L 54;4JFF B Y 63;1.96984
4JFF B L 54;4JFF B L 64;24.8449
4JFF B S 55;4JFF B F 56;27.6764
4JFF B S 55;4JFF B F 62;8.35604
4JFF B S 55;4JFF B Y 63;31.5103
4JFF B F 56;4JFF B S 57;28.8597
4JFF B F 56;4JFF B W 60;23.4794
4JFF B F 56;4JFF B S 61;6.81316
4JFF B F 56;4JFF B F 62;13.9581
4JFF B F 56;4JFF B Y 63;15.5827
4JFF B S 57;4JFF B K 58;30.4053
4JFF B S 57;4JFF B D 59;11.6279
4JFF B S 57;4JFF B W 60;10.5807
4JFF B S 57;4JFF B S 61;19.1015
4JFF B S 57;4JFF B Y 63;13.5798
4JFF B K 58;4JFF B D 59;24.9387
4JFF B K 58;4JFF B W 60;14.606
4JFF B D 59;4JFF B W 60;27.291
4JFF B D 59;4JFF B S 61;24.5525
4JFF B W 60;4JFF B S 61;18.1601
4JFF B W 60;4JFF B F 62;3.96604
4JFF B S 61;4JFF B F 62;18.8615
4JFF B S 61;4JFF B Y 63;2.36687
4JFF B F 62;4JFF B Y 63;19.4893
4JFF B F 62;4JFF B L 64;1.49118
4JFF B Y 63;4JFF B L 64;28.9737
4JFF B Y 63;4JFF B L 65;0.156474
4JFF B L 64;4JFF B L 65;20.0966
4JFF B L 64;4JFF B Y 66;23.5205
4JFF B L 65;4JFF B Y 66;23.4254
4JFF B L 65;4JFF B Y 67;19.6384
4JFF B Y 66;4JFF B Y 67;18.7276
4JFF B Y 67;4JFF B T 68;24.6477
4JFF B T 68;4JFF B E 69;36.3532
4JFF B T 68;4JFF B F 70;5.806
4JFF B E 69;4JFF B F 70;29.2341
4JFF B F 70;4JFF B T 71;32.3464
4JFF B F 70;4JFF B P 72;17.893
4JFF B F 70;4JFF B Y 78;26.5712
4JFF B F 70;4JFF B W 95;12.8423
4JFF B T 71;4JFF B P 72;25.4641
4JFF B T 71;4JFF B T 73;12.7424
4JFF B T 71;4JFF B D 76;0.535821
4JFF B T 71;4JFF B Y 78;12.5465
4JFF B P 72;4JFF B T 73;28.1115
4JFF B P 72;4JFF B Y 78;6.67553
4JFF B P 72;4JFF B W 95;12.9246
4JFF B P 72;4JFF B R 97;2.84893
4JFF B T 73;4JFF B E 74;27.1008
4JFF B T 73;4JFF B K 75;14.3948
4JFF B T 73;4JFF B D 76;32.3976
4JFF B T 73;4JFF B Y 78;3.20521
4JFF B T 73;4JFF B W 95;1.91736
4JFF B T 73;4JFF B R 97;13.0524
4JFF B E 74;4JFF B K 75;31.175
4JFF B E 74;4JFF B D 76;1.03388
4JFF B E 74;4JFF B R 97;3.0806
4JFF B K 75;4JFF B D 76;39.2896
4JFF B K 75;4JFF B E 77;10.7856
4JFF B D 76;4JFF B E 77;24.8894
4JFF B D 76;4JFF B Y 78;23.9513
4JFF B D 76;4JFF B W 95;0.615536
4JFF B D 76;4JFF B R 97;10.1008
4JFF B E 77;4JFF B Y 78;29.7534
4JFF B E 77;4JFF B A 79;0.476983
4JFF B E 77;4JFF B K 94;22.9952
4JFF B E 77;4JFF B R 97;2.23387
4JFF B Y 78;4JFF B A 79;21.53
4JFF B Y 78;4JFF B K 94;7.05313
4JFF B Y 78;4JFF B W 95;39.6585
4JFF B Y 78;4JFF B R 97;1.07323
4JFF B A 79;4JFF B C 80;19.5309
4JFF B A 79;4JFF B I 92;12.5731
4JFF B A 79;4JFF B V 93;5.84821
4JFF B A 79;4JFF B K 94;12.4815
4JFF B A 79;4JFF B W 95;3.39747
4JFF B C 80;4JFF B R 81;19.1088
4JFF B C 80;4JFF B V 82;10.9763
4JFF B C 80;4JFF B K 91;3.11866
4JFF B C 80;4JFF B I 92;6.5987
4JFF B C 80;4JFF B V 93;19.1013
4JFF B R 81;4JFF B V 82;22.6392
4JFF B R 81;4JFF B N 83;4.68666
4JFF B R 81;4JFF B P 90;20.4047
4JFF B R 81;4JFF B K 91;5.23218
4JFF B R 81;4JFF B I 92;22.0032
4JFF B V 82;4JFF B N 83;23.025
4JFF B V 82;4JFF B H 84;1.94971
4JFF B V 82;4JFF B L 87;10.4171
4JFF B V 82;4JFF B P 90;5.08992
4JFF B V 82;4JFF B K 91;19.7116
4JFF B N 83;4JFF B H 84;32.806
4JFF B N 83;4JFF B L 87;12.8811
4JFF B N 83;4JFF B S 88;0.0294931
4JFF B N 83;4JFF B Q 89;4.80721
4JFF B N 83;4JFF B P 90;27.5037
4JFF B H 84;4JFF B V 85;34.0626
4JFF B H 84;4JFF B T 86;17.8219
4JFF B H 84;4JFF B L 87;24.3086
4JFF B V 85;4JFF B T 86;26.2091
4JFF B V 85;4JFF B L 87;10.5161
4JFF B T 86;4JFF B L 87;29.2683
4JFF B T 86;4JFF B S 88;3.02753
4JFF B L 87;4JFF B S 88;29.7512
4JFF B L 87;4JFF B Q 89;17.372
4JFF B L 87;4JFF B P 90;0.612729
4JFF B L 87;4JFF B K 91;18.6718
4JFF B S 88;4JFF B Q 89;40.1005
4JFF B S 88;4JFF B P 90;0.533666
4JFF B Q 89;4JFF B P 90;48.2996
4JFF B Q 89;4JFF B K 91;5.25916
4JFF B P 90;4JFF B K 91;23.2361
4JFF B P 90;4JFF B I 92;6.90436
4JFF B K 91;4JFF B I 92;32.9565
4JFF B K 91;4JFF B V 93;15.066
4JFF B I 92;4JFF B V 93;27.9763
4JFF B I 92;4JFF B K 94;8.22447
4JFF B V 93;4JFF B K 94;28.7058
4JFF B V 93;4JFF B W 95;0.310131
4JFF B K 94;4JFF B W 95;27.968
4JFF B K 94;4JFF B D 96;7.79554
4JFF B W 95;4JFF B D 96;38.2522
4JFF B W 95;4JFF B R 97;43.7929
4JFF B W 95;4JFF B M 99;1.0942
4JFF B D 96;4JFF B R 97;32.865
4JFF B D 96;4JFF B D 98;24.9721
4JFF B D 96;4JFF B M 99;33.9683
4JFF B R 97;4JFF B D 98;24.4361
4JFF B R 97;4JFF B M 99;2.37265
4JFF B D 98;4JFF B M 99;29.035
4JFF C E 1;4JFF C L 2;20.0062
4JFF C L 2;4JFF C A 3;19.5983
4JFF C L 2;4JFF C G 4;0.826042
4JFF C A 3;4JFF C G 4;16.2418
4JFF C A 3;4JFF C I 5;8.70139
4JFF C A 3;4JFF C I 7;12.9517
4JFF C G 4;4JFF C I 5;27.3875
4JFF C I 5;4JFF C G 6;16.0837
4JFF C I 5;4JFF C I 7;9.02155
4JFF C G 6;4JFF C I 7;20.8189
4JFF C G 6;4JFF C L 8;8.86315
4JFF C I 7;4JFF C L 8;28.5386
4JFF C L 8;4JFF C T 9;27.6929
4JFF C L 8;4JFF C V 10;1.86658
4JFF C T 9;4JFF C V 10;27.5725
