V1;V2;Weight
4MNQ A G 1;4MNQ A S 2;27.9786
4MNQ A G 1;4MNQ A H 3;18.647
4MNQ A G 1;4MNQ A V 103;0.00197195
4MNQ A G 1;4MNQ A G 104;2.44758
4MNQ A G 1;4MNQ A S 105;26.9692
4MNQ A G 1;4MNQ A W 107;5.21299
4MNQ A G 1;4MNQ A E 264;18.5175
4MNQ A S 2;4MNQ A H 3;32.5809
4MNQ A S 2;4MNQ A D 29;1.54608
4MNQ A S 2;4MNQ A V 103;8.12143
4MNQ A S 2;4MNQ A G 104;11.8207
4MNQ A S 2;4MNQ A S 105;4.90341
4MNQ A S 2;4MNQ A L 110;8.38174
4MNQ A S 2;4MNQ A E 264;5.99114
4MNQ A H 3;4MNQ A S 4;22.1306
4MNQ A H 3;4MNQ A V 28;0.773502
4MNQ A H 3;4MNQ A D 29;22.4155
4MNQ A H 3;4MNQ A D 102;7.71893
4MNQ A H 3;4MNQ A V 103;24.7163
4MNQ A H 3;4MNQ A G 104;0.136456
4MNQ A H 3;4MNQ A W 107;17.1708
4MNQ A H 3;4MNQ A L 168;7.29782
4MNQ A H 3;4MNQ A L 172;23.7223
4MNQ A H 3;4MNQ A L 179;5.31954
4MNQ A H 3;4MNQ A Q 180;12.7856
4MNQ A S 4;4MNQ A M 5;20.5571
4MNQ A S 4;4MNQ A R 6;22.1676
4MNQ A S 4;4MNQ A V 28;7.28794
4MNQ A S 4;4MNQ A D 29;27.0412
4MNQ A S 4;4MNQ A C 101;5.71118
4MNQ A S 4;4MNQ A D 102;13.0708
4MNQ A S 4;4MNQ A V 103;0.0139703
4MNQ A S 4;4MNQ A L 168;13.0252
4MNQ A M 5;4MNQ A R 6;26.1084
4MNQ A M 5;4MNQ A Y 7;15.7547
4MNQ A M 5;4MNQ A Y 27;8.64439
4MNQ A M 5;4MNQ A V 28;7.8793
4MNQ A M 5;4MNQ A D 29;0.152312
4MNQ A M 5;4MNQ A F 33;6.53404
4MNQ A M 5;4MNQ A G 100;6.80025
4MNQ A M 5;4MNQ A C 101;18.2744
4MNQ A M 5;4MNQ A Y 159;4.41249
4MNQ A M 5;4MNQ A C 164;21.736
4MNQ A M 5;4MNQ A W 167;7.02668
4MNQ A M 5;4MNQ A L 168;22.0714
4MNQ A M 5;4MNQ A Y 171;13.2212
4MNQ A M 5;4MNQ C I 1;9.46381
4MNQ A R 6;4MNQ A Y 7;27.9421
4MNQ A R 6;4MNQ A F 8;22.051
4MNQ A R 6;4MNQ A V 25;0.298198
4MNQ A R 6;4MNQ A G 26;5.20496
4MNQ A R 6;4MNQ A Y 27;26.5143
4MNQ A R 6;4MNQ A D 29;0.237537
4MNQ A R 6;4MNQ A F 33;0.110245
4MNQ A R 6;4MNQ A M 98;21.4919
4MNQ A R 6;4MNQ A Y 99;5.20497
4MNQ A R 6;4MNQ A G 100;10.2371
4MNQ A R 6;4MNQ A C 101;6.97863
4MNQ A R 6;4MNQ A D 102;12.4189
4MNQ A R 6;4MNQ A Y 113;18.1556
4MNQ A Y 7;4MNQ A F 8;19.7259
4MNQ A Y 7;4MNQ A F 9;17.9574
4MNQ A Y 7;4MNQ A A 24;0.455877
4MNQ A Y 7;4MNQ A V 25;8.51363
4MNQ A Y 7;4MNQ A G 26;10.5942
4MNQ A Y 7;4MNQ A Y 27;0.0248774
4MNQ A Y 7;4MNQ A F 33;13.0165
4MNQ A Y 7;4MNQ A V 34;9.91545
4MNQ A Y 7;4MNQ A M 45;4.59645
4MNQ A Y 7;4MNQ A Y 59;2.88888
4MNQ A Y 7;4MNQ A E 63;2.80842
4MNQ A Y 7;4MNQ A R 97;0.00154044
4MNQ A Y 7;4MNQ A M 98;7.75056
4MNQ A Y 7;4MNQ A Y 99;30.4728
4MNQ A Y 7;4MNQ A G 100;1.85663
4MNQ A Y 7;4MNQ A Y 159;7.97843
4MNQ A Y 7;4MNQ A C 164;0.110332
4MNQ A Y 7;4MNQ A Y 171;2.24889
4MNQ A Y 7;4MNQ C I 1;16.0382
4MNQ A Y 7;4MNQ C L 2;22.9674
4MNQ A F 8;4MNQ A F 9;24.514
4MNQ A F 8;4MNQ A T 10;0.14208
4MNQ A F 8;4MNQ A I 23;2.50191
4MNQ A F 8;4MNQ A A 24;5.27151
4MNQ A F 8;4MNQ A V 25;26.9173
4MNQ A F 8;4MNQ A G 26;0.0311894
4MNQ A F 8;4MNQ A Y 27;19.1285
4MNQ A F 8;4MNQ A R 97;2.78419
4MNQ A F 8;4MNQ A M 98;22.5686
4MNQ A F 8;4MNQ B S 55;13.3238
4MNQ A F 8;4MNQ B F 56;41.6102
4MNQ A F 8;4MNQ B S 57;1.10009
4MNQ A F 8;4MNQ B Y 63;1.12786
4MNQ A F 9;4MNQ A T 10;20.0833
4MNQ A F 9;4MNQ A F 22;13.1833
4MNQ A F 9;4MNQ A I 23;5.81761
4MNQ A F 9;4MNQ A A 24;13.5702
4MNQ A F 9;4MNQ A V 25;0.620582
4MNQ A F 9;4MNQ A V 67;5.2821
4MNQ A F 9;4MNQ A H 70;19.3396
4MNQ A F 9;4MNQ A H 74;11.4742
4MNQ A F 9;4MNQ A V 95;0.000376879
4MNQ A F 9;4MNQ A Q 96;6.13178
4MNQ A F 9;4MNQ A R 97;30.7294
4MNQ A F 9;4MNQ A M 98;2.12663
4MNQ A F 9;4MNQ A Y 99;14.9996
4MNQ A F 9;4MNQ B F 56;8.48044
4MNQ A F 9;4MNQ C L 2;11.5955
4MNQ A T 10;4MNQ A S 11;20.1585
4MNQ A T 10;4MNQ A V 12;11.9322
4MNQ A T 10;4MNQ A R 21;1.33256
4MNQ A T 10;4MNQ A F 22;11.2186
4MNQ A T 10;4MNQ A I 23;26.3197
4MNQ A T 10;4MNQ A H 74;3.47735
4MNQ A T 10;4MNQ A T 94;6.98165
4MNQ A T 10;4MNQ A V 95;5.13893
4MNQ A T 10;4MNQ A Q 96;7.93201
4MNQ A T 10;4MNQ B S 33;1.94666
4MNQ A T 10;4MNQ B L 54;11.3366
4MNQ A T 10;4MNQ B S 55;1.47942
4MNQ A T 10;4MNQ B F 56;10.8044
4MNQ A T 10;4MNQ B F 62;14.3406
4MNQ A S 11;4MNQ A V 12;21.0547
4MNQ A S 11;4MNQ A P 20;7.28996
4MNQ A S 11;4MNQ A R 21;7.11924
4MNQ A S 11;4MNQ A F 22;12.4378
4MNQ A S 11;4MNQ A S 71;2.49781
4MNQ A S 11;4MNQ A H 74;21.8357
4MNQ A S 11;4MNQ A R 75;0.81242
4MNQ A S 11;4MNQ A L 78;12.3428
4MNQ A S 11;4MNQ A H 93;0.723232
4MNQ A S 11;4MNQ A T 94;6.52311
4MNQ A S 11;4MNQ A V 95;16.8797
4MNQ A V 12;4MNQ A S 13;22.5345
4MNQ A V 12;4MNQ A R 14;8.79495
4MNQ A V 12;4MNQ A P 20;9.98785
4MNQ A V 12;4MNQ A R 21;29.9367
4MNQ A V 12;4MNQ A L 78;2.00393
4MNQ A V 12;4MNQ A S 92;12.7263
4MNQ A V 12;4MNQ A H 93;7.30597
4MNQ A V 12;4MNQ A T 94;15.9443
4MNQ A V 12;4MNQ B P 32;1.94964
4MNQ A V 12;4MNQ B S 33;16.6
4MNQ A V 12;4MNQ B D 34;12.4159
4MNQ A V 12;4MNQ B L 54;0.472267
4MNQ A V 12;4MNQ B F 62;0.00149883
4MNQ A S 13;4MNQ A R 14;26.4875
4MNQ A S 13;4MNQ A P 15;6.82836
4MNQ A S 13;4MNQ A P 20;8.21315
4MNQ A S 13;4MNQ A L 78;21.4151
4MNQ A S 13;4MNQ A G 91;5.85632
4MNQ A S 13;4MNQ A S 92;14.0584
4MNQ A S 13;4MNQ A H 93;21.5136
4MNQ A R 14;4MNQ A P 15;28.8937
4MNQ A R 14;4MNQ A G 16;3.42094
4MNQ A R 14;4MNQ A R 17;65.4166
4MNQ A R 14;4MNQ A G 18;14.2546
4MNQ A R 14;4MNQ A E 19;14.4074
4MNQ A R 14;4MNQ A P 20;5.80896
4MNQ A R 14;4MNQ A R 21;25.3598
4MNQ A R 14;4MNQ A D 39;19.2045
4MNQ A R 14;4MNQ A S 92;0.00362014
4MNQ A P 15;4MNQ A G 16;31.4332
4MNQ A P 15;4MNQ A R 17;5.65333
4MNQ A P 15;4MNQ A E 89;19.2674
4MNQ A P 15;4MNQ A A 90;17.6787
4MNQ A P 15;4MNQ A G 91;8.86033
4MNQ A P 15;4MNQ A S 92;17.6634
4MNQ A G 16;4MNQ A R 17;37.0485
4MNQ A G 16;4MNQ A G 18;2.63079
4MNQ A R 17;4MNQ A G 18;29.127
4MNQ A R 17;4MNQ A E 19;4.7642
4MNQ A R 17;4MNQ B D 34;9.64915
4MNQ A G 18;4MNQ A E 19;31.6309
4MNQ A G 18;4MNQ A P 20;1.8153
4MNQ A G 18;4MNQ A R 75;0.243349
4MNQ A E 19;4MNQ A P 20;40.1284
4MNQ A E 19;4MNQ A R 21;0.474664
4MNQ A E 19;4MNQ A R 75;33.9015
4MNQ A P 20;4MNQ A R 21;23.4344
4MNQ A P 20;4MNQ A F 22;6.37477
4MNQ A P 20;4MNQ A S 38;7.81072
4MNQ A P 20;4MNQ A R 75;25.988
4MNQ A P 20;4MNQ A L 78;13.9175
4MNQ A R 21;4MNQ A F 22;24.1764
4MNQ A R 21;4MNQ A I 23;21.2174
4MNQ A R 21;4MNQ A D 37;7.57319
4MNQ A R 21;4MNQ A S 38;6.66284
4MNQ A R 21;4MNQ A D 39;18.4135
4MNQ A R 21;4MNQ B S 33;12.8928
4MNQ A R 21;4MNQ B D 34;15.636
4MNQ A R 21;4MNQ B L 54;12.7944
4MNQ A F 22;4MNQ A I 23;29.1682
4MNQ A F 22;4MNQ A A 24;10.1899
4MNQ A F 22;4MNQ A F 36;19.5166
4MNQ A F 22;4MNQ A D 37;6.08581
4MNQ A F 22;4MNQ A S 38;22.1622
4MNQ A F 22;4MNQ A V 67;12.6896
4MNQ A F 22;4MNQ A H 70;8.36589
4MNQ A F 22;4MNQ A S 71;28.0504
4MNQ A F 22;4MNQ A H 74;8.13691
4MNQ A I 23;4MNQ A A 24;21.7331
4MNQ A I 23;4MNQ A V 25;9.85649
4MNQ A I 23;4MNQ A R 35;2.06233
4MNQ A I 23;4MNQ A F 36;8.40117
4MNQ A I 23;4MNQ A D 37;22.951
4MNQ A I 23;4MNQ B D 53;5.33618
4MNQ A I 23;4MNQ B L 54;33.6583
4MNQ A A 24;4MNQ A V 25;24.7106
4MNQ A A 24;4MNQ A V 34;0.0461097
4MNQ A A 24;4MNQ A R 35;7.47956
4MNQ A A 24;4MNQ A F 36;19.9334
4MNQ A A 24;4MNQ A M 45;3.3261
4MNQ A A 24;4MNQ A V 67;10.3032
4MNQ A A 24;4MNQ C L 2;0.560825
4MNQ A V 25;4MNQ A G 26;22.1963
4MNQ A V 25;4MNQ A Y 27;11.8866
4MNQ A V 25;4MNQ A Q 32;14.9513
4MNQ A V 25;4MNQ A V 34;8.35722
4MNQ A V 25;4MNQ A R 35;7.6151
4MNQ A V 25;4MNQ B D 53;10.0825
4MNQ A V 25;4MNQ B L 54;9.6604
4MNQ A V 25;4MNQ B S 55;8.96593
4MNQ A G 26;4MNQ A Y 27;18.5567
4MNQ A G 26;4MNQ A Q 32;5.99767
4MNQ A G 26;4MNQ A F 33;13.4575
4MNQ A G 26;4MNQ A V 34;17.8806
4MNQ A Y 27;4MNQ A V 28;19.7355
4MNQ A Y 27;4MNQ A D 29;13.7811
4MNQ A Y 27;4MNQ A D 30;14.4689
4MNQ A Y 27;4MNQ A T 31;7.61645
4MNQ A Y 27;4MNQ A Q 32;29.0623
4MNQ A Y 27;4MNQ A F 33;12.5246
4MNQ A Y 27;4MNQ B D 53;0.558631
4MNQ A Y 27;4MNQ B S 55;12.7176
4MNQ A Y 27;4MNQ B Y 63;20.5872
4MNQ A V 28;4MNQ A D 29;29.4435
4MNQ A V 28;4MNQ A D 30;1.01395
4MNQ A V 28;4MNQ A T 31;18.8822
4MNQ A V 28;4MNQ A F 33;11.0389
4MNQ A V 28;4MNQ A W 51;11.315
4MNQ A V 28;4MNQ A L 168;10.5056
4MNQ A V 28;4MNQ A Y 171;9.65035
4MNQ A V 28;4MNQ A L 172;7.01465
4MNQ A V 28;4MNQ A L 179;20.4502
4MNQ A V 28;4MNQ A Y 209;1.51634
4MNQ A D 29;4MNQ A D 30;28.7905
4MNQ A D 29;4MNQ A T 31;1.43571
4MNQ A D 29;4MNQ A L 172;2.76708
4MNQ A D 29;4MNQ A L 179;11.9631
4MNQ A D 29;4MNQ A Y 209;13.8591
4MNQ A D 29;4MNQ A P 210;6.19169
4MNQ A D 30;4MNQ A T 31;20.1987
4MNQ A D 30;4MNQ A Q 32;2.77394
4MNQ A D 30;4MNQ A Y 209;17.5325
4MNQ A D 30;4MNQ A P 210;11.0195
4MNQ A D 30;4MNQ A A 211;21.8115
4MNQ A D 30;4MNQ A E 212;0.254483
4MNQ A D 30;4MNQ A F 241;19.9734
4MNQ A T 31;4MNQ A Q 32;26.9186
4MNQ A T 31;4MNQ A F 33;7.35781
4MNQ A T 31;4MNQ A A 49;7.13146
4MNQ A T 31;4MNQ A W 51;9.16855
4MNQ A T 31;4MNQ A T 178;4.96775
4MNQ A T 31;4MNQ A L 179;15.6306
4MNQ A T 31;4MNQ A R 181;4.29095
4MNQ A T 31;4MNQ A Y 209;16.6969
4MNQ A T 31;4MNQ A G 239;0.723323
4MNQ A Q 32;4MNQ A F 33;17.2607
4MNQ A Q 32;4MNQ A V 34;6.56046
4MNQ A Q 32;4MNQ A R 35;3.66527
4MNQ A Q 32;4MNQ A R 48;28.9691
4MNQ A Q 32;4MNQ A A 49;3.77949
4MNQ A Q 32;4MNQ B S 52;6.85939
4MNQ A Q 32;4MNQ B D 53;21.4901
4MNQ A Q 32;4MNQ B S 55;0.0379014
4MNQ A F 33;4MNQ A V 34;37.7224
4MNQ A F 33;4MNQ A P 47;2.17458
4MNQ A F 33;4MNQ A R 48;11.6299
4MNQ A F 33;4MNQ A A 49;11.7292
4MNQ A F 33;4MNQ A W 51;16.405
4MNQ A F 33;4MNQ A I 52;22.9207
4MNQ A F 33;4MNQ A Y 59;5.67709
4MNQ A F 33;4MNQ A Y 171;13.6706
4MNQ A V 34;4MNQ A R 35;22.9195
4MNQ A V 34;4MNQ A M 45;22.3263
4MNQ A V 34;4MNQ A E 46;7.81754
4MNQ A V 34;4MNQ A P 47;3.18066
4MNQ A V 34;4MNQ A R 48;7.50363
4MNQ A V 34;4MNQ A I 52;3.19416
4MNQ A V 34;4MNQ A Y 59;6.18567
4MNQ A V 34;4MNQ A W 60;10.3809
4MNQ A V 34;4MNQ A E 63;0.738599
4MNQ A R 35;4MNQ A F 36;26.3533
4MNQ A R 35;4MNQ A D 37;22.2876
4MNQ A R 35;4MNQ A A 40;15.7708
4MNQ A R 35;4MNQ A R 44;0.521942
4MNQ A R 35;4MNQ A M 45;12.5561
4MNQ A R 35;4MNQ A E 46;41.2555
4MNQ A R 35;4MNQ A R 48;32.2312
4MNQ A R 35;4MNQ B D 53;23.6684
4MNQ A F 36;4MNQ A D 37;31.7195
4MNQ A F 36;4MNQ A S 38;13.3638
4MNQ A F 36;4MNQ A Q 43;18.4245
4MNQ A F 36;4MNQ A R 44;14.888
4MNQ A F 36;4MNQ A M 45;14.919
4MNQ A F 36;4MNQ A E 46;0.76741
4MNQ A F 36;4MNQ A T 64;2.73899
4MNQ A F 36;4MNQ A V 67;19.0371
4MNQ A F 36;4MNQ A K 68;19.1607
4MNQ A F 36;4MNQ A S 71;3.10698
4MNQ A D 37;4MNQ A S 38;17.3493
4MNQ A D 37;4MNQ A D 39;17.0347
4MNQ A D 37;4MNQ A A 40;23.528
4MNQ A D 37;4MNQ A Q 43;5.34332
4MNQ A D 37;4MNQ A R 44;0.852615
4MNQ A D 37;4MNQ B D 53;4.78965
4MNQ A D 37;4MNQ B L 54;0.300297
4MNQ A S 38;4MNQ A D 39;30.2266
4MNQ A S 38;4MNQ A A 40;2.26391
4MNQ A S 38;4MNQ A Q 43;22.6786
4MNQ A D 39;4MNQ A A 40;29.3166
4MNQ A D 39;4MNQ A A 41;0.128124
4MNQ A D 39;4MNQ A Q 43;0.0877543
4MNQ A A 40;4MNQ A A 41;32.0772
4MNQ A A 40;4MNQ A S 42;7.29881
4MNQ A A 40;4MNQ A Q 43;19.3782
4MNQ A A 40;4MNQ A R 44;0.458498
4MNQ A A 40;4MNQ A E 46;5.43917
4MNQ A A 41;4MNQ A S 42;30.8341
4MNQ A A 41;4MNQ A Q 43;7.99846
4MNQ A S 42;4MNQ A Q 43;27.6151
4MNQ A S 42;4MNQ A R 44;32.0667
4MNQ A S 42;4MNQ A E 46;20.0943
4MNQ A Q 43;4MNQ A R 44;22.3945
4MNQ A Q 43;4MNQ A T 64;3.71792
4MNQ A Q 43;4MNQ A K 68;21.0976
4MNQ A R 44;4MNQ A M 45;25.4435
4MNQ A R 44;4MNQ A E 46;12.5456
4MNQ A R 44;4MNQ A W 60;16.3767
4MNQ A R 44;4MNQ A D 61;18.3433
4MNQ A R 44;4MNQ A T 64;28.4533
4MNQ A M 45;4MNQ A E 46;21.2663
4MNQ A M 45;4MNQ A P 47;1.51468
4MNQ A M 45;4MNQ A W 60;22.7803
4MNQ A M 45;4MNQ A E 63;20.2506
4MNQ A M 45;4MNQ A T 64;16.1306
4MNQ A M 45;4MNQ A V 67;17.959
4MNQ A M 45;4MNQ C L 2;12.3881
4MNQ A E 46;4MNQ A P 47;33.6468
4MNQ A E 46;4MNQ A R 48;7.02628
4MNQ A E 46;4MNQ A W 60;3.6754
4MNQ A P 47;4MNQ A R 48;29.245
4MNQ A P 47;4MNQ A A 49;1.54781
4MNQ A P 47;4MNQ A I 52;10.4287
4MNQ A P 47;4MNQ A E 53;25.1923
4MNQ A P 47;4MNQ A W 60;22.217
4MNQ A R 48;4MNQ A A 49;28.273
4MNQ A R 48;4MNQ A P 50;0.449875
4MNQ A R 48;4MNQ A I 52;0.861921
4MNQ A R 48;4MNQ A E 53;0.447041
4MNQ A R 48;4MNQ B H 51;3.39611
4MNQ A R 48;4MNQ B S 52;4.37511
4MNQ A R 48;4MNQ B D 53;19.1724
4MNQ A A 49;4MNQ A P 50;27.6698
4MNQ A A 49;4MNQ A W 51;17.6649
4MNQ A A 49;4MNQ A I 52;15.9631
4MNQ A A 49;4MNQ A E 53;10.8983
4MNQ A P 50;4MNQ A W 51;31.4798
4MNQ A P 50;4MNQ A I 52;1.27458
4MNQ A P 50;4MNQ A E 53;28.4131
4MNQ A P 50;4MNQ A Q 54;3.27867
4MNQ A P 50;4MNQ A T 178;6.14586
4MNQ A W 51;4MNQ A I 52;36.5264
4MNQ A W 51;4MNQ A E 53;1.59007
4MNQ A W 51;4MNQ A Q 54;25.0137
4MNQ A W 51;4MNQ A E 55;1.80938
4MNQ A W 51;4MNQ A Y 171;19.3683
4MNQ A W 51;4MNQ A N 174;18.8745
4MNQ A W 51;4MNQ A G 175;19.2559
4MNQ A W 51;4MNQ A T 178;14.5922
4MNQ A W 51;4MNQ A L 179;19.0344
4MNQ A I 52;4MNQ A E 53;19.4104
4MNQ A I 52;4MNQ A Q 54;3.20328
4MNQ A I 52;4MNQ A E 55;24.8037
4MNQ A I 52;4MNQ A Y 59;12.6679
4MNQ A I 52;4MNQ A W 60;16.6194
4MNQ A I 52;4MNQ A Y 171;11.298
4MNQ A E 53;4MNQ A Q 54;23.0639
4MNQ A E 53;4MNQ A E 55;10.1661
4MNQ A E 53;4MNQ A W 60;9.39972
4MNQ A Q 54;4MNQ A E 55;30.1321
4MNQ A Q 54;4MNQ A G 56;3.38803
4MNQ A Q 54;4MNQ A N 174;23.2154
4MNQ A Q 54;4MNQ A G 175;3.83407
4MNQ A E 55;4MNQ A G 56;30.1862
4MNQ A E 55;4MNQ A P 57;0.142081
4MNQ A E 55;4MNQ A Y 59;25.889
4MNQ A E 55;4MNQ A W 60;16.7206
4MNQ A E 55;4MNQ A W 167;6.88234
4MNQ A E 55;4MNQ A R 170;20.8208
4MNQ A E 55;4MNQ A Y 171;7.87667
4MNQ A E 55;4MNQ A N 174;10.0632
4MNQ A G 56;4MNQ A P 57;29.9123
4MNQ A G 56;4MNQ A E 58;4.67743
4MNQ A G 56;4MNQ A Y 59;14.6834
4MNQ A G 56;4MNQ A W 60;10.416
4MNQ A P 57;4MNQ A E 58;25.5002
4MNQ A P 57;4MNQ A Y 59;0.61245
4MNQ A P 57;4MNQ A W 60;14.0642
4MNQ A P 57;4MNQ A D 61;19.0279
4MNQ A E 58;4MNQ A Y 59;25.6548
4MNQ A E 58;4MNQ A W 60;1.28241
4MNQ A E 58;4MNQ A D 61;18.2185
4MNQ A E 58;4MNQ A G 62;11.5247
4MNQ A Y 59;4MNQ A W 60;36.162
4MNQ A Y 59;4MNQ A D 61;0.523869
4MNQ A Y 59;4MNQ A G 62;4.4585
4MNQ A Y 59;4MNQ A E 63;32.9225
4MNQ A Y 59;4MNQ A W 167;14.1293
4MNQ A Y 59;4MNQ A Y 171;12.5141
4MNQ A Y 59;4MNQ C I 1;17.2437
4MNQ A W 60;4MNQ A D 61;16.8222
4MNQ A W 60;4MNQ A G 62;0.409287
4MNQ A W 60;4MNQ A E 63;10.6305
4MNQ A W 60;4MNQ A T 64;11.8752
4MNQ A D 61;4MNQ A G 62;20.1091
4MNQ A D 61;4MNQ A E 63;1.04059
4MNQ A D 61;4MNQ A T 64;9.49131
4MNQ A D 61;4MNQ A R 65;9.90805
4MNQ A G 62;4MNQ A E 63;16.5923
4MNQ A G 62;4MNQ A T 64;0.844563
4MNQ A G 62;4MNQ A R 65;4.91433
4MNQ A G 62;4MNQ A K 66;19.8961
4MNQ A E 63;4MNQ A T 64;15.4347
4MNQ A E 63;4MNQ A R 65;0.602674
4MNQ A E 63;4MNQ A K 66;16.9632
4MNQ A E 63;4MNQ A V 67;8.64877
4MNQ A E 63;4MNQ C I 1;16.8167
4MNQ A E 63;4MNQ C L 2;22.0349
4MNQ A T 64;4MNQ A R 65;20.7298
4MNQ A T 64;4MNQ A K 66;0.544892
4MNQ A T 64;4MNQ A V 67;10.9961
4MNQ A T 64;4MNQ A K 68;27.2017
4MNQ A R 65;4MNQ A K 66;18.4106
4MNQ A R 65;4MNQ A V 67;0.724532
4MNQ A R 65;4MNQ A K 68;23.3162
4MNQ A R 65;4MNQ A A 69;16.3383
4MNQ A R 65;4MNQ A Q 72;20.4934
4MNQ A K 66;4MNQ A V 67;14.582
4MNQ A K 66;4MNQ A K 68;0.992149
4MNQ A K 66;4MNQ A A 69;7.93068
4MNQ A K 66;4MNQ A H 70;12.2726
4MNQ A K 66;4MNQ C I 1;7.04509
4MNQ A K 66;4MNQ C L 2;24.952
4MNQ A K 66;4MNQ C A 3;9.4179
4MNQ A K 66;4MNQ C K 4;15.9381
4MNQ A V 67;4MNQ A K 68;18.5563
4MNQ A V 67;4MNQ A A 69;1.26725
4MNQ A V 67;4MNQ A H 70;12.043
4MNQ A V 67;4MNQ A S 71;7.03468
4MNQ A V 67;4MNQ C L 2;16.776
4MNQ A K 68;4MNQ A A 69;13.1464
4MNQ A K 68;4MNQ A H 70;0.508939
4MNQ A K 68;4MNQ A S 71;17.3882
4MNQ A K 68;4MNQ A Q 72;18.9516
4MNQ A A 69;4MNQ A H 70;21.3575
4MNQ A A 69;4MNQ A S 71;0.927709
4MNQ A A 69;4MNQ A Q 72;17.3274
4MNQ A A 69;4MNQ A T 73;12.5931
4MNQ A A 69;4MNQ C F 5;3.43234
4MNQ A A 69;4MNQ C L 6;11.7893
4MNQ A H 70;4MNQ A S 71;16.1586
4MNQ A H 70;4MNQ A Q 72;1.45507
4MNQ A H 70;4MNQ A T 73;10.3255
4MNQ A H 70;4MNQ A H 74;10.5081
4MNQ A H 70;4MNQ A R 97;24.3608
4MNQ A H 70;4MNQ A Y 99;13.7565
4MNQ A H 70;4MNQ C L 2;8.50281
4MNQ A H 70;4MNQ C A 3;11.0334
4MNQ A H 70;4MNQ C F 5;15.7913
4MNQ A S 71;4MNQ A Q 72;21.5429
4MNQ A S 71;4MNQ A T 73;0.536501
4MNQ A S 71;4MNQ A H 74;8.00241
4MNQ A S 71;4MNQ A R 75;12.9932
4MNQ A Q 72;4MNQ A T 73;17.9232
4MNQ A Q 72;4MNQ A H 74;0.463925
4MNQ A Q 72;4MNQ A R 75;11.5977
4MNQ A Q 72;4MNQ A V 76;10.2475
4MNQ A Q 72;4MNQ C W 8;8.24191
4MNQ A T 73;4MNQ A H 74;17.447
4MNQ A T 73;4MNQ A R 75;1.55563
4MNQ A T 73;4MNQ A V 76;6.26391
4MNQ A T 73;4MNQ A D 77;18.0032
4MNQ A T 73;4MNQ A R 97;12.9476
4MNQ A T 73;4MNQ A Y 116;0.385451
4MNQ A T 73;4MNQ C F 5;2.44227
4MNQ A T 73;4MNQ C L 6;12.5775
4MNQ A T 73;4MNQ C H 7;15.8116
4MNQ A T 73;4MNQ C W 8;24.0271
4MNQ A H 74;4MNQ A R 75;18.7779
4MNQ A H 74;4MNQ A V 76;0.414152
4MNQ A H 74;4MNQ A D 77;15.5156
4MNQ A H 74;4MNQ A L 78;13.0885
4MNQ A H 74;4MNQ A V 95;21.5978
4MNQ A H 74;4MNQ A Q 96;2.46214
4MNQ A H 74;4MNQ A R 97;22.8141
4MNQ A H 74;4MNQ A Y 116;5.89104
4MNQ A R 75;4MNQ A V 76;27.8407
4MNQ A R 75;4MNQ A D 77;1.01164
4MNQ A R 75;4MNQ A L 78;12.1089
4MNQ A R 75;4MNQ A G 79;6.81086
4MNQ A V 76;4MNQ A D 77;18.4443
4MNQ A V 76;4MNQ A L 78;0.815111
4MNQ A V 76;4MNQ A G 79;8.15185
4MNQ A V 76;4MNQ A T 80;21.3892
4MNQ A V 76;4MNQ C W 8;20.7312
4MNQ A D 77;4MNQ A L 78;17.252
4MNQ A D 77;4MNQ A G 79;1.01801
4MNQ A D 77;4MNQ A T 80;12.4917
4MNQ A D 77;4MNQ A L 81;15.5924
4MNQ A D 77;4MNQ A V 95;9.8542
4MNQ A D 77;4MNQ A R 97;0.334046
4MNQ A D 77;4MNQ A Y 116;7.86878
4MNQ A D 77;4MNQ C H 7;3.04679
4MNQ A D 77;4MNQ C W 8;11.1805
4MNQ A D 77;4MNQ C L 9;27.2602
4MNQ A L 78;4MNQ A G 79;19.9534
4MNQ A L 78;4MNQ A T 80;0.666504
4MNQ A L 78;4MNQ A L 81;6.62384
4MNQ A L 78;4MNQ A R 82;13.4638
4MNQ A L 78;4MNQ A H 93;14.3669
4MNQ A L 78;4MNQ A T 94;2.12908
4MNQ A L 78;4MNQ A V 95;18.9893
4MNQ A L 78;4MNQ A Y 118;8.97265
4MNQ A G 79;4MNQ A T 80;21.4343
4MNQ A G 79;4MNQ A L 81;0.577477
4MNQ A G 79;4MNQ A R 82;24.6377
4MNQ A G 79;4MNQ A G 83;8.82164
4MNQ A T 80;4MNQ A L 81;18.7862
4MNQ A T 80;4MNQ A R 82;1.08785
4MNQ A T 80;4MNQ A G 83;7.14753
4MNQ A T 80;4MNQ A Y 84;32.8902
4MNQ A T 80;4MNQ A K 146;2.55064
4MNQ A T 80;4MNQ C W 8;0.719309
4MNQ A T 80;4MNQ C L 9;16.912
4MNQ A L 81;4MNQ A R 82;17.8074
4MNQ A L 81;4MNQ A G 83;0.963027
4MNQ A L 81;4MNQ A Y 84;19.8221
4MNQ A L 81;4MNQ A Y 85;21.5755
4MNQ A L 81;4MNQ A Q 87;1.86973
4MNQ A L 81;4MNQ A V 95;9.1048
4MNQ A L 81;4MNQ A A 117;0.207995
4MNQ A L 81;4MNQ A Y 118;30.0692
4MNQ A L 81;4MNQ A Y 123;15.6366
4MNQ A L 81;4MNQ C L 9;20.2302
4MNQ A R 82;4MNQ A G 83;24.7181
4MNQ A R 82;4MNQ A Y 84;0.229699
4MNQ A R 82;4MNQ A Y 85;1.71696
4MNQ A R 82;4MNQ A N 86;6.74301
4MNQ A R 82;4MNQ A Q 87;34.3457
4MNQ A R 82;4MNQ A S 88;9.58111
4MNQ A R 82;4MNQ A E 89;33.9343
4MNQ A R 82;4MNQ A G 91;0.63632
4MNQ A R 82;4MNQ A H 93;9.17663
4MNQ A R 82;4MNQ A Y 118;6.51878
4MNQ A G 83;4MNQ A Y 84;23.5307
4MNQ A G 83;4MNQ A Y 85;1.40775
4MNQ A G 83;4MNQ A N 86;15.7037
4MNQ A Y 84;4MNQ A Y 85;26.776
4MNQ A Y 84;4MNQ A N 86;3.90361
4MNQ A Y 84;4MNQ A Y 123;7.64181
4MNQ A Y 84;4MNQ A A 139;25.8381
4MNQ A Y 84;4MNQ A T 142;23.5284
4MNQ A Y 84;4MNQ A T 143;4.89787
4MNQ A Y 84;4MNQ A K 146;9.70953
4MNQ A Y 84;4MNQ C L 9;12.1416
4MNQ A Y 85;4MNQ A N 86;26.6586
4MNQ A Y 85;4MNQ A Q 87;23.8855
4MNQ A Y 85;4MNQ A Y 118;20.8329
4MNQ A Y 85;4MNQ A K 121;4.40712
4MNQ A Y 85;4MNQ A Y 123;17.524
4MNQ A Y 85;4MNQ A D 137;21.9507
4MNQ A Y 85;4MNQ A A 139;17.7064
4MNQ A Y 85;4MNQ A A 140;0.184527
4MNQ A N 86;4MNQ A Q 87;25.536
4MNQ A N 86;4MNQ A S 88;1.33983
4MNQ A Q 87;4MNQ A S 88;34.8384
4MNQ A Q 87;4MNQ A E 89;0.0499258
4MNQ A Q 87;4MNQ A H 93;23.2406
4MNQ A Q 87;4MNQ A Y 118;14.7353
4MNQ A Q 87;4MNQ A D 119;6.20717
4MNQ A Q 87;4MNQ B M 0;3.47249
4MNQ A S 88;4MNQ A E 89;24.4902
4MNQ A S 88;4MNQ A A 90;19.8507
4MNQ A S 88;4MNQ A G 91;11.0016
4MNQ A S 88;4MNQ A H 93;5.30971
4MNQ A E 89;4MNQ A A 90;23.3196
4MNQ A E 89;4MNQ A G 91;7.16599
4MNQ A A 90;4MNQ A G 91;25.1087
4MNQ A A 90;4MNQ A S 92;0.411624
4MNQ A G 91;4MNQ A S 92;22.2626
4MNQ A G 91;4MNQ A H 93;20.3416
4MNQ A S 92;4MNQ A H 93;28.4506
4MNQ A S 92;4MNQ A D 119;0.492183
4MNQ A S 92;4MNQ B M 0;11.7684
4MNQ A S 92;4MNQ B D 34;2.64268
4MNQ A H 93;4MNQ A T 94;21.9072
4MNQ A H 93;4MNQ A Y 118;17.1148
4MNQ A H 93;4MNQ A D 119;15.5816
4MNQ A H 93;4MNQ B M 0;11.4229
4MNQ A T 94;4MNQ A V 95;23.1481
4MNQ A T 94;4MNQ A Q 96;12.0835
4MNQ A T 94;4MNQ A A 117;0.228963
4MNQ A T 94;4MNQ A Y 118;10.353
4MNQ A T 94;4MNQ A D 119;19.7647
4MNQ A T 94;4MNQ A G 120;1.33807
4MNQ A T 94;4MNQ B H 31;12.0333
4MNQ A T 94;4MNQ B P 32;9.32732
4MNQ A T 94;4MNQ B S 33;4.4757
4MNQ A T 94;4MNQ B F 62;8.03704
4MNQ A V 95;4MNQ A Q 96;25.0168
4MNQ A V 95;4MNQ A R 97;0.00709723
4MNQ A V 95;4MNQ A Y 116;9.58688
4MNQ A V 95;4MNQ A A 117;8.71053
4MNQ A V 95;4MNQ A Y 118;9.04551
4MNQ A V 95;4MNQ C L 9;6.16878
4MNQ A Q 96;4MNQ A R 97;17.9428
4MNQ A Q 96;4MNQ A Q 115;0.0290596
4MNQ A Q 96;4MNQ A Y 116;8.84426
4MNQ A Q 96;4MNQ A A 117;24.046
4MNQ A Q 96;4MNQ A Y 118;0.050282
4MNQ A Q 96;4MNQ A D 119;0.0226519
4MNQ A Q 96;4MNQ A G 120;6.46065
4MNQ A Q 96;4MNQ B H 31;7.71874
4MNQ A Q 96;4MNQ B F 56;19.1323
4MNQ A Q 96;4MNQ B W 60;27.2035
4MNQ A Q 96;4MNQ B F 62;10.2547
4MNQ A R 97;4MNQ A M 98;23.3344
4MNQ A R 97;4MNQ A Y 99;13.2439
4MNQ A R 97;4MNQ A H 114;9.72912
4MNQ A R 97;4MNQ A Q 115;8.78682
4MNQ A R 97;4MNQ A Y 116;34.4214
4MNQ A R 97;4MNQ B F 56;6.80019
4MNQ A R 97;4MNQ B W 60;3.08283
4MNQ A R 97;4MNQ C F 5;13.376
4MNQ A R 97;4MNQ C H 7;7.92284
4MNQ A M 98;4MNQ A Y 99;27.2551
4MNQ A M 98;4MNQ A G 100;1.19534
4MNQ A M 98;4MNQ A Y 113;18.4111
4MNQ A M 98;4MNQ A H 114;5.73714
4MNQ A M 98;4MNQ A Q 115;29.2581
4MNQ A M 98;4MNQ B F 56;7.96665
4MNQ A M 98;4MNQ B K 58;1.32987
4MNQ A M 98;4MNQ B W 60;10.5928
4MNQ A Y 99;4MNQ A G 100;22.0604
4MNQ A Y 99;4MNQ A Y 113;8.37146
4MNQ A Y 99;4MNQ A H 114;14.8192
4MNQ A Y 99;4MNQ A Y 159;17.0862
4MNQ A Y 99;4MNQ A L 160;6.91325
4MNQ A Y 99;4MNQ C L 2;8.92189
4MNQ A Y 99;4MNQ C A 3;14.0764
4MNQ A Y 99;4MNQ C F 5;18.9754
4MNQ A G 100;4MNQ A C 101;18.0784
4MNQ A G 100;4MNQ A G 112;5.09122
4MNQ A G 100;4MNQ A Y 113;18.7256
4MNQ A G 100;4MNQ A Y 159;1.51018
4MNQ A G 100;4MNQ A L 160;12.8633
4MNQ A G 100;4MNQ A C 164;6.73121
4MNQ A C 101;4MNQ A D 102;22.4679
4MNQ A C 101;4MNQ A V 103;3.44005
4MNQ A C 101;4MNQ A F 109;5.92919
4MNQ A C 101;4MNQ A R 111;3.67064
4MNQ A C 101;4MNQ A G 112;1.95919
4MNQ A C 101;4MNQ A Y 113;2.20213
4MNQ A C 101;4MNQ A L 160;9.23417
4MNQ A C 101;4MNQ A C 164;21.1785
4MNQ A C 101;4MNQ A V 165;13.758
4MNQ A C 101;4MNQ A L 168;7.27525
4MNQ A D 102;4MNQ A V 103;22.744
4MNQ A D 102;4MNQ A F 109;4.4837
4MNQ A D 102;4MNQ A L 110;18.9387
4MNQ A D 102;4MNQ A R 111;26.9155
4MNQ A D 102;4MNQ A Y 113;15.8755
4MNQ A D 102;4MNQ A V 165;0.556275
4MNQ A D 102;4MNQ A L 168;0.612518
4MNQ A V 103;4MNQ A G 104;21.4183
4MNQ A V 103;4MNQ A W 107;23.4585
4MNQ A V 103;4MNQ A R 108;6.66545
4MNQ A V 103;4MNQ A F 109;4.64434
4MNQ A V 103;4MNQ A L 110;8.9127
4MNQ A V 103;4MNQ A V 165;14.7611
4MNQ A V 103;4MNQ A L 168;17.7172
4MNQ A V 103;4MNQ A R 169;2.14037
4MNQ A V 103;4MNQ A L 172;4.74143
4MNQ A G 104;4MNQ A S 105;20.7069
4MNQ A G 104;4MNQ A D 106;9.39846
4MNQ A G 104;4MNQ A W 107;11.5301
4MNQ A G 104;4MNQ A R 108;5.3895
4MNQ A G 104;4MNQ A L 110;19.9768
4MNQ A S 105;4MNQ A D 106;28.1903
4MNQ A S 105;4MNQ A W 107;15.8173
4MNQ A D 106;4MNQ A W 107;21.6603
4MNQ A D 106;4MNQ A R 108;36.4421
4MNQ A D 106;4MNQ A L 110;2.06427
4MNQ A D 106;4MNQ A R 169;6.31811
4MNQ A W 107;4MNQ A R 108;19.8057
4MNQ A W 107;4MNQ A F 109;0.718724
4MNQ A W 107;4MNQ A V 165;5.09572
4MNQ A W 107;4MNQ A R 169;43.3368
4MNQ A W 107;4MNQ A L 172;23.6203
4MNQ A W 107;4MNQ A E 173;16.0142
4MNQ A W 107;4MNQ A Q 180;21.6733
4MNQ A R 108;4MNQ A F 109;41.4312
4MNQ A R 108;4MNQ A L 110;4.33569
4MNQ A R 108;4MNQ A E 161;7.01031
4MNQ A R 108;4MNQ A V 165;15.216
4MNQ A R 108;4MNQ A R 169;23.8753
4MNQ A F 109;4MNQ A L 110;36.9384
4MNQ A F 109;4MNQ A R 111;15.0328
4MNQ A F 109;4MNQ A G 112;9.88186
4MNQ A F 109;4MNQ A L 130;15.7499
4MNQ A F 109;4MNQ A L 160;12.6779
4MNQ A F 109;4MNQ A E 161;28.2934
4MNQ A F 109;4MNQ A V 165;17.0228
4MNQ A L 110;4MNQ A R 111;32.6728
4MNQ A R 111;4MNQ A G 112;29.7474
4MNQ A R 111;4MNQ A Y 113;34.5092
4MNQ A R 111;4MNQ A E 128;16.7396
4MNQ A G 112;4MNQ A Y 113;30.5385
4MNQ A G 112;4MNQ A L 126;3.72115
4MNQ A G 112;4MNQ A K 127;4.17519
4MNQ A G 112;4MNQ A E 128;1.61429
4MNQ A G 112;4MNQ A L 130;15.3028
4MNQ A G 112;4MNQ A L 160;9.82987
4MNQ A Y 113;4MNQ A H 114;23.5083
4MNQ A Y 113;4MNQ A Q 115;19.1441
4MNQ A Y 113;4MNQ A L 126;6.63085
4MNQ A Y 113;4MNQ A L 160;12.0112
4MNQ A H 114;4MNQ A Q 115;28.4649
4MNQ A H 114;4MNQ A Y 116;15.0934
4MNQ A H 114;4MNQ A I 124;2.94355
4MNQ A H 114;4MNQ A A 125;3.77083
4MNQ A H 114;4MNQ A L 126;26.3177
4MNQ A H 114;4MNQ A W 133;9.40235
4MNQ A H 114;4MNQ A W 147;11.5578
4MNQ A H 114;4MNQ A V 152;0.544618
4MNQ A H 114;4MNQ A L 156;19.6969
4MNQ A H 114;4MNQ A L 160;5.58202
4MNQ A H 114;4MNQ C F 5;9.28865
4MNQ A H 114;4MNQ C H 7;10.7622
4MNQ A Q 115;4MNQ A Y 116;22.6857
4MNQ A Q 115;4MNQ A D 122;5.94735
4MNQ A Q 115;4MNQ A I 124;5.30962
4MNQ A Q 115;4MNQ A A 125;22.2872
4MNQ A Q 115;4MNQ A L 126;4.92771
4MNQ A Q 115;4MNQ B K 58;3.50186
4MNQ A Q 115;4MNQ B W 60;25.2291
4MNQ A Y 116;4MNQ A A 117;19.0358
4MNQ A Y 116;4MNQ A D 122;3.49877
4MNQ A Y 116;4MNQ A Y 123;14.6322
4MNQ A Y 116;4MNQ A I 124;26.4658
4MNQ A Y 116;4MNQ A A 125;0.0216396
4MNQ A Y 116;4MNQ A W 147;11.1635
4MNQ A Y 116;4MNQ B W 60;9.41272
4MNQ A Y 116;4MNQ C H 7;12.97
4MNQ A Y 116;4MNQ C L 9;25.6923
4MNQ A A 117;4MNQ A Y 118;21.9259
4MNQ A A 117;4MNQ A G 120;5.85192
4MNQ A A 117;4MNQ A K 121;8.9016
4MNQ A A 117;4MNQ A D 122;3.43006
4MNQ A A 117;4MNQ A Y 123;6.39617
4MNQ A A 117;4MNQ B W 60;20.7937
4MNQ A A 117;4MNQ C L 9;0.729129
4MNQ A Y 118;4MNQ A D 119;39.5278
4MNQ A Y 118;4MNQ A G 120;4.20242
4MNQ A Y 118;4MNQ A K 121;20.1326
4MNQ A Y 118;4MNQ A Y 123;15.9388
4MNQ A Y 118;4MNQ C L 9;0.278365
4MNQ A D 119;4MNQ A G 120;15.8201
4MNQ A D 119;4MNQ A K 121;6.12873
4MNQ A D 119;4MNQ B M 0;35.0883
4MNQ A D 119;4MNQ B I 1;13.7303
4MNQ A D 119;4MNQ B H 31;6.67406
4MNQ A G 120;4MNQ A K 121;20.0156
4MNQ A G 120;4MNQ A D 122;0.416379
4MNQ A G 120;4MNQ B I 1;16.8706
4MNQ A G 120;4MNQ B R 3;4.4729
4MNQ A G 120;4MNQ B H 31;16.4122
4MNQ A G 120;4MNQ B D 59;4.39463
4MNQ A G 120;4MNQ B W 60;14.9948
4MNQ A K 121;4MNQ A D 122;38.8928
4MNQ A K 121;4MNQ A Y 123;2.89598
4MNQ A K 121;4MNQ A A 136;10.4399
4MNQ A K 121;4MNQ A D 137;15.0635
4MNQ A K 121;4MNQ B M 0;2.21429
4MNQ A K 121;4MNQ B I 1;23.0695
4MNQ A K 121;4MNQ B W 60;1.08333
4MNQ A D 122;4MNQ A Y 123;22.3438
4MNQ A D 122;4MNQ A I 124;1.48418
4MNQ A D 122;4MNQ A A 125;8.22301
4MNQ A D 122;4MNQ A A 136;16.4552
4MNQ A D 122;4MNQ B K 58;0.0771187
4MNQ A D 122;4MNQ B W 60;28.0391
4MNQ A Y 123;4MNQ A I 124;35.511
4MNQ A Y 123;4MNQ A T 134;0.991659
4MNQ A Y 123;4MNQ A A 135;2.8288
4MNQ A Y 123;4MNQ A A 136;15.1307
4MNQ A Y 123;4MNQ A D 137;0.162458
4MNQ A Y 123;4MNQ A A 139;7.7321
4MNQ A Y 123;4MNQ A A 140;26.4856
4MNQ A Y 123;4MNQ A T 143;14.0742
4MNQ A Y 123;4MNQ C L 9;17.8533
4MNQ A I 124;4MNQ A A 125;22.9892
4MNQ A I 124;4MNQ A W 133;20.9672
4MNQ A I 124;4MNQ A T 134;8.45533
4MNQ A I 124;4MNQ A A 135;8.14712
4MNQ A I 124;4MNQ A A 140;6.96382
4MNQ A I 124;4MNQ A T 143;11.1839
4MNQ A I 124;4MNQ A K 144;12.7655
4MNQ A I 124;4MNQ A W 147;16.879
4MNQ A I 124;4MNQ C L 9;3.69053
4MNQ A A 125;4MNQ A L 126;23.9643
4MNQ A A 125;4MNQ A K 127;2.16436
4MNQ A A 125;4MNQ A W 133;10.7814
4MNQ A A 125;4MNQ A T 134;24.2253
4MNQ A L 126;4MNQ A K 127;32.5291
4MNQ A L 126;4MNQ A L 130;27.4267
4MNQ A L 126;4MNQ A R 131;0.134739
4MNQ A L 126;4MNQ A S 132;12.9967
4MNQ A L 126;4MNQ A W 133;21.3894
4MNQ A L 126;4MNQ A A 153;5.6594
4MNQ A L 126;4MNQ A L 156;16.8343
4MNQ A L 126;4MNQ A L 160;9.18168
4MNQ A K 127;4MNQ A E 128;33.5882
4MNQ A K 127;4MNQ A D 129;22.4764
4MNQ A K 127;4MNQ A L 130;11.6164
4MNQ A K 127;4MNQ A S 132;25.5674
4MNQ A K 127;4MNQ A W 133;13.9511
4MNQ A K 127;4MNQ A T 134;22.5839
4MNQ A E 128;4MNQ A D 129;34.1329
4MNQ A E 128;4MNQ A L 130;14.7311
4MNQ A D 129;4MNQ A L 130;25.1294
4MNQ A D 129;4MNQ A R 131;34.5117
4MNQ A D 129;4MNQ A S 132;10.7538
4MNQ A D 129;4MNQ A R 157;2.15366
4MNQ A L 130;4MNQ A R 131;18.9011
4MNQ A L 130;4MNQ A S 132;0.626761
4MNQ A L 130;4MNQ A A 153;10.6647
4MNQ A L 130;4MNQ A L 156;1.86812
4MNQ A L 130;4MNQ A R 157;28.9501
4MNQ A L 130;4MNQ A L 160;12.1232
4MNQ A L 130;4MNQ A E 161;13.4913
4MNQ A R 131;4MNQ A S 132;29.9953
4MNQ A R 131;4MNQ A W 133;0.717532
4MNQ A R 131;4MNQ A A 153;12.3884
4MNQ A R 131;4MNQ A R 157;29.5393
4MNQ A S 132;4MNQ A W 133;33.5964
4MNQ A S 132;4MNQ A K 144;6.25679
4MNQ A S 132;4MNQ A E 148;13.2623
4MNQ A S 132;4MNQ A A 153;1.80718
4MNQ A W 133;4MNQ A T 134;21.0695
4MNQ A W 133;4MNQ A A 135;1.77557
4MNQ A W 133;4MNQ A K 144;30.0341
4MNQ A W 133;4MNQ A W 147;33.4935
4MNQ A W 133;4MNQ A E 148;15.6158
4MNQ A W 133;4MNQ A V 152;9.05837
4MNQ A W 133;4MNQ A A 153;17.956
4MNQ A W 133;4MNQ A L 156;8.77836
4MNQ A T 134;4MNQ A A 135;32.0293
4MNQ A T 134;4MNQ A A 136;3.5112
4MNQ A T 134;4MNQ A K 144;0.0209963
4MNQ A A 135;4MNQ A A 136;24.1279
4MNQ A A 135;4MNQ A D 137;5.54995
4MNQ A A 135;4MNQ A A 140;10.7646
4MNQ A A 135;4MNQ A Q 141;18.269
4MNQ A A 135;4MNQ A K 144;17.4013
4MNQ A A 136;4MNQ A D 137;33.6155
4MNQ A A 136;4MNQ A A 140;5.43222
4MNQ A D 137;4MNQ A M 138;23.2291
4MNQ A D 137;4MNQ A A 139;10.8054
4MNQ A D 137;4MNQ A A 140;15.7526
4MNQ A D 137;4MNQ A Q 141;18.0932
4MNQ A M 138;4MNQ A A 139;24.3527
4MNQ A M 138;4MNQ A A 140;0.510778
4MNQ A M 138;4MNQ A Q 141;33.9731
4MNQ A M 138;4MNQ A T 142;12.6769
4MNQ A A 139;4MNQ A A 140;15.5018
4MNQ A A 139;4MNQ A Q 141;0.842911
4MNQ A A 139;4MNQ A T 142;11.689
4MNQ A A 139;4MNQ A T 143;3.67351
4MNQ A A 140;4MNQ A Q 141;14.4174
4MNQ A A 140;4MNQ A T 142;1.70587
4MNQ A A 140;4MNQ A T 143;9.36039
4MNQ A A 140;4MNQ A K 144;6.48959
4MNQ A Q 141;4MNQ A T 142;17.9605
4MNQ A Q 141;4MNQ A T 143;0.535958
4MNQ A Q 141;4MNQ A K 144;16.3985
4MNQ A Q 141;4MNQ A H 145;26.8679
4MNQ A T 142;4MNQ A T 143;18.4144
4MNQ A T 142;4MNQ A K 144;0.903764
4MNQ A T 142;4MNQ A H 145;15.2375
4MNQ A T 142;4MNQ A K 146;16.9812
4MNQ A T 143;4MNQ A K 144;16.9135
4MNQ A T 143;4MNQ A H 145;0.706849
4MNQ A T 143;4MNQ A K 146;13.7587
4MNQ A T 143;4MNQ A W 147;25.2928
4MNQ A T 143;4MNQ C W 8;0.579856
4MNQ A T 143;4MNQ C L 9;22.5009
4MNQ A K 144;4MNQ A H 145;25.5736
4MNQ A K 144;4MNQ A K 146;1.38726
4MNQ A K 144;4MNQ A W 147;8.37869
4MNQ A K 144;4MNQ A E 148;31.2672
4MNQ A H 145;4MNQ A K 146;21.4861
4MNQ A H 145;4MNQ A W 147;0.328455
4MNQ A H 145;4MNQ A E 148;14.851
4MNQ A H 145;4MNQ A A 149;13.6301
4MNQ A K 146;4MNQ A W 147;21.7876
4MNQ A K 146;4MNQ A E 148;1.69608
4MNQ A K 146;4MNQ A A 149;9.22325
4MNQ A K 146;4MNQ A A 150;7.44637
4MNQ A K 146;4MNQ C W 8;11.0149
4MNQ A K 146;4MNQ C L 9;14.8705
4MNQ A W 147;4MNQ A E 148;18.0919
4MNQ A W 147;4MNQ A A 149;0.358273
4MNQ A W 147;4MNQ A A 150;5.76319
4MNQ A W 147;4MNQ A H 151;4.86165
4MNQ A W 147;4MNQ A V 152;30.7982
4MNQ A W 147;4MNQ A A 153;1.69215
4MNQ A W 147;4MNQ A L 156;0.1191
4MNQ A W 147;4MNQ C H 7;16.0179
4MNQ A W 147;4MNQ C W 8;8.63619
4MNQ A W 147;4MNQ C L 9;12.1598
4MNQ A E 148;4MNQ A A 149;23.3715
4MNQ A E 148;4MNQ A A 150;1.08551
4MNQ A E 148;4MNQ A H 151;18.2568
4MNQ A A 149;4MNQ A A 150;21.4684
4MNQ A A 149;4MNQ A H 151;16.0983
4MNQ A A 150;4MNQ A H 151;23.6727
4MNQ A A 150;4MNQ A V 152;9.08857
4MNQ A H 151;4MNQ A V 152;16.3886
4MNQ A H 151;4MNQ A A 153;5.53601
4MNQ A H 151;4MNQ A E 154;32.2762
4MNQ A H 151;4MNQ A Q 155;5.5541
4MNQ A V 152;4MNQ A A 153;16.5731
4MNQ A V 152;4MNQ A E 154;0.806275
4MNQ A V 152;4MNQ A Q 155;14.3368
4MNQ A V 152;4MNQ A L 156;18.0101
4MNQ A V 152;4MNQ C H 7;18.414
4MNQ A A 153;4MNQ A E 154;21.2288
4MNQ A A 153;4MNQ A Q 155;1.08939
4MNQ A A 153;4MNQ A L 156;14.1771
4MNQ A A 153;4MNQ A R 157;16.6297
4MNQ A E 154;4MNQ A Q 155;17.1716
4MNQ A E 154;4MNQ A L 156;0.902247
4MNQ A E 154;4MNQ A R 157;24.4788
4MNQ A E 154;4MNQ A A 158;5.62654
4MNQ A Q 155;4MNQ A L 156;20.3272
4MNQ A Q 155;4MNQ A R 157;0.539097
4MNQ A Q 155;4MNQ A A 158;11.686
4MNQ A Q 155;4MNQ A Y 159;5.83423
4MNQ A Q 155;4MNQ C K 4;2.15462
4MNQ A Q 155;4MNQ C F 5;14.7858
4MNQ A Q 155;4MNQ C L 6;3.06428
4MNQ A Q 155;4MNQ C H 7;10.9782
4MNQ A L 156;4MNQ A R 157;19.3693
4MNQ A L 156;4MNQ A A 158;1.30132
4MNQ A L 156;4MNQ A Y 159;8.17865
4MNQ A L 156;4MNQ A L 160;21.1887
4MNQ A L 156;4MNQ C F 5;18.4649
4MNQ A L 156;4MNQ C H 7;10.0903
4MNQ A R 157;4MNQ A A 158;19.0203
4MNQ A R 157;4MNQ A Y 159;2.10163
4MNQ A R 157;4MNQ A L 160;6.25263
4MNQ A R 157;4MNQ A E 161;36.6217
4MNQ A R 157;4MNQ A G 162;2.59062
4MNQ A A 158;4MNQ A Y 159;18.8224
4MNQ A A 158;4MNQ A E 161;0.337373
4MNQ A A 158;4MNQ A G 162;8.98832
4MNQ A A 158;4MNQ A T 163;11.2061
4MNQ A Y 159;4MNQ A L 160;29.795
4MNQ A Y 159;4MNQ A E 161;0.163544
4MNQ A Y 159;4MNQ A G 162;3.73126
4MNQ A Y 159;4MNQ A T 163;25.1026
4MNQ A Y 159;4MNQ A C 164;30.999
4MNQ A Y 159;4MNQ C I 1;12.8652
4MNQ A Y 159;4MNQ C L 2;5.33867
4MNQ A Y 159;4MNQ C A 3;18.4005
4MNQ A Y 159;4MNQ C K 4;0.0890721
4MNQ A Y 159;4MNQ C F 5;18.5619
4MNQ A L 160;4MNQ A E 161;19.2763
4MNQ A L 160;4MNQ A G 162;3.37718
4MNQ A L 160;4MNQ A C 164;9.98909
4MNQ A L 160;4MNQ A V 165;6.29876
4MNQ A L 160;4MNQ C F 5;2.94227
4MNQ A E 161;4MNQ A G 162;23.5992
4MNQ A E 161;4MNQ A V 165;7.79091
4MNQ A G 162;4MNQ A T 163;18.374
4MNQ A G 162;4MNQ A C 164;1.4258
4MNQ A G 162;4MNQ A V 165;9.6335
4MNQ A G 162;4MNQ A E 166;17.0061
4MNQ A T 163;4MNQ A C 164;17.6555
4MNQ A T 163;4MNQ A V 165;1.12352
4MNQ A T 163;4MNQ A E 166;14.2178
4MNQ A T 163;4MNQ A W 167;21.0773
4MNQ A T 163;4MNQ C I 1;9.67396
4MNQ A T 163;4MNQ C L 2;0.3254
4MNQ A C 164;4MNQ A V 165;15.9743
4MNQ A C 164;4MNQ A E 166;0.233142
4MNQ A C 164;4MNQ A W 167;5.05884
4MNQ A C 164;4MNQ A L 168;8.37802
4MNQ A C 164;4MNQ C I 1;1.04036
4MNQ A V 165;4MNQ A E 166;22.264
4MNQ A V 165;4MNQ A W 167;1.46759
4MNQ A V 165;4MNQ A L 168;11.6886
4MNQ A V 165;4MNQ A R 169;18.815
4MNQ A E 166;4MNQ A W 167;27.4777
4MNQ A E 166;4MNQ A L 168;0.949028
4MNQ A E 166;4MNQ A R 169;16.2644
4MNQ A E 166;4MNQ A R 170;10.4483
4MNQ A W 167;4MNQ A L 168;16.9939
4MNQ A W 167;4MNQ A R 169;0.366915
4MNQ A W 167;4MNQ A R 170;44.4967
4MNQ A W 167;4MNQ A Y 171;28.688
4MNQ A W 167;4MNQ C I 1;33.5822
4MNQ A L 168;4MNQ A R 169;18.3673
4MNQ A L 168;4MNQ A R 170;2.05073
4MNQ A L 168;4MNQ A Y 171;14.0256
4MNQ A L 168;4MNQ A L 172;24.7606
4MNQ A R 169;4MNQ A R 170;19.4693
4MNQ A R 169;4MNQ A Y 171;0.163997
4MNQ A R 169;4MNQ A L 172;14.2675
4MNQ A R 169;4MNQ A E 173;23.3647
4MNQ A R 170;4MNQ A Y 171;23.959
4MNQ A R 170;4MNQ A L 172;1.26484
4MNQ A R 170;4MNQ A E 173;12.9826
4MNQ A R 170;4MNQ A N 174;27.2328
4MNQ A Y 171;4MNQ A L 172;17.4205
4MNQ A Y 171;4MNQ A E 173;1.38992
4MNQ A Y 171;4MNQ A N 174;19.2527
4MNQ A Y 171;4MNQ A G 175;1.02271
4MNQ A Y 171;4MNQ A K 176;0.0808671
4MNQ A Y 171;4MNQ A L 179;9.8849
4MNQ A Y 171;4MNQ C I 1;13.3108
4MNQ A L 172;4MNQ A E 173;17.2335
4MNQ A L 172;4MNQ A N 174;0.436054
4MNQ A L 172;4MNQ A G 175;0.625656
4MNQ A L 172;4MNQ A K 176;9.64392
4MNQ A L 172;4MNQ A L 179;17.7072
4MNQ A L 172;4MNQ A Q 180;18.5589
4MNQ A E 173;4MNQ A N 174;28.0615
4MNQ A E 173;4MNQ A G 175;2.2865
4MNQ A E 173;4MNQ A K 176;19.8862
4MNQ A E 173;4MNQ A Q 180;2.86267
4MNQ A N 174;4MNQ A G 175;20.3996
4MNQ A N 174;4MNQ A K 176;1.87592
4MNQ A N 174;4MNQ A L 179;1.47048
4MNQ A G 175;4MNQ A K 176;20.1219
4MNQ A G 175;4MNQ A E 177;8.49057
4MNQ A G 175;4MNQ A T 178;11.6127
4MNQ A G 175;4MNQ A L 179;14.1495
4MNQ A K 176;4MNQ A E 177;31.5794
4MNQ A K 176;4MNQ A T 178;3.26667
4MNQ A K 176;4MNQ A L 179;4.24691
4MNQ A K 176;4MNQ A Q 180;41.8165
4MNQ A K 176;4MNQ A R 181;2.98402
4MNQ A E 177;4MNQ A T 178;32.0155
4MNQ A E 177;4MNQ A R 181;12.45
4MNQ A T 178;4MNQ A L 179;29.3836
4MNQ A T 178;4MNQ A R 181;28.377
4MNQ A T 178;4MNQ A Y 209;3.76916
4MNQ A L 179;4MNQ A Q 180;23.7905
4MNQ A L 179;4MNQ A R 181;8.68617
4MNQ A L 179;4MNQ A Y 209;14.8081
4MNQ A Q 180;4MNQ A R 181;26.3878
4MNQ A Q 180;4MNQ A T 182;12.2432
4MNQ A R 181;4MNQ A T 182;30.8256
4MNQ A R 181;4MNQ A D 183;26.6762
4MNQ A R 181;4MNQ A Y 209;35.4346
4MNQ A R 181;4MNQ A P 210;1.02469
4MNQ A R 181;4MNQ A D 238;1.52597
4MNQ A R 181;4MNQ A G 239;19.0694
4MNQ A R 181;4MNQ A T 240;5.4465
4MNQ A T 182;4MNQ A D 183;26.3503
4MNQ A T 182;4MNQ A A 184;3.98139
4MNQ A T 182;4MNQ A Y 209;7.91005
4MNQ A T 182;4MNQ A P 210;4.14571
4MNQ A T 182;4MNQ A H 263;1.70846
4MNQ A T 182;4MNQ A E 264;19.8777
4MNQ A T 182;4MNQ A G 265;17.4959
4MNQ A D 183;4MNQ A A 184;25.6958
4MNQ A D 183;4MNQ A P 185;0.656353
4MNQ A D 183;4MNQ A S 207;11.4746
4MNQ A D 183;4MNQ A F 208;8.25361
4MNQ A D 183;4MNQ A Y 209;21.2603
4MNQ A D 183;4MNQ A T 240;3.19399
4MNQ A D 183;4MNQ A H 263;6.12185
4MNQ A D 183;4MNQ A G 265;0.353128
4MNQ A A 184;4MNQ A P 185;30.1874
4MNQ A A 184;4MNQ A K 186;9.52249
4MNQ A A 184;4MNQ A S 207;4.80207
4MNQ A A 184;4MNQ A F 208;0.389153
4MNQ A A 184;4MNQ A H 263;3.16429
4MNQ A A 184;4MNQ A G 265;19.0583
4MNQ A A 184;4MNQ A L 266;13.3444
4MNQ A A 184;4MNQ A P 267;0.0273726
4MNQ A P 185;4MNQ A K 186;24.1505
4MNQ A P 185;4MNQ A T 187;12.5383
4MNQ A P 185;4MNQ A A 205;8.64862
4MNQ A P 185;4MNQ A L 206;3.26836
4MNQ A P 185;4MNQ A S 207;4.47769
4MNQ A P 185;4MNQ A F 208;17.1102
4MNQ A P 185;4MNQ A I 213;7.38239
4MNQ A P 185;4MNQ A V 261;9.96866
4MNQ A P 185;4MNQ A H 263;14.0297
4MNQ A P 185;4MNQ A L 266;17.1135
4MNQ A P 185;4MNQ A L 270;2.82286
4MNQ A K 186;4MNQ A T 187;27.0699
4MNQ A K 186;4MNQ A H 188;1.57116
4MNQ A K 186;4MNQ A W 204;1.87395
4MNQ A K 186;4MNQ A A 205;2.45659
4MNQ A K 186;4MNQ A L 206;22.0202
4MNQ A K 186;4MNQ A S 207;32.2387
4MNQ A T 187;4MNQ A H 188;29.9263
4MNQ A T 187;4MNQ A C 203;4.63731
4MNQ A T 187;4MNQ A W 204;14.003
4MNQ A T 187;4MNQ A A 205;6.45016
4MNQ A T 187;4MNQ A V 261;12.5881
4MNQ A T 187;4MNQ A L 270;18.5758
4MNQ A T 187;4MNQ A L 272;22.1416
4MNQ A H 188;4MNQ A M 189;31.9423
4MNQ A H 188;4MNQ A T 190;14.5014
4MNQ A H 188;4MNQ A R 202;0.638398
4MNQ A H 188;4MNQ A C 203;4.60043
4MNQ A H 188;4MNQ A W 204;41.2069
4MNQ A H 188;4MNQ A L 206;15.5648
4MNQ A H 188;4MNQ A L 272;12.2132
4MNQ A H 188;4MNQ B P 14;0.904238
4MNQ A M 189;4MNQ A T 190;28.8305
4MNQ A M 189;4MNQ A L 201;13.1133
4MNQ A M 189;4MNQ A R 202;10.1651
4MNQ A M 189;4MNQ A C 203;10.6738
4MNQ A M 189;4MNQ A W 204;0.875719
4MNQ A M 189;4MNQ A W 217;14.1429
4MNQ A M 189;4MNQ A Y 257;1.22717
4MNQ A M 189;4MNQ A T 258;0.00538286
4MNQ A M 189;4MNQ A C 259;5.73716
4MNQ A M 189;4MNQ A L 272;23.2819
4MNQ A M 189;4MNQ A R 273;8.60743
4MNQ A M 189;4MNQ A W 274;30.4314
4MNQ A M 189;4MNQ A E 275;1.02767
4MNQ A T 190;4MNQ A H 191;26.9874
4MNQ A T 190;4MNQ A H 192;13.6639
4MNQ A T 190;4MNQ A T 200;2.48421
4MNQ A T 190;4MNQ A L 201;7.01062
4MNQ A T 190;4MNQ A R 202;27.2518
4MNQ A T 190;4MNQ A W 204;16.965
4MNQ A T 190;4MNQ A W 274;3.67313
4MNQ A T 190;4MNQ B D 98;4.23071
4MNQ A H 191;4MNQ A H 192;43.9906
4MNQ A H 191;4MNQ A A 193;4.56705
4MNQ A H 191;4MNQ A A 199;15.0747
4MNQ A H 191;4MNQ A T 200;9.20761
4MNQ A H 191;4MNQ A L 201;12.7354
4MNQ A H 191;4MNQ A V 249;0.0146228
4MNQ A H 191;4MNQ A E 254;19.216
4MNQ A H 191;4MNQ A W 274;34.8809
4MNQ A H 192;4MNQ A A 193;30.8511
4MNQ A H 192;4MNQ A V 194;0.397014
4MNQ A H 192;4MNQ A A 199;6.64146
4MNQ A H 192;4MNQ A T 200;29.261
4MNQ A H 192;4MNQ A R 202;11.4172
4MNQ A H 192;4MNQ B D 98;32.6232
4MNQ A H 192;4MNQ B M 99;0.118808
4MNQ A A 193;4MNQ A V 194;25.7608
4MNQ A A 193;4MNQ A S 195;15.5107
4MNQ A A 193;4MNQ A E 198;4.30418
4MNQ A A 193;4MNQ A A 199;8.95553
4MNQ A A 193;4MNQ A T 200;0.453625
4MNQ A A 193;4MNQ A S 251;0.0745713
4MNQ A V 194;4MNQ A S 195;33.6507
4MNQ A V 194;4MNQ A E 198;24.4588
4MNQ A V 194;4MNQ A A 199;7.54693
4MNQ A V 194;4MNQ A T 200;14.7566
4MNQ A V 194;4MNQ A V 248;1.44039
4MNQ A S 195;4MNQ A D 196;31.7122
4MNQ A S 195;4MNQ A H 197;15.3868
4MNQ A S 195;4MNQ A E 198;23.1953
4MNQ A S 195;4MNQ A S 251;3.21501
4MNQ A D 196;4MNQ A H 197;37.7644
4MNQ A D 196;4MNQ A E 198;0.997431
4MNQ A D 196;4MNQ A S 251;14.5054
4MNQ A H 197;4MNQ A E 198;25.4343
4MNQ A H 197;4MNQ A P 250;6.63983
4MNQ A H 197;4MNQ A S 251;11.556
4MNQ A E 198;4MNQ A A 199;22.0465
4MNQ A E 198;4MNQ A V 248;19.2208
4MNQ A E 198;4MNQ A V 249;10.8803
4MNQ A E 198;4MNQ A P 250;7.19356
4MNQ A E 198;4MNQ A S 251;12.898
4MNQ A A 199;4MNQ A T 200;22.7812
4MNQ A A 199;4MNQ A L 201;0.184128
4MNQ A A 199;4MNQ A V 247;0.278334
4MNQ A A 199;4MNQ A V 248;4.03405
4MNQ A A 199;4MNQ A V 249;25.428
4MNQ A A 199;4MNQ A P 250;0.213052
4MNQ A A 199;4MNQ A S 251;12.0317
4MNQ A A 199;4MNQ A E 254;6.91958
4MNQ A T 200;4MNQ A L 201;22.8772
4MNQ A T 200;4MNQ A R 202;21.3261
4MNQ A T 200;4MNQ A A 246;5.71195
4MNQ A T 200;4MNQ A V 247;9.62276
4MNQ A T 200;4MNQ A V 248;19.5216
4MNQ A T 200;4MNQ A V 249;0.160512
4MNQ A L 201;4MNQ A R 202;18.7889
4MNQ A L 201;4MNQ A W 217;18.7321
4MNQ A L 201;4MNQ A A 245;0.0272298
4MNQ A L 201;4MNQ A A 246;6.47792
4MNQ A L 201;4MNQ A V 247;23.3412
4MNQ A L 201;4MNQ A V 249;15.0381
4MNQ A L 201;4MNQ A E 254;19.1642
4MNQ A L 201;4MNQ A Y 257;13.7493
4MNQ A L 201;4MNQ A W 274;15.9073
4MNQ A R 202;4MNQ A C 203;19.6301
4MNQ A R 202;4MNQ A W 204;21.2057
4MNQ A R 202;4MNQ A W 217;2.74225
4MNQ A R 202;4MNQ A E 229;0.563048
4MNQ A R 202;4MNQ A W 244;32.073
4MNQ A R 202;4MNQ A A 245;5.46206
4MNQ A R 202;4MNQ A A 246;18.3891
4MNQ A R 202;4MNQ B D 98;7.61369
4MNQ A R 202;4MNQ B M 99;22.0118
4MNQ A C 203;4MNQ A W 204;23.7477
4MNQ A C 203;4MNQ A L 215;10.624
4MNQ A C 203;4MNQ A W 217;10.0286
4MNQ A C 203;4MNQ A K 243;0.0750318
4MNQ A C 203;4MNQ A W 244;8.04594
4MNQ A C 203;4MNQ A A 245;18.8727
4MNQ A C 203;4MNQ A C 259;19.8401
4MNQ A C 203;4MNQ A V 261;2.24701
4MNQ A C 203;4MNQ A L 272;10.3669
4MNQ A W 204;4MNQ A A 205;20.6522
4MNQ A W 204;4MNQ A L 206;22.7879
4MNQ A W 204;4MNQ A L 215;1.826
4MNQ A W 204;4MNQ A R 234;11.2001
4MNQ A W 204;4MNQ A Q 242;2.47567
4MNQ A W 204;4MNQ A K 243;8.80809
4MNQ A W 204;4MNQ A W 244;19.6559
4MNQ A W 204;4MNQ B R 97;3.19985
4MNQ A W 204;4MNQ B D 98;6.32592
4MNQ A W 204;4MNQ B M 99;19.1545
4MNQ A A 205;4MNQ A L 206;22.0092
4MNQ A A 205;4MNQ A F 208;11.7964
4MNQ A A 205;4MNQ A I 213;7.92637
4MNQ A A 205;4MNQ A L 215;13.3517
4MNQ A A 205;4MNQ A F 241;0.00482953
4MNQ A A 205;4MNQ A Q 242;3.87203
4MNQ A A 205;4MNQ A K 243;19.6007
4MNQ A A 205;4MNQ A V 261;4.36628
4MNQ A L 206;4MNQ A S 207;29.7544
4MNQ A L 206;4MNQ A F 208;3.75361
4MNQ A L 206;4MNQ A A 236;1.127
4MNQ A L 206;4MNQ A T 240;3.11149
4MNQ A L 206;4MNQ A F 241;7.38029
4MNQ A L 206;4MNQ A Q 242;30.252
4MNQ A L 206;4MNQ A K 243;0.261529
4MNQ A L 206;4MNQ B R 12;1.85288
4MNQ A L 206;4MNQ B P 14;22.7515
4MNQ A S 207;4MNQ A F 208;17.9616
4MNQ A S 207;4MNQ A T 240;25.243
4MNQ A S 207;4MNQ A F 241;2.117
4MNQ A F 208;4MNQ A Y 209;19.8854
4MNQ A F 208;4MNQ A P 210;7.10783
4MNQ A F 208;4MNQ A A 211;7.13377
4MNQ A F 208;4MNQ A E 212;1.00357
4MNQ A F 208;4MNQ A I 213;21.8485
4MNQ A F 208;4MNQ A T 233;8.85136
4MNQ A F 208;4MNQ A T 240;9.05057
4MNQ A F 208;4MNQ A F 241;33.8587
4MNQ A F 208;4MNQ A Q 242;7.02373
4MNQ A F 208;4MNQ A K 243;8.07562
4MNQ A F 208;4MNQ A H 263;9.10786
4MNQ A Y 209;4MNQ A P 210;41.4191
4MNQ A Y 209;4MNQ A G 239;9.35732
4MNQ A Y 209;4MNQ A T 240;4.43295
4MNQ A Y 209;4MNQ A F 241;11.8095
4MNQ A Y 209;4MNQ A H 263;8.44371
4MNQ A P 210;4MNQ A A 211;19.5275
4MNQ A P 210;4MNQ A E 212;15.6579
4MNQ A P 210;4MNQ A F 241;2.40586
4MNQ A P 210;4MNQ A H 263;15.9196
4MNQ A P 210;4MNQ A E 264;24.8507
4MNQ A A 211;4MNQ A E 212;27.4964
4MNQ A A 211;4MNQ A I 213;8.14609
4MNQ A A 211;4MNQ A T 233;18.4302
4MNQ A A 211;4MNQ A F 241;19.2098
4MNQ A E 212;4MNQ A I 213;30.5219
4MNQ A E 212;4MNQ A H 263;12.8537
4MNQ A E 212;4MNQ A E 264;3.8289
4MNQ A I 213;4MNQ A T 214;29.3616
4MNQ A I 213;4MNQ A L 215;14.4608
4MNQ A I 213;4MNQ A T 233;8.17127
4MNQ A I 213;4MNQ A K 243;19.2892
4MNQ A I 213;4MNQ A V 261;7.30342
4MNQ A I 213;4MNQ A Q 262;8.69123
4MNQ A I 213;4MNQ A H 263;14.2827
4MNQ A T 214;4MNQ A L 215;28.3984
4MNQ A T 214;4MNQ A T 216;13.5261
4MNQ A T 214;4MNQ A K 243;0.00130386
4MNQ A T 214;4MNQ A H 260;4.2746
4MNQ A T 214;4MNQ A V 261;4.34699
4MNQ A T 214;4MNQ A Q 262;33.6488
4MNQ A L 215;4MNQ A T 216;27.6053
4MNQ A L 215;4MNQ A L 230;17.6268
4MNQ A L 215;4MNQ A K 243;24.8958
4MNQ A L 215;4MNQ A W 244;6.08234
4MNQ A L 215;4MNQ A A 245;18.228
4MNQ A L 215;4MNQ A C 259;6.44921
4MNQ A L 215;4MNQ A H 260;4.17921
4MNQ A L 215;4MNQ A V 261;16.6368
4MNQ A T 216;4MNQ A W 217;30.3015
4MNQ A T 216;4MNQ A Q 218;7.24908
4MNQ A T 216;4MNQ A D 223;21.2837
4MNQ A T 216;4MNQ A Q 224;2.48019
4MNQ A T 216;4MNQ A T 228;0.810386
4MNQ A T 216;4MNQ A L 230;0.365079
4MNQ A T 216;4MNQ A A 245;1.89285
4MNQ A T 216;4MNQ A T 258;0.40945
4MNQ A T 216;4MNQ A C 259;9.19498
4MNQ A T 216;4MNQ A H 260;33.1006
4MNQ A W 217;4MNQ A Q 218;23.4677
4MNQ A W 217;4MNQ A D 223;6.28141
4MNQ A W 217;4MNQ A Q 224;24.8559
4MNQ A W 217;4MNQ A T 228;17.1577
4MNQ A W 217;4MNQ A L 230;0.320619
4MNQ A W 217;4MNQ A A 245;16.63
4MNQ A W 217;4MNQ A A 246;9.49321
4MNQ A W 217;4MNQ A V 247;22.5682
4MNQ A W 217;4MNQ A Y 257;15.8032
4MNQ A W 217;4MNQ A T 258;14.2201
4MNQ A W 217;4MNQ A C 259;19.0901
4MNQ A W 217;4MNQ A L 272;0.0474364
4MNQ A Q 218;4MNQ A R 219;17.2208
4MNQ A Q 218;4MNQ A D 220;4.80861
4MNQ A Q 218;4MNQ A G 221;33.3894
4MNQ A Q 218;4MNQ A E 222;7.07552
4MNQ A Q 218;4MNQ A D 223;18.4917
4MNQ A Q 218;4MNQ A Q 224;1.47079
4MNQ A Q 218;4MNQ A R 256;0.651653
4MNQ A Q 218;4MNQ A Y 257;6.22697
4MNQ A Q 218;4MNQ A T 258;28.3628
4MNQ A Q 218;4MNQ A H 260;27.207
4MNQ A R 219;4MNQ A D 220;30.4665
4MNQ A R 219;4MNQ A G 221;1.59265
4MNQ A R 219;4MNQ A E 222;27.5343
4MNQ A R 219;4MNQ A Q 224;24.9538
4MNQ A R 219;4MNQ A R 256;37.0923
4MNQ A R 219;4MNQ A Y 257;33.2456
4MNQ A D 220;4MNQ A G 221;26.0471
4MNQ A D 220;4MNQ A E 222;9.04744
4MNQ A D 220;4MNQ A R 256;39.0095
4MNQ A D 220;4MNQ A T 258;2.66421
4MNQ A D 220;4MNQ A R 273;0.13264
4MNQ A G 221;4MNQ A E 222;22.6524
4MNQ A G 221;4MNQ A D 223;2.94015
4MNQ A G 221;4MNQ A T 258;0.817196
4MNQ A E 222;4MNQ A D 223;32.5782
4MNQ A E 222;4MNQ A Q 224;8.41362
4MNQ A D 223;4MNQ A Q 224;29.529
4MNQ A D 223;4MNQ A T 225;23.78
4MNQ A Q 224;4MNQ A T 225;23.4728
4MNQ A Q 224;4MNQ A Q 226;17.1664
4MNQ A Q 224;4MNQ A T 228;15.749
4MNQ A Q 224;4MNQ A V 247;8.45841
4MNQ A Q 224;4MNQ A Y 257;20.7579
4MNQ A T 225;4MNQ A Q 226;36.9724
4MNQ A T 225;4MNQ A D 227;0.290203
4MNQ A T 225;4MNQ A T 228;18.8587
4MNQ A Q 226;4MNQ A D 227;32.7618
4MNQ A Q 226;4MNQ A T 228;9.99542
4MNQ A Q 226;4MNQ A V 247;2.62774
4MNQ A D 227;4MNQ A T 228;22.3361
4MNQ A D 227;4MNQ A E 229;3.68087
4MNQ A D 227;4MNQ A V 247;11.1533
4MNQ A D 227;4MNQ A V 248;41.2621
4MNQ A T 228;4MNQ A E 229;24.136
4MNQ A T 228;4MNQ A L 230;18.5893
4MNQ A T 228;4MNQ A A 245;0.57764
4MNQ A T 228;4MNQ A A 246;8.10699
4MNQ A T 228;4MNQ A V 247;8.5013
4MNQ A E 229;4MNQ A L 230;32.3773
4MNQ A E 229;4MNQ A V 231;2.09971
4MNQ A E 229;4MNQ A W 244;27.5074
4MNQ A E 229;4MNQ A A 245;2.7308
4MNQ A E 229;4MNQ A A 246;25.2351
4MNQ A E 229;4MNQ A V 247;0.558437
4MNQ A L 230;4MNQ A V 231;31.3279
4MNQ A L 230;4MNQ A E 232;0.00860239
4MNQ A L 230;4MNQ A K 243;20.6799
4MNQ A L 230;4MNQ A W 244;7.52403
4MNQ A L 230;4MNQ A A 245;15.3466
4MNQ A L 230;4MNQ A A 246;0.0413631
4MNQ A V 231;4MNQ A E 232;41.4959
4MNQ A V 231;4MNQ A T 233;0.144453
4MNQ A V 231;4MNQ A R 234;4.19229
4MNQ A V 231;4MNQ A Q 242;0.0320234
4MNQ A V 231;4MNQ A K 243;19.6564
4MNQ A V 231;4MNQ A W 244;45.7757
4MNQ A V 231;4MNQ B Q 8;21.8522
4MNQ A E 232;4MNQ A T 233;27.7473
4MNQ A E 232;4MNQ A R 234;6.40756
4MNQ A E 232;4MNQ A Q 242;0.413739
4MNQ A E 232;4MNQ A K 243;5.73198
4MNQ A E 232;4MNQ B K 6;35.1294
4MNQ A E 232;4MNQ B Q 8;23.2553
4MNQ A E 232;4MNQ B Y 26;6.40128
4MNQ A E 232;4MNQ B S 28;10.6378
4MNQ A T 233;4MNQ A R 234;20.8289
4MNQ A T 233;4MNQ A P 235;0.586598
4MNQ A T 233;4MNQ A F 241;13.6375
4MNQ A T 233;4MNQ A Q 242;5.79292
4MNQ A T 233;4MNQ A K 243;26.9824
4MNQ A T 233;4MNQ B Y 26;11.3545
4MNQ A R 234;4MNQ A P 235;24.3279
4MNQ A R 234;4MNQ A A 236;1.51424
4MNQ A R 234;4MNQ A F 241;11.0373
4MNQ A R 234;4MNQ A Q 242;43.257
4MNQ A R 234;4MNQ A K 243;3.09006
4MNQ A R 234;4MNQ A W 244;9.99362
4MNQ A R 234;4MNQ B Q 8;27.5254
4MNQ A R 234;4MNQ B V 9;0.755199
4MNQ A R 234;4MNQ B Y 10;32.9433
4MNQ A R 234;4MNQ B Y 26;10.4272
4MNQ A R 234;4MNQ B M 99;16.3416
4MNQ A P 235;4MNQ A A 236;19.6313
4MNQ A P 235;4MNQ A G 237;6.365
4MNQ A P 235;4MNQ A T 240;2.87427
4MNQ A P 235;4MNQ A F 241;21.101
4MNQ A P 235;4MNQ A Q 242;0.203234
4MNQ A P 235;4MNQ B Y 10;14.7442
4MNQ A P 235;4MNQ B N 24;2.47126
4MNQ A P 235;4MNQ B Y 26;23.9284
4MNQ A P 235;4MNQ B Y 63;1.90008
4MNQ A P 235;4MNQ B L 65;23.7009
4MNQ A A 236;4MNQ A G 237;19.8303
4MNQ A A 236;4MNQ A D 238;9.45474
4MNQ A A 236;4MNQ A T 240;22.1999
4MNQ A A 236;4MNQ A F 241;3.44481
4MNQ A A 236;4MNQ A Q 242;16.2673
4MNQ A A 236;4MNQ B Y 10;4.00642
4MNQ A A 236;4MNQ B R 12;23.526
4MNQ A A 236;4MNQ B N 24;11.4361
4MNQ A A 236;4MNQ B L 65;0.409154
4MNQ A G 237;4MNQ A D 238;23.2914
4MNQ A G 237;4MNQ A G 239;8.30863
4MNQ A G 237;4MNQ A T 240;0.85241
4MNQ A G 237;4MNQ B R 12;19.1204
4MNQ A G 237;4MNQ B N 24;1.9756
4MNQ A G 237;4MNQ B L 65;14.671
4MNQ A G 237;4MNQ B Y 67;2.35722
4MNQ A D 238;4MNQ A G 239;25.3835
4MNQ A D 238;4MNQ A T 240;21.6206
4MNQ A D 238;4MNQ B R 12;21.2554
4MNQ A D 238;4MNQ B H 13;14.8598
4MNQ A G 239;4MNQ A T 240;26.2009
4MNQ A G 239;4MNQ A F 241;5.53518
4MNQ A T 240;4MNQ A F 241;29.1259
4MNQ A F 241;4MNQ A Q 242;18.3583
4MNQ A Q 242;4MNQ A K 243;21.9667
4MNQ A Q 242;4MNQ B Y 10;11.0053
4MNQ A Q 242;4MNQ B S 11;8.95161
4MNQ A Q 242;4MNQ B R 12;13.062
4MNQ A K 243;4MNQ A W 244;28.6913
4MNQ A K 243;4MNQ A A 245;0.0311964
4MNQ A W 244;4MNQ A A 245;21.342
4MNQ A W 244;4MNQ A A 246;11.0375
4MNQ A W 244;4MNQ B Q 8;1.3217
4MNQ A W 244;4MNQ B M 99;23.007
4MNQ A A 245;4MNQ A A 246;16.5083
4MNQ A A 245;4MNQ A C 259;2.51551
4MNQ A A 246;4MNQ A V 247;23.0421
4MNQ A V 247;4MNQ A V 248;28.939
4MNQ A V 247;4MNQ A V 249;9.76649
4MNQ A V 247;4MNQ A Y 257;17.9434
4MNQ A V 248;4MNQ A V 249;23.7963
4MNQ A V 248;4MNQ A P 250;2.4455
4MNQ A V 248;4MNQ A Y 257;6.02618
4MNQ A V 249;4MNQ A P 250;39.0271
4MNQ A V 249;4MNQ A S 251;1.75902
4MNQ A V 249;4MNQ A Q 253;9.52473
4MNQ A V 249;4MNQ A E 254;11.3013
4MNQ A V 249;4MNQ A Y 257;23.1136
4MNQ A P 250;4MNQ A S 251;24.2077
4MNQ A P 250;4MNQ A G 252;0.381011
4MNQ A P 250;4MNQ A Q 253;35.6479
4MNQ A P 250;4MNQ A E 254;3.09981
4MNQ A P 250;4MNQ A R 256;0.638669
4MNQ A P 250;4MNQ A Y 257;8.17075
4MNQ A S 251;4MNQ A G 252;26.0381
4MNQ A S 251;4MNQ A Q 253;10.6453
4MNQ A S 251;4MNQ A E 254;4.34651
4MNQ A G 252;4MNQ A Q 253;26.4863
4MNQ A G 252;4MNQ A E 254;19.0112
4MNQ A Q 253;4MNQ A E 254;22.7822
4MNQ A Q 253;4MNQ A Q 255;2.82884
4MNQ A Q 253;4MNQ A R 256;37.8473
4MNQ A Q 253;4MNQ A Y 257;7.87779
4MNQ A E 254;4MNQ A Q 255;30.159
4MNQ A E 254;4MNQ A R 256;3.63229
4MNQ A E 254;4MNQ A Y 257;15.4666
4MNQ A E 254;4MNQ A R 273;0.1661
4MNQ A E 254;4MNQ A W 274;24.6369
4MNQ A Q 255;4MNQ A R 256;22.7168
4MNQ A Q 255;4MNQ A Y 257;2.61541
4MNQ A Q 255;4MNQ A R 273;35.14
4MNQ A Q 255;4MNQ A W 274;28.8054
4MNQ A Q 255;4MNQ A P 276;8.42484
4MNQ A R 256;4MNQ A Y 257;23.79
4MNQ A R 256;4MNQ A T 258;0.947696
4MNQ A R 256;4MNQ A R 273;7.28987
4MNQ A Y 257;4MNQ A T 258;22.7762
4MNQ A Y 257;4MNQ A L 272;0.0508795
4MNQ A Y 257;4MNQ A R 273;13.9949
4MNQ A Y 257;4MNQ A W 274;3.05653
4MNQ A T 258;4MNQ A C 259;18.8303
4MNQ A T 258;4MNQ A H 260;14.9309
4MNQ A T 258;4MNQ A T 271;12.6779
4MNQ A T 258;4MNQ A L 272;11.6358
4MNQ A T 258;4MNQ A R 273;25.5324
4MNQ A C 259;4MNQ A H 260;22.7226
4MNQ A C 259;4MNQ A V 261;7.05858
4MNQ A C 259;4MNQ A L 270;0.0433197
4MNQ A C 259;4MNQ A T 271;4.98239
4MNQ A C 259;4MNQ A L 272;21.7843
4MNQ A H 260;4MNQ A V 261;20.9968
4MNQ A H 260;4MNQ A Q 262;0.569026
4MNQ A H 260;4MNQ A P 269;6.30074
4MNQ A H 260;4MNQ A L 270;8.4787
4MNQ A H 260;4MNQ A T 271;17.9127
4MNQ A V 261;4MNQ A Q 262;24.2403
4MNQ A V 261;4MNQ A H 263;2.64638
4MNQ A V 261;4MNQ A L 266;9.15988
4MNQ A V 261;4MNQ A P 269;4.00633
4MNQ A V 261;4MNQ A L 270;30.9408
4MNQ A V 261;4MNQ A T 271;0.618833
4MNQ A V 261;4MNQ A L 272;9.73072
4MNQ A Q 262;4MNQ A H 263;31.2745
4MNQ A Q 262;4MNQ A E 264;1.28169
4MNQ A Q 262;4MNQ A L 266;14.5202
4MNQ A Q 262;4MNQ A P 267;0.412179
4MNQ A Q 262;4MNQ A K 268;2.6742
4MNQ A Q 262;4MNQ A P 269;30.4915
4MNQ A H 263;4MNQ A E 264;32.237
4MNQ A H 263;4MNQ A G 265;14.8378
4MNQ A H 263;4MNQ A L 266;22.2399
4MNQ A E 264;4MNQ A G 265;20.3955
4MNQ A E 264;4MNQ A L 266;10.0659
4MNQ A E 264;4MNQ A P 267;0.818748
4MNQ A G 265;4MNQ A L 266;16.5748
4MNQ A G 265;4MNQ A P 267;8.57777
4MNQ A L 266;4MNQ A P 267;33.8514
4MNQ A L 266;4MNQ A K 268;16.617
4MNQ A L 266;4MNQ A P 269;3.22476
4MNQ A L 266;4MNQ A L 270;26.6875
4MNQ A P 267;4MNQ A K 268;41.847
4MNQ A K 268;4MNQ A P 269;37.0527
4MNQ A K 268;4MNQ A L 270;8.47964
4MNQ A P 269;4MNQ A L 270;26.2677
4MNQ A P 269;4MNQ A T 271;8.00253
4MNQ A L 270;4MNQ A T 271;32.3755
4MNQ A L 270;4MNQ A L 272;7.29798
4MNQ A T 271;4MNQ A L 272;30.8985
4MNQ A T 271;4MNQ A R 273;0.776853
4MNQ A L 272;4MNQ A R 273;31.7515
4MNQ A L 272;4MNQ A E 275;0.424092
4MNQ A R 273;4MNQ A W 274;23.1636
4MNQ A R 273;4MNQ A E 275;35.0061
4MNQ A W 274;4MNQ A E 275;26.6361
4MNQ A W 274;4MNQ A P 276;36.0621
4MNQ A E 275;4MNQ A P 276;38.5603
4MNQ B M 0;4MNQ B I 1;37.388
4MNQ B M 0;4MNQ B Q 2;25.084
4MNQ B M 0;4MNQ B P 32;8.74683
4MNQ B I 1;4MNQ B Q 2;26.8223
4MNQ B I 1;4MNQ B R 3;27.0831
4MNQ B I 1;4MNQ B H 31;20.4233
4MNQ B I 1;4MNQ B P 32;4.22688
4MNQ B Q 2;4MNQ B R 3;23.3525
4MNQ B Q 2;4MNQ B T 4;2.2033
4MNQ B Q 2;4MNQ B H 31;6.73361
4MNQ B Q 2;4MNQ B P 32;10.5005
4MNQ B Q 2;4MNQ B V 85;16.0559
4MNQ B Q 2;4MNQ B T 86;20.4159
4MNQ B R 3;4MNQ B T 4;24.6753
4MNQ B R 3;4MNQ B P 5;0.794477
4MNQ B R 3;4MNQ B G 29;12.9832
4MNQ B R 3;4MNQ B F 30;9.58898
4MNQ B R 3;4MNQ B H 31;24.4352
4MNQ B R 3;4MNQ B D 59;33.7716
4MNQ B R 3;4MNQ B W 60;0.372245
4MNQ B R 3;4MNQ B S 61;13.7836
4MNQ B R 3;4MNQ B H 84;4.79988
4MNQ B R 3;4MNQ B T 86;3.83005
4MNQ B T 4;4MNQ B P 5;35.4499
4MNQ B T 4;4MNQ B K 6;7.39656
4MNQ B T 4;4MNQ B S 28;0.224013
4MNQ B T 4;4MNQ B G 29;7.64274
4MNQ B T 4;4MNQ B F 30;1.88721
4MNQ B T 4;4MNQ B H 84;0.179519
4MNQ B T 4;4MNQ B T 86;23.1793
4MNQ B T 4;4MNQ B L 87;9.66875
4MNQ B T 4;4MNQ B K 91;0.0851708
4MNQ B P 5;4MNQ B K 6;24.9063
4MNQ B P 5;4MNQ B I 7;16.9826
4MNQ B P 5;4MNQ B V 27;10.3094
4MNQ B P 5;4MNQ B S 28;4.42712
4MNQ B P 5;4MNQ B G 29;1.14021
4MNQ B P 5;4MNQ B F 30;15.8245
4MNQ B P 5;4MNQ B I 35;6.363
4MNQ B P 5;4MNQ B V 82;7.3792
4MNQ B P 5;4MNQ B H 84;13.2284
4MNQ B P 5;4MNQ B T 86;4.3564
4MNQ B P 5;4MNQ B L 87;10.1232
4MNQ B P 5;4MNQ B K 91;2.4289
4MNQ B K 6;4MNQ B I 7;25.242
4MNQ B K 6;4MNQ B Q 8;3.9393
4MNQ B K 6;4MNQ B Y 26;3.91661
4MNQ B K 6;4MNQ B V 27;5.33361
4MNQ B K 6;4MNQ B S 28;31.4678
4MNQ B K 6;4MNQ B G 29;10.055
4MNQ B I 7;4MNQ B Q 8;30.7731
4MNQ B I 7;4MNQ B V 9;5.73875
4MNQ B I 7;4MNQ B C 25;8.23958
4MNQ B I 7;4MNQ B Y 26;4.66579
4MNQ B I 7;4MNQ B V 27;10.7279
4MNQ B I 7;4MNQ B C 80;4.44468
4MNQ B I 7;4MNQ B V 82;20.2273
4MNQ B I 7;4MNQ B L 87;1.43693
4MNQ B I 7;4MNQ B K 91;19.7652
4MNQ B I 7;4MNQ B V 93;27.3543
4MNQ B Q 8;4MNQ B V 9;23.8062
4MNQ B Q 8;4MNQ B Y 10;11.4078
4MNQ B Q 8;4MNQ B N 24;0.641234
4MNQ B Q 8;4MNQ B C 25;5.75705
4MNQ B Q 8;4MNQ B Y 26;27.9641
4MNQ B Q 8;4MNQ B S 28;0.895562
4MNQ B Q 8;4MNQ B V 93;0.958117
4MNQ B V 9;4MNQ B Y 10;22.5489
4MNQ B V 9;4MNQ B L 23;11.1985
4MNQ B V 9;4MNQ B N 24;9.00808
4MNQ B V 9;4MNQ B C 25;6.12664
4MNQ B V 9;4MNQ B L 39;2.41152
4MNQ B V 9;4MNQ B Y 78;0.0254946
4MNQ B V 9;4MNQ B A 79;5.98108
4MNQ B V 9;4MNQ B C 80;11.7736
4MNQ B V 9;4MNQ B V 93;18.0363
4MNQ B V 9;4MNQ B K 94;6.4236
4MNQ B V 9;4MNQ B W 95;20.7601
4MNQ B V 9;4MNQ B D 96;1.80263
4MNQ B V 9;4MNQ B M 99;10.5551
4MNQ B Y 10;4MNQ B S 11;31.2363
4MNQ B Y 10;4MNQ B R 12;0.507791
4MNQ B Y 10;4MNQ B F 22;0.119204
4MNQ B Y 10;4MNQ B L 23;6.34615
4MNQ B Y 10;4MNQ B N 24;36.7708
4MNQ B Y 10;4MNQ B C 25;0.118503
4MNQ B Y 10;4MNQ B Y 26;13.0487
4MNQ B Y 10;4MNQ B L 65;5.81992
4MNQ B Y 10;4MNQ B W 95;7.20446
4MNQ B Y 10;4MNQ B M 99;12.4933
4MNQ B S 11;4MNQ B R 12;20.6182
4MNQ B S 11;4MNQ B H 13;11.7469
4MNQ B S 11;4MNQ B P 14;2.00577
4MNQ B S 11;4MNQ B A 15;9.78678
4MNQ B S 11;4MNQ B N 21;8.38246
4MNQ B S 11;4MNQ B F 22;6.18317
4MNQ B S 11;4MNQ B L 23;6.27527
4MNQ B S 11;4MNQ B N 24;1.48191
4MNQ B S 11;4MNQ B F 70;7.83552
4MNQ B S 11;4MNQ B P 72;0.00117753
4MNQ B S 11;4MNQ B W 95;16.0078
4MNQ B S 11;4MNQ B M 99;0.931364
4MNQ B R 12;4MNQ B H 13;45.7662
4MNQ B R 12;4MNQ B P 14;0.549349
4MNQ B R 12;4MNQ B N 21;6.54052
4MNQ B R 12;4MNQ B F 22;52.6628
4MNQ B R 12;4MNQ B N 24;8.44143
4MNQ B R 12;4MNQ B Y 67;13.9594
4MNQ B H 13;4MNQ B P 14;39.7707
4MNQ B H 13;4MNQ B A 15;2.83095
4MNQ B H 13;4MNQ B S 20;0.979686
4MNQ B H 13;4MNQ B N 21;27.1787
4MNQ B H 13;4MNQ B F 22;5.36762
4MNQ B P 14;4MNQ B A 15;24.4237
4MNQ B P 14;4MNQ B E 16;18.6969
4MNQ B P 14;4MNQ B N 21;4.01919
4MNQ B A 15;4MNQ B E 16;31.1334
4MNQ B A 15;4MNQ B N 17;2.49875
4MNQ B A 15;4MNQ B N 21;8.67605
4MNQ B A 15;4MNQ B F 70;0.235732
4MNQ B A 15;4MNQ B P 72;12.8974
4MNQ B A 15;4MNQ B W 95;11.2258
4MNQ B A 15;4MNQ B R 97;14.745
4MNQ B E 16;4MNQ B N 17;29.5632
4MNQ B E 16;4MNQ B G 18;1.51249
4MNQ B E 16;4MNQ B K 19;26.1166
4MNQ B E 16;4MNQ B N 21;0.600576
4MNQ B E 16;4MNQ B P 72;9.02375
4MNQ B N 17;4MNQ B G 18;23.3634
4MNQ B N 17;4MNQ B K 19;1.23727
4MNQ B N 17;4MNQ B P 72;16.7981
4MNQ B N 17;4MNQ B T 73;11.6813
4MNQ B N 17;4MNQ B E 74;24.8321
4MNQ B N 17;4MNQ B R 97;13.0124
4MNQ B G 18;4MNQ B K 19;30.8577
4MNQ B G 18;4MNQ B T 71;12.302
4MNQ B G 18;4MNQ B P 72;11.3799
4MNQ B G 18;4MNQ B T 73;2.51839
4MNQ B K 19;4MNQ B S 20;48.9733
4MNQ B K 19;4MNQ B N 21;3.68839
4MNQ B K 19;4MNQ B F 70;0.0490201
4MNQ B K 19;4MNQ B T 71;7.83781
4MNQ B K 19;4MNQ B P 72;9.65233
4MNQ B S 20;4MNQ B N 21;30.6597
4MNQ B S 20;4MNQ B F 22;4.02107
4MNQ B S 20;4MNQ B E 69;19.8145
4MNQ B S 20;4MNQ B F 70;3.30552
4MNQ B S 20;4MNQ B T 71;14.6093
4MNQ B N 21;4MNQ B F 22;31.7195
4MNQ B N 21;4MNQ B T 68;0.00170259
4MNQ B N 21;4MNQ B E 69;6.51843
4MNQ B N 21;4MNQ B F 70;25.5331
4MNQ B N 21;4MNQ B P 72;8.65799
4MNQ B F 22;4MNQ B L 23;15.8288
4MNQ B F 22;4MNQ B N 24;10.2519
4MNQ B F 22;4MNQ B Y 67;16.1896
4MNQ B F 22;4MNQ B T 68;8.76526
4MNQ B F 22;4MNQ B E 69;26.3509
4MNQ B F 22;4MNQ B F 70;5.45818
4MNQ B L 23;4MNQ B N 24;26.4054
4MNQ B L 23;4MNQ B L 39;18.3549
4MNQ B L 23;4MNQ B L 40;1.35608
4MNQ B L 23;4MNQ B I 46;2.97313
4MNQ B L 23;4MNQ B Y 66;0.0998381
4MNQ B L 23;4MNQ B Y 67;7.38993
4MNQ B L 23;4MNQ B T 68;25.5504
4MNQ B L 23;4MNQ B F 70;26.3562
4MNQ B L 23;4MNQ B Y 78;19.9534
4MNQ B L 23;4MNQ B A 79;4.87477
4MNQ B L 23;4MNQ B W 95;16.3149
4MNQ B N 24;4MNQ B C 25;19.2647
4MNQ B N 24;4MNQ B Y 26;0.265294
4MNQ B N 24;4MNQ B L 39;2.92127
4MNQ B N 24;4MNQ B L 65;14.0039
4MNQ B N 24;4MNQ B Y 66;4.71809
4MNQ B N 24;4MNQ B Y 67;12.7979
4MNQ B C 25;4MNQ B Y 26;17.5948
4MNQ B C 25;4MNQ B V 27;12.8316
4MNQ B C 25;4MNQ B V 37;6.7646
4MNQ B C 25;4MNQ B L 39;10.8023
4MNQ B C 25;4MNQ B L 64;1.58861
4MNQ B C 25;4MNQ B L 65;6.64416
4MNQ B C 25;4MNQ B Y 66;22.1078
4MNQ B C 25;4MNQ B C 80;16.1574
4MNQ B C 25;4MNQ B V 82;2.46591
4MNQ B Y 26;4MNQ B V 27;22.0485
4MNQ B Y 26;4MNQ B S 28;21.0088
4MNQ B Y 26;4MNQ B Y 63;27.9085
4MNQ B Y 26;4MNQ B L 64;11.3634
4MNQ B Y 26;4MNQ B L 65;14.7902
4MNQ B V 27;4MNQ B S 28;18.8891
4MNQ B V 27;4MNQ B F 30;12.7548
4MNQ B V 27;4MNQ B I 35;11.4555
4MNQ B V 27;4MNQ B V 37;12.0027
4MNQ B V 27;4MNQ B Y 63;4.15798
4MNQ B V 27;4MNQ B L 64;21.2104
4MNQ B V 27;4MNQ B Y 66;3.50402
4MNQ B V 27;4MNQ B V 82;9.93852
4MNQ B S 28;4MNQ B G 29;22.7073
4MNQ B S 28;4MNQ B F 30;7.80294
4MNQ B S 28;4MNQ B F 62;1.91302
4MNQ B S 28;4MNQ B Y 63;10.9404
4MNQ B G 29;4MNQ B F 30;16.5834
4MNQ B G 29;4MNQ B S 57;1.58101
4MNQ B G 29;4MNQ B D 59;0.916274
4MNQ B G 29;4MNQ B S 61;19.0336
4MNQ B G 29;4MNQ B F 62;7.60274
4MNQ B G 29;4MNQ B Y 63;1.04519
4MNQ B F 30;4MNQ B H 31;20.025
4MNQ B F 30;4MNQ B P 32;5.50724
4MNQ B F 30;4MNQ B S 33;10.8237
4MNQ B F 30;4MNQ B D 34;0.0951188
4MNQ B F 30;4MNQ B I 35;20.6586
4MNQ B F 30;4MNQ B L 54;6.53865
4MNQ B F 30;4MNQ B S 61;5.80197
4MNQ B F 30;4MNQ B F 62;31.4941
4MNQ B F 30;4MNQ B Y 63;5.52672
4MNQ B F 30;4MNQ B L 64;10.3073
4MNQ B F 30;4MNQ B H 84;11.4102
4MNQ B H 31;4MNQ B P 32;34.6605
4MNQ B H 31;4MNQ B W 60;10.3567
4MNQ B H 31;4MNQ B S 61;5.32696
4MNQ B H 31;4MNQ B F 62;16.9508
4MNQ B H 31;4MNQ B H 84;7.20136
4MNQ B H 31;4MNQ B T 86;1.14484
4MNQ B P 32;4MNQ B S 33;22.251
4MNQ B P 32;4MNQ B D 34;13.7046
4MNQ B P 32;4MNQ B F 62;3.23714
4MNQ B P 32;4MNQ B H 84;13.5147
4MNQ B P 32;4MNQ B V 85;19.8288
4MNQ B P 32;4MNQ B T 86;0.0797412
4MNQ B S 33;4MNQ B D 34;29.7778
4MNQ B S 33;4MNQ B I 35;9.33407
4MNQ B S 33;4MNQ B L 54;15.5328
4MNQ B S 33;4MNQ B F 62;18.9636
4MNQ B S 33;4MNQ B L 64;0.0167474
4MNQ B D 34;4MNQ B I 35;26.7312
4MNQ B D 34;4MNQ B H 84;12.3387
4MNQ B D 34;4MNQ B V 85;2.86528
4MNQ B I 35;4MNQ B E 36;32.4826
4MNQ B I 35;4MNQ B V 37;12.6367
4MNQ B I 35;4MNQ B L 54;0.14031
4MNQ B I 35;4MNQ B L 64;14.2899
4MNQ B I 35;4MNQ B Y 66;9.01486
4MNQ B I 35;4MNQ B V 82;8.88494
4MNQ B I 35;4MNQ B N 83;8.26082
4MNQ B I 35;4MNQ B H 84;13.5979
4MNQ B E 36;4MNQ B V 37;27.1439
4MNQ B E 36;4MNQ B D 38;10.8351
4MNQ B E 36;4MNQ B Y 66;0.284474
4MNQ B E 36;4MNQ B R 81;14.2737
4MNQ B E 36;4MNQ B V 82;6.24316
4MNQ B E 36;4MNQ B N 83;39.861
4MNQ B V 37;4MNQ B D 38;35.5581
4MNQ B V 37;4MNQ B L 39;3.67574
4MNQ B V 37;4MNQ B R 45;1.8228
4MNQ B V 37;4MNQ B V 49;1.26032
4MNQ B V 37;4MNQ B L 64;1.01471
4MNQ B V 37;4MNQ B Y 66;44.0039
4MNQ B V 37;4MNQ B C 80;7.15335
4MNQ B V 37;4MNQ B R 81;4.89486
4MNQ B V 37;4MNQ B V 82;10.0199
4MNQ B D 38;4MNQ B L 39;26.6403
4MNQ B D 38;4MNQ B L 40;12.6127
4MNQ B D 38;4MNQ B R 45;29.6875
4MNQ B D 38;4MNQ B V 49;1.46205
4MNQ B D 38;4MNQ B A 79;0.583393
4MNQ B D 38;4MNQ B C 80;6.80409
4MNQ B D 38;4MNQ B R 81;38.5353
4MNQ B L 39;4MNQ B L 40;20.5795
4MNQ B L 39;4MNQ B R 45;4.54609
4MNQ B L 39;4MNQ B I 46;24.3483
4MNQ B L 39;4MNQ B V 49;22.8695
4MNQ B L 39;4MNQ B Y 66;10.7719
4MNQ B L 39;4MNQ B Y 67;5.3646
4MNQ B L 39;4MNQ B T 68;11.8852
4MNQ B L 39;4MNQ B A 79;7.91019
4MNQ B L 39;4MNQ B C 80;9.57502
4MNQ B L 40;4MNQ B K 41;17.2624
4MNQ B L 40;4MNQ B N 42;0.694635
4MNQ B L 40;4MNQ B G 43;29.6395
4MNQ B L 40;4MNQ B E 44;4.36904
4MNQ B L 40;4MNQ B R 45;14.8737
4MNQ B L 40;4MNQ B I 46;6.18284
4MNQ B L 40;4MNQ B E 77;0.4198
4MNQ B L 40;4MNQ B Y 78;9.99218
4MNQ B L 40;4MNQ B A 79;28.9948
4MNQ B L 40;4MNQ B C 80;0.237176
4MNQ B L 40;4MNQ B R 81;22.2098
4MNQ B L 40;4MNQ B I 92;16.2609
4MNQ B K 41;4MNQ B N 42;34.777
4MNQ B K 41;4MNQ B G 43;4.24232
4MNQ B K 41;4MNQ B E 44;21.271
4MNQ B K 41;4MNQ B I 46;17.7341
4MNQ B K 41;4MNQ B D 76;19.2596
4MNQ B K 41;4MNQ B E 77;5.51874
4MNQ B K 41;4MNQ B Y 78;28.4651
4MNQ B N 42;4MNQ B G 43;24.9697
4MNQ B N 42;4MNQ B E 44;10.5205
4MNQ B N 42;4MNQ B K 75;1.90774
4MNQ B N 42;4MNQ B D 76;17.6257
4MNQ B N 42;4MNQ B E 77;29.4821
4MNQ B G 43;4MNQ B E 44;23.3625
4MNQ B G 43;4MNQ B R 45;2.31588
4MNQ B E 44;4MNQ B R 45;30.0419
4MNQ B E 44;4MNQ B I 46;2.52477
4MNQ B R 45;4MNQ B I 46;33.7154
4MNQ B R 45;4MNQ B E 47;22.8609
4MNQ B R 45;4MNQ B V 49;3.59219
4MNQ B I 46;4MNQ B E 47;29.2128
4MNQ B I 46;4MNQ B K 48;9.05639
4MNQ B I 46;4MNQ B V 49;18.6153
4MNQ B I 46;4MNQ B T 68;21.3233
4MNQ B I 46;4MNQ B F 70;1.02646
4MNQ B I 46;4MNQ B Y 78;10.0697
4MNQ B E 47;4MNQ B K 48;38.7244
4MNQ B E 47;4MNQ B V 49;14.7247
4MNQ B K 48;4MNQ B V 49;21.864
4MNQ B K 48;4MNQ B E 50;22.4242
4MNQ B K 48;4MNQ B Y 67;0.131405
4MNQ B K 48;4MNQ B T 68;14.4289
4MNQ B K 48;4MNQ B E 69;0.523757
4MNQ B V 49;4MNQ B E 50;31.7546
4MNQ B V 49;4MNQ B H 51;4.67778
4MNQ B V 49;4MNQ B Y 66;14.4272
4MNQ B V 49;4MNQ B Y 67;8.16833
4MNQ B V 49;4MNQ B T 68;7.91592
4MNQ B E 50;4MNQ B H 51;27.1528
4MNQ B E 50;4MNQ B Y 66;5.08648
4MNQ B E 50;4MNQ B Y 67;49.2359
4MNQ B H 51;4MNQ B S 52;33.137
4MNQ B H 51;4MNQ B D 53;6.20841
4MNQ B H 51;4MNQ B L 64;8.0062
4MNQ B H 51;4MNQ B L 65;6.82209
4MNQ B H 51;4MNQ B Y 66;31.2035
4MNQ B H 51;4MNQ B Y 67;9.18127
4MNQ B S 52;4MNQ B D 53;33.4742
4MNQ B S 52;4MNQ B L 54;0.704776
4MNQ B S 52;4MNQ B Y 63;3.99181
4MNQ B S 52;4MNQ B L 64;17.6089
4MNQ B S 52;4MNQ B L 65;26.6477
4MNQ B S 52;4MNQ B Y 67;6.46914
4MNQ B D 53;4MNQ B L 54;26.1279
4MNQ B D 53;4MNQ B S 55;6.84526
4MNQ B D 53;4MNQ B Y 63;4.23546
4MNQ B D 53;4MNQ B L 64;3.26925
4MNQ B L 54;4MNQ B S 55;28.1336
4MNQ B L 54;4MNQ B F 62;20.4868
4MNQ B L 54;4MNQ B Y 63;6.17196
4MNQ B L 54;4MNQ B L 64;24.4861
4MNQ B S 55;4MNQ B F 56;27.6322
4MNQ B S 55;4MNQ B F 62;9.99794
4MNQ B S 55;4MNQ B Y 63;29.945
4MNQ B F 56;4MNQ B S 57;31.351
4MNQ B F 56;4MNQ B W 60;23.456
4MNQ B F 56;4MNQ B S 61;7.22562
4MNQ B F 56;4MNQ B F 62;13.8891
4MNQ B F 56;4MNQ B Y 63;15.5539
4MNQ B S 57;4MNQ B K 58;46.6184
4MNQ B S 57;4MNQ B D 59;9.57663
4MNQ B S 57;4MNQ B W 60;11.587
4MNQ B S 57;4MNQ B S 61;18.1291
4MNQ B S 57;4MNQ B F 62;0.720803
4MNQ B S 57;4MNQ B Y 63;14.4927
4MNQ B K 58;4MNQ B D 59;26.7294
4MNQ B K 58;4MNQ B W 60;15.9873
4MNQ B K 58;4MNQ B Y 63;0.0266278
4MNQ B D 59;4MNQ B W 60;27.0462
4MNQ B D 59;4MNQ B S 61;22.7824
4MNQ B W 60;4MNQ B S 61;18.7278
4MNQ B W 60;4MNQ B F 62;2.72993
4MNQ B S 61;4MNQ B F 62;19.604
4MNQ B S 61;4MNQ B Y 63;0.483541
4MNQ B F 62;4MNQ B Y 63;19.7032
4MNQ B Y 63;4MNQ B L 64;25.99
4MNQ B Y 63;4MNQ B L 65;0.298386
4MNQ B L 64;4MNQ B L 65;21.5246
4MNQ B L 64;4MNQ B Y 66;24.9992
4MNQ B L 65;4MNQ B Y 66;24.9536
4MNQ B L 65;4MNQ B Y 67;20.0912
4MNQ B Y 66;4MNQ B Y 67;19.9251
4MNQ B Y 67;4MNQ B T 68;25.4498
4MNQ B Y 67;4MNQ B E 69;0.00713846
4MNQ B T 68;4MNQ B E 69;35.2916
4MNQ B T 68;4MNQ B F 70;8.47631
4MNQ B T 68;4MNQ B Y 78;0.140928
4MNQ B E 69;4MNQ B F 70;34.2249
4MNQ B E 69;4MNQ B T 71;10.0979
4MNQ B F 70;4MNQ B T 71;29.6272
4MNQ B F 70;4MNQ B P 72;18.0532
4MNQ B F 70;4MNQ B Y 78;27.6145
4MNQ B F 70;4MNQ B W 95;12.7451
4MNQ B T 71;4MNQ B P 72;25.0315
4MNQ B T 71;4MNQ B T 73;13.1162
4MNQ B T 71;4MNQ B D 76;0.558275
4MNQ B T 71;4MNQ B Y 78;9.77891
4MNQ B P 72;4MNQ B T 73;24.9743
4MNQ B P 72;4MNQ B Y 78;4.75742
4MNQ B P 72;4MNQ B W 95;10.3237
4MNQ B P 72;4MNQ B R 97;5.67276
4MNQ B T 73;4MNQ B E 74;20.7621
4MNQ B T 73;4MNQ B K 75;27.4
4MNQ B T 73;4MNQ B D 76;28.5209
4MNQ B T 73;4MNQ B Y 78;1.97215
4MNQ B T 73;4MNQ B R 97;11.1677
4MNQ B E 74;4MNQ B K 75;30.1772
4MNQ B E 74;4MNQ B D 76;4.17729
4MNQ B E 74;4MNQ B R 97;27.7644
4MNQ B K 75;4MNQ B D 76;41.9525
4MNQ B K 75;4MNQ B E 77;11.8518
4MNQ B D 76;4MNQ B E 77;24.5142
4MNQ B D 76;4MNQ B Y 78;25.6745
4MNQ B D 76;4MNQ B W 95;2.64305
4MNQ B D 76;4MNQ B R 97;6.98472
4MNQ B E 77;4MNQ B Y 78;31.8387
4MNQ B E 77;4MNQ B K 94;6.65522
4MNQ B E 77;4MNQ B W 95;0.014164
4MNQ B Y 78;4MNQ B A 79;23.3861
4MNQ B Y 78;4MNQ B K 94;6.85217
4MNQ B Y 78;4MNQ B W 95;37.9226
4MNQ B Y 78;4MNQ B R 97;0.547227
4MNQ B A 79;4MNQ B C 80;19.9507
4MNQ B A 79;4MNQ B R 81;0.00848004
4MNQ B A 79;4MNQ B I 92;13.3463
4MNQ B A 79;4MNQ B V 93;6.27318
4MNQ B A 79;4MNQ B K 94;13.8141
4MNQ B A 79;4MNQ B W 95;1.37331
4MNQ B C 80;4MNQ B R 81;19.348
4MNQ B C 80;4MNQ B V 82;10.195
4MNQ B C 80;4MNQ B K 91;3.75997
4MNQ B C 80;4MNQ B I 92;5.25979
4MNQ B C 80;4MNQ B V 93;19.1318
4MNQ B R 81;4MNQ B V 82;24.3045
4MNQ B R 81;4MNQ B N 83;10.8412
4MNQ B R 81;4MNQ B P 90;32.9491
4MNQ B R 81;4MNQ B K 91;3.9441
4MNQ B R 81;4MNQ B I 92;21.0926
4MNQ B V 82;4MNQ B N 83;21.3313
4MNQ B V 82;4MNQ B H 84;1.8672
4MNQ B V 82;4MNQ B L 87;11.72
4MNQ B V 82;4MNQ B P 90;6.70564
4MNQ B V 82;4MNQ B K 91;20.4799
4MNQ B V 82;4MNQ B V 93;0.0671231
4MNQ B N 83;4MNQ B H 84;34.1169
4MNQ B N 83;4MNQ B L 87;12.417
4MNQ B N 83;4MNQ B Q 89;4.19269
4MNQ B N 83;4MNQ B P 90;20.5508
4MNQ B H 84;4MNQ B V 85;33.7373
4MNQ B H 84;4MNQ B T 86;17.4314
4MNQ B H 84;4MNQ B L 87;24.1288
4MNQ B V 85;4MNQ B T 86;26.465
4MNQ B V 85;4MNQ B L 87;10.7374
4MNQ B T 86;4MNQ B L 87;31.1649
4MNQ B T 86;4MNQ B S 88;3.84784
4MNQ B L 87;4MNQ B S 88;29.2282
4MNQ B L 87;4MNQ B Q 89;17.2815
4MNQ B L 87;4MNQ B P 90;1.2407
4MNQ B L 87;4MNQ B K 91;24.6203
4MNQ B S 88;4MNQ B Q 89;44.6448
4MNQ B Q 89;4MNQ B P 90;42.8562
4MNQ B Q 89;4MNQ B K 91;6.08708
4MNQ B P 90;4MNQ B K 91;19.5953
4MNQ B P 90;4MNQ B I 92;12.7666
4MNQ B K 91;4MNQ B I 92;26.4727
4MNQ B K 91;4MNQ B V 93;20.485
4MNQ B I 92;4MNQ B V 93;27.1917
4MNQ B I 92;4MNQ B K 94;13.5296
4MNQ B V 93;4MNQ B K 94;32.0427
4MNQ B K 94;4MNQ B W 95;26.4229
4MNQ B K 94;4MNQ B D 96;6.73394
4MNQ B W 95;4MNQ B D 96;31.8994
4MNQ B W 95;4MNQ B R 97;38.8045
4MNQ B W 95;4MNQ B M 99;7.47537
4MNQ B D 96;4MNQ B R 97;22.7397
4MNQ B D 96;4MNQ B D 98;12.9963
4MNQ B D 96;4MNQ B M 99;40.0902
4MNQ B R 97;4MNQ B D 98;33.6197
4MNQ B R 97;4MNQ B M 99;12.1021
4MNQ B D 98;4MNQ B M 99;25.6407
4MNQ C I 1;4MNQ C L 2;25.3077
4MNQ C L 2;4MNQ C A 3;21.5816
4MNQ C A 3;4MNQ C K 4;22.2929
4MNQ C A 3;4MNQ C F 5;22.7901
4MNQ C K 4;4MNQ C F 5;22.3716
4MNQ C K 4;4MNQ C L 6;6.64775
4MNQ C F 5;4MNQ C L 6;25.0854
4MNQ C F 5;4MNQ C H 7;22.7038
4MNQ C L 6;4MNQ C H 7;23.2725
4MNQ C L 6;4MNQ C W 8;21.588
4MNQ C H 7;4MNQ C W 8;22.8318
4MNQ C H 7;4MNQ C L 9;1.09547
4MNQ C W 8;4MNQ C L 9;26.1759
