V1;V2;Weight
4OZG G M 2;4OZG G K 3;33.7766
4OZG G M 2;4OZG G H 25;1.80789
4OZG G M 2;4OZG G T 27;22.6569
4OZG G M 2;4OZG G I 28;9.35004
4OZG G M 2;4OZG G E 37;17.3565
4OZG G M 2;4OZG G V 106;21.9985
4OZG G K 3;4OZG G T 4;50.3488
4OZG G K 3;4OZG G T 5;2.08042
4OZG G K 3;4OZG G N 24;2.11323
4OZG G K 3;4OZG G H 25;11.7862
4OZG G K 3;4OZG G S 26;0.896171
4OZG G K 3;4OZG G T 27;12.7288
4OZG G K 3;4OZG G V 106;1.70557
4OZG G K 3;4OZG G T 117;20.7229
4OZG G K 3;4OZG G F 118;1.7303
4OZG G K 3;4OZG G G 119;15.0029
4OZG G T 4;4OZG G T 5;32.1126
4OZG G T 4;4OZG G Q 6;5.58816
4OZG G T 4;4OZG G C 23;10.1012
4OZG G T 4;4OZG G N 24;6.95554
4OZG G T 4;4OZG G H 25;10.4308
4OZG G T 4;4OZG G V 39;1.01653e-05
4OZG G T 4;4OZG G C 104;20.6945
4OZG G T 4;4OZG G I 105;6.35768
4OZG G T 4;4OZG G V 106;13.5722
4OZG G T 4;4OZG G G 119;0.767001
4OZG G T 5;4OZG G Q 6;32.2086
4OZG G T 5;4OZG G C 23;5.63439
4OZG G T 5;4OZG G N 24;36.5416
4OZG G Q 6;4OZG G P 8;29.1161
4OZG G Q 6;4OZG G P 9;9.00644
4OZG G Q 6;4OZG G L 21;0.358797
4OZG G Q 6;4OZG G P 22;9.24409
4OZG G Q 6;4OZG G C 23;9.537
4OZG G Q 6;4OZG G N 24;1.80586
4OZG G Q 6;4OZG G W 41;11.0499
4OZG G Q 6;4OZG G Y 102;6.82441
4OZG G Q 6;4OZG G Y 103;3.36358
4OZG G Q 6;4OZG G C 104;18.3193
4OZG G Q 6;4OZG G G 119;0.139346
4OZG G Q 6;4OZG G G 121;22.5732
4OZG G Q 6;4OZG G T 122;16.1936
4OZG G P 8;4OZG G P 9;26.4792
4OZG G P 8;4OZG G S 10;11.2221
4OZG G P 8;4OZG G M 11;13.7718
4OZG G P 8;4OZG G P 22;26.2356
4OZG G P 8;4OZG G C 23;0.00239147
4OZG G P 8;4OZG G N 24;3.07121
4OZG G P 8;4OZG G G 121;2.62892
4OZG G P 8;4OZG G T 122;19.2389
4OZG G P 9;4OZG G S 10;29.1041
4OZG G P 9;4OZG G K 120;9.37249
4OZG G P 9;4OZG G G 121;10.6944
4OZG G P 9;4OZG G T 122;3.13952
4OZG G P 9;4OZG G H 123;13.6078
4OZG G S 10;4OZG G M 11;29.442
4OZG G S 10;4OZG G D 12;0.274092
4OZG G S 10;4OZG G T 122;3.5806
4OZG G S 10;4OZG G H 123;15.3807
4OZG G S 10;4OZG G I 125;4.91089
4OZG G M 11;4OZG G D 12;30.3876
4OZG G M 11;4OZG G C 13;16.4064
4OZG G M 11;4OZG G A 19;0.572839
4OZG G M 11;4OZG G N 20;13.7233
4OZG G M 11;4OZG G L 21;14.379
4OZG G M 11;4OZG G P 22;10.5783
4OZG G M 11;4OZG G T 122;15.5723
4OZG G M 11;4OZG G H 123;7.37774
4OZG G M 11;4OZG G L 124;19.9438
4OZG G M 11;4OZG G I 125;9.5312
4OZG G D 12;4OZG G C 13;31.4168
4OZG G D 12;4OZG G L 124;0.133585
4OZG G D 12;4OZG G I 125;22.3493
4OZG G D 12;4OZG G Q 127;29.3275
4OZG G C 13;4OZG G A 14;31.2396
4OZG G C 13;4OZG G E 15;0.665947
4OZG G C 13;4OZG G R 17;0.948368
4OZG G C 13;4OZG G A 18;0.537815
4OZG G C 13;4OZG G A 19;16.5959
4OZG G C 13;4OZG G N 20;1.6313
4OZG G C 13;4OZG G A 94;1.96597
4OZG G C 13;4OZG G L 124;10.8804
4OZG G C 13;4OZG G I 125;6.10766
4OZG G C 13;4OZG G I 126;18.2799
4OZG G C 13;4OZG G Q 127;12.9999
4OZG G A 14;4OZG G E 15;25.8699
4OZG G A 14;4OZG G G 16;0.265083
4OZG G A 14;4OZG G R 17;21.5436
4OZG G A 14;4OZG G A 94;4.51077
4OZG G A 14;4OZG G I 126;1.1719
4OZG G A 14;4OZG G Q 127;12.6932
4OZG G A 14;4OZG G Y 129;2.1224
4OZG G E 15;4OZG G G 16;24.5204
4OZG G E 15;4OZG G R 17;5.34133
4OZG G E 15;4OZG G A 94;9.11411
4OZG G E 15;4OZG G T 95;13.3959
4OZG G E 15;4OZG G L 96;12.8757
4OZG G E 15;4OZG G I 126;14.2062
4OZG G E 15;4OZG G Q 127;10.2659
4OZG G E 15;4OZG G P 128;14.6942
4OZG G E 15;4OZG G Y 129;9.85502
4OZG G E 15;4OZG G K 186;21.7331
4OZG G G 16;4OZG G R 17;25.2854
4OZG G G 16;4OZG G H 93;24.3038
4OZG G G 16;4OZG G A 94;12.7764
4OZG G R 17;4OZG G A 18;41.1555
4OZG G R 17;4OZG G A 19;3.27622
4OZG G R 17;4OZG G P 92;0.166956
4OZG G R 17;4OZG G H 93;3.59531
4OZG G R 17;4OZG G A 94;12.4281
4OZG G A 18;4OZG G A 19;20.3829
4OZG G A 18;4OZG G N 20;15.9685
4OZG G A 18;4OZG G I 90;10.622
4OZG G A 18;4OZG G L 91;5.27118
4OZG G A 18;4OZG G P 92;18.4544
4OZG G A 18;4OZG G H 93;2.55474
4OZG G A 18;4OZG G A 94;0.361131
4OZG G A 19;4OZG G N 20;21.9711
4OZG G A 19;4OZG G L 21;8.76329
4OZG G A 19;4OZG G L 89;3.41418
4OZG G A 19;4OZG G I 90;5.50072
4OZG G A 19;4OZG G L 91;26.754
4OZG G A 19;4OZG G A 94;10.4749
4OZG G A 19;4OZG G L 124;7.28817
4OZG G A 19;4OZG G I 126;4.6366
4OZG G N 20;4OZG G L 21;17.1067
4OZG G N 20;4OZG G P 22;7.96517
4OZG G N 20;4OZG G T 88;17.4562
4OZG G N 20;4OZG G L 89;3.77518
4OZG G N 20;4OZG G I 90;22.9598
4OZG G L 21;4OZG G P 22;23.6484
4OZG G L 21;4OZG G C 23;0.0712397
4OZG G L 21;4OZG G W 41;17.6662
4OZG G L 21;4OZG G S 87;0.339932
4OZG G L 21;4OZG G T 88;10.3448
4OZG G L 21;4OZG G L 89;28.6507
4OZG G L 21;4OZG G L 91;8.87144
4OZG G L 21;4OZG G Y 102;16.136
4OZG G L 21;4OZG G T 122;13.2941
4OZG G L 21;4OZG G L 124;17.8663
4OZG G P 22;4OZG G C 23;23.0094
4OZG G P 22;4OZG G N 24;5.65678
4OZG G P 22;4OZG G W 41;5.00356
4OZG G P 22;4OZG G S 86;2.04671
4OZG G P 22;4OZG G S 87;4.77258
4OZG G P 22;4OZG G T 88;10.5725
4OZG G P 22;4OZG G T 122;2.48616
4OZG G C 23;4OZG G N 24;27.6519
4OZG G C 23;4OZG G H 25;9.80482
4OZG G C 23;4OZG G W 41;9.37645
4OZG G C 23;4OZG G S 86;8.97384
4OZG G C 23;4OZG G S 87;21.2421
4OZG G C 23;4OZG G C 104;17.3924
4OZG G N 24;4OZG G H 25;23.2394
4OZG G N 24;4OZG G S 26;2.12595
4OZG G N 24;4OZG G K 85;6.41269
4OZG G N 24;4OZG G S 86;14.841
4OZG G H 25;4OZG G S 26;21.9642
4OZG G H 25;4OZG G T 27;2.86767
4OZG G H 25;4OZG G I 28;23.5786
4OZG G H 25;4OZG G V 39;15.0256
4OZG G H 25;4OZG G I 80;3.06963
4OZG G H 25;4OZG G R 84;9.98727
4OZG G H 25;4OZG G K 85;17.5525
4OZG G H 25;4OZG G S 86;8.44079
4OZG G H 25;4OZG G S 87;13.3678
4OZG G H 25;4OZG G C 104;2.81488
4OZG G H 25;4OZG G V 106;9.84301
4OZG G S 26;4OZG G T 27;35.457
4OZG G S 26;4OZG G I 28;10.5099
4OZG G S 26;4OZG G K 85;41.9214
4OZG G T 27;4OZG G I 28;24.0611
4OZG G T 27;4OZG G S 29;3.07836
4OZG G T 27;4OZG G E 37;1.05056
4OZG G I 28;4OZG G S 29;31.4106
4OZG G I 28;4OZG G E 37;16.2046
4OZG G I 28;4OZG G Y 38;2.45555
4OZG G I 28;4OZG G V 39;10.7342
4OZG G I 28;4OZG G D 83;1.14009
4OZG G I 28;4OZG G R 84;31.1417
4OZG G I 28;4OZG G K 85;4.14779
4OZG G I 28;4OZG G V 106;14.6901
4OZG G S 29;4OZG G G 30;24.1734
4OZG G S 29;4OZG G N 36;14.7658
4OZG G S 29;4OZG G E 37;29.7693
4OZG G S 29;4OZG G R 84;7.58085
4OZG G G 30;4OZG G N 36;18.9244
4OZG G G 30;4OZG G E 37;1.64746
4OZG G G 30;4OZG G L 57;11.799
4OZG G G 30;4OZG G R 84;18.0728
4OZG G N 36;4OZG G E 37;27.2074
4OZG G N 36;4OZG G Y 38;3.24276
4OZG G N 36;4OZG G L 57;7.64566
4OZG G N 36;4OZG G L 107;0.316716
4OZG G N 36;4OZG G G 108;8.34731
4OZG G N 36;4OZG G G 109;0.3208
4OZG G E 37;4OZG G Y 38;17.9681
4OZG G E 37;4OZG G V 39;0.545342
4OZG G E 37;4OZG G G 56;0.00208358
4OZG G E 37;4OZG G L 57;7.83285
4OZG G E 37;4OZG G R 84;11.8401
4OZG G E 37;4OZG G V 106;16.8432
4OZG G E 37;4OZG G L 107;7.84462
4OZG G E 37;4OZG G G 108;15.1281
4OZG G E 37;4OZG G D 114;5.18586
4OZG G Y 38;4OZG G V 39;21.1265
4OZG G Y 38;4OZG G Y 40;15.6383
4OZG G Y 38;4OZG G H 55;15.5734
4OZG G Y 38;4OZG G G 56;13.593
4OZG G Y 38;4OZG G L 57;23.2919
4OZG G Y 38;4OZG G R 84;0.0122137
4OZG G Y 38;4OZG G I 105;0.811069
4OZG G Y 38;4OZG G V 106;7.39324
4OZG G Y 38;4OZG G L 107;25.7307
4OZG G Y 38;4OZG G G 108;0.131373
4OZG G V 39;4OZG G Y 40;21.8459
4OZG G V 39;4OZG G W 41;10.038
4OZG G V 39;4OZG G I 54;0.289678
4OZG G V 39;4OZG G H 55;8.07074
4OZG G V 39;4OZG G G 56;13.1534
4OZG G V 39;4OZG G L 78;11.8817
4OZG G V 39;4OZG G I 80;15.039
4OZG G V 39;4OZG G R 84;5.6368
4OZG G V 39;4OZG G S 87;9.13327
4OZG G V 39;4OZG G C 104;9.60685
4OZG G V 39;4OZG G I 105;6.44158
4OZG G V 39;4OZG G V 106;5.95116
4OZG G Y 40;4OZG G W 41;23.3976
4OZG G Y 40;4OZG G Y 42;21.0192
4OZG G Y 40;4OZG G Y 52;11.7605
4OZG G Y 40;4OZG G I 54;3.41074
4OZG G Y 40;4OZG G H 55;27.579
4OZG G Y 40;4OZG G Y 103;1.66986
4OZG G Y 40;4OZG G C 104;4.64473
4OZG G Y 40;4OZG G I 105;27.5648
4OZG G Y 40;4OZG G L 107;28.5786
4OZG G Y 40;4OZG G L 116;0.189195
4OZG G Y 40;4OZG H T 115;21.2583
4OZG G W 41;4OZG G Y 42;23.447
4OZG G W 41;4OZG G Y 52;5.06585
4OZG G W 41;4OZG G I 53;18.9773
4OZG G W 41;4OZG G I 54;22.4466
4OZG G W 41;4OZG G L 78;15.4511
4OZG G W 41;4OZG G S 87;6.65252
4OZG G W 41;4OZG G T 88;3.36082
4OZG G W 41;4OZG G L 89;30.3337
4OZG G W 41;4OZG G Y 102;12.3662
4OZG G W 41;4OZG G Y 103;11.7286
4OZG G W 41;4OZG G C 104;18.3975
4OZG G W 41;4OZG G I 105;0.0257605
4OZG G W 41;4OZG G T 122;0.456248
4OZG G Y 42;4OZG G R 43;18.532
4OZG G Y 42;4OZG G P 50;10.0205
4OZG G Y 42;4OZG G Q 51;9.34572
4OZG G Y 42;4OZG G Y 52;23.9551
4OZG G Y 42;4OZG G I 53;7.86169
4OZG G Y 42;4OZG G V 101;0.043089
4OZG G Y 42;4OZG G Y 102;4.98477
4OZG G Y 42;4OZG G Y 103;25.2496
4OZG G Y 42;4OZG G I 105;13.8536
4OZG G Y 42;4OZG G L 107;1.11844
4OZG G Y 42;4OZG G L 116;15.5902
4OZG G Y 42;4OZG G F 118;11.1725
4OZG G Y 42;4OZG H T 115;3.33021
4OZG G Y 42;4OZG H Q 116;21.2048
4OZG G Y 42;4OZG H Y 117;0.461206
4OZG G Y 42;4OZG H F 118;14.7483
4OZG G R 43;4OZG G Q 44;19.4965
4OZG G R 43;4OZG G I 45;12.097
4OZG G R 43;4OZG G G 49;0.796431
4OZG G R 43;4OZG G P 50;5.69402
4OZG G R 43;4OZG G Q 51;49.6871
4OZG G R 43;4OZG G I 53;15.8274
4OZG G R 43;4OZG G M 75;12.7739
4OZG G R 43;4OZG G L 91;5.87727
4OZG G R 43;4OZG G R 97;13.9233
4OZG G R 43;4OZG G D 98;16.2511
4OZG G R 43;4OZG G A 100;12.7519
4OZG G R 43;4OZG G V 101;5.71675
4OZG G R 43;4OZG G Y 102;28.289
4OZG G R 43;4OZG G Y 103;2.7664
4OZG G Q 44;4OZG G I 45;24.4593
4OZG G Q 44;4OZG G H 46;15.9994
4OZG G Q 44;4OZG G Q 48;15.5723
4OZG G Q 44;4OZG G G 49;7.82483
4OZG G Q 44;4OZG G P 50;18.1713
4OZG G Q 44;4OZG G A 100;7.63495
4OZG G Q 44;4OZG G V 101;27.3239
4OZG G Q 44;4OZG G Y 103;17.8437
4OZG G Q 44;4OZG G F 118;1.62492
4OZG G Q 44;4OZG H Q 44;24.8255
4OZG G Q 44;4OZG H V 101;0.238485
4OZG G Q 44;4OZG H L 103;4.22234
4OZG G I 45;4OZG G H 46;28.6289
4OZG G I 45;4OZG G S 47;2.26498
4OZG G I 45;4OZG G Q 48;45.6895
4OZG G I 45;4OZG G G 49;3.47178
4OZG G I 45;4OZG G Q 51;10.1472
4OZG G I 45;4OZG G R 97;9.92119
4OZG G I 45;4OZG G T 99;12.4809
4OZG G I 45;4OZG G A 100;13.7178
4OZG G H 46;4OZG G S 47;35.1497
4OZG G H 46;4OZG G Q 48;4.40137
4OZG G H 46;4OZG G T 99;0.429941
4OZG G H 46;4OZG G A 100;1.06017
4OZG G H 46;4OZG G V 101;1.08861
4OZG G H 46;4OZG G H 123;1.8535
4OZG G H 46;4OZG H L 46;1.75932
4OZG G H 46;4OZG H P 187;34.3018
4OZG G H 46;4OZG H Q 188;19.0003
4OZG G S 47;4OZG G Q 48;43.835
4OZG G S 47;4OZG H P 120;3.67146
4OZG G S 47;4OZG H R 123;21.4933
4OZG G S 47;4OZG H P 187;2.38405
4OZG G Q 48;4OZG G G 49;32.7557
4OZG G Q 48;4OZG H P 120;5.38583
4OZG G G 49;4OZG G P 50;26.8974
4OZG G G 49;4OZG G Q 51;4.74685
4OZG G G 49;4OZG H L 103;11.2068
4OZG G G 49;4OZG H F 118;1.31729
4OZG G G 49;4OZG H G 119;8.86904
4OZG G G 49;4OZG H P 120;11.9007
4OZG G P 50;4OZG G Q 51;25.8546
4OZG G P 50;4OZG G Y 52;0.197364
4OZG G P 50;4OZG G Y 103;1.45461
4OZG G P 50;4OZG G F 118;17.0429
4OZG G P 50;4OZG H Q 44;0.967657
4OZG G P 50;4OZG H L 50;2.90253
4OZG G P 50;4OZG H L 103;12.2272
4OZG G P 50;4OZG H F 118;40.294
4OZG G P 50;4OZG H G 119;0.0251201
4OZG G Q 51;4OZG G Y 52;30.1644
4OZG G Q 51;4OZG G I 53;5.72756
4OZG G Q 51;4OZG G M 75;19.6251
4OZG G Y 52;4OZG G I 53;32.6563
4OZG G Y 52;4OZG G I 54;15.8277
4OZG G Y 52;4OZG G H 55;22.2001
4OZG G Y 52;4OZG G N 68;1.54892
4OZG G Y 52;4OZG G M 75;11.6937
4OZG G Y 52;4OZG H T 115;15.3572
4OZG G Y 52;4OZG H Q 116;4.05761
4OZG G Y 52;4OZG H Y 117;27.8253
4OZG G Y 52;4OZG H F 118;0.0453653
4OZG G I 53;4OZG G I 54;25.2516
4OZG G I 53;4OZG G N 68;13.186
4OZG G I 53;4OZG G M 75;29.9431
4OZG G I 53;4OZG G A 76;11.8538
4OZG G I 53;4OZG G L 89;14.6222
4OZG G I 53;4OZG G L 91;5.11216
4OZG G I 53;4OZG G Y 102;11.176
4OZG G I 54;4OZG G H 55;27.5889
4OZG G I 54;4OZG G E 66;15.2496
4OZG G I 54;4OZG G T 67;6.36671
4OZG G I 54;4OZG G N 68;20.2361
4OZG G I 54;4OZG G A 76;8.27849
4OZG G I 54;4OZG G S 77;5.34919
4OZG G I 54;4OZG G L 78;19.9312
4OZG G I 54;4OZG G L 89;10.2252
4OZG G H 55;4OZG G G 56;21.0442
4OZG G H 55;4OZG G E 66;12.211
4OZG G H 55;4OZG G L 78;6.80065
4OZG G H 55;4OZG H T 115;6.48317
4OZG G G 56;4OZG G L 57;21.857
4OZG G G 56;4OZG G N 64;2.05221
4OZG G G 56;4OZG G E 66;11.8122
4OZG G G 56;4OZG G L 78;8.28486
4OZG G G 56;4OZG G I 80;10.8137
4OZG G G 56;4OZG G R 84;0.198207
4OZG G L 57;4OZG G K 58;42.3242
4OZG G L 57;4OZG G N 64;1.78745
4OZG G L 57;4OZG G E 66;1.00529
4OZG G L 57;4OZG G I 80;9.17957
4OZG G L 57;4OZG G R 84;19.5368
4OZG G K 58;4OZG G N 64;60.6227
4OZG G K 58;4OZG G N 65;4.48019
4OZG G K 58;4OZG G I 80;20.2556
4OZG G K 58;4OZG G T 81;0.896736
4OZG G K 58;4OZG G R 84;13.987
4OZG G N 64;4OZG G N 65;28.0487
4OZG G N 64;4OZG G E 66;27.8816
4OZG G N 64;4OZG G L 78;1.4749
4OZG G N 64;4OZG G I 80;7.89137
4OZG G N 65;4OZG G E 66;22.5557
4OZG G N 65;4OZG G T 67;8.73906
4OZG G N 65;4OZG G S 77;0.914773
4OZG G N 65;4OZG G L 78;7.44463
4OZG G N 65;4OZG G I 79;32.4519
4OZG G N 65;4OZG G I 80;14.5458
4OZG G E 66;4OZG G T 67;24.7058
4OZG G E 66;4OZG G S 77;6.60301
4OZG G E 66;4OZG G L 78;21.7078
4OZG G T 67;4OZG G N 68;36.4435
4OZG G T 67;4OZG G A 76;3.97904
4OZG G T 67;4OZG G S 77;23.4056
4OZG G N 68;4OZG G E 74;41.6528
4OZG G N 68;4OZG G M 75;17.6437
4OZG G N 68;4OZG G A 76;19.8407
4OZG G E 74;4OZG G M 75;30.1598
4OZG G M 75;4OZG G A 76;23.5762
4OZG G M 75;4OZG G L 91;9.51014
4OZG G M 75;4OZG G P 92;10.2927
4OZG G A 76;4OZG G S 77;19.8287
4OZG G A 76;4OZG G L 89;9.41187
4OZG G A 76;4OZG G I 90;6.63021
4OZG G A 76;4OZG G L 91;12.8706
4OZG G A 76;4OZG G P 92;8.56237
4OZG G S 77;4OZG G L 78;18.6108
4OZG G S 77;4OZG G I 79;6.09547
4OZG G S 77;4OZG G T 88;0.628379
4OZG G S 77;4OZG G L 89;9.19361
4OZG G S 77;4OZG G I 90;33.2137
4OZG G S 77;4OZG G P 92;5.85651
4OZG G L 78;4OZG G I 79;24.3
4OZG G L 78;4OZG G I 80;15.4908
4OZG G L 78;4OZG G S 87;7.68808
4OZG G L 78;4OZG G T 88;12.2776
4OZG G L 78;4OZG G L 89;5.64815
4OZG G L 78;4OZG G I 90;1.98965
4OZG G I 79;4OZG G I 80;24.7661
4OZG G I 79;4OZG G T 81;8.19655
4OZG G I 79;4OZG G S 86;0.0416356
4OZG G I 79;4OZG G S 87;6.7877
4OZG G I 79;4OZG G T 88;25.9643
4OZG G I 79;4OZG G I 90;22.5873
4OZG G I 80;4OZG G T 81;32.48
4OZG G I 80;4OZG G E 82;1.59971
4OZG G I 80;4OZG G R 84;22.8123
4OZG G I 80;4OZG G S 86;4.68581
4OZG G I 80;4OZG G S 87;12.2823
4OZG G T 81;4OZG G E 82;27.6151
4OZG G T 81;4OZG G D 83;17.2295
4OZG G T 81;4OZG G R 84;16.0547
4OZG G T 81;4OZG G K 85;2.48796
4OZG G T 81;4OZG G S 86;33.5076
4OZG G T 81;4OZG G S 87;0.778385
4OZG G T 81;4OZG G T 88;2.43779
4OZG G E 82;4OZG G D 83;27.5374
4OZG G E 82;4OZG G R 84;11.0486
4OZG G D 83;4OZG G R 84;23.0143
4OZG G D 83;4OZG G K 85;37.6345
4OZG G D 83;4OZG G S 86;1.16648
4OZG G R 84;4OZG G K 85;14.539
4OZG G R 84;4OZG G S 86;3.65724
4OZG G K 85;4OZG G S 86;22.8597
4OZG G S 86;4OZG G S 87;24.2256
4OZG G S 86;4OZG G T 88;3.55104
4OZG G S 87;4OZG G T 88;24.253
4OZG G S 87;4OZG G C 104;1.94044
4OZG G T 88;4OZG G L 89;20.8437
4OZG G T 88;4OZG G I 90;13.4437
4OZG G L 89;4OZG G I 90;20.9799
4OZG G L 89;4OZG G L 91;11.4847
4OZG G L 89;4OZG G Y 102;7.95454
4OZG G I 90;4OZG G L 91;18.6005
4OZG G I 90;4OZG G P 92;15.6851
4OZG G L 91;4OZG G P 92;21.1592
4OZG G L 91;4OZG G H 93;5.39293
4OZG G L 91;4OZG G A 94;10.229
4OZG G L 91;4OZG G D 98;21.1658
4OZG G L 91;4OZG G Y 102;16.1503
4OZG G L 91;4OZG G L 124;8.97165
4OZG G L 91;4OZG G I 126;0.248372
4OZG G P 92;4OZG G H 93;44.1883
4OZG G H 93;4OZG G A 94;23.0644
4OZG G H 93;4OZG G T 95;11.2442
4OZG G H 93;4OZG G D 98;4.36133
4OZG G A 94;4OZG G T 95;21.272
4OZG G A 94;4OZG G D 98;9.411
4OZG G A 94;4OZG G I 126;16.2729
4OZG G T 95;4OZG G L 96;25.6863
4OZG G T 95;4OZG G R 97;33.5868
4OZG G T 95;4OZG G D 98;23.3879
4OZG G T 95;4OZG G T 99;1.57815
4OZG G T 95;4OZG G I 126;13.5115
4OZG G L 96;4OZG G R 97;30.098
4OZG G L 96;4OZG G D 98;1.2909
4OZG G L 96;4OZG G T 99;20.8962
4OZG G L 96;4OZG G I 126;14.4435
4OZG G L 96;4OZG G P 128;8.40233
4OZG G L 96;4OZG G V 177;24.0135
4OZG G L 96;4OZG G L 178;0.597684
4OZG G L 96;4OZG G D 179;19.5485
4OZG G L 96;4OZG G K 186;17.6644
4OZG G R 97;4OZG G D 98;23.8027
4OZG G R 97;4OZG G T 99;6.82768
4OZG G R 97;4OZG G A 100;1.26854
4OZG G R 97;4OZG G D 179;3.81111
4OZG G R 97;4OZG G R 181;28.5899
4OZG G D 98;4OZG G T 99;17.3178
4OZG G D 98;4OZG G A 100;6.08129
4OZG G D 98;4OZG G Y 102;15.0586
4OZG G D 98;4OZG G L 124;8.53467
4OZG G D 98;4OZG G I 126;9.29938
4OZG G T 99;4OZG G A 100;23.1852
4OZG G T 99;4OZG G H 123;3.59235
4OZG G T 99;4OZG G L 124;9.72681
4OZG G T 99;4OZG G I 125;17.1305
4OZG G T 99;4OZG G I 126;21.0284
4OZG G A 100;4OZG G V 101;20.9775
4OZG G A 100;4OZG G Y 102;14.3725
4OZG G A 100;4OZG G T 122;1.2522
4OZG G A 100;4OZG G H 123;7.20141
4OZG G A 100;4OZG G L 124;16.0517
4OZG G V 101;4OZG G Y 102;19.7361
4OZG G V 101;4OZG G Y 103;29.4173
4OZG G V 101;4OZG G K 120;10.9983
4OZG G V 101;4OZG G G 121;4.26433
4OZG G V 101;4OZG G T 122;8.00491
4OZG G V 101;4OZG G H 123;21.4138
4OZG G Y 102;4OZG G Y 103;18.6446
4OZG G Y 102;4OZG G G 121;4.45917
4OZG G Y 102;4OZG G T 122;21.7415
4OZG G Y 102;4OZG G L 124;13.8144
4OZG G Y 103;4OZG G C 104;19.0707
4OZG G Y 103;4OZG G I 105;12.1006
4OZG G Y 103;4OZG G F 118;34.3453
4OZG G Y 103;4OZG G G 119;17.2607
4OZG G Y 103;4OZG G K 120;5.19036
4OZG G Y 103;4OZG G G 121;10.7805
4OZG G Y 103;4OZG H Q 44;7.47668
4OZG G C 104;4OZG G I 105;25.3893
4OZG G C 104;4OZG G V 106;0.092685
4OZG G C 104;4OZG G T 117;0.022612
4OZG G I 105;4OZG G V 106;30.991
4OZG G I 105;4OZG G L 107;12.2607
4OZG G I 105;4OZG G G 115;0.344857
4OZG G I 105;4OZG G L 116;13.4846
4OZG G I 105;4OZG G T 117;25.4144
4OZG G I 105;4OZG G F 118;13.1639
4OZG G I 105;4OZG G G 119;0.311368
4OZG G V 106;4OZG G L 107;29.7161
4OZG G V 106;4OZG G G 108;1.35704
4OZG G V 106;4OZG G D 114;4.98281
4OZG G V 106;4OZG G G 115;0.844565
4OZG G L 107;4OZG G G 108;29.0043
4OZG G L 107;4OZG G D 114;5.11331
4OZG G L 107;4OZG G G 115;5.75324
4OZG G L 107;4OZG G L 116;26.2983
4OZG G L 107;4OZG H T 111;4.97184
4OZG G L 107;4OZG H D 114;4.68864
4OZG G L 107;4OZG H T 115;1.49523
4OZG G L 107;4OZG H Q 116;0.212838
4OZG G G 108;4OZG G G 109;27.7991
4OZG G G 108;4OZG G D 114;11.1652
4OZG G G 108;4OZG H T 111;6.45523
4OZG G G 109;4OZG G A 113;21.7516
4OZG G G 109;4OZG G D 114;16.782
4OZG G G 109;4OZG G G 115;1.29678
4OZG G G 109;4OZG H F 110;0.156798
4OZG G G 109;4OZG H T 111;14.6695
4OZG G A 113;4OZG G D 114;28.1453
4OZG G A 113;4OZG G G 115;6.9854
4OZG G A 113;4OZG H Y 55;2.0531
4OZG G A 113;4OZG H F 110;22.3003
4OZG G A 113;4OZG H T 111;1.79892
4OZG G D 114;4OZG G G 115;42.5251
4OZG G D 114;4OZG G T 117;0.0356122
4OZG G D 114;4OZG H F 52;4.96258
4OZG G G 115;4OZG G L 116;30.0181
4OZG G G 115;4OZG G T 117;13.2755
4OZG G G 115;4OZG H F 52;8.81282
4OZG G G 115;4OZG H F 110;0.803367
4OZG G G 115;4OZG H Q 116;2.79971
4OZG G L 116;4OZG G T 117;30.7944
4OZG G L 116;4OZG G F 118;11.9056
4OZG G L 116;4OZG H Y 42;21.1333
4OZG G L 116;4OZG H L 50;8.47419
4OZG G L 116;4OZG H F 52;12.6628
4OZG G L 116;4OZG H D 114;0.103903
4OZG G L 116;4OZG H Q 116;23.9777
4OZG G L 116;4OZG H F 118;11.5396
4OZG G T 117;4OZG G F 118;31.9469
4OZG G T 117;4OZG G G 119;2.21148
4OZG G T 117;4OZG H L 50;8.04693
4OZG G T 117;4OZG H F 52;1.31603
4OZG G F 118;4OZG G G 119;32.6052
4OZG G F 118;4OZG H Q 44;6.00995
4OZG G F 118;4OZG H G 49;2.54877
4OZG G F 118;4OZG H L 50;45.6327
4OZG G F 118;4OZG H F 118;8.36247
4OZG G G 119;4OZG G K 120;29.776
4OZG G G 119;4OZG G G 121;5.88696
4OZG G K 120;4OZG G G 121;29.1526
4OZG G K 120;4OZG G H 123;1.37509
4OZG G K 120;4OZG H L 46;9.04447
4OZG G G 121;4OZG G T 122;15.9909
4OZG G G 121;4OZG G H 123;0.831304
4OZG G T 122;4OZG G H 123;16.6309
4OZG G T 122;4OZG G L 124;10.419
4OZG G H 123;4OZG G L 124;20.0586
4OZG G H 123;4OZG G I 125;31.8418
4OZG G L 124;4OZG G I 125;21.2209
4OZG G L 124;4OZG G I 126;17.5894
4OZG G I 125;4OZG G I 126;26.3013
4OZG G I 125;4OZG G Q 127;15.9518
4OZG G I 126;4OZG G Q 127;21.0366
4OZG G I 126;4OZG G P 128;5.1987
4OZG G I 126;4OZG G V 177;5.6158
4OZG G Q 127;4OZG G P 128;30.8068
4OZG G Q 127;4OZG G Y 129;1.30457
4OZG G Q 127;4OZG G S 158;23.8155
4OZG G Q 127;4OZG G Q 159;14.9028
4OZG G Q 127;4OZG G K 175;2.07167
4OZG G P 128;4OZG G Y 129;28.1838
4OZG G P 128;4OZG G I 130;14.0113
4OZG G P 128;4OZG G S 158;22.2039
4OZG G P 128;4OZG G V 177;17.7115
4OZG G P 128;4OZG G K 186;13.4415
4OZG G P 128;4OZG G N 188;6.49105
4OZG G Y 129;4OZG G I 130;36.4385
4OZG G Y 129;4OZG G Q 131;36.1059
4OZG G Y 129;4OZG G K 186;5.15332
4OZG G I 130;4OZG G Q 131;23.3747
4OZG G I 130;4OZG G N 132;8.42908
4OZG G I 130;4OZG G P 133;27.4117
4OZG G I 130;4OZG G D 155;7.0841
4OZG G I 130;4OZG G F 156;8.43834
4OZG G I 130;4OZG G D 157;10.3874
4OZG G I 130;4OZG G S 158;11.9935
4OZG G I 130;4OZG G V 177;1.1361
4OZG G I 130;4OZG G F 185;2.04115
4OZG G I 130;4OZG G K 186;18.7086
4OZG G I 130;4OZG G S 187;8.9789
4OZG G I 130;4OZG G N 188;12.0491
4OZG G Q 131;4OZG G N 132;45.1879
4OZG G Q 131;4OZG G P 133;4.25606
4OZG G N 132;4OZG G P 133;29.0639
4OZG G N 132;4OZG G D 134;8.10032
4OZG G N 132;4OZG G D 155;0.84093
4OZG G N 132;4OZG G F 185;3.04065
4OZG G P 133;4OZG G D 134;21.1476
4OZG G P 133;4OZG G P 135;16.0013
4OZG G P 133;4OZG G D 155;7.62948
4OZG G P 133;4OZG G F 156;3.51195
4OZG G P 133;4OZG G D 157;18.8946
4OZG G D 134;4OZG G P 135;26.2046
4OZG G D 134;4OZG G A 136;8.66063
4OZG G D 134;4OZG G Y 138;0.820729
4OZG G D 134;4OZG G T 154;0.772591
4OZG G D 134;4OZG G D 155;25.6356
4OZG G D 134;4OZG G D 213;0.552893
4OZG G D 134;4OZG G F 215;6.02113
4OZG G D 134;4OZG H H 150;27.1999
4OZG G D 134;4OZG H T 151;3.84447
4OZG G P 135;4OZG G A 136;16.1081
4OZG G P 135;4OZG G F 153;7.69257
4OZG G P 135;4OZG G T 154;4.2372
4OZG G P 135;4OZG G D 155;5.79054
4OZG G P 135;4OZG G F 156;13.2322
4OZG G P 135;4OZG G D 157;2.85203
4OZG G P 135;4OZG G P 211;16.7601
4OZG G P 135;4OZG G D 213;16.3931
4OZG G P 135;4OZG G T 214;15.1665
4OZG G P 135;4OZG G F 215;10.2902
4OZG G A 136;4OZG G V 137;18.4442
4OZG G A 136;4OZG G Y 138;21.927
4OZG G A 136;4OZG G L 152;3.20614
4OZG G A 136;4OZG G F 153;10.2091
4OZG G A 136;4OZG G T 154;16.7402
4OZG G A 136;4OZG G D 155;1.04584
4OZG G A 136;4OZG G T 214;4.48642
4OZG G A 136;4OZG G F 215;18.567
4OZG G A 136;4OZG G P 217;0.432775
4OZG G A 136;4OZG H H 150;1.61111
4OZG G V 137;4OZG G Y 138;23.1261
4OZG G V 137;4OZG G Q 139;1.35084
4OZG G V 137;4OZG G C 151;6.15155
4OZG G V 137;4OZG G L 152;6.71626
4OZG G V 137;4OZG G F 153;12.5344
4OZG G V 137;4OZG G C 201;22.8394
4OZG G V 137;4OZG G A 204;0.929244
4OZG G V 137;4OZG G F 205;16.2346
4OZG G V 137;4OZG G I 210;6.82688
4OZG G V 137;4OZG G T 214;7.31181
4OZG G V 137;4OZG G F 215;9.1167
4OZG G V 137;4OZG G F 216;19.3752
4OZG G V 137;4OZG G P 217;13.9565
4OZG G Y 138;4OZG G Q 139;20.8335
4OZG G Y 138;4OZG G L 140;10.3878
4OZG G Y 138;4OZG G V 150;1.23827
4OZG G Y 138;4OZG G C 151;4.14153
4OZG G Y 138;4OZG G L 152;27.132
4OZG G Y 138;4OZG G T 154;13.2044
4OZG G Y 138;4OZG G D 155;6.34454
4OZG G Y 138;4OZG G C 201;3.94487
4OZG G Y 138;4OZG G F 215;10.035
4OZG G Y 138;4OZG G P 217;11.2088
4OZG G Y 138;4OZG H S 144;14.3823
4OZG G Y 138;4OZG H A 146;9.41526
4OZG G Y 138;4OZG H E 147;27.9008
4OZG G Y 138;4OZG H H 150;14.7068
4OZG G Y 138;4OZG H T 151;6.62222
4OZG G Y 138;4OZG H R 208;0.337836
4OZG G Q 139;4OZG G L 140;28.5053
4OZG G Q 139;4OZG G R 141;0.347597
4OZG G Q 139;4OZG G S 149;21.1948
4OZG G Q 139;4OZG G V 150;7.63704
4OZG G Q 139;4OZG G C 151;2.82346
4OZG G Q 139;4OZG G A 200;0.439946
4OZG G Q 139;4OZG G C 201;25.8212
4OZG G Q 139;4OZG G P 217;0.526206
4OZG G Q 139;4OZG H S 144;18.884
4OZG G L 140;4OZG G R 141;27.785
4OZG G L 140;4OZG G S 149;10.3851
4OZG G L 140;4OZG G V 150;26.6688
4OZG G L 140;4OZG G L 152;17.3593
4OZG G L 140;4OZG H F 141;18.6232
4OZG G L 140;4OZG H E 142;11.3142
4OZG G L 140;4OZG H P 143;4.04464
4OZG G L 140;4OZG H S 144;13.1177
4OZG G L 140;4OZG H E 147;1.58385
4OZG G L 140;4OZG H T 155;8.96897
4OZG G L 140;4OZG H L 156;0.463332
4OZG G L 140;4OZG H V 157;14.8197
4OZG G R 141;4OZG G D 142;29.9175
4OZG G R 141;4OZG G S 143;0.655353
4OZG G R 141;4OZG G D 147;3.88732
4OZG G R 141;4OZG G S 149;1.27345
4OZG G R 141;4OZG H F 141;8.96495
4OZG G R 141;4OZG H E 142;21.7986
4OZG G D 142;4OZG G S 143;37.8726
4OZG G D 142;4OZG G D 147;31.691
4OZG G D 142;4OZG H A 139;14.8711
4OZG G D 142;4OZG H V 140;10.6537
4OZG G D 142;4OZG H F 141;19.4372
4OZG G D 142;4OZG H E 142;6.0383
4OZG G S 143;4OZG H V 140;19.0795
4OZG G S 143;4OZG H F 141;0.115304
4OZG G S 143;4OZG H E 142;22.7554
4OZG G S 143;4OZG H E 251;7.80173
4OZG G S 143;4OZG H A 252;11.2594
4OZG G S 143;4OZG H R 255;1.78861
4OZG G D 147;4OZG G K 148;29.5849
4OZG G D 147;4OZG G S 149;17.2874
4OZG G D 147;4OZG H F 141;6.47913
4OZG G K 148;4OZG G S 149;25.4777
4OZG G K 148;4OZG G V 150;4.97462
4OZG G K 148;4OZG G W 193;9.21071
4OZG G K 148;4OZG G S 194;11.365
4OZG G K 148;4OZG G N 195;21.7772
4OZG G K 148;4OZG H F 141;14.416
4OZG G K 148;4OZG H L 159;1.3511
4OZG G S 149;4OZG G V 150;22.4395
4OZG G S 149;4OZG G C 151;1.60389
4OZG G S 149;4OZG G A 192;0.0140755
4OZG G S 149;4OZG G W 193;6.76088
4OZG G S 149;4OZG G S 194;5.11116
4OZG G S 149;4OZG G F 199;9.72168
4OZG G S 149;4OZG H F 141;3.28126
4OZG G V 150;4OZG G C 151;23.6979
4OZG G V 150;4OZG G L 152;1.11316
4OZG G V 150;4OZG G V 191;12.3504
4OZG G V 150;4OZG G A 192;5.28622
4OZG G V 150;4OZG G W 193;12.1142
4OZG G V 150;4OZG G F 199;0.447235
4OZG G V 150;4OZG G C 201;0.352834
4OZG G V 150;4OZG H F 141;23.0097
4OZG G V 150;4OZG H V 157;10.6444
4OZG G V 150;4OZG H L 159;11.2999
4OZG G C 151;4OZG G L 152;19.6553
4OZG G C 151;4OZG G F 153;0.321038
4OZG G C 151;4OZG G A 190;0.778227
4OZG G C 151;4OZG G V 191;7.66044
4OZG G C 151;4OZG G A 192;18.8036
4OZG G C 151;4OZG G F 199;14.5965
4OZG G C 151;4OZG G A 200;1.30054
4OZG G C 151;4OZG G C 201;24.9669
4OZG G C 151;4OZG G A 204;7.03631
4OZG G C 151;4OZG G F 205;10.8621
4OZG G L 152;4OZG G F 153;19.3181
4OZG G L 152;4OZG G T 154;19.7707
4OZG G L 152;4OZG G S 189;8.01496
4OZG G L 152;4OZG G A 190;6.93581
4OZG G L 152;4OZG G V 191;11.4788
4OZG G L 152;4OZG G F 205;0.454759
4OZG G L 152;4OZG H E 147;5.78942
4OZG G L 152;4OZG H T 155;18.1169
4OZG G L 152;4OZG H V 157;12.3695
4OZG G L 152;4OZG H R 206;8.34052
4OZG G F 153;4OZG G T 154;19.3249
4OZG G F 153;4OZG G F 156;33.1431
4OZG G F 153;4OZG G T 160;3.33268
4OZG G F 153;4OZG G V 162;15.4132
4OZG G F 153;4OZG G S 189;4.84091
4OZG G F 153;4OZG G A 190;20.1259
4OZG G F 153;4OZG G F 205;25.4542
4OZG G F 153;4OZG G I 210;15.9138
4OZG G F 153;4OZG G P 211;11.4597
4OZG G F 153;4OZG G T 214;7.78404
4OZG G T 154;4OZG G D 155;28.693
4OZG G T 154;4OZG G F 156;11.1775
4OZG G T 154;4OZG G S 187;3.97747
4OZG G T 154;4OZG G N 188;6.60983
4OZG G T 154;4OZG G S 189;11.6181
4OZG G T 154;4OZG H E 147;2.45281
4OZG G T 154;4OZG H T 155;3.16918
4OZG G T 154;4OZG H R 208;13.5758
4OZG G D 155;4OZG G F 156;19.0356
4OZG G D 155;4OZG G F 185;10.721
4OZG G D 155;4OZG G S 187;12.0441
4OZG G D 155;4OZG G N 188;6.42422
4OZG G D 155;4OZG H T 151;13.1509
4OZG G D 155;4OZG H R 208;15.8423
4OZG G F 156;4OZG G D 157;27.1225
4OZG G F 156;4OZG G T 160;16.3848
4OZG G F 156;4OZG G V 162;10.0687
4OZG G F 156;4OZG G K 175;16.5243
4OZG G F 156;4OZG G S 187;0.00325196
4OZG G F 156;4OZG G N 188;30.7529
4OZG G F 156;4OZG G S 189;6.90081
4OZG G F 156;4OZG G A 190;6.39739
4OZG G F 156;4OZG G P 211;3.48463
4OZG G D 157;4OZG G S 158;22.8019
4OZG G D 157;4OZG G Q 159;27.6466
4OZG G D 157;4OZG G T 160;28.1348
4OZG G D 157;4OZG G K 175;1.58032
4OZG G D 157;4OZG G N 188;3.76222
4OZG G D 157;4OZG G P 211;1.56974
4OZG G S 158;4OZG G Q 159;25.8836
4OZG G S 158;4OZG G T 160;1.34553
4OZG G S 158;4OZG G N 161;0.770154
4OZG G S 158;4OZG G K 175;17.7169
4OZG G S 158;4OZG G N 188;14.6672
4OZG G Q 159;4OZG G T 160;25.9406
4OZG G Q 159;4OZG G N 161;14.6913
4OZG G Q 159;4OZG G K 175;0.723036
4OZG G T 160;4OZG G N 161;28.0783
4OZG G T 160;4OZG G V 162;2.58568
4OZG G T 160;4OZG G K 175;12.1867
4OZG G T 160;4OZG G I 209;11.0513
4OZG G T 160;4OZG G P 211;22.0112
4OZG G N 161;4OZG G V 162;30.5868
4OZG G N 161;4OZG G K 175;15.5084
4OZG G N 161;4OZG G S 208;11.1584
4OZG G N 161;4OZG G I 209;12.2123
4OZG G V 162;4OZG G S 163;29.5734
4OZG G V 162;4OZG G Q 164;0.686778
4OZG G V 162;4OZG G I 172;6.0504
4OZG G V 162;4OZG G T 173;2.94262
4OZG G V 162;4OZG G D 174;24.612
4OZG G V 162;4OZG G K 175;19.971
4OZG G V 162;4OZG G A 190;12.3638
4OZG G V 162;4OZG G F 205;7.70091
4OZG G V 162;4OZG G S 208;11.1436
4OZG G S 163;4OZG G Q 164;38.1693
4OZG G S 163;4OZG G S 165;0.626981
4OZG G S 163;4OZG G I 172;14.9423
4OZG G S 163;4OZG G F 205;0.0641474
4OZG G S 163;4OZG G N 207;19.4913
4OZG G S 163;4OZG G S 208;23.1767
4OZG G Q 164;4OZG G S 165;31.2821
4OZG G Q 164;4OZG G K 166;4.96618
4OZG G Q 164;4OZG G I 172;15.7804
4OZG G Q 164;4OZG G D 174;3.1251
4OZG G Q 164;4OZG G N 207;6.52401
4OZG G S 165;4OZG G K 166;26.5064
4OZG G S 165;4OZG G D 167;16.7661
4OZG G S 165;4OZG G S 168;0.553017
4OZG G S 165;4OZG G V 170;21.7084
4OZG G S 165;4OZG G Y 171;0.456539
4OZG G S 165;4OZG G I 172;21.9643
4OZG G S 165;4OZG G N 207;14.3584
4OZG G K 166;4OZG G D 167;25.7121
4OZG G K 166;4OZG G S 168;3.39072
4OZG G K 166;4OZG G N 207;26.4965
4OZG G D 167;4OZG G S 168;21.1135
4OZG G D 167;4OZG G D 169;17.8274
4OZG G D 167;4OZG G V 170;24.2294
4OZG G D 167;4OZG G K 196;19.0676
4OZG G D 167;4OZG G N 207;0.559026
4OZG G S 168;4OZG G D 169;23.4398
4OZG G S 168;4OZG G V 170;9.40713
4OZG G S 168;4OZG G Y 171;10.9479
4OZG G S 168;4OZG H E 192;4.50559
4OZG G S 168;4OZG H Q 193;8.20489
4OZG G S 168;4OZG H P 194;16.9086
4OZG G D 169;4OZG G V 170;16.482
4OZG G D 169;4OZG G Y 171;18.077
4OZG G D 169;4OZG G W 193;0.00884729
4OZG G D 169;4OZG G S 194;12.5376
4OZG G D 169;4OZG G N 195;2.5643
4OZG G D 169;4OZG G K 196;23.0463
4OZG G D 169;4OZG H Q 193;6.82157
4OZG G V 170;4OZG G Y 171;30.1872
4OZG G V 170;4OZG G I 172;9.32536
4OZG G V 170;4OZG G A 192;1.76975
4OZG G V 170;4OZG G W 193;5.22495
4OZG G V 170;4OZG G S 194;13.0305
4OZG G V 170;4OZG G K 196;11.3807
4OZG G V 170;4OZG G F 199;21.3875
4OZG G V 170;4OZG G N 203;0.530822
4OZG G V 170;4OZG G A 204;4.24538
4OZG G V 170;4OZG G N 207;0.899974
4OZG G Y 171;4OZG G I 172;24.8899
4OZG G Y 171;4OZG G T 173;0.00329987
4OZG G Y 171;4OZG G V 191;0.59254
4OZG G Y 171;4OZG G A 192;5.38906
4OZG G Y 171;4OZG G W 193;49.6134
4OZG G Y 171;4OZG G S 194;4.61664
4OZG G Y 171;4OZG G N 195;4.61268
4OZG G Y 171;4OZG H L 190;20.3265
4OZG G Y 171;4OZG H K 191;4.68679
4OZG G Y 171;4OZG H E 192;35.7931
4OZG G Y 171;4OZG H Q 193;5.22674
4OZG G Y 171;4OZG H P 194;0.915101
4OZG G Y 171;4OZG H A 202;0.658902
4OZG G I 172;4OZG G T 173;31.6194
4OZG G I 172;4OZG G D 174;1.66679
4OZG G I 172;4OZG G A 190;2.49795
4OZG G I 172;4OZG G V 191;7.05612
4OZG G I 172;4OZG G A 192;12.2926
4OZG G I 172;4OZG G W 193;0.295478
4OZG G I 172;4OZG G A 204;10.1357
4OZG G I 172;4OZG G F 205;19.7451
4OZG G I 172;4OZG G N 207;8.68393
4OZG G I 172;4OZG H L 190;11.6367
4OZG G T 173;4OZG G D 174;33.5074
4OZG G T 173;4OZG G A 190;9.42102
4OZG G T 173;4OZG G V 191;20.7324
4OZG G T 173;4OZG G W 193;12.0306
4OZG G T 173;4OZG H D 186;18.3832
4OZG G T 173;4OZG H L 190;17.0949
4OZG G T 173;4OZG H A 202;0.000229528
4OZG G T 173;4OZG H L 203;0.529294
4OZG G T 173;4OZG H S 204;10.3839
4OZG G T 173;4OZG H R 206;4.50439
4OZG G D 174;4OZG G K 175;39.9862
4OZG G D 174;4OZG G C 176;4.01201
4OZG G D 174;4OZG G S 189;1.19922
4OZG G D 174;4OZG G A 190;3.50474
4OZG G D 174;4OZG H D 186;6.34935
4OZG G D 174;4OZG H P 187;0.702083
4OZG G D 174;4OZG H R 206;3.01666
4OZG G K 175;4OZG G C 176;28.5702
4OZG G K 175;4OZG G N 188;13.7523
4OZG G K 175;4OZG G S 189;7.22074
4OZG G K 175;4OZG G A 190;6.13773
4OZG G K 175;4OZG H P 187;1.18033
4OZG G C 176;4OZG G V 177;23.2573
4OZG G C 176;4OZG G L 178;2.37085
4OZG G C 176;4OZG G S 187;1.04982
4OZG G C 176;4OZG G N 188;5.00514
4OZG G C 176;4OZG G S 189;21.4844
4OZG G C 176;4OZG H C 184;25.2219
4OZG G C 176;4OZG H T 185;6.73673
4OZG G C 176;4OZG H D 186;6.11065
4OZG G C 176;4OZG H P 187;7.64163
4OZG G C 176;4OZG H R 206;14.9035
4OZG G V 177;4OZG G L 178;24.9052
4OZG G V 177;4OZG G D 179;2.02186
4OZG G V 177;4OZG G K 186;6.41438
4OZG G V 177;4OZG G S 187;9.08921
4OZG G V 177;4OZG G N 188;16.6153
4OZG G V 177;4OZG H V 183;1.67485
4OZG G V 177;4OZG H C 184;15.4123
4OZG G L 178;4OZG G D 179;26.4755
4OZG G L 178;4OZG G M 180;11.8287
4OZG G L 178;4OZG G F 185;2.05737
4OZG G L 178;4OZG G K 186;8.49041
4OZG G L 178;4OZG G S 187;28.3803
4OZG G L 178;4OZG G S 189;8.2862
4OZG G L 178;4OZG H T 155;1.33048
4OZG G L 178;4OZG H G 182;13.4778
4OZG G L 178;4OZG H V 183;9.24418
4OZG G L 178;4OZG H C 184;14.3378
4OZG G L 178;4OZG H R 206;14.2837
4OZG G L 178;4OZG H L 207;0.135811
4OZG G L 178;4OZG H R 208;19.8721
4OZG G D 179;4OZG G M 180;18.9257
4OZG G D 179;4OZG G R 181;42.4506
4OZG G D 179;4OZG G D 184;0.66413
4OZG G D 179;4OZG G F 185;4.44966
4OZG G D 179;4OZG G K 186;23.8888
4OZG G D 179;4OZG H H 180;0.55729
4OZG G D 179;4OZG H S 181;3.9861
4OZG G D 179;4OZG H G 182;11.3998
4OZG G D 179;4OZG H V 183;6.60884
4OZG G M 180;4OZG G R 181;15.115
4OZG G M 180;4OZG G S 182;10.8937
4OZG G M 180;4OZG G M 183;25.517
4OZG G M 180;4OZG G D 184;6.54387
4OZG G M 180;4OZG G F 185;36.6023
4OZG G M 180;4OZG H K 153;13.1348
4OZG G M 180;4OZG H S 181;3.48627
4OZG G M 180;4OZG H G 182;9.97777
4OZG G M 180;4OZG H R 208;25.0502
4OZG G M 180;4OZG H V 209;7.42677
4OZG G M 180;4OZG H S 210;0.462567
4OZG G R 181;4OZG G S 182;24.7908
4OZG G R 181;4OZG G M 183;1.77055
4OZG G R 181;4OZG G D 184;16.1106
4OZG G R 181;4OZG H H 180;14.7426
4OZG G R 181;4OZG H S 181;27.4231
4OZG G S 182;4OZG G M 183;36.418
4OZG G S 182;4OZG G D 184;0.0219508
4OZG G S 182;4OZG H S 181;17.032
4OZG G M 183;4OZG G D 184;30.6419
4OZG G M 183;4OZG G F 185;12.763
4OZG G M 183;4OZG H Q 152;0.865065
4OZG G M 183;4OZG H K 153;19.1925
4OZG G M 183;4OZG H V 209;0.373771
4OZG G M 183;4OZG H S 210;23.6845
4OZG G D 184;4OZG G F 185;24.9384
4OZG G D 184;4OZG G K 186;19.4376
4OZG G F 185;4OZG G K 186;44.4554
4OZG G F 185;4OZG G S 187;12.7178
4OZG G F 185;4OZG H T 151;3.66875
4OZG G F 185;4OZG H K 153;28.8824
4OZG G F 185;4OZG H R 208;7.78589
4OZG G K 186;4OZG G S 187;20.9066
4OZG G S 187;4OZG G N 188;24.0972
4OZG G S 187;4OZG G S 189;3.40646
4OZG G S 187;4OZG H R 208;13.4739
4OZG G N 188;4OZG G S 189;19.2775
4OZG G S 189;4OZG G A 190;17.1031
4OZG G S 189;4OZG H T 155;1.44611
4OZG G S 189;4OZG H C 184;1.4525
4OZG G S 189;4OZG H R 206;24.7631
4OZG G A 190;4OZG G V 191;21.0474
4OZG G A 190;4OZG G F 205;13.201
4OZG G A 190;4OZG H R 206;3.43456
4OZG G V 191;4OZG G A 192;20.4491
4OZG G V 191;4OZG G W 193;14.8099
4OZG G V 191;4OZG G F 205;4.33255
4OZG G V 191;4OZG H V 157;18.0803
4OZG G V 191;4OZG H L 159;3.00261
4OZG G V 191;4OZG H S 204;11.7795
4OZG G V 191;4OZG H S 205;0.00549548
4OZG G V 191;4OZG H R 206;15.3269
4OZG G A 192;4OZG G W 193;21.5046
4OZG G A 192;4OZG G F 199;12.1236
4OZG G A 192;4OZG G A 204;7.7792
4OZG G A 192;4OZG G F 205;12.3058
4OZG G W 193;4OZG G S 194;26.5633
4OZG G W 193;4OZG G F 199;10.116
4OZG G W 193;4OZG H L 159;30.4113
4OZG G W 193;4OZG H T 161;12.2174
4OZG G W 193;4OZG H L 190;10.9501
4OZG G W 193;4OZG H E 192;1.7111
4OZG G W 193;4OZG H A 202;13.0878
4OZG G W 193;4OZG H L 203;1.93703
4OZG G W 193;4OZG H S 204;5.11192
4OZG G S 194;4OZG G N 195;25.913
4OZG G S 194;4OZG G K 196;18.1362
4OZG G S 194;4OZG G F 199;25.4784
4OZG G N 195;4OZG G K 196;29.9824
4OZG G N 195;4OZG G S 197;4.28092
4OZG G K 196;4OZG G S 197;28.4887
4OZG G K 196;4OZG G D 198;28.1991
4OZG G K 196;4OZG G F 199;22.1993
4OZG G S 197;4OZG G D 198;33.0002
4OZG G S 197;4OZG G F 199;10.4317
4OZG G D 198;4OZG G F 199;21.444
4OZG G D 198;4OZG G A 200;5.17485
4OZG G D 198;4OZG G N 203;14.5042
4OZG G F 199;4OZG G A 200;35.1796
4OZG G F 199;4OZG G N 203;11.5913
4OZG G F 199;4OZG G A 204;16.2151
4OZG G A 200;4OZG G C 201;22.5028
4OZG G A 200;4OZG G A 202;12.4536
4OZG G A 200;4OZG G N 203;21.649
4OZG G A 200;4OZG G A 204;7.8905
4OZG G C 201;4OZG G A 202;22.1721
4OZG G C 201;4OZG G N 203;0.693302
4OZG G C 201;4OZG G A 204;11.5147
4OZG G C 201;4OZG G F 205;3.79256
4OZG G C 201;4OZG G F 216;12.3768
4OZG G A 202;4OZG G N 203;27.2571
4OZG G A 202;4OZG G A 204;1.55563
4OZG G A 202;4OZG G F 205;1.30032
4OZG G A 202;4OZG G N 206;6.26349
4OZG G A 202;4OZG G F 216;22.4425
4OZG G N 203;4OZG G A 204;24.2973
4OZG G N 203;4OZG G F 205;0.928722
4OZG G N 203;4OZG G N 206;23.5654
4OZG G N 203;4OZG G N 207;3.9908
4OZG G A 204;4OZG G F 205;28.414
4OZG G A 204;4OZG G N 206;2.45828
4OZG G A 204;4OZG G N 207;7.57642
4OZG G F 205;4OZG G N 206;20.5402
4OZG G F 205;4OZG G N 207;6.54656
4OZG G F 205;4OZG G S 208;17.8795
4OZG G F 205;4OZG G I 210;26.289
4OZG G F 205;4OZG G F 216;0.0126918
4OZG G N 206;4OZG G N 207;27.8012
4OZG G N 206;4OZG G S 208;7.73782
4OZG G N 206;4OZG G I 210;5.50832
4OZG G N 207;4OZG G S 208;24.8206
4OZG G S 208;4OZG G I 209;29.6166
4OZG G S 208;4OZG G I 210;17.671
4OZG G I 209;4OZG G I 210;24.9247
4OZG G I 209;4OZG G P 211;5.84653
4OZG G I 210;4OZG G P 211;37.462
4OZG G I 210;4OZG G E 212;2.69876
4OZG G I 210;4OZG G T 214;13.3446
4OZG G I 210;4OZG G F 216;14.7497
4OZG G P 211;4OZG G E 212;28.6607
4OZG G P 211;4OZG G D 213;8.71015
4OZG G P 211;4OZG G T 214;20.8866
4OZG G E 212;4OZG G D 213;27.4989
4OZG G E 212;4OZG G T 214;7.29255
4OZG G D 213;4OZG G T 214;22.8932
4OZG G D 213;4OZG G F 215;4.91016
4OZG G T 214;4OZG G F 215;24.0227
4OZG G T 214;4OZG G F 216;26.7486
4OZG G F 215;4OZG G F 216;32.6059
4OZG G F 215;4OZG G P 217;27.9178
4OZG G F 215;4OZG H A 146;6.94168
4OZG G F 215;4OZG H H 150;30.8046
4OZG G F 216;4OZG G P 217;33.2402
4OZG G P 217;4OZG H S 144;0.0414374
4OZG G P 217;4OZG H A 146;18.3447
4OZG H G 3;4OZG H V 4;25.2816
4OZG H G 3;4OZG H S 5;9.98676
4OZG H G 3;4OZG H D 24;1.01432
4OZG H G 3;4OZG H P 25;2.9759
4OZG H G 3;4OZG H I 26;27.0759
4OZG H V 4;4OZG H S 5;24.2641
4OZG H V 4;4OZG H Q 6;3.26774
4OZG H V 4;4OZG H C 23;9.23764
4OZG H V 4;4OZG H D 24;5.13061
4OZG H V 4;4OZG H P 25;9.43093
4OZG H V 4;4OZG H I 26;16.1267
4OZG H V 4;4OZG H C 104;8.60374
4OZG H V 4;4OZG H A 105;3.53422
4OZG H V 4;4OZG H S 106;11.9149
4OZG H V 4;4OZG H Y 117;11.264
4OZG H V 4;4OZG H F 118;7.204
4OZG H V 4;4OZG H G 119;17.6807
4OZG H V 4;4OZG H P 120;8.89798
4OZG H S 5;4OZG H Q 6;28.912
4OZG H S 5;4OZG H R 22;0.653588
4OZG H S 5;4OZG H C 23;6.0509
4OZG H S 5;4OZG H D 24;35.3344
4OZG H S 5;4OZG H P 25;0.370586
4OZG H S 5;4OZG H G 119;0.0141905
4OZG H S 5;4OZG H P 120;3.28872
4OZG H Q 6;4OZG H S 7;27.6005
4OZG H Q 6;4OZG H P 8;2.0104
4OZG H Q 6;4OZG H S 9;6.19936
4OZG H Q 6;4OZG H L 21;0.188788
4OZG H Q 6;4OZG H R 22;9.57067
4OZG H Q 6;4OZG H C 23;7.76366
4OZG H Q 6;4OZG H D 24;0.143968
4OZG H Q 6;4OZG H W 41;9.08814
4OZG H Q 6;4OZG H Y 102;6.4422
4OZG H Q 6;4OZG H L 103;6.03263
4OZG H Q 6;4OZG H C 104;16.8706
4OZG H Q 6;4OZG H G 119;8.79088
4OZG H Q 6;4OZG H P 120;22.689
4OZG H Q 6;4OZG H G 121;19.8647
4OZG H Q 6;4OZG H T 122;11.4082
4OZG H S 7;4OZG H P 8;34.5456
4OZG H S 7;4OZG H S 9;0.810583
4OZG H S 7;4OZG H E 20;0.763183
4OZG H S 7;4OZG H L 21;3.55936
4OZG H S 7;4OZG H R 22;45.0104
4OZG H S 7;4OZG H T 122;5.9416
4OZG H P 8;4OZG H S 9;25.1269
4OZG H P 8;4OZG H N 10;17.0672
4OZG H P 8;4OZG H K 11;16.6572
4OZG H P 8;4OZG H E 20;10.3905
4OZG H P 8;4OZG H L 21;8.54378
4OZG H P 8;4OZG H G 121;1.28589
4OZG H P 8;4OZG H T 122;20.4096
4OZG H S 9;4OZG H N 10;35.8266
4OZG H S 9;4OZG H P 120;0.659982
4OZG H S 9;4OZG H G 121;9.90527
4OZG H S 9;4OZG H T 122;5.27252
4OZG H S 9;4OZG H R 123;10.7505
4OZG H S 9;4OZG H E 169;0.305397
4OZG H S 9;4OZG H Y 228;17.4368
4OZG H N 10;4OZG H K 11;26.0333
4OZG H N 10;4OZG H V 12;0.873772
4OZG H N 10;4OZG H T 122;2.76307
4OZG H N 10;4OZG H R 123;26.1099
4OZG H N 10;4OZG H H 167;18.6113
4OZG H N 10;4OZG H E 169;3.53041
4OZG H N 10;4OZG H Y 228;32.7026
4OZG H K 11;4OZG H V 12;35.1484
4OZG H K 11;4OZG H T 13;13.074
4OZG H K 11;4OZG H D 18;0.0964414
4OZG H K 11;4OZG H V 19;20.1258
4OZG H K 11;4OZG H E 20;1.21044
4OZG H K 11;4OZG H L 21;4.98646
4OZG H K 11;4OZG H T 122;5.79819
4OZG H K 11;4OZG H R 123;8.85284
4OZG H K 11;4OZG H L 124;20.2954
4OZG H K 11;4OZG H T 125;8.93593
4OZG H K 11;4OZG H H 167;5.27858
4OZG H K 11;4OZG H S 231;5.80373
4OZG H V 12;4OZG H T 13;26.1478
4OZG H V 12;4OZG H T 125;12.1132
4OZG H V 12;4OZG H L 127;9.94881
4OZG H V 12;4OZG H L 130;4.90816
4OZG H V 12;4OZG H V 133;6.65741
4OZG H V 12;4OZG H P 165;15.5692
4OZG H V 12;4OZG H H 167;12.0999
4OZG H V 12;4OZG H Y 228;11.7665
4OZG H V 12;4OZG H G 229;23.5106
4OZG H V 12;4OZG H L 230;8.39234
4OZG H V 12;4OZG H D 234;7.39501
4OZG H T 13;4OZG H E 14;26.0404
4OZG H T 13;4OZG H K 17;14.3659
4OZG H T 13;4OZG H D 18;0.00640704
4OZG H T 13;4OZG H V 19;12.9033
4OZG H T 13;4OZG H T 94;8.20037
4OZG H T 13;4OZG H L 124;7.91658
4OZG H T 13;4OZG H T 125;11.4985
4OZG H T 13;4OZG H V 126;16.0739
4OZG H T 13;4OZG H L 127;10.5337
4OZG H T 13;4OZG H L 130;7.16632
4OZG H T 13;4OZG H L 230;0.0159533
4OZG H T 13;4OZG H D 234;5.10386
4OZG H E 14;4OZG H K 15;32.4754
4OZG H E 14;4OZG H G 16;0.0712118
4OZG H E 14;4OZG H K 17;34.3128
4OZG H E 14;4OZG H T 94;3.98643
4OZG H E 14;4OZG H V 126;3.68483
4OZG H E 14;4OZG H L 127;9.0398
4OZG H E 14;4OZG H E 128;8.77723
4OZG H E 14;4OZG H D 129;8.18439
4OZG H E 14;4OZG H L 130;35.3363
4OZG H E 14;4OZG H D 234;5.19212
4OZG H K 15;4OZG H G 16;23.0448
4OZG H K 15;4OZG H K 17;9.32351
4OZG H K 15;4OZG H T 94;7.36032
4OZG H K 15;4OZG H Q 95;9.72935
4OZG H K 15;4OZG H Q 96;3.92532
4OZG H K 15;4OZG H V 126;11.3688
4OZG H K 15;4OZG H L 127;12.314
4OZG H K 15;4OZG H E 128;44.3265
4OZG H G 16;4OZG H K 17;26.5168
4OZG H G 16;4OZG H D 18;4.67411
4OZG H G 16;4OZG H R 93;21.3471
4OZG H G 16;4OZG H T 94;11.0676
4OZG H G 16;4OZG H Q 95;4.38693
4OZG H K 17;4OZG H D 18;30.3963
4OZG H K 17;4OZG H V 19;2.26869
4OZG H K 17;4OZG H I 91;0.437323
4OZG H K 17;4OZG H Q 92;0.34518
4OZG H K 17;4OZG H R 93;4.61899
4OZG H K 17;4OZG H T 94;18.5976
4OZG H K 17;4OZG H L 130;0.0859954
4OZG H K 17;4OZG H D 234;8.89258
4OZG H D 18;4OZG H V 19;31.4113
4OZG H D 18;4OZG H T 90;6.77975
4OZG H D 18;4OZG H I 91;4.2369
4OZG H D 18;4OZG H Q 92;22.9779
4OZG H D 18;4OZG H R 93;11.7627
4OZG H D 18;4OZG H T 94;0.561035
4OZG H V 19;4OZG H E 20;29.1786
4OZG H V 19;4OZG H L 21;11.5648
4OZG H V 19;4OZG H L 89;1.4002
4OZG H V 19;4OZG H T 90;10.888
4OZG H V 19;4OZG H I 91;28.4266
4OZG H V 19;4OZG H T 94;11.6684
4OZG H V 19;4OZG H L 124;13.6524
4OZG H E 20;4OZG H L 21;25.5712
4OZG H E 20;4OZG H R 22;2.41971
4OZG H E 20;4OZG H T 88;20.8218
4OZG H E 20;4OZG H L 89;3.93526
4OZG H E 20;4OZG H T 90;16.0122
4OZG H L 21;4OZG H R 22;21.7492
4OZG H L 21;4OZG H C 23;0.0257041
4OZG H L 21;4OZG H W 41;18.2566
4OZG H L 21;4OZG H S 87;0.810334
4OZG H L 21;4OZG H T 88;9.91502
4OZG H L 21;4OZG H L 89;30.4403
4OZG H L 21;4OZG H I 91;11.7343
4OZG H L 21;4OZG H Y 102;16.2404
4OZG H L 21;4OZG H T 122;21.2813
4OZG H L 21;4OZG H L 124;8.61287
4OZG H R 22;4OZG H C 23;21.4717
4OZG H R 22;4OZG H D 24;23.0005
4OZG H R 22;4OZG H W 41;5.10919
4OZG H R 22;4OZG H V 86;26.121
4OZG H R 22;4OZG H S 87;5.73756
4OZG H R 22;4OZG H T 88;11.9283
4OZG H R 22;4OZG H T 122;1.22234
4OZG H C 23;4OZG H D 24;18.9237
4OZG H C 23;4OZG H P 25;8.03801
4OZG H C 23;4OZG H L 39;11.9038
4OZG H C 23;4OZG H W 41;11.3469
4OZG H C 23;4OZG H V 86;8.64042
4OZG H C 23;4OZG H S 87;15.6632
4OZG H C 23;4OZG H C 104;18.3766
4OZG H C 23;4OZG H S 106;0.0434541
4OZG H D 24;4OZG H P 25;32.898
4OZG H D 24;4OZG H S 85;1.22753
4OZG H D 24;4OZG H V 86;22.6346
4OZG H P 25;4OZG H I 26;27.2152
4OZG H P 25;4OZG H S 27;6.21383
4OZG H P 25;4OZG H H 29;9.51992
4OZG H P 25;4OZG H A 38;0.65753
4OZG H P 25;4OZG H L 39;14.3532
4OZG H P 25;4OZG H R 80;7.51169
4OZG H P 25;4OZG H S 85;15.4631
4OZG H P 25;4OZG H V 86;6.57087
4OZG H P 25;4OZG H C 104;0.0021479
4OZG H P 25;4OZG H S 106;12.6059
4OZG H I 26;4OZG H S 27;35.684
4OZG H I 26;4OZG H G 28;1.49274
4OZG H I 26;4OZG H H 29;36.0987
4OZG H I 26;4OZG H S 106;8.94218
4OZG H I 26;4OZG H Y 117;19.9711
4OZG H S 27;4OZG H G 28;30.3187
4OZG H S 27;4OZG H H 29;6.65721
4OZG H G 28;4OZG H H 29;23.2831
4OZG H G 28;4OZG H T 37;11.2116
4OZG H G 28;4OZG H F 108;18.1918
4OZG H H 29;4OZG H T 37;19.4149
4OZG H H 29;4OZG H A 38;6.62904
4OZG H H 29;4OZG H R 80;8.2807
4OZG H H 29;4OZG H G 84;1.35949
4OZG H H 29;4OZG H S 85;0.709846
4OZG H H 29;4OZG H S 106;15.5145
4OZG H H 29;4OZG H S 107;14.6153
4OZG H H 29;4OZG H F 108;27.9241
4OZG H H 29;4OZG H Y 117;12.7395
4OZG H T 37;4OZG H A 38;18.5541
4OZG H T 37;4OZG H F 56;1.13337
4OZG H T 37;4OZG H Q 57;18.8901
4OZG H T 37;4OZG H G 58;14.4062
4OZG H T 37;4OZG H R 80;11.6806
4OZG H T 37;4OZG H G 84;6.34654
4OZG H T 37;4OZG H S 107;0.794627
4OZG H T 37;4OZG H F 108;11.7483
4OZG H T 37;4OZG H R 109;3.73407
4OZG H A 38;4OZG H L 39;18.9569
4OZG H A 38;4OZG H Y 40;11.9663
4OZG H A 38;4OZG H Y 55;0.424533
4OZG H A 38;4OZG H F 56;9.40837
4OZG H A 38;4OZG H Q 57;7.13652
4OZG H A 38;4OZG H R 80;3.33119
4OZG H A 38;4OZG H S 106;8.32935
4OZG H A 38;4OZG H S 107;17.9994
4OZG H A 38;4OZG H F 108;1.85406
4OZG H A 38;4OZG H R 109;6.60942
4OZG H A 38;4OZG H F 110;8.91765
4OZG H L 39;4OZG H Y 40;28.9152
4OZG H L 39;4OZG H W 41;12.3109
4OZG H L 39;4OZG H I 54;0.185265
4OZG H L 39;4OZG H Y 55;7.00218
4OZG H L 39;4OZG H F 56;27.4846
4OZG H L 39;4OZG H R 80;16.9452
4OZG H L 39;4OZG H S 85;3.77143
4OZG H L 39;4OZG H V 86;0.028195
4OZG H L 39;4OZG H S 87;14.9148
4OZG H L 39;4OZG H C 104;10.886
4OZG H L 39;4OZG H A 105;6.05915
4OZG H L 39;4OZG H S 106;4.96905
4OZG H Y 40;4OZG H W 41;20.1779
4OZG H Y 40;4OZG H Y 42;15.1959
4OZG H Y 40;4OZG H F 52;14.8257
4OZG H Y 40;4OZG H I 54;2.8465
4OZG H Y 40;4OZG H Y 55;17.7462
4OZG H Y 40;4OZG H F 56;0.188018
4OZG H Y 40;4OZG H C 104;8.4691
4OZG H Y 40;4OZG H A 105;21.8302
4OZG H Y 40;4OZG H S 106;4.30394
4OZG H Y 40;4OZG H S 107;12.5005
4OZG H Y 40;4OZG H R 109;0.549951
4OZG H Y 40;4OZG H F 110;19.9504
4OZG H Y 40;4OZG H T 111;7.90229
4OZG H Y 40;4OZG H D 114;2.75614
4OZG H Y 40;4OZG H Q 116;29.3418
4OZG H W 41;4OZG H Y 42;25.1448
4OZG H W 41;4OZG H F 52;7.68175
4OZG H W 41;4OZG H L 53;19.3436
4OZG H W 41;4OZG H I 54;26.9934
4OZG H W 41;4OZG H F 56;6.90308
4OZG H W 41;4OZG H A 78;4.33217
4OZG H W 41;4OZG H S 87;13.0656
4OZG H W 41;4OZG H T 88;4.06857
4OZG H W 41;4OZG H L 89;29.7501
4OZG H W 41;4OZG H Y 102;9.83043
4OZG H W 41;4OZG H L 103;8.95192
4OZG H W 41;4OZG H C 104;13.1345
4OZG H W 41;4OZG H T 122;0.253406
4OZG H Y 42;4OZG H R 43;18.8932
4OZG H Y 42;4OZG H Q 44;0.000696305
4OZG H Y 42;4OZG H L 50;24.2864
4OZG H Y 42;4OZG H E 51;7.02326
4OZG H Y 42;4OZG H F 52;26.6825
4OZG H Y 42;4OZG H L 53;10.6748
4OZG H Y 42;4OZG H V 101;0.000211397
4OZG H Y 42;4OZG H Y 102;7.34208
4OZG H Y 42;4OZG H L 103;28.8254
4OZG H Y 42;4OZG H C 104;2.23514
4OZG H Y 42;4OZG H A 105;7.48866
4OZG H Y 42;4OZG H Q 116;13.3907
4OZG H Y 42;4OZG H F 118;17.2337
4OZG H R 43;4OZG H Q 44;21.2599
4OZG H R 43;4OZG H S 45;2.33237
4OZG H R 43;4OZG H G 49;2.71305
4OZG H R 43;4OZG H L 50;6.31277
4OZG H R 43;4OZG H E 51;50.5525
4OZG H R 43;4OZG H L 53;17.4559
4OZG H R 43;4OZG H P 72;22.1355
4OZG H R 43;4OZG H F 76;10.4982
4OZG H R 43;4OZG H E 97;12.2515
4OZG H R 43;4OZG H D 98;11.4989
4OZG H R 43;4OZG H A 100;14.1763
4OZG H R 43;4OZG H V 101;3.07904
4OZG H R 43;4OZG H Y 102;24.7698
4OZG H R 43;4OZG H L 103;0.343429
4OZG H Q 44;4OZG H S 45;28.9281
4OZG H Q 44;4OZG H L 46;6.68659
4OZG H Q 44;4OZG H G 49;8.85719
4OZG H Q 44;4OZG H L 50;22.1988
4OZG H Q 44;4OZG H A 100;7.49045
4OZG H Q 44;4OZG H V 101;34.5043
4OZG H Q 44;4OZG H L 103;16.5893
4OZG H S 45;4OZG H L 46;30.701
4OZG H S 45;4OZG H G 47;6.27697
4OZG H S 45;4OZG H Q 48;18.5679
4OZG H S 45;4OZG H G 49;16.962
4OZG H S 45;4OZG H E 51;7.28303
4OZG H S 45;4OZG H S 99;6.78251
4OZG H S 45;4OZG H A 100;13.4473
4OZG H L 46;4OZG H G 47;30.0648
4OZG H L 46;4OZG H Q 48;0.55954
4OZG H L 46;4OZG H G 49;3.95152
4OZG H L 46;4OZG H Q 188;14.7441
4OZG H G 47;4OZG H Q 48;27.2996
4OZG H G 47;4OZG H G 49;2.50286
4OZG H Q 48;4OZG H G 49;26.4389
4OZG H Q 48;4OZG H L 50;0.641819
4OZG H Q 48;4OZG H E 51;25.4112
4OZG H G 49;4OZG H L 50;24.6719
4OZG H G 49;4OZG H E 51;5.87941
4OZG H L 50;4OZG H E 51;24.1674
4OZG H L 50;4OZG H F 52;4.12228
4OZG H L 50;4OZG H L 103;10.3162
4OZG H L 50;4OZG H F 118;8.78081
4OZG H E 51;4OZG H F 52;25.8514
4OZG H E 51;4OZG H L 53;10.7582
4OZG H E 51;4OZG H P 72;0.333595
4OZG H F 52;4OZG H L 53;26.5821
4OZG H F 52;4OZG H I 54;12.3494
4OZG H F 52;4OZG H Y 55;23.481
4OZG H F 52;4OZG H D 67;0.459971
4OZG H F 52;4OZG H S 69;0.743129
4OZG H F 52;4OZG H G 70;16.9779
4OZG H F 52;4OZG H F 110;0.0048093
4OZG H L 53;4OZG H I 54;24.6649
4OZG H L 53;4OZG H S 69;6.84208
4OZG H L 53;4OZG H G 70;16.4595
4OZG H L 53;4OZG H L 71;16.5439
4OZG H L 53;4OZG H P 72;14.6591
4OZG H L 53;4OZG H F 76;5.52028
4OZG H L 53;4OZG H L 89;13.2075
4OZG H L 53;4OZG H Y 102;11.3191
4OZG H I 54;4OZG H Y 55;27.6045
4OZG H I 54;4OZG H F 56;11.3112
4OZG H I 54;4OZG H A 65;11.5273
4OZG H I 54;4OZG H D 67;11.9304
4OZG H I 54;4OZG H K 68;16.025
4OZG H I 54;4OZG H S 69;2.901
4OZG H I 54;4OZG H L 71;21.0487
4OZG H I 54;4OZG H A 78;17.6273
4OZG H I 54;4OZG H L 89;4.75528
4OZG H Y 55;4OZG H F 56;31.2808
4OZG H Y 55;4OZG H Q 57;5.79188
4OZG H Y 55;4OZG H A 65;7.60386
4OZG H Y 55;4OZG H P 66;23.9686
4OZG H Y 55;4OZG H D 67;16.3977
4OZG H Y 55;4OZG H F 110;27.6723
4OZG H F 56;4OZG H Q 57;20.0941
4OZG H F 56;4OZG H G 58;5.75753
4OZG H F 56;4OZG H N 63;8.76196
4OZG H F 56;4OZG H S 64;8.5364
4OZG H F 56;4OZG H A 65;19.6932
4OZG H F 56;4OZG H P 66;1.81251
4OZG H F 56;4OZG H K 68;0.348541
4OZG H F 56;4OZG H A 78;17.8602
4OZG H F 56;4OZG H E 79;7.39033
4OZG H F 56;4OZG H R 80;28.8919
4OZG H F 56;4OZG H S 87;7.61362
4OZG H F 56;4OZG H F 110;0.151448
4OZG H Q 57;4OZG H G 58;27.3939
4OZG H Q 57;4OZG H N 63;0.842461
4OZG H Q 57;4OZG H S 64;17.8001
4OZG H Q 57;4OZG H P 66;6.17063
4OZG H Q 57;4OZG H R 109;8.21739
4OZG H Q 57;4OZG H F 110;17.0799
4OZG H G 58;4OZG H N 63;23.7964
4OZG H G 58;4OZG H S 64;1.9156
4OZG H G 58;4OZG H R 80;13.7122
4OZG H G 58;4OZG H G 84;10.3171
4OZG H N 63;4OZG H S 64;36.5622
4OZG H N 63;4OZG H R 80;19.1528
4OZG H N 63;4OZG H T 81;14.9626
4OZG H N 63;4OZG H G 83;1.88657
4OZG H N 63;4OZG H G 84;11.9855
4OZG H S 64;4OZG H A 65;26.5449
4OZG H S 64;4OZG H P 66;8.34586
4OZG H A 65;4OZG H P 66;30.045
4OZG H A 65;4OZG H D 67;5.10714
4OZG H A 65;4OZG H K 68;25.5247
4OZG H A 65;4OZG H A 78;0.39958
4OZG H P 66;4OZG H D 67;26.6358
4OZG H P 66;4OZG H K 68;4.27193
4OZG H D 67;4OZG H K 68;22.7159
4OZG H D 67;4OZG H S 69;37.7171
4OZG H K 68;4OZG H S 69;27.5572
4OZG H K 68;4OZG H L 71;26.7876
4OZG H K 68;4OZG H A 78;9.43354
4OZG H S 69;4OZG H G 70;28.421
4OZG H S 69;4OZG H L 71;8.58195
4OZG H G 70;4OZG H L 71;23.1873
4OZG H G 70;4OZG H P 72;6.09842
4OZG H L 71;4OZG H P 72;32.7701
4OZG H L 71;4OZG H S 73;7.4645
4OZG H L 71;4OZG H F 76;26.5591
4OZG H L 71;4OZG H S 77;7.96845
4OZG H L 71;4OZG H A 78;4.74728
4OZG H L 71;4OZG H L 89;8.53996
4OZG H P 72;4OZG H S 73;30.741
4OZG H P 72;4OZG H F 76;25.2332
4OZG H S 73;4OZG H D 74;28.0378
4OZG H S 73;4OZG H R 75;27.643
4OZG H S 73;4OZG H F 76;26.1563
4OZG H D 74;4OZG H R 75;22.178
4OZG H D 74;4OZG H F 76;5.0966
4OZG H D 74;4OZG H S 77;1.41141
4OZG H D 74;4OZG H Q 92;10.3326
4OZG H D 74;4OZG H R 93;10.8925
4OZG H R 75;4OZG H F 76;31.2601
4OZG H R 75;4OZG H S 77;5.40557
4OZG H R 75;4OZG H T 90;5.19995
4OZG H R 75;4OZG H I 91;11.6214
4OZG H R 75;4OZG H Q 92;34.5333
4OZG H R 75;4OZG H R 93;30.4709
4OZG H R 75;4OZG H T 94;3.93434
4OZG H R 75;4OZG H Q 95;17.1142
4OZG H R 75;4OZG H E 97;10.8667
4OZG H R 75;4OZG H D 98;14.317
4OZG H F 76;4OZG H S 77;23.3803
4OZG H F 76;4OZG H L 89;9.1754
4OZG H F 76;4OZG H T 90;4.40535
4OZG H F 76;4OZG H I 91;24.223
4OZG H F 76;4OZG H D 98;10.0379
4OZG H F 76;4OZG H Y 102;11.0648
4OZG H S 77;4OZG H A 78;28.773
4OZG H S 77;4OZG H L 89;9.73629
4OZG H S 77;4OZG H T 90;31.5584
4OZG H S 77;4OZG H Q 92;7.41021
4OZG H A 78;4OZG H E 79;26.2127
4OZG H A 78;4OZG H S 87;0.693982
4OZG H A 78;4OZG H T 88;6.98812
4OZG H A 78;4OZG H L 89;10.128
4OZG H A 78;4OZG H T 90;0.77632
4OZG H E 79;4OZG H R 80;24.3962
4OZG H E 79;4OZG H T 81;27.1144
4OZG H E 79;4OZG H V 86;4.77641
4OZG H E 79;4OZG H S 87;7.92051
4OZG H E 79;4OZG H T 88;36.262
4OZG H E 79;4OZG H T 90;1.26907
4OZG H R 80;4OZG H T 81;19.0102
4OZG H R 80;4OZG H G 83;2.26499
4OZG H R 80;4OZG H G 84;21.112
4OZG H R 80;4OZG H S 85;19.8357
4OZG H R 80;4OZG H V 86;8.49852
4OZG H R 80;4OZG H S 87;12.3859
4OZG H T 81;4OZG H G 83;32.1183
4OZG H T 81;4OZG H G 84;1.98581
4OZG H T 81;4OZG H V 86;0.813762
4OZG H G 83;4OZG H G 84;23.0039
4OZG H G 83;4OZG H S 85;9.89582
4OZG H G 83;4OZG H V 86;5.85542
4OZG H G 84;4OZG H S 85;22.7928
4OZG H G 84;4OZG H V 86;0.0985024
4OZG H S 85;4OZG H V 86;36.2395
4OZG H S 85;4OZG H S 87;1.87655
4OZG H V 86;4OZG H S 87;22.7711
4OZG H V 86;4OZG H T 88;3.54435
4OZG H S 87;4OZG H T 88;24.9315
4OZG H T 88;4OZG H L 89;21.4399
4OZG H T 88;4OZG H T 90;12.3116
4OZG H L 89;4OZG H T 90;23.5293
4OZG H L 89;4OZG H I 91;10.8665
4OZG H L 89;4OZG H Y 102;9.56089
4OZG H T 90;4OZG H I 91;21.9606
4OZG H T 90;4OZG H Q 92;12.6293
4OZG H I 91;4OZG H Q 92;20.829
4OZG H I 91;4OZG H T 94;15.1535
4OZG H I 91;4OZG H D 98;9.94676
4OZG H I 91;4OZG H Y 102;12.7771
4OZG H I 91;4OZG H L 124;10.0493
4OZG H Q 92;4OZG H R 93;48.4735
4OZG H Q 92;4OZG H T 94;4.13962
4OZG H R 93;4OZG H T 94;16.3319
4OZG H R 93;4OZG H Q 95;11.4813
4OZG H T 94;4OZG H Q 95;23.1769
4OZG H T 94;4OZG H D 98;7.2319
4OZG H T 94;4OZG H L 124;4.35112
4OZG H T 94;4OZG H V 126;15.9386
4OZG H Q 95;4OZG H Q 96;22.0282
4OZG H Q 95;4OZG H E 97;25.34
4OZG H Q 95;4OZG H D 98;16.9759
4OZG H Q 95;4OZG H S 99;0.768495
4OZG H Q 95;4OZG H V 126;12.2854
4OZG H Q 96;4OZG H E 97;27.6644
4OZG H Q 96;4OZG H D 98;2.22716
4OZG H Q 96;4OZG H S 99;24.2723
4OZG H Q 96;4OZG H T 125;0.0833917
4OZG H Q 96;4OZG H V 126;22.877
4OZG H Q 96;4OZG H L 127;7.77143
4OZG H Q 96;4OZG H E 128;30.7107
4OZG H E 97;4OZG H D 98;25.1461
4OZG H E 97;4OZG H S 99;9.14357
4OZG H E 97;4OZG H A 100;1.01928
4OZG H D 98;4OZG H S 99;16.9498
4OZG H D 98;4OZG H A 100;6.51446
4OZG H D 98;4OZG H Y 102;13.8607
4OZG H D 98;4OZG H L 124;10.7738
4OZG H D 98;4OZG H V 126;4.71586
4OZG H S 99;4OZG H A 100;23.596
4OZG H S 99;4OZG H L 124;10.3078
4OZG H S 99;4OZG H T 125;11.4702
4OZG H S 99;4OZG H V 126;18.4386
4OZG H A 100;4OZG H V 101;23.3618
4OZG H A 100;4OZG H Y 102;15.8544
4OZG H A 100;4OZG H T 122;1.8124
4OZG H A 100;4OZG H R 123;2.70297
4OZG H A 100;4OZG H L 124;19.8392
4OZG H V 101;4OZG H Y 102;18.6838
4OZG H V 101;4OZG H L 103;17.2758
4OZG H V 101;4OZG H P 120;3.94487
4OZG H V 101;4OZG H G 121;7.0271
4OZG H V 101;4OZG H T 122;9.53984
4OZG H V 101;4OZG H R 123;30.9997
4OZG H Y 102;4OZG H L 103;16.7621
4OZG H Y 102;4OZG H G 121;3.981
4OZG H Y 102;4OZG H T 122;22.6907
4OZG H Y 102;4OZG H L 124;13.4116
4OZG H L 103;4OZG H C 104;20.9574
4OZG H L 103;4OZG H F 118;12.5381
4OZG H L 103;4OZG H G 119;6.53616
4OZG H L 103;4OZG H P 120;2.7251
4OZG H L 103;4OZG H G 121;11.0656
4OZG H C 104;4OZG H A 105;22.3301
4OZG H C 104;4OZG H S 106;0.392965
4OZG H C 104;4OZG H Y 117;0.0103546
4OZG H C 104;4OZG H F 118;9.2849
4OZG H C 104;4OZG H G 119;7.29595
4OZG H A 105;4OZG H S 106;19.8289
4OZG H A 105;4OZG H Q 116;10.9509
4OZG H A 105;4OZG H Y 117;7.81882
4OZG H A 105;4OZG H F 118;15.8057
4OZG H S 106;4OZG H S 107;16.7194
4OZG H S 106;4OZG H T 115;0.876316
4OZG H S 106;4OZG H Q 116;6.4315
4OZG H S 106;4OZG H Y 117;17.4449
4OZG H S 107;4OZG H F 108;17.4777
4OZG H S 107;4OZG H R 109;8.76715
4OZG H S 107;4OZG H D 114;12.9795
4OZG H S 107;4OZG H T 115;10.3673
4OZG H S 107;4OZG H Q 116;5.36561
4OZG H S 107;4OZG H Y 117;0.55787
4OZG H F 108;4OZG H R 109;21.4834
4OZG H F 108;4OZG H D 114;9.80399
4OZG H F 108;4OZG H T 115;0.584428
4OZG H F 108;4OZG H Y 117;0.000133368
4OZG H R 109;4OZG H F 110;36.5729
4OZG H R 109;4OZG H T 111;0.914533
4OZG H R 109;4OZG H D 114;18.0429
4OZG H F 110;4OZG H T 111;37.7537
4OZG H F 110;4OZG H D 114;3.69971
4OZG H T 111;4OZG H D 114;23.4997
4OZG H T 111;4OZG H Q 116;1.10952
4OZG H D 114;4OZG H T 115;28.6535
4OZG H D 114;4OZG H Q 116;11.5538
4OZG H T 115;4OZG H Q 116;22.6585
4OZG H T 115;4OZG H Y 117;24.2312
4OZG H Q 116;4OZG H Y 117;22.9863
4OZG H Q 116;4OZG H F 118;11.3745
4OZG H Y 117;4OZG H F 118;26.0551
4OZG H F 118;4OZG H G 119;27.8077
4OZG H G 119;4OZG H P 120;23.7024
4OZG H G 119;4OZG H G 121;2.07321
4OZG H P 120;4OZG H G 121;30.532
4OZG H G 121;4OZG H T 122;20.8816
4OZG H G 121;4OZG H R 123;0.390489
4OZG H T 122;4OZG H R 123;21.4091
4OZG H T 122;4OZG H L 124;8.89145
4OZG H R 123;4OZG H L 124;21.7901
4OZG H R 123;4OZG H T 125;4.33345
4OZG H R 123;4OZG H D 166;6.98207
4OZG H R 123;4OZG H H 167;29.249
4OZG H R 123;4OZG H V 168;1.70659
4OZG H R 123;4OZG H E 169;1.23517
4OZG H L 124;4OZG H T 125;24.8048
4OZG H L 124;4OZG H V 126;11.1423
4OZG H L 124;4OZG H H 167;1.04645
4OZG H T 125;4OZG H V 126;20.8012
4OZG H T 125;4OZG H L 127;17.0287
4OZG H T 125;4OZG H P 165;13.4894
4OZG H T 125;4OZG H D 166;1.77152
4OZG H T 125;4OZG H H 167;17.711
4OZG H V 126;4OZG H L 127;27.763
4OZG H V 126;4OZG H E 128;0.00495899
4OZG H L 127;4OZG H E 128;26.5409
4OZG H L 127;4OZG H D 129;10.552
4OZG H L 127;4OZG H L 130;10.0227
4OZG H L 127;4OZG H N 132;11.0016
4OZG H L 127;4OZG H V 133;10.226
4OZG H L 127;4OZG H Y 164;19.8009
4OZG H L 127;4OZG H P 165;9.47077
4OZG H E 128;4OZG H D 129;34.4498
4OZG H E 128;4OZG H N 132;4.43276
4OZG H D 129;4OZG H L 130;22.8799
4OZG H D 129;4OZG H K 131;30.1013
4OZG H D 129;4OZG H N 132;29.4475
4OZG H D 129;4OZG H V 133;0.0612386
4OZG H L 130;4OZG H K 131;20.2841
4OZG H L 130;4OZG H N 132;3.00005
4OZG H L 130;4OZG H V 133;23.1262
4OZG H L 130;4OZG H L 230;22.952
4OZG H L 130;4OZG H D 234;14.4925
4OZG H L 130;4OZG H E 235;13.067
4OZG H L 130;4OZG H W 236;15.8819
4OZG H L 130;4OZG H R 240;0.282718
4OZG H L 130;4OZG H P 243;0.213019
4OZG H K 131;4OZG H N 132;20.3497
4OZG H K 131;4OZG H V 133;1.67479
4OZG H K 131;4OZG H F 134;5.6396
4OZG H K 131;4OZG H W 236;8.90745
4OZG H K 131;4OZG H T 237;5.53607
4OZG H K 131;4OZG H Q 238;27.9863
4OZG H K 131;4OZG H R 240;11.6315
4OZG H N 132;4OZG H V 133;21.9588
4OZG H N 132;4OZG H F 134;15.129
4OZG H N 132;4OZG H Y 164;27.3261
4OZG H N 132;4OZG H D 198;16.2535
4OZG H N 132;4OZG H R 200;2.37414
4OZG H N 132;4OZG H R 240;0.309934
4OZG H V 133;4OZG H F 134;19.0236
4OZG H V 133;4OZG H Y 164;10.8841
4OZG H V 133;4OZG H P 165;9.60705
4OZG H V 133;4OZG H F 227;6.01986
4OZG H V 133;4OZG H G 229;4.98974
4OZG H V 133;4OZG H L 230;12.2918
4OZG H V 133;4OZG H W 236;0.847375
4OZG H V 133;4OZG H R 240;10.4491
4OZG H V 133;4OZG H P 243;21.5527
4OZG H F 134;4OZG H P 135;29.6395
4OZG H F 134;4OZG H G 162;6.12965
4OZG H F 134;4OZG H F 163;7.93221
4OZG H F 134;4OZG H Y 164;16.7147
4OZG H F 134;4OZG H R 200;41.1711
4OZG H F 134;4OZG H F 227;8.43678
4OZG H F 134;4OZG H R 240;32.9843
4OZG H F 134;4OZG H P 243;4.42526
4OZG H P 135;4OZG H P 136;29.5408
4OZG H P 135;4OZG H E 137;4.14721
4OZG H P 135;4OZG H T 161;0.595152
4OZG H P 135;4OZG H G 162;7.15226
4OZG H P 135;4OZG H F 163;3.75873
4OZG H P 135;4OZG H F 227;12.236
4OZG H P 135;4OZG H R 240;5.3771
4OZG H P 135;4OZG H A 241;4.3523
4OZG H P 135;4OZG H K 242;0.471087
4OZG H P 135;4OZG H P 243;15.8542
4OZG H P 135;4OZG H Q 246;19.8778
4OZG H P 135;4OZG H V 248;4.46328
4OZG H P 136;4OZG H E 137;24.6977
4OZG H P 136;4OZG H V 138;7.67985
4OZG H P 136;4OZG H A 160;7.22658
4OZG H P 136;4OZG H T 161;6.35092
4OZG H P 136;4OZG H G 162;0.298806
4OZG H P 136;4OZG H F 163;18.0371
4OZG H P 136;4OZG H V 168;4.49853
4OZG H P 136;4OZG H V 225;13.627
4OZG H P 136;4OZG H F 227;17.0998
4OZG H P 136;4OZG H Q 246;0.574125
4OZG H P 136;4OZG H V 248;24.7629
4OZG H E 137;4OZG H V 138;24.0068
4OZG H E 137;4OZG H A 139;2.27575
4OZG H E 137;4OZG H L 159;5.57415
4OZG H E 137;4OZG H A 160;3.97589
4OZG H E 137;4OZG H T 161;36.4164
4OZG H E 137;4OZG H G 162;5.88763
4OZG H E 137;4OZG H R 200;6.43862
4OZG H E 137;4OZG H V 248;2.26324
4OZG H V 138;4OZG H A 139;24.5762
4OZG H V 138;4OZG H C 158;9.89912
4OZG H V 138;4OZG H L 159;6.4811
4OZG H V 138;4OZG H A 160;6.15005
4OZG H V 138;4OZG H C 223;8.16583
4OZG H V 138;4OZG H Q 224;0.183929
4OZG H V 138;4OZG H V 225;16.2185
4OZG H V 138;4OZG H V 248;24.694
4OZG H V 138;4OZG H S 249;13.9514
4OZG H V 138;4OZG H A 250;16.7367
4OZG H A 139;4OZG H V 140;20.6923
4OZG H A 139;4OZG H F 141;18.1776
4OZG H A 139;4OZG H V 157;0.698869
4OZG H A 139;4OZG H C 158;7.32391
4OZG H A 139;4OZG H L 159;19.669
4OZG H A 139;4OZG H A 250;7.05772
4OZG H V 140;4OZG H F 141;25.5615
4OZG H V 140;4OZG H E 142;2.88739
4OZG H V 140;4OZG H L 156;11.2173
4OZG H V 140;4OZG H V 157;5.45153
4OZG H V 140;4OZG H C 158;4.91729
4OZG H V 140;4OZG H W 172;11.9514
4OZG H V 140;4OZG H F 221;3.30064
4OZG H V 140;4OZG H R 222;0.132104
4OZG H V 140;4OZG H C 223;5.73739
4OZG H V 140;4OZG H A 250;21.5637
4OZG H V 140;4OZG H E 251;11.4938
4OZG H V 140;4OZG H A 252;11.7963
4OZG H F 141;4OZG H E 142;19.8383
4OZG H F 141;4OZG H P 143;0.367598
4OZG H F 141;4OZG H T 155;0.0688617
4OZG H F 141;4OZG H L 156;7.2765
4OZG H F 141;4OZG H V 157;25.2214
4OZG H F 141;4OZG H C 158;1.08727
4OZG H F 141;4OZG H L 159;18.8908
4OZG H E 142;4OZG H P 143;31.2912
4OZG H E 142;4OZG H S 144;0.150608
4OZG H E 142;4OZG H T 155;0.00243978
4OZG H E 142;4OZG H L 156;4.35729
4OZG H E 142;4OZG H W 214;18.9731
4OZG H E 142;4OZG H A 252;9.73812
4OZG H E 142;4OZG H W 253;8.04386
4OZG H E 142;4OZG H R 255;29.8522
4OZG H P 143;4OZG H S 144;23.4905
4OZG H P 143;4OZG H E 145;9.2537
4OZG H P 143;4OZG H E 147;4.81134
4OZG H P 143;4OZG H I 148;13.7407
4OZG H P 143;4OZG H A 154;13.8771
4OZG H P 143;4OZG H T 155;14.4778
4OZG H P 143;4OZG H L 156;15.0457
4OZG H P 143;4OZG H W 214;22.7092
4OZG H S 144;4OZG H E 145;19.8321
4OZG H S 144;4OZG H A 146;14.8196
4OZG H S 144;4OZG H E 147;21.1782
4OZG H S 144;4OZG H I 148;10.2199
4OZG H E 145;4OZG H A 146;23.455
4OZG H E 145;4OZG H E 147;0.469567
4OZG H E 145;4OZG H I 148;31.1138
4OZG H E 145;4OZG H S 149;16.0226
4OZG H E 145;4OZG H W 214;5.45213
4OZG H E 145;4OZG H R 255;17.1337
4OZG H E 145;4OZG H A 256;4.13913
4OZG H A 146;4OZG H E 147;15.5689
4OZG H A 146;4OZG H I 148;0.856683
4OZG H A 146;4OZG H S 149;10.4161
4OZG H A 146;4OZG H H 150;11.858
4OZG H E 147;4OZG H I 148;17.6231
4OZG H E 147;4OZG H S 149;0.925917
4OZG H E 147;4OZG H H 150;7.05849
4OZG H E 147;4OZG H T 151;17.7303
4OZG H E 147;4OZG H Q 152;2.36664
4OZG H E 147;4OZG H K 153;12.3016
4OZG H E 147;4OZG H A 154;4.56013
4OZG H E 147;4OZG H T 155;19.9247
4OZG H E 147;4OZG H R 208;10.4832
4OZG H I 148;4OZG H S 149;27.1592
4OZG H I 148;4OZG H H 150;2.22987
4OZG H I 148;4OZG H Q 152;16.2268
4OZG H I 148;4OZG H K 153;11.6417
4OZG H I 148;4OZG H A 154;8.27371
4OZG H I 148;4OZG H A 211;16.4067
4OZG H I 148;4OZG H W 214;16.7043
4OZG H I 148;4OZG H Q 215;14.7405
4OZG H S 149;4OZG H H 150;22.7545
4OZG H S 149;4OZG H Q 152;9.41083
4OZG H H 150;4OZG H T 151;28.1552
4OZG H H 150;4OZG H Q 152;15.0854
4OZG H T 151;4OZG H Q 152;30.9828
4OZG H T 151;4OZG H K 153;35.815
4OZG H T 151;4OZG H R 208;9.81452
4OZG H Q 152;4OZG H K 153;23.2858
4OZG H Q 152;4OZG H S 210;4.07209
4OZG H Q 152;4OZG H A 211;20.6203
4OZG H K 153;4OZG H A 154;18.7469
4OZG H K 153;4OZG H R 208;16.2396
4OZG H K 153;4OZG H V 209;5.46628
4OZG H K 153;4OZG H S 210;4.37077
4OZG H K 153;4OZG H A 211;7.66106
4OZG H A 154;4OZG H T 155;15.1079
4OZG H A 154;4OZG H L 156;5.45799
4OZG H A 154;4OZG H L 207;1.91899
4OZG H A 154;4OZG H R 208;8.91258
4OZG H A 154;4OZG H V 209;22.1036
4OZG H A 154;4OZG H S 210;1.74955
4OZG H A 154;4OZG H A 211;6.31781
4OZG H A 154;4OZG H W 214;12.1971
4OZG H T 155;4OZG H L 156;20.291
4OZG H T 155;4OZG H V 157;6.83934
4OZG H T 155;4OZG H R 206;13.671
4OZG H T 155;4OZG H L 207;6.61984
4OZG H T 155;4OZG H R 208;22.3011
4OZG H L 156;4OZG H V 157;19.3818
4OZG H L 156;4OZG H W 172;17.0426
4OZG H L 156;4OZG H S 205;0.774219
4OZG H L 156;4OZG H R 206;4.22123
4OZG H L 156;4OZG H L 207;30.6976
4OZG H L 156;4OZG H V 209;8.67371
4OZG H L 156;4OZG H W 214;14.4401
4OZG H L 156;4OZG H F 221;18.1653
4OZG H L 156;4OZG H A 252;6.64997
4OZG H V 157;4OZG H C 158;23.3207
4OZG H V 157;4OZG H L 159;4.49912
4OZG H V 157;4OZG H W 172;3.06551
4OZG H V 157;4OZG H S 204;4.32459
4OZG H V 157;4OZG H S 205;8.51358
4OZG H V 157;4OZG H R 206;8.93423
4OZG H C 158;4OZG H L 159;26.5326
4OZG H C 158;4OZG H A 160;0.666535
4OZG H C 158;4OZG H L 170;9.33776
4OZG H C 158;4OZG H W 172;11.9237
4OZG H C 158;4OZG H L 203;0.638681
4OZG H C 158;4OZG H S 204;7.63288
4OZG H C 158;4OZG H S 205;17.2331
4OZG H C 158;4OZG H C 223;18.8546
4OZG H C 158;4OZG H V 225;1.94709
4OZG H C 158;4OZG H A 250;0.791235
4OZG H L 159;4OZG H A 160;20.5785
4OZG H L 159;4OZG H T 161;18.4937
4OZG H L 159;4OZG H L 170;0.0798071
4OZG H L 159;4OZG H A 202;0.819024
4OZG H L 159;4OZG H L 203;8.97768
4OZG H L 159;4OZG H S 204;8.99459
4OZG H A 160;4OZG H T 161;19.525
4OZG H A 160;4OZG H F 163;12.4953
4OZG H A 160;4OZG H V 168;1.19672
4OZG H A 160;4OZG H L 170;6.26583
4OZG H A 160;4OZG H A 202;5.45056
4OZG H A 160;4OZG H L 203;24.2525
4OZG H A 160;4OZG H V 225;14.8705
4OZG H T 161;4OZG H G 162;22.8803
4OZG H T 161;4OZG H F 163;7.53833
4OZG H T 161;4OZG H E 192;11.6157
4OZG H T 161;4OZG H Y 201;2.91241
4OZG H T 161;4OZG H A 202;9.81333
4OZG H G 162;4OZG H F 163;15.6624
4OZG H G 162;4OZG H E 192;14.5168
4OZG H G 162;4OZG H R 200;27.1979
4OZG H G 162;4OZG H Y 201;5.72573
4OZG H F 163;4OZG H Y 164;18.2805
4OZG H F 163;4OZG H D 166;16.7136
4OZG H F 163;4OZG H V 168;22.0572
4OZG H F 163;4OZG H P 189;8.04519
4OZG H F 163;4OZG H R 200;7.5143
4OZG H F 163;4OZG H Y 201;30.9841
4OZG H F 163;4OZG H A 202;5.21061
4OZG H F 163;4OZG H L 203;7.92399
4OZG H F 163;4OZG H V 225;0.302954
4OZG H F 163;4OZG H F 227;7.24606
4OZG H Y 164;4OZG H P 165;34.0035
4OZG H Y 164;4OZG H D 166;2.88093
4OZG H Y 164;4OZG H N 197;6.31014
4OZG H Y 164;4OZG H D 198;16.891
4OZG H Y 164;4OZG H S 199;14.1964
4OZG H Y 164;4OZG H R 200;14.4197
4OZG H Y 164;4OZG H Y 201;19.8861
4OZG H Y 164;4OZG H F 227;6.2147
4OZG H P 165;4OZG H D 166;26.3135
4OZG H P 165;4OZG H H 167;12.1345
4OZG H P 165;4OZG H Y 201;8.10136
4OZG H P 165;4OZG H F 227;8.36294
4OZG H P 165;4OZG H Y 228;4.60864
4OZG H P 165;4OZG H G 229;2.2131
4OZG H D 166;4OZG H H 167;28.8781
4OZG H D 166;4OZG H V 168;13.9695
4OZG H D 166;4OZG H P 189;22.2465
4OZG H D 166;4OZG H Y 201;24.3329
4OZG H D 166;4OZG H F 227;3.83033
4OZG H H 167;4OZG H V 168;22.8828
4OZG H H 167;4OZG H Q 226;0.820841
4OZG H H 167;4OZG H F 227;7.13609
4OZG H H 167;4OZG H Y 228;26.2695
4OZG H V 168;4OZG H E 169;31.6915
4OZG H V 168;4OZG H L 170;0.949066
4OZG H V 168;4OZG H P 189;6.54863
4OZG H V 168;4OZG H L 203;16.5302
4OZG H V 168;4OZG H V 225;15.3255
4OZG H V 168;4OZG H Q 226;6.28609
4OZG H V 168;4OZG H F 227;13.7909
4OZG H V 168;4OZG H Y 228;1.97574
4OZG H E 169;4OZG H L 170;28.4486
4OZG H E 169;4OZG H S 171;3.37449
4OZG H E 169;4OZG H L 203;0.1429
4OZG H E 169;4OZG H Q 224;2.61796
4OZG H E 169;4OZG H V 225;6.1768
4OZG H E 169;4OZG H Q 226;30.4168
4OZG H E 169;4OZG H Y 228;25.2763
4OZG H L 170;4OZG H S 171;33.6903
4OZG H L 170;4OZG H W 172;9.24621
4OZG H L 170;4OZG H T 185;25.2829
4OZG H L 170;4OZG H L 203;22.5392
4OZG H L 170;4OZG H S 204;3.81856
4OZG H L 170;4OZG H S 205;13.9425
4OZG H L 170;4OZG H C 223;10.8386
4OZG H L 170;4OZG H Q 224;5.73139
4OZG H L 170;4OZG H V 225;18.3098
4OZG H S 171;4OZG H W 172;25.8702
4OZG H S 171;4OZG H W 173;14.7877
4OZG H S 171;4OZG H E 178;17.4405
4OZG H S 171;4OZG H V 183;0.406706
4OZG H S 171;4OZG H R 222;0.149352
4OZG H S 171;4OZG H C 223;4.33959
4OZG H S 171;4OZG H Q 224;31.3692
4OZG H W 172;4OZG H W 173;22.7027
4OZG H W 172;4OZG H V 174;3.88881
4OZG H W 172;4OZG H E 178;8.72702
4OZG H W 172;4OZG H V 179;23.5157
4OZG H W 172;4OZG H V 183;18.6527
4OZG H W 172;4OZG H T 185;0.17229
4OZG H W 172;4OZG H S 205;14.568
4OZG H W 172;4OZG H R 206;4.16305
4OZG H W 172;4OZG H L 207;30.2373
4OZG H W 172;4OZG H F 221;7.30009
4OZG H W 172;4OZG H R 222;12.6762
4OZG H W 172;4OZG H C 223;19.7752
4OZG H W 173;4OZG H V 174;21.4507
4OZG H W 173;4OZG H N 175;1.51726
4OZG H W 173;4OZG H G 176;22.3412
4OZG H W 173;4OZG H K 177;12.4537
4OZG H W 173;4OZG H E 178;37.5289
4OZG H W 173;4OZG H V 179;0.268084
4OZG H W 173;4OZG H H 220;5.54671
4OZG H W 173;4OZG H F 221;1.7847
4OZG H W 173;4OZG H R 222;50.389
4OZG H W 173;4OZG H Q 224;27.6573
4OZG H V 174;4OZG H N 175;31.0688
4OZG H V 174;4OZG H G 176;2.53079
4OZG H V 174;4OZG H K 177;20.1854
4OZG H V 174;4OZG H E 178;0.0271586
4OZG H V 174;4OZG H V 179;26.9816
4OZG H V 174;4OZG H L 207;12.7765
4OZG H V 174;4OZG H V 209;3.94944
4OZG H V 174;4OZG H F 213;15.1921
4OZG H V 174;4OZG H N 219;0.717559
4OZG H V 174;4OZG H H 220;8.48373
4OZG H V 174;4OZG H F 221;17.5347
4OZG H V 174;4OZG H R 222;0.484431
4OZG H N 175;4OZG H G 176;25.2386
4OZG H N 175;4OZG H K 177;10.6044
4OZG H N 175;4OZG H F 213;9.09357
4OZG H N 175;4OZG H R 218;8.33155
4OZG H N 175;4OZG H N 219;18.3972
4OZG H N 175;4OZG H H 220;25.5587
4OZG H G 176;4OZG H K 177;22.472
4OZG H G 176;4OZG H H 220;5.47945
4OZG H G 176;4OZG H R 222;1.45138
4OZG H K 177;4OZG H E 178;32.2637
4OZG H K 177;4OZG H V 179;5.01261
4OZG H E 178;4OZG H V 179;36.0093
4OZG H E 178;4OZG H H 180;23.4743
4OZG H V 179;4OZG H H 180;36.4341
4OZG H V 179;4OZG H S 181;8.01407
4OZG H V 179;4OZG H V 183;12.3119
4OZG H V 179;4OZG H L 207;8.96844
4OZG H H 180;4OZG H S 181;26.0663
4OZG H H 180;4OZG H G 182;1.87461
4OZG H H 180;4OZG H V 183;23.8345
4OZG H S 181;4OZG H G 182;22.3165
4OZG H S 181;4OZG H V 183;6.19059
4OZG H S 181;4OZG H L 207;4.94686
4OZG H S 181;4OZG H R 208;1.81274
4OZG H S 181;4OZG H V 209;0.505139
4OZG H G 182;4OZG H V 183;19.2808
4OZG H G 182;4OZG H R 206;0.636842
4OZG H G 182;4OZG H L 207;7.45262
4OZG H G 182;4OZG H R 208;15.2851
4OZG H V 183;4OZG H C 184;25.4778
4OZG H V 183;4OZG H T 185;10.0714
4OZG H V 183;4OZG H S 205;4.56034
4OZG H V 183;4OZG H R 206;7.51983
4OZG H V 183;4OZG H L 207;11.4496
4OZG H C 184;4OZG H T 185;27.7773
4OZG H C 184;4OZG H S 205;6.41037
4OZG H C 184;4OZG H R 206;21.2803
4OZG H T 185;4OZG H D 186;30.9448
4OZG H T 185;4OZG H P 187;5.6399
4OZG H T 185;4OZG H L 203;11.507
4OZG H T 185;4OZG H S 204;5.3449
4OZG H T 185;4OZG H S 205;13.3762
4OZG H T 185;4OZG H R 206;1.6893
4OZG H D 186;4OZG H P 187;34.0747
4OZG H D 186;4OZG H Q 188;11.8391
4OZG H D 186;4OZG H L 190;0.19219
4OZG H D 186;4OZG H A 202;0.358435
4OZG H D 186;4OZG H L 203;22.8829
4OZG H D 186;4OZG H S 204;19.6572
4OZG H D 186;4OZG H R 206;12.4217
4OZG H P 187;4OZG H Q 188;33.0102
4OZG H P 187;4OZG H P 189;2.87894
4OZG H P 187;4OZG H L 203;0.999173
4OZG H Q 188;4OZG H P 189;42.9223
4OZG H Q 188;4OZG H L 190;4.60658
4OZG H Q 188;4OZG H L 203;5.67111
4OZG H P 189;4OZG H L 190;23.4301
4OZG H P 189;4OZG H K 191;1.60103
4OZG H P 189;4OZG H Y 201;20.2853
4OZG H P 189;4OZG H A 202;9.19844
4OZG H P 189;4OZG H L 203;18.9888
4OZG H L 190;4OZG H K 191;33.7983
4OZG H L 190;4OZG H E 192;5.7515
4OZG H L 190;4OZG H R 200;0.000550128
4OZG H L 190;4OZG H Y 201;9.97579
4OZG H L 190;4OZG H A 202;30.1017
4OZG H L 190;4OZG H L 203;0.221395
4OZG H K 191;4OZG H E 192;17.1622
4OZG H K 191;4OZG H Q 193;4.52942
4OZG H K 191;4OZG H P 194;39.4698
4OZG H K 191;4OZG H L 196;8.71055
4OZG H K 191;4OZG H N 197;11.1172
4OZG H K 191;4OZG H S 199;15.2511
4OZG H K 191;4OZG H R 200;3.28016
4OZG H K 191;4OZG H Y 201;30.6489
4OZG H E 192;4OZG H Q 193;30.859
4OZG H E 192;4OZG H P 194;6.80184
4OZG H E 192;4OZG H S 199;3.94735
4OZG H E 192;4OZG H R 200;26.2031
4OZG H E 192;4OZG H Y 201;6.98207
4OZG H E 192;4OZG H A 202;11.035
4OZG H Q 193;4OZG H P 194;21.1663
4OZG H Q 193;4OZG H A 195;6.0219
4OZG H Q 193;4OZG H L 196;38.4262
4OZG H Q 193;4OZG H S 199;19.6578
4OZG H Q 193;4OZG H R 200;0.00278371
4OZG H P 194;4OZG H A 195;29.9138
4OZG H P 194;4OZG H L 196;5.00424
4OZG H A 195;4OZG H L 196;31.476
4OZG H A 195;4OZG H N 197;3.68693
4OZG H L 196;4OZG H N 197;22.344
4OZG H L 196;4OZG H D 198;15.0184
4OZG H L 196;4OZG H S 199;11.0654
4OZG H N 197;4OZG H D 198;24.7352
4OZG H N 197;4OZG H S 199;7.44964
4OZG H N 197;4OZG H Y 201;2.20488
4OZG H D 198;4OZG H S 199;22.3487
4OZG H D 198;4OZG H R 200;0.184887
4OZG H S 199;4OZG H R 200;30.827
4OZG H S 199;4OZG H Y 201;10.0209
4OZG H R 200;4OZG H Y 201;19.8404
4OZG H Y 201;4OZG H A 202;17.4169
4OZG H A 202;4OZG H L 203;21.6565
4OZG H L 203;4OZG H S 204;24.9028
4OZG H L 203;4OZG H V 225;0.913596
4OZG H S 204;4OZG H S 205;18.928
4OZG H S 204;4OZG H R 206;11.0657
4OZG H S 205;4OZG H R 206;27.2392
4OZG H R 206;4OZG H L 207;17.892
4OZG H R 206;4OZG H R 208;0.294054
4OZG H L 207;4OZG H R 208;19.9091
4OZG H L 207;4OZG H V 209;16.2017
4OZG H L 207;4OZG H F 221;10.7458
4OZG H R 208;4OZG H V 209;27.0638
4OZG H V 209;4OZG H S 210;28.0651
4OZG H V 209;4OZG H A 211;0.211985
4OZG H V 209;4OZG H F 213;19.1905
4OZG H V 209;4OZG H W 214;9.34367
4OZG H V 209;4OZG H F 221;12.0066
4OZG H S 210;4OZG H A 211;19.3878
4OZG H S 210;4OZG H T 212;16.9757
4OZG H S 210;4OZG H F 213;20.7848
4OZG H S 210;4OZG H W 214;5.18157
4OZG H A 211;4OZG H T 212;21.5691
4OZG H A 211;4OZG H F 213;0.781317
4OZG H A 211;4OZG H W 214;10.1986
4OZG H A 211;4OZG H Q 215;23.5445
4OZG H T 212;4OZG H F 213;22.9135
4OZG H T 212;4OZG H W 214;0.603791
4OZG H T 212;4OZG H Q 215;25.913
4OZG H T 212;4OZG H N 216;10.857
4OZG H F 213;4OZG H W 214;18.1439
4OZG H F 213;4OZG H Q 215;0.981988
4OZG H F 213;4OZG H N 216;9.82428
4OZG H F 213;4OZG H N 219;35.0188
4OZG H F 213;4OZG H F 221;14.9803
4OZG H F 213;4OZG H G 254;0.0265949
4OZG H W 214;4OZG H Q 215;21.7801
4OZG H W 214;4OZG H N 216;4.8896
4OZG H W 214;4OZG H F 221;20.7762
4OZG H W 214;4OZG H A 252;5.71986
4OZG H W 214;4OZG H W 253;9.63875
4OZG H W 214;4OZG H G 254;11.5654
4OZG H W 214;4OZG H R 255;36.1592
4OZG H Q 215;4OZG H N 216;19.4949
4OZG H Q 215;4OZG H P 217;6.63859
4OZG H Q 215;4OZG H G 254;0.333094
4OZG H Q 215;4OZG H R 255;14.0177
4OZG H Q 215;4OZG H A 256;19.7906
4OZG H N 216;4OZG H P 217;27.7899
4OZG H N 216;4OZG H R 218;22.4424
4OZG H N 216;4OZG H N 219;30.1
4OZG H N 216;4OZG H F 221;0.00489374
4OZG H N 216;4OZG H G 254;7.50737
4OZG H P 217;4OZG H R 218;23.355
4OZG H P 217;4OZG H N 219;4.30647
4OZG H P 217;4OZG H W 253;14.9586
4OZG H P 217;4OZG H G 254;20.9922
4OZG H P 217;4OZG H R 255;0.121548
4OZG H P 217;4OZG H A 256;18.1307
4OZG H R 218;4OZG H N 219;19.2824
4OZG H R 218;4OZG H H 220;1.43195
4OZG H R 218;4OZG H W 253;15.2167
4OZG H N 219;4OZG H H 220;17.5777
4OZG H N 219;4OZG H F 221;14.8001
4OZG H N 219;4OZG H W 253;8.57345
4OZG H N 219;4OZG H G 254;7.74671
4OZG H H 220;4OZG H F 221;27.5486
4OZG H H 220;4OZG H R 222;17.476
4OZG H H 220;4OZG H E 251;20.6172
4OZG H H 220;4OZG H A 252;6.55476
4OZG H H 220;4OZG H W 253;36.9797
4OZG H F 221;4OZG H R 222;21.1119
4OZG H F 221;4OZG H A 250;0.631574
4OZG H F 221;4OZG H E 251;5.01884
4OZG H F 221;4OZG H A 252;25.0721
4OZG H F 221;4OZG H W 253;3.04956
4OZG H F 221;4OZG H G 254;7.01749
4OZG H R 222;4OZG H C 223;23.7678
4OZG H R 222;4OZG H Q 224;22.1659
4OZG H R 222;4OZG H I 247;2.22188
4OZG H R 222;4OZG H S 249;22.6033
4OZG H R 222;4OZG H A 250;7.70493
4OZG H R 222;4OZG H E 251;20.1058
4OZG H C 223;4OZG H Q 224;21.4537
4OZG H C 223;4OZG H V 225;3.36384
4OZG H C 223;4OZG H V 248;0.147794
4OZG H C 223;4OZG H S 249;7.42967
4OZG H C 223;4OZG H A 250;16.9428
4OZG H Q 224;4OZG H V 225;23.5098
4OZG H Q 224;4OZG H Q 226;10.6966
4OZG H Q 224;4OZG H I 247;27.146
4OZG H Q 224;4OZG H V 248;2.17651
4OZG H Q 224;4OZG H S 249;6.37286
4OZG H V 225;4OZG H Q 226;18.7559
4OZG H V 225;4OZG H F 227;6.48844
4OZG H V 225;4OZG H Q 246;1.51009
4OZG H V 225;4OZG H I 247;6.67969
4OZG H V 225;4OZG H V 248;19.0337
4OZG H Q 226;4OZG H F 227;22.6518
4OZG H Q 226;4OZG H Y 228;29.2123
4OZG H Q 226;4OZG H T 245;9.99227
4OZG H Q 226;4OZG H Q 246;9.75943
4OZG H Q 226;4OZG H I 247;27.9451
4OZG H F 227;4OZG H Y 228;25.6372
4OZG H F 227;4OZG H G 229;10.2579
4OZG H F 227;4OZG H P 243;9.38309
4OZG H F 227;4OZG H V 244;6.08803
4OZG H F 227;4OZG H T 245;7.98172
4OZG H F 227;4OZG H Q 246;27.7966
4OZG H F 227;4OZG H V 248;1.15873
4OZG H Y 228;4OZG H G 229;18.3487
4OZG H Y 228;4OZG H T 245;21.2699
4OZG H G 229;4OZG H L 230;24.7316
4OZG H G 229;4OZG H S 231;0.272266
4OZG H G 229;4OZG H P 243;3.10982
4OZG H G 229;4OZG H V 244;1.34657
4OZG H G 229;4OZG H T 245;16.7201
4OZG H L 230;4OZG H S 231;26.8343
4OZG H L 230;4OZG H D 234;20.3665
4OZG H L 230;4OZG H E 235;4.40918
4OZG H L 230;4OZG H W 236;10.8118
4OZG H L 230;4OZG H K 242;16.0101
4OZG H L 230;4OZG H P 243;18.2646
4OZG H L 230;4OZG H V 244;16.6396
4OZG H L 230;4OZG H T 245;13.4739
4OZG H S 231;4OZG H E 232;22.1838
4OZG H S 231;4OZG H N 233;14.7531
4OZG H S 231;4OZG H D 234;28.384
4OZG H S 231;4OZG H K 242;10.6902
4OZG H S 231;4OZG H V 244;8.75774
4OZG H S 231;4OZG H T 245;0.105995
4OZG H E 232;4OZG H N 233;27.9723
4OZG H E 232;4OZG H D 234;7.21913
4OZG H E 232;4OZG H K 242;14.5338
4OZG H E 232;4OZG H V 244;3.70581
4OZG H N 233;4OZG H D 234;29.4022
4OZG H N 233;4OZG H E 235;2.16393
4OZG H D 234;4OZG H E 235;31.9926
4OZG H D 234;4OZG H W 236;0.448355
4OZG H D 234;4OZG H K 242;12.3386
4OZG H E 235;4OZG H W 236;35.5118
4OZG H E 235;4OZG H T 237;5.42889
4OZG H E 235;4OZG H K 242;1.73723
4OZG H W 236;4OZG H T 237;33.4785
4OZG H W 236;4OZG H Q 238;33.9793
4OZG H W 236;4OZG H R 240;31.1338
4OZG H W 236;4OZG H A 241;3.98711
4OZG H W 236;4OZG H K 242;31.7123
4OZG H W 236;4OZG H P 243;15.6904
4OZG H T 237;4OZG H Q 238;39.229
4OZG H T 237;4OZG H D 239;0.564883
4OZG H Q 238;4OZG H D 239;36.8472
4OZG H Q 238;4OZG H R 240;24.7712
4OZG H D 239;4OZG H R 240;42.6279
4OZG H D 239;4OZG H A 241;0.965096
4OZG H R 240;4OZG H A 241;38.918
4OZG H R 240;4OZG H K 242;0.873663
4OZG H R 240;4OZG H P 243;6.87549
4OZG H A 241;4OZG H K 242;29.3379
4OZG H A 241;4OZG H P 243;7.2088
4OZG H K 242;4OZG H P 243;19.2953
4OZG H K 242;4OZG H V 244;33.2395
4OZG H K 242;4OZG H Q 246;5.03448
4OZG H P 243;4OZG H V 244;16.5047
4OZG H P 243;4OZG H Q 246;2.8942
4OZG H V 244;4OZG H T 245;30.4481
4OZG H V 244;4OZG H Q 246;22.9776
4OZG H T 245;4OZG H Q 246;24.383
4OZG H Q 246;4OZG H I 247;31.506
4OZG H Q 246;4OZG H V 248;18.6001
4OZG H I 247;4OZG H V 248;28.3854
4OZG H I 247;4OZG H S 249;10.9603
4OZG H V 248;4OZG H S 249;30.6268
4OZG H S 249;4OZG H A 250;24.1915
4OZG H S 249;4OZG H E 251;0.222872
4OZG H A 250;4OZG H E 251;23.6839
4OZG H E 251;4OZG H A 252;22.3927
4OZG H E 251;4OZG H W 253;14.5184
4OZG H A 252;4OZG H W 253;29.77
4OZG H W 253;4OZG H G 254;27.4311
4OZG H W 253;4OZG H R 255;2.4821
4OZG H G 254;4OZG H R 255;23.1467
4OZG H G 254;4OZG H A 256;0.026905
4OZG H R 255;4OZG H A 256;37.4979
