V1;V2;Weight
4RS1 B S 16;4RS1 B L 17;27.5516
4RS1 B S 16;4RS1 B N 18;12.5132
4RS1 B S 16;4RS1 B D 31;0.254844
4RS1 B S 16;4RS1 B F 86;23.2017
4RS1 B S 16;4RS1 B Q 87;4.04309
4RS1 B S 16;4RS1 B Q 88;10.7905
4RS1 B L 17;4RS1 B N 18;20.0018
4RS1 B L 17;4RS1 B V 19;17.0569
4RS1 B L 17;4RS1 B W 30;19.5148
4RS1 B L 17;4RS1 B D 31;24.8385
4RS1 B L 17;4RS1 B Q 33;5.47094
4RS1 B L 17;4RS1 B V 77;9.3145
4RS1 B L 17;4RS1 B V 79;16.9339
4RS1 B L 17;4RS1 B F 86;7.69028
4RS1 B L 17;4RS1 B Q 87;1.45452
4RS1 B L 17;4RS1 B Q 88;26.9211
4RS1 B N 18;4RS1 B V 19;18.9785
4RS1 B N 18;4RS1 B R 20;21.426
4RS1 B N 18;4RS1 B W 30;4.50466
4RS1 B N 18;4RS1 B D 31;25.0463
4RS1 B N 18;4RS1 B Q 88;2.91484
4RS1 B V 19;4RS1 B R 20;23.228
4RS1 B V 19;4RS1 B L 28;10.8755
4RS1 B V 19;4RS1 B S 29;6.19481
4RS1 B V 19;4RS1 B W 30;8.40452
4RS1 B V 19;4RS1 B F 75;5.9228
4RS1 B V 19;4RS1 B V 77;16.4627
4RS1 B V 19;4RS1 B Q 88;25.587
4RS1 B V 19;4RS1 B K 89;2.32501
4RS1 B V 19;4RS1 B L 90;28.273
4RS1 B R 20;4RS1 B F 21;26.1341
4RS1 B R 20;4RS1 B D 22;1.07525
4RS1 B R 20;4RS1 B Q 27;0.104658
4RS1 B R 20;4RS1 B L 28;7.06974
4RS1 B R 20;4RS1 B S 29;36.2422
4RS1 B R 20;4RS1 B W 30;11.983
4RS1 B R 20;4RS1 B D 31;18.4455
4RS1 B R 20;4RS1 B L 90;3.94223
4RS1 B F 21;4RS1 B D 22;34.834
4RS1 B F 21;4RS1 B S 23;12.8057
4RS1 B F 21;4RS1 B M 26;14.6726
4RS1 B F 21;4RS1 B Q 27;5.79095
4RS1 B F 21;4RS1 B L 28;21.5052
4RS1 B F 21;4RS1 B S 29;0.20073
4RS1 B F 21;4RS1 B F 64;7.13491
4RS1 B F 21;4RS1 B I 67;3.6985
4RS1 B F 21;4RS1 B L 69;9.54885
4RS1 B F 21;4RS1 B F 75;24.1042
4RS1 B F 21;4RS1 B L 90;13.8068
4RS1 B F 21;4RS1 B Y 92;26.1828
4RS1 B D 22;4RS1 B S 23;24.9853
4RS1 B D 22;4RS1 B R 24;25.4464
4RS1 B D 22;4RS1 B T 25;24.0081
4RS1 B D 22;4RS1 B M 26;2.29148
4RS1 B D 22;4RS1 B Q 27;22.3058
4RS1 B S 23;4RS1 B R 24;26.8732
4RS1 B S 23;4RS1 B T 25;6.3919
4RS1 B S 23;4RS1 B M 26;13.6352
4RS1 B S 23;4RS1 B L 69;7.10742
4RS1 B S 23;4RS1 B Y 92;16.5484
4RS1 B S 23;4RS1 B R 136;13.4864
4RS1 B S 23;4RS1 B E 143;0.744582
4RS1 B R 24;4RS1 B T 25;30.8415
4RS1 B R 24;4RS1 B M 26;3.17757
4RS1 B R 24;4RS1 B R 136;12.9263
4RS1 B R 24;4RS1 B R 141;3.06936
4RS1 B R 24;4RS1 B E 143;16.37
4RS1 B T 25;4RS1 B M 26;20.6324
4RS1 B T 25;4RS1 B Q 27;31.5479
4RS1 B T 25;4RS1 B T 63;7.00786
4RS1 B T 25;4RS1 B R 141;12.0504
4RS1 B M 26;4RS1 B Q 27;13.5209
4RS1 B M 26;4RS1 B L 28;1.51099
4RS1 B M 26;4RS1 B C 62;1.4238
4RS1 B M 26;4RS1 B T 63;14.3481
4RS1 B M 26;4RS1 B F 64;26.2284
4RS1 B M 26;4RS1 B R 65;2.76003
4RS1 B M 26;4RS1 B E 66;2.18566
4RS1 B M 26;4RS1 B I 67;23.6484
4RS1 B M 26;4RS1 B L 69;15.7792
4RS1 B M 26;4RS1 B R 136;20.0108
4RS1 B M 26;4RS1 B Y 172;8.9185
4RS1 B Q 27;4RS1 B L 28;18.3253
4RS1 B Q 27;4RS1 B S 29;14.8321
4RS1 B Q 27;4RS1 B S 61;19.2461
4RS1 B Q 27;4RS1 B C 62;5.0964
4RS1 B Q 27;4RS1 B T 63;21.0763
4RS1 B L 28;4RS1 B S 29;20.0698
4RS1 B L 28;4RS1 B W 30;10.9812
4RS1 B L 28;4RS1 B C 41;7.99425
4RS1 B L 28;4RS1 B F 42;4.78683
4RS1 B L 28;4RS1 B S 61;6.49491
4RS1 B L 28;4RS1 B C 62;19.8889
4RS1 B L 28;4RS1 B F 64;16.3109
4RS1 B L 28;4RS1 B F 75;20.1891
4RS1 B L 28;4RS1 B E 76;1.44577
4RS1 B L 28;4RS1 B V 77;10.4261
4RS1 B L 28;4RS1 B L 90;2.45571
4RS1 B S 29;4RS1 B W 30;30.344
4RS1 B S 29;4RS1 B C 60;4.07564
4RS1 B S 29;4RS1 B S 61;12.6565
4RS1 B W 30;4RS1 B D 31;25.7913
4RS1 B W 30;4RS1 B C 32;13.1987
4RS1 B W 30;4RS1 B S 39;11.1945
4RS1 B W 30;4RS1 B K 40;1.02192
4RS1 B W 30;4RS1 B C 41;9.77483
4RS1 B W 30;4RS1 B L 55;9.22362
4RS1 B W 30;4RS1 B E 59;5.64551
4RS1 B W 30;4RS1 B C 60;33.0235
4RS1 B W 30;4RS1 B S 61;10.3033
4RS1 B W 30;4RS1 B C 62;9.85627
4RS1 B W 30;4RS1 B V 77;24.2644
4RS1 B W 30;4RS1 B V 79;10.2851
4RS1 B D 31;4RS1 B C 32;26.0435
4RS1 B D 31;4RS1 B Q 33;14.533
4RS1 B D 31;4RS1 B V 79;0.446673
4RS1 B C 32;4RS1 B Q 33;39.311
4RS1 B C 32;4RS1 B E 34;1.53601
4RS1 B C 32;4RS1 B E 59;1.63468
4RS1 B C 32;4RS1 B C 60;31.1719
4RS1 B C 32;4RS1 B V 79;1.75165
4RS1 B Q 33;4RS1 B E 34;32.861
4RS1 B Q 33;4RS1 B Q 35;2.6093
4RS1 B Q 33;4RS1 B T 36;19.1681
4RS1 B Q 33;4RS1 B V 79;18.5949
4RS1 B Q 33;4RS1 B T 81;13.8353
4RS1 B Q 33;4RS1 B F 86;25.5977
4RS1 B E 34;4RS1 B Q 35;31.982
4RS1 B E 34;4RS1 B T 36;3.09103
4RS1 B E 34;4RS1 B T 81;0.08576
4RS1 B Q 35;4RS1 B T 36;30.6304
4RS1 B Q 35;4RS1 B T 37;0.924261
4RS1 B Q 35;4RS1 B T 81;19.9519
4RS1 B Q 35;4RS1 B S 82;14.2912
4RS1 B T 36;4RS1 B T 37;34.1047
4RS1 B T 36;4RS1 B F 38;7.91792
4RS1 B T 36;4RS1 B S 39;10.8331
4RS1 B T 36;4RS1 B V 79;13.5794
4RS1 B T 36;4RS1 B Q 80;6.1264
4RS1 B T 36;4RS1 B T 81;7.21666
4RS1 B T 37;4RS1 B F 38;57.3642
4RS1 B T 37;4RS1 B Q 80;11.8166
4RS1 B T 37;4RS1 B T 81;15.1998
4RS1 B F 38;4RS1 B S 39;28.7769
4RS1 B F 38;4RS1 B K 40;0.806291
4RS1 B F 38;4RS1 B H 78;2.97181
4RS1 B F 38;4RS1 B V 79;8.44332
4RS1 B F 38;4RS1 B Q 80;31.064
4RS1 B S 39;4RS1 B K 40;28.1463
4RS1 B S 39;4RS1 B L 55;22.1532
4RS1 B S 39;4RS1 B E 59;14.435
4RS1 B S 39;4RS1 B V 77;1.13849
4RS1 B S 39;4RS1 B H 78;6.13408
4RS1 B S 39;4RS1 B V 79;13.569
4RS1 B K 40;4RS1 B C 41;22.2221
4RS1 B K 40;4RS1 B F 42;16.1427
4RS1 B K 40;4RS1 B E 52;29.4831
4RS1 B K 40;4RS1 B L 55;6.81551
4RS1 B K 40;4RS1 B E 76;0.495229
4RS1 B K 40;4RS1 B V 77;8.48605
4RS1 B K 40;4RS1 B H 78;36.1423
4RS1 B C 41;4RS1 B F 42;21.2101
4RS1 B C 41;4RS1 B E 52;10.5361
4RS1 B C 41;4RS1 B P 53;16.9236
4RS1 B C 41;4RS1 B L 55;5.49689
4RS1 B C 41;4RS1 B C 62;18.7743
4RS1 B C 41;4RS1 B F 64;3.04021
4RS1 B C 41;4RS1 B E 76;3.8867
4RS1 B C 41;4RS1 B V 77;9.44575
4RS1 B F 42;4RS1 B L 43;22.7105
4RS1 B F 42;4RS1 B T 44;10.1858
4RS1 B F 42;4RS1 B V 50;17.195
4RS1 B F 42;4RS1 B V 51;6.79011
4RS1 B F 42;4RS1 B E 52;18.2419
4RS1 B F 42;4RS1 B P 53;2.50286
4RS1 B F 42;4RS1 B F 64;8.93062
4RS1 B F 42;4RS1 B F 75;6.76486
4RS1 B F 42;4RS1 B E 76;44.8904
4RS1 B F 42;4RS1 B V 77;0.670172
4RS1 B F 42;4RS1 B H 78;17.0714
4RS1 B L 43;4RS1 B T 44;22.1248
4RS1 B L 43;4RS1 B D 45;6.40931
4RS1 B L 43;4RS1 B R 49;3.88758
4RS1 B L 43;4RS1 B V 50;9.84055
4RS1 B L 43;4RS1 B V 51;29.088
4RS1 B L 43;4RS1 B F 64;10.8772
4RS1 B L 43;4RS1 B I 67;15.5251
4RS1 B L 43;4RS1 B L 69;3.35278
4RS1 B L 43;4RS1 B V 73;25.2866
4RS1 B L 43;4RS1 B T 74;7.24203
4RS1 B L 43;4RS1 B F 75;16.6116
4RS1 B L 43;4RS1 B E 76;0.849564
4RS1 B T 44;4RS1 B D 45;28.3136
4RS1 B T 44;4RS1 B K 46;0.139795
4RS1 B T 44;4RS1 B N 48;15.8624
4RS1 B T 44;4RS1 B R 49;6.49665
4RS1 B T 44;4RS1 B V 50;14.1189
4RS1 B T 44;4RS1 B V 73;7.03695
4RS1 B T 44;4RS1 B T 74;35.6841
4RS1 B T 44;4RS1 B E 76;9.1464
4RS1 B T 44;4RS1 B K 89;0.301087
4RS1 B D 45;4RS1 B K 46;24.2103
4RS1 B D 45;4RS1 B K 47;16.8168
4RS1 B D 45;4RS1 B N 48;14.3377
4RS1 B D 45;4RS1 B R 49;41.3856
4RS1 B D 45;4RS1 B E 71;5.55677
4RS1 B D 45;4RS1 B G 72;8.79906
4RS1 B D 45;4RS1 B V 73;8.11548
4RS1 B D 45;4RS1 B T 74;0.166419
4RS1 B K 46;4RS1 B K 47;33.8924
4RS1 B K 46;4RS1 B R 49;0.0830507
4RS1 B K 46;4RS1 B H 70;0.418771
4RS1 B K 46;4RS1 B E 71;22.761
4RS1 B K 46;4RS1 B G 72;37.8164
4RS1 B K 46;4RS1 B V 73;0.688585
4RS1 B K 46;4RS1 B T 74;0.000822997
4RS1 B K 46;4RS1 B P 93;4.73021
4RS1 B K 46;4RS1 B N 94;6.35039
4RS1 B K 47;4RS1 B N 48;47.7633
4RS1 B K 47;4RS1 B R 49;10.0714
4RS1 B K 47;4RS1 B E 71;1.89578
4RS1 B N 48;4RS1 B R 49;37.2868
4RS1 B N 48;4RS1 B V 50;0.864638
4RS1 B R 49;4RS1 B V 50;26.9827
4RS1 B R 49;4RS1 B V 51;1.97668
4RS1 B R 49;4RS1 B E 71;16.1239
4RS1 B V 50;4RS1 B V 51;27.278
4RS1 B V 50;4RS1 B E 52;5.9902
4RS1 B V 51;4RS1 B E 52;15.6409
4RS1 B V 51;4RS1 B P 53;3.50937
4RS1 B V 51;4RS1 B F 64;11.9703
4RS1 B V 51;4RS1 B I 67;16.6724
4RS1 B E 52;4RS1 B P 53;27.0769
4RS1 B E 52;4RS1 B R 54;8.65654
4RS1 B E 52;4RS1 B L 55;4.86835
4RS1 B P 53;4RS1 B R 54;27.3091
4RS1 B P 53;4RS1 B L 55;5.8732
4RS1 B P 53;4RS1 B C 62;13.2391
4RS1 B P 53;4RS1 B T 63;13.0929
4RS1 B P 53;4RS1 B F 64;20.4633
4RS1 B R 54;4RS1 B L 55;36.8384
4RS1 B R 54;4RS1 B C 62;2.22279
4RS1 B L 55;4RS1 B E 59;44.2309
4RS1 B L 55;4RS1 B S 61;9.19554
4RS1 B L 55;4RS1 B C 62;15.4833
4RS1 B E 59;4RS1 B C 60;31.3369
4RS1 B E 59;4RS1 B S 61;8.17201
4RS1 B C 60;4RS1 B S 61;25.6407
4RS1 B S 61;4RS1 B C 62;26.6263
4RS1 B S 61;4RS1 B T 63;0.165688
4RS1 B C 62;4RS1 B T 63;24.8272
4RS1 B C 62;4RS1 B F 64;8.99135
4RS1 B T 63;4RS1 B F 64;24.0392
4RS1 B T 63;4RS1 B R 65;35.1613
4RS1 B F 64;4RS1 B R 65;25.0504
4RS1 B F 64;4RS1 B I 67;19.353
4RS1 B F 64;4RS1 B F 75;13.7446
4RS1 B R 65;4RS1 B E 66;32.1804
4RS1 B R 65;4RS1 B I 67;9.71003
4RS1 B E 66;4RS1 B I 67;28.6721
4RS1 B E 66;4RS1 B S 138;4.25705
4RS1 B E 66;4RS1 B R 170;30.5274
4RS1 B E 66;4RS1 B Y 172;0.207994
4RS1 B E 66;4RS1 B L 190;28.7357
4RS1 B I 67;4RS1 B C 68;28.1399
4RS1 B I 67;4RS1 B L 69;18.1159
4RS1 B I 67;4RS1 B V 73;0.425896
4RS1 B I 67;4RS1 B F 75;3.36461
4RS1 B I 67;4RS1 B Y 172;10.6727
4RS1 B I 67;4RS1 B D 188;0.298925
4RS1 B I 67;4RS1 B L 190;7.25772
4RS1 B C 68;4RS1 B L 69;22.1959
4RS1 B C 68;4RS1 B H 70;13.6853
4RS1 B C 68;4RS1 B E 71;3.44045
4RS1 B C 68;4RS1 B V 73;8.53076
4RS1 B C 68;4RS1 B Y 172;4.45168
4RS1 B C 68;4RS1 B D 188;12.8869
4RS1 B C 68;4RS1 B S 189;8.85866
4RS1 B C 68;4RS1 B L 190;21.6873
4RS1 B L 69;4RS1 B H 70;15.6993
4RS1 B L 69;4RS1 B E 71;14.0541
4RS1 B L 69;4RS1 B V 73;20.5589
4RS1 B L 69;4RS1 B F 75;6.27552
4RS1 B L 69;4RS1 B Y 92;24.3083
4RS1 B L 69;4RS1 B P 93;0.391865
4RS1 B L 69;4RS1 B N 94;1.73753
4RS1 B L 69;4RS1 B Y 172;5.94599
4RS1 B L 69;4RS1 B F 186;17.8932
4RS1 B L 69;4RS1 B D 188;10.9806
4RS1 B H 70;4RS1 B E 71;50.234
4RS1 B H 70;4RS1 B N 94;22.6386
4RS1 B H 70;4RS1 B Q 185;0.310059
4RS1 B H 70;4RS1 B F 186;16.775
4RS1 B H 70;4RS1 B F 187;27.7111
4RS1 B H 70;4RS1 B D 188;25.3901
4RS1 B E 71;4RS1 B G 72;26.4084
4RS1 B E 71;4RS1 B V 73;4.5536
4RS1 B E 71;4RS1 B Y 92;3.63604
4RS1 B E 71;4RS1 B P 93;1.35838
4RS1 B E 71;4RS1 B N 94;5.75152
4RS1 B G 72;4RS1 B V 73;28.4462
4RS1 B G 72;4RS1 B Y 92;0.331925
4RS1 B G 72;4RS1 B P 93;5.08356
4RS1 B G 72;4RS1 B N 94;0.00118783
4RS1 B V 73;4RS1 B T 74;25.0368
4RS1 B V 73;4RS1 B F 75;11.9285
4RS1 B V 73;4RS1 B L 90;0.132479
4RS1 B V 73;4RS1 B L 91;2.13889
4RS1 B V 73;4RS1 B Y 92;28.9488
4RS1 B V 73;4RS1 B P 93;0.431417
4RS1 B T 74;4RS1 B F 75;19.2803
4RS1 B T 74;4RS1 B E 76;6.71333
4RS1 B T 74;4RS1 B K 89;19.7286
4RS1 B T 74;4RS1 B L 90;4.16004
4RS1 B T 74;4RS1 B L 91;22.959
4RS1 B T 74;4RS1 B Y 92;0.126528
4RS1 B F 75;4RS1 B E 76;17.4065
4RS1 B F 75;4RS1 B V 77;2.88821
4RS1 B F 75;4RS1 B Q 88;2.60348
4RS1 B F 75;4RS1 B K 89;6.36538
4RS1 B F 75;4RS1 B L 90;30.897
4RS1 B F 75;4RS1 B Y 92;13.512
4RS1 B E 76;4RS1 B V 77;25.1949
4RS1 B E 76;4RS1 B H 78;15.9305
4RS1 B E 76;4RS1 B Q 87;14.1944
4RS1 B E 76;4RS1 B Q 88;6.44284
4RS1 B E 76;4RS1 B K 89;33.3628
4RS1 B V 77;4RS1 B H 78;26.8801
4RS1 B V 77;4RS1 B V 79;9.28485
4RS1 B V 77;4RS1 B Q 87;6.60462
4RS1 B V 77;4RS1 B Q 88;18.2826
4RS1 B H 78;4RS1 B V 79;19.3028
4RS1 B H 78;4RS1 B Q 80;15.0827
4RS1 B H 78;4RS1 B F 86;6.91043
4RS1 B H 78;4RS1 B Q 87;23.4916
4RS1 B V 79;4RS1 B Q 80;24.2496
4RS1 B V 79;4RS1 B T 81;4.17268
4RS1 B V 79;4RS1 B F 86;23.2133
4RS1 B V 79;4RS1 B Q 87;2.17747
4RS1 B Q 80;4RS1 B T 81;29.8868
4RS1 B Q 80;4RS1 B F 86;21.5243
4RS1 B T 81;4RS1 B S 82;45.1815
4RS1 B T 81;4RS1 B F 86;22.6292
4RS1 B F 86;4RS1 B Q 87;33.6483
4RS1 B Q 87;4RS1 B Q 88;32.5733
4RS1 B Q 87;4RS1 B K 89;8.12071
4RS1 B Q 88;4RS1 B K 89;37.9717
4RS1 B Q 88;4RS1 B L 90;5.55857
4RS1 B K 89;4RS1 B L 90;26.6556
4RS1 B K 89;4RS1 B L 91;10.6153
4RS1 B L 90;4RS1 B L 91;34.0457
4RS1 B L 90;4RS1 B Y 92;11.4662
4RS1 B L 91;4RS1 B Y 92;22.553
4RS1 B L 91;4RS1 B P 93;22.0525
4RS1 B Y 92;4RS1 B P 93;37.457
4RS1 B Y 92;4RS1 B N 94;0.0070812
4RS1 B Y 92;4RS1 B F 186;8.64269
4RS1 B P 93;4RS1 B N 94;29.7019
4RS1 B P 93;4RS1 B S 95;15.3761
4RS1 B P 93;4RS1 B F 186;4.90559
4RS1 B N 94;4RS1 B S 95;24.5643
4RS1 B N 94;4RS1 B G 96;6.61495
4RS1 B N 94;4RS1 B A 101;0.146308
4RS1 B N 94;4RS1 B Q 185;37.3339
4RS1 B N 94;4RS1 B F 186;33.4026
4RS1 B S 95;4RS1 B G 96;24.8204
4RS1 B S 95;4RS1 B G 183;0.343269
4RS1 B S 95;4RS1 B I 184;10.6144
4RS1 B S 95;4RS1 B Q 185;7.81674
4RS1 B S 95;4RS1 B F 186;5.48432
4RS1 B G 96;4RS1 B R 97;26.5199
4RS1 B G 96;4RS1 B E 98;1.11715
4RS1 B G 96;4RS1 B T 100;0.460023
4RS1 B G 96;4RS1 B G 183;15.6028
4RS1 B G 96;4RS1 B I 184;2.19154
4RS1 B G 96;4RS1 B Q 185;14.0685
4RS1 B R 97;4RS1 B E 98;29.5384
4RS1 B R 97;4RS1 B T 100;19.9605
4RS1 B R 97;4RS1 B T 124;4.98372
4RS1 B R 97;4RS1 B E 181;4.20575
4RS1 B R 97;4RS1 B I 182;37.0825
4RS1 B R 97;4RS1 B G 183;12.1322
4RS1 B R 97;4RS1 B Q 185;7.52929
4RS1 B E 98;4RS1 B G 99;23.7093
4RS1 B E 98;4RS1 B T 100;6.24792
4RS1 B E 98;4RS1 B T 124;12.7021
4RS1 B E 98;4RS1 B Q 185;19.4437
4RS1 B G 99;4RS1 B T 100;17.6721
4RS1 B G 99;4RS1 B A 101;1.08949
4RS1 B G 99;4RS1 B Q 103;9.47555
4RS1 B G 99;4RS1 B G 122;6.503
4RS1 B G 99;4RS1 B P 123;15.0168
4RS1 B G 99;4RS1 B T 124;14.5377
4RS1 B G 99;4RS1 B A 125;2.35824
4RS1 B G 99;4RS1 B Q 185;3.78044
4RS1 B T 100;4RS1 B A 101;22.8363
4RS1 B T 100;4RS1 B Q 103;0.00330296
4RS1 B T 100;4RS1 B G 122;3.5162
4RS1 B T 100;4RS1 B T 124;12.7121
4RS1 B T 100;4RS1 B A 125;13.6273
4RS1 B T 100;4RS1 B P 126;1.39646
4RS1 B T 100;4RS1 B V 129;1.35092
4RS1 B T 100;4RS1 B Y 131;7.23565
4RS1 B T 100;4RS1 B I 182;8.2249
4RS1 B T 100;4RS1 B G 183;4.57915
4RS1 B T 100;4RS1 B I 184;20.8521
4RS1 B T 100;4RS1 B Q 185;10.6572
4RS1 B A 101;4RS1 B A 102;25.348
4RS1 B A 101;4RS1 B Q 103;15.1009
4RS1 B A 101;4RS1 B R 121;0.10746
4RS1 B A 101;4RS1 B G 122;6.87591
4RS1 B A 101;4RS1 B Y 131;5.28708
4RS1 B A 101;4RS1 B V 175;0.0360445
4RS1 B A 101;4RS1 B I 184;1.36473
4RS1 B A 101;4RS1 B Q 185;26.5361
4RS1 B A 101;4RS1 B F 186;8.36558
4RS1 B A 101;4RS1 B F 187;8.83094
4RS1 B A 102;4RS1 B Q 103;27.9096
4RS1 B A 102;4RS1 B F 105;4.6754
4RS1 B A 102;4RS1 B W 119;15.345
4RS1 B A 102;4RS1 B A 120;6.24373
4RS1 B A 102;4RS1 B R 121;0.533529
4RS1 B A 102;4RS1 B G 122;0.377704
4RS1 B A 102;4RS1 B Y 131;15.1826
4RS1 B A 102;4RS1 B V 175;15.9755
4RS1 B A 102;4RS1 B Q 185;0.602627
4RS1 B A 102;4RS1 B F 187;20.1257
4RS1 B Q 103;4RS1 B N 104;35.3601
4RS1 B Q 103;4RS1 B F 105;6.64836
4RS1 B Q 103;4RS1 B W 119;7.74363
4RS1 B Q 103;4RS1 B A 120;19.5975
4RS1 B Q 103;4RS1 B R 121;9.1929
4RS1 B Q 103;4RS1 B G 122;5.60146
4RS1 B Q 103;4RS1 B P 123;15.6439
4RS1 B N 104;4RS1 B F 105;24.8827
4RS1 B N 104;4RS1 B S 106;7.95825
4RS1 B N 104;4RS1 B T 118;5.64065
4RS1 B N 104;4RS1 B W 119;7.28604
4RS1 B N 104;4RS1 B A 120;13.4095
4RS1 B F 105;4RS1 B S 106;33.4457
4RS1 B F 105;4RS1 B C 107;8.42546
4RS1 B F 105;4RS1 B C 117;7.52557
4RS1 B F 105;4RS1 B T 118;8.18311
4RS1 B F 105;4RS1 B W 119;20.858
4RS1 B F 105;4RS1 B L 133;6.98469
4RS1 B F 105;4RS1 B F 173;16.0124
4RS1 B F 105;4RS1 B V 175;13.58
4RS1 B F 105;4RS1 B F 187;30.06
4RS1 B F 105;4RS1 B S 189;8.13501
4RS1 B F 105;4RS1 B L 191;12.3941
4RS1 B S 106;4RS1 B C 107;32.0263
4RS1 B S 106;4RS1 B F 108;5.71517
4RS1 B S 106;4RS1 B N 116;0.00276183
4RS1 B S 106;4RS1 B C 117;5.0668
4RS1 B S 106;4RS1 B T 118;25.6952
4RS1 B S 106;4RS1 B L 191;4.00388
4RS1 B C 107;4RS1 B F 108;25.9666
4RS1 B C 107;4RS1 B M 115;6.30917
4RS1 B C 107;4RS1 B N 116;6.43916
4RS1 B C 107;4RS1 B C 117;16.3763
4RS1 B C 107;4RS1 B F 173;7.17659
4RS1 B C 107;4RS1 B L 191;16.8043
4RS1 B C 107;4RS1 B I 196;22.794
4RS1 B F 108;4RS1 B I 109;19.5874
4RS1 B F 108;4RS1 B Y 110;23.6844
4RS1 B F 108;4RS1 B L 114;0.045184
4RS1 B F 108;4RS1 B M 115;7.95546
4RS1 B F 108;4RS1 B N 116;38.9277
4RS1 B F 108;4RS1 B C 117;0.256679
4RS1 B F 108;4RS1 B T 118;7.97212
4RS1 B F 108;4RS1 B I 196;15.0355
4RS1 B F 108;4RS1 B R 198;44.261
4RS1 B I 109;4RS1 B Y 110;21.9575
4RS1 B I 109;4RS1 B N 111;1.41297
4RS1 B I 109;4RS1 B A 112;4.69103
4RS1 B I 109;4RS1 B D 113;0.182346
4RS1 B I 109;4RS1 B L 114;8.01982
4RS1 B I 109;4RS1 B M 115;16.7885
4RS1 B I 109;4RS1 B L 164;13.1177
4RS1 B I 109;4RS1 B L 167;8.17261
4RS1 B I 109;4RS1 B T 193;16.2196
4RS1 B I 109;4RS1 B I 196;21.2512
4RS1 B I 109;4RS1 B E 197;23.475
4RS1 B I 109;4RS1 B R 198;11.0865
4RS1 B I 109;4RS1 B Y 224;19.5899
4RS1 B Y 110;4RS1 B N 111;37.084
4RS1 B Y 110;4RS1 B A 112;1.86286
4RS1 B Y 110;4RS1 B D 113;2.48698
4RS1 B Y 110;4RS1 B L 114;45.6013
4RS1 B Y 110;4RS1 B M 115;4.15763
4RS1 B Y 110;4RS1 B N 116;18.7447
4RS1 B Y 110;4RS1 B H 160;13.998
4RS1 B Y 110;4RS1 B E 197;0.0432734
4RS1 B Y 110;4RS1 B R 198;15.6531
4RS1 B N 111;4RS1 B A 112;22.3002
4RS1 B N 111;4RS1 B D 113;18.6994
4RS1 B N 111;4RS1 B L 114;12.8291
4RS1 B N 111;4RS1 B E 197;7.47551
4RS1 B N 111;4RS1 B R 198;8.45295
4RS1 B N 111;4RS1 B F 199;0.951525
4RS1 B N 111;4RS1 B N 200;34.9062
4RS1 B N 111;4RS1 B R 222;12.7815
4RS1 B N 111;4RS1 B T 223;0.182516
4RS1 B A 112;4RS1 B D 113;27.0808
4RS1 B A 112;4RS1 B L 164;1.3312
4RS1 B A 112;4RS1 B E 197;2.5624
4RS1 B A 112;4RS1 B N 200;1.30706
4RS1 B A 112;4RS1 B R 222;29.2722
4RS1 B A 112;4RS1 B T 223;11.2116
4RS1 B A 112;4RS1 B Y 224;21.5713
4RS1 B D 113;4RS1 B L 114;36.7682
4RS1 B D 113;4RS1 B L 161;0.44193
4RS1 B D 113;4RS1 B D 162;8.58132
4RS1 B D 113;4RS1 B N 163;2.66274
4RS1 B D 113;4RS1 B L 164;15.3967
4RS1 B D 113;4RS1 B R 222;14.9222
4RS1 B D 113;4RS1 B Y 224;2.01639
4RS1 B L 114;4RS1 B M 115;18.1337
4RS1 B L 114;4RS1 B H 160;15.1709
4RS1 B L 114;4RS1 B L 161;5.61216
4RS1 B L 114;4RS1 B D 162;18.5522
4RS1 B L 114;4RS1 B L 164;8.55268
4RS1 B M 115;4RS1 B N 116;24.8039
4RS1 B M 115;4RS1 B C 117;8.84731
4RS1 B M 115;4RS1 B I 135;7.30648
4RS1 B M 115;4RS1 B C 159;0.937164
4RS1 B M 115;4RS1 B H 160;6.35761
4RS1 B M 115;4RS1 B L 161;35.0495
4RS1 B M 115;4RS1 B L 164;15.3785
4RS1 B M 115;4RS1 B L 167;17.2744
4RS1 B M 115;4RS1 B F 173;13.699
4RS1 B M 115;4RS1 B I 196;8.97184
4RS1 B N 116;4RS1 B C 117;22.1868
4RS1 B N 116;4RS1 B T 118;6.6714
4RS1 B N 116;4RS1 B I 150;12.9952
4RS1 B N 116;4RS1 B C 159;5.22959
4RS1 B N 116;4RS1 B H 160;15.3516
4RS1 B N 116;4RS1 B L 161;0.310188
4RS1 B C 117;4RS1 B T 118;22.1959
4RS1 B C 117;4RS1 B W 119;6.30726
4RS1 B C 117;4RS1 B L 133;9.90901
4RS1 B C 117;4RS1 B I 135;1.3019
4RS1 B C 117;4RS1 B I 150;4.03545
4RS1 B C 117;4RS1 B G 158;4.45879
4RS1 B C 117;4RS1 B C 159;19.1649
4RS1 B C 117;4RS1 B L 161;5.33123
4RS1 B C 117;4RS1 B F 173;6.26217
4RS1 B T 118;4RS1 B W 119;29.896
4RS1 B T 118;4RS1 B I 150;12.605
4RS1 B T 118;4RS1 B V 157;6.33547
4RS1 B T 118;4RS1 B G 158;6.53397
4RS1 B W 119;4RS1 B A 120;31.9407
4RS1 B W 119;4RS1 B Y 131;17.8213
4RS1 B W 119;4RS1 B F 132;3.32311
4RS1 B W 119;4RS1 B L 133;13.655
4RS1 B W 119;4RS1 B Y 149;8.00818
4RS1 B W 119;4RS1 B H 156;12.7588
4RS1 B W 119;4RS1 B V 157;33.2863
4RS1 B W 119;4RS1 B G 158;15.1311
4RS1 B W 119;4RS1 B C 159;4.78958
4RS1 B W 119;4RS1 B V 175;16.9169
4RS1 B A 120;4RS1 B R 121;32.8561
4RS1 B A 120;4RS1 B Y 131;2.8999
4RS1 B A 120;4RS1 B V 157;5.63857
4RS1 B R 121;4RS1 B G 122;25.3054
4RS1 B R 121;4RS1 B P 123;3.71778
4RS1 B R 121;4RS1 B A 125;4.57686
4RS1 B R 121;4RS1 B P 126;3.4457
4RS1 B R 121;4RS1 B R 127;5.5312
4RS1 B R 121;4RS1 B V 129;11.5114
4RS1 B R 121;4RS1 B Y 131;15.9266
4RS1 B R 121;4RS1 B D 152;27.7827
4RS1 B R 121;4RS1 B T 155;25.1131
4RS1 B R 121;4RS1 B V 157;14.8926
4RS1 B G 122;4RS1 B P 123;22.9218
4RS1 B G 122;4RS1 B T 124;1.36976
4RS1 B G 122;4RS1 B A 125;18.3902
4RS1 B G 122;4RS1 B Y 131;6.03754
4RS1 B P 123;4RS1 B T 124;33.0804
4RS1 B P 123;4RS1 B A 125;4.15531
4RS1 B T 124;4RS1 B A 125;21.8816
4RS1 B T 124;4RS1 B P 126;3.04482
4RS1 B T 124;4RS1 B I 182;8.97541
4RS1 B A 125;4RS1 B P 126;33.5415
4RS1 B A 125;4RS1 B R 127;2.13595
4RS1 B A 125;4RS1 B V 129;10.5023
4RS1 B A 125;4RS1 B Y 131;4.7566
4RS1 B A 125;4RS1 B I 184;2.36393
4RS1 B P 126;4RS1 B R 127;29.3711
4RS1 B P 126;4RS1 B D 128;14.3224
4RS1 B P 126;4RS1 B V 129;20.0386
4RS1 B P 126;4RS1 B S 179;9.22174
4RS1 B P 126;4RS1 B E 181;3.07834
4RS1 B P 126;4RS1 B I 182;25.9926
4RS1 B P 126;4RS1 B I 184;8.1797
4RS1 B R 127;4RS1 B D 128;27.9934
4RS1 B R 127;4RS1 B V 129;6.84194
4RS1 B R 127;4RS1 B T 155;6.26271
4RS1 B D 128;4RS1 B V 129;25.7695
4RS1 B D 128;4RS1 B Q 130;7.5598
4RS1 B D 128;4RS1 B T 178;1.47423
4RS1 B D 128;4RS1 B S 179;14.8428
4RS1 B D 128;4RS1 B R 180;26.8324
4RS1 B D 128;4RS1 B E 181;4.31079
4RS1 B V 129;4RS1 B Q 130;26.6122
4RS1 B V 129;4RS1 B Y 131;19.4053
4RS1 B V 129;4RS1 B T 155;17.5113
4RS1 B V 129;4RS1 B G 177;1.51154
4RS1 B V 129;4RS1 B T 178;8.30636
4RS1 B V 129;4RS1 B S 179;6.30718
4RS1 B V 129;4RS1 B I 184;13.5599
4RS1 B Q 130;4RS1 B Y 131;27.7552
4RS1 B Q 130;4RS1 B F 132;19.4962
4RS1 B Q 130;4RS1 B G 154;12.8796
4RS1 B Q 130;4RS1 B T 155;8.64297
4RS1 B Q 130;4RS1 B H 156;27.2815
4RS1 B Q 130;4RS1 B G 177;5.44356
4RS1 B Q 130;4RS1 B T 178;25.9939
4RS1 B Y 131;4RS1 B F 132;24.5113
4RS1 B Y 131;4RS1 B Y 149;1.48738
4RS1 B Y 131;4RS1 B T 155;7.95721
4RS1 B Y 131;4RS1 B H 156;24.0547
4RS1 B Y 131;4RS1 B V 157;1.0972
4RS1 B Y 131;4RS1 B V 175;11.082
4RS1 B Y 131;4RS1 B N 176;9.85746
4RS1 B Y 131;4RS1 B G 177;6.66257
4RS1 B Y 131;4RS1 B I 184;5.80817
4RS1 B Y 131;4RS1 B Q 185;1.80942
4RS1 B F 132;4RS1 B L 133;17.8385
4RS1 B F 132;4RS1 B Y 134;23.5675
4RS1 B F 132;4RS1 B Y 149;20.7388
4RS1 B F 132;4RS1 B H 156;11.6734
4RS1 B F 132;4RS1 B L 174;1.37893
4RS1 B F 132;4RS1 B V 175;10.0766
4RS1 B F 132;4RS1 B N 176;24.7412
4RS1 B F 132;4RS1 B G 177;4.13462
4RS1 B F 132;4RS1 B T 178;15.5135
4RS1 B L 133;4RS1 B Y 134;33.2511
4RS1 B L 133;4RS1 B I 135;16.1734
4RS1 B L 133;4RS1 B I 144;0.680199
4RS1 B L 133;4RS1 B R 145;5.07156
4RS1 B L 133;4RS1 B C 146;20.0206
4RS1 B L 133;4RS1 B Y 149;15.644
4RS1 B L 133;4RS1 B C 159;13.905
4RS1 B L 133;4RS1 B L 161;1.65763
4RS1 B L 133;4RS1 B F 173;10.3687
4RS1 B L 133;4RS1 B L 174;9.66662
4RS1 B L 133;4RS1 B V 175;11.311
4RS1 B Y 134;4RS1 B I 135;23.0199
4RS1 B Y 134;4RS1 B R 136;0.0592314
4RS1 B Y 134;4RS1 B E 143;21.7849
4RS1 B Y 134;4RS1 B I 144;7.84887
4RS1 B Y 134;4RS1 B R 145;23.4802
4RS1 B Y 134;4RS1 B C 146;0.000101517
4RS1 B Y 134;4RS1 B Y 149;1.75959
4RS1 B Y 134;4RS1 B Y 172;2.19235
4RS1 B Y 134;4RS1 B F 173;3.6025
4RS1 B Y 134;4RS1 B L 174;36.1818
4RS1 B Y 134;4RS1 B N 176;17.6116
4RS1 B I 135;4RS1 B R 136;26.8327
4RS1 B I 135;4RS1 B N 137;3.06845
4RS1 B I 135;4RS1 B R 142;1.3296
4RS1 B I 135;4RS1 B E 143;6.17184
4RS1 B I 135;4RS1 B I 144;37.9695
4RS1 B I 135;4RS1 B C 146;3.59099
4RS1 B I 135;4RS1 B C 159;0.373426
4RS1 B I 135;4RS1 B L 161;17.4506
4RS1 B I 135;4RS1 B L 167;13.9887
4RS1 B I 135;4RS1 B N 171;7.5011
4RS1 B I 135;4RS1 B Y 172;7.54656
4RS1 B I 135;4RS1 B F 173;21.0147
4RS1 B R 136;4RS1 B N 137;32.9873
4RS1 B R 136;4RS1 B R 140;4.28972
4RS1 B R 136;4RS1 B R 141;14.9568
4RS1 B R 136;4RS1 B R 142;7.20188
4RS1 B R 136;4RS1 B E 143;31.0595
4RS1 B R 136;4RS1 B I 144;1.59356
4RS1 B R 136;4RS1 B N 171;5.428
4RS1 B R 136;4RS1 B Y 172;54.6083
4RS1 B R 136;4RS1 B L 174;8.70501
4RS1 B N 137;4RS1 B S 138;31.7975
4RS1 B N 137;4RS1 B K 139;3.22392
4RS1 B N 137;4RS1 B R 140;24.4577
4RS1 B N 137;4RS1 B R 141;7.66168
4RS1 B N 137;4RS1 B I 144;3.20378
4RS1 B N 137;4RS1 B G 166;8.56566
4RS1 B N 137;4RS1 B L 167;5.01553
4RS1 B N 137;4RS1 B T 168;16.979
4RS1 B N 137;4RS1 B R 170;6.39206
4RS1 B N 137;4RS1 B N 171;12.7409
4RS1 B N 137;4RS1 B Y 172;3.49318
4RS1 B S 138;4RS1 B K 139;25.357
4RS1 B S 138;4RS1 B R 140;1.25628
4RS1 B S 138;4RS1 B R 141;13.7182
4RS1 B S 138;4RS1 B T 168;13.6268
4RS1 B S 138;4RS1 B R 170;4.96327
4RS1 B K 139;4RS1 B R 140;49.5102
4RS1 B K 139;4RS1 B R 141;17.7268
4RS1 B K 139;4RS1 B S 165;8.06962
4RS1 B K 139;4RS1 B G 166;4.14349
4RS1 B K 139;4RS1 B L 167;6.47099
4RS1 B K 139;4RS1 B T 168;15.8981
4RS1 B R 140;4RS1 B R 141;16.3282
4RS1 B R 140;4RS1 B R 142;48.9992
4RS1 B R 140;4RS1 B I 144;3.83694
4RS1 B R 140;4RS1 B S 165;0.0110533
4RS1 B R 140;4RS1 B G 166;18.4027
4RS1 B R 140;4RS1 B T 168;0.00422221
4RS1 B R 141;4RS1 B R 142;28.3521
4RS1 B R 141;4RS1 B E 143;1.82875
4RS1 B R 142;4RS1 B E 143;34.7959
4RS1 B R 142;4RS1 B I 144;26.0688
4RS1 B R 142;4RS1 B G 166;3.42804
4RS1 B E 143;4RS1 B I 144;23.9357
4RS1 B E 143;4RS1 B R 145;2.92828
4RS1 B E 143;4RS1 B L 174;5.88522
4RS1 B I 144;4RS1 B R 145;36.0106
4RS1 B I 144;4RS1 B C 146;3.17443
4RS1 B I 144;4RS1 B P 147;2.49202
4RS1 B I 144;4RS1 B L 161;4.36042
4RS1 B I 144;4RS1 B G 166;15.7103
4RS1 B I 144;4RS1 B L 167;1.92504
4RS1 B R 145;4RS1 B C 146;30.8596
4RS1 B R 145;4RS1 B P 147;13.2318
4RS1 B R 145;4RS1 B Y 149;13.1708
4RS1 B C 146;4RS1 B P 147;25.9279
4RS1 B C 146;4RS1 B Y 148;10.6338
4RS1 B C 146;4RS1 B Y 149;28.1471
4RS1 B C 146;4RS1 B G 158;0.0496715
4RS1 B C 146;4RS1 B C 159;18.2045
4RS1 B C 146;4RS1 B L 161;0.632548
4RS1 B P 147;4RS1 B Y 148;32.2659
4RS1 B P 147;4RS1 B Y 149;0.04776
4RS1 B P 147;4RS1 B C 159;4.47612
4RS1 B P 147;4RS1 B H 160;5.6548
4RS1 B P 147;4RS1 B L 161;26.7248
4RS1 B P 147;4RS1 B D 162;6.32533
4RS1 B Y 148;4RS1 B Y 149;40.8251
4RS1 B Y 148;4RS1 B I 150;11.9466
4RS1 B Y 148;4RS1 B C 159;6.37976
4RS1 B Y 148;4RS1 B H 160;36.1734
4RS1 B Y 148;4RS1 B D 162;2.08385
4RS1 B Y 149;4RS1 B I 150;20.6063
4RS1 B Y 149;4RS1 B Q 151;20.9069
4RS1 B Y 149;4RS1 B H 156;35.8843
4RS1 B Y 149;4RS1 B G 158;9.34349
4RS1 B Y 149;4RS1 B C 159;2.47986
4RS1 B I 150;4RS1 B Q 151;27.2268
4RS1 B I 150;4RS1 B T 155;0.192501
4RS1 B I 150;4RS1 B H 156;3.49338
4RS1 B I 150;4RS1 B V 157;20.7883
4RS1 B I 150;4RS1 B G 158;21.0396
4RS1 B I 150;4RS1 B C 159;12.4025
4RS1 B I 150;4RS1 B H 160;10.1361
4RS1 B Q 151;4RS1 B D 152;18.2132
4RS1 B Q 151;4RS1 B S 153;25.4361
4RS1 B Q 151;4RS1 B G 154;15.9527
4RS1 B Q 151;4RS1 B T 155;6.55431
4RS1 B Q 151;4RS1 B H 156;21.1259
4RS1 B Q 151;4RS1 B V 157;4.73119
4RS1 B D 152;4RS1 B S 153;29.5622
4RS1 B D 152;4RS1 B G 154;2.81391
4RS1 B D 152;4RS1 B T 155;18.7214
4RS1 B D 152;4RS1 B V 157;19.7378
4RS1 B S 153;4RS1 B G 154;25.5448
4RS1 B G 154;4RS1 B T 155;25.3562
4RS1 B G 154;4RS1 B H 156;3.28747
4RS1 B T 155;4RS1 B H 156;21.6587
4RS1 B T 155;4RS1 B V 157;13.417
4RS1 B H 156;4RS1 B V 157;18.2219
4RS1 B H 156;4RS1 B G 158;0.724265
4RS1 B V 157;4RS1 B G 158;18.6257
4RS1 B G 158;4RS1 B C 159;15.4549
4RS1 B C 159;4RS1 B H 160;19.6844
4RS1 B C 159;4RS1 B L 161;14.8613
4RS1 B H 160;4RS1 B L 161;26.5078
4RS1 B H 160;4RS1 B D 162;18.6922
4RS1 B L 161;4RS1 B D 162;19.647
4RS1 B L 161;4RS1 B N 163;17.185
4RS1 B L 161;4RS1 B L 164;13.2563
4RS1 B L 161;4RS1 B L 167;3.29706
4RS1 B D 162;4RS1 B N 163;33.0355
4RS1 B N 163;4RS1 B L 164;28.7944
4RS1 B N 163;4RS1 B S 165;27.5727
4RS1 B N 163;4RS1 B G 166;2.74373
4RS1 B L 164;4RS1 B S 165;22.3712
4RS1 B L 164;4RS1 B G 166;3.84213
4RS1 B L 164;4RS1 B L 167;30.4154
4RS1 B L 164;4RS1 B Y 224;31.7274
4RS1 B S 165;4RS1 B G 166;27.3493
4RS1 B S 165;4RS1 B L 167;7.96792
4RS1 B S 165;4RS1 B Y 224;2.97877
4RS1 B G 166;4RS1 B L 167;22.9389
4RS1 B G 166;4RS1 B T 168;0.888735
4RS1 B L 167;4RS1 B T 168;29.907
4RS1 B L 167;4RS1 B N 171;18.6626
4RS1 B L 167;4RS1 B F 173;3.73613
4RS1 B L 167;4RS1 B T 193;3.95587
4RS1 B L 167;4RS1 B Y 224;19.5419
4RS1 B T 168;4RS1 B S 169;24.1744
4RS1 B T 168;4RS1 B R 170;10.005
4RS1 B T 168;4RS1 B N 171;14.1594
4RS1 B T 168;4RS1 B T 193;7.14316
4RS1 B T 168;4RS1 B Y 224;1.65115
4RS1 B S 169;4RS1 B R 170;28.9928
4RS1 B S 169;4RS1 B N 171;3.23482
4RS1 B S 169;4RS1 B L 191;0.894938
4RS1 B S 169;4RS1 B D 192;6.45826
4RS1 B S 169;4RS1 B T 193;22.5754
4RS1 B S 169;4RS1 B K 194;0.000489181
4RS1 B R 170;4RS1 B N 171;26.0732
4RS1 B R 170;4RS1 B L 190;28.5787
4RS1 B R 170;4RS1 B L 191;7.6704
4RS1 B R 170;4RS1 B D 192;29.6456
4RS1 B N 171;4RS1 B Y 172;19.0843
4RS1 B N 171;4RS1 B F 173;19.3771
4RS1 B N 171;4RS1 B S 189;1.00644
4RS1 B N 171;4RS1 B L 190;9.15819
4RS1 B N 171;4RS1 B L 191;16.4029
4RS1 B N 171;4RS1 B T 193;6.78354
4RS1 B Y 172;4RS1 B F 173;24.9565
4RS1 B Y 172;4RS1 B L 174;20.2888
4RS1 B Y 172;4RS1 B F 186;2.35759
4RS1 B Y 172;4RS1 B D 188;21.2722
4RS1 B Y 172;4RS1 B S 189;9.44769
4RS1 B Y 172;4RS1 B L 190;22.4674
4RS1 B F 173;4RS1 B L 174;19.6067
4RS1 B F 173;4RS1 B V 175;1.20311
4RS1 B F 173;4RS1 B F 187;1.39539
4RS1 B F 173;4RS1 B D 188;7.53339
4RS1 B F 173;4RS1 B S 189;20.7256
4RS1 B F 173;4RS1 B L 191;25.1929
4RS1 B F 173;4RS1 B I 196;3.2175
4RS1 B L 174;4RS1 B V 175;22.9433
4RS1 B L 174;4RS1 B N 176;21.258
4RS1 B L 174;4RS1 B F 186;18.6057
4RS1 B L 174;4RS1 B F 187;5.83853
4RS1 B L 174;4RS1 B D 188;7.93214
4RS1 B V 175;4RS1 B N 176;21.8385
4RS1 B V 175;4RS1 B Q 185;1.94745
4RS1 B V 175;4RS1 B F 186;8.21813
4RS1 B V 175;4RS1 B F 187;27.5827
4RS1 B N 176;4RS1 B G 177;27.3868
4RS1 B N 176;4RS1 B Q 185;1.64151
4RS1 B N 176;4RS1 B F 186;16.1612
4RS1 B G 177;4RS1 B T 178;24.3953
4RS1 B G 177;4RS1 B I 184;28.0999
4RS1 B G 177;4RS1 B Q 185;3.41606
4RS1 B G 177;4RS1 B F 186;0.553779
4RS1 B T 178;4RS1 B S 179;34.9606
4RS1 B T 178;4RS1 B I 184;8.80787
4RS1 B S 179;4RS1 B R 180;26.4854
4RS1 B S 179;4RS1 B E 181;6.6505
4RS1 B S 179;4RS1 B I 182;19.6478
4RS1 B S 179;4RS1 B G 183;0.207677
4RS1 B S 179;4RS1 B I 184;7.87583
4RS1 B R 180;4RS1 B E 181;42.9921
4RS1 B E 181;4RS1 B I 182;38.2876
4RS1 B E 181;4RS1 B G 183;3.05544
4RS1 B I 182;4RS1 B G 183;29.1139
4RS1 B I 182;4RS1 B I 184;12.354
4RS1 B G 183;4RS1 B I 184;23.6784
4RS1 B G 183;4RS1 B Q 185;0.0178471
4RS1 B I 184;4RS1 B Q 185;28.1514
4RS1 B I 184;4RS1 B F 186;2.03136
4RS1 B Q 185;4RS1 B F 186;22.3255
4RS1 B Q 185;4RS1 B F 187;0.000630028
4RS1 B F 186;4RS1 B F 187;21.6657
4RS1 B F 186;4RS1 B D 188;9.53814
4RS1 B F 187;4RS1 B D 188;30.3357
4RS1 B F 187;4RS1 B S 189;14.9455
4RS1 B D 188;4RS1 B S 189;20.2094
4RS1 B S 189;4RS1 B L 190;27.2063
4RS1 B S 189;4RS1 B L 191;16.4291
4RS1 B L 190;4RS1 B L 191;25.1306
4RS1 B L 190;4RS1 B D 192;5.27782
4RS1 B L 191;4RS1 B D 192;25.6866
4RS1 B L 191;4RS1 B T 193;2.7833
4RS1 B L 191;4RS1 B I 196;24.4416
4RS1 B D 192;4RS1 B T 193;16.9625
4RS1 B D 192;4RS1 B K 194;8.69543
4RS1 B D 192;4RS1 B K 195;37.4043
4RS1 B D 192;4RS1 B I 196;13.1258
4RS1 B T 193;4RS1 B K 194;21.6494
4RS1 B T 193;4RS1 B K 195;1.63163
4RS1 B T 193;4RS1 B I 196;13.8549
4RS1 B T 193;4RS1 B E 197;10.0113
4RS1 B T 193;4RS1 B Y 224;15.7441
4RS1 B T 193;4RS1 B Q 225;20.592
4RS1 B K 194;4RS1 B K 195;20.5455
4RS1 B K 194;4RS1 B I 196;0.944379
4RS1 B K 194;4RS1 B E 197;5.33183
4RS1 B K 194;4RS1 B Q 225;23.743
4RS1 B K 194;4RS1 B L 227;10.4797
4RS1 B K 194;4RS1 B D 231;10.1304
4RS1 B K 194;4RS1 B D 281;21.6515
4RS1 B K 194;4RS1 B R 283;17.827
4RS1 B K 194;4RS1 B I 284;21.65
4RS1 B K 195;4RS1 B I 196;32.8275
4RS1 B K 195;4RS1 B E 197;3.77397
4RS1 B K 195;4RS1 B I 284;26.0774
4RS1 B K 195;4RS1 B N 286;3.26261
4RS1 B I 196;4RS1 B E 197;24.2414
4RS1 B I 196;4RS1 B R 198;3.09918
4RS1 B E 197;4RS1 B R 198;26.0733
4RS1 B E 197;4RS1 B F 199;23.5633
4RS1 B E 197;4RS1 B R 222;0.378718
4RS1 B E 197;4RS1 B T 223;12.853
4RS1 B E 197;4RS1 B Y 224;12.7899
4RS1 B E 197;4RS1 B Q 225;22.0413
4RS1 B E 197;4RS1 B L 227;0.49997
4RS1 B E 197;4RS1 B I 284;2.58752
4RS1 B E 197;4RS1 B N 286;11.3533
4RS1 B R 198;4RS1 B F 199;32.7775
4RS1 B R 198;4RS1 B N 200;3.2621
4RS1 B R 198;4RS1 B N 286;18.9227
4RS1 B R 198;4RS1 B W 287;3.5911
4RS1 B R 198;4RS1 B S 288;3.12677
4RS1 B F 199;4RS1 B N 200;28.4873
4RS1 B F 199;4RS1 B P 201;0.990308
4RS1 B F 199;4RS1 B P 221;6.69094
4RS1 B F 199;4RS1 B R 222;0.791313
4RS1 B F 199;4RS1 B T 223;15.5795
4RS1 B F 199;4RS1 B Q 225;6.05874
4RS1 B F 199;4RS1 B L 227;12.8431
4RS1 B F 199;4RS1 B D 231;1.14548
4RS1 B F 199;4RS1 B F 232;15.5505
4RS1 B F 199;4RS1 B A 279;11.8097
4RS1 B F 199;4RS1 B A 280;9.33826
4RS1 B F 199;4RS1 B D 281;22.7626
4RS1 B F 199;4RS1 B N 286;7.60947
4RS1 B F 199;4RS1 B W 287;0.228553
4RS1 B F 199;4RS1 B S 288;20.202
4RS1 B F 199;4RS1 B S 289;0.637391
4RS1 B N 200;4RS1 B P 201;37.7354
4RS1 B N 200;4RS1 B P 202;0.345581
4RS1 B N 200;4RS1 B P 221;18.7668
4RS1 B N 200;4RS1 B R 222;18.0645
4RS1 B N 200;4RS1 B T 223;0.0143968
4RS1 B N 200;4RS1 B A 279;3.25557
4RS1 B N 200;4RS1 B S 288;4.73407
4RS1 B P 201;4RS1 B P 202;33.4034
4RS1 B P 201;4RS1 B S 203;4.95113
4RS1 B P 201;4RS1 B P 221;7.91908
4RS1 B P 201;4RS1 B I 277;1.33111
4RS1 B P 201;4RS1 B R 278;0.0660114
4RS1 B P 201;4RS1 B A 279;0.169373
4RS1 B P 201;4RS1 B S 288;10.2507
4RS1 B P 201;4RS1 B S 289;21.1214
4RS1 B P 201;4RS1 B W 290;6.17238
4RS1 B P 201;4RS1 B S 291;13.1341
4RS1 B P 202;4RS1 B S 203;24.1481
4RS1 B P 202;4RS1 B V 205;9.3233
4RS1 B P 202;4RS1 B W 218;14.0267
4RS1 B P 202;4RS1 B K 219;7.06879
4RS1 B P 202;4RS1 B P 221;10.4727
4RS1 B P 202;4RS1 B Y 234;9.51218
4RS1 B P 202;4RS1 B I 277;18.0057
4RS1 B P 202;4RS1 B R 278;7.90564
4RS1 B P 202;4RS1 B A 279;9.47556
4RS1 B P 202;4RS1 B S 288;1.64554
4RS1 B P 202;4RS1 B S 289;0.00106526
4RS1 B P 202;4RS1 B S 291;10.4341
4RS1 B S 203;4RS1 B N 204;32.4309
4RS1 B S 203;4RS1 B V 205;4.85858
4RS1 B S 203;4RS1 B W 218;2.94782
4RS1 B S 203;4RS1 B K 219;29.327
4RS1 B S 203;4RS1 B Q 220;4.56644
4RS1 B S 203;4RS1 B P 221;7.14117
4RS1 B N 204;4RS1 B V 205;23.9974
4RS1 B N 204;4RS1 B T 206;27.5576
4RS1 B N 204;4RS1 B R 217;3.0482
4RS1 B N 204;4RS1 B W 218;6.3574
4RS1 B N 204;4RS1 B K 219;15.6914
4RS1 B V 205;4RS1 B T 206;27.9867
4RS1 B V 205;4RS1 B V 207;2.94142
4RS1 B V 205;4RS1 B V 216;6.62489
4RS1 B V 205;4RS1 B R 217;4.45778
4RS1 B V 205;4RS1 B W 218;9.6605
4RS1 B V 205;4RS1 B V 275;9.95238
4RS1 B V 205;4RS1 B K 276;0.322196
4RS1 B V 205;4RS1 B I 277;15.6032
4RS1 B V 205;4RS1 B S 291;17.3917
4RS1 B V 205;4RS1 B E 292;1.92721
4RS1 B V 205;4RS1 B I 294;32.0449
4RS1 B T 206;4RS1 B V 207;26.4484
4RS1 B T 206;4RS1 B R 208;16.3927
4RS1 B T 206;4RS1 B L 215;3.94019
4RS1 B T 206;4RS1 B V 216;5.89205
4RS1 B T 206;4RS1 B R 217;30.6221
4RS1 B T 206;4RS1 B I 294;2.06938
4RS1 B V 207;4RS1 B R 208;28.9352
4RS1 B V 207;4RS1 B C 209;10.3201
4RS1 B V 207;4RS1 B C 214;7.50455
4RS1 B V 207;4RS1 B L 215;7.77106
4RS1 B V 207;4RS1 B V 216;16.2146
4RS1 B V 207;4RS1 B V 275;9.93281
4RS1 B V 207;4RS1 B I 294;17.4957
4RS1 B V 207;4RS1 B E 295;1.44336
4RS1 B V 207;4RS1 B F 296;26.369
4RS1 B R 208;4RS1 B C 209;28.863
4RS1 B R 208;4RS1 B H 213;4.71344
4RS1 B R 208;4RS1 B C 214;1.16906
4RS1 B R 208;4RS1 B L 215;30.9998
4RS1 B R 208;4RS1 B R 217;18.1964
4RS1 B C 209;4RS1 B T 212;15.4759
4RS1 B C 209;4RS1 B H 213;16.6789
4RS1 B C 209;4RS1 B C 214;18.7609
4RS1 B C 209;4RS1 B S 266;1.83252
4RS1 B C 209;4RS1 B F 296;10.8956
4RS1 B T 212;4RS1 B H 213;58.1006
4RS1 B T 212;4RS1 B N 263;5.268
4RS1 B T 212;4RS1 B S 266;2.29539
4RS1 B T 212;4RS1 B E 268;11.56
4RS1 B H 213;4RS1 B C 214;21.466
4RS1 B H 213;4RS1 B L 215;2.18833
4RS1 B H 213;4RS1 B N 263;3.17294
4RS1 B H 213;4RS1 B F 264;3.11041
4RS1 B H 213;4RS1 B P 265;11.7178
4RS1 B H 213;4RS1 B S 266;24.9671
4RS1 B H 213;4RS1 B S 267;13.7716
4RS1 B H 213;4RS1 B E 268;3.55558
4RS1 B C 214;4RS1 B L 215;18.7333
4RS1 B C 214;4RS1 B V 216;7.42306
4RS1 B C 214;4RS1 B Y 262;1.68344
4RS1 B C 214;4RS1 B N 263;9.3155
4RS1 B C 214;4RS1 B F 264;29.0053
4RS1 B C 214;4RS1 B S 266;18.7216
4RS1 B C 214;4RS1 B F 296;17.0455
4RS1 B L 215;4RS1 B V 216;20.6382
4RS1 B L 215;4RS1 B R 217;27.2484
4RS1 B L 215;4RS1 B R 261;28.565
4RS1 B L 215;4RS1 B Y 262;6.7075
4RS1 B L 215;4RS1 B N 263;24.6368
4RS1 B V 216;4RS1 B R 217;18.1225
4RS1 B V 216;4RS1 B W 218;11.1845
4RS1 B V 216;4RS1 B L 236;10.7701
4RS1 B V 216;4RS1 B V 238;5.43179
4RS1 B V 216;4RS1 B R 261;5.2007
4RS1 B V 216;4RS1 B Y 262;23.235
4RS1 B V 216;4RS1 B F 264;7.6986
4RS1 B V 216;4RS1 B V 275;17.4018
4RS1 B V 216;4RS1 B I 277;6.99083
4RS1 B V 216;4RS1 B F 296;3.00809
4RS1 B R 217;4RS1 B W 218;27.1265
4RS1 B R 217;4RS1 B E 259;20.8851
4RS1 B R 217;4RS1 B N 260;4.16829
4RS1 B R 217;4RS1 B R 261;23.7225
4RS1 B R 217;4RS1 B I 277;0.100557
4RS1 B W 218;4RS1 B K 219;30.6921
4RS1 B W 218;4RS1 B Q 220;0.872979
4RS1 B W 218;4RS1 B Y 234;24.6618
4RS1 B W 218;4RS1 B L 236;15.3433
4RS1 B W 218;4RS1 B V 254;13.4597
4RS1 B W 218;4RS1 B N 260;40.6157
4RS1 B W 218;4RS1 B R 261;11.773
4RS1 B W 218;4RS1 B Y 262;9.15334
4RS1 B W 218;4RS1 B I 277;23.043
4RS1 B K 219;4RS1 B Q 220;37.6342
4RS1 B K 219;4RS1 B P 221;2.40683
4RS1 B K 219;4RS1 B Y 234;0.156716
4RS1 B K 219;4RS1 B N 260;0.139033
4RS1 B Q 220;4RS1 B P 221;36.6342
4RS1 B Q 220;4RS1 B R 222;3.46801
4RS1 B Q 220;4RS1 B T 223;1.56509
4RS1 B Q 220;4RS1 B L 227;9.11553
4RS1 B Q 220;4RS1 B S 228;1.16678
4RS1 B Q 220;4RS1 B Y 229;18.5534
4RS1 B Q 220;4RS1 B F 232;24.6875
4RS1 B Q 220;4RS1 B Y 234;14.2033
4RS1 B Q 220;4RS1 B D 257;9.90273e-05
4RS1 B Q 220;4RS1 B N 260;9.7791
4RS1 B P 221;4RS1 B R 222;30.6902
4RS1 B P 221;4RS1 B T 223;13.0583
4RS1 B P 221;4RS1 B F 232;12.907
4RS1 B P 221;4RS1 B Y 234;7.47389
4RS1 B P 221;4RS1 B A 279;7.6995
4RS1 B R 222;4RS1 B T 223;28.2671
4RS1 B T 223;4RS1 B Y 224;20.7594
4RS1 B T 223;4RS1 B Q 225;19.4767
4RS1 B T 223;4RS1 B L 227;14.6323
4RS1 B T 223;4RS1 B F 232;10.1029
4RS1 B Y 224;4RS1 B Q 225;27.2987
4RS1 B Y 224;4RS1 B K 226;10.5445
4RS1 B Q 225;4RS1 B K 226;28.4372
4RS1 B Q 225;4RS1 B L 227;31.3702
4RS1 B Q 225;4RS1 B D 281;2.55408
4RS1 B K 226;4RS1 B L 227;29.608
4RS1 B L 227;4RS1 B S 228;25.8686
4RS1 B L 227;4RS1 B Y 229;0.286249
4RS1 B L 227;4RS1 B D 231;20.7951
4RS1 B L 227;4RS1 B F 232;15.1951
4RS1 B L 227;4RS1 B D 281;6.31918
4RS1 B S 228;4RS1 B Y 229;26.4595
4RS1 B S 228;4RS1 B L 230;18.0753
4RS1 B S 228;4RS1 B D 231;20.0355
4RS1 B S 228;4RS1 B F 232;7.56908
4RS1 B Y 229;4RS1 B L 230;41.8905
4RS1 B Y 229;4RS1 B D 231;1.9447
4RS1 B Y 229;4RS1 B F 232;13.6388
4RS1 B Y 229;4RS1 B G 256;13.8226
4RS1 B Y 229;4RS1 B D 257;24.5278
4RS1 B Y 229;4RS1 B L 258;41.9681
4RS1 B Y 229;4RS1 B N 260;0.782406
4RS1 B L 230;4RS1 B D 231;14.8261
4RS1 B L 230;4RS1 B F 232;4.79152
4RS1 B L 230;4RS1 B G 256;12.1202
4RS1 B L 230;4RS1 B D 257;0.37952
4RS1 B L 230;4RS1 B V 282;9.13848
4RS1 B D 231;4RS1 B F 232;23.674
4RS1 B D 231;4RS1 B A 280;0.962616
4RS1 B D 231;4RS1 B D 281;13.7584
4RS1 B D 231;4RS1 B V 282;15.0887
4RS1 B D 231;4RS1 B R 283;9.36519
4RS1 B F 232;4RS1 B Q 233;19.4465
4RS1 B F 232;4RS1 B Y 234;20.1716
4RS1 B F 232;4RS1 B S 255;3.80428
4RS1 B F 232;4RS1 B G 256;15.7963
4RS1 B F 232;4RS1 B A 279;5.3722
4RS1 B F 232;4RS1 B A 280;8.66636
4RS1 B F 232;4RS1 B D 281;4.13666e-05
4RS1 B F 232;4RS1 B V 282;9.10016
4RS1 B Q 233;4RS1 B Y 234;26.0706
4RS1 B Q 233;4RS1 B N 253;19.8016
4RS1 B Q 233;4RS1 B V 254;6.96718
4RS1 B Q 233;4RS1 B S 255;18.2856
4RS1 B Q 233;4RS1 B G 256;0.660133
4RS1 B Q 233;4RS1 B A 279;4.01146
4RS1 B Q 233;4RS1 B A 280;18.5025
4RS1 B Q 233;4RS1 B D 281;0.281795
4RS1 B Q 233;4RS1 B V 282;24.7699
4RS1 B Q 233;4RS1 B L 285;10.9995
4RS1 B Q 233;4RS1 B W 287;18.4024
4RS1 B Y 234;4RS1 B Q 235;16.9269
4RS1 B Y 234;4RS1 B L 236;5.33373
4RS1 B Y 234;4RS1 B I 252;1.6737
4RS1 B Y 234;4RS1 B N 253;6.72896
4RS1 B Y 234;4RS1 B V 254;27.1786
4RS1 B Y 234;4RS1 B S 255;1.37226
4RS1 B Y 234;4RS1 B G 256;11.1139
4RS1 B Y 234;4RS1 B N 260;15.8021
4RS1 B Y 234;4RS1 B I 277;6.72511
4RS1 B Y 234;4RS1 B R 278;7.88452
4RS1 B Y 234;4RS1 B A 279;11.0131
4RS1 B Y 234;4RS1 B W 287;6.72498
4RS1 B Q 235;4RS1 B L 236;19.9363
4RS1 B Q 235;4RS1 B L 251;23.857
4RS1 B Q 235;4RS1 B I 252;5.35605
4RS1 B Q 235;4RS1 B N 253;22.6481
4RS1 B Q 235;4RS1 B K 276;0.153074
4RS1 B Q 235;4RS1 B I 277;8.36819
4RS1 B Q 235;4RS1 B R 278;38.1608
4RS1 B Q 235;4RS1 B W 287;20.1198
4RS1 B Q 235;4RS1 B W 290;16.3805
4RS1 B L 236;4RS1 B D 237;18.0785
4RS1 B L 236;4RS1 B V 238;7.98388
4RS1 B L 236;4RS1 B L 250;2.22745
4RS1 B L 236;4RS1 B L 251;9.13601
4RS1 B L 236;4RS1 B I 252;36.1508
4RS1 B L 236;4RS1 B V 254;10.9215
4RS1 B L 236;4RS1 B Y 262;12.0608
4RS1 B L 236;4RS1 B V 275;8.55739
4RS1 B L 236;4RS1 B K 276;4.16202
4RS1 B L 236;4RS1 B I 277;19.9557
4RS1 B L 236;4RS1 B W 290;1.44357
4RS1 B D 237;4RS1 B V 238;20.9641
4RS1 B D 237;4RS1 B H 239;12.0867
4RS1 B D 237;4RS1 B N 249;17.6903
4RS1 B D 237;4RS1 B L 250;4.06983
4RS1 B D 237;4RS1 B L 251;10.5022
4RS1 B D 237;4RS1 B S 274;3.66984
4RS1 B D 237;4RS1 B V 275;7.9125
4RS1 B D 237;4RS1 B K 276;38.5417
4RS1 B D 237;4RS1 B W 290;12.3058
4RS1 B V 238;4RS1 B H 239;20.1106
4RS1 B V 238;4RS1 B R 240;0.501065
4RS1 B V 238;4RS1 B E 248;3.505
4RS1 B V 238;4RS1 B N 249;2.56835
4RS1 B V 238;4RS1 B L 250;37.1383
4RS1 B V 238;4RS1 B I 252;6.7666
4RS1 B V 238;4RS1 B Y 262;3.43685
4RS1 B V 238;4RS1 B F 264;20.9717
4RS1 B V 238;4RS1 B H 273;8.85487
4RS1 B V 238;4RS1 B S 274;5.79828
4RS1 B V 238;4RS1 B V 275;15.0113
4RS1 B V 238;4RS1 B F 296;6.70287
4RS1 B H 239;4RS1 B R 240;30.5123
4RS1 B H 239;4RS1 B K 241;22.0705
4RS1 B H 239;4RS1 B E 248;9.03365
4RS1 B H 239;4RS1 B N 249;22.967
4RS1 B H 239;4RS1 B H 273;9.16434
4RS1 B H 239;4RS1 B S 274;30.5472
4RS1 B R 240;4RS1 B K 241;44.1241
4RS1 B R 240;4RS1 B E 248;59.1295
4RS1 B R 240;4RS1 B R 270;2.51932
4RS1 B R 240;4RS1 B A 271;2.94361
4RS1 B R 240;4RS1 B K 272;4.15244
4RS1 B R 240;4RS1 B H 273;31.0799
4RS1 B K 241;4RS1 B A 271;14.383
4RS1 B K 241;4RS1 B K 272;33.5298
4RS1 B K 241;4RS1 B H 273;3.45546
4RS1 B K 241;4RS1 B S 274;3.07195
4RS1 B E 248;4RS1 B N 249;34.2977
4RS1 B E 248;4RS1 B L 250;10.2239
4RS1 B E 248;4RS1 B F 264;15.2757
4RS1 B E 248;4RS1 B H 273;4.63757
4RS1 B N 249;4RS1 B L 250;28.2178
4RS1 B N 249;4RS1 B L 251;15.4804
4RS1 B L 250;4RS1 B L 251;20.8947
4RS1 B L 250;4RS1 B I 252;22.8389
4RS1 B L 250;4RS1 B Y 262;20.7126
4RS1 B L 250;4RS1 B F 264;24.3471
4RS1 B L 251;4RS1 B I 252;33.6164
4RS1 B L 251;4RS1 B N 253;5.60185
4RS1 B L 251;4RS1 B W 290;7.04833
4RS1 B I 252;4RS1 B N 253;29.4933
4RS1 B I 252;4RS1 B V 254;7.10834
4RS1 B I 252;4RS1 B Y 262;18.7747
4RS1 B N 253;4RS1 B V 254;24.781
4RS1 B N 253;4RS1 B S 255;0.644074
4RS1 B N 253;4RS1 B W 287;6.69709
4RS1 B V 254;4RS1 B S 255;37.1861
4RS1 B V 254;4RS1 B G 256;0.656513
4RS1 B V 254;4RS1 B D 257;4.82088
4RS1 B V 254;4RS1 B N 260;4.41123
4RS1 B V 254;4RS1 B R 261;2.78317
4RS1 B V 254;4RS1 B Y 262;5.57473
4RS1 B S 255;4RS1 B G 256;31.9906
4RS1 B S 255;4RS1 B D 257;8.27638
4RS1 B S 255;4RS1 B N 260;1.32579
4RS1 B S 255;4RS1 B V 282;5.73887
4RS1 B G 256;4RS1 B D 257;25.8393
4RS1 B G 256;4RS1 B N 260;2.80018
4RS1 B D 257;4RS1 B L 258;38.0605
4RS1 B D 257;4RS1 B E 259;0.382774
4RS1 B D 257;4RS1 B N 260;30.9054
4RS1 B L 258;4RS1 B E 259;37.1955
4RS1 B L 258;4RS1 B N 260;2.88584
4RS1 B E 259;4RS1 B N 260;26.6623
4RS1 B E 259;4RS1 B R 261;43.1221
4RS1 B N 260;4RS1 B R 261;23.978
4RS1 B R 261;4RS1 B Y 262;23.028
4RS1 B R 261;4RS1 B N 263;10.1083
4RS1 B Y 262;4RS1 B N 263;35.5743
4RS1 B Y 262;4RS1 B F 264;20.2563
4RS1 B Y 262;4RS1 B P 265;8.83206
4RS1 B N 263;4RS1 B F 264;17.1334
4RS1 B N 263;4RS1 B P 265;11.6938
4RS1 B F 264;4RS1 B P 265;43.9588
4RS1 B F 264;4RS1 B S 266;11.3061
4RS1 B F 264;4RS1 B H 273;16.3386
4RS1 B F 264;4RS1 B F 296;9.19033
4RS1 B P 265;4RS1 B S 266;24.6919
4RS1 B P 265;4RS1 B S 267;0.529767
4RS1 B S 266;4RS1 B S 267;28.5614
4RS1 B S 266;4RS1 B E 268;6.76626
4RS1 B S 266;4RS1 B R 270;13.0343
4RS1 B S 266;4RS1 B H 273;4.50221
4RS1 B S 266;4RS1 B F 296;4.36773
4RS1 B S 267;4RS1 B E 268;25.9395
4RS1 B S 267;4RS1 B P 269;9.17419
4RS1 B S 267;4RS1 B R 270;25.893
4RS1 B E 268;4RS1 B P 269;39.2213
4RS1 B E 268;4RS1 B R 270;2.66616
4RS1 B P 269;4RS1 B R 270;56.8934
4RS1 B R 270;4RS1 B A 271;44.1266
4RS1 B R 270;4RS1 B H 273;3.88182
4RS1 B R 270;4RS1 B F 296;1.79369
4RS1 B A 271;4RS1 B K 272;27.9008
4RS1 B A 271;4RS1 B H 273;14.6718
4RS1 B A 271;4RS1 B F 296;12.7235
4RS1 B K 272;4RS1 B H 273;30.106
4RS1 B K 272;4RS1 B E 295;25.5626
4RS1 B K 272;4RS1 B F 296;16.669
4RS1 B H 273;4RS1 B S 274;23.5658
4RS1 B H 273;4RS1 B E 295;10.4803
4RS1 B H 273;4RS1 B F 296;37.5024
4RS1 B S 274;4RS1 B V 275;21.5101
4RS1 B S 274;4RS1 B K 276;2.3079
4RS1 B S 274;4RS1 B A 293;16.2449
4RS1 B S 274;4RS1 B I 294;4.40117
4RS1 B S 274;4RS1 B E 295;10.3588
4RS1 B S 274;4RS1 B F 296;3.33805
4RS1 B V 275;4RS1 B K 276;24.4214
4RS1 B V 275;4RS1 B I 277;8.13149
4RS1 B V 275;4RS1 B S 291;0.597405
4RS1 B V 275;4RS1 B E 292;2.15972
4RS1 B V 275;4RS1 B A 293;7.90281
4RS1 B V 275;4RS1 B I 294;22.0847
4RS1 B V 275;4RS1 B F 296;12.8462
4RS1 B K 276;4RS1 B I 277;20.245
4RS1 B K 276;4RS1 B W 290;45.8699
4RS1 B K 276;4RS1 B S 291;15.8668
4RS1 B K 276;4RS1 B E 292;0.913123
4RS1 B K 276;4RS1 B A 293;16.3129
4RS1 B I 277;4RS1 B R 278;20.0632
4RS1 B I 277;4RS1 B S 289;0.473196
4RS1 B I 277;4RS1 B W 290;9.76647
4RS1 B I 277;4RS1 B S 291;19.6306
4RS1 B R 278;4RS1 B A 279;16.1587
4RS1 B R 278;4RS1 B W 287;42.2275
4RS1 B R 278;4RS1 B S 288;15.907
4RS1 B R 278;4RS1 B S 289;7.23132
4RS1 B R 278;4RS1 B W 290;39.2877
4RS1 B A 279;4RS1 B A 280;17.8167
4RS1 B A 279;4RS1 B N 286;2.09481
4RS1 B A 279;4RS1 B W 287;12.7113
4RS1 B A 279;4RS1 B S 288;18.0047
4RS1 B A 280;4RS1 B D 281;21.368
4RS1 B A 280;4RS1 B V 282;2.08259
4RS1 B A 280;4RS1 B L 285;11.7261
4RS1 B A 280;4RS1 B N 286;10.8574
4RS1 B A 280;4RS1 B W 287;17.9475
4RS1 B D 281;4RS1 B V 282;17.1091
4RS1 B D 281;4RS1 B R 283;11.6916
4RS1 B D 281;4RS1 B I 284;24.4793
4RS1 B D 281;4RS1 B L 285;10.3039
4RS1 B D 281;4RS1 B N 286;4.48192
4RS1 B V 282;4RS1 B R 283;26.6432
4RS1 B V 282;4RS1 B I 284;0.462322
4RS1 B V 282;4RS1 B L 285;15.4634
4RS1 B R 283;4RS1 B I 284;27.5817
4RS1 B R 283;4RS1 B L 285;3.37327
4RS1 B I 284;4RS1 B L 285;29.2354
4RS1 B I 284;4RS1 B N 286;22.678
4RS1 B L 285;4RS1 B N 286;22.3553
4RS1 B L 285;4RS1 B W 287;26.3073
4RS1 B N 286;4RS1 B W 287;28.7725
4RS1 B N 286;4RS1 B S 288;1.40397
4RS1 B W 287;4RS1 B S 288;31.6432
4RS1 B S 288;4RS1 B S 289;35.6456
4RS1 B S 288;4RS1 B W 290;0.568861
4RS1 B S 289;4RS1 B W 290;36.1265
4RS1 B S 289;4RS1 B S 291;0.0287646
4RS1 B W 290;4RS1 B S 291;28.4633
4RS1 B W 290;4RS1 B E 292;2.46913
4RS1 B S 291;4RS1 B E 292;35.7274
4RS1 B S 291;4RS1 B A 293;2.63871
4RS1 B E 292;4RS1 B A 293;28.4535
4RS1 B E 292;4RS1 B I 294;16.9888
4RS1 B A 293;4RS1 B I 294;26.9333
4RS1 B A 293;4RS1 B E 295;10.2056
4RS1 B I 294;4RS1 B E 295;33.7712
4RS1 B I 294;4RS1 B F 296;3.58066
4RS1 B E 295;4RS1 B F 296;31.2448
