V1;V2;Weight
4ZS6 H V 2;4ZS6 H Q 3;39.5202
4ZS6 H V 2;4ZS6 H L 4;4.2905
4ZS6 H V 2;4ZS6 H S 25;7.51168
4ZS6 H V 2;4ZS6 H G 26;23.9172
4ZS6 H V 2;4ZS6 H F 27;15.1189
4ZS6 H V 2;4ZS6 H R 98;11.427
4ZS6 H V 2;4ZS6 H H 110;30.883
4ZS6 H Q 3;4ZS6 H L 4;32.623
4ZS6 H Q 3;4ZS6 H L 5;18.4876
4ZS6 H Q 3;4ZS6 H A 23;2.49907
4ZS6 H Q 3;4ZS6 H A 24;3.31135
4ZS6 H Q 3;4ZS6 H S 25;26.679
4ZS6 H Q 3;4ZS6 H F 27;1.99333
4ZS6 H Q 3;4ZS6 H L 113;6.42558
4ZS6 H L 4;4ZS6 H L 5;24.8888
4ZS6 H L 4;4ZS6 H E 6;4.54786
4ZS6 H L 4;4ZS6 H C 22;12.2525
4ZS6 H L 4;4ZS6 H A 23;3.85473
4ZS6 H L 4;4ZS6 H A 24;9.88907
4ZS6 H L 4;4ZS6 H F 27;12.4765
4ZS6 H L 4;4ZS6 H L 29;0.511481
4ZS6 H L 4;4ZS6 H M 34;7.00412
4ZS6 H L 4;4ZS6 H C 96;14.6262
4ZS6 H L 4;4ZS6 H V 97;3.79671
4ZS6 H L 4;4ZS6 H R 98;8.96804
4ZS6 H L 4;4ZS6 H H 110;14.6004
4ZS6 H L 4;4ZS6 H W 111;10.3126
4ZS6 H L 4;4ZS6 H G 112;16.2951
4ZS6 H L 4;4ZS6 H L 113;8.70498
4ZS6 H L 5;4ZS6 H E 6;27.3032
4ZS6 H L 5;4ZS6 H T 7;4.63263
4ZS6 H L 5;4ZS6 H S 21;1.99699
4ZS6 H L 5;4ZS6 H C 22;10.2458
4ZS6 H L 5;4ZS6 H A 23;33.0669
4ZS6 H L 5;4ZS6 H S 25;2.54131
4ZS6 H L 5;4ZS6 H L 113;17.1536
4ZS6 H E 6;4ZS6 H T 7;27.8731
4ZS6 H E 6;4ZS6 H S 21;4.93179
4ZS6 H E 6;4ZS6 H C 22;7.00101
4ZS6 H E 6;4ZS6 H W 36;8.34674
4ZS6 H E 6;4ZS6 H Y 94;4.4393
4ZS6 H E 6;4ZS6 H Y 95;5.17152
4ZS6 H E 6;4ZS6 H C 96;17.6218
4ZS6 H E 6;4ZS6 H G 112;12.5371
4ZS6 H E 6;4ZS6 H L 113;6.61265
4ZS6 H E 6;4ZS6 H G 114;22.4938
4ZS6 H E 6;4ZS6 H T 115;13.5882
4ZS6 H T 7;4ZS6 H G 8;31.0001
4ZS6 H T 7;4ZS6 H G 9;1.5763
4ZS6 H T 7;4ZS6 H L 20;8.16363
4ZS6 H T 7;4ZS6 H S 21;32.911
4ZS6 H T 7;4ZS6 H A 23;1.55591
4ZS6 H T 7;4ZS6 H W 36;0.0840796
4ZS6 H T 7;4ZS6 H T 115;13.9119
4ZS6 H G 8;4ZS6 H G 9;26.9235
4ZS6 H G 8;4ZS6 H L 18;15.4291
4ZS6 H G 8;4ZS6 H R 19;10.7187
4ZS6 H G 8;4ZS6 H L 20;8.75532
4ZS6 H G 8;4ZS6 H S 21;0.937021
4ZS6 H G 8;4ZS6 H T 115;1.04845
4ZS6 H G 9;4ZS6 H G 10;25.1885
4ZS6 H G 9;4ZS6 H L 18;5.72158
4ZS6 H G 9;4ZS6 H L 20;7.17553
4ZS6 H G 9;4ZS6 H T 115;14.0139
4ZS6 H G 9;4ZS6 H L 116;5.53475
4ZS6 H G 9;4ZS6 H V 117;5.4651
4ZS6 H G 10;4ZS6 H L 11;28.6078
4ZS6 H G 10;4ZS6 H V 12;4.12055
4ZS6 H G 10;4ZS6 H L 18;8.97421
4ZS6 H G 10;4ZS6 H L 116;11.1076
4ZS6 H G 10;4ZS6 H V 117;8.43136
4ZS6 H G 10;4ZS6 H T 118;10.2496
4ZS6 H G 10;4ZS6 H P 155;0.899722
4ZS6 H G 10;4ZS6 H P 210;5.94255
4ZS6 H L 11;4ZS6 H V 12;34.9318
4ZS6 H L 11;4ZS6 H K 13;4.24936
4ZS6 H L 11;4ZS6 H L 18;1.11162
4ZS6 H L 11;4ZS6 H T 118;18.8843
4ZS6 H L 11;4ZS6 H V 119;0.554869
4ZS6 H L 11;4ZS6 H S 120;13.1547
4ZS6 H L 11;4ZS6 H S 121;4.85472
4ZS6 H L 11;4ZS6 H A 122;2.77723
4ZS6 H L 11;4ZS6 H S 123;9.70383
4ZS6 H L 11;4ZS6 H T 124;16.9775
4ZS6 H L 11;4ZS6 H F 154;11.8716
4ZS6 H L 11;4ZS6 H P 155;21.2664
4ZS6 H L 11;4ZS6 H P 210;3.1284
4ZS6 H V 12;4ZS6 H K 13;33.4635
4ZS6 H V 12;4ZS6 H P 14;0.277805
4ZS6 H V 12;4ZS6 H G 16;9.1727
4ZS6 H V 12;4ZS6 H S 17;14.7041
4ZS6 H V 12;4ZS6 H L 18;12.8008
4ZS6 H V 12;4ZS6 H L 86;13.5169
4ZS6 H V 12;4ZS6 H V 117;5.73858
4ZS6 H V 12;4ZS6 H T 118;9.0337
4ZS6 H V 12;4ZS6 H V 119;14.6734
4ZS6 H V 12;4ZS6 H S 120;4.83929
4ZS6 H K 13;4ZS6 H P 14;32.1072
4ZS6 H K 13;4ZS6 H G 15;0.353844
4ZS6 H K 13;4ZS6 H G 16;12.1469
4ZS6 H K 13;4ZS6 H L 86;2.32126
4ZS6 H K 13;4ZS6 H V 119;2.6082
4ZS6 H K 13;4ZS6 H S 120;7.13096
4ZS6 H K 13;4ZS6 H S 121;23.8635
4ZS6 H K 13;4ZS6 H A 122;8.81911
4ZS6 H K 13;4ZS6 H S 123;1.75915
4ZS6 H P 14;4ZS6 H G 15;24.176
4ZS6 H P 14;4ZS6 H G 16;3.8693
4ZS6 H P 14;4ZS6 H L 86;7.35221
4ZS6 H P 14;4ZS6 H R 87;2.17846
4ZS6 H P 14;4ZS6 H V 88;13.0628
4ZS6 H P 14;4ZS6 H V 119;13.5612
4ZS6 H P 14;4ZS6 H S 120;13.7752
4ZS6 H P 14;4ZS6 H S 121;13.2434
4ZS6 H G 15;4ZS6 H G 16;26.2187
4ZS6 H G 15;4ZS6 H S 17;1.39083
4ZS6 H G 15;4ZS6 H S 85;20.2174
4ZS6 H G 15;4ZS6 H L 86;13.147
4ZS6 H G 16;4ZS6 H S 17;25.5728
4ZS6 H G 16;4ZS6 H M 83;0.872484
4ZS6 H G 16;4ZS6 H N 84;3.58001
4ZS6 H G 16;4ZS6 H S 85;4.15221
4ZS6 H G 16;4ZS6 H L 86;12.7614
4ZS6 H S 17;4ZS6 H L 18;29.654
4ZS6 H S 17;4ZS6 H Q 82;9.21165
4ZS6 H S 17;4ZS6 H M 83;5.44267
4ZS6 H S 17;4ZS6 H N 84;15.22
4ZS6 H S 17;4ZS6 H S 85;0.22609
4ZS6 H S 17;4ZS6 H L 86;5.35344
4ZS6 H L 18;4ZS6 H R 19;29.0213
4ZS6 H L 18;4ZS6 H L 20;10.0815
4ZS6 H L 18;4ZS6 H L 81;2.27903
4ZS6 H L 18;4ZS6 H Q 82;11.5043
4ZS6 H L 18;4ZS6 H M 83;27.7603
4ZS6 H L 18;4ZS6 H N 84;0.118522
4ZS6 H L 18;4ZS6 H L 86;5.36127
4ZS6 H L 18;4ZS6 H V 117;8.97751
4ZS6 H R 19;4ZS6 H L 20;22.5626
4ZS6 H R 19;4ZS6 H S 21;12.8644
4ZS6 H R 19;4ZS6 H S 71;7.35605
4ZS6 H R 19;4ZS6 H Y 80;43.5813
4ZS6 H R 19;4ZS6 H L 81;5.68896
4ZS6 H R 19;4ZS6 H Q 82;29.6428
4ZS6 H L 20;4ZS6 H S 21;19.9186
4ZS6 H L 20;4ZS6 H W 36;16.8214
4ZS6 H L 20;4ZS6 H L 79;0.538708
4ZS6 H L 20;4ZS6 H Y 80;7.2075
4ZS6 H L 20;4ZS6 H L 81;25.1557
4ZS6 H L 20;4ZS6 H M 83;15.3532
4ZS6 H L 20;4ZS6 H Y 94;12.2061
4ZS6 H L 20;4ZS6 H T 115;12.1448
4ZS6 H L 20;4ZS6 H V 117;9.65576
4ZS6 H S 21;4ZS6 H C 22;21.3713
4ZS6 H S 21;4ZS6 H A 23;1.43571
4ZS6 H S 21;4ZS6 H W 36;6.23435
4ZS6 H S 21;4ZS6 H S 78;3.72448
4ZS6 H S 21;4ZS6 H L 79;5.46791
4ZS6 H S 21;4ZS6 H Y 80;18.1716
4ZS6 H C 22;4ZS6 H A 23;23.0186
4ZS6 H C 22;4ZS6 H A 24;6.46175
4ZS6 H C 22;4ZS6 H L 29;1.7501
4ZS6 H C 22;4ZS6 H M 34;0.444523
4ZS6 H C 22;4ZS6 H W 36;6.4336
4ZS6 H C 22;4ZS6 H N 77;1.09105
4ZS6 H C 22;4ZS6 H S 78;9.79752
4ZS6 H C 22;4ZS6 H L 79;23.619
4ZS6 H C 22;4ZS6 H C 96;20.4667
4ZS6 H A 23;4ZS6 H A 24;24.6218
4ZS6 H A 23;4ZS6 H S 25;2.02207
4ZS6 H A 23;4ZS6 H K 76;2.78495
4ZS6 H A 23;4ZS6 H N 77;1.99952
4ZS6 H A 23;4ZS6 H S 78;10.4494
4ZS6 H A 24;4ZS6 H S 25;27.9876
4ZS6 H A 24;4ZS6 H F 27;9.79488
4ZS6 H A 24;4ZS6 H L 29;12.7421
4ZS6 H A 24;4ZS6 H K 76;0.216982
4ZS6 H A 24;4ZS6 H N 77;32.0225
4ZS6 H S 25;4ZS6 H G 26;24.8936
4ZS6 H S 25;4ZS6 H F 27;16.3444
4ZS6 H S 25;4ZS6 H N 77;2.971
4ZS6 H G 26;4ZS6 H F 27;30.9169
4ZS6 H F 27;4ZS6 H S 28;32.8202
4ZS6 H F 27;4ZS6 H L 29;14.54
4ZS6 H F 27;4ZS6 H Y 32;20.8331
4ZS6 H F 27;4ZS6 H M 34;7.35057
4ZS6 H F 27;4ZS6 H N 77;11.1861
4ZS6 H F 27;4ZS6 H R 98;29.7443
4ZS6 H F 27;4ZS6 H H 110;0.0917534
4ZS6 H S 28;4ZS6 H L 29;27.0344
4ZS6 H S 28;4ZS6 H S 30;2.88306
4ZS6 H S 28;4ZS6 H D 31;22.6402
4ZS6 H S 28;4ZS6 H Y 32;9.10573
4ZS6 H S 28;4ZS6 H H 74;3.79814
4ZS6 H S 28;4ZS6 H N 77;13.102
4ZS6 H L 29;4ZS6 H S 30;27.1218
4ZS6 H L 29;4ZS6 H D 31;5.75854
4ZS6 H L 29;4ZS6 H Y 32;3.47192
4ZS6 H L 29;4ZS6 H M 34;23.9944
4ZS6 H L 29;4ZS6 H R 72;15.9277
4ZS6 H L 29;4ZS6 H D 73;2.49921
4ZS6 H L 29;4ZS6 H H 74;0.68307
4ZS6 H L 29;4ZS6 H N 77;23.0308
4ZS6 H L 29;4ZS6 H S 78;11.6653
4ZS6 H L 29;4ZS6 H L 79;13.6813
4ZS6 H S 30;4ZS6 H D 31;27.1527
4ZS6 H S 30;4ZS6 H Y 32;8.0322
4ZS6 H S 30;4ZS6 H M 34;1.95045
4ZS6 H S 30;4ZS6 H S 53;4.56537
4ZS6 H S 30;4ZS6 H S 54;19.6535
4ZS6 H S 30;4ZS6 H S 55;0.0212645
4ZS6 H S 30;4ZS6 H R 72;24.6717
4ZS6 H S 30;4ZS6 H H 74;22.5713
4ZS6 H D 31;4ZS6 H Y 32;31.7996
4ZS6 H D 31;4ZS6 H S 53;9.70522
4ZS6 H D 31;4ZS6 H S 54;6.73114
4ZS6 H D 31;4ZS6 H D 102;22.4218
4ZS6 H Y 32;4ZS6 H Y 33;21.4787
4ZS6 H Y 32;4ZS6 H M 34;13.4158
4ZS6 H Y 32;4ZS6 H I 51;0.559028
4ZS6 H Y 32;4ZS6 H S 52;2.53529
4ZS6 H Y 32;4ZS6 H S 53;10.2329
4ZS6 H Y 32;4ZS6 H R 72;2.38173
4ZS6 H Y 32;4ZS6 H R 98;32.3934
4ZS6 H Y 32;4ZS6 H D 99;10.3023
4ZS6 H Y 32;4ZS6 H R 100;0.315569
4ZS6 H Y 32;4ZS6 H D 101;16.5951
4ZS6 H Y 32;4ZS6 H D 102;25.0543
4ZS6 H Y 33;4ZS6 H M 34;20.0243
4ZS6 H Y 33;4ZS6 H N 35;12.7499
4ZS6 H Y 33;4ZS6 H Y 50;17.6337
4ZS6 H Y 33;4ZS6 H I 51;5.132
4ZS6 H Y 33;4ZS6 H S 52;18.2504
4ZS6 H Y 33;4ZS6 H S 53;22.3497
4ZS6 H Y 33;4ZS6 H R 98;2.58953
4ZS6 H Y 33;4ZS6 H D 99;33.7481
4ZS6 H Y 33;4ZS6 H D 101;0.179407
4ZS6 H Y 33;4ZS6 H D 102;1.565
4ZS6 H Y 33;4ZS6 H F 103;0.390008
4ZS6 H Y 33;4ZS6 H W 104;23.2834
4ZS6 H M 34;4ZS6 H N 35;23.0897
4ZS6 H M 34;4ZS6 H Y 50;6.35052
4ZS6 H M 34;4ZS6 H I 51;22.6265
4ZS6 H M 34;4ZS6 H I 70;3.66152
4ZS6 H M 34;4ZS6 H R 72;3.3012
4ZS6 H M 34;4ZS6 H L 79;20.8775
4ZS6 H M 34;4ZS6 H C 96;8.19228
4ZS6 H M 34;4ZS6 H V 97;9.9061
4ZS6 H M 34;4ZS6 H R 98;14.3794
4ZS6 H N 35;4ZS6 H W 36;22.8092
4ZS6 H N 35;4ZS6 H I 37;5.65951
4ZS6 H N 35;4ZS6 H W 47;12.5788
4ZS6 H N 35;4ZS6 H A 49;5.49868
4ZS6 H N 35;4ZS6 H Y 50;13.8029
4ZS6 H N 35;4ZS6 H I 70;3.70386
4ZS6 H N 35;4ZS6 H L 79;7.47348
4ZS6 H N 35;4ZS6 H Y 95;0.243851
4ZS6 H N 35;4ZS6 H C 96;3.32911
4ZS6 H N 35;4ZS6 H V 97;25.6723
4ZS6 H N 35;4ZS6 H R 98;0.961622
4ZS6 H N 35;4ZS6 H D 99;4.80352
4ZS6 H N 35;4ZS6 H Y 108;22.0562
4ZS6 H N 35;4ZS6 L P 95;1.6082
4ZS6 H W 36;4ZS6 H I 37;23.4084
4ZS6 H W 36;4ZS6 H W 47;4.49009
4ZS6 H W 36;4ZS6 H V 48;20.3606
4ZS6 H W 36;4ZS6 H A 49;13.3675
4ZS6 H W 36;4ZS6 H I 70;12.9599
4ZS6 H W 36;4ZS6 H L 79;20.1128
4ZS6 H W 36;4ZS6 H Y 80;7.2146
4ZS6 H W 36;4ZS6 H L 81;28.1869
4ZS6 H W 36;4ZS6 H Y 94;16.6798
4ZS6 H W 36;4ZS6 H Y 95;12.1153
4ZS6 H W 36;4ZS6 H C 96;13.6799
4ZS6 H W 36;4ZS6 H V 97;0.730475
4ZS6 H W 36;4ZS6 H T 115;3.65271
4ZS6 H I 37;4ZS6 H R 38;22.0668
4ZS6 H I 37;4ZS6 H L 45;10.6494
4ZS6 H I 37;4ZS6 H E 46;9.00421
4ZS6 H I 37;4ZS6 H W 47;17.4319
4ZS6 H I 37;4ZS6 H V 48;3.51496
4ZS6 H I 37;4ZS6 H V 93;0.567636
4ZS6 H I 37;4ZS6 H Y 94;5.35198
4ZS6 H I 37;4ZS6 H Y 95;24.1963
4ZS6 H I 37;4ZS6 H V 97;13.6905
4ZS6 H I 37;4ZS6 H Y 108;13.5259
4ZS6 H I 37;4ZS6 H W 111;14.239
4ZS6 H I 37;4ZS6 L P 95;0.448946
4ZS6 H I 37;4ZS6 L F 97;15.0434
4ZS6 H R 38;4ZS6 H Q 39;21.6267
4ZS6 H R 38;4ZS6 H A 40;1.45068
4ZS6 H R 38;4ZS6 H G 44;0.986518
4ZS6 H R 38;4ZS6 H L 45;7.36036
4ZS6 H R 38;4ZS6 H E 46;46.1647
4ZS6 H R 38;4ZS6 H V 48;18.7344
4ZS6 H R 38;4ZS6 H S 63;11.8542
4ZS6 H R 38;4ZS6 H V 64;14.4434
4ZS6 H R 38;4ZS6 H R 67;0.167118
4ZS6 H R 38;4ZS6 H F 68;5.40706
4ZS6 H R 38;4ZS6 H E 89;10.583
4ZS6 H R 38;4ZS6 H D 90;19.1995
4ZS6 H R 38;4ZS6 H A 92;13.1136
4ZS6 H R 38;4ZS6 H V 93;5.58387
4ZS6 H R 38;4ZS6 H Y 94;26.7115
4ZS6 H R 38;4ZS6 H Y 95;2.18271
4ZS6 H Q 39;4ZS6 H A 40;30.4248
4ZS6 H Q 39;4ZS6 H P 41;2.24134
4ZS6 H Q 39;4ZS6 H G 42;0.255657
4ZS6 H Q 39;4ZS6 H K 43;13.0462
4ZS6 H Q 39;4ZS6 H G 44;12.8956
4ZS6 H Q 39;4ZS6 H L 45;18.8199
4ZS6 H Q 39;4ZS6 H E 46;0.0136285
4ZS6 H Q 39;4ZS6 H A 92;9.44299
4ZS6 H Q 39;4ZS6 H V 93;23.9655
4ZS6 H Q 39;4ZS6 H Y 95;15.4081
4ZS6 H Q 39;4ZS6 L Q 38;19.8216
4ZS6 H Q 39;4ZS6 L Y 87;8.39912
4ZS6 H A 40;4ZS6 H P 41;28.8741
4ZS6 H A 40;4ZS6 H G 42;3.83151
4ZS6 H A 40;4ZS6 H K 43;28.5076
4ZS6 H A 40;4ZS6 H G 44;4.34728
4ZS6 H A 40;4ZS6 H E 89;2.66932
4ZS6 H A 40;4ZS6 H T 91;9.84796
4ZS6 H A 40;4ZS6 H A 92;10.034
4ZS6 H P 41;4ZS6 H G 42;25.9844
4ZS6 H P 41;4ZS6 H K 43;12.7973
4ZS6 H P 41;4ZS6 H T 91;20.1984
4ZS6 H P 41;4ZS6 H A 92;4.91552
4ZS6 H P 41;4ZS6 H V 93;2.2473
4ZS6 H P 41;4ZS6 H L 116;10.6191
4ZS6 H G 42;4ZS6 H K 43;31.8835
4ZS6 H K 43;4ZS6 H G 44;31.6008
4ZS6 H K 43;4ZS6 L Y 87;5.6912
4ZS6 H G 44;4ZS6 H L 45;24.957
4ZS6 H G 44;4ZS6 H E 46;3.74882
4ZS6 H G 44;4ZS6 L Y 87;11.5906
4ZS6 H G 44;4ZS6 L G 98;1.03099
4ZS6 H G 44;4ZS6 L Q 99;11.4582
4ZS6 H L 45;4ZS6 H E 46;24.2158
4ZS6 H L 45;4ZS6 H Y 95;7.56426
4ZS6 H L 45;4ZS6 H W 111;11.6214
4ZS6 H L 45;4ZS6 L Y 36;3.47421
4ZS6 H L 45;4ZS6 L Q 38;2.46519
4ZS6 H L 45;4ZS6 L P 44;14.5849
4ZS6 H L 45;4ZS6 L Y 87;25.7901
4ZS6 H L 45;4ZS6 L F 97;38.3963
4ZS6 H L 45;4ZS6 L G 98;2.13831
4ZS6 H E 46;4ZS6 H W 47;31.1527
4ZS6 H E 46;4ZS6 H V 48;6.75019
4ZS6 H E 46;4ZS6 H S 63;17.267
4ZS6 H E 46;4ZS6 H V 64;0.117108
4ZS6 H E 46;4ZS6 L F 97;5.22004
4ZS6 H W 47;4ZS6 H V 48;26.6083
4ZS6 H W 47;4ZS6 H A 49;15.1401
4ZS6 H W 47;4ZS6 H Y 50;16.1363
4ZS6 H W 47;4ZS6 H N 59;6.65883
4ZS6 H W 47;4ZS6 H Y 60;11.4248
4ZS6 H W 47;4ZS6 H G 61;17.4951
4ZS6 H W 47;4ZS6 H Y 108;4.19811
4ZS6 H W 47;4ZS6 L L 94;20.0452
4ZS6 H W 47;4ZS6 L P 95;41.7857
4ZS6 H W 47;4ZS6 L T 96;0.814601
4ZS6 H W 47;4ZS6 L F 97;11.0897
4ZS6 H V 48;4ZS6 H A 49;24.7646
4ZS6 H V 48;4ZS6 H Y 60;6.72392
4ZS6 H V 48;4ZS6 H G 61;7.92079
4ZS6 H V 48;4ZS6 H V 64;19.1498
4ZS6 H V 48;4ZS6 H F 68;9.16547
4ZS6 H V 48;4ZS6 H L 81;10.369
4ZS6 H V 48;4ZS6 H Y 94;7.95694
4ZS6 H A 49;4ZS6 H Y 50;15.0647
4ZS6 H A 49;4ZS6 H N 59;5.73525
4ZS6 H A 49;4ZS6 H Y 60;13.2573
4ZS6 H A 49;4ZS6 H F 68;0.310609
4ZS6 H A 49;4ZS6 H I 70;15.1146
4ZS6 H A 49;4ZS6 H L 81;5.86383
4ZS6 H Y 50;4ZS6 H I 51;17.7552
4ZS6 H Y 50;4ZS6 H S 52;6.50043
4ZS6 H Y 50;4ZS6 H Y 57;6.13296
4ZS6 H Y 50;4ZS6 H T 58;11.1123
4ZS6 H Y 50;4ZS6 H N 59;30.6031
4ZS6 H Y 50;4ZS6 H I 70;10.2714
4ZS6 H Y 50;4ZS6 L L 94;12.3052
4ZS6 H Y 50;4ZS6 L P 95;1.46842
4ZS6 H I 51;4ZS6 H S 52;22.1058
4ZS6 H I 51;4ZS6 H G 56;16.341
4ZS6 H I 51;4ZS6 H Y 57;3.07346
4ZS6 H I 51;4ZS6 H T 58;12.3704
4ZS6 H I 51;4ZS6 H I 70;21.2856
4ZS6 H I 51;4ZS6 H S 71;7.84314
4ZS6 H I 51;4ZS6 H R 72;31.3326
4ZS6 H I 51;4ZS6 H L 79;8.26315
4ZS6 H S 52;4ZS6 H S 53;25.8495
4ZS6 H S 52;4ZS6 H S 54;4.23361
4ZS6 H S 52;4ZS6 H S 55;2.15793
4ZS6 H S 52;4ZS6 H G 56;9.35979
4ZS6 H S 52;4ZS6 H Y 57;23.3452
4ZS6 H S 52;4ZS6 H R 72;7.58248
4ZS6 H S 53;4ZS6 H S 54;34.3122
4ZS6 H S 53;4ZS6 H S 55;2.10345
4ZS6 H S 53;4ZS6 H G 56;5.02722
4ZS6 H S 53;4ZS6 H R 72;5.54574
4ZS6 H S 53;4ZS6 H D 102;8.69389
4ZS6 H S 54;4ZS6 H S 55;31.4154
4ZS6 H S 54;4ZS6 H G 56;0.135406
4ZS6 H S 54;4ZS6 H R 72;1.07857
4ZS6 H S 55;4ZS6 H G 56;23.8999
4ZS6 H S 55;4ZS6 H Y 57;31.3235
4ZS6 H S 55;4ZS6 H R 72;7.78858
4ZS6 H G 56;4ZS6 H Y 57;21.3411
4ZS6 H G 56;4ZS6 H T 58;8.34416
4ZS6 H G 56;4ZS6 H R 72;12.5401
4ZS6 H Y 57;4ZS6 H T 58;24.4877
4ZS6 H T 58;4ZS6 H N 59;26.3092
4ZS6 H T 58;4ZS6 H Y 60;20.1139
4ZS6 H T 58;4ZS6 H I 70;17.1767
4ZS6 H N 59;4ZS6 H Y 60;34.0482
4ZS6 H N 59;4ZS6 H K 65;14.9632
4ZS6 H N 59;4ZS6 H I 70;0.498365
4ZS6 H N 59;4ZS6 L L 94;20.8058
4ZS6 H Y 60;4ZS6 H G 61;23.0291
4ZS6 H Y 60;4ZS6 H D 62;3.14931
4ZS6 H Y 60;4ZS6 H V 64;8.45914
4ZS6 H Y 60;4ZS6 H K 65;33.2742
4ZS6 H Y 60;4ZS6 H G 66;3.3056
4ZS6 H Y 60;4ZS6 H F 68;18.6241
4ZS6 H Y 60;4ZS6 H T 69;14.569
4ZS6 H Y 60;4ZS6 H I 70;18.5509
4ZS6 H Y 60;4ZS6 H L 81;1.9319
4ZS6 H Y 60;4ZS6 L L 94;10.7413
4ZS6 H G 61;4ZS6 H D 62;24.5999
4ZS6 H G 61;4ZS6 H S 63;6.30835
4ZS6 H G 61;4ZS6 H V 64;14.4212
4ZS6 H G 61;4ZS6 H K 65;10.19
4ZS6 H G 61;4ZS6 L L 94;0.00188672
4ZS6 H D 62;4ZS6 H S 63;30.0338
4ZS6 H D 62;4ZS6 H V 64;1.91452
4ZS6 H D 62;4ZS6 H K 65;20.8988
4ZS6 H D 62;4ZS6 L A 1;5.85289
4ZS6 H D 62;4ZS6 L L 94;2.49325
4ZS6 H S 63;4ZS6 H V 64;26.4136
4ZS6 H S 63;4ZS6 H K 65;0.969787
4ZS6 H S 63;4ZS6 H R 67;8.67214
4ZS6 H S 63;4ZS6 H R 87;12.8836
4ZS6 H S 63;4ZS6 H E 89;3.94969
4ZS6 H V 64;4ZS6 H K 65;21.8129
4ZS6 H V 64;4ZS6 H G 66;1.46959
4ZS6 H V 64;4ZS6 H R 67;19.8665
4ZS6 H V 64;4ZS6 H F 68;32.3021
4ZS6 H V 64;4ZS6 H D 90;1.72437
4ZS6 H K 65;4ZS6 H G 66;29.0875
4ZS6 H K 65;4ZS6 H R 67;11.7124
4ZS6 H K 65;4ZS6 H F 68;0.0105006
4ZS6 H K 65;4ZS6 L L 94;0.157718
4ZS6 H G 66;4ZS6 H R 67;28.2112
4ZS6 H G 66;4ZS6 H F 68;8.97435
4ZS6 H G 66;4ZS6 H T 69;2.44546
4ZS6 H R 67;4ZS6 H F 68;36.0663
4ZS6 H R 67;4ZS6 H T 69;5.98901
4ZS6 H R 67;4ZS6 H Q 82;3.98672
4ZS6 H R 67;4ZS6 H M 83;0.147803
4ZS6 H R 67;4ZS6 H N 84;30.4771
4ZS6 H R 67;4ZS6 H S 85;20.9197
4ZS6 H R 67;4ZS6 H L 86;3.34887
4ZS6 H R 67;4ZS6 H R 87;33.1325
4ZS6 H R 67;4ZS6 H D 90;15.7351
4ZS6 H F 68;4ZS6 H T 69;25.0321
4ZS6 H F 68;4ZS6 H L 81;17.7723
4ZS6 H F 68;4ZS6 H Q 82;5.44004
4ZS6 H F 68;4ZS6 H M 83;21.0122
4ZS6 H F 68;4ZS6 H N 84;5.27556
4ZS6 H F 68;4ZS6 H L 86;9.57727
4ZS6 H F 68;4ZS6 H D 90;7.13175
4ZS6 H F 68;4ZS6 H Y 94;11.1124
4ZS6 H T 69;4ZS6 H I 70;21.7306
4ZS6 H T 69;4ZS6 H S 71;15.3675
4ZS6 H T 69;4ZS6 H Y 80;1.10391
4ZS6 H T 69;4ZS6 H L 81;8.56164
4ZS6 H T 69;4ZS6 H Q 82;30.2737
4ZS6 H I 70;4ZS6 H S 71;25.3158
4ZS6 H I 70;4ZS6 H L 79;9.73009
4ZS6 H I 70;4ZS6 H Y 80;8.09797
4ZS6 H I 70;4ZS6 H L 81;9.69882
4ZS6 H S 71;4ZS6 H R 72;27.5152
4ZS6 H S 71;4ZS6 H L 79;7.22859
4ZS6 H S 71;4ZS6 H Y 80;28.7808
4ZS6 H S 71;4ZS6 H Q 82;4.12911
4ZS6 H R 72;4ZS6 H D 73;33.0527
4ZS6 H R 72;4ZS6 H H 74;22.4584
4ZS6 H R 72;4ZS6 H S 78;5.86045
4ZS6 H R 72;4ZS6 H L 79;8.0039
4ZS6 H R 72;4ZS6 H Y 80;9.42878
4ZS6 H D 73;4ZS6 H H 74;29.5796
4ZS6 H D 73;4ZS6 H A 75;17.9688
4ZS6 H D 73;4ZS6 H K 76;21.07
4ZS6 H D 73;4ZS6 H N 77;6.57421
4ZS6 H D 73;4ZS6 H S 78;16.4125
4ZS6 H D 73;4ZS6 H Y 80;14.7064
4ZS6 H H 74;4ZS6 H A 75;28.8745
4ZS6 H H 74;4ZS6 H N 77;13.5738
4ZS6 H A 75;4ZS6 H K 76;34.6054
4ZS6 H A 75;4ZS6 H N 77;5.26124
4ZS6 H A 75;4ZS6 H S 78;0.251166
4ZS6 H K 76;4ZS6 H N 77;24.9823
4ZS6 H K 76;4ZS6 H S 78;21.3411
4ZS6 H K 76;4ZS6 H Y 80;14.2646
4ZS6 H N 77;4ZS6 H S 78;16.574
4ZS6 H S 78;4ZS6 H L 79;17.7428
4ZS6 H S 78;4ZS6 H Y 80;20.3445
4ZS6 H L 79;4ZS6 H Y 80;27.4091
4ZS6 H L 79;4ZS6 H C 96;10.9604
4ZS6 H L 79;4ZS6 H V 97;0.00285383
4ZS6 H Y 80;4ZS6 H L 81;19.8658
4ZS6 H Y 80;4ZS6 H Q 82;2.31877
4ZS6 H L 81;4ZS6 H Q 82;21.2267
4ZS6 H L 81;4ZS6 H M 83;15.447
4ZS6 H L 81;4ZS6 H Y 94;9.5312
4ZS6 H Q 82;4ZS6 H M 83;17.7617
4ZS6 H Q 82;4ZS6 H N 84;24.3942
4ZS6 H M 83;4ZS6 H N 84;21.2282
4ZS6 H M 83;4ZS6 H L 86;26.5548
4ZS6 H M 83;4ZS6 H Y 94;12.3232
4ZS6 H M 83;4ZS6 H V 117;12.748
4ZS6 H N 84;4ZS6 H S 85;27.3822
4ZS6 H N 84;4ZS6 H L 86;6.44293
4ZS6 H S 85;4ZS6 H L 86;18.4186
4ZS6 H S 85;4ZS6 H R 87;11.9573
4ZS6 H L 86;4ZS6 H R 87;21.7143
4ZS6 H L 86;4ZS6 H D 90;13.6945
4ZS6 H L 86;4ZS6 H Y 94;1.30494
4ZS6 H L 86;4ZS6 H V 117;4.97522
4ZS6 H L 86;4ZS6 H V 119;17.1067
4ZS6 H R 87;4ZS6 H V 88;21.6676
4ZS6 H R 87;4ZS6 H E 89;35.8585
4ZS6 H R 87;4ZS6 H D 90;24.4246
4ZS6 H R 87;4ZS6 H T 91;0.928141
4ZS6 H R 87;4ZS6 H V 119;11.5356
4ZS6 H V 88;4ZS6 H E 89;29.1932
4ZS6 H V 88;4ZS6 H D 90;1.87231
4ZS6 H V 88;4ZS6 H T 91;16.3528
4ZS6 H V 88;4ZS6 H V 119;20.3823
4ZS6 H V 88;4ZS6 H S 120;8.61553
4ZS6 H E 89;4ZS6 H D 90;22.4062
4ZS6 H E 89;4ZS6 H T 91;9.46182
4ZS6 H E 89;4ZS6 H A 92;0.198414
4ZS6 H D 90;4ZS6 H T 91;18.1577
4ZS6 H D 90;4ZS6 H A 92;6.08256
4ZS6 H D 90;4ZS6 H Y 94;15.1039
4ZS6 H D 90;4ZS6 H V 117;4.64608
4ZS6 H D 90;4ZS6 H V 119;6.14272
4ZS6 H T 91;4ZS6 H A 92;20.347
4ZS6 H T 91;4ZS6 H L 116;5.96422
4ZS6 H T 91;4ZS6 H V 117;9.04397
4ZS6 H T 91;4ZS6 H T 118;16.0875
4ZS6 H T 91;4ZS6 H V 119;19.5707
4ZS6 H A 92;4ZS6 H V 93;18.5943
4ZS6 H A 92;4ZS6 H Y 94;14.8265
4ZS6 H A 92;4ZS6 H T 115;0.865146
4ZS6 H A 92;4ZS6 H L 116;10.2394
4ZS6 H A 92;4ZS6 H V 117;13.0357
4ZS6 H V 93;4ZS6 H Y 94;19.9401
4ZS6 H V 93;4ZS6 H Y 95;25.504
4ZS6 H V 93;4ZS6 H L 113;2.21427
4ZS6 H V 93;4ZS6 H G 114;7.63668
4ZS6 H V 93;4ZS6 H T 115;10.9872
4ZS6 H V 93;4ZS6 H L 116;23.5165
4ZS6 H Y 94;4ZS6 H Y 95;17.3645
4ZS6 H Y 94;4ZS6 H C 96;0.158836
4ZS6 H Y 94;4ZS6 H G 114;4.35096
4ZS6 H Y 94;4ZS6 H T 115;22.2137
4ZS6 H Y 94;4ZS6 H V 117;14.8105
4ZS6 H Y 95;4ZS6 H C 96;15.9485
4ZS6 H Y 95;4ZS6 H V 97;10.9394
4ZS6 H Y 95;4ZS6 H W 111;17.6179
4ZS6 H Y 95;4ZS6 H G 112;8.70334
4ZS6 H Y 95;4ZS6 H L 113;11.1202
4ZS6 H Y 95;4ZS6 H G 114;9.18857
4ZS6 H Y 95;4ZS6 L Q 38;7.37016
4ZS6 H Y 95;4ZS6 L K 42;7.67673
4ZS6 H Y 95;4ZS6 L A 43;13.5171
4ZS6 H Y 95;4ZS6 L P 44;6.15781
4ZS6 H C 96;4ZS6 H V 97;21.0611
4ZS6 H C 96;4ZS6 H H 110;0.00223159
4ZS6 H C 96;4ZS6 H W 111;2.31762
4ZS6 H C 96;4ZS6 H G 112;7.15519
4ZS6 H V 97;4ZS6 H R 98;19.9231
4ZS6 H V 97;4ZS6 H Y 108;20.2313
4ZS6 H V 97;4ZS6 H H 110;6.98706
4ZS6 H V 97;4ZS6 H W 111;20.943
4ZS6 H V 97;4ZS6 H G 112;0.0777324
4ZS6 H R 98;4ZS6 H D 99;31.1919
4ZS6 H R 98;4ZS6 H R 100;13.175
4ZS6 H R 98;4ZS6 H D 101;0.253929
4ZS6 H R 98;4ZS6 H Y 107;0.245187
4ZS6 H R 98;4ZS6 H Y 108;13.8112
4ZS6 H R 98;4ZS6 H K 109;1.33029
4ZS6 H R 98;4ZS6 H H 110;41.3906
4ZS6 H D 99;4ZS6 H R 100;17.2135
4ZS6 H D 99;4ZS6 H D 101;11.9385
4ZS6 H D 99;4ZS6 H D 102;0.519283
4ZS6 H D 99;4ZS6 H F 103;4.27464
4ZS6 H D 99;4ZS6 H W 104;5.39342
4ZS6 H D 99;4ZS6 H S 105;13.0914
4ZS6 H D 99;4ZS6 H G 106;11.1031
4ZS6 H D 99;4ZS6 H Y 107;4.41807
4ZS6 H D 99;4ZS6 H Y 108;8.81022
4ZS6 H D 99;4ZS6 H H 110;0.18139
4ZS6 H R 100;4ZS6 H D 101;37.9802
4ZS6 H R 100;4ZS6 H S 105;10.2616
4ZS6 H R 100;4ZS6 H Y 107;29.3555
4ZS6 H R 100;4ZS6 H Y 108;3.53642
4ZS6 H R 100;4ZS6 H K 109;33.7385
4ZS6 H R 100;4ZS6 H H 110;8.97173
4ZS6 H R 100;4ZS6 L L 46;4.83676
4ZS6 H R 100;4ZS6 L Y 49;7.38622
4ZS6 H R 100;4ZS6 L E 55;22.8741
4ZS6 H R 100;4ZS6 L T 56;1.8821
4ZS6 H D 101;4ZS6 H D 102;22.4362
4ZS6 H D 101;4ZS6 H F 103;38.8512
4ZS6 H D 101;4ZS6 H S 105;12.8192
4ZS6 H D 101;4ZS6 H Y 107;9.28908
4ZS6 H D 102;4ZS6 H F 103;38.8589
4ZS6 H D 102;4ZS6 H W 104;0.412492
4ZS6 H F 103;4ZS6 H W 104;29.6778
4ZS6 H F 103;4ZS6 H S 105;9.59722
4ZS6 H F 103;4ZS6 H Y 107;0.602571
4ZS6 H W 104;4ZS6 H S 105;34.522
4ZS6 H W 104;4ZS6 H G 106;9.26374
4ZS6 H W 104;4ZS6 L F 32;13.7412
4ZS6 H W 104;4ZS6 L Y 91;17.8389
4ZS6 H W 104;4ZS6 L D 92;0.000755066
4ZS6 H S 105;4ZS6 H G 106;17.7483
4ZS6 H S 105;4ZS6 H Y 107;23.9009
4ZS6 H S 105;4ZS6 L Y 91;8.82252
4ZS6 H G 106;4ZS6 H Y 107;18.4207
4ZS6 H G 106;4ZS6 H Y 108;13.2882
4ZS6 H G 106;4ZS6 L Q 89;7.13042
4ZS6 H G 106;4ZS6 L Y 91;16.1903
4ZS6 H G 106;4ZS6 L P 95;2.042
4ZS6 H Y 107;4ZS6 H Y 108;27.4145
4ZS6 H Y 107;4ZS6 L A 34;8.74491
4ZS6 H Y 107;4ZS6 L Y 36;6.58807
4ZS6 H Y 107;4ZS6 L L 46;13.7022
4ZS6 H Y 107;4ZS6 L Y 49;38.6868
4ZS6 H Y 107;4ZS6 L G 50;0.235004
4ZS6 H Y 107;4ZS6 L E 55;0.247408
4ZS6 H Y 107;4ZS6 L Q 89;4.2452
4ZS6 H Y 107;4ZS6 L Y 91;22.5782
4ZS6 H Y 108;4ZS6 H K 109;19.2262
4ZS6 H Y 108;4ZS6 H H 110;4.17219
4ZS6 H Y 108;4ZS6 H W 111;20.7464
4ZS6 H Y 108;4ZS6 L Y 36;18.3709
4ZS6 H Y 108;4ZS6 L L 46;11.2419
4ZS6 H Y 108;4ZS6 L Q 89;10.8501
4ZS6 H Y 108;4ZS6 L P 95;10.2133
4ZS6 H Y 108;4ZS6 L F 97;5.50403
4ZS6 H K 109;4ZS6 H H 110;45.0104
4ZS6 H K 109;4ZS6 H W 111;11.5774
4ZS6 H K 109;4ZS6 L P 44;1.70244
4ZS6 H K 109;4ZS6 L K 45;2.01362
4ZS6 H K 109;4ZS6 L L 46;21.724
4ZS6 H K 109;4ZS6 L E 55;18.9547
4ZS6 H K 109;4ZS6 L T 56;14.9996
4ZS6 H H 110;4ZS6 H W 111;24.6965
4ZS6 H W 111;4ZS6 H G 112;27.075
4ZS6 H W 111;4ZS6 L Y 36;16.1655
4ZS6 H W 111;4ZS6 L A 43;13.6205
4ZS6 H W 111;4ZS6 L P 44;35.598
4ZS6 H W 111;4ZS6 L K 45;0.0261156
4ZS6 H W 111;4ZS6 L L 46;1.59548
4ZS6 H W 111;4ZS6 L F 97;8.32269
4ZS6 H G 112;4ZS6 H L 113;20.974
4ZS6 H G 112;4ZS6 H G 114;2.22143
4ZS6 H G 112;4ZS6 L A 43;8.01087
4ZS6 H L 113;4ZS6 H G 114;26.181
4ZS6 H L 113;4ZS6 L K 42;0.00293928
4ZS6 H L 113;4ZS6 L A 43;7.91601
4ZS6 H G 114;4ZS6 H T 115;24.0532
4ZS6 H T 115;4ZS6 H L 116;27.5846
4ZS6 H T 115;4ZS6 H V 117;6.04533
4ZS6 H L 116;4ZS6 H V 117;24.5717
4ZS6 H L 116;4ZS6 H T 118;15.1188
4ZS6 H L 116;4ZS6 H E 156;20.5955
4ZS6 H L 116;4ZS6 H P 157;21.0213
4ZS6 H V 117;4ZS6 H T 118;19.4267
4ZS6 H V 117;4ZS6 H V 119;8.85313
4ZS6 H T 118;4ZS6 H V 119;24.0847
4ZS6 H T 118;4ZS6 H S 120;6.42219
4ZS6 H T 118;4ZS6 H F 154;12.4363
4ZS6 H T 118;4ZS6 H P 155;16.0119
4ZS6 H T 118;4ZS6 H E 156;6.36077
4ZS6 H V 119;4ZS6 H S 120;24.5829
4ZS6 H S 120;4ZS6 H S 121;28.1623
4ZS6 H S 120;4ZS6 H A 122;11.6703
4ZS6 H S 120;4ZS6 H F 154;10.4218
4ZS6 H S 121;4ZS6 H A 122;36.3762
4ZS6 H S 121;4ZS6 H S 123;1.75955
4ZS6 H A 122;4ZS6 H S 123;36.4432
4ZS6 H A 122;4ZS6 H F 154;19.0539
4ZS6 H S 123;4ZS6 H T 124;32.4954
4ZS6 H S 123;4ZS6 H K 125;4.57851
4ZS6 H S 123;4ZS6 H F 154;13.9044
4ZS6 H S 123;4ZS6 H L 183;2.79943
4ZS6 H T 124;4ZS6 H K 125;29.6154
4ZS6 H T 124;4ZS6 H F 154;7.8512
4ZS6 H T 124;4ZS6 H P 155;8.88053
4ZS6 H T 124;4ZS6 H H 208;2.19857
4ZS6 H T 124;4ZS6 H P 210;15.6372
4ZS6 H T 124;4ZS6 H S 211;13.4113
4ZS6 H K 125;4ZS6 H G 126;38.7579
4ZS6 H K 125;4ZS6 H P 127;0.571494
4ZS6 H K 125;4ZS6 H S 128;6.11618
4ZS6 H K 125;4ZS6 H D 152;18.3191
4ZS6 H K 125;4ZS6 H Y 153;10.6883
4ZS6 H K 125;4ZS6 H F 154;15.3913
4ZS6 H K 125;4ZS6 H L 183;22.6173
4ZS6 H K 125;4ZS6 H H 208;5.21794
4ZS6 H K 125;4ZS6 H S 211;3.72611
4ZS6 H G 126;4ZS6 H P 127;25.2855
4ZS6 H G 126;4ZS6 H S 128;2.0879
4ZS6 H G 126;4ZS6 H D 152;1.74802
4ZS6 H G 126;4ZS6 H Y 153;0.767184
4ZS6 H G 126;4ZS6 H H 208;1.47607
4ZS6 H G 126;4ZS6 H S 211;12.6991
4ZS6 H G 126;4ZS6 H T 213;10.2721
4ZS6 H P 127;4ZS6 H S 128;24.9446
4ZS6 H P 127;4ZS6 H V 129;11.885
4ZS6 H P 127;4ZS6 H V 150;12.903
4ZS6 H P 127;4ZS6 H K 151;5.56051
4ZS6 H P 127;4ZS6 H D 152;4.39717
4ZS6 H P 127;4ZS6 H Y 153;16.8035
4ZS6 H P 127;4ZS6 H V 158;5.47484
4ZS6 H P 127;4ZS6 H V 206;6.37604
4ZS6 H P 127;4ZS6 H H 208;14.8527
4ZS6 H P 127;4ZS6 H S 211;0.635502
4ZS6 H P 127;4ZS6 H T 213;21.0085
4ZS6 H P 127;4ZS6 H V 215;2.68165
4ZS6 H S 128;4ZS6 H V 129;24.4937
4ZS6 H S 128;4ZS6 H F 130;25.112
4ZS6 H S 128;4ZS6 H L 149;1.8541
4ZS6 H S 128;4ZS6 H V 150;3.86748
4ZS6 H S 128;4ZS6 H K 151;20.2388
4ZS6 H S 128;4ZS6 H D 152;5.88265
4ZS6 H V 129;4ZS6 H F 130;29.0426
4ZS6 H V 129;4ZS6 H C 148;7.63806
4ZS6 H V 129;4ZS6 H L 149;5.66
4ZS6 H V 129;4ZS6 H V 150;11.6177
4ZS6 H V 129;4ZS6 H C 204;2.69094
4ZS6 H V 129;4ZS6 H V 206;19.5339
4ZS6 H V 129;4ZS6 H T 213;1.51767
4ZS6 H V 129;4ZS6 H V 215;23.3641
4ZS6 H V 129;4ZS6 H K 217;24.2705
4ZS6 H F 130;4ZS6 H P 131;29.8814
4ZS6 H F 130;4ZS6 H L 132;1.68881
4ZS6 H F 130;4ZS6 H G 147;0.0016522
4ZS6 H F 130;4ZS6 H C 148;5.62923
4ZS6 H F 130;4ZS6 H L 149;33.4962
4ZS6 H F 130;4ZS6 H K 151;15.2439
4ZS6 H F 130;4ZS6 H C 204;0.000611307
4ZS6 H F 130;4ZS6 H K 217;4.02766
4ZS6 H F 130;4ZS6 L S 120;9.83051
4ZS6 H F 130;4ZS6 L E 122;17.0435
4ZS6 H F 130;4ZS6 L Q 123;33.8609
4ZS6 H F 130;4ZS6 L S 126;8.4676
4ZS6 H P 131;4ZS6 H L 132;25.4034
4ZS6 H P 131;4ZS6 H A 133;10.2164
4ZS6 H P 131;4ZS6 H G 147;2.85808
4ZS6 H P 131;4ZS6 H C 148;1.19315
4ZS6 H P 131;4ZS6 H L 149;0.0355117
4ZS6 H P 131;4ZS6 H C 204;0.0159441
4ZS6 H P 131;4ZS6 H K 217;19.1931
4ZS6 H P 131;4ZS6 H K 218;4.39802
4ZS6 H P 131;4ZS6 H V 219;17.5292
4ZS6 H P 131;4ZS6 H E 220;1.15557
4ZS6 H P 131;4ZS6 H K 222;9.85325
4ZS6 H P 131;4ZS6 L P 118;1.85146
4ZS6 H P 131;4ZS6 L S 120;21.0513
4ZS6 H P 131;4ZS6 L E 122;16.97
4ZS6 H L 132;4ZS6 H A 133;19.4645
4ZS6 H L 132;4ZS6 H P 134;0.187882
4ZS6 H L 132;4ZS6 H L 146;6.16873
4ZS6 H L 132;4ZS6 H G 147;24.054
4ZS6 H L 132;4ZS6 H C 148;8.02778
4ZS6 H L 132;4ZS6 H L 149;20.7712
4ZS6 H L 132;4ZS6 H S 187;7.81048
4ZS6 H L 132;4ZS6 H S 188;0.26524
4ZS6 H L 132;4ZS6 H V 189;7.28234
4ZS6 H L 132;4ZS6 H V 219;5.08212
4ZS6 H L 132;4ZS6 L F 117;35.2471
4ZS6 H L 132;4ZS6 L P 118;7.20175
4ZS6 H L 132;4ZS6 L P 119;1.38622
4ZS6 H L 132;4ZS6 L S 120;0.666963
4ZS6 H L 132;4ZS6 L S 130;3.76582
4ZS6 H L 132;4ZS6 L V 132;21.3191
4ZS6 H A 133;4ZS6 H P 134;34.4163
4ZS6 H A 133;4ZS6 H L 146;0.417405
4ZS6 H A 133;4ZS6 H V 219;8.10933
4ZS6 H A 133;4ZS6 H E 220;11.4998
4ZS6 H A 133;4ZS6 H P 221;2.76196
4ZS6 H A 133;4ZS6 H K 222;26.539
4ZS6 H A 133;4ZS6 L I 116;0.430121
4ZS6 H A 133;4ZS6 L F 117;12.9516
4ZS6 H A 133;4ZS6 L P 118;5.76321
4ZS6 H P 134;4ZS6 H S 135;38.4251
4ZS6 H P 134;4ZS6 H S 138;5.04775
4ZS6 H P 134;4ZS6 H A 144;5.30594
4ZS6 H P 134;4ZS6 H A 145;14.6052
4ZS6 H P 134;4ZS6 H L 146;16.4732
4ZS6 H P 134;4ZS6 H L 197;15.7964
4ZS6 H P 134;4ZS6 H V 219;3.08024
4ZS6 H P 134;4ZS6 H E 220;4.98209
4ZS6 H P 134;4ZS6 H P 221;21.4449
4ZS6 H P 134;4ZS6 H K 222;3.36067
4ZS6 H P 134;4ZS6 L I 116;2.35902
4ZS6 H P 134;4ZS6 L F 117;5.47401
4ZS6 H P 134;4ZS6 L P 118;4.45054
4ZS6 H S 135;4ZS6 H S 136;27.629
4ZS6 H S 135;4ZS6 H K 137;23.1549
4ZS6 H S 135;4ZS6 H S 138;25.4059
4ZS6 H S 135;4ZS6 H L 197;3.24559
4ZS6 H S 135;4ZS6 H P 221;3.78188
4ZS6 H S 135;4ZS6 L I 116;1.9265
4ZS6 H S 136;4ZS6 H K 137;31.4592
4ZS6 H S 136;4ZS6 H S 138;12.0049
4ZS6 H S 136;4ZS6 H P 221;3.58796
4ZS6 H K 137;4ZS6 H S 138;24.9962
4ZS6 H K 137;4ZS6 H T 139;4.39673
4ZS6 H K 137;4ZS6 L S 207;4.51235
4ZS6 H S 138;4ZS6 H T 139;24.7595
4ZS6 H S 138;4ZS6 H S 140;14.9652
4ZS6 H S 138;4ZS6 H T 143;0.622003
4ZS6 H S 138;4ZS6 H A 144;13.8075
4ZS6 H S 138;4ZS6 H S 194;8.13999
4ZS6 H S 138;4ZS6 H L 197;11.4875
4ZS6 H T 139;4ZS6 H S 140;23.1671
4ZS6 H T 139;4ZS6 H G 141;10.0696
4ZS6 H T 139;4ZS6 H G 142;18.3636
4ZS6 H T 139;4ZS6 H T 143;19.914
4ZS6 H T 139;4ZS6 H S 194;8.99493
4ZS6 H T 139;4ZS6 L F 115;0.967565
4ZS6 H S 140;4ZS6 H G 141;29.7312
4ZS6 H S 140;4ZS6 H S 194;3.76696
4ZS6 H G 141;4ZS6 H G 142;26.3618
4ZS6 H G 141;4ZS6 H S 194;5.12006
4ZS6 H G 141;4ZS6 H S 195;3.83257
4ZS6 H G 142;4ZS6 H T 143;26.0418
4ZS6 H G 142;4ZS6 H A 144;0.323764
4ZS6 H G 142;4ZS6 H V 192;0.0520279
4ZS6 H G 142;4ZS6 H P 193;4.40723
4ZS6 H G 142;4ZS6 H S 194;16.6337
4ZS6 H G 142;4ZS6 H S 195;0.126641
4ZS6 H T 143;4ZS6 H A 144;27.4956
4ZS6 H T 143;4ZS6 H A 145;0.752328
4ZS6 H T 143;4ZS6 H T 191;19.6945
4ZS6 H T 143;4ZS6 H V 192;10.66
4ZS6 H T 143;4ZS6 H P 193;3.59979
4ZS6 H T 143;4ZS6 H S 194;1.47013
4ZS6 H T 143;4ZS6 L S 113;0.128149
4ZS6 H T 143;4ZS6 L F 115;20.1784
4ZS6 H A 144;4ZS6 H A 145;25.7334
4ZS6 H A 144;4ZS6 H L 146;1.57577
4ZS6 H A 144;4ZS6 H V 190;0.623951
4ZS6 H A 144;4ZS6 H T 191;5.03172
4ZS6 H A 144;4ZS6 H V 192;20.746
4ZS6 H A 144;4ZS6 H S 194;10.5344
4ZS6 H A 144;4ZS6 H L 197;10.989
4ZS6 H A 144;4ZS6 L F 115;5.03283
4ZS6 H A 145;4ZS6 H L 146;23.2012
4ZS6 H A 145;4ZS6 H V 189;3.18381
4ZS6 H A 145;4ZS6 H V 190;8.58298
4ZS6 H A 145;4ZS6 H T 191;8.3976
4ZS6 H A 145;4ZS6 L F 115;23.5261
4ZS6 H A 145;4ZS6 L F 117;14.7028
4ZS6 H A 145;4ZS6 L L 134;8.48648
4ZS6 H L 146;4ZS6 H G 147;20.6327
4ZS6 H L 146;4ZS6 H W 162;7.63213
4ZS6 H L 146;4ZS6 H V 189;9.13583
4ZS6 H L 146;4ZS6 H V 190;27.4178
4ZS6 H L 146;4ZS6 H V 192;13.5402
4ZS6 H L 146;4ZS6 H L 197;9.11445
4ZS6 H L 146;4ZS6 H Y 202;19.7362
4ZS6 H L 146;4ZS6 H V 219;21.8258
4ZS6 H L 146;4ZS6 H E 220;0.187427
4ZS6 H L 146;4ZS6 L F 117;8.63987
4ZS6 H G 147;4ZS6 H C 148;17.1758
4ZS6 H G 147;4ZS6 H W 162;11.2167
4ZS6 H G 147;4ZS6 H S 188;5.33142
4ZS6 H G 147;4ZS6 H V 189;4.49629
4ZS6 H G 147;4ZS6 H V 219;11.5277
4ZS6 H G 147;4ZS6 L F 117;0.00430092
4ZS6 H C 148;4ZS6 H L 149;18.5945
4ZS6 H C 148;4ZS6 H V 150;9.1328
4ZS6 H C 148;4ZS6 H V 160;7.20249
4ZS6 H C 148;4ZS6 H W 162;9.23446
4ZS6 H C 148;4ZS6 H S 187;7.56885
4ZS6 H C 148;4ZS6 H S 188;19.0414
4ZS6 H C 148;4ZS6 H V 189;0.0477523
4ZS6 H C 148;4ZS6 H C 204;18.8915
4ZS6 H C 148;4ZS6 H V 206;7.01046
4ZS6 H C 148;4ZS6 H K 217;0.0499771
4ZS6 H C 148;4ZS6 H V 219;1.52249
4ZS6 H L 149;4ZS6 H V 150;21.0312
4ZS6 H L 149;4ZS6 H K 151;15.9213
4ZS6 H L 149;4ZS6 H S 185;10.3513
4ZS6 H L 149;4ZS6 H L 186;7.29722
4ZS6 H L 149;4ZS6 H S 187;12.9993
4ZS6 H L 149;4ZS6 L Q 123;7.48054
4ZS6 H L 149;4ZS6 L S 130;15.9526
4ZS6 H L 149;4ZS6 L V 132;12.8693
4ZS6 H L 149;4ZS6 L T 177;8.92326
4ZS6 H V 150;4ZS6 H K 151;16.901
4ZS6 H V 150;4ZS6 H Y 153;12.6944
4ZS6 H V 150;4ZS6 H V 158;9.79126
4ZS6 H V 150;4ZS6 H V 160;8.50338
4ZS6 H V 150;4ZS6 H Y 184;0.0150393
4ZS6 H V 150;4ZS6 H S 185;5.98595
4ZS6 H V 150;4ZS6 H L 186;27.2657
4ZS6 H V 150;4ZS6 H S 187;2.1442
4ZS6 H V 150;4ZS6 H S 188;0.937007
4ZS6 H V 150;4ZS6 H V 206;14.5947
4ZS6 H K 151;4ZS6 H D 152;51.1897
4ZS6 H K 151;4ZS6 H Y 153;2.22561
4ZS6 H K 151;4ZS6 H Q 179;15.7576
4ZS6 H K 151;4ZS6 H Y 184;0.0266193
4ZS6 H K 151;4ZS6 H S 185;13.5625
4ZS6 H K 151;4ZS6 L Q 123;8.48689
4ZS6 H K 151;4ZS6 L T 128;22.5351
4ZS6 H K 151;4ZS6 L S 130;9.07817
4ZS6 H K 151;4ZS6 L T 179;8.56371
4ZS6 H D 152;4ZS6 H Y 153;17.242
4ZS6 H D 152;4ZS6 H Q 179;13.1235
4ZS6 H D 152;4ZS6 H S 181;5.52984
4ZS6 H D 152;4ZS6 H L 183;20.9515
4ZS6 H D 152;4ZS6 H Y 184;6.15036
4ZS6 H D 152;4ZS6 H S 185;2.02117
4ZS6 H Y 153;4ZS6 H F 154;21.411
4ZS6 H Y 153;4ZS6 H P 155;7.96947
4ZS6 H Y 153;4ZS6 H E 156;13.2305
4ZS6 H Y 153;4ZS6 H P 157;1.28327
4ZS6 H Y 153;4ZS6 H V 158;19.5037
4ZS6 H Y 153;4ZS6 H A 176;6.90038
4ZS6 H Y 153;4ZS6 H L 183;12.0933
4ZS6 H Y 153;4ZS6 H Y 184;36.6594
4ZS6 H Y 153;4ZS6 H S 185;5.59294
4ZS6 H Y 153;4ZS6 H L 186;15.2898
4ZS6 H Y 153;4ZS6 H H 208;9.82037
4ZS6 H F 154;4ZS6 H P 155;36.5259
4ZS6 H F 154;4ZS6 H L 178;1.9903
4ZS6 H F 154;4ZS6 H G 182;12.7483
4ZS6 H F 154;4ZS6 H L 183;14.2762
4ZS6 H F 154;4ZS6 H Y 184;20.2979
4ZS6 H F 154;4ZS6 H H 208;7.96771
4ZS6 H P 155;4ZS6 H E 156;32.7662
4ZS6 H P 155;4ZS6 H P 157;0.900543
4ZS6 H P 155;4ZS6 H Y 184;4.02559
4ZS6 H P 155;4ZS6 H H 208;11.8318
4ZS6 H P 155;4ZS6 H P 210;17.2631
4ZS6 H E 156;4ZS6 H P 157;32.2627
4ZS6 H E 156;4ZS6 H V 158;4.65508
4ZS6 H E 156;4ZS6 H A 176;17.8562
4ZS6 H E 156;4ZS6 H Y 184;29.4669
4ZS6 H E 156;4ZS6 H L 186;2.60325
4ZS6 H E 156;4ZS6 H H 208;0.023054
4ZS6 H E 156;4ZS6 H P 210;4.32133
4ZS6 H P 157;4ZS6 H V 158;27.4977
4ZS6 H P 157;4ZS6 H T 159;9.4127
4ZS6 H P 157;4ZS6 H N 207;1.61381
4ZS6 H P 157;4ZS6 H H 208;8.83066
4ZS6 H P 157;4ZS6 H K 209;2.46365
4ZS6 H P 157;4ZS6 H P 210;21.4134
4ZS6 H V 158;4ZS6 H T 159;29.3482
4ZS6 H V 158;4ZS6 H V 160;11.1255
4ZS6 H V 158;4ZS6 H T 173;2.62995
4ZS6 H V 158;4ZS6 H L 186;19.4229
4ZS6 H V 158;4ZS6 H V 206;8.30815
4ZS6 H V 158;4ZS6 H N 207;11.1168
4ZS6 H V 158;4ZS6 H H 208;13.0885
4ZS6 H T 159;4ZS6 H V 160;26.3367
4ZS6 H T 159;4ZS6 H S 161;0.809066
4ZS6 H T 159;4ZS6 H S 161;0.794314
4ZS6 H T 159;4ZS6 H N 205;4.19667
4ZS6 H T 159;4ZS6 H V 206;2.65316
4ZS6 H T 159;4ZS6 H N 207;33.028
4ZS6 H T 159;4ZS6 H K 209;8.99432
4ZS6 H V 160;4ZS6 H S 161;15.8983
4ZS6 H V 160;4ZS6 H S 161;13.6321
4ZS6 H V 160;4ZS6 H W 162;8.59864
4ZS6 H V 160;4ZS6 H V 171;1.78076
4ZS6 H V 160;4ZS6 H T 173;19.8833
4ZS6 H V 160;4ZS6 H L 186;9.00607
4ZS6 H V 160;4ZS6 H S 188;14.9865
4ZS6 H V 160;4ZS6 H C 204;4.84322
4ZS6 H V 160;4ZS6 H N 205;5.97965
4ZS6 H V 160;4ZS6 H V 206;14.8551
4ZS6 H S 161;4ZS6 H W 162;16.3657
4ZS6 H S 161;4ZS6 H I 203;0.21865
4ZS6 H S 161;4ZS6 H C 204;4.56834
4ZS6 H S 161;4ZS6 H N 205;17.3026
4ZS6 H S 161;4ZS6 H W 162;11.1309
4ZS6 H S 161;4ZS6 H S 164;2.49135
4ZS6 H S 161;4ZS6 H G 165;11.4817
4ZS6 H S 161;4ZS6 H V 171;0.0053108
4ZS6 H S 161;4ZS6 H N 205;17.0737
4ZS6 H W 162;4ZS6 H N 163;20.3264
4ZS6 H W 162;4ZS6 H S 164;1.23121
4ZS6 H W 162;4ZS6 H G 165;10.5326
4ZS6 H W 162;4ZS6 H A 166;1.47263
4ZS6 H W 162;4ZS6 H L 167;30.5477
4ZS6 H W 162;4ZS6 H V 171;19.7786
4ZS6 H W 162;4ZS6 H T 173;0.00198834
4ZS6 H W 162;4ZS6 H S 188;17.2308
4ZS6 H W 162;4ZS6 H V 189;5.11972
4ZS6 H W 162;4ZS6 H V 190;19.0471
4ZS6 H W 162;4ZS6 H Y 202;11.4987
4ZS6 H W 162;4ZS6 H I 203;11.1149
4ZS6 H W 162;4ZS6 H C 204;18.9539
4ZS6 H W 162;4ZS6 H N 205;1.75868
4ZS6 H W 162;4ZS6 H V 219;9.54616
4ZS6 H N 163;4ZS6 H S 164;24.9734
4ZS6 H N 163;4ZS6 H G 165;1.5197
4ZS6 H N 163;4ZS6 H A 166;18.3593
4ZS6 H N 163;4ZS6 H L 167;19.2633
4ZS6 H N 163;4ZS6 H T 201;14.7889
4ZS6 H N 163;4ZS6 H Y 202;13.1777
4ZS6 H N 163;4ZS6 H I 203;24.6347
4ZS6 H N 163;4ZS6 H N 205;4.91601
4ZS6 H S 164;4ZS6 H G 165;21.1716
4ZS6 H S 164;4ZS6 H A 166;8.44376
4ZS6 H S 164;4ZS6 H N 205;21.2338
4ZS6 H S 164;4ZS6 H D 216;0.145999
4ZS6 H G 165;4ZS6 H A 166;21.6095
4ZS6 H G 165;4ZS6 H L 167;7.89638
4ZS6 H G 165;4ZS6 H T 168;16.4661
4ZS6 H G 165;4ZS6 H N 205;0.494718
4ZS6 H A 166;4ZS6 H L 167;24.0285
4ZS6 H A 166;4ZS6 H T 168;4.47545
4ZS6 H L 167;4ZS6 H T 168;26.452
4ZS6 H L 167;4ZS6 H S 169;17.539
4ZS6 H L 167;4ZS6 H V 171;12.6206
4ZS6 H L 167;4ZS6 H V 190;15.5341
4ZS6 H L 167;4ZS6 H T 191;1.02529
4ZS6 H L 167;4ZS6 H V 192;4.05155
4ZS6 H L 167;4ZS6 H Y 202;17.8512
4ZS6 H T 168;4ZS6 H S 169;31.6853
4ZS6 H T 168;4ZS6 H G 170;2.9383
4ZS6 H T 168;4ZS6 H V 171;21.2853
4ZS6 H S 169;4ZS6 H G 170;26.4975
4ZS6 H S 169;4ZS6 H V 171;2.91879
4ZS6 H S 169;4ZS6 H V 190;3.54699
4ZS6 H S 169;4ZS6 H T 191;4.44382
4ZS6 H S 169;4ZS6 L K 168;0.956985
4ZS6 H G 170;4ZS6 H V 171;21.3366
4ZS6 H G 170;4ZS6 H H 172;12.7189
4ZS6 H G 170;4ZS6 H V 189;1.18707
4ZS6 H G 170;4ZS6 H V 190;9.87355
4ZS6 H G 170;4ZS6 H T 191;24.1569
4ZS6 H V 171;4ZS6 H H 172;33.9092
4ZS6 H V 171;4ZS6 H T 173;10.1858
4ZS6 H V 171;4ZS6 H S 188;4.76622
4ZS6 H V 171;4ZS6 H V 189;6.61576
4ZS6 H V 171;4ZS6 H V 190;13.3548
4ZS6 H H 172;4ZS6 H T 173;23.5978
4ZS6 H H 172;4ZS6 H F 174;12.3116
4ZS6 H H 172;4ZS6 H S 187;0.104078
4ZS6 H H 172;4ZS6 H S 188;6.04821
4ZS6 H H 172;4ZS6 H V 189;27.7871
4ZS6 H H 172;4ZS6 H T 191;3.14119
4ZS6 H H 172;4ZS6 L N 136;9.62659
4ZS6 H H 172;4ZS6 L N 137;19.6968
4ZS6 H H 172;4ZS6 L T 163;13.6755
4ZS6 H H 172;4ZS6 L D 166;14.4372
4ZS6 H H 172;4ZS6 L S 173;19.08
4ZS6 H T 173;4ZS6 H F 174;27.3691
4ZS6 H T 173;4ZS6 H P 175;5.41183
4ZS6 H T 173;4ZS6 H L 186;13.7804
4ZS6 H T 173;4ZS6 H S 187;2.97451
4ZS6 H T 173;4ZS6 H S 188;14.5306
4ZS6 H T 173;4ZS6 L T 163;7.87475
4ZS6 H F 174;4ZS6 H P 175;33.4861
4ZS6 H F 174;4ZS6 H A 176;1.9777
4ZS6 H F 174;4ZS6 H L 186;12.0875
4ZS6 H F 174;4ZS6 H S 187;16.4374
4ZS6 H F 174;4ZS6 H S 187;9.98516
4ZS6 H F 174;4ZS6 H S 188;1.07435
4ZS6 H F 174;4ZS6 H V 189;15.4
4ZS6 H F 174;4ZS6 L L 134;11.6109
4ZS6 H F 174;4ZS6 L N 136;0.00409538
4ZS6 H F 174;4ZS6 L S 161;13.3235
4ZS6 H F 174;4ZS6 L V 162;2.0172
4ZS6 H F 174;4ZS6 L T 163;13.6782
4ZS6 H F 174;4ZS6 L S 173;11.2372
4ZS6 H F 174;4ZS6 L L 174;7.47171
4ZS6 H F 174;4ZS6 L S 175;20.7516
4ZS6 H P 175;4ZS6 H A 176;32.6248
4ZS6 H P 175;4ZS6 H V 177;3.68405
4ZS6 H P 175;4ZS6 H S 185;1.00041
4ZS6 H P 175;4ZS6 H L 186;5.68117
4ZS6 H P 175;4ZS6 L S 161;19.4558
4ZS6 H P 175;4ZS6 L V 162;16.4319
4ZS6 H P 175;4ZS6 L T 163;11.0568
4ZS6 H P 175;4ZS6 L E 164;6.2927
4ZS6 H A 176;4ZS6 H V 177;27.917
4ZS6 H A 176;4ZS6 H Y 184;15.1614
4ZS6 H A 176;4ZS6 H S 185;5.34916
4ZS6 H A 176;4ZS6 H L 186;13.01
4ZS6 H A 176;4ZS6 L S 161;0.153684
4ZS6 H V 177;4ZS6 H L 178;25.744
4ZS6 H V 177;4ZS6 H Q 179;8.07234
4ZS6 H V 177;4ZS6 H L 183;0.50741
4ZS6 H V 177;4ZS6 H Y 184;10.9934
4ZS6 H V 177;4ZS6 H S 185;27.338
4ZS6 H V 177;4ZS6 L Q 159;24.4823
4ZS6 H V 177;4ZS6 L E 160;11.2321
4ZS6 H V 177;4ZS6 L S 161;16.5805
4ZS6 H V 177;4ZS6 L T 177;9.31151
4ZS6 H L 178;4ZS6 H Q 179;29.9856
4ZS6 H L 178;4ZS6 H S 180;0.297549
4ZS6 H L 178;4ZS6 H G 182;16.3396
4ZS6 H L 178;4ZS6 H L 183;9.86314
4ZS6 H L 178;4ZS6 H Y 184;34.1476
4ZS6 H L 178;4ZS6 L Q 159;11.707
4ZS6 H Q 179;4ZS6 H S 180;28.6032
4ZS6 H Q 179;4ZS6 H S 181;15.1071
4ZS6 H Q 179;4ZS6 H G 182;8.80258
4ZS6 H Q 179;4ZS6 H L 183;19.2856
4ZS6 H Q 179;4ZS6 H Y 184;4.10439
4ZS6 H Q 179;4ZS6 H S 185;16.6359
4ZS6 H Q 179;4ZS6 L Q 159;17.8416
4ZS6 H Q 179;4ZS6 L T 179;4.35575
4ZS6 H S 180;4ZS6 H S 181;30.2728
4ZS6 H S 180;4ZS6 H G 182;4.40891
4ZS6 H S 180;4ZS6 L Q 159;2.42068
4ZS6 H S 181;4ZS6 H G 182;24.3801
4ZS6 H S 181;4ZS6 H L 183;21.256
4ZS6 H G 182;4ZS6 H L 183;25.0775
4ZS6 H G 182;4ZS6 H Y 184;0.0592306
4ZS6 H L 183;4ZS6 H Y 184;19.2273
4ZS6 H L 183;4ZS6 H S 185;0.0413135
4ZS6 H Y 184;4ZS6 H S 185;17.4675
4ZS6 H S 185;4ZS6 H L 186;23.2741
4ZS6 H S 185;4ZS6 L T 177;3.94484
4ZS6 H L 186;4ZS6 H S 187;23.1397
4ZS6 H L 186;4ZS6 H S 187;11.2764
4ZS6 H L 186;4ZS6 H S 188;2.71904
4ZS6 H S 187;4ZS6 H S 188;14.6418
4ZS6 H S 187;4ZS6 H V 189;0.0782307
4ZS6 H S 187;4ZS6 H S 188;5.80816
4ZS6 H S 187;4ZS6 H V 189;5.10242
4ZS6 H S 187;4ZS6 L V 132;8.09909
4ZS6 H S 187;4ZS6 L S 175;12.6927
4ZS6 H S 187;4ZS6 L T 177;2.25702
4ZS6 H S 188;4ZS6 H V 189;23.0102
4ZS6 H V 189;4ZS6 H V 190;25.1655
4ZS6 H V 189;4ZS6 H T 191;2.69673
4ZS6 H V 189;4ZS6 L F 117;8.10711
4ZS6 H V 189;4ZS6 L V 132;2.68033
4ZS6 H V 189;4ZS6 L L 134;24.3688
4ZS6 H V 189;4ZS6 L N 136;4.35403
4ZS6 H V 189;4ZS6 L S 175;0.559
4ZS6 H V 190;4ZS6 H T 191;27.1153
4ZS6 H V 190;4ZS6 H V 192;11.1571
4ZS6 H V 190;4ZS6 H Y 202;3.69778
4ZS6 H T 191;4ZS6 H V 192;27.7209
4ZS6 H T 191;4ZS6 H P 193;0.273549
4ZS6 H T 191;4ZS6 L F 115;3.38376
4ZS6 H T 191;4ZS6 L L 134;1.14067
4ZS6 H T 191;4ZS6 L N 136;16.9846
4ZS6 H T 191;4ZS6 L N 137;3.41062
4ZS6 H V 192;4ZS6 H P 193;36.1148
4ZS6 H V 192;4ZS6 H S 194;3.85724
4ZS6 H V 192;4ZS6 H S 196;3.03194
4ZS6 H V 192;4ZS6 H L 197;10.6379
4ZS6 H V 192;4ZS6 H Y 202;26.2054
4ZS6 H P 193;4ZS6 H S 194;17.6488
4ZS6 H P 193;4ZS6 H S 195;14.7934
4ZS6 H P 193;4ZS6 H S 196;22.2588
4ZS6 H P 193;4ZS6 H L 197;2.47389
4ZS6 H P 193;4ZS6 H Y 202;4.47567
4ZS6 H S 194;4ZS6 H S 195;28.0581
4ZS6 H S 194;4ZS6 H S 196;1.65149
4ZS6 H S 194;4ZS6 H L 197;25.7701
4ZS6 H S 194;4ZS6 H G 198;0.494679
4ZS6 H S 195;4ZS6 H S 196;24.4853
4ZS6 H S 195;4ZS6 H L 197;3.16848
4ZS6 H S 195;4ZS6 H G 198;4.23776
4ZS6 H S 195;4ZS6 H T 199;12.4376
4ZS6 H S 196;4ZS6 H L 197;19.2326
4ZS6 H S 196;4ZS6 H G 198;0.457608
4ZS6 H S 196;4ZS6 H T 199;14.058
4ZS6 H S 196;4ZS6 H Q 200;23.1709
4ZS6 H S 196;4ZS6 H Y 202;15.8587
4ZS6 H L 197;4ZS6 H G 198;26.5166
4ZS6 H L 197;4ZS6 H T 199;3.16701
4ZS6 H L 197;4ZS6 H Q 200;9.93588
4ZS6 H L 197;4ZS6 H Y 202;11.1789
4ZS6 H L 197;4ZS6 H P 221;24.8157
4ZS6 H G 198;4ZS6 H T 199;27.0107
4ZS6 H G 198;4ZS6 H P 221;1.85585
4ZS6 H T 199;4ZS6 H Q 200;43.43
4ZS6 H Q 200;4ZS6 H T 201;27.0854
4ZS6 H Q 200;4ZS6 H Y 202;26.7848
4ZS6 H T 201;4ZS6 H Y 202;25.429
4ZS6 H T 201;4ZS6 H I 203;17.2986
4ZS6 H T 201;4ZS6 H K 218;16.8561
4ZS6 H Y 202;4ZS6 H I 203;20.4397
4ZS6 H Y 202;4ZS6 H K 217;0.282023
4ZS6 H Y 202;4ZS6 H K 218;4.40933
4ZS6 H Y 202;4ZS6 H V 219;21.3899
4ZS6 H I 203;4ZS6 H C 204;19.2972
4ZS6 H I 203;4ZS6 H N 205;12.8202
4ZS6 H I 203;4ZS6 H D 216;12.9901
4ZS6 H I 203;4ZS6 H K 217;12.952
4ZS6 H I 203;4ZS6 H K 218;20.9934
4ZS6 H I 203;4ZS6 H V 219;0.13137
4ZS6 H C 204;4ZS6 H N 205;17.2394
4ZS6 H C 204;4ZS6 H V 206;8.79627
4ZS6 H C 204;4ZS6 H V 215;2.46537
4ZS6 H C 204;4ZS6 H D 216;3.72258
4ZS6 H C 204;4ZS6 H K 217;25.4001
4ZS6 H C 204;4ZS6 H V 219;7.61092
4ZS6 H N 205;4ZS6 H V 206;20.5272
4ZS6 H N 205;4ZS6 H N 207;1.88865
4ZS6 H N 205;4ZS6 H V 215;1.28872
4ZS6 H N 205;4ZS6 H D 216;26.3288
4ZS6 H V 206;4ZS6 H N 207;27.0286
4ZS6 H V 206;4ZS6 H H 208;0.826742
4ZS6 H V 206;4ZS6 H T 213;4.17788
4ZS6 H V 206;4ZS6 H K 214;7.6535
4ZS6 H V 206;4ZS6 H V 215;25.1512
4ZS6 H V 206;4ZS6 H D 216;2.20574
4ZS6 H V 206;4ZS6 H K 217;0.318858
4ZS6 H N 207;4ZS6 H H 208;21.9487
4ZS6 H N 207;4ZS6 H K 209;26.4971
4ZS6 H N 207;4ZS6 H N 212;0.379866
4ZS6 H N 207;4ZS6 H T 213;7.24608
4ZS6 H N 207;4ZS6 H K 214;31.1581
4ZS6 H H 208;4ZS6 H K 209;17.1038
4ZS6 H H 208;4ZS6 H P 210;17.1862
4ZS6 H H 208;4ZS6 H S 211;18.9513
4ZS6 H H 208;4ZS6 H N 212;4.88491
4ZS6 H H 208;4ZS6 H T 213;19.902
4ZS6 H K 209;4ZS6 H P 210;32.5871
4ZS6 H K 209;4ZS6 H S 211;2.35465
4ZS6 H K 209;4ZS6 H N 212;21.8104
4ZS6 H K 209;4ZS6 H K 214;2.52744
4ZS6 H P 210;4ZS6 H S 211;18.8127
4ZS6 H P 210;4ZS6 H N 212;1.87715
4ZS6 H S 211;4ZS6 H N 212;30.3352
4ZS6 H S 211;4ZS6 H T 213;14.117
4ZS6 H N 212;4ZS6 H T 213;24.0757
4ZS6 H N 212;4ZS6 H K 214;6.23755
4ZS6 H T 213;4ZS6 H K 214;26.6889
4ZS6 H T 213;4ZS6 H V 215;16.7566
4ZS6 H K 214;4ZS6 H V 215;30.1972
4ZS6 H K 214;4ZS6 H D 216;5.14527
4ZS6 H V 215;4ZS6 H D 216;34.0286
4ZS6 H V 215;4ZS6 H K 217;14.5419
4ZS6 H D 216;4ZS6 H K 217;21.6745
4ZS6 H D 216;4ZS6 H K 218;0.521826
4ZS6 H K 217;4ZS6 H K 218;34.5757
4ZS6 H K 217;4ZS6 H V 219;11.1968
4ZS6 H K 217;4ZS6 L E 122;14.2211
4ZS6 H K 218;4ZS6 H V 219;23.9472
4ZS6 H K 218;4ZS6 H E 220;37.4587
4ZS6 H V 219;4ZS6 H E 220;30.3767
4ZS6 H V 219;4ZS6 H P 221;0.292628
4ZS6 H E 220;4ZS6 H P 221;42.6261
4ZS6 H E 220;4ZS6 H K 222;4.32958
4ZS6 H P 221;4ZS6 H K 222;35.1236
4ZS6 H K 222;4ZS6 L P 118;16.0478
4ZS6 H K 222;4ZS6 L P 119;4.94381
4ZS6 H K 222;4ZS6 L S 120;16.1028
4ZS6 H K 222;4ZS6 L D 121;4.86599
4ZS6 H K 222;4ZS6 L E 122;0.490337
4ZS6 L A 1;4ZS6 L I 2;30.9644
4ZS6 L A 1;4ZS6 L R 3;12.2936
4ZS6 L A 1;4ZS6 L S 26;3.7549
4ZS6 L A 1;4ZS6 L Q 27;1.47348
4ZS6 L A 1;4ZS6 L T 96;15.1367
4ZS6 L I 2;4ZS6 L R 3;24.5223
4ZS6 L I 2;4ZS6 L M 4;9.37468
4ZS6 L I 2;4ZS6 L A 25;5.06341
4ZS6 L I 2;4ZS6 L S 26;11.6181
4ZS6 L I 2;4ZS6 L Q 27;27.4773
4ZS6 L I 2;4ZS6 L D 28;0.229277
4ZS6 L I 2;4ZS6 L I 29;12.4733
4ZS6 L I 2;4ZS6 L Q 90;19.6361
4ZS6 L I 2;4ZS6 L D 92;5.01457
4ZS6 L I 2;4ZS6 L K 93;21.2306
4ZS6 L I 2;4ZS6 L L 94;0.619978
4ZS6 L I 2;4ZS6 L T 96;21.3512
4ZS6 L R 3;4ZS6 L M 4;24.5322
4ZS6 L R 3;4ZS6 L T 5;10.4541
4ZS6 L R 3;4ZS6 L R 24;3.75196
4ZS6 L R 3;4ZS6 L A 25;2.73911
4ZS6 L R 3;4ZS6 L S 26;24.9476
4ZS6 L R 3;4ZS6 L T 96;0.134246
4ZS6 L R 3;4ZS6 L Q 99;5.86702
4ZS6 L M 4;4ZS6 L T 5;17.911
4ZS6 L M 4;4ZS6 L Q 6;1.02894
4ZS6 L M 4;4ZS6 L C 23;13.8707
4ZS6 L M 4;4ZS6 L R 24;7.04607
4ZS6 L M 4;4ZS6 L A 25;14.8265
4ZS6 L M 4;4ZS6 L I 29;6.23347
4ZS6 L M 4;4ZS6 L L 33;9.55913
4ZS6 L M 4;4ZS6 L F 71;2.86327
4ZS6 L M 4;4ZS6 L C 88;7.2073
4ZS6 L M 4;4ZS6 L Q 89;1.45008
4ZS6 L M 4;4ZS6 L Q 90;15.4891
4ZS6 L M 4;4ZS6 L T 96;13.4017
4ZS6 L M 4;4ZS6 L F 97;12.4299
4ZS6 L M 4;4ZS6 L G 98;12.3852
4ZS6 L M 4;4ZS6 L Q 99;14.1255
4ZS6 L T 5;4ZS6 L Q 6;25.7037
4ZS6 L T 5;4ZS6 L S 7;2.2645
4ZS6 L T 5;4ZS6 L T 22;3.19342
4ZS6 L T 5;4ZS6 L C 23;8.33503
4ZS6 L T 5;4ZS6 L R 24;34.0995
4ZS6 L T 5;4ZS6 L S 26;0.0868631
4ZS6 L T 5;4ZS6 L Q 99;14.556
4ZS6 L Q 6;4ZS6 L S 7;28.4423
4ZS6 L Q 6;4ZS6 L P 8;0.260912
4ZS6 L Q 6;4ZS6 L S 9;6.90097
4ZS6 L Q 6;4ZS6 L I 21;9.72472
4ZS6 L Q 6;4ZS6 L T 22;8.11557
4ZS6 L Q 6;4ZS6 L C 23;5.84923
4ZS6 L Q 6;4ZS6 L W 35;10.253
4ZS6 L Q 6;4ZS6 L Y 86;9.70843
4ZS6 L Q 6;4ZS6 L Y 87;5.43714
4ZS6 L Q 6;4ZS6 L C 88;12.5917
4ZS6 L Q 6;4ZS6 L G 98;11.2045
4ZS6 L Q 6;4ZS6 L Q 99;18.5198
4ZS6 L Q 6;4ZS6 L G 100;16.6992
4ZS6 L Q 6;4ZS6 L T 101;11.9377
4ZS6 L S 7;4ZS6 L P 8;35.4038
4ZS6 L S 7;4ZS6 L S 9;1.8351
4ZS6 L S 7;4ZS6 L T 20;0.941742
4ZS6 L S 7;4ZS6 L I 21;6.73
4ZS6 L S 7;4ZS6 L T 22;31.4912
4ZS6 L S 7;4ZS6 L R 24;2.12235
4ZS6 L S 7;4ZS6 L T 101;3.01389
4ZS6 L P 8;4ZS6 L S 9;24.5133
4ZS6 L P 8;4ZS6 L F 10;14.7357
4ZS6 L P 8;4ZS6 L L 11;21.7989
4ZS6 L P 8;4ZS6 L T 20;9.09329
4ZS6 L P 8;4ZS6 L I 21;5.06454
4ZS6 L P 8;4ZS6 L G 100;0.147993
4ZS6 L P 8;4ZS6 L T 101;15.7773
4ZS6 L S 9;4ZS6 L F 10;26.1993
4ZS6 L S 9;4ZS6 L G 100;14.4826
4ZS6 L S 9;4ZS6 L T 101;7.07143
4ZS6 L S 9;4ZS6 L R 102;13.0494
4ZS6 L F 10;4ZS6 L L 11;32.3327
4ZS6 L F 10;4ZS6 L S 12;14.1173
4ZS6 L F 10;4ZS6 L T 101;2.96551
4ZS6 L F 10;4ZS6 L R 102;42.638
4ZS6 L F 10;4ZS6 L E 104;25.7282
4ZS6 L F 10;4ZS6 L Y 172;0.219166
4ZS6 L L 11;4ZS6 L S 12;31.2217
4ZS6 L L 11;4ZS6 L A 13;6.95605
4ZS6 L L 11;4ZS6 L V 19;21.5492
4ZS6 L L 11;4ZS6 L T 20;5.81791
4ZS6 L L 11;4ZS6 L I 21;6.68956
4ZS6 L L 11;4ZS6 L T 101;10.3618
4ZS6 L L 11;4ZS6 L R 102;9.2663
4ZS6 L L 11;4ZS6 L L 103;19.5829
4ZS6 L L 11;4ZS6 L E 104;8.35969
4ZS6 L S 12;4ZS6 L A 13;22.9713
4ZS6 L S 12;4ZS6 L L 103;0.0228279
4ZS6 L S 12;4ZS6 L E 104;21.0915
4ZS6 L S 12;4ZS6 L I 105;0.00556412
4ZS6 L S 12;4ZS6 L K 106;33.12
4ZS6 L S 12;4ZS6 L Y 139;1.98954
4ZS6 L A 13;4ZS6 L S 14;19.7488
4ZS6 L A 13;4ZS6 L D 17;16.6737
4ZS6 L A 13;4ZS6 L R 18;1.76117
4ZS6 L A 13;4ZS6 L V 19;9.06389
4ZS6 L A 13;4ZS6 L L 78;14.1133
4ZS6 L A 13;4ZS6 L L 103;1.8613
4ZS6 L A 13;4ZS6 L E 104;7.4859
4ZS6 L A 13;4ZS6 L I 105;7.10969
4ZS6 L A 13;4ZS6 L K 106;15.9977
4ZS6 L S 14;4ZS6 L V 15;29.0793
4ZS6 L S 14;4ZS6 L G 16;0.629494
4ZS6 L S 14;4ZS6 L D 17;27.013
4ZS6 L S 14;4ZS6 L L 78;6.65437
4ZS6 L S 14;4ZS6 L I 105;2.63048
4ZS6 L S 14;4ZS6 L K 106;27.9173
4ZS6 L S 14;4ZS6 L R 107;0.483705
4ZS6 L V 15;4ZS6 L G 16;25.2153
4ZS6 L V 15;4ZS6 L D 17;4.40881
4ZS6 L V 15;4ZS6 L L 78;11.4636
4ZS6 L V 15;4ZS6 L Q 79;17.4603
4ZS6 L V 15;4ZS6 L P 80;20.6909
4ZS6 L V 15;4ZS6 L I 105;16.8151
4ZS6 L V 15;4ZS6 L K 106;5.46601
4ZS6 L V 15;4ZS6 L S 170;0.257386
4ZS6 L G 16;4ZS6 L D 17;25.7026
4ZS6 L G 16;4ZS6 L R 18;0.69287
4ZS6 L G 16;4ZS6 L S 77;22.1437
4ZS6 L G 16;4ZS6 L L 78;10.721
4ZS6 L G 16;4ZS6 L Q 79;1.16732
4ZS6 L D 17;4ZS6 L R 18;31.3161
4ZS6 L D 17;4ZS6 L V 19;4.08242
4ZS6 L D 17;4ZS6 L I 75;2.30274
4ZS6 L D 17;4ZS6 L S 76;1.46042
4ZS6 L D 17;4ZS6 L S 77;6.38432
4ZS6 L D 17;4ZS6 L L 78;16.5267
4ZS6 L R 18;4ZS6 L V 19;30.7387
4ZS6 L R 18;4ZS6 L T 20;9.61859
4ZS6 L R 18;4ZS6 L T 74;19.7987
4ZS6 L R 18;4ZS6 L I 75;3.56506
4ZS6 L R 18;4ZS6 L S 76;31.8964
4ZS6 L R 18;4ZS6 L S 77;0.424198
4ZS6 L V 19;4ZS6 L T 20;30.2486
4ZS6 L V 19;4ZS6 L I 21;7.74599
4ZS6 L V 19;4ZS6 L L 73;1.05664
4ZS6 L V 19;4ZS6 L T 74;7.53874
4ZS6 L V 19;4ZS6 L I 75;27.7279
4ZS6 L V 19;4ZS6 L L 78;14.783
4ZS6 L V 19;4ZS6 L L 103;12.9971
4ZS6 L T 20;4ZS6 L I 21;22.8498
4ZS6 L T 20;4ZS6 L T 22;9.27119
4ZS6 L T 20;4ZS6 L T 72;16.1857
4ZS6 L T 20;4ZS6 L L 73;5.57809
4ZS6 L T 20;4ZS6 L T 74;15.4537
4ZS6 L I 21;4ZS6 L T 22;22.1214
4ZS6 L I 21;4ZS6 L W 35;14.3762
4ZS6 L I 21;4ZS6 L T 72;6.64891
4ZS6 L I 21;4ZS6 L L 73;27.1011
4ZS6 L I 21;4ZS6 L I 75;9.10374
4ZS6 L I 21;4ZS6 L Y 86;15.8173
4ZS6 L I 21;4ZS6 L T 101;21.04
4ZS6 L I 21;4ZS6 L L 103;3.63553
4ZS6 L T 22;4ZS6 L C 23;21.5441
4ZS6 L T 22;4ZS6 L R 24;26.2387
4ZS6 L T 22;4ZS6 L W 35;3.9164
4ZS6 L T 22;4ZS6 L D 70;0.676557
4ZS6 L T 22;4ZS6 L F 71;8.05396
4ZS6 L T 22;4ZS6 L T 72;12.8189
4ZS6 L C 23;4ZS6 L R 24;23.2083
4ZS6 L C 23;4ZS6 L L 33;7.55326
4ZS6 L C 23;4ZS6 L W 35;11.0027
4ZS6 L C 23;4ZS6 L T 69;1.21739
4ZS6 L C 23;4ZS6 L D 70;4.09493
4ZS6 L C 23;4ZS6 L F 71;25.3996
4ZS6 L C 23;4ZS6 L C 88;16.0216
4ZS6 L C 23;4ZS6 L G 98;0.0445697
4ZS6 L R 24;4ZS6 L A 25;24.0182
4ZS6 L R 24;4ZS6 L S 26;0.310701
4ZS6 L R 24;4ZS6 L T 69;6.34536
4ZS6 L R 24;4ZS6 L D 70;29.4495
4ZS6 L R 24;4ZS6 L F 71;0.213218
4ZS6 L A 25;4ZS6 L S 26;23.0589
4ZS6 L A 25;4ZS6 L Q 27;12.9574
4ZS6 L A 25;4ZS6 L I 29;12.8617
4ZS6 L A 25;4ZS6 L G 68;0.266705
4ZS6 L A 25;4ZS6 L T 69;25.4717
4ZS6 L A 25;4ZS6 L F 71;3.23572
4ZS6 L S 26;4ZS6 L Q 27;34.2073
4ZS6 L Q 27;4ZS6 L D 28;31.4389
4ZS6 L Q 27;4ZS6 L I 29;9.37887
4ZS6 L Q 27;4ZS6 L G 68;0.562849
4ZS6 L Q 27;4ZS6 L T 69;9.40564
4ZS6 L Q 27;4ZS6 L D 92;2.6925
4ZS6 L Q 27;4ZS6 L K 93;20.8501
4ZS6 L D 28;4ZS6 L I 29;21.8302
4ZS6 L D 28;4ZS6 L N 30;14.5077
4ZS6 L D 28;4ZS6 L G 68;19.6693
4ZS6 L D 28;4ZS6 L T 69;17.213
4ZS6 L D 28;4ZS6 L D 92;6.97877
4ZS6 L I 29;4ZS6 L N 30;21.9482
4ZS6 L I 29;4ZS6 L S 31;2.28502
4ZS6 L I 29;4ZS6 L F 32;20.4275
4ZS6 L I 29;4ZS6 L L 33;10.6518
4ZS6 L I 29;4ZS6 L G 68;9.90154
4ZS6 L I 29;4ZS6 L T 69;0.0764869
4ZS6 L I 29;4ZS6 L F 71;14.7738
4ZS6 L I 29;4ZS6 L Q 90;16.8924
4ZS6 L I 29;4ZS6 L D 92;18.4889
4ZS6 L N 30;4ZS6 L S 31;28.7287
4ZS6 L N 30;4ZS6 L F 32;23.0455
4ZS6 L N 30;4ZS6 L S 67;1.03326
4ZS6 L N 30;4ZS6 L G 68;10.5614
4ZS6 L N 30;4ZS6 L F 71;0.237163
4ZS6 L N 30;4ZS6 L D 92;3.33522
4ZS6 L S 31;4ZS6 L F 32;18.386
4ZS6 L S 31;4ZS6 L L 33;6.04531
4ZS6 L S 31;4ZS6 L G 50;9.82412
4ZS6 L S 31;4ZS6 L A 51;21.673
4ZS6 L S 31;4ZS6 L G 66;1.97219
4ZS6 L S 31;4ZS6 L S 67;18.3784
4ZS6 L S 31;4ZS6 L G 68;2.89264
4ZS6 L S 31;4ZS6 L F 71;9.56336
4ZS6 L S 31;4ZS6 L Y 91;2.80306
4ZS6 L F 32;4ZS6 L L 33;15.9341
4ZS6 L F 32;4ZS6 L F 71;0.257398
4ZS6 L F 32;4ZS6 L Q 89;0.105934
4ZS6 L F 32;4ZS6 L Q 90;5.58471
4ZS6 L F 32;4ZS6 L Y 91;35.8635
4ZS6 L F 32;4ZS6 L D 92;20.5508
4ZS6 L L 33;4ZS6 L A 34;22.718
4ZS6 L L 33;4ZS6 L W 35;17.1256
4ZS6 L L 33;4ZS6 L I 48;2.89926
4ZS6 L L 33;4ZS6 L Y 49;1.02122
4ZS6 L L 33;4ZS6 L G 50;11.7817
4ZS6 L L 33;4ZS6 L A 51;13.2591
4ZS6 L L 33;4ZS6 L G 65;0.0593633
4ZS6 L L 33;4ZS6 L F 71;27.7881
4ZS6 L L 33;4ZS6 L C 88;8.82232
4ZS6 L L 33;4ZS6 L Q 89;10.9383
4ZS6 L L 33;4ZS6 L Q 90;5.51381
4ZS6 L L 33;4ZS6 L Y 91;8.59445
4ZS6 L A 34;4ZS6 L W 35;21.5838
4ZS6 L A 34;4ZS6 L Y 36;12.1093
4ZS6 L A 34;4ZS6 L L 46;6.12191
4ZS6 L A 34;4ZS6 L I 48;7.40367
4ZS6 L A 34;4ZS6 L Y 49;6.12559
4ZS6 L A 34;4ZS6 L Y 87;0.129512
4ZS6 L A 34;4ZS6 L C 88;6.31777
4ZS6 L A 34;4ZS6 L Q 89;19.5102
4ZS6 L A 34;4ZS6 L Y 91;9.03234
4ZS6 L W 35;4ZS6 L Y 36;23.9297
4ZS6 L W 35;4ZS6 L L 46;5.02583
4ZS6 L W 35;4ZS6 L L 47;15.0681
4ZS6 L W 35;4ZS6 L I 48;28.4719
4ZS6 L W 35;4ZS6 L A 51;4.43666
4ZS6 L W 35;4ZS6 L G 64;4.73026
4ZS6 L W 35;4ZS6 L G 65;0.701384
4ZS6 L W 35;4ZS6 L F 71;7.5166
4ZS6 L W 35;4ZS6 L T 72;8.77383
4ZS6 L W 35;4ZS6 L L 73;34.7428
4ZS6 L W 35;4ZS6 L Y 86;5.74229
4ZS6 L W 35;4ZS6 L Y 87;11.7698
4ZS6 L W 35;4ZS6 L C 88;16.2206
4ZS6 L Y 36;4ZS6 L Q 37;18.0463
4ZS6 L Y 36;4ZS6 L Q 38;0.297287
4ZS6 L Y 36;4ZS6 L P 44;14.5844
4ZS6 L Y 36;4ZS6 L K 45;9.15357
4ZS6 L Y 36;4ZS6 L L 46;18.0448
4ZS6 L Y 36;4ZS6 L L 47;6.35821
4ZS6 L Y 36;4ZS6 L L 73;0.365768
4ZS6 L Y 36;4ZS6 L T 85;0.950605
4ZS6 L Y 36;4ZS6 L Y 86;9.76132
4ZS6 L Y 36;4ZS6 L Y 87;28.921
4ZS6 L Y 36;4ZS6 L C 88;1.39172
4ZS6 L Y 36;4ZS6 L Q 89;17.7277
4ZS6 L Y 36;4ZS6 L F 97;10.1917
4ZS6 L Q 37;4ZS6 L Q 38;19.5584
4ZS6 L Q 37;4ZS6 L R 39;32.1729
4ZS6 L Q 37;4ZS6 L A 43;1.43746
4ZS6 L Q 37;4ZS6 L P 44;5.76493
4ZS6 L Q 37;4ZS6 L K 45;35.0892
4ZS6 L Q 37;4ZS6 L L 47;20.3553
4ZS6 L Q 37;4ZS6 L F 62;9.26778
4ZS6 L Q 37;4ZS6 L E 81;1.35682
4ZS6 L Q 37;4ZS6 L D 82;8.04308
4ZS6 L Q 37;4ZS6 L A 84;9.62884
4ZS6 L Q 37;4ZS6 L T 85;3.35839
4ZS6 L Q 37;4ZS6 L Y 86;20.6057
4ZS6 L Q 38;4ZS6 L R 39;25.161
4ZS6 L Q 38;4ZS6 L P 40;4.40245
4ZS6 L Q 38;4ZS6 L G 41;0.610854
4ZS6 L Q 38;4ZS6 L K 42;15.5221
4ZS6 L Q 38;4ZS6 L A 43;4.92615
4ZS6 L Q 38;4ZS6 L P 44;22.0193
4ZS6 L Q 38;4ZS6 L A 84;8.78138
4ZS6 L Q 38;4ZS6 L T 85;26.4719
4ZS6 L Q 38;4ZS6 L Y 87;19.1242
4ZS6 L R 39;4ZS6 L P 40;30.1366
4ZS6 L R 39;4ZS6 L G 41;2.93622
4ZS6 L R 39;4ZS6 L K 42;26.1496
4ZS6 L R 39;4ZS6 L A 43;1.9959
4ZS6 L R 39;4ZS6 L K 45;13.183
4ZS6 L R 39;4ZS6 L R 61;1.3931
4ZS6 L R 39;4ZS6 L F 62;0.000613143
4ZS6 L R 39;4ZS6 L E 81;33.6285
4ZS6 L R 39;4ZS6 L D 82;3.63526
4ZS6 L R 39;4ZS6 L I 83;6.57491
4ZS6 L R 39;4ZS6 L A 84;10.3711
4ZS6 L R 39;4ZS6 L S 167;8.76146
4ZS6 L P 40;4ZS6 L G 41;27.6998
4ZS6 L P 40;4ZS6 L K 42;7.36525
4ZS6 L P 40;4ZS6 L I 83;17.0751
4ZS6 L P 40;4ZS6 L A 84;7.30848
4ZS6 L P 40;4ZS6 L E 164;33.9457
4ZS6 L P 40;4ZS6 L Q 165;9.7406
4ZS6 L P 40;4ZS6 L S 167;5.76438
4ZS6 L G 41;4ZS6 L K 42;35.0402
4ZS6 L G 41;4ZS6 L E 164;1.40338
4ZS6 L K 42;4ZS6 L A 43;35.4837
4ZS6 L K 42;4ZS6 L P 44;0.05683
4ZS6 L A 43;4ZS6 L P 44;31.1538
4ZS6 L A 43;4ZS6 L K 45;3.46347
4ZS6 L P 44;4ZS6 L K 45;24.0811
4ZS6 L P 44;4ZS6 L L 46;0.229937
4ZS6 L P 44;4ZS6 L Y 87;2.61501
4ZS6 L K 45;4ZS6 L L 46;31.62
4ZS6 L K 45;4ZS6 L L 47;14.1271
4ZS6 L K 45;4ZS6 L G 57;12.9463
4ZS6 L K 45;4ZS6 L V 58;12.7032
4ZS6 L K 45;4ZS6 L P 59;4.85121
4ZS6 L L 46;4ZS6 L L 47;21.1446
4ZS6 L L 46;4ZS6 L I 48;7.9797
4ZS6 L L 46;4ZS6 L Y 49;9.93615
4ZS6 L L 46;4ZS6 L E 55;28.7736
4ZS6 L L 46;4ZS6 L V 58;6.78746
4ZS6 L L 47;4ZS6 L I 48;28.1211
4ZS6 L L 47;4ZS6 L N 53;0.105005
4ZS6 L L 47;4ZS6 L L 54;3.85093
4ZS6 L L 47;4ZS6 L E 55;11.6357
4ZS6 L L 47;4ZS6 L V 58;24.8024
4ZS6 L L 47;4ZS6 L P 59;0.175702
4ZS6 L L 47;4ZS6 L F 62;24.6384
4ZS6 L L 47;4ZS6 L L 73;9.49339
4ZS6 L L 47;4ZS6 L Y 86;8.59756
4ZS6 L I 48;4ZS6 L Y 49;21.9541
4ZS6 L I 48;4ZS6 L G 50;1.31683
4ZS6 L I 48;4ZS6 L A 51;6.77881
4ZS6 L I 48;4ZS6 L S 52;9.70191
4ZS6 L I 48;4ZS6 L N 53;11.9955
4ZS6 L I 48;4ZS6 L L 54;14.8549
4ZS6 L I 48;4ZS6 L E 55;0.866414
4ZS6 L I 48;4ZS6 L F 62;5.39586
4ZS6 L I 48;4ZS6 L S 63;5.8272
4ZS6 L I 48;4ZS6 L G 64;13.6129
4ZS6 L I 48;4ZS6 L L 73;9.41469
4ZS6 L Y 49;4ZS6 L G 50;27.9802
4ZS6 L Y 49;4ZS6 L A 51;0.0894681
4ZS6 L Y 49;4ZS6 L S 52;1.16998
4ZS6 L Y 49;4ZS6 L N 53;45.9069
4ZS6 L Y 49;4ZS6 L L 54;6.1357
4ZS6 L Y 49;4ZS6 L E 55;18.5135
4ZS6 L Y 49;4ZS6 L Y 91;2.45081
4ZS6 L G 50;4ZS6 L A 51;20.5366
4ZS6 L G 50;4ZS6 L S 52;0.847728
4ZS6 L G 50;4ZS6 L N 53;13.7499
4ZS6 L G 50;4ZS6 L Y 91;14.6793
4ZS6 L A 51;4ZS6 L S 52;26.6527
4ZS6 L A 51;4ZS6 L N 53;0.361779
4ZS6 L A 51;4ZS6 L G 64;5.1969
4ZS6 L A 51;4ZS6 L G 65;10.9078
4ZS6 L A 51;4ZS6 L G 66;11.013
4ZS6 L A 51;4ZS6 L S 67;0.154482
4ZS6 L A 51;4ZS6 L F 71;10.1495
4ZS6 L S 52;4ZS6 L N 53;29.9288
4ZS6 L S 52;4ZS6 L L 54;6.64983
4ZS6 L S 52;4ZS6 L S 63;0.695496
4ZS6 L S 52;4ZS6 L G 64;21.4156
4ZS6 L S 52;4ZS6 L G 65;7.56095
4ZS6 L S 52;4ZS6 L G 66;0.973083
4ZS6 L N 53;4ZS6 L L 54;22.4134
4ZS6 L N 53;4ZS6 L E 55;2.62867
4ZS6 L L 54;4ZS6 L E 55;21.7581
4ZS6 L L 54;4ZS6 L T 56;10.7638
4ZS6 L L 54;4ZS6 L V 58;22.6621
4ZS6 L L 54;4ZS6 L P 59;3.6175
4ZS6 L L 54;4ZS6 L S 60;16.7787
4ZS6 L L 54;4ZS6 L F 62;17.3156
4ZS6 L L 54;4ZS6 L S 63;2.46672
4ZS6 L E 55;4ZS6 L T 56;39.2854
4ZS6 L E 55;4ZS6 L G 57;0.561017
4ZS6 L E 55;4ZS6 L V 58;20.258
4ZS6 L T 56;4ZS6 L G 57;31.234
4ZS6 L T 56;4ZS6 L V 58;2.65793
4ZS6 L G 57;4ZS6 L V 58;29.0432
4ZS6 L G 57;4ZS6 L P 59;5.67237
4ZS6 L V 58;4ZS6 L P 59;35.0007
4ZS6 L V 58;4ZS6 L S 60;2.30289
4ZS6 L V 58;4ZS6 L F 62;8.74504
4ZS6 L P 59;4ZS6 L S 60;21.8811
4ZS6 L P 59;4ZS6 L R 61;35.1662
4ZS6 L P 59;4ZS6 L F 62;22.0342
4ZS6 L P 59;4ZS6 L E 81;1.18436
4ZS6 L S 60;4ZS6 L R 61;25.9667
4ZS6 L S 60;4ZS6 L F 62;10.5939
4ZS6 L S 60;4ZS6 L S 63;4.45173
4ZS6 L R 61;4ZS6 L F 62;32.429
4ZS6 L R 61;4ZS6 L S 63;2.46142
4ZS6 L R 61;4ZS6 L T 74;4.87028
4ZS6 L R 61;4ZS6 L I 75;13.8202
4ZS6 L R 61;4ZS6 L S 76;24.4757
4ZS6 L R 61;4ZS6 L S 77;17.4967
4ZS6 L R 61;4ZS6 L L 78;0.296631
4ZS6 L R 61;4ZS6 L Q 79;17.241
4ZS6 L R 61;4ZS6 L E 81;17.6658
4ZS6 L R 61;4ZS6 L D 82;17.0506
4ZS6 L F 62;4ZS6 L S 63;23.8516
4ZS6 L F 62;4ZS6 L L 73;11.2875
4ZS6 L F 62;4ZS6 L T 74;2.66555
4ZS6 L F 62;4ZS6 L I 75;23.8476
4ZS6 L F 62;4ZS6 L D 82;12.0896
4ZS6 L F 62;4ZS6 L Y 86;9.01188
4ZS6 L S 63;4ZS6 L G 64;29.7346
4ZS6 L S 63;4ZS6 L G 65;0.17949
4ZS6 L S 63;4ZS6 L T 72;2.01711
4ZS6 L S 63;4ZS6 L L 73;9.90664
4ZS6 L S 63;4ZS6 L T 74;30.3931
4ZS6 L G 64;4ZS6 L G 65;22.1468
4ZS6 L G 64;4ZS6 L T 72;5.31363
4ZS6 L G 64;4ZS6 L L 73;3.90124
4ZS6 L G 65;4ZS6 L G 66;27.3684
4ZS6 L G 65;4ZS6 L F 71;8.91031
4ZS6 L G 65;4ZS6 L T 72;24.7011
4ZS6 L G 66;4ZS6 L S 67;25.3444
4ZS6 L G 66;4ZS6 L D 70;9.64573
4ZS6 L G 66;4ZS6 L F 71;10.4663
4ZS6 L G 66;4ZS6 L T 72;0.407429
4ZS6 L S 67;4ZS6 L G 68;24.5355
4ZS6 L S 67;4ZS6 L T 69;4.92681
4ZS6 L S 67;4ZS6 L D 70;13.6966
4ZS6 L S 67;4ZS6 L F 71;10.8917
4ZS6 L G 68;4ZS6 L T 69;21.3099
4ZS6 L G 68;4ZS6 L F 71;7.69456
4ZS6 L T 69;4ZS6 L D 70;36.3584
4ZS6 L T 69;4ZS6 L F 71;9.28232
4ZS6 L D 70;4ZS6 L F 71;28.6369
4ZS6 L D 70;4ZS6 L T 72;0.0869992
4ZS6 L F 71;4ZS6 L T 72;25.9861
4ZS6 L T 72;4ZS6 L L 73;18.4855
4ZS6 L T 72;4ZS6 L T 74;10.1335
4ZS6 L L 73;4ZS6 L T 74;25.4169
4ZS6 L L 73;4ZS6 L I 75;13.5329
4ZS6 L L 73;4ZS6 L Y 86;12.4104
4ZS6 L T 74;4ZS6 L I 75;19.6344
4ZS6 L T 74;4ZS6 L S 76;9.84096
4ZS6 L I 75;4ZS6 L S 76;18.9399
4ZS6 L I 75;4ZS6 L S 77;0.978265
4ZS6 L I 75;4ZS6 L L 78;20.9981
4ZS6 L I 75;4ZS6 L D 82;9.58196
4ZS6 L I 75;4ZS6 L Y 86;12.6855
4ZS6 L I 75;4ZS6 L L 103;6.35161
4ZS6 L S 76;4ZS6 L S 77;29.8481
4ZS6 L S 76;4ZS6 L L 78;0.0976537
4ZS6 L S 77;4ZS6 L L 78;20.9725
4ZS6 L S 77;4ZS6 L Q 79;11.099
4ZS6 L S 77;4ZS6 L D 82;8.04296e-05
4ZS6 L L 78;4ZS6 L Q 79;23.6304
4ZS6 L L 78;4ZS6 L D 82;11.5229
4ZS6 L L 78;4ZS6 L L 103;16.6619
4ZS6 L L 78;4ZS6 L E 104;0.600665
4ZS6 L L 78;4ZS6 L I 105;13.9845
4ZS6 L Q 79;4ZS6 L P 80;29.6807
4ZS6 L Q 79;4ZS6 L E 81;17.0332
4ZS6 L Q 79;4ZS6 L D 82;20.0675
4ZS6 L Q 79;4ZS6 L I 105;9.01215
4ZS6 L P 80;4ZS6 L E 81;24.8794
4ZS6 L P 80;4ZS6 L D 82;2.42487
4ZS6 L P 80;4ZS6 L I 83;12.9836
4ZS6 L P 80;4ZS6 L I 105;10.9788
4ZS6 L P 80;4ZS6 L S 167;17.5544
4ZS6 L P 80;4ZS6 L K 168;2.01416
4ZS6 L P 80;4ZS6 L D 169;2.24621
4ZS6 L P 80;4ZS6 L S 170;11.5067
4ZS6 L E 81;4ZS6 L D 82;23.0312
4ZS6 L E 81;4ZS6 L I 83;7.75416
4ZS6 L E 81;4ZS6 L S 167;19.8487
4ZS6 L D 82;4ZS6 L I 83;18.6182
4ZS6 L D 82;4ZS6 L A 84;5.57019
4ZS6 L D 82;4ZS6 L Y 86;16.2036
4ZS6 L D 82;4ZS6 L L 103;10.7104
4ZS6 L D 82;4ZS6 L I 105;3.05565
4ZS6 L I 83;4ZS6 L A 84;22.0524
4ZS6 L I 83;4ZS6 L L 103;16.4665
4ZS6 L I 83;4ZS6 L E 104;1.82063
4ZS6 L I 83;4ZS6 L I 105;16.925
4ZS6 L I 83;4ZS6 L Q 165;32.7157
4ZS6 L I 83;4ZS6 L D 166;7.33474
4ZS6 L I 83;4ZS6 L S 167;14.5237
4ZS6 L I 83;4ZS6 L S 170;6.58593
4ZS6 L A 84;4ZS6 L T 85;23.2516
4ZS6 L A 84;4ZS6 L Y 86;13.5943
4ZS6 L A 84;4ZS6 L T 101;1.24929
4ZS6 L A 84;4ZS6 L R 102;5.286
4ZS6 L A 84;4ZS6 L L 103;14.1813
4ZS6 L T 85;4ZS6 L Y 86;22.5078
4ZS6 L T 85;4ZS6 L Y 87;26.945
4ZS6 L T 85;4ZS6 L G 100;7.6418
4ZS6 L T 85;4ZS6 L T 101;11.8392
4ZS6 L T 85;4ZS6 L R 102;20.5781
4ZS6 L Y 86;4ZS6 L Y 87;20.185
4ZS6 L Y 86;4ZS6 L G 100;3.5307
4ZS6 L Y 86;4ZS6 L T 101;19.0034
4ZS6 L Y 86;4ZS6 L L 103;14.5128
4ZS6 L Y 87;4ZS6 L C 88;20.8004
4ZS6 L Y 87;4ZS6 L F 97;9.94032
4ZS6 L Y 87;4ZS6 L G 98;10.4939
4ZS6 L Y 87;4ZS6 L Q 99;6.39688
4ZS6 L Y 87;4ZS6 L G 100;10.1152
4ZS6 L C 88;4ZS6 L Q 89;18.8731
4ZS6 L C 88;4ZS6 L T 96;0.0146916
4ZS6 L C 88;4ZS6 L F 97;9.54126
4ZS6 L C 88;4ZS6 L G 98;15.5863
4ZS6 L Q 89;4ZS6 L Q 90;24.374
4ZS6 L Q 89;4ZS6 L Y 91;14.5841
4ZS6 L Q 89;4ZS6 L P 95;11.9636
4ZS6 L Q 89;4ZS6 L T 96;9.15413
4ZS6 L Q 89;4ZS6 L F 97;22.5946
4ZS6 L Q 90;4ZS6 L Y 91;18.0296
4ZS6 L Q 90;4ZS6 L D 92;8.88168
4ZS6 L Q 90;4ZS6 L K 93;11.822
4ZS6 L Q 90;4ZS6 L L 94;6.45052
4ZS6 L Q 90;4ZS6 L P 95;8.58197
4ZS6 L Q 90;4ZS6 L T 96;25.7553
4ZS6 L Y 91;4ZS6 L D 92;19.6182
4ZS6 L Y 91;4ZS6 L K 93;5.25855
4ZS6 L Y 91;4ZS6 L P 95;5.49633
4ZS6 L D 92;4ZS6 L K 93;30.6531
4ZS6 L K 93;4ZS6 L L 94;29.7625
4ZS6 L K 93;4ZS6 L P 95;4.71739
4ZS6 L L 94;4ZS6 L P 95;24.2636
4ZS6 L L 94;4ZS6 L T 96;7.76612
4ZS6 L P 95;4ZS6 L T 96;27.3075
4ZS6 L P 95;4ZS6 L F 97;5.53893
4ZS6 L T 96;4ZS6 L F 97;30.7967
4ZS6 L F 97;4ZS6 L G 98;26.4099
4ZS6 L F 97;4ZS6 L Q 99;4.63447
4ZS6 L G 98;4ZS6 L Q 99;21.7645
4ZS6 L G 98;4ZS6 L G 100;2.77491
4ZS6 L Q 99;4ZS6 L G 100;26.7518
4ZS6 L G 100;4ZS6 L T 101;20.021
4ZS6 L G 100;4ZS6 L R 102;0.700035
4ZS6 L T 101;4ZS6 L R 102;22.7246
4ZS6 L T 101;4ZS6 L L 103;4.61467
4ZS6 L R 102;4ZS6 L L 103;22.2406
4ZS6 L R 102;4ZS6 L E 104;1.59853
4ZS6 L L 103;4ZS6 L E 104;28.5831
4ZS6 L L 103;4ZS6 L I 105;9.11393
4ZS6 L E 104;4ZS6 L I 105;24.949
4ZS6 L E 104;4ZS6 L K 106;1.63301
4ZS6 L E 104;4ZS6 L Y 139;17.9636
4ZS6 L E 104;4ZS6 L P 140;0.0499848
4ZS6 L E 104;4ZS6 L R 141;7.24584
4ZS6 L E 104;4ZS6 L Q 165;13.1021
4ZS6 L E 104;4ZS6 L Y 172;19.7631
4ZS6 L I 105;4ZS6 L K 106;27.2159
4ZS6 L I 105;4ZS6 L R 107;2.03949
4ZS6 L I 105;4ZS6 L Y 139;5.90002
4ZS6 L I 105;4ZS6 L Q 165;14.0626
4ZS6 L I 105;4ZS6 L S 170;16.4298
4ZS6 L K 106;4ZS6 L R 107;30.797
4ZS6 L K 106;4ZS6 L Y 139;17.4782
4ZS6 L K 106;4ZS6 L S 170;0.423549
4ZS6 L R 107;4ZS6 L T 108;53.5745
4ZS6 L R 107;4ZS6 L V 109;5.12489
4ZS6 L R 107;4ZS6 L A 110;16.7543
4ZS6 L R 107;4ZS6 L Y 139;31.654
4ZS6 L R 107;4ZS6 L D 169;18.6152
4ZS6 L R 107;4ZS6 L S 170;19.1124
4ZS6 L R 107;4ZS6 L T 171;15.5919
4ZS6 L T 108;4ZS6 L V 109;36.906
4ZS6 L T 108;4ZS6 L A 110;1.91096
4ZS6 L T 108;4ZS6 L Y 139;3.82696
4ZS6 L V 109;4ZS6 L A 110;26.2
4ZS6 L V 109;4ZS6 L A 111;1.2591
4ZS6 L V 109;4ZS6 L Y 139;12.6647
4ZS6 L V 109;4ZS6 L P 140;11.983
4ZS6 L V 109;4ZS6 L H 197;0.894557
4ZS6 L V 109;4ZS6 L Q 198;22.9411
4ZS6 L V 109;4ZS6 L G 199;18.7783
4ZS6 L A 110;4ZS6 L A 111;27.8463
4ZS6 L A 110;4ZS6 L P 112;0.496843
4ZS6 L A 110;4ZS6 L N 137;7.01988
4ZS6 L A 110;4ZS6 L F 138;9.20331
4ZS6 L A 110;4ZS6 L Y 139;17.5706
4ZS6 L A 110;4ZS6 L T 171;5.53923
4ZS6 L A 110;4ZS6 L H 197;4.94568
4ZS6 L A 110;4ZS6 L G 199;0.894039
4ZS6 L A 111;4ZS6 L P 112;28.9194
4ZS6 L A 111;4ZS6 L S 113;5.1448
4ZS6 L A 111;4ZS6 L N 136;1.98856
4ZS6 L A 111;4ZS6 L N 137;6.05844
4ZS6 L A 111;4ZS6 L F 138;1.18558
4ZS6 L A 111;4ZS6 L H 197;2.54454
4ZS6 L A 111;4ZS6 L G 199;17.8572
4ZS6 L A 111;4ZS6 L L 200;14.7617
4ZS6 L P 112;4ZS6 L S 113;21.9746
4ZS6 L P 112;4ZS6 L V 114;13.6345
4ZS6 L P 112;4ZS6 L L 135;14.5674
4ZS6 L P 112;4ZS6 L N 136;8.8247
4ZS6 L P 112;4ZS6 L N 137;0.521134
4ZS6 L P 112;4ZS6 L F 138;17.8505
4ZS6 L P 112;4ZS6 L A 143;0.597995
4ZS6 L P 112;4ZS6 L V 195;7.13888
4ZS6 L P 112;4ZS6 L H 197;17.0091
4ZS6 L P 112;4ZS6 L L 200;18.0095
4ZS6 L P 112;4ZS6 L V 204;0.8049
4ZS6 L S 113;4ZS6 L V 114;21.5781
4ZS6 L S 113;4ZS6 L F 115;22.3239
4ZS6 L S 113;4ZS6 L L 134;3.51718
4ZS6 L S 113;4ZS6 L L 135;3.04442
4ZS6 L S 113;4ZS6 L N 136;31.8767
4ZS6 L S 113;4ZS6 L N 137;0.557058
4ZS6 L V 114;4ZS6 L F 115;33.2465
4ZS6 L V 114;4ZS6 L I 116;2.06836e-05
4ZS6 L V 114;4ZS6 L C 133;5.75547
4ZS6 L V 114;4ZS6 L L 134;7.9596
4ZS6 L V 114;4ZS6 L L 135;8.15417
4ZS6 L V 114;4ZS6 L C 193;6.89252
4ZS6 L V 114;4ZS6 L V 195;17.8292
4ZS6 L V 114;4ZS6 L L 200;2.44913
4ZS6 L V 114;4ZS6 L V 204;16.9581
4ZS6 L V 114;4ZS6 L K 206;35.5811
4ZS6 L F 115;4ZS6 L I 116;26.6384
4ZS6 L F 115;4ZS6 L F 117;14.5025
4ZS6 L F 115;4ZS6 L V 132;0.247762
4ZS6 L F 115;4ZS6 L C 133;5.80394
4ZS6 L F 115;4ZS6 L L 134;30.753
4ZS6 L F 115;4ZS6 L N 136;8.74602
4ZS6 L F 115;4ZS6 L C 193;0.673735
4ZS6 L F 115;4ZS6 L K 206;4.85796
4ZS6 L I 116;4ZS6 L F 117;32.3944
4ZS6 L I 116;4ZS6 L P 118;8.37981
4ZS6 L I 116;4ZS6 L V 131;6.98812
4ZS6 L I 116;4ZS6 L V 132;6.92023
4ZS6 L I 116;4ZS6 L C 133;3.30033
4ZS6 L I 116;4ZS6 L W 147;9.28965
4ZS6 L I 116;4ZS6 L Y 191;6.64091
4ZS6 L I 116;4ZS6 L A 192;3.99796
4ZS6 L I 116;4ZS6 L C 193;12.1197
4ZS6 L I 116;4ZS6 L K 206;21.3322
4ZS6 L I 116;4ZS6 L S 207;12.7547
4ZS6 L I 116;4ZS6 L F 208;20.0566
4ZS6 L F 117;4ZS6 L P 118;31.6327
4ZS6 L F 117;4ZS6 L P 119;0.0747151
4ZS6 L F 117;4ZS6 L S 130;2.043
4ZS6 L F 117;4ZS6 L V 131;8.61979
4ZS6 L F 117;4ZS6 L V 132;28.2576
4ZS6 L F 117;4ZS6 L C 133;0.222655
4ZS6 L F 117;4ZS6 L L 134;13.6008
4ZS6 L F 117;4ZS6 L F 208;0.942192
4ZS6 L P 118;4ZS6 L P 119;33.8442
4ZS6 L P 118;4ZS6 L S 120;2.8836
4ZS6 L P 118;4ZS6 L S 130;1.33101
4ZS6 L P 118;4ZS6 L V 131;1.52286
4ZS6 L P 118;4ZS6 L Y 185;4.44854
4ZS6 L P 118;4ZS6 L F 208;32.3355
4ZS6 L P 119;4ZS6 L S 120;26.1882
4ZS6 L P 119;4ZS6 L D 121;2.32768
4ZS6 L P 119;4ZS6 L Q 123;9.21159
4ZS6 L P 119;4ZS6 L L 124;19.4571
4ZS6 L P 119;4ZS6 L T 128;0.35155
4ZS6 L P 119;4ZS6 L A 129;8.91521
4ZS6 L P 119;4ZS6 L S 130;16.8831
4ZS6 L P 119;4ZS6 L V 131;10.9362
4ZS6 L P 119;4ZS6 L Y 185;21.0661
4ZS6 L P 119;4ZS6 L F 208;3.20987
4ZS6 L S 120;4ZS6 L D 121;19.474
4ZS6 L S 120;4ZS6 L E 122;15.8701
4ZS6 L S 120;4ZS6 L Q 123;17.4079
4ZS6 L S 120;4ZS6 L L 124;9.47435
4ZS6 L D 121;4ZS6 L E 122;30.3511
4ZS6 L D 121;4ZS6 L Q 123;1.49249
4ZS6 L D 121;4ZS6 L L 124;29.0718
4ZS6 L D 121;4ZS6 L K 125;11.501
4ZS6 L E 122;4ZS6 L Q 123;16.8669
4ZS6 L E 122;4ZS6 L L 124;0.295941
4ZS6 L E 122;4ZS6 L K 125;11.5124
4ZS6 L E 122;4ZS6 L S 126;9.09255
4ZS6 L Q 123;4ZS6 L L 124;16.9089
4ZS6 L Q 123;4ZS6 L K 125;1.38877
4ZS6 L Q 123;4ZS6 L S 126;16.463
4ZS6 L Q 123;4ZS6 L G 127;2.85715
4ZS6 L Q 123;4ZS6 L T 128;25.2571
4ZS6 L Q 123;4ZS6 L A 129;2.0505
4ZS6 L Q 123;4ZS6 L S 130;19.772
4ZS6 L L 124;4ZS6 L K 125;17.7541
4ZS6 L L 124;4ZS6 L S 126;0.649769
4ZS6 L L 124;4ZS6 L G 127;7.42447
4ZS6 L L 124;4ZS6 L T 128;9.66872
4ZS6 L L 124;4ZS6 L A 129;7.50888
4ZS6 L L 124;4ZS6 L K 182;35.136
4ZS6 L L 124;4ZS6 L Y 185;20.3443
4ZS6 L L 124;4ZS6 L E 186;7.52129
4ZS6 L K 125;4ZS6 L S 126;25.495
4ZS6 L K 125;4ZS6 L G 127;7.35776
4ZS6 L K 125;4ZS6 L K 182;14.1415
4ZS6 L S 126;4ZS6 L G 127;19.9707
4ZS6 L S 126;4ZS6 L T 128;14.862
4ZS6 L G 127;4ZS6 L T 128;23.9729
4ZS6 L G 127;4ZS6 L S 181;8.61957
4ZS6 L G 127;4ZS6 L K 182;21.0356
4ZS6 L T 128;4ZS6 L A 129;22.754
4ZS6 L T 128;4ZS6 L S 130;1.8162
4ZS6 L T 128;4ZS6 L T 179;9.17329
4ZS6 L T 128;4ZS6 L L 180;10.759
4ZS6 L T 128;4ZS6 L S 181;3.14144
4ZS6 L T 128;4ZS6 L K 182;4.78611
4ZS6 L A 129;4ZS6 L S 130;18.5911
4ZS6 L A 129;4ZS6 L V 131;5.62484
4ZS6 L A 129;4ZS6 L L 178;2.19227
4ZS6 L A 129;4ZS6 L T 179;7.07749
4ZS6 L A 129;4ZS6 L L 180;21.6963
4ZS6 L A 129;4ZS6 L S 181;3.83043
4ZS6 L A 129;4ZS6 L K 182;3.79964
4ZS6 L A 129;4ZS6 L Y 185;13.6722
4ZS6 L S 130;4ZS6 L V 131;18.6933
4ZS6 L S 130;4ZS6 L V 132;7.8024
4ZS6 L S 130;4ZS6 L T 177;7.78567
4ZS6 L S 130;4ZS6 L L 178;3.73803
4ZS6 L S 130;4ZS6 L T 179;13.1971
4ZS6 L V 131;4ZS6 L V 132;20.8754
4ZS6 L V 131;4ZS6 L W 147;18.1639
4ZS6 L V 131;4ZS6 L S 176;0.173141
4ZS6 L V 131;4ZS6 L T 177;4.36441
4ZS6 L V 131;4ZS6 L L 178;29.2414
4ZS6 L V 131;4ZS6 L L 180;5.46162
4ZS6 L V 131;4ZS6 L Y 185;7.14019
4ZS6 L V 131;4ZS6 L Y 191;13.4327
4ZS6 L V 131;4ZS6 L F 208;11.2774
4ZS6 L V 132;4ZS6 L C 133;23.8786
4ZS6 L V 132;4ZS6 L L 134;3.53019
4ZS6 L V 132;4ZS6 L W 147;4.65643
4ZS6 L V 132;4ZS6 L S 175;10.1679
4ZS6 L V 132;4ZS6 L S 176;6.26474
4ZS6 L V 132;4ZS6 L T 177;16.5681
4ZS6 L C 133;4ZS6 L L 134;22.3771
4ZS6 L C 133;4ZS6 L L 135;10.5641
4ZS6 L C 133;4ZS6 L V 145;6.18039
4ZS6 L C 133;4ZS6 L W 147;12.5133
4ZS6 L C 133;4ZS6 L L 174;1.09894
4ZS6 L C 133;4ZS6 L S 175;7.59669
4ZS6 L C 133;4ZS6 L S 176;19.8307
4ZS6 L C 133;4ZS6 L C 193;18.639
4ZS6 L C 133;4ZS6 L V 195;4.19529
4ZS6 L L 134;4ZS6 L L 135;28.1177
4ZS6 L L 134;4ZS6 L N 136;15.7894
4ZS6 L L 134;4ZS6 L S 173;1.61942
4ZS6 L L 134;4ZS6 L L 174;7.34663
4ZS6 L L 134;4ZS6 L S 175;4.76613
4ZS6 L L 135;4ZS6 L N 136;18.2362
4ZS6 L L 135;4ZS6 L F 138;15.629
4ZS6 L L 135;4ZS6 L A 143;12.9964
4ZS6 L L 135;4ZS6 L K 144;0.166803
4ZS6 L L 135;4ZS6 L V 145;15.3432
4ZS6 L L 135;4ZS6 L S 173;5.13363
4ZS6 L L 135;4ZS6 L L 174;31.4976
4ZS6 L L 135;4ZS6 L S 175;3.2519e-05
4ZS6 L L 135;4ZS6 L S 176;1.48305
4ZS6 L L 135;4ZS6 L V 195;17.6771
4ZS6 L L 135;4ZS6 L H 197;0.0599808
4ZS6 L N 136;4ZS6 L N 137;40.6323
4ZS6 L N 136;4ZS6 L F 138;4.73033
4ZS6 L N 136;4ZS6 L S 173;6.90274
4ZS6 L N 137;4ZS6 L F 138;17.5765
4ZS6 L N 137;4ZS6 L D 166;2.22342
4ZS6 L N 137;4ZS6 L D 169;12.5975
4ZS6 L N 137;4ZS6 L T 171;25.0792
4ZS6 L N 137;4ZS6 L Y 172;7.62823
4ZS6 L N 137;4ZS6 L S 173;9.04256
4ZS6 L F 138;4ZS6 L Y 139;19.7221
4ZS6 L F 138;4ZS6 L P 140;6.39177
4ZS6 L F 138;4ZS6 L R 141;12.9648
4ZS6 L F 138;4ZS6 L A 143;8.82652
4ZS6 L F 138;4ZS6 L V 162;5.08829
4ZS6 L F 138;4ZS6 L T 171;10.1614
4ZS6 L F 138;4ZS6 L Y 172;32.5504
4ZS6 L F 138;4ZS6 L S 173;7.23345
4ZS6 L F 138;4ZS6 L L 174;15.507
4ZS6 L F 138;4ZS6 L H 197;11.4402
4ZS6 L Y 139;4ZS6 L P 140;44.6058
4ZS6 L Y 139;4ZS6 L R 141;0.953094
4ZS6 L Y 139;4ZS6 L Q 165;4.68265
4ZS6 L Y 139;4ZS6 L S 170;8.45197
4ZS6 L Y 139;4ZS6 L T 171;4.39199
4ZS6 L Y 139;4ZS6 L Y 172;13.2536
4ZS6 L Y 139;4ZS6 L H 197;8.11632
4ZS6 L P 140;4ZS6 L R 141;21.4278
4ZS6 L P 140;4ZS6 L E 142;25.343
4ZS6 L P 140;4ZS6 L Y 172;1.78174
4ZS6 L P 140;4ZS6 L H 197;14.6284
4ZS6 L P 140;4ZS6 L Q 198;22.3914
4ZS6 L P 140;4ZS6 L G 199;0.00674752
4ZS6 L R 141;4ZS6 L E 142;36.5351
4ZS6 L R 141;4ZS6 L A 143;7.36915
4ZS6 L R 141;4ZS6 L E 160;1.21865
4ZS6 L R 141;4ZS6 L V 162;34.9067
4ZS6 L R 141;4ZS6 L T 163;0.290408
4ZS6 L R 141;4ZS6 L Y 172;32.8241
4ZS6 L R 141;4ZS6 L L 174;12.1465
4ZS6 L R 141;4ZS6 L H 197;0.0714973
4ZS6 L E 142;4ZS6 L A 143;25.1135
4ZS6 L E 142;4ZS6 L H 197;12.4732
4ZS6 L E 142;4ZS6 L Q 198;4.71618
4ZS6 L A 143;4ZS6 L K 144;27.6771
4ZS6 L A 143;4ZS6 L V 145;6.36133
4ZS6 L A 143;4ZS6 L E 160;8.35415
4ZS6 L A 143;4ZS6 L L 174;11.0472
4ZS6 L A 143;4ZS6 L V 195;1.15572
4ZS6 L A 143;4ZS6 L T 196;4.9364
4ZS6 L A 143;4ZS6 L H 197;14.9295
4ZS6 L K 144;4ZS6 L V 145;30.6244
4ZS6 L K 144;4ZS6 L Q 146;31.3339
4ZS6 L K 144;4ZS6 L E 194;1.75369
4ZS6 L K 144;4ZS6 L V 195;6.35816
4ZS6 L K 144;4ZS6 L T 196;41.6516
4ZS6 L V 145;4ZS6 L Q 146;28.2288
4ZS6 L V 145;4ZS6 L W 147;10.5471
4ZS6 L V 145;4ZS6 L S 158;3.0565
4ZS6 L V 145;4ZS6 L E 160;15.1197
4ZS6 L V 145;4ZS6 L L 174;9.08939
4ZS6 L V 145;4ZS6 L S 176;14.875
4ZS6 L V 145;4ZS6 L C 193;6.2693
4ZS6 L V 145;4ZS6 L E 194;6.83798
4ZS6 L V 145;4ZS6 L V 195;10.1219
4ZS6 L Q 146;4ZS6 L W 147;28.9175
4ZS6 L Q 146;4ZS6 L K 148;8.36929
4ZS6 L Q 146;4ZS6 L L 153;31.7411
4ZS6 L Q 146;4ZS6 L Q 154;1.28424
4ZS6 L Q 146;4ZS6 L A 192;0.667221
4ZS6 L Q 146;4ZS6 L C 193;2.98414
4ZS6 L Q 146;4ZS6 L E 194;42.7734
4ZS6 L Q 146;4ZS6 L T 196;3.53338
4ZS6 L W 147;4ZS6 L K 148;24.2296
4ZS6 L W 147;4ZS6 L V 149;3.91016
4ZS6 L W 147;4ZS6 L A 152;0.0382121
4ZS6 L W 147;4ZS6 L L 153;9.71367
4ZS6 L W 147;4ZS6 L Q 154;24.5734
4ZS6 L W 147;4ZS6 L S 158;16.1899
4ZS6 L W 147;4ZS6 L S 176;15.9994
4ZS6 L W 147;4ZS6 L T 177;1.12116
4ZS6 L W 147;4ZS6 L L 178;33.1169
4ZS6 L W 147;4ZS6 L Y 191;3.86368
4ZS6 L W 147;4ZS6 L A 192;11.296
4ZS6 L W 147;4ZS6 L C 193;19.0475
4ZS6 L K 148;4ZS6 L V 149;20.5459
4ZS6 L K 148;4ZS6 L D 150;1.32947
4ZS6 L K 148;4ZS6 L N 151;42.5621
4ZS6 L K 148;4ZS6 L A 152;6.76409
4ZS6 L K 148;4ZS6 L L 153;23.2804
4ZS6 L K 148;4ZS6 L Q 154;0.855888
4ZS6 L K 148;4ZS6 L V 190;5.10401
4ZS6 L K 148;4ZS6 L Y 191;1.10708
4ZS6 L K 148;4ZS6 L A 192;29.8897
4ZS6 L K 148;4ZS6 L E 194;27.6905
4ZS6 L K 148;4ZS6 L T 205;3.94124
4ZS6 L V 149;4ZS6 L D 150;23.3221
4ZS6 L V 149;4ZS6 L N 151;2.49493
4ZS6 L V 149;4ZS6 L A 152;18.5368
4ZS6 L V 149;4ZS6 L Q 154;25.5834
4ZS6 L V 149;4ZS6 L L 178;8.97881
4ZS6 L V 149;4ZS6 L L 180;3.89777
4ZS6 L V 149;4ZS6 L H 188;21.0746
4ZS6 L V 149;4ZS6 L V 190;6.2368
4ZS6 L V 149;4ZS6 L Y 191;27.9085
4ZS6 L V 149;4ZS6 L A 192;1.11036
4ZS6 L D 150;4ZS6 L N 151;28.3829
4ZS6 L D 150;4ZS6 L A 152;9.95873
4ZS6 L D 150;4ZS6 L K 187;0.640309
4ZS6 L D 150;4ZS6 L H 188;25.7642
4ZS6 L D 150;4ZS6 L K 189;11.4169
4ZS6 L D 150;4ZS6 L V 190;25.3091
4ZS6 L N 151;4ZS6 L A 152;22.7001
4ZS6 L N 151;4ZS6 L L 153;5.72732
4ZS6 L N 151;4ZS6 L V 190;2.88017
4ZS6 L A 152;4ZS6 L L 153;25.261
4ZS6 L A 152;4ZS6 L Q 154;15.1753
4ZS6 L L 153;4ZS6 L Q 154;27.7862
4ZS6 L L 153;4ZS6 L S 155;10.3528
4ZS6 L Q 154;4ZS6 L S 155;27.2546
4ZS6 L Q 154;4ZS6 L G 156;0.451245
4ZS6 L Q 154;4ZS6 L N 157;22.0907
4ZS6 L Q 154;4ZS6 L S 158;1.25936
4ZS6 L Q 154;4ZS6 L L 178;11.6674
4ZS6 L Q 154;4ZS6 L L 180;8.47255
4ZS6 L Q 154;4ZS6 L H 188;1.12891
4ZS6 L S 155;4ZS6 L G 156;31.1626
4ZS6 L S 155;4ZS6 L N 157;15.8377
4ZS6 L G 156;4ZS6 L N 157;26.125
4ZS6 L G 156;4ZS6 L S 158;9.96856
4ZS6 L N 157;4ZS6 L S 158;27.9174
4ZS6 L N 157;4ZS6 L T 177;1.47913
4ZS6 L N 157;4ZS6 L L 178;17.5034
4ZS6 L N 157;4ZS6 L T 179;25.9746
4ZS6 L N 157;4ZS6 L L 180;10.526
4ZS6 L S 158;4ZS6 L Q 159;35.436
4ZS6 L S 158;4ZS6 L E 160;3.2444
4ZS6 L S 158;4ZS6 L S 176;7.38577
4ZS6 L S 158;4ZS6 L T 177;6.58435
4ZS6 L S 158;4ZS6 L L 178;10.7165
4ZS6 L Q 159;4ZS6 L E 160;26.4075
4ZS6 L Q 159;4ZS6 L S 161;0.486398
4ZS6 L Q 159;4ZS6 L S 175;3.24372
4ZS6 L Q 159;4ZS6 L S 176;5.9889
4ZS6 L Q 159;4ZS6 L T 177;33.0871
4ZS6 L E 160;4ZS6 L S 161;25.5751
4ZS6 L E 160;4ZS6 L L 174;25.3404
4ZS6 L E 160;4ZS6 L S 175;5.04467
4ZS6 L E 160;4ZS6 L S 176;15.3219
4ZS6 L S 161;4ZS6 L V 162;26.108
4ZS6 L S 161;4ZS6 L S 173;0.0585152
4ZS6 L S 161;4ZS6 L L 174;9.56663
4ZS6 L S 161;4ZS6 L S 175;22.6451
4ZS6 L V 162;4ZS6 L T 163;30.7334
4ZS6 L V 162;4ZS6 L E 164;0.321532
4ZS6 L V 162;4ZS6 L Y 172;9.92123
4ZS6 L V 162;4ZS6 L S 173;10.1751
4ZS6 L V 162;4ZS6 L L 174;15.0652
4ZS6 L T 163;4ZS6 L E 164;40.3845
4ZS6 L T 163;4ZS6 L Q 165;0.730837
4ZS6 L T 163;4ZS6 L D 166;0.156948
4ZS6 L T 163;4ZS6 L T 171;1.42179
4ZS6 L T 163;4ZS6 L Y 172;14.8761
4ZS6 L T 163;4ZS6 L S 173;22.0113
4ZS6 L E 164;4ZS6 L Q 165;30.398
4ZS6 L E 164;4ZS6 L D 166;6.50905
4ZS6 L E 164;4ZS6 L T 171;0.633901
4ZS6 L E 164;4ZS6 L Y 172;0.684542
4ZS6 L Q 165;4ZS6 L D 166;22.7081
4ZS6 L Q 165;4ZS6 L S 167;4.87939
4ZS6 L Q 165;4ZS6 L S 170;17.0193
4ZS6 L Q 165;4ZS6 L T 171;7.80967
4ZS6 L Q 165;4ZS6 L Y 172;29.8735
4ZS6 L D 166;4ZS6 L S 167;23.913
4ZS6 L D 166;4ZS6 L K 168;25.1779
4ZS6 L D 166;4ZS6 L D 169;15.0479
4ZS6 L D 166;4ZS6 L S 170;9.56586
4ZS6 L D 166;4ZS6 L T 171;19.4023
4ZS6 L S 167;4ZS6 L K 168;30.5432
4ZS6 L S 167;4ZS6 L D 169;3.70189
4ZS6 L S 167;4ZS6 L S 170;1.96657
4ZS6 L K 168;4ZS6 L D 169;34.786
4ZS6 L D 169;4ZS6 L S 170;25.2505
4ZS6 L D 169;4ZS6 L T 171;22.4309
4ZS6 L S 170;4ZS6 L T 171;18.1307
4ZS6 L S 170;4ZS6 L Y 172;1.02971
4ZS6 L T 171;4ZS6 L Y 172;25.0144
4ZS6 L T 171;4ZS6 L S 173;0.104774
4ZS6 L Y 172;4ZS6 L S 173;22.5564
4ZS6 L S 173;4ZS6 L L 174;15.3547
4ZS6 L L 174;4ZS6 L S 175;21.2686
4ZS6 L L 174;4ZS6 L S 176;8.24901
4ZS6 L S 175;4ZS6 L S 176;18.1274
4ZS6 L S 175;4ZS6 L T 177;6.07772
4ZS6 L S 176;4ZS6 L T 177;20.3385
4ZS6 L S 176;4ZS6 L L 178;0.000703407
4ZS6 L T 177;4ZS6 L L 178;20.614
4ZS6 L T 177;4ZS6 L T 179;14.6348
4ZS6 L L 178;4ZS6 L T 179;23.4066
4ZS6 L L 178;4ZS6 L L 180;15.7639
4ZS6 L L 178;4ZS6 L Y 191;5.72011
4ZS6 L T 179;4ZS6 L L 180;32.1773
4ZS6 L L 180;4ZS6 L S 181;26.9992
4ZS6 L L 180;4ZS6 L D 184;16.0037
4ZS6 L L 180;4ZS6 L Y 185;16.3151
4ZS6 L L 180;4ZS6 L H 188;2.7536
4ZS6 L L 180;4ZS6 L Y 191;13.1548
4ZS6 L S 181;4ZS6 L K 182;17.0918
4ZS6 L S 181;4ZS6 L A 183;15.5244
4ZS6 L S 181;4ZS6 L D 184;24.4224
4ZS6 L S 181;4ZS6 L Y 185;8.50876
4ZS6 L K 182;4ZS6 L A 183;26.1272
4ZS6 L K 182;4ZS6 L D 184;0.767501
4ZS6 L K 182;4ZS6 L Y 185;7.31337
4ZS6 L K 182;4ZS6 L E 186;41.7007
4ZS6 L A 183;4ZS6 L D 184;21.8229
4ZS6 L A 183;4ZS6 L Y 185;0.428874
4ZS6 L A 183;4ZS6 L E 186;7.74889
4ZS6 L A 183;4ZS6 L K 187;11.587
4ZS6 L D 184;4ZS6 L Y 185;17.7007
4ZS6 L D 184;4ZS6 L E 186;0.98771
4ZS6 L D 184;4ZS6 L K 187;20.5694
4ZS6 L D 184;4ZS6 L H 188;15.7142
4ZS6 L D 184;4ZS6 L Y 191;0.168099
4ZS6 L Y 185;4ZS6 L E 186;25.7493
4ZS6 L Y 185;4ZS6 L K 187;3.10807
4ZS6 L Y 185;4ZS6 L H 188;6.31569
4ZS6 L Y 185;4ZS6 L Y 191;26.5776
4ZS6 L Y 185;4ZS6 L F 208;10.1308
4ZS6 L Y 185;4ZS6 L R 210;31.457
4ZS6 L E 186;4ZS6 L K 187;24.9089
4ZS6 L E 186;4ZS6 L H 188;2.27275
4ZS6 L E 186;4ZS6 L R 210;34.8395
4ZS6 L K 187;4ZS6 L H 188;50.5283
4ZS6 L K 187;4ZS6 L R 210;0.22824
4ZS6 L H 188;4ZS6 L K 189;26.3871
4ZS6 L H 188;4ZS6 L V 190;0.218969
4ZS6 L H 188;4ZS6 L Y 191;16.9235
4ZS6 L H 188;4ZS6 L R 210;12.7589
4ZS6 L K 189;4ZS6 L V 190;28.3167
4ZS6 L K 189;4ZS6 L Y 191;9.36663
4ZS6 L K 189;4ZS6 L F 208;1.59983
4ZS6 L K 189;4ZS6 L N 209;25.0255
4ZS6 L K 189;4ZS6 L R 210;41.4521
4ZS6 L V 190;4ZS6 L Y 191;23.4209
4ZS6 L V 190;4ZS6 L A 192;7.41771
4ZS6 L V 190;4ZS6 L S 207;11.8299
4ZS6 L V 190;4ZS6 L F 208;9.92471
4ZS6 L V 190;4ZS6 L N 209;15.824
4ZS6 L Y 191;4ZS6 L A 192;20.5822
4ZS6 L Y 191;4ZS6 L S 207;3.23637
4ZS6 L Y 191;4ZS6 L F 208;36.1879
4ZS6 L Y 191;4ZS6 L R 210;6.85751
4ZS6 L A 192;4ZS6 L C 193;19.2482
4ZS6 L A 192;4ZS6 L E 194;1.60445
4ZS6 L A 192;4ZS6 L T 205;13.0158
4ZS6 L A 192;4ZS6 L K 206;5.07758
4ZS6 L A 192;4ZS6 L S 207;12.1764
4ZS6 L C 193;4ZS6 L E 194;21.6406
4ZS6 L C 193;4ZS6 L V 195;6.62759
4ZS6 L C 193;4ZS6 L V 204;1.55477
4ZS6 L C 193;4ZS6 L T 205;7.36688
4ZS6 L C 193;4ZS6 L K 206;17.7527
4ZS6 L E 194;4ZS6 L V 195;22.4149
4ZS6 L E 194;4ZS6 L T 196;13.5923
4ZS6 L E 194;4ZS6 L P 203;17.3976
4ZS6 L E 194;4ZS6 L V 204;5.34267
4ZS6 L E 194;4ZS6 L T 205;18.0166
4ZS6 L V 195;4ZS6 L T 196;22.0148
4ZS6 L V 195;4ZS6 L H 197;4.1474
4ZS6 L V 195;4ZS6 L L 200;10.2213
4ZS6 L V 195;4ZS6 L P 203;6.53831
4ZS6 L V 195;4ZS6 L V 204;22.1597
4ZS6 L T 196;4ZS6 L H 197;27.5027
4ZS6 L T 196;4ZS6 L L 200;4.06738
4ZS6 L T 196;4ZS6 L P 203;24.129
4ZS6 L H 197;4ZS6 L Q 198;30.5563
4ZS6 L H 197;4ZS6 L G 199;13.3068
4ZS6 L H 197;4ZS6 L L 200;27.8427
4ZS6 L Q 198;4ZS6 L G 199;21.6801
4ZS6 L Q 198;4ZS6 L L 200;6.94798
4ZS6 L G 199;4ZS6 L L 200;23.8375
4ZS6 L G 199;4ZS6 L S 201;1.10354
4ZS6 L L 200;4ZS6 L S 201;34.1885
4ZS6 L L 200;4ZS6 L S 202;12.2121
4ZS6 L L 200;4ZS6 L P 203;5.0399
4ZS6 L L 200;4ZS6 L V 204;23.4278
4ZS6 L S 201;4ZS6 L S 202;34.238
4ZS6 L S 201;4ZS6 L P 203;6.42673
4ZS6 L S 202;4ZS6 L P 203;37.8861
4ZS6 L S 202;4ZS6 L V 204;7.18281
4ZS6 L P 203;4ZS6 L V 204;21.586
4ZS6 L P 203;4ZS6 L T 205;5.96976
4ZS6 L V 204;4ZS6 L T 205;29.5316
4ZS6 L V 204;4ZS6 L K 206;17.2289
4ZS6 L T 205;4ZS6 L K 206;32.1391
4ZS6 L T 205;4ZS6 L S 207;13.583
4ZS6 L K 206;4ZS6 L S 207;21.6915
4ZS6 L S 207;4ZS6 L F 208;28.1194
4ZS6 L F 208;4ZS6 L N 209;39.8698
4ZS6 L F 208;4ZS6 L R 210;9.19811
4ZS6 L N 209;4ZS6 L R 210;26.6087
