V1;V2;Weight
5CXB B P 433;5CXB B S 434;24.8258
5CXB B P 433;5CXB B P 435;2.0093
5CXB B P 433;5CXB B E 437;12.3907
5CXB B P 433;5CXB B L 438;18.0977
5CXB B P 433;5CXB B T 758;15.0586
5CXB B P 433;5CXB B V 760;25.2977
5CXB B S 434;5CXB B P 435;30.2724
5CXB B S 434;5CXB B D 436;17.3458
5CXB B S 434;5CXB B E 437;27.129
5CXB B S 434;5CXB B L 438;10.711
5CXB B S 434;5CXB B V 760;0.166966
5CXB B P 435;5CXB B D 436;22.4005
5CXB B P 435;5CXB B E 437;0.747757
5CXB B P 435;5CXB B L 438;13.8151
5CXB B P 435;5CXB B K 439;4.98297
5CXB B P 435;5CXB B F 441;18.6068
5CXB B P 435;5CXB B V 760;7.63543
5CXB B P 435;5CXB B P 761;7.79648
5CXB B P 435;5CXB B V 762;22.1113
5CXB B D 436;5CXB B E 437;30.7646
5CXB B D 436;5CXB B L 438;2.61849
5CXB B D 436;5CXB B K 439;35.6179
5CXB B E 437;5CXB B L 438;29.5664
5CXB B E 437;5CXB B K 439;6.06635
5CXB B L 438;5CXB B K 439;24.7831
5CXB B L 438;5CXB B P 440;4.98744
5CXB B L 438;5CXB B F 441;10.9386
5CXB B L 438;5CXB B L 732;3.44072
5CXB B L 438;5CXB B H 746;38.2118
5CXB B L 438;5CXB B T 758;1.28782
5CXB B L 438;5CXB B V 760;13.9498
5CXB B L 438;5CXB B V 762;11.2103
5CXB B K 439;5CXB B P 440;38.1527
5CXB B K 439;5CXB B F 441;21.0034
5CXB B P 440;5CXB B F 441;25.6894
5CXB B P 440;5CXB B L 730;16.9321
5CXB B P 440;5CXB B P 731;1.40007
5CXB B P 440;5CXB B L 732;12.2696
5CXB B P 440;5CXB B P 786;24.4573
5CXB B F 441;5CXB B P 442;29.8688
5CXB B F 441;5CXB B T 443;24.3612
5CXB B F 441;5CXB B L 732;12.3684
5CXB B F 441;5CXB B I 744;4.97003
5CXB B F 441;5CXB B V 762;31.1064
5CXB B F 441;5CXB B K 763;10.11
5CXB B F 441;5CXB B P 786;6.79987
5CXB B F 441;5CXB B M 801;4.84336
5CXB B P 442;5CXB B T 443;19.3908
5CXB B P 442;5CXB B L 732;4.25771
5CXB B P 442;5CXB B I 744;16.8072
5CXB B P 442;5CXB B K 763;6.60707
5CXB B P 442;5CXB B L 765;10.511
5CXB B P 442;5CXB B W 781;11.1722
5CXB B P 442;5CXB B P 786;14.586
5CXB B P 442;5CXB B W 787;1.6903
5CXB B P 442;5CXB B C 788;8.35832
5CXB B P 442;5CXB B W 800;9.63041
5CXB B P 442;5CXB B M 801;14.3001
5CXB B T 443;5CXB B V 444;40.769
5CXB B T 443;5CXB B K 763;28.5444
5CXB B T 443;5CXB B L 765;13.4051
5CXB B T 443;5CXB B W 800;0.263438
5CXB B T 443;5CXB B M 801;10.2316
5CXB B V 444;5CXB B Q 445;26.0865
5CXB B V 444;5CXB B Q 446;19.7791
5CXB B V 444;5CXB B L 765;2.43368
5CXB B V 444;5CXB B W 800;12.6027
5CXB B V 444;5CXB B M 801;17.642
5CXB B Q 445;5CXB B Q 446;25.64
5CXB B Q 445;5CXB B T 447;2.82207
5CXB B Q 445;5CXB B I 448;9.56449
5CXB B Q 445;5CXB B K 766;2.6017
5CXB B Q 445;5CXB B G 767;11.7992
5CXB B Q 445;5CXB B R 798;25.1888
5CXB B Q 445;5CXB B L 799;5.60838
5CXB B Q 445;5CXB B W 800;27.4515
5CXB B Q 446;5CXB B T 447;20.9358
5CXB B Q 446;5CXB B L 799;11.5097
5CXB B Q 446;5CXB B W 800;0.90953
5CXB B Q 446;5CXB B M 801;22.1983
5CXB B T 447;5CXB B I 448;27.7216
5CXB B T 447;5CXB B F 449;13.1616
5CXB B T 447;5CXB B L 482;3.66106
5CXB B T 447;5CXB B L 483;8.79105
5CXB B T 447;5CXB B T 484;3.53224
5CXB B T 447;5CXB B G 485;8.61693
5CXB B T 447;5CXB B R 798;5.79492
5CXB B T 447;5CXB B L 799;25.8095
5CXB B I 448;5CXB B F 449;22.8468
5CXB B I 448;5CXB B R 450;29.6712
5CXB B I 448;5CXB B G 485;7.27684
5CXB B I 448;5CXB B T 796;10.8746
5CXB B I 448;5CXB B A 797;4.8691
5CXB B I 448;5CXB B R 798;20.3312
5CXB B F 449;5CXB B R 450;20.482
5CXB B F 449;5CXB B G 451;0.76816
5CXB B F 449;5CXB B H 452;0.762906
5CXB B F 449;5CXB B V 456;0.636155
5CXB B F 449;5CXB B L 468;19.1956
5CXB B F 449;5CXB B T 470;1.1918
5CXB B F 449;5CXB B W 480;35.5196
5CXB B F 449;5CXB B E 481;3.48972
5CXB B F 449;5CXB B L 482;17.8572
5CXB B F 449;5CXB B G 485;14.364
5CXB B F 449;5CXB B V 789;5.36038
5CXB B F 449;5CXB B G 795;2.93321
5CXB B F 449;5CXB B T 796;7.93845
5CXB B F 449;5CXB B A 797;28.0823
5CXB B F 449;5CXB B R 798;5.3847
5CXB B F 449;5CXB B L 799;10.3477
5CXB B R 450;5CXB B G 451;29.4706
5CXB B R 450;5CXB B W 480;16.4978
5CXB B R 450;5CXB B G 485;2.28906
5CXB B R 450;5CXB B Q 487;2.50437
5CXB B R 450;5CXB B G 795;2.50189
5CXB B R 450;5CXB B T 796;21.1701
5CXB B R 450;5CXB B R 798;6.37876
5CXB B G 451;5CXB B H 452;29.5722
5CXB B G 451;5CXB B E 453;4.30251
5CXB B G 451;5CXB B R 478;20.46
5CXB B G 451;5CXB B W 480;5.41077
5CXB B G 451;5CXB B Q 487;3.49157
5CXB B G 451;5CXB B G 795;2.7485
5CXB B H 452;5CXB B E 453;24.4833
5CXB B H 452;5CXB B G 454;8.53308
5CXB B H 452;5CXB B R 455;2.95189
5CXB B H 452;5CXB B V 456;19.2684
5CXB B H 452;5CXB B T 470;14.9874
5CXB B H 452;5CXB B G 471;4.61591
5CXB B H 452;5CXB B G 472;11.7107
5CXB B H 452;5CXB B D 474;12.2033
5CXB B H 452;5CXB B T 476;10.468
5CXB B H 452;5CXB B R 478;22.8138
5CXB B H 452;5CXB B W 480;10.2693
5CXB B H 452;5CXB B G 795;16.9551
5CXB B E 453;5CXB B G 454;31.8844
5CXB B E 453;5CXB B R 455;0.878609
5CXB B E 453;5CXB B G 472;0.000747234
5CXB B E 453;5CXB B D 473;4.50017
5CXB B E 453;5CXB B D 474;30.5025
5CXB B E 453;5CXB B R 478;1.44413
5CXB B G 454;5CXB B R 455;25.3861
5CXB B G 454;5CXB B V 456;0.650993
5CXB B G 454;5CXB B D 473;7.65727
5CXB B G 454;5CXB B A 793;1.66134
5CXB B G 454;5CXB B G 795;13.7496
5CXB B R 455;5CXB B V 456;20.788
5CXB B R 455;5CXB B R 457;23.3971
5CXB B R 455;5CXB B G 472;5.26813
5CXB B R 455;5CXB B D 473;40.8307
5CXB B R 455;5CXB B V 771;1.05184
5CXB B R 455;5CXB B N 772;8.92539
5CXB B R 455;5CXB B L 774;25.7635
5CXB B R 455;5CXB B L 777;12.8356
5CXB B R 455;5CXB B G 792;0.989026
5CXB B R 455;5CXB B A 793;26.297
5CXB B R 455;5CXB B G 795;2.99466
5CXB B V 456;5CXB B R 457;17.3225
5CXB B V 456;5CXB B S 458;6.7759
5CXB B V 456;5CXB B V 459;2.52716
5CXB B V 456;5CXB B T 470;9.74526
5CXB B V 456;5CXB B G 471;7.29637
5CXB B V 456;5CXB B G 472;2.81229
5CXB B V 456;5CXB B L 777;9.3454
5CXB B V 456;5CXB B A 791;15.9271
5CXB B V 456;5CXB B G 792;16.8211
5CXB B V 456;5CXB B A 793;0.000937237
5CXB B V 456;5CXB B G 795;11.911
5CXB B V 456;5CXB B T 796;9.85224
5CXB B V 456;5CXB B A 797;9.04634
5CXB B R 457;5CXB B S 458;21.5498
5CXB B R 457;5CXB B G 471;7.86241
5CXB B R 457;5CXB B G 472;5.12945
5CXB B R 457;5CXB B D 473;19.0794
5CXB B R 457;5CXB B A 498;18.1978
5CXB B R 457;5CXB B V 499;9.8967
5CXB B R 457;5CXB B N 500;35.0265
5CXB B R 457;5CXB B K 592;10.5444
5CXB B R 457;5CXB B L 777;25.752
5CXB B R 457;5CXB B D 778;7.80266
5CXB B R 457;5CXB B A 791;2.51295
5CXB B S 458;5CXB B V 459;20.1519
5CXB B S 458;5CXB B A 469;0.021917
5CXB B S 458;5CXB B T 470;6.54648
5CXB B S 458;5CXB B G 471;14.3452
5CXB B S 458;5CXB B V 499;0.624464
5CXB B S 458;5CXB B N 500;5.79144
5CXB B S 458;5CXB B T 501;12.4545
5CXB B S 458;5CXB B V 502;15.4438
5CXB B S 458;5CXB B R 503;7.35904
5CXB B S 458;5CXB B D 778;11.6964
5CXB B S 458;5CXB B A 791;6.46107
5CXB B V 459;5CXB B A 460;19.8867
5CXB B V 459;5CXB B L 468;8.78634
5CXB B V 459;5CXB B A 469;4.70637
5CXB B V 459;5CXB B T 470;6.73099
5CXB B V 459;5CXB B V 502;4.27781
5CXB B V 459;5CXB B R 503;7.82659
5CXB B V 459;5CXB B R 724;2.23782
5CXB B V 459;5CXB B D 778;17.873
5CXB B V 459;5CXB B I 779;8.02683
5CXB B V 459;5CXB B D 780;11.1821
5CXB B V 459;5CXB B V 789;14.509
5CXB B V 459;5CXB B S 790;7.14477
5CXB B V 459;5CXB B A 791;12.6945
5CXB B V 459;5CXB B A 797;8.15727
5CXB B A 460;5CXB B I 461;18.4636
5CXB B A 460;5CXB B D 462;0.122144
5CXB B A 460;5CXB B A 467;0.361828
5CXB B A 460;5CXB B L 468;9.67565
5CXB B A 460;5CXB B A 469;16.1469
5CXB B A 460;5CXB B V 502;12.1295
5CXB B A 460;5CXB B R 503;12.9039
5CXB B A 460;5CXB B W 504;18.8082
5CXB B A 460;5CXB B L 513;1.1828
5CXB B A 460;5CXB B D 780;10.9607
5CXB B A 460;5CXB B V 789;0.57289
5CXB B I 461;5CXB B D 462;27.2587
5CXB B I 461;5CXB B P 463;1.80917
5CXB B I 461;5CXB B G 465;9.28746
5CXB B I 461;5CXB B A 467;9.32652
5CXB B I 461;5CXB B L 468;10.0685
5CXB B I 461;5CXB B L 482;18.5497
5CXB B I 461;5CXB B W 504;9.5293
5CXB B I 461;5CXB B D 780;21.4509
5CXB B I 461;5CXB B W 781;9.22176
5CXB B I 461;5CXB B H 782;16.4668
5CXB B I 461;5CXB B P 783;9.40325
5CXB B I 461;5CXB B W 787;1.57674
5CXB B I 461;5CXB B C 788;1.97182
5CXB B I 461;5CXB B V 789;16.925
5CXB B I 461;5CXB B L 799;1.80898
5CXB B D 462;5CXB B P 463;28.0118
5CXB B D 462;5CXB B T 464;16.8262
5CXB B D 462;5CXB B G 465;10.4867
5CXB B D 462;5CXB B V 466;7.73008
5CXB B D 462;5CXB B A 467;21.6166
5CXB B D 462;5CXB B W 504;19.5964
5CXB B D 462;5CXB B F 511;12.0
5CXB B D 462;5CXB B P 783;5.85672
5CXB B P 463;5CXB B T 464;22.3564
5CXB B P 463;5CXB B G 465;0.970207
5CXB B P 463;5CXB B W 504;18.3285
5CXB B P 463;5CXB B R 505;8.60587
5CXB B P 463;5CXB B P 506;14.2131
5CXB B P 463;5CXB B T 507;9.88995
5CXB B P 463;5CXB B K 508;27.6963
5CXB B P 463;5CXB B T 510;3.1038
5CXB B P 463;5CXB B F 511;3.68733
5CXB B P 463;5CXB B P 783;14.5944
5CXB B T 464;5CXB B G 465;19.0414
5CXB B T 464;5CXB B V 466;24.2546
5CXB B T 464;5CXB B K 508;28.0023
5CXB B T 464;5CXB B F 511;6.70466
5CXB B T 464;5CXB B S 530;4.07737
5CXB B T 464;5CXB B H 782;2.16202
5CXB B T 464;5CXB B P 783;4.80362
5CXB B G 465;5CXB B V 466;23.817
5CXB B G 465;5CXB B A 467;0.760129
5CXB B G 465;5CXB B L 482;9.40135
5CXB B G 465;5CXB B H 782;17.191
5CXB B G 465;5CXB B P 783;9.98311
5CXB B G 465;5CXB B W 787;0.38414
5CXB B V 466;5CXB B A 467;23.2719
5CXB B V 466;5CXB B W 480;0.131124
5CXB B V 466;5CXB B E 481;6.54035
5CXB B V 466;5CXB B L 482;18.0587
5CXB B V 466;5CXB B F 511;1.51724
5CXB B V 466;5CXB B H 528;17.2843
5CXB B V 466;5CXB B S 530;4.39371
5CXB B A 467;5CXB B L 468;19.8274
5CXB B A 467;5CXB B A 469;7.37196e-06
5CXB B A 467;5CXB B V 479;8.77807
5CXB B A 467;5CXB B W 480;8.7395
5CXB B A 467;5CXB B E 481;0.438279
5CXB B A 467;5CXB B L 482;5.81764
5CXB B A 467;5CXB B W 504;7.89955
5CXB B A 467;5CXB B F 511;6.12475
5CXB B A 467;5CXB B H 528;12.5944
5CXB B L 468;5CXB B A 469;23.6799
5CXB B L 468;5CXB B T 470;10.1035
5CXB B L 468;5CXB B R 478;0.303529
5CXB B L 468;5CXB B V 479;8.15008
5CXB B L 468;5CXB B W 480;27.6057
5CXB B L 468;5CXB B L 482;14.8912
5CXB B L 468;5CXB B W 504;2.78287
5CXB B L 468;5CXB B V 789;14.9954
5CXB B L 468;5CXB B A 797;6.33729
5CXB B A 469;5CXB B T 470;19.3289
5CXB B A 469;5CXB B V 477;2.31807
5CXB B A 469;5CXB B R 478;4.85154
5CXB B A 469;5CXB B V 479;5.94767
5CXB B A 469;5CXB B W 480;0.808876
5CXB B A 469;5CXB B V 502;11.9271
5CXB B A 469;5CXB B W 504;12.596
5CXB B A 469;5CXB B L 513;12.5051
5CXB B T 470;5CXB B G 471;17.3229
5CXB B T 470;5CXB B T 476;0.72539
5CXB B T 470;5CXB B V 477;8.67666
5CXB B T 470;5CXB B R 478;18.1342
5CXB B T 470;5CXB B W 480;17.5527
5CXB B T 470;5CXB B V 502;8.77819
5CXB B T 470;5CXB B A 797;8.56611
5CXB B G 471;5CXB B G 472;15.8761
5CXB B G 471;5CXB B T 476;3.95951
5CXB B G 471;5CXB B V 477;1.58247
5CXB B G 471;5CXB B V 499;13.4233
5CXB B G 471;5CXB B T 501;0.0178673
5CXB B G 471;5CXB B V 502;8.41489
5CXB B G 472;5CXB B D 473;15.9014
5CXB B G 472;5CXB B D 474;7.49677
5CXB B G 472;5CXB B G 475;5.76822
5CXB B G 472;5CXB B T 476;6.38667
5CXB B G 472;5CXB B A 498;3.76423
5CXB B G 472;5CXB B V 499;15.764
5CXB B D 473;5CXB B D 474;23.3811
5CXB B D 473;5CXB B G 475;4.76944
5CXB B D 473;5CXB B E 497;2.48535
5CXB B D 473;5CXB B A 498;20.9882
5CXB B D 474;5CXB B G 475;19.0461
5CXB B D 474;5CXB B T 476;21.9629
5CXB B D 474;5CXB B R 478;8.28862
5CXB B D 474;5CXB B K 492;19.4116
5CXB B D 474;5CXB B N 494;0.31517
5CXB B D 474;5CXB B G 495;4.10844
5CXB B G 475;5CXB B T 476;17.5401
5CXB B G 475;5CXB B V 477;0.00428618
5CXB B G 475;5CXB B V 491;0.199835
5CXB B G 475;5CXB B K 492;8.69081
5CXB B G 475;5CXB B L 493;8.68823
5CXB B G 475;5CXB B N 494;10.6301
5CXB B G 475;5CXB B G 495;0.475077
5CXB B G 475;5CXB B E 497;10.2838
5CXB B G 475;5CXB B A 498;2.10029
5CXB B G 475;5CXB B V 499;13.2437
5CXB B G 475;5CXB B A 517;0.0123266
5CXB B T 476;5CXB B V 477;21.1172
5CXB B T 476;5CXB B R 478;22.7404
5CXB B T 476;5CXB B S 490;5.62683
5CXB B T 476;5CXB B V 491;9.87626
5CXB B T 476;5CXB B K 492;20.0842
5CXB B T 476;5CXB B L 493;0.0325476
5CXB B T 476;5CXB B V 499;8.23005
5CXB B V 477;5CXB B R 478;23.655
5CXB B V 477;5CXB B V 479;3.46255
5CXB B V 477;5CXB B W 489;8.8802
5CXB B V 477;5CXB B S 490;6.88001
5CXB B V 477;5CXB B V 491;19.6806
5CXB B V 477;5CXB B L 493;12.2263
5CXB B V 477;5CXB B V 499;8.6941
5CXB B V 477;5CXB B V 502;10.1184
5CXB B V 477;5CXB B L 513;11.36
5CXB B V 477;5CXB B A 515;8.5353
5CXB B V 477;5CXB B M 524;10.1529
5CXB B R 478;5CXB B V 479;20.1342
5CXB B R 478;5CXB B W 480;21.5055
5CXB B R 478;5CXB B Q 487;26.7328
5CXB B R 478;5CXB B W 489;5.2275
5CXB B R 478;5CXB B S 490;13.7246
5CXB B V 479;5CXB B W 480;24.6193
5CXB B V 479;5CXB B Q 487;5.44686
5CXB B V 479;5CXB B V 488;12.5832
5CXB B V 479;5CXB B W 489;30.5059
5CXB B V 479;5CXB B W 504;10.9307
5CXB B V 479;5CXB B F 511;2.89784
5CXB B V 479;5CXB B L 513;6.95624
5CXB B V 479;5CXB B P 526;12.943
5CXB B V 479;5CXB B T 527;0.993518
5CXB B V 479;5CXB B H 528;11.097
5CXB B W 480;5CXB B E 481;21.4007
5CXB B W 480;5CXB B L 482;3.40139
5CXB B W 480;5CXB B G 485;12.0424
5CXB B W 480;5CXB B R 486;7.78887
5CXB B W 480;5CXB B Q 487;25.2341
5CXB B W 480;5CXB B V 488;4.85857
5CXB B W 480;5CXB B H 528;1.38968
5CXB B W 480;5CXB B A 797;0.138495
5CXB B E 481;5CXB B L 482;20.1443
5CXB B E 481;5CXB B L 483;5.43172
5CXB B E 481;5CXB B T 484;25.4652
5CXB B E 481;5CXB B G 485;6.21136
5CXB B E 481;5CXB B R 486;17.6377
5CXB B E 481;5CXB B V 488;12.9124
5CXB B E 481;5CXB B H 528;2.97653
5CXB B L 482;5CXB B L 483;33.5565
5CXB B L 482;5CXB B T 484;0.896697
5CXB B L 482;5CXB B G 485;1.59601
5CXB B L 482;5CXB B H 782;8.87695
5CXB B L 482;5CXB B W 787;7.98407
5CXB B L 482;5CXB B V 789;8.57449
5CXB B L 482;5CXB B L 799;19.2448
5CXB B L 483;5CXB B T 484;25.3133
5CXB B L 483;5CXB B G 485;0.450858
5CXB B L 483;5CXB B W 787;17.7523
5CXB B L 483;5CXB B L 799;10.6101
5CXB B L 483;5CXB B M 801;6.40783
5CXB B T 484;5CXB B G 485;17.8056
5CXB B T 484;5CXB B R 486;9.52704
5CXB B G 485;5CXB B R 486;17.8553
5CXB B G 485;5CXB B Q 487;3.61231
5CXB B R 486;5CXB B Q 487;34.7686
5CXB B R 486;5CXB B V 488;11.6909
5CXB B Q 487;5CXB B V 488;24.0023
5CXB B Q 487;5CXB B W 489;11.029
5CXB B Q 487;5CXB B S 490;16.4122
5CXB B V 488;5CXB B W 489;29.2148
5CXB B V 488;5CXB B T 527;12.985
5CXB B V 488;5CXB B H 528;11.9696
5CXB B V 488;5CXB B P 529;10.9886
5CXB B W 489;5CXB B S 490;40.0098
5CXB B W 489;5CXB B V 491;16.2654
5CXB B W 489;5CXB B L 513;1.72338
5CXB B W 489;5CXB B M 524;15.1552
5CXB B W 489;5CXB B I 525;2.3662
5CXB B W 489;5CXB B P 526;21.6743
5CXB B W 489;5CXB B T 527;33.6819
5CXB B W 489;5CXB B E 579;23.6018
5CXB B W 489;5CXB B G 580;1.08927
5CXB B W 489;5CXB B V 581;3.78504
5CXB B S 490;5CXB B V 491;24.9831
5CXB B S 490;5CXB B E 579;8.92928
5CXB B V 491;5CXB B K 492;28.6568
5CXB B V 491;5CXB B L 493;15.6255
5CXB B V 491;5CXB B M 524;5.02797
5CXB B V 491;5CXB B R 575;4.05697
5CXB B V 491;5CXB B L 576;10.1937
5CXB B V 491;5CXB B E 579;21.8633
5CXB B V 491;5CXB B V 581;8.89734
5CXB B K 492;5CXB B L 493;18.2663
5CXB B K 492;5CXB B N 494;8.45831
5CXB B K 492;5CXB B G 495;23.2053
5CXB B K 492;5CXB B R 575;20.6969
5CXB B K 492;5CXB B L 576;3.02455
5CXB B L 493;5CXB B N 494;30.3925
5CXB B L 493;5CXB B V 499;12.0175
5CXB B L 493;5CXB B A 515;9.38392
5CXB B L 493;5CXB B A 516;0.944732
5CXB B L 493;5CXB B A 517;10.1832
5CXB B L 493;5CXB B F 522;31.6036
5CXB B L 493;5CXB B M 524;8.15355
5CXB B L 493;5CXB B R 575;10.0869
5CXB B L 493;5CXB B L 576;18.3742
5CXB B L 493;5CXB B V 581;7.66646
5CXB B L 493;5CXB B R 584;1.61051
5CXB B N 494;5CXB B G 495;26.9647
5CXB B N 494;5CXB B D 496;17.8987
5CXB B N 494;5CXB B E 497;32.2082
5CXB B N 494;5CXB B V 499;0.000429321
5CXB B N 494;5CXB B A 517;6.91867
5CXB B N 494;5CXB B F 522;5.64006
5CXB B N 494;5CXB B R 575;2.0899
5CXB B N 494;5CXB B R 584;1.93794
5CXB B G 495;5CXB B D 496;30.4669
5CXB B G 495;5CXB B E 497;3.23368
5CXB B D 496;5CXB B E 497;34.1145
5CXB B D 496;5CXB B A 498;0.637844
5CXB B E 497;5CXB B A 498;29.3121
5CXB B E 497;5CXB B V 499;1.55243
5CXB B E 497;5CXB B A 517;15.4988
5CXB B E 497;5CXB B G 518;23.2175
5CXB B E 497;5CXB B E 519;1.51551
5CXB B E 497;5CXB B T 590;3.30031
5CXB B A 498;5CXB B V 499;18.2842
5CXB B A 498;5CXB B N 500;13.207
5CXB B A 498;5CXB B A 516;0.0332347
5CXB B A 498;5CXB B A 517;7.71433
5CXB B A 498;5CXB B G 518;3.50656
5CXB B V 499;5CXB B N 500;16.7933
5CXB B V 499;5CXB B T 501;9.18814
5CXB B V 499;5CXB B V 502;6.32232
5CXB B V 499;5CXB B A 515;4.79939
5CXB B V 499;5CXB B A 516;9.85717
5CXB B V 499;5CXB B A 517;10.0751
5CXB B N 500;5CXB B T 501;26.886
5CXB B N 500;5CXB B A 516;11.841
5CXB B N 500;5CXB B A 517;1.68797
5CXB B N 500;5CXB B G 518;9.98615
5CXB B N 500;5CXB B T 590;5.46001
5CXB B N 500;5CXB B I 591;13.8117
5CXB B N 500;5CXB B K 592;27.0863
5CXB B T 501;5CXB B V 502;22.6928
5CXB B T 501;5CXB B R 503;15.8334
5CXB B T 501;5CXB B A 514;0.127929
5CXB B T 501;5CXB B A 515;4.83367
5CXB B T 501;5CXB B A 516;17.2233
5CXB B T 501;5CXB B I 591;3.53401
5CXB B T 501;5CXB B K 592;9.21952
5CXB B T 501;5CXB B A 593;7.55966
5CXB B T 501;5CXB B I 594;20.7642
5CXB B V 502;5CXB B R 503;26.9911
5CXB B V 502;5CXB B L 513;9.45977
5CXB B V 502;5CXB B A 514;6.28197
5CXB B V 502;5CXB B A 515;7.69711
5CXB B V 502;5CXB B I 594;0.634291
5CXB B R 503;5CXB B W 504;21.8141
5CXB B R 503;5CXB B R 505;0.698604
5CXB B R 503;5CXB B L 513;8.04937
5CXB B R 503;5CXB B A 514;18.3262
5CXB B R 503;5CXB B I 594;29.7873
5CXB B R 503;5CXB B S 595;1.66807
5CXB B R 503;5CXB B W 596;16.9684
5CXB B R 503;5CXB B R 724;23.219
5CXB B R 503;5CXB B D 778;15.1594
5CXB B W 504;5CXB B R 505;19.9313
5CXB B W 504;5CXB B P 506;9.84983
5CXB B W 504;5CXB B F 511;23.2371
5CXB B W 504;5CXB B I 512;14.1813
5CXB B W 504;5CXB B L 513;26.5559
5CXB B W 504;5CXB B P 526;8.63812
5CXB B W 504;5CXB B W 596;10.9509
5CXB B R 505;5CXB B P 506;18.7015
5CXB B R 505;5CXB B T 507;30.8637
5CXB B R 505;5CXB B D 509;4.4282
5CXB B R 505;5CXB B T 510;17.6243
5CXB B R 505;5CXB B I 512;31.6022
5CXB B R 505;5CXB B L 513;0.176613
5CXB B R 505;5CXB B A 514;0.284132
5CXB B R 505;5CXB B I 542;26.1763
5CXB B R 505;5CXB B W 596;23.2157
5CXB B R 505;5CXB B R 599;6.95768
5CXB B R 505;5CXB B G 600;20.3218
5CXB B R 505;5CXB B D 601;6.10879
5CXB B R 505;5CXB B L 620;7.70258
5CXB B P 506;5CXB B T 507;26.6219
5CXB B P 506;5CXB B K 508;0.899581
5CXB B P 506;5CXB B W 596;17.9055
5CXB B P 506;5CXB B H 597;6.34122
5CXB B P 506;5CXB B R 598;22.0754
5CXB B P 506;5CXB B G 600;6.47525
5CXB B T 507;5CXB B K 508;23.0362
5CXB B T 507;5CXB B D 509;16.4486
5CXB B T 507;5CXB B T 510;19.5944
5CXB B T 507;5CXB B R 598;5.45234
5CXB B T 507;5CXB B R 599;12.7113
5CXB B T 507;5CXB B G 600;4.95247
5CXB B K 508;5CXB B D 509;25.612
5CXB B K 508;5CXB B T 510;10.2228
5CXB B K 508;5CXB B L 535;8.24951
5CXB B K 508;5CXB B P 783;0.132837
5CXB B D 509;5CXB B T 510;29.9417
5CXB B D 509;5CXB B L 535;13.9587
5CXB B D 509;5CXB B A 538;10.9448
5CXB B D 509;5CXB B I 542;3.6204
5CXB B T 510;5CXB B F 511;25.4903
5CXB B T 510;5CXB B I 512;17.1486
5CXB B T 510;5CXB B L 535;10.1655
5CXB B T 510;5CXB B A 538;6.49017
5CXB B T 510;5CXB B S 539;12.795
5CXB B T 510;5CXB B I 542;12.185
5CXB B F 511;5CXB B I 512;22.9961
5CXB B F 511;5CXB B M 524;1.03002
5CXB B F 511;5CXB B I 525;15.3419
5CXB B F 511;5CXB B P 526;21.1557
5CXB B F 511;5CXB B H 528;19.03
5CXB B F 511;5CXB B S 530;13.3753
5CXB B F 511;5CXB B V 531;13.8415
5CXB B F 511;5CXB B L 535;15.0412
5CXB B F 511;5CXB B S 539;9.87637
5CXB B I 512;5CXB B L 513;22.925
5CXB B I 512;5CXB B A 514;0.0191866
5CXB B I 512;5CXB B L 523;9.27131
5CXB B I 512;5CXB B M 524;9.41413
5CXB B I 512;5CXB B I 525;5.09282
5CXB B I 512;5CXB B P 526;0.334495
5CXB B I 512;5CXB B S 539;12.7251
5CXB B I 512;5CXB B I 542;9.91386
5CXB B I 512;5CXB B L 543;20.4646
5CXB B I 512;5CXB B W 596;7.60092
5CXB B I 512;5CXB B L 620;2.43299
5CXB B L 513;5CXB B A 514;26.5765
5CXB B L 513;5CXB B A 515;2.55531
5CXB B L 513;5CXB B F 522;1.59702
5CXB B L 513;5CXB B L 523;4.96921
5CXB B L 513;5CXB B M 524;30.8665
5CXB B L 513;5CXB B P 526;12.4265
5CXB B L 513;5CXB B W 596;0.0263722
5CXB B A 514;5CXB B A 515;19.3382
5CXB B A 514;5CXB B I 521;5.34672
5CXB B A 514;5CXB B F 522;3.97014
5CXB B A 514;5CXB B L 523;11.5385
5CXB B A 514;5CXB B M 524;0.465955
5CXB B A 514;5CXB B I 594;14.3621
5CXB B A 514;5CXB B W 596;15.1905
5CXB B A 514;5CXB B F 603;2.14122
5CXB B A 515;5CXB B A 516;18.2467
5CXB B A 515;5CXB B A 517;0.292463
5CXB B A 515;5CXB B D 520;0.740124
5CXB B A 515;5CXB B I 521;7.09304
5CXB B A 515;5CXB B F 522;19.6201
5CXB B A 515;5CXB B M 524;9.13461
5CXB B A 515;5CXB B I 594;5.51535
5CXB B A 516;5CXB B A 517;20.9016
5CXB B A 516;5CXB B G 518;0.677576
5CXB B A 516;5CXB B D 520;6.05959
5CXB B A 516;5CXB B I 521;4.9777
5CXB B A 516;5CXB B F 522;0.00227442
5CXB B A 516;5CXB B I 591;17.911
5CXB B A 516;5CXB B I 594;9.28956
5CXB B A 517;5CXB B G 518;21.2662
5CXB B A 517;5CXB B E 519;3.68929
5CXB B A 517;5CXB B D 520;17.4885
5CXB B A 517;5CXB B F 522;13.4844
5CXB B A 517;5CXB B I 591;0.231057
5CXB B G 518;5CXB B E 519;18.8902
5CXB B G 518;5CXB B D 520;1.44568
5CXB B G 518;5CXB B T 590;20.7533
5CXB B G 518;5CXB B I 591;12.6773
5CXB B E 519;5CXB B D 520;25.8429
5CXB B E 519;5CXB B I 521;0.581875
5CXB B E 519;5CXB B I 585;0.859369
5CXB B E 519;5CXB B T 586;11.4268
5CXB B E 519;5CXB B V 587;25.3593
5CXB B E 519;5CXB B R 588;11.8312
5CXB B E 519;5CXB B S 589;12.3721
5CXB B E 519;5CXB B T 590;20.8533
5CXB B E 519;5CXB B I 591;6.77896
5CXB B D 520;5CXB B I 521;19.6444
5CXB B D 520;5CXB B F 522;20.2593
5CXB B D 520;5CXB B R 584;23.4161
5CXB B D 520;5CXB B I 585;6.66657
5CXB B D 520;5CXB B T 586;15.8252
5CXB B D 520;5CXB B I 591;8.97924
5CXB B I 521;5CXB B F 522;22.9015
5CXB B I 521;5CXB B L 523;11.8049
5CXB B I 521;5CXB B L 583;1.56921
5CXB B I 521;5CXB B R 584;5.01358
5CXB B I 521;5CXB B I 585;35.7418
5CXB B I 521;5CXB B V 587;9.89468
5CXB B I 521;5CXB B I 591;13.221
5CXB B I 521;5CXB B I 594;12.3484
5CXB B I 521;5CXB B F 603;12.8331
5CXB B I 521;5CXB B T 605;14.83
5CXB B I 521;5CXB B H 618;5.44677
5CXB B F 522;5CXB B L 523;20.1203
5CXB B F 522;5CXB B M 524;11.9959
5CXB B F 522;5CXB B P 572;3.35463
5CXB B F 522;5CXB B L 576;10.7058
5CXB B F 522;5CXB B V 581;11.8173
5CXB B F 522;5CXB B L 583;6.71518
5CXB B F 522;5CXB B R 584;24.9655
5CXB B L 523;5CXB B M 524;19.4617
5CXB B L 523;5CXB B L 543;18.7632
5CXB B L 523;5CXB B W 569;1.16585
5CXB B L 523;5CXB B V 581;6.78398
5CXB B L 523;5CXB B L 582;6.04542
5CXB B L 523;5CXB B L 583;28.609
5CXB B L 523;5CXB B I 585;8.76612
5CXB B L 523;5CXB B W 596;10.5702
5CXB B L 523;5CXB B F 603;12.4755
5CXB B L 523;5CXB B L 620;11.3903
5CXB B M 524;5CXB B I 525;19.8513
5CXB B M 524;5CXB B P 526;10.9395
5CXB B M 524;5CXB B L 543;5.8041
5CXB B M 524;5CXB B G 580;7.57876
5CXB B M 524;5CXB B V 581;17.8126
5CXB B M 524;5CXB B L 582;1.36807
5CXB B I 525;5CXB B P 526;28.1427
5CXB B I 525;5CXB B T 527;5.71266
5CXB B I 525;5CXB B V 531;12.8039
5CXB B I 525;5CXB B D 536;16.6137
5CXB B I 525;5CXB B S 539;16.8874
5CXB B I 525;5CXB B R 540;15.8469
5CXB B I 525;5CXB B L 543;10.0789
5CXB B I 525;5CXB B E 579;2.09945
5CXB B I 525;5CXB B G 580;20.6856
5CXB B I 525;5CXB B L 582;10.8718
5CXB B P 526;5CXB B T 527;21.4386
5CXB B P 526;5CXB B H 528;6.75126
5CXB B P 526;5CXB B V 531;7.69288
5CXB B T 527;5CXB B H 528;28.8075
5CXB B T 527;5CXB B V 531;2.47218
5CXB B T 527;5CXB B E 579;3.22482
5CXB B H 528;5CXB B P 529;39.448
5CXB B H 528;5CXB B S 530;21.3946
5CXB B H 528;5CXB B V 531;21.9958
5CXB B P 529;5CXB B S 530;18.0452
5CXB B P 529;5CXB B V 531;1.97199
5CXB B S 530;5CXB B V 531;18.3035
5CXB B S 530;5CXB B T 532;10.1373
5CXB B S 530;5CXB B L 535;19.0803
5CXB B V 531;5CXB B T 532;21.1306
5CXB B V 531;5CXB B P 533;0.639708
5CXB B V 531;5CXB B L 535;12.2404
5CXB B V 531;5CXB B D 536;19.6269
5CXB B V 531;5CXB B S 539;0.0904201
5CXB B T 532;5CXB B P 533;26.1524
5CXB B T 532;5CXB B A 534;13.1034
5CXB B T 532;5CXB B L 535;19.5809
5CXB B T 532;5CXB B D 536;9.18458
5CXB B P 533;5CXB B A 534;17.212
5CXB B P 533;5CXB B L 535;0.375821
5CXB B P 533;5CXB B D 536;11.5903
5CXB B P 533;5CXB B Q 537;11.64
5CXB B A 534;5CXB B L 535;20.336
5CXB B A 534;5CXB B D 536;1.01325
5CXB B A 534;5CXB B Q 537;8.76881
5CXB B A 534;5CXB B A 538;12.1396
5CXB B L 535;5CXB B D 536;17.208
5CXB B L 535;5CXB B Q 537;0.608821
5CXB B L 535;5CXB B A 538;11.6578
5CXB B L 535;5CXB B S 539;14.0417
5CXB B D 536;5CXB B Q 537;19.1496
5CXB B D 536;5CXB B A 538;0.825222
5CXB B D 536;5CXB B S 539;7.42014
5CXB B D 536;5CXB B R 540;35.5177
5CXB B Q 537;5CXB B A 538;19.6112
5CXB B Q 537;5CXB B S 539;0.84882
5CXB B Q 537;5CXB B R 540;20.7453
5CXB B Q 537;5CXB B D 541;29.855
5CXB B A 538;5CXB B S 539;17.4284
5CXB B A 538;5CXB B R 540;0.724535
5CXB B A 538;5CXB B D 541;14.7773
5CXB B A 538;5CXB B I 542;12.1895
5CXB B S 539;5CXB B R 540;15.6102
5CXB B S 539;5CXB B D 541;0.957148
5CXB B S 539;5CXB B I 542;7.16937
5CXB B S 539;5CXB B L 543;9.29682
5CXB B R 540;5CXB B D 541;20.022
5CXB B R 540;5CXB B I 542;0.764657
5CXB B R 540;5CXB B L 543;7.13386
5CXB B R 540;5CXB B N 544;22.2405
5CXB B R 540;5CXB B E 577;4.90401
5CXB B R 540;5CXB B G 580;9.37759
5CXB B R 540;5CXB B L 582;32.7459
5CXB B D 541;5CXB B I 542;21.1393
5CXB B D 541;5CXB B L 543;1.15749
5CXB B D 541;5CXB B N 544;9.04692
5CXB B D 541;5CXB B A 545;14.3036
5CXB B I 542;5CXB B L 543;22.1574
5CXB B I 542;5CXB B N 544;0.417586
5CXB B I 542;5CXB B A 545;14.8367
5CXB B I 542;5CXB B G 546;0.245635
5CXB B I 542;5CXB B L 620;22.0809
5CXB B I 542;5CXB B S 621;2.05523
5CXB B I 542;5CXB B H 623;0.000162442
5CXB B L 543;5CXB B N 544;20.9368
5CXB B L 543;5CXB B A 545;2.95846
5CXB B L 543;5CXB B G 546;0.780917
5CXB B L 543;5CXB B F 547;0.10977
5CXB B L 543;5CXB B L 582;20.8483
5CXB B L 543;5CXB B L 583;20.9139
5CXB B L 543;5CXB B L 620;14.0032
5CXB B L 543;5CXB B H 623;10.0382
5CXB B N 544;5CXB B A 545;20.5623
5CXB B N 544;5CXB B G 546;3.16748
5CXB B N 544;5CXB B F 547;35.8142
5CXB B N 544;5CXB B R 571;2.24459
5CXB B N 544;5CXB B L 582;18.7297
5CXB B N 544;5CXB B L 583;2.06723
5CXB B N 544;5CXB B H 623;1.91926
5CXB B A 545;5CXB B G 546;22.2769
5CXB B A 545;5CXB B F 547;7.15699
5CXB B A 545;5CXB B L 620;0.530636
5CXB B A 545;5CXB B S 621;18.7622
5CXB B G 546;5CXB B F 547;29.0975
5CXB B G 546;5CXB B L 620;2.08701
5CXB B G 546;5CXB B S 621;8.98659
5CXB B G 546;5CXB B K 622;6.57435
5CXB B G 546;5CXB B H 623;24.5955
5CXB B F 547;5CXB B W 569;7.87579
5CXB B F 547;5CXB B A 570;5.81897
5CXB B F 547;5CXB B R 571;26.5141
5CXB B F 547;5CXB B L 582;1.26999
5CXB B F 547;5CXB B L 583;13.6158
5CXB B F 547;5CXB B H 623;21.208
5CXB B P 565;5CXB B P 566;31.4806
5CXB B P 565;5CXB B G 567;8.78028
5CXB B P 565;5CXB B K 568;14.0716
5CXB B P 565;5CXB B T 586;2.04725
5CXB B P 565;5CXB B V 587;0.925129
5CXB B P 565;5CXB B R 588;28.7528
5CXB B P 566;5CXB B G 567;25.1937
5CXB B P 566;5CXB B T 586;1.51133
5CXB B P 566;5CXB B V 587;12.4312
5CXB B P 566;5CXB B R 588;22.5215
5CXB B P 566;5CXB B A 616;0.139227
5CXB B P 566;5CXB B T 625;22.3615
5CXB B P 566;5CXB B Q 626;1.539
5CXB B P 566;5CXB B I 627;24.4716
5CXB B G 567;5CXB B K 568;22.0441
5CXB B G 567;5CXB B W 569;11.8795
5CXB B G 567;5CXB B I 585;4.97885
5CXB B G 567;5CXB B T 586;5.52249
5CXB B G 567;5CXB B V 587;3.55157
5CXB B G 567;5CXB B H 618;0.0792358
5CXB B G 567;5CXB B T 625;17.4128
5CXB B K 568;5CXB B W 569;28.0056
5CXB B K 568;5CXB B A 570;22.3233
5CXB B K 568;5CXB B R 584;4.07689
5CXB B K 568;5CXB B I 585;7.46531
5CXB B K 568;5CXB B T 586;34.8271
5CXB B W 569;5CXB B A 570;25.7201
5CXB B W 569;5CXB B L 583;13.964
5CXB B W 569;5CXB B R 584;2.03684
5CXB B W 569;5CXB B I 585;33.0624
5CXB B W 569;5CXB B F 603;6.67731
5CXB B W 569;5CXB B H 618;11.1274
5CXB B W 569;5CXB B T 619;6.40281
5CXB B W 569;5CXB B L 620;13.0151
5CXB B W 569;5CXB B H 623;42.1138
5CXB B W 569;5CXB B L 624;10.47
5CXB B W 569;5CXB B T 625;14.5875
5CXB B A 570;5CXB B R 571;33.6295
5CXB B A 570;5CXB B P 572;0.53378
5CXB B A 570;5CXB B L 583;11.028
5CXB B A 570;5CXB B R 584;28.5528
5CXB B A 570;5CXB B I 585;0.0375429
5CXB B A 570;5CXB B T 586;0.529193
5CXB B R 571;5CXB B P 572;23.9922
5CXB B R 571;5CXB B G 573;8.83134
5CXB B R 571;5CXB B T 574;0.0139159
5CXB B R 571;5CXB B E 577;31.7633
5CXB B R 571;5CXB B L 582;10.3558
5CXB B R 571;5CXB B L 583;1.87352
5CXB B R 571;5CXB B R 584;3.73193
5CXB B P 572;5CXB B G 573;27.809
5CXB B P 572;5CXB B L 576;20.9465
5CXB B P 572;5CXB B E 577;11.2126
5CXB B P 572;5CXB B V 581;15.2138
5CXB B P 572;5CXB B L 582;9.79864
5CXB B P 572;5CXB B L 583;6.90194
5CXB B P 572;5CXB B R 584;31.6764
5CXB B G 573;5CXB B T 574;23.9258
5CXB B G 573;5CXB B R 575;3.27877
5CXB B G 573;5CXB B L 576;6.64137
5CXB B G 573;5CXB B E 577;19.687
5CXB B T 574;5CXB B R 575;26.9971
5CXB B T 574;5CXB B L 576;0.833961
5CXB B T 574;5CXB B E 577;17.4421
5CXB B T 574;5CXB B D 578;27.9654
5CXB B R 575;5CXB B L 576;42.2338
5CXB B R 575;5CXB B E 577;0.518398
5CXB B R 575;5CXB B D 578;12.4382
5CXB B R 575;5CXB B E 579;18.2752
5CXB B L 576;5CXB B E 577;15.4218
5CXB B L 576;5CXB B D 578;1.21441
5CXB B L 576;5CXB B E 579;11.1618
5CXB B L 576;5CXB B G 580;1.86961
5CXB B L 576;5CXB B V 581;27.1425
5CXB B L 576;5CXB B R 584;10.3954
5CXB B E 577;5CXB B D 578;25.8547
5CXB B E 577;5CXB B E 579;1.29708
5CXB B E 577;5CXB B G 580;8.81518
5CXB B E 577;5CXB B V 581;11.1044
5CXB B E 577;5CXB B L 582;11.7547
5CXB B D 578;5CXB B E 579;26.813
5CXB B D 578;5CXB B G 580;4.94314
5CXB B E 579;5CXB B G 580;21.615
5CXB B E 579;5CXB B V 581;5.83674
5CXB B G 580;5CXB B V 581;17.7511
5CXB B G 580;5CXB B L 582;13.51
5CXB B V 581;5CXB B L 582;21.9111
5CXB B V 581;5CXB B L 583;6.18014
5CXB B L 582;5CXB B L 583;28.2254
5CXB B L 583;5CXB B R 584;19.9892
5CXB B L 583;5CXB B I 585;9.25224
5CXB B L 583;5CXB B L 620;6.51588
5CXB B L 583;5CXB B H 623;13.8914
5CXB B R 584;5CXB B I 585;22.9581
5CXB B R 584;5CXB B T 586;14.2249
5CXB B I 585;5CXB B T 586;21.4198
5CXB B I 585;5CXB B V 587;5.7193
5CXB B I 585;5CXB B F 603;10.7714
5CXB B I 585;5CXB B H 618;10.0496
5CXB B I 585;5CXB B T 625;3.39352
5CXB B T 586;5CXB B V 587;31.359
5CXB B V 587;5CXB B R 588;29.7087
5CXB B V 587;5CXB B S 589;9.39878
5CXB B V 587;5CXB B I 591;11.3342
5CXB B V 587;5CXB B T 605;6.20696
5CXB B V 587;5CXB B S 607;6.3024
5CXB B V 587;5CXB B S 613;3.83651
5CXB B V 587;5CXB B A 616;8.11754
5CXB B V 587;5CXB B H 618;7.6289
5CXB B V 587;5CXB B T 625;2.8166
5CXB B V 587;5CXB B I 627;0.720873
5CXB B R 588;5CXB B S 589;29.5743
5CXB B R 588;5CXB B G 610;2.04075
5CXB B R 588;5CXB B S 613;34.8662
5CXB B R 588;5CXB B I 627;7.12769
5CXB B S 589;5CXB B T 590;19.7219
5CXB B S 589;5CXB B I 591;3.34585
5CXB B S 589;5CXB B S 607;19.803
5CXB B S 589;5CXB B S 609;13.3381
5CXB B S 589;5CXB B G 610;17.4431
5CXB B S 589;5CXB B S 613;6.67795
5CXB B S 589;5CXB B S 614;0.343061
5CXB B T 590;5CXB B I 591;20.0965
5CXB B T 590;5CXB B K 592;14.5938
5CXB B T 590;5CXB B S 607;8.37052
5CXB B T 590;5CXB B P 608;6.93659
5CXB B T 590;5CXB B S 609;11.4744
5CXB B I 591;5CXB B K 592;21.3465
5CXB B I 591;5CXB B A 593;10.4282
5CXB B I 591;5CXB B I 594;5.79513
5CXB B I 591;5CXB B T 605;12.9976
5CXB B I 591;5CXB B V 606;7.39887
5CXB B I 591;5CXB B S 607;8.18626
5CXB B K 592;5CXB B A 593;26.5832
5CXB B K 592;5CXB B V 606;6.11152
5CXB B K 592;5CXB B S 607;0.1453
5CXB B K 592;5CXB B P 608;26.1685
5CXB B K 592;5CXB B Q 637;5.87126
5CXB B A 593;5CXB B I 594;27.6387
5CXB B A 593;5CXB B S 595;0.2264
5CXB B A 593;5CXB B A 604;0.291981
5CXB B A 593;5CXB B T 605;5.89906
5CXB B A 593;5CXB B V 606;20.0894
5CXB B A 593;5CXB B Q 637;5.24268
5CXB B A 593;5CXB B T 638;18.9079
5CXB B A 593;5CXB B A 639;2.64057
5CXB B I 594;5CXB B S 595;31.6793
5CXB B I 594;5CXB B W 596;7.42453
5CXB B I 594;5CXB B F 603;10.4432
5CXB B I 594;5CXB B A 604;7.00792
5CXB B I 594;5CXB B T 605;10.4697
5CXB B S 595;5CXB B W 596;28.3824
5CXB B S 595;5CXB B F 603;5.90731
5CXB B S 595;5CXB B A 604;21.8141
5CXB B S 595;5CXB B A 639;15.2267
5CXB B S 595;5CXB B S 640;13.818
5CXB B S 595;5CXB B F 641;14.68
5CXB B S 595;5CXB B F 648;0.336363
5CXB B W 596;5CXB B H 597;22.6928
5CXB B W 596;5CXB B R 598;3.00562
5CXB B W 596;5CXB B G 600;12.5055
5CXB B W 596;5CXB B D 601;1.17271
5CXB B W 596;5CXB B H 602;8.22682
5CXB B W 596;5CXB B F 603;30.3724
5CXB B W 596;5CXB B L 620;11.1778
5CXB B W 596;5CXB B F 641;10.5896
5CXB B H 597;5CXB B R 598;37.0777
5CXB B H 597;5CXB B R 599;29.6007
5CXB B H 597;5CXB B G 600;10.3142
5CXB B H 597;5CXB B D 601;1.53376
5CXB B H 597;5CXB B H 602;32.5182
5CXB B H 597;5CXB B F 603;0.199883
5CXB B H 597;5CXB B F 641;32.7374
5CXB B H 597;5CXB B H 642;5.34113
5CXB B H 597;5CXB B R 645;4.43631
5CXB B H 597;5CXB B P 646;2.83329
5CXB B H 597;5CXB B L 661;4.50015
5CXB B R 598;5CXB B R 599;54.9573
5CXB B R 598;5CXB B G 600;1.88134
5CXB B R 598;5CXB B F 641;1.37577
5CXB B R 598;5CXB B H 642;8.95424
5CXB B R 598;5CXB B P 643;22.5186
5CXB B R 598;5CXB B L 644;23.4306
5CXB B R 598;5CXB B R 645;3.261
5CXB B R 599;5CXB B G 600;16.7384
5CXB B R 599;5CXB B D 601;12.8421
5CXB B R 599;5CXB B H 602;0.0436087
5CXB B G 600;5CXB B D 601;21.4938
5CXB B G 600;5CXB B H 602;2.60674
5CXB B G 600;5CXB B L 620;6.02195
5CXB B D 601;5CXB B H 602;39.552
5CXB B D 601;5CXB B F 603;1.23086
5CXB B D 601;5CXB B H 618;1.07245
5CXB B D 601;5CXB B T 619;11.9933
5CXB B D 601;5CXB B L 620;19.1145
5CXB B D 601;5CXB B S 621;24.9292
5CXB B H 602;5CXB B F 603;19.8591
5CXB B H 602;5CXB B I 617;12.3361
5CXB B H 602;5CXB B H 618;8.09317
5CXB B H 602;5CXB B T 619;24.4214
5CXB B H 602;5CXB B K 622;0.0539976
5CXB B H 602;5CXB B F 641;11.5752
5CXB B F 603;5CXB B A 604;19.205
5CXB B F 603;5CXB B T 605;8.75001
5CXB B F 603;5CXB B I 617;4.8054
5CXB B F 603;5CXB B H 618;40.0079
5CXB B F 603;5CXB B L 620;12.4027
5CXB B F 603;5CXB B F 641;5.35667
5CXB B A 604;5CXB B T 605;23.8055
5CXB B A 604;5CXB B V 606;2.82798
5CXB B A 604;5CXB B V 615;3.00381
5CXB B A 604;5CXB B A 616;6.38586
5CXB B A 604;5CXB B I 617;8.91347
5CXB B A 604;5CXB B H 618;1.49838
5CXB B A 604;5CXB B A 639;5.03113
5CXB B A 604;5CXB B S 640;0.00454674
5CXB B A 604;5CXB B F 641;10.2346
5CXB B A 604;5CXB B F 648;12.726
5CXB B T 605;5CXB B V 606;23.9363
5CXB B T 605;5CXB B S 607;4.12079
5CXB B T 605;5CXB B S 614;3.44979
5CXB B T 605;5CXB B V 615;5.20547
5CXB B T 605;5CXB B A 616;21.305
5CXB B T 605;5CXB B H 618;14.0822
5CXB B V 606;5CXB B S 607;21.8867
5CXB B V 606;5CXB B P 608;7.78181
5CXB B V 606;5CXB B S 614;6.23222
5CXB B V 606;5CXB B V 615;15.1105
5CXB B V 606;5CXB B A 636;14.4349
5CXB B V 606;5CXB B Q 637;9.17508
5CXB B V 606;5CXB B T 638;11.5144
5CXB B V 606;5CXB B A 639;16.0574
5CXB B V 606;5CXB B V 650;1.00774
5CXB B S 607;5CXB B P 608;21.9778
5CXB B S 607;5CXB B S 609;2.11074
5CXB B S 607;5CXB B G 610;9.10957
5CXB B S 607;5CXB B S 613;3.85101
5CXB B S 607;5CXB B S 614;24.1405
5CXB B S 607;5CXB B A 636;0.598927
5CXB B P 608;5CXB B S 609;28.7995
5CXB B P 608;5CXB B G 610;3.74069
5CXB B P 608;5CXB B Q 611;5.10074
5CXB B P 608;5CXB B S 614;3.03642
5CXB B P 608;5CXB B L 635;16.4642
5CXB B P 608;5CXB B A 636;18.2695
5CXB B P 608;5CXB B Q 637;19.4013
5CXB B S 609;5CXB B G 610;18.3473
5CXB B S 609;5CXB B Q 611;12.4176
5CXB B S 609;5CXB B L 635;0.343639
5CXB B G 610;5CXB B Q 611;21.2988
5CXB B G 610;5CXB B R 612;6.67173
5CXB B G 610;5CXB B S 613;10.0339
5CXB B G 610;5CXB B S 614;7.88991
5CXB B Q 611;5CXB B R 612;39.4409
5CXB B Q 611;5CXB B S 614;13.8465
5CXB B Q 611;5CXB B G 634;0.0722908
5CXB B Q 611;5CXB B L 635;6.17457
5CXB B R 612;5CXB B S 613;28.1063
5CXB B R 612;5CXB B S 614;7.71945
5CXB B R 612;5CXB B I 627;6.33027
5CXB B R 612;5CXB B R 630;51.0781
5CXB B R 612;5CXB B K 631;6.70453
5CXB B R 612;5CXB B L 632;0.166175
5CXB B S 613;5CXB B S 614;23.76
5CXB B S 613;5CXB B V 615;3.82298
5CXB B S 613;5CXB B A 616;4.43998
5CXB B S 613;5CXB B I 627;26.8912
5CXB B S 614;5CXB B V 615;28.36
5CXB B S 614;5CXB B A 616;1.94323
5CXB B S 614;5CXB B I 627;0.347594
5CXB B S 614;5CXB B L 632;8.18566
5CXB B S 614;5CXB B A 636;14.6953
5CXB B V 615;5CXB B A 616;24.0396
5CXB B V 615;5CXB B I 617;7.41104
5CXB B V 615;5CXB B I 627;14.2717
5CXB B V 615;5CXB B P 628;10.808
5CXB B V 615;5CXB B F 629;13.9601
5CXB B V 615;5CXB B L 632;8.80401
5CXB B V 615;5CXB B A 636;8.06964
5CXB B V 615;5CXB B A 639;3.50167
5CXB B V 615;5CXB B F 648;11.0633
5CXB B V 615;5CXB B V 650;16.3314
5CXB B A 616;5CXB B I 617;20.5566
5CXB B A 616;5CXB B H 618;10.9423
5CXB B A 616;5CXB B T 625;9.03825
5CXB B A 616;5CXB B Q 626;3.90773
5CXB B A 616;5CXB B I 627;13.2675
5CXB B A 616;5CXB B P 628;0.550727
5CXB B I 617;5CXB B H 618;24.2552
5CXB B I 617;5CXB B T 619;5.42357
5CXB B I 617;5CXB B L 624;2.44393
5CXB B I 617;5CXB B T 625;4.81466
5CXB B I 617;5CXB B Q 626;24.7919
5CXB B I 617;5CXB B P 628;23.1206
5CXB B I 617;5CXB B F 629;3.48802
5CXB B I 617;5CXB B F 641;14.6535
5CXB B I 617;5CXB B F 648;15.9611
5CXB B I 617;5CXB B L 661;13.7697
5CXB B H 618;5CXB B T 619;18.2429
5CXB B H 618;5CXB B L 620;2.05216
5CXB B H 618;5CXB B L 624;3.68575
5CXB B H 618;5CXB B T 625;18.6221
5CXB B T 619;5CXB B L 620;16.1783
5CXB B T 619;5CXB B S 621;8.59811
5CXB B T 619;5CXB B K 622;25.7724
5CXB B T 619;5CXB B H 623;4.79557
5CXB B T 619;5CXB B L 624;27.3994
5CXB B T 619;5CXB B Q 626;3.07388
5CXB B L 620;5CXB B S 621;21.3104
5CXB B L 620;5CXB B K 622;1.27928
5CXB B L 620;5CXB B H 623;14.7742
5CXB B S 621;5CXB B K 622;32.9221
5CXB B S 621;5CXB B H 623;1.18938
5CXB B K 622;5CXB B H 623;24.4597
5CXB B K 622;5CXB B L 624;30.6099
5CXB B K 622;5CXB B Q 626;0.0428269
5CXB B H 623;5CXB B L 624;19.0444
5CXB B L 624;5CXB B T 625;25.8711
5CXB B L 624;5CXB B Q 626;31.9918
5CXB B T 625;5CXB B Q 626;26.3942
5CXB B T 625;5CXB B I 627;4.31215
5CXB B Q 626;5CXB B I 627;24.8284
5CXB B Q 626;5CXB B P 628;17.9629
5CXB B I 627;5CXB B P 628;28.0326
5CXB B I 627;5CXB B F 629;0.357644
5CXB B I 627;5CXB B R 630;29.1545
5CXB B P 628;5CXB B F 629;40.291
5CXB B P 628;5CXB B R 630;14.9882
5CXB B P 628;5CXB B L 661;1.71725
5CXB B P 628;5CXB B L 664;2.22523
5CXB B P 628;5CXB B E 665;8.82872
5CXB B F 629;5CXB B R 630;24.6084
5CXB B F 629;5CXB B K 631;17.7961
5CXB B F 629;5CXB B L 632;17.0758
5CXB B F 629;5CXB B F 648;11.0053
5CXB B F 629;5CXB B V 650;5.86065
5CXB B F 629;5CXB B R 657;0.322571
5CXB B F 629;5CXB B Y 659;37.4247
5CXB B F 629;5CXB B D 660;3.34063
5CXB B F 629;5CXB B L 661;8.98817
5CXB B F 629;5CXB B E 665;39.8842
5CXB B F 629;5CXB B L 666;0.0878688
5CXB B R 630;5CXB B K 631;26.1316
5CXB B R 630;5CXB B L 632;10.5863
5CXB B K 631;5CXB B L 632;30.4398
5CXB B K 631;5CXB B R 657;12.2243
5CXB B K 631;5CXB B Y 659;0.152398
5CXB B K 631;5CXB B E 665;8.82861
5CXB B L 632;5CXB B N 633;31.8482
5CXB B L 632;5CXB B G 634;15.078
5CXB B L 632;5CXB B A 636;9.02506
5CXB B L 632;5CXB B V 650;15.648
5CXB B L 632;5CXB B T 652;9.89331
5CXB B L 632;5CXB B R 657;16.5827
5CXB B L 632;5CXB B Y 659;11.6844
5CXB B N 633;5CXB B G 634;30.6919
5CXB B N 633;5CXB B T 652;9.70161
5CXB B N 633;5CXB B S 655;11.2804
5CXB B N 633;5CXB B R 657;30.3017
5CXB B N 633;5CXB B I 669;4.3414
5CXB B G 634;5CXB B L 635;32.3194
5CXB B G 634;5CXB B A 636;4.36639
5CXB B G 634;5CXB B T 652;14.9948
5CXB B G 634;5CXB B Q 653;0.581723
5CXB B L 635;5CXB B A 636;21.256
5CXB B L 635;5CXB B Q 637;17.5253
5CXB B L 635;5CXB B T 652;9.59898
5CXB B L 635;5CXB B Q 653;30.3588
5CXB B L 635;5CXB B W 676;5.13922
5CXB B A 636;5CXB B Q 637;22.8429
5CXB B A 636;5CXB B T 638;0.48946
5CXB B A 636;5CXB B V 650;7.82228
5CXB B A 636;5CXB B A 651;3.90643
5CXB B A 636;5CXB B T 652;5.17075
5CXB B Q 637;5CXB B T 638;28.8494
5CXB B Q 637;5CXB B A 651;12.5729
5CXB B Q 637;5CXB B T 652;6.58024
5CXB B Q 637;5CXB B Q 653;10.795
5CXB B Q 637;5CXB B W 676;21.1324
5CXB B Q 637;5CXB B I 677;15.0825
5CXB B Q 637;5CXB B S 678;6.2208
5CXB B Q 637;5CXB B Y 694;5.43414
5CXB B T 638;5CXB B A 639;28.9234
5CXB B T 638;5CXB B V 650;4.55123
5CXB B T 638;5CXB B A 651;21.0389
5CXB B T 638;5CXB B I 677;1.41776
5CXB B T 638;5CXB B S 678;7.35908
5CXB B T 638;5CXB B S 679;10.7661
5CXB B T 638;5CXB B F 680;17.9549
5CXB B A 639;5CXB B S 640;22.5124
5CXB B A 639;5CXB B F 648;10.4624
5CXB B A 639;5CXB B F 649;6.66267
5CXB B A 639;5CXB B V 650;9.32703
5CXB B A 639;5CXB B A 651;0.0291708
5CXB B A 639;5CXB B F 680;8.74104
5CXB B S 640;5CXB B F 641;30.292
5CXB B S 640;5CXB B F 648;11.832
5CXB B S 640;5CXB B F 649;20.3665
5CXB B S 640;5CXB B F 680;14.6919
5CXB B S 640;5CXB B D 681;6.92101
5CXB B S 640;5CXB B V 682;11.8867
5CXB B F 641;5CXB B H 642;28.5728
5CXB B F 641;5CXB B P 643;3.86939
5CXB B F 641;5CXB B L 647;6.53786
5CXB B F 641;5CXB B F 648;22.7274
5CXB B F 641;5CXB B F 649;3.55647
5CXB B F 641;5CXB B L 661;16.164
5CXB B F 641;5CXB B V 682;5.65067
5CXB B H 642;5CXB B P 643;31.1594
5CXB B H 642;5CXB B L 644;14.8911
5CXB B H 642;5CXB B R 645;37.694
5CXB B H 642;5CXB B L 647;30.1751
5CXB B H 642;5CXB B F 648;0.170267
5CXB B H 642;5CXB B F 649;17.6971
5CXB B H 642;5CXB B V 682;4.06982
5CXB B H 642;5CXB B G 685;0.652485
5CXB B H 642;5CXB B G 686;22.6097
5CXB B H 642;5CXB B L 703;0.0521485
5CXB B P 643;5CXB B L 644;31.2569
5CXB B P 643;5CXB B V 682;16.4663
5CXB B P 643;5CXB B H 683;4.92292
5CXB B P 643;5CXB B P 684;18.1782
5CXB B P 643;5CXB B G 685;0.038525
5CXB B P 643;5CXB B G 686;7.54331
5CXB B L 644;5CXB B R 645;36.8224
5CXB B L 644;5CXB B P 646;0.230507
5CXB B L 644;5CXB B P 684;11.1396
5CXB B L 644;5CXB B G 685;17.6797
5CXB B L 644;5CXB B G 686;1.15575
5CXB B R 645;5CXB B P 646;35.6614
5CXB B R 645;5CXB B L 647;40.8893
5CXB B R 645;5CXB B L 661;0.00325611
5CXB B R 645;5CXB B V 667;1.91435
5CXB B R 645;5CXB B G 686;1.35172
5CXB B R 645;5CXB B D 687;8.02263
5CXB B P 646;5CXB B L 647;22.351
5CXB B P 646;5CXB B D 660;8.66863
5CXB B P 646;5CXB B L 661;25.8385
5CXB B P 646;5CXB B Q 662;30.4831
5CXB B L 647;5CXB B F 648;20.2831
5CXB B L 647;5CXB B F 649;8.88082
5CXB B L 647;5CXB B C 658;15.7363
5CXB B L 647;5CXB B Y 659;11.184
5CXB B L 647;5CXB B D 660;17.499
5CXB B L 647;5CXB B L 661;9.71181
5CXB B L 647;5CXB B V 667;12.3522
5CXB B L 647;5CXB B L 703;0.217794
5CXB B F 648;5CXB B F 649;28.0361
5CXB B F 648;5CXB B V 650;12.7884
5CXB B F 648;5CXB B R 657;1.40521
5CXB B F 648;5CXB B C 658;4.0652
5CXB B F 648;5CXB B Y 659;27.3822
5CXB B F 648;5CXB B L 661;17.5688
5CXB B F 649;5CXB B V 650;19.6787
5CXB B F 649;5CXB B I 656;11.7055
5CXB B F 649;5CXB B R 657;4.81094
5CXB B F 649;5CXB B C 658;25.159
5CXB B F 649;5CXB B K 668;0.00011019
5CXB B F 649;5CXB B V 670;3.83483
5CXB B F 649;5CXB B F 680;15.0587
5CXB B F 649;5CXB B V 682;15.6549
5CXB B F 649;5CXB B G 686;0.769651
5CXB B F 649;5CXB B L 689;14.8076
5CXB B F 649;5CXB B L 703;15.402
5CXB B V 650;5CXB B A 651;23.0134
5CXB B V 650;5CXB B T 652;10.0906
5CXB B V 650;5CXB B S 655;0.666687
5CXB B V 650;5CXB B I 656;8.79723
5CXB B V 650;5CXB B R 657;19.9677
5CXB B V 650;5CXB B Y 659;14.3092
5CXB B V 650;5CXB B F 680;0.614405
5CXB B A 651;5CXB B T 652;21.5214
5CXB B A 651;5CXB B S 655;2.6551
5CXB B A 651;5CXB B I 656;12.8431
5CXB B A 651;5CXB B I 677;10.5343
5CXB B A 651;5CXB B F 680;13.2524
5CXB B T 652;5CXB B Q 653;19.0755
5CXB B T 652;5CXB B R 654;7.87445
5CXB B T 652;5CXB B S 655;27.0117
5CXB B T 652;5CXB B R 657;10.4689
5CXB B T 652;5CXB B I 677;9.90063
5CXB B Q 653;5CXB B R 654;40.989
5CXB B Q 653;5CXB B A 674;1.43457
5CXB B Q 653;5CXB B K 675;9.7391
5CXB B Q 653;5CXB B W 676;41.2443
5CXB B Q 653;5CXB B I 677;12.0534
5CXB B R 654;5CXB B S 655;21.1105
5CXB B R 654;5CXB B Q 671;10.4002
5CXB B R 654;5CXB B P 672;5.16558
5CXB B R 654;5CXB B G 673;4.98387
5CXB B R 654;5CXB B A 674;16.4498
5CXB B R 654;5CXB B K 675;32.1751
5CXB B R 654;5CXB B I 677;8.76525
5CXB B S 655;5CXB B I 656;20.4576
5CXB B S 655;5CXB B R 657;7.08574
5CXB B S 655;5CXB B I 669;8.14079
5CXB B S 655;5CXB B V 670;5.60161
5CXB B S 655;5CXB B Q 671;14.4112
5CXB B S 655;5CXB B P 672;4.38479
5CXB B S 655;5CXB B I 677;8.7261
5CXB B I 656;5CXB B R 657;22.0926
5CXB B I 656;5CXB B C 658;3.06129
5CXB B I 656;5CXB B I 669;4.17478
5CXB B I 656;5CXB B V 670;31.7054
5CXB B I 656;5CXB B P 672;9.43306
5CXB B I 656;5CXB B I 677;8.55083
5CXB B I 656;5CXB B F 680;18.5823
5CXB B I 656;5CXB B L 689;13.3174
5CXB B I 656;5CXB B V 691;12.8849
5CXB B R 657;5CXB B C 658;18.5188
5CXB B R 657;5CXB B Y 659;33.8297
5CXB B R 657;5CXB B L 666;18.6974
5CXB B R 657;5CXB B K 668;2.66977
5CXB B R 657;5CXB B I 669;27.9898
5CXB B C 658;5CXB B Y 659;25.6399
5CXB B C 658;5CXB B L 666;4.07046
5CXB B C 658;5CXB B V 667;16.2162
5CXB B C 658;5CXB B K 668;33.1712
5CXB B C 658;5CXB B I 669;0.0554567
5CXB B C 658;5CXB B V 670;6.18969
5CXB B C 658;5CXB B L 703;1.72826
5CXB B Y 659;5CXB B D 660;22.2023
5CXB B Y 659;5CXB B L 661;0.888472
5CXB B Y 659;5CXB B E 665;0.849466
5CXB B Y 659;5CXB B L 666;26.5838
5CXB B Y 659;5CXB B V 667;5.14927
5CXB B Y 659;5CXB B K 668;0.0145625
5CXB B D 660;5CXB B L 661;26.3711
5CXB B D 660;5CXB B Q 662;15.0528
5CXB B D 660;5CXB B K 663;27.8734
5CXB B D 660;5CXB B L 664;7.10184
5CXB B D 660;5CXB B E 665;15.4746
5CXB B D 660;5CXB B L 666;7.77705
5CXB B D 660;5CXB B V 667;10.8035
5CXB B L 661;5CXB B Q 662;26.8219
5CXB B L 661;5CXB B K 663;5.82371
5CXB B L 661;5CXB B L 664;8.90985
5CXB B L 661;5CXB B E 665;0.105165
5CXB B Q 662;5CXB B K 663;41.8202
5CXB B Q 662;5CXB B L 664;0.810018
5CXB B K 663;5CXB B L 664;38.0405
5CXB B L 664;5CXB B E 665;61.4969
5CXB B E 665;5CXB B L 666;37.7187
5CXB B L 666;5CXB B V 667;31.7257
5CXB B L 666;5CXB B K 668;10.3355
5CXB B L 666;5CXB B I 669;16.5141
5CXB B V 667;5CXB B K 668;38.8223
5CXB B K 668;5CXB B I 669;32.1492
5CXB B K 668;5CXB B V 670;6.55579
5CXB B K 668;5CXB B L 703;32.3866
5CXB B K 668;5CXB B D 704;8.68644
5CXB B K 668;5CXB B N 707;17.4196
5CXB B I 669;5CXB B V 670;27.6593
5CXB B I 669;5CXB B Q 671;16.1461
5CXB B I 669;5CXB B N 707;21.1775
5CXB B V 670;5CXB B Q 671;20.2115
5CXB B V 670;5CXB B P 672;10.7477
5CXB B V 670;5CXB B L 689;8.94506
5CXB B V 670;5CXB B V 691;0.789115
5CXB B V 670;5CXB B H 701;18.1863
5CXB B V 670;5CXB B L 703;14.689
5CXB B V 670;5CXB B S 706;0.0138509
5CXB B V 670;5CXB B N 707;14.3269
5CXB B Q 671;5CXB B P 672;18.2526
5CXB B Q 671;5CXB B G 673;13.0319
5CXB B Q 671;5CXB B H 701;3.84874
5CXB B Q 671;5CXB B N 707;15.7794
5CXB B Q 671;5CXB B R 708;23.6779
5CXB B Q 671;5CXB B P 709;4.5347
5CXB B P 672;5CXB B G 673;23.1453
5CXB B P 672;5CXB B A 674;9.15292
5CXB B P 672;5CXB B I 677;12.5245
5CXB B P 672;5CXB B V 691;13.0192
5CXB B P 672;5CXB B R 697;2.66604
5CXB B P 672;5CXB B L 699;19.4688
5CXB B P 672;5CXB B H 701;12.7889
5CXB B P 672;5CXB B P 709;14.1084
5CXB B G 673;5CXB B A 674;25.88
5CXB B G 673;5CXB B K 675;2.44571
5CXB B G 673;5CXB B R 697;13.1505
5CXB B G 673;5CXB B R 708;0.27621
5CXB B G 673;5CXB B P 709;0.744247
5CXB B A 674;5CXB B K 675;21.2281
5CXB B A 674;5CXB B W 676;5.63198
5CXB B A 674;5CXB B I 677;11.3594
5CXB B A 674;5CXB B V 691;0.603212
5CXB B A 674;5CXB B S 693;12.8567
5CXB B A 674;5CXB B D 695;7.62497
5CXB B A 674;5CXB B R 697;10.7769
5CXB B A 674;5CXB B L 699;9.88928
5CXB B K 675;5CXB B W 676;20.838
5CXB B K 675;5CXB B D 695;24.4984
5CXB B K 675;5CXB B R 697;3.90983
5CXB B W 676;5CXB B I 677;24.6283
5CXB B W 676;5CXB B S 678;0.655829
5CXB B W 676;5CXB B S 693;6.58499
5CXB B W 676;5CXB B Y 694;38.8182
5CXB B W 676;5CXB B D 695;14.4072
5CXB B I 677;5CXB B S 678;18.6623
5CXB B I 677;5CXB B S 679;10.5972
5CXB B I 677;5CXB B F 680;2.0979
5CXB B I 677;5CXB B V 691;13.6804
5CXB B I 677;5CXB B G 692;6.11074
5CXB B I 677;5CXB B S 693;4.42616
5CXB B I 677;5CXB B Y 694;4.83503
5CXB B S 678;5CXB B S 679;28.918
5CXB B S 678;5CXB B G 692;8.44656
5CXB B S 678;5CXB B S 693;7.78484
5CXB B S 678;5CXB B Y 694;27.887
5CXB B S 678;5CXB B I 720;11.7752
5CXB B S 678;5CXB B R 721;14.2317
5CXB B S 678;5CXB B A 722;0.00800744
5CXB B S 679;5CXB B F 680;24.1598
5CXB B S 679;5CXB B V 691;4.69484
5CXB B S 679;5CXB B G 692;14.4479
5CXB B S 679;5CXB B I 720;1.59778
5CXB B S 679;5CXB B R 721;7.55879
5CXB B S 679;5CXB B A 722;10.6243
5CXB B S 679;5CXB B V 723;14.9168
5CXB B F 680;5CXB B D 681;29.9568
5CXB B F 680;5CXB B V 682;8.7586
5CXB B F 680;5CXB B L 689;12.447
5CXB B F 680;5CXB B V 690;6.49148
5CXB B F 680;5CXB B V 691;10.0805
5CXB B F 680;5CXB B G 692;0.0123374
5CXB B F 680;5CXB B V 723;12.9064
5CXB B D 681;5CXB B V 682;27.6665
5CXB B D 681;5CXB B H 683;0.0480497
5CXB B D 681;5CXB B L 689;7.43414
5CXB B D 681;5CXB B V 690;13.8793
5CXB B D 681;5CXB B V 723;12.359
5CXB B D 681;5CXB B R 724;18.8118
5CXB B D 681;5CXB B F 725;22.0184
5CXB B D 681;5CXB B K 727;15.428
5CXB B V 682;5CXB B H 683;23.8014
5CXB B V 682;5CXB B P 684;2.931
5CXB B V 682;5CXB B G 686;8.98243
5CXB B V 682;5CXB B N 688;5.2866
5CXB B V 682;5CXB B L 689;16.3366
5CXB B V 682;5CXB B L 703;0.137854
5CXB B V 682;5CXB B F 725;5.54682
5CXB B V 682;5CXB B K 727;11.6047
5CXB B H 683;5CXB B P 684;33.0007
5CXB B H 683;5CXB B G 685;20.2753
5CXB B H 683;5CXB B G 686;9.72515
5CXB B H 683;5CXB B D 687;1.25163
5CXB B H 683;5CXB B N 688;24.8279
5CXB B H 683;5CXB B L 689;0.0486717
5CXB B H 683;5CXB B W 700;4.91621
5CXB B H 683;5CXB B F 725;27.9668
5CXB B H 683;5CXB B P 731;0.042799
5CXB B H 683;5CXB B G 747;6.83995
5CXB B H 683;5CXB B V 749;25.7752
5CXB B P 684;5CXB B G 685;20.8126
5CXB B P 684;5CXB B G 686;1.79966
5CXB B P 684;5CXB B F 725;6.97471
5CXB B P 684;5CXB B H 726;10.5479
5CXB B P 684;5CXB B K 727;29.5532
5CXB B P 684;5CXB B G 729;3.60172
5CXB B G 685;5CXB B G 686;18.5249
5CXB B G 685;5CXB B D 687;17.5721
5CXB B G 685;5CXB B N 688;0.155055
5CXB B G 685;5CXB B V 749;0.811267
5CXB B G 686;5CXB B D 687;25.2627
5CXB B G 686;5CXB B N 688;3.07361
5CXB B G 686;5CXB B L 689;0.0893228
5CXB B G 686;5CXB B L 703;10.5445
5CXB B D 687;5CXB B N 688;34.3953
5CXB B D 687;5CXB B H 701;0.00121973
5CXB B D 687;5CXB B D 702;8.17835
5CXB B D 687;5CXB B L 703;18.6018
5CXB B D 687;5CXB B D 704;22.8259
5CXB B D 687;5CXB B V 749;2.39951
5CXB B N 688;5CXB B L 689;24.135
5CXB B N 688;5CXB B W 700;19.361
5CXB B N 688;5CXB B H 701;6.57308
5CXB B N 688;5CXB B D 702;14.1657
5CXB B N 688;5CXB B L 703;5.51882
5CXB B N 688;5CXB B F 725;3.98796
5CXB B N 688;5CXB B V 749;17.7535
5CXB B N 688;5CXB B P 757;6.70304
5CXB B L 689;5CXB B V 690;20.2621
5CXB B L 689;5CXB B V 691;9.74918
5CXB B L 689;5CXB B L 699;1.13877
5CXB B L 689;5CXB B W 700;7.42234
5CXB B L 689;5CXB B H 701;23.2083
5CXB B L 689;5CXB B L 703;19.7882
5CXB B L 689;5CXB B F 725;5.3143
5CXB B V 690;5CXB B V 691;20.7419
5CXB B V 690;5CXB B L 698;13.9861
5CXB B V 690;5CXB B L 699;8.95455
5CXB B V 690;5CXB B W 700;14.3696
5CXB B V 690;5CXB B M 713;1.67399
5CXB B V 690;5CXB B V 723;18.3292
5CXB B V 690;5CXB B R 724;1.71127
5CXB B V 690;5CXB B F 725;18.6889
5CXB B V 690;5CXB B F 733;21.1844
5CXB B V 690;5CXB B A 734;0.348394
5CXB B V 691;5CXB B G 692;22.892
5CXB B V 691;5CXB B S 693;0.568816
5CXB B V 691;5CXB B R 697;2.46462
5CXB B V 691;5CXB B L 698;7.45257
5CXB B V 691;5CXB B L 699;29.1437
5CXB B V 691;5CXB B H 701;10.4549
5CXB B V 691;5CXB B V 723;1.56231
5CXB B G 692;5CXB B S 693;18.6917
5CXB B G 692;5CXB B R 697;2.99155
5CXB B G 692;5CXB B L 698;4.75833
5CXB B G 692;5CXB B L 699;0.212
5CXB B G 692;5CXB B I 720;8.40162
5CXB B G 692;5CXB B V 723;9.30157
5CXB B S 693;5CXB B Y 694;14.8241
5CXB B S 693;5CXB B D 695;14.2844
5CXB B S 693;5CXB B K 696;6.47167
5CXB B S 693;5CXB B R 697;20.4512
5CXB B S 693;5CXB B L 699;2.63144
5CXB B S 693;5CXB B A 719;0.366578
5CXB B S 693;5CXB B I 720;17.6216
5CXB B Y 694;5CXB B D 695;23.0595
5CXB B Y 694;5CXB B K 696;11.9232
5CXB B Y 694;5CXB B A 719;27.2378
5CXB B Y 694;5CXB B I 720;5.74529
5CXB B Y 694;5CXB B R 721;29.9273
5CXB B D 695;5CXB B K 696;27.9758
5CXB B D 695;5CXB B R 697;21.6748
5CXB B K 696;5CXB B R 697;19.5339
5CXB B K 696;5CXB B L 698;0.00199675
5CXB B K 696;5CXB B M 713;0.645891
5CXB B K 696;5CXB B R 714;12.6201
5CXB B K 696;5CXB B F 715;1.63728
5CXB B K 696;5CXB B H 716;21.1213
5CXB B K 696;5CXB B T 717;16.4242
5CXB B K 696;5CXB B E 718;24.0451
5CXB B K 696;5CXB B A 719;8.74218
5CXB B K 696;5CXB B I 720;12.8244
5CXB B R 697;5CXB B L 698;20.3429
5CXB B R 697;5CXB B L 699;24.1035
5CXB B R 697;5CXB B T 712;15.3746
5CXB B R 697;5CXB B M 713;5.28357
5CXB B R 697;5CXB B R 714;33.8962
5CXB B R 697;5CXB B I 720;8.53964
5CXB B L 698;5CXB B L 699;22.2339
5CXB B L 698;5CXB B K 711;0.927889
5CXB B L 698;5CXB B T 712;3.05311
5CXB B L 698;5CXB B M 713;41.8403
5CXB B L 698;5CXB B F 715;0.145602
5CXB B L 698;5CXB B I 720;14.6176
5CXB B L 698;5CXB B V 723;8.4443
5CXB B L 698;5CXB B F 733;10.2735
5CXB B L 698;5CXB B A 734;0.638088
5CXB B L 698;5CXB B D 735;19.7177
5CXB B L 698;5CXB B F 745;12.2411
5CXB B L 699;5CXB B W 700;18.8709
5CXB B L 699;5CXB B H 701;9.32776
5CXB B L 699;5CXB B P 709;16.0438
5CXB B L 699;5CXB B K 711;4.70089
5CXB B L 699;5CXB B T 712;11.0705
5CXB B L 699;5CXB B M 713;3.08774
5CXB B W 700;5CXB B H 701;25.055
5CXB B W 700;5CXB B D 702;5.82919
5CXB B W 700;5CXB B P 709;5.4405
5CXB B W 700;5CXB B Y 710;18.8771
5CXB B W 700;5CXB B K 711;17.7926
5CXB B W 700;5CXB B M 713;9.06762
5CXB B W 700;5CXB B F 725;15.0482
5CXB B W 700;5CXB B F 733;14.1363
5CXB B W 700;5CXB B G 747;12.3307
5CXB B W 700;5CXB B K 748;1.08645
5CXB B W 700;5CXB B V 749;11.5295
5CXB B W 700;5CXB B P 757;15.5084
5CXB B W 700;5CXB B I 759;23.7946
5CXB B H 701;5CXB B D 702;19.9617
5CXB B H 701;5CXB B L 703;13.1751
5CXB B H 701;5CXB B S 706;4.18468
5CXB B H 701;5CXB B N 707;6.23141
5CXB B H 701;5CXB B R 708;10.0259
5CXB B H 701;5CXB B P 709;14.037
5CXB B H 701;5CXB B Y 710;2.22991
5CXB B D 702;5CXB B L 703;17.3226
5CXB B D 702;5CXB B D 704;12.8043
5CXB B D 702;5CXB B L 705;33.2276
5CXB B D 702;5CXB B S 706;13.6305
5CXB B D 702;5CXB B R 708;1.51573
5CXB B D 702;5CXB B Y 710;16.9711
5CXB B D 702;5CXB B N 756;0.610789
5CXB B D 702;5CXB B P 757;14.867
5CXB B L 703;5CXB B D 704;28.4599
5CXB B L 703;5CXB B L 705;0.117204
5CXB B L 703;5CXB B S 706;10.2028
5CXB B L 703;5CXB B N 707;6.57359
5CXB B D 704;5CXB B L 705;35.712
5CXB B D 704;5CXB B S 706;4.08629
5CXB B D 704;5CXB B Q 753;16.0285
5CXB B L 705;5CXB B S 706;33.2263
5CXB B L 705;5CXB B Y 710;13.9661
5CXB B L 705;5CXB B Q 753;7.07759
5CXB B L 705;5CXB B N 756;20.8558
5CXB B L 705;5CXB B P 757;1.44035
5CXB B S 706;5CXB B N 707;32.1245
5CXB B S 706;5CXB B R 708;34.5717
5CXB B S 706;5CXB B Y 710;0.483823
5CXB B N 707;5CXB B R 708;22.6353
5CXB B R 708;5CXB B P 709;33.3096
5CXB B R 708;5CXB B Y 710;5.31942
5CXB B P 709;5CXB B Y 710;23.4124
5CXB B P 709;5CXB B K 711;10.1459
5CXB B P 709;5CXB B T 712;10.3481
5CXB B Y 710;5CXB B K 711;36.1004
5CXB B Y 710;5CXB B N 756;24.9654
5CXB B Y 710;5CXB B P 757;28.1366
5CXB B Y 710;5CXB B I 759;10.414
5CXB B K 711;5CXB B T 712;33.7756
5CXB B K 711;5CXB B M 713;23.3371
5CXB B K 711;5CXB B I 759;37.6404
5CXB B K 711;5CXB B P 761;4.98912
5CXB B T 712;5CXB B M 713;28.7851
5CXB B T 712;5CXB B R 714;22.8191
5CXB B M 713;5CXB B R 714;24.3414
5CXB B M 713;5CXB B F 715;22.2375
5CXB B M 713;5CXB B I 720;0.748961
5CXB B M 713;5CXB B F 733;8.68677
5CXB B M 713;5CXB B F 745;17.173
5CXB B M 713;5CXB B I 759;12.3897
5CXB B M 713;5CXB B P 761;1.30127
5CXB B R 714;5CXB B F 715;39.6743
5CXB B R 714;5CXB B H 716;1.80052
5CXB B F 715;5CXB B H 716;40.7909
5CXB B F 715;5CXB B T 717;6.70671
5CXB B F 715;5CXB B I 720;0.0520158
5CXB B F 715;5CXB B D 735;0.124253
5CXB B F 715;5CXB B D 739;0.753328
5CXB B F 715;5CXB B Q 743;19.2789
5CXB B F 715;5CXB B F 745;14.7341
5CXB B F 715;5CXB B P 761;22.2195
5CXB B F 715;5CXB B M 764;17.2046
5CXB B H 716;5CXB B T 717;21.7176
5CXB B H 716;5CXB B E 718;10.0215
5CXB B H 716;5CXB B I 720;16.5312
5CXB B H 716;5CXB B D 735;16.3013
5CXB B H 716;5CXB B A 736;2.24775
5CXB B H 716;5CXB B S 737;16.6939
5CXB B H 716;5CXB B D 739;12.7708
5CXB B H 716;5CXB B S 741;12.3204
5CXB B H 716;5CXB B L 742;1.83004
5CXB B H 716;5CXB B Q 743;11.2694
5CXB B H 716;5CXB B M 764;7.36611
5CXB B T 717;5CXB B E 718;35.4073
5CXB B T 717;5CXB B D 739;18.2142
5CXB B E 718;5CXB B A 719;23.5896
5CXB B E 718;5CXB B I 720;2.43011
5CXB B E 718;5CXB B S 737;8.15234
5CXB B E 718;5CXB B D 738;15.9412
5CXB B E 718;5CXB B D 739;16.9059
5CXB B E 718;5CXB B K 773;0.136952
5CXB B A 719;5CXB B I 720;20.7511
5CXB B A 719;5CXB B R 721;9.7666
5CXB B A 719;5CXB B S 737;6.94043
5CXB B A 719;5CXB B D 738;21.0016
5CXB B I 720;5CXB B R 721;19.3841
5CXB B I 720;5CXB B A 722;7.36984
5CXB B I 720;5CXB B V 723;5.00048
5CXB B I 720;5CXB B D 735;12.9515
5CXB B I 720;5CXB B A 736;9.27493
5CXB B I 720;5CXB B S 737;6.37687
5CXB B R 721;5CXB B A 722;23.5119
5CXB B R 721;5CXB B A 736;8.07694
5CXB B R 721;5CXB B S 737;1.74424
5CXB B R 721;5CXB B D 738;23.2146
5CXB B R 721;5CXB B L 774;17.6873
5CXB B R 721;5CXB B V 776;8.99093
5CXB B R 721;5CXB B L 777;30.0039
5CXB B A 722;5CXB B V 723;21.5845
5CXB B A 722;5CXB B R 724;4.14401
5CXB B A 722;5CXB B D 735;4.27356
5CXB B A 722;5CXB B A 736;15.7112
5CXB B A 722;5CXB B L 777;6.47249
5CXB B A 722;5CXB B D 778;13.9256
5CXB B A 722;5CXB B I 779;13.2056
5CXB B V 723;5CXB B R 724;31.9192
5CXB B V 723;5CXB B F 733;0.00557273
5CXB B V 723;5CXB B A 734;6.94562
5CXB B V 723;5CXB B D 735;7.33876
5CXB B V 723;5CXB B I 779;6.8468
5CXB B R 724;5CXB B F 725;22.7353
5CXB B R 724;5CXB B K 727;10.9271
5CXB B R 724;5CXB B F 733;8.52965
5CXB B R 724;5CXB B A 734;14.4584
5CXB B R 724;5CXB B D 778;8.47838
5CXB B R 724;5CXB B I 779;26.1144
5CXB B R 724;5CXB B D 780;26.3947
5CXB B R 724;5CXB B W 781;21.1764
5CXB B F 725;5CXB B H 726;21.873
5CXB B F 725;5CXB B K 727;19.5722
5CXB B F 725;5CXB B L 732;7.20266
5CXB B F 725;5CXB B F 733;19.9174
5CXB B F 725;5CXB B G 747;2.25479
5CXB B F 725;5CXB B W 781;7.50485
5CXB B H 726;5CXB B K 727;21.9744
5CXB B H 726;5CXB B G 728;12.8471
5CXB B H 726;5CXB B G 729;3.99171
5CXB B H 726;5CXB B L 730;33.4125
5CXB B H 726;5CXB B L 732;22.2786
5CXB B H 726;5CXB B F 733;0.400727
5CXB B H 726;5CXB B W 781;28.83
5CXB B H 726;5CXB B H 782;9.46322
5CXB B H 726;5CXB B P 783;4.31455
5CXB B H 726;5CXB B R 784;8.96575
5CXB B H 726;5CXB B E 785;8.42767
5CXB B H 726;5CXB B P 786;2.42287
5CXB B K 727;5CXB B G 728;26.1457
5CXB B K 727;5CXB B G 729;5.29809
5CXB B K 727;5CXB B W 781;2.62236
5CXB B K 727;5CXB B H 782;1.57403
5CXB B K 727;5CXB B P 783;5.88334
5CXB B G 728;5CXB B G 729;26.2878
5CXB B G 728;5CXB B L 730;3.81685
5CXB B G 728;5CXB B P 783;15.7678
5CXB B G 728;5CXB B R 784;5.3566
5CXB B G 729;5CXB B L 730;30.0663
5CXB B G 729;5CXB B P 731;9.55382
5CXB B L 730;5CXB B P 731;31.4502
5CXB B L 730;5CXB B L 732;22.2933
5CXB B L 730;5CXB B R 784;11.9106
5CXB B L 730;5CXB B E 785;3.00564
5CXB B L 730;5CXB B P 786;16.5254
5CXB B P 731;5CXB B L 732;28.8897
5CXB B P 731;5CXB B H 746;24.0086
5CXB B P 731;5CXB B G 747;21.5301
5CXB B P 731;5CXB B K 748;20.2107
5CXB B L 732;5CXB B F 733;21.8774
5CXB B L 732;5CXB B I 744;7.19267
5CXB B L 732;5CXB B F 745;9.57871
5CXB B L 732;5CXB B H 746;9.07087
5CXB B L 732;5CXB B G 747;3.14867
5CXB B L 732;5CXB B V 762;3.43611
5CXB B L 732;5CXB B W 781;17.4608
5CXB B L 732;5CXB B P 786;9.67265
5CXB B F 733;5CXB B A 734;25.7713
5CXB B F 733;5CXB B Q 743;0.0015937
5CXB B F 733;5CXB B I 744;5.43265
5CXB B F 733;5CXB B F 745;39.1975
5CXB B F 733;5CXB B H 746;3.05562
5CXB B F 733;5CXB B G 747;11.8449
5CXB B F 733;5CXB B I 759;9.59643
5CXB B F 733;5CXB B W 781;9.99339
5CXB B A 734;5CXB B D 735;20.8243
5CXB B A 734;5CXB B L 742;6.99311
5CXB B A 734;5CXB B Q 743;7.05857
5CXB B A 734;5CXB B I 744;11.6871
5CXB B A 734;5CXB B F 745;2.79278
5CXB B A 734;5CXB B I 779;13.1206
5CXB B A 734;5CXB B W 781;13.8934
5CXB B A 734;5CXB B C 788;3.60086
5CXB B D 735;5CXB B A 736;18.7843
5CXB B D 735;5CXB B L 742;10.2473
5CXB B D 735;5CXB B Q 743;20.3868
5CXB B D 735;5CXB B F 745;9.46392
5CXB B D 735;5CXB B I 779;7.72958
5CXB B A 736;5CXB B S 737;18.9291
5CXB B A 736;5CXB B S 741;3.4754
5CXB B A 736;5CXB B L 742;6.04349
5CXB B A 736;5CXB B V 776;17.0285
5CXB B A 736;5CXB B L 777;0.413648
5CXB B A 736;5CXB B D 778;2.82172
5CXB B A 736;5CXB B I 779;12.0352
5CXB B S 737;5CXB B D 738;16.2008
5CXB B S 737;5CXB B D 739;15.8491
5CXB B S 737;5CXB B G 740;5.3672
5CXB B S 737;5CXB B S 741;10.3312
5CXB B S 737;5CXB B G 775;1.03579
5CXB B S 737;5CXB B V 776;16.1776
5CXB B D 738;5CXB B D 739;14.7403
5CXB B D 738;5CXB B G 740;2.78178
5CXB B D 738;5CXB B V 770;9.91266
5CXB B D 738;5CXB B K 773;14.7275
5CXB B D 738;5CXB B L 774;15.8499
5CXB B D 738;5CXB B G 775;14.643
5CXB B D 738;5CXB B V 776;3.72402
5CXB B D 738;5CXB B L 777;5.27125
5CXB B D 739;5CXB B G 740;19.0298
5CXB B D 739;5CXB B S 741;20.7544
5CXB B D 739;5CXB B M 764;0.287003
5CXB B D 739;5CXB B V 770;15.1932
5CXB B G 740;5CXB B S 741;20.2934
5CXB B G 740;5CXB B L 742;0.801467
5CXB B G 740;5CXB B L 765;2.03644
5CXB B G 740;5CXB B K 766;5.19311
5CXB B G 740;5CXB B G 767;2.89069
5CXB B G 740;5CXB B H 768;21.8805
5CXB B G 740;5CXB B K 769;1.04695
5CXB B G 740;5CXB B V 770;7.91194
5CXB B G 740;5CXB B G 775;8.61468
5CXB B G 740;5CXB B V 776;10.116
5CXB B S 741;5CXB B L 742;21.8789
5CXB B S 741;5CXB B M 764;15.9071
5CXB B S 741;5CXB B L 765;7.503
5CXB B S 741;5CXB B K 766;13.3465
5CXB B S 741;5CXB B V 776;7.64302
5CXB B L 742;5CXB B Q 743;19.2752
5CXB B L 742;5CXB B I 744;8.39053
5CXB B L 742;5CXB B K 763;0.732069
5CXB B L 742;5CXB B M 764;6.51279
5CXB B L 742;5CXB B L 765;33.0175
5CXB B L 742;5CXB B H 768;4.28759
5CXB B L 742;5CXB B V 776;12.2176
5CXB B L 742;5CXB B I 779;15.14
5CXB B L 742;5CXB B C 788;10.1725
5CXB B L 742;5CXB B V 789;1.47526
5CXB B L 742;5CXB B S 790;11.5217
5CXB B L 742;5CXB B W 800;13.8961
5CXB B Q 743;5CXB B I 744;25.3746
5CXB B Q 743;5CXB B F 745;21.4232
5CXB B Q 743;5CXB B P 761;12.8337
5CXB B Q 743;5CXB B V 762;1.40822
5CXB B Q 743;5CXB B K 763;13.746
5CXB B Q 743;5CXB B M 764;27.8861
5CXB B I 744;5CXB B F 745;23.0926
5CXB B I 744;5CXB B P 761;3.08257
5CXB B I 744;5CXB B V 762;16.5634
5CXB B I 744;5CXB B K 763;21.9103
5CXB B I 744;5CXB B L 765;15.4808
5CXB B I 744;5CXB B W 781;12.6055
5CXB B I 744;5CXB B C 788;7.01328
5CXB B F 745;5CXB B H 746;20.6327
5CXB B F 745;5CXB B G 747;0.919458
5CXB B F 745;5CXB B I 759;6.23262
5CXB B F 745;5CXB B V 760;5.7913
5CXB B F 745;5CXB B P 761;19.7675
5CXB B F 745;5CXB B V 762;5.19887
5CXB B H 746;5CXB B G 747;18.4731
5CXB B H 746;5CXB B K 748;16.9272
5CXB B H 746;5CXB B T 758;17.8805
5CXB B H 746;5CXB B I 759;6.40614
5CXB B H 746;5CXB B V 760;22.7803
5CXB B H 746;5CXB B V 762;11.5663
5CXB B G 747;5CXB B K 748;19.4255
5CXB B G 747;5CXB B V 749;3.74486
5CXB B G 747;5CXB B T 758;3.69825
5CXB B G 747;5CXB B I 759;5.136
5CXB B K 748;5CXB B V 749;37.1815
5CXB B K 748;5CXB B P 750;16.65
5CXB B K 748;5CXB B N 751;10.7836
5CXB B K 748;5CXB B P 757;7.26935
5CXB B K 748;5CXB B T 758;25.5357
5CXB B K 748;5CXB B I 759;0.254421
5CXB B V 749;5CXB B P 750;38.9288
5CXB B V 749;5CXB B N 751;2.61378
5CXB B V 749;5CXB B P 757;11.2773
5CXB B P 750;5CXB B N 751;31.0274
5CXB B P 750;5CXB B D 752;15.9671
5CXB B P 750;5CXB B Q 753;1.67561
5CXB B P 750;5CXB B E 755;25.1155
5CXB B P 750;5CXB B N 756;11.1411
5CXB B P 750;5CXB B P 757;10.5901
5CXB B P 750;5CXB B T 758;3.44002
5CXB B N 751;5CXB B D 752;27.8861
5CXB B N 751;5CXB B Q 753;9.01937
5CXB B D 752;5CXB B Q 753;24.2333
5CXB B D 752;5CXB B L 754;24.5828
5CXB B D 752;5CXB B E 755;29.7414
5CXB B Q 753;5CXB B L 754;29.6633
5CXB B Q 753;5CXB B E 755;11.8252
5CXB B Q 753;5CXB B N 756;1.0284
5CXB B L 754;5CXB B E 755;24.8395
5CXB B L 754;5CXB B N 756;6.52471
5CXB B E 755;5CXB B N 756;34.4443
5CXB B E 755;5CXB B P 757;2.40722
5CXB B N 756;5CXB B P 757;30.2136
5CXB B N 756;5CXB B T 758;7.1975
5CXB B P 757;5CXB B T 758;22.1834
5CXB B P 757;5CXB B I 759;14.0231
5CXB B T 758;5CXB B I 759;25.5666
5CXB B T 758;5CXB B V 760;8.9596
5CXB B I 759;5CXB B V 760;30.4472
5CXB B I 759;5CXB B P 761;3.40432
5CXB B V 760;5CXB B P 761;36.4577
5CXB B V 760;5CXB B V 762;7.59825
5CXB B P 761;5CXB B V 762;21.9757
5CXB B P 761;5CXB B K 763;0.0149921
5CXB B V 762;5CXB B K 763;32.454
5CXB B K 763;5CXB B M 764;37.9019
5CXB B K 763;5CXB B L 765;13.1209
5CXB B M 764;5CXB B L 765;20.9637
5CXB B M 764;5CXB B K 766;33.1903
5CXB B L 765;5CXB B K 766;21.8709
5CXB B L 765;5CXB B G 767;0.172849
5CXB B L 765;5CXB B C 788;5.52675
5CXB B L 765;5CXB B W 800;36.0648
5CXB B K 766;5CXB B G 767;28.0428
5CXB B K 766;5CXB B W 800;14.8284
5CXB B G 767;5CXB B H 768;30.533
5CXB B G 767;5CXB B K 769;3.34758
5CXB B G 767;5CXB B R 798;15.2243
5CXB B G 767;5CXB B W 800;6.60007
5CXB B H 768;5CXB B K 769;27.1842
5CXB B H 768;5CXB B V 770;3.9219
5CXB B H 768;5CXB B G 775;5.60565
5CXB B H 768;5CXB B V 776;15.2953
5CXB B H 768;5CXB B S 790;14.4001
5CXB B H 768;5CXB B A 791;2.5995
5CXB B H 768;5CXB B G 792;12.8229
5CXB B H 768;5CXB B D 794;11.4415
5CXB B H 768;5CXB B T 796;7.48363
5CXB B H 768;5CXB B A 797;1.63028
5CXB B H 768;5CXB B R 798;22.5609
5CXB B H 768;5CXB B W 800;9.50489
5CXB B K 769;5CXB B V 770;33.3186
5CXB B K 769;5CXB B V 771;22.4371
5CXB B K 769;5CXB B L 774;1.68052
5CXB B K 769;5CXB B G 775;5.89238
5CXB B K 769;5CXB B A 793;1.79397
5CXB B K 769;5CXB B D 794;25.9239
5CXB B K 769;5CXB B R 798;3.77036
5CXB B V 770;5CXB B V 771;23.3886
5CXB B V 770;5CXB B N 772;2.1676
5CXB B V 770;5CXB B K 773;16.5322
5CXB B V 770;5CXB B L 774;8.93184
5CXB B V 770;5CXB B G 775;5.06885
5CXB B V 771;5CXB B N 772;35.4101
5CXB B V 771;5CXB B K 773;1.86512
5CXB B V 771;5CXB B L 774;18.7464
5CXB B V 771;5CXB B A 793;17.9913
5CXB B V 771;5CXB B D 794;14.5178
5CXB B N 772;5CXB B K 773;50.1629
5CXB B N 772;5CXB B L 774;11.8025
5CXB B K 773;5CXB B L 774;23.6254
5CXB B L 774;5CXB B G 775;17.9567
5CXB B L 774;5CXB B L 777;15.3513
5CXB B L 774;5CXB B A 793;17.2123
5CXB B G 775;5CXB B V 776;19.6174
5CXB B G 775;5CXB B L 777;6.56442
5CXB B G 775;5CXB B A 791;0.044672
5CXB B G 775;5CXB B G 792;4.98178
5CXB B G 775;5CXB B A 793;12.768
5CXB B G 775;5CXB B D 794;0.00322615
5CXB B V 776;5CXB B L 777;20.6208
5CXB B V 776;5CXB B D 778;6.27698
5CXB B V 776;5CXB B I 779;3.47803
5CXB B V 776;5CXB B S 790;7.15671
5CXB B V 776;5CXB B A 791;9.3008
5CXB B V 776;5CXB B G 792;1.41467
5CXB B L 777;5CXB B D 778;23.9858
5CXB B L 777;5CXB B A 791;10.6977
5CXB B L 777;5CXB B G 792;1.7995
5CXB B L 777;5CXB B A 793;12.7654
5CXB B D 778;5CXB B I 779;26.3298
5CXB B D 778;5CXB B S 790;3.24824
5CXB B D 778;5CXB B A 791;15.5307
5CXB B I 779;5CXB B D 780;20.9076
5CXB B I 779;5CXB B W 781;0.178547
5CXB B I 779;5CXB B C 788;3.42257
5CXB B I 779;5CXB B V 789;7.58315
5CXB B I 779;5CXB B S 790;6.0724
5CXB B D 780;5CXB B W 781;35.4832
5CXB B D 780;5CXB B C 788;9.55279
5CXB B D 780;5CXB B V 789;20.9432
5CXB B W 781;5CXB B H 782;25.0554
5CXB B W 781;5CXB B P 783;5.74513
5CXB B W 781;5CXB B E 785;0.73528
5CXB B W 781;5CXB B P 786;5.95895
5CXB B W 781;5CXB B W 787;12.5198
5CXB B W 781;5CXB B C 788;19.2702
5CXB B H 782;5CXB B P 783;32.673
5CXB B H 782;5CXB B R 784;15.233
5CXB B H 782;5CXB B E 785;25.702
5CXB B H 782;5CXB B W 787;33.3984
5CXB B H 782;5CXB B C 788;0.271552
5CXB B P 783;5CXB B R 784;25.7717
5CXB B R 784;5CXB B E 785;38.7406
5CXB B R 784;5CXB B P 786;0.237912
5CXB B E 785;5CXB B P 786;30.4518
5CXB B E 785;5CXB B W 787;31.0722
5CXB B P 786;5CXB B W 787;30.0808
5CXB B P 786;5CXB B M 801;6.11561
5CXB B W 787;5CXB B C 788;18.8086
5CXB B W 787;5CXB B L 799;12.6576
5CXB B W 787;5CXB B W 800;6.12124
5CXB B W 787;5CXB B M 801;34.9999
5CXB B C 788;5CXB B V 789;22.4323
5CXB B C 788;5CXB B R 798;0.224326
5CXB B C 788;5CXB B L 799;8.42537
5CXB B C 788;5CXB B W 800;26.5784
5CXB B V 789;5CXB B S 790;19.07
5CXB B V 789;5CXB B A 797;2.08695
5CXB B V 789;5CXB B R 798;8.50235
5CXB B V 789;5CXB B L 799;13.7484
5CXB B V 789;5CXB B W 800;2.36054
5CXB B S 790;5CXB B A 791;16.2468
5CXB B S 790;5CXB B G 792;0.132276
5CXB B S 790;5CXB B T 796;0.0286472
5CXB B S 790;5CXB B A 797;7.61951
5CXB B S 790;5CXB B R 798;16.1785
5CXB B S 790;5CXB B W 800;10.6436
5CXB B A 791;5CXB B G 792;18.3739
5CXB B A 791;5CXB B T 796;0.918141
5CXB B A 791;5CXB B A 797;3.10213
5CXB B G 792;5CXB B A 793;16.7001
5CXB B G 792;5CXB B D 794;8.71388
5CXB B G 792;5CXB B G 795;4.54503
5CXB B G 792;5CXB B T 796;10.017
5CXB B A 793;5CXB B D 794;20.8802
5CXB B A 793;5CXB B G 795;4.97829
5CXB B D 794;5CXB B G 795;21.6305
5CXB B D 794;5CXB B T 796;23.1737
5CXB B D 794;5CXB B R 798;10.6903
5CXB B G 795;5CXB B T 796;22.0343
5CXB B T 796;5CXB B A 797;21.2611
5CXB B T 796;5CXB B R 798;19.0271
5CXB B A 797;5CXB B R 798;20.9584
5CXB B R 798;5CXB B L 799;17.3211
5CXB B R 798;5CXB B W 800;19.2972
5CXB B L 799;5CXB B W 800;24.7776
5CXB B L 799;5CXB B M 801;15.0856
5CXB B W 800;5CXB B M 801;20.6591
