V1;V2;Weight
5DWU H V 2;5DWU H Q 3;31.7537
5DWU H V 2;5DWU H S 25;6.71981
5DWU H V 2;5DWU H G 26;12.066
5DWU H V 2;5DWU H F 27;25.4659
5DWU H Q 3;5DWU H L 4;26.3166
5DWU H Q 3;5DWU H L 5;4.8026
5DWU H Q 3;5DWU H S 25;18.092
5DWU H Q 3;5DWU H F 27;8.17378
5DWU H Q 3;5DWU H I 106;0.928392
5DWU H Q 3;5DWU H W 107;6.52107
5DWU H L 4;5DWU H L 5;26.1446
5DWU H L 4;5DWU H E 6;5.93427
5DWU H L 4;5DWU H C 22;8.63909
5DWU H L 4;5DWU H A 23;6.75876
5DWU H L 4;5DWU H A 24;12.7321
5DWU H L 4;5DWU H S 25;5.98915
5DWU H L 4;5DWU H F 27;13.2028
5DWU H L 4;5DWU H V 34;7.40419
5DWU H L 4;5DWU H C 96;16.8741
5DWU H L 4;5DWU H A 97;1.91427
5DWU H L 4;5DWU H R 98;6.67995
5DWU H L 4;5DWU H I 106;17.7971
5DWU H L 4;5DWU H W 107;15.7333
5DWU H L 4;5DWU H G 108;13.0068
5DWU H L 4;5DWU H Q 109;1.41233
5DWU H L 5;5DWU H E 6;34.9419
5DWU H L 5;5DWU H C 22;4.81414
5DWU H L 5;5DWU H A 23;24.3534
5DWU H L 5;5DWU H S 25;1.56293
5DWU H L 5;5DWU H G 108;0.0434702
5DWU H L 5;5DWU H Q 109;0.384152
5DWU H E 6;5DWU H S 7;31.809
5DWU H E 6;5DWU H S 21;4.55299
5DWU H E 6;5DWU H C 22;14.4646
5DWU H E 6;5DWU H A 23;0.392656
5DWU H E 6;5DWU H W 36;8.75716
5DWU H E 6;5DWU H Y 94;2.79797
5DWU H E 6;5DWU H C 96;13.1033
5DWU H E 6;5DWU H G 108;9.66155
5DWU H E 6;5DWU H Q 109;10.4784
5DWU H E 6;5DWU H G 110;19.2118
5DWU H E 6;5DWU H T 111;11.5402
5DWU H S 7;5DWU H G 8;32.8386
5DWU H S 7;5DWU H L 20;4.22628
5DWU H S 7;5DWU H S 21;30.5223
5DWU H S 7;5DWU H T 111;9.70221
5DWU H G 8;5DWU H G 9;28.0131
5DWU H G 8;5DWU H R 19;8.59151
5DWU H G 8;5DWU H L 20;7.79117
5DWU H G 8;5DWU H S 21;3.29159
5DWU H G 8;5DWU H T 111;17.934
5DWU H G 8;5DWU H V 113;1.51406
5DWU H G 9;5DWU H G 10;28.8082
5DWU H G 9;5DWU H L 18;9.68607
5DWU H G 9;5DWU H R 19;10.0174
5DWU H G 9;5DWU H L 20;0.46201
5DWU H G 9;5DWU H T 111;11.7746
5DWU H G 9;5DWU H M 112;5.36546
5DWU H G 9;5DWU H V 113;11.4015
5DWU H G 10;5DWU H L 11;28.8998
5DWU H G 10;5DWU H V 12;10.7679
5DWU H G 10;5DWU H L 18;3.07316
5DWU H G 10;5DWU H M 112;8.34091
5DWU H G 10;5DWU H V 113;13.3079
5DWU H G 10;5DWU H T 114;8.05823
5DWU H G 10;5DWU H V 115;0.0933723
5DWU H L 11;5DWU H V 12;29.0725
5DWU H L 11;5DWU H T 114;19.8489
5DWU H L 11;5DWU H S 116;4.05571
5DWU H L 11;5DWU H A 118;8.10213
5DWU H L 11;5DWU H P 151;16.2399
5DWU H L 11;5DWU H P 206;3.32198
5DWU H V 12;5DWU H Q 13;35.5483
5DWU H V 12;5DWU H P 14;0.00728083
5DWU H V 12;5DWU H G 16;13.6619
5DWU H V 12;5DWU H S 17;9.62973
5DWU H V 12;5DWU H L 18;10.6739
5DWU H V 12;5DWU H L 86;8.52315
5DWU H V 12;5DWU H V 113;6.06526
5DWU H V 12;5DWU H T 114;3.34734
5DWU H V 12;5DWU H V 115;18.9481
5DWU H V 12;5DWU H S 116;15.3564
5DWU H Q 13;5DWU H P 14;31.5513
5DWU H Q 13;5DWU H G 15;0.706053
5DWU H Q 13;5DWU H G 16;8.65175
5DWU H Q 13;5DWU H L 86;0.840674
5DWU H Q 13;5DWU H V 115;3.84314
5DWU H Q 13;5DWU H S 116;6.4208
5DWU H Q 13;5DWU H S 117;19.3402
5DWU H P 14;5DWU H G 15;22.0535
5DWU H P 14;5DWU H G 16;7.09283
5DWU H P 14;5DWU H L 86;6.27046
5DWU H P 14;5DWU H R 87;23.2535
5DWU H P 14;5DWU H A 88;1.14744
5DWU H P 14;5DWU H V 115;13.4524
5DWU H P 14;5DWU H S 116;7.21074
5DWU H P 14;5DWU H S 117;14.6958
5DWU H G 15;5DWU H G 16;24.1591
5DWU H G 15;5DWU H S 17;0.591388
5DWU H G 15;5DWU H N 84;12.8378
5DWU H G 15;5DWU H S 85;12.1233
5DWU H G 15;5DWU H L 86;16.4981
5DWU H G 15;5DWU H R 87;4.82526
5DWU H G 16;5DWU H S 17;25.6012
5DWU H G 16;5DWU H N 84;5.11553
5DWU H G 16;5DWU H L 86;11.79
5DWU H S 17;5DWU H L 18;30.8366
5DWU H S 17;5DWU H Q 82;8.60801
5DWU H S 17;5DWU H M 83;8.66675
5DWU H S 17;5DWU H N 84;22.7655
5DWU H S 17;5DWU H L 86;3.19284
5DWU H L 18;5DWU H R 19;32.6816
5DWU H L 18;5DWU H L 20;2.45906
5DWU H L 18;5DWU H L 81;3.61236
5DWU H L 18;5DWU H Q 82;6.28548
5DWU H L 18;5DWU H M 83;14.5647
5DWU H L 18;5DWU H L 86;11.8573
5DWU H L 18;5DWU H V 113;7.94467
5DWU H R 19;5DWU H L 20;27.0387
5DWU H R 19;5DWU H S 21;2.56823
5DWU H R 19;5DWU H L 81;5.16933
5DWU H R 19;5DWU H Q 82;15.4011
5DWU H L 20;5DWU H S 21;24.0159
5DWU H L 20;5DWU H C 22;0.169428
5DWU H L 20;5DWU H W 36;17.1496
5DWU H L 20;5DWU H L 79;0.0519539
5DWU H L 20;5DWU H Y 80;8.98706
5DWU H L 20;5DWU H L 81;32.7958
5DWU H L 20;5DWU H Y 94;1.63363
5DWU H S 21;5DWU H C 22;26.771
5DWU H S 21;5DWU H W 36;2.9623
5DWU H S 21;5DWU H T 78;10.9948
5DWU H S 21;5DWU H L 79;0.0257626
5DWU H S 21;5DWU H Y 80;7.34349
5DWU H C 22;5DWU H A 23;34.2791
5DWU H C 22;5DWU H A 24;1.28671
5DWU H C 22;5DWU H V 34;0.309987
5DWU H C 22;5DWU H W 36;12.8862
5DWU H C 22;5DWU H N 77;0.0396519
5DWU H C 22;5DWU H T 78;15.1616
5DWU H C 22;5DWU H L 79;22.8845
5DWU H C 22;5DWU H Y 80;0.0040018
5DWU H C 22;5DWU H C 96;15.9638
5DWU H A 23;5DWU H A 24;32.01
5DWU H A 23;5DWU H S 25;0.693466
5DWU H A 23;5DWU H N 77;7.89367
5DWU H A 23;5DWU H T 78;3.41383
5DWU H A 23;5DWU H L 79;0.457072
5DWU H A 24;5DWU H S 25;32.0065
5DWU H A 24;5DWU H F 27;9.05387
5DWU H A 24;5DWU H F 29;11.4877
5DWU H A 24;5DWU H V 34;2.36796
5DWU H A 24;5DWU H N 77;24.8182
5DWU H A 24;5DWU H T 78;0.0300626
5DWU H S 25;5DWU H G 26;28.6403
5DWU H S 25;5DWU H F 27;20.2111
5DWU H S 25;5DWU H F 29;2.324
5DWU H G 26;5DWU H F 27;28.6484
5DWU H G 26;5DWU H F 29;8.20506
5DWU H F 27;5DWU H T 28;34.6415
5DWU H F 27;5DWU H F 29;34.0551
5DWU H F 27;5DWU H R 98;12.941
5DWU H F 27;5DWU H I 106;15.4879
5DWU H T 28;5DWU H F 29;18.5572
5DWU H T 28;5DWU H P 30;17.3861
5DWU H T 28;5DWU H Y 32;15.1917
5DWU H F 29;5DWU H P 30;24.5195
5DWU H F 29;5DWU H W 31;26.4999
5DWU H F 29;5DWU H Y 32;16.427
5DWU H F 29;5DWU H N 77;30.0446
5DWU H P 30;5DWU H W 31;27.4779
5DWU H P 30;5DWU H Y 32;7.08837
5DWU H W 31;5DWU H Y 32;48.8811
5DWU H W 31;5DWU H R 33;5.30813
5DWU H W 31;5DWU H V 34;6.98953
5DWU H W 31;5DWU H S 53;19.4549
5DWU H W 31;5DWU H D 73;4.02938
5DWU H W 31;5DWU H N 74;34.4161
5DWU H W 31;5DWU H N 77;20.0768
5DWU H W 31;5DWU H T 78;1.83495
5DWU H W 31;5DWU H L 79;0.859258
5DWU H Y 32;5DWU H R 33;30.1585
5DWU H Y 32;5DWU H V 34;7.10149
5DWU H Y 32;5DWU H R 98;30.129
5DWU H Y 32;5DWU H F 99;2.01888
5DWU H Y 32;5DWU H Y 100;14.8879
5DWU H R 33;5DWU H V 34;27.6458
5DWU H R 33;5DWU H H 35;7.78548
5DWU H R 33;5DWU H I 51;3.21154
5DWU H R 33;5DWU H R 52;21.3107
5DWU H R 33;5DWU H S 53;3.68532
5DWU H R 33;5DWU H R 98;6.02785
5DWU H R 33;5DWU H F 99;21.7677
5DWU H V 34;5DWU H H 35;29.0034
5DWU H V 34;5DWU H W 36;0.0185807
5DWU H V 34;5DWU H S 50;3.44749
5DWU H V 34;5DWU H I 51;8.39217
5DWU H V 34;5DWU H I 70;0.0690219
5DWU H V 34;5DWU H L 79;31.4157
5DWU H V 34;5DWU H C 96;14.2937
5DWU H V 34;5DWU H A 97;7.66879
5DWU H V 34;5DWU H R 98;16.7694
5DWU H V 34;5DWU H F 99;1.95332
5DWU H H 35;5DWU H W 36;25.0079
5DWU H H 35;5DWU H V 37;4.07797
5DWU H H 35;5DWU H W 47;13.1206
5DWU H H 35;5DWU H S 49;5.14436
5DWU H H 35;5DWU H S 50;22.2447
5DWU H H 35;5DWU H I 51;2.75947
5DWU H H 35;5DWU H R 52;4.71612
5DWU H H 35;5DWU H L 79;3.80869
5DWU H H 35;5DWU H Y 95;0.199903
5DWU H H 35;5DWU H C 96;4.83752
5DWU H H 35;5DWU H A 97;18.9156
5DWU H H 35;5DWU H F 99;31.9022
5DWU H H 35;5DWU H F 104;15.536
5DWU H H 35;5DWU L F 94;7.19491
5DWU H H 35;5DWU L I 96;3.97703
5DWU H W 36;5DWU H V 37;22.87
5DWU H W 36;5DWU H W 47;4.55292
5DWU H W 36;5DWU H V 48;17.5098
5DWU H W 36;5DWU H S 49;16.8288
5DWU H W 36;5DWU H S 50;0.636502
5DWU H W 36;5DWU H I 70;12.7392
5DWU H W 36;5DWU H L 79;25.1815
5DWU H W 36;5DWU H Y 80;6.66637
5DWU H W 36;5DWU H L 81;28.4137
5DWU H W 36;5DWU H Y 94;20.5535
5DWU H W 36;5DWU H Y 95;8.50126
5DWU H W 36;5DWU H C 96;18.2767
5DWU H V 37;5DWU H R 38;23.3023
5DWU H V 37;5DWU H L 45;14.8374
5DWU H V 37;5DWU H E 46;1.76388
5DWU H V 37;5DWU H W 47;14.866
5DWU H V 37;5DWU H V 48;7.88628
5DWU H V 37;5DWU H Y 94;7.43939
5DWU H V 37;5DWU H Y 95;30.9624
5DWU H V 37;5DWU H A 97;7.56054
5DWU H V 37;5DWU H F 104;10.5147
5DWU H V 37;5DWU H W 107;15.4346
5DWU H V 37;5DWU L F 98;8.25137
5DWU H R 38;5DWU H Q 39;23.1709
5DWU H R 38;5DWU H A 40;4.22871
5DWU H R 38;5DWU H G 44;0.367462
5DWU H R 38;5DWU H L 45;12.0469
5DWU H R 38;5DWU H E 46;53.2856
5DWU H R 38;5DWU H W 47;3.70062
5DWU H R 38;5DWU H V 48;14.2962
5DWU H R 38;5DWU H K 63;0.388656
5DWU H R 38;5DWU H V 64;8.61027
5DWU H R 38;5DWU H E 89;10.2892
5DWU H R 38;5DWU H D 90;21.4072
5DWU H R 38;5DWU H A 92;13.8545
5DWU H R 38;5DWU H V 93;5.15235
5DWU H R 38;5DWU H Y 94;30.1108
5DWU H R 38;5DWU H Y 95;1.81427
5DWU H Q 39;5DWU H A 40;31.5384
5DWU H Q 39;5DWU H P 41;2.62799
5DWU H Q 39;5DWU H G 42;0.9221
5DWU H Q 39;5DWU H K 43;12.0253
5DWU H Q 39;5DWU H G 44;9.89377
5DWU H Q 39;5DWU H L 45;13.52
5DWU H Q 39;5DWU H A 92;5.3364
5DWU H Q 39;5DWU H V 93;29.865
5DWU H Q 39;5DWU H Y 95;21.2914
5DWU H Q 39;5DWU L Q 38;21.9764
5DWU H Q 39;5DWU L Y 87;2.07741
5DWU H A 40;5DWU H P 41;25.4038
5DWU H A 40;5DWU H G 42;4.31505
5DWU H A 40;5DWU H K 43;26.3876
5DWU H A 40;5DWU H G 44;7.46907
5DWU H A 40;5DWU H E 46;18.6379
5DWU H A 40;5DWU H E 89;1.62219
5DWU H A 40;5DWU H T 91;0.304262
5DWU H A 40;5DWU H A 92;12.2107
5DWU H P 41;5DWU H G 42;26.3737
5DWU H P 41;5DWU H K 43;22.6717
5DWU H P 41;5DWU H T 91;22.7159
5DWU H P 41;5DWU H A 92;9.57506
5DWU H P 41;5DWU H V 93;7.01166
5DWU H P 41;5DWU H T 114;2.94303
5DWU H P 41;5DWU H Y 180;0.0112504
5DWU H G 42;5DWU H K 43;32.0494
5DWU H K 43;5DWU H G 44;31.9429
5DWU H K 43;5DWU H E 46;3.36227
5DWU H K 43;5DWU L Y 87;7.52918
5DWU H G 44;5DWU H L 45;25.2129
5DWU H G 44;5DWU H E 46;8.77461
5DWU H G 44;5DWU L Y 87;12.1498
5DWU H G 44;5DWU L G 99;0.148503
5DWU H G 44;5DWU L Q 100;10.6277
5DWU H G 44;5DWU L G 101;0.101866
5DWU H L 45;5DWU H E 46;33.79
5DWU H L 45;5DWU H W 47;0.765569
5DWU H L 45;5DWU H W 107;7.72148
5DWU H L 45;5DWU L Y 36;0.167492
5DWU H L 45;5DWU L Q 38;4.34081
5DWU H L 45;5DWU L P 44;15.2525
5DWU H L 45;5DWU L Y 87;26.4788
5DWU H L 45;5DWU L F 98;41.6518
5DWU H L 45;5DWU L G 99;5.54461
5DWU H E 46;5DWU H W 47;31.21
5DWU H E 46;5DWU H V 48;0.896961
5DWU H E 46;5DWU H E 89;2.78981
5DWU H E 46;5DWU L F 98;0.69684
5DWU H W 47;5DWU H V 48;35.1084
5DWU H W 47;5DWU H S 49;16.0918
5DWU H W 47;5DWU H S 50;10.7138
5DWU H W 47;5DWU H Y 59;11.895
5DWU H W 47;5DWU H Y 60;6.91367
5DWU H W 47;5DWU H N 61;23.6197
5DWU H W 47;5DWU H V 64;1.55012
5DWU H W 47;5DWU H F 104;6.09065
5DWU H W 47;5DWU L F 94;11.4855
5DWU H W 47;5DWU L P 95;8.38462
5DWU H W 47;5DWU L I 96;36.2423
5DWU H W 47;5DWU L T 97;5.30073
5DWU H W 47;5DWU L F 98;19.4756
5DWU H V 48;5DWU H S 49;28.9728
5DWU H V 48;5DWU H Y 59;1.23101
5DWU H V 48;5DWU H Y 60;8.16721
5DWU H V 48;5DWU H N 61;6.30036
5DWU H V 48;5DWU H V 64;25.9657
5DWU H V 48;5DWU H F 68;4.71961
5DWU H V 48;5DWU H L 81;10.0383
5DWU H V 48;5DWU H Y 94;14.8495
5DWU H S 49;5DWU H S 50;22.5296
5DWU H S 49;5DWU H Y 59;11.388
5DWU H S 49;5DWU H Y 60;9.10522
5DWU H S 49;5DWU H V 64;1.73575
5DWU H S 49;5DWU H F 68;0.817323
5DWU H S 49;5DWU H I 70;17.5401
5DWU H S 49;5DWU H L 81;6.3419
5DWU H S 50;5DWU H I 51;27.8544
5DWU H S 50;5DWU H R 52;0.00343611
5DWU H S 50;5DWU H F 57;4.29138
5DWU H S 50;5DWU H P 58;1.33941
5DWU H S 50;5DWU H Y 59;23.9797
5DWU H S 50;5DWU H I 70;5.33867
5DWU H S 50;5DWU L F 94;8.5128
5DWU H I 51;5DWU H R 52;36.5299
5DWU H I 51;5DWU H G 55;7.00615
5DWU H I 51;5DWU H F 57;8.40133
5DWU H I 51;5DWU H P 58;1.25138
5DWU H I 51;5DWU H Y 59;0.305279
5DWU H I 51;5DWU H I 70;25.7135
5DWU H I 51;5DWU H S 71;5.55204
5DWU H I 51;5DWU H R 72;9.75245
5DWU H I 51;5DWU H L 79;8.79377
5DWU H R 52;5DWU H S 53;32.0697
5DWU H R 52;5DWU H S 54;5.5845
5DWU H R 52;5DWU H G 55;7.39883
5DWU H R 52;5DWU H G 56;10.6405
5DWU H R 52;5DWU H F 57;22.7913
5DWU H R 52;5DWU H Y 59;6.23602
5DWU H R 52;5DWU H R 72;2.0401
5DWU H R 52;5DWU H F 99;2.00748
5DWU H R 52;5DWU L F 94;5.11502
5DWU H S 53;5DWU H S 54;26.8796
5DWU H S 53;5DWU H G 55;2.60675
5DWU H S 53;5DWU H R 72;12.5499
5DWU H S 53;5DWU H N 74;18.3237
5DWU H S 54;5DWU H G 55;23.4387
5DWU H S 54;5DWU H G 56;10.9757
5DWU H S 54;5DWU H R 72;1.5307
5DWU H S 54;5DWU H N 74;3.21973
5DWU H G 55;5DWU H G 56;26.3562
5DWU H G 55;5DWU H F 57;1.02816
5DWU H G 55;5DWU H P 58;2.79926
5DWU H G 55;5DWU H S 71;0.342437
5DWU H G 55;5DWU H R 72;19.8009
5DWU H G 56;5DWU H F 57;27.0691
5DWU H G 56;5DWU H P 58;10.2056
5DWU H F 57;5DWU H P 58;26.6071
5DWU H F 57;5DWU H Y 59;36.0273
5DWU H F 57;5DWU H I 70;0.02967
5DWU H P 58;5DWU H Y 59;30.6875
5DWU H P 58;5DWU H Y 60;22.9501
5DWU H P 58;5DWU H I 70;17.6229
5DWU H Y 59;5DWU H Y 60;33.7691
5DWU H Y 59;5DWU H I 70;0.863209
5DWU H Y 59;5DWU L F 94;42.2636
5DWU H Y 60;5DWU H N 61;28.4699
5DWU H Y 60;5DWU H V 64;19.2385
5DWU H Y 60;5DWU H K 65;19.73
5DWU H Y 60;5DWU H G 66;4.20352
5DWU H Y 60;5DWU H F 68;16.0163
5DWU H Y 60;5DWU H T 69;12.7434
5DWU H Y 60;5DWU H I 70;15.0095
5DWU H Y 60;5DWU L P 95;7.49751
5DWU H N 61;5DWU H Y 62;53.2288
5DWU H N 61;5DWU H K 63;3.43924
5DWU H N 61;5DWU H V 64;21.5614
5DWU H N 61;5DWU H K 65;3.87451
5DWU H N 61;5DWU L D 1;5.55753
5DWU H N 61;5DWU L P 95;16.0356
5DWU H N 61;5DWU L I 96;1.0215
5DWU H N 61;5DWU L T 97;10.3848
5DWU H Y 62;5DWU H K 63;29.6606
5DWU H Y 62;5DWU H V 64;1.69365
5DWU H Y 62;5DWU H K 65;18.2067
5DWU H Y 62;5DWU L D 1;26.4266
5DWU H Y 62;5DWU L T 97;0.338385
5DWU H K 63;5DWU H V 64;26.9149
5DWU H K 63;5DWU H K 65;11.3767
5DWU H K 63;5DWU H G 66;1.08083
5DWU H K 63;5DWU H R 67;17.9538
5DWU H K 63;5DWU H S 85;18.566
5DWU H K 63;5DWU H L 86;3.73221
5DWU H K 63;5DWU H R 87;11.4114
5DWU H K 63;5DWU H E 89;27.7955
5DWU H K 63;5DWU H D 90;21.3488
5DWU H V 64;5DWU H K 65;16.7456
5DWU H V 64;5DWU H G 66;2.28909
5DWU H V 64;5DWU H R 67;12.7691
5DWU H V 64;5DWU H F 68;24.5842
5DWU H V 64;5DWU H D 90;1.02419
5DWU H K 65;5DWU H G 66;29.3794
5DWU H K 65;5DWU H R 67;0.474561
5DWU H G 66;5DWU H R 67;29.8401
5DWU H G 66;5DWU H F 68;0.6833
5DWU H G 66;5DWU H S 85;7.28171
5DWU H R 67;5DWU H F 68;29.4543
5DWU H R 67;5DWU H T 69;1.5376
5DWU H R 67;5DWU H Q 82;1.04894
5DWU H R 67;5DWU H M 83;6.82243
5DWU H R 67;5DWU H N 84;15.4107
5DWU H R 67;5DWU H S 85;17.3061
5DWU H R 67;5DWU H L 86;0.699998
5DWU H F 68;5DWU H T 69;26.2492
5DWU H F 68;5DWU H I 70;0.0295998
5DWU H F 68;5DWU H L 81;11.9985
5DWU H F 68;5DWU H Q 82;4.7006
5DWU H F 68;5DWU H M 83;14.8164
5DWU H T 69;5DWU H I 70;31.7798
5DWU H T 69;5DWU H S 71;3.25382
5DWU H T 69;5DWU H Y 80;0.279245
5DWU H T 69;5DWU H L 81;8.94723
5DWU H T 69;5DWU H Q 82;27.5472
5DWU H I 70;5DWU H S 71;33.0511
5DWU H I 70;5DWU H L 79;10.8022
5DWU H I 70;5DWU H Y 80;5.27155
5DWU H I 70;5DWU H L 81;10.3027
5DWU H S 71;5DWU H R 72;33.243
5DWU H S 71;5DWU H D 73;0.777536
5DWU H S 71;5DWU H T 78;0.313733
5DWU H S 71;5DWU H L 79;10.9517
5DWU H S 71;5DWU H Y 80;23.8135
5DWU H S 71;5DWU H L 81;0.212944
5DWU H R 72;5DWU H D 73;34.6374
5DWU H R 72;5DWU H N 74;5.64829
5DWU H R 72;5DWU H L 79;3.47863
5DWU H D 73;5DWU H N 74;24.9451
5DWU H D 73;5DWU H S 75;17.9641
5DWU H D 73;5DWU H K 76;1.99891
5DWU H D 73;5DWU H N 77;5.22856
5DWU H D 73;5DWU H T 78;32.2655
5DWU H D 73;5DWU H L 79;3.59717
5DWU H D 73;5DWU H Y 80;0.913412
5DWU H N 74;5DWU H S 75;31.6237
5DWU H N 74;5DWU H K 76;0.0382013
5DWU H N 74;5DWU H N 77;8.95549
5DWU H S 75;5DWU H K 76;34.7991
5DWU H S 75;5DWU H N 77;6.40729
5DWU H S 75;5DWU H T 78;1.03855
5DWU H K 76;5DWU H N 77;33.9133
5DWU H K 76;5DWU H T 78;16.0678
5DWU H N 77;5DWU H T 78;27.1973
5DWU H N 77;5DWU H L 79;0.184501
5DWU H T 78;5DWU H L 79;28.7119
5DWU H T 78;5DWU H Y 80;14.8145
5DWU H L 79;5DWU H Y 80;24.1667
5DWU H L 79;5DWU H C 96;3.77681
5DWU H Y 80;5DWU H L 81;24.3299
5DWU H L 81;5DWU H Q 82;31.9758
5DWU H L 81;5DWU H M 83;10.257
5DWU H L 81;5DWU H Y 94;14.0318
5DWU H Q 82;5DWU H M 83;26.7116
5DWU H Q 82;5DWU H N 84;0.763618
5DWU H M 83;5DWU H N 84;21.8311
5DWU H M 83;5DWU H S 85;1.78018
5DWU H M 83;5DWU H L 86;24.7108
5DWU H N 84;5DWU H S 85;33.6394
5DWU H N 84;5DWU H L 86;6.24792
5DWU H S 85;5DWU H L 86;28.2472
5DWU H S 85;5DWU H R 87;0.904752
5DWU H S 85;5DWU H D 90;0.0218859
5DWU H L 86;5DWU H R 87;29.3393
5DWU H L 86;5DWU H D 90;21.0888
5DWU H L 86;5DWU H Y 94;3.8096
5DWU H L 86;5DWU H V 113;11.4901
5DWU H L 86;5DWU H V 115;15.3279
5DWU H R 87;5DWU H A 88;21.6555
5DWU H R 87;5DWU H E 89;21.2328
5DWU H R 87;5DWU H D 90;15.6493
5DWU H R 87;5DWU H T 91;0.626559
5DWU H R 87;5DWU H V 115;13.4452
5DWU H A 88;5DWU H E 89;24.6549
5DWU H A 88;5DWU H D 90;1.06565
5DWU H A 88;5DWU H T 91;25.0542
5DWU H A 88;5DWU H V 115;15.4
5DWU H A 88;5DWU H S 116;1.8571
5DWU H E 89;5DWU H D 90;28.6247
5DWU H E 89;5DWU H T 91;4.98148
5DWU H E 89;5DWU H A 92;1.75534
5DWU H D 90;5DWU H T 91;17.0481
5DWU H D 90;5DWU H A 92;12.7131
5DWU H D 90;5DWU H Y 94;19.0061
5DWU H D 90;5DWU H V 113;7.79196
5DWU H D 90;5DWU H V 115;4.62711
5DWU H T 91;5DWU H A 92;18.1624
5DWU H T 91;5DWU H V 113;4.19171
5DWU H T 91;5DWU H T 114;15.1427
5DWU H T 91;5DWU H V 115;21.1821
5DWU H T 91;5DWU H S 116;0.392552
5DWU H A 92;5DWU H V 93;22.9142
5DWU H A 92;5DWU H Y 94;8.22439
5DWU H A 92;5DWU H M 112;0.6873
5DWU H A 92;5DWU H V 113;17.1313
5DWU H A 92;5DWU H T 114;3.3252
5DWU H V 93;5DWU H Y 94;21.9269
5DWU H V 93;5DWU H Y 95;17.9677
5DWU H V 93;5DWU H Q 109;0.667455
5DWU H V 93;5DWU H G 110;1.6636
5DWU H V 93;5DWU H T 111;10.7123
5DWU H V 93;5DWU H M 112;21.5264
5DWU H V 93;5DWU H V 113;0.544845
5DWU H V 93;5DWU H T 114;0.960757
5DWU H Y 94;5DWU H Y 95;21.7742
5DWU H Y 94;5DWU H C 96;1.93987
5DWU H Y 94;5DWU H G 110;8.52019
5DWU H Y 94;5DWU H T 111;18.4824
5DWU H Y 94;5DWU H V 113;24.3853
5DWU H Y 95;5DWU H C 96;23.5572
5DWU H Y 95;5DWU H A 97;1.22227
5DWU H Y 95;5DWU H W 107;15.8046
5DWU H Y 95;5DWU H G 108;9.19378
5DWU H Y 95;5DWU H Q 109;13.3987
5DWU H Y 95;5DWU H G 110;9.14942
5DWU H Y 95;5DWU L Q 38;8.45039
5DWU H Y 95;5DWU L G 41;12.4483
5DWU H Y 95;5DWU L K 42;4.94155
5DWU H Y 95;5DWU L A 43;11.604
5DWU H Y 95;5DWU L P 44;13.5883
5DWU H C 96;5DWU H A 97;22.1002
5DWU H C 96;5DWU H I 106;0.0332508
5DWU H C 96;5DWU H W 107;7.03697
5DWU H C 96;5DWU H G 108;12.0296
5DWU H C 96;5DWU H G 110;1.39065
5DWU H A 97;5DWU H R 98;19.6418
5DWU H A 97;5DWU H F 99;0.377461
5DWU H A 97;5DWU H F 104;16.5384
5DWU H A 97;5DWU H I 106;6.25929
5DWU H A 97;5DWU H W 107;17.347
5DWU H R 98;5DWU H F 99;21.0944
5DWU H R 98;5DWU H Y 100;27.3822
5DWU H R 98;5DWU H F 104;12.9875
5DWU H R 98;5DWU H D 105;22.9243
5DWU H R 98;5DWU H I 106;37.4919
5DWU H F 99;5DWU H Y 100;15.9732
5DWU H F 99;5DWU H D 101;17.9578
5DWU H F 99;5DWU H S 102;9.8275
5DWU H F 99;5DWU H F 103;11.4338
5DWU H F 99;5DWU H F 104;20.445
5DWU H F 99;5DWU L Q 89;2.64455
5DWU H F 99;5DWU L A 91;3.28003
5DWU H F 99;5DWU L F 94;2.03008
5DWU H F 99;5DWU L I 96;16.1558
5DWU H Y 100;5DWU H D 101;23.1271
5DWU H Y 100;5DWU H S 102;1.50389
5DWU H Y 100;5DWU H F 103;41.5966
5DWU H Y 100;5DWU H F 104;2.24787
5DWU H Y 100;5DWU H D 105;13.0218
5DWU H D 101;5DWU H S 102;24.3119
5DWU H D 101;5DWU H F 103;7.98633
5DWU H D 101;5DWU L W 32;4.39242
5DWU H S 102;5DWU H F 103;31.8155
5DWU H S 102;5DWU L W 32;17.2542
5DWU H S 102;5DWU L L 33;5.64796
5DWU H S 102;5DWU L A 34;2.7777
5DWU H S 102;5DWU L A 50;8.12056
5DWU H S 102;5DWU L Q 89;6.0931
5DWU H S 102;5DWU L Q 90;0.865727
5DWU H S 102;5DWU L A 91;21.7332
5DWU H S 102;5DWU L I 96;0.188121
5DWU H F 103;5DWU H F 104;25.1886
5DWU H F 103;5DWU H D 105;6.96438
5DWU H F 103;5DWU L A 34;10.3177
5DWU H F 103;5DWU L Y 36;5.73868
5DWU H F 103;5DWU L L 46;14.1565
5DWU H F 103;5DWU L Y 49;29.7936
5DWU H F 103;5DWU L A 50;3.59004
5DWU H F 103;5DWU L Q 55;8.56907
5DWU H F 103;5DWU L Q 89;5.04733
5DWU H F 104;5DWU H D 105;22.0809
5DWU H F 104;5DWU H I 106;0.350692
5DWU H F 104;5DWU H W 107;17.7654
5DWU H F 104;5DWU L Y 36;22.2253
5DWU H F 104;5DWU L L 46;8.82927
5DWU H F 104;5DWU L Q 89;17.5562
5DWU H F 104;5DWU L I 96;5.49462
5DWU H F 104;5DWU L F 98;8.1106
5DWU H D 105;5DWU H I 106;25.6128
5DWU H D 105;5DWU H W 107;19.8195
5DWU H D 105;5DWU L L 46;16.1148
5DWU H D 105;5DWU L Q 55;19.5312
5DWU H I 106;5DWU H W 107;24.7959
5DWU H W 107;5DWU H G 108;25.96
5DWU H W 107;5DWU L Y 36;17.7131
5DWU H W 107;5DWU L A 43;12.6986
5DWU H W 107;5DWU L P 44;36.0107
5DWU H W 107;5DWU L K 45;1.60001
5DWU H W 107;5DWU L L 46;4.88797
5DWU H W 107;5DWU L F 98;5.68392
5DWU H G 108;5DWU H Q 109;22.7704
5DWU H G 108;5DWU H G 110;3.16585
5DWU H G 108;5DWU L A 43;9.97878
5DWU H Q 109;5DWU H G 110;30.7027
5DWU H Q 109;5DWU L G 41;2.12847
5DWU H Q 109;5DWU L A 43;5.94294
5DWU H G 110;5DWU H T 111;30.3866
5DWU H T 111;5DWU H M 112;31.16
5DWU H T 111;5DWU H V 113;9.5724
5DWU H M 112;5DWU H V 113;21.6762
5DWU H M 112;5DWU H T 114;14.3422
5DWU H M 112;5DWU H E 152;8.50138
5DWU H M 112;5DWU H P 153;13.6365
5DWU H V 113;5DWU H T 114;19.6211
5DWU H V 113;5DWU H V 115;12.9268
5DWU H T 114;5DWU H V 115;19.1575
5DWU H T 114;5DWU H S 116;10.9434
5DWU H T 114;5DWU H P 151;10.0291
5DWU H T 114;5DWU H E 152;22.845
5DWU H V 115;5DWU H S 116;29.3152
5DWU H S 116;5DWU H S 117;22.7145
5DWU H S 116;5DWU H A 118;16.6233
5DWU H S 117;5DWU H A 118;32.4355
5DWU H A 118;5DWU H S 119;42.9007
5DWU H S 119;5DWU H T 120;43.2486
5DWU H S 119;5DWU H K 121;0.851638
5DWU H S 119;5DWU H P 151;9.36465
5DWU H T 120;5DWU H K 121;35.8376
5DWU H T 120;5DWU H G 122;4.03174
5DWU H T 120;5DWU H D 148;2.18048
5DWU H T 120;5DWU H P 151;26.1343
5DWU H T 120;5DWU H P 206;15.2931
5DWU H T 120;5DWU H S 207;20.339
5DWU H K 121;5DWU H G 122;30.7707
5DWU H K 121;5DWU H P 123;4.36918
5DWU H K 121;5DWU H D 148;22.6237
5DWU H K 121;5DWU H S 207;1.37913
5DWU H G 122;5DWU H P 123;33.0617
5DWU H G 122;5DWU H S 124;0.859814
5DWU H G 122;5DWU H D 148;3.55719
5DWU H G 122;5DWU H S 207;7.01882
5DWU H G 122;5DWU H T 209;7.95927
5DWU H P 123;5DWU H S 124;32.8358
5DWU H P 123;5DWU H V 125;2.80105
5DWU H P 123;5DWU H V 146;13.5934
5DWU H P 123;5DWU H K 147;14.9788
5DWU H P 123;5DWU H D 148;9.56507
5DWU H P 123;5DWU H Y 149;7.95035
5DWU H P 123;5DWU H V 154;4.93926
5DWU H P 123;5DWU H V 202;5.84281
5DWU H P 123;5DWU H H 204;2.57688
5DWU H P 123;5DWU H S 207;11.5463
5DWU H P 123;5DWU H T 209;18.5477
5DWU H S 124;5DWU H V 125;29.3588
5DWU H S 124;5DWU H F 126;10.5792
5DWU H S 124;5DWU H L 145;0.279876
5DWU H S 124;5DWU H V 146;5.84169
5DWU H S 124;5DWU H K 147;13.236
5DWU H S 124;5DWU L Q 124;0.082957
5DWU H S 124;5DWU L S 127;2.73995
5DWU H V 125;5DWU H F 126;21.7528
5DWU H V 125;5DWU H P 127;5.63306
5DWU H V 125;5DWU H C 144;12.84
5DWU H V 125;5DWU H L 145;5.4495
5DWU H V 125;5DWU H V 146;14.0946
5DWU H V 125;5DWU H C 200;3.69073
5DWU H V 125;5DWU H V 202;13.0536
5DWU H F 126;5DWU H P 127;35.6677
5DWU H F 126;5DWU H L 128;9.96705e-05
5DWU H F 126;5DWU H C 144;5.63604
5DWU H F 126;5DWU H L 145;29.1809
5DWU H F 126;5DWU H V 146;0.247462
5DWU H F 126;5DWU L P 120;0.00738069
5DWU H F 126;5DWU L S 121;8.58252
5DWU H F 126;5DWU L Q 124;22.5279
5DWU H P 127;5DWU H L 128;33.0569
5DWU H P 127;5DWU H A 129;0.862948
5DWU H P 127;5DWU H G 143;8.76702
5DWU H P 127;5DWU H C 144;6.70679
5DWU H P 127;5DWU H L 145;2.48615
5DWU H P 127;5DWU L P 119;7.69995
5DWU H P 127;5DWU L P 120;2.81786
5DWU H P 127;5DWU L S 121;17.8491
5DWU H L 128;5DWU H A 129;25.1454
5DWU H L 128;5DWU H A 141;0.318284
5DWU H L 128;5DWU H L 142;9.1002
5DWU H L 128;5DWU H G 143;20.8868
5DWU H L 128;5DWU H C 144;2.65444
5DWU H L 128;5DWU H L 145;3.27705
5DWU H L 128;5DWU H V 185;2.03486
5DWU H L 128;5DWU L F 118;26.1563
5DWU H L 128;5DWU L P 119;7.47681
5DWU H L 128;5DWU L V 133;8.49359
5DWU H A 129;5DWU H A 141;3.10928
5DWU H A 129;5DWU H L 142;0.898295
5DWU H A 129;5DWU L I 117;4.69247
5DWU H A 129;5DWU L F 118;14.0435
5DWU H A 129;5DWU L P 119;25.8232
5DWU H T 139;5DWU H A 140;24.9908
5DWU H T 139;5DWU H T 187;2.43563
5DWU H T 139;5DWU H V 188;0.536389
5DWU H T 139;5DWU H P 189;16.8431
5DWU H T 139;5DWU H S 190;18.8737
5DWU H T 139;5DWU L F 116;9.54359
5DWU H A 140;5DWU H A 141;27.3167
5DWU H A 140;5DWU H T 187;10.3691
5DWU H A 140;5DWU H V 188;21.2024
5DWU H A 140;5DWU H P 189;4.64228
5DWU H A 140;5DWU H S 190;14.298
5DWU H A 140;5DWU H L 193;3.43267
5DWU H A 140;5DWU L F 116;16.6453
5DWU H A 141;5DWU H L 142;27.0409
5DWU H A 141;5DWU H V 185;1.90712
5DWU H A 141;5DWU H V 186;9.76287
5DWU H A 141;5DWU H T 187;7.6481
5DWU H A 141;5DWU H V 188;7.53926
5DWU H A 141;5DWU L F 116;23.5951
5DWU H A 141;5DWU L F 118;18.4161
5DWU H A 141;5DWU L L 135;1.73428
5DWU H L 142;5DWU H G 143;22.8321
5DWU H L 142;5DWU H W 158;5.11697
5DWU H L 142;5DWU H V 185;3.40296
5DWU H L 142;5DWU H V 186;25.7407
5DWU H L 142;5DWU H T 187;0.0157552
5DWU H L 142;5DWU H V 188;6.5589
5DWU H L 142;5DWU H Y 198;11.7969
5DWU H L 142;5DWU L F 118;7.74729
5DWU H G 143;5DWU H C 144;20.4774
5DWU H G 143;5DWU H W 158;15.6201
5DWU H G 143;5DWU H S 184;2.33475
5DWU H G 143;5DWU H V 185;13.0387
5DWU H G 143;5DWU H V 186;0.0456651
5DWU H G 143;5DWU L F 118;2.75767
5DWU H C 144;5DWU H L 145;28.3103
5DWU H C 144;5DWU H V 146;6.7215
5DWU H C 144;5DWU H V 156;6.21802
5DWU H C 144;5DWU H W 158;10.5849
5DWU H C 144;5DWU H S 183;4.49077
5DWU H C 144;5DWU H S 184;24.6916
5DWU H C 144;5DWU H V 185;1.57518
5DWU H C 144;5DWU H C 200;25.0019
5DWU H C 144;5DWU H V 202;1.50764
5DWU H L 145;5DWU H V 146;31.8743
5DWU H L 145;5DWU H L 182;3.66359
5DWU H L 145;5DWU H S 183;13.0735
5DWU H L 145;5DWU L Q 124;0.0543067
5DWU H L 145;5DWU L V 133;11.1292
5DWU H V 146;5DWU H K 147;29.3261
5DWU H V 146;5DWU H Y 149;8.03475
5DWU H V 146;5DWU H V 154;5.44796
5DWU H V 146;5DWU H V 156;0.130764
5DWU H V 146;5DWU H Y 180;0.000738312
5DWU H V 146;5DWU H S 181;12.02
5DWU H V 146;5DWU H L 182;30.6585
5DWU H V 146;5DWU H S 183;0.993403
5DWU H V 146;5DWU H V 202;14.4189
5DWU H K 147;5DWU H D 148;29.405
5DWU H K 147;5DWU H Y 149;4.21779
5DWU H K 147;5DWU H Y 180;2.07961
5DWU H K 147;5DWU H S 181;11.1277
5DWU H D 148;5DWU H Y 149;23.7805
5DWU H D 148;5DWU H P 151;2.52178
5DWU H D 148;5DWU H L 179;20.5537
5DWU H D 148;5DWU H Y 180;7.3333
5DWU H D 148;5DWU H S 181;1.2434
5DWU H Y 149;5DWU H P 151;25.3276
5DWU H Y 149;5DWU H E 152;4.60563
5DWU H Y 149;5DWU H V 154;25.2861
5DWU H Y 149;5DWU H L 179;8.03115
5DWU H Y 149;5DWU H Y 180;33.7744
5DWU H Y 149;5DWU H S 181;0.686786
5DWU H Y 149;5DWU H L 182;4.92749
5DWU H P 151;5DWU H E 152;29.937
5DWU H P 151;5DWU H P 153;2.84293
5DWU H P 151;5DWU H V 154;4.60817
5DWU H P 151;5DWU H Y 180;8.75439
5DWU H P 151;5DWU H P 206;25.4607
5DWU H P 151;5DWU H S 207;0.112859
5DWU H E 152;5DWU H P 153;42.4249
5DWU H E 152;5DWU H V 154;9.36206
5DWU H E 152;5DWU H A 172;21.6057
5DWU H E 152;5DWU H Y 180;33.4871
5DWU H E 152;5DWU H P 206;6.49904
5DWU H P 153;5DWU H V 154;36.0818
5DWU H P 153;5DWU H T 155;0.909083
5DWU H P 153;5DWU H H 204;5.1555
5DWU H P 153;5DWU H K 205;0.219538
5DWU H P 153;5DWU H P 206;15.9387
5DWU H V 154;5DWU H T 155;31.0796
5DWU H V 154;5DWU H V 156;1.63429
5DWU H V 154;5DWU H A 172;2.3347
5DWU H V 154;5DWU H L 182;16.1914
5DWU H V 154;5DWU H V 202;7.99589
5DWU H V 154;5DWU H D 203;3.11289
5DWU H V 154;5DWU H H 204;17.5877
5DWU H V 154;5DWU H P 206;1.06433
5DWU H V 154;5DWU H S 207;0.934963
5DWU H T 155;5DWU H V 156;34.7009
5DWU H T 155;5DWU H S 157;0.715403
5DWU H T 155;5DWU H N 201;0.173214
5DWU H T 155;5DWU H V 202;8.00288
5DWU H T 155;5DWU H D 203;37.6423
5DWU H T 155;5DWU H H 204;1.19253
5DWU H V 156;5DWU H S 157;30.9777
5DWU H V 156;5DWU H W 158;11.0425
5DWU H V 156;5DWU H T 169;13.151
5DWU H V 156;5DWU H S 184;18.8362
5DWU H V 156;5DWU H C 200;13.8663
5DWU H V 156;5DWU H N 201;3.08739
5DWU H V 156;5DWU H V 202;17.3147
5DWU H V 156;5DWU H D 203;0.000180586
5DWU H S 157;5DWU H W 158;21.4956
5DWU H S 157;5DWU H N 159;3.20181
5DWU H S 157;5DWU H S 160;16.2159
5DWU H S 157;5DWU H G 161;7.11382
5DWU H S 157;5DWU H C 200;3.54552
5DWU H S 157;5DWU H N 201;30.4927
5DWU H S 157;5DWU H D 203;8.18345
5DWU H W 158;5DWU H N 159;21.5419
5DWU H W 158;5DWU H S 160;2.35414
5DWU H W 158;5DWU H G 161;7.96369
5DWU H W 158;5DWU H A 162;2.62132
5DWU H W 158;5DWU H L 163;25.9926
5DWU H W 158;5DWU H V 167;15.3854
5DWU H W 158;5DWU H S 184;17.9147
5DWU H W 158;5DWU H V 185;4.35724
5DWU H W 158;5DWU H V 186;24.7863
5DWU H W 158;5DWU H Y 198;16.5984
5DWU H W 158;5DWU H T 199;11.681
5DWU H W 158;5DWU H C 200;23.7136
5DWU H N 159;5DWU H S 160;26.915
5DWU H N 159;5DWU H G 161;0.903039
5DWU H N 159;5DWU H A 162;27.0223
5DWU H N 159;5DWU H L 163;9.2406
5DWU H N 159;5DWU H K 196;1.86201
5DWU H N 159;5DWU H T 197;13.6182
5DWU H N 159;5DWU H Y 198;13.3809
5DWU H N 159;5DWU H T 199;17.7169
5DWU H N 159;5DWU H C 200;0.290824
5DWU H N 159;5DWU H N 201;5.35306
5DWU H S 160;5DWU H G 161;24.9807
5DWU H S 160;5DWU H A 162;3.39221
5DWU H S 160;5DWU H N 201;16.993
5DWU H G 161;5DWU H A 162;26.4411
5DWU H G 161;5DWU H L 163;3.95041
5DWU H G 161;5DWU H T 164;8.48912
5DWU H A 162;5DWU H L 163;24.1044
5DWU H A 162;5DWU H T 164;14.3863
5DWU H L 163;5DWU H T 164;21.2527
5DWU H L 163;5DWU H S 165;7.71324
5DWU H L 163;5DWU H V 167;15.0164
5DWU H L 163;5DWU H V 186;12.1816
5DWU H L 163;5DWU H Y 198;9.79876
5DWU H T 164;5DWU H S 165;37.2775
5DWU H T 164;5DWU H G 166;1.53329
5DWU H T 164;5DWU H V 167;19.097
5DWU H S 165;5DWU H G 166;29.8217
5DWU H S 165;5DWU H V 167;5.72358
5DWU H S 165;5DWU H V 186;4.88916
5DWU H S 165;5DWU H T 187;1.93954
5DWU H G 166;5DWU H V 167;24.4996
5DWU H G 166;5DWU H H 168;3.81785
5DWU H G 166;5DWU H V 185;0.134652
5DWU H G 166;5DWU H V 186;8.33404
5DWU H G 166;5DWU H T 187;28.5969
5DWU H G 166;5DWU L N 137;3.15935
5DWU H V 167;5DWU H H 168;29.8283
5DWU H V 167;5DWU H T 169;9.11711
5DWU H V 167;5DWU H S 184;4.22642
5DWU H V 167;5DWU H V 185;7.7881
5DWU H V 167;5DWU H V 186;13.6629
5DWU H H 168;5DWU H T 169;28.5516
5DWU H H 168;5DWU H F 170;7.10175
5DWU H H 168;5DWU H S 184;0.006722
5DWU H H 168;5DWU H V 185;20.4372
5DWU H H 168;5DWU L N 137;16.8051
5DWU H H 168;5DWU L T 164;4.28275
5DWU H H 168;5DWU L S 174;11.2961
5DWU H T 169;5DWU H F 170;37.2822
5DWU H T 169;5DWU H S 183;4.22658
5DWU H T 169;5DWU H S 184;18.8691
5DWU H T 169;5DWU H V 185;1.4718
5DWU H T 169;5DWU L T 164;15.5312
5DWU H T 169;5DWU L S 174;0.948217
5DWU H F 170;5DWU H P 171;40.2342
5DWU H F 170;5DWU H L 182;5.23237
5DWU H F 170;5DWU H S 183;30.0536
5DWU H F 170;5DWU H S 184;2.57667
5DWU H F 170;5DWU H V 185;14.1612
5DWU H F 170;5DWU L L 135;10.8153
5DWU H F 170;5DWU L N 137;0.0488798
5DWU H F 170;5DWU L S 162;14.0033
5DWU H F 170;5DWU L V 163;4.57314
5DWU H F 170;5DWU L T 164;9.09202
5DWU H F 170;5DWU L S 174;18.2586
5DWU H F 170;5DWU L L 175;9.58728
5DWU H F 170;5DWU L S 176;19.1256
5DWU H P 171;5DWU H A 172;37.5143
5DWU H P 171;5DWU H V 173;3.32439
5DWU H P 171;5DWU H S 181;0.140102
5DWU H P 171;5DWU H L 182;8.67691
5DWU H P 171;5DWU H S 183;1.62995
5DWU H P 171;5DWU L S 162;13.7907
5DWU H P 171;5DWU L V 163;18.0655
5DWU H P 171;5DWU L T 164;9.60721
5DWU H P 171;5DWU L E 165;0.00210101
5DWU H A 172;5DWU H V 173;27.5011
5DWU H A 172;5DWU H Y 180;15.2371
5DWU H A 172;5DWU H L 182;9.90069
5DWU H A 172;5DWU L S 162;4.8807
5DWU H V 173;5DWU H L 174;28.5151
5DWU H V 173;5DWU H Q 175;1.91147
5DWU H V 173;5DWU H L 179;1.20733
5DWU H V 173;5DWU H Y 180;11.9061
5DWU H V 173;5DWU H S 181;28.1524
5DWU H V 173;5DWU H L 182;1.43039
5DWU H V 173;5DWU L Q 160;11.4467
5DWU H V 173;5DWU L S 162;16.9775
5DWU H L 174;5DWU H Q 175;37.8127
5DWU H L 174;5DWU H S 176;1.18454
5DWU H L 174;5DWU H G 178;19.7364
5DWU H L 174;5DWU H L 179;8.17652
5DWU H L 174;5DWU H Y 180;37.558
5DWU H L 174;5DWU L Q 160;2.44956
5DWU H Q 175;5DWU H S 176;34.0117
5DWU H Q 175;5DWU H S 177;2.33774
5DWU H Q 175;5DWU H G 178;13.5593
5DWU H Q 175;5DWU H L 179;17.5253
5DWU H Q 175;5DWU H S 181;7.90956
5DWU H S 176;5DWU H S 177;33.3702
5DWU H S 176;5DWU H G 178;3.00049
5DWU H S 176;5DWU L N 158;10.6742
5DWU H S 177;5DWU H G 178;33.8144
5DWU H S 177;5DWU H L 179;0.092661
5DWU H G 178;5DWU H L 179;26.0138
5DWU H L 179;5DWU H Y 180;24.3639
5DWU H L 179;5DWU H S 181;2.197
5DWU H Y 180;5DWU H S 181;21.4861
5DWU H Y 180;5DWU H L 182;1.32549
5DWU H S 181;5DWU H L 182;27.3378
5DWU H S 181;5DWU H S 183;6.22329
5DWU H L 182;5DWU H S 183;33.4097
5DWU H S 183;5DWU H S 184;24.7698
5DWU H S 183;5DWU H V 185;4.26332
5DWU H S 183;5DWU L V 133;2.29751
5DWU H S 183;5DWU L S 162;2.39004
5DWU H S 183;5DWU L S 176;11.0739
5DWU H S 183;5DWU L T 178;8.03388
5DWU H S 184;5DWU H V 185;27.2506
5DWU H V 185;5DWU H V 186;28.0971
5DWU H V 185;5DWU L F 118;7.56293
5DWU H V 185;5DWU L L 135;28.411
5DWU H V 185;5DWU L N 137;6.08666
5DWU H V 186;5DWU H T 187;34.4685
5DWU H V 186;5DWU H V 188;2.30464
5DWU H V 186;5DWU H Y 198;11.3841
5DWU H T 187;5DWU H V 188;33.6121
5DWU H T 187;5DWU H P 189;0.0587728
5DWU H T 187;5DWU H Y 198;0.979943
5DWU H T 187;5DWU L F 116;0.348497
5DWU H T 187;5DWU L N 137;1.07552
5DWU H V 188;5DWU H P 189;32.2248
5DWU H V 188;5DWU H S 192;9.7135
5DWU H V 188;5DWU H Y 198;20.9262
5DWU H P 189;5DWU H S 190;17.8391
5DWU H P 189;5DWU H S 191;21.3732
5DWU H P 189;5DWU H S 192;23.5854
5DWU H P 189;5DWU H L 193;5.39301
5DWU H P 189;5DWU H Y 198;0.860481
5DWU H S 190;5DWU H S 191;26.3486
5DWU H S 190;5DWU H S 192;1.02798
5DWU H S 190;5DWU H L 193;26.8649
5DWU H S 191;5DWU H S 192;22.2984
5DWU H S 191;5DWU H L 193;6.18182
5DWU H S 191;5DWU H T 195;8.35324
5DWU H S 192;5DWU H L 193;19.3903
5DWU H S 192;5DWU H G 194;6.37509
5DWU H S 192;5DWU H T 195;24.8952
5DWU H S 192;5DWU H K 196;2.86133
5DWU H S 192;5DWU H Y 198;22.8358
5DWU H L 193;5DWU H G 194;29.3345
5DWU H L 193;5DWU H T 195;1.14542
5DWU H G 194;5DWU H T 195;29.2259
5DWU H G 194;5DWU H K 196;7.58003
5DWU H T 195;5DWU H K 196;39.2002
5DWU H T 195;5DWU H Y 198;4.32297
5DWU H K 196;5DWU H T 197;32.9679
5DWU H K 196;5DWU H Y 198;32.1016
5DWU H T 197;5DWU H Y 198;21.8431
5DWU H T 197;5DWU H T 199;17.8612
5DWU H Y 198;5DWU H T 199;27.9837
5DWU H T 199;5DWU H C 200;31.2467
5DWU H T 199;5DWU H N 201;12.9596
5DWU H C 200;5DWU H N 201;22.3883
5DWU H C 200;5DWU H V 202;11.0909
5DWU H N 201;5DWU H V 202;24.2067
5DWU H N 201;5DWU H D 203;8.30011
5DWU H V 202;5DWU H D 203;33.0836
5DWU H V 202;5DWU H H 204;3.37619
5DWU H V 202;5DWU H T 209;9.56682
5DWU H V 202;5DWU H K 210;29.2406
5DWU H D 203;5DWU H H 204;28.9241
5DWU H D 203;5DWU H T 209;6.79593
5DWU H D 203;5DWU H K 210;10.7834
5DWU H H 204;5DWU H K 205;24.9529
5DWU H H 204;5DWU H P 206;8.82793
5DWU H H 204;5DWU H S 207;14.4889
5DWU H H 204;5DWU H N 208;6.91257
5DWU H H 204;5DWU H T 209;23.9642
5DWU H K 205;5DWU H P 206;35.3942
5DWU H K 205;5DWU H S 207;0.910918
5DWU H K 205;5DWU H N 208;15.8388
5DWU H P 206;5DWU H S 207;24.7375
5DWU H P 206;5DWU H N 208;7.116
5DWU H S 207;5DWU H N 208;29.0324
5DWU H S 207;5DWU H T 209;22.3452
5DWU H N 208;5DWU H T 209;27.2602
5DWU H N 208;5DWU H K 210;1.24682
5DWU H T 209;5DWU H K 210;37.4541
5DWU L D 1;5DWU L I 2;35.3926
5DWU L D 1;5DWU L Q 3;4.50709
5DWU L D 1;5DWU L S 26;0.703206
5DWU L D 1;5DWU L Q 27;6.85637
5DWU L D 1;5DWU L P 95;30.774
5DWU L D 1;5DWU L T 97;7.50065
5DWU L I 2;5DWU L Q 3;24.7022
5DWU L I 2;5DWU L M 4;10.6978
5DWU L I 2;5DWU L A 25;5.21032
5DWU L I 2;5DWU L S 26;4.93013
5DWU L I 2;5DWU L Q 27;30.1084
5DWU L I 2;5DWU L G 28;0.130191
5DWU L I 2;5DWU L I 29;5.64147
5DWU L I 2;5DWU L Q 90;21.0978
5DWU L I 2;5DWU L S 93;10.4111
5DWU L I 2;5DWU L F 94;9.80732
5DWU L I 2;5DWU L P 95;13.8183
5DWU L I 2;5DWU L T 97;19.6811
5DWU L Q 3;5DWU L M 4;22.0461
5DWU L Q 3;5DWU L T 5;11.5539
5DWU L Q 3;5DWU L R 24;2.62458
5DWU L Q 3;5DWU L A 25;6.35399
5DWU L Q 3;5DWU L S 26;30.5624
5DWU L M 4;5DWU L T 5;32.4728
5DWU L M 4;5DWU L C 23;10.6896
5DWU L M 4;5DWU L R 24;9.15968
5DWU L M 4;5DWU L A 25;14.4672
5DWU L M 4;5DWU L I 29;4.40041
5DWU L M 4;5DWU L L 33;12.1699
5DWU L M 4;5DWU L C 88;14.2813
5DWU L M 4;5DWU L Q 89;1.37348
5DWU L M 4;5DWU L Q 90;19.1697
5DWU L M 4;5DWU L T 97;12.41
5DWU L M 4;5DWU L F 98;19.1241
5DWU L M 4;5DWU L G 99;10.1982
5DWU L M 4;5DWU L Q 100;3.85498
5DWU L T 5;5DWU L Q 6;26.558
5DWU L T 5;5DWU L S 7;1.45008
5DWU L T 5;5DWU L T 22;0.855755
5DWU L T 5;5DWU L C 23;2.25202
5DWU L T 5;5DWU L R 24;34.277
5DWU L T 5;5DWU L C 88;0.605759
5DWU L T 5;5DWU L G 99;2.03015
5DWU L T 5;5DWU L Q 100;12.7479
5DWU L Q 6;5DWU L S 7;25.4757
5DWU L Q 6;5DWU L P 8;2.43769
5DWU L Q 6;5DWU L S 9;0.951039
5DWU L Q 6;5DWU L I 21;8.04108
5DWU L Q 6;5DWU L T 22;6.77718
5DWU L Q 6;5DWU L C 23;3.81091
5DWU L Q 6;5DWU L W 35;6.77397
5DWU L Q 6;5DWU L Y 86;8.36299
5DWU L Q 6;5DWU L Y 87;8.56226
5DWU L Q 6;5DWU L C 88;16.621
5DWU L Q 6;5DWU L G 99;12.1423
5DWU L Q 6;5DWU L Q 100;28.8963
5DWU L Q 6;5DWU L G 101;9.2369
5DWU L Q 6;5DWU L T 102;18.8276
5DWU L S 7;5DWU L P 8;41.2034
5DWU L S 7;5DWU L S 9;1.70309
5DWU L S 7;5DWU L I 21;7.66936
5DWU L S 7;5DWU L T 22;30.2027
5DWU L S 7;5DWU L R 24;0.816441
5DWU L S 7;5DWU L T 102;0.966609
5DWU L P 8;5DWU L S 9;25.0007
5DWU L P 8;5DWU L S 10;10.5373
5DWU L P 8;5DWU L V 11;21.023
5DWU L P 8;5DWU L T 20;9.23351
5DWU L P 8;5DWU L I 21;10.6322
5DWU L P 8;5DWU L T 22;1.30344
5DWU L P 8;5DWU L Q 100;0.717524
5DWU L P 8;5DWU L T 102;14.8982
5DWU L S 9;5DWU L S 10;33.5376
5DWU L S 9;5DWU L Q 100;25.1678
5DWU L S 9;5DWU L G 101;4.64513
5DWU L S 9;5DWU L T 102;8.67694
5DWU L S 9;5DWU L R 103;5.01162
5DWU L S 10;5DWU L V 11;31.3853
5DWU L S 10;5DWU L T 102;5.14138
5DWU L S 10;5DWU L R 103;18.5874
5DWU L V 11;5DWU L S 12;33.0542
5DWU L V 11;5DWU L A 13;10.1146
5DWU L V 11;5DWU L V 19;15.6219
5DWU L V 11;5DWU L T 20;5.53307
5DWU L V 11;5DWU L I 21;6.7466
5DWU L V 11;5DWU L T 102;7.67379
5DWU L V 11;5DWU L R 103;5.10642
5DWU L V 11;5DWU L L 104;19.7838
5DWU L V 11;5DWU L E 105;6.24106
5DWU L S 12;5DWU L A 13;27.7168
5DWU L S 12;5DWU L E 105;23.2982
5DWU L S 12;5DWU L I 106;2.19014
5DWU L S 12;5DWU L K 107;5.57168
5DWU L S 12;5DWU L Y 140;4.04391
5DWU L A 13;5DWU L S 14;23.1227
5DWU L A 13;5DWU L D 17;11.3269
5DWU L A 13;5DWU L R 18;1.76599
5DWU L A 13;5DWU L V 19;11.5858
5DWU L A 13;5DWU L L 78;12.4881
5DWU L A 13;5DWU L E 105;9.83953
5DWU L A 13;5DWU L I 106;8.77498
5DWU L A 13;5DWU L K 107;12.5174
5DWU L S 14;5DWU L V 15;27.2306
5DWU L S 14;5DWU L G 16;0.190963
5DWU L S 14;5DWU L D 17;30.8506
5DWU L S 14;5DWU L L 78;8.40573
5DWU L S 14;5DWU L I 106;3.77335
5DWU L S 14;5DWU L K 107;30.0287
5DWU L V 15;5DWU L G 16;25.0318
5DWU L V 15;5DWU L D 17;8.90283
5DWU L V 15;5DWU L L 78;14.0828
5DWU L V 15;5DWU L Q 79;13.5987
5DWU L V 15;5DWU L P 80;20.943
5DWU L V 15;5DWU L I 106;16.2763
5DWU L V 15;5DWU L K 107;2.34415
5DWU L V 15;5DWU L S 171;2.67144
5DWU L G 16;5DWU L D 17;27.1716
5DWU L G 16;5DWU L S 76;1.02569
5DWU L G 16;5DWU L S 77;15.4587
5DWU L G 16;5DWU L L 78;14.6886
5DWU L G 16;5DWU L Q 79;0.687353
5DWU L D 17;5DWU L R 18;30.0382
5DWU L D 17;5DWU L V 19;9.34495
5DWU L D 17;5DWU L I 75;3.2815
5DWU L D 17;5DWU L S 76;3.6377
5DWU L D 17;5DWU L S 77;6.8011
5DWU L D 17;5DWU L L 78;14.4733
5DWU L R 18;5DWU L V 19;28.834
5DWU L R 18;5DWU L T 20;8.9491
5DWU L R 18;5DWU L T 74;19.6921
5DWU L R 18;5DWU L I 75;7.85692
5DWU L R 18;5DWU L S 76;37.4931
5DWU L V 19;5DWU L T 20;36.2905
5DWU L V 19;5DWU L I 21;8.49451
5DWU L V 19;5DWU L L 73;0.381711
5DWU L V 19;5DWU L T 74;7.37319
5DWU L V 19;5DWU L I 75;34.0753
5DWU L V 19;5DWU L L 78;15.8783
5DWU L V 19;5DWU L L 104;10.688
5DWU L T 20;5DWU L I 21;28.194
5DWU L T 20;5DWU L T 22;6.17565
5DWU L T 20;5DWU L T 72;3.23761
5DWU L T 20;5DWU L L 73;7.41439
5DWU L T 20;5DWU L T 74;15.7647
5DWU L I 21;5DWU L T 22;27.8871
5DWU L I 21;5DWU L W 35;16.7717
5DWU L I 21;5DWU L T 72;6.0078
5DWU L I 21;5DWU L L 73;28.1322
5DWU L I 21;5DWU L Y 86;16.9565
5DWU L I 21;5DWU L T 102;22.6142
5DWU L I 21;5DWU L L 104;7.47638
5DWU L T 22;5DWU L C 23;22.3226
5DWU L T 22;5DWU L R 24;8.83939
5DWU L T 22;5DWU L W 35;4.04252
5DWU L T 22;5DWU L F 71;10.5474
5DWU L T 22;5DWU L T 72;14.9179
5DWU L C 23;5DWU L R 24;25.8561
5DWU L C 23;5DWU L A 25;0.341116
5DWU L C 23;5DWU L L 33;13.8335
5DWU L C 23;5DWU L A 34;0.910368
5DWU L C 23;5DWU L W 35;17.8394
5DWU L C 23;5DWU L T 69;6.33569
5DWU L C 23;5DWU L D 70;1.7172
5DWU L C 23;5DWU L F 71;22.9494
5DWU L C 23;5DWU L T 72;0.206183
5DWU L C 23;5DWU L C 88;18.7128
5DWU L R 24;5DWU L A 25;26.5884
5DWU L R 24;5DWU L T 69;24.2274
5DWU L R 24;5DWU L D 70;27.276
5DWU L A 25;5DWU L S 26;27.3933
5DWU L A 25;5DWU L Q 27;10.0881
5DWU L A 25;5DWU L I 29;14.203
5DWU L A 25;5DWU L L 33;1.7431
5DWU L A 25;5DWU L T 69;25.4939
5DWU L A 25;5DWU L F 71;0.381659
5DWU L S 26;5DWU L Q 27;46.8294
5DWU L S 26;5DWU L T 69;0.00151834
5DWU L Q 27;5DWU L G 28;36.3694
5DWU L Q 27;5DWU L I 29;5.40597
5DWU L Q 27;5DWU L G 68;0.547055
5DWU L Q 27;5DWU L T 69;7.3297
5DWU L G 28;5DWU L I 29;27.2702
5DWU L G 28;5DWU L S 30;0.00825052
5DWU L G 28;5DWU L G 68;6.98895
5DWU L G 28;5DWU L T 69;2.47263
5DWU L G 28;5DWU L N 92;13.8975
5DWU L I 29;5DWU L S 30;25.8337
5DWU L I 29;5DWU L S 31;6.15654
5DWU L I 29;5DWU L W 32;19.9642
5DWU L I 29;5DWU L L 33;13.8751
5DWU L I 29;5DWU L G 68;12.3
5DWU L I 29;5DWU L T 69;3.14358
5DWU L I 29;5DWU L F 71;12.2948
5DWU L I 29;5DWU L Q 90;13.5517
5DWU L I 29;5DWU L N 92;23.5454
5DWU L S 30;5DWU L S 31;26.7774
5DWU L S 30;5DWU L W 32;10.3748
5DWU L S 30;5DWU L S 67;8.95764
5DWU L S 30;5DWU L G 68;17.6369
5DWU L S 30;5DWU L F 71;2.45105
5DWU L S 30;5DWU L N 92;5.0258
5DWU L S 31;5DWU L W 32;24.2321
5DWU L S 31;5DWU L L 33;6.48375
5DWU L S 31;5DWU L A 50;14.6929
5DWU L S 31;5DWU L A 51;9.43508
5DWU L S 31;5DWU L G 66;5.43284
5DWU L S 31;5DWU L S 67;8.48939
5DWU L S 31;5DWU L F 71;9.24731
5DWU L W 32;5DWU L L 33;18.9983
5DWU L W 32;5DWU L A 50;9.83622
5DWU L W 32;5DWU L Q 90;2.40476
5DWU L W 32;5DWU L A 91;16.5779
5DWU L W 32;5DWU L N 92;24.4828
5DWU L L 33;5DWU L A 34;29.3188
5DWU L L 33;5DWU L W 35;10.4523
5DWU L L 33;5DWU L A 50;7.99895
5DWU L L 33;5DWU L A 51;21.8768
5DWU L L 33;5DWU L F 71;27.5725
5DWU L L 33;5DWU L C 88;1.20041
5DWU L L 33;5DWU L Q 89;11.6271
5DWU L L 33;5DWU L Q 90;4.76254
5DWU L L 33;5DWU L A 91;6.66324
5DWU L A 34;5DWU L W 35;25.0765
5DWU L A 34;5DWU L Y 36;6.78641
5DWU L A 34;5DWU L L 46;4.17406
5DWU L A 34;5DWU L I 48;5.67625
5DWU L A 34;5DWU L Y 49;6.82213
5DWU L A 34;5DWU L A 50;2.54974
5DWU L A 34;5DWU L A 51;3.13344
5DWU L A 34;5DWU L Y 87;0.539209
5DWU L A 34;5DWU L C 88;5.08948
5DWU L A 34;5DWU L Q 89;25.8837
5DWU L W 35;5DWU L Y 36;25.2716
5DWU L W 35;5DWU L L 46;5.33389
5DWU L W 35;5DWU L L 47;12.7267
5DWU L W 35;5DWU L I 48;29.9194
5DWU L W 35;5DWU L A 51;6.90867
5DWU L W 35;5DWU L G 64;3.59059
5DWU L W 35;5DWU L S 65;0.293004
5DWU L W 35;5DWU L F 71;4.37216
5DWU L W 35;5DWU L T 72;14.9448
5DWU L W 35;5DWU L L 73;32.9617
5DWU L W 35;5DWU L Y 86;7.45876
5DWU L W 35;5DWU L Y 87;12.6209
5DWU L W 35;5DWU L C 88;10.0403
5DWU L Y 36;5DWU L Q 37;21.2501
5DWU L Y 36;5DWU L Q 38;0.163623
5DWU L Y 36;5DWU L P 44;13.4619
5DWU L Y 36;5DWU L K 45;9.01059
5DWU L Y 36;5DWU L L 46;20.8584
5DWU L Y 36;5DWU L L 47;6.46404
5DWU L Y 36;5DWU L L 73;0.0697441
5DWU L Y 36;5DWU L T 85;0.280609
5DWU L Y 36;5DWU L Y 86;10.2284
5DWU L Y 36;5DWU L Y 87;31.2012
5DWU L Y 36;5DWU L C 88;1.88911
5DWU L Y 36;5DWU L Q 89;19.7283
5DWU L Y 36;5DWU L F 98;6.15959
5DWU L Q 37;5DWU L Q 38;23.851
5DWU L Q 37;5DWU L K 39;6.29795
5DWU L Q 37;5DWU L P 44;5.78014
5DWU L Q 37;5DWU L K 45;29.8924
5DWU L Q 37;5DWU L L 47;12.5399
5DWU L Q 37;5DWU L F 62;13.1354
5DWU L Q 37;5DWU L E 81;6.83495
5DWU L Q 37;5DWU L D 82;5.86488
5DWU L Q 37;5DWU L F 83;0.0671119
5DWU L Q 37;5DWU L A 84;16.5856
5DWU L Q 37;5DWU L T 85;3.89122
5DWU L Q 37;5DWU L Y 86;24.4784
5DWU L Q 37;5DWU L Y 87;0.567088
5DWU L Q 38;5DWU L K 39;29.9622
5DWU L Q 38;5DWU L P 40;7.77555
5DWU L Q 38;5DWU L G 41;2.43331
5DWU L Q 38;5DWU L K 42;7.08158
5DWU L Q 38;5DWU L A 43;2.40652
5DWU L Q 38;5DWU L P 44;27.7203
5DWU L Q 38;5DWU L K 45;0.0465155
5DWU L Q 38;5DWU L A 84;7.71016
5DWU L Q 38;5DWU L T 85;32.8582
5DWU L Q 38;5DWU L Y 87;22.4245
5DWU L K 39;5DWU L P 40;34.2371
5DWU L K 39;5DWU L G 41;1.18649
5DWU L K 39;5DWU L K 42;23.844
5DWU L K 39;5DWU L A 43;3.18118
5DWU L K 39;5DWU L F 83;5.95462
5DWU L K 39;5DWU L A 84;10.5202
5DWU L P 40;5DWU L G 41;26.7829
5DWU L P 40;5DWU L K 42;10.4124
5DWU L P 40;5DWU L F 83;11.5825
5DWU L P 40;5DWU L A 84;3.93171
5DWU L P 40;5DWU L T 85;0.885566
5DWU L P 40;5DWU L E 165;20.0986
5DWU L G 41;5DWU L K 42;28.4102
5DWU L G 41;5DWU L A 43;1.00038
5DWU L K 42;5DWU L A 43;34.3883
5DWU L K 42;5DWU L P 44;1.5956
5DWU L A 43;5DWU L P 44;29.0172
5DWU L A 43;5DWU L K 45;7.18201
5DWU L P 44;5DWU L K 45;22.8366
5DWU L P 44;5DWU L Y 87;0.2314
5DWU L K 45;5DWU L L 46;28.2883
5DWU L K 45;5DWU L L 47;3.57678
5DWU L L 46;5DWU L L 47;22.8394
5DWU L L 46;5DWU L I 48;9.38451
5DWU L L 46;5DWU L Y 49;11.5046
5DWU L L 46;5DWU L Q 55;26.8337
5DWU L L 46;5DWU L V 58;10.1446
5DWU L L 47;5DWU L I 48;25.3806
5DWU L L 47;5DWU L L 54;2.96702
5DWU L L 47;5DWU L Q 55;6.7898
5DWU L L 47;5DWU L V 58;15.8539
5DWU L L 47;5DWU L F 62;15.8095
5DWU L L 47;5DWU L L 73;5.21473
5DWU L L 47;5DWU L Y 86;3.81503
5DWU L I 48;5DWU L Y 49;19.6609
5DWU L I 48;5DWU L A 51;7.43778
5DWU L I 48;5DWU L S 52;4.67387
5DWU L I 48;5DWU L S 53;13.0248
5DWU L I 48;5DWU L L 54;14.2727
5DWU L I 48;5DWU L Q 55;2.11546
5DWU L I 48;5DWU L V 58;0.334055
5DWU L I 48;5DWU L F 62;16.0488
5DWU L I 48;5DWU L S 63;8.62224
5DWU L I 48;5DWU L G 64;16.4245
5DWU L I 48;5DWU L L 73;9.89065
5DWU L Y 49;5DWU L A 50;30.9455
5DWU L Y 49;5DWU L A 51;4.48649
5DWU L Y 49;5DWU L S 52;1.88226
5DWU L Y 49;5DWU L S 53;40.6051
5DWU L Y 49;5DWU L L 54;10.3816
5DWU L Y 49;5DWU L Q 55;20.3082
5DWU L A 50;5DWU L A 51;17.7979
5DWU L A 50;5DWU L S 52;12.6117
5DWU L A 50;5DWU L S 53;9.09817
5DWU L A 51;5DWU L S 52;19.0098
5DWU L A 51;5DWU L G 64;2.69312
5DWU L A 51;5DWU L S 65;13.294
5DWU L A 51;5DWU L G 66;5.37594
5DWU L A 51;5DWU L F 71;12.0672
5DWU L A 51;5DWU L T 72;0.327935
5DWU L S 52;5DWU L S 53;30.4212
5DWU L S 52;5DWU L G 64;19.2998
5DWU L S 52;5DWU L S 65;9.89892
5DWU L S 52;5DWU L G 66;4.61621
5DWU L S 53;5DWU L L 54;26.1143
5DWU L S 53;5DWU L Q 55;0.386097
5DWU L L 54;5DWU L Q 55;26.4853
5DWU L L 54;5DWU L S 56;1.9546
5DWU L L 54;5DWU L V 58;12.1544
5DWU L L 54;5DWU L P 59;6.23561
5DWU L L 54;5DWU L S 60;2.92359
5DWU L L 54;5DWU L F 62;6.01015
5DWU L Q 55;5DWU L S 56;50.0103
5DWU L Q 55;5DWU L G 57;0.719128
5DWU L Q 55;5DWU L V 58;23.0034
5DWU L S 56;5DWU L G 57;30.3896
5DWU L S 56;5DWU L V 58;5.37663
5DWU L G 57;5DWU L V 58;34.8958
5DWU L G 57;5DWU L P 59;2.64524
5DWU L V 58;5DWU L P 59;48.0211
5DWU L V 58;5DWU L S 60;0.308202
5DWU L V 58;5DWU L F 62;16.1356
5DWU L P 59;5DWU L S 60;28.374
5DWU L P 59;5DWU L R 61;34.046
5DWU L P 59;5DWU L F 62;16.1024
5DWU L S 60;5DWU L R 61;26.0542
5DWU L S 60;5DWU L F 62;13.5845
5DWU L S 60;5DWU L S 63;4.3431
5DWU L S 60;5DWU L S 76;1.69155
5DWU L R 61;5DWU L F 62;39.0888
5DWU L R 61;5DWU L S 63;3.89191
5DWU L R 61;5DWU L T 74;0.919128
5DWU L R 61;5DWU L I 75;11.5759
5DWU L R 61;5DWU L S 76;22.991
5DWU L R 61;5DWU L S 77;18.7248
5DWU L R 61;5DWU L L 78;0.039683
5DWU L R 61;5DWU L Q 79;25.0565
5DWU L R 61;5DWU L E 81;2.69233
5DWU L R 61;5DWU L D 82;22.9786
5DWU L F 62;5DWU L S 63;27.2353
5DWU L F 62;5DWU L L 73;12.1654
5DWU L F 62;5DWU L T 74;1.44992
5DWU L F 62;5DWU L I 75;23.9634
5DWU L F 62;5DWU L D 82;8.9859
5DWU L F 62;5DWU L Y 86;14.2972
5DWU L S 63;5DWU L G 64;27.136
5DWU L S 63;5DWU L S 65;1.33344
5DWU L S 63;5DWU L T 72;0.583949
5DWU L S 63;5DWU L L 73;9.8868
5DWU L S 63;5DWU L T 74;35.8331
5DWU L S 63;5DWU L S 76;3.50392
5DWU L G 64;5DWU L S 65;28.489
5DWU L G 64;5DWU L T 72;4.50585
5DWU L G 64;5DWU L L 73;4.24034
5DWU L G 64;5DWU L T 74;0.0860766
5DWU L S 65;5DWU L G 66;26.7378
5DWU L S 65;5DWU L F 71;7.96804
5DWU L S 65;5DWU L T 72;33.79
5DWU L S 65;5DWU L T 74;2.51752
5DWU L G 66;5DWU L S 67;26.079
5DWU L G 66;5DWU L D 70;7.65237
5DWU L G 66;5DWU L F 71;16.0893
5DWU L G 66;5DWU L T 72;3.09569
5DWU L S 67;5DWU L G 68;20.0167
5DWU L S 67;5DWU L T 69;3.84722
5DWU L S 67;5DWU L D 70;18.1149
5DWU L S 67;5DWU L F 71;11.5353
5DWU L G 68;5DWU L T 69;22.6932
5DWU L G 68;5DWU L D 70;0.639426
5DWU L G 68;5DWU L F 71;6.60646
5DWU L T 69;5DWU L D 70;25.737
5DWU L T 69;5DWU L F 71;18.6196
5DWU L D 70;5DWU L F 71;21.5887
5DWU L D 70;5DWU L T 72;7.159
5DWU L F 71;5DWU L T 72;25.1077
5DWU L T 72;5DWU L L 73;21.5274
5DWU L T 72;5DWU L T 74;9.62845
5DWU L L 73;5DWU L T 74;24.7285
5DWU L L 73;5DWU L I 75;14.2122
5DWU L L 73;5DWU L Y 86;15.0891
5DWU L T 74;5DWU L I 75;22.4801
5DWU L T 74;5DWU L S 76;3.46872
5DWU L I 75;5DWU L S 76;18.5354
5DWU L I 75;5DWU L S 77;13.2035
5DWU L I 75;5DWU L L 78;15.8415
5DWU L I 75;5DWU L D 82;4.80286
5DWU L I 75;5DWU L Y 86;11.4882
5DWU L I 75;5DWU L L 104;6.39336
5DWU L S 76;5DWU L S 77;30.7063
5DWU L S 77;5DWU L L 78;19.5658
5DWU L S 77;5DWU L Q 79;16.773
5DWU L S 77;5DWU L D 82;0.622855
5DWU L L 78;5DWU L Q 79;35.8124
5DWU L L 78;5DWU L D 82;18.996
5DWU L L 78;5DWU L Y 86;0.00972064
5DWU L L 78;5DWU L L 104;13.7123
5DWU L L 78;5DWU L E 105;2.34209
5DWU L L 78;5DWU L I 106;8.69317
5DWU L Q 79;5DWU L P 80;30.7681
5DWU L Q 79;5DWU L E 81;6.29664
5DWU L Q 79;5DWU L D 82;21.9724
5DWU L Q 79;5DWU L I 106;3.83216
5DWU L P 80;5DWU L E 81;24.8637
5DWU L P 80;5DWU L D 82;3.44978
5DWU L P 80;5DWU L F 83;6.85397
5DWU L P 80;5DWU L I 106;17.0764
5DWU L P 80;5DWU L D 167;3.43259
5DWU L P 80;5DWU L S 168;13.6989
5DWU L P 80;5DWU L K 169;19.3572
5DWU L P 80;5DWU L S 171;9.7893
5DWU L E 81;5DWU L D 82;25.2842
5DWU L E 81;5DWU L F 83;10.7116
5DWU L E 81;5DWU L A 84;0.0161285
5DWU L E 81;5DWU L S 168;30.0526
5DWU L E 81;5DWU L K 169;9.55257
5DWU L D 82;5DWU L F 83;18.4904
5DWU L D 82;5DWU L A 84;4.66517
5DWU L D 82;5DWU L Y 86;14.6693
5DWU L D 82;5DWU L L 104;11.499
5DWU L D 82;5DWU L I 106;1.83309
5DWU L F 83;5DWU L A 84;31.7931
5DWU L F 83;5DWU L L 104;24.4547
5DWU L F 83;5DWU L E 105;9.30202
5DWU L F 83;5DWU L I 106;15.4359
5DWU L F 83;5DWU L E 165;12.902
5DWU L F 83;5DWU L Q 166;33.8125
5DWU L F 83;5DWU L D 167;4.37032
5DWU L F 83;5DWU L S 168;0.688227
5DWU L F 83;5DWU L Y 173;9.29308
5DWU L A 84;5DWU L T 85;23.4969
5DWU L A 84;5DWU L Y 86;15.639
5DWU L A 84;5DWU L T 102;0.00517449
5DWU L A 84;5DWU L R 103;3.05909
5DWU L A 84;5DWU L L 104;15.9742
5DWU L T 85;5DWU L Y 86;19.068
5DWU L T 85;5DWU L Y 87;23.4122
5DWU L T 85;5DWU L G 101;1.52855
5DWU L T 85;5DWU L T 102;8.59579
5DWU L T 85;5DWU L R 103;20.1969
5DWU L Y 86;5DWU L Y 87;22.6218
5DWU L Y 86;5DWU L G 101;2.45288
5DWU L Y 86;5DWU L T 102;21.7729
5DWU L Y 86;5DWU L R 103;0.412931
5DWU L Y 86;5DWU L L 104;20.0291
5DWU L Y 87;5DWU L C 88;23.3358
5DWU L Y 87;5DWU L Q 89;0.0683794
5DWU L Y 87;5DWU L F 98;10.952
5DWU L Y 87;5DWU L G 99;8.08868
5DWU L Y 87;5DWU L Q 100;1.66073
5DWU L Y 87;5DWU L G 101;19.6534
5DWU L Y 87;5DWU L T 102;0.249074
5DWU L C 88;5DWU L Q 89;22.79
5DWU L C 88;5DWU L Q 90;0.523629
5DWU L C 88;5DWU L T 97;0.0433213
5DWU L C 88;5DWU L F 98;14.8869
5DWU L C 88;5DWU L G 99;14.8648
5DWU L Q 89;5DWU L Q 90;32.1379
5DWU L Q 89;5DWU L A 91;0.688293
5DWU L Q 89;5DWU L I 96;11.6735
5DWU L Q 89;5DWU L T 97;2.32186
5DWU L Q 89;5DWU L F 98;18.9143
5DWU L Q 90;5DWU L A 91;24.244
5DWU L Q 90;5DWU L N 92;10.1736
5DWU L Q 90;5DWU L S 93;16.6991
5DWU L Q 90;5DWU L P 95;1.79075
5DWU L Q 90;5DWU L I 96;17.9897
5DWU L Q 90;5DWU L T 97;23.5938
5DWU L Q 90;5DWU L F 98;0.220219
5DWU L A 91;5DWU L N 92;17.7647
5DWU L A 91;5DWU L S 93;5.21251
5DWU L A 91;5DWU L I 96;11.2384
5DWU L N 92;5DWU L S 93;35.0613
5DWU L S 93;5DWU L F 94;35.6459
5DWU L S 93;5DWU L P 95;2.74773
5DWU L S 93;5DWU L I 96;8.34873
5DWU L F 94;5DWU L P 95;35.3724
5DWU L F 94;5DWU L I 96;17.721
5DWU L P 95;5DWU L I 96;19.9946
5DWU L P 95;5DWU L T 97;13.1601
5DWU L I 96;5DWU L T 97;25.3244
5DWU L I 96;5DWU L F 98;5.17557
5DWU L T 97;5DWU L F 98;38.1613
5DWU L F 98;5DWU L G 99;28.0003
5DWU L G 99;5DWU L Q 100;22.6807
5DWU L G 99;5DWU L G 101;3.05717
5DWU L Q 100;5DWU L G 101;32.5301
5DWU L Q 100;5DWU L T 102;2.79644
5DWU L G 101;5DWU L T 102;22.1982
5DWU L G 101;5DWU L R 103;3.59008
5DWU L T 102;5DWU L R 103;26.5165
5DWU L T 102;5DWU L L 104;3.50729
5DWU L R 103;5DWU L L 104;29.5351
5DWU L L 104;5DWU L E 105;31.4672
5DWU L L 104;5DWU L I 106;6.40418
5DWU L E 105;5DWU L I 106;25.1065
5DWU L E 105;5DWU L Y 140;3.88081
5DWU L E 105;5DWU L Q 166;1.55719
5DWU L E 105;5DWU L Y 173;11.3867
5DWU L I 106;5DWU L K 107;20.2096
5DWU L I 106;5DWU L R 108;13.1988
5DWU L I 106;5DWU L Y 140;12.7807
5DWU L I 106;5DWU L Q 166;22.1272
5DWU L I 106;5DWU L D 167;1.60299
5DWU L I 106;5DWU L S 171;14.922
5DWU L I 106;5DWU L Y 173;0.163809
5DWU L K 107;5DWU L R 108;23.9302
5DWU L K 107;5DWU L T 109;2.95983
5DWU L K 107;5DWU L Y 140;8.55997
5DWU L R 108;5DWU L T 109;56.1067
5DWU L R 108;5DWU L V 110;5.98287
5DWU L R 108;5DWU L A 111;15.0491
5DWU L R 108;5DWU L Y 140;35.0488
5DWU L R 108;5DWU L Q 166;2.59955
5DWU L R 108;5DWU L D 170;9.99868
5DWU L R 108;5DWU L S 171;22.6213
5DWU L R 108;5DWU L T 172;15.7392
5DWU L T 109;5DWU L V 110;33.5299
5DWU L T 109;5DWU L A 111;4.99951
5DWU L T 109;5DWU L Y 140;2.19314
5DWU L V 110;5DWU L A 111;28.3524
5DWU L V 110;5DWU L A 112;0.421027
5DWU L V 110;5DWU L Y 140;13.0161
5DWU L V 110;5DWU L P 141;13.7115
5DWU L V 110;5DWU L H 198;10.5042
5DWU L A 111;5DWU L A 112;29.2676
5DWU L A 111;5DWU L P 113;1.02936
5DWU L A 111;5DWU L N 138;5.92185
5DWU L A 111;5DWU L F 139;12.1532
5DWU L A 111;5DWU L Y 140;21.6812
5DWU L A 111;5DWU L T 172;6.63891
5DWU L A 111;5DWU L H 198;7.1067
5DWU L A 112;5DWU L P 113;34.9362
5DWU L A 112;5DWU L S 114;2.81484
5DWU L A 112;5DWU L N 138;9.3982
5DWU L A 112;5DWU L F 139;2.2131
5DWU L A 112;5DWU L H 198;5.97841
5DWU L P 113;5DWU L S 114;26.5636
5DWU L P 113;5DWU L V 115;10.6467
5DWU L P 113;5DWU L L 136;25.1049
5DWU L P 113;5DWU L N 137;8.99521
5DWU L P 113;5DWU L N 138;2.6296
5DWU L P 113;5DWU L F 139;16.8736
5DWU L P 113;5DWU L V 196;7.68765
5DWU L P 113;5DWU L T 197;0.162245
5DWU L P 113;5DWU L H 198;16.5941
5DWU L S 114;5DWU L V 115;25.2328
5DWU L S 114;5DWU L F 116;22.9565
5DWU L S 114;5DWU L L 135;1.22579
5DWU L S 114;5DWU L L 136;1.66915
5DWU L S 114;5DWU L N 137;15.0922
5DWU L V 115;5DWU L F 116;37.2506
5DWU L V 115;5DWU L I 117;1.55456
5DWU L V 115;5DWU L C 134;8.72907
5DWU L V 115;5DWU L L 135;8.57537
5DWU L V 115;5DWU L L 136;15.1555
5DWU L V 115;5DWU L C 194;6.08125
5DWU L V 115;5DWU L V 196;13.2135
5DWU L V 115;5DWU L V 205;12.1134
5DWU L V 115;5DWU L T 206;7.13379
5DWU L V 115;5DWU L K 207;14.1966
5DWU L F 116;5DWU L I 117;30.85
5DWU L F 116;5DWU L F 118;20.7425
5DWU L F 116;5DWU L C 134;7.33723
5DWU L F 116;5DWU L L 135;25.051
5DWU L F 116;5DWU L N 137;1.38557
5DWU L F 116;5DWU L K 207;2.88246
5DWU L I 117;5DWU L F 118;41.3208
5DWU L I 117;5DWU L P 119;0.220265
5DWU L I 117;5DWU L V 132;9.34671
5DWU L I 117;5DWU L V 133;10.9068
5DWU L I 117;5DWU L C 134;10.6626
5DWU L I 117;5DWU L W 148;4.03702
5DWU L I 117;5DWU L Y 192;4.49984
5DWU L I 117;5DWU L A 193;5.92159
5DWU L I 117;5DWU L C 194;12.0388
5DWU L I 117;5DWU L K 207;20.0489
5DWU L I 117;5DWU L S 208;18.2879
5DWU L F 118;5DWU L P 119;33.6812
5DWU L F 118;5DWU L V 132;9.66824
5DWU L F 118;5DWU L V 133;31.2999
5DWU L F 118;5DWU L C 134;0.857822
5DWU L F 118;5DWU L L 135;15.0949
5DWU L P 119;5DWU L P 120;48.0998
5DWU L P 119;5DWU L S 131;2.5131
5DWU L P 119;5DWU L V 132;4.00133
5DWU L P 119;5DWU L V 133;2.4589
5DWU L P 119;5DWU L Y 186;0.850657
5DWU L P 120;5DWU L S 121;34.9803
5DWU L P 120;5DWU L D 122;0.879863
5DWU L P 120;5DWU L Q 124;8.42436
5DWU L P 120;5DWU L L 125;5.83207
5DWU L P 120;5DWU L A 130;11.9347
5DWU L P 120;5DWU L S 131;14.2996
5DWU L P 120;5DWU L V 132;12.6999
5DWU L P 120;5DWU L Y 186;26.8129
5DWU L S 121;5DWU L D 122;28.3205
5DWU L S 121;5DWU L E 123;12.7071
5DWU L S 121;5DWU L Q 124;24.4887
5DWU L S 121;5DWU L L 125;12.707
5DWU L S 121;5DWU L A 130;0.384904
5DWU L D 122;5DWU L E 123;22.3134
5DWU L D 122;5DWU L Q 124;0.932966
5DWU L D 122;5DWU L L 125;12.4541
5DWU L D 122;5DWU L K 126;14.4332
5DWU L E 123;5DWU L Q 124;21.3966
5DWU L E 123;5DWU L L 125;0.571331
5DWU L E 123;5DWU L K 126;13.7492
5DWU L E 123;5DWU L S 127;13.363
5DWU L Q 124;5DWU L L 125;16.4109
5DWU L Q 124;5DWU L K 126;1.09663
5DWU L Q 124;5DWU L S 127;13.5152
5DWU L Q 124;5DWU L G 128;5.30804
5DWU L Q 124;5DWU L T 129;13.0693
5DWU L Q 124;5DWU L A 130;11.4528
5DWU L Q 124;5DWU L S 131;19.2421
5DWU L L 125;5DWU L K 126;24.2591
5DWU L L 125;5DWU L S 127;0.706641
5DWU L L 125;5DWU L G 128;12.8097
5DWU L L 125;5DWU L T 129;5.22193
5DWU L L 125;5DWU L A 130;14.3452
5DWU L L 125;5DWU L K 183;29.5121
5DWU L L 125;5DWU L Y 186;18.8906
5DWU L L 125;5DWU L E 187;7.84992
5DWU L K 126;5DWU L S 127;25.7514
5DWU L K 126;5DWU L G 128;4.14666
5DWU L S 127;5DWU L G 128;26.8268
5DWU L G 128;5DWU L T 129;29.63
5DWU L G 128;5DWU L K 183;13.1494
5DWU L T 129;5DWU L A 130;26.1215
5DWU L T 129;5DWU L T 180;6.45799
5DWU L T 129;5DWU L L 181;5.31848
5DWU L T 129;5DWU L S 182;20.5043
5DWU L T 129;5DWU L K 183;6.33364
5DWU L A 130;5DWU L S 131;22.3288
5DWU L A 130;5DWU L V 132;1.87038
5DWU L A 130;5DWU L T 180;8.46245
5DWU L A 130;5DWU L L 181;19.93
5DWU L A 130;5DWU L S 182;2.64809
5DWU L A 130;5DWU L K 183;2.40768
5DWU L A 130;5DWU L Y 186;9.58932
5DWU L S 131;5DWU L V 132;28.4633
5DWU L S 131;5DWU L V 133;4.75828
5DWU L S 131;5DWU L T 178;8.7101
5DWU L S 131;5DWU L L 179;4.52611
5DWU L S 131;5DWU L T 180;13.7303
5DWU L S 131;5DWU L L 181;0.402255
5DWU L V 132;5DWU L V 133;26.246
5DWU L V 132;5DWU L W 148;23.3564
5DWU L V 132;5DWU L T 178;5.48851
5DWU L V 132;5DWU L L 179;19.2231
5DWU L V 132;5DWU L T 180;3.37389
5DWU L V 132;5DWU L L 181;1.69948
5DWU L V 132;5DWU L Y 186;13.0746
5DWU L V 132;5DWU L Y 192;16.6226
5DWU L V 133;5DWU L C 134;27.3008
5DWU L V 133;5DWU L L 135;3.52934
5DWU L V 133;5DWU L W 148;10.6031
5DWU L V 133;5DWU L S 176;3.67831
5DWU L V 133;5DWU L S 177;0.0638743
5DWU L V 133;5DWU L T 178;20.8602
5DWU L C 134;5DWU L L 135;26.2508
5DWU L C 134;5DWU L L 136;10.3845
5DWU L C 134;5DWU L V 146;7.29529
5DWU L C 134;5DWU L W 148;13.0657
5DWU L C 134;5DWU L S 176;6.76853
5DWU L C 134;5DWU L S 177;21.8579
5DWU L C 134;5DWU L T 178;1.31461
5DWU L C 134;5DWU L C 194;15.092
5DWU L C 134;5DWU L E 195;0.80799
5DWU L C 134;5DWU L V 196;1.56145
5DWU L L 135;5DWU L L 136;30.7659
5DWU L L 135;5DWU L N 137;18.7978
5DWU L L 135;5DWU L S 174;2.77957
5DWU L L 135;5DWU L L 175;8.61248
5DWU L L 135;5DWU L S 176;8.78603
5DWU L L 135;5DWU L S 177;0.0226456
5DWU L L 136;5DWU L N 137;18.0231
5DWU L L 136;5DWU L F 139;18.5659
5DWU L L 136;5DWU L A 144;5.92235
5DWU L L 136;5DWU L V 146;6.54497
5DWU L L 136;5DWU L Y 173;0.00894885
5DWU L L 136;5DWU L S 174;5.54695
5DWU L L 136;5DWU L L 175;23.1739
5DWU L L 136;5DWU L S 177;6.0438
5DWU L L 136;5DWU L V 196;21.7853
5DWU L L 136;5DWU L H 198;1.89176
5DWU L N 137;5DWU L N 138;42.4235
5DWU L N 137;5DWU L F 139;3.6275
5DWU L N 137;5DWU L Y 173;0.559558
5DWU L N 137;5DWU L S 174;15.6327
5DWU L N 138;5DWU L F 139;18.7531
5DWU L N 138;5DWU L T 172;18.194
5DWU L N 138;5DWU L Y 173;7.70825
5DWU L N 138;5DWU L S 174;0.783786
5DWU L F 139;5DWU L Y 140;26.1514
5DWU L F 139;5DWU L P 141;10.1172
5DWU L F 139;5DWU L R 142;13.99
5DWU L F 139;5DWU L A 144;6.61274
5DWU L F 139;5DWU L V 163;1.37629
5DWU L F 139;5DWU L T 172;12.1471
5DWU L F 139;5DWU L Y 173;31.4232
5DWU L F 139;5DWU L S 174;6.05013
5DWU L F 139;5DWU L L 175;16.0137
5DWU L F 139;5DWU L H 198;9.05674
5DWU L Y 140;5DWU L P 141;45.9692
5DWU L Y 140;5DWU L Q 166;7.75057
5DWU L Y 140;5DWU L S 171;2.914
5DWU L Y 140;5DWU L T 172;6.19271
5DWU L Y 140;5DWU L Y 173;22.4994
5DWU L Y 140;5DWU L H 198;4.10036
5DWU L P 141;5DWU L R 142;20.7804
5DWU L P 141;5DWU L E 143;24.35
5DWU L P 141;5DWU L A 144;2.67906
5DWU L P 141;5DWU L Y 173;3.13714
5DWU L P 141;5DWU L H 198;15.1368
5DWU L R 142;5DWU L E 143;22.8285
5DWU L R 142;5DWU L A 144;15.678
5DWU L R 142;5DWU L V 163;31.404
5DWU L R 142;5DWU L T 164;1.99336
5DWU L R 142;5DWU L Y 173;34.4704
5DWU L R 142;5DWU L L 175;2.52796
5DWU L E 143;5DWU L A 144;24.0014
5DWU L E 143;5DWU L T 197;6.46346
5DWU L E 143;5DWU L H 198;6.90044
5DWU L A 144;5DWU L K 145;30.9579
5DWU L A 144;5DWU L V 146;2.2751
5DWU L A 144;5DWU L V 196;1.08233
5DWU L A 144;5DWU L T 197;15.9221
5DWU L A 144;5DWU L H 198;14.3427
5DWU L K 145;5DWU L V 146;46.0584
5DWU L K 145;5DWU L E 195;0.283833
5DWU L K 145;5DWU L V 196;7.43309
5DWU L K 145;5DWU L T 197;28.4345
5DWU L V 146;5DWU L Q 147;33.7061
5DWU L V 146;5DWU L W 148;15.6679
5DWU L V 146;5DWU L L 154;0.127529
5DWU L V 146;5DWU L S 159;2.41391
5DWU L V 146;5DWU L E 161;5.33392
5DWU L V 146;5DWU L S 177;22.4884
5DWU L V 146;5DWU L C 194;4.48861
5DWU L V 146;5DWU L E 195;16.8807
5DWU L V 146;5DWU L V 196;0.116104
5DWU L Q 147;5DWU L W 148;23.221
5DWU L Q 147;5DWU L K 149;8.59654
5DWU L Q 147;5DWU L L 154;17.6065
5DWU L Q 147;5DWU L C 194;5.66133
5DWU L Q 147;5DWU L E 195;29.6153
5DWU L W 148;5DWU L K 149;16.1708
5DWU L W 148;5DWU L V 150;9.46121
5DWU L W 148;5DWU L A 153;3.53769
5DWU L W 148;5DWU L L 154;9.66622
5DWU L W 148;5DWU L Q 155;19.978
5DWU L W 148;5DWU L S 177;15.614
5DWU L W 148;5DWU L T 178;1.5603
5DWU L W 148;5DWU L L 179;42.3364
5DWU L W 148;5DWU L Y 192;8.49415
5DWU L W 148;5DWU L A 193;16.0832
5DWU L W 148;5DWU L C 194;14.4124
5DWU L K 149;5DWU L V 150;15.7877
5DWU L K 149;5DWU L D 151;2.97902
5DWU L K 149;5DWU L N 152;20.1596
5DWU L K 149;5DWU L A 153;8.47323
5DWU L K 149;5DWU L L 154;3.21091
5DWU L K 149;5DWU L V 191;3.43054
5DWU L K 149;5DWU L Y 192;0.00272346
5DWU L K 149;5DWU L A 193;21.9866
5DWU L K 149;5DWU L C 194;6.93222
5DWU L K 149;5DWU L E 195;0.991374
5DWU L V 150;5DWU L D 151;21.1296
5DWU L V 150;5DWU L N 152;1.37965
5DWU L V 150;5DWU L A 153;18.0883
5DWU L V 150;5DWU L Q 155;20.3681
5DWU L V 150;5DWU L L 179;1.60976
5DWU L V 150;5DWU L H 189;6.39273
5DWU L V 150;5DWU L V 191;6.08134
5DWU L V 150;5DWU L Y 192;23.6927
5DWU L V 150;5DWU L A 193;6.62833
5DWU L D 151;5DWU L N 152;28.9132
5DWU L D 151;5DWU L A 153;10.3091
5DWU L D 151;5DWU L H 189;28.4765
5DWU L D 151;5DWU L K 190;2.04718
5DWU L D 151;5DWU L V 191;31.8802
5DWU L N 152;5DWU L A 153;22.7374
5DWU L N 152;5DWU L L 154;2.77731
5DWU L N 152;5DWU L V 191;1.39866
5DWU L A 153;5DWU L L 154;28.7338
5DWU L A 153;5DWU L Q 155;13.7563
5DWU L L 154;5DWU L Q 155;24.4895
5DWU L L 154;5DWU L S 156;31.6482
5DWU L Q 155;5DWU L S 156;17.5817
5DWU L Q 155;5DWU L G 157;19.0601
5DWU L Q 155;5DWU L N 158;3.28225
5DWU L Q 155;5DWU L S 159;3.02456
5DWU L Q 155;5DWU L L 179;30.0855
5DWU L Q 155;5DWU L T 180;1.37112
5DWU L Q 155;5DWU L H 189;5.99215
5DWU L Q 155;5DWU L Y 192;1.54059
5DWU L S 156;5DWU L G 157;27.1948
5DWU L G 157;5DWU L N 158;32.0935
5DWU L G 157;5DWU L S 159;11.9905
5DWU L G 157;5DWU L L 179;0.0214374
5DWU L N 158;5DWU L S 159;25.0409
5DWU L N 158;5DWU L T 178;0.615874
5DWU L N 158;5DWU L L 179;16.2209
5DWU L N 158;5DWU L T 180;33.6947
5DWU L S 159;5DWU L Q 160;34.2545
5DWU L S 159;5DWU L E 161;3.89237
5DWU L S 159;5DWU L S 177;2.65041
5DWU L S 159;5DWU L T 178;7.14837
5DWU L S 159;5DWU L L 179;14.7126
5DWU L S 159;5DWU L T 180;0.049947
5DWU L Q 160;5DWU L E 161;24.8414
5DWU L Q 160;5DWU L S 162;8.16802
5DWU L Q 160;5DWU L S 176;4.76113
5DWU L Q 160;5DWU L S 177;1.72803
5DWU L Q 160;5DWU L T 178;29.2479
5DWU L E 161;5DWU L S 162;23.9312
5DWU L E 161;5DWU L V 163;11.2986
5DWU L E 161;5DWU L L 175;2.73348
5DWU L E 161;5DWU L S 176;5.23455
5DWU L E 161;5DWU L S 177;17.0482
5DWU L S 162;5DWU L V 163;26.3219
5DWU L S 162;5DWU L L 175;3.26386
5DWU L S 162;5DWU L S 176;22.3997
5DWU L V 163;5DWU L T 164;32.6462
5DWU L V 163;5DWU L Y 173;8.49394
5DWU L V 163;5DWU L S 174;6.92683
5DWU L V 163;5DWU L L 175;17.6737
5DWU L T 164;5DWU L E 165;46.1611
5DWU L T 164;5DWU L T 172;1.26258
5DWU L T 164;5DWU L Y 173;14.3138
5DWU L T 164;5DWU L S 174;26.0
5DWU L E 165;5DWU L Q 166;30.8192
5DWU L E 165;5DWU L D 167;3.11233
5DWU L E 165;5DWU L T 172;1.67449
5DWU L E 165;5DWU L Y 173;3.12547
5DWU L Q 166;5DWU L D 167;30.698
5DWU L Q 166;5DWU L S 168;2.44337
5DWU L Q 166;5DWU L S 171;17.3069
5DWU L Q 166;5DWU L T 172;11.6244
5DWU L Q 166;5DWU L Y 173;30.6711
5DWU L D 167;5DWU L S 168;33.5931
5DWU L D 167;5DWU L K 169;7.79647
5DWU L D 167;5DWU L D 170;21.9437
5DWU L D 167;5DWU L S 171;13.9706
5DWU L D 167;5DWU L T 172;19.1603
5DWU L S 168;5DWU L K 169;23.048
5DWU L S 168;5DWU L D 170;0.115788
5DWU L S 168;5DWU L S 171;1.94832
5DWU L K 169;5DWU L D 170;26.9835
5DWU L K 169;5DWU L S 171;6.42759
5DWU L D 170;5DWU L S 171;23.3772
5DWU L D 170;5DWU L T 172;18.5869
5DWU L S 171;5DWU L T 172;19.3921
5DWU L T 172;5DWU L Y 173;25.9752
5DWU L Y 173;5DWU L S 174;23.9269
5DWU L S 174;5DWU L L 175;15.6522
5DWU L L 175;5DWU L S 176;18.3948
5DWU L L 175;5DWU L S 177;3.77306
5DWU L S 176;5DWU L S 177;18.2111
5DWU L S 176;5DWU L T 178;17.3485
5DWU L S 177;5DWU L T 178;22.1906
5DWU L S 177;5DWU L L 179;0.13593
5DWU L T 178;5DWU L L 179;31.8562
5DWU L T 178;5DWU L T 180;1.68225
5DWU L L 179;5DWU L T 180;35.0068
5DWU L T 180;5DWU L L 181;36.0348
5DWU L L 181;5DWU L S 182;28.2541
5DWU L L 181;5DWU L D 185;11.1667
5DWU L L 181;5DWU L Y 186;11.2158
5DWU L L 181;5DWU L Y 192;3.11773
5DWU L S 182;5DWU L K 183;20.6005
5DWU L S 182;5DWU L A 184;10.4255
5DWU L S 182;5DWU L D 185;22.2515
5DWU L S 182;5DWU L Y 186;11.3978
5DWU L K 183;5DWU L A 184;26.4391
5DWU L K 183;5DWU L D 185;0.196517
5DWU L K 183;5DWU L Y 186;9.31406
5DWU L K 183;5DWU L E 187;13.186
5DWU L A 184;5DWU L D 185;20.9105
5DWU L A 184;5DWU L Y 186;1.97059
5DWU L A 184;5DWU L E 187;11.1715
5DWU L A 184;5DWU L K 188;9.95526
5DWU L D 185;5DWU L Y 186;17.8591
5DWU L D 185;5DWU L E 187;0.545077
5DWU L D 185;5DWU L K 188;19.6084
5DWU L D 185;5DWU L H 189;8.48835
5DWU L D 185;5DWU L Y 192;4.8137
5DWU L Y 186;5DWU L E 187;33.4263
5DWU L Y 186;5DWU L K 188;1.75635
5DWU L Y 186;5DWU L H 189;8.18119
5DWU L Y 186;5DWU L Y 192;37.8842
5DWU L Y 186;5DWU L R 211;15.1388
5DWU L E 187;5DWU L K 188;22.8635
5DWU L E 187;5DWU L H 189;14.0682
5DWU L E 187;5DWU L R 211;8.19113
5DWU L K 188;5DWU L H 189;42.8201
5DWU L H 189;5DWU L K 190;29.5059
5DWU L H 189;5DWU L V 191;4.9118
5DWU L H 189;5DWU L Y 192;21.4484
5DWU L H 189;5DWU L R 211;2.95237
5DWU L K 190;5DWU L V 191;26.6969
5DWU L K 190;5DWU L Y 192;15.6519
5DWU L K 190;5DWU L N 210;17.4616
5DWU L K 190;5DWU L R 211;20.9805
5DWU L V 191;5DWU L Y 192;29.6617
5DWU L V 191;5DWU L A 193;6.74858
5DWU L V 191;5DWU L S 208;5.87687
5DWU L V 191;5DWU L N 210;20.0513
5DWU L Y 192;5DWU L A 193;23.9204
5DWU L Y 192;5DWU L K 207;0.0306402
5DWU L Y 192;5DWU L S 208;17.063
5DWU L Y 192;5DWU L N 210;6.16686
5DWU L Y 192;5DWU L R 211;4.50549
5DWU L A 193;5DWU L C 194;23.8477
5DWU L A 193;5DWU L T 206;6.8777
5DWU L A 193;5DWU L K 207;8.61988
5DWU L A 193;5DWU L S 208;11.7669
5DWU L C 194;5DWU L E 195;24.7458
5DWU L C 194;5DWU L V 196;5.85842
5DWU L C 194;5DWU L V 205;0.0248968
5DWU L C 194;5DWU L T 206;20.9449
5DWU L C 194;5DWU L K 207;13.0
5DWU L E 195;5DWU L V 196;34.0946
5DWU L E 195;5DWU L V 205;5.13227
5DWU L E 195;5DWU L T 206;6.77948
5DWU L V 196;5DWU L T 197;38.3184
5DWU L V 196;5DWU L H 198;4.1352
5DWU L V 196;5DWU L S 203;5.30575
5DWU L V 196;5DWU L P 204;14.6583
5DWU L V 196;5DWU L V 205;32.8717
5DWU L V 196;5DWU L T 206;1.93424
5DWU L T 197;5DWU L H 198;45.7957
5DWU L T 197;5DWU L S 203;1.40253
5DWU L T 197;5DWU L P 204;0.0961334
5DWU L H 198;5DWU L S 202;2.28502
5DWU L H 198;5DWU L S 203;33.6246
5DWU L H 198;5DWU L P 204;0.167953
5DWU L H 198;5DWU L V 205;0.676254
5DWU L S 202;5DWU L S 203;37.2988
5DWU L S 202;5DWU L P 204;7.20882
5DWU L S 202;5DWU L V 205;8.622
5DWU L S 203;5DWU L P 204;38.335
5DWU L S 203;5DWU L V 205;12.1794
5DWU L P 204;5DWU L V 205;30.5188
5DWU L P 204;5DWU L T 206;1.37622
5DWU L V 205;5DWU L T 206;42.6289
5DWU L T 206;5DWU L K 207;31.9967
5DWU L T 206;5DWU L S 208;0.940007
5DWU L K 207;5DWU L S 208;29.2595
5DWU L S 208;5DWU L N 210;18.4243
5DWU L N 210;5DWU L R 211;32.8835
