V1;V2;Weight
5XCO A S 0;5XCO A M 1;32.5225
5XCO A S 0;5XCO A M 1;4.45473
5XCO A S 0;5XCO A T 2;6.25415
5XCO A S 0;5XCO A E 49;3.81605
5XCO A S 0;5XCO A T 50;12.4371
5XCO A M 1;5XCO A T 2;22.5622
5XCO A M 1;5XCO A E 3;1.18381
5XCO A M 1;5XCO A T 50;0.191555
5XCO A M 1;5XCO A T 2;5.88781
5XCO A M 1;5XCO A E 3;0.0562145
5XCO A M 1;5XCO A Q 43;15.3238
5XCO A M 1;5XCO A T 50;29.9559
5XCO A M 1;5XCO A C 51;3.64115
5XCO A M 1;5XCO A L 52;24.6553
5XCO A T 2;5XCO A E 3;27.5754
5XCO A T 2;5XCO A Y 4;16.9464
5XCO A T 2;5XCO A E 49;19.5921
5XCO A T 2;5XCO A T 50;7.74161
5XCO A T 2;5XCO A C 51;7.06863
5XCO A T 2;5XCO A L 52;9.63337
5XCO A T 2;5XCO A K 169;30.3158
5XCO A E 3;5XCO A Y 4;22.9751
5XCO A E 3;5XCO A K 5;27.7846
5XCO A E 3;5XCO A L 52;29.4973
5XCO A E 3;5XCO A D 54;0.07837
5XCO A E 3;5XCO A D 54;15.7274
5XCO A E 3;5XCO A E 76;3.36035
5XCO A E 3;5XCO A K 169;13.2572
5XCO A Y 4;5XCO A K 5;17.6834
5XCO A Y 4;5XCO A L 6;13.8187
5XCO A Y 4;5XCO A E 49;12.3413
5XCO A Y 4;5XCO A C 51;11.7981
5XCO A Y 4;5XCO A L 52;8.56886
5XCO A Y 4;5XCO A L 53;15.659
5XCO A Y 4;5XCO A D 54;7.11867
5XCO A Y 4;5XCO A D 54;1.9345
5XCO A Y 4;5XCO A E 76;6.70931
5XCO A Y 4;5XCO A V 160;22.6718
5XCO A Y 4;5XCO A I 163;17.5558
5XCO A Y 4;5XCO A R 164;15.1411
5XCO A Y 4;5XCO A K 169;21.4757
5XCO A K 5;5XCO A L 6;22.7823
5XCO A K 5;5XCO A V 7;1.02562
5XCO A K 5;5XCO A D 54;4.53371
5XCO A K 5;5XCO A D 54;15.1847
5XCO A K 5;5XCO A Y 71;12.4542
5XCO A K 5;5XCO A T 74;31.919
5XCO A K 5;5XCO A G 75;10.6437
5XCO A K 5;5XCO A E 76;27.16
5XCO A K 5;5XCO A G 77;4.69801
5XCO A K 5;5XCO A I 163;1.02671
5XCO A L 6;5XCO A V 7;24.9995
5XCO A L 6;5XCO A V 8;2.05687
5XCO A L 6;5XCO A L 53;12.9134
5XCO A L 6;5XCO A D 54;9.63932
5XCO A L 6;5XCO A I 55;23.3018
5XCO A L 6;5XCO A L 56;6.6895
5XCO A L 6;5XCO A Y 71;4.65621
5XCO A L 6;5XCO A G 77;8.4992
5XCO A L 6;5XCO A L 79;0.767583
5XCO A L 6;5XCO A F 156;17.2637
5XCO A L 6;5XCO A L 159;20.2625
5XCO A L 6;5XCO A V 160;10.3538
5XCO A L 6;5XCO A I 163;11.2883
5XCO A V 7;5XCO A V 8;22.6074
5XCO A V 7;5XCO A V 9;11.4201
5XCO A V 7;5XCO A I 55;0.48568
5XCO A V 7;5XCO A L 56;16.655
5XCO A V 7;5XCO A T 58;9.32783
5XCO A V 7;5XCO A R 68;0.0183654
5XCO A V 7;5XCO A Y 71;17.8063
5XCO A V 7;5XCO A M 72;10.8412
5XCO A V 7;5XCO A G 75;8.31244
5XCO A V 7;5XCO A G 77;9.553
5XCO A V 7;5XCO A F 78;25.0385
5XCO A V 7;5XCO A L 79;9.33486
5XCO A V 7;5XCO A L 159;1.15378
5XCO A V 8;5XCO A V 9;18.4158
5XCO A V 8;5XCO A K 16;21.7154
5XCO A V 8;5XCO A L 19;4.52784
5XCO A V 8;5XCO A T 20;9.62914
5XCO A V 8;5XCO A I 55;10.7707
5XCO A V 8;5XCO A L 56;10.5047
5XCO A V 8;5XCO A D 57;7.41291
5XCO A V 8;5XCO A T 58;13.2495
5XCO A V 8;5XCO A L 79;20.5595
5XCO A V 8;5XCO A V 81;9.52277
5XCO A V 8;5XCO A F 156;10.5079
5XCO A V 9;5XCO A G 10;20.256
5XCO A V 9;5XCO A K 16;8.32396
5XCO A V 9;5XCO A T 58;11.0422
5XCO A V 9;5XCO A Q 61;0.0921702
5XCO A V 9;5XCO A M 72;2.68219
5XCO A V 9;5XCO A F 78;9.56856
5XCO A V 9;5XCO A L 79;11.812
5XCO A V 9;5XCO A C 80;14.6282
5XCO A V 9;5XCO A V 81;10.7143
5XCO A V 9;5XCO A Y 96;19.1353
5XCO A V 9;5XCO A I 100;12.246
5XCO A G 10;5XCO A A 11;18.1557
5XCO A G 10;5XCO A V 14;3.11488
5XCO A G 10;5XCO A K 16;14.059
5XCO A G 10;5XCO A T 58;0.704286
5XCO A G 10;5XCO A Q 61;8.50652
5XCO A G 10;5XCO A C 80;0.239396
5XCO A G 10;5XCO A V 81;9.59078
5XCO A G 10;5XCO A I 93;3.37552
5XCO A G 10;5XCO A Y 96;20.2787
5XCO A A 11;5XCO A D 12;28.6161
5XCO A A 11;5XCO A G 13;1.00763
5XCO A A 11;5XCO A V 14;20.077
5XCO A A 11;5XCO A K 16;6.01032
5XCO A A 11;5XCO A Q 61;2.45528
5XCO A A 11;5XCO A V 81;3.03518
5XCO A A 11;5XCO A K 88;0.00755073
5XCO A A 11;5XCO A S 89;15.0091
5XCO A A 11;5XCO A D 92;16.3869
5XCO A A 11;5XCO A I 93;0.0372168
5XCO A A 11;5XCO A Y 96;14.0633
5XCO A D 12;5XCO A G 13;28.6608
5XCO A D 12;5XCO A V 14;5.81202
5XCO A D 12;5XCO A K 16;6.90794
5XCO A D 12;5XCO A A 59;4.23749
5XCO A D 12;5XCO A G 60;4.44573
5XCO A D 12;5XCO A Q 61;25.1744
5XCO A G 13;5XCO A V 14;20.5514
5XCO A G 13;5XCO A G 15;8.32729
5XCO A G 13;5XCO A K 16;4.05351
5XCO A G 13;5XCO A A 83;0.483559
5XCO A G 13;5XCO A K 117;16.5871
5XCO A V 14;5XCO A G 15;20.1712
5XCO A V 14;5XCO A K 16;13.771
5XCO A V 14;5XCO A V 81;19.544
5XCO A V 14;5XCO A F 82;8.55277
5XCO A V 14;5XCO A A 83;16.9252
5XCO A V 14;5XCO A N 86;0.493838
5XCO A V 14;5XCO A S 89;12.237
5XCO A V 14;5XCO A N 116;9.83898
5XCO A V 14;5XCO A K 117;10.2434
5XCO A G 15;5XCO A K 16;22.5932
5XCO A G 15;5XCO A S 17;2.37422
5XCO A G 15;5XCO A A 18;17.5362
5XCO A G 15;5XCO A L 19;12.9341
5XCO A G 15;5XCO A V 81;1.52294
5XCO A G 15;5XCO A N 116;9.83125
5XCO A G 15;5XCO A K 117;4.96712
5XCO A G 15;5XCO A A 146;0.359948
5XCO A K 16;5XCO A S 17;21.6362
5XCO A K 16;5XCO A A 18;0.89091
5XCO A K 16;5XCO A L 19;10.1418
5XCO A K 16;5XCO A T 20;11.3307
5XCO A K 16;5XCO A D 57;11.8592
5XCO A K 16;5XCO A T 58;18.8103
5XCO A K 16;5XCO A A 59;1.88901
5XCO A K 16;5XCO A Q 61;7.26623
5XCO A K 16;5XCO A V 81;9.62733
5XCO A S 17;5XCO A A 18;22.0317
5XCO A S 17;5XCO A L 19;0.834557
5XCO A S 17;5XCO A T 20;7.79368
5XCO A S 17;5XCO A I 21;24.2736
5XCO A S 17;5XCO A V 29;11.2053
5XCO A S 17;5XCO A T 35;26.5075
5XCO A S 17;5XCO A Y 40;0.3673
5XCO A S 17;5XCO A D 57;15.5303
5XCO A A 18;5XCO A L 19;15.306
5XCO A A 18;5XCO A T 20;0.666174
5XCO A A 18;5XCO A I 21;5.02429
5XCO A A 18;5XCO A Q 22;11.5311
5XCO A A 18;5XCO A H 27;1.16547
5XCO A A 18;5XCO A F 28;11.8285
5XCO A A 18;5XCO A V 29;21.4467
5XCO A A 18;5XCO A N 116;0.796437
5XCO A A 18;5XCO A A 146;15.3058
5XCO A L 19;5XCO A T 20;18.2301
5XCO A L 19;5XCO A I 21;0.764686
5XCO A L 19;5XCO A Q 22;6.55747
5XCO A L 19;5XCO A L 23;7.21943
5XCO A L 19;5XCO A L 79;5.84049
5XCO A L 19;5XCO A V 81;13.7041
5XCO A L 19;5XCO A V 114;8.40051
5XCO A L 19;5XCO A N 116;14.3046
5XCO A L 19;5XCO A T 144;13.4469
5XCO A L 19;5XCO A S 145;0.128622
5XCO A L 19;5XCO A A 146;14.4223
5XCO A L 19;5XCO A V 152;19.5541
5XCO A L 19;5XCO A A 155;1.54252
5XCO A L 19;5XCO A F 156;15.9934
5XCO A T 20;5XCO A I 21;21.2696
5XCO A T 20;5XCO A Q 22;0.827085
5XCO A T 20;5XCO A L 23;9.02125
5XCO A T 20;5XCO A I 24;17.7638
5XCO A T 20;5XCO A Y 40;17.1663
5XCO A T 20;5XCO A I 55;15.6072
5XCO A T 20;5XCO A D 57;14.6185
5XCO A T 20;5XCO A F 156;10.4459
5XCO A I 21;5XCO A Q 22;17.2128
5XCO A I 21;5XCO A L 23;0.766548
5XCO A I 21;5XCO A I 24;6.5268
5XCO A I 21;5XCO A Q 25;26.4413
5XCO A I 21;5XCO A N 26;2.92834
5XCO A I 21;5XCO A H 27;19.6623
5XCO A I 21;5XCO A V 29;25.2589
5XCO A I 21;5XCO A Y 40;24.564
5XCO A I 21;5XCO A D 57;0.462624
5XCO A Q 22;5XCO A L 23;17.1723
5XCO A Q 22;5XCO A I 24;0.977864
5XCO A Q 22;5XCO A Q 25;0.416679
5XCO A Q 22;5XCO A N 26;9.54178
5XCO A Q 22;5XCO A N 26;11.8606
5XCO A Q 22;5XCO A H 27;19.4125
5XCO A Q 22;5XCO A F 28;9.57702
5XCO A Q 22;5XCO A A 146;18.5245
5XCO A Q 22;5XCO A K 147;5.03998
5XCO A Q 22;5XCO A T 148;0.166423
5XCO A Q 22;5XCO A R 149;1.66902
5XCO A Q 22;5XCO A R 149;33.5707
5XCO A Q 22;5XCO A V 152;10.9869
5XCO A L 23;5XCO A I 24;25.842
5XCO A L 23;5XCO A Q 25;0.33953
5XCO A L 23;5XCO A N 26;0.0193189
5XCO A L 23;5XCO A N 26;5.16833
5XCO A L 23;5XCO A K 42;27.6301
5XCO A L 23;5XCO A L 53;7.39244
5XCO A L 23;5XCO A I 55;10.4028
5XCO A L 23;5XCO A R 149;11.9935
5XCO A L 23;5XCO A V 152;14.185
5XCO A L 23;5XCO A D 153;14.2656
5XCO A L 23;5XCO A F 156;27.2047
5XCO A L 23;5XCO A Y 157;6.9824
5XCO A I 24;5XCO A Q 25;37.5816
5XCO A I 24;5XCO A N 26;6.19233
5XCO A I 24;5XCO A Y 40;25.8374
5XCO A I 24;5XCO A R 41;16.4086
5XCO A I 24;5XCO A K 42;26.2648
5XCO A I 24;5XCO A L 53;0.126789
5XCO A I 24;5XCO A I 55;10.2794
5XCO A Q 25;5XCO A N 26;15.1538
5XCO A Q 25;5XCO A N 26;12.3321
5XCO A Q 25;5XCO A H 27;30.1026
5XCO A Q 25;5XCO A Y 40;14.4252
5XCO A N 26;5XCO A H 27;23.2629
5XCO A N 26;5XCO A H 27;1.59281
5XCO A N 26;5XCO A K 42;3.91929
5XCO A N 26;5XCO A R 149;19.1085
5XCO A H 27;5XCO A F 28;31.5082
5XCO A H 27;5XCO A V 29;18.6088
5XCO A F 28;5XCO A V 29;38.6341
5XCO A F 28;5XCO A D 30;22.1775
5XCO A F 28;5XCO A A 146;15.3264
5XCO A F 28;5XCO A K 147;45.6785
5XCO A V 29;5XCO A D 30;27.4687
5XCO A V 29;5XCO A E 31;18.9308
5XCO A D 30;5XCO A E 31;40.3507
5XCO A D 30;5XCO A Y 32;1.32723
5XCO A E 31;5XCO A Y 32;33.244
5XCO A E 31;5XCO A D 33;26.7641
5XCO A Y 32;5XCO A D 33;37.9888
5XCO A Y 32;5XCO A P 34;8.90776
5XCO A D 33;5XCO A P 34;42.4223
5XCO A D 33;5XCO A T 35;3.57561
5XCO A P 34;5XCO A T 35;35.1862
5XCO A P 34;5XCO A I 36;10.776
5XCO A T 35;5XCO A I 36;36.4611
5XCO A T 35;5XCO A E 37;1.33321
5XCO A T 35;5XCO A Y 40;0.278989
5XCO A T 35;5XCO A D 57;12.7459
5XCO A T 35;5XCO A T 58;1.04255
5XCO A T 35;5XCO A A 59;23.1823
5XCO A T 35;5XCO A G 60;5.37503
5XCO A I 36;5XCO A E 37;36.0827
5XCO A I 36;5XCO A D 38;9.34106
5XCO A I 36;5XCO A Y 40;2.3226
5XCO A I 36;5XCO A D 57;1.23184
5XCO A I 36;5XCO A A 59;1.19443
5XCO A I 36;5XCO A G 60;0.127196
5XCO A E 37;5XCO A D 38;26.4866
5XCO A E 37;5XCO A L 56;13.6951
5XCO A E 37;5XCO A D 57;8.46249
5XCO A E 37;5XCO A T 58;10.0785
5XCO A E 37;5XCO A A 59;26.6869
5XCO A E 37;5XCO A G 60;0.631197
5XCO A E 37;5XCO A S 65;13.0076
5XCO A E 37;5XCO A M 67;13.5845
5XCO A E 37;5XCO A R 68;20.5033
5XCO A D 38;5XCO A S 39;32.4972
5XCO A D 38;5XCO A Y 40;24.54
5XCO A D 38;5XCO A R 41;0.269588
5XCO A D 38;5XCO A I 55;0.12674
5XCO A D 38;5XCO A L 56;6.97694
5XCO A D 38;5XCO A D 57;17.5149
5XCO A D 38;5XCO A M 67;13.209
5XCO A S 39;5XCO A Y 40;27.384
5XCO A S 39;5XCO A R 41;25.6281
5XCO A S 39;5XCO A D 54;0.992927
5XCO A S 39;5XCO A I 55;7.66476
5XCO A S 39;5XCO A L 56;8.96077
5XCO A S 39;5XCO A M 67;16.157
5XCO A S 39;5XCO A Y 71;12.8334
5XCO A Y 40;5XCO A R 41;32.1417
5XCO A Y 40;5XCO A L 53;2.05559
5XCO A Y 40;5XCO A D 54;3.57308
5XCO A Y 40;5XCO A I 55;22.8712
5XCO A Y 40;5XCO A D 57;15.4129
5XCO A R 41;5XCO A K 42;22.6383
5XCO A R 41;5XCO A L 52;21.3954
5XCO A R 41;5XCO A L 53;7.45755
5XCO A R 41;5XCO A D 54;23.8933
5XCO A R 41;5XCO A Y 71;6.35225
5XCO A K 42;5XCO A Q 43;27.2315
5XCO A K 42;5XCO A Q 43;4.90308
5XCO A K 42;5XCO A V 44;22.6911
5XCO A K 42;5XCO A C 51;1.7744
5XCO A K 42;5XCO A L 52;9.78645
5XCO A K 42;5XCO A L 53;28.6969
5XCO A K 42;5XCO A I 55;1.38441
5XCO A K 42;5XCO A R 149;3.88573
5XCO A K 42;5XCO A D 153;2.05069
5XCO A K 42;5XCO A Y 157;6.67026
5XCO A Q 43;5XCO A V 44;18.9717
5XCO A Q 43;5XCO A L 52;1.47248
5XCO A Q 43;5XCO A V 44;11.1512
5XCO A Q 43;5XCO A V 45;4.38385
5XCO A Q 43;5XCO A T 50;10.0578
5XCO A Q 43;5XCO A C 51;6.47306
5XCO A Q 43;5XCO A L 52;8.75659
5XCO A V 44;5XCO A V 45;33.2104
5XCO A V 44;5XCO A I 46;15.01
5XCO A V 44;5XCO A E 49;1.09576
5XCO A V 44;5XCO A T 50;4.63909
5XCO A V 44;5XCO A C 51;22.1042
5XCO A V 44;5XCO A L 53;12.1746
5XCO A V 44;5XCO A Y 157;19.3402
5XCO A V 45;5XCO A I 46;23.0876
5XCO A V 45;5XCO A D 47;2.04154
5XCO A V 45;5XCO A G 48;20.6236
5XCO A V 45;5XCO A E 49;8.55197
5XCO A V 45;5XCO A T 50;19.5171
5XCO A V 45;5XCO A Y 157;4.71899
5XCO A I 46;5XCO A D 47;29.8565
5XCO A I 46;5XCO A G 48;2.00743
5XCO A I 46;5XCO A E 49;9.97633
5XCO A I 46;5XCO A E 49;4.33885
5XCO A I 46;5XCO A C 51;14.6451
5XCO A I 46;5XCO A L 53;8.80719
5XCO A I 46;5XCO A Y 157;31.2809
5XCO A I 46;5XCO A V 160;17.7394
5XCO A I 46;5XCO A R 161;10.7801
5XCO A I 46;5XCO A R 164;14.781
5XCO A D 47;5XCO A G 48;26.9776
5XCO A D 47;5XCO A E 49;3.97632
5XCO A D 47;5XCO A E 49;3.07017
5XCO A D 47;5XCO A R 161;27.6308
5XCO A D 47;5XCO A R 164;16.3371
5XCO A G 48;5XCO A E 49;12.3716
5XCO A G 48;5XCO A E 49;9.53782
5XCO A G 48;5XCO A T 50;4.55986
5XCO A E 49;5XCO A T 50;12.434
5XCO A E 49;5XCO A C 51;6.04137
5XCO A E 49;5XCO A T 50;13.7865
5XCO A E 49;5XCO A C 51;9.53387
5XCO A E 49;5XCO A R 164;17.1083
5XCO A E 49;5XCO A K 169;8.38634
5XCO A T 50;5XCO A C 51;22.489
5XCO A T 50;5XCO A L 52;0.0179199
5XCO A C 51;5XCO A L 52;19.1134
5XCO A C 51;5XCO A L 53;10.3389
5XCO A C 51;5XCO A V 160;3.32625
5XCO A C 51;5XCO A R 164;4.92128
5XCO A L 52;5XCO A L 53;22.6711
5XCO A L 52;5XCO A D 54;2.07083
5XCO A L 52;5XCO A D 54;3.46077
5XCO A L 53;5XCO A D 54;11.7283
5XCO A L 53;5XCO A D 54;4.89987
5XCO A L 53;5XCO A I 55;16.5181
5XCO A L 53;5XCO A F 156;7.00322
5XCO A L 53;5XCO A Y 157;5.34189
5XCO A L 53;5XCO A V 160;11.8085
5XCO A D 54;5XCO A I 55;15.0288
5XCO A D 54;5XCO A L 56;0.00273636
5XCO A D 54;5XCO A Y 71;5.72279
5XCO A D 54;5XCO A I 55;6.00912
5XCO A D 54;5XCO A Y 71;19.745
5XCO A I 55;5XCO A L 56;20.6505
5XCO A I 55;5XCO A D 57;4.19954
5XCO A I 55;5XCO A Y 71;2.30446
5XCO A I 55;5XCO A F 156;14.3116
5XCO A L 56;5XCO A D 57;19.4008
5XCO A L 56;5XCO A T 58;16.2379
5XCO A L 56;5XCO A M 67;12.364
5XCO A L 56;5XCO A R 68;15.2346
5XCO A L 56;5XCO A Y 71;28.4241
5XCO A L 56;5XCO A M 72;0.613007
5XCO A D 57;5XCO A T 58;25.0451
5XCO A D 57;5XCO A A 59;1.56034
5XCO A T 58;5XCO A A 59;25.5327
5XCO A T 58;5XCO A Q 61;5.17247
5XCO A T 58;5XCO A R 68;6.42046
5XCO A T 58;5XCO A M 72;0.272844
5XCO A A 59;5XCO A G 60;26.4773
5XCO A A 59;5XCO A Q 61;11.049
5XCO A A 59;5XCO A E 63;0.0589726
5XCO A A 59;5XCO A R 68;8.79519
5XCO A G 60;5XCO A Q 61;22.558
5XCO A G 60;5XCO A E 62;3.78845
5XCO A G 60;5XCO A E 63;29.6765
5XCO A G 60;5XCO A R 68;7.9648
5XCO A Q 61;5XCO A E 62;28.4743
5XCO A Q 61;5XCO A E 63;1.50181
5XCO A Q 61;5XCO A R 68;6.18733
5XCO A Q 61;5XCO A Y 96;16.5964
5XCO A E 62;5XCO A E 63;27.4981
5XCO A E 62;5XCO A Y 64;0.521936
5XCO A E 63;5XCO A Y 64;34.6774
5XCO A E 63;5XCO A S 65;4.16854
5XCO A E 63;5XCO A R 68;13.6927
5XCO A Y 64;5XCO A S 65;33.9104
5XCO A Y 64;5XCO A A 66;27.4651
5XCO A Y 64;5XCO A D 69;12.1491
5XCO A S 65;5XCO A A 66;20.7595
5XCO A S 65;5XCO A M 67;9.01167
5XCO A S 65;5XCO A R 68;29.5282
5XCO A S 65;5XCO A D 69;13.5762
5XCO A A 66;5XCO A M 67;25.7056
5XCO A A 66;5XCO A R 68;0.684266
5XCO A A 66;5XCO A D 69;12.228
5XCO A A 66;5XCO A Q 70;10.7196
5XCO A A 66;5XCO A R 73;2.21981
5XCO A M 67;5XCO A R 68;18.1984
5XCO A M 67;5XCO A D 69;0.78758
5XCO A M 67;5XCO A Q 70;11.8258
5XCO A M 67;5XCO A Y 71;27.0754
5XCO A R 68;5XCO A D 69;19.9677
5XCO A R 68;5XCO A Q 70;1.08711
5XCO A R 68;5XCO A Y 71;6.42718
5XCO A R 68;5XCO A M 72;18.9516
5XCO A D 69;5XCO A Q 70;15.303
5XCO A D 69;5XCO A Y 71;0.554633
5XCO A D 69;5XCO A M 72;8.44788
5XCO A D 69;5XCO A R 73;26.5066
5XCO A Q 70;5XCO A Y 71;20.6813
5XCO A Q 70;5XCO A M 72;0.98179
5XCO A Q 70;5XCO A R 73;34.8965
5XCO A Q 70;5XCO A T 74;32.0745
5XCO A Y 71;5XCO A M 72;20.5134
5XCO A Y 71;5XCO A R 73;0.91994
5XCO A Y 71;5XCO A T 74;9.04587
5XCO A Y 71;5XCO A G 75;14.2878
5XCO A Y 71;5XCO A F 78;1.13828
5XCO A M 72;5XCO A R 73;16.922
5XCO A M 72;5XCO A T 74;0.665543
5XCO A M 72;5XCO A G 75;1.30603
5XCO A M 72;5XCO A F 78;19.3916
5XCO A M 72;5XCO A Q 99;0.155802
5XCO A M 72;5XCO A I 100;9.79868
5XCO A M 72;5XCO A V 103;15.8379
5XCO A M 72;5XCO A K 104;16.5582
5XCO A R 73;5XCO A T 74;29.2299
5XCO A R 73;5XCO A G 75;0.455476
5XCO A R 73;5XCO A K 104;12.4011
5XCO A T 74;5XCO A G 75;22.8961
5XCO A T 74;5XCO A E 76;10.3388
5XCO A T 74;5XCO A K 104;1.50751
5XCO A G 75;5XCO A E 76;24.0458
5XCO A G 75;5XCO A G 77;1.54184
5XCO A G 75;5XCO A F 78;8.38249
5XCO A G 75;5XCO A K 104;18.8669
5XCO A G 75;5XCO A V 109;0.050298
5XCO A E 76;5XCO A G 77;18.8705
5XCO A E 76;5XCO A F 78;1.5744
5XCO A E 76;5XCO A V 109;2.74465
5XCO A E 76;5XCO A P 110;14.1834
5XCO A E 76;5XCO A I 163;21.8137
5XCO A E 76;5XCO A H 166;0.812317
5XCO A E 76;5XCO A K 167;25.6301
5XCO A E 76;5XCO A K 169;17.9415
5XCO A G 77;5XCO A F 78;24.6576
5XCO A G 77;5XCO A V 109;0.955214
5XCO A G 77;5XCO A P 110;8.20155
5XCO A G 77;5XCO A L 159;10.5479
5XCO A G 77;5XCO A I 163;7.18148
5XCO A F 78;5XCO A L 79;19.0925
5XCO A F 78;5XCO A C 80;7.12275
5XCO A F 78;5XCO A I 100;25.6322
5XCO A F 78;5XCO A K 104;13.8093
5XCO A F 78;5XCO A V 109;11.654
5XCO A F 78;5XCO A P 110;6.19766
5XCO A F 78;5XCO A M 111;16.6275
5XCO A F 78;5XCO A V 112;6.4939
5XCO A F 78;5XCO A L 159;11.875
5XCO A L 79;5XCO A C 80;17.018
5XCO A L 79;5XCO A V 81;11.3873
5XCO A L 79;5XCO A V 112;14.7883
5XCO A L 79;5XCO A V 114;14.7024
5XCO A L 79;5XCO A A 155;14.3901
5XCO A L 79;5XCO A F 156;24.9647
5XCO A L 79;5XCO A L 159;19.5334
5XCO A C 80;5XCO A V 81;17.4206
5XCO A C 80;5XCO A F 82;0.543742
5XCO A C 80;5XCO A I 93;19.0303
5XCO A C 80;5XCO A Y 96;7.05605
5XCO A C 80;5XCO A R 97;6.16581
5XCO A C 80;5XCO A I 100;7.14533
5XCO A C 80;5XCO A M 111;16.7205
5XCO A C 80;5XCO A V 112;10.6962
5XCO A C 80;5XCO A L 113;14.3597
5XCO A C 80;5XCO A V 114;10.1344
5XCO A C 80;5XCO A I 139;1.42571
5XCO A V 81;5XCO A F 82;21.9072
5XCO A V 81;5XCO A S 89;1.3583
5XCO A V 81;5XCO A I 93;10.4432
5XCO A V 81;5XCO A V 114;19.3113
5XCO A V 81;5XCO A N 116;7.93393
5XCO A F 82;5XCO A A 83;23.8021
5XCO A F 82;5XCO A I 84;12.1366
5XCO A F 82;5XCO A N 86;0.251318
5XCO A F 82;5XCO A S 89;12.642
5XCO A F 82;5XCO A F 90;24.8457
5XCO A F 82;5XCO A I 93;12.4511
5XCO A F 82;5XCO A L 113;14.0257
5XCO A F 82;5XCO A V 114;12.6246
5XCO A F 82;5XCO A G 115;14.2848
5XCO A F 82;5XCO A N 116;8.96229
5XCO A F 82;5XCO A V 125;14.4256
5XCO A F 82;5XCO A A 130;8.0856
5XCO A F 82;5XCO A F 141;9.37684
5XCO A F 82;5XCO A E 143;0.0930457
5XCO A A 83;5XCO A I 84;16.3675
5XCO A A 83;5XCO A N 85;10.7776
5XCO A A 83;5XCO A N 86;18.9358
5XCO A A 83;5XCO A S 89;9.28326
5XCO A A 83;5XCO A N 116;6.06082
5XCO A A 83;5XCO A K 117;14.536
5XCO A A 83;5XCO A V 125;2.86601
5XCO A I 84;5XCO A N 85;22.4691
5XCO A I 84;5XCO A N 86;1.69411
5XCO A I 84;5XCO A G 115;11.8284
5XCO A I 84;5XCO A N 116;12.0027
5XCO A I 84;5XCO A K 117;11.7299
5XCO A I 84;5XCO A C 118;12.8458
5XCO A I 84;5XCO A L 120;12.3298
5XCO A I 84;5XCO A S 122;0.728801
5XCO A I 84;5XCO A R 123;34.5686
5XCO A I 84;5XCO A T 124;5.89024
5XCO A I 84;5XCO A V 125;18.1569
5XCO A I 84;5XCO A F 141;0.424487
5XCO A I 84;5XCO A E 143;11.2459
5XCO A N 85;5XCO A N 86;29.5781
5XCO A N 85;5XCO A T 87;0.117609
5XCO A N 85;5XCO A K 117;13.635
5XCO A N 85;5XCO A L 120;18.3003
5XCO A N 85;5XCO A S 122;22.8478
5XCO A N 85;5XCO A R 123;1.42344
5XCO A N 85;5XCO A T 124;16.2458
5XCO A N 86;5XCO A T 87;21.1085
5XCO A N 86;5XCO A K 88;15.0726
5XCO A N 86;5XCO A S 89;25.2798
5XCO A N 86;5XCO A F 90;4.82156
5XCO A N 86;5XCO A T 124;3.01807
5XCO A N 86;5XCO A V 125;4.31773
5XCO A T 87;5XCO A K 88;22.5219
5XCO A T 87;5XCO A S 89;0.920741
5XCO A T 87;5XCO A F 90;13.9885
5XCO A T 87;5XCO A E 91;28.9477
5XCO A T 87;5XCO A T 124;24.403
5XCO A T 87;5XCO A V 125;11.674
5XCO A K 88;5XCO A S 89;17.2826
5XCO A K 88;5XCO A F 90;1.09773
5XCO A K 88;5XCO A E 91;26.8637
5XCO A K 88;5XCO A D 92;37.1413
5XCO A S 89;5XCO A F 90;15.7524
5XCO A S 89;5XCO A E 91;0.344254
5XCO A S 89;5XCO A D 92;13.6508
5XCO A S 89;5XCO A I 93;9.43274
5XCO A F 90;5XCO A E 91;28.8086
5XCO A F 90;5XCO A D 92;1.72293
5XCO A F 90;5XCO A I 93;17.8406
5XCO A F 90;5XCO A H 94;0.945124
5XCO A F 90;5XCO A L 113;4.19844
5XCO A F 90;5XCO A V 125;24.1533
5XCO A F 90;5XCO A Q 129;5.78819
5XCO A F 90;5XCO A Q 129;12.937
5XCO A F 90;5XCO A A 130;10.5548
5XCO A F 90;5XCO A L 133;24.3452
5XCO A E 91;5XCO A D 92;19.5028
5XCO A E 91;5XCO A I 93;2.12955
5XCO A E 91;5XCO A H 94;11.1484
5XCO A E 91;5XCO A H 95;7.24507
5XCO A D 92;5XCO A I 93;16.4716
5XCO A D 92;5XCO A H 94;2.21833
5XCO A D 92;5XCO A H 95;22.0853
5XCO A D 92;5XCO A Y 96;22.994
5XCO A I 93;5XCO A H 94;19.7347
5XCO A I 93;5XCO A H 95;1.06073
5XCO A I 93;5XCO A Y 96;18.2454
5XCO A I 93;5XCO A R 97;12.1781
5XCO A I 93;5XCO A M 111;0.129101
5XCO A I 93;5XCO A L 113;16.5583
5XCO A I 93;5XCO A L 133;12.336
5XCO A I 93;5XCO A Y 137;11.2485
5XCO A H 94;5XCO A H 95;29.4208
5XCO A H 94;5XCO A Y 96;0.584312
5XCO A H 94;5XCO A R 97;14.1617
5XCO A H 94;5XCO A E 98;34.6777
5XCO A H 94;5XCO A L 133;6.16845
5XCO A H 94;5XCO A Y 137;26.7192
5XCO A H 95;5XCO A Y 96;16.3
5XCO A H 95;5XCO A R 97;0.690708
5XCO A H 95;5XCO A E 98;11.2088
5XCO A H 95;5XCO A Q 99;9.8128
5XCO A Y 96;5XCO A R 97;17.1031
5XCO A Y 96;5XCO A E 98;0.838426
5XCO A Y 96;5XCO A Q 99;11.8474
5XCO A Y 96;5XCO A I 100;16.452
5XCO A R 97;5XCO A E 98;34.123
5XCO A R 97;5XCO A Q 99;0.950669
5XCO A R 97;5XCO A I 100;10.9443
5XCO A R 97;5XCO A K 101;4.82656
5XCO A R 97;5XCO A K 101;23.5268
5XCO A R 97;5XCO A E 107;24.3307
5XCO A R 97;5XCO A M 111;21.3645
5XCO A R 97;5XCO A S 136;0.927264
5XCO A R 97;5XCO A Y 137;47.9454
5XCO A E 98;5XCO A Q 99;16.9505
5XCO A E 98;5XCO A I 100;0.635689
5XCO A E 98;5XCO A K 101;1.87108
5XCO A E 98;5XCO A K 101;26.869
5XCO A E 98;5XCO A R 102;21.9107
5XCO A Q 99;5XCO A I 100;19.7528
5XCO A Q 99;5XCO A K 101;0.890098
5XCO A Q 99;5XCO A R 102;22.9455
5XCO A Q 99;5XCO A V 103;16.5681
5XCO A I 100;5XCO A K 101;15.7681
5XCO A I 100;5XCO A K 101;4.22293
5XCO A I 100;5XCO A R 102;0.908993
5XCO A I 100;5XCO A V 103;10.814
5XCO A I 100;5XCO A K 104;15.9358
5XCO A I 100;5XCO A V 109;13.2358
5XCO A I 100;5XCO A M 111;15.1583
5XCO A K 101;5XCO A R 102;16.0492
5XCO A K 101;5XCO A V 103;0.483501
5XCO A K 101;5XCO A K 104;2.21029
5XCO A K 101;5XCO A D 105;8.831
5XCO A K 101;5XCO A S 106;5.9875
5XCO A K 101;5XCO A R 102;6.16297
5XCO A K 101;5XCO A K 104;0.714918
5XCO A K 101;5XCO A S 106;16.7324
5XCO A K 101;5XCO A E 107;34.2764
5XCO A K 101;5XCO A V 109;3.55772
5XCO A R 102;5XCO A V 103;27.2369
5XCO A R 102;5XCO A K 104;0.718522
5XCO A R 102;5XCO A D 105;14.5193
5XCO A V 103;5XCO A K 104;30.9791
5XCO A V 103;5XCO A D 105;4.27129
5XCO A K 104;5XCO A D 105;25.6979
5XCO A K 104;5XCO A S 106;14.3124
5XCO A K 104;5XCO A V 109;19.8941
5XCO A D 105;5XCO A S 106;27.2306
5XCO A S 106;5XCO A E 107;25.819
5XCO A S 106;5XCO A D 108;20.5585
5XCO A S 106;5XCO A V 109;18.0612
5XCO A S 106;5XCO A H 166;1.42497
5XCO A E 107;5XCO A D 108;30.2005
5XCO A E 107;5XCO A V 109;4.25688
5XCO A E 107;5XCO A Y 137;3.48066
5XCO A D 108;5XCO A V 109;25.869
5XCO A D 108;5XCO A P 110;5.29642
5XCO A D 108;5XCO A H 166;29.1175
5XCO A V 109;5XCO A P 110;32.4653
5XCO A V 109;5XCO A M 111;2.60365
5XCO A V 109;5XCO A M 111;17.9581
5XCO A V 109;5XCO A I 139;5.10916
5XCO A V 109;5XCO A H 166;1.23461
5XCO A P 110;5XCO A M 111;13.1235
5XCO A P 110;5XCO A M 111;8.00037
5XCO A P 110;5XCO A L 159;6.86599
5XCO A P 110;5XCO A E 162;15.1048
5XCO A P 110;5XCO A I 163;15.607
5XCO A P 110;5XCO A H 166;25.3647
5XCO A P 110;5XCO A K 167;0.000664363
5XCO A M 111;5XCO A V 112;15.7353
5XCO A M 111;5XCO A I 139;11.7847
5XCO A M 111;5XCO A P 140;5.71947
5XCO A M 111;5XCO A L 159;3.88918
5XCO A M 111;5XCO A E 162;9.26176
5XCO A M 111;5XCO A V 112;5.82973
5XCO A M 111;5XCO A Y 137;3.91676
5XCO A M 111;5XCO A I 139;23.5846
5XCO A M 111;5XCO A L 159;2.98508
5XCO A V 112;5XCO A L 113;22.1945
5XCO A V 112;5XCO A V 114;11.0195
5XCO A V 112;5XCO A I 139;4.87347
5XCO A V 112;5XCO A P 140;17.3159
5XCO A V 112;5XCO A F 141;0.613485
5XCO A V 112;5XCO A I 142;12.9141
5XCO A V 112;5XCO A A 155;7.36502
5XCO A V 112;5XCO A T 158;9.60798
5XCO A V 112;5XCO A L 159;15.2797
5XCO A V 112;5XCO A E 162;5.30055
5XCO A L 113;5XCO A V 114;20.3429
5XCO A L 113;5XCO A A 130;10.0728
5XCO A L 113;5XCO A L 133;12.2104
5XCO A L 113;5XCO A A 134;12.2849
5XCO A L 113;5XCO A Y 137;3.23258
5XCO A L 113;5XCO A I 139;15.0091
5XCO A L 113;5XCO A P 140;8.08202
5XCO A L 113;5XCO A F 141;21.0408
5XCO A L 113;5XCO A I 142;6.61843
5XCO A V 114;5XCO A G 115;17.4152
5XCO A V 114;5XCO A N 116;5.37235
5XCO A V 114;5XCO A F 141;0.721867
5XCO A V 114;5XCO A I 142;10.7996
5XCO A V 114;5XCO A T 144;14.7189
5XCO A V 114;5XCO A A 155;10.2294
5XCO A G 115;5XCO A N 116;16.6379
5XCO A G 115;5XCO A C 118;2.74037
5XCO A G 115;5XCO A F 141;8.44893
5XCO A G 115;5XCO A I 142;5.04401
5XCO A G 115;5XCO A E 143;11.4715
5XCO A G 115;5XCO A T 144;7.42237
5XCO A N 116;5XCO A K 117;33.4814
5XCO A N 116;5XCO A C 118;2.42453
5XCO A N 116;5XCO A T 144;15.9786
5XCO A N 116;5XCO A S 145;2.77196
5XCO A N 116;5XCO A A 146;13.2914
5XCO A K 117;5XCO A C 118;14.8392
5XCO A K 117;5XCO A D 119;12.9401
5XCO A K 117;5XCO A L 120;30.2008
5XCO A K 117;5XCO A T 144;2.88734
5XCO A K 117;5XCO A S 145;3.97918
5XCO A K 117;5XCO A A 146;0.802388
5XCO A C 118;5XCO A D 119;24.3405
5XCO A C 118;5XCO A L 120;8.76874
5XCO A C 118;5XCO A R 123;8.87051
5XCO A C 118;5XCO A E 143;21.2911
5XCO A C 118;5XCO A T 144;15.1606
5XCO A C 118;5XCO A S 145;10.3859
5XCO A C 118;5XCO A Q 150;14.7241
5XCO A D 119;5XCO A L 120;38.9018
5XCO A D 119;5XCO A P 121;5.89909
5XCO A D 119;5XCO A S 145;17.5717
5XCO A D 119;5XCO A A 146;0.102091
5XCO A D 119;5XCO A K 147;24.3583
5XCO A D 119;5XCO A T 148;15.159
5XCO A L 120;5XCO A P 121;36.3558
5XCO A L 120;5XCO A S 122;16.9489
5XCO A L 120;5XCO A R 123;4.60457
5XCO A L 120;5XCO A K 147;3.83844
5XCO A P 121;5XCO A S 122;30.9205
5XCO A P 121;5XCO A R 123;6.97131
5XCO A S 122;5XCO A R 123;23.7965
5XCO A S 122;5XCO A T 124;9.76593
5XCO A R 123;5XCO A T 124;27.0864
5XCO A R 123;5XCO A V 125;18.7479
5XCO A R 123;5XCO A D 126;11.5261
5XCO A R 123;5XCO A T 127;14.7192
5XCO A R 123;5XCO A E 143;22.7052
5XCO A T 124;5XCO A V 125;24.4134
5XCO A T 124;5XCO A D 126;3.21414
5XCO A T 124;5XCO A Q 129;6.12818
5XCO A V 125;5XCO A D 126;25.0689
5XCO A V 125;5XCO A T 127;0.586942
5XCO A V 125;5XCO A Q 129;11.9277
5XCO A V 125;5XCO A A 130;6.30033
5XCO A V 125;5XCO A E 143;0.137175
5XCO A D 126;5XCO A T 127;28.9235
5XCO A D 126;5XCO A K 128;20.3088
5XCO A D 126;5XCO A Q 129;5.20425
5XCO A D 126;5XCO A Q 129;23.8561
5XCO A D 126;5XCO A A 130;6.23336
5XCO A T 127;5XCO A K 128;28.2085
5XCO A T 127;5XCO A Q 129;0.787678
5XCO A T 127;5XCO A A 130;8.30568
5XCO A T 127;5XCO A Q 131;28.137
5XCO A T 127;5XCO A F 141;14.8461
5XCO A T 127;5XCO A E 143;11.8189
5XCO A K 128;5XCO A Q 129;16.3861
5XCO A K 128;5XCO A Q 129;5.91517
5XCO A K 128;5XCO A A 130;0.630898
5XCO A K 128;5XCO A Q 131;32.2393
5XCO A K 128;5XCO A D 132;13.4812
5XCO A K 128;5XCO A R 135;1.25522
5XCO A Q 129;5XCO A A 130;13.0911
5XCO A Q 129;5XCO A Q 131;0.737521
5XCO A Q 129;5XCO A D 132;6.91768
5XCO A Q 129;5XCO A L 133;9.96405
5XCO A Q 129;5XCO A A 130;3.36103
5XCO A Q 129;5XCO A D 132;4.61014
5XCO A A 130;5XCO A Q 131;16.0789
5XCO A A 130;5XCO A D 132;1.04136
5XCO A A 130;5XCO A L 133;6.87786
5XCO A A 130;5XCO A A 134;7.15097
5XCO A A 130;5XCO A F 141;18.615
5XCO A A 130;5XCO A E 143;0.0130408
5XCO A Q 131;5XCO A D 132;17.1021
5XCO A Q 131;5XCO A L 133;0.657423
5XCO A Q 131;5XCO A A 134;8.11384
5XCO A Q 131;5XCO A R 135;28.2082
5XCO A Q 131;5XCO A F 141;19.6526
5XCO A D 132;5XCO A L 133;21.2712
5XCO A D 132;5XCO A A 134;0.754823
5XCO A D 132;5XCO A R 135;34.0126
5XCO A D 132;5XCO A S 136;14.55
5XCO A L 133;5XCO A A 134;17.1217
5XCO A L 133;5XCO A R 135;0.806783
5XCO A L 133;5XCO A S 136;18.8271
5XCO A L 133;5XCO A Y 137;33.1102
5XCO A A 134;5XCO A R 135;18.9298
5XCO A A 134;5XCO A S 136;0.913772
5XCO A A 134;5XCO A Y 137;9.75049
5XCO A A 134;5XCO A G 138;4.07776
5XCO A A 134;5XCO A I 139;26.0105
5XCO A A 134;5XCO A P 140;3.04888
5XCO A A 134;5XCO A F 141;11.4843
5XCO A R 135;5XCO A S 136;23.9734
5XCO A R 135;5XCO A Y 137;1.18961
5XCO A R 135;5XCO A G 138;14.3139
5XCO A R 135;5XCO A I 139;3.12147
5XCO A S 136;5XCO A Y 137;32.8676
5XCO A S 136;5XCO A G 138;2.46921
5XCO A Y 137;5XCO A G 138;22.2228
5XCO A Y 137;5XCO A I 139;30.7235
5XCO A G 138;5XCO A I 139;29.2386
5XCO A G 138;5XCO A P 140;0.452944
5XCO A G 138;5XCO A E 162;3.70361
5XCO A G 138;5XCO A K 165;2.22004
5XCO A I 139;5XCO A P 140;35.608
5XCO A I 139;5XCO A F 141;0.675863
5XCO A I 139;5XCO A E 162;2.50522
5XCO A P 140;5XCO A F 141;23.6967
5XCO A P 140;5XCO A I 142;7.20054
5XCO A P 140;5XCO A T 158;14.2632
5XCO A P 140;5XCO A E 162;22.4126
5XCO A P 140;5XCO A K 165;0.0371239
5XCO A F 141;5XCO A I 142;36.7548
5XCO A F 141;5XCO A E 143;21.2624
5XCO A I 142;5XCO A E 143;31.5563
5XCO A I 142;5XCO A T 144;7.14171
5XCO A I 142;5XCO A G 151;6.60896
5XCO A I 142;5XCO A D 154;2.78666
5XCO A I 142;5XCO A D 154;18.072
5XCO A I 142;5XCO A A 155;14.6624
5XCO A I 142;5XCO A T 158;16.0414
5XCO A E 143;5XCO A T 144;20.0134
5XCO A E 143;5XCO A Q 150;6.06255
5XCO A E 143;5XCO A G 151;7.1587
5XCO A T 144;5XCO A S 145;16.2182
5XCO A T 144;5XCO A A 146;0.0994884
5XCO A T 144;5XCO A Q 150;6.7519
5XCO A T 144;5XCO A G 151;8.61404
5XCO A T 144;5XCO A V 152;7.72617
5XCO A T 144;5XCO A A 155;9.77978
5XCO A S 145;5XCO A A 146;17.6522
5XCO A S 145;5XCO A K 147;8.80394
5XCO A S 145;5XCO A T 148;15.9469
5XCO A S 145;5XCO A R 149;4.69151
5XCO A S 145;5XCO A R 149;2.72063
5XCO A S 145;5XCO A Q 150;14.8612
5XCO A S 145;5XCO A V 152;5.89091
5XCO A A 146;5XCO A K 147;19.8383
5XCO A A 146;5XCO A T 148;0.290967
5XCO A A 146;5XCO A R 149;2.67948
5XCO A A 146;5XCO A R 149;0.744327
5XCO A A 146;5XCO A V 152;5.24518
5XCO A K 147;5XCO A T 148;31.9327
5XCO A K 147;5XCO A R 149;1.76527
5XCO A T 148;5XCO A R 149;12.8497
5XCO A T 148;5XCO A R 149;13.4574
5XCO A T 148;5XCO A Q 150;19.3251
5XCO A R 149;5XCO A Q 150;18.9759
5XCO A R 149;5XCO A G 151;3.75953
5XCO A R 149;5XCO A V 152;10.2916
5XCO A R 149;5XCO A D 153;1.13633
5XCO A R 149;5XCO A Q 150;0.718569
5XCO A R 149;5XCO A V 152;14.8834
5XCO A R 149;5XCO A D 153;26.1887
5XCO A Q 150;5XCO A G 151;30.0095
5XCO A Q 150;5XCO A V 152;5.62479
5XCO A G 151;5XCO A V 152;17.5051
5XCO A G 151;5XCO A D 153;0.824066
5XCO A G 151;5XCO A D 154;3.63559
5XCO A G 151;5XCO A D 154;14.4341
5XCO A G 151;5XCO A A 155;7.25216
5XCO A V 152;5XCO A D 153;24.6477
5XCO A V 152;5XCO A D 154;1.05354
5XCO A V 152;5XCO A A 155;7.8465
5XCO A V 152;5XCO A F 156;17.3179
5XCO A D 153;5XCO A D 154;19.7789
5XCO A D 153;5XCO A D 154;3.48823
5XCO A D 153;5XCO A A 155;0.941131
5XCO A D 153;5XCO A F 156;5.30413
5XCO A D 153;5XCO A Y 157;40.4872
5XCO A D 154;5XCO A A 155;13.2561
5XCO A D 154;5XCO A F 156;0.547303
5XCO A D 154;5XCO A Y 157;3.04179
5XCO A D 154;5XCO A T 158;10.7339
5XCO A D 154;5XCO A A 155;2.75719
5XCO A D 154;5XCO A Y 157;6.02852
5XCO A D 154;5XCO A T 158;9.47063
5XCO A D 154;5XCO A R 161;5.92733
5XCO A A 155;5XCO A F 156;21.5791
5XCO A A 155;5XCO A Y 157;0.683868
5XCO A A 155;5XCO A T 158;5.47349
5XCO A A 155;5XCO A L 159;6.70861
5XCO A F 156;5XCO A Y 157;21.7717
5XCO A F 156;5XCO A T 158;0.888095
5XCO A F 156;5XCO A L 159;11.4224
5XCO A F 156;5XCO A V 160;10.9641
5XCO A Y 157;5XCO A T 158;17.2136
5XCO A Y 157;5XCO A L 159;0.947703
5XCO A Y 157;5XCO A V 160;10.8835
5XCO A Y 157;5XCO A R 161;31.9387
5XCO A T 158;5XCO A L 159;15.6411
5XCO A T 158;5XCO A V 160;0.706205
5XCO A T 158;5XCO A R 161;22.5175
5XCO A T 158;5XCO A E 162;16.3112
5XCO A L 159;5XCO A V 160;16.854
5XCO A L 159;5XCO A R 161;0.899391
5XCO A L 159;5XCO A E 162;12.3958
5XCO A L 159;5XCO A I 163;15.3555
5XCO A V 160;5XCO A R 161;17.9248
5XCO A V 160;5XCO A E 162;0.895995
5XCO A V 160;5XCO A I 163;12.1007
5XCO A V 160;5XCO A R 164;21.0059
5XCO A R 161;5XCO A E 162;19.7964
5XCO A R 161;5XCO A I 163;0.682823
5XCO A R 161;5XCO A R 164;23.5099
5XCO A R 161;5XCO A K 165;12.4731
5XCO A E 162;5XCO A I 163;15.4731
5XCO A E 162;5XCO A R 164;0.821324
5XCO A E 162;5XCO A K 165;40.723
5XCO A E 162;5XCO A H 166;3.34714
5XCO A E 162;5XCO A H 166;6.14476
5XCO A I 163;5XCO A R 164;16.7746
5XCO A I 163;5XCO A K 165;1.25603
5XCO A I 163;5XCO A H 166;2.8441
5XCO A I 163;5XCO A H 166;5.76839
5XCO A I 163;5XCO A K 167;19.7168
5XCO A I 163;5XCO A K 169;9.67484
5XCO A R 164;5XCO A K 165;24.1299
5XCO A R 164;5XCO A H 166;1.14824
5XCO A R 164;5XCO A K 167;16.7663
5XCO A R 164;5XCO A K 169;13.4864
5XCO A K 165;5XCO A H 166;15.4246
5XCO A K 165;5XCO A H 166;10.1056
5XCO A K 165;5XCO A K 167;2.20186
5XCO A H 166;5XCO A K 167;23.8931
5XCO A H 166;5XCO A K 167;20.7843
5XCO A K 167;5XCO A E 168;40.1541
5XCO A K 167;5XCO A K 169;20.5806
5XCO A E 168;5XCO A K 169;38.4913
