"The table details the residue variety in % for each position in the query sequence."
"Each column shows the % for that amino-acid, found in position ('pos') in the MSA."
"In case there are residues which are not a standard amino-acid in the MSA, they are represented under column 'OTHER'"

pos,A,C,D,E,F,G,H,I,K,L,M,N,P,Q,R,S,T,V,W,Y,OTHER,MAX AA,ConSurf Grade
1,,,0.833,45.833,,0.833,,,,,,,,52.500,,,,,,,,Q 52.500,6
2,0.730,,,0.730,0.730,0.730,,4.380,,1.460,1.460,,,,,,,89.781,,,,V 89.781,8
3,,,,,,,2.113,,12.676,,,0.704,,81.690,0.704,0.704,1.408,,,,,Q 81.690,8
4,,,,,,,,,,98.649,1.351,,,,,,,,,,,L 98.649,9
5,1.351,,1.351,4.730,,,,0.676,4.054,8.108,,,,33.784,1.351,1.351,0.676,42.568,,,,V 42.568,5
6,,,,51.007,,,,,,,,,,48.993,,,,,,,,E 51.007,8
7,,,,,,,,,,,,,5.369,,,91.946,2.013,,0.671,,,S 91.946,9
8,,,0.671,3.356,,94.631,,,,,,,0.671,,0.671,,,,,,,G 94.631,8
9,28.188,,0.671,,,36.242,,,,,,1.342,26.174,,,4.698,2.685,,,,,G 36.242,4
10,2.685,,4.027,38.926,,45.638,,,,,,,,1.342,2.685,0.671,0.671,3.356,,,,G 45.638,6
11,,,,,0.671,,,1.342,,72.483,1.342,,,,,,0.671,23.490,,,,L 72.483,7
12,4.027,,,,,,,2.685,18.121,1.342,0.671,,,,2.685,,0.671,69.799,,,,V 69.799,7
13,2.013,,,1.342,,,,,54.362,,,,1.342,24.832,12.081,0.671,3.356,,,,,K 54.362,5
14,1.342,,,,,,,,,0.671,,,94.631,,,2.685,0.671,,,,,P 94.631,8
15,0.671,,0.671,,,81.879,,,0.671,0.671,,,,,,14.765,0.671,,,,,G 81.879,8
16,28.188,,1.342,12.081,,24.832,,,0.671,,,,,11.409,6.040,8.725,5.369,1.342,,,,A 28.188,3*
17,,,,,0.671,,,,,,,,2.685,,,80.537,16.107,,,,,S 80.537,9
18,,,,,,,2.685,,,49.664,2.685,,0.671,,1.342,,,42.953,,,,L 49.664,7
19,,,,,,,,1.342,48.993,,,,,0.671,24.161,16.107,8.725,,,,,K 48.993,6
20,,,,,,,,18.121,,63.087,5.369,,0.671,,,,,12.752,,,,L 63.087,5
21,,,0.671,,0.671,,,,,,,,0.671,,,77.181,20.805,,,,,S 77.181,9
22,,99.329,,,,0.671,,,,,,,,,,,,,,,,C 99.329,9
23,20.805,,,4.027,,2.013,,,38.926,0.671,,0.671,0.671,0.671,2.013,6.040,18.792,4.698,,,,K 38.926,4*
24,61.745,0.671,,,1.342,4.027,,2.013,,,,0.671,,,,2.685,6.040,20.134,,0.671,,A 61.745,5
25,,,,,0.671,,,,,0.671,,,2.013,,,91.946,2.013,,,2.685,,S 91.946,9
26,,,0.671,0.671,,97.987,,,,,,0.671,,,,,,,,,,G 97.987,9
27,1.342,,3.356,0.671,45.638,6.040,,2.013,,,,,0.671,,,,0.671,1.342,,38.255,,F 45.638,5
28,1.342,,2.685,0.671,0.671,0.671,0.671,3.356,1.342,,,3.356,,,1.342,24.832,57.718,,,1.342,,T 57.718,5
29,,,,,71.141,,,7.383,,18.792,1.342,,,,,,,1.342,,,,F 71.141,5
30,0.671,,2.685,,,3.356,,3.356,2.685,2.013,,5.369,0.671,,5.369,36.242,37.584,,,,,T 37.584,3*
31,0.671,,23.490,4.027,,5.369,0.671,2.013,0.671,0.671,,19.463,,,4.698,26.174,12.081,,,,,S 26.174,1
32,2.013,0.671,1.342,0.671,8.054,,4.698,0.671,0.671,0.671,0.671,4.027,,,,7.383,1.342,,,67.114,,Y 67.114,1
33,14.765,,3.356,0.671,3.356,15.436,1.342,0.671,,0.671,,4.027,1.342,,,6.711,4.698,2.685,19.463,20.805,,Y 20.805,1
34,0.667,,,,0.667,,,26.000,,3.333,47.333,,,,0.667,,,12.667,8.667,,,M 47.333,4
35,3.333,,2.000,0.667,,7.333,36.667,2.000,0.667,,0.667,19.333,,0.667,,17.333,7.333,,,2.000,,H 36.667,1
36,,,,,,,,,,,,,,,,,,,100.000,,,W 100.000,9
37,1.333,,,,0.667,,,18.000,,1.333,2.667,0.667,,,,,,74.667,0.667,,,V 74.667,6
38,,,,,,,,,24.667,,0.667,,,,74.667,,,,,,,R 74.667,9
39,,,,,,,0.667,,,2.000,,,,96.000,1.333,,,,,,,Q 96.000,9
40,47.333,,,,1.333,,0.667,0.667,1.333,,,,10.667,0.667,15.333,12.667,6.667,2.667,,,,A 47.333,5
41,1.333,,,,,,7.333,,,,,0.667,87.333,,,2.667,0.667,,,,,P 87.333,7
42,0.667,,2.000,8.667,,85.333,,0.667,0.667,,,,,,,0.667,,1.333,,,,G 85.333,6
43,,,,,,0.667,4.000,,60.667,,,1.333,0.667,27.333,5.333,,,,,,,K 60.667,7
44,2.667,,,0.667,,79.333,,,1.333,,,,,,6.667,9.333,,,,,,G 79.333,5
45,,,,,2.000,,,,,93.333,,,4.000,,0.667,,,,,,,L 93.333,8
46,,,1.333,91.333,,,,,2.667,,,,,3.333,,,,1.333,,,,E 91.333,9
47,,,,,0.667,0.667,,,,,,,,,,,,,94.667,4.000,,W 94.667,8
48,,,,,,,,42.667,,10.000,13.333,,,,,,,34.000,,,,I 42.667,6
49,24.000,,,,,67.333,0.667,,,,,,,,,6.667,1.333,,,,,G 67.333,6
50,2.667,,2.667,4.000,2.667,10.667,1.333,3.333,,6.000,2.000,4.000,,2.000,8.667,6.000,6.000,8.667,12.667,16.667,,Y 16.667,1
51,0.667,,,,2.667,,,80.667,,2.667,3.333,,,,,0.667,2.000,7.333,,,,I 80.667,6
52,2.000,,6.000,,2.667,2.667,2.667,3.333,4.667,1.333,,17.333,,1.333,6.000,21.333,2.000,1.333,7.333,18.000,,S 21.333,1
53,3.361,,1.681,,,4.202,,0.840,2.521,,,2.521,50.420,,2.521,12.605,8.403,1.681,,9.244,,P 50.420,1
54,2.667,,14.667,4.000,,19.333,2.667,0.667,2.667,0.667,,12.667,0.667,1.333,5.333,16.000,4.000,,2.000,10.000,0.666666666666667,G 19.333,1
55,,,10.667,1.333,3.333,29.333,,0.667,0.667,,,15.333,,0.667,0.667,29.333,6.667,,,1.333,,GS 29.333,1
56,2.667,,6.000,0.667,0.667,59.333,0.667,,2.667,,,2.000,0.667,,2.000,14.000,3.333,2.667,,2.000,0.666666666666667,G 59.333,1
57,4.667,,11.333,8.000,0.667,9.333,1.333,2.667,4.000,1.333,,9.333,1.333,0.667,4.000,16.667,14.667,0.667,,8.667,0.666666666666667,S 16.667,1
58,10.738,,,,,0.671,,10.067,4.698,2.685,,3.356,6.711,2.013,1.342,2.013,54.362,1.342,,,,T 54.362,2
59,4.698,,6.040,4.027,3.356,3.356,7.383,2.013,5.369,2.013,2.013,16.107,,2.013,5.369,6.040,4.698,0.671,0.671,24.161,,Y 24.161,1
60,0.667,0.667,0.667,,4.667,,1.333,1.333,,2.000,,2.000,,0.667,,2.000,0.667,,,83.333,,Y 83.333,5
61,38.000,,2.000,,,3.333,0.667,,,2.000,0.667,32.667,6.000,,,11.333,2.000,1.333,,,,A 38.000,4
62,4.667,,27.333,15.333,,1.333,2.000,0.667,,,,1.333,13.333,20.000,3.333,6.000,2.000,2.000,,0.667,,D 27.333,2
63,6.667,,4.000,0.667,1.333,1.333,0.667,0.667,32.000,0.667,0.667,0.667,1.333,2.000,2.000,38.667,3.333,,3.333,,,S 38.667,5
64,2.000,,,,45.333,,,0.667,,16.667,0.667,,,,,,,34.667,,,,F 45.333,6
65,0.667,,,4.000,,,,,63.333,,2.667,3.333,,15.333,8.667,,1.333,0.667,,,,K 63.333,5
66,0.667,,10.000,,,64.000,,,,,,4.667,,,0.667,19.333,,0.667,,,,G 64.000,4*
67,,,,,,,0.667,,26.000,,,,,0.667,70.667,0.667,0.667,,0.667,,,R 70.667,8
68,26.000,,,,40.000,,,2.000,,9.333,,,,,,,,22.667,,,,F 40.000,5
69,2.667,,,,,,,4.000,,0.667,,0.667,,,,9.333,81.333,1.333,,,,T 81.333,7
70,,,,,6.667,,,52.000,,24.667,12.000,,,,,0.667,0.667,3.333,,,,I 52.000,6
71,,,,,,,0.667,,,0.667,,2.000,,,0.667,54.000,41.333,,,0.667,,S 54.000,7
72,17.333,,0.667,0.667,,,,,10.000,6.000,,,1.333,,40.667,2.000,1.333,20.000,,,,R 40.667,4
73,0.685,,91.096,3.425,,1.370,,,0.685,,,2.055,0.685,,,,,,,,,D 91.096,8
74,2.055,,10.959,2.740,0.685,0.685,1.370,2.055,15.068,0.685,1.370,27.397,0.685,0.685,4.795,0.685,26.712,,,1.370,,N 27.397,2
75,10.000,,0.667,,1.333,2.000,,,,0.667,,2.000,2.000,,,77.333,3.333,0.667,,,,S 77.333,7
76,3.333,,,3.333,0.667,,,2.667,35.333,,0.667,2.667,1.333,2.667,8.000,27.333,10.667,1.333,,,,K 35.333,4
77,,,4.000,0.667,,1.333,,,4.000,,,45.333,1.333,,2.667,35.333,4.667,,,0.667,,N 45.333,5
78,0.667,,,,0.667,0.667,,6.000,1.333,1.333,2.000,,,18.000,1.333,4.667,61.333,2.000,,,,T 61.333,6
79,40.667,,,,8.000,1.333,,1.333,,25.333,0.667,,,,,1.333,,21.333,,,,A 40.667,4
80,,,2.667,,15.333,0.667,2.000,,,,,0.667,,,,11.333,0.667,0.667,,66.000,,Y 66.000,4
81,,,,,1.333,,,2.667,,63.333,32.000,0.667,,,,,,,,,,L 63.333,7
82,0.667,,5.333,20.000,,,3.333,,11.333,,,2.000,,52.667,2.000,2.000,0.667,,,,,Q 52.667,5
83,,,,,0.667,,,8.000,,47.333,39.333,,,,,,,4.000,0.667,,,L 47.333,7
84,0.667,,4.000,,,,1.333,0.667,2.000,,,32.667,,,10.667,34.667,12.000,0.667,,0.667,,S 34.667,4
85,2.000,,,,,5.333,,,1.333,0.667,,12.667,,,7.333,68.000,2.667,,,,,S 68.000,5
86,0.667,,,,,,,,,79.333,2.000,,4.667,0.667,,0.667,,12.000,,,,L 79.333,7
87,,,1.333,2.000,,,,,12.667,,,0.667,,5.333,34.000,0.667,43.333,,,,,T 43.333,5
88,18.000,0.667,1.333,,1.333,,,,,0.667,,2.667,8.000,,,44.667,16.000,5.333,,1.333,,S 44.667,4
89,9.333,,13.333,71.333,,2.667,,,1.333,,,0.667,,,,0.667,,0.667,,,,E 71.333,7
90,,,100.000,,,,,,,,,,,,,,,,,,,D 100.000,9
91,0.667,,,,,,,,,0.667,1.333,,,,,29.333,68.000,,,,,T 68.000,8
92,95.333,,,,,4.667,,,,,,,,,,,,,,,,A 95.333,9
93,,,,,,,,12.000,1.333,0.667,9.333,0.667,,,1.333,,14.667,60.000,,,,V 60.000,5
94,,,,,0.667,,,,,,,,,,,,,,,99.333,,Y 99.333,9
95,,,,,21.333,,0.667,,,0.667,,,,,,2.000,,,,75.333,,Y 75.333,5
96,,100.000,,,,,,,,,,,,,,,,,,,,C 100.000,9
97,65.333,,,,,0.667,,0.667,0.667,0.667,,0.667,,,,2.667,16.000,12.667,,,,A 65.333,4
98,1.333,0.667,,,0.667,2.000,,2.667,6.000,,0.667,0.667,0.667,0.667,73.333,6.000,3.333,1.333,,,,R 73.333,4
99,6.040,,12.081,8.054,2.013,20.134,4.027,0.671,1.342,4.698,,6.040,1.342,2.685,6.040,8.054,4.027,5.369,2.013,5.369,,G 20.134,1
100,4.225,,14.789,2.817,2.113,20.423,,2.113,2.817,8.451,0.704,0.704,4.930,0.704,9.859,8.451,4.225,3.521,,9.155,,G 20.423,1
101,6.723,,5.882,,6.723,18.487,0.840,3.361,1.681,6.723,,2.521,4.202,,5.042,11.765,4.202,3.361,2.521,15.966,,G 18.487,1
102,5.172,2.586,8.621,0.862,4.310,13.793,1.724,2.586,0.862,2.586,0.862,4.310,1.724,1.724,5.172,7.759,5.172,5.172,2.586,22.414,,Y 22.414,1
103,3.636,1.818,9.091,1.818,7.273,14.545,3.636,1.818,,5.455,,1.818,7.273,1.818,5.455,9.091,3.636,3.636,3.636,14.545,,GY 14.545,1
104,4.706,1.176,5.882,,7.059,17.647,4.706,1.176,,3.529,1.176,8.235,4.706,3.529,3.529,11.765,1.176,2.353,3.529,14.118,,G 17.647,1
105,3.000,1.000,9.000,3.000,1.000,14.000,1.000,2.000,1.000,5.000,,5.000,3.000,,5.000,11.000,4.000,7.000,2.000,23.000,,Y 23.000,1
106,3.306,0.826,8.264,0.826,3.306,11.570,2.479,0.826,1.653,4.132,0.826,7.438,4.132,0.826,6.612,10.744,4.959,2.479,5.785,19.008,,Y 19.008,1
107,7.299,,10.949,4.380,5.839,15.328,0.730,0.730,1.460,0.730,2.190,5.839,0.730,0.730,2.190,1.460,3.650,1.460,5.839,28.467,,Y 28.467,1
108,19.728,1.361,2.721,2.721,6.122,16.327,0.680,,0.680,0.680,0.680,2.041,3.401,0.680,1.361,2.721,2.721,0.680,8.163,26.531,,Y 26.531,1
109,,,,0.676,52.027,2.703,,2.703,,6.081,24.324,0.676,2.027,,,1.351,0.676,2.027,,4.730,,F 52.027,1
110,8.667,,72.000,2.667,0.667,2.000,1.333,,1.333,,,1.333,3.333,,0.667,0.667,2.667,1.333,,1.333,,D 72.000,3*
111,2.000,,,,6.000,,5.333,3.333,,7.333,,1.333,1.333,0.667,,5.333,,14.000,0.667,52.667,,Y 52.667,1
112,,,,,,,,,,,,,,,,0.667,,,99.333,,,W 99.333,9
113,,,,,,99.333,,,,,,,,,,0.667,,,,,,G 99.333,9
114,4.000,,,0.667,,,1.333,,4.000,0.667,,1.333,7.333,73.333,5.333,0.667,1.333,,,,,Q 73.333,6
115,,,,,,100.000,,,,,,,,,,,,,,,,G 100.000,9
116,3.333,,,,,,,1.333,,0.667,,,,,,1.333,88.667,4.667,,,,T 88.667,8
117,0.667,,,2.000,1.333,,,,,42.000,9.333,,2.000,1.333,,17.333,22.667,1.333,,,,L 42.000,1
118,,,,,,,,2.000,,8.000,,,,,,,,90.000,,,,V 90.000,8
119,,,,,,,,5.333,,1.333,,,,,0.667,2.000,88.667,2.000,,,,T 88.667,8
120,0.667,,,,,,,,,,,,,,,,,98.667,,0.667,,V 98.667,9
121,1.333,,,,,,,,,,,,,,,93.333,5.333,,,,,S 93.333,9
122,10.000,,,,0.667,1.333,,,,,,,2.000,,,84.667,1.333,,,,,S 84.667,8
123,89.262,,,1.342,,5.369,,,,,,,0.671,,,1.342,0.671,1.342,,,,A 89.262,8
124,1.333,,0.667,2.000,,1.333,,,30.667,0.667,,,2.667,4.667,,50.000,5.333,0.667,,,,S 50.000,7
125,1.342,,,0.671,1.342,,,0.671,2.013,1.342,,0.671,4.698,,,2.685,83.893,,0.671,,,T 83.893,7
126,0.671,,,,,,0.671,,51.007,,,0.671,,0.671,1.342,3.356,40.940,0.671,,,,K 51.007,8
127,26.667,,,0.667,,48.000,0.667,,,0.667,,0.667,18.667,,,4.000,,,,,,G 48.000,7
128,,,,,,0.667,,,,1.333,,,98.000,,,,,,,,,P 98.000,9
129,,,,,,,,,1.333,0.667,,0.667,0.667,0.667,1.333,91.333,2.667,0.667,,,,S 91.333,8
130,,,0.667,,,,,0.667,,4.000,,,,,,0.667,,94.000,,,,V 94.000,9
131,,,,,58.667,,,0.667,,,,,,,,,,,,40.667,,F 58.667,9
132,,,,,,0.667,,,,,,,98.667,0.667,,,,,,,,P 98.667,9
133,,,,,,,,,,99.333,0.667,,,,,,,,,,,L 99.333,9
134,87.333,,,,,,,1.333,1.333,0.667,0.667,,,,0.667,2.667,2.000,3.333,,,,A 87.333,8
135,,,,,0.667,,,,,2.000,,,90.667,1.333,0.667,4.000,0.667,,,,,P 90.667,8
136,0.676,20.270,,,,21.622,,,,,,,0.676,0.676,,41.216,,14.865,,,,S 41.216,7
137,0.709,27.660,,1.418,,3.546,,,0.709,,,,,,,62.411,2.837,0.709,,,,S 62.411,7
138,12.925,,0.680,,,28.571,,,39.456,,,2.041,,0.680,10.884,4.762,,,,,,K 39.456,5
139,14.384,,21.233,,,4.110,,,,2.055,,0.685,0.685,,,54.110,2.740,,,,,S 54.110,7
140,2.703,,0.676,2.703,,1.351,,0.676,2.027,0.676,,,,12.838,,3.378,72.973,,,,,T 72.973,7
141,1.361,,1.361,,,,,,,,,0.680,4.082,,,59.184,33.333,,,,,S 59.184,8
142,0.680,,3.401,10.204,,61.224,,,,,1.361,15.646,,1.361,0.680,5.442,,,,,,G 61.224,4
143,,,3.378,1.351,,41.216,,,,,,0.676,1.351,,,50.676,1.351,,,,,S 50.676,7
144,,,,,,,1.370,0.685,,0.685,17.123,2.740,2.055,,0.685,21.918,52.740,,,,,T 52.740,7
145,47.260,,,,,,,0.685,,,0.685,,,,,,,51.370,,,,V 51.370,9
146,50.000,,,,,,,0.685,,,0.685,,,,,,46.575,2.055,,,,A 50.000,9
147,,,,,0.685,,,5.479,,92.466,0.685,,,,,,,0.685,,,,L 92.466,9
148,1.370,,,,,98.630,,,,,,,,,,,,,,,,G 98.630,9
149,,100.000,,,,,,,,,,,,,,,,,,,,C 100.000,9
150,,,,,0.685,,,,,98.630,0.685,,,,,,,,,,,L 98.630,9
151,8.219,,,,,,,0.685,,0.685,,,,,,0.685,,89.726,,,,V 89.726,9
152,,,,,,,0.685,,89.041,,,0.685,,2.740,1.370,2.055,2.740,0.685,,,,K 89.041,8
153,,,52.740,,,45.890,,,,,,,,,,1.370,,,,,,D 52.740,8
154,,,,,9.589,,,,,,,,,,,,,,,90.411,,Y 90.411,9
155,,,,,90.411,,,,,6.164,,0.685,0.685,,,0.685,0.685,0.685,,,,F 90.411,8
156,,,,,,,,,,,,,100.000,,,,,,,,,P 100.000,9
157,0.685,,1.370,91.781,,1.370,,,,,,0.685,0.685,2.055,,1.370,,,,,,E 91.781,8
158,0.685,,,,,,,,,,,,87.671,,,8.904,2.055,0.685,,,,P 87.671,7
159,,,,,,,,2.740,,3.425,0.685,,,,,,,93.151,,,,V 93.151,9
160,0.685,,1.370,,,,,,,,0.685,2.740,,,,3.425,91.096,,,,,T 91.096,9
161,,,,,5.517,,,1.379,,15.862,,,,,,,,77.241,,,,V 77.241,8
162,,,,,,,,0.690,1.379,0.690,,,,0.690,,51.724,44.828,,,,,S 51.724,9
163,,,,,,,,,,,,,,,,,,,100.000,,,W 100.000,9
164,,,1.379,0.690,,0.690,,,0.690,,,91.724,0.690,,,2.069,1.379,,,0.690,,N 91.724,9
165,1.379,,,1.379,,,0.690,,1.379,,,2.069,0.690,0.690,,90.345,1.379,,,,,S 90.345,8
166,1.379,,1.379,0.690,,92.414,,,0.690,,,0.690,,,,2.069,0.690,,,,,G 92.414,7
167,51.034,,,,,4.138,,0.690,0.690,,,,,,,40.690,2.069,0.690,,,,A 51.034,8
168,0.690,,2.069,,,,,1.379,1.379,89.655,,0.690,,1.379,,1.379,,,,1.379,,L 89.655,8
169,0.690,,0.690,,,2.759,,0.690,,0.690,,2.069,,,,39.310,52.414,0.690,,,,T 52.414,8
170,1.389,,,1.389,,0.694,,0.694,,,0.694,2.083,,,0.694,88.194,2.778,1.389,,,,S 88.194,8
171,,,2.083,,,86.111,,,,,,0.694,,,0.694,6.944,3.472,,,,,G 86.111,7
172,1.389,,,,1.389,,,1.389,0.694,2.778,,,,,,,2.083,90.278,,,,V 90.278,8
173,,,,,,,86.806,0.694,2.778,,0.694,,,,4.861,,1.389,2.083,0.694,,,H 86.806,8
174,,,,,,0.690,0.690,,,,,4.828,,2.069,,1.379,90.345,,,,,T 90.345,9
175,,,,,95.862,,,,,0.690,,,,,,,,,,3.448,,F 95.862,9
176,,,,,,,,,1.379,,,,98.621,,,,,,,,,P 98.621,9
177,88.276,,,0.690,,,,,,,,,4.828,,,5.517,,0.690,,,,A 88.276,8
178,0.690,,,,0.690,,,0.690,,8.276,,,,,,1.379,0.690,87.586,,,,V 87.586,8
179,0.694,,,,,0.694,0.694,0.694,0.694,90.972,1.389,,,2.083,2.083,,,,,,,L 90.972,8
180,0.694,,1.389,0.694,,,0.694,,2.083,,,,,90.972,2.083,,0.694,0.694,,,,Q 90.972,9
181,2.069,,1.379,0.690,,2.759,,,,0.690,,0.690,1.379,1.379,,88.966,,,,,,S 88.966,8
182,,,27.586,,,15.862,,,,,,0.690,,,,55.862,,,,,,S 55.862,7
183,,,,1.190,,97.619,,,1.190,,,,,,,,,,,,,G 97.619,9
184,0.690,,0.690,,,,0.690,,2.069,92.414,,,,,0.690,,1.379,0.690,,0.690,,L 92.414,8
185,,,,,1.379,,,,0.690,,,,,,,,,,0.690,97.241,,Y 97.241,9
186,2.759,,,,,,,,,0.690,0.690,,,,,53.793,41.379,0.690,,,,S 53.793,8
187,3.448,,,,,1.379,,,0.690,83.448,6.207,,,,,1.379,2.759,0.690,,,,L 83.448,7
188,,,,,,,,2.083,,,,,,,,91.667,5.556,0.694,,,,S 91.667,9
189,,,,,,,,,,,,,,,,100.000,,,,,,S 100.000,9
190,,,,,,,0.690,,0.690,0.690,0.690,,,9.655,,37.931,0.690,48.966,,,,V 48.966,9
191,,,,,,,,0.690,,4.828,0.690,,,,,,,93.793,,,,V 93.793,9
192,,,,,,,,,,1.389,,1.389,,,1.389,2.083,93.056,0.694,,,,T 93.056,9
193,,,,,,,,1.399,,4.196,,,,,,0.699,,93.706,,,,V 93.706,9
194,2.113,,,,,,,,0.704,,,,77.465,,0.704,,18.310,,0.704,,,P 77.465,7
195,4.167,,,,,0.694,,0.694,0.694,0.694,,,,,0.694,90.972,,1.389,,,,S 90.972,9
196,1.389,,0.694,,,0.694,,,2.083,,,2.778,,0.694,0.694,88.889,1.389,0.694,,,,S 88.889,8
197,0.694,,3.472,0.694,,,,,0.694,,,2.083,3.472,2.083,0.694,50.000,34.722,1.389,,,,S 50.000,7
198,0.714,2.857,,,2.857,,,,,47.143,,,,,2.143,0.714,,1.429,42.143,,,L 47.143,7
199,4.286,,0.714,0.714,,50.714,,,,0.714,,2.143,37.857,,,2.857,,,,,,G 50.714,7
200,0.709,,,,,2.128,,1.418,2.128,,,,0.709,0.709,0.709,40.426,51.064,,,,,T 51.064,8
201,0.694,,1.389,19.444,,0.694,,,9.028,,,,,68.056,,,0.694,,,,,Q 68.056,7
202,2.083,0.694,0.694,1.389,,,,,,,0.694,2.083,2.778,1.389,,15.972,72.222,,,,,T 72.222,7
203,,,,,4.861,,0.694,15.278,,0.694,,,,0.694,,,,27.083,,50.694,,Y 50.694,7
204,,,,0.694,,,,39.583,1.389,,,,,0.694,,,53.472,2.778,,1.389,,T 53.472,8
205,,100.000,,,,,,,,,,,,,,,,,,,,C 100.000,9
206,0.694,,,1.389,,,2.778,,1.389,,,86.111,,,1.389,5.556,0.694,,,,,N 86.111,8
207,2.083,,,,,,,,,,,,,,,,,97.917,,,,V 97.917,9
208,40.972,,6.250,0.694,,,,,3.472,,,42.361,,3.472,,0.694,2.083,,,,,N 42.361,8
209,,,,,,,99.306,,,,,0.694,,,,,,,,,,H 99.306,9
210,0.694,,1.389,,,0.694,,,47.917,1.389,,0.694,43.750,,,1.389,0.694,,,1.389,,K 47.917,8
211,42.361,,1.389,,,,,,0.694,,,1.389,49.306,,,2.083,2.083,0.694,,,,P 49.306,8
212,,,,,,3.546,,,,,,,,,,90.071,6.383,,,,,S 90.071,9
213,0.714,,,,0.714,0.714,,1.429,,,,52.857,0.714,,,41.429,1.429,,,,,N 52.857,9
214,0.725,,,,,,,,2.899,,,,,,0.725,0.725,94.928,,,,,T 94.928,9
215,,,,0.735,,,,,88.235,,,,0.735,1.471,,2.206,5.882,0.735,,,,K 88.235,8
216,,,0.741,,,,,,0.741,,,,,,,,,98.519,,,,V 98.519,9
217,,,95.556,1.481,,0.741,,,,,,0.741,,,,,1.481,,,,,D 95.556,9
218,,,,,,,,,94.737,2.256,,,,1.504,,0.752,0.752,,,,,K 94.737,9
219,0.758,0.758,,0.758,,,,,72.727,,,,,,21.212,,3.788,,,,,K 72.727,5
220,3.053,,,,,,,37.405,1.527,6.107,,,,,,,,51.908,,,,V 51.908,8
221,2.381,,1.587,69.841,,0.794,0.794,,0.794,,,,,,,0.794,,23.016,,,,E 69.841,7
222,,0.800,,,,0.800,,0.800,,,,,92.800,,1.600,2.400,0.800,,,,,P 92.800,7
223,,,,0.952,,,,,55.238,,,,,0.952,36.190,5.714,0.952,,,,,K 55.238,8
224,,1.333,14.667,2.667,,8.000,,,,,,,,,,65.333,8.000,,,,,S 65.333,7
225,,98.438,,,,,,,,,,,,,,1.562,,,,,,C 98.438,9
226,2.381,,66.667,,,7.143,14.286,,,,,4.762,,,,,4.762,,,,,D 66.667,4*
227,,,,,,,15.152,,81.818,,,,,,3.030,,,,,,,K 81.818,8
228,,,,,,,29.630,,,3.704,,,,,,,66.667,,,,,T 66.667,5
229,,,,,,,100.000,,,,,,,,,,,,,,,H 100.000,9
