V1;V2;Weight
1EMV A L 3;1EMV A K 4;45.5675
1EMV A L 3;1EMV A H 5;8.2658
1EMV A L 3;1EMV A D 9;31.0803
1EMV A L 3;1EMV A Y 10;14.3836
1EMV A L 3;1EMV A E 14;2.3078
1EMV A K 4;1EMV A H 5;26.6194
1EMV A K 4;1EMV A S 6;1.27836
1EMV A K 4;1EMV A D 9;0.525414
1EMV A K 4;1EMV A Y 10;20.5135
1EMV A K 4;1EMV A L 18;0.69658
1EMV A K 4;1EMV A K 35;5.98973
1EMV A K 4;1EMV A L 36;13.1376
1EMV A K 4;1EMV A H 39;31.9728
1EMV A K 4;1EMV A M 43;8.58788
1EMV A H 5;1EMV A S 6;30.6673
1EMV A H 5;1EMV A D 9;13.5188
1EMV A H 5;1EMV A M 43;13.6003
1EMV A S 6;1EMV A I 7;21.2219
1EMV A S 6;1EMV A S 8;17.649
1EMV A S 6;1EMV A D 9;24.9826
1EMV A S 6;1EMV A Y 10;6.82406
1EMV A S 6;1EMV A M 43;12.8386
1EMV A S 6;1EMV A S 81;0.5676
1EMV A I 7;1EMV A S 8;20.2721
1EMV A I 7;1EMV A D 9;2.07588
1EMV A I 7;1EMV A Y 10;19.7598
1EMV A I 7;1EMV A F 15;13.721
1EMV A I 7;1EMV A M 43;26.2294
1EMV A I 7;1EMV A T 44;6.9979
1EMV A I 7;1EMV A V 71;8.15323
1EMV A I 7;1EMV A R 75;25.5303
1EMV A I 7;1EMV A S 81;7.08942
1EMV A I 7;1EMV A G 82;8.46693
1EMV A I 7;1EMV A F 83;23.9333
1EMV A I 7;1EMV A K 84;0.300981
1EMV A S 8;1EMV A D 9;23.9813
1EMV A S 8;1EMV A Y 10;1.98351
1EMV A S 8;1EMV A S 81;16.9238
1EMV A S 8;1EMV A G 82;12.5085
1EMV A S 8;1EMV A F 83;1.33116
1EMV A S 8;1EMV A K 84;19.5209
1EMV A D 9;1EMV A Y 10;20.3328
1EMV A D 9;1EMV A T 11;0.223103
1EMV A D 9;1EMV A E 14;6.57799
1EMV A D 9;1EMV A K 84;17.8912
1EMV A Y 10;1EMV A T 11;19.8434
1EMV A Y 10;1EMV A E 14;24.6442
1EMV A Y 10;1EMV A F 15;21.6341
1EMV A Y 10;1EMV A L 18;17.6641
1EMV A Y 10;1EMV A H 39;12.1009
1EMV A Y 10;1EMV A M 43;10.5807
1EMV A Y 10;1EMV A F 83;11.532
1EMV A Y 10;1EMV A K 84;9.75602
1EMV A T 11;1EMV A E 12;20.2388
1EMV A T 11;1EMV A A 13;13.3636
1EMV A T 11;1EMV A E 14;33.3322
1EMV A T 11;1EMV A F 15;6.22323
1EMV A T 11;1EMV A F 83;4.03942
1EMV A T 11;1EMV A K 84;27.2086
1EMV A T 11;1EMV A Q 85;22.4445
1EMV A E 12;1EMV A A 13;24.0506
1EMV A E 12;1EMV A E 14;0.845327
1EMV A E 12;1EMV A F 15;8.06683
1EMV A E 12;1EMV A L 16;11.4087
1EMV A E 12;1EMV A V 68;19.701
1EMV A E 12;1EMV A N 69;0.711731
1EMV A E 12;1EMV A K 72;28.3752
1EMV A E 12;1EMV A F 83;28.8034
1EMV A E 12;1EMV A K 84;1.87075
1EMV A A 13;1EMV A E 14;20.5035
1EMV A A 13;1EMV A F 15;0.747711
1EMV A A 13;1EMV A L 16;15.6084
1EMV A A 13;1EMV A Q 17;11.5435
1EMV A E 14;1EMV A F 15;15.4944
1EMV A E 14;1EMV A L 16;0.909646
1EMV A E 14;1EMV A Q 17;20.5405
1EMV A E 14;1EMV A L 18;8.25659
1EMV A E 14;1EMV A K 84;4.34627
1EMV A F 15;1EMV A L 16;16.165
1EMV A F 15;1EMV A Q 17;1.10802
1EMV A F 15;1EMV A L 18;23.233
1EMV A F 15;1EMV A V 19;20.1455
1EMV A F 15;1EMV A F 40;13.4727
1EMV A F 15;1EMV A M 43;8.91748
1EMV A F 15;1EMV A T 44;8.06779
1EMV A F 15;1EMV A I 67;0.32499
1EMV A F 15;1EMV A V 68;15.0083
1EMV A F 15;1EMV A V 71;11.4244
1EMV A F 15;1EMV A F 83;18.6178
1EMV A L 16;1EMV A Q 17;19.1387
1EMV A L 16;1EMV A L 18;0.844378
1EMV A L 16;1EMV A V 19;8.66923
1EMV A L 16;1EMV A T 20;19.9056
1EMV A L 16;1EMV A P 64;11.7079
1EMV A L 16;1EMV A S 65;18.4123
1EMV A L 16;1EMV A V 68;20.5139
1EMV A Q 17;1EMV A L 18;19.969
1EMV A Q 17;1EMV A V 19;0.58222
1EMV A Q 17;1EMV A T 20;12.7381
1EMV A Q 17;1EMV A T 21;18.7418
1EMV A L 18;1EMV A V 19;20.3293
1EMV A L 18;1EMV A T 20;0.921768
1EMV A L 18;1EMV A T 21;13.5032
1EMV A L 18;1EMV A I 22;20.3761
1EMV A L 18;1EMV A L 36;22.2789
1EMV A L 18;1EMV A H 39;13.2815
1EMV A L 18;1EMV A F 40;11.3911
1EMV A L 18;1EMV A M 43;2.74493
1EMV A V 19;1EMV A T 20;16.3506
1EMV A V 19;1EMV A T 21;0.975996
1EMV A V 19;1EMV A I 22;14.4674
1EMV A V 19;1EMV A C 23;16.4948
1EMV A V 19;1EMV A F 40;12.072
1EMV A V 19;1EMV A I 53;4.31041
1EMV A V 19;1EMV A P 64;12.8192
1EMV A V 19;1EMV A I 67;16.2966
1EMV A V 19;1EMV A V 68;10.1983
1EMV A T 20;1EMV A T 21;21.5733
1EMV A T 20;1EMV A I 22;0.79216
1EMV A T 20;1EMV A C 23;6.58922
1EMV A T 20;1EMV A N 24;28.3472
1EMV A T 20;1EMV A P 64;22.0991
1EMV A T 21;1EMV A I 22;19.2652
1EMV A T 21;1EMV A C 23;0.474303
1EMV A T 21;1EMV A N 24;4.49468
1EMV A T 21;1EMV A A 25;4.86346
1EMV A T 21;1EMV A D 26;34.8489
1EMV A T 21;1EMV A T 27;5.11626
1EMV A T 21;1EMV A L 33;0.88191
1EMV A T 21;1EMV A L 36;16.403
1EMV A I 22;1EMV A C 23;22.6056
1EMV A I 22;1EMV A N 24;1.45084
1EMV A I 22;1EMV A A 25;9.27822
1EMV A I 22;1EMV A L 33;16.9959
1EMV A I 22;1EMV A L 36;19.3224
1EMV A I 22;1EMV A V 37;14.0593
1EMV A I 22;1EMV A F 40;11.6585
1EMV A I 22;1EMV A I 53;21.5618
1EMV A I 22;1EMV A Y 54;12.313
1EMV A I 22;1EMV B S 74;2.33822
1EMV A C 23;1EMV A N 24;23.2491
1EMV A C 23;1EMV A A 25;2.21441
1EMV A C 23;1EMV A I 53;8.4693
1EMV A C 23;1EMV A Y 54;0.00607937
1EMV A C 23;1EMV A D 62;3.2671
1EMV A C 23;1EMV A S 63;0.0255298
1EMV A C 23;1EMV A P 64;19.8144
1EMV A C 23;1EMV A I 67;9.76115
1EMV A C 23;1EMV B P 73;0.329146
1EMV A C 23;1EMV B S 74;28.7505
1EMV A C 23;1EMV B S 77;9.82511
1EMV A N 24;1EMV A A 25;21.02
1EMV A N 24;1EMV A D 26;15.9683
1EMV A N 24;1EMV A P 64;2.54595
1EMV A N 24;1EMV B S 77;18.0281
1EMV A N 24;1EMV B K 81;6.41156
1EMV A A 25;1EMV A D 26;17.0578
1EMV A A 25;1EMV A T 27;15.2405
1EMV A A 25;1EMV A L 33;15.375
1EMV A A 25;1EMV B S 74;1.42889
1EMV A A 25;1EMV B S 77;10.9527
1EMV A A 25;1EMV B S 78;9.02627
1EMV A A 25;1EMV B K 81;14.3777
1EMV A A 25;1EMV B Y 83;9.04795
1EMV A D 26;1EMV A T 27;30.0926
1EMV A T 27;1EMV A S 28;25.8511
1EMV A T 27;1EMV A S 29;7.72068
1EMV A T 27;1EMV A E 32;19.7641
1EMV A T 27;1EMV A L 33;18.3854
1EMV A T 27;1EMV A L 36;12.314
1EMV A T 27;1EMV B K 81;0.800253
1EMV A T 27;1EMV B Y 83;18.8456
1EMV A S 28;1EMV A S 29;27.882
1EMV A S 28;1EMV A E 32;20.9257
1EMV A S 28;1EMV B Y 83;4.57959
1EMV A S 29;1EMV A E 30;20.1337
1EMV A S 29;1EMV A E 31;15.9583
1EMV A S 29;1EMV A E 32;24.2879
1EMV A S 29;1EMV A L 33;4.83895
1EMV A S 29;1EMV B Y 83;14.8306
1EMV A E 30;1EMV A E 31;23.2231
1EMV A E 30;1EMV A E 32;1.06188
1EMV A E 30;1EMV A L 33;12.448
1EMV A E 30;1EMV A V 34;21.3089
1EMV A E 30;1EMV B R 54;21.6686
1EMV A E 30;1EMV B G 82;0.00226252
1EMV A E 30;1EMV B Y 83;33.3446
1EMV A E 30;1EMV B S 84;11.4559
1EMV A E 30;1EMV B F 86;0.159624
1EMV A E 30;1EMV B V 98;15.3016
1EMV A E 31;1EMV A E 32;23.8122
1EMV A E 31;1EMV A L 33;0.751099
1EMV A E 31;1EMV A V 34;13.6169
1EMV A E 31;1EMV A K 35;16.0907
1EMV A E 32;1EMV A L 33;15.5737
1EMV A E 32;1EMV A V 34;0.551383
1EMV A E 32;1EMV A K 35;16.0763
1EMV A E 32;1EMV A L 36;13.6331
1EMV A L 33;1EMV A V 34;17.1828
1EMV A L 33;1EMV A K 35;1.15497
1EMV A L 33;1EMV A L 36;13.2024
1EMV A L 33;1EMV A V 37;14.8421
1EMV A L 33;1EMV A Y 54;8.09538
1EMV A L 33;1EMV B S 78;11.8841
1EMV A L 33;1EMV B Y 83;12.8634
1EMV A L 33;1EMV B F 86;14.7579
1EMV A V 34;1EMV A K 35;19.9657
1EMV A V 34;1EMV A L 36;0.807536
1EMV A V 34;1EMV A V 37;8.27139
1EMV A V 34;1EMV A T 38;16.7591
1EMV A V 34;1EMV B F 86;15.7657
1EMV A V 34;1EMV B G 95;14.343
1EMV A V 34;1EMV B K 97;15.3721
1EMV A V 34;1EMV B V 98;10.921
1EMV A K 35;1EMV A L 36;23.7142
1EMV A K 35;1EMV A V 37;0.717817
1EMV A K 35;1EMV A T 38;12.5938
1EMV A K 35;1EMV A H 39;13.9642
1EMV A L 36;1EMV A V 37;15.8342
1EMV A L 36;1EMV A T 38;0.656689
1EMV A L 36;1EMV A H 39;15.2663
1EMV A L 36;1EMV A F 40;8.13952
1EMV A V 37;1EMV A T 38;17.0193
1EMV A V 37;1EMV A H 39;0.979246
1EMV A V 37;1EMV A F 40;11.638
1EMV A V 37;1EMV A E 41;15.9522
1EMV A V 37;1EMV A S 50;12.7149
1EMV A V 37;1EMV A I 53;7.87362
1EMV A V 37;1EMV A Y 54;10.9969
1EMV A V 37;1EMV B F 86;17.3803
1EMV A V 37;1EMV B K 97;6.96438
1EMV A T 38;1EMV A H 39;18.8563
1EMV A T 38;1EMV A F 40;0.673497
1EMV A T 38;1EMV A E 41;14.1024
1EMV A T 38;1EMV A E 42;26.9716
1EMV A T 38;1EMV B G 95;2.14839
1EMV A T 38;1EMV B K 97;19.6691
1EMV A H 39;1EMV A F 40;17.5524
1EMV A H 39;1EMV A E 41;1.0068
1EMV A H 39;1EMV A E 42;18.979
1EMV A H 39;1EMV A M 43;31.0231
1EMV A F 40;1EMV A E 41;23.9614
1EMV A F 40;1EMV A E 42;0.662178
1EMV A F 40;1EMV A M 43;9.14932
1EMV A F 40;1EMV A T 44;26.3321
1EMV A F 40;1EMV A G 49;7.74669
1EMV A F 40;1EMV A S 50;3.60019
1EMV A F 40;1EMV A L 52;13.7546
1EMV A F 40;1EMV A I 53;22.5934
1EMV A F 40;1EMV A I 67;10.6771
1EMV A F 40;1EMV A V 71;7.07322
1EMV A E 41;1EMV A E 42;23.6875
1EMV A E 41;1EMV A M 43;0.993155
1EMV A E 41;1EMV A T 44;9.98436
1EMV A E 41;1EMV A E 45;11.2356
1EMV A E 41;1EMV A H 46;3.16524
1EMV A E 41;1EMV A G 49;18.4453
1EMV A E 41;1EMV A S 50;15.1916
1EMV A E 41;1EMV B K 89;11.57
1EMV A E 41;1EMV B Q 92;5.27568
1EMV A E 41;1EMV B K 97;18.3778
1EMV A E 42;1EMV A M 43;33.4628
1EMV A E 42;1EMV A T 44;0.505136
1EMV A E 42;1EMV A E 45;15.0933
1EMV A M 43;1EMV A T 44;18.8789
1EMV A M 43;1EMV A E 45;6.15334
1EMV A M 43;1EMV A R 75;6.88866
1EMV A T 44;1EMV A E 45;18.0681
1EMV A T 44;1EMV A H 46;20.4603
1EMV A T 44;1EMV A G 49;2.14998
1EMV A T 44;1EMV A L 52;3.84593
1EMV A T 44;1EMV A V 71;17.29
1EMV A T 44;1EMV A W 74;6.56812
1EMV A T 44;1EMV A R 75;14.5227
1EMV A T 44;1EMV A K 80;0.0530099
1EMV A E 45;1EMV A H 46;20.6758
1EMV A E 45;1EMV A P 47;6.30991
1EMV A E 45;1EMV A W 74;10.4588
1EMV A E 45;1EMV A R 75;15.1877
1EMV A E 45;1EMV A K 80;26.8539
1EMV A H 46;1EMV A P 47;31.7653
1EMV A H 46;1EMV A S 48;18.106
1EMV A H 46;1EMV A G 49;15.2896
1EMV A H 46;1EMV A L 52;27.3052
1EMV A H 46;1EMV A K 57;3.67154
1EMV A H 46;1EMV A T 70;8.71365
1EMV A H 46;1EMV A V 71;4.39604
1EMV A H 46;1EMV A W 74;35.9914
1EMV A H 46;1EMV B K 89;0.728357
1EMV A P 47;1EMV A S 48;21.6867
1EMV A P 47;1EMV A G 49;2.79503
1EMV A P 47;1EMV A W 74;21.8081
1EMV A P 47;1EMV B K 89;16.9088
1EMV A S 48;1EMV A G 49;17.1606
1EMV A S 48;1EMV A S 50;1.28194
1EMV A S 48;1EMV A D 51;22.7339
1EMV A S 48;1EMV A L 52;17.3536
1EMV A S 48;1EMV A K 57;13.7311
1EMV A S 48;1EMV B K 89;12.2115
1EMV A G 49;1EMV A S 50;16.3778
1EMV A G 49;1EMV A D 51;2.26178
1EMV A G 49;1EMV A L 52;13.4842
1EMV A G 49;1EMV A I 53;0.0348772
1EMV A G 49;1EMV B K 89;10.0963
1EMV A S 50;1EMV A D 51;20.7158
1EMV A S 50;1EMV A L 52;2.19433
1EMV A S 50;1EMV A I 53;13.4775
1EMV A S 50;1EMV A Y 54;18.5504
1EMV A S 50;1EMV A Y 55;0.100097
1EMV A S 50;1EMV B F 86;5.43875
1EMV A S 50;1EMV B T 87;2.40533
1EMV A S 50;1EMV B K 89;6.86967
1EMV A S 50;1EMV B Q 92;14.2646
1EMV A S 50;1EMV B K 97;1.5394
1EMV A D 51;1EMV A L 52;20.0456
1EMV A D 51;1EMV A I 53;2.58794
1EMV A D 51;1EMV A Y 54;3.21731
1EMV A D 51;1EMV A Y 55;38.2961
1EMV A D 51;1EMV A P 56;4.91857
1EMV A D 51;1EMV B T 87;1.25623
1EMV A D 51;1EMV B P 88;10.2413
1EMV A D 51;1EMV B K 89;19.9227
1EMV A D 51;1EMV B N 90;2.78346
1EMV A L 52;1EMV A I 53;20.7776
1EMV A L 52;1EMV A P 56;12.1419
1EMV A L 52;1EMV A K 57;4.45244
1EMV A L 52;1EMV A D 60;2.35929
1EMV A L 52;1EMV A D 62;2.73687
1EMV A L 52;1EMV A I 67;19.5589
1EMV A L 52;1EMV A T 70;17.6535
1EMV A L 52;1EMV A V 71;12.1572
1EMV A I 53;1EMV A Y 54;33.1237
1EMV A I 53;1EMV A Y 55;0.344192
1EMV A I 53;1EMV A P 56;4.39553
1EMV A I 53;1EMV A D 62;3.69119
1EMV A I 53;1EMV A I 67;19.2834
1EMV A I 53;1EMV B N 72;8.03623
1EMV A I 53;1EMV B S 74;14.9473
1EMV A Y 54;1EMV A Y 55;39.3937
1EMV A Y 54;1EMV A P 56;4.35938
1EMV A Y 54;1EMV B N 72;22.8254
1EMV A Y 54;1EMV B S 74;15.5394
1EMV A Y 54;1EMV B N 75;23.1331
1EMV A Y 54;1EMV B S 78;3.59717
1EMV A Y 54;1EMV B F 86;29.4641
1EMV A Y 54;1EMV B T 87;0.210094
1EMV A Y 55;1EMV A P 56;32.57
1EMV A Y 55;1EMV A K 57;3.71708
1EMV A Y 55;1EMV B L 23;0.0831767
1EMV A Y 55;1EMV B N 70;6.34754
1EMV A Y 55;1EMV B L 71;7.61631
1EMV A Y 55;1EMV B N 72;0.268218
1EMV A Y 55;1EMV B N 75;9.62925
1EMV A Y 55;1EMV B F 86;9.96486
1EMV A Y 55;1EMV B T 87;8.96258
1EMV A Y 55;1EMV B P 88;28.9487
1EMV A Y 55;1EMV B Y 99;10.8141
1EMV A P 56;1EMV A K 57;33.4476
1EMV A P 56;1EMV A E 58;2.49486
1EMV A P 56;1EMV A D 60;15.1219
1EMV A P 56;1EMV A D 62;23.6668
1EMV A P 56;1EMV B N 72;11.3499
1EMV A K 57;1EMV A E 58;32.3597
1EMV A K 57;1EMV A G 59;3.05067
1EMV A K 57;1EMV A D 60;36.7638
1EMV A E 58;1EMV A G 59;33.7247
1EMV A E 58;1EMV A D 60;4.81302
1EMV A G 59;1EMV A D 60;32.7869
1EMV A G 59;1EMV A D 61;2.3243
1EMV A D 60;1EMV A D 61;30.0655
1EMV A D 60;1EMV A D 62;10.6143
1EMV A D 60;1EMV A T 70;18.44
1EMV A D 61;1EMV A D 62;21.0143
1EMV A D 61;1EMV A S 63;22.2334
1EMV A D 61;1EMV A S 65;3.40573
1EMV A D 61;1EMV A G 66;26.7596
1EMV A D 61;1EMV A I 67;5.91438
1EMV A D 61;1EMV A T 70;5.25428
1EMV A D 62;1EMV A S 63;26.9098
1EMV A D 62;1EMV A P 64;0.816127
1EMV A D 62;1EMV A I 67;17.4467
1EMV A D 62;1EMV B N 72;12.5279
1EMV A D 62;1EMV B P 73;18.7065
1EMV A D 62;1EMV B S 74;5.05274
1EMV A S 63;1EMV A P 64;29.7911
1EMV A S 63;1EMV A S 65;14.2656
1EMV A S 63;1EMV A G 66;9.22589
1EMV A S 63;1EMV A I 67;9.22272
1EMV A P 64;1EMV A S 65;19.4304
1EMV A P 64;1EMV A G 66;0.736178
1EMV A P 64;1EMV A I 67;8.62592
1EMV A P 64;1EMV A V 68;8.59405
1EMV A S 65;1EMV A G 66;20.1923
1EMV A S 65;1EMV A I 67;0.73133
1EMV A S 65;1EMV A V 68;10.8177
1EMV A S 65;1EMV A N 69;12.3084
1EMV A G 66;1EMV A I 67;15.2881
1EMV A G 66;1EMV A V 68;0.865406
1EMV A G 66;1EMV A N 69;12.7282
1EMV A G 66;1EMV A T 70;12.7474
1EMV A I 67;1EMV A V 68;18.5589
1EMV A I 67;1EMV A N 69;0.955817
1EMV A I 67;1EMV A T 70;13.3227
1EMV A I 67;1EMV A V 71;15.4702
1EMV A I 67;1EMV B S 74;0.770897
1EMV A V 68;1EMV A N 69;19.4678
1EMV A V 68;1EMV A T 70;0.705551
1EMV A V 68;1EMV A V 71;9.60369
1EMV A V 68;1EMV A K 72;12.027
1EMV A V 68;1EMV A F 83;10.4547
1EMV A N 69;1EMV A T 70;21.1541
1EMV A N 69;1EMV A V 71;0.866639
1EMV A N 69;1EMV A K 72;19.2927
1EMV A N 69;1EMV A Q 73;36.5007
1EMV A T 70;1EMV A V 71;19.6287
1EMV A T 70;1EMV A K 72;0.595101
1EMV A T 70;1EMV A Q 73;10.1191
1EMV A T 70;1EMV A W 74;14.584
1EMV A V 71;1EMV A K 72;20.3506
1EMV A V 71;1EMV A Q 73;0.784875
1EMV A V 71;1EMV A W 74;9.43359
1EMV A V 71;1EMV A R 75;20.9137
1EMV A V 71;1EMV A F 83;6.3473
1EMV A K 72;1EMV A Q 73;21.8417
1EMV A K 72;1EMV A W 74;0.804234
1EMV A K 72;1EMV A R 75;8.8771
1EMV A K 72;1EMV A A 76;13.5935
1EMV A K 72;1EMV A F 83;24.2749
1EMV A Q 73;1EMV A W 74;21.156
1EMV A Q 73;1EMV A R 75;0.715743
1EMV A Q 73;1EMV A A 76;11.2354
1EMV A Q 73;1EMV A A 77;13.4318
1EMV A W 74;1EMV A R 75;30.8647
1EMV A W 74;1EMV A A 76;1.05719
1EMV A W 74;1EMV A A 77;7.30629
1EMV A W 74;1EMV A N 78;46.1245
1EMV A W 74;1EMV A K 80;17.381
1EMV A R 75;1EMV A A 76;20.8838
1EMV A R 75;1EMV A A 77;0.55732
1EMV A R 75;1EMV A N 78;6.79502
1EMV A R 75;1EMV A G 79;2.54443
1EMV A R 75;1EMV A K 80;39.9823
1EMV A R 75;1EMV A S 81;24.4059
1EMV A R 75;1EMV A G 82;6.89801
1EMV A R 75;1EMV A F 83;0.0635673
1EMV A A 76;1EMV A A 77;23.8826
1EMV A A 76;1EMV A N 78;1.98893
1EMV A A 76;1EMV A G 79;10.3125
1EMV A A 76;1EMV A K 80;5.84309
1EMV A A 77;1EMV A N 78;31.8099
1EMV A A 77;1EMV A G 79;3.3618
1EMV A N 78;1EMV A G 79;24.2789
1EMV A N 78;1EMV A K 80;17.6964
1EMV A G 79;1EMV A K 80;29.0923
1EMV A G 79;1EMV A S 81;0.827272
1EMV A K 80;1EMV A S 81;30.285
1EMV A K 80;1EMV A G 82;3.62247
1EMV A S 81;1EMV A G 82;28.6631
1EMV A G 82;1EMV A F 83;33.6872
1EMV A F 83;1EMV A K 84;27.8571
1EMV A F 83;1EMV A Q 85;7.86688
1EMV A K 84;1EMV A Q 85;46.9858
1EMV B M 1;1EMV B E 2;38.3674
1EMV B E 2;1EMV B S 3;47.6126
1EMV B E 2;1EMV B K 4;5.00695
1EMV B E 2;1EMV B N 6;0.858138
1EMV B E 2;1EMV B K 7;1.76584
1EMV B S 3;1EMV B K 4;24.4398
1EMV B S 3;1EMV B R 5;19.0872
1EMV B S 3;1EMV B N 6;27.7775
1EMV B S 3;1EMV B K 7;3.6167
1EMV B K 4;1EMV B R 5;20.0768
1EMV B K 4;1EMV B N 6;2.43881
1EMV B K 4;1EMV B K 7;21.9912
1EMV B K 4;1EMV B I 107;26.8348
1EMV B K 4;1EMV B G 110;7.04095
1EMV B K 4;1EMV B G 111;6.94345
1EMV B K 4;1EMV B E 112;5.23354
1EMV B K 4;1EMV B V 113;20.8914
1EMV B K 4;1EMV B Y 114;0.100179
1EMV B R 5;1EMV B N 6;32.2208
1EMV B R 5;1EMV B K 7;3.02597
1EMV B R 5;1EMV B S 49;3.6597
1EMV B R 5;1EMV B F 50;35.7795
1EMV B R 5;1EMV B H 103;8.62756
1EMV B R 5;1EMV B I 107;27.0123
1EMV B R 5;1EMV B V 113;13.0334
1EMV B R 5;1EMV B Y 114;3.01554
1EMV B N 6;1EMV B K 7;22.2719
1EMV B N 6;1EMV B P 8;3.86319
1EMV B N 6;1EMV B K 48;9.29194
1EMV B N 6;1EMV B S 49;19.7459
1EMV B N 6;1EMV B F 50;0.614744
1EMV B N 6;1EMV B D 51;1.99241
1EMV B K 7;1EMV B P 8;50.1747
1EMV B K 7;1EMV B K 48;2.63022
1EMV B K 7;1EMV B S 49;0.462202
1EMV B K 7;1EMV B V 113;0.185757
1EMV B K 7;1EMV B Y 114;14.034
1EMV B P 8;1EMV B G 9;24.5181
1EMV B P 8;1EMV B E 46;15.8597
1EMV B P 8;1EMV B F 47;6.93075
1EMV B P 8;1EMV B K 48;25.9879
1EMV B P 8;1EMV B Y 114;3.36482
1EMV B G 9;1EMV B K 10;26.1009
1EMV B G 9;1EMV B A 11;0.527627
1EMV B G 9;1EMV B K 45;0.331455
1EMV B G 9;1EMV B E 46;12.9969
1EMV B G 9;1EMV B F 47;14.5146
1EMV B G 9;1EMV B Y 114;21.3748
1EMV B K 10;1EMV B A 11;19.8468
1EMV B K 10;1EMV B T 12;16.7044
1EMV B K 10;1EMV B D 44;25.0684
1EMV B K 10;1EMV B K 45;6.37552
1EMV B K 10;1EMV B E 46;31.1451
1EMV B K 10;1EMV B Y 114;12.2578
1EMV B A 11;1EMV B T 12;22.7122
1EMV B A 11;1EMV B L 42;10.282
1EMV B A 11;1EMV B R 43;8.12886
1EMV B A 11;1EMV B D 44;12.5595
1EMV B A 11;1EMV B K 45;7.7388
1EMV B A 11;1EMV B F 47;11.6251
1EMV B A 11;1EMV B F 53;8.16014
1EMV B A 11;1EMV B Y 114;13.3208
1EMV B A 11;1EMV B M 116;10.0048
1EMV B T 12;1EMV B G 13;26.2541
1EMV B T 12;1EMV B K 14;0.0370858
1EMV B T 12;1EMV B R 43;7.78342
1EMV B T 12;1EMV B D 44;0.964515
1EMV B T 12;1EMV B Y 114;8.20705
1EMV B T 12;1EMV B D 115;19.3153
1EMV B T 12;1EMV B M 116;18.444
1EMV B G 13;1EMV B K 14;32.8344
1EMV B G 13;1EMV B G 15;1.05478
1EMV B G 13;1EMV B A 39;4.59474
1EMV B G 13;1EMV B R 43;12.6364
1EMV B G 13;1EMV B D 115;6.07544
1EMV B G 13;1EMV B M 116;10.2607
1EMV B G 13;1EMV B D 117;10.5317
1EMV B K 14;1EMV B G 15;28.7499
1EMV B K 14;1EMV B D 36;12.0376
1EMV B K 14;1EMV B A 39;7.14106
1EMV B K 14;1EMV B D 40;0.981923
1EMV B K 14;1EMV B R 43;28.988
1EMV B K 14;1EMV B M 116;0.000659991
1EMV B K 14;1EMV B D 117;19.0194
1EMV B G 15;1EMV B K 16;29.3738
1EMV B G 15;1EMV B P 33;1.21951
1EMV B G 15;1EMV B I 34;12.7733
1EMV B G 15;1EMV B P 35;1.34532
1EMV B G 15;1EMV B D 36;6.20015
1EMV B G 15;1EMV B A 39;5.91946
1EMV B G 15;1EMV B M 116;7.3257
1EMV B G 15;1EMV B D 117;15.3794
1EMV B K 16;1EMV B P 17;36.2405
1EMV B K 16;1EMV B V 18;7.55026
1EMV B K 16;1EMV B P 33;30.2715
1EMV B K 16;1EMV B I 34;5.71643
1EMV B K 16;1EMV B P 35;4.63382
1EMV B K 16;1EMV B D 36;16.3004
1EMV B K 16;1EMV B D 117;3.27827
1EMV B K 16;1EMV B R 120;8.81841
1EMV B P 17;1EMV B V 18;32.8225
1EMV B P 17;1EMV B P 33;1.44564
1EMV B P 17;1EMV B D 36;22.4837
1EMV B V 18;1EMV B G 19;34.5059
1EMV B V 18;1EMV B W 22;23.1922
1EMV B V 18;1EMV B P 33;15.3487
1EMV B V 18;1EMV B I 34;0.0960999
1EMV B V 18;1EMV B P 35;17.5251
1EMV B V 18;1EMV B D 36;2.71786
1EMV B V 18;1EMV B R 37;7.43185
1EMV B V 18;1EMV B E 66;7.00395
1EMV B V 18;1EMV B L 67;12.1013
1EMV B G 19;1EMV B D 20;23.4673
1EMV B G 19;1EMV B K 21;5.78645
1EMV B G 19;1EMV B W 22;15.3201
1EMV B G 19;1EMV B E 66;12.5314
1EMV B G 19;1EMV B L 67;2.30633
1EMV B D 20;1EMV B K 21;28.4615
1EMV B D 20;1EMV B W 22;4.42498
1EMV B D 20;1EMV B L 23;0.79469
1EMV B D 20;1EMV B D 24;1.27115
1EMV B D 20;1EMV B E 66;28.4022
1EMV B D 20;1EMV B K 69;0.153718
1EMV B D 20;1EMV B N 70;23.561
1EMV B K 21;1EMV B W 22;19.7919
1EMV B K 21;1EMV B L 23;2.11773
1EMV B K 21;1EMV B D 24;38.7233
1EMV B K 21;1EMV B D 25;18.4951
1EMV B W 22;1EMV B L 23;47.0665
1EMV B W 22;1EMV B D 24;0.815993
1EMV B W 22;1EMV B D 25;13.8212
1EMV B W 22;1EMV B A 26;2.62021
1EMV B W 22;1EMV B A 32;18.7623
1EMV B W 22;1EMV B P 33;11.1624
1EMV B W 22;1EMV B I 34;0.786676
1EMV B W 22;1EMV B P 35;21.31
1EMV B W 22;1EMV B I 38;0.472591
1EMV B W 22;1EMV B V 57;4.71141
1EMV B W 22;1EMV B W 58;11.106
1EMV B W 22;1EMV B V 61;16.1051
1EMV B W 22;1EMV B L 67;25.9343
1EMV B W 22;1EMV B V 121;14.9003
1EMV B L 23;1EMV B D 24;27.8352
1EMV B L 23;1EMV B D 25;1.11773
1EMV B L 23;1EMV B A 26;14.6533
1EMV B L 23;1EMV B G 27;1.744
1EMV B L 23;1EMV B A 32;1.19602
1EMV B L 23;1EMV B W 58;9.30968
1EMV B L 23;1EMV B V 61;0.870614
1EMV B L 23;1EMV B L 67;5.17397
1EMV B L 23;1EMV B N 70;11.2543
1EMV B L 23;1EMV B L 71;18.6365
1EMV B L 23;1EMV B P 85;5.49194
1EMV B L 23;1EMV B Y 99;36.6178
1EMV B L 23;1EMV B V 121;8.50358
1EMV B L 23;1EMV B T 123;2.42361
1EMV B D 24;1EMV B D 25;18.5259
1EMV B D 24;1EMV B A 26;2.05553
1EMV B D 24;1EMV B G 27;10.2822
1EMV B D 24;1EMV B K 28;12.3733
1EMV B D 24;1EMV B N 70;9.10865
1EMV B D 24;1EMV B Y 99;0.42505
1EMV B D 25;1EMV B A 26;14.0039
1EMV B D 25;1EMV B G 27;2.17746
1EMV B D 25;1EMV B K 28;33.0609
1EMV B D 25;1EMV B G 31;7.72195
1EMV B D 25;1EMV B A 32;13.1359
1EMV B D 25;1EMV B P 33;5.46676
1EMV B A 26;1EMV B G 27;14.2779
1EMV B A 26;1EMV B K 28;2.3839
1EMV B A 26;1EMV B G 31;5.99358
1EMV B A 26;1EMV B A 32;9.53867
1EMV B A 26;1EMV B Y 99;8.30669
1EMV B A 26;1EMV B V 121;13.1892
1EMV B A 26;1EMV B T 122;10.9916
1EMV B A 26;1EMV B T 123;11.5143
1EMV B A 26;1EMV B R 126;5.94662
1EMV B G 27;1EMV B K 28;26.0773
1EMV B G 27;1EMV B Q 91;14.0965
1EMV B G 27;1EMV B T 123;12.2771
1EMV B G 27;1EMV B R 126;17.7189
1EMV B K 28;1EMV B D 29;45.8522
1EMV B K 28;1EMV B S 30;0.583512
1EMV B K 28;1EMV B G 31;9.91659
1EMV B K 28;1EMV B R 126;11.1315
1EMV B D 29;1EMV B S 30;28.0199
1EMV B D 29;1EMV B G 31;4.54525
1EMV B D 29;1EMV B R 126;26.2313
1EMV B D 29;1EMV B I 130;8.53171
1EMV B S 30;1EMV B G 31;23.3475
1EMV B S 30;1EMV B D 104;12.1601
1EMV B S 30;1EMV B R 120;23.6627
1EMV B S 30;1EMV B T 122;6.40305
1EMV B S 30;1EMV B I 130;14.1481
1EMV B G 31;1EMV B A 32;19.3892
1EMV B G 31;1EMV B P 33;3.95076
1EMV B G 31;1EMV B R 120;9.97478
1EMV B G 31;1EMV B V 121;4.32261
1EMV B G 31;1EMV B T 122;8.33185
1EMV B G 31;1EMV B R 126;2.66597
1EMV B G 31;1EMV B I 130;0.368466
1EMV B A 32;1EMV B P 33;29.0117
1EMV B A 32;1EMV B R 120;9.57304
1EMV B A 32;1EMV B V 121;21.8368
1EMV B P 33;1EMV B I 34;27.2371
1EMV B P 33;1EMV B P 35;3.88157
1EMV B P 33;1EMV B I 119;3.99439
1EMV B P 33;1EMV B R 120;14.2833
1EMV B P 33;1EMV B V 121;4.74438
1EMV B I 34;1EMV B P 35;30.64
1EMV B I 34;1EMV B D 36;0.178802
1EMV B I 34;1EMV B I 38;11.4841
1EMV B I 34;1EMV B A 39;7.16215
1EMV B I 34;1EMV B F 53;6.5176
1EMV B I 34;1EMV B V 57;13.0446
1EMV B I 34;1EMV B L 101;7.64652
1EMV B I 34;1EMV B M 116;28.5594
1EMV B I 34;1EMV B I 119;23.7146
1EMV B I 34;1EMV B R 120;1.50033
1EMV B I 34;1EMV B V 121;9.80432
1EMV B P 35;1EMV B D 36;16.8704
1EMV B P 35;1EMV B R 37;9.97238
1EMV B P 35;1EMV B I 38;20.7741
1EMV B P 35;1EMV B A 39;6.074
1EMV B P 35;1EMV B V 57;1.53215
1EMV B P 35;1EMV B L 67;13.2754
1EMV B D 36;1EMV B R 37;32.9061
1EMV B D 36;1EMV B I 38;0.729212
1EMV B D 36;1EMV B A 39;8.2677
1EMV B D 36;1EMV B D 40;18.767
1EMV B D 36;1EMV B R 43;0.0151818
1EMV B R 37;1EMV B I 38;20.4413
1EMV B R 37;1EMV B A 39;0.564321
1EMV B R 37;1EMV B D 40;14.0041
1EMV B R 37;1EMV B K 41;25.5126
1EMV B R 37;1EMV B D 64;22.2984
1EMV B R 37;1EMV B P 65;11.2178
1EMV B R 37;1EMV B E 66;21.0839
1EMV B R 37;1EMV B L 67;13.0711
1EMV B I 38;1EMV B A 39;17.0158
1EMV B I 38;1EMV B D 40;1.28386
1EMV B I 38;1EMV B K 41;15.711
1EMV B I 38;1EMV B L 42;20.2637
1EMV B I 38;1EMV B V 57;17.4878
1EMV B I 38;1EMV B E 60;17.5539
1EMV B I 38;1EMV B V 61;13.1505
1EMV B I 38;1EMV B D 64;6.70661
1EMV B I 38;1EMV B L 67;12.411
1EMV B I 38;1EMV B M 116;2.00876
1EMV B A 39;1EMV B D 40;16.1076
1EMV B A 39;1EMV B K 41;1.14402
1EMV B A 39;1EMV B L 42;3.4919
1EMV B A 39;1EMV B R 43;18.6853
1EMV B A 39;1EMV B M 116;19.9728
1EMV B D 40;1EMV B K 41;28.5648
1EMV B D 40;1EMV B L 42;0.867288
1EMV B D 40;1EMV B R 43;36.8555
1EMV B K 41;1EMV B L 42;24.9733
1EMV B K 41;1EMV B R 43;3.49526
1EMV B K 41;1EMV B K 45;12.3984
1EMV B K 41;1EMV B E 60;31.7505
1EMV B K 41;1EMV B K 63;2.21314
1EMV B K 41;1EMV B D 64;12.3759
1EMV B L 42;1EMV B R 43;20.658
1EMV B L 42;1EMV B D 44;0.663942
1EMV B L 42;1EMV B K 45;25.3547
1EMV B L 42;1EMV B F 47;13.6258
1EMV B L 42;1EMV B F 53;11.9727
1EMV B L 42;1EMV B A 56;15.6536
1EMV B L 42;1EMV B V 57;12.3974
1EMV B L 42;1EMV B E 60;15.3765
1EMV B L 42;1EMV B M 116;11.3928
1EMV B R 43;1EMV B D 44;44.3982
1EMV B R 43;1EMV B K 45;6.66632
1EMV B R 43;1EMV B M 116;9.7304
1EMV B D 44;1EMV B K 45;23.2093
1EMV B D 44;1EMV B E 46;2.12829
1EMV B K 45;1EMV B E 46;31.1897
1EMV B K 45;1EMV B F 47;27.6083
1EMV B K 45;1EMV B A 56;2.16712
1EMV B K 45;1EMV B E 60;7.73327
1EMV B E 46;1EMV B F 47;28.8607
1EMV B E 46;1EMV B K 48;25.6391
1EMV B F 47;1EMV B K 48;21.9451
1EMV B F 47;1EMV B S 49;6.37927
1EMV B F 47;1EMV B D 52;14.8508
1EMV B F 47;1EMV B F 53;24.1624
1EMV B F 47;1EMV B A 56;14.1795
1EMV B F 47;1EMV B Y 114;17.4016
1EMV B K 48;1EMV B S 49;25.2048
1EMV B K 48;1EMV B D 52;20.0371
1EMV B K 48;1EMV B Y 114;1.21622
1EMV B S 49;1EMV B F 50;15.9791
1EMV B S 49;1EMV B D 51;13.0311
1EMV B S 49;1EMV B D 52;22.8881
1EMV B S 49;1EMV B F 53;4.8435
1EMV B S 49;1EMV B Y 114;12.4623
1EMV B F 50;1EMV B D 51;24.3394
1EMV B F 50;1EMV B D 52;1.16383
1EMV B F 50;1EMV B F 53;23.9291
1EMV B F 50;1EMV B R 54;17.0278
1EMV B F 50;1EMV B L 101;23.8918
1EMV B F 50;1EMV B H 102;1.26151
1EMV B F 50;1EMV B H 103;19.8152
1EMV B F 50;1EMV B I 107;0.259961
1EMV B F 50;1EMV B V 113;18.4801
1EMV B F 50;1EMV B Y 114;10.8983
1EMV B F 50;1EMV B I 119;13.5003
1EMV B D 51;1EMV B D 52;24.6488
1EMV B D 51;1EMV B F 53;0.70953
1EMV B D 51;1EMV B R 54;28.1493
1EMV B D 51;1EMV B K 55;13.796
1EMV B D 52;1EMV B F 53;15.4431
1EMV B D 52;1EMV B R 54;0.784564
1EMV B D 52;1EMV B K 55;19.4984
1EMV B D 52;1EMV B A 56;9.58249
1EMV B F 53;1EMV B R 54;18.9614
1EMV B F 53;1EMV B K 55;1.03841
1EMV B F 53;1EMV B A 56;8.48406
1EMV B F 53;1EMV B V 57;22.1922
1EMV B F 53;1EMV B L 101;7.3115
1EMV B F 53;1EMV B Y 114;17.6537
1EMV B F 53;1EMV B M 116;15.5883
1EMV B F 53;1EMV B I 119;14.9786
1EMV B R 54;1EMV B K 55;21.2727
1EMV B R 54;1EMV B A 56;0.81624
1EMV B R 54;1EMV B V 57;8.87552
1EMV B R 54;1EMV B W 58;24.8973
1EMV B R 54;1EMV B G 82;5.39287
1EMV B R 54;1EMV B Y 83;0.617792
1EMV B R 54;1EMV B S 84;13.1641
1EMV B R 54;1EMV B V 98;8.22832
1EMV B R 54;1EMV B Y 99;4.7002
1EMV B R 54;1EMV B E 100;4.26038
1EMV B R 54;1EMV B L 101;23.4439
1EMV B K 55;1EMV B A 56;18.1235
1EMV B K 55;1EMV B V 57;0.875784
1EMV B K 55;1EMV B W 58;5.36614
1EMV B K 55;1EMV B E 59;32.5128
1EMV B K 55;1EMV B K 81;13.5623
1EMV B K 55;1EMV B G 82;24.3079
1EMV B A 56;1EMV B V 57;16.7086
1EMV B A 56;1EMV B W 58;0.655017
1EMV B A 56;1EMV B E 59;17.3793
1EMV B A 56;1EMV B E 60;13.2659
1EMV B V 57;1EMV B W 58;28.9119
1EMV B V 57;1EMV B E 59;0.950531
1EMV B V 57;1EMV B E 60;6.94437
1EMV B V 57;1EMV B V 61;15.7515
1EMV B V 57;1EMV B L 101;15.55
1EMV B V 57;1EMV B M 116;0.00421453
1EMV B V 57;1EMV B V 121;1.34783
1EMV B W 58;1EMV B E 59;15.9279
1EMV B W 58;1EMV B E 60;0.847238
1EMV B W 58;1EMV B V 61;23.8382
1EMV B W 58;1EMV B S 62;6.18476
1EMV B W 58;1EMV B L 71;0.553663
1EMV B W 58;1EMV B V 79;21.5625
1EMV B W 58;1EMV B G 82;11.1935
1EMV B W 58;1EMV B Y 83;7.26973
1EMV B W 58;1EMV B S 84;17.2142
1EMV B W 58;1EMV B P 85;18.479
1EMV B W 58;1EMV B Y 99;13.8618
1EMV B W 58;1EMV B E 100;0.509538
1EMV B W 58;1EMV B L 101;16.7092
1EMV B W 58;1EMV B V 121;10.9058
1EMV B E 59;1EMV B E 60;19.4992
1EMV B E 59;1EMV B V 61;0.768417
1EMV B E 59;1EMV B S 62;13.5361
1EMV B E 59;1EMV B K 63;17.9606
1EMV B E 59;1EMV B V 79;5.79129
1EMV B E 59;1EMV B S 80;8.68537
1EMV B E 59;1EMV B K 81;3.58404
1EMV B E 59;1EMV B G 82;12.1256
1EMV B E 60;1EMV B V 61;14.7712
1EMV B E 60;1EMV B S 62;1.00782
1EMV B E 60;1EMV B K 63;35.4714
1EMV B E 60;1EMV B D 64;9.03879
1EMV B V 61;1EMV B S 62;17.3505
1EMV B V 61;1EMV B K 63;1.82597
1EMV B V 61;1EMV B D 64;11.4509
1EMV B V 61;1EMV B L 67;18.6561
1EMV B V 61;1EMV B S 68;10.9116
1EMV B V 61;1EMV B L 71;10.0126
1EMV B V 61;1EMV B V 79;6.29372
1EMV B S 62;1EMV B K 63;30.1077
1EMV B S 62;1EMV B D 64;2.06297
1EMV B S 62;1EMV B S 68;14.3399
1EMV B S 62;1EMV B K 76;2.03656
1EMV B S 62;1EMV B V 79;18.2177
1EMV B S 62;1EMV B S 80;18.3569
1EMV B K 63;1EMV B D 64;20.5359
1EMV B K 63;1EMV B P 65;11.0921
1EMV B D 64;1EMV B P 65;26.8601
1EMV B D 64;1EMV B E 66;7.32328
1EMV B D 64;1EMV B L 67;22.3497
1EMV B D 64;1EMV B S 68;11.7997
1EMV B P 65;1EMV B E 66;25.2175
1EMV B P 65;1EMV B L 67;0.360911
1EMV B P 65;1EMV B S 68;4.39367
1EMV B P 65;1EMV B K 69;18.6182
1EMV B E 66;1EMV B L 67;30.366
1EMV B E 66;1EMV B S 68;1.84794
1EMV B E 66;1EMV B K 69;10.827
1EMV B E 66;1EMV B N 70;7.16755
1EMV B L 67;1EMV B S 68;18.0543
1EMV B L 67;1EMV B K 69;0.0993848
1EMV B L 67;1EMV B N 70;9.32838
1EMV B L 67;1EMV B L 71;4.86079
1EMV B S 68;1EMV B K 69;18.3976
1EMV B S 68;1EMV B N 70;4.98063
1EMV B S 68;1EMV B L 71;21.303
1EMV B S 68;1EMV B K 76;24.4194
1EMV B S 68;1EMV B V 79;2.96531
1EMV B K 69;1EMV B N 70;23.944
1EMV B K 69;1EMV B L 71;6.12089
1EMV B K 69;1EMV B K 76;15.9596
1EMV B N 70;1EMV B L 71;30.9732
1EMV B N 70;1EMV B N 72;0.700815
1EMV B L 71;1EMV B N 72;29.4604
1EMV B L 71;1EMV B P 73;0.031792
1EMV B L 71;1EMV B N 75;19.292
1EMV B L 71;1EMV B K 76;23.1671
1EMV B L 71;1EMV B V 79;13.1444
1EMV B L 71;1EMV B P 85;13.4996
1EMV B L 71;1EMV B Y 99;1.8786
1EMV B N 72;1EMV B P 73;30.574
1EMV B N 72;1EMV B S 74;11.8689
1EMV B N 72;1EMV B N 75;16.8929
1EMV B N 72;1EMV B K 76;10.5925
1EMV B P 73;1EMV B S 74;24.1425
1EMV B P 73;1EMV B N 75;0.388417
1EMV B P 73;1EMV B K 76;18.5606
1EMV B P 73;1EMV B S 77;13.5508
1EMV B S 74;1EMV B N 75;15.2402
1EMV B S 74;1EMV B K 76;1.01523
1EMV B S 74;1EMV B S 77;8.62479
1EMV B S 74;1EMV B S 78;8.01113
1EMV B N 75;1EMV B K 76;15.2007
1EMV B N 75;1EMV B S 77;1.00526
1EMV B N 75;1EMV B S 78;13.3881
1EMV B N 75;1EMV B V 79;10.0586
1EMV B N 75;1EMV B P 85;14.518
1EMV B N 75;1EMV B F 86;17.8565
1EMV B N 75;1EMV B Y 99;0.023726
1EMV B K 76;1EMV B S 77;18.6113
1EMV B K 76;1EMV B S 78;1.16023
1EMV B K 76;1EMV B V 79;13.4356
1EMV B K 76;1EMV B S 80;11.8396
1EMV B S 77;1EMV B S 78;16.4491
1EMV B S 77;1EMV B V 79;0.225514
1EMV B S 77;1EMV B S 80;14.9574
1EMV B S 77;1EMV B K 81;10.463
1EMV B S 78;1EMV B V 79;17.0598
1EMV B S 78;1EMV B S 80;1.66043
1EMV B S 78;1EMV B K 81;8.30175
1EMV B S 78;1EMV B G 82;1.09373
1EMV B S 78;1EMV B Y 83;24.2093
1EMV B S 78;1EMV B S 84;7.03507
1EMV B S 78;1EMV B P 85;4.68541
1EMV B S 78;1EMV B F 86;6.34714
1EMV B V 79;1EMV B S 80;16.0253
1EMV B V 79;1EMV B K 81;1.66134
1EMV B V 79;1EMV B G 82;7.91235
1EMV B V 79;1EMV B Y 83;10.9084
1EMV B V 79;1EMV B S 84;0.147027
1EMV B V 79;1EMV B P 85;15.4518
1EMV B S 80;1EMV B K 81;42.2139
1EMV B S 80;1EMV B G 82;1.97102
1EMV B K 81;1EMV B G 82;17.7771
1EMV B K 81;1EMV B Y 83;29.894
1EMV B G 82;1EMV B Y 83;24.1455
1EMV B G 82;1EMV B S 84;0.355909
1EMV B Y 83;1EMV B S 84;21.9119
1EMV B Y 83;1EMV B P 85;0.466322
1EMV B S 84;1EMV B P 85;25.3961
1EMV B S 84;1EMV B F 86;3.13166
1EMV B S 84;1EMV B V 98;17.7444
1EMV B S 84;1EMV B Y 99;13.4277
1EMV B P 85;1EMV B F 86;19.1772
1EMV B P 85;1EMV B T 87;0.519469
1EMV B P 85;1EMV B V 98;6.96323
1EMV B P 85;1EMV B Y 99;22.0473
1EMV B F 86;1EMV B T 87;19.7114
1EMV B F 86;1EMV B Q 92;5.52203
1EMV B F 86;1EMV B K 97;20.9308
1EMV B F 86;1EMV B V 98;17.961
1EMV B F 86;1EMV B Y 99;5.67268
1EMV B T 87;1EMV B P 88;26.9697
1EMV B T 87;1EMV B K 89;0.944826
1EMV B T 87;1EMV B Q 91;9.65963
1EMV B T 87;1EMV B Q 92;16.4741
1EMV B T 87;1EMV B K 97;9.96433
1EMV B T 87;1EMV B V 98;6.3883
1EMV B T 87;1EMV B Y 99;22.2011
1EMV B T 87;1EMV B T 123;9.4925
1EMV B T 87;1EMV B P 124;10.0572
1EMV B P 88;1EMV B K 89;16.14
1EMV B P 88;1EMV B N 90;18.5673
1EMV B P 88;1EMV B Q 91;16.942
1EMV B P 88;1EMV B Q 92;5.09937
1EMV B P 88;1EMV B Y 99;11.3294
1EMV B P 88;1EMV B T 123;1.32592
1EMV B K 89;1EMV B N 90;26.8373
1EMV B K 89;1EMV B Q 91;2.13768
1EMV B K 89;1EMV B Q 92;30.9838
1EMV B N 90;1EMV B Q 91;38.2585
1EMV B N 90;1EMV B Q 92;4.97304
1EMV B N 90;1EMV B K 125;13.2484
1EMV B Q 91;1EMV B Q 92;18.987
1EMV B Q 91;1EMV B V 93;0.706193
1EMV B Q 91;1EMV B T 123;23.3137
1EMV B Q 91;1EMV B P 124;7.55852
1EMV B Q 91;1EMV B K 125;35.3458
1EMV B Q 91;1EMV B R 126;2.463
1EMV B Q 92;1EMV B V 93;30.867
1EMV B Q 92;1EMV B G 94;2.79623
1EMV B Q 92;1EMV B R 96;5.62662
1EMV B Q 92;1EMV B K 97;34.4709
1EMV B Q 92;1EMV B P 124;4.27497
1EMV B Q 92;1EMV B K 125;0.968402
1EMV B V 93;1EMV B G 94;32.8533
1EMV B V 93;1EMV B G 95;2.38788
1EMV B V 93;1EMV B R 96;23.9965
1EMV B V 93;1EMV B P 124;8.81036
1EMV B V 93;1EMV B K 125;16.8023
1EMV B V 93;1EMV B I 128;25.6552
1EMV B G 94;1EMV B G 95;24.9225
1EMV B G 94;1EMV B R 96;4.03447
1EMV B G 94;1EMV B K 97;15.6618
1EMV B G 95;1EMV B R 96;25.4244
1EMV B G 95;1EMV B K 97;13.5077
1EMV B R 96;1EMV B K 97;21.265
1EMV B R 96;1EMV B V 98;1.61588
1EMV B R 96;1EMV B E 100;26.5707
1EMV B R 96;1EMV B H 102;1.10273
1EMV B R 96;1EMV B P 124;25.8202
1EMV B R 96;1EMV B H 127;17.7893
1EMV B R 96;1EMV B I 128;21.8583
1EMV B K 97;1EMV B V 98;26.8555
1EMV B K 97;1EMV B P 124;3.27861
1EMV B V 98;1EMV B Y 99;20.6121
1EMV B V 98;1EMV B E 100;12.9334
1EMV B V 98;1EMV B P 124;11.7733
1EMV B Y 99;1EMV B E 100;23.9844
1EMV B Y 99;1EMV B L 101;0.535079
1EMV B Y 99;1EMV B V 121;10.6778
1EMV B Y 99;1EMV B T 122;6.4595
1EMV B Y 99;1EMV B T 123;14.3234
1EMV B Y 99;1EMV B P 124;0.876863
1EMV B E 100;1EMV B L 101;27.5909
1EMV B E 100;1EMV B H 102;24.1275
1EMV B E 100;1EMV B R 120;1.77233
1EMV B E 100;1EMV B V 121;8.22634
1EMV B E 100;1EMV B T 122;22.541
1EMV B E 100;1EMV B T 123;1.48636
1EMV B E 100;1EMV B P 124;14.0097
1EMV B E 100;1EMV B H 127;3.98071
1EMV B L 101;1EMV B H 102;31.2687
1EMV B L 101;1EMV B H 103;0.200656
1EMV B L 101;1EMV B I 119;12.5213
1EMV B L 101;1EMV B R 120;6.0079
1EMV B L 101;1EMV B V 121;15.7864
1EMV B H 102;1EMV B H 103;34.9506
1EMV B H 102;1EMV B D 104;2.48387
1EMV B H 102;1EMV B N 118;0.225481
1EMV B H 102;1EMV B I 119;11.1942
1EMV B H 102;1EMV B R 120;21.6212
1EMV B H 102;1EMV B T 122;13.085
1EMV B H 102;1EMV B H 127;34.0646
1EMV B H 103;1EMV B D 104;24.6202
1EMV B H 103;1EMV B K 105;7.68336
1EMV B H 103;1EMV B P 106;13.0495
1EMV B H 103;1EMV B I 107;24.9949
1EMV B H 103;1EMV B G 111;0.00281117
1EMV B H 103;1EMV B E 112;6.60096
1EMV B H 103;1EMV B V 113;12.5179
1EMV B H 103;1EMV B N 118;15.6632
1EMV B H 103;1EMV B I 119;11.19
1EMV B D 104;1EMV B K 105;23.9022
1EMV B D 104;1EMV B P 106;10.1594
1EMV B D 104;1EMV B D 117;0.268615
1EMV B D 104;1EMV B N 118;18.9532
1EMV B D 104;1EMV B I 119;0.172722
1EMV B D 104;1EMV B R 120;35.3336
1EMV B K 105;1EMV B P 106;28.2608
1EMV B K 105;1EMV B I 107;1.47571
1EMV B K 105;1EMV B Q 109;22.8405
1EMV B K 105;1EMV B G 110;14.2272
1EMV B K 105;1EMV B G 111;19.1526
1EMV B K 105;1EMV B N 118;20.6421
1EMV B P 106;1EMV B I 107;19.1346
1EMV B P 106;1EMV B S 108;13.0136
1EMV B P 106;1EMV B Q 109;38.1939
1EMV B P 106;1EMV B G 110;1.22773
1EMV B P 106;1EMV B G 111;6.50223
1EMV B I 107;1EMV B S 108;28.0033
1EMV B I 107;1EMV B Q 109;2.0396
1EMV B I 107;1EMV B G 110;9.39958
1EMV B I 107;1EMV B G 111;18.1696
1EMV B I 107;1EMV B E 112;1.23284
1EMV B I 107;1EMV B V 113;20.2799
1EMV B I 107;1EMV B N 118;0.182664
1EMV B S 108;1EMV B Q 109;33.4019
1EMV B S 108;1EMV B G 110;2.76294
1EMV B Q 109;1EMV B G 110;21.2919
1EMV B Q 109;1EMV B G 111;0.698278
1EMV B G 110;1EMV B G 111;22.5192
1EMV B G 110;1EMV B E 112;9.6195
1EMV B G 111;1EMV B E 112;24.6855
1EMV B G 111;1EMV B V 113;3.13191
1EMV B G 111;1EMV B N 118;6.75755
1EMV B E 112;1EMV B V 113;24.1504
1EMV B E 112;1EMV B Y 114;3.07524
1EMV B E 112;1EMV B D 115;29.374
1EMV B E 112;1EMV B N 118;15.0426
1EMV B E 112;1EMV B I 119;0.4879
1EMV B V 113;1EMV B Y 114;43.3962
1EMV B V 113;1EMV B D 115;1.56343
1EMV B V 113;1EMV B I 119;5.76101
1EMV B Y 114;1EMV B D 115;20.0658
1EMV B Y 114;1EMV B M 116;6.80991
1EMV B Y 114;1EMV B I 119;6.01047
1EMV B D 115;1EMV B M 116;14.5596
1EMV B D 115;1EMV B D 117;18.103
1EMV B D 115;1EMV B N 118;24.7987
1EMV B D 115;1EMV B I 119;9.94895
1EMV B M 116;1EMV B D 117;20.9809
1EMV B M 116;1EMV B N 118;1.73163
1EMV B M 116;1EMV B I 119;19.4418
1EMV B M 116;1EMV B R 120;0.143554
1EMV B D 117;1EMV B N 118;19.4336
1EMV B D 117;1EMV B I 119;1.36714
1EMV B D 117;1EMV B R 120;17.3117
1EMV B N 118;1EMV B I 119;20.3961
1EMV B N 118;1EMV B R 120;4.03772
1EMV B I 119;1EMV B R 120;35.6159
1EMV B I 119;1EMV B V 121;0.00361411
1EMV B R 120;1EMV B V 121;19.8051
1EMV B R 120;1EMV B T 122;8.52809
1EMV B V 121;1EMV B T 122;20.358
1EMV B T 122;1EMV B T 123;23.3439
1EMV B T 122;1EMV B P 124;0.448628
1EMV B T 122;1EMV B R 126;7.64736
1EMV B T 122;1EMV B H 127;15.501
1EMV B T 122;1EMV B I 130;9.42248
1EMV B T 123;1EMV B P 124;22.7821
1EMV B T 123;1EMV B K 125;4.33182
1EMV B T 123;1EMV B R 126;14.1899
1EMV B T 123;1EMV B H 127;7.26255
1EMV B P 124;1EMV B K 125;16.0612
1EMV B P 124;1EMV B R 126;0.748909
1EMV B P 124;1EMV B H 127;6.16638
1EMV B P 124;1EMV B I 128;13.4583
1EMV B K 125;1EMV B R 126;19.8589
1EMV B K 125;1EMV B H 127;0.652519
1EMV B K 125;1EMV B I 128;10.4527
1EMV B K 125;1EMV B D 129;33.8263
1EMV B R 126;1EMV B H 127;16.0095
1EMV B R 126;1EMV B I 128;1.22758
1EMV B R 126;1EMV B D 129;28.3878
1EMV B R 126;1EMV B I 130;31.9304
1EMV B H 127;1EMV B I 128;21.9259
1EMV B H 127;1EMV B D 129;0.27298
1EMV B H 127;1EMV B I 130;14.5596
1EMV B H 127;1EMV B H 131;36.8122
1EMV B I 128;1EMV B D 129;27.9023
1EMV B I 128;1EMV B I 130;1.83737
1EMV B I 128;1EMV B H 131;18.9498
1EMV B D 129;1EMV B I 130;23.1466
1EMV B D 129;1EMV B H 131;8.07046
1EMV B I 130;1EMV B H 131;42.2211
