V1;V2;Weight
1R0R E A 1;1R0R E Q 2;27.2584
1R0R E A 1;1R0R E T 3;0.134735
1R0R E A 1;1R0R E T 3;6.2414
1R0R E A 1;1R0R E T 78;17.2588
1R0R E A 1;1R0R E T 79;10.4787
1R0R E A 1;1R0R E G 80;9.02989
1R0R E Q 2;1R0R E T 3;27.3558
1R0R E Q 2;1R0R E T 3;3.64021
1R0R E Q 2;1R0R E V 4;8.86586
1R0R E Q 2;1R0R E L 75;4.15371
1R0R E Q 2;1R0R E D 76;13.7679
1R0R E Q 2;1R0R E N 77;22.6231
1R0R E Q 2;1R0R E T 78;7.25045
1R0R E Q 2;1R0R E T 79;12.5695
1R0R E Q 2;1R0R E G 80;5.34768
1R0R E Q 2;1R0R E V 81;10.4557
1R0R E Q 2;1R0R E L 82;15.969
1R0R E T 3;1R0R E V 4;20.4185
1R0R E T 3;1R0R E P 5;4.52543
1R0R E T 3;1R0R E G 80;5.68384
1R0R E T 3;1R0R E V 81;8.46049
1R0R E T 3;1R0R E L 82;3.3402
1R0R E T 3;1R0R E V 4;10.8996
1R0R E T 3;1R0R E P 5;4.04663
1R0R E T 3;1R0R E G 80;7.10771
1R0R E T 3;1R0R E V 81;4.12753
1R0R E T 3;1R0R E Y 206;20.3609
1R0R E V 4;1R0R E P 5;29.4902
1R0R E V 4;1R0R E Y 6;5.00473
1R0R E V 4;1R0R E I 8;12.0779
1R0R E V 4;1R0R E P 9;13.6105
1R0R E V 4;1R0R E D 14;2.34626
1R0R E V 4;1R0R E L 82;21.7052
1R0R E P 5;1R0R E Y 6;23.0984
1R0R E P 5;1R0R E G 7;6.58033
1R0R E P 5;1R0R E I 8;21.1573
1R0R E P 5;1R0R E P 9;4.66403
1R0R E P 5;1R0R E V 81;14.1554
1R0R E P 5;1R0R E L 82;14.4433
1R0R E P 5;1R0R E V 205;4.38265
1R0R E P 5;1R0R E Y 206;29.3752
1R0R E P 5;1R0R E H 226;0.942154
1R0R E Y 6;1R0R E G 7;24.1552
1R0R E Y 6;1R0R E I 8;1.2469
1R0R E Y 6;1R0R E P 9;15.1018
1R0R E Y 6;1R0R E L 10;23.4041
1R0R E Y 6;1R0R E V 180;2.19466
1R0R E Y 6;1R0R E D 181;7.88257
1R0R E Y 6;1R0R E S 182;21.5467
1R0R E Y 6;1R0R E P 201;15.1408
1R0R E Y 6;1R0R E G 202;1.25288
1R0R E Y 6;1R0R E A 203;14.9284
1R0R E Y 6;1R0R E G 204;13.0606
1R0R E Y 6;1R0R E V 205;11.6925
1R0R E Y 6;1R0R E Y 206;1.09731
1R0R E G 7;1R0R E I 8;20.1856
1R0R E G 7;1R0R E P 9;0.277526
1R0R E G 7;1R0R E L 10;7.73673
1R0R E G 7;1R0R E I 11;12.6337
1R0R E G 7;1R0R E V 84;0.10684
1R0R E G 7;1R0R E P 201;11.2034
1R0R E G 7;1R0R E V 205;0.364612
1R0R E G 7;1R0R E H 226;15.0663
1R0R E I 8;1R0R E P 9;22.8323
1R0R E I 8;1R0R E L 10;1.08046
1R0R E I 8;1R0R E I 11;6.06283
1R0R E I 8;1R0R E K 12;3.0524
1R0R E I 8;1R0R E A 13;15.6962
1R0R E I 8;1R0R E D 14;17.4795
1R0R E I 8;1R0R E Q 17;6.79655
1R0R E I 8;1R0R E T 71;7.70126
1R0R E I 8;1R0R E L 82;20.4958
1R0R E I 8;1R0R E G 83;6.5276
1R0R E I 8;1R0R E V 84;17.0059
1R0R E I 8;1R0R E H 226;6.71636
1R0R E P 9;1R0R E L 10;24.1277
1R0R E P 9;1R0R E I 11;0.862234
1R0R E P 9;1R0R E K 12;15.7331
1R0R E P 9;1R0R E D 14;24.0544
1R0R E L 10;1R0R E I 11;20.3869
1R0R E L 10;1R0R E K 12;11.6633
1R0R E L 10;1R0R E V 180;5.34358
1R0R E L 10;1R0R E D 181;5.52801
1R0R E L 10;1R0R E S 182;13.0169
1R0R E L 10;1R0R E S 184;15.761
1R0R E L 10;1R0R E P 201;11.4005
1R0R E L 10;1R0R E L 267;26.1337
1R0R E L 10;1R0R E I 268;1.28883
1R0R E L 10;1R0R E N 269;0.0793101
1R0R E I 11;1R0R E K 12;19.4552
1R0R E I 11;1R0R E A 13;11.4482
1R0R E I 11;1R0R E V 84;12.7029
1R0R E I 11;1R0R E A 200;1.81796
1R0R E I 11;1R0R E P 201;10.8386
1R0R E I 11;1R0R E H 226;15.8499
1R0R E I 11;1R0R E A 230;4.00038
1R0R E I 11;1R0R E L 267;7.63471
1R0R E I 11;1R0R E I 268;28.0235
1R0R E I 11;1R0R E N 269;5.26477
1R0R E I 11;1R0R E V 270;17.7045
1R0R E I 11;1R0R E E 271;0.0273384
1R0R E K 12;1R0R E A 13;14.4484
1R0R E K 12;1R0R E D 14;7.94518
1R0R E K 12;1R0R E K 15;19.2916
1R0R E K 12;1R0R E V 16;5.87134
1R0R E K 12;1R0R E T 255;2.26298
1R0R E K 12;1R0R E N 269;27.0475
1R0R E K 12;1R0R E V 270;4.81375
1R0R E K 12;1R0R E E 271;25.1615
1R0R E A 13;1R0R E D 14;16.4399
1R0R E A 13;1R0R E K 15;1.22556
1R0R E A 13;1R0R E V 16;7.25722
1R0R E A 13;1R0R E Q 17;15.6642
1R0R E A 13;1R0R E V 84;12.5631
1R0R E A 13;1R0R E L 233;10.0188
1R0R E A 13;1R0R E V 270;9.38994
1R0R E D 14;1R0R E K 15;33.0772
1R0R E D 14;1R0R E V 16;0.714059
1R0R E D 14;1R0R E Q 17;14.2482
1R0R E D 14;1R0R E A 18;13.4461
1R0R E D 14;1R0R E L 82;1.33363
1R0R E K 15;1R0R E V 16;17.7229
1R0R E K 15;1R0R E Q 17;0.538033
1R0R E K 15;1R0R E A 18;18.1479
1R0R E K 15;1R0R E Q 19;15.5503
1R0R E K 15;1R0R E E 271;30.2561
1R0R E V 16;1R0R E Q 17;16.1126
1R0R E V 16;1R0R E A 18;1.36135
1R0R E V 16;1R0R E Q 19;24.1128
1R0R E V 16;1R0R E G 20;1.66773
1R0R E V 16;1R0R E F 21;21.8084
1R0R E V 16;1R0R E L 233;18.8771
1R0R E V 16;1R0R E K 237;3.79725
1R0R E V 16;1R0R E V 270;12.8041
1R0R E V 16;1R0R E E 271;11.3091
1R0R E V 16;1R0R E A 274;13.0813
1R0R E Q 17;1R0R E A 18;21.8701
1R0R E Q 17;1R0R E Q 19;1.06129
1R0R E Q 17;1R0R E G 20;9.07511
1R0R E Q 17;1R0R E F 21;9.43971
1R0R E Q 17;1R0R E K 22;29.1889
1R0R E Q 17;1R0R E D 76;4.6538
1R0R E Q 17;1R0R E L 82;17.1926
1R0R E Q 17;1R0R E G 83;5.74294
1R0R E Q 17;1R0R E V 84;9.41313
1R0R E Q 17;1R0R E P 86;14.0217
1R0R E Q 17;1R0R E L 233;5.97313
1R0R E A 18;1R0R E Q 19;23.4608
1R0R E A 18;1R0R E G 20;4.88724
1R0R E Q 19;1R0R E G 20;22.3017
1R0R E Q 19;1R0R E F 21;26.1123
1R0R E Q 19;1R0R E K 237;21.7039
1R0R E Q 19;1R0R E E 271;15.296
1R0R E Q 19;1R0R E A 274;0.787156
1R0R E G 20;1R0R E F 21;28.8169
1R0R E G 20;1R0R E K 22;16.2148
1R0R E F 21;1R0R E K 22;20.8333
1R0R E F 21;1R0R E G 23;0.00728505
1R0R E F 21;1R0R E L 233;10.7554
1R0R E F 21;1R0R E S 236;20.589
1R0R E F 21;1R0R E K 237;39.4786
1R0R E K 22;1R0R E G 23;17.9303
1R0R E K 22;1R0R E A 24;5.49286
1R0R E K 22;1R0R E D 76;16.9452
1R0R E K 22;1R0R E A 85;6.91999
1R0R E K 22;1R0R E P 86;17.5038
1R0R E K 22;1R0R E S 87;26.7649
1R0R E K 22;1R0R E V 88;1.25855
1R0R E K 22;1R0R E L 233;7.89934
1R0R E K 22;1R0R E S 236;2.9028
1R0R E G 23;1R0R E A 24;18.1298
1R0R E G 23;1R0R E N 25;1.12034
1R0R E G 23;1R0R E V 26;12.7401
1R0R E G 23;1R0R E A 85;3.61008
1R0R E G 23;1R0R E S 87;2.54113
1R0R E G 23;1R0R E V 88;14.4843
1R0R E G 23;1R0R E A 232;6.73312
1R0R E G 23;1R0R E L 233;5.727
1R0R E G 23;1R0R E S 236;11.7339
1R0R E A 24;1R0R E N 25;16.6412
1R0R E A 24;1R0R E N 25;20.9292
1R0R E A 24;1R0R E V 26;6.43442
1R0R E A 24;1R0R E S 87;23.4216
1R0R E A 24;1R0R E S 236;14.9809
1R0R E N 25;1R0R E V 26;25.7795
1R0R E N 25;1R0R E K 27;5.22618
1R0R E N 25;1R0R E S 87;2.79006
1R0R E N 25;1R0R E V 88;0.261821
1R0R E N 25;1R0R E S 89;11.1012
1R0R E N 25;1R0R E D 120;5.64373
1R0R E N 25;1R0R E V 26;0.000142348
1R0R E N 25;1R0R E S 89;0.678703
1R0R E V 26;1R0R E K 27;20.7192
1R0R E V 26;1R0R E V 28;7.38615
1R0R E V 26;1R0R E V 88;9.79301
1R0R E V 26;1R0R E S 89;11.6953
1R0R E V 26;1R0R E D 120;14.2172
1R0R E V 26;1R0R E V 121;5.11555
1R0R E V 26;1R0R E A 232;15.5709
1R0R E V 26;1R0R E L 235;18.5262
1R0R E V 26;1R0R E S 236;9.60312
1R0R E K 27;1R0R E V 28;18.4473
1R0R E K 27;1R0R E S 89;13.5365
1R0R E K 27;1R0R E Y 91;7.93861
1R0R E K 27;1R0R E G 118;1.55382
1R0R E K 27;1R0R E M 119;14.0162
1R0R E K 27;1R0R E D 120;22.3158
1R0R E K 27;1R0R E V 121;6.20876
1R0R E K 27;1R0R E S 89;2.11955
1R0R E K 27;1R0R E Y 91;18.0407
1R0R E K 27;1R0R E N 117;10.1571
1R0R E K 27;1R0R E G 118;10.8782
1R0R E K 27;1R0R E M 119;6.65232
1R0R E K 27;1R0R E D 120;0.693846
1R0R E V 28;1R0R E A 29;21.8417
1R0R E V 28;1R0R E V 30;7.4715
1R0R E V 28;1R0R E V 72;16.2601
1R0R E V 28;1R0R E V 88;14.8731
1R0R E V 28;1R0R E S 89;8.01765
1R0R E V 28;1R0R E L 90;12.0663
1R0R E V 28;1R0R E Y 91;11.4311
1R0R E V 28;1R0R E M 119;3.30802
1R0R E V 28;1R0R E V 121;22.0789
1R0R E V 28;1R0R E I 122;0.171316
1R0R E V 28;1R0R E N 123;4.72294
1R0R E V 28;1R0R E A 228;8.91456
1R0R E V 28;1R0R E G 229;0.0791837
1R0R E V 28;1R0R E A 232;7.69697
1R0R E A 29;1R0R E V 30;18.1956
1R0R E A 29;1R0R E L 31;12.3569
1R0R E A 29;1R0R E Y 91;9.27823
1R0R E A 29;1R0R E V 93;8.7254
1R0R E A 29;1R0R E W 113;1.33192
1R0R E A 29;1R0R E A 114;5.39562
1R0R E A 29;1R0R E M 119;14.4491
1R0R E A 29;1R0R E V 121;7.79482
1R0R E A 29;1R0R E I 122;9.01203
1R0R E A 29;1R0R E N 123;9.48353
1R0R E V 30;1R0R E L 31;17.8112
1R0R E V 30;1R0R E D 32;16.8047
1R0R E V 30;1R0R E G 34;1.97745
1R0R E V 30;1R0R E I 35;13.446
1R0R E V 30;1R0R E G 65;6.03471
1R0R E V 30;1R0R E V 68;12.6761
1R0R E V 30;1R0R E A 69;11.2218
1R0R E V 30;1R0R E V 72;9.31974
1R0R E V 30;1R0R E L 90;10.5354
1R0R E V 30;1R0R E Y 91;9.19028
1R0R E V 30;1R0R E A 92;3.86146
1R0R E V 30;1R0R E V 93;12.58
1R0R E V 30;1R0R E N 123;14.0544
1R0R E L 31;1R0R E D 32;21.1493
1R0R E L 31;1R0R E V 93;19.9843
1R0R E L 31;1R0R E V 95;16.4592
1R0R E L 31;1R0R E I 107;5.4413
1R0R E L 31;1R0R E G 110;7.95361
1R0R E L 31;1R0R E I 111;12.6218
1R0R E L 31;1R0R E A 114;5.22245
1R0R E L 31;1R0R E I 122;14.9123
1R0R E L 31;1R0R E N 123;13.0656
1R0R E L 31;1R0R E M 124;17.2605
1R0R E L 31;1R0R E S 125;3.03173
1R0R E L 31;1R0R E L 126;9.83673
1R0R E D 32;1R0R E T 33;22.9282
1R0R E D 32;1R0R E G 34;9.43521
1R0R E D 32;1R0R E H 64;13.4486
1R0R E D 32;1R0R E G 65;12.8689
1R0R E D 32;1R0R E V 68;7.88215
1R0R E D 32;1R0R E V 93;6.04328
1R0R E D 32;1R0R E K 94;5.26813
1R0R E D 32;1R0R E V 95;9.93206
1R0R E D 32;1R0R E L 96;18.9931
1R0R E D 32;1R0R E N 123;0.752058
1R0R E D 32;1R0R E S 125;9.43459
1R0R E D 32;1R0R E L 126;2.0582
1R0R E D 32;1R0R I T 17;0.717045
1R0R E T 33;1R0R E G 34;16.4902
1R0R E T 33;1R0R E E 54;2.02232
1R0R E T 33;1R0R E T 59;0.803129
1R0R E T 33;1R0R E D 60;16.921
1R0R E T 33;1R0R E G 61;2.18544
1R0R E T 33;1R0R E N 62;13.6747
1R0R E T 33;1R0R E G 63;0.182472
1R0R E T 33;1R0R E H 64;7.06229
1R0R E T 33;1R0R E G 65;8.71921
1R0R E T 33;1R0R E K 94;10.3387
1R0R E T 33;1R0R E L 96;19.1885
1R0R E T 33;1R0R E N 97;8.9071
1R0R E T 33;1R0R E S 98;2.31742
1R0R E T 33;1R0R E G 100;5.87224
1R0R E T 33;1R0R I T 17;6.28185
1R0R E G 34;1R0R E I 35;22.1253
1R0R E G 34;1R0R E Y 57;5.3672
1R0R E G 34;1R0R E T 59;4.36461
1R0R E G 34;1R0R E D 60;6.50427
1R0R E G 34;1R0R E G 65;9.0245
1R0R E G 34;1R0R E T 66;1.23062
1R0R E G 34;1R0R E A 92;4.351
1R0R E G 34;1R0R E V 93;2.16622
1R0R E G 34;1R0R E K 94;14.9282
1R0R E I 35;1R0R E Q 36;19.0627
1R0R E I 35;1R0R E A 37;7.55967
1R0R E I 35;1R0R E L 42;10.9589
1R0R E I 35;1R0R E V 44;17.8167
1R0R E I 35;1R0R E Y 57;3.64446
1R0R E I 35;1R0R E N 58;8.73256
1R0R E I 35;1R0R E T 59;7.22634
1R0R E I 35;1R0R E D 60;4.65727
1R0R E I 35;1R0R E G 65;4.33283
1R0R E I 35;1R0R E T 66;10.7258
1R0R E I 35;1R0R E A 69;13.7918
1R0R E I 35;1R0R E L 90;12.1809
1R0R E I 35;1R0R E Y 91;3.37323
1R0R E I 35;1R0R E A 92;20.2453
1R0R E Q 36;1R0R E A 37;17.1496
1R0R E Q 36;1R0R E S 38;21.7167
1R0R E Q 36;1R0R E H 39;25.2515
1R0R E Q 36;1R0R E L 42;5.37908
1R0R E Q 36;1R0R E N 58;2.52831
1R0R E Q 36;1R0R E T 59;5.42922
1R0R E Q 36;1R0R E D 60;11.2736
1R0R E Q 36;1R0R E T 66;14.2669
1R0R E Q 36;1R0R E Y 209;0.107256
1R0R E Q 36;1R0R E P 210;18.7096
1R0R E Q 36;1R0R E T 211;15.1167
1R0R E Q 36;1R0R E N 212;14.6729
1R0R E A 37;1R0R E S 38;26.2472
1R0R E A 37;1R0R E H 39;7.60834
1R0R E A 37;1R0R E L 42;10.3742
1R0R E A 37;1R0R E N 43;0.0638595
1R0R E A 37;1R0R E V 44;28.5275
1R0R E A 37;1R0R E Y 57;0.910816
1R0R E A 37;1R0R E N 58;26.0099
1R0R E S 38;1R0R E H 39;18.8003
1R0R E S 38;1R0R E P 40;7.92766
1R0R E S 38;1R0R E N 58;1.10993
1R0R E S 38;1R0R E N 212;6.18338
1R0R E H 39;1R0R E P 40;29.4374
1R0R E H 39;1R0R E D 41;12.6206
1R0R E H 39;1R0R E L 42;25.9781
1R0R E H 39;1R0R E T 66;5.86592
1R0R E H 39;1R0R E T 208;12.6239
1R0R E H 39;1R0R E Y 209;7.02014
1R0R E H 39;1R0R E P 210;0.0101166
1R0R E H 39;1R0R E N 212;14.4768
1R0R E H 39;1R0R E T 213;8.56221
1R0R E H 39;1R0R E Y 214;10.956
1R0R E P 40;1R0R E D 41;18.2591
1R0R E P 40;1R0R E L 42;3.77508
1R0R E P 40;1R0R E L 75;8.97376
1R0R E P 40;1R0R E N 77;5.68569
1R0R E P 40;1R0R E T 79;14.3427
1R0R E P 40;1R0R E N 212;23.3205
1R0R E P 40;1R0R E Y 214;6.52927
1R0R E D 41;1R0R E L 42;20.8067
1R0R E D 41;1R0R E A 73;0.169503
1R0R E D 41;1R0R E A 74;11.3337
1R0R E D 41;1R0R E L 75;23.0564
1R0R E D 41;1R0R E N 77;9.33073
1R0R E D 41;1R0R E T 79;13.2168
1R0R E D 41;1R0R E G 80;3.34354
1R0R E D 41;1R0R E V 81;11.569
1R0R E D 41;1R0R E T 208;8.21459
1R0R E D 41;1R0R E Y 214;9.13786
1R0R E L 42;1R0R E N 43;25.3845
1R0R E L 42;1R0R E V 44;7.69661
1R0R E L 42;1R0R E T 66;11.071
1R0R E L 42;1R0R E A 69;9.57139
1R0R E L 42;1R0R E G 70;7.33862
1R0R E L 42;1R0R E A 73;7.03012
1R0R E L 42;1R0R E A 74;6.418
1R0R E L 42;1R0R E L 75;12.6207
1R0R E L 42;1R0R E L 90;10.3031
1R0R E L 42;1R0R E T 208;14.126
1R0R E N 43;1R0R E V 44;24.9588
1R0R E N 43;1R0R E V 45;25.7104
1R0R E N 43;1R0R E A 73;1.50847
1R0R E N 43;1R0R E L 75;24.1565
1R0R E N 43;1R0R E V 88;6.81924
1R0R E N 43;1R0R E S 89;0.00193419
1R0R E N 43;1R0R E L 90;19.2839
1R0R E V 44;1R0R E V 45;22.6625
1R0R E V 44;1R0R E G 46;9.59794
1R0R E V 44;1R0R E Y 57;13.3656
1R0R E V 44;1R0R E N 58;2.38748
1R0R E V 44;1R0R E L 90;18.0321
1R0R E V 44;1R0R E Y 91;1.51073
1R0R E V 44;1R0R E A 92;10.7255
1R0R E V 45;1R0R E G 46;25.0661
1R0R E V 45;1R0R E Y 57;1.99098
1R0R E V 45;1R0R E V 88;0.0181165
1R0R E V 45;1R0R E S 89;15.159
1R0R E V 45;1R0R E L 90;14.0097
1R0R E V 45;1R0R E Y 91;20.2583
1R0R E G 46;1R0R E G 47;20.0223
1R0R E G 46;1R0R E Y 57;18.4232
1R0R E G 46;1R0R E L 90;2.05272
1R0R E G 46;1R0R E Y 91;18.1601
1R0R E G 46;1R0R E A 92;4.74132
1R0R E G 47;1R0R E A 48;22.7408
1R0R E G 47;1R0R E Y 57;14.6787
1R0R E G 47;1R0R E Y 91;7.25035
1R0R E G 47;1R0R E A 92;7.41472
1R0R E G 47;1R0R E V 93;2.91558
1R0R E G 47;1R0R E W 113;19.8775
1R0R E A 48;1R0R E S 49;24.203
1R0R E A 48;1R0R E F 50;14.6326
1R0R E A 48;1R0R E Y 57;14.6105
1R0R E A 48;1R0R E A 92;5.15521
1R0R E A 48;1R0R E V 93;11.6157
1R0R E A 48;1R0R E K 94;6.86838
1R0R E A 48;1R0R E W 113;19.1849
1R0R E S 49;1R0R E F 50;31.6571
1R0R E S 49;1R0R E V 51;13.1554
1R0R E S 49;1R0R E E 54;12.5575
1R0R E S 49;1R0R E A 55;5.07697
1R0R E S 49;1R0R E Y 57;10.9455
1R0R E S 49;1R0R E K 94;15.202
1R0R E F 50;1R0R E V 51;27.9794
1R0R E F 50;1R0R E A 52;3.35207
1R0R E F 50;1R0R E V 93;8.53784
1R0R E F 50;1R0R E K 94;11.8173
1R0R E F 50;1R0R E V 95;7.87588
1R0R E F 50;1R0R E G 106;20.0377
1R0R E F 50;1R0R E S 109;27.0145
1R0R E F 50;1R0R E G 110;8.25563
1R0R E F 50;1R0R E W 113;18.3139
1R0R E V 51;1R0R E A 52;34.8964
1R0R E V 51;1R0R E G 53;2.13505
1R0R E V 51;1R0R E E 54;24.6977
1R0R E V 51;1R0R E K 94;14.9638
1R0R E V 51;1R0R E V 95;11.1771
1R0R E V 51;1R0R E L 96;8.46563
1R0R E V 51;1R0R E N 97;18.4361
1R0R E V 51;1R0R E G 102;0.332357
1R0R E V 51;1R0R E G 106;0.0165826
1R0R E A 52;1R0R E G 53;28.3389
1R0R E A 52;1R0R E E 54;6.63136
1R0R E G 53;1R0R E E 54;32.9657
1R0R E E 54;1R0R E A 55;27.5307
1R0R E E 54;1R0R E T 59;1.28634
1R0R E E 54;1R0R E G 61;2.51143
1R0R E E 54;1R0R E K 94;26.2663
1R0R E E 54;1R0R E L 96;0.647808
1R0R E E 54;1R0R E N 97;12.2367
1R0R E E 54;1R0R E S 98;7.54513
1R0R E E 54;1R0R E S 98;16.762
1R0R E A 55;1R0R E Y 57;22.4493
1R0R E A 55;1R0R E N 58;14.5281
1R0R E A 55;1R0R E T 59;21.0305
1R0R E A 55;1R0R E K 94;12.1401
1R0R E Y 57;1R0R E N 58;46.8895
1R0R E Y 57;1R0R E T 59;3.29772
1R0R E Y 57;1R0R E A 92;20.6562
1R0R E Y 57;1R0R E K 94;9.69637
1R0R E N 58;1R0R E T 59;31.3383
1R0R E N 58;1R0R E A 92;1.66044
1R0R E T 59;1R0R E D 60;24.8922
1R0R E T 59;1R0R E G 61;2.3686
1R0R E T 59;1R0R E K 94;16.9542
1R0R E D 60;1R0R E G 61;26.8015
1R0R E D 60;1R0R E N 62;7.87936
1R0R E D 60;1R0R E G 63;13.3637
1R0R E D 60;1R0R E H 64;0.32451
1R0R E D 60;1R0R E G 65;2.75268
1R0R E D 60;1R0R E T 66;12.778
1R0R E D 60;1R0R E K 94;1.38786
1R0R E D 60;1R0R E P 210;18.207
1R0R E G 61;1R0R E N 62;24.6229
1R0R E G 61;1R0R E K 94;1.86802
1R0R E G 61;1R0R E S 98;6.29598
1R0R E G 61;1R0R E S 98;21.1894
1R0R E N 62;1R0R E G 63;20.3365
1R0R E N 62;1R0R E H 64;15.8992
1R0R E N 62;1R0R E N 97;1.232
1R0R E N 62;1R0R E S 98;19.5193
1R0R E N 62;1R0R E S 99;7.88479
1R0R E N 62;1R0R E G 100;9.67188
1R0R E N 62;1R0R E Y 209;13.9445
1R0R E N 62;1R0R E P 210;0.212057
1R0R E N 62;1R0R I T 17;3.34259
1R0R E N 62;1R0R I E 19;5.0524
1R0R E G 63;1R0R E H 64;18.2525
1R0R E G 63;1R0R E G 65;0.773529
1R0R E G 63;1R0R E T 66;6.09851
1R0R E G 63;1R0R E H 67;7.13619
1R0R E G 63;1R0R E Y 209;16.2085
1R0R E G 63;1R0R E P 210;14.5717
1R0R E H 64;1R0R E G 65;16.8578
1R0R E H 64;1R0R E T 66;1.04381
1R0R E H 64;1R0R E H 67;9.21269
1R0R E H 64;1R0R E V 68;17.9623
1R0R E H 64;1R0R E L 96;0.501172
1R0R E H 64;1R0R E S 125;9.98862
1R0R E H 64;1R0R E Y 209;2.87116
1R0R E H 64;1R0R E L 217;8.19632
1R0R E H 64;1R0R E S 221;9.59422
1R0R E H 64;1R0R E M 222;7.59271
1R0R E H 64;1R0R I T 17;21.59
1R0R E H 64;1R0R I L 18;0.547032
1R0R E H 64;1R0R I E 19;18.045
1R0R E G 65;1R0R E T 66;15.2715
1R0R E G 65;1R0R E H 67;0.790279
1R0R E G 65;1R0R E V 68;7.30977
1R0R E G 65;1R0R E A 69;8.46394
1R0R E T 66;1R0R E H 67;16.1963
1R0R E T 66;1R0R E V 68;0.490139
1R0R E T 66;1R0R E A 69;7.19297
1R0R E T 66;1R0R E G 70;4.51499
1R0R E T 66;1R0R E T 208;14.6626
1R0R E T 66;1R0R E Y 209;7.69823
1R0R E T 66;1R0R E P 210;11.9764
1R0R E H 67;1R0R E V 68;19.9913
1R0R E H 67;1R0R E A 69;0.959279
1R0R E H 67;1R0R E G 70;3.39508
1R0R E H 67;1R0R E T 71;10.1511
1R0R E H 67;1R0R E V 205;13.7024
1R0R E H 67;1R0R E Y 206;0.669726
1R0R E H 67;1R0R E S 207;25.0831
1R0R E H 67;1R0R E T 208;12.827
1R0R E H 67;1R0R E Y 209;8.79519
1R0R E H 67;1R0R E A 215;11.2337
1R0R E H 67;1R0R E T 216;0.315854
1R0R E H 67;1R0R E L 217;22.5615
1R0R E H 67;1R0R E M 222;16.38
1R0R E V 68;1R0R E A 69;17.1544
1R0R E V 68;1R0R E G 70;0.993783
1R0R E V 68;1R0R E T 71;8.16458
1R0R E V 68;1R0R E V 72;8.84597
1R0R E V 68;1R0R E N 123;10.145
1R0R E V 68;1R0R E S 125;9.37354
1R0R E V 68;1R0R E S 221;6.77959
1R0R E V 68;1R0R E M 222;10.1511
1R0R E V 68;1R0R E P 225;18.9925
1R0R E A 69;1R0R E G 70;15.1998
1R0R E A 69;1R0R E T 71;0.97602
1R0R E A 69;1R0R E V 72;9.83885
1R0R E A 69;1R0R E A 73;8.86149
1R0R E A 69;1R0R E A 74;0.432273
1R0R E A 69;1R0R E L 90;11.3841
1R0R E G 70;1R0R E T 71;17.6481
1R0R E G 70;1R0R E V 72;0.735109
1R0R E G 70;1R0R E A 73;2.5563
1R0R E G 70;1R0R E A 74;15.2262
1R0R E G 70;1R0R E V 81;3.40106
1R0R E G 70;1R0R E L 82;2.04094
1R0R E G 70;1R0R E G 83;5.44109
1R0R E G 70;1R0R E S 207;8.53047
1R0R E G 70;1R0R E T 208;9.00543
1R0R E T 71;1R0R E V 72;17.4729
1R0R E T 71;1R0R E A 73;0.657891
1R0R E T 71;1R0R E L 82;0.690509
1R0R E T 71;1R0R E G 83;4.68538
1R0R E T 71;1R0R E V 84;14.1736
1R0R E T 71;1R0R E V 205;11.9523
1R0R E T 71;1R0R E Y 206;1.25668
1R0R E T 71;1R0R E S 207;11.1811
1R0R E T 71;1R0R E M 222;4.69045
1R0R E T 71;1R0R E P 225;15.8383
1R0R E T 71;1R0R E H 226;19.4488
1R0R E V 72;1R0R E A 73;21.2712
1R0R E V 72;1R0R E G 83;2.46211
1R0R E V 72;1R0R E V 84;6.07403
1R0R E V 72;1R0R E A 85;13.6445
1R0R E V 72;1R0R E V 88;8.09879
1R0R E V 72;1R0R E L 90;5.25468
1R0R E V 72;1R0R E N 123;3.85279
1R0R E V 72;1R0R E P 225;18.1599
1R0R E V 72;1R0R E A 228;7.31443
1R0R E V 72;1R0R E G 229;12.7315
1R0R E V 72;1R0R E A 232;0.405266
1R0R E A 73;1R0R E A 74;19.2116
1R0R E A 73;1R0R E L 75;9.03112
1R0R E A 73;1R0R E G 83;4.25447
1R0R E A 73;1R0R E A 85;4.64054
1R0R E A 73;1R0R E P 86;12.4349
1R0R E A 73;1R0R E V 88;12.7367
1R0R E A 73;1R0R E L 90;16.8595
1R0R E A 74;1R0R E L 75;18.457
1R0R E A 74;1R0R E D 76;0.109947
1R0R E A 74;1R0R E V 81;12.4094
1R0R E A 74;1R0R E L 82;9.18159
1R0R E A 74;1R0R E G 83;12.8924
1R0R E A 74;1R0R E P 86;7.06629
1R0R E A 74;1R0R E T 208;5.21279
1R0R E L 75;1R0R E D 76;21.9573
1R0R E L 75;1R0R E N 77;20.1689
1R0R E L 75;1R0R E T 79;0.0113361
1R0R E L 75;1R0R E V 81;4.65656
1R0R E L 75;1R0R E L 82;3.01459
1R0R E L 75;1R0R E P 86;16.9553
1R0R E D 76;1R0R E N 77;29.8057
1R0R E D 76;1R0R E L 82;17.637
1R0R E D 76;1R0R E P 86;16.9156
1R0R E N 77;1R0R E T 78;31.5086
1R0R E N 77;1R0R E T 79;21.0627
1R0R E T 78;1R0R E T 79;26.6171
1R0R E T 79;1R0R E G 80;23.4934
1R0R E T 79;1R0R E V 81;2.98496
1R0R E T 79;1R0R E Y 214;8.57551
1R0R E G 80;1R0R E V 81;20.4479
1R0R E G 80;1R0R E Y 206;0.201268
1R0R E G 80;1R0R E Y 214;20.7153
1R0R E V 81;1R0R E L 82;20.8595
1R0R E V 81;1R0R E Y 206;18.4654
1R0R E V 81;1R0R E S 207;12.6623
1R0R E V 81;1R0R E T 208;8.8033
1R0R E V 81;1R0R E Y 214;14.2687
1R0R E L 82;1R0R E G 83;25.1445
1R0R E L 82;1R0R E P 86;8.86356
1R0R E G 83;1R0R E V 84;14.7306
1R0R E G 83;1R0R E A 85;1.98683
1R0R E G 83;1R0R E P 86;9.47668
1R0R E V 84;1R0R E A 85;15.8311
1R0R E V 84;1R0R E P 86;3.24461
1R0R E V 84;1R0R E P 225;1.73122
1R0R E V 84;1R0R E H 226;16.6329
1R0R E V 84;1R0R E G 229;11.2754
1R0R E V 84;1R0R E A 230;6.16736
1R0R E V 84;1R0R E L 233;16.1373
1R0R E V 84;1R0R E V 270;0.395678
1R0R E A 85;1R0R E P 86;18.3327
1R0R E A 85;1R0R E S 87;2.17688
1R0R E A 85;1R0R E V 88;18.2427
1R0R E A 85;1R0R E G 229;9.44013
1R0R E A 85;1R0R E A 232;5.4698
1R0R E A 85;1R0R E L 233;10.9821
1R0R E P 86;1R0R E S 87;25.9509
1R0R E P 86;1R0R E V 88;5.3447
1R0R E P 86;1R0R E L 233;0.688191
1R0R E S 87;1R0R E V 88;25.3283
1R0R E S 87;1R0R E S 89;3.24544
1R0R E V 88;1R0R E S 89;24.4514
1R0R E V 88;1R0R E L 90;14.9418
1R0R E V 88;1R0R E A 232;8.19269
1R0R E S 89;1R0R E L 90;17.0967
1R0R E S 89;1R0R E Y 91;15.4633
1R0R E L 90;1R0R E Y 91;25.0831
1R0R E Y 91;1R0R E A 92;16.918
1R0R E Y 91;1R0R E V 93;6.90242
1R0R E Y 91;1R0R E W 113;12.715
1R0R E Y 91;1R0R E M 119;23.3157
1R0R E A 92;1R0R E V 93;20.2633
1R0R E A 92;1R0R E K 94;2.06861
1R0R E V 93;1R0R E K 94;18.5997
1R0R E V 93;1R0R E V 95;10.7811
1R0R E V 93;1R0R E G 110;10.9322
1R0R E V 93;1R0R E W 113;17.4007
1R0R E V 93;1R0R E A 114;2.11878
1R0R E K 94;1R0R E V 95;18.4408
1R0R E K 94;1R0R E L 96;8.68357
1R0R E K 94;1R0R E N 97;0.156204
1R0R E V 95;1R0R E L 96;26.8535
1R0R E V 95;1R0R E G 102;6.57052
1R0R E V 95;1R0R E S 103;3.51327
1R0R E V 95;1R0R E G 106;15.2414
1R0R E V 95;1R0R E I 107;22.4379
1R0R E V 95;1R0R E G 110;6.919
1R0R E V 95;1R0R E L 126;8.10251
1R0R E L 96;1R0R E N 97;21.4702
1R0R E L 96;1R0R E G 100;7.39434
1R0R E L 96;1R0R E S 101;10.9336
1R0R E L 96;1R0R E G 102;9.69401
1R0R E L 96;1R0R E I 107;6.5648
1R0R E L 96;1R0R E S 125;1.26003
1R0R E L 96;1R0R E L 126;18.8793
1R0R E L 96;1R0R I A 15;8.22566
1R0R E L 96;1R0R I C 16;4.12067
1R0R E L 96;1R0R I T 17;12.6407
1R0R E N 97;1R0R E S 98;19.7441
1R0R E N 97;1R0R E S 99;6.92812
1R0R E N 97;1R0R E S 99;9.87905
1R0R E N 97;1R0R E G 100;8.34902
1R0R E N 97;1R0R E S 101;28.1198
1R0R E N 97;1R0R E G 102;0.598161
1R0R E N 97;1R0R I E 10;5.46228
1R0R E N 97;1R0R I K 13;11.9794
1R0R E S 98;1R0R E S 99;20.0957
1R0R E S 98;1R0R E S 99;0.200553
1R0R E S 98;1R0R E G 100;1.90428
1R0R E S 98;1R0R E S 99;2.85057
1R0R E S 98;1R0R E S 99;1.27118
1R0R E S 99;1R0R E G 100;18.1433
1R0R E S 99;1R0R E S 101;2.5722
1R0R E S 99;1R0R I Y 11;5.76483
1R0R E S 99;1R0R I K 34;1.75951
1R0R E S 99;1R0R I C 35;6.45882
1R0R E S 99;1R0R E S 101;5.27891
1R0R E S 99;1R0R I E 10;8.47773
1R0R E S 99;1R0R I Y 11;13.3489
1R0R E G 100;1R0R E S 101;17.7381
1R0R E G 100;1R0R I C 16;4.30343
1R0R E G 100;1R0R I T 17;19.6592
1R0R E G 100;1R0R I C 35;7.90549
1R0R E S 101;1R0R E G 102;19.3524
1R0R E S 101;1R0R I E 10;2.52043
1R0R E S 101;1R0R I Y 11;13.2097
1R0R E S 101;1R0R I K 13;15.1373
1R0R E S 101;1R0R I A 15;5.40209
1R0R E S 101;1R0R I C 16;0.993975
1R0R E S 101;1R0R I C 35;9.41566
1R0R E G 102;1R0R E S 103;23.8314
1R0R E G 102;1R0R E I 107;1.56987
1R0R E G 102;1R0R I K 13;16.6798
1R0R E G 102;1R0R I P 14;5.68624
1R0R E G 102;1R0R I A 15;17.6975
1R0R E S 103;1R0R E Y 104;19.978
1R0R E S 103;1R0R E S 105;16.9706
1R0R E S 103;1R0R E G 106;16.2032
1R0R E S 103;1R0R E I 107;12.3218
1R0R E S 103;1R0R I K 13;9.29385
1R0R E S 103;1R0R I P 14;10.0349
1R0R E S 103;1R0R I A 15;1.26786
1R0R E Y 104;1R0R E S 105;22.4557
1R0R E Y 104;1R0R E G 106;0.939717
1R0R E Y 104;1R0R E I 107;17.4132
1R0R E Y 104;1R0R E V 108;13.814
1R0R E Y 104;1R0R E G 127;0.00281144
1R0R E Y 104;1R0R E G 128;14.1123
1R0R E Y 104;1R0R E A 129;2.8266
1R0R E Y 104;1R0R E S 130;14.8957
1R0R E Y 104;1R0R E G 131;21.023
1R0R E Y 104;1R0R E S 132;20.748
1R0R E Y 104;1R0R E M 135;19.6194
1R0R E Y 104;1R0R E Y 167;2.31888
1R0R E Y 104;1R0R I P 14;35.1317
1R0R E Y 104;1R0R I A 15;9.33651
1R0R E S 105;1R0R E G 106;20.6122
1R0R E S 105;1R0R E I 107;0.777444
1R0R E S 105;1R0R E V 108;14.7614
1R0R E S 105;1R0R E S 109;14.8048
1R0R E G 106;1R0R E I 107;15.5648
1R0R E G 106;1R0R E V 108;0.623576
1R0R E G 106;1R0R E S 109;8.82089
1R0R E G 106;1R0R E G 110;4.75435
1R0R E I 107;1R0R E V 108;17.512
1R0R E I 107;1R0R E S 109;0.912084
1R0R E I 107;1R0R E G 110;4.4779
1R0R E I 107;1R0R E I 111;17.224
1R0R E I 107;1R0R E M 124;8.7868
1R0R E I 107;1R0R E L 126;19.1542
1R0R E I 107;1R0R E M 135;15.8627
1R0R E I 107;1R0R E P 168;0.101998
1R0R E I 107;1R0R I A 15;12.7338
1R0R E V 108;1R0R E S 109;19.0424
1R0R E V 108;1R0R E G 110;1.0973
1R0R E V 108;1R0R E I 111;11.4331
1R0R E V 108;1R0R E E 112;27.2266
1R0R E V 108;1R0R E S 132;3.46992
1R0R E V 108;1R0R E A 134;24.2085
1R0R E V 108;1R0R E M 135;7.21954
1R0R E V 108;1R0R E M 135;6.23098
1R0R E V 108;1R0R E A 138;12.0402
1R0R E S 109;1R0R E G 110;14.7395
1R0R E S 109;1R0R E I 111;0.493887
1R0R E S 109;1R0R E E 112;17.9405
1R0R E S 109;1R0R E W 113;9.83104
1R0R E G 110;1R0R E I 111;14.6575
1R0R E G 110;1R0R E E 112;0.913835
1R0R E G 110;1R0R E W 113;7.71476
1R0R E G 110;1R0R E A 114;9.03209
1R0R E I 111;1R0R E E 112;18.8311
1R0R E I 111;1R0R E W 113;0.705163
1R0R E I 111;1R0R E A 114;7.19497
1R0R E I 111;1R0R E T 115;12.6954
1R0R E I 111;1R0R E I 122;15.4658
1R0R E I 111;1R0R E M 124;13.2039
1R0R E I 111;1R0R E M 135;1.5898
1R0R E I 111;1R0R E M 135;8.29801
1R0R E I 111;1R0R E A 138;21.8214
1R0R E I 111;1R0R E V 139;15.5661
1R0R E I 111;1R0R E A 142;6.73427
1R0R E I 111;1R0R E V 149;0.915423
1R0R E I 111;1R0R E P 168;0.10438
1R0R E E 112;1R0R E W 113;19.3797
1R0R E E 112;1R0R E A 114;0.929682
1R0R E E 112;1R0R E T 115;12.3121
1R0R E E 112;1R0R E T 116;16.23
1R0R E E 112;1R0R E A 138;12.5684
1R0R E E 112;1R0R E N 141;3.96883
1R0R E W 113;1R0R E A 114;24.2768
1R0R E W 113;1R0R E T 115;0.890509
1R0R E W 113;1R0R E T 116;9.25866
1R0R E W 113;1R0R E N 117;45.3649
1R0R E W 113;1R0R E M 119;11.8751
1R0R E A 114;1R0R E T 115;19.7245
1R0R E A 114;1R0R E T 116;0.39876
1R0R E A 114;1R0R E N 117;5.19995
1R0R E A 114;1R0R E G 118;2.77673
1R0R E A 114;1R0R E M 119;23.447
1R0R E A 114;1R0R E I 122;13.2735
1R0R E A 114;1R0R E V 147;1.14723
1R0R E T 115;1R0R E T 116;25.6433
1R0R E T 115;1R0R E N 117;1.48506
1R0R E T 115;1R0R E G 118;11.1132
1R0R E T 115;1R0R E M 119;0.370891
1R0R E T 115;1R0R E I 122;3.53168
1R0R E T 115;1R0R E A 138;1.02662
1R0R E T 115;1R0R E N 141;16.2451
1R0R E T 115;1R0R E A 142;15.8808
1R0R E T 115;1R0R E R 145;16.4854
1R0R E T 115;1R0R E V 147;15.5143
1R0R E T 116;1R0R E N 117;32.081
1R0R E T 116;1R0R E G 118;5.11171
1R0R E N 117;1R0R E G 118;21.4958
1R0R E N 117;1R0R E M 119;15.6688
1R0R E G 118;1R0R E M 119;25.5081
1R0R E G 118;1R0R E D 120;8.99906
1R0R E G 118;1R0R E V 147;0.0417411
1R0R E M 119;1R0R E D 120;21.2763
1R0R E M 119;1R0R E V 121;7.02292
1R0R E M 119;1R0R E I 122;3.96838
1R0R E M 119;1R0R E G 146;0.921405
1R0R E M 119;1R0R E V 147;19.8001
1R0R E D 120;1R0R E V 121;21.5821
1R0R E D 120;1R0R E G 146;8.04369
1R0R E D 120;1R0R E V 147;7.75093
1R0R E D 120;1R0R E V 148;9.86187
1R0R E D 120;1R0R E L 235;15.0084
1R0R E V 121;1R0R E I 122;23.989
1R0R E V 121;1R0R E N 123;0.332435
1R0R E V 121;1R0R E V 147;5.00461
1R0R E V 121;1R0R E V 148;16.6441
1R0R E V 121;1R0R E V 150;5.73657
1R0R E V 121;1R0R E A 228;15.9461
1R0R E V 121;1R0R E A 231;10.1544
1R0R E V 121;1R0R E A 232;6.22087
1R0R E V 121;1R0R E L 235;7.29113
1R0R E I 122;1R0R E N 123;21.8375
1R0R E I 122;1R0R E M 124;12.2106
1R0R E I 122;1R0R E A 142;6.77001
1R0R E I 122;1R0R E V 147;15.7223
1R0R E I 122;1R0R E V 148;6.76795
1R0R E I 122;1R0R E V 149;19.5195
1R0R E I 122;1R0R E V 150;12.4329
1R0R E I 122;1R0R E A 228;0.656561
1R0R E N 123;1R0R E M 124;20.7374
1R0R E N 123;1R0R E S 125;11.6284
1R0R E N 123;1R0R E V 150;9.09394
1R0R E N 123;1R0R E S 224;11.8614
1R0R E N 123;1R0R E P 225;9.5693
1R0R E N 123;1R0R E A 228;12.9205
1R0R E M 124;1R0R E S 125;16.2035
1R0R E M 124;1R0R E L 126;26.0956
1R0R E M 124;1R0R E M 135;0.885871
1R0R E M 124;1R0R E V 139;6.80046
1R0R E M 124;1R0R E V 149;10.4909
1R0R E M 124;1R0R E V 150;10.5365
1R0R E M 124;1R0R E A 151;15.2677
1R0R E M 124;1R0R E A 152;5.62974
1R0R E M 124;1R0R E P 168;17.7829
1R0R E M 124;1R0R E V 174;3.18209
1R0R E M 124;1R0R E S 224;2.65303
1R0R E S 125;1R0R E L 126;20.5384
1R0R E S 125;1R0R E A 152;6.55918
1R0R E S 125;1R0R E S 221;17.9421
1R0R E S 125;1R0R E S 224;6.69198
1R0R E S 125;1R0R E P 225;3.11317
1R0R E S 125;1R0R I T 17;3.79191
1R0R E S 125;1R0R I L 18;5.39476
1R0R E L 126;1R0R E G 127;21.9184
1R0R E L 126;1R0R E M 135;1.59571
1R0R E L 126;1R0R E A 151;2.25034
1R0R E L 126;1R0R E A 152;6.40953
1R0R E L 126;1R0R E Y 167;0.235061
1R0R E L 126;1R0R E P 168;18.1854
1R0R E L 126;1R0R E A 169;0.0373068
1R0R E L 126;1R0R I A 15;6.54856
1R0R E L 126;1R0R I C 16;7.95882
1R0R E L 126;1R0R I T 17;3.71586
1R0R E L 126;1R0R I L 18;13.9662
1R0R E G 127;1R0R E G 128;24.1593
1R0R E G 127;1R0R E A 152;0.0518324
1R0R E G 127;1R0R E G 166;2.73652
1R0R E G 127;1R0R E Y 167;8.92204
1R0R E G 127;1R0R E P 168;2.00527
1R0R E G 127;1R0R I P 14;2.01307
1R0R E G 127;1R0R I A 15;8.376
1R0R E G 127;1R0R I C 16;18.7958
1R0R E G 127;1R0R I L 18;15.7133
1R0R E G 127;1R0R I N 36;0.024092
1R0R E G 128;1R0R E A 129;25.5123
1R0R E G 128;1R0R E S 130;1.88532
1R0R E G 128;1R0R E G 131;0.622015
1R0R E G 128;1R0R E G 166;7.8846
1R0R E G 128;1R0R E Y 167;19.149
1R0R E G 128;1R0R I P 14;9.91847
1R0R E G 128;1R0R I A 15;2.51206
1R0R E A 129;1R0R E S 130;28.0041
1R0R E A 129;1R0R E I 165;0.436113
1R0R E A 129;1R0R E G 166;5.483
1R0R E A 129;1R0R E Y 167;12.3768
1R0R E A 129;1R0R I P 14;2.44159
1R0R E S 130;1R0R E G 131;32.2159
1R0R E S 130;1R0R E S 132;0.54735
1R0R E S 130;1R0R E Y 167;17.9709
1R0R E S 130;1R0R E Y 171;2.03203
1R0R E S 130;1R0R I P 14;0.902394
1R0R E G 131;1R0R E S 132;25.4098
1R0R E G 131;1R0R E M 135;6.36115
1R0R E G 131;1R0R E Y 167;11.7929
1R0R E G 131;1R0R E Y 171;5.73638
1R0R E S 132;1R0R E T 133;26.9828
1R0R E S 132;1R0R E A 134;11.0108
1R0R E S 132;1R0R E M 135;6.90028
1R0R E S 132;1R0R E M 135;11.737
1R0R E S 132;1R0R E K 136;6.78046
1R0R E S 132;1R0R E Y 171;11.9076
1R0R E T 133;1R0R E A 134;21.1053
1R0R E T 133;1R0R E M 135;0.858123
1R0R E T 133;1R0R E K 136;14.7366
1R0R E T 133;1R0R E Q 137;29.504
1R0R E A 134;1R0R E M 135;14.7884
1R0R E A 134;1R0R E K 136;0.605278
1R0R E A 134;1R0R E Q 137;21.9674
1R0R E A 134;1R0R E A 138;9.54613
1R0R E M 135;1R0R E K 136;14.1244
1R0R E M 135;1R0R E Q 137;0.80145
1R0R E M 135;1R0R E A 138;7.61452
1R0R E M 135;1R0R E V 139;10.6482
1R0R E M 135;1R0R E Y 171;1.51533
1R0R E M 135;1R0R E K 136;1.19694
1R0R E M 135;1R0R E V 139;3.86038
1R0R E M 135;1R0R E Y 167;8.79414
1R0R E M 135;1R0R E P 168;20.1338
1R0R E M 135;1R0R E Y 171;12.8392
1R0R E K 136;1R0R E Q 137;21.8727
1R0R E K 136;1R0R E A 138;1.02211
1R0R E K 136;1R0R E V 139;9.98
1R0R E K 136;1R0R E D 140;37.1552
1R0R E K 136;1R0R E Y 171;32.2274
1R0R E Q 137;1R0R E A 138;19.5401
1R0R E Q 137;1R0R E V 139;0.576957
1R0R E Q 137;1R0R E D 140;11.1928
1R0R E Q 137;1R0R E N 141;13.7635
1R0R E A 138;1R0R E V 139;15.9875
1R0R E A 138;1R0R E D 140;0.760303
1R0R E A 138;1R0R E N 141;11.6582
1R0R E A 138;1R0R E A 142;8.19233
1R0R E V 139;1R0R E D 140;19.4069
1R0R E V 139;1R0R E N 141;1.0229
1R0R E V 139;1R0R E A 142;8.33923
1R0R E V 139;1R0R E Y 143;8.33785
1R0R E V 139;1R0R E V 149;13.834
1R0R E V 139;1R0R E P 168;5.91607
1R0R E V 139;1R0R E Y 171;13.1312
1R0R E V 139;1R0R E S 173;0.274576
1R0R E V 139;1R0R E S 173;13.1723
1R0R E V 139;1R0R E V 174;12.6152
1R0R E D 140;1R0R E N 141;19.8982
1R0R E D 140;1R0R E A 142;0.620461
1R0R E D 140;1R0R E Y 143;5.93211
1R0R E D 140;1R0R E A 144;15.1625
1R0R E D 140;1R0R E Y 171;2.30709
1R0R E D 140;1R0R E D 172;0.498376
1R0R E D 140;1R0R E S 173;2.34501
1R0R E D 140;1R0R E S 173;17.749
1R0R E N 141;1R0R E A 142;18.5408
1R0R E N 141;1R0R E Y 143;0.795542
1R0R E N 141;1R0R E A 144;9.65291
1R0R E N 141;1R0R E R 145;36.3964
1R0R E A 142;1R0R E Y 143;16.3046
1R0R E A 142;1R0R E A 144;0.665223
1R0R E A 142;1R0R E R 145;6.63191
1R0R E A 142;1R0R E G 146;2.30586
1R0R E A 142;1R0R E V 147;19.505
1R0R E A 142;1R0R E V 149;8.42633
1R0R E Y 143;1R0R E A 144;26.123
1R0R E Y 143;1R0R E R 145;1.28029
1R0R E Y 143;1R0R E G 146;8.28569
1R0R E Y 143;1R0R E V 147;12.7214
1R0R E Y 143;1R0R E V 148;3.9402
1R0R E Y 143;1R0R E V 149;10.7927
1R0R E Y 143;1R0R E D 172;0.89663
1R0R E Y 143;1R0R E S 173;17.1128
1R0R E Y 143;1R0R E S 173;12.6255
1R0R E Y 143;1R0R E A 243;18.5637
1R0R E Y 143;1R0R E S 244;9.16215
1R0R E Y 143;1R0R E S 244;14.2402
1R0R E Y 143;1R0R E R 247;30.523
1R0R E A 144;1R0R E R 145;27.286
1R0R E A 144;1R0R E G 146;4.92102
1R0R E R 145;1R0R E G 146;23.9325
1R0R E R 145;1R0R E V 147;6.7916
1R0R E G 146;1R0R E V 147;20.6837
1R0R E G 146;1R0R E V 148;2.44929
1R0R E G 146;1R0R E S 242;0.0515861
1R0R E G 146;1R0R E A 243;20.6232
1R0R E V 147;1R0R E V 148;20.4109
1R0R E V 147;1R0R E V 149;11.7938
1R0R E V 147;1R0R E A 243;6.05445
1R0R E V 148;1R0R E V 149;21.8315
1R0R E V 148;1R0R E V 150;10.2122
1R0R E V 148;1R0R E I 175;12.0551
1R0R E V 148;1R0R E A 231;11.3157
1R0R E V 148;1R0R E L 235;8.28815
1R0R E V 148;1R0R E A 243;19.7463
1R0R E V 148;1R0R E V 246;14.5453
1R0R E V 148;1R0R E R 247;4.83849
1R0R E V 148;1R0R E L 250;2.12571
1R0R E V 149;1R0R E V 150;21.8437
1R0R E V 149;1R0R E S 173;10.3606
1R0R E V 149;1R0R E V 174;18.6864
1R0R E V 149;1R0R E I 175;12.8133
1R0R E V 150;1R0R E A 151;19.3775
1R0R E V 150;1R0R E V 174;3.35907
1R0R E V 150;1R0R E I 175;16.5054
1R0R E V 150;1R0R E V 177;7.94263
1R0R E V 150;1R0R E S 224;13.1315
1R0R E V 150;1R0R E V 227;13.3194
1R0R E V 150;1R0R E A 228;13.0617
1R0R E V 150;1R0R E A 231;2.39233
1R0R E V 150;1R0R E L 250;0.0927643
1R0R E A 151;1R0R E A 152;20.1357
1R0R E A 151;1R0R E A 153;0.907936
1R0R E A 151;1R0R E P 168;8.2576
1R0R E A 151;1R0R E A 169;11.8283
1R0R E A 151;1R0R E V 174;10.9673
1R0R E A 151;1R0R E I 175;8.686
1R0R E A 151;1R0R E A 176;3.22385
1R0R E A 151;1R0R E V 177;9.63554
1R0R E A 151;1R0R E S 224;7.20098
1R0R E A 152;1R0R E A 153;16.8672
1R0R E A 152;1R0R E G 154;1.88519
1R0R E A 152;1R0R E P 168;4.43492e-05
1R0R E A 152;1R0R E A 169;9.31888
1R0R E A 152;1R0R E V 177;4.59753
1R0R E A 152;1R0R E T 220;13.5543
1R0R E A 152;1R0R E S 221;5.61861
1R0R E A 152;1R0R E S 224;10.0906
1R0R E A 152;1R0R I L 18;17.9104
1R0R E A 153;1R0R E G 154;20.2906
1R0R E A 153;1R0R E T 164;0.10267
1R0R E A 153;1R0R E I 165;16.5184
1R0R E A 153;1R0R E G 166;8.83024
1R0R E A 153;1R0R E A 169;8.83698
1R0R E A 153;1R0R E A 176;7.76508
1R0R E A 153;1R0R E V 177;13.5919
1R0R E A 153;1R0R E G 178;4.3654
1R0R E A 153;1R0R E S 190;0.251016
1R0R E A 153;1R0R E S 191;11.2683
1R0R E A 153;1R0R E L 196;7.84401
1R0R E A 153;1R0R E T 220;6.55167
1R0R E A 153;1R0R I L 18;0.789586
1R0R E G 154;1R0R E N 155;19.1125
1R0R E G 154;1R0R E S 156;1.50254
1R0R E G 154;1R0R E T 164;1.08175
1R0R E G 154;1R0R E G 166;3.90108
1R0R E G 154;1R0R E F 189;0.141301
1R0R E G 154;1R0R E S 190;1.87012
1R0R E G 154;1R0R E S 191;17.4478
1R0R E G 154;1R0R E T 220;14.9834
1R0R E G 154;1R0R I L 18;15.5961
1R0R E N 155;1R0R E S 156;27.6673
1R0R E N 155;1R0R E G 157;2.46701
1R0R E N 155;1R0R E F 189;26.5268
1R0R E N 155;1R0R E S 190;0.246698
1R0R E N 155;1R0R E S 191;0.876375
1R0R E N 155;1R0R E G 219;3.44717
1R0R E N 155;1R0R E T 220;12.5696
1R0R E N 155;1R0R I L 18;27.4728
1R0R E N 155;1R0R I E 19;5.49215
1R0R E N 155;1R0R I Y 20;22.7567
1R0R E N 155;1R0R I G 32;8.65802
1R0R E S 156;1R0R E G 157;24.1991
1R0R E S 156;1R0R E N 158;3.34086
1R0R E S 156;1R0R E T 164;27.1262
1R0R E S 156;1R0R E F 189;1.01352
1R0R E S 156;1R0R E S 191;10.3733
1R0R E G 157;1R0R E N 158;21.7231
1R0R E G 157;1R0R E T 164;9.0475
1R0R E G 157;1R0R E R 186;4.26813
1R0R E G 157;1R0R E S 188;8.33927
1R0R E G 157;1R0R E F 189;12.0469
1R0R E G 157;1R0R E S 190;5.31951
1R0R E G 157;1R0R E S 191;5.84058
1R0R E G 157;1R0R E V 192;5.77176
1R0R E N 158;1R0R E S 159;35.3368
1R0R E N 158;1R0R E G 160;5.42397
1R0R E N 158;1R0R E T 162;0.045397
1R0R E N 158;1R0R E T 164;4.44416
1R0R E N 158;1R0R E R 186;20.5253
1R0R E N 158;1R0R E S 188;2.32431
1R0R E N 158;1R0R E V 192;13.8489
1R0R E N 158;1R0R E F 261;0.980949
1R0R E N 158;1R0R E Y 262;19.5653
1R0R E S 159;1R0R E G 160;32.0639
1R0R E S 159;1R0R E S 161;1.64201
1R0R E S 159;1R0R E T 162;27.8613
1R0R E S 159;1R0R E T 164;5.9114
1R0R E S 159;1R0R E V 192;0.562191
1R0R E G 160;1R0R E S 161;23.8573
1R0R E G 160;1R0R E S 161;2.0317
1R0R E G 160;1R0R E T 162;3.27158
1R0R E G 160;1R0R E V 192;0.417032
1R0R E G 160;1R0R E F 261;9.00432
1R0R E G 160;1R0R E Y 262;9.12646
1R0R E S 161;1R0R E T 162;24.7351
1R0R E S 161;1R0R E N 163;5.70932
1R0R E S 161;1R0R E F 261;18.2006
1R0R E S 161;1R0R E T 162;0.0208783
1R0R E S 161;1R0R E F 261;1.82538
1R0R E T 162;1R0R E N 163;31.4872
1R0R E T 162;1R0R E T 164;18.4629
1R0R E T 162;1R0R E V 192;7.19205
1R0R E T 162;1R0R E F 261;6.12278
1R0R E N 163;1R0R E T 164;21.7992
1R0R E N 163;1R0R E I 165;15.4574
1R0R E N 163;1R0R E K 170;21.1932
1R0R E N 163;1R0R E V 192;4.40467
1R0R E N 163;1R0R E G 193;10.5085
1R0R E N 163;1R0R E A 194;9.97326
1R0R E N 163;1R0R E E 195;11.259
1R0R E N 163;1R0R E F 261;4.89533
1R0R E T 164;1R0R E I 165;22.2696
1R0R E T 164;1R0R E G 166;4.54776
1R0R E T 164;1R0R E S 191;15.3704
1R0R E T 164;1R0R E V 192;16.6359
1R0R E I 165;1R0R E G 166;26.1883
1R0R E I 165;1R0R E Y 167;1.81461
1R0R E I 165;1R0R E A 169;6.67412
1R0R E I 165;1R0R E K 170;25.5818
1R0R E I 165;1R0R E A 176;7.05076
1R0R E I 165;1R0R E S 191;11.562
1R0R E I 165;1R0R E V 192;12.0005
1R0R E I 165;1R0R E G 193;6.33912
1R0R E I 165;1R0R E E 195;13.7084
1R0R E I 165;1R0R E L 196;15.0202
1R0R E G 166;1R0R E Y 167;23.5007
1R0R E G 166;1R0R E A 169;8.10091
1R0R E G 166;1R0R E K 170;9.38354
1R0R E Y 167;1R0R E P 168;22.3841
1R0R E Y 167;1R0R E A 169;3.87678
1R0R E Y 167;1R0R E K 170;37.4783
1R0R E Y 167;1R0R E Y 171;28.7733
1R0R E P 168;1R0R E A 169;17.7421
1R0R E P 168;1R0R E K 170;2.79795
1R0R E P 168;1R0R E Y 171;19.4546
1R0R E P 168;1R0R E V 174;14.0593
1R0R E A 169;1R0R E K 170;16.0761
1R0R E A 169;1R0R E Y 171;6.33675
1R0R E A 169;1R0R E V 174;13.8718
1R0R E A 169;1R0R E I 175;0.00146139
1R0R E A 169;1R0R E A 176;19.2693
1R0R E A 169;1R0R E E 195;3.74817
1R0R E K 170;1R0R E Y 171;23.0792
1R0R E K 170;1R0R E D 172;7.63405
1R0R E K 170;1R0R E E 195;36.4753
1R0R E Y 171;1R0R E D 172;24.6794
1R0R E Y 171;1R0R E S 173;3.88742
1R0R E Y 171;1R0R E S 173;3.17318
1R0R E Y 171;1R0R E V 174;19.1337
1R0R E Y 171;1R0R E E 195;0.00281521
1R0R E D 172;1R0R E S 173;22.0681
1R0R E D 172;1R0R E V 174;3.27559
1R0R E D 172;1R0R E E 195;9.99663
1R0R E D 172;1R0R E R 247;19.2681
1R0R E S 173;1R0R E V 174;19.0893
1R0R E S 173;1R0R E I 175;0.560347
1R0R E S 173;1R0R E R 247;7.97587
1R0R E S 173;1R0R E V 174;2.80708
1R0R E V 174;1R0R E I 175;22.4458
1R0R E V 174;1R0R E A 176;4.74067
1R0R E V 174;1R0R E E 195;0.313282
1R0R E V 174;1R0R E E 197;2.8322
1R0R E V 174;1R0R E R 247;10.6722
1R0R E I 175;1R0R E A 176;19.6746
1R0R E I 175;1R0R E V 177;9.9573
1R0R E I 175;1R0R E E 197;19.9418
1R0R E I 175;1R0R E V 198;10.6392
1R0R E I 175;1R0R E V 227;10.1205
1R0R E I 175;1R0R E R 247;27.1741
1R0R E I 175;1R0R E L 250;11.5423
1R0R E I 175;1R0R E S 251;0.0405643
1R0R E A 176;1R0R E V 177;17.087
1R0R E A 176;1R0R E E 195;11.5819
1R0R E A 176;1R0R E L 196;9.72803
1R0R E A 176;1R0R E E 197;15.4581
1R0R E A 176;1R0R E V 198;5.92481
1R0R E V 177;1R0R E G 178;19.9371
1R0R E V 177;1R0R E L 196;0.47776
1R0R E V 177;1R0R E V 198;13.7954
1R0R E V 177;1R0R E M 199;3.2952
1R0R E V 177;1R0R E A 200;5.92216
1R0R E V 177;1R0R E T 220;7.18475
1R0R E V 177;1R0R E A 223;10.8829
1R0R E V 177;1R0R E S 224;11.8851
1R0R E V 177;1R0R E V 227;14.7675
1R0R E G 178;1R0R E A 179;14.8376
1R0R E G 178;1R0R E S 190;6.62183
1R0R E G 178;1R0R E S 191;0.222697
1R0R E G 178;1R0R E L 196;10.157
1R0R E G 178;1R0R E V 198;4.59319
1R0R E G 178;1R0R E M 199;14.8875
1R0R E G 178;1R0R E A 200;5.68819
1R0R E G 178;1R0R E T 220;5.65313
1R0R E G 178;1R0R E A 223;6.21684
1R0R E A 179;1R0R E V 180;19.0568
1R0R E A 179;1R0R E R 186;3.96985
1R0R E A 179;1R0R E A 187;13.9011
1R0R E A 179;1R0R E F 189;8.3508
1R0R E A 179;1R0R E S 190;13.1023
1R0R E A 179;1R0R E M 199;9.65976
1R0R E A 179;1R0R E A 200;3.62514
1R0R E A 179;1R0R E G 202;10.926
1R0R E A 179;1R0R E A 203;0.0737448
1R0R E A 179;1R0R E G 219;2.43668
1R0R E A 179;1R0R E T 220;10.9226
1R0R E A 179;1R0R E A 223;5.32516
1R0R E V 180;1R0R E D 181;23.4104
1R0R E V 180;1R0R E S 184;14.2259
1R0R E V 180;1R0R E N 185;8.20755
1R0R E V 180;1R0R E R 186;7.26175
1R0R E V 180;1R0R E A 187;5.04818
1R0R E V 180;1R0R E M 199;16.2732
1R0R E V 180;1R0R E A 200;11.6456
1R0R E V 180;1R0R E P 201;11.2099
1R0R E V 180;1R0R E G 202;6.2971
1R0R E V 180;1R0R E A 203;6.456
1R0R E V 180;1R0R E L 257;11.1268
1R0R E V 180;1R0R E Y 263;2.60437
1R0R E V 180;1R0R E L 267;11.1046
1R0R E D 181;1R0R E S 182;21.7532
1R0R E D 181;1R0R E N 183;19.1771
1R0R E D 181;1R0R E S 184;8.83157
1R0R E D 181;1R0R E N 185;27.605
1R0R E D 181;1R0R E R 186;1.83598
1R0R E D 181;1R0R E A 187;6.26559
1R0R E D 181;1R0R E P 201;0.332611
1R0R E D 181;1R0R E A 203;18.9218
1R0R E S 182;1R0R E N 183;28.0124
1R0R E S 182;1R0R E S 184;4.24441
1R0R E S 182;1R0R E A 203;0.939842
1R0R E N 183;1R0R E S 184;25.2799
1R0R E N 183;1R0R E N 185;24.0908
1R0R E S 184;1R0R E N 185;22.4026
1R0R E S 184;1R0R E R 186;0.787158
1R0R E S 184;1R0R E L 257;25.4708
1R0R E S 184;1R0R E Y 263;2.6759
1R0R E S 184;1R0R E L 267;11.3627
1R0R E N 185;1R0R E R 186;29.6636
1R0R E N 185;1R0R E A 187;2.52346
1R0R E N 185;1R0R E Y 263;2.06013
1R0R E R 186;1R0R E A 187;29.0513
1R0R E R 186;1R0R E S 188;21.7793
1R0R E R 186;1R0R E S 188;2.20005
1R0R E R 186;1R0R E F 189;0.00193983
1R0R E R 186;1R0R E S 190;18.4978
1R0R E R 186;1R0R E S 191;0.369052
1R0R E R 186;1R0R E V 192;10.3743
1R0R E R 186;1R0R E M 199;9.10133
1R0R E R 186;1R0R E Y 262;24.4838
1R0R E R 186;1R0R E Y 263;25.8874
1R0R E A 187;1R0R E S 188;21.3063
1R0R E A 187;1R0R E F 189;20.4514
1R0R E A 187;1R0R E S 190;11.9867
1R0R E A 187;1R0R E G 202;0.218446
1R0R E A 187;1R0R E A 203;9.77942
1R0R E S 188;1R0R E F 189;20.4838
1R0R E S 188;1R0R E S 190;1.85919
1R0R E S 188;1R0R E F 189;4.41733
1R0R E S 188;1R0R I K 55;6.43402
1R0R E F 189;1R0R E S 190;22.7563
1R0R E F 189;1R0R E S 191;1.67613
1R0R E F 189;1R0R E G 202;5.49294
1R0R E F 189;1R0R E A 203;6.75959
1R0R E F 189;1R0R E N 218;10.1605
1R0R E F 189;1R0R E G 219;11.1921
1R0R E F 189;1R0R E T 220;6.07541
1R0R E F 189;1R0R I Y 20;37.385
1R0R E S 190;1R0R E S 191;24.9241
1R0R E S 190;1R0R E V 192;3.95835
1R0R E S 190;1R0R E L 196;1.1867
1R0R E S 190;1R0R E M 199;6.03897
1R0R E S 190;1R0R E T 220;8.50672
1R0R E S 190;1R0R E Y 262;0.521191
1R0R E S 191;1R0R E V 192;19.4172
1R0R E S 191;1R0R E L 196;10.2886
1R0R E S 191;1R0R E T 220;0.826637
1R0R E S 191;1R0R E Y 262;0.521321
1R0R E V 192;1R0R E G 193;16.5255
1R0R E V 192;1R0R E L 196;5.27133
1R0R E V 192;1R0R E F 261;21.6577
1R0R E V 192;1R0R E Y 262;14.9973
1R0R E G 193;1R0R E A 194;22.4381
1R0R E G 193;1R0R E E 195;2.53884
1R0R E G 193;1R0R E L 196;13.2895
1R0R E G 193;1R0R E S 260;3.99015
1R0R E G 193;1R0R E F 261;26.4657
1R0R E A 194;1R0R E E 195;33.3927
1R0R E A 194;1R0R E L 196;9.38772
1R0R E A 194;1R0R E S 260;0.442344
1R0R E A 194;1R0R E F 261;6.31358
1R0R E E 195;1R0R E L 196;18.7463
1R0R E E 195;1R0R E E 197;11.2879
1R0R E L 196;1R0R E E 197;22.0305
1R0R E L 196;1R0R E V 198;5.58573
1R0R E L 196;1R0R E M 199;10.4609
1R0R E L 196;1R0R E S 260;7.73498
1R0R E L 196;1R0R E F 261;5.62862
1R0R E L 196;1R0R E Y 262;10.0881
1R0R E L 196;1R0R E Y 263;4.86495
1R0R E L 196;1R0R E G 264;17.6021
1R0R E E 197;1R0R E V 198;26.8632
1R0R E E 197;1R0R E R 247;28.6409
1R0R E E 197;1R0R E S 251;18.7841
1R0R E E 197;1R0R E G 264;6.23889
1R0R E E 197;1R0R E K 265;14.3299
1R0R E V 198;1R0R E M 199;23.2802
1R0R E V 198;1R0R E V 227;10.53
1R0R E V 198;1R0R E L 250;8.61642
1R0R E V 198;1R0R E S 251;6.04005
1R0R E V 198;1R0R E S 251;6.63531
1R0R E V 198;1R0R E A 254;5.01848
1R0R E V 198;1R0R E Y 263;3.47608
1R0R E V 198;1R0R E G 264;1.36067
1R0R E V 198;1R0R E K 265;5.00303
1R0R E V 198;1R0R E G 266;8.93366
1R0R E V 198;1R0R E I 268;15.2272
1R0R E M 199;1R0R E A 200;19.4915
1R0R E M 199;1R0R E V 227;1.21531
1R0R E M 199;1R0R E L 257;6.66215
1R0R E M 199;1R0R E Y 262;6.64685
1R0R E M 199;1R0R E Y 263;14.4748
1R0R E M 199;1R0R E Y 263;7.99133
1R0R E M 199;1R0R E G 266;12.2852
1R0R E M 199;1R0R E L 267;12.0437
1R0R E M 199;1R0R E I 268;9.95961
1R0R E A 200;1R0R E P 201;21.7671
1R0R E A 200;1R0R E G 202;1.83021
1R0R E A 200;1R0R E A 223;14.9128
1R0R E A 200;1R0R E H 226;7.58095
1R0R E A 200;1R0R E V 227;7.48938
1R0R E A 200;1R0R E L 267;5.20442
1R0R E A 200;1R0R E I 268;6.30968
1R0R E P 201;1R0R E G 202;14.2627
1R0R E P 201;1R0R E V 205;9.42398
1R0R E P 201;1R0R E M 222;3.92149
1R0R E P 201;1R0R E A 223;6.59334
1R0R E P 201;1R0R E H 226;21.1115
1R0R E P 201;1R0R E L 267;5.27701
1R0R E G 202;1R0R E A 203;20.1655
1R0R E G 202;1R0R E V 205;6.07811
1R0R E G 202;1R0R E L 217;1.07444
1R0R E G 202;1R0R E N 218;4.88222
1R0R E G 202;1R0R E G 219;12.3251
1R0R E G 202;1R0R E M 222;7.44426
1R0R E G 202;1R0R E A 223;5.50097
1R0R E A 203;1R0R E G 204;22.821
1R0R E A 203;1R0R E V 205;6.8939
1R0R E A 203;1R0R E L 217;0.155426
1R0R E A 203;1R0R E N 218;10.3713
1R0R E G 204;1R0R E V 205;16.7128
1R0R E G 204;1R0R E Y 206;5.61653
1R0R E G 204;1R0R E T 216;20.7975
1R0R E G 204;1R0R E L 217;5.51273
1R0R E G 204;1R0R E N 218;13.1363
1R0R E V 205;1R0R E Y 206;25.8292
1R0R E V 205;1R0R E S 207;1.6788
1R0R E V 205;1R0R E A 215;0.734009
1R0R E V 205;1R0R E T 216;7.42764
1R0R E V 205;1R0R E L 217;14.3253
1R0R E V 205;1R0R E M 222;17.6417
1R0R E V 205;1R0R E H 226;13.8497
1R0R E Y 206;1R0R E S 207;25.0908
1R0R E Y 206;1R0R E Y 214;26.7095
1R0R E Y 206;1R0R E A 215;14.3091
1R0R E Y 206;1R0R E T 216;20.5582
1R0R E S 207;1R0R E T 208;23.0325
1R0R E S 207;1R0R E Y 209;0.421026
1R0R E S 207;1R0R E Y 214;9.93486
1R0R E S 207;1R0R E A 215;10.8246
1R0R E T 208;1R0R E Y 209;19.4224
1R0R E T 208;1R0R E T 213;2.34276
1R0R E T 208;1R0R E Y 214;11.8587
1R0R E Y 209;1R0R E P 210;38.0663
1R0R E Y 209;1R0R E T 211;0.367763
1R0R E Y 209;1R0R E N 212;1.42562
1R0R E Y 209;1R0R E T 213;24.3141
1R0R E Y 209;1R0R E Y 214;8.42336
1R0R E Y 209;1R0R E A 215;22.742
1R0R E Y 209;1R0R E L 217;14.5796
1R0R E Y 209;1R0R I E 19;1.13606
1R0R E Y 209;1R0R I R 21;16.3648
1R0R E P 210;1R0R E T 211;28.5034
1R0R E P 210;1R0R E N 212;0.92159
1R0R E P 210;1R0R E T 213;8.20803
1R0R E T 211;1R0R E N 212;35.0786
1R0R E T 211;1R0R E T 213;15.8476
1R0R E N 212;1R0R E T 213;21.0005
1R0R E N 212;1R0R E Y 214;6.94741
1R0R E T 213;1R0R E Y 214;46.3425
1R0R E Y 214;1R0R E A 215;23.5468
1R0R E A 215;1R0R E T 216;24.5231
1R0R E A 215;1R0R E L 217;10.5293
1R0R E T 216;1R0R E L 217;31.962
1R0R E T 216;1R0R E N 218;0.33051
1R0R E L 217;1R0R E N 218;27.3487
1R0R E L 217;1R0R E M 222;20.9266
1R0R E L 217;1R0R I E 19;22.9406
1R0R E L 217;1R0R I R 21;12.0172
1R0R E N 218;1R0R E G 219;15.0446
1R0R E N 218;1R0R E M 222;8.69804
1R0R E N 218;1R0R I E 19;9.06481
1R0R E N 218;1R0R I Y 20;30.0011
1R0R E G 219;1R0R E T 220;14.6949
1R0R E G 219;1R0R E S 221;3.26087
1R0R E G 219;1R0R E M 222;12.8938
1R0R E G 219;1R0R E A 223;2.55265
1R0R E G 219;1R0R I L 18;4.53613
1R0R E G 219;1R0R I E 19;1.0804
1R0R E G 219;1R0R I Y 20;6.43644
1R0R E T 220;1R0R E S 221;14.5892
1R0R E T 220;1R0R E M 222;1.48429
1R0R E T 220;1R0R E A 223;11.7019
1R0R E T 220;1R0R E S 224;7.10104
1R0R E T 220;1R0R I L 18;8.17196
1R0R E S 221;1R0R E M 222;24.8048
1R0R E S 221;1R0R E A 223;0.86668
1R0R E S 221;1R0R E S 224;2.30459
1R0R E S 221;1R0R E P 225;8.07103
1R0R E S 221;1R0R I L 18;19.225
1R0R E S 221;1R0R I E 19;4.11317
1R0R E M 222;1R0R E A 223;15.3138
1R0R E M 222;1R0R E S 224;0.00373791
1R0R E M 222;1R0R E P 225;12.5185
1R0R E M 222;1R0R E H 226;8.37866
1R0R E M 222;1R0R I L 18;9.33476e-05
1R0R E M 222;1R0R I E 19;6.61906
1R0R E A 223;1R0R E S 224;16.2054
1R0R E A 223;1R0R E P 225;2.22885
1R0R E A 223;1R0R E H 226;9.70315
1R0R E A 223;1R0R E V 227;4.31284
1R0R E S 224;1R0R E P 225;18.2756
1R0R E S 224;1R0R E H 226;1.25136
1R0R E S 224;1R0R E V 227;7.45538
1R0R E S 224;1R0R E A 228;5.26829
1R0R E P 225;1R0R E H 226;17.8357
1R0R E P 225;1R0R E V 227;0.860374
1R0R E P 225;1R0R E A 228;7.77911
1R0R E P 225;1R0R E G 229;7.64207
1R0R E H 226;1R0R E V 227;15.7867
1R0R E H 226;1R0R E A 228;0.46946
1R0R E H 226;1R0R E G 229;2.94507
1R0R E H 226;1R0R E A 230;7.6928
1R0R E H 226;1R0R E I 268;5.46118
1R0R E V 227;1R0R E A 228;16.192
1R0R E V 227;1R0R E G 229;0.990328
1R0R E V 227;1R0R E A 230;9.1116
1R0R E V 227;1R0R E A 231;8.6731
1R0R E V 227;1R0R E L 250;15.6232
1R0R E V 227;1R0R E I 268;17.8753
1R0R E A 228;1R0R E G 229;17.5901
1R0R E A 228;1R0R E A 230;0.814693
1R0R E A 228;1R0R E A 231;7.72519
1R0R E A 228;1R0R E A 232;7.31234
1R0R E G 229;1R0R E A 230;14.1389
1R0R E G 229;1R0R E A 231;0.808818
1R0R E G 229;1R0R E A 232;8.76501
1R0R E G 229;1R0R E L 233;7.96166
1R0R E A 230;1R0R E A 231;15.533
1R0R E A 230;1R0R E A 232;0.971098
1R0R E A 230;1R0R E L 233;9.62215
1R0R E A 230;1R0R E I 234;10.6606
1R0R E A 230;1R0R E L 250;10.4977
1R0R E A 230;1R0R E I 268;8.64544
1R0R E A 230;1R0R E V 270;16.8989
1R0R E A 231;1R0R E A 232;16.0287
1R0R E A 231;1R0R E L 233;0.628657
1R0R E A 231;1R0R E I 234;9.9709
1R0R E A 231;1R0R E L 235;13.3423
1R0R E A 231;1R0R E V 246;12.403
1R0R E A 231;1R0R E L 250;10.3998
1R0R E A 232;1R0R E L 233;15.9111
1R0R E A 232;1R0R E I 234;0.848801
1R0R E A 232;1R0R E L 235;7.10209
1R0R E A 232;1R0R E S 236;6.86686
1R0R E L 233;1R0R E I 234;18.4259
1R0R E L 233;1R0R E L 235;0.770146
1R0R E L 233;1R0R E S 236;10.7711
1R0R E L 233;1R0R E K 237;7.81891
1R0R E L 233;1R0R E V 270;14.6829
1R0R E L 233;1R0R E A 274;1.60468
1R0R E I 234;1R0R E L 235;18.1465
1R0R E I 234;1R0R E S 236;1.00554
1R0R E I 234;1R0R E K 237;6.85438
1R0R E I 234;1R0R E H 238;16.5639
1R0R E I 234;1R0R E L 241;9.83372
1R0R E I 234;1R0R E V 246;18.4231
1R0R E I 234;1R0R E R 249;12.6557
1R0R E I 234;1R0R E L 250;12.6188
1R0R E I 234;1R0R E V 270;9.14188
1R0R E I 234;1R0R E A 273;13.1547
1R0R E I 234;1R0R E A 274;15.7214
1R0R E L 235;1R0R E S 236;17.8947
1R0R E L 235;1R0R E K 237;1.34594
1R0R E L 235;1R0R E H 238;11.6003
1R0R E L 235;1R0R E P 239;25.1435
1R0R E L 235;1R0R E L 241;16.0065
1R0R E L 235;1R0R E S 242;0.437485
1R0R E L 235;1R0R E A 243;0.369019
1R0R E L 235;1R0R E V 246;17.4393
1R0R E S 236;1R0R E K 237;18.6264
1R0R E S 236;1R0R E H 238;0.243472
1R0R E S 236;1R0R E P 239;10.6333
1R0R E K 237;1R0R E H 238;40.4947
1R0R E K 237;1R0R E P 239;9.60662
1R0R E K 237;1R0R E E 271;0.765538
1R0R E K 237;1R0R E A 274;22.1599
1R0R E K 237;1R0R E Q 275;13.0788
1R0R E H 238;1R0R E P 239;20.9194
1R0R E H 238;1R0R E N 240;4.98756
1R0R E H 238;1R0R E L 241;28.0999
1R0R E H 238;1R0R E R 249;16.6803
1R0R E H 238;1R0R E A 274;10.3415
1R0R E H 238;1R0R E Q 275;12.5172
1R0R E P 239;1R0R E N 240;37.6377
1R0R E P 239;1R0R E L 241;5.38266
1R0R E N 240;1R0R E L 241;28.9655
1R0R E N 240;1R0R E S 242;3.77226
1R0R E N 240;1R0R E Q 245;2.7712
1R0R E L 241;1R0R E S 242;25.6921
1R0R E L 241;1R0R E A 243;0.673997
1R0R E L 241;1R0R E Q 245;29.1661
1R0R E L 241;1R0R E V 246;12.7838
1R0R E L 241;1R0R E R 249;24.7973
1R0R E S 242;1R0R E A 243;25.7391
1R0R E S 242;1R0R E S 244;4.68092
1R0R E S 242;1R0R E S 244;8.0926
1R0R E S 242;1R0R E Q 245;31.1172
1R0R E S 242;1R0R E V 246;9.68139
1R0R E A 243;1R0R E S 244;19.3046
1R0R E A 243;1R0R E Q 245;0.824456
1R0R E A 243;1R0R E V 246;8.06832
1R0R E A 243;1R0R E R 247;9.84943
1R0R E S 244;1R0R E Q 245;15.7294
1R0R E S 244;1R0R E V 246;0.746733
1R0R E S 244;1R0R E R 247;9.21339
1R0R E S 244;1R0R E N 248;4.08639
1R0R E S 244;1R0R E N 248;9.18651
1R0R E S 244;1R0R E Q 245;3.36807
1R0R E S 244;1R0R E N 248;12.4296
1R0R E Q 245;1R0R E V 246;16.9281
1R0R E Q 245;1R0R E R 247;0.659276
1R0R E Q 245;1R0R E N 248;2.27849
1R0R E Q 245;1R0R E N 248;10.7741
1R0R E Q 245;1R0R E R 249;17.3113
1R0R E V 246;1R0R E R 247;18.3732
1R0R E V 246;1R0R E N 248;0.968477
1R0R E V 246;1R0R E R 249;10.1962
1R0R E V 246;1R0R E L 250;15.6117
1R0R E R 247;1R0R E N 248;18.7851
1R0R E R 247;1R0R E N 248;5.12496
1R0R E R 247;1R0R E R 249;0.804726
1R0R E R 247;1R0R E L 250;12.7327
1R0R E R 247;1R0R E S 251;4.25439
1R0R E R 247;1R0R E S 251;6.24967
1R0R E N 248;1R0R E R 249;16.0182
1R0R E N 248;1R0R E L 250;0.976586
1R0R E N 248;1R0R E S 251;2.3692
1R0R E N 248;1R0R E S 251;5.93591
1R0R E N 248;1R0R E S 252;15.5974
1R0R E N 248;1R0R E R 249;2.8121
1R0R E N 248;1R0R E S 251;1.93879
1R0R E N 248;1R0R E S 252;2.66059
1R0R E R 249;1R0R E L 250;16.9625
1R0R E R 249;1R0R E S 251;0.764761
1R0R E R 249;1R0R E S 252;9.4098
1R0R E R 249;1R0R E T 253;15.8912
1R0R E R 249;1R0R E A 272;0.438536
1R0R E R 249;1R0R E A 273;26.6352
1R0R E R 249;1R0R E A 274;3.89709
1R0R E R 249;1R0R E Q 275;17.0939
1R0R E L 250;1R0R E S 251;18.1538
1R0R E L 250;1R0R E S 251;0.314833
1R0R E L 250;1R0R E S 252;0.496137
1R0R E L 250;1R0R E T 253;4.97472
1R0R E L 250;1R0R E A 254;9.35826
1R0R E L 250;1R0R E I 268;24.3097
1R0R E L 250;1R0R E N 269;1.48309
1R0R E L 250;1R0R E V 270;4.25194
1R0R E L 250;1R0R E A 273;11.601
1R0R E S 251;1R0R E S 252;20.2743
1R0R E S 251;1R0R E T 253;1.85784
1R0R E S 251;1R0R E A 254;10.2422
1R0R E S 251;1R0R E K 265;14.9236
1R0R E S 251;1R0R E S 252;4.17971
1R0R E S 251;1R0R E K 265;15.9455
1R0R E S 252;1R0R E T 253;32.6635
1R0R E S 252;1R0R E A 254;3.9127
1R0R E S 252;1R0R E K 265;4.55477
1R0R E T 253;1R0R E A 254;27.545
1R0R E T 253;1R0R E T 255;2.30697
1R0R E T 253;1R0R E N 269;15.8739
1R0R E T 253;1R0R E A 272;25.9947
1R0R E T 253;1R0R E A 273;14.0333
1R0R E A 254;1R0R E T 255;20.9864
1R0R E A 254;1R0R E Y 256;5.97025
1R0R E A 254;1R0R E K 265;16.1643
1R0R E A 254;1R0R E G 266;7.51093
1R0R E A 254;1R0R E L 267;6.10857
1R0R E A 254;1R0R E I 268;6.79986
1R0R E A 254;1R0R E N 269;4.14648
1R0R E T 255;1R0R E Y 256;29.2197
1R0R E T 255;1R0R E L 257;15.1584
1R0R E T 255;1R0R E K 265;1.55665
1R0R E T 255;1R0R E G 266;4.727
1R0R E T 255;1R0R E L 267;28.9013
1R0R E T 255;1R0R E I 268;0.0611026
1R0R E T 255;1R0R E N 269;14.8206
1R0R E Y 256;1R0R E L 257;32.7772
1R0R E Y 256;1R0R E G 258;29.5894
1R0R E Y 256;1R0R E S 259;8.5973
1R0R E Y 256;1R0R E S 260;0.958718
1R0R E Y 256;1R0R E G 264;1.97625
1R0R E Y 256;1R0R E K 265;14.1001
1R0R E Y 256;1R0R E G 266;1.5609
1R0R E L 257;1R0R E G 258;22.9502
1R0R E L 257;1R0R E Y 263;31.3537
1R0R E L 257;1R0R E G 264;0.0424678
1R0R E L 257;1R0R E K 265;0.277718
1R0R E L 257;1R0R E G 266;9.97752
1R0R E L 257;1R0R E L 267;18.624
1R0R E G 258;1R0R E S 259;21.9392
1R0R E G 258;1R0R E S 260;4.11595
1R0R E G 258;1R0R E Y 263;18.1887
1R0R E G 258;1R0R E G 264;5.23392
1R0R E S 259;1R0R E S 260;22.4605
1R0R E S 259;1R0R E F 261;16.1529
1R0R E S 259;1R0R E Y 262;21.3895
1R0R E S 259;1R0R E Y 263;3.55746
1R0R E S 259;1R0R E Y 263;11.7399
1R0R E S 259;1R0R E G 264;0.014684
1R0R E S 260;1R0R E F 261;24.1911
1R0R E S 260;1R0R E Y 262;1.40128
1R0R E S 260;1R0R E Y 263;1.84287
1R0R E S 260;1R0R E Y 263;0.132343
1R0R E S 260;1R0R E G 264;28.4001
1R0R E S 260;1R0R E K 265;5.12904
1R0R E F 261;1R0R E Y 262;39.9281
1R0R E F 261;1R0R E Y 263;0.0983418
1R0R E Y 262;1R0R E Y 263;13.8983
1R0R E Y 262;1R0R E Y 263;19.9951
1R0R E Y 263;1R0R E G 264;19.2328
1R0R E Y 263;1R0R E K 265;0.451062
1R0R E Y 263;1R0R E G 266;7.29848
1R0R E Y 263;1R0R E G 264;3.21982
1R0R E Y 263;1R0R E G 266;4.67012
1R0R E G 264;1R0R E K 265;24.1304
1R0R E G 264;1R0R E G 266;2.93913
1R0R E K 265;1R0R E G 266;18.397
1R0R E G 266;1R0R E L 267;15.3397
1R0R E G 266;1R0R E I 268;2.09764
1R0R E L 267;1R0R E I 268;30.0457
1R0R E L 267;1R0R E N 269;2.42505
1R0R E I 268;1R0R E N 269;25.3144
1R0R E I 268;1R0R E V 270;5.36494
1R0R E N 269;1R0R E V 270;16.9748
1R0R E N 269;1R0R E E 271;8.99128
1R0R E N 269;1R0R E A 272;23.2715
1R0R E N 269;1R0R E A 273;9.40609
1R0R E V 270;1R0R E E 271;17.6896
1R0R E V 270;1R0R E A 272;0.58107
1R0R E V 270;1R0R E A 273;10.5182
1R0R E V 270;1R0R E A 274;12.696
1R0R E E 271;1R0R E A 272;22.3161
1R0R E E 271;1R0R E A 273;0.6954
1R0R E E 271;1R0R E A 274;6.65175
1R0R E E 271;1R0R E Q 275;10.3886
1R0R E A 272;1R0R E A 273;17.5264
1R0R E A 272;1R0R E A 274;1.56011
1R0R E A 272;1R0R E Q 275;20.0569
1R0R E A 273;1R0R E A 274;15.0943
1R0R E A 273;1R0R E Q 275;1.88595
1R0R E A 274;1R0R E Q 275;18.4953
1R0R I V 6;1R0R I D 7;34.6432
1R0R I V 6;1R0R I C 8;19.587
1R0R I V 6;1R0R I L 23;6.9017
1R0R I V 6;1R0R I K 34;6.98866
1R0R I V 6;1R0R I F 37;17.4307
1R0R I V 6;1R0R I C 38;8.32499
1R0R I V 6;1R0R I V 41;0.019614
1R0R I V 6;1R0R I L 50;22.4119
1R0R I V 6;1R0R I F 53;6.33568
1R0R I D 7;1R0R I C 8;19.6195
1R0R I D 7;1R0R I S 9;23.6787
1R0R I D 7;1R0R I E 10;1.08535
1R0R I D 7;1R0R I Y 11;4.51338
1R0R I D 7;1R0R I C 38;5.08304
1R0R I C 8;1R0R I S 9;25.3259
1R0R I C 8;1R0R I E 10;2.95045
1R0R I C 8;1R0R I Y 11;19.4111
1R0R I C 8;1R0R I F 37;4.92764
1R0R I C 8;1R0R I C 38;22.3304
1R0R I C 8;1R0R I V 41;19.7557
1R0R I C 8;1R0R I V 42;8.96194
1R0R I S 9;1R0R I E 10;43.3643
1R0R I S 9;1R0R I Y 11;11.0855
1R0R I E 10;1R0R I Y 11;34.2408
1R0R I E 10;1R0R I P 12;0.00911284
1R0R I E 10;1R0R I K 13;25.8652
1R0R I Y 11;1R0R I P 12;32.0063
1R0R I Y 11;1R0R I K 13;12.2638
1R0R I Y 11;1R0R I K 34;2.66512
1R0R I Y 11;1R0R I C 35;22.8408
1R0R I Y 11;1R0R I C 38;24.6955
1R0R I Y 11;1R0R I N 39;12.3746
1R0R I Y 11;1R0R I V 42;14.486
1R0R I P 12;1R0R I K 13;32.8267
1R0R I P 12;1R0R I P 14;1.94714
1R0R I P 12;1R0R I N 39;13.5423
1R0R I P 12;1R0R I V 42;27.1935
1R0R I K 13;1R0R I P 14;30.245
1R0R I K 13;1R0R I A 15;5.59356
1R0R I K 13;1R0R I C 16;1.28561
1R0R I K 13;1R0R I C 35;2.15456
1R0R I K 13;1R0R I N 39;17.1203
1R0R I P 14;1R0R I A 15;21.2801
1R0R I P 14;1R0R I C 16;5.134
1R0R I P 14;1R0R I N 39;6.41955
1R0R I A 15;1R0R I C 16;20.6692
1R0R I A 15;1R0R I C 35;2.65692
1R0R I C 16;1R0R I T 17;26.1765
1R0R I C 16;1R0R I L 18;2.6476
1R0R I C 16;1R0R I N 33;4.74678
1R0R I C 16;1R0R I C 35;20.9125
1R0R I C 16;1R0R I N 36;19.8546
1R0R I C 16;1R0R I N 39;8.74883
1R0R I T 17;1R0R I L 18;23.2162
1R0R I T 17;1R0R I E 19;13.2363
1R0R I T 17;1R0R I N 33;19.1083
1R0R I T 17;1R0R I C 35;1.10207
1R0R I T 17;1R0R I N 36;1.06861
1R0R I L 18;1R0R I E 19;16.966
1R0R I L 18;1R0R I Y 20;0.405612
1R0R I L 18;1R0R I N 33;0.633105
1R0R I L 18;1R0R I N 36;4.3434
1R0R I E 19;1R0R I Y 20;21.141
1R0R I E 19;1R0R I R 21;34.9847
1R0R I E 19;1R0R I G 32;3.76231
1R0R I E 19;1R0R I N 33;17.6541
1R0R I Y 20;1R0R I R 21;19.8231
1R0R I Y 20;1R0R I P 22;30.0134
1R0R I Y 20;1R0R I T 30;12.527
1R0R I Y 20;1R0R I G 32;18.7665
1R0R I Y 20;1R0R I K 55;19.6632
1R0R I R 21;1R0R I P 22;28.1279
1R0R I R 21;1R0R I L 23;11.6322
1R0R I R 21;1R0R I G 32;7.15404
1R0R I R 21;1R0R I N 33;15.9619
1R0R I R 21;1R0R I K 34;0.459968
1R0R I R 21;1R0R I F 53;2.15863
1R0R I P 22;1R0R I L 23;15.1925
1R0R I P 22;1R0R I L 23;5.41462
1R0R I P 22;1R0R I T 30;8.98128
1R0R I P 22;1R0R I Y 31;5.79349
1R0R I P 22;1R0R I G 32;6.34811
1R0R I P 22;1R0R I N 33;0.331405
1R0R I P 22;1R0R I F 53;3.4761
1R0R I P 22;1R0R I G 54;21.0505
1R0R I P 22;1R0R I K 55;15.6334
1R0R I L 23;1R0R I C 24;16.5269
1R0R I L 23;1R0R I G 25;1.32518
1R0R I L 23;1R0R I K 29;1.06436
1R0R I L 23;1R0R I T 30;6.97234
1R0R I L 23;1R0R I Y 31;16.0542
1R0R I L 23;1R0R I N 33;0.0763939
1R0R I L 23;1R0R I F 37;0.00352816
1R0R I L 23;1R0R I L 50;0.135753
1R0R I L 23;1R0R I H 52;1.52963
1R0R I L 23;1R0R I F 53;2.47316
1R0R I L 23;1R0R I G 54;5.98644
1R0R I L 23;1R0R I K 55;0.30721
1R0R I L 23;1R0R I C 24;1.42622
1R0R I L 23;1R0R I G 25;0.0345042
1R0R I L 23;1R0R I Y 31;5.44296
1R0R I L 23;1R0R I N 33;6.63244
1R0R I L 23;1R0R I K 34;19.827
1R0R I L 23;1R0R I F 37;21.1113
1R0R I L 23;1R0R I L 50;16.588
1R0R I L 23;1R0R I H 52;0.00341784
1R0R I L 23;1R0R I F 53;25.5738
1R0R I C 24;1R0R I G 25;23.1193
1R0R I C 24;1R0R I N 28;9.61466
1R0R I C 24;1R0R I K 29;1.8719
1R0R I C 24;1R0R I T 30;1.64758
1R0R I C 24;1R0R I F 37;0.216976
1R0R I C 24;1R0R I L 50;8.18511
1R0R I C 24;1R0R I S 51;15.1961
1R0R I C 24;1R0R I H 52;29.4009
1R0R I C 24;1R0R I G 54;7.18093
1R0R I C 24;1R0R I K 55;1.27042
1R0R I C 24;1R0R I C 56;23.1891
1R0R I G 25;1R0R I S 26;15.2471
1R0R I G 25;1R0R I D 27;7.91506
1R0R I G 25;1R0R I N 28;9.18557
1R0R I G 25;1R0R I K 29;7.47637
1R0R I G 25;1R0R I Y 31;7.9609
1R0R I G 25;1R0R I F 37;7.71272
1R0R I G 25;1R0R I L 48;4.58332
1R0R I G 25;1R0R I T 49;3.27984
1R0R I G 25;1R0R I L 50;1.84914
1R0R I G 25;1R0R I S 51;8.71888
1R0R I G 25;1R0R I C 56;1.15578
1R0R I S 26;1R0R I D 27;23.1998
1R0R I S 26;1R0R I N 28;5.94914
1R0R I S 26;1R0R I T 47;4.41824
1R0R I S 26;1R0R I L 48;11.9579
1R0R I S 26;1R0R I T 49;27.3522
1R0R I S 26;1R0R I L 50;0.633396
1R0R I S 26;1R0R I S 51;13.4738
1R0R I D 27;1R0R I N 28;26.5823
1R0R I D 27;1R0R I K 29;7.64055
1R0R I D 27;1R0R I K 29;14.24
1R0R I D 27;1R0R I Y 31;15.2764
1R0R I D 27;1R0R I L 48;19.7945
1R0R I N 28;1R0R I K 29;20.9799
1R0R I N 28;1R0R I K 29;0.0232705
1R0R I N 28;1R0R I T 30;0.625337
1R0R I N 28;1R0R I C 56;28.5158
1R0R I K 29;1R0R I T 30;16.9541
1R0R I K 29;1R0R I Y 31;6.62872
1R0R I K 29;1R0R I C 56;6.71811
1R0R I K 29;1R0R I T 30;17.2848
1R0R I K 29;1R0R I Y 31;28.0001
1R0R I T 30;1R0R I Y 31;27.1895
1R0R I T 30;1R0R I G 32;3.00106
1R0R I T 30;1R0R I K 55;14.8958
1R0R I T 30;1R0R I C 56;19.7567
1R0R I Y 31;1R0R I G 32;21.3219
1R0R I Y 31;1R0R I N 33;7.85304
1R0R I Y 31;1R0R I N 36;14.8814
1R0R I Y 31;1R0R I F 37;22.1688
1R0R I Y 31;1R0R I A 40;19.6609
1R0R I Y 31;1R0R I L 48;12.4164
1R0R I G 32;1R0R I N 33;17.9834
1R0R I G 32;1R0R I N 36;16.8182
1R0R I N 33;1R0R I K 34;21.9668
1R0R I N 33;1R0R I C 35;13.0731
1R0R I N 33;1R0R I N 36;23.8185
1R0R I N 33;1R0R I F 37;7.08978
1R0R I K 34;1R0R I C 35;22.4967
1R0R I K 34;1R0R I N 36;0.592014
1R0R I K 34;1R0R I F 37;9.88303
1R0R I K 34;1R0R I C 38;16.4599
1R0R I K 34;1R0R I F 53;3.07576
1R0R I C 35;1R0R I N 36;15.3917
1R0R I C 35;1R0R I F 37;0.908908
1R0R I C 35;1R0R I C 38;4.50284
1R0R I C 35;1R0R I N 39;12.5652
1R0R I N 36;1R0R I F 37;15.797
1R0R I N 36;1R0R I C 38;0.667567
1R0R I N 36;1R0R I N 39;12.5945
1R0R I N 36;1R0R I A 40;9.54259
1R0R I F 37;1R0R I C 38;20.2187
1R0R I F 37;1R0R I N 39;0.854183
1R0R I F 37;1R0R I A 40;8.31822
1R0R I F 37;1R0R I V 41;22.9621
1R0R I F 37;1R0R I L 48;13.5261
1R0R I F 37;1R0R I T 49;9.76838
1R0R I F 37;1R0R I L 50;16.6953
1R0R I C 38;1R0R I N 39;16.2394
1R0R I C 38;1R0R I A 40;0.926631
1R0R I C 38;1R0R I V 41;9.65714
1R0R I C 38;1R0R I V 42;9.49618
1R0R I N 39;1R0R I A 40;18.3209
1R0R I N 39;1R0R I V 41;0.714559
1R0R I N 39;1R0R I V 42;10.0018
1R0R I N 39;1R0R I E 43;16.7944
1R0R I A 40;1R0R I V 41;14.8319
1R0R I A 40;1R0R I V 42;0.871504
1R0R I A 40;1R0R I E 43;18.1479
1R0R I A 40;1R0R I S 44;10.5522
1R0R I A 40;1R0R I L 48;13.9627
1R0R I V 41;1R0R I V 42;22.6109
1R0R I V 41;1R0R I E 43;0.773062
1R0R I V 41;1R0R I S 44;9.8067
1R0R I V 41;1R0R I N 45;1.96748
1R0R I V 41;1R0R I G 46;20.7587
1R0R I V 41;1R0R I L 48;26.9814
1R0R I V 41;1R0R I T 49;0.0815608
1R0R I V 42;1R0R I E 43;25.1243
1R0R I V 42;1R0R I S 44;1.45199
1R0R I V 42;1R0R I N 45;13.5164
1R0R I V 42;1R0R I G 46;1.79137
1R0R I E 43;1R0R I S 44;22.7645
1R0R I E 43;1R0R I N 45;5.43759
1R0R I S 44;1R0R I N 45;22.5121
1R0R I S 44;1R0R I G 46;4.39402
1R0R I S 44;1R0R I T 47;26.9021
1R0R I S 44;1R0R I L 48;16.0734
1R0R I N 45;1R0R I G 46;24.5924
1R0R I N 45;1R0R I T 47;10.1082
1R0R I G 46;1R0R I T 47;22.7755
1R0R I G 46;1R0R I L 48;6.74606
1R0R I G 46;1R0R I T 49;5.57668
1R0R I T 47;1R0R I L 48;22.7895
1R0R I T 47;1R0R I T 49;11.9417
1R0R I L 48;1R0R I T 49;27.9102
1R0R I T 49;1R0R I L 50;30.0486
1R0R I T 49;1R0R I S 51;0.907973
1R0R I L 50;1R0R I S 51;28.2818
1R0R I L 50;1R0R I H 52;15.1332
1R0R I L 50;1R0R I F 53;23.1843
1R0R I S 51;1R0R I H 52;38.7909
1R0R I H 52;1R0R I F 53;37.1342
1R0R I H 52;1R0R I G 54;6.57498
1R0R I H 52;1R0R I K 55;10.2947
1R0R I H 52;1R0R I C 56;7.97521
1R0R I F 53;1R0R I G 54;27.421
1R0R I G 54;1R0R I K 55;25.092
1R0R I G 54;1R0R I C 56;0.017728
1R0R I K 55;1R0R I C 56;36.299
