V1;V2;Weight
1SMF E I 16;1SMF E V 17;20.2628
1SMF E I 16;1SMF E G 18;1.44068
1SMF E I 16;1SMF E G 19;13.3749
1SMF E I 16;1SMF E I 138;15.2732
1SMF E I 16;1SMF E S 139;8.47503
1SMF E I 16;1SMF E G 140;9.45439
1SMF E I 16;1SMF E G 142;10.1227
1SMF E I 16;1SMF E N 143;7.52564
1SMF E I 16;1SMF E T 144;15.1232
1SMF E I 16;1SMF E K 156;20.8575
1SMF E I 16;1SMF E C 157;6.1487
1SMF E I 16;1SMF E L 158;15.3171
1SMF E I 16;1SMF E D 189;6.72226
1SMF E I 16;1SMF E S 190;10.4701
1SMF E I 16;1SMF E C 191;3.39905
1SMF E I 16;1SMF E D 194;20.9885
1SMF E V 17;1SMF E G 18;22.8243
1SMF E V 17;1SMF E G 19;3.12553
1SMF E V 17;1SMF E N 143;4.28729
1SMF E V 17;1SMF E T 144;16.9718
1SMF E V 17;1SMF E K 145;8.82103
1SMF E V 17;1SMF E S 146;17.2187
1SMF E V 17;1SMF E L 158;4.12843
1SMF E V 17;1SMF E K 188;6.67534
1SMF E V 17;1SMF E G 188a;9.87758
1SMF E V 17;1SMF E D 189;19.6964
1SMF E V 17;1SMF E S 190;0.176359
1SMF E V 17;1SMF E C 191;10.0423
1SMF E V 17;1SMF E C 220;7.5419
1SMF E V 17;1SMF E A 221a;12.3016
1SMF E G 18;1SMF E G 19;29.2842
1SMF E G 18;1SMF E T 144;4.14343
1SMF E G 18;1SMF E L 158;7.3149
1SMF E G 18;1SMF E K 188;19.046
1SMF E G 18;1SMF E G 188a;9.19898
1SMF E G 19;1SMF E Y 20;30.7064
1SMF E G 19;1SMF E K 156;6.07943
1SMF E G 19;1SMF E C 157;5.4499
1SMF E G 19;1SMF E L 158;8.25612
1SMF E Y 20;1SMF E T 21;32.9049
1SMF E Y 20;1SMF E C 22;11.5203
1SMF E Y 20;1SMF E L 137;9.95464
1SMF E Y 20;1SMF E K 156;12.3519
1SMF E Y 20;1SMF E C 157;32.3401
1SMF E Y 20;1SMF E L 158;8.00525
1SMF E Y 20;1SMF E K 159;30.5434
1SMF E T 21;1SMF E C 22;21.1688
1SMF E T 21;1SMF E G 23;15.6291
1SMF E T 21;1SMF E D 71;2.95279
1SMF E T 21;1SMF E V 154;19.4911
1SMF E T 21;1SMF E L 155;6.76795
1SMF E T 21;1SMF E K 156;21.1019
1SMF E C 22;1SMF E G 23;25.3102
1SMF E C 22;1SMF E T 26;21.0827
1SMF E C 22;1SMF E V 27;5.04918
1SMF E C 22;1SMF E D 71;0.692962
1SMF E C 22;1SMF E S 139;2.18673
1SMF E C 22;1SMF E L 155;24.585
1SMF E C 22;1SMF E K 156;6.17144
1SMF E C 22;1SMF E C 157;21.773
1SMF E G 23;1SMF E A 24;26.3024
1SMF E G 23;1SMF E N 25;1.96901
1SMF E G 23;1SMF E T 26;20.1668
1SMF E G 23;1SMF E V 27;0.00318587
1SMF E G 23;1SMF E D 71;8.58366
1SMF E G 23;1SMF E L 155;2.89563
1SMF E A 24;1SMF E N 25;36.1214
1SMF E A 24;1SMF E T 26;10.1679
1SMF E A 24;1SMF E D 71;29.0707
1SMF E A 24;1SMF E E 77;0.409002
1SMF E N 25;1SMF E T 26;22.177
1SMF E N 25;1SMF E V 27;5.08133
1SMF E N 25;1SMF E P 28;14.9624
1SMF E N 25;1SMF E G 69;0.452966
1SMF E N 25;1SMF E E 70;3.69866
1SMF E N 25;1SMF E D 71;2.64001
1SMF E N 25;1SMF E N 79;14.1871
1SMF E N 25;1SMF E S 116;8.96793
1SMF E N 25;1SMF E R 117;36.1312
1SMF E T 26;1SMF E V 27;32.1317
1SMF E T 26;1SMF E P 28;9.13673
1SMF E T 26;1SMF E Y 29;0.441621
1SMF E T 26;1SMF E L 137;2.338
1SMF E T 26;1SMF E L 155;0.49915
1SMF E T 26;1SMF E C 157;0.339816
1SMF E V 27;1SMF E P 28;22.6328
1SMF E V 27;1SMF E Y 29;24.8314
1SMF E V 27;1SMF E Q 30;21.243
1SMF E V 27;1SMF E L 137;12.3965
1SMF E V 27;1SMF E S 139;12.707
1SMF E V 27;1SMF E L 155;16.1715
1SMF E V 27;1SMF E C 157;8.94569
1SMF E V 27;1SMF E P 198;1.0721
1SMF E P 28;1SMF E Y 29;31.4065
1SMF E P 28;1SMF E Q 30;6.0648
1SMF E P 28;1SMF E L 46;2.32655
1SMF E P 28;1SMF E L 67;0.523115
1SMF E P 28;1SMF E G 69;3.17401
1SMF E P 28;1SMF E S 116;11.6943
1SMF E P 28;1SMF E R 117;13.9659
1SMF E P 28;1SMF E V 118;12.045
1SMF E P 28;1SMF E A 119;25.6106
1SMF E Y 29;1SMF E Q 30;24.0193
1SMF E Y 29;1SMF E V 31;5.67994
1SMF E Y 29;1SMF E G 44;0.661473
1SMF E Y 29;1SMF E S 45;10.8821
1SMF E Y 29;1SMF E L 46;17.8435
1SMF E Y 29;1SMF E A 119;10.3963
1SMF E Y 29;1SMF E S 120;6.95315
1SMF E Y 29;1SMF E I 121;30.5015
1SMF E Y 29;1SMF E L 137;14.6314
1SMF E Y 29;1SMF E S 139;1.36048
1SMF E Y 29;1SMF E P 198;15.6129
1SMF E Y 29;1SMF E V 200;22.6518
1SMF E Q 30;1SMF E V 31;29.1482
1SMF E Q 30;1SMF E G 43;6.84795
1SMF E Q 30;1SMF E G 44;8.29108
1SMF E Q 30;1SMF E S 45;0.210765
1SMF E Q 30;1SMF E R 66;0.811715
1SMF E Q 30;1SMF E L 67;3.06638
1SMF E Q 30;1SMF E G 69;6.29258
1SMF E Q 30;1SMF E E 70;3.43091
1SMF E Q 30;1SMF E S 139;15.1523
1SMF E Q 30;1SMF E G 140;6.69718
1SMF E Q 30;1SMF E W 141;19.8653
1SMF E Q 30;1SMF E L 155;16.131
1SMF E Q 30;1SMF E G 197;3.57036
1SMF E Q 30;1SMF E P 198;15.9252
1SMF E V 31;1SMF E S 32;21.1714
1SMF E V 31;1SMF E L 33;9.24687
1SMF E V 31;1SMF E G 43;6.78856
1SMF E V 31;1SMF E G 44;20.686
1SMF E V 31;1SMF E S 45;2.60855
1SMF E V 31;1SMF E L 46;8.32685
1SMF E V 31;1SMF E V 52;14.2636
1SMF E V 31;1SMF E V 65;11.9916
1SMF E V 31;1SMF E R 66;8.85491
1SMF E V 31;1SMF E L 67;16.179
1SMF E V 31;1SMF E W 141;7.3091
1SMF E S 32;1SMF E L 33;23.7001
1SMF E S 32;1SMF E N 34;6.93439
1SMF E S 32;1SMF E H 40;17.17
1SMF E S 32;1SMF E C 42;1.41373
1SMF E S 32;1SMF E G 43;2.14695
1SMF E S 32;1SMF E Q 64;1.54449
1SMF E S 32;1SMF E V 65;3.41226
1SMF E S 32;1SMF E R 66;26.8709
1SMF E S 32;1SMF E E 70;5.26108
1SMF E S 32;1SMF E I 73;11.3703
1SMF E S 32;1SMF E W 141;13.0852
1SMF E L 33;1SMF E N 34;17.591
1SMF E L 33;1SMF E Y 39;0.586775
1SMF E L 33;1SMF E H 40;6.86069
1SMF E L 33;1SMF E F 41;22.4947
1SMF E L 33;1SMF E C 42;22.9473
1SMF E L 33;1SMF E G 43;9.56098
1SMF E L 33;1SMF E G 44;1.4062
1SMF E L 33;1SMF E V 52;4.14598
1SMF E L 33;1SMF E S 54;9.26309
1SMF E L 33;1SMF E C 58;5.00526
1SMF E L 33;1SMF E I 63;15.955
1SMF E L 33;1SMF E Q 64;2.73302
1SMF E L 33;1SMF E V 65;11.5026
1SMF E L 33;1SMF E M 104;4.77452
1SMF E L 33;1SMF E I 106;12.7579
1SMF E N 34;1SMF E S 37;19.7188
1SMF E N 34;1SMF E G 38;14.9578
1SMF E N 34;1SMF E Y 39;16.8849
1SMF E N 34;1SMF E H 40;8.90825
1SMF E N 34;1SMF E F 41;7.71744
1SMF E N 34;1SMF E G 62;2.42297
1SMF E N 34;1SMF E I 63;5.18015
1SMF E N 34;1SMF E Q 64;31.2907
1SMF E N 34;1SMF E R 66;34.808
1SMF E S 37;1SMF E G 38;24.1432
1SMF E S 37;1SMF E Y 39;31.7175
1SMF E S 37;1SMF E F 41;12.4066
1SMF E S 37;1SMF E K 60;15.518
1SMF E S 37;1SMF E S 61;2.53327
1SMF E S 37;1SMF E G 62;13.0043
1SMF E S 37;1SMF E I 63;1.28683
1SMF E G 38;1SMF E Y 39;29.7557
1SMF E Y 39;1SMF E H 40;31.1211
1SMF E Y 39;1SMF E F 41;14.3439
1SMF E Y 39;1SMF E K 60;16.4954
1SMF E Y 39;1SMF I I 13;16.2326
1SMF E Y 39;1SMF I P 14;7.35921
1SMF E H 40;1SMF E F 41;20.629
1SMF E H 40;1SMF E C 42;11.2169
1SMF E H 40;1SMF E G 43;5.6464
1SMF E H 40;1SMF E I 73;21.5794
1SMF E H 40;1SMF E W 141;28.3652
1SMF E H 40;1SMF E G 193;14.5226
1SMF E H 40;1SMF I I 13;19.8607
1SMF E F 41;1SMF E C 42;35.7174
1SMF E F 41;1SMF E C 58;13.8454
1SMF E F 41;1SMF E K 60;25.4994
1SMF E F 41;1SMF E I 63;14.7357
1SMF E F 41;1SMF E G 193;5.57987
1SMF E F 41;1SMF E S 195;0.0983273
1SMF E F 41;1SMF I K 11;0.00987963
1SMF E F 41;1SMF I S 12;6.15394
1SMF E F 41;1SMF I I 13;24.61
1SMF E C 42;1SMF E G 43;18.6784
1SMF E C 42;1SMF E S 54;1.0056
1SMF E C 42;1SMF E C 58;20.5671
1SMF E C 42;1SMF E G 193;4.96291
1SMF E C 42;1SMF E S 195;12.9354
1SMF E C 42;1SMF E G 196;0.050775
1SMF E C 42;1SMF I S 12;9.67873
1SMF E G 43;1SMF E G 44;16.0587
1SMF E G 43;1SMF E S 54;6.17665
1SMF E G 43;1SMF E G 140;0.131137
1SMF E G 43;1SMF E W 141;1.42476
1SMF E G 43;1SMF E G 193;3.9155
1SMF E G 43;1SMF E D 194;4.28356
1SMF E G 43;1SMF E S 195;7.8087
1SMF E G 43;1SMF E G 196;5.41706
1SMF E G 43;1SMF E G 197;6.37179
1SMF E G 44;1SMF E S 45;19.1204
1SMF E G 44;1SMF E V 52;3.80325
1SMF E G 44;1SMF E V 53;4.33648
1SMF E G 44;1SMF E S 54;4.62769
1SMF E G 44;1SMF E G 196;6.36472
1SMF E G 44;1SMF E G 197;5.7874
1SMF E G 44;1SMF E P 198;5.80645
1SMF E S 45;1SMF E L 46;17.5169
1SMF E S 45;1SMF E I 47;8.3228
1SMF E S 45;1SMF E V 52;11.7926
1SMF E S 45;1SMF E V 53;19.0455
1SMF E S 45;1SMF E I 121;8.54564
1SMF E S 45;1SMF E G 196;1.22944
1SMF E S 45;1SMF E G 197;1.4393
1SMF E S 45;1SMF E P 198;13.4913
1SMF E S 45;1SMF E L 209;13.6475
1SMF E L 46;1SMF E I 47;15.87
1SMF E L 46;1SMF E N 48;12.1841
1SMF E L 46;1SMF E S 49;5.58607
1SMF E L 46;1SMF E Q 50;0.0301209
1SMF E L 46;1SMF E W 51;8.34688
1SMF E L 46;1SMF E V 52;12.4799
1SMF E L 46;1SMF E L 67;15.6729
1SMF E L 46;1SMF E L 108;7.00223
1SMF E L 46;1SMF E A 112;7.43713
1SMF E L 46;1SMF E L 114;10.5028
1SMF E L 46;1SMF E V 118;7.83779
1SMF E L 46;1SMF E A 119;8.2574
1SMF E L 46;1SMF E S 120;13.8232
1SMF E L 46;1SMF E I 121;9.13977
1SMF E I 47;1SMF E N 48;30.8485
1SMF E I 47;1SMF E W 51;16.4214
1SMF E I 47;1SMF E V 52;2.95806
1SMF E I 47;1SMF E V 53;18.5376
1SMF E I 47;1SMF E L 105;3.88515
1SMF E I 47;1SMF E S 120;11.3498
1SMF E I 47;1SMF E I 121;21.8218
1SMF E I 47;1SMF E L 123;24.4094
1SMF E I 47;1SMF E L 209;6.42856
1SMF E I 47;1SMF E I 238;7.78467
1SMF E I 47;1SMF E I 242;10.8595
1SMF E N 48;1SMF E S 49;26.4417
1SMF E N 48;1SMF E Q 50;11.6518
1SMF E N 48;1SMF E W 51;27.9089
1SMF E N 48;1SMF E L 114;2.83869
1SMF E N 48;1SMF E S 120;10.6874
1SMF E N 48;1SMF E I 242;13.2103
1SMF E S 49;1SMF E Q 50;22.498
1SMF E S 49;1SMF E W 51;0.0547512
1SMF E S 49;1SMF E L 108;5.01481
1SMF E S 49;1SMF E A 111;18.0641
1SMF E S 49;1SMF E A 112;20.2905
1SMF E S 49;1SMF E L 114;22.2515
1SMF E Q 50;1SMF E W 51;29.571
1SMF E Q 50;1SMF E I 106;0.677926
1SMF E Q 50;1SMF E K 107;26.34
1SMF E Q 50;1SMF E L 108;30.3677
1SMF E Q 50;1SMF E K 109;5.58752
1SMF E Q 50;1SMF E S 110;6.5671
1SMF E Q 50;1SMF E A 111;18.8811
1SMF E W 51;1SMF E V 52;22.374
1SMF E W 51;1SMF E K 87;2.46569
1SMF E W 51;1SMF E I 89;13.1554
1SMF E W 51;1SMF E L 105;18.9629
1SMF E W 51;1SMF E I 106;12.1634
1SMF E W 51;1SMF E K 107;33.6047
1SMF E W 51;1SMF E L 108;2.0348
1SMF E W 51;1SMF E T 241;2.87199
1SMF E W 51;1SMF E I 242;40.0355
1SMF E W 51;1SMF E N 245;15.831
1SMF E V 52;1SMF E V 53;23.285
1SMF E V 52;1SMF E S 54;4.02105
1SMF E V 52;1SMF E V 65;11.1226
1SMF E V 52;1SMF E L 67;1.57307
1SMF E V 52;1SMF E M 104;0.877894
1SMF E V 52;1SMF E L 105;7.92065
1SMF E V 52;1SMF E I 106;31.3541
1SMF E V 52;1SMF E L 108;11.5655
1SMF E V 53;1SMF E S 54;21.8261
1SMF E V 53;1SMF E I 103;10.1152
1SMF E V 53;1SMF E M 104;6.21813
1SMF E V 53;1SMF E L 105;12.6235
1SMF E V 53;1SMF E L 123;2.25422
1SMF E V 53;1SMF E G 196;3.61871
1SMF E V 53;1SMF E L 209;12.7226
1SMF E V 53;1SMF E I 212;13.8455
1SMF E V 53;1SMF E V 231;2.50602
1SMF E V 53;1SMF E I 238;10.7051
1SMF E S 54;1SMF E A 55;19.9729
1SMF E S 54;1SMF E C 58;5.74362
1SMF E S 54;1SMF E D 102;0.00052639
1SMF E S 54;1SMF E I 103;4.57715
1SMF E S 54;1SMF E M 104;25.4304
1SMF E S 54;1SMF E I 106;7.4445
1SMF E S 54;1SMF E G 196;10.5091
1SMF E S 54;1SMF E I 212;10.4239
1SMF E A 55;1SMF E A 56;14.2846
1SMF E A 55;1SMF E H 57;11.8168
1SMF E A 55;1SMF E C 58;16.8605
1SMF E A 55;1SMF E Y 59;0.801296
1SMF E A 55;1SMF E D 102;13.9452
1SMF E A 55;1SMF E I 103;1.6035
1SMF E A 55;1SMF E M 104;9.25071
1SMF E A 55;1SMF E S 195;0.884564
1SMF E A 55;1SMF E G 196;9.77712
1SMF E A 55;1SMF E I 212;8.53627
1SMF E A 55;1SMF E V 213;4.84331
1SMF E A 55;1SMF E S 214;1.29167
1SMF E A 55;1SMF E T 229;0.10478
1SMF E A 56;1SMF E H 57;16.9501
1SMF E A 56;1SMF E C 58;2.30562
1SMF E A 56;1SMF E Y 59;12.4673
1SMF E A 56;1SMF E V 90;14.6229
1SMF E A 56;1SMF E H 91;0.326342
1SMF E A 56;1SMF E Y 94;19.6527
1SMF E A 56;1SMF E N 101;1.81129
1SMF E A 56;1SMF E D 102;10.1637
1SMF E A 56;1SMF E I 103;13.2889
1SMF E A 56;1SMF E M 104;10.1264
1SMF E H 57;1SMF E C 58;26.1616
1SMF E H 57;1SMF E Y 59;6.66011
1SMF E H 57;1SMF E Y 94;16.4474
1SMF E H 57;1SMF E L 99;6.96248
1SMF E H 57;1SMF E D 102;16.212
1SMF E H 57;1SMF E S 195;11.1916
1SMF E H 57;1SMF E V 213;1.27952
1SMF E H 57;1SMF E S 214;9.87883
1SMF E H 57;1SMF I T 10;18.8041
1SMF E H 57;1SMF I K 11;0.744586
1SMF E H 57;1SMF I S 12;11.9572
1SMF E H 57;1SMF I E 16;25.7337
1SMF E C 58;1SMF E Y 59;20.9451
1SMF E C 58;1SMF E K 60;5.8025
1SMF E C 58;1SMF E I 63;4.0458
1SMF E C 58;1SMF E M 104;7.12435
1SMF E C 58;1SMF E S 195;6.64086
1SMF E C 58;1SMF E G 196;2.98903
1SMF E C 58;1SMF I S 12;2.14722
1SMF E Y 59;1SMF E K 60;44.041
1SMF E Y 59;1SMF E S 61;12.7984
1SMF E Y 59;1SMF E I 63;3.39959
1SMF E Y 59;1SMF E S 88;24.1565
1SMF E Y 59;1SMF E V 90;20.5219
1SMF E Y 59;1SMF E M 104;16.534
1SMF E K 60;1SMF E S 61;38.148
1SMF E K 60;1SMF E G 62;1.62559
1SMF E K 60;1SMF E I 63;24.0451
1SMF E K 60;1SMF E S 88;3.39104
1SMF E K 60;1SMF I I 13;2.91972
1SMF E K 60;1SMF I P 14;4.42099
1SMF E S 61;1SMF E G 62;34.2992
1SMF E S 61;1SMF E I 63;1.69221
1SMF E G 62;1SMF E I 63;28.8174
1SMF E G 62;1SMF E Q 64;2.76698
1SMF E I 63;1SMF E Q 64;26.064
1SMF E I 63;1SMF E V 65;7.23863
1SMF E I 63;1SMF E S 84;6.18789
1SMF E I 63;1SMF E A 85;24.9484
1SMF E I 63;1SMF E S 88;9.39544
1SMF E I 63;1SMF E M 104;6.52538
1SMF E I 63;1SMF E I 106;10.2526
1SMF E Q 64;1SMF E V 65;20.8463
1SMF E Q 64;1SMF E R 66;24.9002
1SMF E Q 64;1SMF E F 82;22.549
1SMF E Q 64;1SMF E I 83;7.51336
1SMF E Q 64;1SMF E S 84;11.6366
1SMF E Q 64;1SMF E A 85;0.132731
1SMF E V 65;1SMF E R 66;20.1781
1SMF E V 65;1SMF E L 67;15.8933
1SMF E V 65;1SMF E Q 81;1.20855
1SMF E V 65;1SMF E F 82;4.02323
1SMF E V 65;1SMF E I 83;19.9427
1SMF E V 65;1SMF E S 84;0.11803
1SMF E V 65;1SMF E A 85;7.53763
1SMF E V 65;1SMF E I 106;9.70495
1SMF E V 65;1SMF E L 108;15.9488
1SMF E R 66;1SMF E L 67;20.0268
1SMF E R 66;1SMF E G 69;1.19988e-05
1SMF E R 66;1SMF E E 70;25.474
1SMF E R 66;1SMF E I 73;11.2577
1SMF E R 66;1SMF E Q 81;3.45457
1SMF E R 66;1SMF E F 82;39.866
1SMF E R 66;1SMF E W 141;0.254417
1SMF E L 67;1SMF E G 69;21.1583
1SMF E L 67;1SMF E E 70;8.12869
1SMF E L 67;1SMF E N 79;0.60317
1SMF E L 67;1SMF E E 80;6.88444
1SMF E L 67;1SMF E Q 81;30.6027
1SMF E L 67;1SMF E F 82;0.3568
1SMF E L 67;1SMF E I 83;12.9853
1SMF E L 67;1SMF E L 108;7.40362
1SMF E L 67;1SMF E A 112;8.48851
1SMF E L 67;1SMF E V 118;15.9343
1SMF E G 69;1SMF E E 70;27.8468
1SMF E G 69;1SMF E D 71;2.14631
1SMF E G 69;1SMF E N 79;19.7362
1SMF E G 69;1SMF E E 80;7.68504
1SMF E G 69;1SMF E R 117;10.9403
1SMF E G 69;1SMF E V 118;13.3387
1SMF E E 70;1SMF E D 71;29.577
1SMF E E 70;1SMF E N 72;7.7908
1SMF E E 70;1SMF E I 73;22.3767
1SMF E E 70;1SMF E V 75;1.81891
1SMF E E 70;1SMF E E 80;20.1433
1SMF E E 70;1SMF E F 82;11.2468
1SMF E E 70;1SMF E W 141;20.2045
1SMF E E 70;1SMF E L 155;6.27149
1SMF E D 71;1SMF E N 72;20.3512
1SMF E D 71;1SMF E I 73;3.26723
1SMF E D 71;1SMF E E 77;15.9281
1SMF E D 71;1SMF E E 80;0.843912
1SMF E D 71;1SMF E W 141;10.3604
1SMF E D 71;1SMF E D 153;1.87958
1SMF E D 71;1SMF E V 154;23.1099
1SMF E D 71;1SMF E L 155;18.8828
1SMF E N 72;1SMF E I 73;16.0636
1SMF E N 72;1SMF E N 74;12.5234
1SMF E N 72;1SMF E V 75;32.9471
1SMF E N 72;1SMF E E 77;23.5721
1SMF E N 72;1SMF E E 80;0.765695
1SMF E N 72;1SMF E D 153;23.5272
1SMF E N 72;1SMF E V 154;16.5127
1SMF E I 73;1SMF E N 74;39.5945
1SMF E I 73;1SMF E V 75;3.08335
1SMF E I 73;1SMF E W 141;28.6576
1SMF E I 73;1SMF E P 152;8.72637
1SMF E I 73;1SMF E D 153;11.9736
1SMF E N 74;1SMF E V 75;33.3642
1SMF E N 74;1SMF E P 152;3.08463
1SMF E N 74;1SMF E D 153;21.9597
1SMF E V 75;1SMF E V 76;36.6131
1SMF E V 75;1SMF E E 77;20.1515
1SMF E V 75;1SMF E E 80;5.42652
1SMF E V 76;1SMF E E 77;21.8186
1SMF E V 76;1SMF E G 78;6.66908
1SMF E V 76;1SMF E E 80;19.9295
1SMF E V 76;1SMF E F 82;15.8732
1SMF E E 77;1SMF E G 78;29.6644
1SMF E E 77;1SMF E N 79;2.41016
1SMF E E 77;1SMF E E 80;12.3
1SMF E E 77;1SMF E V 154;0.942224
1SMF E G 78;1SMF E N 79;31.4076
1SMF E G 78;1SMF E E 80;17.9268
1SMF E N 79;1SMF E E 80;26.8483
1SMF E N 79;1SMF E Q 81;5.30899
1SMF E N 79;1SMF E R 117;34.1075
1SMF E N 79;1SMF E V 118;6.82466
1SMF E E 80;1SMF E Q 81;29.9066
1SMF E E 80;1SMF E F 82;17.5808
1SMF E Q 81;1SMF E F 82;27.8708
1SMF E Q 81;1SMF E I 83;16.1358
1SMF E Q 81;1SMF E A 111;0.411419
1SMF E Q 81;1SMF E A 112;7.86783
1SMF E Q 81;1SMF E S 113;27.3044
1SMF E Q 81;1SMF E N 115;3.28767
1SMF E Q 81;1SMF E V 118;14.262
1SMF E F 82;1SMF E I 83;28.4755
1SMF E F 82;1SMF E S 84;0.0017526
1SMF E I 83;1SMF E S 84;29.3697
1SMF E I 83;1SMF E A 85;0.849629
1SMF E I 83;1SMF E L 108;19.355
1SMF E I 83;1SMF E K 109;7.11183
1SMF E I 83;1SMF E S 110;22.0483
1SMF E I 83;1SMF E A 111;5.67061
1SMF E I 83;1SMF E A 112;9.93998
1SMF E S 84;1SMF E A 85;26.2107
1SMF E S 84;1SMF E S 86;0.942291
1SMF E S 84;1SMF E L 108;4.10802
1SMF E S 84;1SMF E K 109;37.2712
1SMF E A 85;1SMF E S 86;23.8496
1SMF E A 85;1SMF E K 87;4.99929
1SMF E A 85;1SMF E S 88;7.22381
1SMF E A 85;1SMF E I 106;12.119
1SMF E A 85;1SMF E K 107;3.73181
1SMF E A 85;1SMF E L 108;4.29599
1SMF E A 85;1SMF E K 109;4.12852
1SMF E S 86;1SMF E K 87;35.0226
1SMF E S 86;1SMF E K 107;17.5341
1SMF E S 86;1SMF E L 108;6.2308
1SMF E S 86;1SMF E K 109;24.5392
1SMF E K 87;1SMF E S 88;28.1805
1SMF E K 87;1SMF E I 89;20.2573
1SMF E K 87;1SMF E L 105;0.61465
1SMF E K 87;1SMF E I 106;7.76502
1SMF E K 87;1SMF E K 107;29.3854
1SMF E K 87;1SMF E N 245;25.0438
1SMF E S 88;1SMF E I 89;22.5762
1SMF E S 88;1SMF E V 90;7.91895
1SMF E S 88;1SMF E M 104;9.98285
1SMF E S 88;1SMF E L 105;3.52235
1SMF E S 88;1SMF E I 106;12.0539
1SMF E I 89;1SMF E V 90;26.8224
1SMF E I 89;1SMF E H 91;0.73647
1SMF E I 89;1SMF E P 92;2.42647
1SMF E I 89;1SMF E M 104;9.30929
1SMF E I 89;1SMF E L 105;23.9904
1SMF E I 89;1SMF E K 107;0.0803843
1SMF E I 89;1SMF E W 237;14.9745
1SMF E I 89;1SMF E T 241;18.4262
1SMF E I 89;1SMF E N 245;14.1054
1SMF E V 90;1SMF E H 91;26.3726
1SMF E V 90;1SMF E P 92;10.7332
1SMF E V 90;1SMF E Y 94;16.5343
1SMF E V 90;1SMF E I 103;1.38197
1SMF E V 90;1SMF E M 104;13.7159
1SMF E V 90;1SMF E W 237;1.51904
1SMF E H 91;1SMF E P 92;29.8122
1SMF E H 91;1SMF E S 93;20.8415
1SMF E H 91;1SMF E Y 94;15.6123
1SMF E H 91;1SMF E N 101;22.4004
1SMF E H 91;1SMF E I 103;20.0277
1SMF E H 91;1SMF E M 104;0.2859
1SMF E H 91;1SMF E Y 234;13.1644
1SMF E H 91;1SMF E W 237;32.7635
1SMF E P 92;1SMF E S 93;29.0934
1SMF E P 92;1SMF E Y 94;4.26284
1SMF E P 92;1SMF E W 237;17.205
1SMF E S 93;1SMF E Y 94;22.2365
1SMF E S 93;1SMF E N 95;7.55228
1SMF E S 93;1SMF E N 100;2.79704
1SMF E S 93;1SMF E N 101;19.8135
1SMF E Y 94;1SMF E N 95;28.8855
1SMF E Y 94;1SMF E S 96;26.8052
1SMF E Y 94;1SMF E L 99;15.627
1SMF E Y 94;1SMF E N 100;6.12078
1SMF E Y 94;1SMF E N 101;12.9362
1SMF E Y 94;1SMF E D 102;11.3159
1SMF E Y 94;1SMF I E 16;4.85574
1SMF E N 95;1SMF E S 96;22.6223
1SMF E N 95;1SMF E N 97;17.1667
1SMF E N 95;1SMF E T 98;25.5968
1SMF E N 95;1SMF E L 99;8.7211
1SMF E N 95;1SMF E N 100;15.7012
1SMF E S 96;1SMF E N 97;32.1495
1SMF E S 96;1SMF E T 98;0.0449183
1SMF E S 96;1SMF E L 99;14.7988
1SMF E S 96;1SMF I E 16;2.04776
1SMF E N 97;1SMF E T 98;30.7842
1SMF E N 97;1SMF E L 99;7.18521
1SMF E T 98;1SMF E L 99;22.2251
1SMF E T 98;1SMF E N 100;16.8389
1SMF E T 98;1SMF E Q 175;4.04936
1SMF E T 98;1SMF E T 177;7.3763
1SMF E T 98;1SMF E M 180;9.42872
1SMF E T 98;1SMF E W 215;4.98639
1SMF E L 99;1SMF E N 100;18.1005
1SMF E L 99;1SMF E N 101;2.16333
1SMF E L 99;1SMF E D 102;21.5547
1SMF E L 99;1SMF E M 180;10.8774
1SMF E L 99;1SMF E S 214;6.46495
1SMF E L 99;1SMF E W 215;27.7257
1SMF E L 99;1SMF E T 229;0.0758487
1SMF E L 99;1SMF I C 9;0.997626
1SMF E L 99;1SMF I T 10;21.2866
1SMF E L 99;1SMF I E 16;0.677972
1SMF E N 100;1SMF E N 101;36.5353
1SMF E N 100;1SMF E D 102;1.48785
1SMF E N 100;1SMF E T 177;23.6067
1SMF E N 100;1SMF E N 179;17.4855
1SMF E N 100;1SMF E M 180;8.3894
1SMF E N 100;1SMF E Y 234;0.0153508
1SMF E N 101;1SMF E D 102;18.223
1SMF E N 101;1SMF E I 103;10.9444
1SMF E N 101;1SMF E N 179;13.4749
1SMF E N 101;1SMF E M 180;0.201662
1SMF E N 101;1SMF E T 229;1.28631
1SMF E N 101;1SMF E Y 234;25.2928
1SMF E D 102;1SMF E I 103;15.9331
1SMF E D 102;1SMF E I 212;4.88737
1SMF E D 102;1SMF E S 214;15.0967
1SMF E D 102;1SMF E T 229;24.6036
1SMF E I 103;1SMF E M 104;22.3772
1SMF E I 103;1SMF E L 105;2.98072
1SMF E I 103;1SMF E I 212;12.3213
1SMF E I 103;1SMF E T 229;7.90554
1SMF E I 103;1SMF E V 231;6.00293
1SMF E I 103;1SMF E Y 234;24.7671
1SMF E I 103;1SMF E W 237;16.3996
1SMF E I 103;1SMF E I 238;11.6655
1SMF E M 104;1SMF E L 105;24.7169
1SMF E M 104;1SMF E I 106;16.1755
1SMF E M 104;1SMF E W 237;2.36662
1SMF E L 105;1SMF E I 106;19.4942
1SMF E L 105;1SMF E K 107;0.103376
1SMF E L 105;1SMF E W 237;16.4344
1SMF E L 105;1SMF E I 238;19.6882
1SMF E L 105;1SMF E T 241;13.2681
1SMF E L 105;1SMF E I 242;10.4579
1SMF E I 106;1SMF E K 107;21.8562
1SMF E I 106;1SMF E L 108;6.83252
1SMF E K 107;1SMF E L 108;25.6734
1SMF E K 107;1SMF E N 245;21.8745
1SMF E L 108;1SMF E K 109;18.4267
1SMF E L 108;1SMF E S 110;12.6907
1SMF E L 108;1SMF E A 111;0.267774
1SMF E L 108;1SMF E A 112;6.5523
1SMF E K 109;1SMF E S 110;30.3268
1SMF E S 110;1SMF E A 111;31.7876
1SMF E S 110;1SMF E A 112;0.539642
1SMF E A 111;1SMF E A 112;27.2951
1SMF E A 111;1SMF E S 113;2.11344
1SMF E A 112;1SMF E S 113;24.2047
1SMF E A 112;1SMF E L 114;13.754
1SMF E A 112;1SMF E V 118;4.86003
1SMF E S 113;1SMF E L 114;24.8865
1SMF E S 113;1SMF E N 115;14.7079
1SMF E S 113;1SMF E V 118;7.45923
1SMF E L 114;1SMF E N 115;31.1767
1SMF E L 114;1SMF E V 118;13.5229
1SMF E L 114;1SMF E A 119;9.39547
1SMF E L 114;1SMF E S 120;15.5982
1SMF E N 115;1SMF E S 116;30.2385
1SMF E N 115;1SMF E R 117;30.0133
1SMF E N 115;1SMF E V 118;23.0537
1SMF E N 115;1SMF E A 119;9.37555
1SMF E S 116;1SMF E R 117;40.7194
1SMF E S 116;1SMF E V 118;3.85181
1SMF E S 116;1SMF E A 119;3.27288
1SMF E R 117;1SMF E V 118;23.7858
1SMF E V 118;1SMF E A 119;18.8285
1SMF E A 119;1SMF E S 120;29.4863
1SMF E S 120;1SMF E I 121;27.3001
1SMF E S 120;1SMF E S 122;0.544716
1SMF E I 121;1SMF E S 122;34.2414
1SMF E I 121;1SMF E L 123;3.56117
1SMF E I 121;1SMF E P 198;0.187104
1SMF E I 121;1SMF E V 200;15.9806
1SMF E I 121;1SMF E G 203;14.4495
1SMF E I 121;1SMF E K 204;2.40096
1SMF E I 121;1SMF E L 209;17.5352
1SMF E S 122;1SMF E L 123;29.848
1SMF E S 122;1SMF E P 124;0.174208
1SMF E S 122;1SMF E G 203;9.4817
1SMF E S 122;1SMF E K 204;23.6802
1SMF E S 122;1SMF E L 209;9.83139
1SMF E L 123;1SMF E P 124;29.105
1SMF E L 123;1SMF E T 125;4.84407
1SMF E L 123;1SMF E K 204;10.5413
1SMF E L 123;1SMF E L 209;10.0703
1SMF E L 123;1SMF E V 231;6.59242
1SMF E L 123;1SMF E V 235;18.8602
1SMF E L 123;1SMF E I 238;20.3408
1SMF E L 123;1SMF E K 239;12.4281
1SMF E L 123;1SMF E I 242;0.769224
1SMF E P 124;1SMF E T 125;29.3446
1SMF E P 124;1SMF E S 127;10.1507
1SMF E P 124;1SMF E K 204;15.3624
1SMF E P 124;1SMF E L 209;13.403
1SMF E P 124;1SMF E Q 210;16.2732
1SMF E P 124;1SMF E V 231;8.27293
1SMF E P 124;1SMF E C 232;12.4679
1SMF E P 124;1SMF E V 235;23.731
1SMF E T 125;1SMF E S 127;38.545
1SMF E T 125;1SMF E K 204;14.4821
1SMF E T 125;1SMF E C 232;0.123731
1SMF E T 125;1SMF E V 235;0.566815
1SMF E S 127;1SMF E C 128;35.5594
1SMF E S 127;1SMF E Q 210;7.92042
1SMF E S 127;1SMF E C 232;7.42215
1SMF E C 128;1SMF E A 129;33.5061
1SMF E C 128;1SMF E S 130;2.87923
1SMF E C 128;1SMF E Q 210;5.57949
1SMF E C 128;1SMF E K 230;14.4372
1SMF E C 128;1SMF E C 232;27.1206
1SMF E C 128;1SMF E N 233;5.571
1SMF E A 129;1SMF E S 130;29.7691
1SMF E A 129;1SMF E A 132;1.43789
1SMF E A 129;1SMF E T 134;10.5961
1SMF E A 129;1SMF E I 162;21.5383
1SMF E A 129;1SMF E C 201;4.5009
1SMF E A 129;1SMF E Q 210;21.0085
1SMF E A 129;1SMF E C 232;0.0279509
1SMF E S 130;1SMF E A 132;33.795
1SMF E S 130;1SMF E G 133;0.314237
1SMF E S 130;1SMF E T 134;21.3205
1SMF E S 130;1SMF E I 162;7.26978
1SMF E A 132;1SMF E G 133;24.4263
1SMF E A 132;1SMF E T 134;4.0351
1SMF E A 132;1SMF E I 162;12.1281
1SMF E A 132;1SMF E L 163;6.82211
1SMF E A 132;1SMF E S 164;19.2474
1SMF E G 133;1SMF E T 134;23.2665
1SMF E G 133;1SMF E Q 135;10.5596
1SMF E G 133;1SMF E P 161;12.2607
1SMF E G 133;1SMF E I 162;12.4918
1SMF E T 134;1SMF E Q 135;27.9234
1SMF E T 134;1SMF E C 136;7.83862
1SMF E T 134;1SMF E A 160;0.959598
1SMF E T 134;1SMF E P 161;5.39733
1SMF E T 134;1SMF E I 162;16.7749
1SMF E T 134;1SMF E C 201;10.7119
1SMF E T 134;1SMF E S 202;11.4474
1SMF E Q 135;1SMF E C 136;25.4623
1SMF E Q 135;1SMF E K 159;22.1973
1SMF E Q 135;1SMF E A 160;8.28777
1SMF E Q 135;1SMF E P 161;18.8632
1SMF E Q 135;1SMF E Y 184;5.97769
1SMF E Q 135;1SMF E V 200;0.012382
1SMF E Q 135;1SMF E C 201;5.93576
1SMF E Q 135;1SMF E S 202;4.63263
1SMF E C 136;1SMF E L 137;20.8579
1SMF E C 136;1SMF E I 138;6.05919
1SMF E C 136;1SMF E L 158;1.23614
1SMF E C 136;1SMF E K 159;10.0351
1SMF E C 136;1SMF E A 160;21.7816
1SMF E C 136;1SMF E I 162;12.3711
1SMF E C 136;1SMF E A 183;1.55675
1SMF E C 136;1SMF E V 199;13.5197
1SMF E C 136;1SMF E V 200;7.82938
1SMF E C 136;1SMF E C 201;15.997
1SMF E L 137;1SMF E I 138;24.1487
1SMF E L 137;1SMF E S 139;6.24779
1SMF E L 137;1SMF E C 157;15.3011
1SMF E L 137;1SMF E L 158;10.852
1SMF E L 137;1SMF E K 159;15.4234
1SMF E L 137;1SMF E P 198;4.63382
1SMF E L 137;1SMF E V 199;4.64865
1SMF E L 137;1SMF E V 200;26.1919
1SMF E I 138;1SMF E S 139;23.3
1SMF E I 138;1SMF E K 156;1.59954e-06
1SMF E I 138;1SMF E C 157;4.91148
1SMF E I 138;1SMF E L 158;31.4993
1SMF E I 138;1SMF E A 160;14.7604
1SMF E I 138;1SMF E A 183;8.80098
1SMF E I 138;1SMF E G 184a;0.669954
1SMF E I 138;1SMF E D 189;0.00808314
1SMF E I 138;1SMF E S 190;8.38071
1SMF E I 138;1SMF E D 194;0.186537
1SMF E I 138;1SMF E P 198;9.05775
1SMF E I 138;1SMF E V 199;18.0612
1SMF E I 138;1SMF E V 213;9.76849
1SMF E I 138;1SMF E Y 228;18.3556
1SMF E S 139;1SMF E G 140;18.3998
1SMF E S 139;1SMF E L 155;7.53025
1SMF E S 139;1SMF E K 156;6.0059
1SMF E S 139;1SMF E C 157;8.19525
1SMF E S 139;1SMF E D 194;4.37406
1SMF E S 139;1SMF E G 197;3.76402
1SMF E S 139;1SMF E P 198;17.464
1SMF E S 139;1SMF E V 213;2.85141
1SMF E G 140;1SMF E W 141;23.0139
1SMF E G 140;1SMF E G 142;3.02875
1SMF E G 140;1SMF E P 152;1.06226
1SMF E G 140;1SMF E V 154;0.218465
1SMF E G 140;1SMF E L 155;13.0502
1SMF E G 140;1SMF E K 156;16.8428
1SMF E G 140;1SMF E G 193;0.089454
1SMF E G 140;1SMF E D 194;13.5188
1SMF E W 141;1SMF E G 142;21.1301
1SMF E W 141;1SMF E Y 151;8.52356
1SMF E W 141;1SMF E P 152;22.7387
1SMF E W 141;1SMF E D 153;6.08917
1SMF E W 141;1SMF E V 154;7.34721
1SMF E W 141;1SMF E L 155;26.9412
1SMF E W 141;1SMF E G 193;3.34137
1SMF E W 141;1SMF E D 194;1.3046
1SMF E W 141;1SMF I I 13;1.16766
1SMF E G 142;1SMF E N 143;17.952
1SMF E G 142;1SMF E T 144;4.9289
1SMF E G 142;1SMF E Y 151;3.7691
1SMF E G 142;1SMF E P 152;8.84398
1SMF E G 142;1SMF E K 156;0.542472
1SMF E G 142;1SMF E C 191;1.57269
1SMF E G 142;1SMF E Q 192;4.28781
1SMF E G 142;1SMF E G 193;9.31039
1SMF E G 142;1SMF E D 194;12.8682
1SMF E G 142;1SMF I I 13;0.0282439
1SMF E N 143;1SMF E T 144;16.6416
1SMF E N 143;1SMF E K 145;18.0687
1SMF E N 143;1SMF E G 148;10.6465
1SMF E N 143;1SMF E T 149;12.5691
1SMF E N 143;1SMF E S 150;12.7005
1SMF E N 143;1SMF E Y 151;17.6634
1SMF E N 143;1SMF E P 152;0.406557
1SMF E N 143;1SMF E C 191;23.1811
1SMF E N 143;1SMF E Q 192;16.7652
1SMF E T 144;1SMF E K 145;40.3093
1SMF E T 144;1SMF E S 150;18.5032
1SMF E T 144;1SMF E P 152;14.4132
1SMF E T 144;1SMF E K 156;15.3706
1SMF E K 145;1SMF E S 146;25.4445
1SMF E K 145;1SMF E S 147;11.445
1SMF E K 145;1SMF E G 148;12.7704
1SMF E K 145;1SMF E T 149;5.23593
1SMF E K 145;1SMF E S 150;20.3542
1SMF E K 145;1SMF E C 191;5.74917
1SMF E K 145;1SMF E C 220;0.236067
1SMF E S 146;1SMF E S 147;35.0558
1SMF E S 146;1SMF E G 148;4.62735
1SMF E S 146;1SMF E G 188a;2.47213
1SMF E S 146;1SMF E C 191;0.276415
1SMF E S 146;1SMF E C 220;19.1957
1SMF E S 146;1SMF E Q 221;10.9254
1SMF E S 146;1SMF E A 221a;10.3927
1SMF E S 147;1SMF E G 148;28.0785
1SMF E S 147;1SMF E Q 221;3.41642
1SMF E G 148;1SMF E T 149;31.6259
1SMF E T 149;1SMF E S 150;27.0482
1SMF E T 149;1SMF E Y 151;27.1087
1SMF E S 150;1SMF E Y 151;31.3821
1SMF E S 150;1SMF E P 152;2.71153
1SMF E Y 151;1SMF E P 152;36.7344
1SMF E Y 151;1SMF E D 153;2.34839
1SMF E Y 151;1SMF E Q 192;13.3272
1SMF E Y 151;1SMF E G 193;0.426512
1SMF E Y 151;1SMF I I 13;30.3028
1SMF E Y 151;1SMF I P 15;0.103695
1SMF E P 152;1SMF E D 153;27.5628
1SMF E P 152;1SMF E V 154;11.9317
1SMF E P 152;1SMF E K 156;18.9063
1SMF E D 153;1SMF E V 154;26.7559
1SMF E V 154;1SMF E L 155;21.4138
1SMF E V 154;1SMF E K 156;16.3509
1SMF E L 155;1SMF E K 156;22.1851
1SMF E K 156;1SMF E C 157;15.3449
1SMF E C 157;1SMF E L 158;17.0746
1SMF E L 158;1SMF E K 159;30.7071
1SMF E L 158;1SMF E A 160;10.4613
1SMF E L 158;1SMF E Y 184;5.88556
1SMF E L 158;1SMF E G 184a;1.27558
1SMF E L 158;1SMF E K 188;21.7019
1SMF E L 158;1SMF E D 189;14.5413
1SMF E L 158;1SMF E S 190;2.27548
1SMF E K 159;1SMF E A 160;18.1365
1SMF E K 159;1SMF E Y 184;14.086
1SMF E K 159;1SMF E K 188;0.0855097
1SMF E A 160;1SMF E P 161;24.4724
1SMF E A 160;1SMF E I 162;0.696222
1SMF E A 160;1SMF E A 183;6.2971
1SMF E A 160;1SMF E Y 184;8.3977
1SMF E A 160;1SMF E G 184a;12.1451
1SMF E P 161;1SMF E I 162;21.5825
1SMF E P 161;1SMF E L 163;15.1491
1SMF E P 161;1SMF E A 183;8.21815
1SMF E P 161;1SMF E Y 184;17.3076
1SMF E P 161;1SMF E G 184a;16.5232
1SMF E I 162;1SMF E L 163;31.46
1SMF E I 162;1SMF E F 181;29.5721
1SMF E I 162;1SMF E C 182;5.17019
1SMF E I 162;1SMF E A 183;7.89181
1SMF E I 162;1SMF E V 199;0.97724
1SMF E I 162;1SMF E C 201;5.44163
1SMF E I 162;1SMF E Q 210;4.69516
1SMF E L 163;1SMF E S 164;30.6872
1SMF E L 163;1SMF E D 165;2.79755
1SMF E L 163;1SMF E S 167;11.7135
1SMF E L 163;1SMF E C 168;4.77086
1SMF E L 163;1SMF E F 181;2.10265
1SMF E L 163;1SMF E C 182;23.3043
1SMF E L 163;1SMF E A 183;5.63085
1SMF E L 163;1SMF E Y 184;2.41538
1SMF E L 163;1SMF E G 184a;14.1984
1SMF E L 163;1SMF E L 185;20.262
1SMF E L 163;1SMF E P 225;12.316
1SMF E S 164;1SMF E D 165;24.5963
1SMF E S 164;1SMF E S 166;15.201
1SMF E S 164;1SMF E S 167;22.0901
1SMF E S 164;1SMF E C 168;10.3323
1SMF E D 165;1SMF E S 166;23.2285
1SMF E D 165;1SMF E S 167;0.522617
1SMF E D 165;1SMF E C 168;13.3
1SMF E D 165;1SMF E K 169;34.0379
1SMF E D 165;1SMF E I 176;4.24915
1SMF E D 165;1SMF E M 180;4.89037
1SMF E D 165;1SMF E F 181;6.41771
1SMF E D 165;1SMF E K 230;5.27262
1SMF E S 166;1SMF E S 167;22.468
1SMF E S 166;1SMF E C 168;0.90801
1SMF E S 166;1SMF E K 169;11.5489
1SMF E S 166;1SMF E S 170;16.872
1SMF E S 167;1SMF E C 168;18.9119
1SMF E S 167;1SMF E K 169;0.594907
1SMF E S 167;1SMF E S 170;12.6921
1SMF E S 167;1SMF E A 171;12.2897
1SMF E S 167;1SMF E L 185;18.3137
1SMF E S 167;1SMF E P 225;0.382149
1SMF E C 168;1SMF E K 169;17.1685
1SMF E C 168;1SMF E S 170;0.89446
1SMF E C 168;1SMF E A 171;8.35146
1SMF E C 168;1SMF E Y 172;8.45876
1SMF E C 168;1SMF E I 176;23.6236
1SMF E C 168;1SMF E M 180;0.00175743
1SMF E C 168;1SMF E F 181;7.71884
1SMF E C 168;1SMF E C 182;30.2833
1SMF E C 168;1SMF E P 225;1.17675
1SMF E C 168;1SMF E V 227;1.43734
1SMF E K 169;1SMF E S 170;21.6933
1SMF E K 169;1SMF E A 171;0.82808
1SMF E K 169;1SMF E Y 172;8.82819
1SMF E K 169;1SMF E P 173;14.0075
1SMF E K 169;1SMF E G 174;1.11188
1SMF E K 169;1SMF E I 176;36.2279
1SMF E K 169;1SMF E T 177;3.16725
1SMF E K 169;1SMF E S 178;0.881705
1SMF E S 170;1SMF E A 171;23.7141
1SMF E S 170;1SMF E Y 172;1.11801
1SMF E S 170;1SMF E P 173;14.2774
1SMF E S 170;1SMF E K 224;0.377298
1SMF E A 171;1SMF E Y 172;28.0458
1SMF E A 171;1SMF E P 173;8.1553
1SMF E A 171;1SMF E C 182;1.38014
1SMF E A 171;1SMF E L 185;5.11066
1SMF E A 171;1SMF E N 223;9.94118
1SMF E A 171;1SMF E K 224;21.4485
1SMF E A 171;1SMF E P 225;11.1226
1SMF E Y 172;1SMF E P 173;20.279
1SMF E Y 172;1SMF E G 174;2.4087
1SMF E Y 172;1SMF E Q 175;29.3468
1SMF E Y 172;1SMF E I 176;19.7821
1SMF E Y 172;1SMF E C 182;7.42592
1SMF E Y 172;1SMF E W 215;15.7017
1SMF E Y 172;1SMF E G 216;5.99379
1SMF E Y 172;1SMF E S 217;19.6957
1SMF E Y 172;1SMF E K 224;22.5412
1SMF E Y 172;1SMF E P 225;16.1452
1SMF E Y 172;1SMF E V 227;10.757
1SMF E P 173;1SMF E G 174;27.1394
1SMF E P 173;1SMF E Q 175;19.5471
1SMF E G 174;1SMF E Q 175;27.598
1SMF E G 174;1SMF E I 176;4.61684
1SMF E G 174;1SMF E T 177;0.261721
1SMF E Q 175;1SMF E I 176;23.2914
1SMF E Q 175;1SMF E T 177;7.38558
1SMF E Q 175;1SMF E M 180;7.89907
1SMF E Q 175;1SMF E W 215;26.4243
1SMF E Q 175;1SMF E S 217;0.898031
1SMF E I 176;1SMF E T 177;32.1259
1SMF E I 176;1SMF E M 180;20.3794
1SMF E I 176;1SMF E F 181;1.85269
1SMF E I 176;1SMF E C 182;1.68759
1SMF E I 176;1SMF E W 215;6.27981
1SMF E I 176;1SMF E V 227;10.4217
1SMF E T 177;1SMF E S 178;29.746
1SMF E T 177;1SMF E N 179;11.1987
1SMF E T 177;1SMF E M 180;32.0712
1SMF E S 178;1SMF E N 179;28.1221
1SMF E S 178;1SMF E M 180;5.83197
1SMF E S 178;1SMF E K 230;13.8643
1SMF E S 178;1SMF E N 233;11.7028
1SMF E N 179;1SMF E M 180;22.9455
1SMF E N 179;1SMF E Y 228;0.0686963
1SMF E N 179;1SMF E T 229;9.50028
1SMF E N 179;1SMF E K 230;13.3011
1SMF E N 179;1SMF E N 233;19.6315
1SMF E N 179;1SMF E Y 234;20.2888
1SMF E M 180;1SMF E F 181;23.6554
1SMF E M 180;1SMF E W 215;16.3456
1SMF E M 180;1SMF E V 227;13.4922
1SMF E M 180;1SMF E Y 228;8.6041
1SMF E M 180;1SMF E T 229;2.76111
1SMF E M 180;1SMF E K 230;13.3798
1SMF E F 181;1SMF E C 182;26.2492
1SMF E F 181;1SMF E A 183;8.6676
1SMF E F 181;1SMF E V 199;11.7009
1SMF E F 181;1SMF E C 201;0.0282032
1SMF E F 181;1SMF E Q 210;13.2788
1SMF E F 181;1SMF E G 211;7.8295
1SMF E F 181;1SMF E G 226;0.00082569
1SMF E F 181;1SMF E V 227;9.06932
1SMF E F 181;1SMF E Y 228;34.022
1SMF E F 181;1SMF E T 229;3.29257
1SMF E F 181;1SMF E K 230;21.8641
1SMF E C 182;1SMF E A 183;17.049
1SMF E C 182;1SMF E P 225;14.3437
1SMF E C 182;1SMF E G 226;7.39666
1SMF E C 182;1SMF E V 227;8.24433
1SMF E C 182;1SMF E Y 228;1.02444
1SMF E A 183;1SMF E G 184a;21.5845
1SMF E A 183;1SMF E D 189;2.26684
1SMF E A 183;1SMF E V 199;5.06705
1SMF E A 183;1SMF E P 225;6.16494
1SMF E A 183;1SMF E G 226;12.0901
1SMF E A 183;1SMF E Y 228;19.9397
1SMF E Y 184;1SMF E G 184a;32.517
1SMF E Y 184;1SMF E L 185;22.0514
1SMF E Y 184;1SMF E E 186;30.3046
1SMF E Y 184;1SMF E G 187;19.1779
1SMF E Y 184;1SMF E K 188;46.0415
1SMF E Y 184;1SMF E Q 221;4.52168
1SMF E Y 184;1SMF E A 221a;0.0150437
1SMF E Y 184;1SMF E N 223;0.117139
1SMF E Y 184;1SMF E K 224;0.436478
1SMF E Y 184;1SMF E P 225;13.0434
1SMF E G 184a;1SMF E K 188;4.18635
1SMF E G 184a;1SMF E D 189;4.28074
1SMF E G 184a;1SMF E P 225;4.06179
1SMF E G 184a;1SMF E G 226;0.297577
1SMF E G 184a;1SMF E Y 228;0.0117796
1SMF E L 185;1SMF E E 186;26.5765
1SMF E L 185;1SMF E G 187;2.96925
1SMF E L 185;1SMF E Q 221;0.0596652
1SMF E L 185;1SMF E K 222;10.8601
1SMF E L 185;1SMF E N 223;33.7898
1SMF E L 185;1SMF E K 224;0.514751
1SMF E L 185;1SMF E P 225;14.3139
1SMF E E 186;1SMF E G 187;30.9391
1SMF E E 186;1SMF E K 222;27.9486
1SMF E G 187;1SMF E K 188;10.2535
1SMF E G 187;1SMF E G 188a;23.2219
1SMF E G 187;1SMF E Q 221;6.13054
1SMF E G 187;1SMF E A 221a;9.85082
1SMF E G 187;1SMF E K 222;6.59681
1SMF E K 188;1SMF E G 188a;23.9028
1SMF E K 188;1SMF E D 189;22.2761
1SMF E K 188;1SMF E A 221a;7.60541
1SMF E G 188a;1SMF E A 221a;18.3574
1SMF E D 189;1SMF E S 190;30.8323
1SMF E D 189;1SMF E C 191;0.236709
1SMF E D 189;1SMF E G 216;0.0517545
1SMF E D 189;1SMF E G 219;2.81253
1SMF E D 189;1SMF E C 220;7.41715
1SMF E D 189;1SMF E A 221a;19.2954
1SMF E D 189;1SMF E K 224;6.70334
1SMF E D 189;1SMF E P 225;3.02881
1SMF E D 189;1SMF E G 226;14.0964
1SMF E D 189;1SMF E Y 228;5.33531
1SMF E D 189;1SMF I K 11;9.55832
1SMF E S 190;1SMF E C 191;17.339
1SMF E S 190;1SMF E D 194;9.32909
1SMF E S 190;1SMF E V 213;12.1576
1SMF E S 190;1SMF E C 220;5.61295
1SMF E S 190;1SMF E G 226;0.417708
1SMF E S 190;1SMF E Y 228;16.1324
1SMF E S 190;1SMF I K 11;20.482
1SMF E C 191;1SMF E Q 192;26.4557
1SMF E C 191;1SMF E G 193;0.397988
1SMF E C 191;1SMF E D 194;17.8791
1SMF E C 191;1SMF E S 195;0.00363632
1SMF E C 191;1SMF E C 220;22.7033
1SMF E C 191;1SMF I K 11;14.1308
1SMF E Q 192;1SMF E G 193;14.2462
1SMF E Q 192;1SMF E D 194;0.694383
1SMF E Q 192;1SMF E G 219;5.32995
1SMF E Q 192;1SMF E C 220;11.2062
1SMF E Q 192;1SMF I C 9;12.3165
1SMF E Q 192;1SMF I T 10;6.24432
1SMF E Q 192;1SMF I K 11;18.9537
1SMF E Q 192;1SMF I S 12;7.62575
1SMF E Q 192;1SMF I I 13;6.41614
1SMF E Q 192;1SMF I P 15;21.0531
1SMF E G 193;1SMF E D 194;18.0142
1SMF E G 193;1SMF E S 195;3.13652
1SMF E G 193;1SMF I K 11;7.0297
1SMF E G 193;1SMF I S 12;3.93288
1SMF E G 193;1SMF I I 13;14.6468
1SMF E D 194;1SMF E S 195;17.8176
1SMF E D 194;1SMF E G 196;0.188333
1SMF E D 194;1SMF E G 197;8.56006
1SMF E D 194;1SMF E V 213;16.7138
1SMF E D 194;1SMF I K 11;2.71182
1SMF E S 195;1SMF E G 196;15.1788
1SMF E S 195;1SMF E G 197;2.58069
1SMF E S 195;1SMF E V 213;11.1339
1SMF E S 195;1SMF E S 214;3.57228
1SMF E S 195;1SMF I K 11;20.4715
1SMF E S 195;1SMF I S 12;6.40264
1SMF E G 196;1SMF E G 197;19.0139
1SMF E G 196;1SMF E I 212;12.9293
1SMF E G 196;1SMF E V 213;8.77096
1SMF E G 197;1SMF E P 198;26.195
1SMF E G 197;1SMF E V 199;0.824066
1SMF E G 197;1SMF E G 211;1.02632
1SMF E G 197;1SMF E I 212;7.84004
1SMF E G 197;1SMF E V 213;16.9673
1SMF E P 198;1SMF E V 199;18.799
1SMF E P 198;1SMF E V 200;7.77754
1SMF E P 198;1SMF E L 209;10.6827
1SMF E P 198;1SMF E G 211;2.20089
1SMF E P 198;1SMF E I 212;0.0948658
1SMF E P 198;1SMF E V 213;2.96532
1SMF E V 199;1SMF E V 200;18.9487
1SMF E V 199;1SMF E C 201;6.99
1SMF E V 199;1SMF E L 209;8.05278
1SMF E V 199;1SMF E Q 210;9.01959
1SMF E V 199;1SMF E G 211;21.0871
1SMF E V 199;1SMF E I 212;2.19431
1SMF E V 199;1SMF E V 213;4.72723
1SMF E V 199;1SMF E Y 228;14.5626
1SMF E V 200;1SMF E C 201;22.6056
1SMF E V 200;1SMF E S 202;0.602843
1SMF E V 200;1SMF E G 203;13.2673
1SMF E V 200;1SMF E K 204;9.72698
1SMF E V 200;1SMF E L 209;9.71456
1SMF E V 200;1SMF E Q 210;0.118414
1SMF E C 201;1SMF E S 202;28.4001
1SMF E C 201;1SMF E G 203;2.3434
1SMF E C 201;1SMF E K 204;18.7491
1SMF E C 201;1SMF E Q 210;20.4955
1SMF E S 202;1SMF E G 203;25.5133
1SMF E S 202;1SMF E K 204;15.8544
1SMF E G 203;1SMF E K 204;24.515
1SMF E K 204;1SMF E L 209;16.6979
1SMF E K 204;1SMF E Q 210;14.5781
1SMF E L 209;1SMF E Q 210;16.9162
1SMF E L 209;1SMF E G 211;9.7364
1SMF E L 209;1SMF E I 212;6.73518
1SMF E L 209;1SMF E V 231;21.2772
1SMF E L 209;1SMF E I 238;0.0303979
1SMF E Q 210;1SMF E G 211;16.854
1SMF E Q 210;1SMF E T 229;0.678932
1SMF E Q 210;1SMF E K 230;4.3914
1SMF E Q 210;1SMF E V 231;12.3163
1SMF E Q 210;1SMF E C 232;11.8167
1SMF E G 211;1SMF E I 212;19.5199
1SMF E G 211;1SMF E Y 228;2.28816
1SMF E G 211;1SMF E T 229;5.31272
1SMF E G 211;1SMF E V 231;7.12769
1SMF E I 212;1SMF E V 213;21.8111
1SMF E I 212;1SMF E S 214;4.75358
1SMF E I 212;1SMF E Y 228;10.2814
1SMF E I 212;1SMF E T 229;26.4199
1SMF E I 212;1SMF E V 231;13.328
1SMF E V 213;1SMF E S 214;24.1461
1SMF E V 213;1SMF E V 227;0.639781
1SMF E V 213;1SMF E Y 228;15.9884
1SMF E V 213;1SMF I K 11;12.5806
1SMF E S 214;1SMF E W 215;31.914
1SMF E S 214;1SMF E V 227;8.85828
1SMF E S 214;1SMF E Y 228;6.39759
1SMF E S 214;1SMF E T 229;12.5846
1SMF E S 214;1SMF I T 10;5.64803
1SMF E S 214;1SMF I K 11;7.64333
1SMF E W 215;1SMF E G 216;30.7984
1SMF E W 215;1SMF E S 217;2.7994
1SMF E W 215;1SMF E G 226;3.28564
1SMF E W 215;1SMF E V 227;43.2842
1SMF E W 215;1SMF I C 9;12.1029
1SMF E W 215;1SMF I T 10;6.92215
1SMF E W 215;1SMF I K 11;15.6181
1SMF E G 216;1SMF E S 217;21.1899
1SMF E G 216;1SMF E G 219;12.2619
1SMF E G 216;1SMF E K 224;0.24848
1SMF E G 216;1SMF E P 225;2.53469
1SMF E G 216;1SMF E G 226;3.09694
1SMF E G 216;1SMF E V 227;3.35275
1SMF E G 216;1SMF I C 9;21.5338
1SMF E G 216;1SMF I K 11;7.23998
1SMF E S 217;1SMF E G 219;27.9939
1SMF E S 217;1SMF E C 220;1.03488
1SMF E S 217;1SMF E Q 221;10.7689
1SMF E S 217;1SMF E K 224;26.7889
1SMF E S 217;1SMF I C 9;2.70749
1SMF E G 219;1SMF E C 220;30.9897
1SMF E G 219;1SMF E Q 221;5.88294
1SMF E G 219;1SMF E K 224;0.747447
1SMF E G 219;1SMF I C 9;8.18147
1SMF E G 219;1SMF I K 11;9.08599
1SMF E C 220;1SMF E Q 221;16.1711
1SMF E C 220;1SMF E A 221a;20.3547
1SMF E C 220;1SMF E K 224;0.305498
1SMF E C 220;1SMF I K 11;5.14856
1SMF E Q 221;1SMF E A 221a;26.799
1SMF E Q 221;1SMF E K 222;26.8169
1SMF E Q 221;1SMF E N 223;2.30778
1SMF E Q 221;1SMF E K 224;29.0862
1SMF E Q 221;1SMF E P 225;0.0375582
1SMF E A 221a;1SMF E K 222;1.12453
1SMF E A 221a;1SMF E K 224;2.00389
1SMF E K 222;1SMF E N 223;42.216
1SMF E K 222;1SMF E K 224;10.9592
1SMF E N 223;1SMF E K 224;34.4865
1SMF E N 223;1SMF E P 225;4.32833
1SMF E K 224;1SMF E P 225;28.1375
1SMF E P 225;1SMF E G 226;24.948
1SMF E P 225;1SMF E V 227;3.28458
1SMF E G 226;1SMF E V 227;18.0842
1SMF E G 226;1SMF E Y 228;14.0209
1SMF E G 226;1SMF I K 11;8.4092
1SMF E V 227;1SMF E Y 228;28.9344
1SMF E V 227;1SMF I K 11;0.534208
1SMF E Y 228;1SMF E T 229;19.5498
1SMF E Y 228;1SMF E K 230;1.75793
1SMF E T 229;1SMF E K 230;17.1779
1SMF E T 229;1SMF E V 231;9.95205
1SMF E T 229;1SMF E Y 234;13.314
1SMF E K 230;1SMF E V 231;15.3741
1SMF E K 230;1SMF E C 232;16.8419
1SMF E K 230;1SMF E N 233;25.5018
1SMF E K 230;1SMF E Y 234;9.62169
1SMF E V 231;1SMF E C 232;16.9387
1SMF E V 231;1SMF E N 233;2.05422
1SMF E V 231;1SMF E Y 234;15.6545
1SMF E V 231;1SMF E V 235;9.58903
1SMF E V 231;1SMF E I 238;11.1754
1SMF E C 232;1SMF E N 233;25.8666
1SMF E C 232;1SMF E Y 234;2.00666
1SMF E C 232;1SMF E V 235;18.5172
1SMF E N 233;1SMF E Y 234;33.5066
1SMF E N 233;1SMF E V 235;2.02815
1SMF E N 233;1SMF E S 236;0.659693
1SMF E N 233;1SMF E W 237;0.358725
1SMF E Y 234;1SMF E V 235;18.2098
1SMF E Y 234;1SMF E S 236;2.53233
1SMF E Y 234;1SMF E W 237;24.5723
1SMF E Y 234;1SMF E I 238;16.1602
1SMF E V 235;1SMF E S 236;24.9392
1SMF E V 235;1SMF E W 237;0.50432
1SMF E V 235;1SMF E I 238;11.8848
1SMF E V 235;1SMF E K 239;27.63
1SMF E S 236;1SMF E W 237;22.9872
1SMF E S 236;1SMF E I 238;0.785174
1SMF E S 236;1SMF E K 239;13.2279
1SMF E S 236;1SMF E Q 240;26.7343
1SMF E W 237;1SMF E I 238;26.1932
1SMF E W 237;1SMF E K 239;0.831707
1SMF E W 237;1SMF E Q 240;15.7685
1SMF E W 237;1SMF E T 241;30.4992
1SMF E I 238;1SMF E K 239;20.8425
1SMF E I 238;1SMF E Q 240;0.689156
1SMF E I 238;1SMF E T 241;5.62094
1SMF E I 238;1SMF E I 242;19.8558
1SMF E K 239;1SMF E Q 240;20.6431
1SMF E K 239;1SMF E T 241;0.869554
1SMF E K 239;1SMF E I 242;11.7869
1SMF E K 239;1SMF E A 243;13.363
1SMF E Q 240;1SMF E T 241;21.435
1SMF E Q 240;1SMF E I 242;0.350408
1SMF E Q 240;1SMF E A 243;13.8393
1SMF E Q 240;1SMF E S 244;14.1921
1SMF E T 241;1SMF E I 242;18.6076
1SMF E T 241;1SMF E A 243;1.37558
1SMF E T 241;1SMF E S 244;10.374
1SMF E T 241;1SMF E N 245;18.3638
1SMF E I 242;1SMF E A 243;23.9312
1SMF E I 242;1SMF E S 244;1.33478
1SMF E I 242;1SMF E N 245;13.657
1SMF E A 243;1SMF E S 244;25.1105
1SMF E A 243;1SMF E N 245;4.83364
1SMF E S 244;1SMF E N 245;35.399
1SMF I C 9;1SMF I T 10;21.2088
1SMF I C 9;1SMF I K 11;4.25273
1SMF I C 9;1SMF I P 15;7.7157
1SMF I C 9;1SMF I E 16;6.38142
1SMF I C 9;1SMF I C 17;32.6632
1SMF I T 10;1SMF I K 11;16.1508
1SMF I T 10;1SMF I S 12;10.4203
1SMF I T 10;1SMF I P 15;8.03401
1SMF I T 10;1SMF I E 16;31.768
1SMF I K 11;1SMF I S 12;15.8556
1SMF I S 12;1SMF I I 13;21.0726
1SMF I S 12;1SMF I P 14;12.2725
1SMF I S 12;1SMF I P 15;10.8562
1SMF I S 12;1SMF I E 16;9.28894
1SMF I I 13;1SMF I P 14;34.3163
1SMF I I 13;1SMF I P 15;1.87018
1SMF I P 14;1SMF I P 15;36.2252
1SMF I P 14;1SMF I E 16;7.31047
1SMF I P 15;1SMF I E 16;24.2501
1SMF I P 15;1SMF I C 17;17.5495
1SMF I E 16;1SMF I C 17;27.2869
