V1;V2;Weight
3B4V A G 1;3B4V A L 2;38.2174
3B4V A G 1;3B4V A E 112;22.7693
3B4V A G 1;3B4V A C 113;14.6448
3B4V A L 2;3B4V A E 3;34.8506
3B4V A L 2;3B4V A C 4;0.576615
3B4V A L 2;3B4V A I 10;21.9154
3B4V A L 2;3B4V A C 11;11.0904
3B4V A L 2;3B4V A C 12;16.8318
3B4V A L 2;3B4V A K 13;13.7409
3B4V A L 2;3B4V A S 55;19.4725
3B4V A L 2;3B4V A C 113;8.5819
3B4V A L 2;3B4V A G 114;0.251321
3B4V A E 3;3B4V A C 4;29.1663
3B4V A E 3;3B4V A D 5;9.54192
3B4V A E 3;3B4V A C 12;1.62336
3B4V A E 3;3B4V A K 13;1.71879
3B4V A C 4;3B4V A D 5;26.6653
3B4V A C 4;3B4V A V 8;15.3642
3B4V A C 4;3B4V A C 12;24.7766
3B4V A C 4;3B4V A K 13;11.3661
3B4V A C 4;3B4V A K 14;19.7598
3B4V A D 5;3B4V A K 7;17.3708
3B4V A D 5;3B4V A V 8;25.2851
3B4V A K 7;3B4V A V 8;23.8496
3B4V A K 7;3B4V A N 9;26.6993
3B4V A V 8;3B4V A N 9;29.1962
3B4V A V 8;3B4V A I 10;5.87463
3B4V A V 8;3B4V A C 12;4.5861
3B4V A V 8;3B4V A K 14;9.52114
3B4V A N 9;3B4V A I 10;35.8541
3B4V A N 9;3B4V A G 42;9.39315
3B4V A N 9;3B4V A E 43;29.3044
3B4V A I 10;3B4V A C 11;26.9002
3B4V A I 10;3B4V A C 12;16.1562
3B4V A I 10;3B4V A E 41;2.23619
3B4V A I 10;3B4V A G 42;4.39918
3B4V A I 10;3B4V A E 43;21.7448
3B4V A I 10;3B4V A S 55;5.98865
3B4V A C 11;3B4V A C 12;18.9244
3B4V A C 11;3B4V A E 41;2.42193
3B4V A C 11;3B4V A G 42;6.37402
3B4V A C 11;3B4V A E 43;10.2147
3B4V A C 11;3B4V A C 44;2.54886
3B4V A C 11;3B4V A C 81;20.2516
3B4V A C 11;3B4V A V 82;1.2776
3B4V A C 11;3B4V A C 113;9.50819
3B4V A C 11;3B4V A G 114;13.4254
3B4V A C 11;3B4V A C 115;13.2244
3B4V A C 12;3B4V A K 13;18.896
3B4V A C 12;3B4V A K 14;10.7715
3B4V A C 12;3B4V A Y 39;0.544034
3B4V A C 12;3B4V A C 40;4.28195
3B4V A C 12;3B4V A E 41;19.686
3B4V A C 12;3B4V A C 81;3.38207
3B4V A C 12;3B4V A C 113;10.0264
3B4V A K 13;3B4V A K 14;27.0687
3B4V A K 13;3B4V A Q 15;14.4054
3B4V A K 13;3B4V A N 38;11.8043
3B4V A K 13;3B4V A Y 39;5.70297
3B4V A K 13;3B4V A C 40;0.52253
3B4V A K 13;3B4V A R 87;0.500238
3B4V A K 13;3B4V A V 110;15.9801
3B4V A K 13;3B4V A E 111;28.6698
3B4V A K 13;3B4V A E 112;3.75554
3B4V A K 13;3B4V A C 113;18.0002
3B4V A K 14;3B4V A Q 15;30.5541
3B4V A K 14;3B4V A F 16;0.669956
3B4V A K 14;3B4V A N 38;7.92209
3B4V A K 14;3B4V A Y 39;43.3355
3B4V A K 14;3B4V A E 41;29.1378
3B4V A Q 15;3B4V A F 16;24.8625
3B4V A Q 15;3B4V A H 36;17.6555
3B4V A Q 15;3B4V A N 38;20.4594
3B4V A Q 15;3B4V A Y 39;7.1134
3B4V A F 16;3B4V A F 17;38.8844
3B4V A F 16;3B4V A V 18;14.0673
3B4V A F 16;3B4V A Y 35;0.387418
3B4V A F 16;3B4V A H 36;9.77069
3B4V A F 16;3B4V A A 37;10.2962
3B4V A F 16;3B4V A N 38;20.6992
3B4V A F 16;3B4V A Y 39;16.3995
3B4V A F 16;3B4V B V 62;0.149698
3B4V A F 16;3B4V B I 63;6.77905
3B4V A F 16;3B4V B Y 66;19.6229
3B4V A F 16;3B4V B H 71;17.709
3B4V A F 16;3B4V B S 72;0.100684
3B4V A F 16;3B4V B F 74;21.5192
3B4V A F 17;3B4V A V 18;29.469
3B4V A F 17;3B4V A S 19;15.4268
3B4V A F 17;3B4V A S 33;9.01965
3B4V A F 17;3B4V A G 34;14.2252
3B4V A F 17;3B4V A Y 35;11.4267
3B4V A F 17;3B4V A H 36;29.4975
3B4V A F 17;3B4V B Y 66;0.819515
3B4V A V 18;3B4V A S 19;20.7807
3B4V A V 18;3B4V A F 20;6.00276
3B4V A V 18;3B4V A I 23;11.1452
3B4V A V 18;3B4V A G 34;6.67215
3B4V A V 18;3B4V A Y 35;26.5798
3B4V A V 18;3B4V A A 37;11.0089
3B4V A V 18;3B4V B V 62;14.9001
3B4V A V 18;3B4V B Y 66;15.4631
3B4V A S 19;3B4V A F 20;16.8752
3B4V A S 19;3B4V A K 21;13.437
3B4V A S 19;3B4V A D 22;28.5934
3B4V A S 19;3B4V A I 23;10.0643
3B4V A S 19;3B4V A S 33;6.83966
3B4V A S 19;3B4V A G 34;3.27217
3B4V A S 19;3B4V B Y 66;7.91967
3B4V A F 20;3B4V A K 21;17.215
3B4V A F 20;3B4V A D 22;0.640408
3B4V A F 20;3B4V A I 23;17.3554
3B4V A F 20;3B4V A G 24;4.30025
3B4V A F 20;3B4V A W 25;22.9091
3B4V A F 20;3B4V A N 26;15.0996
3B4V A F 20;3B4V A I 29;22.2113
3B4V A F 20;3B4V A P 32;15.4119
3B4V A F 20;3B4V A S 33;15.5788
3B4V A F 20;3B4V A G 34;13.0447
3B4V A F 20;3B4V A Y 35;15.4479
3B4V A F 20;3B4V A M 91;11.1365
3B4V A F 20;3B4V A M 108;3.52395
3B4V A F 20;3B4V B F 58;8.55105
3B4V A F 20;3B4V B V 62;1.49422
3B4V A K 21;3B4V A D 22;38.5199
3B4V A K 21;3B4V A I 23;0.935026
3B4V A K 21;3B4V A G 24;11.7363
3B4V A K 21;3B4V A N 26;32.1948
3B4V A K 21;3B4V A S 33;3.08132
3B4V A D 22;3B4V A I 23;18.5149
3B4V A D 22;3B4V A G 24;3.4633
3B4V A D 22;3B4V B H 65;18.1499
3B4V A D 22;3B4V B Y 66;15.3668
3B4V A I 23;3B4V A G 24;21.2399
3B4V A I 23;3B4V A W 25;31.597
3B4V A I 23;3B4V B T 61;0.514354
3B4V A I 23;3B4V B V 62;16.1545
3B4V A I 23;3B4V B H 65;29.0365
3B4V A I 23;3B4V B Y 66;11.8775
3B4V A I 23;3B4V C N 53;12.1575
3B4V A G 24;3B4V A W 25;20.2307
3B4V A G 24;3B4V A N 26;9.42271
3B4V A G 24;3B4V A D 27;4.73567
3B4V A G 24;3B4V C K 54;14.8838
3B4V A W 25;3B4V A N 26;16.4559
3B4V A W 25;3B4V A D 27;7.28131
3B4V A W 25;3B4V A W 28;4.88079
3B4V A W 25;3B4V A I 29;22.7195
3B4V A W 25;3B4V B F 58;15.3684
3B4V A W 25;3B4V B T 61;14.2853
3B4V A W 25;3B4V B V 62;10.8034
3B4V A W 25;3B4V C N 53;23.1089
3B4V A W 25;3B4V C K 54;15.5796
3B4V A W 25;3B4V C N 56;0.053242
3B4V A W 25;3B4V C L 57;32.3865
3B4V A W 25;3B4V C F 60;8.45386
3B4V A N 26;3B4V A D 27;32.2818
3B4V A N 26;3B4V A W 28;0.136034
3B4V A N 26;3B4V A I 29;20.0751
3B4V A N 26;3B4V A I 30;1.25057
3B4V A N 26;3B4V A S 33;3.00853
3B4V A D 27;3B4V A W 28;35.3234
3B4V A D 27;3B4V A I 29;2.45153
3B4V A D 27;3B4V A I 30;0.234503
3B4V A D 27;3B4V A Y 94;9.57987
3B4V A D 27;3B4V C K 54;18.8326
3B4V A W 28;3B4V A I 29;20.4855
3B4V A W 28;3B4V A I 30;3.02529
3B4V A W 28;3B4V A Y 93;7.5283
3B4V A W 28;3B4V A Y 94;24.5058
3B4V A W 28;3B4V C H 50;25.2432
3B4V A W 28;3B4V C K 54;31.0001
3B4V A W 28;3B4V C L 57;18.3755
3B4V A W 28;3B4V C L 58;19.833
3B4V A W 28;3B4V C L 61;13.0768
3B4V A W 28;3B4V C L 63;7.47768
3B4V A I 29;3B4V A I 30;25.6414
3B4V A I 29;3B4V A A 31;9.41207
3B4V A I 29;3B4V A P 32;8.40974
3B4V A I 29;3B4V A M 91;20.8203
3B4V A I 29;3B4V A L 92;5.10502
3B4V A I 29;3B4V A Y 93;9.92295
3B4V A I 29;3B4V A Y 94;0.000108821
3B4V A I 29;3B4V B F 58;1.5926
3B4V A I 29;3B4V C L 57;11.4169
3B4V A I 29;3B4V C L 61;7.15335
3B4V A I 30;3B4V A A 31;23.9695
3B4V A I 30;3B4V A P 32;2.76661
3B4V A I 30;3B4V A S 33;3.07539
3B4V A I 30;3B4V A L 92;20.8018
3B4V A I 30;3B4V A Y 93;12.1705
3B4V A I 30;3B4V A Y 94;30.1697
3B4V A I 30;3B4V A I 100;15.2637
3B4V A A 31;3B4V A P 32;35.5896
3B4V A A 31;3B4V A S 33;0.315403
3B4V A A 31;3B4V A M 91;4.93614
3B4V A A 31;3B4V A L 92;27.0001
3B4V A P 32;3B4V A S 33;27.0737
3B4V A P 32;3B4V A G 34;16.8958
3B4V A P 32;3B4V A Y 35;3.92868
3B4V A P 32;3B4V A M 89;17.8628
3B4V A P 32;3B4V A S 90;7.68348
3B4V A P 32;3B4V A M 91;11.8709
3B4V A S 33;3B4V A G 34;20.6581
3B4V A G 34;3B4V A Y 35;19.9955
3B4V A G 34;3B4V A M 89;0.194428
3B4V A Y 35;3B4V A H 36;21.0877
3B4V A Y 35;3B4V A A 37;19.7299
3B4V A Y 35;3B4V A M 89;16.2446
3B4V A Y 35;3B4V A M 91;0.00868924
3B4V A Y 35;3B4V A M 108;28.8097
3B4V A Y 35;3B4V A I 109;11.1883
3B4V A Y 35;3B4V B F 58;11.1973
3B4V A Y 35;3B4V B H 59;2.57078
3B4V A Y 35;3B4V B V 62;9.3332
3B4V A H 36;3B4V A A 37;13.9007
3B4V A H 36;3B4V A N 38;15.3988
3B4V A H 36;3B4V A I 109;12.7234
3B4V A A 37;3B4V A N 38;24.2483
3B4V A A 37;3B4V A M 108;2.7246
3B4V A A 37;3B4V A I 109;5.852
3B4V A A 37;3B4V A V 110;7.23453
3B4V A A 37;3B4V B H 59;13.0871
3B4V A A 37;3B4V B V 62;9.2341
3B4V A A 37;3B4V B I 63;2.76783
3B4V A N 38;3B4V A Y 39;20.2777
3B4V A N 38;3B4V A R 87;0.856725
3B4V A N 38;3B4V A I 109;9.99319
3B4V A N 38;3B4V A V 110;18.3226
3B4V A N 38;3B4V B H 59;6.68311
3B4V A N 38;3B4V B I 63;5.11042
3B4V A Y 39;3B4V A C 40;32.1403
3B4V A Y 39;3B4V A E 41;14.9232
3B4V A Y 39;3B4V A P 83;0.196146
3B4V A Y 39;3B4V A V 110;8.96452
3B4V A Y 39;3B4V A C 113;1.76556
3B4V A Y 39;3B4V B H 59;4.05127
3B4V A Y 39;3B4V B I 63;10.7329
3B4V A Y 39;3B4V B P 73;22.0067
3B4V A Y 39;3B4V B F 74;23.7527
3B4V A Y 39;3B4V B L 77;2.33301
3B4V A C 40;3B4V A E 41;19.1121
3B4V A C 40;3B4V A C 81;19.2017
3B4V A C 40;3B4V A V 82;9.39154
3B4V A C 40;3B4V A P 83;16.0495
3B4V A C 40;3B4V A V 110;6.69419
3B4V A C 40;3B4V A E 112;0.323113
3B4V A C 40;3B4V A C 113;19.1282
3B4V A C 40;3B4V B L 77;10.4451
3B4V A E 41;3B4V A G 42;29.9029
3B4V A E 41;3B4V A C 81;10.6885
3B4V A E 41;3B4V B P 73;23.0573
3B4V A E 41;3B4V B L 77;16.5384
3B4V A G 42;3B4V A E 43;23.3854
3B4V A G 42;3B4V A C 44;4.75475
3B4V A G 42;3B4V A C 81;14.5975
3B4V A G 42;3B4V B L 77;1.36392
3B4V A E 43;3B4V A C 44;32.3006
3B4V A E 43;3B4V A C 115;4.42203
3B4V A C 44;3B4V A P 45;30.6312
3B4V A C 44;3B4V A S 46;11.0118
3B4V A C 44;3B4V A K 78;0.965913
3B4V A C 44;3B4V A S 79;17.2889
3B4V A C 44;3B4V A C 80;5.29154
3B4V A C 44;3B4V A C 81;11.5455
3B4V A C 44;3B4V A C 115;16.943
3B4V A P 45;3B4V A S 46;32.2813
3B4V A P 45;3B4V A S 55;0.0124514
3B4V A P 45;3B4V A L 56;22.5075
3B4V A P 45;3B4V A N 64;19.7283
3B4V A P 45;3B4V A R 67;10.138
3B4V A P 45;3B4V A K 78;4.7253
3B4V A P 45;3B4V A S 79;20.4642
3B4V A P 45;3B4V A C 115;8.72005
3B4V A P 45;3B4V A S 116;0.560064
3B4V A S 46;3B4V A H 47;46.3462
3B4V A S 46;3B4V A I 48;20.8376
3B4V A S 46;3B4V A N 64;2.22256
3B4V A S 46;3B4V A R 67;6.34043
3B4V A S 46;3B4V A M 68;8.005
3B4V A S 46;3B4V A K 78;7.31224
3B4V A H 47;3B4V A I 48;56.349
3B4V A S 55;3B4V A L 56;42.1659
3B4V A S 55;3B4V A S 57;1.21108
3B4V A S 55;3B4V A G 114;2.79005
3B4V A S 55;3B4V A C 115;4.4586
3B4V A L 56;3B4V A S 57;24.2931
3B4V A L 56;3B4V A S 60;16.1197
3B4V A L 56;3B4V A T 61;17.9982
3B4V A L 56;3B4V A N 64;16.5135
3B4V A L 56;3B4V A R 67;0.37404
3B4V A L 56;3B4V A S 79;0.084537
3B4V A L 56;3B4V A C 115;18.4764
3B4V A L 56;3B4V A S 116;3.99022
3B4V A S 57;3B4V A F 58;17.9409
3B4V A S 57;3B4V A H 59;7.1323
3B4V A S 57;3B4V A S 60;21.0179
3B4V A S 57;3B4V A T 61;8.29218
3B4V A S 57;3B4V A T 84;3.16122
3B4V A S 57;3B4V A C 115;2.19118
3B4V A S 57;3B4V B L 86;10.1246
3B4V A S 57;3B4V B N 107;17.3453
3B4V A F 58;3B4V A H 59;18.2425
3B4V A F 58;3B4V A S 60;0.62256
3B4V A F 58;3B4V A T 61;7.34091
3B4V A F 58;3B4V A V 62;17.8415
3B4V A F 58;3B4V B F 20;8.89088
3B4V A F 58;3B4V B W 25;14.3018
3B4V A F 58;3B4V B I 29;1.91167
3B4V A F 58;3B4V B Y 35;10.6224
3B4V A F 58;3B4V B M 91;9.89222
3B4V A F 58;3B4V B I 105;11.7911
3B4V A F 58;3B4V B Q 106;6.44613
3B4V A F 58;3B4V B N 107;12.1257
3B4V A F 58;3B4V B M 108;23.3423
3B4V A H 59;3B4V A S 60;24.2954
3B4V A H 59;3B4V A T 61;0.823703
3B4V A H 59;3B4V A V 62;11.5601
3B4V A H 59;3B4V A I 63;25.6434
3B4V A H 59;3B4V A S 116;1.4025
3B4V A H 59;3B4V B Y 35;2.4416
3B4V A H 59;3B4V B A 37;13.4534
3B4V A H 59;3B4V B N 38;6.76245
3B4V A H 59;3B4V B Y 39;4.47262
3B4V A H 59;3B4V B C 40;0.12341
3B4V A H 59;3B4V B P 83;10.1406
3B4V A H 59;3B4V B L 86;15.5297
3B4V A H 59;3B4V B N 107;10.8061
3B4V A H 59;3B4V B M 108;12.5967
3B4V A H 59;3B4V B I 109;1.53205
3B4V A H 59;3B4V B V 110;14.8206
3B4V A S 60;3B4V A T 61;15.1983
3B4V A S 60;3B4V A V 62;0.690633
3B4V A S 60;3B4V A I 63;9.72471
3B4V A S 60;3B4V A N 64;9.84472
3B4V A S 60;3B4V A R 67;1.64668
3B4V A S 60;3B4V A C 115;12.7001
3B4V A S 60;3B4V A S 116;21.2599
3B4V A S 60;3B4V B P 83;0.949468
3B4V A T 61;3B4V A V 62;19.4155
3B4V A T 61;3B4V A I 63;0.869803
3B4V A T 61;3B4V A N 64;10.826
3B4V A T 61;3B4V A H 65;9.57476
3B4V A T 61;3B4V B I 23;0.518648
3B4V A T 61;3B4V B W 25;13.5132
3B4V A V 62;3B4V A I 63;23.6271
3B4V A V 62;3B4V A N 64;0.633088
3B4V A V 62;3B4V A H 65;9.20747
3B4V A V 62;3B4V A Y 66;11.3881
3B4V A V 62;3B4V B V 18;15.185
3B4V A V 62;3B4V B F 20;2.63766
3B4V A V 62;3B4V B I 23;18.3739
3B4V A V 62;3B4V B W 25;11.5447
3B4V A V 62;3B4V B Y 35;9.50055
3B4V A V 62;3B4V B A 37;7.65585
3B4V A I 63;3B4V A N 64;16.0716
3B4V A I 63;3B4V A H 65;1.35417
3B4V A I 63;3B4V A Y 66;12.2159
3B4V A I 63;3B4V A R 67;22.7864
3B4V A I 63;3B4V A F 74;20.0359
3B4V A I 63;3B4V A L 77;9.02239
3B4V A I 63;3B4V A S 116;8.82665
3B4V A I 63;3B4V B F 16;9.34369
3B4V A I 63;3B4V B V 18;1.44731
3B4V A I 63;3B4V B A 37;4.07182
3B4V A I 63;3B4V B N 38;5.64831
3B4V A I 63;3B4V B Y 39;12.617
3B4V A N 64;3B4V A H 65;16.8229
3B4V A N 64;3B4V A Y 66;0.925494
3B4V A N 64;3B4V A R 67;32.2082
3B4V A N 64;3B4V A M 68;35.5536
3B4V A H 65;3B4V A Y 66;33.7614
3B4V A H 65;3B4V A R 67;0.61013
3B4V A H 65;3B4V A M 68;19.5242
3B4V A H 65;3B4V A R 69;39.1027
3B4V A H 65;3B4V A H 71;2.83021
3B4V A H 65;3B4V B D 22;18.5982
3B4V A H 65;3B4V B I 23;29.5997
3B4V A Y 66;3B4V A R 67;16.4558
3B4V A Y 66;3B4V A M 68;0.923181
3B4V A Y 66;3B4V A R 69;5.18445
3B4V A Y 66;3B4V A G 70;5.49633
3B4V A Y 66;3B4V A H 71;33.6203
3B4V A Y 66;3B4V A F 74;23.5918
3B4V A Y 66;3B4V B F 16;23.5904
3B4V A Y 66;3B4V B F 17;2.08541
3B4V A Y 66;3B4V B V 18;13.28
3B4V A Y 66;3B4V B S 19;9.59615
3B4V A Y 66;3B4V B D 22;16.8911
3B4V A Y 66;3B4V B I 23;11.0686
3B4V A R 67;3B4V A M 68;24.2063
3B4V A R 67;3B4V A R 69;0.901981
3B4V A R 67;3B4V A G 70;10.6313
3B4V A R 67;3B4V A F 74;24.719
3B4V A R 67;3B4V A A 75;4.31783
3B4V A R 67;3B4V A L 77;24.0082
3B4V A R 67;3B4V A K 78;9.1562
3B4V A R 67;3B4V A S 79;18.8566
3B4V A R 67;3B4V A S 116;16.8094
3B4V A M 68;3B4V A R 69;27.3173
3B4V A M 68;3B4V A G 70;4.39889
3B4V A R 69;3B4V A G 70;23.5908
3B4V A R 69;3B4V A H 71;31.0548
3B4V A R 69;3B4V B D 22;2.44602
3B4V A G 70;3B4V A H 71;27.3588
3B4V A G 70;3B4V A S 72;0.763677
3B4V A G 70;3B4V A F 74;1.09481
3B4V A G 70;3B4V A A 75;18.2618
3B4V A H 71;3B4V A S 72;32.235
3B4V A H 71;3B4V A P 73;0.43214
3B4V A H 71;3B4V A F 74;16.9777
3B4V A H 71;3B4V A A 75;8.16874
3B4V A S 72;3B4V A P 73;32.2311
3B4V A S 72;3B4V A F 74;8.91421
3B4V A S 72;3B4V A A 75;1.55988
3B4V A S 72;3B4V B F 16;2.01265
3B4V A P 73;3B4V A F 74;30.1881
3B4V A P 73;3B4V A A 75;6.30446
3B4V A P 73;3B4V A N 76;8.64527
3B4V A P 73;3B4V A L 77;10.148
3B4V A P 73;3B4V B F 16;0.76366
3B4V A P 73;3B4V B Y 39;24.2067
3B4V A P 73;3B4V B E 41;19.9181
3B4V A F 74;3B4V A A 75;22.1235
3B4V A F 74;3B4V A N 76;0.672812
3B4V A F 74;3B4V A L 77;24.0782
3B4V A F 74;3B4V B F 16;23.515
3B4V A F 74;3B4V B Y 39;20.2006
3B4V A A 75;3B4V A N 76;33.9473
3B4V A A 75;3B4V A L 77;3.07539
3B4V A N 76;3B4V A L 77;25.8599
3B4V A N 76;3B4V A K 78;11.5275
3B4V A L 77;3B4V A K 78;31.764
3B4V A L 77;3B4V A S 116;0.726008
3B4V A L 77;3B4V B Y 39;16.109
3B4V A L 77;3B4V B C 40;13.7712
3B4V A L 77;3B4V B E 41;21.1246
3B4V A L 77;3B4V B G 42;0.159805
3B4V A L 77;3B4V B C 81;2.58151
3B4V A K 78;3B4V A S 79;38.5226
3B4V A K 78;3B4V A C 80;18.3955
3B4V A K 78;3B4V A S 116;4.76699
3B4V A S 79;3B4V A C 80;24.3484
3B4V A S 79;3B4V A C 115;5.03667
3B4V A S 79;3B4V A S 116;15.6659
3B4V A C 80;3B4V A C 81;21.7429
3B4V A C 80;3B4V A V 82;16.276
3B4V A C 80;3B4V A G 114;1.33481
3B4V A C 80;3B4V A C 115;3.63345
3B4V A C 80;3B4V A S 116;16.8845
3B4V A C 80;3B4V B C 80;32.0967
3B4V A C 80;3B4V B C 81;0.0329161
3B4V A C 80;3B4V B V 82;4.77431
3B4V A C 81;3B4V A V 82;24.1407
3B4V A C 81;3B4V A C 113;1.55651
3B4V A C 81;3B4V A G 114;1.711
3B4V A C 81;3B4V A C 115;1.48382
3B4V A C 81;3B4V B L 77;1.29505
3B4V A V 82;3B4V A P 83;31.2965
3B4V A V 82;3B4V A T 84;8.25685
3B4V A V 82;3B4V A C 113;3.98316
3B4V A V 82;3B4V A G 114;17.224
3B4V A V 82;3B4V A C 115;0.160826
3B4V A V 82;3B4V A S 116;8.25983
3B4V A V 82;3B4V B C 80;3.901
3B4V A V 82;3B4V B V 82;22.6338
3B4V A V 82;3B4V B P 83;2.97779
3B4V A V 82;3B4V B S 116;16.0368
3B4V A P 83;3B4V A T 84;22.3496
3B4V A P 83;3B4V A K 85;6.01367
3B4V A P 83;3B4V A L 86;17.811
3B4V A P 83;3B4V A V 110;13.7065
3B4V A P 83;3B4V A E 112;4.6265
3B4V A P 83;3B4V A C 113;0.892177
3B4V A P 83;3B4V B H 59;11.0448
3B4V A P 83;3B4V B S 60;0.207303
3B4V A P 83;3B4V B V 82;2.97197
3B4V A P 83;3B4V B P 83;8.67014
3B4V A P 83;3B4V B T 84;4.00589
3B4V A P 83;3B4V B S 116;15.1661
3B4V A T 84;3B4V A K 85;33.4389
3B4V A T 84;3B4V A E 112;19.2959
3B4V A T 84;3B4V A C 113;8.55561
3B4V A T 84;3B4V A G 114;17.1126
3B4V A T 84;3B4V A C 115;3.51072
3B4V A T 84;3B4V B P 83;2.74823
3B4V A T 84;3B4V B T 84;9.76923
3B4V A T 84;3B4V B L 86;9.04941
3B4V A K 85;3B4V A L 86;36.518
3B4V A K 85;3B4V A I 109;0.206935
3B4V A K 85;3B4V A V 110;3.36018
3B4V A K 85;3B4V A E 111;20.9068
3B4V A K 85;3B4V A E 112;39.0335
3B4V A K 85;3B4V B T 84;0.0505313
3B4V A L 86;3B4V A R 87;26.5418
3B4V A L 86;3B4V A P 88;0.185714
3B4V A L 86;3B4V A N 107;30.4364
3B4V A L 86;3B4V A M 108;0.984767
3B4V A L 86;3B4V A I 109;11.5685
3B4V A L 86;3B4V A V 110;9.7238
3B4V A L 86;3B4V A E 111;2.9681
3B4V A L 86;3B4V B S 57;11.4654
3B4V A L 86;3B4V B H 59;15.2026
3B4V A L 86;3B4V B T 84;11.6964
3B4V A R 87;3B4V A P 88;41.155
3B4V A R 87;3B4V A Q 106;0.345636
3B4V A R 87;3B4V A N 107;7.7178
3B4V A R 87;3B4V A M 108;7.93477
3B4V A R 87;3B4V A I 109;50.4951
3B4V A R 87;3B4V A V 110;0.939947
3B4V A R 87;3B4V A E 111;29.2144
3B4V A P 88;3B4V A M 89;24.2243
3B4V A P 88;3B4V A D 104;15.6026
3B4V A P 88;3B4V A I 105;7.39566
3B4V A P 88;3B4V A Q 106;31.5195
3B4V A P 88;3B4V A N 107;0.78125
3B4V A P 88;3B4V A M 108;2.55475
3B4V A P 88;3B4V A I 109;8.28352
3B4V A M 89;3B4V A S 90;33.4062
3B4V A M 89;3B4V A M 91;11.1192
3B4V A M 89;3B4V A K 103;0.395294
3B4V A M 89;3B4V A D 104;7.35849
3B4V A M 89;3B4V A I 105;13.4322
3B4V A M 89;3B4V A M 108;21.3045
3B4V A M 89;3B4V A I 109;16.98
3B4V A S 90;3B4V A M 91;25.8964
3B4V A S 90;3B4V A K 102;21.3437
3B4V A S 90;3B4V A K 103;4.62063
3B4V A S 90;3B4V A D 104;20.9694
3B4V A M 91;3B4V A L 92;21.5772
3B4V A M 91;3B4V A Y 93;13.2005
3B4V A M 91;3B4V A I 101;1.14554
3B4V A M 91;3B4V A K 102;7.73999
3B4V A M 91;3B4V A K 103;15.735
3B4V A M 91;3B4V A I 105;14.6881
3B4V A M 91;3B4V A M 108;16.5898
3B4V A M 91;3B4V B F 58;9.89048
3B4V A M 91;3B4V C L 57;0.933066
3B4V A M 91;3B4V C L 61;8.19681
3B4V A L 92;3B4V A Y 93;19.7496
3B4V A L 92;3B4V A I 100;13.6303
3B4V A L 92;3B4V A I 101;7.18692
3B4V A L 92;3B4V A K 102;13.8591
3B4V A Y 93;3B4V A Y 94;23.9884
3B4V A Y 93;3B4V A D 95;4.5099
3B4V A Y 93;3B4V A N 99;1.65713
3B4V A Y 93;3B4V A I 100;3.84085
3B4V A Y 93;3B4V A I 101;42.255
3B4V A Y 93;3B4V A K 102;0.00991272
3B4V A Y 93;3B4V A K 103;23.0893
3B4V A Y 93;3B4V A I 105;8.05401
3B4V A Y 93;3B4V C L 61;36.1323
3B4V A Y 93;3B4V C L 63;14.2232
3B4V A Y 94;3B4V A D 95;23.0684
3B4V A Y 94;3B4V A Q 98;21.6438
3B4V A Y 94;3B4V A N 99;6.85778
3B4V A Y 94;3B4V A I 100;10.1287
3B4V A Y 94;3B4V C L 61;1.08216
3B4V A Y 94;3B4V C L 63;8.38967
3B4V A D 95;3B4V A D 96;26.4892
3B4V A D 95;3B4V A G 97;7.66446
3B4V A D 95;3B4V A Q 98;17.5815
3B4V A D 95;3B4V A N 99;28.7752
3B4V A D 95;3B4V A I 101;21.3002
3B4V A D 95;3B4V C L 63;20.7398
3B4V A D 96;3B4V A G 97;23.9008
3B4V A D 96;3B4V A Q 98;13.5184
3B4V A D 96;3B4V C L 58;1.67476
3B4V A D 96;3B4V C L 63;23.2361
3B4V A D 96;3B4V C H 65;31.3694
3B4V A G 97;3B4V A Q 98;19.9714
3B4V A G 97;3B4V A N 99;14.2625
3B4V A Q 98;3B4V A N 99;19.5113
3B4V A Q 98;3B4V A I 100;1.24971
3B4V A N 99;3B4V A I 100;17.8691
3B4V A N 99;3B4V A I 101;16.113
3B4V A I 100;3B4V A I 101;22.3777
3B4V A I 101;3B4V A K 102;20.0301
3B4V A I 101;3B4V A K 103;8.47401
3B4V A I 101;3B4V C L 63;0.370317
3B4V A K 102;3B4V A K 103;27.862
3B4V A K 103;3B4V A D 104;36.8295
3B4V A K 103;3B4V A I 105;19.8024
3B4V A K 103;3B4V C F 60;2.52031
3B4V A K 103;3B4V C L 61;7.23303
3B4V A K 103;3B4V C G 62;11.2501
3B4V A D 104;3B4V A I 105;23.1115
3B4V A D 104;3B4V A Q 106;16.0979
3B4V A I 105;3B4V A Q 106;29.1839
3B4V A I 105;3B4V A M 108;17.534
3B4V A I 105;3B4V B F 58;11.303
3B4V A I 105;3B4V C F 60;21.6543
3B4V A I 105;3B4V C L 61;17.6541
3B4V A Q 106;3B4V A N 107;38.3438
3B4V A Q 106;3B4V A M 108;7.20476
3B4V A Q 106;3B4V B F 58;6.71482
3B4V A N 107;3B4V A M 108;17.2752
3B4V A N 107;3B4V A I 109;0.0373809
3B4V A N 107;3B4V B S 57;17.3163
3B4V A N 107;3B4V B F 58;11.0982
3B4V A N 107;3B4V B H 59;10.7678
3B4V A M 108;3B4V A I 109;23.6593
3B4V A M 108;3B4V B F 58;22.221
3B4V A M 108;3B4V B H 59;12.7052
3B4V A I 109;3B4V A V 110;25.0896
3B4V A I 109;3B4V A E 111;3.77151
3B4V A I 109;3B4V B H 59;1.38371
3B4V A V 110;3B4V A E 111;21.219
3B4V A V 110;3B4V A E 112;8.03836
3B4V A V 110;3B4V A C 113;6.18504
3B4V A V 110;3B4V B H 59;14.365
3B4V A E 111;3B4V A E 112;35.5229
3B4V A E 112;3B4V A C 113;23.8487
3B4V A C 113;3B4V A G 114;23.3125
3B4V A G 114;3B4V A C 115;26.1648
3B4V A G 114;3B4V A S 116;0.603704
3B4V A C 115;3B4V A S 116;21.7332
3B4V A S 116;3B4V B C 81;0.916619
3B4V A S 116;3B4V B V 82;14.2264
3B4V A S 116;3B4V B P 83;17.0155
3B4V B G 1;3B4V B L 2;32.6122
3B4V B G 1;3B4V B T 84;0.301413
3B4V B G 1;3B4V B E 112;25.5127
3B4V B G 1;3B4V B C 113;15.6897
3B4V B G 1;3B4V C L 14;7.56955
3B4V B G 1;3B4V C Q 16;15.727
3B4V B G 1;3B4V C L 24;17.841
3B4V B L 2;3B4V B E 3;32.7332
3B4V B L 2;3B4V B V 8;12.2273
3B4V B L 2;3B4V B I 10;16.2831
3B4V B L 2;3B4V B C 11;11.0871
3B4V B L 2;3B4V B C 12;13.1895
3B4V B L 2;3B4V B K 13;12.5415
3B4V B L 2;3B4V B G 53;1.04652
3B4V B L 2;3B4V B S 54;1.9761
3B4V B L 2;3B4V B S 55;1.09177
3B4V B L 2;3B4V B E 112;0.30028
3B4V B L 2;3B4V B C 113;7.56496
3B4V B L 2;3B4V C L 14;14.9117
3B4V B L 2;3B4V C L 24;11.4671
3B4V B L 2;3B4V C L 26;22.2809
3B4V B L 2;3B4V C N 40;0.274431
3B4V B E 3;3B4V B C 4;29.6509
3B4V B E 3;3B4V B V 8;8.05021
3B4V B E 3;3B4V B C 12;4.13764
3B4V B E 3;3B4V B K 13;19.4066
3B4V B C 4;3B4V B G 6;13.5243
3B4V B C 4;3B4V B V 8;17.3006
3B4V B C 4;3B4V B C 12;26.7681
3B4V B C 4;3B4V B K 13;14.1071
3B4V B C 4;3B4V B K 14;32.169
3B4V B C 4;3B4V B E 41;0.546295
3B4V B G 6;3B4V B K 7;30.8108
3B4V B G 6;3B4V B V 8;21.8229
3B4V B G 6;3B4V B K 14;11.7238
3B4V B K 7;3B4V B V 8;24.7253
3B4V B K 7;3B4V B N 9;16.0513
3B4V B K 7;3B4V B I 10;0.472435
3B4V B V 8;3B4V B N 9;22.7777
3B4V B V 8;3B4V B I 10;22.1184
3B4V B V 8;3B4V B C 12;19.2145
3B4V B V 8;3B4V B K 14;1.79716
3B4V B V 8;3B4V B G 42;0.128834
3B4V B N 9;3B4V B I 10;33.598
3B4V B N 9;3B4V B G 42;8.0479
3B4V B N 9;3B4V B E 43;26.08
3B4V B I 10;3B4V B C 11;24.114
3B4V B I 10;3B4V B C 12;9.92759
3B4V B I 10;3B4V B E 41;1.31313
3B4V B I 10;3B4V B G 42;4.10654
3B4V B I 10;3B4V B E 43;16.9221
3B4V B I 10;3B4V B G 53;22.5715
3B4V B I 10;3B4V B S 54;15.0645
3B4V B C 11;3B4V B C 12;18.4968
3B4V B C 11;3B4V B E 41;2.29361
3B4V B C 11;3B4V B G 42;7.75303
3B4V B C 11;3B4V B E 43;9.6008
3B4V B C 11;3B4V B C 44;4.84789
3B4V B C 11;3B4V B S 54;9.26999
3B4V B C 11;3B4V B C 81;19.3416
3B4V B C 11;3B4V B V 82;0.554112
3B4V B C 11;3B4V B C 113;9.36969
3B4V B C 11;3B4V B G 114;12.6256
3B4V B C 11;3B4V B C 115;8.32954
3B4V B C 12;3B4V B K 13;16.3781
3B4V B C 12;3B4V B K 14;3.65998
3B4V B C 12;3B4V B Y 39;0.991404
3B4V B C 12;3B4V B C 40;3.12063
3B4V B C 12;3B4V B E 41;21.6856
3B4V B C 12;3B4V B G 42;0.305747
3B4V B C 12;3B4V B C 81;3.61774
3B4V B C 12;3B4V B C 113;9.41636
3B4V B K 13;3B4V B K 14;22.0272
3B4V B K 13;3B4V B Q 15;19.1672
3B4V B K 13;3B4V B N 38;14.5837
3B4V B K 13;3B4V B Y 39;5.79685
3B4V B K 13;3B4V B C 40;0.191809
3B4V B K 13;3B4V B V 110;17.1821
3B4V B K 13;3B4V B E 111;28.742
3B4V B K 13;3B4V B E 112;3.69363
3B4V B K 13;3B4V B C 113;17.8302
3B4V B K 14;3B4V B Q 15;32.4324
3B4V B K 14;3B4V B F 16;1.1427
3B4V B K 14;3B4V B N 38;6.80409
3B4V B K 14;3B4V B Y 39;42.7179
3B4V B K 14;3B4V B E 41;16.1735
3B4V B Q 15;3B4V B F 16;25.6292
3B4V B Q 15;3B4V B H 36;15.1777
3B4V B Q 15;3B4V B N 38;21.6214
3B4V B Q 15;3B4V B Y 39;3.79141
3B4V B Q 15;3B4V C P 131;13.8799
3B4V B F 16;3B4V B F 17;38.7253
3B4V B F 16;3B4V B V 18;14.1639
3B4V B F 16;3B4V B Y 35;0.216333
3B4V B F 16;3B4V B H 36;10.3695
3B4V B F 16;3B4V B A 37;7.12755
3B4V B F 16;3B4V B N 38;21.8734
3B4V B F 16;3B4V B Y 39;16.8342
3B4V B F 17;3B4V B V 18;28.1365
3B4V B F 17;3B4V B S 19;14.5559
3B4V B F 17;3B4V B S 33;7.97019
3B4V B F 17;3B4V B G 34;14.8342
3B4V B F 17;3B4V B Y 35;12.6603
3B4V B F 17;3B4V B H 36;28.6867
3B4V B F 17;3B4V C D 132;9.25044
3B4V B V 18;3B4V B S 19;21.8471
3B4V B V 18;3B4V B F 20;7.81323
3B4V B V 18;3B4V B I 23;10.9963
3B4V B V 18;3B4V B G 34;6.61238
3B4V B V 18;3B4V B Y 35;26.6186
3B4V B V 18;3B4V B A 37;10.8065
3B4V B S 19;3B4V B F 20;17.0608
3B4V B S 19;3B4V B K 21;14.0624
3B4V B S 19;3B4V B D 22;27.5285
3B4V B S 19;3B4V B I 23;9.42723
3B4V B S 19;3B4V B S 33;6.327
3B4V B S 19;3B4V B G 34;2.53513
3B4V B F 20;3B4V B K 21;17.2332
3B4V B F 20;3B4V B D 22;0.484743
3B4V B F 20;3B4V B I 23;15.3527
3B4V B F 20;3B4V B G 24;4.26507
3B4V B F 20;3B4V B W 25;23.7907
3B4V B F 20;3B4V B N 26;15.5938
3B4V B F 20;3B4V B I 29;23.4876
3B4V B F 20;3B4V B P 32;14.1524
3B4V B F 20;3B4V B S 33;15.3995
3B4V B F 20;3B4V B G 34;11.5795
3B4V B F 20;3B4V B Y 35;15.0794
3B4V B F 20;3B4V B M 91;9.93158
3B4V B F 20;3B4V B M 108;3.73183
3B4V B K 21;3B4V B D 22;30.5185
3B4V B K 21;3B4V B I 23;0.932644
3B4V B K 21;3B4V B G 24;10.3895
3B4V B K 21;3B4V B N 26;41.7985
3B4V B K 21;3B4V B S 33;3.34654
3B4V B K 21;3B4V C R 170;0.806313
3B4V B D 22;3B4V B I 23;18.5614
3B4V B D 22;3B4V B G 24;3.59525
3B4V B I 23;3B4V B G 24;21.7234
3B4V B I 23;3B4V B W 25;28.0912
3B4V B G 24;3B4V B W 25;21.1292
3B4V B G 24;3B4V B N 26;9.12414
3B4V B G 24;3B4V B D 27;4.32018
3B4V B W 25;3B4V B N 26;16.459
3B4V B W 25;3B4V B D 27;6.40675
3B4V B W 25;3B4V B W 28;6.28285
3B4V B W 25;3B4V B I 29;20.7568
3B4V B N 26;3B4V B D 27;33.2897
3B4V B N 26;3B4V B W 28;0.35818
3B4V B N 26;3B4V B I 29;19.5577
3B4V B N 26;3B4V B I 30;0.690096
3B4V B N 26;3B4V B S 33;2.83227
3B4V B D 27;3B4V B W 28;31.6283
3B4V B D 27;3B4V B I 29;2.43868
3B4V B D 27;3B4V B I 30;0.161551
3B4V B D 27;3B4V B Y 94;11.1378
3B4V B D 27;3B4V C C 196;2.18291
3B4V B D 27;3B4V C R 199;26.5702
3B4V B W 28;3B4V B I 29;20.8338
3B4V B W 28;3B4V B I 30;3.2537
3B4V B W 28;3B4V B Y 93;8.54829
3B4V B W 28;3B4V B Y 94;22.9046
3B4V B W 28;3B4V C R 199;24.3045
3B4V B I 29;3B4V B I 30;25.0067
3B4V B I 29;3B4V B A 31;8.26504
3B4V B I 29;3B4V B P 32;11.2807
3B4V B I 29;3B4V B S 33;0.41874
3B4V B I 29;3B4V B M 91;19.998
3B4V B I 29;3B4V B L 92;5.77558
3B4V B I 29;3B4V B Y 93;9.39665
3B4V B I 29;3B4V B Y 94;0.032323
3B4V B I 30;3B4V B A 31;23.9321
3B4V B I 30;3B4V B P 32;1.6612
3B4V B I 30;3B4V B S 33;3.54071
3B4V B I 30;3B4V B L 92;23.3934
3B4V B I 30;3B4V B Y 93;11.8623
3B4V B I 30;3B4V B Y 94;30.6135
3B4V B I 30;3B4V B I 100;15.5944
3B4V B I 30;3B4V B I 101;0.00266015
3B4V B I 30;3B4V C V 157;5.13139
3B4V B I 30;3B4V C V 167;20.8395
3B4V B I 30;3B4V C V 168;8.21038
3B4V B I 30;3B4V C C 203;5.59411
3B4V B A 31;3B4V B P 32;33.9049
3B4V B A 31;3B4V B S 33;1.25697
3B4V B A 31;3B4V B S 90;0.0211631
3B4V B A 31;3B4V B M 91;3.43828
3B4V B A 31;3B4V B L 92;27.6039
3B4V B A 31;3B4V C H 165;1.96603
3B4V B A 31;3B4V C C 166;2.50087
3B4V B A 31;3B4V C V 167;13.2512
3B4V B P 32;3B4V B S 33;25.9883
3B4V B P 32;3B4V B G 34;18.67
3B4V B P 32;3B4V B Y 35;4.3484
3B4V B P 32;3B4V B M 89;14.9935
3B4V B P 32;3B4V B S 90;8.30728
3B4V B P 32;3B4V B M 91;12.7884
3B4V B P 32;3B4V B M 108;0.03742
3B4V B P 32;3B4V C D 132;0.773597
3B4V B S 33;3B4V B G 34;21.1622
3B4V B S 33;3B4V C V 168;1.69453
3B4V B G 34;3B4V B Y 35;20.1157
3B4V B G 34;3B4V B M 89;0.425733
3B4V B G 34;3B4V C D 132;4.53342
3B4V B Y 35;3B4V B H 36;20.136
3B4V B Y 35;3B4V B A 37;19.6298
3B4V B Y 35;3B4V B M 89;17.8841
3B4V B Y 35;3B4V B M 108;26.8638
3B4V B Y 35;3B4V B I 109;10.8741
3B4V B Y 35;3B4V C D 132;11.0658
3B4V B H 36;3B4V B A 37;14.3226
3B4V B H 36;3B4V B N 38;16.3418
3B4V B H 36;3B4V B I 109;12.9548
3B4V B H 36;3B4V C P 131;28.4107
3B4V B H 36;3B4V C D 132;23.8039
3B4V B A 37;3B4V B N 38;24.5626
3B4V B A 37;3B4V B M 108;2.94429
3B4V B A 37;3B4V B I 109;7.59874
3B4V B A 37;3B4V B V 110;7.49639
3B4V B N 38;3B4V B Y 39;20.7294
3B4V B N 38;3B4V B I 109;9.42768
3B4V B N 38;3B4V B V 110;14.1739
3B4V B N 38;3B4V C P 131;1.70986
3B4V B Y 39;3B4V B C 40;28.8518
3B4V B Y 39;3B4V B E 41;19.0275
3B4V B Y 39;3B4V B V 110;7.0535
3B4V B Y 39;3B4V B C 113;2.32858
3B4V B C 40;3B4V B E 41;17.6172
3B4V B C 40;3B4V B C 81;18.2015
3B4V B C 40;3B4V B V 82;10.0314
3B4V B C 40;3B4V B P 83;15.0129
3B4V B C 40;3B4V B V 110;8.39967
3B4V B C 40;3B4V B E 112;0.413428
3B4V B C 40;3B4V B C 113;19.3272
3B4V B E 41;3B4V B G 42;29.8668
3B4V B E 41;3B4V B C 81;11.7905
3B4V B G 42;3B4V B E 43;27.7304
3B4V B G 42;3B4V B C 44;5.73479
3B4V B G 42;3B4V B C 81;13.5405
3B4V B E 43;3B4V B C 44;31.5047
3B4V B E 43;3B4V B S 54;5.65185
3B4V B E 43;3B4V B C 115;0.544394
3B4V B C 44;3B4V B P 45;28.8081
3B4V B C 44;3B4V B S 46;9.05071
3B4V B C 44;3B4V B S 54;2.68076
3B4V B C 44;3B4V B S 79;19.3346
3B4V B C 44;3B4V B C 80;4.86544
3B4V B C 44;3B4V B C 81;10.2698
3B4V B C 44;3B4V B C 115;16.5995
3B4V B P 45;3B4V B S 46;32.9763
3B4V B P 45;3B4V B I 48;0.00402271
3B4V B P 45;3B4V B G 53;2.4597
3B4V B P 45;3B4V B S 54;22.1681
3B4V B P 45;3B4V B L 56;19.7333
3B4V B P 45;3B4V B N 64;15.7727
3B4V B P 45;3B4V B R 67;4.30283
3B4V B P 45;3B4V B K 78;3.13858
3B4V B P 45;3B4V B S 79;17.2985
3B4V B P 45;3B4V B C 115;6.00315
3B4V B S 46;3B4V B H 47;36.8064
3B4V B S 46;3B4V B I 48;33.903
3B4V B S 46;3B4V B N 64;3.42985
3B4V B S 46;3B4V B R 67;5.41594
3B4V B S 46;3B4V B M 68;8.2703
3B4V B S 46;3B4V B K 78;15.9312
3B4V B H 47;3B4V B I 48;43.1728
3B4V B H 47;3B4V B A 49;8.11253
3B4V B H 47;3B4V B M 68;9.69681
3B4V B I 48;3B4V B A 49;35.697
3B4V B I 48;3B4V B G 50;7.91127
3B4V B A 49;3B4V B G 50;32.0927
3B4V B G 50;3B4V B T 51;33.6471
3B4V B G 50;3B4V B G 53;10.693
3B4V B G 50;3B4V C T 28;3.27099
3B4V B T 51;3B4V B G 53;19.641
3B4V B T 51;3B4V C V 25;2.02294
3B4V B T 51;3B4V C L 26;7.42449
3B4V B T 51;3B4V C Q 27;22.1608
3B4V B T 51;3B4V C T 28;32.8363
3B4V B T 51;3B4V C D 29;7.67991
3B4V B T 51;3B4V C V 30;2.42836
3B4V B G 53;3B4V B S 54;30.7899
3B4V B G 53;3B4V B S 55;1.956
3B4V B G 53;3B4V C V 25;4.26238
3B4V B G 53;3B4V C L 26;14.2462
3B4V B S 54;3B4V B S 55;31.2277
3B4V B S 54;3B4V B L 56;12.5443
3B4V B S 54;3B4V B G 114;1.03401
3B4V B S 54;3B4V B C 115;13.0986
3B4V B S 54;3B4V C V 25;0.724491
3B4V B S 54;3B4V C N 56;1.29163
3B4V B S 55;3B4V B L 56;31.6873
3B4V B S 55;3B4V B S 57;3.31975
3B4V B S 55;3B4V B G 114;3.14127
3B4V B S 55;3B4V B C 115;3.3586
3B4V B S 55;3B4V C S 23;3.8327
3B4V B S 55;3B4V C L 24;31.016
3B4V B S 55;3B4V C V 25;27.1629
3B4V B S 55;3B4V C N 56;5.25418
3B4V B S 55;3B4V C F 60;0.903586
3B4V B L 56;3B4V B S 57;25.4933
3B4V B L 56;3B4V B S 60;17.1408
3B4V B L 56;3B4V B T 61;20.0044
3B4V B L 56;3B4V B N 64;18.8121
3B4V B L 56;3B4V B S 79;3.04295
3B4V B L 56;3B4V B C 115;16.8259
3B4V B L 56;3B4V B S 116;3.47476
3B4V B L 56;3B4V C L 24;0.550972
3B4V B L 56;3B4V C N 56;13.0662
3B4V B L 56;3B4V C F 60;11.6215
3B4V B S 57;3B4V B F 58;18.7579
3B4V B S 57;3B4V B H 59;7.9462
3B4V B S 57;3B4V B S 60;19.7459
3B4V B S 57;3B4V B T 61;8.43187
3B4V B S 57;3B4V B T 84;3.84545
3B4V B S 57;3B4V B C 115;3.25594
3B4V B S 57;3B4V C F 60;7.11716
3B4V B F 58;3B4V B H 59;18.2141
3B4V B F 58;3B4V B S 60;0.718662
3B4V B F 58;3B4V B T 61;8.43785
3B4V B F 58;3B4V B V 62;17.7809
3B4V B F 58;3B4V C L 57;8.76475
3B4V B F 58;3B4V C F 60;32.0455
3B4V B F 58;3B4V C L 61;1.39562
3B4V B H 59;3B4V B S 60;22.476
3B4V B H 59;3B4V B T 61;1.02286
3B4V B H 59;3B4V B V 62;12.351
3B4V B H 59;3B4V B I 63;25.8754
3B4V B H 59;3B4V B S 116;1.04686
3B4V B S 60;3B4V B T 61;15.0843
3B4V B S 60;3B4V B V 62;0.672701
3B4V B S 60;3B4V B I 63;11.3142
3B4V B S 60;3B4V B N 64;10.485
3B4V B S 60;3B4V B R 67;0.93119
3B4V B S 60;3B4V B C 115;11.9557
3B4V B S 60;3B4V B S 116;20.8416
3B4V B T 61;3B4V B V 62;18.8238
3B4V B T 61;3B4V B I 63;0.751872
3B4V B T 61;3B4V B N 64;9.42053
3B4V B T 61;3B4V B H 65;10.857
3B4V B T 61;3B4V C N 53;19.5132
3B4V B T 61;3B4V C N 56;11.6052
3B4V B T 61;3B4V C F 60;11.6529
3B4V B V 62;3B4V B I 63;24.3792
3B4V B V 62;3B4V B N 64;0.657861
3B4V B V 62;3B4V B H 65;9.65348
3B4V B V 62;3B4V B Y 66;14.3385
3B4V B I 63;3B4V B N 64;16.5421
3B4V B I 63;3B4V B H 65;1.24493
3B4V B I 63;3B4V B Y 66;12.6305
3B4V B I 63;3B4V B R 67;22.5323
3B4V B I 63;3B4V B F 74;28.2217
3B4V B I 63;3B4V B S 116;13.4404
3B4V B N 64;3B4V B H 65;19.9553
3B4V B N 64;3B4V B Y 66;1.13427
3B4V B N 64;3B4V B R 67;34.5217
3B4V B N 64;3B4V B M 68;32.8216
3B4V B H 65;3B4V B Y 66;36.3671
3B4V B H 65;3B4V B R 67;0.303691
3B4V B H 65;3B4V B M 68;7.23858
3B4V B H 65;3B4V B R 69;50.6094
3B4V B H 65;3B4V C N 53;12.3569
3B4V B Y 66;3B4V B R 67;16.7586
3B4V B Y 66;3B4V B M 68;1.36235
3B4V B Y 66;3B4V B R 69;11.1161
3B4V B Y 66;3B4V B G 70;1.72476
3B4V B Y 66;3B4V B H 71;36.1105
3B4V B Y 66;3B4V B F 74;15.1254
3B4V B Y 66;3B4V B A 75;0.544769
3B4V B R 67;3B4V B M 68;26.8469
3B4V B R 67;3B4V B R 69;2.07288
3B4V B R 67;3B4V B G 70;5.76175
3B4V B R 67;3B4V B H 71;0.0394871
3B4V B R 67;3B4V B F 74;21.6049
3B4V B R 67;3B4V B A 75;25.5413
3B4V B R 67;3B4V B L 77;16.3092
3B4V B R 67;3B4V B K 78;11.4775
3B4V B R 67;3B4V B S 79;18.3694
3B4V B R 67;3B4V B S 116;13.3122
3B4V B M 68;3B4V B R 69;40.4532
3B4V B M 68;3B4V B G 70;3.43057
3B4V B R 69;3B4V B G 70;24.7855
3B4V B R 69;3B4V B H 71;10.7637
3B4V B R 69;3B4V C N 53;0.360752
3B4V B G 70;3B4V B H 71;20.9367
3B4V B G 70;3B4V B S 72;7.58279
3B4V B G 70;3B4V B A 75;15.797
3B4V B H 71;3B4V B S 72;32.6352
3B4V B H 71;3B4V B F 74;17.8209
3B4V B H 71;3B4V B A 75;12.088
3B4V B S 72;3B4V B P 73;33.9195
3B4V B S 72;3B4V B F 74;9.76264
3B4V B S 72;3B4V B A 75;6.83579
3B4V B S 72;3B4V B N 76;5.97954
3B4V B P 73;3B4V B F 74;29.2384
3B4V B P 73;3B4V B A 75;3.59599
3B4V B P 73;3B4V B N 76;11.7513
3B4V B P 73;3B4V B L 77;21.1353
3B4V B F 74;3B4V B A 75;14.4601
3B4V B F 74;3B4V B N 76;2.36517
3B4V B F 74;3B4V B L 77;20.2806
3B4V B A 75;3B4V B N 76;38.7863
3B4V B A 75;3B4V B L 77;0.823312
3B4V B N 76;3B4V B L 77;27.4945
3B4V B N 76;3B4V B K 78;6.35917
3B4V B L 77;3B4V B K 78;31.9585
3B4V B K 78;3B4V B S 79;36.0403
3B4V B K 78;3B4V B C 80;14.3228
3B4V B K 78;3B4V B S 116;3.19736
3B4V B S 79;3B4V B C 80;24.4197
3B4V B S 79;3B4V B C 81;0.0928317
3B4V B S 79;3B4V B C 115;6.13116
3B4V B S 79;3B4V B S 116;17.2532
3B4V B C 80;3B4V B C 81;23.8977
3B4V B C 80;3B4V B V 82;12.7192
3B4V B C 80;3B4V B G 114;1.11116
3B4V B C 80;3B4V B C 115;4.12819
3B4V B C 80;3B4V B S 116;17.6302
3B4V B C 81;3B4V B V 82;24.4143
3B4V B C 81;3B4V B C 113;3.2803
3B4V B C 81;3B4V B G 114;2.04878
3B4V B C 81;3B4V B C 115;0.762866
3B4V B V 82;3B4V B P 83;31.484
3B4V B V 82;3B4V B T 84;8.09386
3B4V B V 82;3B4V B C 113;4.30897
3B4V B V 82;3B4V B G 114;17.8862
3B4V B V 82;3B4V B C 115;1.04874
3B4V B V 82;3B4V B S 116;9.74197
3B4V B P 83;3B4V B T 84;23.1884
3B4V B P 83;3B4V B K 85;5.31991
3B4V B P 83;3B4V B L 86;17.8328
3B4V B P 83;3B4V B V 110;13.7428
3B4V B P 83;3B4V B E 112;3.9022
3B4V B P 83;3B4V B C 113;0.733562
3B4V B T 84;3B4V B K 85;31.2803
3B4V B T 84;3B4V B E 112;18.6884
3B4V B T 84;3B4V B C 113;7.77077
3B4V B T 84;3B4V B G 114;16.9602
3B4V B T 84;3B4V B C 115;4.11433
3B4V B K 85;3B4V B L 86;37.7383
3B4V B K 85;3B4V B R 87;0.870312
3B4V B K 85;3B4V B V 110;4.37024
3B4V B K 85;3B4V B E 111;26.1781
3B4V B K 85;3B4V B E 112;35.7179
3B4V B L 86;3B4V B R 87;28.045
3B4V B L 86;3B4V B N 107;30.197
3B4V B L 86;3B4V B M 108;1.04907
3B4V B L 86;3B4V B I 109;11.379
3B4V B L 86;3B4V B V 110;11.7548
3B4V B L 86;3B4V B E 111;4.09426
3B4V B R 87;3B4V B P 88;43.3791
3B4V B R 87;3B4V B Q 106;1.2482
3B4V B R 87;3B4V B N 107;7.33728
3B4V B R 87;3B4V B M 108;8.22723
3B4V B R 87;3B4V B I 109;51.5567
3B4V B R 87;3B4V B E 111;33.4718
3B4V B R 87;3B4V C G 129;17.7677
3B4V B R 87;3B4V C H 130;22.9046
3B4V B R 87;3B4V C P 131;5.33088
3B4V B P 88;3B4V B M 89;25.4599
3B4V B P 88;3B4V B D 104;15.768
3B4V B P 88;3B4V B I 105;8.44894
3B4V B P 88;3B4V B Q 106;32.6224
3B4V B P 88;3B4V B N 107;0.772916
3B4V B P 88;3B4V B M 108;2.41327
3B4V B P 88;3B4V B I 109;6.12204
3B4V B M 89;3B4V B S 90;34.431
3B4V B M 89;3B4V B M 91;9.31655
3B4V B M 89;3B4V B K 103;0.990216
3B4V B M 89;3B4V B D 104;7.27584
3B4V B M 89;3B4V B I 105;13.0398
3B4V B M 89;3B4V B M 108;22.3832
3B4V B M 89;3B4V B I 109;17.8126
3B4V B M 89;3B4V C D 132;17.8374
3B4V B S 90;3B4V B M 91;25.9459
3B4V B S 90;3B4V B K 102;21.542
3B4V B S 90;3B4V B K 103;4.19327
3B4V B S 90;3B4V B D 104;18.6373
3B4V B S 90;3B4V C S 111;1.33065
3B4V B S 90;3B4V C D 112;13.6825
3B4V B M 91;3B4V B L 92;22.7583
3B4V B M 91;3B4V B Y 93;14.0957
3B4V B M 91;3B4V B I 101;1.66038
3B4V B M 91;3B4V B K 102;8.99451
3B4V B M 91;3B4V B K 103;15.5378
3B4V B M 91;3B4V B I 105;15.0868
3B4V B M 91;3B4V B M 108;15.861
3B4V B L 92;3B4V B Y 93;19.958
3B4V B L 92;3B4V B I 100;13.0725
3B4V B L 92;3B4V B I 101;9.04025
3B4V B L 92;3B4V B K 102;10.3131
3B4V B L 92;3B4V C V 157;8.78998
3B4V B L 92;3B4V C D 159;7.16412
3B4V B L 92;3B4V C H 165;24.7858
3B4V B L 92;3B4V C V 167;6.40808
3B4V B Y 93;3B4V B Y 94;24.6996
3B4V B Y 93;3B4V B D 95;4.6635
3B4V B Y 93;3B4V B N 99;2.49282
3B4V B Y 93;3B4V B I 100;2.44522
3B4V B Y 93;3B4V B I 101;41.9385
3B4V B Y 93;3B4V B K 103;22.9283
3B4V B Y 93;3B4V B I 105;8.60187
3B4V B Y 94;3B4V B D 95;23.4894
3B4V B Y 94;3B4V B Q 98;22.2703
3B4V B Y 94;3B4V B N 99;7.35664
3B4V B Y 94;3B4V B I 100;9.20578
3B4V B Y 94;3B4V C R 199;39.0814
3B4V B Y 94;3B4V C T 202;9.90521
3B4V B Y 94;3B4V C C 203;15.2815
3B4V B D 95;3B4V B D 96;26.4046
3B4V B D 95;3B4V B G 97;10.171
3B4V B D 95;3B4V B Q 98;15.8527
3B4V B D 95;3B4V B N 99;28.3071
3B4V B D 95;3B4V B I 101;20.7776
3B4V B D 95;3B4V C R 199;1.17225
3B4V B D 96;3B4V B G 97;24.2656
3B4V B D 96;3B4V B Q 98;12.5888
3B4V B D 96;3B4V C V 211;8.7368
3B4V B G 97;3B4V B Q 98;18.3936
3B4V B G 97;3B4V B N 99;15.222
3B4V B G 97;3B4V C M 198;0.318265
3B4V B G 97;3B4V C G 210;7.6655
3B4V B G 97;3B4V C V 211;22.3072
3B4V B Q 98;3B4V B N 99;18.6575
3B4V B Q 98;3B4V B I 100;1.00768
3B4V B Q 98;3B4V C L 184;9.87737
3B4V B Q 98;3B4V C S 195;15.5552
3B4V B Q 98;3B4V C M 198;19.4435
3B4V B Q 98;3B4V C R 199;26.015
3B4V B Q 98;3B4V C T 202;12.2518
3B4V B Q 98;3B4V C S 208;1.69783
3B4V B Q 98;3B4V C I 209;1.45425
3B4V B Q 98;3B4V C G 210;4.16297
3B4V B Q 98;3B4V C V 211;7.90827
3B4V B N 99;3B4V B I 100;18.403
3B4V B N 99;3B4V B I 101;15.442
3B4V B N 99;3B4V C N 187;0.0108872
3B4V B N 99;3B4V C S 208;22.0386
3B4V B N 99;3B4V C I 209;1.8735
3B4V B N 99;3B4V C G 210;14.3022
3B4V B N 99;3B4V C V 211;0.113577
3B4V B I 100;3B4V B I 101;23.0231
3B4V B I 100;3B4V C V 157;20.5568
3B4V B I 100;3B4V C V 158;13.5892
3B4V B I 100;3B4V C D 159;13.2265
3B4V B I 100;3B4V C Q 160;10.9443
3B4V B I 100;3B4V C T 202;12.8844
3B4V B I 100;3B4V C C 203;3.33926
3B4V B I 100;3B4V C G 206;1.28532
3B4V B I 100;3B4V C R 207;7.58508
3B4V B I 100;3B4V C S 208;21.0041
3B4V B I 101;3B4V B K 102;18.9224
3B4V B I 101;3B4V B K 103;10.6191
3B4V B I 101;3B4V C D 159;0.963848
3B4V B I 101;3B4V C Q 160;27.2416
3B4V B K 102;3B4V B K 103;28.1416
3B4V B K 102;3B4V B D 104;0.0769265
3B4V B K 102;3B4V C D 112;9.51375
3B4V B K 102;3B4V C G 113;15.6989
3B4V B K 102;3B4V C D 159;16.9505
3B4V B K 102;3B4V C Q 160;20.1761
3B4V B K 102;3B4V C T 161;10.1731
3B4V B K 102;3B4V C S 163;11.7268
3B4V B K 102;3B4V C H 165;20.706
3B4V B K 103;3B4V B D 104;37.0067
3B4V B K 103;3B4V B I 105;19.6288
3B4V B K 103;3B4V C Q 160;2.15341
3B4V B D 104;3B4V B I 105;23.2168
3B4V B D 104;3B4V B Q 106;13.7633
3B4V B I 105;3B4V B Q 106;28.792
3B4V B I 105;3B4V B M 108;18.3541
3B4V B Q 106;3B4V B N 107;38.9735
3B4V B Q 106;3B4V B M 108;6.67573
3B4V B N 107;3B4V B M 108;17.6535
3B4V B N 107;3B4V B I 109;0.037837
3B4V B M 108;3B4V B I 109;23.7601
3B4V B I 109;3B4V B V 110;24.9681
3B4V B I 109;3B4V B E 111;5.87756
3B4V B I 109;3B4V C D 132;3.1092
3B4V B V 110;3B4V B E 111;19.06
3B4V B V 110;3B4V B E 112;9.85438
3B4V B V 110;3B4V B C 113;5.73091
3B4V B E 111;3B4V B E 112;36.4431
3B4V B E 111;3B4V C G 129;0.0613774
3B4V B E 112;3B4V B C 113;22.2116
3B4V B C 113;3B4V B G 114;23.279
3B4V B G 114;3B4V B C 115;25.8406
3B4V B G 114;3B4V B S 116;0.161629
3B4V B C 115;3B4V B S 116;19.231
3B4V C G 9;3B4V C G 10;25.633
3B4V C G 9;3B4V C V 11;0.0332103
3B4V C G 9;3B4V C D 29;25.2466
3B4V C G 9;3B4V C V 30;7.51529
3B4V C G 9;3B4V C T 31;10.1926
3B4V C G 9;3B4V C W 45;0.0373803
3B4V C G 9;3B4V C N 47;0.0038967
3B4V C G 9;3B4V C T 49;13.5798
3B4V C G 10;3B4V C V 11;22.4843
3B4V C G 10;3B4V C Q 27;0.010541
3B4V C G 10;3B4V C T 28;1.18663
3B4V C G 10;3B4V C D 29;6.33013
3B4V C G 10;3B4V C V 30;15.7849
3B4V C G 10;3B4V C T 31;0.619553
3B4V C G 10;3B4V C W 45;15.9386
3B4V C G 10;3B4V C S 46;4.30277
3B4V C G 10;3B4V C N 47;8.90095
3B4V C G 10;3B4V C L 48;0.912298
3B4V C G 10;3B4V C T 49;5.07177
3B4V C V 11;3B4V C C 12;20.6312
3B4V C V 11;3B4V C W 13;21.0244
3B4V C V 11;3B4V C V 25;10.1541
3B4V C V 11;3B4V C Q 27;7.13148
3B4V C V 11;3B4V C T 28;17.1074
3B4V C V 11;3B4V C D 29;2.75853
3B4V C V 11;3B4V C V 30;2.47496
3B4V C V 11;3B4V C A 44;0.125781
3B4V C V 11;3B4V C W 45;12.4845
3B4V C V 11;3B4V C S 46;16.6526
3B4V C V 11;3B4V C L 48;8.10984
3B4V C V 11;3B4V C T 49;12.9992
3B4V C V 11;3B4V C I 55;17.9656
3B4V C C 12;3B4V C W 13;20.2773
3B4V C C 12;3B4V C V 25;3.60592
3B4V C C 12;3B4V C L 26;20.2701
3B4V C C 12;3B4V C Q 27;23.5906
3B4V C C 12;3B4V C V 30;8.94494
3B4V C C 12;3B4V C C 35;25.8221
3B4V C C 12;3B4V C T 43;8.21378
3B4V C C 12;3B4V C A 44;5.0578
3B4V C C 12;3B4V C W 45;3.38534
3B4V C W 13;3B4V C L 14;20.4623
3B4V C W 13;3B4V C Q 15;0.0892419
3B4V C W 13;3B4V C C 22;20.6604
3B4V C W 13;3B4V C S 23;11.0303
3B4V C W 13;3B4V C L 24;10.6116
3B4V C W 13;3B4V C V 25;20.3593
3B4V C W 13;3B4V C L 26;9.72579
3B4V C W 13;3B4V C T 43;6.21221
3B4V C W 13;3B4V C A 44;20.9821
3B4V C W 13;3B4V C W 45;2.66468
3B4V C W 13;3B4V C S 46;11.2967
3B4V C W 13;3B4V C I 55;17.9398
3B4V C W 13;3B4V C N 56;0.959798
3B4V C W 13;3B4V C L 58;4.06553
3B4V C W 13;3B4V C G 59;10.5305
3B4V C W 13;3B4V C V 64;20.8521
3B4V C W 13;3B4V C C 66;7.49748
3B4V C L 14;3B4V C Q 15;26.7602
3B4V C L 14;3B4V C Q 16;19.9242
3B4V C L 14;3B4V C T 21;1.56011
3B4V C L 14;3B4V C C 22;5.35406
3B4V C L 14;3B4V C S 23;3.17829
3B4V C L 14;3B4V C L 24;32.3033
3B4V C L 14;3B4V C L 26;20.8932
3B4V C L 14;3B4V C N 40;11.7358
3B4V C L 14;3B4V C D 42;18.8572
3B4V C L 14;3B4V C T 43;6.76196
3B4V C L 14;3B4V C A 44;0.0515579
3B4V C Q 15;3B4V C Q 16;25.0237
3B4V C Q 15;3B4V C G 17;0.513183
3B4V C Q 15;3B4V C A 20;30.7945
3B4V C Q 15;3B4V C T 21;6.09932
3B4V C Q 15;3B4V C C 22;12.2351
3B4V C Q 15;3B4V C I 41;1.50107
3B4V C Q 15;3B4V C D 42;35.7016
3B4V C Q 15;3B4V C T 43;3.06217
3B4V C Q 15;3B4V C A 44;12.0289
3B4V C Q 15;3B4V C C 66;5.93508
3B4V C Q 15;3B4V C P 68;24.9199
3B4V C Q 15;3B4V C R 92;15.6619
3B4V C Q 16;3B4V C G 17;36.9295
3B4V C Q 16;3B4V C A 20;1.38301
3B4V C Q 16;3B4V C T 21;10.1397
3B4V C Q 16;3B4V C S 23;18.2545
3B4V C Q 16;3B4V C L 24;23.0848
3B4V C Q 16;3B4V C R 92;4.92364
3B4V C G 17;3B4V C Q 18;28.8037
3B4V C G 17;3B4V C E 19;3.72566
3B4V C G 17;3B4V C A 20;13.3315
3B4V C G 17;3B4V C T 21;13.8831
3B4V C G 17;3B4V C R 92;9.98653
3B4V C Q 18;3B4V C E 19;28.603
3B4V C Q 18;3B4V C A 20;5.61763
3B4V C Q 18;3B4V C R 92;6.6437
3B4V C E 19;3B4V C A 20;30.2549
3B4V C E 19;3B4V C T 21;12.2495
3B4V C A 20;3B4V C T 21;25.0914
3B4V C A 20;3B4V C C 22;3.25193
3B4V C A 20;3B4V C C 66;3.08045
3B4V C A 20;3B4V C R 92;12.1115
3B4V C T 21;3B4V C C 22;31.1088
3B4V C T 21;3B4V C S 23;12.6342
3B4V C T 21;3B4V C G 59;0.871883
3B4V C T 21;3B4V C G 62;16.1669
3B4V C T 21;3B4V C V 64;0.552782
3B4V C C 22;3B4V C S 23;18.6143
3B4V C C 22;3B4V C A 44;4.53749
3B4V C C 22;3B4V C G 59;6.05392
3B4V C C 22;3B4V C G 62;1.5523
3B4V C C 22;3B4V C V 64;19.5091
3B4V C C 22;3B4V C C 66;21.7361
3B4V C S 23;3B4V C L 24;27.8526
3B4V C S 23;3B4V C V 25;4.73392
3B4V C S 23;3B4V C N 56;1.59212
3B4V C S 23;3B4V C G 59;18.9116
3B4V C S 23;3B4V C F 60;12.7648
3B4V C L 24;3B4V C V 25;17.8934
3B4V C L 24;3B4V C L 26;9.32605
3B4V C V 25;3B4V C L 26;28.7485
3B4V C V 25;3B4V C Q 27;6.84793
3B4V C V 25;3B4V C T 28;12.2082
3B4V C V 25;3B4V C I 55;11.0073
3B4V C V 25;3B4V C N 56;20.3974
3B4V C L 26;3B4V C Q 27;29.9966
3B4V C L 26;3B4V C N 40;0.648342
3B4V C L 26;3B4V C T 43;10.7253
3B4V C Q 27;3B4V C T 28;20.4854
3B4V C Q 27;3B4V C V 30;26.5863
3B4V C Q 27;3B4V C E 34;11.813
3B4V C Q 27;3B4V C C 35;4.97197
3B4V C T 28;3B4V C D 29;29.3722
3B4V C T 28;3B4V C V 30;9.40462
3B4V C T 28;3B4V C T 49;1.66851
3B4V C T 28;3B4V C H 50;0.0380659
3B4V C T 28;3B4V C I 55;16.8646
3B4V C D 29;3B4V C V 30;25.4113
3B4V C D 29;3B4V C E 34;0.859927
3B4V C D 29;3B4V C T 49;1.02294
3B4V C V 30;3B4V C T 31;25.2869
3B4V C V 30;3B4V C E 34;22.639
3B4V C V 30;3B4V C C 35;8.76995
3B4V C V 30;3B4V C W 45;10.3357
3B4V C T 31;3B4V C R 32;19.7582
3B4V C T 31;3B4V C A 33;13.6291
3B4V C T 31;3B4V C E 34;25.6928
3B4V C T 31;3B4V C C 35;7.94805
3B4V C T 31;3B4V C W 45;9.06362
3B4V C R 32;3B4V C A 33;25.474
3B4V C R 32;3B4V C E 34;0.884358
3B4V C R 32;3B4V C C 35;7.00016
3B4V C R 32;3B4V C C 36;29.1796
3B4V C R 32;3B4V C W 45;44.7179
3B4V C R 32;3B4V C L 67;24.1811
3B4V C R 32;3B4V C P 68;8.33714
3B4V C R 32;3B4V C C 69;16.4973
3B4V C A 33;3B4V C E 34;20.8026
3B4V C A 33;3B4V C C 35;0.764373
3B4V C A 33;3B4V C C 36;9.19896
3B4V C A 33;3B4V C A 37;12.0774
3B4V C E 34;3B4V C C 35;22.7921
3B4V C E 34;3B4V C C 36;1.16762
3B4V C E 34;3B4V C A 37;18.7419
3B4V C E 34;3B4V C S 38;0.362106
3B4V C C 35;3B4V C C 36;20.3516
3B4V C C 35;3B4V C A 37;3.03389
3B4V C C 35;3B4V C S 38;7.29814
3B4V C C 35;3B4V C T 43;9.1057
3B4V C C 35;3B4V C A 44;5.18413
3B4V C C 35;3B4V C W 45;13.0275
3B4V C C 35;3B4V C C 69;7.34049
3B4V C C 36;3B4V C A 37;21.9315
3B4V C C 36;3B4V C S 38;8.4011
3B4V C C 36;3B4V C T 43;2.7242
3B4V C C 36;3B4V C W 45;4.42393
3B4V C C 36;3B4V C C 69;27.7142
3B4V C C 36;3B4V C K 70;15.7816
3B4V C A 37;3B4V C S 38;33.5516
3B4V C A 37;3B4V C G 39;0.0853498
3B4V C S 38;3B4V C G 39;27.2661
3B4V C S 38;3B4V C N 40;19.597
3B4V C S 38;3B4V C T 43;6.32909
3B4V C S 38;3B4V C K 70;11.1024
3B4V C G 39;3B4V C N 40;25.2345
3B4V C G 39;3B4V C I 41;5.24264
3B4V C G 39;3B4V C K 70;6.52056
3B4V C G 39;3B4V C G 75;8.09841
3B4V C G 39;3B4V C V 76;8.9144
3B4V C G 39;3B4V C E 77;26.219
3B4V C N 40;3B4V C I 41;27.5954
3B4V C N 40;3B4V C D 42;11.8101
3B4V C N 40;3B4V C T 43;28.667
3B4V C N 40;3B4V C C 69;0.28436
3B4V C N 40;3B4V C K 70;10.6433
3B4V C N 40;3B4V C V 76;0.037407
3B4V C N 40;3B4V C E 77;0.972945
3B4V C I 41;3B4V C D 42;39.747
3B4V C I 41;3B4V C T 43;6.32527
3B4V C I 41;3B4V C P 68;1.96843
3B4V C I 41;3B4V C C 69;0.171662
3B4V C I 41;3B4V C K 70;18.4009
3B4V C I 41;3B4V C S 72;0.867671
3B4V C I 41;3B4V C V 76;19.5839
3B4V C I 41;3B4V C E 77;3.27194
3B4V C I 41;3B4V C C 78;0.0235933
3B4V C I 41;3B4V C C 84;7.32205
3B4V C I 41;3B4V C P 91;16.6711
3B4V C I 41;3B4V C R 92;15.4754
3B4V C I 41;3B4V C C 93;29.1652
3B4V C D 42;3B4V C T 43;20.8954
3B4V C D 42;3B4V C A 44;0.368357
3B4V C D 42;3B4V C R 92;22.8382
3B4V C T 43;3B4V C A 44;20.0035
3B4V C T 43;3B4V C P 68;4.33355
3B4V C T 43;3B4V C C 69;24.9955
3B4V C T 43;3B4V C K 70;2.53806
3B4V C A 44;3B4V C W 45;18.6687
3B4V C A 44;3B4V C C 66;8.93719
3B4V C A 44;3B4V C L 67;6.26274
3B4V C A 44;3B4V C P 68;7.56777
3B4V C A 44;3B4V C C 69;8.53692
3B4V C W 45;3B4V C S 46;36.1295
3B4V C W 45;3B4V C N 47;21.1898
3B4V C W 45;3B4V C H 65;0.45188
3B4V C W 45;3B4V C C 66;5.85066
3B4V C W 45;3B4V C L 67;28.7282
3B4V C W 45;3B4V C C 69;2.52911
3B4V C S 46;3B4V C N 47;26.8044
3B4V C S 46;3B4V C L 48;14.4694
3B4V C S 46;3B4V C I 55;0.187671
3B4V C S 46;3B4V C L 58;1.12286
3B4V C S 46;3B4V C V 64;10.9378
3B4V C S 46;3B4V C H 65;18.3758
3B4V C S 46;3B4V C C 66;3.4302
3B4V C N 47;3B4V C L 48;31.4466
3B4V C N 47;3B4V C T 49;6.17214
3B4V C N 47;3B4V C H 65;1.37043
3B4V C L 48;3B4V C T 49;27.4743
3B4V C L 48;3B4V C H 50;12.9757
3B4V C L 48;3B4V C I 55;9.20485
3B4V C L 48;3B4V C L 58;9.02892
3B4V C T 49;3B4V C H 50;43.9552
3B4V C T 49;3B4V C P 51;5.28923
3B4V C T 49;3B4V C I 55;3.69155
3B4V C H 50;3B4V C P 51;34.3941
3B4V C H 50;3B4V C G 52;5.18749
3B4V C H 50;3B4V C K 54;11.1693
3B4V C H 50;3B4V C I 55;30.7835
3B4V C H 50;3B4V C L 58;18.9283
3B4V C P 51;3B4V C G 52;28.1683
3B4V C P 51;3B4V C N 53;2.12773
3B4V C P 51;3B4V C K 54;25.414
3B4V C P 51;3B4V C I 55;0.115057
3B4V C G 52;3B4V C N 53;24.1353
3B4V C G 52;3B4V C K 54;2.66154
3B4V C G 52;3B4V C I 55;12.7615
3B4V C G 52;3B4V C N 56;3.16371
3B4V C N 53;3B4V C K 54;22.4843
3B4V C N 53;3B4V C I 55;1.9941
3B4V C N 53;3B4V C N 56;20.3954
3B4V C N 53;3B4V C L 57;6.97924
3B4V C N 53;3B4V C F 60;0.00764884
3B4V C K 54;3B4V C I 55;16.83
3B4V C K 54;3B4V C N 56;0.583229
3B4V C K 54;3B4V C L 57;16.1965
3B4V C K 54;3B4V C L 58;6.07652
3B4V C I 55;3B4V C N 56;28.0842
3B4V C I 55;3B4V C L 57;1.06223
3B4V C I 55;3B4V C L 58;21.6227
3B4V C I 55;3B4V C G 59;3.86239
3B4V C I 55;3B4V C V 64;0.0214112
3B4V C N 56;3B4V C L 57;14.1752
3B4V C N 56;3B4V C L 58;0.655855
3B4V C N 56;3B4V C G 59;7.74535
3B4V C N 56;3B4V C F 60;27.9463
3B4V C L 57;3B4V C L 58;16.1419
3B4V C L 57;3B4V C G 59;1.37467
3B4V C L 57;3B4V C F 60;20.3861
3B4V C L 57;3B4V C L 61;27.8149
3B4V C L 58;3B4V C G 59;15.8517
3B4V C L 58;3B4V C F 60;0.261937
3B4V C L 58;3B4V C L 61;6.28419
3B4V C L 58;3B4V C G 62;3.6447
3B4V C L 58;3B4V C L 63;38.6308
3B4V C L 58;3B4V C V 64;22.7799
3B4V C L 58;3B4V C H 65;0.48714
3B4V C G 59;3B4V C F 60;21.9036
3B4V C G 59;3B4V C L 61;1.24953
3B4V C G 59;3B4V C G 62;10.4112
3B4V C G 59;3B4V C V 64;6.17706
3B4V C F 60;3B4V C L 61;18.6371
3B4V C F 60;3B4V C G 62;5.47375
3B4V C L 61;3B4V C G 62;17.2584
3B4V C L 61;3B4V C L 63;23.6408
3B4V C G 62;3B4V C L 63;24.8966
3B4V C G 62;3B4V C V 64;9.16796
3B4V C L 63;3B4V C V 64;22.2355
3B4V C L 63;3B4V C H 65;8.29494
3B4V C V 64;3B4V C H 65;30.6931
3B4V C V 64;3B4V C C 66;15.1383
3B4V C H 65;3B4V C C 66;24.8689
3B4V C H 65;3B4V C L 67;2.10034
3B4V C C 66;3B4V C L 67;25.9515
3B4V C C 66;3B4V C P 68;9.6859
3B4V C L 67;3B4V C P 68;34.9263
3B4V C L 67;3B4V C C 69;0.820955
3B4V C P 68;3B4V C C 69;21.025
3B4V C P 68;3B4V C K 70;18.5367
3B4V C P 68;3B4V C D 71;4.23592
3B4V C C 69;3B4V C K 70;39.0971
3B4V C C 69;3B4V C D 71;5.63179
3B4V C K 70;3B4V C D 71;27.9611
3B4V C K 70;3B4V C S 72;9.5479
3B4V C K 70;3B4V C D 74;10.5933
3B4V C K 70;3B4V C G 75;13.5299
3B4V C K 70;3B4V C V 76;14.6419
3B4V C K 70;3B4V C P 91;10.2832
3B4V C D 71;3B4V C S 72;33.4419
3B4V C D 71;3B4V C M 86;7.07828
3B4V C D 71;3B4V C P 91;12.5773
3B4V C S 72;3B4V C C 73;21.5545
3B4V C S 72;3B4V C D 74;23.0545
3B4V C S 72;3B4V C V 76;7.39141
3B4V C S 72;3B4V C C 84;0.51676
3B4V C S 72;3B4V C M 86;15.7764
3B4V C S 72;3B4V C P 91;14.5266
3B4V C C 73;3B4V C D 74;23.7452
3B4V C C 73;3B4V C G 75;5.02389
3B4V C C 73;3B4V C V 76;20.3718
3B4V C C 73;3B4V C C 84;28.3491
3B4V C C 73;3B4V C R 85;6.27312
3B4V C C 73;3B4V C M 86;15.0243
3B4V C C 73;3B4V C P 91;3.15963
3B4V C D 74;3B4V C G 75;27.0753
3B4V C D 74;3B4V C V 76;2.87681
3B4V C G 75;3B4V C V 76;26.7951
3B4V C G 75;3B4V C E 77;2.53447
3B4V C V 76;3B4V C E 77;33.8116
3B4V C V 76;3B4V C C 78;9.19656
3B4V C V 76;3B4V C C 84;15.6451
3B4V C V 76;3B4V C C 93;1.87238
3B4V C E 77;3B4V C C 78;27.3915
3B4V C E 77;3B4V C G 79;7.91529
3B4V C E 77;3B4V C C 93;3.43473
3B4V C C 78;3B4V C G 79;28.0327
3B4V C C 78;3B4V C P 80;2.46888
3B4V C C 78;3B4V C K 82;30.508
3B4V C C 78;3B4V C A 83;8.18598
3B4V C C 78;3B4V C C 84;12.2876
3B4V C C 78;3B4V C C 93;28.4036
3B4V C G 79;3B4V C P 80;32.6805
3B4V C G 79;3B4V C G 81;3.52082
3B4V C G 79;3B4V C K 82;12.7019
3B4V C P 80;3B4V C G 81;25.8297
3B4V C P 80;3B4V C K 82;18.1622
3B4V C P 80;3B4V C C 127;1.82708
3B4V C G 81;3B4V C K 82;22.4455
3B4V C G 81;3B4V C C 95;1.61994
3B4V C G 81;3B4V C A 96;18.2582
3B4V C G 81;3B4V C P 97;11.5872
3B4V C G 81;3B4V C D 98;1.02697
3B4V C G 81;3B4V C C 127;7.66029
3B4V C K 82;3B4V C A 83;24.3624
3B4V C K 82;3B4V C C 93;19.6626
3B4V C K 82;3B4V C E 94;7.74985
3B4V C K 82;3B4V C C 95;16.3112
3B4V C K 82;3B4V C A 96;2.88027
3B4V C K 82;3B4V C C 127;22.4674
3B4V C K 82;3B4V C R 128;0.361648
3B4V C A 83;3B4V C C 84;25.6828
3B4V C A 83;3B4V C R 85;19.0684
3B4V C A 83;3B4V C R 92;0.984578
3B4V C A 83;3B4V C C 93;2.84526
3B4V C A 83;3B4V C E 94;18.3421
3B4V C A 83;3B4V C A 96;12.8212
3B4V C C 84;3B4V C R 85;29.5227
3B4V C C 84;3B4V C P 91;6.92998
3B4V C C 84;3B4V C R 92;10.5493
3B4V C C 84;3B4V C C 93;2.44832
3B4V C R 85;3B4V C M 86;32.7925
3B4V C R 85;3B4V C P 91;2.7385
3B4V C R 85;3B4V C R 92;19.0563
3B4V C R 85;3B4V C E 94;40.0637
3B4V C R 85;3B4V C C 95;2.15013
3B4V C R 85;3B4V C A 96;15.3352
3B4V C M 86;3B4V C P 91;32.873
3B4V C M 86;3B4V C R 92;0.555082
3B4V C M 86;3B4V C E 94;4.16269
3B4V C P 91;3B4V C R 92;31.6333
3B4V C R 92;3B4V C C 93;25.6397
3B4V C R 92;3B4V C E 94;15.6474
3B4V C C 93;3B4V C E 94;24.4909
3B4V C C 93;3B4V C C 95;0.918101
3B4V C E 94;3B4V C C 95;31.1369
3B4V C E 94;3B4V C A 96;3.4221
3B4V C C 95;3B4V C A 96;21.1718
3B4V C C 95;3B4V C P 97;9.04627
3B4V C C 95;3B4V C A 124;11.8899
3B4V C C 95;3B4V C C 127;21.9513
3B4V C C 95;3B4V C R 128;22.5542
3B4V C A 96;3B4V C P 97;32.2402
3B4V C A 96;3B4V C D 98;2.72232
3B4V C A 96;3B4V C C 127;0.00256901
3B4V C P 97;3B4V C D 98;29.0599
3B4V C P 97;3B4V C C 99;22.5608
3B4V C P 97;3B4V C C 120;4.31555
3B4V C P 97;3B4V C R 123;20.8417
3B4V C P 97;3B4V C A 124;17.0481
3B4V C P 97;3B4V C C 127;6.4822
3B4V C D 98;3B4V C C 99;20.429
3B4V C D 98;3B4V C S 100;24.8806
3B4V C D 98;3B4V C G 101;2.39722
3B4V C D 98;3B4V C L 102;7.21319
3B4V C D 98;3B4V C R 123;3.83167
3B4V C C 99;3B4V C S 100;25.7311
3B4V C C 99;3B4V C G 101;2.55376
3B4V C C 99;3B4V C L 102;27.2791
3B4V C C 99;3B4V C C 120;31.7181
3B4V C C 99;3B4V C R 123;3.4366
3B4V C S 100;3B4V C G 101;28.8276
3B4V C S 100;3B4V C L 102;2.31927
3B4V C G 101;3B4V C L 102;37.251
3B4V C G 101;3B4V C P 103;4.42557
3B4V C L 102;3B4V C P 103;34.3246
3B4V C L 102;3B4V C A 104;11.2729
3B4V C L 102;3B4V C D 118;0.0314455
3B4V C L 102;3B4V C E 119;22.3549
3B4V C L 102;3B4V C C 120;14.3903
3B4V C L 102;3B4V C R 123;23.1752
3B4V C P 103;3B4V C A 104;23.9329
3B4V C P 103;3B4V C L 106;29.6246
3B4V C P 103;3B4V C D 118;7.67763
3B4V C P 103;3B4V C E 119;16.1432
3B4V C P 103;3B4V C C 120;0.0420867
3B4V C P 103;3B4V C R 138;9.22206
3B4V C A 104;3B4V C R 105;26.3695
3B4V C A 104;3B4V C L 106;13.5003
3B4V C A 104;3B4V C D 118;14.5525
3B4V C A 104;3B4V C C 120;2.72504
3B4V C R 105;3B4V C L 106;20.0522
3B4V C R 105;3B4V C Q 107;9.68473
3B4V C R 105;3B4V C R 117;13.9867
3B4V C R 105;3B4V C D 118;13.7287
3B4V C L 106;3B4V C Q 107;25.4975
3B4V C L 106;3B4V C V 108;9.77458
3B4V C L 106;3B4V C R 117;3.10959
3B4V C L 106;3B4V C D 118;10.2137
3B4V C L 106;3B4V C E 119;1.14247
3B4V C Q 107;3B4V C V 108;20.4682
3B4V C Q 107;3B4V C T 115;17.3695
3B4V C Q 107;3B4V C Y 116;7.23554
3B4V C Q 107;3B4V C R 117;16.5107
3B4V C Q 107;3B4V C D 118;0.226454
3B4V C Q 107;3B4V C R 138;0.145139
3B4V C Q 107;3B4V C G 139;19.4616
3B4V C Q 107;3B4V C R 140;29.5619
3B4V C V 108;3B4V C C 109;21.1779
3B4V C V 108;3B4V C G 110;1.14846
3B4V C V 108;3B4V C A 114;0.380914
3B4V C V 108;3B4V C T 115;6.44832
3B4V C V 108;3B4V C Y 116;23.4628
3B4V C V 108;3B4V C D 118;6.3223
3B4V C V 108;3B4V C E 119;15.9689
3B4V C V 108;3B4V C L 122;10.3961
3B4V C V 108;3B4V C V 135;15.6555
3B4V C V 108;3B4V C Y 137;3.4854
3B4V C V 108;3B4V C R 138;22.0072
3B4V C V 108;3B4V C G 139;7.88065
3B4V C V 108;3B4V C R 140;2.37214
3B4V C V 108;3B4V C C 141;0.0525858
3B4V C C 109;3B4V C G 110;22.4558
3B4V C C 109;3B4V C G 113;3.34843
3B4V C C 109;3B4V C A 114;1.04709
3B4V C C 109;3B4V C T 115;1.01481
3B4V C C 109;3B4V C L 122;0.860095
3B4V C C 109;3B4V C V 135;3.96528
3B4V C C 109;3B4V C M 136;19.456
3B4V C C 109;3B4V C Y 137;32.3652
3B4V C C 109;3B4V C G 139;6.32088
3B4V C C 109;3B4V C R 140;1.64468
3B4V C C 109;3B4V C C 141;24.1733
3B4V C C 109;3B4V C A 164;1.01541
3B4V C G 110;3B4V C S 111;13.8328
3B4V C G 110;3B4V C D 112;9.12669
3B4V C G 110;3B4V C G 113;7.53766
3B4V C G 110;3B4V C A 114;8.72879
3B4V C G 110;3B4V C Y 116;7.27408
3B4V C G 110;3B4V C L 122;8.02069
3B4V C G 110;3B4V C L 133;3.89038
3B4V C G 110;3B4V C S 134;3.5588
3B4V C G 110;3B4V C V 135;0.646196
3B4V C G 110;3B4V C M 136;8.46813
3B4V C G 110;3B4V C C 141;1.34479
3B4V C S 111;3B4V C D 112;23.0695
3B4V C S 111;3B4V C G 113;4.12874
3B4V C S 111;3B4V C D 132;7.40643
3B4V C S 111;3B4V C L 133;12.4107
3B4V C S 111;3B4V C S 134;23.1246
3B4V C S 111;3B4V C M 136;23.3628
3B4V C S 111;3B4V C H 165;3.57602
3B4V C D 112;3B4V C G 113;20.4073
3B4V C D 112;3B4V C A 114;21.719
3B4V C D 112;3B4V C Y 116;16.3691
3B4V C D 112;3B4V C H 130;0.146226
3B4V C D 112;3B4V C L 133;19.5367
3B4V C D 112;3B4V C H 165;0.0118679
3B4V C G 113;3B4V C A 114;21.9918
3B4V C G 113;3B4V C M 136;8.33911
3B4V C G 113;3B4V C C 141;15.3412
3B4V C G 113;3B4V C K 143;1.17501
3B4V C G 113;3B4V C S 163;0.703114
3B4V C G 113;3B4V C A 164;0.254068
3B4V C G 113;3B4V C H 165;4.03238
3B4V C A 114;3B4V C T 115;24.3815
3B4V C A 114;3B4V C Y 116;13.7769
3B4V C A 114;3B4V C C 141;7.33503
3B4V C T 115;3B4V C Y 116;32.5216
3B4V C T 115;3B4V C R 117;0.142279
3B4V C T 115;3B4V C R 140;16.605
3B4V C T 115;3B4V C C 141;21.4779
3B4V C Y 116;3B4V C R 117;24.9115
3B4V C Y 116;3B4V C D 118;8.32237
3B4V C Y 116;3B4V C E 121;13.557
3B4V C Y 116;3B4V C L 122;21.4813
3B4V C Y 116;3B4V C A 125;16.1579
3B4V C Y 116;3B4V C L 133;13.7031
3B4V C R 117;3B4V C D 118;22.3156
3B4V C R 117;3B4V C E 121;36.9467
3B4V C D 118;3B4V C E 119;17.8881
3B4V C D 118;3B4V C C 120;21.0614
3B4V C D 118;3B4V C E 121;21.6449
3B4V C D 118;3B4V C L 122;4.74705
3B4V C E 119;3B4V C C 120;16.2075
3B4V C E 119;3B4V C E 121;0.457195
3B4V C E 119;3B4V C L 122;14.2654
3B4V C E 119;3B4V C R 123;34.2082
3B4V C E 119;3B4V C V 135;14.8396
3B4V C E 119;3B4V C R 138;21.998
3B4V C C 120;3B4V C E 121;20.6418
3B4V C C 120;3B4V C L 122;1.05706
3B4V C C 120;3B4V C R 123;8.52004
3B4V C C 120;3B4V C A 124;7.77248
3B4V C E 121;3B4V C L 122;16.26
3B4V C E 121;3B4V C R 123;0.560347
3B4V C E 121;3B4V C A 124;15.3934
3B4V C E 121;3B4V C A 125;9.56623
3B4V C E 121;3B4V C R 128;9.9104
3B4V C L 122;3B4V C R 123;29.2486
3B4V C L 122;3B4V C A 124;1.69129
3B4V C L 122;3B4V C A 125;7.60041
3B4V C L 122;3B4V C R 126;15.6579
3B4V C L 122;3B4V C L 133;21.7561
3B4V C L 122;3B4V C S 134;11.1473
3B4V C L 122;3B4V C V 135;16.3689
3B4V C R 123;3B4V C A 124;14.869
3B4V C R 123;3B4V C A 125;0.291894
3B4V C R 123;3B4V C R 126;43.4527
3B4V C R 123;3B4V C C 127;11.4481
3B4V C R 123;3B4V C S 134;1.62697
3B4V C R 123;3B4V C V 135;7.53071
3B4V C A 124;3B4V C A 125;15.0743
3B4V C A 124;3B4V C R 126;1.12626
3B4V C A 124;3B4V C C 127;8.87949
3B4V C A 124;3B4V C R 128;26.9524
3B4V C A 125;3B4V C R 126;15.3023
3B4V C A 125;3B4V C C 127;0.514531
3B4V C A 125;3B4V C R 128;30.0196
3B4V C A 125;3B4V C H 130;11.5416
3B4V C A 125;3B4V C L 133;10.5992
3B4V C R 126;3B4V C C 127;24.2877
3B4V C R 126;3B4V C R 128;2.93935
3B4V C R 126;3B4V C G 129;3.32963
3B4V C R 126;3B4V C H 130;19.1943
3B4V C R 126;3B4V C P 131;24.467
3B4V C R 126;3B4V C L 133;27.0903
3B4V C R 126;3B4V C S 134;9.09547
3B4V C C 127;3B4V C R 128;14.4771
3B4V C C 127;3B4V C G 129;9.45489
3B4V C R 128;3B4V C G 129;21.5119
3B4V C R 128;3B4V C H 130;13.8677
3B4V C G 129;3B4V C H 130;22.3334
3B4V C G 129;3B4V C P 131;11.633
3B4V C H 130;3B4V C P 131;20.6243
3B4V C H 130;3B4V C D 132;4.20315
3B4V C H 130;3B4V C L 133;22.7676
3B4V C P 131;3B4V C D 132;29.308
3B4V C P 131;3B4V C L 133;3.15821
3B4V C D 132;3B4V C L 133;23.6574
3B4V C D 132;3B4V C S 134;8.94611
3B4V C L 133;3B4V C S 134;22.0229
3B4V C S 134;3B4V C V 135;30.6117
3B4V C S 134;3B4V C M 136;3.77552
3B4V C V 135;3B4V C M 136;25.8078
3B4V C V 135;3B4V C Y 137;13.0176
3B4V C V 135;3B4V C R 138;23.4282
3B4V C V 135;3B4V C P 151;4.19187
3B4V C M 136;3B4V C Y 137;32.5197
3B4V C M 136;3B4V C P 151;11.6555
3B4V C M 136;3B4V C Q 154;2.59304
3B4V C M 136;3B4V C A 164;7.5572
3B4V C M 136;3B4V C H 165;21.7045
3B4V C M 136;3B4V C C 166;28.2132
3B4V C M 136;3B4V C V 167;0.0527383
3B4V C Y 137;3B4V C R 138;36.1347
3B4V C Y 137;3B4V C G 139;2.7795
3B4V C Y 137;3B4V C R 140;5.69174
3B4V C Y 137;3B4V C C 141;6.43612
3B4V C Y 137;3B4V C R 142;14.0037
3B4V C Y 137;3B4V C V 148;25.9682
3B4V C Y 137;3B4V C V 149;11.5632
3B4V C Y 137;3B4V C C 150;0.906798
3B4V C Y 137;3B4V C P 151;6.5002
3B4V C Y 137;3B4V C C 156;0.215378
3B4V C Y 137;3B4V C A 164;18.2476
3B4V C Y 137;3B4V C H 165;3.96766
3B4V C Y 137;3B4V C C 166;12.9834
3B4V C R 138;3B4V C G 139;31.3014
3B4V C R 138;3B4V C R 140;1.29026
3B4V C R 138;3B4V C H 147;0.498711
3B4V C R 138;3B4V C V 148;0.540079
3B4V C R 138;3B4V C V 149;8.34879
3B4V C G 139;3B4V C R 140;27.2454
3B4V C R 140;3B4V C C 141;26.082
3B4V C R 140;3B4V C R 142;50.2719
3B4V C C 141;3B4V C R 142;27.5798
3B4V C C 141;3B4V C K 143;10.6525
3B4V C C 141;3B4V C S 163;1.06496
3B4V C C 141;3B4V C A 164;0.464981
3B4V C R 142;3B4V C K 143;27.0101
3B4V C R 142;3B4V C S 144;14.3923
3B4V C R 142;3B4V C H 147;41.5466
3B4V C R 142;3B4V C V 148;11.4857
3B4V C R 142;3B4V C S 163;6.44655
3B4V C R 142;3B4V C A 164;11.8946
3B4V C K 143;3B4V C S 144;29.5779
3B4V C K 143;3B4V C V 158;0.868716
3B4V C K 143;3B4V C T 161;9.67625
3B4V C K 143;3B4V C G 162;21.1668
3B4V C K 143;3B4V C S 163;20.8993
3B4V C K 143;3B4V C A 164;0.381048
3B4V C S 144;3B4V C C 145;21.0699
3B4V C S 144;3B4V C E 146;22.8816
3B4V C S 144;3B4V C H 147;3.64446
3B4V C S 144;3B4V C V 148;5.6918
3B4V C S 144;3B4V C V 158;8.72376
3B4V C S 144;3B4V C G 162;0.391195
3B4V C S 144;3B4V C A 164;9.51449
3B4V C C 145;3B4V C E 146;25.8303
3B4V C C 145;3B4V C H 147;2.48506
3B4V C C 145;3B4V C V 148;18.8037
3B4V C C 145;3B4V C C 156;28.8384
3B4V C C 145;3B4V C V 157;5.63134
3B4V C C 145;3B4V C V 158;13.8283
3B4V C C 145;3B4V C A 164;3.75828
3B4V C C 145;3B4V C G 206;5.45843
3B4V C E 146;3B4V C H 147;54.7369
3B4V C E 146;3B4V C V 148;2.57064
3B4V C H 147;3B4V C V 148;25.0949
3B4V C H 147;3B4V C V 149;10.1069
3B4V C V 148;3B4V C V 149;30.9029
3B4V C V 148;3B4V C C 150;8.86525
3B4V C V 148;3B4V C C 156;17.1157
3B4V C V 148;3B4V C A 164;6.53912
3B4V C V 148;3B4V C H 165;0.0148635
3B4V C V 148;3B4V C C 166;6.87594
3B4V C V 149;3B4V C C 150;33.7962
3B4V C V 149;3B4V C P 151;4.13762
3B4V C V 149;3B4V C C 166;0.104563
3B4V C C 150;3B4V C P 151;30.3156
3B4V C C 150;3B4V C R 152;5.86263
3B4V C C 150;3B4V C Q 154;16.5541
3B4V C C 150;3B4V C S 155;6.74106
3B4V C C 150;3B4V C C 156;12.5327
3B4V C C 150;3B4V C C 166;19.3238
3B4V C P 151;3B4V C R 152;31.6679
3B4V C P 151;3B4V C Q 154;31.39
3B4V C P 151;3B4V C C 166;4.35654
3B4V C R 152;3B4V C P 153;50.8103
3B4V C R 152;3B4V C Q 154;3.48731
3B4V C P 153;3B4V C Q 154;37.0195
3B4V C P 153;3B4V C S 155;5.56884
3B4V C P 153;3B4V C V 168;9.96645
3B4V C P 153;3B4V C C 169;1.14227
3B4V C P 153;3B4V C F 204;3.63322
3B4V C Q 154;3B4V C S 155;24.0325
3B4V C Q 154;3B4V C C 166;16.058
3B4V C Q 154;3B4V C V 167;16.4994
3B4V C Q 154;3B4V C V 168;24.6259
3B4V C Q 154;3B4V C C 169;0.417342
3B4V C S 155;3B4V C C 156;25.3081
3B4V C S 155;3B4V C V 157;5.72646
3B4V C S 155;3B4V C H 165;1.93885
3B4V C S 155;3B4V C C 166;3.80128
3B4V C S 155;3B4V C V 167;19.4158
3B4V C S 155;3B4V C C 169;15.032
3B4V C S 155;3B4V C C 203;6.81147
3B4V C S 155;3B4V C F 204;16.8839
3B4V C C 156;3B4V C V 157;20.7966
3B4V C C 156;3B4V C A 164;7.37973
3B4V C C 156;3B4V C H 165;9.94655
3B4V C C 156;3B4V C C 166;1.59486
3B4V C C 156;3B4V C C 203;1.36107
3B4V C C 156;3B4V C G 206;11.4667
3B4V C V 157;3B4V C V 158;21.5403
3B4V C V 157;3B4V C D 159;0.0870013
3B4V C V 157;3B4V C S 163;0.999343
3B4V C V 157;3B4V C A 164;4.40393
3B4V C V 157;3B4V C H 165;23.7502
3B4V C V 157;3B4V C V 167;12.545
3B4V C V 157;3B4V C T 202;0.551402
3B4V C V 157;3B4V C C 203;19.0826
3B4V C V 157;3B4V C G 206;13.0345
3B4V C V 157;3B4V C R 207;0.0422963
3B4V C V 158;3B4V C D 159;27.1557
3B4V C V 158;3B4V C G 162;16.7219
3B4V C V 158;3B4V C S 163;7.58624
3B4V C V 158;3B4V C A 164;6.13384
3B4V C V 158;3B4V C H 165;0.179084
3B4V C V 158;3B4V C G 206;12.321
3B4V C V 158;3B4V C R 207;18.0888
3B4V C V 158;3B4V C S 208;3.25809
3B4V C D 159;3B4V C Q 160;25.7325
3B4V C D 159;3B4V C T 161;14.264
3B4V C D 159;3B4V C G 162;12.1677
3B4V C D 159;3B4V C S 163;18.3654
3B4V C D 159;3B4V C H 165;11.1753
3B4V C D 159;3B4V C S 208;0.514371
3B4V C Q 160;3B4V C T 161;38.0917
3B4V C Q 160;3B4V C G 162;2.94859
3B4V C Q 160;3B4V C S 208;0.883219
3B4V C T 161;3B4V C G 162;21.924
3B4V C T 161;3B4V C S 163;14.8029
3B4V C G 162;3B4V C S 163;18.2182
3B4V C G 162;3B4V C A 164;0.248073
3B4V C S 163;3B4V C A 164;21.265
3B4V C S 163;3B4V C H 165;11.0866
3B4V C A 164;3B4V C H 165;21.7267
3B4V C H 165;3B4V C C 166;19.821
3B4V C H 165;3B4V C V 167;8.38953
3B4V C C 166;3B4V C V 167;25.1502
3B4V C V 167;3B4V C V 168;30.3176
3B4V C V 167;3B4V C C 169;7.58033
3B4V C V 167;3B4V C C 203;10.1349
3B4V C V 168;3B4V C C 169;37.6617
3B4V C V 168;3B4V C R 170;1.31678
3B4V C V 168;3B4V C C 203;0.00611637
3B4V C C 169;3B4V C R 170;28.2091
3B4V C C 169;3B4V C A 171;10.1374
3B4V C C 169;3B4V C Q 200;2.01398
3B4V C C 169;3B4V C C 203;28.4588
3B4V C C 169;3B4V C F 204;24.6076
3B4V C R 170;3B4V C A 171;21.6903
3B4V C R 170;3B4V C A 172;28.2472
3B4V C R 170;3B4V C P 173;10.4105
3B4V C R 170;3B4V C C 174;9.96165
3B4V C R 170;3B4V C P 175;14.3778
3B4V C R 170;3B4V C C 196;18.2421
3B4V C R 170;3B4V C Q 200;26.4594
3B4V C R 170;3B4V C C 203;0.279165
3B4V C R 170;3B4V C F 204;8.55338
3B4V C A 171;3B4V C A 172;28.037
3B4V C A 171;3B4V C P 173;7.22603
3B4V C A 171;3B4V C Q 200;5.42022
3B4V C A 171;3B4V C F 204;10.9222
3B4V C A 172;3B4V C P 173;33.8917
3B4V C A 172;3B4V C C 174;1.4593
3B4V C A 172;3B4V C Q 200;7.94773
3B4V C P 173;3B4V C C 174;30.373
3B4V C P 173;3B4V C P 175;1.46941
3B4V C P 173;3B4V C Q 200;6.21053
3B4V C C 174;3B4V C P 175;27.4537
3B4V C C 174;3B4V C V 176;9.04189
3B4V C C 174;3B4V C S 194;1.61043
3B4V C C 174;3B4V C C 196;19.3946
3B4V C C 174;3B4V C H 197;30.05
3B4V C C 174;3B4V C Q 200;16.2021
3B4V C P 175;3B4V C V 176;24.3451
3B4V C P 175;3B4V C P 177;12.4165
3B4V C P 175;3B4V C S 194;6.74983
3B4V C P 175;3B4V C C 196;10.868
3B4V C P 175;3B4V C H 197;6.44036
3B4V C V 176;3B4V C P 177;39.0439
3B4V C V 176;3B4V C S 178;3.01152
3B4V C V 176;3B4V C I 193;18.6307
3B4V C V 176;3B4V C H 197;8.41016
3B4V C P 177;3B4V C S 178;35.1941
3B4V C P 177;3B4V C S 179;12.2948
3B4V C P 177;3B4V C P 180;1.80205
3B4V C P 177;3B4V C Q 182;23.1981
3B4V C P 177;3B4V C I 193;18.1265
3B4V C P 177;3B4V C S 194;10.0433
3B4V C P 177;3B4V C H 197;1.64212
3B4V C S 178;3B4V C S 179;35.7725
3B4V C S 178;3B4V C P 180;3.22449
3B4V C S 179;3B4V C P 180;45.712
3B4V C S 179;3B4V C Q 182;8.11975
3B4V C P 180;3B4V C G 181;29.3759
3B4V C P 180;3B4V C Q 182;8.05174
3B4V C P 180;3B4V C E 183;14.8719
3B4V C G 181;3B4V C Q 182;25.18
3B4V C G 181;3B4V C E 183;18.0385
3B4V C G 181;3B4V C G 215;2.80669
3B4V C Q 182;3B4V C E 183;25.2438
3B4V C Q 182;3B4V C L 184;10.6726
3B4V C Q 182;3B4V C Y 192;0.277828
3B4V C Q 182;3B4V C I 193;9.36154
3B4V C Q 182;3B4V C S 194;20.8836
3B4V C Q 182;3B4V C S 195;8.47482
3B4V C E 183;3B4V C L 184;24.162
3B4V C E 183;3B4V C T 191;9.27026
3B4V C E 183;3B4V C Y 192;4.67605
3B4V C E 183;3B4V C I 193;22.7799
3B4V C E 183;3B4V C A 214;2.45302
3B4V C E 183;3B4V C G 215;22.0273
3B4V C E 183;3B4V C S 216;18.3462
3B4V C L 184;3B4V C C 185;19.7769
3B4V C L 184;3B4V C G 186;2.30648
3B4V C L 184;3B4V C V 190;1.76922
3B4V C L 184;3B4V C T 191;7.36521
3B4V C L 184;3B4V C Y 192;25.0259
3B4V C L 184;3B4V C S 194;5.84829
3B4V C L 184;3B4V C S 195;15.2512
3B4V C L 184;3B4V C M 198;14.8213
3B4V C L 184;3B4V C V 211;20.7381
3B4V C L 184;3B4V C H 213;3.85307
3B4V C L 184;3B4V C A 214;13.2092
3B4V C L 184;3B4V C G 215;5.91309
3B4V C L 184;3B4V C S 216;1.1642
3B4V C C 185;3B4V C G 186;22.9958
3B4V C C 185;3B4V C N 189;6.16935
3B4V C C 185;3B4V C V 190;2.50779
3B4V C C 185;3B4V C T 191;1.78409
3B4V C C 185;3B4V C M 198;0.133016
3B4V C C 185;3B4V C V 211;6.14918
3B4V C C 185;3B4V C R 212;15.9976
3B4V C C 185;3B4V C H 213;30.4048
3B4V C C 185;3B4V C G 215;7.37545
3B4V C C 185;3B4V C S 216;4.44412
3B4V C C 185;3B4V C C 217;23.2075
3B4V C G 186;3B4V C N 187;13.3083
3B4V C G 186;3B4V C N 188;7.64143
3B4V C G 186;3B4V C N 189;7.06534
3B4V C G 186;3B4V C V 190;8.25397
3B4V C G 186;3B4V C Y 192;7.01751
3B4V C G 186;3B4V C M 198;8.31212
3B4V C G 186;3B4V C I 209;3.65443
3B4V C G 186;3B4V C G 210;3.36628
3B4V C G 186;3B4V C V 211;3.06828
3B4V C G 186;3B4V C R 212;10.7253
3B4V C G 186;3B4V C C 217;0.196847
3B4V C N 187;3B4V C N 188;23.076
3B4V C N 187;3B4V C N 189;5.64745
3B4V C N 187;3B4V C I 209;20.7302
3B4V C N 187;3B4V C G 210;18.1053
3B4V C N 187;3B4V C V 211;5.83479
3B4V C N 187;3B4V C R 212;41.8402
3B4V C N 188;3B4V C N 189;25.1789
3B4V C N 188;3B4V C V 190;30.2734
3B4V C N 188;3B4V C Y 192;14.1639
3B4V C N 188;3B4V C L 205;1.19139
3B4V C N 188;3B4V C I 209;26.35
3B4V C N 189;3B4V C V 190;22.1503
3B4V C N 189;3B4V C T 191;1.32991
3B4V C N 189;3B4V C R 212;22.3654
3B4V C N 189;3B4V C C 217;21.3747
3B4V C V 190;3B4V C T 191;32.0412
3B4V C V 190;3B4V C Y 192;27.1091
3B4V C V 190;3B4V C C 217;4.93685
3B4V C T 191;3B4V C Y 192;27.847
3B4V C T 191;3B4V C I 193;11.4257
3B4V C T 191;3B4V C S 216;20.6255
3B4V C T 191;3B4V C C 217;17.9013
3B4V C Y 192;3B4V C I 193;20.9853
3B4V C Y 192;3B4V C S 194;8.58492
3B4V C Y 192;3B4V C H 197;15.3614
3B4V C Y 192;3B4V C M 198;28.8012
3B4V C Y 192;3B4V C A 201;20.0093
3B4V C Y 192;3B4V C I 209;14.1208
3B4V C I 193;3B4V C S 194;19.7457
3B4V C I 193;3B4V C H 197;28.2481
3B4V C S 194;3B4V C S 195;20.8105
3B4V C S 194;3B4V C C 196;11.7895
3B4V C S 194;3B4V C H 197;22.0845
3B4V C S 194;3B4V C M 198;6.50313
3B4V C S 195;3B4V C C 196;19.5646
3B4V C S 195;3B4V C H 197;0.764871
3B4V C S 195;3B4V C M 198;9.2267
3B4V C S 195;3B4V C R 199;29.2288
3B4V C C 196;3B4V C H 197;14.9465
3B4V C C 196;3B4V C M 198;1.02316
3B4V C C 196;3B4V C R 199;21.6639
3B4V C C 196;3B4V C Q 200;9.55764
3B4V C H 197;3B4V C M 198;15.7507
3B4V C H 197;3B4V C R 199;0.776313
3B4V C H 197;3B4V C Q 200;15.2124
3B4V C H 197;3B4V C A 201;10.6416
3B4V C M 198;3B4V C R 199;17.1561
3B4V C M 198;3B4V C Q 200;0.630991
3B4V C M 198;3B4V C A 201;7.0506
3B4V C M 198;3B4V C T 202;18.4773
3B4V C M 198;3B4V C I 209;11.1031
3B4V C M 198;3B4V C G 210;11.9908
3B4V C M 198;3B4V C V 211;12.9884
3B4V C R 199;3B4V C Q 200;21.0173
3B4V C R 199;3B4V C A 201;0.791136
3B4V C R 199;3B4V C T 202;8.78519
3B4V C R 199;3B4V C C 203;9.29332
3B4V C Q 200;3B4V C A 201;21.7389
3B4V C Q 200;3B4V C T 202;0.787939
3B4V C Q 200;3B4V C C 203;8.50917
3B4V C Q 200;3B4V C F 204;28.7682
3B4V C A 201;3B4V C T 202;16.8838
3B4V C A 201;3B4V C C 203;0.765447
3B4V C A 201;3B4V C F 204;10.6751
3B4V C A 201;3B4V C L 205;12.8684
3B4V C A 201;3B4V C I 209;7.31809
3B4V C T 202;3B4V C C 203;19.2752
3B4V C T 202;3B4V C F 204;0.640988
3B4V C T 202;3B4V C L 205;9.32643
3B4V C T 202;3B4V C G 206;4.94348
3B4V C T 202;3B4V C R 207;12.6343
3B4V C T 202;3B4V C S 208;6.24788
3B4V C T 202;3B4V C I 209;22.0715
3B4V C T 202;3B4V C G 210;0.285182
3B4V C C 203;3B4V C F 204;17.9264
3B4V C C 203;3B4V C L 205;1.37403
3B4V C C 203;3B4V C G 206;6.34653
3B4V C F 204;3B4V C L 205;25.1573
3B4V C F 204;3B4V C G 206;1.84789
3B4V C L 205;3B4V C G 206;23.1928
3B4V C L 205;3B4V C R 207;50.4348
3B4V C L 205;3B4V C S 208;0.0383952
3B4V C L 205;3B4V C I 209;22.3715
3B4V C G 206;3B4V C R 207;22.3162
3B4V C R 207;3B4V C S 208;34.3999
3B4V C R 207;3B4V C I 209;4.21613
3B4V C S 208;3B4V C I 209;28.2652
3B4V C S 208;3B4V C G 210;0.363945
3B4V C I 209;3B4V C G 210;23.9199
3B4V C G 210;3B4V C V 211;18.954
3B4V C G 210;3B4V C R 212;0.948429
3B4V C V 211;3B4V C R 212;24.6762
3B4V C V 211;3B4V C H 213;14.3568
3B4V C V 211;3B4V C A 214;1.22095
3B4V C R 212;3B4V C H 213;43.2612
3B4V C H 213;3B4V C A 214;39.8399
3B4V C H 213;3B4V C G 215;2.73546
3B4V C H 213;3B4V C S 216;11.3981
3B4V C H 213;3B4V C C 217;4.44244
3B4V C H 213;3B4V C A 218;0.478319
3B4V C A 214;3B4V C G 215;31.1102
3B4V C A 214;3B4V C S 216;0.58863
3B4V C G 215;3B4V C S 216;25.8283
3B4V C S 216;3B4V C C 217;31.0041
3B4V C S 216;3B4V C A 218;1.08158
3B4V C C 217;3B4V C A 218;45.5258
