V1;V2;Weight
3SE3 A P 6;3SE3 A Q 7;26.9378
3SE3 A P 6;3SE3 A K 8;5.03206
3SE3 A P 6;3SE3 A W 87;30.8038
3SE3 A P 6;3SE3 A E 89;14.2797
3SE3 A Q 7;3SE3 A K 8;28.5664
3SE3 A Q 7;3SE3 A W 87;9.50744
3SE3 A Q 7;3SE3 A Y 88;20.1436
3SE3 A Q 7;3SE3 A E 89;1.38867
3SE3 A K 8;3SE3 A V 9;26.7967
3SE3 A K 8;3SE3 A E 10;3.69698
3SE3 A K 8;3SE3 A Y 88;5.67667
3SE3 A K 8;3SE3 A E 89;20.7652
3SE3 A K 8;3SE3 A V 90;2.98394
3SE3 A K 8;3SE3 A D 91;6.23114
3SE3 A V 9;3SE3 A E 10;35.6517
3SE3 A V 9;3SE3 A V 11;5.05528
3SE3 A V 9;3SE3 A L 20;3.01016
3SE3 A V 9;3SE3 A I 77;11.4273
3SE3 A V 9;3SE3 A Y 88;20.1459
3SE3 A V 9;3SE3 A E 89;8.82975
3SE3 A V 9;3SE3 A V 90;20.2397
3SE3 A V 9;3SE3 A D 91;2.69711
3SE3 A E 10;3SE3 A V 11;29.6113
3SE3 A E 10;3SE3 A D 12;3.36545
3SE3 A E 10;3SE3 A I 19;0.152967
3SE3 A E 10;3SE3 A L 20;0.614546
3SE3 A E 10;3SE3 A R 21;26.3468
3SE3 A E 10;3SE3 A V 90;0.229262
3SE3 A V 11;3SE3 A D 12;29.4083
3SE3 A V 11;3SE3 A I 13;4.28827
3SE3 A V 11;3SE3 A F 18;11.1915
3SE3 A V 11;3SE3 A I 19;12.494
3SE3 A V 11;3SE3 A L 20;17.9186
3SE3 A V 11;3SE3 A R 21;0.317139
3SE3 A V 11;3SE3 A L 75;15.6094
3SE3 A V 11;3SE3 A I 77;3.59205
3SE3 A V 11;3SE3 A V 90;18.9551
3SE3 A V 11;3SE3 A K 98;18.8816
3SE3 A D 12;3SE3 A I 13;30.3222
3SE3 A D 12;3SE3 A I 14;0.521369
3SE3 A D 12;3SE3 A F 18;3.00076
3SE3 A D 12;3SE3 A I 19;26.1035
3SE3 A D 12;3SE3 A R 21;1.82133
3SE3 A D 12;3SE3 A K 98;23.1883
3SE3 A I 13;3SE3 A I 14;29.0051
3SE3 A I 13;3SE3 A D 15;8.68875
3SE3 A I 13;3SE3 A N 17;12.4643
3SE3 A I 13;3SE3 A F 18;17.8679
3SE3 A I 13;3SE3 A I 19;1.05802
3SE3 A I 13;3SE3 A F 62;5.22703
3SE3 A I 13;3SE3 A P 95;19.2309
3SE3 A I 13;3SE3 A K 98;24.7372
3SE3 A I 13;3SE3 A A 99;15.8127
3SE3 A I 13;3SE3 A Q 100;12.4587
3SE3 A I 13;3SE3 A M 128;8.35623
3SE3 A I 14;3SE3 A D 15;27.388
3SE3 A I 14;3SE3 A D 16;1.03741
3SE3 A I 14;3SE3 A N 17;21.4911
3SE3 A I 14;3SE3 A I 19;22.8676
3SE3 A I 14;3SE3 A Q 100;19.2428
3SE3 A I 14;3SE3 A I 101;3.54978
3SE3 A I 14;3SE3 A G 102;9.10839
3SE3 A I 14;3SE3 A P 103;8.39082
3SE3 A I 14;3SE3 A V 187;14.0465
3SE3 A D 15;3SE3 A D 16;23.0962
3SE3 A D 15;3SE3 A N 17;8.39121
3SE3 A D 15;3SE3 A F 62;2.84468
3SE3 A D 15;3SE3 A A 99;2.18454
3SE3 A D 15;3SE3 A Q 100;5.99232
3SE3 A D 15;3SE3 A G 102;15.514
3SE3 A D 15;3SE3 A P 103;4.68736
3SE3 A D 15;3SE3 A G 122;8.29724
3SE3 A D 15;3SE3 A T 123;18.7562
3SE3 A D 15;3SE3 A S 126;6.30395
3SE3 A D 15;3SE3 A M 128;18.5746
3SE3 A D 15;3SE3 A W 129;18.274
3SE3 A D 16;3SE3 A N 17;20.8919
3SE3 A D 16;3SE3 A C 60;0.311892
3SE3 A D 16;3SE3 A N 61;18.3793
3SE3 A D 16;3SE3 A F 62;25.4875
3SE3 A D 16;3SE3 A S 63;15.1735
3SE3 A D 16;3SE3 A T 123;6.97067
3SE3 A D 16;3SE3 A D 125;4.52942e-05
3SE3 A D 16;3SE3 A S 126;15.7526
3SE3 A D 16;3SE3 A V 127;11.6489
3SE3 A D 16;3SE3 A M 128;9.00594
3SE3 A N 17;3SE3 A F 18;22.3785
3SE3 A N 17;3SE3 A I 19;9.44924
3SE3 A N 17;3SE3 A K 59;14.7486
3SE3 A N 17;3SE3 A C 60;5.34221
3SE3 A N 17;3SE3 A N 61;25.8432
3SE3 A N 17;3SE3 A F 62;7.02058
3SE3 A N 17;3SE3 A T 123;2.8731
3SE3 A F 18;3SE3 A I 19;20.8652
3SE3 A F 18;3SE3 A L 20;5.65581
3SE3 A F 18;3SE3 A F 36;3.66239
3SE3 A F 18;3SE3 A L 49;5.26037
3SE3 A F 18;3SE3 A T 58;3.98265
3SE3 A F 18;3SE3 A K 59;8.69284
3SE3 A F 18;3SE3 A C 60;35.9367
3SE3 A F 18;3SE3 A F 62;32.9237
3SE3 A F 18;3SE3 A K 66;1.3978
3SE3 A F 18;3SE3 A I 73;4.70329
3SE3 A F 18;3SE3 A L 75;20.2575
3SE3 A F 18;3SE3 A P 95;0.78003
3SE3 A I 19;3SE3 A L 20;26.4825
3SE3 A I 19;3SE3 A R 21;10.0546
3SE3 A I 19;3SE3 A T 58;15.1815
3SE3 A I 19;3SE3 A K 59;14.839
3SE3 A L 20;3SE3 A R 21;33.354
3SE3 A L 20;3SE3 A F 34;19.2246
3SE3 A L 20;3SE3 A S 57;0.299881
3SE3 A L 20;3SE3 A T 58;42.5969
3SE3 A L 20;3SE3 A I 77;29.3263
3SE3 A V 32;3SE3 A T 33;31.1259
3SE3 A V 32;3SE3 A F 34;23.6456
3SE3 A V 32;3SE3 A T 56;2.99022
3SE3 A V 32;3SE3 A A 79;9.14884
3SE3 A V 32;3SE3 A E 80;9.10794
3SE3 A V 32;3SE3 A K 81;22.6583
3SE3 A T 33;3SE3 A F 34;27.4423
3SE3 A T 33;3SE3 A N 54;15.8038
3SE3 A T 33;3SE3 A I 55;8.43612
3SE3 A T 33;3SE3 A T 56;9.16656
3SE3 A T 33;3SE3 A R 78;2.73308
3SE3 A T 33;3SE3 A A 79;2.73013
3SE3 A T 33;3SE3 A E 80;29.6494
3SE3 A F 34;3SE3 A S 35;22.8153
3SE3 A F 34;3SE3 A C 52;1.61273
3SE3 A F 34;3SE3 A Q 53;0.566245
3SE3 A F 34;3SE3 A N 54;12.2292
3SE3 A F 34;3SE3 A I 55;26.5105
3SE3 A F 34;3SE3 A T 56;10.3682
3SE3 A F 34;3SE3 A S 57;5.91346
3SE3 A F 34;3SE3 A T 58;12.0113
3SE3 A F 34;3SE3 A I 77;13.984
3SE3 A F 34;3SE3 A R 78;7.68975
3SE3 A F 34;3SE3 A A 79;19.182
3SE3 A F 34;3SE3 A Y 88;0.130683
3SE3 A S 35;3SE3 A F 36;26.4475
3SE3 A S 35;3SE3 A D 37;2.75623
3SE3 A S 35;3SE3 A C 52;6.54906
3SE3 A S 35;3SE3 A Q 53;13.079
3SE3 A S 35;3SE3 A N 54;10.2237
3SE3 A S 35;3SE3 A R 76;1.49295
3SE3 A S 35;3SE3 A I 77;12.2356
3SE3 A S 35;3SE3 A R 78;30.378
3SE3 A F 36;3SE3 A D 37;31.9549
3SE3 A F 36;3SE3 A K 48;6.50162
3SE3 A F 36;3SE3 A L 49;16.4474
3SE3 A F 36;3SE3 A C 52;22.5591
3SE3 A F 36;3SE3 A Q 53;6.66833
3SE3 A F 36;3SE3 A C 60;4.05563
3SE3 A F 36;3SE3 A R 76;2.80709
3SE3 A F 36;3SE3 A I 77;3.85876
3SE3 A D 37;3SE3 A Y 38;21.1243
3SE3 A D 37;3SE3 A W 46;7.38158
3SE3 A D 37;3SE3 A I 47;12.3284
3SE3 A D 37;3SE3 A K 48;14.204
3SE3 A D 37;3SE3 A L 49;0.730182
3SE3 A D 37;3SE3 A L 75;13.0809
3SE3 A D 37;3SE3 A R 76;49.7106
3SE3 A D 37;3SE3 A I 77;0.0065447
3SE3 A D 37;3SE3 A R 78;1.31656
3SE3 A Y 38;3SE3 A Q 39;21.8223
3SE3 A Y 38;3SE3 A K 40;12.3481
3SE3 A Y 38;3SE3 A N 45;0.714842
3SE3 A Y 38;3SE3 A W 46;13.8895
3SE3 A Y 38;3SE3 A I 47;38.8936
3SE3 A Y 38;3SE3 A K 48;1.19933
3SE3 A Y 38;3SE3 A L 49;12.5314
3SE3 A Y 38;3SE3 A I 73;19.576
3SE3 A Y 38;3SE3 A K 74;6.70056
3SE3 A Y 38;3SE3 A L 75;13.5803
3SE3 A Y 38;3SE3 A R 76;0.3972
3SE3 A Q 39;3SE3 A K 40;24.6466
3SE3 A Q 39;3SE3 A T 41;1.48767
3SE3 A Q 39;3SE3 A M 43;18.7702
3SE3 A Q 39;3SE3 A N 45;9.25218
3SE3 A Q 39;3SE3 A W 46;16.32
3SE3 A Q 39;3SE3 A I 73;1.01026
3SE3 A Q 39;3SE3 A K 74;22.7667
3SE3 A K 40;3SE3 A T 41;29.4755
3SE3 A K 40;3SE3 A G 42;4.25272
3SE3 A K 40;3SE3 A M 43;16.0002
3SE3 A K 40;3SE3 A E 71;8.41179
3SE3 A K 40;3SE3 A E 72;2.52243
3SE3 A K 40;3SE3 A I 73;13.6226
3SE3 A K 40;3SE3 A K 74;0.299896
3SE3 A T 41;3SE3 A G 42;30.0231
3SE3 A T 41;3SE3 A M 43;1.66061
3SE3 A T 41;3SE3 A E 72;22.2071
3SE3 A T 41;3SE3 A I 73;3.84962
3SE3 A T 41;3SE3 A K 74;2.5534
3SE3 A T 41;3SE3 A S 92;11.0316
3SE3 A G 42;3SE3 A M 43;30.2646
3SE3 A G 42;3SE3 A D 44;6.15282
3SE3 A M 43;3SE3 A D 44;36.7737
3SE3 A M 43;3SE3 A N 45;3.38855
3SE3 A M 43;3SE3 A W 46;24.0211
3SE3 A M 43;3SE3 A K 74;5.96508
3SE3 A D 44;3SE3 A N 45;35.5016
3SE3 A D 44;3SE3 A W 46;10.38
3SE3 A N 45;3SE3 A W 46;35.7629
3SE3 A N 45;3SE3 A I 47;2.62543
3SE3 A W 46;3SE3 A I 47;29.8966
3SE3 A W 46;3SE3 A K 48;0.213711
3SE3 A W 46;3SE3 A K 74;11.288
3SE3 A W 46;3SE3 A L 75;5.78889
3SE3 A W 46;3SE3 A R 76;56.8228
3SE3 A I 47;3SE3 A K 48;28.9798
3SE3 A I 47;3SE3 A L 49;1.28469
3SE3 A K 48;3SE3 A L 49;23.1101
3SE3 A K 48;3SE3 A S 50;6.75582
3SE3 A K 48;3SE3 A Q 53;22.7798
3SE3 A L 49;3SE3 A S 50;22.371
3SE3 A L 49;3SE3 A C 52;18.0851
3SE3 A L 49;3SE3 A Q 53;7.85177
3SE3 A L 49;3SE3 A C 60;2.06263
3SE3 A L 49;3SE3 A F 62;4.89163
3SE3 A L 49;3SE3 A L 65;14.8443
3SE3 A L 49;3SE3 A K 66;1.7639
3SE3 A S 50;3SE3 A G 51;25.3131
3SE3 A S 50;3SE3 A C 52;11.5476
3SE3 A S 50;3SE3 A Q 53;9.24126
3SE3 A S 50;3SE3 A N 61;2.1642
3SE3 A S 50;3SE3 A L 65;13.8885
3SE3 A G 51;3SE3 A C 52;22.0234
3SE3 A G 51;3SE3 A Q 53;15.9979
3SE3 A G 51;3SE3 A I 55;13.6612
3SE3 A G 51;3SE3 A C 60;0.253029
3SE3 A C 52;3SE3 A Q 53;22.1263
3SE3 A C 52;3SE3 A I 55;14.6397
3SE3 A C 52;3SE3 A C 60;29.0922
3SE3 A C 52;3SE3 A N 61;4.0005
3SE3 A C 52;3SE3 A F 62;0.711619
3SE3 A C 52;3SE3 A L 65;1.09291
3SE3 A Q 53;3SE3 A N 54;33.9727
3SE3 A Q 53;3SE3 A I 55;7.77162
3SE3 A N 54;3SE3 A I 55;24.0261
3SE3 A N 54;3SE3 A T 56;1.1718
3SE3 A N 54;3SE3 A E 80;3.16741
3SE3 A I 55;3SE3 A T 56;38.3996
3SE3 A I 55;3SE3 A S 57;22.5869
3SE3 A I 55;3SE3 A K 59;1.25267
3SE3 A I 55;3SE3 A C 60;6.68921
3SE3 A T 56;3SE3 A S 57;33.6153
3SE3 A T 56;3SE3 A T 58;2.30219
3SE3 A S 57;3SE3 A T 58;29.3142
3SE3 A S 57;3SE3 A K 59;20.9462
3SE3 A T 58;3SE3 A K 59;23.3844
3SE3 A T 58;3SE3 A C 60;0.996455
3SE3 A K 59;3SE3 A C 60;25.2441
3SE3 A K 59;3SE3 A N 61;3.39676
3SE3 A C 60;3SE3 A N 61;26.9041
3SE3 A C 60;3SE3 A F 62;10.3846
3SE3 A N 61;3SE3 A F 62;21.9228
3SE3 A N 61;3SE3 A S 63;15.9826
3SE3 A N 61;3SE3 A L 65;3.13951
3SE3 A N 61;3SE3 A T 123;2.63911
3SE3 A F 62;3SE3 A S 63;18.7791
3SE3 A F 62;3SE3 A S 64;1.01658
3SE3 A F 62;3SE3 A L 65;18.4673
3SE3 A F 62;3SE3 A K 66;26.0746
3SE3 A F 62;3SE3 A V 69;7.86593
3SE3 A F 62;3SE3 A P 95;3.65233
3SE3 A F 62;3SE3 A V 127;12.2753
3SE3 A F 62;3SE3 A M 128;10.7269
3SE3 A S 63;3SE3 A S 64;28.0316
3SE3 A S 63;3SE3 A L 65;7.7534
3SE3 A S 63;3SE3 A D 125;2.82502
3SE3 A S 63;3SE3 A S 126;0.20329
3SE3 A S 63;3SE3 A V 127;13.4469
3SE3 A S 64;3SE3 A L 65;28.3439
3SE3 A S 64;3SE3 A K 66;6.44828
3SE3 A S 64;3SE3 A L 67;0.00697211
3SE3 A S 64;3SE3 A V 127;12.9758
3SE3 A L 65;3SE3 A K 66;28.8539
3SE3 A L 65;3SE3 A L 67;2.79812
3SE3 A K 66;3SE3 A L 67;29.0729
3SE3 A K 66;3SE3 A N 68;12.7609
3SE3 A K 66;3SE3 A V 69;1.19515
3SE3 A K 66;3SE3 A V 127;13.7745
3SE3 A L 67;3SE3 A N 68;34.8863
3SE3 A L 67;3SE3 A V 127;6.15695
3SE3 A L 67;3SE3 B Q 124;9.96074
3SE3 A N 68;3SE3 A V 69;25.3583
3SE3 A N 68;3SE3 A Y 70;13.4293
3SE3 A N 68;3SE3 A E 71;18.078
3SE3 A N 68;3SE3 A I 73;0.145079
3SE3 A N 68;3SE3 A P 95;0.903533
3SE3 A N 68;3SE3 A V 127;4.77822
3SE3 A N 68;3SE3 B K 121;15.0713
3SE3 A N 68;3SE3 B Q 124;21.4857
3SE3 A V 69;3SE3 A Y 70;30.1419
3SE3 A V 69;3SE3 A E 71;3.94181
3SE3 A V 69;3SE3 A T 94;0.626269
3SE3 A V 69;3SE3 A P 95;24.7805
3SE3 A V 69;3SE3 A F 96;12.5896
3SE3 A V 69;3SE3 A V 127;9.55256
3SE3 A V 69;3SE3 A M 128;21.9183
3SE3 A Y 70;3SE3 A E 71;25.854
3SE3 A Y 70;3SE3 A E 72;0.00461332
3SE3 A Y 70;3SE3 A T 94;6.76752
3SE3 A Y 70;3SE3 A F 96;29.7135
3SE3 A Y 70;3SE3 A V 127;3.3368
3SE3 A Y 70;3SE3 A M 128;9.93668
3SE3 A Y 70;3SE3 A W 129;2.44536
3SE3 A Y 70;3SE3 A A 130;12.8135
3SE3 A Y 70;3SE3 A L 131;3.66923
3SE3 A Y 70;3SE3 A D 132;8.77079
3SE3 A Y 70;3SE3 B L 117;11.55
3SE3 A Y 70;3SE3 B R 120;22.2248
3SE3 A Y 70;3SE3 B K 121;26.7987
3SE3 A Y 70;3SE3 B Q 124;21.0121
3SE3 A E 71;3SE3 A E 72;25.5713
3SE3 A E 71;3SE3 A I 73;13.7605
3SE3 A E 71;3SE3 A T 94;8.11996
3SE3 A E 71;3SE3 A P 95;10.7585
3SE3 A E 71;3SE3 B K 121;7.59834
3SE3 A E 72;3SE3 A I 73;19.6996
3SE3 A E 72;3SE3 A S 92;6.97715
3SE3 A E 72;3SE3 A F 93;9.32968
3SE3 A E 72;3SE3 A T 94;18.6259
3SE3 A E 72;3SE3 A P 95;0.214708
3SE3 A I 73;3SE3 A K 74;26.2413
3SE3 A I 73;3SE3 A L 75;22.1881
3SE3 A I 73;3SE3 A V 90;0.0454491
3SE3 A I 73;3SE3 A S 92;11.6658
3SE3 A I 73;3SE3 A F 93;19.8445
3SE3 A I 73;3SE3 A P 95;23.474
3SE3 A K 74;3SE3 A L 75;23.8731
3SE3 A K 74;3SE3 A V 90;9.58764
3SE3 A K 74;3SE3 A D 91;0.0172761
3SE3 A K 74;3SE3 A S 92;13.4343
3SE3 A K 74;3SE3 A F 93;0.0670225
3SE3 A L 75;3SE3 A R 76;21.915
3SE3 A L 75;3SE3 A I 77;11.2247
3SE3 A L 75;3SE3 A Y 88;0.849064
3SE3 A L 75;3SE3 A E 89;8.51641
3SE3 A L 75;3SE3 A V 90;39.0317
3SE3 A R 76;3SE3 A I 77;30.7141
3SE3 A R 76;3SE3 A R 78;2.76298
3SE3 A R 76;3SE3 A W 87;6.04112
3SE3 A R 76;3SE3 A Y 88;6.38234
3SE3 A R 76;3SE3 A E 89;5.62947
3SE3 A R 76;3SE3 A V 90;0.00785789
3SE3 A I 77;3SE3 A R 78;24.0688
3SE3 A I 77;3SE3 A A 79;5.94827
3SE3 A I 77;3SE3 A S 86;3.05169
3SE3 A I 77;3SE3 A W 87;3.69102
3SE3 A I 77;3SE3 A Y 88;35.9811
3SE3 A I 77;3SE3 A V 90;8.44885
3SE3 A R 78;3SE3 A A 79;17.5442
3SE3 A R 78;3SE3 A E 80;4.46521
3SE3 A R 78;3SE3 A S 85;9.64692
3SE3 A R 78;3SE3 A S 86;6.7344
3SE3 A R 78;3SE3 A W 87;0.0924281
3SE3 A A 79;3SE3 A E 80;16.9653
3SE3 A A 79;3SE3 A K 81;3.19684
3SE3 A A 79;3SE3 A T 84;1.66949
3SE3 A A 79;3SE3 A S 85;6.5776
3SE3 A A 79;3SE3 A S 86;20.691
3SE3 A A 79;3SE3 A Y 88;18.4377
3SE3 A E 80;3SE3 A K 81;18.793
3SE3 A E 80;3SE3 A E 82;11.9789
3SE3 A E 80;3SE3 A T 84;6.57477
3SE3 A E 80;3SE3 A S 85;15.3897
3SE3 A K 81;3SE3 A E 82;32.1999
3SE3 A K 81;3SE3 A N 83;1.26602
3SE3 A K 81;3SE3 A T 84;21.6231
3SE3 A E 82;3SE3 A N 83;33.1921
3SE3 A E 82;3SE3 A T 84;3.40844
3SE3 A N 83;3SE3 A T 84;32.0414
3SE3 A N 83;3SE3 A S 85;0.101167
3SE3 A T 84;3SE3 A S 85;28.3778
3SE3 A T 84;3SE3 A S 86;5.85498
3SE3 A S 85;3SE3 A S 86;29.2297
3SE3 A S 85;3SE3 A W 87;2.38537
3SE3 A S 86;3SE3 A W 87;28.7853
3SE3 A S 86;3SE3 A Y 88;25.8265
3SE3 A W 87;3SE3 A Y 88;25.8919
3SE3 A W 87;3SE3 A E 89;1.91436
3SE3 A Y 88;3SE3 A E 89;22.3989
3SE3 A Y 88;3SE3 A V 90;2.87172
3SE3 A E 89;3SE3 A V 90;26.8341
3SE3 A E 89;3SE3 A D 91;0.000322222
3SE3 A V 90;3SE3 A D 91;37.3539
3SE3 A V 90;3SE3 A S 92;5.00426
3SE3 A V 90;3SE3 A F 93;4.62225
3SE3 A D 91;3SE3 A S 92;28.5057
3SE3 A D 91;3SE3 A F 93;11.5802
3SE3 A S 92;3SE3 A F 93;23.9528
3SE3 A F 93;3SE3 A T 94;29.1581
3SE3 A F 93;3SE3 A P 95;4.34745
3SE3 A F 93;3SE3 A K 98;16.3872
3SE3 A T 94;3SE3 A P 95;21.9319
3SE3 A T 94;3SE3 A F 96;6.37151
3SE3 A T 94;3SE3 A R 97;26.5739
3SE3 A T 94;3SE3 A K 98;8.79857
3SE3 A T 94;3SE3 B L 117;2.92199
3SE3 A P 95;3SE3 A F 96;16.8711
3SE3 A P 95;3SE3 A R 97;0.659815
3SE3 A P 95;3SE3 A K 98;7.7793
3SE3 A P 95;3SE3 A A 99;8.12805
3SE3 A P 95;3SE3 A M 128;7.94211
3SE3 A F 96;3SE3 A R 97;30.2759
3SE3 A F 96;3SE3 A K 98;1.40135
3SE3 A F 96;3SE3 A A 99;16.2477
3SE3 A F 96;3SE3 A M 128;19.6621
3SE3 A F 96;3SE3 A W 129;7.18098
3SE3 A F 96;3SE3 A D 132;18.4719
3SE3 A F 96;3SE3 A L 179;5.05339
3SE3 A F 96;3SE3 A S 182;17.2348
3SE3 A F 96;3SE3 A K 184;1.565
3SE3 A F 96;3SE3 B N 58;0.326333
3SE3 A F 96;3SE3 B I 116;16.5578
3SE3 A F 96;3SE3 B L 117;9.59314
3SE3 A F 96;3SE3 B R 120;5.35964
3SE3 A R 97;3SE3 A K 98;24.9686
3SE3 A R 97;3SE3 A A 99;3.56475
3SE3 A R 97;3SE3 A K 184;0.905861
3SE3 A K 98;3SE3 A A 99;21.4643
3SE3 A K 98;3SE3 A Q 100;5.702
3SE3 A A 99;3SE3 A Q 100;24.2429
3SE3 A A 99;3SE3 A I 101;0.15117
3SE3 A A 99;3SE3 A M 128;16.4224
3SE3 A A 99;3SE3 A W 129;10.9274
3SE3 A A 99;3SE3 A K 184;12.4969
3SE3 A Q 100;3SE3 A I 101;24.4717
3SE3 A Q 100;3SE3 A G 102;1.38073
3SE3 A Q 100;3SE3 A W 129;5.99763
3SE3 A Q 100;3SE3 A K 184;2.16536
3SE3 A Q 100;3SE3 A I 185;10.1152
3SE3 A Q 100;3SE3 A G 186;1.81706
3SE3 A Q 100;3SE3 A V 187;2.86805
3SE3 A I 101;3SE3 A G 102;29.4183
3SE3 A I 101;3SE3 A P 121;2.48455
3SE3 A I 101;3SE3 A W 129;25.5968
3SE3 A I 101;3SE3 A F 136;17.4396
3SE3 A I 101;3SE3 A A 177;16.1569
3SE3 A I 101;3SE3 A A 178;7.42064
3SE3 A I 101;3SE3 A L 179;13.3073
3SE3 A I 101;3SE3 A K 184;11.9674
3SE3 A I 101;3SE3 A I 185;9.60402
3SE3 A I 101;3SE3 A G 186;17.2738
3SE3 A I 101;3SE3 A V 187;10.8196
3SE3 A G 102;3SE3 A P 103;24.1031
3SE3 A G 102;3SE3 A P 104;5.8266
3SE3 A G 102;3SE3 A P 121;1.36075
3SE3 A G 102;3SE3 A G 122;5.79039
3SE3 A G 102;3SE3 A W 129;3.36584
3SE3 A G 102;3SE3 A A 177;2.85252
3SE3 A G 102;3SE3 A G 186;0.293939
3SE3 A G 102;3SE3 A V 187;4.29615
3SE3 A P 103;3SE3 A P 104;26.0822
3SE3 A P 103;3SE3 A G 122;16.8925
3SE3 A P 103;3SE3 A V 187;18.314
3SE3 A P 103;3SE3 A Y 188;9.04919
3SE3 A P 103;3SE3 A S 189;6.72287
3SE3 A P 103;3SE3 A P 190;7.58983
3SE3 A P 104;3SE3 A E 105;23.048
3SE3 A P 104;3SE3 A V 106;7.03281
3SE3 A P 104;3SE3 A I 119;7.62048
3SE3 A P 104;3SE3 A S 120;4.07042
3SE3 A P 104;3SE3 A P 121;6.18862
3SE3 A P 104;3SE3 A G 122;4.05469
3SE3 A P 104;3SE3 A Y 138;10.782
3SE3 A P 104;3SE3 A V 175;14.0109
3SE3 A P 104;3SE3 A K 176;5.40376
3SE3 A P 104;3SE3 A A 177;13.2973
3SE3 A P 104;3SE3 A V 187;4.88046
3SE3 A P 104;3SE3 A Y 188;0.0291945
3SE3 A P 104;3SE3 A S 189;17.5069
3SE3 A P 104;3SE3 A P 190;3.05258
3SE3 A E 105;3SE3 A V 106;28.2537
3SE3 A E 105;3SE3 A H 107;27.1162
3SE3 A E 105;3SE3 A H 118;0.873585
3SE3 A E 105;3SE3 A I 119;10.9868
3SE3 A E 105;3SE3 A S 120;33.5032
3SE3 A E 105;3SE3 A P 121;5.14572
3SE3 A E 105;3SE3 A G 122;11.9905
3SE3 A E 105;3SE3 A T 123;0.858879
3SE3 A E 105;3SE3 A K 124;6.97486
3SE3 A V 106;3SE3 A H 107;35.9619
3SE3 A V 106;3SE3 A L 108;15.8637
3SE3 A V 106;3SE3 A I 117;6.17934
3SE3 A V 106;3SE3 A H 118;3.38732
3SE3 A V 106;3SE3 A I 119;8.62441
3SE3 A V 106;3SE3 A L 173;9.44131
3SE3 A V 106;3SE3 A V 175;16.4893
3SE3 A V 106;3SE3 A S 189;9.93771
3SE3 A V 106;3SE3 A H 192;28.4993
3SE3 A H 107;3SE3 A L 108;31.0452
3SE3 A H 107;3SE3 A V 116;2.04428
3SE3 A H 107;3SE3 A I 117;3.82429
3SE3 A H 107;3SE3 A H 118;41.1304
3SE3 A H 107;3SE3 A I 119;1.06497
3SE3 A H 107;3SE3 A S 120;3.0491
3SE3 A L 108;3SE3 A E 109;28.7835
3SE3 A L 108;3SE3 A I 115;13.1152
3SE3 A L 108;3SE3 A V 116;7.38783
3SE3 A L 108;3SE3 A I 117;13.2479
3SE3 A L 108;3SE3 A H 118;2.1049
3SE3 A L 108;3SE3 A L 173;17.5772
3SE3 A L 108;3SE3 A H 192;15.3456
3SE3 A L 108;3SE3 A C 193;5.55392
3SE3 A L 108;3SE3 A I 194;28.598
3SE3 A E 109;3SE3 A A 110;31.9208
3SE3 A E 109;3SE3 A E 111;3.90791
3SE3 A E 109;3SE3 A A 114;0.638424
3SE3 A E 109;3SE3 A I 115;9.00866
3SE3 A E 109;3SE3 A V 116;29.6773
3SE3 A E 109;3SE3 A H 118;13.7363
3SE3 A E 109;3SE3 A I 194;2.4698
3SE3 A A 110;3SE3 A E 111;27.5991
3SE3 A A 110;3SE3 A A 114;0.366649
3SE3 A A 110;3SE3 A I 115;7.7546
3SE3 A A 110;3SE3 A I 194;24.3989
3SE3 A A 110;3SE3 A K 195;5.25632
3SE3 A A 110;3SE3 A T 196;6.85302
3SE3 A A 110;3SE3 A T 197;18.0518
3SE3 A A 110;3SE3 A F 290;3.60444
3SE3 A E 111;3SE3 A D 112;20.5887
3SE3 A E 111;3SE3 A K 113;4.04216
3SE3 A E 111;3SE3 A A 114;31.3954
3SE3 A E 111;3SE3 A I 115;0.775404
3SE3 A E 111;3SE3 A V 116;4.84009
3SE3 A E 111;3SE3 A K 161;22.48
3SE3 A E 111;3SE3 A Y 163;0.000289514
3SE3 A E 111;3SE3 A T 196;12.2076
3SE3 A E 111;3SE3 A T 197;11.0972
3SE3 A E 111;3SE3 A F 290;36.4145
3SE3 A E 111;3SE3 A W 291;6.67628
3SE3 A D 112;3SE3 A K 113;26.9753
3SE3 A D 112;3SE3 A A 114;1.06374
3SE3 A D 112;3SE3 A L 165;1.19725
3SE3 A D 112;3SE3 A S 166;2.80546
3SE3 A D 112;3SE3 A P 167;15.376
3SE3 A D 112;3SE3 A T 196;6.06758
3SE3 A D 112;3SE3 A T 197;12.2704
3SE3 A D 112;3SE3 A V 198;4.80966
3SE3 A D 112;3SE3 A E 199;8.46008
3SE3 A D 112;3SE3 A N 200;14.7207
3SE3 A D 112;3SE3 A F 290;10.119
3SE3 A K 113;3SE3 A A 114;24.8387
3SE3 A K 113;3SE3 A Y 163;3.10257
3SE3 A K 113;3SE3 A K 164;9.75284
3SE3 A K 113;3SE3 A L 165;28.3019
3SE3 A K 113;3SE3 A P 167;4.7066
3SE3 A K 113;3SE3 A T 196;0.175142
3SE3 A A 114;3SE3 A I 115;21.6374
3SE3 A A 114;3SE3 A K 161;11.4745
3SE3 A A 114;3SE3 A I 162;7.17859
3SE3 A A 114;3SE3 A Y 163;15.9827
3SE3 A A 114;3SE3 A K 164;0.0187818
3SE3 A A 114;3SE3 A L 165;6.60024
3SE3 A A 114;3SE3 A T 196;5.364
3SE3 A I 115;3SE3 A V 116;23.9628
3SE3 A I 115;3SE3 A I 117;11.3849
3SE3 A I 115;3SE3 A I 142;7.7713
3SE3 A I 115;3SE3 A H 160;0.00197218
3SE3 A I 115;3SE3 A K 161;9.40816
3SE3 A I 115;3SE3 A I 162;22.7897
3SE3 A I 115;3SE3 A L 165;12.6981
3SE3 A I 115;3SE3 A Y 171;13.2525
3SE3 A I 115;3SE3 A L 173;7.65698
3SE3 A I 115;3SE3 A I 194;19.7069
3SE3 A I 115;3SE3 A T 196;11.5982
3SE3 A V 116;3SE3 A I 117;22.6953
3SE3 A V 116;3SE3 A H 118;22.4279
3SE3 A V 116;3SE3 A R 159;0.513703
3SE3 A V 116;3SE3 A H 160;8.00623
3SE3 A V 116;3SE3 A K 161;27.6359
3SE3 A I 117;3SE3 A H 118;21.361
3SE3 A I 117;3SE3 A I 119;17.3687
3SE3 A I 117;3SE3 A L 140;10.9815
3SE3 A I 117;3SE3 A I 156;5.00128
3SE3 A I 117;3SE3 A Y 157;0.00943525
3SE3 A I 117;3SE3 A S 158;0.582375
3SE3 A I 117;3SE3 A R 159;9.49716
3SE3 A I 117;3SE3 A H 160;33.3173
3SE3 A I 117;3SE3 A K 161;2.44868
3SE3 A I 117;3SE3 A I 162;18.8978
3SE3 A I 117;3SE3 A L 173;6.17205
3SE3 A I 117;3SE3 A V 175;3.46438
3SE3 A H 118;3SE3 A I 119;23.072
3SE3 A H 118;3SE3 A S 158;0.0448424
3SE3 A H 118;3SE3 A R 159;31.6992
3SE3 A H 118;3SE3 A Y 248;5.79547
3SE3 A I 119;3SE3 A S 120;26.1557
3SE3 A I 119;3SE3 A Y 138;25.4666
3SE3 A I 119;3SE3 A L 140;0.57714
3SE3 A I 119;3SE3 A I 156;10.6079
3SE3 A I 119;3SE3 A Y 157;3.17417
3SE3 A I 119;3SE3 A S 158;21.4584
3SE3 A I 119;3SE3 A R 159;4.99918
3SE3 A I 119;3SE3 A H 160;0.0354674
3SE3 A I 119;3SE3 A V 175;12.4781
3SE3 A I 119;3SE3 A P 243;12.4601
3SE3 A S 120;3SE3 A P 121;33.5875
3SE3 A S 120;3SE3 A G 122;0.351149
3SE3 A S 120;3SE3 A K 124;7.14528
3SE3 A S 120;3SE3 A Y 138;5.13286
3SE3 A S 120;3SE3 A P 243;9.42174
3SE3 A S 120;3SE3 A G 244;3.6326
3SE3 A P 121;3SE3 A G 122;26.3044
3SE3 A P 121;3SE3 A T 123;2.68657
3SE3 A P 121;3SE3 A K 124;20.9986
3SE3 A P 121;3SE3 A D 125;3.26502
3SE3 A P 121;3SE3 A S 126;0.0562651
3SE3 A P 121;3SE3 A W 129;15.7148
3SE3 A P 121;3SE3 A G 133;5.64958
3SE3 A P 121;3SE3 A F 136;18.1778
3SE3 A P 121;3SE3 A Y 138;9.41443
3SE3 A P 121;3SE3 A A 177;0.994335
3SE3 A P 121;3SE3 A P 243;5.6747
3SE3 A G 122;3SE3 A T 123;30.1386
3SE3 A G 122;3SE3 A K 124;0.666464
3SE3 A G 122;3SE3 A S 126;0.0114524
3SE3 A G 122;3SE3 A W 129;3.47896
3SE3 A T 123;3SE3 A K 124;27.5206
3SE3 A T 123;3SE3 A D 125;0.983992
3SE3 A T 123;3SE3 A S 126;19.9154
3SE3 A T 123;3SE3 A W 129;1.16357
3SE3 A K 124;3SE3 A D 125;38.7667
3SE3 A K 124;3SE3 A S 126;2.44604
3SE3 A D 125;3SE3 A S 126;31.5731
3SE3 A D 125;3SE3 A V 127;8.57491
3SE3 A S 126;3SE3 A V 127;18.4631
3SE3 A S 126;3SE3 A M 128;5.92774
3SE3 A S 126;3SE3 A W 129;26.2088
3SE3 A S 126;3SE3 A A 130;12.0856
3SE3 A V 127;3SE3 A M 128;24.931
3SE3 A V 127;3SE3 A W 129;0.791708
3SE3 A V 127;3SE3 A A 130;13.7679
3SE3 A V 127;3SE3 B Q 124;0.730907
3SE3 A M 128;3SE3 A W 129;36.9313
3SE3 A M 128;3SE3 A A 130;3.05935
3SE3 A M 128;3SE3 A D 132;0.876153
3SE3 A W 129;3SE3 A A 130;25.3806
3SE3 A W 129;3SE3 A L 131;1.72376
3SE3 A W 129;3SE3 A D 132;22.5379
3SE3 A W 129;3SE3 A G 133;10.8017
3SE3 A W 129;3SE3 A F 136;17.9351
3SE3 A W 129;3SE3 A L 179;9.87189
3SE3 A W 129;3SE3 A K 184;0.731758
3SE3 A A 130;3SE3 A L 131;36.0606
3SE3 A A 130;3SE3 A D 132;0.388024
3SE3 A A 130;3SE3 A G 133;7.57578
3SE3 A A 130;3SE3 B Q 124;3.57571
3SE3 A L 131;3SE3 A D 132;20.5162
3SE3 A L 131;3SE3 A G 133;5.40393
3SE3 A L 131;3SE3 A L 134;5.3897
3SE3 A L 131;3SE3 A S 135;0.649851
3SE3 A L 131;3SE3 B S 61;0.480982
3SE3 A L 131;3SE3 B Q 62;25.3481
3SE3 A L 131;3SE3 B N 65;25.2436
3SE3 A L 131;3SE3 B L 66;19.8693
3SE3 A L 131;3SE3 B T 69;4.68044
3SE3 A L 131;3SE3 B R 120;1.58828
3SE3 A L 131;3SE3 B F 123;19.2267
3SE3 A L 131;3SE3 B Q 124;2.38929
3SE3 A L 131;3SE3 B T 127;17.6026
3SE3 A D 132;3SE3 A G 133;17.7266
3SE3 A D 132;3SE3 A L 134;1.01331
3SE3 A D 132;3SE3 A S 135;14.6192
3SE3 A D 132;3SE3 A F 136;4.33512
3SE3 A D 132;3SE3 A L 179;25.4728
3SE3 A D 132;3SE3 A T 181;6.9494
3SE3 A D 132;3SE3 B N 58;5.34961
3SE3 A D 132;3SE3 B S 61;5.05181
3SE3 A D 132;3SE3 B Q 62;21.6498
3SE3 A D 132;3SE3 B R 120;2.9911
3SE3 A G 133;3SE3 A L 134;23.4309
3SE3 A G 133;3SE3 A S 135;2.86208
3SE3 A G 133;3SE3 A F 136;27.6972
3SE3 A G 133;3SE3 A Y 138;0.229592
3SE3 A G 133;3SE3 A P 243;4.65511
3SE3 A L 134;3SE3 A S 135;20.2245
3SE3 A L 134;3SE3 A F 136;4.70944
3SE3 A L 134;3SE3 A R 241;26.7281
3SE3 A L 134;3SE3 A N 242;16.7041
3SE3 A L 134;3SE3 A P 243;12.0612
3SE3 A L 134;3SE3 B S 61;0.0842032
3SE3 A L 134;3SE3 B F 64;21.8891
3SE3 A L 134;3SE3 B N 65;21.9708
3SE3 A L 134;3SE3 B S 68;14.7434
3SE3 A S 135;3SE3 A F 136;19.6447
3SE3 A S 135;3SE3 A T 137;5.57834
3SE3 A S 135;3SE3 A L 179;12.992
3SE3 A S 135;3SE3 A L 180;2.22226
3SE3 A S 135;3SE3 A T 181;3.97062
3SE3 A S 135;3SE3 A R 241;11.0745
3SE3 A S 135;3SE3 B Y 57;13.952
3SE3 A S 135;3SE3 B S 61;22.0062
3SE3 A S 135;3SE3 B F 64;0.253345
3SE3 A S 135;3SE3 B N 65;2.55562
3SE3 A S 135;3SE3 B L 92;4.10477
3SE3 A F 136;3SE3 A T 137;22.6968
3SE3 A F 136;3SE3 A Y 138;30.4722
3SE3 A F 136;3SE3 A I 156;0.822671
3SE3 A F 136;3SE3 A Y 157;5.13828
3SE3 A F 136;3SE3 A S 158;4.90422
3SE3 A F 136;3SE3 A A 177;10.3262
3SE3 A F 136;3SE3 A A 178;8.85875
3SE3 A F 136;3SE3 A L 179;20.9305
3SE3 A F 136;3SE3 A R 241;10.3428
3SE3 A T 137;3SE3 A Y 138;25.3476
3SE3 A T 137;3SE3 A S 139;0.878624
3SE3 A T 137;3SE3 A N 155;27.2002
3SE3 A T 137;3SE3 A I 156;8.69
3SE3 A T 137;3SE3 A Y 157;2.42387
3SE3 A T 137;3SE3 A A 177;1.73097
3SE3 A T 137;3SE3 A A 178;28.9596
3SE3 A T 137;3SE3 A L 179;1.76092
3SE3 A T 137;3SE3 A L 180;17.6029
3SE3 A T 137;3SE3 A R 241;5.36829
3SE3 A T 137;3SE3 B Y 57;5.30916
3SE3 A T 137;3SE3 B E 96;4.91483
3SE3 A Y 138;3SE3 A S 139;21.0584
3SE3 A Y 138;3SE3 A E 154;0.0917734
3SE3 A Y 138;3SE3 A N 155;4.4656
3SE3 A Y 138;3SE3 A I 156;28.6752
3SE3 A Y 138;3SE3 A Y 157;3.61516
3SE3 A Y 138;3SE3 A S 158;16.7767
3SE3 A Y 138;3SE3 A V 175;8.72602
3SE3 A Y 138;3SE3 A K 176;5.40341
3SE3 A Y 138;3SE3 A A 177;15.3991
3SE3 A Y 138;3SE3 A A 178;2.04096
3SE3 A Y 138;3SE3 A P 243;3.37146
3SE3 A S 139;3SE3 A L 140;23.2415
3SE3 A S 139;3SE3 A I 153;3.76072
3SE3 A S 139;3SE3 A E 154;21.4029
3SE3 A S 139;3SE3 A N 155;5.48243
3SE3 A S 139;3SE3 A I 156;4.23424
3SE3 A S 139;3SE3 A V 175;5.71717
3SE3 A S 139;3SE3 A K 176;33.6395
3SE3 A S 139;3SE3 A A 177;0.125941
3SE3 A S 139;3SE3 A A 178;10.2308
3SE3 A S 139;3SE3 A I 185;0.220497
3SE3 A S 139;3SE3 A Y 188;3.80502
3SE3 A L 140;3SE3 A V 141;28.6188
3SE3 A L 140;3SE3 A I 142;11.4462
3SE3 A L 140;3SE3 A E 151;0.935138
3SE3 A L 140;3SE3 A R 152;4.64882
3SE3 A L 140;3SE3 A I 153;34.1897
3SE3 A L 140;3SE3 A E 154;0.264007
3SE3 A L 140;3SE3 A I 156;19.8112
3SE3 A L 140;3SE3 A H 160;1.3763
3SE3 A L 140;3SE3 A I 162;9.06935
3SE3 A L 140;3SE3 A L 173;9.3625
3SE3 A L 140;3SE3 A K 174;7.6383
3SE3 A L 140;3SE3 A V 175;19.8475
3SE3 A L 140;3SE3 A Y 188;5.34092
3SE3 A V 141;3SE3 A I 142;17.7398
3SE3 A V 141;3SE3 A W 143;17.8933
3SE3 A V 141;3SE3 A E 150;24.8243
3SE3 A V 141;3SE3 A E 151;4.56384
3SE3 A V 141;3SE3 A R 152;28.2287
3SE3 A V 141;3SE3 A L 173;6.13029
3SE3 A V 141;3SE3 A K 174;18.1776
3SE3 A V 141;3SE3 A Y 188;13.1097
3SE3 A I 142;3SE3 A W 143;29.0032
3SE3 A I 142;3SE3 A V 149;1.10453
3SE3 A I 142;3SE3 A E 150;4.85329
3SE3 A I 142;3SE3 A E 151;26.7558
3SE3 A I 142;3SE3 A I 153;7.67875
3SE3 A I 142;3SE3 A I 162;22.0587
3SE3 A I 142;3SE3 A L 165;4.97036
3SE3 A I 142;3SE3 A Y 171;19.2933
3SE3 A I 142;3SE3 A C 172;8.4962
3SE3 A I 142;3SE3 A L 173;20.9497
3SE3 A W 143;3SE3 A K 144;28.3466
3SE3 A W 143;3SE3 A N 145;7.85493
3SE3 A W 143;3SE3 A G 148;18.0118
3SE3 A W 143;3SE3 A V 149;11.6092
3SE3 A W 143;3SE3 A E 150;13.8723
3SE3 A W 143;3SE3 A Y 171;9.33548
3SE3 A W 143;3SE3 A C 172;33.1271
3SE3 A W 143;3SE3 A L 173;8.00136
3SE3 A W 143;3SE3 A K 174;10.2567
3SE3 A W 143;3SE3 A V 191;17.6736
3SE3 A K 144;3SE3 A N 145;22.7414
3SE3 A K 144;3SE3 A S 146;2.536
3SE3 A K 144;3SE3 A S 147;15.8744
3SE3 A K 144;3SE3 A G 148;9.30141
3SE3 A K 144;3SE3 A V 149;16.4352
3SE3 A K 144;3SE3 A T 169;1.34221
3SE3 A K 144;3SE3 A T 170;4.15946
3SE3 A K 144;3SE3 A Y 171;17.9164
3SE3 A K 144;3SE3 A C 172;0.0010823
3SE3 A N 145;3SE3 A S 146;36.5561
3SE3 A N 145;3SE3 A S 147;0.0196937
3SE3 A N 145;3SE3 A G 148;2.85694
3SE3 A N 145;3SE3 A T 170;37.0034
3SE3 A N 145;3SE3 A Y 171;1.48264
3SE3 A N 145;3SE3 A C 172;18.4752
3SE3 A N 145;3SE3 A C 193;2.76094
3SE3 A S 146;3SE3 A S 147;32.3077
3SE3 A S 146;3SE3 A G 148;5.26887
3SE3 A S 147;3SE3 A G 148;22.4159
3SE3 A S 147;3SE3 A V 149;20.9554
3SE3 A G 148;3SE3 A V 149;18.4016
3SE3 A G 148;3SE3 A E 150;11.8462
3SE3 A V 149;3SE3 A E 150;22.4614
3SE3 A V 149;3SE3 A E 151;10.3517
3SE3 A E 150;3SE3 A E 151;20.2539
3SE3 A E 150;3SE3 A R 152;11.6066
3SE3 A E 151;3SE3 A R 152;26.2503
3SE3 A E 151;3SE3 A I 153;25.7383
3SE3 A E 151;3SE3 A I 162;2.25583
3SE3 A E 151;3SE3 A L 165;0.570109
3SE3 A R 152;3SE3 A I 153;27.2752
3SE3 A R 152;3SE3 A E 154;38.1508
3SE3 A R 152;3SE3 A K 176;7.81095
3SE3 A R 152;3SE3 A Y 188;6.42602
3SE3 A I 153;3SE3 A E 154;30.1617
3SE3 A I 153;3SE3 A I 156;16.6504
3SE3 A I 153;3SE3 A H 160;10.3676
3SE3 A I 153;3SE3 A I 162;17.3224
3SE3 A E 154;3SE3 A N 155;32.4773
3SE3 A E 154;3SE3 A I 156;5.45944
3SE3 A N 155;3SE3 A I 156;24.3537
3SE3 A N 155;3SE3 A Y 157;17.3809
3SE3 A N 155;3SE3 B E 96;23.8721
3SE3 A I 156;3SE3 A Y 157;37.2156
3SE3 A I 156;3SE3 A H 160;27.2133
3SE3 A I 156;3SE3 A V 175;2.23663
3SE3 A Y 157;3SE3 A S 158;20.7589
3SE3 A Y 157;3SE3 A R 159;12.5351
3SE3 A Y 157;3SE3 A H 160;10.2581
3SE3 A Y 157;3SE3 A K 240;13.6681
3SE3 A Y 157;3SE3 A R 241;32.9089
3SE3 A Y 157;3SE3 B Y 89;19.6342
3SE3 A Y 157;3SE3 B N 93;10.517
3SE3 A Y 157;3SE3 B E 96;16.7473
3SE3 A S 158;3SE3 A R 159;20.5298
3SE3 A S 158;3SE3 A K 240;4.55729
3SE3 A S 158;3SE3 A R 241;13.398
3SE3 A S 158;3SE3 A N 242;0.201695
3SE3 A S 158;3SE3 A P 243;20.1659
3SE3 A R 159;3SE3 A H 160;24.4269
3SE3 A R 159;3SE3 A L 239;7.68224
3SE3 A R 159;3SE3 A K 240;35.7595
3SE3 A R 159;3SE3 A N 242;12.4044
3SE3 A R 159;3SE3 A P 243;28.3324
3SE3 A R 159;3SE3 A G 244;0.344647
3SE3 A R 159;3SE3 A N 245;6.42687
3SE3 A R 159;3SE3 A Y 248;34.935
3SE3 A H 160;3SE3 A K 161;40.7436
3SE3 A H 160;3SE3 A I 162;9.54222
3SE3 A H 160;3SE3 A K 240;9.90865
3SE3 A K 161;3SE3 A I 162;24.936
3SE3 A K 161;3SE3 A Y 163;42.2332
3SE3 A K 161;3SE3 A K 240;8.41536
3SE3 A K 161;3SE3 A W 291;16.878
3SE3 A K 161;3SE3 A S 292;0.514104
3SE3 A K 161;3SE3 A E 294;6.28007
3SE3 A I 162;3SE3 A Y 163;29.3259
3SE3 A I 162;3SE3 A L 165;19.6617
3SE3 A I 162;3SE3 A L 173;2.95836
3SE3 A Y 163;3SE3 A K 164;33.6499
3SE3 A Y 163;3SE3 A L 165;10.5017
3SE3 A Y 163;3SE3 A W 291;4.84936
3SE3 A Y 163;3SE3 A S 292;7.50657
3SE3 A Y 163;3SE3 A E 293;44.4225
3SE3 A Y 163;3SE3 A E 294;17.149
3SE3 A K 164;3SE3 A L 165;32.7868
3SE3 A L 165;3SE3 A S 166;25.5492
3SE3 A L 165;3SE3 A P 167;4.92843
3SE3 A L 165;3SE3 A Y 171;28.198
3SE3 A L 165;3SE3 A T 196;8.40396
3SE3 A S 166;3SE3 A P 167;30.1752
3SE3 A S 166;3SE3 A T 169;13.513
3SE3 A S 166;3SE3 A Y 171;16.3503
3SE3 A S 166;3SE3 A T 196;6.39439
3SE3 A P 167;3SE3 A E 168;24.621
3SE3 A P 167;3SE3 A T 169;9.65376
3SE3 A P 167;3SE3 A T 196;4.92962
3SE3 A P 167;3SE3 A T 197;5.9341
3SE3 A P 167;3SE3 A V 198;4.53284
3SE3 A P 167;3SE3 A E 199;25.7652
3SE3 A E 168;3SE3 A T 169;20.4211
3SE3 A E 168;3SE3 A T 170;1.07522
3SE3 A E 168;3SE3 A K 195;8.44923
3SE3 A E 168;3SE3 A T 196;12.7021
3SE3 A E 168;3SE3 A T 197;5.58543
3SE3 A E 168;3SE3 A V 198;10.8957
3SE3 A T 169;3SE3 A T 170;23.4538
3SE3 A T 169;3SE3 A Y 171;21.9928
3SE3 A T 169;3SE3 A I 194;1.46356
3SE3 A T 169;3SE3 A K 195;7.15797
3SE3 A T 169;3SE3 A T 196;14.9855
3SE3 A T 170;3SE3 A Y 171;22.4294
3SE3 A T 170;3SE3 A C 172;2.97254
3SE3 A T 170;3SE3 A C 193;10.3455
3SE3 A T 170;3SE3 A I 194;10.3386
3SE3 A T 170;3SE3 A K 195;18.8338
3SE3 A Y 171;3SE3 A C 172;20.3295
3SE3 A Y 171;3SE3 A L 173;3.06549
3SE3 A Y 171;3SE3 A H 192;0.888842
3SE3 A Y 171;3SE3 A C 193;6.9097
3SE3 A Y 171;3SE3 A I 194;16.4977
3SE3 A Y 171;3SE3 A T 196;10.5132
3SE3 A C 172;3SE3 A L 173;19.9539
3SE3 A C 172;3SE3 A V 191;7.00295
3SE3 A C 172;3SE3 A H 192;4.33973
3SE3 A C 172;3SE3 A C 193;20.9815
3SE3 A L 173;3SE3 A K 174;22.8071
3SE3 A L 173;3SE3 A V 175;11.6306
3SE3 A L 173;3SE3 A S 189;0.386132
3SE3 A L 173;3SE3 A P 190;1.1507
3SE3 A L 173;3SE3 A V 191;13.1595
3SE3 A L 173;3SE3 A H 192;25.1102
3SE3 A L 173;3SE3 A I 194;0.16286
3SE3 A K 174;3SE3 A V 175;19.2058
3SE3 A K 174;3SE3 A Y 188;45.7402
3SE3 A K 174;3SE3 A S 189;13.7678
3SE3 A K 174;3SE3 A P 190;4.54732
3SE3 A K 174;3SE3 A V 191;20.3407
3SE3 A K 174;3SE3 A H 192;0.0165753
3SE3 A V 175;3SE3 A K 176;19.9229
3SE3 A V 175;3SE3 A V 187;0.0095141
3SE3 A V 175;3SE3 A Y 188;10.3436
3SE3 A V 175;3SE3 A S 189;17.6293
3SE3 A K 176;3SE3 A A 177;24.1955
3SE3 A K 176;3SE3 A A 178;0.667461
3SE3 A K 176;3SE3 A I 185;18.9532
3SE3 A K 176;3SE3 A G 186;14.4098
3SE3 A K 176;3SE3 A V 187;5.96558
3SE3 A K 176;3SE3 A Y 188;46.1711
3SE3 A A 177;3SE3 A A 178;20.6967
3SE3 A A 177;3SE3 A I 185;3.6295
3SE3 A A 177;3SE3 A G 186;12.6267
3SE3 A A 177;3SE3 A V 187;2.26966
3SE3 A A 178;3SE3 A L 179;22.7262
3SE3 A A 178;3SE3 A L 180;1.74184
3SE3 A A 178;3SE3 A K 184;0.169164
3SE3 A A 178;3SE3 A I 185;20.5019
3SE3 A A 178;3SE3 A G 186;0.149787
3SE3 A L 179;3SE3 A L 180;24.2581
3SE3 A L 179;3SE3 A T 181;19.8487
3SE3 A L 179;3SE3 A S 182;19.645
3SE3 A L 179;3SE3 A W 183;2.1298
3SE3 A L 179;3SE3 A K 184;19.3049
3SE3 A L 179;3SE3 A I 185;2.64887
3SE3 A L 180;3SE3 A T 181;25.4528
3SE3 A L 180;3SE3 A S 182;2.29429
3SE3 A L 180;3SE3 A W 183;3.49009
3SE3 A L 180;3SE3 B Y 57;19.6465
3SE3 A L 180;3SE3 B E 96;9.20693
3SE3 A L 180;3SE3 B V 99;2.68098
3SE3 A T 181;3SE3 A S 182;28.1415
3SE3 A T 181;3SE3 A W 183;2.41391
3SE3 A T 181;3SE3 B P 54;6.80601
3SE3 A T 181;3SE3 B Y 57;20.5694
3SE3 A T 181;3SE3 B N 58;26.1557
3SE3 A T 181;3SE3 B S 61;5.73682
3SE3 A T 181;3SE3 B I 116;2.54647
3SE3 A S 182;3SE3 A W 183;24.874
3SE3 A S 182;3SE3 A K 184;22.4537
3SE3 A S 182;3SE3 B N 58;3.69181
3SE3 A S 182;3SE3 B I 116;15.3496
3SE3 A W 183;3SE3 A K 184;22.5549
3SE3 A W 183;3SE3 A I 185;18.9501
3SE3 A K 184;3SE3 A I 185;27.38
3SE3 A I 185;3SE3 A G 186;27.1696
3SE3 A G 186;3SE3 A V 187;25.6226
3SE3 A G 186;3SE3 A Y 188;1.68233
3SE3 A V 187;3SE3 A Y 188;27.9567
3SE3 A V 187;3SE3 A S 189;0.189827
3SE3 A Y 188;3SE3 A S 189;26.6488
3SE3 A Y 188;3SE3 A P 190;2.42496
3SE3 A S 189;3SE3 A P 190;36.8731
3SE3 A S 189;3SE3 A V 191;0.711689
3SE3 A S 189;3SE3 A H 192;5.53212
3SE3 A P 190;3SE3 A V 191;29.2623
3SE3 A P 190;3SE3 A H 192;25.6303
3SE3 A V 191;3SE3 A H 192;28.728
3SE3 A V 191;3SE3 A C 193;9.47948
3SE3 A H 192;3SE3 A C 193;29.4409
3SE3 A C 193;3SE3 A I 194;28.5732
3SE3 A I 194;3SE3 A K 195;31.2712
3SE3 A I 194;3SE3 A T 196;3.29731
3SE3 A K 195;3SE3 A T 196;24.3647
3SE3 A K 195;3SE3 A T 197;5.21045
3SE3 A T 196;3SE3 A T 197;21.9427
3SE3 A T 197;3SE3 A V 198;36.31
3SE3 A T 197;3SE3 A F 290;12.0504
3SE3 A V 198;3SE3 A E 199;37.4132
3SE3 A V 198;3SE3 A N 200;2.29846
3SE3 A V 198;3SE3 A F 290;2.32452
3SE3 A E 199;3SE3 A N 200;35.0496
3SE3 A E 199;3SE3 A E 201;8.22789
3SE3 A E 199;3SE3 A P 203;4.85071
3SE3 A N 200;3SE3 A E 201;28.3338
3SE3 A N 200;3SE3 A L 202;11.5369
3SE3 A N 200;3SE3 A P 203;11.335
3SE3 A N 200;3SE3 A P 204;4.00442
3SE3 A N 200;3SE3 A T 288;0.0783562
3SE3 A N 200;3SE3 A S 289;0.981179
3SE3 A N 200;3SE3 A F 290;26.7514
3SE3 A E 201;3SE3 A L 202;27.1724
3SE3 A E 201;3SE3 A P 203;8.75559
3SE3 A E 201;3SE3 A Y 225;8.9944
3SE3 A E 201;3SE3 A N 287;12.8631
3SE3 A E 201;3SE3 A T 288;0.827051
3SE3 A L 202;3SE3 A P 203;28.0596
3SE3 A L 202;3SE3 A P 204;0.352673
3SE3 A L 202;3SE3 A Y 225;4.49587
3SE3 A L 202;3SE3 A M 228;13.8276
3SE3 A L 202;3SE3 A A 282;6.77291
3SE3 A L 202;3SE3 A S 283;1.99742
3SE3 A L 202;3SE3 A D 284;2.57159
3SE3 A L 202;3SE3 A N 287;7.45306
3SE3 A L 202;3SE3 A T 288;7.40969
3SE3 A L 202;3SE3 A S 289;18.7592
3SE3 A L 202;3SE3 A F 290;1.96429
3SE3 A P 203;3SE3 A P 204;40.5645
3SE3 A P 203;3SE3 A P 205;1.35278
3SE3 A P 203;3SE3 A E 206;4.76322
3SE3 A P 203;3SE3 A Y 223;0.00321588
3SE3 A P 203;3SE3 A T 224;13.5471
3SE3 A P 203;3SE3 A Y 225;20.9468
3SE3 A P 203;3SE3 A A 282;7.11277
3SE3 A P 203;3SE3 A S 289;5.45609
3SE3 A P 204;3SE3 A P 205;30.4297
3SE3 A P 204;3SE3 A E 206;23.4724
3SE3 A P 204;3SE3 A D 222;2.67831
3SE3 A P 204;3SE3 A Y 223;2.52098
3SE3 A P 204;3SE3 A T 224;1.97715
3SE3 A P 204;3SE3 A S 289;2.45355
3SE3 A P 204;3SE3 A F 290;14.7011
3SE3 A P 204;3SE3 A W 291;9.84361
3SE3 A P 204;3SE3 A S 292;7.52964
3SE3 A P 204;3SE3 A E 293;0.175124
3SE3 A P 205;3SE3 A E 206;23.4058
3SE3 A P 205;3SE3 A W 221;16.928
3SE3 A P 205;3SE3 A D 222;5.73178
3SE3 A P 205;3SE3 A Y 223;8.68707
3SE3 A P 205;3SE3 A F 230;6.32351
3SE3 A P 205;3SE3 A V 280;16.9861
3SE3 A P 205;3SE3 A Q 281;5.61251
3SE3 A P 205;3SE3 A A 282;12.8206
3SE3 A P 205;3SE3 A S 289;2.03702
3SE3 A P 205;3SE3 A F 290;2.64479
3SE3 A P 205;3SE3 A S 292;19.8557
3SE3 A P 205;3SE3 A E 293;0.921027
3SE3 A E 206;3SE3 A N 207;38.4407
3SE3 A E 206;3SE3 A I 208;8.53181
3SE3 A E 206;3SE3 A W 221;3.90857
3SE3 A E 206;3SE3 A D 222;17.1901
3SE3 A E 206;3SE3 A T 224;10.8525
3SE3 A E 206;3SE3 A S 292;4.3125
3SE3 A E 206;3SE3 A E 293;11.923
3SE3 A N 207;3SE3 A I 208;23.4265
3SE3 A N 207;3SE3 A E 209;13.8564
3SE3 A N 207;3SE3 A K 220;5.18673
3SE3 A N 207;3SE3 A W 221;8.63457
3SE3 A N 207;3SE3 A D 222;28.2036
3SE3 A I 208;3SE3 A E 209;34.5506
3SE3 A I 208;3SE3 A V 210;2.71055
3SE3 A I 208;3SE3 A L 219;1.22434
3SE3 A I 208;3SE3 A K 220;4.88553
3SE3 A I 208;3SE3 A W 221;8.10313
3SE3 A I 208;3SE3 A L 278;1.49955
3SE3 A I 208;3SE3 A V 280;10.9329
3SE3 A I 208;3SE3 A S 292;5.97936
3SE3 A I 208;3SE3 A E 293;6.39514
3SE3 A I 208;3SE3 A I 295;29.2994
3SE3 A E 209;3SE3 A V 210;32.5675
3SE3 A E 209;3SE3 A S 211;0.232029
3SE3 A E 209;3SE3 A V 218;0.377069
3SE3 A E 209;3SE3 A L 219;11.2022
3SE3 A E 209;3SE3 A K 220;17.3657
3SE3 A E 209;3SE3 A I 295;0.881857
3SE3 A V 210;3SE3 A S 211;38.0341
3SE3 A V 210;3SE3 A Y 217;9.01488
3SE3 A V 210;3SE3 A V 218;7.92916
3SE3 A V 210;3SE3 A L 219;18.6419
3SE3 A V 210;3SE3 A L 278;17.2847
3SE3 A V 210;3SE3 A I 295;10.3698
3SE3 A V 210;3SE3 A F 297;10.225
3SE3 A S 211;3SE3 A V 212;35.7754
3SE3 A S 211;3SE3 A Q 213;0.579276
3SE3 A S 211;3SE3 A Y 217;7.09837
3SE3 A S 211;3SE3 A V 218;28.881
3SE3 A V 212;3SE3 A Q 213;32.9949
3SE3 A V 212;3SE3 A N 214;11.8937
3SE3 A V 212;3SE3 A Q 215;7.83542
3SE3 A V 212;3SE3 A N 216;7.55928
3SE3 A V 212;3SE3 A Y 217;22.4191
3SE3 A V 212;3SE3 A V 218;0.140685
3SE3 A V 212;3SE3 A I 301;12.0859
3SE3 A Q 213;3SE3 A N 214;32.8366
3SE3 A Q 213;3SE3 A Q 215;1.73133
3SE3 A Q 213;3SE3 A N 216;18.536
3SE3 A Q 213;3SE3 A Y 217;0.411513
3SE3 A Q 213;3SE3 A V 218;4.61766
3SE3 A N 214;3SE3 A Q 215;30.6157
3SE3 A N 214;3SE3 A N 216;1.06825
3SE3 A Q 215;3SE3 A N 216;24.9243
3SE3 A Q 215;3SE3 A Y 217;3.90849
3SE3 A Q 215;3SE3 A P 267;1.55194
3SE3 A Q 215;3SE3 A Q 268;25.4265
3SE3 A N 216;3SE3 A Y 217;26.1174
3SE3 A N 216;3SE3 A V 265;8.1448
3SE3 A N 216;3SE3 A F 266;4.51303
3SE3 A N 216;3SE3 A P 267;18.8532
3SE3 A N 216;3SE3 A Q 268;2.35525
3SE3 A Y 217;3SE3 A V 218;26.4245
3SE3 A Y 217;3SE3 A C 264;0.0390741
3SE3 A Y 217;3SE3 A V 265;10.0082
3SE3 A Y 217;3SE3 A F 266;23.4447
3SE3 A Y 217;3SE3 A P 267;8.2572
3SE3 A Y 217;3SE3 A Q 268;28.1195
3SE3 A Y 217;3SE3 A V 270;4.22376
3SE3 A Y 217;3SE3 A F 271;13.7573
3SE3 A Y 217;3SE3 A T 299;10.1419
3SE3 A V 218;3SE3 A L 219;26.9794
3SE3 A V 218;3SE3 A Q 263;5.29074
3SE3 A V 218;3SE3 A C 264;6.87252
3SE3 A V 218;3SE3 A V 265;18.1562
3SE3 A L 219;3SE3 A K 220;22.6766
3SE3 A L 219;3SE3 A W 221;9.76832
3SE3 A L 219;3SE3 A Q 263;10.1878
3SE3 A L 219;3SE3 A C 264;13.8577
3SE3 A K 220;3SE3 A W 221;29.9784
3SE3 A K 220;3SE3 A D 222;0.329848
3SE3 A K 220;3SE3 A T 262;9.54866
3SE3 A K 220;3SE3 A Q 263;13.5581
3SE3 A W 221;3SE3 A D 222;31.7767
3SE3 A W 221;3SE3 A Y 223;8.77712
3SE3 A W 221;3SE3 A F 230;24.7131
3SE3 A W 221;3SE3 A V 232;9.6969
3SE3 A W 221;3SE3 A V 259;7.0069
3SE3 A W 221;3SE3 A T 261;5.07135
3SE3 A W 221;3SE3 A T 262;34.8578
3SE3 A W 221;3SE3 A Q 263;8.4987
3SE3 A W 221;3SE3 A C 264;9.60605
3SE3 A W 221;3SE3 A V 280;24.7579
3SE3 A W 221;3SE3 A S 292;0.0340363
3SE3 A D 222;3SE3 A Y 223;24.099
3SE3 A D 222;3SE3 A T 224;13.4896
3SE3 A D 222;3SE3 A T 262;1.00477
3SE3 A Y 223;3SE3 A T 224;28.499
3SE3 A Y 223;3SE3 A Y 225;15.6303
3SE3 A Y 223;3SE3 A M 228;6.08409
3SE3 A Y 223;3SE3 A F 230;13.6646
3SE3 A Y 223;3SE3 A T 262;15.5523
3SE3 A Y 223;3SE3 A A 282;5.7803
3SE3 A T 224;3SE3 A Y 225;45.7161
3SE3 A T 224;3SE3 A A 226;0.389614
3SE3 A Y 225;3SE3 A A 226;35.5816
3SE3 A Y 225;3SE3 A N 227;0.765918
3SE3 A Y 225;3SE3 A M 228;34.7964
3SE3 A Y 225;3SE3 A F 230;1.13818
3SE3 A Y 225;3SE3 A T 262;1.20445
3SE3 A A 226;3SE3 A N 227;37.1423
3SE3 A A 226;3SE3 A M 228;7.61647
3SE3 A N 227;3SE3 A M 228;34.6145
3SE3 A N 227;3SE3 A T 229;1.32994
3SE3 A N 227;3SE3 A K 260;2.24134
3SE3 A N 227;3SE3 A S 283;0.28014
3SE3 A N 227;3SE3 A D 284;6.12069
3SE3 A M 228;3SE3 A T 229;25.2801
3SE3 A M 228;3SE3 A F 230;22.1954
3SE3 A M 228;3SE3 A V 259;0.601758
3SE3 A M 228;3SE3 A K 260;11.248
3SE3 A M 228;3SE3 A A 282;11.7272
3SE3 A M 228;3SE3 A S 283;13.4324
3SE3 A M 228;3SE3 A D 284;22.8879
3SE3 A T 229;3SE3 A F 230;26.4958
3SE3 A T 229;3SE3 A N 258;26.5423
3SE3 A T 229;3SE3 A V 259;8.70374
3SE3 A T 229;3SE3 A K 260;9.45369
3SE3 A T 229;3SE3 A Q 281;1.64363
3SE3 A T 229;3SE3 A A 282;3.82306
3SE3 A T 229;3SE3 A S 283;29.4183
3SE3 A T 229;3SE3 A G 285;1.07218
3SE3 A F 230;3SE3 A Q 231;19.5201
3SE3 A F 230;3SE3 A V 232;9.23459
3SE3 A F 230;3SE3 A C 256;4.98504
3SE3 A F 230;3SE3 A N 258;8.96593
3SE3 A F 230;3SE3 A V 259;21.1792
3SE3 A F 230;3SE3 A K 260;1.03525
3SE3 A F 230;3SE3 A T 261;12.2551
3SE3 A F 230;3SE3 A T 262;9.95148
3SE3 A F 230;3SE3 A V 280;8.37276
3SE3 A F 230;3SE3 A Q 281;11.3554
3SE3 A F 230;3SE3 A A 282;9.25452
3SE3 A Q 231;3SE3 A V 232;20.0652
3SE3 A Q 231;3SE3 A Q 233;1.14
3SE3 A Q 231;3SE3 A Q 252;20.4197
3SE3 A Q 231;3SE3 A C 256;0.631184
3SE3 A Q 231;3SE3 A E 257;1.10635
3SE3 A Q 231;3SE3 A N 258;18.9054
3SE3 A Q 231;3SE3 A V 280;1.47116
3SE3 A Q 231;3SE3 A Q 281;27.4946
3SE3 A Q 231;3SE3 A W 291;11.6228
3SE3 A V 232;3SE3 A Q 233;24.1746
3SE3 A V 232;3SE3 A Q 252;11.5841
3SE3 A V 232;3SE3 A I 253;27.4767
3SE3 A V 232;3SE3 A C 256;17.2504
3SE3 A V 232;3SE3 A E 257;1.15954
3SE3 A V 232;3SE3 A V 259;1.63925
3SE3 A V 232;3SE3 A C 264;7.03337
3SE3 A V 232;3SE3 A L 278;4.03908
3SE3 A V 232;3SE3 A R 279;8.00445
3SE3 A V 232;3SE3 A V 280;20.0961
3SE3 A V 232;3SE3 A W 291;0.44359
3SE3 A Q 233;3SE3 A W 234;16.6025
3SE3 A Q 233;3SE3 A W 250;24.3768
3SE3 A Q 233;3SE3 A K 251;6.56327
3SE3 A Q 233;3SE3 A Q 252;27.8216
3SE3 A Q 233;3SE3 A I 253;5.46441
3SE3 A Q 233;3SE3 A L 278;7.18382
3SE3 A Q 233;3SE3 A R 279;32.2977
3SE3 A Q 233;3SE3 A W 291;24.7169
3SE3 A W 234;3SE3 A L 235;26.4152
3SE3 A W 234;3SE3 A H 236;24.7976
3SE3 A W 234;3SE3 A K 249;0.751642
3SE3 A W 234;3SE3 A W 250;14.1902
3SE3 A W 234;3SE3 A K 251;42.7709
3SE3 A W 234;3SE3 A Q 252;7.31845
3SE3 A W 234;3SE3 A I 253;16.9705
3SE3 A W 234;3SE3 A P 254;0.774232
3SE3 A W 234;3SE3 A F 271;29.583
3SE3 A W 234;3SE3 A Y 276;13.9305
3SE3 A W 234;3SE3 A L 277;4.80523
3SE3 A W 234;3SE3 A L 278;11.249
3SE3 A L 235;3SE3 A H 236;31.1636
3SE3 A L 235;3SE3 A A 237;0.771506
3SE3 A L 235;3SE3 A L 239;9.50207
3SE3 A L 235;3SE3 A K 240;12.0862
3SE3 A L 235;3SE3 A Y 248;19.4857
3SE3 A L 235;3SE3 A K 249;12.2662
3SE3 A L 235;3SE3 A W 250;31.3211
3SE3 A L 235;3SE3 A Y 276;5.83519
3SE3 A L 235;3SE3 A L 277;25.5412
3SE3 A H 236;3SE3 A A 237;18.9905
3SE3 A H 236;3SE3 A F 238;22.7633
3SE3 A H 236;3SE3 A L 239;16.9417
3SE3 A H 236;3SE3 A K 240;1.72425
3SE3 A H 236;3SE3 A I 275;6.64973
3SE3 A H 236;3SE3 A Y 276;26.797
3SE3 A H 236;3SE3 A L 277;1.29956
3SE3 A H 236;3SE3 B D 82;25.2206
3SE3 A H 236;3SE3 B T 86;3.25979
3SE3 A A 237;3SE3 A F 238;21.3452
3SE3 A A 237;3SE3 A L 239;2.39417
3SE3 A A 237;3SE3 A K 240;14.7174
3SE3 A A 237;3SE3 A R 241;0.186305
3SE3 A A 237;3SE3 A I 275;23.6927
3SE3 A A 237;3SE3 A Y 276;8.28031
3SE3 A A 237;3SE3 A L 277;18.0776
3SE3 A A 237;3SE3 A K 296;4.23627
3SE3 A A 237;3SE3 B Y 89;17.4532
3SE3 A F 238;3SE3 A L 239;29.7237
3SE3 A F 238;3SE3 A K 240;3.20788
3SE3 A F 238;3SE3 A R 241;13.0896
3SE3 A F 238;3SE3 A N 242;4.23342
3SE3 A F 238;3SE3 A I 275;4.4879
3SE3 A F 238;3SE3 B F 64;17.2397
3SE3 A F 238;3SE3 B D 82;18.161
3SE3 A F 238;3SE3 B Y 85;26.6443
3SE3 A F 238;3SE3 B T 86;20.3913
3SE3 A F 238;3SE3 B Y 89;26.8531
3SE3 A L 239;3SE3 A K 240;18.2823
3SE3 A L 239;3SE3 A R 241;1.94964
3SE3 A L 239;3SE3 A N 242;18.3886
3SE3 A L 239;3SE3 A Y 248;15.429
3SE3 A K 240;3SE3 A R 241;19.1706
3SE3 A K 240;3SE3 A N 242;3.74812
3SE3 A K 240;3SE3 A P 243;0.296644
3SE3 A K 240;3SE3 A Y 248;20.6731
3SE3 A K 240;3SE3 A W 250;3.30464
3SE3 A K 240;3SE3 A L 277;17.103
3SE3 A K 240;3SE3 A E 294;14.8945
3SE3 A R 241;3SE3 A N 242;16.5151
3SE3 A R 241;3SE3 A P 243;5.68275
3SE3 A R 241;3SE3 B Y 57;10.373
3SE3 A R 241;3SE3 B F 64;14.0157
3SE3 A R 241;3SE3 B Y 89;20.7489
3SE3 A R 241;3SE3 B L 92;22.2848
3SE3 A R 241;3SE3 B N 93;6.54128
3SE3 A R 241;3SE3 B E 96;11.3114
3SE3 A N 242;3SE3 A P 243;20.4533
3SE3 A N 242;3SE3 A G 244;13.1518
3SE3 A N 242;3SE3 A Y 248;0.710008
3SE3 A N 242;3SE3 B F 64;0.786734
3SE3 A N 242;3SE3 B S 68;1.0549
3SE3 A P 243;3SE3 A G 244;32.6352
3SE3 A P 243;3SE3 A N 245;4.03658
3SE3 A G 244;3SE3 A N 245;38.0376
3SE3 A G 244;3SE3 A Y 248;0.321621
3SE3 A N 245;3SE3 A Y 248;24.8533
3SE3 A N 245;3SE3 B K 70;24.1661
3SE3 A Y 248;3SE3 A K 249;36.8867
3SE3 A Y 248;3SE3 A W 250;23.8521
3SE3 A K 249;3SE3 A W 250;29.6194
3SE3 A K 249;3SE3 A K 251;9.26201
3SE3 A W 250;3SE3 A K 251;22.8934
3SE3 A W 250;3SE3 A Q 252;1.50594
3SE3 A W 250;3SE3 A L 277;12.4136
3SE3 A W 250;3SE3 A L 278;5.51132
3SE3 A W 250;3SE3 A R 279;46.7856
3SE3 A W 250;3SE3 A E 294;16.587
3SE3 A K 251;3SE3 A Q 252;26.2642
3SE3 A K 251;3SE3 A I 253;0.151872
3SE3 A Q 252;3SE3 A I 253;21.7594
3SE3 A Q 252;3SE3 A P 254;14.1606
3SE3 A Q 252;3SE3 A E 257;23.1566
3SE3 A Q 252;3SE3 A N 258;5.22959
3SE3 A Q 252;3SE3 A W 291;0.282205
3SE3 A I 253;3SE3 A P 254;26.862
3SE3 A I 253;3SE3 A D 255;7.54929
3SE3 A I 253;3SE3 A C 256;26.7169
3SE3 A I 253;3SE3 A E 257;5.36745
3SE3 A I 253;3SE3 A F 266;9.49917
3SE3 A I 253;3SE3 A V 270;1.81047
3SE3 A I 253;3SE3 A F 271;11.3398
3SE3 A I 253;3SE3 A L 278;9.75483
3SE3 A P 254;3SE3 A D 255;35.9478
3SE3 A P 254;3SE3 A C 256;2.21405
3SE3 A P 254;3SE3 A E 257;32.8422
3SE3 A D 255;3SE3 A C 256;19.9127
3SE3 A D 255;3SE3 A E 257;3.96505
3SE3 A D 255;3SE3 A V 259;10.349
3SE3 A D 255;3SE3 A C 264;3.81802
3SE3 A D 255;3SE3 A V 265;13.9019
3SE3 A D 255;3SE3 A F 266;16.4124
3SE3 A D 255;3SE3 A P 267;8.43215
3SE3 A D 255;3SE3 A V 270;1.02733
3SE3 A C 256;3SE3 A E 257;17.3618
3SE3 A C 256;3SE3 A N 258;2.52926
3SE3 A C 256;3SE3 A V 259;14.302
3SE3 A C 256;3SE3 A C 264;26.8738
3SE3 A C 256;3SE3 A V 265;5.37762
3SE3 A C 256;3SE3 A F 266;3.14264
3SE3 A E 257;3SE3 A N 258;29.8679
3SE3 A E 257;3SE3 A V 259;5.32559
3SE3 A N 258;3SE3 A V 259;22.1078
3SE3 A N 258;3SE3 A K 260;2.86605
3SE3 A V 259;3SE3 A K 260;23.9385
3SE3 A V 259;3SE3 A T 261;13.6638
3SE3 A V 259;3SE3 A Q 263;5.00787
3SE3 A V 259;3SE3 A C 264;18.5562
3SE3 A K 260;3SE3 A T 261;38.532
3SE3 A T 261;3SE3 A T 262;23.8079
3SE3 A T 261;3SE3 A Q 263;21.2326
3SE3 A T 262;3SE3 A Q 263;20.5025
3SE3 A Q 263;3SE3 A C 264;26.9701
3SE3 A Q 263;3SE3 A V 265;2.20041
3SE3 A C 264;3SE3 A V 265;31.7774
3SE3 A V 265;3SE3 A F 266;27.6034
3SE3 A V 265;3SE3 A P 267;0.0167829
3SE3 A F 266;3SE3 A P 267;29.7672
3SE3 A F 266;3SE3 A V 270;10.6971
3SE3 A P 267;3SE3 A Q 268;19.5475
3SE3 A P 267;3SE3 A N 269;9.39776
3SE3 A P 267;3SE3 A V 270;19.2464
3SE3 A Q 268;3SE3 A N 269;24.952
3SE3 A Q 268;3SE3 A V 270;4.28661
3SE3 A Q 268;3SE3 A F 271;12.6827
3SE3 A N 269;3SE3 A V 270;25.7985
3SE3 A N 269;3SE3 A F 271;7.51603
3SE3 A N 269;3SE3 A Q 272;6.29611
3SE3 A V 270;3SE3 A F 271;36.6835
3SE3 A V 270;3SE3 A Q 272;2.53193
3SE3 A F 271;3SE3 A Q 272;31.0776
3SE3 A F 271;3SE3 A K 273;2.28709
3SE3 A F 271;3SE3 A Y 276;35.5759
3SE3 A F 271;3SE3 A L 278;9.73872
3SE3 A F 271;3SE3 A T 299;9.88464
3SE3 A Q 272;3SE3 A K 273;42.8125
3SE3 A Q 272;3SE3 A G 274;1.12654
3SE3 A Q 272;3SE3 A Y 276;19.5191
3SE3 A Q 272;3SE3 A T 299;3.62949
3SE3 A Q 272;3SE3 B T 79;11.0295
3SE3 A Q 272;3SE3 B K 83;0.83295
3SE3 A K 273;3SE3 A G 274;26.849
3SE3 A K 273;3SE3 A Y 276;3.93422
3SE3 A K 273;3SE3 A D 298;0.233169
3SE3 A K 273;3SE3 A T 299;10.1117
3SE3 A K 273;3SE3 A E 300;20.0467
3SE3 A K 273;3SE3 B K 83;7.79125
3SE3 A K 273;3SE3 B T 86;0.0661438
3SE3 A G 274;3SE3 A I 275;21.1932
3SE3 A G 274;3SE3 A Y 276;13.5942
3SE3 A G 274;3SE3 A F 297;1.45045
3SE3 A G 274;3SE3 A D 298;12.5732
3SE3 A G 274;3SE3 A T 299;10.2466
3SE3 A G 274;3SE3 B T 86;15.7353
3SE3 A I 275;3SE3 A Y 276;26.5575
3SE3 A I 275;3SE3 A K 296;7.58665
3SE3 A I 275;3SE3 A F 297;11.8377
3SE3 A I 275;3SE3 A D 298;15.4584
3SE3 A I 275;3SE3 B T 86;28.2579
3SE3 A I 275;3SE3 B Y 89;12.9152
3SE3 A I 275;3SE3 B Q 90;24.4494
3SE3 A Y 276;3SE3 A L 277;19.1844
3SE3 A Y 276;3SE3 A L 278;10.8094
3SE3 A Y 276;3SE3 A I 295;0.491918
3SE3 A Y 276;3SE3 A K 296;9.3626
3SE3 A Y 276;3SE3 A F 297;14.719
3SE3 A Y 276;3SE3 A T 299;8.14595
3SE3 A L 277;3SE3 A L 278;22.4299
3SE3 A L 277;3SE3 A E 294;19.6824
3SE3 A L 277;3SE3 A I 295;13.4295
3SE3 A L 277;3SE3 A K 296;12.1335
3SE3 A L 278;3SE3 A R 279;23.2522
3SE3 A L 278;3SE3 A V 280;1.77293
3SE3 A L 278;3SE3 A E 293;2.36303
3SE3 A L 278;3SE3 A E 294;11.4286
3SE3 A L 278;3SE3 A I 295;30.1845
3SE3 A L 278;3SE3 A K 296;1.98492
3SE3 A L 278;3SE3 A F 297;8.09818
3SE3 A R 279;3SE3 A V 280;22.9462
3SE3 A R 279;3SE3 A W 291;46.747
3SE3 A R 279;3SE3 A S 292;11.0395
3SE3 A R 279;3SE3 A E 293;2.72275
3SE3 A R 279;3SE3 A E 294;15.4686
3SE3 A V 280;3SE3 A Q 281;21.8685
3SE3 A V 280;3SE3 A F 290;0.315703
3SE3 A V 280;3SE3 A W 291;12.89
3SE3 A V 280;3SE3 A S 292;25.3665
3SE3 A Q 281;3SE3 A A 282;22.0965
3SE3 A Q 281;3SE3 A S 283;3.81383
3SE3 A Q 281;3SE3 A T 288;13.3949
3SE3 A Q 281;3SE3 A S 289;18.0739
3SE3 A Q 281;3SE3 A F 290;5.64957
3SE3 A Q 281;3SE3 A W 291;38.0936
3SE3 A A 282;3SE3 A S 283;21.9387
3SE3 A A 282;3SE3 A T 288;1.426
3SE3 A A 282;3SE3 A S 289;23.8439
3SE3 A S 283;3SE3 A D 284;20.454
3SE3 A S 283;3SE3 A G 285;14.0649
3SE3 A S 283;3SE3 A N 287;1.28545
3SE3 A S 283;3SE3 A T 288;21.1509
3SE3 A S 283;3SE3 A S 289;0.206078
3SE3 A D 284;3SE3 A G 285;24.416
3SE3 A D 284;3SE3 A N 286;18.0365
3SE3 A D 284;3SE3 A N 287;25.2031
3SE3 A D 284;3SE3 A T 288;0.0886844
3SE3 A G 285;3SE3 A N 286;29.9559
3SE3 A G 285;3SE3 A N 287;0.365335
3SE3 A G 285;3SE3 A T 288;0.329563
3SE3 A N 286;3SE3 A N 287;34.0443
3SE3 A N 286;3SE3 A T 288;6.73573
3SE3 A N 287;3SE3 A T 288;31.7243
3SE3 A T 288;3SE3 A S 289;28.2734
3SE3 A T 288;3SE3 A F 290;2.0444
3SE3 A S 289;3SE3 A F 290;35.2071
3SE3 A F 290;3SE3 A W 291;31.21
3SE3 A F 290;3SE3 A S 292;0.275676
3SE3 A W 291;3SE3 A S 292;29.2285
3SE3 A W 291;3SE3 A E 293;0.0377299
3SE3 A S 292;3SE3 A E 293;34.8105
3SE3 A S 292;3SE3 A E 294;3.45661
3SE3 A E 293;3SE3 A E 294;29.1913
3SE3 A E 293;3SE3 A I 295;3.70147
3SE3 A E 294;3SE3 A I 295;36.0398
3SE3 A I 295;3SE3 A K 296;36.751
3SE3 A I 295;3SE3 A F 297;2.79576
3SE3 A K 296;3SE3 A F 297;31.0825
3SE3 A F 297;3SE3 A D 298;27.1356
3SE3 A F 297;3SE3 A T 299;10.2077
3SE3 A D 298;3SE3 A T 299;20.7577
3SE3 A D 298;3SE3 A E 300;36.4638
3SE3 A D 298;3SE3 B Q 90;2.91514
3SE3 A T 299;3SE3 A E 300;36.4143
3SE3 A E 300;3SE3 A I 301;40.1183
3SE3 A I 301;3SE3 A Q 302;41.1779
3SE3 B S 8;3SE3 B L 9;30.3816
3SE3 B S 8;3SE3 B G 10;9.09737
3SE3 B S 8;3SE3 B S 11;20.8672
3SE3 B S 8;3SE3 B R 12;9.2362
3SE3 B S 8;3SE3 B T 155;4.16623
3SE3 B L 9;3SE3 B G 10;23.995
3SE3 B L 9;3SE3 B S 11;1.16088
3SE3 B L 9;3SE3 B R 12;8.94397
3SE3 B L 9;3SE3 B R 13;15.6968
3SE3 B G 10;3SE3 B S 11;18.5615
3SE3 B G 10;3SE3 B R 12;0.509176
3SE3 B G 10;3SE3 B R 13;5.27935
3SE3 B G 10;3SE3 B T 14;12.7958
3SE3 B G 10;3SE3 B E 87;13.1485
3SE3 B G 10;3SE3 B Q 91;15.2131
3SE3 B S 11;3SE3 B R 12;23.4718
3SE3 B S 11;3SE3 B R 13;0.905916
3SE3 B S 11;3SE3 B T 14;6.88496
3SE3 B S 11;3SE3 B L 15;17.446
3SE3 B S 11;3SE3 B Q 91;3.15919
3SE3 B S 11;3SE3 B F 151;17.8988
3SE3 B S 11;3SE3 B T 155;25.9094
3SE3 B R 12;3SE3 B R 13;21.5645
3SE3 B R 12;3SE3 B T 14;1.44032
3SE3 B R 12;3SE3 B L 15;9.98649
3SE3 B R 12;3SE3 B M 16;13.7899
3SE3 B R 13;3SE3 B T 14;17.3269
3SE3 B R 13;3SE3 B L 15;0.126662
3SE3 B R 13;3SE3 B M 16;15.4647
3SE3 B R 13;3SE3 B L 17;14.0408
3SE3 B R 13;3SE3 B E 87;17.7993
3SE3 B T 14;3SE3 B L 15;18.2691
3SE3 B T 14;3SE3 B M 16;1.38689
3SE3 B T 14;3SE3 B L 17;12.2576
3SE3 B T 14;3SE3 B L 18;15.3033
3SE3 B T 14;3SE3 B F 84;15.8524
3SE3 B T 14;3SE3 B E 87;14.7833
3SE3 B T 14;3SE3 B L 88;8.16166
3SE3 B T 14;3SE3 B Q 91;8.27276
3SE3 B T 14;3SE3 B F 151;17.6309
3SE3 B L 15;3SE3 B M 16;15.6239
3SE3 B L 15;3SE3 B L 17;1.39241
3SE3 B L 15;3SE3 B L 18;15.547
3SE3 B L 15;3SE3 B A 19;6.16896
3SE3 B L 15;3SE3 B M 148;25.4925
3SE3 B L 15;3SE3 B F 151;18.7106
3SE3 B L 15;3SE3 B S 152;14.7768
3SE3 B L 15;3SE3 B T 155;0.965381
3SE3 B M 16;3SE3 B L 17;21.3397
3SE3 B M 16;3SE3 B L 18;0.327246
3SE3 B M 16;3SE3 B A 19;10.9687
3SE3 B M 16;3SE3 B Q 20;31.5993
3SE3 B L 17;3SE3 B L 18;16.2428
3SE3 B L 17;3SE3 B A 19;0.873045
3SE3 B L 17;3SE3 B Q 20;18.4614
3SE3 B L 17;3SE3 B M 21;14.9713
3SE3 B L 17;3SE3 B L 80;21.6661
3SE3 B L 17;3SE3 B K 83;22.6881
3SE3 B L 17;3SE3 B F 84;18.7919
3SE3 B L 17;3SE3 B E 87;9.49472
3SE3 B L 18;3SE3 B A 19;15.1268
3SE3 B L 18;3SE3 B Q 20;0.774113
3SE3 B L 18;3SE3 B M 21;23.1167
3SE3 B L 18;3SE3 B R 22;1.29849
3SE3 B L 18;3SE3 B F 67;11.581
3SE3 B L 18;3SE3 B F 84;23.0631
3SE3 B L 18;3SE3 B R 144;22.9478
3SE3 B L 18;3SE3 B I 147;14.9186
3SE3 B L 18;3SE3 B M 148;21.6934
3SE3 B L 18;3SE3 B F 151;6.50437
3SE3 B A 19;3SE3 B Q 20;22.5431
3SE3 B A 19;3SE3 B M 21;1.64727
3SE3 B A 19;3SE3 B R 22;12.1542
3SE3 B A 19;3SE3 B R 144;6.62056
3SE3 B A 19;3SE3 B M 148;15.7604
3SE3 B Q 20;3SE3 B M 21;15.5408
3SE3 B Q 20;3SE3 B R 22;11.625
3SE3 B Q 20;3SE3 B L 80;29.4784
3SE3 B M 21;3SE3 B R 22;19.066
3SE3 B M 21;3SE3 B R 23;5.44676
3SE3 B M 21;3SE3 B F 67;9.42133
3SE3 B M 21;3SE3 B W 76;36.8666
3SE3 B M 21;3SE3 B D 77;6.06999
3SE3 B M 21;3SE3 B L 80;25.6071
3SE3 B M 21;3SE3 B L 81;14.4251
3SE3 B M 21;3SE3 B F 84;14.2349
3SE3 B M 21;3SE3 B R 144;9.89511
3SE3 B R 22;3SE3 B R 23;23.5341
3SE3 B R 22;3SE3 B I 24;23.2221
3SE3 B R 22;3SE3 B S 25;10.7216
3SE3 B R 22;3SE3 B L 26;12.9987
3SE3 B R 22;3SE3 B W 76;1.90137
3SE3 B R 22;3SE3 B E 141;6.18847
3SE3 B R 22;3SE3 B R 144;24.6665
3SE3 B R 23;3SE3 B I 24;39.0203
3SE3 B R 23;3SE3 B A 75;7.57228
3SE3 B R 23;3SE3 B W 76;10.8215
3SE3 B R 23;3SE3 B E 141;10.0457
3SE3 B I 24;3SE3 B S 25;29.1091
3SE3 B I 24;3SE3 B L 26;4.87343
3SE3 B I 24;3SE3 B S 28;7.15746
3SE3 B I 24;3SE3 B C 29;8.62428
3SE3 B I 24;3SE3 B P 137;19.6932
3SE3 B I 24;3SE3 B C 138;9.36466
3SE3 B I 24;3SE3 B E 141;19.7871
3SE3 B S 25;3SE3 B L 26;22.066
3SE3 B S 25;3SE3 B F 27;11.9287
3SE3 B S 25;3SE3 B S 28;23.417
3SE3 B S 25;3SE3 B C 29;7.40531
3SE3 B S 25;3SE3 B E 141;0.0858156
3SE3 B L 26;3SE3 B F 27;17.7176
3SE3 B L 26;3SE3 B S 28;1.61154
3SE3 B L 26;3SE3 B C 29;11.8828
3SE3 B L 26;3SE3 B L 30;8.87598
3SE3 B L 26;3SE3 B E 141;14.749
3SE3 B L 26;3SE3 B R 144;9.61442
3SE3 B L 26;3SE3 B A 145;9.1412
3SE3 B F 27;3SE3 B S 28;25.1604
3SE3 B F 27;3SE3 B C 29;1.97218
3SE3 B F 27;3SE3 B L 30;30.7974
3SE3 B S 28;3SE3 B C 29;19.3292
3SE3 B S 28;3SE3 B L 30;2.24729
3SE3 B S 28;3SE3 B K 31;4.55613
3SE3 B S 28;3SE3 B D 32;1.85046
3SE3 B S 28;3SE3 B C 138;13.8652
3SE3 B C 29;3SE3 B L 30;17.432
3SE3 B C 29;3SE3 B K 31;4.01454
3SE3 B C 29;3SE3 B D 32;11.8624
3SE3 B C 29;3SE3 B R 33;4.13373
3SE3 B C 29;3SE3 B C 138;24.026
3SE3 B C 29;3SE3 B E 141;10.898
3SE3 B C 29;3SE3 B V 142;9.16825
3SE3 B L 30;3SE3 B K 31;27.194
3SE3 B L 30;3SE3 B D 32;1.41007
3SE3 B L 30;3SE3 B R 33;44.4414
3SE3 B K 31;3SE3 B D 32;31.243
3SE3 B K 31;3SE3 B R 33;8.93332
3SE3 B K 31;3SE3 B K 133;0.6611
3SE3 B D 32;3SE3 B R 33;20.2292
3SE3 B D 32;3SE3 B H 34;2.66961
3SE3 B D 32;3SE3 B Y 129;13.6167
3SE3 B D 32;3SE3 B K 133;30.4953
3SE3 B D 32;3SE3 B S 136;4.90745
3SE3 B D 32;3SE3 B C 138;17.721
3SE3 B D 32;3SE3 B A 139;4.51135
3SE3 B D 32;3SE3 B V 142;12.2411
3SE3 B R 33;3SE3 B H 34;25.6881
3SE3 B R 33;3SE3 B V 142;12.5485
3SE3 B H 34;3SE3 B D 35;39.0116
3SE3 B H 34;3SE3 B F 36;27.4734
3SE3 B H 34;3SE3 B Y 129;22.8669
3SE3 B H 34;3SE3 B V 142;7.63045
3SE3 B H 34;3SE3 B E 146;0.814667
3SE3 B D 35;3SE3 B F 36;25.4429
3SE3 B D 35;3SE3 B G 37;19.7308
3SE3 B F 36;3SE3 B G 37;23.8085
3SE3 B F 36;3SE3 B F 38;2.94292
3SE3 B F 36;3SE3 B Y 122;15.149
3SE3 B F 36;3SE3 B R 125;30.9065
3SE3 B F 36;3SE3 B I 126;21.3092
3SE3 B F 36;3SE3 B Y 129;20.6136
3SE3 B F 36;3SE3 B V 142;10.7285
3SE3 B F 36;3SE3 B V 143;10.0154
3SE3 B F 36;3SE3 B E 146;28.0712
3SE3 B G 37;3SE3 B F 38;27.0343
3SE3 B G 37;3SE3 B P 39;8.1772
3SE3 B G 37;3SE3 B Y 122;0.453248
3SE3 B G 37;3SE3 B R 125;9.13141
3SE3 B G 37;3SE3 B E 146;0.164776
3SE3 B F 38;3SE3 B P 39;31.4028
3SE3 B F 38;3SE3 B Q 40;29.9339
3SE3 B F 38;3SE3 B E 41;0.594276
3SE3 B F 38;3SE3 B F 43;15.9683
3SE3 B F 38;3SE3 B M 59;13.5817
3SE3 B F 38;3SE3 B V 119;2.40561
3SE3 B F 38;3SE3 B Y 122;24.7
3SE3 B F 38;3SE3 B R 125;0.0199098
3SE3 B F 38;3SE3 B E 146;9.31291
3SE3 B F 38;3SE3 B R 149;15.3059
3SE3 B F 38;3SE3 B S 150;22.0726
3SE3 B F 38;3SE3 B L 153;15.6538
3SE3 B F 38;3SE3 B S 154;5.72977
3SE3 B P 39;3SE3 B Q 40;14.1516
3SE3 B P 39;3SE3 B E 41;22.2133
3SE3 B P 39;3SE3 B E 42;18.625
3SE3 B P 39;3SE3 B F 43;7.07385
3SE3 B P 39;3SE3 B A 118;16.1091
3SE3 B P 39;3SE3 B V 119;12.9201
3SE3 B P 39;3SE3 B Y 122;10.6779
3SE3 B P 39;3SE3 B R 125;6.19272
3SE3 B Q 40;3SE3 B E 41;31.2832
3SE3 B Q 40;3SE3 B E 42;2.1068
3SE3 B Q 40;3SE3 B F 43;23.3251
3SE3 B Q 40;3SE3 B R 149;17.4751
3SE3 B Q 40;3SE3 B L 153;22.644
3SE3 B E 41;3SE3 B E 42;34.8632
3SE3 B E 41;3SE3 B F 43;10.3228
3SE3 B E 42;3SE3 B F 43;33.4651
3SE3 B E 42;3SE3 B T 52;11.7068
3SE3 B E 42;3SE3 B V 55;15.8996
3SE3 B E 42;3SE3 B D 114;0.661203
3SE3 B E 42;3SE3 B S 115;28.9437
3SE3 B E 42;3SE3 B A 118;9.0454
3SE3 B E 42;3SE3 B V 119;5.98832
3SE3 B F 43;3SE3 B T 52;5.12281
3SE3 B F 43;3SE3 B V 55;13.9676
3SE3 B F 43;3SE3 B L 56;17.1565
3SE3 B F 43;3SE3 B M 59;13.0784
3SE3 B F 43;3SE3 B V 119;8.56861
3SE3 B F 43;3SE3 B L 153;9.56566
3SE3 B F 43;3SE3 B S 154;29.4657
3SE3 B E 51;3SE3 B T 52;32.8086
3SE3 B E 51;3SE3 B I 53;11.1485
3SE3 B E 51;3SE3 B P 54;12.2116
3SE3 B T 52;3SE3 B I 53;20.9891
3SE3 B T 52;3SE3 B P 54;6.80967
3SE3 B T 52;3SE3 B V 55;19.8933
3SE3 B T 52;3SE3 B L 56;28.1056
3SE3 B I 53;3SE3 B P 54;28.4507
3SE3 B I 53;3SE3 B V 55;1.07241
3SE3 B I 53;3SE3 B L 56;15.7992
3SE3 B I 53;3SE3 B Y 57;10.544
3SE3 B I 53;3SE3 B L 95;17.7621
3SE3 B I 53;3SE3 B C 98;10.7159
3SE3 B P 54;3SE3 B V 55;23.7761
3SE3 B P 54;3SE3 B L 56;0.606578
3SE3 B P 54;3SE3 B Y 57;9.32275
3SE3 B P 54;3SE3 B N 58;14.0706
3SE3 B P 54;3SE3 B I 116;9.90024
3SE3 B V 55;3SE3 B L 56;18.8616
3SE3 B V 55;3SE3 B Y 57;0.517112
3SE3 B V 55;3SE3 B N 58;9.46882
3SE3 B V 55;3SE3 B M 59;9.71321
3SE3 B V 55;3SE3 B S 115;17.9924
3SE3 B V 55;3SE3 B I 116;11.5617
3SE3 B V 55;3SE3 B V 119;13.472
3SE3 B L 56;3SE3 B Y 57;16.8241
3SE3 B L 56;3SE3 B N 58;1.3028
3SE3 B L 56;3SE3 B M 59;12.8096
3SE3 B L 56;3SE3 B I 60;14.1272
3SE3 B L 56;3SE3 B L 95;21.0821
3SE3 B L 56;3SE3 B S 154;14.9897
3SE3 B Y 57;3SE3 B N 58;21.8849
3SE3 B Y 57;3SE3 B M 59;0.303979
3SE3 B Y 57;3SE3 B I 60;4.69596
3SE3 B Y 57;3SE3 B S 61;18.5074
3SE3 B Y 57;3SE3 B L 92;28.0638
3SE3 B Y 57;3SE3 B L 95;25.0794
3SE3 B Y 57;3SE3 B E 96;18.1893
3SE3 B N 58;3SE3 B M 59;18.2859
3SE3 B N 58;3SE3 B I 60;0.842122
3SE3 B N 58;3SE3 B S 61;11.1565
3SE3 B N 58;3SE3 B Q 62;17.3295
3SE3 B N 58;3SE3 B I 116;31.0186
3SE3 B N 58;3SE3 B V 119;7.51675
3SE3 B N 58;3SE3 B R 120;2.84317
3SE3 B M 59;3SE3 B I 60;22.3483
3SE3 B M 59;3SE3 B S 61;0.446843
3SE3 B M 59;3SE3 B Q 62;7.54849
3SE3 B M 59;3SE3 B I 63;20.8242
3SE3 B M 59;3SE3 B V 119;18.5506
3SE3 B M 59;3SE3 B Y 122;5.07014
3SE3 B M 59;3SE3 B F 123;17.7138
3SE3 B M 59;3SE3 B I 147;0.774766
3SE3 B M 59;3SE3 B S 150;14.5428
3SE3 B M 59;3SE3 B F 151;7.1679
3SE3 B M 59;3SE3 B S 154;13.0073
3SE3 B I 60;3SE3 B S 61;16.8168
3SE3 B I 60;3SE3 B Q 62;2.92852
3SE3 B I 60;3SE3 B I 63;19.0194
3SE3 B I 60;3SE3 B F 64;9.85986
3SE3 B I 60;3SE3 B L 88;21.315
3SE3 B I 60;3SE3 B Q 91;19.6176
3SE3 B I 60;3SE3 B L 92;19.6457
3SE3 B I 60;3SE3 B L 95;11.5422
3SE3 B I 60;3SE3 B F 151;9.65704
3SE3 B S 61;3SE3 B Q 62;25.5323
3SE3 B S 61;3SE3 B I 63;0.127505
3SE3 B S 61;3SE3 B F 64;9.48561
3SE3 B S 61;3SE3 B N 65;13.1418
3SE3 B S 61;3SE3 B L 92;14.1816
3SE3 B Q 62;3SE3 B I 63;15.3024
3SE3 B Q 62;3SE3 B F 64;0.877072
3SE3 B Q 62;3SE3 B N 65;5.80699
3SE3 B Q 62;3SE3 B L 66;11.6943
3SE3 B Q 62;3SE3 B V 119;3.20867
3SE3 B Q 62;3SE3 B R 120;12.6495
3SE3 B Q 62;3SE3 B F 123;26.188
3SE3 B I 63;3SE3 B F 64;18.9664
3SE3 B I 63;3SE3 B N 65;0.477168
3SE3 B I 63;3SE3 B L 66;9.96232
3SE3 B I 63;3SE3 B F 67;22.2369
3SE3 B I 63;3SE3 B F 84;12.7795
3SE3 B I 63;3SE3 B L 88;14.7763
3SE3 B I 63;3SE3 B F 123;12.978
3SE3 B I 63;3SE3 B I 147;20.2809
3SE3 B I 63;3SE3 B S 150;1.51573
3SE3 B I 63;3SE3 B F 151;14.7975
3SE3 B F 64;3SE3 B N 65;17.8139
3SE3 B F 64;3SE3 B L 66;2.15536
3SE3 B F 64;3SE3 B F 67;5.52489
3SE3 B F 64;3SE3 B S 68;17.7493
3SE3 B F 64;3SE3 B F 84;0.735012
3SE3 B F 64;3SE3 B Y 85;27.4859
3SE3 B F 64;3SE3 B L 88;21.6909
3SE3 B F 64;3SE3 B Y 89;13.5681
3SE3 B F 64;3SE3 B L 92;13.9608
3SE3 B N 65;3SE3 B L 66;16.6466
3SE3 B N 65;3SE3 B F 67;0.0902786
3SE3 B N 65;3SE3 B S 68;11.7441
3SE3 B N 65;3SE3 B T 69;10.6153
3SE3 B L 66;3SE3 B F 67;32.2141
3SE3 B L 66;3SE3 B S 68;2.82978
3SE3 B L 66;3SE3 B T 69;19.2299
3SE3 B L 66;3SE3 B S 72;4.10688
3SE3 B L 66;3SE3 B F 123;14.3994
3SE3 B L 66;3SE3 B I 126;14.1358
3SE3 B L 66;3SE3 B T 127;8.7789
3SE3 B L 66;3SE3 B L 130;8.12997
3SE3 B L 66;3SE3 B W 140;12.8157
3SE3 B L 66;3SE3 B V 143;6.84002
3SE3 B L 66;3SE3 B I 147;6.85068
3SE3 B F 67;3SE3 B S 68;15.8906
3SE3 B F 67;3SE3 B T 69;1.29675
3SE3 B F 67;3SE3 B S 72;25.6005
3SE3 B F 67;3SE3 B S 73;1.0065
3SE3 B F 67;3SE3 B W 76;16.7313
3SE3 B F 67;3SE3 B L 81;0.63894
3SE3 B F 67;3SE3 B F 84;18.549
3SE3 B F 67;3SE3 B Y 85;22.2942
3SE3 B F 67;3SE3 B W 140;10.1739
3SE3 B F 67;3SE3 B V 143;6.16513
3SE3 B F 67;3SE3 B R 144;11.0767
3SE3 B F 67;3SE3 B I 147;17.2182
3SE3 B S 68;3SE3 B T 69;30.485
3SE3 B S 68;3SE3 B K 70;1.79942
3SE3 B S 68;3SE3 B S 72;0.0119785
3SE3 B S 68;3SE3 B Y 85;18.6105
3SE3 B T 69;3SE3 B K 70;24.8713
3SE3 B T 69;3SE3 B D 71;19.8478
3SE3 B T 69;3SE3 B S 72;17.2298
3SE3 B T 69;3SE3 B S 73;10.9348
3SE3 B T 69;3SE3 B Y 85;0.0102994
3SE3 B T 69;3SE3 B W 140;2.86069
3SE3 B K 70;3SE3 B D 71;26.2104
3SE3 B K 70;3SE3 B S 72;0.342051
3SE3 B K 70;3SE3 B S 73;15.4655
3SE3 B K 70;3SE3 B A 74;11.3366
3SE3 B D 71;3SE3 B S 72;15.5267
3SE3 B D 71;3SE3 B S 73;1.32443
3SE3 B D 71;3SE3 B A 74;11.3653
3SE3 B D 71;3SE3 B A 75;6.6621
3SE3 B D 71;3SE3 B Y 135;34.5592
3SE3 B D 71;3SE3 B W 140;14.68
3SE3 B S 72;3SE3 B S 73;20.419
3SE3 B S 72;3SE3 B A 74;1.2905
3SE3 B S 72;3SE3 B A 75;8.48952
3SE3 B S 72;3SE3 B W 76;20.4855
3SE3 B S 72;3SE3 B L 81;1.52635
3SE3 B S 72;3SE3 B Y 85;0.392746
3SE3 B S 72;3SE3 B W 140;14.9181
3SE3 B S 73;3SE3 B A 74;24.5969
3SE3 B S 73;3SE3 B A 75;1.179
3SE3 B S 73;3SE3 B W 76;15.1109
3SE3 B S 73;3SE3 B E 78;1.79697
3SE3 B S 73;3SE3 B L 81;2.77185
3SE3 B S 73;3SE3 B Y 85;5.35506
3SE3 B A 74;3SE3 B A 75;26.5207
3SE3 B A 74;3SE3 B W 76;2.75892
3SE3 B A 75;3SE3 B W 76;41.1662
3SE3 B A 75;3SE3 B W 140;23.7668
3SE3 B W 76;3SE3 B D 77;31.8987
3SE3 B W 76;3SE3 B E 78;7.9901
3SE3 B W 76;3SE3 B L 81;10.0638
3SE3 B W 76;3SE3 B W 140;28.3105
3SE3 B W 76;3SE3 B E 141;13.0871
3SE3 B W 76;3SE3 B R 144;21.2555
3SE3 B D 77;3SE3 B E 78;23.1163
3SE3 B D 77;3SE3 B T 79;17.7806
3SE3 B D 77;3SE3 B L 80;30.8693
3SE3 B D 77;3SE3 B L 81;10.018
3SE3 B E 78;3SE3 B T 79;31.0143
3SE3 B E 78;3SE3 B L 80;0.669879
3SE3 B E 78;3SE3 B L 81;11.1599
3SE3 B E 78;3SE3 B D 82;20.6006
3SE3 B T 79;3SE3 B L 80;23.3932
3SE3 B T 79;3SE3 B L 81;0.343875
3SE3 B T 79;3SE3 B D 82;12.2416
3SE3 B T 79;3SE3 B K 83;13.2674
3SE3 B L 80;3SE3 B L 81;16.5236
3SE3 B L 80;3SE3 B D 82;1.35912
3SE3 B L 80;3SE3 B K 83;9.27772
3SE3 B L 80;3SE3 B F 84;7.68174
3SE3 B L 81;3SE3 B D 82;17.1718
3SE3 B L 81;3SE3 B K 83;0.235002
3SE3 B L 81;3SE3 B F 84;11.5713
3SE3 B L 81;3SE3 B Y 85;28.3185
3SE3 B D 82;3SE3 B K 83;18.9502
3SE3 B D 82;3SE3 B F 84;2.24222
3SE3 B D 82;3SE3 B Y 85;18.2728
3SE3 B D 82;3SE3 B T 86;8.52197
3SE3 B K 83;3SE3 B F 84;12.9949
3SE3 B K 83;3SE3 B Y 85;0.0660539
3SE3 B K 83;3SE3 B T 86;15.6855
3SE3 B K 83;3SE3 B E 87;11.3297
3SE3 B F 84;3SE3 B Y 85;27.3795
3SE3 B F 84;3SE3 B T 86;1.4847
3SE3 B F 84;3SE3 B E 87;9.48384
3SE3 B F 84;3SE3 B L 88;27.9903
3SE3 B F 84;3SE3 B I 147;1.04689
3SE3 B Y 85;3SE3 B T 86;14.5711
3SE3 B Y 85;3SE3 B E 87;0.789176
3SE3 B Y 85;3SE3 B L 88;8.48039
3SE3 B Y 85;3SE3 B Y 89;9.32975
3SE3 B T 86;3SE3 B E 87;26.0804
3SE3 B T 86;3SE3 B L 88;0.533641
3SE3 B T 86;3SE3 B Y 89;10.1736
3SE3 B T 86;3SE3 B Q 90;12.2534
3SE3 B E 87;3SE3 B L 88;17.174
3SE3 B E 87;3SE3 B Y 89;0.976624
3SE3 B E 87;3SE3 B Q 90;21.9332
3SE3 B E 87;3SE3 B Q 91;18.57
3SE3 B L 88;3SE3 B Y 89;17.9357
3SE3 B L 88;3SE3 B Q 90;0.766446
3SE3 B L 88;3SE3 B Q 91;21.6642
3SE3 B L 88;3SE3 B L 92;12.9243
3SE3 B L 88;3SE3 B F 151;6.78406
3SE3 B Y 89;3SE3 B Q 90;21.845
3SE3 B Y 89;3SE3 B Q 91;1.03195
3SE3 B Y 89;3SE3 B L 92;11.455
3SE3 B Y 89;3SE3 B N 93;30.1997
3SE3 B Q 90;3SE3 B Q 91;18.7562
3SE3 B Q 90;3SE3 B L 92;0.773957
3SE3 B Q 90;3SE3 B N 93;12.5356
3SE3 B Q 90;3SE3 B D 94;24.3561
3SE3 B Q 91;3SE3 B L 92;17.2499
3SE3 B Q 91;3SE3 B N 93;0.589156
3SE3 B Q 91;3SE3 B D 94;16.0803
3SE3 B Q 91;3SE3 B L 95;14.0063
3SE3 B Q 91;3SE3 B F 151;13.5312
3SE3 B L 92;3SE3 B N 93;16.3931
3SE3 B L 92;3SE3 B D 94;1.1198
3SE3 B L 92;3SE3 B L 95;13.5183
3SE3 B L 92;3SE3 B E 96;9.96352
3SE3 B N 93;3SE3 B D 94;21.8361
3SE3 B N 93;3SE3 B L 95;0.969594
3SE3 B N 93;3SE3 B E 96;19.5841
3SE3 B N 93;3SE3 B A 97;12.7508
3SE3 B D 94;3SE3 B L 95;25.9028
3SE3 B D 94;3SE3 B E 96;0.470912
3SE3 B D 94;3SE3 B A 97;12.0132
3SE3 B D 94;3SE3 B C 98;13.2343
3SE3 B L 95;3SE3 B E 96;20.2782
3SE3 B L 95;3SE3 B A 97;0.963623
3SE3 B L 95;3SE3 B C 98;19.5225
3SE3 B L 95;3SE3 B V 99;1.72198
3SE3 B E 96;3SE3 B A 97;23.421
3SE3 B E 96;3SE3 B C 98;2.84286
3SE3 B E 96;3SE3 B V 99;15.7892
3SE3 B A 97;3SE3 B C 98;23.5809
3SE3 B A 97;3SE3 B V 99;15.8879
3SE3 B C 98;3SE3 B V 99;31.5734
3SE3 B D 114;3SE3 B S 115;30.5986
3SE3 B D 114;3SE3 B I 116;12.4657
3SE3 B D 114;3SE3 B L 117;24.8152
3SE3 B D 114;3SE3 B A 118;12.2381
3SE3 B S 115;3SE3 B I 116;21.4398
3SE3 B S 115;3SE3 B L 117;0.759515
3SE3 B S 115;3SE3 B A 118;10.0827
3SE3 B S 115;3SE3 B V 119;10.7793
3SE3 B I 116;3SE3 B L 117;25.1075
3SE3 B I 116;3SE3 B A 118;0.879707
3SE3 B I 116;3SE3 B V 119;12.4126
3SE3 B I 116;3SE3 B R 120;16.4682
3SE3 B L 117;3SE3 B A 118;18.922
3SE3 B L 117;3SE3 B V 119;0.443518
3SE3 B L 117;3SE3 B R 120;8.29167
3SE3 B L 117;3SE3 B K 121;11.0108
3SE3 B A 118;3SE3 B V 119;16.226
3SE3 B A 118;3SE3 B R 120;1.22097
3SE3 B A 118;3SE3 B K 121;12.4491
3SE3 B A 118;3SE3 B Y 122;7.94861
3SE3 B A 118;3SE3 B R 125;4.27469
3SE3 B V 119;3SE3 B R 120;19.0089
3SE3 B V 119;3SE3 B K 121;0.415345
3SE3 B V 119;3SE3 B Y 122;14.2829
3SE3 B V 119;3SE3 B F 123;16.8704
3SE3 B R 120;3SE3 B K 121;16.0853
3SE3 B R 120;3SE3 B Y 122;1.54391
3SE3 B R 120;3SE3 B F 123;12.1393
3SE3 B R 120;3SE3 B Q 124;8.1022
3SE3 B K 121;3SE3 B Y 122;14.2856
3SE3 B K 121;3SE3 B F 123;0.691064
3SE3 B K 121;3SE3 B Q 124;23.9813
3SE3 B K 121;3SE3 B R 125;33.3125
3SE3 B Y 122;3SE3 B F 123;31.4782
3SE3 B Y 122;3SE3 B Q 124;1.03337
3SE3 B Y 122;3SE3 B R 125;30.4895
3SE3 B Y 122;3SE3 B I 126;25.6253
3SE3 B Y 122;3SE3 B E 146;13.5534
3SE3 B Y 122;3SE3 B I 147;6.59506
3SE3 B Y 122;3SE3 B S 150;9.62623
3SE3 B F 123;3SE3 B Q 124;17.2168
3SE3 B F 123;3SE3 B R 125;0.824642
3SE3 B F 123;3SE3 B I 126;21.8592
3SE3 B F 123;3SE3 B T 127;12.7054
3SE3 B F 123;3SE3 B I 147;9.3207
3SE3 B Q 124;3SE3 B R 125;18.6734
3SE3 B Q 124;3SE3 B I 126;0.753191
3SE3 B Q 124;3SE3 B T 127;18.3692
3SE3 B Q 124;3SE3 B L 128;17.9734
3SE3 B R 125;3SE3 B I 126;15.7657
3SE3 B R 125;3SE3 B T 127;0.656823
3SE3 B R 125;3SE3 B L 128;14.9666
3SE3 B R 125;3SE3 B Y 129;10.1948
3SE3 B I 126;3SE3 B T 127;21.3825
3SE3 B I 126;3SE3 B L 128;1.1922
3SE3 B I 126;3SE3 B Y 129;8.76615
3SE3 B I 126;3SE3 B L 130;16.8877
3SE3 B I 126;3SE3 B V 143;17.0767
3SE3 B I 126;3SE3 B E 146;5.82246
3SE3 B I 126;3SE3 B I 147;10.8424
3SE3 B T 127;3SE3 B L 128;17.6767
3SE3 B T 127;3SE3 B Y 129;0.644493
3SE3 B T 127;3SE3 B L 130;11.661
3SE3 B T 127;3SE3 B K 131;31.6462
3SE3 B T 127;3SE3 B Y 135;4.91235
3SE3 B L 128;3SE3 B Y 129;19.0451
3SE3 B L 128;3SE3 B L 130;0.948349
3SE3 B L 128;3SE3 B K 131;22.2089
3SE3 B L 128;3SE3 B E 132;36.5096
3SE3 B Y 129;3SE3 B L 130;24.8677
3SE3 B Y 129;3SE3 B K 131;0.878428
3SE3 B Y 129;3SE3 B E 132;16.1055
3SE3 B Y 129;3SE3 B K 133;32.9185
3SE3 B Y 129;3SE3 B A 139;12.8988
3SE3 B Y 129;3SE3 B V 142;15.1419
3SE3 B Y 129;3SE3 B V 143;8.31784
3SE3 B L 130;3SE3 B K 131;17.1315
3SE3 B L 130;3SE3 B E 132;0.427418
3SE3 B L 130;3SE3 B K 133;8.59239
3SE3 B L 130;3SE3 B K 134;3.24848
3SE3 B L 130;3SE3 B Y 135;35.962
3SE3 B L 130;3SE3 B A 139;11.1658
3SE3 B L 130;3SE3 B W 140;23.7817
3SE3 B L 130;3SE3 B V 143;16.9735
3SE3 B K 131;3SE3 B E 132;24.9612
3SE3 B K 131;3SE3 B K 133;1.25567
3SE3 B K 131;3SE3 B K 134;12.9037
3SE3 B K 131;3SE3 B Y 135;28.9944
3SE3 B E 132;3SE3 B K 133;24.6634
3SE3 B E 132;3SE3 B K 134;7.22378
3SE3 B K 133;3SE3 B K 134;21.3624
3SE3 B K 133;3SE3 B Y 135;4.14917
3SE3 B K 133;3SE3 B S 136;21.0939
3SE3 B K 133;3SE3 B A 139;14.4056
3SE3 B K 134;3SE3 B Y 135;30.8301
3SE3 B K 134;3SE3 B S 136;6.21135
3SE3 B Y 135;3SE3 B S 136;20.8372
3SE3 B Y 135;3SE3 B P 137;5.21981
3SE3 B Y 135;3SE3 B A 139;2.7722
3SE3 B Y 135;3SE3 B W 140;32.929
3SE3 B S 136;3SE3 B P 137;29.2493
3SE3 B S 136;3SE3 B C 138;9.02041
3SE3 B S 136;3SE3 B A 139;19.959
3SE3 B S 136;3SE3 B W 140;9.01045
3SE3 B P 137;3SE3 B C 138;20.7696
3SE3 B P 137;3SE3 B A 139;0.690762
3SE3 B P 137;3SE3 B W 140;15.8383
3SE3 B P 137;3SE3 B E 141;10.0321
3SE3 B C 138;3SE3 B A 139;16.8033
3SE3 B C 138;3SE3 B W 140;1.22044
3SE3 B C 138;3SE3 B E 141;7.53513
3SE3 B C 138;3SE3 B V 142;10.2632
3SE3 B A 139;3SE3 B W 140;15.5947
3SE3 B A 139;3SE3 B E 141;0.686196
3SE3 B A 139;3SE3 B V 142;7.74852
3SE3 B A 139;3SE3 B V 143;7.25928
3SE3 B W 140;3SE3 B E 141;17.3485
3SE3 B W 140;3SE3 B V 142;0.78067
3SE3 B W 140;3SE3 B V 143;18.6497
3SE3 B W 140;3SE3 B R 144;9.32735
3SE3 B E 141;3SE3 B V 142;18.8321
3SE3 B E 141;3SE3 B V 143;1.32227
3SE3 B E 141;3SE3 B R 144;20.5279
3SE3 B E 141;3SE3 B A 145;11.0413
3SE3 B V 142;3SE3 B V 143;18.7588
3SE3 B V 142;3SE3 B R 144;0.278653
3SE3 B V 142;3SE3 B A 145;5.13088
3SE3 B V 142;3SE3 B E 146;12.7181
3SE3 B V 143;3SE3 B R 144;19.7828
3SE3 B V 143;3SE3 B A 145;0.979996
3SE3 B V 143;3SE3 B E 146;12.3672
3SE3 B V 143;3SE3 B I 147;17.9054
3SE3 B R 144;3SE3 B A 145;26.6594
3SE3 B R 144;3SE3 B E 146;1.16533
3SE3 B R 144;3SE3 B I 147;10.1391
3SE3 B R 144;3SE3 B M 148;24.3868
3SE3 B A 145;3SE3 B E 146;20.4558
3SE3 B A 145;3SE3 B I 147;0.568836
3SE3 B A 145;3SE3 B M 148;14.915
3SE3 B A 145;3SE3 B R 149;8.82912
3SE3 B E 146;3SE3 B I 147;19.6871
3SE3 B E 146;3SE3 B M 148;1.10709
3SE3 B E 146;3SE3 B R 149;22.2992
3SE3 B E 146;3SE3 B S 150;11.2935
3SE3 B I 147;3SE3 B M 148;17.9126
3SE3 B I 147;3SE3 B R 149;1.13506
3SE3 B I 147;3SE3 B S 150;19.5597
3SE3 B I 147;3SE3 B F 151;13.1713
3SE3 B M 148;3SE3 B R 149;14.7358
3SE3 B M 148;3SE3 B S 150;0.400831
3SE3 B M 148;3SE3 B F 151;4.75279
3SE3 B M 148;3SE3 B S 152;8.43327
3SE3 B R 149;3SE3 B S 150;19.717
3SE3 B R 149;3SE3 B F 151;0.803098
3SE3 B R 149;3SE3 B S 152;7.8286
3SE3 B R 149;3SE3 B L 153;31.9161
3SE3 B S 150;3SE3 B F 151;18.4479
3SE3 B S 150;3SE3 B S 152;0.781073
3SE3 B S 150;3SE3 B L 153;6.61385
3SE3 B S 150;3SE3 B S 154;8.16868
3SE3 B F 151;3SE3 B S 152;19.0269
3SE3 B F 151;3SE3 B L 153;0.955252
3SE3 B F 151;3SE3 B S 154;16.8537
3SE3 B F 151;3SE3 B T 155;21.6037
3SE3 B S 152;3SE3 B L 153;17.8429
3SE3 B S 152;3SE3 B S 154;0.540091
3SE3 B S 152;3SE3 B T 155;10.6142
3SE3 B S 152;3SE3 B N 156;12.877
3SE3 B L 153;3SE3 B S 154;19.1986
3SE3 B L 153;3SE3 B T 155;2.12361
3SE3 B L 153;3SE3 B N 156;13.2838
3SE3 B S 154;3SE3 B T 155;26.002
3SE3 B S 154;3SE3 B N 156;3.27745
3SE3 B T 155;3SE3 B N 156;39.1453
