"The table details the residue variety in % for each position in the query sequence."
"Each column shows the % for that amino-acid, found in position ('pos') in the MSA."
"In case there are residues which are not a standard amino-acid in the MSA, they are represented under column 'OTHER'"

pos,A,C,D,E,F,G,H,I,K,L,M,N,P,Q,R,S,T,V,W,Y,OTHER,MAX AA,ConSurf Grade
1,,,,,,,,,,,,100.000,,,,,,,,,,N 100.000,9
2,80.702,,,,,5.263,,,,,1.754,,,,,10.526,1.754,,,,,A 80.702,7
3,9.091,,6.494,15.584,,48.052,,,1.299,3.896,,2.597,,5.195,5.195,,,2.597,,,,G 48.052,1
4,,,,,0.980,,,19.608,,0.980,,,,,,,,78.431,,,,V 78.431,7
5,0.901,,,1.802,1.802,,0.901,5.405,1.802,1.802,,,,4.505,,14.414,63.063,0.901,,2.703,,T 63.063,6
6,,,,,,,,,,,,,,100.000,,,,,,,,Q 100.000,9
7,0.877,,4.386,,2.632,,1.754,2.632,5.263,1.754,2.632,8.772,4.386,2.632,0.877,23.684,31.579,0.877,4.386,0.877,,T 31.579,1
8,,,,,,,,,,,,,96.552,0.862,,2.586,,,,,,P 96.552,9
9,0.855,,2.564,,0.855,1.709,1.709,0.855,17.949,0.855,0.855,,,0.855,48.718,17.949,2.564,1.709,,,,R 48.718,3
10,0.926,,,1.852,11.111,,27.778,3.704,,0.926,,6.481,,0.926,10.185,2.778,0.926,0.926,1.852,29.630,,Y 29.630,1
11,6.034,0.862,2.586,1.724,3.448,0.862,,3.448,14.655,42.241,0.862,,,8.621,5.172,2.586,3.448,3.448,,,,L 42.241,2
12,,2.521,,,0.840,,,38.655,,8.403,1.681,,,,,3.361,,42.857,1.681,,,V 42.857,3
13,6.667,6.667,,2.500,,0.833,,8.333,25.833,8.333,1.667,1.667,,1.667,6.667,4.167,16.667,8.333,,,,K 25.833,1
14,4.098,,1.639,14.754,,8.197,,,22.951,,1.639,1.639,4.918,9.016,15.574,5.738,2.459,7.377,,,,K 22.951,1
15,3.226,,,8.065,,4.839,0.806,0.806,12.097,0.806,8.065,,4.839,3.226,17.742,4.839,22.581,8.065,,,,T 22.581,1
16,0.806,,6.452,0.806,,79.839,,,3.226,,,2.419,,1.613,3.226,0.806,0.806,,,,,G 79.839,6
17,6.400,,3.200,12.000,,9.600,,,9.600,,,0.800,0.800,42.400,2.400,4.800,8.000,,,,,Q 42.400,3
18,3.150,,4.724,6.299,,0.787,,,20.472,0.787,1.575,12.598,3.150,8.661,5.512,25.984,5.512,,,0.787,,S 25.984,1
19,17.969,,,,,0.781,,3.906,0.781,7.031,7.031,,0.781,,,1.562,0.781,59.375,,,,V 59.375,5
20,3.125,,1.562,7.812,1.562,,0.781,3.906,7.031,6.250,4.688,3.906,,1.562,3.906,2.344,49.219,2.344,,,,T 49.219,3
21,,,,,5.469,,,17.969,,59.375,13.281,,,,,,,3.906,,,,L 59.375,5
22,,,3.906,18.750,,1.562,1.562,0.781,6.250,0.781,,7.031,,14.062,23.438,10.156,8.594,0.781,2.344,,,R 23.438,1
23,,100.000,,,,,,,,,,,,,,,,,,,,C 100.000,9
24,3.876,,10.078,7.752,0.775,1.550,5.426,3.876,4.651,3.101,0.775,3.101,0.775,4.651,6.202,27.132,6.202,4.651,,5.426,,S 27.132,1
25,3.226,,8.871,0.806,,0.806,,,4.839,0.806,,4.032,29.032,38.710,0.806,1.613,2.419,4.032,,,,Q 38.710,6
26,1.575,,33.071,5.512,,3.937,1.575,14.173,3.150,0.787,0.787,14.961,,0.787,1.575,2.362,9.449,4.724,,1.575,,D 33.071,3
27,2.344,,3.906,3.125,4.688,2.344,,0.781,6.250,7.812,21.875,6.250,1.562,1.562,,32.812,3.125,,0.781,0.781,,S 32.812,3
28,1.562,,13.281,2.344,,32.031,,,1.562,,,22.656,0.781,11.719,1.562,9.375,2.344,,0.781,,,G 32.031,3
29,5.426,,2.326,,3.101,,61.240,,,6.977,,1.550,,,,1.550,2.326,2.326,0.775,12.403,,H 61.240,4
30,5.426,,16.279,13.178,2.326,0.775,,2.326,1.550,6.977,,13.953,3.876,0.775,4.651,6.202,7.752,3.876,,10.078,,D 16.279,1
31,7.752,0.775,,,0.775,,3.101,0.775,1.550,1.550,1.550,7.752,,3.876,9.302,13.953,14.729,4.651,0.775,27.132,,Y 27.132,1
32,,,,,0.775,,,4.651,,13.953,59.690,,,,,,,20.930,,,,M 59.690,7
33,,,,,23.256,0.775,1.550,0.775,,4.651,,,,0.775,,9.302,,0.775,,58.140,,Y 58.140,4
34,,,,,,,,,,,,,,,,,,,100.000,,,W 100.000,9
35,,,,,1.550,,0.775,0.775,,,,,,,,,,,,96.899,,Y 96.899,9
36,,0.781,,,,,2.344,,5.469,3.125,,,,30.469,57.812,,,,,,,R 57.812,6
37,,,,,,,3.125,,3.125,1.562,,,,90.625,1.562,,,,,,,Q 90.625,9
38,8.527,,33.333,,3.101,0.775,1.550,3.101,7.752,9.302,,3.101,6.977,3.876,3.876,5.426,6.977,2.326,,,,D 33.333,1
39,4.651,,2.326,1.550,,,0.775,,2.326,22.481,3.876,0.775,42.636,3.876,3.876,4.651,4.651,1.550,,,,P 42.636,1
40,2.362,,4.724,5.512,,68.504,0.787,,3.937,,2.362,3.150,,2.362,2.362,3.150,,,,0.787,,G 68.504,2
41,0.775,,1.550,7.752,0.775,6.977,8.527,,12.403,13.178,5.426,2.326,1.550,29.457,5.426,2.326,1.550,,,,,Q 29.457,2
42,10.853,,1.550,7.752,,58.140,0.775,,2.326,0.775,,0.775,2.326,2.326,0.775,10.853,0.775,,,,,G 58.140,2
43,,,,,6.250,,,1.562,,64.844,10.156,,15.625,1.562,,,,,,,,L 64.844,5
44,,,0.781,18.750,0.781,,2.344,1.562,14.062,0.781,1.562,0.781,,23.438,28.125,0.781,4.688,1.562,,,,R 28.125,4
45,,,,,26.562,,,,,66.406,0.781,,,3.125,1.562,,,,0.781,0.781,,L 66.406,6
46,,,,,,,,43.750,,39.844,7.031,,,,,,,9.375,,,,I 43.750,7
47,13.953,,,,6.202,3.876,19.380,13.953,,1.550,0.775,,,,,0.775,6.977,13.178,,19.380,,HY 19.380,2
48,1.550,1.550,1.550,1.550,9.302,,3.876,2.326,0.775,1.550,,3.876,,8.527,1.550,3.876,7.752,0.775,1.550,48.062,,Y 48.062,1
49,3.876,,2.326,1.550,13.953,1.550,0.775,,,6.202,0.775,0.775,,,,51.938,5.426,,,10.853,,S 51.938,7
50,3.101,,1.550,,1.550,1.550,0.775,3.876,,3.101,0.775,12.403,0.775,11.628,6.202,4.651,0.775,13.178,0.775,33.333,,Y 33.333,1
51,3.175,,14.286,3.175,0.794,28.571,,1.587,2.381,,1.587,25.397,0.794,,0.794,11.905,1.587,2.381,,1.587,,G 28.571,1
52,9.524,,3.175,18.254,,6.349,,7.937,7.143,2.381,0.794,5.556,3.175,7.143,2.381,4.762,4.762,16.667,,,,E 18.254,1
53,17.460,,11.905,6.349,,15.079,3.968,1.587,9.524,,0.794,8.730,7.143,1.587,1.587,7.937,0.794,4.762,0.794,,,A 17.460,1
54,3.175,,9.524,8.730,,0.794,0.794,4.762,1.587,4.762,2.381,7.937,1.587,9.524,0.794,18.254,15.079,10.317,,,,S 18.254,1
55,0.787,,,2.362,4.724,,,13.386,3.150,7.874,2.362,5.512,1.575,2.362,7.087,4.724,18.110,7.874,,18.110,,TY 18.110,1
56,1.562,,21.094,53.906,,5.469,,0.781,0.781,,,4.688,,7.812,0.781,2.344,,0.781,,,,E 53.906,5
57,3.876,,7.752,10.078,,3.101,,0.775,43.411,,,3.876,4.651,6.977,3.101,9.302,2.326,0.775,,,,K 43.411,2
58,3.876,,1.550,3.876,,58.915,,2.326,3.101,,,,5.426,2.326,,16.279,2.326,,,,,G 58.915,3
59,2.344,,29.688,10.938,21.094,10.156,0.781,1.562,1.562,1.562,,7.031,,2.344,0.781,3.906,0.781,1.562,,3.906,,D 29.688,2
60,1.562,,2.344,3.906,3.906,3.125,,17.188,6.250,15.625,10.156,3.906,0.781,1.562,0.781,7.031,5.469,16.406,,,,I 17.188,1
61,1.587,,3.968,4.762,3.968,,2.381,1.587,11.111,3.175,,2.381,47.619,0.794,2.381,10.317,2.381,1.587,,,,P 47.619,1
62,5.785,,38.017,15.702,0.826,2.479,2.479,,5.785,,,9.091,,3.306,0.826,8.264,4.959,1.653,,0.826,,D 38.017,1
63,,,0.775,3.876,,31.783,2.326,,19.380,,,0.775,,4.651,34.884,0.775,0.775,,,,,R 34.884,5
64,,,0.769,,50.000,,0.769,3.077,,2.308,,,,,,2.308,,0.769,0.769,39.231,,F 50.000,6
65,0.763,,1.527,6.107,2.290,0.763,,,6.870,3.817,,8.397,7.634,3.817,3.053,43.511,9.160,0.763,,1.527,,S 43.511,4
66,35.115,,,,0.763,7.634,,11.450,,3.817,4.580,,0.763,0.763,,3.053,1.527,30.534,,,,A 35.115,5
67,0.763,0.763,1.527,16.794,,,1.527,,6.107,1.527,,2.290,,6.107,2.290,47.328,9.924,2.290,,0.763,,S 47.328,5
68,0.763,4.580,0.763,,1.527,3.817,4.580,0.763,4.580,,1.527,,,12.977,61.069,0.763,0.763,,1.527,,,R 61.069,5
69,3.125,,1.562,7.812,10.938,,,2.344,10.156,3.906,,2.344,37.500,0.781,0.781,9.375,7.812,1.562,,,,P 37.500,1
70,0.763,,5.344,9.924,,3.817,,,22.901,,,13.740,3.053,3.817,3.817,25.191,6.870,0.763,,,,S 25.191,1
71,5.385,,10.000,3.846,0.769,10.769,,1.538,20.769,8.462,0.769,10.000,1.538,6.154,5.385,0.769,10.000,3.077,,0.769,,K 20.769,1
72,1.527,,2.290,25.191,0.763,3.817,0.763,,4.580,4.580,2.290,4.580,0.763,2.290,3.817,20.611,15.267,2.290,0.763,3.817,,E 25.191,1
73,3.077,,7.692,3.077,10.769,0.769,8.462,0.769,2.308,3.077,,13.846,5.385,3.846,8.462,14.615,4.615,3.846,,5.385,,S 14.615,1
74,3.053,6.107,,,38.168,7.634,,,,3.053,,,,,,38.931,1.527,,1.527,,,S 38.931,6
75,6.061,,0.758,11.364,1.515,,0.758,3.030,,3.030,0.758,0.758,18.939,,1.515,28.788,19.697,1.515,,1.515,,S 28.788,3
76,,,,,1.515,,,,,90.909,5.303,,0.758,,,,,1.515,,,,L 90.909,8
77,1.515,,1.515,7.576,0.758,0.758,0.758,12.879,10.606,0.758,0.758,12.121,,4.545,5.303,3.788,31.818,3.788,,0.758,,T 31.818,3
78,,,,,,,,36.364,,40.152,3.788,,,,,0.758,,18.939,,,,L 40.152,7
79,2.273,,3.788,20.455,,3.030,3.788,1.515,11.364,2.273,,6.061,1.515,13.636,3.030,14.394,12.121,0.758,,,,E 20.455,2
80,3.030,,0.758,0.758,,1.515,1.515,,6.818,3.788,,10.606,6.061,3.030,6.061,51.515,3.030,0.758,,0.758,,S 51.515,4
81,45.455,,,,,0.758,,0.758,,23.485,0.758,,3.030,,,3.788,11.364,10.606,,,,A 45.455,3
82,4.545,,0.758,31.818,,0.758,3.788,2.273,9.091,5.303,,5.303,,8.333,2.273,16.667,6.061,3.030,,,,E 31.818,3
83,9.091,,,2.273,0.758,,0.758,2.273,5.303,17.424,1.515,,31.061,7.576,3.030,3.788,9.091,5.303,,0.758,,P 31.061,1
84,5.303,,0.758,23.485,,15.152,,,3.030,,,20.455,,,3.788,23.485,4.545,,,,,ES 23.485,4
85,,,59.848,0.758,,,6.818,,,,,,1.515,28.788,,0.758,,,,0.758,0.757575757575758,D 59.848,8
86,1.504,,,4.511,,1.504,,0.752,0.752,1.504,0.752,,,,,54.135,34.586,,,,,S 54.135,8
87,53.383,,,,,10.526,,,,,,,0.752,,0.752,34.586,,,,,,A 53.383,8
88,1.504,,1.504,,5.263,,,3.008,,24.812,7.519,,,2.256,,0.752,6.015,47.368,,,,V 47.368,3
89,,,,,1.504,,,0.752,,0.752,,,0.752,,,,,,0.752,95.489,,Y 95.489,8
90,,,,,50.370,,,0.741,,38.519,0.741,,,,0.741,,,,,8.889,,F 50.370,4
91,,100.000,,,,,,,,,,,,,,,,,,,,C 100.000,9
92,82.222,0.741,,,,3.704,,,,1.481,,,0.741,,0.741,7.407,2.222,,0.741,,,A 82.222,8
93,15.672,0.746,0.746,1.493,0.746,1.493,,,,1.493,0.746,,,,,67.910,5.224,2.985,0.746,,,S 67.910,7
94,1.493,,,0.746,,8.955,,2.239,3.731,,2.239,,0.746,2.985,7.463,63.433,1.493,,2.985,1.493,,S 63.433,4
95,2.985,1.493,14.925,3.731,2.985,2.985,2.239,,2.239,17.164,0.746,2.985,5.970,10.448,8.955,6.716,5.970,5.224,0.746,1.493,,L 17.164,1
96,8.397,0.763,8.397,1.527,2.290,18.321,4.580,1.527,2.290,4.580,0.763,3.053,6.107,2.290,3.817,10.687,12.214,3.817,3.053,0.763,0.763358778625954,G 18.321,1
97,4.839,4.839,2.419,4.032,,19.355,1.613,4.032,1.613,4.032,,4.839,4.839,3.226,4.839,8.065,12.903,6.452,5.645,2.419,,G 19.355,1
98,6.604,4.717,6.604,1.887,0.943,18.868,1.887,0.943,1.887,8.491,,5.660,,4.717,5.660,13.208,6.604,8.491,0.943,1.887,,G 18.868,1
99,8.451,4.225,1.408,2.817,1.408,15.493,1.408,,1.408,7.042,,8.451,2.817,4.225,5.634,11.268,11.268,8.451,1.408,2.817,,G 15.493,1
100,2.941,2.941,,,1.961,13.725,3.922,1.961,1.961,,,24.510,6.863,2.941,3.922,8.824,12.745,1.961,0.980,7.843,,N 24.510,1
101,5.882,0.735,13.971,10.294,0.735,9.559,0.735,,,,,12.500,1.471,5.147,1.471,4.412,13.971,,,19.118,,Y 19.118,1
102,3.676,,5.147,41.912,,0.735,0.735,2.206,5.147,2.206,0.735,0.735,8.824,6.618,1.471,2.941,15.441,,,1.471,,E 41.912,1
103,21.324,,,,2.206,,0.735,0.735,1.471,22.794,0.735,,,32.353,0.735,0.735,0.735,8.088,0.735,6.618,,Q 32.353,1
104,,0.735,,,22.794,,13.235,3.676,,1.471,,2.206,,0.735,,,5.882,1.471,,47.059,0.735294117647059,Y 47.059,1
105,,,,,97.059,,0.735,,,0.735,,0.735,,,,0.735,,,,,,F 97.059,9
106,,0.735,,,,97.059,,0.735,,,,,,,,1.471,,,,,,G 97.059,9
107,5.882,,5.882,15.441,,4.412,0.735,,8.088,0.735,0.735,4.412,33.088,6.618,1.471,9.559,1.471,,0.735,,0.735294117647059,P 33.088,1
108,,,,,,98.529,,,,,,,,,1.471,,,,,,,G 98.529,9
109,,,,,,,,,,,,,,,,11.765,88.235,,,,,T 88.235,8
110,,,,,,,,,35.294,1.471,,,0.735,2.941,55.147,1.471,1.471,,1.471,,,R 55.147,5
111,0.735,,,,,,,0.735,,97.794,,,,,,,,0.735,,,,L 97.794,9
112,,,0.735,,,,,0.735,,4.412,0.735,,0.735,0.735,,13.235,76.471,2.206,,,,T 76.471,6
113,,,,,0.735,,,4.412,,0.735,,,,,,,,94.118,,,,V 94.118,9
114,,,,,,,,3.704,,56.296,0.741,,0.741,0.741,,0.741,12.593,24.444,,,,L 56.296,1
115,0.735,,27.206,63.235,,6.618,,,,,,,,0.735,0.735,,,0.735,,,,E 63.235,6
116,2.273,,77.273,3.030,,,,,6.061,,,3.788,4.545,,,0.758,2.273,,,,,D 77.273,7
117,,,2.273,,,11.364,,,,76.515,,8.333,,,,0.758,,0.758,,,,L 76.515,7
118,1.481,,3.704,1.481,,,0.741,5.185,32.593,2.222,,12.593,,9.630,5.926,21.481,,2.222,,0.741,,K 32.593,1
119,0.735,,2.206,6.618,,,,1.471,27.941,,,31.618,4.412,3.676,15.441,1.471,3.676,0.735,,,,N 31.618,2
120,,0.735,,0.735,,,,7.353,0.735,,,,2.206,,,,0.735,87.500,,,,V 87.500,8
121,0.735,,,0.735,38.971,,12.500,4.412,5.147,0.735,,2.206,,1.471,1.471,3.676,26.471,1.471,,,,F 38.971,5
122,2.941,,,5.147,,0.735,0.735,0.735,1.471,0.735,,1.471,83.088,,,2.941,,,,,,P 83.088,6
123,,,,,,,,,,,,,98.529,,,0.735,,0.735,,,,P 98.529,9
124,2.206,,1.471,27.206,,,,,36.765,,0.735,4.412,,2.206,2.206,2.206,20.588,,,,,K 36.765,4
125,,,,,,,,,,0.735,,,,,,,,99.265,,,,V 99.265,9
126,60.294,,,0.735,,,,,10.294,,,,,2.206,1.471,7.353,15.441,2.206,,,,A 60.294,7
127,,,,,,,,13.235,,10.294,0.735,,,,,,,75.735,,,,V 75.735,8
128,,,,,86.765,,,,,13.235,,,,,,,,,,,,F 86.765,9
129,3.676,,0.735,75.000,,,,,1.471,,,,4.412,2.941,2.941,6.618,0.735,,0.735,0.735,,E 75.000,7
130,0.735,,,,,,,,,,,,99.265,,,,,,,,,P 99.265,9
131,,,,,,,,,,,,0.735,,,,99.265,,,,,,S 99.265,9
132,3.676,,,76.471,,,,,12.500,,,,3.676,,,2.206,0.735,0.735,,,,E 76.471,7
133,62.500,,0.735,2.941,,,2.206,,8.088,0.735,,1.471,,5.882,2.941,,11.029,1.471,,,,A 62.500,6
134,,,,99.265,,,,,,,,,,,,,,0.735,,,,E 99.265,9
135,,14.706,,,,,,80.147,,2.206,,,,0.735,,,0.735,1.471,,,,I 80.147,8
136,8.824,,0.735,1.471,,4.412,,,5.882,,,1.471,,6.618,6.618,63.235,0.735,,,,,S 63.235,7
137,,,5.926,4.444,,2.222,28.889,,2.222,,,13.333,,5.185,35.556,2.222,,,,,,R 35.556,5
138,0.758,,,2.273,,,0.758,1.515,26.515,,,,,,,,67.424,0.758,,,,T 67.424,8
139,0.735,,0.735,0.735,,3.676,,,10.294,2.206,,2.941,,69.118,8.088,1.471,,,,,,Q 69.118,7
140,,,,,,,,,95.588,,,0.735,,,2.206,0.735,,,,0.735,,K 95.588,9
141,84.559,,,,,,,,14.706,0.735,,,,,,,,,,,,A 84.559,9
142,,,,,,,,,,,,,,,,0.735,99.265,,,,,T 99.265,9
143,,,,,,,,3.676,,96.324,,,,,,,,,,,,L 96.324,9
144,1.471,,,,,,,,,1.471,,,,,,,,97.059,,,,V 97.059,9
145,,100.000,,,,,,,,,,,,,,,,,,,,C 100.000,9
146,,,,,,,,,,86.029,,,,,,,,13.971,,,,L 86.029,9
147,97.059,,,,,,,0.735,,1.471,,,,,,,,0.735,,,,A 97.059,9
148,,,,,,,,,0.735,,,,,,7.353,19.118,72.794,,,,,T 72.794,8
149,,,7.353,0.735,,88.235,,,,,,2.206,,,1.471,,,,,,,G 88.235,6
150,,,,,100.000,,,,,,,,,,,,,,,,,F 100.000,9
151,,,,,13.971,,1.471,,,,,,,,,,,,,84.559,,Y 84.559,8
152,,,,,,,,,,,,,100.000,,,,,,,,,P 100.000,9
153,,,97.059,0.735,,0.735,,,,,,,1.471,,,,,,,,,D 97.059,9
154,0.735,,,,,1.471,97.059,,,0.735,,,,,,,,,,,,H 97.059,9
155,,,,,1.471,,,2.206,,4.412,,,,,,,,91.912,,,,V 91.912,9
156,,,0.735,75.735,,0.735,,,2.206,,,2.941,,0.735,0.735,9.559,6.618,,,,,E 75.735,8
157,,,,,0.741,,,0.741,,83.704,,,,,,,,14.815,,,,L 83.704,9
158,1.481,,,,4.444,,,,1.481,1.481,,,,0.741,,71.111,13.333,3.704,,2.222,,S 71.111,8
159,,,,,,,,,,,,,,,,,,,100.000,,,W 100.000,9
160,,,,2.985,,,,,7.463,,2.985,0.746,,6.716,0.746,0.746,0.746,,74.627,2.239,,W 74.627,7
161,0.752,,0.752,,,,,4.511,1.504,4.511,3.008,,,,1.504,,,82.707,,,0.75187969924812,V 82.707,7
162,,,4.511,,,,,,0.752,,,94.737,,,,,,,,,,N 94.737,9
163,,,1.504,4.511,,79.699,,,0.752,,,0.752,,,12.030,,,,,,0.75187969924812,G 79.699,6
164,0.752,,,3.008,,0.752,,,80.451,,,2.256,,4.511,,0.752,1.504,6.015,,,,K 80.451,7
165,,,1.504,65.414,,1.504,,,4.511,,,6.767,0.752,14.286,,0.752,3.759,0.752,,,,E 65.414,7
166,2.256,,,,,,,6.767,,0.752,,,,0.752,6.767,,5.263,77.444,,,,V 77.444,7
167,0.752,,0.752,0.752,,,46.617,,3.008,,,0.752,,3.759,11.278,3.759,28.571,,,,,H 46.617,6
168,0.752,,12.030,6.015,,0.752,,0.752,3.759,,,6.015,,,,57.143,12.782,,,,,S 57.143,7
169,,,,,,99.242,,,,,,,,,0.758,,,,,,,G 99.242,9
170,0.758,,,,1.515,,,,,,,,,,,,,97.727,,,,V 97.727,9
171,13.636,21.212,,2.273,,5.303,,,3.030,,,,,,,54.545,,,,,,S 54.545,7
172,,,,,,,,,,,,,,,,0.752,99.248,,,,,T 99.248,9
173,,,94.737,1.504,,0.752,,,,,,,,0.752,,,2.256,,,,,D 94.737,9
174,2.256,,1.504,8.271,,1.504,0.752,0.752,2.256,1.504,,2.256,72.932,,,5.263,0.752,,,,,P 72.932,6
175,13.534,,,15.789,2.256,,,1.504,0.752,,,1.504,3.008,59.398,0.752,1.504,,,,,,Q 59.398,7
176,23.308,,,,,,,,,,,,66.917,0.752,,6.015,1.504,1.504,,,,P 66.917,8
177,,,,1.538,0.769,,0.769,1.538,6.154,43.077,,,,1.538,2.308,1.538,8.462,0.769,,31.538,,L 43.077,4
178,,,0.769,2.308,,,0.769,,75.385,1.538,,,,3.077,12.308,2.308,,,1.538,,,K 75.385,7
179,,,3.101,75.194,,3.101,0.775,1.550,0.775,,,6.977,0.775,0.775,,0.775,3.101,0.775,,2.326,,E 75.194,7
180,,1.802,16.216,5.405,,,2.703,,3.604,1.802,,0.901,2.703,54.955,1.802,6.306,1.802,,,,,Q 54.955,5
181,,,2.062,1.031,,,,1.031,,1.031,,,82.474,,,6.186,6.186,,,,,P 82.474,5
182,71.579,,2.105,,,10.526,1.053,,2.105,,,4.211,2.105,,,4.211,2.105,,,,,A 71.579,4
183,4.348,,3.261,2.174,,,,,,44.565,,5.435,,2.174,17.391,1.087,1.087,18.478,,,,L 44.565,1
184,,,15.152,3.030,,,,,2.020,,,69.697,2.020,2.020,,6.061,,,,,,N 69.697,6
185,0.763,,60.305,1.527,,12.214,1.527,,2.290,,,16.031,0.763,,,0.763,1.527,2.290,,,,D 60.305,6
186,,,1.527,,,1.527,,2.290,6.107,,,1.527,,0.763,0.763,74.046,5.344,1.527,,4.580,,S 74.046,7
187,,,,0.763,1.527,,0.763,,16.031,2.290,0.763,1.527,,,41.985,18.321,12.977,1.527,,1.527,,R 41.985,3
188,,,,,,,,,,,,,,,,,,,,100.000,,Y 100.000,9
189,22.137,43.511,,,0.763,,,,3.817,,,,,,9.160,18.321,0.763,0.763,,0.763,,C 43.511,3
190,0.763,,,,,,,16.794,,80.153,2.290,,,,,,,,,,,L 80.153,8
191,,,,,,,,1.527,,,,,,,,80.153,18.321,,,,,S 80.153,9
192,,,,,,,,,,,,,,,,100.000,,,,,,S 100.000,9
193,,,,,,,,,,1.527,,,,,97.710,,,,,0.763,,R 97.710,9
194,,,,,,,,0.763,,99.237,,,,,,,,,,,,L 99.237,9
195,,,,,,,,,0.763,,0.763,,,,93.893,2.290,2.290,,,,,R 93.893,9
196,,,,,,,,6.107,,3.053,0.763,,,,,,,90.076,,,,V 90.076,9
197,0.763,,,0.763,,,0.763,,,0.763,,0.763,6.107,0.763,1.527,70.229,16.031,,,1.527,,S 70.229,7
198,89.313,,,1.527,0.763,,,0.763,0.763,1.527,,,0.763,,0.763,3.817,,,,,,A 89.313,8
199,20.611,,2.290,6.107,,,,,7.634,,,1.527,3.053,3.053,0.763,3.053,50.382,,1.527,,,T 50.382,6
200,,,6.107,11.450,75.573,,,,,0.763,,,,3.817,,,2.290,,,,,F 75.573,8
201,,,,,,,,,,,,,,,,,,,97.710,2.290,,W 97.710,9
202,,,,1.575,11.024,,47.244,,,3.150,,3.150,,31.496,0.787,,,,,1.575,,H 47.244,5
203,,,3.817,,,,,0.763,4.580,,,84.733,,,0.763,,5.344,,,,,N 84.733,8
204,,,,0.763,,,,,1.527,1.527,,,90.840,,,5.344,,,,,,P 90.840,8
205,,,6.107,3.053,,6.107,0.763,,2.290,4.580,,1.527,,,74.809,,0.763,,,,,R 74.809,7
206,,,,,,,,1.527,3.817,,,91.603,,,0.763,0.763,1.527,,,,,N 91.603,9
207,,,0.763,3.817,,,74.046,0.763,4.580,,0.763,3.817,,,5.344,0.763,3.817,0.763,,0.763,,H 74.046,7
208,,,,,99.237,,,,,,,,,,,,,,,0.763,,F 99.237,9
209,,,,6.107,,,1.527,,4.580,,0.763,,,,74.809,3.817,6.107,2.290,,,,R 74.809,7
210,,100.000,,,,,,,,,,,,,,,,,,,,C 100.000,9
211,,,,,0.763,,0.763,8.397,,0.763,,1.527,,77.099,,3.053,2.290,3.817,,0.763,0.763358778625954,Q 77.099,8
212,5.344,,,,,,,1.527,,,,,,,,,0.763,92.366,,,,V 92.366,9
213,,,,1.527,,1.527,1.527,,0.763,,,5.344,,75.573,,10.687,2.290,0.763,,,,Q 75.573,8
214,,,,,97.710,,0.763,,,1.527,,,,,,,,,,,,F 97.710,9
215,,,0.763,0.763,17.557,,20.611,,,,,,,,0.763,,,,,59.542,,Y 59.542,4
216,,,3.200,,,80.800,,,,,,12.000,0.800,1.600,,0.800,0.800,,,,,G 80.800,8
217,,0.893,,0.893,,5.357,,1.786,,87.500,,0.893,,,1.786,,0.893,,,,,L 87.500,7
218,0.935,,1.869,2.804,,4.673,,,,,,0.935,,,,60.748,28.037,,,,,S 60.748,6
219,2.830,,22.642,69.811,,0.943,,,3.774,,,,,,,,,,,,,E 69.811,7
220,,,25.472,16.981,,0.943,,,1.887,,,39.623,,14.151,,,0.943,,,,,N 39.623,5
221,,,96.040,0.990,,0.990,,,,,,0.990,,,,0.990,,,,,,D 96.040,9
222,,,1.000,62.000,,,,,8.000,,,4.000,3.000,20.000,1.000,,1.000,,,,,E 62.000,6
223,,,1.010,,,,,,,,,,,,,,,,98.990,,,W 98.990,9
224,,,3.061,19.388,,,,,3.061,,,2.041,6.122,5.102,,4.082,57.143,,,,,T 57.143,4
225,,,2.041,14.286,,,,,1.020,2.041,,,1.020,67.347,,2.041,,,1.020,9.184,,Q 67.347,5
226,1.020,,57.143,,,8.163,,2.041,,,,11.224,18.367,,,,2.041,,,,,D 57.143,1
227,,,,3.061,,2.041,,,,,,1.020,,,79.592,11.224,,,3.061,,,R 79.592,7
228,72.449,,1.020,,,2.041,,,,,,1.020,12.245,,,2.041,8.163,1.020,,,,A 72.449,5
229,,,,1.020,,,,,92.857,1.020,1.020,,1.020,,3.061,,,,,,,K 92.857,8
230,,,,,,,,,,,,,100.000,,,,,,,,,P 100.000,9
231,,,,,,,,33.673,,,,,,,,1.020,,65.306,,,,V 65.306,4
232,,,,,,,,,,,,,1.020,,,,98.980,,,,,T 98.980,9
233,,,,,,,,,,,,,,98.980,1.020,,,,,,,Q 98.980,9
234,,,,,,,,37.755,11.224,,,48.980,,,,1.020,1.020,,,,,N 48.980,6
235,,,,,,,,33.673,,,,,,,,1.020,,65.306,,,,V 65.306,7
236,1.020,,,,,,,,,,,,,,,98.980,,,,,,S 98.980,9
237,98.980,,1.020,,,,,,,,,,,,,,,,,,,A 98.980,9
238,,,3.061,93.878,,1.020,1.020,,,,,,,1.020,,,,,,,,E 93.878,9
239,86.735,,,,,,,1.020,,,,,,,,,7.143,5.102,,,,A 86.735,7
240,,,,,,,,,,,,,,,1.031,1.031,,,97.938,,,W 97.938,8
241,,1.031,,,,98.969,,,,,,,,,,,,,,,,G 98.969,9
242,,,,,,,2.062,,5.155,,,,,,90.722,2.062,,,,,,R 90.722,7
243,97.938,,,,,,,,,,,,,,,2.062,,,,,,A 97.938,9
244,,,98.780,1.220,,,,,,,,,,,,,,,,,,D 98.780,9
