c<A>r<333>a<2450>R<LYS>A<NZ> 1
c<A>r<335>a<2461>R<SER>A<CB> 1
c<A>r<350>a<2571>R<ASP>A<O> 1
c<A>r<350>a<2573>R<ASP>A<CG> 2
c<A>r<350>a<2574>R<ASP>A<OD1> 1
c<A>r<350>a<2575>R<ASP>A<OD2> 1
c<A>r<352>a<2580>R<ASP>A<N> 1
c<A>r<352>a<2585>R<ASP>A<CG> 1
c<A>r<352>a<2586>R<ASP>A<OD1> 1
c<A>r<352>a<2587>R<ASP>A<OD2> 1
c<A>r<353>a<2592>R<SER>A<CB> 1
c<A>r<353>a<2593>R<SER>A<OG> 1
c<A>r<357>a<2624>R<ARG>A<CB> 2
c<A>r<357>a<2626>R<ARG>A<CD> 1
c<A>r<357>a<2627>R<ARG>A<NE> 1
c<A>r<357>a<2628>R<ARG>A<CZ> 1
c<A>r<357>a<2630>R<ARG>A<NH2> 1
c<A>r<363>a<2681>R<MET>A<O> 1
c<A>r<364>a<2687>R<ARG>A<CA> 1
c<A>r<364>a<2689>R<ARG>A<O> 1
c<A>r<364>a<2691>R<ARG>A<CG> 1
c<A>r<364>a<2692>R<ARG>A<CD> 1
c<A>r<364>a<2693>R<ARG>A<NE> 1
c<A>r<364>a<2695>R<ARG>A<NH1> 1
c<A>r<365>a<2698>R<TYR>A<CA> 1
c<A>r<365>a<2702>R<TYR>A<CG> 2
c<A>r<365>a<2703>R<TYR>A<CD1> 2
c<A>r<365>a<2704>R<TYR>A<CD2> 1
c<A>r<365>a<2705>R<TYR>A<CE1> 1
c<A>r<365>a<2706>R<TYR>A<CE2> 1
c<A>r<365>a<2707>R<TYR>A<CZ> 2
c<A>r<365>a<2708>R<TYR>A<OH> 1
c<A>r<366>a<2709>R<GLU>A<N> 1
c<A>r<366>a<2712>R<GLU>A<O> 1
c<A>r<366>a<2714>R<GLU>A<CG> 1
c<A>r<366>a<2717>R<GLU>A<OE2> 1
c<A>r<367>a<2722>R<HIS>A<CB> 1
c<A>r<367>a<2723>R<HIS>A<CG> 2
c<A>r<367>a<2724>R<HIS>A<ND1> 1
c<A>r<367>a<2725>R<HIS>A<CD2> 2
c<A>r<367>a<2726>R<HIS>A<CE1> 2
c<A>r<367>a<2727>R<HIS>A<NE2> 2
c<A>r<368>a<2735>R<ILE>A<CD1> 1
c<A>r<369>a<2742>R<ASP>A<OD1> 1
c<A>r<369>a<2743>R<ASP>A<OD2> 1
c<A>r<389>a<2914>R<GLU>A<CB> 2
c<A>r<389>a<2915>R<GLU>A<CG> 2
c<A>r<389>a<2916>R<GLU>A<CD> 2
c<A>r<389>a<2917>R<GLU>A<OE1> 1
c<A>r<389>a<2918>R<GLU>A<OE2> 1
c<A>r<390>a<2919>R<THR>A<N> 1
c<A>r<390>a<2922>R<THR>A<O> 1
c<A>r<391>a<2927>R<LEU>A<CA> 1
c<A>r<391>a<2930>R<LEU>A<CB> 2
c<A>r<391>a<2931>R<LEU>A<CG> 2
c<A>r<391>a<2932>R<LEU>A<CD1> 1
c<A>r<391>a<2933>R<LEU>A<CD2> 1
c<A>r<392>a<2934>R<GLN>A<N> 1
c<A>r<392>a<2937>R<GLN>A<O> 2
c<A>r<392>a<2938>R<GLN>A<CB> 1
c<A>r<392>a<2939>R<GLN>A<CG> 1
c<A>r<392>a<2942>R<GLN>A<NE2> 1
c<A>r<393>a<2946>R<ASN>A<O> 1
c<A>r<393>a<2947>R<ASN>A<CB> 1
c<A>r<393>a<2948>R<ASN>A<CG> 2
c<A>r<393>a<2950>R<ASN>A<ND2> 1
c<A>r<394>a<2952>R<ALA>A<CA> 1
c<A>r<394>a<2955>R<ALA>A<CB> 1
c<A>r<395>a<2956>R<HIS>A<N> 1
c<A>r<395>a<2958>R<HIS>A<C> 2
c<A>r<395>a<2959>R<HIS>A<O> 1
c<A>r<395>a<2960>R<HIS>A<CB> 1
c<A>r<395>a<2962>R<HIS>A<ND1> 1
c<A>r<396>a<2966>R<SER>A<N> 1
c<A>r<396>a<2970>R<SER>A<CB> 2
c<A>r<396>a<2971>R<SER>A<OG> 1
c<A>r<397>a<2977>R<MET>A<CG> 1
c<A>r<397>a<2978>R<MET>A<SD> 2
c<A>r<397>a<2979>R<MET>A<CE> 1
c<A>r<398>a<2983>R<ALA>A<O> 1
c<A>r<398>a<2984>R<ALA>A<CB> 1
c<A>r<399>a<2987>R<LEU>A<C> 2
c<A>r<399>a<2988>R<LEU>A<O> 1
c<A>r<400>a<2993>R<PRO>A<N> 2
c<A>r<400>a<2994>R<PRO>A<CA> 1
c<A>r<400>a<2997>R<PRO>A<CB> 1
c<A>r<400>a<2998>R<PRO>A<CG> 1
c<A>r<418>a<3149>R<ARG>A<CG> 2
c<A>r<418>a<3150>R<ARG>A<CD> 1
c<A>r<418>a<3151>R<ARG>A<NE> 1
c<A>r<418>a<3152>R<ARG>A<CZ> 2
c<A>r<418>a<3153>R<ARG>A<NH1> 1
c<A>r<418>a<3154>R<ARG>A<NH2> 1
c<A>r<419>a<3161>R<THR>A<CG2> 1
c<A>r<420>a<3162>R<GLY>A<N> 2
c<A>r<420>a<3163>R<GLY>A<CA> 1
c<A>r<420>a<3164>R<GLY>A<C> 2
c<A>r<420>a<3165>R<GLY>A<O> 1
c<A>r<421>a<3173>R<TYR>A<CD2> 2
c<A>r<421>a<3174>R<TYR>A<CE1> 1
c<A>r<421>a<3175>R<TYR>A<CE2> 2
c<A>r<421>a<3176>R<TYR>A<CZ> 1
c<A>r<421>a<3177>R<TYR>A<OH> 1
