c<H>r<27>a<1848>R<ASP>A<OD1> 1
c<H>r<30>a<1866>R<THR>A<C> 2
c<H>r<30>a<1867>R<THR>A<O> 1
c<H>r<30>a<1868>R<THR>A<CB> 2
c<H>r<30>a<1869>R<THR>A<OG1> 1
c<H>r<30>a<1870>R<THR>A<CG2> 1
c<H>r<31>a<1871>R<SER>A<N> 2
c<H>r<31>a<1873>R<SER>A<C> 2
c<H>r<31>a<1874>R<SER>A<O> 2
c<H>r<31>a<1875>R<SER>A<CB> 1
c<H>r<31>a<1876>R<SER>A<OG> 1
c<H>r<32>a<1877>R<ASP>A<N> 1
c<H>r<32>a<1878>R<ASP>A<CA> 2
c<H>r<32>a<1881>R<ASP>A<CB> 1
c<H>r<32>a<1882>R<ASP>A<CG> 1
c<H>r<32>a<1883>R<ASP>A<OD1> 1
c<H>r<32>a<1884>R<ASP>A<OD2> 1
c<H>r<33>a<1885>R<TYR>A<N> 2
c<H>r<33>a<1889>R<TYR>A<CB> 2
c<H>r<33>a<1890>R<TYR>A<CG> 2
c<H>r<33>a<1891>R<TYR>A<CD1> 2
c<H>r<33>a<1892>R<TYR>A<CD2> 2
c<H>r<33>a<1893>R<TYR>A<CE1> 2
c<H>r<33>a<1894>R<TYR>A<CE2> 2
c<H>r<33>a<1895>R<TYR>A<CZ> 2
c<H>r<33>a<1896>R<TYR>A<OH> 2
c<H>r<37>a<1937>R<ILE>A<CG2> 2
c<H>r<37>a<1938>R<ILE>A<CD1> 1
c<H>r<39>a<1956>R<LYS>A<CD> 1
c<H>r<39>a<1957>R<LYS>A<CE> 2
c<H>r<39>a<1958>R<LYS>A<NZ> 1
c<H>r<43>a<1984>R<ASN>A<O> 2
c<H>r<43>a<1987>R<ASN>A<OD1> 1
c<H>r<43>a<1988>R<ASN>A<ND2> 1
c<H>r<44>a<1990>R<ARG>A<CA> 2
c<H>r<44>a<1993>R<ARG>A<CB> 1
c<H>r<45>a<2000>R<LEU>A<N> 1
c<H>r<45>a<2002>R<LEU>A<C> 2
c<H>r<45>a<2003>R<LEU>A<O> 1
c<H>r<45>a<2004>R<LEU>A<CB> 1
c<H>r<45>a<2005>R<LEU>A<CG> 2
c<H>r<45>a<2006>R<LEU>A<CD1> 1
c<H>r<45>a<2007>R<LEU>A<CD2> 2
c<H>r<46>a<2008>R<GLU>A<N> 2
c<H>r<46>a<2009>R<GLU>A<CA> 1
c<H>r<46>a<2010>R<GLU>A<C> 2
c<H>r<47>a<2017>R<TYR>A<N> 1
c<H>r<47>a<2018>R<TYR>A<CA> 2
c<H>r<47>a<2021>R<TYR>A<CB> 1
c<H>r<47>a<2022>R<TYR>A<CG> 2
c<H>r<47>a<2023>R<TYR>A<CD1> 2
c<H>r<47>a<2024>R<TYR>A<CD2> 1
c<H>r<47>a<2025>R<TYR>A<CE1> 1
c<H>r<47>a<2026>R<TYR>A<CE2> 2
c<H>r<47>a<2027>R<TYR>A<CZ> 2
c<H>r<47>a<2028>R<TYR>A<OH> 2
c<H>r<48>a<2032>R<MET>A<O> 1
c<H>r<49>a<2038>R<GLY>A<CA> 2
c<H>r<49>a<2039>R<GLY>A<C> 3
c<H>r<49>a<2040>R<GLY>A<O> 2
c<H>r<50>a<2041>R<TYR>A<N> 2
c<H>r<50>a<2048>R<TYR>A<CD2> 2
c<H>r<50>a<2049>R<TYR>A<CE1> 2
c<H>r<50>a<2050>R<TYR>A<CE2> 2
c<H>r<50>a<2051>R<TYR>A<CZ> 2
c<H>r<50>a<2052>R<TYR>A<OH> 3
c<H>r<52>a<2064>R<SER>A<CB> 3
c<H>r<52>a<2065>R<SER>A<OG> 2
c<H>r<53>a<2066>R<TYR>A<N> 2
c<H>r<53>a<2069>R<TYR>A<O> 2
c<H>r<53>a<2070>R<TYR>A<CB> 1
c<H>r<53>a<2071>R<TYR>A<CG> 1
c<H>r<53>a<2072>R<TYR>A<CD1> 1
c<H>r<53>a<2073>R<TYR>A<CD2> 1
c<H>r<53>a<2074>R<TYR>A<CE1> 1
c<H>r<53>a<2075>R<TYR>A<CE2> 1
c<H>r<53>a<2076>R<TYR>A<CZ> 1
c<H>r<53>a<2077>R<TYR>A<OH> 1
c<H>r<54>a<2082>R<SER>A<CB> 1
c<H>r<54>a<2083>R<SER>A<OG> 1
c<H>r<56>a<2092>R<SER>A<CB> 1
c<H>r<56>a<2093>R<SER>A<OG> 1
c<H>r<58>a<2102>R<TYR>A<CA> 1
c<H>r<58>a<2103>R<TYR>A<C> 2
c<H>r<58>a<2104>R<TYR>A<O> 2
c<H>r<58>a<2105>R<TYR>A<CB> 1
c<H>r<58>a<2106>R<TYR>A<CG> 2
c<H>r<58>a<2107>R<TYR>A<CD1> 2
c<H>r<58>a<2108>R<TYR>A<CD2> 1
c<H>r<58>a<2109>R<TYR>A<CE1> 2
c<H>r<58>a<2110>R<TYR>A<CE2> 1
c<H>r<58>a<2111>R<TYR>A<CZ> 2
c<H>r<58>a<2112>R<TYR>A<OH> 1
c<H>r<59>a<2113>R<TYR>A<N> 1
c<H>r<59>a<2114>R<TYR>A<CA> 2
c<H>r<59>a<2115>R<TYR>A<C> 2
c<H>r<59>a<2116>R<TYR>A<O> 1
c<H>r<60>a<2125>R<ASN>A<N> 2
c<H>r<60>a<2126>R<ASN>A<CA> 2
c<H>r<60>a<2129>R<ASN>A<CB> 2
c<H>r<60>a<2130>R<ASN>A<CG> 2
c<H>r<60>a<2131>R<ASN>A<OD1> 1
c<H>r<60>a<2132>R<ASN>A<ND2> 1
c<H>r<61>a<2137>R<PRO>A<CB> 1
c<H>r<61>a<2138>R<PRO>A<CG> 1
c<H>r<61>a<2139>R<PRO>A<CD> 1
c<H>r<62>a<2140>R<SER>A<N> 1
c<H>r<62>a<2145>R<SER>A<OG> 1
c<H>r<94>a<2405>R<TYR>A<CD2> 2
c<H>r<94>a<2406>R<TYR>A<CE1> 2
c<H>r<94>a<2407>R<TYR>A<CE2> 2
c<H>r<94>a<2408>R<TYR>A<CZ> 2
c<H>r<94>a<2409>R<TYR>A<OH> 1
c<H>r<98>a<2432>R<TRP>A<O> 1
c<H>r<98>a<2433>R<TRP>A<CB> 1
c<H>r<98>a<2434>R<TRP>A<CG> 2
c<H>r<98>a<2435>R<TRP>A<CD1> 1
c<H>r<98>a<2436>R<TRP>A<CD2> 2
c<H>r<98>a<2437>R<TRP>A<NE1> 1
c<H>r<98>a<2438>R<TRP>A<CE2> 1
c<H>r<98>a<2440>R<TRP>A<CZ2> 1
c<H>r<98>a<2441>R<TRP>A<CZ3> 2
c<H>r<98>a<2442>R<TRP>A<CH2> 2
c<H>r<99>a<2444>R<ASP>A<CA> 2
c<H>r<99>a<2445>R<ASP>A<C> 2
c<H>r<99>a<2446>R<ASP>A<O> 1
c<H>r<99>a<2447>R<ASP>A<CB> 1
c<H>r<99>a<2448>R<ASP>A<CG> 2
c<H>r<99>a<2449>R<ASP>A<OD1> 1
c<H>r<99>a<2450>R<ASP>A<OD2> 1
c<H>r<100>a<2451>R<GLY>A<N> 2
c<H>r<100>a<2452>R<GLY>A<CA> 2
c<H>r<100>a<2453>R<GLY>A<C> 2
c<H>r<100>a<2454>R<GLY>A<O> 1
c<H>r<101>a<2455>R<ASP>A<N> 2
c<H>r<101>a<2456>R<ASP>A<CA> 1
c<H>r<101>a<2458>R<ASP>A<O> 1
c<H>r<101>a<2459>R<ASP>A<CB> 1
c<H>r<101>a<2460>R<ASP>A<CG> 1
c<H>r<101>a<2461>R<ASP>A<OD1> 1
c<H>r<101>a<2462>R<ASP>A<OD2> 1
c<H>r<102>a<2474>R<TYR>A<OH> 1
c<H>r<103>a<2475>R<TRP>A<N> 1
c<H>r<103>a<2477>R<TRP>A<C> 1
c<H>r<103>a<2479>R<TRP>A<CB> 1
c<H>r<103>a<2480>R<TRP>A<CG> 2
c<H>r<103>a<2481>R<TRP>A<CD1> 1
c<H>r<103>a<2482>R<TRP>A<CD2> 2
c<H>r<103>a<2483>R<TRP>A<NE1> 2
c<H>r<103>a<2484>R<TRP>A<CE2> 2
c<H>r<103>a<2485>R<TRP>A<CE3> 2
c<H>r<103>a<2486>R<TRP>A<CZ2> 1
c<H>r<103>a<2487>R<TRP>A<CZ3> 2
c<H>r<103>a<2488>R<TRP>A<CH2> 1
c<H>r<104>a<2489>R<GLY>A<N> 1
c<H>r<104>a<2491>R<GLY>A<C> 1
c<H>r<104>a<2492>R<GLY>A<O> 1
c<H>r<105>a<2494>R<GLN>A<CA> 1
c<H>r<105>a<2496>R<GLN>A<O> 1
c<H>r<122>a<2612>R<TYR>A<CB> 1
c<H>r<122>a<2613>R<TYR>A<CG> 2
c<H>r<122>a<2614>R<TYR>A<CD1> 1
c<H>r<122>a<2615>R<TYR>A<CD2> 1
c<H>r<122>a<2616>R<TYR>A<CE1> 1
c<H>r<122>a<2617>R<TYR>A<CE2> 1
c<H>r<122>a<2618>R<TYR>A<CZ> 2
c<H>r<122>a<2619>R<TYR>A<OH> 1
c<H>r<123>a<2620>R<PRO>A<N> 2
c<H>r<123>a<2623>R<PRO>A<O> 1
c<H>r<123>a<2625>R<PRO>A<CG> 1
c<H>r<123>a<2626>R<PRO>A<CD> 2
c<H>r<124>a<2628>R<LEU>A<CA> 2
c<H>r<124>a<2629>R<LEU>A<C> 2
c<H>r<124>a<2630>R<LEU>A<O> 2
c<H>r<124>a<2631>R<LEU>A<CB> 2
c<H>r<124>a<2632>R<LEU>A<CG> 2
c<H>r<124>a<2633>R<LEU>A<CD1> 1
c<H>r<124>a<2634>R<LEU>A<CD2> 1
c<H>r<125>a<2635>R<ALA>A<N> 1
c<H>r<125>a<2637>R<ALA>A<C> 2
c<H>r<125>a<2638>R<ALA>A<O> 1
c<H>r<126>a<2640>R<PRO>A<N> 2
c<H>r<126>a<2641>R<PRO>A<CA> 1
c<H>r<126>a<2644>R<PRO>A<CB> 1
c<H>r<126>a<2646>R<PRO>A<CD> 2
c<H>r<127>a<2647>R<GLY>A<N> 1
c<H>r<127>a<2648>R<GLY>A<CA> 1
c<H>r<129>a<2661>R<ALA>A<CB> 1
c<H>r<130>a<2664>R<ALA>A<C> 1
c<H>r<130>a<2665>R<ALA>A<O> 1
c<H>r<131>a<2667>R<GLN>A<N> 1
c<H>r<131>a<2668>R<GLN>A<CA> 1
c<H>r<131>a<2669>R<GLN>A<C> 1
c<H>r<131>a<2671>R<GLN>A<CB> 1
c<H>r<131>a<2674>R<GLN>A<OE1> 1
c<H>r<132>a<2676>R<THR>A<N> 1
c<H>r<132>a<2680>R<THR>A<CB> 1
c<H>r<132>a<2682>R<THR>A<CG2> 1
c<H>r<135>a<2700>R<MET>A<O> 1
c<H>r<137>a<2715>R<THR>A<O> 1
c<H>r<137>a<2716>R<THR>A<CB> 1
c<H>r<137>a<2717>R<THR>A<OG1> 1
c<H>r<137>a<2718>R<THR>A<CG2> 1
c<H>r<138>a<2720>R<LEU>A<CA> 2
c<H>r<138>a<2721>R<LEU>A<C> 2
c<H>r<138>a<2722>R<LEU>A<O> 2
c<H>r<139>a<2727>R<GLY>A<N> 3
c<H>r<139>a<2728>R<GLY>A<CA> 2
c<H>r<140>a<2731>R<CYS>A<N> 2
c<H>r<140>a<2734>R<CYS>A<O> 2
c<H>r<141>a<2743>R<LEU>A<CD1> 1
c<H>r<141>a<2744>R<LEU>A<CD2> 1
c<H>r<143>a<2758>R<LYS>A<CD> 1
c<H>r<143>a<2759>R<LYS>A<CE> 1
c<H>r<143>a<2760>R<LYS>A<NZ> 1
c<H>r<164>a<2912>R<HIS>A<CB> 1
c<H>r<164>a<2913>R<HIS>A<CG> 2
c<H>r<164>a<2914>R<HIS>A<ND1> 1
c<H>r<164>a<2915>R<HIS>A<CD2> 1
c<H>r<164>a<2916>R<HIS>A<CE1> 1
c<H>r<164>a<2917>R<HIS>A<NE2> 1
c<H>r<165>a<2918>R<THR>A<N> 1
c<H>r<165>a<2920>R<THR>A<C> 2
c<H>r<165>a<2921>R<THR>A<O> 1
c<H>r<166>a<2925>R<PHE>A<N> 2
c<H>r<166>a<2926>R<PHE>A<CA> 2
c<H>r<166>a<2929>R<PHE>A<CB> 1
c<H>r<166>a<2930>R<PHE>A<CG> 2
c<H>r<166>a<2931>R<PHE>A<CD1> 2
c<H>r<166>a<2932>R<PHE>A<CD2> 2
c<H>r<166>a<2933>R<PHE>A<CE1> 2
c<H>r<166>a<2934>R<PHE>A<CE2> 2
c<H>r<166>a<2935>R<PHE>A<CZ> 2
c<H>r<167>a<2936>R<PRO>A<N> 2
c<H>r<167>a<2939>R<PRO>A<O> 1
c<H>r<167>a<2941>R<PRO>A<CG> 1
c<H>r<167>a<2942>R<PRO>A<CD> 1
c<H>r<168>a<2946>R<ALA>A<O> 1
c<H>r<169>a<2951>R<VAL>A<O> 1
c<H>r<169>a<2952>R<VAL>A<CB> 2
c<H>r<169>a<2953>R<VAL>A<CG1> 1
c<H>r<169>a<2954>R<VAL>A<CG2> 1
c<H>r<171>a<2967>R<GLN>A<CB> 1
c<H>r<176>a<3009>R<THR>A<O> 1
c<H>r<176>a<3011>R<THR>A<OG1> 1
c<H>r<176>a<3012>R<THR>A<CG2> 1
c<H>r<178>a<3025>R<SER>A<CB> 1
c<H>r<178>a<3026>R<SER>A<OG> 1
c<H>r<179>a<3027>R<SER>A<N> 2
c<H>r<179>a<3029>R<SER>A<C> 3
c<H>r<179>a<3030>R<SER>A<O> 3
c<H>r<180>a<3035>R<SER>A<C> 1
c<H>r<180>a<3036>R<SER>A<O> 1
c<H>r<180>a<3037>R<SER>A<CB> 1
c<H>r<180>a<3038>R<SER>A<OG> 2
c<H>r<181>a<3039>R<VAL>A<N> 1
c<H>r<181>a<3041>R<VAL>A<C> 1
c<H>r<182>a<3046>R<THR>A<N> 1
c<H>r<182>a<3050>R<THR>A<CB> 1
c<H>r<182>a<3052>R<THR>A<CG2> 1
c<H>r<208>a<3238>R<LYS>A<CE> 1
c<H>r<208>a<3239>R<LYS>A<NZ> 1
c<H>r<209>a<3248>R<LYS>A<NZ> 1
c<H>r<213>a<3279>R<ARG>A<CZ> 1
c<H>r<213>a<3280>R<ARG>A<NH1> 1
c<H>r<213>a<3281>R<ARG>A<NH2> 1
c<H>r<215>a<3290>R<CYS>A<N> 1
c<H>r<215>a<3291>R<CYS>A<CA> 1
c<H>r<215>a<3292>R<CYS>A<C> 2
c<H>r<215>a<3293>R<CYS>A<O> 1
c<H>r<215>a<3294>R<CYS>A<CB> 1
c<H>r<215>a<3295>R<CYS>A<SG> 1
c<H>r<215>a<3296>R<CYS>A<OXT> 1
