c<E>r<32>a<234>R<ASP>A<OD1> 2
c<E>r<33>a<240>R<SER>A<CB> 2
c<E>r<62>a<449>R<ASN>A<O> 1
c<E>r<62>a<451>R<ASN>A<CG> 2
c<E>r<62>a<452>R<ASN>A<OD1> 1
c<E>r<62>a<453>R<ASN>A<ND2> 1
c<E>r<63>a<459>R<SER>A<OG> 1
c<E>r<64>a<464>R<HIS>A<CB> 1
c<E>r<64>a<465>R<HIS>A<CG> 2
c<E>r<64>a<466>R<HIS>A<ND1> 2
c<E>r<64>a<467>R<HIS>A<CD2> 2
c<E>r<64>a<468>R<HIS>A<CE1> 3
c<E>r<64>a<469>R<HIS>A<NE2> 3
c<E>r<96>a<680>R<LEU>A<CB> 2
c<E>r<96>a<682>R<LEU>A<CD1> 2
c<E>r<96>a<683>R<LEU>A<CD2> 3
c<E>r<99>a<694>R<ASP>A<CA> 1
c<E>r<99>a<696>R<ASP>A<O> 1
c<E>r<99>a<697>R<ASP>A<CB> 1
c<E>r<99>a<698>R<ASP>A<CG> 2
c<E>r<99>a<699>R<ASP>A<OD1> 2
c<E>r<99>a<700>R<ASP>A<OD2> 1
c<E>r<100>a<702>R<GLY>A<CA> 1
c<E>r<100>a<703>R<GLY>A<C> 2
c<E>r<100>a<704>R<GLY>A<O> 2
c<E>r<101>a<706>R<SER>A<CA> 2
c<E>r<101>a<709>R<SER>A<CB> 2
c<E>r<101>a<710>l<A>R<SER>A<OG> 1
c<E>r<102>a<712>R<GLY>A<N> 2
c<E>r<102>a<714>R<GLY>A<C> 1
c<E>r<102>a<715>R<GLY>A<O> 2
c<E>r<103>a<716>R<GLN>A<N> 1
c<E>r<103>a<717>R<GLN>A<CA> 1
c<E>r<103>a<718>R<GLN>A<C> 2
c<E>r<103>a<719>R<GLN>A<O> 2
c<E>r<103>a<722>l<A>R<GLN>A<CG> 1
c<E>r<104>a<730>R<TYR>A<N> 1
c<E>r<104>a<731>R<TYR>A<CA> 2
c<E>r<104>a<733>R<TYR>A<O> 3
c<E>r<104>a<735>R<TYR>A<CG> 2
c<E>r<104>a<736>R<TYR>A<CD1> 1
c<E>r<104>a<737>R<TYR>A<CD2> 2
c<E>r<104>a<738>R<TYR>A<CE1> 1
c<E>r<104>a<739>R<TYR>A<CE2> 2
c<E>r<104>a<740>R<TYR>A<CZ> 2
c<E>r<104>a<741>R<TYR>A<OH> 1
c<E>r<107>a<766>R<ILE>A<CB> 3
c<E>r<107>a<767>R<ILE>A<CG1> 3
c<E>r<107>a<768>R<ILE>A<CG2> 3
c<E>r<107>a<769>R<ILE>A<CD1> 2
c<E>r<125>a<904>R<SER>A<C> 3
c<E>r<125>a<905>R<SER>A<O> 3
c<E>r<126>a<908>R<LEU>A<N> 2
c<E>r<126>a<909>R<LEU>A<CA> 2
c<E>r<126>a<910>R<LEU>A<C> 2
c<E>r<126>a<911>R<LEU>A<O> 1
c<E>r<126>a<912>R<LEU>A<CB> 3
c<E>r<126>a<913>R<LEU>A<CG> 3
c<E>r<126>a<914>R<LEU>A<CD1> 2
c<E>r<126>a<915>R<LEU>A<CD2> 3
c<E>r<127>a<916>R<GLY>A<N> 2
c<E>r<127>a<917>R<GLY>A<CA> 1
c<E>r<127>a<918>R<GLY>A<C> 2
c<E>r<127>a<919>R<GLY>A<O> 1
c<E>r<128>a<920>R<GLY>A<N> 1
c<E>r<128>a<921>R<GLY>A<CA> 1
c<E>r<129>a<928>R<PRO>A<CB> 1
c<E>r<129>a<929>R<PRO>A<CG> 1
c<E>r<129>a<930>R<PRO>A<CD> 1
c<E>r<130>a<936>l<A>R<SER>A<OG> 1
c<E>r<135>a<964>R<LEU>A<CD1> 3
c<E>r<135>a<965>R<LEU>A<CD2> 2
c<E>r<152>a<1072>R<ALA>A<O> 1
c<E>r<152>a<1073>R<ALA>A<CB> 2
c<E>r<154>a<1079>R<GLY>A<N> 2
c<E>r<154>a<1080>R<GLY>A<CA> 1
c<E>r<154>a<1081>R<GLY>A<C> 2
c<E>r<155>a<1083>R<ASN>A<N> 1
c<E>r<155>a<1085>R<ASN>A<C> 2
c<E>r<155>a<1086>R<ASN>A<O> 1
c<E>r<155>a<1087>R<ASN>A<CB> 1
c<E>r<155>a<1088>R<ASN>A<CG> 2
c<E>r<155>a<1089>R<ASN>A<OD1> 2
c<E>r<155>a<1090>R<ASN>A<ND2> 1
c<E>r<156>a<1092>R<GLU>A<CA> 2
c<E>r<156>a<1093>R<GLU>A<C> 2
c<E>r<156>a<1094>R<GLU>A<O> 1
c<E>r<156>a<1097>R<GLU>A<CD> 2
c<E>r<156>a<1098>R<GLU>A<OE1> 1
c<E>r<156>a<1099>R<GLU>A<OE2> 1
c<E>r<158>a<1107>R<THR>A<O> 1
c<E>r<167>a<1161>R<TYR>A<O> 2
c<E>r<168>a<1176>R<PRO>A<CD> 2
c<E>r<188>a<1317>R<SER>A<OG> 1
c<E>r<189>a<1318>R<PHE>A<N> 1
c<E>r<189>a<1319>R<PHE>A<CA> 1
c<E>r<189>a<1322>R<PHE>A<CB> 1
c<E>r<189>a<1323>R<PHE>A<CG> 2
c<E>r<189>a<1324>R<PHE>A<CD1> 2
c<E>r<189>a<1325>R<PHE>A<CD2> 1
c<E>r<189>a<1326>R<PHE>A<CE1> 2
c<E>r<189>a<1327>R<PHE>A<CE2> 1
c<E>r<189>a<1328>R<PHE>A<CZ> 2
c<E>r<217>a<1520>R<TYR>A<CB> 1
c<E>r<217>a<1521>R<TYR>A<CG> 1
c<E>r<217>a<1523>R<TYR>A<CD2> 1
c<E>r<217>a<1524>R<TYR>A<CE1> 1
c<E>r<217>a<1525>R<TYR>A<CE2> 1
c<E>r<217>a<1526>R<TYR>A<CZ> 1
c<E>r<217>a<1527>R<TYR>A<OH> 1
c<E>r<218>a<1528>R<ASN>A<N> 1
c<E>r<218>a<1530>R<ASN>A<C> 2
c<E>r<218>a<1531>R<ASN>A<O> 1
c<E>r<218>a<1532>R<ASN>A<CB> 1
c<E>r<218>a<1535>R<ASN>A<ND2> 1
c<E>r<219>a<1536>R<GLY>A<N> 2
c<E>r<219>a<1537>R<GLY>A<CA> 2
c<E>r<219>a<1538>R<GLY>A<C> 3
c<E>r<220>a<1540>R<THR>A<N> 3
c<E>r<220>a<1545>R<THR>A<OG1> 2
c<E>r<221>a<1547>R<SER>A<N> 3
c<E>r<221>a<1548>R<SER>A<CA> 3
c<E>r<221>a<1551>R<SER>A<CB> 3
c<E>r<221>a<1552>R<SER>A<OG> 3
c<E>r<222>a<1559>R<MET>A<SD> 2
c<E>r<222>a<1560>R<MET>A<CE> 2
