c<B>r<17>R<MET> 1
c<B>r<57>R<LEU> 1.5
c<B>r<58>R<GLU> 1.375
c<B>r<59>R<GLU> 1
c<B>r<60>R<ALA> 1
c<B>r<61>R<GLU> 1.5
c<B>r<63>R<GLU> 1.33333
c<B>r<64>R<ILE> 1.4
c<B>r<65>R<GLU> 1.2
c<B>r<68>R<GLN> 1
c<B>r<71>R<ILE> 1
c<B>r<72>R<THR> 1
c<B>r<75>R<SER> 1
c<B>r<76>R<GLN> 1.42857
c<B>r<77>R<CYS> 1.5
c<B>r<78>R<ASP> 1.42857
c<B>r<85>R<TYR> 1.5
c<B>r<87>R<GLY> 1
c<B>r<88>R<SER> 1.4
c<B>r<89>R<TYR> 1.66667
c<B>r<90>R<LEU> 1.25
c<B>r<92>R<GLY> 1
c<B>r<93>R<SER> 1.75
c<B>r<95>R<LEU> 1.5
c<B>r<134>R<TYR> 1.5
c<B>r<138>R<GLU> 1.25
c<B>r<139>R<LYS> 1
c<B>r<140>R<LYS> 1
c<B>r<267>R<GLU> 1
