"Metric";"Training_Set";"Testing_Set";"Independent"
"Accuracy";"0.801158301158301";"0.769230769230769";"0.738993710691824"
"Kappa";"0.408137909613294";"0.224454689327737";"0.163964889805514"
"AccuracyLower";"0.76414341923496";"0.707999654622215";"0.709890171022178"
"AccuracyUpper";"0.834694189322278";"0.82308728024893";"0.766613546079102"
"AccuracyNull";"0.752895752895753";"0.755656108597285";"0.758909853249476"
"AccuracyPValue";"0.00544914795809004";"0.35202596642992";"0.929040192402703"
"McnemarPValue";"0.000389370474637222";"2.65926185507866e-05";"5.28170647531367e-10"
"Sensitivity";"0.453125";"0.240740740740741";"0.243478260869565"
"Specificity";"0.915384615384615";"0.940119760479042";"0.896408839779006"
"Pos Pred Value";"0.637362637362637";"0.565217391304348";"0.427480916030534"
"Neg Pred Value";"0.836065573770492";"0.792929292929293";"0.78857837181045"
"Precision";"0.637362637362637";"0.565217391304348";"0.427480916030534"
"Recall";"0.453125";"0.240740740740741";"0.243478260869565"
"F1";"0.529680365296804";"0.337662337662338";"0.310249307479224"
"Prevalence";"0.247104247104247";"0.244343891402715";"0.241090146750524"
"Detection Rate";"0.111969111969112";"0.0588235294117647";"0.0587002096436059"
"Detection Prevalence";"0.175675675675676";"0.104072398190045";"0.137316561844864"
"Balanced Accuracy";"0.684254807692308";"0.590430250609891";"0.569943550324285"
"TP";"58";"13";"56"
"TN";"357";"157";"649"
"FP";"33";"10";"75"
"FN";"70";"41";"174"
