"TrueClass";"PredictedClass";"ProbabilityHS";"ProbabilityNHS";"PDB";"Chain";"Position";"Aminoacid";"Antibody";"ddG";"HS";"Area_H_Diff";"Area_H_Same";"Area_H";"Hydrophobic_Diff";"Hydrophobic_Same";"Hydrophobic";"Cont_Diff";"Cont_Same";"Cont";"sb_Diff";"sb_Same";"sb";"ss_Diff";"ss_Same";"ss";"hb_Diff";"hb_Same";"hb";"hb_Diff_10";"BSA_Hydrophobic";"BSA_Hydrophylic";"BSA";"ASA_Hydrophylic";"ASA_Hydrophobic";"ASA";"Full_Area";"Shelling";"Aromatic";"Aliphatic";"Polar";"Positive";"Negative";"STD";"ConSurf";"out1";"out2";"out3";"out4";"out5";"out6";"out7";"out8";"out9";"caprasingh_property_entropy";"caprasingh_sum_of_pairs";"caprasingh_js_divergence";"mstatx_trident";"caprasingh_property_relative_entropy";"mstatx_jensen";"caprasingh_relative_entropy";"caprasingh_shannon_entropy";"mstatx_kabat";"mstatx_wentropy";"ProbGbm";"ProbRf";"ProbPls";"VolumeMonomer";"VolumeComplex";"deltaVolume"
"NHS";"NHS";0.0876225664196769;0.912377433580323;"1A22";"A";"164";"Y";"N";0.35;"NHS";26.1;0;26.1;0;0;0;4;14;18;0;0;0;0;0;0;0;2;2;0;7.66;18.44;26.1;1;2.51;3.51;29.61;1;1;0;0;0;0;0;6;3;4;4;2;3;3;2;2;2;0.48;0.32;0.63;0.31;0.31;0.57;0.43;0.53;0.02;0.54;0.140134288822522;0.222;0.17559641886108;247.314;233.988;13.326
"NHS";"NHS";0.0838649950621358;0.916135004937864;"1A22";"A";"167";"R";"N";0.06;"NHS";30.63;0;30.63;2.04;0;2.04;3;13;16;0;0;0;0;0;0;0;2;2;0;4.41;28.26;32.67;16.84;7.69;24.53;57.2;1;0;0;0;1;0;0.22;6;5;6;5;5;5;3;4;4;2;0.66;0.42;0.7;0.41;0.44;0.51;0.52;0.6;0.02;0.38;0.0800245806420368;0.042;0.0928665435322761;268.634;245.971;22.663
"NHS";"NHS";0.194550827342098;0.805449172657902;"1A22";"A";"171";"D";"N";0.975;"NHS";49.95;0;49.95;4.42;0;4.42;5;9;14;1;0;1;0;0;0;0;3;3;0;14.01;40.36;54.37;7.42;1.28;8.7;63.07;1.5;0;0;0;0;1;0.185;6;5;5;5;5;6;4;4;4;2;0.52;0.42;0.68;0.39;0.33;0.48;0.54;0.59;0.01;0.4;0.20294908576483;0.308;0.246350155708467;186.343;138.903;47.44
"NHS";"NHS";0.122427992171228;0.877572007828772;"1A22";"A";"174";"E";"N";-0.905;"NHS";15.52;0;15.52;4.17;0;4.17;3;12;15;0;0;0;0;0;0;0;2;2;0;5.46;14.23;19.69;8.8;12.77;21.57;41.26;1;0;0;0;0;1;0.015;7;7;7;5;7;7;4;7;6;3;0.61;0.43;0.67;0.48;0.38;0.49;0.52;0.65;0.01;0.25;0.0732577255476995;0.038;0.0684906956263223;193.978;187.686;6.292
"NHS";"NHS";0.410808025946514;0.589191974053486;"1A22";"A";"176";"F";"N";1.025;"NHS";0;0;0;13.43;0;13.43;2;16;18;0;0;0;0;0;0;0;2;2;0;13.43;0;13.43;0;0;0;13.43;2;1;0;0;0;0;0.615;8;6;6;7;5;6;5;4;4;4;0.7;0.44;0.69;0.44;0.44;0.43;0.51;0.6;0.01;0.32;0.504210151689641;0.606;0.476060365296377;205.646;195.816;9.83
"HS";"NHS";0.147384678092974;0.852615321907026;"1A22";"A";"178";"R";"N";2.42;"HS";36.96;0;36.96;25.41;0;25.41;4;11;15;0;0;0;0;0;0;0;3;3;0;35.26;27.12;62.38;29.08;6.22;35.3;97.68;1.25;0;0;0;1;0;0;5;5;5;4;5;5;3;4;4;2;0.59;0.35;0.6;0.35;0.36;0.54;0.42;0.5;0.01;0.44;0.129178377209618;0.076;0.184656339051963;285.403;240.318;45.085
"NHS";"NHS";0.116810342018739;0.883189657981261;"1A22";"A";"18";"H";"N";-0.35;"NHS";51.16;0;51.16;12.66;0;12.66;2;9;11;0;0;0;0;0;0;0;1;1;0;37.75;26.08;63.83;11.04;15.52;26.56;90.39;1.25;0;0;0;1;0;0.14;7;5;5;3;4;5;2;3;3;1;0.5;0.34;0.64;0.42;0.33;0.52;0.49;0.53;0.02;0.44;0.145094115163267;0.21;0.181048703886166;253.819;195.168;58.651
"NHS";"NHS";0.372543617464133;0.627456382535867;"1A22";"A";"21";"H";"N";0.16;"NHS";24.59;0;24.59;9.62;0;9.62;3;12;15;0;0;0;0;0;0;0;2;2;0;23.57;10.65;34.22;0.62;1.48;2.1;36.32;1.88;0;0;0;1;0;0;8;7;7;4;7;7;4;6;6;2;0.58;0.47;0.7;0.54;0.36;0.45;0.58;0.62;0.01;0.27;0.278743891561537;0.308;0.367236968114701;193.936;163.129;30.807
"NHS";"NHS";0.0804171360858571;0.919582863914143;"1A22";"A";"22";"Q";"N";-0.22;"NHS";17.88;0;17.88;3.17;0;3.17;1;9;10;0;0;0;0;0;0;0;2;2;0;19;2.06;21.06;34.59;14.64;49.23;70.29;2;0;0;1;0;0;0;3;4;4;2;5;5;1;4;4;1;0.5;0.32;0.56;0.4;0.32;0.6;0.45;0.53;0.02;0.46;0.116077918501218;0.1;0.114522690349813;220.319;204.399;15.92
"NHS";"NHS";0.0972525923000711;0.902747407699929;"1A22";"A";"48";"P";"N";0.41;"NHS";10.98;0;10.98;38.54;0;38.54;4;7;11;0;0;0;0;0;0;0;1;1;0;49.53;0;49.53;1.98;4.25;6.23;55.76;1.5;0;1;0;0;0;0;1;3;3;3;2;2;2;2;2;1;0.28;0.17;0.41;0.32;0.24;0.69;0.26;0.33;0.04;0.6;0.266232209193588;0.254;0.179166125478761;187.926;137.225;50.701
"NHS";"NHS";0.196402340304787;0.803597659695213;"1A22";"A";"61";"P";"N";1.21;"NHS";10.04;0;10.04;0;0;0;1;11;12;0;0;0;0;0;0;0;0;0;0;0;10.04;10.04;0.87;1.88;2.75;12.79;1;0;1;0;0;0;0;9;8;8;7;8;8;6;8;7;5;0.72;0.49;0.73;0.79;0.58;0.46;0.57;0.75;0;0.11;0.0855836295395795;0.092;0.043627253810548;144.624;136.629;7.995
"NHS";"NHS";0.0192880862839164;0.980711913716084;"1A22";"B";"275";"E";"N";-0.0966666666667;"NHS";6.17;0;6.17;19.12;0;19.12;2;6;8;0;0;0;0;0;0;0;1;1;0;25.3;0;25.3;72.6;15.75;88.35;113.65;1.17;0;0;0;0;1;0.017;2;3;3;3;3;3;1;3;2;1;0.12;0.13;0.2;0.14;0.1;0.63;0.13;0.16;0.05;0.65;0.0775621611898283;0.06;0.0449948895306923;254.503;238.709;15.794
"NHS";"NHS";0.182093404914476;0.817906595085524;"1A22";"B";"276";"W";"N";0.543333333333;"NHS";24.61;0;24.61;28.76;0;28.76;4;11;15;0;0;0;0;0;0;1;0;1;1;38.78;14.59;53.37;16.27;18.06;34.33;87.7;1.55;1;0;0;0;0;0.0287;1;3;2;2;3;3;1;2;2;1;0.11;0.09;0.21;0.15;0.11;0.68;0.15;0.15;0.09;0.72;0.283373522428774;0.366;0.465216953562166;326.557;269.622;56.935
"NHS";"NHS";0.221302737173857;0.778697262826143;"1A22";"B";"280";"W";"N";0.05;"NHS";5.19;0;5.19;0;0;0;1;10;11;0;0;0;0;0;0;0;0;0;0;5.19;0;5.19;40;54.18;94.18;99.37;1.5;1;0;0;0;0;0.0852;7;8;8;5;8;7;5;7;7;3;0.75;0.7;0.77;0.89;0.55;0.4;0.73;0.75;0;0.09;0.107687972687241;0.054;0.0959317972106655;335.166;333.972;1.194
"NHS";"NHS";0.0154446328629773;0.984555367137023;"1A22";"B";"299";"S";"N";-0.51;"NHS";1.96;0;1.96;0;0;0;1;5;6;0;0;0;0;0;0;0;1;1;0;1.89;0.07;1.96;61.54;28.14;89.68;91.64;1;0;0;1;0;0;0;5;5;4;3;4;4;2;4;3;1;0.76;0.34;0.61;0.55;0.41;0.67;0.44;0.59;0.02;0.45;0.0704182444412474;0.01;0.0122007196724012;187.113;186.873;0.24
"NHS";"NHS";0.104662464107344;0.895337535892656;"1A22";"B";"320";"E";"N";-0.2;"NHS";37.25;0;37.25;7.66;0;7.66;2;9;11;0;1;1;0;0;0;1;1;2;1;9.4;35.51;44.91;42.72;10.58;53.3;98.21;1.43;0;0;0;0;1;0.02;3;4;5;3;4;5;2;4;4;1;0.53;0.35;0.54;0.52;0.41;0.65;0.4;0.52;0.02;0.47;0.114514962482247;0.078;0.16979550951391;242.643;214.274;28.369
"NHS";"NHS";0.367621765518008;0.632378234481992;"1A22";"B";"364";"D";"N";1.535;"NHS";15.3;0;15.3;7.37;0;7.37;2;10;12;0;0;0;0;0;0;1;2;3;1;11.01;11.66;22.67;0.03;4.9;4.93;27.6;1.67;0;0;0;0;1;0.045;9;7;7;5;7;7;4;7;6;3;0.71;0.41;0.64;0.83;0.41;0.52;0.47;0.68;0;0.17;0.105717503066514;0.054;0.288810871170975;154.053;131.408;22.645
"NHS";"NHS";0.047382470940026;0.952617529059974;"1A22";"B";"371";"V";"N";-0.67;"NHS";15.81;0;15.81;21.16;0;21.16;2;7;9;0;0;0;0;0;0;0;2;2;0;36.98;0;36.98;0;32.79;32.79;69.77;1;0;1;0;0;0;0.05;5;3;3;2;3;3;1;3;2;1;0.62;0.34;0.5;0.33;0.32;0.82;0.38;0.52;0.05;0.67;0.0882846601247348;0.044;0.0487172432922622;208.233;184.555;23.678
"NHS";"NHS";0.0354005518960162;0.964599448103984;"1A22";"B";"417";"R";"N";0.26;"NHS";40.51;0;40.51;11.27;0;11.27;4;8;12;0;0;0;0;0;0;0;1;1;0;18.04;33.74;51.78;55.7;1.77;57.47;109.25;1.14;0;0;0;1;0;0.0616;1;3;3;3;3;3;1;3;2;1;0.28;0.2;0.4;0.27;0.23;0.73;0.27;0.33;0.04;0.67;0.111742951379366;0.04;0.106822809529213;302.421;267.582;34.839
"NHS";"NHS";0.236033729271008;0.763966270728992;"1A4Y";"A";"289";"S";"N";0.04;"NHS";9.44;0;9.44;2.76;0;2.76;1;8;9;0;0;0;0;0;0;1;2;3;1;3.31;8.89;12.2;0;0;0;12.2;2;0;0;1;0;0;0;7;6;6;4;6;6;3;5;5;2;0.62;0.34;0.55;0.59;0.35;0.63;0.38;0.57;0.02;0.4;0.32363727696366;0.242;0.242854285077742;110.457;98.64;11.817
"NHS";"NHS";0.351305416542277;0.648694583457723;"1A4Y";"A";"318";"W";"N";1.5;"NHS";19.68;0;19.68;32.09;0;32.09;4;14;18;0;0;0;0;0;0;0;2;2;0;46.54;5.23;51.77;0.39;4.58;4.97;56.74;1.9;1;0;0;0;0;0;3;4;4;3;5;4;2;3;3;1;0.16;0.22;0.32;0.16;0.12;0.56;0.22;0.22;0.05;0.64;0.527939740927099;0.534;0.584808049495266;293.577;246.364;47.213
"NHS";"NHS";0.0350345604762246;0.964965439523775;"1A4Y";"A";"401";"E";"N";0.88;"NHS";21.82;0;21.82;0.78;0;0.78;2;11;13;0;0;0;0;0;0;0;2;2;0;0.78;21.82;22.6;9.74;4.03;13.77;36.37;1;0;0;0;0;1;0;8;3;3;2;3;3;1;3;2;1;0;0;0;0;0;0.12;0;0;0;0.15;0.0870140378986247;0.026;0.0730745726510335;194.938;179.711;15.227
"HS";"NHS";0.0924804554776149;0.907519544522385;"1A4Y";"A";"435";"D";"N";3.48;"HS";62.01;0;62.01;16.46;0;16.46;7;7;14;0;0;0;0;0;0;0;1;1;0;28.56;49.91;78.47;18.97;4.69;23.66;102.13;1.25;0;0;0;0;1;0;5;3;3;2;3;3;1;3;2;1;0;0;0;0.04;0;0.35;0;0;0.02;0.46;0.204246444789138;0.242;0.222746887085145;233.179;168.011;65.168
"NHS";"NHS";0.0313378449769021;0.968662155023098;"1A4Y";"A";"459";"I";"N";0.68;"NHS";11.19;0;11.19;11.31;0;11.31;2;8;10;0;0;0;0;0;0;0;2;2;0;22.5;0;22.5;0;24.92;24.92;47.42;1;0;1;0;0;0;0;6;3;3;2;3;3;1;3;2;1;0;0;0;0.01;0;0.2;0;0;0.01;0.33;0.0706015831034531;0.016;0.0430203647769256;212.897;191.01;21.887
"NHS";"NHS";0.191612309290488;0.808387690709512;"1A4Y";"B";"12";"Q";"N";0.3;"NHS";26.51;0;26.51;0.11;0;0.11;3;11;14;0;0;0;0;0;0;1;2;3;1;1.03;25.59;26.62;12.41;2.21;14.62;41.24;1.33;0;0;1;0;0;0;7;7;7;5;7;7;4;6;6;2;0.64;0.43;0.71;0.66;0.46;0.53;0.57;0.69;0.01;0.28;0.0954942422186812;0.26;0.106789357697713;199.395;180.716;18.679
"NHS";"NHS";0.0991980575282893;0.900801942471711;"1A4Y";"B";"84";"H";"N";0.17;"NHS";43.3;0;43.3;13.43;0;13.43;4;6;10;1;0;1;0;0;0;0;1;1;0;37.79;18.95;56.74;8.79;21.95;30.74;87.48;1.5;0;0;0;1;0;0;1;4;4;3;4;3;2;3;3;1;0.44;0.12;0.44;0.35;0.32;0.78;0.3;0.41;0.03;0.65;0.133581249701518;0.122;0.240252743038528;249.575;202.571;47.004
"HS";"HS";0.519306442425118;0.480693557574882;"1AHW";"C";"156";"Y";"Y";3.8;"HS";33.79;0;33.79;27.58;0;27.58;5;12;17;0;0;0;0;0;0;1;2;3;1;40.64;20.73;61.37;0.81;2.28;3.09;64.46;1.38;1;0;0;0;0;0;5;5;5;5;5;5;5;5;5;5;0.5;0.5;0.5;0.5;0.5;0.5;0.5;0.5;0.5;0.5;0.364395283447962;0.498;0.526934959870097;273.985;215.429;58.556
"NHS";"NHS";0.051302149740616;0.948697850259384;"1AHW";"C";"197";"T";"Y";1.35;"NHS";28.89;0;28.89;0.03;0;0.03;4;5;9;0;0;0;0;0;0;0;0;0;0;11.85;17.08;28.93;34.91;66.69;101.6;130.53;1.4;0;0;1;0;0;0;5;5;5;5;5;5;5;5;5;5;0.5;0.5;0.5;0.5;0.5;0.5;0.5;0.5;0.5;0.5;0.0833471075729911;0.098;0.0318729300427449;242.284;231.319;10.965
"NHS";"NHS";0.0600742198120284;0.939925780187972;"1AHW";"C";"198";"V";"Y";-0.31;"NHS";22.09;0;22.09;1.03;0;1.03;1;6;7;0;0;0;0;0;0;0;1;1;0;9.66;13.46;23.12;1.5;82.03;83.53;106.65;1.25;0;1;0;0;0;0;5;5;5;5;5;5;5;5;5;5;0.5;0.5;0.5;0.5;0.5;0.5;0.5;0.5;0.5;0.5;0.0696758512193073;0.012;0.0295756308495165;246.443;223.296;23.147
"NHS";"NHS";0.0504015050880948;0.949598494911905;"1AK4";"D";"486";"V";"N";0.99;"NHS";25.31;0;25.31;20.05;0;20.05;3;6;9;0;0;0;0;0;0;0;0;0;0;28.35;17.02;45.37;6.59;31.34;37.93;83.3;1.33;0;1;0;0;0;0;1;2;2;1;3;3;0;2;1;1;0.65;0.34;0.64;0.59;0.34;0.66;0.46;0.64;0.01;0.41;0.0921254460629347;0.08;0.086613272572208;226.108;191.033;35.075
"HS";"NHS";0.286690553029777;0.713309446970223;"1AK4";"D";"489";"G";"N";2.08;"HS";32.74;0;32.74;11.48;0;11.48;5;4;9;0;0;0;0;0;0;1;0;1;1;22.3;21.92;44.22;9.65;2.14;11.79;56.01;1.25;0;1;0;0;0;0;8;7;6;5;6;6;3;6;5;3;0.72;0.44;0.7;0.9;0.44;0.51;0.5;0.76;0;0.1;0.128987329087261;0.176;0.154735161631971;127.108;85.7684;41.34
"NHS";"NHS";0.0177567367330262;0.982243263266974;"1AK4";"D";"491";"I";"N";0.24;"NHS";30.92;0;30.92;1.8;0;1.8;5;9;14;0;0;0;0;0;0;0;0;0;0;9.78;22.95;32.73;4.32;60.52;64.84;97.57;1.2;0;1;0;0;0;0;1;0;0;0;0;1;0;0;0;0;0.66;0.34;0.56;0.42;0.4;0.75;0.39;0.58;0.03;0.58;0.0781104383432723;0.072;0.0459418569134695;262.354;242.266;20.088
"NHS";"NHS";0.0701893602196003;0.9298106397804;"1AK4";"D";"493";"P";"N";0.68;"NHS";14.74;0;14.74;33.08;0;33.08;3;4;7;0;0;0;0;0;0;0;0;0;0;37.87;9.94;47.81;7.55;73.32;80.87;128.68;1;0;1;0;0;0;0;2;5;4;3;5;4;2;4;4;1;0.7;0.43;0.7;0.76;0.55;0.56;0.53;0.71;0.01;0.24;0.163992787605562;0.216;0.0349972812632937;245.299;208.851;36.448
"NHS";"NHS";0.291841662330942;0.708158337669058;"1BRS";"A";"60";"E";"N";0.09;"NHS";46.25;0;46.25;15.22;0;15.22;3;6;9;0;0;0;0;0;0;2;0;2;1;32.34;29.12;61.46;61.71;7.14;68.85;130.31;1.5;0;0;0;0;1;0.42;9;7;6;4;7;6;3;6;5;2;0.64;0.37;0.61;0.74;0.4;0.58;0.44;0.65;0.01;0.25;0.143998564010157;0.246;0.202051408161107;277.365;217.773;59.592
"HS";"NHS";0.331716633528566;0.668283366471434;"1BRS";"A";"73";"E";"N";2.35333333333;"HS";12.1;0;12.1;0;0;0;2;15;17;0;0;0;0;0;0;0;3;3;0;0.95;11.14;12.09;1.79;4.61;6.4;18.49;1.67;0;0;0;0;1;0.3715;9;8;8;7;8;8;6;8;7;6;0.9;0.49;0.79;1;0.53;0.44;0.59;0.81;0;0;0.100234039565816;0.038;0.180594391393288;182.173;178.603;3.57
"NHS";"NHS";0.0669112226247366;0.933088777375263;"1BRS";"D";"76";"E";"N";1.09;"NHS";26.18;0;26.18;0;0;0;2;9;11;0;0;0;0;0;0;0;2;2;0;5.54;20.64;26.18;34.94;25.63;60.57;86.75;1.6;0;0;0;0;1;0.27;5;5;5;3;4;4;2;4;4;2;0.34;0.24;0.38;0.3;0.23;0.68;0.24;0.33;0.03;0.59;0.080701073377804;0.018;0.109102425271297;231.499;208.891;22.608
"NHS";"NHS";0.257292099004392;0.742707900995608;"1CBW";"I";"13";"P";"N";-0.08;"NHS";22.18;0;22.18;36.67;0;36.67;5;6;11;0;0;0;0;0;0;1;1;2;1;48.46;10.39;58.85;0;18.25;18.25;77.1;1.5;0;1;0;0;0;0.02;4;5;4;3;5;5;2;4;3;1;0.33;0.3;0.42;0.25;0.34;0.77;0.33;0.37;0.04;0.7;0.282961421151525;0.278;0.253147506077115;200.675;148.865;51.81
"NHS";"NHS";0.430932134348211;0.569067865651789;"1CBW";"I";"17";"R";"N";0.525;"NHS";95.18;13.8;108.98;48.3;0;48.3;9;8;17;0;0;0;0;0;0;2;0;2;1;59.37;84.11;143.48;6.15;0.5;6.65;150.13;1.5;0;0;0;1;0;0.025;1;3;3;2;3;3;1;3;3;1;0.24;0.08;0.17;0.12;0.15;0.89;0.11;0.14;0.1;0.87;0.588297907818597;0.62;0.740613326664429;370.273;213.29;156.983
"NHS";"NHS";0.0544667207424354;0.945533279257565;"1CHO";"I";"14";"P";"N";0.38;"NHS";40.52;0;40.52;18.63;0;18.63;4;3;7;0;0;0;0;0;0;1;0;1;1;38.27;20.88;59.15;6.24;78.29;84.53;143.68;1.17;0;1;0;0;0;0;1;3;3;2;3;3;1;3;3;1;0.38;0.05;0.29;0.09;0.28;0.74;0.24;0.3;0.09;0.83;0.121329269151076;0.154;0.0736957541856186;256.894;209.233;47.661
"HS";"NHS";0.252673079661634;0.747326920338366;"1CHO";"I";"17";"T";"N";4.18;"HS";14.27;0;14.27;48.42;0;48.42;5;5;10;0;0;0;0;0;0;0;2;2;0;58.48;4.21;62.69;13.95;10.21;24.16;86.85;1.5;0;0;1;0;0;0.08;7;6;5;3;6;5;2;5;4;2;0.49;0.36;0.41;0.53;0.34;0.72;0.32;0.43;0.02;0.47;0.261651024718729;0.356;0.162759831090675;221.041;156.069;64.972
"HS";"HS";0.658336996145723;0.341663003854277;"1CHO";"I";"20";"Y";"N";2.51;"HS";54.58;0;54.58;53.32;0;53.32;7;7;14;0;0;0;0;0;0;1;0;1;1;73.51;34.39;107.9;5.74;11.87;17.61;125.51;1.36;1;0;0;0;0;0;5;6;5;3;6;5;2;5;4;2;0.56;0.35;0.46;0.51;0.36;0.68;0.36;0.46;0.02;0.49;0.652195720897329;0.692;0.666706912459422;333.54;240.215;93.325
"NHS";"NHS";0.102264223743899;0.897735776256101;"1CHO";"I";"32";"G";"N";-0.92;"NHS";0.85;0;0.85;16.53;0;16.53;2;9;11;0;0;0;0;0;0;0;1;1;0;16.53;0.85;17.38;2.33;0.64;2.97;20.35;1.5;0;1;0;0;0;0.16;4;5;4;3;4;4;2;4;3;1;0.54;0.33;0.51;0.38;0.38;0.8;0.38;0.53;0.05;0.62;0.0932705893912153;0.064;0.11132563545689;87.4063;75.9306;11.476
"NHS";"NHS";0.0544531508358186;0.945546849164181;"1CHO";"I";"36";"N";"N";-1.35;"NHS";32.69;0;32.69;12.75;0;12.75;4;11;15;0;0;0;0;0;0;1;2;3;1;17.66;27.78;45.44;15.38;0.48;15.86;61.3;1.17;0;0;1;0;0;0;1;3;3;2;3;3;1;3;2;1;0.49;0.09;0.39;0.17;0.33;0.93;0.31;0.38;0.15;0.83;0.130876472857853;0.09;0.11338169366044;200.763;168.899;31.864
"NHS";"NHS";0.333484840942001;0.666515159057999;"1DAN";"H";"164";"M";"N";0.74;"NHS";43.91;0;43.91;58.05;0;58.05;5;7;12;0;0;0;0;0;0;0;2;2;0;100.56;1.4;101.96;1.27;10.56;11.83;113.79;1.5;0;1;0;0;0;0;6;4;4;3;4;4;2;4;3;1;0.37;0.22;0.3;0.31;0.23;0.81;0.19;0.28;0.04;0.67;0.469927871049674;0.408;0.311033727851359;286.058;187.981;98.077
"NHS";"NHS";0.0679593728864051;0.932040627113595;"1DAN";"T";"17";"T";"N";0.12;"NHS";7.62;24.16;31.78;23.87;17.16;41.03;2;9;11;0;0;0;0;0;0;0;1;1;0;26.39;5.1;31.49;21.52;13.49;35.01;66.5;1.43;0;0;1;0;0;0;4;4;4;3;4;4;2;3;3;1;0.7;0.39;0.64;0.51;0.41;0.69;0.49;0.66;0.02;0.49;0.10260356779226;0.154;0.0743681319340381;186.701;161.644;25.057
"HS";"HS";0.55332818556808;0.44667181443192;"1DAN";"T";"20";"K";"N";2.515;"HS";41.47;6.29;47.76;26.53;16.65;43.18;7;10;17;0;0;0;0;0;0;2;1;3;1;41.55;26.45;68;4.61;8.81;13.42;81.42;1.43;0;0;0;1;0;0.075;9;8;7;5;7;7;4;7;6;3;0.88;0.47;0.76;0.86;0.5;0.52;0.58;0.83;0;0.13;0.288444992034276;0.468;0.428612750534752;263.033;198.438;64.595
"NHS";"NHS";0.0426913693397246;0.957308630660275;"1DAN";"T";"24";"E";"N";0.66;"NHS";18.36;0;18.36;0;0;0;1;9;10;0;0;0;0;0;0;0;1;1;0;1.04;17.33;18.37;36.7;13.44;50.14;68.51;1.5;0;0;0;0;1;0;4;3;3;2;3;3;1;3;2;1;0.58;0.35;0.54;0.39;0.36;0.76;0.41;0.56;0.03;0.61;0.0787506247143464;0.038;0.0927514060705493;216.113;201.056;15.057
"NHS";"NHS";0.0110371836184192;0.988962816381581;"1DAN";"T";"41";"K";"N";0.32;"NHS";19.19;26.18;45.37;0.52;1.01;1.53;2;9;11;0;1;1;0;0;0;0;0;0;0;5.19;14.52;19.71;14.74;94.84;109.58;129.29;1.2;0;0;0;1;0;0;1;2;2;2;2;2;1;2;2;1;0.27;0.07;0.22;0.2;0.15;0.93;0.14;0.24;0.09;0.81;0.0723719750271488;0.01;0.0390981980110169;315.354;300.547;14.807
"NHS";"NHS";0.111369896016573;0.888630103983427;"1DAN";"T";"44";"D";"N";1.43333333333;"NHS";34.84;0;34.84;10.69;0;10.69;4;7;11;0;0;0;0;0;0;1;0;1;1;19.37;26.16;45.53;61.08;21.97;83.05;128.58;1.4;0;0;0;0;1;0.5756;5;6;6;4;5;6;3;4;4;2;0.43;0.31;0.56;0.7;0.32;0.53;0.4;0.52;0.01;0.28;0.109767512560261;0.072;0.132412063383477;249.823;209.403;40.42
"NHS";"NHS";0.328915535823784;0.671084464176216;"1DAN";"T";"45";"W";"N";1.965;"NHS";50.1;0.84;50.94;22.6;0;22.6;6;11;17;0;0;0;0;0;0;1;0;1;1;41.9;30.79;72.69;19.45;15.41;34.86;107.55;1.5;1;0;0;0;0;0.405;4;4;4;3;4;4;2;3;3;1;0.42;0.26;0.54;0.52;0.29;0.62;0.42;0.46;0.02;0.48;0.308002919406884;0.35;0.521549096036223;327.189;280.61;46.579
"NHS";"NHS";0.0329403819945979;0.967059618005402;"1DAN";"T";"72";"L";"N";-0.06;"NHS";0.24;24.66;24.9;0;27.42;27.42;1;14;15;0;0;0;0;0;0;0;1;1;0;0.24;0;0.24;0.05;29.28;29.33;29.57;1.4;0;1;0;0;0;0;1;3;3;2;3;3;1;3;3;1;0.51;0.26;0.45;0.33;0.3;0.8;0.32;0.42;0.03;0.67;0.0819833349020868;0.158;0.0526373901726479;201.303;201.302;0.001
"NHS";"NHS";0.0818475252021937;0.918152474797806;"1DAN";"U";"135";"R";"N";0.755;"NHS";45.84;26.26;72.1;5.69;6.1;11.79;5;9;14;0;1;1;0;0;0;1;0;1;1;5.69;45.84;51.53;36.01;28.31;64.32;115.85;1.11;0;0;0;1;0;0.235;5;4;4;2;4;4;2;3;3;1;0.49;0.23;0.47;0.46;0.3;0.71;0.32;0.45;0.02;0.54;0.117824466784883;0.168;0.141068345522735;346.728;296.282;50.446
"NHS";"NHS";0.0168691295442617;0.983130870455738;"1DAN";"U";"138";"N";"N";0;"NHS";11.95;0;11.95;7.8;0;7.8;1;5;6;0;0;0;0;0;0;0;1;1;0;7.8;11.95;19.75;87.27;28.99;116.26;136.01;1;0;0;1;0;0;0;1;5;5;3;6;6;2;5;5;2;0.44;0.27;0.49;0.6;0.29;0.66;0.32;0.48;0.01;0.4;0.0701874546885964;0.022;0.0114744211347795;259.269;253.359;5.91
"NHS";"NHS";0.0271197177752698;0.97288028222473;"1DAN";"U";"203";"T";"N";0.14;"NHS";13.06;0;13.06;14.94;0;14.94;3;9;12;0;0;0;0;0;0;0;1;1;0;15.14;12.85;27.99;18.18;35.35;53.53;81.52;1;0;0;1;0;0;0;4;4;4;3;4;4;2;3;3;1;0.26;0.22;0.37;0.25;0.19;0.61;0.26;0.29;0.03;0.56;0.0726488532555347;0.052;0.0301602860092864;199.926;179.319;20.607
"NHS";"NHS";0.176334855031925;0.823665144968075;"1DAN";"U";"207";"V";"N";0.69;"NHS";26.31;0;26.31;39.44;0;39.44;7;8;15;0;0;0;0;0;0;0;0;0;0;45.36;20.4;65.76;4.23;0;4.23;69.99;1.6;0;1;0;0;0;0.88;2;4;3;3;4;3;2;3;2;1;0.24;0.25;0.31;0.2;0.13;0.62;0.22;0.27;0.04;0.6;0.301562651179784;0.228;0.271415046615259;216.729;159.242;57.487
"NHS";"NHS";0.49459343622622;0.50540656377378;"1DAN";"U";"94";"Y";"N";0.67;"NHS";61.17;22.61;83.78;29.85;39.91;69.76;3;11;14;0;0;0;0;0;0;2;0;2;1;50.24;40.78;91.02;1.92;1.51;3.43;94.45;1.83;1;0;0;0;0;0.35;1;5;5;4;5;5;3;4;3;2;0.36;0.29;0.43;0.33;0.22;0.54;0.31;0.33;0.02;0.5;0.777633813596044;0.704;0.753568243797918;310.579;213.294;97.285
"NHS";"NHS";0.297915055435334;0.702084944564666;"1DQJ";"A";"96";"Y";"Y";1.13;"NHS";15.04;40.51;55.55;5.42;38.71;44.13;3;12;15;0;0;0;0;0;0;0;1;1;0;8.69;11.78;20.47;0.27;2.78;3.05;23.52;1.56;1;0;0;0;0;0;5;5;5;5;5;5;5;5;5;5;0.5;0.5;0.5;0.5;0.5;0.5;0.5;0.5;0.5;0.5;0.164628787032007;0.162;0.323621956044348;230.136;215.069;15.067
"HS";"NHS";0.263529548399546;0.736470451600454;"1DQJ";"B";"32";"D";"Y";2.01;"HS";35.77;0;35.77;7.26;0;7.26;3;15;18;0;0;0;0;0;0;0;1;1;0;14.14;28.89;43.03;12.05;0.01;12.06;55.09;1.86;0;0;0;0;1;0;5;5;5;5;5;5;5;5;5;5;0.5;0.5;0.5;0.5;0.5;0.5;0.5;0.5;0.5;0.5;0.225126734313892;0.242;0.308735333781684;200.583;162.329;38.254
"NHS";"NHS";0.438277671743783;0.561722328256217;"1DQJ";"C";"100";"S";"Y";0.78;"NHS";34.14;0;34.14;14.04;0;14.04;6;7;13;0;0;0;0;0;0;1;3;4;1;23.35;24.84;48.19;0;0.01;0.01;48.2;2.2;0;0;1;0;0;0;5;5;5;5;5;5;5;5;5;5;0.5;0.5;0.5;0.5;0.5;0.5;0.5;0.5;0.5;0.5;0.526550970328385;0.498;0.48046043941497;150.279;101.393;48.886
"NHS";"NHS";0.340369563361072;0.659630436638928;"1DQJ";"C";"63";"W";"Y";1.35;"NHS";10.92;0;10.92;20.93;0;20.93;2;14;16;0;0;0;0;0;0;0;2;2;0;31.85;0;31.85;16.36;4.55;20.91;52.76;1.67;1;0;0;0;0;0;5;5;5;5;5;5;5;5;5;5;0.5;0.5;0.5;0.5;0.5;0.5;0.5;0.5;0.5;0.5;0.204220339143764;0.368;0.351480087226156;279.193;251.506;27.687
"HS";"NHS";0.420111324335577;0.579888675664423;"1DQJ";"C";"96";"K";"Y";6.16;"HS";29.91;0;29.91;9.9;0;9.9;4;13;17;0;0;0;0;0;0;0;3;3;0;20.71;19.1;39.81;0.2;0;0.2;40.01;2.33;0;0;0;1;0;0;5;5;5;5;5;5;5;5;5;5;0.5;0.5;0.5;0.5;0.5;0.5;0.5;0.5;0.5;0.5;0.579734832414746;0.656;0.579355633617027;206.082;162.2;43.882
"HS";"NHS";0.109053921435865;0.890946078564135;"1DVF";"B";"100";"D";"Y";2.79;"HS";42.12;0.72;42.84;7.75;0;7.75;4;5;9;1;0;1;0;0;0;0;0;0;0;11.05;38.83;49.88;28.29;15.13;43.42;93.3;1;0;0;0;0;1;0;5;5;5;5;5;5;5;5;5;5;0.5;0.5;0.5;0.5;0.5;0.5;0.5;0.5;0.5;0.5;0.110949261618166;0.086;0.0809621887472458;218.338;167.219;51.119
"HS";"HS";0.51537639469983;0.48462360530017;"1DVF";"B";"101";"Y";"Y";2;"HS";56.4;33.95;90.35;18.81;36.73;55.54;6;11;17;0;0;0;0;0;0;2;0;2;1;41.83;33.38;75.21;6.99;19.89;26.88;102.09;1.5;1;0;0;0;0;0;5;5;5;5;5;5;5;5;5;5;0.5;0.5;0.5;0.5;0.5;0.5;0.5;0.5;0.5;0.5;0.289600559992208;0.248;0.549385469058019;312.632;254.438;58.194
"HS";"NHS";0.281551589331941;0.718448410668059;"1DVF";"B";"54";"D";"Y";4.28;"HS";34.51;0;34.51;22.83;0;22.83;6;5;11;0;0;0;0;0;0;2;1;3;1;30.73;26.61;57.34;27.21;15.17;42.38;99.72;1.43;0;0;0;0;1;0;5;5;5;5;5;5;5;5;5;5;0.5;0.5;0.5;0.5;0.5;0.5;0.5;0.5;0.5;0.5;0.130326816345224;0.078;0.260008876038847;224.18;163.471;60.709
"NHS";"NHS";0.130972877199557;0.869027122800443;"1DVF";"B";"58";"D";"Y";1.6;"NHS";18.23;14.56;32.79;0;12.51;12.51;2;9;11;0;0;0;0;0;0;1;2;3;1;1.09;17.14;18.23;20.29;1.11;21.4;39.63;1.25;0;0;0;0;1;0;5;5;5;5;5;5;5;5;5;5;0.5;0.5;0.5;0.5;0.5;0.5;0.5;0.5;0.5;0.5;0.0758819527719385;0.038;0.134500778707833;166.628;154.621;12.007
"NHS";"NHS";0.0911341552330012;0.908865844766999;"1DVF";"D";"52";"D";"Y";1.68;"NHS";18.47;0;18.47;0;0;0;3;10;13;0;1;1;0;0;0;0;4;4;0;0;18.47;18.47;4.06;2.25;6.31;24.78;1;0;0;0;0;1;0;5;5;5;5;5;5;5;5;5;5;0.5;0.5;0.5;0.5;0.5;0.5;0.5;0.5;0.5;0.5;0.0850607391379029;0.162;0.0787680754661496;133.915;130.197;3.718
"HS";"NHS";0.312995682148231;0.687004317851769;"1E50";"A";"109";"N";"N";1.92;"HS";18.68;0;18.68;3.59;0;3.59;3;10;13;0;0;0;0;0;0;0;1;1;0;12.44;9.84;22.28;0;5.75;5.75;28.03;1.75;0;0;1;0;0;0.51;9;7;8;6;7;7;5;7;7;5;0.89;0.53;0.82;0.99;0.58;0.42;0.65;0.87;0;0.01;0.133408203123927;0.162;0.140501386252295;159.669;136.994;22.675
"NHS";"NHS";0.182209501942319;0.817790498057681;"1E50";"A";"149";"T";"N";1.275;"NHS";23.75;0;23.75;9.96;0;9.96;5;10;15;0;0;0;0;0;0;1;1;2;1;17.49;16.21;33.7;0.23;0.01;0.24;33.94;1.33;0;0;1;0;0;0.235;6;6;5;4;5;6;2;5;5;2;0.7;0.35;0.63;0.53;0.41;0.54;0.46;0.61;0.01;0.33;0.242147956762975;0.284;0.151225359473712;166.112;134.496;31.616
"HS";"NHS";0.305703092475059;0.694296907524941;"1E50";"A";"161";"T";"N";2.18;"HS";17.1;0;17.1;26.02;0;26.02;5;11;16;0;0;0;0;0;0;1;1;2;1;27.65;15.47;43.12;0;0;0;43.12;1.8;0;0;1;0;0;0;7;5;5;3;5;5;2;4;4;1;0.56;0.35;0.57;0.42;0.35;0.55;0.42;0.54;0.01;0.38;0.496549782968457;0.522;0.314313747249278;168.915;127.653;41.262
"NHS";"NHS";0.0546878498696312;0.945312150130369;"1E50";"A";"69";"N";"N";0.68;"NHS";24.16;0;24.16;12.17;0;12.17;2;10;12;0;0;0;0;0;0;0;4;4;0;15.26;21.06;36.32;1.01;0.06;1.07;37.39;1.67;0;0;1;0;0;0;1;2;2;1;2;3;1;2;2;1;0.4;0.27;0.45;0.31;0.28;0.76;0.33;0.39;0.04;0.67;0.201856376397661;0.252;0.152487495021935;165.792;129.493;36.299
"NHS";"NHS";0.163150490113383;0.836849509886617;"1E50";"B";"58";"V";"N";0;"NHS";16.56;0;16.56;24.68;0;24.68;3;8;11;0;0;0;0;0;0;0;1;1;0;26.49;14.74;41.23;0.41;28.09;28.5;69.73;1.83;0;1;0;0;0;0;5;4;4;4;4;4;2;3;3;1;0.78;0.31;0.53;0.54;0.33;0.69;0.34;0.58;0.01;0.46;0.156182636886788;0.202;0.186670477058817;204.156;175.568;28.588
"NHS";"NHS";0.0546843089288296;0.94531569107117;"1EAW";"A";"143";"H";"N";-0.01;"NHS";16.87;0;16.87;21.7;0;21.7;2;13;15;0;0;0;0;0;0;0;1;1;0;21.7;16.87;38.57;3.48;0;3.48;42.05;1;0;0;0;1;0;0;2;3;3;2;3;3;2;3;3;1;0.45;0.07;0.37;0.17;0.25;0.93;0.28;0.39;0.14;0.84;0.144463637616465;0.346;0.128596514339089;209.811;175.448;34.363
"NHS";"NHS";0.0394316769366743;0.960568323063326;"1EAW";"A";"146";"Y";"N";0.5;"NHS";23.03;0;23.03;5.52;0;5.52;2;10;12;0;0;0;0;0;0;0;0;0;0;9.26;19.3;28.56;42.65;64.77;107.42;135.98;1;1;0;0;0;0;0;5;4;3;3;4;4;2;3;3;1;0.17;0.11;0.2;0.2;0.14;0.87;0.13;0.19;0.06;0.79;0.0995552238693923;0.032;0.055234707994288;339.307;320.213;19.094
"NHS";"NHS";0.00743355671796919;0.992566443282031;"1EAW";"A";"175";"Q";"N";-0.13;"NHS";0.2;0;0.2;0;0;0;1;11;12;0;0;0;0;0;0;0;1;1;0;0;0.2;0.2;43.55;32.86;76.41;76.61;1;0;0;1;0;0;0;1;3;3;2;3;3;1;3;2;1;0.31;0.07;0.14;0.11;0.14;0.99;0.09;0.16;0.17;0.89;0.0788281257696031;0.042;0.0139784378343299;235.592;235.645;-0.053
"NHS";"NHS";0.0546177448080659;0.945382255191934;"1EAW";"A";"38";"Q";"N";-0.52;"NHS";46.56;0;46.56;13.48;0;13.48;5;8;13;0;0;0;0;0;0;1;2;3;1;19.11;40.92;60.03;3.57;16.82;20.39;80.42;1;0;0;1;0;0;0;1;4;4;3;4;4;2;4;3;1;0.16;0.12;0.19;0.22;0.12;0.81;0.13;0.16;0.05;0.74;0.154032968371052;0.146;0.104395300113769;232.001;194.461;37.54
"NHS";"NHS";0.0104976489255086;0.989502351074491;"1EAW";"A";"96";"D";"N";0.65;"NHS";18.43;0;18.43;0;0;0;2;5;7;0;0;0;0;0;0;0;0;0;0;1.7;16.73;18.43;70.61;22.11;92.72;111.15;1;0;0;0;0;1;0;1;3;3;2;3;3;1;3;2;1;0.06;0.07;0;0.11;0.07;0.95;0;0.01;0.14;0.88;0.0714454643871343;0.012;0.0279450780208328;238.2;228.827;9.373
"NHS";"NHS";0.0501453987555037;0.949854601244496;"1EAW";"A";"97";"F";"N";0.89;"NHS";29.3;0;29.3;21.18;0;21.18;1;4;5;0;0;0;0;0;0;1;1;2;1;42.87;7.61;50.48;0.2;116.24;116.44;166.92;1.25;1;0;0;0;0;0;1;3;3;2;3;3;1;3;2;1;0.11;0.05;0.04;0.08;0.09;0.97;0.03;0.05;0.21;0.91;0.141555369696476;0.096;0.139308467348303;335.737;292.999;42.738
"NHS";"NHS";0.0102915742166266;0.989708425783373;"1EMV";"A";"28";"S";"N";0.17;"NHS";4.58;0;4.58;0;0;0;1;3;4;0;0;0;0;0;0;0;1;1;0;3.94;0.64;4.58;72.29;34.18;106.47;111.05;1.5;0;0;1;0;0;0;2;3;3;2;2;3;1;2;2;1;0.28;0.11;0.25;0.2;0.21;0.9;0.16;0.26;0.1;0.79;0.077516076030388;0.048;0.0227364973890456;196.539;194.728;1.811
"NHS";"NHS";0.27538986657798;0.72461013342202;"1EMV";"A";"30";"E";"N";1.42;"NHS";54.53;0;54.53;27.4;0;27.4;6;5;11;0;0;0;0;0;0;1;2;3;1;33.97;47.96;81.93;16.53;18.8;35.33;117.26;1.14;0;0;0;0;1;0;8;6;5;4;5;5;2;5;4;2;0.47;0.26;0.39;0.6;0.31;0.65;0.26;0.39;0.01;0.4;0.208083267048058;0.17;0.250607742596011;277.354;188.701;88.653
"HS";"NHS";0.166529797637722;0.833470202362278;"1EMV";"A";"34";"V";"N";2.58;"HS";14.53;0;14.53;41.87;0;41.87;4;8;12;0;0;0;0;0;0;0;2;2;0;54.7;1.71;56.41;0;26.62;26.62;83.03;1.6;0;1;0;0;0;0;3;4;4;3;4;5;2;4;4;1;0.39;0.22;0.31;0.45;0.21;0.76;0.22;0.35;0.03;0.55;0.242970033330165;0.366;0.181507392515425;219.107;176.751;42.356
"HS";"NHS";0.0361570117705873;0.963842988229413;"1EMV";"A";"41";"E";"N";2.08;"HS";35.22;0;35.22;0;0;0;3;11;14;1;0;1;0;0;0;0;3;3;0;2.74;32.48;35.22;14.75;12.34;27.09;62.31;1;0;0;0;0;1;0;4;3;3;3;3;3;1;3;2;1;0.45;0.11;0.36;0.29;0.24;0.83;0.24;0.35;0.03;0.71;0.0919781712458045;0.162;0.0760164119979293;217.05;189.516;27.534
"NHS";"NHS";0.157801169509163;0.842198830490837;"1EMV";"A";"46";"H";"N";0.83;"NHS";0.73;0;0.73;0;0;0;1;11;12;0;0;0;0;0;0;0;2;2;0;0;0.73;0.73;14.63;6.83;21.46;22.19;1;0;0;0;1;0;0;9;8;8;7;8;8;6;8;8;5;0.8;0.56;0.75;0.91;0.47;0.43;0.63;0.77;0;0.09;0.0756353805497198;0.178;0.0601407978031997;190.749;190.688;0.061
"HS";"NHS";0.238197519750822;0.761802480249178;"1EMV";"A";"50";"S";"N";2.19;"HS";26.81;0;26.81;3.7;0;3.7;5;10;15;0;0;0;0;0;0;1;2;3;1;3.7;26.81;30.51;0.28;0.02;0.3;30.81;1.67;0;0;1;0;0;0;7;5;5;4;6;5;3;4;4;2;0.7;0.34;0.57;0.56;0.41;0.68;0.4;0.61;0.02;0.44;0.244196094429482;0.368;0.223186800566387;139.615;114.379;25.236
"HS";"NHS";0.305808782242967;0.694191217757033;"1EMV";"A";"51";"D";"N";5.91;"HS";30.41;0;30.41;3.79;0;3.79;4;8;12;0;0;0;0;0;0;1;2;3;1;4.34;29.86;34.2;23.62;4.34;27.96;62.16;1.5;0;0;0;0;1;0;8;7;7;6;7;7;4;7;6;3;0.68;0.38;0.62;0.79;0.41;0.56;0.45;0.68;0.01;0.21;0.095875766242552;0.07;0.2266214362655;187.65;157.427;30.223
"NHS";"NHS";0.13249029100992;0.86750970899008;"1EMV";"B";"54";"R";"N";1.67;"NHS";21.67;0;21.67;0;0;0;1;15;16;0;0;0;0;0;0;0;2;2;0;0.35;21.32;21.67;35.04;14.2;49.24;70.91;1;0;0;0;1;0;0;9;8;8;7;8;7;5;8;7;5;0.69;0.41;0.69;0.94;0.43;0.45;0.53;0.74;0;0.06;0.0728836670185994;0.108;0.0563078664619302;283.248;265.585;17.663
"NHS";"NHS";0.0457366808459077;0.954263319154092;"1EMV";"B";"78";"S";"N";-0.54;"NHS";7.96;0;7.96;16.55;0;16.55;3;12;15;0;0;0;0;0;0;0;4;4;0;17.69;6.82;24.51;0.22;0.05;0.27;24.78;1.5;0;0;1;0;0;0;1;3;3;2;3;3;1;3;2;1;0.37;0.09;0.28;0.28;0.19;0.87;0.2;0.3;0.05;0.72;0.1534093573207;0.136;0.112774825258531;123.253;105.414;17.839
"HS";"HS";0.590666445936413;0.409333554063587;"1EMV";"B";"86";"F";"N";3.88;"HS";16.86;0;16.86;76.07;0;76.07;7;9;16;0;0;0;0;0;0;1;1;2;1;84.63;8.3;92.93;0;1.17;1.17;94.1;1.75;1;0;0;0;0;0;1;3;3;2;3;3;2;3;2;1;0.41;0.28;0.4;0.33;0.29;0.78;0.27;0.38;0.05;0.67;0.843029067497607;0.88;0.806125876173392;300.638;200.383;100.255
"NHS";"NHS";0.0451680098826298;0.95483199011737;"1EMV";"B";"92";"Q";"N";-0.28;"NHS";19.54;0;19.54;0;0;0;2;12;14;0;0;0;0;0;0;1;2;3;1;0.46;19.08;19.54;19.42;5.11;24.53;44.07;1.5;0;0;1;0;0;0;1;4;3;3;4;4;2;3;2;1;0.38;0.21;0.39;0.34;0.24;0.74;0.25;0.32;0.03;0.67;0.0796284219625324;0.034;0.108356863070719;201.58;185.004;16.576
"NHS";"NHS";0.0205654611992498;0.97943453880075;"1F47";"A";"14";"K";"N";-0.04;"NHS";0;0;0;1.24;0;1.24;1;8;9;0;0;0;0;0;0;0;1;1;0;1.24;0;1.24;50.92;97.03;147.95;149.19;1;0;0;0;1;0;0;5;5;5;5;5;5;5;5;5;5;0.5;0.5;0.5;0.5;0.5;0.5;0.5;0.5;0.5;0.5;0.0833659440937426;0.138;0.01387695368144;317.076;316.959;0.117
"NHS";"NHS";0.118337359828916;0.881662640171084;"1F47";"A";"4";"D";"N";0.69;"NHS";44.38;0;44.38;10.84;0;10.84;2;4;6;0;0;0;0;0;0;1;0;1;1;13.05;42.17;55.22;61;35.29;96.29;151.51;1.29;0;0;0;0;1;0;5;5;5;5;5;5;5;5;5;5;0.5;0.5;0.5;0.5;0.5;0.5;0.5;0.5;0.5;0.5;0.11921396851139;0.24;0.100981228842024;265.56;215.267;50.293
"NHS";"NHS";0.448095280236296;0.551904719763704;"1F47";"A";"5";"Y";"N";0.87;"NHS";58.23;0;58.23;42.47;0;42.47;5;5;10;0;0;0;0;0;0;0;1;1;0;80.52;20.17;100.69;36.96;30.19;67.15;167.84;1.42;1;0;0;0;0;0;5;5;5;5;5;5;5;5;5;5;0.5;0.5;0.5;0.5;0.5;0.5;0.5;0.5;0.5;0.5;0.517649599666093;0.434;0.3852512972418;366.761;277.626;89.135
"NHS";"NHS";0.0571672471829169;0.942832752817083;"1F47";"A";"7";"D";"N";1.73;"NHS";14.6;0;14.6;4.21;0;4.21;1;8;9;0;0;0;0;0;0;0;2;2;0;8.68;10.13;18.81;19.85;34.9;54.75;73.56;1;0;0;0;0;1;0;5;5;5;5;5;5;5;5;5;5;0.5;0.5;0.5;0.5;0.5;0.5;0.5;0.5;0.5;0.5;0.0715685388120901;0.014;0.0424894517647972;190.486;181.837;8.649
"HS";"NHS";0.4473743379646;0.5526256620354;"1FC2";"C";"150";"I";"N";3.725;"HS";13.67;0;13.67;22.46;0;22.46;3;11;14;0;0;0;0;0;0;0;1;1;0;33.22;2.91;36.13;0;0;0;36.13;1.75;0;1;0;0;0;1.545;8;8;8;7;8;8;6;8;7;5;0.81;0.37;0.68;0.9;0.39;0.49;0.49;0.72;0;0.1;0.371079462046031;0.188;0.209074566340571;190.939;164.5;26.439
"HS";"NHS";0.213794511858679;0.786205488141321;"1FCC";"C";"27";"E";"N";4.94;"HS";33.27;0;33.27;13.68;0;13.68;3;9;12;0;0;0;0;0;0;2;1;3;1;15.08;31.87;46.95;0;1.09;1.09;48.04;1.4;0;0;0;0;1;0;3;5;4;3;6;5;2;5;4;1;0.5;0.26;0.53;0.6;0.31;0.67;0.37;0.56;0.03;0.4;0.249603761730151;0.322;0.287626595666526;207.976;148.771;59.205
"NHS";"NHS";0.0241885209382841;0.975811479061716;"1FFW";"B";"202";"D";"N";-0.07;"NHS";0.42;0;0.42;0.16;0;0.16;1;7;8;0;0;0;0;0;0;0;1;1;0;0.16;0.42;0.58;47.83;51.14;98.97;99.55;1;0;0;0;0;1;0;6;5;5;4;5;5;3;4;4;2;0.56;0.23;0.46;0.51;0.3;0.69;0.29;0.46;0.03;0.49;0.0747361719052687;0.11;0.0199016110246338;220.062;220.044;0.018
"NHS";"HS";0.545105498425781;0.454894501574219;"1FFW";"B";"207";"D";"N";0.1;"NHS";31.32;0;31.32;19.28;0;19.28;3;9;12;0;0;0;0;0;0;1;2;3;1;23.32;27.28;50.6;33.72;0.02;33.74;84.34;1.62;0;0;0;0;1;0;9;9;9;7;8;9;6;8;9;6;0.74;0.47;0.72;0.89;0.46;0.44;0.54;0.75;0;0.08;0.1190590621798;0.11;0.29366447637159;203.489;159.029;44.46
"NHS";"NHS";0.138681784147304;0.861318215852696;"1FFW";"B";"216";"I";"N";0.43;"NHS";7.79;0;7.79;0.62;0;0.62;1;10;11;0;0;0;0;0;0;1;1;2;1;0.62;7.79;8.41;0;3.12;3.12;11.53;1;0;1;0;0;0;0;8;6;7;6;6;6;4;5;5;3;0.88;0.42;0.69;0.71;0.47;0.57;0.49;0.72;0.01;0.29;0.0890845377910872;0.106;0.064053988608241;174.417;168.537;5.88
"NHS";"NHS";0.0146190123840783;0.985380987615922;"1GC1";"C";"23";"S";"N";0.29;"NHS";6.29;0;6.29;0;0;0;1;8;9;0;0;0;0;0;0;0;0;0;0;0;6.29;6.29;33.86;13.27;47.13;53.42;1;0;0;1;0;0;0;1;3;3;3;4;4;2;3;3;1;0.36;0.26;0.43;0.26;0.23;0.67;0.31;0.36;0.07;0.64;0.0722787051484577;0.09;0.0213376565904163;155.992;153.363;2.629
"NHS";"NHS";0.0129055604061608;0.987094439593839;"1GC1";"C";"32";"N";"N";0.18;"NHS";13.05;0;13.05;3.81;0;3.81;1;5;6;0;0;0;0;0;0;0;1;1;0;4.68;12.18;16.86;70.1;19.07;89.17;106.03;1;0;0;1;0;0;0;4;3;3;3;3;4;2;3;3;1;0.33;0.23;0.42;0.27;0.24;0.67;0.28;0.34;0.09;0.62;0.0699110886010148;0.034;0.0150259625082225;226.074;211.711;14.363
"NHS";"NHS";0.0892443043486568;0.910755695651343;"1GC1";"C";"60";"S";"N";-0.09;"NHS";26.11;0;26.11;25.75;0;25.75;3;6;9;0;0;0;0;0;0;0;0;0;0;32.52;19.33;51.85;28.26;5.95;34.21;86.06;1.5;0;0;1;0;0;0;4;4;3;3;4;4;2;3;3;1;0.56;0.34;0.51;0.38;0.32;0.76;0.38;0.48;0.06;0.61;0.10471698971084;0.034;0.110410915109963;188.86;142.346;46.514
"NHS";"NHS";0.194223383120537;0.805776616879463;"1H9D";"B";"103";"L";"N";0.86;"NHS";2.58;0;2.58;22.29;0;22.29;3;12;15;0;0;0;0;0;0;0;1;1;0;24.87;0;24.87;0;0.28;0.28;25.15;1.67;0;1;0;0;0;0;7;5;5;4;5;4;3;4;3;2;0.66;0.35;0.67;0.47;0.35;0.57;0.49;0.6;0.02;0.43;0.172460307838884;0.164;0.167189609640058;183.673;161.127;22.546
"HS";"HS";0.649251583166529;0.350748416833471;"1H9D";"B";"104";"N";"N";2.11;"HS";53.35;0;53.35;14.28;0;14.28;7;9;16;0;0;0;0;0;0;2;1;3;1;22.34;45.29;67.63;2.54;0;2.54;70.17;1.88;0;0;1;0;0;0;9;8;7;7;8;7;6;7;7;5;0.73;0.47;0.78;0.69;0.47;0.44;0.6;0.76;0;0.15;0.454742521085892;0.34;0.418690274520433;218.67;134.753;83.917
"NHS";"NHS";0.296025807014114;0.703974192985886;"1H9D";"B";"3";"R";"N";1.06;"NHS";68.87;0;68.87;8.86;0;8.86;8;6;14;0;1;1;0;0;0;0;0;0;0;25.21;52.52;77.73;27.71;46.93;74.64;152.37;1.4;0;0;0;1;0;0;8;7;7;6;7;7;4;7;7;4;0.62;0.44;0.69;0.56;0.38;0.48;0.54;0.61;0.01;0.23;0.199007439898889;0.216;0.19659883237623;339.684;287.209;52.475
"NHS";"NHS";0.0139906856985448;0.986009314301455;"1IAR";"A";"8";"Q";"N";-0.02;"NHS";14.09;0;14.09;0;0;0;3;10;13;0;0;0;0;0;0;0;3;3;0;0;14.09;14.09;37.91;12.22;50.13;64.22;1;0;0;1;0;0;0;1;3;3;2;3;3;1;2;2;1;0.49;0.29;0.54;0.35;0.28;0.7;0.36;0.51;0.12;0.61;0.0715016544417492;0.274;0.0248566111853028;224.753;220.376;4.377
"NHS";"NHS";0.290923319183689;0.709076680816311;"1IAR";"A";"89";"N";"N";1.56;"NHS";30.94;0;30.94;8.23;0;8.23;4;11;15;0;0;0;0;0;0;1;3;4;1;8.23;30.94;39.17;0.19;0.03;0.22;39.39;1.83;0;0;1;0;0;0;7;6;5;4;6;6;3;5;4;2;0.66;0.34;0.63;0.66;0.4;0.61;0.45;0.64;0.02;0.34;0.38329024858682;0.448;0.287573244340523;166.889;126.378;40.511
"NHS";"NHS";0.128304304954106;0.871695695045894;"1IAR";"A";"91";"W";"N";0.73;"NHS";14.14;0;14.14;25.77;0;25.77;3;17;20;0;0;0;0;0;0;0;2;2;0;28.74;11.17;39.91;10.09;24.78;34.87;74.78;1.38;1;0;0;0;0;0;3;3;3;2;3;3;2;3;2;1;0.51;0.12;0.57;0.43;0.34;0.68;0.38;0.51;0.07;0.57;0.161302059590165;0.192;0.254085487953279;318.927;297.848;21.079
"HS";"NHS";0.0834198327246066;0.916580167275393;"1JCK";"B";"176";"F";"N";1.96;"HS";20.41;0;20.41;26.07;0;26.07;3;6;9;0;0;0;0;0;0;0;1;1;0;46.48;0;46.48;1.48;99.09;100.57;147.05;1.14;1;0;0;0;0;0.17;2;5;4;3;5;5;2;4;3;1;0.47;0.27;0.59;0.46;0.33;0.62;0.42;0.54;0.08;0.48;0.139223341041539;0.08;0.102437580699557;327.676;297.631;30.045
"NHS";"NHS";0.118487345490865;0.881512654509135;"1JCK";"B";"20";"T";"N";1.485;"NHS";41.42;0;41.42;15.34;0;15.34;4;9;13;0;0;0;0;0;0;1;1;2;1;33.69;23.06;56.75;6.01;10.35;16.36;73.11;1.6;0;0;1;0;0;0.165;3;5;4;3;4;4;2;4;3;1;0.32;0.25;0.44;0.18;0.15;0.52;0.3;0.36;0.11;0.49;0.19471242750944;0.226;0.228286511740081;205.715;157.044;48.671
"HS";"NHS";0.0731225538279864;0.926877446172014;"1JCK";"B";"91";"V";"N";2.08;"HS";16.97;0;16.97;41.06;0;41.06;5;9;14;0;0;0;0;0;0;0;0;0;0;56.59;1.44;58.03;0.82;21.53;22.35;80.38;1;0;1;0;0;0;0.15;1;2;2;1;3;3;1;2;2;1;0.43;0.07;0.53;0.3;0.31;0.76;0.39;0.46;0.24;0.7;0.203673917181953;0.286;0.0867679407432107;239.522;181.847;57.675
"NHS";"NHS";0.494984111518286;0.505015888481714;"1JRH";"H";"100b";"H";"Y";1.7;"NHS";36.87;26.83;63.7;14.29;18.35;32.64;5;10;15;0;0;0;0;0;0;2;1;3;1;30.48;20.67;51.15;0.02;0;0.02;51.17;2.1;0;0;0;1;0;0;5;5;5;5;5;5;5;5;5;5;0.5;0.5;0.5;0.5;0.5;0.5;0.5;0.5;0.5;0.5;0.583487811812395;0.75;0.643484428204597;214.223;155.657;58.566
"HS";"NHS";0.260276113313972;0.739723886686028;"1JRH";"H";"53";"W";"Y";2.42;"HS";3.49;0;3.49;27.81;0;27.81;3;10;13;0;0;0;0;0;0;0;1;1;0;31.29;0;31.29;19.93;16.22;36.15;67.44;1.33;1;0;0;0;0;0;5;5;5;5;5;5;5;5;5;5;0.5;0.5;0.5;0.5;0.5;0.5;0.5;0.5;0.5;0.5;0.179650342632985;0.25;0.218739079257031;288.854;261.188;27.666
"NHS";"NHS";0.0614659349425637;0.938534065057436;"1JRH";"H";"56";"D";"Y";1.85;"NHS";21.15;0;21.15;1.61;0;1.61;1;6;7;0;0;0;0;0;0;0;2;2;0;7.59;15.17;22.76;31.71;18.87;50.58;73.34;1;0;0;0;0;1;0;5;5;5;5;5;5;5;5;5;5;0.5;0.5;0.5;0.5;0.5;0.5;0.5;0.5;0.5;0.5;0.0718263860973133;0.032;0.0462736149769903;189.288;169.241;20.047
"NHS";"NHS";0.142305051113922;0.857694948886078;"1JRH";"H";"95";"R";"Y";0.54;"NHS";18.01;0;18.01;0;5.39;5.39;2;19;21;0;0;0;0;0;0;2;5;7;1;0;18.01;18.01;1.58;4.1;5.68;23.69;1.2;0;0;0;1;0;0;5;5;5;5;5;5;5;5;5;5;0.5;0.5;0.5;0.5;0.5;0.5;0.5;0.5;0.5;0.5;0.0904354187704476;0.094;0.175988967798533;228.531;214.17;14.361
"NHS";"NHS";0.275219243997093;0.724780756002907;"1JRH";"H";"99";"Y";"Y";1.06;"NHS";40.13;0;40.13;35.77;0;35.77;6;5;11;0;0;0;0;0;0;1;0;1;1;47.3;28.6;75.9;35.25;98.51;133.76;209.66;1.25;1;0;0;0;0;0;5;5;5;5;5;5;5;5;5;5;0.5;0.5;0.5;0.5;0.5;0.5;0.5;0.5;0.5;0.5;0.43297184713278;0.4;0.195961113303159;401.876;330.591;71.285
"HS";"HS";0.759787889098066;0.240212110901934;"1JRH";"I";"49";"Y";"Y";3.525;"HS";53.14;0;53.14;46.36;0;46.36;7;8;15;0;0;0;0;0;0;2;1;3;1;71.7;27.79;99.49;0.46;6.79;7.25;106.74;1.67;1;0;0;0;0;0.125;5;5;5;5;5;5;5;5;5;5;0.5;0.5;0.5;0.5;0.5;0.5;0.5;0.5;0.5;0.5;0.763570291811668;0.812;0.76492407468252;317.65;205.812;111.838
"NHS";"NHS";0.270246612677953;0.729753387322047;"1JRH";"L";"30";"Y";"Y";1.11;"NHS";29.54;0;29.54;32.69;0;32.69;4;7;11;0;0;0;0;0;0;0;1;1;0;33.73;28.5;62.23;9.01;44.07;53.08;115.31;1.14;1;0;0;0;0;0;5;5;5;5;5;5;5;5;5;5;0.5;0.5;0.5;0.5;0.5;0.5;0.5;0.5;0.5;0.5;0.24236587241693;0.216;0.210344954633855;317.972;272.173;45.799
"NHS";"HS";0.608745169687501;0.391254830312499;"1JRH";"L";"91";"Y";"Y";0.58;"NHS";20.66;30.06;50.72;0;23.73;23.73;2;15;17;0;0;0;0;0;0;1;2;3;1;7.91;12.75;20.66;1.82;0;1.82;22.48;2.56;1;0;0;0;0;0;5;5;5;5;5;5;5;5;5;5;0.5;0.5;0.5;0.5;0.5;0.5;0.5;0.5;0.5;0.5;0.480318467664401;0.476;0.776187447282193;213.957;198.661;15.296
"NHS";"NHS";0.0397767454273354;0.960223254572665;"1JTG";"A";"100";"N";"N";-0.965;"NHS";44.27;0;44.27;16.07;0;16.07;3;4;7;0;0;0;0;0;0;1;0;1;1;16.07;44.27;60.34;56.16;18.3;74.46;134.8;1.17;0;0;1;0;0;0.505;1;3;3;3;3;3;2;3;3;1;0.37;0.22;0.36;0.31;0.26;0.82;0.22;0.34;0.05;0.68;0.115294240789016;0.16;0.0686479040357367;260.939;207.445;53.494
"NHS";"NHS";0.279820023472449;0.720179976527551;"1JTG";"A";"102";"L";"N";0.86;"NHS";25.04;0;25.04;29.7;0;29.7;6;11;17;0;0;0;0;0;0;0;1;1;0;35.02;19.72;54.74;0.09;2.38;2.47;57.21;1.6;0;1;0;0;0;0;6;6;6;5;5;5;3;5;4;2;0.7;0.29;0.46;0.61;0.32;0.62;0.29;0.49;0.01;0.38;0.255486866000151;0.288;0.232539389299398;227.706;186.859;40.847
"HS";"NHS";0.211317344000629;0.788682655999371;"1JTG";"A";"110";"E";"N";1.375;"HS";54;0;54;16.41;0;16.41;7;8;15;0;0;0;0;0;0;2;2;4;1;30.03;40.38;70.41;12.73;0.58;13.31;83.72;1.4;0;0;0;0;1;2.685;4;4;4;3;4;4;2;3;3;1;0.42;0.25;0.43;0.41;0.27;0.77;0.29;0.42;0.02;0.59;0.27048626270534;0.21;0.363945847069418;248.461;188.262;60.199
"NHS";"NHS";0.165090259958836;0.834909740041164;"1JTG";"A";"129";"M";"N";1.12;"NHS";24.54;0;24.54;31.71;0;31.71;5;11;16;0;0;0;0;0;0;0;1;1;0;44.81;11.44;56.25;0.13;1.11;1.24;57.49;1.67;0;1;0;0;0;0.38;1;3;3;2;4;4;2;3;2;1;0.53;0.26;0.48;0.25;0.31;0.8;0.33;0.43;0.05;0.76;0.34042145654489;0.362;0.252382432999844;227.068;177.908;49.16
"HS";"NHS";0.43854357889102;0.56145642110898;"1JTG";"B";"112";"W";"N";2.88;"HS";19.16;0;19.16;41.85;0;41.85;5;14;19;0;0;0;0;0;0;0;2;2;0;52.96;8.05;61.01;0.3;11.48;11.78;72.79;1.33;1;0;0;0;0;0.5345;5;5;5;5;5;5;5;5;5;5;0.5;0.5;0.5;0.5;0.5;0.5;0.5;0.5;0.5;0.5;0.410345327003875;0.488;0.389568829627051;326.892;279.203;47.689
"NHS";"NHS";0.0816905055225378;0.918309494477462;"1JTG";"B";"113";"S";"N";-0.516666666667;"NHS";12.72;0;12.72;4.7;0;4.7;2;10;12;0;0;0;0;0;0;1;2;3;1;9.29;8.13;17.42;9.65;6.9;16.55;33.97;1;0;0;1;0;0;0.2991;5;5;5;5;5;5;5;5;5;5;0.5;0.5;0.5;0.5;0.5;0.5;0.5;0.5;0.5;0.5;0.0889804033636186;0.056;0.0562117852710794;134.324;123.002;11.322
"NHS";"NHS";0.203923003197082;0.796076996802918;"1JTG";"B";"141";"G";"N";1.33;"NHS";15.17;0;15.17;0;0;0;3;5;8;0;0;0;0;0;0;1;2;3;1;4.25;10.91;15.16;0;17.19;17.19;32.35;1.67;0;1;0;0;0;0.57;5;5;5;5;5;5;5;5;5;5;0.5;0.5;0.5;0.5;0.5;0.5;0.5;0.5;0.5;0.5;0.104678897157516;0.13;0.16805311981565;95.6803;85.0143;10.666
"NHS";"NHS";0.417442177479025;0.582557822520975;"1JTG";"B";"143";"Y";"N";0.71;"NHS";19.73;0;19.73;20.17;0;20.17;2;12;14;0;0;0;0;0;0;1;0;1;1;29.8;10.1;39.9;16.2;13.16;29.36;69.26;1.7;1;0;0;0;0;0.5157;5;5;5;5;5;5;5;5;5;5;0.5;0.5;0.5;0.5;0.5;0.5;0.5;0.5;0.5;0.5;0.298146549445887;0.398;0.465182501603044;278.589;247.974;30.615
"HS";"NHS";0.400655452509636;0.599344547490364;"1JTG";"B";"162";"W";"N";2.26;"HS";39;0;39;32.04;0;32.04;6;9;15;0;0;0;0;0;0;0;1;1;0;62.49;8.55;71.04;0.09;17.93;18.02;89.06;1.18;1;0;0;0;0;0.08;5;5;5;5;5;5;5;5;5;5;0.5;0.5;0.5;0.5;0.5;0.5;0.5;0.5;0.5;0.5;0.449178031850918;0.33;0.346803020053862;331.239;272.547;58.692
"HS";"HS";0.52095830039607;0.47904169960393;"1JTG";"B";"49";"D";"N";2.34625;"HS";83.62;0;83.62;21.33;0;21.33;10;4;14;1;0;1;0;0;0;2;0;2;1;37.04;67.91;104.95;1.79;7.77;9.56;114.51;1.38;0;0;0;0;1;0.5243;5;5;5;5;5;5;5;5;5;5;0.5;0.5;0.5;0.5;0.5;0.5;0.5;0.5;0.5;0.5;0.353862137711975;0.37;0.513460371196576;264.554;149.142;115.412
"NHS";"NHS";0.0908476631552849;0.909152336844715;"1JTG";"B";"71";"S";"N";0.14;"NHS";16.13;0;16.13;4.22;0;4.22;1;10;11;0;0;0;0;0;0;1;2;3;1;11.31;9.04;20.35;2.1;0.35;2.45;22.8;1;0;0;1;0;0;0.4907;5;5;5;5;5;5;5;5;5;5;0.5;0.5;0.5;0.5;0.5;0.5;0.5;0.5;0.5;0.5;0.107654570364155;0.026;0.0652295727394725;127.254;107.082;20.172
"NHS";"NHS";0.270227629031653;0.729772370968347;"1JTG";"B";"73";"E";"N";0.435;"NHS";28.5;0;28.5;3.7;0;3.7;6;8;14;0;0;0;0;0;0;2;1;3;1;4.88;27.31;32.19;1.25;3.47;4.72;36.91;1.5;0;0;0;0;1;0.565;5;5;5;5;5;5;5;5;5;5;0.5;0.5;0.5;0.5;0.5;0.5;0.5;0.5;0.5;0.5;0.11661424538359;0.158;0.293352940053947;202.258;164.593;37.665
"HS";"HS";0.615106806410332;0.384893193589668;"1KTZ";"B";"30";"F";"N";2.98;"HS";25.78;0;25.78;30.9;0;30.9;3;10;13;0;0;0;0;0;0;0;1;1;0;51.14;5.55;56.69;1.6;10.46;12.06;68.75;1.62;1;0;0;0;0;0;9;7;6;5;7;6;4;6;5;3;0.86;0.49;0.77;0.74;0.6;0.49;0.61;0.76;0.01;0.26;0.365122809689399;0.276;0.454588512525709;256.575;207.151;49.424
"NHS";"NHS";0.0305216602987156;0.969478339701284;"1KTZ";"B";"49";"S";"N";0.33;"NHS";23.54;0;23.54;5.85;0;5.85;2;7;9;0;0;0;0;0;0;0;0;0;0;5.98;23.41;29.39;29.09;49.53;78.62;108.01;1.25;0;0;1;0;0;0;4;4;4;3;4;4;2;3;3;1;0.66;0.33;0.57;0.5;0.4;0.7;0.41;0.56;0.02;0.5;0.0726695965225815;0.002;0.0310687863513537;203.091;182.669;20.422
"NHS";"NHS";0.211152626212908;0.788847373787092;"1KTZ";"B";"50";"I";"N";1.9;"NHS";13.8;0;13.8;39.11;0;39.11;4;9;13;0;0;0;0;0;0;0;1;1;0;52.91;0;52.91;0;21.41;21.41;74.32;1.5;0;1;0;0;0;0;6;5;4;4;5;4;2;4;3;2;0.66;0.32;0.55;0.54;0.36;0.69;0.4;0.58;0.01;0.46;0.240451226897755;0.37;0.159788675734917;238.938;190.025;48.913
"NHS";"NHS";0.399081285178715;0.600918714821285;"1KTZ";"B";"52";"S";"N";0.22;"NHS";18.96;0;18.96;8.05;0;8.05;4;9;13;0;0;0;0;0;0;1;1;2;1;14.24;12.77;27.01;0;0;0;27.01;2.25;0;0;1;0;0;0;7;7;6;5;6;6;4;5;5;3;0.66;0.36;0.63;0.74;0.42;0.59;0.46;0.66;0.01;0.26;0.541544815875772;0.688;0.404879379505113;129.214;98.1448;31.069
"NHS";"NHS";0.0246579681275232;0.975342031872477;"1KTZ";"B";"55";"E";"N";1.22;"NHS";15.27;0;15.27;26.92;0;26.92;2;6;8;0;0;0;0;0;0;0;0;0;0;29.58;12.62;42.2;104.16;10.06;114.22;156.42;1;0;0;0;0;1;0;1;4;4;2;4;5;2;4;3;1;0.37;0.28;0.43;0.44;0.31;0.76;0.32;0.43;0.04;0.55;0.100048587289633;0.05;0.0325190601286461;292.381;262.539;29.842
"NHS";"NHS";0.05671040568158;0.94328959431842;"1LFD";"A";"27";"N";"N";0.95;"NHS";28.03;0;28.03;4.13;0;4.13;2;6;8;0;0;0;0;0;0;1;0;1;1;9;23.16;32.16;23.92;36.67;60.59;92.75;1.4;0;0;1;0;0;0.05;5;4;3;2;4;4;1;3;3;1;0.49;0.31;0.48;0.42;0.32;0.7;0.33;0.45;0.02;0.57;0.0868797639476481;0.038;0.0740699559238611;227.016;201.114;25.902
"NHS";"NHS";0.220489207793516;0.779510792206484;"1LFD";"A";"29";"N";"N";0.5;"NHS";25.88;0;25.88;10.43;0;10.43;4;9;13;0;0;0;0;0;0;0;1;1;0;17.72;18.58;36.3;14.76;0.87;15.63;51.93;1.75;0;0;1;0;0;0.2;7;6;5;3;6;6;2;5;5;2;0.69;0.4;0.64;0.62;0.45;0.6;0.5;0.61;0.01;0.36;0.177223011683714;0.178;0.157556623951927;192.975;157.081;35.894
"NHS";"NHS";0.310832637114165;0.689167362885835;"1LFD";"A";"32";"K";"N";1.9575;"NHS";37.51;0;37.51;11.73;0;11.73;5;10;15;0;0;0;0;0;0;0;2;2;0;33.56;15.68;49.24;9.55;1.5;11.05;60.29;1.71;0;0;0;1;0;0.7368;8;6;6;5;5;6;4;4;5;3;0.8;0.41;0.7;0.7;0.46;0.55;0.51;0.7;0.01;0.29;0.272252192324171;0.384;0.347072180255989;232.651;197.355;35.296
"NHS";"NHS";0.0205765713100561;0.979423428689944;"1LFD";"A";"56";"D";"N";-0.34;"NHS";7.86;12.01;19.87;0.01;8.42;8.43;1;7;8;0;0;0;0;0;0;0;0;0;0;0.01;7.86;7.87;37.64;29.45;67.09;74.96;1;0;0;0;0;1;0.06;2;4;4;3;4;3;2;3;3;1;0.44;0.28;0.44;0.47;0.3;0.71;0.3;0.41;0.03;0.53;0.0729949304050156;0.068;0.0316618655480689;221.522;209.656;11.866
"NHS";"NHS";0.0568149596621874;0.943185040337813;"1LFD";"B";"233";"D";"N";1.1;"NHS";34.5;2.43;36.93;1.17;0;1.17;1;6;7;1;0;1;0;0;0;0;0;0;0;3.62;32.04;35.66;41.65;10.88;52.53;88.19;1.33;0;0;0;0;1;0;5;4;4;3;5;4;2;4;3;1;0.3;0.22;0.34;0.2;0.22;0.7;0.25;0.3;0.05;0.68;0.0953041693011898;0.074;0.086436082309496;209.35;179.453;29.897
"HS";"NHS";0.366837354278882;0.633162645721118;"1LFD";"B";"238";"D";"N";3.315;"HS";36.09;0;36.09;13.98;0;13.98;5;9;14;0;0;0;0;0;0;1;1;2;1;19.4;30.66;50.06;6.22;0;6.22;56.28;2;0;0;0;0;1;0.585;8;5;4;3;5;4;2;4;3;2;0.4;0.23;0.41;0.28;0.25;0.66;0.29;0.36;0.03;0.6;0.252575867692595;0.394;0.532135553216833;187.059;142.883;44.176
"NHS";"NHS";0.134183759231198;0.865816240768802;"1OGA";"A";"154";"E";"Y";0.61;"NHS";30.19;0;30.19;19.8;0;19.8;3;8;11;0;0;0;0;0;0;0;1;1;0;35.34;14.64;49.98;24.52;29.9;54.42;104.4;1.29;0;0;0;0;1;0;5;5;5;5;5;5;5;5;5;5;0.5;0.5;0.5;0.5;0.5;0.5;0.5;0.5;0.5;0.5;0.0962897724730815;0.038;0.110021717110867;245.03;210.991;34.039
"NHS";"NHS";0.082511063384493;0.917488936615507;"1OGA";"A";"65";"R";"Y";-0.37;"NHS";31.66;0;31.66;19.53;0;19.53;5;9;14;0;0;0;0;0;0;0;2;2;0;36.95;14.24;51.19;67.93;25.49;93.42;144.61;1;0;0;0;1;0;0;5;5;5;5;5;5;5;5;5;5;0.5;0.5;0.5;0.5;0.5;0.5;0.5;0.5;0.5;0.5;0.0931763727391921;0.054;0.0625277533717594;338.579;301.982;36.597
"NHS";"NHS";0.155483694403873;0.844516305596127;"1OGA";"A";"72";"Q";"Y";-0.46;"NHS";28.63;0;28.63;24.03;0;24.03;4;8;12;0;0;0;0;0;0;0;2;2;0;38.9;13.76;52.66;32.83;1.94;34.77;87.43;1.43;0;0;1;0;0;0;5;5;5;5;5;5;5;5;5;5;0.5;0.5;0.5;0.5;0.5;0.5;0.5;0.5;0.5;0.5;0.105401034670416;0.042;0.103767751206402;240.659;190.369;50.29
"NHS";"NHS";0.0478781267434687;0.952121873256531;"1OGA";"A";"75";"R";"Y";0.71;"NHS";21.08;0;21.08;0;0;0;1;11;12;0;0;0;0;0;0;0;1;1;0;5.39;15.69;21.08;58.62;14.89;73.51;94.59;1;0;0;0;1;0;0;5;5;5;5;5;5;5;5;5;5;0.5;0.5;0.5;0.5;0.5;0.5;0.5;0.5;0.5;0.5;0.0721788528645957;0.016;0.042318656772156;291.643;278.399;13.244
"NHS";"NHS";0.157032672367133;0.842967327632867;"1OGA";"A";"76";"V";"Y";0.87;"NHS";3.12;0;3.12;30.5;15.51;46.01;4;9;13;0;0;0;0;0;0;0;3;3;0;33.62;0;33.62;1.25;40.9;42.15;75.77;1.33;0;1;0;0;0;0;5;5;5;5;5;5;5;5;5;5;0.5;0.5;0.5;0.5;0.5;0.5;0.5;0.5;0.5;0.5;0.157454282606603;0.276;0.0784205227922915;212.416;184.798;27.618
"NHS";"NHS";0.149505084462259;0.850494915537741;"1OGA";"E";"32";"D";"Y";1.57;"NHS";27.58;0;27.58;3.83;0;3.83;4;13;17;0;1;1;0;0;0;1;2;3;1;4.12;27.3;31.42;6.42;1.84;8.26;39.68;1;0;0;0;0;1;0;5;5;5;5;5;5;5;5;5;5;0.5;0.5;0.5;0.5;0.5;0.5;0.5;0.5;0.5;0.5;0.099480890629351;0.11;0.138529892979537;180.254;155.401;24.853
"NHS";"NHS";0.0684775429059062;0.931522457094094;"1OGA";"E";"55";"N";"Y";1.115;"NHS";38.99;0;38.99;6.46;0;6.46;3;6;9;0;0;0;0;0;0;0;1;1;0;19.6;25.84;45.44;51.69;13.34;65.03;110.47;1.17;0;0;1;0;0;0.015;5;5;5;5;5;5;5;5;5;5;0.5;0.5;0.5;0.5;0.5;0.5;0.5;0.5;0.5;0.5;0.100633019893706;0.04;0.0410299493930864;238.096;201.835;36.261
"HS";"HS";0.728140815504326;0.271859184495674;"1OGA";"E";"98";"R";"Y";2.16;"HS";64.24;6.29;70.53;48.34;0;48.34;10;11;21;0;0;0;0;0;0;2;2;4;1;52.37;60.2;112.57;0.08;7.39;7.47;120.04;1.88;0;0;0;1;0;0;5;5;5;5;5;5;5;5;5;5;0.5;0.5;0.5;0.5;0.5;0.5;0.5;0.5;0.5;0.5;0.72477136101531;0.716;0.786637413266693;332.204;224.014;108.19
"NHS";"NHS";0.0194551837983548;0.980544816201645;"1PPF";"I";"14";"P";"N";-0.12;"NHS";18.21;0;18.21;7.53;0;7.53;2;5;7;0;0;0;0;0;0;0;0;0;0;7.53;18.21;25.74;9.47;112.15;121.62;147.36;1.33;0;1;0;0;0;0;1;3;3;2;3;3;1;3;3;1;0.38;0.05;0.29;0.09;0.28;0.74;0.24;0.3;0.09;0.83;0.0713071863022785;0.026;0.0237935772644363;260.42;239.262;21.158
"NHS";"NHS";0.0323191715781077;0.967680828421892;"1PPF";"I";"21";"R";"N";0.21;"NHS";24.06;0;24.06;31.29;0;31.29;4;7;11;0;0;0;0;0;0;0;1;1;0;31.29;24.06;55.35;81.04;25.51;106.55;161.9;1;0;0;0;1;0;0;2;3;3;3;3;3;2;3;3;1;0.45;0.09;0.35;0.19;0.29;0.91;0.27;0.35;0.12;0.81;0.150033041831163;0.062;0.056785726344512;350.71;315.736;34.974
"NHS";"HS";0.617360554989814;0.382639445010186;"1R0R";"I";"18";"L";"N";0.415;"NHS";74.91;0;74.91;54.41;0;54.41;12;6;18;0;0;0;0;0;0;3;0;3;1;104.2;25.13;129.33;0;18.77;18.77;148.1;1.88;0;1;0;0;0;0.105;3;4;4;3;4;4;2;3;3;1;0.34;0.18;0.27;0.27;0.2;0.84;0.19;0.25;0.07;0.72;0.67815503233942;0.708;0.693786626633216;328.425;176.618;151.807
"NHS";"NHS";0.0729625902366827;0.927037409763317;"1R0R";"I";"32";"G";"N";1.295;"NHS";3.82;0;3.82;4.84;0;4.84;1;8;9;0;0;0;0;0;0;0;1;1;0;8.66;0;8.66;6.78;5.23;12.01;20.67;1.5;0;1;0;0;0;0.015;4;4;4;3;4;4;2;3;3;1;0.52;0.34;0.5;0.34;0.38;0.83;0.38;0.51;0.05;0.66;0.0874934843851819;0.03;0.0836731666102044;89.4485;87.2598;2.189
"NHS";"NHS";0.0106601980285816;0.989339801971418;"1R0R";"I";"36";"N";"N";-0.03;"NHS";0.02;0;0.02;0;0;0;1;12;13;0;0;0;0;0;0;0;2;2;0;0;0.02;0.02;36.32;14.72;51.04;51.06;1;0;0;1;0;0;0;1;3;3;2;3;3;2;3;2;1;0.38;0.06;0.28;0.14;0.26;0.96;0.22;0.29;0.13;0.87;0.080853069746797;0.102;0.0188479605437971;183.602;183.6;0.002
"NHS";"NHS";0.215053874940615;0.784946125059385;"1S1Q";"A";"44";"F";"N";0.2;"NHS";5.28;0;5.28;1.53;0;1.53;1;11;12;0;0;0;0;0;0;0;2;2;0;1.53;5.28;6.81;0;54.11;54.11;60.92;2;1;0;0;0;0;0;5;6;5;4;6;5;3;5;4;2;0.65;0.33;0.58;0.57;0.36;0.6;0.41;0.53;0.02;0.43;0.186678656261939;0.128;0.282898163698714;256.826;251.888;4.938
"NHS";"NHS";0.456774513772074;0.543225486227926;"1SMF";"I";"12";"S";"N";1.91;"NHS";34.41;0;34.41;13.49;0;13.49;7;6;13;0;0;0;0;0;0;0;1;1;0;35.61;12.29;47.9;0;4.38;4.38;52.28;1.67;0;0;1;0;0;0;9;7;7;6;8;8;5;7;6;4;0.95;0.5;0.86;1;0.64;0.46;0.67;0.92;0;0;0.178898020680611;0.202;0.20280321894062;148.003;104.697;43.306
"NHS";"NHS";0.477476597673555;0.522523402326445;"1TM1";"I";"59";"M";"N";1.03;"NHS";66.86;0;66.86;55.06;0;55.06;12;5;17;0;0;0;0;0;0;3;0;3;1;96.65;25.26;121.91;0;14.82;14.82;136.73;1.75;0;1;0;0;0;0;1;3;2;2;3;3;2;3;2;1;0.48;0.09;0.36;0.21;0.24;0.89;0.27;0.37;0.09;0.79;0.701519512670417;0.746;0.637813029641395;319.908;183.602;136.306
"HS";"HS";0.531432121543675;0.468567878456325;"1TM1";"I";"60";"E";"N";2.985;"HS";29.49;0;29.49;39.05;0;39.05;8;7;15;0;1;1;0;0;0;0;1;1;0;48.77;19.76;68.53;3.08;1.61;4.69;73.22;1.56;0;0;0;0;1;0.065;8;7;6;5;7;7;4;6;6;3;0.61;0.39;0.55;0.76;0.41;0.56;0.41;0.56;0.01;0.24;0.33202000023386;0.368;0.376147165190656;217.125;162.824;54.301
"NHS";"NHS";0.167700235973117;0.832299764026883;"1UUZ";"A";"62";"H";"N";1.77;"NHS";75.27;0;75.27;27.83;0;27.83;9;5;14;0;0;0;0;0;0;0;0;0;0;59.66;43.44;103.1;26.28;48.63;74.91;178.01;1.2;0;0;0;1;0;0;3;3;5;3;4;6;2;3;4;1;0.57;0.46;0.66;0.55;0.47;0.65;0.56;0.63;0.03;0.45;0.28065455741961;0.29;0.217051942775818;331.125;258.657;72.468
"NHS";"NHS";0.0650918959900564;0.934908104009944;"1VFB";"A";"30";"H";"Y";0.84;"NHS";25.6;0;25.6;0;0;0;2;8;10;0;0;0;0;0;0;0;1;1;0;12.52;13.08;25.6;17.24;32.01;49.25;74.85;1;0;0;0;1;0;0;5;5;5;5;5;5;5;5;5;5;0.5;0.5;0.5;0.5;0.5;0.5;0.5;0.5;0.5;0.5;0.0727772242914078;0.034;0.0616597774846763;233.99;219.007;14.983
"NHS";"NHS";0.289062044797594;0.710937955202406;"1VFB";"A";"50";"Y";"Y";0.455;"NHS";41.48;2.78;44.26;24.03;0;24.03;4;10;14;0;0;0;0;0;0;0;1;1;0;47.49;18.03;65.52;12.07;20.39;32.46;97.98;1.1;1;0;0;0;0;0.065;5;5;5;5;5;5;5;5;5;5;0.5;0.5;0.5;0.5;0.5;0.5;0.5;0.5;0.5;0.5;0.212235366900339;0.254;0.243497438515844;309.531;258.799;50.732
"NHS";"NHS";0.263740069223646;0.736259930776354;"1VFB";"B";"32";"Y";"Y";0.79;"NHS";22.69;0;22.69;13.38;0;13.38;3;14;17;0;0;0;0;0;0;0;0;0;0;19.17;16.89;36.06;22.21;8.82;31.03;67.09;1.43;1;0;0;0;0;0.33;5;5;5;5;5;5;5;5;5;5;0.5;0.5;0.5;0.5;0.5;0.5;0.5;0.5;0.5;0.5;0.131674352804399;0.086;0.258880165829578;271.73;250.114;21.616
"NHS";"NHS";0.0966284362587674;0.903371563741233;"1VFB";"B";"99";"R";"Y";-0.1;"NHS";37.99;0.39;38.38;0;0;0;4;8;12;0;0;0;0;0;0;1;1;2;1;1.35;36.64;37.99;52.74;11.17;63.91;101.9;1;0;0;0;1;0;0;5;5;5;5;5;5;5;5;5;5;0.5;0.5;0.5;0.5;0.5;0.5;0.5;0.5;0.5;0.5;0.107382494841609;0.17;0.0979099068537302;306.581;279.394;27.187
"NHS";"NHS";0.122519476452387;0.877480523547613;"1VFB";"C";"118";"T";"Y";0.77;"NHS";23.48;0;23.48;19.99;0;19.99;3;8;11;0;0;0;0;0;0;0;2;2;0;35.35;8.12;43.47;9.52;26.79;36.31;79.78;1.4;0;0;1;0;0;0;5;5;5;5;5;5;5;5;5;5;0.5;0.5;0.5;0.5;0.5;0.5;0.5;0.5;0.5;0.5;0.104115067671612;0.068;0.0829259436388378;205.041;171.514;33.527
"NHS";"NHS";0.105777248471758;0.894222751528242;"1VFB";"C";"18";"D";"Y";0.34;"NHS";28.63;0;28.63;2.3;0;2.3;2;8;10;0;0;0;0;0;0;0;0;0;0;3.48;27.45;30.93;26.3;6.08;32.38;63.31;1.25;0;0;0;0;1;0;5;5;5;5;5;5;5;5;5;5;0.5;0.5;0.5;0.5;0.5;0.5;0.5;0.5;0.5;0.5;0.0782662403159959;0.022;0.095208118827663;197.803;172.415;25.388
"NHS";"NHS";0.202318043298621;0.797681956701379;"1XGQ";"B";"33";"V";"Y";1.15;"NHS";3.64;0;3.64;22.1;0;22.1;3;9;12;0;0;0;0;0;0;0;2;2;0;25.46;0.27;25.73;0;1.6;1.6;27.33;1.5;0;1;0;0;0;0;5;5;5;5;5;5;5;5;5;5;0.5;0.5;0.5;0.5;0.5;0.5;0.5;0.5;0.5;0.5;0.127061989910507;0.09;0.131897937449573;164.369;148.943;15.426
"HS";"NHS";0.249296063068618;0.750703936931382;"1XGR";"B";"33";"I";"Y";2.26;"HS";8.23;0;8.23;27.94;0;27.94;4;8;12;0;0;0;0;0;0;0;2;2;0;35.78;0.39;36.17;0;0;0;36.17;1.5;0;1;0;0;0;0;5;5;5;5;5;5;5;5;5;5;0.5;0.5;0.5;0.5;0.5;0.5;0.5;0.5;0.5;0.5;0.31243248858746;0.308;0.15960986777466;196.266;165.472;30.794
"HS";"NHS";0.315205112475528;0.684794887524472;"1XGT";"B";"33";"L";"Y";2.2;"HS";8.47;0;8.47;32.16;0;32.16;5;8;13;0;0;0;0;0;0;0;2;2;0;40.64;0;40.64;0;0;0;40.64;1.67;0;1;0;0;0;0;5;5;5;5;5;5;5;5;5;5;0.5;0.5;0.5;0.5;0.5;0.5;0.5;0.5;0.5;0.5;0.433430268648142;0.34;0.219781144523047;197.073;166.709;30.364
"NHS";"NHS";0.200463226796058;0.799536773203942;"1Z7X";"W";"318";"W";"N";0.99;"NHS";22.71;0;22.71;7.95;0;7.95;2;13;15;0;0;0;0;0;0;0;2;2;0;24.56;6.1;30.66;4.09;6.67;10.76;41.42;1.67;1;0;0;0;0;0;4;4;4;3;5;5;2;3;3;1;0.32;0.26;0.4;0.4;0.21;0.68;0.28;0.35;0.04;0.58;0.198984766410826;0.156;0.363441439791072;269.386;249.179;20.207
"NHS";"NHS";0.0755524578716001;0.9244475421284;"1Z7X";"W";"320";"K";"N";1.32;"NHS";47.6;0;47.6;3.48;0;3.48;4;11;15;0;0;0;0;0;0;0;2;2;0;19.56;31.51;51.07;8.91;13.77;22.68;73.75;1.6;0;0;0;1;0;0;2;3;2;2;3;2;1;3;2;1;0.31;0.08;0.34;0.21;0.23;0.86;0.25;0.31;0.1;0.79;0.136381226365101;0.108;0.26746804092795;236.619;204.346;32.273
"NHS";"NHS";0.0655292472950841;0.934470752704916;"1Z7X";"W";"344";"E";"N";1.56;"NHS";3.2;0;3.2;0;0;0;2;11;13;0;0;0;0;0;0;0;3;3;0;0;3.2;3.2;25.29;2.47;27.76;30.96;1;0;0;0;0;1;0;6;5;5;3;6;6;2;5;5;2;0.6;0.33;0.52;0.53;0.34;0.71;0.38;0.57;0.02;0.45;0.074121566617583;0.09;0.0493462074277137;182.926;182.556;0.37
"NHS";"NHS";0.0816191003019586;0.918380899698041;"1Z7X";"W";"375";"W";"N";1.67;"NHS";19.7;0;19.7;21.33;0;21.33;3;13;16;0;0;0;0;0;0;0;3;3;0;41.02;0;41.02;0;39.5;39.5;80.52;1;1;0;0;0;0;0;2;4;4;3;5;5;3;3;3;1;0;0;0;0.14;0;0.5;0;0;0.04;0.57;0.136669649884125;0.096;0.148360324103881;320.446;284.193;36.253
"NHS";"NHS";0.0223256529860933;0.977674347013907;"1Z7X";"W";"401";"E";"N";1.31;"NHS";20.13;0;20.13;0;0;0;1;12;13;0;0;0;0;0;0;0;2;2;0;1.46;18.67;20.13;34.43;4.96;39.39;59.52;1;0;0;0;0;1;0;6;3;3;2;3;3;1;3;2;1;0;0;0;0.03;0;0.29;0;0;0.02;0.41;0.0726098007119731;0.008;0.0506440102999099;210.951;192.939;18.012
"HS";"NHS";0.122219230741489;0.877780769258511;"1Z7X";"W";"435";"D";"N";3.66;"HS";58.96;0;58.96;13.6;0;13.6;9;7;16;1;0;1;0;0;0;0;0;0;0;18.06;54.5;72.56;23.88;10.92;34.8;107.36;1.57;0;0;0;0;1;0;5;3;3;2;3;3;1;3;2;1;0;0;0;0.01;0;0.17;0;0;0.01;0.29;0.209834965553614;0.352;0.296524447761357;234.657;162.048;72.609
"HS";"NHS";0.178213420858267;0.821786579141733;"2FTL";"I";"13";"P";"N";4.05;"HS";33.55;0;33.55;24.98;0;24.98;6;6;12;0;0;0;0;0;0;1;0;1;1;42.1;16.43;58.53;0.67;24.06;24.73;83.26;1.2;0;1;0;0;0;0;4;5;4;3;5;5;2;4;3;1;0.33;0.3;0.42;0.25;0.34;0.77;0.33;0.37;0.04;0.7;0.115937283948722;0.1;0.161285082148498;209.352;160.375;48.977
"HS";"NHS";0.17389710993315;0.82610289006685;"2FTL";"I";"18";"I";"N";4.97;"HS";22.33;0;22.33;37.21;0;37.21;7;9;16;0;0;0;0;0;0;0;1;1;0;59.54;0;59.54;0;4.41;4.41;63.95;1.5;0;1;0;0;0;0;2;4;4;3;4;4;2;3;3;1;0.38;0.12;0.25;0.2;0.2;0.86;0.17;0.23;0.1;0.79;0.272449188704307;0.246;0.22472776475741;226.875;180.135;46.74
"HS";"NHS";0.0399337813848559;0.960066218615144;"2FTL";"I";"34";"V";"N";4.05;"HS";10.85;0;10.85;17.21;0;17.21;3;8;11;0;0;0;0;0;0;0;1;1;0;28.07;0;28.07;3.97;36.96;40.93;69;1;0;1;0;0;0;0;2;4;3;2;4;4;2;3;3;1;0.45;0.12;0.33;0.21;0.26;0.89;0.25;0.34;0.09;0.79;0.072926418669498;0.02;0.0409776908418096;205.31;188.268;17.042
"HS";"NHS";0.340809073371695;0.659190926628305;"2FTL";"I";"37";"G";"N";4.05;"HS";16.66;0;16.66;6.57;0;6.57;2;7;9;0;0;0;0;0;0;0;0;0;0;10.71;12.52;23.23;14.68;0.25;14.93;38.16;1.67;0;1;0;0;0;0;9;8;7;6;8;7;5;7;7;4;0.75;0.53;0.64;0.88;0.45;0.54;0.49;0.76;0.01;0.11;0.0972098264713428;0.058;0.12819261422803;95.9163;77.5957;18.321
"HS";"NHS";0.0294977721975871;0.970502227802413;"2FTL";"I";"39";"R";"N";4.05;"HS";40.14;0;40.14;13.83;0;13.83;3;7;10;0;0;0;0;0;0;0;0;0;0;31.95;22.02;53.97;94.44;26;120.44;174.41;1.14;0;0;0;1;0;0;2;4;4;3;4;4;2;3;3;1;0.4;0.12;0.4;0.31;0.29;0.83;0.29;0.44;0.04;0.69;0.108549931983407;0.034;0.0525709390105165;362.591;324.37;38.221
"NHS";"NHS";0.058155883066766;0.941844116933234;"2G2U";"A";"104";"D";"N";-1.55;"NHS";35.27;0;35.27;22.87;0;22.87;5;5;10;0;0;0;0;0;0;0;2;2;0;37.81;20.32;58.13;14.78;4.78;19.56;77.69;1.17;0;0;0;0;1;0;1;3;2;2;2;2;1;2;2;1;0.44;0.12;0.35;0.24;0.25;0.89;0.23;0.34;0.1;0.77;0.15394201869813;0.194;0.160765001128253;195.913;157.749;38.164
"NHS";"NHS";0.0671469580714916;0.932853041928508;"2G2U";"B";"113";"S";"N";-0.61;"NHS";21.54;0;21.54;1.47;0;1.47;2;10;12;0;0;0;0;0;0;0;1;1;0;11.75;11.26;23.01;4.86;2.8;7.66;30.67;1;0;0;1;0;0;0;5;5;5;5;5;5;5;5;5;5;0.5;0.5;0.5;0.5;0.5;0.5;0.5;0.5;0.5;0.5;0.0827258305752718;0.024;0.0437485902043778;130.034;116.883;13.151
"NHS";"NHS";0.217113532153844;0.782886467846156;"2G2U";"B";"143";"Y";"N";-1.85;"NHS";18.65;0;18.65;16.27;0;16.27;2;12;14;0;0;0;0;0;0;0;0;0;0;22.27;12.65;34.92;17.53;15.51;33.04;67.96;1.25;1;0;0;0;0;0;5;5;5;5;5;5;5;5;5;5;0.5;0.5;0.5;0.5;0.5;0.5;0.5;0.5;0.5;0.5;0.117039609547457;0.062;0.195595387385656;289.348;268.655;20.693
"NHS";"NHS";0.0919313139776933;0.908068686022307;"2G2U";"B";"31";"E";"N";0.65;"NHS";28.79;0;28.79;0;0;0;2;10;12;0;0;0;0;0;0;0;1;1;0;5.37;23.42;28.79;14.99;29.5;44.49;73.28;1.25;0;0;0;0;1;0;5;5;5;5;5;5;5;5;5;5;0.5;0.5;0.5;0.5;0.5;0.5;0.5;0.5;0.5;0.5;0.0750110016565158;0.014;0.0805665971996664;231.938;207.03;24.908
"NHS";"NHS";0.129411518489989;0.870588481510011;"2G2U";"B";"39";"S";"N";-0.96;"NHS";18.35;0;18.35;3.79;0;3.79;1;12;13;0;0;0;0;0;0;0;2;2;0;6.18;15.96;22.14;6.31;0;6.31;28.45;1.67;0;0;1;0;0;0;5;5;5;5;5;5;5;5;5;5;0.5;0.5;0.5;0.5;0.5;0.5;0.5;0.5;0.5;0.5;0.0989732563152907;0.05;0.114991277416411;129.842;110.404;19.438
"NHS";"NHS";0.455231130265109;0.544768869734891;"2G2U";"B";"41";"H";"N";1.72;"NHS";0.36;0;0.36;6.88;0;6.88;1;12;13;0;0;0;0;0;0;0;3;3;0;6.88;0.35;7.23;0.27;0;0.27;7.5;3;0;0;0;1;0;0;5;5;5;5;5;5;5;5;5;5;0.5;0.5;0.5;0.5;0.5;0.5;0.5;0.5;0.5;0.5;0.417545715123101;0.57;0.696107424819638;166.392;160.778;5.614
"NHS";"HS";0.584157623939948;0.415842376060052;"2GOX";"B";"138";"N";"N";1.45;"NHS";63.98;0;63.98;15.44;0;15.44;6;8;14;0;0;0;0;0;0;3;2;5;1;23.91;55.51;79.42;3.04;0.63;3.67;83.09;1.5;0;0;1;0;0;0.12;9;8;8;6;8;8;5;7;7;5;1;0.52;0.86;1;0.59;0.42;0.65;0.9;0.01;0;0.321259060315724;0.244;0.300634338257969;227.489;151.969;75.52
"NHS";"NHS";0.043937195943403;0.956062804056597;"2HRK";"A";"159";"K";"N";0.95;"NHS";32.37;0;32.37;8.21;0;8.21;2;8;10;1;0;1;0;0;0;0;1;1;0;23.45;17.13;40.58;43.58;48.54;92.12;132.7;1.2;0;0;0;1;0;0;6;4;4;3;4;4;1;3;3;1;0.56;0.3;0.56;0.47;0.33;0.74;0.39;0.58;0.05;0.53;0.0824059743388564;0.03;0.0633307223404406;300.456;270.245;30.211
"HS";"HS";0.556680298667414;0.443319701332586;"2HRK";"B";"106";"Y";"N";2;"HS";39.39;0;39.39;40.09;0;40.09;4;12;16;0;0;0;0;0;0;1;2;3;1;59.74;19.73;79.47;12.33;7.02;19.35;98.82;1.5;1;0;0;0;0;0;7;6;5;5;5;5;3;4;4;2;0.64;0.36;0.64;0.58;0.39;0.55;0.46;0.57;0.03;0.38;0.580523713189746;0.5;0.584235521521388;305.748;232.588;73.16
"NHS";"NHS";0.0992050176272365;0.900794982372763;"2JEL";"P";"76";"H";"Y";-0.41;"NHS";10.61;0;10.61;2.18;0;2.18;1;10;11;0;0;0;0;0;0;1;2;3;1;4.62;8.17;12.79;22.9;32.62;55.52;68.31;1.33;0;0;0;1;0;0;5;5;5;5;5;5;5;5;5;5;0.5;0.5;0.5;0.5;0.5;0.5;0.5;0.5;0.5;0.5;0.0773664087528209;0.038;0.115054094282942;227.732;217.919;9.813
"HS";"NHS";0.080584685218313;0.919415314781687;"2PCC";"A";"197";"V";"N";2.1;"HS";17.13;0;17.13;22.27;0;22.27;4;9;13;0;0;0;0;0;0;0;1;1;0;39.4;0;39.4;0.32;1.69;2.01;41.41;1.25;0;1;0;0;0;0;3;2;2;2;3;3;1;2;2;1;0.47;0.1;0.42;0.27;0.29;0.86;0.29;0.41;0.08;0.73;0.161149060525627;0.232;0.112053868681652;194.849;159.225;35.624
"NHS";"NHS";0.0364068768701131;0.963593123129887;"2PCC";"B";"72";"K";"N";0.3;"NHS";32.88;0;32.88;0.11;0;0.11;3;12;15;0;0;0;0;0;0;0;0;0;0;13.34;19.64;32.98;31.77;46.45;78.22;111.2;1;0;0;0;1;0;0;5;5;4;3;5;4;2;4;3;1;0.38;0.25;0.41;0.41;0.3;0.76;0.29;0.39;0.03;0.59;0.0904759840286205;0.162;0.0506356991105883;293.718;276.91;16.808
"NHS";"HS";0.732382609673574;0.267617390326426;"2SIC";"I";"73";"M";"N";0.22;"NHS";74.83;0;74.83;52.49;0;52.49;12;6;18;0;0;0;0;0;0;2;0;2;1;101.31;26.01;127.32;0;11.4;11.4;138.72;2;0;1;0;0;0;0;5;4;4;3;5;4;3;3;3;1;0.47;0.36;0.47;0.36;0.31;0.76;0.36;0.42;0.05;0.64;0.673855146251455;0.702;0.743818667038544;321.807;180.918;140.889
"HS";"NHS";0.237193562957158;0.762806437042842;"2WPT";"A";"50";"S";"N";2.42;"HS";26.6;0;26.6;4.71;0;4.71;5;10;15;0;0;0;0;0;0;1;3;4;1;6.55;24.76;31.31;0;0;0;31.31;1.67;0;0;1;0;0;0;7;5;5;3;6;5;3;5;4;2;0.67;0.33;0.54;0.53;0.38;0.71;0.38;0.58;0.02;0.47;0.356906972237574;0.438;0.226333368802332;137.486;110.044;27.442
"HS";"NHS";0.357612203774137;0.642387796225863;"2WPT";"A";"51";"D";"N";5.21;"HS";28.81;0;28.81;4.4;0;4.4;4;8;12;0;0;0;0;0;0;1;2;3;1;4.71;28.51;33.22;26.25;4.95;31.2;64.42;1.75;0;0;0;0;1;0;8;7;7;5;7;6;4;7;6;3;0.69;0.39;0.62;0.76;0.4;0.57;0.46;0.67;0.01;0.24;0.145352338726638;0.12;0.294169186257952;189.385;158.515;30.87
"HS";"HS";0.788727323774886;0.211272676225114;"2WPT";"A";"54";"Y";"N";5.21;"HS";56.42;0;56.42;43.28;0;43.28;6;10;16;0;0;0;0;0;0;0;1;1;0;71.69;28.01;99.7;3.95;0;3.95;103.65;2.09;1;0;0;0;0;0;6;6;6;6;6;6;4;5;4;3;0.78;0.44;0.7;0.69;0.52;0.5;0.52;0.67;0.01;0.31;0.816642084231333;0.82;0.803506761207159;315.052;211.835;103.217
"HS";"NHS";0.232723620906931;0.767276379093069;"2WPT";"A";"56";"P";"N";2.93;"HS";5.06;0;5.06;3.57;0;3.57;1;10;11;0;0;0;0;0;0;0;0;0;0;8.63;0;8.63;18.1;11.99;30.09;38.72;1.5;0;1;0;0;0;0;8;8;8;6;8;8;5;8;7;4;0.71;0.48;0.67;0.89;0.56;0.5;0.53;0.69;0;0.11;0.0771321825542343;0.092;0.0680266832147801;167.665;163.413;4.252
"NHS";"NHS";0.118351222135662;0.881648777864338;"2WPT";"B";"54";"R";"N";0.87;"NHS";23.88;0;23.88;0.04;0;0.04;1;15;16;0;0;0;0;0;0;0;2;2;0;0.04;23.88;23.92;36.85;13.7;50.55;74.47;1;0;0;0;1;0;0.26;9;8;7;6;7;7;5;7;7;4;0.69;0.4;0.66;0.89;0.42;0.49;0.51;0.71;0;0.11;0.0725374768885973;0.04;0.0569955279648591;260.62;240.338;20.282
"NHS";"NHS";0.173874905570281;0.826125094429719;"2WPT";"B";"84";"S";"N";-0.0733333333333;"NHS";10.62;0;10.62;0;0;0;1;10;11;0;0;0;0;0;0;1;2;3;1;2.73;7.89;10.62;0.7;0;0.7;11.32;1.67;0;0;1;0;0;0.0236;7;7;7;6;6;6;4;5;5;4;0.64;0.38;0.65;0.81;0.39;0.53;0.44;0.68;0;0.19;0.137571675081617;0.026;0.153548732288955;106.293;99.7301;6.563
"NHS";"HS";0.614004604024002;0.385995395975998;"2WPT";"B";"86";"F";"N";1.59666666667;"NHS";25.19;0;25.19;66.19;0;66.19;7;9;16;0;0;0;0;0;0;1;0;1;1;81.59;9.79;91.38;0;4.11;4.11;95.49;1.75;1;0;0;0;0;0.7643;1;4;3;3;4;4;2;3;3;1;0.43;0.29;0.41;0.36;0.3;0.76;0.28;0.38;0.04;0.64;0.718367452063762;0.694;0.790479110007231;294.35;201.752;92.598
"NHS";"NHS";0.110222094845547;0.889777905154453;"2WPT";"B";"97";"K";"N";0.65;"NHS";36.25;0;36.25;29.01;0;29.01;5;9;14;0;0;0;0;0;0;0;2;2;0;51.02;14.24;65.26;5.43;0.31;5.74;71;1.5;0;0;0;1;0;0.15;1;3;2;2;2;3;1;2;2;1;0.44;0.09;0.36;0.24;0.26;0.89;0.24;0.36;0.07;0.76;0.278912703468999;0.21;0.34788084732495;256.277;195.055;61.222
"NHS";"NHS";0.0598696746510711;0.940130325348929;"2WPT";"B";"98";"V";"N";0.265;"NHS";10.89;0;10.89;3.47;0;3.47;2;10;12;0;0;0;0;0;0;0;0;0;0;14.36;0;14.36;0.01;24.86;24.87;39.23;1.33;0;1;0;0;0;0.145;5;4;4;3;4;4;2;3;3;1;0.56;0.28;0.47;0.44;0.31;0.74;0.31;0.46;0.03;0.56;0.072270173122069;0.028;0.0624841846977792;175.994;171.998;3.996
"NHS";"NHS";0.321540893515315;0.678459106484685;"3BK3";"C";"2";"I";"N";1.04;"NHS";12.21;11.13;23.34;60.79;31.63;92.42;5;7;12;0;0;0;0;0;0;0;1;1;0;60.79;12.21;73;7.12;0;7.12;80.12;1.5;0;1;0;0;0;0;6;6;6;5;5;5;4;4;4;2;0;0;0;0.14;0;0.41;0;0;0.02;0.38;0.316020395472585;0.354;0.250930107090062;300.856;172.502;128.354
"NHS";"NHS";0.486799010416583;0.513200989583417;"3BK3";"C";"21";"I";"N";1.31;"NHS";13.21;0;13.21;57.01;0;57.01;6;9;15;0;0;0;0;0;0;0;1;1;0;68.59;1.63;70.22;0.48;0.01;0.49;70.71;1.6;0;1;0;0;0;0;7;7;6;4;7;6;3;6;5;2;0.48;0.25;0.43;0.5;0.21;0.6;0.29;0.4;0.02;0.39;0.429935681930343;0.49;0.297831274458609;244.177;169.061;75.116
"NHS";"NHS";0.234454635437286;0.765545364562714;"3BK3";"C";"27";"I";"N";1.26;"NHS";3.51;0;3.51;35.34;0;35.34;3;10;13;0;0;0;0;0;0;0;1;1;0;38.85;0;38.85;3.92;4.74;8.66;47.51;1.33;0;1;0;0;0;0;8;6;5;4;6;6;3;5;4;2;0.56;0.35;0.61;0.63;0.41;0.6;0.46;0.59;0.02;0.37;0.22082993026583;0.17;0.117135189637489;218.441;183.682;34.759
"NHS";"NHS";0.0547332403653974;0.945266759634603;"3BN9";"B";"143";"H";"Y";0.09;"NHS";4.99;0;4.99;1.17;0;1.17;1;11;12;0;0;0;0;0;0;0;2;2;0;4.6;1.56;6.16;22.5;20.39;42.89;49.05;1;0;0;0;1;0;0;5;5;5;5;5;5;5;5;5;5;0.5;0.5;0.5;0.5;0.5;0.5;0.5;0.5;0.5;0.5;0.0752035167812671;0.15;0.0505056016410564;206.832;205.161;1.671
"NHS";"NHS";0.0836362123804371;0.916363787619563;"3BN9";"B";"174";"Q";"Y";-0.03;"NHS";48.18;0;48.18;22.32;0;22.32;6;5;11;0;0;0;0;0;0;0;0;0;0;40.89;29.61;70.5;82.01;21.05;103.06;173.56;1.14;0;0;1;0;0;0;5;5;5;5;5;5;5;5;5;5;0.5;0.5;0.5;0.5;0.5;0.5;0.5;0.5;0.5;0.5;0.15308280188197;0.088;0.0417583670491474;314.259;262.462;51.797
"NHS";"NHS";0.0592599180298663;0.940740081970134;"3BN9";"B";"224";"K";"Y";0.78;"NHS";2.97;0;2.97;8.96;0;8.96;2;14;16;0;0;0;0;0;0;0;1;1;0;9.64;2.28;11.92;17.72;37.47;55.19;67.11;1;0;0;0;1;0;0;5;5;5;5;5;5;5;5;5;5;0.5;0.5;0.5;0.5;0.5;0.5;0.5;0.5;0.5;0.5;0.0733212260570852;0.112;0.0507312246506451;248.134;244.217;3.917
"NHS";"NHS";0.0549644422504973;0.945035557749503;"3BN9";"B";"60a";"D";"Y";0.42;"NHS";14.7;0;14.7;0.22;0;0.22;3;7;10;0;0;0;0;0;0;0;1;1;0;0.3;14.62;14.92;34.02;28.51;62.53;77.45;1;0;0;0;0;1;0;5;5;5;5;5;5;5;5;5;5;0.5;0.5;0.5;0.5;0.5;0.5;0.5;0.5;0.5;0.5;0.0728321485837173;0.134;0.0398639865051501;194.549;190.562;3.987
"NHS";"NHS";0.103504686109335;0.896495313890665;"3BN9";"B";"94";"F";"Y";0.64;"NHS";1.89;0;1.89;0;0;0;1;13;14;0;0;0;0;0;0;0;1;1;0;0;1.89;1.89;22.22;14.9;37.12;39.01;1;1;0;0;0;0;0;5;5;5;5;5;5;5;5;5;5;0.5;0.5;0.5;0.5;0.5;0.5;0.5;0.5;0.5;0.5;0.0957879646055882;0.032;0.0832356206480654;226.76;226.52;0.24
"HS";"NHS";0.282778720024044;0.717221279975956;"3BN9";"B";"96";"D";"Y";6.69;"HS";53.16;0;53.16;4.07;0;4.07;8;6;14;0;0;0;0;0;0;2;0;2;1;9.23;48;57.23;16.56;3.54;20.1;77.33;1.33;0;0;0;0;1;0;5;5;5;5;5;5;5;5;5;5;0.5;0.5;0.5;0.5;0.5;0.5;0.5;0.5;0.5;0.5;0.187619078973108;0.298;0.283877173818417;209.007;149.388;59.619
"NHS";"NHS";0.119342919290182;0.880657080709818;"3BN9";"B";"98";"T";"Y";1.13;"NHS";34.18;0;34.18;13.68;0;13.68;3;9;12;0;0;0;0;0;0;0;2;2;0;38.82;9.03;47.85;3.2;25.28;28.48;76.33;1.33;0;0;1;0;0;0;5;5;5;5;5;5;5;5;5;5;0.5;0.5;0.5;0.5;0.5;0.5;0.5;0.5;0.5;0.5;0.0969256492781864;0.04;0.0837536093194305;196.829;160.516;36.313
"NHS";"NHS";0.127507488337072;0.872492511662928;"3HFM";"H";"32";"D";"Y";1.9;"NHS";24.48;0;24.48;13.5;0;13.5;3;11;14;1;0;1;0;0;0;0;1;1;0;16.57;21.4;37.97;15.12;9.52;24.64;62.61;1.17;0;0;0;0;1;0;5;5;5;5;5;5;5;5;5;5;0.5;0.5;0.5;0.5;0.5;0.5;0.5;0.5;0.5;0.5;0.0783606303458978;0.008;0.108824351992992;201.495;179.601;21.894
"NHS";"NHS";0.367266903689312;0.632733096310688;"3HFM";"H";"58";"Y";"Y";1.68;"NHS";46.63;4.1;50.73;7.87;18.68;26.55;5;8;13;0;0;0;0;0;0;1;1;2;1;30.37;24.13;54.5;11.44;45.2;56.64;111.14;1.55;1;0;0;0;0;0;5;5;5;5;5;5;5;5;5;5;0.5;0.5;0.5;0.5;0.5;0.5;0.5;0.5;0.5;0.5;0.232908580290066;0.35;0.392588460531486;304.435;259.327;45.108
"NHS";"NHS";0.14279225393797;0.85720774606203;"3HFM";"Y";"73";"R";"Y";-0.33;"NHS";51.6;0;51.6;6.51;0;6.51;2;8;10;0;0;0;0;0;0;1;2;3;1;21.94;36.17;58.11;60.33;17.93;78.26;136.37;1.33;0;0;0;1;0;0;5;5;5;5;5;5;5;5;5;5;0.5;0.5;0.5;0.5;0.5;0.5;0.5;0.5;0.5;0.5;0.139553925160512;0.266;0.157744278735722;329.793;269.917;59.876
"HS";"NHS";0.497802937129501;0.502197062870499;"3HFM";"L";"50";"Y";"Y";4.56;"HS";36.17;18.02;54.19;22.82;0;22.82;4;11;15;0;0;0;0;0;0;0;1;1;0;39.59;19.4;58.99;3.94;3.13;7.07;66.06;1.75;1;0;0;0;0;0;5;5;5;5;5;5;5;5;5;5;0.5;0.5;0.5;0.5;0.5;0.5;0.5;0.5;0.5;0.5;0.452446012670912;0.57;0.532052046877365;280.39;226.712;53.678
"HS";"NHS";0.301923107555471;0.698076892444529;"3HFM";"L";"96";"Y";"Y";2.71;"HS";15.62;30.36;45.98;5.56;34.96;40.52;3;13;16;0;0;0;0;0;0;0;0;0;0;6.25;14.93;21.18;0.76;2.04;2.8;23.98;1.56;1;0;0;0;0;0;5;5;5;5;5;5;5;5;5;5;0.5;0.5;0.5;0.5;0.5;0.5;0.5;0.5;0.5;0.5;0.16524073877176;0.158;0.326414823889645;228.025;209.898;18.127
"NHS";"NHS";0.122593575826769;0.877406424173231;"3NPS";"A";"175";"Q";"Y";0.74;"NHS";30.99;0;30.99;12.77;0;12.77;2;9;11;0;0;0;0;0;0;1;1;2;1;22.69;21.07;43.76;29.95;9.06;39.01;82.77;1.29;0;0;1;0;0;0;5;5;5;5;5;5;5;5;5;5;0.5;0.5;0.5;0.5;0.5;0.5;0.5;0.5;0.5;0.5;0.0857624052276666;0.026;0.0946445825595064;242.313;217.113;25.2
"NHS";"NHS";0.0693551229694062;0.930644877030594;"3NPS";"A";"41";"I";"Y";0.64;"NHS";19.04;0;19.04;0;0;0;2;13;15;0;0;0;0;0;0;0;1;1;0;15.63;3.41;19.04;3.72;30.05;33.77;52.81;1;0;1;0;0;0;0;5;5;5;5;5;5;5;5;5;5;0.5;0.5;0.5;0.5;0.5;0.5;0.5;0.5;0.5;0.5;0.0702842102823213;0.05;0.0355394542530053;211.337;203.688;7.649
"NHS";"NHS";0.0470050764597102;0.95299492354029;"3NPS";"A";"60a";"D";"Y";0.34;"NHS";2.24;0;2.24;0;0;0;1;7;8;0;1;1;0;0;0;0;1;1;0;0;2.24;2.24;34.84;20.12;54.96;57.2;1;0;0;0;0;1;0;5;5;5;5;5;5;5;5;5;5;0.5;0.5;0.5;0.5;0.5;0.5;0.5;0.5;0.5;0.5;0.0727603902766798;0.044;0.0340437974511617;180.675;180.537;0.138
"HS";"NHS";0.260176838796702;0.739823161203298;"3SGB";"I";"17";"T";"N";3.36;"HS";19.42;0;19.42;47.78;0;47.78;6;6;12;0;0;0;0;0;0;0;2;2;0;60.69;6.52;67.21;17.58;3.6;21.18;88.39;1.4;0;0;1;0;0;0.18;7;6;5;3;6;5;2;5;4;2;0.49;0.36;0.41;0.53;0.34;0.72;0.32;0.43;0.02;0.47;0.272454595319562;0.386;0.159605201139137;227.043;151.577;75.466
"NHS";"NHS";0.0296603062300083;0.970339693769992;"3SGB";"I";"21";"R";"N";0.05;"NHS";37.81;0;37.81;11.5;0;11.5;2;8;10;0;0;0;0;0;0;0;1;1;0;22.5;26.81;49.31;81.95;23.37;105.32;154.63;1.25;0;0;0;1;0;0;2;3;3;3;3;3;2;3;3;1;0.45;0.09;0.35;0.19;0.29;0.91;0.27;0.35;0.12;0.81;0.102076304202325;0.036;0.0660902626806633;339.94;301.647;38.293
"HS";"HS";0.91605312899781;0.0839468710021898;"4CPA";"I";"38";"V";"N";2.32;"HS";86.28;0;86.28;46.81;0;46.81;13;3;16;0;0;0;0;0;0;1;0;1;1;80.96;52.13;133.09;7;0.05;7.05;140.14;2.38;0;1;0;0;0;0;9;7;7;6;8;7;5;7;6;4;0.48;0.36;0.59;0.29;0.18;0.39;0.44;0.49;0.04;0.25;0.718244644692424;0.676;0.861055650329622;278.392;152.071;126.321
