"Metric";"Training_Set";"Testing_Set";"Independent"
"Accuracy";"0.814671814671815";"0.755656108597285";"0.753668763102725"
"Kappa";"0.433544447988336";"0.159222206566155";"0.213705010486739"
"AccuracyLower";"0.778481906958435";"0.693524016790306";"0.725045108343067"
"AccuracyUpper";"0.847223200514845";"0.810792027364133";"0.780716886734807"
"AccuracyNull";"0.752895752895753";"0.755656108597285";"0.758909853249476"
"AccuracyPValue";"0.000481863415438339";"0.536462433258084";"0.663364081860643"
"McnemarPValue";"4.37352266789079e-06";"7.09790833090828e-06";"3.7921980896892e-10"
"Sensitivity";"0.4453125";"0.185185185185185";"0.278260869565217"
"Specificity";"0.935897435897436";"0.940119760479042";"0.904696132596685"
"Pos Pred Value";"0.695121951219512";"0.5";"0.481203007518797"
"Neg Pred Value";"0.837155963302752";"0.781094527363184";"0.797807551766139"
"Precision";"0.695121951219512";"0.5";"0.481203007518797"
"Recall";"0.4453125";"0.185185185185185";"0.278260869565217"
"F1";"0.542857142857143";"0.27027027027027";"0.352617079889807"
"Prevalence";"0.247104247104247";"0.244343891402715";"0.241090146750524"
"Detection Rate";"0.11003861003861";"0.0452488687782805";"0.0670859538784067"
"Detection Prevalence";"0.158301158301158";"0.0904977375565611";"0.139412997903564"
"Balanced Accuracy";"0.690604967948718";"0.562652472832114";"0.591478501080951"
"TP";"57";"10";"64"
"TN";"365";"157";"655"
"FP";"25";"10";"69"
"FN";"71";"44";"166"
