"Metric";"Training_Set";"Testing_Set";"Independent"
"Accuracy";"0.791505791505791";"0.760180995475113";"0.747379454926625"
"Kappa";"0.3847710376985";"0.181309848325994";"0.201925813819485"
"AccuracyLower";"0.753939341742838";"0.69834070771112";"0.71854507569885"
"AccuracyUpper";"0.825706792827709";"0.814899125591325";"0.774677677686066"
"AccuracyNull";"0.752895752895753";"0.755656108597285";"0.758909853249476"
"AccuracyPValue";"0.0219987983115563";"0.474113656869083";"0.80840681276436"
"McnemarPValue";"0.00149616428974555";"1.10498706901625e-05";"6.73470472850562e-09"
"Sensitivity";"0.4453125";"0.203703703703704";"0.278260869565217"
"Specificity";"0.905128205128205";"0.940119760479042";"0.896408839779006"
"Pos Pred Value";"0.606382978723404";"0.523809523809524";"0.460431654676259"
"Neg Pred Value";"0.832547169811321";"0.785";"0.796319018404908"
"Precision";"0.606382978723404";"0.523809523809524";"0.460431654676259"
"Recall";"0.4453125";"0.203703703703704";"0.278260869565217"
"F1";"0.513513513513513";"0.293333333333333";"0.346883468834688"
"Prevalence";"0.247104247104247";"0.244343891402715";"0.241090146750524"
"Detection Rate";"0.11003861003861";"0.0497737556561086";"0.0670859538784067"
"Detection Prevalence";"0.181467181467181";"0.0950226244343891";"0.145702306079665"
"Balanced Accuracy";"0.675220352564103";"0.571911732091373";"0.587334854672111"
"TP";"57";"11";"64"
"TN";"353";"157";"649"
"FP";"37";"10";"75"
"FN";"71";"43";"166"
