"Metric";"Training_Set";"Testing_Set";"Independent"
"Accuracy";"0.760314341846758";"0.751131221719457";"0.706498951781971"
"Kappa";"0.430565234933793";"0.383964320105418";"0.310444524756054"
"AccuracyLower";"0.720795342529251";"0.688715636169468";"0.676472800334656"
"AccuracyUpper";"0.796779182337104";"0.806676469976538";"0.735244214788006"
"AccuracyNull";"0.756385068762279";"0.755656108597285";"0.758909853249476"
"AccuracyPValue";"0.441871924690829";"0.597677595530923";"0.999908987716065"
"McnemarPValue";"3.88721896530401e-06";"0.0590582290905369";"7.31774851281037e-11"
"Sensitivity";"0.717741935483871";"0.62962962962963";"0.630434782608696"
"Specificity";"0.774025974025974";"0.790419161676647";"0.730662983425414"
"Pos Pred Value";"0.505681818181818";"0.492753623188406";"0.426470588235294"
"Neg Pred Value";"0.894894894894895";"0.868421052631579";"0.861563517915309"
"Precision";"0.505681818181818";"0.492753623188406";"0.426470588235294"
"Recall";"0.717741935483871";"0.62962962962963";"0.630434782608696"
"F1";"0.593333333333333";"0.552845528455285";"0.508771929824561"
"Prevalence";"0.243614931237721";"0.244343891402715";"0.241090146750524"
"Detection Rate";"0.174852652259332";"0.153846153846154";"0.151991614255765"
"Detection Prevalence";"0.345776031434185";"0.312217194570136";"0.356394129979036"
"Balanced Accuracy";"0.745883954754923";"0.710024395653138";"0.680548883017055"
"TP";"89";"34";"145"
"TN";"298";"132";"529"
"FP";"87";"35";"195"
"FN";"35";"20";"85"
