"Metric";"Training_Set";"Testing_Set";"Independent"
"Accuracy";"0.764243614931238";"0.746606334841629";"0.711740041928721"
"Kappa";"0.437206302404865";"0.376335416246725";"0.305941364148637"
"AccuracyLower";"0.724910461419608";"0.683915416691366";"0.68185026879084"
"AccuracyUpper";"0.800475929281425";"0.802552609565137";"0.740316255966377"
"AccuracyNull";"0.756385068762279";"0.755656108597285";"0.758909853249476"
"AccuracyPValue";"0.361802907401379";"0.656353035502451";"0.999637238779483"
"McnemarPValue";"7.71054052134003e-06";"0.0450208810025388";"5.7243624267391e-08"
"Sensitivity";"0.717741935483871";"0.62962962962963";"0.6"
"Specificity";"0.779220779220779";"0.784431137724551";"0.747237569060773"
"Pos Pred Value";"0.511494252873563";"0.485714285714286";"0.429906542056075"
"Neg Pred Value";"0.895522388059702";"0.867549668874172";"0.854660347551343"
"Precision";"0.511494252873563";"0.485714285714286";"0.429906542056075"
"Recall";"0.717741935483871";"0.62962962962963";"0.6"
"F1";"0.597315436241611";"0.548387096774194";"0.500907441016334"
"Prevalence";"0.243614931237721";"0.244343891402715";"0.241090146750524"
"Detection Rate";"0.174852652259332";"0.153846153846154";"0.144654088050314"
"Detection Prevalence";"0.341846758349705";"0.316742081447964";"0.336477987421384"
"Balanced Accuracy";"0.748481357352325";"0.70703038367709";"0.673618784530387"
"TP";"89";"34";"138"
"TN";"300";"131";"541"
"FP";"85";"36";"183"
"FN";"35";"20";"92"
