c<H>r<28>a<1755>R<THR>A<O> 2
c<H>r<28>a<1756>R<THR>A<CB> 2
c<H>r<28>a<1757>R<THR>A<OG1> 1
c<H>r<28>a<1758>R<THR>A<CG2> 1
c<H>r<31>a<1781>R<SER>A<O> 1
c<H>r<31>a<1782>R<SER>A<CB> 1
c<H>r<31>a<1783>R<SER>A<OG> 1
c<H>r<32>a<1792>R<TYR>A<CE1> 1
c<H>r<32>a<1793>R<TYR>A<CE2> 1
c<H>r<32>a<1794>R<TYR>A<CZ> 2
c<H>r<32>a<1795>R<TYR>A<OH> 1
c<H>r<35>a<1823>R<ASN>A<CG> 1
c<H>r<35>a<1824>R<ASN>A<OD1> 2
c<H>r<35>a<1825>R<ASN>A<ND2> 2
c<H>r<37>a<1845>R<VAL>A<CG1> 2
c<H>r<37>a<1846>R<VAL>A<CG2> 1
c<H>r<39>a<1865>R<GLN>A<OE1> 1
c<H>r<39>a<1866>R<GLN>A<NE2> 1
c<H>r<42>a<1882>R<GLY>A<O> 1
c<H>r<43>a<1885>R<LYS>A<C> 2
c<H>r<43>a<1886>R<LYS>A<O> 1
c<H>r<44>a<1892>R<GLY>A<N> 1
c<H>r<44>a<1893>R<GLY>A<CA> 1
c<H>r<44>a<1894>R<GLY>A<C> 2
c<H>r<45>a<1896>R<LEU>A<N> 1
c<H>r<45>a<1898>R<LEU>A<C> 2
c<H>r<45>a<1899>R<LEU>A<O> 1
c<H>r<45>a<1900>R<LEU>A<CB> 2
c<H>r<45>a<1901>R<LEU>A<CG> 2
c<H>r<45>a<1902>R<LEU>A<CD1> 3
c<H>r<45>a<1903>R<LEU>A<CD2> 2
c<H>r<46>a<1904>R<GLU>A<N> 2
c<H>r<46>a<1905>R<GLU>A<CA> 2
c<H>r<46>a<1906>R<GLU>A<C> 2
c<H>r<47>a<1913>R<TRP>A<N> 1
c<H>r<47>a<1914>R<TRP>A<CA> 2
c<H>r<47>a<1916>R<TRP>A<O> 1
c<H>r<47>a<1917>R<TRP>A<CB> 2
c<H>r<47>a<1918>R<TRP>A<CG> 2
c<H>r<47>a<1919>R<TRP>A<CD1> 2
c<H>r<47>a<1920>R<TRP>A<CD2> 2
c<H>r<47>a<1921>R<TRP>A<NE1> 3
c<H>r<47>a<1922>R<TRP>A<CE2> 2
c<H>r<47>a<1923>R<TRP>A<CE3> 1
c<H>r<47>a<1924>R<TRP>A<CZ2> 3
c<H>r<47>a<1925>R<TRP>A<CZ3> 1
c<H>r<47>a<1926>R<TRP>A<CH2> 2
c<H>r<53>a<1966>R<TYR>A<CE2> 1
c<H>r<53>a<1967>R<TYR>A<CZ> 1
c<H>r<53>a<1968>R<TYR>A<OH> 1
c<H>r<59>a<2008>R<LEU>A<CB> 2
c<H>r<59>a<2010>R<LEU>A<CD1> 1
c<H>r<59>a<2011>R<LEU>A<CD2> 1
c<H>r<60>a<2012>R<TYR>A<N> 2
c<H>r<60>a<2015>R<TYR>A<O> 1
c<H>r<61>a<2025>R<ALA>A<CA> 1
c<H>r<62>a<2036>R<ASP>A<OD2> 1
c<H>r<95>a<2299>R<TYR>A<CG> 3
c<H>r<95>a<2300>R<TYR>A<CD1> 3
c<H>r<95>a<2301>R<TYR>A<CD2> 3
c<H>r<95>a<2302>R<TYR>A<CE1> 2
c<H>r<95>a<2303>R<TYR>A<CE2> 2
c<H>r<95>a<2304>R<TYR>A<CZ> 2
c<H>r<95>a<2305>R<TYR>A<OH> 1
c<H>r<100>a<2334>R<LEU>A<C> 2
c<H>r<100>a<2335>R<LEU>A<O> 1
c<H>r<100>a<2336>R<LEU>A<CB> 2
c<H>r<100>a<2337>R<LEU>A<CG> 2
c<H>r<100>a<2338>R<LEU>A<CD1> 1
c<H>r<100>a<2339>R<LEU>A<CD2> 1
c<H>r<101>a<2341>R<GLY>A<CA> 1
c<H>r<101>a<2342>R<GLY>A<C> 2
c<H>r<102>a<2344>R<ALA>A<N> 1
c<H>r<102>a<2348>R<ALA>A<CB> 1
c<H>r<103>a<2355>R<PHE>A<CD1> 1
c<H>r<103>a<2356>R<PHE>A<CD2> 1
c<H>r<103>a<2357>R<PHE>A<CE1> 1
c<H>r<103>a<2358>R<PHE>A<CE2> 1
c<H>r<103>a<2359>R<PHE>A<CZ> 1
c<H>r<104>a<2362>R<HIS>A<C> 2
c<H>r<104>a<2363>R<HIS>A<O> 2
c<H>r<104>a<2364>R<HIS>A<CB> 2
c<H>r<104>a<2367>R<HIS>A<CD2> 1
c<H>r<104>a<2368>R<HIS>A<CE1> 1
c<H>r<104>a<2369>R<HIS>A<NE2> 1
c<H>r<105>a<2370>R<TRP>A<N> 2
c<H>r<105>a<2371>R<TRP>A<CA> 2
c<H>r<105>a<2372>R<TRP>A<C> 2
c<H>r<105>a<2373>R<TRP>A<O> 1
c<H>r<105>a<2374>R<TRP>A<CB> 1
c<H>r<105>a<2375>R<TRP>A<CG> 2
c<H>r<105>a<2376>R<TRP>A<CD1> 1
c<H>r<105>a<2377>R<TRP>A<CD2> 2
c<H>r<105>a<2378>R<TRP>A<NE1> 1
c<H>r<105>a<2379>R<TRP>A<CE2> 2
c<H>r<105>a<2380>R<TRP>A<CE3> 1
c<H>r<105>a<2381>R<TRP>A<CZ2> 1
c<H>r<105>a<2382>R<TRP>A<CZ3> 1
c<H>r<105>a<2383>R<TRP>A<CH2> 1
c<H>r<106>a<2384>R<ASP>A<N> 2
c<H>r<106>a<2385>R<ASP>A<CA> 1
c<H>r<106>a<2389>R<ASP>A<CG> 2
c<H>r<106>a<2390>R<ASP>A<OD1> 2
c<H>r<106>a<2391>R<ASP>A<OD2> 1
c<H>r<107>a<2392>R<MET>A<N> 1
c<H>r<107>a<2394>R<MET>A<C> 3
c<H>r<107>a<2395>R<MET>A<O> 2
c<H>r<107>a<2396>R<MET>A<CB> 2
c<H>r<107>a<2397>R<MET>A<CG> 2
c<H>r<107>a<2398>R<MET>A<SD> 3
c<H>r<107>a<2399>R<MET>A<CE> 2
c<H>r<108>a<2400>R<GLN>A<N> 2
c<H>r<108>a<2401>R<GLN>A<CA> 2
c<H>r<108>a<2402>R<GLN>A<C> 2
c<H>r<108>a<2404>R<GLN>A<CB> 1
c<H>r<108>a<2405>R<GLN>A<CG> 1
c<H>r<108>a<2406>R<GLN>A<CD> 2
c<H>r<108>a<2407>R<GLN>A<OE1> 1
c<H>r<108>a<2408>R<GLN>A<NE2> 1
c<H>r<109>a<2409>R<PRO>A<N> 2
c<H>r<109>a<2412>R<PRO>A<O> 1
c<H>r<109>a<2414>R<PRO>A<CG> 1
c<H>r<109>a<2415>R<PRO>A<CD> 1
c<H>r<110>a<2417>R<ASP>A<CA> 2
c<H>r<110>a<2419>R<ASP>A<O> 1
c<H>r<110>a<2420>R<ASP>A<CB> 1
c<H>r<111>a<2435>R<TYR>A<OH> 1
c<H>r<112>a<2436>R<TRP>A<N> 1
c<H>r<112>a<2439>R<TRP>A<O> 1
c<H>r<112>a<2440>R<TRP>A<CB> 2
c<H>r<112>a<2441>R<TRP>A<CG> 2
c<H>r<112>a<2442>R<TRP>A<CD1> 2
c<H>r<112>a<2443>R<TRP>A<CD2> 3
c<H>r<112>a<2444>R<TRP>A<NE1> 2
c<H>r<112>a<2445>R<TRP>A<CE2> 2
c<H>r<112>a<2446>R<TRP>A<CE3> 3
c<H>r<112>a<2447>R<TRP>A<CZ2> 2
c<H>r<112>a<2448>R<TRP>A<CZ3> 2
c<H>r<112>a<2449>R<TRP>A<CH2> 2
c<H>r<113>a<2453>R<GLY>A<O> 2
c<H>r<114>a<2455>R<GLN>A<CA> 2
c<H>r<114>a<2456>R<GLN>A<C> 2
c<H>r<114>a<2457>R<GLN>A<O> 1
c<H>r<114>a<2460>R<GLN>A<CD> 2
c<H>r<114>a<2461>R<GLN>A<OE1> 1
c<H>r<114>a<2462>R<GLN>A<NE2> 1
c<H>r<130>a<2562>R<VAL>A<O> 2
c<H>r<131>a<2568>R<PHE>A<C> 2
c<H>r<131>a<2570>R<PHE>A<CB> 1
c<H>r<131>a<2571>R<PHE>A<CG> 2
c<H>r<131>a<2572>R<PHE>A<CD1> 2
c<H>r<131>a<2573>R<PHE>A<CD2> 2
c<H>r<131>a<2574>R<PHE>A<CE1> 1
c<H>r<131>a<2575>R<PHE>A<CE2> 1
c<H>r<131>a<2576>R<PHE>A<CZ> 1
c<H>r<132>a<2577>R<PRO>A<N> 2
c<H>r<132>a<2580>R<PRO>A<O> 1
c<H>r<132>a<2582>R<PRO>A<CG> 1
c<H>r<132>a<2583>R<PRO>A<CD> 1
c<H>r<133>a<2585>R<LEU>A<CA> 1
c<H>r<133>a<2586>R<LEU>A<C> 2
c<H>r<133>a<2587>R<LEU>A<O> 2
c<H>r<133>a<2588>R<LEU>A<CB> 2
c<H>r<133>a<2589>R<LEU>A<CG> 2
c<H>r<133>a<2590>R<LEU>A<CD1> 2
c<H>r<133>a<2591>R<LEU>A<CD2> 1
c<H>r<134>a<2592>R<ALA>A<N> 1
c<H>r<134>a<2595>R<ALA>A<O> 1
c<H>r<136>a<2604>R<SER>A<N> 2
c<H>r<136>a<2607>R<SER>A<O> 1
c<H>r<136>a<2608>R<SER>A<CB> 1
c<H>r<136>a<2609>R<SER>A<OG> 1
c<H>r<138>a<2619>R<LYS>A<O> 1
c<H>r<139>a<2622>R<SER>A<N> 1
c<H>r<139>a<2623>R<SER>A<CA> 1
c<H>r<139>a<2624>R<SER>A<C> 1
c<H>r<139>a<2625>R<SER>A<O> 1
c<H>r<139>a<2626>R<SER>A<CB> 1
c<H>r<139>a<2627>R<SER>A<OG> 1
c<H>r<140>a<2634>R<THR>A<CG2> 1
c<H>r<146>a<2663>R<ALA>A<C> 2
c<H>r<146>a<2664>R<ALA>A<O> 2
c<H>r<146>a<2665>R<ALA>A<CB> 1
c<H>r<147>a<2666>R<LEU>A<N> 2
c<H>r<147>a<2667>R<LEU>A<CA> 2
c<H>r<147>a<2668>R<LEU>A<C> 2
c<H>r<148>a<2674>R<GLY>A<N> 2
c<H>r<148>a<2675>R<GLY>A<CA> 2
c<H>r<150>a<2688>R<LEU>A<CB> 2
c<H>r<150>a<2690>R<LEU>A<CD1> 1
c<H>r<150>a<2691>R<LEU>A<CD2> 1
c<H>r<152>a<2704>R<LYS>A<CG> 1
c<H>r<152>a<2705>R<LYS>A<CD> 1
c<H>r<152>a<2706>R<LYS>A<CE> 1
c<H>r<152>a<2707>R<LYS>A<NZ> 1
c<H>r<173>a<2865>R<HIS>A<CD2> 1
c<H>r<173>a<2866>R<HIS>A<CE1> 1
c<H>r<173>a<2867>R<HIS>A<NE2> 1
c<H>r<175>a<2879>R<PHE>A<CB> 2
c<H>r<175>a<2880>R<PHE>A<CG> 2
c<H>r<175>a<2881>R<PHE>A<CD1> 1
c<H>r<175>a<2882>R<PHE>A<CD2> 2
c<H>r<175>a<2883>R<PHE>A<CE1> 2
c<H>r<175>a<2884>R<PHE>A<CE2> 1
c<H>r<175>a<2885>R<PHE>A<CZ> 1
c<H>r<176>a<2889>R<PRO>A<O> 1
c<H>r<176>a<2890>R<PRO>A<CB> 1
c<H>r<176>a<2891>R<PRO>A<CG> 1
c<H>r<176>a<2892>R<PRO>A<CD> 1
c<H>r<177>a<2896>R<ALA>A<O> 1
c<H>r<178>a<2899>R<VAL>A<CA> 2
c<H>r<178>a<2902>R<VAL>A<CB> 1
c<H>r<178>a<2903>R<VAL>A<CG1> 1
c<H>r<178>a<2904>R<VAL>A<CG2> 2
c<H>r<179>a<2905>R<LEU>A<N> 1
c<H>r<179>a<2908>R<LEU>A<O> 1
c<H>r<180>a<2914>R<GLN>A<CA> 2
c<H>r<180>a<2915>R<GLN>A<C> 1
c<H>r<180>a<2917>R<GLN>A<CB> 1
c<H>r<180>a<2918>R<GLN>A<CG> 2
c<H>r<180>a<2920>R<GLN>A<OE1> 1
c<H>r<181>a<2922>R<SER>A<N> 1
c<H>r<181>a<2926>R<SER>A<CB> 1
c<H>r<181>a<2927>R<SER>A<OG> 1
c<H>r<182>a<2928>R<SER>A<N> 1
c<H>r<186>a<2960>R<SER>A<C> 2
c<H>r<186>a<2961>R<SER>A<O> 2
c<H>r<186>a<2962>R<SER>A<CB> 1
c<H>r<187>a<2964>R<LEU>A<N> 2
c<H>r<187>a<2965>R<LEU>A<CA> 2
c<H>r<187>a<2966>R<LEU>A<C> 3
c<H>r<187>a<2967>R<LEU>A<O> 2
c<H>r<188>a<2972>R<SER>A<N> 2
c<H>r<188>a<2974>R<SER>A<C> 2
c<H>r<188>a<2975>R<SER>A<O> 2
c<H>r<188>a<2976>R<SER>A<CB> 2
c<H>r<188>a<2977>R<SER>A<OG> 2
c<H>r<190>a<2984>R<VAL>A<N> 2
c<H>r<190>a<2989>R<VAL>A<CG1> 1
c<H>r<190>a<2990>R<VAL>A<CG2> 1
c<H>r<218>a<3198>R<LYS>A<CD> 1
c<H>r<218>a<3199>R<LYS>A<CE> 1
c<H>r<218>a<3200>R<LYS>A<NZ> 1
c<H>r<219>a<3204>R<LYS>A<O> 1
