"The table details the residue variety in % for each position in the query sequence."
"Each column shows the % for that amino-acid, found in position ('pos') in the MSA."
"In case there are residues which are not a standard amino-acid in the MSA, they are represented under column 'OTHER'"

pos,A,C,D,E,F,G,H,I,K,L,M,N,P,Q,R,S,T,V,W,Y,OTHER,MAX AA,ConSurf Grade
1,,,,43.089,,,,,,,,,,56.911,,,,,,,,Q 56.911,5
2,1.408,,,,0.704,,,4.225,,1.408,,,,,,,,92.254,,,,V 92.254,8
3,1.389,,,,,,1.389,,8.333,,1.389,4.167,,76.389,2.083,1.389,2.778,,,0.694,,Q 76.389,6
4,,,,,,,,,,100.000,,,,,,,,,,,,L 100.000,9
5,,,,5.369,,,,0.671,4.698,6.040,,,,36.242,2.013,,,44.966,,,,V 44.966,5
6,,,,52.667,,,,,,,,,,47.333,,,,,,,,E 52.667,8
7,0.667,,,,0.667,,,,,,,,4.667,,,93.333,,,0.667,,,S 93.333,8
8,0.667,,,,,99.333,,,,,,,,,,,,,,,,G 99.333,9
9,30.667,,,,,35.333,,,,,,,28.000,,,3.333,2.667,,,,,G 35.333,4
10,3.333,,4.667,43.333,,40.667,,,,,,0.667,,1.333,3.333,,0.667,2.000,,,,E 43.333,6
11,,,,,,,,0.667,,72.000,2.000,,0.667,,,,0.667,24.000,,,,L 72.000,6
12,4.667,,,,,,,0.667,19.333,1.333,1.333,0.667,,,2.667,,,69.333,,,,V 69.333,7
13,2.000,,,2.000,,,,,55.333,,1.333,,,26.000,9.333,,4.000,,,,,K 55.333,5
14,,,,,,,,,,0.667,,,98.667,,,0.667,,,,,,P 98.667,9
15,0.667,,,,,82.000,,,0.667,0.667,,,0.667,,0.667,12.000,2.667,,,,,G 82.000,7
16,30.667,,,10.667,,24.667,,,0.667,,,0.667,,9.333,4.667,12.000,5.333,1.333,,,,A 30.667,4
17,0.667,,,,,,,,,0.667,,,4.000,,,81.333,13.333,,,,,S 81.333,8
18,0.667,,,,,,,,,51.333,2.667,,,0.667,,,0.667,44.000,,,,L 51.333,8
19,,,,,,,,,50.667,,,0.667,,1.333,23.333,12.667,11.333,,,,,K 50.667,5
20,,,,,,,,17.333,,60.667,4.667,,,,,,,17.333,,,,L 60.667,4
21,,,,,,,,0.667,,,,,1.333,,,79.333,18.667,,,,,S 79.333,9
22,,100.000,,,,,,,,,,,,,,,,,,,,C 100.000,9
23,25.333,,,0.667,,1.333,,0.667,40.000,,,,,2.000,4.000,4.667,16.667,4.667,,,,K 40.000,4*
24,68.667,,,,2.000,3.333,,0.667,,,,,,,,0.667,6.667,18.000,,,,A 68.667,6
25,,,0.667,,0.667,,,,,,,,1.333,,,92.000,4.667,,,0.667,,S 92.000,8
26,0.667,,0.667,,,98.000,,,,,,,,,0.667,,,,,,,G 98.000,9
27,2.000,,4.667,0.667,38.000,7.333,,2.667,,1.333,,0.667,,,,,,,,42.667,,Y 42.667,2
28,0.667,,5.333,0.667,,0.667,,5.333,,0.667,0.667,3.333,,,0.667,31.333,50.667,,,,,T 50.667,3*
29,,,,,72.667,,,11.333,,12.667,0.667,,,,,0.667,,2.000,,,,F 72.667,5
30,1.333,,0.667,,,0.667,,2.667,2.000,,,8.667,0.667,,4.667,37.333,40.000,1.333,,,,T 40.000,2
31,3.333,,24.667,2.000,,5.333,2.000,0.667,,,0.667,15.333,,,6.667,28.667,10.667,,,,,S 28.667,1
32,2.000,0.667,1.333,,6.667,0.667,6.000,0.667,,,0.667,4.000,,,0.667,3.333,0.667,0.667,0.667,71.333,,Y 71.333,1
33,15.333,0.667,3.333,0.667,2.667,14.667,2.000,0.667,,1.333,,3.333,,,,8.667,4.000,2.667,16.667,23.333,,Y 23.333,1
34,,,,,2.667,,,30.667,,5.333,42.667,,,,,,,7.333,10.667,0.667,,M 42.667,3*
35,2.000,0.667,1.333,1.333,,4.000,31.333,2.000,1.333,,,21.333,,1.333,,24.000,3.333,2.000,,4.000,,H 31.333,1
36,,,,,0.667,,,,,,,,,,,,,,99.333,,,W 99.333,9
37,1.333,,,,,,,14.000,,2.000,2.000,,,,,,,80.667,,,,V 80.667,7
38,,,,,,,,,24.000,,,,,,76.000,,,,,,,R 76.000,8
39,,,,,,,,,,2.000,,,,97.333,,0.667,,,,,,Q 97.333,9
40,41.333,,,0.667,2.667,,,1.333,0.667,,2.667,,12.667,,16.667,12.000,7.333,2.000,,,,A 41.333,4*
41,,,,,,,6.667,,,,,1.333,88.667,,,,3.333,,,,,P 88.667,6
42,0.667,,1.333,10.667,,85.333,,,,,,,,,0.667,0.667,0.667,,,,,G 85.333,5
43,,,0.667,,,,2.667,,57.333,,,2.000,,30.667,6.667,,,,,,,K 57.333,6
44,6.667,,,,,71.333,,,2.667,,,2.000,,,9.333,8.000,,,,,,G 71.333,2
45,,,,,1.333,,,,,95.333,,,2.667,0.667,,,,,,,,L 95.333,8
46,,,0.667,94.667,,,,,0.667,,,,,2.667,,,,1.333,,,,E 94.667,9
47,,,,,,,,,,2.000,,,,,,0.667,,,94.000,3.333,,W 94.000,7
48,,,,,,,,40.667,,12.000,22.000,,,,,,,25.333,,,,I 40.667,5
49,22.000,,,,,70.000,,,,,,,,,,8.000,,,,,,G 70.000,5
50,6.667,0.667,2.667,12.000,6.000,8.667,1.333,5.333,0.667,2.667,2.667,2.000,,,6.667,5.333,2.667,6.667,14.667,12.667,,W 14.667,1
51,,,,,0.667,,,87.333,,0.667,2.667,0.667,,,,0.667,2.000,5.333,,,,I 87.333,7
52,1.333,0.667,8.000,,2.000,2.000,4.000,4.667,4.667,2.000,0.667,17.333,,,6.667,22.000,2.667,0.667,6.000,14.667,,S 22.000,1
53,4.762,0.794,0.794,,,8.730,0.794,,,1.587,,3.968,51.587,0.794,1.587,12.698,6.349,0.794,0.794,3.968,,P 51.587,1
54,4.082,,9.524,3.401,2.041,19.048,4.082,5.442,2.721,1.361,1.361,13.605,,,6.122,10.204,2.041,0.680,2.041,12.245,,G 19.048,1
55,,,12.667,0.667,4.000,27.333,,1.333,,0.667,,14.667,,,2.667,24.667,5.333,1.333,2.000,2.667,,G 27.333,1
56,2.041,,9.524,1.361,1.361,57.823,1.361,,,0.680,,1.361,,,2.721,12.925,1.361,1.361,0.680,5.442,,G 57.823,1
57,8.000,,13.333,3.333,,6.667,0.667,2.667,4.000,0.667,,14.000,,,4.667,16.667,14.000,3.333,,8.000,,S 16.667,1
58,6.000,,,2.000,,,,8.667,4.667,0.667,,4.000,2.667,,,6.000,62.667,2.667,,,,T 62.667,1
59,2.000,,6.667,4.667,4.000,2.000,4.667,1.333,9.333,0.667,,20.000,,1.333,5.333,8.000,5.333,2.000,,22.667,,Y 22.667,1
60,,,,,5.333,,1.333,1.333,,0.667,,,0.667,,,0.667,,,,90.000,,Y 90.000,6
61,39.333,,1.333,,,3.333,0.667,,,,,37.333,6.000,,,9.333,2.000,0.667,,,,A 39.333,4*
62,3.333,,24.000,19.333,,,,,0.667,0.667,,0.667,17.333,23.333,2.000,5.333,2.667,0.667,,,,D 24.000,2
63,5.333,,1.333,0.667,0.667,0.667,0.667,,34.000,,,2.000,,2.000,4.000,38.667,6.000,,4.000,,,S 38.667,5
64,2.667,,,,45.333,,,0.667,,21.333,0.667,,,,,,,29.333,,,,F 45.333,6
65,0.667,,,2.000,,,,,66.667,,0.667,2.000,0.667,15.333,8.000,1.333,2.667,,,,,K 66.667,5
66,2.667,,10.000,,,65.333,,,,,,3.333,,,1.333,14.667,2.000,0.667,,,,G 65.333,2
67,,,,,,,,,27.333,,0.667,,,2.667,69.333,,,,,,,R 69.333,8
68,26.667,,,,36.667,0.667,,5.333,,6.000,0.667,,,,,0.667,,23.333,,,,F 36.667,6
69,2.000,,,,,,,2.667,,,0.667,,,,,14.000,79.333,1.333,,,,T 79.333,6
70,,,,,8.000,,,55.333,,25.333,9.333,,,,,0.667,,1.333,,,,I 55.333,5
71,,,0.667,,0.667,,,,,,,1.333,,,,52.000,45.333,,,,,S 52.000,8
72,18.667,,,,,,,,8.000,4.000,0.667,,0.667,,44.000,0.667,3.333,19.333,0.667,,,R 44.000,3
73,,,95.172,2.069,,,,,,,,1.379,,1.379,,,,,,,,D 95.172,9
74,1.370,,5.479,4.110,,,,2.055,21.918,1.370,0.685,27.397,0.685,3.425,4.110,1.370,25.342,0.685,,,,N 27.397,3*
75,15.333,,,,,,1.333,,,0.667,,,1.333,,,77.333,3.333,,,0.667,,S 77.333,7
76,3.333,,,,0.667,,,2.000,32.000,0.667,,2.000,,6.667,6.667,30.667,14.667,0.667,,,,K 32.000,4
77,0.667,,3.333,,,,,,0.667,,,45.333,,,3.333,38.000,8.667,,,,,N 45.333,4
78,,,,,,,,,,,,,100.000,,,,,,,,,P 100.000,8*
79,,,100.000,,,,,,,,,,,,,,,,,,,D 100.000,8*
80,,,100.000,,,,,,,,,,,,,,,,,,,D 100.000,8*
81,,,,,,,,,,,,,100.000,,,,,,,,,P 100.000,8*
82,,,100.000,,,,,,,,,,,,,,,,,,,D 100.000,8*
83,,,,,,,,,,,,,,,,,,,100.000,,,W 100.000,8*
84,,,,,,100.000,,,,,,,,,,,,,,,,G 100.000,8*
85,0.667,,,0.667,,,,4.667,0.667,1.333,2.667,0.667,,12.667,1.333,6.000,68.000,0.667,,,,T 68.000,5
86,44.000,,,,9.333,2.000,0.667,0.667,,24.667,,,,,,0.667,0.667,16.667,,0.667,,A 44.000,5
87,,,2.667,,16.000,,0.667,,,,,1.333,,,,11.333,0.667,2.667,,64.667,,Y 64.667,3*
88,,,,,0.667,,,3.333,,60.667,34.667,,,,,,,0.667,,,,L 60.667,7
89,,,1.333,21.333,,0.667,6.667,,8.000,,,2.000,,54.000,2.667,,3.333,,,,,Q 54.000,4
90,,,,,1.333,,,4.000,,53.333,38.000,,,,,,,0.667,2.667,,,L 53.333,8
91,1.333,,3.333,,,0.667,0.667,0.667,1.333,,,31.333,,0.667,6.000,41.333,11.333,1.333,,,,S 41.333,4*
92,0.667,,1.333,,,4.000,,,1.333,,,9.333,,,4.667,76.000,2.667,,,,,S 76.000,6
93,,,,,,,,,,80.000,2.667,,3.333,0.667,,,,13.333,,,,L 80.000,7
94,,,2.667,,,,,,10.000,,,,,2.667,38.000,0.667,46.000,,,,,T 46.000,6
95,23.333,,1.333,,,0.667,,,,0.667,,1.333,7.333,,,49.333,14.667,0.667,,0.667,,S 49.333,5
96,9.333,,12.667,67.333,,4.667,,,,,,0.667,,,,3.333,,2.000,,,,E 67.333,5
97,,,98.667,,,,,,,,,1.333,,,,,,,,,,D 98.667,9
98,,,,,,,,,,,0.667,,,,,28.000,70.667,0.667,,,,T 70.667,8
99,96.000,,,,,4.000,,,,,,,,,,,,,,,,A 96.000,9
100,,,,1.333,2.000,,,10.000,0.667,3.333,10.000,0.667,,,0.667,,16.667,54.667,,,,V 54.667,1
101,,,,,2.000,,,,,,,,,,,,,,,98.000,,Y 98.000,9
102,,,,,23.333,,0.667,,,,,,,,,1.333,,,,74.667,,Y 74.667,4*
103,,100.000,,,,,,,,,,,,,,,,,,,,C 100.000,9
104,73.333,,,,,0.667,,,1.333,,,0.667,,,,4.000,11.333,8.667,,,,A 73.333,5
105,1.333,,,,,4.000,,2.667,6.667,0.667,,0.667,0.667,,77.333,3.333,2.667,,,,,R 77.333,3*
106,3.378,,22.973,8.784,0.676,16.216,2.703,0.676,0.676,4.054,,4.054,2.703,1.351,6.081,8.108,4.054,6.081,2.027,5.405,,D 22.973,1
107,4.138,,4.828,1.379,4.138,22.759,1.379,2.759,4.828,5.517,0.690,2.759,6.207,,10.345,8.276,4.828,5.517,2.069,7.586,,G 22.759,1
108,5.000,,5.000,3.000,9.000,17.000,2.000,2.000,2.000,2.000,1.000,2.000,5.000,2.000,4.000,13.000,5.000,5.000,1.000,15.000,,G 17.000,1
109,,3.571,5.357,1.786,,21.429,3.571,3.571,1.786,7.143,1.786,,3.571,1.786,,16.071,1.786,5.357,3.571,17.857,,G 21.429,1
110,6.452,,20.968,4.839,3.226,14.516,,,,3.226,,6.452,4.839,1.613,3.226,8.065,3.226,,1.613,17.742,,D 20.968,1
111,1.316,,11.842,3.947,5.263,17.105,3.947,2.632,1.316,3.947,1.316,5.263,1.316,1.316,1.316,7.895,5.263,7.895,2.632,14.474,,G 17.105,1
112,3.125,5.208,11.458,1.042,4.167,9.375,2.083,1.042,1.042,7.292,1.042,2.083,2.083,,3.125,12.500,2.083,5.208,7.292,18.750,,Y 18.750,1
113,4.202,,5.882,5.042,5.042,15.126,3.361,0.840,,1.681,1.681,5.042,1.681,1.681,3.361,12.605,5.882,3.361,2.521,21.008,,Y 21.008,1
114,2.920,1.460,2.920,1.460,3.650,13.869,2.190,0.730,2.920,4.380,0.730,5.839,8.029,2.920,6.569,10.949,4.380,5.109,1.460,17.518,,Y 17.518,1
115,2.857,,10.000,2.143,7.857,8.571,0.714,,0.714,2.857,0.714,3.571,1.429,,5.714,7.143,5.714,1.429,7.143,31.429,,Y 31.429,1
116,20.139,0.694,1.389,1.389,4.861,17.361,3.472,,,1.389,0.694,2.083,3.472,2.778,2.778,4.167,4.167,1.389,6.944,20.833,,Y 20.833,1
117,0.671,,,,53.020,1.342,1.342,1.342,,9.396,25.503,,2.013,,,1.342,,1.342,1.342,1.342,,F 53.020,1
118,12.000,,70.667,2.667,,2.667,0.667,,0.667,0.667,,2.000,2.667,2.667,0.667,0.667,1.333,,,,,D 70.667,2
119,,0.667,1.333,,5.333,0.667,2.000,2.000,,7.333,,1.333,2.000,,,1.333,0.667,15.333,,60.000,,Y 60.000,1
120,,,,,,,,,,,,,,,,,,,100.000,,,W 100.000,9
121,,0.667,,,,98.667,,,,,,,,,,0.667,,,,,,G 98.667,9
122,3.333,,,,,,2.000,,2.000,,,,6.000,81.333,4.000,,1.333,,,,,Q 81.333,6
123,,,,,,100.000,,,,,,,,,,,,,,,,G 100.000,9
124,2.000,,,,,,,1.333,,1.333,,,,,,0.667,92.000,2.667,,,,T 92.000,8
125,2.000,,,0.667,,,,,0.667,45.333,6.667,,,0.667,0.667,13.333,28.667,1.333,,,,L 45.333,1
126,,,,,,,,0.667,,12.667,,,,,,,,86.667,,,,V 86.667,7
127,,,,,,,,4.000,,,,,,,,,93.333,2.667,,,,T 93.333,9
128,1.333,,,,,,,,,,,,,,,,,98.667,,,,V 98.667,9
129,,,,,,,,,,,,,,,,100.000,,,,,,S 100.000,9
130,12.000,,,,,,,,,,,,0.667,,,87.333,,,,,,S 87.333,8
131,95.333,,,,,3.333,,,,,,,,,,0.667,,0.667,,,,A 95.333,9
132,1.333,,,2.000,,,,,34.667,,,,0.667,4.667,,52.667,4.000,,,,,S 52.667,8
133,,,,,,,,,0.667,,,,3.333,,,,96.000,,,,,T 96.000,9
134,,,,,,,,,56.000,,,,,,,,44.000,,,,,K 56.000,9
135,22.667,,,,,53.333,,,,,,,24.000,,,,,,,,,G 53.333,7
136,,,,,,,,,,,,,100.000,,,,,,,,,P 100.000,9
137,,,,,,,,,,,,,,,,99.333,0.667,,,,,S 99.333,9
138,,,,,,,,,,,,,,,,,,100.000,,,,V 100.000,9
139,,,,,57.333,,,,,,,,,,,,,,,42.667,,F 57.333,9
140,,,,,,,,,,,,,100.000,,,,,,,,,P 100.000,9
141,,,,,,,,,,100.000,,,,,,,,,,,,L 100.000,9
142,97.333,,,,,,,,,,,,,,,,,2.667,,,,A 97.333,9
143,,,,,,,,,,,,,100.000,,,,,,,,,P 100.000,9
144,1.333,10.667,,,,28.667,,0.667,,,,,,,,46.000,,12.000,,,0.666666666666667,S 46.000,7
145,,24.832,,,,2.013,,,,,,,,,,70.470,2.013,,,,0.671140939597315,S 70.470,7
146,19.463,,1.342,,,21.477,0.671,,43.624,,,0.671,,,9.396,2.685,,,,,0.671140939597315,K 43.624,6
147,19.463,,20.134,,,2.685,0.671,,,2.013,,,,,,53.691,0.671,,,,0.671140939597315,S 53.691,7
148,2.027,,,,,0.676,0.676,,2.027,,,,,16.216,,0.676,76.351,0.676,,,0.675675675675676,T 76.351,7
149,1.342,,,,,,0.671,,,,,,3.356,,,59.732,34.228,,,,0.671140939597315,S 59.732,8
150,0.671,,,8.725,,63.087,0.671,,,,,19.463,,0.671,,6.040,,,,,0.671140939597315,G 63.087,5
151,0.667,,,,,44.000,0.667,,,,,,0.667,,,52.667,1.333,,,,,S 52.667,8
152,0.667,,,,,,,,,,21.333,0.667,,,,18.000,59.333,,,,,T 59.333,8
153,51.333,,,,,,,,,,,,,,,0.667,,48.000,,,,A 51.333,9
154,54.000,,,,,,,,,,,,,,,,46.000,,,,,A 54.000,9
155,,,,,,,,,,100.000,,,,,,,,,,,,L 100.000,9
156,0.667,,,,,99.333,,,,,,,,,,,,,,,,G 99.333,9
157,,100.000,,,,,,,,,,,,,,,,,,,,C 100.000,9
158,,,,,,,,,,100.000,,,,,,,,,,,,L 100.000,9
159,0.667,,,,,,,,,,,,,,,,,99.333,,,,V 99.333,9
160,,,,,,,,,98.667,,,,,,,1.333,,,,,,K 98.667,9
161,,,52.667,,,46.667,,,,,,,,,,0.667,,,,,,D 52.667,9
162,,,,,,,,,,,,,,,,,,,,100.000,,Y 100.000,9
163,,,,,96.667,,,,,3.333,,,,,,,,,,,,F 96.667,9
164,,,,,,,,,,,,,100.000,,,,,,,,,P 100.000,9
165,,,,99.333,,,,,,,,,,0.667,,,,,,,,E 99.333,9
166,,,,,,,,,,,,,96.667,,,3.333,,,,,,P 96.667,9
167,,,,,,,,,,,,,,,,,,100.000,,,,V 100.000,9
168,,,,,,,,,,,,,,,,,100.000,,,,,T 100.000,9
169,,,,,,,,,,12.000,,,,,,,,88.000,,,,V 88.000,9
170,,,,,,,,,2.667,,,,,,,55.333,41.333,0.667,,,,S 55.333,9
171,,,,,,,,,,,,,,,,,,,100.000,,,W 100.000,9
172,,,,,,,,,,,,100.000,,,,,,,,,,N 100.000,9
173,,,,,,,,,0.667,,,,,,,96.000,0.667,,,2.667,,S 96.000,9
174,,,,,,100.000,,,,,,,,,,,,,,,,G 100.000,9
175,58.667,,,,,0.667,,,,,,,,,,37.333,3.333,,,,,A 58.667,8
176,,,,,,,,,,100.000,,,,,,,,,,,,L 100.000,9
177,0.667,,,,,,,,,,,,,,,40.667,58.667,,,,,T 58.667,9
178,,,,,,0.667,,,,,,3.333,,,,95.333,0.667,,,,,S 95.333,9
179,,,1.333,,,95.333,,,,,,,,,,3.333,,,,,,G 95.333,9
180,,,,,,,,,,,,,,,,,0.667,99.333,,,,V 99.333,9
181,,,,,,,94.000,,,,,,,,6.000,,,,,,,H 94.000,9
182,,,,,,,,,,,,,,,,,100.000,,,,,T 100.000,9
183,,,,,97.333,,,,,,,,,,,,,2.667,,,,F 97.333,9
184,,,,,,,,,,,,,97.333,,,2.667,,,,,,P 97.333,9
185,90.667,,,,,0.667,,,,,,,,,,8.667,,,,,,A 90.667,9
186,,,,,,,,,,6.000,,,,,,,,94.000,,,,V 94.000,9
187,,,,,,,,,,96.667,,,,,3.333,,,,,,,L 96.667,9
188,0.667,,,,,,1.333,,,,,,,98.000,,,,,,,,Q 98.000,9
189,0.667,,,,,,,,,,,,0.667,,,98.667,,,,,,S 98.667,9
190,0.667,,28.000,,,14.000,,,,,,,,,,57.333,,,,,,S 57.333,8
191,,,,,,100.000,,,,,,,,,,,,,,,,G 100.000,9
192,,,,,2.667,,,,,97.333,,,,,,,,,,,,L 97.333,9
193,,,,,,,,,,,,,,,,,,,,100.000,,Y 100.000,9
194,,,,,,,,,,,,,,,,61.333,38.667,,,,,S 61.333,9
195,,,,,,,,,,96.667,3.333,,,,,,,,,,,L 96.667,9
196,,,,,,,,,,,,,,,,96.667,3.333,,,,,S 96.667,9
197,,,,,,,,,,,,,,,,100.000,,,,,,S 100.000,9
198,,,,,,,,,,2.667,1.333,,,,,40.000,,56.000,,,,V 56.000,9
199,,,,,,,,,,,,,,,,,,100.000,,,,V 100.000,9
200,,,,,,,,,,,,,,,,4.000,96.000,,,,,T 96.000,9
201,,,,,,,,,,,,,,,,,,100.000,,,,V 100.000,9
202,,,,,,,,,,,,,83.108,,,0.676,16.216,,,,,P 83.108,7
203,1.333,,,,,0.667,,,,,,,,,,97.333,0.667,,,,,S 97.333,9
204,,,,,,0.667,,,,,,2.667,,,,96.667,,,,,,S 96.667,9
205,,,,,,0.667,,,,,,2.000,6.667,,0.667,56.000,34.000,,,,,S 56.000,8
206,,,,,2.083,,,,,53.472,,,,,6.944,,,,37.500,,,L 53.472,7
207,,,,,,54.861,,,,,,,43.056,,,2.083,,,,,,G 54.861,8
208,,,,,,0.694,,,0.694,,,,,,,43.750,54.861,,,,,T 54.861,9
209,1.333,,,18.667,,,,,5.333,,,,,74.667,,,,,,,,Q 74.667,7
210,1.333,,,,,,,,,,,,4.000,,,10.667,84.000,,,,,T 84.000,7
211,,,,,0.667,,,12.000,,,,,,,,,,34.000,,53.333,,Y 53.333,8
212,,,,,,,,46.667,,,,,,,,,51.333,2.000,,,,T 51.333,9
213,,100.000,,,,,,,,,,,,,,,,,,,,C 100.000,9
214,,,,,,,,,,,,96.667,,,,3.333,,,,,,N 96.667,9
215,,,,,,,,,,,,,,,,,,100.000,,,,V 100.000,9
216,46.667,,6.667,,,,,,,,,46.667,,,,,,,,,,AN 46.667,9
217,,,,,,,100.000,,,,,,,,,,,,,,,H 100.000,9
218,0.667,,,,,,,,52.667,,,,46.667,,,,,,,,,K 52.667,9
219,46.667,,,,,,,,,,,,53.333,,,,,,,,,P 53.333,9
220,,,,,,,,,,,,,,,,96.000,4.000,,,,,S 96.000,9
221,,,,,,,,,3.333,,,56.000,,,,40.000,0.667,,,,,N 56.000,9
222,,,,,,,,,,,,,,,,,100.000,,,,,T 100.000,9
223,,,,2.667,,,,,94.000,,,,,,,,3.333,,,,,K 94.000,9
224,,,,,,,,,,2.685,,,,,,,,97.315,,,,V 97.315,9
225,,,97.315,,,,,2.685,,,,,,,,,,,,,,D 97.315,9
226,0.671,,,,,,,,98.658,,,,,0.671,,,,,,,,K 98.658,9
227,0.671,,,,,,,,71.812,,,,0.671,,21.477,,5.369,,,,,K 71.812,6
228,1.342,,,,,,,38.926,,3.356,,,,,,,,56.376,,,,V 56.376,9
229,4.196,,,70.629,,,1.399,,,,,,,,,,,23.776,,,,E 70.629,7
230,,,,,,,,2.190,,,,,92.701,,1.460,3.650,,,,,,P 92.701,7
231,,,,,,,,,58.333,,,,,,35.833,5.833,,,,,,K 58.333,8
232,,1.333,17.333,2.667,,,,,,,,,,,,69.333,9.333,,,,,S 69.333,8
233,,100.000,,,,,,,,,,,,,,,,,,,,C 100.000,9
