c<L>r<1>R<ASP> 1
c<L>r<27>i<D>R<HIS> 1.6
c<L>r<27>i<E>R<GLY> 1.25
c<L>r<28>R<ASN> 1.2
c<L>r<30>R<ASN> 1.33333
c<L>r<32>R<TYR> 2.44444
c<L>r<34>R<GLU> 3
c<L>r<36>R<TYR> 1.875
c<L>r<38>R<GLN> 1
c<L>r<42>R<GLN> 1
c<L>r<43>R<SER> 1.5
c<L>r<44>R<PRO> 1.66667
c<L>r<45>R<LYS> 1
c<L>r<46>R<LEU> 1.33333
c<L>r<49>R<TYR> 1.875
c<L>r<50>R<LYS> 1.8
c<L>r<53>R<ASN> 1
c<L>r<55>R<PHE> 1
c<L>r<87>R<TYR> 1.75
c<L>r<89>R<PHE> 2.5
c<L>r<91>R<GLY> 3
c<L>r<92>R<SER> 2
c<L>r<94>R<VAL> 1.25
c<L>r<95>R<PRO> 1.25
c<L>r<96>R<TYR> 1.7
c<L>r<97>R<THR> 1
c<L>r<98>R<PHE> 1.44444
c<L>r<99>R<GLY> 1
c<L>r<100>R<GLY> 1
c<L>r<114>R<THR> 1
c<L>r<116>R<SER> 1.5
c<L>r<117>R<ILE> 1
c<L>r<118>R<PHE> 1.66667
c<L>r<119>R<PRO> 1.25
c<L>r<120>R<PRO> 1
c<L>r<121>R<SER> 1
c<L>r<123>R<GLU> 1.33333
c<L>r<124>R<GLN> 1.625
c<L>r<127>R<SER> 1
c<L>r<129>R<GLY> 1
c<L>r<131>R<SER> 1.33333
c<L>r<133>R<VAL> 1.66667
c<L>r<135>R<PHE> 2.42857
c<L>r<137>R<ASN> 1.5
c<L>r<138>R<ASN> 1.5
c<L>r<160>R<LEU> 1.33333
c<L>r<161>R<ASN> 1
c<L>r<162>R<SER> 1.5
c<L>r<163>R<TRP> 1.66667
c<L>r<164>R<THR> 1.2
c<L>r<165>R<ASP> 1
c<L>r<167>R<ASP> 1
c<L>r<172>R<THR> 1
c<L>r<174>R<SER> 1.75
c<L>r<175>R<MET> 3
c<L>r<176>R<SER> 1.66667
c<L>r<178>R<THR> 1.33333
c<L>r<180>R<THR> 1
c<L>r<209>R<PHE> 1
c<L>r<801>R<SO4> 1
