c<A>r<25>a<111>R<ARG>A<NH1> 1
c<A>r<25>a<112>R<ARG>A<NH2> 1
c<A>r<31>a<156>R<LYS>A<N> 1
c<A>r<31>a<158>R<LYS>A<C> 2
c<A>r<31>a<159>R<LYS>A<O> 1
c<A>r<31>a<160>R<LYS>A<CB> 2
c<A>r<31>a<161>R<LYS>A<CG> 1
c<A>r<31>a<162>R<LYS>A<CD> 1
c<A>r<31>a<163>R<LYS>A<CE> 1
c<A>r<31>a<164>R<LYS>A<NZ> 1
c<A>r<32>a<165>R<TRP>A<N> 2
c<A>r<32>a<166>R<TRP>A<CA> 2
c<A>r<32>a<167>R<TRP>A<C> 1
c<A>r<32>a<168>R<TRP>A<O> 1
c<A>r<32>a<169>R<TRP>A<CB> 2
c<A>r<32>a<170>R<TRP>A<CG> 1
c<A>r<32>a<171>R<TRP>A<CD1> 1
c<A>r<32>a<172>R<TRP>A<CD2> 1
c<A>r<32>a<174>R<TRP>A<CE2> 1
c<A>r<32>a<175>R<TRP>A<CE3> 1
c<A>r<32>a<177>R<TRP>A<CZ3> 1
c<A>r<34>a<186>R<HIS>A<N> 1
c<A>r<34>a<187>R<HIS>A<CA> 1
c<A>r<34>a<190>R<HIS>A<CB> 2
c<A>r<34>a<192>R<HIS>A<ND1> 1
c<A>r<34>a<194>R<HIS>A<CE1> 1
c<A>r<34>a<195>R<HIS>A<NE2> 1
c<A>r<37>a<220>R<LYS>A<NZ> 1
c<A>r<90>a<480>R<TYR>A<CD2> 2
c<A>r<90>a<482>R<TYR>A<CE2> 1
c<A>r<91>a<485>R<TYR>A<N> 2
c<A>r<91>a<487>R<TYR>A<C> 2
c<A>r<91>a<488>R<TYR>A<O> 2
c<A>r<91>a<489>R<TYR>A<CB> 3
c<A>r<91>a<490>R<TYR>A<CG> 3
c<A>r<91>a<491>R<TYR>A<CD1> 2
c<A>r<91>a<492>R<TYR>A<CD2> 2
c<A>r<91>a<493>R<TYR>A<CE1> 2
c<A>r<91>a<494>R<TYR>A<CE2> 1
c<A>r<91>a<495>R<TYR>A<CZ> 2
c<A>r<91>a<496>R<TYR>A<OH> 1
c<A>r<92>a<497>R<VAL>A<N> 2
c<A>r<92>a<498>R<VAL>A<CA> 2
c<A>r<92>a<499>R<VAL>A<C> 2
c<A>r<92>a<500>R<VAL>A<O> 1
c<A>r<92>a<502>R<VAL>A<CG1> 1
c<A>r<92>a<503>R<VAL>A<CG2> 1
c<A>r<93>a<504>R<GLY>A<N> 2
c<A>r<93>a<505>R<GLY>A<CA> 1
c<A>r<93>a<506>R<GLY>A<C> 2
c<A>r<93>a<507>R<GLY>A<O> 2
c<A>r<94>a<508>R<ARG>A<N> 1
c<A>r<94>a<509>R<ARG>A<CA> 1
c<A>r<94>a<512>R<ARG>A<CB> 1
c<A>r<94>a<513>R<ARG>A<CG> 2
c<A>r<94>a<514>R<ARG>A<CD> 1
c<A>r<94>a<515>R<ARG>A<NE> 1
c<A>r<94>a<516>R<ARG>A<CZ> 2
c<A>r<94>a<517>R<ARG>A<NH1> 1
c<A>r<94>a<518>R<ARG>A<NH2> 1
c<A>r<95>a<524>R<THR>A<OG1> 1
