c<B>r<12>a<1381>R<ASN>A<ND2> 1
c<B>r<19>a<1432>R<LEU>A<CB> 1
c<B>r<19>a<1434>R<LEU>A<CD1> 1
c<B>r<19>a<1435>R<LEU>A<CD2> 1
c<B>r<22>a<1455>R<ILE>A<CG2> 1
c<B>r<22>a<1456>R<ILE>A<CD1> 1
c<B>r<23>a<1458>R<ASN>A<CA> 1
c<B>r<23>a<1460>R<ASN>A<O> 2
c<B>r<23>a<1461>R<ASN>A<CB> 2
c<B>r<23>a<1462>R<ASN>A<CG> 2
c<B>r<23>a<1463>R<ASN>A<OD1> 1
c<B>r<23>a<1464>R<ASN>A<ND2> 1
c<B>r<26>a<1489>R<PHE>A<O> 2
c<B>r<26>a<1490>R<PHE>A<CB> 1
c<B>r<26>a<1491>R<PHE>A<CG> 2
c<B>r<26>a<1492>R<PHE>A<CD1> 2
c<B>r<26>a<1493>R<PHE>A<CD2> 2
c<B>r<26>a<1494>R<PHE>A<CE1> 2
c<B>r<26>a<1495>R<PHE>A<CE2> 2
c<B>r<26>a<1496>R<PHE>A<CZ> 2
c<B>r<27>a<1497>R<LEU>A<N> 2
c<B>r<27>a<1498>R<LEU>A<CA> 2
c<B>r<27>a<1500>R<LEU>A<O> 2
c<B>r<27>a<1501>R<LEU>A<CB> 2
c<B>r<27>a<1502>R<LEU>A<CG> 2
c<B>r<27>a<1503>R<LEU>A<CD1> 1
c<B>r<27>a<1504>R<LEU>A<CD2> 1
c<B>r<30>a<1523>R<ARG>A<C> 2
c<B>r<30>a<1524>R<ARG>A<O> 1
c<B>r<30>a<1525>R<ARG>A<CB> 1
c<B>r<30>a<1526>R<ARG>A<CG> 1
c<B>r<30>a<1528>R<ARG>A<NE> 2
c<B>r<30>a<1529>R<ARG>A<CZ> 2
c<B>r<30>a<1531>R<ARG>A<NH2> 1
c<B>r<31>a<1532>R<MET>A<N> 2
c<B>r<31>a<1533>R<MET>A<CA> 1
c<B>r<31>a<1537>R<MET>A<CG> 1
c<B>r<33>a<1558>R<ASN>A<CB> 1
c<B>r<33>a<1561>R<ASN>A<ND2> 1
c<B>r<34>a<1566>R<ASP>A<CB> 1
c<B>r<34>a<1567>R<ASP>A<CG> 2
c<B>r<34>a<1568>R<ASP>A<OD1> 1
c<B>r<34>a<1569>R<ASP>A<OD2> 1
c<B>r<39>a<1611>R<ARG>A<CD> 2
c<B>r<39>a<1612>R<ARG>A<NE> 1
c<B>r<39>a<1613>R<ARG>A<CZ> 2
c<B>r<39>a<1614>R<ARG>A<NH1> 1
c<B>r<39>a<1615>R<ARG>A<NH2> 1
c<B>r<45>a<1660>R<TYR>A<CE1> 1
c<B>r<45>a<1663>R<TYR>A<OH> 1
c<B>r<49>a<1692>R<ILE>A<O> 2
c<B>r<49>a<1695>R<ILE>A<CG2> 1
c<B>r<49>a<1696>R<ILE>A<CD1> 1
c<B>r<52>a<1715>R<MET>A<CA> 2
c<B>r<52>a<1716>R<MET>A<C> 3
c<B>r<52>a<1717>R<MET>A<O> 2
c<B>r<52>a<1718>R<MET>A<CB> 2
c<B>r<52>a<1719>R<MET>A<CG> 2
c<B>r<52>a<1720>R<MET>A<SD> 2
c<B>r<52>a<1721>R<MET>A<CE> 2
c<B>r<53>a<1722>R<LYS>A<N> 2
c<B>r<53>a<1723>R<LYS>A<CA> 1
c<B>r<53>a<1727>R<LYS>A<CG> 1
c<B>r<53>a<1729>R<LYS>A<CE> 1
c<B>r<53>a<1730>R<LYS>A<NZ> 1
c<B>r<55>a<1743>R<ALA>A<C> 3
c<B>r<55>a<1745>R<ALA>A<CB> 2
c<B>r<56>a<1746>R<ASP>A<N> 3
c<B>r<56>a<1747>R<ASP>A<CA> 3
c<B>r<56>a<1749>R<ASP>A<O> 2
c<B>r<56>a<1750>R<ASP>A<CB> 2
c<B>r<56>a<1751>R<ASP>A<CG> 2
c<B>r<56>a<1752>R<ASP>A<OD1> 2
c<B>r<56>a<1753>R<ASP>A<OD2> 1
c<B>r<59>a<1773>R<ILE>A<CB> 3
c<B>r<59>a<1775>R<ILE>A<CG2> 2
c<B>r<59>a<1776>R<ILE>A<CD1> 2
c<B>r<60>a<1777>R<GLU>A<N> 2
c<B>r<60>a<1778>R<GLU>A<CA> 1
c<B>r<60>a<1782>R<GLU>A<CG> 1
c<B>r<60>a<1785>R<GLU>A<OE2> 1
c<B>r<63>a<1807>R<LEU>A<C> 2
c<B>r<63>a<1808>R<LEU>A<O> 1
c<B>r<63>a<1809>R<LEU>A<CB> 1
c<B>r<63>a<1811>R<LEU>A<CD1> 1
c<B>r<63>a<1812>R<LEU>A<CD2> 1
c<B>r<64>a<1813>R<PHE>A<N> 1
c<B>r<64>a<1814>R<PHE>A<CA> 1
c<B>r<64>a<1816>R<PHE>A<O> 1
c<B>r<64>a<1819>R<PHE>A<CD1> 1
c<B>r<68>a<1848>R<LEU>A<O> 1
c<B>r<68>a<1849>R<LEU>A<CB> 1
c<B>r<68>a<1850>R<LEU>A<CG> 2
c<B>r<68>a<1851>R<LEU>A<CD1> 1
c<B>r<68>a<1852>R<LEU>A<CD2> 1
c<B>r<69>a<1856>R<PRO>A<O> 2
c<B>r<69>a<1857>R<PRO>A<CB> 3
c<B>r<69>a<1858>R<PRO>A<CG> 2
c<B>r<69>a<1859>R<PRO>A<CD> 2
c<B>r<70>a<1861>R<ASN>A<CA> 2
c<B>r<70>a<1864>R<ASN>A<CB> 1
c<B>r<70>a<1865>R<ASN>A<CG> 2
c<B>r<70>a<1866>R<ASN>A<OD1> 2
c<B>r<70>a<1867>R<ASN>A<ND2> 1
c<B>r<71>a<1868>R<LEU>A<N> 3
c<B>r<71>a<1869>R<LEU>A<CA> 2
c<B>r<71>a<1870>R<LEU>A<C> 2
c<B>r<71>a<1871>R<LEU>A<O> 1
c<B>r<71>a<1872>R<LEU>A<CB> 2
c<B>r<71>a<1873>R<LEU>A<CG> 2
c<B>r<71>a<1874>R<LEU>A<CD1> 3
c<B>r<71>a<1875>R<LEU>A<CD2> 3
c<B>r<72>a<1876>R<GLN>A<N> 2
c<B>r<72>a<1877>R<GLN>A<CA> 2
c<B>r<72>a<1878>R<GLN>A<C> 2
c<B>r<72>a<1879>R<GLN>A<O> 2
c<B>r<72>a<1880>R<GLN>A<CB> 2
c<B>r<72>a<1881>R<GLN>A<CG> 2
c<B>r<72>a<1882>R<GLN>A<CD> 2
c<B>r<72>a<1883>R<GLN>A<OE1> 1
c<B>r<72>a<1884>R<GLN>A<NE2> 2
c<B>r<73>a<1885>R<ASP>A<N> 2
c<B>r<73>a<1886>R<ASP>A<CA> 2
c<B>r<73>a<1887>R<ASP>A<C> 1
c<B>r<73>a<1889>R<ASP>A<CB> 1
c<B>r<73>a<1890>R<ASP>A<CG> 2
c<B>r<73>a<1891>R<ASP>A<OD1> 1
c<B>r<73>a<1892>R<ASP>A<OD2> 1
c<B>r<74>a<1893>R<LEU>A<N> 2
c<B>r<74>a<1896>R<LEU>A<O> 1
c<B>r<74>a<1897>R<LEU>A<CB> 1
c<B>r<74>a<1898>R<LEU>A<CG> 2
c<B>r<74>a<1899>R<LEU>A<CD1> 1
c<B>r<74>a<1900>R<LEU>A<CD2> 1
c<B>r<75>a<1903>R<GLY>A<C> 1
c<B>r<75>a<1904>R<GLY>A<O> 2
c<B>r<76>a<1906>R<LYS>A<CA> 1
c<B>r<76>a<1910>R<LYS>A<CG> 1
c<B>r<77>a<1914>R<LEU>A<N> 2
c<B>r<77>a<1917>R<LEU>A<O> 1
c<B>r<77>a<1918>R<LEU>A<CB> 1
c<B>r<77>a<1919>R<LEU>A<CG> 2
c<B>r<77>a<1920>R<LEU>A<CD1> 1
c<B>r<77>a<1921>R<LEU>A<CD2> 2
c<B>r<102>a<2111>R<ARG>A<CA> 2
c<B>r<102>a<2112>R<ARG>A<C> 1
c<B>r<102>a<2113>R<ARG>A<O> 1
c<B>r<102>a<2114>R<ARG>A<CB> 1
c<B>r<102>a<2115>R<ARG>A<CG> 2
c<B>r<102>a<2116>R<ARG>A<CD> 1
c<B>r<102>a<2119>R<ARG>A<NH1> 1
c<B>r<105>a<2137>R<ILE>A<C> 2
c<B>r<105>a<2138>R<ILE>A<O> 2
c<B>r<105>a<2139>R<ILE>A<CB> 2
c<B>r<105>a<2141>R<ILE>A<CG2> 1
c<B>r<105>a<2142>R<ILE>A<CD1> 1
c<B>r<106>a<2143>R<VAL>A<N> 2
c<B>r<106>a<2144>R<VAL>A<CA> 1
c<B>r<106>a<2148>R<VAL>A<CG1> 1
c<B>r<106>a<2149>R<VAL>A<CG2> 1
c<B>r<109>a<2170>R<GLU>A<CB> 1
c<B>r<109>a<2171>R<GLU>A<CG> 1
c<B>r<109>a<2172>R<GLU>A<CD> 2
c<B>r<109>a<2173>R<GLU>A<OE1> 1
c<B>r<117>a<2241>R<ARG>A<NE> 1
c<B>r<117>a<2242>R<ARG>A<CZ> 1
c<B>r<117>a<2243>R<ARG>A<NH1> 1
c<B>r<117>a<2244>R<ARG>A<NH2> 1
c<B>r<118>a<2251>R<ASP>A<OD1> 1
c<B>r<121>a<2270>R<LYS>A<CA> 2
c<B>r<121>a<2272>R<LYS>A<O> 2
c<B>r<121>a<2273>R<LYS>A<CB> 1
c<B>r<121>a<2274>R<LYS>A<CG> 1
c<B>r<121>a<2275>R<LYS>A<CD> 1
c<B>r<121>a<2276>R<LYS>A<CE> 1
c<B>r<121>a<2277>R<LYS>A<NZ> 1
c<B>r<124>a<2296>R<LEU>A<C> 3
c<B>r<124>a<2297>R<LEU>A<O> 2
c<B>r<124>a<2298>R<LEU>A<CB> 2
c<B>r<124>a<2299>R<LEU>A<CG> 2
c<B>r<124>a<2301>R<LEU>A<CD2> 2
c<B>r<125>a<2302>R<GLU>A<N> 2
c<B>r<125>a<2303>R<GLU>A<CA> 2
c<B>r<125>a<2305>R<GLU>A<O> 1
c<B>r<125>a<2306>R<GLU>A<CB> 1
c<B>r<125>a<2307>R<GLU>A<CG> 1
c<B>r<125>a<2308>R<GLU>A<CD> 1
c<B>r<125>a<2309>R<GLU>A<OE1> 1
c<B>r<125>a<2310>R<GLU>A<OE2> 1
c<B>r<128>a<2330>R<GLU>A<CA> 2
c<B>r<128>a<2332>R<GLU>A<O> 1
c<B>r<128>a<2333>R<GLU>A<CB> 1
c<B>r<128>a<2334>R<GLU>A<CG> 1
c<B>r<128>a<2335>R<GLU>A<CD> 1
c<B>r<128>a<2336>R<GLU>A<OE1> 1
c<B>r<128>a<2337>R<GLU>A<OE2> 1
c<B>r<131>a<2361>R<ILE>A<CB> 2
c<B>r<131>a<2363>R<ILE>A<CG2> 1
c<B>r<131>a<2364>R<ILE>A<CD1> 1
c<B>r<132>a<2365>R<ASP>A<N> 2
c<B>r<132>a<2366>R<ASP>A<CA> 2
c<B>r<132>a<2369>R<ASP>A<CB> 1
c<B>r<132>a<2370>R<ASP>A<CG> 2
c<B>r<132>a<2371>R<ASP>A<OD1> 1
c<B>r<132>a<2372>R<ASP>A<OD2> 1
c<B>r<135>a<2399>R<GLU>A<CD> 1
c<B>r<135>a<2400>R<GLU>A<OE1> 1
c<B>r<135>a<2401>R<GLU>A<OE2> 1
c<B>r<136>a<2403>R<THR>A<CA> 1
c<B>r<136>a<2405>R<THR>A<O> 1
c<B>r<136>a<2407>R<THR>A<OG1> 1
c<B>r<136>a<2408>R<THR>A<CG2> 1
c<B>r<137>a<2417>R<GLN>A<NE2> 1
c<B>r<139>a<2428>R<GLY>A<C> 2
c<B>r<140>a<2430>R<LEU>A<N> 2
c<B>r<140>a<2434>R<LEU>A<CB> 2
c<B>r<140>a<2435>R<LEU>A<CG> 2
c<B>r<140>a<2436>R<LEU>A<CD1> 1
c<B>r<140>a<2437>R<LEU>A<CD2> 2
c<B>r<142>a<2449>R<GLN>A<O> 1
c<B>r<143>a<2456>R<LYS>A<CA> 1
c<B>r<143>a<2457>R<LYS>A<C> 2
c<B>r<143>a<2458>R<LYS>A<O> 1
c<B>r<143>a<2459>R<LYS>A<CB> 1
c<B>r<143>a<2460>R<LYS>A<CG> 1
c<B>r<143>a<2461>R<LYS>A<CD> 1
c<B>r<143>a<2462>R<LYS>A<CE> 1
c<B>r<143>a<2463>R<LYS>A<NZ> 1
c<B>r<144>a<2465>R<VAL>A<CA> 2
c<B>r<144>a<2466>R<VAL>A<C> 2
c<B>r<144>a<2467>R<VAL>A<O> 1
c<B>r<144>a<2468>R<VAL>A<CB> 2
c<B>r<144>a<2469>R<VAL>A<CG1> 2
c<B>r<144>a<2470>R<VAL>A<CG2> 2
c<B>r<145>a<2471>R<GLY>A<N> 2
c<B>r<145>a<2472>R<GLY>A<CA> 1
c<B>r<148>a<2493>R<ASN>A<CA> 2
c<B>r<148>a<2494>R<ASN>A<C> 3
c<B>r<148>a<2495>R<ASN>A<O> 2
c<B>r<148>a<2496>R<ASN>A<CB> 2
c<B>r<148>a<2497>R<ASN>A<CG> 1
c<B>r<148>a<2498>R<ASN>A<OD1> 1
c<B>r<148>a<2499>R<ASN>A<ND2> 1
c<B>r<149>a<2501>R<TYR>A<CA> 2
c<B>r<149>a<2503>R<TYR>A<O> 2
c<B>r<149>a<2506>R<TYR>A<CD1> 2
c<B>r<149>a<2508>R<TYR>A<CE1> 2
c<B>r<151>a<2524>R<GLN>A<CB> 2
c<B>r<151>a<2525>R<GLN>A<CG> 1
c<B>r<151>a<2526>R<GLN>A<CD> 1
c<B>r<151>a<2527>R<GLN>A<OE1> 1
c<B>r<151>a<2528>R<GLN>A<NE2> 1
c<B>r<152>a<2529>R<SER>A<N> 2
c<B>r<152>a<2530>R<SER>A<CA> 1
c<B>r<152>a<2532>R<SER>A<O> 1
c<B>r<152>a<2533>R<SER>A<CB> 1
c<B>r<152>a<2534>R<SER>A<OG> 1
c<B>r<153>a<2541>R<HIS>A<ND1> 2
c<B>r<153>a<2543>R<HIS>A<CE1> 2
c<B>r<153>a<2544>R<HIS>A<NE2> 1
c<B>r<157>a<2578>R<ASP>A<OD1> 1
c<B>r<201>a<8899>R<K>A<K> 1
c<B>r<202>a<8900>R<NA>A<NA> 1
