c<A>r<22>a<154>R<VAL>A<CG1> 1
c<A>r<32>a<217>R<LYS>A<CG> 1
c<A>r<32>a<218>R<LYS>A<CD> 2
c<A>r<32>a<219>R<LYS>A<CE> 1
c<A>r<32>a<220>R<LYS>A<NZ> 1
c<A>r<35>a<243>R<HIS>A<ND1> 1
c<A>r<35>a<245>R<HIS>A<CE1> 1
c<A>r<36>a<252>R<ASN>A<CG> 1
c<A>r<36>a<253>R<ASN>A<OD1> 1
c<A>r<36>a<254>R<ASN>A<ND2> 1
c<A>r<39>a<272>R<ALA>A<CA> 1
c<A>r<39>a<274>R<ALA>A<O> 1
c<A>r<39>a<275>R<ALA>A<CB> 1
c<A>r<40>a<277>R<GLY>A<CA> 1
c<A>r<40>a<278>R<GLY>A<C> 2
c<A>r<40>a<279>R<GLY>A<O> 1
c<A>r<41>a<280>R<ILE>A<N> 2
c<A>r<41>a<281>R<ILE>A<CA> 1
c<A>r<41>a<283>R<ILE>A<O> 1
c<A>r<41>a<285>R<ILE>A<CG1> 2
c<A>r<41>a<286>R<ILE>A<CG2> 1
c<A>r<41>a<287>R<ILE>A<CD1> 1
c<A>r<42>a<289>R<PHE>A<CA> 1
c<A>r<42>a<294>R<PHE>A<CD1> 1
c<A>r<42>a<296>R<PHE>A<CE1> 1
c<A>r<42>a<298>R<PHE>A<CZ> 2
c<A>r<43>a<299>R<LYS>A<N> 1
c<A>r<43>a<301>R<LYS>A<C> 2
c<A>r<43>a<302>R<LYS>A<O> 1
c<A>r<43>a<303>R<LYS>A<CB> 1
c<A>r<43>a<304>R<LYS>A<CG> 2
c<A>r<43>a<305>R<LYS>A<CD> 1
c<A>r<43>a<306>R<LYS>A<CE> 1
c<A>r<43>a<307>R<LYS>A<NZ> 1
c<A>r<44>a<308>R<ASN>A<N> 1
c<A>r<44>a<309>R<ASN>A<CA> 1
c<A>r<44>a<312>R<ASN>A<CB> 1
c<A>r<44>a<313>R<ASN>A<CG> 2
c<A>r<44>a<314>R<ASN>A<OD1> 1
c<A>r<44>a<315>R<ASN>A<ND2> 1
c<A>r<65>a<470>R<SER>A<O> 1
c<A>r<68>a<498>R<ALA>A<CB> 1
c<A>r<69>a<499>R<THR>A<N> 1
c<A>r<69>a<502>R<THR>A<O> 1
c<A>r<70>a<511>R<VAL>A<CG1> 1
c<A>r<80>a<590>R<PHE>A<O> 1
c<A>r<80>a<593>R<PHE>A<CD1> 1
c<A>r<80>a<595>R<PHE>A<CE1> 1
c<A>r<80>a<596>R<PHE>A<CE2> 2
c<A>r<80>a<597>R<PHE>A<CZ> 2
c<A>r<81>a<599>R<ARG>A<CA> 2
c<A>r<81>a<600>R<ARG>A<C> 3
c<A>r<81>a<602>R<ARG>A<CB> 2
c<A>r<81>a<603>R<ARG>A<CG> 1
c<A>r<81>a<604>R<ARG>A<CD> 2
c<A>r<81>a<605>R<ARG>A<NE> 2
c<A>r<81>a<606>R<ARG>A<CZ> 2
c<A>r<81>a<607>R<ARG>A<NH1> 1
c<A>r<81>a<608>R<ARG>A<NH2> 2
c<A>r<82>a<609>R<VAL>A<N> 2
c<A>r<82>a<613>R<VAL>A<CB> 2
c<A>r<82>a<614>R<VAL>A<CG1> 2
c<A>r<83>a<616>R<LYS>A<N> 2
c<A>r<83>a<620>R<LYS>A<CB> 1
c<A>r<83>a<621>R<LYS>A<CG> 2
c<A>r<83>a<622>R<LYS>A<CD> 1
c<A>r<83>a<623>R<LYS>A<CE> 1
c<A>r<83>a<624>R<LYS>A<NZ> 1
c<A>r<84>a<631>R<ASP>A<OD1> 1
c<A>r<121>a<897>R<GLY>A<O> 1
c<A>r<122>a<899>R<TRP>A<CA> 2
c<A>r<122>a<902>R<TRP>A<CB> 2
c<A>r<122>a<903>R<TRP>A<CG> 3
c<A>r<122>a<904>R<TRP>A<CD1> 2
c<A>r<122>a<905>R<TRP>A<CD2> 2
c<A>r<122>a<906>R<TRP>A<NE1> 1
c<A>r<122>a<907>R<TRP>A<CE2> 2
c<A>r<122>a<908>R<TRP>A<CE3> 2
c<A>r<122>a<909>R<TRP>A<CZ2> 1
c<A>r<122>a<910>R<TRP>A<CZ3> 1
c<A>r<122>a<911>R<TRP>A<CH2> 1
c<A>r<123>a<912>R<LEU>A<N> 2
c<A>r<123>a<914>R<LEU>A<C> 2
c<A>r<123>a<915>R<LEU>A<O> 1
c<A>r<123>a<916>R<LEU>A<CB> 2
c<A>r<123>a<917>R<LEU>A<CG> 1
c<A>r<123>a<918>R<LEU>A<CD1> 2
c<A>r<123>a<919>R<LEU>A<CD2> 1
c<A>r<124>a<920>R<ASP>A<N> 2
c<A>r<124>a<921>R<ASP>A<CA> 2
c<A>r<124>a<922>R<ASP>A<C> 1
c<A>r<124>a<923>R<ASP>A<O> 1
c<A>r<124>a<924>R<ASP>A<CB> 2
c<A>r<124>a<925>R<ASP>A<CG> 2
c<A>r<124>a<926>R<ASP>A<OD1> 2
c<A>r<124>a<927>R<ASP>A<OD2> 1
c<A>r<125>a<928>R<ALA>A<N> 1
c<A>r<125>a<929>R<ALA>A<CA> 1
c<A>r<125>a<932>R<ALA>A<CB> 2
c<A>r<126>a<933>R<THR>A<N> 1
c<A>r<126>a<938>R<THR>A<OG1> 2
c<A>r<126>a<939>R<THR>A<CG2> 1
c<A>r<127>a<943>R<GLY>A<O> 1
c<A>r<150>a<1111>R<GLY>A<CA> 1
c<A>r<151>a<1114>R<SER>A<N> 1
c<A>r<151>a<1118>R<SER>A<CB> 1
c<A>r<151>a<1119>R<SER>A<OG> 1
