"Metric";"Testing_Set"
"Accuracy";"0.757861635220126"
"Kappa";"0.203776366277179"
"AccuracyLower";"0.729382786061678"
"AccuracyUpper";"0.784738685402523"
"AccuracyNull";"0.761006289308176"
"AccuracyPValue";"0.607120181227749"
"McnemarPValue";"1.19559730342857e-12"
"Sensitivity";"0.254385964912281"
"Specificity";"0.915977961432507"
"Pos Pred Value";"0.487394957983193"
"Neg Pred Value";"0.796407185628742"
"Precision";"0.487394957983193"
"Recall";"0.254385964912281"
"F1";"0.334293948126801"
"Prevalence";"0.238993710691824"
"Detection Rate";"0.0607966457023061"
"Detection Prevalence";"0.124737945492662"
"Balanced Accuracy";"0.585181963172394"
"TP";"58"
"TN";"665"
"FP";"61"
"FN";"170"
