"Metric";"Testing_Set"
"Accuracy";"0.459119496855346"
"Kappa";"0.132109535328176"
"AccuracyLower";"0.42714159292134"
"AccuracyUpper";"0.491350474775918"
"AccuracyNull";"0.758909853249476"
"AccuracyPValue";"1"
"McnemarPValue";"2.69763561185628e-96"
"Sensitivity";"0.908695652173913"
"Specificity";"0.316298342541436"
"Pos Pred Value";"0.296875"
"Neg Pred Value";"0.916"
"Precision";"0.296875"
"Recall";"0.908695652173913"
"F1";"0.447537473233405"
"Prevalence";"0.241090146750524"
"Detection Rate";"0.219077568134172"
"Detection Prevalence";"0.737945492662474"
"Balanced Accuracy";"0.612496997357675"
"TP";"209"
"TN";"229"
"FP";"495"
"FN";"21"
