"Metric";"Testing_Set"
"Accuracy";"0.733752620545073"
"Kappa";"0.309294689074864"
"AccuracyLower";"0.704487535786445"
"AccuracyUpper";"0.761566757994013"
"AccuracyNull";"0.758909853249476"
"AccuracyPValue";"0.967073837096673"
"McnemarPValue";"0.0280851216451572"
"Sensitivity";"0.526086956521739"
"Specificity";"0.799723756906077"
"Pos Pred Value";"0.454887218045113"
"Neg Pred Value";"0.84156976744186"
"Precision";"0.454887218045113"
"Recall";"0.526086956521739"
"F1";"0.487903225806452"
"Prevalence";"0.241090146750524"
"Detection Rate";"0.126834381551363"
"Detection Prevalence";"0.278825995807128"
"Balanced Accuracy";"0.662905356713908"
"TP";"121"
"TN";"579"
"FP";"145"
"FN";"109"
