"Metric";"Testing_Set"
"Accuracy";"0.769392033542977"
"Kappa";"0.233343074225599"
"AccuracyLower";"0.741329786156085"
"AccuracyUpper";"0.795780164614427"
"AccuracyNull";"0.758909853249476"
"AccuracyPValue";"0.237033150648126"
"McnemarPValue";"1.03211535720542e-15"
"Sensitivity";"0.260869565217391"
"Specificity";"0.930939226519337"
"Pos Pred Value";"0.545454545454546"
"Neg Pred Value";"0.798578199052133"
"Precision";"0.545454545454545"
"Recall";"0.260869565217391"
"F1";"0.352941176470588"
"Prevalence";"0.241090146750524"
"Detection Rate";"0.0628930817610063"
"Detection Prevalence";"0.115303983228512"
"Balanced Accuracy";"0.595904395868364"
"TP";"60"
"TN";"674"
"FP";"50"
"FN";"170"
