"Metric";"Testing_Set"
"Accuracy";"0.463312368972746"
"Kappa";"0.138837368387647"
"AccuracyLower";"0.431300839127358"
"AccuracyUpper";"0.495551013365295"
"AccuracyNull";"0.758909853249476"
"AccuracyPValue";"1"
"McnemarPValue";"4.9401835866729e-97"
"Sensitivity";"0.917391304347826"
"Specificity";"0.319060773480663"
"Pos Pred Value";"0.299715909090909"
"Neg Pred Value";"0.924"
"Precision";"0.299715909090909"
"Recall";"0.917391304347826"
"F1";"0.451820128479657"
"Prevalence";"0.241090146750524"
"Detection Rate";"0.221174004192872"
"Detection Prevalence";"0.737945492662474"
"Balanced Accuracy";"0.618226038914245"
"TP";"211"
"TN";"231"
"FP";"493"
"FN";"19"
