"Metric";"Testing_Set"
"Accuracy";"0.759958071278826"
"Kappa";"0.0289623169853585"
"AccuracyLower";"0.731552944199914"
"AccuracyUpper";"0.786748259785745"
"AccuracyNull";"0.761006289308176"
"AccuracyPValue";"0.547910647586546"
"McnemarPValue";"1.36641592481861e-44"
"Sensitivity";"0.0307017543859649"
"Specificity";"0.988980716253444"
"Pos Pred Value";"0.466666666666667"
"Neg Pred Value";"0.764643237486688"
"Precision";"0.466666666666667"
"Recall";"0.0307017543859649"
"F1";"0.0576131687242798"
"Prevalence";"0.238993710691824"
"Detection Rate";"0.00733752620545073"
"Detection Prevalence";"0.0157232704402516"
"Balanced Accuracy";"0.509841235319704"
"TP";"7"
"TN";"718"
"FP";"8"
"FN";"221"
