"Metric";"Testing_Set"
"Accuracy";"0.765199161425577"
"Kappa";"0.222210898714459"
"AccuracyLower";"0.736982250550191"
"AccuracyUpper";"0.791768267489117"
"AccuracyNull";"0.758909853249476"
"AccuracyPValue";"0.340590426388492"
"McnemarPValue";"5.39292519405988e-15"
"Sensitivity";"0.256521739130435"
"Specificity";"0.926795580110497"
"Pos Pred Value";"0.526785714285714"
"Neg Pred Value";"0.796912114014252"
"Precision";"0.526785714285714"
"Recall";"0.256521739130435"
"F1";"0.345029239766082"
"Prevalence";"0.241090146750524"
"Detection Rate";"0.0618448637316562"
"Detection Prevalence";"0.117400419287212"
"Balanced Accuracy";"0.591658659620466"
"TP";"59"
"TN";"671"
"FP";"53"
"FN";"171"
