"Metric";"Testing_Set"
"Accuracy";"0.731656184486373"
"Kappa";"0.266700295452907"
"AccuracyLower";"0.702327893013728"
"AccuracyUpper";"0.759546626207111"
"AccuracyNull";"0.761006289308176"
"AccuracyPValue";"0.98385962515531"
"McnemarPValue";"0.851268623688206"
"Sensitivity";"0.447368421052632"
"Specificity";"0.820936639118457"
"Pos Pred Value";"0.439655172413793"
"Neg Pred Value";"0.825484764542936"
"Precision";"0.439655172413793"
"Recall";"0.447368421052632"
"F1";"0.443478260869565"
"Prevalence";"0.238993710691824"
"Detection Rate";"0.106918238993711"
"Detection Prevalence";"0.243186582809224"
"Balanced Accuracy";"0.634152530085544"
"TP";"102"
"TN";"596"
"FP";"130"
"FN";"126"
