"Metric";"Testing_Set"
"Accuracy";"0.757861635220126"
"Kappa";"0.161534071453031"
"AccuracyLower";"0.729382786061678"
"AccuracyUpper";"0.784738685402523"
"AccuracyNull";"0.761006289308176"
"AccuracyPValue";"0.607120181227749"
"McnemarPValue";"3.61512348758093e-19"
"Sensitivity";"0.192982456140351"
"Specificity";"0.935261707988981"
"Pos Pred Value";"0.483516483516483"
"Neg Pred Value";"0.786790266512167"
"Precision";"0.483516483516484"
"Recall";"0.192982456140351"
"F1";"0.275862068965517"
"Prevalence";"0.238993710691824"
"Detection Rate";"0.0461215932914046"
"Detection Prevalence";"0.0953878406708595"
"Balanced Accuracy";"0.564122082064666"
"TP";"44"
"TN";"679"
"FP";"47"
"FN";"184"
