"Metric";"Testing_Set"
"Accuracy";"0.555555555555556"
"Kappa";"0.152831184498228"
"AccuracyLower";"0.523369140149937"
"AccuracyUpper";"0.58739802914978"
"AccuracyNull";"0.761006289308176"
"AccuracyPValue";"1"
"McnemarPValue";"6.02495122419154e-46"
"Sensitivity";"0.714912280701754"
"Specificity";"0.505509641873278"
"Pos Pred Value";"0.312260536398467"
"Neg Pred Value";"0.849537037037037"
"Precision";"0.312260536398467"
"Recall";"0.714912280701754"
"F1";"0.434666666666667"
"Prevalence";"0.238993710691824"
"Detection Rate";"0.170859538784067"
"Detection Prevalence";"0.547169811320755"
"Balanced Accuracy";"0.610210961287516"
"TP";"163"
"TN";"367"
"FP";"359"
"FN";"65"
