"Metric";"Testing_Set"
"Accuracy";"0.517819706498952"
"Kappa";"0.159773917838434"
"AccuracyLower";"0.485574267360156"
"AccuracyUpper";"0.549954837650399"
"AccuracyNull";"0.761006289308176"
"AccuracyPValue";"1"
"McnemarPValue";"2.52856415608188e-71"
"Sensitivity";"0.833333333333333"
"Specificity";"0.418732782369146"
"Pos Pred Value";"0.310457516339869"
"Neg Pred Value";"0.888888888888889"
"Precision";"0.310457516339869"
"Recall";"0.833333333333333"
"F1";"0.452380952380952"
"Prevalence";"0.238993710691824"
"Detection Rate";"0.19916142557652"
"Detection Prevalence";"0.641509433962264"
"Balanced Accuracy";"0.62603305785124"
"TP";"190"
"TN";"304"
"FP";"422"
"FN";"38"
