"Metric";"Testing_Set"
"Accuracy";"0.753668763102725"
"Kappa";"0.143770480533468"
"AccuracyLower";"0.725045108343067"
"AccuracyUpper";"0.780716886734807"
"AccuracyNull";"0.761006289308176"
"AccuracyPValue";"0.716950599530846"
"McnemarPValue";"2.21385436072958e-19"
"Sensitivity";"0.179824561403509"
"Specificity";"0.933884297520661"
"Pos Pred Value";"0.460674157303371"
"Neg Pred Value";"0.783815028901734"
"Precision";"0.460674157303371"
"Recall";"0.179824561403509"
"F1";"0.258675078864353"
"Prevalence";"0.238993710691824"
"Detection Rate";"0.0429769392033543"
"Detection Prevalence";"0.0932914046121593"
"Balanced Accuracy";"0.556854429462085"
"TP";"41"
"TN";"678"
"FP";"48"
"FN";"187"
