"Metric";"Testing_Set"
"Accuracy";"0.738993710691824"
"Kappa";"0.217739226650332"
"AccuracyLower";"0.709890171022178"
"AccuracyUpper";"0.766613546079102"
"AccuracyNull";"0.761006289308176"
"AccuracyPValue";"0.947580401917752"
"McnemarPValue";"0.000621369516008329"
"Sensitivity";"0.333333333333333"
"Specificity";"0.866391184573003"
"Pos Pred Value";"0.439306358381503"
"Neg Pred Value";"0.805377720870679"
"Precision";"0.439306358381503"
"Recall";"0.333333333333333"
"F1";"0.379052369077307"
"Prevalence";"0.238993710691824"
"Detection Rate";"0.079664570230608"
"Detection Prevalence";"0.181341719077568"
"Balanced Accuracy";"0.599862258953168"
"TP";"76"
"TN";"629"
"FP";"97"
"FN";"152"
