"Metric";"Testing_Set"
"Accuracy";"0.734800838574423"
"Kappa";"0.237677424245296"
"AccuracyLower";"0.705567658078754"
"AccuracyUpper";"0.762576521876554"
"AccuracyNull";"0.761006289308176"
"AccuracyPValue";"0.97249764446762"
"McnemarPValue";"0.0783493425893557"
"Sensitivity";"0.381578947368421"
"Specificity";"0.845730027548209"
"Pos Pred Value";"0.437185929648241"
"Neg Pred Value";"0.813245033112583"
"Precision";"0.437185929648241"
"Recall";"0.381578947368421"
"F1";"0.407494145199063"
"Prevalence";"0.238993710691824"
"Detection Rate";"0.0911949685534591"
"Detection Prevalence";"0.208595387840671"
"Balanced Accuracy";"0.613654487458315"
"TP";"87"
"TN";"614"
"FP";"112"
"FN";"141"
