"Metric";"Testing_Set"
"Accuracy";"0.772536687631027"
"Kappa";"0.0919068298460324"
"AccuracyLower";"0.744592868928106"
"AccuracyUpper";"0.798786645076809"
"AccuracyNull";"0.761006289308176"
"AccuracyPValue";"0.21339095227416"
"McnemarPValue";"1.94677391753402e-44"
"Sensitivity";"0.0701754385964912"
"Specificity";"0.993112947658402"
"Pos Pred Value";"0.761904761904762"
"Neg Pred Value";"0.772775991425509"
"Precision";"0.761904761904762"
"Recall";"0.0701754385964912"
"F1";"0.1285140562249"
"Prevalence";"0.238993710691824"
"Detection Rate";"0.0167714884696017"
"Detection Prevalence";"0.0220125786163522"
"Balanced Accuracy";"0.531644193127447"
"TP";"16"
"TN";"721"
"FP";"5"
"FN";"212"
