"Metric";"Testing_Set"
"Accuracy";"0.755765199161426"
"Kappa";"0.275619341845414"
"AccuracyLower";"0.727213509998493"
"AccuracyUpper";"0.782728225134656"
"AccuracyNull";"0.758909853249476"
"AccuracyPValue";"0.60679059239072"
"McnemarPValue";"0.000657694335081986"
"Sensitivity";"0.378260869565217"
"Specificity";"0.875690607734807"
"Pos Pred Value";"0.491525423728814"
"Neg Pred Value";"0.815958815958816"
"Precision";"0.491525423728814"
"Recall";"0.378260869565217"
"F1";"0.427518427518428"
"Prevalence";"0.241090146750524"
"Detection Rate";"0.0911949685534591"
"Detection Prevalence";"0.185534591194969"
"Balanced Accuracy";"0.626975738650012"
"TP";"87"
"TN";"634"
"FP";"90"
"FN";"143"
