"Metric";"Testing_Set"
"Accuracy";"0.772536687631027"
"Kappa";"0.107504074083654"
"AccuracyLower";"0.744592868928106"
"AccuracyUpper";"0.798786645076809"
"AccuracyNull";"0.761006289308176"
"AccuracyPValue";"0.21339095227416"
"McnemarPValue";"3.4716198607111e-41"
"Sensitivity";"0.087719298245614"
"Specificity";"0.987603305785124"
"Pos Pred Value";"0.689655172413794"
"Neg Pred Value";"0.775135135135135"
"Precision";"0.689655172413793"
"Recall";"0.087719298245614"
"F1";"0.155642023346303"
"Prevalence";"0.238993710691824"
"Detection Rate";"0.0209643605870021"
"Detection Prevalence";"0.030398322851153"
"Balanced Accuracy";"0.537661302015369"
"TP";"20"
"TN";"717"
"FP";"9"
"FN";"208"
