"Metric";"Testing_Set"
"Accuracy";"0.753668763102725"
"Kappa";"0.20989194561333"
"AccuracyLower";"0.725045108343067"
"AccuracyUpper";"0.780716886734807"
"AccuracyNull";"0.761006289308176"
"AccuracyPValue";"0.716950599530846"
"McnemarPValue";"8.68444808012124e-10"
"Sensitivity";"0.276315789473684"
"Specificity";"0.903581267217631"
"Pos Pred Value";"0.473684210526316"
"Neg Pred Value";"0.799025578562728"
"Precision";"0.473684210526316"
"Recall";"0.276315789473684"
"F1";"0.349030470914127"
"Prevalence";"0.238993710691824"
"Detection Rate";"0.0660377358490566"
"Detection Prevalence";"0.139412997903564"
"Balanced Accuracy";"0.589948528345658"
"TP";"63"
"TN";"656"
"FP";"70"
"FN";"165"
