"Metric";"Testing_Set"
"Accuracy";"0.505241090146751"
"Kappa";"0.161830731086243"
"AccuracyLower";"0.473016218505056"
"AccuracyUpper";"0.537433518658777"
"AccuracyNull";"0.761006289308176"
"AccuracyPValue";"1"
"McnemarPValue";"1.41313362206235e-80"
"Sensitivity";"0.87280701754386"
"Specificity";"0.389807162534435"
"Pos Pred Value";"0.309968847352025"
"Neg Pred Value";"0.907051282051282"
"Precision";"0.309968847352025"
"Recall";"0.87280701754386"
"F1";"0.457471264367816"
"Prevalence";"0.238993710691824"
"Detection Rate";"0.208595387840671"
"Detection Prevalence";"0.672955974842767"
"Balanced Accuracy";"0.631307090039148"
"TP";"199"
"TN";"283"
"FP";"443"
"FN";"29"
