"Metric";"Testing_Set"
"Accuracy";"0.776729559748428"
"Kappa";"0.160023810114338"
"AccuracyLower";"0.748946944941615"
"AccuracyUpper";"0.802791970954397"
"AccuracyNull";"0.761006289308176"
"AccuracyPValue";"0.135162925201903"
"McnemarPValue";"3.25035512141728e-34"
"Sensitivity";"0.140350877192982"
"Specificity";"0.976584022038568"
"Pos Pred Value";"0.653061224489796"
"Neg Pred Value";"0.783425414364641"
"Precision";"0.653061224489796"
"Recall";"0.140350877192982"
"F1";"0.231046931407942"
"Prevalence";"0.238993710691824"
"Detection Rate";"0.0335429769392034"
"Detection Prevalence";"0.0513626834381551"
"Balanced Accuracy";"0.558467449615775"
"TP";"32"
"TN";"709"
"FP";"17"
"FN";"196"
