"Metric";"Testing_Set"
"Accuracy";"0.744234800838574"
"Kappa";"0.265950200560054"
"AccuracyLower";"0.715297924580916"
"AccuracyUpper";"0.771655196332302"
"AccuracyNull";"0.761006289308176"
"AccuracyPValue";"0.894183156755353"
"McnemarPValue";"0.0838990009422262"
"Sensitivity";"0.403508771929825"
"Specificity";"0.851239669421488"
"Pos Pred Value";"0.46"
"Neg Pred Value";"0.819628647214854"
"Precision";"0.46"
"Recall";"0.403508771929825"
"F1";"0.429906542056075"
"Prevalence";"0.238993710691824"
"Detection Rate";"0.0964360587002096"
"Detection Prevalence";"0.209643605870021"
"Balanced Accuracy";"0.627374220675656"
"TP";"92"
"TN";"618"
"FP";"108"
"FN";"136"
