"Metric";"Testing_Set"
"Accuracy";"0.678197064989518"
"Kappa";"0.237975553023089"
"AccuracyLower";"0.647512164240368"
"AccuracyUpper";"0.707777272444655"
"AccuracyNull";"0.761006289308176"
"AccuracyPValue";"0.999999997349114"
"McnemarPValue";"1.45080195977996e-09"
"Sensitivity";"0.56140350877193"
"Specificity";"0.714876033057851"
"Pos Pred Value";"0.382089552238806"
"Neg Pred Value";"0.838449111470113"
"Precision";"0.382089552238806"
"Recall";"0.56140350877193"
"F1";"0.454706927175844"
"Prevalence";"0.238993710691824"
"Detection Rate";"0.134171907756813"
"Detection Prevalence";"0.351153039832285"
"Balanced Accuracy";"0.63813977091489"
"TP";"128"
"TN";"519"
"FP";"207"
"FN";"100"
