"Metric";"Testing_Set"
"Accuracy";"0.548218029350105"
"Kappa";"0.153848053439356"
"AccuracyLower";"0.516005878033866"
"AccuracyUpper";"0.580131674842099"
"AccuracyNull";"0.761006289308176"
"AccuracyPValue";"1"
"McnemarPValue";"2.03519278152186e-50"
"Sensitivity";"0.736842105263158"
"Specificity";"0.488980716253444"
"Pos Pred Value";"0.311688311688312"
"Neg Pred Value";"0.855421686746988"
"Precision";"0.311688311688312"
"Recall";"0.736842105263158"
"F1";"0.438070404172099"
"Prevalence";"0.238993710691824"
"Detection Rate";"0.176100628930818"
"Detection Prevalence";"0.564989517819707"
"Balanced Accuracy";"0.612911410758301"
"TP";"168"
"TN";"355"
"FP";"371"
"FN";"60"
