"Metric";"Testing_Set"
"Accuracy";"0.762054507337526"
"Kappa";"0.0288443427956408"
"AccuracyLower";"0.73372399225732"
"AccuracyUpper";"0.788756940352339"
"AccuracyNull";"0.761006289308176"
"AccuracyPValue";"0.487493726423534"
"McnemarPValue";"1.29562358444795e-46"
"Sensitivity";"0.0263157894736842"
"Specificity";"0.993112947658402"
"Pos Pred Value";"0.545454545454545"
"Neg Pred Value";"0.76458112407211"
"Precision";"0.545454545454545"
"Recall";"0.0263157894736842"
"F1";"0.0502092050209205"
"Prevalence";"0.238993710691824"
"Detection Rate";"0.00628930817610063"
"Detection Prevalence";"0.0115303983228512"
"Balanced Accuracy";"0.509714368566043"
"TP";"6"
"TN";"721"
"FP";"5"
"FN";"222"
