"Metric";"Testing_Set"
"Accuracy";"0.708595387840671"
"Kappa";"0.308313425206297"
"AccuracyLower";"0.678623232376645"
"AccuracyUpper";"0.737273588330957"
"AccuracyNull";"0.758909853249476"
"AccuracyPValue";"0.999839483050312"
"McnemarPValue";"1.38186810381366e-09"
"Sensitivity";"0.617391304347826"
"Specificity";"0.737569060773481"
"Pos Pred Value";"0.427710843373494"
"Neg Pred Value";"0.858520900321543"
"Precision";"0.427710843373494"
"Recall";"0.617391304347826"
"F1";"0.505338078291815"
"Prevalence";"0.241090146750524"
"Detection Rate";"0.148846960167715"
"Detection Prevalence";"0.348008385744235"
"Balanced Accuracy";"0.677480182560653"
"TP";"142"
"TN";"534"
"FP";"190"
"FN";"88"
