"Metric";"Testing_Set"
"Accuracy";"0.765199161425577"
"Kappa";"0.197584824043617"
"AccuracyLower";"0.736982250550191"
"AccuracyUpper";"0.791768267489117"
"AccuracyNull";"0.761006289308176"
"AccuracyPValue";"0.397611314750185"
"McnemarPValue";"6.74381917933979e-18"
"Sensitivity";"0.223684210526316"
"Specificity";"0.935261707988981"
"Pos Pred Value";"0.520408163265306"
"Neg Pred Value";"0.793224299065421"
"Precision";"0.520408163265306"
"Recall";"0.223684210526316"
"F1";"0.312883435582822"
"Prevalence";"0.238993710691824"
"Detection Rate";"0.0534591194968553"
"Detection Prevalence";"0.10272536687631"
"Balanced Accuracy";"0.579472959257648"
"TP";"51"
"TN";"679"
"FP";"47"
"FN";"177"
