"Metric";"Testing_Set"
"Accuracy";"0.768343815513627"
"Kappa";"0.179167931976921"
"AccuracyLower";"0.740242557149003"
"AccuracyUpper";"0.794777537029704"
"AccuracyNull";"0.761006289308176"
"AccuracyPValue";"0.312627123308266"
"McnemarPValue";"2.38482789502302e-23"
"Sensitivity";"0.18859649122807"
"Specificity";"0.950413223140496"
"Pos Pred Value";"0.544303797468355"
"Neg Pred Value";"0.788571428571429"
"Precision";"0.544303797468354"
"Recall";"0.18859649122807"
"F1";"0.280130293159609"
"Prevalence";"0.238993710691824"
"Detection Rate";"0.0450733752620545"
"Detection Prevalence";"0.0828092243186583"
"Balanced Accuracy";"0.569504857184283"
"TP";"43"
"TN";"690"
"FP";"36"
"FN";"185"
