"Metric";"Testing_Set"
"Accuracy";"0.724318658280922"
"Kappa";"0.303896925407421"
"AccuracyLower";"0.694775385457749"
"AccuracyUpper";"0.752469900405148"
"AccuracyNull";"0.761006289308176"
"AccuracyPValue";"0.996056948918157"
"McnemarPValue";"0.000348314252920901"
"Sensitivity";"0.552631578947368"
"Specificity";"0.778236914600551"
"Pos Pred Value";"0.439024390243903"
"Neg Pred Value";"0.847076461769115"
"Precision";"0.439024390243902"
"Recall";"0.552631578947368"
"F1";"0.489320388349515"
"Prevalence";"0.238993710691824"
"Detection Rate";"0.132075471698113"
"Detection Prevalence";"0.30083857442348"
"Balanced Accuracy";"0.66543424677396"
"TP";"126"
"TN";"565"
"FP";"161"
"FN";"102"
