"Metric";"Testing_Set"
"Accuracy";"0.417190775681342"
"Kappa";"0.114454572773715"
"AccuracyLower";"0.385673776524525"
"AccuracyUpper";"0.449220526550475"
"AccuracyNull";"0.761006289308176"
"AccuracyPValue";"1"
"McnemarPValue";"8.32548446276609e-115"
"Sensitivity";"0.960526315789474"
"Specificity";"0.246556473829201"
"Pos Pred Value";"0.285900783289817"
"Neg Pred Value";"0.952127659574468"
"Precision";"0.285900783289817"
"Recall";"0.960526315789474"
"F1";"0.440643863179074"
"Prevalence";"0.238993710691824"
"Detection Rate";"0.229559748427673"
"Detection Prevalence";"0.80293501048218"
"Balanced Accuracy";"0.603541394809337"
"TP";"219"
"TN";"179"
"FP";"547"
"FN";"9"
