"Metric";"Testing_Set"
"Accuracy";"0.766247379454927"
"Kappa";"0.178113627407802"
"AccuracyLower";"0.738068790421714"
"AccuracyUpper";"0.792771587379031"
"AccuracyNull";"0.761006289308176"
"AccuracyPValue";"0.36852957056909"
"McnemarPValue";"5.26510118080163e-22"
"Sensitivity";"0.192982456140351"
"Specificity";"0.946280991735537"
"Pos Pred Value";"0.530120481927711"
"Neg Pred Value";"0.788748564867968"
"Precision";"0.530120481927711"
"Recall";"0.192982456140351"
"F1";"0.282958199356913"
"Prevalence";"0.238993710691824"
"Detection Rate";"0.0461215932914046"
"Detection Prevalence";"0.0870020964360587"
"Balanced Accuracy";"0.569631723937944"
"TP";"44"
"TN";"687"
"FP";"39"
"FN";"184"
