"Metric";"Testing_Set"
"Accuracy";"0.748427672955975"
"Kappa";"0.221764489945752"
"AccuracyLower";"0.719627880959164"
"AccuracyUpper";"0.775684748225855"
"AccuracyNull";"0.761006289308176"
"AccuracyPValue";"0.828858334537838"
"McnemarPValue";"2.45141221308046e-06"
"Sensitivity";"0.31140350877193"
"Specificity";"0.885674931129477"
"Pos Pred Value";"0.461038961038961"
"Neg Pred Value";"0.80375"
"Precision";"0.461038961038961"
"Recall";"0.31140350877193"
"F1";"0.371727748691099"
"Prevalence";"0.238993710691824"
"Detection Rate";"0.0744234800838574"
"Detection Prevalence";"0.161425576519916"
"Balanced Accuracy";"0.598539219950703"
"TP";"71"
"TN";"643"
"FP";"83"
"FN";"157"
