"Metric";"Testing_Set"
"Accuracy";"0.737945492662474"
"Kappa";"0.318251980928206"
"AccuracyLower";"0.708809237675372"
"AccuracyUpper";"0.765604596288777"
"AccuracyNull";"0.758909853249476"
"AccuracyPValue";"0.938579680840507"
"McnemarPValue";"0.0368788018411012"
"Sensitivity";"0.530434782608696"
"Specificity";"0.803867403314917"
"Pos Pred Value";"0.462121212121212"
"Neg Pred Value";"0.843478260869565"
"Precision";"0.462121212121212"
"Recall";"0.530434782608696"
"F1";"0.493927125506073"
"Prevalence";"0.241090146750524"
"Detection Rate";"0.127882599580713"
"Detection Prevalence";"0.276729559748428"
"Balanced Accuracy";"0.667151092961806"
"TP";"122"
"TN";"582"
"FP";"142"
"FN";"108"
