"Metric";"Testing_Set"
"Accuracy";"0.768343815513627"
"Kappa";"0.121239402805912"
"AccuracyLower";"0.740242557149003"
"AccuracyUpper";"0.794777537029704"
"AccuracyNull";"0.761006289308176"
"AccuracyPValue";"0.312627123308266"
"McnemarPValue";"1.83939348620188e-34"
"Sensitivity";"0.114035087719298"
"Specificity";"0.973829201101928"
"Pos Pred Value";"0.577777777777778"
"Neg Pred Value";"0.777777777777778"
"Precision";"0.577777777777778"
"Recall";"0.114035087719298"
"F1";"0.19047619047619"
"Prevalence";"0.238993710691824"
"Detection Rate";"0.0272536687631027"
"Detection Prevalence";"0.0471698113207547"
"Balanced Accuracy";"0.543932144410613"
"TP";"26"
"TN";"707"
"FP";"19"
"FN";"202"
