"Metric";"Testing_Set"
"Accuracy";"0.743186582809224"
"Kappa";"0.198770028178284"
"AccuracyLower";"0.714215959588912"
"AccuracyUpper";"0.770647282173992"
"AccuracyNull";"0.761006289308176"
"AccuracyPValue";"0.907210247623357"
"McnemarPValue";"6.25292176262741e-07"
"Sensitivity";"0.289473684210526"
"Specificity";"0.885674931129477"
"Pos Pred Value";"0.442953020134228"
"Neg Pred Value";"0.798757763975155"
"Precision";"0.442953020134228"
"Recall";"0.289473684210526"
"F1";"0.350132625994695"
"Prevalence";"0.238993710691824"
"Detection Rate";"0.0691823899371069"
"Detection Prevalence";"0.156184486373166"
"Balanced Accuracy";"0.587574307670002"
"TP";"66"
"TN";"643"
"FP";"83"
"FN";"162"
