"Metric";"Testing_Set"
"Accuracy";"0.753668763102725"
"Kappa";"0.20710875331565"
"AccuracyLower";"0.725045108343067"
"AccuracyUpper";"0.780716886734807"
"AccuracyNull";"0.761006289308176"
"AccuracyPValue";"0.716950599530846"
"McnemarPValue";"3.7921980896892e-10"
"Sensitivity";"0.271929824561404"
"Specificity";"0.90495867768595"
"Pos Pred Value";"0.473282442748092"
"Neg Pred Value";"0.798298906439854"
"Precision";"0.473282442748092"
"Recall";"0.271929824561404"
"F1";"0.345403899721448"
"Prevalence";"0.238993710691824"
"Detection Rate";"0.0649895178197065"
"Detection Prevalence";"0.137316561844864"
"Balanced Accuracy";"0.588444251123677"
"TP";"62"
"TN";"657"
"FP";"69"
"FN";"166"
