"Metric";"Testing_Set"
"Accuracy";"0.761006289308176"
"Kappa";"0.0267396907216493"
"AccuracyLower";"0.732638356491415"
"AccuracyUpper";"0.787752712299018"
"AccuracyNull";"0.761006289308176"
"AccuracyPValue";"0.517768288669332"
"McnemarPValue";"5.26810477047679e-46"
"Sensitivity";"0.0263157894736842"
"Specificity";"0.991735537190083"
"Pos Pred Value";"0.500000000000001"
"Neg Pred Value";"0.764331210191083"
"Precision";"0.5"
"Recall";"0.0263157894736842"
"F1";"0.05"
"Prevalence";"0.238993710691824"
"Detection Rate";"0.00628930817610063"
"Detection Prevalence";"0.0125786163522013"
"Balanced Accuracy";"0.509025663331883"
"TP";"6"
"TN";"720"
"FP";"6"
"FN";"222"
