"Metric";"Testing_Set"
"Accuracy";"0.728506787330317"
"Kappa";"0.339312406576981"
"AccuracyLower";"0.664793403152236"
"AccuracyUpper";"0.785977010817824"
"AccuracyNull";"0.755656108597285"
"AccuracyPValue";"0.845513020882486"
"McnemarPValue";"0.0281858021479074"
"Sensitivity";"0.611111111111111"
"Specificity";"0.766467065868264"
"Pos Pred Value";"0.458333333333333"
"Neg Pred Value";"0.859060402684564"
"Precision";"0.458333333333333"
"Recall";"0.611111111111111"
"F1";"0.523809523809524"
"Prevalence";"0.244343891402715"
"Detection Rate";"0.149321266968326"
"Detection Prevalence";"0.32579185520362"
"Balanced Accuracy";"0.688789088489687"
"TP";"33"
"TN";"128"
"FP";"39"
"FN";"21"
