"Metric";"Testing_Set"
"Accuracy";"0.714884696016772"
"Kappa";"0.223192154326975"
"AccuracyLower";"0.685078985509686"
"AccuracyUpper";"0.743357237959059"
"AccuracyNull";"0.761006289308176"
"AccuracyPValue";"0.999543413341599"
"McnemarPValue";"0.761760667487734"
"Sensitivity";"0.416666666666667"
"Specificity";"0.808539944903581"
"Pos Pred Value";"0.405982905982906"
"Neg Pred Value";"0.815277777777778"
"Precision";"0.405982905982906"
"Recall";"0.416666666666667"
"F1";"0.411255411255411"
"Prevalence";"0.238993710691824"
"Detection Rate";"0.09958071278826"
"Detection Prevalence";"0.245283018867925"
"Balanced Accuracy";"0.612603305785124"
"TP";"95"
"TN";"587"
"FP";"139"
"FN";"133"
