"Metric";"Testing_Set"
"Accuracy";"0.771488469601677"
"Kappa";"0.09366175086288"
"AccuracyLower";"0.743504940931238"
"AccuracyUpper";"0.797784719765314"
"AccuracyNull";"0.761006289308176"
"AccuracyPValue";"0.236373722291859"
"McnemarPValue";"5.17134210264591e-43"
"Sensitivity";"0.0745614035087719"
"Specificity";"0.990358126721763"
"Pos Pred Value";"0.708333333333332"
"Neg Pred Value";"0.773118279569892"
"Precision";"0.708333333333333"
"Recall";"0.0745614035087719"
"F1";"0.134920634920635"
"Prevalence";"0.238993710691824"
"Detection Rate";"0.0178197064989518"
"Detection Prevalence";"0.0251572327044025"
"Balanced Accuracy";"0.532459765115267"
"TP";"17"
"TN";"719"
"FP";"7"
"FN";"211"
