"Metric";"Testing_Set"
"Accuracy";"0.662473794549266"
"Kappa";"0.27707542995924"
"AccuracyLower";"0.631477164514291"
"AccuracyUpper";"0.692463476475448"
"AccuracyNull";"0.758909853249476"
"AccuracyPValue";"0.999999999992205"
"McnemarPValue";"6.37350346038578e-25"
"Sensitivity";"0.704347826086957"
"Specificity";"0.649171270718232"
"Pos Pred Value";"0.389423076923077"
"Neg Pred Value";"0.87360594795539"
"Precision";"0.389423076923077"
"Recall";"0.704347826086957"
"F1";"0.501547987616099"
"Prevalence";"0.241090146750524"
"Detection Rate";"0.169811320754717"
"Detection Prevalence";"0.436058700209644"
"Balanced Accuracy";"0.676759548402594"
"TP";"162"
"TN";"470"
"FP";"254"
"FN";"68"
