"Metric";"Testing_Set"
"Accuracy";"0.759958071278826"
"Kappa";"0.223010989792652"
"AccuracyLower";"0.731552944199914"
"AccuracyUpper";"0.786748259785745"
"AccuracyNull";"0.758909853249476"
"AccuracyPValue";"0.48750994411696"
"McnemarPValue";"6.30804329429463e-12"
"Sensitivity";"0.273913043478261"
"Specificity";"0.914364640883978"
"Pos Pred Value";"0.504"
"Neg Pred Value";"0.798552472858866"
"Precision";"0.504"
"Recall";"0.273913043478261"
"F1";"0.354929577464789"
"Prevalence";"0.241090146750524"
"Detection Rate";"0.0660377358490566"
"Detection Prevalence";"0.131027253668763"
"Balanced Accuracy";"0.594138842181119"
"TP";"63"
"TN";"662"
"FP";"62"
"FN";"167"
