"Metric";"Testing_Set"
"Accuracy";"0.762054507337526"
"Kappa";"0.00666024494289228"
"AccuracyLower";"0.73372399225732"
"AccuracyUpper";"0.788756940352339"
"AccuracyNull";"0.761006289308176"
"AccuracyPValue";"0.487493726423534"
"McnemarPValue";"7.32570744738252e-51"
"Sensitivity";"0.0043859649122807"
"Specificity";"1"
"Pos Pred Value";"1"
"Neg Pred Value";"0.761804826862539"
"Precision";"1"
"Recall";"0.0043859649122807"
"F1";"0.00873362445414847"
"Prevalence";"0.238993710691824"
"Detection Rate";"0.0010482180293501"
"Detection Prevalence";"0.0010482180293501"
"Balanced Accuracy";"0.50219298245614"
"TP";"1"
"TN";"726"
"FP";"0"
"FN";"227"
