"Metric";"Testing_Set"
"Accuracy";"0.761006289308176"
"Kappa";"0.223892100192678"
"AccuracyLower";"0.732638356491415"
"AccuracyUpper";"0.787752712299018"
"AccuracyNull";"0.761006289308176"
"AccuracyPValue";"0.517768288669332"
"McnemarPValue";"2.2487212647121e-11"
"Sensitivity";"0.276315789473684"
"Specificity";"0.913223140495868"
"Pos Pred Value";"0.5"
"Neg Pred Value";"0.800724637681159"
"Precision";"0.5"
"Recall";"0.276315789473684"
"F1";"0.355932203389831"
"Prevalence";"0.238993710691824"
"Detection Rate";"0.0660377358490566"
"Detection Prevalence";"0.132075471698113"
"Balanced Accuracy";"0.594769464984776"
"TP";"63"
"TN";"663"
"FP";"63"
"FN";"165"
