"Metric";"Testing_Set"
"Accuracy";"0.767295597484277"
"Kappa";"0.157485201451212"
"AccuracyLower";"0.739155558931535"
"AccuracyUpper";"0.793774677586431"
"AccuracyNull";"0.761006289308176"
"AccuracyPValue";"0.340153460183735"
"McnemarPValue";"1.38551232235637e-26"
"Sensitivity";"0.162280701754386"
"Specificity";"0.957300275482094"
"Pos Pred Value";"0.544117647058823"
"Neg Pred Value";"0.784424379232506"
"Precision";"0.544117647058823"
"Recall";"0.162280701754386"
"F1";"0.25"
"Prevalence";"0.238993710691824"
"Detection Rate";"0.0387840670859539"
"Detection Prevalence";"0.0712788259958071"
"Balanced Accuracy";"0.55979048861824"
"TP";"37"
"TN";"695"
"FP";"31"
"FN";"191"
