"Metric";"Testing_Set"
"Accuracy";"0.759958071278826"
"Kappa";"0.139443643496963"
"AccuracyLower";"0.731552944199914"
"AccuracyUpper";"0.786748259785745"
"AccuracyNull";"0.761006289308176"
"AccuracyPValue";"0.547910647586546"
"McnemarPValue";"2.52203636245338e-24"
"Sensitivity";"0.157894736842105"
"Specificity";"0.949035812672176"
"Pos Pred Value";"0.493150684931507"
"Neg Pred Value";"0.782065834279228"
"Precision";"0.493150684931507"
"Recall";"0.157894736842105"
"F1";"0.239202657807309"
"Prevalence";"0.238993710691824"
"Detection Rate";"0.0377358490566038"
"Detection Prevalence";"0.0765199161425577"
"Balanced Accuracy";"0.553465274757141"
"TP";"36"
"TN";"689"
"FP";"37"
"FN";"192"
