"Metric";"Testing_Set"
"Accuracy";"0.721174004192872"
"Kappa";"0.197244049652659"
"AccuracyLower";"0.691541526515803"
"AccuracyUpper";"0.749434077683161"
"AccuracyNull";"0.761006289308176"
"AccuracyPValue";"0.997993470744746"
"McnemarPValue";"0.0753867617473938"
"Sensitivity";"0.350877192982456"
"Specificity";"0.837465564738292"
"Pos Pred Value";"0.404040404040404"
"Neg Pred Value";"0.804232804232804"
"Precision";"0.404040404040404"
"Recall";"0.350877192982456"
"F1";"0.375586854460094"
"Prevalence";"0.238993710691824"
"Detection Rate";"0.0838574423480084"
"Detection Prevalence";"0.207547169811321"
"Balanced Accuracy";"0.594171378860374"
"TP";"80"
"TN";"608"
"FP";"118"
"FN";"148"
