"Metric";"Testing_Set"
"Accuracy";"0.771488469601677"
"Kappa";"0.14906466342613"
"AccuracyLower";"0.743504940931238"
"AccuracyUpper";"0.797784719765314"
"AccuracyNull";"0.761006289308176"
"AccuracyPValue";"0.236373722291859"
"McnemarPValue";"1.04253083677076e-31"
"Sensitivity";"0.140350877192982"
"Specificity";"0.96969696969697"
"Pos Pred Value";"0.592592592592593"
"Neg Pred Value";"0.782222222222222"
"Precision";"0.592592592592593"
"Recall";"0.140350877192982"
"F1";"0.226950354609929"
"Prevalence";"0.238993710691824"
"Detection Rate";"0.0335429769392034"
"Detection Prevalence";"0.0566037735849057"
"Balanced Accuracy";"0.555023923444976"
"TP";"32"
"TN";"704"
"FP";"22"
"FN";"196"
