"Metric";"Testing_Set"
"Accuracy";"0.752620545073375"
"Kappa";"0.00149015433741329"
"AccuracyLower";"0.723961233069347"
"AccuracyUpper";"0.779710890610325"
"AccuracyNull";"0.761006289308176"
"AccuracyPValue";"0.741869799526042"
"McnemarPValue";"6.27165629064702e-43"
"Sensitivity";"0.0175438596491228"
"Specificity";"0.983471074380165"
"Pos Pred Value";"0.250000000000001"
"Neg Pred Value";"0.761194029850746"
"Precision";"0.25"
"Recall";"0.0175438596491228"
"F1";"0.0327868852459016"
"Prevalence";"0.238993710691824"
"Detection Rate";"0.00419287211740042"
"Detection Prevalence";"0.0167714884696017"
"Balanced Accuracy";"0.500507467014644"
"TP";"4"
"TN";"714"
"FP";"12"
"FN";"224"
