"Metric";"Testing_Set"
"Accuracy";"0.510482180293501"
"Kappa";"0.151035294924711"
"AccuracyLower";"0.478246303202093"
"AccuracyUpper";"0.5426531709007"
"AccuracyNull";"0.761006289308176"
"AccuracyPValue";"1"
"McnemarPValue";"4.42558909379824e-72"
"Sensitivity";"0.828947368421053"
"Specificity";"0.410468319559229"
"Pos Pred Value";"0.306320907617504"
"Neg Pred Value";"0.884272997032641"
"Precision";"0.306320907617504"
"Recall";"0.828947368421053"
"F1";"0.447337278106509"
"Prevalence";"0.238993710691824"
"Detection Rate";"0.19811320754717"
"Detection Prevalence";"0.646750524109015"
"Balanced Accuracy";"0.619707843990141"
"TP";"189"
"TN";"298"
"FP";"428"
"FN";"39"
