"Metric";"Testing_Set"
"Accuracy";"0.773584905660377"
"Kappa";"0.113520210624129"
"AccuracyLower";"0.745681032172592"
"AccuracyUpper";"0.799788334019999"
"AccuracyNull";"0.761006289308176"
"AccuracyPValue";"0.191744179885142"
"McnemarPValue";"5.71728741655792e-41"
"Sensitivity";"0.0921052631578947"
"Specificity";"0.987603305785124"
"Pos Pred Value";"0.700000000000001"
"Neg Pred Value";"0.775974025974026"
"Precision";"0.7"
"Recall";"0.0921052631578947"
"F1";"0.162790697674419"
"Prevalence";"0.238993710691824"
"Detection Rate";"0.0220125786163522"
"Detection Prevalence";"0.0314465408805031"
"Balanced Accuracy";"0.539854284471509"
"TP";"21"
"TN";"717"
"FP";"9"
"FN";"207"
