"Metric";"Testing_Set"
"Accuracy";"0.759958071278826"
"Kappa";"0.175045879874029"
"AccuracyLower";"0.731552944199914"
"AccuracyUpper";"0.786748259785745"
"AccuracyNull";"0.761006289308176"
"AccuracyPValue";"0.547910647586546"
"McnemarPValue";"2.71392159939608e-18"
"Sensitivity";"0.206140350877193"
"Specificity";"0.933884297520661"
"Pos Pred Value";"0.494736842105263"
"Neg Pred Value";"0.789289871944121"
"Precision";"0.494736842105263"
"Recall";"0.206140350877193"
"F1";"0.291021671826625"
"Prevalence";"0.238993710691824"
"Detection Rate";"0.0492662473794549"
"Detection Prevalence";"0.09958071278826"
"Balanced Accuracy";"0.570012324198927"
"TP";"47"
"TN";"678"
"FP";"48"
"FN";"181"
