"Metric";"Testing_Set"
"Accuracy";"0.768343815513627"
"Kappa";"0.0711094662824816"
"AccuracyLower";"0.740242557149003"
"AccuracyUpper";"0.794777537029704"
"AccuracyNull";"0.761006289308176"
"AccuracyPValue";"0.312627123308266"
"McnemarPValue";"1.75435021934349e-44"
"Sensitivity";"0.0570175438596491"
"Specificity";"0.991735537190083"
"Pos Pred Value";"0.68421052631579"
"Neg Pred Value";"0.770053475935829"
"Precision";"0.684210526315789"
"Recall";"0.0570175438596491"
"F1";"0.105263157894737"
"Prevalence";"0.238993710691824"
"Detection Rate";"0.0136268343815514"
"Detection Prevalence";"0.019916142557652"
"Balanced Accuracy";"0.524376540524866"
"TP";"13"
"TN";"720"
"FP";"6"
"FN";"215"
