"Metric";"Testing_Set"
"Accuracy";"0.764150943396226"
"Kappa";"0.0459236738939115"
"AccuracyLower";"0.735895938260051"
"AccuracyUpper";"0.790764718985689"
"AccuracyNull";"0.761006289308176"
"AccuracyPValue";"0.427243181915788"
"McnemarPValue";"2.36671077942173e-45"
"Sensitivity";"0.0394736842105263"
"Specificity";"0.991735537190083"
"Pos Pred Value";"0.600000000000001"
"Neg Pred Value";"0.766773162939297"
"Precision";"0.6"
"Recall";"0.0394736842105263"
"F1";"0.0740740740740741"
"Prevalence";"0.238993710691824"
"Detection Rate";"0.00943396226415094"
"Detection Prevalence";"0.0157232704402516"
"Balanced Accuracy";"0.515604610700304"
"TP";"9"
"TN";"720"
"FP";"6"
"FN";"219"
