"Metric";"Testing_Set"
"Accuracy";"0.763102725366876"
"Kappa";"0.213938837117732"
"AccuracyLower";"0.734809852506628"
"AccuracyUpper";"0.789760942925319"
"AccuracyNull";"0.761006289308176"
"AccuracyPValue";"0.457260807317001"
"McnemarPValue";"5.61983752641257e-14"
"Sensitivity";"0.254385964912281"
"Specificity";"0.922865013774105"
"Pos Pred Value";"0.508771929824561"
"Neg Pred Value";"0.797619047619048"
"Precision";"0.508771929824561"
"Recall";"0.254385964912281"
"F1";"0.339181286549708"
"Prevalence";"0.238993710691824"
"Detection Rate";"0.0607966457023061"
"Detection Prevalence";"0.119496855345912"
"Balanced Accuracy";"0.588625489343193"
"TP";"58"
"TN";"670"
"FP";"56"
"FN";"170"
