"Metric";"Testing_Set"
"Accuracy";"0.761006289308176"
"Kappa";"0.0915196471531677"
"AccuracyLower";"0.732638356491415"
"AccuracyUpper";"0.787752712299018"
"AccuracyNull";"0.761006289308176"
"AccuracyPValue";"0.517768288669332"
"McnemarPValue";"8.32949605742967e-34"
"Sensitivity";"0.0964912280701754"
"Specificity";"0.96969696969697"
"Pos Pred Value";"0.5"
"Neg Pred Value";"0.773626373626374"
"Precision";"0.5"
"Recall";"0.0964912280701754"
"F1";"0.161764705882353"
"Prevalence";"0.238993710691824"
"Detection Rate";"0.0230607966457023"
"Detection Prevalence";"0.0461215932914046"
"Balanced Accuracy";"0.533094098883573"
"TP";"22"
"TN";"704"
"FP";"22"
"FN";"206"
