"Metric";"Testing_Set"
"Accuracy";"0.762054507337526"
"Kappa";"0.0111777759513438"
"AccuracyLower";"0.73372399225732"
"AccuracyUpper";"0.788756940352339"
"AccuracyNull";"0.761006289308176"
"AccuracyPValue";"0.487493726423534"
"McnemarPValue";"5.36552620186794e-50"
"Sensitivity";"0.0087719298245614"
"Specificity";"0.99862258953168"
"Pos Pred Value";"0.666666666666673"
"Neg Pred Value";"0.762355415352261"
"Precision";"0.666666666666667"
"Recall";"0.0087719298245614"
"F1";"0.0173160173160173"
"Prevalence";"0.238993710691824"
"Detection Rate";"0.00209643605870021"
"Detection Prevalence";"0.00314465408805031"
"Balanced Accuracy";"0.503697259678121"
"TP";"2"
"TN";"725"
"FP";"1"
"FN";"226"
