"Metric";"Testing_Set"
"Accuracy";"0.758909853249476"
"Kappa";"0.163578976259091"
"AccuracyLower";"0.730467754385361"
"AccuracyUpper";"0.7857435838212"
"AccuracyNull";"0.761006289308176"
"AccuracyPValue";"0.577749741663774"
"McnemarPValue";"1.66248004951026e-19"
"Sensitivity";"0.192982456140351"
"Specificity";"0.9366391184573"
"Pos Pred Value";"0.488888888888889"
"Neg Pred Value";"0.787037037037037"
"Precision";"0.488888888888889"
"Recall";"0.192982456140351"
"F1";"0.276729559748428"
"Prevalence";"0.238993710691824"
"Detection Rate";"0.0461215932914046"
"Detection Prevalence";"0.0943396226415094"
"Balanced Accuracy";"0.564810787298826"
"TP";"44"
"TN";"680"
"FP";"46"
"FN";"184"
