"Metric";"Testing_Set"
"Accuracy";"0.656184486373166"
"Kappa";"0.263181689742865"
"AccuracyLower";"0.62507358322853"
"AccuracyUpper";"0.686327515579594"
"AccuracyNull";"0.761006289308176"
"AccuracyPValue";"0.999999999999878"
"McnemarPValue";"5.41223636969803e-25"
"Sensitivity";"0.692982456140351"
"Specificity";"0.644628099173554"
"Pos Pred Value";"0.379807692307692"
"Neg Pred Value";"0.869888475836431"
"Precision";"0.379807692307692"
"Recall";"0.692982456140351"
"F1";"0.490683229813665"
"Prevalence";"0.238993710691824"
"Detection Rate";"0.165618448637317"
"Detection Prevalence";"0.436058700209644"
"Balanced Accuracy";"0.668805277656952"
"TP";"158"
"TN";"468"
"FP";"258"
"FN";"70"
