"Metric";"Testing_Set"
"Accuracy";"0.735849056603774"
"Kappa";"0.32424865922353"
"AccuracyLower";"0.706647981980234"
"AccuracyUpper";"0.763586083402702"
"AccuracyNull";"0.758909853249476"
"AccuracyPValue";"0.954612386402177"
"McnemarPValue";"0.00458639208025349"
"Sensitivity";"0.552173913043478"
"Specificity";"0.794198895027624"
"Pos Pred Value";"0.460144927536232"
"Neg Pred Value";"0.848082595870206"
"Precision";"0.460144927536232"
"Recall";"0.552173913043478"
"F1";"0.50197628458498"
"Prevalence";"0.241090146750524"
"Detection Rate";"0.133123689727463"
"Detection Prevalence";"0.289308176100629"
"Balanced Accuracy";"0.673186404035551"
"TP";"127"
"TN";"575"
"FP";"149"
"FN";"103"
