"Metric";"Testing_Set"
"Accuracy";"0.516771488469602"
"Kappa";"0.165111908423031"
"AccuracyLower";"0.484526997563777"
"AccuracyUpper";"0.548912160251746"
"AccuracyNull";"0.761006289308176"
"AccuracyPValue";"1"
"McnemarPValue";"1.81156376312813e-74"
"Sensitivity";"0.850877192982456"
"Specificity";"0.411845730027548"
"Pos Pred Value";"0.312399355877617"
"Neg Pred Value";"0.897897897897898"
"Precision";"0.312399355877617"
"Recall";"0.850877192982456"
"F1";"0.457008244994111"
"Prevalence";"0.238993710691824"
"Detection Rate";"0.20335429769392"
"Detection Prevalence";"0.650943396226415"
"Balanced Accuracy";"0.631361461505002"
"TP";"194"
"TN";"299"
"FP";"427"
"FN";"34"
