"Metric";"Testing_Set"
"Accuracy";"0.761006289308176"
"Kappa";"0.195294117647059"
"AccuracyLower";"0.732638356491415"
"AccuracyUpper";"0.787752712299018"
"AccuracyNull";"0.761006289308176"
"AccuracyPValue";"0.517768288669332"
"McnemarPValue";"1.11561152961807e-15"
"Sensitivity";"0.232456140350877"
"Specificity";"0.926997245179063"
"Pos Pred Value";"0.5"
"Neg Pred Value";"0.793632075471698"
"Precision";"0.5"
"Recall";"0.232456140350877"
"F1";"0.317365269461078"
"Prevalence";"0.238993710691824"
"Detection Rate";"0.0555555555555556"
"Detection Prevalence";"0.111111111111111"
"Balanced Accuracy";"0.57972669276497"
"TP";"53"
"TN";"673"
"FP";"53"
"FN";"175"
