"Metric";"Testing_Set"
"Accuracy";"0.727463312368973"
"Kappa";"0.210375520495091"
"AccuracyLower";"0.698010994052816"
"AccuracyUpper";"0.75550396742577"
"AccuracyNull";"0.761006289308176"
"AccuracyPValue";"0.992577504703519"
"McnemarPValue";"0.0407000162514547"
"Sensitivity";"0.355263157894737"
"Specificity";"0.84435261707989"
"Pos Pred Value";"0.417525773195876"
"Neg Pred Value";"0.806578947368421"
"Precision";"0.417525773195876"
"Recall";"0.355263157894737"
"F1";"0.383886255924171"
"Prevalence";"0.238993710691824"
"Detection Rate";"0.0849056603773585"
"Detection Prevalence";"0.20335429769392"
"Balanced Accuracy";"0.599807887487313"
"TP";"81"
"TN";"613"
"FP";"113"
"FN";"147"
