"Metric";"Testing_Set"
"Accuracy";"0.727463312368973"
"Kappa";"0.301217038539554"
"AccuracyLower";"0.698010994052816"
"AccuracyUpper";"0.75550396742577"
"AccuracyNull";"0.761006289308176"
"AccuracyPValue";"0.992577504703519"
"McnemarPValue";"0.00355898004186948"
"Sensitivity";"0.535087719298246"
"Specificity";"0.787878787878788"
"Pos Pred Value";"0.442028985507246"
"Neg Pred Value";"0.843657817109144"
"Precision";"0.442028985507246"
"Recall";"0.535087719298246"
"F1";"0.484126984126984"
"Prevalence";"0.238993710691824"
"Detection Rate";"0.127882599580713"
"Detection Prevalence";"0.289308176100629"
"Balanced Accuracy";"0.661483253588517"
"TP";"122"
"TN";"572"
"FP";"154"
"FN";"106"
