"Metric";"Testing_Set"
"Accuracy";"0.488469601677149"
"Kappa";"0.146083243457399"
"AccuracyLower";"0.45630331612643"
"AccuracyUpper";"0.520707262429781"
"AccuracyNull";"0.761006289308176"
"AccuracyPValue";"1"
"McnemarPValue";"5.23739716499511e-84"
"Sensitivity";"0.87280701754386"
"Specificity";"0.367768595041322"
"Pos Pred Value";"0.302431610942249"
"Neg Pred Value";"0.902027027027027"
"Precision";"0.302431610942249"
"Recall";"0.87280701754386"
"F1";"0.44920993227991"
"Prevalence";"0.238993710691824"
"Detection Rate";"0.208595387840671"
"Detection Prevalence";"0.689727463312369"
"Balanced Accuracy";"0.620287806292591"
"TP";"199"
"TN";"267"
"FP";"459"
"FN";"29"
