c<L>r<1>R<GLU> 1
c<L>r<3>R<VAL> 1
c<L>r<27>R<SER> 1
c<L>r<30>R<TYR> 1.33333
c<L>r<31>R<GLY> 1
c<L>r<32>R<HIS> 1.44444
c<L>r<33>R<MET> 3
c<L>r<34>R<THR> 2.66667
c<L>r<36>R<TYR> 1.75
c<L>r<38>R<LYS> 1.4
c<L>r<41>R<GLY> 1
c<L>r<42>R<GLN> 1.16667
c<L>r<43>R<PRO> 1.6
c<L>r<44>R<PRO> 1.5
c<L>r<45>R<LYS> 1
c<L>r<46>R<LEU> 1.4
c<L>r<49>R<PHE> 1.42857
c<L>r<50>R<ALA> 1.66667
c<L>r<53>R<LYS> 1.33333
c<L>r<55>R<ALA> 1
c<L>r<56>R<SER> 1
c<L>r<71>R<TYR> 1
c<L>r<85>R<ARG> 1
c<L>r<87>R<TYR> 1.75
c<L>r<89>R<GLN> 2
c<L>r<90>R<GLN> 1
c<L>r<91>R<LEU> 1.5
c<L>r<96>R<GLU> 1.375
c<L>r<97>R<PHE> 1
c<L>r<98>R<PHE> 1.44444
c<L>r<99>R<GLY> 1
c<L>r<100>R<GLN> 1
c<L>r<114>R<SER> 1
c<L>r<115>R<VAL> 1
c<L>r<116>R<PHE> 1.28571
c<L>r<117>R<ILE> 1
c<L>r<118>R<PHE> 1.77778
c<L>r<119>R<PRO> 1
c<L>r<120>R<PRO> 1
c<L>r<121>R<SER> 1.25
c<L>r<122>R<ASP> 1.5
c<L>r<123>R<GLU> 1.5
c<L>r<124>R<GLN> 1.85714
c<L>r<127>R<SER> 1
c<L>r<129>R<THR> 1
c<L>r<131>R<SER> 1.33333
c<L>r<133>R<VAL> 1.33333
c<L>r<135>R<LEU> 1
c<L>r<137>R<ASN> 1.5
c<L>r<138>R<ASN> 1
c<L>r<160>R<GLN> 1.28571
c<L>r<161>R<GLU> 1.5
c<L>r<162>R<SER> 1.6
c<L>r<163>R<VAL> 1.5
c<L>r<164>R<THR> 1.2
c<L>r<165>R<GLU> 1
c<L>r<167>R<ASP> 1
c<L>r<172>R<THR> 1
c<L>r<174>R<SER> 1.6
c<L>r<175>R<LEU> 2.5
c<L>r<176>R<SER> 1.6
c<L>r<177>R<SER> 2.33333
c<L>r<178>R<THR> 1.5
c<L>r<180>R<THR> 1
c<L>r<207>R<LYS> 1
c<L>r<214>R<CYS> 1
c<L>r<1003>R<SO4> 1.25
c<L>r<1004>R<SO4> 1
c<L>r<1018>R<CL> 1
