Stochastic Gradient Boosting 

509 samples
 16 predictor
  2 classes: 'HS', 'NHS' 

No pre-processing
Resampling: Cross-Validated (10 fold, repeated 3 times) 
Summary of sample sizes: 458, 458, 458, 458, 457, 458, ... 
Resampling results across tuning parameters:

  interaction.depth  n.minobsinnode  n.trees  ROC        Sens       Spec     
  1                   5              2000     0.8066055  0.2232906  0.9715025
  1                   5              2100     0.8076573  0.2286325  0.9715025
  1                   5              2200     0.8079743  0.2448718  0.9688709
  1                   5              2300     0.8089057  0.2529915  0.9679937
  1                   5              2400     0.8093824  0.2613248  0.9679937
  1                   5              2500     0.8100109  0.2752137  0.9654071
  1                   5              2600     0.8113193  0.2912393  0.9628205
  1                   5              2700     0.8110118  0.3094017  0.9594017
  1                   5              2800     0.8116805  0.3202991  0.9594017
  1                   5              2900     0.8118081  0.3442308  0.9568151
  1                   5              3000     0.8121551  0.3495726  0.9568151
  1                   5              3100     0.8127269  0.3549145  0.9568151
  1                   5              3200     0.8128714  0.3713675  0.9550832
  1                   5              3300     0.8126923  0.3797009  0.9533513
  1                   5              3400     0.8132455  0.3905983  0.9524741
  1                   5              3500     0.8138572  0.3905983  0.9515969
  1                   5              3600     0.8146556  0.3985043  0.9515969
  1                   5              3700     0.8145567  0.4038462  0.9498875
  1                   5              3800     0.8148382  0.4064103  0.9490103
  1                   5              3900     0.8149714  0.4064103  0.9481332
  1                   5              4000     0.8147688  0.4143162  0.9472560
  1                   5              4100     0.8148308  0.4143162  0.9464013
  1                   5              4200     0.8153823  0.4168803  0.9446694
  1                   5              4300     0.8153053  0.4168803  0.9429375
  1                   5              4400     0.8149493  0.4250000  0.9420603
  1                   5              4500     0.8152231  0.4250000  0.9420603
  1                   5              4600     0.8152233  0.4277778  0.9420603
  1                   5              4700     0.8148801  0.4331197  0.9411831
  1                   5              4800     0.8146663  0.4331197  0.9403059
  1                   5              4900     0.8144636  0.4331197  0.9385965
  1                   5              5000     0.8147375  0.4331197  0.9368646
  1                  10              2000     0.8068599  0.2205128  0.9715025
  1                  10              2100     0.8076321  0.2314103  0.9706253
  1                  10              2200     0.8085253  0.2504274  0.9697481
  1                  10              2300     0.8091538  0.2585470  0.9679937
  1                  10              2400     0.8092120  0.2747863  0.9636752
  1                  10              2500     0.8103438  0.2938034  0.9628205
  1                  10              2600     0.8102710  0.3019231  0.9619658
  1                  10              2700     0.8106141  0.3175214  0.9602564
  1                  10              2800     0.8113156  0.3279915  0.9576698
  1                  10              2900     0.8111584  0.3412393  0.9576698
  1                  10              3000     0.8114734  0.3523504  0.9559604
  1                  10              3100     0.8118052  0.3632479  0.9550832
  1                  10              3200     0.8122966  0.3769231  0.9550832
  1                  10              3300     0.8126419  0.3873932  0.9533288
  1                  10              3400     0.8132081  0.3901709  0.9489879
  1                  10              3500     0.8133413  0.4010684  0.9464013
  1                  10              3600     0.8143031  0.4036325  0.9455466
  1                  10              3700     0.8140179  0.4061966  0.9455466
  1                  10              3800     0.8145828  0.4061966  0.9455466
  1                  10              3900     0.8152749  0.4089744  0.9455466
  1                  10              4000     0.8156235  0.4117521  0.9455466
  1                  10              4100     0.8159234  0.4170940  0.9455466
  1                  10              4200     0.8158763  0.4226496  0.9455466
  1                  10              4300     0.8161594  0.4279915  0.9455466
  1                  10              4400     0.8161612  0.4279915  0.9446694
  1                  10              4500     0.8162324  0.4305556  0.9446694
  1                  10              4600     0.8158799  0.4331197  0.9429375
  1                  10              4700     0.8162547  0.4331197  0.9429375
  1                  10              4800     0.8160408  0.4331197  0.9429375
  1                  10              4900     0.8159113  0.4331197  0.9429375
  1                  10              5000     0.8156451  0.4358974  0.9420828
  2                   5              2000     0.8159071  0.3613248  0.9541835
  2                   5              2100     0.8161921  0.3747863  0.9533063
  2                   5              2200     0.8167096  0.3876068  0.9506973
  2                   5              2300     0.8170004  0.3927350  0.9506973
  2                   5              2400     0.8180561  0.4010684  0.9506973
  2                   5              2500     0.8183863  0.4121795  0.9498201
  2                   5              2600     0.8177075  0.4175214  0.9480882
  2                   5              2700     0.8177128  0.4200855  0.9463788
  2                   5              2800     0.8180016  0.4277778  0.9455016
  2                   5              2900     0.8176004  0.4277778  0.9428925
  2                   5              3000     0.8182191  0.4303419  0.9411831
  2                   5              3100     0.8182156  0.4331197  0.9403284
  2                   5              3200     0.8177208  0.4440171  0.9394737
  2                   5              3300     0.8176494  0.4440171  0.9394737
  2                   5              3400     0.8173100  0.4493590  0.9377643
  2                   5              3500     0.8171922  0.4521368  0.9368871
  2                   5              3600     0.8169803  0.4521368  0.9351552
  2                   5              3700     0.8169145  0.4521368  0.9342780
  2                   5              3800     0.8166312  0.4547009  0.9334008
  2                   5              3900     0.8163333  0.4623932  0.9334008
  2                   5              4000     0.8163786  0.4649573  0.9334008
  2                   5              4100     0.8162119  0.4677350  0.9308142
  2                   5              4200     0.8157939  0.4677350  0.9291048
  2                   5              4300     0.8155638  0.4677350  0.9291048
  2                   5              4400     0.8153574  0.4677350  0.9282276
  2                   5              4500     0.8155546  0.4677350  0.9264957
  2                   5              4600     0.8149919  0.4705128  0.9256410
  2                   5              4700     0.8149059  0.4705128  0.9256410
  2                   5              4800     0.8141992  0.4730769  0.9239091
  2                   5              4900     0.8143980  0.4758547  0.9239316
  2                   5              5000     0.8142593  0.4786325  0.9239316
  2                  10              2000     0.8148242  0.3638889  0.9541610
  2                  10              2100     0.8152461  0.3745726  0.9524291
  2                  10              2200     0.8159106  0.3824786  0.9515744
  2                  10              2300     0.8163624  0.3878205  0.9515744
  2                  10              2400     0.8165251  0.3987179  0.9489654
  2                  10              2500     0.8171890  0.4038462  0.9489654
  2                  10              2600     0.8173786  0.4149573  0.9472335
  2                  10              2700     0.8175178  0.4121795  0.9446469
  2                  10              2800     0.8173263  0.4228632  0.9446469
  2                  10              2900     0.8176805  0.4282051  0.9429375
  2                  10              3000     0.8177203  0.4361111  0.9420603
  2                  10              3100     0.8176253  0.4442308  0.9420603
  2                  10              3200     0.8176289  0.4467949  0.9420603
  2                  10              3300     0.8171448  0.4440171  0.9411831
  2                  10              3400     0.8172030  0.4517094  0.9420603
  2                  10              3500     0.8170571  0.4572650  0.9394737
  2                  10              3600     0.8173456  0.4598291  0.9403509
  2                  10              3700     0.8171283  0.4598291  0.9377643
  2                  10              3800     0.8167669  0.4623932  0.9351552
  2                  10              3900     0.8161916  0.4677350  0.9351552
  2                  10              4000     0.8162483  0.4702991  0.9343005
  2                  10              4100     0.8162592  0.4756410  0.9316914
  2                  10              4200     0.8161623  0.4730769  0.9316914
  2                  10              4300     0.8155155  0.4730769  0.9299370
  2                  10              4400     0.8153637  0.4756410  0.9290823
  2                  10              4500     0.8151665  0.4756410  0.9282276
  2                  10              4600     0.8152376  0.4784188  0.9264957
  2                  10              4700     0.8148212  0.4809829  0.9256410
  2                  10              4800     0.8146913  0.4809829  0.9229870
  2                  10              4900     0.8144065  0.4809829  0.9212551
  2                  10              5000     0.8140649  0.4837607  0.9203779

Tuning parameter 'shrinkage' was held constant at a value of 0.001
ROC was used to select the optimal model using the largest value.
The final values used for the model were n.trees = 2500, interaction.depth = 2, shrinkage = 0.001 and n.minobsinnode = 5.
