Stochastic Gradient Boosting 

509 samples
 15 predictor
  2 classes: 'HS', 'NHS' 

No pre-processing
Resampling: Cross-Validated (10 fold, repeated 3 times) 
Summary of sample sizes: 458, 458, 458, 458, 457, 458, ... 
Resampling results across tuning parameters:

  interaction.depth  n.minobsinnode  n.trees  ROC        Sens       Spec     
  1                   5              2000     0.8068210  0.2100427  0.9775304
  1                   5              2100     0.8078504  0.2262821  0.9757985
  1                   5              2200     0.8080834  0.2314103  0.9732119
  1                   5              2300     0.8088328  0.2420940  0.9732119
  1                   5              2400     0.8089776  0.2553419  0.9706253
  1                   5              2500     0.8096039  0.2634615  0.9680387
  1                   5              2600     0.8098438  0.2820513  0.9654296
  1                   5              2700     0.8099530  0.2901709  0.9637202
  1                   5              2800     0.8111131  0.3010684  0.9611111
  1                   5              2900     0.8112065  0.3094017  0.9567926
  1                   5              3000     0.8116888  0.3198718  0.9559154
  1                   5              3100     0.8120963  0.3226496  0.9559154
  1                   5              3200     0.8126589  0.3335470  0.9550607
  1                   5              3300     0.8133659  0.3361111  0.9542060
  1                   5              3400     0.8137933  0.3416667  0.9542060
  1                   5              3500     0.8144910  0.3497863  0.9542060
  1                   5              3600     0.8140750  0.3551282  0.9542060
  1                   5              3700     0.8143712  0.3606838  0.9533513
  1                   5              3800     0.8152880  0.3713675  0.9533513
  1                   5              3900     0.8152972  0.3713675  0.9524741
  1                   5              4000     0.8155804  0.3846154  0.9515969
  1                   5              4100     0.8153813  0.3873932  0.9507422
  1                   5              4200     0.8152373  0.3901709  0.9507422
  1                   5              4300     0.8146731  0.3957265  0.9490328
  1                   5              4400     0.8150785  0.3982906  0.9490328
  1                   5              4500     0.8151482  0.4008547  0.9481556
  1                   5              4600     0.8155735  0.4034188  0.9473009
  1                   5              4700     0.8155059  0.4034188  0.9464462
  1                   5              4800     0.8155863  0.4089744  0.9464462
  1                   5              4900     0.8156704  0.4117521  0.9464462
  1                   5              5000     0.8159991  0.4117521  0.9455691
  1                  10              2000     0.8067892  0.2151709  0.9766757
  1                  10              2100     0.8074906  0.2258547  0.9757985
  1                  10              2200     0.8082381  0.2286325  0.9740891
  1                  10              2300     0.8088228  0.2446581  0.9723347
  1                  10              2400     0.8093271  0.2608974  0.9672065
  1                  10              2500     0.8100794  0.2713675  0.9645749
  1                  10              2600     0.8111073  0.2818376  0.9637202
  1                  10              2700     0.8108828  0.2899573  0.9611111
  1                  10              2800     0.8107588  0.3091880  0.9585245
  1                  10              2900     0.8112063  0.3173077  0.9576473
  1                  10              3000     0.8114407  0.3307692  0.9567701
  1                  10              3100     0.8124667  0.3335470  0.9567701
  1                  10              3200     0.8129919  0.3388889  0.9550607
  1                  10              3300     0.8130909  0.3444444  0.9550607
  1                  10              3400     0.8140116  0.3551282  0.9550607
  1                  10              3500     0.8146379  0.3579060  0.9550607
  1                  10              3600     0.8149006  0.3604701  0.9542060
  1                  10              3700     0.8151309  0.3658120  0.9533288
  1                  10              3800     0.8153633  0.3683761  0.9533288
  1                  10              3900     0.8153522  0.3790598  0.9524741
  1                  10              4000     0.8154946  0.3871795  0.9524741
  1                  10              4100     0.8156407  0.3927350  0.9507422
  1                  10              4200     0.8155699  0.3980769  0.9507422
  1                  10              4300     0.8159132  0.4036325  0.9498875
  1                  10              4400     0.8158660  0.4091880  0.9498875
  1                  10              4500     0.8158623  0.4145299  0.9498875
  1                  10              4600     0.8163498  0.4145299  0.9490103
  1                  10              4700     0.8162020  0.4145299  0.9490103
  1                  10              4800     0.8162093  0.4228632  0.9490103
  1                  10              4900     0.8164175  0.4256410  0.9481556
  1                  10              5000     0.8162788  0.4256410  0.9464238
  2                   5              2000     0.8180704  0.3311966  0.9636977
  2                   5              2100     0.8183555  0.3448718  0.9576248
  2                   5              2200     0.8180234  0.3662393  0.9550607
  2                   5              2300     0.8184160  0.3769231  0.9524741
  2                   5              2400     0.8184307  0.3878205  0.9515969
  2                   5              2500     0.8184359  0.3987179  0.9507422
  2                   5              2600     0.8181940  0.4040598  0.9490103
  2                   5              2700     0.8183348  0.4096154  0.9481556
  2                   5              2800     0.8191293  0.4096154  0.9472785
  2                   5              2900     0.8189157  0.4096154  0.9455466
  2                   5              3000     0.8189140  0.4149573  0.9446919
  2                   5              3100     0.8187077  0.4254274  0.9429600
  2                   5              3200     0.8186386  0.4307692  0.9420828
  2                   5              3300     0.8188467  0.4307692  0.9412281
  2                   5              3400     0.8189728  0.4333333  0.9403734
  2                   5              3500     0.8196573  0.4361111  0.9386415
  2                   5              3600     0.8191170  0.4386752  0.9386415
  2                   5              3700     0.8195406  0.4386752  0.9386415
  2                   5              3800     0.8192645  0.4386752  0.9386415
  2                   5              3900     0.8189890  0.4414530  0.9386415
  2                   5              4000     0.8187917  0.4440171  0.9386415
  2                   5              4100     0.8185853  0.4440171  0.9386415
  2                   5              4200     0.8190820  0.4465812  0.9377868
  2                   5              4300     0.8190837  0.4493590  0.9377868
  2                   5              4400     0.8190802  0.4521368  0.9352002
  2                   5              4500     0.8187466  0.4495726  0.9316914
  2                   5              4600     0.8188160  0.4521368  0.9308142
  2                   5              4700     0.8181788  0.4574786  0.9308142
  2                   5              4800     0.8181806  0.4600427  0.9299595
  2                   5              4900     0.8185895  0.4572650  0.9282501
  2                   5              5000     0.8183628  0.4598291  0.9291048
  2                  10              2000     0.8161655  0.3393162  0.9568151
  2                  10              2100     0.8163479  0.3476496  0.9542060
  2                  10              2200     0.8165779  0.3613248  0.9524741
  2                  10              2300     0.8167728  0.3747863  0.9515969
  2                  10              2400     0.8170503  0.3880342  0.9489879
  2                  10              2500     0.8173145  0.3989316  0.9489879
  2                  10              2600     0.8173802  0.4070513  0.9463788
  2                  10              2700     0.8172395  0.4098291  0.9463788
  2                  10              2800     0.8178551  0.4177350  0.9463788
  2                  10              2900     0.8179356  0.4177350  0.9463788
  2                  10              3000     0.8182093  0.4260684  0.9455241
  2                  10              3100     0.8180837  0.4288462  0.9437922
  2                  10              3200     0.8177841  0.4314103  0.9429375
  2                  10              3300     0.8174388  0.4339744  0.9420603
  2                  10              3400     0.8170643  0.4339744  0.9411831
  2                  10              3500     0.8172835  0.4391026  0.9394737
  2                  10              3600     0.8170809  0.4416667  0.9394737
  2                  10              3700     0.8174862  0.4444444  0.9385965
  2                  10              3800     0.8179063  0.4444444  0.9377418
  2                  10              3900     0.8177074  0.4444444  0.9351552
  2                  10              4000     0.8177097  0.4444444  0.9368871
  2                  10              4100     0.8171381  0.4470085  0.9368871
  2                  10              4200     0.8173502  0.4523504  0.9368871
  2                  10              4300     0.8174177  0.4549145  0.9377643
  2                  10              4400     0.8170523  0.4549145  0.9368871
  2                  10              4500     0.8176128  0.4549145  0.9360099
  2                  10              4600     0.8178883  0.4549145  0.9360099
  2                  10              4700     0.8181039  0.4549145  0.9360099
  2                  10              4800     0.8180329  0.4600427  0.9351327
  2                  10              4900     0.8178432  0.4626068  0.9342555
  2                  10              5000     0.8175785  0.4679487  0.9334008

Tuning parameter 'shrinkage' was held constant at a value of 0.001
ROC was used to select the optimal model using the largest value.
The final values used for the model were n.trees = 3500, interaction.depth = 2, shrinkage = 0.001 and n.minobsinnode = 5.
