CART 

509 samples
 16 predictor
  2 classes: 'HS', 'NHS' 

No pre-processing
Resampling: Cross-Validated (10 fold, repeated 3 times) 
Summary of sample sizes: 458, 459, 459, 459, 457, 458, ... 
Resampling results across tuning parameters:

  cp    ROC        Sens        Spec     
  0.01  0.6993828  0.38974359  0.8924426
  0.02  0.6756430  0.36089744  0.9140126
  0.03  0.6659993  0.35790598  0.9079622
  0.04  0.6520021  0.36025641  0.8958165
  0.05  0.6341263  0.33803419  0.8993702
  0.06  0.6339209  0.32735043  0.9098066
  0.07  0.6353218  0.32991453  0.9115610
  0.08  0.6363750  0.32970085  0.9159919
  0.09  0.6340152  0.33012821  0.9029915
  0.10  0.5995644  0.28397436  0.9071750
  0.11  0.5878909  0.26111111  0.9124381
  0.12  0.5654768  0.20726496  0.9271930
  0.13  0.5345142  0.11068376  0.9583446
  0.14  0.5267150  0.08568376  0.9677463
  0.15  0.5234256  0.07735043  0.9695007
  0.16  0.5107737  0.03888889  0.9826586
  0.17  0.5000000  0.00000000  1.0000000
  0.18  0.5000000  0.00000000  1.0000000
  0.19  0.5000000  0.00000000  1.0000000
  0.20  0.5000000  0.00000000  1.0000000
  0.21  0.5000000  0.00000000  1.0000000
  0.22  0.5000000  0.00000000  1.0000000
  0.23  0.5000000  0.00000000  1.0000000
  0.24  0.5000000  0.00000000  1.0000000
  0.25  0.5000000  0.00000000  1.0000000
  0.26  0.5000000  0.00000000  1.0000000
  0.27  0.5000000  0.00000000  1.0000000
  0.28  0.5000000  0.00000000  1.0000000
  0.29  0.5000000  0.00000000  1.0000000
  0.30  0.5000000  0.00000000  1.0000000
  0.31  0.5000000  0.00000000  1.0000000
  0.32  0.5000000  0.00000000  1.0000000
  0.33  0.5000000  0.00000000  1.0000000
  0.34  0.5000000  0.00000000  1.0000000
  0.35  0.5000000  0.00000000  1.0000000
  0.36  0.5000000  0.00000000  1.0000000
  0.37  0.5000000  0.00000000  1.0000000
  0.38  0.5000000  0.00000000  1.0000000
  0.39  0.5000000  0.00000000  1.0000000
  0.40  0.5000000  0.00000000  1.0000000
  0.41  0.5000000  0.00000000  1.0000000
  0.42  0.5000000  0.00000000  1.0000000
  0.43  0.5000000  0.00000000  1.0000000
  0.44  0.5000000  0.00000000  1.0000000
  0.45  0.5000000  0.00000000  1.0000000
  0.46  0.5000000  0.00000000  1.0000000
  0.47  0.5000000  0.00000000  1.0000000
  0.48  0.5000000  0.00000000  1.0000000
  0.49  0.5000000  0.00000000  1.0000000
  0.50  0.5000000  0.00000000  1.0000000
  0.51  0.5000000  0.00000000  1.0000000
  0.52  0.5000000  0.00000000  1.0000000
  0.53  0.5000000  0.00000000  1.0000000
  0.54  0.5000000  0.00000000  1.0000000
  0.55  0.5000000  0.00000000  1.0000000
  0.56  0.5000000  0.00000000  1.0000000
  0.57  0.5000000  0.00000000  1.0000000
  0.58  0.5000000  0.00000000  1.0000000
  0.59  0.5000000  0.00000000  1.0000000
  0.60  0.5000000  0.00000000  1.0000000
  0.61  0.5000000  0.00000000  1.0000000
  0.62  0.5000000  0.00000000  1.0000000
  0.63  0.5000000  0.00000000  1.0000000
  0.64  0.5000000  0.00000000  1.0000000
  0.65  0.5000000  0.00000000  1.0000000
  0.66  0.5000000  0.00000000  1.0000000
  0.67  0.5000000  0.00000000  1.0000000
  0.68  0.5000000  0.00000000  1.0000000
  0.69  0.5000000  0.00000000  1.0000000
  0.70  0.5000000  0.00000000  1.0000000
  0.71  0.5000000  0.00000000  1.0000000
  0.72  0.5000000  0.00000000  1.0000000
  0.73  0.5000000  0.00000000  1.0000000
  0.74  0.5000000  0.00000000  1.0000000
  0.75  0.5000000  0.00000000  1.0000000
  0.76  0.5000000  0.00000000  1.0000000
  0.77  0.5000000  0.00000000  1.0000000
  0.78  0.5000000  0.00000000  1.0000000
  0.79  0.5000000  0.00000000  1.0000000
  0.80  0.5000000  0.00000000  1.0000000
  0.81  0.5000000  0.00000000  1.0000000
  0.82  0.5000000  0.00000000  1.0000000
  0.83  0.5000000  0.00000000  1.0000000
  0.84  0.5000000  0.00000000  1.0000000
  0.85  0.5000000  0.00000000  1.0000000
  0.86  0.5000000  0.00000000  1.0000000
  0.87  0.5000000  0.00000000  1.0000000
  0.88  0.5000000  0.00000000  1.0000000
  0.89  0.5000000  0.00000000  1.0000000
  0.90  0.5000000  0.00000000  1.0000000
  0.91  0.5000000  0.00000000  1.0000000
  0.92  0.5000000  0.00000000  1.0000000
  0.93  0.5000000  0.00000000  1.0000000
  0.94  0.5000000  0.00000000  1.0000000
  0.95  0.5000000  0.00000000  1.0000000
  0.96  0.5000000  0.00000000  1.0000000
  0.97  0.5000000  0.00000000  1.0000000
  0.98  0.5000000  0.00000000  1.0000000
  0.99  0.5000000  0.00000000  1.0000000
  1.00  0.5000000  0.00000000  1.0000000

ROC was used to select the optimal model using the largest value.
The final value used for the model was cp = 0.01.
