c<B>r<17>a<1680>R<LYS>A<O> 1
c<B>r<17>a<1683>R<LYS>A<CD> 1
c<B>r<17>a<1684>R<LYS>A<CE> 1
c<B>r<17>a<1685>R<LYS>A<NZ> 1
c<B>r<18>a<1691>R<GLU>A<CG> 1
c<B>r<18>a<1692>R<GLU>A<CD> 2
c<B>r<18>a<1693>R<GLU>A<OE1> 1
c<B>r<18>a<1694>R<GLU>A<OE2> 1
c<B>r<43>a<1896>R<GLU>A<CA> 1
c<B>r<43>a<1899>R<GLU>A<CB> 2
c<B>r<43>a<1900>R<GLU>A<CG> 1
c<B>r<43>a<1901>R<GLU>A<CD> 1
c<B>r<43>a<1902>R<GLU>A<OE1> 1
c<B>r<43>a<1903>R<GLU>A<OE2> 1
c<B>r<44>a<1904>R<GLY>A<N> 1
c<B>r<44>a<1905>R<GLY>A<CA> 1
c<B>r<66>a<2077>R<LYS>A<CB> 1
c<B>r<66>a<2078>R<LYS>A<CG> 1
c<B>r<66>a<2079>R<LYS>A<CD> 1
c<B>r<66>a<2081>R<LYS>A<NZ> 1
c<B>r<69>a<2106>R<THR>A<O> 1
c<B>r<70>a<2111>R<SER>A<CA> 1
c<B>r<70>a<2114>R<SER>A<CB> 1
c<B>r<70>a<2115>R<SER>A<OG> 1
c<B>r<71>a<2116>R<MET>A<N> 1
c<B>r<71>a<2119>R<MET>A<O> 2
c<B>r<71>a<2120>R<MET>A<CB> 2
c<B>r<71>a<2121>R<MET>A<CG> 1
c<B>r<71>a<2123>R<MET>A<CE> 1
c<B>r<72>a<2125>R<TRP>A<CA> 2
c<B>r<72>a<2126>R<TRP>A<C> 2
c<B>r<72>a<2127>R<TRP>A<O> 1
c<B>r<72>a<2128>R<TRP>A<CB> 2
c<B>r<72>a<2129>R<TRP>A<CG> 3
c<B>r<72>a<2130>R<TRP>A<CD1> 2
c<B>r<72>a<2131>R<TRP>A<CD2> 3
c<B>r<72>a<2132>R<TRP>A<NE1> 2
c<B>r<72>a<2133>R<TRP>A<CE2> 2
c<B>r<72>a<2134>R<TRP>A<CE3> 3
c<B>r<72>a<2135>R<TRP>A<CZ2> 2
c<B>r<72>a<2136>R<TRP>A<CZ3> 2
c<B>r<72>a<2137>R<TRP>A<CH2> 2
c<B>r<73>a<2138>R<ARG>A<N> 2
c<B>r<73>a<2139>R<ARG>A<CA> 2
c<B>r<73>a<2140>R<ARG>A<C> 2
c<B>r<73>a<2142>R<ARG>A<CB> 2
c<B>r<73>a<2144>R<ARG>A<CD> 1
c<B>r<73>a<2145>R<ARG>A<NE> 1
c<B>r<73>a<2146>R<ARG>A<CZ> 1
c<B>r<73>a<2148>R<ARG>A<NH2> 1
c<B>r<74>a<2149>R<THR>A<N> 2
c<B>r<74>a<2153>R<THR>A<CB> 2
c<B>r<74>a<2154>R<THR>A<OG1> 1
c<B>r<74>a<2155>R<THR>A<CG2> 1
c<B>r<76>a<2173>R<ILE>A<CG1> 1
c<B>r<76>a<2175>R<ILE>A<CD1> 1
c<B>r<94>a<2305>R<TYR>A<O> 1
c<B>r<94>a<2306>R<TYR>A<CB> 1
c<B>r<94>a<2307>R<TYR>A<CG> 2
c<B>r<94>a<2308>R<TYR>A<CD1> 1
c<B>r<94>a<2309>R<TYR>A<CD2> 1
c<B>r<94>a<2310>R<TYR>A<CE1> 1
c<B>r<94>a<2311>R<TYR>A<CE2> 1
c<B>r<94>a<2312>R<TYR>A<CZ> 2
c<B>r<94>a<2313>R<TYR>A<OH> 1
c<B>r<96>a<2328>R<ASP>A<OD2> 1
c<B>r<98>a<2339>R<THR>A<O> 1
c<B>r<98>a<2341>R<THR>A<OG1> 2
c<B>r<98>a<2342>R<THR>A<CG2> 2
c<B>r<99>a<2347>R<TYR>A<CB> 1
c<B>r<99>a<2348>R<TYR>A<CG> 2
c<B>r<99>a<2349>R<TYR>A<CD1> 1
c<B>r<99>a<2350>R<TYR>A<CD2> 1
c<B>r<99>a<2351>R<TYR>A<CE1> 1
c<B>r<99>a<2352>R<TYR>A<CE2> 1
c<B>r<99>a<2353>R<TYR>A<CZ> 2
c<B>r<99>a<2354>R<TYR>A<OH> 2
c<B>r<134>a<2633>R<ASP>A<CB> 1
c<B>r<134>a<2634>R<ASP>A<CG> 2
c<B>r<134>a<2635>R<ASP>A<OD1> 1
c<B>r<135>a<2639>R<LEU>A<C> 2
c<B>r<135>a<2640>R<LEU>A<O> 1
c<B>r<135>a<2641>R<LEU>A<CB> 1
c<B>r<136>a<2645>R<LYS>A<N> 1
c<B>r<136>a<2646>R<LYS>A<CA> 2
c<B>r<136>a<2647>R<LYS>A<C> 2
c<B>r<136>a<2648>R<LYS>A<O> 2
c<B>r<136>a<2649>R<LYS>A<CB> 1
c<B>r<136>a<2650>R<LYS>A<CG> 2
c<B>r<136>a<2651>R<LYS>A<CD> 1
c<B>r<136>a<2652>R<LYS>A<CE> 1
c<B>r<137>a<2654>R<THR>A<N> 2
c<B>r<137>a<2655>R<THR>A<CA> 2
c<B>r<137>a<2656>R<THR>A<C> 2
c<B>r<137>a<2657>R<THR>A<O> 1
c<B>r<137>a<2658>R<THR>A<CB> 1
c<B>r<137>a<2659>R<THR>A<OG1> 1
c<B>r<137>a<2660>R<THR>A<CG2> 1
c<B>r<138>a<2661>R<GLY>A<N> 2
c<B>r<138>a<2662>R<GLY>A<CA> 1
c<B>r<138>a<2663>R<GLY>A<C> 2
c<B>r<138>a<2664>R<GLY>A<O> 1
c<B>r<139>a<2665>R<TRP>A<N> 2
c<B>r<139>a<2666>R<TRP>A<CA> 2
c<B>r<139>a<2668>R<TRP>A<O> 1
c<B>r<139>a<2669>R<TRP>A<CB> 2
c<B>r<139>a<2670>R<TRP>A<CG> 2
c<B>r<139>a<2671>R<TRP>A<CD1> 2
c<B>r<139>a<2672>R<TRP>A<CD2> 2
c<B>r<139>a<2673>R<TRP>A<NE1> 2
c<B>r<139>a<2674>R<TRP>A<CE2> 2
c<B>r<139>a<2675>R<TRP>A<CE3> 2
c<B>r<139>a<2676>R<TRP>A<CZ2> 1
c<B>r<139>a<2677>R<TRP>A<CZ3> 1
c<B>r<139>a<2678>R<TRP>A<CH2> 2
c<B>r<141>a<2694>R<THR>A<CB> 2
c<B>r<141>a<2695>R<THR>A<OG1> 1
c<B>r<141>a<2696>R<THR>A<CG2> 1
c<B>r<143>a<2711>R<LEU>A<CD1> 1
c<B>r<163>a<2882>R<GLN>A<OE1> 1
c<B>r<187>a<3075>R<ASP>A<CA> 2
c<B>r<187>a<3076>R<ASP>A<C> 2
c<B>r<187>a<3077>R<ASP>A<O> 1
c<B>r<187>a<3078>R<ASP>A<CB> 1
c<B>r<187>a<3080>R<ASP>A<OD1> 1
c<B>r<187>a<3081>R<ASP>A<OD2> 1
c<B>r<188>a<3085>R<HIS>A<O> 1
c<B>r<188>a<3086>R<HIS>A<CB> 1
c<B>r<188>a<3087>R<HIS>A<CG> 2
c<B>r<188>a<3088>R<HIS>A<ND1> 1
c<B>r<188>a<3089>R<HIS>A<CD2> 1
c<B>r<188>a<3090>R<HIS>A<CE1> 2
c<B>r<188>a<3091>R<HIS>A<NE2> 2
c<B>r<211>a<3241>R<NA>A<NA> 1
