c<B>r<17>R<LYS> 1
c<B>r<18>R<GLU> 1.25
c<B>r<43>R<GLU> 1.16667
c<B>r<44>R<GLY> 1
c<B>r<66>R<LYS> 1
c<B>r<69>R<THR> 1
c<B>r<70>R<SER> 1
c<B>r<71>R<MET> 1.4
c<B>r<72>R<TRP> 2.15385
c<B>r<73>R<ARG> 1.5
c<B>r<74>R<THR> 1.5
c<B>r<76>R<ILE> 1
c<B>r<94>R<TYR> 1.22222
c<B>r<96>R<ASP> 1
c<B>r<98>R<THR> 1.66667
c<B>r<99>R<TYR> 1.375
c<B>r<134>R<ASP> 1.33333
c<B>r<135>R<LEU> 1.33333
c<B>r<136>R<LYS> 1.5
c<B>r<137>R<THR> 1.42857
c<B>r<138>R<GLY> 1.5
c<B>r<139>R<TRP> 1.76923
c<B>r<141>R<THR> 1.33333
c<B>r<143>R<LEU> 1
c<B>r<163>R<GLN> 1
c<B>r<187>R<ASP> 1.33333
c<B>r<188>R<HIS> 1.42857
c<B>r<211>R<NA> 1
