c<A>r<4>R<EDO> 1
c<A>r<7>R<EDO> 1
c<A>r<41>R<ILE> 1
c<A>r<42>l<A>R<CYS> 2
c<A>r<57>R<HIS> 1.5
c<A>r<58>R<CYS> 2
c<A>r<60>i<A>R<ASP> 1
c<A>r<60>i<B>R<ASP> 1
c<A>r<60>i<C>R<ARG> 1.11111
c<A>r<60>i<D>R<GLY> 1
c<A>r<96>R<ASP> 1.5
c<A>r<97>R<PHE> 1.4
c<A>r<98>R<THR> 1.2
c<A>r<99>R<PHE> 1.875
c<A>r<143>R<HIS> 1.66667
c<A>r<145>R<GLN> 2
c<A>r<146>R<TYR> 1.44444
c<A>r<147>R<GLY> 1.5
c<A>r<148>R<GLY> 1.25
c<A>r<150>l<A>R<THR> 1
c<A>r<173>R<PRO> 1
c<A>r<174>R<GLN> 1
c<A>r<175>R<GLN> 1.28571
c<A>r<189>R<ASP> 2.33333
c<A>r<190>R<SER> 2.25
c<A>r<191>R<CYS> 1.6
c<A>r<192>R<GLN> 1.28571
c<A>r<193>R<GLY> 1
c<A>r<195>R<SER> 1.33333
c<A>r<213>R<VAL> 1
c<A>r<214>R<SER> 1.5
c<A>r<215>R<TRP> 1.78571
c<A>r<216>R<GLY> 1.5
c<A>r<217>R<ASP> 1
c<A>r<219>R<GLY> 1.25
c<A>r<220>R<CYS> 1.66667
c<A>r<221>i<A>R<GLN> 1
c<A>r<224>R<LYS> 1
c<A>r<226>R<GLY> 1.5
