c<A>r<498>R<PRO> 1
c<A>r<499>R<TYR> 1.57143
c<A>r<501>R<ARG> 1
c<A>r<529>R<LYS> 1
c<A>r<531>R<GLN> 1.5
c<A>r<532>R<LEU> 1.5
c<A>r<533>R<TYR> 1.5
c<A>r<535>R<GLU> 1
c<A>r<540>R<GLN> 1.25
c<A>r<541>R<GLY> 1.25
c<A>r<542>R<VAL> 1.2
c<A>r<543>R<ASP> 1.8
c<A>r<544>R<GLU> 1.375
c<A>r<545>R<GLY> 1.5
c<A>r<548>R<SER> 1
c<A>r<600>R<ILE> 1
c<A>r<601>R<TYR> 1
c<A>r<602>R<ASN> 1
c<A>r<603>R<ASN> 1.33333
c<A>r<612>R<MET> 1
c<A>r<616>R<ARG> 1.4
c<A>r<621>R<LYS> 1
c<A>r<622>R<LYS> 1.25
c<A>r<623>R<GLY> 1
c<A>r<624>R<THR> 1.75
c<A>r<625>R<PHE> 1.25
c<A>r<626>R<ARG> 1.125
c<A>r<627>R<ASP> 1.66667
c<A>r<630>R<ASP> 1
c<A>r<634>R<VAL> 1.2
c<A>r<635>R<LEU> 1.57143
c<A>r<636>R<TYR> 1
c<A>r<637>R<GLN> 1.2
c<A>r<638>R<SER> 1.33333
c<A>r<639>R<LEU> 2.25
c<A>r<640>R<LYS> 1.66667
c<A>r<641>R<ASP> 1.2
c<A>r<642>R<LEU> 1.4
c<A>r<643>R<LEU> 1.25
c<A>r<644>R<GLU> 1.33333
c<A>r<645>R<TYR> 1.2
c<A>r<646>R<GLU> 1.25
c<A>r<650>R<GLU> 1
c<A>r<651>R<ASP> 1.5
c<A>r<652>R<ASP> 1.28571
c<A>r<653>R<MET> 1.625
c<A>r<654>R<MET> 1.28571
c<A>r<655>R<ILE> 1.33333
c<A>r<656>R<THR> 1.33333
c<A>r<658>R<GLN> 1
c<A>r<659>R<ILE> 1
c<A>r<660>R<SER> 1.4
c<A>r<661>R<GLN> 1.5
c<A>r<662>R<THR> 1
c<A>r<666>R<GLY> 1
c<A>r<668>R<PRO> 1.25
c<A>r<670>R<MET> 1
c<A>r<678>R<ASP> 1
c<A>r<679>R<LYS> 1
c<A>r<681>R<PRO> 1
c<A>r<687>R<ARG> 1
c<A>r<688>R<LYS> 1
c<A>r<690>R<PHE> 1.5
c<A>r<692>R<ASN> 1.16667
c<A>r<694>R<TYR> 1.75
c<A>r<695>R<SER> 2
c<A>r<696>R<ASP> 1
c<A>r<718>R<THR> 1.33333
c<A>r<720>R<GLU> 1.2
c<A>r<721>R<SER> 1.2
c<A>r<722>R<PRO> 1.5
c<A>r<723>R<LEU> 1.5
c<A>r<724>R<LYS> 1
c<A>r<725>R<TYR> 1.18182
c<A>r<726>R<LEU> 1
c<A>r<727>R<PHE> 1.1
c<A>r<728>R<ARG> 1.42857
c<A>r<730>R<GLU> 1.5
c<A>r<731>R<GLU> 1.66667
c<A>r<733>R<GLU> 1
c<A>r<734>R<LEU> 1
c<A>r<735>R<LEU> 1.2
c<A>r<740>R<ARG> 1.25
c<A>r<741>R<ASN> 1
c<A>r<743>R<ASP> 1
c<A>r<745>R<GLN> 1.2
c<A>r<746>R<ALA> 1
c<A>r<749>R<GLU> 1
c<A>r<775>R<THR> 1.33333
c<A>r<776>R<ASP> 1.25
c<A>r<777>R<GLU> 1.33333
c<A>r<780>R<ARG> 1.25
c<A>r<791>R<ARG> 1
c<A>r<794>R<VAL> 1.25
c<A>r<795>R<GLY> 1
c<A>r<799>R<LYS> 1
c<A>r<801>R<LYS> 1
