c<A>r<92>a<451>R<GLU>A<OE2> 1
c<A>r<93>a<457>R<ARG>A<CG> 1
c<A>r<93>a<458>R<ARG>A<CD> 1
c<A>r<93>a<459>R<ARG>A<NE> 2
c<A>r<93>a<460>R<ARG>A<CZ> 2
c<A>r<93>a<461>R<ARG>A<NH1> 1
c<A>r<93>a<462>R<ARG>A<NH2> 1
c<A>r<94>a<464>R<GLN>A<CA> 2
c<A>r<94>a<466>R<GLN>A<O> 2
c<A>r<94>a<467>R<GLN>A<CB> 2
c<A>r<94>a<470>R<GLN>A<OE1> 1
c<A>r<95>a<474>R<ASP>A<C> 2
c<A>r<95>a<475>R<ASP>A<O> 1
c<A>r<95>a<476>R<ASP>A<CB> 1
c<A>r<95>a<477>R<ASP>A<CG> 1
c<A>r<95>a<478>R<ASP>A<OD1> 1
c<A>r<95>a<479>R<ASP>A<OD2> 1
c<A>r<96>a<480>R<ASN>A<N> 2
c<A>r<96>a<481>R<ASN>A<CA> 1
c<A>r<96>a<482>R<ASN>A<C> 2
c<A>r<96>a<483>R<ASN>A<O> 2
c<A>r<96>a<484>R<ASN>A<CB> 1
c<A>r<96>a<485>R<ASN>A<CG> 2
c<A>r<96>a<486>R<ASN>A<OD1> 2
c<A>r<96>a<487>R<ASN>A<ND2> 1
c<A>r<97>a<488>R<PHE>A<N> 1
c<A>r<97>a<491>R<PHE>A<O> 1
c<A>r<97>a<492>R<PHE>A<CB> 2
c<A>r<97>a<493>R<PHE>A<CG> 2
c<A>r<97>a<495>R<PHE>A<CD2> 1
c<A>r<97>a<496>R<PHE>A<CE1> 2
c<A>r<97>a<497>R<PHE>A<CE2> 1
c<A>r<97>a<498>R<PHE>A<CZ> 2
c<A>r<98>a<500>R<ARG>A<CA> 2
c<A>r<98>a<503>R<ARG>A<CB> 1
c<A>r<98>a<505>R<ARG>A<CD> 1
c<A>r<99>a<513>R<PRO>A<O> 1
c<A>r<99>a<515>R<PRO>A<CG> 1
c<A>r<99>a<516>R<PRO>A<CD> 2
c<A>r<101>a<532>R<LYS>A<CE> 1
c<A>r<101>a<533>R<LYS>A<NZ> 1
c<A>r<111>a<608>R<THR>A<CB> 2
c<A>r<111>a<609>R<THR>A<OG1> 1
c<A>r<111>a<610>R<THR>A<CG2> 1
c<A>r<112>a<613>R<PRO>A<C> 2
c<A>r<112>a<614>R<PRO>A<O> 2
c<A>r<112>a<615>R<PRO>A<CB> 2
c<A>r<112>a<616>R<PRO>A<CG> 1
c<A>r<112>a<617>R<PRO>A<CD> 2
c<A>r<113>a<618>R<SER>A<N> 1
c<A>r<113>a<619>R<SER>A<CA> 1
c<A>r<113>a<621>R<SER>A<O> 1
c<A>r<113>a<622>R<SER>A<CB> 1
c<A>r<113>a<623>R<SER>A<OG> 1
c<A>r<115>a<635>R<TYR>A<O> 1
c<A>r<116>a<645>R<SER>A<CA> 2
c<A>r<116>a<648>R<SER>A<CB> 1
c<A>r<116>a<649>R<SER>A<OG> 1
c<A>r<117>a<650>R<GLY>A<N> 1
c<A>r<117>a<651>R<GLY>A<CA> 1
c<A>r<119>a<660>R<GLY>A<N> 1
c<A>r<120>a<667>R<TYR>A<O> 1
c<A>r<121>a<677>R<ALA>A<CA> 1
c<A>r<121>a<680>R<ALA>A<CB> 1
c<A>r<122>a<681>R<ARG>A<N> 2
c<A>r<122>a<684>R<ARG>A<O> 2
c<A>r<122>a<685>R<ARG>A<CB> 3
c<A>r<122>a<686>R<ARG>A<CG> 2
c<A>r<122>a<687>R<ARG>A<CD> 2
c<A>r<122>a<688>R<ARG>A<NE> 2
c<A>r<122>a<689>R<ARG>A<CZ> 2
c<A>r<122>a<690>R<ARG>A<NH1> 1
c<A>r<122>a<691>R<ARG>A<NH2> 1
c<A>r<124>a<700>R<HIS>A<CB> 1
c<A>r<124>a<701>R<HIS>A<CG> 1
c<A>r<124>a<702>R<HIS>A<ND1> 1
c<A>r<124>a<704>R<HIS>A<CE1> 2
c<A>r<127>a<720>R<PRO>A<CA> 1
c<A>r<127>a<723>R<PRO>A<CB> 1
c<A>r<128>a<726>R<SER>A<N> 1
c<A>r<128>a<730>R<SER>A<CB> 2
c<A>r<129>a<732>R<ALA>A<N> 1
c<A>r<129>a<736>R<ALA>A<CB> 1
c<A>r<152>a<914>R<PRO>A<CG> 1
c<A>r<155>a<934>R<ASN>A<C> 2
c<A>r<155>a<935>R<ASN>A<O> 2
c<A>r<155>a<937>R<ASN>A<CG> 2
c<A>r<155>a<938>R<ASN>A<OD1> 2
c<A>r<155>a<939>R<ASN>A<ND2> 1
c<A>r<156>a<940>l<A>R<ARG>A<N> 2
c<A>r<156>a<942>l<A>R<ARG>A<CA> 2
c<A>r<156>a<946>l<A>R<ARG>A<O> 1
c<A>r<156>a<948>l<A>R<ARG>A<CB> 1
c<A>r<156>a<950>l<A>R<ARG>A<CG> 2
c<A>r<156>a<952>l<A>R<ARG>A<CD> 1
c<A>r<156>a<954>l<A>R<ARG>A<NE> 1
c<A>r<156>a<956>l<A>R<ARG>A<CZ> 2
c<A>r<156>a<958>l<A>R<ARG>A<NH1> 1
c<A>r<156>a<960>l<A>R<ARG>A<NH2> 1
c<A>r<157>a<968>R<ASN>A<OD1> 1
c<A>r<157>a<969>R<ASN>A<ND2> 1
c<A>r<163>a<1018>R<GLU>A<OE1> 2
c<A>r<163>a<1019>R<GLU>A<OE2> 1
c<A>r<167>a<1055>R<ARG>A<NH1> 2
c<A>r<167>a<1056>R<ARG>A<NH2> 1
c<A>r<191>a<1239>R<LYS>A<CE> 1
c<A>r<191>a<1240>R<LYS>A<NZ> 1
c<A>r<303>a<2956>R<MG>A<MG> 1
c<A>r<900>a<2957>R<MES>A<O1> 1
c<A>r<900>a<2959>R<MES>A<C3> 1
c<A>r<900>a<2961>R<MES>A<C5> 1
c<A>r<900>a<2962>R<MES>A<C6> 1
c<A>r<900>a<2963>R<MES>A<C7> 1
c<A>r<900>a<2964>R<MES>A<C8> 1
c<A>r<900>a<2966>R<MES>A<O1S> 1
c<A>r<900>a<2967>R<MES>A<O2S> 1
c<A>r<900>a<2968>R<MES>A<O3S> 1
c<A>r<901>a<2969>R<MES>A<O1> 2
c<A>r<901>a<2970>R<MES>A<C2> 2
c<A>r<901>a<2971>R<MES>A<C3> 1
c<A>r<901>a<2972>R<MES>A<N4> 2
c<A>r<901>a<2973>R<MES>A<C5> 1
c<A>r<901>a<2974>R<MES>A<C6> 2
c<A>r<901>a<2975>R<MES>A<C7> 1
c<A>r<901>a<2978>R<MES>A<O1S> 1
c<A>r<901>a<2979>R<MES>A<O2S> 1
c<A>r<901>a<2980>R<MES>A<O3S> 1
