"Metric";"Testing_Set"
"Accuracy";"0.763102725366876"
"Kappa";"0.28937376400791"
"AccuracyLower";"0.734809852506628"
"AccuracyUpper";"0.789760942925319"
"AccuracyNull";"0.758909853249476"
"AccuracyPValue";"0.397891977681134"
"McnemarPValue";"8.68661650956233e-05"
"Sensitivity";"0.378260869565217"
"Specificity";"0.885359116022099"
"Pos Pred Value";"0.511764705882353"
"Neg Pred Value";"0.817602040816326"
"Precision";"0.511764705882353"
"Recall";"0.378260869565217"
"F1";"0.435"
"Prevalence";"0.241090146750524"
"Detection Rate";"0.0911949685534591"
"Detection Prevalence";"0.178197064989518"
"Balanced Accuracy";"0.631809992793658"
"TP";"87"
"TN";"641"
"FP";"83"
"FN";"143"
