"Metric";"Testing_Set"
"Accuracy";"0.50314465408805"
"Kappa";"0.156715749899297"
"AccuracyLower";"0.470925158395403"
"AccuracyUpper";"0.535344683917284"
"AccuracyNull";"0.761006289308176"
"AccuracyPValue";"1"
"McnemarPValue";"1.73489336707238e-79"
"Sensitivity";"0.864035087719298"
"Specificity";"0.389807162534435"
"Pos Pred Value";"0.3078125"
"Neg Pred Value";"0.901273885350318"
"Precision";"0.3078125"
"Recall";"0.864035087719298"
"F1";"0.453917050691244"
"Prevalence";"0.238993710691824"
"Detection Rate";"0.206498951781971"
"Detection Prevalence";"0.670859538784067"
"Balanced Accuracy";"0.626921125126867"
"TP";"197"
"TN";"283"
"FP";"443"
"FN";"31"
