"Metric";"Testing_Set"
"Accuracy";"0.617400419287212"
"Kappa";"0.228042405458971"
"AccuracyLower";"0.585711109188123"
"AccuracyUpper";"0.648362564942672"
"AccuracyNull";"0.761006289308176"
"AccuracyPValue";"1"
"McnemarPValue";"3.40836511524392e-36"
"Sensitivity";"0.728070175438597"
"Specificity";"0.582644628099174"
"Pos Pred Value";"0.353944562899787"
"Neg Pred Value";"0.872164948453608"
"Precision";"0.353944562899787"
"Recall";"0.728070175438597"
"F1";"0.476327116212339"
"Prevalence";"0.238993710691824"
"Detection Rate";"0.174004192872117"
"Detection Prevalence";"0.491614255765199"
"Balanced Accuracy";"0.655357401768885"
"TP";"166"
"TN";"423"
"FP";"303"
"FN";"62"
