"Metric";"Testing_Set"
"Accuracy";"0.448637316561845"
"Kappa";"0.128921384826897"
"AccuracyLower";"0.4167533249925"
"AccuracyUpper";"0.48083928597464"
"AccuracyNull";"0.761006289308176"
"AccuracyPValue";"1"
"McnemarPValue";"1.11058931043752e-101"
"Sensitivity";"0.925438596491228"
"Specificity";"0.298898071625344"
"Pos Pred Value";"0.293055555555556"
"Neg Pred Value";"0.927350427350427"
"Precision";"0.293055555555556"
"Recall";"0.925438596491228"
"F1";"0.445147679324895"
"Prevalence";"0.238993710691824"
"Detection Rate";"0.221174004192872"
"Detection Prevalence";"0.754716981132076"
"Balanced Accuracy";"0.612168334058286"
"TP";"211"
"TN";"217"
"FP";"509"
"FN";"17"
