"Metric";"Testing_Set"
"Accuracy";"0.748427672955975"
"Kappa";"0.205628877138931"
"AccuracyLower";"0.719627880959164"
"AccuracyUpper";"0.775684748225855"
"AccuracyNull";"0.761006289308176"
"AccuracyPValue";"0.828858334537838"
"McnemarPValue";"4.09450539397528e-08"
"Sensitivity";"0.285087719298246"
"Specificity";"0.893939393939394"
"Pos Pred Value";"0.457746478873239"
"Neg Pred Value";"0.799261083743842"
"Precision";"0.457746478873239"
"Recall";"0.285087719298246"
"F1";"0.351351351351351"
"Prevalence";"0.238993710691824"
"Detection Rate";"0.0681341719077568"
"Detection Prevalence";"0.148846960167715"
"Balanced Accuracy";"0.58951355661882"
"TP";"65"
"TN";"649"
"FP";"77"
"FN";"163"
