"Metric";"Testing_Set"
"Accuracy";"0.625786163522013"
"Kappa";"0.217598059260553"
"AccuracyLower";"0.594203907408092"
"AccuracyUpper";"0.656589241774238"
"AccuracyNull";"0.758909853249476"
"AccuracyPValue";"1"
"McnemarPValue";"1.11916351230286e-27"
"Sensitivity";"0.673913043478261"
"Specificity";"0.610497237569061"
"Pos Pred Value";"0.354691075514874"
"Neg Pred Value";"0.854932301740812"
"Precision";"0.354691075514874"
"Recall";"0.673913043478261"
"F1";"0.464767616191904"
"Prevalence";"0.241090146750524"
"Detection Rate";"0.162473794549266"
"Detection Prevalence";"0.458071278825996"
"Balanced Accuracy";"0.642205140523661"
"TP";"155"
"TN";"442"
"FP";"282"
"FN";"75"
