"Metric";"Testing_Set"
"Accuracy";"0.759958071278826"
"Kappa";"0.278766349956752"
"AccuracyLower";"0.731552944199914"
"AccuracyUpper";"0.786748259785745"
"AccuracyNull";"0.758909853249476"
"AccuracyPValue";"0.48750994411696"
"McnemarPValue";"7.34231511934773e-05"
"Sensitivity";"0.369565217391304"
"Specificity";"0.883977900552486"
"Pos Pred Value";"0.502958579881657"
"Neg Pred Value";"0.815286624203822"
"Precision";"0.502958579881657"
"Recall";"0.369565217391304"
"F1";"0.426065162907268"
"Prevalence";"0.241090146750524"
"Detection Rate";"0.0890985324947589"
"Detection Prevalence";"0.177148846960168"
"Balanced Accuracy";"0.626771558971895"
"TP";"85"
"TN";"640"
"FP";"84"
"FN";"145"
