"Metric";"Testing_Set"
"Accuracy";"0.763102725366876"
"Kappa";"0.0266009318452698"
"AccuracyLower";"0.734809852506628"
"AccuracyUpper";"0.789760942925319"
"AccuracyNull";"0.761006289308176"
"AccuracyPValue";"0.457260807317001"
"McnemarPValue";"4.51057167060597e-48"
"Sensitivity";"0.0219298245614035"
"Specificity";"0.995867768595041"
"Pos Pred Value";"0.625000000000001"
"Neg Pred Value";"0.764270613107822"
"Precision";"0.625"
"Recall";"0.0219298245614035"
"F1";"0.0423728813559322"
"Prevalence";"0.238993710691824"
"Detection Rate";"0.00524109014675052"
"Detection Prevalence";"0.00838574423480084"
"Balanced Accuracy";"0.508898796578222"
"TP";"5"
"TN";"723"
"FP";"3"
"FN";"223"
