"Metric";"Testing_Set"
"Accuracy";"0.719077568134172"
"Kappa";"0.23002421307506"
"AccuracyLower";"0.689386583592243"
"AccuracyUpper";"0.747409229563388"
"AccuracyNull";"0.761006289308176"
"AccuracyPValue";"0.998751289635991"
"McnemarPValue";"0.951291736363789"
"Sensitivity";"0.416666666666667"
"Specificity";"0.814049586776859"
"Pos Pred Value";"0.41304347826087"
"Neg Pred Value";"0.816298342541437"
"Precision";"0.41304347826087"
"Recall";"0.416666666666667"
"F1";"0.414847161572052"
"Prevalence";"0.238993710691824"
"Detection Rate";"0.09958071278826"
"Detection Prevalence";"0.241090146750524"
"Balanced Accuracy";"0.615358126721763"
"TP";"95"
"TN";"591"
"FP";"135"
"FN";"133"
