"Metric";"Testing_Set"
"Accuracy";"0.439203354297694"
"Kappa";"0.117823969247681"
"AccuracyLower";"0.407415968199212"
"AccuracyUpper";"0.471367139394082"
"AccuracyNull";"0.758909853249476"
"AccuracyPValue";"1"
"McnemarPValue";"5.20066912384564e-102"
"Sensitivity";"0.917391304347826"
"Specificity";"0.287292817679558"
"Pos Pred Value";"0.290233837689133"
"Neg Pred Value";"0.916299559471366"
"Precision";"0.290233837689133"
"Recall";"0.917391304347826"
"F1";"0.440961337513062"
"Prevalence";"0.241090146750524"
"Detection Rate";"0.221174004192872"
"Detection Prevalence";"0.762054507337526"
"Balanced Accuracy";"0.602342061013692"
"TP";"211"
"TN";"208"
"FP";"516"
"FN";"19"
