"Metric";"Testing_Set"
"Accuracy";"0.768343815513627"
"Kappa";"0.146054582128363"
"AccuracyLower";"0.740242557149003"
"AccuracyUpper";"0.794777537029704"
"AccuracyNull";"0.761006289308176"
"AccuracyPValue";"0.312627123308266"
"McnemarPValue";"1.29875686523664e-29"
"Sensitivity";"0.144736842105263"
"Specificity";"0.964187327823691"
"Pos Pred Value";"0.559322033898305"
"Neg Pred Value";"0.782122905027933"
"Precision";"0.559322033898305"
"Recall";"0.144736842105263"
"F1";"0.229965156794425"
"Prevalence";"0.238993710691824"
"Detection Rate";"0.0345911949685535"
"Detection Prevalence";"0.0618448637316562"
"Balanced Accuracy";"0.554462084964477"
"TP";"33"
"TN";"700"
"FP";"26"
"FN";"195"
