"Metric";"Testing_Set"
"Accuracy";"0.518867924528302"
"Kappa";"0.167159273756405"
"AccuracyLower";"0.486621676486721"
"AccuracyUpper";"0.5509973756882"
"AccuracyNull";"0.761006289308176"
"AccuracyPValue";"1"
"McnemarPValue";"4.82887764377674e-74"
"Sensitivity";"0.850877192982456"
"Specificity";"0.414600550964187"
"Pos Pred Value";"0.313408723747981"
"Neg Pred Value";"0.898507462686567"
"Precision";"0.313408723747981"
"Recall";"0.850877192982456"
"F1";"0.458087367178276"
"Prevalence";"0.238993710691824"
"Detection Rate";"0.20335429769392"
"Detection Prevalence";"0.648846960167715"
"Balanced Accuracy";"0.632738871973322"
"TP";"194"
"TN";"301"
"FP";"425"
"FN";"34"
