"Metric";"Testing_Set"
"Accuracy";"0.747379454926625"
"Kappa";"0.203694852559173"
"AccuracyLower";"0.71854507569885"
"AccuracyUpper";"0.774677677686066"
"AccuracyNull";"0.761006289308176"
"AccuracyPValue";"0.84722941141834"
"McnemarPValue";"6.27032995938007e-08"
"Sensitivity";"0.285087719298246"
"Specificity";"0.892561983471074"
"Pos Pred Value";"0.454545454545455"
"Neg Pred Value";"0.79901356350185"
"Precision";"0.454545454545455"
"Recall";"0.285087719298246"
"F1";"0.350404312668464"
"Prevalence";"0.238993710691824"
"Detection Rate";"0.0681341719077568"
"Detection Prevalence";"0.149895178197065"
"Balanced Accuracy";"0.58882485138466"
"TP";"65"
"TN";"648"
"FP";"78"
"FN";"163"
