"Metric";"Testing_Set"
"Accuracy";"0.444444444444444"
"Kappa";"0.123824244986795"
"AccuracyLower";"0.41260197085022"
"AccuracyUpper";"0.476630859850063"
"AccuracyNull";"0.758909853249476"
"AccuracyPValue";"1"
"McnemarPValue";"9.77804102423365e-102"
"Sensitivity";"0.921739130434783"
"Specificity";"0.292817679558011"
"Pos Pred Value";"0.292817679558011"
"Neg Pred Value";"0.921739130434783"
"Precision";"0.292817679558011"
"Recall";"0.921739130434783"
"F1";"0.444444444444444"
"Prevalence";"0.241090146750524"
"Detection Rate";"0.222222222222222"
"Detection Prevalence";"0.758909853249476"
"Balanced Accuracy";"0.607278404996397"
"TP";"212"
"TN";"212"
"FP";"512"
"FN";"18"
