"Metric";"Testing_Set"
"Accuracy";"0.733752620545073"
"Kappa";"0.240636281588447"
"AccuracyLower";"0.704487535786445"
"AccuracyUpper";"0.761566757994013"
"AccuracyNull";"0.761006289308176"
"AccuracyPValue";"0.976865373838175"
"McnemarPValue";"0.148978685131957"
"Sensitivity";"0.390350877192982"
"Specificity";"0.841597796143251"
"Pos Pred Value";"0.436274509803922"
"Neg Pred Value";"0.814666666666667"
"Precision";"0.436274509803922"
"Recall";"0.390350877192982"
"F1";"0.412037037037037"
"Prevalence";"0.238993710691824"
"Detection Rate";"0.0932914046121593"
"Detection Prevalence";"0.213836477987421"
"Balanced Accuracy";"0.615974336668117"
"TP";"89"
"TN";"611"
"FP";"115"
"FN";"139"
