"Metric";"Testing_Set"
"Accuracy";"0.492662473794549"
"Kappa";"0.135714285714286"
"AccuracyLower";"0.460478203033024"
"AccuracyUpper";"0.524892164987973"
"AccuracyNull";"0.761006289308176"
"AccuracyPValue";"1"
"McnemarPValue";"2.06473973791266e-76"
"Sensitivity";"0.833333333333333"
"Specificity";"0.385674931129477"
"Pos Pred Value";"0.29874213836478"
"Neg Pred Value";"0.880503144654088"
"Precision";"0.29874213836478"
"Recall";"0.833333333333333"
"F1";"0.439814814814815"
"Prevalence";"0.238993710691824"
"Detection Rate";"0.19916142557652"
"Detection Prevalence";"0.666666666666667"
"Balanced Accuracy";"0.609504132231405"
"TP";"190"
"TN";"280"
"FP";"446"
"FN";"38"
