"Metric";"Testing_Set"
"Accuracy";"0.5020964360587"
"Kappa";"0.150994300617152"
"AccuracyLower";"0.469879836972358"
"AccuracyUpper";"0.534300057905764"
"AccuracyNull";"0.761006289308176"
"AccuracyPValue";"1"
"McnemarPValue";"1.88537157120684e-77"
"Sensitivity";"0.850877192982456"
"Specificity";"0.392561983471074"
"Pos Pred Value";"0.305511811023622"
"Neg Pred Value";"0.893416927899687"
"Precision";"0.305511811023622"
"Recall";"0.850877192982456"
"F1";"0.449594438006952"
"Prevalence";"0.238993710691824"
"Detection Rate";"0.20335429769392"
"Detection Prevalence";"0.665618448637317"
"Balanced Accuracy";"0.621719588226765"
"TP";"194"
"TN";"285"
"FP";"441"
"FN";"34"
