"Metric";"Testing_Set"
"Accuracy";"0.535639412997904"
"Kappa";"0.149465676507879"
"AccuracyLower";"0.503399202596816"
"AccuracyUpper";"0.567658998547522"
"AccuracyNull";"0.761006289308176"
"AccuracyPValue";"1"
"McnemarPValue";"4.7129957452107e-56"
"Sensitivity";"0.758771929824561"
"Specificity";"0.465564738292011"
"Pos Pred Value";"0.308377896613191"
"Neg Pred Value";"0.860050890585242"
"Precision";"0.308377896613191"
"Recall";"0.758771929824561"
"F1";"0.438529784537389"
"Prevalence";"0.238993710691824"
"Detection Rate";"0.181341719077568"
"Detection Prevalence";"0.588050314465409"
"Balanced Accuracy";"0.612168334058286"
"TP";"173"
"TN";"338"
"FP";"388"
"FN";"55"
