"Metric";"Testing_Set"
"Accuracy";"0.766247379454927"
"Kappa";"0.174938917975567"
"AccuracyLower";"0.738068790421714"
"AccuracyUpper";"0.792771587379031"
"AccuracyNull";"0.761006289308176"
"AccuracyPValue";"0.36852957056909"
"McnemarPValue";"1.41501030973003e-22"
"Sensitivity";"0.18859649122807"
"Specificity";"0.947658402203857"
"Pos Pred Value";"0.530864197530864"
"Neg Pred Value";"0.788087056128293"
"Precision";"0.530864197530864"
"Recall";"0.18859649122807"
"F1";"0.27831715210356"
"Prevalence";"0.238993710691824"
"Detection Rate";"0.0450733752620545"
"Detection Prevalence";"0.0849056603773585"
"Balanced Accuracy";"0.568127446715963"
"TP";"43"
"TN";"688"
"FP";"38"
"FN";"185"
