"Metric";"Testing_Set"
"Accuracy";"0.755765199161426"
"Kappa";"0.203843922147324"
"AccuracyLower";"0.727213509998493"
"AccuracyUpper";"0.782728225134656"
"AccuracyNull";"0.758909853249476"
"AccuracyPValue";"0.60679059239072"
"McnemarPValue";"1.49109397245587e-12"
"Sensitivity";"0.256521739130435"
"Specificity";"0.914364640883978"
"Pos Pred Value";"0.487603305785124"
"Neg Pred Value";"0.794717887154862"
"Precision";"0.487603305785124"
"Recall";"0.256521739130435"
"F1";"0.336182336182336"
"Prevalence";"0.241090146750524"
"Detection Rate";"0.0618448637316562"
"Detection Prevalence";"0.126834381551363"
"Balanced Accuracy";"0.585443190007206"
"TP";"59"
"TN";"662"
"FP";"62"
"FN";"171"
