"Metric";"Testing_Set"
"Accuracy";"0.776729559748428"
"Kappa";"0.208881310004906"
"AccuracyLower";"0.748946944941615"
"AccuracyUpper";"0.802791970954397"
"AccuracyNull";"0.761006289308176"
"AccuracyPValue";"0.135162925201903"
"McnemarPValue";"3.64131852500916e-24"
"Sensitivity";"0.206140350877193"
"Specificity";"0.955922865013774"
"Pos Pred Value";"0.594936708860759"
"Neg Pred Value";"0.793142857142857"
"Precision";"0.594936708860759"
"Recall";"0.206140350877193"
"F1";"0.306188925081433"
"Prevalence";"0.238993710691824"
"Detection Rate";"0.0492662473794549"
"Detection Prevalence";"0.0828092243186583"
"Balanced Accuracy";"0.581031607945484"
"TP";"47"
"TN";"694"
"FP";"32"
"FN";"181"
