"Metric";"Testing_Set"
"Accuracy";"0.759958071278826"
"Kappa";"0.199142197294622"
"AccuracyLower";"0.731552944199914"
"AccuracyUpper";"0.786748259785745"
"AccuracyNull";"0.761006289308176"
"AccuracyPValue";"0.547910647586546"
"McnemarPValue";"1.78141744182663e-14"
"Sensitivity";"0.241228070175439"
"Specificity";"0.922865013774105"
"Pos Pred Value";"0.495495495495495"
"Neg Pred Value";"0.794780545670225"
"Precision";"0.495495495495495"
"Recall";"0.241228070175439"
"F1";"0.324483775811209"
"Prevalence";"0.238993710691824"
"Detection Rate";"0.0576519916142558"
"Detection Prevalence";"0.116352201257862"
"Balanced Accuracy";"0.582046541974772"
"TP";"55"
"TN";"670"
"FP";"56"
"FN";"173"
