"Metric";"Testing_Set"
"Accuracy";"0.751572327044025"
"Kappa";"0.267897964602343"
"AccuracyLower";"0.722877573599919"
"AccuracyUpper";"0.778704677781425"
"AccuracyNull";"0.758909853249476"
"AccuracyPValue";"0.716363205595093"
"McnemarPValue";"0.00182122932916116"
"Sensitivity";"0.378260869565217"
"Specificity";"0.870165745856354"
"Pos Pred Value";"0.480662983425414"
"Neg Pred Value";"0.815006468305304"
"Precision";"0.480662983425414"
"Recall";"0.378260869565217"
"F1";"0.423357664233577"
"Prevalence";"0.241090146750524"
"Detection Rate";"0.0911949685534591"
"Detection Prevalence";"0.189727463312369"
"Balanced Accuracy";"0.624213307710786"
"TP";"87"
"TN";"630"
"FP";"94"
"FN";"143"
