"Metric";"Testing_Set"
"Accuracy";"0.766247379454927"
"Kappa";"0.119627560521415"
"AccuracyLower";"0.738068790421714"
"AccuracyUpper";"0.792771587379031"
"AccuracyNull";"0.758909853249476"
"AccuracyPValue";"0.313132344080783"
"McnemarPValue";"6.93472572197505e-35"
"Sensitivity";"0.11304347826087"
"Specificity";"0.973756906077348"
"Pos Pred Value";"0.577777777777778"
"Neg Pred Value";"0.775577557755776"
"Precision";"0.577777777777778"
"Recall";"0.11304347826087"
"F1";"0.189090909090909"
"Prevalence";"0.241090146750524"
"Detection Rate";"0.0272536687631027"
"Detection Prevalence";"0.0471698113207547"
"Balanced Accuracy";"0.543400192169109"
"TP";"26"
"TN";"705"
"FP";"19"
"FN";"204"
