"Metric";"Testing_Set"
"Accuracy";"0.750524109014675"
"Kappa";"0.251068714376187"
"AccuracyLower";"0.721794129023901"
"AccuracyUpper";"0.777698249169"
"AccuracyNull";"0.761006289308176"
"AccuracyPValue";"0.788009547417886"
"McnemarPValue";"0.000363689084487633"
"Sensitivity";"0.355263157894737"
"Specificity";"0.87465564738292"
"Pos Pred Value";"0.47093023255814"
"Neg Pred Value";"0.812020460358056"
"Precision";"0.47093023255814"
"Recall";"0.355263157894737"
"F1";"0.405"
"Prevalence";"0.238993710691824"
"Detection Rate";"0.0849056603773585"
"Detection Prevalence";"0.180293501048218"
"Balanced Accuracy";"0.614959402638829"
"TP";"81"
"TN";"635"
"FP";"91"
"FN";"147"
