"Metric";"Testing_Set"
"Accuracy";"0.768343815513627"
"Kappa";"0.098020928700384"
"AccuracyLower";"0.740242557149003"
"AccuracyUpper";"0.794777537029704"
"AccuracyNull";"0.758909853249476"
"AccuracyPValue";"0.261247667955454"
"McnemarPValue";"2.93812963411644e-41"
"Sensitivity";"0.0826086956521739"
"Specificity";"0.986187845303867"
"Pos Pred Value";"0.655172413793103"
"Neg Pred Value";"0.771891891891892"
"Precision";"0.655172413793103"
"Recall";"0.0826086956521739"
"F1";"0.146718146718147"
"Prevalence";"0.241090146750524"
"Detection Rate";"0.019916142557652"
"Detection Prevalence";"0.030398322851153"
"Balanced Accuracy";"0.534398270478021"
"TP";"19"
"TN";"714"
"FP";"10"
"FN";"211"
