"Metric";"Testing_Set"
"Accuracy";"0.773584905660377"
"Kappa";"0.199291243122261"
"AccuracyLower";"0.745681032172592"
"AccuracyUpper";"0.799788334019999"
"AccuracyNull";"0.761006289308176"
"AccuracyPValue";"0.191744179885142"
"McnemarPValue";"1.49224472995005e-23"
"Sensitivity";"0.201754385964912"
"Specificity";"0.953168044077135"
"Pos Pred Value";"0.575"
"Neg Pred Value";"0.791762013729977"
"Precision";"0.575"
"Recall";"0.201754385964912"
"F1";"0.298701298701299"
"Prevalence";"0.238993710691824"
"Detection Rate";"0.0482180293501048"
"Detection Prevalence";"0.0838574423480084"
"Balanced Accuracy";"0.577461215021024"
"TP";"46"
"TN";"692"
"FP";"34"
"FN";"182"
