"Metric";"Testing_Set"
"Accuracy";"0.765199161425577"
"Kappa";"0.113868201496127"
"AccuracyLower";"0.736982250550191"
"AccuracyUpper";"0.791768267489117"
"AccuracyNull";"0.758909853249476"
"AccuracyPValue";"0.340590426388492"
"McnemarPValue";"4.25725113732294e-35"
"Sensitivity";"0.108695652173913"
"Specificity";"0.973756906077348"
"Pos Pred Value";"0.568181818181819"
"Neg Pred Value";"0.774725274725275"
"Precision";"0.568181818181818"
"Recall";"0.108695652173913"
"F1";"0.182481751824818"
"Prevalence";"0.241090146750524"
"Detection Rate";"0.0262054507337526"
"Detection Prevalence";"0.0461215932914046"
"Balanced Accuracy";"0.541226279125631"
"TP";"25"
"TN";"705"
"FP";"19"
"FN";"205"
