"Metric";"Testing_Set"
"Accuracy";"0.761006289308176"
"Kappa";"0.0219080509389162"
"AccuracyLower";"0.732638356491415"
"AccuracyUpper";"0.787752712299018"
"AccuracyNull";"0.758909853249476"
"AccuracyPValue";"0.457367240233184"
"McnemarPValue";"2.33735801170355e-49"
"Sensitivity";"0.0173913043478261"
"Specificity";"0.997237569060773"
"Pos Pred Value";"0.666666666666663"
"Neg Pred Value";"0.761603375527426"
"Precision";"0.666666666666667"
"Recall";"0.0173913043478261"
"F1";"0.0338983050847458"
"Prevalence";"0.241090146750524"
"Detection Rate";"0.00419287211740042"
"Detection Prevalence";"0.00628930817610063"
"Balanced Accuracy";"0.5073144367043"
"TP";"4"
"TN";"722"
"FP";"2"
"FN";"226"
