"Metric";"Testing_Set"
"Accuracy";"0.771488469601677"
"Kappa";"0.162713174549495"
"AccuracyLower";"0.743504940931238"
"AccuracyUpper";"0.797784719765314"
"AccuracyNull";"0.761006289308176"
"AccuracyPValue";"0.236373722291859"
"McnemarPValue";"5.39226114870973e-29"
"Sensitivity";"0.157894736842105"
"Specificity";"0.964187327823691"
"Pos Pred Value";"0.580645161290322"
"Neg Pred Value";"0.7847533632287"
"Precision";"0.580645161290323"
"Recall";"0.157894736842105"
"F1";"0.248275862068966"
"Prevalence";"0.238993710691824"
"Detection Rate";"0.0377358490566038"
"Detection Prevalence";"0.0649895178197065"
"Balanced Accuracy";"0.561041032332898"
"TP";"36"
"TN";"700"
"FP";"26"
"FN";"192"
