"Metric";"Testing_Set"
"Accuracy";"0.746331236897275"
"Kappa";"0.253202391118702"
"AccuracyLower";"0.717462481788484"
"AccuracyUpper";"0.773670394944892"
"AccuracyNull";"0.761006289308176"
"AccuracyPValue";"0.864227770717581"
"McnemarPValue";"0.0057072225748871"
"Sensitivity";"0.37280701754386"
"Specificity";"0.863636363636364"
"Pos Pred Value";"0.46195652173913"
"Neg Pred Value";"0.814285714285714"
"Precision";"0.46195652173913"
"Recall";"0.37280701754386"
"F1";"0.412621359223301"
"Prevalence";"0.238993710691824"
"Detection Rate";"0.0890985324947589"
"Detection Prevalence";"0.192872117400419"
"Balanced Accuracy";"0.618221690590112"
"TP";"85"
"TN";"627"
"FP";"99"
"FN";"143"
