"Metric";"Testing_Set"
"Accuracy";"0.745283018867924"
"Kappa";"0.197086511086635"
"AccuracyLower";"0.71638009836653"
"AccuracyUpper";"0.772662900873209"
"AccuracyNull";"0.761006289308176"
"AccuracyPValue";"0.879869290603316"
"McnemarPValue";"7.10076564953192e-08"
"Sensitivity";"0.280701754385965"
"Specificity";"0.891184573002755"
"Pos Pred Value";"0.447552447552447"
"Neg Pred Value";"0.797780517879161"
"Precision";"0.447552447552448"
"Recall";"0.280701754385965"
"F1";"0.345013477088949"
"Prevalence";"0.238993710691824"
"Detection Rate";"0.0670859538784067"
"Detection Prevalence";"0.149895178197065"
"Balanced Accuracy";"0.58594316369436"
"TP";"64"
"TN";"647"
"FP";"79"
"FN";"164"
