"Metric";"Testing_Set"
"Accuracy";"0.767295597484277"
"Kappa";"0.119091589717993"
"AccuracyLower";"0.739155558931535"
"AccuracyUpper";"0.793774677586431"
"AccuracyNull";"0.761006289308176"
"AccuracyPValue";"0.340153460183735"
"McnemarPValue";"5.88403186181759e-34"
"Sensitivity";"0.114035087719298"
"Specificity";"0.972451790633609"
"Pos Pred Value";"0.565217391304348"
"Neg Pred Value";"0.777533039647577"
"Precision";"0.565217391304348"
"Recall";"0.114035087719298"
"F1";"0.18978102189781"
"Prevalence";"0.238993710691824"
"Detection Rate";"0.0272536687631027"
"Detection Prevalence";"0.0482180293501048"
"Balanced Accuracy";"0.543243439176454"
"TP";"26"
"TN";"706"
"FP";"20"
"FN";"202"
