"Metric";"Testing_Set"
"Accuracy";"0.763102725366876"
"Kappa";"0.0177673299803191"
"AccuracyLower";"0.734809852506628"
"AccuracyUpper";"0.789760942925319"
"AccuracyNull";"0.761006289308176"
"AccuracyPValue";"0.457260807317001"
"McnemarPValue";"8.86537643421376e-50"
"Sensitivity";"0.0131578947368421"
"Specificity";"0.99862258953168"
"Pos Pred Value";"0.750000000000006"
"Neg Pred Value";"0.763157894736842"
"Precision";"0.75"
"Recall";"0.0131578947368421"
"F1";"0.0258620689655172"
"Prevalence";"0.238993710691824"
"Detection Rate";"0.00314465408805031"
"Detection Prevalence";"0.00419287211740042"
"Balanced Accuracy";"0.505890242134261"
"TP";"3"
"TN";"725"
"FP";"1"
"FN";"225"
