"Metric";"Testing_Set"
"Accuracy";"0.764150943396226"
"Kappa";"0.173921075114878"
"AccuracyLower";"0.735895938260051"
"AccuracyUpper";"0.790764718985689"
"AccuracyNull";"0.761006289308176"
"AccuracyPValue";"0.427243181915788"
"McnemarPValue";"2.88916271396141e-21"
"Sensitivity";"0.192982456140351"
"Specificity";"0.943526170798898"
"Pos Pred Value";"0.51764705882353"
"Neg Pred Value";"0.788262370540852"
"Precision";"0.517647058823529"
"Recall";"0.192982456140351"
"F1";"0.281150159744409"
"Prevalence";"0.238993710691824"
"Detection Rate";"0.0461215932914046"
"Detection Prevalence";"0.0890985324947589"
"Balanced Accuracy";"0.568254313469625"
"TP";"44"
"TN";"685"
"FP";"41"
"FN";"184"
