"Metric";"Testing_Set"
"Accuracy";"0.661425576519916"
"Kappa";"0.261960077985409"
"AccuracyLower";"0.630409492611454"
"AccuracyUpper";"0.691441225578787"
"AccuracyNull";"0.758909853249476"
"AccuracyPValue";"0.999999999995212"
"McnemarPValue";"3.10744568175549e-21"
"Sensitivity";"0.669565217391304"
"Specificity";"0.658839779005525"
"Pos Pred Value";"0.384039900249377"
"Neg Pred Value";"0.862567811934901"
"Precision";"0.384039900249377"
"Recall";"0.669565217391304"
"F1";"0.48811410459588"
"Prevalence";"0.241090146750524"
"Detection Rate";"0.161425576519916"
"Detection Prevalence";"0.420335429769392"
"Balanced Accuracy";"0.664202498198415"
"TP";"154"
"TN";"477"
"FP";"247"
"FN";"76"
