"Metric";"Testing_Set"
"Accuracy";"0.59853249475891"
"Kappa";"0.195303725041955"
"AccuracyLower";"0.566637545584576"
"AccuracyUpper";"0.629817257430796"
"AccuracyNull";"0.761006289308176"
"AccuracyPValue";"1"
"McnemarPValue";"3.08673910503605e-36"
"Sensitivity";"0.701754385964912"
"Specificity";"0.566115702479339"
"Pos Pred Value";"0.336842105263158"
"Neg Pred Value";"0.8580375782881"
"Precision";"0.336842105263158"
"Recall";"0.701754385964912"
"F1";"0.455192034139403"
"Prevalence";"0.238993710691824"
"Detection Rate";"0.167714884696017"
"Detection Prevalence";"0.4979035639413"
"Balanced Accuracy";"0.633935044222126"
"TP";"160"
"TN";"411"
"FP";"315"
"FN";"68"
