"Metric";"Testing_Set"
"Accuracy";"0.642557651991614"
"Kappa";"0.241978553553204"
"AccuracyLower";"0.611219071122981"
"AccuracyUpper";"0.673012977923019"
"AccuracyNull";"0.761006289308176"
"AccuracyPValue";"1"
"McnemarPValue";"2.56539958230735e-26"
"Sensitivity";"0.684210526315789"
"Specificity";"0.629476584022039"
"Pos Pred Value";"0.367058823529412"
"Neg Pred Value";"0.863894139886578"
"Precision";"0.367058823529412"
"Recall";"0.684210526315789"
"F1";"0.477794793261868"
"Prevalence";"0.238993710691824"
"Detection Rate";"0.163522012578616"
"Detection Prevalence";"0.445492662473795"
"Balanced Accuracy";"0.656843555168914"
"TP";"156"
"TN";"457"
"FP";"269"
"FN";"72"
