"Metric";"Testing_Set"
"Accuracy";"0.750524109014675"
"Kappa";"0.195569916245057"
"AccuracyLower";"0.721794129023901"
"AccuracyUpper";"0.777698249169"
"AccuracyNull";"0.761006289308176"
"AccuracyPValue";"0.788009547417886"
"McnemarPValue";"3.22460916614003e-10"
"Sensitivity";"0.263157894736842"
"Specificity";"0.903581267217631"
"Pos Pred Value";"0.461538461538462"
"Neg Pred Value";"0.796116504854369"
"Precision";"0.461538461538462"
"Recall";"0.263157894736842"
"F1";"0.335195530726257"
"Prevalence";"0.238993710691824"
"Detection Rate";"0.0628930817610063"
"Detection Prevalence";"0.136268343815514"
"Balanced Accuracy";"0.583369580977236"
"TP";"60"
"TN";"656"
"FP";"70"
"FN";"168"
