"Metric";"Testing_Set"
"Accuracy";"0.720125786163522"
"Kappa";"0.283409010347214"
"AccuracyLower";"0.690463959191618"
"AccuracyUpper";"0.748421749807878"
"AccuracyNull";"0.761006289308176"
"AccuracyPValue";"0.998413304533746"
"McnemarPValue";"0.00330814373752908"
"Sensitivity";"0.521929824561403"
"Specificity";"0.78236914600551"
"Pos Pred Value";"0.429602888086643"
"Neg Pred Value";"0.838995568685377"
"Precision";"0.429602888086643"
"Recall";"0.521929824561403"
"F1";"0.471287128712871"
"Prevalence";"0.238993710691824"
"Detection Rate";"0.124737945492662"
"Detection Prevalence";"0.290356394129979"
"Balanced Accuracy";"0.652149485283457"
"TP";"119"
"TN";"568"
"FP";"158"
"FN";"109"
