"Metric";"Testing_Set"
"Accuracy";"0.509433962264151"
"Kappa";"0.154831675071555"
"AccuracyLower";"0.477200007997054"
"AccuracyUpper";"0.54160951874674"
"AccuracyNull";"0.761006289308176"
"AccuracyPValue";"1"
"McnemarPValue";"1.75856914251729e-74"
"Sensitivity";"0.842105263157895"
"Specificity";"0.40495867768595"
"Pos Pred Value";"0.307692307692308"
"Neg Pred Value";"0.890909090909091"
"Precision";"0.307692307692308"
"Recall";"0.842105263157895"
"F1";"0.450704225352113"
"Prevalence";"0.238993710691824"
"Detection Rate";"0.20125786163522"
"Detection Prevalence";"0.654088050314465"
"Balanced Accuracy";"0.623531970421923"
"TP";"192"
"TN";"294"
"FP";"432"
"FN";"36"
