"Metric";"Testing_Set"
"Accuracy";"0.758909853249476"
"Kappa";"0.113067520372526"
"AccuracyLower";"0.730467754385361"
"AccuracyUpper";"0.7857435838212"
"AccuracyNull";"0.761006289308176"
"AccuracyPValue";"0.577749741663774"
"McnemarPValue";"3.35782263351058e-28"
"Sensitivity";"0.12719298245614"
"Specificity";"0.957300275482094"
"Pos Pred Value";"0.483333333333333"
"Neg Pred Value";"0.777404921700224"
"Precision";"0.483333333333333"
"Recall";"0.12719298245614"
"F1";"0.201388888888889"
"Prevalence";"0.238993710691824"
"Detection Rate";"0.030398322851153"
"Detection Prevalence";"0.0628930817610063"
"Balanced Accuracy";"0.542246628969117"
"TP";"29"
"TN";"695"
"FP";"31"
"FN";"199"
