"Metric";"Testing_Set"
"Accuracy";"0.760180995475113"
"Kappa";"0.40636561755613"
"AccuracyLower";"0.69834070771112"
"AccuracyUpper";"0.814899125591325"
"AccuracyNull";"0.755656108597285"
"AccuracyPValue";"0.474113656869083"
"McnemarPValue";"0.0544740351061957"
"Sensitivity";"0.648148148148148"
"Specificity";"0.796407185628742"
"Pos Pred Value";"0.507246376811594"
"Neg Pred Value";"0.875"
"Precision";"0.507246376811594"
"Recall";"0.648148148148148"
"F1";"0.569105691056911"
"Prevalence";"0.244343891402715"
"Detection Rate";"0.158371040723982"
"Detection Prevalence";"0.312217194570136"
"Balanced Accuracy";"0.722277666888445"
"TP";"35"
"TN";"133"
"FP";"34"
"FN";"19"
