"Metric";"Testing_Set"
"Accuracy";"0.70335429769392"
"Kappa";"0.246798680972866"
"AccuracyLower";"0.673248529053065"
"AccuracyUpper";"0.73219877348125"
"AccuracyNull";"0.761006289308176"
"AccuracyPValue";"0.999980665814992"
"McnemarPValue";"0.00132750299190828"
"Sensitivity";"0.5"
"Specificity";"0.767217630853995"
"Pos Pred Value";"0.402826855123675"
"Neg Pred Value";"0.830104321907601"
"Precision";"0.402826855123675"
"Recall";"0.5"
"F1";"0.446183953033268"
"Prevalence";"0.238993710691824"
"Detection Rate";"0.119496855345912"
"Detection Prevalence";"0.29664570230608"
"Balanced Accuracy";"0.633608815426997"
"TP";"114"
"TN";"557"
"FP";"169"
"FN";"114"
