"Metric";"Testing_Set"
"Accuracy";"0.628930817610063"
"Kappa";"0.231800191074109"
"AccuracyLower";"0.597391228698531"
"AccuracyUpper";"0.659671719516865"
"AccuracyNull";"0.761006289308176"
"AccuracyPValue";"1"
"McnemarPValue";"8.95157290831747e-31"
"Sensitivity";"0.701754385964912"
"Specificity";"0.606060606060606"
"Pos Pred Value";"0.358744394618834"
"Neg Pred Value";"0.866141732283465"
"Precision";"0.358744394618834"
"Recall";"0.701754385964912"
"F1";"0.474777448071217"
"Prevalence";"0.238993710691824"
"Detection Rate";"0.167714884696017"
"Detection Prevalence";"0.467505241090147"
"Balanced Accuracy";"0.653907496012759"
"TP";"160"
"TN";"440"
"FP";"286"
"FN";"68"
