"Metric";"Testing_Set"
"Accuracy";"0.687631027253669"
"Kappa";"0.266963705560197"
"AccuracyLower";"0.657151463609599"
"AccuracyUpper";"0.716947205119959"
"AccuracyNull";"0.761006289308176"
"AccuracyPValue";"0.999999897607075"
"McnemarPValue";"5.91325069060113e-11"
"Sensitivity";"0.596491228070175"
"Specificity";"0.716253443526171"
"Pos Pred Value";"0.39766081871345"
"Neg Pred Value";"0.849673202614379"
"Precision";"0.39766081871345"
"Recall";"0.596491228070175"
"F1";"0.47719298245614"
"Prevalence";"0.238993710691824"
"Detection Rate";"0.142557651991614"
"Detection Prevalence";"0.358490566037736"
"Balanced Accuracy";"0.656372335798173"
"TP";"136"
"TN";"520"
"FP";"206"
"FN";"92"
