"Metric";"Testing_Set"
"Accuracy";"0.762054507337526"
"Kappa";"0.0326445284232535"
"AccuracyLower";"0.73372399225732"
"AccuracyUpper";"0.788756940352339"
"AccuracyNull";"0.758909853249476"
"AccuracyPValue";"0.427438268301727"
"McnemarPValue";"2.73074573835952e-48"
"Sensitivity";"0.0260869565217391"
"Specificity";"0.99585635359116"
"Pos Pred Value";"0.666666666666666"
"Neg Pred Value";"0.762962962962963"
"Precision";"0.666666666666667"
"Recall";"0.0260869565217391"
"F1";"0.0502092050209205"
"Prevalence";"0.241090146750524"
"Detection Rate";"0.00628930817610063"
"Detection Prevalence";"0.00943396226415094"
"Balanced Accuracy";"0.51097165505645"
"TP";"6"
"TN";"721"
"FP";"3"
"FN";"224"
