"Metric";"Testing_Set"
"Accuracy";"0.745283018867924"
"Kappa";"0.208014758634826"
"AccuracyLower";"0.71638009836653"
"AccuracyUpper";"0.772662900873209"
"AccuracyNull";"0.761006289308176"
"AccuracyPValue";"0.879869290603316"
"McnemarPValue";"1.08586944046839e-06"
"Sensitivity";"0.298245614035088"
"Specificity";"0.885674931129477"
"Pos Pred Value";"0.450331125827815"
"Neg Pred Value";"0.800747198007472"
"Precision";"0.450331125827815"
"Recall";"0.298245614035088"
"F1";"0.358839050131926"
"Prevalence";"0.238993710691824"
"Detection Rate";"0.0712788259958071"
"Detection Prevalence";"0.158280922431866"
"Balanced Accuracy";"0.591960272582282"
"TP";"68"
"TN";"643"
"FP";"83"
"FN";"160"
