"Metric";"Testing_Set"
"Accuracy";"0.465408805031447"
"Kappa";"0.117262850797936"
"AccuracyLower";"0.433381303954283"
"AccuracyUpper";"0.497650441326306"
"AccuracyNull";"0.761006289308176"
"AccuracyPValue";"1"
"McnemarPValue";"6.37159346597732e-85"
"Sensitivity";"0.850877192982456"
"Specificity";"0.34435261707989"
"Pos Pred Value";"0.28955223880597"
"Neg Pred Value";"0.880281690140845"
"Precision";"0.28955223880597"
"Recall";"0.850877192982456"
"F1";"0.432071269487751"
"Prevalence";"0.238993710691824"
"Detection Rate";"0.20335429769392"
"Detection Prevalence";"0.70230607966457"
"Balanced Accuracy";"0.597614905031173"
"TP";"194"
"TN";"250"
"FP";"476"
"FN";"34"
