"Metric";"Testing_Set"
"Accuracy";"0.733031674208145"
"Kappa";"0.33150474237375"
"AccuracyLower";"0.669562335864257"
"AccuracyUpper";"0.790132663355485"
"AccuracyNull";"0.755656108597285"
"AccuracyPValue";"0.806348771308634"
"McnemarPValue";"0.118225118723923"
"Sensitivity";"0.574074074074074"
"Specificity";"0.784431137724551"
"Pos Pred Value";"0.462686567164179"
"Neg Pred Value";"0.850649350649351"
"Precision";"0.462686567164179"
"Recall";"0.574074074074074"
"F1";"0.512396694214876"
"Prevalence";"0.244343891402715"
"Detection Rate";"0.14027149321267"
"Detection Prevalence";"0.30316742081448"
"Balanced Accuracy";"0.679252605899312"
"TP";"31"
"TN";"131"
"FP";"36"
"FN";"23"
