"Metric";"Testing_Set"
"Accuracy";"0.713836477987421"
"Kappa";"0.216833558863329"
"AccuracyLower";"0.684002558892935"
"AccuracyUpper";"0.742343765608677"
"AccuracyNull";"0.761006289308176"
"AccuracyPValue";"0.999649179728948"
"McnemarPValue";"0.903654991162751"
"Sensitivity";"0.407894736842105"
"Specificity";"0.809917355371901"
"Pos Pred Value";"0.402597402597403"
"Neg Pred Value";"0.813278008298755"
"Precision";"0.402597402597403"
"Recall";"0.407894736842105"
"F1";"0.405228758169935"
"Prevalence";"0.238993710691824"
"Detection Rate";"0.0974842767295598"
"Detection Prevalence";"0.242138364779874"
"Balanced Accuracy";"0.608906046107003"
"TP";"93"
"TN";"588"
"FP";"138"
"FN";"135"
