"Metric";"Testing_Set"
"Accuracy";"0.776729559748428"
"Kappa";"0.142368760920762"
"AccuracyLower";"0.748946944941615"
"AccuracyUpper";"0.802791970954397"
"AccuracyNull";"0.761006289308176"
"AccuracyPValue";"0.135162925201903"
"McnemarPValue";"5.7177300114053e-38"
"Sensitivity";"0.118421052631579"
"Specificity";"0.983471074380165"
"Pos Pred Value";"0.692307692307693"
"Neg Pred Value";"0.780327868852459"
"Precision";"0.692307692307692"
"Recall";"0.118421052631579"
"F1";"0.202247191011236"
"Prevalence";"0.238993710691824"
"Detection Rate";"0.0283018867924528"
"Detection Prevalence";"0.0408805031446541"
"Balanced Accuracy";"0.550946063505872"
"TP";"27"
"TN";"714"
"FP";"12"
"FN";"201"
