"Metric";"Testing_Set"
"Accuracy";"0.518867924528302"
"Kappa";"0.165578587517007"
"AccuracyLower";"0.486621676486721"
"AccuracyUpper";"0.5509973756882"
"AccuracyNull";"0.761006289308176"
"AccuracyPValue";"1"
"McnemarPValue";"2.64356597481497e-73"
"Sensitivity";"0.846491228070175"
"Specificity";"0.415977961432507"
"Pos Pred Value";"0.312803889789303"
"Neg Pred Value";"0.896142433234421"
"Precision";"0.312803889789303"
"Recall";"0.846491228070175"
"F1";"0.456804733727811"
"Prevalence";"0.238993710691824"
"Detection Rate";"0.20230607966457"
"Detection Prevalence";"0.646750524109015"
"Balanced Accuracy";"0.631234594751341"
"TP";"193"
"TN";"302"
"FP";"424"
"FN";"35"
