"Metric";"Testing_Set"
"Accuracy";"0.769392033542977"
"Kappa";"0.155031644040775"
"AccuracyLower";"0.741329786156085"
"AccuracyUpper";"0.795780164614427"
"AccuracyNull";"0.761006289308176"
"AccuracyPValue";"0.28608111694836"
"McnemarPValue";"9.55553842859246e-29"
"Sensitivity";"0.153508771929825"
"Specificity";"0.962809917355372"
"Pos Pred Value";"0.564516129032258"
"Neg Pred Value";"0.783632286995516"
"Precision";"0.564516129032258"
"Recall";"0.153508771929825"
"F1";"0.241379310344828"
"Prevalence";"0.238993710691824"
"Detection Rate";"0.0366876310272537"
"Detection Prevalence";"0.0649895178197065"
"Balanced Accuracy";"0.558159344642598"
"TP";"35"
"TN";"699"
"FP";"27"
"FN";"193"
