"Metric";"Testing_Set"
"Accuracy";"0.746331236897275"
"Kappa";"0.199009117781756"
"AccuracyLower";"0.717462481788484"
"AccuracyUpper";"0.773670394944892"
"AccuracyNull";"0.761006289308176"
"AccuracyPValue";"0.864227770717581"
"McnemarPValue";"4.65505309628099e-08"
"Sensitivity";"0.280701754385965"
"Specificity";"0.892561983471074"
"Pos Pred Value";"0.450704225352113"
"Neg Pred Value";"0.798029556650246"
"Precision";"0.450704225352113"
"Recall";"0.280701754385965"
"F1";"0.345945945945946"
"Prevalence";"0.238993710691824"
"Detection Rate";"0.0670859538784067"
"Detection Prevalence";"0.148846960167715"
"Balanced Accuracy";"0.58663186892852"
"TP";"64"
"TN";"648"
"FP";"78"
"FN";"164"
