"Metric";"Testing_Set"
"Accuracy";"0.769392033542977"
"Kappa";"0.122501881428213"
"AccuracyLower";"0.741329786156085"
"AccuracyUpper";"0.795780164614427"
"AccuracyNull";"0.758909853249476"
"AccuracyPValue";"0.237033150648126"
"McnemarPValue";"3.43757459231786e-37"
"Sensitivity";"0.108695652173913"
"Specificity";"0.979281767955801"
"Pos Pred Value";"0.625"
"Neg Pred Value";"0.775711159737418"
"Precision";"0.625"
"Recall";"0.108695652173913"
"F1";"0.185185185185185"
"Prevalence";"0.241090146750524"
"Detection Rate";"0.0262054507337526"
"Detection Prevalence";"0.0419287211740042"
"Balanced Accuracy";"0.543988710064857"
"TP";"25"
"TN";"709"
"FP";"15"
"FN";"205"
