"Metric";"Testing_Set"
"Accuracy";"0.762054507337526"
"Kappa";"0.0200906795536612"
"AccuracyLower";"0.73372399225732"
"AccuracyUpper";"0.788756940352339"
"AccuracyNull";"0.761006289308176"
"AccuracyPValue";"0.487493726423534"
"McnemarPValue";"2.73074573835952e-48"
"Sensitivity";"0.0175438596491228"
"Specificity";"0.995867768595041"
"Pos Pred Value";"0.571428571428572"
"Neg Pred Value";"0.763463569165787"
"Precision";"0.571428571428571"
"Recall";"0.0175438596491228"
"F1";"0.0340425531914894"
"Prevalence";"0.238993710691824"
"Detection Rate";"0.00419287211740042"
"Detection Prevalence";"0.00733752620545073"
"Balanced Accuracy";"0.506705814122082"
"TP";"4"
"TN";"723"
"FP";"3"
"FN";"224"
