"Metric";"Testing_Set"
"Accuracy";"0.663522012578616"
"Kappa";"0.26998498176357"
"AccuracyLower";"0.632545000616666"
"AccuracyUpper";"0.693485562804938"
"AccuracyNull";"0.758909853249476"
"AccuracyPValue";"0.999999999987368"
"McnemarPValue";"2.68728755667804e-22"
"Sensitivity";"0.682608695652174"
"Specificity";"0.657458563535912"
"Pos Pred Value";"0.387654320987654"
"Neg Pred Value";"0.867030965391621"
"Precision";"0.387654320987654"
"Recall";"0.682608695652174"
"F1";"0.494488188976378"
"Prevalence";"0.241090146750524"
"Detection Rate";"0.164570230607966"
"Detection Prevalence";"0.424528301886792"
"Balanced Accuracy";"0.670033629594043"
"TP";"157"
"TN";"476"
"FP";"248"
"FN";"73"
