"Metric";"Testing_Set"
"Accuracy";"0.755765199161426"
"Kappa";"0.268554166913463"
"AccuracyLower";"0.727213509998493"
"AccuracyUpper";"0.782728225134656"
"AccuracyNull";"0.758909853249476"
"AccuracyPValue";"0.60679059239072"
"McnemarPValue";"0.00014486765212147"
"Sensitivity";"0.365217391304348"
"Specificity";"0.879834254143646"
"Pos Pred Value";"0.491228070175438"
"Neg Pred Value";"0.813537675606641"
"Precision";"0.491228070175439"
"Recall";"0.365217391304348"
"F1";"0.418952618453865"
"Prevalence";"0.241090146750524"
"Detection Rate";"0.0880503144654088"
"Detection Prevalence";"0.179245283018868"
"Balanced Accuracy";"0.622525822723997"
"TP";"84"
"TN";"637"
"FP";"87"
"FN";"146"
