"Metric";"Testing_Set"
"Accuracy";"0.762054507337526"
"Kappa";"0.172918719494031"
"AccuracyLower";"0.73372399225732"
"AccuracyUpper";"0.788756940352339"
"AccuracyNull";"0.761006289308176"
"AccuracyPValue";"0.487493726423534"
"McnemarPValue";"5.21955121864323e-20"
"Sensitivity";"0.197368421052632"
"Specificity";"0.939393939393939"
"Pos Pred Value";"0.50561797752809"
"Neg Pred Value";"0.788439306358382"
"Precision";"0.50561797752809"
"Recall";"0.197368421052632"
"F1";"0.28391167192429"
"Prevalence";"0.238993710691824"
"Detection Rate";"0.0471698113207547"
"Detection Prevalence";"0.0932914046121593"
"Balanced Accuracy";"0.568381180223286"
"TP";"45"
"TN";"682"
"FP";"44"
"FN";"183"
