"Metric";"Testing_Set"
"Accuracy";"0.774633123689727"
"Kappa";"0.195211526237729"
"AccuracyLower";"0.74676943181274"
"AccuracyUpper";"0.800789785433397"
"AccuracyNull";"0.761006289308176"
"AccuracyPValue";"0.171476767867653"
"McnemarPValue";"3.52874866785658e-25"
"Sensitivity";"0.192982456140351"
"Specificity";"0.957300275482094"
"Pos Pred Value";"0.586666666666666"
"Neg Pred Value";"0.790671217292378"
"Precision";"0.586666666666667"
"Recall";"0.192982456140351"
"F1";"0.29042904290429"
"Prevalence";"0.238993710691824"
"Detection Rate";"0.0461215932914046"
"Detection Prevalence";"0.0786163522012579"
"Balanced Accuracy";"0.575141365811222"
"TP";"44"
"TN";"695"
"FP";"31"
"FN";"184"
