c<A>r<23>R<PRO> 1.2
c<A>r<24>R<VAL> 1
c<A>r<25>R<LEU> 1.83333
c<A>r<26>R<ASP> 1.5
c<A>r<27>R<GLN> 1.125
c<A>r<36>R<ARG> 1.2
c<A>r<37>R<VAL> 1.75
c<A>r<38>R<TYR> 2
c<A>r<39>R<HIS> 1
c<A>r<132>R<GLN> 1.66667
c<A>r<134>R<ARG> 1
c<A>r<139>R<ASP> 1
c<A>r<140>R<SER> 1
c<A>r<198>R<PRO> 1
c<A>r<200>R<SER> 1
c<A>r<214>R<VAL> 2
c<A>r<215>R<ASP> 1.28571
c<A>r<216>R<SER> 1
c<A>r<217>R<ILE> 1.33333
c<A>r<218>R<GLY> 1.5
c<A>r<219>R<MET> 2
c<A>r<220>R<LEU> 1.2
c<A>r<221>R<PRO> 1.6
c<A>r<222>R<ARG> 1.16667
c<A>r<223>R<PHE> 1
c<A>r<227>R<ASN> 1
c<A>r<230>R<THR> 1.5
c<A>r<231>R<VAL> 1.5
c<A>r<234>R<TYR> 1.625
c<A>r<235>R<SER> 1
c<A>r<238>R<ILE> 1
