c<A>r<5>R<MET> 1.5
c<A>r<6>R<ARG> 1
c<A>r<7>R<TYR> 2
c<A>r<8>R<PHE> 1.5
c<A>r<9>R<TYR> 1.5
c<A>r<10>R<THR> 1
c<A>r<12>R<VAL> 1
c<A>r<13>R<SER> 1
c<A>r<14>R<ARG> 1
c<A>r<17>R<ARG> 1
c<A>r<21>R<ARG> 1
c<A>r<23>R<ILE> 1.25
c<A>r<25>R<VAL> 1.66667
c<A>r<27>R<TYR> 1
c<A>r<32>R<GLN> 1.5
c<A>r<35>R<ARG> 1.25
c<A>r<37>R<ASP> 1
c<A>r<45>R<MET> 1
c<A>r<48>R<ARG> 1.8
c<A>r<59>R<TYR> 1.8
c<A>r<62>R<GLN> 1
c<A>r<63>R<GLU> 2.16667
c<A>r<66>R<ASN> 1.57143
c<A>r<67>R<VAL> 1.66667
c<A>r<69>R<ALA> 1.33333
c<A>r<70>R<GLN> 1.5
c<A>r<72>R<GLN> 1.2
c<A>r<73>R<THR> 1.25
c<A>r<74>R<ASP> 1
c<A>r<75>R<ARG> 1
c<A>r<76>R<VAL> 1
c<A>r<77>R<ASP> 1.6
c<A>r<79>R<GLY> 1.33333
c<A>r<80>R<THR> 1.4
c<A>r<81>R<LEU> 1.66667
c<A>r<82>R<ARG> 1
c<A>r<83>R<GLY> 1
c<A>r<84>R<TYR> 1.25
c<A>r<89>R<GLU> 1
c<A>r<92>R<SER> 1
c<A>r<94>R<THR> 1.66667
c<A>r<95>R<ILE> 1
c<A>r<96>R<GLN> 2.42857
c<A>r<97>R<ILE> 2.16667
c<A>r<98>R<MET> 1.8
c<A>r<99>R<TYR> 1.8
c<A>r<105>R<PRO> 1
c<A>r<106>R<ASP> 1.4
c<A>r<107>R<GLY> 1.5
c<A>r<108>R<ARG> 1.28571
c<A>r<111>R<ARG> 1
c<A>r<114>R<ARG> 1.6
c<A>r<115>R<GLN> 1.4
c<A>r<116>R<ASP> 1.66667
c<A>r<117>R<ALA> 1.66667
c<A>r<119>R<ASP> 1.16667
c<A>r<120>R<GLY> 1.5
c<A>r<121>R<LYS> 1.28571
c<A>r<122>R<ASP> 1.33333
c<A>r<123>R<TYR> 1.66667
c<A>r<124>R<ILE> 2
c<A>r<133>R<TRP> 3
c<A>r<142>R<ILE> 1
c<A>r<143>R<THR> 2.33333
c<A>r<145>R<ARG> 1.25
c<A>r<146>R<LYS> 1.33333
c<A>r<147>R<TRP> 2
c<A>r<148>R<GLU> 1
c<A>r<149>R<ALA> 1.6
c<A>r<150>R<ALA> 1.25
c<A>r<151>R<HIS> 1
c<A>r<152>R<ALA> 2
c<A>r<155>R<GLN> 1.28571
c<A>r<156>R<GLN> 2.16667
c<A>r<159>R<TYR> 1.875
c<A>r<163>R<ARG> 1.625
c<A>r<164>R<CYS> 1.5
c<A>r<166>R<GLU> 1
c<A>r<167>R<TRP> 1.6
c<A>r<169>R<ARG> 1.42857
c<A>r<170>R<ARG> 1
c<A>r<171>R<TYR> 2
c<A>r<172>R<LEU> 1
c<A>r<173>R<GLU> 1.14286
c<A>r<176>R<LYS> 1
c<A>r<180>R<GLN> 1
c<A>r<186>R<LYS> 1
c<A>r<188>R<HIS> 1
c<A>r<190>R<THR> 1.66667
c<A>r<192>R<HIS> 1
c<A>r<202>R<ARG> 1.66667
c<A>r<204>R<TRP> 1.25
c<A>r<206>R<LEU> 1
c<A>r<229>R<GLU> 1
c<A>r<231>R<VAL> 1.33333
c<A>r<232>R<GLU> 1.42857
c<A>r<233>R<THR> 1
c<A>r<234>R<ARG> 1.88889
c<A>r<235>R<PRO> 1.5
c<A>r<236>R<ALA> 1.75
c<A>r<237>R<GLY> 1.25
c<A>r<238>R<ASP> 1.4
c<A>r<242>R<GLN> 1.5
c<A>r<244>R<TRP> 1.25
