Stochastic Gradient Boosting 

518 samples
 16 predictor
  2 classes: 'HS', 'NHS' 

No pre-processing
Resampling: Cross-Validated (10 fold, repeated 3 times) 
Summary of sample sizes: 467, 466, 466, 467, 466, 466, ... 
Resampling results across tuning parameters:

  interaction.depth  n.minobsinnode  n.trees  ROC        Sens       Spec     
  1                   5              2000     0.7927789  0.1848291  0.9769231
  1                   5              2100     0.7931021  0.1929487  0.9743590
  1                   5              2200     0.7945431  0.1955128  0.9726496
  1                   5              2300     0.7949978  0.2083333  0.9683761
  1                   5              2400     0.7963018  0.2108974  0.9675214
  1                   5              2500     0.7971072  0.2292735  0.9658120
  1                   5              2600     0.7970305  0.2448718  0.9658120
  1                   5              2700     0.7982303  0.2474359  0.9649573
  1                   5              2800     0.7995617  0.2602564  0.9649573
  1                   5              2900     0.7999069  0.2732906  0.9632479
  1                   5              3000     0.8009862  0.2786325  0.9598291
  1                   5              3100     0.8014574  0.2865385  0.9598291
  1                   5              3200     0.8022463  0.2942308  0.9589744
  1                   5              3300     0.8030353  0.3019231  0.9581197
  1                   5              3400     0.8027833  0.3072650  0.9572650
  1                   5              3500     0.8039174  0.3175214  0.9564103
  1                   5              3600     0.8043338  0.3175214  0.9555556
  1                   5              3700     0.8048762  0.3254274  0.9538462
  1                   5              3800     0.8055939  0.3254274  0.9529915
  1                   5              3900     0.8056651  0.3433761  0.9529915
  1                   5              4000     0.8054624  0.3459402  0.9521368
  1                   5              4100     0.8054021  0.3510684  0.9512821
  1                   5              4200     0.8057309  0.3617521  0.9495726
  1                   5              4300     0.8057857  0.3643162  0.9495726
  1                   5              4400     0.8056158  0.3643162  0.9487179
  1                   5              4500     0.8055446  0.3670940  0.9495726
  1                   5              4600     0.8054898  0.3698718  0.9470085
  1                   5              4700     0.8056432  0.3724359  0.9444444
  1                   5              4800     0.8059829  0.3750000  0.9452991
  1                   5              4900     0.8062514  0.3775641  0.9452991
  1                   5              5000     0.8065965  0.3852564  0.9452991
  1                  10              2000     0.7927049  0.1850427  0.9752137
  1                  10              2100     0.7934939  0.1955128  0.9743590
  1                  10              2200     0.7943157  0.2006410  0.9726496
  1                  10              2300     0.7954115  0.2057692  0.9683761
  1                  10              2400     0.7966059  0.2185897  0.9658120
  1                  10              2500     0.7971565  0.2262821  0.9649573
  1                  10              2600     0.7971893  0.2444444  0.9649573
  1                  10              2700     0.7979290  0.2579060  0.9641026
  1                  10              2800     0.7978797  0.2681624  0.9615385
  1                  10              2900     0.7991508  0.2760684  0.9615385
  1                  10              3000     0.8000822  0.2916667  0.9615385
  1                  10              3100     0.8005588  0.2993590  0.9606838
  1                  10              3200     0.8009643  0.3019231  0.9598291
  1                  10              3300     0.8019012  0.3098291  0.9589744
  1                  10              3400     0.8024326  0.3177350  0.9581197
  1                  10              3500     0.8035667  0.3254274  0.9564103
  1                  10              3600     0.8038955  0.3305556  0.9547009
  1                  10              3700     0.8046406  0.3356838  0.9547009
  1                  10              3800     0.8051008  0.3382479  0.9538462
  1                  10              3900     0.8053693  0.3461538  0.9521368
  1                  10              4000     0.8062404  0.3489316  0.9521368
  1                  10              4100     0.8058843  0.3542735  0.9512821
  1                  10              4200     0.8066185  0.3594017  0.9504274
  1                  10              4300     0.8067061  0.3645299  0.9487179
  1                  10              4400     0.8068924  0.3724359  0.9487179
  1                  10              4500     0.8070294  0.3750000  0.9487179
  1                  10              4600     0.8070294  0.3801282  0.9487179
  1                  10              4700     0.8072430  0.3826923  0.9478632
  1                  10              4800     0.8075170  0.3852564  0.9470085
  1                  10              4900     0.8083224  0.3852564  0.9461538
  1                  10              5000     0.8083881  0.3852564  0.9461538
  2                   5              2000     0.8055829  0.3017094  0.9658120
  2                   5              2100     0.8064760  0.3175214  0.9606838
  2                   5              2200     0.8066897  0.3200855  0.9606838
  2                   5              2300     0.8070896  0.3252137  0.9606838
  2                   5              2400     0.8078895  0.3354701  0.9581197
  2                   5              2500     0.8082292  0.3433761  0.9581197
  2                   5              2600     0.8087059  0.3564103  0.9564103
  2                   5              2700     0.8094236  0.3615385  0.9555556
  2                   5              2800     0.8092812  0.3668803  0.9529915
  2                   5              2900     0.8092264  0.3668803  0.9512821
  2                   5              3000     0.8096373  0.3720085  0.9495726
  2                   5              3100     0.8098510  0.3745726  0.9495726
  2                   5              3200     0.8103824  0.3771368  0.9495726
  2                   5              3300     0.8099879  0.3822650  0.9495726
  2                   5              3400     0.8098455  0.3848291  0.9495726
  2                   5              3500     0.8095825  0.3950855  0.9470085
  2                   5              3600     0.8098674  0.3948718  0.9461538
  2                   5              3700     0.8095880  0.3974359  0.9461538
  2                   5              3800     0.8094729  0.4000000  0.9452991
  2                   5              3900     0.8099386  0.4051282  0.9435897
  2                   5              4000     0.8096099  0.4079060  0.9435897
  2                   5              4100     0.8098729  0.4079060  0.9427350
  2                   5              4200     0.8099386  0.4079060  0.9427350
  2                   5              4300     0.8102948  0.4079060  0.9418803
  2                   5              4400     0.8105413  0.4155983  0.9418803
  2                   5              4500     0.8107002  0.4183761  0.9418803
  2                   5              4600     0.8102455  0.4183761  0.9418803
  2                   5              4700     0.8104372  0.4262821  0.9410256
  2                   5              4800     0.8099660  0.4262821  0.9401709
  2                   5              4900     0.8100482  0.4262821  0.9393162
  2                   5              5000     0.8102564  0.4262821  0.9401709
  2                  10              2000     0.8064979  0.3042735  0.9666667
  2                  10              2100     0.8078457  0.3121795  0.9632479
  2                  10              2200     0.8083826  0.3277778  0.9606838
  2                  10              2300     0.8096537  0.3329060  0.9581197
  2                  10              2400     0.8097304  0.3408120  0.9581197
  2                  10              2500     0.8099167  0.3561966  0.9564103
  2                  10              2600     0.8098565  0.3666667  0.9555556
  2                  10              2700     0.8095989  0.3720085  0.9529915
  2                  10              2800     0.8098619  0.3720085  0.9529915
  2                  10              2900     0.8105961  0.3771368  0.9529915
  2                  10              3000     0.8114508  0.3743590  0.9512821
  2                  10              3100     0.8110673  0.3822650  0.9504274
  2                  10              3200     0.8108646  0.3794872  0.9504274
  2                  10              3300     0.8105413  0.3871795  0.9495726
  2                  10              3400     0.8107276  0.3923077  0.9495726
  2                  10              3500     0.8104756  0.3923077  0.9495726
  2                  10              3600     0.8106071  0.4000000  0.9495726
  2                  10              3700     0.8106618  0.4051282  0.9495726
  2                  10              3800     0.8108646  0.4079060  0.9487179
  2                  10              3900     0.8105742  0.4079060  0.9478632
  2                  10              4000     0.8107385  0.4079060  0.9478632
  2                  10              4100     0.8109961  0.4079060  0.9452991
  2                  10              4200     0.8106673  0.4104701  0.9452991
  2                  10              4300     0.8103222  0.4155983  0.9452991
  2                  10              4400     0.8103167  0.4155983  0.9435897
  2                  10              4500     0.8102455  0.4155983  0.9435897
  2                  10              4600     0.8103167  0.4155983  0.9435897
  2                  10              4700     0.8103989  0.4155983  0.9435897
  2                  10              4800     0.8110837  0.4155983  0.9427350
  2                  10              4900     0.8110125  0.4155983  0.9427350
  2                  10              5000     0.8115385  0.4155983  0.9427350

Tuning parameter 'shrinkage' was held constant at a value of 0.001
ROC was used to select the optimal model using  the largest value.
The final values used for the model were n.trees = 5000, interaction.depth = 2,
 shrinkage = 0.001 and n.minobsinnode = 10. 
