CART 

518 samples
 16 predictor
  2 classes: 'HS', 'NHS' 

No pre-processing
Resampling: Cross-Validated (10 fold, repeated 3 times) 
Summary of sample sizes: 467, 466, 466, 466, 466, 467, ... 
Resampling results across tuning parameters:

  cp    ROC        Sens        Spec     
  0.01  0.7369466  0.42692308  0.8649573
  0.02  0.6816924  0.37371795  0.8888889
  0.03  0.6543995  0.32863248  0.8974359
  0.04  0.6208416  0.25876068  0.9179487
  0.05  0.6107303  0.23568376  0.9188034
  0.06  0.6105002  0.22286325  0.9222222
  0.07  0.6038407  0.21858974  0.9102564
  0.08  0.5687486  0.16089744  0.9213675
  0.09  0.5461812  0.12371795  0.9333333
  0.10  0.5218606  0.07008547  0.9589744
  0.11  0.5096976  0.04102564  0.9760684
  0.12  0.5101249  0.03589744  0.9820513
  0.13  0.5017094  0.01025641  0.9931624
  0.14  0.5000000  0.00000000  1.0000000
  0.15  0.5000000  0.00000000  1.0000000
  0.16  0.5000000  0.00000000  1.0000000
  0.17  0.5000000  0.00000000  1.0000000
  0.18  0.5000000  0.00000000  1.0000000
  0.19  0.5000000  0.00000000  1.0000000
  0.20  0.5000000  0.00000000  1.0000000
  0.21  0.5000000  0.00000000  1.0000000
  0.22  0.5000000  0.00000000  1.0000000
  0.23  0.5000000  0.00000000  1.0000000
  0.24  0.5000000  0.00000000  1.0000000
  0.25  0.5000000  0.00000000  1.0000000
  0.26  0.5000000  0.00000000  1.0000000
  0.27  0.5000000  0.00000000  1.0000000
  0.28  0.5000000  0.00000000  1.0000000
  0.29  0.5000000  0.00000000  1.0000000
  0.30  0.5000000  0.00000000  1.0000000
  0.31  0.5000000  0.00000000  1.0000000
  0.32  0.5000000  0.00000000  1.0000000
  0.33  0.5000000  0.00000000  1.0000000
  0.34  0.5000000  0.00000000  1.0000000
  0.35  0.5000000  0.00000000  1.0000000
  0.36  0.5000000  0.00000000  1.0000000
  0.37  0.5000000  0.00000000  1.0000000
  0.38  0.5000000  0.00000000  1.0000000
  0.39  0.5000000  0.00000000  1.0000000
  0.40  0.5000000  0.00000000  1.0000000
  0.41  0.5000000  0.00000000  1.0000000
  0.42  0.5000000  0.00000000  1.0000000
  0.43  0.5000000  0.00000000  1.0000000
  0.44  0.5000000  0.00000000  1.0000000
  0.45  0.5000000  0.00000000  1.0000000
  0.46  0.5000000  0.00000000  1.0000000
  0.47  0.5000000  0.00000000  1.0000000
  0.48  0.5000000  0.00000000  1.0000000
  0.49  0.5000000  0.00000000  1.0000000
  0.50  0.5000000  0.00000000  1.0000000
  0.51  0.5000000  0.00000000  1.0000000
  0.52  0.5000000  0.00000000  1.0000000
  0.53  0.5000000  0.00000000  1.0000000
  0.54  0.5000000  0.00000000  1.0000000
  0.55  0.5000000  0.00000000  1.0000000
  0.56  0.5000000  0.00000000  1.0000000
  0.57  0.5000000  0.00000000  1.0000000
  0.58  0.5000000  0.00000000  1.0000000
  0.59  0.5000000  0.00000000  1.0000000
  0.60  0.5000000  0.00000000  1.0000000
  0.61  0.5000000  0.00000000  1.0000000
  0.62  0.5000000  0.00000000  1.0000000
  0.63  0.5000000  0.00000000  1.0000000
  0.64  0.5000000  0.00000000  1.0000000
  0.65  0.5000000  0.00000000  1.0000000
  0.66  0.5000000  0.00000000  1.0000000
  0.67  0.5000000  0.00000000  1.0000000
  0.68  0.5000000  0.00000000  1.0000000
  0.69  0.5000000  0.00000000  1.0000000
  0.70  0.5000000  0.00000000  1.0000000
  0.71  0.5000000  0.00000000  1.0000000
  0.72  0.5000000  0.00000000  1.0000000
  0.73  0.5000000  0.00000000  1.0000000
  0.74  0.5000000  0.00000000  1.0000000
  0.75  0.5000000  0.00000000  1.0000000
  0.76  0.5000000  0.00000000  1.0000000
  0.77  0.5000000  0.00000000  1.0000000
  0.78  0.5000000  0.00000000  1.0000000
  0.79  0.5000000  0.00000000  1.0000000
  0.80  0.5000000  0.00000000  1.0000000
  0.81  0.5000000  0.00000000  1.0000000
  0.82  0.5000000  0.00000000  1.0000000
  0.83  0.5000000  0.00000000  1.0000000
  0.84  0.5000000  0.00000000  1.0000000
  0.85  0.5000000  0.00000000  1.0000000
  0.86  0.5000000  0.00000000  1.0000000
  0.87  0.5000000  0.00000000  1.0000000
  0.88  0.5000000  0.00000000  1.0000000
  0.89  0.5000000  0.00000000  1.0000000
  0.90  0.5000000  0.00000000  1.0000000
  0.91  0.5000000  0.00000000  1.0000000
  0.92  0.5000000  0.00000000  1.0000000
  0.93  0.5000000  0.00000000  1.0000000
  0.94  0.5000000  0.00000000  1.0000000
  0.95  0.5000000  0.00000000  1.0000000
  0.96  0.5000000  0.00000000  1.0000000
  0.97  0.5000000  0.00000000  1.0000000
  0.98  0.5000000  0.00000000  1.0000000
  0.99  0.5000000  0.00000000  1.0000000
  1.00  0.5000000  0.00000000  1.0000000

ROC was used to select the optimal model using  the largest value.
The final value used for the model was cp = 0.01. 
