Stochastic Gradient Boosting 

518 samples
 16 predictor
  2 classes: 'HS', 'NHS' 

No pre-processing
Resampling: Cross-Validated (10 fold, repeated 3 times) 
Summary of sample sizes: 467, 466, 466, 466, 467, 466, ... 
Resampling results across tuning parameters:

  interaction.depth  n.minobsinnode  n.trees  ROC        Sens       Spec     
  1                   5              2000     0.7978085  0.1779915  0.9735043
  1                   5              2100     0.7987070  0.1831197  0.9717949
  1                   5              2200     0.7997699  0.2012821  0.9700855
  1                   5              2300     0.8006849  0.2192308  0.9683761
  1                   5              2400     0.8023449  0.2269231  0.9666667
  1                   5              2500     0.8024819  0.2297009  0.9658120
  1                   5              2600     0.8038297  0.2352564  0.9658120
  1                   5              2700     0.8044324  0.2480769  0.9649573
  1                   5              2800     0.8049693  0.2506410  0.9641026
  1                   5              2900     0.8060158  0.2559829  0.9615385
  1                   5              3000     0.8066787  0.2585470  0.9606838
  1                   5              3100     0.8073252  0.2692308  0.9598291
  1                   5              3200     0.8072595  0.2850427  0.9581197
  1                   5              3300     0.8081142  0.2876068  0.9572650
  1                   5              3400     0.8079882  0.2982906  0.9555556
  1                   5              3500     0.8081964  0.2982906  0.9547009
  1                   5              3600     0.8087223  0.3089744  0.9529915
  1                   5              3700     0.8090894  0.3141026  0.9495726
  1                   5              3800     0.8097524  0.3141026  0.9478632
  1                   5              3900     0.8097469  0.3192308  0.9478632
  1                   5              4000     0.8097907  0.3192308  0.9470085
  1                   5              4100     0.8101961  0.3297009  0.9470085
  1                   5              4200     0.8104646  0.3401709  0.9461538
  1                   5              4300     0.8102674  0.3455128  0.9461538
  1                   5              4400     0.8107276  0.3480769  0.9427350
  1                   5              4500     0.8107331  0.3559829  0.9418803
  1                   5              4600     0.8104536  0.3559829  0.9401709
  1                   5              4700     0.8106345  0.3613248  0.9401709
  1                   5              4800     0.8111604  0.3613248  0.9384615
  1                   5              4900     0.8116152  0.3664530  0.9376068
  1                   5              5000     0.8118782  0.3664530  0.9376068
  1                  10              2000     0.7996603  0.1728632  0.9752137
  1                  10              2100     0.8001644  0.1858974  0.9735043
  1                  10              2200     0.8013040  0.1961538  0.9717949
  1                  10              2300     0.8021039  0.2115385  0.9700855
  1                  10              2400     0.8032325  0.2217949  0.9683761
  1                  10              2500     0.8034243  0.2324786  0.9658120
  1                  10              2600     0.8042845  0.2378205  0.9658120
  1                  10              2700     0.8045529  0.2455128  0.9658120
  1                  10              2800     0.8054515  0.2532051  0.9641026
  1                  10              2900     0.8061144  0.2636752  0.9632479
  1                  10              3000     0.8070348  0.2720085  0.9615385
  1                  10              3100     0.8073745  0.2771368  0.9606838
  1                  10              3200     0.8080977  0.2850427  0.9581197
  1                  10              3300     0.8087716  0.2876068  0.9572650
  1                  10              3400     0.8094181  0.2957265  0.9529915
  1                  10              3500     0.8091442  0.2982906  0.9504274
  1                  10              3600     0.8094017  0.2982906  0.9487179
  1                  10              3700     0.8091497  0.3087607  0.9487179
  1                  10              3800     0.8090182  0.3115385  0.9470085
  1                  10              3900     0.8089634  0.3247863  0.9478632
  1                  10              4000     0.8092812  0.3299145  0.9461538
  1                  10              4100     0.8094894  0.3350427  0.9452991
  1                  10              4200     0.8096702  0.3427350  0.9444444
  1                  10              4300     0.8098510  0.3478632  0.9435897
  1                  10              4400     0.8100208  0.3478632  0.9435897
  1                  10              4500     0.8100263  0.3583333  0.9435897
  1                  10              4600     0.8103605  0.3634615  0.9427350
  1                  10              4700     0.8106947  0.3688034  0.9427350
  1                  10              4800     0.8112371  0.3713675  0.9418803
  1                  10              4900     0.8113577  0.3713675  0.9418803
  1                  10              5000     0.8118782  0.3741453  0.9418803
  2                   5              2000     0.8119165  0.2933761  0.9581197
  2                   5              2100     0.8130506  0.3012821  0.9564103
  2                   5              2200     0.8129082  0.3166667  0.9538462
  2                   5              2300     0.8139985  0.3192308  0.9529915
  2                   5              2400     0.8143875  0.3269231  0.9504274
  2                   5              2500     0.8148915  0.3320513  0.9495726
  2                   5              2600     0.8150285  0.3427350  0.9487179
  2                   5              2700     0.8150230  0.3508547  0.9461538
  2                   5              2800     0.8154230  0.3613248  0.9444444
  2                   5              2900     0.8156202  0.3638889  0.9435897
  2                   5              3000     0.8156805  0.3743590  0.9435897
  2                   5              3100     0.8154778  0.3743590  0.9427350
  2                   5              3200     0.8158065  0.3797009  0.9401709
  2                   5              3300     0.8155983  0.3822650  0.9393162
  2                   5              3400     0.8157353  0.3903846  0.9367521
  2                   5              3500     0.8161297  0.3929487  0.9358974
  2                   5              3600     0.8159982  0.4032051  0.9358974
  2                   5              3700     0.8155819  0.4057692  0.9358974
  2                   5              3800     0.8158284  0.4057692  0.9333333
  2                   5              3900     0.8146340  0.4083333  0.9333333
  2                   5              4000     0.8148422  0.4106838  0.9333333
  2                   5              4100     0.8148258  0.4106838  0.9324786
  2                   5              4200     0.8146285  0.4132479  0.9316239
  2                   5              4300     0.8146395  0.4158120  0.9316239
  2                   5              4400     0.8150449  0.4209402  0.9316239
  2                   5              4500     0.8151874  0.4209402  0.9316239
  2                   5              4600     0.8157681  0.4235043  0.9307692
  2                   5              4700     0.8159599  0.4209402  0.9290598
  2                   5              4800     0.8155599  0.4209402  0.9290598
  2                   5              4900     0.8155545  0.4209402  0.9290598
  2                   5              5000     0.8150888  0.4181624  0.9273504
  2                  10              2000     0.8123877  0.2959402  0.9589744
  2                  10              2100     0.8126397  0.3064103  0.9572650
  2                  10              2200     0.8132917  0.3115385  0.9547009
  2                  10              2300     0.8143820  0.3217949  0.9521368
  2                  10              2400     0.8148532  0.3243590  0.9521368
  2                  10              2500     0.8153189  0.3324786  0.9521368
  2                  10              2600     0.8155928  0.3508547  0.9504274
  2                  10              2700     0.8161352  0.3587607  0.9470085
  2                  10              2800     0.8163325  0.3638889  0.9470085
  2                  10              2900     0.8161407  0.3666667  0.9444444
  2                  10              3000     0.8166119  0.3692308  0.9427350
  2                  10              3100     0.8164092  0.3824786  0.9427350
  2                  10              3200     0.8164804  0.3878205  0.9418803
  2                  10              3300     0.8167379  0.3903846  0.9410256
  2                  10              3400     0.8166721  0.3980769  0.9401709
  2                  10              3500     0.8163927  0.4032051  0.9401709
  2                  10              3600     0.8161462  0.4057692  0.9384615
  2                  10              3700     0.8158010  0.4083333  0.9367521
  2                  10              3800     0.8154668  0.4108974  0.9358974
  2                  10              3900     0.8157407  0.4134615  0.9358974
  2                  10              4000     0.8158503  0.4134615  0.9367521
  2                  10              4100     0.8162393  0.4160256  0.9358974
  2                  10              4200     0.8163708  0.4134615  0.9358974
  2                  10              4300     0.8167160  0.4132479  0.9350427
  2                  10              4400     0.8166502  0.4158120  0.9350427
  2                  10              4500     0.8161681  0.4158120  0.9350427
  2                  10              4600     0.8159599  0.4183761  0.9358974
  2                  10              4700     0.8160256  0.4183761  0.9350427
  2                  10              4800     0.8163818  0.4209402  0.9350427
  2                  10              4900     0.8160366  0.4209402  0.9341880
  2                  10              5000     0.8158284  0.4235043  0.9333333

Tuning parameter 'shrinkage' was held constant at a value of 0.001
ROC was used to select the optimal model using  the largest value.
The final values used for the model were n.trees = 3300, interaction.depth = 2,
 shrinkage = 0.001 and n.minobsinnode = 10. 
