c<G>r<119>R<CYS> 1
c<G>r<120>R<VAL> 1
c<G>r<121>R<LYS> 1
c<G>r<123>R<THR> 1.25
c<G>r<124>R<PRO> 1
c<G>r<125>R<LEU> 1.28571
c<G>r<126>R<CYS> 1
c<G>r<200>R<VAL> 1
c<G>r<202>R<THR> 1
c<G>r<203>R<GLN> 2
c<G>r<204>R<ALA> 1
c<G>r<205>R<CYS> 1
c<G>r<257>R<THR> 1
c<G>r<278>R<THR> 1
c<G>r<279>R<ASP> 1.75
c<G>r<280>R<ASN> 1.57143
c<G>r<281>R<ALA> 1.4
c<G>r<282>R<LYS> 1
c<G>r<283>R<THR> 1
c<G>r<364>R<SER> 1
c<G>r<365>R<SER> 1.2
c<G>r<366>R<GLY> 1.5
c<G>r<367>R<GLY> 1
c<G>r<368>R<ASP> 1.6
c<G>r<370>R<GLU> 1.5
c<G>r<371>R<ILE> 1.8
c<G>r<419>R<ARG> 1.2
c<G>r<420>R<ILE> 1
c<G>r<421>R<LYS> 1.5
c<G>r<422>R<GLN> 1.71429
c<G>r<423>R<ILE> 1.5
c<G>r<425>R<ASN> 1.33333
c<G>r<426>R<MET> 1.5
c<G>r<427>R<TRP> 1.4
c<G>r<428>R<GLN> 1.5
c<G>r<429>R<LYS> 1.6
c<G>r<430>R<VAL> 1.16667
c<G>r<431>R<GLY> 1
c<G>r<432>R<LYS> 1
c<G>r<434>R<MET> 1
c<G>r<435>R<TYR> 1
c<G>r<437>R<PRO> 1
c<G>r<455>R<THR> 1
c<G>r<456>R<ARG> 2
c<G>r<457>R<ASP> 1
c<G>r<458>R<GLY> 1.5
c<G>r<459>R<GLY> 1
c<G>r<469>R<ARG> 1.66667
c<G>r<472>R<GLY> 1
c<G>r<473>R<GLY> 1.66667
c<G>r<474>R<ASP> 1.33333
c<G>r<475>R<MET> 1
c<G>r<476>R<ARG> 1
c<G>r<477>R<ASP> 1
c<G>r<776>R<NAG> 1
