"Metric";"Training_Set";"Testing_Set";"Independent"
"Accuracy";"0.806949806949807";"0.764705882352941";"0.750524109014675"
"Kappa";"0.395509499136442";"0.203051317614424";"0.20504453532015"
"AccuracyLower";"0.770280722317439";"0.703165865503";"0.721794129023901"
"AccuracyUpper";"0.840071614682691";"0.818997600669509";"0.777698249169"
"AccuracyNull";"0.752895752895753";"0.755656108597285";"0.758909853249476"
"AccuracyPValue";"0.00206566082906883";"0.412136004149062";"0.741238785107774"
"McnemarPValue";"1.15802680799292e-07";"1.71627356359427e-05";"7.36994169243431e-10"
"Sensitivity";"0.3984375";"0.222222222222222";"0.273913043478261"
"Specificity";"0.941025641025641";"0.940119760479042";"0.901933701657459"
"Pos Pred Value";"0.689189189189189";"0.545454545454545";"0.470149253731343"
"Neg Pred Value";"0.826576576576577";"0.78894472361809";"0.796341463414634"
"Precision";"0.689189189189189";"0.545454545454545";"0.470149253731343"
"Recall";"0.3984375";"0.222222222222222";"0.273913043478261"
"F1";"0.504950495049505";"0.315789473684211";"0.346153846153846"
"Prevalence";"0.247104247104247";"0.244343891402715";"0.241090146750524"
"Detection Rate";"0.0984555984555985";"0.0542986425339367";"0.0660377358490566"
"Detection Prevalence";"0.142857142857143";"0.0995475113122172";"0.140461215932914"
"Balanced Accuracy";"0.669731570512821";"0.581170991350632";"0.58792337256786"
"TP";"51";"12";"63"
"TN";"367";"157";"653"
"FP";"23";"10";"71"
"FN";"77";"42";"167"
