"Metric";"Training_Set";"Testing_Set";"Independent"
"Accuracy";"0.772102161100196";"0.719457013574661";"0.70335429769392"
"Kappa";"0.461149542774746";"0.285088176980069";"0.289464957759823"
"AccuracyLower";"0.73315379074767";"0.655277962468374";"0.673248529053065"
"AccuracyUpper";"0.807856221005931";"0.777642948582581";"0.73219877348125"
"AccuracyNull";"0.756385068762279";"0.755656108597285";"0.758909853249476"
"AccuracyPValue";"0.220394629778709";"0.906828681560656";"0.999962506819274"
"McnemarPValue";"8.61354931439655e-07";"0.253038116494755";"2.30070195246128e-08"
"Sensitivity";"0.75";"0.518518518518518";"0.591304347826087"
"Specificity";"0.779220779220779";"0.784431137724551";"0.738950276243094"
"Pos Pred Value";"0.52247191011236";"0.4375";"0.418461538461538"
"Neg Pred Value";"0.906344410876133";"0.834394904458599";"0.850556438791733"
"Precision";"0.52247191011236";"0.4375";"0.418461538461538"
"Recall";"0.75";"0.518518518518518";"0.591304347826087"
"F1";"0.615894039735099";"0.474576271186441";"0.49009009009009"
"Prevalence";"0.243614931237721";"0.244343891402715";"0.241090146750524"
"Detection Rate";"0.182711198428291";"0.126696832579186";"0.142557651991614"
"Detection Prevalence";"0.349705304518664";"0.289592760180996";"0.340670859538784"
"Balanced Accuracy";"0.76461038961039";"0.651474828121535";"0.66512731203459"
"TP";"93";"28";"136"
"TN";"300";"131";"535"
"FP";"85";"36";"189"
"FN";"31";"26";"94"
