"Metric";"Training_Set";"Testing_Set";"Independent"
"Accuracy";"0.806949806949807";"0.764705882352941";"0.736897274633124"
"Kappa";"0.420322291853178";"0.215348900723747";"0.177275382236729"
"AccuracyLower";"0.770280722317439";"0.703165865503";"0.70772850825498"
"AccuracyUpper";"0.840071614682691";"0.818997600669509";"0.764595441800293"
"AccuracyNull";"0.752895752895753";"0.755656108597285";"0.758909853249476"
"AccuracyPValue";"0.00206566082906883";"0.412136004149062";"0.947079570606576"
"McnemarPValue";"9.61926880352054e-05";"5.78099455742852e-05";"1.14520141934429e-07"
"Sensitivity";"0.453125";"0.240740740740741";"0.269565217391304"
"Specificity";"0.923076923076923";"0.934131736526946";"0.885359116022099"
"Pos Pred Value";"0.659090909090909";"0.541666666666667";"0.427586206896552"
"Neg Pred Value";"0.837209302325581";"0.791878172588833";"0.792336217552534"
"Precision";"0.659090909090909";"0.541666666666667";"0.427586206896552"
"Recall";"0.453125";"0.240740740740741";"0.269565217391304"
"F1";"0.537037037037037";"0.333333333333333";"0.330666666666667"
"Prevalence";"0.247104247104247";"0.244343891402715";"0.241090146750524"
"Detection Rate";"0.111969111969112";"0.0588235294117647";"0.0649895178197065"
"Detection Prevalence";"0.16988416988417";"0.108597285067873";"0.151991614255765"
"Balanced Accuracy";"0.688100961538462";"0.587436238633843";"0.577462166706702"
"TP";"58";"13";"62"
"TN";"360";"156";"641"
"FP";"30";"11";"83"
"FN";"70";"41";"168"
