"Metric";"Training_Set";"Testing_Set";"Independent"
"Accuracy";"0.795366795366795";"0.755656108597285";"0.752620545073375"
"Kappa";"0.366981784643763";"0.172399445214979";"0.222483147309095"
"AccuracyLower";"0.758017337252787";"0.693524016790306";"0.723961233069347"
"AccuracyUpper";"0.829305424042455";"0.810792027364133";"0.779710890610325"
"AccuracyNull";"0.752895752895753";"0.755656108597285";"0.758909853249476"
"AccuracyPValue";"0.0130025183003924";"0.536462433258084";"0.690371083486129"
"McnemarPValue";"1.94264813883255e-06";"2.45861367146638e-05";"1.48560548239035e-08"
"Sensitivity";"0.390625";"0.203703703703704";"0.295652173913043"
"Specificity";"0.928205128205128";"0.934131736526946";"0.897790055248619"
"Pos Pred Value";"0.641025641025641";"0.5";"0.47887323943662"
"Neg Pred Value";"0.822727272727273";"0.78391959798995";"0.800492610837439"
"Precision";"0.641025641025641";"0.5";"0.47887323943662"
"Recall";"0.390625";"0.203703703703704";"0.295652173913043"
"F1";"0.485436893203884";"0.289473684210526";"0.365591397849462"
"Prevalence";"0.247104247104247";"0.244343891402715";"0.241090146750524"
"Detection Rate";"0.0965250965250965";"0.0497737556561086";"0.0712788259958071"
"Detection Prevalence";"0.150579150579151";"0.0995475113122172";"0.148846960167715"
"Balanced Accuracy";"0.659415064102564";"0.568917720115325";"0.596721114580831"
"TP";"50";"11";"68"
"TN";"362";"156";"650"
"FP";"28";"11";"74"
"FN";"78";"43";"162"
