"Metric";"Training_Set";"Testing_Set";"Independent"
"Accuracy";"0.760314341846758";"0.728506787330317";"0.706498951781971"
"Kappa";"0.43862662496158";"0.339312406576981";"0.303337262797709"
"AccuracyLower";"0.720795342529251";"0.664793403152236";"0.676472800334656"
"AccuracyUpper";"0.796779182337104";"0.785977010817824";"0.735244214788006"
"AccuracyNull";"0.756385068762279";"0.755656108597285";"0.758909853249476"
"AccuracyPValue";"0.441871924690829";"0.845513020882486";"0.999908987716065"
"McnemarPValue";"2.46241798031061e-07";"0.0281858021479074";"1.5807474615061e-09"
"Sensitivity";"0.741935483870968";"0.611111111111111";"0.61304347826087"
"Specificity";"0.766233766233766";"0.766467065868264";"0.736187845303867"
"Pos Pred Value";"0.505494505494505";"0.458333333333333";"0.424698795180723"
"Neg Pred Value";"0.902140672782875";"0.859060402684564";"0.856913183279743"
"Precision";"0.505494505494505";"0.458333333333333";"0.424698795180723"
"Recall";"0.741935483870968";"0.611111111111111";"0.61304347826087"
"F1";"0.601307189542484";"0.523809523809524";"0.501779359430605"
"Prevalence";"0.243614931237721";"0.244343891402715";"0.241090146750524"
"Detection Rate";"0.180746561886051";"0.149321266968326";"0.147798742138365"
"Detection Prevalence";"0.357563850687623";"0.32579185520362";"0.348008385744235"
"Balanced Accuracy";"0.754084625052367";"0.688789088489687";"0.674615661782368"
"TP";"92";"33";"141"
"TN";"295";"128";"533"
"FP";"90";"39";"191"
"FN";"32";"21";"89"
